
PARAMETER MinOANight = 0.05 ..

##set1 BldgHasRes FALSE
##set1 BldgHasCom TRUE
##set1 BldgHasRefg FALSE
TITLE
LINE-1 = *Restaurant - Fast-Food DX_SZ*
..

"Entire Year" = RUN-PERIOD-PD
BEGIN-MONTH      = 1
BEGIN-DAY        = 1
BEGIN-YEAR       = 2009
END-MONTH        = 12
END-DAY          = 31
END-YEAR         = 2009
..

CoolingDesignDay_7 = DESIGN-DAY
   TYPE = COOLING
   DRYBULB-HIGH = {#PA("CDD_DBHi7")}
   DRYBULB-RANGE = {#PA("CDD_DBRange7")}
   HOUR-HIGH = 15
   HOUR-LOW = 5
   WETBULB-AT-HIGH = {#PA("CDD_WB7")}
   WIND-SPEED = 0
   CLOUD-AMOUNT = 0
   MONTH = 7
   DAY = {#PA("CDD_Day7")}
   NUMBER-OF-DAYS = 5
   ..
CoolingDesignDay_8 = DESIGN-DAY
   TYPE = COOLING
   DRYBULB-HIGH = {#PA("CDD_DBHi8")}
   DRYBULB-RANGE = {#PA("CDD_DBRange8")}
   HOUR-HIGH = 15
   HOUR-LOW = 5
   WETBULB-AT-HIGH = {#PA("CDD_WB8")}
   WIND-SPEED = 0
   CLOUD-AMOUNT = 0
   MONTH = 8
   DAY = {#PA("CDD_Day8")}
   NUMBER-OF-DAYS = 5
   ..
CoolingDesignDay_9 = DESIGN-DAY
   TYPE = COOLING
   DRYBULB-HIGH = {#PA("CDD_DBHi9")}
   DRYBULB-RANGE = {#PA("CDD_DBRange9")}
   HOUR-HIGH = 15
   HOUR-LOW = 5
   WETBULB-AT-HIGH = {#PA("CDD_WB9")}
   WIND-SPEED = 0
   CLOUD-AMOUNT = 0
   MONTH = 9
   DAY = {#PA("CDD_Day9")}
   NUMBER-OF-DAYS = 5
   ..
CoolingDesignDay_10 = DESIGN-DAY
   TYPE = COOLING
   DRYBULB-HIGH = {#PA("CDD_DBHi10")}
   DRYBULB-RANGE = {#PA("CDD_DBRange10")}
   HOUR-HIGH = 15
   HOUR-LOW = 5
   WETBULB-AT-HIGH = {#PA("CDD_WB10")}
   WIND-SPEED = 0
   CLOUD-AMOUNT = 0
   MONTH = 10
   DAY = {#PA("CDD_Day10")}
   NUMBER-OF-DAYS = 5
   ..
HeatingDesignDay_1 = DESIGN-DAY
   TYPE = HEATING
   DRYBULB-HIGH = {#PA("HDD_DBHi1")}
   DRYBULB-RANGE = {#PA("HDD_DBRange1")}
   HOUR-HIGH = 15
   HOUR-LOW = 6
   WETBULB-AT-HIGH = {#PA("HDD_WB1")}
   WIND-SPEED = {#PA("HDD_WindSpd1")}
   CLOUD-AMOUNT = {#PA("HDD_CloudAmt1")}
   MONTH = 1
   DAY = {#PA("HDD_Day1")}
   NUMBER-OF-DAYS = 5
   ..

"Standard US Holidays" = HOLIDAYS
LIBRARY-ENTRY "US"
..

"Site Data" = SITE-PARAMETERS
   ALTITUDE = {#PA("Elevation")}
..

"Building Data" = BUILD-PARAMETERS
HOLIDAYS         = "Standard US Holidays"
..





$ ---------------------------------------------------------
$              Glass Types
$ ---------------------------------------------------------

##if #[BldgHasCom[] EQS TRUE]
GlassTypeNorth = GLASS-TYPE
   TYPE = GLASS-TYPE-CODE
   GLASS-TYPE-CODE = {#SI(#PA("ComN_WinCode"),"GLASS-TYPE","GLASS-TYPE-CODE")}
   ..
GlassTypeNonNorth = GLASS-TYPE
   TYPE = GLASS-TYPE-CODE
   GLASS-TYPE-CODE = {#SI(#PA("ComO_WinCode"),"GLASS-TYPE","GLASS-TYPE-CODE")}
   ..
##endif
##if #[BldgHasRes[] EQS TRUE]
GlassTypeResNorth = GLASS-TYPE
   TYPE = GLASS-TYPE-CODE
   GLASS-TYPE-CODE = {#SI(#PA("DwlgN_WinCode"),"GLASS-TYPE","GLASS-TYPE-CODE")}
   ..
GlassTypeResNonNorth = GLASS-TYPE
   TYPE = GLASS-TYPE-CODE
   GLASS-TYPE-CODE = {#SI(#PA("DwlgO_WinCode"),"GLASS-TYPE","GLASS-TYPE-CODE")}
   ..
##endif

"Baseline Data" = BASELINE
..


$ *********************************************************
$ **                                                     **
$ **      Floors / Spaces / Walls / Windows / Doors      **
$ **                                                     **
$ *********************************************************

PARAMETER ComEWLayR = 2.93 ..
PARAMETER ComRoofLayR = 2.39 ..
PARAMETER UFR_CC06Tile01 = 11.3 ..
PARAMETER UFR_CC06Tile02 = 2.6 ..
PARAMETER UFR_CC06Tile03 = 1000 ..
PARAMETER UFR_CC06Carpet01 = 1000 ..

FloorPolyDN = POLYGON
   V1 = ( 0, 0 )
   V2 = ( 67.626, 0 )
   V3 = ( 67.626, 67.626 )
   V4 = ( 0, 67.626 )
   ..
FloorPolyKT = POLYGON
   V1 = ( 67.626, 0 )
   V2 = ( 127.71, 0 )
   V3 = ( 127.71, 60.08 )
   V4 = ( 67.626, 60.08 )
   ..
FloorPolyLW = POLYGON
   V1 = ( 127.71, 0 )
   V2 = ( 155.08, 0 )
   V3 = ( 155.08, 27.37 )
   V4 = ( 127.71, 27.37 )
   ..
FloorPolyL = POLYGON
   V1 = ( 155.08, 0 )
   V2 = ( 192.14, 0 )
   V3 = ( 192.14, 37.067 )
   V4 = ( 155.08, 37.067 )
   ..
DN_Din_A_Poly = POLYGON
   V1 = ( 0, 0 )
   V2 = ( 32.203, 0 )
   V3 = ( 32.203, 32.203 )
   V4 = ( 0, 32.203 )
   ..
KT_Ktchn_A_Poly = POLYGON
   V1 = ( 0, 0 )
   V2 = ( 28.61, 0 )
   V3 = ( 28.61, 28.61 )
   V4 = ( 0, 28.61 )
   ..
LW_LobWait_A_Poly = POLYGON
   V1 = ( 0, 0 )
   V2 = ( 13.033, 0 )
   V3 = ( 13.033, 13.033 )
   V4 = ( 0, 13.033 )
   ..
L_Stock_C_Poly = POLYGON
   V1 = ( 0, 0 )
   V2 = ( 14.417, 0 )
   V3 = ( 14.417, 14.417 )
   V4 = ( 0, 14.417 )
   ..
L_Restrm_C_Poly = POLYGON
   V1 = ( 0, 0 )
   V2 = ( 11.906, 0 )
   V3 = ( 11.906, 11.906 )
   V4 = ( 0, 11.906 )
   ..
L_OffGen_C_Poly = POLYGON
   V1 = ( 0, 0 )
   V2 = ( 9.4128, 0 )
   V3 = ( 9.4128, 9.4128 )
   V4 = ( 0, 9.4128 )
   ..
L_Cordr_C_Poly = POLYGON
   V1 = ( 0, 0 )
   V2 = ( 6.0353, 0 )
   V3 = ( 6.0353, 6.0353 )
   V4 = ( 0, 6.0353 )
   ..
Floor_DN = FLOOR
   SHAPE            = POLYGON
   POLYGON = FloorPolyDN
   FLOOR-HEIGHT = 13
   SPACE-HEIGHT = 9
   ..
DN_Din_A = SPACE
   SHAPE            = POLYGON
   ZONE-TYPE        = CONDITIONED
   C-ZONE-TYPE = CONDITIONED
   POLYGON = DN_Din_A_Poly
   LOCATION = FLOOR-V1
   FLOOR-MULTIPLIER = 1
   C-ACTIVITY-DESC = "Dining"
   C-PERIM-A = 837
   C-ISRES = 0
   INF-SCHEDULE = { if(#L("C-PERIM-A")>1.0) then 
     #SI("D_RFF_All_P_Inf_Yr","SPACE","INF-SCHEDULE")
      else #SI("D_RFF_All_C_Inf_Yr","SPACE","INF-SCHEDULE") endif }
   INF-METHOD       = AIR-CHANGE
   INF-FLOW/AREA = {if(#L("C-ZONE-TYPE") == #SI("CRAWL","SPACE","C-ZONE-TYPE"))
      then 0.075 else if(#L("C-PERIM-A") < 1.0)
      then 0.001 else 0.038 * #L("C-PERIM-A") / #L("AREA") endif endif }
   PEOPLE-SCHEDULE = ( "D_RFF_Din_Occup_Yr" )
   AREA/PERSON = ( 30 )
   PEOPLE-HG-LAT = ( 275 )
   PEOPLE-HG-SENS = ( 275 )
   LIGHTING-SCHEDUL = ( 
      "D17_RFF_Din_LF_Yr",
      "D17_RFF_Din_CFL_Yr",
      "D17_RFF_Din_HB_Yr",
      "D_RFF_Din_LitSp_Yr",
      "D_RFF_Din_LitEx_Yr")
   C-LTG-APPLIC = { if ((#L("C-ISRES") > 0) .and.
      (#PA("LtgMsrApplic") == "RES" .or. #PA("LtgMsrApplic") == "ALL")) then 1
      else if( (#L("C-ISRES") == 0) .and. 
      (#PA("LtgMsrApplic") == "COM" .or. #PA("LtgMsrApplic") == "ALL")) then 1
      else if (#PA("LtgMsrApplic") == #L("C-ACTIVITY-DESC",1)) then 1
      else 0 endif endif endif }
   LIGHTING-W/AREA  = ( 
     {#PA("Dining_LWSF")*0.437778
        *(1.0-#PA("LtgSav_LF")*#L("C-LTG-APPLIC"))},
     {#PA("Dining_LWSF")*0.2547
        *(1.0-#PA("LtgSav_CFL")*#L("C-LTG-APPLIC"))},
     {#PA("Dining_LWSF")*0.215622
        *(1.0-#PA("LtgSav_HB")*#L("C-LTG-APPLIC"))},
     {#PA("Dining_LWSF")*0.081
        *(1.0-#PA("LtgSav_SP")*#L("C-LTG-APPLIC"))},
     {#PA("Dining_LWSF")*0.0109
        *(1.0-#PA("LtgSav_EX")*#L("C-LTG-APPLIC"))}
   )
   EQUIP-SCHEDULE = ( "D_RFF_Din_Misc_Yr" )
   EQUIPMENT-W/AREA = ( { #PA("Dining_EWSF") })
   EQUIP-LATENT     = ( 0 )
   EQUIP-SENSIBLE     = ( 1 )

   LIGHT-TO-SPACE = (0.94,0.82,0.82,0.8,1)
   LIGHT-TO-OTHER = (0.06,0.18,0.18,0.2,0)
   LIGHT-TO-RETURN = (0,0,0,0,0)
   LIGHT-RAD-FRAC = (0.55,0.66,0.66,0.71,0.71)
   OTHER-RAD-FRAC = (0.09,0.09,0.09,0.09,0)
   LIGHT-HEAT-TO = ("DN_Din_A_Pl", "DN_Din_A_Pl",
     "DN_Din_A_Pl", "DN_Din_A_Pl","DN_Din_A_Pl")
   ..
EW1_DN_Din_A = EXTERIOR-WALL
   SHADING-SURFACE  = NO
   LOCATION = SPACE-V1
   CONSTRUCTION = Cons_EWallBrickConc
   WIDTH = 16.1
   ..
Win1_EW1_DN_Din_A = WINDOW
   GLASS-TYPE = GlassTypeNonNorth
   X = 1
   Y = 2.5
   C-UNIT-H = 5.5
   C-UNIT-W = 4.9747
   FRAME-CONDUCT = {1 / (1/#PA("ComO_WinFrmU") - 0.197)}
   FRAME-WIDTH = {(#L("C-UNIT-H")+#L("C-UNIT-W")
      -SQRT((#L("C-UNIT-H")+#L("C-UNIT-W"))**2
     -4*#L("C-UNIT-H")*#L("C-UNIT-W")*#PA("ComO_WinFrmFrac")))/4}
   HEIGHT = {#L("C-UNIT-H") - 2*#L("FRAME-WIDTH")}
   WIDTH = { #L("C-UNIT-W") - 2*#L("FRAME-WIDTH")}
   ..
Win2_EW1_DN_Din_A = WINDOW
   GLASS-TYPE = GlassTypeNonNorth
   X = 5.5633
   Y = 2.5
   C-UNIT-H = 5.5
   C-UNIT-W = 4.9747
   FRAME-CONDUCT = {1 / (1/#PA("ComO_WinFrmU") - 0.197)}
   FRAME-WIDTH = {(#L("C-UNIT-H")+#L("C-UNIT-W")
      -SQRT((#L("C-UNIT-H")+#L("C-UNIT-W"))**2
     -4*#L("C-UNIT-H")*#L("C-UNIT-W")*#PA("ComO_WinFrmFrac")))/4}
   HEIGHT = {#L("C-UNIT-H") - 2*#L("FRAME-WIDTH")}
   WIDTH = { #L("C-UNIT-W") - 2*#L("FRAME-WIDTH")}
   ..
Win3_EW1_DN_Din_A = WINDOW
   GLASS-TYPE = GlassTypeNonNorth
   X = 10.127
   Y = 2.5
   C-UNIT-H = 5.5
   C-UNIT-W = 4.9747
   FRAME-CONDUCT = {1 / (1/#PA("ComO_WinFrmU") - 0.197)}
   FRAME-WIDTH = {(#L("C-UNIT-H")+#L("C-UNIT-W")
      -SQRT((#L("C-UNIT-H")+#L("C-UNIT-W"))**2
     -4*#L("C-UNIT-H")*#L("C-UNIT-W")*#PA("ComO_WinFrmFrac")))/4}
   HEIGHT = {#L("C-UNIT-H") - 2*#L("FRAME-WIDTH")}
   WIDTH = { #L("C-UNIT-W") - 2*#L("FRAME-WIDTH")}
   ..
EW2_DN_Din_A = EXTERIOR-WALL
   SHADING-SURFACE  = NO
   LOCATION = SPACE-V2
   CONSTRUCTION = Cons_EWallBrickConc
   WIDTH = 16.1
   ..
Win1_EW2_DN_Din_A = WINDOW
   GLASS-TYPE = GlassTypeNonNorth
   X = 1
   Y = 2.5
   C-UNIT-H = 5.5
   C-UNIT-W = 4.9747
   FRAME-CONDUCT = {1 / (1/#PA("ComO_WinFrmU") - 0.197)}
   FRAME-WIDTH = {(#L("C-UNIT-H")+#L("C-UNIT-W")
      -SQRT((#L("C-UNIT-H")+#L("C-UNIT-W"))**2
     -4*#L("C-UNIT-H")*#L("C-UNIT-W")*#PA("ComO_WinFrmFrac")))/4}
   HEIGHT = {#L("C-UNIT-H") - 2*#L("FRAME-WIDTH")}
   WIDTH = { #L("C-UNIT-W") - 2*#L("FRAME-WIDTH")}
   ..
Win2_EW2_DN_Din_A = WINDOW
   GLASS-TYPE = GlassTypeNonNorth
   X = 5.5633
   Y = 2.5
   C-UNIT-H = 5.5
   C-UNIT-W = 4.9747
   FRAME-CONDUCT = {1 / (1/#PA("ComO_WinFrmU") - 0.197)}
   FRAME-WIDTH = {(#L("C-UNIT-H")+#L("C-UNIT-W")
      -SQRT((#L("C-UNIT-H")+#L("C-UNIT-W"))**2
     -4*#L("C-UNIT-H")*#L("C-UNIT-W")*#PA("ComO_WinFrmFrac")))/4}
   HEIGHT = {#L("C-UNIT-H") - 2*#L("FRAME-WIDTH")}
   WIDTH = { #L("C-UNIT-W") - 2*#L("FRAME-WIDTH")}
   ..
Win3_EW2_DN_Din_A = WINDOW
   GLASS-TYPE = GlassTypeNonNorth
   X = 10.127
   Y = 2.5
   C-UNIT-H = 5.5
   C-UNIT-W = 4.9747
   FRAME-CONDUCT = {1 / (1/#PA("ComO_WinFrmU") - 0.197)}
   FRAME-WIDTH = {(#L("C-UNIT-H")+#L("C-UNIT-W")
      -SQRT((#L("C-UNIT-H")+#L("C-UNIT-W"))**2
     -4*#L("C-UNIT-H")*#L("C-UNIT-W")*#PA("ComO_WinFrmFrac")))/4}
   HEIGHT = {#L("C-UNIT-H") - 2*#L("FRAME-WIDTH")}
   WIDTH = { #L("C-UNIT-W") - 2*#L("FRAME-WIDTH")}
   ..
EW3_DN_Din_A = EXTERIOR-WALL
   SHADING-SURFACE  = NO
   LOCATION = SPACE-V3
   CONSTRUCTION = Cons_EWallBrickConc
   WIDTH = 16.1
   ..
Win1_EW3_DN_Din_A = WINDOW
   GLASS-TYPE = GlassTypeNorth
   X = 1
   Y = 2.5
   C-UNIT-H = 5.5
   C-UNIT-W = 4.9747
   FRAME-CONDUCT = {1 / (1/#PA("ComN_WinFrmU") - 0.197)}
   FRAME-ABS = 0.7
   FRAME-WIDTH = {(#L("C-UNIT-H")+#L("C-UNIT-W")
      -SQRT((#L("C-UNIT-H")+#L("C-UNIT-W"))**2
     -4*#L("C-UNIT-H")*#L("C-UNIT-W")*#PA("ComN_WinFrmFrac")))/4}
   HEIGHT = {#L("C-UNIT-H") - 2*#L("FRAME-WIDTH")}
   WIDTH = { #L("C-UNIT-W") - 2*#L("FRAME-WIDTH")}
   ..
Win2_EW3_DN_Din_A = WINDOW
   GLASS-TYPE = GlassTypeNorth
   X = 5.5633
   Y = 2.5
   C-UNIT-H = 5.5
   C-UNIT-W = 4.9747
   FRAME-CONDUCT = {1 / (1/#PA("ComN_WinFrmU") - 0.197)}
   FRAME-ABS = 0.7
   FRAME-WIDTH = {(#L("C-UNIT-H")+#L("C-UNIT-W")
      -SQRT((#L("C-UNIT-H")+#L("C-UNIT-W"))**2
     -4*#L("C-UNIT-H")*#L("C-UNIT-W")*#PA("ComN_WinFrmFrac")))/4}
   HEIGHT = {#L("C-UNIT-H") - 2*#L("FRAME-WIDTH")}
   WIDTH = { #L("C-UNIT-W") - 2*#L("FRAME-WIDTH")}
   ..
Win3_EW3_DN_Din_A = WINDOW
   GLASS-TYPE = GlassTypeNorth
   X = 10.127
   Y = 2.5
   C-UNIT-H = 5.5
   C-UNIT-W = 4.9747
   FRAME-CONDUCT = {1 / (1/#PA("ComN_WinFrmU") - 0.197)}
   FRAME-ABS = 0.7
   FRAME-WIDTH = {(#L("C-UNIT-H")+#L("C-UNIT-W")
      -SQRT((#L("C-UNIT-H")+#L("C-UNIT-W"))**2
     -4*#L("C-UNIT-H")*#L("C-UNIT-W")*#PA("ComN_WinFrmFrac")))/4}
   HEIGHT = {#L("C-UNIT-H") - 2*#L("FRAME-WIDTH")}
   WIDTH = { #L("C-UNIT-W") - 2*#L("FRAME-WIDTH")}
   ..
EW4_DN_Din_A = EXTERIOR-WALL
   SHADING-SURFACE  = NO
   LOCATION = SPACE-V4
   CONSTRUCTION = Cons_EWallBrickConc
   WIDTH = 16.1
   ..
Win1_EW4_DN_Din_A = WINDOW
   GLASS-TYPE = GlassTypeNonNorth
   X = 1
   Y = 2.5
   C-UNIT-H = 5.5
   C-UNIT-W = 4.9747
   FRAME-CONDUCT = {1 / (1/#PA("ComO_WinFrmU") - 0.197)}
   FRAME-WIDTH = {(#L("C-UNIT-H")+#L("C-UNIT-W")
      -SQRT((#L("C-UNIT-H")+#L("C-UNIT-W"))**2
     -4*#L("C-UNIT-H")*#L("C-UNIT-W")*#PA("ComO_WinFrmFrac")))/4}
   HEIGHT = {#L("C-UNIT-H") - 2*#L("FRAME-WIDTH")}
   WIDTH = { #L("C-UNIT-W") - 2*#L("FRAME-WIDTH")}
   ..
Win2_EW4_DN_Din_A = WINDOW
   GLASS-TYPE = GlassTypeNonNorth
   X = 5.5633
   Y = 2.5
   C-UNIT-H = 5.5
   C-UNIT-W = 4.9747
   FRAME-CONDUCT = {1 / (1/#PA("ComO_WinFrmU") - 0.197)}
   FRAME-WIDTH = {(#L("C-UNIT-H")+#L("C-UNIT-W")
      -SQRT((#L("C-UNIT-H")+#L("C-UNIT-W"))**2
     -4*#L("C-UNIT-H")*#L("C-UNIT-W")*#PA("ComO_WinFrmFrac")))/4}
   HEIGHT = {#L("C-UNIT-H") - 2*#L("FRAME-WIDTH")}
   WIDTH = { #L("C-UNIT-W") - 2*#L("FRAME-WIDTH")}
   ..
Win3_EW4_DN_Din_A = WINDOW
   GLASS-TYPE = GlassTypeNonNorth
   X = 10.127
   Y = 2.5
   C-UNIT-H = 5.5
   C-UNIT-W = 4.9747
   FRAME-CONDUCT = {1 / (1/#PA("ComO_WinFrmU") - 0.197)}
   FRAME-WIDTH = {(#L("C-UNIT-H")+#L("C-UNIT-W")
      -SQRT((#L("C-UNIT-H")+#L("C-UNIT-W"))**2
     -4*#L("C-UNIT-H")*#L("C-UNIT-W")*#PA("ComO_WinFrmFrac")))/4}
   HEIGHT = {#L("C-UNIT-H") - 2*#L("FRAME-WIDTH")}
   WIDTH = { #L("C-UNIT-W") - 2*#L("FRAME-WIDTH")}
   ..
IWm1_DN_Din_A = INTERIOR-WALL
   INT-WALL-TYPE = ADIABATIC
   CONSTRUCTION = Cons_IWallLite
   LOCATION = SPACE-V3
   WIDTH = 7.5
   ..
IWm2_DN_Din_A = INTERIOR-WALL
   INT-WALL-TYPE = ADIABATIC
   CONSTRUCTION = Cons_IWallLite
   LOCATION = SPACE-V2
   WIDTH = 7.5
   ..
IWm3_DN_Din_A = INTERIOR-WALL
   INT-WALL-TYPE = ADIABATIC
   CONSTRUCTION = Cons_IWallLite
   LOCATION = SPACE-V4
   WIDTH = 7.5
   ..
IWm4_DN_Din_A = INTERIOR-WALL
   INT-WALL-TYPE = ADIABATIC
   CONSTRUCTION = Cons_IWallLite
   LOCATION = SPACE-V1
   WIDTH = 7.5
   ..
IWb1_DN_Din_A = INTERIOR-WALL
   INT-WALL-TYPE = STANDARD
   CONSTRUCTION = Cons_IWallLite
   LOCATION = SPACE-V3
   NEXT-TO = KT_Ktchn_A
   WIDTH = 16.1
   X = 64.4
   ..
UFlr_DN_Din_A = UNDERGROUND-WALL
   CONSTRUCTION = Cons_UFictCC06Tile01
   LOCATION         = BOTTOM
   ..
DN_Din_A_Pl = SPACE
   POLYGON = DN_Din_A_Poly
   SHAPE            = POLYGON
   ZONE-TYPE        = UNCONDITIONED
   C-ZONE-TYPE = PLENUM
   LOCATION = FLOOR-V1
   FLOOR-MULTIPLIER = 1
   ..
EW1_DN_Din_A_Pl = EXTERIOR-WALL
   SHADING-SURFACE  = NO
   LOCATION = SPACE-V1
   CONSTRUCTION = Cons_EWallBrickConc
   WIDTH = 16.1
   ..
EW2_DN_Din_A_Pl = EXTERIOR-WALL
   SHADING-SURFACE  = NO
   LOCATION = SPACE-V2
   CONSTRUCTION = Cons_EWallBrickConc
   WIDTH = 16.1
   ..
EW3_DN_Din_A_Pl = EXTERIOR-WALL
   SHADING-SURFACE  = NO
   LOCATION = SPACE-V3
   CONSTRUCTION = Cons_EWallBrickConc
   WIDTH = 16.1
   ..
EW4_DN_Din_A_Pl = EXTERIOR-WALL
   SHADING-SURFACE  = NO
   LOCATION = SPACE-V4
   CONSTRUCTION = Cons_EWallBrickConc
   WIDTH = 16.1
   ..
Roof_DN_Din_A = EXTERIOR-WALL
   SHADING-SURFACE  = NO
   LOCATION = TOP
   CONSTRUCTION = Cons_RoofPlywdIns
   ..
IWb1_DN_Din_A_Pl = INTERIOR-WALL
   INT-WALL-TYPE = STANDARD
   CONSTRUCTION = Cons_IWallLite
   LOCATION = SPACE-V3
   NEXT-TO = KT_Ktchn_A
   WIDTH = 16.1
   X = 64.4
   ..
Floor_KT = FLOOR
   SHAPE            = POLYGON
   POLYGON = FloorPolyKT
   FLOOR-HEIGHT = 13
   SPACE-HEIGHT = 13
   ..
KT_Ktchn_A = SPACE
   SHAPE            = POLYGON
   ZONE-TYPE        = CONDITIONED
   C-ZONE-TYPE = CONDITIONED
   POLYGON = KT_Ktchn_A_Poly
   LOCATION = FLOOR-V1
   FLOOR-MULTIPLIER = 1
   C-ACTIVITY-DESC = "Kitchen"
   C-PERIM-A = 669
   C-ISRES = 0
   INF-SCHEDULE = { if(#L("C-PERIM-A")>1.0) then 
     #SI("D_RFF_All_P_Inf_Yr","SPACE","INF-SCHEDULE")
      else #SI("D_RFF_All_C_Inf_Yr","SPACE","INF-SCHEDULE") endif }
   INF-METHOD       = AIR-CHANGE
   INF-FLOW/AREA = {if(#L("C-ZONE-TYPE") == #SI("CRAWL","SPACE","C-ZONE-TYPE"))
      then 0.075 else if(#L("C-PERIM-A") < 1.0)
      then 0.001 else 0.038 * #L("C-PERIM-A") / #L("AREA") endif endif }
   PEOPLE-SCHEDULE = ( "D_RFF_Ktchn_Occup_Yr" )
   AREA/PERSON = ( 400 )
   PEOPLE-HG-LAT = ( 475 )
   PEOPLE-HG-SENS = ( 275 )
   LIGHTING-SCHEDUL = ( 
      "D17_RFF_Ktchn_LF_Yr",
      "D17_RFF_Ktchn_CFL_Yr",
      "D_Always_Zero_Yr",
      "D_RFF_Ktchn_LitSp_Yr",
      "D_RFF_Ktchn_LitEx_Yr")
   C-LTG-APPLIC = { if ((#L("C-ISRES") > 0) .and.
      (#PA("LtgMsrApplic") == "RES" .or. #PA("LtgMsrApplic") == "ALL")) then 1
      else if( (#L("C-ISRES") == 0) .and. 
      (#PA("LtgMsrApplic") == "COM" .or. #PA("LtgMsrApplic") == "ALL")) then 1
      else if (#PA("LtgMsrApplic") == #L("C-ACTIVITY-DESC",1)) then 1
      else 0 endif endif endif }
   LIGHTING-W/AREA  = ( 
     {#PA("Kitchen_LWSF")*0.75
        *(1.0-#PA("LtgSav_LF")*#L("C-LTG-APPLIC"))},
     {#PA("Kitchen_LWSF")*0.125
        *(1.0-#PA("LtgSav_CFL")*#L("C-LTG-APPLIC"))},
     {#PA("Kitchen_LWSF")*0
        *(1.0-#PA("LtgSav_HB")*#L("C-LTG-APPLIC"))},
     {#PA("Kitchen_LWSF")*0.11
        *(1.0-#PA("LtgSav_SP")*#L("C-LTG-APPLIC"))},
     {#PA("Kitchen_LWSF")*0.015
        *(1.0-#PA("LtgSav_EX")*#L("C-LTG-APPLIC"))}
   )
   EQUIP-SCHEDULE = ( "D_RFF_Ktchn_Misc_Yr", "D17_RFF_Ktchn_Elec_Yr" )
   EQUIPMENT-W/AREA = ( { #PA("Kitchen_EWSF") }, 3.68)
   EQUIP-LATENT     = ( 0 , 0)
   EQUIP-SENSIBLE     = ( 1 , 1)
   SOURCE-POWER = ( 5211 )
   SOURCE-TYPE = ( GAS )
   SOURCE-LATENT = ( 0.32 )
   SOURCE-SENSIBLE = ( 0.05 )
   SOURCE-SCHEDULE = ( "D17_RFF_Ktchn_Gas_Yr" )

   LIGHT-RAD-FRAC = (0.63,0.7,0.7,0.71,0.71)
   ..
EW1_KT_Ktchn_A = EXTERIOR-WALL
   SHADING-SURFACE  = NO
   LOCATION = SPACE-V1
   CONSTRUCTION = Cons_EWallBrickConc
   WIDTH = 12.87
   ..
EW2_KT_Ktchn_A = EXTERIOR-WALL
   SHADING-SURFACE  = NO
   LOCATION = SPACE-V2
   CONSTRUCTION = Cons_EWallBrickConc
   WIDTH = 12.87
   ..
EW3_KT_Ktchn_A = EXTERIOR-WALL
   SHADING-SURFACE  = NO
   LOCATION = SPACE-V3
   CONSTRUCTION = Cons_EWallBrickConc
   WIDTH = 12.87
   ..
EW4_KT_Ktchn_A = EXTERIOR-WALL
   SHADING-SURFACE  = NO
   LOCATION = SPACE-V4
   CONSTRUCTION = Cons_EWallBrickConc
   WIDTH = 12.87
   ..
IWm1_KT_Ktchn_A = INTERIOR-WALL
   INT-WALL-TYPE = ADIABATIC
   CONSTRUCTION = Cons_IWallLite
   LOCATION = SPACE-V3
   WIDTH = 4.5
   ..
IWm2_KT_Ktchn_A = INTERIOR-WALL
   INT-WALL-TYPE = ADIABATIC
   CONSTRUCTION = Cons_IWallLite
   LOCATION = SPACE-V2
   WIDTH = 4.5
   ..
IWm3_KT_Ktchn_A = INTERIOR-WALL
   INT-WALL-TYPE = ADIABATIC
   CONSTRUCTION = Cons_IWallLite
   LOCATION = SPACE-V4
   WIDTH = 4.5
   ..
IWm4_KT_Ktchn_A = INTERIOR-WALL
   INT-WALL-TYPE = ADIABATIC
   CONSTRUCTION = Cons_IWallLite
   LOCATION = SPACE-V1
   WIDTH = 4.5
   ..
IWb1_KT_Ktchn_A = INTERIOR-WALL
   INT-WALL-TYPE = STANDARD
   CONSTRUCTION = Cons_IWallLite
   LOCATION = SPACE-V3
   NEXT-TO = LW_LobWait_A
   WIDTH = 14.3
   X = 51.5
   ..
Roof_KT_Ktchn_A = EXTERIOR-WALL
   SHADING-SURFACE  = NO
   LOCATION = TOP
   CONSTRUCTION = Cons_RoofPlywdIns
   ..
UFlr_KT_Ktchn_A = UNDERGROUND-WALL
   CONSTRUCTION = Cons_UFictCC06Tile01
   LOCATION         = BOTTOM
   ..
Floor_LW = FLOOR
   SHAPE            = POLYGON
   POLYGON = FloorPolyLW
   FLOOR-HEIGHT = 13
   SPACE-HEIGHT = 9
   ..
LW_LobWait_A = SPACE
   SHAPE            = POLYGON
   ZONE-TYPE        = CONDITIONED
   C-ZONE-TYPE = CONDITIONED
   POLYGON = LW_LobWait_A_Poly
   LOCATION = FLOOR-V1
   FLOOR-MULTIPLIER = 1
   C-ACTIVITY-DESC = "LobbyWaiting"
   C-PERIM-A = 339
   C-ISRES = 0
   INF-SCHEDULE = { if(#L("C-PERIM-A")>1.0) then 
     #SI("D_RFF_All_P_Inf_Yr","SPACE","INF-SCHEDULE")
      else #SI("D_RFF_All_C_Inf_Yr","SPACE","INF-SCHEDULE") endif }
   INF-METHOD       = AIR-CHANGE
   INF-FLOW/AREA = {if(#L("C-ZONE-TYPE") == #SI("CRAWL","SPACE","C-ZONE-TYPE"))
      then 0.075 else if(#L("C-PERIM-A") < 1.0)
      then 0.001 else 0.038 * #L("C-PERIM-A") / #L("AREA") endif endif }
   PEOPLE-SCHEDULE = ( "D_RFF_Din_Occup_Yr" )
   AREA/PERSON = ( 115 )
   PEOPLE-HG-LAT = ( 250 )
   PEOPLE-HG-SENS = ( 250 )
   LIGHTING-SCHEDUL = ( 
      "D17_RFF_LobWt_LF_Yr",
      "D17_RFF_LobWt_CFL_Yr",
      "D17_RFF_LobWt_HB_Yr",
      "D_RFF_Din_LitSp_Yr",
      "D_RFF_Din_LitEx_Yr")
   C-LTG-APPLIC = { if ((#L("C-ISRES") > 0) .and.
      (#PA("LtgMsrApplic") == "RES" .or. #PA("LtgMsrApplic") == "ALL")) then 1
      else if( (#L("C-ISRES") == 0) .and. 
      (#PA("LtgMsrApplic") == "COM" .or. #PA("LtgMsrApplic") == "ALL")) then 1
      else if (#PA("LtgMsrApplic") == #L("C-ACTIVITY-DESC",1)) then 1
      else 0 endif endif endif }
   LIGHTING-W/AREA  = ( 
     {#PA("LobbyWaiting_LWSF")*0.437778
        *(1.0-#PA("LtgSav_LF")*#L("C-LTG-APPLIC"))},
     {#PA("LobbyWaiting_LWSF")*0.2547
        *(1.0-#PA("LtgSav_CFL")*#L("C-LTG-APPLIC"))},
     {#PA("LobbyWaiting_LWSF")*0.215622
        *(1.0-#PA("LtgSav_HB")*#L("C-LTG-APPLIC"))},
     {#PA("LobbyWaiting_LWSF")*0.081
        *(1.0-#PA("LtgSav_SP")*#L("C-LTG-APPLIC"))},
     {#PA("LobbyWaiting_LWSF")*0.0109
        *(1.0-#PA("LtgSav_EX")*#L("C-LTG-APPLIC"))}
   )
   EQUIP-SCHEDULE = ( "D_RFF_Din_Misc_Yr" )
   EQUIPMENT-W/AREA = ( { #PA("LobbyWaiting_EWSF") })
   EQUIP-LATENT     = ( 0 )
   EQUIP-SENSIBLE     = ( 1 )

   LIGHT-TO-SPACE = (0.94,0.82,0.82,0.8,1)
   LIGHT-TO-OTHER = (0.06,0.18,0.18,0.2,0)
   LIGHT-TO-RETURN = (0,0,0,0,0)
   LIGHT-RAD-FRAC = (0.55,0.66,0.66,0.71,0.71)
   OTHER-RAD-FRAC = (0.09,0.09,0.09,0.09,0)
   LIGHT-HEAT-TO = ("LW_LobWait_A_Pl", "LW_LobWait_A_Pl",
     "LW_LobWait_A_Pl", "LW_LobWait_A_Pl","LW_LobWait_A_Pl")
   ..
EW1_LW_LobWait_A = EXTERIOR-WALL
   SHADING-SURFACE  = NO
   LOCATION = SPACE-V1
   CONSTRUCTION = Cons_EWallBrickConc
   WIDTH = 6.517
   ..
Win1_EW1_LW_LobWait_A = WINDOW
   GLASS-TYPE = GlassTypeNonNorth
   X = 0.23822
   Y = 2.5
   C-UNIT-H = 5.5
   C-UNIT-W = 6.0402
   FRAME-CONDUCT = {1 / (1/#PA("ComO_WinFrmU") - 0.197)}
   FRAME-WIDTH = {(#L("C-UNIT-H")+#L("C-UNIT-W")
      -SQRT((#L("C-UNIT-H")+#L("C-UNIT-W"))**2
     -4*#L("C-UNIT-H")*#L("C-UNIT-W")*#PA("ComO_WinFrmFrac")))/4}
   HEIGHT = {#L("C-UNIT-H") - 2*#L("FRAME-WIDTH")}
   WIDTH = { #L("C-UNIT-W") - 2*#L("FRAME-WIDTH")}
   ..
EW2_LW_LobWait_A = EXTERIOR-WALL
   SHADING-SURFACE  = NO
   LOCATION = SPACE-V2
   CONSTRUCTION = Cons_EWallBrickConc
   WIDTH = 6.517
   ..
Win1_EW2_LW_LobWait_A = WINDOW
   GLASS-TYPE = GlassTypeNonNorth
   X = 0.23822
   Y = 2.5
   C-UNIT-H = 5.5
   C-UNIT-W = 6.0402
   FRAME-CONDUCT = {1 / (1/#PA("ComO_WinFrmU") - 0.197)}
   FRAME-WIDTH = {(#L("C-UNIT-H")+#L("C-UNIT-W")
      -SQRT((#L("C-UNIT-H")+#L("C-UNIT-W"))**2
     -4*#L("C-UNIT-H")*#L("C-UNIT-W")*#PA("ComO_WinFrmFrac")))/4}
   HEIGHT = {#L("C-UNIT-H") - 2*#L("FRAME-WIDTH")}
   WIDTH = { #L("C-UNIT-W") - 2*#L("FRAME-WIDTH")}
   ..
EW3_LW_LobWait_A = EXTERIOR-WALL
   SHADING-SURFACE  = NO
   LOCATION = SPACE-V3
   CONSTRUCTION = Cons_EWallBrickConc
   WIDTH = 6.517
   ..
Win1_EW3_LW_LobWait_A = WINDOW
   GLASS-TYPE = GlassTypeNorth
   X = 0.23822
   Y = 2.5
   C-UNIT-H = 5.5
   C-UNIT-W = 6.0402
   FRAME-CONDUCT = {1 / (1/#PA("ComN_WinFrmU") - 0.197)}
   FRAME-ABS = 0.7
   FRAME-WIDTH = {(#L("C-UNIT-H")+#L("C-UNIT-W")
      -SQRT((#L("C-UNIT-H")+#L("C-UNIT-W"))**2
     -4*#L("C-UNIT-H")*#L("C-UNIT-W")*#PA("ComN_WinFrmFrac")))/4}
   HEIGHT = {#L("C-UNIT-H") - 2*#L("FRAME-WIDTH")}
   WIDTH = { #L("C-UNIT-W") - 2*#L("FRAME-WIDTH")}
   ..
EW4_LW_LobWait_A = EXTERIOR-WALL
   SHADING-SURFACE  = NO
   LOCATION = SPACE-V4
   CONSTRUCTION = Cons_EWallBrickConc
   WIDTH = 6.517
   ..
Win1_EW4_LW_LobWait_A = WINDOW
   GLASS-TYPE = GlassTypeNonNorth
   X = 0.23822
   Y = 2.5
   C-UNIT-H = 5.5
   C-UNIT-W = 6.0402
   FRAME-CONDUCT = {1 / (1/#PA("ComO_WinFrmU") - 0.197)}
   FRAME-WIDTH = {(#L("C-UNIT-H")+#L("C-UNIT-W")
      -SQRT((#L("C-UNIT-H")+#L("C-UNIT-W"))**2
     -4*#L("C-UNIT-H")*#L("C-UNIT-W")*#PA("ComO_WinFrmFrac")))/4}
   HEIGHT = {#L("C-UNIT-H") - 2*#L("FRAME-WIDTH")}
   WIDTH = { #L("C-UNIT-W") - 2*#L("FRAME-WIDTH")}
   ..
IWb1_LW_LobWait_A = INTERIOR-WALL
   INT-WALL-TYPE = STANDARD
   CONSTRUCTION = Cons_IWallLite
   LOCATION = SPACE-V3
   NEXT-TO = DN_Din_A
   WIDTH = 6.517
   X = 26.1
   ..
UFlr_LW_LobWait_A = UNDERGROUND-WALL
   CONSTRUCTION = Cons_UFictCC06Tile02
   LOCATION         = BOTTOM
   ..
LW_LobWait_A_Pl = SPACE
   POLYGON = LW_LobWait_A_Poly
   SHAPE            = POLYGON
   ZONE-TYPE        = UNCONDITIONED
   C-ZONE-TYPE = PLENUM
   LOCATION = FLOOR-V1
   FLOOR-MULTIPLIER = 1
   ..
EW1_LW_LobWait_A_Pl = EXTERIOR-WALL
   SHADING-SURFACE  = NO
   LOCATION = SPACE-V1
   CONSTRUCTION = Cons_EWallBrickConc
   WIDTH = 6.517
   ..
EW2_LW_LobWait_A_Pl = EXTERIOR-WALL
   SHADING-SURFACE  = NO
   LOCATION = SPACE-V2
   CONSTRUCTION = Cons_EWallBrickConc
   WIDTH = 6.517
   ..
EW3_LW_LobWait_A_Pl = EXTERIOR-WALL
   SHADING-SURFACE  = NO
   LOCATION = SPACE-V3
   CONSTRUCTION = Cons_EWallBrickConc
   WIDTH = 6.517
   ..
EW4_LW_LobWait_A_Pl = EXTERIOR-WALL
   SHADING-SURFACE  = NO
   LOCATION = SPACE-V4
   CONSTRUCTION = Cons_EWallBrickConc
   WIDTH = 6.517
   ..
Roof_LW_LobWait_A = EXTERIOR-WALL
   SHADING-SURFACE  = NO
   LOCATION = TOP
   CONSTRUCTION = Cons_RoofPlywdIns
   ..
IWb1_LW_LobWait_A_Pl = INTERIOR-WALL
   INT-WALL-TYPE = AIR
   CONSTRUCTION = Cons_AirWall
   LOCATION = SPACE-V3
   NEXT-TO = DN_Din_A_Pl
   WIDTH = 6.517
   X = 26.1
   ..
Floor_L = FLOOR
   SHAPE            = POLYGON
   POLYGON = FloorPolyL
   FLOOR-HEIGHT = 13
   SPACE-HEIGHT = 9
   ..
L_Stock_C = SPACE
   SHAPE            = POLYGON
   ZONE-TYPE        = CONDITIONED
   C-ZONE-TYPE = CONDITIONED
   POLYGON = L_Stock_C_Poly
   LOCATION = FLOOR-V1
   FLOOR-MULTIPLIER = 1
   HEIGHT = 13
   C-ACTIVITY-DESC = "StockRoom"
   C-PERIM-A = 0
   C-ISRES = 0
   INF-SCHEDULE = { if(#L("C-PERIM-A")>1.0) then 
     #SI("D_RFF_All_P_Inf_Yr","SPACE","INF-SCHEDULE")
      else #SI("D_RFF_All_C_Inf_Yr","SPACE","INF-SCHEDULE") endif }
   INF-METHOD       = AIR-CHANGE
   INF-FLOW/AREA = {if(#L("C-ZONE-TYPE") == #SI("CRAWL","SPACE","C-ZONE-TYPE"))
      then 0.075 else if(#L("C-PERIM-A") < 1.0)
      then 0.001 else 0.038 * #L("C-PERIM-A") / #L("AREA") endif endif }
   PEOPLE-SCHEDULE = ( "D_RFF_Din_Occup_Yr" )
   AREA/PERSON = ( 1000 )
   PEOPLE-HG-LAT = ( 475 )
   PEOPLE-HG-SENS = ( 275 )
   LIGHTING-SCHEDUL = ( 
      "D17_RFF_Stock_LF_Yr",
      "D17_RFF_Stock_CFL_Yr",
      "D_Always_Zero_Yr",
      "D_RFF_Din_LitSp_Yr",
      "D_RFF_Din_LitEx_Yr")
   C-LTG-APPLIC = { if ((#L("C-ISRES") > 0) .and.
      (#PA("LtgMsrApplic") == "RES" .or. #PA("LtgMsrApplic") == "ALL")) then 1
      else if( (#L("C-ISRES") == 0) .and. 
      (#PA("LtgMsrApplic") == "COM" .or. #PA("LtgMsrApplic") == "ALL")) then 1
      else if (#PA("LtgMsrApplic") == #L("C-ACTIVITY-DESC",1)) then 1
      else 0 endif endif endif }
   LIGHTING-W/AREA  = ( 
     {#PA("StockRoom_LWSF")*0.6534
        *(1.0-#PA("LtgSav_LF")*#L("C-LTG-APPLIC"))},
     {#PA("StockRoom_LWSF")*0.2547
        *(1.0-#PA("LtgSav_CFL")*#L("C-LTG-APPLIC"))},
     {#PA("StockRoom_LWSF")*0
        *(1.0-#PA("LtgSav_HB")*#L("C-LTG-APPLIC"))},
     {#PA("StockRoom_LWSF")*0.081
        *(1.0-#PA("LtgSav_SP")*#L("C-LTG-APPLIC"))},
     {#PA("StockRoom_LWSF")*0.0109
        *(1.0-#PA("LtgSav_EX")*#L("C-LTG-APPLIC"))}
   )
   EQUIP-SCHEDULE = ( "D_RFF_Din_Misc_Yr" )
   EQUIPMENT-W/AREA = ( { #PA("StockRoom_EWSF") })
   EQUIP-LATENT     = ( 0 )
   EQUIP-SENSIBLE     = ( 1 )

   LIGHT-RAD-FRAC = (0.63,0.7,0.7,0.71,0.71)
   ..
IWm1_L_Stock_C = INTERIOR-WALL
   INT-WALL-TYPE = ADIABATIC
   CONSTRUCTION = Cons_IWallLite
   LOCATION = SPACE-V3
   WIDTH = 10.8
   ..
IWm2_L_Stock_C = INTERIOR-WALL
   INT-WALL-TYPE = ADIABATIC
   CONSTRUCTION = Cons_IWallLite
   LOCATION = SPACE-V2
   WIDTH = 10.8
   ..
IWm3_L_Stock_C = INTERIOR-WALL
   INT-WALL-TYPE = ADIABATIC
   CONSTRUCTION = Cons_IWallLite
   LOCATION = SPACE-V4
   WIDTH = 10.8
   ..
IWm4_L_Stock_C = INTERIOR-WALL
   INT-WALL-TYPE = ADIABATIC
   CONSTRUCTION = Cons_IWallLite
   LOCATION = SPACE-V1
   WIDTH = 10.8
   ..
IWb1_L_Stock_C = INTERIOR-WALL
   INT-WALL-TYPE = STANDARD
   CONSTRUCTION = Cons_IWallLite
   LOCATION = SPACE-V3
   NEXT-TO = KT_Ktchn_A
   WIDTH = 14.42
   X = 0
   ..
Roof_L_Stock_C = EXTERIOR-WALL
   SHADING-SURFACE  = NO
   LOCATION = TOP
   CONSTRUCTION = Cons_RoofPlywdIns
   ..
UFlr_L_Stock_C = UNDERGROUND-WALL
   CONSTRUCTION = Cons_UFictCC06Tile03
   LOCATION         = BOTTOM
   ..
L_Restrm_C = SPACE
   SHAPE            = POLYGON
   ZONE-TYPE        = CONDITIONED
   C-ZONE-TYPE = CONDITIONED
   X = 192.1
   Y = 37.07
   POLYGON = L_Restrm_C_Poly
   LOCATION = FLOOR-V3
   FLOOR-MULTIPLIER = 1
   C-ACTIVITY-DESC = "Restroom"
   C-PERIM-A = 0
   C-ISRES = 0
   INF-SCHEDULE = { if(#L("C-PERIM-A")>1.0) then 
     #SI("D_RFF_All_P_Inf_Yr","SPACE","INF-SCHEDULE")
      else #SI("D_RFF_All_C_Inf_Yr","SPACE","INF-SCHEDULE") endif }
   INF-METHOD       = AIR-CHANGE
   INF-FLOW/AREA = {if(#L("C-ZONE-TYPE") == #SI("CRAWL","SPACE","C-ZONE-TYPE"))
      then 0.075 else if(#L("C-PERIM-A") < 1.0)
      then 0.001 else 0.038 * #L("C-PERIM-A") / #L("AREA") endif endif }
   PEOPLE-SCHEDULE = ( "D_RFF_Din_Occup_Yr" )
   AREA/PERSON = ( 200 )
   PEOPLE-HG-LAT = ( 250 )
   PEOPLE-HG-SENS = ( 250 )
   LIGHTING-SCHEDUL = ( 
      "D17_RFF_Restrm_LF_Yr",
      "D17_RFF_Restrm_CFL_Yr",
      "D_Always_Zero_Yr",
      "D_RFF_Din_LitSp_Yr",
      "D_RFF_Din_LitEx_Yr")
   C-LTG-APPLIC = { if ((#L("C-ISRES") > 0) .and.
      (#PA("LtgMsrApplic") == "RES" .or. #PA("LtgMsrApplic") == "ALL")) then 1
      else if( (#L("C-ISRES") == 0) .and. 
      (#PA("LtgMsrApplic") == "COM" .or. #PA("LtgMsrApplic") == "ALL")) then 1
      else if (#PA("LtgMsrApplic") == #L("C-ACTIVITY-DESC",1)) then 1
      else 0 endif endif endif }
   LIGHTING-W/AREA  = ( 
     {#PA("Restroom_LWSF")*0.6534
        *(1.0-#PA("LtgSav_LF")*#L("C-LTG-APPLIC"))},
     {#PA("Restroom_LWSF")*0.2547
        *(1.0-#PA("LtgSav_CFL")*#L("C-LTG-APPLIC"))},
     {#PA("Restroom_LWSF")*0
        *(1.0-#PA("LtgSav_HB")*#L("C-LTG-APPLIC"))},
     {#PA("Restroom_LWSF")*0.081
        *(1.0-#PA("LtgSav_SP")*#L("C-LTG-APPLIC"))},
     {#PA("Restroom_LWSF")*0.0109
        *(1.0-#PA("LtgSav_EX")*#L("C-LTG-APPLIC"))}
   )
   EQUIP-SCHEDULE = ( "D_RFF_Din_Misc_Yr" )
   EQUIPMENT-W/AREA = ( { #PA("Restroom_EWSF") })
   EQUIP-LATENT     = ( 0 )
   EQUIP-SENSIBLE     = ( 1 )

   LIGHT-TO-SPACE = (0.94,0.82,0.82,0.8,1)
   LIGHT-TO-OTHER = (0.06,0.18,0.18,0.2,0)
   LIGHT-TO-RETURN = (0,0,0,0,0)
   LIGHT-RAD-FRAC = (0.55,0.66,0.66,0.71,0.71)
   OTHER-RAD-FRAC = (0.09,0.09,0.09,0.09,0)
   LIGHT-HEAT-TO = ("L_Restrm_C_Pl", "L_Restrm_C_Pl",
     "L_Restrm_C_Pl", "L_Restrm_C_Pl","L_Restrm_C_Pl")
   ..
IWm1_L_Restrm_C = INTERIOR-WALL
   INT-WALL-TYPE = ADIABATIC
   CONSTRUCTION = Cons_IWallLite
   LOCATION = SPACE-V3
   WIDTH = 8.9
   ..
IWm2_L_Restrm_C = INTERIOR-WALL
   INT-WALL-TYPE = ADIABATIC
   CONSTRUCTION = Cons_IWallLite
   LOCATION = SPACE-V2
   WIDTH = 8.9
   ..
IWm3_L_Restrm_C = INTERIOR-WALL
   INT-WALL-TYPE = ADIABATIC
   CONSTRUCTION = Cons_IWallLite
   LOCATION = SPACE-V4
   WIDTH = 8.9
   ..
IWm4_L_Restrm_C = INTERIOR-WALL
   INT-WALL-TYPE = ADIABATIC
   CONSTRUCTION = Cons_IWallLite
   LOCATION = SPACE-V1
   WIDTH = 8.9
   ..
IWb1_L_Restrm_C = INTERIOR-WALL
   INT-WALL-TYPE = STANDARD
   CONSTRUCTION = Cons_IWallLite
   LOCATION = SPACE-V3
   NEXT-TO = DN_Din_A
   WIDTH = 11.91
   X = 0
   ..
UFlr_L_Restrm_C = UNDERGROUND-WALL
   CONSTRUCTION = Cons_UFictCC06Tile03
   LOCATION         = BOTTOM
   ..
L_Restrm_C_Pl = SPACE
   POLYGON = L_Restrm_C_Poly
   SHAPE            = POLYGON
   ZONE-TYPE        = UNCONDITIONED
   C-ZONE-TYPE = PLENUM
   X = 192.1
   Y = 37.07
   LOCATION = FLOOR-V3
   FLOOR-MULTIPLIER = 1
   ..
Roof_L_Restrm_C = EXTERIOR-WALL
   SHADING-SURFACE  = NO
   LOCATION = TOP
   CONSTRUCTION = Cons_RoofPlywdIns
   ..
IWb1_L_Restrm_C_Pl = INTERIOR-WALL
   INT-WALL-TYPE = AIR
   CONSTRUCTION = Cons_AirWall
   LOCATION = SPACE-V3
   NEXT-TO = DN_Din_A_Pl
   WIDTH = 11.91
   X = 0
   ..
L_OffGen_C = SPACE
   SHAPE            = POLYGON
   ZONE-TYPE        = CONDITIONED
   C-ZONE-TYPE = CONDITIONED
   Y = 37.07
   POLYGON = L_OffGen_C_Poly
   LOCATION = FLOOR-V3
   FLOOR-MULTIPLIER = 1
   C-ACTIVITY-DESC = "OfficeGeneral"
   C-PERIM-A = 0
   C-ISRES = 0
   INF-SCHEDULE = { if(#L("C-PERIM-A")>1.0) then 
     #SI("D_RFF_All_P_Inf_Yr","SPACE","INF-SCHEDULE")
      else #SI("D_RFF_All_C_Inf_Yr","SPACE","INF-SCHEDULE") endif }
   INF-METHOD       = AIR-CHANGE
   INF-FLOW/AREA = {if(#L("C-ZONE-TYPE") == #SI("CRAWL","SPACE","C-ZONE-TYPE"))
      then 0.075 else if(#L("C-PERIM-A") < 1.0)
      then 0.001 else 0.038 * #L("C-PERIM-A") / #L("AREA") endif endif }
   PEOPLE-SCHEDULE = ( "D_RFF_Din_Occup_Yr" )
   AREA/PERSON = ( 200 )
   PEOPLE-HG-LAT = ( 200 )
   PEOPLE-HG-SENS = ( 250 )
   LIGHTING-SCHEDUL = ( 
      "D17_RFF_OffGen_LF_Yr",
      "D17_RFF_OffGen_CFL_Yr",
      "D_Always_Zero_Yr",
      "D_RFF_Din_LitSp_Yr",
      "D_RFF_Din_LitEx_Yr")
   C-LTG-APPLIC = { if ((#L("C-ISRES") > 0) .and.
      (#PA("LtgMsrApplic") == "RES" .or. #PA("LtgMsrApplic") == "ALL")) then 1
      else if( (#L("C-ISRES") == 0) .and. 
      (#PA("LtgMsrApplic") == "COM" .or. #PA("LtgMsrApplic") == "ALL")) then 1
      else if (#PA("LtgMsrApplic") == #L("C-ACTIVITY-DESC",1)) then 1
      else 0 endif endif endif }
   LIGHTING-W/AREA  = ( 
     {#PA("OfficeGeneral_LWSF")*0.6534
        *(1.0-#PA("LtgSav_LF")*#L("C-LTG-APPLIC"))},
     {#PA("OfficeGeneral_LWSF")*0.2547
        *(1.0-#PA("LtgSav_CFL")*#L("C-LTG-APPLIC"))},
     {#PA("OfficeGeneral_LWSF")*0
        *(1.0-#PA("LtgSav_HB")*#L("C-LTG-APPLIC"))},
     {#PA("OfficeGeneral_LWSF")*0.081
        *(1.0-#PA("LtgSav_SP")*#L("C-LTG-APPLIC"))},
     {#PA("OfficeGeneral_LWSF")*0.0109
        *(1.0-#PA("LtgSav_EX")*#L("C-LTG-APPLIC"))}
   )
   EQUIP-SCHEDULE = ( "D_RFF_Din_Misc_Yr" )
   EQUIPMENT-W/AREA = ( { #PA("OfficeGeneral_EWSF") })
   EQUIP-LATENT     = ( 0 )
   EQUIP-SENSIBLE     = ( 1 )

   LIGHT-TO-SPACE = (0.94,0.82,0.82,0.8,1)
   LIGHT-TO-OTHER = (0.06,0.18,0.18,0.2,0)
   LIGHT-TO-RETURN = (0,0,0,0,0)
   LIGHT-RAD-FRAC = (0.55,0.66,0.66,0.71,0.71)
   OTHER-RAD-FRAC = (0.09,0.09,0.09,0.09,0)
   LIGHT-HEAT-TO = ("L_OffGen_C_Pl", "L_OffGen_C_Pl",
     "L_OffGen_C_Pl", "L_OffGen_C_Pl","L_OffGen_C_Pl")
   ..
IWm1_L_OffGen_C = INTERIOR-WALL
   INT-WALL-TYPE = ADIABATIC
   CONSTRUCTION = Cons_IWallLite
   LOCATION = SPACE-V3
   WIDTH = 7.1
   ..
IWm2_L_OffGen_C = INTERIOR-WALL
   INT-WALL-TYPE = ADIABATIC
   CONSTRUCTION = Cons_IWallLite
   LOCATION = SPACE-V2
   WIDTH = 7.1
   ..
IWm3_L_OffGen_C = INTERIOR-WALL
   INT-WALL-TYPE = ADIABATIC
   CONSTRUCTION = Cons_IWallLite
   LOCATION = SPACE-V4
   WIDTH = 7.1
   ..
IWm4_L_OffGen_C = INTERIOR-WALL
   INT-WALL-TYPE = ADIABATIC
   CONSTRUCTION = Cons_IWallLite
   LOCATION = SPACE-V1
   WIDTH = 7.1
   ..
IWb1_L_OffGen_C = INTERIOR-WALL
   INT-WALL-TYPE = STANDARD
   CONSTRUCTION = Cons_IWallLite
   LOCATION = SPACE-V3
   NEXT-TO = KT_Ktchn_A
   WIDTH = 9.413
   X = 0
   ..
UFlr_L_OffGen_C = UNDERGROUND-WALL
   CONSTRUCTION = Cons_UFictCC06Carpet01
   LOCATION         = BOTTOM
   ..
L_OffGen_C_Pl = SPACE
   POLYGON = L_OffGen_C_Poly
   SHAPE            = POLYGON
   ZONE-TYPE        = UNCONDITIONED
   C-ZONE-TYPE = PLENUM
   Y = 37.07
   LOCATION = FLOOR-V3
   FLOOR-MULTIPLIER = 1
   ..
Roof_L_OffGen_C = EXTERIOR-WALL
   SHADING-SURFACE  = NO
   LOCATION = TOP
   CONSTRUCTION = Cons_RoofPlywdIns
   ..
IWb1_L_OffGen_C_Pl = INTERIOR-WALL
   INT-WALL-TYPE = STANDARD
   CONSTRUCTION = Cons_IWallLite
   LOCATION = SPACE-V3
   NEXT-TO = KT_Ktchn_A
   WIDTH = 9.413
   X = 0
   ..
L_Cordr_C = SPACE
   SHAPE            = POLYGON
   ZONE-TYPE        = CONDITIONED
   C-ZONE-TYPE = CONDITIONED
   Y = 37.07
   POLYGON = L_Cordr_C_Poly
   LOCATION = FLOOR-V3
   FLOOR-MULTIPLIER = 1
   C-ACTIVITY-DESC = "CorridorStairway"
   C-PERIM-A = 0
   C-ISRES = 0
   INF-SCHEDULE = { if(#L("C-PERIM-A")>1.0) then 
     #SI("D_RFF_All_P_Inf_Yr","SPACE","INF-SCHEDULE")
      else #SI("D_RFF_All_C_Inf_Yr","SPACE","INF-SCHEDULE") endif }
   INF-METHOD       = AIR-CHANGE
   INF-FLOW/AREA = {if(#L("C-ZONE-TYPE") == #SI("CRAWL","SPACE","C-ZONE-TYPE"))
      then 0.075 else if(#L("C-PERIM-A") < 1.0)
      then 0.001 else 0.038 * #L("C-PERIM-A") / #L("AREA") endif endif }
   PEOPLE-SCHEDULE = ( "D_RFF_Din_Occup_Yr" )
   AREA/PERSON = ( 200 )
   PEOPLE-HG-LAT = ( 250 )
   PEOPLE-HG-SENS = ( 250 )
   LIGHTING-SCHEDUL = ( 
      "D17_RFF_Cordr_LF_Yr",
      "D17_RFF_Cordr_CFL_Yr",
      "D_Always_Zero_Yr",
      "D_RFF_Din_LitSp_Yr",
      "D_RFF_Din_LitEx_Yr")
   C-LTG-APPLIC = { if ((#L("C-ISRES") > 0) .and.
      (#PA("LtgMsrApplic") == "RES" .or. #PA("LtgMsrApplic") == "ALL")) then 1
      else if( (#L("C-ISRES") == 0) .and. 
      (#PA("LtgMsrApplic") == "COM" .or. #PA("LtgMsrApplic") == "ALL")) then 1
      else if (#PA("LtgMsrApplic") == #L("C-ACTIVITY-DESC",1)) then 1
      else 0 endif endif endif }
   LIGHTING-W/AREA  = ( 
     {#PA("CorridorStairway_LWSF")*0.6534
        *(1.0-#PA("LtgSav_LF")*#L("C-LTG-APPLIC"))},
     {#PA("CorridorStairway_LWSF")*0.2547
        *(1.0-#PA("LtgSav_CFL")*#L("C-LTG-APPLIC"))},
     {#PA("CorridorStairway_LWSF")*0
        *(1.0-#PA("LtgSav_HB")*#L("C-LTG-APPLIC"))},
     {#PA("CorridorStairway_LWSF")*0.081
        *(1.0-#PA("LtgSav_SP")*#L("C-LTG-APPLIC"))},
     {#PA("CorridorStairway_LWSF")*0.0109
        *(1.0-#PA("LtgSav_EX")*#L("C-LTG-APPLIC"))}
   )
   EQUIP-SCHEDULE = ( "D_RFF_Din_Misc_Yr" )
   EQUIPMENT-W/AREA = ( { #PA("CorridorStairway_EWSF") })
   EQUIP-LATENT     = ( 0 )
   EQUIP-SENSIBLE     = ( 1 )

   LIGHT-TO-SPACE = (0.94,0.82,0.82,0.8,1)
   LIGHT-TO-OTHER = (0.06,0.18,0.18,0.2,0)
   LIGHT-TO-RETURN = (0,0,0,0,0)
   LIGHT-RAD-FRAC = (0.55,0.66,0.66,0.71,0.71)
   OTHER-RAD-FRAC = (0.09,0.09,0.09,0.09,0)
   LIGHT-HEAT-TO = ("L_Cordr_C_Pl", "L_Cordr_C_Pl",
     "L_Cordr_C_Pl", "L_Cordr_C_Pl","L_Cordr_C_Pl")
   ..
IWm1_L_Cordr_C = INTERIOR-WALL
   INT-WALL-TYPE = ADIABATIC
   CONSTRUCTION = Cons_IWallLite
   LOCATION = SPACE-V3
   WIDTH = 4.5
   ..
IWm2_L_Cordr_C = INTERIOR-WALL
   INT-WALL-TYPE = ADIABATIC
   CONSTRUCTION = Cons_IWallLite
   LOCATION = SPACE-V2
   WIDTH = 4.5
   ..
IWm3_L_Cordr_C = INTERIOR-WALL
   INT-WALL-TYPE = ADIABATIC
   CONSTRUCTION = Cons_IWallLite
   LOCATION = SPACE-V4
   WIDTH = 4.5
   ..
IWm4_L_Cordr_C = INTERIOR-WALL
   INT-WALL-TYPE = ADIABATIC
   CONSTRUCTION = Cons_IWallLite
   LOCATION = SPACE-V1
   WIDTH = 4.5
   ..
IWb1_L_Cordr_C = INTERIOR-WALL
   INT-WALL-TYPE = STANDARD
   CONSTRUCTION = Cons_IWallLite
   LOCATION = SPACE-V3
   NEXT-TO = LW_LobWait_A
   WIDTH = 6.035
   X = 0
   ..
UFlr_L_Cordr_C = UNDERGROUND-WALL
   CONSTRUCTION = Cons_UFictCC06Tile03
   LOCATION         = BOTTOM
   ..
L_Cordr_C_Pl = SPACE
   POLYGON = L_Cordr_C_Poly
   SHAPE            = POLYGON
   ZONE-TYPE        = UNCONDITIONED
   C-ZONE-TYPE = PLENUM
   Y = 37.07
   LOCATION = FLOOR-V3
   FLOOR-MULTIPLIER = 1
   ..
Roof_L_Cordr_C = EXTERIOR-WALL
   SHADING-SURFACE  = NO
   LOCATION = TOP
   CONSTRUCTION = Cons_RoofPlywdIns
   ..
IWb1_L_Cordr_C_Pl = INTERIOR-WALL
   INT-WALL-TYPE = AIR
   CONSTRUCTION = Cons_AirWall
   LOCATION = SPACE-V3
   NEXT-TO = LW_LobWait_A_Pl
   WIDTH = 6.035
   X = 0
   ..

$ ---------------------------------------------------------
$              Master Meters
$ ---------------------------------------------------------

"MASTER-METERS 1" = MASTER-METERS
MSTR-ELEC-METER  = "EM1"
MSTR-FUEL-METER  = "FM1"
..

$ ---------------------------------------------------------
$              DHW
$ ---------------------------------------------------------



$ *********************************************************
$ **                                                     **
$ **               HVAC Systems / Zones                  **
$ **                                                     **
$ *********************************************************

Sys_DN_Din_A = SYSTEM
      ##if #[CoolType[] EQS DX]
   TYPE = PVVT
      ##else
   TYPE = UVT
      ##endif
      ##if #[CoolType[] EQS DX]
        ##if #[BldgHasRefg[] EQS FALSE]
          ##include IncFiles\SystemDXSZ.inp
        ##else
          ##include IncFiles\SystemDXSZ_R.inp
        ##endif
      ##else
        ##if #[BldgHasRefg[] EQS FALSE]
          ##include IncFiles\SystemNCSZ.inp
        ##else
          ##include IncFiles\SystemNCSZ_R.inp
        ##endif
      ##endif
      ##if #[IsSizing[] EQS TRUE]
   SIZING-RATIO = 1.15
   COOL-SIZING-RATI = 1.0
   HEAT-SIZING-RATI = 1.0
      ##else
   SIZING-RATIO = 1.15
   COOL-SIZING-RATI = 1.0
   HEAT-SIZING-RATI = 1.0
        ##if #[CoolType[] NES None]
   SUPPLY-FLOW = { #L("C-SA-FLOW-BA")/#PA("AltAdjFactor")}
   RATED-FLOW = { #L("C-RTD-FLOW-BA")/#PA("AltAdjFactor")}
   HRATED-FLOW = { #L("C-HRTD-FLOW-BA")/#PA("AltAdjFactor")}
        ##endif
      ##endif
   RETURN-AIR-PATH = PLENUM-ZONES
   DUCT-AIR-LOSS    = {#PA("DuctAirLoss")}
   DUCT-DT          = {#PA("DuctDT")}
   DUCT-ENVIR-DT    = { #PA("DesCoolT") - #PA("MinSupT") }
   DUCT-AIR-LOSS-OA = {#PA("DuctLossOAFrac")}
   DUCT-ZONE = DN_Din_A_PlZn
   CONTROL-ZONE = DN_Din_AZn
   FAN-SCHEDULE = D_RFF_All_Fan_Yr
   MIN-AIR-SCH = D_RFF_All_MinOA_Yr
      ##if #[IsSizing[] EQS FALSE]
      ##if #[CoolType[] NES None]
   COOLING-CAPACITY = {#PA("ClCap_Sys_DN_Din_A")
      * #PA("TotCoolCapMult") }
   C-SA-FLOW-BA = {#PA("CSupFlo_Sys_DN_Din_A")}
   C-RTD-FLOW-BA = {#PA("CRtdFlo_Sys_DN_Din_A")}
      ##endif
      ##if #[CoolType[] NES None]
   HEATING-CAPACITY = {#PA("HtCap_Sys_DN_Din_A")}
   C-HRTD-FLOW-BA = {#PA("CHRtFlo_Sys_DN_Din_A")}
      ##endif
      ##if #[HeatType[] EQS HEAT-PUMP]
   HT-RATED-ECT = {#PA("HRtECT_Sys_DN_Din_A")}
   HP-SUPP-HT-CAP = {#PA("HSpCap_Sys_DN_Din_A")}
      ##endif
      ##endif
   SIZING-METHOD = { if(#PA("CZ_Category") == "Tem") 
     then #SIT("CAPACITY/FLOW","SYSTEM","SIZING-METHOD",#L("TYPE"))
     else #SIT("FLOW/CAPACITY","SYSTEM","SIZING-METHOD",#L("TYPE")) endif }
   FLOW/CAPACITY = {275/#PA("TotCoolCapMult")}
   ..
DN_Din_AZn = ZONE
   TYPE = CONDITIONED
   SPACE = DN_Din_A
      ##if #[IsSizing[] EQS FALSE]
   ASSIGNED-FLOW = { (1 - #PA("DuctAirLoss"))
      * #L("C-ASGN-FLOW-BA")/#PA("AltAdjFactor")}
   HRATED-FLOW ={ (1 - #PA("DuctAirLoss"))
      * #L("C-HRTD-FLOW-BA")/#PA("AltAdjFactor")}
      ##endif
      ##if #[BldgHasRefg[] EQS FALSE]
        ##include IncFiles\ZoneDXSZ.inp
      ##else
        ##include IncFiles\ZoneDXSZ_R.inp
      ##endif
   COOL-TEMP-SCH = { if(#PA("CoolType") == "None") then unused
     else #SI("D_RFF_All_CTemp_Yr","ZONE","COOL-TEMP-SCH") endif }
   HEAT-TEMP-SCH = { if(#PA("HeatType") == "None") then unused
     else #SI("D_RFF_All_HTemp_Yr","ZONE","HEAT-TEMP-SCH") endif }
   OA-FLOW/AREA = ( 0.4 )
   MIN-FLOW/AREA = 0.4
   FLOW/AREA = 0.4
      ##if #[IsSizing[] EQS FALSE]
   C-ASGN-FLOW-BA = {#PA("CAssFlo_DN_Din_AZn")}
      ##if #[CoolType[] EQS None]
   HEATING-CAPACITY = {#PA("HtCap_DN_Din_AZn")}
      ##endif
      ##endif
   ..
DN_Din_A_PlZn = ZONE
   TYPE = PLENUM
   SPACE = DN_Din_A_Pl
   ..
Sys_KT_Ktchn_A = SYSTEM
      ##if #[CoolType[] EQS DX]
   TYPE = PVVT
      ##else
   TYPE = UVT
      ##endif
      ##if #[CoolType[] EQS DX]
        ##if #[BldgHasRefg[] EQS FALSE]
          ##include IncFiles\SystemDXSZ.inp
        ##else
          ##include IncFiles\SystemDXSZ_R.inp
        ##endif
      ##else
        ##if #[BldgHasRefg[] EQS FALSE]
          ##include IncFiles\SystemNCSZ.inp
        ##else
          ##include IncFiles\SystemNCSZ_R.inp
        ##endif
      ##endif
      ##if #[IsSizing[] EQS TRUE]
   SIZING-RATIO = 1.15
   COOL-SIZING-RATI = 1.0
   HEAT-SIZING-RATI = 1.0
      ##else
   SIZING-RATIO = 1.15
   COOL-SIZING-RATI = 1.0
   HEAT-SIZING-RATI = 1.0
        ##if #[CoolType[] NES None]
   SUPPLY-FLOW = { #L("C-SA-FLOW-BA")/#PA("AltAdjFactor")}
   RATED-FLOW = { #L("C-RTD-FLOW-BA")/#PA("AltAdjFactor")}
   HRATED-FLOW = { #L("C-HRTD-FLOW-BA")/#PA("AltAdjFactor")}
        ##endif
      ##endif
   CONTROL-ZONE = KT_Ktchn_AZn
   FAN-SCHEDULE = D_RFF_All_Fan_Yr
   MIN-AIR-SCH = D_RFF_All_MinOA_Yr
      ##if #[IsSizing[] EQS FALSE]
      ##if #[CoolType[] NES None]
   COOLING-CAPACITY = {#PA("ClCap_Sys_KT_Ktchn_A")
      * #PA("TotCoolCapMult") }
   C-SA-FLOW-BA = {#PA("CSupFlo_Sys_KT_Ktchn_A")}
   C-RTD-FLOW-BA = {#PA("CRtdFlo_Sys_KT_Ktchn_A")}
      ##endif
      ##if #[CoolType[] NES None]
   HEATING-CAPACITY = {#PA("HtCap_Sys_KT_Ktchn_A")}
   C-HRTD-FLOW-BA = {#PA("CHRtFlo_Sys_KT_Ktchn_A")}
      ##endif
      ##if #[HeatType[] EQS HEAT-PUMP]
   HT-RATED-ECT = {#PA("HRtECT_Sys_KT_Ktchn_A")}
   HP-SUPP-HT-CAP = {#PA("HSpCap_Sys_KT_Ktchn_A")}
      ##endif
      ##endif
   SIZING-METHOD = { if(#PA("CZ_Category") == "Tem") 
     then #SIT("CAPACITY/FLOW","SYSTEM","SIZING-METHOD",#L("TYPE"))
     else #SIT("FLOW/CAPACITY","SYSTEM","SIZING-METHOD",#L("TYPE")) endif }
   FLOW/CAPACITY = {210/#PA("TotCoolCapMult")}
   ..
KT_Ktchn_AZn = ZONE
   TYPE = CONDITIONED
   SPACE = KT_Ktchn_A
      ##if #[IsSizing[] EQS FALSE]
   ASSIGNED-FLOW = { (1 - #PA("DuctAirLoss"))
      * #L("C-ASGN-FLOW-BA")/#PA("AltAdjFactor")}
   HRATED-FLOW ={ (1 - #PA("DuctAirLoss"))
      * #L("C-HRTD-FLOW-BA")/#PA("AltAdjFactor")}
      ##endif
      ##if #[BldgHasRefg[] EQS FALSE]
        ##include IncFiles\ZoneDXSZ.inp
      ##else
        ##include IncFiles\ZoneDXSZ_R.inp
      ##endif
   COOL-TEMP-SCH = { if(#PA("CoolType") == "None") then unused
     else #SI("D_RFF_All_CTemp_Yr","ZONE","COOL-TEMP-SCH") endif }
   HEAT-TEMP-SCH = { if(#PA("HeatType") == "None") then unused
     else #SI("D_RFF_All_HTemp_Yr","ZONE","HEAT-TEMP-SCH") endif }
   OA-FLOW/AREA = ( 0.5 )
   MIN-FLOW/AREA = 0.5
   FLOW/AREA = 0.5
   EXHAUST-FLOW = 270
   EXHAUST-STATIC = 1.3
   EXHAUST-EFF = 0.6
      ##if #[IsSizing[] EQS FALSE]
   C-ASGN-FLOW-BA = {#PA("CAssFlo_KT_Ktchn_AZn")}
      ##if #[CoolType[] EQS None]
   HEATING-CAPACITY = {#PA("HtCap_KT_Ktchn_AZn")}
      ##endif
      ##endif
   ..
Sys_LW_LobWait_A = SYSTEM
      ##if #[CoolType[] EQS DX]
   TYPE = PVVT
      ##else
   TYPE = UVT
      ##endif
      ##if #[CoolType[] EQS DX]
        ##if #[BldgHasRefg[] EQS FALSE]
          ##include IncFiles\SystemDXSZ.inp
        ##else
          ##include IncFiles\SystemDXSZ_R.inp
        ##endif
      ##else
        ##if #[BldgHasRefg[] EQS FALSE]
          ##include IncFiles\SystemNCSZ.inp
        ##else
          ##include IncFiles\SystemNCSZ_R.inp
        ##endif
      ##endif
      ##if #[IsSizing[] EQS TRUE]
   SIZING-RATIO = 1.15
   COOL-SIZING-RATI = 1.0
   HEAT-SIZING-RATI = 1.0
      ##else
   SIZING-RATIO = 1.15
   COOL-SIZING-RATI = 1.0
   HEAT-SIZING-RATI = 1.0
        ##if #[CoolType[] NES None]
   SUPPLY-FLOW = { #L("C-SA-FLOW-BA")/#PA("AltAdjFactor")}
   RATED-FLOW = { #L("C-RTD-FLOW-BA")/#PA("AltAdjFactor")}
   HRATED-FLOW = { #L("C-HRTD-FLOW-BA")/#PA("AltAdjFactor")}
        ##endif
      ##endif
   RETURN-AIR-PATH = PLENUM-ZONES
   DUCT-AIR-LOSS    = {#PA("DuctAirLoss")}
   DUCT-DT          = {#PA("DuctDT")}
   DUCT-ENVIR-DT    = { #PA("DesCoolT") - #PA("MinSupT") }
   DUCT-AIR-LOSS-OA = {#PA("DuctLossOAFrac")}
   DUCT-ZONE = LW_LobWait_A_PlZn
   CONTROL-ZONE = LW_LobWait_AZn
   FAN-SCHEDULE = D_RFF_All_Fan_Yr
   MIN-AIR-SCH = D_RFF_All_MinOA_Yr
      ##if #[IsSizing[] EQS FALSE]
      ##if #[CoolType[] NES None]
   COOLING-CAPACITY = {#PA("ClCap_Sys_LW_LobWait_A")
      * #PA("TotCoolCapMult") }
   C-SA-FLOW-BA = {#PA("CSupFlo_Sys_LW_LobWait_A")}
   C-RTD-FLOW-BA = {#PA("CRtdFlo_Sys_LW_LobWait_A")}
      ##endif
      ##if #[CoolType[] NES None]
   HEATING-CAPACITY = {#PA("HtCap_Sys_LW_LobWait_A")}
   C-HRTD-FLOW-BA = {#PA("CHRtFlo_Sys_LW_LobWait_A")}
      ##endif
      ##if #[HeatType[] EQS HEAT-PUMP]
   HT-RATED-ECT = {#PA("HRtECT_Sys_LW_LobWait_A")}
   HP-SUPP-HT-CAP = {#PA("HSpCap_Sys_LW_LobWait_A")}
      ##endif
      ##endif
   SIZING-METHOD = { if(#PA("CZ_Category") == "Tem") 
     then #SIT("CAPACITY/FLOW","SYSTEM","SIZING-METHOD",#L("TYPE"))
     else #SIT("FLOW/CAPACITY","SYSTEM","SIZING-METHOD",#L("TYPE")) endif }
   FLOW/CAPACITY = {350/#PA("TotCoolCapMult")}
   ..
LW_LobWait_AZn = ZONE
   TYPE = CONDITIONED
   SPACE = LW_LobWait_A
      ##if #[IsSizing[] EQS FALSE]
   ASSIGNED-FLOW = { (1 - #PA("DuctAirLoss"))
      * #L("C-ASGN-FLOW-BA")/#PA("AltAdjFactor")}
   HRATED-FLOW ={ (1 - #PA("DuctAirLoss"))
      * #L("C-HRTD-FLOW-BA")/#PA("AltAdjFactor")}
      ##endif
      ##if #[BldgHasRefg[] EQS FALSE]
        ##include IncFiles\ZoneDXSZ.inp
      ##else
        ##include IncFiles\ZoneDXSZ_R.inp
      ##endif
   COOL-TEMP-SCH = { if(#PA("CoolType") == "None") then unused
     else #SI("D_RFF_All_CTemp_Yr","ZONE","COOL-TEMP-SCH") endif }
   HEAT-TEMP-SCH = { if(#PA("HeatType") == "None") then unused
     else #SI("D_RFF_All_HTemp_Yr","ZONE","HEAT-TEMP-SCH") endif }
   OA-FLOW/AREA = ( 0.325 )
   MIN-FLOW/AREA = 0.325
   FLOW/AREA = 0.4
      ##if #[IsSizing[] EQS FALSE]
   C-ASGN-FLOW-BA = {#PA("CAssFlo_LW_LobWait_AZn")}
      ##if #[CoolType[] EQS None]
   HEATING-CAPACITY = {#PA("HtCap_LW_LobWait_AZn")}
      ##endif
      ##endif
   ..
LW_LobWait_A_PlZn = ZONE
   TYPE = PLENUM
   SPACE = LW_LobWait_A_Pl
   ..
Sys_L_Stock_C = SYSTEM
      ##if #[CoolType[] EQS DX]
   TYPE = PVVT
      ##else
   TYPE = UVT
      ##endif
      ##if #[CoolType[] EQS DX]
        ##if #[BldgHasRefg[] EQS FALSE]
          ##include IncFiles\SystemDXSZ.inp
        ##else
          ##include IncFiles\SystemDXSZ_R.inp
        ##endif
      ##else
        ##if #[BldgHasRefg[] EQS FALSE]
          ##include IncFiles\SystemNCSZ.inp
        ##else
          ##include IncFiles\SystemNCSZ_R.inp
        ##endif
      ##endif
      ##if #[IsSizing[] EQS TRUE]
   SIZING-RATIO = 1.15
   COOL-SIZING-RATI = 1.0
   HEAT-SIZING-RATI = 1.0
      ##else
   SIZING-RATIO = 1.15
   COOL-SIZING-RATI = 1.0
   HEAT-SIZING-RATI = 1.0
        ##if #[CoolType[] NES None]
   SUPPLY-FLOW = { #L("C-SA-FLOW-BA")/#PA("AltAdjFactor")}
   RATED-FLOW = { #L("C-RTD-FLOW-BA")/#PA("AltAdjFactor")}
   HRATED-FLOW = { #L("C-HRTD-FLOW-BA")/#PA("AltAdjFactor")}
        ##endif
      ##endif
   CONTROL-ZONE = L_Stock_CZn
   FAN-SCHEDULE = D_RFF_All_Fan_Yr
   MIN-AIR-SCH = D_RFF_All_MinOA_Yr
      ##if #[IsSizing[] EQS FALSE]
      ##if #[CoolType[] NES None]
   COOLING-CAPACITY = {#PA("ClCap_Sys_L_Stock_C")
      * #PA("TotCoolCapMult") }
   C-SA-FLOW-BA = {#PA("CSupFlo_Sys_L_Stock_C")}
   C-RTD-FLOW-BA = {#PA("CRtdFlo_Sys_L_Stock_C")}
      ##endif
      ##if #[CoolType[] NES None]
   HEATING-CAPACITY = {#PA("HtCap_Sys_L_Stock_C")}
   C-HRTD-FLOW-BA = {#PA("CHRtFlo_Sys_L_Stock_C")}
      ##endif
      ##if #[HeatType[] EQS HEAT-PUMP]
   HT-RATED-ECT = {#PA("HRtECT_Sys_L_Stock_C")}
   HP-SUPP-HT-CAP = {#PA("HSpCap_Sys_L_Stock_C")}
      ##endif
      ##endif
   SIZING-METHOD = { if(#PA("CZ_Category") == "Tem") 
     then #SIT("CAPACITY/FLOW","SYSTEM","SIZING-METHOD",#L("TYPE"))
     else #SIT("FLOW/CAPACITY","SYSTEM","SIZING-METHOD",#L("TYPE")) endif }
   FLOW/CAPACITY = {350/#PA("TotCoolCapMult")}
   ..
L_Stock_CZn = ZONE
   TYPE = CONDITIONED
   SPACE = L_Stock_C
      ##if #[IsSizing[] EQS FALSE]
   ASSIGNED-FLOW = { (1 - #PA("DuctAirLoss"))
      * #L("C-ASGN-FLOW-BA")/#PA("AltAdjFactor")}
   HRATED-FLOW ={ (1 - #PA("DuctAirLoss"))
      * #L("C-HRTD-FLOW-BA")/#PA("AltAdjFactor")}
      ##endif
      ##if #[BldgHasRefg[] EQS FALSE]
        ##include IncFiles\ZoneDXSZ.inp
      ##else
        ##include IncFiles\ZoneDXSZ_R.inp
      ##endif
   COOL-TEMP-SCH = { if(#PA("CoolType") == "None") then unused
     else #SI("D_RFF_All_CTemp_Yr","ZONE","COOL-TEMP-SCH") endif }
   HEAT-TEMP-SCH = { if(#PA("HeatType") == "None") then unused
     else #SI("D_RFF_All_HTemp_Yr","ZONE","HEAT-TEMP-SCH") endif }
   OA-FLOW/AREA = ( 0.15 )
   MIN-FLOW/AREA = 0.15
   FLOW/AREA = 0.4
      ##if #[IsSizing[] EQS FALSE]
   C-ASGN-FLOW-BA = {#PA("CAssFlo_L_Stock_CZn")}
      ##if #[CoolType[] EQS None]
   HEATING-CAPACITY = {#PA("HtCap_L_Stock_CZn")}
      ##endif
      ##endif
   ..
Sys_L_Restrm_C = SYSTEM
      ##if #[CoolType[] EQS DX]
   TYPE = PVVT
      ##else
   TYPE = UVT
      ##endif
      ##if #[CoolType[] EQS DX]
        ##if #[BldgHasRefg[] EQS FALSE]
          ##include IncFiles\SystemDXSZ.inp
        ##else
          ##include IncFiles\SystemDXSZ_R.inp
        ##endif
      ##else
        ##if #[BldgHasRefg[] EQS FALSE]
          ##include IncFiles\SystemNCSZ.inp
        ##else
          ##include IncFiles\SystemNCSZ_R.inp
        ##endif
      ##endif
      ##if #[IsSizing[] EQS TRUE]
   SIZING-RATIO = 1.15
   COOL-SIZING-RATI = 1.0
   HEAT-SIZING-RATI = 1.0
      ##else
   SIZING-RATIO = 1.15
   COOL-SIZING-RATI = 1.0
   HEAT-SIZING-RATI = 1.0
        ##if #[CoolType[] NES None]
   SUPPLY-FLOW = { #L("C-SA-FLOW-BA")/#PA("AltAdjFactor")}
   RATED-FLOW = { #L("C-RTD-FLOW-BA")/#PA("AltAdjFactor")}
   HRATED-FLOW = { #L("C-HRTD-FLOW-BA")/#PA("AltAdjFactor")}
        ##endif
      ##endif
   RETURN-AIR-PATH = PLENUM-ZONES
   DUCT-AIR-LOSS    = {#PA("DuctAirLoss")}
   DUCT-DT          = {#PA("DuctDT")}
   DUCT-ENVIR-DT    = { #PA("DesCoolT") - #PA("MinSupT") }
   DUCT-AIR-LOSS-OA = {#PA("DuctLossOAFrac")}
   DUCT-ZONE = L_Restrm_C_PlZn
   CONTROL-ZONE = L_Restrm_CZn
   FAN-SCHEDULE = D_RFF_All_Fan_Yr
   MIN-AIR-SCH = D_RFF_All_MinOA_Yr
      ##if #[IsSizing[] EQS FALSE]
      ##if #[CoolType[] NES None]
   COOLING-CAPACITY = {#PA("ClCap_Sys_L_Restrm_C")
      * #PA("TotCoolCapMult") }
   C-SA-FLOW-BA = {#PA("CSupFlo_Sys_L_Restrm_C")}
   C-RTD-FLOW-BA = {#PA("CRtdFlo_Sys_L_Restrm_C")}
      ##endif
      ##if #[CoolType[] NES None]
   HEATING-CAPACITY = {#PA("HtCap_Sys_L_Restrm_C")}
   C-HRTD-FLOW-BA = {#PA("CHRtFlo_Sys_L_Restrm_C")}
      ##endif
      ##if #[HeatType[] EQS HEAT-PUMP]
   HT-RATED-ECT = {#PA("HRtECT_Sys_L_Restrm_C")}
   HP-SUPP-HT-CAP = {#PA("HSpCap_Sys_L_Restrm_C")}
      ##endif
      ##endif
   SIZING-METHOD = { if(#PA("CZ_Category") == "Tem") 
     then #SIT("CAPACITY/FLOW","SYSTEM","SIZING-METHOD",#L("TYPE"))
     else #SIT("FLOW/CAPACITY","SYSTEM","SIZING-METHOD",#L("TYPE")) endif }
   FLOW/CAPACITY = {350/#PA("TotCoolCapMult")}
   ..
L_Restrm_CZn = ZONE
   TYPE = CONDITIONED
   SPACE = L_Restrm_C
      ##if #[IsSizing[] EQS FALSE]
   ASSIGNED-FLOW = { (1 - #PA("DuctAirLoss"))
      * #L("C-ASGN-FLOW-BA")/#PA("AltAdjFactor")}
   HRATED-FLOW ={ (1 - #PA("DuctAirLoss"))
      * #L("C-HRTD-FLOW-BA")/#PA("AltAdjFactor")}
      ##endif
      ##if #[BldgHasRefg[] EQS FALSE]
        ##include IncFiles\ZoneDXSZ.inp
      ##else
        ##include IncFiles\ZoneDXSZ_R.inp
      ##endif
   COOL-TEMP-SCH = { if(#PA("CoolType") == "None") then unused
     else #SI("D_RFF_All_CTemp_Yr","ZONE","COOL-TEMP-SCH") endif }
   HEAT-TEMP-SCH = { if(#PA("HeatType") == "None") then unused
     else #SI("D_RFF_All_HTemp_Yr","ZONE","HEAT-TEMP-SCH") endif }
   OA-FLOW/AREA = ( 0.05 )
   MIN-FLOW/AREA = 0.05
   FLOW/AREA = 0.4
      ##if #[IsSizing[] EQS FALSE]
   C-ASGN-FLOW-BA = {#PA("CAssFlo_L_Restrm_CZn")}
      ##if #[CoolType[] EQS None]
   HEATING-CAPACITY = {#PA("HtCap_L_Restrm_CZn")}
      ##endif
      ##endif
   ..
L_Restrm_C_PlZn = ZONE
   TYPE = PLENUM
   SPACE = L_Restrm_C_Pl
   ..
Sys_L_OffGen_C = SYSTEM
      ##if #[CoolType[] EQS DX]
   TYPE = PVVT
      ##else
   TYPE = UVT
      ##endif
      ##if #[CoolType[] EQS DX]
        ##if #[BldgHasRefg[] EQS FALSE]
          ##include IncFiles\SystemDXSZ.inp
        ##else
          ##include IncFiles\SystemDXSZ_R.inp
        ##endif
      ##else
        ##if #[BldgHasRefg[] EQS FALSE]
          ##include IncFiles\SystemNCSZ.inp
        ##else
          ##include IncFiles\SystemNCSZ_R.inp
        ##endif
      ##endif
      ##if #[IsSizing[] EQS TRUE]
   SIZING-RATIO = 1.15
   COOL-SIZING-RATI = 1.0
   HEAT-SIZING-RATI = 1.0
      ##else
   SIZING-RATIO = 1.15
   COOL-SIZING-RATI = 1.0
   HEAT-SIZING-RATI = 1.0
        ##if #[CoolType[] NES None]
   SUPPLY-FLOW = { #L("C-SA-FLOW-BA")/#PA("AltAdjFactor")}
   RATED-FLOW = { #L("C-RTD-FLOW-BA")/#PA("AltAdjFactor")}
   HRATED-FLOW = { #L("C-HRTD-FLOW-BA")/#PA("AltAdjFactor")}
        ##endif
      ##endif
   RETURN-AIR-PATH = PLENUM-ZONES
   DUCT-AIR-LOSS    = {#PA("DuctAirLoss")}
   DUCT-DT          = {#PA("DuctDT")}
   DUCT-ENVIR-DT    = { #PA("DesCoolT") - #PA("MinSupT") }
   DUCT-AIR-LOSS-OA = {#PA("DuctLossOAFrac")}
   DUCT-ZONE = L_OffGen_C_PlZn
   CONTROL-ZONE = L_OffGen_CZn
   FAN-SCHEDULE = D_RFF_All_Fan_Yr
   MIN-AIR-SCH = D_RFF_All_MinOA_Yr
      ##if #[IsSizing[] EQS FALSE]
      ##if #[CoolType[] NES None]
   COOLING-CAPACITY = {#PA("ClCap_Sys_L_OffGen_C")
      * #PA("TotCoolCapMult") }
   C-SA-FLOW-BA = {#PA("CSupFlo_Sys_L_OffGen_C")}
   C-RTD-FLOW-BA = {#PA("CRtdFlo_Sys_L_OffGen_C")}
      ##endif
      ##if #[CoolType[] NES None]
   HEATING-CAPACITY = {#PA("HtCap_Sys_L_OffGen_C")}
   C-HRTD-FLOW-BA = {#PA("CHRtFlo_Sys_L_OffGen_C")}
      ##endif
      ##if #[HeatType[] EQS HEAT-PUMP]
   HT-RATED-ECT = {#PA("HRtECT_Sys_L_OffGen_C")}
   HP-SUPP-HT-CAP = {#PA("HSpCap_Sys_L_OffGen_C")}
      ##endif
      ##endif
   SIZING-METHOD = { if(#PA("CZ_Category") == "Tem") 
     then #SIT("CAPACITY/FLOW","SYSTEM","SIZING-METHOD",#L("TYPE"))
     else #SIT("FLOW/CAPACITY","SYSTEM","SIZING-METHOD",#L("TYPE")) endif }
   FLOW/CAPACITY = {350/#PA("TotCoolCapMult")}
   ..
L_OffGen_CZn = ZONE
   TYPE = CONDITIONED
   SPACE = L_OffGen_C
      ##if #[IsSizing[] EQS FALSE]
   ASSIGNED-FLOW = { (1 - #PA("DuctAirLoss"))
      * #L("C-ASGN-FLOW-BA")/#PA("AltAdjFactor")}
   HRATED-FLOW ={ (1 - #PA("DuctAirLoss"))
      * #L("C-HRTD-FLOW-BA")/#PA("AltAdjFactor")}
      ##endif
      ##if #[BldgHasRefg[] EQS FALSE]
        ##include IncFiles\ZoneDXSZ.inp
      ##else
        ##include IncFiles\ZoneDXSZ_R.inp
      ##endif
   COOL-TEMP-SCH = { if(#PA("CoolType") == "None") then unused
     else #SI("D_RFF_All_CTemp_Yr","ZONE","COOL-TEMP-SCH") endif }
   HEAT-TEMP-SCH = { if(#PA("HeatType") == "None") then unused
     else #SI("D_RFF_All_HTemp_Yr","ZONE","HEAT-TEMP-SCH") endif }
   OA-FLOW/AREA = ( 0.15 )
   MIN-FLOW/AREA = 0.15
   FLOW/AREA = 0.4
      ##if #[IsSizing[] EQS FALSE]
   C-ASGN-FLOW-BA = {#PA("CAssFlo_L_OffGen_CZn")}
      ##if #[CoolType[] EQS None]
   HEATING-CAPACITY = {#PA("HtCap_L_OffGen_CZn")}
      ##endif
      ##endif
   ..
L_OffGen_C_PlZn = ZONE
   TYPE = PLENUM
   SPACE = L_OffGen_C_Pl
   ..
Sys_L_Cordr_C = SYSTEM
      ##if #[CoolType[] EQS DX]
   TYPE = PVVT
      ##else
   TYPE = UVT
      ##endif
      ##if #[CoolType[] EQS DX]
        ##if #[BldgHasRefg[] EQS FALSE]
          ##include IncFiles\SystemDXSZ.inp
        ##else
          ##include IncFiles\SystemDXSZ_R.inp
        ##endif
      ##else
        ##if #[BldgHasRefg[] EQS FALSE]
          ##include IncFiles\SystemNCSZ.inp
        ##else
          ##include IncFiles\SystemNCSZ_R.inp
        ##endif
      ##endif
      ##if #[IsSizing[] EQS TRUE]
   SIZING-RATIO = 1.15
   COOL-SIZING-RATI = 1.0
   HEAT-SIZING-RATI = 1.0
      ##else
   SIZING-RATIO = 1.15
   COOL-SIZING-RATI = 1.0
   HEAT-SIZING-RATI = 1.0
        ##if #[CoolType[] NES None]
   SUPPLY-FLOW = { #L("C-SA-FLOW-BA")/#PA("AltAdjFactor")}
   RATED-FLOW = { #L("C-RTD-FLOW-BA")/#PA("AltAdjFactor")}
   HRATED-FLOW = { #L("C-HRTD-FLOW-BA")/#PA("AltAdjFactor")}
        ##endif
      ##endif
   RETURN-AIR-PATH = PLENUM-ZONES
   DUCT-AIR-LOSS    = {#PA("DuctAirLoss")}
   DUCT-DT          = {#PA("DuctDT")}
   DUCT-ENVIR-DT    = { #PA("DesCoolT") - #PA("MinSupT") }
   DUCT-AIR-LOSS-OA = {#PA("DuctLossOAFrac")}
   DUCT-ZONE = L_Cordr_C_PlZn
   CONTROL-ZONE = L_Cordr_CZn
   FAN-SCHEDULE = D_RFF_All_Fan_Yr
   MIN-AIR-SCH = D_RFF_All_MinOA_Yr
      ##if #[IsSizing[] EQS FALSE]
      ##if #[CoolType[] NES None]
   COOLING-CAPACITY = {#PA("ClCap_Sys_L_Cordr_C")
      * #PA("TotCoolCapMult") }
   C-SA-FLOW-BA = {#PA("CSupFlo_Sys_L_Cordr_C")}
   C-RTD-FLOW-BA = {#PA("CRtdFlo_Sys_L_Cordr_C")}
      ##endif
      ##if #[CoolType[] NES None]
   HEATING-CAPACITY = {#PA("HtCap_Sys_L_Cordr_C")}
   C-HRTD-FLOW-BA = {#PA("CHRtFlo_Sys_L_Cordr_C")}
      ##endif
      ##if #[HeatType[] EQS HEAT-PUMP]
   HT-RATED-ECT = {#PA("HRtECT_Sys_L_Cordr_C")}
   HP-SUPP-HT-CAP = {#PA("HSpCap_Sys_L_Cordr_C")}
      ##endif
      ##endif
   SIZING-METHOD = { if(#PA("CZ_Category") == "Tem") 
     then #SIT("CAPACITY/FLOW","SYSTEM","SIZING-METHOD",#L("TYPE"))
     else #SIT("FLOW/CAPACITY","SYSTEM","SIZING-METHOD",#L("TYPE")) endif }
   FLOW/CAPACITY = {350/#PA("TotCoolCapMult")}
   ..
L_Cordr_CZn = ZONE
   TYPE = CONDITIONED
   SPACE = L_Cordr_C
      ##if #[IsSizing[] EQS FALSE]
   ASSIGNED-FLOW = { (1 - #PA("DuctAirLoss"))
      * #L("C-ASGN-FLOW-BA")/#PA("AltAdjFactor")}
   HRATED-FLOW ={ (1 - #PA("DuctAirLoss"))
      * #L("C-HRTD-FLOW-BA")/#PA("AltAdjFactor")}
      ##endif
      ##if #[BldgHasRefg[] EQS FALSE]
        ##include IncFiles\ZoneDXSZ.inp
      ##else
        ##include IncFiles\ZoneDXSZ_R.inp
      ##endif
   COOL-TEMP-SCH = { if(#PA("CoolType") == "None") then unused
     else #SI("D_RFF_All_CTemp_Yr","ZONE","COOL-TEMP-SCH") endif }
   HEAT-TEMP-SCH = { if(#PA("HeatType") == "None") then unused
     else #SI("D_RFF_All_HTemp_Yr","ZONE","HEAT-TEMP-SCH") endif }
   OA-FLOW/AREA = ( 0.15 )
   MIN-FLOW/AREA = 0.15
   FLOW/AREA = 0.4
      ##if #[IsSizing[] EQS FALSE]
   C-ASGN-FLOW-BA = {#PA("CAssFlo_L_Cordr_CZn")}
      ##if #[CoolType[] EQS None]
   HEATING-CAPACITY = {#PA("HtCap_L_Cordr_CZn")}
      ##endif
      ##endif
   ..
L_Cordr_C_PlZn = ZONE
   TYPE = PLENUM
   SPACE = L_Cordr_C_Pl
   ..

$ ---------------------------------------------------------
$              Loads Non-Hourly Reporting
$ ---------------------------------------------------------

LOADS-REPORT    
   VERIFICATION     = ( ALL-VERIFICATION )
   SUMMARY          = ( ALL-SUMMARY )
   ..

$ ---------------------------------------------------------
$              Systems Non-Hourly Reporting
$ ---------------------------------------------------------

SYSTEMS-REPORT  
   VERIFICATION     = ( ALL-VERIFICATION )
   SUMMARY          = ( ALL-SUMMARY )
   HOURLY-DATA-SAVE = FORMATTED
   ..

HrlyRepDayOff = DAY-SCHEDULE-PD TYPE = ON/OFF VALUES = (0)  ..
HrlyRepDayOn = DAY-SCHEDULE-PD TYPE = ON/OFF VALUES = (1)  ..

HrlyRepWkOn = WEEK-SCHEDULE-PD
   TYPE             = ON/OFF
   DAY-SCHEDULES    = ( HrlyRepDayOn, &D, &D, &D, &D, &D, &D, &D,  
         HrlyRepDayOff, HrlyRepDayOff )   ..

HrlyRepWkOff = WEEK-SCHEDULE-PD
   TYPE          = ON/OFF
   DAY-SCHEDULES = ( HrlyRepDayOff, &D,&D,&D,&D,&D,&D,&D,&D,&D )
   ..
HrlyRepSch = SCHEDULE TYPE = ON/OFF   
   THRU DEC 31 HrlyRepWkOn 
   ..

EM1_OnPeakKW_RB = REPORT-BLOCK    
   VARIABLE-TYPE    = "EM1"
      ##if #[EU_HrRepVar[] EQ 0]
   VARIABLE-LIST    = ( 20 )
      ##else
   VARIABLE-LIST    = ( 20, EU_HrRepVar[] )
      ##endif
   ..

PeakPerKW_HrlyRpt = HOURLY-REPORT   
   REPORT-SCHEDULE  = "HrlyRepSch"
   REPORT-BLOCK     = ( "EM1_OnPeakKW_RB")
   ..


$ ---------------------------------------------------------
$              Plant Non-Hourly Reporting
$ ---------------------------------------------------------

PLANT-REPORT    
   VERIFICATION     = ( ALL-VERIFICATION )
   SUMMARY          = ( ALL-SUMMARY )
   ..

$ ---------------------------------------------------------
$              Economics Non-Hourly Reporting
$ ---------------------------------------------------------

ECONOMICS-REPORT
   VERIFICATION     = ( ALL-VERIFICATION )
   SUMMARY          = ( ALL-SUMMARY )
   ..

