This JJHirsch DOE-2.3-50i  was released in February 2018.

Start DOEBDL : Storage capacity =  75000000
Starting BDL   1
Finished BDL   1 : Memory (wds) = 12380073, clock time (secs) =     5.1
End   DOEBDL : Total elapsed time of      5.3 seconds
ERRORLEVEL=0 
