INPUT ..

##fileprefix C:\Users\jglasskatz\MASControl3\
##set1 IsSizing TRUE
##set1 CoolType DX
##set1 HeatType FURNACE
##set1 EU_HrRepVar 3
##set1 BldgVint MH00
##set1 BldgLoc CZ02

 ##set1 mDhwFuel_Type ELEC   $ Msr (Var)TechID: MsrDWStdSizeElecDHWTier1
 ##set1 mBFMult 1   $ IP Tech: RefgChg-Res-Std

PARAMETER
 "AltFactor" = 1.00464   $ IP Non-Tech
 "Appliance_Cap" = Standard   $ Msr (Multi)TechID: MsrDWStdSizeElecDHWTier1
 "BrmLen" = 21.6   $ IP Non-Tech
 "CDD_DBHi10" = 83   $ IP Non-Tech
 "CDD_DBHi7" = 96   $ IP Non-Tech
 "CDD_DBHi8" = 92   $ IP Non-Tech
 "CDD_DBHi9" = 96   $ IP Non-Tech
 "CDD_DBRange10" = 35   $ IP Non-Tech
 "CDD_DBRange7" = 44   $ IP Non-Tech
 "CDD_DBRange8" = 38   $ IP Non-Tech
 "CDD_DBRange9" = 43   $ IP Non-Tech
 "CDD_Day10" = 15   $ IP Non-Tech
 "CDD_Day7" = 16   $ IP Non-Tech
 "CDD_Day8" = 20   $ IP Non-Tech
 "CDD_Day9" = 17   $ IP Non-Tech
 "CDD_HrHi10" = 15   $ IP Non-Tech
 "CDD_HrHi7" = 15   $ IP Non-Tech
 "CDD_HrHi8" = 16   $ IP Non-Tech
 "CDD_HrHi9" = 14   $ IP Non-Tech
 "CDD_HrLo10" = 7   $ IP Non-Tech
 "CDD_HrLo7" = 7   $ IP Non-Tech
 "CDD_HrLo8" = 6   $ IP Non-Tech
 "CDD_HrLo9" = 6   $ IP Non-Tech
 "CDD_WB10" = 61.02124405   $ IP Non-Tech
 "CDD_WB7" = 68.3706665   $ IP Non-Tech
 "CDD_WB8" = 69.14488983   $ IP Non-Tech
 "CDD_WB9" = 65.15551758   $ IP Non-Tech
 "CWCyclesPerYr" = 214   $ IP Non-Tech
 "CZ_Category" = Mod   $ IP Non-Tech
 "ClgHt" = 8.8   $ IP Non-Tech
 "CoolCapSfPerTon" = 354.9   $ IP Non-Tech
 "CoolSetT" = 40   $ IP Non-Tech
 "CoolType" = DX   $ IP Non-Tech
 "DHW_DT" = 70   $ Msr (Multi)TechID: MsrDWStdSizeElecDHWTier1
 "DHW_EIR" = 1.0204   $ Msr (Var)TechID: MsrDWStdSizeElecDHWTier1
 "DLen" = 0   $ IP Non-Tech
 "DWCyclesPerYr" = 153   $ IP Non-Tech
 "DWGalPerCycle" = 3.25   $ Msr (Multi)TechID: MsrDWStdSizeElecDHWTier1
 "DWOnCyclekWh" = 0.62255814   $ Msr (Multi)TechID: MsrDWStdSizeElecDHWTier1
 "DWRefCyclesPerYr" = 215   $ Msr (Multi)TechID: MsrDWStdSizeElecDHWTier1
 "DWStdbykWh" = 8.76   $ Msr (Multi)TechID: MsrDWStdSizeElecDHWTier1
 "DWWtr_kWhPerCycle" = 0.546   $ Msr (Multi)TechID: MsrDWStdSizeElecDHWTier1
 "DW_HWSupT" = 135   $ Msr (Multi)TechID: MsrDWStdSizeElecDHWTier1
 "DhwFuel_Type" = ELEC   $ Msr (Var)TechID: MsrDWStdSizeElecDHWTier1
 "DhwInpRateBtuh" = 15358.5   $ Msr (Var)TechID: MsrDWStdSizeElecDHWTier1
 "DhwTankUA" = 3.135617978   $ Msr (Var)TechID: MsrDWStdSizeElecDHWTier1
 "DoorCons" = Cons_DoorU0p23   $ IP Non-Tech
 "DuctAirLossOA" = 1   $ IP Non-Tech
 "DuctInAttic1" = 0.75   $ IP Non-Tech
 "EAEU" = 260   $ Msr (Multi)TechID: MsrDWStdSizeElecDHWTier1
 "EF_Rating" = 0.89   $ Msr (Var)TechID: MsrDWStdSizeElecDHWTier1
 "EconoEnthLimit" = 28   $ IP Non-Tech
 "EconoTempLimit" = 73   $ IP Non-Tech
 "Elevation" = 125   $ IP Non-Tech
 "Energy_Factor" = 0.855755453   $ Msr (Multi)TechID: MsrDWStdSizeElecDHWTier1
 "FlrLen" = 54   $ IP Non-Tech
 "FurnFrac" = 0.4   $ IP Non-Tech
 "FurnWt" = 8   $ IP Non-Tech
 "GlassMethod" = GTC   $ IP Non-Tech
 "HDD_CloudAmt1" = 0   $ IP Non-Tech
 "HDD_DBHi1" = 51   $ IP Non-Tech
 "HDD_DBRange1" = 22   $ IP Non-Tech
 "HDD_Day1" = 15   $ IP Non-Tech
 "HDD_HrHi1" = 15   $ IP Non-Tech
 "HDD_HrLo1" = 8   $ IP Non-Tech
 "HDD_WB1" = 45.9   $ IP Non-Tech
 "HDD_WindSpd1" = 10.4   $ IP Non-Tech
 "HeatSrc" = FURNACE   $ IP Non-Tech
 "HeatType" = GasFurn   $ IP Non-Tech
 "HtgAreaPerKbtuh" = 22.6   $ IP Non-Tech
 "Latitude" = 38.5   $ IP Non-Tech
 "LivLen" = 32.4   $ IP Non-Tech
 "Longitude" = 122.7   $ IP Non-Tech
 "LtgKWhBase1" = 1447.6   $ IP Non-Tech
 "LtgKWhBase2" = 0   $ IP Non-Tech
 "LtgKWhGarage" = 50   $ IP Non-Tech
 "LtgKWhMain" = 454   $ IP Non-Tech
 "MaxSupT_MZ" = 120   $ IP Non-Tech
 "MaxSupT_SZ" = 120   $ IP Non-Tech
 "MinSupT" = 40   $ IP Non-Tech
 "NatVentACH" = 3   $ IP Non-Tech
 "NatVentOnSch" = D_ResNatVentOnCZ02_Yr   $ IP Non-Tech
 "NatVentOpenSch" = D_ResNatVentOpen_CZ02_Yr   $ IP Non-Tech
 "NatVentTempSch" = D_ResNatVentTemp_Yr   $ IP Non-Tech
 "NumBedrooms" = 2   $ IP Non-Tech
 "Occupants" = 2   $ IP Non-Tech
 "RecovEff" = 0.98   $ Msr (Var)TechID: MsrDWStdSizeElecDHWTier1
 "RoofAbs" = 0.7   $ IP Non-Tech
 "RoofInsideRConv" = 4   $ IP Non-Tech
 "SchCloWa" = D_DMo_Living_CloWa_Yr   $ IP Non-Tech
 "SchCook" = D_DMo_Living_Cook_Yr   $ IP Non-Tech
 "SchDishW" = D_DMo_Living_Dishw_Yr   $ IP Non-Tech
 "SchDryer" = D_DMo_Living_Dryer_Yr   $ IP Non-Tech
 "SchLitBRm" = D_DMo_Bedrm_ILit_Yr   $ IP Non-Tech
 "SchLitGar" = D_DMo_Gar_ILit_Yr   $ IP Non-Tech
 "SchLitLiv" = D_DMo_Living_ILit_Yr   $ IP Non-Tech
 "SchOccBRm" = D_DMo_Bedrm_Occup_Yr   $ IP Non-Tech
 "SchOccLiv" = D_DMo_Living_Occup_Yr   $ IP Non-Tech
 "SchPlgBRm" = D_DMo_Bedrm_Plugs_Yr   $ IP Non-Tech
 "SchPlgLiv" = D_DMo_Living_Plugs_Yr   $ IP Non-Tech
 "SchRefgGar" = D_DMo_Gar_SCRef_Yr   $ IP Non-Tech
 "SchRefgLiv" = D_DMo_Living_SCRef_Yr   $ IP Non-Tech
 "SlabF2" = 0.77   $ IP Non-Tech
 "StandbyW" = 1   $ Msr (Multi)TechID: MsrDWStdSizeElecDHWTier1
 "SupplyAirLossFrac" = 1   $ IP Non-Tech
 "TStatClgDay" = 83.0   $ IP Non-Tech
 "TStatClgEve" = 83.0   $ IP Non-Tech
 "TStatClgMrn" = 83.0   $ IP Non-Tech
 "TStatClgNit" = 83.0   $ IP Non-Tech
 "TStatHtgDay" = 55.0   $ IP Non-Tech
 "TStatHtgEve" = 55.0   $ IP Non-Tech
 "TStatHtgMrn" = 55.0   $ IP Non-Tech
 "TStatHtgNit" = 55.0   $ IP Non-Tech
 "TierLevel" = Tier1   $ Msr (Multi)TechID: MsrDWStdSizeElecDHWTier1
 "TwrSetpt" = 84   $ IP Non-Tech
 "WH_Rated_Gallons" = 30   $ Msr (Var)TechID: MsrDWStdSizeElecDHWTier1
 "WallAbs" = 0.5   $ IP Non-Tech
 "WallHt" = 13   $ IP Non-Tech
 "WaterCp" = 0.0024   $ Msr (Multi)TechID: MsrDWStdSizeElecDHWTier1
 "WinHt" = 4   $ IP Non-Tech
 "WinWid1" = 7.61   $ IP Non-Tech
 "WinWid2" = 6.52   $ IP Non-Tech
 "WtrHtElecInput" = 4.5   $ Msr (Var)TechID: MsrDWStdSizeElecDHWTier1
 "WtrHt_Type" = Strg   $ Msr (Var)TechID: MsrDWStdSizeElecDHWTier1
 "AttFlrInsR" = 24   $ IP Tech: AttBatIns-24
 "AttRperInch" = 3.77   $ IP Tech: AttBatIns-24
 "CD_Drying_kWh" = 0   $ IP Tech: CloWash-GasDry-Any-Std05
 "CD_GasTherm" = 43.9   $ IP Tech: CloWash-GasDry-Any-Std05
 "CD_Mach_kWh" = 96.9   $ IP Tech: CloWash-GasDry-Any-Std05
 "CWGalPerYr" = 1179   $ IP Tech: CloWash-GasDry-Any-Std05
 "CWRefCyclesPerYr" = 296   $ IP Tech: CloWash-GasDry-Any-Std05
 "CW_kWh" = 26.9   $ IP Tech: CloWash-GasDry-Any-Std05
 "DHWSupT" = 135   $ IP Tech: CloWash-GasDry-Any-Std05
 "Dryer_Fuel" = Gas   $ IP Tech: CloWash-GasDry-Any-Std05
 "LoadingType" = Any   $ IP Tech: CloWash-GasDry-Any-Std05
 "MEF" = 0.78   $ IP Tech: CloWash-GasDry-Any-Std05
 "FlrInsR" = 19   $ IP Tech: FloorIns-19
 "FlrRperInch" = 3.1   $ IP Tech: FloorIns-19
 "FanPwrMult" = 1   $ IP Tech: Furnace-0.80
 "FurnAFUE" = 0.8   $ IP Tech: Furnace-0.80
 "FurnEt" = 0.8163   $ IP Tech: Furnace-0.80
 "FurnaceAuxKW" = 0.1   $ IP Tech: Furnace-0.80
 "HIR_fPLR" = Furnace-HIR-fPLR   $ IP Tech: Furnace-0.80
 "VSM" = FALSE   $ IP Tech: Furnace-0.80
 "RoofInsideEmiss" = 0.9   $ IP Tech: RadiantBarrier-0.9
 "BFMult" = 1   $ IP Tech: RefgChg-Res-Std
 "CoolEirMult" = 1   $ IP Tech: RefgChg-Res-Std
 "SensCoolCapMult" = 1   $ IP Tech: RefgChg-Res-Std
 "TotCoolCapMult" = 1   $ IP Tech: RefgChg-Res-Std
 "DuctRValue" = 2.8   $ IP Tech: ResDuctInsul-2.8
 "DuctAirLoss" = 0.3   $ IP Tech: ResDuctLeak-0.3
 "LtgKWhSvgs" = 0   $ IP Tech: ResLtg-Base
 "RefgKWhLiv" = 669   $ IP Tech: ResRefgLiv-RefgFrzr-669kWh
 "RefgTypeLiv" = RefgFrzr   $ IP Tech: ResRefgLiv-RefgFrzr-669kWh
 "EWContInsR" = 0   $ IP Tech: ResWallIns-11.7-0
 "EWInsR" = 11.7   $ IP Tech: ResWallIns-11.7-0
 "EWRperInch" = 3.7   $ IP Tech: ResWallIns-11.7-0
 "EWallUo" = -1   $ IP Tech: ResWallIns-11.7-0
 "FrameU" = 1   $ IP Tech: ResWin-55-65-00
 "SHGC" = 0.65   $ IP Tech: ResWin-55-65-00
 "UFactor" = 0.55   $ IP Tech: ResWin-55-65-00
 "VisTrans" = -99   $ IP Tech: ResWin-55-65-00
 "WinCode" = G2610   $ IP Tech: ResWin-55-65-00
 "WinFrmFrac" = 0.17   $ IP Tech: ResWin-55-65-00
 "BF_fFlow" = SpltAC1Sp_BF_fFlow   $ IP Tech: SplitAC1Sp-S11.4
 "BF_fT" = SpltAC1Sp_BF_fT   $ IP Tech: SplitAC1Sp-S11.4
 "CEIR_fPLR_Hot" = SpltAC1Sp_CEIR_fPLR_Hot   $ IP Tech: SplitAC1Sp-S11.4
 "CEIR_fPLR_Mod" = SpltAC1Sp_CEIR_fPLR_Mod   $ IP Tech: SplitAC1Sp-S11.4
 "CEIR_fPLR_Tem" = SpltAC1Sp_CEIR_fPLR_Tem   $ IP Tech: SplitAC1Sp-S11.4
 "CLoss_fPLR_Hot" = SpltAC1Sp_CLoss_fPLR_Hot   $ IP Tech: SplitAC1Sp-S11.4
 "CLoss_fPLR_Mod" = SpltAC1Sp_CLoss_fPLR_Mod   $ IP Tech: SplitAC1Sp-S11.4
 "CLoss_fPLR_Tem" = SpltAC1Sp_CLoss_fPLR_Tem   $ IP Tech: SplitAC1Sp-S11.4
 "COP47" = 0   $ IP Tech: SplitAC1Sp-S11.4
 "CapRange" = Any   $ IP Tech: SplitAC1Sp-S11.4
 "CfmPerBtuh" = 0.0321   $ IP Tech: SplitAC1Sp-S11.4
 "ClCap_fT" = SpltAC1Sp_ClCap_fT   $ IP Tech: SplitAC1Sp-S11.4
 "ClSH_fT" = SpltAC1Sp_ClSH_fT   $ IP Tech: SplitAC1Sp-S11.4
 "CoilBF" = 0.12   $ IP Tech: SplitAC1Sp-S11.4
 "CondWPerBtuh" = 0   $ IP Tech: SplitAC1Sp-S11.4
 "CoolSensCap" = 0.744   $ IP Tech: SplitAC1Sp-S11.4
 "CoolingEIR" = 0.29731   $ IP Tech: SplitAC1Sp-S11.4
 "CrnkEIR" = 0.0029731   $ IP Tech: SplitAC1Sp-S11.4
 "CrnkMaxT" = 50   $ IP Tech: SplitAC1Sp-S11.4
 "DXType" = SplitSEER   $ IP Tech: SplitAC1Sp-S11.4
 "EER" = 9.714084507   $ IP Tech: SplitAC1Sp-S11.4
 "EIR_fT" = SpltAC1Sp_EIR_fT   $ IP Tech: SplitAC1Sp-S11.4
 "FanEirPlr" = TwoSpeedFan   $ IP Tech: SplitAC1Sp-S11.4
 "FanWPerCfm" = 0.365   $ IP Tech: SplitAC1Sp-S11.4
 "HIR_fT" = 0   $ IP Tech: SplitAC1Sp-S11.4
 "HSPF" = 0   $ IP Tech: SplitAC1Sp-S11.4
 "HtCap_fT" = 0   $ IP Tech: SplitAC1Sp-S11.4
 "HtCoolCapRatio" = 0   $ IP Tech: SplitAC1Sp-S11.4
 "HtgEIR" = 0   $ IP Tech: SplitAC1Sp-S11.4
 "LowSpdCapRatio" = 1   $ IP Tech: SplitAC1Sp-S11.4
 "LowSpdCfmRatio" = 1   $ IP Tech: SplitAC1Sp-S11.4
 "NumStages" = 1   $ IP Tech: SplitAC1Sp-S11.4
 "SEER" = 11.4   $ IP Tech: SplitAC1Sp-S11.4
 "Sector" = Any   $ IP Tech: SplitAC1Sp-S11.4
 "SubType" = AC   $ IP Tech: SplitAC1Sp-S11.4
 "TotCoolCap" = 34895   $ IP Tech: SplitAC1Sp-S11.4
 "FanVentCFMpSF" = 0   $ IP Tech: WHFan-NatVent
 "VentFanWperCFM" = 0   $ IP Tech: WHFan-NatVent
 "VentMaxT" = 70   $ IP Tech: WHFan-NatVent
 "VentMethod" = AIR-CHANGE   $ IP Tech: WHFan-NatVent
 "DHW_HIR" = 1.3193   $ IP Tech: WtrHt-SmlStrg-Gas-30G-570
 "WtrHtGasInput" = 30   $ IP Tech: WtrHt-SmlStrg-Gas-30G-570
..

##include Templates\DMo_DX_SZ.inp
END ..
COMPUTE ..
STOP ..
