
Start DOESIM : Storage capacity =  75000000
Starting LOADS   : SAVE-FILES is On , weather is CZ01ARCATA-AP       
Finished LOADS    BDL  1 : Memory (wds) =     43959, Time (sec) =    0.57
Starting REPORT  
Finished REPORT   BDL  1 : Memory (wds) =     96854, Time (sec) =    0.13
Starting HVAC    : SAVE-FILES is On , weather is CZ01ARCATA-AP       
*** ERRORS or WARNINGS from HVAC     program. Examine output file for details.
Finished HVAC     BDL  1 : Memory (wds) =     63268, Time (sec) =    0.62
Starting REPORT  
Finished REPORT   BDL  1 : Memory (wds) =     96461, Time (sec) =    0.07
Starting HOURLY-R
Finished HOURLY-R BDL  1 : Memory (wds) =    136685, Time (sec) =    0.15
Starting ECONOMIC
Finished ECONOMIC BDL  1 : Memory (wds) =      1034, Time (sec) =    0.03
End   DOESIM : Total elapsed time of      1.6 seconds
RUN COMPLETE
