INPUT ..

##fileprefix C:\Users\jglasskatz\MASControl3\
##set1 IsSizing FALSE
##set1 CoolType DX
##set1 HeatType FURNACE
##set1 EU_HrRepVar 0
##set1 BldgVint 2011
##set1 BldgLoc CZ13

 ##set1 mBFMult 1   $ IP Tech: RefgChg-NRes-Std

PARAMETER
 "AltFactor" = 1.01244   $ IP Non-Tech
 "BF_fFlow" = SpltAC1Sp_BF_fFlow   $ Msr (Var)TechID: PreNResSplitAC-lt45-PENo
 "BF_fT" = SpltAC1Sp_BF_fT   $ Msr (Var)TechID: PreNResSplitAC-lt45-PENo
 "BldgEconoFlag" = 1   $ IP Non-Tech
 "Break_EWSF" = 1   $ IP Non-Tech
 "Break_LWSF" = 1.1   $ IP Non-Tech
 "CDD_DBHi10" = 86   $ IP Non-Tech
 "CDD_DBHi7" = 105   $ IP Non-Tech
 "CDD_DBHi8" = 102   $ IP Non-Tech
 "CDD_DBHi9" = 100   $ IP Non-Tech
 "CDD_DBRange10" = 28   $ IP Non-Tech
 "CDD_DBRange7" = 28   $ IP Non-Tech
 "CDD_DBRange8" = 28   $ IP Non-Tech
 "CDD_DBRange9" = 30   $ IP Non-Tech
 "CDD_Day10" = 15   $ IP Non-Tech
 "CDD_Day7" = 16   $ IP Non-Tech
 "CDD_Day8" = 20   $ IP Non-Tech
 "CDD_Day9" = 17   $ IP Non-Tech
 "CDD_HrHi10" = 16   $ IP Non-Tech
 "CDD_HrHi7" = 18   $ IP Non-Tech
 "CDD_HrHi8" = 18   $ IP Non-Tech
 "CDD_HrHi9" = 15   $ IP Non-Tech
 "CDD_HrLo10" = 5   $ IP Non-Tech
 "CDD_HrLo7" = 6   $ IP Non-Tech
 "CDD_HrLo8" = 7   $ IP Non-Tech
 "CDD_HrLo9" = 3   $ IP Non-Tech
 "CDD_WB10" = 62.19377518   $ IP Non-Tech
 "CDD_WB7" = 72.76699829   $ IP Non-Tech
 "CDD_WB8" = 69.69030762   $ IP Non-Tech
 "CDD_WB9" = 71.78777313   $ IP Non-Tech
 "CEIR_fPLR_Hot" = SpltAC1Sp_CEIR_fPLR_Hot   $ Msr (Var)TechID: PreNResSplitAC-lt45-PENo
 "CEIR_fPLR_Mod" = SpltAC1Sp_CEIR_fPLR_Mod   $ Msr (Var)TechID: PreNResSplitAC-lt45-PENo
 "CEIR_fPLR_Tem" = SpltAC1Sp_CEIR_fPLR_Tem   $ Msr (Var)TechID: PreNResSplitAC-lt45-PENo
 "CLoss_fPLR_Hot" = SpltAC1Sp_CLoss_fPLR_Hot   $ Msr (Var)TechID: PreNResSplitAC-lt45-PENo
 "CLoss_fPLR_Mod" = SpltAC1Sp_CLoss_fPLR_Mod   $ Msr (Var)TechID: PreNResSplitAC-lt45-PENo
 "CLoss_fPLR_Tem" = SpltAC1Sp_CLoss_fPLR_Tem   $ Msr (Var)TechID: PreNResSplitAC-lt45-PENo
 "COP47" = 0   $ Msr (Var)TechID: PreNResSplitAC-lt45-PENo
 "CZ_Category" = Mod   $ IP Non-Tech
 "CapRange" = Any   $ Msr (Var)TechID: PreNResSplitAC-lt45-PENo
 "CfmPerBtuh" = 0.0321   $ Msr (Var)TechID: PreNResSplitAC-lt45-PENo
 "ChwVintEconoFlag" = 1   $ IP Non-Tech
 "ClCap_fT" = SpltAC1Sp_ClCap_fT   $ Msr (Var)TechID: PreNResSplitAC-lt45-PENo
 "ClSH_fT" = SpltAC1Sp_ClSH_fT   $ Msr (Var)TechID: PreNResSplitAC-lt45-PENo
 "CoilBF" = 0.12   $ Msr (Var)TechID: PreNResSplitAC-lt45-PENo
 "CondWPerBtuh" = 0   $ Msr (Var)TechID: PreNResSplitAC-lt45-PENo
 "Conference_EWSF" = 1   $ IP Non-Tech
 "Conference_LWSF" = 1.4   $ IP Non-Tech
 "CoolSensCap" = 0.744   $ Msr (Var)TechID: PreNResSplitAC-lt45-PENo
 "CoolSetT" = 45   $ IP Non-Tech
 "CoolType" = DX   $ IP Non-Tech
 "CoolingEIR" = 0.25823   $ Msr (Var)TechID: PreNResSplitAC-lt45-PENo
 "CopyRoom_EWSF" = 1.5   $ IP Non-Tech
 "CopyRoom_LWSF" = 1.3   $ IP Non-Tech
 "CorridorStairway_EWSF" = 0.2   $ IP Non-Tech
 "CorridorStairway_LWSF" = 0.6   $ IP Non-Tech
 "CrnkEIR" = 0.0025823   $ Msr (Var)TechID: PreNResSplitAC-lt45-PENo
 "CrnkMaxT" = 50   $ Msr (Var)TechID: PreNResSplitAC-lt45-PENo
 "DXType" = SplitSEER   $ Msr (Var)TechID: PreNResSplitAC-lt45-PENo
 "DesCoolT" = 75   $ IP Non-Tech
 "DesHeatT" = 73   $ IP Non-Tech
 "EER" = 11.07746479   $ Msr (Var)TechID: PreNResSplitAC-lt45-PENo
 "EIR_fT" = SpltAC1Sp_EIR_fT   $ Msr (Var)TechID: PreNResSplitAC-lt45-PENo
 "EconoCtrl" = FIXED   $ Msr (Multi)TechID: PreNResSplitAC-lt45-PENo
 "EconoEnthLimit" = 28   $ IP Non-Tech
 "EconoTempLimit" = 75   $ IP Non-Tech
 "Elevation" = 335   $ IP Non-Tech
 "FanEirPlr" = TwoSpeedFan   $ Msr (Var)TechID: PreNResSplitAC-lt45-PENo
 "FanWPerCfm" = 0.348   $ Msr (Var)TechID: PreNResSplitAC-lt45-PENo
 "HDD_CloudAmt1" = 0   $ IP Non-Tech
 "HDD_DBHi1" = 40.29372406   $ IP Non-Tech
 "HDD_DBRange1" = 8   $ IP Non-Tech
 "HDD_Day1" = 15   $ IP Non-Tech
 "HDD_HrHi1" = 22   $ IP Non-Tech
 "HDD_HrLo1" = 7   $ IP Non-Tech
 "HDD_WB1" = 38.2   $ IP Non-Tech
 "HDD_WindSpd1" = 10.4   $ IP Non-Tech
 "HIR_fT" = 0   $ Msr (Var)TechID: PreNResSplitAC-lt45-PENo
 "HSPF" = 0   $ Msr (Var)TechID: PreNResSplitAC-lt45-PENo
 "HeatSrc" = FURNACE   $ IP Non-Tech
 "HeatSrcTU" = HEAT-PUMP   $ IP Non-Tech
 "HeatType" = GasFurn   $ IP Non-Tech
 "HeatTypeTU" = HEAT-PUMP   $ IP Non-Tech
 "HtCap_fT" = 0   $ Msr (Var)TechID: PreNResSplitAC-lt45-PENo
 "HtCoolCapRatio" = 0   $ Msr (Var)TechID: PreNResSplitAC-lt45-PENo
 "HtgEIR" = 0   $ Msr (Var)TechID: PreNResSplitAC-lt45-PENo
 "IndoorFanMode" = CONTINUOUS   $ IP Non-Tech
 "KT_TransferAir" = No   $ IP Non-Tech
 "Latitude" = 36.8   $ IP Non-Tech
 "LobbyWaiting_EWSF" = 0.5   $ IP Non-Tech
 "LobbyWaiting_LWSF" = 1.3   $ IP Non-Tech
 "Longitude" = 119.7   $ IP Non-Tech
 "LowSpdCapRatio" = 1   $ Msr (Var)TechID: PreNResSplitAC-lt45-PENo
 "LowSpdCfmRatio" = 1   $ Msr (Var)TechID: PreNResSplitAC-lt45-PENo
 "MZFanMechEff" = 0.58   $ IP Non-Tech
 "MZHasRetFan" = FALSE   $ IP Non-Tech
 "MZ_RFanWPerCfm" = 0.37   $ IP Non-Tech
 "MZ_SFanWPerCfm" = 0.71   $ IP Non-Tech
 "MZ_SupFanStatic" = 2.25   $ IP Non-Tech
 "MaxOAFrac" = 1   $ Msr (Multi)TechID: PreNResSplitAC-lt45-PENo
 "MaxSupT_MZ" = 100   $ IP Non-Tech
 "MaxSupT_SZ" = 100   $ IP Non-Tech
 "MaxSupT_TU" = 90   $ IP Non-Tech
 "MechElecRoom_EWSF" = 0.2   $ IP Non-Tech
 "MechElecRoom_LWSF" = 0.7   $ IP Non-Tech
 "MinCfmPerSF" = 0.4   $ IP Non-Tech
 "MinSupT" = 55   $ IP Non-Tech
 "NumStages" = 1   $ Msr (Var)TechID: PreNResSplitAC-lt45-PENo
 "OccCoolT" = 76   $ IP Non-Tech
 "OccHeatT" = 72   $ IP Non-Tech
 "OfficeOpen_EWSF" = 1.5   $ IP Non-Tech
 "OfficeOpen_LWSF" = 1.1   $ IP Non-Tech
 "OfficeSmall_EWSF" = 1.5   $ IP Non-Tech
 "OfficeSmall_LWSF" = 1.3   $ IP Non-Tech
 "PkgDxVintEconoFlag" = 0   $ IP Non-Tech
 "Restroom_EWSF" = 0.2   $ IP Non-Tech
 "Restroom_LWSF" = 0.6   $ IP Non-Tech
 "SEER" = 13   $ Msr (Var)TechID: PreNResSplitAC-lt45-PENo
 "SZFanMechEff" = 0.58   $ IP Non-Tech
 "SZHasRetFan" = FALSE   $ IP Non-Tech
 "SZ_Is_2Spd" = FALSE   $ IP Non-Tech
 "SZ_SFanWPerCfm" = 0.46   $ IP Non-Tech
 "SZ_SupFanStatic" = 0.75   $ IP Non-Tech
 "Sector" = Any   $ Msr (Var)TechID: PreNResSplitAC-lt45-PENo
 "StorageSmlCond_EWSF" = 0.2   $ IP Non-Tech
 "StorageSmlCond_LWSF" = 0.6   $ IP Non-Tech
 "SubType" = AC   $ Msr (Var)TechID: PreNResSplitAC-lt45-PENo
 "T24GlzTbl" = CZTbl   $ IP Non-Tech
 "TermUnitFanMechEff" = 1   $ IP Non-Tech
 "TermUnitFanMode" = INTERMITTENT   $ IP Non-Tech
 "TotCoolCap" = 34895   $ Msr (Var)TechID: PreNResSplitAC-lt45-PENo
 "TwrSetpt" = 82.7   $ IP Non-Tech
 "UnocCoolT" = 86   $ IP Non-Tech
 "UnocHeatT" = 62   $ IP Non-Tech
 "UseEconoVintApplic" = FALSE   $ Msr (Multi)TechID: PreNResSplitAC-lt45-PENo
 "WlhpVintEconoFlag" = 0   $ IP Non-Tech
 "DuctDT" = 1   $ IP Tech: ComDuctInsul-1
 "DuctAirLoss" = 0   $ IP Tech: ComDuctLeak-0
 "DuctLossOAFrac" = 0   $ IP Tech: ComDuctLeak-0
 "ComRoofInsCalc" = FromUo   $ IP Tech: ComRoofIns-Hvy-0.04
 "ComRoofInsR" = -999   $ IP Tech: ComRoofIns-Hvy-0.04
 "ComRoofUo" = 0.04   $ IP Tech: ComRoofIns-Hvy-0.04
 "ComEWInsCalc" = FromUo   $ IP Tech: ComWallIns-MFrm-0.06
 "ComEWInsR" = -999   $ IP Tech: ComWallIns-MFrm-0.06
 "ComEWUo" = 0.06   $ IP Tech: ComWallIns-MFrm-0.06
 "ComN_SHGC" = 0.47   $ IP Tech: NResWin-ComN-0.47-0.47
 "ComN_UFactor" = 0.47   $ IP Tech: NResWin-ComN-0.47-0.47
 "ComN_VisTrans" = 0.75   $ IP Tech: NResWin-ComN-0.47-0.47
 "ComN_WinCode" = G2633   $ IP Tech: NResWin-ComN-0.47-0.47
 "ComN_WinFrmFrac" = 0.17   $ IP Tech: NResWin-ComN-0.47-0.47
 "ComN_WinFrmU" = 0.3   $ IP Tech: NResWin-ComN-0.47-0.47
 "ComO_SHGC" = 0.31   $ IP Tech: NResWin-ComO-0.47-0.31
 "ComO_UFactor" = 0.47   $ IP Tech: NResWin-ComO-0.47-0.31
 "ComO_VisTrans" = 0.44   $ IP Tech: NResWin-ComO-0.47-0.31
 "ComO_WinCode" = G2637   $ IP Tech: NResWin-ComO-0.47-0.31
 "ComO_WinFrmFrac" = 0.17   $ IP Tech: NResWin-ComO-0.47-0.31
 "ComO_WinFrmU" = 0.3   $ IP Tech: NResWin-ComO-0.47-0.31
 "LtgMsrApplic" = ALL   $ IP Tech: NonResLtgRefPre
 "LtgSav_CFL" = 0   $ IP Tech: NonResLtgRefPre
 "LtgSav_EX" = 0   $ IP Tech: NonResLtgRefPre
 "LtgSav_HB" = 0   $ IP Tech: NonResLtgRefPre
 "LtgSav_LF" = 0   $ IP Tech: NonResLtgRefPre
 "LtgSav_SP" = 0   $ IP Tech: NonResLtgRefPre
 "CEIR_fPLR" = PSZ65to135_CEIR_fPLR   $ IP Tech: PkgAC1SpH-65to135-E11
 "CLoss_fPLR" = PSZ65to135_CLoss_fPLR   $ IP Tech: PkgAC1SpH-65to135-E11
 "COP" = -1   $ IP Tech: PkgAC1SpH-65to135-E11
 "HtgFuel" = Gas   $ IP Tech: PkgAC1SpH-65to135-E11
 "IEER" = 13.35   $ IP Tech: PkgAC1SpH-65to135-E11
 "NominalCap" = 15   $ IP Tech: PkgAC1SpH-65to135-E11
 "RatedEER" = 11   $ IP Tech: PkgAC1SpH-65to135-E11
 "RatedSupMtrClass" = HiEff   $ IP Tech: PkgAC1SpH-65to135-E11
 "SizeRange" = 65to135   $ IP Tech: PkgAC1SpH-65to135-E11
 "SupMotEff" = 0.84   $ IP Tech: PkgAC1SpH-65to135-E11
 "Tier" = 0   $ IP Tech: PkgAC1SpH-65to135-E11
 "FanPwrMult" = 1   $ IP Tech: PkgFurn-0.80AFUE
 "FurnAFUE" = 0.8   $ IP Tech: PkgFurn-0.80AFUE
 "FurnEt" = 0.82   $ IP Tech: PkgFurn-0.80AFUE
 "FurnaceAuxKW" = 0.1   $ IP Tech: PkgFurn-0.80AFUE
 "HIR_fPLR" = Furnace-HIR-fPLR   $ IP Tech: PkgFurn-0.80AFUE
 "VSM" = FALSE   $ IP Tech: PkgFurn-0.80AFUE
 "BFMult" = 1   $ IP Tech: RefgChg-NRes-Std
 "CoolEirMult" = 1   $ IP Tech: RefgChg-NRes-Std
 "SensCoolCapMult" = 1   $ IP Tech: RefgChg-NRes-Std
 "TotCoolCapMult" = 1   $ IP Tech: RefgChg-NRes-Std
 "AltAdjFactor" = 1.012438   $ Sizing
 "CAssFlo_L_Break_CZn" = 592.5204   $ Sizing
 "CAssFlo_L_Conf_CZn" = 573.534   $ Sizing
 "CAssFlo_L_CopyRm_CZn" = 187.441   $ Sizing
 "CAssFlo_L_Cordr_CZn" = 695.0812   $ Sizing
 "CAssFlo_L_Cordr_EZn" = 232.2072   $ Sizing
 "CAssFlo_L_Cordr_NZn" = 178.8811   $ Sizing
 "CAssFlo_L_Cordr_SZn" = 232.5641   $ Sizing
 "CAssFlo_L_Cordr_WZn" = 260.4342   $ Sizing
 "CAssFlo_L_LobWait_CZn" = 594.0917   $ Sizing
 "CAssFlo_L_MechElec_CZn" = 126.5839   $ Sizing
 "CAssFlo_L_OfficeOpn_CZn" = 1918.791   $ Sizing
 "CAssFlo_L_OfficeOpn_EZn" = 1615.722   $ Sizing
 "CAssFlo_L_OfficeOpn_NZn" = 1280.68   $ Sizing
 "CAssFlo_L_OfficeOpn_SZn" = 1625.396   $ Sizing
 "CAssFlo_L_OfficeOpn_WZn" = 1853.477   $ Sizing
 "CAssFlo_L_OfficeSm_CZn" = 245.703   $ Sizing
 "CAssFlo_L_OfficeSm_EZn" = 1146.527   $ Sizing
 "CAssFlo_L_OfficeSm_NZn" = 842.1887   $ Sizing
 "CAssFlo_L_OfficeSm_SZn" = 1142.565   $ Sizing
 "CAssFlo_L_OfficeSm_WZn" = 1287.847   $ Sizing
 "CAssFlo_L_Restrm_CZn" = 97.8912   $ Sizing
 "CAssFlo_L_StorSm_CZn" = 395.817   $ Sizing
 "CAssFlo_M_Break_CZn" = 595.7518   $ Sizing
 "CAssFlo_M_Conf_CZn" = 572.6105   $ Sizing
 "CAssFlo_M_CopyRm_CZn" = 180.1508   $ Sizing
 "CAssFlo_M_Cordr_CZn" = 915.6186   $ Sizing
 "CAssFlo_M_Cordr_EZn" = 265.8293   $ Sizing
 "CAssFlo_M_Cordr_NZn" = 192.919   $ Sizing
 "CAssFlo_M_Cordr_SZn" = 253.071   $ Sizing
 "CAssFlo_M_Cordr_WZn" = 271.6271   $ Sizing
 "CAssFlo_M_LobWait_CZn" = 612.828   $ Sizing
 "CAssFlo_M_MechElec_CZn" = 160.7232   $ Sizing
 "CAssFlo_M_OfficeOpn_CZn" = 1930.728   $ Sizing
 "CAssFlo_M_OfficeOpn_EZn" = 1742.087   $ Sizing
 "CAssFlo_M_OfficeOpn_NZn" = 1340.831   $ Sizing
 "CAssFlo_M_OfficeOpn_SZn" = 1712.866   $ Sizing
 "CAssFlo_M_OfficeOpn_WZn" = 1891.728   $ Sizing
 "CAssFlo_M_OfficeSm_CZn" = 286.5523   $ Sizing
 "CAssFlo_M_OfficeSm_EZn" = 1221.743   $ Sizing
 "CAssFlo_M_OfficeSm_NZn" = 877.2165   $ Sizing
 "CAssFlo_M_OfficeSm_SZn" = 1192.191   $ Sizing
 "CAssFlo_M_OfficeSm_WZn" = 1304.352   $ Sizing
 "CAssFlo_M_Restrm_CZn" = 104.7374   $ Sizing
 "CAssFlo_M_StorSm_CZn" = 421.4162   $ Sizing
 "CAssFlo_T_Break_CZn" = 588.606   $ Sizing
 "CAssFlo_T_Conf_CZn" = 567.9832   $ Sizing
 "CAssFlo_T_CopyRm_CZn" = 179.9226   $ Sizing
 "CAssFlo_T_Cordr_CZn" = 858.1063   $ Sizing
 "CAssFlo_T_Cordr_EZn" = 261.3391   $ Sizing
 "CAssFlo_T_Cordr_NZn" = 197.4908   $ Sizing
 "CAssFlo_T_Cordr_SZn" = 252.4213   $ Sizing
 "CAssFlo_T_Cordr_WZn" = 273.3937   $ Sizing
 "CAssFlo_T_LobWait_CZn" = 604.6172   $ Sizing
 "CAssFlo_T_MechElec_CZn" = 183.8189   $ Sizing
 "CAssFlo_T_OfficeOpn_CZn" = 1981.46   $ Sizing
 "CAssFlo_T_OfficeOpn_EZn" = 1721.672   $ Sizing
 "CAssFlo_T_OfficeOpn_NZn" = 1372.902   $ Sizing
 "CAssFlo_T_OfficeOpn_SZn" = 1732.453   $ Sizing
 "CAssFlo_T_OfficeOpn_WZn" = 1897.724   $ Sizing
 "CAssFlo_T_OfficeSm_CZn" = 263.8948   $ Sizing
 "CAssFlo_T_OfficeSm_EZn" = 1242.917   $ Sizing
 "CAssFlo_T_OfficeSm_NZn" = 902.2431   $ Sizing
 "CAssFlo_T_OfficeSm_SZn" = 1218.366   $ Sizing
 "CAssFlo_T_OfficeSm_WZn" = 1328.97   $ Sizing
 "CAssFlo_T_Restrm_CZn" = 147.6375   $ Sizing
 "CAssFlo_T_StorSm_CZn" = 302.8431   $ Sizing
 "CHRtFlo_Sys_L_Break_C" = 592.5204   $ Sizing
 "CHRtFlo_Sys_L_Conf_C" = 573.534   $ Sizing
 "CHRtFlo_Sys_L_CopyRm_C" = 187.441   $ Sizing
 "CHRtFlo_Sys_L_Cordr_C" = 695.0812   $ Sizing
 "CHRtFlo_Sys_L_Cordr_E" = 256.9727   $ Sizing
 "CHRtFlo_Sys_L_Cordr_N" = 178.8811   $ Sizing
 "CHRtFlo_Sys_L_Cordr_S" = 241.0193   $ Sizing
 "CHRtFlo_Sys_L_Cordr_W" = 260.4342   $ Sizing
 "CHRtFlo_Sys_L_LobWait_C" = 594.0917   $ Sizing
 "CHRtFlo_Sys_L_MechElec_C" = 143.2112   $ Sizing
 "CHRtFlo_Sys_L_OfficeOpn_C" = 1918.791   $ Sizing
 "CHRtFlo_Sys_L_OfficeOpn_E" = 1832.514   $ Sizing
 "CHRtFlo_Sys_L_OfficeOpn_N" = 1280.68   $ Sizing
 "CHRtFlo_Sys_L_OfficeOpn_S" = 1763.62   $ Sizing
 "CHRtFlo_Sys_L_OfficeOpn_W" = 1853.477   $ Sizing
 "CHRtFlo_Sys_L_OfficeSm_C" = 265.8062   $ Sizing
 "CHRtFlo_Sys_L_OfficeSm_E" = 1328.934   $ Sizing
 "CHRtFlo_Sys_L_OfficeSm_N" = 842.1887   $ Sizing
 "CHRtFlo_Sys_L_OfficeSm_S" = 1285.702   $ Sizing
 "CHRtFlo_Sys_L_OfficeSm_W" = 1293.494   $ Sizing
 "CHRtFlo_Sys_L_Restrm_C" = 212.8927   $ Sizing
 "CHRtFlo_Sys_L_StorSm_C" = 427.3767   $ Sizing
 "CHRtFlo_Sys_M_Break_C" = 4766.014   $ Sizing
 "CHRtFlo_Sys_M_Conf_C" = 4580.884   $ Sizing
 "CHRtFlo_Sys_M_CopyRm_C" = 1441.207   $ Sizing
 "CHRtFlo_Sys_M_Cordr_C" = 8201.71   $ Sizing
 "CHRtFlo_Sys_M_Cordr_E" = 2408.744   $ Sizing
 "CHRtFlo_Sys_M_Cordr_N" = 1564.188   $ Sizing
 "CHRtFlo_Sys_M_Cordr_S" = 2177.792   $ Sizing
 "CHRtFlo_Sys_M_Cordr_W" = 2173.017   $ Sizing
 "CHRtFlo_Sys_M_LobWait_C" = 4902.624   $ Sizing
 "CHRtFlo_Sys_M_MechElec_C" = 1500.094   $ Sizing
 "CHRtFlo_Sys_M_OfficeOpn_C" = 17030.32   $ Sizing
 "CHRtFlo_Sys_M_OfficeOpn_E" = 16026.8   $ Sizing
 "CHRtFlo_Sys_M_OfficeOpn_N" = 10726.64   $ Sizing
 "CHRtFlo_Sys_M_OfficeOpn_S" = 15107.15   $ Sizing
 "CHRtFlo_Sys_M_OfficeOpn_W" = 15133.83   $ Sizing
 "CHRtFlo_Sys_M_OfficeSm_C" = 2666.955   $ Sizing
 "CHRtFlo_Sys_M_OfficeSm_E" = 11437.78   $ Sizing
 "CHRtFlo_Sys_M_OfficeSm_N" = 7017.732   $ Sizing
 "CHRtFlo_Sys_M_OfficeSm_S" = 10906.37   $ Sizing
 "CHRtFlo_Sys_M_OfficeSm_W" = 10563.36   $ Sizing
 "CHRtFlo_Sys_M_Restrm_C" = 1703.142   $ Sizing
 "CHRtFlo_Sys_M_StorSm_C" = 3754.109   $ Sizing
 "CHRtFlo_Sys_T_Break_C" = 588.606   $ Sizing
 "CHRtFlo_Sys_T_Conf_C" = 567.9832   $ Sizing
 "CHRtFlo_Sys_T_CopyRm_C" = 179.9226   $ Sizing
 "CHRtFlo_Sys_T_Cordr_C" = 864.0956   $ Sizing
 "CHRtFlo_Sys_T_Cordr_E" = 266.6568   $ Sizing
 "CHRtFlo_Sys_T_Cordr_N" = 197.4907   $ Sizing
 "CHRtFlo_Sys_T_Cordr_S" = 252.4213   $ Sizing
 "CHRtFlo_Sys_T_Cordr_W" = 273.3937   $ Sizing
 "CHRtFlo_Sys_T_LobWait_C" = 604.6172   $ Sizing
 "CHRtFlo_Sys_T_MechElec_C" = 220.3146   $ Sizing
 "CHRtFlo_Sys_T_OfficeOpn_C" = 1981.46   $ Sizing
 "CHRtFlo_Sys_T_OfficeOpn_E" = 1822.86   $ Sizing
 "CHRtFlo_Sys_T_OfficeOpn_N" = 1372.902   $ Sizing
 "CHRtFlo_Sys_T_OfficeOpn_S" = 1771.401   $ Sizing
 "CHRtFlo_Sys_T_OfficeOpn_W" = 1897.724   $ Sizing
 "CHRtFlo_Sys_T_OfficeSm_C" = 293.7312   $ Sizing
 "CHRtFlo_Sys_T_OfficeSm_E" = 1338.381   $ Sizing
 "CHRtFlo_Sys_T_OfficeSm_N" = 902.2431   $ Sizing
 "CHRtFlo_Sys_T_OfficeSm_S" = 1305.418   $ Sizing
 "CHRtFlo_Sys_T_OfficeSm_W" = 1328.97   $ Sizing
 "CHRtFlo_Sys_T_Restrm_C" = 212.8927   $ Sizing
 "CHRtFlo_Sys_T_StorSm_C" = 335.7162   $ Sizing
 "CRtdFlo_Sys_L_Break_C" = 592.5204   $ Sizing
 "CRtdFlo_Sys_L_Conf_C" = 573.534   $ Sizing
 "CRtdFlo_Sys_L_CopyRm_C" = 187.441   $ Sizing
 "CRtdFlo_Sys_L_Cordr_C" = 695.0812   $ Sizing
 "CRtdFlo_Sys_L_Cordr_E" = 232.2072   $ Sizing
 "CRtdFlo_Sys_L_Cordr_N" = 178.8811   $ Sizing
 "CRtdFlo_Sys_L_Cordr_S" = 232.5641   $ Sizing
 "CRtdFlo_Sys_L_Cordr_W" = 260.4342   $ Sizing
 "CRtdFlo_Sys_L_LobWait_C" = 594.0917   $ Sizing
 "CRtdFlo_Sys_L_MechElec_C" = 126.5839   $ Sizing
 "CRtdFlo_Sys_L_OfficeOpn_C" = 1918.791   $ Sizing
 "CRtdFlo_Sys_L_OfficeOpn_E" = 1615.722   $ Sizing
 "CRtdFlo_Sys_L_OfficeOpn_N" = 1280.68   $ Sizing
 "CRtdFlo_Sys_L_OfficeOpn_S" = 1625.396   $ Sizing
 "CRtdFlo_Sys_L_OfficeOpn_W" = 1853.477   $ Sizing
 "CRtdFlo_Sys_L_OfficeSm_C" = 245.703   $ Sizing
 "CRtdFlo_Sys_L_OfficeSm_E" = 1146.527   $ Sizing
 "CRtdFlo_Sys_L_OfficeSm_N" = 842.1887   $ Sizing
 "CRtdFlo_Sys_L_OfficeSm_S" = 1142.565   $ Sizing
 "CRtdFlo_Sys_L_OfficeSm_W" = 1287.847   $ Sizing
 "CRtdFlo_Sys_L_Restrm_C" = 97.8912   $ Sizing
 "CRtdFlo_Sys_L_StorSm_C" = 395.817   $ Sizing
 "CRtdFlo_Sys_M_Break_C" = 4766.014   $ Sizing
 "CRtdFlo_Sys_M_Conf_C" = 4580.884   $ Sizing
 "CRtdFlo_Sys_M_CopyRm_C" = 1441.207   $ Sizing
 "CRtdFlo_Sys_M_Cordr_C" = 7324.949   $ Sizing
 "CRtdFlo_Sys_M_Cordr_E" = 2126.634   $ Sizing
 "CRtdFlo_Sys_M_Cordr_N" = 1543.352   $ Sizing
 "CRtdFlo_Sys_M_Cordr_S" = 2024.568   $ Sizing
 "CRtdFlo_Sys_M_Cordr_W" = 2173.017   $ Sizing
 "CRtdFlo_Sys_M_LobWait_C" = 4902.624   $ Sizing
 "CRtdFlo_Sys_M_MechElec_C" = 1285.785   $ Sizing
 "CRtdFlo_Sys_M_OfficeOpn_C" = 15445.82   $ Sizing
 "CRtdFlo_Sys_M_OfficeOpn_E" = 13936.7   $ Sizing
 "CRtdFlo_Sys_M_OfficeOpn_N" = 10726.64   $ Sizing
 "CRtdFlo_Sys_M_OfficeOpn_S" = 13702.93   $ Sizing
 "CRtdFlo_Sys_M_OfficeOpn_W" = 15133.83   $ Sizing
 "CRtdFlo_Sys_M_OfficeSm_C" = 2292.418   $ Sizing
 "CRtdFlo_Sys_M_OfficeSm_E" = 9773.944   $ Sizing
 "CRtdFlo_Sys_M_OfficeSm_N" = 7017.732   $ Sizing
 "CRtdFlo_Sys_M_OfficeSm_S" = 9537.529   $ Sizing
 "CRtdFlo_Sys_M_OfficeSm_W" = 10434.82   $ Sizing
 "CRtdFlo_Sys_M_Restrm_C" = 837.8993   $ Sizing
 "CRtdFlo_Sys_M_StorSm_C" = 3371.33   $ Sizing
 "CRtdFlo_Sys_T_Break_C" = 588.606   $ Sizing
 "CRtdFlo_Sys_T_Conf_C" = 567.9832   $ Sizing
 "CRtdFlo_Sys_T_CopyRm_C" = 179.9226   $ Sizing
 "CRtdFlo_Sys_T_Cordr_C" = 858.1063   $ Sizing
 "CRtdFlo_Sys_T_Cordr_E" = 261.3391   $ Sizing
 "CRtdFlo_Sys_T_Cordr_N" = 197.4907   $ Sizing
 "CRtdFlo_Sys_T_Cordr_S" = 252.4213   $ Sizing
 "CRtdFlo_Sys_T_Cordr_W" = 273.3937   $ Sizing
 "CRtdFlo_Sys_T_LobWait_C" = 604.6172   $ Sizing
 "CRtdFlo_Sys_T_MechElec_C" = 183.8189   $ Sizing
 "CRtdFlo_Sys_T_OfficeOpn_C" = 1981.46   $ Sizing
 "CRtdFlo_Sys_T_OfficeOpn_E" = 1721.672   $ Sizing
 "CRtdFlo_Sys_T_OfficeOpn_N" = 1372.902   $ Sizing
 "CRtdFlo_Sys_T_OfficeOpn_S" = 1732.453   $ Sizing
 "CRtdFlo_Sys_T_OfficeOpn_W" = 1897.724   $ Sizing
 "CRtdFlo_Sys_T_OfficeSm_C" = 263.8948   $ Sizing
 "CRtdFlo_Sys_T_OfficeSm_E" = 1242.917   $ Sizing
 "CRtdFlo_Sys_T_OfficeSm_N" = 902.2431   $ Sizing
 "CRtdFlo_Sys_T_OfficeSm_S" = 1218.366   $ Sizing
 "CRtdFlo_Sys_T_OfficeSm_W" = 1328.97   $ Sizing
 "CRtdFlo_Sys_T_Restrm_C" = 147.6375   $ Sizing
 "CRtdFlo_Sys_T_StorSm_C" = 302.8431   $ Sizing
 "CSupFlo_Sys_L_Break_C" = 592.5204   $ Sizing
 "CSupFlo_Sys_L_Conf_C" = 573.534   $ Sizing
 "CSupFlo_Sys_L_CopyRm_C" = 187.441   $ Sizing
 "CSupFlo_Sys_L_Cordr_C" = 695.0812   $ Sizing
 "CSupFlo_Sys_L_Cordr_E" = 232.2072   $ Sizing
 "CSupFlo_Sys_L_Cordr_N" = 178.8811   $ Sizing
 "CSupFlo_Sys_L_Cordr_S" = 232.5641   $ Sizing
 "CSupFlo_Sys_L_Cordr_W" = 260.4342   $ Sizing
 "CSupFlo_Sys_L_LobWait_C" = 594.0917   $ Sizing
 "CSupFlo_Sys_L_MechElec_C" = 126.5839   $ Sizing
 "CSupFlo_Sys_L_OfficeOpn_C" = 1918.791   $ Sizing
 "CSupFlo_Sys_L_OfficeOpn_E" = 1615.722   $ Sizing
 "CSupFlo_Sys_L_OfficeOpn_N" = 1280.68   $ Sizing
 "CSupFlo_Sys_L_OfficeOpn_S" = 1625.396   $ Sizing
 "CSupFlo_Sys_L_OfficeOpn_W" = 1853.477   $ Sizing
 "CSupFlo_Sys_L_OfficeSm_C" = 245.703   $ Sizing
 "CSupFlo_Sys_L_OfficeSm_E" = 1146.527   $ Sizing
 "CSupFlo_Sys_L_OfficeSm_N" = 842.1887   $ Sizing
 "CSupFlo_Sys_L_OfficeSm_S" = 1142.565   $ Sizing
 "CSupFlo_Sys_L_OfficeSm_W" = 1287.847   $ Sizing
 "CSupFlo_Sys_L_Restrm_C" = 97.8912   $ Sizing
 "CSupFlo_Sys_L_StorSm_C" = 395.817   $ Sizing
 "CSupFlo_Sys_M_Break_C" = 4766.014   $ Sizing
 "CSupFlo_Sys_M_Conf_C" = 4580.884   $ Sizing
 "CSupFlo_Sys_M_CopyRm_C" = 1441.207   $ Sizing
 "CSupFlo_Sys_M_Cordr_C" = 7324.949   $ Sizing
 "CSupFlo_Sys_M_Cordr_E" = 2126.634   $ Sizing
 "CSupFlo_Sys_M_Cordr_N" = 1543.352   $ Sizing
 "CSupFlo_Sys_M_Cordr_S" = 2024.568   $ Sizing
 "CSupFlo_Sys_M_Cordr_W" = 2173.017   $ Sizing
 "CSupFlo_Sys_M_LobWait_C" = 4902.624   $ Sizing
 "CSupFlo_Sys_M_MechElec_C" = 1285.785   $ Sizing
 "CSupFlo_Sys_M_OfficeOpn_C" = 15445.82   $ Sizing
 "CSupFlo_Sys_M_OfficeOpn_E" = 13936.7   $ Sizing
 "CSupFlo_Sys_M_OfficeOpn_N" = 10726.64   $ Sizing
 "CSupFlo_Sys_M_OfficeOpn_S" = 13702.93   $ Sizing
 "CSupFlo_Sys_M_OfficeOpn_W" = 15133.83   $ Sizing
 "CSupFlo_Sys_M_OfficeSm_C" = 2292.418   $ Sizing
 "CSupFlo_Sys_M_OfficeSm_E" = 9773.944   $ Sizing
 "CSupFlo_Sys_M_OfficeSm_N" = 7017.732   $ Sizing
 "CSupFlo_Sys_M_OfficeSm_S" = 9537.529   $ Sizing
 "CSupFlo_Sys_M_OfficeSm_W" = 10434.82   $ Sizing
 "CSupFlo_Sys_M_Restrm_C" = 837.8993   $ Sizing
 "CSupFlo_Sys_M_StorSm_C" = 3371.33   $ Sizing
 "CSupFlo_Sys_T_Break_C" = 588.606   $ Sizing
 "CSupFlo_Sys_T_Conf_C" = 567.9832   $ Sizing
 "CSupFlo_Sys_T_CopyRm_C" = 179.9226   $ Sizing
 "CSupFlo_Sys_T_Cordr_C" = 858.1063   $ Sizing
 "CSupFlo_Sys_T_Cordr_E" = 261.3391   $ Sizing
 "CSupFlo_Sys_T_Cordr_N" = 197.4907   $ Sizing
 "CSupFlo_Sys_T_Cordr_S" = 252.4213   $ Sizing
 "CSupFlo_Sys_T_Cordr_W" = 273.3937   $ Sizing
 "CSupFlo_Sys_T_LobWait_C" = 604.6172   $ Sizing
 "CSupFlo_Sys_T_MechElec_C" = 183.8189   $ Sizing
 "CSupFlo_Sys_T_OfficeOpn_C" = 1981.46   $ Sizing
 "CSupFlo_Sys_T_OfficeOpn_E" = 1721.672   $ Sizing
 "CSupFlo_Sys_T_OfficeOpn_N" = 1372.902   $ Sizing
 "CSupFlo_Sys_T_OfficeOpn_S" = 1732.453   $ Sizing
 "CSupFlo_Sys_T_OfficeOpn_W" = 1897.724   $ Sizing
 "CSupFlo_Sys_T_OfficeSm_C" = 263.8948   $ Sizing
 "CSupFlo_Sys_T_OfficeSm_E" = 1242.917   $ Sizing
 "CSupFlo_Sys_T_OfficeSm_N" = 902.2431   $ Sizing
 "CSupFlo_Sys_T_OfficeSm_S" = 1218.366   $ Sizing
 "CSupFlo_Sys_T_OfficeSm_W" = 1328.97   $ Sizing
 "CSupFlo_Sys_T_Restrm_C" = 147.6375   $ Sizing
 "CSupFlo_Sys_T_StorSm_C" = 302.8431   $ Sizing
 "ClCap_Sys_L_Break_C" = 20065.41   $ Sizing
 "ClCap_Sys_L_Conf_C" = 24719.47   $ Sizing
 "ClCap_Sys_L_CopyRm_C" = 6347.597   $ Sizing
 "ClCap_Sys_L_Cordr_C" = 23538.58   $ Sizing
 "ClCap_Sys_L_Cordr_E" = 7863.582   $ Sizing
 "ClCap_Sys_L_Cordr_N" = 6057.72   $ Sizing
 "ClCap_Sys_L_Cordr_S" = 7875.667   $ Sizing
 "ClCap_Sys_L_Cordr_W" = 8819.476   $ Sizing
 "ClCap_Sys_L_LobWait_C" = 20118.62   $ Sizing
 "ClCap_Sys_L_MechElec_C" = 4286.7   $ Sizing
 "ClCap_Sys_L_OfficeOpn_C" = 64978.89   $ Sizing
 "ClCap_Sys_L_OfficeOpn_E" = 54715.62   $ Sizing
 "ClCap_Sys_L_OfficeOpn_N" = 43369.59   $ Sizing
 "ClCap_Sys_L_OfficeOpn_S" = 55043.21   $ Sizing
 "ClCap_Sys_L_OfficeOpn_W" = 62767.09   $ Sizing
 "ClCap_Sys_L_OfficeSm_C" = 8320.611   $ Sizing
 "ClCap_Sys_L_OfficeSm_E" = 38826.57   $ Sizing
 "ClCap_Sys_L_OfficeSm_N" = 28520.3   $ Sizing
 "ClCap_Sys_L_OfficeSm_S" = 38692.4   $ Sizing
 "ClCap_Sys_L_OfficeSm_W" = 43612.29   $ Sizing
 "ClCap_Sys_L_Restrm_C" = 3315.037   $ Sizing
 "ClCap_Sys_L_StorSm_C" = 13404.15   $ Sizing
 "ClCap_Sys_M_Break_C" = 161398.7   $ Sizing
 "ClCap_Sys_M_Conf_C" = 197437.3   $ Sizing
 "ClCap_Sys_M_CopyRm_C" = 48805.75   $ Sizing
 "ClCap_Sys_M_Cordr_C" = 248055.7   $ Sizing
 "ClCap_Sys_M_Cordr_E" = 72017.4   $ Sizing
 "ClCap_Sys_M_Cordr_N" = 52264.85   $ Sizing
 "ClCap_Sys_M_Cordr_S" = 68560.99   $ Sizing
 "ClCap_Sys_M_Cordr_W" = 73588.14   $ Sizing
 "ClCap_Sys_M_LobWait_C" = 166024.9   $ Sizing
 "ClCap_Sys_M_MechElec_C" = 43542.48   $ Sizing
 "ClCap_Sys_M_OfficeOpn_C" = 523065.1   $ Sizing
 "ClCap_Sys_M_OfficeOpn_E" = 471959.3   $ Sizing
 "ClCap_Sys_M_OfficeOpn_N" = 363252.5   $ Sizing
 "ClCap_Sys_M_OfficeOpn_S" = 464042.9   $ Sizing
 "ClCap_Sys_M_OfficeOpn_W" = 512499.5   $ Sizing
 "ClCap_Sys_M_OfficeSm_C" = 77631.61   $ Sizing
 "ClCap_Sys_M_OfficeSm_E" = 330989.8   $ Sizing
 "ClCap_Sys_M_OfficeSm_N" = 237652   $ Sizing
 "ClCap_Sys_M_OfficeSm_S" = 322983.7   $ Sizing
 "ClCap_Sys_M_OfficeSm_W" = 353369.9   $ Sizing
 "ClCap_Sys_M_Restrm_C" = 28375.04   $ Sizing
 "ClCap_Sys_M_StorSm_C" = 114168.4   $ Sizing
 "ClCap_Sys_T_Break_C" = 19932.85   $ Sizing
 "ClCap_Sys_T_Conf_C" = 24480.23   $ Sizing
 "ClCap_Sys_T_CopyRm_C" = 6092.99   $ Sizing
 "ClCap_Sys_T_Cordr_C" = 29059.34   $ Sizing
 "ClCap_Sys_T_Cordr_E" = 8850.12   $ Sizing
 "ClCap_Sys_T_Cordr_N" = 6687.925   $ Sizing
 "ClCap_Sys_T_Cordr_S" = 8548.12   $ Sizing
 "ClCap_Sys_T_Cordr_W" = 9258.341   $ Sizing
 "ClCap_Sys_T_LobWait_C" = 20475.06   $ Sizing
 "ClCap_Sys_T_MechElec_C" = 6224.934   $ Sizing
 "ClCap_Sys_T_OfficeOpn_C" = 67101.16   $ Sizing
 "ClCap_Sys_T_OfficeOpn_E" = 58303.55   $ Sizing
 "ClCap_Sys_T_OfficeOpn_N" = 46492.64   $ Sizing
 "ClCap_Sys_T_OfficeOpn_S" = 58668.64   $ Sizing
 "ClCap_Sys_T_OfficeOpn_W" = 64265.49   $ Sizing
 "ClCap_Sys_T_OfficeSm_C" = 8936.667   $ Sizing
 "ClCap_Sys_T_OfficeSm_E" = 42090.78   $ Sizing
 "ClCap_Sys_T_OfficeSm_N" = 30554.01   $ Sizing
 "ClCap_Sys_T_OfficeSm_S" = 41259.36   $ Sizing
 "ClCap_Sys_T_OfficeSm_W" = 45004.9   $ Sizing
 "ClCap_Sys_T_Restrm_C" = 4999.669   $ Sizing
 "ClCap_Sys_T_StorSm_C" = 10255.63   $ Sizing
 "HtCap_Sys_L_Break_C" = -33041.11   $ Sizing
 "HtCap_Sys_L_Conf_C" = -33042.43   $ Sizing
 "HtCap_Sys_L_CopyRm_C" = -12253.97   $ Sizing
 "HtCap_Sys_L_Cordr_C" = -30370.64   $ Sizing
 "HtCap_Sys_L_Cordr_E" = -9051.401   $ Sizing
 "HtCap_Sys_L_Cordr_N" = -7161.923   $ Sizing
 "HtCap_Sys_L_Cordr_S" = -8555.764   $ Sizing
 "HtCap_Sys_L_Cordr_W" = -9279.229   $ Sizing
 "HtCap_Sys_L_LobWait_C" = -31704.5   $ Sizing
 "HtCap_Sys_L_MechElec_C" = -6475.47   $ Sizing
 "HtCap_Sys_L_OfficeOpn_C" = -92989.54   $ Sizing
 "HtCap_Sys_L_OfficeOpn_E" = -61340.82   $ Sizing
 "HtCap_Sys_L_OfficeOpn_N" = -47121.9   $ Sizing
 "HtCap_Sys_L_OfficeOpn_S" = -59147.92   $ Sizing
 "HtCap_Sys_L_OfficeOpn_W" = -62099.14   $ Sizing
 "HtCap_Sys_L_OfficeSm_C" = -10257.73   $ Sizing
 "HtCap_Sys_L_OfficeSm_E" = -42766.77   $ Sizing
 "HtCap_Sys_L_OfficeSm_N" = -30855.72   $ Sizing
 "HtCap_Sys_L_OfficeSm_S" = -42583.06   $ Sizing
 "HtCap_Sys_L_OfficeSm_W" = -43222.18   $ Sizing
 "HtCap_Sys_L_Restrm_C" = -7754.166   $ Sizing
 "HtCap_Sys_L_StorSm_C" = -18442.84   $ Sizing
 "HtCap_Sys_M_Break_C" = -251367.8   $ Sizing
 "HtCap_Sys_M_Conf_C" = -245219   $ Sizing
 "HtCap_Sys_M_CopyRm_C" = -81377.96   $ Sizing
 "HtCap_Sys_M_Cordr_C" = -313512.4   $ Sizing
 "HtCap_Sys_M_Cordr_E" = -82142.59   $ Sizing
 "HtCap_Sys_M_Cordr_N" = -58478.02   $ Sizing
 "HtCap_Sys_M_Cordr_S" = -75259.89   $ Sizing
 "HtCap_Sys_M_Cordr_W" = -76119.96   $ Sizing
 "HtCap_Sys_M_LobWait_C" = -228687.3   $ Sizing
 "HtCap_Sys_M_MechElec_C" = -61697.95   $ Sizing
 "HtCap_Sys_M_OfficeOpn_C" = -822398.3   $ Sizing
 "HtCap_Sys_M_OfficeOpn_E" = -528049.6   $ Sizing
 "HtCap_Sys_M_OfficeOpn_N" = -387065.3   $ Sizing
 "HtCap_Sys_M_OfficeOpn_S" = -499509.5   $ Sizing
 "HtCap_Sys_M_OfficeOpn_W" = -504084   $ Sizing
 "HtCap_Sys_M_OfficeSm_C" = -97250.56   $ Sizing
 "HtCap_Sys_M_OfficeSm_E" = -375094.8   $ Sizing
 "HtCap_Sys_M_OfficeSm_N" = -253306.5   $ Sizing
 "HtCap_Sys_M_OfficeSm_S" = -356874.7   $ Sizing
 "HtCap_Sys_M_OfficeSm_W" = -350573.8   $ Sizing
 "HtCap_Sys_M_Restrm_C" = -66877.32   $ Sizing
 "HtCap_Sys_M_StorSm_C" = -153291.6   $ Sizing
 "HtCap_Sys_T_Break_C" = -33775.94   $ Sizing
 "HtCap_Sys_T_Conf_C" = -33128.12   $ Sizing
 "HtCap_Sys_T_CopyRm_C" = -11364.82   $ Sizing
 "HtCap_Sys_T_Cordr_C" = -38717.66   $ Sizing
 "HtCap_Sys_T_Cordr_E" = -10594.15   $ Sizing
 "HtCap_Sys_T_Cordr_N" = -8640.96   $ Sizing
 "HtCap_Sys_T_Cordr_S" = -9763.399   $ Sizing
 "HtCap_Sys_T_Cordr_W" = -11100.98   $ Sizing
 "HtCap_Sys_T_LobWait_C" = -32207.12   $ Sizing
 "HtCap_Sys_T_MechElec_C" = -8631.067   $ Sizing
 "HtCap_Sys_T_OfficeOpn_C" = -95891.32   $ Sizing
 "HtCap_Sys_T_OfficeOpn_E" = -68592.71   $ Sizing
 "HtCap_Sys_T_OfficeOpn_N" = -57096.86   $ Sizing
 "HtCap_Sys_T_OfficeOpn_S" = -67619.74   $ Sizing
 "HtCap_Sys_T_OfficeOpn_W" = -72017.77   $ Sizing
 "HtCap_Sys_T_OfficeSm_C" = -12371.04   $ Sizing
 "HtCap_Sys_T_OfficeSm_E" = -49651.73   $ Sizing
 "HtCap_Sys_T_OfficeSm_N" = -37161.23   $ Sizing
 "HtCap_Sys_T_OfficeSm_S" = -49325.63   $ Sizing
 "HtCap_Sys_T_OfficeSm_W" = -50513.71   $ Sizing
 "HtCap_Sys_T_Restrm_C" = -8626.773   $ Sizing
 "HtCap_Sys_T_StorSm_C" = -16917.89   $ Sizing
..

##include Templates\OfL_DX_SZ.inp
END ..
COMPUTE ..
STOP ..
