INPUT ..

##fileprefix C:\Users\jglasskatz\MASControl3\
##set1 IsSizing FALSE
##set1 CoolType DX
##set1 HeatType FURNACE
##set1 EU_HrRepVar 0
##set1 BldgVint 2020
##set1 BldgLoc CZ02

 ##set1 mBFMult 1   $ IP Tech: RefgChg-NRes-Std

PARAMETER
 "AltFactor" = 1.00464   $ IP Non-Tech
 "BF_fFlow" = SpltAC1Sp-ge45_BF_fFlow   $ Msr (Var)TechID: PreNResSplitAC-45to-PENo
 "BF_fT" = SpltAC1Sp-ge45_BF_fT   $ Msr (Var)TechID: PreNResSplitAC-45to-PENo
 "BldgEconoFlag" = 1   $ IP Non-Tech
 "Break_EWSF" = 1   $ IP Non-Tech
 "Break_LWSF" = 0.65   $ IP Non-Tech
 "CDD_DBHi10" = 83   $ IP Non-Tech
 "CDD_DBHi7" = 96   $ IP Non-Tech
 "CDD_DBHi8" = 92   $ IP Non-Tech
 "CDD_DBHi9" = 96   $ IP Non-Tech
 "CDD_DBRange10" = 35   $ IP Non-Tech
 "CDD_DBRange7" = 44   $ IP Non-Tech
 "CDD_DBRange8" = 38   $ IP Non-Tech
 "CDD_DBRange9" = 43   $ IP Non-Tech
 "CDD_Day10" = 15   $ IP Non-Tech
 "CDD_Day7" = 16   $ IP Non-Tech
 "CDD_Day8" = 20   $ IP Non-Tech
 "CDD_Day9" = 17   $ IP Non-Tech
 "CDD_HrHi10" = 15   $ IP Non-Tech
 "CDD_HrHi7" = 15   $ IP Non-Tech
 "CDD_HrHi8" = 16   $ IP Non-Tech
 "CDD_HrHi9" = 14   $ IP Non-Tech
 "CDD_HrLo10" = 7   $ IP Non-Tech
 "CDD_HrLo7" = 7   $ IP Non-Tech
 "CDD_HrLo8" = 6   $ IP Non-Tech
 "CDD_HrLo9" = 6   $ IP Non-Tech
 "CDD_WB10" = 61.02124405   $ IP Non-Tech
 "CDD_WB7" = 68.3706665   $ IP Non-Tech
 "CDD_WB8" = 69.14488983   $ IP Non-Tech
 "CDD_WB9" = 65.15551758   $ IP Non-Tech
 "CEIR_fPLR_Hot" = SpltAC1Sp-ge45_CEIR_fPLR_Hot   $ Msr (Var)TechID: PreNResSplitAC-45to-PENo
 "CEIR_fPLR_Mod" = SpltAC1Sp-ge45_CEIR_fPLR_Mod   $ Msr (Var)TechID: PreNResSplitAC-45to-PENo
 "CEIR_fPLR_Tem" = SpltAC1Sp-ge45_CEIR_fPLR_Tem   $ Msr (Var)TechID: PreNResSplitAC-45to-PENo
 "CLoss_fPLR_Hot" = SpltAC1Sp-ge45_CLoss_fPLR_Hot   $ Msr (Var)TechID: PreNResSplitAC-45to-PENo
 "CLoss_fPLR_Mod" = SpltAC1Sp-ge45_CLoss_fPLR_Mod   $ Msr (Var)TechID: PreNResSplitAC-45to-PENo
 "CLoss_fPLR_Tem" = SpltAC1Sp-ge45_CLoss_fPLR_Tem   $ Msr (Var)TechID: PreNResSplitAC-45to-PENo
 "COP47" = 0   $ Msr (Var)TechID: PreNResSplitAC-45to-PENo
 "CZ_Category" = Mod   $ IP Non-Tech
 "CapRange" = ge45   $ Msr (Var)TechID: PreNResSplitAC-45to-PENo
 "CfmPerBtuh" = 0.03263   $ Msr (Var)TechID: PreNResSplitAC-45to-PENo
 "ChwVintEconoFlag" = 1   $ IP Non-Tech
 "ClCap_fT" = SpltAC1Sp-ge45_ClCap_fT   $ Msr (Var)TechID: PreNResSplitAC-45to-PENo
 "ClSH_fT" = SpltAC1Sp-ge45_ClSH_fT   $ Msr (Var)TechID: PreNResSplitAC-45to-PENo
 "CoilBF" = 0.106518182   $ Msr (Var)TechID: PreNResSplitAC-45to-PENo
 "CondWPerBtuh" = 0   $ Msr (Var)TechID: PreNResSplitAC-45to-PENo
 "Conference_EWSF" = 1   $ IP Non-Tech
 "Conference_LWSF" = 0.85   $ IP Non-Tech
 "CoolSensCap" = 0.759218182   $ Msr (Var)TechID: PreNResSplitAC-45to-PENo
 "CoolSetT" = 45   $ IP Non-Tech
 "CoolType" = DX   $ IP Non-Tech
 "CoolingEIR" = 0.2466   $ Msr (Var)TechID: PreNResSplitAC-45to-PENo
 "CopyRoom_EWSF" = 1.5   $ IP Non-Tech
 "CopyRoom_LWSF" = 0.5   $ IP Non-Tech
 "CorridorStairway_EWSF" = 0.2   $ IP Non-Tech
 "CorridorStairway_LWSF" = 0.55   $ IP Non-Tech
 "CrnkEIR" = 0.002466   $ Msr (Var)TechID: PreNResSplitAC-45to-PENo
 "CrnkMaxT" = 50   $ Msr (Var)TechID: PreNResSplitAC-45to-PENo
 "DXType" = SplitSEER   $ Msr (Var)TechID: PreNResSplitAC-45to-PENo
 "DesCoolT" = 75   $ IP Non-Tech
 "DesHeatT" = 73   $ IP Non-Tech
 "EER" = 11.81793103   $ Msr (Var)TechID: PreNResSplitAC-45to-PENo
 "EIR_fT" = SpltAC1Sp-ge45_EIR_fT   $ Msr (Var)TechID: PreNResSplitAC-45to-PENo
 "EconoCtrl" = FIXED   $ Msr (Multi)TechID: PreNResSplitAC-45to-PENo
 "EconoEnthLimit" = 28   $ IP Non-Tech
 "EconoTempLimit" = 73   $ IP Non-Tech
 "Elevation" = 125   $ IP Non-Tech
 "FanEirPlr" = TwoSpeedFan   $ Msr (Var)TechID: PreNResSplitAC-45to-PENo
 "FanWPerCfm" = 0.294   $ Msr (Var)TechID: PreNResSplitAC-45to-PENo
 "HDD_CloudAmt1" = 0   $ IP Non-Tech
 "HDD_DBHi1" = 51   $ IP Non-Tech
 "HDD_DBRange1" = 22   $ IP Non-Tech
 "HDD_Day1" = 15   $ IP Non-Tech
 "HDD_HrHi1" = 15   $ IP Non-Tech
 "HDD_HrLo1" = 8   $ IP Non-Tech
 "HDD_WB1" = 45.9   $ IP Non-Tech
 "HDD_WindSpd1" = 10.4   $ IP Non-Tech
 "HIR_fT" = 0   $ Msr (Var)TechID: PreNResSplitAC-45to-PENo
 "HSPF" = 0   $ Msr (Var)TechID: PreNResSplitAC-45to-PENo
 "HeatSrc" = FURNACE   $ IP Non-Tech
 "HeatSrcTU" = HEAT-PUMP   $ IP Non-Tech
 "HeatType" = GasFurn   $ IP Non-Tech
 "HeatTypeTU" = HEAT-PUMP   $ IP Non-Tech
 "HtCap_fT" = 0   $ Msr (Var)TechID: PreNResSplitAC-45to-PENo
 "HtCoolCapRatio" = 0   $ Msr (Var)TechID: PreNResSplitAC-45to-PENo
 "HtgEIR" = 0   $ Msr (Var)TechID: PreNResSplitAC-45to-PENo
 "IndoorFanMode" = CONTINUOUS   $ IP Non-Tech
 "KT_TransferAir" = Yes   $ IP Non-Tech
 "Latitude" = 38.5   $ IP Non-Tech
 "LobbyWaiting_EWSF" = 0.5   $ IP Non-Tech
 "LobbyWaiting_LWSF" = 0.75   $ IP Non-Tech
 "Longitude" = 122.7   $ IP Non-Tech
 "LowSpdCapRatio" = 1   $ Msr (Var)TechID: PreNResSplitAC-45to-PENo
 "LowSpdCfmRatio" = 1   $ Msr (Var)TechID: PreNResSplitAC-45to-PENo
 "MZFanMechEff" = 0.58   $ IP Non-Tech
 "MZHasRetFan" = FALSE   $ IP Non-Tech
 "MZ_RFanWPerCfm" = 0.37   $ IP Non-Tech
 "MZ_SFanWPerCfm" = 0.71   $ IP Non-Tech
 "MZ_SupFanStatic" = 2.25   $ IP Non-Tech
 "MaxOAFrac" = 1   $ Msr (Multi)TechID: PreNResSplitAC-45to-PENo
 "MaxSupT_MZ" = 100   $ IP Non-Tech
 "MaxSupT_SZ" = 100   $ IP Non-Tech
 "MaxSupT_TU" = 90   $ IP Non-Tech
 "MechElecRoom_EWSF" = 0.2   $ IP Non-Tech
 "MechElecRoom_LWSF" = 0.4   $ IP Non-Tech
 "MinCfmPerSF" = 0.4   $ IP Non-Tech
 "MinSupT" = 55   $ IP Non-Tech
 "NumStages" = 1   $ Msr (Var)TechID: PreNResSplitAC-45to-PENo
 "OccCoolT" = 76   $ IP Non-Tech
 "OccHeatT" = 72   $ IP Non-Tech
 "OfficeOpen_EWSF" = 1.5   $ IP Non-Tech
 "OfficeOpen_LWSF" = 0.8   $ IP Non-Tech
 "OfficeSmall_EWSF" = 1.5   $ IP Non-Tech
 "OfficeSmall_LWSF" = 0.9   $ IP Non-Tech
 "PkgDxVintEconoFlag" = 1   $ IP Non-Tech
 "Restroom_EWSF" = 0.2   $ IP Non-Tech
 "Restroom_LWSF" = 0.65   $ IP Non-Tech
 "SEER" = 14   $ Msr (Var)TechID: PreNResSplitAC-45to-PENo
 "SZFanMechEff" = 0.58   $ IP Non-Tech
 "SZHasRetFan" = FALSE   $ IP Non-Tech
 "SZ_Is_2Spd" = TRUE   $ IP Non-Tech
 "SZ_SFanWPerCfm" = 0.46   $ IP Non-Tech
 "SZ_SupFanStatic" = 0.75   $ IP Non-Tech
 "Sector" = Any   $ Msr (Var)TechID: PreNResSplitAC-45to-PENo
 "StorageSmlCond_EWSF" = 0.2   $ IP Non-Tech
 "StorageSmlCond_LWSF" = 0.45   $ IP Non-Tech
 "SubType" = AC   $ Msr (Var)TechID: PreNResSplitAC-45to-PENo
 "TermUnitFanMechEff" = 1   $ IP Non-Tech
 "TermUnitFanMode" = INTERMITTENT   $ IP Non-Tech
 "TotCoolCap" = 52519.36364   $ Msr (Var)TechID: PreNResSplitAC-45to-PENo
 "TwrSetpt" = 84   $ IP Non-Tech
 "UnocCoolT" = 86   $ IP Non-Tech
 "UnocHeatT" = 62   $ IP Non-Tech
 "UseEconoVintApplic" = FALSE   $ Msr (Multi)TechID: PreNResSplitAC-45to-PENo
 "WlhpVintEconoFlag" = 1   $ IP Non-Tech
 "DuctDT" = 1   $ IP Tech: ComDuctInsul-1
 "DuctAirLoss" = 0   $ IP Tech: ComDuctLeak-0
 "DuctLossOAFrac" = 0   $ IP Tech: ComDuctLeak-0
 "ComRoofInsCalc" = FromUo   $ IP Tech: ComRoofIns-Hvy-0.03
 "ComRoofInsR" = -999   $ IP Tech: ComRoofIns-Hvy-0.03
 "ComRoofUo" = 0.03   $ IP Tech: ComRoofIns-Hvy-0.03
 "ComEWInsCalc" = FromUo   $ IP Tech: ComWallIns-MFrm-0.06
 "ComEWInsR" = -999   $ IP Tech: ComWallIns-MFrm-0.06
 "ComEWUo" = 0.06   $ IP Tech: ComWallIns-MFrm-0.06
 "ComN_SHGC" = 0.26   $ IP Tech: NResWin-ComN-0.41-0.26
 "ComN_UFactor" = 0.41   $ IP Tech: NResWin-ComN-0.41-0.26
 "ComN_VisTrans" = 0.41   $ IP Tech: NResWin-ComN-0.41-0.26
 "ComN_WinCode" = G2666   $ IP Tech: NResWin-ComN-0.41-0.26
 "ComN_WinFrmFrac" = 0.17   $ IP Tech: NResWin-ComN-0.41-0.26
 "ComN_WinFrmU" = 0.3   $ IP Tech: NResWin-ComN-0.41-0.26
 "ComO_SHGC" = 0.26   $ IP Tech: NResWin-ComO-0.41-0.26
 "ComO_UFactor" = 0.41   $ IP Tech: NResWin-ComO-0.41-0.26
 "ComO_VisTrans" = 0.41   $ IP Tech: NResWin-ComO-0.41-0.26
 "ComO_WinCode" = G2666   $ IP Tech: NResWin-ComO-0.41-0.26
 "ComO_WinFrmFrac" = 0.17   $ IP Tech: NResWin-ComO-0.41-0.26
 "ComO_WinFrmU" = 0.3   $ IP Tech: NResWin-ComO-0.41-0.26
 "LtgMsrApplic" = ALL   $ IP Tech: NonResLtgRefPre
 "LtgSav_CFL" = 0   $ IP Tech: NonResLtgRefPre
 "LtgSav_EX" = 0   $ IP Tech: NonResLtgRefPre
 "LtgSav_HB" = 0   $ IP Tech: NonResLtgRefPre
 "LtgSav_LF" = 0   $ IP Tech: NonResLtgRefPre
 "LtgSav_SP" = 0   $ IP Tech: NonResLtgRefPre
 "CEIR_fPLR" = PSZ65to135_CEIR_fPLR   $ IP Tech: PkgAC2SpP-65to135-E11
 "CLoss_fPLR" = PSZ65to135_CLoss_fPLR   $ IP Tech: PkgAC2SpP-65to135-E11
 "COP" = -1   $ IP Tech: PkgAC2SpP-65to135-E11
 "HtgFuel" = Gas   $ IP Tech: PkgAC2SpP-65to135-E11
 "IEER" = 13.35   $ IP Tech: PkgAC2SpP-65to135-E11
 "NominalCap" = 15   $ IP Tech: PkgAC2SpP-65to135-E11
 "RatedEER" = 11   $ IP Tech: PkgAC2SpP-65to135-E11
 "RatedSupMtrClass" = Premium   $ IP Tech: PkgAC2SpP-65to135-E11
 "SizeRange" = 65to135   $ IP Tech: PkgAC2SpP-65to135-E11
 "SupMotEff" = 0.865   $ IP Tech: PkgAC2SpP-65to135-E11
 "Tier" = 0   $ IP Tech: PkgAC2SpP-65to135-E11
 "FanPwrMult" = 1   $ IP Tech: PkgFurn-0.80AFUE
 "FurnAFUE" = 0.8   $ IP Tech: PkgFurn-0.80AFUE
 "FurnEt" = 0.82   $ IP Tech: PkgFurn-0.80AFUE
 "FurnaceAuxKW" = 0.1   $ IP Tech: PkgFurn-0.80AFUE
 "HIR_fPLR" = Furnace-HIR-fPLR   $ IP Tech: PkgFurn-0.80AFUE
 "VSM" = FALSE   $ IP Tech: PkgFurn-0.80AFUE
 "BFMult" = 1   $ IP Tech: RefgChg-NRes-Std
 "CoolEirMult" = 1   $ IP Tech: RefgChg-NRes-Std
 "SensCoolCapMult" = 1   $ IP Tech: RefgChg-NRes-Std
 "TotCoolCapMult" = 1   $ IP Tech: RefgChg-NRes-Std
 "AltAdjFactor" = 1.004644   $ Sizing
 "CAssFlo_L_Break_CZn" = 432.5505   $ Sizing
 "CAssFlo_L_Conf_CZn" = 414.1134   $ Sizing
 "CAssFlo_L_CopyRm_CZn" = 123.3316   $ Sizing
 "CAssFlo_L_Cordr_CZn" = 474.7485   $ Sizing
 "CAssFlo_L_Cordr_EZn" = 159.2998   $ Sizing
 "CAssFlo_L_Cordr_NZn" = 105.4901   $ Sizing
 "CAssFlo_L_Cordr_SZn" = 187.823   $ Sizing
 "CAssFlo_L_Cordr_WZn" = 200.9603   $ Sizing
 "CAssFlo_L_LobWait_CZn" = 371.5189   $ Sizing
 "CAssFlo_L_MechElec_CZn" = 83.56554   $ Sizing
 "CAssFlo_L_OfficeOpn_CZn" = 1489.863   $ Sizing
 "CAssFlo_L_OfficeOpn_EZn" = 1219.936   $ Sizing
 "CAssFlo_L_OfficeOpn_NZn" = 906.6298   $ Sizing
 "CAssFlo_L_OfficeOpn_SZn" = 1376.062   $ Sizing
 "CAssFlo_L_OfficeOpn_WZn" = 1505.96   $ Sizing
 "CAssFlo_L_OfficeSm_CZn" = 182.9097   $ Sizing
 "CAssFlo_L_OfficeSm_EZn" = 863.1492   $ Sizing
 "CAssFlo_L_OfficeSm_NZn" = 581.0997   $ Sizing
 "CAssFlo_L_OfficeSm_SZn" = 978.0372   $ Sizing
 "CAssFlo_L_OfficeSm_WZn" = 1050.266   $ Sizing
 "CAssFlo_L_Restrm_CZn" = 78.86787   $ Sizing
 "CAssFlo_L_StorSm_CZn" = 257.628   $ Sizing
 "CAssFlo_M_Break_CZn" = 438.8103   $ Sizing
 "CAssFlo_M_Conf_CZn" = 415.6608   $ Sizing
 "CAssFlo_M_CopyRm_CZn" = 126.2522   $ Sizing
 "CAssFlo_M_Cordr_CZn" = 572.5248   $ Sizing
 "CAssFlo_M_Cordr_EZn" = 193.2828   $ Sizing
 "CAssFlo_M_Cordr_NZn" = 131.752   $ Sizing
 "CAssFlo_M_Cordr_SZn" = 216.5412   $ Sizing
 "CAssFlo_M_Cordr_WZn" = 221.564   $ Sizing
 "CAssFlo_M_LobWait_CZn" = 405.6658   $ Sizing
 "CAssFlo_M_MechElec_CZn" = 91.90916   $ Sizing
 "CAssFlo_M_OfficeOpn_CZn" = 1470.969   $ Sizing
 "CAssFlo_M_OfficeOpn_EZn" = 1335.209   $ Sizing
 "CAssFlo_M_OfficeOpn_NZn" = 986.1412   $ Sizing
 "CAssFlo_M_OfficeOpn_SZn" = 1482.208   $ Sizing
 "CAssFlo_M_OfficeOpn_WZn" = 1570.657   $ Sizing
 "CAssFlo_M_OfficeSm_CZn" = 197.5929   $ Sizing
 "CAssFlo_M_OfficeSm_EZn" = 935.6792   $ Sizing
 "CAssFlo_M_OfficeSm_NZn" = 633.4778   $ Sizing
 "CAssFlo_M_OfficeSm_SZn" = 1049.633   $ Sizing
 "CAssFlo_M_OfficeSm_WZn" = 1089.825   $ Sizing
 "CAssFlo_M_Restrm_CZn" = 86.0507   $ Sizing
 "CAssFlo_M_StorSm_CZn" = 247.3351   $ Sizing
 "CAssFlo_T_Break_CZn" = 432.3403   $ Sizing
 "CAssFlo_T_Conf_CZn" = 411.0854   $ Sizing
 "CAssFlo_T_CopyRm_CZn" = 123.4908   $ Sizing
 "CAssFlo_T_Cordr_CZn" = 557.1348   $ Sizing
 "CAssFlo_T_Cordr_EZn" = 184.1174   $ Sizing
 "CAssFlo_T_Cordr_NZn" = 128.3984   $ Sizing
 "CAssFlo_T_Cordr_SZn" = 206.3628   $ Sizing
 "CAssFlo_T_Cordr_WZn" = 215.4419   $ Sizing
 "CAssFlo_T_LobWait_CZn" = 395.5338   $ Sizing
 "CAssFlo_T_MechElec_CZn" = 109.7082   $ Sizing
 "CAssFlo_T_OfficeOpn_CZn" = 1485.529   $ Sizing
 "CAssFlo_T_OfficeOpn_EZn" = 1295.58   $ Sizing
 "CAssFlo_T_OfficeOpn_NZn" = 974.1923   $ Sizing
 "CAssFlo_T_OfficeOpn_SZn" = 1446.01   $ Sizing
 "CAssFlo_T_OfficeOpn_WZn" = 1537.668   $ Sizing
 "CAssFlo_T_OfficeSm_CZn" = 193.4672   $ Sizing
 "CAssFlo_T_OfficeSm_EZn" = 934.3358   $ Sizing
 "CAssFlo_T_OfficeSm_NZn" = 633.9573   $ Sizing
 "CAssFlo_T_OfficeSm_SZn" = 1038.803   $ Sizing
 "CAssFlo_T_OfficeSm_WZn" = 1088.536   $ Sizing
 "CAssFlo_T_Restrm_CZn" = 101.4678   $ Sizing
 "CAssFlo_T_StorSm_CZn" = 203.8792   $ Sizing
 "CHRtFlo_Sys_L_Break_C" = 432.5505   $ Sizing
 "CHRtFlo_Sys_L_Conf_C" = 420.3028   $ Sizing
 "CHRtFlo_Sys_L_CopyRm_C" = 123.3316   $ Sizing
 "CHRtFlo_Sys_L_Cordr_C" = 563.8171   $ Sizing
 "CHRtFlo_Sys_L_Cordr_E" = 216.6105   $ Sizing
 "CHRtFlo_Sys_L_Cordr_N" = 105.4901   $ Sizing
 "CHRtFlo_Sys_L_Cordr_S" = 221.1424   $ Sizing
 "CHRtFlo_Sys_L_Cordr_W" = 214.4914   $ Sizing
 "CHRtFlo_Sys_L_LobWait_C" = 371.5189   $ Sizing
 "CHRtFlo_Sys_L_MechElec_C" = 133.7851   $ Sizing
 "CHRtFlo_Sys_L_OfficeOpn_C" = 1582.935   $ Sizing
 "CHRtFlo_Sys_L_OfficeOpn_E" = 1637.168   $ Sizing
 "CHRtFlo_Sys_L_OfficeOpn_N" = 908.9464   $ Sizing
 "CHRtFlo_Sys_L_OfficeOpn_S" = 1656.269   $ Sizing
 "CHRtFlo_Sys_L_OfficeOpn_W" = 1659.128   $ Sizing
 "CHRtFlo_Sys_L_OfficeSm_C" = 226.5035   $ Sizing
 "CHRtFlo_Sys_L_OfficeSm_E" = 1176.227   $ Sizing
 "CHRtFlo_Sys_L_OfficeSm_N" = 591.3134   $ Sizing
 "CHRtFlo_Sys_L_OfficeSm_S" = 1213.378   $ Sizing
 "CHRtFlo_Sys_L_OfficeSm_W" = 1193.054   $ Sizing
 "CHRtFlo_Sys_L_Restrm_C" = 211.2538   $ Sizing
 "CHRtFlo_Sys_L_StorSm_C" = 355.4681   $ Sizing
 "CHRtFlo_Sys_M_Break_C" = 3510.482   $ Sizing
 "CHRtFlo_Sys_M_Conf_C" = 3931.128   $ Sizing
 "CHRtFlo_Sys_M_CopyRm_C" = 1052.47   $ Sizing
 "CHRtFlo_Sys_M_Cordr_C" = 6819.044   $ Sizing
 "CHRtFlo_Sys_M_Cordr_E" = 2145.36   $ Sizing
 "CHRtFlo_Sys_M_Cordr_N" = 1054.016   $ Sizing
 "CHRtFlo_Sys_M_Cordr_S" = 2065.1   $ Sizing
 "CHRtFlo_Sys_M_Cordr_W" = 1948.412   $ Sizing
 "CHRtFlo_Sys_M_LobWait_C" = 3679.183   $ Sizing
 "CHRtFlo_Sys_M_MechElec_C" = 1138.525   $ Sizing
 "CHRtFlo_Sys_M_OfficeOpn_C" = 15454.15   $ Sizing
 "CHRtFlo_Sys_M_OfficeOpn_E" = 14442.85   $ Sizing
 "CHRtFlo_Sys_M_OfficeOpn_N" = 8060.729   $ Sizing
 "CHRtFlo_Sys_M_OfficeOpn_S" = 14524.66   $ Sizing
 "CHRtFlo_Sys_M_OfficeOpn_W" = 13956.75   $ Sizing
 "CHRtFlo_Sys_M_OfficeSm_C" = 2282.167   $ Sizing
 "CHRtFlo_Sys_M_OfficeSm_E" = 10308.88   $ Sizing
 "CHRtFlo_Sys_M_OfficeSm_N" = 5250.81   $ Sizing
 "CHRtFlo_Sys_M_OfficeSm_S" = 10533.45   $ Sizing
 "CHRtFlo_Sys_M_OfficeSm_W" = 10060.38   $ Sizing
 "CHRtFlo_Sys_M_Restrm_C" = 1690.031   $ Sizing
 "CHRtFlo_Sys_M_StorSm_C" = 3141.134   $ Sizing
 "CHRtFlo_Sys_T_Break_C" = 432.3403   $ Sizing
 "CHRtFlo_Sys_T_Conf_C" = 443.4294   $ Sizing
 "CHRtFlo_Sys_T_CopyRm_C" = 123.4908   $ Sizing
 "CHRtFlo_Sys_T_Cordr_C" = 736.5644   $ Sizing
 "CHRtFlo_Sys_T_Cordr_E" = 235.7441   $ Sizing
 "CHRtFlo_Sys_T_Cordr_N" = 128.3984   $ Sizing
 "CHRtFlo_Sys_T_Cordr_S" = 236.4388   $ Sizing
 "CHRtFlo_Sys_T_Cordr_W" = 222.1893   $ Sizing
 "CHRtFlo_Sys_T_LobWait_C" = 400.5458   $ Sizing
 "CHRtFlo_Sys_T_MechElec_C" = 154.2675   $ Sizing
 "CHRtFlo_Sys_T_OfficeOpn_C" = 1760.88   $ Sizing
 "CHRtFlo_Sys_T_OfficeOpn_E" = 1636.958   $ Sizing
 "CHRtFlo_Sys_T_OfficeOpn_N" = 974.1923   $ Sizing
 "CHRtFlo_Sys_T_OfficeOpn_S" = 1701.556   $ Sizing
 "CHRtFlo_Sys_T_OfficeOpn_W" = 1611.863   $ Sizing
 "CHRtFlo_Sys_T_OfficeSm_C" = 263.365   $ Sizing
 "CHRtFlo_Sys_T_OfficeSm_E" = 1203.005   $ Sizing
 "CHRtFlo_Sys_T_OfficeSm_N" = 633.9573   $ Sizing
 "CHRtFlo_Sys_T_OfficeSm_S" = 1258.625   $ Sizing
 "CHRtFlo_Sys_T_OfficeSm_W" = 1193.321   $ Sizing
 "CHRtFlo_Sys_T_Restrm_C" = 211.2538   $ Sizing
 "CHRtFlo_Sys_T_StorSm_C" = 333.1317   $ Sizing
 "CRtdFlo_Sys_L_Break_C" = 432.5505   $ Sizing
 "CRtdFlo_Sys_L_Conf_C" = 414.1134   $ Sizing
 "CRtdFlo_Sys_L_CopyRm_C" = 123.3316   $ Sizing
 "CRtdFlo_Sys_L_Cordr_C" = 474.7485   $ Sizing
 "CRtdFlo_Sys_L_Cordr_E" = 159.2998   $ Sizing
 "CRtdFlo_Sys_L_Cordr_N" = 105.4901   $ Sizing
 "CRtdFlo_Sys_L_Cordr_S" = 187.823   $ Sizing
 "CRtdFlo_Sys_L_Cordr_W" = 200.9603   $ Sizing
 "CRtdFlo_Sys_L_LobWait_C" = 371.5189   $ Sizing
 "CRtdFlo_Sys_L_MechElec_C" = 83.56554   $ Sizing
 "CRtdFlo_Sys_L_OfficeOpn_C" = 1489.863   $ Sizing
 "CRtdFlo_Sys_L_OfficeOpn_E" = 1219.936   $ Sizing
 "CRtdFlo_Sys_L_OfficeOpn_N" = 906.6297   $ Sizing
 "CRtdFlo_Sys_L_OfficeOpn_S" = 1376.062   $ Sizing
 "CRtdFlo_Sys_L_OfficeOpn_W" = 1505.96   $ Sizing
 "CRtdFlo_Sys_L_OfficeSm_C" = 182.9097   $ Sizing
 "CRtdFlo_Sys_L_OfficeSm_E" = 863.1492   $ Sizing
 "CRtdFlo_Sys_L_OfficeSm_N" = 581.0997   $ Sizing
 "CRtdFlo_Sys_L_OfficeSm_S" = 978.0372   $ Sizing
 "CRtdFlo_Sys_L_OfficeSm_W" = 1050.266   $ Sizing
 "CRtdFlo_Sys_L_Restrm_C" = 78.86787   $ Sizing
 "CRtdFlo_Sys_L_StorSm_C" = 257.628   $ Sizing
 "CRtdFlo_Sys_M_Break_C" = 3510.482   $ Sizing
 "CRtdFlo_Sys_M_Conf_C" = 3325.286   $ Sizing
 "CRtdFlo_Sys_M_CopyRm_C" = 1010.018   $ Sizing
 "CRtdFlo_Sys_M_Cordr_C" = 4580.199   $ Sizing
 "CRtdFlo_Sys_M_Cordr_E" = 1546.262   $ Sizing
 "CRtdFlo_Sys_M_Cordr_N" = 1054.016   $ Sizing
 "CRtdFlo_Sys_M_Cordr_S" = 1732.329   $ Sizing
 "CRtdFlo_Sys_M_Cordr_W" = 1772.512   $ Sizing
 "CRtdFlo_Sys_M_LobWait_C" = 3245.327   $ Sizing
 "CRtdFlo_Sys_M_MechElec_C" = 735.2733   $ Sizing
 "CRtdFlo_Sys_M_OfficeOpn_C" = 11767.75   $ Sizing
 "CRtdFlo_Sys_M_OfficeOpn_E" = 10681.67   $ Sizing
 "CRtdFlo_Sys_M_OfficeOpn_N" = 7889.129   $ Sizing
 "CRtdFlo_Sys_M_OfficeOpn_S" = 11857.66   $ Sizing
 "CRtdFlo_Sys_M_OfficeOpn_W" = 12565.25   $ Sizing
 "CRtdFlo_Sys_M_OfficeSm_C" = 1580.743   $ Sizing
 "CRtdFlo_Sys_M_OfficeSm_E" = 7485.434   $ Sizing
 "CRtdFlo_Sys_M_OfficeSm_N" = 5067.823   $ Sizing
 "CRtdFlo_Sys_M_OfficeSm_S" = 8397.063   $ Sizing
 "CRtdFlo_Sys_M_OfficeSm_W" = 8718.603   $ Sizing
 "CRtdFlo_Sys_M_Restrm_C" = 688.4057   $ Sizing
 "CRtdFlo_Sys_M_StorSm_C" = 1978.681   $ Sizing
 "CRtdFlo_Sys_T_Break_C" = 432.3403   $ Sizing
 "CRtdFlo_Sys_T_Conf_C" = 411.0854   $ Sizing
 "CRtdFlo_Sys_T_CopyRm_C" = 123.4908   $ Sizing
 "CRtdFlo_Sys_T_Cordr_C" = 557.1348   $ Sizing
 "CRtdFlo_Sys_T_Cordr_E" = 184.1174   $ Sizing
 "CRtdFlo_Sys_T_Cordr_N" = 128.3984   $ Sizing
 "CRtdFlo_Sys_T_Cordr_S" = 206.3628   $ Sizing
 "CRtdFlo_Sys_T_Cordr_W" = 215.4419   $ Sizing
 "CRtdFlo_Sys_T_LobWait_C" = 395.5338   $ Sizing
 "CRtdFlo_Sys_T_MechElec_C" = 109.7082   $ Sizing
 "CRtdFlo_Sys_T_OfficeOpn_C" = 1485.529   $ Sizing
 "CRtdFlo_Sys_T_OfficeOpn_E" = 1295.58   $ Sizing
 "CRtdFlo_Sys_T_OfficeOpn_N" = 974.1923   $ Sizing
 "CRtdFlo_Sys_T_OfficeOpn_S" = 1446.01   $ Sizing
 "CRtdFlo_Sys_T_OfficeOpn_W" = 1537.668   $ Sizing
 "CRtdFlo_Sys_T_OfficeSm_C" = 193.4672   $ Sizing
 "CRtdFlo_Sys_T_OfficeSm_E" = 934.3358   $ Sizing
 "CRtdFlo_Sys_T_OfficeSm_N" = 633.9573   $ Sizing
 "CRtdFlo_Sys_T_OfficeSm_S" = 1038.803   $ Sizing
 "CRtdFlo_Sys_T_OfficeSm_W" = 1088.536   $ Sizing
 "CRtdFlo_Sys_T_Restrm_C" = 101.4678   $ Sizing
 "CRtdFlo_Sys_T_StorSm_C" = 203.8792   $ Sizing
 "CSupFlo_Sys_L_Break_C" = 432.5505   $ Sizing
 "CSupFlo_Sys_L_Conf_C" = 414.1134   $ Sizing
 "CSupFlo_Sys_L_CopyRm_C" = 123.3316   $ Sizing
 "CSupFlo_Sys_L_Cordr_C" = 474.7485   $ Sizing
 "CSupFlo_Sys_L_Cordr_E" = 159.2998   $ Sizing
 "CSupFlo_Sys_L_Cordr_N" = 105.4901   $ Sizing
 "CSupFlo_Sys_L_Cordr_S" = 187.823   $ Sizing
 "CSupFlo_Sys_L_Cordr_W" = 200.9603   $ Sizing
 "CSupFlo_Sys_L_LobWait_C" = 371.5189   $ Sizing
 "CSupFlo_Sys_L_MechElec_C" = 83.56554   $ Sizing
 "CSupFlo_Sys_L_OfficeOpn_C" = 1489.863   $ Sizing
 "CSupFlo_Sys_L_OfficeOpn_E" = 1219.936   $ Sizing
 "CSupFlo_Sys_L_OfficeOpn_N" = 906.6297   $ Sizing
 "CSupFlo_Sys_L_OfficeOpn_S" = 1376.062   $ Sizing
 "CSupFlo_Sys_L_OfficeOpn_W" = 1505.96   $ Sizing
 "CSupFlo_Sys_L_OfficeSm_C" = 182.9097   $ Sizing
 "CSupFlo_Sys_L_OfficeSm_E" = 863.1492   $ Sizing
 "CSupFlo_Sys_L_OfficeSm_N" = 581.0997   $ Sizing
 "CSupFlo_Sys_L_OfficeSm_S" = 978.0372   $ Sizing
 "CSupFlo_Sys_L_OfficeSm_W" = 1050.266   $ Sizing
 "CSupFlo_Sys_L_Restrm_C" = 78.86787   $ Sizing
 "CSupFlo_Sys_L_StorSm_C" = 257.628   $ Sizing
 "CSupFlo_Sys_M_Break_C" = 3510.482   $ Sizing
 "CSupFlo_Sys_M_Conf_C" = 3325.286   $ Sizing
 "CSupFlo_Sys_M_CopyRm_C" = 1010.018   $ Sizing
 "CSupFlo_Sys_M_Cordr_C" = 4580.199   $ Sizing
 "CSupFlo_Sys_M_Cordr_E" = 1546.262   $ Sizing
 "CSupFlo_Sys_M_Cordr_N" = 1054.016   $ Sizing
 "CSupFlo_Sys_M_Cordr_S" = 1732.329   $ Sizing
 "CSupFlo_Sys_M_Cordr_W" = 1772.512   $ Sizing
 "CSupFlo_Sys_M_LobWait_C" = 3245.327   $ Sizing
 "CSupFlo_Sys_M_MechElec_C" = 735.2733   $ Sizing
 "CSupFlo_Sys_M_OfficeOpn_C" = 11767.75   $ Sizing
 "CSupFlo_Sys_M_OfficeOpn_E" = 10681.67   $ Sizing
 "CSupFlo_Sys_M_OfficeOpn_N" = 7889.129   $ Sizing
 "CSupFlo_Sys_M_OfficeOpn_S" = 11857.66   $ Sizing
 "CSupFlo_Sys_M_OfficeOpn_W" = 12565.25   $ Sizing
 "CSupFlo_Sys_M_OfficeSm_C" = 1580.743   $ Sizing
 "CSupFlo_Sys_M_OfficeSm_E" = 7485.434   $ Sizing
 "CSupFlo_Sys_M_OfficeSm_N" = 5067.823   $ Sizing
 "CSupFlo_Sys_M_OfficeSm_S" = 8397.063   $ Sizing
 "CSupFlo_Sys_M_OfficeSm_W" = 8718.603   $ Sizing
 "CSupFlo_Sys_M_Restrm_C" = 688.4057   $ Sizing
 "CSupFlo_Sys_M_StorSm_C" = 1978.681   $ Sizing
 "CSupFlo_Sys_T_Break_C" = 432.3403   $ Sizing
 "CSupFlo_Sys_T_Conf_C" = 411.0854   $ Sizing
 "CSupFlo_Sys_T_CopyRm_C" = 123.4908   $ Sizing
 "CSupFlo_Sys_T_Cordr_C" = 557.1348   $ Sizing
 "CSupFlo_Sys_T_Cordr_E" = 184.1174   $ Sizing
 "CSupFlo_Sys_T_Cordr_N" = 128.3984   $ Sizing
 "CSupFlo_Sys_T_Cordr_S" = 206.3628   $ Sizing
 "CSupFlo_Sys_T_Cordr_W" = 215.4419   $ Sizing
 "CSupFlo_Sys_T_LobWait_C" = 395.5338   $ Sizing
 "CSupFlo_Sys_T_MechElec_C" = 109.7082   $ Sizing
 "CSupFlo_Sys_T_OfficeOpn_C" = 1485.529   $ Sizing
 "CSupFlo_Sys_T_OfficeOpn_E" = 1295.58   $ Sizing
 "CSupFlo_Sys_T_OfficeOpn_N" = 974.1923   $ Sizing
 "CSupFlo_Sys_T_OfficeOpn_S" = 1446.01   $ Sizing
 "CSupFlo_Sys_T_OfficeOpn_W" = 1537.668   $ Sizing
 "CSupFlo_Sys_T_OfficeSm_C" = 193.4672   $ Sizing
 "CSupFlo_Sys_T_OfficeSm_E" = 934.3358   $ Sizing
 "CSupFlo_Sys_T_OfficeSm_N" = 633.9573   $ Sizing
 "CSupFlo_Sys_T_OfficeSm_S" = 1038.803   $ Sizing
 "CSupFlo_Sys_T_OfficeSm_W" = 1088.536   $ Sizing
 "CSupFlo_Sys_T_Restrm_C" = 101.4678   $ Sizing
 "CSupFlo_Sys_T_StorSm_C" = 203.8792   $ Sizing
 "ClCap_Sys_L_Break_C" = 14761.75   $ Sizing
 "ClCap_Sys_L_Conf_C" = 17986.87   $ Sizing
 "ClCap_Sys_L_CopyRm_C" = 4208.963   $ Sizing
 "ClCap_Sys_L_Cordr_C" = 16201.85   $ Sizing
 "ClCap_Sys_L_Cordr_E" = 5436.46   $ Sizing
 "ClCap_Sys_L_Cordr_N" = 3600.083   $ Sizing
 "ClCap_Sys_L_Cordr_S" = 6409.876   $ Sizing
 "ClCap_Sys_L_Cordr_W" = 6858.216   $ Sizing
 "ClCap_Sys_L_LobWait_C" = 12678.91   $ Sizing
 "ClCap_Sys_L_MechElec_C" = 2851.86   $ Sizing
 "ClCap_Sys_L_OfficeOpn_C" = 50844.89   $ Sizing
 "ClCap_Sys_L_OfficeOpn_E" = 41633.03   $ Sizing
 "ClCap_Sys_L_OfficeOpn_N" = 30940.75   $ Sizing
 "ClCap_Sys_L_OfficeOpn_S" = 46961.18   $ Sizing
 "ClCap_Sys_L_OfficeOpn_W" = 51394.23   $ Sizing
 "ClCap_Sys_L_OfficeSm_C" = 6242.201   $ Sizing
 "ClCap_Sys_L_OfficeSm_E" = 29456.88   $ Sizing
 "ClCap_Sys_L_OfficeSm_N" = 19831.32   $ Sizing
 "ClCap_Sys_L_OfficeSm_S" = 33377.69   $ Sizing
 "ClCap_Sys_L_OfficeSm_W" = 35842.65   $ Sizing
 "ClCap_Sys_L_Restrm_C" = 2691.542   $ Sizing
 "ClCap_Sys_L_StorSm_C" = 8792.127   $ Sizing
 "ClCap_Sys_M_Break_C" = 119803   $ Sizing
 "ClCap_Sys_M_Conf_C" = 144432.6   $ Sizing
 "ClCap_Sys_M_CopyRm_C" = 34469.09   $ Sizing
 "ClCap_Sys_M_Cordr_C" = 156309.5   $ Sizing
 "ClCap_Sys_M_Cordr_E" = 52769.63   $ Sizing
 "ClCap_Sys_M_Cordr_N" = 35970.63   $ Sizing
 "ClCap_Sys_M_Cordr_S" = 59119.58   $ Sizing
 "ClCap_Sys_M_Cordr_W" = 60490.92   $ Sizing
 "ClCap_Sys_M_LobWait_C" = 110754   $ Sizing
 "ClCap_Sys_M_MechElec_C" = 25092.83   $ Sizing
 "ClCap_Sys_M_OfficeOpn_C" = 401600.6   $ Sizing
 "ClCap_Sys_M_OfficeOpn_E" = 364535.8   $ Sizing
 "ClCap_Sys_M_OfficeOpn_N" = 269234.1   $ Sizing
 "ClCap_Sys_M_OfficeOpn_S" = 404669   $ Sizing
 "ClCap_Sys_M_OfficeOpn_W" = 428817.2   $ Sizing
 "ClCap_Sys_M_OfficeSm_C" = 53946.38   $ Sizing
 "ClCap_Sys_M_OfficeSm_E" = 255457   $ Sizing
 "ClCap_Sys_M_OfficeSm_N" = 172950.7   $ Sizing
 "ClCap_Sys_M_OfficeSm_S" = 286568.4   $ Sizing
 "ClCap_Sys_M_OfficeSm_W" = 297541.7   $ Sizing
 "ClCap_Sys_M_Restrm_C" = 23493.37   $ Sizing
 "ClCap_Sys_M_StorSm_C" = 67526.89   $ Sizing
 "ClCap_Sys_T_Break_C" = 14754.57   $ Sizing
 "ClCap_Sys_T_Conf_C" = 17855.35   $ Sizing
 "ClCap_Sys_T_CopyRm_C" = 4214.397   $ Sizing
 "ClCap_Sys_T_Cordr_C" = 19013.46   $ Sizing
 "ClCap_Sys_T_Cordr_E" = 6283.415   $ Sizing
 "ClCap_Sys_T_Cordr_N" = 4381.882   $ Sizing
 "ClCap_Sys_T_Cordr_S" = 7042.588   $ Sizing
 "ClCap_Sys_T_Cordr_W" = 7352.435   $ Sizing
 "ClCap_Sys_T_LobWait_C" = 13498.47   $ Sizing
 "ClCap_Sys_T_MechElec_C" = 3744.036   $ Sizing
 "ClCap_Sys_T_OfficeOpn_C" = 50696.99   $ Sizing
 "ClCap_Sys_T_OfficeOpn_E" = 44214.53   $ Sizing
 "ClCap_Sys_T_OfficeOpn_N" = 33246.48   $ Sizing
 "ClCap_Sys_T_OfficeOpn_S" = 49348.29   $ Sizing
 "ClCap_Sys_T_OfficeOpn_W" = 52476.32   $ Sizing
 "ClCap_Sys_T_OfficeSm_C" = 6602.498   $ Sizing
 "ClCap_Sys_T_OfficeSm_E" = 31886.29   $ Sizing
 "ClCap_Sys_T_OfficeSm_N" = 21635.2   $ Sizing
 "ClCap_Sys_T_OfficeSm_S" = 35451.47   $ Sizing
 "ClCap_Sys_T_OfficeSm_W" = 37148.71   $ Sizing
 "ClCap_Sys_T_Restrm_C" = 3462.816   $ Sizing
 "ClCap_Sys_T_StorSm_C" = 6957.829   $ Sizing
 "HtCap_Sys_L_Break_C" = -26078.03   $ Sizing
 "HtCap_Sys_L_Conf_C" = -26493.8   $ Sizing
 "HtCap_Sys_L_CopyRm_C" = -9001.016   $ Sizing
 "HtCap_Sys_L_Cordr_C" = -27121.89   $ Sizing
 "HtCap_Sys_L_Cordr_E" = -8162.451   $ Sizing
 "HtCap_Sys_L_Cordr_N" = -5068.569   $ Sizing
 "HtCap_Sys_L_Cordr_S" = -8228.396   $ Sizing
 "HtCap_Sys_L_Cordr_W" = -8092.689   $ Sizing
 "HtCap_Sys_L_LobWait_C" = -23685.76   $ Sizing
 "HtCap_Sys_L_MechElec_C" = -6370.564   $ Sizing
 "HtCap_Sys_L_OfficeOpn_C" = -66618.07   $ Sizing
 "HtCap_Sys_L_OfficeOpn_E" = -57912.1   $ Sizing
 "HtCap_Sys_L_OfficeOpn_N" = -36792.81   $ Sizing
 "HtCap_Sys_L_OfficeOpn_S" = -57767.19   $ Sizing
 "HtCap_Sys_L_OfficeOpn_W" = -58468.78   $ Sizing
 "HtCap_Sys_L_OfficeSm_C" = -9446.762   $ Sizing
 "HtCap_Sys_L_OfficeSm_E" = -41131.84   $ Sizing
 "HtCap_Sys_L_OfficeSm_N" = -23856.91   $ Sizing
 "HtCap_Sys_L_OfficeSm_S" = -41932.18   $ Sizing
 "HtCap_Sys_L_OfficeSm_W" = -41668.39   $ Sizing
 "HtCap_Sys_L_Restrm_C" = -7708.264   $ Sizing
 "HtCap_Sys_L_StorSm_C" = -16814.52   $ Sizing
 "HtCap_Sys_M_Break_C" = -200934.3   $ Sizing
 "HtCap_Sys_M_Conf_C" = -228647.6   $ Sizing
 "HtCap_Sys_M_CopyRm_C" = -66260.17   $ Sizing
 "HtCap_Sys_M_Cordr_C" = -283156.2   $ Sizing
 "HtCap_Sys_M_Cordr_E" = -77028.29   $ Sizing
 "HtCap_Sys_M_Cordr_N" = -45562.04   $ Sizing
 "HtCap_Sys_M_Cordr_S" = -74027.34   $ Sizing
 "HtCap_Sys_M_Cordr_W" = -71245.24   $ Sizing
 "HtCap_Sys_M_LobWait_C" = -197768.6   $ Sizing
 "HtCap_Sys_M_MechElec_C" = -52900.99   $ Sizing
 "HtCap_Sys_M_OfficeOpn_C" = -611129.5   $ Sizing
 "HtCap_Sys_M_OfficeOpn_E" = -500535.1   $ Sizing
 "HtCap_Sys_M_OfficeOpn_N" = -316296.6   $ Sizing
 "HtCap_Sys_M_OfficeOpn_S" = -496621.5   $ Sizing
 "HtCap_Sys_M_OfficeOpn_W" = -485826   $ Sizing
 "HtCap_Sys_M_OfficeSm_C" = -89175.14   $ Sizing
 "HtCap_Sys_M_OfficeSm_E" = -353892.4   $ Sizing
 "HtCap_Sys_M_OfficeSm_N" = -205612.2   $ Sizing
 "HtCap_Sys_M_OfficeSm_S" = -357627.6   $ Sizing
 "HtCap_Sys_M_OfficeSm_W" = -346933.2   $ Sizing
 "HtCap_Sys_M_Restrm_C" = -66483.74   $ Sizing
 "HtCap_Sys_M_StorSm_C" = -140056   $ Sizing
 "HtCap_Sys_T_Break_C" = -26162.17   $ Sizing
 "HtCap_Sys_T_Conf_C" = -27663.82   $ Sizing
 "HtCap_Sys_T_CopyRm_C" = -8188.114   $ Sizing
 "HtCap_Sys_T_Cordr_C" = -34560.05   $ Sizing
 "HtCap_Sys_T_Cordr_E" = -9520.506   $ Sizing
 "HtCap_Sys_T_Cordr_N" = -6132.385   $ Sizing
 "HtCap_Sys_T_Cordr_S" = -9543.965   $ Sizing
 "HtCap_Sys_T_Cordr_W" = -9078.912   $ Sizing
 "HtCap_Sys_T_LobWait_C" = -23679.93   $ Sizing
 "HtCap_Sys_T_MechElec_C" = -6953.136   $ Sizing
 "HtCap_Sys_T_OfficeOpn_C" = -77586.02   $ Sizing
 "HtCap_Sys_T_OfficeOpn_E" = -62582.22   $ Sizing
 "HtCap_Sys_T_OfficeOpn_N" = -42286.22   $ Sizing
 "HtCap_Sys_T_OfficeOpn_S" = -65521.93   $ Sizing
 "HtCap_Sys_T_OfficeOpn_W" = -61713.49   $ Sizing
 "HtCap_Sys_T_OfficeSm_C" = -11353.69   $ Sizing
 "HtCap_Sys_T_OfficeSm_E" = -45562.77   $ Sizing
 "HtCap_Sys_T_OfficeSm_N" = -27272.67   $ Sizing
 "HtCap_Sys_T_OfficeSm_S" = -47455.14   $ Sizing
 "HtCap_Sys_T_OfficeSm_W" = -45323.41   $ Sizing
 "HtCap_Sys_T_Restrm_C" = -8618.17   $ Sizing
 "HtCap_Sys_T_StorSm_C" = -16888.56   $ Sizing
..

##include Templates\OfL_DX_SZ.inp
END ..
COMPUTE ..
STOP ..
