INPUT ..

##fileprefix C:\Users\jglasskatz\MASControl3\
##set1 IsSizing FALSE
##set1 CoolType WLHP
##set1 HeatType HEAT-PUMP
##set1 EU_HrRepVar 1
##set1 BldgVint 1985
##set1 BldgLoc CZ01

 ##set1 mHW_FlowCtrl Const   $ IP Tech: HwFlowCtrlCst
 ##set1 mBlrIsCond FALSE   $ IP Tech: WBlr-300to2500-80p0Ec
 ##set1 mWLHP_FlowCtrl Const   $ IP Tech: WlhpFlowCtrlCst

PARAMETER
 "AltFactor" = 1.00753   $ IP Non-Tech
 "BldgEconoFlag" = 1   $ IP Non-Tech
 "BlrPrimLp" = WLHPCircLoop   $ IP Non-Tech
 "Break_EWSF" = 1   $ IP Non-Tech
 "Break_LWSF" = 1.1   $ IP Non-Tech
 "CDD_DBHi10" = 65   $ IP Non-Tech
 "CDD_DBHi7" = 68   $ IP Non-Tech
 "CDD_DBHi8" = 66   $ IP Non-Tech
 "CDD_DBHi9" = 77   $ IP Non-Tech
 "CDD_DBRange10" = 17   $ IP Non-Tech
 "CDD_DBRange7" = 11   $ IP Non-Tech
 "CDD_DBRange8" = 10   $ IP Non-Tech
 "CDD_DBRange9" = 29   $ IP Non-Tech
 "CDD_Day10" = 15   $ IP Non-Tech
 "CDD_Day7" = 16   $ IP Non-Tech
 "CDD_Day8" = 20   $ IP Non-Tech
 "CDD_Day9" = 17   $ IP Non-Tech
 "CDD_HrHi10" = 12   $ IP Non-Tech
 "CDD_HrHi7" = 12   $ IP Non-Tech
 "CDD_HrHi8" = 13   $ IP Non-Tech
 "CDD_HrHi9" = 17   $ IP Non-Tech
 "CDD_HrLo10" = 6   $ IP Non-Tech
 "CDD_HrLo7" = 3   $ IP Non-Tech
 "CDD_HrLo8" = 8   $ IP Non-Tech
 "CDD_HrLo9" = 4   $ IP Non-Tech
 "CDD_WB10" = 57.53039551   $ IP Non-Tech
 "CDD_WB7" = 59.29250717   $ IP Non-Tech
 "CDD_WB8" = 60.75350189   $ IP Non-Tech
 "CDD_WB9" = 61.08643341   $ IP Non-Tech
 "CZ_Category" = Tem   $ IP Non-Tech
 "ChwVintEconoFlag" = 1   $ IP Non-Tech
 "Conference_EWSF" = 1.1   $ IP Non-Tech
 "Conference_LWSF" = 1.4   $ IP Non-Tech
 "CoolSetT" = 45   $ IP Non-Tech
 "CoolType" = WLHP   $ IP Non-Tech
 "CopyRoom_EWSF" = 1.65   $ IP Non-Tech
 "CopyRoom_LWSF" = 1.3   $ IP Non-Tech
 "CorridorStairway_EWSF" = 0.22   $ IP Non-Tech
 "CorridorStairway_LWSF" = 0.6   $ IP Non-Tech
 "CwPipeHead" = 40   $ IP Non-Tech
 "DesCoolT" = 75   $ IP Non-Tech
 "DesHeatT" = 73   $ IP Non-Tech
 "EconoEnthLimit" = 28   $ IP Non-Tech
 "EconoTempLimit" = 70   $ IP Non-Tech
 "Elevation" = 203   $ IP Non-Tech
 "HDD_CloudAmt1" = 0   $ IP Non-Tech
 "HDD_DBHi1" = 53   $ IP Non-Tech
 "HDD_DBRange1" = 20   $ IP Non-Tech
 "HDD_Day1" = 15   $ IP Non-Tech
 "HDD_HrHi1" = 14   $ IP Non-Tech
 "HDD_HrLo1" = 6   $ IP Non-Tech
 "HDD_WB1" = 42.3   $ IP Non-Tech
 "HDD_WindSpd1" = 12.7   $ IP Non-Tech
 "HeatSrc" = HEAT-PUMP   $ IP Non-Tech
 "HeatSrcTU" = HEAT-PUMP   $ IP Non-Tech
 "HeatType" = WLHP   $ IP Non-Tech
 "HeatTypeTU" = HEAT-PUMP   $ IP Non-Tech
 "IndoorFanMode" = CONTINUOUS   $ IP Non-Tech
 "KT_TransferAir" = No   $ IP Non-Tech
 "Latitude" = 40.8   $ IP Non-Tech
 "LobbyWaiting_EWSF" = 0.525   $ IP Non-Tech
 "LobbyWaiting_LWSF" = 1.3   $ IP Non-Tech
 "Longitude" = 124.2   $ IP Non-Tech
 "LtgMsrApplic" = ALL   $ Msr TechID: NonResLtgRefMsr-HB
 "LtgSav_CFL" = 0   $ Msr TechID: NonResLtgRefMsr-HB
 "LtgSav_EX" = 0   $ Msr TechID: NonResLtgRefMsr-HB
 "LtgSav_HB" = 0.3   $ Msr TechID: NonResLtgRefMsr-HB
 "LtgSav_LF" = 0   $ Msr TechID: NonResLtgRefMsr-HB
 "LtgSav_SP" = 0   $ Msr TechID: NonResLtgRefMsr-HB
 "MZFanMechEff" = 0.54   $ IP Non-Tech
 "MZHasRetFan" = FALSE   $ IP Non-Tech
 "MZ_RFanWPerCfm" = 0.37   $ IP Non-Tech
 "MZ_SFanWPerCfm" = 0.71   $ IP Non-Tech
 "MZ_SupFanStatic" = 0.75   $ IP Non-Tech
 "MaxSupT_MZ" = 90   $ IP Non-Tech
 "MaxSupT_SZ" = 90   $ IP Non-Tech
 "MaxSupT_TU" = 90   $ IP Non-Tech
 "MechElecRoom_EWSF" = 0.22   $ IP Non-Tech
 "MechElecRoom_LWSF" = 0.7   $ IP Non-Tech
 "MinCfmPerSF" = 0.4   $ IP Non-Tech
 "MinSupT" = 55   $ IP Non-Tech
 "NumBlrs" = 2   $ IP Non-Tech
 "OccCoolT" = 76   $ IP Non-Tech
 "OccHeatT" = 72   $ IP Non-Tech
 "OfficeOpen_EWSF" = 1.65   $ IP Non-Tech
 "OfficeOpen_LWSF" = 1.2   $ IP Non-Tech
 "OfficeSmall_EWSF" = 1.65   $ IP Non-Tech
 "OfficeSmall_LWSF" = 1.3   $ IP Non-Tech
 "PkgDxVintEconoFlag" = 0   $ IP Non-Tech
 "Restroom_EWSF" = 0.22   $ IP Non-Tech
 "Restroom_LWSF" = 0.6   $ IP Non-Tech
 "SZFanMechEff" = 0.54   $ IP Non-Tech
 "SZHasRetFan" = FALSE   $ IP Non-Tech
 "SZ_Is_2Spd" = FALSE   $ IP Non-Tech
 "SZ_SFanWPerCfm" = 0.46   $ IP Non-Tech
 "SZ_SupFanStatic" = 0.75   $ IP Non-Tech
 "StorageSmlCond_EWSF" = 0.22   $ IP Non-Tech
 "StorageSmlCond_LWSF" = 0.6   $ IP Non-Tech
 "T24GlzTbl" = CZTbl   $ IP Non-Tech
 "TermUnitFanMechEff" = 1   $ IP Non-Tech
 "TermUnitFanMode" = INTERMITTENT   $ IP Non-Tech
 "TermUnitFanWPerCfm" = 0.175   $ IP Non-Tech
 "TwrEIR" = 0.0329   $ IP Non-Tech
 "TwrPipeHead" = 15   $ IP Non-Tech
 "TwrSetpt" = 80   $ IP Non-Tech
 "TwrStaticHead" = 0   $ IP Non-Tech
 "UnocCoolT" = 86   $ IP Non-Tech
 "UnocHeatT" = 62   $ IP Non-Tech
 "WLHPLoopHeatSetpt" = 65   $ IP Non-Tech
 "WlhpVintEconoFlag" = 0   $ IP Non-Tech
 "EconoCtrl" = OA-TEMP   $ IP Tech: AirEcono-OAT-ByVint
 "MaxOAFrac" = 0.85   $ IP Tech: AirEcono-OAT-ByVint
 "UseEconoVintApplic" = TRUE   $ IP Tech: AirEcono-OAT-ByVint
 "DuctDT" = 1   $ IP Tech: ComDuctInsul-1
 "DuctAirLoss" = 0   $ IP Tech: ComDuctLeak-0
 "DuctLossOAFrac" = 0   $ IP Tech: ComDuctLeak-0
 "ComRoofInsCalc" = FromUo   $ IP Tech: ComRoofIns-Hvy-0.06
 "ComRoofInsR" = -999   $ IP Tech: ComRoofIns-Hvy-0.06
 "ComRoofUo" = 0.06   $ IP Tech: ComRoofIns-Hvy-0.06
 "ComEWInsCalc" = FromUo   $ IP Tech: ComWallIns-MFrm-0.14
 "ComEWInsR" = -999   $ IP Tech: ComWallIns-MFrm-0.14
 "ComEWUo" = 0.14   $ IP Tech: ComWallIns-MFrm-0.14
 "HW_FlowCtrl" = Const   $ IP Tech: HwFlowCtrlCst
 "HW_HdSensLoc" = AT-COILS   $ IP Tech: HwFlowCtrlCst
 "HW_HdSptCtrl" = FIXED   $ IP Tech: HwFlowCtrlCst
 "HWP_Encl" = Any   $ IP Tech: HwPumpMtrEff-HI
 "HWP_MotClass" = HI-EFF   $ IP Tech: HwPumpMtrEff-HI
 "HWP_MotHP" = Any   $ IP Tech: HwPumpMtrEff-HI
 "HWP_NEMA_DC" = Any   $ IP Tech: HwPumpMtrEff-HI
 "HWP_RPM" = Any   $ IP Tech: HwPumpMtrEff-HI
 "HWP_Volt" = Any   $ IP Tech: HwPumpMtrEff-HI
 "ComN_SHGC" = 0.82   $ IP Tech: NResWin-ComN-1.23-0.82
 "ComN_UFactor" = 1.23   $ IP Tech: NResWin-ComN-1.23-0.82
 "ComN_VisTrans" = 0.9   $ IP Tech: NResWin-ComN-1.23-0.82
 "ComN_WinCode" = G1000   $ IP Tech: NResWin-ComN-1.23-0.82
 "ComN_WinFrmFrac" = 0.17   $ IP Tech: NResWin-ComN-1.23-0.82
 "ComN_WinFrmU" = 1   $ IP Tech: NResWin-ComN-1.23-0.82
 "ComO_SHGC" = 0.82   $ IP Tech: NResWin-ComO-1.23-0.82
 "ComO_UFactor" = 1.23   $ IP Tech: NResWin-ComO-1.23-0.82
 "ComO_VisTrans" = 0.9   $ IP Tech: NResWin-ComO-1.23-0.82
 "ComO_WinCode" = G1000   $ IP Tech: NResWin-ComO-1.23-0.82
 "ComO_WinFrmFrac" = 0.17   $ IP Tech: NResWin-ComO-1.23-0.82
 "ComO_WinFrmU" = 1   $ IP Tech: NResWin-ComO-1.23-0.82
 "TwrFanCtrl" = TWO-SPEED-FAN   $ IP Tech: TwrFanCtrl-2sp
 "TFan_Encl" = Any   $ IP Tech: TwrFanMtrEff-HI
 "TFan_MotClass" = HI-EFF   $ IP Tech: TwrFanMtrEff-HI
 "TFan_MotHP" = Any   $ IP Tech: TwrFanMtrEff-HI
 "TFan_NEMA_DC" = Any   $ IP Tech: TwrFanMtrEff-HI
 "TFan_RPM" = Any   $ IP Tech: TwrFanMtrEff-HI
 "TFan_Volt" = Any   $ IP Tech: TwrFanMtrEff-HI
 "BlrCapRange" = 300to2500   $ IP Tech: WBlr-300to2500-80p0Ec
 "BlrDraftType" = FDr   $ IP Tech: WBlr-300to2500-80p0Ec
 "BlrEff" = 0.8   $ IP Tech: WBlr-300to2500-80p0Ec
 "BlrEffUnits" = Ec   $ IP Tech: WBlr-300to2500-80p0Ec
 "BlrEt" = 0.78   $ IP Tech: WBlr-300to2500-80p0Ec
 "BlrFluid" = Wtr   $ IP Tech: WBlr-300to2500-80p0Ec
 "BlrIsCond" = FALSE   $ IP Tech: WBlr-300to2500-80p0Ec
 "BlrT" = 165   $ IP Tech: WBlr-300to2500-80p0Ec
 "COP47" = 4.813   $ IP Tech: WLHP1SpH-ge17-E12-C4.2
 "CfmPerBtuh" = 0.033333333   $ IP Tech: WLHP1SpH-ge17-E12-C4.2
 "CoilBF" = 0.15   $ IP Tech: WLHP1SpH-ge17-E12-C4.2
 "CoolingEIR" = 0.23327   $ IP Tech: WLHP1SpH-ge17-E12-C4.2
 "DXType" = WLHP   $ IP Tech: WLHP1SpH-ge17-E12-C4.2
 "EER" = 12   $ IP Tech: WLHP1SpH-ge17-E12-C4.2
 "FanWPerCfm" = 0.35   $ IP Tech: WLHP1SpH-ge17-E12-C4.2
 "HtCoolCapRatio" = 0.88   $ IP Tech: WLHP1SpH-ge17-E12-C4.2
 "HtgEIR" = 0.20776   $ IP Tech: WLHP1SpH-ge17-E12-C4.2
 "NumStages" = 1   $ IP Tech: WLHP1SpH-ge17-E12-C4.2
 "RatedSupMtrClass" = HiEff   $ IP Tech: WLHP1SpH-ge17-E12-C4.2
 "SubType" = 1SpH   $ IP Tech: WLHP1SpH-ge17-E12-C4.2
 "UnitCOP" = 4.2   $ IP Tech: WLHP1SpH-ge17-E12-C4.2
 "WLHP_FlowCtrl" = Const   $ IP Tech: WlhpFlowCtrlCst
 "WLHP_HdSensLoc" = AT-COILS   $ IP Tech: WlhpFlowCtrlCst
 "WLHP_HdSptCtrl" = FIXED   $ IP Tech: WlhpFlowCtrlCst
 "WLHP_Encl" = Any   $ IP Tech: WlhpPumpMtrEff-HI
 "WLHP_MotClass" = HI-EFF   $ IP Tech: WlhpPumpMtrEff-HI
 "WLHP_MotHP" = Any   $ IP Tech: WlhpPumpMtrEff-HI
 "WLHP_NEMA_DC" = Any   $ IP Tech: WlhpPumpMtrEff-HI
 "WLHP_RPM" = Any   $ IP Tech: WlhpPumpMtrEff-HI
 "WLHP_Volt" = Any   $ IP Tech: WlhpPumpMtrEff-HI
 "AltAdjFactor" = 1.007532   $ Sizing
 "CAssFlo_L_Break_CZn" = 365.9432   $ Sizing
 "CAssFlo_L_Conf_CZn" = 433.643   $ Sizing
 "CAssFlo_L_CopyRm_CZn" = 112.5295   $ Sizing
 "CAssFlo_L_Cordr_CZn" = 565.4379   $ Sizing
 "CAssFlo_L_Cordr_EZn" = 290.0196   $ Sizing
 "CAssFlo_L_Cordr_NZn" = 196.0521   $ Sizing
 "CAssFlo_L_Cordr_SZn" = 318.4575   $ Sizing
 "CAssFlo_L_Cordr_WZn" = 282.0572   $ Sizing
 "CAssFlo_L_LobWait_CZn" = 359.1593   $ Sizing
 "CAssFlo_L_MechElec_CZn" = 134.1697   $ Sizing
 "CAssFlo_L_OfficeOpn_CZn" = 1754.525   $ Sizing
 "CAssFlo_L_OfficeOpn_EZn" = 2340.699   $ Sizing
 "CAssFlo_L_OfficeOpn_NZn" = 873.7319   $ Sizing
 "CAssFlo_L_OfficeOpn_SZn" = 2474.324   $ Sizing
 "CAssFlo_L_OfficeOpn_WZn" = 2260.59   $ Sizing
 "CAssFlo_L_OfficeSm_CZn" = 221.9738   $ Sizing
 "CAssFlo_L_OfficeSm_EZn" = 1716.975   $ Sizing
 "CAssFlo_L_OfficeSm_NZn" = 689.4456   $ Sizing
 "CAssFlo_L_OfficeSm_SZn" = 1857.226   $ Sizing
 "CAssFlo_L_OfficeSm_WZn" = 1685.378   $ Sizing
 "CAssFlo_L_Restrm_CZn" = 211.8611   $ Sizing
 "CAssFlo_L_StorSm_CZn" = 348.7495   $ Sizing
 "CAssFlo_M_Break_CZn" = 397.2491   $ Sizing
 "CAssFlo_M_Conf_CZn" = 482.9077   $ Sizing
 "CAssFlo_M_CopyRm_CZn" = 139.634   $ Sizing
 "CAssFlo_M_Cordr_CZn" = 802.424   $ Sizing
 "CAssFlo_M_Cordr_EZn" = 346.6888   $ Sizing
 "CAssFlo_M_Cordr_NZn" = 219.0195   $ Sizing
 "CAssFlo_M_Cordr_SZn" = 380.1318   $ Sizing
 "CAssFlo_M_Cordr_WZn" = 323.1421   $ Sizing
 "CAssFlo_M_LobWait_CZn" = 464.2562   $ Sizing
 "CAssFlo_M_MechElec_CZn" = 144.95   $ Sizing
 "CAssFlo_M_OfficeOpn_CZn" = 2038.922   $ Sizing
 "CAssFlo_M_OfficeOpn_EZn" = 2519.289   $ Sizing
 "CAssFlo_M_OfficeOpn_NZn" = 1017.551   $ Sizing
 "CAssFlo_M_OfficeOpn_SZn" = 2761.123   $ Sizing
 "CAssFlo_M_OfficeOpn_WZn" = 2421.539   $ Sizing
 "CAssFlo_M_OfficeSm_CZn" = 281.948   $ Sizing
 "CAssFlo_M_OfficeSm_EZn" = 1838.309   $ Sizing
 "CAssFlo_M_OfficeSm_NZn" = 771.8578   $ Sizing
 "CAssFlo_M_OfficeSm_SZn" = 2058.372   $ Sizing
 "CAssFlo_M_OfficeSm_WZn" = 1795.978   $ Sizing
 "CAssFlo_M_Restrm_CZn" = 211.8611   $ Sizing
 "CAssFlo_M_StorSm_CZn" = 380.2653   $ Sizing
 "CAssFlo_T_Break_CZn" = 376.065   $ Sizing
 "CAssFlo_T_Conf_CZn" = 459.7453   $ Sizing
 "CAssFlo_T_CopyRm_CZn" = 132.1902   $ Sizing
 "CAssFlo_T_Cordr_CZn" = 703.8634   $ Sizing
 "CAssFlo_T_Cordr_EZn" = 306.2438   $ Sizing
 "CAssFlo_T_Cordr_NZn" = 196.1602   $ Sizing
 "CAssFlo_T_Cordr_SZn" = 342.269   $ Sizing
 "CAssFlo_T_Cordr_WZn" = 288.1864   $ Sizing
 "CAssFlo_T_LobWait_CZn" = 427.1886   $ Sizing
 "CAssFlo_T_MechElec_CZn" = 151.6395   $ Sizing
 "CAssFlo_T_OfficeOpn_CZn" = 1881.46   $ Sizing
 "CAssFlo_T_OfficeOpn_EZn" = 2299.931   $ Sizing
 "CAssFlo_T_OfficeOpn_NZn" = 948.0568   $ Sizing
 "CAssFlo_T_OfficeOpn_SZn" = 2553.232   $ Sizing
 "CAssFlo_T_OfficeOpn_WZn" = 2214.039   $ Sizing
 "CAssFlo_T_OfficeSm_CZn" = 264.3855   $ Sizing
 "CAssFlo_T_OfficeSm_EZn" = 1726.66   $ Sizing
 "CAssFlo_T_OfficeSm_NZn" = 705.5974   $ Sizing
 "CAssFlo_T_OfficeSm_SZn" = 1951.968   $ Sizing
 "CAssFlo_T_OfficeSm_WZn" = 1682.268   $ Sizing
 "CAssFlo_T_Restrm_CZn" = 211.8611   $ Sizing
 "CAssFlo_T_StorSm_CZn" = 334.0894   $ Sizing
 "CHRtFlo_Sys_L_Break_C" = 365.9432   $ Sizing
 "CHRtFlo_Sys_L_Conf_C" = 433.643   $ Sizing
 "CHRtFlo_Sys_L_CopyRm_C" = 112.5295   $ Sizing
 "CHRtFlo_Sys_L_Cordr_C" = 565.4378   $ Sizing
 "CHRtFlo_Sys_L_Cordr_E" = 290.0196   $ Sizing
 "CHRtFlo_Sys_L_Cordr_N" = 196.0521   $ Sizing
 "CHRtFlo_Sys_L_Cordr_S" = 318.4575   $ Sizing
 "CHRtFlo_Sys_L_Cordr_W" = 282.0572   $ Sizing
 "CHRtFlo_Sys_L_LobWait_C" = 359.1593   $ Sizing
 "CHRtFlo_Sys_L_MechElec_C" = 134.1697   $ Sizing
 "CHRtFlo_Sys_L_OfficeOpn_C" = 1754.525   $ Sizing
 "CHRtFlo_Sys_L_OfficeOpn_E" = 2340.699   $ Sizing
 "CHRtFlo_Sys_L_OfficeOpn_N" = 873.7319   $ Sizing
 "CHRtFlo_Sys_L_OfficeOpn_S" = 2474.324   $ Sizing
 "CHRtFlo_Sys_L_OfficeOpn_W" = 2260.59   $ Sizing
 "CHRtFlo_Sys_L_OfficeSm_C" = 221.9738   $ Sizing
 "CHRtFlo_Sys_L_OfficeSm_E" = 1716.975   $ Sizing
 "CHRtFlo_Sys_L_OfficeSm_N" = 689.4456   $ Sizing
 "CHRtFlo_Sys_L_OfficeSm_S" = 1857.226   $ Sizing
 "CHRtFlo_Sys_L_OfficeSm_W" = 1685.378   $ Sizing
 "CHRtFlo_Sys_L_Restrm_C" = 211.8611   $ Sizing
 "CHRtFlo_Sys_L_StorSm_C" = 348.7495   $ Sizing
 "CHRtFlo_Sys_M_Break_C" = 3177.993   $ Sizing
 "CHRtFlo_Sys_M_Conf_C" = 3863.261   $ Sizing
 "CHRtFlo_Sys_M_CopyRm_C" = 1117.072   $ Sizing
 "CHRtFlo_Sys_M_Cordr_C" = 6419.392   $ Sizing
 "CHRtFlo_Sys_M_Cordr_E" = 2773.51   $ Sizing
 "CHRtFlo_Sys_M_Cordr_N" = 1752.156   $ Sizing
 "CHRtFlo_Sys_M_Cordr_S" = 3041.055   $ Sizing
 "CHRtFlo_Sys_M_Cordr_W" = 2585.137   $ Sizing
 "CHRtFlo_Sys_M_LobWait_C" = 3714.05   $ Sizing
 "CHRtFlo_Sys_M_MechElec_C" = 1159.6   $ Sizing
 "CHRtFlo_Sys_M_OfficeOpn_C" = 16311.37   $ Sizing
 "CHRtFlo_Sys_M_OfficeOpn_E" = 20154.31   $ Sizing
 "CHRtFlo_Sys_M_OfficeOpn_N" = 8140.412   $ Sizing
 "CHRtFlo_Sys_M_OfficeOpn_S" = 22088.98   $ Sizing
 "CHRtFlo_Sys_M_OfficeOpn_W" = 19372.31   $ Sizing
 "CHRtFlo_Sys_M_OfficeSm_C" = 2255.584   $ Sizing
 "CHRtFlo_Sys_M_OfficeSm_E" = 14706.47   $ Sizing
 "CHRtFlo_Sys_M_OfficeSm_N" = 6174.863   $ Sizing
 "CHRtFlo_Sys_M_OfficeSm_S" = 16466.98   $ Sizing
 "CHRtFlo_Sys_M_OfficeSm_W" = 14367.82   $ Sizing
 "CHRtFlo_Sys_M_Restrm_C" = 1694.889   $ Sizing
 "CHRtFlo_Sys_M_StorSm_C" = 3042.122   $ Sizing
 "CHRtFlo_Sys_T_Break_C" = 376.065   $ Sizing
 "CHRtFlo_Sys_T_Conf_C" = 459.7453   $ Sizing
 "CHRtFlo_Sys_T_CopyRm_C" = 132.1902   $ Sizing
 "CHRtFlo_Sys_T_Cordr_C" = 703.8634   $ Sizing
 "CHRtFlo_Sys_T_Cordr_E" = 306.2438   $ Sizing
 "CHRtFlo_Sys_T_Cordr_N" = 196.1602   $ Sizing
 "CHRtFlo_Sys_T_Cordr_S" = 342.269   $ Sizing
 "CHRtFlo_Sys_T_Cordr_W" = 288.1864   $ Sizing
 "CHRtFlo_Sys_T_LobWait_C" = 427.1886   $ Sizing
 "CHRtFlo_Sys_T_MechElec_C" = 151.6395   $ Sizing
 "CHRtFlo_Sys_T_OfficeOpn_C" = 1881.46   $ Sizing
 "CHRtFlo_Sys_T_OfficeOpn_E" = 2299.931   $ Sizing
 "CHRtFlo_Sys_T_OfficeOpn_N" = 948.0568   $ Sizing
 "CHRtFlo_Sys_T_OfficeOpn_S" = 2553.232   $ Sizing
 "CHRtFlo_Sys_T_OfficeOpn_W" = 2214.039   $ Sizing
 "CHRtFlo_Sys_T_OfficeSm_C" = 264.3855   $ Sizing
 "CHRtFlo_Sys_T_OfficeSm_E" = 1726.66   $ Sizing
 "CHRtFlo_Sys_T_OfficeSm_N" = 705.5974   $ Sizing
 "CHRtFlo_Sys_T_OfficeSm_S" = 1951.968   $ Sizing
 "CHRtFlo_Sys_T_OfficeSm_W" = 1682.268   $ Sizing
 "CHRtFlo_Sys_T_Restrm_C" = 211.8611   $ Sizing
 "CHRtFlo_Sys_T_StorSm_C" = 334.0894   $ Sizing
 "CRtdFlo_Sys_L_Break_C" = 365.9432   $ Sizing
 "CRtdFlo_Sys_L_Conf_C" = 433.643   $ Sizing
 "CRtdFlo_Sys_L_CopyRm_C" = 112.5295   $ Sizing
 "CRtdFlo_Sys_L_Cordr_C" = 565.4379   $ Sizing
 "CRtdFlo_Sys_L_Cordr_E" = 290.0196   $ Sizing
 "CRtdFlo_Sys_L_Cordr_N" = 196.0521   $ Sizing
 "CRtdFlo_Sys_L_Cordr_S" = 318.4575   $ Sizing
 "CRtdFlo_Sys_L_Cordr_W" = 282.0572   $ Sizing
 "CRtdFlo_Sys_L_LobWait_C" = 359.1593   $ Sizing
 "CRtdFlo_Sys_L_MechElec_C" = 134.1697   $ Sizing
 "CRtdFlo_Sys_L_OfficeOpn_C" = 1754.525   $ Sizing
 "CRtdFlo_Sys_L_OfficeOpn_E" = 2340.699   $ Sizing
 "CRtdFlo_Sys_L_OfficeOpn_N" = 873.7319   $ Sizing
 "CRtdFlo_Sys_L_OfficeOpn_S" = 2474.324   $ Sizing
 "CRtdFlo_Sys_L_OfficeOpn_W" = 2260.59   $ Sizing
 "CRtdFlo_Sys_L_OfficeSm_C" = 221.9738   $ Sizing
 "CRtdFlo_Sys_L_OfficeSm_E" = 1716.975   $ Sizing
 "CRtdFlo_Sys_L_OfficeSm_N" = 689.4456   $ Sizing
 "CRtdFlo_Sys_L_OfficeSm_S" = 1857.226   $ Sizing
 "CRtdFlo_Sys_L_OfficeSm_W" = 1685.378   $ Sizing
 "CRtdFlo_Sys_L_Restrm_C" = 211.8611   $ Sizing
 "CRtdFlo_Sys_L_StorSm_C" = 348.7495   $ Sizing
 "CRtdFlo_Sys_M_Break_C" = 3177.993   $ Sizing
 "CRtdFlo_Sys_M_Conf_C" = 3863.261   $ Sizing
 "CRtdFlo_Sys_M_CopyRm_C" = 1117.072   $ Sizing
 "CRtdFlo_Sys_M_Cordr_C" = 6419.392   $ Sizing
 "CRtdFlo_Sys_M_Cordr_E" = 2773.51   $ Sizing
 "CRtdFlo_Sys_M_Cordr_N" = 1752.156   $ Sizing
 "CRtdFlo_Sys_M_Cordr_S" = 3041.055   $ Sizing
 "CRtdFlo_Sys_M_Cordr_W" = 2585.137   $ Sizing
 "CRtdFlo_Sys_M_LobWait_C" = 3714.05   $ Sizing
 "CRtdFlo_Sys_M_MechElec_C" = 1159.6   $ Sizing
 "CRtdFlo_Sys_M_OfficeOpn_C" = 16311.37   $ Sizing
 "CRtdFlo_Sys_M_OfficeOpn_E" = 20154.31   $ Sizing
 "CRtdFlo_Sys_M_OfficeOpn_N" = 8140.412   $ Sizing
 "CRtdFlo_Sys_M_OfficeOpn_S" = 22088.98   $ Sizing
 "CRtdFlo_Sys_M_OfficeOpn_W" = 19372.31   $ Sizing
 "CRtdFlo_Sys_M_OfficeSm_C" = 2255.584   $ Sizing
 "CRtdFlo_Sys_M_OfficeSm_E" = 14706.47   $ Sizing
 "CRtdFlo_Sys_M_OfficeSm_N" = 6174.863   $ Sizing
 "CRtdFlo_Sys_M_OfficeSm_S" = 16466.98   $ Sizing
 "CRtdFlo_Sys_M_OfficeSm_W" = 14367.82   $ Sizing
 "CRtdFlo_Sys_M_Restrm_C" = 1694.889   $ Sizing
 "CRtdFlo_Sys_M_StorSm_C" = 3042.122   $ Sizing
 "CRtdFlo_Sys_T_Break_C" = 376.065   $ Sizing
 "CRtdFlo_Sys_T_Conf_C" = 459.7453   $ Sizing
 "CRtdFlo_Sys_T_CopyRm_C" = 132.1902   $ Sizing
 "CRtdFlo_Sys_T_Cordr_C" = 703.8634   $ Sizing
 "CRtdFlo_Sys_T_Cordr_E" = 306.2438   $ Sizing
 "CRtdFlo_Sys_T_Cordr_N" = 196.1602   $ Sizing
 "CRtdFlo_Sys_T_Cordr_S" = 342.269   $ Sizing
 "CRtdFlo_Sys_T_Cordr_W" = 288.1864   $ Sizing
 "CRtdFlo_Sys_T_LobWait_C" = 427.1886   $ Sizing
 "CRtdFlo_Sys_T_MechElec_C" = 151.6395   $ Sizing
 "CRtdFlo_Sys_T_OfficeOpn_C" = 1881.46   $ Sizing
 "CRtdFlo_Sys_T_OfficeOpn_E" = 2299.931   $ Sizing
 "CRtdFlo_Sys_T_OfficeOpn_N" = 948.0568   $ Sizing
 "CRtdFlo_Sys_T_OfficeOpn_S" = 2553.232   $ Sizing
 "CRtdFlo_Sys_T_OfficeOpn_W" = 2214.039   $ Sizing
 "CRtdFlo_Sys_T_OfficeSm_C" = 264.3855   $ Sizing
 "CRtdFlo_Sys_T_OfficeSm_E" = 1726.66   $ Sizing
 "CRtdFlo_Sys_T_OfficeSm_N" = 705.5974   $ Sizing
 "CRtdFlo_Sys_T_OfficeSm_S" = 1951.968   $ Sizing
 "CRtdFlo_Sys_T_OfficeSm_W" = 1682.268   $ Sizing
 "CRtdFlo_Sys_T_Restrm_C" = 211.8611   $ Sizing
 "CRtdFlo_Sys_T_StorSm_C" = 334.0894   $ Sizing
 "CSupFlo_Sys_L_Break_C" = 365.9432   $ Sizing
 "CSupFlo_Sys_L_Conf_C" = 433.643   $ Sizing
 "CSupFlo_Sys_L_CopyRm_C" = 112.5295   $ Sizing
 "CSupFlo_Sys_L_Cordr_C" = 565.4379   $ Sizing
 "CSupFlo_Sys_L_Cordr_E" = 290.0196   $ Sizing
 "CSupFlo_Sys_L_Cordr_N" = 196.0521   $ Sizing
 "CSupFlo_Sys_L_Cordr_S" = 318.4575   $ Sizing
 "CSupFlo_Sys_L_Cordr_W" = 282.0572   $ Sizing
 "CSupFlo_Sys_L_LobWait_C" = 359.1593   $ Sizing
 "CSupFlo_Sys_L_MechElec_C" = 134.1697   $ Sizing
 "CSupFlo_Sys_L_OfficeOpn_C" = 1754.525   $ Sizing
 "CSupFlo_Sys_L_OfficeOpn_E" = 2340.699   $ Sizing
 "CSupFlo_Sys_L_OfficeOpn_N" = 873.7319   $ Sizing
 "CSupFlo_Sys_L_OfficeOpn_S" = 2474.324   $ Sizing
 "CSupFlo_Sys_L_OfficeOpn_W" = 2260.59   $ Sizing
 "CSupFlo_Sys_L_OfficeSm_C" = 221.9738   $ Sizing
 "CSupFlo_Sys_L_OfficeSm_E" = 1716.975   $ Sizing
 "CSupFlo_Sys_L_OfficeSm_N" = 689.4456   $ Sizing
 "CSupFlo_Sys_L_OfficeSm_S" = 1857.226   $ Sizing
 "CSupFlo_Sys_L_OfficeSm_W" = 1685.378   $ Sizing
 "CSupFlo_Sys_L_Restrm_C" = 211.8611   $ Sizing
 "CSupFlo_Sys_L_StorSm_C" = 348.7495   $ Sizing
 "CSupFlo_Sys_M_Break_C" = 3177.993   $ Sizing
 "CSupFlo_Sys_M_Conf_C" = 3863.261   $ Sizing
 "CSupFlo_Sys_M_CopyRm_C" = 1117.072   $ Sizing
 "CSupFlo_Sys_M_Cordr_C" = 6419.392   $ Sizing
 "CSupFlo_Sys_M_Cordr_E" = 2773.51   $ Sizing
 "CSupFlo_Sys_M_Cordr_N" = 1752.156   $ Sizing
 "CSupFlo_Sys_M_Cordr_S" = 3041.055   $ Sizing
 "CSupFlo_Sys_M_Cordr_W" = 2585.137   $ Sizing
 "CSupFlo_Sys_M_LobWait_C" = 3714.05   $ Sizing
 "CSupFlo_Sys_M_MechElec_C" = 1159.6   $ Sizing
 "CSupFlo_Sys_M_OfficeOpn_C" = 16311.37   $ Sizing
 "CSupFlo_Sys_M_OfficeOpn_E" = 20154.31   $ Sizing
 "CSupFlo_Sys_M_OfficeOpn_N" = 8140.412   $ Sizing
 "CSupFlo_Sys_M_OfficeOpn_S" = 22088.98   $ Sizing
 "CSupFlo_Sys_M_OfficeOpn_W" = 19372.31   $ Sizing
 "CSupFlo_Sys_M_OfficeSm_C" = 2255.584   $ Sizing
 "CSupFlo_Sys_M_OfficeSm_E" = 14706.47   $ Sizing
 "CSupFlo_Sys_M_OfficeSm_N" = 6174.863   $ Sizing
 "CSupFlo_Sys_M_OfficeSm_S" = 16466.98   $ Sizing
 "CSupFlo_Sys_M_OfficeSm_W" = 14367.82   $ Sizing
 "CSupFlo_Sys_M_Restrm_C" = 1694.889   $ Sizing
 "CSupFlo_Sys_M_StorSm_C" = 3042.122   $ Sizing
 "CSupFlo_Sys_T_Break_C" = 376.065   $ Sizing
 "CSupFlo_Sys_T_Conf_C" = 459.7453   $ Sizing
 "CSupFlo_Sys_T_CopyRm_C" = 132.1902   $ Sizing
 "CSupFlo_Sys_T_Cordr_C" = 703.8634   $ Sizing
 "CSupFlo_Sys_T_Cordr_E" = 306.2438   $ Sizing
 "CSupFlo_Sys_T_Cordr_N" = 196.1602   $ Sizing
 "CSupFlo_Sys_T_Cordr_S" = 342.269   $ Sizing
 "CSupFlo_Sys_T_Cordr_W" = 288.1864   $ Sizing
 "CSupFlo_Sys_T_LobWait_C" = 427.1886   $ Sizing
 "CSupFlo_Sys_T_MechElec_C" = 151.6395   $ Sizing
 "CSupFlo_Sys_T_OfficeOpn_C" = 1881.46   $ Sizing
 "CSupFlo_Sys_T_OfficeOpn_E" = 2299.931   $ Sizing
 "CSupFlo_Sys_T_OfficeOpn_N" = 948.0568   $ Sizing
 "CSupFlo_Sys_T_OfficeOpn_S" = 2553.232   $ Sizing
 "CSupFlo_Sys_T_OfficeOpn_W" = 2214.039   $ Sizing
 "CSupFlo_Sys_T_OfficeSm_C" = 264.3855   $ Sizing
 "CSupFlo_Sys_T_OfficeSm_E" = 1726.66   $ Sizing
 "CSupFlo_Sys_T_OfficeSm_N" = 705.5974   $ Sizing
 "CSupFlo_Sys_T_OfficeSm_S" = 1951.968   $ Sizing
 "CSupFlo_Sys_T_OfficeSm_W" = 1682.268   $ Sizing
 "CSupFlo_Sys_T_Restrm_C" = 211.8611   $ Sizing
 "CSupFlo_Sys_T_StorSm_C" = 334.0894   $ Sizing
 "Cap_Boiler1" = -0.8601853   $ Sizing
 "Cap_Boiler2" = -0.8601853   $ Sizing
 "ClCap_Sys_L_Break_C" = 12452.83   $ Sizing
 "ClCap_Sys_L_Conf_C" = 18781.14   $ Sizing
 "ClCap_Sys_L_CopyRm_C" = 3829.31   $ Sizing
 "ClCap_Sys_L_Cordr_C" = 19241.51   $ Sizing
 "ClCap_Sys_L_Cordr_E" = 9869.193   $ Sizing
 "ClCap_Sys_L_Cordr_N" = 6671.535   $ Sizing
 "ClCap_Sys_L_Cordr_S" = 10836.92   $ Sizing
 "ClCap_Sys_L_Cordr_W" = 9598.236   $ Sizing
 "ClCap_Sys_L_LobWait_C" = 12221.98   $ Sizing
 "ClCap_Sys_L_MechElec_C" = 4565.713   $ Sizing
 "ClCap_Sys_L_OfficeOpn_C" = 59705.43   $ Sizing
 "ClCap_Sys_L_OfficeOpn_E" = 79652.58   $ Sizing
 "ClCap_Sys_L_OfficeOpn_N" = 29732.57   $ Sizing
 "ClCap_Sys_L_OfficeOpn_S" = 84199.77   $ Sizing
 "ClCap_Sys_L_OfficeOpn_W" = 76926.51   $ Sizing
 "ClCap_Sys_L_OfficeSm_C" = 7553.636   $ Sizing
 "ClCap_Sys_L_OfficeSm_E" = 58427.64   $ Sizing
 "ClCap_Sys_L_OfficeSm_N" = 23461.42   $ Sizing
 "ClCap_Sys_L_OfficeSm_S" = 63200.3   $ Sizing
 "ClCap_Sys_L_OfficeSm_W" = 57352.41   $ Sizing
 "ClCap_Sys_L_Restrm_C" = 7209.506   $ Sizing
 "ClCap_Sys_L_StorSm_C" = 11867.74   $ Sizing
 "ClCap_Sys_M_Break_C" = 108145.2   $ Sizing
 "ClCap_Sys_M_Conf_C" = 167318.4   $ Sizing
 "ClCap_Sys_M_CopyRm_C" = 38013.3   $ Sizing
 "ClCap_Sys_M_Cordr_C" = 218448.1   $ Sizing
 "ClCap_Sys_M_Cordr_E" = 94380.88   $ Sizing
 "ClCap_Sys_M_Cordr_N" = 59624.83   $ Sizing
 "ClCap_Sys_M_Cordr_S" = 103485.3   $ Sizing
 "ClCap_Sys_M_Cordr_W" = 87970.66   $ Sizing
 "ClCap_Sys_M_LobWait_C" = 126386.9   $ Sizing
 "ClCap_Sys_M_MechElec_C" = 39460.48   $ Sizing
 "ClCap_Sys_M_OfficeOpn_C" = 555066.3   $ Sizing
 "ClCap_Sys_M_OfficeOpn_E" = 685839.1   $ Sizing
 "ClCap_Sys_M_OfficeOpn_N" = 277013.3   $ Sizing
 "ClCap_Sys_M_OfficeOpn_S" = 751674.9   $ Sizing
 "ClCap_Sys_M_OfficeOpn_W" = 659228.3   $ Sizing
 "ClCap_Sys_M_OfficeSm_C" = 76756.18   $ Sizing
 "ClCap_Sys_M_OfficeSm_E" = 500452.4   $ Sizing
 "ClCap_Sys_M_OfficeSm_N" = 210126.9   $ Sizing
 "ClCap_Sys_M_OfficeSm_S" = 560361.4   $ Sizing
 "ClCap_Sys_M_OfficeSm_W" = 488928.5   $ Sizing
 "ClCap_Sys_M_Restrm_C" = 57676.05   $ Sizing
 "ClCap_Sys_M_StorSm_C" = 103521.6   $ Sizing
 "ClCap_Sys_T_Break_C" = 12797.27   $ Sizing
 "ClCap_Sys_T_Conf_C" = 19911.64   $ Sizing
 "ClCap_Sys_T_CopyRm_C" = 4498.354   $ Sizing
 "ClCap_Sys_T_Cordr_C" = 23952.05   $ Sizing
 "ClCap_Sys_T_Cordr_E" = 10421.29   $ Sizing
 "ClCap_Sys_T_Cordr_N" = 6675.216   $ Sizing
 "ClCap_Sys_T_Cordr_S" = 11647.21   $ Sizing
 "ClCap_Sys_T_Cordr_W" = 9806.81   $ Sizing
 "ClCap_Sys_T_LobWait_C" = 14536.97   $ Sizing
 "ClCap_Sys_T_MechElec_C" = 5160.2   $ Sizing
 "ClCap_Sys_T_OfficeOpn_C" = 64024.96   $ Sizing
 "ClCap_Sys_T_OfficeOpn_E" = 78265.28   $ Sizing
 "ClCap_Sys_T_OfficeOpn_N" = 32261.8   $ Sizing
 "ClCap_Sys_T_OfficeOpn_S" = 86884.95   $ Sizing
 "ClCap_Sys_T_OfficeOpn_W" = 75342.41   $ Sizing
 "ClCap_Sys_T_OfficeSm_C" = 8996.879   $ Sizing
 "ClCap_Sys_T_OfficeSm_E" = 58757.22   $ Sizing
 "ClCap_Sys_T_OfficeSm_N" = 24011.05   $ Sizing
 "ClCap_Sys_T_OfficeSm_S" = 66424.31   $ Sizing
 "ClCap_Sys_T_OfficeSm_W" = 57246.56   $ Sizing
 "ClCap_Sys_T_Restrm_C" = 7209.506   $ Sizing
 "ClCap_Sys_T_StorSm_C" = 11368.86   $ Sizing
 "HtCap_Sys_L_Break_C" = -10958.49   $ Sizing
 "HtCap_Sys_L_Conf_C" = -16527.41   $ Sizing
 "HtCap_Sys_L_CopyRm_C" = -3369.793   $ Sizing
 "HtCap_Sys_L_Cordr_C" = -16932.53   $ Sizing
 "HtCap_Sys_L_Cordr_E" = -8684.89   $ Sizing
 "HtCap_Sys_L_Cordr_N" = -5870.951   $ Sizing
 "HtCap_Sys_L_Cordr_S" = -9536.488   $ Sizing
 "HtCap_Sys_L_Cordr_W" = -8446.448   $ Sizing
 "HtCap_Sys_L_LobWait_C" = -10755.34   $ Sizing
 "HtCap_Sys_L_MechElec_C" = -4017.828   $ Sizing
 "HtCap_Sys_L_OfficeOpn_C" = -52540.78   $ Sizing
 "HtCap_Sys_L_OfficeOpn_E" = -70094.27   $ Sizing
 "HtCap_Sys_L_OfficeOpn_N" = -26164.66   $ Sizing
 "HtCap_Sys_L_OfficeOpn_S" = -74095.8   $ Sizing
 "HtCap_Sys_L_OfficeOpn_W" = -67695.33   $ Sizing
 "HtCap_Sys_L_OfficeSm_C" = -6647.2   $ Sizing
 "HtCap_Sys_L_OfficeSm_E" = -51416.33   $ Sizing
 "HtCap_Sys_L_OfficeSm_N" = -20646.05   $ Sizing
 "HtCap_Sys_L_OfficeSm_S" = -55616.26   $ Sizing
 "HtCap_Sys_L_OfficeSm_W" = -50470.13   $ Sizing
 "HtCap_Sys_L_Restrm_C" = -6344.366   $ Sizing
 "HtCap_Sys_L_StorSm_C" = -10443.61   $ Sizing
 "HtCap_Sys_M_Break_C" = -95167.78   $ Sizing
 "HtCap_Sys_M_Conf_C" = -147240.2   $ Sizing
 "HtCap_Sys_M_CopyRm_C" = -33451.71   $ Sizing
 "HtCap_Sys_M_Cordr_C" = -192234.3   $ Sizing
 "HtCap_Sys_M_Cordr_E" = -83055.18   $ Sizing
 "HtCap_Sys_M_Cordr_N" = -52469.85   $ Sizing
 "HtCap_Sys_M_Cordr_S" = -91067.04   $ Sizing
 "HtCap_Sys_M_Cordr_W" = -77414.19   $ Sizing
 "HtCap_Sys_M_LobWait_C" = -111220.5   $ Sizing
 "HtCap_Sys_M_MechElec_C" = -34725.23   $ Sizing
 "HtCap_Sys_M_OfficeOpn_C" = -488458.3   $ Sizing
 "HtCap_Sys_M_OfficeOpn_E" = -603538.4   $ Sizing
 "HtCap_Sys_M_OfficeOpn_N" = -243771.7   $ Sizing
 "HtCap_Sys_M_OfficeOpn_S" = -661473.9   $ Sizing
 "HtCap_Sys_M_OfficeOpn_W" = -580120.9   $ Sizing
 "HtCap_Sys_M_OfficeSm_C" = -67545.44   $ Sizing
 "HtCap_Sys_M_OfficeSm_E" = -440398.2   $ Sizing
 "HtCap_Sys_M_OfficeSm_N" = -184911.7   $ Sizing
 "HtCap_Sys_M_OfficeSm_S" = -493118.1   $ Sizing
 "HtCap_Sys_M_OfficeSm_W" = -430257.1   $ Sizing
 "HtCap_Sys_M_Restrm_C" = -50754.93   $ Sizing
 "HtCap_Sys_M_StorSm_C" = -91099.01   $ Sizing
 "HtCap_Sys_T_Break_C" = -11261.59   $ Sizing
 "HtCap_Sys_T_Conf_C" = -17522.24   $ Sizing
 "HtCap_Sys_T_CopyRm_C" = -3958.551   $ Sizing
 "HtCap_Sys_T_Cordr_C" = -21077.8   $ Sizing
 "HtCap_Sys_T_Cordr_E" = -9170.737   $ Sizing
 "HtCap_Sys_T_Cordr_N" = -5874.19   $ Sizing
 "HtCap_Sys_T_Cordr_S" = -10249.54   $ Sizing
 "HtCap_Sys_T_Cordr_W" = -8629.992   $ Sizing
 "HtCap_Sys_T_LobWait_C" = -12792.54   $ Sizing
 "HtCap_Sys_T_MechElec_C" = -4540.976   $ Sizing
 "HtCap_Sys_T_OfficeOpn_C" = -56341.96   $ Sizing
 "HtCap_Sys_T_OfficeOpn_E" = -68873.45   $ Sizing
 "HtCap_Sys_T_OfficeOpn_N" = -28390.39   $ Sizing
 "HtCap_Sys_T_OfficeOpn_S" = -76458.75   $ Sizing
 "HtCap_Sys_T_OfficeOpn_W" = -66301.32   $ Sizing
 "HtCap_Sys_T_OfficeSm_C" = -7917.253   $ Sizing
 "HtCap_Sys_T_OfficeSm_E" = -51706.35   $ Sizing
 "HtCap_Sys_T_OfficeSm_N" = -21129.73   $ Sizing
 "HtCap_Sys_T_OfficeSm_S" = -58453.39   $ Sizing
 "HtCap_Sys_T_OfficeSm_W" = -50376.98   $ Sizing
 "HtCap_Sys_T_Restrm_C" = -6344.366   $ Sizing
 "HtCap_Sys_T_StorSm_C" = -10004.6   $ Sizing
 "LpFlo_WLHPCircLoop" = 1805.897   $ Sizing
 "SUtime_Boiler1" = 0.08299999   $ Sizing
 "SUtime_Boiler2" = 0.08299999   $ Sizing
..

##include Templates\OfL_WLHP.inp
END ..
COMPUTE ..
STOP ..
