INPUT ..

##fileprefix C:\Users\jglasskatz\MASControl3\
##set1 IsSizing FALSE
##set1 CoolType WCH
##set1 HeatType ELECTRIC
##set1 EU_HrRepVar 1
##set1 BldgVint 2011
##set1 BldgLoc CZ01

 ##set1 mChlrCap_fT DEFAULT   $ IP Tech: ChlrScrW-150to299-0.718kWpTon
 ##set1 mChlrEIR_fPLR DEFAULT   $ IP Tech: ChlrScrW-150to299-0.718kWpTon
 ##set1 mChlrEIR_fT DEFAULT   $ IP Tech: ChlrScrW-150to299-0.718kWpTon
 ##set1 mChlrType Screw   $ IP Tech: ChlrScrW-150to299-0.718kWpTon
 ##set1 mCondType Water   $ IP Tech: ChlrScrW-150to299-0.718kWpTon
 ##set1 mSetupLdChlr FALSE   $ IP Tech: ChlrScrW-150to299-0.718kWpTon
 ##set1 mCHW_FlowCtrl VarSec   $ IP Tech: ChwFlowCtrlVarSec

PARAMETER
 "AltFactor" = 1.00753   $ IP Non-Tech
 "BldgEconoFlag" = 1   $ IP Non-Tech
 "BlrPrimLp" = BlrPrimLoop   $ IP Non-Tech
 "Break_EWSF" = 1   $ IP Non-Tech
 "Break_LWSF" = 1.1   $ IP Non-Tech
 "CDD_DBHi10" = 65   $ IP Non-Tech
 "CDD_DBHi7" = 68   $ IP Non-Tech
 "CDD_DBHi8" = 66   $ IP Non-Tech
 "CDD_DBHi9" = 77   $ IP Non-Tech
 "CDD_DBRange10" = 17   $ IP Non-Tech
 "CDD_DBRange7" = 11   $ IP Non-Tech
 "CDD_DBRange8" = 10   $ IP Non-Tech
 "CDD_DBRange9" = 29   $ IP Non-Tech
 "CDD_Day10" = 15   $ IP Non-Tech
 "CDD_Day7" = 16   $ IP Non-Tech
 "CDD_Day8" = 20   $ IP Non-Tech
 "CDD_Day9" = 17   $ IP Non-Tech
 "CDD_HrHi10" = 12   $ IP Non-Tech
 "CDD_HrHi7" = 12   $ IP Non-Tech
 "CDD_HrHi8" = 13   $ IP Non-Tech
 "CDD_HrHi9" = 17   $ IP Non-Tech
 "CDD_HrLo10" = 6   $ IP Non-Tech
 "CDD_HrLo7" = 3   $ IP Non-Tech
 "CDD_HrLo8" = 8   $ IP Non-Tech
 "CDD_HrLo9" = 4   $ IP Non-Tech
 "CDD_WB10" = 57.53039551   $ IP Non-Tech
 "CDD_WB7" = 59.29250717   $ IP Non-Tech
 "CDD_WB8" = 60.75350189   $ IP Non-Tech
 "CDD_WB9" = 61.08643341   $ IP Non-Tech
 "CZ_Category" = Tem   $ IP Non-Tech
 "ChwDesignDT" = 12   $ IP Non-Tech
 "ChwPipeHead" = 62   $ IP Non-Tech
 "ChwRetDT" = 0.03   $ IP Non-Tech
 "ChwSupDT" = 0.05   $ IP Non-Tech
 "ChwT" = 44   $ IP Non-Tech
 "ChwVintEconoFlag" = 1   $ IP Non-Tech
 "Conference_EWSF" = 1   $ IP Non-Tech
 "Conference_LWSF" = 1.4   $ IP Non-Tech
 "CoolSetT" = 55   $ IP Non-Tech
 "CoolType" = WCH   $ IP Non-Tech
 "CopyRoom_EWSF" = 1.5   $ IP Non-Tech
 "CopyRoom_LWSF" = 1.3   $ IP Non-Tech
 "CorridorStairway_EWSF" = 0.2   $ IP Non-Tech
 "CorridorStairway_LWSF" = 0.6   $ IP Non-Tech
 "CwPipeHead" = 20   $ IP Non-Tech
 "DesCoolT" = 75   $ IP Non-Tech
 "DesHeatT" = 73   $ IP Non-Tech
 "EconoEnthLimit" = 28   $ IP Non-Tech
 "EconoTempLimit" = 70   $ IP Non-Tech
 "Elevation" = 203   $ IP Non-Tech
 "HDD_CloudAmt1" = 0   $ IP Non-Tech
 "HDD_DBHi1" = 53   $ IP Non-Tech
 "HDD_DBRange1" = 20   $ IP Non-Tech
 "HDD_Day1" = 15   $ IP Non-Tech
 "HDD_HrHi1" = 14   $ IP Non-Tech
 "HDD_HrLo1" = 6   $ IP Non-Tech
 "HDD_WB1" = 42.3   $ IP Non-Tech
 "HDD_WindSpd1" = 12.7   $ IP Non-Tech
 "HeatSrc" = ELECTRIC   $ IP Non-Tech
 "HeatSrcTU" = ELECTRIC   $ IP Non-Tech
 "HeatType" = Elec   $ IP Non-Tech
 "HeatTypeTU" = ELECTRIC   $ IP Non-Tech
 "HwDesignDT" = 30   $ IP Non-Tech
 "HwPipeHead" = 40   $ IP Non-Tech
 "IndoorFanMode" = CONTINUOUS   $ IP Non-Tech
 "KT_TransferAir" = No   $ IP Non-Tech
 "Latitude" = 40.8   $ IP Non-Tech
 "LobbyWaiting_EWSF" = 0.5   $ IP Non-Tech
 "LobbyWaiting_LWSF" = 1.3   $ IP Non-Tech
 "Longitude" = 124.2   $ IP Non-Tech
 "LtgMsrApplic" = ALL   $ Msr TechID: NonResLtgRefMsr-EX
 "LtgSav_CFL" = 0   $ Msr TechID: NonResLtgRefMsr-EX
 "LtgSav_EX" = 0.3   $ Msr TechID: NonResLtgRefMsr-EX
 "LtgSav_HB" = 0   $ Msr TechID: NonResLtgRefMsr-EX
 "LtgSav_LF" = 0   $ Msr TechID: NonResLtgRefMsr-EX
 "LtgSav_SP" = 0   $ Msr TechID: NonResLtgRefMsr-EX
 "MZFanMechEff" = 0.68   $ IP Non-Tech
 "MZHasRetFan" = TRUE   $ IP Non-Tech
 "MZ_RFanWPerCfm" = 0.37   $ IP Non-Tech
 "MZ_SFanWPerCfm" = 0.71   $ IP Non-Tech
 "MaxSupT_MZ" = 95   $ IP Non-Tech
 "MaxSupT_SZ" = 105   $ IP Non-Tech
 "MaxSupT_TU" = 105   $ IP Non-Tech
 "MechElecRoom_EWSF" = 0.2   $ IP Non-Tech
 "MechElecRoom_LWSF" = 0.7   $ IP Non-Tech
 "MinCfmPerSF" = 0.4   $ IP Non-Tech
 "MinSupT" = 55   $ IP Non-Tech
 "OccCoolT" = 76   $ IP Non-Tech
 "OccHeatT" = 72   $ IP Non-Tech
 "OfficeOpen_EWSF" = 1.5   $ IP Non-Tech
 "OfficeOpen_LWSF" = 1.1   $ IP Non-Tech
 "OfficeSmall_EWSF" = 1.5   $ IP Non-Tech
 "OfficeSmall_LWSF" = 1.3   $ IP Non-Tech
 "PkgDxVintEconoFlag" = 0   $ IP Non-Tech
 "ReheatDeltaT" = 40   $ IP Non-Tech
 "Restroom_EWSF" = 0.2   $ IP Non-Tech
 "Restroom_LWSF" = 0.6   $ IP Non-Tech
 "SZFanMechEff" = 0.54   $ IP Non-Tech
 "SZHasRetFan" = TRUE   $ IP Non-Tech
 "SZ_Is_2Spd" = FALSE   $ IP Non-Tech
 "SZ_SFanWPerCfm" = 0.46   $ IP Non-Tech
 "StorageSmlCond_EWSF" = 0.2   $ IP Non-Tech
 "StorageSmlCond_LWSF" = 0.6   $ IP Non-Tech
 "T24GlzTbl" = CZTbl   $ IP Non-Tech
 "TermUnitFanMechEff" = 1   $ IP Non-Tech
 "TermUnitFanMode" = INTERMITTENT   $ IP Non-Tech
 "TermUnitFanWPerCfm" = 0.175   $ IP Non-Tech
 "TwrEIR" = 0.011   $ IP Non-Tech
 "TwrPipeHead" = 10   $ IP Non-Tech
 "TwrSetpt" = 80   $ IP Non-Tech
 "TwrStaticHead" = 15   $ IP Non-Tech
 "UnocCoolT" = 86   $ IP Non-Tech
 "UnocHeatT" = 62   $ IP Non-Tech
 "VAVMinFlow" = 0.3   $ IP Non-Tech
 "WlhpVintEconoFlag" = 0   $ IP Non-Tech
 "EconoCtrl" = OA-TEMP   $ IP Tech: AirEcono-OATemp
 "MaxOAFrac" = 0.85   $ IP Tech: AirEcono-OATemp
 "UseEconoVintApplic" = FALSE   $ IP Tech: AirEcono-OATemp
 "ChlrCapRange" = 150to299   $ IP Tech: ChlrScrW-150to299-0.718kWpTon
 "ChlrEff" = 0.718   $ IP Tech: ChlrScrW-150to299-0.718kWpTon
 "ChlrType" = Screw   $ IP Tech: ChlrScrW-150to299-0.718kWpTon
 "ChlrVSD" = NO   $ IP Tech: ChlrScrW-150to299-0.718kWpTon
 "CmpPerCkt" = NA   $ IP Tech: ChlrScrW-150to299-0.718kWpTon
 "CondRelief" = FALSE   $ IP Tech: ChlrScrW-150to299-0.718kWpTon
 "CondType" = Water   $ IP Tech: ChlrScrW-150to299-0.718kWpTon
 "EffUnits" = kWpTon   $ IP Tech: ChlrScrW-150to299-0.718kWpTon
 "IPLV" = -99   $ IP Tech: ChlrScrW-150to299-0.718kWpTon
 "CHW_FlowCtrl" = VarSec   $ IP Tech: ChwFlowCtrlVarSec
 "CHW_HdSensLoc" = AT-COILS   $ IP Tech: ChwFlowCtrlVarSec
 "CHW_HdSptCtrl" = FIXED   $ IP Tech: ChwFlowCtrlVarSec
 "CHWP_Encl" = Any   $ IP Tech: ChwPumpMtrEff-HI
 "CHWP_MotClass" = HI-EFF   $ IP Tech: ChwPumpMtrEff-HI
 "CHWP_MotHP" = Any   $ IP Tech: ChwPumpMtrEff-HI
 "CHWP_NEMA_DC" =    $ IP Tech: ChwPumpMtrEff-HI
 "CHWP_RPM" = Any   $ IP Tech: ChwPumpMtrEff-HI
 "CHWP_Volt" =    $ IP Tech: ChwPumpMtrEff-HI
 "CHW_MaxT" = 54   $ IP Tech: ChwTempCtrlReset
 "CHW_TempCtrl" = LOAD-RESET   $ IP Tech: ChwTempCtrlReset
 "DuctDT" = 1   $ IP Tech: ComDuctInsul-1
 "DuctAirLoss" = 0   $ IP Tech: ComDuctLeak-0
 "DuctLossOAFrac" = 0   $ IP Tech: ComDuctLeak-0
 "ComRoofInsCalc" = FromUo   $ IP Tech: ComRoofIns-Hvy-0.05
 "ComRoofInsR" = -999   $ IP Tech: ComRoofIns-Hvy-0.05
 "ComRoofUo" = 0.05   $ IP Tech: ComRoofIns-Hvy-0.05
 "ComEWInsCalc" = FromUo   $ IP Tech: ComWallIns-MFrm-0.1
 "ComEWInsR" = -999   $ IP Tech: ComWallIns-MFrm-0.1
 "ComEWUo" = 0.1   $ IP Tech: ComWallIns-MFrm-0.1
 "CWP_Encl" = Any   $ IP Tech: CwPumpMtrEff-HI
 "CWP_MotClass" = HI-EFF   $ IP Tech: CwPumpMtrEff-HI
 "CWP_MotHP" = Any   $ IP Tech: CwPumpMtrEff-HI
 "CWP_NEMA_DC" = Any   $ IP Tech: CwPumpMtrEff-HI
 "CWP_RPM" = Any   $ IP Tech: CwPumpMtrEff-HI
 "CWP_Volt" = Any   $ IP Tech: CwPumpMtrEff-HI
 "MotorClass" = HI-EFF   $ IP Tech: ExhFanMtr-High
 "ComN_SHGC" = 0.47   $ IP Tech: NResWin-ComN-0.47-0.47
 "ComN_UFactor" = 0.47   $ IP Tech: NResWin-ComN-0.47-0.47
 "ComN_VisTrans" = 0.75   $ IP Tech: NResWin-ComN-0.47-0.47
 "ComN_WinCode" = G2633   $ IP Tech: NResWin-ComN-0.47-0.47
 "ComN_WinFrmFrac" = 0.17   $ IP Tech: NResWin-ComN-0.47-0.47
 "ComN_WinFrmU" = 0.3   $ IP Tech: NResWin-ComN-0.47-0.47
 "ComO_SHGC" = 0.43   $ IP Tech: NResWin-ComO-0.47-0.43
 "ComO_UFactor" = 0.47   $ IP Tech: NResWin-ComO-0.47-0.43
 "ComO_VisTrans" = 0.68   $ IP Tech: NResWin-ComO-0.47-0.43
 "ComO_WinCode" = G2663   $ IP Tech: NResWin-ComO-0.47-0.43
 "ComO_WinFrmFrac" = 0.17   $ IP Tech: NResWin-ComO-0.47-0.43
 "ComO_WinFrmU" = 0.3   $ IP Tech: NResWin-ComO-0.47-0.43
 "SATempCtrl" = WARMEST   $ IP Tech: SATempCtrl-Warmest
 "TwrFanCtrl" = TWO-SPEED-FAN   $ IP Tech: TwrFanCtrl-2sp
 "TFan_Encl" = Any   $ IP Tech: TwrFanMtrEff-HI
 "TFan_MotClass" = HI-EFF   $ IP Tech: TwrFanMtrEff-HI
 "TFan_MotHP" = Any   $ IP Tech: TwrFanMtrEff-HI
 "TFan_NEMA_DC" = Any   $ IP Tech: TwrFanMtrEff-HI
 "TFan_RPM" = Any   $ IP Tech: TwrFanMtrEff-HI
 "TFan_Volt" = Any   $ IP Tech: TwrFanMtrEff-HI
 "Twr_TempCtrl" = FIXED   $ IP Tech: TwrTempCtrl-Cst
 "FanEIR_fPLR" = "Variable Speed Drive FPLR"   $ IP Tech: VAVCtrl-VSD-AnyHP
 "Fan_Control" = VSD   $ IP Tech: VAVCtrl-VSD-AnyHP
 "Motor_Horsepower" = AnyHP   $ IP Tech: VAVCtrl-VSD-AnyHP
 "AltAdjFactor" = 1.007532   $ Sizing
 "CAssFlo_L_Break_CZn" = 313.188   $ Sizing
 "CAssFlo_L_Conf_CZn" = 369.4591   $ Sizing
 "CAssFlo_L_CopyRm_CZn" = 88.37569   $ Sizing
 "CAssFlo_L_Cordr_CZn" = 565.4379   $ Sizing
 "CAssFlo_L_Cordr_EZn" = 164.7788   $ Sizing
 "CAssFlo_L_Cordr_NZn" = 94.24052   $ Sizing
 "CAssFlo_L_Cordr_SZn" = 183.606   $ Sizing
 "CAssFlo_L_Cordr_WZn" = 162.5031   $ Sizing
 "CAssFlo_L_LobWait_CZn" = 275.5261   $ Sizing
 "CAssFlo_L_MechElec_CZn" = 134.1697   $ Sizing
 "CAssFlo_L_OfficeOpn_CZn" = 1399.805   $ Sizing
 "CAssFlo_L_OfficeOpn_EZn" = 1507.192   $ Sizing
 "CAssFlo_L_OfficeOpn_NZn" = 702.0262   $ Sizing
 "CAssFlo_L_OfficeOpn_SZn" = 1577.932   $ Sizing
 "CAssFlo_L_OfficeOpn_WZn" = 1468.963   $ Sizing
 "CAssFlo_L_OfficeSm_CZn" = 177.3053   $ Sizing
 "CAssFlo_L_OfficeSm_EZn" = 1071.591   $ Sizing
 "CAssFlo_L_OfficeSm_NZn" = 430.463   $ Sizing
 "CAssFlo_L_OfficeSm_SZn" = 1157.295   $ Sizing
 "CAssFlo_L_OfficeSm_WZn" = 1037.473   $ Sizing
 "CAssFlo_L_Restrm_CZn" = 211.8611   $ Sizing
 "CAssFlo_L_StorSm_CZn" = 334.0894   $ Sizing
 "CAssFlo_M_Break_CZn" = 338.5531   $ Sizing
 "CAssFlo_M_Conf_CZn" = 405.1787   $ Sizing
 "CAssFlo_M_CopyRm_CZn" = 97.53314   $ Sizing
 "CAssFlo_M_Cordr_CZn" = 565.4379   $ Sizing
 "CAssFlo_M_Cordr_EZn" = 212.2132   $ Sizing
 "CAssFlo_M_Cordr_NZn" = 94.24052   $ Sizing
 "CAssFlo_M_Cordr_SZn" = 227.8374   $ Sizing
 "CAssFlo_M_Cordr_WZn" = 197.3167   $ Sizing
 "CAssFlo_M_LobWait_CZn" = 331.2157   $ Sizing
 "CAssFlo_M_MechElec_CZn" = 134.1697   $ Sizing
 "CAssFlo_M_OfficeOpn_CZn" = 1560.396   $ Sizing
 "CAssFlo_M_OfficeOpn_EZn" = 1651.565   $ Sizing
 "CAssFlo_M_OfficeOpn_NZn" = 836.3433   $ Sizing
 "CAssFlo_M_OfficeOpn_SZn" = 1754.457   $ Sizing
 "CAssFlo_M_OfficeOpn_WZn" = 1572.287   $ Sizing
 "CAssFlo_M_OfficeSm_CZn" = 215.0097   $ Sizing
 "CAssFlo_M_OfficeSm_EZn" = 1178.322   $ Sizing
 "CAssFlo_M_OfficeSm_NZn" = 528.3839   $ Sizing
 "CAssFlo_M_OfficeSm_SZn" = 1284.671   $ Sizing
 "CAssFlo_M_OfficeSm_WZn" = 1115.614   $ Sizing
 "CAssFlo_M_Restrm_CZn" = 211.8611   $ Sizing
 "CAssFlo_M_StorSm_CZn" = 334.0894   $ Sizing
 "CAssFlo_T_Break_CZn" = 320.9436   $ Sizing
 "CAssFlo_T_Conf_CZn" = 381.0957   $ Sizing
 "CAssFlo_T_CopyRm_CZn" = 89.16689   $ Sizing
 "CAssFlo_T_Cordr_CZn" = 565.4379   $ Sizing
 "CAssFlo_T_Cordr_EZn" = 186.3563   $ Sizing
 "CAssFlo_T_Cordr_NZn" = 94.24052   $ Sizing
 "CAssFlo_T_Cordr_SZn" = 210.8483   $ Sizing
 "CAssFlo_T_Cordr_WZn" = 178.1621   $ Sizing
 "CAssFlo_T_LobWait_CZn" = 275.5261   $ Sizing
 "CAssFlo_T_MechElec_CZn" = 134.1697   $ Sizing
 "CAssFlo_T_OfficeOpn_CZn" = 1445.377   $ Sizing
 "CAssFlo_T_OfficeOpn_EZn" = 1522.718   $ Sizing
 "CAssFlo_T_OfficeOpn_NZn" = 794.5725   $ Sizing
 "CAssFlo_T_OfficeOpn_SZn" = 1659.275   $ Sizing
 "CAssFlo_T_OfficeOpn_WZn" = 1460.795   $ Sizing
 "CAssFlo_T_OfficeSm_CZn" = 194.3353   $ Sizing
 "CAssFlo_T_OfficeSm_EZn" = 1105.709   $ Sizing
 "CAssFlo_T_OfficeSm_NZn" = 502.8383   $ Sizing
 "CAssFlo_T_OfficeSm_SZn" = 1232.982   $ Sizing
 "CAssFlo_T_OfficeSm_WZn" = 1060.437   $ Sizing
 "CAssFlo_T_Restrm_CZn" = 211.8611   $ Sizing
 "CAssFlo_T_StorSm_CZn" = 334.0894   $ Sizing
 "CBF_Sys_L" = 0.04356176   $ Sizing
 "CBF_Sys_M" = 0.0432715   $ Sizing
 "CBF_Sys_T" = 0.04127346   $ Sizing
 "CHRtFlo_L_Break_CZn" = 216.6311   $ Sizing
 "CHRtFlo_L_Conf_CZn" = 281.7439   $ Sizing
 "CHRtFlo_L_CopyRm_CZn" = 88.37569   $ Sizing
 "CHRtFlo_L_Cordr_CZn" = 212.0392   $ Sizing
 "CHRtFlo_L_Cordr_EZn" = 73.03019   $ Sizing
 "CHRtFlo_L_Cordr_NZn" = 85.48093   $ Sizing
 "CHRtFlo_L_Cordr_SZn" = 55.0818   $ Sizing
 "CHRtFlo_L_Cordr_WZn" = 71.80959   $ Sizing
 "CHRtFlo_L_LobWait_CZn" = 223.8649   $ Sizing
 "CHRtFlo_L_MechElec_CZn" = 50.31363   $ Sizing
 "CHRtFlo_L_OfficeOpn_CZn" = 419.9415   $ Sizing
 "CHRtFlo_L_OfficeOpn_EZn" = 452.1575   $ Sizing
 "CHRtFlo_L_OfficeOpn_NZn" = 257.9651   $ Sizing
 "CHRtFlo_L_OfficeOpn_SZn" = 473.3796   $ Sizing
 "CHRtFlo_L_OfficeOpn_WZn" = 440.6889   $ Sizing
 "CHRtFlo_L_OfficeSm_CZn" = 53.97937   $ Sizing
 "CHRtFlo_L_OfficeSm_EZn" = 321.4772   $ Sizing
 "CHRtFlo_L_OfficeSm_NZn" = 302.5866   $ Sizing
 "CHRtFlo_L_OfficeSm_SZn" = 347.1886   $ Sizing
 "CHRtFlo_L_OfficeSm_WZn" = 311.2418   $ Sizing
 "CHRtFlo_L_Restrm_CZn" = 63.55833   $ Sizing
 "CHRtFlo_L_StorSm_CZn" = 125.2835   $ Sizing
 "CHRtFlo_M_Break_CZn" = 216.6311   $ Sizing
 "CHRtFlo_M_Conf_CZn" = 281.7439   $ Sizing
 "CHRtFlo_M_CopyRm_CZn" = 88.37569   $ Sizing
 "CHRtFlo_M_Cordr_CZn" = 212.0392   $ Sizing
 "CHRtFlo_M_Cordr_EZn" = 63.66397   $ Sizing
 "CHRtFlo_M_Cordr_NZn" = 63.31081   $ Sizing
 "CHRtFlo_M_Cordr_SZn" = 68.35121   $ Sizing
 "CHRtFlo_M_Cordr_WZn" = 59.19502   $ Sizing
 "CHRtFlo_M_LobWait_CZn" = 223.8649   $ Sizing
 "CHRtFlo_M_MechElec_CZn" = 50.31363   $ Sizing
 "CHRtFlo_M_OfficeOpn_CZn" = 468.1187   $ Sizing
 "CHRtFlo_M_OfficeOpn_EZn" = 495.4696   $ Sizing
 "CHRtFlo_M_OfficeOpn_NZn" = 250.903   $ Sizing
 "CHRtFlo_M_OfficeOpn_SZn" = 526.337   $ Sizing
 "CHRtFlo_M_OfficeOpn_WZn" = 471.6862   $ Sizing
 "CHRtFlo_M_OfficeSm_CZn" = 64.5029   $ Sizing
 "CHRtFlo_M_OfficeSm_EZn" = 353.4965   $ Sizing
 "CHRtFlo_M_OfficeSm_NZn" = 210.0568   $ Sizing
 "CHRtFlo_M_OfficeSm_SZn" = 385.4014   $ Sizing
 "CHRtFlo_M_OfficeSm_WZn" = 334.6843   $ Sizing
 "CHRtFlo_M_Restrm_CZn" = 63.55833   $ Sizing
 "CHRtFlo_M_StorSm_CZn" = 125.2835   $ Sizing
 "CHRtFlo_T_Break_CZn" = 216.6311   $ Sizing
 "CHRtFlo_T_Conf_CZn" = 281.7439   $ Sizing
 "CHRtFlo_T_CopyRm_CZn" = 88.37569   $ Sizing
 "CHRtFlo_T_Cordr_CZn" = 212.0392   $ Sizing
 "CHRtFlo_T_Cordr_EZn" = 55.9069   $ Sizing
 "CHRtFlo_T_Cordr_NZn" = 62.29257   $ Sizing
 "CHRtFlo_T_Cordr_SZn" = 63.2545   $ Sizing
 "CHRtFlo_T_Cordr_WZn" = 53.44864   $ Sizing
 "CHRtFlo_T_LobWait_CZn" = 223.8649   $ Sizing
 "CHRtFlo_T_MechElec_CZn" = 58.93903   $ Sizing
 "CHRtFlo_T_OfficeOpn_CZn" = 433.6131   $ Sizing
 "CHRtFlo_T_OfficeOpn_EZn" = 456.8155   $ Sizing
 "CHRtFlo_T_OfficeOpn_NZn" = 238.3718   $ Sizing
 "CHRtFlo_T_OfficeOpn_SZn" = 497.7826   $ Sizing
 "CHRtFlo_T_OfficeOpn_WZn" = 438.2386   $ Sizing
 "CHRtFlo_T_OfficeSm_CZn" = 58.30059   $ Sizing
 "CHRtFlo_T_OfficeSm_EZn" = 331.7127   $ Sizing
 "CHRtFlo_T_OfficeSm_NZn" = 235.5802   $ Sizing
 "CHRtFlo_T_OfficeSm_SZn" = 369.8945   $ Sizing
 "CHRtFlo_T_OfficeSm_WZn" = 318.1312   $ Sizing
 "CHRtFlo_T_Restrm_CZn" = 63.55833   $ Sizing
 "CHRtFlo_T_StorSm_CZn" = 125.2835   $ Sizing
 "CRtdFlo_Sys_L" = 9755.926   $ Sizing
 "CRtdFlo_Sys_M" = 89484.18   $ Sizing
 "CRtdFlo_Sys_T" = 10736.31   $ Sizing
 "CSupFlo_Sys_L" = 9755.926   $ Sizing
 "CSupFlo_Sys_M" = 89484.18   $ Sizing
 "CSupFlo_Sys_T" = 10736.31   $ Sizing
 "Cap_Chiller1" = 1.573192   $ Sizing
 "Cap_Chiller2" = 1.573192   $ Sizing
 "ClCap_Sys_L" = 261492.6   $ Sizing
 "ClCap_Sys_M" = 2409327   $ Sizing
 "ClCap_Sys_T" = 298052.8   $ Sizing
 "HRtEDB_L_Break_CZn" = 49.05777   $ Sizing
 "HRtEDB_L_Conf_CZn" = 49.05777   $ Sizing
 "HRtEDB_L_CopyRm_CZn" = 49.05777   $ Sizing
 "HRtEDB_L_Cordr_CZn" = 49.05777   $ Sizing
 "HRtEDB_L_Cordr_EZn" = 49.1806   $ Sizing
 "HRtEDB_L_Cordr_NZn" = 49.1806   $ Sizing
 "HRtEDB_L_Cordr_SZn" = 49.1806   $ Sizing
 "HRtEDB_L_Cordr_WZn" = 49.1806   $ Sizing
 "HRtEDB_L_LobWait_CZn" = 49.05777   $ Sizing
 "HRtEDB_L_MechElec_CZn" = 49.05777   $ Sizing
 "HRtEDB_L_OfficeOpn_CZn" = 49.05777   $ Sizing
 "HRtEDB_L_OfficeOpn_EZn" = 49.05777   $ Sizing
 "HRtEDB_L_OfficeOpn_NZn" = 55.82089   $ Sizing
 "HRtEDB_L_OfficeOpn_SZn" = 49.1806   $ Sizing
 "HRtEDB_L_OfficeOpn_WZn" = 49.05777   $ Sizing
 "HRtEDB_L_OfficeSm_CZn" = 49.05777   $ Sizing
 "HRtEDB_L_OfficeSm_EZn" = 49.05777   $ Sizing
 "HRtEDB_L_OfficeSm_NZn" = 49.05777   $ Sizing
 "HRtEDB_L_OfficeSm_SZn" = 49.1806   $ Sizing
 "HRtEDB_L_OfficeSm_WZn" = 49.05777   $ Sizing
 "HRtEDB_L_Restrm_CZn" = 49.05777   $ Sizing
 "HRtEDB_L_StorSm_CZn" = 49.05777   $ Sizing
 "HRtEDB_M_Break_CZn" = 49.89933   $ Sizing
 "HRtEDB_M_Conf_CZn" = 49.89933   $ Sizing
 "HRtEDB_M_CopyRm_CZn" = 49.89933   $ Sizing
 "HRtEDB_M_Cordr_CZn" = 49.89933   $ Sizing
 "HRtEDB_M_Cordr_EZn" = 49.98653   $ Sizing
 "HRtEDB_M_Cordr_NZn" = 49.98653   $ Sizing
 "HRtEDB_M_Cordr_SZn" = 49.98653   $ Sizing
 "HRtEDB_M_Cordr_WZn" = 49.89933   $ Sizing
 "HRtEDB_M_LobWait_CZn" = 49.89933   $ Sizing
 "HRtEDB_M_MechElec_CZn" = 49.89933   $ Sizing
 "HRtEDB_M_OfficeOpn_CZn" = 49.89933   $ Sizing
 "HRtEDB_M_OfficeOpn_EZn" = 49.89933   $ Sizing
 "HRtEDB_M_OfficeOpn_NZn" = 49.89933   $ Sizing
 "HRtEDB_M_OfficeOpn_SZn" = 49.98653   $ Sizing
 "HRtEDB_M_OfficeOpn_WZn" = 49.89933   $ Sizing
 "HRtEDB_M_OfficeSm_CZn" = 49.89933   $ Sizing
 "HRtEDB_M_OfficeSm_EZn" = 49.89933   $ Sizing
 "HRtEDB_M_OfficeSm_NZn" = 49.89933   $ Sizing
 "HRtEDB_M_OfficeSm_SZn" = 49.98653   $ Sizing
 "HRtEDB_M_OfficeSm_WZn" = 49.89933   $ Sizing
 "HRtEDB_M_Restrm_CZn" = 49.89933   $ Sizing
 "HRtEDB_M_StorSm_CZn" = 49.89933   $ Sizing
 "HRtEDB_T_Break_CZn" = 45.98166   $ Sizing
 "HRtEDB_T_Conf_CZn" = 45.98166   $ Sizing
 "HRtEDB_T_CopyRm_CZn" = 45.98166   $ Sizing
 "HRtEDB_T_Cordr_CZn" = 45.98166   $ Sizing
 "HRtEDB_T_Cordr_EZn" = 46.78866   $ Sizing
 "HRtEDB_T_Cordr_NZn" = 48.2338   $ Sizing
 "HRtEDB_T_Cordr_SZn" = 45.98166   $ Sizing
 "HRtEDB_T_Cordr_WZn" = 46.78866   $ Sizing
 "HRtEDB_T_LobWait_CZn" = 45.98166   $ Sizing
 "HRtEDB_T_MechElec_CZn" = 48.2338   $ Sizing
 "HRtEDB_T_OfficeOpn_CZn" = 45.98166   $ Sizing
 "HRtEDB_T_OfficeOpn_EZn" = 45.98166   $ Sizing
 "HRtEDB_T_OfficeOpn_NZn" = 45.98166   $ Sizing
 "HRtEDB_T_OfficeOpn_SZn" = 45.98166   $ Sizing
 "HRtEDB_T_OfficeOpn_WZn" = 45.98166   $ Sizing
 "HRtEDB_T_OfficeSm_CZn" = 45.98166   $ Sizing
 "HRtEDB_T_OfficeSm_EZn" = 45.98166   $ Sizing
 "HRtEDB_T_OfficeSm_NZn" = 45.98166   $ Sizing
 "HRtEDB_T_OfficeSm_SZn" = 45.98166   $ Sizing
 "HRtEDB_T_OfficeSm_WZn" = 45.98166   $ Sizing
 "HRtEDB_T_Restrm_CZn" = 45.98166   $ Sizing
 "HRtEDB_T_StorSm_CZn" = 45.98166   $ Sizing
 "HtCap_L_Break_CZn" = -10723.34   $ Sizing
 "HtCap_L_Conf_CZn" = -13946.46   $ Sizing
 "HtCap_L_CopyRm_CZn" = -4374.638   $ Sizing
 "HtCap_L_Cordr_CZn" = -10496.04   $ Sizing
 "HtCap_L_Cordr_EZn" = -3606.076   $ Sizing
 "HtCap_L_Cordr_NZn" = -4220.867   $ Sizing
 "HtCap_L_Cordr_SZn" = -2719.823   $ Sizing
 "HtCap_L_Cordr_WZn" = -3545.805   $ Sizing
 "HtCap_L_LobWait_CZn" = -11081.42   $ Sizing
 "HtCap_L_MechElec_CZn" = -2490.548   $ Sizing
 "HtCap_L_OfficeOpn_CZn" = -20787.3   $ Sizing
 "HtCap_L_OfficeOpn_EZn" = -22382.01   $ Sizing
 "HtCap_L_OfficeOpn_NZn" = -10891.17   $ Sizing
 "HtCap_L_OfficeOpn_SZn" = -23374.48   $ Sizing
 "HtCap_L_OfficeOpn_WZn" = -21814.3   $ Sizing
 "HtCap_L_OfficeSm_CZn" = -2672.004   $ Sizing
 "HtCap_L_OfficeSm_EZn" = -15913.27   $ Sizing
 "HtCap_L_OfficeSm_NZn" = -14978.17   $ Sizing
 "HtCap_L_OfficeSm_SZn" = -17143.44   $ Sizing
 "HtCap_L_OfficeSm_WZn" = -15406.61   $ Sizing
 "HtCap_L_Restrm_CZn" = -3146.167   $ Sizing
 "HtCap_L_StorSm_CZn" = -6201.591   $ Sizing
 "HtCap_M_Break_CZn" = -10528.81   $ Sizing
 "HtCap_M_Conf_CZn" = -13693.46   $ Sizing
 "HtCap_M_CopyRm_CZn" = -4295.279   $ Sizing
 "HtCap_M_Cordr_CZn" = -10305.63   $ Sizing
 "HtCap_M_Cordr_EZn" = -3088.481   $ Sizing
 "HtCap_M_Cordr_NZn" = -3071.348   $ Sizing
 "HtCap_M_Cordr_SZn" = -3315.87   $ Sizing
 "HtCap_M_Cordr_WZn" = -2877.026   $ Sizing
 "HtCap_M_LobWait_CZn" = -10880.39   $ Sizing
 "HtCap_M_MechElec_CZn" = -2445.368   $ Sizing
 "HtCap_M_OfficeOpn_CZn" = -22751.74   $ Sizing
 "HtCap_M_OfficeOpn_EZn" = -24081.06   $ Sizing
 "HtCap_M_OfficeOpn_NZn" = -12194.51   $ Sizing
 "HtCap_M_OfficeOpn_SZn" = -25533.78   $ Sizing
 "HtCap_M_OfficeOpn_WZn" = -22925.13   $ Sizing
 "HtCap_M_OfficeSm_CZn" = -3135.002   $ Sizing
 "HtCap_M_OfficeSm_EZn" = -17180.81   $ Sizing
 "HtCap_M_OfficeSm_NZn" = -10209.29   $ Sizing
 "HtCap_M_OfficeSm_SZn" = -18696.68   $ Sizing
 "HtCap_M_OfficeSm_WZn" = -16266.49   $ Sizing
 "HtCap_M_Restrm_CZn" = -3089.093   $ Sizing
 "HtCap_M_StorSm_CZn" = -6089.091   $ Sizing
 "HtCap_T_Break_CZn" = -11441.22   $ Sizing
 "HtCap_T_Conf_CZn" = -14880.11   $ Sizing
 "HtCap_T_CopyRm_CZn" = -4667.5   $ Sizing
 "HtCap_T_Cordr_CZn" = -11198.7   $ Sizing
 "HtCap_T_Cordr_EZn" = -2904.757   $ Sizing
 "HtCap_T_Cordr_NZn" = -3139.786   $ Sizing
 "HtCap_T_Cordr_SZn" = -3340.743   $ Sizing
 "HtCap_T_Cordr_WZn" = -2777.033   $ Sizing
 "HtCap_T_LobWait_CZn" = -11823.27   $ Sizing
 "HtCap_T_MechElec_CZn" = -2970.755   $ Sizing
 "HtCap_T_OfficeOpn_CZn" = -22900.97   $ Sizing
 "HtCap_T_OfficeOpn_EZn" = -24126.39   $ Sizing
 "HtCap_T_OfficeOpn_NZn" = -12589.44   $ Sizing
 "HtCap_T_OfficeOpn_SZn" = -26290.04   $ Sizing
 "HtCap_T_OfficeOpn_WZn" = -23145.27   $ Sizing
 "HtCap_T_OfficeSm_CZn" = -3079.105   $ Sizing
 "HtCap_T_OfficeSm_EZn" = -17519.18   $ Sizing
 "HtCap_T_OfficeSm_NZn" = -12442   $ Sizing
 "HtCap_T_OfficeSm_SZn" = -19535.72   $ Sizing
 "HtCap_T_OfficeSm_WZn" = -16801.88   $ Sizing
 "HtCap_T_Restrm_CZn" = -3356.789   $ Sizing
 "HtCap_T_StorSm_CZn" = -6616.761   $ Sizing
 "LpFlo_BlrPrimLoop" = 0   $ Sizing
 "LpFlo_ChlrPrimLoop" = 494.0913   $ Sizing
 "LpFlo_CircLp_Chw_L" = 43.51906   $ Sizing
 "LpFlo_CircLp_Chw_M" = 400.9458   $ Sizing
 "LpFlo_CircLp_Chw_T" = 49.62649   $ Sizing
 "LpFlo_CircLp_Hw_L" = 0   $ Sizing
 "LpFlo_CircLp_Hw_M" = 0   $ Sizing
 "LpFlo_CircLp_Hw_T" = 0   $ Sizing
 "RtChwFlo_Chiller1" = 1.998401   $ Sizing
 "RtChwFlo_Chiller2" = 1.998401   $ Sizing
 "RtCndFlo_Chiller1" = 3   $ Sizing
 "RtCndFlo_Chiller2" = 3   $ Sizing
 "RtdEDB_Sys_L" = 72.41566   $ Sizing
 "RtdEDB_Sys_M" = 73.04019   $ Sizing
 "RtdEDB_Sys_T" = 73.65881   $ Sizing
 "RtdEWB_Sys_L" = 61.84591   $ Sizing
 "RtdEWB_Sys_M" = 61.86168   $ Sizing
 "RtdEWB_Sys_T" = 62.11999   $ Sizing
..

##include Templates\OfL_CH_MZ.inp
END ..
COMPUTE ..
STOP ..
