
Start DOESIM : Storage capacity =  75000000
Starting LOADS   : SAVE-FILES is On , weather is CZ01ARCATA-AP       
Finished LOADS    BDL  1 : Memory (wds) =    391700, Time (sec) =    2.48
Starting REPORT  
Finished REPORT   BDL  1 : Memory (wds) =    784412, Time (sec) =    0.85
Starting HVAC    : SAVE-FILES is On , weather is CZ01ARCATA-AP       
*** ERRORS or WARNINGS from HVAC     program. Examine output file for details.
Finished HVAC     BDL  1 : Memory (wds) =    676241, Time (sec) =    5.56
Starting REPORT  
Finished REPORT   BDL  1 : Memory (wds) =   1091843, Time (sec) =    0.70
Starting HOURLY-R
Finished HOURLY-R BDL  1 : Memory (wds) =   1493859, Time (sec) =    0.13
Starting ECONOMIC
Finished ECONOMIC BDL  1 : Memory (wds) =      1034, Time (sec) =    0.05
End   DOESIM : Total elapsed time of      9.8 seconds
RUN COMPLETE
