
Start DOESIM : Storage capacity =  75000000
Starting LOADS   : SAVE-FILES is On , weather is CZ01ARCATA-AP       
Finished LOADS    BDL  1 : Memory (wds) =    391700, Time (sec) =    1.83
Starting REPORT  
Finished REPORT   BDL  1 : Memory (wds) =    784412, Time (sec) =    0.86
Starting HVAC    : SAVE-FILES is On , weather is CZ01ARCATA-AP       
*** ERRORS or WARNINGS from HVAC     program. Examine output file for details.
Finished HVAC     BDL  1 : Memory (wds) =    676241, Time (sec) =    6.07
Starting REPORT  
Finished REPORT   BDL  1 : Memory (wds) =   1091843, Time (sec) =    0.69
Starting HOURLY-R
Finished HOURLY-R BDL  1 : Memory (wds) =   1493859, Time (sec) =    0.14
Starting ECONOMIC
Finished ECONOMIC BDL  1 : Memory (wds) =      1034, Time (sec) =    0.04
End   DOESIM : Total elapsed time of      9.6 seconds
RUN COMPLETE
