INPUT ..

##fileprefix C:\Users\jglasskatz\MASControl3\
##set1 IsSizing FALSE
##set1 CoolType DX
##set1 HeatType FURNACE
##set1 EU_HrRepVar 0
##set1 BldgVint 1985
##set1 BldgLoc CZ11

 ##set1 mBFMult 1   $ IP Tech: RefgChg-NRes-Std

PARAMETER
 "AltFactor" = 1.01292   $ IP Non-Tech
 "BF_fFlow" = SpltAC1Sp-lt45_BF_fFlow   $ Msr (Multi)TechID: StdNResSplitAC-lt45
 "BF_fT" = SpltAC1Sp-lt45_BF_fT   $ Msr (Multi)TechID: StdNResSplitAC-lt45
 "BldgEconoFlag" = 1   $ IP Non-Tech
 "Break_EWSF" = 1   $ IP Non-Tech
 "Break_LWSF" = 1.1   $ IP Non-Tech
 "CDD_DBHi10" = 85   $ IP Non-Tech
 "CDD_DBHi7" = 106   $ IP Non-Tech
 "CDD_DBHi8" = 106   $ IP Non-Tech
 "CDD_DBHi9" = 99   $ IP Non-Tech
 "CDD_DBRange10" = 23   $ IP Non-Tech
 "CDD_DBRange7" = 30   $ IP Non-Tech
 "CDD_DBRange8" = 33   $ IP Non-Tech
 "CDD_DBRange9" = 33   $ IP Non-Tech
 "CDD_Day10" = 15   $ IP Non-Tech
 "CDD_Day7" = 16   $ IP Non-Tech
 "CDD_Day8" = 20   $ IP Non-Tech
 "CDD_Day9" = 17   $ IP Non-Tech
 "CDD_HrHi10" = 16   $ IP Non-Tech
 "CDD_HrHi7" = 16   $ IP Non-Tech
 "CDD_HrHi8" = 16   $ IP Non-Tech
 "CDD_HrHi9" = 16   $ IP Non-Tech
 "CDD_HrLo10" = 6   $ IP Non-Tech
 "CDD_HrLo7" = 7   $ IP Non-Tech
 "CDD_HrLo8" = 7   $ IP Non-Tech
 "CDD_HrLo9" = 7   $ IP Non-Tech
 "CDD_WB10" = 59.3704567   $ IP Non-Tech
 "CDD_WB7" = 72.37876129   $ IP Non-Tech
 "CDD_WB8" = 69.41531372   $ IP Non-Tech
 "CDD_WB9" = 65.60124207   $ IP Non-Tech
 "CEIR_fPLR_Hot" = SpltAC1Sp-lt45_CEIR_fPLR_Hot   $ Msr (Multi)TechID: StdNResSplitAC-lt45
 "CEIR_fPLR_Mod" = SpltAC1Sp-lt45_CEIR_fPLR_Mod   $ Msr (Multi)TechID: StdNResSplitAC-lt45
 "CEIR_fPLR_Tem" = SpltAC1Sp-lt45_CEIR_fPLR_Tem   $ Msr (Multi)TechID: StdNResSplitAC-lt45
 "CLoss_fPLR_Hot" = SpltAC1Sp-lt45_CLoss_fPLR_Hot   $ Msr (Multi)TechID: StdNResSplitAC-lt45
 "CLoss_fPLR_Mod" = SpltAC1Sp-lt45_CLoss_fPLR_Mod   $ Msr (Multi)TechID: StdNResSplitAC-lt45
 "CLoss_fPLR_Tem" = SpltAC1Sp-lt45_CLoss_fPLR_Tem   $ Msr (Multi)TechID: StdNResSplitAC-lt45
 "COP47" = 0   $ Msr (Multi)TechID: StdNResSplitAC-lt45
 "CZ_Category" = Hot   $ IP Non-Tech
 "CapRange" = lt45   $ Msr (Multi)TechID: StdNResSplitAC-lt45
 "CfmPerBtuh" = 0.032504286   $ Msr (Multi)TechID: StdNResSplitAC-lt45
 "ChwVintEconoFlag" = 1   $ IP Non-Tech
 "ClCap_fT" = SpltAC1Sp-lt45_ClCap_fT   $ Msr (Multi)TechID: StdNResSplitAC-lt45
 "ClSH_fT" = SpltAC1Sp-lt45_ClSH_fT   $ Msr (Multi)TechID: StdNResSplitAC-lt45
 "CoilBF" = 0.1212   $ Msr (Multi)TechID: StdNResSplitAC-lt45
 "CondWPerBtuh" = 0   $ Msr (Multi)TechID: StdNResSplitAC-lt45
 "Conference_EWSF" = 1.1   $ IP Non-Tech
 "Conference_LWSF" = 1.4   $ IP Non-Tech
 "CoolSensCap" = 0.754064286   $ Msr (Multi)TechID: StdNResSplitAC-lt45
 "CoolSetT" = 45   $ IP Non-Tech
 "CoolType" = DX   $ IP Non-Tech
 "CoolingEIR" = 0.23878   $ Msr (Multi)TechID: StdNResSplitAC-lt45
 "CopyRoom_EWSF" = 1.65   $ IP Non-Tech
 "CopyRoom_LWSF" = 1.3   $ IP Non-Tech
 "CorridorStairway_EWSF" = 0.22   $ IP Non-Tech
 "CorridorStairway_LWSF" = 0.6   $ IP Non-Tech
 "CrnkEIR" = 0.0023878   $ Msr (Multi)TechID: StdNResSplitAC-lt45
 "CrnkMaxT" = 50   $ Msr (Multi)TechID: StdNResSplitAC-lt45
 "DXType" = SplitSEER   $ Msr (Multi)TechID: StdNResSplitAC-lt45
 "DesCoolT" = 75   $ IP Non-Tech
 "DesHeatT" = 73   $ IP Non-Tech
 "EER" = 12.16551724   $ Msr (Multi)TechID: StdNResSplitAC-lt45
 "EIR_fT" = SpltAC1Sp-lt45_EIR_fT   $ Msr (Multi)TechID: StdNResSplitAC-lt45
 "EconoCtrl" = FIXED   $ Msr (Multi)TechID: StdNResSplitAC-lt45
 "EconoEnthLimit" = 28   $ IP Non-Tech
 "EconoTempLimit" = 75   $ IP Non-Tech
 "Elevation" = 348   $ IP Non-Tech
 "FanEirPlr" = TwoSpeedFan   $ Msr (Multi)TechID: StdNResSplitAC-lt45
 "FanWPerCfm" = 0.294   $ Msr (Multi)TechID: StdNResSplitAC-lt45
 "HDD_CloudAmt1" = 0   $ IP Non-Tech
 "HDD_DBHi1" = 46   $ IP Non-Tech
 "HDD_DBRange1" = 14   $ IP Non-Tech
 "HDD_Day1" = 15   $ IP Non-Tech
 "HDD_HrHi1" = 16   $ IP Non-Tech
 "HDD_HrLo1" = 7   $ IP Non-Tech
 "HDD_WB1" = 39.9   $ IP Non-Tech
 "HDD_WindSpd1" = 19.6   $ IP Non-Tech
 "HIR_fT" = 0   $ Msr (Multi)TechID: StdNResSplitAC-lt45
 "HSPF" = 0   $ Msr (Multi)TechID: StdNResSplitAC-lt45
 "HeatSrc" = FURNACE   $ IP Non-Tech
 "HeatSrcTU" = HEAT-PUMP   $ IP Non-Tech
 "HeatType" = GasFurn   $ IP Non-Tech
 "HeatTypeTU" = HEAT-PUMP   $ IP Non-Tech
 "HtCap_fT" = 0   $ Msr (Multi)TechID: StdNResSplitAC-lt45
 "HtCoolCapRatio" = 0   $ Msr (Multi)TechID: StdNResSplitAC-lt45
 "HtgEIR" = 0   $ Msr (Multi)TechID: StdNResSplitAC-lt45
 "IndoorFanMode" = CONTINUOUS   $ IP Non-Tech
 "KT_TransferAir" = No   $ IP Non-Tech
 "Latitude" = 40.2   $ IP Non-Tech
 "LobbyWaiting_EWSF" = 0.525   $ IP Non-Tech
 "LobbyWaiting_LWSF" = 1.3   $ IP Non-Tech
 "Longitude" = 122.3   $ IP Non-Tech
 "LowSpdCapRatio" = 1   $ Msr (Multi)TechID: StdNResSplitAC-lt45
 "LowSpdCfmRatio" = 1   $ Msr (Multi)TechID: StdNResSplitAC-lt45
 "MZFanMechEff" = 0.58   $ IP Non-Tech
 "MZHasRetFan" = FALSE   $ IP Non-Tech
 "MZ_RFanWPerCfm" = 0.37   $ IP Non-Tech
 "MZ_SFanWPerCfm" = 0.71   $ IP Non-Tech
 "MZ_SupFanStatic" = 2.25   $ IP Non-Tech
 "MaxOAFrac" = 1   $ Msr (Multi)TechID: StdNResSplitAC-lt45
 "MaxSupT_MZ" = 100   $ IP Non-Tech
 "MaxSupT_SZ" = 100   $ IP Non-Tech
 "MaxSupT_TU" = 90   $ IP Non-Tech
 "MechElecRoom_EWSF" = 0.22   $ IP Non-Tech
 "MechElecRoom_LWSF" = 0.7   $ IP Non-Tech
 "MinCfmPerSF" = 0.4   $ IP Non-Tech
 "MinSupT" = 55   $ IP Non-Tech
 "NumStages" = 1   $ Msr (Multi)TechID: StdNResSplitAC-lt45
 "OccCoolT" = 76   $ IP Non-Tech
 "OccHeatT" = 72   $ IP Non-Tech
 "OfficeOpen_EWSF" = 1.65   $ IP Non-Tech
 "OfficeOpen_LWSF" = 1.2   $ IP Non-Tech
 "OfficeSmall_EWSF" = 1.65   $ IP Non-Tech
 "OfficeSmall_LWSF" = 1.3   $ IP Non-Tech
 "PkgDxVintEconoFlag" = 0   $ IP Non-Tech
 "Restroom_EWSF" = 0.22   $ IP Non-Tech
 "Restroom_LWSF" = 0.6   $ IP Non-Tech
 "SEER" = 14   $ Msr (Multi)TechID: StdNResSplitAC-lt45
 "SZFanMechEff" = 0.58   $ IP Non-Tech
 "SZHasRetFan" = FALSE   $ IP Non-Tech
 "SZ_Is_2Spd" = FALSE   $ IP Non-Tech
 "SZ_SFanWPerCfm" = 0.46   $ IP Non-Tech
 "SZ_SupFanStatic" = 0.75   $ IP Non-Tech
 "Sector" = Any   $ Msr (Multi)TechID: StdNResSplitAC-lt45
 "StorageSmlCond_EWSF" = 0.22   $ IP Non-Tech
 "StorageSmlCond_LWSF" = 0.6   $ IP Non-Tech
 "SubType" = AC   $ Msr (Multi)TechID: StdNResSplitAC-lt45
 "T24GlzTbl" = CZTbl   $ IP Non-Tech
 "TermUnitFanMechEff" = 1   $ IP Non-Tech
 "TermUnitFanMode" = INTERMITTENT   $ IP Non-Tech
 "TotCoolCap" = 30924.85714   $ Msr (Multi)TechID: StdNResSplitAC-lt45
 "TwrSetpt" = 85.8   $ IP Non-Tech
 "UnocCoolT" = 86   $ IP Non-Tech
 "UnocHeatT" = 62   $ IP Non-Tech
 "UseEconoVintApplic" = FALSE   $ Msr (Multi)TechID: StdNResSplitAC-lt45
 "WlhpVintEconoFlag" = 0   $ IP Non-Tech
 "DuctDT" = 1   $ IP Tech: ComDuctInsul-1
 "DuctAirLoss" = 0   $ IP Tech: ComDuctLeak-0
 "DuctLossOAFrac" = 0   $ IP Tech: ComDuctLeak-0
 "ComRoofInsCalc" = FromUo   $ IP Tech: ComRoofIns-Hvy-0.06
 "ComRoofInsR" = -999   $ IP Tech: ComRoofIns-Hvy-0.06
 "ComRoofUo" = 0.06   $ IP Tech: ComRoofIns-Hvy-0.06
 "ComEWInsCalc" = FromUo   $ IP Tech: ComWallIns-MFrm-0.14
 "ComEWInsR" = -999   $ IP Tech: ComWallIns-MFrm-0.14
 "ComEWUo" = 0.14   $ IP Tech: ComWallIns-MFrm-0.14
 "ComN_SHGC" = 0.82   $ IP Tech: NResWin-ComN-1.23-0.82
 "ComN_UFactor" = 1.23   $ IP Tech: NResWin-ComN-1.23-0.82
 "ComN_VisTrans" = 0.9   $ IP Tech: NResWin-ComN-1.23-0.82
 "ComN_WinCode" = G1000   $ IP Tech: NResWin-ComN-1.23-0.82
 "ComN_WinFrmFrac" = 0.17   $ IP Tech: NResWin-ComN-1.23-0.82
 "ComN_WinFrmU" = 1   $ IP Tech: NResWin-ComN-1.23-0.82
 "ComO_SHGC" = 0.82   $ IP Tech: NResWin-ComO-1.23-0.82
 "ComO_UFactor" = 1.23   $ IP Tech: NResWin-ComO-1.23-0.82
 "ComO_VisTrans" = 0.9   $ IP Tech: NResWin-ComO-1.23-0.82
 "ComO_WinCode" = G1000   $ IP Tech: NResWin-ComO-1.23-0.82
 "ComO_WinFrmFrac" = 0.17   $ IP Tech: NResWin-ComO-1.23-0.82
 "ComO_WinFrmU" = 1   $ IP Tech: NResWin-ComO-1.23-0.82
 "LtgMsrApplic" = ALL   $ IP Tech: NonResLtgRefPre
 "LtgSav_CFL" = 0   $ IP Tech: NonResLtgRefPre
 "LtgSav_EX" = 0   $ IP Tech: NonResLtgRefPre
 "LtgSav_HB" = 0   $ IP Tech: NonResLtgRefPre
 "LtgSav_LF" = 0   $ IP Tech: NonResLtgRefPre
 "LtgSav_SP" = 0   $ IP Tech: NonResLtgRefPre
 "CEIR_fPLR" = PSZ65to135_CEIR_fPLR   $ IP Tech: PkgAC1SpH-65to135-E10
 "CLoss_fPLR" = PSZ65to135_CLoss_fPLR   $ IP Tech: PkgAC1SpH-65to135-E10
 "COP" = -1   $ IP Tech: PkgAC1SpH-65to135-E10
 "HtgFuel" = Gas   $ IP Tech: PkgAC1SpH-65to135-E10
 "IEER" = 11.87   $ IP Tech: PkgAC1SpH-65to135-E10
 "NominalCap" = 15   $ IP Tech: PkgAC1SpH-65to135-E10
 "RatedEER" = 10   $ IP Tech: PkgAC1SpH-65to135-E10
 "RatedSupMtrClass" = HiEff   $ IP Tech: PkgAC1SpH-65to135-E10
 "SizeRange" = 65to135   $ IP Tech: PkgAC1SpH-65to135-E10
 "SupMotEff" = 0.84   $ IP Tech: PkgAC1SpH-65to135-E10
 "Tier" = 0   $ IP Tech: PkgAC1SpH-65to135-E10
 "FanPwrMult" = 1   $ IP Tech: PkgFurn-0.80AFUE
 "FurnAFUE" = 0.8   $ IP Tech: PkgFurn-0.80AFUE
 "FurnEt" = 0.82   $ IP Tech: PkgFurn-0.80AFUE
 "FurnaceAuxKW" = 0.1   $ IP Tech: PkgFurn-0.80AFUE
 "HIR_fPLR" = Furnace-HIR-fPLR   $ IP Tech: PkgFurn-0.80AFUE
 "VSM" = FALSE   $ IP Tech: PkgFurn-0.80AFUE
 "BFMult" = 1   $ IP Tech: RefgChg-NRes-Std
 "CoolEirMult" = 1   $ IP Tech: RefgChg-NRes-Std
 "SensCoolCapMult" = 1   $ IP Tech: RefgChg-NRes-Std
 "TotCoolCapMult" = 1   $ IP Tech: RefgChg-NRes-Std
 "AltAdjFactor" = 1.012923   $ Sizing
 "CAssFlo_L_Break_CZn" = 589.4182   $ Sizing
 "CAssFlo_L_Conf_CZn" = 580.429   $ Sizing
 "CAssFlo_L_CopyRm_CZn" = 190.5642   $ Sizing
 "CAssFlo_L_Cordr_CZn" = 717.5604   $ Sizing
 "CAssFlo_L_Cordr_EZn" = 330.6152   $ Sizing
 "CAssFlo_L_Cordr_NZn" = 215.5583   $ Sizing
 "CAssFlo_L_Cordr_SZn" = 327.5429   $ Sizing
 "CAssFlo_L_Cordr_WZn" = 375.6458   $ Sizing
 "CAssFlo_L_LobWait_CZn" = 599.767   $ Sizing
 "CAssFlo_L_MechElec_CZn" = 131.1796   $ Sizing
 "CAssFlo_L_OfficeOpn_CZn" = 2007.744   $ Sizing
 "CAssFlo_L_OfficeOpn_EZn" = 2316.948   $ Sizing
 "CAssFlo_L_OfficeOpn_NZn" = 1530.503   $ Sizing
 "CAssFlo_L_OfficeOpn_SZn" = 2323.813   $ Sizing
 "CAssFlo_L_OfficeOpn_WZn" = 2668.278   $ Sizing
 "CAssFlo_L_OfficeSm_CZn" = 253.7791   $ Sizing
 "CAssFlo_L_OfficeSm_EZn" = 1704.224   $ Sizing
 "CAssFlo_L_OfficeSm_NZn" = 1033.62   $ Sizing
 "CAssFlo_L_OfficeSm_SZn" = 1724.017   $ Sizing
 "CAssFlo_L_OfficeSm_WZn" = 1969.281   $ Sizing
 "CAssFlo_L_Restrm_CZn" = 100.2762   $ Sizing
 "CAssFlo_L_StorSm_CZn" = 390.6448   $ Sizing
 "CAssFlo_M_Break_CZn" = 593.2991   $ Sizing
 "CAssFlo_M_Conf_CZn" = 577.929   $ Sizing
 "CAssFlo_M_CopyRm_CZn" = 185.3423   $ Sizing
 "CAssFlo_M_Cordr_CZn" = 919.7904   $ Sizing
 "CAssFlo_M_Cordr_EZn" = 369.0968   $ Sizing
 "CAssFlo_M_Cordr_NZn" = 234.128   $ Sizing
 "CAssFlo_M_Cordr_SZn" = 360.4597   $ Sizing
 "CAssFlo_M_Cordr_WZn" = 399.0014   $ Sizing
 "CAssFlo_M_LobWait_CZn" = 605.1429   $ Sizing
 "CAssFlo_M_MechElec_CZn" = 167.219   $ Sizing
 "CAssFlo_M_OfficeOpn_CZn" = 2021.172   $ Sizing
 "CAssFlo_M_OfficeOpn_EZn" = 2494.011   $ Sizing
 "CAssFlo_M_OfficeOpn_NZn" = 1620.581   $ Sizing
 "CAssFlo_M_OfficeOpn_SZn" = 2489.036   $ Sizing
 "CAssFlo_M_OfficeOpn_WZn" = 2762.388   $ Sizing
 "CAssFlo_M_OfficeSm_CZn" = 264.067   $ Sizing
 "CAssFlo_M_OfficeSm_EZn" = 1814.701   $ Sizing
 "CAssFlo_M_OfficeSm_NZn" = 1085.101   $ Sizing
 "CAssFlo_M_OfficeSm_SZn" = 1831.01   $ Sizing
 "CAssFlo_M_OfficeSm_WZn" = 2035.003   $ Sizing
 "CAssFlo_M_Restrm_CZn" = 107.3835   $ Sizing
 "CAssFlo_M_StorSm_CZn" = 428.3787   $ Sizing
 "CAssFlo_T_Break_CZn" = 587.4932   $ Sizing
 "CAssFlo_T_Conf_CZn" = 571.5013   $ Sizing
 "CAssFlo_T_CopyRm_CZn" = 183.1574   $ Sizing
 "CAssFlo_T_Cordr_CZn" = 881.8148   $ Sizing
 "CAssFlo_T_Cordr_EZn" = 364.9214   $ Sizing
 "CAssFlo_T_Cordr_NZn" = 238.8949   $ Sizing
 "CAssFlo_T_Cordr_SZn" = 353.6695   $ Sizing
 "CAssFlo_T_Cordr_WZn" = 402.0546   $ Sizing
 "CAssFlo_T_LobWait_CZn" = 611.9745   $ Sizing
 "CAssFlo_T_MechElec_CZn" = 197.8117   $ Sizing
 "CAssFlo_T_OfficeOpn_CZn" = 2091.122   $ Sizing
 "CAssFlo_T_OfficeOpn_EZn" = 2472.05   $ Sizing
 "CAssFlo_T_OfficeOpn_NZn" = 1662.772   $ Sizing
 "CAssFlo_T_OfficeOpn_SZn" = 2467.721   $ Sizing
 "CAssFlo_T_OfficeOpn_WZn" = 2754.808   $ Sizing
 "CAssFlo_T_OfficeSm_CZn" = 260.0125   $ Sizing
 "CAssFlo_T_OfficeSm_EZn" = 1847.243   $ Sizing
 "CAssFlo_T_OfficeSm_NZn" = 1123.27   $ Sizing
 "CAssFlo_T_OfficeSm_SZn" = 1839.831   $ Sizing
 "CAssFlo_T_OfficeSm_WZn" = 2062.968   $ Sizing
 "CAssFlo_T_Restrm_CZn" = 166.8029   $ Sizing
 "CAssFlo_T_StorSm_CZn" = 334.9373   $ Sizing
 "CHRtFlo_Sys_L_Break_C" = 589.4182   $ Sizing
 "CHRtFlo_Sys_L_Conf_C" = 580.429   $ Sizing
 "CHRtFlo_Sys_L_CopyRm_C" = 190.5642   $ Sizing
 "CHRtFlo_Sys_L_Cordr_C" = 717.5604   $ Sizing
 "CHRtFlo_Sys_L_Cordr_E" = 376.019   $ Sizing
 "CHRtFlo_Sys_L_Cordr_N" = 215.5584   $ Sizing
 "CHRtFlo_Sys_L_Cordr_S" = 384.2437   $ Sizing
 "CHRtFlo_Sys_L_Cordr_W" = 382.3063   $ Sizing
 "CHRtFlo_Sys_L_LobWait_C" = 599.767   $ Sizing
 "CHRtFlo_Sys_L_MechElec_C" = 153.2837   $ Sizing
 "CHRtFlo_Sys_L_OfficeOpn_C" = 2007.744   $ Sizing
 "CHRtFlo_Sys_L_OfficeOpn_E" = 2738.921   $ Sizing
 "CHRtFlo_Sys_L_OfficeOpn_N" = 1530.503   $ Sizing
 "CHRtFlo_Sys_L_OfficeOpn_S" = 2794.467   $ Sizing
 "CHRtFlo_Sys_L_OfficeOpn_W" = 2781.872   $ Sizing
 "CHRtFlo_Sys_L_OfficeSm_C" = 275.4815   $ Sizing
 "CHRtFlo_Sys_L_OfficeSm_E" = 2045.7   $ Sizing
 "CHRtFlo_Sys_L_OfficeSm_N" = 1033.62   $ Sizing
 "CHRtFlo_Sys_L_OfficeSm_S" = 2114.207   $ Sizing
 "CHRtFlo_Sys_L_OfficeSm_W" = 2116.453   $ Sizing
 "CHRtFlo_Sys_L_Restrm_C" = 212.9946   $ Sizing
 "CHRtFlo_Sys_L_StorSm_C" = 449.2658   $ Sizing
 "CHRtFlo_Sys_M_Break_C" = 4746.393   $ Sizing
 "CHRtFlo_Sys_M_Conf_C" = 4623.432   $ Sizing
 "CHRtFlo_Sys_M_CopyRm_C" = 1482.739   $ Sizing
 "CHRtFlo_Sys_M_Cordr_C" = 8538.86   $ Sizing
 "CHRtFlo_Sys_M_Cordr_E" = 3371.773   $ Sizing
 "CHRtFlo_Sys_M_Cordr_N" = 1873.024   $ Sizing
 "CHRtFlo_Sys_M_Cordr_S" = 3462.176   $ Sizing
 "CHRtFlo_Sys_M_Cordr_W" = 3294.658   $ Sizing
 "CHRtFlo_Sys_M_LobWait_C" = 4841.143   $ Sizing
 "CHRtFlo_Sys_M_MechElec_C" = 1641.161   $ Sizing
 "CHRtFlo_Sys_M_OfficeOpn_C" = 17635.37   $ Sizing
 "CHRtFlo_Sys_M_OfficeOpn_E" = 23210.36   $ Sizing
 "CHRtFlo_Sys_M_OfficeOpn_N" = 12964.65   $ Sizing
 "CHRtFlo_Sys_M_OfficeOpn_S" = 24258.46   $ Sizing
 "CHRtFlo_Sys_M_OfficeOpn_W" = 23396.42   $ Sizing
 "CHRtFlo_Sys_M_OfficeSm_C" = 2708.256   $ Sizing
 "CHRtFlo_Sys_M_OfficeSm_E" = 17181.05   $ Sizing
 "CHRtFlo_Sys_M_OfficeSm_N" = 8680.806   $ Sizing
 "CHRtFlo_Sys_M_OfficeSm_S" = 18213.81   $ Sizing
 "CHRtFlo_Sys_M_OfficeSm_W" = 17631.69   $ Sizing
 "CHRtFlo_Sys_M_Restrm_C" = 1703.957   $ Sizing
 "CHRtFlo_Sys_M_StorSm_C" = 4157.709   $ Sizing
 "CHRtFlo_Sys_T_Break_C" = 587.4932   $ Sizing
 "CHRtFlo_Sys_T_Conf_C" = 571.5013   $ Sizing
 "CHRtFlo_Sys_T_CopyRm_C" = 183.1574   $ Sizing
 "CHRtFlo_Sys_T_Cordr_C" = 903.0074   $ Sizing
 "CHRtFlo_Sys_T_Cordr_E" = 374.1715   $ Sizing
 "CHRtFlo_Sys_T_Cordr_N" = 238.8949   $ Sizing
 "CHRtFlo_Sys_T_Cordr_S" = 388.9153   $ Sizing
 "CHRtFlo_Sys_T_Cordr_W" = 402.0547   $ Sizing
 "CHRtFlo_Sys_T_LobWait_C" = 611.9745   $ Sizing
 "CHRtFlo_Sys_T_MechElec_C" = 252.4795   $ Sizing
 "CHRtFlo_Sys_T_OfficeOpn_C" = 2091.122   $ Sizing
 "CHRtFlo_Sys_T_OfficeOpn_E" = 2649.425   $ Sizing
 "CHRtFlo_Sys_T_OfficeOpn_N" = 1662.772   $ Sizing
 "CHRtFlo_Sys_T_OfficeOpn_S" = 2801.448   $ Sizing
 "CHRtFlo_Sys_T_OfficeOpn_W" = 2754.808   $ Sizing
 "CHRtFlo_Sys_T_OfficeSm_C" = 300.3702   $ Sizing
 "CHRtFlo_Sys_T_OfficeSm_E" = 2026.801   $ Sizing
 "CHRtFlo_Sys_T_OfficeSm_N" = 1123.27   $ Sizing
 "CHRtFlo_Sys_T_OfficeSm_S" = 2157.926   $ Sizing
 "CHRtFlo_Sys_T_OfficeSm_W" = 2075.867   $ Sizing
 "CHRtFlo_Sys_T_Restrm_C" = 212.9946   $ Sizing
 "CHRtFlo_Sys_T_StorSm_C" = 335.8768   $ Sizing
 "CRtdFlo_Sys_L_Break_C" = 589.4182   $ Sizing
 "CRtdFlo_Sys_L_Conf_C" = 580.429   $ Sizing
 "CRtdFlo_Sys_L_CopyRm_C" = 190.5642   $ Sizing
 "CRtdFlo_Sys_L_Cordr_C" = 717.5604   $ Sizing
 "CRtdFlo_Sys_L_Cordr_E" = 330.6152   $ Sizing
 "CRtdFlo_Sys_L_Cordr_N" = 215.5584   $ Sizing
 "CRtdFlo_Sys_L_Cordr_S" = 327.5429   $ Sizing
 "CRtdFlo_Sys_L_Cordr_W" = 375.6458   $ Sizing
 "CRtdFlo_Sys_L_LobWait_C" = 599.767   $ Sizing
 "CRtdFlo_Sys_L_MechElec_C" = 131.1796   $ Sizing
 "CRtdFlo_Sys_L_OfficeOpn_C" = 2007.744   $ Sizing
 "CRtdFlo_Sys_L_OfficeOpn_E" = 2316.948   $ Sizing
 "CRtdFlo_Sys_L_OfficeOpn_N" = 1530.503   $ Sizing
 "CRtdFlo_Sys_L_OfficeOpn_S" = 2323.813   $ Sizing
 "CRtdFlo_Sys_L_OfficeOpn_W" = 2668.278   $ Sizing
 "CRtdFlo_Sys_L_OfficeSm_C" = 253.7791   $ Sizing
 "CRtdFlo_Sys_L_OfficeSm_E" = 1704.224   $ Sizing
 "CRtdFlo_Sys_L_OfficeSm_N" = 1033.62   $ Sizing
 "CRtdFlo_Sys_L_OfficeSm_S" = 1724.017   $ Sizing
 "CRtdFlo_Sys_L_OfficeSm_W" = 1969.281   $ Sizing
 "CRtdFlo_Sys_L_Restrm_C" = 100.2762   $ Sizing
 "CRtdFlo_Sys_L_StorSm_C" = 390.6448   $ Sizing
 "CRtdFlo_Sys_M_Break_C" = 4746.393   $ Sizing
 "CRtdFlo_Sys_M_Conf_C" = 4623.432   $ Sizing
 "CRtdFlo_Sys_M_CopyRm_C" = 1482.739   $ Sizing
 "CRtdFlo_Sys_M_Cordr_C" = 7358.323   $ Sizing
 "CRtdFlo_Sys_M_Cordr_E" = 2952.774   $ Sizing
 "CRtdFlo_Sys_M_Cordr_N" = 1873.024   $ Sizing
 "CRtdFlo_Sys_M_Cordr_S" = 2883.678   $ Sizing
 "CRtdFlo_Sys_M_Cordr_W" = 3192.011   $ Sizing
 "CRtdFlo_Sys_M_LobWait_C" = 4841.143   $ Sizing
 "CRtdFlo_Sys_M_MechElec_C" = 1337.752   $ Sizing
 "CRtdFlo_Sys_M_OfficeOpn_C" = 16169.38   $ Sizing
 "CRtdFlo_Sys_M_OfficeOpn_E" = 19952.09   $ Sizing
 "CRtdFlo_Sys_M_OfficeOpn_N" = 12964.65   $ Sizing
 "CRtdFlo_Sys_M_OfficeOpn_S" = 19912.29   $ Sizing
 "CRtdFlo_Sys_M_OfficeOpn_W" = 22099.1   $ Sizing
 "CRtdFlo_Sys_M_OfficeSm_C" = 2112.536   $ Sizing
 "CRtdFlo_Sys_M_OfficeSm_E" = 14517.6   $ Sizing
 "CRtdFlo_Sys_M_OfficeSm_N" = 8680.806   $ Sizing
 "CRtdFlo_Sys_M_OfficeSm_S" = 14648.08   $ Sizing
 "CRtdFlo_Sys_M_OfficeSm_W" = 16280.02   $ Sizing
 "CRtdFlo_Sys_M_Restrm_C" = 859.0676   $ Sizing
 "CRtdFlo_Sys_M_StorSm_C" = 3427.03   $ Sizing
 "CRtdFlo_Sys_T_Break_C" = 587.4932   $ Sizing
 "CRtdFlo_Sys_T_Conf_C" = 571.5013   $ Sizing
 "CRtdFlo_Sys_T_CopyRm_C" = 183.1574   $ Sizing
 "CRtdFlo_Sys_T_Cordr_C" = 881.8148   $ Sizing
 "CRtdFlo_Sys_T_Cordr_E" = 364.9214   $ Sizing
 "CRtdFlo_Sys_T_Cordr_N" = 238.8949   $ Sizing
 "CRtdFlo_Sys_T_Cordr_S" = 353.6695   $ Sizing
 "CRtdFlo_Sys_T_Cordr_W" = 402.0547   $ Sizing
 "CRtdFlo_Sys_T_LobWait_C" = 611.9745   $ Sizing
 "CRtdFlo_Sys_T_MechElec_C" = 197.8117   $ Sizing
 "CRtdFlo_Sys_T_OfficeOpn_C" = 2091.122   $ Sizing
 "CRtdFlo_Sys_T_OfficeOpn_E" = 2472.05   $ Sizing
 "CRtdFlo_Sys_T_OfficeOpn_N" = 1662.772   $ Sizing
 "CRtdFlo_Sys_T_OfficeOpn_S" = 2467.721   $ Sizing
 "CRtdFlo_Sys_T_OfficeOpn_W" = 2754.808   $ Sizing
 "CRtdFlo_Sys_T_OfficeSm_C" = 260.0125   $ Sizing
 "CRtdFlo_Sys_T_OfficeSm_E" = 1847.243   $ Sizing
 "CRtdFlo_Sys_T_OfficeSm_N" = 1123.27   $ Sizing
 "CRtdFlo_Sys_T_OfficeSm_S" = 1839.831   $ Sizing
 "CRtdFlo_Sys_T_OfficeSm_W" = 2062.968   $ Sizing
 "CRtdFlo_Sys_T_Restrm_C" = 166.8029   $ Sizing
 "CRtdFlo_Sys_T_StorSm_C" = 334.9373   $ Sizing
 "CSupFlo_Sys_L_Break_C" = 589.4182   $ Sizing
 "CSupFlo_Sys_L_Conf_C" = 580.429   $ Sizing
 "CSupFlo_Sys_L_CopyRm_C" = 190.5642   $ Sizing
 "CSupFlo_Sys_L_Cordr_C" = 717.5604   $ Sizing
 "CSupFlo_Sys_L_Cordr_E" = 330.6152   $ Sizing
 "CSupFlo_Sys_L_Cordr_N" = 215.5584   $ Sizing
 "CSupFlo_Sys_L_Cordr_S" = 327.5429   $ Sizing
 "CSupFlo_Sys_L_Cordr_W" = 375.6458   $ Sizing
 "CSupFlo_Sys_L_LobWait_C" = 599.767   $ Sizing
 "CSupFlo_Sys_L_MechElec_C" = 131.1796   $ Sizing
 "CSupFlo_Sys_L_OfficeOpn_C" = 2007.744   $ Sizing
 "CSupFlo_Sys_L_OfficeOpn_E" = 2316.948   $ Sizing
 "CSupFlo_Sys_L_OfficeOpn_N" = 1530.503   $ Sizing
 "CSupFlo_Sys_L_OfficeOpn_S" = 2323.813   $ Sizing
 "CSupFlo_Sys_L_OfficeOpn_W" = 2668.278   $ Sizing
 "CSupFlo_Sys_L_OfficeSm_C" = 253.7791   $ Sizing
 "CSupFlo_Sys_L_OfficeSm_E" = 1704.224   $ Sizing
 "CSupFlo_Sys_L_OfficeSm_N" = 1033.62   $ Sizing
 "CSupFlo_Sys_L_OfficeSm_S" = 1724.017   $ Sizing
 "CSupFlo_Sys_L_OfficeSm_W" = 1969.281   $ Sizing
 "CSupFlo_Sys_L_Restrm_C" = 100.2762   $ Sizing
 "CSupFlo_Sys_L_StorSm_C" = 390.6448   $ Sizing
 "CSupFlo_Sys_M_Break_C" = 4746.393   $ Sizing
 "CSupFlo_Sys_M_Conf_C" = 4623.432   $ Sizing
 "CSupFlo_Sys_M_CopyRm_C" = 1482.739   $ Sizing
 "CSupFlo_Sys_M_Cordr_C" = 7358.323   $ Sizing
 "CSupFlo_Sys_M_Cordr_E" = 2952.774   $ Sizing
 "CSupFlo_Sys_M_Cordr_N" = 1873.024   $ Sizing
 "CSupFlo_Sys_M_Cordr_S" = 2883.678   $ Sizing
 "CSupFlo_Sys_M_Cordr_W" = 3192.011   $ Sizing
 "CSupFlo_Sys_M_LobWait_C" = 4841.143   $ Sizing
 "CSupFlo_Sys_M_MechElec_C" = 1337.752   $ Sizing
 "CSupFlo_Sys_M_OfficeOpn_C" = 16169.38   $ Sizing
 "CSupFlo_Sys_M_OfficeOpn_E" = 19952.09   $ Sizing
 "CSupFlo_Sys_M_OfficeOpn_N" = 12964.65   $ Sizing
 "CSupFlo_Sys_M_OfficeOpn_S" = 19912.29   $ Sizing
 "CSupFlo_Sys_M_OfficeOpn_W" = 22099.1   $ Sizing
 "CSupFlo_Sys_M_OfficeSm_C" = 2112.536   $ Sizing
 "CSupFlo_Sys_M_OfficeSm_E" = 14517.6   $ Sizing
 "CSupFlo_Sys_M_OfficeSm_N" = 8680.806   $ Sizing
 "CSupFlo_Sys_M_OfficeSm_S" = 14648.08   $ Sizing
 "CSupFlo_Sys_M_OfficeSm_W" = 16280.02   $ Sizing
 "CSupFlo_Sys_M_Restrm_C" = 859.0676   $ Sizing
 "CSupFlo_Sys_M_StorSm_C" = 3427.03   $ Sizing
 "CSupFlo_Sys_T_Break_C" = 587.4932   $ Sizing
 "CSupFlo_Sys_T_Conf_C" = 571.5013   $ Sizing
 "CSupFlo_Sys_T_CopyRm_C" = 183.1574   $ Sizing
 "CSupFlo_Sys_T_Cordr_C" = 881.8148   $ Sizing
 "CSupFlo_Sys_T_Cordr_E" = 364.9214   $ Sizing
 "CSupFlo_Sys_T_Cordr_N" = 238.8949   $ Sizing
 "CSupFlo_Sys_T_Cordr_S" = 353.6695   $ Sizing
 "CSupFlo_Sys_T_Cordr_W" = 402.0547   $ Sizing
 "CSupFlo_Sys_T_LobWait_C" = 611.9745   $ Sizing
 "CSupFlo_Sys_T_MechElec_C" = 197.8117   $ Sizing
 "CSupFlo_Sys_T_OfficeOpn_C" = 2091.122   $ Sizing
 "CSupFlo_Sys_T_OfficeOpn_E" = 2472.05   $ Sizing
 "CSupFlo_Sys_T_OfficeOpn_N" = 1662.772   $ Sizing
 "CSupFlo_Sys_T_OfficeOpn_S" = 2467.721   $ Sizing
 "CSupFlo_Sys_T_OfficeOpn_W" = 2754.808   $ Sizing
 "CSupFlo_Sys_T_OfficeSm_C" = 260.0125   $ Sizing
 "CSupFlo_Sys_T_OfficeSm_E" = 1847.243   $ Sizing
 "CSupFlo_Sys_T_OfficeSm_N" = 1123.27   $ Sizing
 "CSupFlo_Sys_T_OfficeSm_S" = 1839.831   $ Sizing
 "CSupFlo_Sys_T_OfficeSm_W" = 2062.968   $ Sizing
 "CSupFlo_Sys_T_Restrm_C" = 166.8029   $ Sizing
 "CSupFlo_Sys_T_StorSm_C" = 334.9373   $ Sizing
 "ClCap_Sys_L_Break_C" = 19950.81   $ Sizing
 "ClCap_Sys_L_Conf_C" = 25004.69   $ Sizing
 "ClCap_Sys_L_CopyRm_C" = 6450.277   $ Sizing
 "ClCap_Sys_L_Cordr_C" = 24288.2   $ Sizing
 "ClCap_Sys_L_Cordr_E" = 11190.77   $ Sizing
 "ClCap_Sys_L_Cordr_N" = 7296.286   $ Sizing
 "ClCap_Sys_L_Cordr_S" = 11086.77   $ Sizing
 "ClCap_Sys_L_Cordr_W" = 12714.98   $ Sizing
 "ClCap_Sys_L_LobWait_C" = 20301.1   $ Sizing
 "ClCap_Sys_L_MechElec_C" = 4440.208   $ Sizing
 "ClCap_Sys_L_OfficeOpn_C" = 67958.73   $ Sizing
 "ClCap_Sys_L_OfficeOpn_E" = 78424.76   $ Sizing
 "ClCap_Sys_L_OfficeOpn_N" = 51804.93   $ Sizing
 "ClCap_Sys_L_OfficeOpn_S" = 78657.13   $ Sizing
 "ClCap_Sys_L_OfficeOpn_W" = 90316.7   $ Sizing
 "ClCap_Sys_L_OfficeSm_C" = 8589.991   $ Sizing
 "ClCap_Sys_L_OfficeSm_E" = 57685.1   $ Sizing
 "ClCap_Sys_L_OfficeSm_N" = 34986.29   $ Sizing
 "ClCap_Sys_L_OfficeSm_S" = 58355.05   $ Sizing
 "ClCap_Sys_L_OfficeSm_W" = 66656.82   $ Sizing
 "ClCap_Sys_L_Restrm_C" = 3394.181   $ Sizing
 "ClCap_Sys_L_StorSm_C" = 13222.67   $ Sizing
 "ClCap_Sys_M_Break_C" = 160657.4   $ Sizing
 "ClCap_Sys_M_Conf_C" = 199175.9   $ Sizing
 "ClCap_Sys_M_CopyRm_C" = 50188.19   $ Sizing
 "ClCap_Sys_M_Cordr_C" = 249066.8   $ Sizing
 "ClCap_Sys_M_Cordr_E" = 99946.41   $ Sizing
 "ClCap_Sys_M_Cordr_N" = 63398.7   $ Sizing
 "ClCap_Sys_M_Cordr_S" = 97607.61   $ Sizing
 "ClCap_Sys_M_Cordr_W" = 108044.2   $ Sizing
 "ClCap_Sys_M_LobWait_C" = 163864.5   $ Sizing
 "ClCap_Sys_M_MechElec_C" = 45280.63   $ Sizing
 "ClCap_Sys_M_OfficeOpn_C" = 547306.1   $ Sizing
 "ClCap_Sys_M_OfficeOpn_E" = 675344.4   $ Sizing
 "ClCap_Sys_M_OfficeOpn_N" = 438831.4   $ Sizing
 "ClCap_Sys_M_OfficeOpn_S" = 673997.2   $ Sizing
 "ClCap_Sys_M_OfficeOpn_W" = 748017.3   $ Sizing
 "ClCap_Sys_M_OfficeSm_C" = 71505.78   $ Sizing
 "ClCap_Sys_M_OfficeSm_E" = 491396.3   $ Sizing
 "ClCap_Sys_M_OfficeSm_N" = 293830.6   $ Sizing
 "ClCap_Sys_M_OfficeSm_S" = 495812.7   $ Sizing
 "ClCap_Sys_M_OfficeSm_W" = 551051.1   $ Sizing
 "ClCap_Sys_M_Restrm_C" = 29077.98   $ Sizing
 "ClCap_Sys_M_StorSm_C" = 115999.1   $ Sizing
 "ClCap_Sys_T_Break_C" = 19885.65   $ Sizing
 "ClCap_Sys_T_Conf_C" = 24620.09   $ Sizing
 "ClCap_Sys_T_CopyRm_C" = 6199.567   $ Sizing
 "ClCap_Sys_T_Cordr_C" = 29847.94   $ Sizing
 "ClCap_Sys_T_Cordr_E" = 12351.97   $ Sizing
 "ClCap_Sys_T_Cordr_N" = 8086.188   $ Sizing
 "ClCap_Sys_T_Cordr_S" = 11971.12   $ Sizing
 "ClCap_Sys_T_Cordr_W" = 13608.87   $ Sizing
 "ClCap_Sys_T_LobWait_C" = 20714.3   $ Sizing
 "ClCap_Sys_T_MechElec_C" = 6695.59   $ Sizing
 "ClCap_Sys_T_OfficeOpn_C" = 70780.95   $ Sizing
 "ClCap_Sys_T_OfficeOpn_E" = 83674.72   $ Sizing
 "ClCap_Sys_T_OfficeOpn_N" = 56282.02   $ Sizing
 "ClCap_Sys_T_OfficeOpn_S" = 83528.17   $ Sizing
 "ClCap_Sys_T_OfficeOpn_W" = 93245.58   $ Sizing
 "ClCap_Sys_T_OfficeSm_C" = 8800.983   $ Sizing
 "ClCap_Sys_T_OfficeSm_E" = 62526.05   $ Sizing
 "ClCap_Sys_T_OfficeSm_N" = 38020.79   $ Sizing
 "ClCap_Sys_T_OfficeSm_S" = 62275.17   $ Sizing
 "ClCap_Sys_T_OfficeSm_W" = 69827.96   $ Sizing
 "ClCap_Sys_T_Restrm_C" = 5645.995   $ Sizing
 "ClCap_Sys_T_StorSm_C" = 11337.06   $ Sizing
 "HtCap_Sys_L_Break_C" = -32919.79   $ Sizing
 "HtCap_Sys_L_Conf_C" = -33053.03   $ Sizing
 "HtCap_Sys_L_CopyRm_C" = -12176.48   $ Sizing
 "HtCap_Sys_L_Cordr_C" = -31302.42   $ Sizing
 "HtCap_Sys_L_Cordr_E" = -12861.24   $ Sizing
 "HtCap_Sys_L_Cordr_N" = -8402.495   $ Sizing
 "HtCap_Sys_L_Cordr_S" = -12832.76   $ Sizing
 "HtCap_Sys_L_Cordr_W" = -13021.78   $ Sizing
 "HtCap_Sys_L_LobWait_C" = -31678.33   $ Sizing
 "HtCap_Sys_L_MechElec_C" = -6718.267   $ Sizing
 "HtCap_Sys_L_OfficeOpn_C" = -79876.95   $ Sizing
 "HtCap_Sys_L_OfficeOpn_E" = -90399.64   $ Sizing
 "HtCap_Sys_L_OfficeOpn_N" = -56128.68   $ Sizing
 "HtCap_Sys_L_OfficeOpn_S" = -90011.27   $ Sizing
 "HtCap_Sys_L_OfficeOpn_W" = -91445.66   $ Sizing
 "HtCap_Sys_L_OfficeSm_C" = -10774.18   $ Sizing
 "HtCap_Sys_L_OfficeSm_E" = -68886.19   $ Sizing
 "HtCap_Sys_L_OfficeSm_N" = -37546.12   $ Sizing
 "HtCap_Sys_L_OfficeSm_S" = -69930.29   $ Sizing
 "HtCap_Sys_L_OfficeSm_W" = -71146.28   $ Sizing
 "HtCap_Sys_L_Restrm_C" = -7831.643   $ Sizing
 "HtCap_Sys_L_StorSm_C" = -19406.11   $ Sizing
 "HtCap_Sys_M_Break_C" = -251356.3   $ Sizing
 "HtCap_Sys_M_Conf_C" = -246110.8   $ Sizing
 "HtCap_Sys_M_CopyRm_C" = -83043.21   $ Sizing
 "HtCap_Sys_M_Cordr_C" = -329187.5   $ Sizing
 "HtCap_Sys_M_Cordr_E" = -113024.8   $ Sizing
 "HtCap_Sys_M_Cordr_N" = -70811.55   $ Sizing
 "HtCap_Sys_M_Cordr_S" = -113172.1   $ Sizing
 "HtCap_Sys_M_Cordr_W" = -110633.3   $ Sizing
 "HtCap_Sys_M_LobWait_C" = -226930.2   $ Sizing
 "HtCap_Sys_M_MechElec_C" = -65298.72   $ Sizing
 "HtCap_Sys_M_OfficeOpn_C" = -667980.3   $ Sizing
 "HtCap_Sys_M_OfficeOpn_E" = -758472.8   $ Sizing
 "HtCap_Sys_M_OfficeOpn_N" = -467029.2   $ Sizing
 "HtCap_Sys_M_OfficeOpn_S" = -770763.4   $ Sizing
 "HtCap_Sys_M_OfficeOpn_W" = -762240.1   $ Sizing
 "HtCap_Sys_M_OfficeSm_C" = -100811.9   $ Sizing
 "HtCap_Sys_M_OfficeSm_E" = -575063.3   $ Sizing
 "HtCap_Sys_M_OfficeSm_N" = -310718.6   $ Sizing
 "HtCap_Sys_M_OfficeSm_S" = -600247.6   $ Sizing
 "HtCap_Sys_M_OfficeSm_W" = -589627.9   $ Sizing
 "HtCap_Sys_M_Restrm_C" = -67651.83   $ Sizing
 "HtCap_Sys_M_StorSm_C" = -165024.8   $ Sizing
 "HtCap_Sys_T_Break_C" = -33812.45   $ Sizing
 "HtCap_Sys_T_Conf_C" = -32941.15   $ Sizing
 "HtCap_Sys_T_CopyRm_C" = -11394.91   $ Sizing
 "HtCap_Sys_T_Cordr_C" = -41136.61   $ Sizing
 "HtCap_Sys_T_Cordr_E" = -14660.39   $ Sizing
 "HtCap_Sys_T_Cordr_N" = -10499.84   $ Sizing
 "HtCap_Sys_T_Cordr_S" = -15149.05   $ Sizing
 "HtCap_Sys_T_Cordr_W" = -15771.82   $ Sizing
 "HtCap_Sys_T_LobWait_C" = -32526.36   $ Sizing
 "HtCap_Sys_T_MechElec_C" = -9483.036   $ Sizing
 "HtCap_Sys_T_OfficeOpn_C" = -92585.48   $ Sizing
 "HtCap_Sys_T_OfficeOpn_E" = -98384.55   $ Sizing
 "HtCap_Sys_T_OfficeOpn_N" = -69349.4   $ Sizing
 "HtCap_Sys_T_OfficeOpn_S" = -102814.6   $ Sizing
 "HtCap_Sys_T_OfficeOpn_W" = -101899.2   $ Sizing
 "HtCap_Sys_T_OfficeSm_C" = -12746.66   $ Sizing
 "HtCap_Sys_T_OfficeSm_E" = -75801.39   $ Sizing
 "HtCap_Sys_T_OfficeSm_N" = -45732.95   $ Sizing
 "HtCap_Sys_T_OfficeSm_S" = -77343.48   $ Sizing
 "HtCap_Sys_T_OfficeSm_W" = -75713.52   $ Sizing
 "HtCap_Sys_T_Restrm_C" = -9087.151   $ Sizing
 "HtCap_Sys_T_StorSm_C" = -17952.64   $ Sizing
..

##include Templates\OfL_DX_SZ.inp
END ..
COMPUTE ..
STOP ..
