INPUT ..

##fileprefix C:\Users\jglasskatz\MASControl3\
##set1 IsSizing FALSE
##set1 CoolType WCH
##set1 HeatType ELECTRIC
##set1 EU_HrRepVar 1
##set1 BldgVint 1975
##set1 BldgLoc CZ01

 ##set1 mChlrCap_fT DEFAULT   $ IP Tech: ChlrScrW-150to299-0.79kWpTon
 ##set1 mChlrEIR_fPLR DEFAULT   $ IP Tech: ChlrScrW-150to299-0.79kWpTon
 ##set1 mChlrEIR_fT DEFAULT   $ IP Tech: ChlrScrW-150to299-0.79kWpTon
 ##set1 mChlrType Screw   $ IP Tech: ChlrScrW-150to299-0.79kWpTon
 ##set1 mCondType Water   $ IP Tech: ChlrScrW-150to299-0.79kWpTon
 ##set1 mSetupLdChlr FALSE   $ IP Tech: ChlrScrW-150to299-0.79kWpTon
 ##set1 mCHW_FlowCtrl Const   $ IP Tech: ChwFlowCtrlCst

PARAMETER
 "AltFactor" = 1.00753   $ IP Non-Tech
 "BldgEconoFlag" = 1   $ IP Non-Tech
 "BlrPrimLp" = BlrPrimLoop   $ IP Non-Tech
 "Break_EWSF" = 1   $ IP Non-Tech
 "Break_LWSF" = 1.1   $ IP Non-Tech
 "CDD_DBHi10" = 65   $ IP Non-Tech
 "CDD_DBHi7" = 68   $ IP Non-Tech
 "CDD_DBHi8" = 66   $ IP Non-Tech
 "CDD_DBHi9" = 77   $ IP Non-Tech
 "CDD_DBRange10" = 17   $ IP Non-Tech
 "CDD_DBRange7" = 11   $ IP Non-Tech
 "CDD_DBRange8" = 10   $ IP Non-Tech
 "CDD_DBRange9" = 29   $ IP Non-Tech
 "CDD_Day10" = 15   $ IP Non-Tech
 "CDD_Day7" = 16   $ IP Non-Tech
 "CDD_Day8" = 20   $ IP Non-Tech
 "CDD_Day9" = 17   $ IP Non-Tech
 "CDD_HrHi10" = 12   $ IP Non-Tech
 "CDD_HrHi7" = 12   $ IP Non-Tech
 "CDD_HrHi8" = 13   $ IP Non-Tech
 "CDD_HrHi9" = 17   $ IP Non-Tech
 "CDD_HrLo10" = 6   $ IP Non-Tech
 "CDD_HrLo7" = 3   $ IP Non-Tech
 "CDD_HrLo8" = 8   $ IP Non-Tech
 "CDD_HrLo9" = 4   $ IP Non-Tech
 "CDD_WB10" = 57.53039551   $ IP Non-Tech
 "CDD_WB7" = 59.29250717   $ IP Non-Tech
 "CDD_WB8" = 60.75350189   $ IP Non-Tech
 "CDD_WB9" = 61.08643341   $ IP Non-Tech
 "CZ_Category" = Tem   $ IP Non-Tech
 "ChwDesignDT" = 12   $ IP Non-Tech
 "ChwPipeHead" = 62   $ IP Non-Tech
 "ChwRetDT" = 0.038   $ IP Non-Tech
 "ChwSupDT" = 0.063   $ IP Non-Tech
 "ChwT" = 44   $ IP Non-Tech
 "ChwVintEconoFlag" = 1   $ IP Non-Tech
 "Conference_EWSF" = 1.15   $ IP Non-Tech
 "Conference_LWSF" = 1.4   $ IP Non-Tech
 "CoolSetT" = 55   $ IP Non-Tech
 "CoolType" = WCH   $ IP Non-Tech
 "CopyRoom_EWSF" = 1.725   $ IP Non-Tech
 "CopyRoom_LWSF" = 1.3   $ IP Non-Tech
 "CorridorStairway_EWSF" = 0.23   $ IP Non-Tech
 "CorridorStairway_LWSF" = 0.6   $ IP Non-Tech
 "CwPipeHead" = 20   $ IP Non-Tech
 "DesCoolT" = 75   $ IP Non-Tech
 "DesHeatT" = 73   $ IP Non-Tech
 "EconoEnthLimit" = 28   $ IP Non-Tech
 "EconoTempLimit" = 70   $ IP Non-Tech
 "Elevation" = 203   $ IP Non-Tech
 "HDD_CloudAmt1" = 0   $ IP Non-Tech
 "HDD_DBHi1" = 53   $ IP Non-Tech
 "HDD_DBRange1" = 20   $ IP Non-Tech
 "HDD_Day1" = 15   $ IP Non-Tech
 "HDD_HrHi1" = 14   $ IP Non-Tech
 "HDD_HrLo1" = 6   $ IP Non-Tech
 "HDD_WB1" = 42.3   $ IP Non-Tech
 "HDD_WindSpd1" = 12.7   $ IP Non-Tech
 "HeatSrc" = ELECTRIC   $ IP Non-Tech
 "HeatSrcTU" = ELECTRIC   $ IP Non-Tech
 "HeatType" = Elec   $ IP Non-Tech
 "HeatTypeTU" = ELECTRIC   $ IP Non-Tech
 "HwDesignDT" = 30   $ IP Non-Tech
 "HwPipeHead" = 40   $ IP Non-Tech
 "IndoorFanMode" = CONTINUOUS   $ IP Non-Tech
 "KT_TransferAir" = No   $ IP Non-Tech
 "Latitude" = 40.8   $ IP Non-Tech
 "LobbyWaiting_EWSF" = 0.5375   $ IP Non-Tech
 "LobbyWaiting_LWSF" = 1.3   $ IP Non-Tech
 "Longitude" = 124.2   $ IP Non-Tech
 "LtgMsrApplic" = ALL   $ Msr TechID: NonResLtgRefMsr-HB
 "LtgSav_CFL" = 0   $ Msr TechID: NonResLtgRefMsr-HB
 "LtgSav_EX" = 0   $ Msr TechID: NonResLtgRefMsr-HB
 "LtgSav_HB" = 0.3   $ Msr TechID: NonResLtgRefMsr-HB
 "LtgSav_LF" = 0   $ Msr TechID: NonResLtgRefMsr-HB
 "LtgSav_SP" = 0   $ Msr TechID: NonResLtgRefMsr-HB
 "MZFanMechEff" = 0.68   $ IP Non-Tech
 "MZHasRetFan" = TRUE   $ IP Non-Tech
 "MZ_RFanWPerCfm" = 0.37   $ IP Non-Tech
 "MZ_SFanWPerCfm" = 0.71   $ IP Non-Tech
 "MaxSupT_MZ" = 95   $ IP Non-Tech
 "MaxSupT_SZ" = 105   $ IP Non-Tech
 "MaxSupT_TU" = 105   $ IP Non-Tech
 "MechElecRoom_EWSF" = 0.23   $ IP Non-Tech
 "MechElecRoom_LWSF" = 0.7   $ IP Non-Tech
 "MinCfmPerSF" = 0.4   $ IP Non-Tech
 "MinSupT" = 55   $ IP Non-Tech
 "OccCoolT" = 76   $ IP Non-Tech
 "OccHeatT" = 72   $ IP Non-Tech
 "OfficeOpen_EWSF" = 1.725   $ IP Non-Tech
 "OfficeOpen_LWSF" = 1.2   $ IP Non-Tech
 "OfficeSmall_EWSF" = 1.725   $ IP Non-Tech
 "OfficeSmall_LWSF" = 1.3   $ IP Non-Tech
 "PkgDxVintEconoFlag" = 0   $ IP Non-Tech
 "ReheatDeltaT" = 39   $ IP Non-Tech
 "Restroom_EWSF" = 0.23   $ IP Non-Tech
 "Restroom_LWSF" = 0.6   $ IP Non-Tech
 "SZFanMechEff" = 0.54   $ IP Non-Tech
 "SZHasRetFan" = TRUE   $ IP Non-Tech
 "SZ_Is_2Spd" = FALSE   $ IP Non-Tech
 "SZ_SFanWPerCfm" = 0.46   $ IP Non-Tech
 "StorageSmlCond_EWSF" = 0.23   $ IP Non-Tech
 "StorageSmlCond_LWSF" = 0.6   $ IP Non-Tech
 "T24GlzTbl" = CZTbl   $ IP Non-Tech
 "TermUnitFanMechEff" = 1   $ IP Non-Tech
 "TermUnitFanMode" = INTERMITTENT   $ IP Non-Tech
 "TermUnitFanWPerCfm" = 0.175   $ IP Non-Tech
 "TwrEIR" = 0.011   $ IP Non-Tech
 "TwrPipeHead" = 10   $ IP Non-Tech
 "TwrSetpt" = 80   $ IP Non-Tech
 "TwrStaticHead" = 15   $ IP Non-Tech
 "UnocCoolT" = 86   $ IP Non-Tech
 "UnocHeatT" = 62   $ IP Non-Tech
 "VAVMinFlow" = 0.3   $ IP Non-Tech
 "WlhpVintEconoFlag" = 0   $ IP Non-Tech
 "EconoCtrl" = OA-TEMP   $ IP Tech: AirEcono-OATemp
 "MaxOAFrac" = 0.85   $ IP Tech: AirEcono-OATemp
 "UseEconoVintApplic" = FALSE   $ IP Tech: AirEcono-OATemp
 "ChlrCapRange" = 150to299   $ IP Tech: ChlrScrW-150to299-0.79kWpTon
 "ChlrEff" = 0.79   $ IP Tech: ChlrScrW-150to299-0.79kWpTon
 "ChlrType" = Screw   $ IP Tech: ChlrScrW-150to299-0.79kWpTon
 "ChlrVSD" = NO   $ IP Tech: ChlrScrW-150to299-0.79kWpTon
 "CmpPerCkt" = NA   $ IP Tech: ChlrScrW-150to299-0.79kWpTon
 "CondRelief" = FALSE   $ IP Tech: ChlrScrW-150to299-0.79kWpTon
 "CondType" = Water   $ IP Tech: ChlrScrW-150to299-0.79kWpTon
 "EffUnits" = kWpTon   $ IP Tech: ChlrScrW-150to299-0.79kWpTon
 "IPLV" = -99   $ IP Tech: ChlrScrW-150to299-0.79kWpTon
 "CHW_FlowCtrl" = Const   $ IP Tech: ChwFlowCtrlCst
 "CHW_HdSensLoc" = AT-COILS   $ IP Tech: ChwFlowCtrlCst
 "CHW_HdSptCtrl" = FIXED   $ IP Tech: ChwFlowCtrlCst
 "CHWP_Encl" = Any   $ IP Tech: ChwPumpMtrEff-HI
 "CHWP_MotClass" = HI-EFF   $ IP Tech: ChwPumpMtrEff-HI
 "CHWP_MotHP" = Any   $ IP Tech: ChwPumpMtrEff-HI
 "CHWP_NEMA_DC" =    $ IP Tech: ChwPumpMtrEff-HI
 "CHWP_RPM" = Any   $ IP Tech: ChwPumpMtrEff-HI
 "CHWP_Volt" =    $ IP Tech: ChwPumpMtrEff-HI
 "CHW_MaxT" = 54   $ IP Tech: ChwTempCtrlReset
 "CHW_TempCtrl" = LOAD-RESET   $ IP Tech: ChwTempCtrlReset
 "DuctDT" = 2   $ IP Tech: ComDuctInsul-2
 "DuctAirLoss" = 0   $ IP Tech: ComDuctLeak-0
 "DuctLossOAFrac" = 0   $ IP Tech: ComDuctLeak-0
 "ComRoofInsCalc" = FromUo   $ IP Tech: ComRoofIns-Hvy-0.06
 "ComRoofInsR" = -999   $ IP Tech: ComRoofIns-Hvy-0.06
 "ComRoofUo" = 0.06   $ IP Tech: ComRoofIns-Hvy-0.06
 "ComEWInsCalc" = FromUo   $ IP Tech: ComWallIns-MFrm-0.18
 "ComEWInsR" = -999   $ IP Tech: ComWallIns-MFrm-0.18
 "ComEWUo" = 0.18   $ IP Tech: ComWallIns-MFrm-0.18
 "CWP_Encl" = Any   $ IP Tech: CwPumpMtrEff-HI
 "CWP_MotClass" = HI-EFF   $ IP Tech: CwPumpMtrEff-HI
 "CWP_MotHP" = Any   $ IP Tech: CwPumpMtrEff-HI
 "CWP_NEMA_DC" = Any   $ IP Tech: CwPumpMtrEff-HI
 "CWP_RPM" = Any   $ IP Tech: CwPumpMtrEff-HI
 "CWP_Volt" = Any   $ IP Tech: CwPumpMtrEff-HI
 "MotorClass" = HI-EFF   $ IP Tech: ExhFanMtr-High
 "ComN_SHGC" = 0.82   $ IP Tech: NResWin-ComN-1.23-0.82
 "ComN_UFactor" = 1.23   $ IP Tech: NResWin-ComN-1.23-0.82
 "ComN_VisTrans" = 0.9   $ IP Tech: NResWin-ComN-1.23-0.82
 "ComN_WinCode" = G1000   $ IP Tech: NResWin-ComN-1.23-0.82
 "ComN_WinFrmFrac" = 0.17   $ IP Tech: NResWin-ComN-1.23-0.82
 "ComN_WinFrmU" = 1   $ IP Tech: NResWin-ComN-1.23-0.82
 "ComO_SHGC" = 0.82   $ IP Tech: NResWin-ComO-1.23-0.82
 "ComO_UFactor" = 1.23   $ IP Tech: NResWin-ComO-1.23-0.82
 "ComO_VisTrans" = 0.9   $ IP Tech: NResWin-ComO-1.23-0.82
 "ComO_WinCode" = G1000   $ IP Tech: NResWin-ComO-1.23-0.82
 "ComO_WinFrmFrac" = 0.17   $ IP Tech: NResWin-ComO-1.23-0.82
 "ComO_WinFrmU" = 1   $ IP Tech: NResWin-ComO-1.23-0.82
 "SATempCtrl" = RESET   $ IP Tech: SATempCtrl-Reset
 "TwrFanCtrl" = TWO-SPEED-FAN   $ IP Tech: TwrFanCtrl-2sp
 "TFan_Encl" = Any   $ IP Tech: TwrFanMtrEff-HI
 "TFan_MotClass" = HI-EFF   $ IP Tech: TwrFanMtrEff-HI
 "TFan_MotHP" = Any   $ IP Tech: TwrFanMtrEff-HI
 "TFan_NEMA_DC" = Any   $ IP Tech: TwrFanMtrEff-HI
 "TFan_RPM" = Any   $ IP Tech: TwrFanMtrEff-HI
 "TFan_Volt" = Any   $ IP Tech: TwrFanMtrEff-HI
 "Twr_TempCtrl" = FIXED   $ IP Tech: TwrTempCtrl-Cst
 "FanEIR_fPLR" = "ForCurve w Inlet Vanes FPLR"   $ IP Tech: VAVCtrl-Inlet-AnyHP
 "Fan_Control" = Inlet   $ IP Tech: VAVCtrl-Inlet-AnyHP
 "Motor_Horsepower" = AnyHP   $ IP Tech: VAVCtrl-Inlet-AnyHP
 "AltAdjFactor" = 1.007532   $ Sizing
 "CAssFlo_L_Break_CZn" = 325.3352   $ Sizing
 "CAssFlo_L_Conf_CZn" = 399.3891   $ Sizing
 "CAssFlo_L_CopyRm_CZn" = 95.26108   $ Sizing
 "CAssFlo_L_Cordr_CZn" = 565.4379   $ Sizing
 "CAssFlo_L_Cordr_EZn" = 283.7028   $ Sizing
 "CAssFlo_L_Cordr_NZn" = 146.2594   $ Sizing
 "CAssFlo_L_Cordr_SZn" = 327.0893   $ Sizing
 "CAssFlo_L_Cordr_WZn" = 284.9301   $ Sizing
 "CAssFlo_L_LobWait_CZn" = 275.5261   $ Sizing
 "CAssFlo_L_MechElec_CZn" = 134.1697   $ Sizing
 "CAssFlo_L_OfficeOpn_CZn" = 1577.848   $ Sizing
 "CAssFlo_L_OfficeOpn_EZn" = 2401.256   $ Sizing
 "CAssFlo_L_OfficeOpn_NZn" = 839.4048   $ Sizing
 "CAssFlo_L_OfficeOpn_SZn" = 2584.8   $ Sizing
 "CAssFlo_L_OfficeOpn_WZn" = 2359.913   $ Sizing
 "CAssFlo_L_OfficeSm_CZn" = 193.8249   $ Sizing
 "CAssFlo_L_OfficeSm_EZn" = 1771.317   $ Sizing
 "CAssFlo_L_OfficeSm_NZn" = 528.258   $ Sizing
 "CAssFlo_L_OfficeSm_SZn" = 1957.984   $ Sizing
 "CAssFlo_L_OfficeSm_WZn" = 1760.732   $ Sizing
 "CAssFlo_L_Restrm_CZn" = 211.8611   $ Sizing
 "CAssFlo_L_StorSm_CZn" = 334.0894   $ Sizing
 "CAssFlo_M_Break_CZn" = 338.5216   $ Sizing
 "CAssFlo_M_Conf_CZn" = 420.4717   $ Sizing
 "CAssFlo_M_CopyRm_CZn" = 101.5399   $ Sizing
 "CAssFlo_M_Cordr_CZn" = 565.4379   $ Sizing
 "CAssFlo_M_Cordr_EZn" = 330.9848   $ Sizing
 "CAssFlo_M_Cordr_NZn" = 160.7331   $ Sizing
 "CAssFlo_M_Cordr_SZn" = 381.1228   $ Sizing
 "CAssFlo_M_Cordr_WZn" = 323.5441   $ Sizing
 "CAssFlo_M_LobWait_CZn" = 307.5886   $ Sizing
 "CAssFlo_M_MechElec_CZn" = 134.1697   $ Sizing
 "CAssFlo_M_OfficeOpn_CZn" = 1683.99   $ Sizing
 "CAssFlo_M_OfficeOpn_EZn" = 2541.367   $ Sizing
 "CAssFlo_M_OfficeOpn_NZn" = 983.3143   $ Sizing
 "CAssFlo_M_OfficeOpn_SZn" = 2844.949   $ Sizing
 "CAssFlo_M_OfficeOpn_WZn" = 2497.372   $ Sizing
 "CAssFlo_M_OfficeSm_CZn" = 223.2837   $ Sizing
 "CAssFlo_M_OfficeSm_EZn" = 1883.176   $ Sizing
 "CAssFlo_M_OfficeSm_NZn" = 627.7839   $ Sizing
 "CAssFlo_M_OfficeSm_SZn" = 2150.956   $ Sizing
 "CAssFlo_M_OfficeSm_WZn" = 1871.683   $ Sizing
 "CAssFlo_M_Restrm_CZn" = 211.8611   $ Sizing
 "CAssFlo_M_StorSm_CZn" = 334.0894   $ Sizing
 "CAssFlo_T_Break_CZn" = 329.3525   $ Sizing
 "CAssFlo_T_Conf_CZn" = 407.103   $ Sizing
 "CAssFlo_T_CopyRm_CZn" = 98.71535   $ Sizing
 "CAssFlo_T_Cordr_CZn" = 565.4379   $ Sizing
 "CAssFlo_T_Cordr_EZn" = 297.8421   $ Sizing
 "CAssFlo_T_Cordr_NZn" = 141.1933   $ Sizing
 "CAssFlo_T_Cordr_SZn" = 344.6745   $ Sizing
 "CAssFlo_T_Cordr_WZn" = 291.7199   $ Sizing
 "CAssFlo_T_LobWait_CZn" = 275.5261   $ Sizing
 "CAssFlo_T_MechElec_CZn" = 134.1697   $ Sizing
 "CAssFlo_T_OfficeOpn_CZn" = 1637.065   $ Sizing
 "CAssFlo_T_OfficeOpn_EZn" = 2350.806   $ Sizing
 "CAssFlo_T_OfficeOpn_NZn" = 943.7148   $ Sizing
 "CAssFlo_T_OfficeOpn_SZn" = 2635.463   $ Sizing
 "CAssFlo_T_OfficeOpn_WZn" = 2316.23   $ Sizing
 "CAssFlo_T_OfficeSm_CZn" = 213.9946   $ Sizing
 "CAssFlo_T_OfficeSm_EZn" = 1781.465   $ Sizing
 "CAssFlo_T_OfficeSm_NZn" = 605.7102   $ Sizing
 "CAssFlo_T_OfficeSm_SZn" = 2034.353   $ Sizing
 "CAssFlo_T_OfficeSm_WZn" = 1775.001   $ Sizing
 "CAssFlo_T_Restrm_CZn" = 211.8611   $ Sizing
 "CAssFlo_T_StorSm_CZn" = 334.0894   $ Sizing
 "CBF_Sys_L" = 0.04506834   $ Sizing
 "CBF_Sys_M" = 0.04504224   $ Sizing
 "CBF_Sys_T" = 0.04477065   $ Sizing
 "CHRtFlo_L_Break_CZn" = 216.6311   $ Sizing
 "CHRtFlo_L_Conf_CZn" = 281.7439   $ Sizing
 "CHRtFlo_L_CopyRm_CZn" = 88.37569   $ Sizing
 "CHRtFlo_L_Cordr_CZn" = 212.0392   $ Sizing
 "CHRtFlo_L_Cordr_EZn" = 126.6954   $ Sizing
 "CHRtFlo_L_Cordr_NZn" = 146.2594   $ Sizing
 "CHRtFlo_L_Cordr_SZn" = 98.1268   $ Sizing
 "CHRtFlo_L_Cordr_WZn" = 122.5983   $ Sizing
 "CHRtFlo_L_LobWait_CZn" = 223.8649   $ Sizing
 "CHRtFlo_L_MechElec_CZn" = 50.31363   $ Sizing
 "CHRtFlo_L_OfficeOpn_CZn" = 473.3545   $ Sizing
 "CHRtFlo_L_OfficeOpn_EZn" = 720.3767   $ Sizing
 "CHRtFlo_L_OfficeOpn_NZn" = 588.5159   $ Sizing
 "CHRtFlo_L_OfficeOpn_SZn" = 775.4401   $ Sizing
 "CHRtFlo_L_OfficeOpn_WZn" = 707.9739   $ Sizing
 "CHRtFlo_L_OfficeSm_CZn" = 58.14747   $ Sizing
 "CHRtFlo_L_OfficeSm_EZn" = 531.3951   $ Sizing
 "CHRtFlo_L_OfficeSm_NZn" = 528.258   $ Sizing
 "CHRtFlo_L_OfficeSm_SZn" = 587.3954   $ Sizing
 "CHRtFlo_L_OfficeSm_WZn" = 528.2195   $ Sizing
 "CHRtFlo_L_Restrm_CZn" = 63.55833   $ Sizing
 "CHRtFlo_L_StorSm_CZn" = 173.3632   $ Sizing
 "CHRtFlo_M_Break_CZn" = 216.6311   $ Sizing
 "CHRtFlo_M_Conf_CZn" = 281.7439   $ Sizing
 "CHRtFlo_M_CopyRm_CZn" = 88.37569   $ Sizing
 "CHRtFlo_M_Cordr_CZn" = 293.7657   $ Sizing
 "CHRtFlo_M_Cordr_EZn" = 145.1347   $ Sizing
 "CHRtFlo_M_Cordr_NZn" = 160.7331   $ Sizing
 "CHRtFlo_M_Cordr_SZn" = 114.3368   $ Sizing
 "CHRtFlo_M_Cordr_WZn" = 136.0728   $ Sizing
 "CHRtFlo_M_LobWait_CZn" = 223.8649   $ Sizing
 "CHRtFlo_M_MechElec_CZn" = 57.19551   $ Sizing
 "CHRtFlo_M_OfficeOpn_CZn" = 505.1972   $ Sizing
 "CHRtFlo_M_OfficeOpn_EZn" = 762.4102   $ Sizing
 "CHRtFlo_M_OfficeOpn_NZn" = 649.277   $ Sizing
 "CHRtFlo_M_OfficeOpn_SZn" = 853.4848   $ Sizing
 "CHRtFlo_M_OfficeOpn_WZn" = 749.2115   $ Sizing
 "CHRtFlo_M_OfficeSm_CZn" = 66.98512   $ Sizing
 "CHRtFlo_M_OfficeSm_EZn" = 564.9529   $ Sizing
 "CHRtFlo_M_OfficeSm_NZn" = 570.4081   $ Sizing
 "CHRtFlo_M_OfficeSm_SZn" = 645.2869   $ Sizing
 "CHRtFlo_M_OfficeSm_WZn" = 561.5048   $ Sizing
 "CHRtFlo_M_Restrm_CZn" = 113.2819   $ Sizing
 "CHRtFlo_M_StorSm_CZn" = 194.4676   $ Sizing
 "CHRtFlo_T_Break_CZn" = 216.6311   $ Sizing
 "CHRtFlo_T_Conf_CZn" = 281.7439   $ Sizing
 "CHRtFlo_T_CopyRm_CZn" = 88.37569   $ Sizing
 "CHRtFlo_T_Cordr_CZn" = 212.0392   $ Sizing
 "CHRtFlo_T_Cordr_EZn" = 123.5523   $ Sizing
 "CHRtFlo_T_Cordr_NZn" = 141.1933   $ Sizing
 "CHRtFlo_T_Cordr_SZn" = 103.4024   $ Sizing
 "CHRtFlo_T_Cordr_WZn" = 113.8539   $ Sizing
 "CHRtFlo_T_LobWait_CZn" = 223.8649   $ Sizing
 "CHRtFlo_T_MechElec_CZn" = 116.9687   $ Sizing
 "CHRtFlo_T_OfficeOpn_CZn" = 491.1195   $ Sizing
 "CHRtFlo_T_OfficeOpn_EZn" = 705.2419   $ Sizing
 "CHRtFlo_T_OfficeOpn_NZn" = 578.0059   $ Sizing
 "CHRtFlo_T_OfficeOpn_SZn" = 790.639   $ Sizing
 "CHRtFlo_T_OfficeOpn_WZn" = 694.8691   $ Sizing
 "CHRtFlo_T_OfficeSm_CZn" = 64.19838   $ Sizing
 "CHRtFlo_T_OfficeSm_EZn" = 534.4395   $ Sizing
 "CHRtFlo_T_OfficeSm_NZn" = 522.5724   $ Sizing
 "CHRtFlo_T_OfficeSm_SZn" = 610.3058   $ Sizing
 "CHRtFlo_T_OfficeSm_WZn" = 532.5004   $ Sizing
 "CHRtFlo_T_Restrm_CZn" = 63.55833   $ Sizing
 "CHRtFlo_T_StorSm_CZn" = 131.2246   $ Sizing
 "CRtdFlo_Sys_L" = 13601.44   $ Sizing
 "CRtdFlo_Sys_M" = 121757.3   $ Sizing
 "CRtdFlo_Sys_T" = 14636.57   $ Sizing
 "CSupFlo_Sys_L" = 13601.44   $ Sizing
 "CSupFlo_Sys_M" = 121757.1   $ Sizing
 "CSupFlo_Sys_T" = 14636.57   $ Sizing
 "Cap_Chiller1" = 2.094462   $ Sizing
 "Cap_Chiller2" = 2.094462   $ Sizing
 "ClCap_Sys_L" = 357054.4   $ Sizing
 "ClCap_Sys_M" = 3197570   $ Sizing
 "ClCap_Sys_T" = 385909.7   $ Sizing
 "HRtEDB_L_Break_CZn" = 56.36689   $ Sizing
 "HRtEDB_L_Conf_CZn" = 56.36689   $ Sizing
 "HRtEDB_L_CopyRm_CZn" = 56.36689   $ Sizing
 "HRtEDB_L_Cordr_CZn" = 56.48408   $ Sizing
 "HRtEDB_L_Cordr_EZn" = 56.48408   $ Sizing
 "HRtEDB_L_Cordr_NZn" = 56.48408   $ Sizing
 "HRtEDB_L_Cordr_SZn" = 56.48408   $ Sizing
 "HRtEDB_L_Cordr_WZn" = 56.48408   $ Sizing
 "HRtEDB_L_LobWait_CZn" = 56.48408   $ Sizing
 "HRtEDB_L_MechElec_CZn" = 56.48408   $ Sizing
 "HRtEDB_L_OfficeOpn_CZn" = 56.36689   $ Sizing
 "HRtEDB_L_OfficeOpn_EZn" = 56.36689   $ Sizing
 "HRtEDB_L_OfficeOpn_NZn" = 56.36689   $ Sizing
 "HRtEDB_L_OfficeOpn_SZn" = 56.36689   $ Sizing
 "HRtEDB_L_OfficeOpn_WZn" = 56.36689   $ Sizing
 "HRtEDB_L_OfficeSm_CZn" = 56.36689   $ Sizing
 "HRtEDB_L_OfficeSm_EZn" = 56.36689   $ Sizing
 "HRtEDB_L_OfficeSm_NZn" = 56.36689   $ Sizing
 "HRtEDB_L_OfficeSm_SZn" = 56.36689   $ Sizing
 "HRtEDB_L_OfficeSm_WZn" = 56.36689   $ Sizing
 "HRtEDB_L_Restrm_CZn" = 56.48408   $ Sizing
 "HRtEDB_L_StorSm_CZn" = 56.48408   $ Sizing
 "HRtEDB_M_Break_CZn" = 56.40477   $ Sizing
 "HRtEDB_M_Conf_CZn" = 56.40477   $ Sizing
 "HRtEDB_M_CopyRm_CZn" = 56.40477   $ Sizing
 "HRtEDB_M_Cordr_CZn" = 56.40477   $ Sizing
 "HRtEDB_M_Cordr_EZn" = 56.51865   $ Sizing
 "HRtEDB_M_Cordr_NZn" = 56.51865   $ Sizing
 "HRtEDB_M_Cordr_SZn" = 56.51865   $ Sizing
 "HRtEDB_M_Cordr_WZn" = 56.51865   $ Sizing
 "HRtEDB_M_LobWait_CZn" = 56.51865   $ Sizing
 "HRtEDB_M_MechElec_CZn" = 56.51865   $ Sizing
 "HRtEDB_M_OfficeOpn_CZn" = 56.40477   $ Sizing
 "HRtEDB_M_OfficeOpn_EZn" = 56.40477   $ Sizing
 "HRtEDB_M_OfficeOpn_NZn" = 56.40477   $ Sizing
 "HRtEDB_M_OfficeOpn_SZn" = 56.40477   $ Sizing
 "HRtEDB_M_OfficeOpn_WZn" = 56.40477   $ Sizing
 "HRtEDB_M_OfficeSm_CZn" = 56.40477   $ Sizing
 "HRtEDB_M_OfficeSm_EZn" = 56.40477   $ Sizing
 "HRtEDB_M_OfficeSm_NZn" = 56.40477   $ Sizing
 "HRtEDB_M_OfficeSm_SZn" = 56.40477   $ Sizing
 "HRtEDB_M_OfficeSm_WZn" = 56.40477   $ Sizing
 "HRtEDB_M_Restrm_CZn" = 56.40477   $ Sizing
 "HRtEDB_M_StorSm_CZn" = 56.51865   $ Sizing
 "HRtEDB_T_Break_CZn" = 55.74796   $ Sizing
 "HRtEDB_T_Conf_CZn" = 55.74796   $ Sizing
 "HRtEDB_T_CopyRm_CZn" = 53.23538   $ Sizing
 "HRtEDB_T_Cordr_CZn" = 53.23538   $ Sizing
 "HRtEDB_T_Cordr_EZn" = 53.23538   $ Sizing
 "HRtEDB_T_Cordr_NZn" = 53.23538   $ Sizing
 "HRtEDB_T_Cordr_SZn" = 53.23538   $ Sizing
 "HRtEDB_T_Cordr_WZn" = 53.23538   $ Sizing
 "HRtEDB_T_LobWait_CZn" = 53.23538   $ Sizing
 "HRtEDB_T_MechElec_CZn" = 53.23538   $ Sizing
 "HRtEDB_T_OfficeOpn_CZn" = 55.74796   $ Sizing
 "HRtEDB_T_OfficeOpn_EZn" = 55.74796   $ Sizing
 "HRtEDB_T_OfficeOpn_NZn" = 55.74796   $ Sizing
 "HRtEDB_T_OfficeOpn_SZn" = 53.23538   $ Sizing
 "HRtEDB_T_OfficeOpn_WZn" = 55.74796   $ Sizing
 "HRtEDB_T_OfficeSm_CZn" = 55.74796   $ Sizing
 "HRtEDB_T_OfficeSm_EZn" = 55.74796   $ Sizing
 "HRtEDB_T_OfficeSm_NZn" = 53.23538   $ Sizing
 "HRtEDB_T_OfficeSm_SZn" = 53.23538   $ Sizing
 "HRtEDB_T_OfficeSm_WZn" = 53.23538   $ Sizing
 "HRtEDB_T_Restrm_CZn" = 54.53712   $ Sizing
 "HRtEDB_T_StorSm_CZn" = 54.53712   $ Sizing
 "HtCap_L_Break_CZn" = -9015.974   $ Sizing
 "HtCap_L_Conf_CZn" = -11725.9   $ Sizing
 "HtCap_L_CopyRm_CZn" = -3678.109   $ Sizing
 "HtCap_L_Cordr_CZn" = -8799.845   $ Sizing
 "HtCap_L_Cordr_EZn" = -5257.991   $ Sizing
 "HtCap_L_Cordr_NZn" = -6069.917   $ Sizing
 "HtCap_L_Cordr_SZn" = -4072.363   $ Sizing
 "HtCap_L_Cordr_WZn" = -5087.954   $ Sizing
 "HtCap_L_LobWait_CZn" = -9290.625   $ Sizing
 "HtCap_L_MechElec_CZn" = -2088.067   $ Sizing
 "HtCap_L_OfficeOpn_CZn" = -19700.54   $ Sizing
 "HtCap_L_OfficeOpn_EZn" = -29981.37   $ Sizing
 "HtCap_L_OfficeOpn_NZn" = -24493.45   $ Sizing
 "HtCap_L_OfficeOpn_SZn" = -32273.05   $ Sizing
 "HtCap_L_OfficeOpn_WZn" = -29465.18   $ Sizing
 "HtCap_L_OfficeSm_CZn" = -2420.041   $ Sizing
 "HtCap_L_OfficeSm_EZn" = -22116.14   $ Sizing
 "HtCap_L_OfficeSm_NZn" = -21985.58   $ Sizing
 "HtCap_L_OfficeSm_SZn" = -24446.82   $ Sizing
 "HtCap_L_OfficeSm_WZn" = -21983.98   $ Sizing
 "HtCap_L_Restrm_CZn" = -2637.736   $ Sizing
 "HtCap_L_StorSm_CZn" = -7194.752   $ Sizing
 "HtCap_M_Break_CZn" = -9007.725   $ Sizing
 "HtCap_M_Conf_CZn" = -11715.18   $ Sizing
 "HtCap_M_CopyRm_CZn" = -3674.744   $ Sizing
 "HtCap_M_Cordr_CZn" = -12215.05   $ Sizing
 "HtCap_M_Cordr_EZn" = -6018.056   $ Sizing
 "HtCap_M_Cordr_NZn" = -6664.851   $ Sizing
 "HtCap_M_Cordr_SZn" = -4741.014   $ Sizing
 "HtCap_M_Cordr_WZn" = -5642.304   $ Sizing
 "HtCap_M_LobWait_CZn" = -9282.631   $ Sizing
 "HtCap_M_MechElec_CZn" = -2371.63   $ Sizing
 "HtCap_M_OfficeOpn_CZn" = -21006.57   $ Sizing
 "HtCap_M_OfficeOpn_EZn" = -31701.73   $ Sizing
 "HtCap_M_OfficeOpn_NZn" = -26997.55   $ Sizing
 "HtCap_M_OfficeOpn_SZn" = -35488.7   $ Sizing
 "HtCap_M_OfficeOpn_WZn" = -31152.92   $ Sizing
 "HtCap_M_OfficeSm_CZn" = -2785.304   $ Sizing
 "HtCap_M_OfficeSm_EZn" = -23491.27   $ Sizing
 "HtCap_M_OfficeSm_NZn" = -23718.1   $ Sizing
 "HtCap_M_OfficeSm_SZn" = -26831.64   $ Sizing
 "HtCap_M_OfficeSm_WZn" = -23347.9   $ Sizing
 "HtCap_M_Restrm_CZn" = -4710.368   $ Sizing
 "HtCap_M_StorSm_CZn" = -8063.66   $ Sizing
 "HtCap_T_Break_CZn" = -9160.576   $ Sizing
 "HtCap_T_Conf_CZn" = -11913.97   $ Sizing
 "HtCap_T_CopyRm_CZn" = -3977.063   $ Sizing
 "HtCap_T_Cordr_CZn" = -9542.14   $ Sizing
 "HtCap_T_Cordr_EZn" = -5560.072   $ Sizing
 "HtCap_T_Cordr_NZn" = -6353.95   $ Sizing
 "HtCap_T_Cordr_SZn" = -4653.289   $ Sizing
 "HtCap_T_Cordr_WZn" = -5123.628   $ Sizing
 "HtCap_T_LobWait_CZn" = -10074.32   $ Sizing
 "HtCap_T_MechElec_CZn" = -5263.797   $ Sizing
 "HtCap_T_OfficeOpn_CZn" = -20767.74   $ Sizing
 "HtCap_T_OfficeOpn_EZn" = -29822.23   $ Sizing
 "HtCap_T_OfficeOpn_NZn" = -24441.86   $ Sizing
 "HtCap_T_OfficeOpn_SZn" = -35580.15   $ Sizing
 "HtCap_T_OfficeOpn_WZn" = -29383.6   $ Sizing
 "HtCap_T_OfficeSm_CZn" = -2714.726   $ Sizing
 "HtCap_T_OfficeSm_EZn" = -22599.59   $ Sizing
 "HtCap_T_OfficeSm_NZn" = -23516.68   $ Sizing
 "HtCap_T_OfficeSm_SZn" = -27464.85   $ Sizing
 "HtCap_T_OfficeSm_WZn" = -23963.46   $ Sizing
 "HtCap_T_Restrm_CZn" = -2772.728   $ Sizing
 "HtCap_T_StorSm_CZn" = -5724.663   $ Sizing
 "LpFlo_BlrPrimLoop" = 0   $ Sizing
 "LpFlo_ChlrPrimLoop" = 654.5519   $ Sizing
 "LpFlo_CircLp_Chw_L" = 59.30962   $ Sizing
 "LpFlo_CircLp_Chw_M" = 531.1343   $ Sizing
 "LpFlo_CircLp_Chw_T" = 64.10794   $ Sizing
 "LpFlo_CircLp_Hw_L" = 0   $ Sizing
 "LpFlo_CircLp_Hw_M" = 0   $ Sizing
 "LpFlo_CircLp_Hw_T" = 0   $ Sizing
 "RtChwFlo_Chiller1" = 3.55063   $ Sizing
 "RtChwFlo_Chiller2" = 3.996803   $ Sizing
 "RtCndFlo_Chiller1" = 2.665103   $ Sizing
 "RtCndFlo_Chiller2" = 3   $ Sizing
 "RtdEDB_Sys_L" = 75.94831   $ Sizing
 "RtdEDB_Sys_M" = 76.0071   $ Sizing
 "RtdEDB_Sys_T" = 76.08078   $ Sizing
 "RtdEWB_Sys_L" = 61.5312   $ Sizing
 "RtdEWB_Sys_M" = 61.5324   $ Sizing
 "RtdEWB_Sys_T" = 61.56524   $ Sizing
..

##include Templates\OfL_CH_MZ.inp
END ..
COMPUTE ..
STOP ..
