INPUT ..

##fileprefix C:\Users\jglasskatz\MASControl3\
##set1 IsSizing FALSE
##set1 CoolType DX
##set1 HeatType FURNACE
##set1 EU_HrRepVar 0
##set1 BldgVint 2020
##set1 BldgLoc CZ06

 ##set1 mBFMult 1   $ IP Tech: RefgChg-NRes-Std

PARAMETER
 "AltFactor" = 1.00328   $ IP Non-Tech
 "BF_fFlow" = SpltAC1Sp-lt45_BF_fFlow   $ Msr (Multi)TechID: StdNResSplitAC-lt45
 "BF_fT" = SpltAC1Sp-lt45_BF_fT   $ Msr (Multi)TechID: StdNResSplitAC-lt45
 "BldgEconoFlag" = 1   $ IP Non-Tech
 "Break_EWSF" = 1   $ IP Non-Tech
 "Break_LWSF" = 0.65   $ IP Non-Tech
 "CDD_DBHi10" = 87   $ IP Non-Tech
 "CDD_DBHi7" = 80   $ IP Non-Tech
 "CDD_DBHi8" = 78   $ IP Non-Tech
 "CDD_DBHi9" = 84   $ IP Non-Tech
 "CDD_DBRange10" = 30   $ IP Non-Tech
 "CDD_DBRange7" = 11   $ IP Non-Tech
 "CDD_DBRange8" = 11   $ IP Non-Tech
 "CDD_DBRange9" = 16   $ IP Non-Tech
 "CDD_Day10" = 15   $ IP Non-Tech
 "CDD_Day7" = 16   $ IP Non-Tech
 "CDD_Day8" = 20   $ IP Non-Tech
 "CDD_Day9" = 17   $ IP Non-Tech
 "CDD_HrHi10" = 12   $ IP Non-Tech
 "CDD_HrHi7" = 13   $ IP Non-Tech
 "CDD_HrHi8" = 13   $ IP Non-Tech
 "CDD_HrHi9" = 17   $ IP Non-Tech
 "CDD_HrLo10" = 3   $ IP Non-Tech
 "CDD_HrLo7" = 3   $ IP Non-Tech
 "CDD_HrLo8" = 3   $ IP Non-Tech
 "CDD_HrLo9" = 3   $ IP Non-Tech
 "CDD_WB10" = 65.31027985   $ IP Non-Tech
 "CDD_WB7" = 69.10741425   $ IP Non-Tech
 "CDD_WB8" = 67.58412933   $ IP Non-Tech
 "CDD_WB9" = 69.6863327   $ IP Non-Tech
 "CEIR_fPLR_Hot" = SpltAC1Sp-lt45_CEIR_fPLR_Hot   $ Msr (Multi)TechID: StdNResSplitAC-lt45
 "CEIR_fPLR_Mod" = SpltAC1Sp-lt45_CEIR_fPLR_Mod   $ Msr (Multi)TechID: StdNResSplitAC-lt45
 "CEIR_fPLR_Tem" = SpltAC1Sp-lt45_CEIR_fPLR_Tem   $ Msr (Multi)TechID: StdNResSplitAC-lt45
 "CLoss_fPLR_Hot" = SpltAC1Sp-lt45_CLoss_fPLR_Hot   $ Msr (Multi)TechID: StdNResSplitAC-lt45
 "CLoss_fPLR_Mod" = SpltAC1Sp-lt45_CLoss_fPLR_Mod   $ Msr (Multi)TechID: StdNResSplitAC-lt45
 "CLoss_fPLR_Tem" = SpltAC1Sp-lt45_CLoss_fPLR_Tem   $ Msr (Multi)TechID: StdNResSplitAC-lt45
 "COP47" = 0   $ Msr (Multi)TechID: StdNResSplitAC-lt45
 "CZ_Category" = Tem   $ IP Non-Tech
 "CapRange" = lt45   $ Msr (Multi)TechID: StdNResSplitAC-lt45
 "CfmPerBtuh" = 0.032504286   $ Msr (Multi)TechID: StdNResSplitAC-lt45
 "ChwVintEconoFlag" = 1   $ IP Non-Tech
 "ClCap_fT" = SpltAC1Sp-lt45_ClCap_fT   $ Msr (Multi)TechID: StdNResSplitAC-lt45
 "ClSH_fT" = SpltAC1Sp-lt45_ClSH_fT   $ Msr (Multi)TechID: StdNResSplitAC-lt45
 "CoilBF" = 0.1212   $ Msr (Multi)TechID: StdNResSplitAC-lt45
 "CondWPerBtuh" = 0   $ Msr (Multi)TechID: StdNResSplitAC-lt45
 "Conference_EWSF" = 1   $ IP Non-Tech
 "Conference_LWSF" = 0.85   $ IP Non-Tech
 "CoolSensCap" = 0.754064286   $ Msr (Multi)TechID: StdNResSplitAC-lt45
 "CoolSetT" = 45   $ IP Non-Tech
 "CoolType" = DX   $ IP Non-Tech
 "CoolingEIR" = 0.23878   $ Msr (Multi)TechID: StdNResSplitAC-lt45
 "CopyRoom_EWSF" = 1.5   $ IP Non-Tech
 "CopyRoom_LWSF" = 0.5   $ IP Non-Tech
 "CorridorStairway_EWSF" = 0.2   $ IP Non-Tech
 "CorridorStairway_LWSF" = 0.55   $ IP Non-Tech
 "CrnkEIR" = 0.0023878   $ Msr (Multi)TechID: StdNResSplitAC-lt45
 "CrnkMaxT" = 50   $ Msr (Multi)TechID: StdNResSplitAC-lt45
 "DXType" = SplitSEER   $ Msr (Multi)TechID: StdNResSplitAC-lt45
 "DesCoolT" = 75   $ IP Non-Tech
 "DesHeatT" = 73   $ IP Non-Tech
 "EER" = 12.16551724   $ Msr (Multi)TechID: StdNResSplitAC-lt45
 "EIR_fT" = SpltAC1Sp-lt45_EIR_fT   $ Msr (Multi)TechID: StdNResSplitAC-lt45
 "EconoCtrl" = FIXED   $ Msr (Multi)TechID: StdNResSplitAC-lt45
 "EconoEnthLimit" = 28   $ IP Non-Tech
 "EconoTempLimit" = 71   $ IP Non-Tech
 "Elevation" = 88   $ IP Non-Tech
 "FanEirPlr" = TwoSpeedFan   $ Msr (Multi)TechID: StdNResSplitAC-lt45
 "FanWPerCfm" = 0.294   $ Msr (Multi)TechID: StdNResSplitAC-lt45
 "HDD_CloudAmt1" = 0   $ IP Non-Tech
 "HDD_DBHi1" = 58   $ IP Non-Tech
 "HDD_DBRange1" = 21   $ IP Non-Tech
 "HDD_Day1" = 15   $ IP Non-Tech
 "HDD_HrHi1" = 13   $ IP Non-Tech
 "HDD_HrLo1" = 4   $ IP Non-Tech
 "HDD_WB1" = 52.8   $ IP Non-Tech
 "HDD_WindSpd1" = 10.4   $ IP Non-Tech
 "HIR_fT" = 0   $ Msr (Multi)TechID: StdNResSplitAC-lt45
 "HSPF" = 0   $ Msr (Multi)TechID: StdNResSplitAC-lt45
 "HeatSrc" = FURNACE   $ IP Non-Tech
 "HeatSrcTU" = HEAT-PUMP   $ IP Non-Tech
 "HeatType" = GasFurn   $ IP Non-Tech
 "HeatTypeTU" = HEAT-PUMP   $ IP Non-Tech
 "HtCap_fT" = 0   $ Msr (Multi)TechID: StdNResSplitAC-lt45
 "HtCoolCapRatio" = 0   $ Msr (Multi)TechID: StdNResSplitAC-lt45
 "HtgEIR" = 0   $ Msr (Multi)TechID: StdNResSplitAC-lt45
 "IndoorFanMode" = CONTINUOUS   $ IP Non-Tech
 "KT_TransferAir" = Yes   $ IP Non-Tech
 "Latitude" = 33.9   $ IP Non-Tech
 "LobbyWaiting_EWSF" = 0.5   $ IP Non-Tech
 "LobbyWaiting_LWSF" = 0.75   $ IP Non-Tech
 "Longitude" = 118.4   $ IP Non-Tech
 "LowSpdCapRatio" = 1   $ Msr (Multi)TechID: StdNResSplitAC-lt45
 "LowSpdCfmRatio" = 1   $ Msr (Multi)TechID: StdNResSplitAC-lt45
 "MZFanMechEff" = 0.58   $ IP Non-Tech
 "MZHasRetFan" = FALSE   $ IP Non-Tech
 "MZ_RFanWPerCfm" = 0.37   $ IP Non-Tech
 "MZ_SFanWPerCfm" = 0.71   $ IP Non-Tech
 "MZ_SupFanStatic" = 2.25   $ IP Non-Tech
 "MaxOAFrac" = 1   $ Msr (Multi)TechID: StdNResSplitAC-lt45
 "MaxSupT_MZ" = 100   $ IP Non-Tech
 "MaxSupT_SZ" = 100   $ IP Non-Tech
 "MaxSupT_TU" = 90   $ IP Non-Tech
 "MechElecRoom_EWSF" = 0.2   $ IP Non-Tech
 "MechElecRoom_LWSF" = 0.4   $ IP Non-Tech
 "MinCfmPerSF" = 0.4   $ IP Non-Tech
 "MinSupT" = 55   $ IP Non-Tech
 "NumStages" = 1   $ Msr (Multi)TechID: StdNResSplitAC-lt45
 "OccCoolT" = 76   $ IP Non-Tech
 "OccHeatT" = 72   $ IP Non-Tech
 "OfficeOpen_EWSF" = 1.5   $ IP Non-Tech
 "OfficeOpen_LWSF" = 0.8   $ IP Non-Tech
 "OfficeSmall_EWSF" = 1.5   $ IP Non-Tech
 "OfficeSmall_LWSF" = 0.9   $ IP Non-Tech
 "PkgDxVintEconoFlag" = 1   $ IP Non-Tech
 "Restroom_EWSF" = 0.2   $ IP Non-Tech
 "Restroom_LWSF" = 0.65   $ IP Non-Tech
 "SEER" = 14   $ Msr (Multi)TechID: StdNResSplitAC-lt45
 "SZFanMechEff" = 0.58   $ IP Non-Tech
 "SZHasRetFan" = FALSE   $ IP Non-Tech
 "SZ_Is_2Spd" = TRUE   $ IP Non-Tech
 "SZ_SFanWPerCfm" = 0.46   $ IP Non-Tech
 "SZ_SupFanStatic" = 0.75   $ IP Non-Tech
 "Sector" = Any   $ Msr (Multi)TechID: StdNResSplitAC-lt45
 "StorageSmlCond_EWSF" = 0.2   $ IP Non-Tech
 "StorageSmlCond_LWSF" = 0.45   $ IP Non-Tech
 "SubType" = AC   $ Msr (Multi)TechID: StdNResSplitAC-lt45
 "TermUnitFanMechEff" = 1   $ IP Non-Tech
 "TermUnitFanMode" = INTERMITTENT   $ IP Non-Tech
 "TotCoolCap" = 30924.85714   $ Msr (Multi)TechID: StdNResSplitAC-lt45
 "TwrSetpt" = 80   $ IP Non-Tech
 "UnocCoolT" = 86   $ IP Non-Tech
 "UnocHeatT" = 62   $ IP Non-Tech
 "UseEconoVintApplic" = FALSE   $ Msr (Multi)TechID: StdNResSplitAC-lt45
 "WlhpVintEconoFlag" = 1   $ IP Non-Tech
 "DuctDT" = 1   $ IP Tech: ComDuctInsul-1
 "DuctAirLoss" = 0   $ IP Tech: ComDuctLeak-0
 "DuctLossOAFrac" = 0   $ IP Tech: ComDuctLeak-0
 "ComRoofInsCalc" = FromUo   $ IP Tech: ComRoofIns-Hvy-0.05
 "ComRoofInsR" = -999   $ IP Tech: ComRoofIns-Hvy-0.05
 "ComRoofUo" = 0.05   $ IP Tech: ComRoofIns-Hvy-0.05
 "ComEWInsCalc" = FromUo   $ IP Tech: ComWallIns-MFrm-0.07
 "ComEWInsR" = -999   $ IP Tech: ComWallIns-MFrm-0.07
 "ComEWUo" = 0.07   $ IP Tech: ComWallIns-MFrm-0.07
 "ComN_SHGC" = 0.26   $ IP Tech: NResWin-ComN-0.41-0.26
 "ComN_UFactor" = 0.41   $ IP Tech: NResWin-ComN-0.41-0.26
 "ComN_VisTrans" = 0.41   $ IP Tech: NResWin-ComN-0.41-0.26
 "ComN_WinCode" = G2666   $ IP Tech: NResWin-ComN-0.41-0.26
 "ComN_WinFrmFrac" = 0.17   $ IP Tech: NResWin-ComN-0.41-0.26
 "ComN_WinFrmU" = 0.3   $ IP Tech: NResWin-ComN-0.41-0.26
 "ComO_SHGC" = 0.26   $ IP Tech: NResWin-ComO-0.41-0.26
 "ComO_UFactor" = 0.41   $ IP Tech: NResWin-ComO-0.41-0.26
 "ComO_VisTrans" = 0.41   $ IP Tech: NResWin-ComO-0.41-0.26
 "ComO_WinCode" = G2666   $ IP Tech: NResWin-ComO-0.41-0.26
 "ComO_WinFrmFrac" = 0.17   $ IP Tech: NResWin-ComO-0.41-0.26
 "ComO_WinFrmU" = 0.3   $ IP Tech: NResWin-ComO-0.41-0.26
 "LtgMsrApplic" = ALL   $ IP Tech: NonResLtgRefPre
 "LtgSav_CFL" = 0   $ IP Tech: NonResLtgRefPre
 "LtgSav_EX" = 0   $ IP Tech: NonResLtgRefPre
 "LtgSav_HB" = 0   $ IP Tech: NonResLtgRefPre
 "LtgSav_LF" = 0   $ IP Tech: NonResLtgRefPre
 "LtgSav_SP" = 0   $ IP Tech: NonResLtgRefPre
 "CEIR_fPLR" = PSZ65to135_CEIR_fPLR   $ IP Tech: PkgAC2SpP-65to135-E11
 "CLoss_fPLR" = PSZ65to135_CLoss_fPLR   $ IP Tech: PkgAC2SpP-65to135-E11
 "COP" = -1   $ IP Tech: PkgAC2SpP-65to135-E11
 "HtgFuel" = Gas   $ IP Tech: PkgAC2SpP-65to135-E11
 "IEER" = 13.35   $ IP Tech: PkgAC2SpP-65to135-E11
 "NominalCap" = 15   $ IP Tech: PkgAC2SpP-65to135-E11
 "RatedEER" = 11   $ IP Tech: PkgAC2SpP-65to135-E11
 "RatedSupMtrClass" = Premium   $ IP Tech: PkgAC2SpP-65to135-E11
 "SizeRange" = 65to135   $ IP Tech: PkgAC2SpP-65to135-E11
 "SupMotEff" = 0.865   $ IP Tech: PkgAC2SpP-65to135-E11
 "Tier" = 0   $ IP Tech: PkgAC2SpP-65to135-E11
 "FanPwrMult" = 1   $ IP Tech: PkgFurn-0.80AFUE
 "FurnAFUE" = 0.8   $ IP Tech: PkgFurn-0.80AFUE
 "FurnEt" = 0.82   $ IP Tech: PkgFurn-0.80AFUE
 "FurnaceAuxKW" = 0.1   $ IP Tech: PkgFurn-0.80AFUE
 "HIR_fPLR" = Furnace-HIR-fPLR   $ IP Tech: PkgFurn-0.80AFUE
 "VSM" = FALSE   $ IP Tech: PkgFurn-0.80AFUE
 "BFMult" = 1   $ IP Tech: RefgChg-NRes-Std
 "CoolEirMult" = 1   $ IP Tech: RefgChg-NRes-Std
 "SensCoolCapMult" = 1   $ IP Tech: RefgChg-NRes-Std
 "TotCoolCapMult" = 1   $ IP Tech: RefgChg-NRes-Std
 "AltAdjFactor" = 1.003277   $ Sizing
 "CAssFlo_L_Break_CZn" = 353.4494   $ Sizing
 "CAssFlo_L_Conf_CZn" = 428.1515   $ Sizing
 "CAssFlo_L_CopyRm_CZn" = 104.6758   $ Sizing
 "CAssFlo_L_Cordr_CZn" = 563.0499   $ Sizing
 "CAssFlo_L_Cordr_EZn" = 227.3141   $ Sizing
 "CAssFlo_L_Cordr_NZn" = 93.84254   $ Sizing
 "CAssFlo_L_Cordr_SZn" = 229.1504   $ Sizing
 "CAssFlo_L_Cordr_WZn" = 218.4176   $ Sizing
 "CAssFlo_L_LobWait_CZn" = 335.3509   $ Sizing
 "CAssFlo_L_MechElec_CZn" = 133.6031   $ Sizing
 "CAssFlo_L_OfficeOpn_CZn" = 1607.79   $ Sizing
 "CAssFlo_L_OfficeOpn_EZn" = 1694.526   $ Sizing
 "CAssFlo_L_OfficeOpn_NZn" = 855.3432   $ Sizing
 "CAssFlo_L_OfficeOpn_SZn" = 1664.177   $ Sizing
 "CAssFlo_L_OfficeOpn_WZn" = 1693.334   $ Sizing
 "CAssFlo_L_OfficeSm_CZn" = 234.0776   $ Sizing
 "CAssFlo_L_OfficeSm_EZn" = 1227.814   $ Sizing
 "CAssFlo_L_OfficeSm_NZn" = 536.4761   $ Sizing
 "CAssFlo_L_OfficeSm_SZn" = 1220.006   $ Sizing
 "CAssFlo_L_OfficeSm_WZn" = 1219.478   $ Sizing
 "CAssFlo_L_Restrm_CZn" = 210.9664   $ Sizing
 "CAssFlo_L_StorSm_CZn" = 379.1966   $ Sizing
 "CAssFlo_M_Break_CZn" = 392.4613   $ Sizing
 "CAssFlo_M_Conf_CZn" = 489.6581   $ Sizing
 "CAssFlo_M_CopyRm_CZn" = 135.9256   $ Sizing
 "CAssFlo_M_Cordr_CZn" = 877.8707   $ Sizing
 "CAssFlo_M_Cordr_EZn" = 278.8627   $ Sizing
 "CAssFlo_M_Cordr_NZn" = 142.7523   $ Sizing
 "CAssFlo_M_Cordr_SZn" = 265.2127   $ Sizing
 "CAssFlo_M_Cordr_WZn" = 244.0119   $ Sizing
 "CAssFlo_M_LobWait_CZn" = 482.5277   $ Sizing
 "CAssFlo_M_MechElec_CZn" = 158.7679   $ Sizing
 "CAssFlo_M_OfficeOpn_CZn" = 1986.727   $ Sizing
 "CAssFlo_M_OfficeOpn_EZn" = 1870.923   $ Sizing
 "CAssFlo_M_OfficeOpn_NZn" = 1034.824   $ Sizing
 "CAssFlo_M_OfficeOpn_SZn" = 1804.286   $ Sizing
 "CAssFlo_M_OfficeOpn_WZn" = 1769.038   $ Sizing
 "CAssFlo_M_OfficeSm_CZn" = 291.2305   $ Sizing
 "CAssFlo_M_OfficeSm_EZn" = 1342.298   $ Sizing
 "CAssFlo_M_OfficeSm_NZn" = 665.9806   $ Sizing
 "CAssFlo_M_OfficeSm_SZn" = 1309.595   $ Sizing
 "CAssFlo_M_OfficeSm_WZn" = 1267.538   $ Sizing
 "CAssFlo_M_Restrm_CZn" = 210.9664   $ Sizing
 "CAssFlo_M_StorSm_CZn" = 406.118   $ Sizing
 "CAssFlo_T_Break_CZn" = 369.8285   $ Sizing
 "CAssFlo_T_Conf_CZn" = 451.1033   $ Sizing
 "CAssFlo_T_CopyRm_CZn" = 123.2373   $ Sizing
 "CAssFlo_T_Cordr_CZn" = 764.5306   $ Sizing
 "CAssFlo_T_Cordr_EZn" = 248.8346   $ Sizing
 "CAssFlo_T_Cordr_NZn" = 120.2797   $ Sizing
 "CAssFlo_T_Cordr_SZn" = 241.1742   $ Sizing
 "CAssFlo_T_Cordr_WZn" = 220.8429   $ Sizing
 "CAssFlo_T_LobWait_CZn" = 410.6046   $ Sizing
 "CAssFlo_T_MechElec_CZn" = 181.9733   $ Sizing
 "CAssFlo_T_OfficeOpn_CZn" = 1764.651   $ Sizing
 "CAssFlo_T_OfficeOpn_EZn" = 1704.407   $ Sizing
 "CAssFlo_T_OfficeOpn_NZn" = 911.0896   $ Sizing
 "CAssFlo_T_OfficeOpn_SZn" = 1692.056   $ Sizing
 "CAssFlo_T_OfficeOpn_WZn" = 1637.06   $ Sizing
 "CAssFlo_T_OfficeSm_CZn" = 274.8083   $ Sizing
 "CAssFlo_T_OfficeSm_EZn" = 1264.087   $ Sizing
 "CAssFlo_T_OfficeSm_NZn" = 602.9791   $ Sizing
 "CAssFlo_T_OfficeSm_SZn" = 1250.719   $ Sizing
 "CAssFlo_T_OfficeSm_WZn" = 1197.397   $ Sizing
 "CAssFlo_T_Restrm_CZn" = 210.9664   $ Sizing
 "CAssFlo_T_StorSm_CZn" = 332.6785   $ Sizing
 "CHRtFlo_Sys_L_Break_C" = 353.4494   $ Sizing
 "CHRtFlo_Sys_L_Conf_C" = 428.1515   $ Sizing
 "CHRtFlo_Sys_L_CopyRm_C" = 104.6758   $ Sizing
 "CHRtFlo_Sys_L_Cordr_C" = 563.0499   $ Sizing
 "CHRtFlo_Sys_L_Cordr_E" = 227.3141   $ Sizing
 "CHRtFlo_Sys_L_Cordr_N" = 93.84254   $ Sizing
 "CHRtFlo_Sys_L_Cordr_S" = 229.1504   $ Sizing
 "CHRtFlo_Sys_L_Cordr_W" = 218.4176   $ Sizing
 "CHRtFlo_Sys_L_LobWait_C" = 335.3509   $ Sizing
 "CHRtFlo_Sys_L_MechElec_C" = 133.6031   $ Sizing
 "CHRtFlo_Sys_L_OfficeOpn_C" = 1607.79   $ Sizing
 "CHRtFlo_Sys_L_OfficeOpn_E" = 1694.526   $ Sizing
 "CHRtFlo_Sys_L_OfficeOpn_N" = 855.3432   $ Sizing
 "CHRtFlo_Sys_L_OfficeOpn_S" = 1664.177   $ Sizing
 "CHRtFlo_Sys_L_OfficeOpn_W" = 1693.334   $ Sizing
 "CHRtFlo_Sys_L_OfficeSm_C" = 234.0776   $ Sizing
 "CHRtFlo_Sys_L_OfficeSm_E" = 1227.814   $ Sizing
 "CHRtFlo_Sys_L_OfficeSm_N" = 536.4761   $ Sizing
 "CHRtFlo_Sys_L_OfficeSm_S" = 1220.006   $ Sizing
 "CHRtFlo_Sys_L_OfficeSm_W" = 1219.478   $ Sizing
 "CHRtFlo_Sys_L_Restrm_C" = 210.9664   $ Sizing
 "CHRtFlo_Sys_L_StorSm_C" = 379.1966   $ Sizing
 "CHRtFlo_Sys_M_Break_C" = 3139.691   $ Sizing
 "CHRtFlo_Sys_M_Conf_C" = 3917.265   $ Sizing
 "CHRtFlo_Sys_M_CopyRm_C" = 1087.405   $ Sizing
 "CHRtFlo_Sys_M_Cordr_C" = 7022.965   $ Sizing
 "CHRtFlo_Sys_M_Cordr_E" = 2230.902   $ Sizing
 "CHRtFlo_Sys_M_Cordr_N" = 1142.019   $ Sizing
 "CHRtFlo_Sys_M_Cordr_S" = 2121.702   $ Sizing
 "CHRtFlo_Sys_M_Cordr_W" = 1952.095   $ Sizing
 "CHRtFlo_Sys_M_LobWait_C" = 3860.221   $ Sizing
 "CHRtFlo_Sys_M_MechElec_C" = 1270.143   $ Sizing
 "CHRtFlo_Sys_M_OfficeOpn_C" = 15893.81   $ Sizing
 "CHRtFlo_Sys_M_OfficeOpn_E" = 14967.38   $ Sizing
 "CHRtFlo_Sys_M_OfficeOpn_N" = 8278.594   $ Sizing
 "CHRtFlo_Sys_M_OfficeOpn_S" = 14434.29   $ Sizing
 "CHRtFlo_Sys_M_OfficeOpn_W" = 14152.3   $ Sizing
 "CHRtFlo_Sys_M_OfficeSm_C" = 2329.844   $ Sizing
 "CHRtFlo_Sys_M_OfficeSm_E" = 10738.39   $ Sizing
 "CHRtFlo_Sys_M_OfficeSm_N" = 5327.845   $ Sizing
 "CHRtFlo_Sys_M_OfficeSm_S" = 10476.76   $ Sizing
 "CHRtFlo_Sys_M_OfficeSm_W" = 10140.3   $ Sizing
 "CHRtFlo_Sys_M_Restrm_C" = 1687.731   $ Sizing
 "CHRtFlo_Sys_M_StorSm_C" = 3248.944   $ Sizing
 "CHRtFlo_Sys_T_Break_C" = 369.8285   $ Sizing
 "CHRtFlo_Sys_T_Conf_C" = 451.1033   $ Sizing
 "CHRtFlo_Sys_T_CopyRm_C" = 123.2373   $ Sizing
 "CHRtFlo_Sys_T_Cordr_C" = 764.5306   $ Sizing
 "CHRtFlo_Sys_T_Cordr_E" = 248.8346   $ Sizing
 "CHRtFlo_Sys_T_Cordr_N" = 120.2797   $ Sizing
 "CHRtFlo_Sys_T_Cordr_S" = 241.1742   $ Sizing
 "CHRtFlo_Sys_T_Cordr_W" = 220.8429   $ Sizing
 "CHRtFlo_Sys_T_LobWait_C" = 410.6046   $ Sizing
 "CHRtFlo_Sys_T_MechElec_C" = 181.9733   $ Sizing
 "CHRtFlo_Sys_T_OfficeOpn_C" = 1764.651   $ Sizing
 "CHRtFlo_Sys_T_OfficeOpn_E" = 1704.407   $ Sizing
 "CHRtFlo_Sys_T_OfficeOpn_N" = 911.0896   $ Sizing
 "CHRtFlo_Sys_T_OfficeOpn_S" = 1692.056   $ Sizing
 "CHRtFlo_Sys_T_OfficeOpn_W" = 1637.06   $ Sizing
 "CHRtFlo_Sys_T_OfficeSm_C" = 274.8083   $ Sizing
 "CHRtFlo_Sys_T_OfficeSm_E" = 1264.087   $ Sizing
 "CHRtFlo_Sys_T_OfficeSm_N" = 602.9791   $ Sizing
 "CHRtFlo_Sys_T_OfficeSm_S" = 1250.719   $ Sizing
 "CHRtFlo_Sys_T_OfficeSm_W" = 1197.397   $ Sizing
 "CHRtFlo_Sys_T_Restrm_C" = 210.9664   $ Sizing
 "CHRtFlo_Sys_T_StorSm_C" = 332.6785   $ Sizing
 "CRtdFlo_Sys_L_Break_C" = 353.4494   $ Sizing
 "CRtdFlo_Sys_L_Conf_C" = 428.1515   $ Sizing
 "CRtdFlo_Sys_L_CopyRm_C" = 104.6758   $ Sizing
 "CRtdFlo_Sys_L_Cordr_C" = 563.0499   $ Sizing
 "CRtdFlo_Sys_L_Cordr_E" = 227.3141   $ Sizing
 "CRtdFlo_Sys_L_Cordr_N" = 93.84254   $ Sizing
 "CRtdFlo_Sys_L_Cordr_S" = 229.1504   $ Sizing
 "CRtdFlo_Sys_L_Cordr_W" = 218.4176   $ Sizing
 "CRtdFlo_Sys_L_LobWait_C" = 335.3509   $ Sizing
 "CRtdFlo_Sys_L_MechElec_C" = 133.6031   $ Sizing
 "CRtdFlo_Sys_L_OfficeOpn_C" = 1607.79   $ Sizing
 "CRtdFlo_Sys_L_OfficeOpn_E" = 1694.526   $ Sizing
 "CRtdFlo_Sys_L_OfficeOpn_N" = 855.3432   $ Sizing
 "CRtdFlo_Sys_L_OfficeOpn_S" = 1664.177   $ Sizing
 "CRtdFlo_Sys_L_OfficeOpn_W" = 1693.334   $ Sizing
 "CRtdFlo_Sys_L_OfficeSm_C" = 234.0776   $ Sizing
 "CRtdFlo_Sys_L_OfficeSm_E" = 1227.814   $ Sizing
 "CRtdFlo_Sys_L_OfficeSm_N" = 536.4761   $ Sizing
 "CRtdFlo_Sys_L_OfficeSm_S" = 1220.006   $ Sizing
 "CRtdFlo_Sys_L_OfficeSm_W" = 1219.478   $ Sizing
 "CRtdFlo_Sys_L_Restrm_C" = 210.9664   $ Sizing
 "CRtdFlo_Sys_L_StorSm_C" = 379.1966   $ Sizing
 "CRtdFlo_Sys_M_Break_C" = 3139.691   $ Sizing
 "CRtdFlo_Sys_M_Conf_C" = 3917.265   $ Sizing
 "CRtdFlo_Sys_M_CopyRm_C" = 1087.405   $ Sizing
 "CRtdFlo_Sys_M_Cordr_C" = 7022.965   $ Sizing
 "CRtdFlo_Sys_M_Cordr_E" = 2230.902   $ Sizing
 "CRtdFlo_Sys_M_Cordr_N" = 1142.019   $ Sizing
 "CRtdFlo_Sys_M_Cordr_S" = 2121.702   $ Sizing
 "CRtdFlo_Sys_M_Cordr_W" = 1952.095   $ Sizing
 "CRtdFlo_Sys_M_LobWait_C" = 3860.222   $ Sizing
 "CRtdFlo_Sys_M_MechElec_C" = 1270.143   $ Sizing
 "CRtdFlo_Sys_M_OfficeOpn_C" = 15893.82   $ Sizing
 "CRtdFlo_Sys_M_OfficeOpn_E" = 14967.38   $ Sizing
 "CRtdFlo_Sys_M_OfficeOpn_N" = 8278.594   $ Sizing
 "CRtdFlo_Sys_M_OfficeOpn_S" = 14434.29   $ Sizing
 "CRtdFlo_Sys_M_OfficeOpn_W" = 14152.3   $ Sizing
 "CRtdFlo_Sys_M_OfficeSm_C" = 2329.844   $ Sizing
 "CRtdFlo_Sys_M_OfficeSm_E" = 10738.39   $ Sizing
 "CRtdFlo_Sys_M_OfficeSm_N" = 5327.845   $ Sizing
 "CRtdFlo_Sys_M_OfficeSm_S" = 10476.76   $ Sizing
 "CRtdFlo_Sys_M_OfficeSm_W" = 10140.3   $ Sizing
 "CRtdFlo_Sys_M_Restrm_C" = 1687.731   $ Sizing
 "CRtdFlo_Sys_M_StorSm_C" = 3248.944   $ Sizing
 "CRtdFlo_Sys_T_Break_C" = 369.8285   $ Sizing
 "CRtdFlo_Sys_T_Conf_C" = 451.1033   $ Sizing
 "CRtdFlo_Sys_T_CopyRm_C" = 123.2373   $ Sizing
 "CRtdFlo_Sys_T_Cordr_C" = 764.5306   $ Sizing
 "CRtdFlo_Sys_T_Cordr_E" = 248.8346   $ Sizing
 "CRtdFlo_Sys_T_Cordr_N" = 120.2797   $ Sizing
 "CRtdFlo_Sys_T_Cordr_S" = 241.1742   $ Sizing
 "CRtdFlo_Sys_T_Cordr_W" = 220.8429   $ Sizing
 "CRtdFlo_Sys_T_LobWait_C" = 410.6046   $ Sizing
 "CRtdFlo_Sys_T_MechElec_C" = 181.9733   $ Sizing
 "CRtdFlo_Sys_T_OfficeOpn_C" = 1764.651   $ Sizing
 "CRtdFlo_Sys_T_OfficeOpn_E" = 1704.407   $ Sizing
 "CRtdFlo_Sys_T_OfficeOpn_N" = 911.0896   $ Sizing
 "CRtdFlo_Sys_T_OfficeOpn_S" = 1692.056   $ Sizing
 "CRtdFlo_Sys_T_OfficeOpn_W" = 1637.06   $ Sizing
 "CRtdFlo_Sys_T_OfficeSm_C" = 274.8083   $ Sizing
 "CRtdFlo_Sys_T_OfficeSm_E" = 1264.087   $ Sizing
 "CRtdFlo_Sys_T_OfficeSm_N" = 602.9791   $ Sizing
 "CRtdFlo_Sys_T_OfficeSm_S" = 1250.719   $ Sizing
 "CRtdFlo_Sys_T_OfficeSm_W" = 1197.397   $ Sizing
 "CRtdFlo_Sys_T_Restrm_C" = 210.9664   $ Sizing
 "CRtdFlo_Sys_T_StorSm_C" = 332.6785   $ Sizing
 "CSupFlo_Sys_L_Break_C" = 353.4494   $ Sizing
 "CSupFlo_Sys_L_Conf_C" = 428.1515   $ Sizing
 "CSupFlo_Sys_L_CopyRm_C" = 104.6758   $ Sizing
 "CSupFlo_Sys_L_Cordr_C" = 563.0499   $ Sizing
 "CSupFlo_Sys_L_Cordr_E" = 227.3141   $ Sizing
 "CSupFlo_Sys_L_Cordr_N" = 93.84254   $ Sizing
 "CSupFlo_Sys_L_Cordr_S" = 229.1504   $ Sizing
 "CSupFlo_Sys_L_Cordr_W" = 218.4176   $ Sizing
 "CSupFlo_Sys_L_LobWait_C" = 335.3509   $ Sizing
 "CSupFlo_Sys_L_MechElec_C" = 133.6031   $ Sizing
 "CSupFlo_Sys_L_OfficeOpn_C" = 1607.79   $ Sizing
 "CSupFlo_Sys_L_OfficeOpn_E" = 1694.526   $ Sizing
 "CSupFlo_Sys_L_OfficeOpn_N" = 855.3432   $ Sizing
 "CSupFlo_Sys_L_OfficeOpn_S" = 1664.177   $ Sizing
 "CSupFlo_Sys_L_OfficeOpn_W" = 1693.334   $ Sizing
 "CSupFlo_Sys_L_OfficeSm_C" = 234.0776   $ Sizing
 "CSupFlo_Sys_L_OfficeSm_E" = 1227.814   $ Sizing
 "CSupFlo_Sys_L_OfficeSm_N" = 536.4761   $ Sizing
 "CSupFlo_Sys_L_OfficeSm_S" = 1220.006   $ Sizing
 "CSupFlo_Sys_L_OfficeSm_W" = 1219.478   $ Sizing
 "CSupFlo_Sys_L_Restrm_C" = 210.9664   $ Sizing
 "CSupFlo_Sys_L_StorSm_C" = 379.1966   $ Sizing
 "CSupFlo_Sys_M_Break_C" = 3139.691   $ Sizing
 "CSupFlo_Sys_M_Conf_C" = 3917.265   $ Sizing
 "CSupFlo_Sys_M_CopyRm_C" = 1087.405   $ Sizing
 "CSupFlo_Sys_M_Cordr_C" = 7022.965   $ Sizing
 "CSupFlo_Sys_M_Cordr_E" = 2230.902   $ Sizing
 "CSupFlo_Sys_M_Cordr_N" = 1142.019   $ Sizing
 "CSupFlo_Sys_M_Cordr_S" = 2121.702   $ Sizing
 "CSupFlo_Sys_M_Cordr_W" = 1952.095   $ Sizing
 "CSupFlo_Sys_M_LobWait_C" = 3860.221   $ Sizing
 "CSupFlo_Sys_M_MechElec_C" = 1270.143   $ Sizing
 "CSupFlo_Sys_M_OfficeOpn_C" = 15893.81   $ Sizing
 "CSupFlo_Sys_M_OfficeOpn_E" = 14967.38   $ Sizing
 "CSupFlo_Sys_M_OfficeOpn_N" = 8278.594   $ Sizing
 "CSupFlo_Sys_M_OfficeOpn_S" = 14434.29   $ Sizing
 "CSupFlo_Sys_M_OfficeOpn_W" = 14152.3   $ Sizing
 "CSupFlo_Sys_M_OfficeSm_C" = 2329.844   $ Sizing
 "CSupFlo_Sys_M_OfficeSm_E" = 10738.39   $ Sizing
 "CSupFlo_Sys_M_OfficeSm_N" = 5327.845   $ Sizing
 "CSupFlo_Sys_M_OfficeSm_S" = 10476.76   $ Sizing
 "CSupFlo_Sys_M_OfficeSm_W" = 10140.3   $ Sizing
 "CSupFlo_Sys_M_Restrm_C" = 1687.731   $ Sizing
 "CSupFlo_Sys_M_StorSm_C" = 3248.944   $ Sizing
 "CSupFlo_Sys_T_Break_C" = 369.8285   $ Sizing
 "CSupFlo_Sys_T_Conf_C" = 451.1033   $ Sizing
 "CSupFlo_Sys_T_CopyRm_C" = 123.2373   $ Sizing
 "CSupFlo_Sys_T_Cordr_C" = 764.5306   $ Sizing
 "CSupFlo_Sys_T_Cordr_E" = 248.8346   $ Sizing
 "CSupFlo_Sys_T_Cordr_N" = 120.2797   $ Sizing
 "CSupFlo_Sys_T_Cordr_S" = 241.1742   $ Sizing
 "CSupFlo_Sys_T_Cordr_W" = 220.8429   $ Sizing
 "CSupFlo_Sys_T_LobWait_C" = 410.6046   $ Sizing
 "CSupFlo_Sys_T_MechElec_C" = 181.9733   $ Sizing
 "CSupFlo_Sys_T_OfficeOpn_C" = 1764.651   $ Sizing
 "CSupFlo_Sys_T_OfficeOpn_E" = 1704.407   $ Sizing
 "CSupFlo_Sys_T_OfficeOpn_N" = 911.0896   $ Sizing
 "CSupFlo_Sys_T_OfficeOpn_S" = 1692.056   $ Sizing
 "CSupFlo_Sys_T_OfficeOpn_W" = 1637.06   $ Sizing
 "CSupFlo_Sys_T_OfficeSm_C" = 274.8083   $ Sizing
 "CSupFlo_Sys_T_OfficeSm_E" = 1264.087   $ Sizing
 "CSupFlo_Sys_T_OfficeSm_N" = 602.9791   $ Sizing
 "CSupFlo_Sys_T_OfficeSm_S" = 1250.719   $ Sizing
 "CSupFlo_Sys_T_OfficeSm_W" = 1197.397   $ Sizing
 "CSupFlo_Sys_T_Restrm_C" = 210.9664   $ Sizing
 "CSupFlo_Sys_T_StorSm_C" = 332.6785   $ Sizing
 "ClCap_Sys_L_Break_C" = 12078.68   $ Sizing
 "ClCap_Sys_L_Conf_C" = 18621.95   $ Sizing
 "ClCap_Sys_L_CopyRm_C" = 3577.163   $ Sizing
 "ClCap_Sys_L_Cordr_C" = 19241.51   $ Sizing
 "ClCap_Sys_L_Cordr_E" = 7768.167   $ Sizing
 "ClCap_Sys_L_Cordr_N" = 3206.949   $ Sizing
 "ClCap_Sys_L_Cordr_S" = 7830.921   $ Sizing
 "ClCap_Sys_L_Cordr_W" = 7464.143   $ Sizing
 "ClCap_Sys_L_LobWait_C" = 11460.19   $ Sizing
 "ClCap_Sys_L_MechElec_C" = 4565.714   $ Sizing
 "ClCap_Sys_L_OfficeOpn_C" = 54944.17   $ Sizing
 "ClCap_Sys_L_OfficeOpn_E" = 57908.27   $ Sizing
 "ClCap_Sys_L_OfficeOpn_N" = 29230.26   $ Sizing
 "ClCap_Sys_L_OfficeOpn_S" = 56871.11   $ Sizing
 "ClCap_Sys_L_OfficeOpn_W" = 57867.52   $ Sizing
 "ClCap_Sys_L_OfficeSm_C" = 7999.303   $ Sizing
 "ClCap_Sys_L_OfficeSm_E" = 41958.98   $ Sizing
 "ClCap_Sys_L_OfficeSm_N" = 18333.38   $ Sizing
 "ClCap_Sys_L_OfficeSm_S" = 41692.14   $ Sizing
 "ClCap_Sys_L_OfficeSm_W" = 41674.11   $ Sizing
 "ClCap_Sys_L_Restrm_C" = 7209.506   $ Sizing
 "ClCap_Sys_L_StorSm_C" = 12958.56   $ Sizing
 "ClCap_Sys_M_Break_C" = 107294.9   $ Sizing
 "ClCap_Sys_M_Conf_C" = 170376.8   $ Sizing
 "ClCap_Sys_M_CopyRm_C" = 37160.67   $ Sizing
 "ClCap_Sys_M_Cordr_C" = 240000.9   $ Sizing
 "ClCap_Sys_M_Cordr_E" = 76238.22   $ Sizing
 "ClCap_Sys_M_Cordr_N" = 39027.03   $ Sizing
 "ClCap_Sys_M_Cordr_S" = 72506.45   $ Sizing
 "ClCap_Sys_M_Cordr_W" = 66710.36   $ Sizing
 "ClCap_Sys_M_LobWait_C" = 131918.1   $ Sizing
 "ClCap_Sys_M_MechElec_C" = 43405.51   $ Sizing
 "ClCap_Sys_M_OfficeOpn_C" = 543150.8   $ Sizing
 "ClCap_Sys_M_OfficeOpn_E" = 511491.1   $ Sizing
 "ClCap_Sys_M_OfficeOpn_N" = 282910.4   $ Sizing
 "ClCap_Sys_M_OfficeOpn_S" = 493273.4   $ Sizing
 "ClCap_Sys_M_OfficeOpn_W" = 483636.9   $ Sizing
 "ClCap_Sys_M_OfficeSm_C" = 79619.44   $ Sizing
 "ClCap_Sys_M_OfficeSm_E" = 366970.6   $ Sizing
 "ClCap_Sys_M_OfficeSm_N" = 182072.3   $ Sizing
 "ClCap_Sys_M_OfficeSm_S" = 358030   $ Sizing
 "ClCap_Sys_M_OfficeSm_W" = 346531.9   $ Sizing
 "ClCap_Sys_M_Restrm_C" = 57676.05   $ Sizing
 "ClCap_Sys_M_StorSm_C" = 111028.5   $ Sizing
 "ClCap_Sys_T_Break_C" = 12638.42   $ Sizing
 "ClCap_Sys_T_Conf_C" = 19620.21   $ Sizing
 "ClCap_Sys_T_CopyRm_C" = 4211.477   $ Sizing
 "ClCap_Sys_T_Cordr_C" = 26126.86   $ Sizing
 "ClCap_Sys_T_Cordr_E" = 8503.605   $ Sizing
 "ClCap_Sys_T_Cordr_N" = 4110.405   $ Sizing
 "ClCap_Sys_T_Cordr_S" = 8241.819   $ Sizing
 "ClCap_Sys_T_Cordr_W" = 7547.024   $ Sizing
 "ClCap_Sys_T_LobWait_C" = 14031.89   $ Sizing
 "ClCap_Sys_T_MechElec_C" = 6218.707   $ Sizing
 "ClCap_Sys_T_OfficeOpn_C" = 60304.68   $ Sizing
 "ClCap_Sys_T_OfficeOpn_E" = 58245.92   $ Sizing
 "ClCap_Sys_T_OfficeOpn_N" = 31135.32   $ Sizing
 "ClCap_Sys_T_OfficeOpn_S" = 57823.86   $ Sizing
 "ClCap_Sys_T_OfficeOpn_W" = 55944.42   $ Sizing
 "ClCap_Sys_T_OfficeSm_C" = 9391.221   $ Sizing
 "ClCap_Sys_T_OfficeSm_E" = 43198.55   $ Sizing
 "ClCap_Sys_T_OfficeSm_N" = 20606.04   $ Sizing
 "ClCap_Sys_T_OfficeSm_S" = 42741.71   $ Sizing
 "ClCap_Sys_T_OfficeSm_W" = 40919.52   $ Sizing
 "ClCap_Sys_T_Restrm_C" = 7209.506   $ Sizing
 "ClCap_Sys_T_StorSm_C" = 11368.86   $ Sizing
 "HtCap_Sys_L_Break_C" = -19084.04   $ Sizing
 "HtCap_Sys_L_Conf_C" = -23948.61   $ Sizing
 "HtCap_Sys_L_CopyRm_C" = -6648.967   $ Sizing
 "HtCap_Sys_L_Cordr_C" = -24874.59   $ Sizing
 "HtCap_Sys_L_Cordr_E" = -7991.62   $ Sizing
 "HtCap_Sys_L_Cordr_N" = -4167.458   $ Sizing
 "HtCap_Sys_L_Cordr_S" = -8032.104   $ Sizing
 "HtCap_Sys_L_Cordr_W" = -7731.612   $ Sizing
 "HtCap_Sys_L_LobWait_C" = -18872.12   $ Sizing
 "HtCap_Sys_L_MechElec_C" = -5895.273   $ Sizing
 "HtCap_Sys_L_OfficeOpn_C" = -78700.18   $ Sizing
 "HtCap_Sys_L_OfficeOpn_E" = -56482.93   $ Sizing
 "HtCap_Sys_L_OfficeOpn_N" = -32647.62   $ Sizing
 "HtCap_Sys_L_OfficeOpn_S" = -55464.46   $ Sizing
 "HtCap_Sys_L_OfficeOpn_W" = -56437.77   $ Sizing
 "HtCap_Sys_L_OfficeSm_C" = -9002.52   $ Sizing
 "HtCap_Sys_L_OfficeSm_E" = -39351.31   $ Sizing
 "HtCap_Sys_L_OfficeSm_N" = -20662.65   $ Sizing
 "HtCap_Sys_L_OfficeSm_S" = -40218.28   $ Sizing
 "HtCap_Sys_L_OfficeSm_W" = -40416.85   $ Sizing
 "HtCap_Sys_L_Restrm_C" = -7760.545   $ Sizing
 "HtCap_Sys_L_StorSm_C" = -16114.5   $ Sizing
 "HtCap_Sys_M_Break_C" = -161480.2   $ Sizing
 "HtCap_Sys_M_Conf_C" = -205698.1   $ Sizing
 "HtCap_Sys_M_CopyRm_C" = -60326.1   $ Sizing
 "HtCap_Sys_M_Cordr_C" = -270432.1   $ Sizing
 "HtCap_Sys_M_Cordr_E" = -75821.58   $ Sizing
 "HtCap_Sys_M_Cordr_N" = -44563.34   $ Sizing
 "HtCap_Sys_M_Cordr_S" = -72337.8   $ Sizing
 "HtCap_Sys_M_Cordr_W" = -67749.77   $ Sizing
 "HtCap_Sys_M_LobWait_C" = -184665.5   $ Sizing
 "HtCap_Sys_M_MechElec_C" = -52894.17   $ Sizing
 "HtCap_Sys_M_OfficeOpn_C" = -779506.8   $ Sizing
 "HtCap_Sys_M_OfficeOpn_E" = -490980.2   $ Sizing
 "HtCap_Sys_M_OfficeOpn_N" = -301312.6   $ Sizing
 "HtCap_Sys_M_OfficeOpn_S" = -474156.2   $ Sizing
 "HtCap_Sys_M_OfficeOpn_W" = -467750.6   $ Sizing
 "HtCap_Sys_M_OfficeSm_C" = -85014.34   $ Sizing
 "HtCap_Sys_M_OfficeSm_E" = -342616.5   $ Sizing
 "HtCap_Sys_M_OfficeSm_N" = -195049.3   $ Sizing
 "HtCap_Sys_M_OfficeSm_S" = -341165.8   $ Sizing
 "HtCap_Sys_M_OfficeSm_W" = -333316.7   $ Sizing
 "HtCap_Sys_M_Restrm_C" = -66785.99   $ Sizing
 "HtCap_Sys_M_StorSm_C" = -133871.2   $ Sizing
 "HtCap_Sys_T_Break_C" = -20094.88   $ Sizing
 "HtCap_Sys_T_Conf_C" = -25161.35   $ Sizing
 "HtCap_Sys_T_CopyRm_C" = -7281.789   $ Sizing
 "HtCap_Sys_T_Cordr_C" = -32484.41   $ Sizing
 "HtCap_Sys_T_Cordr_E" = -9526.882   $ Sizing
 "HtCap_Sys_T_Cordr_N" = -5332.643   $ Sizing
 "HtCap_Sys_T_Cordr_S" = -9011.367   $ Sizing
 "HtCap_Sys_T_Cordr_W" = -8629.465   $ Sizing
 "HtCap_Sys_T_LobWait_C" = -21771.84   $ Sizing
 "HtCap_Sys_T_MechElec_C" = -7273.227   $ Sizing
 "HtCap_Sys_T_OfficeOpn_C" = -86222.81   $ Sizing
 "HtCap_Sys_T_OfficeOpn_E" = -62101.56   $ Sizing
 "HtCap_Sys_T_OfficeOpn_N" = -37613.05   $ Sizing
 "HtCap_Sys_T_OfficeOpn_S" = -60524.7   $ Sizing
 "HtCap_Sys_T_OfficeOpn_W" = -59941.96   $ Sizing
 "HtCap_Sys_T_OfficeSm_C" = -11098.56   $ Sizing
 "HtCap_Sys_T_OfficeSm_E" = -45064.47   $ Sizing
 "HtCap_Sys_T_OfficeSm_N" = -24669.33   $ Sizing
 "HtCap_Sys_T_OfficeSm_S" = -45251.41   $ Sizing
 "HtCap_Sys_T_OfficeSm_W" = -43831.45   $ Sizing
 "HtCap_Sys_T_Restrm_C" = -8349.807   $ Sizing
 "HtCap_Sys_T_StorSm_C" = -15752.13   $ Sizing
..

##include Templates\OfL_DX_SZ.inp
END ..
COMPUTE ..
STOP ..
