
Start DOESIM : Storage capacity =  75000000
Starting LOADS   : SAVE-FILES is On , weather is CZ14PALMDALE-AP     
Finished LOADS    BDL  1 : Memory (wds) =    391958, Time (sec) =    1.82
Starting REPORT  
Finished REPORT   BDL  1 : Memory (wds) =    784896, Time (sec) =    0.86
Starting HVAC    : SAVE-FILES is On , weather is CZ14PALMDALE-AP     
*** ERRORS or WARNINGS from HVAC     program. Examine output file for details.
Finished HVAC     BDL  1 : Memory (wds) =    676489, Time (sec) =   10.08
Starting REPORT  
Finished REPORT   BDL  1 : Memory (wds) =   1186839, Time (sec) =    0.87
Starting HOURLY-R
Finished HOURLY-R BDL  1 : Memory (wds) =   1519802, Time (sec) =    0.13
Starting ECONOMIC
Finished ECONOMIC BDL  1 : Memory (wds) =      1034, Time (sec) =    0.03
End   DOESIM : Total elapsed time of     13.8 seconds
RUN COMPLETE
