INPUT ..

##fileprefix C:\Users\jglasskatz\MASControl3\
##set1 IsSizing FALSE
##set1 CoolType DX
##set1 HeatType FURNACE
##set1 EU_HrRepVar 0
##set1 BldgVint 2003
##set1 BldgLoc CZ03

 ##set1 mBFMult 1   $ IP Tech: RefgChg-NRes-Std

PARAMETER
 "AltFactor" = 1.00025   $ IP Non-Tech
 "BF_fFlow" = SpltAC1Sp_BF_fFlow   $ Msr (Var)TechID: PreNResSplitAC-lt45-PENo
 "BF_fT" = SpltAC1Sp_BF_fT   $ Msr (Var)TechID: PreNResSplitAC-lt45-PENo
 "BldgEconoFlag" = 1   $ IP Non-Tech
 "Break_EWSF" = 1   $ IP Non-Tech
 "Break_LWSF" = 1.1   $ IP Non-Tech
 "CDD_DBHi10" = 74   $ IP Non-Tech
 "CDD_DBHi7" = 78   $ IP Non-Tech
 "CDD_DBHi8" = 73   $ IP Non-Tech
 "CDD_DBHi9" = 83   $ IP Non-Tech
 "CDD_DBRange10" = 25   $ IP Non-Tech
 "CDD_DBRange7" = 24   $ IP Non-Tech
 "CDD_DBRange8" = 10   $ IP Non-Tech
 "CDD_DBRange9" = 25   $ IP Non-Tech
 "CDD_Day10" = 15   $ IP Non-Tech
 "CDD_Day7" = 16   $ IP Non-Tech
 "CDD_Day8" = 20   $ IP Non-Tech
 "CDD_Day9" = 17   $ IP Non-Tech
 "CDD_HrHi10" = 16   $ IP Non-Tech
 "CDD_HrHi7" = 13   $ IP Non-Tech
 "CDD_HrHi8" = 17   $ IP Non-Tech
 "CDD_HrHi9" = 15   $ IP Non-Tech
 "CDD_HrLo10" = 8   $ IP Non-Tech
 "CDD_HrLo7" = 5   $ IP Non-Tech
 "CDD_HrLo8" = 7   $ IP Non-Tech
 "CDD_HrLo9" = 7   $ IP Non-Tech
 "CDD_WB10" = 60.13755417   $ IP Non-Tech
 "CDD_WB7" = 64.09266663   $ IP Non-Tech
 "CDD_WB8" = 62.55457306   $ IP Non-Tech
 "CDD_WB9" = 64.6887207   $ IP Non-Tech
 "CEIR_fPLR_Hot" = SpltAC1Sp_CEIR_fPLR_Hot   $ Msr (Var)TechID: PreNResSplitAC-lt45-PENo
 "CEIR_fPLR_Mod" = SpltAC1Sp_CEIR_fPLR_Mod   $ Msr (Var)TechID: PreNResSplitAC-lt45-PENo
 "CEIR_fPLR_Tem" = SpltAC1Sp_CEIR_fPLR_Tem   $ Msr (Var)TechID: PreNResSplitAC-lt45-PENo
 "CLoss_fPLR_Hot" = SpltAC1Sp_CLoss_fPLR_Hot   $ Msr (Var)TechID: PreNResSplitAC-lt45-PENo
 "CLoss_fPLR_Mod" = SpltAC1Sp_CLoss_fPLR_Mod   $ Msr (Var)TechID: PreNResSplitAC-lt45-PENo
 "CLoss_fPLR_Tem" = SpltAC1Sp_CLoss_fPLR_Tem   $ Msr (Var)TechID: PreNResSplitAC-lt45-PENo
 "COP47" = 0   $ Msr (Var)TechID: PreNResSplitAC-lt45-PENo
 "CZ_Category" = Tem   $ IP Non-Tech
 "CapRange" = Any   $ Msr (Var)TechID: PreNResSplitAC-lt45-PENo
 "CfmPerBtuh" = 0.0321   $ Msr (Var)TechID: PreNResSplitAC-lt45-PENo
 "ChwVintEconoFlag" = 1   $ IP Non-Tech
 "ClCap_fT" = SpltAC1Sp_ClCap_fT   $ Msr (Var)TechID: PreNResSplitAC-lt45-PENo
 "ClSH_fT" = SpltAC1Sp_ClSH_fT   $ Msr (Var)TechID: PreNResSplitAC-lt45-PENo
 "CoilBF" = 0.12   $ Msr (Var)TechID: PreNResSplitAC-lt45-PENo
 "CondWPerBtuh" = 0   $ Msr (Var)TechID: PreNResSplitAC-lt45-PENo
 "Conference_EWSF" = 1   $ IP Non-Tech
 "Conference_LWSF" = 1.4   $ IP Non-Tech
 "CoolSensCap" = 0.744   $ Msr (Var)TechID: PreNResSplitAC-lt45-PENo
 "CoolSetT" = 45   $ IP Non-Tech
 "CoolType" = DX   $ IP Non-Tech
 "CoolingEIR" = 0.29437   $ Msr (Var)TechID: PreNResSplitAC-lt45-PENo
 "CopyRoom_EWSF" = 1.5   $ IP Non-Tech
 "CopyRoom_LWSF" = 1.3   $ IP Non-Tech
 "CorridorStairway_EWSF" = 0.2   $ IP Non-Tech
 "CorridorStairway_LWSF" = 0.6   $ IP Non-Tech
 "CrnkEIR" = 0.0029437   $ Msr (Var)TechID: PreNResSplitAC-lt45-PENo
 "CrnkMaxT" = 50   $ Msr (Var)TechID: PreNResSplitAC-lt45-PENo
 "DXType" = SplitSEER   $ Msr (Var)TechID: PreNResSplitAC-lt45-PENo
 "DesCoolT" = 75   $ IP Non-Tech
 "DesHeatT" = 73   $ IP Non-Tech
 "EER" = 9.799295775   $ Msr (Var)TechID: PreNResSplitAC-lt45-PENo
 "EIR_fT" = SpltAC1Sp_EIR_fT   $ Msr (Var)TechID: PreNResSplitAC-lt45-PENo
 "EconoCtrl" = FIXED   $ Msr (Multi)TechID: PreNResSplitAC-lt45-PENo
 "EconoEnthLimit" = 28   $ IP Non-Tech
 "EconoTempLimit" = 70   $ IP Non-Tech
 "Elevation" = 6   $ IP Non-Tech
 "FanEirPlr" = TwoSpeedFan   $ Msr (Var)TechID: PreNResSplitAC-lt45-PENo
 "FanWPerCfm" = 0.365   $ Msr (Var)TechID: PreNResSplitAC-lt45-PENo
 "HDD_CloudAmt1" = 0   $ IP Non-Tech
 "HDD_DBHi1" = 51   $ IP Non-Tech
 "HDD_DBRange1" = 17   $ IP Non-Tech
 "HDD_Day1" = 15   $ IP Non-Tech
 "HDD_HrHi1" = 16   $ IP Non-Tech
 "HDD_HrLo1" = 9   $ IP Non-Tech
 "HDD_WB1" = 42.6   $ IP Non-Tech
 "HDD_WindSpd1" = 15   $ IP Non-Tech
 "HIR_fT" = 0   $ Msr (Var)TechID: PreNResSplitAC-lt45-PENo
 "HSPF" = 0   $ Msr (Var)TechID: PreNResSplitAC-lt45-PENo
 "HeatSrc" = FURNACE   $ IP Non-Tech
 "HeatSrcTU" = HEAT-PUMP   $ IP Non-Tech
 "HeatType" = GasFurn   $ IP Non-Tech
 "HeatTypeTU" = HEAT-PUMP   $ IP Non-Tech
 "HtCap_fT" = 0   $ Msr (Var)TechID: PreNResSplitAC-lt45-PENo
 "HtCoolCapRatio" = 0   $ Msr (Var)TechID: PreNResSplitAC-lt45-PENo
 "HtgEIR" = 0   $ Msr (Var)TechID: PreNResSplitAC-lt45-PENo
 "IndoorFanMode" = CONTINUOUS   $ IP Non-Tech
 "KT_TransferAir" = No   $ IP Non-Tech
 "Latitude" = 37.7   $ IP Non-Tech
 "LobbyWaiting_EWSF" = 0.5   $ IP Non-Tech
 "LobbyWaiting_LWSF" = 1.3   $ IP Non-Tech
 "Longitude" = 122.2   $ IP Non-Tech
 "LowSpdCapRatio" = 1   $ Msr (Var)TechID: PreNResSplitAC-lt45-PENo
 "LowSpdCfmRatio" = 1   $ Msr (Var)TechID: PreNResSplitAC-lt45-PENo
 "MZFanMechEff" = 0.58   $ IP Non-Tech
 "MZHasRetFan" = FALSE   $ IP Non-Tech
 "MZ_RFanWPerCfm" = 0.37   $ IP Non-Tech
 "MZ_SFanWPerCfm" = 0.71   $ IP Non-Tech
 "MZ_SupFanStatic" = 2.25   $ IP Non-Tech
 "MaxOAFrac" = 1   $ Msr (Multi)TechID: PreNResSplitAC-lt45-PENo
 "MaxSupT_MZ" = 100   $ IP Non-Tech
 "MaxSupT_SZ" = 100   $ IP Non-Tech
 "MaxSupT_TU" = 90   $ IP Non-Tech
 "MechElecRoom_EWSF" = 0.2   $ IP Non-Tech
 "MechElecRoom_LWSF" = 0.7   $ IP Non-Tech
 "MinCfmPerSF" = 0.4   $ IP Non-Tech
 "MinSupT" = 55   $ IP Non-Tech
 "NumStages" = 1   $ Msr (Var)TechID: PreNResSplitAC-lt45-PENo
 "OccCoolT" = 76   $ IP Non-Tech
 "OccHeatT" = 72   $ IP Non-Tech
 "OfficeOpen_EWSF" = 1.5   $ IP Non-Tech
 "OfficeOpen_LWSF" = 1.2   $ IP Non-Tech
 "OfficeSmall_EWSF" = 1.5   $ IP Non-Tech
 "OfficeSmall_LWSF" = 1.3   $ IP Non-Tech
 "PkgDxVintEconoFlag" = 0   $ IP Non-Tech
 "Restroom_EWSF" = 0.2   $ IP Non-Tech
 "Restroom_LWSF" = 0.6   $ IP Non-Tech
 "SEER" = 11.5   $ Msr (Var)TechID: PreNResSplitAC-lt45-PENo
 "SZFanMechEff" = 0.58   $ IP Non-Tech
 "SZHasRetFan" = FALSE   $ IP Non-Tech
 "SZ_Is_2Spd" = FALSE   $ IP Non-Tech
 "SZ_SFanWPerCfm" = 0.46   $ IP Non-Tech
 "SZ_SupFanStatic" = 0.75   $ IP Non-Tech
 "Sector" = Any   $ Msr (Var)TechID: PreNResSplitAC-lt45-PENo
 "StorageSmlCond_EWSF" = 0.2   $ IP Non-Tech
 "StorageSmlCond_LWSF" = 0.6   $ IP Non-Tech
 "SubType" = AC   $ Msr (Var)TechID: PreNResSplitAC-lt45-PENo
 "T24GlzTbl" = CZTbl   $ IP Non-Tech
 "TermUnitFanMechEff" = 1   $ IP Non-Tech
 "TermUnitFanMode" = INTERMITTENT   $ IP Non-Tech
 "TotCoolCap" = 34895   $ Msr (Var)TechID: PreNResSplitAC-lt45-PENo
 "TwrSetpt" = 80   $ IP Non-Tech
 "UnocCoolT" = 86   $ IP Non-Tech
 "UnocHeatT" = 62   $ IP Non-Tech
 "UseEconoVintApplic" = FALSE   $ Msr (Multi)TechID: PreNResSplitAC-lt45-PENo
 "WlhpVintEconoFlag" = 0   $ IP Non-Tech
 "DuctDT" = 1   $ IP Tech: ComDuctInsul-1
 "DuctAirLoss" = 0   $ IP Tech: ComDuctLeak-0
 "DuctLossOAFrac" = 0   $ IP Tech: ComDuctLeak-0
 "ComRoofInsCalc" = FromUo   $ IP Tech: ComRoofIns-Hvy-0.06
 "ComRoofInsR" = -999   $ IP Tech: ComRoofIns-Hvy-0.06
 "ComRoofUo" = 0.06   $ IP Tech: ComRoofIns-Hvy-0.06
 "ComEWInsCalc" = FromUo   $ IP Tech: ComWallIns-MFrm-0.14
 "ComEWInsR" = -999   $ IP Tech: ComWallIns-MFrm-0.14
 "ComEWUo" = 0.14   $ IP Tech: ComWallIns-MFrm-0.14
 "ComN_SHGC" = 0.61   $ IP Tech: NResWin-ComN-0.77-0.61
 "ComN_UFactor" = 0.77   $ IP Tech: NResWin-ComN-0.77-0.61
 "ComN_VisTrans" = 0.77   $ IP Tech: NResWin-ComN-0.77-0.61
 "ComN_WinCode" = G2600   $ IP Tech: NResWin-ComN-0.77-0.61
 "ComN_WinFrmFrac" = 0.17   $ IP Tech: NResWin-ComN-0.77-0.61
 "ComN_WinFrmU" = 1   $ IP Tech: NResWin-ComN-0.77-0.61
 "ComO_SHGC" = 0.41   $ IP Tech: NResWin-ComO-0.77-0.41
 "ComO_UFactor" = 0.77   $ IP Tech: NResWin-ComO-0.77-0.41
 "ComO_VisTrans" = 0.44   $ IP Tech: NResWin-ComO-0.77-0.41
 "ComO_WinCode" = G2636   $ IP Tech: NResWin-ComO-0.77-0.41
 "ComO_WinFrmFrac" = 0.17   $ IP Tech: NResWin-ComO-0.77-0.41
 "ComO_WinFrmU" = 1   $ IP Tech: NResWin-ComO-0.77-0.41
 "LtgMsrApplic" = ALL   $ IP Tech: NonResLtgRefPre
 "LtgSav_CFL" = 0   $ IP Tech: NonResLtgRefPre
 "LtgSav_EX" = 0   $ IP Tech: NonResLtgRefPre
 "LtgSav_HB" = 0   $ IP Tech: NonResLtgRefPre
 "LtgSav_LF" = 0   $ IP Tech: NonResLtgRefPre
 "LtgSav_SP" = 0   $ IP Tech: NonResLtgRefPre
 "CEIR_fPLR" = PSZ65to135_CEIR_fPLR   $ IP Tech: PkgAC1SpH-65to135-E10
 "CLoss_fPLR" = PSZ65to135_CLoss_fPLR   $ IP Tech: PkgAC1SpH-65to135-E10
 "COP" = -1   $ IP Tech: PkgAC1SpH-65to135-E10
 "HtgFuel" = Gas   $ IP Tech: PkgAC1SpH-65to135-E10
 "IEER" = 11.87   $ IP Tech: PkgAC1SpH-65to135-E10
 "NominalCap" = 15   $ IP Tech: PkgAC1SpH-65to135-E10
 "RatedEER" = 10   $ IP Tech: PkgAC1SpH-65to135-E10
 "RatedSupMtrClass" = HiEff   $ IP Tech: PkgAC1SpH-65to135-E10
 "SizeRange" = 65to135   $ IP Tech: PkgAC1SpH-65to135-E10
 "SupMotEff" = 0.84   $ IP Tech: PkgAC1SpH-65to135-E10
 "Tier" = 0   $ IP Tech: PkgAC1SpH-65to135-E10
 "FanPwrMult" = 1   $ IP Tech: PkgFurn-0.80AFUE
 "FurnAFUE" = 0.8   $ IP Tech: PkgFurn-0.80AFUE
 "FurnEt" = 0.82   $ IP Tech: PkgFurn-0.80AFUE
 "FurnaceAuxKW" = 0.1   $ IP Tech: PkgFurn-0.80AFUE
 "HIR_fPLR" = Furnace-HIR-fPLR   $ IP Tech: PkgFurn-0.80AFUE
 "VSM" = FALSE   $ IP Tech: PkgFurn-0.80AFUE
 "BFMult" = 1   $ IP Tech: RefgChg-NRes-Std
 "CoolEirMult" = 1   $ IP Tech: RefgChg-NRes-Std
 "SensCoolCapMult" = 1   $ IP Tech: RefgChg-NRes-Std
 "TotCoolCapMult" = 1   $ IP Tech: RefgChg-NRes-Std
 "AltAdjFactor" = 1.000254   $ Sizing
 "CAssFlo_L_Break_CZn" = 364.4581   $ Sizing
 "CAssFlo_L_Conf_CZn" = 426.558   $ Sizing
 "CAssFlo_L_CopyRm_CZn" = 107.0194   $ Sizing
 "CAssFlo_L_Cordr_CZn" = 561.3534   $ Sizing
 "CAssFlo_L_Cordr_EZn" = 232.6685   $ Sizing
 "CAssFlo_L_Cordr_NZn" = 99.65382   $ Sizing
 "CAssFlo_L_Cordr_SZn" = 244.5422   $ Sizing
 "CAssFlo_L_Cordr_WZn" = 228.0105   $ Sizing
 "CAssFlo_L_LobWait_CZn" = 368.1382   $ Sizing
 "CAssFlo_L_MechElec_CZn" = 133.2005   $ Sizing
 "CAssFlo_L_OfficeOpn_CZn" = 1679.615   $ Sizing
 "CAssFlo_L_OfficeOpn_EZn" = 1843.923   $ Sizing
 "CAssFlo_L_OfficeOpn_NZn" = 942.4227   $ Sizing
 "CAssFlo_L_OfficeOpn_SZn" = 1867.09   $ Sizing
 "CAssFlo_L_OfficeOpn_WZn" = 1840.735   $ Sizing
 "CAssFlo_L_OfficeSm_CZn" = 217.4194   $ Sizing
 "CAssFlo_L_OfficeSm_EZn" = 1319.131   $ Sizing
 "CAssFlo_L_OfficeSm_NZn" = 599.3495   $ Sizing
 "CAssFlo_L_OfficeSm_SZn" = 1365.41   $ Sizing
 "CAssFlo_L_OfficeSm_WZn" = 1315.836   $ Sizing
 "CAssFlo_L_Restrm_CZn" = 210.3307   $ Sizing
 "CAssFlo_L_StorSm_CZn" = 347.4579   $ Sizing
 "CAssFlo_M_Break_CZn" = 399.2227   $ Sizing
 "CAssFlo_M_Conf_CZn" = 479.5282   $ Sizing
 "CAssFlo_M_CopyRm_CZn" = 134.7751   $ Sizing
 "CAssFlo_M_Cordr_CZn" = 819.4426   $ Sizing
 "CAssFlo_M_Cordr_EZn" = 284.9581   $ Sizing
 "CAssFlo_M_Cordr_NZn" = 125.2036   $ Sizing
 "CAssFlo_M_Cordr_SZn" = 284.6835   $ Sizing
 "CAssFlo_M_Cordr_WZn" = 260.5163   $ Sizing
 "CAssFlo_M_LobWait_CZn" = 484.1312   $ Sizing
 "CAssFlo_M_MechElec_CZn" = 149.5564   $ Sizing
 "CAssFlo_M_OfficeOpn_CZn" = 1975.442   $ Sizing
 "CAssFlo_M_OfficeOpn_EZn" = 2005.553   $ Sizing
 "CAssFlo_M_OfficeOpn_NZn" = 1061.504   $ Sizing
 "CAssFlo_M_OfficeOpn_SZn" = 2045.542   $ Sizing
 "CAssFlo_M_OfficeOpn_WZn" = 1945.807   $ Sizing
 "CAssFlo_M_OfficeSm_CZn" = 284.5944   $ Sizing
 "CAssFlo_M_OfficeSm_EZn" = 1425.526   $ Sizing
 "CAssFlo_M_OfficeSm_NZn" = 677.1705   $ Sizing
 "CAssFlo_M_OfficeSm_SZn" = 1482.164   $ Sizing
 "CAssFlo_M_OfficeSm_WZn" = 1384.333   $ Sizing
 "CAssFlo_M_Restrm_CZn" = 210.3307   $ Sizing
 "CAssFlo_M_StorSm_CZn" = 389.5185   $ Sizing
 "CAssFlo_T_Break_CZn" = 376.3922   $ Sizing
 "CAssFlo_T_Conf_CZn" = 448.8473   $ Sizing
 "CAssFlo_T_CopyRm_CZn" = 128.7591   $ Sizing
 "CAssFlo_T_Cordr_CZn" = 709.9416   $ Sizing
 "CAssFlo_T_Cordr_EZn" = 249.3782   $ Sizing
 "CAssFlo_T_Cordr_NZn" = 114.364   $ Sizing
 "CAssFlo_T_Cordr_SZn" = 258.6884   $ Sizing
 "CAssFlo_T_Cordr_WZn" = 234.855   $ Sizing
 "CAssFlo_T_LobWait_CZn" = 431.6541   $ Sizing
 "CAssFlo_T_MechElec_CZn" = 168.5833   $ Sizing
 "CAssFlo_T_OfficeOpn_CZn" = 1823.713   $ Sizing
 "CAssFlo_T_OfficeOpn_EZn" = 1810.501   $ Sizing
 "CAssFlo_T_OfficeOpn_NZn" = 995.3925   $ Sizing
 "CAssFlo_T_OfficeOpn_SZn" = 1904.902   $ Sizing
 "CAssFlo_T_OfficeOpn_WZn" = 1786.611   $ Sizing
 "CAssFlo_T_OfficeSm_CZn" = 257.5822   $ Sizing
 "CAssFlo_T_OfficeSm_EZn" = 1326.934   $ Sizing
 "CAssFlo_T_OfficeSm_NZn" = 646.0407   $ Sizing
 "CAssFlo_T_OfficeSm_SZn" = 1412.21   $ Sizing
 "CAssFlo_T_OfficeSm_WZn" = 1300.931   $ Sizing
 "CAssFlo_T_Restrm_CZn" = 210.3307   $ Sizing
 "CAssFlo_T_StorSm_CZn" = 331.6761   $ Sizing
 "CHRtFlo_Sys_L_Break_C" = 364.4581   $ Sizing
 "CHRtFlo_Sys_L_Conf_C" = 426.558   $ Sizing
 "CHRtFlo_Sys_L_CopyRm_C" = 107.0194   $ Sizing
 "CHRtFlo_Sys_L_Cordr_C" = 561.3534   $ Sizing
 "CHRtFlo_Sys_L_Cordr_E" = 232.6685   $ Sizing
 "CHRtFlo_Sys_L_Cordr_N" = 99.65382   $ Sizing
 "CHRtFlo_Sys_L_Cordr_S" = 244.5422   $ Sizing
 "CHRtFlo_Sys_L_Cordr_W" = 228.0105   $ Sizing
 "CHRtFlo_Sys_L_LobWait_C" = 368.1382   $ Sizing
 "CHRtFlo_Sys_L_MechElec_C" = 133.2005   $ Sizing
 "CHRtFlo_Sys_L_OfficeOpn_C" = 1679.615   $ Sizing
 "CHRtFlo_Sys_L_OfficeOpn_E" = 1843.923   $ Sizing
 "CHRtFlo_Sys_L_OfficeOpn_N" = 942.4227   $ Sizing
 "CHRtFlo_Sys_L_OfficeOpn_S" = 1867.09   $ Sizing
 "CHRtFlo_Sys_L_OfficeOpn_W" = 1840.735   $ Sizing
 "CHRtFlo_Sys_L_OfficeSm_C" = 217.4194   $ Sizing
 "CHRtFlo_Sys_L_OfficeSm_E" = 1319.131   $ Sizing
 "CHRtFlo_Sys_L_OfficeSm_N" = 599.3495   $ Sizing
 "CHRtFlo_Sys_L_OfficeSm_S" = 1365.41   $ Sizing
 "CHRtFlo_Sys_L_OfficeSm_W" = 1315.836   $ Sizing
 "CHRtFlo_Sys_L_Restrm_C" = 210.3307   $ Sizing
 "CHRtFlo_Sys_L_StorSm_C" = 347.4579   $ Sizing
 "CHRtFlo_Sys_M_Break_C" = 3193.781   $ Sizing
 "CHRtFlo_Sys_M_Conf_C" = 3836.226   $ Sizing
 "CHRtFlo_Sys_M_CopyRm_C" = 1078.201   $ Sizing
 "CHRtFlo_Sys_M_Cordr_C" = 6555.541   $ Sizing
 "CHRtFlo_Sys_M_Cordr_E" = 2279.665   $ Sizing
 "CHRtFlo_Sys_M_Cordr_N" = 1001.628   $ Sizing
 "CHRtFlo_Sys_M_Cordr_S" = 2277.468   $ Sizing
 "CHRtFlo_Sys_M_Cordr_W" = 2084.13   $ Sizing
 "CHRtFlo_Sys_M_LobWait_C" = 3873.049   $ Sizing
 "CHRtFlo_Sys_M_MechElec_C" = 1196.451   $ Sizing
 "CHRtFlo_Sys_M_OfficeOpn_C" = 15803.54   $ Sizing
 "CHRtFlo_Sys_M_OfficeOpn_E" = 16044.42   $ Sizing
 "CHRtFlo_Sys_M_OfficeOpn_N" = 8492.028   $ Sizing
 "CHRtFlo_Sys_M_OfficeOpn_S" = 16364.34   $ Sizing
 "CHRtFlo_Sys_M_OfficeOpn_W" = 15566.46   $ Sizing
 "CHRtFlo_Sys_M_OfficeSm_C" = 2276.755   $ Sizing
 "CHRtFlo_Sys_M_OfficeSm_E" = 11404.21   $ Sizing
 "CHRtFlo_Sys_M_OfficeSm_N" = 5417.364   $ Sizing
 "CHRtFlo_Sys_M_OfficeSm_S" = 11857.32   $ Sizing
 "CHRtFlo_Sys_M_OfficeSm_W" = 11074.67   $ Sizing
 "CHRtFlo_Sys_M_Restrm_C" = 1682.646   $ Sizing
 "CHRtFlo_Sys_M_StorSm_C" = 3116.148   $ Sizing
 "CHRtFlo_Sys_T_Break_C" = 376.3922   $ Sizing
 "CHRtFlo_Sys_T_Conf_C" = 448.8473   $ Sizing
 "CHRtFlo_Sys_T_CopyRm_C" = 128.7591   $ Sizing
 "CHRtFlo_Sys_T_Cordr_C" = 709.9416   $ Sizing
 "CHRtFlo_Sys_T_Cordr_E" = 249.3782   $ Sizing
 "CHRtFlo_Sys_T_Cordr_N" = 114.364   $ Sizing
 "CHRtFlo_Sys_T_Cordr_S" = 258.6884   $ Sizing
 "CHRtFlo_Sys_T_Cordr_W" = 234.855   $ Sizing
 "CHRtFlo_Sys_T_LobWait_C" = 431.6541   $ Sizing
 "CHRtFlo_Sys_T_MechElec_C" = 168.5833   $ Sizing
 "CHRtFlo_Sys_T_OfficeOpn_C" = 1823.713   $ Sizing
 "CHRtFlo_Sys_T_OfficeOpn_E" = 1810.501   $ Sizing
 "CHRtFlo_Sys_T_OfficeOpn_N" = 995.3925   $ Sizing
 "CHRtFlo_Sys_T_OfficeOpn_S" = 1904.902   $ Sizing
 "CHRtFlo_Sys_T_OfficeOpn_W" = 1786.611   $ Sizing
 "CHRtFlo_Sys_T_OfficeSm_C" = 257.5822   $ Sizing
 "CHRtFlo_Sys_T_OfficeSm_E" = 1326.934   $ Sizing
 "CHRtFlo_Sys_T_OfficeSm_N" = 646.0407   $ Sizing
 "CHRtFlo_Sys_T_OfficeSm_S" = 1412.21   $ Sizing
 "CHRtFlo_Sys_T_OfficeSm_W" = 1300.931   $ Sizing
 "CHRtFlo_Sys_T_Restrm_C" = 210.3307   $ Sizing
 "CHRtFlo_Sys_T_StorSm_C" = 331.6761   $ Sizing
 "CRtdFlo_Sys_L_Break_C" = 364.4581   $ Sizing
 "CRtdFlo_Sys_L_Conf_C" = 426.558   $ Sizing
 "CRtdFlo_Sys_L_CopyRm_C" = 107.0194   $ Sizing
 "CRtdFlo_Sys_L_Cordr_C" = 561.3534   $ Sizing
 "CRtdFlo_Sys_L_Cordr_E" = 232.6685   $ Sizing
 "CRtdFlo_Sys_L_Cordr_N" = 99.65382   $ Sizing
 "CRtdFlo_Sys_L_Cordr_S" = 244.5422   $ Sizing
 "CRtdFlo_Sys_L_Cordr_W" = 228.0105   $ Sizing
 "CRtdFlo_Sys_L_LobWait_C" = 368.1382   $ Sizing
 "CRtdFlo_Sys_L_MechElec_C" = 133.2005   $ Sizing
 "CRtdFlo_Sys_L_OfficeOpn_C" = 1679.615   $ Sizing
 "CRtdFlo_Sys_L_OfficeOpn_E" = 1843.923   $ Sizing
 "CRtdFlo_Sys_L_OfficeOpn_N" = 942.4227   $ Sizing
 "CRtdFlo_Sys_L_OfficeOpn_S" = 1867.09   $ Sizing
 "CRtdFlo_Sys_L_OfficeOpn_W" = 1840.735   $ Sizing
 "CRtdFlo_Sys_L_OfficeSm_C" = 217.4194   $ Sizing
 "CRtdFlo_Sys_L_OfficeSm_E" = 1319.131   $ Sizing
 "CRtdFlo_Sys_L_OfficeSm_N" = 599.3495   $ Sizing
 "CRtdFlo_Sys_L_OfficeSm_S" = 1365.41   $ Sizing
 "CRtdFlo_Sys_L_OfficeSm_W" = 1315.836   $ Sizing
 "CRtdFlo_Sys_L_Restrm_C" = 210.3307   $ Sizing
 "CRtdFlo_Sys_L_StorSm_C" = 347.4579   $ Sizing
 "CRtdFlo_Sys_M_Break_C" = 3193.781   $ Sizing
 "CRtdFlo_Sys_M_Conf_C" = 3836.226   $ Sizing
 "CRtdFlo_Sys_M_CopyRm_C" = 1078.201   $ Sizing
 "CRtdFlo_Sys_M_Cordr_C" = 6555.541   $ Sizing
 "CRtdFlo_Sys_M_Cordr_E" = 2279.665   $ Sizing
 "CRtdFlo_Sys_M_Cordr_N" = 1001.628   $ Sizing
 "CRtdFlo_Sys_M_Cordr_S" = 2277.468   $ Sizing
 "CRtdFlo_Sys_M_Cordr_W" = 2084.13   $ Sizing
 "CRtdFlo_Sys_M_LobWait_C" = 3873.049   $ Sizing
 "CRtdFlo_Sys_M_MechElec_C" = 1196.451   $ Sizing
 "CRtdFlo_Sys_M_OfficeOpn_C" = 15803.54   $ Sizing
 "CRtdFlo_Sys_M_OfficeOpn_E" = 16044.42   $ Sizing
 "CRtdFlo_Sys_M_OfficeOpn_N" = 8492.028   $ Sizing
 "CRtdFlo_Sys_M_OfficeOpn_S" = 16364.34   $ Sizing
 "CRtdFlo_Sys_M_OfficeOpn_W" = 15566.46   $ Sizing
 "CRtdFlo_Sys_M_OfficeSm_C" = 2276.755   $ Sizing
 "CRtdFlo_Sys_M_OfficeSm_E" = 11404.21   $ Sizing
 "CRtdFlo_Sys_M_OfficeSm_N" = 5417.364   $ Sizing
 "CRtdFlo_Sys_M_OfficeSm_S" = 11857.32   $ Sizing
 "CRtdFlo_Sys_M_OfficeSm_W" = 11074.67   $ Sizing
 "CRtdFlo_Sys_M_Restrm_C" = 1682.646   $ Sizing
 "CRtdFlo_Sys_M_StorSm_C" = 3116.148   $ Sizing
 "CRtdFlo_Sys_T_Break_C" = 376.3922   $ Sizing
 "CRtdFlo_Sys_T_Conf_C" = 448.8472   $ Sizing
 "CRtdFlo_Sys_T_CopyRm_C" = 128.7591   $ Sizing
 "CRtdFlo_Sys_T_Cordr_C" = 709.9416   $ Sizing
 "CRtdFlo_Sys_T_Cordr_E" = 249.3782   $ Sizing
 "CRtdFlo_Sys_T_Cordr_N" = 114.364   $ Sizing
 "CRtdFlo_Sys_T_Cordr_S" = 258.6884   $ Sizing
 "CRtdFlo_Sys_T_Cordr_W" = 234.855   $ Sizing
 "CRtdFlo_Sys_T_LobWait_C" = 431.6541   $ Sizing
 "CRtdFlo_Sys_T_MechElec_C" = 168.5833   $ Sizing
 "CRtdFlo_Sys_T_OfficeOpn_C" = 1823.713   $ Sizing
 "CRtdFlo_Sys_T_OfficeOpn_E" = 1810.501   $ Sizing
 "CRtdFlo_Sys_T_OfficeOpn_N" = 995.3925   $ Sizing
 "CRtdFlo_Sys_T_OfficeOpn_S" = 1904.902   $ Sizing
 "CRtdFlo_Sys_T_OfficeOpn_W" = 1786.611   $ Sizing
 "CRtdFlo_Sys_T_OfficeSm_C" = 257.5822   $ Sizing
 "CRtdFlo_Sys_T_OfficeSm_E" = 1326.934   $ Sizing
 "CRtdFlo_Sys_T_OfficeSm_N" = 646.0407   $ Sizing
 "CRtdFlo_Sys_T_OfficeSm_S" = 1412.21   $ Sizing
 "CRtdFlo_Sys_T_OfficeSm_W" = 1300.931   $ Sizing
 "CRtdFlo_Sys_T_Restrm_C" = 210.3307   $ Sizing
 "CRtdFlo_Sys_T_StorSm_C" = 331.6761   $ Sizing
 "CSupFlo_Sys_L_Break_C" = 364.4581   $ Sizing
 "CSupFlo_Sys_L_Conf_C" = 426.558   $ Sizing
 "CSupFlo_Sys_L_CopyRm_C" = 107.0194   $ Sizing
 "CSupFlo_Sys_L_Cordr_C" = 561.3534   $ Sizing
 "CSupFlo_Sys_L_Cordr_E" = 232.6685   $ Sizing
 "CSupFlo_Sys_L_Cordr_N" = 99.65382   $ Sizing
 "CSupFlo_Sys_L_Cordr_S" = 244.5422   $ Sizing
 "CSupFlo_Sys_L_Cordr_W" = 228.0105   $ Sizing
 "CSupFlo_Sys_L_LobWait_C" = 368.1382   $ Sizing
 "CSupFlo_Sys_L_MechElec_C" = 133.2005   $ Sizing
 "CSupFlo_Sys_L_OfficeOpn_C" = 1679.615   $ Sizing
 "CSupFlo_Sys_L_OfficeOpn_E" = 1843.923   $ Sizing
 "CSupFlo_Sys_L_OfficeOpn_N" = 942.4227   $ Sizing
 "CSupFlo_Sys_L_OfficeOpn_S" = 1867.09   $ Sizing
 "CSupFlo_Sys_L_OfficeOpn_W" = 1840.735   $ Sizing
 "CSupFlo_Sys_L_OfficeSm_C" = 217.4194   $ Sizing
 "CSupFlo_Sys_L_OfficeSm_E" = 1319.131   $ Sizing
 "CSupFlo_Sys_L_OfficeSm_N" = 599.3495   $ Sizing
 "CSupFlo_Sys_L_OfficeSm_S" = 1365.41   $ Sizing
 "CSupFlo_Sys_L_OfficeSm_W" = 1315.836   $ Sizing
 "CSupFlo_Sys_L_Restrm_C" = 210.3307   $ Sizing
 "CSupFlo_Sys_L_StorSm_C" = 347.4579   $ Sizing
 "CSupFlo_Sys_M_Break_C" = 3193.781   $ Sizing
 "CSupFlo_Sys_M_Conf_C" = 3836.226   $ Sizing
 "CSupFlo_Sys_M_CopyRm_C" = 1078.201   $ Sizing
 "CSupFlo_Sys_M_Cordr_C" = 6555.541   $ Sizing
 "CSupFlo_Sys_M_Cordr_E" = 2279.665   $ Sizing
 "CSupFlo_Sys_M_Cordr_N" = 1001.628   $ Sizing
 "CSupFlo_Sys_M_Cordr_S" = 2277.468   $ Sizing
 "CSupFlo_Sys_M_Cordr_W" = 2084.13   $ Sizing
 "CSupFlo_Sys_M_LobWait_C" = 3873.049   $ Sizing
 "CSupFlo_Sys_M_MechElec_C" = 1196.451   $ Sizing
 "CSupFlo_Sys_M_OfficeOpn_C" = 15803.54   $ Sizing
 "CSupFlo_Sys_M_OfficeOpn_E" = 16044.42   $ Sizing
 "CSupFlo_Sys_M_OfficeOpn_N" = 8492.028   $ Sizing
 "CSupFlo_Sys_M_OfficeOpn_S" = 16364.34   $ Sizing
 "CSupFlo_Sys_M_OfficeOpn_W" = 15566.46   $ Sizing
 "CSupFlo_Sys_M_OfficeSm_C" = 2276.755   $ Sizing
 "CSupFlo_Sys_M_OfficeSm_E" = 11404.21   $ Sizing
 "CSupFlo_Sys_M_OfficeSm_N" = 5417.364   $ Sizing
 "CSupFlo_Sys_M_OfficeSm_S" = 11857.32   $ Sizing
 "CSupFlo_Sys_M_OfficeSm_W" = 11074.67   $ Sizing
 "CSupFlo_Sys_M_Restrm_C" = 1682.646   $ Sizing
 "CSupFlo_Sys_M_StorSm_C" = 3116.148   $ Sizing
 "CSupFlo_Sys_T_Break_C" = 376.3922   $ Sizing
 "CSupFlo_Sys_T_Conf_C" = 448.8473   $ Sizing
 "CSupFlo_Sys_T_CopyRm_C" = 128.7591   $ Sizing
 "CSupFlo_Sys_T_Cordr_C" = 709.9416   $ Sizing
 "CSupFlo_Sys_T_Cordr_E" = 249.3782   $ Sizing
 "CSupFlo_Sys_T_Cordr_N" = 114.364   $ Sizing
 "CSupFlo_Sys_T_Cordr_S" = 258.6884   $ Sizing
 "CSupFlo_Sys_T_Cordr_W" = 234.855   $ Sizing
 "CSupFlo_Sys_T_LobWait_C" = 431.6541   $ Sizing
 "CSupFlo_Sys_T_MechElec_C" = 168.5833   $ Sizing
 "CSupFlo_Sys_T_OfficeOpn_C" = 1823.713   $ Sizing
 "CSupFlo_Sys_T_OfficeOpn_E" = 1810.501   $ Sizing
 "CSupFlo_Sys_T_OfficeOpn_N" = 995.3925   $ Sizing
 "CSupFlo_Sys_T_OfficeOpn_S" = 1904.902   $ Sizing
 "CSupFlo_Sys_T_OfficeOpn_W" = 1786.611   $ Sizing
 "CSupFlo_Sys_T_OfficeSm_C" = 257.5822   $ Sizing
 "CSupFlo_Sys_T_OfficeSm_E" = 1326.934   $ Sizing
 "CSupFlo_Sys_T_OfficeSm_N" = 646.0407   $ Sizing
 "CSupFlo_Sys_T_OfficeSm_S" = 1412.21   $ Sizing
 "CSupFlo_Sys_T_OfficeSm_W" = 1300.931   $ Sizing
 "CSupFlo_Sys_T_Restrm_C" = 210.3307   $ Sizing
 "CSupFlo_Sys_T_StorSm_C" = 331.6761   $ Sizing
 "ClCap_Sys_L_Break_C" = 12492.53   $ Sizing
 "ClCap_Sys_L_Conf_C" = 18608.71   $ Sizing
 "ClCap_Sys_L_CopyRm_C" = 3668.306   $ Sizing
 "ClCap_Sys_L_Cordr_C" = 19241.51   $ Sizing
 "ClCap_Sys_L_Cordr_E" = 7975.179   $ Sizing
 "ClCap_Sys_L_Cordr_N" = 3415.834   $ Sizing
 "ClCap_Sys_L_Cordr_S" = 8382.175   $ Sizing
 "ClCap_Sys_L_Cordr_W" = 7815.518   $ Sizing
 "ClCap_Sys_L_LobWait_C" = 12618.67   $ Sizing
 "ClCap_Sys_L_MechElec_C" = 4565.713   $ Sizing
 "ClCap_Sys_L_OfficeOpn_C" = 57572.16   $ Sizing
 "ClCap_Sys_L_OfficeOpn_E" = 63204.15   $ Sizing
 "ClCap_Sys_L_OfficeOpn_N" = 32303.42   $ Sizing
 "ClCap_Sys_L_OfficeOpn_S" = 63998.24   $ Sizing
 "ClCap_Sys_L_OfficeOpn_W" = 63094.89   $ Sizing
 "ClCap_Sys_L_OfficeSm_C" = 7452.487   $ Sizing
 "ClCap_Sys_L_OfficeSm_E" = 45215.86   $ Sizing
 "ClCap_Sys_L_OfficeSm_N" = 20543.91   $ Sizing
 "ClCap_Sys_L_OfficeSm_S" = 46802.17   $ Sizing
 "ClCap_Sys_L_OfficeSm_W" = 45102.92   $ Sizing
 "ClCap_Sys_L_Restrm_C" = 7209.506   $ Sizing
 "ClCap_Sys_L_StorSm_C" = 11909.81   $ Sizing
 "ClCap_Sys_M_Break_C" = 109473.3   $ Sizing
 "ClCap_Sys_M_Conf_C" = 167356.4   $ Sizing
 "ClCap_Sys_M_CopyRm_C" = 36957.48   $ Sizing
 "ClCap_Sys_M_Cordr_C" = 224704.3   $ Sizing
 "ClCap_Sys_M_Cordr_E" = 78140.06   $ Sizing
 "ClCap_Sys_M_Cordr_N" = 34332.82   $ Sizing
 "ClCap_Sys_M_Cordr_S" = 78064.78   $ Sizing
 "ClCap_Sys_M_Cordr_W" = 71437.74   $ Sizing
 "ClCap_Sys_M_LobWait_C" = 132756.5   $ Sizing
 "ClCap_Sys_M_MechElec_C" = 41010.77   $ Sizing
 "ClCap_Sys_M_OfficeOpn_C" = 541697.9   $ Sizing
 "ClCap_Sys_M_OfficeOpn_E" = 549954.7   $ Sizing
 "ClCap_Sys_M_OfficeOpn_N" = 291081.3   $ Sizing
 "ClCap_Sys_M_OfficeOpn_S" = 560920.4   $ Sizing
 "ClCap_Sys_M_OfficeOpn_W" = 533571.6   $ Sizing
 "ClCap_Sys_M_OfficeSm_C" = 78040.35   $ Sizing
 "ClCap_Sys_M_OfficeSm_E" = 390902   $ Sizing
 "ClCap_Sys_M_OfficeSm_N" = 185691   $ Sizing
 "ClCap_Sys_M_OfficeSm_S" = 406433.2   $ Sizing
 "ClCap_Sys_M_OfficeSm_W" = 379606.3   $ Sizing
 "ClCap_Sys_M_Restrm_C" = 57676.05   $ Sizing
 "ClCap_Sys_M_StorSm_C" = 106812.2   $ Sizing
 "ClCap_Sys_T_Break_C" = 12901.6   $ Sizing
 "ClCap_Sys_T_Conf_C" = 19581.09   $ Sizing
 "ClCap_Sys_T_CopyRm_C" = 4413.475   $ Sizing
 "ClCap_Sys_T_Cordr_C" = 24334.67   $ Sizing
 "ClCap_Sys_T_Cordr_E" = 8547.937   $ Sizing
 "ClCap_Sys_T_Cordr_N" = 3920.054   $ Sizing
 "ClCap_Sys_T_Cordr_S" = 8867.062   $ Sizing
 "ClCap_Sys_T_Cordr_W" = 8050.126   $ Sizing
 "ClCap_Sys_T_LobWait_C" = 14795.81   $ Sizing
 "ClCap_Sys_T_MechElec_C" = 5778.528   $ Sizing
 "ClCap_Sys_T_OfficeOpn_C" = 62511.42   $ Sizing
 "ClCap_Sys_T_OfficeOpn_E" = 62058.56   $ Sizing
 "ClCap_Sys_T_OfficeOpn_N" = 34119.07   $ Sizing
 "ClCap_Sys_T_OfficeOpn_S" = 65294.34   $ Sizing
 "ClCap_Sys_T_OfficeOpn_W" = 61239.68   $ Sizing
 "ClCap_Sys_T_OfficeSm_C" = 8829.144   $ Sizing
 "ClCap_Sys_T_OfficeSm_E" = 45483.32   $ Sizing
 "ClCap_Sys_T_OfficeSm_N" = 22144.34   $ Sizing
 "ClCap_Sys_T_OfficeSm_S" = 48406.34   $ Sizing
 "ClCap_Sys_T_OfficeSm_W" = 44592.02   $ Sizing
 "ClCap_Sys_T_Restrm_C" = 7209.506   $ Sizing
 "ClCap_Sys_T_StorSm_C" = 11368.86   $ Sizing
 "HtCap_Sys_L_Break_C" = -20389.42   $ Sizing
 "HtCap_Sys_L_Conf_C" = -25148.62   $ Sizing
 "HtCap_Sys_L_CopyRm_C" = -7072.693   $ Sizing
 "HtCap_Sys_L_Cordr_C" = -25952.22   $ Sizing
 "HtCap_Sys_L_Cordr_E" = -8539.529   $ Sizing
 "HtCap_Sys_L_Cordr_N" = -4568.015   $ Sizing
 "HtCap_Sys_L_Cordr_S" = -8758.52   $ Sizing
 "HtCap_Sys_L_Cordr_W" = -8394.198   $ Sizing
 "HtCap_Sys_L_LobWait_C" = -20822.61   $ Sizing
 "HtCap_Sys_L_MechElec_C" = -6058.814   $ Sizing
 "HtCap_Sys_L_OfficeOpn_C" = -82461.77   $ Sizing
 "HtCap_Sys_L_OfficeOpn_E" = -63669.62   $ Sizing
 "HtCap_Sys_L_OfficeOpn_N" = -37117.32   $ Sizing
 "HtCap_Sys_L_OfficeOpn_S" = -63185.28   $ Sizing
 "HtCap_Sys_L_OfficeOpn_W" = -63490.15   $ Sizing
 "HtCap_Sys_L_OfficeSm_C" = -8932.838   $ Sizing
 "HtCap_Sys_L_OfficeSm_E" = -44588.2   $ Sizing
 "HtCap_Sys_L_OfficeSm_N" = -23755.27   $ Sizing
 "HtCap_Sys_L_OfficeSm_S" = -46214.07   $ Sizing
 "HtCap_Sys_L_OfficeSm_W" = -45291.71   $ Sizing
 "HtCap_Sys_L_Restrm_C" = -7679.62   $ Sizing
 "HtCap_Sys_L_StorSm_C" = -16059.75   $ Sizing
 "HtCap_Sys_M_Break_C" = -171214.2   $ Sizing
 "HtCap_Sys_M_Conf_C" = -213788.1   $ Sizing
 "HtCap_Sys_M_CopyRm_C" = -63160.74   $ Sizing
 "HtCap_Sys_M_Cordr_C" = -267568.4   $ Sizing
 "HtCap_Sys_M_Cordr_E" = -80426.09   $ Sizing
 "HtCap_Sys_M_Cordr_N" = -42634.59   $ Sizing
 "HtCap_Sys_M_Cordr_S" = -79469.89   $ Sizing
 "HtCap_Sys_M_Cordr_W" = -74603.35   $ Sizing
 "HtCap_Sys_M_LobWait_C" = -193938   $ Sizing
 "HtCap_Sys_M_MechElec_C" = -52163.44   $ Sizing
 "HtCap_Sys_M_OfficeOpn_C" = -606703.7   $ Sizing
 "HtCap_Sys_M_OfficeOpn_E" = -546098.2   $ Sizing
 "HtCap_Sys_M_OfficeOpn_N" = -324542.3   $ Sizing
 "HtCap_Sys_M_OfficeOpn_S" = -544766.4   $ Sizing
 "HtCap_Sys_M_OfficeOpn_W" = -531438   $ Sizing
 "HtCap_Sys_M_OfficeSm_C" = -87329.91   $ Sizing
 "HtCap_Sys_M_OfficeSm_E" = -383791.6   $ Sizing
 "HtCap_Sys_M_OfficeSm_N" = -208360.3   $ Sizing
 "HtCap_Sys_M_OfficeSm_S" = -395899.3   $ Sizing
 "HtCap_Sys_M_OfficeSm_W" = -377253.6   $ Sizing
 "HtCap_Sys_M_Restrm_C" = -66081.42   $ Sizing
 "HtCap_Sys_M_StorSm_C" = -133728   $ Sizing
 "HtCap_Sys_T_Break_C" = -21635.53   $ Sizing
 "HtCap_Sys_T_Conf_C" = -26668.57   $ Sizing
 "HtCap_Sys_T_CopyRm_C" = -7917.177   $ Sizing
 "HtCap_Sys_T_Cordr_C" = -34188.39   $ Sizing
 "HtCap_Sys_T_Cordr_E" = -10506.6   $ Sizing
 "HtCap_Sys_T_Cordr_N" = -5619.43   $ Sizing
 "HtCap_Sys_T_Cordr_S" = -10830.24   $ Sizing
 "HtCap_Sys_T_Cordr_W" = -9996.383   $ Sizing
 "HtCap_Sys_T_LobWait_C" = -24094.88   $ Sizing
 "HtCap_Sys_T_MechElec_C" = -7059.793   $ Sizing
 "HtCap_Sys_T_OfficeOpn_C" = -81572.37   $ Sizing
 "HtCap_Sys_T_OfficeOpn_E" = -71247.16   $ Sizing
 "HtCap_Sys_T_OfficeOpn_N" = -44373.07   $ Sizing
 "HtCap_Sys_T_OfficeOpn_S" = -75304.42   $ Sizing
 "HtCap_Sys_T_OfficeOpn_W" = -70335.76   $ Sizing
 "HtCap_Sys_T_OfficeSm_C" = -11477.23   $ Sizing
 "HtCap_Sys_T_OfficeSm_E" = -51946.22   $ Sizing
 "HtCap_Sys_T_OfficeSm_N" = -28778.58   $ Sizing
 "HtCap_Sys_T_OfficeSm_S" = -55254.75   $ Sizing
 "HtCap_Sys_T_OfficeSm_W" = -51539.64   $ Sizing
 "HtCap_Sys_T_Restrm_C" = -8808.701   $ Sizing
 "HtCap_Sys_T_StorSm_C" = -17295.08   $ Sizing
..

##include Templates\OfL_DX_SZ.inp
END ..
COMPUTE ..
STOP ..
