
Start DOESIM : Storage capacity =  75000000
Starting LOADS   : SAVE-FILES is On , weather is CZ01ARCATA-AP       
Finished LOADS    BDL  1 : Memory (wds) =    391959, Time (sec) =    2.46
Starting REPORT  
Finished REPORT   BDL  1 : Memory (wds) =    784897, Time (sec) =    0.86
Starting HVAC    : SAVE-FILES is On , weather is CZ01ARCATA-AP       
*** ERRORS or WARNINGS from HVAC     program. Examine output file for details.
Finished HVAC     BDL  1 : Memory (wds) =    676500, Time (sec) =    7.55
Starting REPORT  
Finished REPORT   BDL  1 : Memory (wds) =   1186385, Time (sec) =    0.88
Starting HOURLY-R
Finished HOURLY-R BDL  1 : Memory (wds) =   1519835, Time (sec) =    0.14
Starting ECONOMIC
Finished ECONOMIC BDL  1 : Memory (wds) =      1034, Time (sec) =    0.04
End   DOESIM : Total elapsed time of     11.9 seconds
RUN COMPLETE
