INPUT ..

##fileprefix C:\Users\jglasskatz\MASControl3\
##set1 IsSizing FALSE
##set1 CoolType DX
##set1 HeatType FURNACE
##set1 EU_HrRepVar 0
##set1 BldgVint 2015
##set1 BldgLoc CZ12

 ##set1 mBFMult 1   $ IP Tech: RefgChg-NRes-Std

PARAMETER
 "AltFactor" = 1.00062   $ IP Non-Tech
 "BF_fFlow" = SpltAC2SpHiSEER_BF_fFlow   $ Msr (Multi)TechID: MsrNResSplitAC-45to55-S17
 "BF_fT" = SpltAC2SpHiSEER_BF_fT   $ Msr (Multi)TechID: MsrNResSplitAC-45to55-S17
 "BldgEconoFlag" = 1   $ IP Non-Tech
 "Break_EWSF" = 1   $ IP Non-Tech
 "Break_LWSF" = 1.1   $ IP Non-Tech
 "CDD_DBHi10" = 83   $ IP Non-Tech
 "CDD_DBHi7" = 101   $ IP Non-Tech
 "CDD_DBHi8" = 99   $ IP Non-Tech
 "CDD_DBHi9" = 98   $ IP Non-Tech
 "CDD_DBRange10" = 23   $ IP Non-Tech
 "CDD_DBRange7" = 30   $ IP Non-Tech
 "CDD_DBRange8" = 34   $ IP Non-Tech
 "CDD_DBRange9" = 34   $ IP Non-Tech
 "CDD_Day10" = 15   $ IP Non-Tech
 "CDD_Day7" = 16   $ IP Non-Tech
 "CDD_Day8" = 20   $ IP Non-Tech
 "CDD_Day9" = 17   $ IP Non-Tech
 "CDD_HrHi10" = 14   $ IP Non-Tech
 "CDD_HrHi7" = 16   $ IP Non-Tech
 "CDD_HrHi8" = 16   $ IP Non-Tech
 "CDD_HrHi9" = 16   $ IP Non-Tech
 "CDD_HrLo10" = 3   $ IP Non-Tech
 "CDD_HrLo7" = 4   $ IP Non-Tech
 "CDD_HrLo8" = 8   $ IP Non-Tech
 "CDD_HrLo9" = 7   $ IP Non-Tech
 "CDD_WB10" = 61.40390396   $ IP Non-Tech
 "CDD_WB7" = 71.25247955   $ IP Non-Tech
 "CDD_WB8" = 68.94035339   $ IP Non-Tech
 "CDD_WB9" = 66.54764557   $ IP Non-Tech
 "CEIR_fPLR_Hot" = SpltAC2SpHiSEER_CEIR_fPLR_Hot   $ Msr (Multi)TechID: MsrNResSplitAC-45to55-S17
 "CEIR_fPLR_Mod" = SpltAC2SpHiSEER_CEIR_fPLR_Mod   $ Msr (Multi)TechID: MsrNResSplitAC-45to55-S17
 "CEIR_fPLR_Tem" = SpltAC2SpHiSEER_CEIR_fPLR_Tem   $ Msr (Multi)TechID: MsrNResSplitAC-45to55-S17
 "CLoss_fPLR_Hot" = SpltAC2SpHiSEER_CLoss_fPLR_Hot   $ Msr (Multi)TechID: MsrNResSplitAC-45to55-S17
 "CLoss_fPLR_Mod" = SpltAC2SpHiSEER_CLoss_fPLR_Mod   $ Msr (Multi)TechID: MsrNResSplitAC-45to55-S17
 "CLoss_fPLR_Tem" = SpltAC2SpHiSEER_CLoss_fPLR_Tem   $ Msr (Multi)TechID: MsrNResSplitAC-45to55-S17
 "COP47" = 0   $ Msr (Multi)TechID: MsrNResSplitAC-45to55-S17
 "CZ_Category" = Mod   $ IP Non-Tech
 "CapRange" = Any   $ Msr (Multi)TechID: MsrNResSplitAC-45to55-S17
 "CfmPerBtuh" = 0.03   $ Msr (Multi)TechID: MsrNResSplitAC-45to55-S17
 "ChwVintEconoFlag" = 1   $ IP Non-Tech
 "ClCap_fT" = SpltAC2SpHiSEER_ClCap_fT   $ Msr (Multi)TechID: MsrNResSplitAC-45to55-S17
 "ClSH_fT" = SpltAC2SpHiSEER_ClSH_fT   $ Msr (Multi)TechID: MsrNResSplitAC-45to55-S17
 "CoilBF" = 0.102   $ Msr (Multi)TechID: MsrNResSplitAC-45to55-S17
 "CondWPerBtuh" = 0   $ Msr (Multi)TechID: MsrNResSplitAC-45to55-S17
 "Conference_EWSF" = 1   $ IP Non-Tech
 "Conference_LWSF" = 1.4   $ IP Non-Tech
 "CoolSensCap" = 0.724   $ Msr (Multi)TechID: MsrNResSplitAC-45to55-S17
 "CoolSetT" = 45   $ IP Non-Tech
 "CoolType" = DX   $ IP Non-Tech
 "CoolingEIR" = 0.2225   $ Msr (Multi)TechID: MsrNResSplitAC-45to55-S17
 "CopyRoom_EWSF" = 1.5   $ IP Non-Tech
 "CopyRoom_LWSF" = 1.3   $ IP Non-Tech
 "CorridorStairway_EWSF" = 0.2   $ IP Non-Tech
 "CorridorStairway_LWSF" = 0.6   $ IP Non-Tech
 "CrnkEIR" = 0.002225   $ Msr (Multi)TechID: MsrNResSplitAC-45to55-S17
 "CrnkMaxT" = 50   $ Msr (Multi)TechID: MsrNResSplitAC-45to55-S17
 "DXType" = SplitSEER   $ Msr (Multi)TechID: MsrNResSplitAC-45to55-S17
 "DesCoolT" = 75   $ IP Non-Tech
 "DesHeatT" = 73   $ IP Non-Tech
 "EER" = 13.26   $ Msr (Multi)TechID: MsrNResSplitAC-45to55-S17
 "EIR_fT" = SpltAC2SpHiSEER_EIR_fT   $ Msr (Multi)TechID: MsrNResSplitAC-45to55-S17
 "EconoCtrl" = FIXED   $ Msr (Multi)TechID: MsrNResSplitAC-45to55-S17
 "EconoEnthLimit" = 28   $ IP Non-Tech
 "EconoTempLimit" = 75   $ IP Non-Tech
 "Elevation" = 16   $ IP Non-Tech
 "FanEirPlr" = TwoSpeedFan   $ Msr (Multi)TechID: MsrNResSplitAC-45to55-S17
 "FanWPerCfm" = 0.271   $ Msr (Multi)TechID: MsrNResSplitAC-45to55-S17
 "HDD_CloudAmt1" = 0   $ IP Non-Tech
 "HDD_DBHi1" = 50   $ IP Non-Tech
 "HDD_DBRange1" = 21   $ IP Non-Tech
 "HDD_Day1" = 15   $ IP Non-Tech
 "HDD_HrHi1" = 16   $ IP Non-Tech
 "HDD_HrLo1" = 8   $ IP Non-Tech
 "HDD_WB1" = 43.9   $ IP Non-Tech
 "HDD_WindSpd1" = 13.8   $ IP Non-Tech
 "HIR_fT" = 0   $ Msr (Multi)TechID: MsrNResSplitAC-45to55-S17
 "HSPF" = 0   $ Msr (Multi)TechID: MsrNResSplitAC-45to55-S17
 "HeatSrc" = FURNACE   $ IP Non-Tech
 "HeatSrcTU" = HEAT-PUMP   $ IP Non-Tech
 "HeatType" = GasFurn   $ IP Non-Tech
 "HeatTypeTU" = HEAT-PUMP   $ IP Non-Tech
 "HtCap_fT" = 0   $ Msr (Multi)TechID: MsrNResSplitAC-45to55-S17
 "HtCoolCapRatio" = 0   $ Msr (Multi)TechID: MsrNResSplitAC-45to55-S17
 "HtgEIR" = 0   $ Msr (Multi)TechID: MsrNResSplitAC-45to55-S17
 "IndoorFanMode" = CONTINUOUS   $ IP Non-Tech
 "KT_TransferAir" = Yes   $ IP Non-Tech
 "Latitude" = 38.5   $ IP Non-Tech
 "LobbyWaiting_EWSF" = 0.5   $ IP Non-Tech
 "LobbyWaiting_LWSF" = 1.3   $ IP Non-Tech
 "Longitude" = 121.5   $ IP Non-Tech
 "LowSpdCapRatio" = 0.686   $ Msr (Multi)TechID: MsrNResSplitAC-45to55-S17
 "LowSpdCfmRatio" = 0.739   $ Msr (Multi)TechID: MsrNResSplitAC-45to55-S17
 "MZFanMechEff" = 0.58   $ IP Non-Tech
 "MZHasRetFan" = FALSE   $ IP Non-Tech
 "MZ_RFanWPerCfm" = 0.37   $ IP Non-Tech
 "MZ_SFanWPerCfm" = 0.71   $ IP Non-Tech
 "MZ_SupFanStatic" = 2.25   $ IP Non-Tech
 "MaxOAFrac" = 1   $ Msr (Multi)TechID: MsrNResSplitAC-45to55-S17
 "MaxSupT_MZ" = 100   $ IP Non-Tech
 "MaxSupT_SZ" = 100   $ IP Non-Tech
 "MaxSupT_TU" = 90   $ IP Non-Tech
 "MechElecRoom_EWSF" = 0.2   $ IP Non-Tech
 "MechElecRoom_LWSF" = 0.7   $ IP Non-Tech
 "MinCfmPerSF" = 0.4   $ IP Non-Tech
 "MinSupT" = 55   $ IP Non-Tech
 "NumStages" = 2   $ Msr (Multi)TechID: MsrNResSplitAC-45to55-S17
 "OccCoolT" = 76   $ IP Non-Tech
 "OccHeatT" = 72   $ IP Non-Tech
 "OfficeOpen_EWSF" = 1.5   $ IP Non-Tech
 "OfficeOpen_LWSF" = 1.05   $ IP Non-Tech
 "OfficeSmall_EWSF" = 1.5   $ IP Non-Tech
 "OfficeSmall_LWSF" = 1.3   $ IP Non-Tech
 "PkgDxVintEconoFlag" = 1   $ IP Non-Tech
 "Restroom_EWSF" = 0.2   $ IP Non-Tech
 "Restroom_LWSF" = 0.6   $ IP Non-Tech
 "SEER" = 17   $ Msr (Multi)TechID: MsrNResSplitAC-45to55-S17
 "SZFanMechEff" = 0.58   $ IP Non-Tech
 "SZHasRetFan" = FALSE   $ IP Non-Tech
 "SZ_Is_2Spd" = TRUE   $ IP Non-Tech
 "SZ_SFanWPerCfm" = 0.46   $ IP Non-Tech
 "SZ_SupFanStatic" = 0.75   $ IP Non-Tech
 "Sector" = Any   $ Msr (Multi)TechID: MsrNResSplitAC-45to55-S17
 "StorageSmlCond_EWSF" = 0.2   $ IP Non-Tech
 "StorageSmlCond_LWSF" = 0.6   $ IP Non-Tech
 "SubType" = AC   $ Msr (Multi)TechID: MsrNResSplitAC-45to55-S17
 "T24GlzTbl" = TypeTbl   $ IP Non-Tech
 "TermUnitFanMechEff" = 1   $ IP Non-Tech
 "TermUnitFanMode" = INTERMITTENT   $ IP Non-Tech
 "TotCoolCap" = 58805   $ Msr (Multi)TechID: MsrNResSplitAC-45to55-S17
 "TwrSetpt" = 82.3   $ IP Non-Tech
 "UnocCoolT" = 86   $ IP Non-Tech
 "UnocHeatT" = 62   $ IP Non-Tech
 "UseEconoVintApplic" = FALSE   $ Msr (Multi)TechID: MsrNResSplitAC-45to55-S17
 "WlhpVintEconoFlag" = 1   $ IP Non-Tech
 "DuctDT" = 1   $ IP Tech: ComDuctInsul-1
 "DuctAirLoss" = 0   $ IP Tech: ComDuctLeak-0
 "DuctLossOAFrac" = 0   $ IP Tech: ComDuctLeak-0
 "ComRoofInsCalc" = FromUo   $ IP Tech: ComRoofIns-Hvy-0.04
 "ComRoofInsR" = -999   $ IP Tech: ComRoofIns-Hvy-0.04
 "ComRoofUo" = 0.04   $ IP Tech: ComRoofIns-Hvy-0.04
 "ComEWInsCalc" = FromUo   $ IP Tech: ComWallIns-MFrm-0.06
 "ComEWInsR" = -999   $ IP Tech: ComWallIns-MFrm-0.06
 "ComEWUo" = 0.06   $ IP Tech: ComWallIns-MFrm-0.06
 "ComN_SHGC" = 0.26   $ IP Tech: NResWin-ComN-0.41-0.26
 "ComN_UFactor" = 0.41   $ IP Tech: NResWin-ComN-0.41-0.26
 "ComN_VisTrans" = 0.41   $ IP Tech: NResWin-ComN-0.41-0.26
 "ComN_WinCode" = G2666   $ IP Tech: NResWin-ComN-0.41-0.26
 "ComN_WinFrmFrac" = 0.17   $ IP Tech: NResWin-ComN-0.41-0.26
 "ComN_WinFrmU" = 0.3   $ IP Tech: NResWin-ComN-0.41-0.26
 "ComO_SHGC" = 0.26   $ IP Tech: NResWin-ComO-0.41-0.26
 "ComO_UFactor" = 0.41   $ IP Tech: NResWin-ComO-0.41-0.26
 "ComO_VisTrans" = 0.41   $ IP Tech: NResWin-ComO-0.41-0.26
 "ComO_WinCode" = G2666   $ IP Tech: NResWin-ComO-0.41-0.26
 "ComO_WinFrmFrac" = 0.17   $ IP Tech: NResWin-ComO-0.41-0.26
 "ComO_WinFrmU" = 0.3   $ IP Tech: NResWin-ComO-0.41-0.26
 "LtgMsrApplic" = ALL   $ IP Tech: NonResLtgRefPre
 "LtgSav_CFL" = 0   $ IP Tech: NonResLtgRefPre
 "LtgSav_EX" = 0   $ IP Tech: NonResLtgRefPre
 "LtgSav_HB" = 0   $ IP Tech: NonResLtgRefPre
 "LtgSav_LF" = 0   $ IP Tech: NonResLtgRefPre
 "LtgSav_SP" = 0   $ IP Tech: NonResLtgRefPre
 "CEIR_fPLR" = PSZ65to135_CEIR_fPLR   $ IP Tech: PkgAC2SpP-65to135-E11
 "CLoss_fPLR" = PSZ65to135_CLoss_fPLR   $ IP Tech: PkgAC2SpP-65to135-E11
 "COP" = -1   $ IP Tech: PkgAC2SpP-65to135-E11
 "HtgFuel" = Gas   $ IP Tech: PkgAC2SpP-65to135-E11
 "IEER" = 13.35   $ IP Tech: PkgAC2SpP-65to135-E11
 "NominalCap" = 15   $ IP Tech: PkgAC2SpP-65to135-E11
 "RatedEER" = 11   $ IP Tech: PkgAC2SpP-65to135-E11
 "RatedSupMtrClass" = Premium   $ IP Tech: PkgAC2SpP-65to135-E11
 "SizeRange" = 65to135   $ IP Tech: PkgAC2SpP-65to135-E11
 "SupMotEff" = 0.865   $ IP Tech: PkgAC2SpP-65to135-E11
 "Tier" = 0   $ IP Tech: PkgAC2SpP-65to135-E11
 "FanPwrMult" = 1   $ IP Tech: PkgFurn-0.80AFUE
 "FurnAFUE" = 0.8   $ IP Tech: PkgFurn-0.80AFUE
 "FurnEt" = 0.82   $ IP Tech: PkgFurn-0.80AFUE
 "FurnaceAuxKW" = 0.1   $ IP Tech: PkgFurn-0.80AFUE
 "HIR_fPLR" = Furnace-HIR-fPLR   $ IP Tech: PkgFurn-0.80AFUE
 "VSM" = FALSE   $ IP Tech: PkgFurn-0.80AFUE
 "BFMult" = 1   $ IP Tech: RefgChg-NRes-Std
 "CoolEirMult" = 1   $ IP Tech: RefgChg-NRes-Std
 "SensCoolCapMult" = 1   $ IP Tech: RefgChg-NRes-Std
 "TotCoolCapMult" = 1   $ IP Tech: RefgChg-NRes-Std
 "AltAdjFactor" = 1.000622   $ Sizing
 "CAssFlo_L_Break_CZn" = 524.7178   $ Sizing
 "CAssFlo_L_Conf_CZn" = 504.527   $ Sizing
 "CAssFlo_L_CopyRm_CZn" = 162.0517   $ Sizing
 "CAssFlo_L_Cordr_CZn" = 607.4669   $ Sizing
 "CAssFlo_L_Cordr_EZn" = 210.8023   $ Sizing
 "CAssFlo_L_Cordr_NZn" = 146.1239   $ Sizing
 "CAssFlo_L_Cordr_SZn" = 209.0668   $ Sizing
 "CAssFlo_L_Cordr_WZn" = 241.114   $ Sizing
 "CAssFlo_L_LobWait_CZn" = 518.244   $ Sizing
 "CAssFlo_L_MechElec_CZn" = 108.5531   $ Sizing
 "CAssFlo_L_OfficeOpn_CZn" = 1735.809   $ Sizing
 "CAssFlo_L_OfficeOpn_EZn" = 1483   $ Sizing
 "CAssFlo_L_OfficeOpn_NZn" = 1109.854   $ Sizing
 "CAssFlo_L_OfficeOpn_SZn" = 1500.116   $ Sizing
 "CAssFlo_L_OfficeOpn_WZn" = 1731.32   $ Sizing
 "CAssFlo_L_OfficeSm_CZn" = 223.7506   $ Sizing
 "CAssFlo_L_OfficeSm_EZn" = 1058.354   $ Sizing
 "CAssFlo_L_OfficeSm_NZn" = 724.9413   $ Sizing
 "CAssFlo_L_OfficeSm_SZn" = 1068.546   $ Sizing
 "CAssFlo_L_OfficeSm_WZn" = 1210.463   $ Sizing
 "CAssFlo_L_Restrm_CZn" = 84.88538   $ Sizing
 "CAssFlo_L_StorSm_CZn" = 338.4611   $ Sizing
 "CAssFlo_M_Break_CZn" = 530.1387   $ Sizing
 "CAssFlo_M_Conf_CZn" = 504.0601   $ Sizing
 "CAssFlo_M_CopyRm_CZn" = 157.7404   $ Sizing
 "CAssFlo_M_Cordr_CZn" = 798.1634   $ Sizing
 "CAssFlo_M_Cordr_EZn" = 244.9055   $ Sizing
 "CAssFlo_M_Cordr_NZn" = 164.4198   $ Sizing
 "CAssFlo_M_Cordr_SZn" = 234.5418   $ Sizing
 "CAssFlo_M_Cordr_WZn" = 255.7781   $ Sizing
 "CAssFlo_M_LobWait_CZn" = 537.8953   $ Sizing
 "CAssFlo_M_MechElec_CZn" = 134.6639   $ Sizing
 "CAssFlo_M_OfficeOpn_CZn" = 1743.476   $ Sizing
 "CAssFlo_M_OfficeOpn_EZn" = 1605.063   $ Sizing
 "CAssFlo_M_OfficeOpn_NZn" = 1171.525   $ Sizing
 "CAssFlo_M_OfficeOpn_SZn" = 1592.105   $ Sizing
 "CAssFlo_M_OfficeOpn_WZn" = 1780.595   $ Sizing
 "CAssFlo_M_OfficeSm_CZn" = 256.0932   $ Sizing
 "CAssFlo_M_OfficeSm_EZn" = 1133.097   $ Sizing
 "CAssFlo_M_OfficeSm_NZn" = 760.8127   $ Sizing
 "CAssFlo_M_OfficeSm_SZn" = 1128.7   $ Sizing
 "CAssFlo_M_OfficeSm_WZn" = 1235.286   $ Sizing
 "CAssFlo_M_Restrm_CZn" = 92.39703   $ Sizing
 "CAssFlo_M_StorSm_CZn" = 358.749   $ Sizing
 "CAssFlo_T_Break_CZn" = 521.7361   $ Sizing
 "CAssFlo_T_Conf_CZn" = 498.8316   $ Sizing
 "CAssFlo_T_CopyRm_CZn" = 155.3926   $ Sizing
 "CAssFlo_T_Cordr_CZn" = 740.0036   $ Sizing
 "CAssFlo_T_Cordr_EZn" = 238.4308   $ Sizing
 "CAssFlo_T_Cordr_NZn" = 166.2135   $ Sizing
 "CAssFlo_T_Cordr_SZn" = 227.1442   $ Sizing
 "CAssFlo_T_Cordr_WZn" = 255.8957   $ Sizing
 "CAssFlo_T_LobWait_CZn" = 536.8467   $ Sizing
 "CAssFlo_T_MechElec_CZn" = 153.4372   $ Sizing
 "CAssFlo_T_OfficeOpn_CZn" = 1781.94   $ Sizing
 "CAssFlo_T_OfficeOpn_EZn" = 1598.144   $ Sizing
 "CAssFlo_T_OfficeOpn_NZn" = 1186.867   $ Sizing
 "CAssFlo_T_OfficeOpn_SZn" = 1572.175   $ Sizing
 "CAssFlo_T_OfficeOpn_WZn" = 1776.497   $ Sizing
 "CAssFlo_T_OfficeSm_CZn" = 235.3926   $ Sizing
 "CAssFlo_T_OfficeSm_EZn" = 1147.576   $ Sizing
 "CAssFlo_T_OfficeSm_NZn" = 776.8429   $ Sizing
 "CAssFlo_T_OfficeSm_SZn" = 1128.926   $ Sizing
 "CAssFlo_T_OfficeSm_WZn" = 1252.449   $ Sizing
 "CAssFlo_T_Restrm_CZn" = 127.2601   $ Sizing
 "CAssFlo_T_StorSm_CZn" = 263.2123   $ Sizing
 "CHRtFlo_Sys_L_Break_C" = 524.7178   $ Sizing
 "CHRtFlo_Sys_L_Conf_C" = 504.527   $ Sizing
 "CHRtFlo_Sys_L_CopyRm_C" = 162.0517   $ Sizing
 "CHRtFlo_Sys_L_Cordr_C" = 635.0861   $ Sizing
 "CHRtFlo_Sys_L_Cordr_E" = 248.9942   $ Sizing
 "CHRtFlo_Sys_L_Cordr_N" = 146.1239   $ Sizing
 "CHRtFlo_Sys_L_Cordr_S" = 237.4917   $ Sizing
 "CHRtFlo_Sys_L_Cordr_W" = 241.114   $ Sizing
 "CHRtFlo_Sys_L_LobWait_C" = 518.244   $ Sizing
 "CHRtFlo_Sys_L_MechElec_C" = 135.4673   $ Sizing
 "CHRtFlo_Sys_L_OfficeOpn_C" = 1735.809   $ Sizing
 "CHRtFlo_Sys_L_OfficeOpn_E" = 1782.862   $ Sizing
 "CHRtFlo_Sys_L_OfficeOpn_N" = 1109.854   $ Sizing
 "CHRtFlo_Sys_L_OfficeOpn_S" = 1738.61   $ Sizing
 "CHRtFlo_Sys_L_OfficeOpn_W" = 1761.574   $ Sizing
 "CHRtFlo_Sys_L_OfficeSm_C" = 253.3827   $ Sizing
 "CHRtFlo_Sys_L_OfficeSm_E" = 1296.206   $ Sizing
 "CHRtFlo_Sys_L_OfficeSm_N" = 724.9413   $ Sizing
 "CHRtFlo_Sys_L_OfficeSm_S" = 1276.392   $ Sizing
 "CHRtFlo_Sys_L_OfficeSm_W" = 1270.79   $ Sizing
 "CHRtFlo_Sys_L_Restrm_C" = 210.4081   $ Sizing
 "CHRtFlo_Sys_L_StorSm_C" = 418.6621   $ Sizing
 "CHRtFlo_Sys_M_Break_C" = 4241.11   $ Sizing
 "CHRtFlo_Sys_M_Conf_C" = 4225.5   $ Sizing
 "CHRtFlo_Sys_M_CopyRm_C" = 1261.923   $ Sizing
 "CHRtFlo_Sys_M_Cordr_C" = 7836.645   $ Sizing
 "CHRtFlo_Sys_M_Cordr_E" = 2368.031   $ Sizing
 "CHRtFlo_Sys_M_Cordr_N" = 1397.492   $ Sizing
 "CHRtFlo_Sys_M_Cordr_S" = 2165.654   $ Sizing
 "CHRtFlo_Sys_M_Cordr_W" = 2076.535   $ Sizing
 "CHRtFlo_Sys_M_LobWait_C" = 4505.087   $ Sizing
 "CHRtFlo_Sys_M_MechElec_C" = 1417.269   $ Sizing
 "CHRtFlo_Sys_M_OfficeOpn_C" = 16787.1   $ Sizing
 "CHRtFlo_Sys_M_OfficeOpn_E" = 15618.21   $ Sizing
 "CHRtFlo_Sys_M_OfficeOpn_N" = 9372.203   $ Sizing
 "CHRtFlo_Sys_M_OfficeOpn_S" = 15015.44   $ Sizing
 "CHRtFlo_Sys_M_OfficeOpn_W" = 14583.86   $ Sizing
 "CHRtFlo_Sys_M_OfficeSm_C" = 2599.043   $ Sizing
 "CHRtFlo_Sys_M_OfficeSm_E" = 11211.47   $ Sizing
 "CHRtFlo_Sys_M_OfficeSm_N" = 6086.501   $ Sizing
 "CHRtFlo_Sys_M_OfficeSm_S" = 10899.31   $ Sizing
 "CHRtFlo_Sys_M_OfficeSm_W" = 10562.97   $ Sizing
 "CHRtFlo_Sys_M_Restrm_C" = 1683.265   $ Sizing
 "CHRtFlo_Sys_M_StorSm_C" = 3562.94   $ Sizing
 "CHRtFlo_Sys_T_Break_C" = 521.7361   $ Sizing
 "CHRtFlo_Sys_T_Conf_C" = 498.8316   $ Sizing
 "CHRtFlo_Sys_T_CopyRm_C" = 155.3926   $ Sizing
 "CHRtFlo_Sys_T_Cordr_C" = 829.6843   $ Sizing
 "CHRtFlo_Sys_T_Cordr_E" = 261.3451   $ Sizing
 "CHRtFlo_Sys_T_Cordr_N" = 166.2135   $ Sizing
 "CHRtFlo_Sys_T_Cordr_S" = 245.971   $ Sizing
 "CHRtFlo_Sys_T_Cordr_W" = 255.8957   $ Sizing
 "CHRtFlo_Sys_T_LobWait_C" = 536.8467   $ Sizing
 "CHRtFlo_Sys_T_MechElec_C" = 202.694   $ Sizing
 "CHRtFlo_Sys_T_OfficeOpn_C" = 1805.966   $ Sizing
 "CHRtFlo_Sys_T_OfficeOpn_E" = 1775.473   $ Sizing
 "CHRtFlo_Sys_T_OfficeOpn_N" = 1186.867   $ Sizing
 "CHRtFlo_Sys_T_OfficeOpn_S" = 1759.579   $ Sizing
 "CHRtFlo_Sys_T_OfficeOpn_W" = 1776.497   $ Sizing
 "CHRtFlo_Sys_T_OfficeSm_C" = 286.7331   $ Sizing
 "CHRtFlo_Sys_T_OfficeSm_E" = 1310.938   $ Sizing
 "CHRtFlo_Sys_T_OfficeSm_N" = 776.8429   $ Sizing
 "CHRtFlo_Sys_T_OfficeSm_S" = 1301.421   $ Sizing
 "CHRtFlo_Sys_T_OfficeSm_W" = 1257.022   $ Sizing
 "CHRtFlo_Sys_T_Restrm_C" = 210.4081   $ Sizing
 "CHRtFlo_Sys_T_StorSm_C" = 331.7982   $ Sizing
 "CRtdFlo_Sys_L_Break_C" = 524.7178   $ Sizing
 "CRtdFlo_Sys_L_Conf_C" = 504.527   $ Sizing
 "CRtdFlo_Sys_L_CopyRm_C" = 162.0517   $ Sizing
 "CRtdFlo_Sys_L_Cordr_C" = 607.4669   $ Sizing
 "CRtdFlo_Sys_L_Cordr_E" = 210.8023   $ Sizing
 "CRtdFlo_Sys_L_Cordr_N" = 146.1239   $ Sizing
 "CRtdFlo_Sys_L_Cordr_S" = 209.0668   $ Sizing
 "CRtdFlo_Sys_L_Cordr_W" = 241.114   $ Sizing
 "CRtdFlo_Sys_L_LobWait_C" = 518.244   $ Sizing
 "CRtdFlo_Sys_L_MechElec_C" = 108.5531   $ Sizing
 "CRtdFlo_Sys_L_OfficeOpn_C" = 1735.809   $ Sizing
 "CRtdFlo_Sys_L_OfficeOpn_E" = 1483   $ Sizing
 "CRtdFlo_Sys_L_OfficeOpn_N" = 1109.854   $ Sizing
 "CRtdFlo_Sys_L_OfficeOpn_S" = 1500.116   $ Sizing
 "CRtdFlo_Sys_L_OfficeOpn_W" = 1731.32   $ Sizing
 "CRtdFlo_Sys_L_OfficeSm_C" = 223.7506   $ Sizing
 "CRtdFlo_Sys_L_OfficeSm_E" = 1058.354   $ Sizing
 "CRtdFlo_Sys_L_OfficeSm_N" = 724.9413   $ Sizing
 "CRtdFlo_Sys_L_OfficeSm_S" = 1068.546   $ Sizing
 "CRtdFlo_Sys_L_OfficeSm_W" = 1210.463   $ Sizing
 "CRtdFlo_Sys_L_Restrm_C" = 84.88538   $ Sizing
 "CRtdFlo_Sys_L_StorSm_C" = 338.4612   $ Sizing
 "CRtdFlo_Sys_M_Break_C" = 4241.11   $ Sizing
 "CRtdFlo_Sys_M_Conf_C" = 4032.481   $ Sizing
 "CRtdFlo_Sys_M_CopyRm_C" = 1261.923   $ Sizing
 "CRtdFlo_Sys_M_Cordr_C" = 6385.307   $ Sizing
 "CRtdFlo_Sys_M_Cordr_E" = 1959.244   $ Sizing
 "CRtdFlo_Sys_M_Cordr_N" = 1315.359   $ Sizing
 "CRtdFlo_Sys_M_Cordr_S" = 1876.335   $ Sizing
 "CRtdFlo_Sys_M_Cordr_W" = 2046.225   $ Sizing
 "CRtdFlo_Sys_M_LobWait_C" = 4303.163   $ Sizing
 "CRtdFlo_Sys_M_MechElec_C" = 1077.312   $ Sizing
 "CRtdFlo_Sys_M_OfficeOpn_C" = 13947.81   $ Sizing
 "CRtdFlo_Sys_M_OfficeOpn_E" = 12840.5   $ Sizing
 "CRtdFlo_Sys_M_OfficeOpn_N" = 9372.203   $ Sizing
 "CRtdFlo_Sys_M_OfficeOpn_S" = 12736.84   $ Sizing
 "CRtdFlo_Sys_M_OfficeOpn_W" = 14244.76   $ Sizing
 "CRtdFlo_Sys_M_OfficeSm_C" = 2048.746   $ Sizing
 "CRtdFlo_Sys_M_OfficeSm_E" = 9064.774   $ Sizing
 "CRtdFlo_Sys_M_OfficeSm_N" = 6086.501   $ Sizing
 "CRtdFlo_Sys_M_OfficeSm_S" = 9029.597   $ Sizing
 "CRtdFlo_Sys_M_OfficeSm_W" = 9882.287   $ Sizing
 "CRtdFlo_Sys_M_Restrm_C" = 739.1762   $ Sizing
 "CRtdFlo_Sys_M_StorSm_C" = 2869.992   $ Sizing
 "CRtdFlo_Sys_T_Break_C" = 521.7361   $ Sizing
 "CRtdFlo_Sys_T_Conf_C" = 498.8316   $ Sizing
 "CRtdFlo_Sys_T_CopyRm_C" = 155.3926   $ Sizing
 "CRtdFlo_Sys_T_Cordr_C" = 740.0036   $ Sizing
 "CRtdFlo_Sys_T_Cordr_E" = 238.4308   $ Sizing
 "CRtdFlo_Sys_T_Cordr_N" = 166.2135   $ Sizing
 "CRtdFlo_Sys_T_Cordr_S" = 227.1442   $ Sizing
 "CRtdFlo_Sys_T_Cordr_W" = 255.8957   $ Sizing
 "CRtdFlo_Sys_T_LobWait_C" = 536.8467   $ Sizing
 "CRtdFlo_Sys_T_MechElec_C" = 153.4372   $ Sizing
 "CRtdFlo_Sys_T_OfficeOpn_C" = 1781.94   $ Sizing
 "CRtdFlo_Sys_T_OfficeOpn_E" = 1598.144   $ Sizing
 "CRtdFlo_Sys_T_OfficeOpn_N" = 1186.867   $ Sizing
 "CRtdFlo_Sys_T_OfficeOpn_S" = 1572.175   $ Sizing
 "CRtdFlo_Sys_T_OfficeOpn_W" = 1776.497   $ Sizing
 "CRtdFlo_Sys_T_OfficeSm_C" = 235.3926   $ Sizing
 "CRtdFlo_Sys_T_OfficeSm_E" = 1147.576   $ Sizing
 "CRtdFlo_Sys_T_OfficeSm_N" = 776.8429   $ Sizing
 "CRtdFlo_Sys_T_OfficeSm_S" = 1128.926   $ Sizing
 "CRtdFlo_Sys_T_OfficeSm_W" = 1252.449   $ Sizing
 "CRtdFlo_Sys_T_Restrm_C" = 127.2601   $ Sizing
 "CRtdFlo_Sys_T_StorSm_C" = 263.2123   $ Sizing
 "CSupFlo_Sys_L_Break_C" = 524.7178   $ Sizing
 "CSupFlo_Sys_L_Conf_C" = 504.527   $ Sizing
 "CSupFlo_Sys_L_CopyRm_C" = 162.0517   $ Sizing
 "CSupFlo_Sys_L_Cordr_C" = 607.4669   $ Sizing
 "CSupFlo_Sys_L_Cordr_E" = 210.8023   $ Sizing
 "CSupFlo_Sys_L_Cordr_N" = 146.1239   $ Sizing
 "CSupFlo_Sys_L_Cordr_S" = 209.0668   $ Sizing
 "CSupFlo_Sys_L_Cordr_W" = 241.114   $ Sizing
 "CSupFlo_Sys_L_LobWait_C" = 518.244   $ Sizing
 "CSupFlo_Sys_L_MechElec_C" = 108.5531   $ Sizing
 "CSupFlo_Sys_L_OfficeOpn_C" = 1735.809   $ Sizing
 "CSupFlo_Sys_L_OfficeOpn_E" = 1483   $ Sizing
 "CSupFlo_Sys_L_OfficeOpn_N" = 1109.854   $ Sizing
 "CSupFlo_Sys_L_OfficeOpn_S" = 1500.116   $ Sizing
 "CSupFlo_Sys_L_OfficeOpn_W" = 1731.32   $ Sizing
 "CSupFlo_Sys_L_OfficeSm_C" = 223.7506   $ Sizing
 "CSupFlo_Sys_L_OfficeSm_E" = 1058.354   $ Sizing
 "CSupFlo_Sys_L_OfficeSm_N" = 724.9413   $ Sizing
 "CSupFlo_Sys_L_OfficeSm_S" = 1068.546   $ Sizing
 "CSupFlo_Sys_L_OfficeSm_W" = 1210.463   $ Sizing
 "CSupFlo_Sys_L_Restrm_C" = 84.88538   $ Sizing
 "CSupFlo_Sys_L_StorSm_C" = 338.4612   $ Sizing
 "CSupFlo_Sys_M_Break_C" = 4241.11   $ Sizing
 "CSupFlo_Sys_M_Conf_C" = 4032.481   $ Sizing
 "CSupFlo_Sys_M_CopyRm_C" = 1261.923   $ Sizing
 "CSupFlo_Sys_M_Cordr_C" = 6385.307   $ Sizing
 "CSupFlo_Sys_M_Cordr_E" = 1959.244   $ Sizing
 "CSupFlo_Sys_M_Cordr_N" = 1315.359   $ Sizing
 "CSupFlo_Sys_M_Cordr_S" = 1876.335   $ Sizing
 "CSupFlo_Sys_M_Cordr_W" = 2046.225   $ Sizing
 "CSupFlo_Sys_M_LobWait_C" = 4303.163   $ Sizing
 "CSupFlo_Sys_M_MechElec_C" = 1077.312   $ Sizing
 "CSupFlo_Sys_M_OfficeOpn_C" = 13947.81   $ Sizing
 "CSupFlo_Sys_M_OfficeOpn_E" = 12840.5   $ Sizing
 "CSupFlo_Sys_M_OfficeOpn_N" = 9372.203   $ Sizing
 "CSupFlo_Sys_M_OfficeOpn_S" = 12736.84   $ Sizing
 "CSupFlo_Sys_M_OfficeOpn_W" = 14244.76   $ Sizing
 "CSupFlo_Sys_M_OfficeSm_C" = 2048.746   $ Sizing
 "CSupFlo_Sys_M_OfficeSm_E" = 9064.774   $ Sizing
 "CSupFlo_Sys_M_OfficeSm_N" = 6086.501   $ Sizing
 "CSupFlo_Sys_M_OfficeSm_S" = 9029.597   $ Sizing
 "CSupFlo_Sys_M_OfficeSm_W" = 9882.287   $ Sizing
 "CSupFlo_Sys_M_Restrm_C" = 739.1762   $ Sizing
 "CSupFlo_Sys_M_StorSm_C" = 2869.992   $ Sizing
 "CSupFlo_Sys_T_Break_C" = 521.7361   $ Sizing
 "CSupFlo_Sys_T_Conf_C" = 498.8316   $ Sizing
 "CSupFlo_Sys_T_CopyRm_C" = 155.3926   $ Sizing
 "CSupFlo_Sys_T_Cordr_C" = 740.0036   $ Sizing
 "CSupFlo_Sys_T_Cordr_E" = 238.4308   $ Sizing
 "CSupFlo_Sys_T_Cordr_N" = 166.2135   $ Sizing
 "CSupFlo_Sys_T_Cordr_S" = 227.1442   $ Sizing
 "CSupFlo_Sys_T_Cordr_W" = 255.8957   $ Sizing
 "CSupFlo_Sys_T_LobWait_C" = 536.8467   $ Sizing
 "CSupFlo_Sys_T_MechElec_C" = 153.4372   $ Sizing
 "CSupFlo_Sys_T_OfficeOpn_C" = 1781.94   $ Sizing
 "CSupFlo_Sys_T_OfficeOpn_E" = 1598.144   $ Sizing
 "CSupFlo_Sys_T_OfficeOpn_N" = 1186.867   $ Sizing
 "CSupFlo_Sys_T_OfficeOpn_S" = 1572.175   $ Sizing
 "CSupFlo_Sys_T_OfficeOpn_W" = 1776.497   $ Sizing
 "CSupFlo_Sys_T_OfficeSm_C" = 235.3926   $ Sizing
 "CSupFlo_Sys_T_OfficeSm_E" = 1147.576   $ Sizing
 "CSupFlo_Sys_T_OfficeSm_N" = 776.8429   $ Sizing
 "CSupFlo_Sys_T_OfficeSm_S" = 1128.926   $ Sizing
 "CSupFlo_Sys_T_OfficeSm_W" = 1252.449   $ Sizing
 "CSupFlo_Sys_T_Restrm_C" = 127.2601   $ Sizing
 "CSupFlo_Sys_T_StorSm_C" = 263.2123   $ Sizing
 "ClCap_Sys_L_Break_C" = 17979.13   $ Sizing
 "ClCap_Sys_L_Conf_C" = 22002.03   $ Sizing
 "ClCap_Sys_L_CopyRm_C" = 5552.601   $ Sizing
 "ClCap_Sys_L_Cordr_C" = 20814.48   $ Sizing
 "ClCap_Sys_L_Cordr_E" = 7223.01   $ Sizing
 "ClCap_Sys_L_Cordr_N" = 5006.845   $ Sizing
 "ClCap_Sys_L_Cordr_S" = 7163.547   $ Sizing
 "ClCap_Sys_L_Cordr_W" = 8261.624   $ Sizing
 "ClCap_Sys_L_LobWait_C" = 17757.31   $ Sizing
 "ClCap_Sys_L_MechElec_C" = 3719.505   $ Sizing
 "ClCap_Sys_L_OfficeOpn_C" = 59476.44   $ Sizing
 "ClCap_Sys_L_OfficeOpn_E" = 50814.09   $ Sizing
 "ClCap_Sys_L_OfficeOpn_N" = 38028.48   $ Sizing
 "ClCap_Sys_L_OfficeOpn_S" = 51400.56   $ Sizing
 "ClCap_Sys_L_OfficeOpn_W" = 59322.63   $ Sizing
 "ClCap_Sys_L_OfficeSm_C" = 7666.677   $ Sizing
 "ClCap_Sys_L_OfficeSm_E" = 36263.85   $ Sizing
 "ClCap_Sys_L_OfficeSm_N" = 24839.67   $ Sizing
 "ClCap_Sys_L_OfficeSm_S" = 36613.07   $ Sizing
 "ClCap_Sys_L_OfficeSm_W" = 41475.77   $ Sizing
 "ClCap_Sys_L_Restrm_C" = 2908.546   $ Sizing
 "ClCap_Sys_L_StorSm_C" = 11597.16   $ Sizing
 "ClCap_Sys_M_Break_C" = 145319   $ Sizing
 "ClCap_Sys_M_Conf_C" = 175853.3   $ Sizing
 "ClCap_Sys_M_CopyRm_C" = 43239.02   $ Sizing
 "ClCap_Sys_M_Cordr_C" = 218788.6   $ Sizing
 "ClCap_Sys_M_Cordr_E" = 67132.29   $ Sizing
 "ClCap_Sys_M_Cordr_N" = 45069.96   $ Sizing
 "ClCap_Sys_M_Cordr_S" = 64291.46   $ Sizing
 "ClCap_Sys_M_Cordr_W" = 70112.63   $ Sizing
 "ClCap_Sys_M_LobWait_C" = 147445.2   $ Sizing
 "ClCap_Sys_M_MechElec_C" = 36913.42   $ Sizing
 "ClCap_Sys_M_OfficeOpn_C" = 477913.2   $ Sizing
 "ClCap_Sys_M_OfficeOpn_E" = 439971.9   $ Sizing
 "ClCap_Sys_M_OfficeOpn_N" = 321132.8   $ Sizing
 "ClCap_Sys_M_OfficeOpn_S" = 436419.9   $ Sizing
 "ClCap_Sys_M_OfficeOpn_W" = 488087.9   $ Sizing
 "ClCap_Sys_M_OfficeSm_C" = 70199.02   $ Sizing
 "ClCap_Sys_M_OfficeSm_E" = 310598.9   $ Sizing
 "ClCap_Sys_M_OfficeSm_N" = 208550.2   $ Sizing
 "ClCap_Sys_M_OfficeSm_S" = 309393.6   $ Sizing
 "ClCap_Sys_M_OfficeSm_W" = 338610.5   $ Sizing
 "ClCap_Sys_M_Restrm_C" = 25327.42   $ Sizing
 "ClCap_Sys_M_StorSm_C" = 98338.52   $ Sizing
 "ClCap_Sys_T_Break_C" = 17876.97   $ Sizing
 "ClCap_Sys_T_Conf_C" = 21753.66   $ Sizing
 "ClCap_Sys_T_CopyRm_C" = 5324.434   $ Sizing
 "ClCap_Sys_T_Cordr_C" = 25355.77   $ Sizing
 "ClCap_Sys_T_Cordr_E" = 8169.686   $ Sizing
 "ClCap_Sys_T_Cordr_N" = 5695.204   $ Sizing
 "ClCap_Sys_T_Cordr_S" = 7782.956   $ Sizing
 "ClCap_Sys_T_Cordr_W" = 8768.108   $ Sizing
 "ClCap_Sys_T_LobWait_C" = 18394.72   $ Sizing
 "ClCap_Sys_T_MechElec_C" = 5257.433   $ Sizing
 "ClCap_Sys_T_OfficeOpn_C" = 61057.09   $ Sizing
 "ClCap_Sys_T_OfficeOpn_E" = 54759.43   $ Sizing
 "ClCap_Sys_T_OfficeOpn_N" = 40667.29   $ Sizing
 "ClCap_Sys_T_OfficeOpn_S" = 53869.6   $ Sizing
 "ClCap_Sys_T_OfficeOpn_W" = 60870.58   $ Sizing
 "ClCap_Sys_T_OfficeSm_C" = 8065.583   $ Sizing
 "ClCap_Sys_T_OfficeSm_E" = 39321   $ Sizing
 "ClCap_Sys_T_OfficeSm_N" = 26618.05   $ Sizing
 "ClCap_Sys_T_OfficeSm_S" = 38681.94   $ Sizing
 "ClCap_Sys_T_OfficeSm_W" = 42914.41   $ Sizing
 "ClCap_Sys_T_Restrm_C" = 4360.488   $ Sizing
 "ClCap_Sys_T_StorSm_C" = 9018.808   $ Sizing
 "HtCap_Sys_L_Break_C" = -30447.93   $ Sizing
 "HtCap_Sys_L_Conf_C" = -30553.83   $ Sizing
 "HtCap_Sys_L_CopyRm_C" = -10934.8   $ Sizing
 "HtCap_Sys_L_Cordr_C" = -29287.23   $ Sizing
 "HtCap_Sys_L_Cordr_E" = -9145.739   $ Sizing
 "HtCap_Sys_L_Cordr_N" = -6374.841   $ Sizing
 "HtCap_Sys_L_Cordr_S" = -8737.825   $ Sizing
 "HtCap_Sys_L_Cordr_W" = -8928.369   $ Sizing
 "HtCap_Sys_L_LobWait_C" = -29275   $ Sizing
 "HtCap_Sys_L_MechElec_C" = -6438.156   $ Sizing
 "HtCap_Sys_L_OfficeOpn_C" = -84825.55   $ Sizing
 "HtCap_Sys_L_OfficeOpn_E" = -62357.96   $ Sizing
 "HtCap_Sys_L_OfficeOpn_N" = -43465.68   $ Sizing
 "HtCap_Sys_L_OfficeOpn_S" = -60253.61   $ Sizing
 "HtCap_Sys_L_OfficeOpn_W" = -61656.17   $ Sizing
 "HtCap_Sys_L_OfficeSm_C" = -10272.82   $ Sizing
 "HtCap_Sys_L_OfficeSm_E" = -44815.86   $ Sizing
 "HtCap_Sys_L_OfficeSm_N" = -28204.38   $ Sizing
 "HtCap_Sys_L_OfficeSm_S" = -43903.02   $ Sizing
 "HtCap_Sys_L_OfficeSm_W" = -44114.55   $ Sizing
 "HtCap_Sys_L_Restrm_C" = -7744.703   $ Sizing
 "HtCap_Sys_L_StorSm_C" = -18806.12   $ Sizing
 "HtCap_Sys_M_Break_C" = -233151.6   $ Sizing
 "HtCap_Sys_M_Conf_C" = -238143.1   $ Sizing
 "HtCap_Sys_M_CopyRm_C" = -74433.84   $ Sizing
 "HtCap_Sys_M_Cordr_C" = -313637.2   $ Sizing
 "HtCap_Sys_M_Cordr_E" = -83856.8   $ Sizing
 "HtCap_Sys_M_Cordr_N" = -55597.05   $ Sizing
 "HtCap_Sys_M_Cordr_S" = -77278.42   $ Sizing
 "HtCap_Sys_M_Cordr_W" = -75290.44   $ Sizing
 "HtCap_Sys_M_LobWait_C" = -222533.5   $ Sizing
 "HtCap_Sys_M_MechElec_C" = -60991.15   $ Sizing
 "HtCap_Sys_M_OfficeOpn_C" = -651389.7   $ Sizing
 "HtCap_Sys_M_OfficeOpn_E" = -536683.3   $ Sizing
 "HtCap_Sys_M_OfficeOpn_N" = -359151.6   $ Sizing
 "HtCap_Sys_M_OfficeOpn_S" = -511984.3   $ Sizing
 "HtCap_Sys_M_OfficeOpn_W" = -506067.9   $ Sizing
 "HtCap_Sys_M_OfficeSm_C" = -98828.98   $ Sizing
 "HtCap_Sys_M_OfficeSm_E" = -381802.3   $ Sizing
 "HtCap_Sys_M_OfficeSm_N" = -232340   $ Sizing
 "HtCap_Sys_M_OfficeSm_S" = -369595   $ Sizing
 "HtCap_Sys_M_OfficeSm_W" = -363136.1   $ Sizing
 "HtCap_Sys_M_Restrm_C" = -66680.73   $ Sizing
 "HtCap_Sys_M_StorSm_C" = -152346.9   $ Sizing
 "HtCap_Sys_T_Break_C" = -30966.56   $ Sizing
 "HtCap_Sys_T_Conf_C" = -30126.16   $ Sizing
 "HtCap_Sys_T_CopyRm_C" = -10209   $ Sizing
 "HtCap_Sys_T_Cordr_C" = -38495.54   $ Sizing
 "HtCap_Sys_T_Cordr_E" = -10620.03   $ Sizing
 "HtCap_Sys_T_Cordr_N" = -7644.914   $ Sizing
 "HtCap_Sys_T_Cordr_S" = -10116.62   $ Sizing
 "HtCap_Sys_T_Cordr_W" = -10584.89   $ Sizing
 "HtCap_Sys_T_LobWait_C" = -29447.6   $ Sizing
 "HtCap_Sys_T_MechElec_C" = -8352.669   $ Sizing
 "HtCap_Sys_T_OfficeOpn_C" = -80704.97   $ Sizing
 "HtCap_Sys_T_OfficeOpn_E" = -68364.38   $ Sizing
 "HtCap_Sys_T_OfficeOpn_N" = -51454.15   $ Sizing
 "HtCap_Sys_T_OfficeOpn_S" = -68904.85   $ Sizing
 "HtCap_Sys_T_OfficeOpn_W" = -68987.45   $ Sizing
 "HtCap_Sys_T_OfficeSm_C" = -12369.87   $ Sizing
 "HtCap_Sys_T_OfficeSm_E" = -50098.05   $ Sizing
 "HtCap_Sys_T_OfficeSm_N" = -33262.3   $ Sizing
 "HtCap_Sys_T_OfficeSm_S" = -49936.62   $ Sizing
 "HtCap_Sys_T_OfficeSm_W" = -48417.67   $ Sizing
 "HtCap_Sys_T_Restrm_C" = -8677.407   $ Sizing
 "HtCap_Sys_T_StorSm_C" = -17640.28   $ Sizing
..

##include Templates\OfL_DX_SZ.inp
END ..
COMPUTE ..
STOP ..
