INPUT ..

##fileprefix C:\Users\jglasskatz\MASControl3\
##set1 IsSizing FALSE
##set1 CoolType DX
##set1 HeatType FURNACE
##set1 EU_HrRepVar 0
##set1 BldgVint 1996
##set1 BldgLoc CZ05

 ##set1 mBFMult 1   $ IP Tech: RefgChg-NRes-Std

PARAMETER
 "AltFactor" = 1.00939   $ IP Non-Tech
 "BF_fFlow" = SpltAC2SpHiSEER_BF_fFlow   $ Msr (Multi)TechID: MsrNResSplitAC-45to55-S17
 "BF_fT" = SpltAC2SpHiSEER_BF_fT   $ Msr (Multi)TechID: MsrNResSplitAC-45to55-S17
 "BldgEconoFlag" = 1   $ IP Non-Tech
 "Break_EWSF" = 1   $ IP Non-Tech
 "Break_LWSF" = 1.1   $ IP Non-Tech
 "CDD_DBHi10" = 80   $ IP Non-Tech
 "CDD_DBHi7" = 76   $ IP Non-Tech
 "CDD_DBHi8" = 72   $ IP Non-Tech
 "CDD_DBHi9" = 79   $ IP Non-Tech
 "CDD_DBRange10" = 28   $ IP Non-Tech
 "CDD_DBRange7" = 18.9383812   $ IP Non-Tech
 "CDD_DBRange8" = 15   $ IP Non-Tech
 "CDD_DBRange9" = 24.76599121   $ IP Non-Tech
 "CDD_Day10" = 15   $ IP Non-Tech
 "CDD_Day7" = 16   $ IP Non-Tech
 "CDD_Day8" = 20   $ IP Non-Tech
 "CDD_Day9" = 17   $ IP Non-Tech
 "CDD_HrHi10" = 12   $ IP Non-Tech
 "CDD_HrHi7" = 12   $ IP Non-Tech
 "CDD_HrHi8" = 14   $ IP Non-Tech
 "CDD_HrHi9" = 15   $ IP Non-Tech
 "CDD_HrLo10" = 5   $ IP Non-Tech
 "CDD_HrLo7" = 1   $ IP Non-Tech
 "CDD_HrLo8" = 24   $ IP Non-Tech
 "CDD_HrLo9" = 7   $ IP Non-Tech
 "CDD_WB10" = 59.30932236   $ IP Non-Tech
 "CDD_WB7" = 64.22068024   $ IP Non-Tech
 "CDD_WB8" = 61.81496811   $ IP Non-Tech
 "CDD_WB9" = 62.86130905   $ IP Non-Tech
 "CEIR_fPLR_Hot" = SpltAC2SpHiSEER_CEIR_fPLR_Hot   $ Msr (Multi)TechID: MsrNResSplitAC-45to55-S17
 "CEIR_fPLR_Mod" = SpltAC2SpHiSEER_CEIR_fPLR_Mod   $ Msr (Multi)TechID: MsrNResSplitAC-45to55-S17
 "CEIR_fPLR_Tem" = SpltAC2SpHiSEER_CEIR_fPLR_Tem   $ Msr (Multi)TechID: MsrNResSplitAC-45to55-S17
 "CLoss_fPLR_Hot" = SpltAC2SpHiSEER_CLoss_fPLR_Hot   $ Msr (Multi)TechID: MsrNResSplitAC-45to55-S17
 "CLoss_fPLR_Mod" = SpltAC2SpHiSEER_CLoss_fPLR_Mod   $ Msr (Multi)TechID: MsrNResSplitAC-45to55-S17
 "CLoss_fPLR_Tem" = SpltAC2SpHiSEER_CLoss_fPLR_Tem   $ Msr (Multi)TechID: MsrNResSplitAC-45to55-S17
 "COP47" = 0   $ Msr (Multi)TechID: MsrNResSplitAC-45to55-S17
 "CZ_Category" = Tem   $ IP Non-Tech
 "CapRange" = Any   $ Msr (Multi)TechID: MsrNResSplitAC-45to55-S17
 "CfmPerBtuh" = 0.03   $ Msr (Multi)TechID: MsrNResSplitAC-45to55-S17
 "ChwVintEconoFlag" = 1   $ IP Non-Tech
 "ClCap_fT" = SpltAC2SpHiSEER_ClCap_fT   $ Msr (Multi)TechID: MsrNResSplitAC-45to55-S17
 "ClSH_fT" = SpltAC2SpHiSEER_ClSH_fT   $ Msr (Multi)TechID: MsrNResSplitAC-45to55-S17
 "CoilBF" = 0.102   $ Msr (Multi)TechID: MsrNResSplitAC-45to55-S17
 "CondWPerBtuh" = 0   $ Msr (Multi)TechID: MsrNResSplitAC-45to55-S17
 "Conference_EWSF" = 1.05   $ IP Non-Tech
 "Conference_LWSF" = 1.4   $ IP Non-Tech
 "CoolSensCap" = 0.724   $ Msr (Multi)TechID: MsrNResSplitAC-45to55-S17
 "CoolSetT" = 45   $ IP Non-Tech
 "CoolType" = DX   $ IP Non-Tech
 "CoolingEIR" = 0.2225   $ Msr (Multi)TechID: MsrNResSplitAC-45to55-S17
 "CopyRoom_EWSF" = 1.575   $ IP Non-Tech
 "CopyRoom_LWSF" = 1.3   $ IP Non-Tech
 "CorridorStairway_EWSF" = 0.21   $ IP Non-Tech
 "CorridorStairway_LWSF" = 0.6   $ IP Non-Tech
 "CrnkEIR" = 0.002225   $ Msr (Multi)TechID: MsrNResSplitAC-45to55-S17
 "CrnkMaxT" = 50   $ Msr (Multi)TechID: MsrNResSplitAC-45to55-S17
 "DXType" = SplitSEER   $ Msr (Multi)TechID: MsrNResSplitAC-45to55-S17
 "DesCoolT" = 75   $ IP Non-Tech
 "DesHeatT" = 73   $ IP Non-Tech
 "EER" = 13.26   $ Msr (Multi)TechID: MsrNResSplitAC-45to55-S17
 "EIR_fT" = SpltAC2SpHiSEER_EIR_fT   $ Msr (Multi)TechID: MsrNResSplitAC-45to55-S17
 "EconoCtrl" = FIXED   $ Msr (Multi)TechID: MsrNResSplitAC-45to55-S17
 "EconoEnthLimit" = 28   $ IP Non-Tech
 "EconoTempLimit" = 70   $ IP Non-Tech
 "Elevation" = 253   $ IP Non-Tech
 "FanEirPlr" = TwoSpeedFan   $ Msr (Multi)TechID: MsrNResSplitAC-45to55-S17
 "FanWPerCfm" = 0.271   $ Msr (Multi)TechID: MsrNResSplitAC-45to55-S17
 "HDD_CloudAmt1" = 0   $ IP Non-Tech
 "HDD_DBHi1" = 59   $ IP Non-Tech
 "HDD_DBRange1" = 27   $ IP Non-Tech
 "HDD_Day1" = 15   $ IP Non-Tech
 "HDD_HrHi1" = 12   $ IP Non-Tech
 "HDD_HrLo1" = 5   $ IP Non-Tech
 "HDD_WB1" = 46.8   $ IP Non-Tech
 "HDD_WindSpd1" = 13.8   $ IP Non-Tech
 "HIR_fT" = 0   $ Msr (Multi)TechID: MsrNResSplitAC-45to55-S17
 "HSPF" = 0   $ Msr (Multi)TechID: MsrNResSplitAC-45to55-S17
 "HeatSrc" = FURNACE   $ IP Non-Tech
 "HeatSrcTU" = HEAT-PUMP   $ IP Non-Tech
 "HeatType" = GasFurn   $ IP Non-Tech
 "HeatTypeTU" = HEAT-PUMP   $ IP Non-Tech
 "HtCap_fT" = 0   $ Msr (Multi)TechID: MsrNResSplitAC-45to55-S17
 "HtCoolCapRatio" = 0   $ Msr (Multi)TechID: MsrNResSplitAC-45to55-S17
 "HtgEIR" = 0   $ Msr (Multi)TechID: MsrNResSplitAC-45to55-S17
 "IndoorFanMode" = CONTINUOUS   $ IP Non-Tech
 "KT_TransferAir" = No   $ IP Non-Tech
 "Latitude" = 34.9   $ IP Non-Tech
 "LobbyWaiting_EWSF" = 0.5125   $ IP Non-Tech
 "LobbyWaiting_LWSF" = 1.3   $ IP Non-Tech
 "Longitude" = 120.5   $ IP Non-Tech
 "LowSpdCapRatio" = 0.686   $ Msr (Multi)TechID: MsrNResSplitAC-45to55-S17
 "LowSpdCfmRatio" = 0.739   $ Msr (Multi)TechID: MsrNResSplitAC-45to55-S17
 "MZFanMechEff" = 0.58   $ IP Non-Tech
 "MZHasRetFan" = FALSE   $ IP Non-Tech
 "MZ_RFanWPerCfm" = 0.37   $ IP Non-Tech
 "MZ_SFanWPerCfm" = 0.71   $ IP Non-Tech
 "MZ_SupFanStatic" = 2.25   $ IP Non-Tech
 "MaxOAFrac" = 1   $ Msr (Multi)TechID: MsrNResSplitAC-45to55-S17
 "MaxSupT_MZ" = 100   $ IP Non-Tech
 "MaxSupT_SZ" = 100   $ IP Non-Tech
 "MaxSupT_TU" = 90   $ IP Non-Tech
 "MechElecRoom_EWSF" = 0.21   $ IP Non-Tech
 "MechElecRoom_LWSF" = 0.7   $ IP Non-Tech
 "MinCfmPerSF" = 0.4   $ IP Non-Tech
 "MinSupT" = 55   $ IP Non-Tech
 "NumStages" = 2   $ Msr (Multi)TechID: MsrNResSplitAC-45to55-S17
 "OccCoolT" = 76   $ IP Non-Tech
 "OccHeatT" = 72   $ IP Non-Tech
 "OfficeOpen_EWSF" = 1.575   $ IP Non-Tech
 "OfficeOpen_LWSF" = 1.2   $ IP Non-Tech
 "OfficeSmall_EWSF" = 1.575   $ IP Non-Tech
 "OfficeSmall_LWSF" = 1.3   $ IP Non-Tech
 "PkgDxVintEconoFlag" = 0   $ IP Non-Tech
 "Restroom_EWSF" = 0.21   $ IP Non-Tech
 "Restroom_LWSF" = 0.6   $ IP Non-Tech
 "SEER" = 17   $ Msr (Multi)TechID: MsrNResSplitAC-45to55-S17
 "SZFanMechEff" = 0.58   $ IP Non-Tech
 "SZHasRetFan" = FALSE   $ IP Non-Tech
 "SZ_Is_2Spd" = FALSE   $ IP Non-Tech
 "SZ_SFanWPerCfm" = 0.46   $ IP Non-Tech
 "SZ_SupFanStatic" = 0.75   $ IP Non-Tech
 "Sector" = Any   $ Msr (Multi)TechID: MsrNResSplitAC-45to55-S17
 "StorageSmlCond_EWSF" = 0.21   $ IP Non-Tech
 "StorageSmlCond_LWSF" = 0.6   $ IP Non-Tech
 "SubType" = AC   $ Msr (Multi)TechID: MsrNResSplitAC-45to55-S17
 "T24GlzTbl" = CZTbl   $ IP Non-Tech
 "TermUnitFanMechEff" = 1   $ IP Non-Tech
 "TermUnitFanMode" = INTERMITTENT   $ IP Non-Tech
 "TotCoolCap" = 58805   $ Msr (Multi)TechID: MsrNResSplitAC-45to55-S17
 "TwrSetpt" = 80   $ IP Non-Tech
 "UnocCoolT" = 86   $ IP Non-Tech
 "UnocHeatT" = 62   $ IP Non-Tech
 "UseEconoVintApplic" = FALSE   $ Msr (Multi)TechID: MsrNResSplitAC-45to55-S17
 "WlhpVintEconoFlag" = 0   $ IP Non-Tech
 "DuctDT" = 1   $ IP Tech: ComDuctInsul-1
 "DuctAirLoss" = 0   $ IP Tech: ComDuctLeak-0
 "DuctLossOAFrac" = 0   $ IP Tech: ComDuctLeak-0
 "ComRoofInsCalc" = FromUo   $ IP Tech: ComRoofIns-Hvy-0.06
 "ComRoofInsR" = -999   $ IP Tech: ComRoofIns-Hvy-0.06
 "ComRoofUo" = 0.06   $ IP Tech: ComRoofIns-Hvy-0.06
 "ComEWInsCalc" = FromUo   $ IP Tech: ComWallIns-MFrm-0.14
 "ComEWInsR" = -999   $ IP Tech: ComWallIns-MFrm-0.14
 "ComEWUo" = 0.14   $ IP Tech: ComWallIns-MFrm-0.14
 "ComN_SHGC" = 0.82   $ IP Tech: NResWin-ComN-1.23-0.82
 "ComN_UFactor" = 1.23   $ IP Tech: NResWin-ComN-1.23-0.82
 "ComN_VisTrans" = 0.9   $ IP Tech: NResWin-ComN-1.23-0.82
 "ComN_WinCode" = G1000   $ IP Tech: NResWin-ComN-1.23-0.82
 "ComN_WinFrmFrac" = 0.17   $ IP Tech: NResWin-ComN-1.23-0.82
 "ComN_WinFrmU" = 1   $ IP Tech: NResWin-ComN-1.23-0.82
 "ComO_SHGC" = 0.62   $ IP Tech: NResWin-ComO-1.23-0.62
 "ComO_UFactor" = 1.23   $ IP Tech: NResWin-ComO-1.23-0.62
 "ComO_VisTrans" = 0.69   $ IP Tech: NResWin-ComO-1.23-0.62
 "ComO_WinCode" = G1200   $ IP Tech: NResWin-ComO-1.23-0.62
 "ComO_WinFrmFrac" = 0.17   $ IP Tech: NResWin-ComO-1.23-0.62
 "ComO_WinFrmU" = 1   $ IP Tech: NResWin-ComO-1.23-0.62
 "LtgMsrApplic" = ALL   $ IP Tech: NonResLtgRefPre
 "LtgSav_CFL" = 0   $ IP Tech: NonResLtgRefPre
 "LtgSav_EX" = 0   $ IP Tech: NonResLtgRefPre
 "LtgSav_HB" = 0   $ IP Tech: NonResLtgRefPre
 "LtgSav_LF" = 0   $ IP Tech: NonResLtgRefPre
 "LtgSav_SP" = 0   $ IP Tech: NonResLtgRefPre
 "CEIR_fPLR" = PSZ65to135_CEIR_fPLR   $ IP Tech: PkgAC1SpH-65to135-E10
 "CLoss_fPLR" = PSZ65to135_CLoss_fPLR   $ IP Tech: PkgAC1SpH-65to135-E10
 "COP" = -1   $ IP Tech: PkgAC1SpH-65to135-E10
 "HtgFuel" = Gas   $ IP Tech: PkgAC1SpH-65to135-E10
 "IEER" = 11.87   $ IP Tech: PkgAC1SpH-65to135-E10
 "NominalCap" = 15   $ IP Tech: PkgAC1SpH-65to135-E10
 "RatedEER" = 10   $ IP Tech: PkgAC1SpH-65to135-E10
 "RatedSupMtrClass" = HiEff   $ IP Tech: PkgAC1SpH-65to135-E10
 "SizeRange" = 65to135   $ IP Tech: PkgAC1SpH-65to135-E10
 "SupMotEff" = 0.84   $ IP Tech: PkgAC1SpH-65to135-E10
 "Tier" = 0   $ IP Tech: PkgAC1SpH-65to135-E10
 "FanPwrMult" = 1   $ IP Tech: PkgFurn-0.80AFUE
 "FurnAFUE" = 0.8   $ IP Tech: PkgFurn-0.80AFUE
 "FurnEt" = 0.82   $ IP Tech: PkgFurn-0.80AFUE
 "FurnaceAuxKW" = 0.1   $ IP Tech: PkgFurn-0.80AFUE
 "HIR_fPLR" = Furnace-HIR-fPLR   $ IP Tech: PkgFurn-0.80AFUE
 "VSM" = FALSE   $ IP Tech: PkgFurn-0.80AFUE
 "BFMult" = 1   $ IP Tech: RefgChg-NRes-Std
 "CoolEirMult" = 1   $ IP Tech: RefgChg-NRes-Std
 "SensCoolCapMult" = 1   $ IP Tech: RefgChg-NRes-Std
 "TotCoolCapMult" = 1   $ IP Tech: RefgChg-NRes-Std
 "AltAdjFactor" = 1.009388   $ Sizing
 "CAssFlo_L_Break_CZn" = 367.738   $ Sizing
 "CAssFlo_L_Conf_CZn" = 435.0478   $ Sizing
 "CAssFlo_L_CopyRm_CZn" = 111.0928   $ Sizing
 "CAssFlo_L_Cordr_CZn" = 566.4792   $ Sizing
 "CAssFlo_L_Cordr_EZn" = 288.7507   $ Sizing
 "CAssFlo_L_Cordr_NZn" = 114.681   $ Sizing
 "CAssFlo_L_Cordr_SZn" = 319.5735   $ Sizing
 "CAssFlo_L_Cordr_WZn" = 290.2534   $ Sizing
 "CAssFlo_L_LobWait_CZn" = 369.144   $ Sizing
 "CAssFlo_L_MechElec_CZn" = 134.4168   $ Sizing
 "CAssFlo_L_OfficeOpn_CZn" = 1735.554   $ Sizing
 "CAssFlo_L_OfficeOpn_EZn" = 2246.611   $ Sizing
 "CAssFlo_L_OfficeOpn_NZn" = 971.8496   $ Sizing
 "CAssFlo_L_OfficeOpn_SZn" = 2376.385   $ Sizing
 "CAssFlo_L_OfficeOpn_WZn" = 2288.274   $ Sizing
 "CAssFlo_L_OfficeSm_CZn" = 223.5522   $ Sizing
 "CAssFlo_L_OfficeSm_EZn" = 1648.622   $ Sizing
 "CAssFlo_L_OfficeSm_NZn" = 622.455   $ Sizing
 "CAssFlo_L_OfficeSm_SZn" = 1781.909   $ Sizing
 "CAssFlo_L_OfficeSm_WZn" = 1678.064   $ Sizing
 "CAssFlo_L_Restrm_CZn" = 212.2513   $ Sizing
 "CAssFlo_L_StorSm_CZn" = 360.7384   $ Sizing
 "CAssFlo_M_Break_CZn" = 402.0718   $ Sizing
 "CAssFlo_M_Conf_CZn" = 486.9368   $ Sizing
 "CAssFlo_M_CopyRm_CZn" = 139.2556   $ Sizing
 "CAssFlo_M_Cordr_CZn" = 826.6078   $ Sizing
 "CAssFlo_M_Cordr_EZn" = 339.9889   $ Sizing
 "CAssFlo_M_Cordr_NZn" = 131.4506   $ Sizing
 "CAssFlo_M_Cordr_SZn" = 372.9356   $ Sizing
 "CAssFlo_M_Cordr_WZn" = 330.1966   $ Sizing
 "CAssFlo_M_LobWait_CZn" = 480.2451   $ Sizing
 "CAssFlo_M_MechElec_CZn" = 155.5885   $ Sizing
 "CAssFlo_M_OfficeOpn_CZn" = 2030.62   $ Sizing
 "CAssFlo_M_OfficeOpn_EZn" = 2425.706   $ Sizing
 "CAssFlo_M_OfficeOpn_NZn" = 1104.463   $ Sizing
 "CAssFlo_M_OfficeOpn_SZn" = 2619.868   $ Sizing
 "CAssFlo_M_OfficeOpn_WZn" = 2416.116   $ Sizing
 "CAssFlo_M_OfficeSm_CZn" = 288.3887   $ Sizing
 "CAssFlo_M_OfficeSm_EZn" = 1753.827   $ Sizing
 "CAssFlo_M_OfficeSm_NZn" = 709.9704   $ Sizing
 "CAssFlo_M_OfficeSm_SZn" = 1947.745   $ Sizing
 "CAssFlo_M_OfficeSm_WZn" = 1786.26   $ Sizing
 "CAssFlo_M_Restrm_CZn" = 212.2513   $ Sizing
 "CAssFlo_M_StorSm_CZn" = 388.8374   $ Sizing
 "CAssFlo_T_Break_CZn" = 379.95   $ Sizing
 "CAssFlo_T_Conf_CZn" = 460.9445   $ Sizing
 "CAssFlo_T_CopyRm_CZn" = 130.8042   $ Sizing
 "CAssFlo_T_Cordr_CZn" = 720.1438   $ Sizing
 "CAssFlo_T_Cordr_EZn" = 296.2771   $ Sizing
 "CAssFlo_T_Cordr_NZn" = 119.0584   $ Sizing
 "CAssFlo_T_Cordr_SZn" = 335.3678   $ Sizing
 "CAssFlo_T_Cordr_WZn" = 295.4663   $ Sizing
 "CAssFlo_T_LobWait_CZn" = 440.4752   $ Sizing
 "CAssFlo_T_MechElec_CZn" = 176.4868   $ Sizing
 "CAssFlo_T_OfficeOpn_CZn" = 1855.959   $ Sizing
 "CAssFlo_T_OfficeOpn_EZn" = 2178.917   $ Sizing
 "CAssFlo_T_OfficeOpn_NZn" = 1028.023   $ Sizing
 "CAssFlo_T_OfficeOpn_SZn" = 2423.782   $ Sizing
 "CAssFlo_T_OfficeOpn_WZn" = 2201.53   $ Sizing
 "CAssFlo_T_OfficeSm_CZn" = 264.5012   $ Sizing
 "CAssFlo_T_OfficeSm_EZn" = 1627.302   $ Sizing
 "CAssFlo_T_OfficeSm_NZn" = 674.2566   $ Sizing
 "CAssFlo_T_OfficeSm_SZn" = 1847.364   $ Sizing
 "CAssFlo_T_OfficeSm_WZn" = 1680.18   $ Sizing
 "CAssFlo_T_Restrm_CZn" = 212.2513   $ Sizing
 "CAssFlo_T_StorSm_CZn" = 334.7046   $ Sizing
 "CHRtFlo_Sys_L_Break_C" = 367.738   $ Sizing
 "CHRtFlo_Sys_L_Conf_C" = 435.0478   $ Sizing
 "CHRtFlo_Sys_L_CopyRm_C" = 111.0928   $ Sizing
 "CHRtFlo_Sys_L_Cordr_C" = 566.4792   $ Sizing
 "CHRtFlo_Sys_L_Cordr_E" = 288.7507   $ Sizing
 "CHRtFlo_Sys_L_Cordr_N" = 114.681   $ Sizing
 "CHRtFlo_Sys_L_Cordr_S" = 319.5735   $ Sizing
 "CHRtFlo_Sys_L_Cordr_W" = 290.2534   $ Sizing
 "CHRtFlo_Sys_L_LobWait_C" = 369.144   $ Sizing
 "CHRtFlo_Sys_L_MechElec_C" = 134.4168   $ Sizing
 "CHRtFlo_Sys_L_OfficeOpn_C" = 1735.554   $ Sizing
 "CHRtFlo_Sys_L_OfficeOpn_E" = 2246.611   $ Sizing
 "CHRtFlo_Sys_L_OfficeOpn_N" = 971.8496   $ Sizing
 "CHRtFlo_Sys_L_OfficeOpn_S" = 2376.385   $ Sizing
 "CHRtFlo_Sys_L_OfficeOpn_W" = 2288.274   $ Sizing
 "CHRtFlo_Sys_L_OfficeSm_C" = 223.5522   $ Sizing
 "CHRtFlo_Sys_L_OfficeSm_E" = 1648.622   $ Sizing
 "CHRtFlo_Sys_L_OfficeSm_N" = 622.455   $ Sizing
 "CHRtFlo_Sys_L_OfficeSm_S" = 1781.909   $ Sizing
 "CHRtFlo_Sys_L_OfficeSm_W" = 1678.064   $ Sizing
 "CHRtFlo_Sys_L_Restrm_C" = 212.2513   $ Sizing
 "CHRtFlo_Sys_L_StorSm_C" = 360.7384   $ Sizing
 "CHRtFlo_Sys_M_Break_C" = 3216.575   $ Sizing
 "CHRtFlo_Sys_M_Conf_C" = 3895.494   $ Sizing
 "CHRtFlo_Sys_M_CopyRm_C" = 1114.045   $ Sizing
 "CHRtFlo_Sys_M_Cordr_C" = 6612.862   $ Sizing
 "CHRtFlo_Sys_M_Cordr_E" = 2719.911   $ Sizing
 "CHRtFlo_Sys_M_Cordr_N" = 1051.605   $ Sizing
 "CHRtFlo_Sys_M_Cordr_S" = 2983.485   $ Sizing
 "CHRtFlo_Sys_M_Cordr_W" = 2641.573   $ Sizing
 "CHRtFlo_Sys_M_LobWait_C" = 3841.961   $ Sizing
 "CHRtFlo_Sys_M_MechElec_C" = 1244.708   $ Sizing
 "CHRtFlo_Sys_M_OfficeOpn_C" = 16244.96   $ Sizing
 "CHRtFlo_Sys_M_OfficeOpn_E" = 19405.64   $ Sizing
 "CHRtFlo_Sys_M_OfficeOpn_N" = 8835.7   $ Sizing
 "CHRtFlo_Sys_M_OfficeOpn_S" = 20958.94   $ Sizing
 "CHRtFlo_Sys_M_OfficeOpn_W" = 19328.93   $ Sizing
 "CHRtFlo_Sys_M_OfficeSm_C" = 2307.11   $ Sizing
 "CHRtFlo_Sys_M_OfficeSm_E" = 14030.62   $ Sizing
 "CHRtFlo_Sys_M_OfficeSm_N" = 5679.763   $ Sizing
 "CHRtFlo_Sys_M_OfficeSm_S" = 15581.96   $ Sizing
 "CHRtFlo_Sys_M_OfficeSm_W" = 14290.08   $ Sizing
 "CHRtFlo_Sys_M_Restrm_C" = 1698.01   $ Sizing
 "CHRtFlo_Sys_M_StorSm_C" = 3110.699   $ Sizing
 "CHRtFlo_Sys_T_Break_C" = 379.95   $ Sizing
 "CHRtFlo_Sys_T_Conf_C" = 460.9445   $ Sizing
 "CHRtFlo_Sys_T_CopyRm_C" = 130.8042   $ Sizing
 "CHRtFlo_Sys_T_Cordr_C" = 720.1438   $ Sizing
 "CHRtFlo_Sys_T_Cordr_E" = 296.2771   $ Sizing
 "CHRtFlo_Sys_T_Cordr_N" = 119.0584   $ Sizing
 "CHRtFlo_Sys_T_Cordr_S" = 335.3678   $ Sizing
 "CHRtFlo_Sys_T_Cordr_W" = 295.4663   $ Sizing
 "CHRtFlo_Sys_T_LobWait_C" = 440.4752   $ Sizing
 "CHRtFlo_Sys_T_MechElec_C" = 176.4868   $ Sizing
 "CHRtFlo_Sys_T_OfficeOpn_C" = 1855.959   $ Sizing
 "CHRtFlo_Sys_T_OfficeOpn_E" = 2178.917   $ Sizing
 "CHRtFlo_Sys_T_OfficeOpn_N" = 1028.023   $ Sizing
 "CHRtFlo_Sys_T_OfficeOpn_S" = 2423.782   $ Sizing
 "CHRtFlo_Sys_T_OfficeOpn_W" = 2201.53   $ Sizing
 "CHRtFlo_Sys_T_OfficeSm_C" = 264.5012   $ Sizing
 "CHRtFlo_Sys_T_OfficeSm_E" = 1627.302   $ Sizing
 "CHRtFlo_Sys_T_OfficeSm_N" = 674.2566   $ Sizing
 "CHRtFlo_Sys_T_OfficeSm_S" = 1847.364   $ Sizing
 "CHRtFlo_Sys_T_OfficeSm_W" = 1680.18   $ Sizing
 "CHRtFlo_Sys_T_Restrm_C" = 212.2513   $ Sizing
 "CHRtFlo_Sys_T_StorSm_C" = 334.7046   $ Sizing
 "CRtdFlo_Sys_L_Break_C" = 367.738   $ Sizing
 "CRtdFlo_Sys_L_Conf_C" = 435.0478   $ Sizing
 "CRtdFlo_Sys_L_CopyRm_C" = 111.0928   $ Sizing
 "CRtdFlo_Sys_L_Cordr_C" = 566.4792   $ Sizing
 "CRtdFlo_Sys_L_Cordr_E" = 288.7507   $ Sizing
 "CRtdFlo_Sys_L_Cordr_N" = 114.681   $ Sizing
 "CRtdFlo_Sys_L_Cordr_S" = 319.5735   $ Sizing
 "CRtdFlo_Sys_L_Cordr_W" = 290.2534   $ Sizing
 "CRtdFlo_Sys_L_LobWait_C" = 369.144   $ Sizing
 "CRtdFlo_Sys_L_MechElec_C" = 134.4168   $ Sizing
 "CRtdFlo_Sys_L_OfficeOpn_C" = 1735.554   $ Sizing
 "CRtdFlo_Sys_L_OfficeOpn_E" = 2246.611   $ Sizing
 "CRtdFlo_Sys_L_OfficeOpn_N" = 971.8496   $ Sizing
 "CRtdFlo_Sys_L_OfficeOpn_S" = 2376.385   $ Sizing
 "CRtdFlo_Sys_L_OfficeOpn_W" = 2288.274   $ Sizing
 "CRtdFlo_Sys_L_OfficeSm_C" = 223.5522   $ Sizing
 "CRtdFlo_Sys_L_OfficeSm_E" = 1648.622   $ Sizing
 "CRtdFlo_Sys_L_OfficeSm_N" = 622.455   $ Sizing
 "CRtdFlo_Sys_L_OfficeSm_S" = 1781.909   $ Sizing
 "CRtdFlo_Sys_L_OfficeSm_W" = 1678.064   $ Sizing
 "CRtdFlo_Sys_L_Restrm_C" = 212.2513   $ Sizing
 "CRtdFlo_Sys_L_StorSm_C" = 360.7384   $ Sizing
 "CRtdFlo_Sys_M_Break_C" = 3216.575   $ Sizing
 "CRtdFlo_Sys_M_Conf_C" = 3895.494   $ Sizing
 "CRtdFlo_Sys_M_CopyRm_C" = 1114.045   $ Sizing
 "CRtdFlo_Sys_M_Cordr_C" = 6612.862   $ Sizing
 "CRtdFlo_Sys_M_Cordr_E" = 2719.911   $ Sizing
 "CRtdFlo_Sys_M_Cordr_N" = 1051.605   $ Sizing
 "CRtdFlo_Sys_M_Cordr_S" = 2983.485   $ Sizing
 "CRtdFlo_Sys_M_Cordr_W" = 2641.573   $ Sizing
 "CRtdFlo_Sys_M_LobWait_C" = 3841.961   $ Sizing
 "CRtdFlo_Sys_M_MechElec_C" = 1244.708   $ Sizing
 "CRtdFlo_Sys_M_OfficeOpn_C" = 16244.96   $ Sizing
 "CRtdFlo_Sys_M_OfficeOpn_E" = 19405.64   $ Sizing
 "CRtdFlo_Sys_M_OfficeOpn_N" = 8835.7   $ Sizing
 "CRtdFlo_Sys_M_OfficeOpn_S" = 20958.94   $ Sizing
 "CRtdFlo_Sys_M_OfficeOpn_W" = 19328.93   $ Sizing
 "CRtdFlo_Sys_M_OfficeSm_C" = 2307.11   $ Sizing
 "CRtdFlo_Sys_M_OfficeSm_E" = 14030.62   $ Sizing
 "CRtdFlo_Sys_M_OfficeSm_N" = 5679.763   $ Sizing
 "CRtdFlo_Sys_M_OfficeSm_S" = 15581.96   $ Sizing
 "CRtdFlo_Sys_M_OfficeSm_W" = 14290.08   $ Sizing
 "CRtdFlo_Sys_M_Restrm_C" = 1698.01   $ Sizing
 "CRtdFlo_Sys_M_StorSm_C" = 3110.699   $ Sizing
 "CRtdFlo_Sys_T_Break_C" = 379.95   $ Sizing
 "CRtdFlo_Sys_T_Conf_C" = 460.9445   $ Sizing
 "CRtdFlo_Sys_T_CopyRm_C" = 130.8042   $ Sizing
 "CRtdFlo_Sys_T_Cordr_C" = 720.1438   $ Sizing
 "CRtdFlo_Sys_T_Cordr_E" = 296.2771   $ Sizing
 "CRtdFlo_Sys_T_Cordr_N" = 119.0584   $ Sizing
 "CRtdFlo_Sys_T_Cordr_S" = 335.3678   $ Sizing
 "CRtdFlo_Sys_T_Cordr_W" = 295.4663   $ Sizing
 "CRtdFlo_Sys_T_LobWait_C" = 440.4752   $ Sizing
 "CRtdFlo_Sys_T_MechElec_C" = 176.4868   $ Sizing
 "CRtdFlo_Sys_T_OfficeOpn_C" = 1855.959   $ Sizing
 "CRtdFlo_Sys_T_OfficeOpn_E" = 2178.917   $ Sizing
 "CRtdFlo_Sys_T_OfficeOpn_N" = 1028.023   $ Sizing
 "CRtdFlo_Sys_T_OfficeOpn_S" = 2423.782   $ Sizing
 "CRtdFlo_Sys_T_OfficeOpn_W" = 2201.53   $ Sizing
 "CRtdFlo_Sys_T_OfficeSm_C" = 264.5012   $ Sizing
 "CRtdFlo_Sys_T_OfficeSm_E" = 1627.302   $ Sizing
 "CRtdFlo_Sys_T_OfficeSm_N" = 674.2566   $ Sizing
 "CRtdFlo_Sys_T_OfficeSm_S" = 1847.364   $ Sizing
 "CRtdFlo_Sys_T_OfficeSm_W" = 1680.18   $ Sizing
 "CRtdFlo_Sys_T_Restrm_C" = 212.2513   $ Sizing
 "CRtdFlo_Sys_T_StorSm_C" = 334.7046   $ Sizing
 "CSupFlo_Sys_L_Break_C" = 367.738   $ Sizing
 "CSupFlo_Sys_L_Conf_C" = 435.0478   $ Sizing
 "CSupFlo_Sys_L_CopyRm_C" = 111.0928   $ Sizing
 "CSupFlo_Sys_L_Cordr_C" = 566.4792   $ Sizing
 "CSupFlo_Sys_L_Cordr_E" = 288.7507   $ Sizing
 "CSupFlo_Sys_L_Cordr_N" = 114.681   $ Sizing
 "CSupFlo_Sys_L_Cordr_S" = 319.5735   $ Sizing
 "CSupFlo_Sys_L_Cordr_W" = 290.2534   $ Sizing
 "CSupFlo_Sys_L_LobWait_C" = 369.144   $ Sizing
 "CSupFlo_Sys_L_MechElec_C" = 134.4168   $ Sizing
 "CSupFlo_Sys_L_OfficeOpn_C" = 1735.554   $ Sizing
 "CSupFlo_Sys_L_OfficeOpn_E" = 2246.611   $ Sizing
 "CSupFlo_Sys_L_OfficeOpn_N" = 971.8496   $ Sizing
 "CSupFlo_Sys_L_OfficeOpn_S" = 2376.385   $ Sizing
 "CSupFlo_Sys_L_OfficeOpn_W" = 2288.274   $ Sizing
 "CSupFlo_Sys_L_OfficeSm_C" = 223.5522   $ Sizing
 "CSupFlo_Sys_L_OfficeSm_E" = 1648.622   $ Sizing
 "CSupFlo_Sys_L_OfficeSm_N" = 622.455   $ Sizing
 "CSupFlo_Sys_L_OfficeSm_S" = 1781.909   $ Sizing
 "CSupFlo_Sys_L_OfficeSm_W" = 1678.064   $ Sizing
 "CSupFlo_Sys_L_Restrm_C" = 212.2513   $ Sizing
 "CSupFlo_Sys_L_StorSm_C" = 360.7384   $ Sizing
 "CSupFlo_Sys_M_Break_C" = 3216.575   $ Sizing
 "CSupFlo_Sys_M_Conf_C" = 3895.494   $ Sizing
 "CSupFlo_Sys_M_CopyRm_C" = 1114.045   $ Sizing
 "CSupFlo_Sys_M_Cordr_C" = 6612.862   $ Sizing
 "CSupFlo_Sys_M_Cordr_E" = 2719.911   $ Sizing
 "CSupFlo_Sys_M_Cordr_N" = 1051.605   $ Sizing
 "CSupFlo_Sys_M_Cordr_S" = 2983.485   $ Sizing
 "CSupFlo_Sys_M_Cordr_W" = 2641.573   $ Sizing
 "CSupFlo_Sys_M_LobWait_C" = 3841.961   $ Sizing
 "CSupFlo_Sys_M_MechElec_C" = 1244.708   $ Sizing
 "CSupFlo_Sys_M_OfficeOpn_C" = 16244.96   $ Sizing
 "CSupFlo_Sys_M_OfficeOpn_E" = 19405.64   $ Sizing
 "CSupFlo_Sys_M_OfficeOpn_N" = 8835.7   $ Sizing
 "CSupFlo_Sys_M_OfficeOpn_S" = 20958.94   $ Sizing
 "CSupFlo_Sys_M_OfficeOpn_W" = 19328.93   $ Sizing
 "CSupFlo_Sys_M_OfficeSm_C" = 2307.11   $ Sizing
 "CSupFlo_Sys_M_OfficeSm_E" = 14030.62   $ Sizing
 "CSupFlo_Sys_M_OfficeSm_N" = 5679.763   $ Sizing
 "CSupFlo_Sys_M_OfficeSm_S" = 15581.96   $ Sizing
 "CSupFlo_Sys_M_OfficeSm_W" = 14290.08   $ Sizing
 "CSupFlo_Sys_M_Restrm_C" = 1698.01   $ Sizing
 "CSupFlo_Sys_M_StorSm_C" = 3110.699   $ Sizing
 "CSupFlo_Sys_T_Break_C" = 379.95   $ Sizing
 "CSupFlo_Sys_T_Conf_C" = 460.9445   $ Sizing
 "CSupFlo_Sys_T_CopyRm_C" = 130.8042   $ Sizing
 "CSupFlo_Sys_T_Cordr_C" = 720.1438   $ Sizing
 "CSupFlo_Sys_T_Cordr_E" = 296.2771   $ Sizing
 "CSupFlo_Sys_T_Cordr_N" = 119.0584   $ Sizing
 "CSupFlo_Sys_T_Cordr_S" = 335.3678   $ Sizing
 "CSupFlo_Sys_T_Cordr_W" = 295.4663   $ Sizing
 "CSupFlo_Sys_T_LobWait_C" = 440.4752   $ Sizing
 "CSupFlo_Sys_T_MechElec_C" = 176.4868   $ Sizing
 "CSupFlo_Sys_T_OfficeOpn_C" = 1855.959   $ Sizing
 "CSupFlo_Sys_T_OfficeOpn_E" = 2178.917   $ Sizing
 "CSupFlo_Sys_T_OfficeOpn_N" = 1028.023   $ Sizing
 "CSupFlo_Sys_T_OfficeOpn_S" = 2423.782   $ Sizing
 "CSupFlo_Sys_T_OfficeOpn_W" = 2201.53   $ Sizing
 "CSupFlo_Sys_T_OfficeSm_C" = 264.5012   $ Sizing
 "CSupFlo_Sys_T_OfficeSm_E" = 1627.302   $ Sizing
 "CSupFlo_Sys_T_OfficeSm_N" = 674.2566   $ Sizing
 "CSupFlo_Sys_T_OfficeSm_S" = 1847.364   $ Sizing
 "CSupFlo_Sys_T_OfficeSm_W" = 1680.18   $ Sizing
 "CSupFlo_Sys_T_Restrm_C" = 212.2513   $ Sizing
 "CSupFlo_Sys_T_StorSm_C" = 334.7046   $ Sizing
 "ClCap_Sys_L_Break_C" = 12490.9   $ Sizing
 "ClCap_Sys_L_Conf_C" = 18807.35   $ Sizing
 "ClCap_Sys_L_CopyRm_C" = 3773.473   $ Sizing
 "ClCap_Sys_L_Cordr_C" = 19241.51   $ Sizing
 "ClCap_Sys_L_Cordr_E" = 9807.951   $ Sizing
 "ClCap_Sys_L_Cordr_N" = 3895.353   $ Sizing
 "ClCap_Sys_L_Cordr_S" = 10854.9   $ Sizing
 "ClCap_Sys_L_Cordr_W" = 9858.99   $ Sizing
 "ClCap_Sys_L_LobWait_C" = 12538.66   $ Sizing
 "ClCap_Sys_L_MechElec_C" = 4565.713   $ Sizing
 "ClCap_Sys_L_OfficeOpn_C" = 58951.29   $ Sizing
 "ClCap_Sys_L_OfficeOpn_E" = 76310.3   $ Sizing
 "ClCap_Sys_L_OfficeOpn_N" = 33010.66   $ Sizing
 "ClCap_Sys_L_OfficeOpn_S" = 80718.29   $ Sizing
 "ClCap_Sys_L_OfficeOpn_W" = 77725.44   $ Sizing
 "ClCap_Sys_L_OfficeSm_C" = 7593.364   $ Sizing
 "ClCap_Sys_L_OfficeSm_E" = 55998.5   $ Sizing
 "ClCap_Sys_L_OfficeSm_N" = 21142.83   $ Sizing
 "ClCap_Sys_L_OfficeSm_S" = 60525.81   $ Sizing
 "ClCap_Sys_L_OfficeSm_W" = 56998.55   $ Sizing
 "ClCap_Sys_L_Restrm_C" = 7209.506   $ Sizing
 "ClCap_Sys_L_StorSm_C" = 12253.14   $ Sizing
 "ClCap_Sys_M_Break_C" = 109256.9   $ Sizing
 "ClCap_Sys_M_Conf_C" = 168404.3   $ Sizing
 "ClCap_Sys_M_CopyRm_C" = 37840.6   $ Sizing
 "ClCap_Sys_M_Cordr_C" = 224618.1   $ Sizing
 "ClCap_Sys_M_Cordr_E" = 92386.8   $ Sizing
 "ClCap_Sys_M_Cordr_N" = 35719.7   $ Sizing
 "ClCap_Sys_M_Cordr_S" = 101339.6   $ Sizing
 "ClCap_Sys_M_Cordr_W" = 89725.9   $ Sizing
 "ClCap_Sys_M_LobWait_C" = 130499.3   $ Sizing
 "ClCap_Sys_M_MechElec_C" = 42278.81   $ Sizing
 "ClCap_Sys_M_OfficeOpn_C" = 551790   $ Sizing
 "ClCap_Sys_M_OfficeOpn_E" = 659148.5   $ Sizing
 "ClCap_Sys_M_OfficeOpn_N" = 300120.8   $ Sizing
 "ClCap_Sys_M_OfficeOpn_S" = 711909.2   $ Sizing
 "ClCap_Sys_M_OfficeOpn_W" = 656542.8   $ Sizing
 "ClCap_Sys_M_OfficeSm_C" = 78365.24   $ Sizing
 "ClCap_Sys_M_OfficeSm_E" = 476575.8   $ Sizing
 "ClCap_Sys_M_OfficeSm_N" = 192923.6   $ Sizing
 "ClCap_Sys_M_OfficeSm_S" = 529270   $ Sizing
 "ClCap_Sys_M_OfficeSm_W" = 485389   $ Sizing
 "ClCap_Sys_M_Restrm_C" = 57676.05   $ Sizing
 "ClCap_Sys_M_StorSm_C" = 105660.6   $ Sizing
 "ClCap_Sys_T_Break_C" = 12905.7   $ Sizing
 "ClCap_Sys_T_Conf_C" = 19926.88   $ Sizing
 "ClCap_Sys_T_CopyRm_C" = 4443.005   $ Sizing
 "ClCap_Sys_T_Cordr_C" = 24461.01   $ Sizing
 "ClCap_Sys_T_Cordr_E" = 10063.6   $ Sizing
 "ClCap_Sys_T_Cordr_N" = 4044.037   $ Sizing
 "ClCap_Sys_T_Cordr_S" = 11391.39   $ Sizing
 "ClCap_Sys_T_Cordr_W" = 10036.06   $ Sizing
 "ClCap_Sys_T_LobWait_C" = 14961.55   $ Sizing
 "ClCap_Sys_T_MechElec_C" = 5994.699   $ Sizing
 "ClCap_Sys_T_OfficeOpn_C" = 63041.07   $ Sizing
 "ClCap_Sys_T_OfficeOpn_E" = 74010.92   $ Sizing
 "ClCap_Sys_T_OfficeOpn_N" = 34918.7   $ Sizing
 "ClCap_Sys_T_OfficeOpn_S" = 82328.23   $ Sizing
 "ClCap_Sys_T_OfficeOpn_W" = 74779.02   $ Sizing
 "ClCap_Sys_T_OfficeSm_C" = 8984.271   $ Sizing
 "ClCap_Sys_T_OfficeSm_E" = 55274.3   $ Sizing
 "ClCap_Sys_T_OfficeSm_N" = 22902.37   $ Sizing
 "ClCap_Sys_T_OfficeSm_S" = 62749.14   $ Sizing
 "ClCap_Sys_T_OfficeSm_W" = 57070.42   $ Sizing
 "ClCap_Sys_T_Restrm_C" = 7209.506   $ Sizing
 "ClCap_Sys_T_StorSm_C" = 11368.86   $ Sizing
 "HtCap_Sys_L_Break_C" = -20568.23   $ Sizing
 "HtCap_Sys_L_Conf_C" = -25528.62   $ Sizing
 "HtCap_Sys_L_CopyRm_C" = -7253.358   $ Sizing
 "HtCap_Sys_L_Cordr_C" = -26032.38   $ Sizing
 "HtCap_Sys_L_Cordr_E" = -10068.85   $ Sizing
 "HtCap_Sys_L_Cordr_N" = -5003.469   $ Sizing
 "HtCap_Sys_L_Cordr_S" = -10849.47   $ Sizing
 "HtCap_Sys_L_Cordr_W" = -10101.35   $ Sizing
 "HtCap_Sys_L_LobWait_C" = -20930.02   $ Sizing
 "HtCap_Sys_L_MechElec_C" = -6112.65   $ Sizing
 "HtCap_Sys_L_OfficeOpn_C" = -84371.8   $ Sizing
 "HtCap_Sys_L_OfficeOpn_E" = -72680.07   $ Sizing
 "HtCap_Sys_L_OfficeOpn_N" = -37676.91   $ Sizing
 "HtCap_Sys_L_OfficeOpn_S" = -75877.29   $ Sizing
 "HtCap_Sys_L_OfficeOpn_W" = -75337.92   $ Sizing
 "HtCap_Sys_L_OfficeSm_C" = -9029.101   $ Sizing
 "HtCap_Sys_L_OfficeSm_E" = -54569.72   $ Sizing
 "HtCap_Sys_L_OfficeSm_N" = -24200.55   $ Sizing
 "HtCap_Sys_L_OfficeSm_S" = -57909.05   $ Sizing
 "HtCap_Sys_L_OfficeSm_W" = -55539.14   $ Sizing
 "HtCap_Sys_L_Restrm_C" = -7675.083   $ Sizing
 "HtCap_Sys_L_StorSm_C" = -16335.22   $ Sizing
 "HtCap_Sys_M_Break_C" = -172292.3   $ Sizing
 "HtCap_Sys_M_Conf_C" = -216147.3   $ Sizing
 "HtCap_Sys_M_CopyRm_C" = -64511.27   $ Sizing
 "HtCap_Sys_M_Cordr_C" = -267251.2   $ Sizing
 "HtCap_Sys_M_Cordr_E" = -92045.01   $ Sizing
 "HtCap_Sys_M_Cordr_N" = -43894.55   $ Sizing
 "HtCap_Sys_M_Cordr_S" = -98538.27   $ Sizing
 "HtCap_Sys_M_Cordr_W" = -89685.3   $ Sizing
 "HtCap_Sys_M_LobWait_C" = -192863.2   $ Sizing
 "HtCap_Sys_M_MechElec_C" = -53635.97   $ Sizing
 "HtCap_Sys_M_OfficeOpn_C" = -790576.5   $ Sizing
 "HtCap_Sys_M_OfficeOpn_E" = -624863.1   $ Sizing
 "HtCap_Sys_M_OfficeOpn_N" = -331460.1   $ Sizing
 "HtCap_Sys_M_OfficeOpn_S" = -669850.9   $ Sizing
 "HtCap_Sys_M_OfficeOpn_W" = -630265.3   $ Sizing
 "HtCap_Sys_M_OfficeSm_C" = -87026.49   $ Sizing
 "HtCap_Sys_M_OfficeSm_E" = -461255.5   $ Sizing
 "HtCap_Sys_M_OfficeSm_N" = -213386.8   $ Sizing
 "HtCap_Sys_M_OfficeSm_S" = -503281.1   $ Sizing
 "HtCap_Sys_M_OfficeSm_W" = -463310.9   $ Sizing
 "HtCap_Sys_M_Restrm_C" = -66145.54   $ Sizing
 "HtCap_Sys_M_StorSm_C" = -133486.3   $ Sizing
 "HtCap_Sys_T_Break_C" = -21601.48   $ Sizing
 "HtCap_Sys_T_Conf_C" = -26913.98   $ Sizing
 "HtCap_Sys_T_CopyRm_C" = -7977.711   $ Sizing
 "HtCap_Sys_T_Cordr_C" = -33289.98   $ Sizing
 "HtCap_Sys_T_Cordr_E" = -11555.15   $ Sizing
 "HtCap_Sys_T_Cordr_N" = -5598.208   $ Sizing
 "HtCap_Sys_T_Cordr_S" = -12721.24   $ Sizing
 "HtCap_Sys_T_Cordr_W" = -11533.54   $ Sizing
 "HtCap_Sys_T_LobWait_C" = -23947.19   $ Sizing
 "HtCap_Sys_T_MechElec_C" = -7291.348   $ Sizing
 "HtCap_Sys_T_OfficeOpn_C" = -79503.24   $ Sizing
 "HtCap_Sys_T_OfficeOpn_E" = -78494.84   $ Sizing
 "HtCap_Sys_T_OfficeOpn_N" = -43722.54   $ Sizing
 "HtCap_Sys_T_OfficeOpn_S" = -87046.97   $ Sizing
 "HtCap_Sys_T_OfficeOpn_W" = -80654.66   $ Sizing
 "HtCap_Sys_T_OfficeSm_C" = -11169.88   $ Sizing
 "HtCap_Sys_T_OfficeSm_E" = -59748.52   $ Sizing
 "HtCap_Sys_T_OfficeSm_N" = -28342.72   $ Sizing
 "HtCap_Sys_T_OfficeSm_S" = -66019.93   $ Sizing
 "HtCap_Sys_T_OfficeSm_W" = -61059.16   $ Sizing
 "HtCap_Sys_T_Restrm_C" = -8600.632   $ Sizing
 "HtCap_Sys_T_StorSm_C" = -17115.32   $ Sizing
..

##include Templates\OfL_DX_SZ.inp
END ..
COMPUTE ..
STOP ..
