INPUT ..

##fileprefix C:\Users\jglasskatz\MASControl3\
##set1 IsSizing FALSE
##set1 CoolType DX
##set1 HeatType FURNACE
##set1 EU_HrRepVar 0
##set1 BldgVint 1985
##set1 BldgLoc CZ06

 ##set1 mBFMult 1   $ IP Tech: RefgChg-NRes-Std

PARAMETER
 "AltFactor" = 1.00328   $ IP Non-Tech
 "BF_fFlow" = SpltAC1Sp_BF_fFlow   $ Msr (Var)TechID: PreNResSplitAC-lt45-PENo
 "BF_fT" = SpltAC1Sp_BF_fT   $ Msr (Var)TechID: PreNResSplitAC-lt45-PENo
 "BldgEconoFlag" = 1   $ IP Non-Tech
 "Break_EWSF" = 1   $ IP Non-Tech
 "Break_LWSF" = 1.1   $ IP Non-Tech
 "CDD_DBHi10" = 87   $ IP Non-Tech
 "CDD_DBHi7" = 80   $ IP Non-Tech
 "CDD_DBHi8" = 78   $ IP Non-Tech
 "CDD_DBHi9" = 84   $ IP Non-Tech
 "CDD_DBRange10" = 30   $ IP Non-Tech
 "CDD_DBRange7" = 11   $ IP Non-Tech
 "CDD_DBRange8" = 11   $ IP Non-Tech
 "CDD_DBRange9" = 16   $ IP Non-Tech
 "CDD_Day10" = 15   $ IP Non-Tech
 "CDD_Day7" = 16   $ IP Non-Tech
 "CDD_Day8" = 20   $ IP Non-Tech
 "CDD_Day9" = 17   $ IP Non-Tech
 "CDD_HrHi10" = 12   $ IP Non-Tech
 "CDD_HrHi7" = 13   $ IP Non-Tech
 "CDD_HrHi8" = 13   $ IP Non-Tech
 "CDD_HrHi9" = 17   $ IP Non-Tech
 "CDD_HrLo10" = 3   $ IP Non-Tech
 "CDD_HrLo7" = 3   $ IP Non-Tech
 "CDD_HrLo8" = 3   $ IP Non-Tech
 "CDD_HrLo9" = 3   $ IP Non-Tech
 "CDD_WB10" = 65.31027985   $ IP Non-Tech
 "CDD_WB7" = 69.10741425   $ IP Non-Tech
 "CDD_WB8" = 67.58412933   $ IP Non-Tech
 "CDD_WB9" = 69.6863327   $ IP Non-Tech
 "CEIR_fPLR_Hot" = SpltAC1Sp_CEIR_fPLR_Hot   $ Msr (Var)TechID: PreNResSplitAC-lt45-PENo
 "CEIR_fPLR_Mod" = SpltAC1Sp_CEIR_fPLR_Mod   $ Msr (Var)TechID: PreNResSplitAC-lt45-PENo
 "CEIR_fPLR_Tem" = SpltAC1Sp_CEIR_fPLR_Tem   $ Msr (Var)TechID: PreNResSplitAC-lt45-PENo
 "CLoss_fPLR_Hot" = SpltAC1Sp_CLoss_fPLR_Hot   $ Msr (Var)TechID: PreNResSplitAC-lt45-PENo
 "CLoss_fPLR_Mod" = SpltAC1Sp_CLoss_fPLR_Mod   $ Msr (Var)TechID: PreNResSplitAC-lt45-PENo
 "CLoss_fPLR_Tem" = SpltAC1Sp_CLoss_fPLR_Tem   $ Msr (Var)TechID: PreNResSplitAC-lt45-PENo
 "COP47" = 0   $ Msr (Var)TechID: PreNResSplitAC-lt45-PENo
 "CZ_Category" = Tem   $ IP Non-Tech
 "CapRange" = Any   $ Msr (Var)TechID: PreNResSplitAC-lt45-PENo
 "CfmPerBtuh" = 0.0321   $ Msr (Var)TechID: PreNResSplitAC-lt45-PENo
 "ChwVintEconoFlag" = 1   $ IP Non-Tech
 "ClCap_fT" = SpltAC1Sp_ClCap_fT   $ Msr (Var)TechID: PreNResSplitAC-lt45-PENo
 "ClSH_fT" = SpltAC1Sp_ClSH_fT   $ Msr (Var)TechID: PreNResSplitAC-lt45-PENo
 "CoilBF" = 0.12   $ Msr (Var)TechID: PreNResSplitAC-lt45-PENo
 "CondWPerBtuh" = 0   $ Msr (Var)TechID: PreNResSplitAC-lt45-PENo
 "Conference_EWSF" = 1.1   $ IP Non-Tech
 "Conference_LWSF" = 1.4   $ IP Non-Tech
 "CoolSensCap" = 0.744   $ Msr (Var)TechID: PreNResSplitAC-lt45-PENo
 "CoolSetT" = 45   $ IP Non-Tech
 "CoolType" = DX   $ IP Non-Tech
 "CoolingEIR" = 0.29437   $ Msr (Var)TechID: PreNResSplitAC-lt45-PENo
 "CopyRoom_EWSF" = 1.65   $ IP Non-Tech
 "CopyRoom_LWSF" = 1.3   $ IP Non-Tech
 "CorridorStairway_EWSF" = 0.22   $ IP Non-Tech
 "CorridorStairway_LWSF" = 0.6   $ IP Non-Tech
 "CrnkEIR" = 0.0029437   $ Msr (Var)TechID: PreNResSplitAC-lt45-PENo
 "CrnkMaxT" = 50   $ Msr (Var)TechID: PreNResSplitAC-lt45-PENo
 "DXType" = SplitSEER   $ Msr (Var)TechID: PreNResSplitAC-lt45-PENo
 "DesCoolT" = 75   $ IP Non-Tech
 "DesHeatT" = 73   $ IP Non-Tech
 "EER" = 9.799295775   $ Msr (Var)TechID: PreNResSplitAC-lt45-PENo
 "EIR_fT" = SpltAC1Sp_EIR_fT   $ Msr (Var)TechID: PreNResSplitAC-lt45-PENo
 "EconoCtrl" = FIXED   $ Msr (Multi)TechID: PreNResSplitAC-lt45-PENo
 "EconoEnthLimit" = 28   $ IP Non-Tech
 "EconoTempLimit" = 71   $ IP Non-Tech
 "Elevation" = 88   $ IP Non-Tech
 "FanEirPlr" = TwoSpeedFan   $ Msr (Var)TechID: PreNResSplitAC-lt45-PENo
 "FanWPerCfm" = 0.365   $ Msr (Var)TechID: PreNResSplitAC-lt45-PENo
 "HDD_CloudAmt1" = 0   $ IP Non-Tech
 "HDD_DBHi1" = 58   $ IP Non-Tech
 "HDD_DBRange1" = 21   $ IP Non-Tech
 "HDD_Day1" = 15   $ IP Non-Tech
 "HDD_HrHi1" = 13   $ IP Non-Tech
 "HDD_HrLo1" = 4   $ IP Non-Tech
 "HDD_WB1" = 52.8   $ IP Non-Tech
 "HDD_WindSpd1" = 10.4   $ IP Non-Tech
 "HIR_fT" = 0   $ Msr (Var)TechID: PreNResSplitAC-lt45-PENo
 "HSPF" = 0   $ Msr (Var)TechID: PreNResSplitAC-lt45-PENo
 "HeatSrc" = FURNACE   $ IP Non-Tech
 "HeatSrcTU" = HEAT-PUMP   $ IP Non-Tech
 "HeatType" = GasFurn   $ IP Non-Tech
 "HeatTypeTU" = HEAT-PUMP   $ IP Non-Tech
 "HtCap_fT" = 0   $ Msr (Var)TechID: PreNResSplitAC-lt45-PENo
 "HtCoolCapRatio" = 0   $ Msr (Var)TechID: PreNResSplitAC-lt45-PENo
 "HtgEIR" = 0   $ Msr (Var)TechID: PreNResSplitAC-lt45-PENo
 "IndoorFanMode" = CONTINUOUS   $ IP Non-Tech
 "KT_TransferAir" = No   $ IP Non-Tech
 "Latitude" = 33.9   $ IP Non-Tech
 "LobbyWaiting_EWSF" = 0.525   $ IP Non-Tech
 "LobbyWaiting_LWSF" = 1.3   $ IP Non-Tech
 "Longitude" = 118.4   $ IP Non-Tech
 "LowSpdCapRatio" = 1   $ Msr (Var)TechID: PreNResSplitAC-lt45-PENo
 "LowSpdCfmRatio" = 1   $ Msr (Var)TechID: PreNResSplitAC-lt45-PENo
 "MZFanMechEff" = 0.58   $ IP Non-Tech
 "MZHasRetFan" = FALSE   $ IP Non-Tech
 "MZ_RFanWPerCfm" = 0.37   $ IP Non-Tech
 "MZ_SFanWPerCfm" = 0.71   $ IP Non-Tech
 "MZ_SupFanStatic" = 2.25   $ IP Non-Tech
 "MaxOAFrac" = 1   $ Msr (Multi)TechID: PreNResSplitAC-lt45-PENo
 "MaxSupT_MZ" = 100   $ IP Non-Tech
 "MaxSupT_SZ" = 100   $ IP Non-Tech
 "MaxSupT_TU" = 90   $ IP Non-Tech
 "MechElecRoom_EWSF" = 0.22   $ IP Non-Tech
 "MechElecRoom_LWSF" = 0.7   $ IP Non-Tech
 "MinCfmPerSF" = 0.4   $ IP Non-Tech
 "MinSupT" = 55   $ IP Non-Tech
 "NumStages" = 1   $ Msr (Var)TechID: PreNResSplitAC-lt45-PENo
 "OccCoolT" = 76   $ IP Non-Tech
 "OccHeatT" = 72   $ IP Non-Tech
 "OfficeOpen_EWSF" = 1.65   $ IP Non-Tech
 "OfficeOpen_LWSF" = 1.2   $ IP Non-Tech
 "OfficeSmall_EWSF" = 1.65   $ IP Non-Tech
 "OfficeSmall_LWSF" = 1.3   $ IP Non-Tech
 "PkgDxVintEconoFlag" = 0   $ IP Non-Tech
 "Restroom_EWSF" = 0.22   $ IP Non-Tech
 "Restroom_LWSF" = 0.6   $ IP Non-Tech
 "SEER" = 11.5   $ Msr (Var)TechID: PreNResSplitAC-lt45-PENo
 "SZFanMechEff" = 0.58   $ IP Non-Tech
 "SZHasRetFan" = FALSE   $ IP Non-Tech
 "SZ_Is_2Spd" = FALSE   $ IP Non-Tech
 "SZ_SFanWPerCfm" = 0.46   $ IP Non-Tech
 "SZ_SupFanStatic" = 0.75   $ IP Non-Tech
 "Sector" = Any   $ Msr (Var)TechID: PreNResSplitAC-lt45-PENo
 "StorageSmlCond_EWSF" = 0.22   $ IP Non-Tech
 "StorageSmlCond_LWSF" = 0.6   $ IP Non-Tech
 "SubType" = AC   $ Msr (Var)TechID: PreNResSplitAC-lt45-PENo
 "T24GlzTbl" = CZTbl   $ IP Non-Tech
 "TermUnitFanMechEff" = 1   $ IP Non-Tech
 "TermUnitFanMode" = INTERMITTENT   $ IP Non-Tech
 "TotCoolCap" = 34895   $ Msr (Var)TechID: PreNResSplitAC-lt45-PENo
 "TwrSetpt" = 80   $ IP Non-Tech
 "UnocCoolT" = 86   $ IP Non-Tech
 "UnocHeatT" = 62   $ IP Non-Tech
 "UseEconoVintApplic" = FALSE   $ Msr (Multi)TechID: PreNResSplitAC-lt45-PENo
 "WlhpVintEconoFlag" = 0   $ IP Non-Tech
 "DuctDT" = 1   $ IP Tech: ComDuctInsul-1
 "DuctAirLoss" = 0   $ IP Tech: ComDuctLeak-0
 "DuctLossOAFrac" = 0   $ IP Tech: ComDuctLeak-0
 "ComRoofInsCalc" = FromUo   $ IP Tech: ComRoofIns-Hvy-0.06
 "ComRoofInsR" = -999   $ IP Tech: ComRoofIns-Hvy-0.06
 "ComRoofUo" = 0.06   $ IP Tech: ComRoofIns-Hvy-0.06
 "ComEWInsCalc" = FromUo   $ IP Tech: ComWallIns-MFrm-0.14
 "ComEWInsR" = -999   $ IP Tech: ComWallIns-MFrm-0.14
 "ComEWUo" = 0.14   $ IP Tech: ComWallIns-MFrm-0.14
 "ComN_SHGC" = 0.82   $ IP Tech: NResWin-ComN-1.23-0.82
 "ComN_UFactor" = 1.23   $ IP Tech: NResWin-ComN-1.23-0.82
 "ComN_VisTrans" = 0.9   $ IP Tech: NResWin-ComN-1.23-0.82
 "ComN_WinCode" = G1000   $ IP Tech: NResWin-ComN-1.23-0.82
 "ComN_WinFrmFrac" = 0.17   $ IP Tech: NResWin-ComN-1.23-0.82
 "ComN_WinFrmU" = 1   $ IP Tech: NResWin-ComN-1.23-0.82
 "ComO_SHGC" = 0.82   $ IP Tech: NResWin-ComO-1.23-0.82
 "ComO_UFactor" = 1.23   $ IP Tech: NResWin-ComO-1.23-0.82
 "ComO_VisTrans" = 0.9   $ IP Tech: NResWin-ComO-1.23-0.82
 "ComO_WinCode" = G1000   $ IP Tech: NResWin-ComO-1.23-0.82
 "ComO_WinFrmFrac" = 0.17   $ IP Tech: NResWin-ComO-1.23-0.82
 "ComO_WinFrmU" = 1   $ IP Tech: NResWin-ComO-1.23-0.82
 "LtgMsrApplic" = ALL   $ IP Tech: NonResLtgRefPre
 "LtgSav_CFL" = 0   $ IP Tech: NonResLtgRefPre
 "LtgSav_EX" = 0   $ IP Tech: NonResLtgRefPre
 "LtgSav_HB" = 0   $ IP Tech: NonResLtgRefPre
 "LtgSav_LF" = 0   $ IP Tech: NonResLtgRefPre
 "LtgSav_SP" = 0   $ IP Tech: NonResLtgRefPre
 "CEIR_fPLR" = PSZ65to135_CEIR_fPLR   $ IP Tech: PkgAC1SpH-65to135-E10
 "CLoss_fPLR" = PSZ65to135_CLoss_fPLR   $ IP Tech: PkgAC1SpH-65to135-E10
 "COP" = -1   $ IP Tech: PkgAC1SpH-65to135-E10
 "HtgFuel" = Gas   $ IP Tech: PkgAC1SpH-65to135-E10
 "IEER" = 11.87   $ IP Tech: PkgAC1SpH-65to135-E10
 "NominalCap" = 15   $ IP Tech: PkgAC1SpH-65to135-E10
 "RatedEER" = 10   $ IP Tech: PkgAC1SpH-65to135-E10
 "RatedSupMtrClass" = HiEff   $ IP Tech: PkgAC1SpH-65to135-E10
 "SizeRange" = 65to135   $ IP Tech: PkgAC1SpH-65to135-E10
 "SupMotEff" = 0.84   $ IP Tech: PkgAC1SpH-65to135-E10
 "Tier" = 0   $ IP Tech: PkgAC1SpH-65to135-E10
 "FanPwrMult" = 1   $ IP Tech: PkgFurn-0.80AFUE
 "FurnAFUE" = 0.8   $ IP Tech: PkgFurn-0.80AFUE
 "FurnEt" = 0.82   $ IP Tech: PkgFurn-0.80AFUE
 "FurnaceAuxKW" = 0.1   $ IP Tech: PkgFurn-0.80AFUE
 "HIR_fPLR" = Furnace-HIR-fPLR   $ IP Tech: PkgFurn-0.80AFUE
 "VSM" = FALSE   $ IP Tech: PkgFurn-0.80AFUE
 "BFMult" = 1   $ IP Tech: RefgChg-NRes-Std
 "CoolEirMult" = 1   $ IP Tech: RefgChg-NRes-Std
 "SensCoolCapMult" = 1   $ IP Tech: RefgChg-NRes-Std
 "TotCoolCapMult" = 1   $ IP Tech: RefgChg-NRes-Std
 "AltAdjFactor" = 1.003277   $ Sizing
 "CAssFlo_L_Break_CZn" = 378.7755   $ Sizing
 "CAssFlo_L_Conf_CZn" = 461.033   $ Sizing
 "CAssFlo_L_CopyRm_CZn" = 121.899   $ Sizing
 "CAssFlo_L_Cordr_CZn" = 618.0229   $ Sizing
 "CAssFlo_L_Cordr_EZn" = 333.2812   $ Sizing
 "CAssFlo_L_Cordr_NZn" = 125.2636   $ Sizing
 "CAssFlo_L_Cordr_SZn" = 356.9005   $ Sizing
 "CAssFlo_L_Cordr_WZn" = 325.666   $ Sizing
 "CAssFlo_L_LobWait_CZn" = 406.8727   $ Sizing
 "CAssFlo_L_MechElec_CZn" = 136.9949   $ Sizing
 "CAssFlo_L_OfficeOpn_CZn" = 1806.942   $ Sizing
 "CAssFlo_L_OfficeOpn_EZn" = 2513.771   $ Sizing
 "CAssFlo_L_OfficeOpn_NZn" = 1090.108   $ Sizing
 "CAssFlo_L_OfficeOpn_SZn" = 2610.171   $ Sizing
 "CAssFlo_L_OfficeOpn_WZn" = 2562.804   $ Sizing
 "CAssFlo_L_OfficeSm_CZn" = 249.3541   $ Sizing
 "CAssFlo_L_OfficeSm_EZn" = 1868.348   $ Sizing
 "CAssFlo_L_OfficeSm_NZn" = 715.3168   $ Sizing
 "CAssFlo_L_OfficeSm_SZn" = 1970.378   $ Sizing
 "CAssFlo_L_OfficeSm_WZn" = 1895.258   $ Sizing
 "CAssFlo_L_Restrm_CZn" = 210.9664   $ Sizing
 "CAssFlo_L_StorSm_CZn" = 414.7031   $ Sizing
 "CAssFlo_M_Break_CZn" = 417.9417   $ Sizing
 "CAssFlo_M_Conf_CZn" = 522.2175   $ Sizing
 "CAssFlo_M_CopyRm_CZn" = 153.1049   $ Sizing
 "CAssFlo_M_Cordr_CZn" = 955.2845   $ Sizing
 "CAssFlo_M_Cordr_EZn" = 381.5525   $ Sizing
 "CAssFlo_M_Cordr_NZn" = 171.2791   $ Sizing
 "CAssFlo_M_Cordr_SZn" = 409.9553   $ Sizing
 "CAssFlo_M_Cordr_WZn" = 361.3512   $ Sizing
 "CAssFlo_M_LobWait_CZn" = 538.3406   $ Sizing
 "CAssFlo_M_MechElec_CZn" = 177.4327   $ Sizing
 "CAssFlo_M_OfficeOpn_CZn" = 2176.082   $ Sizing
 "CAssFlo_M_OfficeOpn_EZn" = 2692.299   $ Sizing
 "CAssFlo_M_OfficeOpn_NZn" = 1216.866   $ Sizing
 "CAssFlo_M_OfficeOpn_SZn" = 2857.105   $ Sizing
 "CAssFlo_M_OfficeOpn_WZn" = 2676.488   $ Sizing
 "CAssFlo_M_OfficeSm_CZn" = 313.1641   $ Sizing
 "CAssFlo_M_OfficeSm_EZn" = 1981.648   $ Sizing
 "CAssFlo_M_OfficeSm_NZn" = 788.9772   $ Sizing
 "CAssFlo_M_OfficeSm_SZn" = 2140.209   $ Sizing
 "CAssFlo_M_OfficeSm_WZn" = 1966.736   $ Sizing
 "CAssFlo_M_Restrm_CZn" = 210.9664   $ Sizing
 "CAssFlo_M_StorSm_CZn" = 442.6936   $ Sizing
 "CAssFlo_T_Break_CZn" = 387.9687   $ Sizing
 "CAssFlo_T_Conf_CZn" = 485.2171   $ Sizing
 "CAssFlo_T_CopyRm_CZn" = 131.5417   $ Sizing
 "CAssFlo_T_Cordr_CZn" = 815.5977   $ Sizing
 "CAssFlo_T_Cordr_EZn" = 332.9721   $ Sizing
 "CAssFlo_T_Cordr_NZn" = 146.0844   $ Sizing
 "CAssFlo_T_Cordr_SZn" = 369.5111   $ Sizing
 "CAssFlo_T_Cordr_WZn" = 324.377   $ Sizing
 "CAssFlo_T_LobWait_CZn" = 480.1255   $ Sizing
 "CAssFlo_T_MechElec_CZn" = 205.6487   $ Sizing
 "CAssFlo_T_OfficeOpn_CZn" = 1875.581   $ Sizing
 "CAssFlo_T_OfficeOpn_EZn" = 2424.614   $ Sizing
 "CAssFlo_T_OfficeOpn_NZn" = 1117.513   $ Sizing
 "CAssFlo_T_OfficeOpn_SZn" = 2653.718   $ Sizing
 "CAssFlo_T_OfficeOpn_WZn" = 2438.604   $ Sizing
 "CAssFlo_T_OfficeSm_CZn" = 293.072   $ Sizing
 "CAssFlo_T_OfficeSm_EZn" = 1845.25   $ Sizing
 "CAssFlo_T_OfficeSm_NZn" = 746.7604   $ Sizing
 "CAssFlo_T_OfficeSm_SZn" = 2035.464   $ Sizing
 "CAssFlo_T_OfficeSm_WZn" = 1848.878   $ Sizing
 "CAssFlo_T_Restrm_CZn" = 210.9664   $ Sizing
 "CAssFlo_T_StorSm_CZn" = 332.6785   $ Sizing
 "CHRtFlo_Sys_L_Break_C" = 378.7755   $ Sizing
 "CHRtFlo_Sys_L_Conf_C" = 461.033   $ Sizing
 "CHRtFlo_Sys_L_CopyRm_C" = 121.899   $ Sizing
 "CHRtFlo_Sys_L_Cordr_C" = 618.0229   $ Sizing
 "CHRtFlo_Sys_L_Cordr_E" = 333.2812   $ Sizing
 "CHRtFlo_Sys_L_Cordr_N" = 125.2636   $ Sizing
 "CHRtFlo_Sys_L_Cordr_S" = 356.9005   $ Sizing
 "CHRtFlo_Sys_L_Cordr_W" = 325.666   $ Sizing
 "CHRtFlo_Sys_L_LobWait_C" = 406.8727   $ Sizing
 "CHRtFlo_Sys_L_MechElec_C" = 136.9949   $ Sizing
 "CHRtFlo_Sys_L_OfficeOpn_C" = 1806.942   $ Sizing
 "CHRtFlo_Sys_L_OfficeOpn_E" = 2513.771   $ Sizing
 "CHRtFlo_Sys_L_OfficeOpn_N" = 1090.108   $ Sizing
 "CHRtFlo_Sys_L_OfficeOpn_S" = 2610.171   $ Sizing
 "CHRtFlo_Sys_L_OfficeOpn_W" = 2562.804   $ Sizing
 "CHRtFlo_Sys_L_OfficeSm_C" = 249.3541   $ Sizing
 "CHRtFlo_Sys_L_OfficeSm_E" = 1868.348   $ Sizing
 "CHRtFlo_Sys_L_OfficeSm_N" = 715.3168   $ Sizing
 "CHRtFlo_Sys_L_OfficeSm_S" = 1970.378   $ Sizing
 "CHRtFlo_Sys_L_OfficeSm_W" = 1895.258   $ Sizing
 "CHRtFlo_Sys_L_Restrm_C" = 210.9664   $ Sizing
 "CHRtFlo_Sys_L_StorSm_C" = 414.7031   $ Sizing
 "CHRtFlo_Sys_M_Break_C" = 3343.533   $ Sizing
 "CHRtFlo_Sys_M_Conf_C" = 4177.74   $ Sizing
 "CHRtFlo_Sys_M_CopyRm_C" = 1224.839   $ Sizing
 "CHRtFlo_Sys_M_Cordr_C" = 7642.276   $ Sizing
 "CHRtFlo_Sys_M_Cordr_E" = 3052.42   $ Sizing
 "CHRtFlo_Sys_M_Cordr_N" = 1370.233   $ Sizing
 "CHRtFlo_Sys_M_Cordr_S" = 3279.643   $ Sizing
 "CHRtFlo_Sys_M_Cordr_W" = 2890.809   $ Sizing
 "CHRtFlo_Sys_M_LobWait_C" = 4306.725   $ Sizing
 "CHRtFlo_Sys_M_MechElec_C" = 1419.462   $ Sizing
 "CHRtFlo_Sys_M_OfficeOpn_C" = 17408.65   $ Sizing
 "CHRtFlo_Sys_M_OfficeOpn_E" = 21538.39   $ Sizing
 "CHRtFlo_Sys_M_OfficeOpn_N" = 9734.926   $ Sizing
 "CHRtFlo_Sys_M_OfficeOpn_S" = 22856.84   $ Sizing
 "CHRtFlo_Sys_M_OfficeOpn_W" = 21411.9   $ Sizing
 "CHRtFlo_Sys_M_OfficeSm_C" = 2505.313   $ Sizing
 "CHRtFlo_Sys_M_OfficeSm_E" = 15853.19   $ Sizing
 "CHRtFlo_Sys_M_OfficeSm_N" = 6311.817   $ Sizing
 "CHRtFlo_Sys_M_OfficeSm_S" = 17121.67   $ Sizing
 "CHRtFlo_Sys_M_OfficeSm_W" = 15733.89   $ Sizing
 "CHRtFlo_Sys_M_Restrm_C" = 1687.731   $ Sizing
 "CHRtFlo_Sys_M_StorSm_C" = 3541.549   $ Sizing
 "CHRtFlo_Sys_T_Break_C" = 387.9687   $ Sizing
 "CHRtFlo_Sys_T_Conf_C" = 485.2171   $ Sizing
 "CHRtFlo_Sys_T_CopyRm_C" = 131.5417   $ Sizing
 "CHRtFlo_Sys_T_Cordr_C" = 815.5977   $ Sizing
 "CHRtFlo_Sys_T_Cordr_E" = 332.9721   $ Sizing
 "CHRtFlo_Sys_T_Cordr_N" = 146.0844   $ Sizing
 "CHRtFlo_Sys_T_Cordr_S" = 369.5111   $ Sizing
 "CHRtFlo_Sys_T_Cordr_W" = 324.377   $ Sizing
 "CHRtFlo_Sys_T_LobWait_C" = 480.1255   $ Sizing
 "CHRtFlo_Sys_T_MechElec_C" = 205.6487   $ Sizing
 "CHRtFlo_Sys_T_OfficeOpn_C" = 1875.581   $ Sizing
 "CHRtFlo_Sys_T_OfficeOpn_E" = 2424.614   $ Sizing
 "CHRtFlo_Sys_T_OfficeOpn_N" = 1117.513   $ Sizing
 "CHRtFlo_Sys_T_OfficeOpn_S" = 2653.718   $ Sizing
 "CHRtFlo_Sys_T_OfficeOpn_W" = 2438.604   $ Sizing
 "CHRtFlo_Sys_T_OfficeSm_C" = 293.072   $ Sizing
 "CHRtFlo_Sys_T_OfficeSm_E" = 1845.25   $ Sizing
 "CHRtFlo_Sys_T_OfficeSm_N" = 746.7604   $ Sizing
 "CHRtFlo_Sys_T_OfficeSm_S" = 2035.464   $ Sizing
 "CHRtFlo_Sys_T_OfficeSm_W" = 1848.878   $ Sizing
 "CHRtFlo_Sys_T_Restrm_C" = 210.9664   $ Sizing
 "CHRtFlo_Sys_T_StorSm_C" = 332.6785   $ Sizing
 "CRtdFlo_Sys_L_Break_C" = 378.7755   $ Sizing
 "CRtdFlo_Sys_L_Conf_C" = 461.033   $ Sizing
 "CRtdFlo_Sys_L_CopyRm_C" = 121.899   $ Sizing
 "CRtdFlo_Sys_L_Cordr_C" = 618.0229   $ Sizing
 "CRtdFlo_Sys_L_Cordr_E" = 333.2812   $ Sizing
 "CRtdFlo_Sys_L_Cordr_N" = 125.2636   $ Sizing
 "CRtdFlo_Sys_L_Cordr_S" = 356.9005   $ Sizing
 "CRtdFlo_Sys_L_Cordr_W" = 325.666   $ Sizing
 "CRtdFlo_Sys_L_LobWait_C" = 406.8727   $ Sizing
 "CRtdFlo_Sys_L_MechElec_C" = 136.9949   $ Sizing
 "CRtdFlo_Sys_L_OfficeOpn_C" = 1806.942   $ Sizing
 "CRtdFlo_Sys_L_OfficeOpn_E" = 2513.771   $ Sizing
 "CRtdFlo_Sys_L_OfficeOpn_N" = 1090.108   $ Sizing
 "CRtdFlo_Sys_L_OfficeOpn_S" = 2610.171   $ Sizing
 "CRtdFlo_Sys_L_OfficeOpn_W" = 2562.804   $ Sizing
 "CRtdFlo_Sys_L_OfficeSm_C" = 249.3542   $ Sizing
 "CRtdFlo_Sys_L_OfficeSm_E" = 1868.348   $ Sizing
 "CRtdFlo_Sys_L_OfficeSm_N" = 715.3168   $ Sizing
 "CRtdFlo_Sys_L_OfficeSm_S" = 1970.378   $ Sizing
 "CRtdFlo_Sys_L_OfficeSm_W" = 1895.258   $ Sizing
 "CRtdFlo_Sys_L_Restrm_C" = 210.9664   $ Sizing
 "CRtdFlo_Sys_L_StorSm_C" = 414.7031   $ Sizing
 "CRtdFlo_Sys_M_Break_C" = 3343.533   $ Sizing
 "CRtdFlo_Sys_M_Conf_C" = 4177.74   $ Sizing
 "CRtdFlo_Sys_M_CopyRm_C" = 1224.839   $ Sizing
 "CRtdFlo_Sys_M_Cordr_C" = 7642.276   $ Sizing
 "CRtdFlo_Sys_M_Cordr_E" = 3052.42   $ Sizing
 "CRtdFlo_Sys_M_Cordr_N" = 1370.233   $ Sizing
 "CRtdFlo_Sys_M_Cordr_S" = 3279.643   $ Sizing
 "CRtdFlo_Sys_M_Cordr_W" = 2890.809   $ Sizing
 "CRtdFlo_Sys_M_LobWait_C" = 4306.725   $ Sizing
 "CRtdFlo_Sys_M_MechElec_C" = 1419.462   $ Sizing
 "CRtdFlo_Sys_M_OfficeOpn_C" = 17408.65   $ Sizing
 "CRtdFlo_Sys_M_OfficeOpn_E" = 21538.39   $ Sizing
 "CRtdFlo_Sys_M_OfficeOpn_N" = 9734.926   $ Sizing
 "CRtdFlo_Sys_M_OfficeOpn_S" = 22856.84   $ Sizing
 "CRtdFlo_Sys_M_OfficeOpn_W" = 21411.9   $ Sizing
 "CRtdFlo_Sys_M_OfficeSm_C" = 2505.313   $ Sizing
 "CRtdFlo_Sys_M_OfficeSm_E" = 15853.19   $ Sizing
 "CRtdFlo_Sys_M_OfficeSm_N" = 6311.817   $ Sizing
 "CRtdFlo_Sys_M_OfficeSm_S" = 17121.67   $ Sizing
 "CRtdFlo_Sys_M_OfficeSm_W" = 15733.89   $ Sizing
 "CRtdFlo_Sys_M_Restrm_C" = 1687.731   $ Sizing
 "CRtdFlo_Sys_M_StorSm_C" = 3541.549   $ Sizing
 "CRtdFlo_Sys_T_Break_C" = 387.9687   $ Sizing
 "CRtdFlo_Sys_T_Conf_C" = 485.2171   $ Sizing
 "CRtdFlo_Sys_T_CopyRm_C" = 131.5417   $ Sizing
 "CRtdFlo_Sys_T_Cordr_C" = 815.5977   $ Sizing
 "CRtdFlo_Sys_T_Cordr_E" = 332.9721   $ Sizing
 "CRtdFlo_Sys_T_Cordr_N" = 146.0844   $ Sizing
 "CRtdFlo_Sys_T_Cordr_S" = 369.5111   $ Sizing
 "CRtdFlo_Sys_T_Cordr_W" = 324.377   $ Sizing
 "CRtdFlo_Sys_T_LobWait_C" = 480.1255   $ Sizing
 "CRtdFlo_Sys_T_MechElec_C" = 205.6487   $ Sizing
 "CRtdFlo_Sys_T_OfficeOpn_C" = 1875.581   $ Sizing
 "CRtdFlo_Sys_T_OfficeOpn_E" = 2424.614   $ Sizing
 "CRtdFlo_Sys_T_OfficeOpn_N" = 1117.513   $ Sizing
 "CRtdFlo_Sys_T_OfficeOpn_S" = 2653.718   $ Sizing
 "CRtdFlo_Sys_T_OfficeOpn_W" = 2438.604   $ Sizing
 "CRtdFlo_Sys_T_OfficeSm_C" = 293.072   $ Sizing
 "CRtdFlo_Sys_T_OfficeSm_E" = 1845.25   $ Sizing
 "CRtdFlo_Sys_T_OfficeSm_N" = 746.7604   $ Sizing
 "CRtdFlo_Sys_T_OfficeSm_S" = 2035.464   $ Sizing
 "CRtdFlo_Sys_T_OfficeSm_W" = 1848.878   $ Sizing
 "CRtdFlo_Sys_T_Restrm_C" = 210.9664   $ Sizing
 "CRtdFlo_Sys_T_StorSm_C" = 332.6785   $ Sizing
 "CSupFlo_Sys_L_Break_C" = 378.7755   $ Sizing
 "CSupFlo_Sys_L_Conf_C" = 461.033   $ Sizing
 "CSupFlo_Sys_L_CopyRm_C" = 121.899   $ Sizing
 "CSupFlo_Sys_L_Cordr_C" = 618.0229   $ Sizing
 "CSupFlo_Sys_L_Cordr_E" = 333.2812   $ Sizing
 "CSupFlo_Sys_L_Cordr_N" = 125.2636   $ Sizing
 "CSupFlo_Sys_L_Cordr_S" = 356.9005   $ Sizing
 "CSupFlo_Sys_L_Cordr_W" = 325.666   $ Sizing
 "CSupFlo_Sys_L_LobWait_C" = 406.8727   $ Sizing
 "CSupFlo_Sys_L_MechElec_C" = 136.9949   $ Sizing
 "CSupFlo_Sys_L_OfficeOpn_C" = 1806.942   $ Sizing
 "CSupFlo_Sys_L_OfficeOpn_E" = 2513.771   $ Sizing
 "CSupFlo_Sys_L_OfficeOpn_N" = 1090.108   $ Sizing
 "CSupFlo_Sys_L_OfficeOpn_S" = 2610.171   $ Sizing
 "CSupFlo_Sys_L_OfficeOpn_W" = 2562.804   $ Sizing
 "CSupFlo_Sys_L_OfficeSm_C" = 249.3541   $ Sizing
 "CSupFlo_Sys_L_OfficeSm_E" = 1868.348   $ Sizing
 "CSupFlo_Sys_L_OfficeSm_N" = 715.3168   $ Sizing
 "CSupFlo_Sys_L_OfficeSm_S" = 1970.378   $ Sizing
 "CSupFlo_Sys_L_OfficeSm_W" = 1895.258   $ Sizing
 "CSupFlo_Sys_L_Restrm_C" = 210.9664   $ Sizing
 "CSupFlo_Sys_L_StorSm_C" = 414.7031   $ Sizing
 "CSupFlo_Sys_M_Break_C" = 3343.533   $ Sizing
 "CSupFlo_Sys_M_Conf_C" = 4177.74   $ Sizing
 "CSupFlo_Sys_M_CopyRm_C" = 1224.839   $ Sizing
 "CSupFlo_Sys_M_Cordr_C" = 7642.276   $ Sizing
 "CSupFlo_Sys_M_Cordr_E" = 3052.42   $ Sizing
 "CSupFlo_Sys_M_Cordr_N" = 1370.233   $ Sizing
 "CSupFlo_Sys_M_Cordr_S" = 3279.643   $ Sizing
 "CSupFlo_Sys_M_Cordr_W" = 2890.809   $ Sizing
 "CSupFlo_Sys_M_LobWait_C" = 4306.725   $ Sizing
 "CSupFlo_Sys_M_MechElec_C" = 1419.462   $ Sizing
 "CSupFlo_Sys_M_OfficeOpn_C" = 17408.65   $ Sizing
 "CSupFlo_Sys_M_OfficeOpn_E" = 21538.39   $ Sizing
 "CSupFlo_Sys_M_OfficeOpn_N" = 9734.926   $ Sizing
 "CSupFlo_Sys_M_OfficeOpn_S" = 22856.84   $ Sizing
 "CSupFlo_Sys_M_OfficeOpn_W" = 21411.9   $ Sizing
 "CSupFlo_Sys_M_OfficeSm_C" = 2505.313   $ Sizing
 "CSupFlo_Sys_M_OfficeSm_E" = 15853.19   $ Sizing
 "CSupFlo_Sys_M_OfficeSm_N" = 6311.817   $ Sizing
 "CSupFlo_Sys_M_OfficeSm_S" = 17121.67   $ Sizing
 "CSupFlo_Sys_M_OfficeSm_W" = 15733.89   $ Sizing
 "CSupFlo_Sys_M_Restrm_C" = 1687.731   $ Sizing
 "CSupFlo_Sys_M_StorSm_C" = 3541.549   $ Sizing
 "CSupFlo_Sys_T_Break_C" = 387.9687   $ Sizing
 "CSupFlo_Sys_T_Conf_C" = 485.2171   $ Sizing
 "CSupFlo_Sys_T_CopyRm_C" = 131.5417   $ Sizing
 "CSupFlo_Sys_T_Cordr_C" = 815.5977   $ Sizing
 "CSupFlo_Sys_T_Cordr_E" = 332.9721   $ Sizing
 "CSupFlo_Sys_T_Cordr_N" = 146.0844   $ Sizing
 "CSupFlo_Sys_T_Cordr_S" = 369.5111   $ Sizing
 "CSupFlo_Sys_T_Cordr_W" = 324.377   $ Sizing
 "CSupFlo_Sys_T_LobWait_C" = 480.1255   $ Sizing
 "CSupFlo_Sys_T_MechElec_C" = 205.6487   $ Sizing
 "CSupFlo_Sys_T_OfficeOpn_C" = 1875.581   $ Sizing
 "CSupFlo_Sys_T_OfficeOpn_E" = 2424.614   $ Sizing
 "CSupFlo_Sys_T_OfficeOpn_N" = 1117.513   $ Sizing
 "CSupFlo_Sys_T_OfficeOpn_S" = 2653.718   $ Sizing
 "CSupFlo_Sys_T_OfficeOpn_W" = 2438.604   $ Sizing
 "CSupFlo_Sys_T_OfficeSm_C" = 293.072   $ Sizing
 "CSupFlo_Sys_T_OfficeSm_E" = 1845.25   $ Sizing
 "CSupFlo_Sys_T_OfficeSm_N" = 746.7604   $ Sizing
 "CSupFlo_Sys_T_OfficeSm_S" = 2035.464   $ Sizing
 "CSupFlo_Sys_T_OfficeSm_W" = 1848.878   $ Sizing
 "CSupFlo_Sys_T_Restrm_C" = 210.9664   $ Sizing
 "CSupFlo_Sys_T_StorSm_C" = 332.6785   $ Sizing
 "ClCap_Sys_L_Break_C" = 12944.17   $ Sizing
 "ClCap_Sys_L_Conf_C" = 20052.09   $ Sizing
 "ClCap_Sys_L_CopyRm_C" = 4165.743   $ Sizing
 "ClCap_Sys_L_Cordr_C" = 21120.14   $ Sizing
 "ClCap_Sys_L_Cordr_E" = 11389.46   $ Sizing
 "ClCap_Sys_L_Cordr_N" = 4280.723   $ Sizing
 "ClCap_Sys_L_Cordr_S" = 12196.62   $ Sizing
 "ClCap_Sys_L_Cordr_W" = 11129.22   $ Sizing
 "ClCap_Sys_L_LobWait_C" = 13904.35   $ Sizing
 "ClCap_Sys_L_MechElec_C" = 4681.625   $ Sizing
 "ClCap_Sys_L_OfficeOpn_C" = 61749.95   $ Sizing
 "ClCap_Sys_L_OfficeOpn_E" = 85904.89   $ Sizing
 "ClCap_Sys_L_OfficeOpn_N" = 37253.04   $ Sizing
 "ClCap_Sys_L_OfficeOpn_S" = 89199.26   $ Sizing
 "ClCap_Sys_L_OfficeOpn_W" = 87580.56   $ Sizing
 "ClCap_Sys_L_OfficeSm_C" = 8521.359   $ Sizing
 "ClCap_Sys_L_OfficeSm_E" = 63848.4   $ Sizing
 "ClCap_Sys_L_OfficeSm_N" = 24445.04   $ Sizing
 "ClCap_Sys_L_OfficeSm_S" = 67335.16   $ Sizing
 "ClCap_Sys_L_OfficeSm_W" = 64768.02   $ Sizing
 "ClCap_Sys_L_Restrm_C" = 7209.506   $ Sizing
 "ClCap_Sys_L_StorSm_C" = 14171.95   $ Sizing
 "ClCap_Sys_M_Break_C" = 114261   $ Sizing
 "ClCap_Sys_M_Conf_C" = 181705.9   $ Sizing
 "ClCap_Sys_M_CopyRm_C" = 41857.32   $ Sizing
 "ClCap_Sys_M_Cordr_C" = 261165   $ Sizing
 "ClCap_Sys_M_Cordr_E" = 104312.5   $ Sizing
 "ClCap_Sys_M_Cordr_N" = 46825.96   $ Sizing
 "ClCap_Sys_M_Cordr_S" = 112077.6   $ Sizing
 "ClCap_Sys_M_Cordr_W" = 98789.71   $ Sizing
 "ClCap_Sys_M_LobWait_C" = 147176.8   $ Sizing
 "ClCap_Sys_M_MechElec_C" = 48508.29   $ Sizing
 "ClCap_Sys_M_OfficeOpn_C" = 594918.4   $ Sizing
 "ClCap_Sys_M_OfficeOpn_E" = 736047.1   $ Sizing
 "ClCap_Sys_M_OfficeOpn_N" = 332678.7   $ Sizing
 "ClCap_Sys_M_OfficeOpn_S" = 781103.4   $ Sizing
 "ClCap_Sys_M_OfficeOpn_W" = 731724.4   $ Sizing
 "ClCap_Sys_M_OfficeSm_C" = 85615.86   $ Sizing
 "ClCap_Sys_M_OfficeSm_E" = 541762.4   $ Sizing
 "ClCap_Sys_M_OfficeSm_N" = 215698.3   $ Sizing
 "ClCap_Sys_M_OfficeSm_S" = 585111.3   $ Sizing
 "ClCap_Sys_M_OfficeSm_W" = 537685.6   $ Sizing
 "ClCap_Sys_M_Restrm_C" = 57676.05   $ Sizing
 "ClCap_Sys_M_StorSm_C" = 121027.9   $ Sizing
 "ClCap_Sys_T_Break_C" = 13258.33   $ Sizing
 "ClCap_Sys_T_Conf_C" = 21103.95   $ Sizing
 "ClCap_Sys_T_CopyRm_C" = 4495.271   $ Sizing
 "ClCap_Sys_T_Cordr_C" = 27872.01   $ Sizing
 "ClCap_Sys_T_Cordr_E" = 11378.9   $ Sizing
 "ClCap_Sys_T_Cordr_N" = 4992.247   $ Sizing
 "ClCap_Sys_T_Cordr_S" = 12627.57   $ Sizing
 "ClCap_Sys_T_Cordr_W" = 11085.17   $ Sizing
 "ClCap_Sys_T_LobWait_C" = 16407.68   $ Sizing
 "ClCap_Sys_T_MechElec_C" = 7027.783   $ Sizing
 "ClCap_Sys_T_OfficeOpn_C" = 64095.59   $ Sizing
 "ClCap_Sys_T_OfficeOpn_E" = 82858.08   $ Sizing
 "ClCap_Sys_T_OfficeOpn_N" = 38189.56   $ Sizing
 "ClCap_Sys_T_OfficeOpn_S" = 90687.43   $ Sizing
 "ClCap_Sys_T_OfficeOpn_W" = 83336.2   $ Sizing
 "ClCap_Sys_T_OfficeSm_C" = 10015.36   $ Sizing
 "ClCap_Sys_T_OfficeSm_E" = 63059.05   $ Sizing
 "ClCap_Sys_T_OfficeSm_N" = 25519.58   $ Sizing
 "ClCap_Sys_T_OfficeSm_S" = 69559.39   $ Sizing
 "ClCap_Sys_T_OfficeSm_W" = 63183.04   $ Sizing
 "ClCap_Sys_T_Restrm_C" = 7209.506   $ Sizing
 "ClCap_Sys_T_StorSm_C" = 11368.86   $ Sizing
 "HtCap_Sys_L_Break_C" = -19735.76   $ Sizing
 "HtCap_Sys_L_Conf_C" = -24815.68   $ Sizing
 "HtCap_Sys_L_CopyRm_C" = -7118.338   $ Sizing
 "HtCap_Sys_L_Cordr_C" = -26414.53   $ Sizing
 "HtCap_Sys_L_Cordr_E" = -11103.3   $ Sizing
 "HtCap_Sys_L_Cordr_N" = -5094.869   $ Sizing
 "HtCap_Sys_L_Cordr_S" = -11710.57   $ Sizing
 "HtCap_Sys_L_Cordr_W" = -10877.11   $ Sizing
 "HtCap_Sys_L_LobWait_C" = -20876.94   $ Sizing
 "HtCap_Sys_L_MechElec_C" = -5958.503   $ Sizing
 "HtCap_Sys_L_OfficeOpn_C" = -88165.09   $ Sizing
 "HtCap_Sys_L_OfficeOpn_E" = -79809.14   $ Sizing
 "HtCap_Sys_L_OfficeOpn_N" = -39550.26   $ Sizing
 "HtCap_Sys_L_OfficeOpn_S" = -82392.65   $ Sizing
 "HtCap_Sys_L_OfficeOpn_W" = -81460.09   $ Sizing
 "HtCap_Sys_L_OfficeSm_C" = -12175.43   $ Sizing
 "HtCap_Sys_L_OfficeSm_E" = -60188.58   $ Sizing
 "HtCap_Sys_L_OfficeSm_N" = -26013.67   $ Sizing
 "HtCap_Sys_L_OfficeSm_S" = -63333.64   $ Sizing
 "HtCap_Sys_L_OfficeSm_W" = -60068.48   $ Sizing
 "HtCap_Sys_L_Restrm_C" = -7804.892   $ Sizing
 "HtCap_Sys_L_StorSm_C" = -17115.11   $ Sizing
 "HtCap_Sys_M_Break_C" = -166675.3   $ Sizing
 "HtCap_Sys_M_Conf_C" = -212477.5   $ Sizing
 "HtCap_Sys_M_CopyRm_C" = -64033.98   $ Sizing
 "HtCap_Sys_M_Cordr_C" = -287624.6   $ Sizing
 "HtCap_Sys_M_Cordr_E" = -99601.54   $ Sizing
 "HtCap_Sys_M_Cordr_N" = -51346.27   $ Sizing
 "HtCap_Sys_M_Cordr_S" = -105342.1   $ Sizing
 "HtCap_Sys_M_Cordr_W" = -94873.95   $ Sizing
 "HtCap_Sys_M_LobWait_C" = -196905.2   $ Sizing
 "HtCap_Sys_M_MechElec_C" = -56798.61   $ Sizing
 "HtCap_Sys_M_OfficeOpn_C" = -846457.4   $ Sizing
 "HtCap_Sys_M_OfficeOpn_E" = -681317.6   $ Sizing
 "HtCap_Sys_M_OfficeOpn_N" = -344566.4   $ Sizing
 "HtCap_Sys_M_OfficeOpn_S" = -718362.8   $ Sizing
 "HtCap_Sys_M_OfficeOpn_W" = -675481   $ Sizing
 "HtCap_Sys_M_OfficeSm_C" = -122882.2   $ Sizing
 "HtCap_Sys_M_OfficeSm_E" = -508556.2   $ Sizing
 "HtCap_Sys_M_OfficeSm_N" = -224651.8   $ Sizing
 "HtCap_Sys_M_OfficeSm_S" = -547633.6   $ Sizing
 "HtCap_Sys_M_OfficeSm_W" = -494988.1   $ Sizing
 "HtCap_Sys_M_Restrm_C" = -67243.27   $ Sizing
 "HtCap_Sys_M_StorSm_C" = -141283   $ Sizing
 "HtCap_Sys_T_Break_C" = -20610.47   $ Sizing
 "HtCap_Sys_T_Conf_C" = -26090.5   $ Sizing
 "HtCap_Sys_T_CopyRm_C" = -7517.372   $ Sizing
 "HtCap_Sys_T_Cordr_C" = -34057.89   $ Sizing
 "HtCap_Sys_T_Cordr_E" = -12167.21   $ Sizing
 "HtCap_Sys_T_Cordr_N" = -6179.032   $ Sizing
 "HtCap_Sys_T_Cordr_S" = -13011.74   $ Sizing
 "HtCap_Sys_T_Cordr_W" = -11910.89   $ Sizing
 "HtCap_Sys_T_LobWait_C" = -23645.16   $ Sizing
 "HtCap_Sys_T_MechElec_C" = -7897.34   $ Sizing
 "HtCap_Sys_T_OfficeOpn_C" = -91421.88   $ Sizing
 "HtCap_Sys_T_OfficeOpn_E" = -83280.67   $ Sizing
 "HtCap_Sys_T_OfficeOpn_N" = -44298.27   $ Sizing
 "HtCap_Sys_T_OfficeOpn_S" = -89453.55   $ Sizing
 "HtCap_Sys_T_OfficeOpn_W" = -84085   $ Sizing
 "HtCap_Sys_T_OfficeSm_C" = -11508.87   $ Sizing
 "HtCap_Sys_T_OfficeSm_E" = -64821.59   $ Sizing
 "HtCap_Sys_T_OfficeSm_N" = -29179.14   $ Sizing
 "HtCap_Sys_T_OfficeSm_S" = -68833.41   $ Sizing
 "HtCap_Sys_T_OfficeSm_W" = -63679.67   $ Sizing
 "HtCap_Sys_T_Restrm_C" = -8493.23   $ Sizing
 "HtCap_Sys_T_StorSm_C" = -15811.27   $ Sizing
..

##include Templates\OfL_DX_SZ.inp
END ..
COMPUTE ..
STOP ..
