INPUT ..

##fileprefix C:\Users\jglasskatz\MASControl3\
##set1 IsSizing FALSE
##set1 CoolType DX
##set1 HeatType FURNACE
##set1 EU_HrRepVar 0
##set1 BldgVint 2007
##set1 BldgLoc CZ03

 ##set1 mBFMult 1   $ IP Tech: RefgChg-NRes-Std

PARAMETER
 "AltFactor" = 1.00025   $ IP Non-Tech
 "BF_fFlow" = SpltAC1Sp_BF_fFlow   $ Msr (Var)TechID: PreNResSplitAC-45to-PENo
 "BF_fT" = SpltAC1Sp_BF_fT   $ Msr (Var)TechID: PreNResSplitAC-45to-PENo
 "BldgEconoFlag" = 1   $ IP Non-Tech
 "Break_EWSF" = 1   $ IP Non-Tech
 "Break_LWSF" = 1.1   $ IP Non-Tech
 "CDD_DBHi10" = 74   $ IP Non-Tech
 "CDD_DBHi7" = 78   $ IP Non-Tech
 "CDD_DBHi8" = 73   $ IP Non-Tech
 "CDD_DBHi9" = 83   $ IP Non-Tech
 "CDD_DBRange10" = 25   $ IP Non-Tech
 "CDD_DBRange7" = 24   $ IP Non-Tech
 "CDD_DBRange8" = 10   $ IP Non-Tech
 "CDD_DBRange9" = 25   $ IP Non-Tech
 "CDD_Day10" = 15   $ IP Non-Tech
 "CDD_Day7" = 16   $ IP Non-Tech
 "CDD_Day8" = 20   $ IP Non-Tech
 "CDD_Day9" = 17   $ IP Non-Tech
 "CDD_HrHi10" = 16   $ IP Non-Tech
 "CDD_HrHi7" = 13   $ IP Non-Tech
 "CDD_HrHi8" = 17   $ IP Non-Tech
 "CDD_HrHi9" = 15   $ IP Non-Tech
 "CDD_HrLo10" = 8   $ IP Non-Tech
 "CDD_HrLo7" = 5   $ IP Non-Tech
 "CDD_HrLo8" = 7   $ IP Non-Tech
 "CDD_HrLo9" = 7   $ IP Non-Tech
 "CDD_WB10" = 60.13755417   $ IP Non-Tech
 "CDD_WB7" = 64.09266663   $ IP Non-Tech
 "CDD_WB8" = 62.55457306   $ IP Non-Tech
 "CDD_WB9" = 64.6887207   $ IP Non-Tech
 "CEIR_fPLR_Hot" = SpltAC1Sp_CEIR_fPLR_Hot   $ Msr (Var)TechID: PreNResSplitAC-45to-PENo
 "CEIR_fPLR_Mod" = SpltAC1Sp_CEIR_fPLR_Mod   $ Msr (Var)TechID: PreNResSplitAC-45to-PENo
 "CEIR_fPLR_Tem" = SpltAC1Sp_CEIR_fPLR_Tem   $ Msr (Var)TechID: PreNResSplitAC-45to-PENo
 "CLoss_fPLR_Hot" = SpltAC1Sp_CLoss_fPLR_Hot   $ Msr (Var)TechID: PreNResSplitAC-45to-PENo
 "CLoss_fPLR_Mod" = SpltAC1Sp_CLoss_fPLR_Mod   $ Msr (Var)TechID: PreNResSplitAC-45to-PENo
 "CLoss_fPLR_Tem" = SpltAC1Sp_CLoss_fPLR_Tem   $ Msr (Var)TechID: PreNResSplitAC-45to-PENo
 "COP47" = 0   $ Msr (Var)TechID: PreNResSplitAC-45to-PENo
 "CZ_Category" = Tem   $ IP Non-Tech
 "CapRange" = Any   $ Msr (Var)TechID: PreNResSplitAC-45to-PENo
 "CfmPerBtuh" = 0.0321   $ Msr (Var)TechID: PreNResSplitAC-45to-PENo
 "ChwVintEconoFlag" = 1   $ IP Non-Tech
 "ClCap_fT" = SpltAC1Sp_ClCap_fT   $ Msr (Var)TechID: PreNResSplitAC-45to-PENo
 "ClSH_fT" = SpltAC1Sp_ClSH_fT   $ Msr (Var)TechID: PreNResSplitAC-45to-PENo
 "CoilBF" = 0.12   $ Msr (Var)TechID: PreNResSplitAC-45to-PENo
 "CondWPerBtuh" = 0   $ Msr (Var)TechID: PreNResSplitAC-45to-PENo
 "Conference_EWSF" = 1   $ IP Non-Tech
 "Conference_LWSF" = 1.4   $ IP Non-Tech
 "CoolSensCap" = 0.744   $ Msr (Var)TechID: PreNResSplitAC-45to-PENo
 "CoolSetT" = 45   $ IP Non-Tech
 "CoolType" = DX   $ IP Non-Tech
 "CoolingEIR" = 0.25823   $ Msr (Var)TechID: PreNResSplitAC-45to-PENo
 "CopyRoom_EWSF" = 1.5   $ IP Non-Tech
 "CopyRoom_LWSF" = 1.3   $ IP Non-Tech
 "CorridorStairway_EWSF" = 0.2   $ IP Non-Tech
 "CorridorStairway_LWSF" = 0.6   $ IP Non-Tech
 "CrnkEIR" = 0.0025823   $ Msr (Var)TechID: PreNResSplitAC-45to-PENo
 "CrnkMaxT" = 50   $ Msr (Var)TechID: PreNResSplitAC-45to-PENo
 "DXType" = SplitSEER   $ Msr (Var)TechID: PreNResSplitAC-45to-PENo
 "DesCoolT" = 75   $ IP Non-Tech
 "DesHeatT" = 73   $ IP Non-Tech
 "EER" = 11.07746479   $ Msr (Var)TechID: PreNResSplitAC-45to-PENo
 "EIR_fT" = SpltAC1Sp_EIR_fT   $ Msr (Var)TechID: PreNResSplitAC-45to-PENo
 "EconoCtrl" = FIXED   $ Msr (Multi)TechID: PreNResSplitAC-45to-PENo
 "EconoEnthLimit" = 28   $ IP Non-Tech
 "EconoTempLimit" = 70   $ IP Non-Tech
 "Elevation" = 6   $ IP Non-Tech
 "FanEirPlr" = TwoSpeedFan   $ Msr (Var)TechID: PreNResSplitAC-45to-PENo
 "FanWPerCfm" = 0.348   $ Msr (Var)TechID: PreNResSplitAC-45to-PENo
 "HDD_CloudAmt1" = 0   $ IP Non-Tech
 "HDD_DBHi1" = 51   $ IP Non-Tech
 "HDD_DBRange1" = 17   $ IP Non-Tech
 "HDD_Day1" = 15   $ IP Non-Tech
 "HDD_HrHi1" = 16   $ IP Non-Tech
 "HDD_HrLo1" = 9   $ IP Non-Tech
 "HDD_WB1" = 42.6   $ IP Non-Tech
 "HDD_WindSpd1" = 15   $ IP Non-Tech
 "HIR_fT" = 0   $ Msr (Var)TechID: PreNResSplitAC-45to-PENo
 "HSPF" = 0   $ Msr (Var)TechID: PreNResSplitAC-45to-PENo
 "HeatSrc" = FURNACE   $ IP Non-Tech
 "HeatSrcTU" = HEAT-PUMP   $ IP Non-Tech
 "HeatType" = GasFurn   $ IP Non-Tech
 "HeatTypeTU" = HEAT-PUMP   $ IP Non-Tech
 "HtCap_fT" = 0   $ Msr (Var)TechID: PreNResSplitAC-45to-PENo
 "HtCoolCapRatio" = 0   $ Msr (Var)TechID: PreNResSplitAC-45to-PENo
 "HtgEIR" = 0   $ Msr (Var)TechID: PreNResSplitAC-45to-PENo
 "IndoorFanMode" = CONTINUOUS   $ IP Non-Tech
 "KT_TransferAir" = No   $ IP Non-Tech
 "Latitude" = 37.7   $ IP Non-Tech
 "LobbyWaiting_EWSF" = 0.5   $ IP Non-Tech
 "LobbyWaiting_LWSF" = 1.3   $ IP Non-Tech
 "Longitude" = 122.2   $ IP Non-Tech
 "LowSpdCapRatio" = 1   $ Msr (Var)TechID: PreNResSplitAC-45to-PENo
 "LowSpdCfmRatio" = 1   $ Msr (Var)TechID: PreNResSplitAC-45to-PENo
 "MZFanMechEff" = 0.58   $ IP Non-Tech
 "MZHasRetFan" = FALSE   $ IP Non-Tech
 "MZ_RFanWPerCfm" = 0.37   $ IP Non-Tech
 "MZ_SFanWPerCfm" = 0.71   $ IP Non-Tech
 "MZ_SupFanStatic" = 2.25   $ IP Non-Tech
 "MaxOAFrac" = 1   $ Msr (Multi)TechID: PreNResSplitAC-45to-PENo
 "MaxSupT_MZ" = 100   $ IP Non-Tech
 "MaxSupT_SZ" = 100   $ IP Non-Tech
 "MaxSupT_TU" = 90   $ IP Non-Tech
 "MechElecRoom_EWSF" = 0.2   $ IP Non-Tech
 "MechElecRoom_LWSF" = 0.7   $ IP Non-Tech
 "MinCfmPerSF" = 0.4   $ IP Non-Tech
 "MinSupT" = 55   $ IP Non-Tech
 "NumStages" = 1   $ Msr (Var)TechID: PreNResSplitAC-45to-PENo
 "OccCoolT" = 76   $ IP Non-Tech
 "OccHeatT" = 72   $ IP Non-Tech
 "OfficeOpen_EWSF" = 1.5   $ IP Non-Tech
 "OfficeOpen_LWSF" = 1.2   $ IP Non-Tech
 "OfficeSmall_EWSF" = 1.5   $ IP Non-Tech
 "OfficeSmall_LWSF" = 1.3   $ IP Non-Tech
 "PkgDxVintEconoFlag" = 0   $ IP Non-Tech
 "Restroom_EWSF" = 0.2   $ IP Non-Tech
 "Restroom_LWSF" = 0.6   $ IP Non-Tech
 "SEER" = 13   $ Msr (Var)TechID: PreNResSplitAC-45to-PENo
 "SZFanMechEff" = 0.58   $ IP Non-Tech
 "SZHasRetFan" = FALSE   $ IP Non-Tech
 "SZ_Is_2Spd" = FALSE   $ IP Non-Tech
 "SZ_SFanWPerCfm" = 0.46   $ IP Non-Tech
 "SZ_SupFanStatic" = 0.75   $ IP Non-Tech
 "Sector" = Any   $ Msr (Var)TechID: PreNResSplitAC-45to-PENo
 "StorageSmlCond_EWSF" = 0.2   $ IP Non-Tech
 "StorageSmlCond_LWSF" = 0.6   $ IP Non-Tech
 "SubType" = AC   $ Msr (Var)TechID: PreNResSplitAC-45to-PENo
 "T24GlzTbl" = CZTbl   $ IP Non-Tech
 "TermUnitFanMechEff" = 1   $ IP Non-Tech
 "TermUnitFanMode" = INTERMITTENT   $ IP Non-Tech
 "TotCoolCap" = 34895   $ Msr (Var)TechID: PreNResSplitAC-45to-PENo
 "TwrSetpt" = 80   $ IP Non-Tech
 "UnocCoolT" = 86   $ IP Non-Tech
 "UnocHeatT" = 62   $ IP Non-Tech
 "UseEconoVintApplic" = FALSE   $ Msr (Multi)TechID: PreNResSplitAC-45to-PENo
 "WlhpVintEconoFlag" = 0   $ IP Non-Tech
 "DuctDT" = 1   $ IP Tech: ComDuctInsul-1
 "DuctAirLoss" = 0   $ IP Tech: ComDuctLeak-0
 "DuctLossOAFrac" = 0   $ IP Tech: ComDuctLeak-0
 "ComRoofInsCalc" = FromUo   $ IP Tech: ComRoofIns-Hvy-0.05
 "ComRoofInsR" = -999   $ IP Tech: ComRoofIns-Hvy-0.05
 "ComRoofUo" = 0.05   $ IP Tech: ComRoofIns-Hvy-0.05
 "ComEWInsCalc" = FromUo   $ IP Tech: ComWallIns-MFrm-0.14
 "ComEWInsR" = -999   $ IP Tech: ComWallIns-MFrm-0.14
 "ComEWUo" = 0.14   $ IP Tech: ComWallIns-MFrm-0.14
 "ComN_SHGC" = 0.61   $ IP Tech: NResWin-ComN-0.77-0.61
 "ComN_UFactor" = 0.77   $ IP Tech: NResWin-ComN-0.77-0.61
 "ComN_VisTrans" = 0.77   $ IP Tech: NResWin-ComN-0.77-0.61
 "ComN_WinCode" = G2600   $ IP Tech: NResWin-ComN-0.77-0.61
 "ComN_WinFrmFrac" = 0.17   $ IP Tech: NResWin-ComN-0.77-0.61
 "ComN_WinFrmU" = 1   $ IP Tech: NResWin-ComN-0.77-0.61
 "ComO_SHGC" = 0.41   $ IP Tech: NResWin-ComO-0.77-0.41
 "ComO_UFactor" = 0.77   $ IP Tech: NResWin-ComO-0.77-0.41
 "ComO_VisTrans" = 0.44   $ IP Tech: NResWin-ComO-0.77-0.41
 "ComO_WinCode" = G2636   $ IP Tech: NResWin-ComO-0.77-0.41
 "ComO_WinFrmFrac" = 0.17   $ IP Tech: NResWin-ComO-0.77-0.41
 "ComO_WinFrmU" = 1   $ IP Tech: NResWin-ComO-0.77-0.41
 "LtgMsrApplic" = ALL   $ IP Tech: NonResLtgRefPre
 "LtgSav_CFL" = 0   $ IP Tech: NonResLtgRefPre
 "LtgSav_EX" = 0   $ IP Tech: NonResLtgRefPre
 "LtgSav_HB" = 0   $ IP Tech: NonResLtgRefPre
 "LtgSav_LF" = 0   $ IP Tech: NonResLtgRefPre
 "LtgSav_SP" = 0   $ IP Tech: NonResLtgRefPre
 "CEIR_fPLR" = PSZ65to135_CEIR_fPLR   $ IP Tech: PkgAC1SpH-65to135-E10
 "CLoss_fPLR" = PSZ65to135_CLoss_fPLR   $ IP Tech: PkgAC1SpH-65to135-E10
 "COP" = -1   $ IP Tech: PkgAC1SpH-65to135-E10
 "HtgFuel" = Gas   $ IP Tech: PkgAC1SpH-65to135-E10
 "IEER" = 11.87   $ IP Tech: PkgAC1SpH-65to135-E10
 "NominalCap" = 15   $ IP Tech: PkgAC1SpH-65to135-E10
 "RatedEER" = 10   $ IP Tech: PkgAC1SpH-65to135-E10
 "RatedSupMtrClass" = HiEff   $ IP Tech: PkgAC1SpH-65to135-E10
 "SizeRange" = 65to135   $ IP Tech: PkgAC1SpH-65to135-E10
 "SupMotEff" = 0.84   $ IP Tech: PkgAC1SpH-65to135-E10
 "Tier" = 0   $ IP Tech: PkgAC1SpH-65to135-E10
 "FanPwrMult" = 1   $ IP Tech: PkgFurn-0.80AFUE
 "FurnAFUE" = 0.8   $ IP Tech: PkgFurn-0.80AFUE
 "FurnEt" = 0.82   $ IP Tech: PkgFurn-0.80AFUE
 "FurnaceAuxKW" = 0.1   $ IP Tech: PkgFurn-0.80AFUE
 "HIR_fPLR" = Furnace-HIR-fPLR   $ IP Tech: PkgFurn-0.80AFUE
 "VSM" = FALSE   $ IP Tech: PkgFurn-0.80AFUE
 "BFMult" = 1   $ IP Tech: RefgChg-NRes-Std
 "CoolEirMult" = 1   $ IP Tech: RefgChg-NRes-Std
 "SensCoolCapMult" = 1   $ IP Tech: RefgChg-NRes-Std
 "TotCoolCapMult" = 1   $ IP Tech: RefgChg-NRes-Std
 "AltAdjFactor" = 1.000254   $ Sizing
 "CAssFlo_L_Break_CZn" = 364.4263   $ Sizing
 "CAssFlo_L_Conf_CZn" = 426.5575   $ Sizing
 "CAssFlo_L_CopyRm_CZn" = 106.9998   $ Sizing
 "CAssFlo_L_Cordr_CZn" = 561.3534   $ Sizing
 "CAssFlo_L_Cordr_EZn" = 232.6546   $ Sizing
 "CAssFlo_L_Cordr_NZn" = 99.61919   $ Sizing
 "CAssFlo_L_Cordr_SZn" = 244.5401   $ Sizing
 "CAssFlo_L_Cordr_WZn" = 228.0055   $ Sizing
 "CAssFlo_L_LobWait_CZn" = 368.1432   $ Sizing
 "CAssFlo_L_MechElec_CZn" = 133.2005   $ Sizing
 "CAssFlo_L_OfficeOpn_CZn" = 1679.181   $ Sizing
 "CAssFlo_L_OfficeOpn_EZn" = 1843.478   $ Sizing
 "CAssFlo_L_OfficeOpn_NZn" = 942.7604   $ Sizing
 "CAssFlo_L_OfficeOpn_SZn" = 1867.088   $ Sizing
 "CAssFlo_L_OfficeOpn_WZn" = 1840.476   $ Sizing
 "CAssFlo_L_OfficeSm_CZn" = 217.4209   $ Sizing
 "CAssFlo_L_OfficeSm_EZn" = 1319.106   $ Sizing
 "CAssFlo_L_OfficeSm_NZn" = 599.3469   $ Sizing
 "CAssFlo_L_OfficeSm_SZn" = 1365.402   $ Sizing
 "CAssFlo_L_OfficeSm_WZn" = 1315.837   $ Sizing
 "CAssFlo_L_Restrm_CZn" = 210.3307   $ Sizing
 "CAssFlo_L_StorSm_CZn" = 344.2261   $ Sizing
 "CAssFlo_M_Break_CZn" = 399.1682   $ Sizing
 "CAssFlo_M_Conf_CZn" = 479.5317   $ Sizing
 "CAssFlo_M_CopyRm_CZn" = 134.7266   $ Sizing
 "CAssFlo_M_Cordr_CZn" = 819.169   $ Sizing
 "CAssFlo_M_Cordr_EZn" = 284.9215   $ Sizing
 "CAssFlo_M_Cordr_NZn" = 125.1805   $ Sizing
 "CAssFlo_M_Cordr_SZn" = 284.6827   $ Sizing
 "CAssFlo_M_Cordr_WZn" = 260.5007   $ Sizing
 "CAssFlo_M_LobWait_CZn" = 484.1514   $ Sizing
 "CAssFlo_M_MechElec_CZn" = 145.4388   $ Sizing
 "CAssFlo_M_OfficeOpn_CZn" = 1974.537   $ Sizing
 "CAssFlo_M_OfficeOpn_EZn" = 2004.747   $ Sizing
 "CAssFlo_M_OfficeOpn_NZn" = 1061.287   $ Sizing
 "CAssFlo_M_OfficeOpn_SZn" = 2045.542   $ Sizing
 "CAssFlo_M_OfficeOpn_WZn" = 1945.411   $ Sizing
 "CAssFlo_M_OfficeSm_CZn" = 284.6043   $ Sizing
 "CAssFlo_M_OfficeSm_EZn" = 1425.469   $ Sizing
 "CAssFlo_M_OfficeSm_NZn" = 677.1661   $ Sizing
 "CAssFlo_M_OfficeSm_SZn" = 1482.164   $ Sizing
 "CAssFlo_M_OfficeSm_WZn" = 1384.331   $ Sizing
 "CAssFlo_M_Restrm_CZn" = 210.3307   $ Sizing
 "CAssFlo_M_StorSm_CZn" = 380.9294   $ Sizing
 "CAssFlo_T_Break_CZn" = 376.1185   $ Sizing
 "CAssFlo_T_Conf_CZn" = 448.4179   $ Sizing
 "CAssFlo_T_CopyRm_CZn" = 128.6037   $ Sizing
 "CAssFlo_T_Cordr_CZn" = 709.2856   $ Sizing
 "CAssFlo_T_Cordr_EZn" = 249.1745   $ Sizing
 "CAssFlo_T_Cordr_NZn" = 114.1858   $ Sizing
 "CAssFlo_T_Cordr_SZn" = 258.6876   $ Sizing
 "CAssFlo_T_Cordr_WZn" = 234.5531   $ Sizing
 "CAssFlo_T_LobWait_CZn" = 431.4441   $ Sizing
 "CAssFlo_T_MechElec_CZn" = 160.0016   $ Sizing
 "CAssFlo_T_OfficeOpn_CZn" = 1821.409   $ Sizing
 "CAssFlo_T_OfficeOpn_EZn" = 1809.228   $ Sizing
 "CAssFlo_T_OfficeOpn_NZn" = 994.1044   $ Sizing
 "CAssFlo_T_OfficeOpn_SZn" = 1904.913   $ Sizing
 "CAssFlo_T_OfficeOpn_WZn" = 1785.54   $ Sizing
 "CAssFlo_T_OfficeSm_CZn" = 257.4454   $ Sizing
 "CAssFlo_T_OfficeSm_EZn" = 1326.21   $ Sizing
 "CAssFlo_T_OfficeSm_NZn" = 645.3393   $ Sizing
 "CAssFlo_T_OfficeSm_SZn" = 1412.175   $ Sizing
 "CAssFlo_T_OfficeSm_WZn" = 1300.273   $ Sizing
 "CAssFlo_T_Restrm_CZn" = 210.3307   $ Sizing
 "CAssFlo_T_StorSm_CZn" = 331.6761   $ Sizing
 "CHRtFlo_Sys_L_Break_C" = 364.4263   $ Sizing
 "CHRtFlo_Sys_L_Conf_C" = 426.5575   $ Sizing
 "CHRtFlo_Sys_L_CopyRm_C" = 106.9998   $ Sizing
 "CHRtFlo_Sys_L_Cordr_C" = 561.3534   $ Sizing
 "CHRtFlo_Sys_L_Cordr_E" = 232.6546   $ Sizing
 "CHRtFlo_Sys_L_Cordr_N" = 99.61919   $ Sizing
 "CHRtFlo_Sys_L_Cordr_S" = 244.5401   $ Sizing
 "CHRtFlo_Sys_L_Cordr_W" = 228.0055   $ Sizing
 "CHRtFlo_Sys_L_LobWait_C" = 368.1432   $ Sizing
 "CHRtFlo_Sys_L_MechElec_C" = 133.2005   $ Sizing
 "CHRtFlo_Sys_L_OfficeOpn_C" = 1679.181   $ Sizing
 "CHRtFlo_Sys_L_OfficeOpn_E" = 1843.478   $ Sizing
 "CHRtFlo_Sys_L_OfficeOpn_N" = 942.7604   $ Sizing
 "CHRtFlo_Sys_L_OfficeOpn_S" = 1867.088   $ Sizing
 "CHRtFlo_Sys_L_OfficeOpn_W" = 1840.476   $ Sizing
 "CHRtFlo_Sys_L_OfficeSm_C" = 217.4209   $ Sizing
 "CHRtFlo_Sys_L_OfficeSm_E" = 1319.106   $ Sizing
 "CHRtFlo_Sys_L_OfficeSm_N" = 599.3469   $ Sizing
 "CHRtFlo_Sys_L_OfficeSm_S" = 1365.402   $ Sizing
 "CHRtFlo_Sys_L_OfficeSm_W" = 1315.837   $ Sizing
 "CHRtFlo_Sys_L_Restrm_C" = 210.3307   $ Sizing
 "CHRtFlo_Sys_L_StorSm_C" = 344.2261   $ Sizing
 "CHRtFlo_Sys_M_Break_C" = 3193.345   $ Sizing
 "CHRtFlo_Sys_M_Conf_C" = 3836.254   $ Sizing
 "CHRtFlo_Sys_M_CopyRm_C" = 1077.813   $ Sizing
 "CHRtFlo_Sys_M_Cordr_C" = 6553.352   $ Sizing
 "CHRtFlo_Sys_M_Cordr_E" = 2279.372   $ Sizing
 "CHRtFlo_Sys_M_Cordr_N" = 1001.444   $ Sizing
 "CHRtFlo_Sys_M_Cordr_S" = 2277.462   $ Sizing
 "CHRtFlo_Sys_M_Cordr_W" = 2084.005   $ Sizing
 "CHRtFlo_Sys_M_LobWait_C" = 3873.211   $ Sizing
 "CHRtFlo_Sys_M_MechElec_C" = 1163.511   $ Sizing
 "CHRtFlo_Sys_M_OfficeOpn_C" = 15796.3   $ Sizing
 "CHRtFlo_Sys_M_OfficeOpn_E" = 16037.98   $ Sizing
 "CHRtFlo_Sys_M_OfficeOpn_N" = 8490.299   $ Sizing
 "CHRtFlo_Sys_M_OfficeOpn_S" = 16364.34   $ Sizing
 "CHRtFlo_Sys_M_OfficeOpn_W" = 15563.29   $ Sizing
 "CHRtFlo_Sys_M_OfficeSm_C" = 2276.834   $ Sizing
 "CHRtFlo_Sys_M_OfficeSm_E" = 11403.75   $ Sizing
 "CHRtFlo_Sys_M_OfficeSm_N" = 5417.329   $ Sizing
 "CHRtFlo_Sys_M_OfficeSm_S" = 11857.31   $ Sizing
 "CHRtFlo_Sys_M_OfficeSm_W" = 11074.65   $ Sizing
 "CHRtFlo_Sys_M_Restrm_C" = 1682.646   $ Sizing
 "CHRtFlo_Sys_M_StorSm_C" = 3047.435   $ Sizing
 "CHRtFlo_Sys_T_Break_C" = 376.1185   $ Sizing
 "CHRtFlo_Sys_T_Conf_C" = 448.4179   $ Sizing
 "CHRtFlo_Sys_T_CopyRm_C" = 128.6037   $ Sizing
 "CHRtFlo_Sys_T_Cordr_C" = 709.2856   $ Sizing
 "CHRtFlo_Sys_T_Cordr_E" = 249.1745   $ Sizing
 "CHRtFlo_Sys_T_Cordr_N" = 114.1858   $ Sizing
 "CHRtFlo_Sys_T_Cordr_S" = 258.6876   $ Sizing
 "CHRtFlo_Sys_T_Cordr_W" = 234.5531   $ Sizing
 "CHRtFlo_Sys_T_LobWait_C" = 431.4441   $ Sizing
 "CHRtFlo_Sys_T_MechElec_C" = 160.0016   $ Sizing
 "CHRtFlo_Sys_T_OfficeOpn_C" = 1821.409   $ Sizing
 "CHRtFlo_Sys_T_OfficeOpn_E" = 1809.228   $ Sizing
 "CHRtFlo_Sys_T_OfficeOpn_N" = 994.1044   $ Sizing
 "CHRtFlo_Sys_T_OfficeOpn_S" = 1904.913   $ Sizing
 "CHRtFlo_Sys_T_OfficeOpn_W" = 1785.54   $ Sizing
 "CHRtFlo_Sys_T_OfficeSm_C" = 257.4454   $ Sizing
 "CHRtFlo_Sys_T_OfficeSm_E" = 1326.21   $ Sizing
 "CHRtFlo_Sys_T_OfficeSm_N" = 645.3393   $ Sizing
 "CHRtFlo_Sys_T_OfficeSm_S" = 1412.175   $ Sizing
 "CHRtFlo_Sys_T_OfficeSm_W" = 1300.273   $ Sizing
 "CHRtFlo_Sys_T_Restrm_C" = 210.3307   $ Sizing
 "CHRtFlo_Sys_T_StorSm_C" = 331.6761   $ Sizing
 "CRtdFlo_Sys_L_Break_C" = 364.4263   $ Sizing
 "CRtdFlo_Sys_L_Conf_C" = 426.5575   $ Sizing
 "CRtdFlo_Sys_L_CopyRm_C" = 106.9998   $ Sizing
 "CRtdFlo_Sys_L_Cordr_C" = 561.3534   $ Sizing
 "CRtdFlo_Sys_L_Cordr_E" = 232.6546   $ Sizing
 "CRtdFlo_Sys_L_Cordr_N" = 99.61919   $ Sizing
 "CRtdFlo_Sys_L_Cordr_S" = 244.5401   $ Sizing
 "CRtdFlo_Sys_L_Cordr_W" = 228.0055   $ Sizing
 "CRtdFlo_Sys_L_LobWait_C" = 368.1432   $ Sizing
 "CRtdFlo_Sys_L_MechElec_C" = 133.2005   $ Sizing
 "CRtdFlo_Sys_L_OfficeOpn_C" = 1679.181   $ Sizing
 "CRtdFlo_Sys_L_OfficeOpn_E" = 1843.478   $ Sizing
 "CRtdFlo_Sys_L_OfficeOpn_N" = 942.7604   $ Sizing
 "CRtdFlo_Sys_L_OfficeOpn_S" = 1867.088   $ Sizing
 "CRtdFlo_Sys_L_OfficeOpn_W" = 1840.476   $ Sizing
 "CRtdFlo_Sys_L_OfficeSm_C" = 217.4209   $ Sizing
 "CRtdFlo_Sys_L_OfficeSm_E" = 1319.106   $ Sizing
 "CRtdFlo_Sys_L_OfficeSm_N" = 599.3469   $ Sizing
 "CRtdFlo_Sys_L_OfficeSm_S" = 1365.402   $ Sizing
 "CRtdFlo_Sys_L_OfficeSm_W" = 1315.837   $ Sizing
 "CRtdFlo_Sys_L_Restrm_C" = 210.3307   $ Sizing
 "CRtdFlo_Sys_L_StorSm_C" = 344.2261   $ Sizing
 "CRtdFlo_Sys_M_Break_C" = 3193.345   $ Sizing
 "CRtdFlo_Sys_M_Conf_C" = 3836.254   $ Sizing
 "CRtdFlo_Sys_M_CopyRm_C" = 1077.813   $ Sizing
 "CRtdFlo_Sys_M_Cordr_C" = 6553.352   $ Sizing
 "CRtdFlo_Sys_M_Cordr_E" = 2279.372   $ Sizing
 "CRtdFlo_Sys_M_Cordr_N" = 1001.444   $ Sizing
 "CRtdFlo_Sys_M_Cordr_S" = 2277.462   $ Sizing
 "CRtdFlo_Sys_M_Cordr_W" = 2084.005   $ Sizing
 "CRtdFlo_Sys_M_LobWait_C" = 3873.211   $ Sizing
 "CRtdFlo_Sys_M_MechElec_C" = 1163.511   $ Sizing
 "CRtdFlo_Sys_M_OfficeOpn_C" = 15796.3   $ Sizing
 "CRtdFlo_Sys_M_OfficeOpn_E" = 16037.98   $ Sizing
 "CRtdFlo_Sys_M_OfficeOpn_N" = 8490.299   $ Sizing
 "CRtdFlo_Sys_M_OfficeOpn_S" = 16364.34   $ Sizing
 "CRtdFlo_Sys_M_OfficeOpn_W" = 15563.29   $ Sizing
 "CRtdFlo_Sys_M_OfficeSm_C" = 2276.834   $ Sizing
 "CRtdFlo_Sys_M_OfficeSm_E" = 11403.75   $ Sizing
 "CRtdFlo_Sys_M_OfficeSm_N" = 5417.329   $ Sizing
 "CRtdFlo_Sys_M_OfficeSm_S" = 11857.31   $ Sizing
 "CRtdFlo_Sys_M_OfficeSm_W" = 11074.65   $ Sizing
 "CRtdFlo_Sys_M_Restrm_C" = 1682.646   $ Sizing
 "CRtdFlo_Sys_M_StorSm_C" = 3047.435   $ Sizing
 "CRtdFlo_Sys_T_Break_C" = 376.1185   $ Sizing
 "CRtdFlo_Sys_T_Conf_C" = 448.4179   $ Sizing
 "CRtdFlo_Sys_T_CopyRm_C" = 128.6037   $ Sizing
 "CRtdFlo_Sys_T_Cordr_C" = 709.2856   $ Sizing
 "CRtdFlo_Sys_T_Cordr_E" = 249.1745   $ Sizing
 "CRtdFlo_Sys_T_Cordr_N" = 114.1858   $ Sizing
 "CRtdFlo_Sys_T_Cordr_S" = 258.6876   $ Sizing
 "CRtdFlo_Sys_T_Cordr_W" = 234.5531   $ Sizing
 "CRtdFlo_Sys_T_LobWait_C" = 431.4441   $ Sizing
 "CRtdFlo_Sys_T_MechElec_C" = 160.0016   $ Sizing
 "CRtdFlo_Sys_T_OfficeOpn_C" = 1821.409   $ Sizing
 "CRtdFlo_Sys_T_OfficeOpn_E" = 1809.228   $ Sizing
 "CRtdFlo_Sys_T_OfficeOpn_N" = 994.1044   $ Sizing
 "CRtdFlo_Sys_T_OfficeOpn_S" = 1904.913   $ Sizing
 "CRtdFlo_Sys_T_OfficeOpn_W" = 1785.54   $ Sizing
 "CRtdFlo_Sys_T_OfficeSm_C" = 257.4454   $ Sizing
 "CRtdFlo_Sys_T_OfficeSm_E" = 1326.21   $ Sizing
 "CRtdFlo_Sys_T_OfficeSm_N" = 645.3393   $ Sizing
 "CRtdFlo_Sys_T_OfficeSm_S" = 1412.175   $ Sizing
 "CRtdFlo_Sys_T_OfficeSm_W" = 1300.273   $ Sizing
 "CRtdFlo_Sys_T_Restrm_C" = 210.3307   $ Sizing
 "CRtdFlo_Sys_T_StorSm_C" = 331.6761   $ Sizing
 "CSupFlo_Sys_L_Break_C" = 364.4263   $ Sizing
 "CSupFlo_Sys_L_Conf_C" = 426.5575   $ Sizing
 "CSupFlo_Sys_L_CopyRm_C" = 106.9998   $ Sizing
 "CSupFlo_Sys_L_Cordr_C" = 561.3534   $ Sizing
 "CSupFlo_Sys_L_Cordr_E" = 232.6546   $ Sizing
 "CSupFlo_Sys_L_Cordr_N" = 99.61919   $ Sizing
 "CSupFlo_Sys_L_Cordr_S" = 244.5401   $ Sizing
 "CSupFlo_Sys_L_Cordr_W" = 228.0055   $ Sizing
 "CSupFlo_Sys_L_LobWait_C" = 368.1432   $ Sizing
 "CSupFlo_Sys_L_MechElec_C" = 133.2005   $ Sizing
 "CSupFlo_Sys_L_OfficeOpn_C" = 1679.181   $ Sizing
 "CSupFlo_Sys_L_OfficeOpn_E" = 1843.478   $ Sizing
 "CSupFlo_Sys_L_OfficeOpn_N" = 942.7604   $ Sizing
 "CSupFlo_Sys_L_OfficeOpn_S" = 1867.088   $ Sizing
 "CSupFlo_Sys_L_OfficeOpn_W" = 1840.476   $ Sizing
 "CSupFlo_Sys_L_OfficeSm_C" = 217.4209   $ Sizing
 "CSupFlo_Sys_L_OfficeSm_E" = 1319.106   $ Sizing
 "CSupFlo_Sys_L_OfficeSm_N" = 599.3469   $ Sizing
 "CSupFlo_Sys_L_OfficeSm_S" = 1365.402   $ Sizing
 "CSupFlo_Sys_L_OfficeSm_W" = 1315.837   $ Sizing
 "CSupFlo_Sys_L_Restrm_C" = 210.3307   $ Sizing
 "CSupFlo_Sys_L_StorSm_C" = 344.2261   $ Sizing
 "CSupFlo_Sys_M_Break_C" = 3193.345   $ Sizing
 "CSupFlo_Sys_M_Conf_C" = 3836.254   $ Sizing
 "CSupFlo_Sys_M_CopyRm_C" = 1077.813   $ Sizing
 "CSupFlo_Sys_M_Cordr_C" = 6553.352   $ Sizing
 "CSupFlo_Sys_M_Cordr_E" = 2279.372   $ Sizing
 "CSupFlo_Sys_M_Cordr_N" = 1001.444   $ Sizing
 "CSupFlo_Sys_M_Cordr_S" = 2277.462   $ Sizing
 "CSupFlo_Sys_M_Cordr_W" = 2084.005   $ Sizing
 "CSupFlo_Sys_M_LobWait_C" = 3873.211   $ Sizing
 "CSupFlo_Sys_M_MechElec_C" = 1163.511   $ Sizing
 "CSupFlo_Sys_M_OfficeOpn_C" = 15796.3   $ Sizing
 "CSupFlo_Sys_M_OfficeOpn_E" = 16037.98   $ Sizing
 "CSupFlo_Sys_M_OfficeOpn_N" = 8490.299   $ Sizing
 "CSupFlo_Sys_M_OfficeOpn_S" = 16364.34   $ Sizing
 "CSupFlo_Sys_M_OfficeOpn_W" = 15563.29   $ Sizing
 "CSupFlo_Sys_M_OfficeSm_C" = 2276.834   $ Sizing
 "CSupFlo_Sys_M_OfficeSm_E" = 11403.75   $ Sizing
 "CSupFlo_Sys_M_OfficeSm_N" = 5417.329   $ Sizing
 "CSupFlo_Sys_M_OfficeSm_S" = 11857.31   $ Sizing
 "CSupFlo_Sys_M_OfficeSm_W" = 11074.65   $ Sizing
 "CSupFlo_Sys_M_Restrm_C" = 1682.646   $ Sizing
 "CSupFlo_Sys_M_StorSm_C" = 3047.435   $ Sizing
 "CSupFlo_Sys_T_Break_C" = 376.1185   $ Sizing
 "CSupFlo_Sys_T_Conf_C" = 448.4179   $ Sizing
 "CSupFlo_Sys_T_CopyRm_C" = 128.6037   $ Sizing
 "CSupFlo_Sys_T_Cordr_C" = 709.2856   $ Sizing
 "CSupFlo_Sys_T_Cordr_E" = 249.1745   $ Sizing
 "CSupFlo_Sys_T_Cordr_N" = 114.1858   $ Sizing
 "CSupFlo_Sys_T_Cordr_S" = 258.6876   $ Sizing
 "CSupFlo_Sys_T_Cordr_W" = 234.5531   $ Sizing
 "CSupFlo_Sys_T_LobWait_C" = 431.4441   $ Sizing
 "CSupFlo_Sys_T_MechElec_C" = 160.0016   $ Sizing
 "CSupFlo_Sys_T_OfficeOpn_C" = 1821.409   $ Sizing
 "CSupFlo_Sys_T_OfficeOpn_E" = 1809.228   $ Sizing
 "CSupFlo_Sys_T_OfficeOpn_N" = 994.1044   $ Sizing
 "CSupFlo_Sys_T_OfficeOpn_S" = 1904.913   $ Sizing
 "CSupFlo_Sys_T_OfficeOpn_W" = 1785.54   $ Sizing
 "CSupFlo_Sys_T_OfficeSm_C" = 257.4454   $ Sizing
 "CSupFlo_Sys_T_OfficeSm_E" = 1326.21   $ Sizing
 "CSupFlo_Sys_T_OfficeSm_N" = 645.3393   $ Sizing
 "CSupFlo_Sys_T_OfficeSm_S" = 1412.175   $ Sizing
 "CSupFlo_Sys_T_OfficeSm_W" = 1300.273   $ Sizing
 "CSupFlo_Sys_T_Restrm_C" = 210.3307   $ Sizing
 "CSupFlo_Sys_T_StorSm_C" = 331.6761   $ Sizing
 "ClCap_Sys_L_Break_C" = 12491.44   $ Sizing
 "ClCap_Sys_L_Conf_C" = 18608.69   $ Sizing
 "ClCap_Sys_L_CopyRm_C" = 3667.632   $ Sizing
 "ClCap_Sys_L_Cordr_C" = 19241.51   $ Sizing
 "ClCap_Sys_L_Cordr_E" = 7974.702   $ Sizing
 "ClCap_Sys_L_Cordr_N" = 3414.647   $ Sizing
 "ClCap_Sys_L_Cordr_S" = 8382.101   $ Sizing
 "ClCap_Sys_L_Cordr_W" = 7815.345   $ Sizing
 "ClCap_Sys_L_LobWait_C" = 12618.84   $ Sizing
 "ClCap_Sys_L_MechElec_C" = 4565.713   $ Sizing
 "ClCap_Sys_L_OfficeOpn_C" = 57557.3   $ Sizing
 "ClCap_Sys_L_OfficeOpn_E" = 63188.89   $ Sizing
 "ClCap_Sys_L_OfficeOpn_N" = 32315   $ Sizing
 "ClCap_Sys_L_OfficeOpn_S" = 63998.17   $ Sizing
 "ClCap_Sys_L_OfficeOpn_W" = 63086.02   $ Sizing
 "ClCap_Sys_L_OfficeSm_C" = 7452.536   $ Sizing
 "ClCap_Sys_L_OfficeSm_E" = 45215.01   $ Sizing
 "ClCap_Sys_L_OfficeSm_N" = 20543.81   $ Sizing
 "ClCap_Sys_L_OfficeSm_S" = 46801.89   $ Sizing
 "ClCap_Sys_L_OfficeSm_W" = 45102.95   $ Sizing
 "ClCap_Sys_L_Restrm_C" = 7209.506   $ Sizing
 "ClCap_Sys_L_StorSm_C" = 11799.04   $ Sizing
 "ClCap_Sys_M_Break_C" = 109458.3   $ Sizing
 "ClCap_Sys_M_Conf_C" = 167357.6   $ Sizing
 "ClCap_Sys_M_CopyRm_C" = 36944.2   $ Sizing
 "ClCap_Sys_M_Cordr_C" = 224629.3   $ Sizing
 "ClCap_Sys_M_Cordr_E" = 78130.03   $ Sizing
 "ClCap_Sys_M_Cordr_N" = 34326.51   $ Sizing
 "ClCap_Sys_M_Cordr_S" = 78064.56   $ Sizing
 "ClCap_Sys_M_Cordr_W" = 71433.45   $ Sizing
 "ClCap_Sys_M_LobWait_C" = 132762.1   $ Sizing
 "ClCap_Sys_M_MechElec_C" = 39881.66   $ Sizing
 "ClCap_Sys_M_OfficeOpn_C" = 541449.7   $ Sizing
 "ClCap_Sys_M_OfficeOpn_E" = 549733.8   $ Sizing
 "ClCap_Sys_M_OfficeOpn_N" = 291022   $ Sizing
 "ClCap_Sys_M_OfficeOpn_S" = 560920.4   $ Sizing
 "ClCap_Sys_M_OfficeOpn_W" = 533463   $ Sizing
 "ClCap_Sys_M_OfficeSm_C" = 78043.06   $ Sizing
 "ClCap_Sys_M_OfficeSm_E" = 390886.3   $ Sizing
 "ClCap_Sys_M_OfficeSm_N" = 185689.8   $ Sizing
 "ClCap_Sys_M_OfficeSm_S" = 406433.1   $ Sizing
 "ClCap_Sys_M_OfficeSm_W" = 379605.8   $ Sizing
 "ClCap_Sys_M_Restrm_C" = 57676.05   $ Sizing
 "ClCap_Sys_M_StorSm_C" = 104456.9   $ Sizing
 "ClCap_Sys_T_Break_C" = 12892.22   $ Sizing
 "ClCap_Sys_T_Conf_C" = 19562.36   $ Sizing
 "ClCap_Sys_T_CopyRm_C" = 4408.15   $ Sizing
 "ClCap_Sys_T_Cordr_C" = 24312.19   $ Sizing
 "ClCap_Sys_T_Cordr_E" = 8540.954   $ Sizing
 "ClCap_Sys_T_Cordr_N" = 3913.946   $ Sizing
 "ClCap_Sys_T_Cordr_S" = 8867.035   $ Sizing
 "ClCap_Sys_T_Cordr_W" = 8039.775   $ Sizing
 "ClCap_Sys_T_LobWait_C" = 14788.61   $ Sizing
 "ClCap_Sys_T_MechElec_C" = 5484.375   $ Sizing
 "ClCap_Sys_T_OfficeOpn_C" = 62432.43   $ Sizing
 "ClCap_Sys_T_OfficeOpn_E" = 62014.91   $ Sizing
 "ClCap_Sys_T_OfficeOpn_N" = 34074.92   $ Sizing
 "ClCap_Sys_T_OfficeOpn_S" = 65294.72   $ Sizing
 "ClCap_Sys_T_OfficeOpn_W" = 61202.96   $ Sizing
 "ClCap_Sys_T_OfficeSm_C" = 8824.455   $ Sizing
 "ClCap_Sys_T_OfficeSm_E" = 45458.49   $ Sizing
 "ClCap_Sys_T_OfficeSm_N" = 22120.3   $ Sizing
 "ClCap_Sys_T_OfficeSm_S" = 48405.12   $ Sizing
 "ClCap_Sys_T_OfficeSm_W" = 44569.45   $ Sizing
 "ClCap_Sys_T_Restrm_C" = 7209.506   $ Sizing
 "ClCap_Sys_T_StorSm_C" = 11368.86   $ Sizing
 "HtCap_Sys_L_Break_C" = -20408.99   $ Sizing
 "HtCap_Sys_L_Conf_C" = -25173.34   $ Sizing
 "HtCap_Sys_L_CopyRm_C" = -7078.277   $ Sizing
 "HtCap_Sys_L_Cordr_C" = -25983.36   $ Sizing
 "HtCap_Sys_L_Cordr_E" = -8552.061   $ Sizing
 "HtCap_Sys_L_Cordr_N" = -4572.535   $ Sizing
 "HtCap_Sys_L_Cordr_S" = -8772.644   $ Sizing
 "HtCap_Sys_L_Cordr_W" = -8406.741   $ Sizing
 "HtCap_Sys_L_LobWait_C" = -20844.17   $ Sizing
 "HtCap_Sys_L_MechElec_C" = -6066.46   $ Sizing
 "HtCap_Sys_L_OfficeOpn_C" = -82443.95   $ Sizing
 "HtCap_Sys_L_OfficeOpn_E" = -63727.45   $ Sizing
 "HtCap_Sys_L_OfficeOpn_N" = -37176.69   $ Sizing
 "HtCap_Sys_L_OfficeOpn_S" = -63292.48   $ Sizing
 "HtCap_Sys_L_OfficeOpn_W" = -63551.07   $ Sizing
 "HtCap_Sys_L_OfficeSm_C" = -8945.498   $ Sizing
 "HtCap_Sys_L_OfficeSm_E" = -44662.16   $ Sizing
 "HtCap_Sys_L_OfficeSm_N" = -23790.12   $ Sizing
 "HtCap_Sys_L_OfficeSm_S" = -46293.66   $ Sizing
 "HtCap_Sys_L_OfficeSm_W" = -45367.62   $ Sizing
 "HtCap_Sys_L_Restrm_C" = -7679.498   $ Sizing
 "HtCap_Sys_L_StorSm_C" = -15949.92   $ Sizing
 "HtCap_Sys_M_Break_C" = -171378.3   $ Sizing
 "HtCap_Sys_M_Conf_C" = -214009.2   $ Sizing
 "HtCap_Sys_M_CopyRm_C" = -63209.91   $ Sizing
 "HtCap_Sys_M_Cordr_C" = -267850.8   $ Sizing
 "HtCap_Sys_M_Cordr_E" = -80540.27   $ Sizing
 "HtCap_Sys_M_Cordr_N" = -42683.23   $ Sizing
 "HtCap_Sys_M_Cordr_S" = -79591.84   $ Sizing
 "HtCap_Sys_M_Cordr_W" = -74711.9   $ Sizing
 "HtCap_Sys_M_LobWait_C" = -194164.2   $ Sizing
 "HtCap_Sys_M_MechElec_C" = -51301.05   $ Sizing
 "HtCap_Sys_M_OfficeOpn_C" = -607213.7   $ Sizing
 "HtCap_Sys_M_OfficeOpn_E" = -546502.7   $ Sizing
 "HtCap_Sys_M_OfficeOpn_N" = -324911.9   $ Sizing
 "HtCap_Sys_M_OfficeOpn_S" = -545658.9   $ Sizing
 "HtCap_Sys_M_OfficeOpn_W" = -531901.3   $ Sizing
 "HtCap_Sys_M_OfficeSm_C" = -87461   $ Sizing
 "HtCap_Sys_M_OfficeSm_E" = -384404.9   $ Sizing
 "HtCap_Sys_M_OfficeSm_N" = -208667   $ Sizing
 "HtCap_Sys_M_OfficeSm_S" = -396567.6   $ Sizing
 "HtCap_Sys_M_OfficeSm_W" = -377877.5   $ Sizing
 "HtCap_Sys_M_Restrm_C" = -66077.42   $ Sizing
 "HtCap_Sys_M_StorSm_C" = -131902.3   $ Sizing
 "HtCap_Sys_T_Break_C" = -21564.08   $ Sizing
 "HtCap_Sys_T_Conf_C" = -26601.83   $ Sizing
 "HtCap_Sys_T_CopyRm_C" = -7900.84   $ Sizing
 "HtCap_Sys_T_Cordr_C" = -33812.16   $ Sizing
 "HtCap_Sys_T_Cordr_E" = -10361.52   $ Sizing
 "HtCap_Sys_T_Cordr_N" = -5556.471   $ Sizing
 "HtCap_Sys_T_Cordr_S" = -10683.98   $ Sizing
 "HtCap_Sys_T_Cordr_W" = -9855.112   $ Sizing
 "HtCap_Sys_T_LobWait_C" = -23987.69   $ Sizing
 "HtCap_Sys_T_MechElec_C" = -6826.803   $ Sizing
 "HtCap_Sys_T_OfficeOpn_C" = -80619.75   $ Sizing
 "HtCap_Sys_T_OfficeOpn_E" = -70450.86   $ Sizing
 "HtCap_Sys_T_OfficeOpn_N" = -43813.07   $ Sizing
 "HtCap_Sys_T_OfficeOpn_S" = -74353.93   $ Sizing
 "HtCap_Sys_T_OfficeOpn_W" = -69558.18   $ Sizing
 "HtCap_Sys_T_OfficeSm_C" = -11365.84   $ Sizing
 "HtCap_Sys_T_OfficeSm_E" = -51285.56   $ Sizing
 "HtCap_Sys_T_OfficeSm_N" = -28458.58   $ Sizing
 "HtCap_Sys_T_OfficeSm_S" = -54654.98   $ Sizing
 "HtCap_Sys_T_OfficeSm_W" = -50981.95   $ Sizing
 "HtCap_Sys_T_Restrm_C" = -8627.582   $ Sizing
 "HtCap_Sys_T_StorSm_C" = -17057.49   $ Sizing
..

##include Templates\OfL_DX_SZ.inp
END ..
COMPUTE ..
STOP ..
