INPUT ..

##fileprefix C:\Users\jglasskatz\MASControl3\
##set1 IsSizing FALSE
##set1 CoolType DX
##set1 HeatType FURNACE
##set1 EU_HrRepVar 0
##set1 BldgVint 2003
##set1 BldgLoc CZ12

 ##set1 mBFMult 1   $ IP Tech: RefgChg-NRes-Std

PARAMETER
 "AltFactor" = 1.00062   $ IP Non-Tech
 "BF_fFlow" = SpltAC2SpHiSEER_BF_fFlow   $ Msr (Multi)TechID: MsrNResSplitAC-45to55-S17
 "BF_fT" = SpltAC2SpHiSEER_BF_fT   $ Msr (Multi)TechID: MsrNResSplitAC-45to55-S17
 "BldgEconoFlag" = 1   $ IP Non-Tech
 "Break_EWSF" = 1   $ IP Non-Tech
 "Break_LWSF" = 1.1   $ IP Non-Tech
 "CDD_DBHi10" = 83   $ IP Non-Tech
 "CDD_DBHi7" = 101   $ IP Non-Tech
 "CDD_DBHi8" = 99   $ IP Non-Tech
 "CDD_DBHi9" = 98   $ IP Non-Tech
 "CDD_DBRange10" = 23   $ IP Non-Tech
 "CDD_DBRange7" = 30   $ IP Non-Tech
 "CDD_DBRange8" = 34   $ IP Non-Tech
 "CDD_DBRange9" = 34   $ IP Non-Tech
 "CDD_Day10" = 15   $ IP Non-Tech
 "CDD_Day7" = 16   $ IP Non-Tech
 "CDD_Day8" = 20   $ IP Non-Tech
 "CDD_Day9" = 17   $ IP Non-Tech
 "CDD_HrHi10" = 14   $ IP Non-Tech
 "CDD_HrHi7" = 16   $ IP Non-Tech
 "CDD_HrHi8" = 16   $ IP Non-Tech
 "CDD_HrHi9" = 16   $ IP Non-Tech
 "CDD_HrLo10" = 3   $ IP Non-Tech
 "CDD_HrLo7" = 4   $ IP Non-Tech
 "CDD_HrLo8" = 8   $ IP Non-Tech
 "CDD_HrLo9" = 7   $ IP Non-Tech
 "CDD_WB10" = 61.40390396   $ IP Non-Tech
 "CDD_WB7" = 71.25247955   $ IP Non-Tech
 "CDD_WB8" = 68.94035339   $ IP Non-Tech
 "CDD_WB9" = 66.54764557   $ IP Non-Tech
 "CEIR_fPLR_Hot" = SpltAC2SpHiSEER_CEIR_fPLR_Hot   $ Msr (Multi)TechID: MsrNResSplitAC-45to55-S17
 "CEIR_fPLR_Mod" = SpltAC2SpHiSEER_CEIR_fPLR_Mod   $ Msr (Multi)TechID: MsrNResSplitAC-45to55-S17
 "CEIR_fPLR_Tem" = SpltAC2SpHiSEER_CEIR_fPLR_Tem   $ Msr (Multi)TechID: MsrNResSplitAC-45to55-S17
 "CLoss_fPLR_Hot" = SpltAC2SpHiSEER_CLoss_fPLR_Hot   $ Msr (Multi)TechID: MsrNResSplitAC-45to55-S17
 "CLoss_fPLR_Mod" = SpltAC2SpHiSEER_CLoss_fPLR_Mod   $ Msr (Multi)TechID: MsrNResSplitAC-45to55-S17
 "CLoss_fPLR_Tem" = SpltAC2SpHiSEER_CLoss_fPLR_Tem   $ Msr (Multi)TechID: MsrNResSplitAC-45to55-S17
 "COP47" = 0   $ Msr (Multi)TechID: MsrNResSplitAC-45to55-S17
 "CZ_Category" = Mod   $ IP Non-Tech
 "CapRange" = Any   $ Msr (Multi)TechID: MsrNResSplitAC-45to55-S17
 "CfmPerBtuh" = 0.03   $ Msr (Multi)TechID: MsrNResSplitAC-45to55-S17
 "ChwVintEconoFlag" = 1   $ IP Non-Tech
 "ClCap_fT" = SpltAC2SpHiSEER_ClCap_fT   $ Msr (Multi)TechID: MsrNResSplitAC-45to55-S17
 "ClSH_fT" = SpltAC2SpHiSEER_ClSH_fT   $ Msr (Multi)TechID: MsrNResSplitAC-45to55-S17
 "CoilBF" = 0.102   $ Msr (Multi)TechID: MsrNResSplitAC-45to55-S17
 "CondWPerBtuh" = 0   $ Msr (Multi)TechID: MsrNResSplitAC-45to55-S17
 "Conference_EWSF" = 1   $ IP Non-Tech
 "Conference_LWSF" = 1.4   $ IP Non-Tech
 "CoolSensCap" = 0.724   $ Msr (Multi)TechID: MsrNResSplitAC-45to55-S17
 "CoolSetT" = 45   $ IP Non-Tech
 "CoolType" = DX   $ IP Non-Tech
 "CoolingEIR" = 0.2225   $ Msr (Multi)TechID: MsrNResSplitAC-45to55-S17
 "CopyRoom_EWSF" = 1.5   $ IP Non-Tech
 "CopyRoom_LWSF" = 1.3   $ IP Non-Tech
 "CorridorStairway_EWSF" = 0.2   $ IP Non-Tech
 "CorridorStairway_LWSF" = 0.6   $ IP Non-Tech
 "CrnkEIR" = 0.002225   $ Msr (Multi)TechID: MsrNResSplitAC-45to55-S17
 "CrnkMaxT" = 50   $ Msr (Multi)TechID: MsrNResSplitAC-45to55-S17
 "DXType" = SplitSEER   $ Msr (Multi)TechID: MsrNResSplitAC-45to55-S17
 "DesCoolT" = 75   $ IP Non-Tech
 "DesHeatT" = 73   $ IP Non-Tech
 "EER" = 13.26   $ Msr (Multi)TechID: MsrNResSplitAC-45to55-S17
 "EIR_fT" = SpltAC2SpHiSEER_EIR_fT   $ Msr (Multi)TechID: MsrNResSplitAC-45to55-S17
 "EconoCtrl" = FIXED   $ Msr (Multi)TechID: MsrNResSplitAC-45to55-S17
 "EconoEnthLimit" = 28   $ IP Non-Tech
 "EconoTempLimit" = 75   $ IP Non-Tech
 "Elevation" = 16   $ IP Non-Tech
 "FanEirPlr" = TwoSpeedFan   $ Msr (Multi)TechID: MsrNResSplitAC-45to55-S17
 "FanWPerCfm" = 0.271   $ Msr (Multi)TechID: MsrNResSplitAC-45to55-S17
 "HDD_CloudAmt1" = 0   $ IP Non-Tech
 "HDD_DBHi1" = 50   $ IP Non-Tech
 "HDD_DBRange1" = 21   $ IP Non-Tech
 "HDD_Day1" = 15   $ IP Non-Tech
 "HDD_HrHi1" = 16   $ IP Non-Tech
 "HDD_HrLo1" = 8   $ IP Non-Tech
 "HDD_WB1" = 43.9   $ IP Non-Tech
 "HDD_WindSpd1" = 13.8   $ IP Non-Tech
 "HIR_fT" = 0   $ Msr (Multi)TechID: MsrNResSplitAC-45to55-S17
 "HSPF" = 0   $ Msr (Multi)TechID: MsrNResSplitAC-45to55-S17
 "HeatSrc" = FURNACE   $ IP Non-Tech
 "HeatSrcTU" = HEAT-PUMP   $ IP Non-Tech
 "HeatType" = GasFurn   $ IP Non-Tech
 "HeatTypeTU" = HEAT-PUMP   $ IP Non-Tech
 "HtCap_fT" = 0   $ Msr (Multi)TechID: MsrNResSplitAC-45to55-S17
 "HtCoolCapRatio" = 0   $ Msr (Multi)TechID: MsrNResSplitAC-45to55-S17
 "HtgEIR" = 0   $ Msr (Multi)TechID: MsrNResSplitAC-45to55-S17
 "IndoorFanMode" = CONTINUOUS   $ IP Non-Tech
 "KT_TransferAir" = No   $ IP Non-Tech
 "Latitude" = 38.5   $ IP Non-Tech
 "LobbyWaiting_EWSF" = 0.5   $ IP Non-Tech
 "LobbyWaiting_LWSF" = 1.3   $ IP Non-Tech
 "Longitude" = 121.5   $ IP Non-Tech
 "LowSpdCapRatio" = 0.686   $ Msr (Multi)TechID: MsrNResSplitAC-45to55-S17
 "LowSpdCfmRatio" = 0.739   $ Msr (Multi)TechID: MsrNResSplitAC-45to55-S17
 "MZFanMechEff" = 0.58   $ IP Non-Tech
 "MZHasRetFan" = FALSE   $ IP Non-Tech
 "MZ_RFanWPerCfm" = 0.37   $ IP Non-Tech
 "MZ_SFanWPerCfm" = 0.71   $ IP Non-Tech
 "MZ_SupFanStatic" = 2.25   $ IP Non-Tech
 "MaxOAFrac" = 1   $ Msr (Multi)TechID: MsrNResSplitAC-45to55-S17
 "MaxSupT_MZ" = 100   $ IP Non-Tech
 "MaxSupT_SZ" = 100   $ IP Non-Tech
 "MaxSupT_TU" = 90   $ IP Non-Tech
 "MechElecRoom_EWSF" = 0.2   $ IP Non-Tech
 "MechElecRoom_LWSF" = 0.7   $ IP Non-Tech
 "MinCfmPerSF" = 0.4   $ IP Non-Tech
 "MinSupT" = 55   $ IP Non-Tech
 "NumStages" = 2   $ Msr (Multi)TechID: MsrNResSplitAC-45to55-S17
 "OccCoolT" = 76   $ IP Non-Tech
 "OccHeatT" = 72   $ IP Non-Tech
 "OfficeOpen_EWSF" = 1.5   $ IP Non-Tech
 "OfficeOpen_LWSF" = 1.2   $ IP Non-Tech
 "OfficeSmall_EWSF" = 1.5   $ IP Non-Tech
 "OfficeSmall_LWSF" = 1.3   $ IP Non-Tech
 "PkgDxVintEconoFlag" = 0   $ IP Non-Tech
 "Restroom_EWSF" = 0.2   $ IP Non-Tech
 "Restroom_LWSF" = 0.6   $ IP Non-Tech
 "SEER" = 17   $ Msr (Multi)TechID: MsrNResSplitAC-45to55-S17
 "SZFanMechEff" = 0.58   $ IP Non-Tech
 "SZHasRetFan" = FALSE   $ IP Non-Tech
 "SZ_Is_2Spd" = FALSE   $ IP Non-Tech
 "SZ_SFanWPerCfm" = 0.46   $ IP Non-Tech
 "SZ_SupFanStatic" = 0.75   $ IP Non-Tech
 "Sector" = Any   $ Msr (Multi)TechID: MsrNResSplitAC-45to55-S17
 "StorageSmlCond_EWSF" = 0.2   $ IP Non-Tech
 "StorageSmlCond_LWSF" = 0.6   $ IP Non-Tech
 "SubType" = AC   $ Msr (Multi)TechID: MsrNResSplitAC-45to55-S17
 "T24GlzTbl" = CZTbl   $ IP Non-Tech
 "TermUnitFanMechEff" = 1   $ IP Non-Tech
 "TermUnitFanMode" = INTERMITTENT   $ IP Non-Tech
 "TotCoolCap" = 58805   $ Msr (Multi)TechID: MsrNResSplitAC-45to55-S17
 "TwrSetpt" = 82.3   $ IP Non-Tech
 "UnocCoolT" = 86   $ IP Non-Tech
 "UnocHeatT" = 62   $ IP Non-Tech
 "UseEconoVintApplic" = FALSE   $ Msr (Multi)TechID: MsrNResSplitAC-45to55-S17
 "WlhpVintEconoFlag" = 0   $ IP Non-Tech
 "DuctDT" = 1   $ IP Tech: ComDuctInsul-1
 "DuctAirLoss" = 0   $ IP Tech: ComDuctLeak-0
 "DuctLossOAFrac" = 0   $ IP Tech: ComDuctLeak-0
 "ComRoofInsCalc" = FromUo   $ IP Tech: ComRoofIns-Hvy-0.06
 "ComRoofInsR" = -999   $ IP Tech: ComRoofIns-Hvy-0.06
 "ComRoofUo" = 0.06   $ IP Tech: ComRoofIns-Hvy-0.06
 "ComEWInsCalc" = FromUo   $ IP Tech: ComWallIns-MFrm-0.13
 "ComEWInsR" = -999   $ IP Tech: ComWallIns-MFrm-0.13
 "ComEWUo" = 0.13   $ IP Tech: ComWallIns-MFrm-0.13
 "ComN_SHGC" = 0.47   $ IP Tech: NResWin-ComN-0.47-0.47
 "ComN_UFactor" = 0.47   $ IP Tech: NResWin-ComN-0.47-0.47
 "ComN_VisTrans" = 0.75   $ IP Tech: NResWin-ComN-0.47-0.47
 "ComN_WinCode" = G2633   $ IP Tech: NResWin-ComN-0.47-0.47
 "ComN_WinFrmFrac" = 0.17   $ IP Tech: NResWin-ComN-0.47-0.47
 "ComN_WinFrmU" = 0.3   $ IP Tech: NResWin-ComN-0.47-0.47
 "ComO_SHGC" = 0.31   $ IP Tech: NResWin-ComO-0.47-0.31
 "ComO_UFactor" = 0.47   $ IP Tech: NResWin-ComO-0.47-0.31
 "ComO_VisTrans" = 0.44   $ IP Tech: NResWin-ComO-0.47-0.31
 "ComO_WinCode" = G2637   $ IP Tech: NResWin-ComO-0.47-0.31
 "ComO_WinFrmFrac" = 0.17   $ IP Tech: NResWin-ComO-0.47-0.31
 "ComO_WinFrmU" = 0.3   $ IP Tech: NResWin-ComO-0.47-0.31
 "LtgMsrApplic" = ALL   $ IP Tech: NonResLtgRefPre
 "LtgSav_CFL" = 0   $ IP Tech: NonResLtgRefPre
 "LtgSav_EX" = 0   $ IP Tech: NonResLtgRefPre
 "LtgSav_HB" = 0   $ IP Tech: NonResLtgRefPre
 "LtgSav_LF" = 0   $ IP Tech: NonResLtgRefPre
 "LtgSav_SP" = 0   $ IP Tech: NonResLtgRefPre
 "CEIR_fPLR" = PSZ65to135_CEIR_fPLR   $ IP Tech: PkgAC1SpH-65to135-E10
 "CLoss_fPLR" = PSZ65to135_CLoss_fPLR   $ IP Tech: PkgAC1SpH-65to135-E10
 "COP" = -1   $ IP Tech: PkgAC1SpH-65to135-E10
 "HtgFuel" = Gas   $ IP Tech: PkgAC1SpH-65to135-E10
 "IEER" = 11.87   $ IP Tech: PkgAC1SpH-65to135-E10
 "NominalCap" = 15   $ IP Tech: PkgAC1SpH-65to135-E10
 "RatedEER" = 10   $ IP Tech: PkgAC1SpH-65to135-E10
 "RatedSupMtrClass" = HiEff   $ IP Tech: PkgAC1SpH-65to135-E10
 "SizeRange" = 65to135   $ IP Tech: PkgAC1SpH-65to135-E10
 "SupMotEff" = 0.84   $ IP Tech: PkgAC1SpH-65to135-E10
 "Tier" = 0   $ IP Tech: PkgAC1SpH-65to135-E10
 "FanPwrMult" = 1   $ IP Tech: PkgFurn-0.80AFUE
 "FurnAFUE" = 0.8   $ IP Tech: PkgFurn-0.80AFUE
 "FurnEt" = 0.82   $ IP Tech: PkgFurn-0.80AFUE
 "FurnaceAuxKW" = 0.1   $ IP Tech: PkgFurn-0.80AFUE
 "HIR_fPLR" = Furnace-HIR-fPLR   $ IP Tech: PkgFurn-0.80AFUE
 "VSM" = FALSE   $ IP Tech: PkgFurn-0.80AFUE
 "BFMult" = 1   $ IP Tech: RefgChg-NRes-Std
 "CoolEirMult" = 1   $ IP Tech: RefgChg-NRes-Std
 "SensCoolCapMult" = 1   $ IP Tech: RefgChg-NRes-Std
 "TotCoolCapMult" = 1   $ IP Tech: RefgChg-NRes-Std
 "AltAdjFactor" = 1.000622   $ Sizing
 "CAssFlo_L_Break_CZn" = 537.4113   $ Sizing
 "CAssFlo_L_Conf_CZn" = 519.5115   $ Sizing
 "CAssFlo_L_CopyRm_CZn" = 166.4081   $ Sizing
 "CAssFlo_L_Cordr_CZn" = 633.5084   $ Sizing
 "CAssFlo_L_Cordr_EZn" = 220.4718   $ Sizing
 "CAssFlo_L_Cordr_NZn" = 161.2311   $ Sizing
 "CAssFlo_L_Cordr_SZn" = 217.0993   $ Sizing
 "CAssFlo_L_Cordr_WZn" = 248.5025   $ Sizing
 "CAssFlo_L_LobWait_CZn" = 534.6995   $ Sizing
 "CAssFlo_L_MechElec_CZn" = 113.1103   $ Sizing
 "CAssFlo_L_OfficeOpn_CZn" = 1815.137   $ Sizing
 "CAssFlo_L_OfficeOpn_EZn" = 1573.303   $ Sizing
 "CAssFlo_L_OfficeOpn_NZn" = 1203.887   $ Sizing
 "CAssFlo_L_OfficeOpn_SZn" = 1574.489   $ Sizing
 "CAssFlo_L_OfficeOpn_WZn" = 1804.283   $ Sizing
 "CAssFlo_L_OfficeSm_CZn" = 230.1938   $ Sizing
 "CAssFlo_L_OfficeSm_EZn" = 1116.391   $ Sizing
 "CAssFlo_L_OfficeSm_NZn" = 786.1195   $ Sizing
 "CAssFlo_L_OfficeSm_SZn" = 1116.728   $ Sizing
 "CAssFlo_L_OfficeSm_WZn" = 1253.862   $ Sizing
 "CAssFlo_L_Restrm_CZn" = 87.87917   $ Sizing
 "CAssFlo_L_StorSm_CZn" = 357.8372   $ Sizing
 "CAssFlo_M_Break_CZn" = 544.3405   $ Sizing
 "CAssFlo_M_Conf_CZn" = 521.7494   $ Sizing
 "CAssFlo_M_CopyRm_CZn" = 161.5636   $ Sizing
 "CAssFlo_M_Cordr_CZn" = 835.5244   $ Sizing
 "CAssFlo_M_Cordr_EZn" = 256.9168   $ Sizing
 "CAssFlo_M_Cordr_NZn" = 181.3279   $ Sizing
 "CAssFlo_M_Cordr_SZn" = 244.282   $ Sizing
 "CAssFlo_M_Cordr_WZn" = 265.4691   $ Sizing
 "CAssFlo_M_LobWait_CZn" = 557.8746   $ Sizing
 "CAssFlo_M_MechElec_CZn" = 147.7566   $ Sizing
 "CAssFlo_M_OfficeOpn_CZn" = 1833.743   $ Sizing
 "CAssFlo_M_OfficeOpn_EZn" = 1706.34   $ Sizing
 "CAssFlo_M_OfficeOpn_NZn" = 1281.223   $ Sizing
 "CAssFlo_M_OfficeOpn_SZn" = 1683.69   $ Sizing
 "CAssFlo_M_OfficeOpn_WZn" = 1865.52   $ Sizing
 "CAssFlo_M_OfficeSm_CZn" = 265.8441   $ Sizing
 "CAssFlo_M_OfficeSm_EZn" = 1196.739   $ Sizing
 "CAssFlo_M_OfficeSm_NZn" = 831.7905   $ Sizing
 "CAssFlo_M_OfficeSm_SZn" = 1185.203   $ Sizing
 "CAssFlo_M_OfficeSm_WZn" = 1284.73   $ Sizing
 "CAssFlo_M_Restrm_CZn" = 94.55473   $ Sizing
 "CAssFlo_M_StorSm_CZn" = 387.0236   $ Sizing
 "CAssFlo_T_Break_CZn" = 539.2233   $ Sizing
 "CAssFlo_T_Conf_CZn" = 515.7808   $ Sizing
 "CAssFlo_T_CopyRm_CZn" = 160.6627   $ Sizing
 "CAssFlo_T_Cordr_CZn" = 791.2065   $ Sizing
 "CAssFlo_T_Cordr_EZn" = 254.679   $ Sizing
 "CAssFlo_T_Cordr_NZn" = 185.1959   $ Sizing
 "CAssFlo_T_Cordr_SZn" = 241.1329   $ Sizing
 "CAssFlo_T_Cordr_WZn" = 270.0203   $ Sizing
 "CAssFlo_T_LobWait_CZn" = 553.5063   $ Sizing
 "CAssFlo_T_MechElec_CZn" = 176.9205   $ Sizing
 "CAssFlo_T_OfficeOpn_CZn" = 1895.37   $ Sizing
 "CAssFlo_T_OfficeOpn_EZn" = 1708.877   $ Sizing
 "CAssFlo_T_OfficeOpn_NZn" = 1317.046   $ Sizing
 "CAssFlo_T_OfficeOpn_SZn" = 1684.643   $ Sizing
 "CAssFlo_T_OfficeOpn_WZn" = 1873.538   $ Sizing
 "CAssFlo_T_OfficeSm_CZn" = 246.6214   $ Sizing
 "CAssFlo_T_OfficeSm_EZn" = 1224.145   $ Sizing
 "CAssFlo_T_OfficeSm_NZn" = 860.9438   $ Sizing
 "CAssFlo_T_OfficeSm_SZn" = 1201.438   $ Sizing
 "CAssFlo_T_OfficeSm_WZn" = 1319.904   $ Sizing
 "CAssFlo_T_Restrm_CZn" = 146.3168   $ Sizing
 "CAssFlo_T_StorSm_CZn" = 286.0977   $ Sizing
 "CHRtFlo_Sys_L_Break_C" = 537.4113   $ Sizing
 "CHRtFlo_Sys_L_Conf_C" = 519.5115   $ Sizing
 "CHRtFlo_Sys_L_CopyRm_C" = 166.4081   $ Sizing
 "CHRtFlo_Sys_L_Cordr_C" = 666.5844   $ Sizing
 "CHRtFlo_Sys_L_Cordr_E" = 255.8748   $ Sizing
 "CHRtFlo_Sys_L_Cordr_N" = 161.2311   $ Sizing
 "CHRtFlo_Sys_L_Cordr_S" = 245.6305   $ Sizing
 "CHRtFlo_Sys_L_Cordr_W" = 248.5025   $ Sizing
 "CHRtFlo_Sys_L_LobWait_C" = 534.6995   $ Sizing
 "CHRtFlo_Sys_L_MechElec_C" = 142.8414   $ Sizing
 "CHRtFlo_Sys_L_OfficeOpn_C" = 1815.137   $ Sizing
 "CHRtFlo_Sys_L_OfficeOpn_E" = 1852.486   $ Sizing
 "CHRtFlo_Sys_L_OfficeOpn_N" = 1203.887   $ Sizing
 "CHRtFlo_Sys_L_OfficeOpn_S" = 1819.151   $ Sizing
 "CHRtFlo_Sys_L_OfficeOpn_W" = 1816.735   $ Sizing
 "CHRtFlo_Sys_L_OfficeSm_C" = 258.4828   $ Sizing
 "CHRtFlo_Sys_L_OfficeSm_E" = 1334.34   $ Sizing
 "CHRtFlo_Sys_L_OfficeSm_N" = 786.1195   $ Sizing
 "CHRtFlo_Sys_L_OfficeSm_S" = 1323.007   $ Sizing
 "CHRtFlo_Sys_L_OfficeSm_W" = 1302.379   $ Sizing
 "CHRtFlo_Sys_L_Restrm_C" = 210.4081   $ Sizing
 "CHRtFlo_Sys_L_StorSm_C" = 430.8246   $ Sizing
 "CHRtFlo_Sys_M_Break_C" = 4354.724   $ Sizing
 "CHRtFlo_Sys_M_Conf_C" = 4317.672   $ Sizing
 "CHRtFlo_Sys_M_CopyRm_C" = 1292.509   $ Sizing
 "CHRtFlo_Sys_M_Cordr_C" = 8083.69   $ Sizing
 "CHRtFlo_Sys_M_Cordr_E" = 2436.537   $ Sizing
 "CHRtFlo_Sys_M_Cordr_N" = 1457.633   $ Sizing
 "CHRtFlo_Sys_M_Cordr_S" = 2258.508   $ Sizing
 "CHRtFlo_Sys_M_Cordr_W" = 2144.429   $ Sizing
 "CHRtFlo_Sys_M_LobWait_C" = 4660.696   $ Sizing
 "CHRtFlo_Sys_M_MechElec_C" = 1531.244   $ Sizing
 "CHRtFlo_Sys_M_OfficeOpn_C" = 17088.92   $ Sizing
 "CHRtFlo_Sys_M_OfficeOpn_E" = 16273.33   $ Sizing
 "CHRtFlo_Sys_M_OfficeOpn_N" = 10249.79   $ Sizing
 "CHRtFlo_Sys_M_OfficeOpn_S" = 15843.02   $ Sizing
 "CHRtFlo_Sys_M_OfficeOpn_W" = 15111.23   $ Sizing
 "CHRtFlo_Sys_M_OfficeSm_C" = 2601.327   $ Sizing
 "CHRtFlo_Sys_M_OfficeSm_E" = 11564.97   $ Sizing
 "CHRtFlo_Sys_M_OfficeSm_N" = 6654.324   $ Sizing
 "CHRtFlo_Sys_M_OfficeSm_S" = 11391.85   $ Sizing
 "CHRtFlo_Sys_M_OfficeSm_W" = 10907.39   $ Sizing
 "CHRtFlo_Sys_M_Restrm_C" = 1683.265   $ Sizing
 "CHRtFlo_Sys_M_StorSm_C" = 3903.355   $ Sizing
 "CHRtFlo_Sys_T_Break_C" = 539.2233   $ Sizing
 "CHRtFlo_Sys_T_Conf_C" = 515.7808   $ Sizing
 "CHRtFlo_Sys_T_CopyRm_C" = 160.6627   $ Sizing
 "CHRtFlo_Sys_T_Cordr_C" = 856.4441   $ Sizing
 "CHRtFlo_Sys_T_Cordr_E" = 267.1626   $ Sizing
 "CHRtFlo_Sys_T_Cordr_N" = 185.1959   $ Sizing
 "CHRtFlo_Sys_T_Cordr_S" = 256.0656   $ Sizing
 "CHRtFlo_Sys_T_Cordr_W" = 270.0203   $ Sizing
 "CHRtFlo_Sys_T_LobWait_C" = 553.5063   $ Sizing
 "CHRtFlo_Sys_T_MechElec_C" = 235.0517   $ Sizing
 "CHRtFlo_Sys_T_OfficeOpn_C" = 1895.37   $ Sizing
 "CHRtFlo_Sys_T_OfficeOpn_E" = 1843.285   $ Sizing
 "CHRtFlo_Sys_T_OfficeOpn_N" = 1317.046   $ Sizing
 "CHRtFlo_Sys_T_OfficeOpn_S" = 1840.599   $ Sizing
 "CHRtFlo_Sys_T_OfficeOpn_W" = 1873.538   $ Sizing
 "CHRtFlo_Sys_T_OfficeSm_C" = 285.7129   $ Sizing
 "CHRtFlo_Sys_T_OfficeSm_E" = 1348.337   $ Sizing
 "CHRtFlo_Sys_T_OfficeSm_N" = 860.9438   $ Sizing
 "CHRtFlo_Sys_T_OfficeSm_S" = 1354.868   $ Sizing
 "CHRtFlo_Sys_T_OfficeSm_W" = 1319.904   $ Sizing
 "CHRtFlo_Sys_T_Restrm_C" = 210.4081   $ Sizing
 "CHRtFlo_Sys_T_StorSm_C" = 331.7982   $ Sizing
 "CRtdFlo_Sys_L_Break_C" = 537.4113   $ Sizing
 "CRtdFlo_Sys_L_Conf_C" = 519.5115   $ Sizing
 "CRtdFlo_Sys_L_CopyRm_C" = 166.4081   $ Sizing
 "CRtdFlo_Sys_L_Cordr_C" = 633.5084   $ Sizing
 "CRtdFlo_Sys_L_Cordr_E" = 220.4718   $ Sizing
 "CRtdFlo_Sys_L_Cordr_N" = 161.2311   $ Sizing
 "CRtdFlo_Sys_L_Cordr_S" = 217.0993   $ Sizing
 "CRtdFlo_Sys_L_Cordr_W" = 248.5025   $ Sizing
 "CRtdFlo_Sys_L_LobWait_C" = 534.6995   $ Sizing
 "CRtdFlo_Sys_L_MechElec_C" = 113.1103   $ Sizing
 "CRtdFlo_Sys_L_OfficeOpn_C" = 1815.137   $ Sizing
 "CRtdFlo_Sys_L_OfficeOpn_E" = 1573.303   $ Sizing
 "CRtdFlo_Sys_L_OfficeOpn_N" = 1203.887   $ Sizing
 "CRtdFlo_Sys_L_OfficeOpn_S" = 1574.489   $ Sizing
 "CRtdFlo_Sys_L_OfficeOpn_W" = 1804.283   $ Sizing
 "CRtdFlo_Sys_L_OfficeSm_C" = 230.1938   $ Sizing
 "CRtdFlo_Sys_L_OfficeSm_E" = 1116.391   $ Sizing
 "CRtdFlo_Sys_L_OfficeSm_N" = 786.1195   $ Sizing
 "CRtdFlo_Sys_L_OfficeSm_S" = 1116.728   $ Sizing
 "CRtdFlo_Sys_L_OfficeSm_W" = 1253.862   $ Sizing
 "CRtdFlo_Sys_L_Restrm_C" = 87.87917   $ Sizing
 "CRtdFlo_Sys_L_StorSm_C" = 357.8372   $ Sizing
 "CRtdFlo_Sys_M_Break_C" = 4354.724   $ Sizing
 "CRtdFlo_Sys_M_Conf_C" = 4173.995   $ Sizing
 "CRtdFlo_Sys_M_CopyRm_C" = 1292.509   $ Sizing
 "CRtdFlo_Sys_M_Cordr_C" = 6684.195   $ Sizing
 "CRtdFlo_Sys_M_Cordr_E" = 2055.334   $ Sizing
 "CRtdFlo_Sys_M_Cordr_N" = 1450.623   $ Sizing
 "CRtdFlo_Sys_M_Cordr_S" = 1954.256   $ Sizing
 "CRtdFlo_Sys_M_Cordr_W" = 2123.752   $ Sizing
 "CRtdFlo_Sys_M_LobWait_C" = 4462.997   $ Sizing
 "CRtdFlo_Sys_M_MechElec_C" = 1182.053   $ Sizing
 "CRtdFlo_Sys_M_OfficeOpn_C" = 14669.95   $ Sizing
 "CRtdFlo_Sys_M_OfficeOpn_E" = 13650.72   $ Sizing
 "CRtdFlo_Sys_M_OfficeOpn_N" = 10249.79   $ Sizing
 "CRtdFlo_Sys_M_OfficeOpn_S" = 13469.52   $ Sizing
 "CRtdFlo_Sys_M_OfficeOpn_W" = 14924.16   $ Sizing
 "CRtdFlo_Sys_M_OfficeSm_C" = 2126.753   $ Sizing
 "CRtdFlo_Sys_M_OfficeSm_E" = 9573.915   $ Sizing
 "CRtdFlo_Sys_M_OfficeSm_N" = 6654.324   $ Sizing
 "CRtdFlo_Sys_M_OfficeSm_S" = 9481.625   $ Sizing
 "CRtdFlo_Sys_M_OfficeSm_W" = 10277.84   $ Sizing
 "CRtdFlo_Sys_M_Restrm_C" = 756.4378   $ Sizing
 "CRtdFlo_Sys_M_StorSm_C" = 3096.189   $ Sizing
 "CRtdFlo_Sys_T_Break_C" = 539.2233   $ Sizing
 "CRtdFlo_Sys_T_Conf_C" = 515.7808   $ Sizing
 "CRtdFlo_Sys_T_CopyRm_C" = 160.6627   $ Sizing
 "CRtdFlo_Sys_T_Cordr_C" = 791.2065   $ Sizing
 "CRtdFlo_Sys_T_Cordr_E" = 254.679   $ Sizing
 "CRtdFlo_Sys_T_Cordr_N" = 185.1959   $ Sizing
 "CRtdFlo_Sys_T_Cordr_S" = 241.1329   $ Sizing
 "CRtdFlo_Sys_T_Cordr_W" = 270.0203   $ Sizing
 "CRtdFlo_Sys_T_LobWait_C" = 553.5063   $ Sizing
 "CRtdFlo_Sys_T_MechElec_C" = 176.9205   $ Sizing
 "CRtdFlo_Sys_T_OfficeOpn_C" = 1895.37   $ Sizing
 "CRtdFlo_Sys_T_OfficeOpn_E" = 1708.877   $ Sizing
 "CRtdFlo_Sys_T_OfficeOpn_N" = 1317.046   $ Sizing
 "CRtdFlo_Sys_T_OfficeOpn_S" = 1684.643   $ Sizing
 "CRtdFlo_Sys_T_OfficeOpn_W" = 1873.538   $ Sizing
 "CRtdFlo_Sys_T_OfficeSm_C" = 246.6214   $ Sizing
 "CRtdFlo_Sys_T_OfficeSm_E" = 1224.145   $ Sizing
 "CRtdFlo_Sys_T_OfficeSm_N" = 860.9438   $ Sizing
 "CRtdFlo_Sys_T_OfficeSm_S" = 1201.438   $ Sizing
 "CRtdFlo_Sys_T_OfficeSm_W" = 1319.904   $ Sizing
 "CRtdFlo_Sys_T_Restrm_C" = 146.3168   $ Sizing
 "CRtdFlo_Sys_T_StorSm_C" = 286.0977   $ Sizing
 "CSupFlo_Sys_L_Break_C" = 537.4113   $ Sizing
 "CSupFlo_Sys_L_Conf_C" = 519.5115   $ Sizing
 "CSupFlo_Sys_L_CopyRm_C" = 166.4081   $ Sizing
 "CSupFlo_Sys_L_Cordr_C" = 633.5084   $ Sizing
 "CSupFlo_Sys_L_Cordr_E" = 220.4718   $ Sizing
 "CSupFlo_Sys_L_Cordr_N" = 161.2311   $ Sizing
 "CSupFlo_Sys_L_Cordr_S" = 217.0993   $ Sizing
 "CSupFlo_Sys_L_Cordr_W" = 248.5025   $ Sizing
 "CSupFlo_Sys_L_LobWait_C" = 534.6995   $ Sizing
 "CSupFlo_Sys_L_MechElec_C" = 113.1103   $ Sizing
 "CSupFlo_Sys_L_OfficeOpn_C" = 1815.137   $ Sizing
 "CSupFlo_Sys_L_OfficeOpn_E" = 1573.303   $ Sizing
 "CSupFlo_Sys_L_OfficeOpn_N" = 1203.887   $ Sizing
 "CSupFlo_Sys_L_OfficeOpn_S" = 1574.489   $ Sizing
 "CSupFlo_Sys_L_OfficeOpn_W" = 1804.283   $ Sizing
 "CSupFlo_Sys_L_OfficeSm_C" = 230.1938   $ Sizing
 "CSupFlo_Sys_L_OfficeSm_E" = 1116.391   $ Sizing
 "CSupFlo_Sys_L_OfficeSm_N" = 786.1195   $ Sizing
 "CSupFlo_Sys_L_OfficeSm_S" = 1116.728   $ Sizing
 "CSupFlo_Sys_L_OfficeSm_W" = 1253.862   $ Sizing
 "CSupFlo_Sys_L_Restrm_C" = 87.87917   $ Sizing
 "CSupFlo_Sys_L_StorSm_C" = 357.8372   $ Sizing
 "CSupFlo_Sys_M_Break_C" = 4354.724   $ Sizing
 "CSupFlo_Sys_M_Conf_C" = 4173.995   $ Sizing
 "CSupFlo_Sys_M_CopyRm_C" = 1292.509   $ Sizing
 "CSupFlo_Sys_M_Cordr_C" = 6684.195   $ Sizing
 "CSupFlo_Sys_M_Cordr_E" = 2055.334   $ Sizing
 "CSupFlo_Sys_M_Cordr_N" = 1450.623   $ Sizing
 "CSupFlo_Sys_M_Cordr_S" = 1954.256   $ Sizing
 "CSupFlo_Sys_M_Cordr_W" = 2123.752   $ Sizing
 "CSupFlo_Sys_M_LobWait_C" = 4462.997   $ Sizing
 "CSupFlo_Sys_M_MechElec_C" = 1182.053   $ Sizing
 "CSupFlo_Sys_M_OfficeOpn_C" = 14669.95   $ Sizing
 "CSupFlo_Sys_M_OfficeOpn_E" = 13650.72   $ Sizing
 "CSupFlo_Sys_M_OfficeOpn_N" = 10249.79   $ Sizing
 "CSupFlo_Sys_M_OfficeOpn_S" = 13469.52   $ Sizing
 "CSupFlo_Sys_M_OfficeOpn_W" = 14924.16   $ Sizing
 "CSupFlo_Sys_M_OfficeSm_C" = 2126.753   $ Sizing
 "CSupFlo_Sys_M_OfficeSm_E" = 9573.915   $ Sizing
 "CSupFlo_Sys_M_OfficeSm_N" = 6654.324   $ Sizing
 "CSupFlo_Sys_M_OfficeSm_S" = 9481.625   $ Sizing
 "CSupFlo_Sys_M_OfficeSm_W" = 10277.84   $ Sizing
 "CSupFlo_Sys_M_Restrm_C" = 756.4378   $ Sizing
 "CSupFlo_Sys_M_StorSm_C" = 3096.189   $ Sizing
 "CSupFlo_Sys_T_Break_C" = 539.2233   $ Sizing
 "CSupFlo_Sys_T_Conf_C" = 515.7808   $ Sizing
 "CSupFlo_Sys_T_CopyRm_C" = 160.6627   $ Sizing
 "CSupFlo_Sys_T_Cordr_C" = 791.2065   $ Sizing
 "CSupFlo_Sys_T_Cordr_E" = 254.679   $ Sizing
 "CSupFlo_Sys_T_Cordr_N" = 185.1959   $ Sizing
 "CSupFlo_Sys_T_Cordr_S" = 241.1329   $ Sizing
 "CSupFlo_Sys_T_Cordr_W" = 270.0203   $ Sizing
 "CSupFlo_Sys_T_LobWait_C" = 553.5063   $ Sizing
 "CSupFlo_Sys_T_MechElec_C" = 176.9205   $ Sizing
 "CSupFlo_Sys_T_OfficeOpn_C" = 1895.37   $ Sizing
 "CSupFlo_Sys_T_OfficeOpn_E" = 1708.877   $ Sizing
 "CSupFlo_Sys_T_OfficeOpn_N" = 1317.046   $ Sizing
 "CSupFlo_Sys_T_OfficeOpn_S" = 1684.643   $ Sizing
 "CSupFlo_Sys_T_OfficeOpn_W" = 1873.538   $ Sizing
 "CSupFlo_Sys_T_OfficeSm_C" = 246.6214   $ Sizing
 "CSupFlo_Sys_T_OfficeSm_E" = 1224.145   $ Sizing
 "CSupFlo_Sys_T_OfficeSm_N" = 860.9438   $ Sizing
 "CSupFlo_Sys_T_OfficeSm_S" = 1201.438   $ Sizing
 "CSupFlo_Sys_T_OfficeSm_W" = 1319.904   $ Sizing
 "CSupFlo_Sys_T_Restrm_C" = 146.3168   $ Sizing
 "CSupFlo_Sys_T_StorSm_C" = 286.0977   $ Sizing
 "ClCap_Sys_L_Break_C" = 18414.07   $ Sizing
 "ClCap_Sys_L_Conf_C" = 22655.49   $ Sizing
 "ClCap_Sys_L_CopyRm_C" = 5701.871   $ Sizing
 "ClCap_Sys_L_Cordr_C" = 21706.78   $ Sizing
 "ClCap_Sys_L_Cordr_E" = 7554.333   $ Sizing
 "ClCap_Sys_L_Cordr_N" = 5524.484   $ Sizing
 "ClCap_Sys_L_Cordr_S" = 7438.774   $ Sizing
 "ClCap_Sys_L_Cordr_W" = 8514.786   $ Sizing
 "ClCap_Sys_L_LobWait_C" = 18321.15   $ Sizing
 "ClCap_Sys_L_MechElec_C" = 3875.656   $ Sizing
 "ClCap_Sys_L_OfficeOpn_C" = 62194.54   $ Sizing
 "ClCap_Sys_L_OfficeOpn_E" = 53908.26   $ Sizing
 "ClCap_Sys_L_OfficeOpn_N" = 41250.47   $ Sizing
 "ClCap_Sys_L_OfficeOpn_S" = 53948.89   $ Sizing
 "ClCap_Sys_L_OfficeOpn_W" = 61822.64   $ Sizing
 "ClCap_Sys_L_OfficeSm_C" = 7887.449   $ Sizing
 "ClCap_Sys_L_OfficeSm_E" = 38252.45   $ Sizing
 "ClCap_Sys_L_OfficeSm_N" = 26935.9   $ Sizing
 "ClCap_Sys_L_OfficeSm_S" = 38264   $ Sizing
 "ClCap_Sys_L_OfficeSm_W" = 42962.8   $ Sizing
 "ClCap_Sys_L_Restrm_C" = 3011.126   $ Sizing
 "ClCap_Sys_L_StorSm_C" = 12261.07   $ Sizing
 "ClCap_Sys_M_Break_C" = 149211.9   $ Sizing
 "ClCap_Sys_M_Conf_C" = 182024.7   $ Sizing
 "ClCap_Sys_M_CopyRm_C" = 44287.03   $ Sizing
 "ClCap_Sys_M_Cordr_C" = 229029.9   $ Sizing
 "ClCap_Sys_M_Cordr_E" = 70424.77   $ Sizing
 "ClCap_Sys_M_Cordr_N" = 49704.71   $ Sizing
 "ClCap_Sys_M_Cordr_S" = 66961.38   $ Sizing
 "ClCap_Sys_M_Cordr_W" = 72769.08   $ Sizing
 "ClCap_Sys_M_LobWait_C" = 152921.8   $ Sizing
 "ClCap_Sys_M_MechElec_C" = 40502.31   $ Sizing
 "ClCap_Sys_M_OfficeOpn_C" = 502656.8   $ Sizing
 "ClCap_Sys_M_OfficeOpn_E" = 467733.6   $ Sizing
 "ClCap_Sys_M_OfficeOpn_N" = 351202.6   $ Sizing
 "ClCap_Sys_M_OfficeOpn_S" = 461524.8   $ Sizing
 "ClCap_Sys_M_OfficeOpn_W" = 511367.2   $ Sizing
 "ClCap_Sys_M_OfficeSm_C" = 72871.88   $ Sizing
 "ClCap_Sys_M_OfficeSm_E" = 328044.3   $ Sizing
 "ClCap_Sys_M_OfficeSm_N" = 228006.3   $ Sizing
 "ClCap_Sys_M_OfficeSm_S" = 324882.1   $ Sizing
 "ClCap_Sys_M_OfficeSm_W" = 352163.9   $ Sizing
 "ClCap_Sys_M_Restrm_C" = 25918.88   $ Sizing
 "ClCap_Sys_M_StorSm_C" = 106089   $ Sizing
 "ClCap_Sys_T_Break_C" = 18476.16   $ Sizing
 "ClCap_Sys_T_Conf_C" = 22492.8   $ Sizing
 "ClCap_Sys_T_CopyRm_C" = 5505.009   $ Sizing
 "ClCap_Sys_T_Cordr_C" = 27110.21   $ Sizing
 "ClCap_Sys_T_Cordr_E" = 8726.42   $ Sizing
 "ClCap_Sys_T_Cordr_N" = 6345.624   $ Sizing
 "ClCap_Sys_T_Cordr_S" = 8262.271   $ Sizing
 "ClCap_Sys_T_Cordr_W" = 9252.081   $ Sizing
 "ClCap_Sys_T_LobWait_C" = 18965.55   $ Sizing
 "ClCap_Sys_T_MechElec_C" = 6062.072   $ Sizing
 "ClCap_Sys_T_OfficeOpn_C" = 64943.68   $ Sizing
 "ClCap_Sys_T_OfficeOpn_E" = 58553.63   $ Sizing
 "ClCap_Sys_T_OfficeOpn_N" = 45127.77   $ Sizing
 "ClCap_Sys_T_OfficeOpn_S" = 57723.26   $ Sizing
 "ClCap_Sys_T_OfficeOpn_W" = 64195.63   $ Sizing
 "ClCap_Sys_T_OfficeSm_C" = 8450.332   $ Sizing
 "ClCap_Sys_T_OfficeSm_E" = 41944.57   $ Sizing
 "ClCap_Sys_T_OfficeSm_N" = 29499.71   $ Sizing
 "ClCap_Sys_T_OfficeSm_S" = 41166.53   $ Sizing
 "ClCap_Sys_T_OfficeSm_W" = 45225.72   $ Sizing
 "ClCap_Sys_T_Restrm_C" = 5013.455   $ Sizing
 "ClCap_Sys_T_StorSm_C" = 9802.963   $ Sizing
 "HtCap_Sys_L_Break_C" = -30988.9   $ Sizing
 "HtCap_Sys_L_Conf_C" = -31170.55   $ Sizing
 "HtCap_Sys_L_CopyRm_C" = -11098.2   $ Sizing
 "HtCap_Sys_L_Cordr_C" = -30133.47   $ Sizing
 "HtCap_Sys_L_Cordr_E" = -9377.412   $ Sizing
 "HtCap_Sys_L_Cordr_N" = -6831.378   $ Sizing
 "HtCap_Sys_L_Cordr_S" = -8971.745   $ Sizing
 "HtCap_Sys_L_Cordr_W" = -9195.792   $ Sizing
 "HtCap_Sys_L_LobWait_C" = -29860.06   $ Sizing
 "HtCap_Sys_L_MechElec_C" = -6613.394   $ Sizing
 "HtCap_Sys_L_OfficeOpn_C" = -88942.05   $ Sizing
 "HtCap_Sys_L_OfficeOpn_E" = -64689.01   $ Sizing
 "HtCap_Sys_L_OfficeOpn_N" = -46431.54   $ Sizing
 "HtCap_Sys_L_OfficeOpn_S" = -62801.55   $ Sizing
 "HtCap_Sys_L_OfficeOpn_W" = -63588.61   $ Sizing
 "HtCap_Sys_L_OfficeSm_C" = -10432.9   $ Sizing
 "HtCap_Sys_L_OfficeSm_E" = -46218.41   $ Sizing
 "HtCap_Sys_L_OfficeSm_N" = -30259.66   $ Sizing
 "HtCap_Sys_L_OfficeSm_S" = -45434.09   $ Sizing
 "HtCap_Sys_L_OfficeSm_W" = -45345.24   $ Sizing
 "HtCap_Sys_L_Restrm_C" = -7705.192   $ Sizing
 "HtCap_Sys_L_StorSm_C" = -19301.94   $ Sizing
 "HtCap_Sys_M_Break_C" = -238787.4   $ Sizing
 "HtCap_Sys_M_Conf_C" = -240452.1   $ Sizing
 "HtCap_Sys_M_CopyRm_C" = -75863.2   $ Sizing
 "HtCap_Sys_M_Cordr_C" = -320279.6   $ Sizing
 "HtCap_Sys_M_Cordr_E" = -86186.79   $ Sizing
 "HtCap_Sys_M_Cordr_N" = -57664.5   $ Sizing
 "HtCap_Sys_M_Cordr_S" = -79998.03   $ Sizing
 "HtCap_Sys_M_Cordr_W" = -77596.24   $ Sizing
 "HtCap_Sys_M_LobWait_C" = -226676.9   $ Sizing
 "HtCap_Sys_M_MechElec_C" = -63864.39   $ Sizing
 "HtCap_Sys_M_OfficeOpn_C" = -659192.2   $ Sizing
 "HtCap_Sys_M_OfficeOpn_E" = -558657.8   $ Sizing
 "HtCap_Sys_M_OfficeOpn_N" = -387041.6   $ Sizing
 "HtCap_Sys_M_OfficeOpn_S" = -537896.5   $ Sizing
 "HtCap_Sys_M_OfficeOpn_W" = -524390.8   $ Sizing
 "HtCap_Sys_M_OfficeSm_C" = -98991.08   $ Sizing
 "HtCap_Sys_M_OfficeSm_E" = -394590   $ Sizing
 "HtCap_Sys_M_OfficeSm_N" = -251315.7   $ Sizing
 "HtCap_Sys_M_OfficeSm_S" = -385940.9   $ Sizing
 "HtCap_Sys_M_OfficeSm_W" = -375802.1   $ Sizing
 "HtCap_Sys_M_Restrm_C" = -66664.55   $ Sizing
 "HtCap_Sys_M_StorSm_C" = -161432.3   $ Sizing
 "HtCap_Sys_T_Break_C" = -32381.99   $ Sizing
 "HtCap_Sys_T_Conf_C" = -31665.75   $ Sizing
 "HtCap_Sys_T_CopyRm_C" = -10565.67   $ Sizing
 "HtCap_Sys_T_Cordr_C" = -41091.9   $ Sizing
 "HtCap_Sys_T_Cordr_E" = -11421.37   $ Sizing
 "HtCap_Sys_T_Cordr_N" = -8829.576   $ Sizing
 "HtCap_Sys_T_Cordr_S" = -11087.09   $ Sizing
 "HtCap_Sys_T_Cordr_W" = -11735   $ Sizing
 "HtCap_Sys_T_LobWait_C" = -30978.18   $ Sizing
 "HtCap_Sys_T_MechElec_C" = -9215.921   $ Sizing
 "HtCap_Sys_T_OfficeOpn_C" = -87926.92   $ Sizing
 "HtCap_Sys_T_OfficeOpn_E" = -74177.2   $ Sizing
 "HtCap_Sys_T_OfficeOpn_N" = -58944.95   $ Sizing
 "HtCap_Sys_T_OfficeOpn_S" = -75418.19   $ Sizing
 "HtCap_Sys_T_OfficeOpn_W" = -75975.01   $ Sizing
 "HtCap_Sys_T_OfficeSm_C" = -12934.22   $ Sizing
 "HtCap_Sys_T_OfficeSm_E" = -54119.24   $ Sizing
 "HtCap_Sys_T_OfficeSm_N" = -38328.34   $ Sizing
 "HtCap_Sys_T_OfficeSm_S" = -54733.56   $ Sizing
 "HtCap_Sys_T_OfficeSm_W" = -53722.06   $ Sizing
 "HtCap_Sys_T_Restrm_C" = -9057.715   $ Sizing
 "HtCap_Sys_T_StorSm_C" = -18140.49   $ Sizing
..

##include Templates\OfL_DX_SZ.inp
END ..
COMPUTE ..
STOP ..
