INPUT ..

##fileprefix C:\Users\jglasskatz\MASControl3\
##set1 IsSizing FALSE
##set1 CoolType DX
##set1 HeatType FURNACE
##set1 EU_HrRepVar 0
##set1 BldgVint 2011
##set1 BldgLoc CZ06

 ##set1 mBFMult 1   $ IP Tech: RefgChg-NRes-Std

PARAMETER
 "AltFactor" = 1.00328   $ IP Non-Tech
 "BF_fFlow" = SpltAC2SpHiSEER_BF_fFlow   $ Msr (Multi)TechID: MsrNResSplitAC-45to55-S17
 "BF_fT" = SpltAC2SpHiSEER_BF_fT   $ Msr (Multi)TechID: MsrNResSplitAC-45to55-S17
 "BldgEconoFlag" = 1   $ IP Non-Tech
 "Break_EWSF" = 1   $ IP Non-Tech
 "Break_LWSF" = 1.1   $ IP Non-Tech
 "CDD_DBHi10" = 87   $ IP Non-Tech
 "CDD_DBHi7" = 80   $ IP Non-Tech
 "CDD_DBHi8" = 78   $ IP Non-Tech
 "CDD_DBHi9" = 84   $ IP Non-Tech
 "CDD_DBRange10" = 30   $ IP Non-Tech
 "CDD_DBRange7" = 11   $ IP Non-Tech
 "CDD_DBRange8" = 11   $ IP Non-Tech
 "CDD_DBRange9" = 16   $ IP Non-Tech
 "CDD_Day10" = 15   $ IP Non-Tech
 "CDD_Day7" = 16   $ IP Non-Tech
 "CDD_Day8" = 20   $ IP Non-Tech
 "CDD_Day9" = 17   $ IP Non-Tech
 "CDD_HrHi10" = 12   $ IP Non-Tech
 "CDD_HrHi7" = 13   $ IP Non-Tech
 "CDD_HrHi8" = 13   $ IP Non-Tech
 "CDD_HrHi9" = 17   $ IP Non-Tech
 "CDD_HrLo10" = 3   $ IP Non-Tech
 "CDD_HrLo7" = 3   $ IP Non-Tech
 "CDD_HrLo8" = 3   $ IP Non-Tech
 "CDD_HrLo9" = 3   $ IP Non-Tech
 "CDD_WB10" = 65.31027985   $ IP Non-Tech
 "CDD_WB7" = 69.10741425   $ IP Non-Tech
 "CDD_WB8" = 67.58412933   $ IP Non-Tech
 "CDD_WB9" = 69.6863327   $ IP Non-Tech
 "CEIR_fPLR_Hot" = SpltAC2SpHiSEER_CEIR_fPLR_Hot   $ Msr (Multi)TechID: MsrNResSplitAC-45to55-S17
 "CEIR_fPLR_Mod" = SpltAC2SpHiSEER_CEIR_fPLR_Mod   $ Msr (Multi)TechID: MsrNResSplitAC-45to55-S17
 "CEIR_fPLR_Tem" = SpltAC2SpHiSEER_CEIR_fPLR_Tem   $ Msr (Multi)TechID: MsrNResSplitAC-45to55-S17
 "CLoss_fPLR_Hot" = SpltAC2SpHiSEER_CLoss_fPLR_Hot   $ Msr (Multi)TechID: MsrNResSplitAC-45to55-S17
 "CLoss_fPLR_Mod" = SpltAC2SpHiSEER_CLoss_fPLR_Mod   $ Msr (Multi)TechID: MsrNResSplitAC-45to55-S17
 "CLoss_fPLR_Tem" = SpltAC2SpHiSEER_CLoss_fPLR_Tem   $ Msr (Multi)TechID: MsrNResSplitAC-45to55-S17
 "COP47" = 0   $ Msr (Multi)TechID: MsrNResSplitAC-45to55-S17
 "CZ_Category" = Tem   $ IP Non-Tech
 "CapRange" = Any   $ Msr (Multi)TechID: MsrNResSplitAC-45to55-S17
 "CfmPerBtuh" = 0.03   $ Msr (Multi)TechID: MsrNResSplitAC-45to55-S17
 "ChwVintEconoFlag" = 1   $ IP Non-Tech
 "ClCap_fT" = SpltAC2SpHiSEER_ClCap_fT   $ Msr (Multi)TechID: MsrNResSplitAC-45to55-S17
 "ClSH_fT" = SpltAC2SpHiSEER_ClSH_fT   $ Msr (Multi)TechID: MsrNResSplitAC-45to55-S17
 "CoilBF" = 0.102   $ Msr (Multi)TechID: MsrNResSplitAC-45to55-S17
 "CondWPerBtuh" = 0   $ Msr (Multi)TechID: MsrNResSplitAC-45to55-S17
 "Conference_EWSF" = 1   $ IP Non-Tech
 "Conference_LWSF" = 1.4   $ IP Non-Tech
 "CoolSensCap" = 0.724   $ Msr (Multi)TechID: MsrNResSplitAC-45to55-S17
 "CoolSetT" = 45   $ IP Non-Tech
 "CoolType" = DX   $ IP Non-Tech
 "CoolingEIR" = 0.2225   $ Msr (Multi)TechID: MsrNResSplitAC-45to55-S17
 "CopyRoom_EWSF" = 1.5   $ IP Non-Tech
 "CopyRoom_LWSF" = 1.3   $ IP Non-Tech
 "CorridorStairway_EWSF" = 0.2   $ IP Non-Tech
 "CorridorStairway_LWSF" = 0.6   $ IP Non-Tech
 "CrnkEIR" = 0.002225   $ Msr (Multi)TechID: MsrNResSplitAC-45to55-S17
 "CrnkMaxT" = 50   $ Msr (Multi)TechID: MsrNResSplitAC-45to55-S17
 "DXType" = SplitSEER   $ Msr (Multi)TechID: MsrNResSplitAC-45to55-S17
 "DesCoolT" = 75   $ IP Non-Tech
 "DesHeatT" = 73   $ IP Non-Tech
 "EER" = 13.26   $ Msr (Multi)TechID: MsrNResSplitAC-45to55-S17
 "EIR_fT" = SpltAC2SpHiSEER_EIR_fT   $ Msr (Multi)TechID: MsrNResSplitAC-45to55-S17
 "EconoCtrl" = FIXED   $ Msr (Multi)TechID: MsrNResSplitAC-45to55-S17
 "EconoEnthLimit" = 28   $ IP Non-Tech
 "EconoTempLimit" = 71   $ IP Non-Tech
 "Elevation" = 88   $ IP Non-Tech
 "FanEirPlr" = TwoSpeedFan   $ Msr (Multi)TechID: MsrNResSplitAC-45to55-S17
 "FanWPerCfm" = 0.271   $ Msr (Multi)TechID: MsrNResSplitAC-45to55-S17
 "HDD_CloudAmt1" = 0   $ IP Non-Tech
 "HDD_DBHi1" = 58   $ IP Non-Tech
 "HDD_DBRange1" = 21   $ IP Non-Tech
 "HDD_Day1" = 15   $ IP Non-Tech
 "HDD_HrHi1" = 13   $ IP Non-Tech
 "HDD_HrLo1" = 4   $ IP Non-Tech
 "HDD_WB1" = 52.8   $ IP Non-Tech
 "HDD_WindSpd1" = 10.4   $ IP Non-Tech
 "HIR_fT" = 0   $ Msr (Multi)TechID: MsrNResSplitAC-45to55-S17
 "HSPF" = 0   $ Msr (Multi)TechID: MsrNResSplitAC-45to55-S17
 "HeatSrc" = FURNACE   $ IP Non-Tech
 "HeatSrcTU" = HEAT-PUMP   $ IP Non-Tech
 "HeatType" = GasFurn   $ IP Non-Tech
 "HeatTypeTU" = HEAT-PUMP   $ IP Non-Tech
 "HtCap_fT" = 0   $ Msr (Multi)TechID: MsrNResSplitAC-45to55-S17
 "HtCoolCapRatio" = 0   $ Msr (Multi)TechID: MsrNResSplitAC-45to55-S17
 "HtgEIR" = 0   $ Msr (Multi)TechID: MsrNResSplitAC-45to55-S17
 "IndoorFanMode" = CONTINUOUS   $ IP Non-Tech
 "KT_TransferAir" = No   $ IP Non-Tech
 "Latitude" = 33.9   $ IP Non-Tech
 "LobbyWaiting_EWSF" = 0.5   $ IP Non-Tech
 "LobbyWaiting_LWSF" = 1.3   $ IP Non-Tech
 "Longitude" = 118.4   $ IP Non-Tech
 "LowSpdCapRatio" = 0.686   $ Msr (Multi)TechID: MsrNResSplitAC-45to55-S17
 "LowSpdCfmRatio" = 0.739   $ Msr (Multi)TechID: MsrNResSplitAC-45to55-S17
 "MZFanMechEff" = 0.58   $ IP Non-Tech
 "MZHasRetFan" = FALSE   $ IP Non-Tech
 "MZ_RFanWPerCfm" = 0.37   $ IP Non-Tech
 "MZ_SFanWPerCfm" = 0.71   $ IP Non-Tech
 "MZ_SupFanStatic" = 2.25   $ IP Non-Tech
 "MaxOAFrac" = 1   $ Msr (Multi)TechID: MsrNResSplitAC-45to55-S17
 "MaxSupT_MZ" = 100   $ IP Non-Tech
 "MaxSupT_SZ" = 100   $ IP Non-Tech
 "MaxSupT_TU" = 90   $ IP Non-Tech
 "MechElecRoom_EWSF" = 0.2   $ IP Non-Tech
 "MechElecRoom_LWSF" = 0.7   $ IP Non-Tech
 "MinCfmPerSF" = 0.4   $ IP Non-Tech
 "MinSupT" = 55   $ IP Non-Tech
 "NumStages" = 2   $ Msr (Multi)TechID: MsrNResSplitAC-45to55-S17
 "OccCoolT" = 76   $ IP Non-Tech
 "OccHeatT" = 72   $ IP Non-Tech
 "OfficeOpen_EWSF" = 1.5   $ IP Non-Tech
 "OfficeOpen_LWSF" = 1.1   $ IP Non-Tech
 "OfficeSmall_EWSF" = 1.5   $ IP Non-Tech
 "OfficeSmall_LWSF" = 1.3   $ IP Non-Tech
 "PkgDxVintEconoFlag" = 0   $ IP Non-Tech
 "Restroom_EWSF" = 0.2   $ IP Non-Tech
 "Restroom_LWSF" = 0.6   $ IP Non-Tech
 "SEER" = 17   $ Msr (Multi)TechID: MsrNResSplitAC-45to55-S17
 "SZFanMechEff" = 0.58   $ IP Non-Tech
 "SZHasRetFan" = FALSE   $ IP Non-Tech
 "SZ_Is_2Spd" = FALSE   $ IP Non-Tech
 "SZ_SFanWPerCfm" = 0.46   $ IP Non-Tech
 "SZ_SupFanStatic" = 0.75   $ IP Non-Tech
 "Sector" = Any   $ Msr (Multi)TechID: MsrNResSplitAC-45to55-S17
 "StorageSmlCond_EWSF" = 0.2   $ IP Non-Tech
 "StorageSmlCond_LWSF" = 0.6   $ IP Non-Tech
 "SubType" = AC   $ Msr (Multi)TechID: MsrNResSplitAC-45to55-S17
 "T24GlzTbl" = CZTbl   $ IP Non-Tech
 "TermUnitFanMechEff" = 1   $ IP Non-Tech
 "TermUnitFanMode" = INTERMITTENT   $ IP Non-Tech
 "TotCoolCap" = 58805   $ Msr (Multi)TechID: MsrNResSplitAC-45to55-S17
 "TwrSetpt" = 80   $ IP Non-Tech
 "UnocCoolT" = 86   $ IP Non-Tech
 "UnocHeatT" = 62   $ IP Non-Tech
 "UseEconoVintApplic" = FALSE   $ Msr (Multi)TechID: MsrNResSplitAC-45to55-S17
 "WlhpVintEconoFlag" = 0   $ IP Non-Tech
 "DuctDT" = 1   $ IP Tech: ComDuctInsul-1
 "DuctAirLoss" = 0   $ IP Tech: ComDuctLeak-0
 "DuctLossOAFrac" = 0   $ IP Tech: ComDuctLeak-0
 "ComRoofInsCalc" = FromUo   $ IP Tech: ComRoofIns-Hvy-0.08
 "ComRoofInsR" = -999   $ IP Tech: ComRoofIns-Hvy-0.08
 "ComRoofUo" = 0.08   $ IP Tech: ComRoofIns-Hvy-0.08
 "ComEWInsCalc" = FromUo   $ IP Tech: ComWallIns-MFrm-0.1
 "ComEWInsR" = -999   $ IP Tech: ComWallIns-MFrm-0.1
 "ComEWUo" = 0.1   $ IP Tech: ComWallIns-MFrm-0.1
 "ComN_SHGC" = 0.61   $ IP Tech: NResWin-ComN-0.77-0.61
 "ComN_UFactor" = 0.77   $ IP Tech: NResWin-ComN-0.77-0.61
 "ComN_VisTrans" = 0.77   $ IP Tech: NResWin-ComN-0.77-0.61
 "ComN_WinCode" = G2600   $ IP Tech: NResWin-ComN-0.77-0.61
 "ComN_WinFrmFrac" = 0.17   $ IP Tech: NResWin-ComN-0.77-0.61
 "ComN_WinFrmU" = 1   $ IP Tech: NResWin-ComN-0.77-0.61
 "ComO_SHGC" = 0.34   $ IP Tech: NResWin-ComO-0.77-0.34
 "ComO_UFactor" = 0.77   $ IP Tech: NResWin-ComO-0.77-0.34
 "ComO_VisTrans" = 0.44   $ IP Tech: NResWin-ComO-0.77-0.34
 "ComO_WinCode" = G2636   $ IP Tech: NResWin-ComO-0.77-0.34
 "ComO_WinFrmFrac" = 0.17   $ IP Tech: NResWin-ComO-0.77-0.34
 "ComO_WinFrmU" = 1   $ IP Tech: NResWin-ComO-0.77-0.34
 "LtgMsrApplic" = ALL   $ IP Tech: NonResLtgRefPre
 "LtgSav_CFL" = 0   $ IP Tech: NonResLtgRefPre
 "LtgSav_EX" = 0   $ IP Tech: NonResLtgRefPre
 "LtgSav_HB" = 0   $ IP Tech: NonResLtgRefPre
 "LtgSav_LF" = 0   $ IP Tech: NonResLtgRefPre
 "LtgSav_SP" = 0   $ IP Tech: NonResLtgRefPre
 "CEIR_fPLR" = PSZ65to135_CEIR_fPLR   $ IP Tech: PkgAC1SpH-65to135-E11
 "CLoss_fPLR" = PSZ65to135_CLoss_fPLR   $ IP Tech: PkgAC1SpH-65to135-E11
 "COP" = -1   $ IP Tech: PkgAC1SpH-65to135-E11
 "HtgFuel" = Gas   $ IP Tech: PkgAC1SpH-65to135-E11
 "IEER" = 13.35   $ IP Tech: PkgAC1SpH-65to135-E11
 "NominalCap" = 15   $ IP Tech: PkgAC1SpH-65to135-E11
 "RatedEER" = 11   $ IP Tech: PkgAC1SpH-65to135-E11
 "RatedSupMtrClass" = HiEff   $ IP Tech: PkgAC1SpH-65to135-E11
 "SizeRange" = 65to135   $ IP Tech: PkgAC1SpH-65to135-E11
 "SupMotEff" = 0.84   $ IP Tech: PkgAC1SpH-65to135-E11
 "Tier" = 0   $ IP Tech: PkgAC1SpH-65to135-E11
 "FanPwrMult" = 1   $ IP Tech: PkgFurn-0.80AFUE
 "FurnAFUE" = 0.8   $ IP Tech: PkgFurn-0.80AFUE
 "FurnEt" = 0.82   $ IP Tech: PkgFurn-0.80AFUE
 "FurnaceAuxKW" = 0.1   $ IP Tech: PkgFurn-0.80AFUE
 "HIR_fPLR" = Furnace-HIR-fPLR   $ IP Tech: PkgFurn-0.80AFUE
 "VSM" = FALSE   $ IP Tech: PkgFurn-0.80AFUE
 "BFMult" = 1   $ IP Tech: RefgChg-NRes-Std
 "CoolEirMult" = 1   $ IP Tech: RefgChg-NRes-Std
 "SensCoolCapMult" = 1   $ IP Tech: RefgChg-NRes-Std
 "TotCoolCapMult" = 1   $ IP Tech: RefgChg-NRes-Std
 "AltAdjFactor" = 1.003277   $ Sizing
 "CAssFlo_L_Break_CZn" = 375.3777   $ Sizing
 "CAssFlo_L_Conf_CZn" = 447.0642   $ Sizing
 "CAssFlo_L_CopyRm_CZn" = 117.467   $ Sizing
 "CAssFlo_L_Cordr_CZn" = 584.6695   $ Sizing
 "CAssFlo_L_Cordr_EZn" = 255.1184   $ Sizing
 "CAssFlo_L_Cordr_NZn" = 116.5913   $ Sizing
 "CAssFlo_L_Cordr_SZn" = 258.7844   $ Sizing
 "CAssFlo_L_Cordr_WZn" = 245.1849   $ Sizing
 "CAssFlo_L_LobWait_CZn" = 398.1453   $ Sizing
 "CAssFlo_L_MechElec_CZn" = 135.6586   $ Sizing
 "CAssFlo_L_OfficeOpn_CZn" = 1711.251   $ Sizing
 "CAssFlo_L_OfficeOpn_EZn" = 1897.369   $ Sizing
 "CAssFlo_L_OfficeOpn_NZn" = 1017.214   $ Sizing
 "CAssFlo_L_OfficeOpn_SZn" = 1882.416   $ Sizing
 "CAssFlo_L_OfficeOpn_WZn" = 1904.156   $ Sizing
 "CAssFlo_L_OfficeSm_CZn" = 237.0531   $ Sizing
 "CAssFlo_L_OfficeSm_EZn" = 1381.311   $ Sizing
 "CAssFlo_L_OfficeSm_NZn" = 666.8383   $ Sizing
 "CAssFlo_L_OfficeSm_SZn" = 1388.943   $ Sizing
 "CAssFlo_L_OfficeSm_WZn" = 1376.403   $ Sizing
 "CAssFlo_L_Restrm_CZn" = 210.9664   $ Sizing
 "CAssFlo_L_StorSm_CZn" = 407.6749   $ Sizing
 "CAssFlo_M_Break_CZn" = 414.6913   $ Sizing
 "CAssFlo_M_Conf_CZn" = 509.5104   $ Sizing
 "CAssFlo_M_CopyRm_CZn" = 149.9517   $ Sizing
 "CAssFlo_M_Cordr_CZn" = 945.6119   $ Sizing
 "CAssFlo_M_Cordr_EZn" = 308.239   $ Sizing
 "CAssFlo_M_Cordr_NZn" = 168.32   $ Sizing
 "CAssFlo_M_Cordr_SZn" = 297.4354   $ Sizing
 "CAssFlo_M_Cordr_WZn" = 273.3211   $ Sizing
 "CAssFlo_M_LobWait_CZn" = 528.4769   $ Sizing
 "CAssFlo_M_MechElec_CZn" = 180.5063   $ Sizing
 "CAssFlo_M_OfficeOpn_CZn" = 2091.499   $ Sizing
 "CAssFlo_M_OfficeOpn_EZn" = 2077.725   $ Sizing
 "CAssFlo_M_OfficeOpn_NZn" = 1155.019   $ Sizing
 "CAssFlo_M_OfficeOpn_SZn" = 2039.225   $ Sizing
 "CAssFlo_M_OfficeOpn_WZn" = 1988.896   $ Sizing
 "CAssFlo_M_OfficeSm_CZn" = 300.4187   $ Sizing
 "CAssFlo_M_OfficeSm_EZn" = 1499.499   $ Sizing
 "CAssFlo_M_OfficeSm_NZn" = 750.2076   $ Sizing
 "CAssFlo_M_OfficeSm_SZn" = 1487.846   $ Sizing
 "CAssFlo_M_OfficeSm_WZn" = 1430.265   $ Sizing
 "CAssFlo_M_Restrm_CZn" = 210.9664   $ Sizing
 "CAssFlo_M_StorSm_CZn" = 445.0346   $ Sizing
 "CAssFlo_T_Break_CZn" = 389.4939   $ Sizing
 "CAssFlo_T_Conf_CZn" = 471.1832   $ Sizing
 "CAssFlo_T_CopyRm_CZn" = 127.2789   $ Sizing
 "CAssFlo_T_Cordr_CZn" = 788.241   $ Sizing
 "CAssFlo_T_Cordr_EZn" = 271.8056   $ Sizing
 "CAssFlo_T_Cordr_NZn" = 146.5889   $ Sizing
 "CAssFlo_T_Cordr_SZn" = 269.7154   $ Sizing
 "CAssFlo_T_Cordr_WZn" = 246.2414   $ Sizing
 "CAssFlo_T_LobWait_CZn" = 471.9004   $ Sizing
 "CAssFlo_T_MechElec_CZn" = 219.6628   $ Sizing
 "CAssFlo_T_OfficeOpn_CZn" = 1823.773   $ Sizing
 "CAssFlo_T_OfficeOpn_EZn" = 1891.957   $ Sizing
 "CAssFlo_T_OfficeOpn_NZn" = 1056.742   $ Sizing
 "CAssFlo_T_OfficeOpn_SZn" = 1910.819   $ Sizing
 "CAssFlo_T_OfficeOpn_WZn" = 1838.156   $ Sizing
 "CAssFlo_T_OfficeSm_CZn" = 285.4801   $ Sizing
 "CAssFlo_T_OfficeSm_EZn" = 1411.893   $ Sizing
 "CAssFlo_T_OfficeSm_NZn" = 702.796   $ Sizing
 "CAssFlo_T_OfficeSm_SZn" = 1422.897   $ Sizing
 "CAssFlo_T_OfficeSm_WZn" = 1350.936   $ Sizing
 "CAssFlo_T_Restrm_CZn" = 210.9664   $ Sizing
 "CAssFlo_T_StorSm_CZn" = 332.6785   $ Sizing
 "CHRtFlo_Sys_L_Break_C" = 375.3777   $ Sizing
 "CHRtFlo_Sys_L_Conf_C" = 447.0642   $ Sizing
 "CHRtFlo_Sys_L_CopyRm_C" = 117.467   $ Sizing
 "CHRtFlo_Sys_L_Cordr_C" = 584.6695   $ Sizing
 "CHRtFlo_Sys_L_Cordr_E" = 255.1184   $ Sizing
 "CHRtFlo_Sys_L_Cordr_N" = 116.5913   $ Sizing
 "CHRtFlo_Sys_L_Cordr_S" = 258.7844   $ Sizing
 "CHRtFlo_Sys_L_Cordr_W" = 245.1849   $ Sizing
 "CHRtFlo_Sys_L_LobWait_C" = 398.1453   $ Sizing
 "CHRtFlo_Sys_L_MechElec_C" = 135.6586   $ Sizing
 "CHRtFlo_Sys_L_OfficeOpn_C" = 1711.251   $ Sizing
 "CHRtFlo_Sys_L_OfficeOpn_E" = 1897.369   $ Sizing
 "CHRtFlo_Sys_L_OfficeOpn_N" = 1017.214   $ Sizing
 "CHRtFlo_Sys_L_OfficeOpn_S" = 1882.416   $ Sizing
 "CHRtFlo_Sys_L_OfficeOpn_W" = 1904.156   $ Sizing
 "CHRtFlo_Sys_L_OfficeSm_C" = 237.0531   $ Sizing
 "CHRtFlo_Sys_L_OfficeSm_E" = 1381.311   $ Sizing
 "CHRtFlo_Sys_L_OfficeSm_N" = 666.8383   $ Sizing
 "CHRtFlo_Sys_L_OfficeSm_S" = 1388.943   $ Sizing
 "CHRtFlo_Sys_L_OfficeSm_W" = 1376.403   $ Sizing
 "CHRtFlo_Sys_L_Restrm_C" = 210.9664   $ Sizing
 "CHRtFlo_Sys_L_StorSm_C" = 407.6749   $ Sizing
 "CHRtFlo_Sys_M_Break_C" = 3317.53   $ Sizing
 "CHRtFlo_Sys_M_Conf_C" = 4076.083   $ Sizing
 "CHRtFlo_Sys_M_CopyRm_C" = 1199.613   $ Sizing
 "CHRtFlo_Sys_M_Cordr_C" = 7564.896   $ Sizing
 "CHRtFlo_Sys_M_Cordr_E" = 2465.912   $ Sizing
 "CHRtFlo_Sys_M_Cordr_N" = 1346.56   $ Sizing
 "CHRtFlo_Sys_M_Cordr_S" = 2379.483   $ Sizing
 "CHRtFlo_Sys_M_Cordr_W" = 2186.569   $ Sizing
 "CHRtFlo_Sys_M_LobWait_C" = 4227.815   $ Sizing
 "CHRtFlo_Sys_M_MechElec_C" = 1444.05   $ Sizing
 "CHRtFlo_Sys_M_OfficeOpn_C" = 16731.99   $ Sizing
 "CHRtFlo_Sys_M_OfficeOpn_E" = 16621.8   $ Sizing
 "CHRtFlo_Sys_M_OfficeOpn_N" = 9240.148   $ Sizing
 "CHRtFlo_Sys_M_OfficeOpn_S" = 16313.8   $ Sizing
 "CHRtFlo_Sys_M_OfficeOpn_W" = 15911.17   $ Sizing
 "CHRtFlo_Sys_M_OfficeSm_C" = 2403.35   $ Sizing
 "CHRtFlo_Sys_M_OfficeSm_E" = 11995.99   $ Sizing
 "CHRtFlo_Sys_M_OfficeSm_N" = 6001.661   $ Sizing
 "CHRtFlo_Sys_M_OfficeSm_S" = 11902.77   $ Sizing
 "CHRtFlo_Sys_M_OfficeSm_W" = 11442.12   $ Sizing
 "CHRtFlo_Sys_M_Restrm_C" = 1687.731   $ Sizing
 "CHRtFlo_Sys_M_StorSm_C" = 3560.277   $ Sizing
 "CHRtFlo_Sys_T_Break_C" = 389.4939   $ Sizing
 "CHRtFlo_Sys_T_Conf_C" = 471.1832   $ Sizing
 "CHRtFlo_Sys_T_CopyRm_C" = 127.2789   $ Sizing
 "CHRtFlo_Sys_T_Cordr_C" = 788.241   $ Sizing
 "CHRtFlo_Sys_T_Cordr_E" = 271.8056   $ Sizing
 "CHRtFlo_Sys_T_Cordr_N" = 146.5889   $ Sizing
 "CHRtFlo_Sys_T_Cordr_S" = 269.7154   $ Sizing
 "CHRtFlo_Sys_T_Cordr_W" = 246.2414   $ Sizing
 "CHRtFlo_Sys_T_LobWait_C" = 471.9004   $ Sizing
 "CHRtFlo_Sys_T_MechElec_C" = 219.6628   $ Sizing
 "CHRtFlo_Sys_T_OfficeOpn_C" = 1823.773   $ Sizing
 "CHRtFlo_Sys_T_OfficeOpn_E" = 1891.957   $ Sizing
 "CHRtFlo_Sys_T_OfficeOpn_N" = 1056.742   $ Sizing
 "CHRtFlo_Sys_T_OfficeOpn_S" = 1910.819   $ Sizing
 "CHRtFlo_Sys_T_OfficeOpn_W" = 1838.156   $ Sizing
 "CHRtFlo_Sys_T_OfficeSm_C" = 285.4801   $ Sizing
 "CHRtFlo_Sys_T_OfficeSm_E" = 1411.893   $ Sizing
 "CHRtFlo_Sys_T_OfficeSm_N" = 702.796   $ Sizing
 "CHRtFlo_Sys_T_OfficeSm_S" = 1422.897   $ Sizing
 "CHRtFlo_Sys_T_OfficeSm_W" = 1350.936   $ Sizing
 "CHRtFlo_Sys_T_Restrm_C" = 210.9664   $ Sizing
 "CHRtFlo_Sys_T_StorSm_C" = 332.6785   $ Sizing
 "CRtdFlo_Sys_L_Break_C" = 375.3777   $ Sizing
 "CRtdFlo_Sys_L_Conf_C" = 447.0642   $ Sizing
 "CRtdFlo_Sys_L_CopyRm_C" = 117.467   $ Sizing
 "CRtdFlo_Sys_L_Cordr_C" = 584.6695   $ Sizing
 "CRtdFlo_Sys_L_Cordr_E" = 255.1184   $ Sizing
 "CRtdFlo_Sys_L_Cordr_N" = 116.5913   $ Sizing
 "CRtdFlo_Sys_L_Cordr_S" = 258.7844   $ Sizing
 "CRtdFlo_Sys_L_Cordr_W" = 245.1849   $ Sizing
 "CRtdFlo_Sys_L_LobWait_C" = 398.1453   $ Sizing
 "CRtdFlo_Sys_L_MechElec_C" = 135.6586   $ Sizing
 "CRtdFlo_Sys_L_OfficeOpn_C" = 1711.251   $ Sizing
 "CRtdFlo_Sys_L_OfficeOpn_E" = 1897.369   $ Sizing
 "CRtdFlo_Sys_L_OfficeOpn_N" = 1017.214   $ Sizing
 "CRtdFlo_Sys_L_OfficeOpn_S" = 1882.416   $ Sizing
 "CRtdFlo_Sys_L_OfficeOpn_W" = 1904.156   $ Sizing
 "CRtdFlo_Sys_L_OfficeSm_C" = 237.0531   $ Sizing
 "CRtdFlo_Sys_L_OfficeSm_E" = 1381.311   $ Sizing
 "CRtdFlo_Sys_L_OfficeSm_N" = 666.8383   $ Sizing
 "CRtdFlo_Sys_L_OfficeSm_S" = 1388.943   $ Sizing
 "CRtdFlo_Sys_L_OfficeSm_W" = 1376.403   $ Sizing
 "CRtdFlo_Sys_L_Restrm_C" = 210.9664   $ Sizing
 "CRtdFlo_Sys_L_StorSm_C" = 407.6749   $ Sizing
 "CRtdFlo_Sys_M_Break_C" = 3317.53   $ Sizing
 "CRtdFlo_Sys_M_Conf_C" = 4076.083   $ Sizing
 "CRtdFlo_Sys_M_CopyRm_C" = 1199.613   $ Sizing
 "CRtdFlo_Sys_M_Cordr_C" = 7564.896   $ Sizing
 "CRtdFlo_Sys_M_Cordr_E" = 2465.912   $ Sizing
 "CRtdFlo_Sys_M_Cordr_N" = 1346.56   $ Sizing
 "CRtdFlo_Sys_M_Cordr_S" = 2379.483   $ Sizing
 "CRtdFlo_Sys_M_Cordr_W" = 2186.569   $ Sizing
 "CRtdFlo_Sys_M_LobWait_C" = 4227.815   $ Sizing
 "CRtdFlo_Sys_M_MechElec_C" = 1444.05   $ Sizing
 "CRtdFlo_Sys_M_OfficeOpn_C" = 16731.99   $ Sizing
 "CRtdFlo_Sys_M_OfficeOpn_E" = 16621.8   $ Sizing
 "CRtdFlo_Sys_M_OfficeOpn_N" = 9240.148   $ Sizing
 "CRtdFlo_Sys_M_OfficeOpn_S" = 16313.8   $ Sizing
 "CRtdFlo_Sys_M_OfficeOpn_W" = 15911.17   $ Sizing
 "CRtdFlo_Sys_M_OfficeSm_C" = 2403.35   $ Sizing
 "CRtdFlo_Sys_M_OfficeSm_E" = 11995.99   $ Sizing
 "CRtdFlo_Sys_M_OfficeSm_N" = 6001.661   $ Sizing
 "CRtdFlo_Sys_M_OfficeSm_S" = 11902.77   $ Sizing
 "CRtdFlo_Sys_M_OfficeSm_W" = 11442.12   $ Sizing
 "CRtdFlo_Sys_M_Restrm_C" = 1687.731   $ Sizing
 "CRtdFlo_Sys_M_StorSm_C" = 3560.277   $ Sizing
 "CRtdFlo_Sys_T_Break_C" = 389.4939   $ Sizing
 "CRtdFlo_Sys_T_Conf_C" = 471.1832   $ Sizing
 "CRtdFlo_Sys_T_CopyRm_C" = 127.2789   $ Sizing
 "CRtdFlo_Sys_T_Cordr_C" = 788.241   $ Sizing
 "CRtdFlo_Sys_T_Cordr_E" = 271.8056   $ Sizing
 "CRtdFlo_Sys_T_Cordr_N" = 146.5889   $ Sizing
 "CRtdFlo_Sys_T_Cordr_S" = 269.7154   $ Sizing
 "CRtdFlo_Sys_T_Cordr_W" = 246.2414   $ Sizing
 "CRtdFlo_Sys_T_LobWait_C" = 471.9004   $ Sizing
 "CRtdFlo_Sys_T_MechElec_C" = 219.6628   $ Sizing
 "CRtdFlo_Sys_T_OfficeOpn_C" = 1823.773   $ Sizing
 "CRtdFlo_Sys_T_OfficeOpn_E" = 1891.957   $ Sizing
 "CRtdFlo_Sys_T_OfficeOpn_N" = 1056.742   $ Sizing
 "CRtdFlo_Sys_T_OfficeOpn_S" = 1910.819   $ Sizing
 "CRtdFlo_Sys_T_OfficeOpn_W" = 1838.156   $ Sizing
 "CRtdFlo_Sys_T_OfficeSm_C" = 285.4801   $ Sizing
 "CRtdFlo_Sys_T_OfficeSm_E" = 1411.893   $ Sizing
 "CRtdFlo_Sys_T_OfficeSm_N" = 702.796   $ Sizing
 "CRtdFlo_Sys_T_OfficeSm_S" = 1422.897   $ Sizing
 "CRtdFlo_Sys_T_OfficeSm_W" = 1350.936   $ Sizing
 "CRtdFlo_Sys_T_Restrm_C" = 210.9664   $ Sizing
 "CRtdFlo_Sys_T_StorSm_C" = 332.6785   $ Sizing
 "CSupFlo_Sys_L_Break_C" = 375.3777   $ Sizing
 "CSupFlo_Sys_L_Conf_C" = 447.0642   $ Sizing
 "CSupFlo_Sys_L_CopyRm_C" = 117.467   $ Sizing
 "CSupFlo_Sys_L_Cordr_C" = 584.6695   $ Sizing
 "CSupFlo_Sys_L_Cordr_E" = 255.1184   $ Sizing
 "CSupFlo_Sys_L_Cordr_N" = 116.5913   $ Sizing
 "CSupFlo_Sys_L_Cordr_S" = 258.7844   $ Sizing
 "CSupFlo_Sys_L_Cordr_W" = 245.1849   $ Sizing
 "CSupFlo_Sys_L_LobWait_C" = 398.1453   $ Sizing
 "CSupFlo_Sys_L_MechElec_C" = 135.6586   $ Sizing
 "CSupFlo_Sys_L_OfficeOpn_C" = 1711.251   $ Sizing
 "CSupFlo_Sys_L_OfficeOpn_E" = 1897.369   $ Sizing
 "CSupFlo_Sys_L_OfficeOpn_N" = 1017.214   $ Sizing
 "CSupFlo_Sys_L_OfficeOpn_S" = 1882.416   $ Sizing
 "CSupFlo_Sys_L_OfficeOpn_W" = 1904.156   $ Sizing
 "CSupFlo_Sys_L_OfficeSm_C" = 237.0531   $ Sizing
 "CSupFlo_Sys_L_OfficeSm_E" = 1381.311   $ Sizing
 "CSupFlo_Sys_L_OfficeSm_N" = 666.8383   $ Sizing
 "CSupFlo_Sys_L_OfficeSm_S" = 1388.943   $ Sizing
 "CSupFlo_Sys_L_OfficeSm_W" = 1376.403   $ Sizing
 "CSupFlo_Sys_L_Restrm_C" = 210.9664   $ Sizing
 "CSupFlo_Sys_L_StorSm_C" = 407.6749   $ Sizing
 "CSupFlo_Sys_M_Break_C" = 3317.53   $ Sizing
 "CSupFlo_Sys_M_Conf_C" = 4076.083   $ Sizing
 "CSupFlo_Sys_M_CopyRm_C" = 1199.613   $ Sizing
 "CSupFlo_Sys_M_Cordr_C" = 7564.896   $ Sizing
 "CSupFlo_Sys_M_Cordr_E" = 2465.912   $ Sizing
 "CSupFlo_Sys_M_Cordr_N" = 1346.56   $ Sizing
 "CSupFlo_Sys_M_Cordr_S" = 2379.483   $ Sizing
 "CSupFlo_Sys_M_Cordr_W" = 2186.569   $ Sizing
 "CSupFlo_Sys_M_LobWait_C" = 4227.815   $ Sizing
 "CSupFlo_Sys_M_MechElec_C" = 1444.05   $ Sizing
 "CSupFlo_Sys_M_OfficeOpn_C" = 16731.99   $ Sizing
 "CSupFlo_Sys_M_OfficeOpn_E" = 16621.8   $ Sizing
 "CSupFlo_Sys_M_OfficeOpn_N" = 9240.148   $ Sizing
 "CSupFlo_Sys_M_OfficeOpn_S" = 16313.8   $ Sizing
 "CSupFlo_Sys_M_OfficeOpn_W" = 15911.17   $ Sizing
 "CSupFlo_Sys_M_OfficeSm_C" = 2403.35   $ Sizing
 "CSupFlo_Sys_M_OfficeSm_E" = 11995.99   $ Sizing
 "CSupFlo_Sys_M_OfficeSm_N" = 6001.661   $ Sizing
 "CSupFlo_Sys_M_OfficeSm_S" = 11902.77   $ Sizing
 "CSupFlo_Sys_M_OfficeSm_W" = 11442.12   $ Sizing
 "CSupFlo_Sys_M_Restrm_C" = 1687.731   $ Sizing
 "CSupFlo_Sys_M_StorSm_C" = 3560.277   $ Sizing
 "CSupFlo_Sys_T_Break_C" = 389.4939   $ Sizing
 "CSupFlo_Sys_T_Conf_C" = 471.1832   $ Sizing
 "CSupFlo_Sys_T_CopyRm_C" = 127.2789   $ Sizing
 "CSupFlo_Sys_T_Cordr_C" = 788.241   $ Sizing
 "CSupFlo_Sys_T_Cordr_E" = 271.8056   $ Sizing
 "CSupFlo_Sys_T_Cordr_N" = 146.5889   $ Sizing
 "CSupFlo_Sys_T_Cordr_S" = 269.7154   $ Sizing
 "CSupFlo_Sys_T_Cordr_W" = 246.2414   $ Sizing
 "CSupFlo_Sys_T_LobWait_C" = 471.9004   $ Sizing
 "CSupFlo_Sys_T_MechElec_C" = 219.6628   $ Sizing
 "CSupFlo_Sys_T_OfficeOpn_C" = 1823.773   $ Sizing
 "CSupFlo_Sys_T_OfficeOpn_E" = 1891.957   $ Sizing
 "CSupFlo_Sys_T_OfficeOpn_N" = 1056.742   $ Sizing
 "CSupFlo_Sys_T_OfficeOpn_S" = 1910.819   $ Sizing
 "CSupFlo_Sys_T_OfficeOpn_W" = 1838.156   $ Sizing
 "CSupFlo_Sys_T_OfficeSm_C" = 285.4801   $ Sizing
 "CSupFlo_Sys_T_OfficeSm_E" = 1411.893   $ Sizing
 "CSupFlo_Sys_T_OfficeSm_N" = 702.796   $ Sizing
 "CSupFlo_Sys_T_OfficeSm_S" = 1422.897   $ Sizing
 "CSupFlo_Sys_T_OfficeSm_W" = 1350.936   $ Sizing
 "CSupFlo_Sys_T_Restrm_C" = 210.9664   $ Sizing
 "CSupFlo_Sys_T_StorSm_C" = 332.6785   $ Sizing
 "ClCap_Sys_L_Break_C" = 12828.05   $ Sizing
 "ClCap_Sys_L_Conf_C" = 19444.54   $ Sizing
 "ClCap_Sys_L_CopyRm_C" = 4014.283   $ Sizing
 "ClCap_Sys_L_Cordr_C" = 19980.33   $ Sizing
 "ClCap_Sys_L_Cordr_E" = 8718.345   $ Sizing
 "ClCap_Sys_L_Cordr_N" = 3984.357   $ Sizing
 "ClCap_Sys_L_Cordr_S" = 8843.625   $ Sizing
 "ClCap_Sys_L_Cordr_W" = 8378.88   $ Sizing
 "ClCap_Sys_L_LobWait_C" = 13606.11   $ Sizing
 "ClCap_Sys_L_MechElec_C" = 4635.96   $ Sizing
 "ClCap_Sys_L_OfficeOpn_C" = 58479.83   $ Sizing
 "ClCap_Sys_L_OfficeOpn_E" = 64840.16   $ Sizing
 "ClCap_Sys_L_OfficeOpn_N" = 34762   $ Sizing
 "ClCap_Sys_L_OfficeOpn_S" = 64329.15   $ Sizing
 "ClCap_Sys_L_OfficeOpn_W" = 65072.1   $ Sizing
 "ClCap_Sys_L_OfficeSm_C" = 8100.987   $ Sizing
 "ClCap_Sys_L_OfficeSm_E" = 47204.54   $ Sizing
 "ClCap_Sys_L_OfficeSm_N" = 22788.35   $ Sizing
 "ClCap_Sys_L_OfficeSm_S" = 47465.35   $ Sizing
 "ClCap_Sys_L_OfficeSm_W" = 47036.83   $ Sizing
 "ClCap_Sys_L_Restrm_C" = 7209.506   $ Sizing
 "ClCap_Sys_L_StorSm_C" = 13931.77   $ Sizing
 "ClCap_Sys_M_Break_C" = 113372.4   $ Sizing
 "ClCap_Sys_M_Conf_C" = 177284.5   $ Sizing
 "ClCap_Sys_M_CopyRm_C" = 40995.25   $ Sizing
 "ClCap_Sys_M_Cordr_C" = 258520.6   $ Sizing
 "ClCap_Sys_M_Cordr_E" = 84269.41   $ Sizing
 "ClCap_Sys_M_Cordr_N" = 46016.97   $ Sizing
 "ClCap_Sys_M_Cordr_S" = 81315.8   $ Sizing
 "ClCap_Sys_M_Cordr_W" = 74723.2   $ Sizing
 "ClCap_Sys_M_LobWait_C" = 144480.2   $ Sizing
 "ClCap_Sys_M_MechElec_C" = 49348.57   $ Sizing
 "ClCap_Sys_M_OfficeOpn_C" = 571794.5   $ Sizing
 "ClCap_Sys_M_OfficeOpn_E" = 568028.8   $ Sizing
 "ClCap_Sys_M_OfficeOpn_N" = 315770.3   $ Sizing
 "ClCap_Sys_M_OfficeOpn_S" = 557503.3   $ Sizing
 "ClCap_Sys_M_OfficeOpn_W" = 543743.8   $ Sizing
 "ClCap_Sys_M_OfficeSm_C" = 82131.41   $ Sizing
 "ClCap_Sys_M_OfficeSm_E" = 409947.6   $ Sizing
 "ClCap_Sys_M_OfficeSm_N" = 205099.1   $ Sizing
 "ClCap_Sys_M_OfficeSm_S" = 406761.8   $ Sizing
 "ClCap_Sys_M_OfficeSm_W" = 391019.7   $ Sizing
 "ClCap_Sys_M_Restrm_C" = 57676.05   $ Sizing
 "ClCap_Sys_M_StorSm_C" = 121667.9   $ Sizing
 "ClCap_Sys_T_Break_C" = 13310.46   $ Sizing
 "ClCap_Sys_T_Conf_C" = 20493.56   $ Sizing
 "ClCap_Sys_T_CopyRm_C" = 4349.595   $ Sizing
 "ClCap_Sys_T_Cordr_C" = 26937.13   $ Sizing
 "ClCap_Sys_T_Cordr_E" = 9288.608   $ Sizing
 "ClCap_Sys_T_Cordr_N" = 5009.488   $ Sizing
 "ClCap_Sys_T_Cordr_S" = 9217.179   $ Sizing
 "ClCap_Sys_T_Cordr_W" = 8414.986   $ Sizing
 "ClCap_Sys_T_LobWait_C" = 16126.59   $ Sizing
 "ClCap_Sys_T_MechElec_C" = 7506.694   $ Sizing
 "ClCap_Sys_T_OfficeOpn_C" = 62325.12   $ Sizing
 "ClCap_Sys_T_OfficeOpn_E" = 64655.2   $ Sizing
 "ClCap_Sys_T_OfficeOpn_N" = 36112.81   $ Sizing
 "ClCap_Sys_T_OfficeOpn_S" = 65299.81   $ Sizing
 "ClCap_Sys_T_OfficeOpn_W" = 62816.64   $ Sizing
 "ClCap_Sys_T_OfficeSm_C" = 9755.917   $ Sizing
 "ClCap_Sys_T_OfficeSm_E" = 48249.65   $ Sizing
 "ClCap_Sys_T_OfficeSm_N" = 24017.16   $ Sizing
 "ClCap_Sys_T_OfficeSm_S" = 48625.68   $ Sizing
 "ClCap_Sys_T_OfficeSm_W" = 46166.5   $ Sizing
 "ClCap_Sys_T_Restrm_C" = 7209.506   $ Sizing
 "ClCap_Sys_T_StorSm_C" = 11368.86   $ Sizing
 "HtCap_Sys_L_Break_C" = -19647.25   $ Sizing
 "HtCap_Sys_L_Conf_C" = -24419.06   $ Sizing
 "HtCap_Sys_L_CopyRm_C" = -6994.442   $ Sizing
 "HtCap_Sys_L_Cordr_C" = -25414.74   $ Sizing
 "HtCap_Sys_L_Cordr_E" = -8763.766   $ Sizing
 "HtCap_Sys_L_Cordr_N" = -4816.207   $ Sizing
 "HtCap_Sys_L_Cordr_S" = -8862.77   $ Sizing
 "HtCap_Sys_L_Cordr_W" = -8476.242   $ Sizing
 "HtCap_Sys_L_LobWait_C" = -20606.09   $ Sizing
 "HtCap_Sys_L_MechElec_C" = -5928.612   $ Sizing
 "HtCap_Sys_L_OfficeOpn_C" = -83654.07   $ Sizing
 "HtCap_Sys_L_OfficeOpn_E" = -59656.36   $ Sizing
 "HtCap_Sys_L_OfficeOpn_N" = -37184.27   $ Sizing
 "HtCap_Sys_L_OfficeOpn_S" = -61506.49   $ Sizing
 "HtCap_Sys_L_OfficeOpn_W" = -62351.29   $ Sizing
 "HtCap_Sys_L_OfficeSm_C" = -11575.85   $ Sizing
 "HtCap_Sys_L_OfficeSm_E" = -44197.03   $ Sizing
 "HtCap_Sys_L_OfficeSm_N" = -24401.66   $ Sizing
 "HtCap_Sys_L_OfficeSm_S" = -44188.19   $ Sizing
 "HtCap_Sys_L_OfficeSm_W" = -44842.12   $ Sizing
 "HtCap_Sys_L_Restrm_C" = -7720.328   $ Sizing
 "HtCap_Sys_L_StorSm_C" = -16946.25   $ Sizing
 "HtCap_Sys_M_Break_C" = -165973.8   $ Sizing
 "HtCap_Sys_M_Conf_C" = -209575.5   $ Sizing
 "HtCap_Sys_M_CopyRm_C" = -63302.09   $ Sizing
 "HtCap_Sys_M_Cordr_C" = -284940.3   $ Sizing
 "HtCap_Sys_M_Cordr_E" = -82427.62   $ Sizing
 "HtCap_Sys_M_Cordr_N" = -50354.34   $ Sizing
 "HtCap_Sys_M_Cordr_S" = -79527.45   $ Sizing
 "HtCap_Sys_M_Cordr_W" = -74375.72   $ Sizing
 "HtCap_Sys_M_LobWait_C" = -194393.6   $ Sizing
 "HtCap_Sys_M_MechElec_C" = -57565.82   $ Sizing
 "HtCap_Sys_M_OfficeOpn_C" = -817420.6   $ Sizing
 "HtCap_Sys_M_OfficeOpn_E" = -537350.5   $ Sizing
 "HtCap_Sys_M_OfficeOpn_N" = -328002.9   $ Sizing
 "HtCap_Sys_M_OfficeOpn_S" = -526069.2   $ Sizing
 "HtCap_Sys_M_OfficeOpn_W" = -517149.5   $ Sizing
 "HtCap_Sys_M_OfficeSm_C" = -117283.5   $ Sizing
 "HtCap_Sys_M_OfficeSm_E" = -382268.5   $ Sizing
 "HtCap_Sys_M_OfficeSm_N" = -214012.6   $ Sizing
 "HtCap_Sys_M_OfficeSm_S" = -380966.6   $ Sizing
 "HtCap_Sys_M_OfficeSm_W" = -369864.5   $ Sizing
 "HtCap_Sys_M_Restrm_C" = -66336.49   $ Sizing
 "HtCap_Sys_M_StorSm_C" = -142031.3   $ Sizing
 "HtCap_Sys_T_Break_C" = -20882.51   $ Sizing
 "HtCap_Sys_T_Conf_C" = -25929.82   $ Sizing
 "HtCap_Sys_T_CopyRm_C" = -7431.81   $ Sizing
 "HtCap_Sys_T_Cordr_C" = -33821.55   $ Sizing
 "HtCap_Sys_T_Cordr_E" = -10605.78   $ Sizing
 "HtCap_Sys_T_Cordr_N" = -6392.23   $ Sizing
 "HtCap_Sys_T_Cordr_S" = -10141.82   $ Sizing
 "HtCap_Sys_T_Cordr_W" = -9765.509   $ Sizing
 "HtCap_Sys_T_LobWait_C" = -23993.29   $ Sizing
 "HtCap_Sys_T_MechElec_C" = -8307.058   $ Sizing
 "HtCap_Sys_T_OfficeOpn_C" = -88342.3   $ Sizing
 "HtCap_Sys_T_OfficeOpn_E" = -69934.29   $ Sizing
 "HtCap_Sys_T_OfficeOpn_N" = -43670.67   $ Sizing
 "HtCap_Sys_T_OfficeOpn_S" = -70797.6   $ Sizing
 "HtCap_Sys_T_OfficeOpn_W" = -68155.15   $ Sizing
 "HtCap_Sys_T_OfficeSm_C" = -11685.26   $ Sizing
 "HtCap_Sys_T_OfficeSm_E" = -51928.14   $ Sizing
 "HtCap_Sys_T_OfficeSm_N" = -28658.71   $ Sizing
 "HtCap_Sys_T_OfficeSm_S" = -51683.12   $ Sizing
 "HtCap_Sys_T_OfficeSm_W" = -50039.3   $ Sizing
 "HtCap_Sys_T_Restrm_C" = -8515.453   $ Sizing
 "HtCap_Sys_T_StorSm_C" = -16078.69   $ Sizing
..

##include Templates\OfL_DX_SZ.inp
END ..
COMPUTE ..
STOP ..
