INPUT ..

##fileprefix C:\Users\jglasskatz\MASControl3\
##set1 IsSizing FALSE
##set1 CoolType DX
##set1 HeatType FURNACE
##set1 EU_HrRepVar 0
##set1 BldgVint 2015
##set1 BldgLoc CZ07

 ##set1 mBFMult 1   $ IP Tech: RefgChg-NRes-Std

PARAMETER
 "AltFactor" = 1.00051   $ IP Non-Tech
 "BF_fFlow" = SpltAC1Sp-ge45_BF_fFlow   $ Msr (Multi)TechID: StdNResSplitAC-45to55
 "BF_fT" = SpltAC1Sp-ge45_BF_fT   $ Msr (Multi)TechID: StdNResSplitAC-45to55
 "BldgEconoFlag" = 1   $ IP Non-Tech
 "Break_EWSF" = 1   $ IP Non-Tech
 "Break_LWSF" = 1.1   $ IP Non-Tech
 "CDD_DBHi10" = 80   $ IP Non-Tech
 "CDD_DBHi7" = 75   $ IP Non-Tech
 "CDD_DBHi8" = 75   $ IP Non-Tech
 "CDD_DBHi9" = 80   $ IP Non-Tech
 "CDD_DBRange10" = 20   $ IP Non-Tech
 "CDD_DBRange7" = 8   $ IP Non-Tech
 "CDD_DBRange8" = 6   $ IP Non-Tech
 "CDD_DBRange9" = 12   $ IP Non-Tech
 "CDD_Day10" = 15   $ IP Non-Tech
 "CDD_Day7" = 16   $ IP Non-Tech
 "CDD_Day8" = 20   $ IP Non-Tech
 "CDD_Day9" = 17   $ IP Non-Tech
 "CDD_HrHi10" = 11   $ IP Non-Tech
 "CDD_HrHi7" = 14   $ IP Non-Tech
 "CDD_HrHi8" = 11   $ IP Non-Tech
 "CDD_HrHi9" = 11   $ IP Non-Tech
 "CDD_HrLo10" = 4   $ IP Non-Tech
 "CDD_HrLo7" = 6   $ IP Non-Tech
 "CDD_HrLo8" = 1   $ IP Non-Tech
 "CDD_HrLo9" = 5   $ IP Non-Tech
 "CDD_WB10" = 64.57550049   $ IP Non-Tech
 "CDD_WB7" = 66.79747772   $ IP Non-Tech
 "CDD_WB8" = 69.55462646   $ IP Non-Tech
 "CDD_WB9" = 68.8309021   $ IP Non-Tech
 "CEIR_fPLR_Hot" = SpltAC1Sp-ge45_CEIR_fPLR_Hot   $ Msr (Multi)TechID: StdNResSplitAC-45to55
 "CEIR_fPLR_Mod" = SpltAC1Sp-ge45_CEIR_fPLR_Mod   $ Msr (Multi)TechID: StdNResSplitAC-45to55
 "CEIR_fPLR_Tem" = SpltAC1Sp-ge45_CEIR_fPLR_Tem   $ Msr (Multi)TechID: StdNResSplitAC-45to55
 "CLoss_fPLR_Hot" = SpltAC1Sp-ge45_CLoss_fPLR_Hot   $ Msr (Multi)TechID: StdNResSplitAC-45to55
 "CLoss_fPLR_Mod" = SpltAC1Sp-ge45_CLoss_fPLR_Mod   $ Msr (Multi)TechID: StdNResSplitAC-45to55
 "CLoss_fPLR_Tem" = SpltAC1Sp-ge45_CLoss_fPLR_Tem   $ Msr (Multi)TechID: StdNResSplitAC-45to55
 "COP47" = 0   $ Msr (Multi)TechID: StdNResSplitAC-45to55
 "CZ_Category" = Tem   $ IP Non-Tech
 "CapRange" = ge45   $ Msr (Multi)TechID: StdNResSplitAC-45to55
 "CfmPerBtuh" = 0.03263   $ Msr (Multi)TechID: StdNResSplitAC-45to55
 "ChwVintEconoFlag" = 1   $ IP Non-Tech
 "ClCap_fT" = SpltAC1Sp-ge45_ClCap_fT   $ Msr (Multi)TechID: StdNResSplitAC-45to55
 "ClSH_fT" = SpltAC1Sp-ge45_ClSH_fT   $ Msr (Multi)TechID: StdNResSplitAC-45to55
 "CoilBF" = 0.106518182   $ Msr (Multi)TechID: StdNResSplitAC-45to55
 "CondWPerBtuh" = 0   $ Msr (Multi)TechID: StdNResSplitAC-45to55
 "Conference_EWSF" = 1   $ IP Non-Tech
 "Conference_LWSF" = 1.4   $ IP Non-Tech
 "CoolSensCap" = 0.759218182   $ Msr (Multi)TechID: StdNResSplitAC-45to55
 "CoolSetT" = 45   $ IP Non-Tech
 "CoolType" = DX   $ IP Non-Tech
 "CoolingEIR" = 0.2466   $ Msr (Multi)TechID: StdNResSplitAC-45to55
 "CopyRoom_EWSF" = 1.5   $ IP Non-Tech
 "CopyRoom_LWSF" = 1.3   $ IP Non-Tech
 "CorridorStairway_EWSF" = 0.2   $ IP Non-Tech
 "CorridorStairway_LWSF" = 0.6   $ IP Non-Tech
 "CrnkEIR" = 0.002466   $ Msr (Multi)TechID: StdNResSplitAC-45to55
 "CrnkMaxT" = 50   $ Msr (Multi)TechID: StdNResSplitAC-45to55
 "DXType" = SplitSEER   $ Msr (Multi)TechID: StdNResSplitAC-45to55
 "DesCoolT" = 75   $ IP Non-Tech
 "DesHeatT" = 73   $ IP Non-Tech
 "EER" = 11.81793103   $ Msr (Multi)TechID: StdNResSplitAC-45to55
 "EIR_fT" = SpltAC1Sp-ge45_EIR_fT   $ Msr (Multi)TechID: StdNResSplitAC-45to55
 "EconoCtrl" = FIXED   $ Msr (Multi)TechID: StdNResSplitAC-45to55
 "EconoEnthLimit" = 28   $ IP Non-Tech
 "EconoTempLimit" = 69   $ IP Non-Tech
 "Elevation" = 13   $ IP Non-Tech
 "FanEirPlr" = TwoSpeedFan   $ Msr (Multi)TechID: StdNResSplitAC-45to55
 "FanWPerCfm" = 0.294   $ Msr (Multi)TechID: StdNResSplitAC-45to55
 "HDD_CloudAmt1" = 0   $ IP Non-Tech
 "HDD_DBHi1" = 57   $ IP Non-Tech
 "HDD_DBRange1" = 13   $ IP Non-Tech
 "HDD_Day1" = 15   $ IP Non-Tech
 "HDD_HrHi1" = 13   $ IP Non-Tech
 "HDD_HrLo1" = 5   $ IP Non-Tech
 "HDD_WB1" = 43.6   $ IP Non-Tech
 "HDD_WindSpd1" = 11.5   $ IP Non-Tech
 "HIR_fT" = 0   $ Msr (Multi)TechID: StdNResSplitAC-45to55
 "HSPF" = 0   $ Msr (Multi)TechID: StdNResSplitAC-45to55
 "HeatSrc" = FURNACE   $ IP Non-Tech
 "HeatSrcTU" = HEAT-PUMP   $ IP Non-Tech
 "HeatType" = GasFurn   $ IP Non-Tech
 "HeatTypeTU" = HEAT-PUMP   $ IP Non-Tech
 "HtCap_fT" = 0   $ Msr (Multi)TechID: StdNResSplitAC-45to55
 "HtCoolCapRatio" = 0   $ Msr (Multi)TechID: StdNResSplitAC-45to55
 "HtgEIR" = 0   $ Msr (Multi)TechID: StdNResSplitAC-45to55
 "IndoorFanMode" = CONTINUOUS   $ IP Non-Tech
 "KT_TransferAir" = Yes   $ IP Non-Tech
 "Latitude" = 32.7   $ IP Non-Tech
 "LobbyWaiting_EWSF" = 0.5   $ IP Non-Tech
 "LobbyWaiting_LWSF" = 1.3   $ IP Non-Tech
 "Longitude" = 117.2   $ IP Non-Tech
 "LowSpdCapRatio" = 1   $ Msr (Multi)TechID: StdNResSplitAC-45to55
 "LowSpdCfmRatio" = 1   $ Msr (Multi)TechID: StdNResSplitAC-45to55
 "MZFanMechEff" = 0.58   $ IP Non-Tech
 "MZHasRetFan" = FALSE   $ IP Non-Tech
 "MZ_RFanWPerCfm" = 0.37   $ IP Non-Tech
 "MZ_SFanWPerCfm" = 0.71   $ IP Non-Tech
 "MZ_SupFanStatic" = 2.25   $ IP Non-Tech
 "MaxOAFrac" = 1   $ Msr (Multi)TechID: StdNResSplitAC-45to55
 "MaxSupT_MZ" = 100   $ IP Non-Tech
 "MaxSupT_SZ" = 100   $ IP Non-Tech
 "MaxSupT_TU" = 90   $ IP Non-Tech
 "MechElecRoom_EWSF" = 0.2   $ IP Non-Tech
 "MechElecRoom_LWSF" = 0.7   $ IP Non-Tech
 "MinCfmPerSF" = 0.4   $ IP Non-Tech
 "MinSupT" = 55   $ IP Non-Tech
 "NumStages" = 1   $ Msr (Multi)TechID: StdNResSplitAC-45to55
 "OccCoolT" = 76   $ IP Non-Tech
 "OccHeatT" = 72   $ IP Non-Tech
 "OfficeOpen_EWSF" = 1.5   $ IP Non-Tech
 "OfficeOpen_LWSF" = 1.05   $ IP Non-Tech
 "OfficeSmall_EWSF" = 1.5   $ IP Non-Tech
 "OfficeSmall_LWSF" = 1.3   $ IP Non-Tech
 "PkgDxVintEconoFlag" = 1   $ IP Non-Tech
 "Restroom_EWSF" = 0.2   $ IP Non-Tech
 "Restroom_LWSF" = 0.6   $ IP Non-Tech
 "SEER" = 14   $ Msr (Multi)TechID: StdNResSplitAC-45to55
 "SZFanMechEff" = 0.58   $ IP Non-Tech
 "SZHasRetFan" = FALSE   $ IP Non-Tech
 "SZ_Is_2Spd" = TRUE   $ IP Non-Tech
 "SZ_SFanWPerCfm" = 0.46   $ IP Non-Tech
 "SZ_SupFanStatic" = 0.75   $ IP Non-Tech
 "Sector" = Any   $ Msr (Multi)TechID: StdNResSplitAC-45to55
 "StorageSmlCond_EWSF" = 0.2   $ IP Non-Tech
 "StorageSmlCond_LWSF" = 0.6   $ IP Non-Tech
 "SubType" = AC   $ Msr (Multi)TechID: StdNResSplitAC-45to55
 "T24GlzTbl" = TypeTbl   $ IP Non-Tech
 "TermUnitFanMechEff" = 1   $ IP Non-Tech
 "TermUnitFanMode" = INTERMITTENT   $ IP Non-Tech
 "TotCoolCap" = 52519.36364   $ Msr (Multi)TechID: StdNResSplitAC-45to55
 "TwrSetpt" = 80   $ IP Non-Tech
 "UnocCoolT" = 86   $ IP Non-Tech
 "UnocHeatT" = 62   $ IP Non-Tech
 "UseEconoVintApplic" = FALSE   $ Msr (Multi)TechID: StdNResSplitAC-45to55
 "WlhpVintEconoFlag" = 1   $ IP Non-Tech
 "DuctDT" = 1   $ IP Tech: ComDuctInsul-1
 "DuctAirLoss" = 0   $ IP Tech: ComDuctLeak-0
 "DuctLossOAFrac" = 0   $ IP Tech: ComDuctLeak-0
 "ComRoofInsCalc" = FromUo   $ IP Tech: ComRoofIns-Hvy-0.07
 "ComRoofInsR" = -999   $ IP Tech: ComRoofIns-Hvy-0.07
 "ComRoofUo" = 0.07   $ IP Tech: ComRoofIns-Hvy-0.07
 "ComEWInsCalc" = FromUo   $ IP Tech: ComWallIns-MFrm-0.1
 "ComEWInsR" = -999   $ IP Tech: ComWallIns-MFrm-0.1
 "ComEWUo" = 0.1   $ IP Tech: ComWallIns-MFrm-0.1
 "ComN_SHGC" = 0.26   $ IP Tech: NResWin-ComN-0.41-0.26
 "ComN_UFactor" = 0.41   $ IP Tech: NResWin-ComN-0.41-0.26
 "ComN_VisTrans" = 0.41   $ IP Tech: NResWin-ComN-0.41-0.26
 "ComN_WinCode" = G2666   $ IP Tech: NResWin-ComN-0.41-0.26
 "ComN_WinFrmFrac" = 0.17   $ IP Tech: NResWin-ComN-0.41-0.26
 "ComN_WinFrmU" = 0.3   $ IP Tech: NResWin-ComN-0.41-0.26
 "ComO_SHGC" = 0.26   $ IP Tech: NResWin-ComO-0.41-0.26
 "ComO_UFactor" = 0.41   $ IP Tech: NResWin-ComO-0.41-0.26
 "ComO_VisTrans" = 0.41   $ IP Tech: NResWin-ComO-0.41-0.26
 "ComO_WinCode" = G2666   $ IP Tech: NResWin-ComO-0.41-0.26
 "ComO_WinFrmFrac" = 0.17   $ IP Tech: NResWin-ComO-0.41-0.26
 "ComO_WinFrmU" = 0.3   $ IP Tech: NResWin-ComO-0.41-0.26
 "LtgMsrApplic" = ALL   $ IP Tech: NonResLtgRefPre
 "LtgSav_CFL" = 0   $ IP Tech: NonResLtgRefPre
 "LtgSav_EX" = 0   $ IP Tech: NonResLtgRefPre
 "LtgSav_HB" = 0   $ IP Tech: NonResLtgRefPre
 "LtgSav_LF" = 0   $ IP Tech: NonResLtgRefPre
 "LtgSav_SP" = 0   $ IP Tech: NonResLtgRefPre
 "CEIR_fPLR" = PSZ65to135_CEIR_fPLR   $ IP Tech: PkgAC2SpP-65to135-E11
 "CLoss_fPLR" = PSZ65to135_CLoss_fPLR   $ IP Tech: PkgAC2SpP-65to135-E11
 "COP" = -1   $ IP Tech: PkgAC2SpP-65to135-E11
 "HtgFuel" = Gas   $ IP Tech: PkgAC2SpP-65to135-E11
 "IEER" = 13.35   $ IP Tech: PkgAC2SpP-65to135-E11
 "NominalCap" = 15   $ IP Tech: PkgAC2SpP-65to135-E11
 "RatedEER" = 11   $ IP Tech: PkgAC2SpP-65to135-E11
 "RatedSupMtrClass" = Premium   $ IP Tech: PkgAC2SpP-65to135-E11
 "SizeRange" = 65to135   $ IP Tech: PkgAC2SpP-65to135-E11
 "SupMotEff" = 0.865   $ IP Tech: PkgAC2SpP-65to135-E11
 "Tier" = 0   $ IP Tech: PkgAC2SpP-65to135-E11
 "FanPwrMult" = 1   $ IP Tech: PkgFurn-0.80AFUE
 "FurnAFUE" = 0.8   $ IP Tech: PkgFurn-0.80AFUE
 "FurnEt" = 0.82   $ IP Tech: PkgFurn-0.80AFUE
 "FurnaceAuxKW" = 0.1   $ IP Tech: PkgFurn-0.80AFUE
 "HIR_fPLR" = Furnace-HIR-fPLR   $ IP Tech: PkgFurn-0.80AFUE
 "VSM" = FALSE   $ IP Tech: PkgFurn-0.80AFUE
 "BFMult" = 1   $ IP Tech: RefgChg-NRes-Std
 "CoolEirMult" = 1   $ IP Tech: RefgChg-NRes-Std
 "SensCoolCapMult" = 1   $ IP Tech: RefgChg-NRes-Std
 "TotCoolCapMult" = 1   $ IP Tech: RefgChg-NRes-Std
 "AltAdjFactor" = 1.000512   $ Sizing
 "CAssFlo_L_Break_CZn" = 369.6353   $ Sizing
 "CAssFlo_L_Conf_CZn" = 438.1057   $ Sizing
 "CAssFlo_L_CopyRm_CZn" = 111.2477   $ Sizing
 "CAssFlo_L_Cordr_CZn" = 561.498   $ Sizing
 "CAssFlo_L_Cordr_EZn" = 228.4807   $ Sizing
 "CAssFlo_L_Cordr_NZn" = 93.58389   $ Sizing
 "CAssFlo_L_Cordr_SZn" = 227.1305   $ Sizing
 "CAssFlo_L_Cordr_WZn" = 220.6516   $ Sizing
 "CAssFlo_L_LobWait_CZn" = 385.0473   $ Sizing
 "CAssFlo_L_MechElec_CZn" = 133.2348   $ Sizing
 "CAssFlo_L_OfficeOpn_CZn" = 1668.082   $ Sizing
 "CAssFlo_L_OfficeOpn_EZn" = 1743.811   $ Sizing
 "CAssFlo_L_OfficeOpn_NZn" = 854.1824   $ Sizing
 "CAssFlo_L_OfficeOpn_SZn" = 1676.833   $ Sizing
 "CAssFlo_L_OfficeOpn_WZn" = 1737.309   $ Sizing
 "CAssFlo_L_OfficeSm_CZn" = 237.6784   $ Sizing
 "CAssFlo_L_OfficeSm_EZn" = 1261.854   $ Sizing
 "CAssFlo_L_OfficeSm_NZn" = 528.5938   $ Sizing
 "CAssFlo_L_OfficeSm_SZn" = 1226.276   $ Sizing
 "CAssFlo_L_OfficeSm_WZn" = 1248.124   $ Sizing
 "CAssFlo_L_Restrm_CZn" = 210.3849   $ Sizing
 "CAssFlo_L_StorSm_CZn" = 380.5255   $ Sizing
 "CAssFlo_M_Break_CZn" = 407.0551   $ Sizing
 "CAssFlo_M_Conf_CZn" = 495.8473   $ Sizing
 "CAssFlo_M_CopyRm_CZn" = 140.6361   $ Sizing
 "CAssFlo_M_Cordr_CZn" = 866.0073   $ Sizing
 "CAssFlo_M_Cordr_EZn" = 276.9239   $ Sizing
 "CAssFlo_M_Cordr_NZn" = 130.7227   $ Sizing
 "CAssFlo_M_Cordr_SZn" = 263.9866   $ Sizing
 "CAssFlo_M_Cordr_WZn" = 247.7473   $ Sizing
 "CAssFlo_M_LobWait_CZn" = 504.7983   $ Sizing
 "CAssFlo_M_MechElec_CZn" = 167.5358   $ Sizing
 "CAssFlo_M_OfficeOpn_CZn" = 2000.759   $ Sizing
 "CAssFlo_M_OfficeOpn_EZn" = 1925.47   $ Sizing
 "CAssFlo_M_OfficeOpn_NZn" = 1005.255   $ Sizing
 "CAssFlo_M_OfficeOpn_SZn" = 1822.04   $ Sizing
 "CAssFlo_M_OfficeOpn_WZn" = 1823.125   $ Sizing
 "CAssFlo_M_OfficeSm_CZn" = 289.8739   $ Sizing
 "CAssFlo_M_OfficeSm_EZn" = 1366.66   $ Sizing
 "CAssFlo_M_OfficeSm_NZn" = 634.8784   $ Sizing
 "CAssFlo_M_OfficeSm_SZn" = 1320.361   $ Sizing
 "CAssFlo_M_OfficeSm_WZn" = 1302.02   $ Sizing
 "CAssFlo_M_Restrm_CZn" = 210.3849   $ Sizing
 "CAssFlo_M_StorSm_CZn" = 414.1823   $ Sizing
 "CAssFlo_T_Break_CZn" = 385.826   $ Sizing
 "CAssFlo_T_Conf_CZn" = 458.6626   $ Sizing
 "CAssFlo_T_CopyRm_CZn" = 130.0242   $ Sizing
 "CAssFlo_T_Cordr_CZn" = 758.151   $ Sizing
 "CAssFlo_T_Cordr_EZn" = 246.9006   $ Sizing
 "CAssFlo_T_Cordr_NZn" = 111.5053   $ Sizing
 "CAssFlo_T_Cordr_SZn" = 239.8381   $ Sizing
 "CAssFlo_T_Cordr_WZn" = 224.5115   $ Sizing
 "CAssFlo_T_LobWait_CZn" = 451.454   $ Sizing
 "CAssFlo_T_MechElec_CZn" = 194.4358   $ Sizing
 "CAssFlo_T_OfficeOpn_CZn" = 1812.221   $ Sizing
 "CAssFlo_T_OfficeOpn_EZn" = 1738.842   $ Sizing
 "CAssFlo_T_OfficeOpn_NZn" = 918.3691   $ Sizing
 "CAssFlo_T_OfficeOpn_SZn" = 1700.337   $ Sizing
 "CAssFlo_T_OfficeOpn_WZn" = 1685.889   $ Sizing
 "CAssFlo_T_OfficeSm_CZn" = 269.4894   $ Sizing
 "CAssFlo_T_OfficeSm_EZn" = 1282.832   $ Sizing
 "CAssFlo_T_OfficeSm_NZn" = 584.5328   $ Sizing
 "CAssFlo_T_OfficeSm_SZn" = 1253.479   $ Sizing
 "CAssFlo_T_OfficeSm_WZn" = 1232.863   $ Sizing
 "CAssFlo_T_Restrm_CZn" = 210.3849   $ Sizing
 "CAssFlo_T_StorSm_CZn" = 331.7615   $ Sizing
 "CHRtFlo_Sys_L_Break_C" = 369.6353   $ Sizing
 "CHRtFlo_Sys_L_Conf_C" = 438.1057   $ Sizing
 "CHRtFlo_Sys_L_CopyRm_C" = 111.2477   $ Sizing
 "CHRtFlo_Sys_L_Cordr_C" = 561.498   $ Sizing
 "CHRtFlo_Sys_L_Cordr_E" = 228.4807   $ Sizing
 "CHRtFlo_Sys_L_Cordr_N" = 93.58389   $ Sizing
 "CHRtFlo_Sys_L_Cordr_S" = 227.1305   $ Sizing
 "CHRtFlo_Sys_L_Cordr_W" = 220.6516   $ Sizing
 "CHRtFlo_Sys_L_LobWait_C" = 385.0473   $ Sizing
 "CHRtFlo_Sys_L_MechElec_C" = 133.2348   $ Sizing
 "CHRtFlo_Sys_L_OfficeOpn_C" = 1668.082   $ Sizing
 "CHRtFlo_Sys_L_OfficeOpn_E" = 1743.811   $ Sizing
 "CHRtFlo_Sys_L_OfficeOpn_N" = 854.1824   $ Sizing
 "CHRtFlo_Sys_L_OfficeOpn_S" = 1676.833   $ Sizing
 "CHRtFlo_Sys_L_OfficeOpn_W" = 1737.309   $ Sizing
 "CHRtFlo_Sys_L_OfficeSm_C" = 237.6784   $ Sizing
 "CHRtFlo_Sys_L_OfficeSm_E" = 1261.854   $ Sizing
 "CHRtFlo_Sys_L_OfficeSm_N" = 528.5938   $ Sizing
 "CHRtFlo_Sys_L_OfficeSm_S" = 1226.276   $ Sizing
 "CHRtFlo_Sys_L_OfficeSm_W" = 1248.124   $ Sizing
 "CHRtFlo_Sys_L_Restrm_C" = 210.3849   $ Sizing
 "CHRtFlo_Sys_L_StorSm_C" = 380.5255   $ Sizing
 "CHRtFlo_Sys_M_Break_C" = 3256.441   $ Sizing
 "CHRtFlo_Sys_M_Conf_C" = 3966.778   $ Sizing
 "CHRtFlo_Sys_M_CopyRm_C" = 1125.089   $ Sizing
 "CHRtFlo_Sys_M_Cordr_C" = 6928.059   $ Sizing
 "CHRtFlo_Sys_M_Cordr_E" = 2215.391   $ Sizing
 "CHRtFlo_Sys_M_Cordr_N" = 1045.781   $ Sizing
 "CHRtFlo_Sys_M_Cordr_S" = 2111.893   $ Sizing
 "CHRtFlo_Sys_M_Cordr_W" = 1981.978   $ Sizing
 "CHRtFlo_Sys_M_LobWait_C" = 4038.387   $ Sizing
 "CHRtFlo_Sys_M_MechElec_C" = 1340.286   $ Sizing
 "CHRtFlo_Sys_M_OfficeOpn_C" = 16006.07   $ Sizing
 "CHRtFlo_Sys_M_OfficeOpn_E" = 15403.76   $ Sizing
 "CHRtFlo_Sys_M_OfficeOpn_N" = 8042.043   $ Sizing
 "CHRtFlo_Sys_M_OfficeOpn_S" = 14576.32   $ Sizing
 "CHRtFlo_Sys_M_OfficeOpn_W" = 14585   $ Sizing
 "CHRtFlo_Sys_M_OfficeSm_C" = 2318.991   $ Sizing
 "CHRtFlo_Sys_M_OfficeSm_E" = 10933.28   $ Sizing
 "CHRtFlo_Sys_M_OfficeSm_N" = 5079.027   $ Sizing
 "CHRtFlo_Sys_M_OfficeSm_S" = 10562.89   $ Sizing
 "CHRtFlo_Sys_M_OfficeSm_W" = 10416.16   $ Sizing
 "CHRtFlo_Sys_M_Restrm_C" = 1683.079   $ Sizing
 "CHRtFlo_Sys_M_StorSm_C" = 3313.458   $ Sizing
 "CHRtFlo_Sys_T_Break_C" = 385.826   $ Sizing
 "CHRtFlo_Sys_T_Conf_C" = 458.6626   $ Sizing
 "CHRtFlo_Sys_T_CopyRm_C" = 130.0242   $ Sizing
 "CHRtFlo_Sys_T_Cordr_C" = 758.151   $ Sizing
 "CHRtFlo_Sys_T_Cordr_E" = 246.9006   $ Sizing
 "CHRtFlo_Sys_T_Cordr_N" = 111.5053   $ Sizing
 "CHRtFlo_Sys_T_Cordr_S" = 239.8381   $ Sizing
 "CHRtFlo_Sys_T_Cordr_W" = 224.5115   $ Sizing
 "CHRtFlo_Sys_T_LobWait_C" = 451.454   $ Sizing
 "CHRtFlo_Sys_T_MechElec_C" = 194.4358   $ Sizing
 "CHRtFlo_Sys_T_OfficeOpn_C" = 1812.221   $ Sizing
 "CHRtFlo_Sys_T_OfficeOpn_E" = 1738.842   $ Sizing
 "CHRtFlo_Sys_T_OfficeOpn_N" = 918.3691   $ Sizing
 "CHRtFlo_Sys_T_OfficeOpn_S" = 1700.337   $ Sizing
 "CHRtFlo_Sys_T_OfficeOpn_W" = 1685.889   $ Sizing
 "CHRtFlo_Sys_T_OfficeSm_C" = 269.4894   $ Sizing
 "CHRtFlo_Sys_T_OfficeSm_E" = 1282.832   $ Sizing
 "CHRtFlo_Sys_T_OfficeSm_N" = 584.5328   $ Sizing
 "CHRtFlo_Sys_T_OfficeSm_S" = 1253.479   $ Sizing
 "CHRtFlo_Sys_T_OfficeSm_W" = 1232.863   $ Sizing
 "CHRtFlo_Sys_T_Restrm_C" = 210.3849   $ Sizing
 "CHRtFlo_Sys_T_StorSm_C" = 331.7615   $ Sizing
 "CRtdFlo_Sys_L_Break_C" = 369.6353   $ Sizing
 "CRtdFlo_Sys_L_Conf_C" = 438.1057   $ Sizing
 "CRtdFlo_Sys_L_CopyRm_C" = 111.2477   $ Sizing
 "CRtdFlo_Sys_L_Cordr_C" = 561.498   $ Sizing
 "CRtdFlo_Sys_L_Cordr_E" = 228.4807   $ Sizing
 "CRtdFlo_Sys_L_Cordr_N" = 93.58389   $ Sizing
 "CRtdFlo_Sys_L_Cordr_S" = 227.1305   $ Sizing
 "CRtdFlo_Sys_L_Cordr_W" = 220.6516   $ Sizing
 "CRtdFlo_Sys_L_LobWait_C" = 385.0473   $ Sizing
 "CRtdFlo_Sys_L_MechElec_C" = 133.2348   $ Sizing
 "CRtdFlo_Sys_L_OfficeOpn_C" = 1668.082   $ Sizing
 "CRtdFlo_Sys_L_OfficeOpn_E" = 1743.811   $ Sizing
 "CRtdFlo_Sys_L_OfficeOpn_N" = 854.1824   $ Sizing
 "CRtdFlo_Sys_L_OfficeOpn_S" = 1676.833   $ Sizing
 "CRtdFlo_Sys_L_OfficeOpn_W" = 1737.309   $ Sizing
 "CRtdFlo_Sys_L_OfficeSm_C" = 237.6784   $ Sizing
 "CRtdFlo_Sys_L_OfficeSm_E" = 1261.854   $ Sizing
 "CRtdFlo_Sys_L_OfficeSm_N" = 528.5938   $ Sizing
 "CRtdFlo_Sys_L_OfficeSm_S" = 1226.276   $ Sizing
 "CRtdFlo_Sys_L_OfficeSm_W" = 1248.124   $ Sizing
 "CRtdFlo_Sys_L_Restrm_C" = 210.3849   $ Sizing
 "CRtdFlo_Sys_L_StorSm_C" = 380.5255   $ Sizing
 "CRtdFlo_Sys_M_Break_C" = 3256.441   $ Sizing
 "CRtdFlo_Sys_M_Conf_C" = 3966.778   $ Sizing
 "CRtdFlo_Sys_M_CopyRm_C" = 1125.089   $ Sizing
 "CRtdFlo_Sys_M_Cordr_C" = 6928.059   $ Sizing
 "CRtdFlo_Sys_M_Cordr_E" = 2215.391   $ Sizing
 "CRtdFlo_Sys_M_Cordr_N" = 1045.781   $ Sizing
 "CRtdFlo_Sys_M_Cordr_S" = 2111.893   $ Sizing
 "CRtdFlo_Sys_M_Cordr_W" = 1981.978   $ Sizing
 "CRtdFlo_Sys_M_LobWait_C" = 4038.387   $ Sizing
 "CRtdFlo_Sys_M_MechElec_C" = 1340.286   $ Sizing
 "CRtdFlo_Sys_M_OfficeOpn_C" = 16006.07   $ Sizing
 "CRtdFlo_Sys_M_OfficeOpn_E" = 15403.76   $ Sizing
 "CRtdFlo_Sys_M_OfficeOpn_N" = 8042.042   $ Sizing
 "CRtdFlo_Sys_M_OfficeOpn_S" = 14576.32   $ Sizing
 "CRtdFlo_Sys_M_OfficeOpn_W" = 14585   $ Sizing
 "CRtdFlo_Sys_M_OfficeSm_C" = 2318.991   $ Sizing
 "CRtdFlo_Sys_M_OfficeSm_E" = 10933.28   $ Sizing
 "CRtdFlo_Sys_M_OfficeSm_N" = 5079.027   $ Sizing
 "CRtdFlo_Sys_M_OfficeSm_S" = 10562.89   $ Sizing
 "CRtdFlo_Sys_M_OfficeSm_W" = 10416.16   $ Sizing
 "CRtdFlo_Sys_M_Restrm_C" = 1683.079   $ Sizing
 "CRtdFlo_Sys_M_StorSm_C" = 3313.458   $ Sizing
 "CRtdFlo_Sys_T_Break_C" = 385.826   $ Sizing
 "CRtdFlo_Sys_T_Conf_C" = 458.6626   $ Sizing
 "CRtdFlo_Sys_T_CopyRm_C" = 130.0242   $ Sizing
 "CRtdFlo_Sys_T_Cordr_C" = 758.151   $ Sizing
 "CRtdFlo_Sys_T_Cordr_E" = 246.9006   $ Sizing
 "CRtdFlo_Sys_T_Cordr_N" = 111.5053   $ Sizing
 "CRtdFlo_Sys_T_Cordr_S" = 239.8381   $ Sizing
 "CRtdFlo_Sys_T_Cordr_W" = 224.5115   $ Sizing
 "CRtdFlo_Sys_T_LobWait_C" = 451.454   $ Sizing
 "CRtdFlo_Sys_T_MechElec_C" = 194.4358   $ Sizing
 "CRtdFlo_Sys_T_OfficeOpn_C" = 1812.221   $ Sizing
 "CRtdFlo_Sys_T_OfficeOpn_E" = 1738.842   $ Sizing
 "CRtdFlo_Sys_T_OfficeOpn_N" = 918.3691   $ Sizing
 "CRtdFlo_Sys_T_OfficeOpn_S" = 1700.337   $ Sizing
 "CRtdFlo_Sys_T_OfficeOpn_W" = 1685.889   $ Sizing
 "CRtdFlo_Sys_T_OfficeSm_C" = 269.4894   $ Sizing
 "CRtdFlo_Sys_T_OfficeSm_E" = 1282.832   $ Sizing
 "CRtdFlo_Sys_T_OfficeSm_N" = 584.5328   $ Sizing
 "CRtdFlo_Sys_T_OfficeSm_S" = 1253.479   $ Sizing
 "CRtdFlo_Sys_T_OfficeSm_W" = 1232.863   $ Sizing
 "CRtdFlo_Sys_T_Restrm_C" = 210.3849   $ Sizing
 "CRtdFlo_Sys_T_StorSm_C" = 331.7615   $ Sizing
 "CSupFlo_Sys_L_Break_C" = 369.6353   $ Sizing
 "CSupFlo_Sys_L_Conf_C" = 438.1057   $ Sizing
 "CSupFlo_Sys_L_CopyRm_C" = 111.2477   $ Sizing
 "CSupFlo_Sys_L_Cordr_C" = 561.498   $ Sizing
 "CSupFlo_Sys_L_Cordr_E" = 228.4807   $ Sizing
 "CSupFlo_Sys_L_Cordr_N" = 93.58389   $ Sizing
 "CSupFlo_Sys_L_Cordr_S" = 227.1305   $ Sizing
 "CSupFlo_Sys_L_Cordr_W" = 220.6516   $ Sizing
 "CSupFlo_Sys_L_LobWait_C" = 385.0473   $ Sizing
 "CSupFlo_Sys_L_MechElec_C" = 133.2348   $ Sizing
 "CSupFlo_Sys_L_OfficeOpn_C" = 1668.082   $ Sizing
 "CSupFlo_Sys_L_OfficeOpn_E" = 1743.811   $ Sizing
 "CSupFlo_Sys_L_OfficeOpn_N" = 854.1824   $ Sizing
 "CSupFlo_Sys_L_OfficeOpn_S" = 1676.833   $ Sizing
 "CSupFlo_Sys_L_OfficeOpn_W" = 1737.309   $ Sizing
 "CSupFlo_Sys_L_OfficeSm_C" = 237.6784   $ Sizing
 "CSupFlo_Sys_L_OfficeSm_E" = 1261.854   $ Sizing
 "CSupFlo_Sys_L_OfficeSm_N" = 528.5938   $ Sizing
 "CSupFlo_Sys_L_OfficeSm_S" = 1226.276   $ Sizing
 "CSupFlo_Sys_L_OfficeSm_W" = 1248.124   $ Sizing
 "CSupFlo_Sys_L_Restrm_C" = 210.3849   $ Sizing
 "CSupFlo_Sys_L_StorSm_C" = 380.5255   $ Sizing
 "CSupFlo_Sys_M_Break_C" = 3256.441   $ Sizing
 "CSupFlo_Sys_M_Conf_C" = 3966.778   $ Sizing
 "CSupFlo_Sys_M_CopyRm_C" = 1125.089   $ Sizing
 "CSupFlo_Sys_M_Cordr_C" = 6928.059   $ Sizing
 "CSupFlo_Sys_M_Cordr_E" = 2215.391   $ Sizing
 "CSupFlo_Sys_M_Cordr_N" = 1045.781   $ Sizing
 "CSupFlo_Sys_M_Cordr_S" = 2111.893   $ Sizing
 "CSupFlo_Sys_M_Cordr_W" = 1981.978   $ Sizing
 "CSupFlo_Sys_M_LobWait_C" = 4038.387   $ Sizing
 "CSupFlo_Sys_M_MechElec_C" = 1340.286   $ Sizing
 "CSupFlo_Sys_M_OfficeOpn_C" = 16006.07   $ Sizing
 "CSupFlo_Sys_M_OfficeOpn_E" = 15403.76   $ Sizing
 "CSupFlo_Sys_M_OfficeOpn_N" = 8042.043   $ Sizing
 "CSupFlo_Sys_M_OfficeOpn_S" = 14576.32   $ Sizing
 "CSupFlo_Sys_M_OfficeOpn_W" = 14585   $ Sizing
 "CSupFlo_Sys_M_OfficeSm_C" = 2318.991   $ Sizing
 "CSupFlo_Sys_M_OfficeSm_E" = 10933.28   $ Sizing
 "CSupFlo_Sys_M_OfficeSm_N" = 5079.027   $ Sizing
 "CSupFlo_Sys_M_OfficeSm_S" = 10562.89   $ Sizing
 "CSupFlo_Sys_M_OfficeSm_W" = 10416.16   $ Sizing
 "CSupFlo_Sys_M_Restrm_C" = 1683.079   $ Sizing
 "CSupFlo_Sys_M_StorSm_C" = 3313.458   $ Sizing
 "CSupFlo_Sys_T_Break_C" = 385.826   $ Sizing
 "CSupFlo_Sys_T_Conf_C" = 458.6626   $ Sizing
 "CSupFlo_Sys_T_CopyRm_C" = 130.0242   $ Sizing
 "CSupFlo_Sys_T_Cordr_C" = 758.151   $ Sizing
 "CSupFlo_Sys_T_Cordr_E" = 246.9006   $ Sizing
 "CSupFlo_Sys_T_Cordr_N" = 111.5053   $ Sizing
 "CSupFlo_Sys_T_Cordr_S" = 239.8381   $ Sizing
 "CSupFlo_Sys_T_Cordr_W" = 224.5115   $ Sizing
 "CSupFlo_Sys_T_LobWait_C" = 451.454   $ Sizing
 "CSupFlo_Sys_T_MechElec_C" = 194.4358   $ Sizing
 "CSupFlo_Sys_T_OfficeOpn_C" = 1812.221   $ Sizing
 "CSupFlo_Sys_T_OfficeOpn_E" = 1738.842   $ Sizing
 "CSupFlo_Sys_T_OfficeOpn_N" = 918.3691   $ Sizing
 "CSupFlo_Sys_T_OfficeOpn_S" = 1700.337   $ Sizing
 "CSupFlo_Sys_T_OfficeOpn_W" = 1685.889   $ Sizing
 "CSupFlo_Sys_T_OfficeSm_C" = 269.4894   $ Sizing
 "CSupFlo_Sys_T_OfficeSm_E" = 1282.832   $ Sizing
 "CSupFlo_Sys_T_OfficeSm_N" = 584.5328   $ Sizing
 "CSupFlo_Sys_T_OfficeSm_S" = 1253.479   $ Sizing
 "CSupFlo_Sys_T_OfficeSm_W" = 1232.863   $ Sizing
 "CSupFlo_Sys_T_Restrm_C" = 210.3849   $ Sizing
 "CSupFlo_Sys_T_StorSm_C" = 331.7615   $ Sizing
 "ClCap_Sys_L_Break_C" = 12666.73   $ Sizing
 "ClCap_Sys_L_Conf_C" = 19107.56   $ Sizing
 "ClCap_Sys_L_CopyRm_C" = 3812.254   $ Sizing
 "ClCap_Sys_L_Cordr_C" = 19241.51   $ Sizing
 "ClCap_Sys_L_Cordr_E" = 7829.616   $ Sizing
 "ClCap_Sys_L_Cordr_N" = 3206.949   $ Sizing
 "ClCap_Sys_L_Cordr_S" = 7783.347   $ Sizing
 "ClCap_Sys_L_Cordr_W" = 7561.327   $ Sizing
 "ClCap_Sys_L_LobWait_C" = 13194.87   $ Sizing
 "ClCap_Sys_L_MechElec_C" = 4565.713   $ Sizing
 "ClCap_Sys_L_OfficeOpn_C" = 57162.11   $ Sizing
 "ClCap_Sys_L_OfficeOpn_E" = 59757.2   $ Sizing
 "ClCap_Sys_L_OfficeOpn_N" = 29271.27   $ Sizing
 "ClCap_Sys_L_OfficeOpn_S" = 57462   $ Sizing
 "ClCap_Sys_L_OfficeOpn_W" = 59534.41   $ Sizing
 "ClCap_Sys_L_OfficeSm_C" = 8144.804   $ Sizing
 "ClCap_Sys_L_OfficeSm_E" = 43241.45   $ Sizing
 "ClCap_Sys_L_OfficeSm_N" = 18113.94   $ Sizing
 "ClCap_Sys_L_OfficeSm_S" = 42022.24   $ Sizing
 "ClCap_Sys_L_OfficeSm_W" = 42770.91   $ Sizing
 "ClCap_Sys_L_Restrm_C" = 7209.506   $ Sizing
 "ClCap_Sys_L_StorSm_C" = 13039.91   $ Sizing
 "ClCap_Sys_M_Break_C" = 111592.3   $ Sizing
 "ClCap_Sys_M_Conf_C" = 173007.2   $ Sizing
 "ClCap_Sys_M_CopyRm_C" = 38554.74   $ Sizing
 "ClCap_Sys_M_Cordr_C" = 237411.9   $ Sizing
 "ClCap_Sys_M_Cordr_E" = 75917.41   $ Sizing
 "ClCap_Sys_M_Cordr_N" = 35837.02   $ Sizing
 "ClCap_Sys_M_Cordr_S" = 72370.7   $ Sizing
 "ClCap_Sys_M_Cordr_W" = 67918.77   $ Sizing
 "ClCap_Sys_M_LobWait_C" = 138388.1   $ Sizing
 "ClCap_Sys_M_MechElec_C" = 45929.16   $ Sizing
 "ClCap_Sys_M_OfficeOpn_C" = 548498.8   $ Sizing
 "ClCap_Sys_M_OfficeOpn_E" = 527858.6   $ Sizing
 "ClCap_Sys_M_OfficeOpn_N" = 275586.1   $ Sizing
 "ClCap_Sys_M_OfficeOpn_S" = 499503.8   $ Sizing
 "ClCap_Sys_M_OfficeOpn_W" = 499801.2   $ Sizing
 "ClCap_Sys_M_OfficeSm_C" = 79467.58   $ Sizing
 "ClCap_Sys_M_OfficeSm_E" = 374663.6   $ Sizing
 "ClCap_Sys_M_OfficeSm_N" = 174049   $ Sizing
 "ClCap_Sys_M_OfficeSm_S" = 361970.9   $ Sizing
 "ClCap_Sys_M_OfficeSm_W" = 356942.9   $ Sizing
 "ClCap_Sys_M_Restrm_C" = 57676.05   $ Sizing
 "ClCap_Sys_M_StorSm_C" = 113546.1   $ Sizing
 "ClCap_Sys_T_Break_C" = 13221.55   $ Sizing
 "ClCap_Sys_T_Conf_C" = 20004.13   $ Sizing
 "ClCap_Sys_T_CopyRm_C" = 4455.692   $ Sizing
 "ClCap_Sys_T_Cordr_C" = 25980.45   $ Sizing
 "ClCap_Sys_T_Cordr_E" = 8460.833   $ Sizing
 "ClCap_Sys_T_Cordr_N" = 3821.084   $ Sizing
 "ClCap_Sys_T_Cordr_S" = 8218.813   $ Sizing
 "ClCap_Sys_T_Cordr_W" = 7693.598   $ Sizing
 "ClCap_Sys_T_LobWait_C" = 15470.5   $ Sizing
 "ClCap_Sys_T_MechElec_C" = 6662.958   $ Sizing
 "ClCap_Sys_T_OfficeOpn_C" = 62101.51   $ Sizing
 "ClCap_Sys_T_OfficeOpn_E" = 59586.94   $ Sizing
 "ClCap_Sys_T_OfficeOpn_N" = 31470.83   $ Sizing
 "ClCap_Sys_T_OfficeOpn_S" = 58267.44   $ Sizing
 "ClCap_Sys_T_OfficeOpn_W" = 57772.32   $ Sizing
 "ClCap_Sys_T_OfficeSm_C" = 9234.91   $ Sizing
 "ClCap_Sys_T_OfficeSm_E" = 43960.31   $ Sizing
 "ClCap_Sys_T_OfficeSm_N" = 20030.87   $ Sizing
 "ClCap_Sys_T_OfficeSm_S" = 42954.44   $ Sizing
 "ClCap_Sys_T_OfficeSm_W" = 42247.96   $ Sizing
 "ClCap_Sys_T_Restrm_C" = 7209.506   $ Sizing
 "ClCap_Sys_T_StorSm_C" = 11368.86   $ Sizing
 "HtCap_Sys_L_Break_C" = -17831.97   $ Sizing
 "HtCap_Sys_L_Conf_C" = -22030.11   $ Sizing
 "HtCap_Sys_L_CopyRm_C" = -6153.128   $ Sizing
 "HtCap_Sys_L_Cordr_C" = -23105.18   $ Sizing
 "HtCap_Sys_L_Cordr_E" = -7753.922   $ Sizing
 "HtCap_Sys_L_Cordr_N" = -3875.858   $ Sizing
 "HtCap_Sys_L_Cordr_S" = -7676.384   $ Sizing
 "HtCap_Sys_L_Cordr_W" = -7488.491   $ Sizing
 "HtCap_Sys_L_LobWait_C" = -18535.93   $ Sizing
 "HtCap_Sys_L_MechElec_C" = -5485.522   $ Sizing
 "HtCap_Sys_L_OfficeOpn_C" = -81917.13   $ Sizing
 "HtCap_Sys_L_OfficeOpn_E" = -85612.53   $ Sizing
 "HtCap_Sys_L_OfficeOpn_N" = -30925.21   $ Sizing
 "HtCap_Sys_L_OfficeOpn_S" = -82217.79   $ Sizing
 "HtCap_Sys_L_OfficeOpn_W" = -55921.86   $ Sizing
 "HtCap_Sys_L_OfficeSm_C" = -11434.33   $ Sizing
 "HtCap_Sys_L_OfficeSm_E" = -39641.66   $ Sizing
 "HtCap_Sys_L_OfficeSm_N" = -19405.32   $ Sizing
 "HtCap_Sys_L_OfficeSm_S" = -38452.94   $ Sizing
 "HtCap_Sys_L_OfficeSm_W" = -40111.62   $ Sizing
 "HtCap_Sys_L_Restrm_C" = -7715.915   $ Sizing
 "HtCap_Sys_L_StorSm_C" = -15160.89   $ Sizing
 "HtCap_Sys_M_Break_C" = -151036.1   $ Sizing
 "HtCap_Sys_M_Conf_C" = -189390.4   $ Sizing
 "HtCap_Sys_M_CopyRm_C" = -55855.42   $ Sizing
 "HtCap_Sys_M_Cordr_C" = -253542.7   $ Sizing
 "HtCap_Sys_M_Cordr_E" = -73013.98   $ Sizing
 "HtCap_Sys_M_Cordr_N" = -39480.81   $ Sizing
 "HtCap_Sys_M_Cordr_S" = -69672.35   $ Sizing
 "HtCap_Sys_M_Cordr_W" = -66322.42   $ Sizing
 "HtCap_Sys_M_LobWait_C" = -175420.7   $ Sizing
 "HtCap_Sys_M_MechElec_C" = -51660.23   $ Sizing
 "HtCap_Sys_M_OfficeOpn_C" = -786812.5   $ Sizing
 "HtCap_Sys_M_OfficeOpn_E" = -754607.5   $ Sizing
 "HtCap_Sys_M_OfficeOpn_N" = -281073.9   $ Sizing
 "HtCap_Sys_M_OfficeOpn_S" = -714755.3   $ Sizing
 "HtCap_Sys_M_OfficeOpn_W" = -465821.8   $ Sizing
 "HtCap_Sys_M_OfficeSm_C" = -113388   $ Sizing
 "HtCap_Sys_M_OfficeSm_E" = -342417.5   $ Sizing
 "HtCap_Sys_M_OfficeSm_N" = -179536.1   $ Sizing
 "HtCap_Sys_M_OfficeSm_S" = -334954.7   $ Sizing
 "HtCap_Sys_M_OfficeSm_W" = -332411.2   $ Sizing
 "HtCap_Sys_M_Restrm_C" = -66281.63   $ Sizing
 "HtCap_Sys_M_StorSm_C" = -127592.4   $ Sizing
 "HtCap_Sys_T_Break_C" = -19094.4   $ Sizing
 "HtCap_Sys_T_Conf_C" = -23393.5   $ Sizing
 "HtCap_Sys_T_CopyRm_C" = -6856.808   $ Sizing
 "HtCap_Sys_T_Cordr_C" = -31144.72   $ Sizing
 "HtCap_Sys_T_Cordr_E" = -9444.693   $ Sizing
 "HtCap_Sys_T_Cordr_N" = -4871.988   $ Sizing
 "HtCap_Sys_T_Cordr_S" = -8882.011   $ Sizing
 "HtCap_Sys_T_Cordr_W" = -8736.14   $ Sizing
 "HtCap_Sys_T_LobWait_C" = -21642.64   $ Sizing
 "HtCap_Sys_T_MechElec_C" = -7224.089   $ Sizing
 "HtCap_Sys_T_OfficeOpn_C" = -88655.8   $ Sizing
 "HtCap_Sys_T_OfficeOpn_E" = -62858.14   $ Sizing
 "HtCap_Sys_T_OfficeOpn_N" = -37215.64   $ Sizing
 "HtCap_Sys_T_OfficeOpn_S" = -62224.17   $ Sizing
 "HtCap_Sys_T_OfficeOpn_W" = -61132.61   $ Sizing
 "HtCap_Sys_T_OfficeSm_C" = -10736.96   $ Sizing
 "HtCap_Sys_T_OfficeSm_E" = -46705.02   $ Sizing
 "HtCap_Sys_T_OfficeSm_N" = -23708.51   $ Sizing
 "HtCap_Sys_T_OfficeSm_S" = -45635.61   $ Sizing
 "HtCap_Sys_T_OfficeSm_W" = -45163   $ Sizing
 "HtCap_Sys_T_Restrm_C" = -8482.219   $ Sizing
 "HtCap_Sys_T_StorSm_C" = -14992.46   $ Sizing
..

##include Templates\OfL_DX_SZ.inp
END ..
COMPUTE ..
STOP ..
