INPUT ..

##fileprefix C:\Users\jglasskatz\MASControl3\
##set1 IsSizing FALSE
##set1 CoolType DX
##set1 HeatType FURNACE
##set1 EU_HrRepVar 0
##set1 BldgVint 2017
##set1 BldgLoc CZ11

 ##set1 mBFMult 1   $ IP Tech: RefgChg-NRes-Std

PARAMETER
 "AltFactor" = 1.01292   $ IP Non-Tech
 "BF_fFlow" = SpltAC2SpHiSEER_BF_fFlow   $ Msr (Multi)TechID: MsrNResSplitAC-lt45-S17
 "BF_fT" = SpltAC2SpHiSEER_BF_fT   $ Msr (Multi)TechID: MsrNResSplitAC-lt45-S17
 "BldgEconoFlag" = 1   $ IP Non-Tech
 "Break_EWSF" = 1   $ IP Non-Tech
 "Break_LWSF" = 0.9   $ IP Non-Tech
 "CDD_DBHi10" = 85   $ IP Non-Tech
 "CDD_DBHi7" = 106   $ IP Non-Tech
 "CDD_DBHi8" = 106   $ IP Non-Tech
 "CDD_DBHi9" = 99   $ IP Non-Tech
 "CDD_DBRange10" = 23   $ IP Non-Tech
 "CDD_DBRange7" = 30   $ IP Non-Tech
 "CDD_DBRange8" = 33   $ IP Non-Tech
 "CDD_DBRange9" = 33   $ IP Non-Tech
 "CDD_Day10" = 15   $ IP Non-Tech
 "CDD_Day7" = 16   $ IP Non-Tech
 "CDD_Day8" = 20   $ IP Non-Tech
 "CDD_Day9" = 17   $ IP Non-Tech
 "CDD_HrHi10" = 16   $ IP Non-Tech
 "CDD_HrHi7" = 16   $ IP Non-Tech
 "CDD_HrHi8" = 16   $ IP Non-Tech
 "CDD_HrHi9" = 16   $ IP Non-Tech
 "CDD_HrLo10" = 6   $ IP Non-Tech
 "CDD_HrLo7" = 7   $ IP Non-Tech
 "CDD_HrLo8" = 7   $ IP Non-Tech
 "CDD_HrLo9" = 7   $ IP Non-Tech
 "CDD_WB10" = 59.3704567   $ IP Non-Tech
 "CDD_WB7" = 72.37876129   $ IP Non-Tech
 "CDD_WB8" = 69.41531372   $ IP Non-Tech
 "CDD_WB9" = 65.60124207   $ IP Non-Tech
 "CEIR_fPLR_Hot" = SpltAC2SpHiSEER_CEIR_fPLR_Hot   $ Msr (Multi)TechID: MsrNResSplitAC-lt45-S17
 "CEIR_fPLR_Mod" = SpltAC2SpHiSEER_CEIR_fPLR_Mod   $ Msr (Multi)TechID: MsrNResSplitAC-lt45-S17
 "CEIR_fPLR_Tem" = SpltAC2SpHiSEER_CEIR_fPLR_Tem   $ Msr (Multi)TechID: MsrNResSplitAC-lt45-S17
 "CLoss_fPLR_Hot" = SpltAC2SpHiSEER_CLoss_fPLR_Hot   $ Msr (Multi)TechID: MsrNResSplitAC-lt45-S17
 "CLoss_fPLR_Mod" = SpltAC2SpHiSEER_CLoss_fPLR_Mod   $ Msr (Multi)TechID: MsrNResSplitAC-lt45-S17
 "CLoss_fPLR_Tem" = SpltAC2SpHiSEER_CLoss_fPLR_Tem   $ Msr (Multi)TechID: MsrNResSplitAC-lt45-S17
 "COP47" = 0   $ Msr (Multi)TechID: MsrNResSplitAC-lt45-S17
 "CZ_Category" = Hot   $ IP Non-Tech
 "CapRange" = Any   $ Msr (Multi)TechID: MsrNResSplitAC-lt45-S17
 "CfmPerBtuh" = 0.03   $ Msr (Multi)TechID: MsrNResSplitAC-lt45-S17
 "ChwVintEconoFlag" = 1   $ IP Non-Tech
 "ClCap_fT" = SpltAC2SpHiSEER_ClCap_fT   $ Msr (Multi)TechID: MsrNResSplitAC-lt45-S17
 "ClSH_fT" = SpltAC2SpHiSEER_ClSH_fT   $ Msr (Multi)TechID: MsrNResSplitAC-lt45-S17
 "CoilBF" = 0.102   $ Msr (Multi)TechID: MsrNResSplitAC-lt45-S17
 "CondWPerBtuh" = 0   $ Msr (Multi)TechID: MsrNResSplitAC-lt45-S17
 "Conference_EWSF" = 1   $ IP Non-Tech
 "Conference_LWSF" = 1.2   $ IP Non-Tech
 "CoolSensCap" = 0.724   $ Msr (Multi)TechID: MsrNResSplitAC-lt45-S17
 "CoolSetT" = 45   $ IP Non-Tech
 "CoolType" = DX   $ IP Non-Tech
 "CoolingEIR" = 0.2225   $ Msr (Multi)TechID: MsrNResSplitAC-lt45-S17
 "CopyRoom_EWSF" = 1.5   $ IP Non-Tech
 "CopyRoom_LWSF" = 1.3   $ IP Non-Tech
 "CorridorStairway_EWSF" = 0.2   $ IP Non-Tech
 "CorridorStairway_LWSF" = 0.6   $ IP Non-Tech
 "CrnkEIR" = 0.002225   $ Msr (Multi)TechID: MsrNResSplitAC-lt45-S17
 "CrnkMaxT" = 50   $ Msr (Multi)TechID: MsrNResSplitAC-lt45-S17
 "DXType" = SplitSEER   $ Msr (Multi)TechID: MsrNResSplitAC-lt45-S17
 "DesCoolT" = 75   $ IP Non-Tech
 "DesHeatT" = 73   $ IP Non-Tech
 "EER" = 13.26   $ Msr (Multi)TechID: MsrNResSplitAC-lt45-S17
 "EIR_fT" = SpltAC2SpHiSEER_EIR_fT   $ Msr (Multi)TechID: MsrNResSplitAC-lt45-S17
 "EconoCtrl" = FIXED   $ Msr (Multi)TechID: MsrNResSplitAC-lt45-S17
 "EconoEnthLimit" = 28   $ IP Non-Tech
 "EconoTempLimit" = 75   $ IP Non-Tech
 "Elevation" = 348   $ IP Non-Tech
 "FanEirPlr" = TwoSpeedFan   $ Msr (Multi)TechID: MsrNResSplitAC-lt45-S17
 "FanWPerCfm" = 0.271   $ Msr (Multi)TechID: MsrNResSplitAC-lt45-S17
 "HDD_CloudAmt1" = 0   $ IP Non-Tech
 "HDD_DBHi1" = 46   $ IP Non-Tech
 "HDD_DBRange1" = 14   $ IP Non-Tech
 "HDD_Day1" = 15   $ IP Non-Tech
 "HDD_HrHi1" = 16   $ IP Non-Tech
 "HDD_HrLo1" = 7   $ IP Non-Tech
 "HDD_WB1" = 39.9   $ IP Non-Tech
 "HDD_WindSpd1" = 19.6   $ IP Non-Tech
 "HIR_fT" = 0   $ Msr (Multi)TechID: MsrNResSplitAC-lt45-S17
 "HSPF" = 0   $ Msr (Multi)TechID: MsrNResSplitAC-lt45-S17
 "HeatSrc" = FURNACE   $ IP Non-Tech
 "HeatSrcTU" = HEAT-PUMP   $ IP Non-Tech
 "HeatType" = GasFurn   $ IP Non-Tech
 "HeatTypeTU" = HEAT-PUMP   $ IP Non-Tech
 "HtCap_fT" = 0   $ Msr (Multi)TechID: MsrNResSplitAC-lt45-S17
 "HtCoolCapRatio" = 0   $ Msr (Multi)TechID: MsrNResSplitAC-lt45-S17
 "HtgEIR" = 0   $ Msr (Multi)TechID: MsrNResSplitAC-lt45-S17
 "IndoorFanMode" = CONTINUOUS   $ IP Non-Tech
 "KT_TransferAir" = Yes   $ IP Non-Tech
 "Latitude" = 40.2   $ IP Non-Tech
 "LobbyWaiting_EWSF" = 0.5   $ IP Non-Tech
 "LobbyWaiting_LWSF" = 0.875   $ IP Non-Tech
 "Longitude" = 122.3   $ IP Non-Tech
 "LowSpdCapRatio" = 0.686   $ Msr (Multi)TechID: MsrNResSplitAC-lt45-S17
 "LowSpdCfmRatio" = 0.739   $ Msr (Multi)TechID: MsrNResSplitAC-lt45-S17
 "MZFanMechEff" = 0.58   $ IP Non-Tech
 "MZHasRetFan" = FALSE   $ IP Non-Tech
 "MZ_RFanWPerCfm" = 0.37   $ IP Non-Tech
 "MZ_SFanWPerCfm" = 0.71   $ IP Non-Tech
 "MZ_SupFanStatic" = 2.25   $ IP Non-Tech
 "MaxOAFrac" = 1   $ Msr (Multi)TechID: MsrNResSplitAC-lt45-S17
 "MaxSupT_MZ" = 100   $ IP Non-Tech
 "MaxSupT_SZ" = 100   $ IP Non-Tech
 "MaxSupT_TU" = 90   $ IP Non-Tech
 "MechElecRoom_EWSF" = 0.2   $ IP Non-Tech
 "MechElecRoom_LWSF" = 0.55   $ IP Non-Tech
 "MinCfmPerSF" = 0.4   $ IP Non-Tech
 "MinSupT" = 55   $ IP Non-Tech
 "NumStages" = 2   $ Msr (Multi)TechID: MsrNResSplitAC-lt45-S17
 "OccCoolT" = 76   $ IP Non-Tech
 "OccHeatT" = 72   $ IP Non-Tech
 "OfficeOpen_EWSF" = 1.5   $ IP Non-Tech
 "OfficeOpen_LWSF" = 1.05   $ IP Non-Tech
 "OfficeSmall_EWSF" = 1.5   $ IP Non-Tech
 "OfficeSmall_LWSF" = 1.3   $ IP Non-Tech
 "PkgDxVintEconoFlag" = 1   $ IP Non-Tech
 "Restroom_EWSF" = 0.2   $ IP Non-Tech
 "Restroom_LWSF" = 0.6   $ IP Non-Tech
 "SEER" = 17   $ Msr (Multi)TechID: MsrNResSplitAC-lt45-S17
 "SZFanMechEff" = 0.58   $ IP Non-Tech
 "SZHasRetFan" = FALSE   $ IP Non-Tech
 "SZ_Is_2Spd" = TRUE   $ IP Non-Tech
 "SZ_SFanWPerCfm" = 0.46   $ IP Non-Tech
 "SZ_SupFanStatic" = 0.75   $ IP Non-Tech
 "Sector" = Any   $ Msr (Multi)TechID: MsrNResSplitAC-lt45-S17
 "StorageSmlCond_EWSF" = 0.2   $ IP Non-Tech
 "StorageSmlCond_LWSF" = 0.6   $ IP Non-Tech
 "SubType" = AC   $ Msr (Multi)TechID: MsrNResSplitAC-lt45-S17
 "TermUnitFanMechEff" = 1   $ IP Non-Tech
 "TermUnitFanMode" = INTERMITTENT   $ IP Non-Tech
 "TotCoolCap" = 58805   $ Msr (Multi)TechID: MsrNResSplitAC-lt45-S17
 "TwrSetpt" = 85.8   $ IP Non-Tech
 "UnocCoolT" = 86   $ IP Non-Tech
 "UnocHeatT" = 62   $ IP Non-Tech
 "UseEconoVintApplic" = FALSE   $ Msr (Multi)TechID: MsrNResSplitAC-lt45-S17
 "WlhpVintEconoFlag" = 1   $ IP Non-Tech
 "DuctDT" = 1   $ IP Tech: ComDuctInsul-1
 "DuctAirLoss" = 0   $ IP Tech: ComDuctLeak-0
 "DuctLossOAFrac" = 0   $ IP Tech: ComDuctLeak-0
 "ComRoofInsCalc" = FromUo   $ IP Tech: ComRoofIns-Hvy-0.03
 "ComRoofInsR" = -999   $ IP Tech: ComRoofIns-Hvy-0.03
 "ComRoofUo" = 0.03   $ IP Tech: ComRoofIns-Hvy-0.03
 "ComEWInsCalc" = FromUo   $ IP Tech: ComWallIns-MFrm-0.06
 "ComEWInsR" = -999   $ IP Tech: ComWallIns-MFrm-0.06
 "ComEWUo" = 0.06   $ IP Tech: ComWallIns-MFrm-0.06
 "ComN_SHGC" = 0.26   $ IP Tech: NResWin-ComN-0.41-0.26
 "ComN_UFactor" = 0.41   $ IP Tech: NResWin-ComN-0.41-0.26
 "ComN_VisTrans" = 0.41   $ IP Tech: NResWin-ComN-0.41-0.26
 "ComN_WinCode" = G2666   $ IP Tech: NResWin-ComN-0.41-0.26
 "ComN_WinFrmFrac" = 0.17   $ IP Tech: NResWin-ComN-0.41-0.26
 "ComN_WinFrmU" = 0.3   $ IP Tech: NResWin-ComN-0.41-0.26
 "ComO_SHGC" = 0.26   $ IP Tech: NResWin-ComO-0.41-0.26
 "ComO_UFactor" = 0.41   $ IP Tech: NResWin-ComO-0.41-0.26
 "ComO_VisTrans" = 0.41   $ IP Tech: NResWin-ComO-0.41-0.26
 "ComO_WinCode" = G2666   $ IP Tech: NResWin-ComO-0.41-0.26
 "ComO_WinFrmFrac" = 0.17   $ IP Tech: NResWin-ComO-0.41-0.26
 "ComO_WinFrmU" = 0.3   $ IP Tech: NResWin-ComO-0.41-0.26
 "LtgMsrApplic" = ALL   $ IP Tech: NonResLtgRefPre
 "LtgSav_CFL" = 0   $ IP Tech: NonResLtgRefPre
 "LtgSav_EX" = 0   $ IP Tech: NonResLtgRefPre
 "LtgSav_HB" = 0   $ IP Tech: NonResLtgRefPre
 "LtgSav_LF" = 0   $ IP Tech: NonResLtgRefPre
 "LtgSav_SP" = 0   $ IP Tech: NonResLtgRefPre
 "CEIR_fPLR" = PSZ65to135_CEIR_fPLR   $ IP Tech: PkgAC2SpP-65to135-E11
 "CLoss_fPLR" = PSZ65to135_CLoss_fPLR   $ IP Tech: PkgAC2SpP-65to135-E11
 "COP" = -1   $ IP Tech: PkgAC2SpP-65to135-E11
 "HtgFuel" = Gas   $ IP Tech: PkgAC2SpP-65to135-E11
 "IEER" = 13.35   $ IP Tech: PkgAC2SpP-65to135-E11
 "NominalCap" = 15   $ IP Tech: PkgAC2SpP-65to135-E11
 "RatedEER" = 11   $ IP Tech: PkgAC2SpP-65to135-E11
 "RatedSupMtrClass" = Premium   $ IP Tech: PkgAC2SpP-65to135-E11
 "SizeRange" = 65to135   $ IP Tech: PkgAC2SpP-65to135-E11
 "SupMotEff" = 0.865   $ IP Tech: PkgAC2SpP-65to135-E11
 "Tier" = 0   $ IP Tech: PkgAC2SpP-65to135-E11
 "FanPwrMult" = 1   $ IP Tech: PkgFurn-0.80AFUE
 "FurnAFUE" = 0.8   $ IP Tech: PkgFurn-0.80AFUE
 "FurnEt" = 0.82   $ IP Tech: PkgFurn-0.80AFUE
 "FurnaceAuxKW" = 0.1   $ IP Tech: PkgFurn-0.80AFUE
 "HIR_fPLR" = Furnace-HIR-fPLR   $ IP Tech: PkgFurn-0.80AFUE
 "VSM" = FALSE   $ IP Tech: PkgFurn-0.80AFUE
 "BFMult" = 1   $ IP Tech: RefgChg-NRes-Std
 "CoolEirMult" = 1   $ IP Tech: RefgChg-NRes-Std
 "SensCoolCapMult" = 1   $ IP Tech: RefgChg-NRes-Std
 "TotCoolCapMult" = 1   $ IP Tech: RefgChg-NRes-Std
 "AltAdjFactor" = 1.012923   $ Sizing
 "CAssFlo_L_Break_CZn" = 578.1769   $ Sizing
 "CAssFlo_L_Conf_CZn" = 562.9174   $ Sizing
 "CAssFlo_L_CopyRm_CZn" = 186.7749   $ Sizing
 "CAssFlo_L_Cordr_CZn" = 680.2384   $ Sizing
 "CAssFlo_L_Cordr_EZn" = 236.3766   $ Sizing
 "CAssFlo_L_Cordr_NZn" = 172.0657   $ Sizing
 "CAssFlo_L_Cordr_SZn" = 226.4944   $ Sizing
 "CAssFlo_L_Cordr_WZn" = 267.1968   $ Sizing
 "CAssFlo_L_LobWait_CZn" = 539.263   $ Sizing
 "CAssFlo_L_MechElec_CZn" = 120.1325   $ Sizing
 "CAssFlo_L_OfficeOpn_CZn" = 1886.53   $ Sizing
 "CAssFlo_L_OfficeOpn_EZn" = 1633.228   $ Sizing
 "CAssFlo_L_OfficeOpn_NZn" = 1245.059   $ Sizing
 "CAssFlo_L_OfficeOpn_SZn" = 1597.059   $ Sizing
 "CAssFlo_L_OfficeOpn_WZn" = 1882.363   $ Sizing
 "CAssFlo_L_OfficeSm_CZn" = 243.2198   $ Sizing
 "CAssFlo_L_OfficeSm_EZn" = 1167.764   $ Sizing
 "CAssFlo_L_OfficeSm_NZn" = 819.9802   $ Sizing
 "CAssFlo_L_OfficeSm_SZn" = 1144.373   $ Sizing
 "CAssFlo_L_OfficeSm_WZn" = 1321.539   $ Sizing
 "CAssFlo_L_Restrm_CZn" = 94.94504   $ Sizing
 "CAssFlo_L_StorSm_CZn" = 380.218   $ Sizing
 "CAssFlo_M_Break_CZn" = 582.7065   $ Sizing
 "CAssFlo_M_Conf_CZn" = 561.3324   $ Sizing
 "CAssFlo_M_CopyRm_CZn" = 179.289   $ Sizing
 "CAssFlo_M_Cordr_CZn" = 891.2293   $ Sizing
 "CAssFlo_M_Cordr_EZn" = 269.6453   $ Sizing
 "CAssFlo_M_Cordr_NZn" = 186.0626   $ Sizing
 "CAssFlo_M_Cordr_SZn" = 246.1389   $ Sizing
 "CAssFlo_M_Cordr_WZn" = 278.7766   $ Sizing
 "CAssFlo_M_LobWait_CZn" = 559.7398   $ Sizing
 "CAssFlo_M_MechElec_CZn" = 148.0956   $ Sizing
 "CAssFlo_M_OfficeOpn_CZn" = 1892.527   $ Sizing
 "CAssFlo_M_OfficeOpn_EZn" = 1759.209   $ Sizing
 "CAssFlo_M_OfficeOpn_NZn" = 1299.813   $ Sizing
 "CAssFlo_M_OfficeOpn_SZn" = 1680.541   $ Sizing
 "CAssFlo_M_OfficeOpn_WZn" = 1926.007   $ Sizing
 "CAssFlo_M_OfficeSm_CZn" = 279.1967   $ Sizing
 "CAssFlo_M_OfficeSm_EZn" = 1240.911   $ Sizing
 "CAssFlo_M_OfficeSm_NZn" = 849.3698   $ Sizing
 "CAssFlo_M_OfficeSm_SZn" = 1191.751   $ Sizing
 "CAssFlo_M_OfficeSm_WZn" = 1338.787   $ Sizing
 "CAssFlo_M_Restrm_CZn" = 101.812   $ Sizing
 "CAssFlo_M_StorSm_CZn" = 398.4316   $ Sizing
 "CAssFlo_T_Break_CZn" = 575.4493   $ Sizing
 "CAssFlo_T_Conf_CZn" = 554.0852   $ Sizing
 "CAssFlo_T_CopyRm_CZn" = 178.2325   $ Sizing
 "CAssFlo_T_Cordr_CZn" = 823.2286   $ Sizing
 "CAssFlo_T_Cordr_EZn" = 262.4044   $ Sizing
 "CAssFlo_T_Cordr_NZn" = 187.3498   $ Sizing
 "CAssFlo_T_Cordr_SZn" = 242.7359   $ Sizing
 "CAssFlo_T_Cordr_WZn" = 277.5082   $ Sizing
 "CAssFlo_T_LobWait_CZn" = 561.2262   $ Sizing
 "CAssFlo_T_MechElec_CZn" = 166.5479   $ Sizing
 "CAssFlo_T_OfficeOpn_CZn" = 1926.197   $ Sizing
 "CAssFlo_T_OfficeOpn_EZn" = 1745.4   $ Sizing
 "CAssFlo_T_OfficeOpn_NZn" = 1310.854   $ Sizing
 "CAssFlo_T_OfficeOpn_SZn" = 1663.224   $ Sizing
 "CAssFlo_T_OfficeOpn_WZn" = 1905.877   $ Sizing
 "CAssFlo_T_OfficeSm_CZn" = 254.098   $ Sizing
 "CAssFlo_T_OfficeSm_EZn" = 1256.595   $ Sizing
 "CAssFlo_T_OfficeSm_NZn" = 862.6555   $ Sizing
 "CAssFlo_T_OfficeSm_SZn" = 1183.628   $ Sizing
 "CAssFlo_T_OfficeSm_WZn" = 1349.565   $ Sizing
 "CAssFlo_T_Restrm_CZn" = 135.1013   $ Sizing
 "CAssFlo_T_StorSm_CZn" = 292.9756   $ Sizing
 "CHRtFlo_Sys_L_Break_C" = 578.1769   $ Sizing
 "CHRtFlo_Sys_L_Conf_C" = 562.9174   $ Sizing
 "CHRtFlo_Sys_L_CopyRm_C" = 186.7749   $ Sizing
 "CHRtFlo_Sys_L_Cordr_C" = 683.4871   $ Sizing
 "CHRtFlo_Sys_L_Cordr_E" = 264.4363   $ Sizing
 "CHRtFlo_Sys_L_Cordr_N" = 172.0657   $ Sizing
 "CHRtFlo_Sys_L_Cordr_S" = 250.4429   $ Sizing
 "CHRtFlo_Sys_L_Cordr_W" = 267.1968   $ Sizing
 "CHRtFlo_Sys_L_LobWait_C" = 539.263   $ Sizing
 "CHRtFlo_Sys_L_MechElec_C" = 136.6834   $ Sizing
 "CHRtFlo_Sys_L_OfficeOpn_C" = 1886.53   $ Sizing
 "CHRtFlo_Sys_L_OfficeOpn_E" = 1855.819   $ Sizing
 "CHRtFlo_Sys_L_OfficeOpn_N" = 1245.059   $ Sizing
 "CHRtFlo_Sys_L_OfficeOpn_S" = 1809.528   $ Sizing
 "CHRtFlo_Sys_L_OfficeOpn_W" = 1882.363   $ Sizing
 "CHRtFlo_Sys_L_OfficeSm_C" = 266.6123   $ Sizing
 "CHRtFlo_Sys_L_OfficeSm_E" = 1353.354   $ Sizing
 "CHRtFlo_Sys_L_OfficeSm_N" = 819.9802   $ Sizing
 "CHRtFlo_Sys_L_OfficeSm_S" = 1331.734   $ Sizing
 "CHRtFlo_Sys_L_OfficeSm_W" = 1332.987   $ Sizing
 "CHRtFlo_Sys_L_Restrm_C" = 212.9946   $ Sizing
 "CHRtFlo_Sys_L_StorSm_C" = 420.458   $ Sizing
 "CHRtFlo_Sys_M_Break_C" = 4661.652   $ Sizing
 "CHRtFlo_Sys_M_Conf_C" = 4490.659   $ Sizing
 "CHRtFlo_Sys_M_CopyRm_C" = 1434.312   $ Sizing
 "CHRtFlo_Sys_M_Cordr_C" = 8171.577   $ Sizing
 "CHRtFlo_Sys_M_Cordr_E" = 2464.33   $ Sizing
 "CHRtFlo_Sys_M_Cordr_N" = 1516.209   $ Sizing
 "CHRtFlo_Sys_M_Cordr_S" = 2243.26   $ Sizing
 "CHRtFlo_Sys_M_Cordr_W" = 2230.213   $ Sizing
 "CHRtFlo_Sys_M_LobWait_C" = 4477.918   $ Sizing
 "CHRtFlo_Sys_M_MechElec_C" = 1414.715   $ Sizing
 "CHRtFlo_Sys_M_OfficeOpn_C" = 17008.93   $ Sizing
 "CHRtFlo_Sys_M_OfficeOpn_E" = 16165.56   $ Sizing
 "CHRtFlo_Sys_M_OfficeOpn_N" = 10398.51   $ Sizing
 "CHRtFlo_Sys_M_OfficeOpn_S" = 15498.47   $ Sizing
 "CHRtFlo_Sys_M_OfficeOpn_W" = 15408.06   $ Sizing
 "CHRtFlo_Sys_M_OfficeSm_C" = 2660.468   $ Sizing
 "CHRtFlo_Sys_M_OfficeSm_E" = 11605.5   $ Sizing
 "CHRtFlo_Sys_M_OfficeSm_N" = 6794.958   $ Sizing
 "CHRtFlo_Sys_M_OfficeSm_S" = 11256.97   $ Sizing
 "CHRtFlo_Sys_M_OfficeSm_W" = 10929.87   $ Sizing
 "CHRtFlo_Sys_M_Restrm_C" = 1703.957   $ Sizing
 "CHRtFlo_Sys_M_StorSm_C" = 3653.817   $ Sizing
 "CHRtFlo_Sys_T_Break_C" = 575.4493   $ Sizing
 "CHRtFlo_Sys_T_Conf_C" = 554.0852   $ Sizing
 "CHRtFlo_Sys_T_CopyRm_C" = 178.2325   $ Sizing
 "CHRtFlo_Sys_T_Cordr_C" = 860.1423   $ Sizing
 "CHRtFlo_Sys_T_Cordr_E" = 272.1257   $ Sizing
 "CHRtFlo_Sys_T_Cordr_N" = 187.3498   $ Sizing
 "CHRtFlo_Sys_T_Cordr_S" = 254.5776   $ Sizing
 "CHRtFlo_Sys_T_Cordr_W" = 277.5082   $ Sizing
 "CHRtFlo_Sys_T_LobWait_C" = 561.2262   $ Sizing
 "CHRtFlo_Sys_T_MechElec_C" = 200.1464   $ Sizing
 "CHRtFlo_Sys_T_OfficeOpn_C" = 1926.197   $ Sizing
 "CHRtFlo_Sys_T_OfficeOpn_E" = 1838.823   $ Sizing
 "CHRtFlo_Sys_T_OfficeOpn_N" = 1310.854   $ Sizing
 "CHRtFlo_Sys_T_OfficeOpn_S" = 1809.422   $ Sizing
 "CHRtFlo_Sys_T_OfficeOpn_W" = 1905.877   $ Sizing
 "CHRtFlo_Sys_T_OfficeSm_C" = 293.2835   $ Sizing
 "CHRtFlo_Sys_T_OfficeSm_E" = 1358.074   $ Sizing
 "CHRtFlo_Sys_T_OfficeSm_N" = 862.6555   $ Sizing
 "CHRtFlo_Sys_T_OfficeSm_S" = 1343.176   $ Sizing
 "CHRtFlo_Sys_T_OfficeSm_W" = 1349.565   $ Sizing
 "CHRtFlo_Sys_T_Restrm_C" = 212.9946   $ Sizing
 "CHRtFlo_Sys_T_StorSm_C" = 335.8768   $ Sizing
 "CRtdFlo_Sys_L_Break_C" = 578.1769   $ Sizing
 "CRtdFlo_Sys_L_Conf_C" = 562.9174   $ Sizing
 "CRtdFlo_Sys_L_CopyRm_C" = 186.7749   $ Sizing
 "CRtdFlo_Sys_L_Cordr_C" = 680.2384   $ Sizing
 "CRtdFlo_Sys_L_Cordr_E" = 236.3766   $ Sizing
 "CRtdFlo_Sys_L_Cordr_N" = 172.0657   $ Sizing
 "CRtdFlo_Sys_L_Cordr_S" = 226.4944   $ Sizing
 "CRtdFlo_Sys_L_Cordr_W" = 267.1968   $ Sizing
 "CRtdFlo_Sys_L_LobWait_C" = 539.263   $ Sizing
 "CRtdFlo_Sys_L_MechElec_C" = 120.1325   $ Sizing
 "CRtdFlo_Sys_L_OfficeOpn_C" = 1886.53   $ Sizing
 "CRtdFlo_Sys_L_OfficeOpn_E" = 1633.228   $ Sizing
 "CRtdFlo_Sys_L_OfficeOpn_N" = 1245.059   $ Sizing
 "CRtdFlo_Sys_L_OfficeOpn_S" = 1597.059   $ Sizing
 "CRtdFlo_Sys_L_OfficeOpn_W" = 1882.363   $ Sizing
 "CRtdFlo_Sys_L_OfficeSm_C" = 243.2198   $ Sizing
 "CRtdFlo_Sys_L_OfficeSm_E" = 1167.764   $ Sizing
 "CRtdFlo_Sys_L_OfficeSm_N" = 819.9802   $ Sizing
 "CRtdFlo_Sys_L_OfficeSm_S" = 1144.373   $ Sizing
 "CRtdFlo_Sys_L_OfficeSm_W" = 1321.539   $ Sizing
 "CRtdFlo_Sys_L_Restrm_C" = 94.94504   $ Sizing
 "CRtdFlo_Sys_L_StorSm_C" = 380.218   $ Sizing
 "CRtdFlo_Sys_M_Break_C" = 4661.652   $ Sizing
 "CRtdFlo_Sys_M_Conf_C" = 4490.659   $ Sizing
 "CRtdFlo_Sys_M_CopyRm_C" = 1434.312   $ Sizing
 "CRtdFlo_Sys_M_Cordr_C" = 7129.834   $ Sizing
 "CRtdFlo_Sys_M_Cordr_E" = 2157.162   $ Sizing
 "CRtdFlo_Sys_M_Cordr_N" = 1488.501   $ Sizing
 "CRtdFlo_Sys_M_Cordr_S" = 1969.111   $ Sizing
 "CRtdFlo_Sys_M_Cordr_W" = 2230.213   $ Sizing
 "CRtdFlo_Sys_M_LobWait_C" = 4477.918   $ Sizing
 "CRtdFlo_Sys_M_MechElec_C" = 1184.765   $ Sizing
 "CRtdFlo_Sys_M_OfficeOpn_C" = 15140.21   $ Sizing
 "CRtdFlo_Sys_M_OfficeOpn_E" = 14073.68   $ Sizing
 "CRtdFlo_Sys_M_OfficeOpn_N" = 10398.51   $ Sizing
 "CRtdFlo_Sys_M_OfficeOpn_S" = 13444.33   $ Sizing
 "CRtdFlo_Sys_M_OfficeOpn_W" = 15408.06   $ Sizing
 "CRtdFlo_Sys_M_OfficeSm_C" = 2233.573   $ Sizing
 "CRtdFlo_Sys_M_OfficeSm_E" = 9927.287   $ Sizing
 "CRtdFlo_Sys_M_OfficeSm_N" = 6794.958   $ Sizing
 "CRtdFlo_Sys_M_OfficeSm_S" = 9534.01   $ Sizing
 "CRtdFlo_Sys_M_OfficeSm_W" = 10710.3   $ Sizing
 "CRtdFlo_Sys_M_Restrm_C" = 814.4955   $ Sizing
 "CRtdFlo_Sys_M_StorSm_C" = 3187.453   $ Sizing
 "CRtdFlo_Sys_T_Break_C" = 575.4493   $ Sizing
 "CRtdFlo_Sys_T_Conf_C" = 554.0852   $ Sizing
 "CRtdFlo_Sys_T_CopyRm_C" = 178.2325   $ Sizing
 "CRtdFlo_Sys_T_Cordr_C" = 823.2286   $ Sizing
 "CRtdFlo_Sys_T_Cordr_E" = 262.4044   $ Sizing
 "CRtdFlo_Sys_T_Cordr_N" = 187.3498   $ Sizing
 "CRtdFlo_Sys_T_Cordr_S" = 242.7359   $ Sizing
 "CRtdFlo_Sys_T_Cordr_W" = 277.5082   $ Sizing
 "CRtdFlo_Sys_T_LobWait_C" = 561.2262   $ Sizing
 "CRtdFlo_Sys_T_MechElec_C" = 166.5479   $ Sizing
 "CRtdFlo_Sys_T_OfficeOpn_C" = 1926.197   $ Sizing
 "CRtdFlo_Sys_T_OfficeOpn_E" = 1745.4   $ Sizing
 "CRtdFlo_Sys_T_OfficeOpn_N" = 1310.854   $ Sizing
 "CRtdFlo_Sys_T_OfficeOpn_S" = 1663.224   $ Sizing
 "CRtdFlo_Sys_T_OfficeOpn_W" = 1905.877   $ Sizing
 "CRtdFlo_Sys_T_OfficeSm_C" = 254.098   $ Sizing
 "CRtdFlo_Sys_T_OfficeSm_E" = 1256.595   $ Sizing
 "CRtdFlo_Sys_T_OfficeSm_N" = 862.6555   $ Sizing
 "CRtdFlo_Sys_T_OfficeSm_S" = 1183.628   $ Sizing
 "CRtdFlo_Sys_T_OfficeSm_W" = 1349.565   $ Sizing
 "CRtdFlo_Sys_T_Restrm_C" = 135.1013   $ Sizing
 "CRtdFlo_Sys_T_StorSm_C" = 292.9756   $ Sizing
 "CSupFlo_Sys_L_Break_C" = 578.1769   $ Sizing
 "CSupFlo_Sys_L_Conf_C" = 562.9174   $ Sizing
 "CSupFlo_Sys_L_CopyRm_C" = 186.7749   $ Sizing
 "CSupFlo_Sys_L_Cordr_C" = 680.2384   $ Sizing
 "CSupFlo_Sys_L_Cordr_E" = 236.3766   $ Sizing
 "CSupFlo_Sys_L_Cordr_N" = 172.0657   $ Sizing
 "CSupFlo_Sys_L_Cordr_S" = 226.4944   $ Sizing
 "CSupFlo_Sys_L_Cordr_W" = 267.1968   $ Sizing
 "CSupFlo_Sys_L_LobWait_C" = 539.263   $ Sizing
 "CSupFlo_Sys_L_MechElec_C" = 120.1325   $ Sizing
 "CSupFlo_Sys_L_OfficeOpn_C" = 1886.53   $ Sizing
 "CSupFlo_Sys_L_OfficeOpn_E" = 1633.228   $ Sizing
 "CSupFlo_Sys_L_OfficeOpn_N" = 1245.059   $ Sizing
 "CSupFlo_Sys_L_OfficeOpn_S" = 1597.059   $ Sizing
 "CSupFlo_Sys_L_OfficeOpn_W" = 1882.363   $ Sizing
 "CSupFlo_Sys_L_OfficeSm_C" = 243.2198   $ Sizing
 "CSupFlo_Sys_L_OfficeSm_E" = 1167.764   $ Sizing
 "CSupFlo_Sys_L_OfficeSm_N" = 819.9802   $ Sizing
 "CSupFlo_Sys_L_OfficeSm_S" = 1144.373   $ Sizing
 "CSupFlo_Sys_L_OfficeSm_W" = 1321.539   $ Sizing
 "CSupFlo_Sys_L_Restrm_C" = 94.94504   $ Sizing
 "CSupFlo_Sys_L_StorSm_C" = 380.218   $ Sizing
 "CSupFlo_Sys_M_Break_C" = 4661.652   $ Sizing
 "CSupFlo_Sys_M_Conf_C" = 4490.659   $ Sizing
 "CSupFlo_Sys_M_CopyRm_C" = 1434.312   $ Sizing
 "CSupFlo_Sys_M_Cordr_C" = 7129.834   $ Sizing
 "CSupFlo_Sys_M_Cordr_E" = 2157.162   $ Sizing
 "CSupFlo_Sys_M_Cordr_N" = 1488.501   $ Sizing
 "CSupFlo_Sys_M_Cordr_S" = 1969.111   $ Sizing
 "CSupFlo_Sys_M_Cordr_W" = 2230.213   $ Sizing
 "CSupFlo_Sys_M_LobWait_C" = 4477.918   $ Sizing
 "CSupFlo_Sys_M_MechElec_C" = 1184.765   $ Sizing
 "CSupFlo_Sys_M_OfficeOpn_C" = 15140.21   $ Sizing
 "CSupFlo_Sys_M_OfficeOpn_E" = 14073.68   $ Sizing
 "CSupFlo_Sys_M_OfficeOpn_N" = 10398.51   $ Sizing
 "CSupFlo_Sys_M_OfficeOpn_S" = 13444.33   $ Sizing
 "CSupFlo_Sys_M_OfficeOpn_W" = 15408.06   $ Sizing
 "CSupFlo_Sys_M_OfficeSm_C" = 2233.573   $ Sizing
 "CSupFlo_Sys_M_OfficeSm_E" = 9927.287   $ Sizing
 "CSupFlo_Sys_M_OfficeSm_N" = 6794.958   $ Sizing
 "CSupFlo_Sys_M_OfficeSm_S" = 9534.01   $ Sizing
 "CSupFlo_Sys_M_OfficeSm_W" = 10710.3   $ Sizing
 "CSupFlo_Sys_M_Restrm_C" = 814.4955   $ Sizing
 "CSupFlo_Sys_M_StorSm_C" = 3187.453   $ Sizing
 "CSupFlo_Sys_T_Break_C" = 575.4493   $ Sizing
 "CSupFlo_Sys_T_Conf_C" = 554.0852   $ Sizing
 "CSupFlo_Sys_T_CopyRm_C" = 178.2325   $ Sizing
 "CSupFlo_Sys_T_Cordr_C" = 823.2286   $ Sizing
 "CSupFlo_Sys_T_Cordr_E" = 262.4044   $ Sizing
 "CSupFlo_Sys_T_Cordr_N" = 187.3498   $ Sizing
 "CSupFlo_Sys_T_Cordr_S" = 242.7359   $ Sizing
 "CSupFlo_Sys_T_Cordr_W" = 277.5082   $ Sizing
 "CSupFlo_Sys_T_LobWait_C" = 561.2262   $ Sizing
 "CSupFlo_Sys_T_MechElec_C" = 166.5479   $ Sizing
 "CSupFlo_Sys_T_OfficeOpn_C" = 1926.197   $ Sizing
 "CSupFlo_Sys_T_OfficeOpn_E" = 1745.4   $ Sizing
 "CSupFlo_Sys_T_OfficeOpn_N" = 1310.854   $ Sizing
 "CSupFlo_Sys_T_OfficeOpn_S" = 1663.224   $ Sizing
 "CSupFlo_Sys_T_OfficeOpn_W" = 1905.877   $ Sizing
 "CSupFlo_Sys_T_OfficeSm_C" = 254.098   $ Sizing
 "CSupFlo_Sys_T_OfficeSm_E" = 1256.595   $ Sizing
 "CSupFlo_Sys_T_OfficeSm_N" = 862.6555   $ Sizing
 "CSupFlo_Sys_T_OfficeSm_S" = 1183.628   $ Sizing
 "CSupFlo_Sys_T_OfficeSm_W" = 1349.565   $ Sizing
 "CSupFlo_Sys_T_Restrm_C" = 135.1013   $ Sizing
 "CSupFlo_Sys_T_StorSm_C" = 292.9756   $ Sizing
 "ClCap_Sys_L_Break_C" = 19570.31   $ Sizing
 "ClCap_Sys_L_Conf_C" = 24250.29   $ Sizing
 "ClCap_Sys_L_CopyRm_C" = 6322.014   $ Sizing
 "ClCap_Sys_L_Cordr_C" = 23024.92   $ Sizing
 "ClCap_Sys_L_Cordr_E" = 8000.948   $ Sizing
 "ClCap_Sys_L_Cordr_N" = 5824.132   $ Sizing
 "ClCap_Sys_L_Cordr_S" = 7666.454   $ Sizing
 "ClCap_Sys_L_Cordr_W" = 9044.159   $ Sizing
 "ClCap_Sys_L_LobWait_C" = 18253.14   $ Sizing
 "ClCap_Sys_L_MechElec_C" = 4066.283   $ Sizing
 "ClCap_Sys_L_OfficeOpn_C" = 63855.83   $ Sizing
 "ClCap_Sys_L_OfficeOpn_E" = 55282.01   $ Sizing
 "ClCap_Sys_L_OfficeOpn_N" = 42143.16   $ Sizing
 "ClCap_Sys_L_OfficeOpn_S" = 54057.75   $ Sizing
 "ClCap_Sys_L_OfficeOpn_W" = 63714.79   $ Sizing
 "ClCap_Sys_L_OfficeSm_C" = 8232.579   $ Sizing
 "ClCap_Sys_L_OfficeSm_E" = 39526.84   $ Sizing
 "ClCap_Sys_L_OfficeSm_N" = 27754.94   $ Sizing
 "ClCap_Sys_L_OfficeSm_S" = 38735.09   $ Sizing
 "ClCap_Sys_L_OfficeSm_W" = 44731.86   $ Sizing
 "ClCap_Sys_L_Restrm_C" = 3213.729   $ Sizing
 "ClCap_Sys_L_StorSm_C" = 12869.74   $ Sizing
 "ClCap_Sys_M_Break_C" = 157789   $ Sizing
 "ClCap_Sys_M_Conf_C" = 193456.1   $ Sizing
 "ClCap_Sys_M_CopyRm_C" = 48549.03   $ Sizing
 "ClCap_Sys_M_Cordr_C" = 241332.8   $ Sizing
 "ClCap_Sys_M_Cordr_E" = 73016.3   $ Sizing
 "ClCap_Sys_M_Cordr_N" = 50383.23   $ Sizing
 "ClCap_Sys_M_Cordr_S" = 66651.08   $ Sizing
 "ClCap_Sys_M_Cordr_W" = 75488.94   $ Sizing
 "ClCap_Sys_M_LobWait_C" = 151570   $ Sizing
 "ClCap_Sys_M_MechElec_C" = 40102.27   $ Sizing
 "ClCap_Sys_M_OfficeOpn_C" = 512470.7   $ Sizing
 "ClCap_Sys_M_OfficeOpn_E" = 476370.1   $ Sizing
 "ClCap_Sys_M_OfficeOpn_N" = 351971.8   $ Sizing
 "ClCap_Sys_M_OfficeOpn_S" = 455067.8   $ Sizing
 "ClCap_Sys_M_OfficeOpn_W" = 521536.6   $ Sizing
 "ClCap_Sys_M_OfficeSm_C" = 75602.68   $ Sizing
 "ClCap_Sys_M_OfficeSm_E" = 336021.9   $ Sizing
 "ClCap_Sys_M_OfficeSm_N" = 229997.8   $ Sizing
 "ClCap_Sys_M_OfficeSm_S" = 322710.1   $ Sizing
 "ClCap_Sys_M_OfficeSm_W" = 362525.5   $ Sizing
 "ClCap_Sys_M_Restrm_C" = 27569.29   $ Sizing
 "ClCap_Sys_M_StorSm_C" = 107889.9   $ Sizing
 "ClCap_Sys_T_Break_C" = 19477.99   $ Sizing
 "ClCap_Sys_T_Conf_C" = 23869.8   $ Sizing
 "ClCap_Sys_T_CopyRm_C" = 6032.869   $ Sizing
 "ClCap_Sys_T_Cordr_C" = 27864.89   $ Sizing
 "ClCap_Sys_T_Cordr_E" = 8881.945   $ Sizing
 "ClCap_Sys_T_Cordr_N" = 6341.475   $ Sizing
 "ClCap_Sys_T_Cordr_S" = 8216.199   $ Sizing
 "ClCap_Sys_T_Cordr_W" = 9393.183   $ Sizing
 "ClCap_Sys_T_LobWait_C" = 18996.56   $ Sizing
 "ClCap_Sys_T_MechElec_C" = 5637.366   $ Sizing
 "ClCap_Sys_T_OfficeOpn_C" = 65198.5   $ Sizing
 "ClCap_Sys_T_OfficeOpn_E" = 59078.84   $ Sizing
 "ClCap_Sys_T_OfficeOpn_N" = 44370.21   $ Sizing
 "ClCap_Sys_T_OfficeOpn_S" = 56297.32   $ Sizing
 "ClCap_Sys_T_OfficeOpn_W" = 64510.72   $ Sizing
 "ClCap_Sys_T_OfficeSm_C" = 8600.788   $ Sizing
 "ClCap_Sys_T_OfficeSm_E" = 42533.63   $ Sizing
 "ClCap_Sys_T_OfficeSm_N" = 29199.43   $ Sizing
 "ClCap_Sys_T_OfficeSm_S" = 40063.82   $ Sizing
 "ClCap_Sys_T_OfficeSm_W" = 45680.49   $ Sizing
 "ClCap_Sys_T_Restrm_C" = 4572.952   $ Sizing
 "ClCap_Sys_T_StorSm_C" = 9916.727   $ Sizing
 "HtCap_Sys_L_Break_C" = -32576.18   $ Sizing
 "HtCap_Sys_L_Conf_C" = -32770.64   $ Sizing
 "HtCap_Sys_L_CopyRm_C" = -12189.06   $ Sizing
 "HtCap_Sys_L_Cordr_C" = -29944.37   $ Sizing
 "HtCap_Sys_L_Cordr_E" = -9441.868   $ Sizing
 "HtCap_Sys_L_Cordr_N" = -7061.821   $ Sizing
 "HtCap_Sys_L_Cordr_S" = -8965.275   $ Sizing
 "HtCap_Sys_L_Cordr_W" = -9613.579   $ Sizing
 "HtCap_Sys_L_LobWait_C" = -30419.66   $ Sizing
 "HtCap_Sys_L_MechElec_C" = -6288.349   $ Sizing
 "HtCap_Sys_L_OfficeOpn_C" = -91365.25   $ Sizing
 "HtCap_Sys_L_OfficeOpn_E" = -63504.64   $ Sizing
 "HtCap_Sys_L_OfficeOpn_N" = -47074.2   $ Sizing
 "HtCap_Sys_L_OfficeOpn_S" = -61488.75   $ Sizing
 "HtCap_Sys_L_OfficeOpn_W" = -64373.2   $ Sizing
 "HtCap_Sys_L_OfficeSm_C" = -10462.16   $ Sizing
 "HtCap_Sys_L_OfficeSm_E" = -45920.79   $ Sizing
 "HtCap_Sys_L_OfficeSm_N" = -30864.74   $ Sizing
 "HtCap_Sys_L_OfficeSm_S" = -45002.76   $ Sizing
 "HtCap_Sys_L_OfficeSm_W" = -45373   $ Sizing
 "HtCap_Sys_L_Restrm_C" = -7744.964   $ Sizing
 "HtCap_Sys_L_StorSm_C" = -18356.83   $ Sizing
 "HtCap_Sys_M_Break_C" = -248131.9   $ Sizing
 "HtCap_Sys_M_Conf_C" = -242949.3   $ Sizing
 "HtCap_Sys_M_CopyRm_C" = -81263.45   $ Sizing
 "HtCap_Sys_M_Cordr_C" = -316723.3   $ Sizing
 "HtCap_Sys_M_Cordr_E" = -85340.91   $ Sizing
 "HtCap_Sys_M_Cordr_N" = -57965.17   $ Sizing
 "HtCap_Sys_M_Cordr_S" = -78289.28   $ Sizing
 "HtCap_Sys_M_Cordr_W" = -78964.48   $ Sizing
 "HtCap_Sys_M_LobWait_C" = -217460.3   $ Sizing
 "HtCap_Sys_M_MechElec_C" = -59325.44   $ Sizing
 "HtCap_Sys_M_OfficeOpn_C" = -644710.6   $ Sizing
 "HtCap_Sys_M_OfficeOpn_E" = -544471.6   $ Sizing
 "HtCap_Sys_M_OfficeOpn_N" = -386530.6   $ Sizing
 "HtCap_Sys_M_OfficeOpn_S" = -518839.1   $ Sizing
 "HtCap_Sys_M_OfficeOpn_W" = -523450.5   $ Sizing
 "HtCap_Sys_M_OfficeSm_C" = -98949.37   $ Sizing
 "HtCap_Sys_M_OfficeSm_E" = -388820.1   $ Sizing
 "HtCap_Sys_M_OfficeSm_N" = -252242.8   $ Sizing
 "HtCap_Sys_M_OfficeSm_S" = -375916.2   $ Sizing
 "HtCap_Sys_M_OfficeSm_W" = -369490.4   $ Sizing
 "HtCap_Sys_M_Restrm_C" = -66718.28   $ Sizing
 "HtCap_Sys_M_StorSm_C" = -150939   $ Sizing
 "HtCap_Sys_T_Break_C" = -33014.68   $ Sizing
 "HtCap_Sys_T_Conf_C" = -32244.27   $ Sizing
 "HtCap_Sys_T_CopyRm_C" = -11141.65   $ Sizing
 "HtCap_Sys_T_Cordr_C" = -38126.55   $ Sizing
 "HtCap_Sys_T_Cordr_E" = -10617.76   $ Sizing
 "HtCap_Sys_T_Cordr_N" = -8159.204   $ Sizing
 "HtCap_Sys_T_Cordr_S" = -10057.04   $ Sizing
 "HtCap_Sys_T_Cordr_W" = -11016.73   $ Sizing
 "HtCap_Sys_T_LobWait_C" = -30250.7   $ Sizing
 "HtCap_Sys_T_MechElec_C" = -8072.011   $ Sizing
 "HtCap_Sys_T_OfficeOpn_C" = -83097.34   $ Sizing
 "HtCap_Sys_T_OfficeOpn_E" = -68430.36   $ Sizing
 "HtCap_Sys_T_OfficeOpn_N" = -54312.87   $ Sizing
 "HtCap_Sys_T_OfficeOpn_S" = -68355.16   $ Sizing
 "HtCap_Sys_T_OfficeOpn_W" = -71450.63   $ Sizing
 "HtCap_Sys_T_OfficeSm_C" = -12184.57   $ Sizing
 "HtCap_Sys_T_OfficeSm_E" = -50181.67   $ Sizing
 "HtCap_Sys_T_OfficeSm_N" = -35355.96   $ Sizing
 "HtCap_Sys_T_OfficeSm_S" = -49849.59   $ Sizing
 "HtCap_Sys_T_OfficeSm_W" = -50261.98   $ Sizing
 "HtCap_Sys_T_Restrm_C" = -8414.861   $ Sizing
 "HtCap_Sys_T_StorSm_C" = -17046.61   $ Sizing
..

##include Templates\OfL_DX_SZ.inp
END ..
COMPUTE ..
STOP ..
