INPUT ..

##fileprefix C:\Users\jglasskatz\MASControl3\
##set1 IsSizing FALSE
##set1 CoolType DX
##set1 HeatType FURNACE
##set1 EU_HrRepVar 0
##set1 BldgVint 2003
##set1 BldgLoc CZ07

 ##set1 mBFMult 1   $ IP Tech: RefgChg-NRes-Std

PARAMETER
 "AltFactor" = 1.00051   $ IP Non-Tech
 "BF_fFlow" = SpltAC1Sp-ge45_BF_fFlow   $ Msr (Multi)TechID: StdNResSplitAC-45to55
 "BF_fT" = SpltAC1Sp-ge45_BF_fT   $ Msr (Multi)TechID: StdNResSplitAC-45to55
 "BldgEconoFlag" = 1   $ IP Non-Tech
 "Break_EWSF" = 1   $ IP Non-Tech
 "Break_LWSF" = 1.1   $ IP Non-Tech
 "CDD_DBHi10" = 80   $ IP Non-Tech
 "CDD_DBHi7" = 75   $ IP Non-Tech
 "CDD_DBHi8" = 75   $ IP Non-Tech
 "CDD_DBHi9" = 80   $ IP Non-Tech
 "CDD_DBRange10" = 20   $ IP Non-Tech
 "CDD_DBRange7" = 8   $ IP Non-Tech
 "CDD_DBRange8" = 6   $ IP Non-Tech
 "CDD_DBRange9" = 12   $ IP Non-Tech
 "CDD_Day10" = 15   $ IP Non-Tech
 "CDD_Day7" = 16   $ IP Non-Tech
 "CDD_Day8" = 20   $ IP Non-Tech
 "CDD_Day9" = 17   $ IP Non-Tech
 "CDD_HrHi10" = 11   $ IP Non-Tech
 "CDD_HrHi7" = 14   $ IP Non-Tech
 "CDD_HrHi8" = 11   $ IP Non-Tech
 "CDD_HrHi9" = 11   $ IP Non-Tech
 "CDD_HrLo10" = 4   $ IP Non-Tech
 "CDD_HrLo7" = 6   $ IP Non-Tech
 "CDD_HrLo8" = 1   $ IP Non-Tech
 "CDD_HrLo9" = 5   $ IP Non-Tech
 "CDD_WB10" = 64.57550049   $ IP Non-Tech
 "CDD_WB7" = 66.79747772   $ IP Non-Tech
 "CDD_WB8" = 69.55462646   $ IP Non-Tech
 "CDD_WB9" = 68.8309021   $ IP Non-Tech
 "CEIR_fPLR_Hot" = SpltAC1Sp-ge45_CEIR_fPLR_Hot   $ Msr (Multi)TechID: StdNResSplitAC-45to55
 "CEIR_fPLR_Mod" = SpltAC1Sp-ge45_CEIR_fPLR_Mod   $ Msr (Multi)TechID: StdNResSplitAC-45to55
 "CEIR_fPLR_Tem" = SpltAC1Sp-ge45_CEIR_fPLR_Tem   $ Msr (Multi)TechID: StdNResSplitAC-45to55
 "CLoss_fPLR_Hot" = SpltAC1Sp-ge45_CLoss_fPLR_Hot   $ Msr (Multi)TechID: StdNResSplitAC-45to55
 "CLoss_fPLR_Mod" = SpltAC1Sp-ge45_CLoss_fPLR_Mod   $ Msr (Multi)TechID: StdNResSplitAC-45to55
 "CLoss_fPLR_Tem" = SpltAC1Sp-ge45_CLoss_fPLR_Tem   $ Msr (Multi)TechID: StdNResSplitAC-45to55
 "COP47" = 0   $ Msr (Multi)TechID: StdNResSplitAC-45to55
 "CZ_Category" = Tem   $ IP Non-Tech
 "CapRange" = ge45   $ Msr (Multi)TechID: StdNResSplitAC-45to55
 "CfmPerBtuh" = 0.03263   $ Msr (Multi)TechID: StdNResSplitAC-45to55
 "ChwVintEconoFlag" = 1   $ IP Non-Tech
 "ClCap_fT" = SpltAC1Sp-ge45_ClCap_fT   $ Msr (Multi)TechID: StdNResSplitAC-45to55
 "ClSH_fT" = SpltAC1Sp-ge45_ClSH_fT   $ Msr (Multi)TechID: StdNResSplitAC-45to55
 "CoilBF" = 0.106518182   $ Msr (Multi)TechID: StdNResSplitAC-45to55
 "CondWPerBtuh" = 0   $ Msr (Multi)TechID: StdNResSplitAC-45to55
 "Conference_EWSF" = 1   $ IP Non-Tech
 "Conference_LWSF" = 1.4   $ IP Non-Tech
 "CoolSensCap" = 0.759218182   $ Msr (Multi)TechID: StdNResSplitAC-45to55
 "CoolSetT" = 45   $ IP Non-Tech
 "CoolType" = DX   $ IP Non-Tech
 "CoolingEIR" = 0.2466   $ Msr (Multi)TechID: StdNResSplitAC-45to55
 "CopyRoom_EWSF" = 1.5   $ IP Non-Tech
 "CopyRoom_LWSF" = 1.3   $ IP Non-Tech
 "CorridorStairway_EWSF" = 0.2   $ IP Non-Tech
 "CorridorStairway_LWSF" = 0.6   $ IP Non-Tech
 "CrnkEIR" = 0.002466   $ Msr (Multi)TechID: StdNResSplitAC-45to55
 "CrnkMaxT" = 50   $ Msr (Multi)TechID: StdNResSplitAC-45to55
 "DXType" = SplitSEER   $ Msr (Multi)TechID: StdNResSplitAC-45to55
 "DesCoolT" = 75   $ IP Non-Tech
 "DesHeatT" = 73   $ IP Non-Tech
 "EER" = 11.81793103   $ Msr (Multi)TechID: StdNResSplitAC-45to55
 "EIR_fT" = SpltAC1Sp-ge45_EIR_fT   $ Msr (Multi)TechID: StdNResSplitAC-45to55
 "EconoCtrl" = FIXED   $ Msr (Multi)TechID: StdNResSplitAC-45to55
 "EconoEnthLimit" = 28   $ IP Non-Tech
 "EconoTempLimit" = 69   $ IP Non-Tech
 "Elevation" = 13   $ IP Non-Tech
 "FanEirPlr" = TwoSpeedFan   $ Msr (Multi)TechID: StdNResSplitAC-45to55
 "FanWPerCfm" = 0.294   $ Msr (Multi)TechID: StdNResSplitAC-45to55
 "HDD_CloudAmt1" = 0   $ IP Non-Tech
 "HDD_DBHi1" = 57   $ IP Non-Tech
 "HDD_DBRange1" = 13   $ IP Non-Tech
 "HDD_Day1" = 15   $ IP Non-Tech
 "HDD_HrHi1" = 13   $ IP Non-Tech
 "HDD_HrLo1" = 5   $ IP Non-Tech
 "HDD_WB1" = 43.6   $ IP Non-Tech
 "HDD_WindSpd1" = 11.5   $ IP Non-Tech
 "HIR_fT" = 0   $ Msr (Multi)TechID: StdNResSplitAC-45to55
 "HSPF" = 0   $ Msr (Multi)TechID: StdNResSplitAC-45to55
 "HeatSrc" = FURNACE   $ IP Non-Tech
 "HeatSrcTU" = HEAT-PUMP   $ IP Non-Tech
 "HeatType" = GasFurn   $ IP Non-Tech
 "HeatTypeTU" = HEAT-PUMP   $ IP Non-Tech
 "HtCap_fT" = 0   $ Msr (Multi)TechID: StdNResSplitAC-45to55
 "HtCoolCapRatio" = 0   $ Msr (Multi)TechID: StdNResSplitAC-45to55
 "HtgEIR" = 0   $ Msr (Multi)TechID: StdNResSplitAC-45to55
 "IndoorFanMode" = CONTINUOUS   $ IP Non-Tech
 "KT_TransferAir" = No   $ IP Non-Tech
 "Latitude" = 32.7   $ IP Non-Tech
 "LobbyWaiting_EWSF" = 0.5   $ IP Non-Tech
 "LobbyWaiting_LWSF" = 1.3   $ IP Non-Tech
 "Longitude" = 117.2   $ IP Non-Tech
 "LowSpdCapRatio" = 1   $ Msr (Multi)TechID: StdNResSplitAC-45to55
 "LowSpdCfmRatio" = 1   $ Msr (Multi)TechID: StdNResSplitAC-45to55
 "MZFanMechEff" = 0.58   $ IP Non-Tech
 "MZHasRetFan" = FALSE   $ IP Non-Tech
 "MZ_RFanWPerCfm" = 0.37   $ IP Non-Tech
 "MZ_SFanWPerCfm" = 0.71   $ IP Non-Tech
 "MZ_SupFanStatic" = 2.25   $ IP Non-Tech
 "MaxOAFrac" = 1   $ Msr (Multi)TechID: StdNResSplitAC-45to55
 "MaxSupT_MZ" = 100   $ IP Non-Tech
 "MaxSupT_SZ" = 100   $ IP Non-Tech
 "MaxSupT_TU" = 90   $ IP Non-Tech
 "MechElecRoom_EWSF" = 0.2   $ IP Non-Tech
 "MechElecRoom_LWSF" = 0.7   $ IP Non-Tech
 "MinCfmPerSF" = 0.4   $ IP Non-Tech
 "MinSupT" = 55   $ IP Non-Tech
 "NumStages" = 1   $ Msr (Multi)TechID: StdNResSplitAC-45to55
 "OccCoolT" = 76   $ IP Non-Tech
 "OccHeatT" = 72   $ IP Non-Tech
 "OfficeOpen_EWSF" = 1.5   $ IP Non-Tech
 "OfficeOpen_LWSF" = 1.2   $ IP Non-Tech
 "OfficeSmall_EWSF" = 1.5   $ IP Non-Tech
 "OfficeSmall_LWSF" = 1.3   $ IP Non-Tech
 "PkgDxVintEconoFlag" = 0   $ IP Non-Tech
 "Restroom_EWSF" = 0.2   $ IP Non-Tech
 "Restroom_LWSF" = 0.6   $ IP Non-Tech
 "SEER" = 14   $ Msr (Multi)TechID: StdNResSplitAC-45to55
 "SZFanMechEff" = 0.58   $ IP Non-Tech
 "SZHasRetFan" = FALSE   $ IP Non-Tech
 "SZ_Is_2Spd" = FALSE   $ IP Non-Tech
 "SZ_SFanWPerCfm" = 0.46   $ IP Non-Tech
 "SZ_SupFanStatic" = 0.75   $ IP Non-Tech
 "Sector" = Any   $ Msr (Multi)TechID: StdNResSplitAC-45to55
 "StorageSmlCond_EWSF" = 0.2   $ IP Non-Tech
 "StorageSmlCond_LWSF" = 0.6   $ IP Non-Tech
 "SubType" = AC   $ Msr (Multi)TechID: StdNResSplitAC-45to55
 "T24GlzTbl" = CZTbl   $ IP Non-Tech
 "TermUnitFanMechEff" = 1   $ IP Non-Tech
 "TermUnitFanMode" = INTERMITTENT   $ IP Non-Tech
 "TotCoolCap" = 52519.36364   $ Msr (Multi)TechID: StdNResSplitAC-45to55
 "TwrSetpt" = 80   $ IP Non-Tech
 "UnocCoolT" = 86   $ IP Non-Tech
 "UnocHeatT" = 62   $ IP Non-Tech
 "UseEconoVintApplic" = FALSE   $ Msr (Multi)TechID: StdNResSplitAC-45to55
 "WlhpVintEconoFlag" = 0   $ IP Non-Tech
 "DuctDT" = 1   $ IP Tech: ComDuctInsul-1
 "DuctAirLoss" = 0   $ IP Tech: ComDuctLeak-0
 "DuctLossOAFrac" = 0   $ IP Tech: ComDuctLeak-0
 "ComRoofInsCalc" = FromUo   $ IP Tech: ComRoofIns-Hvy-0.08
 "ComRoofInsR" = -999   $ IP Tech: ComRoofIns-Hvy-0.08
 "ComRoofUo" = 0.08   $ IP Tech: ComRoofIns-Hvy-0.08
 "ComEWInsCalc" = FromUo   $ IP Tech: ComWallIns-MFrm-0.14
 "ComEWInsR" = -999   $ IP Tech: ComWallIns-MFrm-0.14
 "ComEWUo" = 0.14   $ IP Tech: ComWallIns-MFrm-0.14
 "ComN_SHGC" = 0.61   $ IP Tech: NResWin-ComN-0.77-0.61
 "ComN_UFactor" = 0.77   $ IP Tech: NResWin-ComN-0.77-0.61
 "ComN_VisTrans" = 0.77   $ IP Tech: NResWin-ComN-0.77-0.61
 "ComN_WinCode" = G2600   $ IP Tech: NResWin-ComN-0.77-0.61
 "ComN_WinFrmFrac" = 0.17   $ IP Tech: NResWin-ComN-0.77-0.61
 "ComN_WinFrmU" = 1   $ IP Tech: NResWin-ComN-0.77-0.61
 "ComO_SHGC" = 0.34   $ IP Tech: NResWin-ComO-0.77-0.34
 "ComO_UFactor" = 0.77   $ IP Tech: NResWin-ComO-0.77-0.34
 "ComO_VisTrans" = 0.44   $ IP Tech: NResWin-ComO-0.77-0.34
 "ComO_WinCode" = G2636   $ IP Tech: NResWin-ComO-0.77-0.34
 "ComO_WinFrmFrac" = 0.17   $ IP Tech: NResWin-ComO-0.77-0.34
 "ComO_WinFrmU" = 1   $ IP Tech: NResWin-ComO-0.77-0.34
 "LtgMsrApplic" = ALL   $ IP Tech: NonResLtgRefPre
 "LtgSav_CFL" = 0   $ IP Tech: NonResLtgRefPre
 "LtgSav_EX" = 0   $ IP Tech: NonResLtgRefPre
 "LtgSav_HB" = 0   $ IP Tech: NonResLtgRefPre
 "LtgSav_LF" = 0   $ IP Tech: NonResLtgRefPre
 "LtgSav_SP" = 0   $ IP Tech: NonResLtgRefPre
 "CEIR_fPLR" = PSZ65to135_CEIR_fPLR   $ IP Tech: PkgAC1SpH-65to135-E10
 "CLoss_fPLR" = PSZ65to135_CLoss_fPLR   $ IP Tech: PkgAC1SpH-65to135-E10
 "COP" = -1   $ IP Tech: PkgAC1SpH-65to135-E10
 "HtgFuel" = Gas   $ IP Tech: PkgAC1SpH-65to135-E10
 "IEER" = 11.87   $ IP Tech: PkgAC1SpH-65to135-E10
 "NominalCap" = 15   $ IP Tech: PkgAC1SpH-65to135-E10
 "RatedEER" = 10   $ IP Tech: PkgAC1SpH-65to135-E10
 "RatedSupMtrClass" = HiEff   $ IP Tech: PkgAC1SpH-65to135-E10
 "SizeRange" = 65to135   $ IP Tech: PkgAC1SpH-65to135-E10
 "SupMotEff" = 0.84   $ IP Tech: PkgAC1SpH-65to135-E10
 "Tier" = 0   $ IP Tech: PkgAC1SpH-65to135-E10
 "FanPwrMult" = 1   $ IP Tech: PkgFurn-0.80AFUE
 "FurnAFUE" = 0.8   $ IP Tech: PkgFurn-0.80AFUE
 "FurnEt" = 0.82   $ IP Tech: PkgFurn-0.80AFUE
 "FurnaceAuxKW" = 0.1   $ IP Tech: PkgFurn-0.80AFUE
 "HIR_fPLR" = Furnace-HIR-fPLR   $ IP Tech: PkgFurn-0.80AFUE
 "VSM" = FALSE   $ IP Tech: PkgFurn-0.80AFUE
 "BFMult" = 1   $ IP Tech: RefgChg-NRes-Std
 "CoolEirMult" = 1   $ IP Tech: RefgChg-NRes-Std
 "SensCoolCapMult" = 1   $ IP Tech: RefgChg-NRes-Std
 "TotCoolCapMult" = 1   $ IP Tech: RefgChg-NRes-Std
 "AltAdjFactor" = 1.000512   $ Sizing
 "CAssFlo_L_Break_CZn" = 371.1613   $ Sizing
 "CAssFlo_L_Conf_CZn" = 441.5143   $ Sizing
 "CAssFlo_L_CopyRm_CZn" = 113.052   $ Sizing
 "CAssFlo_L_Cordr_CZn" = 565.2932   $ Sizing
 "CAssFlo_L_Cordr_EZn" = 254.7759   $ Sizing
 "CAssFlo_L_Cordr_NZn" = 104.8082   $ Sizing
 "CAssFlo_L_Cordr_SZn" = 254.9974   $ Sizing
 "CAssFlo_L_Cordr_WZn" = 246.8321   $ Sizing
 "CAssFlo_L_LobWait_CZn" = 391.6843   $ Sizing
 "CAssFlo_L_MechElec_CZn" = 133.2348   $ Sizing
 "CAssFlo_L_OfficeOpn_CZn" = 1724.047   $ Sizing
 "CAssFlo_L_OfficeOpn_EZn" = 1928.732   $ Sizing
 "CAssFlo_L_OfficeOpn_NZn" = 988.1608   $ Sizing
 "CAssFlo_L_OfficeOpn_SZn" = 1873.541   $ Sizing
 "CAssFlo_L_OfficeOpn_WZn" = 1931.045   $ Sizing
 "CAssFlo_L_OfficeSm_CZn" = 230.5445   $ Sizing
 "CAssFlo_L_OfficeSm_EZn" = 1396.013   $ Sizing
 "CAssFlo_L_OfficeSm_NZn" = 627.6508   $ Sizing
 "CAssFlo_L_OfficeSm_SZn" = 1371.156   $ Sizing
 "CAssFlo_L_OfficeSm_WZn" = 1389.629   $ Sizing
 "CAssFlo_L_Restrm_CZn" = 210.3849   $ Sizing
 "CAssFlo_L_StorSm_CZn" = 388.3303   $ Sizing
 "CAssFlo_M_Break_CZn" = 408.9394   $ Sizing
 "CAssFlo_M_Conf_CZn" = 499.1192   $ Sizing
 "CAssFlo_M_CopyRm_CZn" = 142.9478   $ Sizing
 "CAssFlo_M_Cordr_CZn" = 902.2913   $ Sizing
 "CAssFlo_M_Cordr_EZn" = 304.5822   $ Sizing
 "CAssFlo_M_Cordr_NZn" = 151.1139   $ Sizing
 "CAssFlo_M_Cordr_SZn" = 294.6275   $ Sizing
 "CAssFlo_M_Cordr_WZn" = 276.0559   $ Sizing
 "CAssFlo_M_LobWait_CZn" = 512.9403   $ Sizing
 "CAssFlo_M_MechElec_CZn" = 170.3876   $ Sizing
 "CAssFlo_M_OfficeOpn_CZn" = 2062.497   $ Sizing
 "CAssFlo_M_OfficeOpn_EZn" = 2114.207   $ Sizing
 "CAssFlo_M_OfficeOpn_NZn" = 1124.797   $ Sizing
 "CAssFlo_M_OfficeOpn_SZn" = 2036.329   $ Sizing
 "CAssFlo_M_OfficeOpn_WZn" = 2026.5   $ Sizing
 "CAssFlo_M_OfficeSm_CZn" = 292.3239   $ Sizing
 "CAssFlo_M_OfficeSm_EZn" = 1501.702   $ Sizing
 "CAssFlo_M_OfficeSm_NZn" = 706.8004   $ Sizing
 "CAssFlo_M_OfficeSm_SZn" = 1475.338   $ Sizing
 "CAssFlo_M_OfficeSm_WZn" = 1449.092   $ Sizing
 "CAssFlo_M_Restrm_CZn" = 210.3849   $ Sizing
 "CAssFlo_M_StorSm_CZn" = 424.9782   $ Sizing
 "CAssFlo_T_Break_CZn" = 386.7046   $ Sizing
 "CAssFlo_T_Conf_CZn" = 460.7441   $ Sizing
 "CAssFlo_T_CopyRm_CZn" = 130.2505   $ Sizing
 "CAssFlo_T_Cordr_CZn" = 785.9755   $ Sizing
 "CAssFlo_T_Cordr_EZn" = 269.3034   $ Sizing
 "CAssFlo_T_Cordr_NZn" = 132.0188   $ Sizing
 "CAssFlo_T_Cordr_SZn" = 266.2104   $ Sizing
 "CAssFlo_T_Cordr_WZn" = 248.0471   $ Sizing
 "CAssFlo_T_LobWait_CZn" = 457.9526   $ Sizing
 "CAssFlo_T_MechElec_CZn" = 203.9757   $ Sizing
 "CAssFlo_T_OfficeOpn_CZn" = 1845.786   $ Sizing
 "CAssFlo_T_OfficeOpn_EZn" = 1904   $ Sizing
 "CAssFlo_T_OfficeOpn_NZn" = 1034.163   $ Sizing
 "CAssFlo_T_OfficeOpn_SZn" = 1893.565   $ Sizing
 "CAssFlo_T_OfficeOpn_WZn" = 1867.172   $ Sizing
 "CAssFlo_T_OfficeSm_CZn" = 272.4905   $ Sizing
 "CAssFlo_T_OfficeSm_EZn" = 1406.06   $ Sizing
 "CAssFlo_T_OfficeSm_NZn" = 662.8123   $ Sizing
 "CAssFlo_T_OfficeSm_SZn" = 1398.034   $ Sizing
 "CAssFlo_T_OfficeSm_WZn" = 1367.889   $ Sizing
 "CAssFlo_T_Restrm_CZn" = 210.3849   $ Sizing
 "CAssFlo_T_StorSm_CZn" = 331.7615   $ Sizing
 "CHRtFlo_Sys_L_Break_C" = 371.1613   $ Sizing
 "CHRtFlo_Sys_L_Conf_C" = 441.5143   $ Sizing
 "CHRtFlo_Sys_L_CopyRm_C" = 113.052   $ Sizing
 "CHRtFlo_Sys_L_Cordr_C" = 565.2932   $ Sizing
 "CHRtFlo_Sys_L_Cordr_E" = 254.7759   $ Sizing
 "CHRtFlo_Sys_L_Cordr_N" = 104.8082   $ Sizing
 "CHRtFlo_Sys_L_Cordr_S" = 254.9974   $ Sizing
 "CHRtFlo_Sys_L_Cordr_W" = 246.8321   $ Sizing
 "CHRtFlo_Sys_L_LobWait_C" = 391.6843   $ Sizing
 "CHRtFlo_Sys_L_MechElec_C" = 133.2348   $ Sizing
 "CHRtFlo_Sys_L_OfficeOpn_C" = 1724.047   $ Sizing
 "CHRtFlo_Sys_L_OfficeOpn_E" = 1928.732   $ Sizing
 "CHRtFlo_Sys_L_OfficeOpn_N" = 988.1608   $ Sizing
 "CHRtFlo_Sys_L_OfficeOpn_S" = 1873.541   $ Sizing
 "CHRtFlo_Sys_L_OfficeOpn_W" = 1931.045   $ Sizing
 "CHRtFlo_Sys_L_OfficeSm_C" = 230.5445   $ Sizing
 "CHRtFlo_Sys_L_OfficeSm_E" = 1396.013   $ Sizing
 "CHRtFlo_Sys_L_OfficeSm_N" = 627.6508   $ Sizing
 "CHRtFlo_Sys_L_OfficeSm_S" = 1371.156   $ Sizing
 "CHRtFlo_Sys_L_OfficeSm_W" = 1389.629   $ Sizing
 "CHRtFlo_Sys_L_Restrm_C" = 210.3849   $ Sizing
 "CHRtFlo_Sys_L_StorSm_C" = 388.3303   $ Sizing
 "CHRtFlo_Sys_M_Break_C" = 3271.515   $ Sizing
 "CHRtFlo_Sys_M_Conf_C" = 3992.954   $ Sizing
 "CHRtFlo_Sys_M_CopyRm_C" = 1143.583   $ Sizing
 "CHRtFlo_Sys_M_Cordr_C" = 7218.33   $ Sizing
 "CHRtFlo_Sys_M_Cordr_E" = 2436.657   $ Sizing
 "CHRtFlo_Sys_M_Cordr_N" = 1208.911   $ Sizing
 "CHRtFlo_Sys_M_Cordr_S" = 2357.02   $ Sizing
 "CHRtFlo_Sys_M_Cordr_W" = 2208.447   $ Sizing
 "CHRtFlo_Sys_M_LobWait_C" = 4103.522   $ Sizing
 "CHRtFlo_Sys_M_MechElec_C" = 1363.1   $ Sizing
 "CHRtFlo_Sys_M_OfficeOpn_C" = 16499.98   $ Sizing
 "CHRtFlo_Sys_M_OfficeOpn_E" = 16913.66   $ Sizing
 "CHRtFlo_Sys_M_OfficeOpn_N" = 8998.38   $ Sizing
 "CHRtFlo_Sys_M_OfficeOpn_S" = 16290.63   $ Sizing
 "CHRtFlo_Sys_M_OfficeOpn_W" = 16212   $ Sizing
 "CHRtFlo_Sys_M_OfficeSm_C" = 2338.591   $ Sizing
 "CHRtFlo_Sys_M_OfficeSm_E" = 12013.62   $ Sizing
 "CHRtFlo_Sys_M_OfficeSm_N" = 5654.403   $ Sizing
 "CHRtFlo_Sys_M_OfficeSm_S" = 11802.7   $ Sizing
 "CHRtFlo_Sys_M_OfficeSm_W" = 11592.74   $ Sizing
 "CHRtFlo_Sys_M_Restrm_C" = 1683.079   $ Sizing
 "CHRtFlo_Sys_M_StorSm_C" = 3399.825   $ Sizing
 "CHRtFlo_Sys_T_Break_C" = 386.7046   $ Sizing
 "CHRtFlo_Sys_T_Conf_C" = 460.7441   $ Sizing
 "CHRtFlo_Sys_T_CopyRm_C" = 130.2505   $ Sizing
 "CHRtFlo_Sys_T_Cordr_C" = 785.9755   $ Sizing
 "CHRtFlo_Sys_T_Cordr_E" = 269.3034   $ Sizing
 "CHRtFlo_Sys_T_Cordr_N" = 132.0188   $ Sizing
 "CHRtFlo_Sys_T_Cordr_S" = 266.2104   $ Sizing
 "CHRtFlo_Sys_T_Cordr_W" = 248.0471   $ Sizing
 "CHRtFlo_Sys_T_LobWait_C" = 457.9526   $ Sizing
 "CHRtFlo_Sys_T_MechElec_C" = 203.9757   $ Sizing
 "CHRtFlo_Sys_T_OfficeOpn_C" = 1845.786   $ Sizing
 "CHRtFlo_Sys_T_OfficeOpn_E" = 1904   $ Sizing
 "CHRtFlo_Sys_T_OfficeOpn_N" = 1034.163   $ Sizing
 "CHRtFlo_Sys_T_OfficeOpn_S" = 1893.565   $ Sizing
 "CHRtFlo_Sys_T_OfficeOpn_W" = 1867.172   $ Sizing
 "CHRtFlo_Sys_T_OfficeSm_C" = 272.4905   $ Sizing
 "CHRtFlo_Sys_T_OfficeSm_E" = 1406.06   $ Sizing
 "CHRtFlo_Sys_T_OfficeSm_N" = 662.8123   $ Sizing
 "CHRtFlo_Sys_T_OfficeSm_S" = 1398.034   $ Sizing
 "CHRtFlo_Sys_T_OfficeSm_W" = 1367.889   $ Sizing
 "CHRtFlo_Sys_T_Restrm_C" = 210.3849   $ Sizing
 "CHRtFlo_Sys_T_StorSm_C" = 331.7615   $ Sizing
 "CRtdFlo_Sys_L_Break_C" = 371.1613   $ Sizing
 "CRtdFlo_Sys_L_Conf_C" = 441.5143   $ Sizing
 "CRtdFlo_Sys_L_CopyRm_C" = 113.052   $ Sizing
 "CRtdFlo_Sys_L_Cordr_C" = 565.2932   $ Sizing
 "CRtdFlo_Sys_L_Cordr_E" = 254.776   $ Sizing
 "CRtdFlo_Sys_L_Cordr_N" = 104.8082   $ Sizing
 "CRtdFlo_Sys_L_Cordr_S" = 254.9974   $ Sizing
 "CRtdFlo_Sys_L_Cordr_W" = 246.8321   $ Sizing
 "CRtdFlo_Sys_L_LobWait_C" = 391.6843   $ Sizing
 "CRtdFlo_Sys_L_MechElec_C" = 133.2348   $ Sizing
 "CRtdFlo_Sys_L_OfficeOpn_C" = 1724.047   $ Sizing
 "CRtdFlo_Sys_L_OfficeOpn_E" = 1928.732   $ Sizing
 "CRtdFlo_Sys_L_OfficeOpn_N" = 988.1607   $ Sizing
 "CRtdFlo_Sys_L_OfficeOpn_S" = 1873.541   $ Sizing
 "CRtdFlo_Sys_L_OfficeOpn_W" = 1931.045   $ Sizing
 "CRtdFlo_Sys_L_OfficeSm_C" = 230.5445   $ Sizing
 "CRtdFlo_Sys_L_OfficeSm_E" = 1396.013   $ Sizing
 "CRtdFlo_Sys_L_OfficeSm_N" = 627.6508   $ Sizing
 "CRtdFlo_Sys_L_OfficeSm_S" = 1371.156   $ Sizing
 "CRtdFlo_Sys_L_OfficeSm_W" = 1389.629   $ Sizing
 "CRtdFlo_Sys_L_Restrm_C" = 210.3849   $ Sizing
 "CRtdFlo_Sys_L_StorSm_C" = 388.3303   $ Sizing
 "CRtdFlo_Sys_M_Break_C" = 3271.515   $ Sizing
 "CRtdFlo_Sys_M_Conf_C" = 3992.954   $ Sizing
 "CRtdFlo_Sys_M_CopyRm_C" = 1143.583   $ Sizing
 "CRtdFlo_Sys_M_Cordr_C" = 7218.33   $ Sizing
 "CRtdFlo_Sys_M_Cordr_E" = 2436.657   $ Sizing
 "CRtdFlo_Sys_M_Cordr_N" = 1208.911   $ Sizing
 "CRtdFlo_Sys_M_Cordr_S" = 2357.02   $ Sizing
 "CRtdFlo_Sys_M_Cordr_W" = 2208.447   $ Sizing
 "CRtdFlo_Sys_M_LobWait_C" = 4103.522   $ Sizing
 "CRtdFlo_Sys_M_MechElec_C" = 1363.1   $ Sizing
 "CRtdFlo_Sys_M_OfficeOpn_C" = 16499.98   $ Sizing
 "CRtdFlo_Sys_M_OfficeOpn_E" = 16913.66   $ Sizing
 "CRtdFlo_Sys_M_OfficeOpn_N" = 8998.38   $ Sizing
 "CRtdFlo_Sys_M_OfficeOpn_S" = 16290.63   $ Sizing
 "CRtdFlo_Sys_M_OfficeOpn_W" = 16212   $ Sizing
 "CRtdFlo_Sys_M_OfficeSm_C" = 2338.591   $ Sizing
 "CRtdFlo_Sys_M_OfficeSm_E" = 12013.62   $ Sizing
 "CRtdFlo_Sys_M_OfficeSm_N" = 5654.403   $ Sizing
 "CRtdFlo_Sys_M_OfficeSm_S" = 11802.7   $ Sizing
 "CRtdFlo_Sys_M_OfficeSm_W" = 11592.74   $ Sizing
 "CRtdFlo_Sys_M_Restrm_C" = 1683.079   $ Sizing
 "CRtdFlo_Sys_M_StorSm_C" = 3399.825   $ Sizing
 "CRtdFlo_Sys_T_Break_C" = 386.7046   $ Sizing
 "CRtdFlo_Sys_T_Conf_C" = 460.7441   $ Sizing
 "CRtdFlo_Sys_T_CopyRm_C" = 130.2505   $ Sizing
 "CRtdFlo_Sys_T_Cordr_C" = 785.9755   $ Sizing
 "CRtdFlo_Sys_T_Cordr_E" = 269.3034   $ Sizing
 "CRtdFlo_Sys_T_Cordr_N" = 132.0188   $ Sizing
 "CRtdFlo_Sys_T_Cordr_S" = 266.2104   $ Sizing
 "CRtdFlo_Sys_T_Cordr_W" = 248.0471   $ Sizing
 "CRtdFlo_Sys_T_LobWait_C" = 457.9526   $ Sizing
 "CRtdFlo_Sys_T_MechElec_C" = 203.9757   $ Sizing
 "CRtdFlo_Sys_T_OfficeOpn_C" = 1845.786   $ Sizing
 "CRtdFlo_Sys_T_OfficeOpn_E" = 1904   $ Sizing
 "CRtdFlo_Sys_T_OfficeOpn_N" = 1034.163   $ Sizing
 "CRtdFlo_Sys_T_OfficeOpn_S" = 1893.565   $ Sizing
 "CRtdFlo_Sys_T_OfficeOpn_W" = 1867.172   $ Sizing
 "CRtdFlo_Sys_T_OfficeSm_C" = 272.4905   $ Sizing
 "CRtdFlo_Sys_T_OfficeSm_E" = 1406.06   $ Sizing
 "CRtdFlo_Sys_T_OfficeSm_N" = 662.8123   $ Sizing
 "CRtdFlo_Sys_T_OfficeSm_S" = 1398.034   $ Sizing
 "CRtdFlo_Sys_T_OfficeSm_W" = 1367.889   $ Sizing
 "CRtdFlo_Sys_T_Restrm_C" = 210.3849   $ Sizing
 "CRtdFlo_Sys_T_StorSm_C" = 331.7615   $ Sizing
 "CSupFlo_Sys_L_Break_C" = 371.1613   $ Sizing
 "CSupFlo_Sys_L_Conf_C" = 441.5143   $ Sizing
 "CSupFlo_Sys_L_CopyRm_C" = 113.052   $ Sizing
 "CSupFlo_Sys_L_Cordr_C" = 565.2932   $ Sizing
 "CSupFlo_Sys_L_Cordr_E" = 254.7759   $ Sizing
 "CSupFlo_Sys_L_Cordr_N" = 104.8082   $ Sizing
 "CSupFlo_Sys_L_Cordr_S" = 254.9974   $ Sizing
 "CSupFlo_Sys_L_Cordr_W" = 246.8321   $ Sizing
 "CSupFlo_Sys_L_LobWait_C" = 391.6843   $ Sizing
 "CSupFlo_Sys_L_MechElec_C" = 133.2348   $ Sizing
 "CSupFlo_Sys_L_OfficeOpn_C" = 1724.047   $ Sizing
 "CSupFlo_Sys_L_OfficeOpn_E" = 1928.732   $ Sizing
 "CSupFlo_Sys_L_OfficeOpn_N" = 988.1608   $ Sizing
 "CSupFlo_Sys_L_OfficeOpn_S" = 1873.541   $ Sizing
 "CSupFlo_Sys_L_OfficeOpn_W" = 1931.045   $ Sizing
 "CSupFlo_Sys_L_OfficeSm_C" = 230.5445   $ Sizing
 "CSupFlo_Sys_L_OfficeSm_E" = 1396.013   $ Sizing
 "CSupFlo_Sys_L_OfficeSm_N" = 627.6508   $ Sizing
 "CSupFlo_Sys_L_OfficeSm_S" = 1371.156   $ Sizing
 "CSupFlo_Sys_L_OfficeSm_W" = 1389.629   $ Sizing
 "CSupFlo_Sys_L_Restrm_C" = 210.3849   $ Sizing
 "CSupFlo_Sys_L_StorSm_C" = 388.3303   $ Sizing
 "CSupFlo_Sys_M_Break_C" = 3271.515   $ Sizing
 "CSupFlo_Sys_M_Conf_C" = 3992.954   $ Sizing
 "CSupFlo_Sys_M_CopyRm_C" = 1143.583   $ Sizing
 "CSupFlo_Sys_M_Cordr_C" = 7218.33   $ Sizing
 "CSupFlo_Sys_M_Cordr_E" = 2436.657   $ Sizing
 "CSupFlo_Sys_M_Cordr_N" = 1208.911   $ Sizing
 "CSupFlo_Sys_M_Cordr_S" = 2357.02   $ Sizing
 "CSupFlo_Sys_M_Cordr_W" = 2208.447   $ Sizing
 "CSupFlo_Sys_M_LobWait_C" = 4103.522   $ Sizing
 "CSupFlo_Sys_M_MechElec_C" = 1363.1   $ Sizing
 "CSupFlo_Sys_M_OfficeOpn_C" = 16499.98   $ Sizing
 "CSupFlo_Sys_M_OfficeOpn_E" = 16913.66   $ Sizing
 "CSupFlo_Sys_M_OfficeOpn_N" = 8998.38   $ Sizing
 "CSupFlo_Sys_M_OfficeOpn_S" = 16290.63   $ Sizing
 "CSupFlo_Sys_M_OfficeOpn_W" = 16212   $ Sizing
 "CSupFlo_Sys_M_OfficeSm_C" = 2338.591   $ Sizing
 "CSupFlo_Sys_M_OfficeSm_E" = 12013.62   $ Sizing
 "CSupFlo_Sys_M_OfficeSm_N" = 5654.403   $ Sizing
 "CSupFlo_Sys_M_OfficeSm_S" = 11802.7   $ Sizing
 "CSupFlo_Sys_M_OfficeSm_W" = 11592.74   $ Sizing
 "CSupFlo_Sys_M_Restrm_C" = 1683.079   $ Sizing
 "CSupFlo_Sys_M_StorSm_C" = 3399.825   $ Sizing
 "CSupFlo_Sys_T_Break_C" = 386.7046   $ Sizing
 "CSupFlo_Sys_T_Conf_C" = 460.7441   $ Sizing
 "CSupFlo_Sys_T_CopyRm_C" = 130.2505   $ Sizing
 "CSupFlo_Sys_T_Cordr_C" = 785.9755   $ Sizing
 "CSupFlo_Sys_T_Cordr_E" = 269.3034   $ Sizing
 "CSupFlo_Sys_T_Cordr_N" = 132.0188   $ Sizing
 "CSupFlo_Sys_T_Cordr_S" = 266.2104   $ Sizing
 "CSupFlo_Sys_T_Cordr_W" = 248.0471   $ Sizing
 "CSupFlo_Sys_T_LobWait_C" = 457.9526   $ Sizing
 "CSupFlo_Sys_T_MechElec_C" = 203.9757   $ Sizing
 "CSupFlo_Sys_T_OfficeOpn_C" = 1845.786   $ Sizing
 "CSupFlo_Sys_T_OfficeOpn_E" = 1904   $ Sizing
 "CSupFlo_Sys_T_OfficeOpn_N" = 1034.163   $ Sizing
 "CSupFlo_Sys_T_OfficeOpn_S" = 1893.565   $ Sizing
 "CSupFlo_Sys_T_OfficeOpn_W" = 1867.172   $ Sizing
 "CSupFlo_Sys_T_OfficeSm_C" = 272.4905   $ Sizing
 "CSupFlo_Sys_T_OfficeSm_E" = 1406.06   $ Sizing
 "CSupFlo_Sys_T_OfficeSm_N" = 662.8123   $ Sizing
 "CSupFlo_Sys_T_OfficeSm_S" = 1398.034   $ Sizing
 "CSupFlo_Sys_T_OfficeSm_W" = 1367.889   $ Sizing
 "CSupFlo_Sys_T_Restrm_C" = 210.3849   $ Sizing
 "CSupFlo_Sys_T_StorSm_C" = 331.7615   $ Sizing
 "ClCap_Sys_L_Break_C" = 12719.02   $ Sizing
 "ClCap_Sys_L_Conf_C" = 19256.22   $ Sizing
 "ClCap_Sys_L_CopyRm_C" = 3874.085   $ Sizing
 "ClCap_Sys_L_Cordr_C" = 19371.56   $ Sizing
 "ClCap_Sys_L_Cordr_E" = 8730.706   $ Sizing
 "ClCap_Sys_L_Cordr_N" = 3591.585   $ Sizing
 "ClCap_Sys_L_Cordr_S" = 8738.294   $ Sizing
 "ClCap_Sys_L_Cordr_W" = 8458.484   $ Sizing
 "ClCap_Sys_L_LobWait_C" = 13422.3   $ Sizing
 "ClCap_Sys_L_MechElec_C" = 4565.713   $ Sizing
 "ClCap_Sys_L_OfficeOpn_C" = 59079.94   $ Sizing
 "ClCap_Sys_L_OfficeOpn_E" = 66094.12   $ Sizing
 "ClCap_Sys_L_OfficeOpn_N" = 33862.46   $ Sizing
 "ClCap_Sys_L_OfficeOpn_S" = 64202.83   $ Sizing
 "ClCap_Sys_L_OfficeOpn_W" = 66173.37   $ Sizing
 "ClCap_Sys_L_OfficeSm_C" = 7900.338   $ Sizing
 "ClCap_Sys_L_OfficeSm_E" = 47838.82   $ Sizing
 "ClCap_Sys_L_OfficeSm_N" = 21508.45   $ Sizing
 "ClCap_Sys_L_OfficeSm_S" = 46987   $ Sizing
 "ClCap_Sys_L_OfficeSm_W" = 47620.05   $ Sizing
 "ClCap_Sys_L_Restrm_C" = 7209.506   $ Sizing
 "ClCap_Sys_L_StorSm_C" = 13307.37   $ Sizing
 "ClCap_Sys_M_Break_C" = 112108.8   $ Sizing
 "ClCap_Sys_M_Conf_C" = 174148.8   $ Sizing
 "ClCap_Sys_M_CopyRm_C" = 39188.48   $ Sizing
 "ClCap_Sys_M_Cordr_C" = 247359   $ Sizing
 "ClCap_Sys_M_Cordr_E" = 83499.79   $ Sizing
 "ClCap_Sys_M_Cordr_N" = 41427.18   $ Sizing
 "ClCap_Sys_M_Cordr_S" = 80770.77   $ Sizing
 "ClCap_Sys_M_Cordr_W" = 75679.45   $ Sizing
 "ClCap_Sys_M_LobWait_C" = 140620.2   $ Sizing
 "ClCap_Sys_M_MechElec_C" = 46710.96   $ Sizing
 "ClCap_Sys_M_OfficeOpn_C" = 565424.1   $ Sizing
 "ClCap_Sys_M_OfficeOpn_E" = 579600.1   $ Sizing
 "ClCap_Sys_M_OfficeOpn_N" = 308358   $ Sizing
 "ClCap_Sys_M_OfficeOpn_S" = 558250.3   $ Sizing
 "ClCap_Sys_M_OfficeOpn_W" = 555555.6   $ Sizing
 "ClCap_Sys_M_OfficeSm_C" = 80139.25   $ Sizing
 "ClCap_Sys_M_OfficeSm_E" = 411684.8   $ Sizing
 "ClCap_Sys_M_OfficeSm_N" = 193766.1   $ Sizing
 "ClCap_Sys_M_OfficeSm_S" = 404457   $ Sizing
 "ClCap_Sys_M_OfficeSm_W" = 397261.8   $ Sizing
 "ClCap_Sys_M_Restrm_C" = 57676.05   $ Sizing
 "ClCap_Sys_M_StorSm_C" = 116505.8   $ Sizing
 "ClCap_Sys_T_Break_C" = 13251.66   $ Sizing
 "ClCap_Sys_T_Conf_C" = 20094.91   $ Sizing
 "ClCap_Sys_T_CopyRm_C" = 4463.448   $ Sizing
 "ClCap_Sys_T_Cordr_C" = 26933.94   $ Sizing
 "ClCap_Sys_T_Cordr_E" = 9228.534   $ Sizing
 "ClCap_Sys_T_Cordr_N" = 4524.043   $ Sizing
 "ClCap_Sys_T_Cordr_S" = 9122.545   $ Sizing
 "ClCap_Sys_T_Cordr_W" = 8500.122   $ Sizing
 "ClCap_Sys_T_LobWait_C" = 15693.2   $ Sizing
 "ClCap_Sys_T_MechElec_C" = 6989.875   $ Sizing
 "ClCap_Sys_T_OfficeOpn_C" = 63251.71   $ Sizing
 "ClCap_Sys_T_OfficeOpn_E" = 65246.6   $ Sizing
 "ClCap_Sys_T_OfficeOpn_N" = 35438.87   $ Sizing
 "ClCap_Sys_T_OfficeOpn_S" = 64889.01   $ Sizing
 "ClCap_Sys_T_OfficeOpn_W" = 63984.58   $ Sizing
 "ClCap_Sys_T_OfficeSm_C" = 9337.753   $ Sizing
 "ClCap_Sys_T_OfficeSm_E" = 48183.09   $ Sizing
 "ClCap_Sys_T_OfficeSm_N" = 22713.37   $ Sizing
 "ClCap_Sys_T_OfficeSm_S" = 47908.05   $ Sizing
 "ClCap_Sys_T_OfficeSm_W" = 46875.05   $ Sizing
 "ClCap_Sys_T_Restrm_C" = 7209.506   $ Sizing
 "ClCap_Sys_T_StorSm_C" = 11368.86   $ Sizing
 "HtCap_Sys_L_Break_C" = -17803.97   $ Sizing
 "HtCap_Sys_L_Conf_C" = -22045.27   $ Sizing
 "HtCap_Sys_L_CopyRm_C" = -6179.297   $ Sizing
 "HtCap_Sys_L_Cordr_C" = -23125.77   $ Sizing
 "HtCap_Sys_L_Cordr_E" = -8490.541   $ Sizing
 "HtCap_Sys_L_Cordr_N" = -4192.041   $ Sizing
 "HtCap_Sys_L_Cordr_S" = -8451.993   $ Sizing
 "HtCap_Sys_L_Cordr_W" = -8220.014   $ Sizing
 "HtCap_Sys_L_LobWait_C" = -18658.18   $ Sizing
 "HtCap_Sys_L_MechElec_C" = -5453.277   $ Sizing
 "HtCap_Sys_L_OfficeOpn_C" = -84563.77   $ Sizing
 "HtCap_Sys_L_OfficeOpn_E" = -94647.83   $ Sizing
 "HtCap_Sys_L_OfficeOpn_N" = -34692.88   $ Sizing
 "HtCap_Sys_L_OfficeOpn_S" = -91896.1   $ Sizing
 "HtCap_Sys_L_OfficeOpn_W" = -61340.49   $ Sizing
 "HtCap_Sys_L_OfficeSm_C" = -11271.57   $ Sizing
 "HtCap_Sys_L_OfficeSm_E" = -44012.8   $ Sizing
 "HtCap_Sys_L_OfficeSm_N" = -22294.29   $ Sizing
 "HtCap_Sys_L_OfficeSm_S" = -43031.95   $ Sizing
 "HtCap_Sys_L_OfficeSm_W" = -44174.55   $ Sizing
 "HtCap_Sys_L_Restrm_C" = -7714.529   $ Sizing
 "HtCap_Sys_L_StorSm_C" = -15340.73   $ Sizing
 "HtCap_Sys_M_Break_C" = -150861.5   $ Sizing
 "HtCap_Sys_M_Conf_C" = -189433.2   $ Sizing
 "HtCap_Sys_M_CopyRm_C" = -56156.38   $ Sizing
 "HtCap_Sys_M_Cordr_C" = -260742   $ Sizing
 "HtCap_Sys_M_Cordr_E" = -79164.49   $ Sizing
 "HtCap_Sys_M_Cordr_N" = -44086.92   $ Sizing
 "HtCap_Sys_M_Cordr_S" = -76439.45   $ Sizing
 "HtCap_Sys_M_Cordr_W" = -72677.58   $ Sizing
 "HtCap_Sys_M_LobWait_C" = -176659.3   $ Sizing
 "HtCap_Sys_M_MechElec_C" = -51978.3   $ Sizing
 "HtCap_Sys_M_OfficeOpn_C" = -810738.6   $ Sizing
 "HtCap_Sys_M_OfficeOpn_E" = -827726.8   $ Sizing
 "HtCap_Sys_M_OfficeOpn_N" = -307785.2   $ Sizing
 "HtCap_Sys_M_OfficeOpn_S" = -798692.3   $ Sizing
 "HtCap_Sys_M_OfficeOpn_W" = -511141   $ Sizing
 "HtCap_Sys_M_OfficeSm_C" = -114183.4   $ Sizing
 "HtCap_Sys_M_OfficeSm_E" = -377393.3   $ Sizing
 "HtCap_Sys_M_OfficeSm_N" = -196242.2   $ Sizing
 "HtCap_Sys_M_OfficeSm_S" = -369212   $ Sizing
 "HtCap_Sys_M_OfficeSm_W" = -365966   $ Sizing
 "HtCap_Sys_M_Restrm_C" = -66268.05   $ Sizing
 "HtCap_Sys_M_StorSm_C" = -129244.6   $ Sizing
 "HtCap_Sys_T_Break_C" = -19104.63   $ Sizing
 "HtCap_Sys_T_Conf_C" = -23401.69   $ Sizing
 "HtCap_Sys_T_CopyRm_C" = -6848.065   $ Sizing
 "HtCap_Sys_T_Cordr_C" = -32089.22   $ Sizing
 "HtCap_Sys_T_Cordr_E" = -10251.12   $ Sizing
 "HtCap_Sys_T_Cordr_N" = -5619.628   $ Sizing
 "HtCap_Sys_T_Cordr_S" = -9756.512   $ Sizing
 "HtCap_Sys_T_Cordr_W" = -9593.871   $ Sizing
 "HtCap_Sys_T_LobWait_C" = -21809.18   $ Sizing
 "HtCap_Sys_T_MechElec_C" = -7445.851   $ Sizing
 "HtCap_Sys_T_OfficeOpn_C" = -90280.04   $ Sizing
 "HtCap_Sys_T_OfficeOpn_E" = -68574.73   $ Sizing
 "HtCap_Sys_T_OfficeOpn_N" = -41353.26   $ Sizing
 "HtCap_Sys_T_OfficeOpn_S" = -68516.16   $ Sizing
 "HtCap_Sys_T_OfficeOpn_W" = -67381.23   $ Sizing
 "HtCap_Sys_T_OfficeSm_C" = -10846.95   $ Sizing
 "HtCap_Sys_T_OfficeSm_E" = -51468.34   $ Sizing
 "HtCap_Sys_T_OfficeSm_N" = -26481.95   $ Sizing
 "HtCap_Sys_T_OfficeSm_S" = -50240.52   $ Sizing
 "HtCap_Sys_T_OfficeSm_W" = -49808.66   $ Sizing
 "HtCap_Sys_T_Restrm_C" = -8581.407   $ Sizing
 "HtCap_Sys_T_StorSm_C" = -15027.36   $ Sizing
..

##include Templates\OfL_DX_SZ.inp
END ..
COMPUTE ..
STOP ..
