
Start DOESIM : Storage capacity =  75000000
Starting LOADS   : SAVE-FILES is On , weather is CZ01ARCATA-AP       
Finished LOADS    BDL  1 : Memory (wds) =    391941, Time (sec) =    1.84
Starting REPORT  
Finished REPORT   BDL  1 : Memory (wds) =    784879, Time (sec) =    0.87
Starting HVAC    : SAVE-FILES is On , weather is CZ01ARCATA-AP       
*** ERRORS or WARNINGS from HVAC     program. Examine output file for details.
Finished HVAC     BDL  1 : Memory (wds) =    676482, Time (sec) =    7.81
Starting REPORT  
Finished REPORT   BDL  1 : Memory (wds) =   1153764, Time (sec) =    0.90
Starting HOURLY-R
Finished HOURLY-R BDL  1 : Memory (wds) =   1519799, Time (sec) =    0.17
Starting ECONOMIC
Finished ECONOMIC BDL  1 : Memory (wds) =      1034, Time (sec) =    0.04
End   DOESIM : Total elapsed time of     11.6 seconds
RUN COMPLETE
