INPUT ..

##fileprefix C:\Users\jglasskatz\MASControl3\
##set1 IsSizing FALSE
##set1 CoolType DX
##set1 HeatType FURNACE
##set1 EU_HrRepVar 0
##set1 BldgVint 2007
##set1 BldgLoc CZ14

 ##set1 mBFMult 1   $ IP Tech: RefgChg-NRes-Std

PARAMETER
 "AltFactor" = 1.09733   $ IP Non-Tech
 "BF_fFlow" = SpltAC1Sp_BF_fFlow   $ Msr (Var)TechID: PreNResSplitAC-45to-PENo
 "BF_fT" = SpltAC1Sp_BF_fT   $ Msr (Var)TechID: PreNResSplitAC-45to-PENo
 "BldgEconoFlag" = 1   $ IP Non-Tech
 "Break_EWSF" = 1   $ IP Non-Tech
 "Break_LWSF" = 1.1   $ IP Non-Tech
 "CDD_DBHi10" = 86   $ IP Non-Tech
 "CDD_DBHi7" = 102   $ IP Non-Tech
 "CDD_DBHi8" = 102   $ IP Non-Tech
 "CDD_DBHi9" = 99   $ IP Non-Tech
 "CDD_DBRange10" = 24   $ IP Non-Tech
 "CDD_DBRange7" = 25   $ IP Non-Tech
 "CDD_DBRange8" = 24   $ IP Non-Tech
 "CDD_DBRange9" = 26   $ IP Non-Tech
 "CDD_Day10" = 15   $ IP Non-Tech
 "CDD_Day7" = 16   $ IP Non-Tech
 "CDD_Day8" = 20   $ IP Non-Tech
 "CDD_Day9" = 17   $ IP Non-Tech
 "CDD_HrHi10" = 15   $ IP Non-Tech
 "CDD_HrHi7" = 14   $ IP Non-Tech
 "CDD_HrHi8" = 14   $ IP Non-Tech
 "CDD_HrHi9" = 13   $ IP Non-Tech
 "CDD_HrLo10" = 3   $ IP Non-Tech
 "CDD_HrLo7" = 4   $ IP Non-Tech
 "CDD_HrLo8" = 6   $ IP Non-Tech
 "CDD_HrLo9" = 6   $ IP Non-Tech
 "CDD_WB10" = 59.47153854   $ IP Non-Tech
 "CDD_WB7" = 72.7782135   $ IP Non-Tech
 "CDD_WB8" = 69.10041809   $ IP Non-Tech
 "CDD_WB9" = 72.65714264   $ IP Non-Tech
 "CEIR_fPLR_Hot" = SpltAC1Sp_CEIR_fPLR_Hot   $ Msr (Var)TechID: PreNResSplitAC-45to-PENo
 "CEIR_fPLR_Mod" = SpltAC1Sp_CEIR_fPLR_Mod   $ Msr (Var)TechID: PreNResSplitAC-45to-PENo
 "CEIR_fPLR_Tem" = SpltAC1Sp_CEIR_fPLR_Tem   $ Msr (Var)TechID: PreNResSplitAC-45to-PENo
 "CLoss_fPLR_Hot" = SpltAC1Sp_CLoss_fPLR_Hot   $ Msr (Var)TechID: PreNResSplitAC-45to-PENo
 "CLoss_fPLR_Mod" = SpltAC1Sp_CLoss_fPLR_Mod   $ Msr (Var)TechID: PreNResSplitAC-45to-PENo
 "CLoss_fPLR_Tem" = SpltAC1Sp_CLoss_fPLR_Tem   $ Msr (Var)TechID: PreNResSplitAC-45to-PENo
 "COP47" = 0   $ Msr (Var)TechID: PreNResSplitAC-45to-PENo
 "CZ_Category" = Hot   $ IP Non-Tech
 "CapRange" = Any   $ Msr (Var)TechID: PreNResSplitAC-45to-PENo
 "CfmPerBtuh" = 0.0321   $ Msr (Var)TechID: PreNResSplitAC-45to-PENo
 "ChwVintEconoFlag" = 1   $ IP Non-Tech
 "ClCap_fT" = SpltAC1Sp_ClCap_fT   $ Msr (Var)TechID: PreNResSplitAC-45to-PENo
 "ClSH_fT" = SpltAC1Sp_ClSH_fT   $ Msr (Var)TechID: PreNResSplitAC-45to-PENo
 "CoilBF" = 0.12   $ Msr (Var)TechID: PreNResSplitAC-45to-PENo
 "CondWPerBtuh" = 0   $ Msr (Var)TechID: PreNResSplitAC-45to-PENo
 "Conference_EWSF" = 1   $ IP Non-Tech
 "Conference_LWSF" = 1.4   $ IP Non-Tech
 "CoolSensCap" = 0.744   $ Msr (Var)TechID: PreNResSplitAC-45to-PENo
 "CoolSetT" = 45   $ IP Non-Tech
 "CoolType" = DX   $ IP Non-Tech
 "CoolingEIR" = 0.25823   $ Msr (Var)TechID: PreNResSplitAC-45to-PENo
 "CopyRoom_EWSF" = 1.5   $ IP Non-Tech
 "CopyRoom_LWSF" = 1.3   $ IP Non-Tech
 "CorridorStairway_EWSF" = 0.2   $ IP Non-Tech
 "CorridorStairway_LWSF" = 0.6   $ IP Non-Tech
 "CrnkEIR" = 0.0025823   $ Msr (Var)TechID: PreNResSplitAC-45to-PENo
 "CrnkMaxT" = 50   $ Msr (Var)TechID: PreNResSplitAC-45to-PENo
 "DXType" = SplitSEER   $ Msr (Var)TechID: PreNResSplitAC-45to-PENo
 "DesCoolT" = 75   $ IP Non-Tech
 "DesHeatT" = 73   $ IP Non-Tech
 "EER" = 11.07746479   $ Msr (Var)TechID: PreNResSplitAC-45to-PENo
 "EIR_fT" = SpltAC1Sp_EIR_fT   $ Msr (Var)TechID: PreNResSplitAC-45to-PENo
 "EconoCtrl" = FIXED   $ Msr (Multi)TechID: PreNResSplitAC-45to-PENo
 "EconoEnthLimit" = 28   $ IP Non-Tech
 "EconoTempLimit" = 75   $ IP Non-Tech
 "Elevation" = 2523   $ IP Non-Tech
 "FanEirPlr" = TwoSpeedFan   $ Msr (Var)TechID: PreNResSplitAC-45to-PENo
 "FanWPerCfm" = 0.348   $ Msr (Var)TechID: PreNResSplitAC-45to-PENo
 "HDD_CloudAmt1" = 0   $ IP Non-Tech
 "HDD_DBHi1" = 50   $ IP Non-Tech
 "HDD_DBRange1" = 24   $ IP Non-Tech
 "HDD_Day1" = 15   $ IP Non-Tech
 "HDD_HrHi1" = 14   $ IP Non-Tech
 "HDD_HrLo1" = 6   $ IP Non-Tech
 "HDD_WB1" = 36.9   $ IP Non-Tech
 "HDD_WindSpd1" = 17.3   $ IP Non-Tech
 "HIR_fT" = 0   $ Msr (Var)TechID: PreNResSplitAC-45to-PENo
 "HSPF" = 0   $ Msr (Var)TechID: PreNResSplitAC-45to-PENo
 "HeatSrc" = FURNACE   $ IP Non-Tech
 "HeatSrcTU" = HEAT-PUMP   $ IP Non-Tech
 "HeatType" = GasFurn   $ IP Non-Tech
 "HeatTypeTU" = HEAT-PUMP   $ IP Non-Tech
 "HtCap_fT" = 0   $ Msr (Var)TechID: PreNResSplitAC-45to-PENo
 "HtCoolCapRatio" = 0   $ Msr (Var)TechID: PreNResSplitAC-45to-PENo
 "HtgEIR" = 0   $ Msr (Var)TechID: PreNResSplitAC-45to-PENo
 "IndoorFanMode" = CONTINUOUS   $ IP Non-Tech
 "KT_TransferAir" = No   $ IP Non-Tech
 "Latitude" = 35.7   $ IP Non-Tech
 "LobbyWaiting_EWSF" = 0.5   $ IP Non-Tech
 "LobbyWaiting_LWSF" = 1.3   $ IP Non-Tech
 "Longitude" = 117.7   $ IP Non-Tech
 "LowSpdCapRatio" = 1   $ Msr (Var)TechID: PreNResSplitAC-45to-PENo
 "LowSpdCfmRatio" = 1   $ Msr (Var)TechID: PreNResSplitAC-45to-PENo
 "MZFanMechEff" = 0.58   $ IP Non-Tech
 "MZHasRetFan" = FALSE   $ IP Non-Tech
 "MZ_RFanWPerCfm" = 0.37   $ IP Non-Tech
 "MZ_SFanWPerCfm" = 0.71   $ IP Non-Tech
 "MZ_SupFanStatic" = 2.25   $ IP Non-Tech
 "MaxOAFrac" = 1   $ Msr (Multi)TechID: PreNResSplitAC-45to-PENo
 "MaxSupT_MZ" = 100   $ IP Non-Tech
 "MaxSupT_SZ" = 100   $ IP Non-Tech
 "MaxSupT_TU" = 90   $ IP Non-Tech
 "MechElecRoom_EWSF" = 0.2   $ IP Non-Tech
 "MechElecRoom_LWSF" = 0.7   $ IP Non-Tech
 "MinCfmPerSF" = 0.4   $ IP Non-Tech
 "MinSupT" = 55   $ IP Non-Tech
 "NumStages" = 1   $ Msr (Var)TechID: PreNResSplitAC-45to-PENo
 "OccCoolT" = 76   $ IP Non-Tech
 "OccHeatT" = 72   $ IP Non-Tech
 "OfficeOpen_EWSF" = 1.5   $ IP Non-Tech
 "OfficeOpen_LWSF" = 1.2   $ IP Non-Tech
 "OfficeSmall_EWSF" = 1.5   $ IP Non-Tech
 "OfficeSmall_LWSF" = 1.3   $ IP Non-Tech
 "PkgDxVintEconoFlag" = 0   $ IP Non-Tech
 "Restroom_EWSF" = 0.2   $ IP Non-Tech
 "Restroom_LWSF" = 0.6   $ IP Non-Tech
 "SEER" = 13   $ Msr (Var)TechID: PreNResSplitAC-45to-PENo
 "SZFanMechEff" = 0.58   $ IP Non-Tech
 "SZHasRetFan" = FALSE   $ IP Non-Tech
 "SZ_Is_2Spd" = FALSE   $ IP Non-Tech
 "SZ_SFanWPerCfm" = 0.46   $ IP Non-Tech
 "SZ_SupFanStatic" = 0.75   $ IP Non-Tech
 "Sector" = Any   $ Msr (Var)TechID: PreNResSplitAC-45to-PENo
 "StorageSmlCond_EWSF" = 0.2   $ IP Non-Tech
 "StorageSmlCond_LWSF" = 0.6   $ IP Non-Tech
 "SubType" = AC   $ Msr (Var)TechID: PreNResSplitAC-45to-PENo
 "T24GlzTbl" = CZTbl   $ IP Non-Tech
 "TermUnitFanMechEff" = 1   $ IP Non-Tech
 "TermUnitFanMode" = INTERMITTENT   $ IP Non-Tech
 "TotCoolCap" = 34895   $ Msr (Var)TechID: PreNResSplitAC-45to-PENo
 "TwrSetpt" = 90   $ IP Non-Tech
 "UnocCoolT" = 86   $ IP Non-Tech
 "UnocHeatT" = 62   $ IP Non-Tech
 "UseEconoVintApplic" = FALSE   $ Msr (Multi)TechID: PreNResSplitAC-45to-PENo
 "WlhpVintEconoFlag" = 0   $ IP Non-Tech
 "DuctDT" = 1   $ IP Tech: ComDuctInsul-1
 "DuctAirLoss" = 0   $ IP Tech: ComDuctLeak-0
 "DuctLossOAFrac" = 0   $ IP Tech: ComDuctLeak-0
 "ComRoofInsCalc" = FromUo   $ IP Tech: ComRoofIns-Hvy-0.05
 "ComRoofInsR" = -999   $ IP Tech: ComRoofIns-Hvy-0.05
 "ComRoofUo" = 0.05   $ IP Tech: ComRoofIns-Hvy-0.05
 "ComEWInsCalc" = FromUo   $ IP Tech: ComWallIns-MFrm-0.13
 "ComEWInsR" = -999   $ IP Tech: ComWallIns-MFrm-0.13
 "ComEWUo" = 0.13   $ IP Tech: ComWallIns-MFrm-0.13
 "ComN_SHGC" = 0.4   $ IP Tech: NResWin-ComN-0.47-0.4
 "ComN_UFactor" = 0.47   $ IP Tech: NResWin-ComN-0.47-0.4
 "ComN_VisTrans" = 0.68   $ IP Tech: NResWin-ComN-0.47-0.4
 "ComN_WinCode" = G2663   $ IP Tech: NResWin-ComN-0.47-0.4
 "ComN_WinFrmFrac" = 0.17   $ IP Tech: NResWin-ComN-0.47-0.4
 "ComN_WinFrmU" = 0.3   $ IP Tech: NResWin-ComN-0.47-0.4
 "ComO_SHGC" = 0.31   $ IP Tech: NResWin-ComO-0.47-0.31
 "ComO_UFactor" = 0.47   $ IP Tech: NResWin-ComO-0.47-0.31
 "ComO_VisTrans" = 0.44   $ IP Tech: NResWin-ComO-0.47-0.31
 "ComO_WinCode" = G2637   $ IP Tech: NResWin-ComO-0.47-0.31
 "ComO_WinFrmFrac" = 0.17   $ IP Tech: NResWin-ComO-0.47-0.31
 "ComO_WinFrmU" = 0.3   $ IP Tech: NResWin-ComO-0.47-0.31
 "LtgMsrApplic" = ALL   $ IP Tech: NonResLtgRefPre
 "LtgSav_CFL" = 0   $ IP Tech: NonResLtgRefPre
 "LtgSav_EX" = 0   $ IP Tech: NonResLtgRefPre
 "LtgSav_HB" = 0   $ IP Tech: NonResLtgRefPre
 "LtgSav_LF" = 0   $ IP Tech: NonResLtgRefPre
 "LtgSav_SP" = 0   $ IP Tech: NonResLtgRefPre
 "CEIR_fPLR" = PSZ65to135_CEIR_fPLR   $ IP Tech: PkgAC1SpH-65to135-E10
 "CLoss_fPLR" = PSZ65to135_CLoss_fPLR   $ IP Tech: PkgAC1SpH-65to135-E10
 "COP" = -1   $ IP Tech: PkgAC1SpH-65to135-E10
 "HtgFuel" = Gas   $ IP Tech: PkgAC1SpH-65to135-E10
 "IEER" = 11.87   $ IP Tech: PkgAC1SpH-65to135-E10
 "NominalCap" = 15   $ IP Tech: PkgAC1SpH-65to135-E10
 "RatedEER" = 10   $ IP Tech: PkgAC1SpH-65to135-E10
 "RatedSupMtrClass" = HiEff   $ IP Tech: PkgAC1SpH-65to135-E10
 "SizeRange" = 65to135   $ IP Tech: PkgAC1SpH-65to135-E10
 "SupMotEff" = 0.84   $ IP Tech: PkgAC1SpH-65to135-E10
 "Tier" = 0   $ IP Tech: PkgAC1SpH-65to135-E10
 "FanPwrMult" = 1   $ IP Tech: PkgFurn-0.80AFUE
 "FurnAFUE" = 0.8   $ IP Tech: PkgFurn-0.80AFUE
 "FurnEt" = 0.82   $ IP Tech: PkgFurn-0.80AFUE
 "FurnaceAuxKW" = 0.1   $ IP Tech: PkgFurn-0.80AFUE
 "HIR_fPLR" = Furnace-HIR-fPLR   $ IP Tech: PkgFurn-0.80AFUE
 "VSM" = FALSE   $ IP Tech: PkgFurn-0.80AFUE
 "BFMult" = 1   $ IP Tech: RefgChg-NRes-Std
 "CoolEirMult" = 1   $ IP Tech: RefgChg-NRes-Std
 "SensCoolCapMult" = 1   $ IP Tech: RefgChg-NRes-Std
 "TotCoolCapMult" = 1   $ IP Tech: RefgChg-NRes-Std
 "AltAdjFactor" = 1.09733   $ Sizing
 "CAssFlo_L_Break_CZn" = 657.2569   $ Sizing
 "CAssFlo_L_Conf_CZn" = 638.7264   $ Sizing
 "CAssFlo_L_CopyRm_CZn" = 209.2358   $ Sizing
 "CAssFlo_L_Cordr_CZn" = 773.6562   $ Sizing
 "CAssFlo_L_Cordr_EZn" = 270.5395   $ Sizing
 "CAssFlo_L_Cordr_NZn" = 191.6539   $ Sizing
 "CAssFlo_L_Cordr_SZn" = 270.2351   $ Sizing
 "CAssFlo_L_Cordr_WZn" = 299.5343   $ Sizing
 "CAssFlo_L_LobWait_CZn" = 661.8654   $ Sizing
 "CAssFlo_L_MechElec_CZn" = 150.652   $ Sizing
 "CAssFlo_L_OfficeOpn_CZn" = 2148.655   $ Sizing
 "CAssFlo_L_OfficeOpn_EZn" = 1881.745   $ Sizing
 "CAssFlo_L_OfficeOpn_NZn" = 1391.086   $ Sizing
 "CAssFlo_L_OfficeOpn_SZn" = 1879.239   $ Sizing
 "CAssFlo_L_OfficeOpn_WZn" = 2131.211   $ Sizing
 "CAssFlo_L_OfficeSm_CZn" = 275.7949   $ Sizing
 "CAssFlo_L_OfficeSm_EZn" = 1332.219   $ Sizing
 "CAssFlo_L_OfficeSm_NZn" = 902.1373   $ Sizing
 "CAssFlo_L_OfficeSm_SZn" = 1315.153   $ Sizing
 "CAssFlo_L_OfficeSm_WZn" = 1486.63   $ Sizing
 "CAssFlo_L_Restrm_CZn" = 106.5471   $ Sizing
 "CAssFlo_L_StorSm_CZn" = 465.3845   $ Sizing
 "CAssFlo_M_Break_CZn" = 663.4427   $ Sizing
 "CAssFlo_M_Conf_CZn" = 637.893   $ Sizing
 "CAssFlo_M_CopyRm_CZn" = 202.8455   $ Sizing
 "CAssFlo_M_Cordr_CZn" = 1059.398   $ Sizing
 "CAssFlo_M_Cordr_EZn" = 310.1865   $ Sizing
 "CAssFlo_M_Cordr_NZn" = 209.033   $ Sizing
 "CAssFlo_M_Cordr_SZn" = 296.0452   $ Sizing
 "CAssFlo_M_Cordr_WZn" = 317.0019   $ Sizing
 "CAssFlo_M_LobWait_CZn" = 681.762   $ Sizing
 "CAssFlo_M_MechElec_CZn" = 189.7884   $ Sizing
 "CAssFlo_M_OfficeOpn_CZn" = 2169.813   $ Sizing
 "CAssFlo_M_OfficeOpn_EZn" = 2036.08   $ Sizing
 "CAssFlo_M_OfficeOpn_NZn" = 1464.609   $ Sizing
 "CAssFlo_M_OfficeOpn_SZn" = 1993.337   $ Sizing
 "CAssFlo_M_OfficeOpn_WZn" = 2194.699   $ Sizing
 "CAssFlo_M_OfficeSm_CZn" = 323.0908   $ Sizing
 "CAssFlo_M_OfficeSm_EZn" = 1424.543   $ Sizing
 "CAssFlo_M_OfficeSm_NZn" = 944.4467   $ Sizing
 "CAssFlo_M_OfficeSm_SZn" = 1380.716   $ Sizing
 "CAssFlo_M_OfficeSm_WZn" = 1519.224   $ Sizing
 "CAssFlo_M_Restrm_CZn" = 118.8606   $ Sizing
 "CAssFlo_M_StorSm_CZn" = 504.3644   $ Sizing
 "CAssFlo_T_Break_CZn" = 654.97   $ Sizing
 "CAssFlo_T_Conf_CZn" = 631.4343   $ Sizing
 "CAssFlo_T_CopyRm_CZn" = 201.3175   $ Sizing
 "CAssFlo_T_Cordr_CZn" = 1003.396   $ Sizing
 "CAssFlo_T_Cordr_EZn" = 306.3031   $ Sizing
 "CAssFlo_T_Cordr_NZn" = 213.8205   $ Sizing
 "CAssFlo_T_Cordr_SZn" = 297.9254   $ Sizing
 "CAssFlo_T_Cordr_WZn" = 319.7953   $ Sizing
 "CAssFlo_T_LobWait_CZn" = 675.0861   $ Sizing
 "CAssFlo_T_MechElec_CZn" = 224.6353   $ Sizing
 "CAssFlo_T_OfficeOpn_CZn" = 2236.368   $ Sizing
 "CAssFlo_T_OfficeOpn_EZn" = 2018.523   $ Sizing
 "CAssFlo_T_OfficeOpn_NZn" = 1500.759   $ Sizing
 "CAssFlo_T_OfficeOpn_SZn" = 2025.356   $ Sizing
 "CAssFlo_T_OfficeOpn_WZn" = 2204.02   $ Sizing
 "CAssFlo_T_OfficeSm_CZn" = 302.9652   $ Sizing
 "CAssFlo_T_OfficeSm_EZn" = 1451.21   $ Sizing
 "CAssFlo_T_OfficeSm_NZn" = 972.2535   $ Sizing
 "CAssFlo_T_OfficeSm_SZn" = 1420.036   $ Sizing
 "CAssFlo_T_OfficeSm_WZn" = 1555.775   $ Sizing
 "CAssFlo_T_Restrm_CZn" = 167.8612   $ Sizing
 "CAssFlo_T_StorSm_CZn" = 338.9246   $ Sizing
 "CHRtFlo_Sys_L_Break_C" = 657.2569   $ Sizing
 "CHRtFlo_Sys_L_Conf_C" = 638.7264   $ Sizing
 "CHRtFlo_Sys_L_CopyRm_C" = 209.2358   $ Sizing
 "CHRtFlo_Sys_L_Cordr_C" = 773.6562   $ Sizing
 "CHRtFlo_Sys_L_Cordr_E" = 290.115   $ Sizing
 "CHRtFlo_Sys_L_Cordr_N" = 191.6539   $ Sizing
 "CHRtFlo_Sys_L_Cordr_S" = 270.2351   $ Sizing
 "CHRtFlo_Sys_L_Cordr_W" = 299.5343   $ Sizing
 "CHRtFlo_Sys_L_LobWait_C" = 661.8654   $ Sizing
 "CHRtFlo_Sys_L_MechElec_C" = 158.4733   $ Sizing
 "CHRtFlo_Sys_L_OfficeOpn_C" = 2148.655   $ Sizing
 "CHRtFlo_Sys_L_OfficeOpn_E" = 2078.178   $ Sizing
 "CHRtFlo_Sys_L_OfficeOpn_N" = 1391.086   $ Sizing
 "CHRtFlo_Sys_L_OfficeOpn_S" = 1975.188   $ Sizing
 "CHRtFlo_Sys_L_OfficeOpn_W" = 2131.211   $ Sizing
 "CHRtFlo_Sys_L_OfficeSm_C" = 289.576   $ Sizing
 "CHRtFlo_Sys_L_OfficeSm_E" = 1501.248   $ Sizing
 "CHRtFlo_Sys_L_OfficeSm_N" = 902.1373   $ Sizing
 "CHRtFlo_Sys_L_OfficeSm_S" = 1433.39   $ Sizing
 "CHRtFlo_Sys_L_OfficeSm_W" = 1496.077   $ Sizing
 "CHRtFlo_Sys_L_Restrm_C" = 230.7435   $ Sizing
 "CHRtFlo_Sys_L_StorSm_C" = 477.7223   $ Sizing
 "CHRtFlo_Sys_M_Break_C" = 5307.542   $ Sizing
 "CHRtFlo_Sys_M_Conf_C" = 5103.144   $ Sizing
 "CHRtFlo_Sys_M_CopyRm_C" = 1622.764   $ Sizing
 "CHRtFlo_Sys_M_Cordr_C" = 9033.242   $ Sizing
 "CHRtFlo_Sys_M_Cordr_E" = 2724.384   $ Sizing
 "CHRtFlo_Sys_M_Cordr_N" = 1672.264   $ Sizing
 "CHRtFlo_Sys_M_Cordr_S" = 2466.091   $ Sizing
 "CHRtFlo_Sys_M_Cordr_W" = 2536.015   $ Sizing
 "CHRtFlo_Sys_M_LobWait_C" = 5454.096   $ Sizing
 "CHRtFlo_Sys_M_MechElec_C" = 1684.831   $ Sizing
 "CHRtFlo_Sys_M_OfficeOpn_C" = 18731.68   $ Sizing
 "CHRtFlo_Sys_M_OfficeOpn_E" = 18099.29   $ Sizing
 "CHRtFlo_Sys_M_OfficeOpn_N" = 11716.87   $ Sizing
 "CHRtFlo_Sys_M_OfficeOpn_S" = 17008.85   $ Sizing
 "CHRtFlo_Sys_M_OfficeOpn_W" = 17557.59   $ Sizing
 "CHRtFlo_Sys_M_OfficeSm_C" = 2895.374   $ Sizing
 "CHRtFlo_Sys_M_OfficeSm_E" = 12908.8   $ Sizing
 "CHRtFlo_Sys_M_OfficeSm_N" = 7555.574   $ Sizing
 "CHRtFlo_Sys_M_OfficeSm_S" = 12211.94   $ Sizing
 "CHRtFlo_Sys_M_OfficeSm_W" = 12260.45   $ Sizing
 "CHRtFlo_Sys_M_Restrm_C" = 1845.948   $ Sizing
 "CHRtFlo_Sys_M_StorSm_C" = 4360.79   $ Sizing
 "CHRtFlo_Sys_T_Break_C" = 654.97   $ Sizing
 "CHRtFlo_Sys_T_Conf_C" = 631.4343   $ Sizing
 "CHRtFlo_Sys_T_CopyRm_C" = 201.3175   $ Sizing
 "CHRtFlo_Sys_T_Cordr_C" = 1003.396   $ Sizing
 "CHRtFlo_Sys_T_Cordr_E" = 306.3031   $ Sizing
 "CHRtFlo_Sys_T_Cordr_N" = 213.8205   $ Sizing
 "CHRtFlo_Sys_T_Cordr_S" = 297.9254   $ Sizing
 "CHRtFlo_Sys_T_Cordr_W" = 319.7953   $ Sizing
 "CHRtFlo_Sys_T_LobWait_C" = 675.0861   $ Sizing
 "CHRtFlo_Sys_T_MechElec_C" = 258.8608   $ Sizing
 "CHRtFlo_Sys_T_OfficeOpn_C" = 2236.368   $ Sizing
 "CHRtFlo_Sys_T_OfficeOpn_E" = 2051.244   $ Sizing
 "CHRtFlo_Sys_T_OfficeOpn_N" = 1500.759   $ Sizing
 "CHRtFlo_Sys_T_OfficeOpn_S" = 2025.356   $ Sizing
 "CHRtFlo_Sys_T_OfficeOpn_W" = 2204.02   $ Sizing
 "CHRtFlo_Sys_T_OfficeSm_C" = 315.8979   $ Sizing
 "CHRtFlo_Sys_T_OfficeSm_E" = 1507.204   $ Sizing
 "CHRtFlo_Sys_T_OfficeSm_N" = 972.2535   $ Sizing
 "CHRtFlo_Sys_T_OfficeSm_S" = 1454.372   $ Sizing
 "CHRtFlo_Sys_T_OfficeSm_W" = 1555.776   $ Sizing
 "CHRtFlo_Sys_T_Restrm_C" = 230.7435   $ Sizing
 "CHRtFlo_Sys_T_StorSm_C" = 363.8655   $ Sizing
 "CRtdFlo_Sys_L_Break_C" = 657.2569   $ Sizing
 "CRtdFlo_Sys_L_Conf_C" = 638.7264   $ Sizing
 "CRtdFlo_Sys_L_CopyRm_C" = 209.2358   $ Sizing
 "CRtdFlo_Sys_L_Cordr_C" = 773.6562   $ Sizing
 "CRtdFlo_Sys_L_Cordr_E" = 270.5395   $ Sizing
 "CRtdFlo_Sys_L_Cordr_N" = 191.6539   $ Sizing
 "CRtdFlo_Sys_L_Cordr_S" = 270.058   $ Sizing
 "CRtdFlo_Sys_L_Cordr_W" = 299.5343   $ Sizing
 "CRtdFlo_Sys_L_LobWait_C" = 661.8654   $ Sizing
 "CRtdFlo_Sys_L_MechElec_C" = 150.652   $ Sizing
 "CRtdFlo_Sys_L_OfficeOpn_C" = 2148.655   $ Sizing
 "CRtdFlo_Sys_L_OfficeOpn_E" = 1881.745   $ Sizing
 "CRtdFlo_Sys_L_OfficeOpn_N" = 1391.086   $ Sizing
 "CRtdFlo_Sys_L_OfficeOpn_S" = 1879.239   $ Sizing
 "CRtdFlo_Sys_L_OfficeOpn_W" = 2131.211   $ Sizing
 "CRtdFlo_Sys_L_OfficeSm_C" = 275.7949   $ Sizing
 "CRtdFlo_Sys_L_OfficeSm_E" = 1332.219   $ Sizing
 "CRtdFlo_Sys_L_OfficeSm_N" = 902.1373   $ Sizing
 "CRtdFlo_Sys_L_OfficeSm_S" = 1315.153   $ Sizing
 "CRtdFlo_Sys_L_OfficeSm_W" = 1486.63   $ Sizing
 "CRtdFlo_Sys_L_Restrm_C" = 106.5471   $ Sizing
 "CRtdFlo_Sys_L_StorSm_C" = 465.3844   $ Sizing
 "CRtdFlo_Sys_M_Break_C" = 5307.542   $ Sizing
 "CRtdFlo_Sys_M_Conf_C" = 5103.144   $ Sizing
 "CRtdFlo_Sys_M_CopyRm_C" = 1622.764   $ Sizing
 "CRtdFlo_Sys_M_Cordr_C" = 8475.185   $ Sizing
 "CRtdFlo_Sys_M_Cordr_E" = 2481.492   $ Sizing
 "CRtdFlo_Sys_M_Cordr_N" = 1672.264   $ Sizing
 "CRtdFlo_Sys_M_Cordr_S" = 2368.361   $ Sizing
 "CRtdFlo_Sys_M_Cordr_W" = 2536.015   $ Sizing
 "CRtdFlo_Sys_M_LobWait_C" = 5454.096   $ Sizing
 "CRtdFlo_Sys_M_MechElec_C" = 1518.307   $ Sizing
 "CRtdFlo_Sys_M_OfficeOpn_C" = 17358.5   $ Sizing
 "CRtdFlo_Sys_M_OfficeOpn_E" = 16288.64   $ Sizing
 "CRtdFlo_Sys_M_OfficeOpn_N" = 11716.87   $ Sizing
 "CRtdFlo_Sys_M_OfficeOpn_S" = 15946.7   $ Sizing
 "CRtdFlo_Sys_M_OfficeOpn_W" = 17557.59   $ Sizing
 "CRtdFlo_Sys_M_OfficeSm_C" = 2584.726   $ Sizing
 "CRtdFlo_Sys_M_OfficeSm_E" = 11396.34   $ Sizing
 "CRtdFlo_Sys_M_OfficeSm_N" = 7555.574   $ Sizing
 "CRtdFlo_Sys_M_OfficeSm_S" = 11045.73   $ Sizing
 "CRtdFlo_Sys_M_OfficeSm_W" = 12153.79   $ Sizing
 "CRtdFlo_Sys_M_Restrm_C" = 950.8849   $ Sizing
 "CRtdFlo_Sys_M_StorSm_C" = 4034.915   $ Sizing
 "CRtdFlo_Sys_T_Break_C" = 654.97   $ Sizing
 "CRtdFlo_Sys_T_Conf_C" = 631.4343   $ Sizing
 "CRtdFlo_Sys_T_CopyRm_C" = 201.3175   $ Sizing
 "CRtdFlo_Sys_T_Cordr_C" = 1003.396   $ Sizing
 "CRtdFlo_Sys_T_Cordr_E" = 306.3031   $ Sizing
 "CRtdFlo_Sys_T_Cordr_N" = 213.8205   $ Sizing
 "CRtdFlo_Sys_T_Cordr_S" = 297.9254   $ Sizing
 "CRtdFlo_Sys_T_Cordr_W" = 319.7953   $ Sizing
 "CRtdFlo_Sys_T_LobWait_C" = 675.0861   $ Sizing
 "CRtdFlo_Sys_T_MechElec_C" = 224.6353   $ Sizing
 "CRtdFlo_Sys_T_OfficeOpn_C" = 2236.368   $ Sizing
 "CRtdFlo_Sys_T_OfficeOpn_E" = 2018.523   $ Sizing
 "CRtdFlo_Sys_T_OfficeOpn_N" = 1500.759   $ Sizing
 "CRtdFlo_Sys_T_OfficeOpn_S" = 2025.356   $ Sizing
 "CRtdFlo_Sys_T_OfficeOpn_W" = 2204.02   $ Sizing
 "CRtdFlo_Sys_T_OfficeSm_C" = 302.9652   $ Sizing
 "CRtdFlo_Sys_T_OfficeSm_E" = 1451.21   $ Sizing
 "CRtdFlo_Sys_T_OfficeSm_N" = 972.2535   $ Sizing
 "CRtdFlo_Sys_T_OfficeSm_S" = 1420.036   $ Sizing
 "CRtdFlo_Sys_T_OfficeSm_W" = 1555.776   $ Sizing
 "CRtdFlo_Sys_T_Restrm_C" = 167.8612   $ Sizing
 "CRtdFlo_Sys_T_StorSm_C" = 338.9246   $ Sizing
 "CSupFlo_Sys_L_Break_C" = 657.2569   $ Sizing
 "CSupFlo_Sys_L_Conf_C" = 638.7264   $ Sizing
 "CSupFlo_Sys_L_CopyRm_C" = 209.2358   $ Sizing
 "CSupFlo_Sys_L_Cordr_C" = 773.6562   $ Sizing
 "CSupFlo_Sys_L_Cordr_E" = 270.5395   $ Sizing
 "CSupFlo_Sys_L_Cordr_N" = 191.6539   $ Sizing
 "CSupFlo_Sys_L_Cordr_S" = 270.058   $ Sizing
 "CSupFlo_Sys_L_Cordr_W" = 299.5343   $ Sizing
 "CSupFlo_Sys_L_LobWait_C" = 661.8654   $ Sizing
 "CSupFlo_Sys_L_MechElec_C" = 150.652   $ Sizing
 "CSupFlo_Sys_L_OfficeOpn_C" = 2148.655   $ Sizing
 "CSupFlo_Sys_L_OfficeOpn_E" = 1881.745   $ Sizing
 "CSupFlo_Sys_L_OfficeOpn_N" = 1391.086   $ Sizing
 "CSupFlo_Sys_L_OfficeOpn_S" = 1879.239   $ Sizing
 "CSupFlo_Sys_L_OfficeOpn_W" = 2131.211   $ Sizing
 "CSupFlo_Sys_L_OfficeSm_C" = 275.7949   $ Sizing
 "CSupFlo_Sys_L_OfficeSm_E" = 1332.219   $ Sizing
 "CSupFlo_Sys_L_OfficeSm_N" = 902.1373   $ Sizing
 "CSupFlo_Sys_L_OfficeSm_S" = 1315.153   $ Sizing
 "CSupFlo_Sys_L_OfficeSm_W" = 1486.63   $ Sizing
 "CSupFlo_Sys_L_Restrm_C" = 106.5471   $ Sizing
 "CSupFlo_Sys_L_StorSm_C" = 465.3844   $ Sizing
 "CSupFlo_Sys_M_Break_C" = 5307.542   $ Sizing
 "CSupFlo_Sys_M_Conf_C" = 5103.144   $ Sizing
 "CSupFlo_Sys_M_CopyRm_C" = 1622.764   $ Sizing
 "CSupFlo_Sys_M_Cordr_C" = 8475.185   $ Sizing
 "CSupFlo_Sys_M_Cordr_E" = 2481.492   $ Sizing
 "CSupFlo_Sys_M_Cordr_N" = 1672.264   $ Sizing
 "CSupFlo_Sys_M_Cordr_S" = 2368.361   $ Sizing
 "CSupFlo_Sys_M_Cordr_W" = 2536.015   $ Sizing
 "CSupFlo_Sys_M_LobWait_C" = 5454.096   $ Sizing
 "CSupFlo_Sys_M_MechElec_C" = 1518.307   $ Sizing
 "CSupFlo_Sys_M_OfficeOpn_C" = 17358.5   $ Sizing
 "CSupFlo_Sys_M_OfficeOpn_E" = 16288.64   $ Sizing
 "CSupFlo_Sys_M_OfficeOpn_N" = 11716.87   $ Sizing
 "CSupFlo_Sys_M_OfficeOpn_S" = 15946.7   $ Sizing
 "CSupFlo_Sys_M_OfficeOpn_W" = 17557.59   $ Sizing
 "CSupFlo_Sys_M_OfficeSm_C" = 2584.726   $ Sizing
 "CSupFlo_Sys_M_OfficeSm_E" = 11396.34   $ Sizing
 "CSupFlo_Sys_M_OfficeSm_N" = 7555.574   $ Sizing
 "CSupFlo_Sys_M_OfficeSm_S" = 11045.73   $ Sizing
 "CSupFlo_Sys_M_OfficeSm_W" = 12153.79   $ Sizing
 "CSupFlo_Sys_M_Restrm_C" = 950.8849   $ Sizing
 "CSupFlo_Sys_M_StorSm_C" = 4034.915   $ Sizing
 "CSupFlo_Sys_T_Break_C" = 654.97   $ Sizing
 "CSupFlo_Sys_T_Conf_C" = 631.4343   $ Sizing
 "CSupFlo_Sys_T_CopyRm_C" = 201.3175   $ Sizing
 "CSupFlo_Sys_T_Cordr_C" = 1003.396   $ Sizing
 "CSupFlo_Sys_T_Cordr_E" = 306.3031   $ Sizing
 "CSupFlo_Sys_T_Cordr_N" = 213.8205   $ Sizing
 "CSupFlo_Sys_T_Cordr_S" = 297.9254   $ Sizing
 "CSupFlo_Sys_T_Cordr_W" = 319.7953   $ Sizing
 "CSupFlo_Sys_T_LobWait_C" = 675.0861   $ Sizing
 "CSupFlo_Sys_T_MechElec_C" = 224.6353   $ Sizing
 "CSupFlo_Sys_T_OfficeOpn_C" = 2236.368   $ Sizing
 "CSupFlo_Sys_T_OfficeOpn_E" = 2018.523   $ Sizing
 "CSupFlo_Sys_T_OfficeOpn_N" = 1500.759   $ Sizing
 "CSupFlo_Sys_T_OfficeOpn_S" = 2025.356   $ Sizing
 "CSupFlo_Sys_T_OfficeOpn_W" = 2204.02   $ Sizing
 "CSupFlo_Sys_T_OfficeSm_C" = 302.9652   $ Sizing
 "CSupFlo_Sys_T_OfficeSm_E" = 1451.21   $ Sizing
 "CSupFlo_Sys_T_OfficeSm_N" = 972.2535   $ Sizing
 "CSupFlo_Sys_T_OfficeSm_S" = 1420.036   $ Sizing
 "CSupFlo_Sys_T_OfficeSm_W" = 1555.776   $ Sizing
 "CSupFlo_Sys_T_Restrm_C" = 167.8612   $ Sizing
 "CSupFlo_Sys_T_StorSm_C" = 338.9246   $ Sizing
 "ClCap_Sys_L_Break_C" = 20535.78   $ Sizing
 "ClCap_Sys_L_Conf_C" = 25399.56   $ Sizing
 "ClCap_Sys_L_CopyRm_C" = 6537.504   $ Sizing
 "ClCap_Sys_L_Cordr_C" = 24172.63   $ Sizing
 "ClCap_Sys_L_Cordr_E" = 8452.917   $ Sizing
 "ClCap_Sys_L_Cordr_N" = 5988.164   $ Sizing
 "ClCap_Sys_L_Cordr_S" = 8437.872   $ Sizing
 "ClCap_Sys_L_Cordr_W" = 9358.851   $ Sizing
 "ClCap_Sys_L_LobWait_C" = 20679.77   $ Sizing
 "ClCap_Sys_L_MechElec_C" = 4707.073   $ Sizing
 "ClCap_Sys_L_OfficeOpn_C" = 67134.02   $ Sizing
 "ClCap_Sys_L_OfficeOpn_E" = 58794.51   $ Sizing
 "ClCap_Sys_L_OfficeOpn_N" = 43464.02   $ Sizing
 "ClCap_Sys_L_OfficeOpn_S" = 58716.21   $ Sizing
 "ClCap_Sys_L_OfficeOpn_W" = 66588.98   $ Sizing
 "ClCap_Sys_L_OfficeSm_C" = 8617.121   $ Sizing
 "ClCap_Sys_L_OfficeSm_E" = 41624.76   $ Sizing
 "ClCap_Sys_L_OfficeSm_N" = 28186.98   $ Sizing
 "ClCap_Sys_L_OfficeSm_S" = 41091.51   $ Sizing
 "ClCap_Sys_L_OfficeSm_W" = 46449.27   $ Sizing
 "ClCap_Sys_L_Restrm_C" = 3329.029   $ Sizing
 "ClCap_Sys_L_StorSm_C" = 14540.78   $ Sizing
 "ClCap_Sys_M_Break_C" = 165832.4   $ Sizing
 "ClCap_Sys_M_Conf_C" = 202931.4   $ Sizing
 "ClCap_Sys_M_CopyRm_C" = 50702.72   $ Sizing
 "ClCap_Sys_M_Cordr_C" = 264804.4   $ Sizing
 "ClCap_Sys_M_Cordr_E" = 77533.41   $ Sizing
 "ClCap_Sys_M_Cordr_N" = 52249.34   $ Sizing
 "ClCap_Sys_M_Cordr_S" = 73998.68   $ Sizing
 "ClCap_Sys_M_Cordr_W" = 79236.97   $ Sizing
 "ClCap_Sys_M_LobWait_C" = 170411.5   $ Sizing
 "ClCap_Sys_M_MechElec_C" = 47439   $ Sizing
 "ClCap_Sys_M_OfficeOpn_C" = 542360.8   $ Sizing
 "ClCap_Sys_M_OfficeOpn_E" = 508933.3   $ Sizing
 "ClCap_Sys_M_OfficeOpn_N" = 366089.8   $ Sizing
 "ClCap_Sys_M_OfficeOpn_S" = 498249.3   $ Sizing
 "ClCap_Sys_M_OfficeOpn_W" = 548581.3   $ Sizing
 "ClCap_Sys_M_OfficeSm_C" = 80758.93   $ Sizing
 "ClCap_Sys_M_OfficeSm_E" = 356074.9   $ Sizing
 "ClCap_Sys_M_OfficeSm_N" = 236071.4   $ Sizing
 "ClCap_Sys_M_OfficeSm_S" = 345120.1   $ Sizing
 "ClCap_Sys_M_OfficeSm_W" = 379741.3   $ Sizing
 "ClCap_Sys_M_Restrm_C" = 29710.09   $ Sizing
 "ClCap_Sys_M_StorSm_C" = 126069.6   $ Sizing
 "ClCap_Sys_T_Break_C" = 20464.32   $ Sizing
 "ClCap_Sys_T_Conf_C" = 25109.58   $ Sizing
 "ClCap_Sys_T_CopyRm_C" = 6290.1   $ Sizing
 "ClCap_Sys_T_Cordr_C" = 31350.77   $ Sizing
 "ClCap_Sys_T_Cordr_E" = 9570.341   $ Sizing
 "ClCap_Sys_T_Cordr_N" = 6680.751   $ Sizing
 "ClCap_Sys_T_Cordr_S" = 9308.58   $ Sizing
 "ClCap_Sys_T_Cordr_W" = 9991.901   $ Sizing
 "ClCap_Sys_T_LobWait_C" = 21092.84   $ Sizing
 "ClCap_Sys_T_MechElec_C" = 7018.658   $ Sizing
 "ClCap_Sys_T_OfficeOpn_C" = 69874.58   $ Sizing
 "ClCap_Sys_T_OfficeOpn_E" = 63068.09   $ Sizing
 "ClCap_Sys_T_OfficeOpn_N" = 46890.73   $ Sizing
 "ClCap_Sys_T_OfficeOpn_S" = 63281.58   $ Sizing
 "ClCap_Sys_T_OfficeOpn_W" = 68863.88   $ Sizing
 "ClCap_Sys_T_OfficeSm_C" = 9466.049   $ Sizing
 "ClCap_Sys_T_OfficeSm_E" = 45342.57   $ Sizing
 "ClCap_Sys_T_OfficeSm_N" = 30377.74   $ Sizing
 "ClCap_Sys_T_OfficeSm_S" = 44368.56   $ Sizing
 "ClCap_Sys_T_OfficeSm_W" = 48609.7   $ Sizing
 "ClCap_Sys_T_Restrm_C" = 5244.767   $ Sizing
 "ClCap_Sys_T_StorSm_C" = 10589.59   $ Sizing
 "HtCap_Sys_L_Break_C" = -35583.71   $ Sizing
 "HtCap_Sys_L_Conf_C" = -35856.43   $ Sizing
 "HtCap_Sys_L_CopyRm_C" = -13375.6   $ Sizing
 "HtCap_Sys_L_Cordr_C" = -32638.29   $ Sizing
 "HtCap_Sys_L_Cordr_E" = -9759.853   $ Sizing
 "HtCap_Sys_L_Cordr_N" = -7542.589   $ Sizing
 "HtCap_Sys_L_Cordr_S" = -9112.574   $ Sizing
 "HtCap_Sys_L_Cordr_W" = -10147.59   $ Sizing
 "HtCap_Sys_L_LobWait_C" = -34329.26   $ Sizing
 "HtCap_Sys_L_MechElec_C" = -6810.315   $ Sizing
 "HtCap_Sys_L_OfficeOpn_C" = -81527.83   $ Sizing
 "HtCap_Sys_L_OfficeOpn_E" = -62981.51   $ Sizing
 "HtCap_Sys_L_OfficeOpn_N" = -49982.13   $ Sizing
 "HtCap_Sys_L_OfficeOpn_S" = -63014.23   $ Sizing
 "HtCap_Sys_L_OfficeOpn_W" = -68307.15   $ Sizing
 "HtCap_Sys_L_OfficeSm_C" = -10782.26   $ Sizing
 "HtCap_Sys_L_OfficeSm_E" = -46691.99   $ Sizing
 "HtCap_Sys_L_OfficeSm_N" = -32356.39   $ Sizing
 "HtCap_Sys_L_OfficeSm_S" = -44148.66   $ Sizing
 "HtCap_Sys_L_OfficeSm_W" = -47691.84   $ Sizing
 "HtCap_Sys_L_Restrm_C" = -7765.235   $ Sizing
 "HtCap_Sys_L_StorSm_C" = -19825.67   $ Sizing
 "HtCap_Sys_M_Break_C" = -271806.8   $ Sizing
 "HtCap_Sys_M_Conf_C" = -264937.7   $ Sizing
 "HtCap_Sys_M_CopyRm_C" = -91203.09   $ Sizing
 "HtCap_Sys_M_Cordr_C" = -330347.7   $ Sizing
 "HtCap_Sys_M_Cordr_E" = -88606.73   $ Sizing
 "HtCap_Sys_M_Cordr_N" = -60817.88   $ Sizing
 "HtCap_Sys_M_Cordr_S" = -80914.27   $ Sizing
 "HtCap_Sys_M_Cordr_W" = -84446.24   $ Sizing
 "HtCap_Sys_M_LobWait_C" = -245836.8   $ Sizing
 "HtCap_Sys_M_MechElec_C" = -65186.19   $ Sizing
 "HtCap_Sys_M_OfficeOpn_C" = -669804.6   $ Sizing
 "HtCap_Sys_M_OfficeOpn_E" = -571067.6   $ Sizing
 "HtCap_Sys_M_OfficeOpn_N" = -411182.2   $ Sizing
 "HtCap_Sys_M_OfficeOpn_S" = -533974.4   $ Sizing
 "HtCap_Sys_M_OfficeOpn_W" = -557881.6   $ Sizing
 "HtCap_Sys_M_OfficeSm_C" = -101636.4   $ Sizing
 "HtCap_Sys_M_OfficeSm_E" = -399306.9   $ Sizing
 "HtCap_Sys_M_OfficeSm_N" = -266013.5   $ Sizing
 "HtCap_Sys_M_OfficeSm_S" = -382542.5   $ Sizing
 "HtCap_Sys_M_OfficeSm_W" = -387860.8   $ Sizing
 "HtCap_Sys_M_Restrm_C" = -66887.59   $ Sizing
 "HtCap_Sys_M_StorSm_C" = -166429.9   $ Sizing
 "HtCap_Sys_T_Break_C" = -36869.01   $ Sizing
 "HtCap_Sys_T_Conf_C" = -36186.17   $ Sizing
 "HtCap_Sys_T_CopyRm_C" = -12482.23   $ Sizing
 "HtCap_Sys_T_Cordr_C" = -44286.49   $ Sizing
 "HtCap_Sys_T_Cordr_E" = -11962.11   $ Sizing
 "HtCap_Sys_T_Cordr_N" = -9353.043   $ Sizing
 "HtCap_Sys_T_Cordr_S" = -11816.82   $ Sizing
 "HtCap_Sys_T_Cordr_W" = -12725.07   $ Sizing
 "HtCap_Sys_T_LobWait_C" = -35279.8   $ Sizing
 "HtCap_Sys_T_MechElec_C" = -9389.576   $ Sizing
 "HtCap_Sys_T_OfficeOpn_C" = -95719.45   $ Sizing
 "HtCap_Sys_T_OfficeOpn_E" = -72960.42   $ Sizing
 "HtCap_Sys_T_OfficeOpn_N" = -62211.82   $ Sizing
 "HtCap_Sys_T_OfficeOpn_S" = -76310.9   $ Sizing
 "HtCap_Sys_T_OfficeOpn_W" = -81497.45   $ Sizing
 "HtCap_Sys_T_OfficeSm_C" = -13139.8   $ Sizing
 "HtCap_Sys_T_OfficeSm_E" = -54827.22   $ Sizing
 "HtCap_Sys_T_OfficeSm_N" = -40106.35   $ Sizing
 "HtCap_Sys_T_OfficeSm_S" = -53855.16   $ Sizing
 "HtCap_Sys_T_OfficeSm_W" = -57840.3   $ Sizing
 "HtCap_Sys_T_Restrm_C" = -9043.867   $ Sizing
 "HtCap_Sys_T_StorSm_C" = -18417.44   $ Sizing
..

##include Templates\OfL_DX_SZ.inp
END ..
COMPUTE ..
STOP ..
