INPUT ..

##fileprefix C:\Users\jglasskatz\MASControl3\
##set1 IsSizing FALSE
##set1 CoolType WCH
##set1 HeatType HOT-WATER
##set1 EU_HrRepVar 1
##set1 BldgVint 1996
##set1 BldgLoc CZ01

 ##set1 mChlrCap_fT DEFAULT   $ IP Tech: ChlrScrW-150to299-0.79kWpTon
 ##set1 mChlrEIR_fPLR DEFAULT   $ IP Tech: ChlrScrW-150to299-0.79kWpTon
 ##set1 mChlrEIR_fT DEFAULT   $ IP Tech: ChlrScrW-150to299-0.79kWpTon
 ##set1 mChlrType Screw   $ IP Tech: ChlrScrW-150to299-0.79kWpTon
 ##set1 mCondType Water   $ IP Tech: ChlrScrW-150to299-0.79kWpTon
 ##set1 mSetupLdChlr FALSE   $ IP Tech: ChlrScrW-150to299-0.79kWpTon
 ##set1 mCHW_FlowCtrl Const   $ IP Tech: ChwFlowCtrlCst
 ##set1 mHW_FlowCtrl Const   $ IP Tech: HwFlowCtrlCst
 ##set1 mBlrIsCond FALSE   $ IP Tech: WBlr-300to2500-80p0Ec

PARAMETER
 "AltFactor" = 1.00753   $ IP Non-Tech
 "BldgEconoFlag" = 1   $ IP Non-Tech
 "BlrPrimLp" = BlrPrimLoop   $ IP Non-Tech
 "Break_EWSF" = 1   $ IP Non-Tech
 "Break_LWSF" = 1.1   $ IP Non-Tech
 "CDD_DBHi10" = 65   $ IP Non-Tech
 "CDD_DBHi7" = 68   $ IP Non-Tech
 "CDD_DBHi8" = 66   $ IP Non-Tech
 "CDD_DBHi9" = 77   $ IP Non-Tech
 "CDD_DBRange10" = 17   $ IP Non-Tech
 "CDD_DBRange7" = 11   $ IP Non-Tech
 "CDD_DBRange8" = 10   $ IP Non-Tech
 "CDD_DBRange9" = 29   $ IP Non-Tech
 "CDD_Day10" = 15   $ IP Non-Tech
 "CDD_Day7" = 16   $ IP Non-Tech
 "CDD_Day8" = 20   $ IP Non-Tech
 "CDD_Day9" = 17   $ IP Non-Tech
 "CDD_HrHi10" = 12   $ IP Non-Tech
 "CDD_HrHi7" = 12   $ IP Non-Tech
 "CDD_HrHi8" = 13   $ IP Non-Tech
 "CDD_HrHi9" = 17   $ IP Non-Tech
 "CDD_HrLo10" = 6   $ IP Non-Tech
 "CDD_HrLo7" = 3   $ IP Non-Tech
 "CDD_HrLo8" = 8   $ IP Non-Tech
 "CDD_HrLo9" = 4   $ IP Non-Tech
 "CDD_WB10" = 57.53039551   $ IP Non-Tech
 "CDD_WB7" = 59.29250717   $ IP Non-Tech
 "CDD_WB8" = 60.75350189   $ IP Non-Tech
 "CDD_WB9" = 61.08643341   $ IP Non-Tech
 "CZ_Category" = Tem   $ IP Non-Tech
 "ChwDesignDT" = 12   $ IP Non-Tech
 "ChwPipeHead" = 62   $ IP Non-Tech
 "ChwRetDT" = 0.03   $ IP Non-Tech
 "ChwSupDT" = 0.05   $ IP Non-Tech
 "ChwT" = 44   $ IP Non-Tech
 "ChwVintEconoFlag" = 1   $ IP Non-Tech
 "Conference_EWSF" = 1.05   $ IP Non-Tech
 "Conference_LWSF" = 1.4   $ IP Non-Tech
 "CoolSetT" = 55   $ IP Non-Tech
 "CoolType" = WCH   $ IP Non-Tech
 "CopyRoom_EWSF" = 1.575   $ IP Non-Tech
 "CopyRoom_LWSF" = 1.3   $ IP Non-Tech
 "CorridorStairway_EWSF" = 0.21   $ IP Non-Tech
 "CorridorStairway_LWSF" = 0.6   $ IP Non-Tech
 "CwPipeHead" = 20   $ IP Non-Tech
 "DesCoolT" = 75   $ IP Non-Tech
 "DesHeatT" = 73   $ IP Non-Tech
 "EconoEnthLimit" = 28   $ IP Non-Tech
 "EconoTempLimit" = 70   $ IP Non-Tech
 "Elevation" = 203   $ IP Non-Tech
 "HDD_CloudAmt1" = 0   $ IP Non-Tech
 "HDD_DBHi1" = 53   $ IP Non-Tech
 "HDD_DBRange1" = 20   $ IP Non-Tech
 "HDD_Day1" = 15   $ IP Non-Tech
 "HDD_HrHi1" = 14   $ IP Non-Tech
 "HDD_HrLo1" = 6   $ IP Non-Tech
 "HDD_WB1" = 42.3   $ IP Non-Tech
 "HDD_WindSpd1" = 12.7   $ IP Non-Tech
 "HeatSrc" = HOT-WATER   $ IP Non-Tech
 "HeatSrcTU" = HOT-WATER   $ IP Non-Tech
 "HeatType" = GasBlr   $ IP Non-Tech
 "HeatTypeTU" = HOT-WATER   $ IP Non-Tech
 "HwDesignDT" = 30   $ IP Non-Tech
 "HwPipeHead" = 40   $ IP Non-Tech
 "HwRetDT" = 0.3   $ IP Non-Tech
 "HwSupDT" = 0.5   $ IP Non-Tech
 "IndoorFanMode" = CONTINUOUS   $ IP Non-Tech
 "KT_TransferAir" = No   $ IP Non-Tech
 "Latitude" = 40.8   $ IP Non-Tech
 "LobbyWaiting_EWSF" = 0.5125   $ IP Non-Tech
 "LobbyWaiting_LWSF" = 1.3   $ IP Non-Tech
 "Longitude" = 124.2   $ IP Non-Tech
 "LtgMsrApplic" = ALL   $ Msr TechID: NonResLtgRefMsr-CFL
 "LtgSav_CFL" = 0.3   $ Msr TechID: NonResLtgRefMsr-CFL
 "LtgSav_EX" = 0   $ Msr TechID: NonResLtgRefMsr-CFL
 "LtgSav_HB" = 0   $ Msr TechID: NonResLtgRefMsr-CFL
 "LtgSav_LF" = 0   $ Msr TechID: NonResLtgRefMsr-CFL
 "LtgSav_SP" = 0   $ Msr TechID: NonResLtgRefMsr-CFL
 "MZFanMechEff" = 0.68   $ IP Non-Tech
 "MZHasRetFan" = TRUE   $ IP Non-Tech
 "MZ_RFanWPerCfm" = 0.37   $ IP Non-Tech
 "MZ_SFanWPerCfm" = 0.71   $ IP Non-Tech
 "MaxSupT_MZ" = 95   $ IP Non-Tech
 "MaxSupT_SZ" = 105   $ IP Non-Tech
 "MaxSupT_TU" = 105   $ IP Non-Tech
 "MechElecRoom_EWSF" = 0.21   $ IP Non-Tech
 "MechElecRoom_LWSF" = 0.7   $ IP Non-Tech
 "MinCfmPerSF" = 0.4   $ IP Non-Tech
 "MinSupT" = 55   $ IP Non-Tech
 "OccCoolT" = 76   $ IP Non-Tech
 "OccHeatT" = 72   $ IP Non-Tech
 "OfficeOpen_EWSF" = 1.575   $ IP Non-Tech
 "OfficeOpen_LWSF" = 1.2   $ IP Non-Tech
 "OfficeSmall_EWSF" = 1.575   $ IP Non-Tech
 "OfficeSmall_LWSF" = 1.3   $ IP Non-Tech
 "PkgDxVintEconoFlag" = 0   $ IP Non-Tech
 "ReheatDeltaT" = 39   $ IP Non-Tech
 "Restroom_EWSF" = 0.21   $ IP Non-Tech
 "Restroom_LWSF" = 0.6   $ IP Non-Tech
 "SZFanMechEff" = 0.54   $ IP Non-Tech
 "SZHasRetFan" = TRUE   $ IP Non-Tech
 "SZ_Is_2Spd" = FALSE   $ IP Non-Tech
 "SZ_SFanWPerCfm" = 0.46   $ IP Non-Tech
 "StorageSmlCond_EWSF" = 0.21   $ IP Non-Tech
 "StorageSmlCond_LWSF" = 0.6   $ IP Non-Tech
 "T24GlzTbl" = CZTbl   $ IP Non-Tech
 "TermUnitFanMechEff" = 1   $ IP Non-Tech
 "TermUnitFanMode" = INTERMITTENT   $ IP Non-Tech
 "TermUnitFanWPerCfm" = 0.175   $ IP Non-Tech
 "TwrEIR" = 0.011   $ IP Non-Tech
 "TwrPipeHead" = 10   $ IP Non-Tech
 "TwrSetpt" = 80   $ IP Non-Tech
 "TwrStaticHead" = 15   $ IP Non-Tech
 "UnocCoolT" = 86   $ IP Non-Tech
 "UnocHeatT" = 62   $ IP Non-Tech
 "VAVMinFlow" = 0.3   $ IP Non-Tech
 "WlhpVintEconoFlag" = 0   $ IP Non-Tech
 "EconoCtrl" = OA-TEMP   $ IP Tech: AirEcono-OATemp
 "MaxOAFrac" = 0.85   $ IP Tech: AirEcono-OATemp
 "UseEconoVintApplic" = FALSE   $ IP Tech: AirEcono-OATemp
 "ChlrCapRange" = 150to299   $ IP Tech: ChlrScrW-150to299-0.79kWpTon
 "ChlrEff" = 0.79   $ IP Tech: ChlrScrW-150to299-0.79kWpTon
 "ChlrType" = Screw   $ IP Tech: ChlrScrW-150to299-0.79kWpTon
 "ChlrVSD" = NO   $ IP Tech: ChlrScrW-150to299-0.79kWpTon
 "CmpPerCkt" = NA   $ IP Tech: ChlrScrW-150to299-0.79kWpTon
 "CondRelief" = FALSE   $ IP Tech: ChlrScrW-150to299-0.79kWpTon
 "CondType" = Water   $ IP Tech: ChlrScrW-150to299-0.79kWpTon
 "EffUnits" = kWpTon   $ IP Tech: ChlrScrW-150to299-0.79kWpTon
 "IPLV" = -99   $ IP Tech: ChlrScrW-150to299-0.79kWpTon
 "CHW_FlowCtrl" = Const   $ IP Tech: ChwFlowCtrlCst
 "CHW_HdSensLoc" = AT-COILS   $ IP Tech: ChwFlowCtrlCst
 "CHW_HdSptCtrl" = FIXED   $ IP Tech: ChwFlowCtrlCst
 "CHWP_Encl" = Any   $ IP Tech: ChwPumpMtrEff-HI
 "CHWP_MotClass" = HI-EFF   $ IP Tech: ChwPumpMtrEff-HI
 "CHWP_MotHP" = Any   $ IP Tech: ChwPumpMtrEff-HI
 "CHWP_NEMA_DC" =    $ IP Tech: ChwPumpMtrEff-HI
 "CHWP_RPM" = Any   $ IP Tech: ChwPumpMtrEff-HI
 "CHWP_Volt" =    $ IP Tech: ChwPumpMtrEff-HI
 "CHW_MaxT" = 54   $ IP Tech: ChwTempCtrlReset
 "CHW_TempCtrl" = LOAD-RESET   $ IP Tech: ChwTempCtrlReset
 "DuctDT" = 2   $ IP Tech: ComDuctInsul-2
 "DuctAirLoss" = 0   $ IP Tech: ComDuctLeak-0
 "DuctLossOAFrac" = 0   $ IP Tech: ComDuctLeak-0
 "ComRoofInsCalc" = FromUo   $ IP Tech: ComRoofIns-Hvy-0.06
 "ComRoofInsR" = -999   $ IP Tech: ComRoofIns-Hvy-0.06
 "ComRoofUo" = 0.06   $ IP Tech: ComRoofIns-Hvy-0.06
 "ComEWInsCalc" = FromUo   $ IP Tech: ComWallIns-MFrm-0.13
 "ComEWInsR" = -999   $ IP Tech: ComWallIns-MFrm-0.13
 "ComEWUo" = 0.13   $ IP Tech: ComWallIns-MFrm-0.13
 "CWP_Encl" = Any   $ IP Tech: CwPumpMtrEff-HI
 "CWP_MotClass" = HI-EFF   $ IP Tech: CwPumpMtrEff-HI
 "CWP_MotHP" = Any   $ IP Tech: CwPumpMtrEff-HI
 "CWP_NEMA_DC" = Any   $ IP Tech: CwPumpMtrEff-HI
 "CWP_RPM" = Any   $ IP Tech: CwPumpMtrEff-HI
 "CWP_Volt" = Any   $ IP Tech: CwPumpMtrEff-HI
 "MotorClass" = HI-EFF   $ IP Tech: ExhFanMtr-High
 "HW_FlowCtrl" = Const   $ IP Tech: HwFlowCtrlCst
 "HW_HdSensLoc" = AT-COILS   $ IP Tech: HwFlowCtrlCst
 "HW_HdSptCtrl" = FIXED   $ IP Tech: HwFlowCtrlCst
 "HWP_Encl" = Any   $ IP Tech: HwPumpMtrEff-HI
 "HWP_MotClass" = HI-EFF   $ IP Tech: HwPumpMtrEff-HI
 "HWP_MotHP" = Any   $ IP Tech: HwPumpMtrEff-HI
 "HWP_NEMA_DC" = Any   $ IP Tech: HwPumpMtrEff-HI
 "HWP_RPM" = Any   $ IP Tech: HwPumpMtrEff-HI
 "HWP_Volt" = Any   $ IP Tech: HwPumpMtrEff-HI
 "HWResetOutsideHi" = -1   $ IP Tech: HwTempCtrlFixed
 "HWResetOutsideLo" = -1   $ IP Tech: HwTempCtrlFixed
 "HW_TempCtrl" = FIXED   $ IP Tech: HwTempCtrlFixed
 "ComN_SHGC" = 0.77   $ IP Tech: NResWin-ComN-0.77-0.77
 "ComN_UFactor" = 0.77   $ IP Tech: NResWin-ComN-0.77-0.77
 "ComN_VisTrans" = 0.81   $ IP Tech: NResWin-ComN-0.77-0.77
 "ComN_WinCode" = G2000   $ IP Tech: NResWin-ComN-0.77-0.77
 "ComN_WinFrmFrac" = 0.17   $ IP Tech: NResWin-ComN-0.77-0.77
 "ComN_WinFrmU" = 1   $ IP Tech: NResWin-ComN-0.77-0.77
 "ComO_SHGC" = 0.5   $ IP Tech: NResWin-ComO-0.77-0.5
 "ComO_UFactor" = 0.77   $ IP Tech: NResWin-ComO-0.77-0.5
 "ComO_VisTrans" = 0.77   $ IP Tech: NResWin-ComO-0.77-0.5
 "ComO_WinCode" = G2630   $ IP Tech: NResWin-ComO-0.77-0.5
 "ComO_WinFrmFrac" = 0.17   $ IP Tech: NResWin-ComO-0.77-0.5
 "ComO_WinFrmU" = 1   $ IP Tech: NResWin-ComO-0.77-0.5
 "SATempCtrl" = RESET   $ IP Tech: SATempCtrl-Reset
 "TwrFanCtrl" = TWO-SPEED-FAN   $ IP Tech: TwrFanCtrl-2sp
 "TFan_Encl" = Any   $ IP Tech: TwrFanMtrEff-HI
 "TFan_MotClass" = HI-EFF   $ IP Tech: TwrFanMtrEff-HI
 "TFan_MotHP" = Any   $ IP Tech: TwrFanMtrEff-HI
 "TFan_NEMA_DC" = Any   $ IP Tech: TwrFanMtrEff-HI
 "TFan_RPM" = Any   $ IP Tech: TwrFanMtrEff-HI
 "TFan_Volt" = Any   $ IP Tech: TwrFanMtrEff-HI
 "Twr_TempCtrl" = FIXED   $ IP Tech: TwrTempCtrl-Cst
 "FanEIR_fPLR" = "ForCurve w Inlet Vanes FPLR"   $ IP Tech: VAVCtrl-Inlet-AnyHP
 "Fan_Control" = Inlet   $ IP Tech: VAVCtrl-Inlet-AnyHP
 "Motor_Horsepower" = AnyHP   $ IP Tech: VAVCtrl-Inlet-AnyHP
 "BlrCapRange" = 300to2500   $ IP Tech: WBlr-300to2500-80p0Ec
 "BlrDraftType" = FDr   $ IP Tech: WBlr-300to2500-80p0Ec
 "BlrEff" = 0.8   $ IP Tech: WBlr-300to2500-80p0Ec
 "BlrEffUnits" = Ec   $ IP Tech: WBlr-300to2500-80p0Ec
 "BlrEt" = 0.78   $ IP Tech: WBlr-300to2500-80p0Ec
 "BlrFluid" = Wtr   $ IP Tech: WBlr-300to2500-80p0Ec
 "BlrIsCond" = FALSE   $ IP Tech: WBlr-300to2500-80p0Ec
 "BlrT" = 165   $ IP Tech: WBlr-300to2500-80p0Ec
 "AltAdjFactor" = 1.007532   $ Sizing
 "CAssFlo_L_Break_CZn" = 326.1845   $ Sizing
 "CAssFlo_L_Conf_CZn" = 389.8021   $ Sizing
 "CAssFlo_L_CopyRm_CZn" = 89.0193   $ Sizing
 "CAssFlo_L_Cordr_CZn" = 565.4379   $ Sizing
 "CAssFlo_L_Cordr_EZn" = 230.3124   $ Sizing
 "CAssFlo_L_Cordr_NZn" = 113.9143   $ Sizing
 "CAssFlo_L_Cordr_SZn" = 262.5904   $ Sizing
 "CAssFlo_L_Cordr_WZn" = 229.3167   $ Sizing
 "CAssFlo_L_LobWait_CZn" = 275.5261   $ Sizing
 "CAssFlo_L_MechElec_CZn" = 134.1697   $ Sizing
 "CAssFlo_L_OfficeOpn_CZn" = 1494.756   $ Sizing
 "CAssFlo_L_OfficeOpn_EZn" = 1994.784   $ Sizing
 "CAssFlo_L_OfficeOpn_NZn" = 806.3575   $ Sizing
 "CAssFlo_L_OfficeOpn_SZn" = 2115.517   $ Sizing
 "CAssFlo_L_OfficeOpn_WZn" = 1944.629   $ Sizing
 "CAssFlo_L_OfficeSm_CZn" = 185.6142   $ Sizing
 "CAssFlo_L_OfficeSm_EZn" = 1447.95   $ Sizing
 "CAssFlo_L_OfficeSm_NZn" = 498.4413   $ Sizing
 "CAssFlo_L_OfficeSm_SZn" = 1578.203   $ Sizing
 "CAssFlo_L_OfficeSm_WZn" = 1414.054   $ Sizing
 "CAssFlo_L_Restrm_CZn" = 211.8611   $ Sizing
 "CAssFlo_L_StorSm_CZn" = 334.0894   $ Sizing
 "CAssFlo_M_Break_CZn" = 341.3181   $ Sizing
 "CAssFlo_M_Conf_CZn" = 412.8271   $ Sizing
 "CAssFlo_M_CopyRm_CZn" = 97.61504   $ Sizing
 "CAssFlo_M_Cordr_CZn" = 565.4379   $ Sizing
 "CAssFlo_M_Cordr_EZn" = 273.6385   $ Sizing
 "CAssFlo_M_Cordr_NZn" = 107.4322   $ Sizing
 "CAssFlo_M_Cordr_SZn" = 309.0499   $ Sizing
 "CAssFlo_M_Cordr_WZn" = 263.2697   $ Sizing
 "CAssFlo_M_LobWait_CZn" = 313.5291   $ Sizing
 "CAssFlo_M_MechElec_CZn" = 134.1697   $ Sizing
 "CAssFlo_M_OfficeOpn_CZn" = 1618.672   $ Sizing
 "CAssFlo_M_OfficeOpn_EZn" = 2124.656   $ Sizing
 "CAssFlo_M_OfficeOpn_NZn" = 944.6162   $ Sizing
 "CAssFlo_M_OfficeOpn_SZn" = 2324.978   $ Sizing
 "CAssFlo_M_OfficeOpn_WZn" = 2043.515   $ Sizing
 "CAssFlo_M_OfficeSm_CZn" = 215.053   $ Sizing
 "CAssFlo_M_OfficeSm_EZn" = 1541.935   $ Sizing
 "CAssFlo_M_OfficeSm_NZn" = 599.6598   $ Sizing
 "CAssFlo_M_OfficeSm_SZn" = 1731.071   $ Sizing
 "CAssFlo_M_OfficeSm_WZn" = 1503.447   $ Sizing
 "CAssFlo_M_Restrm_CZn" = 211.8611   $ Sizing
 "CAssFlo_M_StorSm_CZn" = 334.0894   $ Sizing
 "CAssFlo_T_Break_CZn" = 332.7453   $ Sizing
 "CAssFlo_T_Conf_CZn" = 401.0916   $ Sizing
 "CAssFlo_T_CopyRm_CZn" = 95.0364   $ Sizing
 "CAssFlo_T_Cordr_CZn" = 565.4379   $ Sizing
 "CAssFlo_T_Cordr_EZn" = 249.4987   $ Sizing
 "CAssFlo_T_Cordr_NZn" = 99.71735   $ Sizing
 "CAssFlo_T_Cordr_SZn" = 283.9059   $ Sizing
 "CAssFlo_T_Cordr_WZn" = 241.606   $ Sizing
 "CAssFlo_T_LobWait_CZn" = 275.5261   $ Sizing
 "CAssFlo_T_MechElec_CZn" = 134.1697   $ Sizing
 "CAssFlo_T_OfficeOpn_CZn" = 1560.557   $ Sizing
 "CAssFlo_T_OfficeOpn_EZn" = 1986.431   $ Sizing
 "CAssFlo_T_OfficeOpn_NZn" = 914.5323   $ Sizing
 "CAssFlo_T_OfficeOpn_SZn" = 2182.243   $ Sizing
 "CAssFlo_T_OfficeOpn_WZn" = 1919.866   $ Sizing
 "CAssFlo_T_OfficeSm_CZn" = 206.9077   $ Sizing
 "CAssFlo_T_OfficeSm_EZn" = 1474.427   $ Sizing
 "CAssFlo_T_OfficeSm_NZn" = 582.4522   $ Sizing
 "CAssFlo_T_OfficeSm_SZn" = 1651.535   $ Sizing
 "CAssFlo_T_OfficeSm_WZn" = 1442.31   $ Sizing
 "CAssFlo_T_Restrm_CZn" = 211.8611   $ Sizing
 "CAssFlo_T_StorSm_CZn" = 334.0894   $ Sizing
 "CBF_Sys_L" = 0.04480345   $ Sizing
 "CBF_Sys_M" = 0.04477968   $ Sizing
 "CBF_Sys_T" = 0.04292043   $ Sizing
 "CHRtFlo_L_Break_CZn" = 216.6311   $ Sizing
 "CHRtFlo_L_Conf_CZn" = 281.7439   $ Sizing
 "CHRtFlo_L_CopyRm_CZn" = 88.37569   $ Sizing
 "CHRtFlo_L_Cordr_CZn" = 212.0392   $ Sizing
 "CHRtFlo_L_Cordr_EZn" = 90.12275   $ Sizing
 "CHRtFlo_L_Cordr_NZn" = 113.9143   $ Sizing
 "CHRtFlo_L_Cordr_SZn" = 78.77711   $ Sizing
 "CHRtFlo_L_Cordr_WZn" = 87.99631   $ Sizing
 "CHRtFlo_L_LobWait_CZn" = 223.8649   $ Sizing
 "CHRtFlo_L_MechElec_CZn" = 50.31363   $ Sizing
 "CHRtFlo_L_OfficeOpn_CZn" = 448.4268   $ Sizing
 "CHRtFlo_L_OfficeOpn_EZn" = 598.4352   $ Sizing
 "CHRtFlo_L_OfficeOpn_NZn" = 412.4941   $ Sizing
 "CHRtFlo_L_OfficeOpn_SZn" = 634.6551   $ Sizing
 "CHRtFlo_L_OfficeOpn_WZn" = 583.3888   $ Sizing
 "CHRtFlo_L_OfficeSm_CZn" = 55.68425   $ Sizing
 "CHRtFlo_L_OfficeSm_EZn" = 434.385   $ Sizing
 "CHRtFlo_L_OfficeSm_NZn" = 415.633   $ Sizing
 "CHRtFlo_L_OfficeSm_SZn" = 473.4609   $ Sizing
 "CHRtFlo_L_OfficeSm_WZn" = 424.2163   $ Sizing
 "CHRtFlo_L_Restrm_CZn" = 63.55833   $ Sizing
 "CHRtFlo_L_StorSm_CZn" = 125.2835   $ Sizing
 "CHRtFlo_M_Break_CZn" = 216.6311   $ Sizing
 "CHRtFlo_M_Conf_CZn" = 281.7439   $ Sizing
 "CHRtFlo_M_CopyRm_CZn" = 88.37569   $ Sizing
 "CHRtFlo_M_Cordr_CZn" = 212.0392   $ Sizing
 "CHRtFlo_M_Cordr_EZn" = 86.98531   $ Sizing
 "CHRtFlo_M_Cordr_NZn" = 107.4322   $ Sizing
 "CHRtFlo_M_Cordr_SZn" = 92.71498   $ Sizing
 "CHRtFlo_M_Cordr_WZn" = 81.57007   $ Sizing
 "CHRtFlo_M_LobWait_CZn" = 223.8649   $ Sizing
 "CHRtFlo_M_MechElec_CZn" = 50.31363   $ Sizing
 "CHRtFlo_M_OfficeOpn_CZn" = 485.6017   $ Sizing
 "CHRtFlo_M_OfficeOpn_EZn" = 637.3967   $ Sizing
 "CHRtFlo_M_OfficeOpn_NZn" = 388.0855   $ Sizing
 "CHRtFlo_M_OfficeOpn_SZn" = 697.4935   $ Sizing
 "CHRtFlo_M_OfficeOpn_WZn" = 613.0546   $ Sizing
 "CHRtFlo_M_OfficeSm_CZn" = 64.51591   $ Sizing
 "CHRtFlo_M_OfficeSm_EZn" = 462.5804   $ Sizing
 "CHRtFlo_M_OfficeSm_NZn" = 388.9298   $ Sizing
 "CHRtFlo_M_OfficeSm_SZn" = 519.3214   $ Sizing
 "CHRtFlo_M_OfficeSm_WZn" = 451.0341   $ Sizing
 "CHRtFlo_M_Restrm_CZn" = 63.55833   $ Sizing
 "CHRtFlo_M_StorSm_CZn" = 125.2835   $ Sizing
 "CHRtFlo_T_Break_CZn" = 216.6311   $ Sizing
 "CHRtFlo_T_Conf_CZn" = 281.7439   $ Sizing
 "CHRtFlo_T_CopyRm_CZn" = 88.37569   $ Sizing
 "CHRtFlo_T_Cordr_CZn" = 212.0392   $ Sizing
 "CHRtFlo_T_Cordr_EZn" = 77.45318   $ Sizing
 "CHRtFlo_T_Cordr_NZn" = 99.71735   $ Sizing
 "CHRtFlo_T_Cordr_SZn" = 85.17177   $ Sizing
 "CHRtFlo_T_Cordr_WZn" = 72.48181   $ Sizing
 "CHRtFlo_T_LobWait_CZn" = 223.8649   $ Sizing
 "CHRtFlo_T_MechElec_CZn" = 92.64131   $ Sizing
 "CHRtFlo_T_OfficeOpn_CZn" = 468.1673   $ Sizing
 "CHRtFlo_T_OfficeOpn_EZn" = 595.9294   $ Sizing
 "CHRtFlo_T_OfficeOpn_NZn" = 373.7341   $ Sizing
 "CHRtFlo_T_OfficeOpn_SZn" = 654.6729   $ Sizing
 "CHRtFlo_T_OfficeOpn_WZn" = 575.96   $ Sizing
 "CHRtFlo_T_OfficeSm_CZn" = 62.07231   $ Sizing
 "CHRtFlo_T_OfficeSm_EZn" = 442.328   $ Sizing
 "CHRtFlo_T_OfficeSm_NZn" = 384.8657   $ Sizing
 "CHRtFlo_T_OfficeSm_SZn" = 495.4606   $ Sizing
 "CHRtFlo_T_OfficeSm_WZn" = 432.693   $ Sizing
 "CHRtFlo_T_Restrm_CZn" = 63.55833   $ Sizing
 "CHRtFlo_T_StorSm_CZn" = 125.2835   $ Sizing
 "CRtdFlo_Sys_L" = 11753.82   $ Sizing
 "CRtdFlo_Sys_M" = 104950.7   $ Sizing
 "CRtdFlo_Sys_T" = 12794.95   $ Sizing
 "CSupFlo_Sys_L" = 11753.82   $ Sizing
 "CSupFlo_Sys_M" = 104950.7   $ Sizing
 "CSupFlo_Sys_T" = 12794.95   $ Sizing
 "Cap_Boiler1" = -0.8423581   $ Sizing
 "Cap_Boiler2" = -0.8423579   $ Sizing
 "Cap_Chiller1" = 1.813739   $ Sizing
 "Cap_Chiller2" = 1.813739   $ Sizing
 "ClCap_Sys_L" = 309324.4   $ Sizing
 "ClCap_Sys_M" = 2763298   $ Sizing
 "ClCap_Sys_T" = 346368.5   $ Sizing
 "HRtEDB_L_Break_CZn" = 56.53178   $ Sizing
 "HRtEDB_L_Conf_CZn" = 56.53178   $ Sizing
 "HRtEDB_L_CopyRm_CZn" = 54.71121   $ Sizing
 "HRtEDB_L_Cordr_CZn" = 54.71121   $ Sizing
 "HRtEDB_L_Cordr_EZn" = 54.71121   $ Sizing
 "HRtEDB_L_Cordr_NZn" = 54.71121   $ Sizing
 "HRtEDB_L_Cordr_SZn" = 54.95033   $ Sizing
 "HRtEDB_L_Cordr_WZn" = 54.71121   $ Sizing
 "HRtEDB_L_LobWait_CZn" = 54.71121   $ Sizing
 "HRtEDB_L_MechElec_CZn" = 54.71121   $ Sizing
 "HRtEDB_L_OfficeOpn_CZn" = 54.71121   $ Sizing
 "HRtEDB_L_OfficeOpn_EZn" = 56.53178   $ Sizing
 "HRtEDB_L_OfficeOpn_NZn" = 56.53178   $ Sizing
 "HRtEDB_L_OfficeOpn_SZn" = 56.59223   $ Sizing
 "HRtEDB_L_OfficeOpn_WZn" = 56.53178   $ Sizing
 "HRtEDB_L_OfficeSm_CZn" = 56.53178   $ Sizing
 "HRtEDB_L_OfficeSm_EZn" = 56.53178   $ Sizing
 "HRtEDB_L_OfficeSm_NZn" = 56.53178   $ Sizing
 "HRtEDB_L_OfficeSm_SZn" = 56.59223   $ Sizing
 "HRtEDB_L_OfficeSm_WZn" = 56.53178   $ Sizing
 "HRtEDB_L_Restrm_CZn" = 54.71121   $ Sizing
 "HRtEDB_L_StorSm_CZn" = 54.71121   $ Sizing
 "HRtEDB_M_Break_CZn" = 55.50502   $ Sizing
 "HRtEDB_M_Conf_CZn" = 55.50502   $ Sizing
 "HRtEDB_M_CopyRm_CZn" = 55.50502   $ Sizing
 "HRtEDB_M_Cordr_CZn" = 55.50502   $ Sizing
 "HRtEDB_M_Cordr_EZn" = 55.50502   $ Sizing
 "HRtEDB_M_Cordr_NZn" = 55.50502   $ Sizing
 "HRtEDB_M_Cordr_SZn" = 55.50502   $ Sizing
 "HRtEDB_M_Cordr_WZn" = 55.50502   $ Sizing
 "HRtEDB_M_LobWait_CZn" = 55.50502   $ Sizing
 "HRtEDB_M_MechElec_CZn" = 55.50502   $ Sizing
 "HRtEDB_M_OfficeOpn_CZn" = 55.50502   $ Sizing
 "HRtEDB_M_OfficeOpn_EZn" = 56.55451   $ Sizing
 "HRtEDB_M_OfficeOpn_NZn" = 56.55451   $ Sizing
 "HRtEDB_M_OfficeOpn_SZn" = 56.55451   $ Sizing
 "HRtEDB_M_OfficeOpn_WZn" = 56.55451   $ Sizing
 "HRtEDB_M_OfficeSm_CZn" = 55.50502   $ Sizing
 "HRtEDB_M_OfficeSm_EZn" = 56.55451   $ Sizing
 "HRtEDB_M_OfficeSm_NZn" = 56.55451   $ Sizing
 "HRtEDB_M_OfficeSm_SZn" = 55.50502   $ Sizing
 "HRtEDB_M_OfficeSm_WZn" = 56.55451   $ Sizing
 "HRtEDB_M_Restrm_CZn" = 55.50502   $ Sizing
 "HRtEDB_M_StorSm_CZn" = 55.50502   $ Sizing
 "HRtEDB_T_Break_CZn" = 50.60063   $ Sizing
 "HRtEDB_T_Conf_CZn" = 50.60063   $ Sizing
 "HRtEDB_T_CopyRm_CZn" = 50.60063   $ Sizing
 "HRtEDB_T_Cordr_CZn" = 50.60063   $ Sizing
 "HRtEDB_T_Cordr_EZn" = 50.60063   $ Sizing
 "HRtEDB_T_Cordr_NZn" = 50.60063   $ Sizing
 "HRtEDB_T_Cordr_SZn" = 50.60063   $ Sizing
 "HRtEDB_T_Cordr_WZn" = 50.60063   $ Sizing
 "HRtEDB_T_LobWait_CZn" = 50.60063   $ Sizing
 "HRtEDB_T_MechElec_CZn" = 50.60063   $ Sizing
 "HRtEDB_T_OfficeOpn_CZn" = 50.60063   $ Sizing
 "HRtEDB_T_OfficeOpn_EZn" = 50.60063   $ Sizing
 "HRtEDB_T_OfficeOpn_NZn" = 55.72345   $ Sizing
 "HRtEDB_T_OfficeOpn_SZn" = 50.60063   $ Sizing
 "HRtEDB_T_OfficeOpn_WZn" = 50.60063   $ Sizing
 "HRtEDB_T_OfficeSm_CZn" = 50.60063   $ Sizing
 "HRtEDB_T_OfficeSm_EZn" = 50.60063   $ Sizing
 "HRtEDB_T_OfficeSm_NZn" = 55.72345   $ Sizing
 "HRtEDB_T_OfficeSm_SZn" = 50.60063   $ Sizing
 "HRtEDB_T_OfficeSm_WZn" = 50.60063   $ Sizing
 "HRtEDB_T_Restrm_CZn" = 50.60063   $ Sizing
 "HRtEDB_T_StorSm_CZn" = 50.60063   $ Sizing
 "HWDT_Boiler1" = 9.463271   $ Sizing
 "HWDT_Boiler2" = 9.463287   $ Sizing
 "HtCap_L_Break_CZn" = -8978.682   $ Sizing
 "HtCap_L_Conf_CZn" = -11677.4   $ Sizing
 "HtCap_L_CopyRm_CZn" = -3836.477   $ Sizing
 "HtCap_L_Cordr_CZn" = -9204.833   $ Sizing
 "HtCap_L_Cordr_EZn" = -3912.319   $ Sizing
 "HtCap_L_Cordr_NZn" = -4945.132   $ Sizing
 "HtCap_L_Cordr_SZn" = -3400.483   $ Sizing
 "HtCap_L_Cordr_WZn" = -3820.008   $ Sizing
 "HtCap_L_LobWait_CZn" = -9718.199   $ Sizing
 "HtCap_L_MechElec_CZn" = -2184.165   $ Sizing
 "HtCap_L_OfficeOpn_CZn" = -19465.88   $ Sizing
 "HtCap_L_OfficeOpn_EZn" = -24803.27   $ Sizing
 "HtCap_L_OfficeOpn_NZn" = -17096.59   $ Sizing
 "HtCap_L_OfficeOpn_SZn" = -26296.75   $ Sizing
 "HtCap_L_OfficeOpn_WZn" = -24179.64   $ Sizing
 "HtCap_L_OfficeSm_CZn" = -2307.938   $ Sizing
 "HtCap_L_OfficeSm_EZn" = -18003.9   $ Sizing
 "HtCap_L_OfficeSm_NZn" = -17226.69   $ Sizing
 "HtCap_L_OfficeSm_SZn" = -19617.71   $ Sizing
 "HtCap_L_OfficeSm_WZn" = -17582.44   $ Sizing
 "HtCap_L_Restrm_CZn" = -2759.13   $ Sizing
 "HtCap_L_StorSm_CZn" = -5438.682   $ Sizing
 "HtCap_M_Break_CZn" = -9219.247   $ Sizing
 "HtCap_M_Conf_CZn" = -11990.28   $ Sizing
 "HtCap_M_CopyRm_CZn" = -3761.036   $ Sizing
 "HtCap_M_Cordr_CZn" = -9023.828   $ Sizing
 "HtCap_M_Cordr_EZn" = -3701.865   $ Sizing
 "HtCap_M_Cordr_NZn" = -4572.031   $ Sizing
 "HtCap_M_Cordr_SZn" = -3945.705   $ Sizing
 "HtCap_M_Cordr_WZn" = -3471.406   $ Sizing
 "HtCap_M_LobWait_CZn" = -9527.1   $ Sizing
 "HtCap_M_MechElec_CZn" = -2141.215   $ Sizing
 "HtCap_M_OfficeOpn_CZn" = -20665.85   $ Sizing
 "HtCap_M_OfficeOpn_EZn" = -26405.79   $ Sizing
 "HtCap_M_OfficeOpn_NZn" = -16077.43   $ Sizing
 "HtCap_M_OfficeOpn_SZn" = -28895.45   $ Sizing
 "HtCap_M_OfficeOpn_WZn" = -25397.35   $ Sizing
 "HtCap_M_OfficeSm_CZn" = -2745.626   $ Sizing
 "HtCap_M_OfficeSm_EZn" = -19163.58   $ Sizing
 "HtCap_M_OfficeSm_NZn" = -16112.41   $ Sizing
 "HtCap_M_OfficeSm_SZn" = -22100.94   $ Sizing
 "HtCap_M_OfficeSm_WZn" = -18685.24   $ Sizing
 "HtCap_M_Restrm_CZn" = -2704.875   $ Sizing
 "HtCap_M_StorSm_CZn" = -5331.735   $ Sizing
 "HtCap_T_Break_CZn" = -10363.66   $ Sizing
 "HtCap_T_Conf_CZn" = -13478.67   $ Sizing
 "HtCap_T_CopyRm_CZn" = -4227.904   $ Sizing
 "HtCap_T_Cordr_CZn" = -10143.98   $ Sizing
 "HtCap_T_Cordr_EZn" = -3705.37   $ Sizing
 "HtCap_T_Cordr_NZn" = -4770.491   $ Sizing
 "HtCap_T_Cordr_SZn" = -4074.628   $ Sizing
 "HtCap_T_Cordr_WZn" = -3467.539   $ Sizing
 "HtCap_T_LobWait_CZn" = -10709.73   $ Sizing
 "HtCap_T_MechElec_CZn" = -4431.972   $ Sizing
 "HtCap_T_OfficeOpn_CZn" = -22396.23   $ Sizing
 "HtCap_T_OfficeOpn_EZn" = -28509.34   $ Sizing
 "HtCap_T_OfficeOpn_NZn" = -15815.56   $ Sizing
 "HtCap_T_OfficeOpn_SZn" = -31319.63   $ Sizing
 "HtCap_T_OfficeOpn_WZn" = -27554   $ Sizing
 "HtCap_T_OfficeSm_CZn" = -2969.548   $ Sizing
 "HtCap_T_OfficeSm_EZn" = -21161.03   $ Sizing
 "HtCap_T_OfficeSm_NZn" = -16286.63   $ Sizing
 "HtCap_T_OfficeSm_SZn" = -23702.9   $ Sizing
 "HtCap_T_OfficeSm_WZn" = -20700.09   $ Sizing
 "HtCap_T_Restrm_CZn" = -3040.639   $ Sizing
 "HtCap_T_StorSm_CZn" = -5993.579   $ Sizing
 "LpFlo_BlrPrimLoop" = 176.1231   $ Sizing
 "LpFlo_BlrPrimLoop" = 176.1231   $ Sizing
 "LpFlo_ChlrPrimLoop" = 568.7165   $ Sizing
 "LpFlo_ChlrPrimLoop" = 568.7165   $ Sizing
 "LpFlo_CircLp_Chw_L" = 51.45625   $ Sizing
 "LpFlo_CircLp_Chw_L" = 51.45625   $ Sizing
 "LpFlo_CircLp_Chw_M" = 459.6205   $ Sizing
 "LpFlo_CircLp_Chw_M" = 459.6205   $ Sizing
 "LpFlo_CircLp_Chw_T" = 57.63973   $ Sizing
 "LpFlo_CircLp_Chw_T" = 57.63973   $ Sizing
 "LpFlo_CircLp_Hw_L" = 16.91428   $ Sizing
 "LpFlo_CircLp_Hw_L" = 16.91428   $ Sizing
 "LpFlo_CircLp_Hw_M" = 140.1598   $ Sizing
 "LpFlo_CircLp_Hw_M" = 140.1598   $ Sizing
 "LpFlo_CircLp_Hw_T" = 19.04899   $ Sizing
 "LpFlo_CircLp_Hw_T" = 19.04899   $ Sizing
 "RtChwFlo_Chiller1" = 3.552043   $ Sizing
 "RtChwFlo_Chiller2" = 3.996803   $ Sizing
 "RtCndFlo_Chiller1" = 2.666163   $ Sizing
 "RtCndFlo_Chiller2" = 3   $ Sizing
 "RtdEDB_Sys_L" = 72.56255   $ Sizing
 "RtdEDB_Sys_M" = 72.96074   $ Sizing
 "RtdEDB_Sys_T" = 73.54303   $ Sizing
 "RtdEWB_Sys_L" = 61.69442   $ Sizing
 "RtdEWB_Sys_M" = 61.6823   $ Sizing
 "RtdEWB_Sys_T" = 61.91065   $ Sizing
 "SUtime_Boiler1" = 0.083   $ Sizing
 "SUtime_Boiler2" = 0.083   $ Sizing
..

##include Templates\OfL_CH_MZ.inp
END ..
COMPUTE ..
STOP ..
