INPUT ..

##fileprefix C:\Users\jglasskatz\MASControl3\
##set1 IsSizing FALSE
##set1 CoolType DX
##set1 HeatType FURNACE
##set1 EU_HrRepVar 0
##set1 BldgVint 2020
##set1 BldgLoc CZ09

 ##set1 mBFMult 1   $ IP Tech: RefgChg-NRes-Std

PARAMETER
 "AltFactor" = 1.02768   $ IP Non-Tech
 "BF_fFlow" = SpltAC1Sp-ge45_BF_fFlow   $ Msr (Multi)TechID: StdNResSplitAC-45to55
 "BF_fT" = SpltAC1Sp-ge45_BF_fT   $ Msr (Multi)TechID: StdNResSplitAC-45to55
 "BldgEconoFlag" = 1   $ IP Non-Tech
 "Break_EWSF" = 1   $ IP Non-Tech
 "Break_LWSF" = 0.65   $ IP Non-Tech
 "CDD_DBHi10" = 91   $ IP Non-Tech
 "CDD_DBHi7" = 91   $ IP Non-Tech
 "CDD_DBHi8" = 94   $ IP Non-Tech
 "CDD_DBHi9" = 100   $ IP Non-Tech
 "CDD_DBRange10" = 30   $ IP Non-Tech
 "CDD_DBRange7" = 19   $ IP Non-Tech
 "CDD_DBRange8" = 23   $ IP Non-Tech
 "CDD_DBRange9" = 24   $ IP Non-Tech
 "CDD_Day10" = 15   $ IP Non-Tech
 "CDD_Day7" = 16   $ IP Non-Tech
 "CDD_Day8" = 20   $ IP Non-Tech
 "CDD_Day9" = 17   $ IP Non-Tech
 "CDD_HrHi10" = 16   $ IP Non-Tech
 "CDD_HrHi7" = 16   $ IP Non-Tech
 "CDD_HrHi8" = 15   $ IP Non-Tech
 "CDD_HrHi9" = 13   $ IP Non-Tech
 "CDD_HrLo10" = 5   $ IP Non-Tech
 "CDD_HrLo7" = 6   $ IP Non-Tech
 "CDD_HrLo8" = 3   $ IP Non-Tech
 "CDD_HrLo9" = 7   $ IP Non-Tech
 "CDD_WB10" = 61.50949097   $ IP Non-Tech
 "CDD_WB7" = 74.70972443   $ IP Non-Tech
 "CDD_WB8" = 73.69755554   $ IP Non-Tech
 "CDD_WB9" = 73.82730103   $ IP Non-Tech
 "CEIR_fPLR_Hot" = SpltAC1Sp-ge45_CEIR_fPLR_Hot   $ Msr (Multi)TechID: StdNResSplitAC-45to55
 "CEIR_fPLR_Mod" = SpltAC1Sp-ge45_CEIR_fPLR_Mod   $ Msr (Multi)TechID: StdNResSplitAC-45to55
 "CEIR_fPLR_Tem" = SpltAC1Sp-ge45_CEIR_fPLR_Tem   $ Msr (Multi)TechID: StdNResSplitAC-45to55
 "CLoss_fPLR_Hot" = SpltAC1Sp-ge45_CLoss_fPLR_Hot   $ Msr (Multi)TechID: StdNResSplitAC-45to55
 "CLoss_fPLR_Mod" = SpltAC1Sp-ge45_CLoss_fPLR_Mod   $ Msr (Multi)TechID: StdNResSplitAC-45to55
 "CLoss_fPLR_Tem" = SpltAC1Sp-ge45_CLoss_fPLR_Tem   $ Msr (Multi)TechID: StdNResSplitAC-45to55
 "COP47" = 0   $ Msr (Multi)TechID: StdNResSplitAC-45to55
 "CZ_Category" = Mod   $ IP Non-Tech
 "CapRange" = ge45   $ Msr (Multi)TechID: StdNResSplitAC-45to55
 "CfmPerBtuh" = 0.03263   $ Msr (Multi)TechID: StdNResSplitAC-45to55
 "ChwVintEconoFlag" = 1   $ IP Non-Tech
 "ClCap_fT" = SpltAC1Sp-ge45_ClCap_fT   $ Msr (Multi)TechID: StdNResSplitAC-45to55
 "ClSH_fT" = SpltAC1Sp-ge45_ClSH_fT   $ Msr (Multi)TechID: StdNResSplitAC-45to55
 "CoilBF" = 0.106518182   $ Msr (Multi)TechID: StdNResSplitAC-45to55
 "CondWPerBtuh" = 0   $ Msr (Multi)TechID: StdNResSplitAC-45to55
 "Conference_EWSF" = 1   $ IP Non-Tech
 "Conference_LWSF" = 0.85   $ IP Non-Tech
 "CoolSensCap" = 0.759218182   $ Msr (Multi)TechID: StdNResSplitAC-45to55
 "CoolSetT" = 45   $ IP Non-Tech
 "CoolType" = DX   $ IP Non-Tech
 "CoolingEIR" = 0.2466   $ Msr (Multi)TechID: StdNResSplitAC-45to55
 "CopyRoom_EWSF" = 1.5   $ IP Non-Tech
 "CopyRoom_LWSF" = 0.5   $ IP Non-Tech
 "CorridorStairway_EWSF" = 0.2   $ IP Non-Tech
 "CorridorStairway_LWSF" = 0.55   $ IP Non-Tech
 "CrnkEIR" = 0.002466   $ Msr (Multi)TechID: StdNResSplitAC-45to55
 "CrnkMaxT" = 50   $ Msr (Multi)TechID: StdNResSplitAC-45to55
 "DXType" = SplitSEER   $ Msr (Multi)TechID: StdNResSplitAC-45to55
 "DesCoolT" = 75   $ IP Non-Tech
 "DesHeatT" = 73   $ IP Non-Tech
 "EER" = 11.81793103   $ Msr (Multi)TechID: StdNResSplitAC-45to55
 "EIR_fT" = SpltAC1Sp-ge45_EIR_fT   $ Msr (Multi)TechID: StdNResSplitAC-45to55
 "EconoCtrl" = FIXED   $ Msr (Multi)TechID: StdNResSplitAC-45to55
 "EconoEnthLimit" = 28   $ IP Non-Tech
 "EconoTempLimit" = 71   $ IP Non-Tech
 "Elevation" = 741   $ IP Non-Tech
 "FanEirPlr" = TwoSpeedFan   $ Msr (Multi)TechID: StdNResSplitAC-45to55
 "FanWPerCfm" = 0.294   $ Msr (Multi)TechID: StdNResSplitAC-45to55
 "HDD_CloudAmt1" = 0   $ IP Non-Tech
 "HDD_DBHi1" = 55   $ IP Non-Tech
 "HDD_DBRange1" = 18   $ IP Non-Tech
 "HDD_Day1" = 15   $ IP Non-Tech
 "HDD_HrHi1" = 15   $ IP Non-Tech
 "HDD_HrLo1" = 5   $ IP Non-Tech
 "HDD_WB1" = 48.4   $ IP Non-Tech
 "HDD_WindSpd1" = 10.4   $ IP Non-Tech
 "HIR_fT" = 0   $ Msr (Multi)TechID: StdNResSplitAC-45to55
 "HSPF" = 0   $ Msr (Multi)TechID: StdNResSplitAC-45to55
 "HeatSrc" = FURNACE   $ IP Non-Tech
 "HeatSrcTU" = HEAT-PUMP   $ IP Non-Tech
 "HeatType" = GasFurn   $ IP Non-Tech
 "HeatTypeTU" = HEAT-PUMP   $ IP Non-Tech
 "HtCap_fT" = 0   $ Msr (Multi)TechID: StdNResSplitAC-45to55
 "HtCoolCapRatio" = 0   $ Msr (Multi)TechID: StdNResSplitAC-45to55
 "HtgEIR" = 0   $ Msr (Multi)TechID: StdNResSplitAC-45to55
 "IndoorFanMode" = CONTINUOUS   $ IP Non-Tech
 "KT_TransferAir" = Yes   $ IP Non-Tech
 "Latitude" = 34.1   $ IP Non-Tech
 "LobbyWaiting_EWSF" = 0.5   $ IP Non-Tech
 "LobbyWaiting_LWSF" = 0.75   $ IP Non-Tech
 "Longitude" = 117.8   $ IP Non-Tech
 "LowSpdCapRatio" = 1   $ Msr (Multi)TechID: StdNResSplitAC-45to55
 "LowSpdCfmRatio" = 1   $ Msr (Multi)TechID: StdNResSplitAC-45to55
 "MZFanMechEff" = 0.58   $ IP Non-Tech
 "MZHasRetFan" = FALSE   $ IP Non-Tech
 "MZ_RFanWPerCfm" = 0.37   $ IP Non-Tech
 "MZ_SFanWPerCfm" = 0.71   $ IP Non-Tech
 "MZ_SupFanStatic" = 2.25   $ IP Non-Tech
 "MaxOAFrac" = 1   $ Msr (Multi)TechID: StdNResSplitAC-45to55
 "MaxSupT_MZ" = 100   $ IP Non-Tech
 "MaxSupT_SZ" = 100   $ IP Non-Tech
 "MaxSupT_TU" = 90   $ IP Non-Tech
 "MechElecRoom_EWSF" = 0.2   $ IP Non-Tech
 "MechElecRoom_LWSF" = 0.4   $ IP Non-Tech
 "MinCfmPerSF" = 0.4   $ IP Non-Tech
 "MinSupT" = 55   $ IP Non-Tech
 "NumStages" = 1   $ Msr (Multi)TechID: StdNResSplitAC-45to55
 "OccCoolT" = 76   $ IP Non-Tech
 "OccHeatT" = 72   $ IP Non-Tech
 "OfficeOpen_EWSF" = 1.5   $ IP Non-Tech
 "OfficeOpen_LWSF" = 0.8   $ IP Non-Tech
 "OfficeSmall_EWSF" = 1.5   $ IP Non-Tech
 "OfficeSmall_LWSF" = 0.9   $ IP Non-Tech
 "PkgDxVintEconoFlag" = 1   $ IP Non-Tech
 "Restroom_EWSF" = 0.2   $ IP Non-Tech
 "Restroom_LWSF" = 0.65   $ IP Non-Tech
 "SEER" = 14   $ Msr (Multi)TechID: StdNResSplitAC-45to55
 "SZFanMechEff" = 0.58   $ IP Non-Tech
 "SZHasRetFan" = FALSE   $ IP Non-Tech
 "SZ_Is_2Spd" = TRUE   $ IP Non-Tech
 "SZ_SFanWPerCfm" = 0.46   $ IP Non-Tech
 "SZ_SupFanStatic" = 0.75   $ IP Non-Tech
 "Sector" = Any   $ Msr (Multi)TechID: StdNResSplitAC-45to55
 "StorageSmlCond_EWSF" = 0.2   $ IP Non-Tech
 "StorageSmlCond_LWSF" = 0.45   $ IP Non-Tech
 "SubType" = AC   $ Msr (Multi)TechID: StdNResSplitAC-45to55
 "TermUnitFanMechEff" = 1   $ IP Non-Tech
 "TermUnitFanMode" = INTERMITTENT   $ IP Non-Tech
 "TotCoolCap" = 52519.36364   $ Msr (Multi)TechID: StdNResSplitAC-45to55
 "TwrSetpt" = 86.9   $ IP Non-Tech
 "UnocCoolT" = 86   $ IP Non-Tech
 "UnocHeatT" = 62   $ IP Non-Tech
 "UseEconoVintApplic" = FALSE   $ Msr (Multi)TechID: StdNResSplitAC-45to55
 "WlhpVintEconoFlag" = 1   $ IP Non-Tech
 "DuctDT" = 1   $ IP Tech: ComDuctInsul-1
 "DuctAirLoss" = 0   $ IP Tech: ComDuctLeak-0
 "DuctLossOAFrac" = 0   $ IP Tech: ComDuctLeak-0
 "ComRoofInsCalc" = FromUo   $ IP Tech: ComRoofIns-Hvy-0.03
 "ComRoofInsR" = -999   $ IP Tech: ComRoofIns-Hvy-0.03
 "ComRoofUo" = 0.03   $ IP Tech: ComRoofIns-Hvy-0.03
 "ComEWInsCalc" = FromUo   $ IP Tech: ComWallIns-MFrm-0.06
 "ComEWInsR" = -999   $ IP Tech: ComWallIns-MFrm-0.06
 "ComEWUo" = 0.06   $ IP Tech: ComWallIns-MFrm-0.06
 "ComN_SHGC" = 0.26   $ IP Tech: NResWin-ComN-0.41-0.26
 "ComN_UFactor" = 0.41   $ IP Tech: NResWin-ComN-0.41-0.26
 "ComN_VisTrans" = 0.41   $ IP Tech: NResWin-ComN-0.41-0.26
 "ComN_WinCode" = G2666   $ IP Tech: NResWin-ComN-0.41-0.26
 "ComN_WinFrmFrac" = 0.17   $ IP Tech: NResWin-ComN-0.41-0.26
 "ComN_WinFrmU" = 0.3   $ IP Tech: NResWin-ComN-0.41-0.26
 "ComO_SHGC" = 0.26   $ IP Tech: NResWin-ComO-0.41-0.26
 "ComO_UFactor" = 0.41   $ IP Tech: NResWin-ComO-0.41-0.26
 "ComO_VisTrans" = 0.41   $ IP Tech: NResWin-ComO-0.41-0.26
 "ComO_WinCode" = G2666   $ IP Tech: NResWin-ComO-0.41-0.26
 "ComO_WinFrmFrac" = 0.17   $ IP Tech: NResWin-ComO-0.41-0.26
 "ComO_WinFrmU" = 0.3   $ IP Tech: NResWin-ComO-0.41-0.26
 "LtgMsrApplic" = ALL   $ IP Tech: NonResLtgRefPre
 "LtgSav_CFL" = 0   $ IP Tech: NonResLtgRefPre
 "LtgSav_EX" = 0   $ IP Tech: NonResLtgRefPre
 "LtgSav_HB" = 0   $ IP Tech: NonResLtgRefPre
 "LtgSav_LF" = 0   $ IP Tech: NonResLtgRefPre
 "LtgSav_SP" = 0   $ IP Tech: NonResLtgRefPre
 "CEIR_fPLR" = PSZ65to135_CEIR_fPLR   $ IP Tech: PkgAC2SpP-65to135-E11
 "CLoss_fPLR" = PSZ65to135_CLoss_fPLR   $ IP Tech: PkgAC2SpP-65to135-E11
 "COP" = -1   $ IP Tech: PkgAC2SpP-65to135-E11
 "HtgFuel" = Gas   $ IP Tech: PkgAC2SpP-65to135-E11
 "IEER" = 13.35   $ IP Tech: PkgAC2SpP-65to135-E11
 "NominalCap" = 15   $ IP Tech: PkgAC2SpP-65to135-E11
 "RatedEER" = 11   $ IP Tech: PkgAC2SpP-65to135-E11
 "RatedSupMtrClass" = Premium   $ IP Tech: PkgAC2SpP-65to135-E11
 "SizeRange" = 65to135   $ IP Tech: PkgAC2SpP-65to135-E11
 "SupMotEff" = 0.865   $ IP Tech: PkgAC2SpP-65to135-E11
 "Tier" = 0   $ IP Tech: PkgAC2SpP-65to135-E11
 "FanPwrMult" = 1   $ IP Tech: PkgFurn-0.80AFUE
 "FurnAFUE" = 0.8   $ IP Tech: PkgFurn-0.80AFUE
 "FurnEt" = 0.82   $ IP Tech: PkgFurn-0.80AFUE
 "FurnaceAuxKW" = 0.1   $ IP Tech: PkgFurn-0.80AFUE
 "HIR_fPLR" = Furnace-HIR-fPLR   $ IP Tech: PkgFurn-0.80AFUE
 "VSM" = FALSE   $ IP Tech: PkgFurn-0.80AFUE
 "BFMult" = 1   $ IP Tech: RefgChg-NRes-Std
 "CoolEirMult" = 1   $ IP Tech: RefgChg-NRes-Std
 "SensCoolCapMult" = 1   $ IP Tech: RefgChg-NRes-Std
 "TotCoolCapMult" = 1   $ IP Tech: RefgChg-NRes-Std
 "AltAdjFactor" = 1.027678   $ Sizing
 "CAssFlo_L_Break_CZn" = 573.2748   $ Sizing
 "CAssFlo_L_Conf_CZn" = 557.2867   $ Sizing
 "CAssFlo_L_CopyRm_CZn" = 169.815   $ Sizing
 "CAssFlo_L_Cordr_CZn" = 666.3783   $ Sizing
 "CAssFlo_L_Cordr_EZn" = 231.3375   $ Sizing
 "CAssFlo_L_Cordr_NZn" = 151.6465   $ Sizing
 "CAssFlo_L_Cordr_SZn" = 240.5966   $ Sizing
 "CAssFlo_L_Cordr_WZn" = 263.6566   $ Sizing
 "CAssFlo_L_LobWait_CZn" = 530.5093   $ Sizing
 "CAssFlo_L_MechElec_CZn" = 130.3597   $ Sizing
 "CAssFlo_L_OfficeOpn_CZn" = 1819.046   $ Sizing
 "CAssFlo_L_OfficeOpn_EZn" = 1591.745   $ Sizing
 "CAssFlo_L_OfficeOpn_NZn" = 1130.744   $ Sizing
 "CAssFlo_L_OfficeOpn_SZn" = 1641.614   $ Sizing
 "CAssFlo_L_OfficeOpn_WZn" = 1854.405   $ Sizing
 "CAssFlo_L_OfficeSm_CZn" = 246.1467   $ Sizing
 "CAssFlo_L_OfficeSm_EZn" = 1126.741   $ Sizing
 "CAssFlo_L_OfficeSm_NZn" = 732.557   $ Sizing
 "CAssFlo_L_OfficeSm_SZn" = 1154.33   $ Sizing
 "CAssFlo_L_OfficeSm_WZn" = 1306.865   $ Sizing
 "CAssFlo_L_Restrm_CZn" = 98.75047   $ Sizing
 "CAssFlo_L_StorSm_CZn" = 427.7384   $ Sizing
 "CAssFlo_M_Break_CZn" = 578.6529   $ Sizing
 "CAssFlo_M_Conf_CZn" = 555.1827   $ Sizing
 "CAssFlo_M_CopyRm_CZn" = 161.9739   $ Sizing
 "CAssFlo_M_Cordr_CZn" = 927.589   $ Sizing
 "CAssFlo_M_Cordr_EZn" = 264.8637   $ Sizing
 "CAssFlo_M_Cordr_NZn" = 170.5435   $ Sizing
 "CAssFlo_M_Cordr_SZn" = 263.9141   $ Sizing
 "CAssFlo_M_Cordr_WZn" = 279.5359   $ Sizing
 "CAssFlo_M_LobWait_CZn" = 550.543   $ Sizing
 "CAssFlo_M_MechElec_CZn" = 165.9075   $ Sizing
 "CAssFlo_M_OfficeOpn_CZn" = 2044.729   $ Sizing
 "CAssFlo_M_OfficeOpn_EZn" = 1709.679   $ Sizing
 "CAssFlo_M_OfficeOpn_NZn" = 1186.19   $ Sizing
 "CAssFlo_M_OfficeOpn_SZn" = 1736.228   $ Sizing
 "CAssFlo_M_OfficeOpn_WZn" = 1905.399   $ Sizing
 "CAssFlo_M_OfficeSm_CZn" = 296.8553   $ Sizing
 "CAssFlo_M_OfficeSm_EZn" = 1195.558   $ Sizing
 "CAssFlo_M_OfficeSm_NZn" = 761.9168   $ Sizing
 "CAssFlo_M_OfficeSm_SZn" = 1210.72   $ Sizing
 "CAssFlo_M_OfficeSm_WZn" = 1333.86   $ Sizing
 "CAssFlo_M_Restrm_CZn" = 122.1339   $ Sizing
 "CAssFlo_M_StorSm_CZn" = 433.8488   $ Sizing
 "CAssFlo_T_Break_CZn" = 566.0635   $ Sizing
 "CAssFlo_T_Conf_CZn" = 547.9437   $ Sizing
 "CAssFlo_T_CopyRm_CZn" = 161.512   $ Sizing
 "CAssFlo_T_Cordr_CZn" = 855.5023   $ Sizing
 "CAssFlo_T_Cordr_EZn" = 252.7532   $ Sizing
 "CAssFlo_T_Cordr_NZn" = 168.9859   $ Sizing
 "CAssFlo_T_Cordr_SZn" = 262.8379   $ Sizing
 "CAssFlo_T_Cordr_WZn" = 274.9439   $ Sizing
 "CAssFlo_T_LobWait_CZn" = 547.7866   $ Sizing
 "CAssFlo_T_MechElec_CZn" = 174.6997   $ Sizing
 "CAssFlo_T_OfficeOpn_CZn" = 1833.431   $ Sizing
 "CAssFlo_T_OfficeOpn_EZn" = 1667.56   $ Sizing
 "CAssFlo_T_OfficeOpn_NZn" = 1182.009   $ Sizing
 "CAssFlo_T_OfficeOpn_SZn" = 1749.897   $ Sizing
 "CAssFlo_T_OfficeOpn_WZn" = 1882.022   $ Sizing
 "CAssFlo_T_OfficeSm_CZn" = 291.0036   $ Sizing
 "CAssFlo_T_OfficeSm_EZn" = 1193.899   $ Sizing
 "CAssFlo_T_OfficeSm_NZn" = 767.6254   $ Sizing
 "CAssFlo_T_OfficeSm_SZn" = 1234.89   $ Sizing
 "CAssFlo_T_OfficeSm_WZn" = 1337.459   $ Sizing
 "CAssFlo_T_Restrm_CZn" = 130.7471   $ Sizing
 "CAssFlo_T_StorSm_CZn" = 277.2414   $ Sizing
 "CHRtFlo_Sys_L_Break_C" = 573.2748   $ Sizing
 "CHRtFlo_Sys_L_Conf_C" = 557.2867   $ Sizing
 "CHRtFlo_Sys_L_CopyRm_C" = 169.815   $ Sizing
 "CHRtFlo_Sys_L_Cordr_C" = 666.3783   $ Sizing
 "CHRtFlo_Sys_L_Cordr_E" = 251.8345   $ Sizing
 "CHRtFlo_Sys_L_Cordr_N" = 151.6465   $ Sizing
 "CHRtFlo_Sys_L_Cordr_S" = 243.5767   $ Sizing
 "CHRtFlo_Sys_L_Cordr_W" = 263.6566   $ Sizing
 "CHRtFlo_Sys_L_LobWait_C" = 530.5093   $ Sizing
 "CHRtFlo_Sys_L_MechElec_C" = 136.8525   $ Sizing
 "CHRtFlo_Sys_L_OfficeOpn_C" = 1819.046   $ Sizing
 "CHRtFlo_Sys_L_OfficeOpn_E" = 1782.437   $ Sizing
 "CHRtFlo_Sys_L_OfficeOpn_N" = 1130.744   $ Sizing
 "CHRtFlo_Sys_L_OfficeOpn_S" = 1740.283   $ Sizing
 "CHRtFlo_Sys_L_OfficeOpn_W" = 1854.405   $ Sizing
 "CHRtFlo_Sys_L_OfficeSm_C" = 259.8739   $ Sizing
 "CHRtFlo_Sys_L_OfficeSm_E" = 1298.412   $ Sizing
 "CHRtFlo_Sys_L_OfficeSm_N" = 732.557   $ Sizing
 "CHRtFlo_Sys_L_OfficeSm_S" = 1279.291   $ Sizing
 "CHRtFlo_Sys_L_OfficeSm_W" = 1341.793   $ Sizing
 "CHRtFlo_Sys_L_Restrm_C" = 216.0974   $ Sizing
 "CHRtFlo_Sys_L_StorSm_C" = 427.7384   $ Sizing
 "CHRtFlo_Sys_M_Break_C" = 4629.223   $ Sizing
 "CHRtFlo_Sys_M_Conf_C" = 4441.462   $ Sizing
 "CHRtFlo_Sys_M_CopyRm_C" = 1295.791   $ Sizing
 "CHRtFlo_Sys_M_Cordr_C" = 7975.895   $ Sizing
 "CHRtFlo_Sys_M_Cordr_E" = 2377.176   $ Sizing
 "CHRtFlo_Sys_M_Cordr_N" = 1385.605   $ Sizing
 "CHRtFlo_Sys_M_Cordr_S" = 2224.358   $ Sizing
 "CHRtFlo_Sys_M_Cordr_W" = 2236.287   $ Sizing
 "CHRtFlo_Sys_M_LobWait_C" = 4404.344   $ Sizing
 "CHRtFlo_Sys_M_MechElec_C" = 1353.146   $ Sizing
 "CHRtFlo_Sys_M_OfficeOpn_C" = 16951.29   $ Sizing
 "CHRtFlo_Sys_M_OfficeOpn_E" = 15566.09   $ Sizing
 "CHRtFlo_Sys_M_OfficeOpn_N" = 9489.522   $ Sizing
 "CHRtFlo_Sys_M_OfficeOpn_S" = 15001.02   $ Sizing
 "CHRtFlo_Sys_M_OfficeOpn_W" = 15296.83   $ Sizing
 "CHRtFlo_Sys_M_OfficeSm_C" = 2645.61   $ Sizing
 "CHRtFlo_Sys_M_OfficeSm_E" = 11179.77   $ Sizing
 "CHRtFlo_Sys_M_OfficeSm_N" = 6095.334   $ Sizing
 "CHRtFlo_Sys_M_OfficeSm_S" = 10879.4   $ Sizing
 "CHRtFlo_Sys_M_OfficeSm_W" = 11021.63   $ Sizing
 "CHRtFlo_Sys_M_Restrm_C" = 1728.779   $ Sizing
 "CHRtFlo_Sys_M_StorSm_C" = 3470.79   $ Sizing
 "CHRtFlo_Sys_T_Break_C" = 566.0635   $ Sizing
 "CHRtFlo_Sys_T_Conf_C" = 547.9437   $ Sizing
 "CHRtFlo_Sys_T_CopyRm_C" = 161.512   $ Sizing
 "CHRtFlo_Sys_T_Cordr_C" = 855.5024   $ Sizing
 "CHRtFlo_Sys_T_Cordr_E" = 261.7244   $ Sizing
 "CHRtFlo_Sys_T_Cordr_N" = 168.9859   $ Sizing
 "CHRtFlo_Sys_T_Cordr_S" = 262.8379   $ Sizing
 "CHRtFlo_Sys_T_Cordr_W" = 274.9439   $ Sizing
 "CHRtFlo_Sys_T_LobWait_C" = 547.7866   $ Sizing
 "CHRtFlo_Sys_T_MechElec_C" = 183.7365   $ Sizing
 "CHRtFlo_Sys_T_OfficeOpn_C" = 1833.431   $ Sizing
 "CHRtFlo_Sys_T_OfficeOpn_E" = 1769.251   $ Sizing
 "CHRtFlo_Sys_T_OfficeOpn_N" = 1182.009   $ Sizing
 "CHRtFlo_Sys_T_OfficeOpn_S" = 1754.471   $ Sizing
 "CHRtFlo_Sys_T_OfficeOpn_W" = 1882.022   $ Sizing
 "CHRtFlo_Sys_T_OfficeSm_C" = 291.6757   $ Sizing
 "CHRtFlo_Sys_T_OfficeSm_E" = 1307.531   $ Sizing
 "CHRtFlo_Sys_T_OfficeSm_N" = 767.6254   $ Sizing
 "CHRtFlo_Sys_T_OfficeSm_S" = 1299.392   $ Sizing
 "CHRtFlo_Sys_T_OfficeSm_W" = 1337.459   $ Sizing
 "CHRtFlo_Sys_T_Restrm_C" = 216.0974   $ Sizing
 "CHRtFlo_Sys_T_StorSm_C" = 340.7697   $ Sizing
 "CRtdFlo_Sys_L_Break_C" = 573.2748   $ Sizing
 "CRtdFlo_Sys_L_Conf_C" = 557.2867   $ Sizing
 "CRtdFlo_Sys_L_CopyRm_C" = 169.815   $ Sizing
 "CRtdFlo_Sys_L_Cordr_C" = 666.3783   $ Sizing
 "CRtdFlo_Sys_L_Cordr_E" = 231.3375   $ Sizing
 "CRtdFlo_Sys_L_Cordr_N" = 151.6465   $ Sizing
 "CRtdFlo_Sys_L_Cordr_S" = 240.5966   $ Sizing
 "CRtdFlo_Sys_L_Cordr_W" = 263.6566   $ Sizing
 "CRtdFlo_Sys_L_LobWait_C" = 530.5093   $ Sizing
 "CRtdFlo_Sys_L_MechElec_C" = 130.3597   $ Sizing
 "CRtdFlo_Sys_L_OfficeOpn_C" = 1819.046   $ Sizing
 "CRtdFlo_Sys_L_OfficeOpn_E" = 1591.745   $ Sizing
 "CRtdFlo_Sys_L_OfficeOpn_N" = 1130.744   $ Sizing
 "CRtdFlo_Sys_L_OfficeOpn_S" = 1641.614   $ Sizing
 "CRtdFlo_Sys_L_OfficeOpn_W" = 1854.405   $ Sizing
 "CRtdFlo_Sys_L_OfficeSm_C" = 246.1467   $ Sizing
 "CRtdFlo_Sys_L_OfficeSm_E" = 1126.741   $ Sizing
 "CRtdFlo_Sys_L_OfficeSm_N" = 732.557   $ Sizing
 "CRtdFlo_Sys_L_OfficeSm_S" = 1154.33   $ Sizing
 "CRtdFlo_Sys_L_OfficeSm_W" = 1306.865   $ Sizing
 "CRtdFlo_Sys_L_Restrm_C" = 98.75047   $ Sizing
 "CRtdFlo_Sys_L_StorSm_C" = 427.7384   $ Sizing
 "CRtdFlo_Sys_M_Break_C" = 4629.223   $ Sizing
 "CRtdFlo_Sys_M_Conf_C" = 4441.462   $ Sizing
 "CRtdFlo_Sys_M_CopyRm_C" = 1295.791   $ Sizing
 "CRtdFlo_Sys_M_Cordr_C" = 7420.712   $ Sizing
 "CRtdFlo_Sys_M_Cordr_E" = 2118.91   $ Sizing
 "CRtdFlo_Sys_M_Cordr_N" = 1364.349   $ Sizing
 "CRtdFlo_Sys_M_Cordr_S" = 2111.313   $ Sizing
 "CRtdFlo_Sys_M_Cordr_W" = 2236.287   $ Sizing
 "CRtdFlo_Sys_M_LobWait_C" = 4404.344   $ Sizing
 "CRtdFlo_Sys_M_MechElec_C" = 1327.26   $ Sizing
 "CRtdFlo_Sys_M_OfficeOpn_C" = 16357.83   $ Sizing
 "CRtdFlo_Sys_M_OfficeOpn_E" = 13677.43   $ Sizing
 "CRtdFlo_Sys_M_OfficeOpn_N" = 9489.522   $ Sizing
 "CRtdFlo_Sys_M_OfficeOpn_S" = 13889.83   $ Sizing
 "CRtdFlo_Sys_M_OfficeOpn_W" = 15243.2   $ Sizing
 "CRtdFlo_Sys_M_OfficeSm_C" = 2374.843   $ Sizing
 "CRtdFlo_Sys_M_OfficeSm_E" = 9564.464   $ Sizing
 "CRtdFlo_Sys_M_OfficeSm_N" = 6095.334   $ Sizing
 "CRtdFlo_Sys_M_OfficeSm_S" = 9685.759   $ Sizing
 "CRtdFlo_Sys_M_OfficeSm_W" = 10670.88   $ Sizing
 "CRtdFlo_Sys_M_Restrm_C" = 977.0709   $ Sizing
 "CRtdFlo_Sys_M_StorSm_C" = 3470.79   $ Sizing
 "CRtdFlo_Sys_T_Break_C" = 566.0635   $ Sizing
 "CRtdFlo_Sys_T_Conf_C" = 547.9437   $ Sizing
 "CRtdFlo_Sys_T_CopyRm_C" = 161.512   $ Sizing
 "CRtdFlo_Sys_T_Cordr_C" = 855.5024   $ Sizing
 "CRtdFlo_Sys_T_Cordr_E" = 252.7532   $ Sizing
 "CRtdFlo_Sys_T_Cordr_N" = 168.9859   $ Sizing
 "CRtdFlo_Sys_T_Cordr_S" = 262.8379   $ Sizing
 "CRtdFlo_Sys_T_Cordr_W" = 274.9439   $ Sizing
 "CRtdFlo_Sys_T_LobWait_C" = 547.7866   $ Sizing
 "CRtdFlo_Sys_T_MechElec_C" = 174.6997   $ Sizing
 "CRtdFlo_Sys_T_OfficeOpn_C" = 1833.431   $ Sizing
 "CRtdFlo_Sys_T_OfficeOpn_E" = 1667.56   $ Sizing
 "CRtdFlo_Sys_T_OfficeOpn_N" = 1182.009   $ Sizing
 "CRtdFlo_Sys_T_OfficeOpn_S" = 1749.897   $ Sizing
 "CRtdFlo_Sys_T_OfficeOpn_W" = 1882.022   $ Sizing
 "CRtdFlo_Sys_T_OfficeSm_C" = 291.0036   $ Sizing
 "CRtdFlo_Sys_T_OfficeSm_E" = 1193.899   $ Sizing
 "CRtdFlo_Sys_T_OfficeSm_N" = 767.6254   $ Sizing
 "CRtdFlo_Sys_T_OfficeSm_S" = 1234.89   $ Sizing
 "CRtdFlo_Sys_T_OfficeSm_W" = 1337.459   $ Sizing
 "CRtdFlo_Sys_T_Restrm_C" = 130.7471   $ Sizing
 "CRtdFlo_Sys_T_StorSm_C" = 277.2414   $ Sizing
 "CSupFlo_Sys_L_Break_C" = 573.2748   $ Sizing
 "CSupFlo_Sys_L_Conf_C" = 557.2867   $ Sizing
 "CSupFlo_Sys_L_CopyRm_C" = 169.815   $ Sizing
 "CSupFlo_Sys_L_Cordr_C" = 666.3783   $ Sizing
 "CSupFlo_Sys_L_Cordr_E" = 231.3375   $ Sizing
 "CSupFlo_Sys_L_Cordr_N" = 151.6465   $ Sizing
 "CSupFlo_Sys_L_Cordr_S" = 240.5966   $ Sizing
 "CSupFlo_Sys_L_Cordr_W" = 263.6566   $ Sizing
 "CSupFlo_Sys_L_LobWait_C" = 530.5093   $ Sizing
 "CSupFlo_Sys_L_MechElec_C" = 130.3597   $ Sizing
 "CSupFlo_Sys_L_OfficeOpn_C" = 1819.046   $ Sizing
 "CSupFlo_Sys_L_OfficeOpn_E" = 1591.745   $ Sizing
 "CSupFlo_Sys_L_OfficeOpn_N" = 1130.744   $ Sizing
 "CSupFlo_Sys_L_OfficeOpn_S" = 1641.614   $ Sizing
 "CSupFlo_Sys_L_OfficeOpn_W" = 1854.405   $ Sizing
 "CSupFlo_Sys_L_OfficeSm_C" = 246.1467   $ Sizing
 "CSupFlo_Sys_L_OfficeSm_E" = 1126.741   $ Sizing
 "CSupFlo_Sys_L_OfficeSm_N" = 732.557   $ Sizing
 "CSupFlo_Sys_L_OfficeSm_S" = 1154.33   $ Sizing
 "CSupFlo_Sys_L_OfficeSm_W" = 1306.865   $ Sizing
 "CSupFlo_Sys_L_Restrm_C" = 98.75047   $ Sizing
 "CSupFlo_Sys_L_StorSm_C" = 427.7384   $ Sizing
 "CSupFlo_Sys_M_Break_C" = 4629.223   $ Sizing
 "CSupFlo_Sys_M_Conf_C" = 4441.462   $ Sizing
 "CSupFlo_Sys_M_CopyRm_C" = 1295.791   $ Sizing
 "CSupFlo_Sys_M_Cordr_C" = 7420.712   $ Sizing
 "CSupFlo_Sys_M_Cordr_E" = 2118.91   $ Sizing
 "CSupFlo_Sys_M_Cordr_N" = 1364.349   $ Sizing
 "CSupFlo_Sys_M_Cordr_S" = 2111.313   $ Sizing
 "CSupFlo_Sys_M_Cordr_W" = 2236.287   $ Sizing
 "CSupFlo_Sys_M_LobWait_C" = 4404.344   $ Sizing
 "CSupFlo_Sys_M_MechElec_C" = 1327.26   $ Sizing
 "CSupFlo_Sys_M_OfficeOpn_C" = 16357.83   $ Sizing
 "CSupFlo_Sys_M_OfficeOpn_E" = 13677.43   $ Sizing
 "CSupFlo_Sys_M_OfficeOpn_N" = 9489.522   $ Sizing
 "CSupFlo_Sys_M_OfficeOpn_S" = 13889.83   $ Sizing
 "CSupFlo_Sys_M_OfficeOpn_W" = 15243.2   $ Sizing
 "CSupFlo_Sys_M_OfficeSm_C" = 2374.843   $ Sizing
 "CSupFlo_Sys_M_OfficeSm_E" = 9564.464   $ Sizing
 "CSupFlo_Sys_M_OfficeSm_N" = 6095.334   $ Sizing
 "CSupFlo_Sys_M_OfficeSm_S" = 9685.759   $ Sizing
 "CSupFlo_Sys_M_OfficeSm_W" = 10670.88   $ Sizing
 "CSupFlo_Sys_M_Restrm_C" = 977.0709   $ Sizing
 "CSupFlo_Sys_M_StorSm_C" = 3470.79   $ Sizing
 "CSupFlo_Sys_T_Break_C" = 566.0635   $ Sizing
 "CSupFlo_Sys_T_Conf_C" = 547.9437   $ Sizing
 "CSupFlo_Sys_T_CopyRm_C" = 161.512   $ Sizing
 "CSupFlo_Sys_T_Cordr_C" = 855.5024   $ Sizing
 "CSupFlo_Sys_T_Cordr_E" = 252.7532   $ Sizing
 "CSupFlo_Sys_T_Cordr_N" = 168.9859   $ Sizing
 "CSupFlo_Sys_T_Cordr_S" = 262.8379   $ Sizing
 "CSupFlo_Sys_T_Cordr_W" = 274.9439   $ Sizing
 "CSupFlo_Sys_T_LobWait_C" = 547.7866   $ Sizing
 "CSupFlo_Sys_T_MechElec_C" = 174.6997   $ Sizing
 "CSupFlo_Sys_T_OfficeOpn_C" = 1833.431   $ Sizing
 "CSupFlo_Sys_T_OfficeOpn_E" = 1667.56   $ Sizing
 "CSupFlo_Sys_T_OfficeOpn_N" = 1182.009   $ Sizing
 "CSupFlo_Sys_T_OfficeOpn_S" = 1749.897   $ Sizing
 "CSupFlo_Sys_T_OfficeOpn_W" = 1882.022   $ Sizing
 "CSupFlo_Sys_T_OfficeSm_C" = 291.0036   $ Sizing
 "CSupFlo_Sys_T_OfficeSm_E" = 1193.899   $ Sizing
 "CSupFlo_Sys_T_OfficeSm_N" = 767.6254   $ Sizing
 "CSupFlo_Sys_T_OfficeSm_S" = 1234.89   $ Sizing
 "CSupFlo_Sys_T_OfficeSm_W" = 1337.459   $ Sizing
 "CSupFlo_Sys_T_Restrm_C" = 130.7471   $ Sizing
 "CSupFlo_Sys_T_StorSm_C" = 277.2414   $ Sizing
 "ClCap_Sys_L_Break_C" = 19125.76   $ Sizing
 "ClCap_Sys_L_Conf_C" = 23663.01   $ Sizing
 "ClCap_Sys_L_CopyRm_C" = 5665.418   $ Sizing
 "ClCap_Sys_L_Cordr_C" = 22231.91   $ Sizing
 "ClCap_Sys_L_Cordr_E" = 7717.951   $ Sizing
 "ClCap_Sys_L_Cordr_N" = 5059.276   $ Sizing
 "ClCap_Sys_L_Cordr_S" = 8026.857   $ Sizing
 "ClCap_Sys_L_Cordr_W" = 8796.188   $ Sizing
 "ClCap_Sys_L_LobWait_C" = 17699.01   $ Sizing
 "ClCap_Sys_L_MechElec_C" = 4349.098   $ Sizing
 "ClCap_Sys_L_OfficeOpn_C" = 60687.54   $ Sizing
 "ClCap_Sys_L_OfficeOpn_E" = 53104.26   $ Sizing
 "ClCap_Sys_L_OfficeOpn_N" = 37724.22   $ Sizing
 "ClCap_Sys_L_OfficeOpn_S" = 54768.01   $ Sizing
 "ClCap_Sys_L_OfficeOpn_W" = 61867.21   $ Sizing
 "ClCap_Sys_L_OfficeSm_C" = 8212.019   $ Sizing
 "ClCap_Sys_L_OfficeSm_E" = 37590.67   $ Sizing
 "ClCap_Sys_L_OfficeSm_N" = 24439.79   $ Sizing
 "ClCap_Sys_L_OfficeSm_S" = 38511.11   $ Sizing
 "ClCap_Sys_L_OfficeSm_W" = 43600.01   $ Sizing
 "ClCap_Sys_L_Restrm_C" = 3294.543   $ Sizing
 "ClCap_Sys_L_StorSm_C" = 14270.33   $ Sizing
 "ClCap_Sys_M_Break_C" = 154441.5   $ Sizing
 "ClCap_Sys_M_Conf_C" = 188589.4   $ Sizing
 "ClCap_Sys_M_CopyRm_C" = 43230.57   $ Sizing
 "ClCap_Sys_M_Cordr_C" = 247572   $ Sizing
 "ClCap_Sys_M_Cordr_E" = 70691.7   $ Sizing
 "ClCap_Sys_M_Cordr_N" = 45517.8   $ Sizing
 "ClCap_Sys_M_Cordr_S" = 70438.23   $ Sizing
 "ClCap_Sys_M_Cordr_W" = 74607.68   $ Sizing
 "ClCap_Sys_M_LobWait_C" = 146939   $ Sizing
 "ClCap_Sys_M_MechElec_C" = 44280.45   $ Sizing
 "ClCap_Sys_M_OfficeOpn_C" = 545734.8   $ Sizing
 "ClCap_Sys_M_OfficeOpn_E" = 456310.5   $ Sizing
 "ClCap_Sys_M_OfficeOpn_N" = 316592.3   $ Sizing
 "ClCap_Sys_M_OfficeOpn_S" = 463396.5   $ Sizing
 "ClCap_Sys_M_OfficeOpn_W" = 508548   $ Sizing
 "ClCap_Sys_M_OfficeSm_C" = 79230.2   $ Sizing
 "ClCap_Sys_M_OfficeSm_E" = 319092.5   $ Sizing
 "ClCap_Sys_M_OfficeSm_N" = 203354.4   $ Sizing
 "ClCap_Sys_M_OfficeSm_S" = 323139.2   $ Sizing
 "ClCap_Sys_M_OfficeSm_W" = 356005.1   $ Sizing
 "ClCap_Sys_M_Restrm_C" = 32597.33   $ Sizing
 "ClCap_Sys_M_StorSm_C" = 115793.5   $ Sizing
 "ClCap_Sys_T_Break_C" = 18885.18   $ Sizing
 "ClCap_Sys_T_Conf_C" = 23266.3   $ Sizing
 "ClCap_Sys_T_CopyRm_C" = 5388.412   $ Sizing
 "ClCap_Sys_T_Cordr_C" = 28541.53   $ Sizing
 "ClCap_Sys_T_Cordr_E" = 8432.429   $ Sizing
 "ClCap_Sys_T_Cordr_N" = 5637.757   $ Sizing
 "ClCap_Sys_T_Cordr_S" = 8768.876   $ Sizing
 "ClCap_Sys_T_Cordr_W" = 9172.762   $ Sizing
 "ClCap_Sys_T_LobWait_C" = 18275.42   $ Sizing
 "ClCap_Sys_T_MechElec_C" = 5828.384   $ Sizing
 "ClCap_Sys_T_OfficeOpn_C" = 61167.48   $ Sizing
 "ClCap_Sys_T_OfficeOpn_E" = 55633.63   $ Sizing
 "ClCap_Sys_T_OfficeOpn_N" = 39434.52   $ Sizing
 "ClCap_Sys_T_OfficeOpn_S" = 58380.57   $ Sizing
 "ClCap_Sys_T_OfficeOpn_W" = 62788.57   $ Sizing
 "ClCap_Sys_T_OfficeSm_C" = 9708.549   $ Sizing
 "ClCap_Sys_T_OfficeSm_E" = 39831.21   $ Sizing
 "ClCap_Sys_T_OfficeSm_N" = 25609.75   $ Sizing
 "ClCap_Sys_T_OfficeSm_S" = 41198.77   $ Sizing
 "ClCap_Sys_T_OfficeSm_W" = 44620.7   $ Sizing
 "ClCap_Sys_T_Restrm_C" = 4362.024   $ Sizing
 "ClCap_Sys_T_StorSm_C" = 9249.41   $ Sizing
 "HtCap_Sys_L_Break_C" = -29981.89   $ Sizing
 "HtCap_Sys_L_Conf_C" = -30132.69   $ Sizing
 "HtCap_Sys_L_CopyRm_C" = -10240.26   $ Sizing
 "HtCap_Sys_L_Cordr_C" = -27762.33   $ Sizing
 "HtCap_Sys_L_Cordr_E" = -8537.913   $ Sizing
 "HtCap_Sys_L_Cordr_N" = -6086.387   $ Sizing
 "HtCap_Sys_L_Cordr_S" = -8289.722   $ Sizing
 "HtCap_Sys_L_Cordr_W" = -8939.317   $ Sizing
 "HtCap_Sys_L_LobWait_C" = -28029.98   $ Sizing
 "HtCap_Sys_L_MechElec_C" = -5912.881   $ Sizing
 "HtCap_Sys_L_OfficeOpn_C" = -87050.88   $ Sizing
 "HtCap_Sys_L_OfficeOpn_E" = -57771.74   $ Sizing
 "HtCap_Sys_L_OfficeOpn_N" = -40811.83   $ Sizing
 "HtCap_Sys_L_OfficeOpn_S" = -56463.4   $ Sizing
 "HtCap_Sys_L_OfficeOpn_W" = -59774.45   $ Sizing
 "HtCap_Sys_L_OfficeSm_C" = -9591.389   $ Sizing
 "HtCap_Sys_L_OfficeSm_E" = -40656.78   $ Sizing
 "HtCap_Sys_L_OfficeSm_N" = -26446.11   $ Sizing
 "HtCap_Sys_L_OfficeSm_S" = -41078.14   $ Sizing
 "HtCap_Sys_L_OfficeSm_W" = -43090.57   $ Sizing
 "HtCap_Sys_L_Restrm_C" = -7804.84   $ Sizing
 "HtCap_Sys_L_StorSm_C" = -17488.2   $ Sizing
 "HtCap_Sys_M_Break_C" = -229053.4   $ Sizing
 "HtCap_Sys_M_Conf_C" = -223447.8   $ Sizing
 "HtCap_Sys_M_CopyRm_C" = -68462.39   $ Sizing
 "HtCap_Sys_M_Cordr_C" = -292605.8   $ Sizing
 "HtCap_Sys_M_Cordr_E" = -78459.74   $ Sizing
 "HtCap_Sys_M_Cordr_N" = -50739.23   $ Sizing
 "HtCap_Sys_M_Cordr_S" = -73809.91   $ Sizing
 "HtCap_Sys_M_Cordr_W" = -74617.77   $ Sizing
 "HtCap_Sys_M_LobWait_C" = -200702.7   $ Sizing
 "HtCap_Sys_M_MechElec_C" = -54470.84   $ Sizing
 "HtCap_Sys_M_OfficeOpn_C" = -806253.7   $ Sizing
 "HtCap_Sys_M_OfficeOpn_E" = -497131.7   $ Sizing
 "HtCap_Sys_M_OfficeOpn_N" = -334727.9   $ Sizing
 "HtCap_Sys_M_OfficeOpn_S" = -480078.1   $ Sizing
 "HtCap_Sys_M_OfficeOpn_W" = -489444.6   $ Sizing
 "HtCap_Sys_M_OfficeSm_C" = -92470.63   $ Sizing
 "HtCap_Sys_M_OfficeSm_E" = -348540.1   $ Sizing
 "HtCap_Sys_M_OfficeSm_N" = -215223   $ Sizing
 "HtCap_Sys_M_OfficeSm_S" = -345497.8   $ Sizing
 "HtCap_Sys_M_OfficeSm_W" = -351616.5   $ Sizing
 "HtCap_Sys_M_Restrm_C" = -67242.63   $ Sizing
 "HtCap_Sys_M_StorSm_C" = -138667.9   $ Sizing
 "HtCap_Sys_T_Break_C" = -29887.92   $ Sizing
 "HtCap_Sys_T_Conf_C" = -29251.18   $ Sizing
 "HtCap_Sys_T_CopyRm_C" = -9384.872   $ Sizing
 "HtCap_Sys_T_Cordr_C" = -34368.98   $ Sizing
 "HtCap_Sys_T_Cordr_E" = -9490.456   $ Sizing
 "HtCap_Sys_T_Cordr_N" = -6896.572   $ Sizing
 "HtCap_Sys_T_Cordr_S" = -9360.721   $ Sizing
 "HtCap_Sys_T_Cordr_W" = -10075.98   $ Sizing
 "HtCap_Sys_T_LobWait_C" = -27432   $ Sizing
 "HtCap_Sys_T_MechElec_C" = -7214.328   $ Sizing
 "HtCap_Sys_T_OfficeOpn_C" = -86940.01   $ Sizing
 "HtCap_Sys_T_OfficeOpn_E" = -61424.66   $ Sizing
 "HtCap_Sys_T_OfficeOpn_N" = -45917.76   $ Sizing
 "HtCap_Sys_T_OfficeOpn_S" = -60005.36   $ Sizing
 "HtCap_Sys_T_OfficeOpn_W" = -65245.71   $ Sizing
 "HtCap_Sys_T_OfficeSm_C" = -11204.24   $ Sizing
 "HtCap_Sys_T_OfficeSm_E" = -44215.42   $ Sizing
 "HtCap_Sys_T_OfficeSm_N" = -29618.69   $ Sizing
 "HtCap_Sys_T_OfficeSm_S" = -44861.52   $ Sizing
 "HtCap_Sys_T_OfficeSm_W" = -46354.19   $ Sizing
 "HtCap_Sys_T_Restrm_C" = -8136.707   $ Sizing
 "HtCap_Sys_T_StorSm_C" = -15539.97   $ Sizing
..

##include Templates\OfL_DX_SZ.inp
END ..
COMPUTE ..
STOP ..
