INPUT ..

##fileprefix C:\Users\jglasskatz\MASControl3\
##set1 IsSizing FALSE
##set1 CoolType None
##set1 HeatType ELECTRIC
##set1 EU_HrRepVar 1
##set1 BldgVint 1985
##set1 BldgLoc CZ01


PARAMETER
 "AltFactor" = 1.00753   $ IP Non-Tech
 "BldgEconoFlag" = 1   $ IP Non-Tech
 "Break_EWSF" = 1   $ IP Non-Tech
 "Break_LWSF" = 1.1   $ IP Non-Tech
 "CDD_DBHi10" = 65   $ IP Non-Tech
 "CDD_DBHi7" = 68   $ IP Non-Tech
 "CDD_DBHi8" = 66   $ IP Non-Tech
 "CDD_DBHi9" = 77   $ IP Non-Tech
 "CDD_DBRange10" = 17   $ IP Non-Tech
 "CDD_DBRange7" = 11   $ IP Non-Tech
 "CDD_DBRange8" = 10   $ IP Non-Tech
 "CDD_DBRange9" = 29   $ IP Non-Tech
 "CDD_Day10" = 15   $ IP Non-Tech
 "CDD_Day7" = 16   $ IP Non-Tech
 "CDD_Day8" = 20   $ IP Non-Tech
 "CDD_Day9" = 17   $ IP Non-Tech
 "CDD_HrHi10" = 12   $ IP Non-Tech
 "CDD_HrHi7" = 12   $ IP Non-Tech
 "CDD_HrHi8" = 13   $ IP Non-Tech
 "CDD_HrHi9" = 17   $ IP Non-Tech
 "CDD_HrLo10" = 6   $ IP Non-Tech
 "CDD_HrLo7" = 3   $ IP Non-Tech
 "CDD_HrLo8" = 8   $ IP Non-Tech
 "CDD_HrLo9" = 4   $ IP Non-Tech
 "CDD_WB10" = 57.53039551   $ IP Non-Tech
 "CDD_WB7" = 59.29250717   $ IP Non-Tech
 "CDD_WB8" = 60.75350189   $ IP Non-Tech
 "CDD_WB9" = 61.08643341   $ IP Non-Tech
 "CZ_Category" = Tem   $ IP Non-Tech
 "ChwVintEconoFlag" = 1   $ IP Non-Tech
 "Conference_EWSF" = 1.1   $ IP Non-Tech
 "Conference_LWSF" = 1.4   $ IP Non-Tech
 "CoolSetT" = 45   $ IP Non-Tech
 "CoolType" = None   $ IP Non-Tech
 "CopyRoom_EWSF" = 1.65   $ IP Non-Tech
 "CopyRoom_LWSF" = 1.3   $ IP Non-Tech
 "CorridorStairway_EWSF" = 0.22   $ IP Non-Tech
 "CorridorStairway_LWSF" = 0.6   $ IP Non-Tech
 "DesCoolT" = 75   $ IP Non-Tech
 "DesHeatT" = 73   $ IP Non-Tech
 "EconoEnthLimit" = 28   $ IP Non-Tech
 "EconoTempLimit" = 70   $ IP Non-Tech
 "Elevation" = 203   $ IP Non-Tech
 "HDD_CloudAmt1" = 0   $ IP Non-Tech
 "HDD_DBHi1" = 53   $ IP Non-Tech
 "HDD_DBRange1" = 20   $ IP Non-Tech
 "HDD_Day1" = 15   $ IP Non-Tech
 "HDD_HrHi1" = 14   $ IP Non-Tech
 "HDD_HrLo1" = 6   $ IP Non-Tech
 "HDD_WB1" = 42.3   $ IP Non-Tech
 "HDD_WindSpd1" = 12.7   $ IP Non-Tech
 "HeatSrc" = ELECTRIC   $ IP Non-Tech
 "HeatSrcTU" = ELECTRIC   $ IP Non-Tech
 "HeatType" = Elec   $ IP Non-Tech
 "HeatTypeTU" = ELECTRIC   $ IP Non-Tech
 "IndoorFanMode" = CONTINUOUS   $ IP Non-Tech
 "KT_TransferAir" = No   $ IP Non-Tech
 "Latitude" = 40.8   $ IP Non-Tech
 "LobbyWaiting_EWSF" = 0.525   $ IP Non-Tech
 "LobbyWaiting_LWSF" = 1.3   $ IP Non-Tech
 "Longitude" = 124.2   $ IP Non-Tech
 "LtgMsrApplic" = ALL   $ Msr TechID: NonResLtgRefMsr-CFL
 "LtgSav_CFL" = 0.3   $ Msr TechID: NonResLtgRefMsr-CFL
 "LtgSav_EX" = 0   $ Msr TechID: NonResLtgRefMsr-CFL
 "LtgSav_HB" = 0   $ Msr TechID: NonResLtgRefMsr-CFL
 "LtgSav_LF" = 0   $ Msr TechID: NonResLtgRefMsr-CFL
 "LtgSav_SP" = 0   $ Msr TechID: NonResLtgRefMsr-CFL
 "MZFanMechEff" = 1   $ IP Non-Tech
 "MZHasRetFan" = FALSE   $ IP Non-Tech
 "MZ_RFanWPerCfm" = 0.37   $ IP Non-Tech
 "MZ_SFanWPerCfm" = 0.71   $ IP Non-Tech
 "MaxSupT_MZ" = 100   $ IP Non-Tech
 "MaxSupT_SZ" = 100   $ IP Non-Tech
 "MaxSupT_TU" = 100   $ IP Non-Tech
 "MechElecRoom_EWSF" = 0.22   $ IP Non-Tech
 "MechElecRoom_LWSF" = 0.7   $ IP Non-Tech
 "MinCfmPerSF" = 0.4   $ IP Non-Tech
 "MinSupT" = 55   $ IP Non-Tech
 "OccCoolT" = 76   $ IP Non-Tech
 "OccHeatT" = 72   $ IP Non-Tech
 "OfficeOpen_EWSF" = 1.65   $ IP Non-Tech
 "OfficeOpen_LWSF" = 1.2   $ IP Non-Tech
 "OfficeSmall_EWSF" = 1.65   $ IP Non-Tech
 "OfficeSmall_LWSF" = 1.3   $ IP Non-Tech
 "PkgDxVintEconoFlag" = 0   $ IP Non-Tech
 "Restroom_EWSF" = 0.22   $ IP Non-Tech
 "Restroom_LWSF" = 0.6   $ IP Non-Tech
 "SZFanMechEff" = 1   $ IP Non-Tech
 "SZHasRetFan" = FALSE   $ IP Non-Tech
 "SZ_Is_2Spd" = FALSE   $ IP Non-Tech
 "SZ_SFanWPerCfm" = 0.46   $ IP Non-Tech
 "StorageSmlCond_EWSF" = 0.22   $ IP Non-Tech
 "StorageSmlCond_LWSF" = 0.6   $ IP Non-Tech
 "T24GlzTbl" = CZTbl   $ IP Non-Tech
 "TermUnitFanMechEff" = 1   $ IP Non-Tech
 "TermUnitFanMode" = INTERMITTENT   $ IP Non-Tech
 "TwrSetpt" = 80   $ IP Non-Tech
 "UnocCoolT" = 86   $ IP Non-Tech
 "UnocHeatT" = 62   $ IP Non-Tech
 "WlhpVintEconoFlag" = 0   $ IP Non-Tech
 "EconoCtrl" = OA-TEMP   $ IP Tech: AirEcono-OATemp
 "MaxOAFrac" = 0.85   $ IP Tech: AirEcono-OATemp
 "UseEconoVintApplic" = FALSE   $ IP Tech: AirEcono-OATemp
 "DuctDT" = 1   $ IP Tech: ComDuctInsul-1
 "DuctAirLoss" = 0   $ IP Tech: ComDuctLeak-0
 "DuctLossOAFrac" = 0   $ IP Tech: ComDuctLeak-0
 "ComRoofInsCalc" = FromUo   $ IP Tech: ComRoofIns-Hvy-0.06
 "ComRoofInsR" = -999   $ IP Tech: ComRoofIns-Hvy-0.06
 "ComRoofUo" = 0.06   $ IP Tech: ComRoofIns-Hvy-0.06
 "ComEWInsCalc" = FromUo   $ IP Tech: ComWallIns-MFrm-0.14
 "ComEWInsR" = -999   $ IP Tech: ComWallIns-MFrm-0.14
 "ComEWUo" = 0.14   $ IP Tech: ComWallIns-MFrm-0.14
 "ComN_SHGC" = 0.82   $ IP Tech: NResWin-ComN-1.23-0.82
 "ComN_UFactor" = 1.23   $ IP Tech: NResWin-ComN-1.23-0.82
 "ComN_VisTrans" = 0.9   $ IP Tech: NResWin-ComN-1.23-0.82
 "ComN_WinCode" = G1000   $ IP Tech: NResWin-ComN-1.23-0.82
 "ComN_WinFrmFrac" = 0.17   $ IP Tech: NResWin-ComN-1.23-0.82
 "ComN_WinFrmU" = 1   $ IP Tech: NResWin-ComN-1.23-0.82
 "ComO_SHGC" = 0.82   $ IP Tech: NResWin-ComO-1.23-0.82
 "ComO_UFactor" = 1.23   $ IP Tech: NResWin-ComO-1.23-0.82
 "ComO_VisTrans" = 0.9   $ IP Tech: NResWin-ComO-1.23-0.82
 "ComO_WinCode" = G1000   $ IP Tech: NResWin-ComO-1.23-0.82
 "ComO_WinFrmFrac" = 0.17   $ IP Tech: NResWin-ComO-1.23-0.82
 "ComO_WinFrmU" = 1   $ IP Tech: NResWin-ComO-1.23-0.82
 "AltAdjFactor" = 1.007532   $ Sizing
 "CAssFlo_L_Break_CZn" = 216.6311   $ Sizing
 "CAssFlo_L_Conf_CZn" = 281.7439   $ Sizing
 "CAssFlo_L_CopyRm_CZn" = 88.37569   $ Sizing
 "CAssFlo_L_Cordr_CZn" = 565.4379   $ Sizing
 "CAssFlo_L_Cordr_EZn" = 94.24052   $ Sizing
 "CAssFlo_L_Cordr_NZn" = 113.8156   $ Sizing
 "CAssFlo_L_Cordr_SZn" = 94.24052   $ Sizing
 "CAssFlo_L_Cordr_WZn" = 94.24052   $ Sizing
 "CAssFlo_L_LobWait_CZn" = 275.5261   $ Sizing
 "CAssFlo_L_MechElec_CZn" = 134.1697   $ Sizing
 "CAssFlo_L_OfficeOpn_CZn" = 1103.538   $ Sizing
 "CAssFlo_L_OfficeOpn_EZn" = 535.5477   $ Sizing
 "CAssFlo_L_OfficeOpn_NZn" = 535.5477   $ Sizing
 "CAssFlo_L_OfficeOpn_SZn" = 535.5477   $ Sizing
 "CAssFlo_L_OfficeOpn_WZn" = 535.5477   $ Sizing
 "CAssFlo_L_OfficeSm_CZn" = 143.945   $ Sizing
 "CAssFlo_L_OfficeSm_EZn" = 380.0438   $ Sizing
 "CAssFlo_L_OfficeSm_NZn" = 414.4532   $ Sizing
 "CAssFlo_L_OfficeSm_SZn" = 323.8893   $ Sizing
 "CAssFlo_L_OfficeSm_WZn" = 360.8654   $ Sizing
 "CAssFlo_L_Restrm_CZn" = 211.8611   $ Sizing
 "CAssFlo_L_StorSm_CZn" = 334.0894   $ Sizing
 "CAssFlo_M_Break_CZn" = 216.6311   $ Sizing
 "CAssFlo_M_Conf_CZn" = 281.7439   $ Sizing
 "CAssFlo_M_CopyRm_CZn" = 88.37569   $ Sizing
 "CAssFlo_M_Cordr_CZn" = 565.4379   $ Sizing
 "CAssFlo_M_Cordr_EZn" = 100.8367   $ Sizing
 "CAssFlo_M_Cordr_NZn" = 121.1063   $ Sizing
 "CAssFlo_M_Cordr_SZn" = 94.24052   $ Sizing
 "CAssFlo_M_Cordr_WZn" = 94.24052   $ Sizing
 "CAssFlo_M_LobWait_CZn" = 275.5261   $ Sizing
 "CAssFlo_M_MechElec_CZn" = 134.1697   $ Sizing
 "CAssFlo_M_OfficeOpn_CZn" = 1103.538   $ Sizing
 "CAssFlo_M_OfficeOpn_EZn" = 535.5477   $ Sizing
 "CAssFlo_M_OfficeOpn_NZn" = 535.5477   $ Sizing
 "CAssFlo_M_OfficeOpn_SZn" = 535.5477   $ Sizing
 "CAssFlo_M_OfficeOpn_WZn" = 535.5477   $ Sizing
 "CAssFlo_M_OfficeSm_CZn" = 143.945   $ Sizing
 "CAssFlo_M_OfficeSm_EZn" = 429.7372   $ Sizing
 "CAssFlo_M_OfficeSm_NZn" = 452.0175   $ Sizing
 "CAssFlo_M_OfficeSm_SZn" = 323.8893   $ Sizing
 "CAssFlo_M_OfficeSm_WZn" = 389.1818   $ Sizing
 "CAssFlo_M_Restrm_CZn" = 211.8611   $ Sizing
 "CAssFlo_M_StorSm_CZn" = 334.0894   $ Sizing
 "CAssFlo_T_Break_CZn" = 216.6311   $ Sizing
 "CAssFlo_T_Conf_CZn" = 281.7439   $ Sizing
 "CAssFlo_T_CopyRm_CZn" = 88.37569   $ Sizing
 "CAssFlo_T_Cordr_CZn" = 565.4379   $ Sizing
 "CAssFlo_T_Cordr_EZn" = 94.24052   $ Sizing
 "CAssFlo_T_Cordr_NZn" = 105.5852   $ Sizing
 "CAssFlo_T_Cordr_SZn" = 94.24052   $ Sizing
 "CAssFlo_T_Cordr_WZn" = 94.24052   $ Sizing
 "CAssFlo_T_LobWait_CZn" = 275.5261   $ Sizing
 "CAssFlo_T_MechElec_CZn" = 134.1697   $ Sizing
 "CAssFlo_T_OfficeOpn_CZn" = 1103.538   $ Sizing
 "CAssFlo_T_OfficeOpn_EZn" = 535.5477   $ Sizing
 "CAssFlo_T_OfficeOpn_NZn" = 535.5477   $ Sizing
 "CAssFlo_T_OfficeOpn_SZn" = 535.5477   $ Sizing
 "CAssFlo_T_OfficeOpn_WZn" = 535.5477   $ Sizing
 "CAssFlo_T_OfficeSm_CZn" = 143.945   $ Sizing
 "CAssFlo_T_OfficeSm_EZn" = 377.8759   $ Sizing
 "CAssFlo_T_OfficeSm_NZn" = 406.0243   $ Sizing
 "CAssFlo_T_OfficeSm_SZn" = 323.8893   $ Sizing
 "CAssFlo_T_OfficeSm_WZn" = 334.4732   $ Sizing
 "CAssFlo_T_Restrm_CZn" = 211.8611   $ Sizing
 "CAssFlo_T_StorSm_CZn" = 334.0894   $ Sizing
 "CHRtFlo_Sys_L_Break_C" = 15   $ Sizing
 "CHRtFlo_Sys_L_Conf_C" = 15   $ Sizing
 "CHRtFlo_Sys_L_CopyRm_C" = 15   $ Sizing
 "CHRtFlo_Sys_L_Cordr_C" = 15   $ Sizing
 "CHRtFlo_Sys_L_Cordr_E" = 15   $ Sizing
 "CHRtFlo_Sys_L_Cordr_N" = 15   $ Sizing
 "CHRtFlo_Sys_L_Cordr_S" = 15   $ Sizing
 "CHRtFlo_Sys_L_Cordr_W" = 15   $ Sizing
 "CHRtFlo_Sys_L_LobWait_C" = 15   $ Sizing
 "CHRtFlo_Sys_L_MechElec_C" = 15   $ Sizing
 "CHRtFlo_Sys_L_OfficeOpn_C" = 15   $ Sizing
 "CHRtFlo_Sys_L_OfficeOpn_E" = 15   $ Sizing
 "CHRtFlo_Sys_L_OfficeOpn_N" = 15   $ Sizing
 "CHRtFlo_Sys_L_OfficeOpn_S" = 15   $ Sizing
 "CHRtFlo_Sys_L_OfficeOpn_W" = 15   $ Sizing
 "CHRtFlo_Sys_L_OfficeSm_C" = 15   $ Sizing
 "CHRtFlo_Sys_L_OfficeSm_E" = 15   $ Sizing
 "CHRtFlo_Sys_L_OfficeSm_N" = 15   $ Sizing
 "CHRtFlo_Sys_L_OfficeSm_S" = 15   $ Sizing
 "CHRtFlo_Sys_L_OfficeSm_W" = 15   $ Sizing
 "CHRtFlo_Sys_L_Restrm_C" = 15   $ Sizing
 "CHRtFlo_Sys_L_StorSm_C" = 15   $ Sizing
 "CHRtFlo_Sys_M_Break_C" = 15   $ Sizing
 "CHRtFlo_Sys_M_Conf_C" = 15   $ Sizing
 "CHRtFlo_Sys_M_CopyRm_C" = 15   $ Sizing
 "CHRtFlo_Sys_M_Cordr_C" = 15   $ Sizing
 "CHRtFlo_Sys_M_Cordr_E" = 15   $ Sizing
 "CHRtFlo_Sys_M_Cordr_N" = 15   $ Sizing
 "CHRtFlo_Sys_M_Cordr_S" = 15   $ Sizing
 "CHRtFlo_Sys_M_Cordr_W" = 15   $ Sizing
 "CHRtFlo_Sys_M_LobWait_C" = 15   $ Sizing
 "CHRtFlo_Sys_M_MechElec_C" = 15   $ Sizing
 "CHRtFlo_Sys_M_OfficeOpn_C" = 15   $ Sizing
 "CHRtFlo_Sys_M_OfficeOpn_E" = 15   $ Sizing
 "CHRtFlo_Sys_M_OfficeOpn_N" = 15   $ Sizing
 "CHRtFlo_Sys_M_OfficeOpn_S" = 15   $ Sizing
 "CHRtFlo_Sys_M_OfficeOpn_W" = 15   $ Sizing
 "CHRtFlo_Sys_M_OfficeSm_C" = 15   $ Sizing
 "CHRtFlo_Sys_M_OfficeSm_E" = 15   $ Sizing
 "CHRtFlo_Sys_M_OfficeSm_N" = 15   $ Sizing
 "CHRtFlo_Sys_M_OfficeSm_S" = 15   $ Sizing
 "CHRtFlo_Sys_M_OfficeSm_W" = 15   $ Sizing
 "CHRtFlo_Sys_M_Restrm_C" = 15   $ Sizing
 "CHRtFlo_Sys_M_StorSm_C" = 15   $ Sizing
 "CHRtFlo_Sys_T_Break_C" = 15   $ Sizing
 "CHRtFlo_Sys_T_Conf_C" = 15   $ Sizing
 "CHRtFlo_Sys_T_CopyRm_C" = 15   $ Sizing
 "CHRtFlo_Sys_T_Cordr_C" = 15   $ Sizing
 "CHRtFlo_Sys_T_Cordr_E" = 15   $ Sizing
 "CHRtFlo_Sys_T_Cordr_N" = 15   $ Sizing
 "CHRtFlo_Sys_T_Cordr_S" = 15   $ Sizing
 "CHRtFlo_Sys_T_Cordr_W" = 15   $ Sizing
 "CHRtFlo_Sys_T_LobWait_C" = 15   $ Sizing
 "CHRtFlo_Sys_T_MechElec_C" = 15   $ Sizing
 "CHRtFlo_Sys_T_OfficeOpn_C" = 15   $ Sizing
 "CHRtFlo_Sys_T_OfficeOpn_E" = 15   $ Sizing
 "CHRtFlo_Sys_T_OfficeOpn_N" = 15   $ Sizing
 "CHRtFlo_Sys_T_OfficeOpn_S" = 15   $ Sizing
 "CHRtFlo_Sys_T_OfficeOpn_W" = 15   $ Sizing
 "CHRtFlo_Sys_T_OfficeSm_C" = 15   $ Sizing
 "CHRtFlo_Sys_T_OfficeSm_E" = 15   $ Sizing
 "CHRtFlo_Sys_T_OfficeSm_N" = 15   $ Sizing
 "CHRtFlo_Sys_T_OfficeSm_S" = 15   $ Sizing
 "CHRtFlo_Sys_T_OfficeSm_W" = 15   $ Sizing
 "CHRtFlo_Sys_T_Restrm_C" = 15   $ Sizing
 "CHRtFlo_Sys_T_StorSm_C" = 15   $ Sizing
 "CRtdFlo_Sys_L_Break_C" = 15   $ Sizing
 "CRtdFlo_Sys_L_Conf_C" = 15   $ Sizing
 "CRtdFlo_Sys_L_CopyRm_C" = 15   $ Sizing
 "CRtdFlo_Sys_L_Cordr_C" = 15   $ Sizing
 "CRtdFlo_Sys_L_Cordr_E" = 15   $ Sizing
 "CRtdFlo_Sys_L_Cordr_N" = 15   $ Sizing
 "CRtdFlo_Sys_L_Cordr_S" = 15   $ Sizing
 "CRtdFlo_Sys_L_Cordr_W" = 15   $ Sizing
 "CRtdFlo_Sys_L_LobWait_C" = 15   $ Sizing
 "CRtdFlo_Sys_L_MechElec_C" = 15   $ Sizing
 "CRtdFlo_Sys_L_OfficeOpn_C" = 15   $ Sizing
 "CRtdFlo_Sys_L_OfficeOpn_E" = 15   $ Sizing
 "CRtdFlo_Sys_L_OfficeOpn_N" = 15   $ Sizing
 "CRtdFlo_Sys_L_OfficeOpn_S" = 15   $ Sizing
 "CRtdFlo_Sys_L_OfficeOpn_W" = 15   $ Sizing
 "CRtdFlo_Sys_L_OfficeSm_C" = 15   $ Sizing
 "CRtdFlo_Sys_L_OfficeSm_E" = 15   $ Sizing
 "CRtdFlo_Sys_L_OfficeSm_N" = 15   $ Sizing
 "CRtdFlo_Sys_L_OfficeSm_S" = 15   $ Sizing
 "CRtdFlo_Sys_L_OfficeSm_W" = 15   $ Sizing
 "CRtdFlo_Sys_L_Restrm_C" = 15   $ Sizing
 "CRtdFlo_Sys_L_StorSm_C" = 15   $ Sizing
 "CRtdFlo_Sys_M_Break_C" = 15   $ Sizing
 "CRtdFlo_Sys_M_Conf_C" = 15   $ Sizing
 "CRtdFlo_Sys_M_CopyRm_C" = 15   $ Sizing
 "CRtdFlo_Sys_M_Cordr_C" = 15   $ Sizing
 "CRtdFlo_Sys_M_Cordr_E" = 15   $ Sizing
 "CRtdFlo_Sys_M_Cordr_N" = 15   $ Sizing
 "CRtdFlo_Sys_M_Cordr_S" = 15   $ Sizing
 "CRtdFlo_Sys_M_Cordr_W" = 15   $ Sizing
 "CRtdFlo_Sys_M_LobWait_C" = 15   $ Sizing
 "CRtdFlo_Sys_M_MechElec_C" = 15   $ Sizing
 "CRtdFlo_Sys_M_OfficeOpn_C" = 15   $ Sizing
 "CRtdFlo_Sys_M_OfficeOpn_E" = 15   $ Sizing
 "CRtdFlo_Sys_M_OfficeOpn_N" = 15   $ Sizing
 "CRtdFlo_Sys_M_OfficeOpn_S" = 15   $ Sizing
 "CRtdFlo_Sys_M_OfficeOpn_W" = 15   $ Sizing
 "CRtdFlo_Sys_M_OfficeSm_C" = 15   $ Sizing
 "CRtdFlo_Sys_M_OfficeSm_E" = 15   $ Sizing
 "CRtdFlo_Sys_M_OfficeSm_N" = 15   $ Sizing
 "CRtdFlo_Sys_M_OfficeSm_S" = 15   $ Sizing
 "CRtdFlo_Sys_M_OfficeSm_W" = 15   $ Sizing
 "CRtdFlo_Sys_M_Restrm_C" = 15   $ Sizing
 "CRtdFlo_Sys_M_StorSm_C" = 15   $ Sizing
 "CRtdFlo_Sys_T_Break_C" = 15   $ Sizing
 "CRtdFlo_Sys_T_Conf_C" = 15   $ Sizing
 "CRtdFlo_Sys_T_CopyRm_C" = 15   $ Sizing
 "CRtdFlo_Sys_T_Cordr_C" = 15   $ Sizing
 "CRtdFlo_Sys_T_Cordr_E" = 15   $ Sizing
 "CRtdFlo_Sys_T_Cordr_N" = 15   $ Sizing
 "CRtdFlo_Sys_T_Cordr_S" = 15   $ Sizing
 "CRtdFlo_Sys_T_Cordr_W" = 15   $ Sizing
 "CRtdFlo_Sys_T_LobWait_C" = 15   $ Sizing
 "CRtdFlo_Sys_T_MechElec_C" = 15   $ Sizing
 "CRtdFlo_Sys_T_OfficeOpn_C" = 15   $ Sizing
 "CRtdFlo_Sys_T_OfficeOpn_E" = 15   $ Sizing
 "CRtdFlo_Sys_T_OfficeOpn_N" = 15   $ Sizing
 "CRtdFlo_Sys_T_OfficeOpn_S" = 15   $ Sizing
 "CRtdFlo_Sys_T_OfficeOpn_W" = 15   $ Sizing
 "CRtdFlo_Sys_T_OfficeSm_C" = 15   $ Sizing
 "CRtdFlo_Sys_T_OfficeSm_E" = 15   $ Sizing
 "CRtdFlo_Sys_T_OfficeSm_N" = 15   $ Sizing
 "CRtdFlo_Sys_T_OfficeSm_S" = 15   $ Sizing
 "CRtdFlo_Sys_T_OfficeSm_W" = 15   $ Sizing
 "CRtdFlo_Sys_T_Restrm_C" = 15   $ Sizing
 "CRtdFlo_Sys_T_StorSm_C" = 15   $ Sizing
 "CSupFlo_Sys_L_Break_C" = 216.6311   $ Sizing
 "CSupFlo_Sys_L_Conf_C" = 281.7439   $ Sizing
 "CSupFlo_Sys_L_CopyRm_C" = 88.37569   $ Sizing
 "CSupFlo_Sys_L_Cordr_C" = 565.4379   $ Sizing
 "CSupFlo_Sys_L_Cordr_E" = 94.24052   $ Sizing
 "CSupFlo_Sys_L_Cordr_N" = 113.8156   $ Sizing
 "CSupFlo_Sys_L_Cordr_S" = 94.24052   $ Sizing
 "CSupFlo_Sys_L_Cordr_W" = 94.24052   $ Sizing
 "CSupFlo_Sys_L_LobWait_C" = 275.5261   $ Sizing
 "CSupFlo_Sys_L_MechElec_C" = 134.1697   $ Sizing
 "CSupFlo_Sys_L_OfficeOpn_C" = 1103.538   $ Sizing
 "CSupFlo_Sys_L_OfficeOpn_E" = 535.5477   $ Sizing
 "CSupFlo_Sys_L_OfficeOpn_N" = 535.5477   $ Sizing
 "CSupFlo_Sys_L_OfficeOpn_S" = 535.5477   $ Sizing
 "CSupFlo_Sys_L_OfficeOpn_W" = 535.5477   $ Sizing
 "CSupFlo_Sys_L_OfficeSm_C" = 143.945   $ Sizing
 "CSupFlo_Sys_L_OfficeSm_E" = 380.0438   $ Sizing
 "CSupFlo_Sys_L_OfficeSm_N" = 414.4532   $ Sizing
 "CSupFlo_Sys_L_OfficeSm_S" = 323.8893   $ Sizing
 "CSupFlo_Sys_L_OfficeSm_W" = 360.8654   $ Sizing
 "CSupFlo_Sys_L_Restrm_C" = 211.8611   $ Sizing
 "CSupFlo_Sys_L_StorSm_C" = 334.0894   $ Sizing
 "CSupFlo_Sys_M_Break_C" = 1733.049   $ Sizing
 "CSupFlo_Sys_M_Conf_C" = 2253.951   $ Sizing
 "CSupFlo_Sys_M_CopyRm_C" = 707.0056   $ Sizing
 "CSupFlo_Sys_M_Cordr_C" = 4523.503   $ Sizing
 "CSupFlo_Sys_M_Cordr_E" = 806.6934   $ Sizing
 "CSupFlo_Sys_M_Cordr_N" = 968.8503   $ Sizing
 "CSupFlo_Sys_M_Cordr_S" = 753.9242   $ Sizing
 "CSupFlo_Sys_M_Cordr_W" = 753.9242   $ Sizing
 "CSupFlo_Sys_M_LobWait_C" = 2204.208   $ Sizing
 "CSupFlo_Sys_M_MechElec_C" = 1073.357   $ Sizing
 "CSupFlo_Sys_M_OfficeOpn_C" = 8828.302   $ Sizing
 "CSupFlo_Sys_M_OfficeOpn_E" = 4284.381   $ Sizing
 "CSupFlo_Sys_M_OfficeOpn_N" = 4284.381   $ Sizing
 "CSupFlo_Sys_M_OfficeOpn_S" = 4284.381   $ Sizing
 "CSupFlo_Sys_M_OfficeOpn_W" = 4284.381   $ Sizing
 "CSupFlo_Sys_M_OfficeSm_C" = 1151.56   $ Sizing
 "CSupFlo_Sys_M_OfficeSm_E" = 3437.898   $ Sizing
 "CSupFlo_Sys_M_OfficeSm_N" = 3616.14   $ Sizing
 "CSupFlo_Sys_M_OfficeSm_S" = 2591.115   $ Sizing
 "CSupFlo_Sys_M_OfficeSm_W" = 3113.455   $ Sizing
 "CSupFlo_Sys_M_Restrm_C" = 1694.889   $ Sizing
 "CSupFlo_Sys_M_StorSm_C" = 2672.715   $ Sizing
 "CSupFlo_Sys_T_Break_C" = 216.6311   $ Sizing
 "CSupFlo_Sys_T_Conf_C" = 281.7439   $ Sizing
 "CSupFlo_Sys_T_CopyRm_C" = 88.37569   $ Sizing
 "CSupFlo_Sys_T_Cordr_C" = 565.4379   $ Sizing
 "CSupFlo_Sys_T_Cordr_E" = 94.24052   $ Sizing
 "CSupFlo_Sys_T_Cordr_N" = 105.5852   $ Sizing
 "CSupFlo_Sys_T_Cordr_S" = 94.24052   $ Sizing
 "CSupFlo_Sys_T_Cordr_W" = 94.24052   $ Sizing
 "CSupFlo_Sys_T_LobWait_C" = 275.5261   $ Sizing
 "CSupFlo_Sys_T_MechElec_C" = 134.1697   $ Sizing
 "CSupFlo_Sys_T_OfficeOpn_C" = 1103.538   $ Sizing
 "CSupFlo_Sys_T_OfficeOpn_E" = 535.5477   $ Sizing
 "CSupFlo_Sys_T_OfficeOpn_N" = 535.5477   $ Sizing
 "CSupFlo_Sys_T_OfficeOpn_S" = 535.5477   $ Sizing
 "CSupFlo_Sys_T_OfficeOpn_W" = 535.5477   $ Sizing
 "CSupFlo_Sys_T_OfficeSm_C" = 143.945   $ Sizing
 "CSupFlo_Sys_T_OfficeSm_E" = 377.8759   $ Sizing
 "CSupFlo_Sys_T_OfficeSm_N" = 406.0243   $ Sizing
 "CSupFlo_Sys_T_OfficeSm_S" = 323.8893   $ Sizing
 "CSupFlo_Sys_T_OfficeSm_W" = 334.4732   $ Sizing
 "CSupFlo_Sys_T_Restrm_C" = 211.8611   $ Sizing
 "CSupFlo_Sys_T_StorSm_C" = 334.0894   $ Sizing
 "ClCap_Sys_L_Break_C" = 0   $ Sizing
 "ClCap_Sys_L_Conf_C" = 0   $ Sizing
 "ClCap_Sys_L_CopyRm_C" = 0   $ Sizing
 "ClCap_Sys_L_Cordr_C" = 0   $ Sizing
 "ClCap_Sys_L_Cordr_E" = 0   $ Sizing
 "ClCap_Sys_L_Cordr_N" = 0   $ Sizing
 "ClCap_Sys_L_Cordr_S" = 0   $ Sizing
 "ClCap_Sys_L_Cordr_W" = 0   $ Sizing
 "ClCap_Sys_L_LobWait_C" = 0   $ Sizing
 "ClCap_Sys_L_MechElec_C" = 0   $ Sizing
 "ClCap_Sys_L_OfficeOpn_C" = 0   $ Sizing
 "ClCap_Sys_L_OfficeOpn_E" = 0   $ Sizing
 "ClCap_Sys_L_OfficeOpn_N" = 0   $ Sizing
 "ClCap_Sys_L_OfficeOpn_S" = 0   $ Sizing
 "ClCap_Sys_L_OfficeOpn_W" = 0   $ Sizing
 "ClCap_Sys_L_OfficeSm_C" = 0   $ Sizing
 "ClCap_Sys_L_OfficeSm_E" = 0   $ Sizing
 "ClCap_Sys_L_OfficeSm_N" = 0   $ Sizing
 "ClCap_Sys_L_OfficeSm_S" = 0   $ Sizing
 "ClCap_Sys_L_OfficeSm_W" = 0   $ Sizing
 "ClCap_Sys_L_Restrm_C" = 0   $ Sizing
 "ClCap_Sys_L_StorSm_C" = 0   $ Sizing
 "ClCap_Sys_M_Break_C" = 0   $ Sizing
 "ClCap_Sys_M_Conf_C" = 0   $ Sizing
 "ClCap_Sys_M_CopyRm_C" = 0   $ Sizing
 "ClCap_Sys_M_Cordr_C" = 0   $ Sizing
 "ClCap_Sys_M_Cordr_E" = 0   $ Sizing
 "ClCap_Sys_M_Cordr_N" = 0   $ Sizing
 "ClCap_Sys_M_Cordr_S" = 0   $ Sizing
 "ClCap_Sys_M_Cordr_W" = 0   $ Sizing
 "ClCap_Sys_M_LobWait_C" = 0   $ Sizing
 "ClCap_Sys_M_MechElec_C" = 0   $ Sizing
 "ClCap_Sys_M_OfficeOpn_C" = 0   $ Sizing
 "ClCap_Sys_M_OfficeOpn_E" = 0   $ Sizing
 "ClCap_Sys_M_OfficeOpn_N" = 0   $ Sizing
 "ClCap_Sys_M_OfficeOpn_S" = 0   $ Sizing
 "ClCap_Sys_M_OfficeOpn_W" = 0   $ Sizing
 "ClCap_Sys_M_OfficeSm_C" = 0   $ Sizing
 "ClCap_Sys_M_OfficeSm_E" = 0   $ Sizing
 "ClCap_Sys_M_OfficeSm_N" = 0   $ Sizing
 "ClCap_Sys_M_OfficeSm_S" = 0   $ Sizing
 "ClCap_Sys_M_OfficeSm_W" = 0   $ Sizing
 "ClCap_Sys_M_Restrm_C" = 0   $ Sizing
 "ClCap_Sys_M_StorSm_C" = 0   $ Sizing
 "ClCap_Sys_T_Break_C" = 0   $ Sizing
 "ClCap_Sys_T_Conf_C" = 0   $ Sizing
 "ClCap_Sys_T_CopyRm_C" = 0   $ Sizing
 "ClCap_Sys_T_Cordr_C" = 0   $ Sizing
 "ClCap_Sys_T_Cordr_E" = 0   $ Sizing
 "ClCap_Sys_T_Cordr_N" = 0   $ Sizing
 "ClCap_Sys_T_Cordr_S" = 0   $ Sizing
 "ClCap_Sys_T_Cordr_W" = 0   $ Sizing
 "ClCap_Sys_T_LobWait_C" = 0   $ Sizing
 "ClCap_Sys_T_MechElec_C" = 0   $ Sizing
 "ClCap_Sys_T_OfficeOpn_C" = 0   $ Sizing
 "ClCap_Sys_T_OfficeOpn_E" = 0   $ Sizing
 "ClCap_Sys_T_OfficeOpn_N" = 0   $ Sizing
 "ClCap_Sys_T_OfficeOpn_S" = 0   $ Sizing
 "ClCap_Sys_T_OfficeOpn_W" = 0   $ Sizing
 "ClCap_Sys_T_OfficeSm_C" = 0   $ Sizing
 "ClCap_Sys_T_OfficeSm_E" = 0   $ Sizing
 "ClCap_Sys_T_OfficeSm_N" = 0   $ Sizing
 "ClCap_Sys_T_OfficeSm_S" = 0   $ Sizing
 "ClCap_Sys_T_OfficeSm_W" = 0   $ Sizing
 "ClCap_Sys_T_Restrm_C" = 0   $ Sizing
 "ClCap_Sys_T_StorSm_C" = 0   $ Sizing
 "HtCap_L_Break_CZn" = -6081.661   $ Sizing
 "HtCap_L_Break_CZn" = 0   $ Sizing
 "HtCap_L_Conf_CZn" = -9475.963   $ Sizing
 "HtCap_L_Conf_CZn" = 0   $ Sizing
 "HtCap_L_CopyRm_CZn" = -2267.908   $ Sizing
 "HtCap_L_CopyRm_CZn" = 0   $ Sizing
 "HtCap_L_Cordr_CZn" = -5622.682   $ Sizing
 "HtCap_L_Cordr_CZn" = 0   $ Sizing
 "HtCap_L_Cordr_EZn" = -4219.565   $ Sizing
 "HtCap_L_Cordr_EZn" = 0   $ Sizing
 "HtCap_L_Cordr_NZn" = -4807.698   $ Sizing
 "HtCap_L_Cordr_NZn" = 0   $ Sizing
 "HtCap_L_Cordr_SZn" = -2218.83   $ Sizing
 "HtCap_L_Cordr_SZn" = 0   $ Sizing
 "HtCap_L_Cordr_WZn" = -4081.577   $ Sizing
 "HtCap_L_Cordr_WZn" = 0   $ Sizing
 "HtCap_L_LobWait_CZn" = -6485.24   $ Sizing
 "HtCap_L_LobWait_CZn" = 0   $ Sizing
 "HtCap_L_MechElec_CZn" = -1516.568   $ Sizing
 "HtCap_L_MechElec_CZn" = 0   $ Sizing
 "HtCap_L_OfficeOpn_CZn" = 0   $ Sizing
 "HtCap_L_OfficeOpn_CZn" = 0   $ Sizing
 "HtCap_L_OfficeOpn_EZn" = -15834.92   $ Sizing
 "HtCap_L_OfficeOpn_EZn" = 0   $ Sizing
 "HtCap_L_OfficeOpn_NZn" = -18009.14   $ Sizing
 "HtCap_L_OfficeOpn_NZn" = 0   $ Sizing
 "HtCap_L_OfficeOpn_SZn" = -7304.677   $ Sizing
 "HtCap_L_OfficeOpn_SZn" = 0   $ Sizing
 "HtCap_L_OfficeOpn_WZn" = -15324.4   $ Sizing
 "HtCap_L_OfficeOpn_WZn" = 0   $ Sizing
 "HtCap_L_OfficeSm_CZn" = -1061.739   $ Sizing
 "HtCap_L_OfficeSm_CZn" = 0   $ Sizing
 "HtCap_L_OfficeSm_EZn" = -14283.11   $ Sizing
 "HtCap_L_OfficeSm_EZn" = 0   $ Sizing
 "HtCap_L_OfficeSm_NZn" = -15745.07   $ Sizing
 "HtCap_L_OfficeSm_NZn" = 0   $ Sizing
 "HtCap_L_OfficeSm_SZn" = -8910.876   $ Sizing
 "HtCap_L_OfficeSm_SZn" = 0   $ Sizing
 "HtCap_L_OfficeSm_WZn" = -14049.55   $ Sizing
 "HtCap_L_OfficeSm_WZn" = 0   $ Sizing
 "HtCap_L_Restrm_CZn" = 0   $ Sizing
 "HtCap_L_Restrm_CZn" = 0   $ Sizing
 "HtCap_L_StorSm_CZn" = -9019.813   $ Sizing
 "HtCap_L_StorSm_CZn" = 0   $ Sizing
 "HtCap_M_Break_CZn" = -6991.988   $ Sizing
 "HtCap_M_Break_CZn" = 0   $ Sizing
 "HtCap_M_Conf_CZn" = -10523.13   $ Sizing
 "HtCap_M_Conf_CZn" = 0   $ Sizing
 "HtCap_M_CopyRm_CZn" = -2580.69   $ Sizing
 "HtCap_M_CopyRm_CZn" = 0   $ Sizing
 "HtCap_M_Cordr_CZn" = -5764.159   $ Sizing
 "HtCap_M_Cordr_CZn" = 0   $ Sizing
 "HtCap_M_Cordr_EZn" = -4464.95   $ Sizing
 "HtCap_M_Cordr_EZn" = 0   $ Sizing
 "HtCap_M_Cordr_NZn" = -5026.17   $ Sizing
 "HtCap_M_Cordr_NZn" = 0   $ Sizing
 "HtCap_M_Cordr_SZn" = -2202.851   $ Sizing
 "HtCap_M_Cordr_SZn" = 0   $ Sizing
 "HtCap_M_Cordr_WZn" = -4175.421   $ Sizing
 "HtCap_M_Cordr_WZn" = 0   $ Sizing
 "HtCap_M_LobWait_CZn" = -7635.518   $ Sizing
 "HtCap_M_LobWait_CZn" = 0   $ Sizing
 "HtCap_M_MechElec_CZn" = -2037.033   $ Sizing
 "HtCap_M_MechElec_CZn" = 0   $ Sizing
 "HtCap_M_OfficeOpn_CZn" = 0   $ Sizing
 "HtCap_M_OfficeOpn_CZn" = 0   $ Sizing
 "HtCap_M_OfficeOpn_EZn" = -18688.8   $ Sizing
 "HtCap_M_OfficeOpn_EZn" = 0   $ Sizing
 "HtCap_M_OfficeOpn_NZn" = -19702.83   $ Sizing
 "HtCap_M_OfficeOpn_NZn" = 0   $ Sizing
 "HtCap_M_OfficeOpn_SZn" = -9463.846   $ Sizing
 "HtCap_M_OfficeOpn_SZn" = 0   $ Sizing
 "HtCap_M_OfficeOpn_WZn" = -17377.8   $ Sizing
 "HtCap_M_OfficeOpn_WZn" = 0   $ Sizing
 "HtCap_M_OfficeSm_CZn" = -1815.712   $ Sizing
 "HtCap_M_OfficeSm_CZn" = 0   $ Sizing
 "HtCap_M_OfficeSm_EZn" = -16385.14   $ Sizing
 "HtCap_M_OfficeSm_EZn" = 0   $ Sizing
 "HtCap_M_OfficeSm_NZn" = -17362.71   $ Sizing
 "HtCap_M_OfficeSm_NZn" = 0   $ Sizing
 "HtCap_M_OfficeSm_SZn" = -11399.19   $ Sizing
 "HtCap_M_OfficeSm_SZn" = 0   $ Sizing
 "HtCap_M_OfficeSm_WZn" = -15684.72   $ Sizing
 "HtCap_M_OfficeSm_WZn" = 0   $ Sizing
 "HtCap_M_Restrm_CZn" = 0   $ Sizing
 "HtCap_M_Restrm_CZn" = 0   $ Sizing
 "HtCap_M_StorSm_CZn" = -10342.47   $ Sizing
 "HtCap_M_StorSm_CZn" = 0   $ Sizing
 "HtCap_Sys_L_Break_C" = -14821.93   $ Sizing
 "HtCap_Sys_L_Break_C" = 0   $ Sizing
 "HtCap_Sys_L_Conf_C" = -19276.96   $ Sizing
 "HtCap_Sys_L_Conf_C" = 0   $ Sizing
 "HtCap_Sys_L_CopyRm_C" = -6046.678   $ Sizing
 "HtCap_Sys_L_CopyRm_C" = 0   $ Sizing
 "HtCap_Sys_L_Cordr_C" = -25678.28   $ Sizing
 "HtCap_Sys_L_Cordr_C" = 0   $ Sizing
 "HtCap_Sys_L_Cordr_E" = -4280.307   $ Sizing
 "HtCap_Sys_L_Cordr_E" = 0   $ Sizing
 "HtCap_Sys_L_Cordr_N" = -4827.957   $ Sizing
 "HtCap_Sys_L_Cordr_N" = 0   $ Sizing
 "HtCap_Sys_L_Cordr_S" = -4278.053   $ Sizing
 "HtCap_Sys_L_Cordr_S" = 0   $ Sizing
 "HtCap_Sys_L_Cordr_W" = -4280.121   $ Sizing
 "HtCap_Sys_L_Cordr_W" = 0   $ Sizing
 "HtCap_Sys_L_LobWait_C" = -18120.24   $ Sizing
 "HtCap_Sys_L_LobWait_C" = 0   $ Sizing
 "HtCap_Sys_L_MechElec_C" = -6088.1   $ Sizing
 "HtCap_Sys_L_MechElec_C" = 0   $ Sizing
 "HtCap_Sys_L_OfficeOpn_C" = -48715.43   $ Sizing
 "HtCap_Sys_L_OfficeOpn_C" = 0   $ Sizing
 "HtCap_Sys_L_OfficeOpn_E" = -24311.63   $ Sizing
 "HtCap_Sys_L_OfficeOpn_E" = 0   $ Sizing
 "HtCap_Sys_L_OfficeOpn_N" = -24314.56   $ Sizing
 "HtCap_Sys_L_OfficeOpn_N" = 0   $ Sizing
 "HtCap_Sys_L_OfficeOpn_S" = -24300.12   $ Sizing
 "HtCap_Sys_L_OfficeOpn_S" = 0   $ Sizing
 "HtCap_Sys_L_OfficeOpn_W" = -24310.94   $ Sizing
 "HtCap_Sys_L_OfficeOpn_W" = 0   $ Sizing
 "HtCap_Sys_L_OfficeSm_C" = -6533.493   $ Sizing
 "HtCap_Sys_L_OfficeSm_C" = 0   $ Sizing
 "HtCap_Sys_L_OfficeSm_E" = -16277.61   $ Sizing
 "HtCap_Sys_L_OfficeSm_E" = 0   $ Sizing
 "HtCap_Sys_L_OfficeSm_N" = -17240.66   $ Sizing
 "HtCap_Sys_L_OfficeSm_N" = 0   $ Sizing
 "HtCap_Sys_L_OfficeSm_S" = -14702.28   $ Sizing
 "HtCap_Sys_L_OfficeSm_S" = 0   $ Sizing
 "HtCap_Sys_L_OfficeSm_W" = -15741.79   $ Sizing
 "HtCap_Sys_L_OfficeSm_W" = 0   $ Sizing
 "HtCap_Sys_L_Restrm_C" = -6546.829   $ Sizing
 "HtCap_Sys_L_Restrm_C" = 0   $ Sizing
 "HtCap_Sys_L_StorSm_C" = -15166.48   $ Sizing
 "HtCap_Sys_L_StorSm_C" = 0   $ Sizing
 "HtCap_Sys_M_Break_C" = -118575.4   $ Sizing
 "HtCap_Sys_M_Break_C" = 0   $ Sizing
 "HtCap_Sys_M_Conf_C" = -154215.7   $ Sizing
 "HtCap_Sys_M_Conf_C" = 0   $ Sizing
 "HtCap_Sys_M_CopyRm_C" = -48373.42   $ Sizing
 "HtCap_Sys_M_CopyRm_C" = 0   $ Sizing
 "HtCap_Sys_M_Cordr_C" = -205371.5   $ Sizing
 "HtCap_Sys_M_Cordr_C" = 0   $ Sizing
 "HtCap_Sys_M_Cordr_E" = -35719.6   $ Sizing
 "HtCap_Sys_M_Cordr_E" = 0   $ Sizing
 "HtCap_Sys_M_Cordr_N" = -40255.44   $ Sizing
 "HtCap_Sys_M_Cordr_N" = 0   $ Sizing
 "HtCap_Sys_M_Cordr_S" = -34224.66   $ Sizing
 "HtCap_Sys_M_Cordr_S" = 0   $ Sizing
 "HtCap_Sys_M_Cordr_W" = -34241.98   $ Sizing
 "HtCap_Sys_M_Cordr_W" = 0   $ Sizing
 "HtCap_Sys_M_LobWait_C" = -144962.9   $ Sizing
 "HtCap_Sys_M_LobWait_C" = 0   $ Sizing
 "HtCap_Sys_M_MechElec_C" = -48710.41   $ Sizing
 "HtCap_Sys_M_MechElec_C" = 0   $ Sizing
 "HtCap_Sys_M_OfficeOpn_C" = -395011   $ Sizing
 "HtCap_Sys_M_OfficeOpn_C" = 0   $ Sizing
 "HtCap_Sys_M_OfficeOpn_E" = -194523.9   $ Sizing
 "HtCap_Sys_M_OfficeOpn_E" = 0   $ Sizing
 "HtCap_Sys_M_OfficeOpn_N" = -194534.8   $ Sizing
 "HtCap_Sys_M_OfficeOpn_N" = 0   $ Sizing
 "HtCap_Sys_M_OfficeOpn_S" = -194424.3   $ Sizing
 "HtCap_Sys_M_OfficeOpn_S" = 0   $ Sizing
 "HtCap_Sys_M_OfficeOpn_W" = -194509.7   $ Sizing
 "HtCap_Sys_M_OfficeOpn_W" = 0   $ Sizing
 "HtCap_Sys_M_OfficeSm_C" = -52276.09   $ Sizing
 "HtCap_Sys_M_OfficeSm_C" = 0   $ Sizing
 "HtCap_Sys_M_OfficeSm_E" = -141347.6   $ Sizing
 "HtCap_Sys_M_OfficeSm_E" = 0   $ Sizing
 "HtCap_Sys_M_OfficeSm_N" = -146337.5   $ Sizing
 "HtCap_Sys_M_OfficeSm_N" = 0   $ Sizing
 "HtCap_Sys_M_OfficeSm_S" = -117645.1   $ Sizing
 "HtCap_Sys_M_OfficeSm_S" = 0   $ Sizing
 "HtCap_Sys_M_OfficeSm_W" = -132280   $ Sizing
 "HtCap_Sys_M_OfficeSm_W" = 0   $ Sizing
 "HtCap_Sys_M_Restrm_C" = -51154.13   $ Sizing
 "HtCap_Sys_M_Restrm_C" = 0   $ Sizing
 "HtCap_Sys_M_StorSm_C" = -121346.1   $ Sizing
 "HtCap_Sys_M_StorSm_C" = 0   $ Sizing
 "HtCap_Sys_T_Break_C" = -14821.93   $ Sizing
 "HtCap_Sys_T_Break_C" = 0   $ Sizing
 "HtCap_Sys_T_Conf_C" = -19276.96   $ Sizing
 "HtCap_Sys_T_Conf_C" = 0   $ Sizing
 "HtCap_Sys_T_CopyRm_C" = -6046.678   $ Sizing
 "HtCap_Sys_T_CopyRm_C" = 0   $ Sizing
 "HtCap_Sys_T_Cordr_C" = -25669.42   $ Sizing
 "HtCap_Sys_T_Cordr_C" = 0   $ Sizing
 "HtCap_Sys_T_Cordr_E" = -4280.023   $ Sizing
 "HtCap_Sys_T_Cordr_E" = 0   $ Sizing
 "HtCap_Sys_T_Cordr_N" = -4597.742   $ Sizing
 "HtCap_Sys_T_Cordr_N" = 0   $ Sizing
 "HtCap_Sys_T_Cordr_S" = -4277.384   $ Sizing
 "HtCap_Sys_T_Cordr_S" = 0   $ Sizing
 "HtCap_Sys_T_Cordr_W" = -4279.626   $ Sizing
 "HtCap_Sys_T_Cordr_W" = 0   $ Sizing
 "HtCap_Sys_T_LobWait_C" = -18120.24   $ Sizing
 "HtCap_Sys_T_LobWait_C" = 0   $ Sizing
 "HtCap_Sys_T_MechElec_C" = -6092.602   $ Sizing
 "HtCap_Sys_T_MechElec_C" = 0   $ Sizing
 "HtCap_Sys_T_OfficeOpn_C" = -48836.42   $ Sizing
 "HtCap_Sys_T_OfficeOpn_C" = 0   $ Sizing
 "HtCap_Sys_T_OfficeOpn_E" = -24312.55   $ Sizing
 "HtCap_Sys_T_OfficeOpn_E" = 0   $ Sizing
 "HtCap_Sys_T_OfficeOpn_N" = -24314.51   $ Sizing
 "HtCap_Sys_T_OfficeOpn_N" = 0   $ Sizing
 "HtCap_Sys_T_OfficeOpn_S" = -24299.97   $ Sizing
 "HtCap_Sys_T_OfficeOpn_S" = 0   $ Sizing
 "HtCap_Sys_T_OfficeOpn_W" = -24310.65   $ Sizing
 "HtCap_Sys_T_OfficeOpn_W" = 0   $ Sizing
 "HtCap_Sys_T_OfficeSm_C" = -6533.304   $ Sizing
 "HtCap_Sys_T_OfficeSm_C" = 0   $ Sizing
 "HtCap_Sys_T_OfficeSm_E" = -16217.93   $ Sizing
 "HtCap_Sys_T_OfficeSm_E" = 0   $ Sizing
 "HtCap_Sys_T_OfficeSm_N" = -17005.58   $ Sizing
 "HtCap_Sys_T_OfficeSm_N" = 0   $ Sizing
 "HtCap_Sys_T_OfficeSm_S" = -14702.71   $ Sizing
 "HtCap_Sys_T_OfficeSm_S" = 0   $ Sizing
 "HtCap_Sys_T_OfficeSm_W" = -15004.74   $ Sizing
 "HtCap_Sys_T_OfficeSm_W" = 0   $ Sizing
 "HtCap_Sys_T_Restrm_C" = -6341.843   $ Sizing
 "HtCap_Sys_T_Restrm_C" = 0   $ Sizing
 "HtCap_Sys_T_StorSm_C" = -15161.1   $ Sizing
 "HtCap_Sys_T_StorSm_C" = 0   $ Sizing
 "HtCap_T_Break_CZn" = -6228.671   $ Sizing
 "HtCap_T_Break_CZn" = 0   $ Sizing
 "HtCap_T_Conf_CZn" = -9323.007   $ Sizing
 "HtCap_T_Conf_CZn" = 0   $ Sizing
 "HtCap_T_CopyRm_CZn" = -2236.999   $ Sizing
 "HtCap_T_CopyRm_CZn" = 0   $ Sizing
 "HtCap_T_Cordr_CZn" = -4277.252   $ Sizing
 "HtCap_T_Cordr_CZn" = 0   $ Sizing
 "HtCap_T_Cordr_EZn" = -4008.991   $ Sizing
 "HtCap_T_Cordr_EZn" = 0   $ Sizing
 "HtCap_T_Cordr_NZn" = -4590.375   $ Sizing
 "HtCap_T_Cordr_NZn" = 0   $ Sizing
 "HtCap_T_Cordr_SZn" = -1685.89   $ Sizing
 "HtCap_T_Cordr_SZn" = 0   $ Sizing
 "HtCap_T_Cordr_WZn" = -3714.103   $ Sizing
 "HtCap_T_Cordr_WZn" = 0   $ Sizing
 "HtCap_T_LobWait_CZn" = -6507.359   $ Sizing
 "HtCap_T_LobWait_CZn" = 0   $ Sizing
 "HtCap_T_MechElec_CZn" = -4951.896   $ Sizing
 "HtCap_T_MechElec_CZn" = 0   $ Sizing
 "HtCap_T_OfficeOpn_CZn" = 0   $ Sizing
 "HtCap_T_OfficeOpn_CZn" = 0   $ Sizing
 "HtCap_T_OfficeOpn_EZn" = -16516.29   $ Sizing
 "HtCap_T_OfficeOpn_EZn" = 0   $ Sizing
 "HtCap_T_OfficeOpn_NZn" = -17968.29   $ Sizing
 "HtCap_T_OfficeOpn_NZn" = 0   $ Sizing
 "HtCap_T_OfficeOpn_SZn" = -7193.399   $ Sizing
 "HtCap_T_OfficeOpn_SZn" = 0   $ Sizing
 "HtCap_T_OfficeOpn_WZn" = -15109.07   $ Sizing
 "HtCap_T_OfficeOpn_WZn" = 0   $ Sizing
 "HtCap_T_OfficeSm_CZn" = -921.6476   $ Sizing
 "HtCap_T_OfficeSm_CZn" = 0   $ Sizing
 "HtCap_T_OfficeSm_EZn" = -14812.3   $ Sizing
 "HtCap_T_OfficeSm_EZn" = 0   $ Sizing
 "HtCap_T_OfficeSm_NZn" = -15889.78   $ Sizing
 "HtCap_T_OfficeSm_NZn" = 0   $ Sizing
 "HtCap_T_OfficeSm_SZn" = -9230.838   $ Sizing
 "HtCap_T_OfficeSm_SZn" = 0   $ Sizing
 "HtCap_T_OfficeSm_WZn" = -13998.47   $ Sizing
 "HtCap_T_OfficeSm_WZn" = 0   $ Sizing
 "HtCap_T_Restrm_CZn" = 0   $ Sizing
 "HtCap_T_Restrm_CZn" = 0   $ Sizing
 "HtCap_T_StorSm_CZn" = -4717.095   $ Sizing
 "HtCap_T_StorSm_CZn" = 0   $ Sizing
..

##include Templates\OfL_DX_SZ.inp
END ..
COMPUTE ..
STOP ..
