INPUT ..

##fileprefix C:\Users\jglasskatz\MASControl3\
##set1 IsSizing FALSE
##set1 CoolType DX
##set1 HeatType FURNACE
##set1 EU_HrRepVar 0
##set1 BldgVint 1975
##set1 BldgLoc CZ04

 ##set1 mBFMult 1   $ IP Tech: RefgChg-NRes-Std

PARAMETER
 "AltFactor" = 1.00501   $ IP Non-Tech
 "BF_fFlow" = SpltAC2SpHiSEER_BF_fFlow   $ Msr (Multi)TechID: MsrNResSplitAC-45to55-S17
 "BF_fT" = SpltAC2SpHiSEER_BF_fT   $ Msr (Multi)TechID: MsrNResSplitAC-45to55-S17
 "BldgEconoFlag" = 1   $ IP Non-Tech
 "Break_EWSF" = 1   $ IP Non-Tech
 "Break_LWSF" = 1.1   $ IP Non-Tech
 "CDD_DBHi10" = 82   $ IP Non-Tech
 "CDD_DBHi7" = 91   $ IP Non-Tech
 "CDD_DBHi8" = 88   $ IP Non-Tech
 "CDD_DBHi9" = 95   $ IP Non-Tech
 "CDD_DBRange10" = 29   $ IP Non-Tech
 "CDD_DBRange7" = 33   $ IP Non-Tech
 "CDD_DBRange8" = 27   $ IP Non-Tech
 "CDD_DBRange9" = 35   $ IP Non-Tech
 "CDD_Day10" = 15   $ IP Non-Tech
 "CDD_Day7" = 16   $ IP Non-Tech
 "CDD_Day8" = 20   $ IP Non-Tech
 "CDD_Day9" = 17   $ IP Non-Tech
 "CDD_HrHi10" = 13   $ IP Non-Tech
 "CDD_HrHi7" = 15   $ IP Non-Tech
 "CDD_HrHi8" = 14   $ IP Non-Tech
 "CDD_HrHi9" = 15   $ IP Non-Tech
 "CDD_HrLo10" = 3   $ IP Non-Tech
 "CDD_HrLo7" = 3   $ IP Non-Tech
 "CDD_HrLo8" = 1   $ IP Non-Tech
 "CDD_HrLo9" = 7   $ IP Non-Tech
 "CDD_WB10" = 63.1697731   $ IP Non-Tech
 "CDD_WB7" = 68.42946625   $ IP Non-Tech
 "CDD_WB8" = 67.10523987   $ IP Non-Tech
 "CDD_WB9" = 68.06200409   $ IP Non-Tech
 "CEIR_fPLR_Hot" = SpltAC2SpHiSEER_CEIR_fPLR_Hot   $ Msr (Multi)TechID: MsrNResSplitAC-45to55-S17
 "CEIR_fPLR_Mod" = SpltAC2SpHiSEER_CEIR_fPLR_Mod   $ Msr (Multi)TechID: MsrNResSplitAC-45to55-S17
 "CEIR_fPLR_Tem" = SpltAC2SpHiSEER_CEIR_fPLR_Tem   $ Msr (Multi)TechID: MsrNResSplitAC-45to55-S17
 "CLoss_fPLR_Hot" = SpltAC2SpHiSEER_CLoss_fPLR_Hot   $ Msr (Multi)TechID: MsrNResSplitAC-45to55-S17
 "CLoss_fPLR_Mod" = SpltAC2SpHiSEER_CLoss_fPLR_Mod   $ Msr (Multi)TechID: MsrNResSplitAC-45to55-S17
 "CLoss_fPLR_Tem" = SpltAC2SpHiSEER_CLoss_fPLR_Tem   $ Msr (Multi)TechID: MsrNResSplitAC-45to55-S17
 "COP47" = 0   $ Msr (Multi)TechID: MsrNResSplitAC-45to55-S17
 "CZ_Category" = Mod   $ IP Non-Tech
 "CapRange" = Any   $ Msr (Multi)TechID: MsrNResSplitAC-45to55-S17
 "CfmPerBtuh" = 0.03   $ Msr (Multi)TechID: MsrNResSplitAC-45to55-S17
 "ChwVintEconoFlag" = 1   $ IP Non-Tech
 "ClCap_fT" = SpltAC2SpHiSEER_ClCap_fT   $ Msr (Multi)TechID: MsrNResSplitAC-45to55-S17
 "ClSH_fT" = SpltAC2SpHiSEER_ClSH_fT   $ Msr (Multi)TechID: MsrNResSplitAC-45to55-S17
 "CoilBF" = 0.102   $ Msr (Multi)TechID: MsrNResSplitAC-45to55-S17
 "CondWPerBtuh" = 0   $ Msr (Multi)TechID: MsrNResSplitAC-45to55-S17
 "Conference_EWSF" = 1.15   $ IP Non-Tech
 "Conference_LWSF" = 1.4   $ IP Non-Tech
 "CoolSensCap" = 0.724   $ Msr (Multi)TechID: MsrNResSplitAC-45to55-S17
 "CoolSetT" = 45   $ IP Non-Tech
 "CoolType" = DX   $ IP Non-Tech
 "CoolingEIR" = 0.2225   $ Msr (Multi)TechID: MsrNResSplitAC-45to55-S17
 "CopyRoom_EWSF" = 1.725   $ IP Non-Tech
 "CopyRoom_LWSF" = 1.3   $ IP Non-Tech
 "CorridorStairway_EWSF" = 0.23   $ IP Non-Tech
 "CorridorStairway_LWSF" = 0.6   $ IP Non-Tech
 "CrnkEIR" = 0.002225   $ Msr (Multi)TechID: MsrNResSplitAC-45to55-S17
 "CrnkMaxT" = 50   $ Msr (Multi)TechID: MsrNResSplitAC-45to55-S17
 "DXType" = SplitSEER   $ Msr (Multi)TechID: MsrNResSplitAC-45to55-S17
 "DesCoolT" = 75   $ IP Non-Tech
 "DesHeatT" = 73   $ IP Non-Tech
 "EER" = 13.26   $ Msr (Multi)TechID: MsrNResSplitAC-45to55-S17
 "EIR_fT" = SpltAC2SpHiSEER_EIR_fT   $ Msr (Multi)TechID: MsrNResSplitAC-45to55-S17
 "EconoCtrl" = FIXED   $ Msr (Multi)TechID: MsrNResSplitAC-45to55-S17
 "EconoEnthLimit" = 28   $ IP Non-Tech
 "EconoTempLimit" = 73   $ IP Non-Tech
 "Elevation" = 135   $ IP Non-Tech
 "FanEirPlr" = TwoSpeedFan   $ Msr (Multi)TechID: MsrNResSplitAC-45to55-S17
 "FanWPerCfm" = 0.271   $ Msr (Multi)TechID: MsrNResSplitAC-45to55-S17
 "HDD_CloudAmt1" = 0   $ IP Non-Tech
 "HDD_DBHi1" = 57   $ IP Non-Tech
 "HDD_DBRange1" = 28.92485619   $ IP Non-Tech
 "HDD_Day1" = 15   $ IP Non-Tech
 "HDD_HrHi1" = 16   $ IP Non-Tech
 "HDD_HrLo1" = 4   $ IP Non-Tech
 "HDD_WB1" = 44.7   $ IP Non-Tech
 "HDD_WindSpd1" = 13.8   $ IP Non-Tech
 "HIR_fT" = 0   $ Msr (Multi)TechID: MsrNResSplitAC-45to55-S17
 "HSPF" = 0   $ Msr (Multi)TechID: MsrNResSplitAC-45to55-S17
 "HeatSrc" = FURNACE   $ IP Non-Tech
 "HeatSrcTU" = HEAT-PUMP   $ IP Non-Tech
 "HeatType" = GasFurn   $ IP Non-Tech
 "HeatTypeTU" = HEAT-PUMP   $ IP Non-Tech
 "HtCap_fT" = 0   $ Msr (Multi)TechID: MsrNResSplitAC-45to55-S17
 "HtCoolCapRatio" = 0   $ Msr (Multi)TechID: MsrNResSplitAC-45to55-S17
 "HtgEIR" = 0   $ Msr (Multi)TechID: MsrNResSplitAC-45to55-S17
 "IndoorFanMode" = CONTINUOUS   $ IP Non-Tech
 "KT_TransferAir" = No   $ IP Non-Tech
 "Latitude" = 37.4   $ IP Non-Tech
 "LobbyWaiting_EWSF" = 0.5375   $ IP Non-Tech
 "LobbyWaiting_LWSF" = 1.3   $ IP Non-Tech
 "Longitude" = 122   $ IP Non-Tech
 "LowSpdCapRatio" = 0.686   $ Msr (Multi)TechID: MsrNResSplitAC-45to55-S17
 "LowSpdCfmRatio" = 0.739   $ Msr (Multi)TechID: MsrNResSplitAC-45to55-S17
 "MZFanMechEff" = 0.58   $ IP Non-Tech
 "MZHasRetFan" = FALSE   $ IP Non-Tech
 "MZ_RFanWPerCfm" = 0.37   $ IP Non-Tech
 "MZ_SFanWPerCfm" = 0.71   $ IP Non-Tech
 "MZ_SupFanStatic" = 2.25   $ IP Non-Tech
 "MaxOAFrac" = 1   $ Msr (Multi)TechID: MsrNResSplitAC-45to55-S17
 "MaxSupT_MZ" = 100   $ IP Non-Tech
 "MaxSupT_SZ" = 100   $ IP Non-Tech
 "MaxSupT_TU" = 90   $ IP Non-Tech
 "MechElecRoom_EWSF" = 0.23   $ IP Non-Tech
 "MechElecRoom_LWSF" = 0.7   $ IP Non-Tech
 "MinCfmPerSF" = 0.4   $ IP Non-Tech
 "MinSupT" = 55   $ IP Non-Tech
 "NumStages" = 2   $ Msr (Multi)TechID: MsrNResSplitAC-45to55-S17
 "OccCoolT" = 76   $ IP Non-Tech
 "OccHeatT" = 72   $ IP Non-Tech
 "OfficeOpen_EWSF" = 1.725   $ IP Non-Tech
 "OfficeOpen_LWSF" = 1.2   $ IP Non-Tech
 "OfficeSmall_EWSF" = 1.725   $ IP Non-Tech
 "OfficeSmall_LWSF" = 1.3   $ IP Non-Tech
 "PkgDxVintEconoFlag" = 0   $ IP Non-Tech
 "Restroom_EWSF" = 0.23   $ IP Non-Tech
 "Restroom_LWSF" = 0.6   $ IP Non-Tech
 "SEER" = 17   $ Msr (Multi)TechID: MsrNResSplitAC-45to55-S17
 "SZFanMechEff" = 0.58   $ IP Non-Tech
 "SZHasRetFan" = FALSE   $ IP Non-Tech
 "SZ_Is_2Spd" = FALSE   $ IP Non-Tech
 "SZ_SFanWPerCfm" = 0.46   $ IP Non-Tech
 "SZ_SupFanStatic" = 0.75   $ IP Non-Tech
 "Sector" = Any   $ Msr (Multi)TechID: MsrNResSplitAC-45to55-S17
 "StorageSmlCond_EWSF" = 0.23   $ IP Non-Tech
 "StorageSmlCond_LWSF" = 0.6   $ IP Non-Tech
 "SubType" = AC   $ Msr (Multi)TechID: MsrNResSplitAC-45to55-S17
 "T24GlzTbl" = CZTbl   $ IP Non-Tech
 "TermUnitFanMechEff" = 1   $ IP Non-Tech
 "TermUnitFanMode" = INTERMITTENT   $ IP Non-Tech
 "TotCoolCap" = 58805   $ Msr (Multi)TechID: MsrNResSplitAC-45to55-S17
 "TwrSetpt" = 80   $ IP Non-Tech
 "UnocCoolT" = 86   $ IP Non-Tech
 "UnocHeatT" = 62   $ IP Non-Tech
 "UseEconoVintApplic" = FALSE   $ Msr (Multi)TechID: MsrNResSplitAC-45to55-S17
 "WlhpVintEconoFlag" = 0   $ IP Non-Tech
 "DuctDT" = 1   $ IP Tech: ComDuctInsul-1
 "DuctAirLoss" = 0   $ IP Tech: ComDuctLeak-0
 "DuctLossOAFrac" = 0   $ IP Tech: ComDuctLeak-0
 "ComRoofInsCalc" = FromUo   $ IP Tech: ComRoofIns-Hvy-0.06
 "ComRoofInsR" = -999   $ IP Tech: ComRoofIns-Hvy-0.06
 "ComRoofUo" = 0.06   $ IP Tech: ComRoofIns-Hvy-0.06
 "ComEWInsCalc" = FromUo   $ IP Tech: ComWallIns-MFrm-0.18
 "ComEWInsR" = -999   $ IP Tech: ComWallIns-MFrm-0.18
 "ComEWUo" = 0.18   $ IP Tech: ComWallIns-MFrm-0.18
 "ComN_SHGC" = 0.82   $ IP Tech: NResWin-ComN-1.23-0.82
 "ComN_UFactor" = 1.23   $ IP Tech: NResWin-ComN-1.23-0.82
 "ComN_VisTrans" = 0.9   $ IP Tech: NResWin-ComN-1.23-0.82
 "ComN_WinCode" = G1000   $ IP Tech: NResWin-ComN-1.23-0.82
 "ComN_WinFrmFrac" = 0.17   $ IP Tech: NResWin-ComN-1.23-0.82
 "ComN_WinFrmU" = 1   $ IP Tech: NResWin-ComN-1.23-0.82
 "ComO_SHGC" = 0.82   $ IP Tech: NResWin-ComO-1.23-0.82
 "ComO_UFactor" = 1.23   $ IP Tech: NResWin-ComO-1.23-0.82
 "ComO_VisTrans" = 0.9   $ IP Tech: NResWin-ComO-1.23-0.82
 "ComO_WinCode" = G1000   $ IP Tech: NResWin-ComO-1.23-0.82
 "ComO_WinFrmFrac" = 0.17   $ IP Tech: NResWin-ComO-1.23-0.82
 "ComO_WinFrmU" = 1   $ IP Tech: NResWin-ComO-1.23-0.82
 "LtgMsrApplic" = ALL   $ IP Tech: NonResLtgRefPre
 "LtgSav_CFL" = 0   $ IP Tech: NonResLtgRefPre
 "LtgSav_EX" = 0   $ IP Tech: NonResLtgRefPre
 "LtgSav_HB" = 0   $ IP Tech: NonResLtgRefPre
 "LtgSav_LF" = 0   $ IP Tech: NonResLtgRefPre
 "LtgSav_SP" = 0   $ IP Tech: NonResLtgRefPre
 "CEIR_fPLR" = PSZ65to135_CEIR_fPLR   $ IP Tech: PkgAC1SpH-65to135-E10
 "CLoss_fPLR" = PSZ65to135_CLoss_fPLR   $ IP Tech: PkgAC1SpH-65to135-E10
 "COP" = -1   $ IP Tech: PkgAC1SpH-65to135-E10
 "HtgFuel" = Gas   $ IP Tech: PkgAC1SpH-65to135-E10
 "IEER" = 11.87   $ IP Tech: PkgAC1SpH-65to135-E10
 "NominalCap" = 15   $ IP Tech: PkgAC1SpH-65to135-E10
 "RatedEER" = 10   $ IP Tech: PkgAC1SpH-65to135-E10
 "RatedSupMtrClass" = HiEff   $ IP Tech: PkgAC1SpH-65to135-E10
 "SizeRange" = 65to135   $ IP Tech: PkgAC1SpH-65to135-E10
 "SupMotEff" = 0.84   $ IP Tech: PkgAC1SpH-65to135-E10
 "Tier" = 0   $ IP Tech: PkgAC1SpH-65to135-E10
 "FanPwrMult" = 1   $ IP Tech: PkgFurn-0.80AFUE
 "FurnAFUE" = 0.8   $ IP Tech: PkgFurn-0.80AFUE
 "FurnEt" = 0.82   $ IP Tech: PkgFurn-0.80AFUE
 "FurnaceAuxKW" = 0.1   $ IP Tech: PkgFurn-0.80AFUE
 "HIR_fPLR" = Furnace-HIR-fPLR   $ IP Tech: PkgFurn-0.80AFUE
 "VSM" = FALSE   $ IP Tech: PkgFurn-0.80AFUE
 "BFMult" = 1   $ IP Tech: RefgChg-NRes-Std
 "CoolEirMult" = 1   $ IP Tech: RefgChg-NRes-Std
 "SensCoolCapMult" = 1   $ IP Tech: RefgChg-NRes-Std
 "TotCoolCapMult" = 1   $ IP Tech: RefgChg-NRes-Std
 "AltAdjFactor" = 1.005014   $ Sizing
 "CAssFlo_L_Break_CZn" = 454.1068   $ Sizing
 "CAssFlo_L_Conf_CZn" = 445.195   $ Sizing
 "CAssFlo_L_CopyRm_CZn" = 142.3033   $ Sizing
 "CAssFlo_L_Cordr_CZn" = 533.0577   $ Sizing
 "CAssFlo_L_Cordr_EZn" = 256.6114   $ Sizing
 "CAssFlo_L_Cordr_NZn" = 140.0845   $ Sizing
 "CAssFlo_L_Cordr_SZn" = 304.2926   $ Sizing
 "CAssFlo_L_Cordr_WZn" = 308.1245   $ Sizing
 "CAssFlo_L_LobWait_CZn" = 444.1475   $ Sizing
 "CAssFlo_L_MechElec_CZn" = 95.80023   $ Sizing
 "CAssFlo_L_OfficeOpn_CZn" = 1692.282   $ Sizing
 "CAssFlo_L_OfficeOpn_EZn" = 1936.805   $ Sizing
 "CAssFlo_L_OfficeOpn_NZn" = 1129.12   $ Sizing
 "CAssFlo_L_OfficeOpn_SZn" = 2186.33   $ Sizing
 "CAssFlo_L_OfficeOpn_WZn" = 2343.154   $ Sizing
 "CAssFlo_L_OfficeSm_CZn" = 211.0028   $ Sizing
 "CAssFlo_L_OfficeSm_EZn" = 1413.712   $ Sizing
 "CAssFlo_L_OfficeSm_NZn" = 742.3778   $ Sizing
 "CAssFlo_L_OfficeSm_SZn" = 1612.462   $ Sizing
 "CAssFlo_L_OfficeSm_WZn" = 1702.346   $ Sizing
 "CAssFlo_L_Restrm_CZn" = 81.28889   $ Sizing
 "CAssFlo_L_StorSm_CZn" = 293.8584   $ Sizing
 "CAssFlo_M_Break_CZn" = 458.2382   $ Sizing
 "CAssFlo_M_Conf_CZn" = 445.1681   $ Sizing
 "CAssFlo_M_CopyRm_CZn" = 143.5473   $ Sizing
 "CAssFlo_M_Cordr_CZn" = 690.699   $ Sizing
 "CAssFlo_M_Cordr_EZn" = 295.732   $ Sizing
 "CAssFlo_M_Cordr_NZn" = 164.336   $ Sizing
 "CAssFlo_M_Cordr_SZn" = 344.4938   $ Sizing
 "CAssFlo_M_Cordr_WZn" = 332.5799   $ Sizing
 "CAssFlo_M_LobWait_CZn" = 462.0753   $ Sizing
 "CAssFlo_M_MechElec_CZn" = 116.6908   $ Sizing
 "CAssFlo_M_OfficeOpn_CZn" = 1694.491   $ Sizing
 "CAssFlo_M_OfficeOpn_EZn" = 2073.77   $ Sizing
 "CAssFlo_M_OfficeOpn_NZn" = 1224.293   $ Sizing
 "CAssFlo_M_OfficeOpn_SZn" = 2374.694   $ Sizing
 "CAssFlo_M_OfficeOpn_WZn" = 2430.97   $ Sizing
 "CAssFlo_M_OfficeSm_CZn" = 228.3008   $ Sizing
 "CAssFlo_M_OfficeSm_EZn" = 1506.7   $ Sizing
 "CAssFlo_M_OfficeSm_NZn" = 804.1259   $ Sizing
 "CAssFlo_M_OfficeSm_SZn" = 1735.833   $ Sizing
 "CAssFlo_M_OfficeSm_WZn" = 1753.882   $ Sizing
 "CAssFlo_M_Restrm_CZn" = 88.83233   $ Sizing
 "CAssFlo_M_StorSm_CZn" = 313.3477   $ Sizing
 "CAssFlo_T_Break_CZn" = 450.9687   $ Sizing
 "CAssFlo_T_Conf_CZn" = 440.5793   $ Sizing
 "CAssFlo_T_CopyRm_CZn" = 139.2117   $ Sizing
 "CAssFlo_T_Cordr_CZn" = 643.9371   $ Sizing
 "CAssFlo_T_Cordr_EZn" = 286.5438   $ Sizing
 "CAssFlo_T_Cordr_NZn" = 162.5458   $ Sizing
 "CAssFlo_T_Cordr_SZn" = 334.6086   $ Sizing
 "CAssFlo_T_Cordr_WZn" = 320.7503   $ Sizing
 "CAssFlo_T_LobWait_CZn" = 457.9307   $ Sizing
 "CAssFlo_T_MechElec_CZn" = 134.9947   $ Sizing
 "CAssFlo_T_OfficeOpn_CZn" = 1715.177   $ Sizing
 "CAssFlo_T_OfficeOpn_EZn" = 2027.336   $ Sizing
 "CAssFlo_T_OfficeOpn_NZn" = 1232.253   $ Sizing
 "CAssFlo_T_OfficeOpn_SZn" = 2342.585   $ Sizing
 "CAssFlo_T_OfficeOpn_WZn" = 2343.457   $ Sizing
 "CAssFlo_T_OfficeSm_CZn" = 226.6689   $ Sizing
 "CAssFlo_T_OfficeSm_EZn" = 1514.047   $ Sizing
 "CAssFlo_T_OfficeSm_NZn" = 820.4901   $ Sizing
 "CAssFlo_T_OfficeSm_SZn" = 1741.701   $ Sizing
 "CAssFlo_T_OfficeSm_WZn" = 1727.839   $ Sizing
 "CAssFlo_T_Restrm_CZn" = 121.5321   $ Sizing
 "CAssFlo_T_StorSm_CZn" = 226.5013   $ Sizing
 "CHRtFlo_Sys_L_Break_C" = 454.1068   $ Sizing
 "CHRtFlo_Sys_L_Conf_C" = 465.3117   $ Sizing
 "CHRtFlo_Sys_L_CopyRm_C" = 142.3033   $ Sizing
 "CHRtFlo_Sys_L_Cordr_C" = 617.4223   $ Sizing
 "CHRtFlo_Sys_L_Cordr_E" = 329.4699   $ Sizing
 "CHRtFlo_Sys_L_Cordr_N" = 140.0845   $ Sizing
 "CHRtFlo_Sys_L_Cordr_S" = 359.7601   $ Sizing
 "CHRtFlo_Sys_L_Cordr_W" = 342.0101   $ Sizing
 "CHRtFlo_Sys_L_LobWait_C" = 444.1475   $ Sizing
 "CHRtFlo_Sys_L_MechElec_C" = 134.5466   $ Sizing
 "CHRtFlo_Sys_L_OfficeOpn_C" = 1843.126   $ Sizing
 "CHRtFlo_Sys_L_OfficeOpn_E" = 2523.25   $ Sizing
 "CHRtFlo_Sys_L_OfficeOpn_N" = 1201.641   $ Sizing
 "CHRtFlo_Sys_L_OfficeOpn_S" = 2670.901   $ Sizing
 "CHRtFlo_Sys_L_OfficeOpn_W" = 2647.572   $ Sizing
 "CHRtFlo_Sys_L_OfficeSm_C" = 250.914   $ Sizing
 "CHRtFlo_Sys_L_OfficeSm_E" = 1865.417   $ Sizing
 "CHRtFlo_Sys_L_OfficeSm_N" = 803.8276   $ Sizing
 "CHRtFlo_Sys_L_OfficeSm_S" = 2014.952   $ Sizing
 "CHRtFlo_Sys_L_OfficeSm_W" = 1959.252   $ Sizing
 "CHRtFlo_Sys_L_Restrm_C" = 211.3316   $ Sizing
 "CHRtFlo_Sys_L_StorSm_C" = 403.3856   $ Sizing
 "CHRtFlo_Sys_M_Break_C" = 3665.905   $ Sizing
 "CHRtFlo_Sys_M_Conf_C" = 4182.47   $ Sizing
 "CHRtFlo_Sys_M_CopyRm_C" = 1238.321   $ Sizing
 "CHRtFlo_Sys_M_Cordr_C" = 7794.73   $ Sizing
 "CHRtFlo_Sys_M_Cordr_E" = 3024.574   $ Sizing
 "CHRtFlo_Sys_M_Cordr_N" = 1364.123   $ Sizing
 "CHRtFlo_Sys_M_Cordr_S" = 3325.358   $ Sizing
 "CHRtFlo_Sys_M_Cordr_W" = 3040.335   $ Sizing
 "CHRtFlo_Sys_M_LobWait_C" = 4286.185   $ Sizing
 "CHRtFlo_Sys_M_MechElec_C" = 1401.657   $ Sizing
 "CHRtFlo_Sys_M_OfficeOpn_C" = 17531.25   $ Sizing
 "CHRtFlo_Sys_M_OfficeOpn_E" = 21455.73   $ Sizing
 "CHRtFlo_Sys_M_OfficeOpn_N" = 10598.75   $ Sizing
 "CHRtFlo_Sys_M_OfficeOpn_S" = 23529.76   $ Sizing
 "CHRtFlo_Sys_M_OfficeOpn_W" = 22110.46   $ Sizing
 "CHRtFlo_Sys_M_OfficeSm_C" = 2500.371   $ Sizing
 "CHRtFlo_Sys_M_OfficeSm_E" = 15751.02   $ Sizing
 "CHRtFlo_Sys_M_OfficeSm_N" = 7070.745   $ Sizing
 "CHRtFlo_Sys_M_OfficeSm_S" = 17612.7   $ Sizing
 "CHRtFlo_Sys_M_OfficeSm_W" = 16513.14   $ Sizing
 "CHRtFlo_Sys_M_Restrm_C" = 1690.653   $ Sizing
 "CHRtFlo_Sys_M_StorSm_C" = 3533.545   $ Sizing
 "CHRtFlo_Sys_T_Break_C" = 450.9688   $ Sizing
 "CHRtFlo_Sys_T_Conf_C" = 481.1934   $ Sizing
 "CHRtFlo_Sys_T_CopyRm_C" = 139.2117   $ Sizing
 "CHRtFlo_Sys_T_Cordr_C" = 808.6746   $ Sizing
 "CHRtFlo_Sys_T_Cordr_E" = 333.7425   $ Sizing
 "CHRtFlo_Sys_T_Cordr_N" = 162.5458   $ Sizing
 "CHRtFlo_Sys_T_Cordr_S" = 372.5092   $ Sizing
 "CHRtFlo_Sys_T_Cordr_W" = 338.1629   $ Sizing
 "CHRtFlo_Sys_T_LobWait_C" = 474.8582   $ Sizing
 "CHRtFlo_Sys_T_MechElec_C" = 200.3736   $ Sizing
 "CHRtFlo_Sys_T_OfficeOpn_C" = 1898.634   $ Sizing
 "CHRtFlo_Sys_T_OfficeOpn_E" = 2437.175   $ Sizing
 "CHRtFlo_Sys_T_OfficeOpn_N" = 1232.253   $ Sizing
 "CHRtFlo_Sys_T_OfficeOpn_S" = 2711.49   $ Sizing
 "CHRtFlo_Sys_T_OfficeOpn_W" = 2516.136   $ Sizing
 "CHRtFlo_Sys_T_OfficeSm_C" = 286.7026   $ Sizing
 "CHRtFlo_Sys_T_OfficeSm_E" = 1847.964   $ Sizing
 "CHRtFlo_Sys_T_OfficeSm_N" = 835.0554   $ Sizing
 "CHRtFlo_Sys_T_OfficeSm_S" = 2083.549   $ Sizing
 "CHRtFlo_Sys_T_OfficeSm_W" = 1936.51   $ Sizing
 "CHRtFlo_Sys_T_Restrm_C" = 211.3316   $ Sizing
 "CHRtFlo_Sys_T_StorSm_C" = 333.2543   $ Sizing
 "CRtdFlo_Sys_L_Break_C" = 454.1068   $ Sizing
 "CRtdFlo_Sys_L_Conf_C" = 445.195   $ Sizing
 "CRtdFlo_Sys_L_CopyRm_C" = 142.3033   $ Sizing
 "CRtdFlo_Sys_L_Cordr_C" = 533.0577   $ Sizing
 "CRtdFlo_Sys_L_Cordr_E" = 256.6114   $ Sizing
 "CRtdFlo_Sys_L_Cordr_N" = 140.0845   $ Sizing
 "CRtdFlo_Sys_L_Cordr_S" = 304.2926   $ Sizing
 "CRtdFlo_Sys_L_Cordr_W" = 308.1245   $ Sizing
 "CRtdFlo_Sys_L_LobWait_C" = 444.1475   $ Sizing
 "CRtdFlo_Sys_L_MechElec_C" = 95.80022   $ Sizing
 "CRtdFlo_Sys_L_OfficeOpn_C" = 1692.282   $ Sizing
 "CRtdFlo_Sys_L_OfficeOpn_E" = 1936.805   $ Sizing
 "CRtdFlo_Sys_L_OfficeOpn_N" = 1129.12   $ Sizing
 "CRtdFlo_Sys_L_OfficeOpn_S" = 2186.33   $ Sizing
 "CRtdFlo_Sys_L_OfficeOpn_W" = 2343.154   $ Sizing
 "CRtdFlo_Sys_L_OfficeSm_C" = 211.0029   $ Sizing
 "CRtdFlo_Sys_L_OfficeSm_E" = 1413.712   $ Sizing
 "CRtdFlo_Sys_L_OfficeSm_N" = 742.3778   $ Sizing
 "CRtdFlo_Sys_L_OfficeSm_S" = 1612.462   $ Sizing
 "CRtdFlo_Sys_L_OfficeSm_W" = 1702.346   $ Sizing
 "CRtdFlo_Sys_L_Restrm_C" = 81.28889   $ Sizing
 "CRtdFlo_Sys_L_StorSm_C" = 293.8584   $ Sizing
 "CRtdFlo_Sys_M_Break_C" = 3665.905   $ Sizing
 "CRtdFlo_Sys_M_Conf_C" = 3561.345   $ Sizing
 "CRtdFlo_Sys_M_CopyRm_C" = 1148.378   $ Sizing
 "CRtdFlo_Sys_M_Cordr_C" = 5525.592   $ Sizing
 "CRtdFlo_Sys_M_Cordr_E" = 2365.856   $ Sizing
 "CRtdFlo_Sys_M_Cordr_N" = 1314.688   $ Sizing
 "CRtdFlo_Sys_M_Cordr_S" = 2755.951   $ Sizing
 "CRtdFlo_Sys_M_Cordr_W" = 2660.639   $ Sizing
 "CRtdFlo_Sys_M_LobWait_C" = 3696.602   $ Sizing
 "CRtdFlo_Sys_M_MechElec_C" = 933.5266   $ Sizing
 "CRtdFlo_Sys_M_OfficeOpn_C" = 13555.92   $ Sizing
 "CRtdFlo_Sys_M_OfficeOpn_E" = 16590.16   $ Sizing
 "CRtdFlo_Sys_M_OfficeOpn_N" = 9794.342   $ Sizing
 "CRtdFlo_Sys_M_OfficeOpn_S" = 18997.55   $ Sizing
 "CRtdFlo_Sys_M_OfficeOpn_W" = 19447.76   $ Sizing
 "CRtdFlo_Sys_M_OfficeSm_C" = 1826.406   $ Sizing
 "CRtdFlo_Sys_M_OfficeSm_E" = 12053.6   $ Sizing
 "CRtdFlo_Sys_M_OfficeSm_N" = 6433.007   $ Sizing
 "CRtdFlo_Sys_M_OfficeSm_S" = 13886.66   $ Sizing
 "CRtdFlo_Sys_M_OfficeSm_W" = 14031.06   $ Sizing
 "CRtdFlo_Sys_M_Restrm_C" = 710.6586   $ Sizing
 "CRtdFlo_Sys_M_StorSm_C" = 2506.782   $ Sizing
 "CRtdFlo_Sys_T_Break_C" = 450.9688   $ Sizing
 "CRtdFlo_Sys_T_Conf_C" = 440.5793   $ Sizing
 "CRtdFlo_Sys_T_CopyRm_C" = 139.2117   $ Sizing
 "CRtdFlo_Sys_T_Cordr_C" = 643.9371   $ Sizing
 "CRtdFlo_Sys_T_Cordr_E" = 286.5438   $ Sizing
 "CRtdFlo_Sys_T_Cordr_N" = 162.5458   $ Sizing
 "CRtdFlo_Sys_T_Cordr_S" = 334.6086   $ Sizing
 "CRtdFlo_Sys_T_Cordr_W" = 320.7503   $ Sizing
 "CRtdFlo_Sys_T_LobWait_C" = 457.9307   $ Sizing
 "CRtdFlo_Sys_T_MechElec_C" = 134.9947   $ Sizing
 "CRtdFlo_Sys_T_OfficeOpn_C" = 1715.177   $ Sizing
 "CRtdFlo_Sys_T_OfficeOpn_E" = 2027.336   $ Sizing
 "CRtdFlo_Sys_T_OfficeOpn_N" = 1232.253   $ Sizing
 "CRtdFlo_Sys_T_OfficeOpn_S" = 2342.585   $ Sizing
 "CRtdFlo_Sys_T_OfficeOpn_W" = 2343.457   $ Sizing
 "CRtdFlo_Sys_T_OfficeSm_C" = 226.6689   $ Sizing
 "CRtdFlo_Sys_T_OfficeSm_E" = 1514.047   $ Sizing
 "CRtdFlo_Sys_T_OfficeSm_N" = 820.4901   $ Sizing
 "CRtdFlo_Sys_T_OfficeSm_S" = 1741.701   $ Sizing
 "CRtdFlo_Sys_T_OfficeSm_W" = 1727.839   $ Sizing
 "CRtdFlo_Sys_T_Restrm_C" = 121.5321   $ Sizing
 "CRtdFlo_Sys_T_StorSm_C" = 226.5013   $ Sizing
 "CSupFlo_Sys_L_Break_C" = 454.1068   $ Sizing
 "CSupFlo_Sys_L_Conf_C" = 445.195   $ Sizing
 "CSupFlo_Sys_L_CopyRm_C" = 142.3033   $ Sizing
 "CSupFlo_Sys_L_Cordr_C" = 533.0577   $ Sizing
 "CSupFlo_Sys_L_Cordr_E" = 256.6114   $ Sizing
 "CSupFlo_Sys_L_Cordr_N" = 140.0845   $ Sizing
 "CSupFlo_Sys_L_Cordr_S" = 304.2926   $ Sizing
 "CSupFlo_Sys_L_Cordr_W" = 308.1245   $ Sizing
 "CSupFlo_Sys_L_LobWait_C" = 444.1475   $ Sizing
 "CSupFlo_Sys_L_MechElec_C" = 95.80022   $ Sizing
 "CSupFlo_Sys_L_OfficeOpn_C" = 1692.282   $ Sizing
 "CSupFlo_Sys_L_OfficeOpn_E" = 1936.805   $ Sizing
 "CSupFlo_Sys_L_OfficeOpn_N" = 1129.12   $ Sizing
 "CSupFlo_Sys_L_OfficeOpn_S" = 2186.33   $ Sizing
 "CSupFlo_Sys_L_OfficeOpn_W" = 2343.154   $ Sizing
 "CSupFlo_Sys_L_OfficeSm_C" = 211.0029   $ Sizing
 "CSupFlo_Sys_L_OfficeSm_E" = 1413.712   $ Sizing
 "CSupFlo_Sys_L_OfficeSm_N" = 742.3778   $ Sizing
 "CSupFlo_Sys_L_OfficeSm_S" = 1612.462   $ Sizing
 "CSupFlo_Sys_L_OfficeSm_W" = 1702.346   $ Sizing
 "CSupFlo_Sys_L_Restrm_C" = 81.28889   $ Sizing
 "CSupFlo_Sys_L_StorSm_C" = 293.8584   $ Sizing
 "CSupFlo_Sys_M_Break_C" = 3665.905   $ Sizing
 "CSupFlo_Sys_M_Conf_C" = 3561.345   $ Sizing
 "CSupFlo_Sys_M_CopyRm_C" = 1148.378   $ Sizing
 "CSupFlo_Sys_M_Cordr_C" = 5525.592   $ Sizing
 "CSupFlo_Sys_M_Cordr_E" = 2365.856   $ Sizing
 "CSupFlo_Sys_M_Cordr_N" = 1314.688   $ Sizing
 "CSupFlo_Sys_M_Cordr_S" = 2755.951   $ Sizing
 "CSupFlo_Sys_M_Cordr_W" = 2660.639   $ Sizing
 "CSupFlo_Sys_M_LobWait_C" = 3696.602   $ Sizing
 "CSupFlo_Sys_M_MechElec_C" = 933.5266   $ Sizing
 "CSupFlo_Sys_M_OfficeOpn_C" = 13555.92   $ Sizing
 "CSupFlo_Sys_M_OfficeOpn_E" = 16590.16   $ Sizing
 "CSupFlo_Sys_M_OfficeOpn_N" = 9794.342   $ Sizing
 "CSupFlo_Sys_M_OfficeOpn_S" = 18997.55   $ Sizing
 "CSupFlo_Sys_M_OfficeOpn_W" = 19447.76   $ Sizing
 "CSupFlo_Sys_M_OfficeSm_C" = 1826.406   $ Sizing
 "CSupFlo_Sys_M_OfficeSm_E" = 12053.6   $ Sizing
 "CSupFlo_Sys_M_OfficeSm_N" = 6433.007   $ Sizing
 "CSupFlo_Sys_M_OfficeSm_S" = 13886.66   $ Sizing
 "CSupFlo_Sys_M_OfficeSm_W" = 14031.06   $ Sizing
 "CSupFlo_Sys_M_Restrm_C" = 710.6586   $ Sizing
 "CSupFlo_Sys_M_StorSm_C" = 2506.782   $ Sizing
 "CSupFlo_Sys_T_Break_C" = 450.9688   $ Sizing
 "CSupFlo_Sys_T_Conf_C" = 440.5793   $ Sizing
 "CSupFlo_Sys_T_CopyRm_C" = 139.2117   $ Sizing
 "CSupFlo_Sys_T_Cordr_C" = 643.9371   $ Sizing
 "CSupFlo_Sys_T_Cordr_E" = 286.5438   $ Sizing
 "CSupFlo_Sys_T_Cordr_N" = 162.5458   $ Sizing
 "CSupFlo_Sys_T_Cordr_S" = 334.6086   $ Sizing
 "CSupFlo_Sys_T_Cordr_W" = 320.7503   $ Sizing
 "CSupFlo_Sys_T_LobWait_C" = 457.9307   $ Sizing
 "CSupFlo_Sys_T_MechElec_C" = 134.9947   $ Sizing
 "CSupFlo_Sys_T_OfficeOpn_C" = 1715.177   $ Sizing
 "CSupFlo_Sys_T_OfficeOpn_E" = 2027.336   $ Sizing
 "CSupFlo_Sys_T_OfficeOpn_N" = 1232.253   $ Sizing
 "CSupFlo_Sys_T_OfficeOpn_S" = 2342.585   $ Sizing
 "CSupFlo_Sys_T_OfficeOpn_W" = 2343.457   $ Sizing
 "CSupFlo_Sys_T_OfficeSm_C" = 226.6689   $ Sizing
 "CSupFlo_Sys_T_OfficeSm_E" = 1514.047   $ Sizing
 "CSupFlo_Sys_T_OfficeSm_N" = 820.4901   $ Sizing
 "CSupFlo_Sys_T_OfficeSm_S" = 1741.701   $ Sizing
 "CSupFlo_Sys_T_OfficeSm_W" = 1727.839   $ Sizing
 "CSupFlo_Sys_T_Restrm_C" = 121.5321   $ Sizing
 "CSupFlo_Sys_T_StorSm_C" = 226.5013   $ Sizing
 "ClCap_Sys_L_Break_C" = 15491.7   $ Sizing
 "ClCap_Sys_L_Conf_C" = 19329.77   $ Sizing
 "ClCap_Sys_L_CopyRm_C" = 4854.63   $ Sizing
 "ClCap_Sys_L_Cordr_C" = 18185.09   $ Sizing
 "ClCap_Sys_L_Cordr_E" = 8754.212   $ Sizing
 "ClCap_Sys_L_Cordr_N" = 4778.936   $ Sizing
 "ClCap_Sys_L_Cordr_S" = 10380.84   $ Sizing
 "ClCap_Sys_L_Cordr_W" = 10511.56   $ Sizing
 "ClCap_Sys_L_LobWait_C" = 15151.94   $ Sizing
 "ClCap_Sys_L_MechElec_C" = 3268.193   $ Sizing
 "ClCap_Sys_L_OfficeOpn_C" = 57731.64   $ Sizing
 "ClCap_Sys_L_OfficeOpn_E" = 66073.45   $ Sizing
 "ClCap_Sys_L_OfficeOpn_N" = 38519.54   $ Sizing
 "ClCap_Sys_L_OfficeOpn_S" = 74585.91   $ Sizing
 "ClCap_Sys_L_OfficeOpn_W" = 79935.9   $ Sizing
 "ClCap_Sys_L_OfficeSm_C" = 7198.292   $ Sizing
 "ClCap_Sys_L_OfficeSm_E" = 48228.32   $ Sizing
 "ClCap_Sys_L_OfficeSm_N" = 25325.97   $ Sizing
 "ClCap_Sys_L_OfficeSm_S" = 55008.61   $ Sizing
 "ClCap_Sys_L_OfficeSm_W" = 58074.98   $ Sizing
 "ClCap_Sys_L_Restrm_C" = 2773.143   $ Sizing
 "ClCap_Sys_L_StorSm_C" = 10024.88   $ Sizing
 "ClCap_Sys_M_Break_C" = 125061.1   $ Sizing
 "ClCap_Sys_M_Conf_C" = 154628.8   $ Sizing
 "ClCap_Sys_M_CopyRm_C" = 39176.54   $ Sizing
 "ClCap_Sys_M_Cordr_C" = 188503.7   $ Sizing
 "ClCap_Sys_M_Cordr_E" = 80710.38   $ Sizing
 "ClCap_Sys_M_Cordr_N" = 44850.13   $ Sizing
 "ClCap_Sys_M_Cordr_S" = 94018.34   $ Sizing
 "ClCap_Sys_M_Cordr_W" = 90766.82   $ Sizing
 "ClCap_Sys_M_LobWait_C" = 126108.4   $ Sizing
 "ClCap_Sys_M_MechElec_C" = 31846.95   $ Sizing
 "ClCap_Sys_M_OfficeOpn_C" = 462455.8   $ Sizing
 "ClCap_Sys_M_OfficeOpn_E" = 565967.7   $ Sizing
 "ClCap_Sys_M_OfficeOpn_N" = 334130.7   $ Sizing
 "ClCap_Sys_M_OfficeOpn_S" = 648095   $ Sizing
 "ClCap_Sys_M_OfficeOpn_W" = 663453.9   $ Sizing
 "ClCap_Sys_M_OfficeSm_C" = 62307.24   $ Sizing
 "ClCap_Sys_M_OfficeSm_E" = 411204.4   $ Sizing
 "ClCap_Sys_M_OfficeSm_N" = 219459.9   $ Sizing
 "ClCap_Sys_M_OfficeSm_S" = 473738.9   $ Sizing
 "ClCap_Sys_M_OfficeSm_W" = 478664.8   $ Sizing
 "ClCap_Sys_M_Restrm_C" = 24243.88   $ Sizing
 "ClCap_Sys_M_StorSm_C" = 85518.02   $ Sizing
 "ClCap_Sys_T_Break_C" = 15384.65   $ Sizing
 "ClCap_Sys_T_Conf_C" = 19129.37   $ Sizing
 "ClCap_Sys_T_CopyRm_C" = 4749.161   $ Sizing
 "ClCap_Sys_T_Cordr_C" = 21967.7   $ Sizing
 "ClCap_Sys_T_Cordr_E" = 9775.347   $ Sizing
 "ClCap_Sys_T_Cordr_N" = 5545.195   $ Sizing
 "ClCap_Sys_T_Cordr_S" = 11415.06   $ Sizing
 "ClCap_Sys_T_Cordr_W" = 10942.29   $ Sizing
 "ClCap_Sys_T_LobWait_C" = 15622.15   $ Sizing
 "ClCap_Sys_T_MechElec_C" = 4605.3   $ Sizing
 "ClCap_Sys_T_OfficeOpn_C" = 58512.71   $ Sizing
 "ClCap_Sys_T_OfficeOpn_E" = 69161.9   $ Sizing
 "ClCap_Sys_T_OfficeOpn_N" = 42037.9   $ Sizing
 "ClCap_Sys_T_OfficeOpn_S" = 79916.52   $ Sizing
 "ClCap_Sys_T_OfficeOpn_W" = 79946.26   $ Sizing
 "ClCap_Sys_T_OfficeSm_C" = 7732.734   $ Sizing
 "ClCap_Sys_T_OfficeSm_E" = 51651.22   $ Sizing
 "ClCap_Sys_T_OfficeSm_N" = 27990.74   $ Sizing
 "ClCap_Sys_T_OfficeSm_S" = 59417.54   $ Sizing
 "ClCap_Sys_T_OfficeSm_W" = 58944.64   $ Sizing
 "ClCap_Sys_T_Restrm_C" = 4146.027   $ Sizing
 "ClCap_Sys_T_StorSm_C" = 7727.015   $ Sizing
 "HtCap_Sys_L_Break_C" = -26386.45   $ Sizing
 "HtCap_Sys_L_Conf_C" = -27813.21   $ Sizing
 "HtCap_Sys_L_CopyRm_C" = -9275.535   $ Sizing
 "HtCap_Sys_L_Cordr_C" = -28715.29   $ Sizing
 "HtCap_Sys_L_Cordr_E" = -11614.51   $ Sizing
 "HtCap_Sys_L_Cordr_N" = -6019.902   $ Sizing
 "HtCap_Sys_L_Cordr_S" = -12322.54   $ Sizing
 "HtCap_Sys_L_Cordr_W" = -11968.31   $ Sizing
 "HtCap_Sys_L_LobWait_C" = -25257.66   $ Sizing
 "HtCap_Sys_L_MechElec_C" = -6357.309   $ Sizing
 "HtCap_Sys_L_OfficeOpn_C" = -89890.66   $ Sizing
 "HtCap_Sys_L_OfficeOpn_E" = -83922.91   $ Sizing
 "HtCap_Sys_L_OfficeOpn_N" = -46191.03   $ Sizing
 "HtCap_Sys_L_OfficeOpn_S" = -87655.88   $ Sizing
 "HtCap_Sys_L_OfficeOpn_W" = -88168.8   $ Sizing
 "HtCap_Sys_L_OfficeSm_C" = -10196.96   $ Sizing
 "HtCap_Sys_L_OfficeSm_E" = -63377.54   $ Sizing
 "HtCap_Sys_L_OfficeSm_N" = -30732.64   $ Sizing
 "HtCap_Sys_L_OfficeSm_S" = -66970.58   $ Sizing
 "HtCap_Sys_L_OfficeSm_W" = -66462.32   $ Sizing
 "HtCap_Sys_L_Restrm_C" = -7836.531   $ Sizing
 "HtCap_Sys_L_StorSm_C" = -18358.35   $ Sizing
 "HtCap_Sys_M_Break_C" = -203260.3   $ Sizing
 "HtCap_Sys_M_Conf_C" = -235938.6   $ Sizing
 "HtCap_Sys_M_CopyRm_C" = -71609.89   $ Sizing
 "HtCap_Sys_M_Cordr_C" = -312106.3   $ Sizing
 "HtCap_Sys_M_Cordr_E" = -103912.5   $ Sizing
 "HtCap_Sys_M_Cordr_N" = -55260.73   $ Sizing
 "HtCap_Sys_M_Cordr_S" = -110936.7   $ Sizing
 "HtCap_Sys_M_Cordr_W" = -104223.5   $ Sizing
 "HtCap_Sys_M_LobWait_C" = -215216.3   $ Sizing
 "HtCap_Sys_M_MechElec_C" = -59980.12   $ Sizing
 "HtCap_Sys_M_OfficeOpn_C" = -672702.4   $ Sizing
 "HtCap_Sys_M_OfficeOpn_E" = -710696.5   $ Sizing
 "HtCap_Sys_M_OfficeOpn_N" = -397574.4   $ Sizing
 "HtCap_Sys_M_OfficeOpn_S" = -759894.6   $ Sizing
 "HtCap_Sys_M_OfficeOpn_W" = -730122.8   $ Sizing
 "HtCap_Sys_M_OfficeSm_C" = -95815.08   $ Sizing
 "HtCap_Sys_M_OfficeSm_E" = -531704.6   $ Sizing
 "HtCap_Sys_M_OfficeSm_N" = -264027.7   $ Sizing
 "HtCap_Sys_M_OfficeSm_S" = -581466.8   $ Sizing
 "HtCap_Sys_M_OfficeSm_W" = -556450.9   $ Sizing
 "HtCap_Sys_M_Restrm_C" = -67713.3   $ Sizing
 "HtCap_Sys_M_StorSm_C" = -150479.5   $ Sizing
 "HtCap_Sys_T_Break_C" = -26843.26   $ Sizing
 "HtCap_Sys_T_Conf_C" = -29091.78   $ Sizing
 "HtCap_Sys_T_CopyRm_C" = -8977.185   $ Sizing
 "HtCap_Sys_T_Cordr_C" = -38055.11   $ Sizing
 "HtCap_Sys_T_Cordr_E" = -13325.33   $ Sizing
 "HtCap_Sys_T_Cordr_N" = -7568.145   $ Sizing
 "HtCap_Sys_T_Cordr_S" = -14470.97   $ Sizing
 "HtCap_Sys_T_Cordr_W" = -13472.73   $ Sizing
 "HtCap_Sys_T_LobWait_C" = -26438.52   $ Sizing
 "HtCap_Sys_T_MechElec_C" = -8205.827   $ Sizing
 "HtCap_Sys_T_OfficeOpn_C" = -84732.42   $ Sizing
 "HtCap_Sys_T_OfficeOpn_E" = -91032.66   $ Sizing
 "HtCap_Sys_T_OfficeOpn_N" = -53109.12   $ Sizing
 "HtCap_Sys_T_OfficeOpn_S" = -99634.29   $ Sizing
 "HtCap_Sys_T_OfficeOpn_W" = -94195.52   $ Sizing
 "HtCap_Sys_T_OfficeSm_C" = -12431.04   $ Sizing
 "HtCap_Sys_T_OfficeSm_E" = -70017   $ Sizing
 "HtCap_Sys_T_OfficeSm_N" = -35384.16   $ Sizing
 "HtCap_Sys_T_OfficeSm_S" = -76735.06   $ Sizing
 "HtCap_Sys_T_OfficeSm_W" = -71766.36   $ Sizing
 "HtCap_Sys_T_Restrm_C" = -8918.433   $ Sizing
 "HtCap_Sys_T_StorSm_C" = -17945.84   $ Sizing
..

##include Templates\OfL_DX_SZ.inp
END ..
COMPUTE ..
STOP ..
