INPUT ..

##fileprefix C:\Users\jglasskatz\MASControl3\
##set1 IsSizing TRUE
##set1 CoolType DX
##set1 HeatType HEAT-PUMP
##set1 EU_HrRepVar 1
##set1 BldgVint New
##set1 BldgLoc CZ01

 ##set1 mBFMult 1   $ IP Tech: RefgChg-NRes-Std

PARAMETER
 "AltFactor" = 1.00753   $ IP Non-Tech
 "BldgEconoFlag" = 1   $ IP Non-Tech
 "Break_EWSF" = 1   $ IP Non-Tech
 "Break_LWSF" = 0.65   $ IP Non-Tech
 "CDD_DBHi10" = 65   $ IP Non-Tech
 "CDD_DBHi7" = 68   $ IP Non-Tech
 "CDD_DBHi8" = 66   $ IP Non-Tech
 "CDD_DBHi9" = 77   $ IP Non-Tech
 "CDD_DBRange10" = 17   $ IP Non-Tech
 "CDD_DBRange7" = 11   $ IP Non-Tech
 "CDD_DBRange8" = 10   $ IP Non-Tech
 "CDD_DBRange9" = 29   $ IP Non-Tech
 "CDD_Day10" = 15   $ IP Non-Tech
 "CDD_Day7" = 16   $ IP Non-Tech
 "CDD_Day8" = 20   $ IP Non-Tech
 "CDD_Day9" = 17   $ IP Non-Tech
 "CDD_HrHi10" = 12   $ IP Non-Tech
 "CDD_HrHi7" = 12   $ IP Non-Tech
 "CDD_HrHi8" = 13   $ IP Non-Tech
 "CDD_HrHi9" = 17   $ IP Non-Tech
 "CDD_HrLo10" = 6   $ IP Non-Tech
 "CDD_HrLo7" = 3   $ IP Non-Tech
 "CDD_HrLo8" = 8   $ IP Non-Tech
 "CDD_HrLo9" = 4   $ IP Non-Tech
 "CDD_WB10" = 57.53039551   $ IP Non-Tech
 "CDD_WB7" = 59.29250717   $ IP Non-Tech
 "CDD_WB8" = 60.75350189   $ IP Non-Tech
 "CDD_WB9" = 61.08643341   $ IP Non-Tech
 "CZ_Category" = Tem   $ IP Non-Tech
 "ChwVintEconoFlag" = 1   $ IP Non-Tech
 "Conference_EWSF" = 1   $ IP Non-Tech
 "Conference_LWSF" = 0.85   $ IP Non-Tech
 "CoolSetT" = 45   $ IP Non-Tech
 "CoolType" = DX   $ IP Non-Tech
 "CopyRoom_EWSF" = 1.5   $ IP Non-Tech
 "CopyRoom_LWSF" = 0.5   $ IP Non-Tech
 "CorridorStairway_EWSF" = 0.2   $ IP Non-Tech
 "CorridorStairway_LWSF" = 0.55   $ IP Non-Tech
 "DesCoolT" = 75   $ IP Non-Tech
 "DesHeatT" = 73   $ IP Non-Tech
 "EconoEnthLimit" = 28   $ IP Non-Tech
 "EconoTempLimit" = 70   $ IP Non-Tech
 "Elevation" = 203   $ IP Non-Tech
 "HDD_CloudAmt1" = 0   $ IP Non-Tech
 "HDD_DBHi1" = 53   $ IP Non-Tech
 "HDD_DBRange1" = 20   $ IP Non-Tech
 "HDD_Day1" = 15   $ IP Non-Tech
 "HDD_HrHi1" = 14   $ IP Non-Tech
 "HDD_HrLo1" = 6   $ IP Non-Tech
 "HDD_WB1" = 42.3   $ IP Non-Tech
 "HDD_WindSpd1" = 12.7   $ IP Non-Tech
 "HeatSrc" = HEAT-PUMP   $ IP Non-Tech
 "HeatSrcTU" = HEAT-PUMP   $ IP Non-Tech
 "HeatType" = HP   $ IP Non-Tech
 "HeatTypeTU" = HEAT-PUMP   $ IP Non-Tech
 "IndoorFanMode" = CONTINUOUS   $ IP Non-Tech
 "KT_TransferAir" = Yes   $ IP Non-Tech
 "Latitude" = 40.8   $ IP Non-Tech
 "LobbyWaiting_EWSF" = 0.5   $ IP Non-Tech
 "LobbyWaiting_LWSF" = 0.75   $ IP Non-Tech
 "Longitude" = 124.2   $ IP Non-Tech
 "LtgMsrApplic" = ALL   $ Msr TechID: NonResLtgRefMsr-CFL
 "LtgSav_CFL" = 0.3   $ Msr TechID: NonResLtgRefMsr-CFL
 "LtgSav_EX" = 0   $ Msr TechID: NonResLtgRefMsr-CFL
 "LtgSav_HB" = 0   $ Msr TechID: NonResLtgRefMsr-CFL
 "LtgSav_LF" = 0   $ Msr TechID: NonResLtgRefMsr-CFL
 "LtgSav_SP" = 0   $ Msr TechID: NonResLtgRefMsr-CFL
 "MZFanMechEff" = 0.58   $ IP Non-Tech
 "MZHasRetFan" = FALSE   $ IP Non-Tech
 "MZ_RFanWPerCfm" = 0.37   $ IP Non-Tech
 "MZ_SFanWPerCfm" = 0.71   $ IP Non-Tech
 "MZ_SupFanStatic" = 2.25   $ IP Non-Tech
 "MaxSupT_MZ" = 90   $ IP Non-Tech
 "MaxSupT_SZ" = 90   $ IP Non-Tech
 "MaxSupT_TU" = 90   $ IP Non-Tech
 "MechElecRoom_EWSF" = 0.2   $ IP Non-Tech
 "MechElecRoom_LWSF" = 0.4   $ IP Non-Tech
 "MinCfmPerSF" = 0.4   $ IP Non-Tech
 "MinSupT" = 55   $ IP Non-Tech
 "OccCoolT" = 76   $ IP Non-Tech
 "OccHeatT" = 72   $ IP Non-Tech
 "OfficeOpen_EWSF" = 1.5   $ IP Non-Tech
 "OfficeOpen_LWSF" = 0.8   $ IP Non-Tech
 "OfficeSmall_EWSF" = 1.5   $ IP Non-Tech
 "OfficeSmall_LWSF" = 0.9   $ IP Non-Tech
 "PkgDxVintEconoFlag" = 1   $ IP Non-Tech
 "Restroom_EWSF" = 0.2   $ IP Non-Tech
 "Restroom_LWSF" = 0.65   $ IP Non-Tech
 "SZFanMechEff" = 0.58   $ IP Non-Tech
 "SZHasRetFan" = FALSE   $ IP Non-Tech
 "SZ_Is_2Spd" = TRUE   $ IP Non-Tech
 "SZ_SFanWPerCfm" = 0.46   $ IP Non-Tech
 "SZ_SupFanStatic" = 0.75   $ IP Non-Tech
 "StorageSmlCond_EWSF" = 0.2   $ IP Non-Tech
 "StorageSmlCond_LWSF" = 0.45   $ IP Non-Tech
 "TermUnitFanMechEff" = 1   $ IP Non-Tech
 "TermUnitFanMode" = INTERMITTENT   $ IP Non-Tech
 "TwrSetpt" = 80   $ IP Non-Tech
 "UnocCoolT" = 86   $ IP Non-Tech
 "UnocHeatT" = 62   $ IP Non-Tech
 "WlhpVintEconoFlag" = 1   $ IP Non-Tech
 "EconoCtrl" = OA-TEMP   $ IP Tech: AirEcono-OATemp
 "MaxOAFrac" = 0.85   $ IP Tech: AirEcono-OATemp
 "UseEconoVintApplic" = FALSE   $ IP Tech: AirEcono-OATemp
 "DuctDT" = 1   $ IP Tech: ComDuctInsul-1
 "DuctAirLoss" = 0   $ IP Tech: ComDuctLeak-0
 "DuctLossOAFrac" = 0   $ IP Tech: ComDuctLeak-0
 "ComRoofInsCalc" = FromUo   $ IP Tech: ComRoofIns-Hvy-0.03
 "ComRoofInsR" = -999   $ IP Tech: ComRoofIns-Hvy-0.03
 "ComRoofUo" = 0.03   $ IP Tech: ComRoofIns-Hvy-0.03
 "ComEWInsCalc" = FromUo   $ IP Tech: ComWallIns-MFrm-0.07
 "ComEWInsR" = -999   $ IP Tech: ComWallIns-MFrm-0.07
 "ComEWUo" = 0.07   $ IP Tech: ComWallIns-MFrm-0.07
 "ComN_SHGC" = 0.26   $ IP Tech: NResWin-ComN-0.41-0.26
 "ComN_UFactor" = 0.41   $ IP Tech: NResWin-ComN-0.41-0.26
 "ComN_VisTrans" = 0.41   $ IP Tech: NResWin-ComN-0.41-0.26
 "ComN_WinCode" = G2666   $ IP Tech: NResWin-ComN-0.41-0.26
 "ComN_WinFrmFrac" = 0.17   $ IP Tech: NResWin-ComN-0.41-0.26
 "ComN_WinFrmU" = 0.3   $ IP Tech: NResWin-ComN-0.41-0.26
 "ComO_SHGC" = 0.26   $ IP Tech: NResWin-ComO-0.41-0.26
 "ComO_UFactor" = 0.41   $ IP Tech: NResWin-ComO-0.41-0.26
 "ComO_VisTrans" = 0.41   $ IP Tech: NResWin-ComO-0.41-0.26
 "ComO_WinCode" = G2666   $ IP Tech: NResWin-ComO-0.41-0.26
 "ComO_WinFrmFrac" = 0.17   $ IP Tech: NResWin-ComO-0.41-0.26
 "ComO_WinFrmU" = 0.3   $ IP Tech: NResWin-ComO-0.41-0.26
 "BF_fFlow" = PSZ65to135_BF_fFlow   $ IP Tech: PkgHP2SpP-65to135-E10.8-C3.3
 "BF_fT" = PSZ65to135_BF_fT   $ IP Tech: PkgHP2SpP-65to135-E10.8-C3.3
 "CEIR_fPLR" = PSZ65to135_CEIR_fPLR   $ IP Tech: PkgHP2SpP-65to135-E10.8-C3.3
 "CLoss_fPLR" = PSZ65to135_CLoss_fPLR   $ IP Tech: PkgHP2SpP-65to135-E10.8-C3.3
 "COP" = 3.3   $ IP Tech: PkgHP2SpP-65to135-E10.8-C3.3
 "COP47" = 3.63   $ IP Tech: PkgHP2SpP-65to135-E10.8-C3.3
 "CfmPerBtuh" = 0.02917   $ IP Tech: PkgHP2SpP-65to135-E10.8-C3.3
 "ClCap_fT" = PSZ65to135_ClCap_fT   $ IP Tech: PkgHP2SpP-65to135-E10.8-C3.3
 "ClSH_fT" = PSZ65to135_ClSH_fT   $ IP Tech: PkgHP2SpP-65to135-E10.8-C3.3
 "CoilBF" = 0.114   $ IP Tech: PkgHP2SpP-65to135-E10.8-C3.3
 "CondWPerBtuh" = 0   $ IP Tech: PkgHP2SpP-65to135-E10.8-C3.3
 "CoolSensCap" = 0.663   $ IP Tech: PkgHP2SpP-65to135-E10.8-C3.3
 "CoolingEIR" = 0.27377   $ IP Tech: PkgHP2SpP-65to135-E10.8-C3.3
 "CrnkEIR" = 0.0027   $ IP Tech: PkgHP2SpP-65to135-E10.8-C3.3
 "CrnkMaxT" = 50   $ IP Tech: PkgHP2SpP-65to135-E10.8-C3.3
 "DXType" = Pkg   $ IP Tech: PkgHP2SpP-65to135-E10.8-C3.3
 "EER" = 10.45   $ IP Tech: PkgHP2SpP-65to135-E10.8-C3.3
 "EIR_fT" = PSZ65to135_EIR_fT   $ IP Tech: PkgHP2SpP-65to135-E10.8-C3.3
 "FanEirPlr" = TwoSpeedFan   $ IP Tech: PkgHP2SpP-65to135-E10.8-C3.3
 "FanWPerCfm" = 0.4   $ IP Tech: PkgHP2SpP-65to135-E10.8-C3.3
 "HIR_fT" = DEFAULT   $ IP Tech: PkgHP2SpP-65to135-E10.8-C3.3
 "HtCap_fT" = DEFAULT   $ IP Tech: PkgHP2SpP-65to135-E10.8-C3.3
 "HtCoolCapRatio" = 0.88   $ IP Tech: PkgHP2SpP-65to135-E10.8-C3.3
 "HtgEIR" = 0.27527   $ IP Tech: PkgHP2SpP-65to135-E10.8-C3.3
 "HtgFuel" = HP   $ IP Tech: PkgHP2SpP-65to135-E10.8-C3.3
 "IEER" = 13.06   $ IP Tech: PkgHP2SpP-65to135-E10.8-C3.3
 "LowSpdCapRatio" = 0.5   $ IP Tech: PkgHP2SpP-65to135-E10.8-C3.3
 "LowSpdCfmRatio" = 0.66   $ IP Tech: PkgHP2SpP-65to135-E10.8-C3.3
 "NominalCap" = 15   $ IP Tech: PkgHP2SpP-65to135-E10.8-C3.3
 "NumStages" = 2   $ IP Tech: PkgHP2SpP-65to135-E10.8-C3.3
 "RatedEER" = 10.8   $ IP Tech: PkgHP2SpP-65to135-E10.8-C3.3
 "RatedSupMtrClass" = Premium   $ IP Tech: PkgHP2SpP-65to135-E10.8-C3.3
 "SizeRange" = 65to135   $ IP Tech: PkgHP2SpP-65to135-E10.8-C3.3
 "SubType" = HP   $ IP Tech: PkgHP2SpP-65to135-E10.8-C3.3
 "SupMotEff" = 0.865   $ IP Tech: PkgHP2SpP-65to135-E10.8-C3.3
 "Tier" = 0   $ IP Tech: PkgHP2SpP-65to135-E10.8-C3.3
 "TotCoolCap" = 184140   $ IP Tech: PkgHP2SpP-65to135-E10.8-C3.3
 "BFMult" = 1   $ IP Tech: RefgChg-NRes-Std
 "CoolEirMult" = 1   $ IP Tech: RefgChg-NRes-Std
 "SensCoolCapMult" = 1   $ IP Tech: RefgChg-NRes-Std
 "TotCoolCapMult" = 1   $ IP Tech: RefgChg-NRes-Std
..

##include Templates\OfL_DX_SZ.inp
END ..
COMPUTE ..
STOP ..
