INPUT ..

##fileprefix C:\Users\jglasskatz\MASControl3\
##set1 IsSizing FALSE
##set1 CoolType DX
##set1 HeatType FURNACE
##set1 EU_HrRepVar 0
##set1 BldgVint 2015
##set1 BldgLoc CZ10

 ##set1 mBFMult 1   $ IP Tech: RefgChg-NRes-Std

PARAMETER
 "AltFactor" = 1.03143   $ IP Non-Tech
 "BF_fFlow" = SpltAC2SpHiSEER_BF_fFlow   $ Msr (Multi)TechID: MsrNResSplitAC-lt45-S17
 "BF_fT" = SpltAC2SpHiSEER_BF_fT   $ Msr (Multi)TechID: MsrNResSplitAC-lt45-S17
 "BldgEconoFlag" = 1   $ IP Non-Tech
 "Break_EWSF" = 1   $ IP Non-Tech
 "Break_LWSF" = 1.1   $ IP Non-Tech
 "CDD_DBHi10" = 92   $ IP Non-Tech
 "CDD_DBHi7" = 97   $ IP Non-Tech
 "CDD_DBHi8" = 99   $ IP Non-Tech
 "CDD_DBHi9" = 102   $ IP Non-Tech
 "CDD_DBRange10" = 19   $ IP Non-Tech
 "CDD_DBRange7" = 31   $ IP Non-Tech
 "CDD_DBRange8" = 31   $ IP Non-Tech
 "CDD_DBRange9" = 34   $ IP Non-Tech
 "CDD_Day10" = 15   $ IP Non-Tech
 "CDD_Day7" = 16   $ IP Non-Tech
 "CDD_Day8" = 20   $ IP Non-Tech
 "CDD_Day9" = 17   $ IP Non-Tech
 "CDD_HrHi10" = 15   $ IP Non-Tech
 "CDD_HrHi7" = 14   $ IP Non-Tech
 "CDD_HrHi8" = 14   $ IP Non-Tech
 "CDD_HrHi9" = 15   $ IP Non-Tech
 "CDD_HrLo10" = 3   $ IP Non-Tech
 "CDD_HrLo7" = 6   $ IP Non-Tech
 "CDD_HrLo8" = 5   $ IP Non-Tech
 "CDD_HrLo9" = 5   $ IP Non-Tech
 "CDD_WB10" = 62.63956451   $ IP Non-Tech
 "CDD_WB7" = 70.96998596   $ IP Non-Tech
 "CDD_WB8" = 71.98167419   $ IP Non-Tech
 "CDD_WB9" = 70.8795929   $ IP Non-Tech
 "CEIR_fPLR_Hot" = SpltAC2SpHiSEER_CEIR_fPLR_Hot   $ Msr (Multi)TechID: MsrNResSplitAC-lt45-S17
 "CEIR_fPLR_Mod" = SpltAC2SpHiSEER_CEIR_fPLR_Mod   $ Msr (Multi)TechID: MsrNResSplitAC-lt45-S17
 "CEIR_fPLR_Tem" = SpltAC2SpHiSEER_CEIR_fPLR_Tem   $ Msr (Multi)TechID: MsrNResSplitAC-lt45-S17
 "CLoss_fPLR_Hot" = SpltAC2SpHiSEER_CLoss_fPLR_Hot   $ Msr (Multi)TechID: MsrNResSplitAC-lt45-S17
 "CLoss_fPLR_Mod" = SpltAC2SpHiSEER_CLoss_fPLR_Mod   $ Msr (Multi)TechID: MsrNResSplitAC-lt45-S17
 "CLoss_fPLR_Tem" = SpltAC2SpHiSEER_CLoss_fPLR_Tem   $ Msr (Multi)TechID: MsrNResSplitAC-lt45-S17
 "COP47" = 0   $ Msr (Multi)TechID: MsrNResSplitAC-lt45-S17
 "CZ_Category" = Mod   $ IP Non-Tech
 "CapRange" = Any   $ Msr (Multi)TechID: MsrNResSplitAC-lt45-S17
 "CfmPerBtuh" = 0.03   $ Msr (Multi)TechID: MsrNResSplitAC-lt45-S17
 "ChwVintEconoFlag" = 1   $ IP Non-Tech
 "ClCap_fT" = SpltAC2SpHiSEER_ClCap_fT   $ Msr (Multi)TechID: MsrNResSplitAC-lt45-S17
 "ClSH_fT" = SpltAC2SpHiSEER_ClSH_fT   $ Msr (Multi)TechID: MsrNResSplitAC-lt45-S17
 "CoilBF" = 0.102   $ Msr (Multi)TechID: MsrNResSplitAC-lt45-S17
 "CondWPerBtuh" = 0   $ Msr (Multi)TechID: MsrNResSplitAC-lt45-S17
 "Conference_EWSF" = 1   $ IP Non-Tech
 "Conference_LWSF" = 1.4   $ IP Non-Tech
 "CoolSensCap" = 0.724   $ Msr (Multi)TechID: MsrNResSplitAC-lt45-S17
 "CoolSetT" = 45   $ IP Non-Tech
 "CoolType" = DX   $ IP Non-Tech
 "CoolingEIR" = 0.2225   $ Msr (Multi)TechID: MsrNResSplitAC-lt45-S17
 "CopyRoom_EWSF" = 1.5   $ IP Non-Tech
 "CopyRoom_LWSF" = 1.3   $ IP Non-Tech
 "CorridorStairway_EWSF" = 0.2   $ IP Non-Tech
 "CorridorStairway_LWSF" = 0.6   $ IP Non-Tech
 "CrnkEIR" = 0.002225   $ Msr (Multi)TechID: MsrNResSplitAC-lt45-S17
 "CrnkMaxT" = 50   $ Msr (Multi)TechID: MsrNResSplitAC-lt45-S17
 "DXType" = SplitSEER   $ Msr (Multi)TechID: MsrNResSplitAC-lt45-S17
 "DesCoolT" = 75   $ IP Non-Tech
 "DesHeatT" = 73   $ IP Non-Tech
 "EER" = 13.26   $ Msr (Multi)TechID: MsrNResSplitAC-lt45-S17
 "EIR_fT" = SpltAC2SpHiSEER_EIR_fT   $ Msr (Multi)TechID: MsrNResSplitAC-lt45-S17
 "EconoCtrl" = FIXED   $ Msr (Multi)TechID: MsrNResSplitAC-lt45-S17
 "EconoEnthLimit" = 28   $ IP Non-Tech
 "EconoTempLimit" = 73   $ IP Non-Tech
 "Elevation" = 840   $ IP Non-Tech
 "FanEirPlr" = TwoSpeedFan   $ Msr (Multi)TechID: MsrNResSplitAC-lt45-S17
 "FanWPerCfm" = 0.271   $ Msr (Multi)TechID: MsrNResSplitAC-lt45-S17
 "HDD_CloudAmt1" = 0   $ IP Non-Tech
 "HDD_DBHi1" = 53   $ IP Non-Tech
 "HDD_DBRange1" = 17   $ IP Non-Tech
 "HDD_Day1" = 15   $ IP Non-Tech
 "HDD_HrHi1" = 14   $ IP Non-Tech
 "HDD_HrLo1" = 5   $ IP Non-Tech
 "HDD_WB1" = 48.5   $ IP Non-Tech
 "HDD_WindSpd1" = 13.8   $ IP Non-Tech
 "HIR_fT" = 0   $ Msr (Multi)TechID: MsrNResSplitAC-lt45-S17
 "HSPF" = 0   $ Msr (Multi)TechID: MsrNResSplitAC-lt45-S17
 "HeatSrc" = FURNACE   $ IP Non-Tech
 "HeatSrcTU" = HEAT-PUMP   $ IP Non-Tech
 "HeatType" = GasFurn   $ IP Non-Tech
 "HeatTypeTU" = HEAT-PUMP   $ IP Non-Tech
 "HtCap_fT" = 0   $ Msr (Multi)TechID: MsrNResSplitAC-lt45-S17
 "HtCoolCapRatio" = 0   $ Msr (Multi)TechID: MsrNResSplitAC-lt45-S17
 "HtgEIR" = 0   $ Msr (Multi)TechID: MsrNResSplitAC-lt45-S17
 "IndoorFanMode" = CONTINUOUS   $ IP Non-Tech
 "KT_TransferAir" = Yes   $ IP Non-Tech
 "Latitude" = 34   $ IP Non-Tech
 "LobbyWaiting_EWSF" = 0.5   $ IP Non-Tech
 "LobbyWaiting_LWSF" = 1.3   $ IP Non-Tech
 "Longitude" = 117.4   $ IP Non-Tech
 "LowSpdCapRatio" = 0.686   $ Msr (Multi)TechID: MsrNResSplitAC-lt45-S17
 "LowSpdCfmRatio" = 0.739   $ Msr (Multi)TechID: MsrNResSplitAC-lt45-S17
 "MZFanMechEff" = 0.58   $ IP Non-Tech
 "MZHasRetFan" = FALSE   $ IP Non-Tech
 "MZ_RFanWPerCfm" = 0.37   $ IP Non-Tech
 "MZ_SFanWPerCfm" = 0.71   $ IP Non-Tech
 "MZ_SupFanStatic" = 2.25   $ IP Non-Tech
 "MaxOAFrac" = 1   $ Msr (Multi)TechID: MsrNResSplitAC-lt45-S17
 "MaxSupT_MZ" = 100   $ IP Non-Tech
 "MaxSupT_SZ" = 100   $ IP Non-Tech
 "MaxSupT_TU" = 90   $ IP Non-Tech
 "MechElecRoom_EWSF" = 0.2   $ IP Non-Tech
 "MechElecRoom_LWSF" = 0.7   $ IP Non-Tech
 "MinCfmPerSF" = 0.4   $ IP Non-Tech
 "MinSupT" = 55   $ IP Non-Tech
 "NumStages" = 2   $ Msr (Multi)TechID: MsrNResSplitAC-lt45-S17
 "OccCoolT" = 76   $ IP Non-Tech
 "OccHeatT" = 72   $ IP Non-Tech
 "OfficeOpen_EWSF" = 1.5   $ IP Non-Tech
 "OfficeOpen_LWSF" = 1.05   $ IP Non-Tech
 "OfficeSmall_EWSF" = 1.5   $ IP Non-Tech
 "OfficeSmall_LWSF" = 1.3   $ IP Non-Tech
 "PkgDxVintEconoFlag" = 1   $ IP Non-Tech
 "Restroom_EWSF" = 0.2   $ IP Non-Tech
 "Restroom_LWSF" = 0.6   $ IP Non-Tech
 "SEER" = 17   $ Msr (Multi)TechID: MsrNResSplitAC-lt45-S17
 "SZFanMechEff" = 0.58   $ IP Non-Tech
 "SZHasRetFan" = FALSE   $ IP Non-Tech
 "SZ_Is_2Spd" = TRUE   $ IP Non-Tech
 "SZ_SFanWPerCfm" = 0.46   $ IP Non-Tech
 "SZ_SupFanStatic" = 0.75   $ IP Non-Tech
 "Sector" = Any   $ Msr (Multi)TechID: MsrNResSplitAC-lt45-S17
 "StorageSmlCond_EWSF" = 0.2   $ IP Non-Tech
 "StorageSmlCond_LWSF" = 0.6   $ IP Non-Tech
 "SubType" = AC   $ Msr (Multi)TechID: MsrNResSplitAC-lt45-S17
 "T24GlzTbl" = TypeTbl   $ IP Non-Tech
 "TermUnitFanMechEff" = 1   $ IP Non-Tech
 "TermUnitFanMode" = INTERMITTENT   $ IP Non-Tech
 "TotCoolCap" = 58805   $ Msr (Multi)TechID: MsrNResSplitAC-lt45-S17
 "TwrSetpt" = 82.2   $ IP Non-Tech
 "UnocCoolT" = 86   $ IP Non-Tech
 "UnocHeatT" = 62   $ IP Non-Tech
 "UseEconoVintApplic" = FALSE   $ Msr (Multi)TechID: MsrNResSplitAC-lt45-S17
 "WlhpVintEconoFlag" = 1   $ IP Non-Tech
 "DuctDT" = 1   $ IP Tech: ComDuctInsul-1
 "DuctAirLoss" = 0   $ IP Tech: ComDuctLeak-0
 "DuctLossOAFrac" = 0   $ IP Tech: ComDuctLeak-0
 "ComRoofInsCalc" = FromUo   $ IP Tech: ComRoofIns-Hvy-0.04
 "ComRoofInsR" = -999   $ IP Tech: ComRoofIns-Hvy-0.04
 "ComRoofUo" = 0.04   $ IP Tech: ComRoofIns-Hvy-0.04
 "ComEWInsCalc" = FromUo   $ IP Tech: ComWallIns-MFrm-0.06
 "ComEWInsR" = -999   $ IP Tech: ComWallIns-MFrm-0.06
 "ComEWUo" = 0.06   $ IP Tech: ComWallIns-MFrm-0.06
 "ComN_SHGC" = 0.26   $ IP Tech: NResWin-ComN-0.41-0.26
 "ComN_UFactor" = 0.41   $ IP Tech: NResWin-ComN-0.41-0.26
 "ComN_VisTrans" = 0.41   $ IP Tech: NResWin-ComN-0.41-0.26
 "ComN_WinCode" = G2666   $ IP Tech: NResWin-ComN-0.41-0.26
 "ComN_WinFrmFrac" = 0.17   $ IP Tech: NResWin-ComN-0.41-0.26
 "ComN_WinFrmU" = 0.3   $ IP Tech: NResWin-ComN-0.41-0.26
 "ComO_SHGC" = 0.26   $ IP Tech: NResWin-ComO-0.41-0.26
 "ComO_UFactor" = 0.41   $ IP Tech: NResWin-ComO-0.41-0.26
 "ComO_VisTrans" = 0.41   $ IP Tech: NResWin-ComO-0.41-0.26
 "ComO_WinCode" = G2666   $ IP Tech: NResWin-ComO-0.41-0.26
 "ComO_WinFrmFrac" = 0.17   $ IP Tech: NResWin-ComO-0.41-0.26
 "ComO_WinFrmU" = 0.3   $ IP Tech: NResWin-ComO-0.41-0.26
 "LtgMsrApplic" = ALL   $ IP Tech: NonResLtgRefPre
 "LtgSav_CFL" = 0   $ IP Tech: NonResLtgRefPre
 "LtgSav_EX" = 0   $ IP Tech: NonResLtgRefPre
 "LtgSav_HB" = 0   $ IP Tech: NonResLtgRefPre
 "LtgSav_LF" = 0   $ IP Tech: NonResLtgRefPre
 "LtgSav_SP" = 0   $ IP Tech: NonResLtgRefPre
 "CEIR_fPLR" = PSZ65to135_CEIR_fPLR   $ IP Tech: PkgAC2SpP-65to135-E11
 "CLoss_fPLR" = PSZ65to135_CLoss_fPLR   $ IP Tech: PkgAC2SpP-65to135-E11
 "COP" = -1   $ IP Tech: PkgAC2SpP-65to135-E11
 "HtgFuel" = Gas   $ IP Tech: PkgAC2SpP-65to135-E11
 "IEER" = 13.35   $ IP Tech: PkgAC2SpP-65to135-E11
 "NominalCap" = 15   $ IP Tech: PkgAC2SpP-65to135-E11
 "RatedEER" = 11   $ IP Tech: PkgAC2SpP-65to135-E11
 "RatedSupMtrClass" = Premium   $ IP Tech: PkgAC2SpP-65to135-E11
 "SizeRange" = 65to135   $ IP Tech: PkgAC2SpP-65to135-E11
 "SupMotEff" = 0.865   $ IP Tech: PkgAC2SpP-65to135-E11
 "Tier" = 0   $ IP Tech: PkgAC2SpP-65to135-E11
 "FanPwrMult" = 1   $ IP Tech: PkgFurn-0.80AFUE
 "FurnAFUE" = 0.8   $ IP Tech: PkgFurn-0.80AFUE
 "FurnEt" = 0.82   $ IP Tech: PkgFurn-0.80AFUE
 "FurnaceAuxKW" = 0.1   $ IP Tech: PkgFurn-0.80AFUE
 "HIR_fPLR" = Furnace-HIR-fPLR   $ IP Tech: PkgFurn-0.80AFUE
 "VSM" = FALSE   $ IP Tech: PkgFurn-0.80AFUE
 "BFMult" = 1   $ IP Tech: RefgChg-NRes-Std
 "CoolEirMult" = 1   $ IP Tech: RefgChg-NRes-Std
 "SensCoolCapMult" = 1   $ IP Tech: RefgChg-NRes-Std
 "TotCoolCapMult" = 1   $ IP Tech: RefgChg-NRes-Std
 "AltAdjFactor" = 1.031429   $ Sizing
 "CAssFlo_L_Break_CZn" = 561.0477   $ Sizing
 "CAssFlo_L_Conf_CZn" = 538.4512   $ Sizing
 "CAssFlo_L_CopyRm_CZn" = 175.8108   $ Sizing
 "CAssFlo_L_Cordr_CZn" = 630.3173   $ Sizing
 "CAssFlo_L_Cordr_EZn" = 215.5036   $ Sizing
 "CAssFlo_L_Cordr_NZn" = 144.8033   $ Sizing
 "CAssFlo_L_Cordr_SZn" = 230.7961   $ Sizing
 "CAssFlo_L_Cordr_WZn" = 257.9441   $ Sizing
 "CAssFlo_L_LobWait_CZn" = 548.2221   $ Sizing
 "CAssFlo_L_MechElec_CZn" = 112.1866   $ Sizing
 "CAssFlo_L_OfficeOpn_CZn" = 1806.2   $ Sizing
 "CAssFlo_L_OfficeOpn_EZn" = 1529.53   $ Sizing
 "CAssFlo_L_OfficeOpn_NZn" = 1121.716   $ Sizing
 "CAssFlo_L_OfficeOpn_SZn" = 1624.949   $ Sizing
 "CAssFlo_L_OfficeOpn_WZn" = 1867.268   $ Sizing
 "CAssFlo_L_OfficeSm_CZn" = 231.5985   $ Sizing
 "CAssFlo_L_OfficeSm_EZn" = 1091.972   $ Sizing
 "CAssFlo_L_OfficeSm_NZn" = 729.1542   $ Sizing
 "CAssFlo_L_OfficeSm_SZn" = 1148.705   $ Sizing
 "CAssFlo_L_OfficeSm_WZn" = 1320.765   $ Sizing
 "CAssFlo_L_Restrm_CZn" = 91.99007   $ Sizing
 "CAssFlo_L_StorSm_CZn" = 356.9309   $ Sizing
 "CAssFlo_M_Break_CZn" = 566.0039   $ Sizing
 "CAssFlo_M_Conf_CZn" = 538.1535   $ Sizing
 "CAssFlo_M_CopyRm_CZn" = 168.9413   $ Sizing
 "CAssFlo_M_Cordr_CZn" = 816.3873   $ Sizing
 "CAssFlo_M_Cordr_EZn" = 248.7097   $ Sizing
 "CAssFlo_M_Cordr_NZn" = 162.7099   $ Sizing
 "CAssFlo_M_Cordr_SZn" = 254.3936   $ Sizing
 "CAssFlo_M_Cordr_WZn" = 275.4923   $ Sizing
 "CAssFlo_M_LobWait_CZn" = 566.3151   $ Sizing
 "CAssFlo_M_MechElec_CZn" = 138.4071   $ Sizing
 "CAssFlo_M_OfficeOpn_CZn" = 1805.757   $ Sizing
 "CAssFlo_M_OfficeOpn_EZn" = 1644.851   $ Sizing
 "CAssFlo_M_OfficeOpn_NZn" = 1178.71   $ Sizing
 "CAssFlo_M_OfficeOpn_SZn" = 1720.653   $ Sizing
 "CAssFlo_M_OfficeOpn_WZn" = 1920.843   $ Sizing
 "CAssFlo_M_OfficeSm_CZn" = 271.8669   $ Sizing
 "CAssFlo_M_OfficeSm_EZn" = 1159.039   $ Sizing
 "CAssFlo_M_OfficeSm_NZn" = 762.5269   $ Sizing
 "CAssFlo_M_OfficeSm_SZn" = 1205.673   $ Sizing
 "CAssFlo_M_OfficeSm_WZn" = 1349.709   $ Sizing
 "CAssFlo_M_Restrm_CZn" = 99.39521   $ Sizing
 "CAssFlo_M_StorSm_CZn" = 366.3597   $ Sizing
 "CAssFlo_T_Break_CZn" = 559.6582   $ Sizing
 "CAssFlo_T_Conf_CZn" = 534.6371   $ Sizing
 "CAssFlo_T_CopyRm_CZn" = 169.6164   $ Sizing
 "CAssFlo_T_Cordr_CZn" = 751.2552   $ Sizing
 "CAssFlo_T_Cordr_EZn" = 238.5985   $ Sizing
 "CAssFlo_T_Cordr_NZn" = 163.3837   $ Sizing
 "CAssFlo_T_Cordr_SZn" = 253.7905   $ Sizing
 "CAssFlo_T_Cordr_WZn" = 269.927   $ Sizing
 "CAssFlo_T_LobWait_CZn" = 570.3434   $ Sizing
 "CAssFlo_T_MechElec_CZn" = 153.1907   $ Sizing
 "CAssFlo_T_OfficeOpn_CZn" = 1840.036   $ Sizing
 "CAssFlo_T_OfficeOpn_EZn" = 1602.703   $ Sizing
 "CAssFlo_T_OfficeOpn_NZn" = 1180.624   $ Sizing
 "CAssFlo_T_OfficeOpn_SZn" = 1733.417   $ Sizing
 "CAssFlo_T_OfficeOpn_WZn" = 1892.931   $ Sizing
 "CAssFlo_T_OfficeSm_CZn" = 262.0935   $ Sizing
 "CAssFlo_T_OfficeSm_EZn" = 1158.721   $ Sizing
 "CAssFlo_T_OfficeSm_NZn" = 769.0247   $ Sizing
 "CAssFlo_T_OfficeSm_SZn" = 1228.344   $ Sizing
 "CAssFlo_T_OfficeSm_WZn" = 1350.625   $ Sizing
 "CAssFlo_T_Restrm_CZn" = 130.226   $ Sizing
 "CAssFlo_T_StorSm_CZn" = 262.7448   $ Sizing
 "CHRtFlo_Sys_L_Break_C" = 561.0477   $ Sizing
 "CHRtFlo_Sys_L_Conf_C" = 538.4512   $ Sizing
 "CHRtFlo_Sys_L_CopyRm_C" = 175.8108   $ Sizing
 "CHRtFlo_Sys_L_Cordr_C" = 638.0157   $ Sizing
 "CHRtFlo_Sys_L_Cordr_E" = 252.1195   $ Sizing
 "CHRtFlo_Sys_L_Cordr_N" = 144.8033   $ Sizing
 "CHRtFlo_Sys_L_Cordr_S" = 256.6981   $ Sizing
 "CHRtFlo_Sys_L_Cordr_W" = 257.9441   $ Sizing
 "CHRtFlo_Sys_L_LobWait_C" = 548.2221   $ Sizing
 "CHRtFlo_Sys_L_MechElec_C" = 138.0211   $ Sizing
 "CHRtFlo_Sys_L_OfficeOpn_C" = 1806.2   $ Sizing
 "CHRtFlo_Sys_L_OfficeOpn_E" = 1821.493   $ Sizing
 "CHRtFlo_Sys_L_OfficeOpn_N" = 1121.716   $ Sizing
 "CHRtFlo_Sys_L_OfficeOpn_S" = 1819.953   $ Sizing
 "CHRtFlo_Sys_L_OfficeOpn_W" = 1897.217   $ Sizing
 "CHRtFlo_Sys_L_OfficeSm_C" = 254.6632   $ Sizing
 "CHRtFlo_Sys_L_OfficeSm_E" = 1325.047   $ Sizing
 "CHRtFlo_Sys_L_OfficeSm_N" = 729.1542   $ Sizing
 "CHRtFlo_Sys_L_OfficeSm_S" = 1337.615   $ Sizing
 "CHRtFlo_Sys_L_OfficeSm_W" = 1377.167   $ Sizing
 "CHRtFlo_Sys_L_Restrm_C" = 216.8861   $ Sizing
 "CHRtFlo_Sys_L_StorSm_C" = 412.9382   $ Sizing
 "CHRtFlo_Sys_M_Break_C" = 4528.031   $ Sizing
 "CHRtFlo_Sys_M_Conf_C" = 4305.228   $ Sizing
 "CHRtFlo_Sys_M_CopyRm_C" = 1351.531   $ Sizing
 "CHRtFlo_Sys_M_Cordr_C" = 7926.626   $ Sizing
 "CHRtFlo_Sys_M_Cordr_E" = 2384.225   $ Sizing
 "CHRtFlo_Sys_M_Cordr_N" = 1349.154   $ Sizing
 "CHRtFlo_Sys_M_Cordr_S" = 2322.886   $ Sizing
 "CHRtFlo_Sys_M_Cordr_W" = 2203.938   $ Sizing
 "CHRtFlo_Sys_M_LobWait_C" = 4539.206   $ Sizing
 "CHRtFlo_Sys_M_MechElec_C" = 1406.08   $ Sizing
 "CHRtFlo_Sys_M_OfficeOpn_C" = 17392.93   $ Sizing
 "CHRtFlo_Sys_M_OfficeOpn_E" = 15841.87   $ Sizing
 "CHRtFlo_Sys_M_OfficeOpn_N" = 9429.678   $ Sizing
 "CHRtFlo_Sys_M_OfficeOpn_S" = 15610.82   $ Sizing
 "CHRtFlo_Sys_M_OfficeOpn_W" = 15729.24   $ Sizing
 "CHRtFlo_Sys_M_OfficeSm_C" = 2612.443   $ Sizing
 "CHRtFlo_Sys_M_OfficeSm_E" = 11349.22   $ Sizing
 "CHRtFlo_Sys_M_OfficeSm_N" = 6100.215   $ Sizing
 "CHRtFlo_Sys_M_OfficeSm_S" = 11349.6   $ Sizing
 "CHRtFlo_Sys_M_OfficeSm_W" = 11309.96   $ Sizing
 "CHRtFlo_Sys_M_Restrm_C" = 1735.089   $ Sizing
 "CHRtFlo_Sys_M_StorSm_C" = 3537.208   $ Sizing
 "CHRtFlo_Sys_T_Break_C" = 559.6582   $ Sizing
 "CHRtFlo_Sys_T_Conf_C" = 534.6371   $ Sizing
 "CHRtFlo_Sys_T_CopyRm_C" = 169.6164   $ Sizing
 "CHRtFlo_Sys_T_Cordr_C" = 836.0084   $ Sizing
 "CHRtFlo_Sys_T_Cordr_E" = 261.9677   $ Sizing
 "CHRtFlo_Sys_T_Cordr_N" = 163.3837   $ Sizing
 "CHRtFlo_Sys_T_Cordr_S" = 263.4131   $ Sizing
 "CHRtFlo_Sys_T_Cordr_W" = 269.927   $ Sizing
 "CHRtFlo_Sys_T_LobWait_C" = 570.3434   $ Sizing
 "CHRtFlo_Sys_T_MechElec_C" = 198.297   $ Sizing
 "CHRtFlo_Sys_T_OfficeOpn_C" = 1840.036   $ Sizing
 "CHRtFlo_Sys_T_OfficeOpn_E" = 1795.299   $ Sizing
 "CHRtFlo_Sys_T_OfficeOpn_N" = 1180.624   $ Sizing
 "CHRtFlo_Sys_T_OfficeOpn_S" = 1822.989   $ Sizing
 "CHRtFlo_Sys_T_OfficeOpn_W" = 1892.931   $ Sizing
 "CHRtFlo_Sys_T_OfficeSm_C" = 296.5595   $ Sizing
 "CHRtFlo_Sys_T_OfficeSm_E" = 1323.69   $ Sizing
 "CHRtFlo_Sys_T_OfficeSm_N" = 769.0247   $ Sizing
 "CHRtFlo_Sys_T_OfficeSm_S" = 1348.39   $ Sizing
 "CHRtFlo_Sys_T_OfficeSm_W" = 1350.625   $ Sizing
 "CHRtFlo_Sys_T_Restrm_C" = 216.8861   $ Sizing
 "CHRtFlo_Sys_T_StorSm_C" = 342.0135   $ Sizing
 "CRtdFlo_Sys_L_Break_C" = 561.0477   $ Sizing
 "CRtdFlo_Sys_L_Conf_C" = 538.4512   $ Sizing
 "CRtdFlo_Sys_L_CopyRm_C" = 175.8108   $ Sizing
 "CRtdFlo_Sys_L_Cordr_C" = 630.3173   $ Sizing
 "CRtdFlo_Sys_L_Cordr_E" = 215.5036   $ Sizing
 "CRtdFlo_Sys_L_Cordr_N" = 144.8033   $ Sizing
 "CRtdFlo_Sys_L_Cordr_S" = 230.7961   $ Sizing
 "CRtdFlo_Sys_L_Cordr_W" = 257.9441   $ Sizing
 "CRtdFlo_Sys_L_LobWait_C" = 548.2221   $ Sizing
 "CRtdFlo_Sys_L_MechElec_C" = 112.1866   $ Sizing
 "CRtdFlo_Sys_L_OfficeOpn_C" = 1806.2   $ Sizing
 "CRtdFlo_Sys_L_OfficeOpn_E" = 1529.53   $ Sizing
 "CRtdFlo_Sys_L_OfficeOpn_N" = 1121.716   $ Sizing
 "CRtdFlo_Sys_L_OfficeOpn_S" = 1624.949   $ Sizing
 "CRtdFlo_Sys_L_OfficeOpn_W" = 1867.268   $ Sizing
 "CRtdFlo_Sys_L_OfficeSm_C" = 231.5986   $ Sizing
 "CRtdFlo_Sys_L_OfficeSm_E" = 1091.972   $ Sizing
 "CRtdFlo_Sys_L_OfficeSm_N" = 729.1542   $ Sizing
 "CRtdFlo_Sys_L_OfficeSm_S" = 1148.705   $ Sizing
 "CRtdFlo_Sys_L_OfficeSm_W" = 1320.765   $ Sizing
 "CRtdFlo_Sys_L_Restrm_C" = 91.99007   $ Sizing
 "CRtdFlo_Sys_L_StorSm_C" = 356.9309   $ Sizing
 "CRtdFlo_Sys_M_Break_C" = 4528.031   $ Sizing
 "CRtdFlo_Sys_M_Conf_C" = 4305.228   $ Sizing
 "CRtdFlo_Sys_M_CopyRm_C" = 1351.531   $ Sizing
 "CRtdFlo_Sys_M_Cordr_C" = 6531.098   $ Sizing
 "CRtdFlo_Sys_M_Cordr_E" = 1989.678   $ Sizing
 "CRtdFlo_Sys_M_Cordr_N" = 1301.679   $ Sizing
 "CRtdFlo_Sys_M_Cordr_S" = 2035.149   $ Sizing
 "CRtdFlo_Sys_M_Cordr_W" = 2203.938   $ Sizing
 "CRtdFlo_Sys_M_LobWait_C" = 4530.521   $ Sizing
 "CRtdFlo_Sys_M_MechElec_C" = 1107.257   $ Sizing
 "CRtdFlo_Sys_M_OfficeOpn_C" = 14446.05   $ Sizing
 "CRtdFlo_Sys_M_OfficeOpn_E" = 13158.81   $ Sizing
 "CRtdFlo_Sys_M_OfficeOpn_N" = 9429.678   $ Sizing
 "CRtdFlo_Sys_M_OfficeOpn_S" = 13765.22   $ Sizing
 "CRtdFlo_Sys_M_OfficeOpn_W" = 15366.75   $ Sizing
 "CRtdFlo_Sys_M_OfficeSm_C" = 2174.935   $ Sizing
 "CRtdFlo_Sys_M_OfficeSm_E" = 9272.312   $ Sizing
 "CRtdFlo_Sys_M_OfficeSm_N" = 6100.215   $ Sizing
 "CRtdFlo_Sys_M_OfficeSm_S" = 9645.382   $ Sizing
 "CRtdFlo_Sys_M_OfficeSm_W" = 10797.68   $ Sizing
 "CRtdFlo_Sys_M_Restrm_C" = 795.1617   $ Sizing
 "CRtdFlo_Sys_M_StorSm_C" = 2930.877   $ Sizing
 "CRtdFlo_Sys_T_Break_C" = 559.6582   $ Sizing
 "CRtdFlo_Sys_T_Conf_C" = 534.6371   $ Sizing
 "CRtdFlo_Sys_T_CopyRm_C" = 169.6164   $ Sizing
 "CRtdFlo_Sys_T_Cordr_C" = 751.2552   $ Sizing
 "CRtdFlo_Sys_T_Cordr_E" = 238.5985   $ Sizing
 "CRtdFlo_Sys_T_Cordr_N" = 163.3837   $ Sizing
 "CRtdFlo_Sys_T_Cordr_S" = 253.7905   $ Sizing
 "CRtdFlo_Sys_T_Cordr_W" = 269.927   $ Sizing
 "CRtdFlo_Sys_T_LobWait_C" = 570.3434   $ Sizing
 "CRtdFlo_Sys_T_MechElec_C" = 153.1907   $ Sizing
 "CRtdFlo_Sys_T_OfficeOpn_C" = 1840.036   $ Sizing
 "CRtdFlo_Sys_T_OfficeOpn_E" = 1602.703   $ Sizing
 "CRtdFlo_Sys_T_OfficeOpn_N" = 1180.624   $ Sizing
 "CRtdFlo_Sys_T_OfficeOpn_S" = 1733.417   $ Sizing
 "CRtdFlo_Sys_T_OfficeOpn_W" = 1892.931   $ Sizing
 "CRtdFlo_Sys_T_OfficeSm_C" = 262.0935   $ Sizing
 "CRtdFlo_Sys_T_OfficeSm_E" = 1158.721   $ Sizing
 "CRtdFlo_Sys_T_OfficeSm_N" = 769.0247   $ Sizing
 "CRtdFlo_Sys_T_OfficeSm_S" = 1228.344   $ Sizing
 "CRtdFlo_Sys_T_OfficeSm_W" = 1350.625   $ Sizing
 "CRtdFlo_Sys_T_Restrm_C" = 130.226   $ Sizing
 "CRtdFlo_Sys_T_StorSm_C" = 262.7448   $ Sizing
 "CSupFlo_Sys_L_Break_C" = 561.0477   $ Sizing
 "CSupFlo_Sys_L_Conf_C" = 538.4512   $ Sizing
 "CSupFlo_Sys_L_CopyRm_C" = 175.8108   $ Sizing
 "CSupFlo_Sys_L_Cordr_C" = 630.3173   $ Sizing
 "CSupFlo_Sys_L_Cordr_E" = 215.5036   $ Sizing
 "CSupFlo_Sys_L_Cordr_N" = 144.8033   $ Sizing
 "CSupFlo_Sys_L_Cordr_S" = 230.7961   $ Sizing
 "CSupFlo_Sys_L_Cordr_W" = 257.9441   $ Sizing
 "CSupFlo_Sys_L_LobWait_C" = 548.2221   $ Sizing
 "CSupFlo_Sys_L_MechElec_C" = 112.1866   $ Sizing
 "CSupFlo_Sys_L_OfficeOpn_C" = 1806.2   $ Sizing
 "CSupFlo_Sys_L_OfficeOpn_E" = 1529.53   $ Sizing
 "CSupFlo_Sys_L_OfficeOpn_N" = 1121.716   $ Sizing
 "CSupFlo_Sys_L_OfficeOpn_S" = 1624.949   $ Sizing
 "CSupFlo_Sys_L_OfficeOpn_W" = 1867.268   $ Sizing
 "CSupFlo_Sys_L_OfficeSm_C" = 231.5986   $ Sizing
 "CSupFlo_Sys_L_OfficeSm_E" = 1091.972   $ Sizing
 "CSupFlo_Sys_L_OfficeSm_N" = 729.1542   $ Sizing
 "CSupFlo_Sys_L_OfficeSm_S" = 1148.705   $ Sizing
 "CSupFlo_Sys_L_OfficeSm_W" = 1320.765   $ Sizing
 "CSupFlo_Sys_L_Restrm_C" = 91.99007   $ Sizing
 "CSupFlo_Sys_L_StorSm_C" = 356.9309   $ Sizing
 "CSupFlo_Sys_M_Break_C" = 4528.031   $ Sizing
 "CSupFlo_Sys_M_Conf_C" = 4305.228   $ Sizing
 "CSupFlo_Sys_M_CopyRm_C" = 1351.531   $ Sizing
 "CSupFlo_Sys_M_Cordr_C" = 6531.098   $ Sizing
 "CSupFlo_Sys_M_Cordr_E" = 1989.678   $ Sizing
 "CSupFlo_Sys_M_Cordr_N" = 1301.679   $ Sizing
 "CSupFlo_Sys_M_Cordr_S" = 2035.149   $ Sizing
 "CSupFlo_Sys_M_Cordr_W" = 2203.938   $ Sizing
 "CSupFlo_Sys_M_LobWait_C" = 4530.521   $ Sizing
 "CSupFlo_Sys_M_MechElec_C" = 1107.257   $ Sizing
 "CSupFlo_Sys_M_OfficeOpn_C" = 14446.05   $ Sizing
 "CSupFlo_Sys_M_OfficeOpn_E" = 13158.81   $ Sizing
 "CSupFlo_Sys_M_OfficeOpn_N" = 9429.678   $ Sizing
 "CSupFlo_Sys_M_OfficeOpn_S" = 13765.22   $ Sizing
 "CSupFlo_Sys_M_OfficeOpn_W" = 15366.75   $ Sizing
 "CSupFlo_Sys_M_OfficeSm_C" = 2174.935   $ Sizing
 "CSupFlo_Sys_M_OfficeSm_E" = 9272.312   $ Sizing
 "CSupFlo_Sys_M_OfficeSm_N" = 6100.215   $ Sizing
 "CSupFlo_Sys_M_OfficeSm_S" = 9645.382   $ Sizing
 "CSupFlo_Sys_M_OfficeSm_W" = 10797.68   $ Sizing
 "CSupFlo_Sys_M_Restrm_C" = 795.1617   $ Sizing
 "CSupFlo_Sys_M_StorSm_C" = 2930.877   $ Sizing
 "CSupFlo_Sys_T_Break_C" = 559.6582   $ Sizing
 "CSupFlo_Sys_T_Conf_C" = 534.6371   $ Sizing
 "CSupFlo_Sys_T_CopyRm_C" = 169.6164   $ Sizing
 "CSupFlo_Sys_T_Cordr_C" = 751.2552   $ Sizing
 "CSupFlo_Sys_T_Cordr_E" = 238.5985   $ Sizing
 "CSupFlo_Sys_T_Cordr_N" = 163.3837   $ Sizing
 "CSupFlo_Sys_T_Cordr_S" = 253.7905   $ Sizing
 "CSupFlo_Sys_T_Cordr_W" = 269.927   $ Sizing
 "CSupFlo_Sys_T_LobWait_C" = 570.3434   $ Sizing
 "CSupFlo_Sys_T_MechElec_C" = 153.1907   $ Sizing
 "CSupFlo_Sys_T_OfficeOpn_C" = 1840.036   $ Sizing
 "CSupFlo_Sys_T_OfficeOpn_E" = 1602.703   $ Sizing
 "CSupFlo_Sys_T_OfficeOpn_N" = 1180.624   $ Sizing
 "CSupFlo_Sys_T_OfficeOpn_S" = 1733.417   $ Sizing
 "CSupFlo_Sys_T_OfficeOpn_W" = 1892.931   $ Sizing
 "CSupFlo_Sys_T_OfficeSm_C" = 262.0935   $ Sizing
 "CSupFlo_Sys_T_OfficeSm_E" = 1158.721   $ Sizing
 "CSupFlo_Sys_T_OfficeSm_N" = 769.0247   $ Sizing
 "CSupFlo_Sys_T_OfficeSm_S" = 1228.344   $ Sizing
 "CSupFlo_Sys_T_OfficeSm_W" = 1350.625   $ Sizing
 "CSupFlo_Sys_T_Restrm_C" = 130.226   $ Sizing
 "CSupFlo_Sys_T_StorSm_C" = 262.7448   $ Sizing
 "ClCap_Sys_L_Break_C" = 18649.77   $ Sizing
 "ClCap_Sys_L_Conf_C" = 22780.09   $ Sizing
 "ClCap_Sys_L_CopyRm_C" = 5844.123   $ Sizing
 "ClCap_Sys_L_Cordr_C" = 20952.36   $ Sizing
 "ClCap_Sys_L_Cordr_E" = 7163.549   $ Sizing
 "ClCap_Sys_L_Cordr_N" = 4813.403   $ Sizing
 "ClCap_Sys_L_Cordr_S" = 7671.886   $ Sizing
 "ClCap_Sys_L_Cordr_W" = 8574.312   $ Sizing
 "ClCap_Sys_L_LobWait_C" = 18223.44   $ Sizing
 "ClCap_Sys_L_MechElec_C" = 3729.191   $ Sizing
 "ClCap_Sys_L_OfficeOpn_C" = 60039.84   $ Sizing
 "ClCap_Sys_L_OfficeOpn_E" = 50843.07   $ Sizing
 "ClCap_Sys_L_OfficeOpn_N" = 37286.95   $ Sizing
 "ClCap_Sys_L_OfficeOpn_S" = 54014.89   $ Sizing
 "ClCap_Sys_L_OfficeOpn_W" = 62069.79   $ Sizing
 "ClCap_Sys_L_OfficeSm_C" = 7698.562   $ Sizing
 "ClCap_Sys_L_OfficeSm_E" = 36298.21   $ Sizing
 "ClCap_Sys_L_OfficeSm_N" = 24237.8   $ Sizing
 "ClCap_Sys_L_OfficeSm_S" = 38184.07   $ Sizing
 "ClCap_Sys_L_OfficeSm_W" = 43903.52   $ Sizing
 "ClCap_Sys_L_Restrm_C" = 3057.839   $ Sizing
 "ClCap_Sys_L_StorSm_C" = 11864.73   $ Sizing
 "ClCap_Sys_M_Break_C" = 150516.2   $ Sizing
 "ClCap_Sys_M_Conf_C" = 182140   $ Sizing
 "ClCap_Sys_M_CopyRm_C" = 44926.19   $ Sizing
 "ClCap_Sys_M_Cordr_C" = 217100.1   $ Sizing
 "ClCap_Sys_M_Cordr_E" = 66138.83   $ Sizing
 "ClCap_Sys_M_Cordr_N" = 43269.07   $ Sizing
 "ClCap_Sys_M_Cordr_S" = 67650.34   $ Sizing
 "ClCap_Sys_M_Cordr_W" = 73261.06   $ Sizing
 "ClCap_Sys_M_LobWait_C" = 150598.9   $ Sizing
 "ClCap_Sys_M_MechElec_C" = 36806.3   $ Sizing
 "ClCap_Sys_M_OfficeOpn_C" = 480200.9   $ Sizing
 "ClCap_Sys_M_OfficeOpn_E" = 437411.7   $ Sizing
 "ClCap_Sys_M_OfficeOpn_N" = 313451.7   $ Sizing
 "ClCap_Sys_M_OfficeOpn_S" = 457569.4   $ Sizing
 "ClCap_Sys_M_OfficeOpn_W" = 510805.6   $ Sizing
 "ClCap_Sys_M_OfficeSm_C" = 72296.95   $ Sizing
 "ClCap_Sys_M_OfficeSm_E" = 308220.7   $ Sizing
 "ClCap_Sys_M_OfficeSm_N" = 202777.1   $ Sizing
 "ClCap_Sys_M_OfficeSm_S" = 320621.9   $ Sizing
 "ClCap_Sys_M_OfficeSm_W" = 358925.3   $ Sizing
 "ClCap_Sys_M_Restrm_C" = 26431.95   $ Sizing
 "ClCap_Sys_M_StorSm_C" = 97425.22   $ Sizing
 "ClCap_Sys_T_Break_C" = 18603.58   $ Sizing
 "ClCap_Sys_T_Conf_C" = 22618.73   $ Sizing
 "ClCap_Sys_T_CopyRm_C" = 5638.214   $ Sizing
 "ClCap_Sys_T_Cordr_C" = 24972.46   $ Sizing
 "ClCap_Sys_T_Cordr_E" = 7931.246   $ Sizing
 "ClCap_Sys_T_Cordr_N" = 5431.035   $ Sizing
 "ClCap_Sys_T_Cordr_S" = 8436.244   $ Sizing
 "ClCap_Sys_T_Cordr_W" = 8972.638   $ Sizing
 "ClCap_Sys_T_LobWait_C" = 18958.77   $ Sizing
 "ClCap_Sys_T_MechElec_C" = 5092.209   $ Sizing
 "ClCap_Sys_T_OfficeOpn_C" = 61164.58   $ Sizing
 "ClCap_Sys_T_OfficeOpn_E" = 53275.4   $ Sizing
 "ClCap_Sys_T_OfficeOpn_N" = 39245.09   $ Sizing
 "ClCap_Sys_T_OfficeOpn_S" = 57620.47   $ Sizing
 "ClCap_Sys_T_OfficeOpn_W" = 62922.88   $ Sizing
 "ClCap_Sys_T_OfficeSm_C" = 8712.244   $ Sizing
 "ClCap_Sys_T_OfficeSm_E" = 38517.02   $ Sizing
 "ClCap_Sys_T_OfficeSm_N" = 25563.13   $ Sizing
 "ClCap_Sys_T_OfficeSm_S" = 40831.36   $ Sizing
 "ClCap_Sys_T_OfficeSm_W" = 44896.08   $ Sizing
 "ClCap_Sys_T_Restrm_C" = 4328.839   $ Sizing
 "ClCap_Sys_T_StorSm_C" = 8733.892   $ Sizing
 "HtCap_Sys_L_Break_C" = -29072.16   $ Sizing
 "HtCap_Sys_L_Conf_C" = -29072.19   $ Sizing
 "HtCap_Sys_L_CopyRm_C" = -10379.68   $ Sizing
 "HtCap_Sys_L_Cordr_C" = -26913.66   $ Sizing
 "HtCap_Sys_L_Cordr_E" = -8602.977   $ Sizing
 "HtCap_Sys_L_Cordr_N" = -5863.59   $ Sizing
 "HtCap_Sys_L_Cordr_S" = -8694.361   $ Sizing
 "HtCap_Sys_L_Cordr_W" = -8791.04   $ Sizing
 "HtCap_Sys_L_LobWait_C" = -27763.57   $ Sizing
 "HtCap_Sys_L_MechElec_C" = -6001.303   $ Sizing
 "HtCap_Sys_L_OfficeOpn_C" = -85875.23   $ Sizing
 "HtCap_Sys_L_OfficeOpn_E" = -55742.49   $ Sizing
 "HtCap_Sys_L_OfficeOpn_N" = -40417.8   $ Sizing
 "HtCap_Sys_L_OfficeOpn_S" = -58831.59   $ Sizing
 "HtCap_Sys_L_OfficeOpn_W" = -61039.21   $ Sizing
 "HtCap_Sys_L_OfficeSm_C" = -9522.807   $ Sizing
 "HtCap_Sys_L_OfficeSm_E" = -41636.02   $ Sizing
 "HtCap_Sys_L_OfficeSm_N" = -26267.16   $ Sizing
 "HtCap_Sys_L_OfficeSm_S" = -42778.7   $ Sizing
 "HtCap_Sys_L_OfficeSm_W" = -44283.82   $ Sizing
 "HtCap_Sys_L_Restrm_C" = -7700.881   $ Sizing
 "HtCap_Sys_L_StorSm_C" = -17059.9   $ Sizing
 "HtCap_Sys_M_Break_C" = -223663.5   $ Sizing
 "HtCap_Sys_M_Conf_C" = -218269.6   $ Sizing
 "HtCap_Sys_M_CopyRm_C" = -70804.65   $ Sizing
 "HtCap_Sys_M_Cordr_C" = -293210.1   $ Sizing
 "HtCap_Sys_M_Cordr_E" = -78874.8   $ Sizing
 "HtCap_Sys_M_Cordr_N" = -50119.52   $ Sizing
 "HtCap_Sys_M_Cordr_S" = -76862.61   $ Sizing
 "HtCap_Sys_M_Cordr_W" = -73838.99   $ Sizing
 "HtCap_Sys_M_LobWait_C" = -203871.6   $ Sizing
 "HtCap_Sys_M_MechElec_C" = -56352.04   $ Sizing
 "HtCap_Sys_M_OfficeOpn_C" = -821387.6   $ Sizing
 "HtCap_Sys_M_OfficeOpn_E" = -506549.9   $ Sizing
 "HtCap_Sys_M_OfficeOpn_N" = -334003.3   $ Sizing
 "HtCap_Sys_M_OfficeOpn_S" = -498231.4   $ Sizing
 "HtCap_Sys_M_OfficeOpn_W" = -502604.9   $ Sizing
 "HtCap_Sys_M_OfficeSm_C" = -92164.66   $ Sizing
 "HtCap_Sys_M_OfficeSm_E" = -355078.2   $ Sizing
 "HtCap_Sys_M_OfficeSm_N" = -216285.5   $ Sizing
 "HtCap_Sys_M_OfficeSm_S" = -359064.6   $ Sizing
 "HtCap_Sys_M_OfficeSm_W" = -361278   $ Sizing
 "HtCap_Sys_M_Restrm_C" = -66328.62   $ Sizing
 "HtCap_Sys_M_StorSm_C" = -140978.9   $ Sizing
 "HtCap_Sys_T_Break_C" = -29585.75   $ Sizing
 "HtCap_Sys_T_Conf_C" = -28812.3   $ Sizing
 "HtCap_Sys_T_CopyRm_C" = -9869.716   $ Sizing
 "HtCap_Sys_T_Cordr_C" = -35256.85   $ Sizing
 "HtCap_Sys_T_Cordr_E" = -9800.317   $ Sizing
 "HtCap_Sys_T_Cordr_N" = -6888.382   $ Sizing
 "HtCap_Sys_T_Cordr_S" = -9863.428   $ Sizing
 "HtCap_Sys_T_Cordr_W" = -10191.59   $ Sizing
 "HtCap_Sys_T_LobWait_C" = -28115.99   $ Sizing
 "HtCap_Sys_T_MechElec_C" = -7669.687   $ Sizing
 "HtCap_Sys_T_OfficeOpn_C" = -87471.8   $ Sizing
 "HtCap_Sys_T_OfficeOpn_E" = -63724.23   $ Sizing
 "HtCap_Sys_T_OfficeOpn_N" = -46831.33   $ Sizing
 "HtCap_Sys_T_OfficeOpn_S" = -65332.55   $ Sizing
 "HtCap_Sys_T_OfficeOpn_W" = -67103.22   $ Sizing
 "HtCap_Sys_T_OfficeSm_C" = -11668.94   $ Sizing
 "HtCap_Sys_T_OfficeSm_E" = -46029.96   $ Sizing
 "HtCap_Sys_T_OfficeSm_N" = -30261.51   $ Sizing
 "HtCap_Sys_T_OfficeSm_S" = -47672.65   $ Sizing
 "HtCap_Sys_T_OfficeSm_W" = -47901.54   $ Sizing
 "HtCap_Sys_T_Restrm_C" = -8465.243   $ Sizing
 "HtCap_Sys_T_StorSm_C" = -15975.76   $ Sizing
..

##include Templates\OfL_DX_SZ.inp
END ..
COMPUTE ..
STOP ..
