INPUT ..

##fileprefix C:\Users\jglasskatz\MASControl3\
##set1 IsSizing FALSE
##set1 CoolType DX
##set1 HeatType FURNACE
##set1 EU_HrRepVar 0
##set1 BldgVint 2007
##set1 BldgLoc CZ11

 ##set1 mBFMult 1   $ IP Tech: RefgChg-NRes-Std

PARAMETER
 "AltFactor" = 1.01292   $ IP Non-Tech
 "BF_fFlow" = SpltAC2SpHiSEER_BF_fFlow   $ Msr (Multi)TechID: MsrNResSplitAC-lt45-S17
 "BF_fT" = SpltAC2SpHiSEER_BF_fT   $ Msr (Multi)TechID: MsrNResSplitAC-lt45-S17
 "BldgEconoFlag" = 1   $ IP Non-Tech
 "Break_EWSF" = 1   $ IP Non-Tech
 "Break_LWSF" = 1.1   $ IP Non-Tech
 "CDD_DBHi10" = 85   $ IP Non-Tech
 "CDD_DBHi7" = 106   $ IP Non-Tech
 "CDD_DBHi8" = 106   $ IP Non-Tech
 "CDD_DBHi9" = 99   $ IP Non-Tech
 "CDD_DBRange10" = 23   $ IP Non-Tech
 "CDD_DBRange7" = 30   $ IP Non-Tech
 "CDD_DBRange8" = 33   $ IP Non-Tech
 "CDD_DBRange9" = 33   $ IP Non-Tech
 "CDD_Day10" = 15   $ IP Non-Tech
 "CDD_Day7" = 16   $ IP Non-Tech
 "CDD_Day8" = 20   $ IP Non-Tech
 "CDD_Day9" = 17   $ IP Non-Tech
 "CDD_HrHi10" = 16   $ IP Non-Tech
 "CDD_HrHi7" = 16   $ IP Non-Tech
 "CDD_HrHi8" = 16   $ IP Non-Tech
 "CDD_HrHi9" = 16   $ IP Non-Tech
 "CDD_HrLo10" = 6   $ IP Non-Tech
 "CDD_HrLo7" = 7   $ IP Non-Tech
 "CDD_HrLo8" = 7   $ IP Non-Tech
 "CDD_HrLo9" = 7   $ IP Non-Tech
 "CDD_WB10" = 59.3704567   $ IP Non-Tech
 "CDD_WB7" = 72.37876129   $ IP Non-Tech
 "CDD_WB8" = 69.41531372   $ IP Non-Tech
 "CDD_WB9" = 65.60124207   $ IP Non-Tech
 "CEIR_fPLR_Hot" = SpltAC2SpHiSEER_CEIR_fPLR_Hot   $ Msr (Multi)TechID: MsrNResSplitAC-lt45-S17
 "CEIR_fPLR_Mod" = SpltAC2SpHiSEER_CEIR_fPLR_Mod   $ Msr (Multi)TechID: MsrNResSplitAC-lt45-S17
 "CEIR_fPLR_Tem" = SpltAC2SpHiSEER_CEIR_fPLR_Tem   $ Msr (Multi)TechID: MsrNResSplitAC-lt45-S17
 "CLoss_fPLR_Hot" = SpltAC2SpHiSEER_CLoss_fPLR_Hot   $ Msr (Multi)TechID: MsrNResSplitAC-lt45-S17
 "CLoss_fPLR_Mod" = SpltAC2SpHiSEER_CLoss_fPLR_Mod   $ Msr (Multi)TechID: MsrNResSplitAC-lt45-S17
 "CLoss_fPLR_Tem" = SpltAC2SpHiSEER_CLoss_fPLR_Tem   $ Msr (Multi)TechID: MsrNResSplitAC-lt45-S17
 "COP47" = 0   $ Msr (Multi)TechID: MsrNResSplitAC-lt45-S17
 "CZ_Category" = Hot   $ IP Non-Tech
 "CapRange" = Any   $ Msr (Multi)TechID: MsrNResSplitAC-lt45-S17
 "CfmPerBtuh" = 0.03   $ Msr (Multi)TechID: MsrNResSplitAC-lt45-S17
 "ChwVintEconoFlag" = 1   $ IP Non-Tech
 "ClCap_fT" = SpltAC2SpHiSEER_ClCap_fT   $ Msr (Multi)TechID: MsrNResSplitAC-lt45-S17
 "ClSH_fT" = SpltAC2SpHiSEER_ClSH_fT   $ Msr (Multi)TechID: MsrNResSplitAC-lt45-S17
 "CoilBF" = 0.102   $ Msr (Multi)TechID: MsrNResSplitAC-lt45-S17
 "CondWPerBtuh" = 0   $ Msr (Multi)TechID: MsrNResSplitAC-lt45-S17
 "Conference_EWSF" = 1   $ IP Non-Tech
 "Conference_LWSF" = 1.4   $ IP Non-Tech
 "CoolSensCap" = 0.724   $ Msr (Multi)TechID: MsrNResSplitAC-lt45-S17
 "CoolSetT" = 45   $ IP Non-Tech
 "CoolType" = DX   $ IP Non-Tech
 "CoolingEIR" = 0.2225   $ Msr (Multi)TechID: MsrNResSplitAC-lt45-S17
 "CopyRoom_EWSF" = 1.5   $ IP Non-Tech
 "CopyRoom_LWSF" = 1.3   $ IP Non-Tech
 "CorridorStairway_EWSF" = 0.2   $ IP Non-Tech
 "CorridorStairway_LWSF" = 0.6   $ IP Non-Tech
 "CrnkEIR" = 0.002225   $ Msr (Multi)TechID: MsrNResSplitAC-lt45-S17
 "CrnkMaxT" = 50   $ Msr (Multi)TechID: MsrNResSplitAC-lt45-S17
 "DXType" = SplitSEER   $ Msr (Multi)TechID: MsrNResSplitAC-lt45-S17
 "DesCoolT" = 75   $ IP Non-Tech
 "DesHeatT" = 73   $ IP Non-Tech
 "EER" = 13.26   $ Msr (Multi)TechID: MsrNResSplitAC-lt45-S17
 "EIR_fT" = SpltAC2SpHiSEER_EIR_fT   $ Msr (Multi)TechID: MsrNResSplitAC-lt45-S17
 "EconoCtrl" = FIXED   $ Msr (Multi)TechID: MsrNResSplitAC-lt45-S17
 "EconoEnthLimit" = 28   $ IP Non-Tech
 "EconoTempLimit" = 75   $ IP Non-Tech
 "Elevation" = 348   $ IP Non-Tech
 "FanEirPlr" = TwoSpeedFan   $ Msr (Multi)TechID: MsrNResSplitAC-lt45-S17
 "FanWPerCfm" = 0.271   $ Msr (Multi)TechID: MsrNResSplitAC-lt45-S17
 "HDD_CloudAmt1" = 0   $ IP Non-Tech
 "HDD_DBHi1" = 46   $ IP Non-Tech
 "HDD_DBRange1" = 14   $ IP Non-Tech
 "HDD_Day1" = 15   $ IP Non-Tech
 "HDD_HrHi1" = 16   $ IP Non-Tech
 "HDD_HrLo1" = 7   $ IP Non-Tech
 "HDD_WB1" = 39.9   $ IP Non-Tech
 "HDD_WindSpd1" = 19.6   $ IP Non-Tech
 "HIR_fT" = 0   $ Msr (Multi)TechID: MsrNResSplitAC-lt45-S17
 "HSPF" = 0   $ Msr (Multi)TechID: MsrNResSplitAC-lt45-S17
 "HeatSrc" = FURNACE   $ IP Non-Tech
 "HeatSrcTU" = HEAT-PUMP   $ IP Non-Tech
 "HeatType" = GasFurn   $ IP Non-Tech
 "HeatTypeTU" = HEAT-PUMP   $ IP Non-Tech
 "HtCap_fT" = 0   $ Msr (Multi)TechID: MsrNResSplitAC-lt45-S17
 "HtCoolCapRatio" = 0   $ Msr (Multi)TechID: MsrNResSplitAC-lt45-S17
 "HtgEIR" = 0   $ Msr (Multi)TechID: MsrNResSplitAC-lt45-S17
 "IndoorFanMode" = CONTINUOUS   $ IP Non-Tech
 "KT_TransferAir" = No   $ IP Non-Tech
 "Latitude" = 40.2   $ IP Non-Tech
 "LobbyWaiting_EWSF" = 0.5   $ IP Non-Tech
 "LobbyWaiting_LWSF" = 1.3   $ IP Non-Tech
 "Longitude" = 122.3   $ IP Non-Tech
 "LowSpdCapRatio" = 0.686   $ Msr (Multi)TechID: MsrNResSplitAC-lt45-S17
 "LowSpdCfmRatio" = 0.739   $ Msr (Multi)TechID: MsrNResSplitAC-lt45-S17
 "MZFanMechEff" = 0.58   $ IP Non-Tech
 "MZHasRetFan" = FALSE   $ IP Non-Tech
 "MZ_RFanWPerCfm" = 0.37   $ IP Non-Tech
 "MZ_SFanWPerCfm" = 0.71   $ IP Non-Tech
 "MZ_SupFanStatic" = 2.25   $ IP Non-Tech
 "MaxOAFrac" = 1   $ Msr (Multi)TechID: MsrNResSplitAC-lt45-S17
 "MaxSupT_MZ" = 100   $ IP Non-Tech
 "MaxSupT_SZ" = 100   $ IP Non-Tech
 "MaxSupT_TU" = 90   $ IP Non-Tech
 "MechElecRoom_EWSF" = 0.2   $ IP Non-Tech
 "MechElecRoom_LWSF" = 0.7   $ IP Non-Tech
 "MinCfmPerSF" = 0.4   $ IP Non-Tech
 "MinSupT" = 55   $ IP Non-Tech
 "NumStages" = 2   $ Msr (Multi)TechID: MsrNResSplitAC-lt45-S17
 "OccCoolT" = 76   $ IP Non-Tech
 "OccHeatT" = 72   $ IP Non-Tech
 "OfficeOpen_EWSF" = 1.5   $ IP Non-Tech
 "OfficeOpen_LWSF" = 1.2   $ IP Non-Tech
 "OfficeSmall_EWSF" = 1.5   $ IP Non-Tech
 "OfficeSmall_LWSF" = 1.3   $ IP Non-Tech
 "PkgDxVintEconoFlag" = 0   $ IP Non-Tech
 "Restroom_EWSF" = 0.2   $ IP Non-Tech
 "Restroom_LWSF" = 0.6   $ IP Non-Tech
 "SEER" = 17   $ Msr (Multi)TechID: MsrNResSplitAC-lt45-S17
 "SZFanMechEff" = 0.58   $ IP Non-Tech
 "SZHasRetFan" = FALSE   $ IP Non-Tech
 "SZ_Is_2Spd" = FALSE   $ IP Non-Tech
 "SZ_SFanWPerCfm" = 0.46   $ IP Non-Tech
 "SZ_SupFanStatic" = 0.75   $ IP Non-Tech
 "Sector" = Any   $ Msr (Multi)TechID: MsrNResSplitAC-lt45-S17
 "StorageSmlCond_EWSF" = 0.2   $ IP Non-Tech
 "StorageSmlCond_LWSF" = 0.6   $ IP Non-Tech
 "SubType" = AC   $ Msr (Multi)TechID: MsrNResSplitAC-lt45-S17
 "T24GlzTbl" = CZTbl   $ IP Non-Tech
 "TermUnitFanMechEff" = 1   $ IP Non-Tech
 "TermUnitFanMode" = INTERMITTENT   $ IP Non-Tech
 "TotCoolCap" = 58805   $ Msr (Multi)TechID: MsrNResSplitAC-lt45-S17
 "TwrSetpt" = 85.8   $ IP Non-Tech
 "UnocCoolT" = 86   $ IP Non-Tech
 "UnocHeatT" = 62   $ IP Non-Tech
 "UseEconoVintApplic" = FALSE   $ Msr (Multi)TechID: MsrNResSplitAC-lt45-S17
 "WlhpVintEconoFlag" = 0   $ IP Non-Tech
 "DuctDT" = 1   $ IP Tech: ComDuctInsul-1
 "DuctAirLoss" = 0   $ IP Tech: ComDuctLeak-0
 "DuctLossOAFrac" = 0   $ IP Tech: ComDuctLeak-0
 "ComRoofInsCalc" = FromUo   $ IP Tech: ComRoofIns-Hvy-0.05
 "ComRoofInsR" = -999   $ IP Tech: ComRoofIns-Hvy-0.05
 "ComRoofUo" = 0.05   $ IP Tech: ComRoofIns-Hvy-0.05
 "ComEWInsCalc" = FromUo   $ IP Tech: ComWallIns-MFrm-0.13
 "ComEWInsR" = -999   $ IP Tech: ComWallIns-MFrm-0.13
 "ComEWUo" = 0.13   $ IP Tech: ComWallIns-MFrm-0.13
 "ComN_SHGC" = 0.47   $ IP Tech: NResWin-ComN-0.47-0.47
 "ComN_UFactor" = 0.47   $ IP Tech: NResWin-ComN-0.47-0.47
 "ComN_VisTrans" = 0.75   $ IP Tech: NResWin-ComN-0.47-0.47
 "ComN_WinCode" = G2633   $ IP Tech: NResWin-ComN-0.47-0.47
 "ComN_WinFrmFrac" = 0.17   $ IP Tech: NResWin-ComN-0.47-0.47
 "ComN_WinFrmU" = 0.3   $ IP Tech: NResWin-ComN-0.47-0.47
 "ComO_SHGC" = 0.31   $ IP Tech: NResWin-ComO-0.47-0.31
 "ComO_UFactor" = 0.47   $ IP Tech: NResWin-ComO-0.47-0.31
 "ComO_VisTrans" = 0.44   $ IP Tech: NResWin-ComO-0.47-0.31
 "ComO_WinCode" = G2637   $ IP Tech: NResWin-ComO-0.47-0.31
 "ComO_WinFrmFrac" = 0.17   $ IP Tech: NResWin-ComO-0.47-0.31
 "ComO_WinFrmU" = 0.3   $ IP Tech: NResWin-ComO-0.47-0.31
 "LtgMsrApplic" = ALL   $ IP Tech: NonResLtgRefPre
 "LtgSav_CFL" = 0   $ IP Tech: NonResLtgRefPre
 "LtgSav_EX" = 0   $ IP Tech: NonResLtgRefPre
 "LtgSav_HB" = 0   $ IP Tech: NonResLtgRefPre
 "LtgSav_LF" = 0   $ IP Tech: NonResLtgRefPre
 "LtgSav_SP" = 0   $ IP Tech: NonResLtgRefPre
 "CEIR_fPLR" = PSZ65to135_CEIR_fPLR   $ IP Tech: PkgAC1SpH-65to135-E10
 "CLoss_fPLR" = PSZ65to135_CLoss_fPLR   $ IP Tech: PkgAC1SpH-65to135-E10
 "COP" = -1   $ IP Tech: PkgAC1SpH-65to135-E10
 "HtgFuel" = Gas   $ IP Tech: PkgAC1SpH-65to135-E10
 "IEER" = 11.87   $ IP Tech: PkgAC1SpH-65to135-E10
 "NominalCap" = 15   $ IP Tech: PkgAC1SpH-65to135-E10
 "RatedEER" = 10   $ IP Tech: PkgAC1SpH-65to135-E10
 "RatedSupMtrClass" = HiEff   $ IP Tech: PkgAC1SpH-65to135-E10
 "SizeRange" = 65to135   $ IP Tech: PkgAC1SpH-65to135-E10
 "SupMotEff" = 0.84   $ IP Tech: PkgAC1SpH-65to135-E10
 "Tier" = 0   $ IP Tech: PkgAC1SpH-65to135-E10
 "FanPwrMult" = 1   $ IP Tech: PkgFurn-0.80AFUE
 "FurnAFUE" = 0.8   $ IP Tech: PkgFurn-0.80AFUE
 "FurnEt" = 0.82   $ IP Tech: PkgFurn-0.80AFUE
 "FurnaceAuxKW" = 0.1   $ IP Tech: PkgFurn-0.80AFUE
 "HIR_fPLR" = Furnace-HIR-fPLR   $ IP Tech: PkgFurn-0.80AFUE
 "VSM" = FALSE   $ IP Tech: PkgFurn-0.80AFUE
 "BFMult" = 1   $ IP Tech: RefgChg-NRes-Std
 "CoolEirMult" = 1   $ IP Tech: RefgChg-NRes-Std
 "SensCoolCapMult" = 1   $ IP Tech: RefgChg-NRes-Std
 "TotCoolCapMult" = 1   $ IP Tech: RefgChg-NRes-Std
 "AltAdjFactor" = 1.012923   $ Sizing
 "CAssFlo_L_Break_CZn" = 590.3505   $ Sizing
 "CAssFlo_L_Conf_CZn" = 575.12   $ Sizing
 "CAssFlo_L_CopyRm_CZn" = 185.836   $ Sizing
 "CAssFlo_L_Cordr_CZn" = 705.7605   $ Sizing
 "CAssFlo_L_Cordr_EZn" = 241.9616   $ Sizing
 "CAssFlo_L_Cordr_NZn" = 186.5055   $ Sizing
 "CAssFlo_L_Cordr_SZn" = 232.2066   $ Sizing
 "CAssFlo_L_Cordr_WZn" = 273.2221   $ Sizing
 "CAssFlo_L_LobWait_CZn" = 596.09   $ Sizing
 "CAssFlo_L_MechElec_CZn" = 128.1448   $ Sizing
 "CAssFlo_L_OfficeOpn_CZn" = 1960.351   $ Sizing
 "CAssFlo_L_OfficeOpn_EZn" = 1691.593   $ Sizing
 "CAssFlo_L_OfficeOpn_NZn" = 1339.61   $ Sizing
 "CAssFlo_L_OfficeOpn_SZn" = 1656.237   $ Sizing
 "CAssFlo_L_OfficeOpn_WZn" = 1944.901   $ Sizing
 "CAssFlo_L_OfficeSm_CZn" = 249.6228   $ Sizing
 "CAssFlo_L_OfficeSm_EZn" = 1200.767   $ Sizing
 "CAssFlo_L_OfficeSm_NZn" = 881.04   $ Sizing
 "CAssFlo_L_OfficeSm_SZn" = 1180.636   $ Sizing
 "CAssFlo_L_OfficeSm_WZn" = 1352.314   $ Sizing
 "CAssFlo_L_Restrm_CZn" = 95.96021   $ Sizing
 "CAssFlo_L_StorSm_CZn" = 390.2278   $ Sizing
 "CAssFlo_M_Break_CZn" = 596.3524   $ Sizing
 "CAssFlo_M_Conf_CZn" = 577.21   $ Sizing
 "CAssFlo_M_CopyRm_CZn" = 182.7476   $ Sizing
 "CAssFlo_M_Cordr_CZn" = 908.8408   $ Sizing
 "CAssFlo_M_Cordr_EZn" = 277.0729   $ Sizing
 "CAssFlo_M_Cordr_NZn" = 202.9891   $ Sizing
 "CAssFlo_M_Cordr_SZn" = 255.6897   $ Sizing
 "CAssFlo_M_Cordr_WZn" = 287.1573   $ Sizing
 "CAssFlo_M_LobWait_CZn" = 615.463   $ Sizing
 "CAssFlo_M_MechElec_CZn" = 160.4476   $ Sizing
 "CAssFlo_M_OfficeOpn_CZn" = 1983.214   $ Sizing
 "CAssFlo_M_OfficeOpn_EZn" = 1833.393   $ Sizing
 "CAssFlo_M_OfficeOpn_NZn" = 1411.607   $ Sizing
 "CAssFlo_M_OfficeOpn_SZn" = 1754.82   $ Sizing
 "CAssFlo_M_OfficeOpn_WZn" = 1996.287   $ Sizing
 "CAssFlo_M_OfficeSm_CZn" = 278.2262   $ Sizing
 "CAssFlo_M_OfficeSm_EZn" = 1282.208   $ Sizing
 "CAssFlo_M_OfficeSm_NZn" = 921.6855   $ Sizing
 "CAssFlo_M_OfficeSm_SZn" = 1238.013   $ Sizing
 "CAssFlo_M_OfficeSm_WZn" = 1378.104   $ Sizing
 "CAssFlo_M_Restrm_CZn" = 103.5154   $ Sizing
 "CAssFlo_M_StorSm_CZn" = 424.6808   $ Sizing
 "CAssFlo_T_Break_CZn" = 590.0698   $ Sizing
 "CAssFlo_T_Conf_CZn" = 571.2379   $ Sizing
 "CAssFlo_T_CopyRm_CZn" = 179.5591   $ Sizing
 "CAssFlo_T_Cordr_CZn" = 860.6479   $ Sizing
 "CAssFlo_T_Cordr_EZn" = 276.8611   $ Sizing
 "CAssFlo_T_Cordr_NZn" = 207.4517   $ Sizing
 "CAssFlo_T_Cordr_SZn" = 258.6782   $ Sizing
 "CAssFlo_T_Cordr_WZn" = 290.6325   $ Sizing
 "CAssFlo_T_LobWait_CZn" = 608.1962   $ Sizing
 "CAssFlo_T_MechElec_CZn" = 192.1459   $ Sizing
 "CAssFlo_T_OfficeOpn_CZn" = 2042.261   $ Sizing
 "CAssFlo_T_OfficeOpn_EZn" = 1839.694   $ Sizing
 "CAssFlo_T_OfficeOpn_NZn" = 1448.767   $ Sizing
 "CAssFlo_T_OfficeOpn_SZn" = 1777.085   $ Sizing
 "CAssFlo_T_OfficeOpn_WZn" = 2004.943   $ Sizing
 "CAssFlo_T_OfficeSm_CZn" = 259.6127   $ Sizing
 "CAssFlo_T_OfficeSm_EZn" = 1317.357   $ Sizing
 "CAssFlo_T_OfficeSm_NZn" = 951.916   $ Sizing
 "CAssFlo_T_OfficeSm_SZn" = 1251.316   $ Sizing
 "CAssFlo_T_OfficeSm_WZn" = 1411.968   $ Sizing
 "CAssFlo_T_Restrm_CZn" = 155.6768   $ Sizing
 "CAssFlo_T_StorSm_CZn" = 320.4723   $ Sizing
 "CHRtFlo_Sys_L_Break_C" = 590.3505   $ Sizing
 "CHRtFlo_Sys_L_Conf_C" = 575.12   $ Sizing
 "CHRtFlo_Sys_L_CopyRm_C" = 185.836   $ Sizing
 "CHRtFlo_Sys_L_Cordr_C" = 705.7605   $ Sizing
 "CHRtFlo_Sys_L_Cordr_E" = 269.6966   $ Sizing
 "CHRtFlo_Sys_L_Cordr_N" = 186.5055   $ Sizing
 "CHRtFlo_Sys_L_Cordr_S" = 259.3517   $ Sizing
 "CHRtFlo_Sys_L_Cordr_W" = 273.2221   $ Sizing
 "CHRtFlo_Sys_L_LobWait_C" = 596.09   $ Sizing
 "CHRtFlo_Sys_L_MechElec_C" = 148.0909   $ Sizing
 "CHRtFlo_Sys_L_OfficeOpn_C" = 1960.351   $ Sizing
 "CHRtFlo_Sys_L_OfficeOpn_E" = 1924.799   $ Sizing
 "CHRtFlo_Sys_L_OfficeOpn_N" = 1339.61   $ Sizing
 "CHRtFlo_Sys_L_OfficeOpn_S" = 1895.316   $ Sizing
 "CHRtFlo_Sys_L_OfficeOpn_W" = 1944.901   $ Sizing
 "CHRtFlo_Sys_L_OfficeSm_C" = 267.622   $ Sizing
 "CHRtFlo_Sys_L_OfficeSm_E" = 1389.901   $ Sizing
 "CHRtFlo_Sys_L_OfficeSm_N" = 881.04   $ Sizing
 "CHRtFlo_Sys_L_OfficeSm_S" = 1380.517   $ Sizing
 "CHRtFlo_Sys_L_OfficeSm_W" = 1358.975   $ Sizing
 "CHRtFlo_Sys_L_Restrm_C" = 212.9946   $ Sizing
 "CHRtFlo_Sys_L_StorSm_C" = 445.0126   $ Sizing
 "CHRtFlo_Sys_M_Break_C" = 4770.819   $ Sizing
 "CHRtFlo_Sys_M_Conf_C" = 4617.68   $ Sizing
 "CHRtFlo_Sys_M_CopyRm_C" = 1461.981   $ Sizing
 "CHRtFlo_Sys_M_Cordr_C" = 8424.143   $ Sizing
 "CHRtFlo_Sys_M_Cordr_E" = 2530.512   $ Sizing
 "CHRtFlo_Sys_M_Cordr_N" = 1623.913   $ Sizing
 "CHRtFlo_Sys_M_Cordr_S" = 2342.732   $ Sizing
 "CHRtFlo_Sys_M_Cordr_W" = 2297.259   $ Sizing
 "CHRtFlo_Sys_M_LobWait_C" = 4923.704   $ Sizing
 "CHRtFlo_Sys_M_MechElec_C" = 1575.845   $ Sizing
 "CHRtFlo_Sys_M_OfficeOpn_C" = 17205.96   $ Sizing
 "CHRtFlo_Sys_M_OfficeOpn_E" = 16826.19   $ Sizing
 "CHRtFlo_Sys_M_OfficeOpn_N" = 11292.86   $ Sizing
 "CHRtFlo_Sys_M_OfficeOpn_S" = 16366.01   $ Sizing
 "CHRtFlo_Sys_M_OfficeOpn_W" = 15970.29   $ Sizing
 "CHRtFlo_Sys_M_OfficeSm_C" = 2675.919   $ Sizing
 "CHRtFlo_Sys_M_OfficeSm_E" = 11966.66   $ Sizing
 "CHRtFlo_Sys_M_OfficeSm_N" = 7373.483   $ Sizing
 "CHRtFlo_Sys_M_OfficeSm_S" = 11786.58   $ Sizing
 "CHRtFlo_Sys_M_OfficeSm_W" = 11258.35   $ Sizing
 "CHRtFlo_Sys_M_Restrm_C" = 1703.957   $ Sizing
 "CHRtFlo_Sys_M_StorSm_C" = 4096.169   $ Sizing
 "CHRtFlo_Sys_T_Break_C" = 590.0698   $ Sizing
 "CHRtFlo_Sys_T_Conf_C" = 571.2379   $ Sizing
 "CHRtFlo_Sys_T_CopyRm_C" = 179.5591   $ Sizing
 "CHRtFlo_Sys_T_Cordr_C" = 888.7513   $ Sizing
 "CHRtFlo_Sys_T_Cordr_E" = 278.8663   $ Sizing
 "CHRtFlo_Sys_T_Cordr_N" = 207.4517   $ Sizing
 "CHRtFlo_Sys_T_Cordr_S" = 264.184   $ Sizing
 "CHRtFlo_Sys_T_Cordr_W" = 290.6325   $ Sizing
 "CHRtFlo_Sys_T_LobWait_C" = 608.1962   $ Sizing
 "CHRtFlo_Sys_T_MechElec_C" = 244.5194   $ Sizing
 "CHRtFlo_Sys_T_OfficeOpn_C" = 2042.261   $ Sizing
 "CHRtFlo_Sys_T_OfficeOpn_E" = 1904.909   $ Sizing
 "CHRtFlo_Sys_T_OfficeOpn_N" = 1448.767   $ Sizing
 "CHRtFlo_Sys_T_OfficeOpn_S" = 1897.983   $ Sizing
 "CHRtFlo_Sys_T_OfficeOpn_W" = 2004.943   $ Sizing
 "CHRtFlo_Sys_T_OfficeSm_C" = 293.7751   $ Sizing
 "CHRtFlo_Sys_T_OfficeSm_E" = 1395.853   $ Sizing
 "CHRtFlo_Sys_T_OfficeSm_N" = 951.916   $ Sizing
 "CHRtFlo_Sys_T_OfficeSm_S" = 1400.804   $ Sizing
 "CHRtFlo_Sys_T_OfficeSm_W" = 1411.968   $ Sizing
 "CHRtFlo_Sys_T_Restrm_C" = 212.9946   $ Sizing
 "CHRtFlo_Sys_T_StorSm_C" = 335.8768   $ Sizing
 "CRtdFlo_Sys_L_Break_C" = 590.3505   $ Sizing
 "CRtdFlo_Sys_L_Conf_C" = 575.12   $ Sizing
 "CRtdFlo_Sys_L_CopyRm_C" = 185.836   $ Sizing
 "CRtdFlo_Sys_L_Cordr_C" = 705.7605   $ Sizing
 "CRtdFlo_Sys_L_Cordr_E" = 241.9617   $ Sizing
 "CRtdFlo_Sys_L_Cordr_N" = 186.5055   $ Sizing
 "CRtdFlo_Sys_L_Cordr_S" = 232.2066   $ Sizing
 "CRtdFlo_Sys_L_Cordr_W" = 273.2221   $ Sizing
 "CRtdFlo_Sys_L_LobWait_C" = 596.09   $ Sizing
 "CRtdFlo_Sys_L_MechElec_C" = 128.1448   $ Sizing
 "CRtdFlo_Sys_L_OfficeOpn_C" = 1960.351   $ Sizing
 "CRtdFlo_Sys_L_OfficeOpn_E" = 1691.593   $ Sizing
 "CRtdFlo_Sys_L_OfficeOpn_N" = 1339.61   $ Sizing
 "CRtdFlo_Sys_L_OfficeOpn_S" = 1656.237   $ Sizing
 "CRtdFlo_Sys_L_OfficeOpn_W" = 1944.901   $ Sizing
 "CRtdFlo_Sys_L_OfficeSm_C" = 249.6228   $ Sizing
 "CRtdFlo_Sys_L_OfficeSm_E" = 1200.767   $ Sizing
 "CRtdFlo_Sys_L_OfficeSm_N" = 881.04   $ Sizing
 "CRtdFlo_Sys_L_OfficeSm_S" = 1180.636   $ Sizing
 "CRtdFlo_Sys_L_OfficeSm_W" = 1352.314   $ Sizing
 "CRtdFlo_Sys_L_Restrm_C" = 95.9602   $ Sizing
 "CRtdFlo_Sys_L_StorSm_C" = 390.2278   $ Sizing
 "CRtdFlo_Sys_M_Break_C" = 4770.819   $ Sizing
 "CRtdFlo_Sys_M_Conf_C" = 4617.68   $ Sizing
 "CRtdFlo_Sys_M_CopyRm_C" = 1461.981   $ Sizing
 "CRtdFlo_Sys_M_Cordr_C" = 7270.727   $ Sizing
 "CRtdFlo_Sys_M_Cordr_E" = 2216.583   $ Sizing
 "CRtdFlo_Sys_M_Cordr_N" = 1623.913   $ Sizing
 "CRtdFlo_Sys_M_Cordr_S" = 2045.517   $ Sizing
 "CRtdFlo_Sys_M_Cordr_W" = 2297.259   $ Sizing
 "CRtdFlo_Sys_M_LobWait_C" = 4923.704   $ Sizing
 "CRtdFlo_Sys_M_MechElec_C" = 1283.581   $ Sizing
 "CRtdFlo_Sys_M_OfficeOpn_C" = 15865.71   $ Sizing
 "CRtdFlo_Sys_M_OfficeOpn_E" = 14667.14   $ Sizing
 "CRtdFlo_Sys_M_OfficeOpn_N" = 11292.86   $ Sizing
 "CRtdFlo_Sys_M_OfficeOpn_S" = 14038.56   $ Sizing
 "CRtdFlo_Sys_M_OfficeOpn_W" = 15970.29   $ Sizing
 "CRtdFlo_Sys_M_OfficeSm_C" = 2225.809   $ Sizing
 "CRtdFlo_Sys_M_OfficeSm_E" = 10257.66   $ Sizing
 "CRtdFlo_Sys_M_OfficeSm_N" = 7373.483   $ Sizing
 "CRtdFlo_Sys_M_OfficeSm_S" = 9904.104   $ Sizing
 "CRtdFlo_Sys_M_OfficeSm_W" = 11024.83   $ Sizing
 "CRtdFlo_Sys_M_Restrm_C" = 828.1231   $ Sizing
 "CRtdFlo_Sys_M_StorSm_C" = 3397.446   $ Sizing
 "CRtdFlo_Sys_T_Break_C" = 590.0698   $ Sizing
 "CRtdFlo_Sys_T_Conf_C" = 571.2379   $ Sizing
 "CRtdFlo_Sys_T_CopyRm_C" = 179.5591   $ Sizing
 "CRtdFlo_Sys_T_Cordr_C" = 860.6479   $ Sizing
 "CRtdFlo_Sys_T_Cordr_E" = 276.8611   $ Sizing
 "CRtdFlo_Sys_T_Cordr_N" = 207.4517   $ Sizing
 "CRtdFlo_Sys_T_Cordr_S" = 258.6782   $ Sizing
 "CRtdFlo_Sys_T_Cordr_W" = 290.6325   $ Sizing
 "CRtdFlo_Sys_T_LobWait_C" = 608.1962   $ Sizing
 "CRtdFlo_Sys_T_MechElec_C" = 192.1459   $ Sizing
 "CRtdFlo_Sys_T_OfficeOpn_C" = 2042.261   $ Sizing
 "CRtdFlo_Sys_T_OfficeOpn_E" = 1839.694   $ Sizing
 "CRtdFlo_Sys_T_OfficeOpn_N" = 1448.767   $ Sizing
 "CRtdFlo_Sys_T_OfficeOpn_S" = 1777.085   $ Sizing
 "CRtdFlo_Sys_T_OfficeOpn_W" = 2004.943   $ Sizing
 "CRtdFlo_Sys_T_OfficeSm_C" = 259.6127   $ Sizing
 "CRtdFlo_Sys_T_OfficeSm_E" = 1317.357   $ Sizing
 "CRtdFlo_Sys_T_OfficeSm_N" = 951.916   $ Sizing
 "CRtdFlo_Sys_T_OfficeSm_S" = 1251.316   $ Sizing
 "CRtdFlo_Sys_T_OfficeSm_W" = 1411.968   $ Sizing
 "CRtdFlo_Sys_T_Restrm_C" = 155.6768   $ Sizing
 "CRtdFlo_Sys_T_StorSm_C" = 320.4723   $ Sizing
 "CSupFlo_Sys_L_Break_C" = 590.3505   $ Sizing
 "CSupFlo_Sys_L_Conf_C" = 575.12   $ Sizing
 "CSupFlo_Sys_L_CopyRm_C" = 185.836   $ Sizing
 "CSupFlo_Sys_L_Cordr_C" = 705.7605   $ Sizing
 "CSupFlo_Sys_L_Cordr_E" = 241.9617   $ Sizing
 "CSupFlo_Sys_L_Cordr_N" = 186.5055   $ Sizing
 "CSupFlo_Sys_L_Cordr_S" = 232.2066   $ Sizing
 "CSupFlo_Sys_L_Cordr_W" = 273.2221   $ Sizing
 "CSupFlo_Sys_L_LobWait_C" = 596.09   $ Sizing
 "CSupFlo_Sys_L_MechElec_C" = 128.1448   $ Sizing
 "CSupFlo_Sys_L_OfficeOpn_C" = 1960.351   $ Sizing
 "CSupFlo_Sys_L_OfficeOpn_E" = 1691.593   $ Sizing
 "CSupFlo_Sys_L_OfficeOpn_N" = 1339.61   $ Sizing
 "CSupFlo_Sys_L_OfficeOpn_S" = 1656.237   $ Sizing
 "CSupFlo_Sys_L_OfficeOpn_W" = 1944.901   $ Sizing
 "CSupFlo_Sys_L_OfficeSm_C" = 249.6228   $ Sizing
 "CSupFlo_Sys_L_OfficeSm_E" = 1200.767   $ Sizing
 "CSupFlo_Sys_L_OfficeSm_N" = 881.04   $ Sizing
 "CSupFlo_Sys_L_OfficeSm_S" = 1180.636   $ Sizing
 "CSupFlo_Sys_L_OfficeSm_W" = 1352.314   $ Sizing
 "CSupFlo_Sys_L_Restrm_C" = 95.9602   $ Sizing
 "CSupFlo_Sys_L_StorSm_C" = 390.2278   $ Sizing
 "CSupFlo_Sys_M_Break_C" = 4770.819   $ Sizing
 "CSupFlo_Sys_M_Conf_C" = 4617.68   $ Sizing
 "CSupFlo_Sys_M_CopyRm_C" = 1461.981   $ Sizing
 "CSupFlo_Sys_M_Cordr_C" = 7270.727   $ Sizing
 "CSupFlo_Sys_M_Cordr_E" = 2216.583   $ Sizing
 "CSupFlo_Sys_M_Cordr_N" = 1623.913   $ Sizing
 "CSupFlo_Sys_M_Cordr_S" = 2045.517   $ Sizing
 "CSupFlo_Sys_M_Cordr_W" = 2297.259   $ Sizing
 "CSupFlo_Sys_M_LobWait_C" = 4923.704   $ Sizing
 "CSupFlo_Sys_M_MechElec_C" = 1283.581   $ Sizing
 "CSupFlo_Sys_M_OfficeOpn_C" = 15865.71   $ Sizing
 "CSupFlo_Sys_M_OfficeOpn_E" = 14667.14   $ Sizing
 "CSupFlo_Sys_M_OfficeOpn_N" = 11292.86   $ Sizing
 "CSupFlo_Sys_M_OfficeOpn_S" = 14038.56   $ Sizing
 "CSupFlo_Sys_M_OfficeOpn_W" = 15970.29   $ Sizing
 "CSupFlo_Sys_M_OfficeSm_C" = 2225.809   $ Sizing
 "CSupFlo_Sys_M_OfficeSm_E" = 10257.66   $ Sizing
 "CSupFlo_Sys_M_OfficeSm_N" = 7373.483   $ Sizing
 "CSupFlo_Sys_M_OfficeSm_S" = 9904.104   $ Sizing
 "CSupFlo_Sys_M_OfficeSm_W" = 11024.83   $ Sizing
 "CSupFlo_Sys_M_Restrm_C" = 828.1231   $ Sizing
 "CSupFlo_Sys_M_StorSm_C" = 3397.446   $ Sizing
 "CSupFlo_Sys_T_Break_C" = 590.0698   $ Sizing
 "CSupFlo_Sys_T_Conf_C" = 571.2379   $ Sizing
 "CSupFlo_Sys_T_CopyRm_C" = 179.5591   $ Sizing
 "CSupFlo_Sys_T_Cordr_C" = 860.6479   $ Sizing
 "CSupFlo_Sys_T_Cordr_E" = 276.8611   $ Sizing
 "CSupFlo_Sys_T_Cordr_N" = 207.4517   $ Sizing
 "CSupFlo_Sys_T_Cordr_S" = 258.6782   $ Sizing
 "CSupFlo_Sys_T_Cordr_W" = 290.6325   $ Sizing
 "CSupFlo_Sys_T_LobWait_C" = 608.1962   $ Sizing
 "CSupFlo_Sys_T_MechElec_C" = 192.1459   $ Sizing
 "CSupFlo_Sys_T_OfficeOpn_C" = 2042.261   $ Sizing
 "CSupFlo_Sys_T_OfficeOpn_E" = 1839.694   $ Sizing
 "CSupFlo_Sys_T_OfficeOpn_N" = 1448.767   $ Sizing
 "CSupFlo_Sys_T_OfficeOpn_S" = 1777.085   $ Sizing
 "CSupFlo_Sys_T_OfficeOpn_W" = 2004.943   $ Sizing
 "CSupFlo_Sys_T_OfficeSm_C" = 259.6127   $ Sizing
 "CSupFlo_Sys_T_OfficeSm_E" = 1317.357   $ Sizing
 "CSupFlo_Sys_T_OfficeSm_N" = 951.916   $ Sizing
 "CSupFlo_Sys_T_OfficeSm_S" = 1251.316   $ Sizing
 "CSupFlo_Sys_T_OfficeSm_W" = 1411.968   $ Sizing
 "CSupFlo_Sys_T_Restrm_C" = 155.6768   $ Sizing
 "CSupFlo_Sys_T_StorSm_C" = 320.4723   $ Sizing
 "ClCap_Sys_L_Break_C" = 19982.36   $ Sizing
 "ClCap_Sys_L_Conf_C" = 24775.98   $ Sizing
 "ClCap_Sys_L_CopyRm_C" = 6290.232   $ Sizing
 "ClCap_Sys_L_Cordr_C" = 23888.8   $ Sizing
 "ClCap_Sys_L_Cordr_E" = 8189.992   $ Sizing
 "ClCap_Sys_L_Cordr_N" = 6312.895   $ Sizing
 "ClCap_Sys_L_Cordr_S" = 7859.801   $ Sizing
 "ClCap_Sys_L_Cordr_W" = 9248.104   $ Sizing
 "ClCap_Sys_L_LobWait_C" = 20176.64   $ Sizing
 "ClCap_Sys_L_MechElec_C" = 4337.484   $ Sizing
 "ClCap_Sys_L_OfficeOpn_C" = 66354.57   $ Sizing
 "ClCap_Sys_L_OfficeOpn_E" = 57257.55   $ Sizing
 "ClCap_Sys_L_OfficeOpn_N" = 45343.53   $ Sizing
 "ClCap_Sys_L_OfficeOpn_S" = 56060.8   $ Sizing
 "ClCap_Sys_L_OfficeOpn_W" = 65831.63   $ Sizing
 "ClCap_Sys_L_OfficeSm_C" = 8449.309   $ Sizing
 "ClCap_Sys_L_OfficeSm_E" = 40643.92   $ Sizing
 "ClCap_Sys_L_OfficeSm_N" = 29821.71   $ Sizing
 "ClCap_Sys_L_OfficeSm_S" = 39962.54   $ Sizing
 "ClCap_Sys_L_OfficeSm_W" = 45773.54   $ Sizing
 "ClCap_Sys_L_Restrm_C" = 3248.09   $ Sizing
 "ClCap_Sys_L_StorSm_C" = 13208.55   $ Sizing
 "ClCap_Sys_M_Break_C" = 161484.2   $ Sizing
 "ClCap_Sys_M_Conf_C" = 198928.1   $ Sizing
 "ClCap_Sys_M_CopyRm_C" = 49485.57   $ Sizing
 "ClCap_Sys_M_Cordr_C" = 246101.8   $ Sizing
 "ClCap_Sys_M_Cordr_E" = 75027.6   $ Sizing
 "ClCap_Sys_M_Cordr_N" = 54966.7   $ Sizing
 "ClCap_Sys_M_Cordr_S" = 69237.3   $ Sizing
 "ClCap_Sys_M_Cordr_W" = 77758.32   $ Sizing
 "ClCap_Sys_M_LobWait_C" = 166659   $ Sizing
 "ClCap_Sys_M_MechElec_C" = 43447.03   $ Sizing
 "ClCap_Sys_M_OfficeOpn_C" = 537027.6   $ Sizing
 "ClCap_Sys_M_OfficeOpn_E" = 496457.9   $ Sizing
 "ClCap_Sys_M_OfficeOpn_N" = 382244   $ Sizing
 "ClCap_Sys_M_OfficeOpn_S" = 475181.6   $ Sizing
 "ClCap_Sys_M_OfficeOpn_W" = 540567.4   $ Sizing
 "ClCap_Sys_M_OfficeSm_C" = 75339.88   $ Sizing
 "ClCap_Sys_M_OfficeSm_E" = 347204.4   $ Sizing
 "ClCap_Sys_M_OfficeSm_N" = 249579.9   $ Sizing
 "ClCap_Sys_M_OfficeSm_S" = 335237.2   $ Sizing
 "ClCap_Sys_M_OfficeSm_W" = 373172   $ Sizing
 "ClCap_Sys_M_Restrm_C" = 28030.57   $ Sizing
 "ClCap_Sys_M_StorSm_C" = 114997.8   $ Sizing
 "ClCap_Sys_T_Break_C" = 19972.87   $ Sizing
 "ClCap_Sys_T_Conf_C" = 24608.74   $ Sizing
 "ClCap_Sys_T_CopyRm_C" = 6077.772   $ Sizing
 "ClCap_Sys_T_Cordr_C" = 29131.47   $ Sizing
 "ClCap_Sys_T_Cordr_E" = 9371.28   $ Sizing
 "ClCap_Sys_T_Cordr_N" = 7021.889   $ Sizing
 "ClCap_Sys_T_Cordr_S" = 8755.82   $ Sizing
 "ClCap_Sys_T_Cordr_W" = 9837.419   $ Sizing
 "ClCap_Sys_T_LobWait_C" = 20586.41   $ Sizing
 "ClCap_Sys_T_MechElec_C" = 6503.814   $ Sizing
 "ClCap_Sys_T_OfficeOpn_C" = 69127.07   $ Sizing
 "ClCap_Sys_T_OfficeOpn_E" = 62270.54   $ Sizing
 "ClCap_Sys_T_OfficeOpn_N" = 49038.3   $ Sizing
 "ClCap_Sys_T_OfficeOpn_S" = 60151.32   $ Sizing
 "ClCap_Sys_T_OfficeOpn_W" = 67863.94   $ Sizing
 "ClCap_Sys_T_OfficeSm_C" = 8787.451   $ Sizing
 "ClCap_Sys_T_OfficeSm_E" = 44590.3   $ Sizing
 "ClCap_Sys_T_OfficeSm_N" = 32220.74   $ Sizing
 "ClCap_Sys_T_OfficeSm_S" = 42354.94   $ Sizing
 "ClCap_Sys_T_OfficeSm_W" = 47792.72   $ Sizing
 "ClCap_Sys_T_Restrm_C" = 5269.397   $ Sizing
 "ClCap_Sys_T_StorSm_C" = 10847.44   $ Sizing
 "HtCap_Sys_L_Break_C" = -32773.31   $ Sizing
 "HtCap_Sys_L_Conf_C" = -33009.91   $ Sizing
 "HtCap_Sys_L_CopyRm_C" = -11876.24   $ Sizing
 "HtCap_Sys_L_Cordr_C" = -30893   $ Sizing
 "HtCap_Sys_L_Cordr_E" = -9636.591   $ Sizing
 "HtCap_Sys_L_Cordr_N" = -7509.865   $ Sizing
 "HtCap_Sys_L_Cordr_S" = -9204.795   $ Sizing
 "HtCap_Sys_L_Cordr_W" = -9846.426   $ Sizing
 "HtCap_Sys_L_LobWait_C" = -31637.43   $ Sizing
 "HtCap_Sys_L_MechElec_C" = -6581.594   $ Sizing
 "HtCap_Sys_L_OfficeOpn_C" = -94893.56   $ Sizing
 "HtCap_Sys_L_OfficeOpn_E" = -65897.67   $ Sizing
 "HtCap_Sys_L_OfficeOpn_N" = -50066.43   $ Sizing
 "HtCap_Sys_L_OfficeOpn_S" = -63944.77   $ Sizing
 "HtCap_Sys_L_OfficeOpn_W" = -66673.58   $ Sizing
 "HtCap_Sys_L_OfficeSm_C" = -10504.88   $ Sizing
 "HtCap_Sys_L_OfficeSm_E" = -47301.59   $ Sizing
 "HtCap_Sys_L_OfficeSm_N" = -32886.61   $ Sizing
 "HtCap_Sys_L_OfficeSm_S" = -46614.29   $ Sizing
 "HtCap_Sys_L_OfficeSm_W" = -46456.18   $ Sizing
 "HtCap_Sys_L_Restrm_C" = -7744.971   $ Sizing
 "HtCap_Sys_L_StorSm_C" = -19265.05   $ Sizing
 "HtCap_Sys_M_Break_C" = -251139   $ Sizing
 "HtCap_Sys_M_Conf_C" = -246699.4   $ Sizing
 "HtCap_Sys_M_CopyRm_C" = -83958.18   $ Sizing
 "HtCap_Sys_M_Cordr_C" = -323678.3   $ Sizing
 "HtCap_Sys_M_Cordr_E" = -87658.77   $ Sizing
 "HtCap_Sys_M_Cordr_N" = -61991.79   $ Sizing
 "HtCap_Sys_M_Cordr_S" = -81371.52   $ Sizing
 "HtCap_Sys_M_Cordr_W" = -81306.08   $ Sizing
 "HtCap_Sys_M_LobWait_C" = -230388   $ Sizing
 "HtCap_Sys_M_MechElec_C" = -63563.15   $ Sizing
 "HtCap_Sys_M_OfficeOpn_C" = -650002.8   $ Sizing
 "HtCap_Sys_M_OfficeOpn_E" = -567096.6   $ Sizing
 "HtCap_Sys_M_OfficeOpn_N" = -414625   $ Sizing
 "HtCap_Sys_M_OfficeOpn_S" = -544147.9   $ Sizing
 "HtCap_Sys_M_OfficeOpn_W" = -543590.7   $ Sizing
 "HtCap_Sys_M_OfficeSm_C" = -99465.14   $ Sizing
 "HtCap_Sys_M_OfficeSm_E" = -401618.7   $ Sizing
 "HtCap_Sys_M_OfficeSm_N" = -270851.8   $ Sizing
 "HtCap_Sys_M_OfficeSm_S" = -392529.3   $ Sizing
 "HtCap_Sys_M_OfficeSm_W" = -381419.1   $ Sizing
 "HtCap_Sys_M_Restrm_C" = -66725.42   $ Sizing
 "HtCap_Sys_M_StorSm_C" = -163012.4   $ Sizing
 "HtCap_Sys_T_Break_C" = -34065.17   $ Sizing
 "HtCap_Sys_T_Conf_C" = -33723.65   $ Sizing
 "HtCap_Sys_T_CopyRm_C" = -11307.88   $ Sizing
 "HtCap_Sys_T_Cordr_C" = -41178.74   $ Sizing
 "HtCap_Sys_T_Cordr_E" = -11579.24   $ Sizing
 "HtCap_Sys_T_Cordr_N" = -9501.734   $ Sizing
 "HtCap_Sys_T_Cordr_S" = -11076.77   $ Sizing
 "HtCap_Sys_T_Cordr_W" = -12280.25   $ Sizing
 "HtCap_Sys_T_LobWait_C" = -32902.19   $ Sizing
 "HtCap_Sys_T_MechElec_C" = -9274.27   $ Sizing
 "HtCap_Sys_T_OfficeOpn_C" = -92085.62   $ Sizing
 "HtCap_Sys_T_OfficeOpn_E" = -74806.3   $ Sizing
 "HtCap_Sys_T_OfficeOpn_N" = -62737.99   $ Sizing
 "HtCap_Sys_T_OfficeOpn_S" = -76032.72   $ Sizing
 "HtCap_Sys_T_OfficeOpn_W" = -79334.16   $ Sizing
 "HtCap_Sys_T_OfficeSm_C" = -12921.44   $ Sizing
 "HtCap_Sys_T_OfficeSm_E" = -54900.39   $ Sizing
 "HtCap_Sys_T_OfficeSm_N" = -41062.62   $ Sizing
 "HtCap_Sys_T_OfficeSm_S" = -55455.66   $ Sizing
 "HtCap_Sys_T_OfficeSm_W" = -56147.85   $ Sizing
 "HtCap_Sys_T_Restrm_C" = -8880.104   $ Sizing
 "HtCap_Sys_T_StorSm_C" = -17681.2   $ Sizing
..

##include Templates\OfL_DX_SZ.inp
END ..
COMPUTE ..
STOP ..
