INPUT ..

##fileprefix C:\Users\jglasskatz\MASControl3\
##set1 IsSizing FALSE
##set1 CoolType DX
##set1 HeatType FURNACE
##set1 EU_HrRepVar 0
##set1 BldgVint 2015
##set1 BldgLoc CZ06

 ##set1 mBFMult 1   $ IP Tech: RefgChg-NRes-Std

PARAMETER
 "AltFactor" = 1.00328   $ IP Non-Tech
 "BF_fFlow" = SpltAC2SpHiSEER_BF_fFlow   $ Msr (Multi)TechID: MsrNResSplitAC-lt45-S17
 "BF_fT" = SpltAC2SpHiSEER_BF_fT   $ Msr (Multi)TechID: MsrNResSplitAC-lt45-S17
 "BldgEconoFlag" = 1   $ IP Non-Tech
 "Break_EWSF" = 1   $ IP Non-Tech
 "Break_LWSF" = 1.1   $ IP Non-Tech
 "CDD_DBHi10" = 87   $ IP Non-Tech
 "CDD_DBHi7" = 80   $ IP Non-Tech
 "CDD_DBHi8" = 78   $ IP Non-Tech
 "CDD_DBHi9" = 84   $ IP Non-Tech
 "CDD_DBRange10" = 30   $ IP Non-Tech
 "CDD_DBRange7" = 11   $ IP Non-Tech
 "CDD_DBRange8" = 11   $ IP Non-Tech
 "CDD_DBRange9" = 16   $ IP Non-Tech
 "CDD_Day10" = 15   $ IP Non-Tech
 "CDD_Day7" = 16   $ IP Non-Tech
 "CDD_Day8" = 20   $ IP Non-Tech
 "CDD_Day9" = 17   $ IP Non-Tech
 "CDD_HrHi10" = 12   $ IP Non-Tech
 "CDD_HrHi7" = 13   $ IP Non-Tech
 "CDD_HrHi8" = 13   $ IP Non-Tech
 "CDD_HrHi9" = 17   $ IP Non-Tech
 "CDD_HrLo10" = 3   $ IP Non-Tech
 "CDD_HrLo7" = 3   $ IP Non-Tech
 "CDD_HrLo8" = 3   $ IP Non-Tech
 "CDD_HrLo9" = 3   $ IP Non-Tech
 "CDD_WB10" = 65.31027985   $ IP Non-Tech
 "CDD_WB7" = 69.10741425   $ IP Non-Tech
 "CDD_WB8" = 67.58412933   $ IP Non-Tech
 "CDD_WB9" = 69.6863327   $ IP Non-Tech
 "CEIR_fPLR_Hot" = SpltAC2SpHiSEER_CEIR_fPLR_Hot   $ Msr (Multi)TechID: MsrNResSplitAC-lt45-S17
 "CEIR_fPLR_Mod" = SpltAC2SpHiSEER_CEIR_fPLR_Mod   $ Msr (Multi)TechID: MsrNResSplitAC-lt45-S17
 "CEIR_fPLR_Tem" = SpltAC2SpHiSEER_CEIR_fPLR_Tem   $ Msr (Multi)TechID: MsrNResSplitAC-lt45-S17
 "CLoss_fPLR_Hot" = SpltAC2SpHiSEER_CLoss_fPLR_Hot   $ Msr (Multi)TechID: MsrNResSplitAC-lt45-S17
 "CLoss_fPLR_Mod" = SpltAC2SpHiSEER_CLoss_fPLR_Mod   $ Msr (Multi)TechID: MsrNResSplitAC-lt45-S17
 "CLoss_fPLR_Tem" = SpltAC2SpHiSEER_CLoss_fPLR_Tem   $ Msr (Multi)TechID: MsrNResSplitAC-lt45-S17
 "COP47" = 0   $ Msr (Multi)TechID: MsrNResSplitAC-lt45-S17
 "CZ_Category" = Tem   $ IP Non-Tech
 "CapRange" = Any   $ Msr (Multi)TechID: MsrNResSplitAC-lt45-S17
 "CfmPerBtuh" = 0.03   $ Msr (Multi)TechID: MsrNResSplitAC-lt45-S17
 "ChwVintEconoFlag" = 1   $ IP Non-Tech
 "ClCap_fT" = SpltAC2SpHiSEER_ClCap_fT   $ Msr (Multi)TechID: MsrNResSplitAC-lt45-S17
 "ClSH_fT" = SpltAC2SpHiSEER_ClSH_fT   $ Msr (Multi)TechID: MsrNResSplitAC-lt45-S17
 "CoilBF" = 0.102   $ Msr (Multi)TechID: MsrNResSplitAC-lt45-S17
 "CondWPerBtuh" = 0   $ Msr (Multi)TechID: MsrNResSplitAC-lt45-S17
 "Conference_EWSF" = 1   $ IP Non-Tech
 "Conference_LWSF" = 1.4   $ IP Non-Tech
 "CoolSensCap" = 0.724   $ Msr (Multi)TechID: MsrNResSplitAC-lt45-S17
 "CoolSetT" = 45   $ IP Non-Tech
 "CoolType" = DX   $ IP Non-Tech
 "CoolingEIR" = 0.2225   $ Msr (Multi)TechID: MsrNResSplitAC-lt45-S17
 "CopyRoom_EWSF" = 1.5   $ IP Non-Tech
 "CopyRoom_LWSF" = 1.3   $ IP Non-Tech
 "CorridorStairway_EWSF" = 0.2   $ IP Non-Tech
 "CorridorStairway_LWSF" = 0.6   $ IP Non-Tech
 "CrnkEIR" = 0.002225   $ Msr (Multi)TechID: MsrNResSplitAC-lt45-S17
 "CrnkMaxT" = 50   $ Msr (Multi)TechID: MsrNResSplitAC-lt45-S17
 "DXType" = SplitSEER   $ Msr (Multi)TechID: MsrNResSplitAC-lt45-S17
 "DesCoolT" = 75   $ IP Non-Tech
 "DesHeatT" = 73   $ IP Non-Tech
 "EER" = 13.26   $ Msr (Multi)TechID: MsrNResSplitAC-lt45-S17
 "EIR_fT" = SpltAC2SpHiSEER_EIR_fT   $ Msr (Multi)TechID: MsrNResSplitAC-lt45-S17
 "EconoCtrl" = FIXED   $ Msr (Multi)TechID: MsrNResSplitAC-lt45-S17
 "EconoEnthLimit" = 28   $ IP Non-Tech
 "EconoTempLimit" = 71   $ IP Non-Tech
 "Elevation" = 88   $ IP Non-Tech
 "FanEirPlr" = TwoSpeedFan   $ Msr (Multi)TechID: MsrNResSplitAC-lt45-S17
 "FanWPerCfm" = 0.271   $ Msr (Multi)TechID: MsrNResSplitAC-lt45-S17
 "HDD_CloudAmt1" = 0   $ IP Non-Tech
 "HDD_DBHi1" = 58   $ IP Non-Tech
 "HDD_DBRange1" = 21   $ IP Non-Tech
 "HDD_Day1" = 15   $ IP Non-Tech
 "HDD_HrHi1" = 13   $ IP Non-Tech
 "HDD_HrLo1" = 4   $ IP Non-Tech
 "HDD_WB1" = 52.8   $ IP Non-Tech
 "HDD_WindSpd1" = 10.4   $ IP Non-Tech
 "HIR_fT" = 0   $ Msr (Multi)TechID: MsrNResSplitAC-lt45-S17
 "HSPF" = 0   $ Msr (Multi)TechID: MsrNResSplitAC-lt45-S17
 "HeatSrc" = FURNACE   $ IP Non-Tech
 "HeatSrcTU" = HEAT-PUMP   $ IP Non-Tech
 "HeatType" = GasFurn   $ IP Non-Tech
 "HeatTypeTU" = HEAT-PUMP   $ IP Non-Tech
 "HtCap_fT" = 0   $ Msr (Multi)TechID: MsrNResSplitAC-lt45-S17
 "HtCoolCapRatio" = 0   $ Msr (Multi)TechID: MsrNResSplitAC-lt45-S17
 "HtgEIR" = 0   $ Msr (Multi)TechID: MsrNResSplitAC-lt45-S17
 "IndoorFanMode" = CONTINUOUS   $ IP Non-Tech
 "KT_TransferAir" = Yes   $ IP Non-Tech
 "Latitude" = 33.9   $ IP Non-Tech
 "LobbyWaiting_EWSF" = 0.5   $ IP Non-Tech
 "LobbyWaiting_LWSF" = 1.3   $ IP Non-Tech
 "Longitude" = 118.4   $ IP Non-Tech
 "LowSpdCapRatio" = 0.686   $ Msr (Multi)TechID: MsrNResSplitAC-lt45-S17
 "LowSpdCfmRatio" = 0.739   $ Msr (Multi)TechID: MsrNResSplitAC-lt45-S17
 "MZFanMechEff" = 0.58   $ IP Non-Tech
 "MZHasRetFan" = FALSE   $ IP Non-Tech
 "MZ_RFanWPerCfm" = 0.37   $ IP Non-Tech
 "MZ_SFanWPerCfm" = 0.71   $ IP Non-Tech
 "MZ_SupFanStatic" = 2.25   $ IP Non-Tech
 "MaxOAFrac" = 1   $ Msr (Multi)TechID: MsrNResSplitAC-lt45-S17
 "MaxSupT_MZ" = 100   $ IP Non-Tech
 "MaxSupT_SZ" = 100   $ IP Non-Tech
 "MaxSupT_TU" = 90   $ IP Non-Tech
 "MechElecRoom_EWSF" = 0.2   $ IP Non-Tech
 "MechElecRoom_LWSF" = 0.7   $ IP Non-Tech
 "MinCfmPerSF" = 0.4   $ IP Non-Tech
 "MinSupT" = 55   $ IP Non-Tech
 "NumStages" = 2   $ Msr (Multi)TechID: MsrNResSplitAC-lt45-S17
 "OccCoolT" = 76   $ IP Non-Tech
 "OccHeatT" = 72   $ IP Non-Tech
 "OfficeOpen_EWSF" = 1.5   $ IP Non-Tech
 "OfficeOpen_LWSF" = 1.05   $ IP Non-Tech
 "OfficeSmall_EWSF" = 1.5   $ IP Non-Tech
 "OfficeSmall_LWSF" = 1.3   $ IP Non-Tech
 "PkgDxVintEconoFlag" = 1   $ IP Non-Tech
 "Restroom_EWSF" = 0.2   $ IP Non-Tech
 "Restroom_LWSF" = 0.6   $ IP Non-Tech
 "SEER" = 17   $ Msr (Multi)TechID: MsrNResSplitAC-lt45-S17
 "SZFanMechEff" = 0.58   $ IP Non-Tech
 "SZHasRetFan" = FALSE   $ IP Non-Tech
 "SZ_Is_2Spd" = TRUE   $ IP Non-Tech
 "SZ_SFanWPerCfm" = 0.46   $ IP Non-Tech
 "SZ_SupFanStatic" = 0.75   $ IP Non-Tech
 "Sector" = Any   $ Msr (Multi)TechID: MsrNResSplitAC-lt45-S17
 "StorageSmlCond_EWSF" = 0.2   $ IP Non-Tech
 "StorageSmlCond_LWSF" = 0.6   $ IP Non-Tech
 "SubType" = AC   $ Msr (Multi)TechID: MsrNResSplitAC-lt45-S17
 "T24GlzTbl" = TypeTbl   $ IP Non-Tech
 "TermUnitFanMechEff" = 1   $ IP Non-Tech
 "TermUnitFanMode" = INTERMITTENT   $ IP Non-Tech
 "TotCoolCap" = 58805   $ Msr (Multi)TechID: MsrNResSplitAC-lt45-S17
 "TwrSetpt" = 80   $ IP Non-Tech
 "UnocCoolT" = 86   $ IP Non-Tech
 "UnocHeatT" = 62   $ IP Non-Tech
 "UseEconoVintApplic" = FALSE   $ Msr (Multi)TechID: MsrNResSplitAC-lt45-S17
 "WlhpVintEconoFlag" = 1   $ IP Non-Tech
 "DuctDT" = 1   $ IP Tech: ComDuctInsul-1
 "DuctAirLoss" = 0   $ IP Tech: ComDuctLeak-0
 "DuctLossOAFrac" = 0   $ IP Tech: ComDuctLeak-0
 "ComRoofInsCalc" = FromUo   $ IP Tech: ComRoofIns-Hvy-0.08
 "ComRoofInsR" = -999   $ IP Tech: ComRoofIns-Hvy-0.08
 "ComRoofUo" = 0.08   $ IP Tech: ComRoofIns-Hvy-0.08
 "ComEWInsCalc" = FromUo   $ IP Tech: ComWallIns-MFrm-0.1
 "ComEWInsR" = -999   $ IP Tech: ComWallIns-MFrm-0.1
 "ComEWUo" = 0.1   $ IP Tech: ComWallIns-MFrm-0.1
 "ComN_SHGC" = 0.26   $ IP Tech: NResWin-ComN-0.41-0.26
 "ComN_UFactor" = 0.41   $ IP Tech: NResWin-ComN-0.41-0.26
 "ComN_VisTrans" = 0.41   $ IP Tech: NResWin-ComN-0.41-0.26
 "ComN_WinCode" = G2666   $ IP Tech: NResWin-ComN-0.41-0.26
 "ComN_WinFrmFrac" = 0.17   $ IP Tech: NResWin-ComN-0.41-0.26
 "ComN_WinFrmU" = 0.3   $ IP Tech: NResWin-ComN-0.41-0.26
 "ComO_SHGC" = 0.26   $ IP Tech: NResWin-ComO-0.41-0.26
 "ComO_UFactor" = 0.41   $ IP Tech: NResWin-ComO-0.41-0.26
 "ComO_VisTrans" = 0.41   $ IP Tech: NResWin-ComO-0.41-0.26
 "ComO_WinCode" = G2666   $ IP Tech: NResWin-ComO-0.41-0.26
 "ComO_WinFrmFrac" = 0.17   $ IP Tech: NResWin-ComO-0.41-0.26
 "ComO_WinFrmU" = 0.3   $ IP Tech: NResWin-ComO-0.41-0.26
 "LtgMsrApplic" = ALL   $ IP Tech: NonResLtgRefPre
 "LtgSav_CFL" = 0   $ IP Tech: NonResLtgRefPre
 "LtgSav_EX" = 0   $ IP Tech: NonResLtgRefPre
 "LtgSav_HB" = 0   $ IP Tech: NonResLtgRefPre
 "LtgSav_LF" = 0   $ IP Tech: NonResLtgRefPre
 "LtgSav_SP" = 0   $ IP Tech: NonResLtgRefPre
 "CEIR_fPLR" = PSZ65to135_CEIR_fPLR   $ IP Tech: PkgAC2SpP-65to135-E11
 "CLoss_fPLR" = PSZ65to135_CLoss_fPLR   $ IP Tech: PkgAC2SpP-65to135-E11
 "COP" = -1   $ IP Tech: PkgAC2SpP-65to135-E11
 "HtgFuel" = Gas   $ IP Tech: PkgAC2SpP-65to135-E11
 "IEER" = 13.35   $ IP Tech: PkgAC2SpP-65to135-E11
 "NominalCap" = 15   $ IP Tech: PkgAC2SpP-65to135-E11
 "RatedEER" = 11   $ IP Tech: PkgAC2SpP-65to135-E11
 "RatedSupMtrClass" = Premium   $ IP Tech: PkgAC2SpP-65to135-E11
 "SizeRange" = 65to135   $ IP Tech: PkgAC2SpP-65to135-E11
 "SupMotEff" = 0.865   $ IP Tech: PkgAC2SpP-65to135-E11
 "Tier" = 0   $ IP Tech: PkgAC2SpP-65to135-E11
 "FanPwrMult" = 1   $ IP Tech: PkgFurn-0.80AFUE
 "FurnAFUE" = 0.8   $ IP Tech: PkgFurn-0.80AFUE
 "FurnEt" = 0.82   $ IP Tech: PkgFurn-0.80AFUE
 "FurnaceAuxKW" = 0.1   $ IP Tech: PkgFurn-0.80AFUE
 "HIR_fPLR" = Furnace-HIR-fPLR   $ IP Tech: PkgFurn-0.80AFUE
 "VSM" = FALSE   $ IP Tech: PkgFurn-0.80AFUE
 "BFMult" = 1   $ IP Tech: RefgChg-NRes-Std
 "CoolEirMult" = 1   $ IP Tech: RefgChg-NRes-Std
 "SensCoolCapMult" = 1   $ IP Tech: RefgChg-NRes-Std
 "TotCoolCapMult" = 1   $ IP Tech: RefgChg-NRes-Std
 "AltAdjFactor" = 1.003277   $ Sizing
 "CAssFlo_L_Break_CZn" = 374.419   $ Sizing
 "CAssFlo_L_Conf_CZn" = 444.6718   $ Sizing
 "CAssFlo_L_CopyRm_CZn" = 116.5958   $ Sizing
 "CAssFlo_L_Cordr_CZn" = 566.7545   $ Sizing
 "CAssFlo_L_Cordr_EZn" = 233.6841   $ Sizing
 "CAssFlo_L_Cordr_NZn" = 93.84254   $ Sizing
 "CAssFlo_L_Cordr_SZn" = 235.9229   $ Sizing
 "CAssFlo_L_Cordr_WZn" = 225.3273   $ Sizing
 "CAssFlo_L_LobWait_CZn" = 392.0862   $ Sizing
 "CAssFlo_L_MechElec_CZn" = 133.6031   $ Sizing
 "CAssFlo_L_OfficeOpn_CZn" = 1692.64   $ Sizing
 "CAssFlo_L_OfficeOpn_EZn" = 1755.672   $ Sizing
 "CAssFlo_L_OfficeOpn_NZn" = 896.2991   $ Sizing
 "CAssFlo_L_OfficeOpn_SZn" = 1730.48   $ Sizing
 "CAssFlo_L_OfficeOpn_WZn" = 1758.555   $ Sizing
 "CAssFlo_L_OfficeSm_CZn" = 234.5307   $ Sizing
 "CAssFlo_L_OfficeSm_EZn" = 1271.074   $ Sizing
 "CAssFlo_L_OfficeSm_NZn" = 567.5108   $ Sizing
 "CAssFlo_L_OfficeSm_SZn" = 1269.173   $ Sizing
 "CAssFlo_L_OfficeSm_WZn" = 1264.065   $ Sizing
 "CAssFlo_L_Restrm_CZn" = 210.9664   $ Sizing
 "CAssFlo_L_StorSm_CZn" = 403.9669   $ Sizing
 "CAssFlo_M_Break_CZn" = 413.2104   $ Sizing
 "CAssFlo_M_Conf_CZn" = 506.5359   $ Sizing
 "CAssFlo_M_CopyRm_CZn" = 147.81   $ Sizing
 "CAssFlo_M_Cordr_CZn" = 907.2493   $ Sizing
 "CAssFlo_M_Cordr_EZn" = 286.182   $ Sizing
 "CAssFlo_M_Cordr_NZn" = 145.2684   $ Sizing
 "CAssFlo_M_Cordr_SZn" = 273.3116   $ Sizing
 "CAssFlo_M_Cordr_WZn" = 252.2387   $ Sizing
 "CAssFlo_M_LobWait_CZn" = 520.606   $ Sizing
 "CAssFlo_M_MechElec_CZn" = 177.869   $ Sizing
 "CAssFlo_M_OfficeOpn_CZn" = 2059.534   $ Sizing
 "CAssFlo_M_OfficeOpn_EZn" = 1936.849   $ Sizing
 "CAssFlo_M_OfficeOpn_NZn" = 1065.638   $ Sizing
 "CAssFlo_M_OfficeOpn_SZn" = 1879.771   $ Sizing
 "CAssFlo_M_OfficeOpn_WZn" = 1843.057   $ Sizing
 "CAssFlo_M_OfficeSm_CZn" = 297.8652   $ Sizing
 "CAssFlo_M_OfficeSm_EZn" = 1387.28   $ Sizing
 "CAssFlo_M_OfficeSm_NZn" = 676.7745   $ Sizing
 "CAssFlo_M_OfficeSm_SZn" = 1365.13   $ Sizing
 "CAssFlo_M_OfficeSm_WZn" = 1317.734   $ Sizing
 "CAssFlo_M_Restrm_CZn" = 210.9664   $ Sizing
 "CAssFlo_M_StorSm_CZn" = 443.6387   $ Sizing
 "CAssFlo_T_Break_CZn" = 389.2699   $ Sizing
 "CAssFlo_T_Conf_CZn" = 468.0728   $ Sizing
 "CAssFlo_T_CopyRm_CZn" = 130.4429   $ Sizing
 "CAssFlo_T_Cordr_CZn" = 791.9728   $ Sizing
 "CAssFlo_T_Cordr_EZn" = 254.7647   $ Sizing
 "CAssFlo_T_Cordr_NZn" = 123.2524   $ Sizing
 "CAssFlo_T_Cordr_SZn" = 247.6997   $ Sizing
 "CAssFlo_T_Cordr_WZn" = 227.7828   $ Sizing
 "CAssFlo_T_LobWait_CZn" = 465.8425   $ Sizing
 "CAssFlo_T_MechElec_CZn" = 218.2498   $ Sizing
 "CAssFlo_T_OfficeOpn_CZn" = 1821.766   $ Sizing
 "CAssFlo_T_OfficeOpn_EZn" = 1760.661   $ Sizing
 "CAssFlo_T_OfficeOpn_NZn" = 949.9623   $ Sizing
 "CAssFlo_T_OfficeOpn_SZn" = 1757.85   $ Sizing
 "CAssFlo_T_OfficeOpn_WZn" = 1704.013   $ Sizing
 "CAssFlo_T_OfficeSm_CZn" = 282.8634   $ Sizing
 "CAssFlo_T_OfficeSm_EZn" = 1305.828   $ Sizing
 "CAssFlo_T_OfficeSm_NZn" = 621.4265   $ Sizing
 "CAssFlo_T_OfficeSm_SZn" = 1304.164   $ Sizing
 "CAssFlo_T_OfficeSm_WZn" = 1245.11   $ Sizing
 "CAssFlo_T_Restrm_CZn" = 210.9664   $ Sizing
 "CAssFlo_T_StorSm_CZn" = 332.6785   $ Sizing
 "CHRtFlo_Sys_L_Break_C" = 374.419   $ Sizing
 "CHRtFlo_Sys_L_Conf_C" = 444.6718   $ Sizing
 "CHRtFlo_Sys_L_CopyRm_C" = 116.5958   $ Sizing
 "CHRtFlo_Sys_L_Cordr_C" = 566.7545   $ Sizing
 "CHRtFlo_Sys_L_Cordr_E" = 233.6841   $ Sizing
 "CHRtFlo_Sys_L_Cordr_N" = 93.84254   $ Sizing
 "CHRtFlo_Sys_L_Cordr_S" = 235.9229   $ Sizing
 "CHRtFlo_Sys_L_Cordr_W" = 225.3273   $ Sizing
 "CHRtFlo_Sys_L_LobWait_C" = 392.0862   $ Sizing
 "CHRtFlo_Sys_L_MechElec_C" = 133.6031   $ Sizing
 "CHRtFlo_Sys_L_OfficeOpn_C" = 1692.64   $ Sizing
 "CHRtFlo_Sys_L_OfficeOpn_E" = 1755.672   $ Sizing
 "CHRtFlo_Sys_L_OfficeOpn_N" = 896.2991   $ Sizing
 "CHRtFlo_Sys_L_OfficeOpn_S" = 1730.48   $ Sizing
 "CHRtFlo_Sys_L_OfficeOpn_W" = 1758.555   $ Sizing
 "CHRtFlo_Sys_L_OfficeSm_C" = 234.5307   $ Sizing
 "CHRtFlo_Sys_L_OfficeSm_E" = 1271.074   $ Sizing
 "CHRtFlo_Sys_L_OfficeSm_N" = 567.5108   $ Sizing
 "CHRtFlo_Sys_L_OfficeSm_S" = 1269.173   $ Sizing
 "CHRtFlo_Sys_L_OfficeSm_W" = 1264.065   $ Sizing
 "CHRtFlo_Sys_L_Restrm_C" = 210.9664   $ Sizing
 "CHRtFlo_Sys_L_StorSm_C" = 403.9669   $ Sizing
 "CHRtFlo_Sys_M_Break_C" = 3305.683   $ Sizing
 "CHRtFlo_Sys_M_Conf_C" = 4052.287   $ Sizing
 "CHRtFlo_Sys_M_CopyRm_C" = 1182.48   $ Sizing
 "CHRtFlo_Sys_M_Cordr_C" = 7257.994   $ Sizing
 "CHRtFlo_Sys_M_Cordr_E" = 2289.456   $ Sizing
 "CHRtFlo_Sys_M_Cordr_N" = 1162.147   $ Sizing
 "CHRtFlo_Sys_M_Cordr_S" = 2186.492   $ Sizing
 "CHRtFlo_Sys_M_Cordr_W" = 2017.91   $ Sizing
 "CHRtFlo_Sys_M_LobWait_C" = 4164.848   $ Sizing
 "CHRtFlo_Sys_M_MechElec_C" = 1422.952   $ Sizing
 "CHRtFlo_Sys_M_OfficeOpn_C" = 16476.27   $ Sizing
 "CHRtFlo_Sys_M_OfficeOpn_E" = 15494.79   $ Sizing
 "CHRtFlo_Sys_M_OfficeOpn_N" = 8525.103   $ Sizing
 "CHRtFlo_Sys_M_OfficeOpn_S" = 15038.17   $ Sizing
 "CHRtFlo_Sys_M_OfficeOpn_W" = 14744.46   $ Sizing
 "CHRtFlo_Sys_M_OfficeSm_C" = 2382.922   $ Sizing
 "CHRtFlo_Sys_M_OfficeSm_E" = 11098.24   $ Sizing
 "CHRtFlo_Sys_M_OfficeSm_N" = 5414.196   $ Sizing
 "CHRtFlo_Sys_M_OfficeSm_S" = 10921.04   $ Sizing
 "CHRtFlo_Sys_M_OfficeSm_W" = 10541.87   $ Sizing
 "CHRtFlo_Sys_M_Restrm_C" = 1687.731   $ Sizing
 "CHRtFlo_Sys_M_StorSm_C" = 3549.109   $ Sizing
 "CHRtFlo_Sys_T_Break_C" = 389.2699   $ Sizing
 "CHRtFlo_Sys_T_Conf_C" = 468.0728   $ Sizing
 "CHRtFlo_Sys_T_CopyRm_C" = 130.4429   $ Sizing
 "CHRtFlo_Sys_T_Cordr_C" = 791.9728   $ Sizing
 "CHRtFlo_Sys_T_Cordr_E" = 254.7647   $ Sizing
 "CHRtFlo_Sys_T_Cordr_N" = 123.2524   $ Sizing
 "CHRtFlo_Sys_T_Cordr_S" = 247.6997   $ Sizing
 "CHRtFlo_Sys_T_Cordr_W" = 227.7828   $ Sizing
 "CHRtFlo_Sys_T_LobWait_C" = 465.8425   $ Sizing
 "CHRtFlo_Sys_T_MechElec_C" = 218.2498   $ Sizing
 "CHRtFlo_Sys_T_OfficeOpn_C" = 1821.766   $ Sizing
 "CHRtFlo_Sys_T_OfficeOpn_E" = 1760.661   $ Sizing
 "CHRtFlo_Sys_T_OfficeOpn_N" = 949.9623   $ Sizing
 "CHRtFlo_Sys_T_OfficeOpn_S" = 1757.85   $ Sizing
 "CHRtFlo_Sys_T_OfficeOpn_W" = 1704.013   $ Sizing
 "CHRtFlo_Sys_T_OfficeSm_C" = 282.8634   $ Sizing
 "CHRtFlo_Sys_T_OfficeSm_E" = 1305.828   $ Sizing
 "CHRtFlo_Sys_T_OfficeSm_N" = 621.4265   $ Sizing
 "CHRtFlo_Sys_T_OfficeSm_S" = 1304.164   $ Sizing
 "CHRtFlo_Sys_T_OfficeSm_W" = 1245.11   $ Sizing
 "CHRtFlo_Sys_T_Restrm_C" = 210.9664   $ Sizing
 "CHRtFlo_Sys_T_StorSm_C" = 332.6785   $ Sizing
 "CRtdFlo_Sys_L_Break_C" = 374.419   $ Sizing
 "CRtdFlo_Sys_L_Conf_C" = 444.6718   $ Sizing
 "CRtdFlo_Sys_L_CopyRm_C" = 116.5958   $ Sizing
 "CRtdFlo_Sys_L_Cordr_C" = 566.7545   $ Sizing
 "CRtdFlo_Sys_L_Cordr_E" = 233.6841   $ Sizing
 "CRtdFlo_Sys_L_Cordr_N" = 93.84254   $ Sizing
 "CRtdFlo_Sys_L_Cordr_S" = 235.9229   $ Sizing
 "CRtdFlo_Sys_L_Cordr_W" = 225.3273   $ Sizing
 "CRtdFlo_Sys_L_LobWait_C" = 392.0862   $ Sizing
 "CRtdFlo_Sys_L_MechElec_C" = 133.6031   $ Sizing
 "CRtdFlo_Sys_L_OfficeOpn_C" = 1692.64   $ Sizing
 "CRtdFlo_Sys_L_OfficeOpn_E" = 1755.672   $ Sizing
 "CRtdFlo_Sys_L_OfficeOpn_N" = 896.2991   $ Sizing
 "CRtdFlo_Sys_L_OfficeOpn_S" = 1730.48   $ Sizing
 "CRtdFlo_Sys_L_OfficeOpn_W" = 1758.555   $ Sizing
 "CRtdFlo_Sys_L_OfficeSm_C" = 234.5307   $ Sizing
 "CRtdFlo_Sys_L_OfficeSm_E" = 1271.074   $ Sizing
 "CRtdFlo_Sys_L_OfficeSm_N" = 567.5108   $ Sizing
 "CRtdFlo_Sys_L_OfficeSm_S" = 1269.173   $ Sizing
 "CRtdFlo_Sys_L_OfficeSm_W" = 1264.065   $ Sizing
 "CRtdFlo_Sys_L_Restrm_C" = 210.9664   $ Sizing
 "CRtdFlo_Sys_L_StorSm_C" = 403.9669   $ Sizing
 "CRtdFlo_Sys_M_Break_C" = 3305.683   $ Sizing
 "CRtdFlo_Sys_M_Conf_C" = 4052.287   $ Sizing
 "CRtdFlo_Sys_M_CopyRm_C" = 1182.48   $ Sizing
 "CRtdFlo_Sys_M_Cordr_C" = 7257.994   $ Sizing
 "CRtdFlo_Sys_M_Cordr_E" = 2289.456   $ Sizing
 "CRtdFlo_Sys_M_Cordr_N" = 1162.147   $ Sizing
 "CRtdFlo_Sys_M_Cordr_S" = 2186.492   $ Sizing
 "CRtdFlo_Sys_M_Cordr_W" = 2017.91   $ Sizing
 "CRtdFlo_Sys_M_LobWait_C" = 4164.848   $ Sizing
 "CRtdFlo_Sys_M_MechElec_C" = 1422.952   $ Sizing
 "CRtdFlo_Sys_M_OfficeOpn_C" = 16476.27   $ Sizing
 "CRtdFlo_Sys_M_OfficeOpn_E" = 15494.79   $ Sizing
 "CRtdFlo_Sys_M_OfficeOpn_N" = 8525.103   $ Sizing
 "CRtdFlo_Sys_M_OfficeOpn_S" = 15038.17   $ Sizing
 "CRtdFlo_Sys_M_OfficeOpn_W" = 14744.46   $ Sizing
 "CRtdFlo_Sys_M_OfficeSm_C" = 2382.922   $ Sizing
 "CRtdFlo_Sys_M_OfficeSm_E" = 11098.24   $ Sizing
 "CRtdFlo_Sys_M_OfficeSm_N" = 5414.196   $ Sizing
 "CRtdFlo_Sys_M_OfficeSm_S" = 10921.04   $ Sizing
 "CRtdFlo_Sys_M_OfficeSm_W" = 10541.87   $ Sizing
 "CRtdFlo_Sys_M_Restrm_C" = 1687.731   $ Sizing
 "CRtdFlo_Sys_M_StorSm_C" = 3549.109   $ Sizing
 "CRtdFlo_Sys_T_Break_C" = 389.2699   $ Sizing
 "CRtdFlo_Sys_T_Conf_C" = 468.0728   $ Sizing
 "CRtdFlo_Sys_T_CopyRm_C" = 130.4429   $ Sizing
 "CRtdFlo_Sys_T_Cordr_C" = 791.9728   $ Sizing
 "CRtdFlo_Sys_T_Cordr_E" = 254.7647   $ Sizing
 "CRtdFlo_Sys_T_Cordr_N" = 123.2524   $ Sizing
 "CRtdFlo_Sys_T_Cordr_S" = 247.6998   $ Sizing
 "CRtdFlo_Sys_T_Cordr_W" = 227.7828   $ Sizing
 "CRtdFlo_Sys_T_LobWait_C" = 465.8425   $ Sizing
 "CRtdFlo_Sys_T_MechElec_C" = 218.2498   $ Sizing
 "CRtdFlo_Sys_T_OfficeOpn_C" = 1821.766   $ Sizing
 "CRtdFlo_Sys_T_OfficeOpn_E" = 1760.661   $ Sizing
 "CRtdFlo_Sys_T_OfficeOpn_N" = 949.9623   $ Sizing
 "CRtdFlo_Sys_T_OfficeOpn_S" = 1757.85   $ Sizing
 "CRtdFlo_Sys_T_OfficeOpn_W" = 1704.013   $ Sizing
 "CRtdFlo_Sys_T_OfficeSm_C" = 282.8634   $ Sizing
 "CRtdFlo_Sys_T_OfficeSm_E" = 1305.828   $ Sizing
 "CRtdFlo_Sys_T_OfficeSm_N" = 621.4265   $ Sizing
 "CRtdFlo_Sys_T_OfficeSm_S" = 1304.164   $ Sizing
 "CRtdFlo_Sys_T_OfficeSm_W" = 1245.11   $ Sizing
 "CRtdFlo_Sys_T_Restrm_C" = 210.9664   $ Sizing
 "CRtdFlo_Sys_T_StorSm_C" = 332.6785   $ Sizing
 "CSupFlo_Sys_L_Break_C" = 374.419   $ Sizing
 "CSupFlo_Sys_L_Conf_C" = 444.6718   $ Sizing
 "CSupFlo_Sys_L_CopyRm_C" = 116.5958   $ Sizing
 "CSupFlo_Sys_L_Cordr_C" = 566.7545   $ Sizing
 "CSupFlo_Sys_L_Cordr_E" = 233.6841   $ Sizing
 "CSupFlo_Sys_L_Cordr_N" = 93.84254   $ Sizing
 "CSupFlo_Sys_L_Cordr_S" = 235.9229   $ Sizing
 "CSupFlo_Sys_L_Cordr_W" = 225.3273   $ Sizing
 "CSupFlo_Sys_L_LobWait_C" = 392.0862   $ Sizing
 "CSupFlo_Sys_L_MechElec_C" = 133.6031   $ Sizing
 "CSupFlo_Sys_L_OfficeOpn_C" = 1692.64   $ Sizing
 "CSupFlo_Sys_L_OfficeOpn_E" = 1755.672   $ Sizing
 "CSupFlo_Sys_L_OfficeOpn_N" = 896.2991   $ Sizing
 "CSupFlo_Sys_L_OfficeOpn_S" = 1730.48   $ Sizing
 "CSupFlo_Sys_L_OfficeOpn_W" = 1758.555   $ Sizing
 "CSupFlo_Sys_L_OfficeSm_C" = 234.5307   $ Sizing
 "CSupFlo_Sys_L_OfficeSm_E" = 1271.074   $ Sizing
 "CSupFlo_Sys_L_OfficeSm_N" = 567.5108   $ Sizing
 "CSupFlo_Sys_L_OfficeSm_S" = 1269.173   $ Sizing
 "CSupFlo_Sys_L_OfficeSm_W" = 1264.065   $ Sizing
 "CSupFlo_Sys_L_Restrm_C" = 210.9664   $ Sizing
 "CSupFlo_Sys_L_StorSm_C" = 403.9669   $ Sizing
 "CSupFlo_Sys_M_Break_C" = 3305.683   $ Sizing
 "CSupFlo_Sys_M_Conf_C" = 4052.287   $ Sizing
 "CSupFlo_Sys_M_CopyRm_C" = 1182.48   $ Sizing
 "CSupFlo_Sys_M_Cordr_C" = 7257.994   $ Sizing
 "CSupFlo_Sys_M_Cordr_E" = 2289.456   $ Sizing
 "CSupFlo_Sys_M_Cordr_N" = 1162.147   $ Sizing
 "CSupFlo_Sys_M_Cordr_S" = 2186.492   $ Sizing
 "CSupFlo_Sys_M_Cordr_W" = 2017.91   $ Sizing
 "CSupFlo_Sys_M_LobWait_C" = 4164.848   $ Sizing
 "CSupFlo_Sys_M_MechElec_C" = 1422.952   $ Sizing
 "CSupFlo_Sys_M_OfficeOpn_C" = 16476.27   $ Sizing
 "CSupFlo_Sys_M_OfficeOpn_E" = 15494.79   $ Sizing
 "CSupFlo_Sys_M_OfficeOpn_N" = 8525.103   $ Sizing
 "CSupFlo_Sys_M_OfficeOpn_S" = 15038.17   $ Sizing
 "CSupFlo_Sys_M_OfficeOpn_W" = 14744.46   $ Sizing
 "CSupFlo_Sys_M_OfficeSm_C" = 2382.922   $ Sizing
 "CSupFlo_Sys_M_OfficeSm_E" = 11098.24   $ Sizing
 "CSupFlo_Sys_M_OfficeSm_N" = 5414.196   $ Sizing
 "CSupFlo_Sys_M_OfficeSm_S" = 10921.04   $ Sizing
 "CSupFlo_Sys_M_OfficeSm_W" = 10541.87   $ Sizing
 "CSupFlo_Sys_M_Restrm_C" = 1687.731   $ Sizing
 "CSupFlo_Sys_M_StorSm_C" = 3549.109   $ Sizing
 "CSupFlo_Sys_T_Break_C" = 389.2699   $ Sizing
 "CSupFlo_Sys_T_Conf_C" = 468.0728   $ Sizing
 "CSupFlo_Sys_T_CopyRm_C" = 130.4429   $ Sizing
 "CSupFlo_Sys_T_Cordr_C" = 791.9728   $ Sizing
 "CSupFlo_Sys_T_Cordr_E" = 254.7647   $ Sizing
 "CSupFlo_Sys_T_Cordr_N" = 123.2524   $ Sizing
 "CSupFlo_Sys_T_Cordr_S" = 247.6997   $ Sizing
 "CSupFlo_Sys_T_Cordr_W" = 227.7828   $ Sizing
 "CSupFlo_Sys_T_LobWait_C" = 465.8425   $ Sizing
 "CSupFlo_Sys_T_MechElec_C" = 218.2498   $ Sizing
 "CSupFlo_Sys_T_OfficeOpn_C" = 1821.766   $ Sizing
 "CSupFlo_Sys_T_OfficeOpn_E" = 1760.661   $ Sizing
 "CSupFlo_Sys_T_OfficeOpn_N" = 949.9623   $ Sizing
 "CSupFlo_Sys_T_OfficeOpn_S" = 1757.85   $ Sizing
 "CSupFlo_Sys_T_OfficeOpn_W" = 1704.013   $ Sizing
 "CSupFlo_Sys_T_OfficeSm_C" = 282.8634   $ Sizing
 "CSupFlo_Sys_T_OfficeSm_E" = 1305.828   $ Sizing
 "CSupFlo_Sys_T_OfficeSm_N" = 621.4265   $ Sizing
 "CSupFlo_Sys_T_OfficeSm_S" = 1304.164   $ Sizing
 "CSupFlo_Sys_T_OfficeSm_W" = 1245.11   $ Sizing
 "CSupFlo_Sys_T_Restrm_C" = 210.9664   $ Sizing
 "CSupFlo_Sys_T_StorSm_C" = 332.6785   $ Sizing
 "ClCap_Sys_L_Break_C" = 12795.29   $ Sizing
 "ClCap_Sys_L_Conf_C" = 19340.48   $ Sizing
 "ClCap_Sys_L_CopyRm_C" = 3984.512   $ Sizing
 "ClCap_Sys_L_Cordr_C" = 19368.11   $ Sizing
 "ClCap_Sys_L_Cordr_E" = 7985.854   $ Sizing
 "ClCap_Sys_L_Cordr_N" = 3206.949   $ Sizing
 "ClCap_Sys_L_Cordr_S" = 8062.364   $ Sizing
 "ClCap_Sys_L_Cordr_W" = 7700.271   $ Sizing
 "ClCap_Sys_L_LobWait_C" = 13399.04   $ Sizing
 "ClCap_Sys_L_MechElec_C" = 4565.714   $ Sizing
 "ClCap_Sys_L_OfficeOpn_C" = 57843.81   $ Sizing
 "ClCap_Sys_L_OfficeOpn_E" = 59997.85   $ Sizing
 "ClCap_Sys_L_OfficeOpn_N" = 30629.88   $ Sizing
 "ClCap_Sys_L_OfficeOpn_S" = 59136.94   $ Sizing
 "ClCap_Sys_L_OfficeOpn_W" = 60096.37   $ Sizing
 "ClCap_Sys_L_OfficeSm_C" = 8014.787   $ Sizing
 "ClCap_Sys_L_OfficeSm_E" = 43437.33   $ Sizing
 "ClCap_Sys_L_OfficeSm_N" = 19393.96   $ Sizing
 "ClCap_Sys_L_OfficeSm_S" = 43372.38   $ Sizing
 "ClCap_Sys_L_OfficeSm_W" = 43197.81   $ Sizing
 "ClCap_Sys_L_Restrm_C" = 7209.506   $ Sizing
 "ClCap_Sys_L_StorSm_C" = 13805.05   $ Sizing
 "ClCap_Sys_M_Break_C" = 112967.5   $ Sizing
 "ClCap_Sys_M_Conf_C" = 176249.5   $ Sizing
 "ClCap_Sys_M_CopyRm_C" = 40409.74   $ Sizing
 "ClCap_Sys_M_Cordr_C" = 248032.7   $ Sizing
 "ClCap_Sys_M_Cordr_E" = 78239.23   $ Sizing
 "ClCap_Sys_M_Cordr_N" = 39714.89   $ Sizing
 "ClCap_Sys_M_Cordr_S" = 74720.59   $ Sizing
 "ClCap_Sys_M_Cordr_W" = 68959.49   $ Sizing
 "ClCap_Sys_M_LobWait_C" = 142328.3   $ Sizing
 "ClCap_Sys_M_MechElec_C" = 48627.58   $ Sizing
 "ClCap_Sys_M_OfficeOpn_C" = 563055.4   $ Sizing
 "ClCap_Sys_M_OfficeOpn_E" = 529514.6   $ Sizing
 "ClCap_Sys_M_OfficeOpn_N" = 291334.5   $ Sizing
 "ClCap_Sys_M_OfficeOpn_S" = 513910.3   $ Sizing
 "ClCap_Sys_M_OfficeOpn_W" = 503873.1   $ Sizing
 "ClCap_Sys_M_OfficeSm_C" = 81433.31   $ Sizing
 "ClCap_Sys_M_OfficeSm_E" = 379268.2   $ Sizing
 "ClCap_Sys_M_OfficeSm_N" = 185023.2   $ Sizing
 "ClCap_Sys_M_OfficeSm_S" = 373212.5   $ Sizing
 "ClCap_Sys_M_OfficeSm_W" = 360255.1   $ Sizing
 "ClCap_Sys_M_Restrm_C" = 57676.05   $ Sizing
 "ClCap_Sys_M_StorSm_C" = 121286.3   $ Sizing
 "ClCap_Sys_T_Break_C" = 13302.8   $ Sizing
 "ClCap_Sys_T_Conf_C" = 20358.28   $ Sizing
 "ClCap_Sys_T_CopyRm_C" = 4457.718   $ Sizing
 "ClCap_Sys_T_Cordr_C" = 27064.66   $ Sizing
 "ClCap_Sys_T_Cordr_E" = 8706.259   $ Sizing
 "ClCap_Sys_T_Cordr_N" = 4211.993   $ Sizing
 "ClCap_Sys_T_Cordr_S" = 8464.822   $ Sizing
 "ClCap_Sys_T_Cordr_W" = 7784.185   $ Sizing
 "ClCap_Sys_T_LobWait_C" = 15919.57   $ Sizing
 "ClCap_Sys_T_MechElec_C" = 7458.406   $ Sizing
 "ClCap_Sys_T_OfficeOpn_C" = 62256.51   $ Sizing
 "ClCap_Sys_T_OfficeOpn_E" = 60168.35   $ Sizing
 "ClCap_Sys_T_OfficeOpn_N" = 32463.75   $ Sizing
 "ClCap_Sys_T_OfficeOpn_S" = 60072.28   $ Sizing
 "ClCap_Sys_T_OfficeOpn_W" = 58232.47   $ Sizing
 "ClCap_Sys_T_OfficeSm_C" = 9666.494   $ Sizing
 "ClCap_Sys_T_OfficeSm_E" = 44625.01   $ Sizing
 "ClCap_Sys_T_OfficeSm_N" = 21236.46   $ Sizing
 "ClCap_Sys_T_OfficeSm_S" = 44568.13   $ Sizing
 "ClCap_Sys_T_OfficeSm_W" = 42550.05   $ Sizing
 "ClCap_Sys_T_Restrm_C" = 7209.506   $ Sizing
 "ClCap_Sys_T_StorSm_C" = 11368.86   $ Sizing
 "HtCap_Sys_L_Break_C" = -19709.91   $ Sizing
 "HtCap_Sys_L_Conf_C" = -24457.36   $ Sizing
 "HtCap_Sys_L_CopyRm_C" = -6994.048   $ Sizing
 "HtCap_Sys_L_Cordr_C" = -25031.86   $ Sizing
 "HtCap_Sys_L_Cordr_E" = -8233.082   $ Sizing
 "HtCap_Sys_L_Cordr_N" = -4188.292   $ Sizing
 "HtCap_Sys_L_Cordr_S" = -8267.65   $ Sizing
 "HtCap_Sys_L_Cordr_W" = -7989.449   $ Sizing
 "HtCap_Sys_L_LobWait_C" = -20514.7   $ Sizing
 "HtCap_Sys_L_MechElec_C" = -5893.965   $ Sizing
 "HtCap_Sys_L_OfficeOpn_C" = -82778.9   $ Sizing
 "HtCap_Sys_L_OfficeOpn_E" = -55656.2   $ Sizing
 "HtCap_Sys_L_OfficeOpn_N" = -34061.24   $ Sizing
 "HtCap_Sys_L_OfficeOpn_S" = -57632.79   $ Sizing
 "HtCap_Sys_L_OfficeOpn_W" = -58598.23   $ Sizing
 "HtCap_Sys_L_OfficeSm_C" = -9057.817   $ Sizing
 "HtCap_Sys_L_OfficeSm_E" = -41164.32   $ Sizing
 "HtCap_Sys_L_OfficeSm_N" = -21712.05   $ Sizing
 "HtCap_Sys_L_OfficeSm_S" = -40678.21   $ Sizing
 "HtCap_Sys_L_OfficeSm_W" = -42046.98   $ Sizing
 "HtCap_Sys_L_Restrm_C" = -7720.462   $ Sizing
 "HtCap_Sys_L_StorSm_C" = -17043.17   $ Sizing
 "HtCap_Sys_M_Break_C" = -166485.2   $ Sizing
 "HtCap_Sys_M_Conf_C" = -209965   $ Sizing
 "HtCap_Sys_M_CopyRm_C" = -63112.16   $ Sizing
 "HtCap_Sys_M_Cordr_C" = -277942.3   $ Sizing
 "HtCap_Sys_M_Cordr_E" = -77812.75   $ Sizing
 "HtCap_Sys_M_Cordr_N" = -45467.52   $ Sizing
 "HtCap_Sys_M_Cordr_S" = -74590.05   $ Sizing
 "HtCap_Sys_M_Cordr_W" = -69976.02   $ Sizing
 "HtCap_Sys_M_LobWait_C" = -193606.2   $ Sizing
 "HtCap_Sys_M_MechElec_C" = -57233.84   $ Sizing
 "HtCap_Sys_M_OfficeOpn_C" = -807036   $ Sizing
 "HtCap_Sys_M_OfficeOpn_E" = -509332.9   $ Sizing
 "HtCap_Sys_M_OfficeOpn_N" = -311032.1   $ Sizing
 "HtCap_Sys_M_OfficeOpn_S" = -493915.7   $ Sizing
 "HtCap_Sys_M_OfficeOpn_W" = -487594.3   $ Sizing
 "HtCap_Sys_M_OfficeSm_C" = -87023.08   $ Sizing
 "HtCap_Sys_M_OfficeSm_E" = -358184.8   $ Sizing
 "HtCap_Sys_M_OfficeSm_N" = -199014.8   $ Sizing
 "HtCap_Sys_M_OfficeSm_S" = -355568.9   $ Sizing
 "HtCap_Sys_M_OfficeSm_W" = -347875.7   $ Sizing
 "HtCap_Sys_M_Restrm_C" = -66343.79   $ Sizing
 "HtCap_Sys_M_StorSm_C" = -141840.4   $ Sizing
 "HtCap_Sys_T_Break_C" = -20991.94   $ Sizing
 "HtCap_Sys_T_Conf_C" = -26001.43   $ Sizing
 "HtCap_Sys_T_CopyRm_C" = -7577.641   $ Sizing
 "HtCap_Sys_T_Cordr_C" = -35354.3   $ Sizing
 "HtCap_Sys_T_Cordr_E" = -10158.87   $ Sizing
 "HtCap_Sys_T_Cordr_N" = -5634.085   $ Sizing
 "HtCap_Sys_T_Cordr_S" = -9940.954   $ Sizing
 "HtCap_Sys_T_Cordr_W" = -9254.72   $ Sizing
 "HtCap_Sys_T_LobWait_C" = -24046.68   $ Sizing
 "HtCap_Sys_T_MechElec_C" = -8307.579   $ Sizing
 "HtCap_Sys_T_OfficeOpn_C" = -88815.36   $ Sizing
 "HtCap_Sys_T_OfficeOpn_E" = -66284.36   $ Sizing
 "HtCap_Sys_T_OfficeOpn_N" = -40496.75   $ Sizing
 "HtCap_Sys_T_OfficeOpn_S" = -67085.56   $ Sizing
 "HtCap_Sys_T_OfficeOpn_W" = -64630.05   $ Sizing
 "HtCap_Sys_T_OfficeSm_C" = -11789.45   $ Sizing
 "HtCap_Sys_T_OfficeSm_E" = -48786.23   $ Sizing
 "HtCap_Sys_T_OfficeSm_N" = -26320.43   $ Sizing
 "HtCap_Sys_T_OfficeSm_S" = -49011.52   $ Sizing
 "HtCap_Sys_T_OfficeSm_W" = -47341.64   $ Sizing
 "HtCap_Sys_T_Restrm_C" = -8557.443   $ Sizing
 "HtCap_Sys_T_StorSm_C" = -16139.42   $ Sizing
..

##include Templates\OfL_DX_SZ.inp
END ..
COMPUTE ..
STOP ..
