INPUT ..

##fileprefix C:\Users\jglasskatz\MASControl3\
##set1 IsSizing FALSE
##set1 CoolType DX
##set1 HeatType ELECTRIC
##set1 EU_HrRepVar 1
##set1 BldgVint 2015
##set1 BldgLoc CZ01

 ##set1 mBFMult 1   $ IP Tech: RefgChg-NRes-Std

PARAMETER
 "AltFactor" = 1.00753   $ IP Non-Tech
 "BldgEconoFlag" = 1   $ IP Non-Tech
 "Break_EWSF" = 1   $ IP Non-Tech
 "Break_LWSF" = 1.1   $ IP Non-Tech
 "CDD_DBHi10" = 65   $ IP Non-Tech
 "CDD_DBHi7" = 68   $ IP Non-Tech
 "CDD_DBHi8" = 66   $ IP Non-Tech
 "CDD_DBHi9" = 77   $ IP Non-Tech
 "CDD_DBRange10" = 17   $ IP Non-Tech
 "CDD_DBRange7" = 11   $ IP Non-Tech
 "CDD_DBRange8" = 10   $ IP Non-Tech
 "CDD_DBRange9" = 29   $ IP Non-Tech
 "CDD_Day10" = 15   $ IP Non-Tech
 "CDD_Day7" = 16   $ IP Non-Tech
 "CDD_Day8" = 20   $ IP Non-Tech
 "CDD_Day9" = 17   $ IP Non-Tech
 "CDD_HrHi10" = 12   $ IP Non-Tech
 "CDD_HrHi7" = 12   $ IP Non-Tech
 "CDD_HrHi8" = 13   $ IP Non-Tech
 "CDD_HrHi9" = 17   $ IP Non-Tech
 "CDD_HrLo10" = 6   $ IP Non-Tech
 "CDD_HrLo7" = 3   $ IP Non-Tech
 "CDD_HrLo8" = 8   $ IP Non-Tech
 "CDD_HrLo9" = 4   $ IP Non-Tech
 "CDD_WB10" = 57.53039551   $ IP Non-Tech
 "CDD_WB7" = 59.29250717   $ IP Non-Tech
 "CDD_WB8" = 60.75350189   $ IP Non-Tech
 "CDD_WB9" = 61.08643341   $ IP Non-Tech
 "CZ_Category" = Tem   $ IP Non-Tech
 "ChwVintEconoFlag" = 1   $ IP Non-Tech
 "Conference_EWSF" = 1   $ IP Non-Tech
 "Conference_LWSF" = 1.4   $ IP Non-Tech
 "CoolSetT" = 45   $ IP Non-Tech
 "CoolType" = DX   $ IP Non-Tech
 "CopyRoom_EWSF" = 1.5   $ IP Non-Tech
 "CopyRoom_LWSF" = 1.3   $ IP Non-Tech
 "CorridorStairway_EWSF" = 0.2   $ IP Non-Tech
 "CorridorStairway_LWSF" = 0.6   $ IP Non-Tech
 "DesCoolT" = 75   $ IP Non-Tech
 "DesHeatT" = 73   $ IP Non-Tech
 "EconoEnthLimit" = 28   $ IP Non-Tech
 "EconoTempLimit" = 70   $ IP Non-Tech
 "Elevation" = 203   $ IP Non-Tech
 "HDD_CloudAmt1" = 0   $ IP Non-Tech
 "HDD_DBHi1" = 53   $ IP Non-Tech
 "HDD_DBRange1" = 20   $ IP Non-Tech
 "HDD_Day1" = 15   $ IP Non-Tech
 "HDD_HrHi1" = 14   $ IP Non-Tech
 "HDD_HrLo1" = 6   $ IP Non-Tech
 "HDD_WB1" = 42.3   $ IP Non-Tech
 "HDD_WindSpd1" = 12.7   $ IP Non-Tech
 "HeatSrc" = ELECTRIC   $ IP Non-Tech
 "HeatSrcTU" = HEAT-PUMP   $ IP Non-Tech
 "HeatType" = Elec   $ IP Non-Tech
 "HeatTypeTU" = HEAT-PUMP   $ IP Non-Tech
 "IndoorFanMode" = CONTINUOUS   $ IP Non-Tech
 "KT_TransferAir" = Yes   $ IP Non-Tech
 "Latitude" = 40.8   $ IP Non-Tech
 "LobbyWaiting_EWSF" = 0.5   $ IP Non-Tech
 "LobbyWaiting_LWSF" = 1.3   $ IP Non-Tech
 "Longitude" = 124.2   $ IP Non-Tech
 "LtgMsrApplic" = ALL   $ Msr TechID: NonResLtgRefMsr-CFL
 "LtgSav_CFL" = 0.3   $ Msr TechID: NonResLtgRefMsr-CFL
 "LtgSav_EX" = 0   $ Msr TechID: NonResLtgRefMsr-CFL
 "LtgSav_HB" = 0   $ Msr TechID: NonResLtgRefMsr-CFL
 "LtgSav_LF" = 0   $ Msr TechID: NonResLtgRefMsr-CFL
 "LtgSav_SP" = 0   $ Msr TechID: NonResLtgRefMsr-CFL
 "MZFanMechEff" = 0.58   $ IP Non-Tech
 "MZHasRetFan" = FALSE   $ IP Non-Tech
 "MZ_RFanWPerCfm" = 0.37   $ IP Non-Tech
 "MZ_SFanWPerCfm" = 0.71   $ IP Non-Tech
 "MZ_SupFanStatic" = 4   $ IP Non-Tech
 "MaxSupT_MZ" = 95   $ IP Non-Tech
 "MaxSupT_SZ" = 100   $ IP Non-Tech
 "MaxSupT_TU" = 100   $ IP Non-Tech
 "MechElecRoom_EWSF" = 0.2   $ IP Non-Tech
 "MechElecRoom_LWSF" = 0.7   $ IP Non-Tech
 "MinCfmPerSF" = 0.4   $ IP Non-Tech
 "MinSupT" = 55   $ IP Non-Tech
 "NumBlrs" = 2   $ IP Non-Tech
 "OccCoolT" = 76   $ IP Non-Tech
 "OccHeatT" = 72   $ IP Non-Tech
 "OfficeOpen_EWSF" = 1.5   $ IP Non-Tech
 "OfficeOpen_LWSF" = 1.05   $ IP Non-Tech
 "OfficeSmall_EWSF" = 1.5   $ IP Non-Tech
 "OfficeSmall_LWSF" = 1.3   $ IP Non-Tech
 "PkgDxVintEconoFlag" = 1   $ IP Non-Tech
 "ReheatDeltaT" = 40   $ IP Non-Tech
 "Restroom_EWSF" = 0.2   $ IP Non-Tech
 "Restroom_LWSF" = 0.6   $ IP Non-Tech
 "SZFanMechEff" = 0.58   $ IP Non-Tech
 "SZHasRetFan" = FALSE   $ IP Non-Tech
 "SZ_Is_2Spd" = TRUE   $ IP Non-Tech
 "SZ_SFanWPerCfm" = 0.46   $ IP Non-Tech
 "StorageSmlCond_EWSF" = 0.2   $ IP Non-Tech
 "StorageSmlCond_LWSF" = 0.6   $ IP Non-Tech
 "T24GlzTbl" = TypeTbl   $ IP Non-Tech
 "TermUnitFanMechEff" = 1   $ IP Non-Tech
 "TermUnitFanMode" = INTERMITTENT   $ IP Non-Tech
 "TwrSetpt" = 80   $ IP Non-Tech
 "UnocCoolT" = 86   $ IP Non-Tech
 "UnocHeatT" = 62   $ IP Non-Tech
 "VAVMinFlow" = 0.3   $ IP Non-Tech
 "WlhpVintEconoFlag" = 1   $ IP Non-Tech
 "EconoCtrl" = OA-TEMP   $ IP Tech: AirEcono-OATemp
 "MaxOAFrac" = 0.85   $ IP Tech: AirEcono-OATemp
 "UseEconoVintApplic" = FALSE   $ IP Tech: AirEcono-OATemp
 "DuctDT" = 1   $ IP Tech: ComDuctInsul-1
 "DuctAirLoss" = 0   $ IP Tech: ComDuctLeak-0
 "DuctLossOAFrac" = 0   $ IP Tech: ComDuctLeak-0
 "ComRoofInsCalc" = FromUo   $ IP Tech: ComRoofIns-Hvy-0.05
 "ComRoofInsR" = -999   $ IP Tech: ComRoofIns-Hvy-0.05
 "ComRoofUo" = 0.05   $ IP Tech: ComRoofIns-Hvy-0.05
 "ComEWInsCalc" = FromUo   $ IP Tech: ComWallIns-MFrm-0.1
 "ComEWInsR" = -999   $ IP Tech: ComWallIns-MFrm-0.1
 "ComEWUo" = 0.1   $ IP Tech: ComWallIns-MFrm-0.1
 "ComN_SHGC" = 0.26   $ IP Tech: NResWin-ComN-0.41-0.26
 "ComN_UFactor" = 0.41   $ IP Tech: NResWin-ComN-0.41-0.26
 "ComN_VisTrans" = 0.41   $ IP Tech: NResWin-ComN-0.41-0.26
 "ComN_WinCode" = G2666   $ IP Tech: NResWin-ComN-0.41-0.26
 "ComN_WinFrmFrac" = 0.17   $ IP Tech: NResWin-ComN-0.41-0.26
 "ComN_WinFrmU" = 0.3   $ IP Tech: NResWin-ComN-0.41-0.26
 "ComO_SHGC" = 0.26   $ IP Tech: NResWin-ComO-0.41-0.26
 "ComO_UFactor" = 0.41   $ IP Tech: NResWin-ComO-0.41-0.26
 "ComO_VisTrans" = 0.41   $ IP Tech: NResWin-ComO-0.41-0.26
 "ComO_WinCode" = G2666   $ IP Tech: NResWin-ComO-0.41-0.26
 "ComO_WinFrmFrac" = 0.17   $ IP Tech: NResWin-ComO-0.41-0.26
 "ComO_WinFrmU" = 0.3   $ IP Tech: NResWin-ComO-0.41-0.26
 "PV_BF_fFlow" = PVV240to760_BF_fFlow   $ IP Tech: PVVAC-P-240to760-E10
 "PV_BF_fT" = PVV240to760_BF_fT   $ IP Tech: PVVAC-P-240to760-E10
 "PV_CEIR_fPLR" = PVV240to760_CEIR_fPLR   $ IP Tech: PVVAC-P-240to760-E10
 "PV_CLoss_fPLR" = PVV240to760_CLoss_fPLR   $ IP Tech: PVVAC-P-240to760-E10
 "PV_COP" = -1   $ IP Tech: PVVAC-P-240to760-E10
 "PV_COP47" = -1   $ IP Tech: PVVAC-P-240to760-E10
 "PV_CfmPerBtuh" = 0.02917   $ IP Tech: PVVAC-P-240to760-E10
 "PV_ClCap_fT" = PVV240to760_ClCap_fT   $ IP Tech: PVVAC-P-240to760-E10
 "PV_ClSH_fT" = PVV240to760_ClSH_fT   $ IP Tech: PVVAC-P-240to760-E10
 "PV_CoilBF" = 0.125   $ IP Tech: PVVAC-P-240to760-E10
 "PV_CondWPerBtuh" = 0   $ IP Tech: PVVAC-P-240to760-E10
 "PV_CoolSensCap" = 0.708   $ IP Tech: PVVAC-P-240to760-E10
 "PV_CoolingEIR" = 0.27383   $ IP Tech: PVVAC-P-240to760-E10
 "PV_CrnkEIR" = 0.0027   $ IP Tech: PVVAC-P-240to760-E10
 "PV_CrnkMaxT" = 50   $ IP Tech: PVVAC-P-240to760-E10
 "PV_DXType" = PVV   $ IP Tech: PVVAC-P-240to760-E10
 "PV_EER" = 9.17   $ IP Tech: PVVAC-P-240to760-E10
 "PV_EIR_fT" = PVV240to760_EIR_fT   $ IP Tech: PVVAC-P-240to760-E10
 "PV_FanEirPlr" = NA   $ IP Tech: PVVAC-P-240to760-E10
 "PV_FanWPerCfm" = 0.72   $ IP Tech: PVVAC-P-240to760-E10
 "PV_HIR_fT" = DEFAULT   $ IP Tech: PVVAC-P-240to760-E10
 "PV_HtCap_fT" = DEFAULT   $ IP Tech: PVVAC-P-240to760-E10
 "PV_HtCoolCapRatio" = -1   $ IP Tech: PVVAC-P-240to760-E10
 "PV_HtgEIR" = -1   $ IP Tech: PVVAC-P-240to760-E10
 "PV_HtgFuel" = HW   $ IP Tech: PVVAC-P-240to760-E10
 "PV_IEER" = 11.44   $ IP Tech: PVVAC-P-240to760-E10
 "PV_LowSpdCapRatio" = 0.17   $ IP Tech: PVVAC-P-240to760-E10
 "PV_LowSpdCfmRatio" = 0.24   $ IP Tech: PVVAC-P-240to760-E10
 "PV_NominalCap" = 40   $ IP Tech: PVVAC-P-240to760-E10
 "PV_NumStages" = 1   $ IP Tech: PVVAC-P-240to760-E10
 "PV_RatedEER" = 10   $ IP Tech: PVVAC-P-240to760-E10
 "PV_RatedSupMtrClass" = Premium   $ IP Tech: PVVAC-P-240to760-E10
 "PV_SizeRange" = 240to760   $ IP Tech: PVVAC-P-240to760-E10
 "PV_SubType" = AC   $ IP Tech: PVVAC-P-240to760-E10
 "PV_SupMotEff" = 0.93   $ IP Tech: PVVAC-P-240to760-E10
 "PV_Tier" = 0   $ IP Tech: PVVAC-P-240to760-E10
 "PV_TotCoolCap" = 485760   $ IP Tech: PVVAC-P-240to760-E10
 "BF_fFlow" = PSZ65to135_BF_fFlow   $ IP Tech: PkgAC2SpP-65to135-E11.2
 "BF_fT" = PSZ65to135_BF_fT   $ IP Tech: PkgAC2SpP-65to135-E11.2
 "CEIR_fPLR" = PSZ65to135_CEIR_fPLR   $ IP Tech: PkgAC2SpP-65to135-E11.2
 "CLoss_fPLR" = PSZ65to135_CLoss_fPLR   $ IP Tech: PkgAC2SpP-65to135-E11.2
 "COP" = -1   $ IP Tech: PkgAC2SpP-65to135-E11.2
 "COP47" = -1   $ IP Tech: PkgAC2SpP-65to135-E11.2
 "CfmPerBtuh" = 0.02917   $ IP Tech: PkgAC2SpP-65to135-E11.2
 "ClCap_fT" = PSZ65to135_ClCap_fT   $ IP Tech: PkgAC2SpP-65to135-E11.2
 "ClSH_fT" = PSZ65to135_ClSH_fT   $ IP Tech: PkgAC2SpP-65to135-E11.2
 "CoilBF" = 0.114   $ IP Tech: PkgAC2SpP-65to135-E11.2
 "CondWPerBtuh" = 0   $ IP Tech: PkgAC2SpP-65to135-E11.2
 "CoolSensCap" = 0.663   $ IP Tech: PkgAC2SpP-65to135-E11.2
 "CoolingEIR" = 0.26277   $ IP Tech: PkgAC2SpP-65to135-E11.2
 "CrnkEIR" = 0.0026   $ IP Tech: PkgAC2SpP-65to135-E11.2
 "CrnkMaxT" = 50   $ IP Tech: PkgAC2SpP-65to135-E11.2
 "DXType" = Pkg   $ IP Tech: PkgAC2SpP-65to135-E11.2
 "EER" = 10.83   $ IP Tech: PkgAC2SpP-65to135-E11.2
 "EIR_fT" = PSZ65to135_EIR_fT   $ IP Tech: PkgAC2SpP-65to135-E11.2
 "FanEirPlr" = TwoSpeedFan   $ IP Tech: PkgAC2SpP-65to135-E11.2
 "FanWPerCfm" = 0.4   $ IP Tech: PkgAC2SpP-65to135-E11.2
 "HIR_fT" = DEFAULT   $ IP Tech: PkgAC2SpP-65to135-E11.2
 "HtCap_fT" = DEFAULT   $ IP Tech: PkgAC2SpP-65to135-E11.2
 "HtCoolCapRatio" = -1   $ IP Tech: PkgAC2SpP-65to135-E11.2
 "HtgEIR" = -1   $ IP Tech: PkgAC2SpP-65to135-E11.2
 "HtgFuel" = Gas   $ IP Tech: PkgAC2SpP-65to135-E11.2
 "IEER" = 13.65   $ IP Tech: PkgAC2SpP-65to135-E11.2
 "LowSpdCapRatio" = 0.5   $ IP Tech: PkgAC2SpP-65to135-E11.2
 "LowSpdCfmRatio" = 0.66   $ IP Tech: PkgAC2SpP-65to135-E11.2
 "NominalCap" = 15   $ IP Tech: PkgAC2SpP-65to135-E11.2
 "NumStages" = 2   $ IP Tech: PkgAC2SpP-65to135-E11.2
 "RatedEER" = 11.2   $ IP Tech: PkgAC2SpP-65to135-E11.2
 "RatedSupMtrClass" = Premium   $ IP Tech: PkgAC2SpP-65to135-E11.2
 "SizeRange" = 65to135   $ IP Tech: PkgAC2SpP-65to135-E11.2
 "SubType" = AC   $ IP Tech: PkgAC2SpP-65to135-E11.2
 "SupMotEff" = 0.865   $ IP Tech: PkgAC2SpP-65to135-E11.2
 "Tier" = 0   $ IP Tech: PkgAC2SpP-65to135-E11.2
 "TotCoolCap" = 184140   $ IP Tech: PkgAC2SpP-65to135-E11.2
 "BFMult" = 1   $ IP Tech: RefgChg-NRes-Std
 "CoolEirMult" = 1   $ IP Tech: RefgChg-NRes-Std
 "SensCoolCapMult" = 1   $ IP Tech: RefgChg-NRes-Std
 "TotCoolCapMult" = 1   $ IP Tech: RefgChg-NRes-Std
 "SATempCtrl" = WARMEST   $ IP Tech: SATempCtrl-Warmest
 "FanEIR_fPLR" = "Variable Speed Drive FPLR"   $ IP Tech: VAVCtrl-VSD-AnyHP
 "Fan_Control" = VSD   $ IP Tech: VAVCtrl-VSD-AnyHP
 "Motor_Horsepower" = AnyHP   $ IP Tech: VAVCtrl-VSD-AnyHP
 "AltAdjFactor" = 1.007532   $ Sizing
 "CAssFlo_L_Break_CZn" = 312.1653   $ Sizing
 "CAssFlo_L_Conf_CZn" = 367.3805   $ Sizing
 "CAssFlo_L_CopyRm_CZn" = 88.37569   $ Sizing
 "CAssFlo_L_Cordr_CZn" = 565.4379   $ Sizing
 "CAssFlo_L_Cordr_EZn" = 167.9035   $ Sizing
 "CAssFlo_L_Cordr_NZn" = 100.9485   $ Sizing
 "CAssFlo_L_Cordr_SZn" = 186.1124   $ Sizing
 "CAssFlo_L_Cordr_WZn" = 170.8969   $ Sizing
 "CAssFlo_L_LobWait_CZn" = 275.5261   $ Sizing
 "CAssFlo_L_MechElec_CZn" = 134.1697   $ Sizing
 "CAssFlo_L_OfficeOpn_CZn" = 1354.332   $ Sizing
 "CAssFlo_L_OfficeOpn_EZn" = 1493.705   $ Sizing
 "CAssFlo_L_OfficeOpn_NZn" = 625.3442   $ Sizing
 "CAssFlo_L_OfficeOpn_SZn" = 1565.548   $ Sizing
 "CAssFlo_L_OfficeOpn_WZn" = 1478.578   $ Sizing
 "CAssFlo_L_OfficeSm_CZn" = 171.506   $ Sizing
 "CAssFlo_L_OfficeSm_EZn" = 1069.646   $ Sizing
 "CAssFlo_L_OfficeSm_NZn" = 374.5721   $ Sizing
 "CAssFlo_L_OfficeSm_SZn" = 1156.019   $ Sizing
 "CAssFlo_L_OfficeSm_WZn" = 1056.436   $ Sizing
 "CAssFlo_L_Restrm_CZn" = 211.8611   $ Sizing
 "CAssFlo_L_StorSm_CZn" = 334.0894   $ Sizing
 "CAssFlo_M_Break_CZn" = 333.3256   $ Sizing
 "CAssFlo_M_Conf_CZn" = 397.82   $ Sizing
 "CAssFlo_M_CopyRm_CZn" = 94.42871   $ Sizing
 "CAssFlo_M_Cordr_CZn" = 565.4379   $ Sizing
 "CAssFlo_M_Cordr_EZn" = 212.7832   $ Sizing
 "CAssFlo_M_Cordr_NZn" = 94.24052   $ Sizing
 "CAssFlo_M_Cordr_SZn" = 225.8896   $ Sizing
 "CAssFlo_M_Cordr_WZn" = 205.6642   $ Sizing
 "CAssFlo_M_LobWait_CZn" = 314.68   $ Sizing
 "CAssFlo_M_MechElec_CZn" = 134.1697   $ Sizing
 "CAssFlo_M_OfficeOpn_CZn" = 1502.638   $ Sizing
 "CAssFlo_M_OfficeOpn_EZn" = 1631.003   $ Sizing
 "CAssFlo_M_OfficeOpn_NZn" = 753.3024   $ Sizing
 "CAssFlo_M_OfficeOpn_SZn" = 1724.456   $ Sizing
 "CAssFlo_M_OfficeOpn_WZn" = 1587.367   $ Sizing
 "CAssFlo_M_OfficeSm_CZn" = 203.7167   $ Sizing
 "CAssFlo_M_OfficeSm_EZn" = 1171.326   $ Sizing
 "CAssFlo_M_OfficeSm_NZn" = 468.767   $ Sizing
 "CAssFlo_M_OfficeSm_SZn" = 1269.741   $ Sizing
 "CAssFlo_M_OfficeSm_WZn" = 1141.497   $ Sizing
 "CAssFlo_M_Restrm_CZn" = 211.8611   $ Sizing
 "CAssFlo_M_StorSm_CZn" = 334.0894   $ Sizing
 "CAssFlo_T_Break_CZn" = 320.7957   $ Sizing
 "CAssFlo_T_Conf_CZn" = 379.6788   $ Sizing
 "CAssFlo_T_CopyRm_CZn" = 88.57903   $ Sizing
 "CAssFlo_T_Cordr_CZn" = 565.4379   $ Sizing
 "CAssFlo_T_Cordr_EZn" = 187.628   $ Sizing
 "CAssFlo_T_Cordr_NZn" = 94.24052   $ Sizing
 "CAssFlo_T_Cordr_SZn" = 208.932   $ Sizing
 "CAssFlo_T_Cordr_WZn" = 187.2575   $ Sizing
 "CAssFlo_T_LobWait_CZn" = 275.5261   $ Sizing
 "CAssFlo_T_MechElec_CZn" = 134.1697   $ Sizing
 "CAssFlo_T_OfficeOpn_CZn" = 1427.411   $ Sizing
 "CAssFlo_T_OfficeOpn_EZn" = 1504.813   $ Sizing
 "CAssFlo_T_OfficeOpn_NZn" = 718.7554   $ Sizing
 "CAssFlo_T_OfficeOpn_SZn" = 1630.964   $ Sizing
 "CAssFlo_T_OfficeOpn_WZn" = 1481.013   $ Sizing
 "CAssFlo_T_OfficeSm_CZn" = 191.5088   $ Sizing
 "CAssFlo_T_OfficeSm_EZn" = 1099.59   $ Sizing
 "CAssFlo_T_OfficeSm_NZn" = 446.9483   $ Sizing
 "CAssFlo_T_OfficeSm_SZn" = 1219.007   $ Sizing
 "CAssFlo_T_OfficeSm_WZn" = 1090.353   $ Sizing
 "CAssFlo_T_Restrm_CZn" = 211.8611   $ Sizing
 "CAssFlo_T_StorSm_CZn" = 334.0894   $ Sizing
 "CHRtFlo_L_Break_CZn" = 216.6311   $ Sizing
 "CHRtFlo_L_Conf_CZn" = 281.7439   $ Sizing
 "CHRtFlo_L_CopyRm_CZn" = 88.37569   $ Sizing
 "CHRtFlo_L_Cordr_CZn" = 212.0392   $ Sizing
 "CHRtFlo_L_Cordr_EZn" = 91.16351   $ Sizing
 "CHRtFlo_L_Cordr_NZn" = 100.9485   $ Sizing
 "CHRtFlo_L_Cordr_SZn" = 58.72585   $ Sizing
 "CHRtFlo_L_Cordr_WZn" = 89.42049   $ Sizing
 "CHRtFlo_L_LobWait_CZn" = 223.8649   $ Sizing
 "CHRtFlo_L_MechElec_CZn" = 50.31363   $ Sizing
 "CHRtFlo_L_OfficeOpn_CZn" = 413.8266   $ Sizing
 "CHRtFlo_L_OfficeOpn_EZn" = 448.1114   $ Sizing
 "CHRtFlo_L_OfficeOpn_NZn" = 347.8279   $ Sizing
 "CHRtFlo_L_OfficeOpn_SZn" = 469.6644   $ Sizing
 "CHRtFlo_L_OfficeOpn_WZn" = 443.5733   $ Sizing
 "CHRtFlo_L_OfficeSm_CZn" = 53.97937   $ Sizing
 "CHRtFlo_L_OfficeSm_EZn" = 338.2262   $ Sizing
 "CHRtFlo_L_OfficeSm_NZn" = 360.8943   $ Sizing
 "CHRtFlo_L_OfficeSm_SZn" = 346.8058   $ Sizing
 "CHRtFlo_L_OfficeSm_WZn" = 328.9979   $ Sizing
 "CHRtFlo_L_Restrm_CZn" = 63.55833   $ Sizing
 "CHRtFlo_L_StorSm_CZn" = 125.2835   $ Sizing
 "CHRtFlo_M_Break_CZn" = 216.6311   $ Sizing
 "CHRtFlo_M_Conf_CZn" = 281.7439   $ Sizing
 "CHRtFlo_M_CopyRm_CZn" = 88.37569   $ Sizing
 "CHRtFlo_M_Cordr_CZn" = 212.0392   $ Sizing
 "CHRtFlo_M_Cordr_EZn" = 82.18114   $ Sizing
 "CHRtFlo_M_Cordr_NZn" = 89.42806   $ Sizing
 "CHRtFlo_M_Cordr_SZn" = 67.76688   $ Sizing
 "CHRtFlo_M_Cordr_WZn" = 78.70922   $ Sizing
 "CHRtFlo_M_LobWait_CZn" = 223.8649   $ Sizing
 "CHRtFlo_M_MechElec_CZn" = 50.31363   $ Sizing
 "CHRtFlo_M_OfficeOpn_CZn" = 450.7915   $ Sizing
 "CHRtFlo_M_OfficeOpn_EZn" = 489.3011   $ Sizing
 "CHRtFlo_M_OfficeOpn_NZn" = 292.0698   $ Sizing
 "CHRtFlo_M_OfficeOpn_SZn" = 517.337   $ Sizing
 "CHRtFlo_M_OfficeOpn_WZn" = 476.21   $ Sizing
 "CHRtFlo_M_OfficeSm_CZn" = 61.11501   $ Sizing
 "CHRtFlo_M_OfficeSm_EZn" = 351.3979   $ Sizing
 "CHRtFlo_M_OfficeSm_NZn" = 310.4582   $ Sizing
 "CHRtFlo_M_OfficeSm_SZn" = 380.9223   $ Sizing
 "CHRtFlo_M_OfficeSm_WZn" = 342.4492   $ Sizing
 "CHRtFlo_M_Restrm_CZn" = 63.55833   $ Sizing
 "CHRtFlo_M_StorSm_CZn" = 125.2835   $ Sizing
 "CHRtFlo_T_Break_CZn" = 216.6311   $ Sizing
 "CHRtFlo_T_Conf_CZn" = 281.7439   $ Sizing
 "CHRtFlo_T_CopyRm_CZn" = 88.37569   $ Sizing
 "CHRtFlo_T_Cordr_CZn" = 212.0392   $ Sizing
 "CHRtFlo_T_Cordr_EZn" = 72.04159   $ Sizing
 "CHRtFlo_T_Cordr_NZn" = 81.14705   $ Sizing
 "CHRtFlo_T_Cordr_SZn" = 62.67962   $ Sizing
 "CHRtFlo_T_Cordr_WZn" = 67.96156   $ Sizing
 "CHRtFlo_T_LobWait_CZn" = 223.8649   $ Sizing
 "CHRtFlo_T_MechElec_CZn" = 54.39825   $ Sizing
 "CHRtFlo_T_OfficeOpn_CZn" = 428.2232   $ Sizing
 "CHRtFlo_T_OfficeOpn_EZn" = 451.4438   $ Sizing
 "CHRtFlo_T_OfficeOpn_NZn" = 269.9669   $ Sizing
 "CHRtFlo_T_OfficeOpn_SZn" = 489.2891   $ Sizing
 "CHRtFlo_T_OfficeOpn_WZn" = 444.304   $ Sizing
 "CHRtFlo_T_OfficeSm_CZn" = 57.45265   $ Sizing
 "CHRtFlo_T_OfficeSm_EZn" = 329.8769   $ Sizing
 "CHRtFlo_T_OfficeSm_NZn" = 310.7619   $ Sizing
 "CHRtFlo_T_OfficeSm_SZn" = 365.7021   $ Sizing
 "CHRtFlo_T_OfficeSm_WZn" = 327.106   $ Sizing
 "CHRtFlo_T_Restrm_CZn" = 63.55833   $ Sizing
 "CHRtFlo_T_StorSm_CZn" = 125.2835   $ Sizing
 "CRtdFlo_Sys_L" = 9694.008   $ Sizing
 "CRtdFlo_Sys_M" = 87894.32   $ Sizing
 "CRtdFlo_Sys_T" = 10496.95   $ Sizing
 "CSupFlo_Sys_L" = 9694.008   $ Sizing
 "CSupFlo_Sys_M" = 87894.32   $ Sizing
 "CSupFlo_Sys_T" = 10496.95   $ Sizing
 "ClCap_Sys_L" = 331777.2   $ Sizing
 "ClCap_Sys_M" = 3008181   $ Sizing
 "ClCap_Sys_T" = 359257.9   $ Sizing
 "HRtEDB_L_Break_CZn" = 49.74601   $ Sizing
 "HRtEDB_L_Conf_CZn" = 49.74601   $ Sizing
 "HRtEDB_L_CopyRm_CZn" = 49.74601   $ Sizing
 "HRtEDB_L_Cordr_CZn" = 49.74601   $ Sizing
 "HRtEDB_L_Cordr_EZn" = 49.88556   $ Sizing
 "HRtEDB_L_Cordr_NZn" = 49.88556   $ Sizing
 "HRtEDB_L_Cordr_SZn" = 49.88556   $ Sizing
 "HRtEDB_L_Cordr_WZn" = 49.88556   $ Sizing
 "HRtEDB_L_LobWait_CZn" = 49.74601   $ Sizing
 "HRtEDB_L_MechElec_CZn" = 49.74601   $ Sizing
 "HRtEDB_L_OfficeOpn_CZn" = 49.74601   $ Sizing
 "HRtEDB_L_OfficeOpn_EZn" = 55.79304   $ Sizing
 "HRtEDB_L_OfficeOpn_NZn" = 55.79304   $ Sizing
 "HRtEDB_L_OfficeOpn_SZn" = 49.74601   $ Sizing
 "HRtEDB_L_OfficeOpn_WZn" = 49.74601   $ Sizing
 "HRtEDB_L_OfficeSm_CZn" = 49.74601   $ Sizing
 "HRtEDB_L_OfficeSm_EZn" = 49.74601   $ Sizing
 "HRtEDB_L_OfficeSm_NZn" = 49.74601   $ Sizing
 "HRtEDB_L_OfficeSm_SZn" = 49.88556   $ Sizing
 "HRtEDB_L_OfficeSm_WZn" = 49.74601   $ Sizing
 "HRtEDB_L_Restrm_CZn" = 49.74601   $ Sizing
 "HRtEDB_L_StorSm_CZn" = 49.74601   $ Sizing
 "HRtEDB_M_Break_CZn" = 50.2836   $ Sizing
 "HRtEDB_M_Conf_CZn" = 50.2836   $ Sizing
 "HRtEDB_M_CopyRm_CZn" = 50.2836   $ Sizing
 "HRtEDB_M_Cordr_CZn" = 50.2836   $ Sizing
 "HRtEDB_M_Cordr_EZn" = 50.40677   $ Sizing
 "HRtEDB_M_Cordr_NZn" = 50.40677   $ Sizing
 "HRtEDB_M_Cordr_SZn" = 50.2836   $ Sizing
 "HRtEDB_M_Cordr_WZn" = 50.40677   $ Sizing
 "HRtEDB_M_LobWait_CZn" = 50.2836   $ Sizing
 "HRtEDB_M_MechElec_CZn" = 50.2836   $ Sizing
 "HRtEDB_M_OfficeOpn_CZn" = 50.28359   $ Sizing
 "HRtEDB_M_OfficeOpn_EZn" = 50.2836   $ Sizing
 "HRtEDB_M_OfficeOpn_NZn" = 50.2836   $ Sizing
 "HRtEDB_M_OfficeOpn_SZn" = 50.2836   $ Sizing
 "HRtEDB_M_OfficeOpn_WZn" = 50.2836   $ Sizing
 "HRtEDB_M_OfficeSm_CZn" = 50.2836   $ Sizing
 "HRtEDB_M_OfficeSm_EZn" = 50.2836   $ Sizing
 "HRtEDB_M_OfficeSm_NZn" = 50.2836   $ Sizing
 "HRtEDB_M_OfficeSm_SZn" = 50.2836   $ Sizing
 "HRtEDB_M_OfficeSm_WZn" = 50.2836   $ Sizing
 "HRtEDB_M_Restrm_CZn" = 50.2836   $ Sizing
 "HRtEDB_M_StorSm_CZn" = 50.2836   $ Sizing
 "HRtEDB_T_Break_CZn" = 45.93685   $ Sizing
 "HRtEDB_T_Conf_CZn" = 45.93685   $ Sizing
 "HRtEDB_T_CopyRm_CZn" = 45.93685   $ Sizing
 "HRtEDB_T_Cordr_CZn" = 45.93685   $ Sizing
 "HRtEDB_T_Cordr_EZn" = 46.78639   $ Sizing
 "HRtEDB_T_Cordr_NZn" = 47.88519   $ Sizing
 "HRtEDB_T_Cordr_SZn" = 46.78639   $ Sizing
 "HRtEDB_T_Cordr_WZn" = 47.88519   $ Sizing
 "HRtEDB_T_LobWait_CZn" = 45.93685   $ Sizing
 "HRtEDB_T_MechElec_CZn" = 47.88519   $ Sizing
 "HRtEDB_T_OfficeOpn_CZn" = 45.93685   $ Sizing
 "HRtEDB_T_OfficeOpn_EZn" = 45.93685   $ Sizing
 "HRtEDB_T_OfficeOpn_NZn" = 45.93685   $ Sizing
 "HRtEDB_T_OfficeOpn_SZn" = 45.93685   $ Sizing
 "HRtEDB_T_OfficeOpn_WZn" = 45.93685   $ Sizing
 "HRtEDB_T_OfficeSm_CZn" = 45.93685   $ Sizing
 "HRtEDB_T_OfficeSm_EZn" = 45.93685   $ Sizing
 "HRtEDB_T_OfficeSm_NZn" = 46.78639   $ Sizing
 "HRtEDB_T_OfficeSm_SZn" = 45.93685   $ Sizing
 "HRtEDB_T_OfficeSm_WZn" = 45.93685   $ Sizing
 "HRtEDB_T_Restrm_CZn" = 45.93685   $ Sizing
 "HRtEDB_T_StorSm_CZn" = 45.93685   $ Sizing
 "HtCap_L_Break_CZn" = -10564.16   $ Sizing
 "HtCap_L_Conf_CZn" = -13739.43   $ Sizing
 "HtCap_L_CopyRm_CZn" = -4309.7   $ Sizing
 "HtCap_L_Cordr_CZn" = -10340.23   $ Sizing
 "HtCap_L_Cordr_EZn" = -4432.37   $ Sizing
 "HtCap_L_Cordr_NZn" = -4908.114   $ Sizing
 "HtCap_L_Cordr_SZn" = -2855.25   $ Sizing
 "HtCap_L_Cordr_WZn" = -4347.624   $ Sizing
 "HtCap_L_LobWait_CZn" = -10916.92   $ Sizing
 "HtCap_L_MechElec_CZn" = -2453.578   $ Sizing
 "HtCap_L_OfficeOpn_CZn" = -20180.53   $ Sizing
 "HtCap_L_OfficeOpn_EZn" = -18946.09   $ Sizing
 "HtCap_L_OfficeOpn_NZn" = -14706.12   $ Sizing
 "HtCap_L_OfficeOpn_SZn" = -22903.5   $ Sizing
 "HtCap_L_OfficeOpn_WZn" = -21631.15   $ Sizing
 "HtCap_L_OfficeSm_CZn" = -2632.34   $ Sizing
 "HtCap_L_OfficeSm_EZn" = -16493.83   $ Sizing
 "HtCap_L_OfficeSm_NZn" = -17599.25   $ Sizing
 "HtCap_L_OfficeSm_SZn" = -16861.7   $ Sizing
 "HtCap_L_OfficeSm_WZn" = -16043.8   $ Sizing
 "HtCap_L_Restrm_CZn" = -3099.465   $ Sizing
 "HtCap_L_StorSm_CZn" = -6109.534   $ Sizing
 "HtCap_M_Break_CZn" = -10439.06   $ Sizing
 "HtCap_M_Conf_CZn" = -13576.73   $ Sizing
 "HtCap_M_CopyRm_CZn" = -4258.665   $ Sizing
 "HtCap_M_Cordr_CZn" = -10217.79   $ Sizing
 "HtCap_M_Cordr_EZn" = -3949.683   $ Sizing
 "HtCap_M_Cordr_NZn" = -4297.976   $ Sizing
 "HtCap_M_Cordr_SZn" = -3265.563   $ Sizing
 "HtCap_M_Cordr_WZn" = -3782.82   $ Sizing
 "HtCap_M_LobWait_CZn" = -10787.64   $ Sizing
 "HtCap_M_MechElec_CZn" = -2424.523   $ Sizing
 "HtCap_M_OfficeOpn_CZn" = -21722.83   $ Sizing
 "HtCap_M_OfficeOpn_EZn" = -23578.53   $ Sizing
 "HtCap_M_OfficeOpn_NZn" = -14074.31   $ Sizing
 "HtCap_M_OfficeOpn_SZn" = -24929.53   $ Sizing
 "HtCap_M_OfficeOpn_WZn" = -22947.7   $ Sizing
 "HtCap_M_OfficeSm_CZn" = -2945.021   $ Sizing
 "HtCap_M_OfficeSm_EZn" = -16933.23   $ Sizing
 "HtCap_M_OfficeSm_NZn" = -14960.42   $ Sizing
 "HtCap_M_OfficeSm_SZn" = -18355.96   $ Sizing
 "HtCap_M_OfficeSm_WZn" = -16502.01   $ Sizing
 "HtCap_M_Restrm_CZn" = -3062.761   $ Sizing
 "HtCap_M_StorSm_CZn" = -6037.186   $ Sizing
 "HtCap_T_Break_CZn" = -11453.44   $ Sizing
 "HtCap_T_Conf_CZn" = -14896   $ Sizing
 "HtCap_T_CopyRm_CZn" = -4672.486   $ Sizing
 "HtCap_T_Cordr_CZn" = -11210.66   $ Sizing
 "HtCap_T_Cordr_EZn" = -3743.2   $ Sizing
 "HtCap_T_Cordr_NZn" = -4120.97   $ Sizing
 "HtCap_T_Cordr_SZn" = -3256.763   $ Sizing
 "HtCap_T_Cordr_WZn" = -3451.358   $ Sizing
 "HtCap_T_LobWait_CZn" = -11835.9   $ Sizing
 "HtCap_T_MechElec_CZn" = -2762.559   $ Sizing
 "HtCap_T_OfficeOpn_CZn" = -22640.47   $ Sizing
 "HtCap_T_OfficeOpn_EZn" = -23868.16   $ Sizing
 "HtCap_T_OfficeOpn_NZn" = -14273.34   $ Sizing
 "HtCap_T_OfficeOpn_SZn" = -25869.07   $ Sizing
 "HtCap_T_OfficeOpn_WZn" = -23490.67   $ Sizing
 "HtCap_T_OfficeSm_CZn" = -3037.563   $ Sizing
 "HtCap_T_OfficeSm_EZn" = -17440.83   $ Sizing
 "HtCap_T_OfficeSm_NZn" = -16146.84   $ Sizing
 "HtCap_T_OfficeSm_SZn" = -19334.93   $ Sizing
 "HtCap_T_OfficeSm_WZn" = -17294.33   $ Sizing
 "HtCap_T_Restrm_CZn" = -3360.375   $ Sizing
 "HtCap_T_StorSm_CZn" = -6623.829   $ Sizing
..

##include Templates\OfL_DX_MZ.inp
END ..
COMPUTE ..
STOP ..
