INPUT ..

##fileprefix C:\Users\jglasskatz\MASControl3\
##set1 IsSizing FALSE
##set1 CoolType DX
##set1 HeatType FURNACE
##set1 EU_HrRepVar 0
##set1 BldgVint 1985
##set1 BldgLoc CZ03

 ##set1 mBFMult 1   $ IP Tech: RefgChg-NRes-Std

PARAMETER
 "AltFactor" = 1.00025   $ IP Non-Tech
 "BF_fFlow" = SpltAC2SpHiSEER_BF_fFlow   $ Msr (Multi)TechID: MsrNResSplitAC-lt45-S17
 "BF_fT" = SpltAC2SpHiSEER_BF_fT   $ Msr (Multi)TechID: MsrNResSplitAC-lt45-S17
 "BldgEconoFlag" = 1   $ IP Non-Tech
 "Break_EWSF" = 1   $ IP Non-Tech
 "Break_LWSF" = 1.1   $ IP Non-Tech
 "CDD_DBHi10" = 74   $ IP Non-Tech
 "CDD_DBHi7" = 78   $ IP Non-Tech
 "CDD_DBHi8" = 73   $ IP Non-Tech
 "CDD_DBHi9" = 83   $ IP Non-Tech
 "CDD_DBRange10" = 25   $ IP Non-Tech
 "CDD_DBRange7" = 24   $ IP Non-Tech
 "CDD_DBRange8" = 10   $ IP Non-Tech
 "CDD_DBRange9" = 25   $ IP Non-Tech
 "CDD_Day10" = 15   $ IP Non-Tech
 "CDD_Day7" = 16   $ IP Non-Tech
 "CDD_Day8" = 20   $ IP Non-Tech
 "CDD_Day9" = 17   $ IP Non-Tech
 "CDD_HrHi10" = 16   $ IP Non-Tech
 "CDD_HrHi7" = 13   $ IP Non-Tech
 "CDD_HrHi8" = 17   $ IP Non-Tech
 "CDD_HrHi9" = 15   $ IP Non-Tech
 "CDD_HrLo10" = 8   $ IP Non-Tech
 "CDD_HrLo7" = 5   $ IP Non-Tech
 "CDD_HrLo8" = 7   $ IP Non-Tech
 "CDD_HrLo9" = 7   $ IP Non-Tech
 "CDD_WB10" = 60.13755417   $ IP Non-Tech
 "CDD_WB7" = 64.09266663   $ IP Non-Tech
 "CDD_WB8" = 62.55457306   $ IP Non-Tech
 "CDD_WB9" = 64.6887207   $ IP Non-Tech
 "CEIR_fPLR_Hot" = SpltAC2SpHiSEER_CEIR_fPLR_Hot   $ Msr (Multi)TechID: MsrNResSplitAC-lt45-S17
 "CEIR_fPLR_Mod" = SpltAC2SpHiSEER_CEIR_fPLR_Mod   $ Msr (Multi)TechID: MsrNResSplitAC-lt45-S17
 "CEIR_fPLR_Tem" = SpltAC2SpHiSEER_CEIR_fPLR_Tem   $ Msr (Multi)TechID: MsrNResSplitAC-lt45-S17
 "CLoss_fPLR_Hot" = SpltAC2SpHiSEER_CLoss_fPLR_Hot   $ Msr (Multi)TechID: MsrNResSplitAC-lt45-S17
 "CLoss_fPLR_Mod" = SpltAC2SpHiSEER_CLoss_fPLR_Mod   $ Msr (Multi)TechID: MsrNResSplitAC-lt45-S17
 "CLoss_fPLR_Tem" = SpltAC2SpHiSEER_CLoss_fPLR_Tem   $ Msr (Multi)TechID: MsrNResSplitAC-lt45-S17
 "COP47" = 0   $ Msr (Multi)TechID: MsrNResSplitAC-lt45-S17
 "CZ_Category" = Tem   $ IP Non-Tech
 "CapRange" = Any   $ Msr (Multi)TechID: MsrNResSplitAC-lt45-S17
 "CfmPerBtuh" = 0.03   $ Msr (Multi)TechID: MsrNResSplitAC-lt45-S17
 "ChwVintEconoFlag" = 1   $ IP Non-Tech
 "ClCap_fT" = SpltAC2SpHiSEER_ClCap_fT   $ Msr (Multi)TechID: MsrNResSplitAC-lt45-S17
 "ClSH_fT" = SpltAC2SpHiSEER_ClSH_fT   $ Msr (Multi)TechID: MsrNResSplitAC-lt45-S17
 "CoilBF" = 0.102   $ Msr (Multi)TechID: MsrNResSplitAC-lt45-S17
 "CondWPerBtuh" = 0   $ Msr (Multi)TechID: MsrNResSplitAC-lt45-S17
 "Conference_EWSF" = 1.1   $ IP Non-Tech
 "Conference_LWSF" = 1.4   $ IP Non-Tech
 "CoolSensCap" = 0.724   $ Msr (Multi)TechID: MsrNResSplitAC-lt45-S17
 "CoolSetT" = 45   $ IP Non-Tech
 "CoolType" = DX   $ IP Non-Tech
 "CoolingEIR" = 0.2225   $ Msr (Multi)TechID: MsrNResSplitAC-lt45-S17
 "CopyRoom_EWSF" = 1.65   $ IP Non-Tech
 "CopyRoom_LWSF" = 1.3   $ IP Non-Tech
 "CorridorStairway_EWSF" = 0.22   $ IP Non-Tech
 "CorridorStairway_LWSF" = 0.6   $ IP Non-Tech
 "CrnkEIR" = 0.002225   $ Msr (Multi)TechID: MsrNResSplitAC-lt45-S17
 "CrnkMaxT" = 50   $ Msr (Multi)TechID: MsrNResSplitAC-lt45-S17
 "DXType" = SplitSEER   $ Msr (Multi)TechID: MsrNResSplitAC-lt45-S17
 "DesCoolT" = 75   $ IP Non-Tech
 "DesHeatT" = 73   $ IP Non-Tech
 "EER" = 13.26   $ Msr (Multi)TechID: MsrNResSplitAC-lt45-S17
 "EIR_fT" = SpltAC2SpHiSEER_EIR_fT   $ Msr (Multi)TechID: MsrNResSplitAC-lt45-S17
 "EconoCtrl" = FIXED   $ Msr (Multi)TechID: MsrNResSplitAC-lt45-S17
 "EconoEnthLimit" = 28   $ IP Non-Tech
 "EconoTempLimit" = 70   $ IP Non-Tech
 "Elevation" = 6   $ IP Non-Tech
 "FanEirPlr" = TwoSpeedFan   $ Msr (Multi)TechID: MsrNResSplitAC-lt45-S17
 "FanWPerCfm" = 0.271   $ Msr (Multi)TechID: MsrNResSplitAC-lt45-S17
 "HDD_CloudAmt1" = 0   $ IP Non-Tech
 "HDD_DBHi1" = 51   $ IP Non-Tech
 "HDD_DBRange1" = 17   $ IP Non-Tech
 "HDD_Day1" = 15   $ IP Non-Tech
 "HDD_HrHi1" = 16   $ IP Non-Tech
 "HDD_HrLo1" = 9   $ IP Non-Tech
 "HDD_WB1" = 42.6   $ IP Non-Tech
 "HDD_WindSpd1" = 15   $ IP Non-Tech
 "HIR_fT" = 0   $ Msr (Multi)TechID: MsrNResSplitAC-lt45-S17
 "HSPF" = 0   $ Msr (Multi)TechID: MsrNResSplitAC-lt45-S17
 "HeatSrc" = FURNACE   $ IP Non-Tech
 "HeatSrcTU" = HEAT-PUMP   $ IP Non-Tech
 "HeatType" = GasFurn   $ IP Non-Tech
 "HeatTypeTU" = HEAT-PUMP   $ IP Non-Tech
 "HtCap_fT" = 0   $ Msr (Multi)TechID: MsrNResSplitAC-lt45-S17
 "HtCoolCapRatio" = 0   $ Msr (Multi)TechID: MsrNResSplitAC-lt45-S17
 "HtgEIR" = 0   $ Msr (Multi)TechID: MsrNResSplitAC-lt45-S17
 "IndoorFanMode" = CONTINUOUS   $ IP Non-Tech
 "KT_TransferAir" = No   $ IP Non-Tech
 "Latitude" = 37.7   $ IP Non-Tech
 "LobbyWaiting_EWSF" = 0.525   $ IP Non-Tech
 "LobbyWaiting_LWSF" = 1.3   $ IP Non-Tech
 "Longitude" = 122.2   $ IP Non-Tech
 "LowSpdCapRatio" = 0.686   $ Msr (Multi)TechID: MsrNResSplitAC-lt45-S17
 "LowSpdCfmRatio" = 0.739   $ Msr (Multi)TechID: MsrNResSplitAC-lt45-S17
 "MZFanMechEff" = 0.58   $ IP Non-Tech
 "MZHasRetFan" = FALSE   $ IP Non-Tech
 "MZ_RFanWPerCfm" = 0.37   $ IP Non-Tech
 "MZ_SFanWPerCfm" = 0.71   $ IP Non-Tech
 "MZ_SupFanStatic" = 2.25   $ IP Non-Tech
 "MaxOAFrac" = 1   $ Msr (Multi)TechID: MsrNResSplitAC-lt45-S17
 "MaxSupT_MZ" = 100   $ IP Non-Tech
 "MaxSupT_SZ" = 100   $ IP Non-Tech
 "MaxSupT_TU" = 90   $ IP Non-Tech
 "MechElecRoom_EWSF" = 0.22   $ IP Non-Tech
 "MechElecRoom_LWSF" = 0.7   $ IP Non-Tech
 "MinCfmPerSF" = 0.4   $ IP Non-Tech
 "MinSupT" = 55   $ IP Non-Tech
 "NumStages" = 2   $ Msr (Multi)TechID: MsrNResSplitAC-lt45-S17
 "OccCoolT" = 76   $ IP Non-Tech
 "OccHeatT" = 72   $ IP Non-Tech
 "OfficeOpen_EWSF" = 1.65   $ IP Non-Tech
 "OfficeOpen_LWSF" = 1.2   $ IP Non-Tech
 "OfficeSmall_EWSF" = 1.65   $ IP Non-Tech
 "OfficeSmall_LWSF" = 1.3   $ IP Non-Tech
 "PkgDxVintEconoFlag" = 0   $ IP Non-Tech
 "Restroom_EWSF" = 0.22   $ IP Non-Tech
 "Restroom_LWSF" = 0.6   $ IP Non-Tech
 "SEER" = 17   $ Msr (Multi)TechID: MsrNResSplitAC-lt45-S17
 "SZFanMechEff" = 0.58   $ IP Non-Tech
 "SZHasRetFan" = FALSE   $ IP Non-Tech
 "SZ_Is_2Spd" = FALSE   $ IP Non-Tech
 "SZ_SFanWPerCfm" = 0.46   $ IP Non-Tech
 "SZ_SupFanStatic" = 0.75   $ IP Non-Tech
 "Sector" = Any   $ Msr (Multi)TechID: MsrNResSplitAC-lt45-S17
 "StorageSmlCond_EWSF" = 0.22   $ IP Non-Tech
 "StorageSmlCond_LWSF" = 0.6   $ IP Non-Tech
 "SubType" = AC   $ Msr (Multi)TechID: MsrNResSplitAC-lt45-S17
 "T24GlzTbl" = CZTbl   $ IP Non-Tech
 "TermUnitFanMechEff" = 1   $ IP Non-Tech
 "TermUnitFanMode" = INTERMITTENT   $ IP Non-Tech
 "TotCoolCap" = 58805   $ Msr (Multi)TechID: MsrNResSplitAC-lt45-S17
 "TwrSetpt" = 80   $ IP Non-Tech
 "UnocCoolT" = 86   $ IP Non-Tech
 "UnocHeatT" = 62   $ IP Non-Tech
 "UseEconoVintApplic" = FALSE   $ Msr (Multi)TechID: MsrNResSplitAC-lt45-S17
 "WlhpVintEconoFlag" = 0   $ IP Non-Tech
 "DuctDT" = 1   $ IP Tech: ComDuctInsul-1
 "DuctAirLoss" = 0   $ IP Tech: ComDuctLeak-0
 "DuctLossOAFrac" = 0   $ IP Tech: ComDuctLeak-0
 "ComRoofInsCalc" = FromUo   $ IP Tech: ComRoofIns-Hvy-0.06
 "ComRoofInsR" = -999   $ IP Tech: ComRoofIns-Hvy-0.06
 "ComRoofUo" = 0.06   $ IP Tech: ComRoofIns-Hvy-0.06
 "ComEWInsCalc" = FromUo   $ IP Tech: ComWallIns-MFrm-0.14
 "ComEWInsR" = -999   $ IP Tech: ComWallIns-MFrm-0.14
 "ComEWUo" = 0.14   $ IP Tech: ComWallIns-MFrm-0.14
 "ComN_SHGC" = 0.82   $ IP Tech: NResWin-ComN-1.23-0.82
 "ComN_UFactor" = 1.23   $ IP Tech: NResWin-ComN-1.23-0.82
 "ComN_VisTrans" = 0.9   $ IP Tech: NResWin-ComN-1.23-0.82
 "ComN_WinCode" = G1000   $ IP Tech: NResWin-ComN-1.23-0.82
 "ComN_WinFrmFrac" = 0.17   $ IP Tech: NResWin-ComN-1.23-0.82
 "ComN_WinFrmU" = 1   $ IP Tech: NResWin-ComN-1.23-0.82
 "ComO_SHGC" = 0.82   $ IP Tech: NResWin-ComO-1.23-0.82
 "ComO_UFactor" = 1.23   $ IP Tech: NResWin-ComO-1.23-0.82
 "ComO_VisTrans" = 0.9   $ IP Tech: NResWin-ComO-1.23-0.82
 "ComO_WinCode" = G1000   $ IP Tech: NResWin-ComO-1.23-0.82
 "ComO_WinFrmFrac" = 0.17   $ IP Tech: NResWin-ComO-1.23-0.82
 "ComO_WinFrmU" = 1   $ IP Tech: NResWin-ComO-1.23-0.82
 "LtgMsrApplic" = ALL   $ IP Tech: NonResLtgRefPre
 "LtgSav_CFL" = 0   $ IP Tech: NonResLtgRefPre
 "LtgSav_EX" = 0   $ IP Tech: NonResLtgRefPre
 "LtgSav_HB" = 0   $ IP Tech: NonResLtgRefPre
 "LtgSav_LF" = 0   $ IP Tech: NonResLtgRefPre
 "LtgSav_SP" = 0   $ IP Tech: NonResLtgRefPre
 "CEIR_fPLR" = PSZ65to135_CEIR_fPLR   $ IP Tech: PkgAC1SpH-65to135-E10
 "CLoss_fPLR" = PSZ65to135_CLoss_fPLR   $ IP Tech: PkgAC1SpH-65to135-E10
 "COP" = -1   $ IP Tech: PkgAC1SpH-65to135-E10
 "HtgFuel" = Gas   $ IP Tech: PkgAC1SpH-65to135-E10
 "IEER" = 11.87   $ IP Tech: PkgAC1SpH-65to135-E10
 "NominalCap" = 15   $ IP Tech: PkgAC1SpH-65to135-E10
 "RatedEER" = 10   $ IP Tech: PkgAC1SpH-65to135-E10
 "RatedSupMtrClass" = HiEff   $ IP Tech: PkgAC1SpH-65to135-E10
 "SizeRange" = 65to135   $ IP Tech: PkgAC1SpH-65to135-E10
 "SupMotEff" = 0.84   $ IP Tech: PkgAC1SpH-65to135-E10
 "Tier" = 0   $ IP Tech: PkgAC1SpH-65to135-E10
 "FanPwrMult" = 1   $ IP Tech: PkgFurn-0.80AFUE
 "FurnAFUE" = 0.8   $ IP Tech: PkgFurn-0.80AFUE
 "FurnEt" = 0.82   $ IP Tech: PkgFurn-0.80AFUE
 "FurnaceAuxKW" = 0.1   $ IP Tech: PkgFurn-0.80AFUE
 "HIR_fPLR" = Furnace-HIR-fPLR   $ IP Tech: PkgFurn-0.80AFUE
 "VSM" = FALSE   $ IP Tech: PkgFurn-0.80AFUE
 "BFMult" = 1   $ IP Tech: RefgChg-NRes-Std
 "CoolEirMult" = 1   $ IP Tech: RefgChg-NRes-Std
 "SensCoolCapMult" = 1   $ IP Tech: RefgChg-NRes-Std
 "TotCoolCapMult" = 1   $ IP Tech: RefgChg-NRes-Std
 "AltAdjFactor" = 1.000254   $ Sizing
 "CAssFlo_L_Break_CZn" = 367.1776   $ Sizing
 "CAssFlo_L_Conf_CZn" = 442.5761   $ Sizing
 "CAssFlo_L_CopyRm_CZn" = 115.8553   $ Sizing
 "CAssFlo_L_Cordr_CZn" = 561.3534   $ Sizing
 "CAssFlo_L_Cordr_EZn" = 302.4517   $ Sizing
 "CAssFlo_L_Cordr_NZn" = 119.398   $ Sizing
 "CAssFlo_L_Cordr_SZn" = 333.0801   $ Sizing
 "CAssFlo_L_Cordr_WZn" = 303.3912   $ Sizing
 "CAssFlo_L_LobWait_CZn" = 379.6655   $ Sizing
 "CAssFlo_L_MechElec_CZn" = 133.2005   $ Sizing
 "CAssFlo_L_OfficeOpn_CZn" = 1776.765   $ Sizing
 "CAssFlo_L_OfficeOpn_EZn" = 2392.374   $ Sizing
 "CAssFlo_L_OfficeOpn_NZn" = 994.8742   $ Sizing
 "CAssFlo_L_OfficeOpn_SZn" = 2519.67   $ Sizing
 "CAssFlo_L_OfficeOpn_WZn" = 2422.932   $ Sizing
 "CAssFlo_L_OfficeSm_CZn" = 240.2592   $ Sizing
 "CAssFlo_L_OfficeSm_EZn" = 1756.388   $ Sizing
 "CAssFlo_L_OfficeSm_NZn" = 638.957   $ Sizing
 "CAssFlo_L_OfficeSm_SZn" = 1894.689   $ Sizing
 "CAssFlo_L_OfficeSm_WZn" = 1778.732   $ Sizing
 "CAssFlo_L_Restrm_CZn" = 210.3307   $ Sizing
 "CAssFlo_L_StorSm_CZn" = 365.2268   $ Sizing
 "CAssFlo_M_Break_CZn" = 402.1655   $ Sizing
 "CAssFlo_M_Conf_CZn" = 504.7828   $ Sizing
 "CAssFlo_M_CopyRm_CZn" = 144.1793   $ Sizing
 "CAssFlo_M_Cordr_CZn" = 869.4495   $ Sizing
 "CAssFlo_M_Cordr_EZn" = 351.2446   $ Sizing
 "CAssFlo_M_Cordr_NZn" = 137.7119   $ Sizing
 "CAssFlo_M_Cordr_SZn" = 389.9162   $ Sizing
 "CAssFlo_M_Cordr_WZn" = 342.1426   $ Sizing
 "CAssFlo_M_LobWait_CZn" = 503.3628   $ Sizing
 "CAssFlo_M_MechElec_CZn" = 156.2458   $ Sizing
 "CAssFlo_M_OfficeOpn_CZn" = 2083.469   $ Sizing
 "CAssFlo_M_OfficeOpn_EZn" = 2539.911   $ Sizing
 "CAssFlo_M_OfficeOpn_NZn" = 1121.495   $ Sizing
 "CAssFlo_M_OfficeOpn_SZn" = 2785.054   $ Sizing
 "CAssFlo_M_OfficeOpn_WZn" = 2535.582   $ Sizing
 "CAssFlo_M_OfficeSm_CZn" = 295.295   $ Sizing
 "CAssFlo_M_OfficeSm_EZn" = 1860.805   $ Sizing
 "CAssFlo_M_OfficeSm_NZn" = 722.6618   $ Sizing
 "CAssFlo_M_OfficeSm_SZn" = 2080.323   $ Sizing
 "CAssFlo_M_OfficeSm_WZn" = 1884.523   $ Sizing
 "CAssFlo_M_Restrm_CZn" = 210.3307   $ Sizing
 "CAssFlo_M_StorSm_CZn" = 390.5367   $ Sizing
 "CAssFlo_T_Break_CZn" = 379.5424   $ Sizing
 "CAssFlo_T_Conf_CZn" = 462.1488   $ Sizing
 "CAssFlo_T_CopyRm_CZn" = 132.2591   $ Sizing
 "CAssFlo_T_Cordr_CZn" = 756.1436   $ Sizing
 "CAssFlo_T_Cordr_EZn" = 309.4859   $ Sizing
 "CAssFlo_T_Cordr_NZn" = 122.2841   $ Sizing
 "CAssFlo_T_Cordr_SZn" = 350.6842   $ Sizing
 "CAssFlo_T_Cordr_WZn" = 305.7185   $ Sizing
 "CAssFlo_T_LobWait_CZn" = 443.1752   $ Sizing
 "CAssFlo_T_MechElec_CZn" = 173.9545   $ Sizing
 "CAssFlo_T_OfficeOpn_CZn" = 1884.666   $ Sizing
 "CAssFlo_T_OfficeOpn_EZn" = 2308.597   $ Sizing
 "CAssFlo_T_OfficeOpn_NZn" = 1043.486   $ Sizing
 "CAssFlo_T_OfficeOpn_SZn" = 2578.662   $ Sizing
 "CAssFlo_T_OfficeOpn_WZn" = 2314.802   $ Sizing
 "CAssFlo_T_OfficeSm_CZn" = 272.1205   $ Sizing
 "CAssFlo_T_OfficeSm_EZn" = 1743.242   $ Sizing
 "CAssFlo_T_OfficeSm_NZn" = 685.4647   $ Sizing
 "CAssFlo_T_OfficeSm_SZn" = 1974.299   $ Sizing
 "CAssFlo_T_OfficeSm_WZn" = 1769.8   $ Sizing
 "CAssFlo_T_Restrm_CZn" = 210.3307   $ Sizing
 "CAssFlo_T_StorSm_CZn" = 331.6761   $ Sizing
 "CHRtFlo_Sys_L_Break_C" = 367.1776   $ Sizing
 "CHRtFlo_Sys_L_Conf_C" = 442.5761   $ Sizing
 "CHRtFlo_Sys_L_CopyRm_C" = 115.8553   $ Sizing
 "CHRtFlo_Sys_L_Cordr_C" = 561.3534   $ Sizing
 "CHRtFlo_Sys_L_Cordr_E" = 302.4517   $ Sizing
 "CHRtFlo_Sys_L_Cordr_N" = 119.398   $ Sizing
 "CHRtFlo_Sys_L_Cordr_S" = 333.0801   $ Sizing
 "CHRtFlo_Sys_L_Cordr_W" = 303.3912   $ Sizing
 "CHRtFlo_Sys_L_LobWait_C" = 379.6655   $ Sizing
 "CHRtFlo_Sys_L_MechElec_C" = 133.2005   $ Sizing
 "CHRtFlo_Sys_L_OfficeOpn_C" = 1776.765   $ Sizing
 "CHRtFlo_Sys_L_OfficeOpn_E" = 2392.374   $ Sizing
 "CHRtFlo_Sys_L_OfficeOpn_N" = 994.8742   $ Sizing
 "CHRtFlo_Sys_L_OfficeOpn_S" = 2519.67   $ Sizing
 "CHRtFlo_Sys_L_OfficeOpn_W" = 2422.932   $ Sizing
 "CHRtFlo_Sys_L_OfficeSm_C" = 240.2592   $ Sizing
 "CHRtFlo_Sys_L_OfficeSm_E" = 1756.388   $ Sizing
 "CHRtFlo_Sys_L_OfficeSm_N" = 638.957   $ Sizing
 "CHRtFlo_Sys_L_OfficeSm_S" = 1894.689   $ Sizing
 "CHRtFlo_Sys_L_OfficeSm_W" = 1778.732   $ Sizing
 "CHRtFlo_Sys_L_Restrm_C" = 210.3307   $ Sizing
 "CHRtFlo_Sys_L_StorSm_C" = 365.2268   $ Sizing
 "CHRtFlo_Sys_M_Break_C" = 3217.324   $ Sizing
 "CHRtFlo_Sys_M_Conf_C" = 4038.262   $ Sizing
 "CHRtFlo_Sys_M_CopyRm_C" = 1153.434   $ Sizing
 "CHRtFlo_Sys_M_Cordr_C" = 6955.596   $ Sizing
 "CHRtFlo_Sys_M_Cordr_E" = 2809.957   $ Sizing
 "CHRtFlo_Sys_M_Cordr_N" = 1101.695   $ Sizing
 "CHRtFlo_Sys_M_Cordr_S" = 3119.33   $ Sizing
 "CHRtFlo_Sys_M_Cordr_W" = 2737.141   $ Sizing
 "CHRtFlo_Sys_M_LobWait_C" = 4026.902   $ Sizing
 "CHRtFlo_Sys_M_MechElec_C" = 1249.966   $ Sizing
 "CHRtFlo_Sys_M_OfficeOpn_C" = 16667.76   $ Sizing
 "CHRtFlo_Sys_M_OfficeOpn_E" = 20319.29   $ Sizing
 "CHRtFlo_Sys_M_OfficeOpn_N" = 8971.959   $ Sizing
 "CHRtFlo_Sys_M_OfficeOpn_S" = 22280.43   $ Sizing
 "CHRtFlo_Sys_M_OfficeOpn_W" = 20284.65   $ Sizing
 "CHRtFlo_Sys_M_OfficeSm_C" = 2362.36   $ Sizing
 "CHRtFlo_Sys_M_OfficeSm_E" = 14886.44   $ Sizing
 "CHRtFlo_Sys_M_OfficeSm_N" = 5781.294   $ Sizing
 "CHRtFlo_Sys_M_OfficeSm_S" = 16642.59   $ Sizing
 "CHRtFlo_Sys_M_OfficeSm_W" = 15076.18   $ Sizing
 "CHRtFlo_Sys_M_Restrm_C" = 1682.646   $ Sizing
 "CHRtFlo_Sys_M_StorSm_C" = 3124.293   $ Sizing
 "CHRtFlo_Sys_T_Break_C" = 379.5424   $ Sizing
 "CHRtFlo_Sys_T_Conf_C" = 462.1488   $ Sizing
 "CHRtFlo_Sys_T_CopyRm_C" = 132.2591   $ Sizing
 "CHRtFlo_Sys_T_Cordr_C" = 756.1436   $ Sizing
 "CHRtFlo_Sys_T_Cordr_E" = 309.4859   $ Sizing
 "CHRtFlo_Sys_T_Cordr_N" = 122.2841   $ Sizing
 "CHRtFlo_Sys_T_Cordr_S" = 350.6842   $ Sizing
 "CHRtFlo_Sys_T_Cordr_W" = 305.7185   $ Sizing
 "CHRtFlo_Sys_T_LobWait_C" = 443.1752   $ Sizing
 "CHRtFlo_Sys_T_MechElec_C" = 173.9545   $ Sizing
 "CHRtFlo_Sys_T_OfficeOpn_C" = 1884.666   $ Sizing
 "CHRtFlo_Sys_T_OfficeOpn_E" = 2308.597   $ Sizing
 "CHRtFlo_Sys_T_OfficeOpn_N" = 1043.486   $ Sizing
 "CHRtFlo_Sys_T_OfficeOpn_S" = 2578.662   $ Sizing
 "CHRtFlo_Sys_T_OfficeOpn_W" = 2314.802   $ Sizing
 "CHRtFlo_Sys_T_OfficeSm_C" = 272.1205   $ Sizing
 "CHRtFlo_Sys_T_OfficeSm_E" = 1743.242   $ Sizing
 "CHRtFlo_Sys_T_OfficeSm_N" = 685.4647   $ Sizing
 "CHRtFlo_Sys_T_OfficeSm_S" = 1974.299   $ Sizing
 "CHRtFlo_Sys_T_OfficeSm_W" = 1769.8   $ Sizing
 "CHRtFlo_Sys_T_Restrm_C" = 210.3307   $ Sizing
 "CHRtFlo_Sys_T_StorSm_C" = 331.6761   $ Sizing
 "CRtdFlo_Sys_L_Break_C" = 367.1776   $ Sizing
 "CRtdFlo_Sys_L_Conf_C" = 442.5761   $ Sizing
 "CRtdFlo_Sys_L_CopyRm_C" = 115.8553   $ Sizing
 "CRtdFlo_Sys_L_Cordr_C" = 561.3534   $ Sizing
 "CRtdFlo_Sys_L_Cordr_E" = 302.4517   $ Sizing
 "CRtdFlo_Sys_L_Cordr_N" = 119.398   $ Sizing
 "CRtdFlo_Sys_L_Cordr_S" = 333.0801   $ Sizing
 "CRtdFlo_Sys_L_Cordr_W" = 303.3912   $ Sizing
 "CRtdFlo_Sys_L_LobWait_C" = 379.6655   $ Sizing
 "CRtdFlo_Sys_L_MechElec_C" = 133.2005   $ Sizing
 "CRtdFlo_Sys_L_OfficeOpn_C" = 1776.765   $ Sizing
 "CRtdFlo_Sys_L_OfficeOpn_E" = 2392.374   $ Sizing
 "CRtdFlo_Sys_L_OfficeOpn_N" = 994.8742   $ Sizing
 "CRtdFlo_Sys_L_OfficeOpn_S" = 2519.67   $ Sizing
 "CRtdFlo_Sys_L_OfficeOpn_W" = 2422.932   $ Sizing
 "CRtdFlo_Sys_L_OfficeSm_C" = 240.2592   $ Sizing
 "CRtdFlo_Sys_L_OfficeSm_E" = 1756.388   $ Sizing
 "CRtdFlo_Sys_L_OfficeSm_N" = 638.957   $ Sizing
 "CRtdFlo_Sys_L_OfficeSm_S" = 1894.689   $ Sizing
 "CRtdFlo_Sys_L_OfficeSm_W" = 1778.732   $ Sizing
 "CRtdFlo_Sys_L_Restrm_C" = 210.3307   $ Sizing
 "CRtdFlo_Sys_L_StorSm_C" = 365.2268   $ Sizing
 "CRtdFlo_Sys_M_Break_C" = 3217.324   $ Sizing
 "CRtdFlo_Sys_M_Conf_C" = 4038.262   $ Sizing
 "CRtdFlo_Sys_M_CopyRm_C" = 1153.434   $ Sizing
 "CRtdFlo_Sys_M_Cordr_C" = 6955.596   $ Sizing
 "CRtdFlo_Sys_M_Cordr_E" = 2809.957   $ Sizing
 "CRtdFlo_Sys_M_Cordr_N" = 1101.695   $ Sizing
 "CRtdFlo_Sys_M_Cordr_S" = 3119.33   $ Sizing
 "CRtdFlo_Sys_M_Cordr_W" = 2737.141   $ Sizing
 "CRtdFlo_Sys_M_LobWait_C" = 4026.902   $ Sizing
 "CRtdFlo_Sys_M_MechElec_C" = 1249.966   $ Sizing
 "CRtdFlo_Sys_M_OfficeOpn_C" = 16667.76   $ Sizing
 "CRtdFlo_Sys_M_OfficeOpn_E" = 20319.29   $ Sizing
 "CRtdFlo_Sys_M_OfficeOpn_N" = 8971.959   $ Sizing
 "CRtdFlo_Sys_M_OfficeOpn_S" = 22280.43   $ Sizing
 "CRtdFlo_Sys_M_OfficeOpn_W" = 20284.65   $ Sizing
 "CRtdFlo_Sys_M_OfficeSm_C" = 2362.36   $ Sizing
 "CRtdFlo_Sys_M_OfficeSm_E" = 14886.44   $ Sizing
 "CRtdFlo_Sys_M_OfficeSm_N" = 5781.294   $ Sizing
 "CRtdFlo_Sys_M_OfficeSm_S" = 16642.59   $ Sizing
 "CRtdFlo_Sys_M_OfficeSm_W" = 15076.18   $ Sizing
 "CRtdFlo_Sys_M_Restrm_C" = 1682.646   $ Sizing
 "CRtdFlo_Sys_M_StorSm_C" = 3124.293   $ Sizing
 "CRtdFlo_Sys_T_Break_C" = 379.5424   $ Sizing
 "CRtdFlo_Sys_T_Conf_C" = 462.1488   $ Sizing
 "CRtdFlo_Sys_T_CopyRm_C" = 132.2591   $ Sizing
 "CRtdFlo_Sys_T_Cordr_C" = 756.1436   $ Sizing
 "CRtdFlo_Sys_T_Cordr_E" = 309.4859   $ Sizing
 "CRtdFlo_Sys_T_Cordr_N" = 122.2841   $ Sizing
 "CRtdFlo_Sys_T_Cordr_S" = 350.6842   $ Sizing
 "CRtdFlo_Sys_T_Cordr_W" = 305.7185   $ Sizing
 "CRtdFlo_Sys_T_LobWait_C" = 443.1752   $ Sizing
 "CRtdFlo_Sys_T_MechElec_C" = 173.9545   $ Sizing
 "CRtdFlo_Sys_T_OfficeOpn_C" = 1884.666   $ Sizing
 "CRtdFlo_Sys_T_OfficeOpn_E" = 2308.597   $ Sizing
 "CRtdFlo_Sys_T_OfficeOpn_N" = 1043.486   $ Sizing
 "CRtdFlo_Sys_T_OfficeOpn_S" = 2578.662   $ Sizing
 "CRtdFlo_Sys_T_OfficeOpn_W" = 2314.802   $ Sizing
 "CRtdFlo_Sys_T_OfficeSm_C" = 272.1205   $ Sizing
 "CRtdFlo_Sys_T_OfficeSm_E" = 1743.242   $ Sizing
 "CRtdFlo_Sys_T_OfficeSm_N" = 685.4647   $ Sizing
 "CRtdFlo_Sys_T_OfficeSm_S" = 1974.299   $ Sizing
 "CRtdFlo_Sys_T_OfficeSm_W" = 1769.8   $ Sizing
 "CRtdFlo_Sys_T_Restrm_C" = 210.3307   $ Sizing
 "CRtdFlo_Sys_T_StorSm_C" = 331.6761   $ Sizing
 "CSupFlo_Sys_L_Break_C" = 367.1776   $ Sizing
 "CSupFlo_Sys_L_Conf_C" = 442.5761   $ Sizing
 "CSupFlo_Sys_L_CopyRm_C" = 115.8553   $ Sizing
 "CSupFlo_Sys_L_Cordr_C" = 561.3534   $ Sizing
 "CSupFlo_Sys_L_Cordr_E" = 302.4517   $ Sizing
 "CSupFlo_Sys_L_Cordr_N" = 119.398   $ Sizing
 "CSupFlo_Sys_L_Cordr_S" = 333.0801   $ Sizing
 "CSupFlo_Sys_L_Cordr_W" = 303.3912   $ Sizing
 "CSupFlo_Sys_L_LobWait_C" = 379.6655   $ Sizing
 "CSupFlo_Sys_L_MechElec_C" = 133.2005   $ Sizing
 "CSupFlo_Sys_L_OfficeOpn_C" = 1776.765   $ Sizing
 "CSupFlo_Sys_L_OfficeOpn_E" = 2392.374   $ Sizing
 "CSupFlo_Sys_L_OfficeOpn_N" = 994.8742   $ Sizing
 "CSupFlo_Sys_L_OfficeOpn_S" = 2519.67   $ Sizing
 "CSupFlo_Sys_L_OfficeOpn_W" = 2422.932   $ Sizing
 "CSupFlo_Sys_L_OfficeSm_C" = 240.2592   $ Sizing
 "CSupFlo_Sys_L_OfficeSm_E" = 1756.388   $ Sizing
 "CSupFlo_Sys_L_OfficeSm_N" = 638.957   $ Sizing
 "CSupFlo_Sys_L_OfficeSm_S" = 1894.689   $ Sizing
 "CSupFlo_Sys_L_OfficeSm_W" = 1778.732   $ Sizing
 "CSupFlo_Sys_L_Restrm_C" = 210.3307   $ Sizing
 "CSupFlo_Sys_L_StorSm_C" = 365.2268   $ Sizing
 "CSupFlo_Sys_M_Break_C" = 3217.324   $ Sizing
 "CSupFlo_Sys_M_Conf_C" = 4038.262   $ Sizing
 "CSupFlo_Sys_M_CopyRm_C" = 1153.434   $ Sizing
 "CSupFlo_Sys_M_Cordr_C" = 6955.596   $ Sizing
 "CSupFlo_Sys_M_Cordr_E" = 2809.957   $ Sizing
 "CSupFlo_Sys_M_Cordr_N" = 1101.695   $ Sizing
 "CSupFlo_Sys_M_Cordr_S" = 3119.33   $ Sizing
 "CSupFlo_Sys_M_Cordr_W" = 2737.141   $ Sizing
 "CSupFlo_Sys_M_LobWait_C" = 4026.902   $ Sizing
 "CSupFlo_Sys_M_MechElec_C" = 1249.966   $ Sizing
 "CSupFlo_Sys_M_OfficeOpn_C" = 16667.76   $ Sizing
 "CSupFlo_Sys_M_OfficeOpn_E" = 20319.29   $ Sizing
 "CSupFlo_Sys_M_OfficeOpn_N" = 8971.959   $ Sizing
 "CSupFlo_Sys_M_OfficeOpn_S" = 22280.43   $ Sizing
 "CSupFlo_Sys_M_OfficeOpn_W" = 20284.65   $ Sizing
 "CSupFlo_Sys_M_OfficeSm_C" = 2362.36   $ Sizing
 "CSupFlo_Sys_M_OfficeSm_E" = 14886.44   $ Sizing
 "CSupFlo_Sys_M_OfficeSm_N" = 5781.294   $ Sizing
 "CSupFlo_Sys_M_OfficeSm_S" = 16642.59   $ Sizing
 "CSupFlo_Sys_M_OfficeSm_W" = 15076.18   $ Sizing
 "CSupFlo_Sys_M_Restrm_C" = 1682.646   $ Sizing
 "CSupFlo_Sys_M_StorSm_C" = 3124.293   $ Sizing
 "CSupFlo_Sys_T_Break_C" = 379.5424   $ Sizing
 "CSupFlo_Sys_T_Conf_C" = 462.1488   $ Sizing
 "CSupFlo_Sys_T_CopyRm_C" = 132.2591   $ Sizing
 "CSupFlo_Sys_T_Cordr_C" = 756.1436   $ Sizing
 "CSupFlo_Sys_T_Cordr_E" = 309.4859   $ Sizing
 "CSupFlo_Sys_T_Cordr_N" = 122.2841   $ Sizing
 "CSupFlo_Sys_T_Cordr_S" = 350.6842   $ Sizing
 "CSupFlo_Sys_T_Cordr_W" = 305.7185   $ Sizing
 "CSupFlo_Sys_T_LobWait_C" = 443.1752   $ Sizing
 "CSupFlo_Sys_T_MechElec_C" = 173.9545   $ Sizing
 "CSupFlo_Sys_T_OfficeOpn_C" = 1884.666   $ Sizing
 "CSupFlo_Sys_T_OfficeOpn_E" = 2308.597   $ Sizing
 "CSupFlo_Sys_T_OfficeOpn_N" = 1043.486   $ Sizing
 "CSupFlo_Sys_T_OfficeOpn_S" = 2578.662   $ Sizing
 "CSupFlo_Sys_T_OfficeOpn_W" = 2314.802   $ Sizing
 "CSupFlo_Sys_T_OfficeSm_C" = 272.1205   $ Sizing
 "CSupFlo_Sys_T_OfficeSm_E" = 1743.242   $ Sizing
 "CSupFlo_Sys_T_OfficeSm_N" = 685.4647   $ Sizing
 "CSupFlo_Sys_T_OfficeSm_S" = 1974.299   $ Sizing
 "CSupFlo_Sys_T_OfficeSm_W" = 1769.8   $ Sizing
 "CSupFlo_Sys_T_Restrm_C" = 210.3307   $ Sizing
 "CSupFlo_Sys_T_StorSm_C" = 331.6761   $ Sizing
 "ClCap_Sys_L_Break_C" = 12585.75   $ Sizing
 "ClCap_Sys_L_Conf_C" = 19307.51   $ Sizing
 "ClCap_Sys_L_CopyRm_C" = 3971.172   $ Sizing
 "ClCap_Sys_L_Cordr_C" = 19241.51   $ Sizing
 "ClCap_Sys_L_Cordr_E" = 10367.14   $ Sizing
 "ClCap_Sys_L_Cordr_N" = 4092.607   $ Sizing
 "ClCap_Sys_L_Cordr_S" = 11416.99   $ Sizing
 "ClCap_Sys_L_Cordr_W" = 10399.34   $ Sizing
 "ClCap_Sys_L_LobWait_C" = 13013.79   $ Sizing
 "ClCap_Sys_L_MechElec_C" = 4565.713   $ Sizing
 "ClCap_Sys_L_OfficeOpn_C" = 60902.17   $ Sizing
 "ClCap_Sys_L_OfficeOpn_E" = 82003.41   $ Sizing
 "ClCap_Sys_L_OfficeOpn_N" = 34101.3   $ Sizing
 "ClCap_Sys_L_OfficeOpn_S" = 86366.72   $ Sizing
 "ClCap_Sys_L_OfficeOpn_W" = 83050.84   $ Sizing
 "ClCap_Sys_L_OfficeSm_C" = 8235.365   $ Sizing
 "ClCap_Sys_L_OfficeSm_E" = 60203.72   $ Sizing
 "ClCap_Sys_L_OfficeSm_N" = 21901.53   $ Sizing
 "ClCap_Sys_L_OfficeSm_S" = 64944.27   $ Sizing
 "ClCap_Sys_L_OfficeSm_W" = 60969.61   $ Sizing
 "ClCap_Sys_L_Restrm_C" = 7209.506   $ Sizing
 "ClCap_Sys_L_StorSm_C" = 12518.88   $ Sizing
 "ClCap_Sys_M_Break_C" = 110280.2   $ Sizing
 "ClCap_Sys_M_Conf_C" = 176170.3   $ Sizing
 "ClCap_Sys_M_CopyRm_C" = 39536.27   $ Sizing
 "ClCap_Sys_M_Cordr_C" = 238417   $ Sizing
 "ClCap_Sys_M_Cordr_E" = 96316.91   $ Sizing
 "ClCap_Sys_M_Cordr_N" = 37762.81   $ Sizing
 "ClCap_Sys_M_Cordr_S" = 106921.3   $ Sizing
 "ClCap_Sys_M_Cordr_W" = 93820.99   $ Sizing
 "ClCap_Sys_M_LobWait_C" = 138030.1   $ Sizing
 "ClCap_Sys_M_MechElec_C" = 42845.09   $ Sizing
 "ClCap_Sys_M_OfficeOpn_C" = 571320.7   $ Sizing
 "ClCap_Sys_M_OfficeOpn_E" = 696484.3   $ Sizing
 "ClCap_Sys_M_OfficeOpn_N" = 307531.8   $ Sizing
 "ClCap_Sys_M_OfficeOpn_S" = 763706.3   $ Sizing
 "ClCap_Sys_M_OfficeOpn_W" = 695297.1   $ Sizing
 "ClCap_Sys_M_OfficeSm_C" = 80974.63   $ Sizing
 "ClCap_Sys_M_OfficeSm_E" = 510262.6   $ Sizing
 "ClCap_Sys_M_OfficeSm_N" = 198165.4   $ Sizing
 "ClCap_Sys_M_OfficeSm_S" = 570458   $ Sizing
 "ClCap_Sys_M_OfficeSm_W" = 516766.3   $ Sizing
 "ClCap_Sys_M_Restrm_C" = 57676.05   $ Sizing
 "ClCap_Sys_M_StorSm_C" = 107091.4   $ Sizing
 "ClCap_Sys_T_Break_C" = 13009.58   $ Sizing
 "ClCap_Sys_T_Conf_C" = 20161.37   $ Sizing
 "ClCap_Sys_T_CopyRm_C" = 4533.447   $ Sizing
 "ClCap_Sys_T_Cordr_C" = 25918.34   $ Sizing
 "ClCap_Sys_T_Cordr_E" = 10608.25   $ Sizing
 "ClCap_Sys_T_Cordr_N" = 4191.534   $ Sizing
 "ClCap_Sys_T_Cordr_S" = 12020.4   $ Sizing
 "ClCap_Sys_T_Cordr_W" = 10479.11   $ Sizing
 "ClCap_Sys_T_LobWait_C" = 15190.72   $ Sizing
 "ClCap_Sys_T_MechElec_C" = 5962.637   $ Sizing
 "ClCap_Sys_T_OfficeOpn_C" = 64600.71   $ Sizing
 "ClCap_Sys_T_OfficeOpn_E" = 79131.77   $ Sizing
 "ClCap_Sys_T_OfficeOpn_N" = 35767.56   $ Sizing
 "ClCap_Sys_T_OfficeOpn_S" = 88388.8   $ Sizing
 "ClCap_Sys_T_OfficeOpn_W" = 79344.49   $ Sizing
 "ClCap_Sys_T_OfficeSm_C" = 9327.477   $ Sizing
 "ClCap_Sys_T_OfficeSm_E" = 59753.1   $ Sizing
 "ClCap_Sys_T_OfficeSm_N" = 23495.67   $ Sizing
 "ClCap_Sys_T_OfficeSm_S" = 67673.04   $ Sizing
 "ClCap_Sys_T_OfficeSm_W" = 60663.44   $ Sizing
 "ClCap_Sys_T_Restrm_C" = 7209.506   $ Sizing
 "ClCap_Sys_T_StorSm_C" = 11368.86   $ Sizing
 "HtCap_Sys_L_Break_C" = -20451.9   $ Sizing
 "HtCap_Sys_L_Conf_C" = -25598.84   $ Sizing
 "HtCap_Sys_L_CopyRm_C" = -7332.766   $ Sizing
 "HtCap_Sys_L_Cordr_C" = -25884.4   $ Sizing
 "HtCap_Sys_L_Cordr_E" = -10569.33   $ Sizing
 "HtCap_Sys_L_Cordr_N" = -5163.281   $ Sizing
 "HtCap_Sys_L_Cordr_S" = -11313.17   $ Sizing
 "HtCap_Sys_L_Cordr_W" = -10581.18   $ Sizing
 "HtCap_Sys_L_LobWait_C" = -21131.09   $ Sizing
 "HtCap_Sys_L_MechElec_C" = -6058.717   $ Sizing
 "HtCap_Sys_L_OfficeOpn_C" = -87097.73   $ Sizing
 "HtCap_Sys_L_OfficeOpn_E" = -78482.25   $ Sizing
 "HtCap_Sys_L_OfficeOpn_N" = -38635.88   $ Sizing
 "HtCap_Sys_L_OfficeOpn_S" = -81869.55   $ Sizing
 "HtCap_Sys_L_OfficeOpn_W" = -80077.83   $ Sizing
 "HtCap_Sys_L_OfficeSm_C" = -9570.475   $ Sizing
 "HtCap_Sys_L_OfficeSm_E" = -58906.67   $ Sizing
 "HtCap_Sys_L_OfficeSm_N" = -24900.23   $ Sizing
 "HtCap_Sys_L_OfficeSm_S" = -62188.18   $ Sizing
 "HtCap_Sys_L_OfficeSm_W" = -59609.23   $ Sizing
 "HtCap_Sys_L_Restrm_C" = -7766.395   $ Sizing
 "HtCap_Sys_L_StorSm_C" = -16508.98   $ Sizing
 "HtCap_Sys_M_Break_C" = -171645   $ Sizing
 "HtCap_Sys_M_Conf_C" = -219331.9   $ Sizing
 "HtCap_Sys_M_CopyRm_C" = -65281.65   $ Sizing
 "HtCap_Sys_M_Cordr_C" = -278172.7   $ Sizing
 "HtCap_Sys_M_Cordr_E" = -95610.95   $ Sizing
 "HtCap_Sys_M_Cordr_N" = -45595.75   $ Sizing
 "HtCap_Sys_M_Cordr_S" = -103090.3   $ Sizing
 "HtCap_Sys_M_Cordr_W" = -93352.68   $ Sizing
 "HtCap_Sys_M_LobWait_C" = -197810.2   $ Sizing
 "HtCap_Sys_M_MechElec_C" = -53669.87   $ Sizing
 "HtCap_Sys_M_OfficeOpn_C" = -819522.4   $ Sizing
 "HtCap_Sys_M_OfficeOpn_E" = -667591.6   $ Sizing
 "HtCap_Sys_M_OfficeOpn_N" = -338413.8   $ Sizing
 "HtCap_Sys_M_OfficeOpn_S" = -712592.9   $ Sizing
 "HtCap_Sys_M_OfficeOpn_W" = -665166.8   $ Sizing
 "HtCap_Sys_M_OfficeSm_C" = -89210.52   $ Sizing
 "HtCap_Sys_M_OfficeSm_E" = -495780   $ Sizing
 "HtCap_Sys_M_OfficeSm_N" = -218359.8   $ Sizing
 "HtCap_Sys_M_OfficeSm_S" = -528936.8   $ Sizing
 "HtCap_Sys_M_OfficeSm_W" = -491723.3   $ Sizing
 "HtCap_Sys_M_Restrm_C" = -66989.35   $ Sizing
 "HtCap_Sys_M_StorSm_C" = -133805.1   $ Sizing
 "HtCap_Sys_T_Break_C" = -21600   $ Sizing
 "HtCap_Sys_T_Conf_C" = -26914.48   $ Sizing
 "HtCap_Sys_T_CopyRm_C" = -8004.176   $ Sizing
 "HtCap_Sys_T_Cordr_C" = -35040.38   $ Sizing
 "HtCap_Sys_T_Cordr_E" = -12266.19   $ Sizing
 "HtCap_Sys_T_Cordr_N" = -5799.581   $ Sizing
 "HtCap_Sys_T_Cordr_S" = -13570.52   $ Sizing
 "HtCap_Sys_T_Cordr_W" = -12152.42   $ Sizing
 "HtCap_Sys_T_LobWait_C" = -24121.83   $ Sizing
 "HtCap_Sys_T_MechElec_C" = -7210.857   $ Sizing
 "HtCap_Sys_T_OfficeOpn_C" = -81868.14   $ Sizing
 "HtCap_Sys_T_OfficeOpn_E" = -86079.55   $ Sizing
 "HtCap_Sys_T_OfficeOpn_N" = -45142.57   $ Sizing
 "HtCap_Sys_T_OfficeOpn_S" = -93825.04   $ Sizing
 "HtCap_Sys_T_OfficeOpn_W" = -86127.86   $ Sizing
 "HtCap_Sys_T_OfficeSm_C" = -11626.74   $ Sizing
 "HtCap_Sys_T_OfficeSm_E" = -65589.77   $ Sizing
 "HtCap_Sys_T_OfficeSm_N" = -29333.47   $ Sizing
 "HtCap_Sys_T_OfficeSm_S" = -70685.91   $ Sizing
 "HtCap_Sys_T_OfficeSm_W" = -65427.17   $ Sizing
 "HtCap_Sys_T_Restrm_C" = -8810.181   $ Sizing
 "HtCap_Sys_T_StorSm_C" = -17297.38   $ Sizing
..

##include Templates\OfL_DX_SZ.inp
END ..
COMPUTE ..
STOP ..
