INPUT ..

##fileprefix C:\Users\jglasskatz\MASControl3\
##set1 IsSizing FALSE
##set1 CoolType DX
##set1 HeatType ELECTRIC
##set1 EU_HrRepVar 1
##set1 BldgVint 1985
##set1 BldgLoc CZ01

 ##set1 mBFMult 1   $ IP Tech: RefgChg-NRes-Std

PARAMETER
 "AltFactor" = 1.00753   $ IP Non-Tech
 "BldgEconoFlag" = 1   $ IP Non-Tech
 "Break_EWSF" = 1   $ IP Non-Tech
 "Break_LWSF" = 1.1   $ IP Non-Tech
 "CDD_DBHi10" = 65   $ IP Non-Tech
 "CDD_DBHi7" = 68   $ IP Non-Tech
 "CDD_DBHi8" = 66   $ IP Non-Tech
 "CDD_DBHi9" = 77   $ IP Non-Tech
 "CDD_DBRange10" = 17   $ IP Non-Tech
 "CDD_DBRange7" = 11   $ IP Non-Tech
 "CDD_DBRange8" = 10   $ IP Non-Tech
 "CDD_DBRange9" = 29   $ IP Non-Tech
 "CDD_Day10" = 15   $ IP Non-Tech
 "CDD_Day7" = 16   $ IP Non-Tech
 "CDD_Day8" = 20   $ IP Non-Tech
 "CDD_Day9" = 17   $ IP Non-Tech
 "CDD_HrHi10" = 12   $ IP Non-Tech
 "CDD_HrHi7" = 12   $ IP Non-Tech
 "CDD_HrHi8" = 13   $ IP Non-Tech
 "CDD_HrHi9" = 17   $ IP Non-Tech
 "CDD_HrLo10" = 6   $ IP Non-Tech
 "CDD_HrLo7" = 3   $ IP Non-Tech
 "CDD_HrLo8" = 8   $ IP Non-Tech
 "CDD_HrLo9" = 4   $ IP Non-Tech
 "CDD_WB10" = 57.53039551   $ IP Non-Tech
 "CDD_WB7" = 59.29250717   $ IP Non-Tech
 "CDD_WB8" = 60.75350189   $ IP Non-Tech
 "CDD_WB9" = 61.08643341   $ IP Non-Tech
 "CZ_Category" = Tem   $ IP Non-Tech
 "ChwVintEconoFlag" = 1   $ IP Non-Tech
 "Conference_EWSF" = 1.1   $ IP Non-Tech
 "Conference_LWSF" = 1.4   $ IP Non-Tech
 "CoolSetT" = 45   $ IP Non-Tech
 "CoolType" = DX   $ IP Non-Tech
 "CopyRoom_EWSF" = 1.65   $ IP Non-Tech
 "CopyRoom_LWSF" = 1.3   $ IP Non-Tech
 "CorridorStairway_EWSF" = 0.22   $ IP Non-Tech
 "CorridorStairway_LWSF" = 0.6   $ IP Non-Tech
 "DesCoolT" = 75   $ IP Non-Tech
 "DesHeatT" = 73   $ IP Non-Tech
 "EconoEnthLimit" = 28   $ IP Non-Tech
 "EconoTempLimit" = 70   $ IP Non-Tech
 "Elevation" = 203   $ IP Non-Tech
 "HDD_CloudAmt1" = 0   $ IP Non-Tech
 "HDD_DBHi1" = 53   $ IP Non-Tech
 "HDD_DBRange1" = 20   $ IP Non-Tech
 "HDD_Day1" = 15   $ IP Non-Tech
 "HDD_HrHi1" = 14   $ IP Non-Tech
 "HDD_HrLo1" = 6   $ IP Non-Tech
 "HDD_WB1" = 42.3   $ IP Non-Tech
 "HDD_WindSpd1" = 12.7   $ IP Non-Tech
 "HeatSrc" = ELECTRIC   $ IP Non-Tech
 "HeatSrcTU" = HEAT-PUMP   $ IP Non-Tech
 "HeatType" = Elec   $ IP Non-Tech
 "HeatTypeTU" = HEAT-PUMP   $ IP Non-Tech
 "IndoorFanMode" = CONTINUOUS   $ IP Non-Tech
 "KT_TransferAir" = No   $ IP Non-Tech
 "Latitude" = 40.8   $ IP Non-Tech
 "LobbyWaiting_EWSF" = 0.525   $ IP Non-Tech
 "LobbyWaiting_LWSF" = 1.3   $ IP Non-Tech
 "Longitude" = 124.2   $ IP Non-Tech
 "MZFanMechEff" = 0.58   $ IP Non-Tech
 "MZHasRetFan" = FALSE   $ IP Non-Tech
 "MZ_RFanWPerCfm" = 0.37   $ IP Non-Tech
 "MZ_SFanWPerCfm" = 0.71   $ IP Non-Tech
 "MZ_SupFanStatic" = 2.25   $ IP Non-Tech
 "MaxSupT_MZ" = 100   $ IP Non-Tech
 "MaxSupT_SZ" = 100   $ IP Non-Tech
 "MaxSupT_TU" = 90   $ IP Non-Tech
 "MechElecRoom_EWSF" = 0.22   $ IP Non-Tech
 "MechElecRoom_LWSF" = 0.7   $ IP Non-Tech
 "MinCfmPerSF" = 0.4   $ IP Non-Tech
 "MinSupT" = 55   $ IP Non-Tech
 "OccCoolT" = 76   $ IP Non-Tech
 "OccHeatT" = 72   $ IP Non-Tech
 "OfficeOpen_EWSF" = 1.65   $ IP Non-Tech
 "OfficeOpen_LWSF" = 1.2   $ IP Non-Tech
 "OfficeSmall_EWSF" = 1.65   $ IP Non-Tech
 "OfficeSmall_LWSF" = 1.3   $ IP Non-Tech
 "PkgDxVintEconoFlag" = 0   $ IP Non-Tech
 "Restroom_EWSF" = 0.22   $ IP Non-Tech
 "Restroom_LWSF" = 0.6   $ IP Non-Tech
 "SZFanMechEff" = 0.58   $ IP Non-Tech
 "SZHasRetFan" = FALSE   $ IP Non-Tech
 "SZ_Is_2Spd" = FALSE   $ IP Non-Tech
 "SZ_SFanWPerCfm" = 0.46   $ IP Non-Tech
 "SZ_SupFanStatic" = 0.75   $ IP Non-Tech
 "StorageSmlCond_EWSF" = 0.22   $ IP Non-Tech
 "StorageSmlCond_LWSF" = 0.6   $ IP Non-Tech
 "T24GlzTbl" = CZTbl   $ IP Non-Tech
 "TermUnitFanMechEff" = 1   $ IP Non-Tech
 "TermUnitFanMode" = INTERMITTENT   $ IP Non-Tech
 "TwrSetpt" = 80   $ IP Non-Tech
 "UnocCoolT" = 86   $ IP Non-Tech
 "UnocHeatT" = 62   $ IP Non-Tech
 "WlhpVintEconoFlag" = 0   $ IP Non-Tech
 "EconoCtrl" = OA-TEMP   $ IP Tech: AirEcono-OATemp
 "MaxOAFrac" = 0.85   $ IP Tech: AirEcono-OATemp
 "UseEconoVintApplic" = FALSE   $ IP Tech: AirEcono-OATemp
 "DuctDT" = 1   $ IP Tech: ComDuctInsul-1
 "DuctAirLoss" = 0   $ IP Tech: ComDuctLeak-0
 "DuctLossOAFrac" = 0   $ IP Tech: ComDuctLeak-0
 "ComRoofInsCalc" = FromUo   $ IP Tech: ComRoofIns-Hvy-0.06
 "ComRoofInsR" = -999   $ IP Tech: ComRoofIns-Hvy-0.06
 "ComRoofUo" = 0.06   $ IP Tech: ComRoofIns-Hvy-0.06
 "ComEWInsCalc" = FromUo   $ IP Tech: ComWallIns-MFrm-0.14
 "ComEWInsR" = -999   $ IP Tech: ComWallIns-MFrm-0.14
 "ComEWUo" = 0.14   $ IP Tech: ComWallIns-MFrm-0.14
 "ComN_SHGC" = 0.82   $ IP Tech: NResWin-ComN-1.23-0.82
 "ComN_UFactor" = 1.23   $ IP Tech: NResWin-ComN-1.23-0.82
 "ComN_VisTrans" = 0.9   $ IP Tech: NResWin-ComN-1.23-0.82
 "ComN_WinCode" = G1000   $ IP Tech: NResWin-ComN-1.23-0.82
 "ComN_WinFrmFrac" = 0.17   $ IP Tech: NResWin-ComN-1.23-0.82
 "ComN_WinFrmU" = 1   $ IP Tech: NResWin-ComN-1.23-0.82
 "ComO_SHGC" = 0.82   $ IP Tech: NResWin-ComO-1.23-0.82
 "ComO_UFactor" = 1.23   $ IP Tech: NResWin-ComO-1.23-0.82
 "ComO_VisTrans" = 0.9   $ IP Tech: NResWin-ComO-1.23-0.82
 "ComO_WinCode" = G1000   $ IP Tech: NResWin-ComO-1.23-0.82
 "ComO_WinFrmFrac" = 0.17   $ IP Tech: NResWin-ComO-1.23-0.82
 "ComO_WinFrmU" = 1   $ IP Tech: NResWin-ComO-1.23-0.82
 "LtgMsrApplic" = ALL   $ IP Tech: NonResLtgRefPre
 "LtgSav_CFL" = 0   $ IP Tech: NonResLtgRefPre
 "LtgSav_EX" = 0   $ IP Tech: NonResLtgRefPre
 "LtgSav_HB" = 0   $ IP Tech: NonResLtgRefPre
 "LtgSav_LF" = 0   $ IP Tech: NonResLtgRefPre
 "LtgSav_SP" = 0   $ IP Tech: NonResLtgRefPre
 "BF_fFlow" = PSZ65to135_BF_fFlow   $ IP Tech: PkgAC1SpH-65to135-E10
 "BF_fT" = PSZ65to135_BF_fT   $ IP Tech: PkgAC1SpH-65to135-E10
 "CEIR_fPLR" = PSZ65to135_CEIR_fPLR   $ IP Tech: PkgAC1SpH-65to135-E10
 "CLoss_fPLR" = PSZ65to135_CLoss_fPLR   $ IP Tech: PkgAC1SpH-65to135-E10
 "COP" = -1   $ IP Tech: PkgAC1SpH-65to135-E10
 "COP47" = -1   $ IP Tech: PkgAC1SpH-65to135-E10
 "CfmPerBtuh" = 0.02917   $ IP Tech: PkgAC1SpH-65to135-E10
 "ClCap_fT" = PSZ65to135_ClCap_fT   $ IP Tech: PkgAC1SpH-65to135-E10
 "ClSH_fT" = PSZ65to135_ClSH_fT   $ IP Tech: PkgAC1SpH-65to135-E10
 "CoilBF" = 0.114   $ IP Tech: PkgAC1SpH-65to135-E10
 "CondWPerBtuh" = 0   $ IP Tech: PkgAC1SpH-65to135-E10
 "CoolSensCap" = 0.663   $ IP Tech: PkgAC1SpH-65to135-E10
 "CoolingEIR" = 0.29745   $ IP Tech: PkgAC1SpH-65to135-E10
 "CrnkEIR" = 0.01   $ IP Tech: PkgAC1SpH-65to135-E10
 "CrnkMaxT" = 50   $ IP Tech: PkgAC1SpH-65to135-E10
 "DXType" = Pkg   $ IP Tech: PkgAC1SpH-65to135-E10
 "EER" = 9.67   $ IP Tech: PkgAC1SpH-65to135-E10
 "EIR_fT" = PSZ65to135_EIR_fT   $ IP Tech: PkgAC1SpH-65to135-E10
 "FanEirPlr" = TwoSpeedFan   $ IP Tech: PkgAC1SpH-65to135-E10
 "FanWPerCfm" = 0.412   $ IP Tech: PkgAC1SpH-65to135-E10
 "HIR_fT" = DEFAULT   $ IP Tech: PkgAC1SpH-65to135-E10
 "HtCap_fT" = DEFAULT   $ IP Tech: PkgAC1SpH-65to135-E10
 "HtCoolCapRatio" = -1   $ IP Tech: PkgAC1SpH-65to135-E10
 "HtgEIR" = -1   $ IP Tech: PkgAC1SpH-65to135-E10
 "HtgFuel" = Gas   $ IP Tech: PkgAC1SpH-65to135-E10
 "IEER" = 11.87   $ IP Tech: PkgAC1SpH-65to135-E10
 "LowSpdCapRatio" = 0.5   $ IP Tech: PkgAC1SpH-65to135-E10
 "LowSpdCfmRatio" = 0.66   $ IP Tech: PkgAC1SpH-65to135-E10
 "NominalCap" = 15   $ IP Tech: PkgAC1SpH-65to135-E10
 "NumStages" = 1   $ IP Tech: PkgAC1SpH-65to135-E10
 "RatedEER" = 10   $ IP Tech: PkgAC1SpH-65to135-E10
 "RatedSupMtrClass" = HiEff   $ IP Tech: PkgAC1SpH-65to135-E10
 "SizeRange" = 65to135   $ IP Tech: PkgAC1SpH-65to135-E10
 "SubType" = AC   $ IP Tech: PkgAC1SpH-65to135-E10
 "SupMotEff" = 0.84   $ IP Tech: PkgAC1SpH-65to135-E10
 "Tier" = 0   $ IP Tech: PkgAC1SpH-65to135-E10
 "TotCoolCap" = 184140   $ IP Tech: PkgAC1SpH-65to135-E10
 "BFMult" = 1   $ IP Tech: RefgChg-NRes-Std
 "CoolEirMult" = 1   $ IP Tech: RefgChg-NRes-Std
 "SensCoolCapMult" = 1   $ IP Tech: RefgChg-NRes-Std
 "TotCoolCapMult" = 1   $ IP Tech: RefgChg-NRes-Std
 "AltAdjFactor" = 1.007532   $ Sizing
 "CAssFlo_L_Break_CZn" = 365.9879   $ Sizing
 "CAssFlo_L_Conf_CZn" = 433.6993   $ Sizing
 "CAssFlo_L_CopyRm_CZn" = 112.5465   $ Sizing
 "CAssFlo_L_Cordr_CZn" = 565.4379   $ Sizing
 "CAssFlo_L_Cordr_EZn" = 290.093   $ Sizing
 "CAssFlo_L_Cordr_NZn" = 123.8854   $ Sizing
 "CAssFlo_L_Cordr_SZn" = 318.5594   $ Sizing
 "CAssFlo_L_Cordr_WZn" = 282.1259   $ Sizing
 "CAssFlo_L_LobWait_CZn" = 359.2125   $ Sizing
 "CAssFlo_L_MechElec_CZn" = 134.1697   $ Sizing
 "CAssFlo_L_OfficeOpn_CZn" = 1754.89   $ Sizing
 "CAssFlo_L_OfficeOpn_EZn" = 2341.356   $ Sizing
 "CAssFlo_L_OfficeOpn_NZn" = 873.892   $ Sizing
 "CAssFlo_L_OfficeOpn_SZn" = 2475.094   $ Sizing
 "CAssFlo_L_OfficeOpn_WZn" = 2261.22   $ Sizing
 "CAssFlo_L_OfficeSm_CZn" = 222.005   $ Sizing
 "CAssFlo_L_OfficeSm_EZn" = 1717.513   $ Sizing
 "CAssFlo_L_OfficeSm_NZn" = 536.9225   $ Sizing
 "CAssFlo_L_OfficeSm_SZn" = 1857.814   $ Sizing
 "CAssFlo_L_OfficeSm_WZn" = 1685.903   $ Sizing
 "CAssFlo_L_Restrm_CZn" = 211.8611   $ Sizing
 "CAssFlo_L_StorSm_CZn" = 348.8025   $ Sizing
 "CAssFlo_M_Break_CZn" = 397.2982   $ Sizing
 "CAssFlo_M_Conf_CZn" = 482.9771   $ Sizing
 "CAssFlo_M_CopyRm_CZn" = 139.6562   $ Sizing
 "CAssFlo_M_Cordr_CZn" = 802.5325   $ Sizing
 "CAssFlo_M_Cordr_EZn" = 346.7762   $ Sizing
 "CAssFlo_M_Cordr_NZn" = 139.3213   $ Sizing
 "CAssFlo_M_Cordr_SZn" = 380.258   $ Sizing
 "CAssFlo_M_Cordr_WZn" = 323.2255   $ Sizing
 "CAssFlo_M_LobWait_CZn" = 464.3236   $ Sizing
 "CAssFlo_M_MechElec_CZn" = 144.9732   $ Sizing
 "CAssFlo_M_OfficeOpn_CZn" = 2039.328   $ Sizing
 "CAssFlo_M_OfficeOpn_EZn" = 2519.979   $ Sizing
 "CAssFlo_M_OfficeOpn_NZn" = 1017.742   $ Sizing
 "CAssFlo_M_OfficeOpn_SZn" = 2762.041   $ Sizing
 "CAssFlo_M_OfficeOpn_WZn" = 2422.225   $ Sizing
 "CAssFlo_M_OfficeSm_CZn" = 281.9871   $ Sizing
 "CAssFlo_M_OfficeSm_EZn" = 1838.87   $ Sizing
 "CAssFlo_M_OfficeSm_NZn" = 636.8986   $ Sizing
 "CAssFlo_M_OfficeSm_SZn" = 2059.054   $ Sizing
 "CAssFlo_M_OfficeSm_WZn" = 1796.54   $ Sizing
 "CAssFlo_M_Restrm_CZn" = 211.8611   $ Sizing
 "CAssFlo_M_StorSm_CZn" = 380.3227   $ Sizing
 "CAssFlo_T_Break_CZn" = 376.1049   $ Sizing
 "CAssFlo_T_Conf_CZn" = 459.8069   $ Sizing
 "CAssFlo_T_CopyRm_CZn" = 132.211   $ Sizing
 "CAssFlo_T_Cordr_CZn" = 703.9638   $ Sizing
 "CAssFlo_T_Cordr_EZn" = 306.2893   $ Sizing
 "CAssFlo_T_Cordr_NZn" = 123.2975   $ Sizing
 "CAssFlo_T_Cordr_SZn" = 342.3335   $ Sizing
 "CAssFlo_T_Cordr_WZn" = 288.2134   $ Sizing
 "CAssFlo_T_LobWait_CZn" = 427.2536   $ Sizing
 "CAssFlo_T_MechElec_CZn" = 151.6655   $ Sizing
 "CAssFlo_T_OfficeOpn_CZn" = 1881.887   $ Sizing
 "CAssFlo_T_OfficeOpn_EZn" = 2300.356   $ Sizing
 "CAssFlo_T_OfficeOpn_NZn" = 948.134   $ Sizing
 "CAssFlo_T_OfficeOpn_SZn" = 2553.786   $ Sizing
 "CAssFlo_T_OfficeOpn_WZn" = 2214.381   $ Sizing
 "CAssFlo_T_OfficeSm_CZn" = 264.4327   $ Sizing
 "CAssFlo_T_OfficeSm_EZn" = 1727.045   $ Sizing
 "CAssFlo_T_OfficeSm_NZn" = 606.0004   $ Sizing
 "CAssFlo_T_OfficeSm_SZn" = 1952.387   $ Sizing
 "CAssFlo_T_OfficeSm_WZn" = 1682.583   $ Sizing
 "CAssFlo_T_Restrm_CZn" = 211.8611   $ Sizing
 "CAssFlo_T_StorSm_CZn" = 334.0894   $ Sizing
 "CHRtFlo_Sys_L_Break_C" = 365.9879   $ Sizing
 "CHRtFlo_Sys_L_Conf_C" = 433.6993   $ Sizing
 "CHRtFlo_Sys_L_CopyRm_C" = 112.5465   $ Sizing
 "CHRtFlo_Sys_L_Cordr_C" = 565.4379   $ Sizing
 "CHRtFlo_Sys_L_Cordr_E" = 290.093   $ Sizing
 "CHRtFlo_Sys_L_Cordr_N" = 123.8854   $ Sizing
 "CHRtFlo_Sys_L_Cordr_S" = 318.5594   $ Sizing
 "CHRtFlo_Sys_L_Cordr_W" = 282.1259   $ Sizing
 "CHRtFlo_Sys_L_LobWait_C" = 359.2125   $ Sizing
 "CHRtFlo_Sys_L_MechElec_C" = 134.1697   $ Sizing
 "CHRtFlo_Sys_L_OfficeOpn_C" = 1754.89   $ Sizing
 "CHRtFlo_Sys_L_OfficeOpn_E" = 2341.356   $ Sizing
 "CHRtFlo_Sys_L_OfficeOpn_N" = 873.892   $ Sizing
 "CHRtFlo_Sys_L_OfficeOpn_S" = 2475.094   $ Sizing
 "CHRtFlo_Sys_L_OfficeOpn_W" = 2261.22   $ Sizing
 "CHRtFlo_Sys_L_OfficeSm_C" = 222.005   $ Sizing
 "CHRtFlo_Sys_L_OfficeSm_E" = 1717.513   $ Sizing
 "CHRtFlo_Sys_L_OfficeSm_N" = 536.9225   $ Sizing
 "CHRtFlo_Sys_L_OfficeSm_S" = 1857.814   $ Sizing
 "CHRtFlo_Sys_L_OfficeSm_W" = 1685.903   $ Sizing
 "CHRtFlo_Sys_L_Restrm_C" = 211.8611   $ Sizing
 "CHRtFlo_Sys_L_StorSm_C" = 348.8025   $ Sizing
 "CHRtFlo_Sys_M_Break_C" = 3178.385   $ Sizing
 "CHRtFlo_Sys_M_Conf_C" = 3863.817   $ Sizing
 "CHRtFlo_Sys_M_CopyRm_C" = 1117.25   $ Sizing
 "CHRtFlo_Sys_M_Cordr_C" = 6420.26   $ Sizing
 "CHRtFlo_Sys_M_Cordr_E" = 2774.21   $ Sizing
 "CHRtFlo_Sys_M_Cordr_N" = 1114.57   $ Sizing
 "CHRtFlo_Sys_M_Cordr_S" = 3042.064   $ Sizing
 "CHRtFlo_Sys_M_Cordr_W" = 2585.804   $ Sizing
 "CHRtFlo_Sys_M_LobWait_C" = 3714.589   $ Sizing
 "CHRtFlo_Sys_M_MechElec_C" = 1159.785   $ Sizing
 "CHRtFlo_Sys_M_OfficeOpn_C" = 16314.62   $ Sizing
 "CHRtFlo_Sys_M_OfficeOpn_E" = 20159.84   $ Sizing
 "CHRtFlo_Sys_M_OfficeOpn_N" = 8141.935   $ Sizing
 "CHRtFlo_Sys_M_OfficeOpn_S" = 22096.33   $ Sizing
 "CHRtFlo_Sys_M_OfficeOpn_W" = 19377.8   $ Sizing
 "CHRtFlo_Sys_M_OfficeSm_C" = 2255.897   $ Sizing
 "CHRtFlo_Sys_M_OfficeSm_E" = 14710.96   $ Sizing
 "CHRtFlo_Sys_M_OfficeSm_N" = 5095.189   $ Sizing
 "CHRtFlo_Sys_M_OfficeSm_S" = 16472.43   $ Sizing
 "CHRtFlo_Sys_M_OfficeSm_W" = 14372.32   $ Sizing
 "CHRtFlo_Sys_M_Restrm_C" = 1694.889   $ Sizing
 "CHRtFlo_Sys_M_StorSm_C" = 3042.581   $ Sizing
 "CHRtFlo_Sys_T_Break_C" = 376.1049   $ Sizing
 "CHRtFlo_Sys_T_Conf_C" = 459.8069   $ Sizing
 "CHRtFlo_Sys_T_CopyRm_C" = 132.211   $ Sizing
 "CHRtFlo_Sys_T_Cordr_C" = 703.9638   $ Sizing
 "CHRtFlo_Sys_T_Cordr_E" = 306.2893   $ Sizing
 "CHRtFlo_Sys_T_Cordr_N" = 123.2975   $ Sizing
 "CHRtFlo_Sys_T_Cordr_S" = 342.3335   $ Sizing
 "CHRtFlo_Sys_T_Cordr_W" = 288.2134   $ Sizing
 "CHRtFlo_Sys_T_LobWait_C" = 427.2536   $ Sizing
 "CHRtFlo_Sys_T_MechElec_C" = 151.6655   $ Sizing
 "CHRtFlo_Sys_T_OfficeOpn_C" = 1881.887   $ Sizing
 "CHRtFlo_Sys_T_OfficeOpn_E" = 2300.356   $ Sizing
 "CHRtFlo_Sys_T_OfficeOpn_N" = 948.134   $ Sizing
 "CHRtFlo_Sys_T_OfficeOpn_S" = 2553.786   $ Sizing
 "CHRtFlo_Sys_T_OfficeOpn_W" = 2214.381   $ Sizing
 "CHRtFlo_Sys_T_OfficeSm_C" = 264.4327   $ Sizing
 "CHRtFlo_Sys_T_OfficeSm_E" = 1727.045   $ Sizing
 "CHRtFlo_Sys_T_OfficeSm_N" = 606.0004   $ Sizing
 "CHRtFlo_Sys_T_OfficeSm_S" = 1952.387   $ Sizing
 "CHRtFlo_Sys_T_OfficeSm_W" = 1682.583   $ Sizing
 "CHRtFlo_Sys_T_Restrm_C" = 211.8611   $ Sizing
 "CHRtFlo_Sys_T_StorSm_C" = 334.0894   $ Sizing
 "CRtdFlo_Sys_L_Break_C" = 365.9879   $ Sizing
 "CRtdFlo_Sys_L_Conf_C" = 433.6993   $ Sizing
 "CRtdFlo_Sys_L_CopyRm_C" = 112.5465   $ Sizing
 "CRtdFlo_Sys_L_Cordr_C" = 565.4379   $ Sizing
 "CRtdFlo_Sys_L_Cordr_E" = 290.093   $ Sizing
 "CRtdFlo_Sys_L_Cordr_N" = 123.8854   $ Sizing
 "CRtdFlo_Sys_L_Cordr_S" = 318.5594   $ Sizing
 "CRtdFlo_Sys_L_Cordr_W" = 282.1259   $ Sizing
 "CRtdFlo_Sys_L_LobWait_C" = 359.2125   $ Sizing
 "CRtdFlo_Sys_L_MechElec_C" = 134.1697   $ Sizing
 "CRtdFlo_Sys_L_OfficeOpn_C" = 1754.89   $ Sizing
 "CRtdFlo_Sys_L_OfficeOpn_E" = 2341.356   $ Sizing
 "CRtdFlo_Sys_L_OfficeOpn_N" = 873.892   $ Sizing
 "CRtdFlo_Sys_L_OfficeOpn_S" = 2475.094   $ Sizing
 "CRtdFlo_Sys_L_OfficeOpn_W" = 2261.22   $ Sizing
 "CRtdFlo_Sys_L_OfficeSm_C" = 222.005   $ Sizing
 "CRtdFlo_Sys_L_OfficeSm_E" = 1717.513   $ Sizing
 "CRtdFlo_Sys_L_OfficeSm_N" = 536.9225   $ Sizing
 "CRtdFlo_Sys_L_OfficeSm_S" = 1857.814   $ Sizing
 "CRtdFlo_Sys_L_OfficeSm_W" = 1685.903   $ Sizing
 "CRtdFlo_Sys_L_Restrm_C" = 211.8611   $ Sizing
 "CRtdFlo_Sys_L_StorSm_C" = 348.8025   $ Sizing
 "CRtdFlo_Sys_M_Break_C" = 3178.385   $ Sizing
 "CRtdFlo_Sys_M_Conf_C" = 3863.817   $ Sizing
 "CRtdFlo_Sys_M_CopyRm_C" = 1117.25   $ Sizing
 "CRtdFlo_Sys_M_Cordr_C" = 6420.26   $ Sizing
 "CRtdFlo_Sys_M_Cordr_E" = 2774.21   $ Sizing
 "CRtdFlo_Sys_M_Cordr_N" = 1114.57   $ Sizing
 "CRtdFlo_Sys_M_Cordr_S" = 3042.064   $ Sizing
 "CRtdFlo_Sys_M_Cordr_W" = 2585.804   $ Sizing
 "CRtdFlo_Sys_M_LobWait_C" = 3714.589   $ Sizing
 "CRtdFlo_Sys_M_MechElec_C" = 1159.785   $ Sizing
 "CRtdFlo_Sys_M_OfficeOpn_C" = 16314.62   $ Sizing
 "CRtdFlo_Sys_M_OfficeOpn_E" = 20159.84   $ Sizing
 "CRtdFlo_Sys_M_OfficeOpn_N" = 8141.936   $ Sizing
 "CRtdFlo_Sys_M_OfficeOpn_S" = 22096.33   $ Sizing
 "CRtdFlo_Sys_M_OfficeOpn_W" = 19377.8   $ Sizing
 "CRtdFlo_Sys_M_OfficeSm_C" = 2255.897   $ Sizing
 "CRtdFlo_Sys_M_OfficeSm_E" = 14710.96   $ Sizing
 "CRtdFlo_Sys_M_OfficeSm_N" = 5095.189   $ Sizing
 "CRtdFlo_Sys_M_OfficeSm_S" = 16472.43   $ Sizing
 "CRtdFlo_Sys_M_OfficeSm_W" = 14372.32   $ Sizing
 "CRtdFlo_Sys_M_Restrm_C" = 1694.889   $ Sizing
 "CRtdFlo_Sys_M_StorSm_C" = 3042.581   $ Sizing
 "CRtdFlo_Sys_T_Break_C" = 376.1049   $ Sizing
 "CRtdFlo_Sys_T_Conf_C" = 459.8069   $ Sizing
 "CRtdFlo_Sys_T_CopyRm_C" = 132.211   $ Sizing
 "CRtdFlo_Sys_T_Cordr_C" = 703.9638   $ Sizing
 "CRtdFlo_Sys_T_Cordr_E" = 306.2893   $ Sizing
 "CRtdFlo_Sys_T_Cordr_N" = 123.2975   $ Sizing
 "CRtdFlo_Sys_T_Cordr_S" = 342.3335   $ Sizing
 "CRtdFlo_Sys_T_Cordr_W" = 288.2134   $ Sizing
 "CRtdFlo_Sys_T_LobWait_C" = 427.2536   $ Sizing
 "CRtdFlo_Sys_T_MechElec_C" = 151.6655   $ Sizing
 "CRtdFlo_Sys_T_OfficeOpn_C" = 1881.887   $ Sizing
 "CRtdFlo_Sys_T_OfficeOpn_E" = 2300.356   $ Sizing
 "CRtdFlo_Sys_T_OfficeOpn_N" = 948.134   $ Sizing
 "CRtdFlo_Sys_T_OfficeOpn_S" = 2553.786   $ Sizing
 "CRtdFlo_Sys_T_OfficeOpn_W" = 2214.381   $ Sizing
 "CRtdFlo_Sys_T_OfficeSm_C" = 264.4327   $ Sizing
 "CRtdFlo_Sys_T_OfficeSm_E" = 1727.045   $ Sizing
 "CRtdFlo_Sys_T_OfficeSm_N" = 606.0004   $ Sizing
 "CRtdFlo_Sys_T_OfficeSm_S" = 1952.387   $ Sizing
 "CRtdFlo_Sys_T_OfficeSm_W" = 1682.583   $ Sizing
 "CRtdFlo_Sys_T_Restrm_C" = 211.8611   $ Sizing
 "CRtdFlo_Sys_T_StorSm_C" = 334.0894   $ Sizing
 "CSupFlo_Sys_L_Break_C" = 365.9879   $ Sizing
 "CSupFlo_Sys_L_Conf_C" = 433.6993   $ Sizing
 "CSupFlo_Sys_L_CopyRm_C" = 112.5465   $ Sizing
 "CSupFlo_Sys_L_Cordr_C" = 565.4379   $ Sizing
 "CSupFlo_Sys_L_Cordr_E" = 290.093   $ Sizing
 "CSupFlo_Sys_L_Cordr_N" = 123.8854   $ Sizing
 "CSupFlo_Sys_L_Cordr_S" = 318.5594   $ Sizing
 "CSupFlo_Sys_L_Cordr_W" = 282.1259   $ Sizing
 "CSupFlo_Sys_L_LobWait_C" = 359.2125   $ Sizing
 "CSupFlo_Sys_L_MechElec_C" = 134.1697   $ Sizing
 "CSupFlo_Sys_L_OfficeOpn_C" = 1754.89   $ Sizing
 "CSupFlo_Sys_L_OfficeOpn_E" = 2341.356   $ Sizing
 "CSupFlo_Sys_L_OfficeOpn_N" = 873.892   $ Sizing
 "CSupFlo_Sys_L_OfficeOpn_S" = 2475.094   $ Sizing
 "CSupFlo_Sys_L_OfficeOpn_W" = 2261.22   $ Sizing
 "CSupFlo_Sys_L_OfficeSm_C" = 222.005   $ Sizing
 "CSupFlo_Sys_L_OfficeSm_E" = 1717.513   $ Sizing
 "CSupFlo_Sys_L_OfficeSm_N" = 536.9225   $ Sizing
 "CSupFlo_Sys_L_OfficeSm_S" = 1857.814   $ Sizing
 "CSupFlo_Sys_L_OfficeSm_W" = 1685.903   $ Sizing
 "CSupFlo_Sys_L_Restrm_C" = 211.8611   $ Sizing
 "CSupFlo_Sys_L_StorSm_C" = 348.8025   $ Sizing
 "CSupFlo_Sys_M_Break_C" = 3178.385   $ Sizing
 "CSupFlo_Sys_M_Conf_C" = 3863.817   $ Sizing
 "CSupFlo_Sys_M_CopyRm_C" = 1117.25   $ Sizing
 "CSupFlo_Sys_M_Cordr_C" = 6420.26   $ Sizing
 "CSupFlo_Sys_M_Cordr_E" = 2774.21   $ Sizing
 "CSupFlo_Sys_M_Cordr_N" = 1114.57   $ Sizing
 "CSupFlo_Sys_M_Cordr_S" = 3042.064   $ Sizing
 "CSupFlo_Sys_M_Cordr_W" = 2585.804   $ Sizing
 "CSupFlo_Sys_M_LobWait_C" = 3714.589   $ Sizing
 "CSupFlo_Sys_M_MechElec_C" = 1159.785   $ Sizing
 "CSupFlo_Sys_M_OfficeOpn_C" = 16314.62   $ Sizing
 "CSupFlo_Sys_M_OfficeOpn_E" = 20159.84   $ Sizing
 "CSupFlo_Sys_M_OfficeOpn_N" = 8141.935   $ Sizing
 "CSupFlo_Sys_M_OfficeOpn_S" = 22096.33   $ Sizing
 "CSupFlo_Sys_M_OfficeOpn_W" = 19377.8   $ Sizing
 "CSupFlo_Sys_M_OfficeSm_C" = 2255.897   $ Sizing
 "CSupFlo_Sys_M_OfficeSm_E" = 14710.96   $ Sizing
 "CSupFlo_Sys_M_OfficeSm_N" = 5095.189   $ Sizing
 "CSupFlo_Sys_M_OfficeSm_S" = 16472.43   $ Sizing
 "CSupFlo_Sys_M_OfficeSm_W" = 14372.32   $ Sizing
 "CSupFlo_Sys_M_Restrm_C" = 1694.889   $ Sizing
 "CSupFlo_Sys_M_StorSm_C" = 3042.581   $ Sizing
 "CSupFlo_Sys_T_Break_C" = 376.1049   $ Sizing
 "CSupFlo_Sys_T_Conf_C" = 459.8069   $ Sizing
 "CSupFlo_Sys_T_CopyRm_C" = 132.211   $ Sizing
 "CSupFlo_Sys_T_Cordr_C" = 703.9638   $ Sizing
 "CSupFlo_Sys_T_Cordr_E" = 306.2893   $ Sizing
 "CSupFlo_Sys_T_Cordr_N" = 123.2975   $ Sizing
 "CSupFlo_Sys_T_Cordr_S" = 342.3335   $ Sizing
 "CSupFlo_Sys_T_Cordr_W" = 288.2134   $ Sizing
 "CSupFlo_Sys_T_LobWait_C" = 427.2536   $ Sizing
 "CSupFlo_Sys_T_MechElec_C" = 151.6655   $ Sizing
 "CSupFlo_Sys_T_OfficeOpn_C" = 1881.887   $ Sizing
 "CSupFlo_Sys_T_OfficeOpn_E" = 2300.356   $ Sizing
 "CSupFlo_Sys_T_OfficeOpn_N" = 948.134   $ Sizing
 "CSupFlo_Sys_T_OfficeOpn_S" = 2553.786   $ Sizing
 "CSupFlo_Sys_T_OfficeOpn_W" = 2214.381   $ Sizing
 "CSupFlo_Sys_T_OfficeSm_C" = 264.4327   $ Sizing
 "CSupFlo_Sys_T_OfficeSm_E" = 1727.045   $ Sizing
 "CSupFlo_Sys_T_OfficeSm_N" = 606.0004   $ Sizing
 "CSupFlo_Sys_T_OfficeSm_S" = 1952.387   $ Sizing
 "CSupFlo_Sys_T_OfficeSm_W" = 1682.583   $ Sizing
 "CSupFlo_Sys_T_Restrm_C" = 211.8611   $ Sizing
 "CSupFlo_Sys_T_StorSm_C" = 334.0894   $ Sizing
 "ClCap_Sys_L_Break_C" = 12454.35   $ Sizing
 "ClCap_Sys_L_Conf_C" = 18783.58   $ Sizing
 "ClCap_Sys_L_CopyRm_C" = 3829.891   $ Sizing
 "ClCap_Sys_L_Cordr_C" = 19241.51   $ Sizing
 "ClCap_Sys_L_Cordr_E" = 9871.692   $ Sizing
 "ClCap_Sys_L_Cordr_N" = 4215.745   $ Sizing
 "ClCap_Sys_L_Cordr_S" = 10840.39   $ Sizing
 "ClCap_Sys_L_Cordr_W" = 9600.575   $ Sizing
 "ClCap_Sys_L_LobWait_C" = 12223.79   $ Sizing
 "ClCap_Sys_L_MechElec_C" = 4565.713   $ Sizing
 "ClCap_Sys_L_OfficeOpn_C" = 59717.86   $ Sizing
 "ClCap_Sys_L_OfficeOpn_E" = 79674.95   $ Sizing
 "ClCap_Sys_L_OfficeOpn_N" = 29738.02   $ Sizing
 "ClCap_Sys_L_OfficeOpn_S" = 84225.98   $ Sizing
 "ClCap_Sys_L_OfficeOpn_W" = 76947.97   $ Sizing
 "ClCap_Sys_L_OfficeSm_C" = 7554.697   $ Sizing
 "ClCap_Sys_L_OfficeSm_E" = 58445.93   $ Sizing
 "ClCap_Sys_L_OfficeSm_N" = 18271.15   $ Sizing
 "ClCap_Sys_L_OfficeSm_S" = 63220.29   $ Sizing
 "ClCap_Sys_L_OfficeSm_W" = 57370.29   $ Sizing
 "ClCap_Sys_L_Restrm_C" = 7209.506   $ Sizing
 "ClCap_Sys_L_StorSm_C" = 11869.54   $ Sizing
 "ClCap_Sys_M_Break_C" = 108158.5   $ Sizing
 "ClCap_Sys_M_Conf_C" = 167342.5   $ Sizing
 "ClCap_Sys_M_CopyRm_C" = 38019.34   $ Sizing
 "ClCap_Sys_M_Cordr_C" = 218477.6   $ Sizing
 "ClCap_Sys_M_Cordr_E" = 94404.7   $ Sizing
 "ClCap_Sys_M_Cordr_N" = 37928.16   $ Sizing
 "ClCap_Sys_M_Cordr_S" = 103519.6   $ Sizing
 "ClCap_Sys_M_Cordr_W" = 87993.37   $ Sizing
 "ClCap_Sys_M_LobWait_C" = 126405.2   $ Sizing
 "ClCap_Sys_M_MechElec_C" = 39466.8   $ Sizing
 "ClCap_Sys_M_OfficeOpn_C" = 555176.8   $ Sizing
 "ClCap_Sys_M_OfficeOpn_E" = 686027.1   $ Sizing
 "ClCap_Sys_M_OfficeOpn_N" = 277065.2   $ Sizing
 "ClCap_Sys_M_OfficeOpn_S" = 751924.9   $ Sizing
 "ClCap_Sys_M_OfficeOpn_W" = 659414.8   $ Sizing
 "ClCap_Sys_M_OfficeSm_C" = 76766.81   $ Sizing
 "ClCap_Sys_M_OfficeSm_E" = 500605.1   $ Sizing
 "ClCap_Sys_M_OfficeSm_N" = 173386.2   $ Sizing
 "ClCap_Sys_M_OfficeSm_S" = 560547   $ Sizing
 "ClCap_Sys_M_OfficeSm_W" = 489081.5   $ Sizing
 "ClCap_Sys_M_Restrm_C" = 57676.05   $ Sizing
 "ClCap_Sys_M_StorSm_C" = 103537.2   $ Sizing
 "ClCap_Sys_T_Break_C" = 12798.62   $ Sizing
 "ClCap_Sys_T_Conf_C" = 19914.3   $ Sizing
 "ClCap_Sys_T_CopyRm_C" = 4499.06   $ Sizing
 "ClCap_Sys_T_Cordr_C" = 23955.47   $ Sizing
 "ClCap_Sys_T_Cordr_E" = 10422.84   $ Sizing
 "ClCap_Sys_T_Cordr_N" = 4195.742   $ Sizing
 "ClCap_Sys_T_Cordr_S" = 11649.41   $ Sizing
 "ClCap_Sys_T_Cordr_W" = 9807.729   $ Sizing
 "ClCap_Sys_T_LobWait_C" = 14539.18   $ Sizing
 "ClCap_Sys_T_MechElec_C" = 5161.087   $ Sizing
 "ClCap_Sys_T_OfficeOpn_C" = 64039.48   $ Sizing
 "ClCap_Sys_T_OfficeOpn_E" = 78279.75   $ Sizing
 "ClCap_Sys_T_OfficeOpn_N" = 32264.43   $ Sizing
 "ClCap_Sys_T_OfficeOpn_S" = 86903.82   $ Sizing
 "ClCap_Sys_T_OfficeOpn_W" = 75354.07   $ Sizing
 "ClCap_Sys_T_OfficeSm_C" = 8998.487   $ Sizing
 "ClCap_Sys_T_OfficeSm_E" = 58770.31   $ Sizing
 "ClCap_Sys_T_OfficeSm_N" = 20621.83   $ Sizing
 "ClCap_Sys_T_OfficeSm_S" = 66438.56   $ Sizing
 "ClCap_Sys_T_OfficeSm_W" = 57257.3   $ Sizing
 "ClCap_Sys_T_Restrm_C" = 7209.506   $ Sizing
 "ClCap_Sys_T_StorSm_C" = 11368.86   $ Sizing
 "HtCap_L_Break_CZn" = 0   $ Sizing
 "HtCap_L_Conf_CZn" = 0   $ Sizing
 "HtCap_L_CopyRm_CZn" = 0   $ Sizing
 "HtCap_L_Cordr_CZn" = 0   $ Sizing
 "HtCap_L_Cordr_EZn" = 0   $ Sizing
 "HtCap_L_Cordr_NZn" = 0   $ Sizing
 "HtCap_L_Cordr_SZn" = 0   $ Sizing
 "HtCap_L_Cordr_WZn" = 0   $ Sizing
 "HtCap_L_LobWait_CZn" = 0   $ Sizing
 "HtCap_L_MechElec_CZn" = 0   $ Sizing
 "HtCap_L_OfficeOpn_CZn" = 0   $ Sizing
 "HtCap_L_OfficeOpn_EZn" = 0   $ Sizing
 "HtCap_L_OfficeOpn_NZn" = 0   $ Sizing
 "HtCap_L_OfficeOpn_SZn" = 0   $ Sizing
 "HtCap_L_OfficeOpn_WZn" = 0   $ Sizing
 "HtCap_L_OfficeSm_CZn" = 0   $ Sizing
 "HtCap_L_OfficeSm_EZn" = 0   $ Sizing
 "HtCap_L_OfficeSm_NZn" = 0   $ Sizing
 "HtCap_L_OfficeSm_SZn" = 0   $ Sizing
 "HtCap_L_OfficeSm_WZn" = 0   $ Sizing
 "HtCap_L_Restrm_CZn" = 0   $ Sizing
 "HtCap_L_StorSm_CZn" = 0   $ Sizing
 "HtCap_M_Break_CZn" = 0   $ Sizing
 "HtCap_M_Conf_CZn" = 0   $ Sizing
 "HtCap_M_CopyRm_CZn" = 0   $ Sizing
 "HtCap_M_Cordr_CZn" = 0   $ Sizing
 "HtCap_M_Cordr_EZn" = 0   $ Sizing
 "HtCap_M_Cordr_NZn" = 0   $ Sizing
 "HtCap_M_Cordr_SZn" = 0   $ Sizing
 "HtCap_M_Cordr_WZn" = 0   $ Sizing
 "HtCap_M_LobWait_CZn" = 0   $ Sizing
 "HtCap_M_MechElec_CZn" = 0   $ Sizing
 "HtCap_M_OfficeOpn_CZn" = 0   $ Sizing
 "HtCap_M_OfficeOpn_EZn" = 0   $ Sizing
 "HtCap_M_OfficeOpn_NZn" = 0   $ Sizing
 "HtCap_M_OfficeOpn_SZn" = 0   $ Sizing
 "HtCap_M_OfficeOpn_WZn" = 0   $ Sizing
 "HtCap_M_OfficeSm_CZn" = 0   $ Sizing
 "HtCap_M_OfficeSm_EZn" = 0   $ Sizing
 "HtCap_M_OfficeSm_NZn" = 0   $ Sizing
 "HtCap_M_OfficeSm_SZn" = 0   $ Sizing
 "HtCap_M_OfficeSm_WZn" = 0   $ Sizing
 "HtCap_M_Restrm_CZn" = 0   $ Sizing
 "HtCap_M_StorSm_CZn" = 0   $ Sizing
 "HtCap_Sys_L_Break_C" = -20952.84   $ Sizing
 "HtCap_Sys_L_Conf_C" = -25987.46   $ Sizing
 "HtCap_Sys_L_CopyRm_C" = -7415.066   $ Sizing
 "HtCap_Sys_L_Cordr_C" = -26746.58   $ Sizing
 "HtCap_Sys_L_Cordr_E" = -10535.58   $ Sizing
 "HtCap_Sys_L_Cordr_N" = -5452.72   $ Sizing
 "HtCap_Sys_L_Cordr_S" = -11244.1   $ Sizing
 "HtCap_Sys_L_Cordr_W" = -10279.16   $ Sizing
 "HtCap_Sys_L_LobWait_C" = -21060.25   $ Sizing
 "HtCap_Sys_L_MechElec_C" = -6258.946   $ Sizing
 "HtCap_Sys_L_OfficeOpn_C" = -87964.8   $ Sizing
 "HtCap_Sys_L_OfficeOpn_E" = -80541.36   $ Sizing
 "HtCap_Sys_L_OfficeOpn_N" = -36093.38   $ Sizing
 "HtCap_Sys_L_OfficeOpn_S" = -83286.66   $ Sizing
 "HtCap_Sys_L_OfficeOpn_W" = -77987.59   $ Sizing
 "HtCap_Sys_L_OfficeSm_C" = -9303.174   $ Sizing
 "HtCap_Sys_L_OfficeSm_E" = -59484.32   $ Sizing
 "HtCap_Sys_L_OfficeSm_N" = -22436.12   $ Sizing
 "HtCap_Sys_L_OfficeSm_S" = -62037.73   $ Sizing
 "HtCap_Sys_L_OfficeSm_W" = -57906.78   $ Sizing
 "HtCap_Sys_L_Restrm_C" = -8013.609   $ Sizing
 "HtCap_Sys_L_StorSm_C" = -16473.37   $ Sizing
 "HtCap_Sys_M_Break_C" = -175024.4   $ Sizing
 "HtCap_Sys_M_Conf_C" = -219772.9   $ Sizing
 "HtCap_Sys_M_CopyRm_C" = -65891.94   $ Sizing
 "HtCap_Sys_M_Cordr_C" = -270393.6   $ Sizing
 "HtCap_Sys_M_Cordr_E" = -97609.41   $ Sizing
 "HtCap_Sys_M_Cordr_N" = -47305.27   $ Sizing
 "HtCap_Sys_M_Cordr_S" = -104159.4   $ Sizing
 "HtCap_Sys_M_Cordr_W" = -91803.51   $ Sizing
 "HtCap_Sys_M_LobWait_C" = -193787.6   $ Sizing
 "HtCap_Sys_M_MechElec_C" = -52598.71   $ Sizing
 "HtCap_Sys_M_OfficeOpn_C" = -818782.9   $ Sizing
 "HtCap_Sys_M_OfficeOpn_E" = -685076.3   $ Sizing
 "HtCap_Sys_M_OfficeOpn_N" = -323268.5   $ Sizing
 "HtCap_Sys_M_OfficeOpn_S" = -730870.8   $ Sizing
 "HtCap_Sys_M_OfficeOpn_W" = -660483.7   $ Sizing
 "HtCap_Sys_M_OfficeSm_C" = -88735.67   $ Sizing
 "HtCap_Sys_M_OfficeSm_E" = -505525.3   $ Sizing
 "HtCap_Sys_M_OfficeSm_N" = -203588.3   $ Sizing
 "HtCap_Sys_M_OfficeSm_S" = -541375.4   $ Sizing
 "HtCap_Sys_M_OfficeSm_W" = -486972.8   $ Sizing
 "HtCap_Sys_M_Restrm_C" = -68972.7   $ Sizing
 "HtCap_Sys_M_StorSm_C" = -135360.9   $ Sizing
 "HtCap_Sys_T_Break_C" = -22022.25   $ Sizing
 "HtCap_Sys_T_Conf_C" = -27505.09   $ Sizing
 "HtCap_Sys_T_CopyRm_C" = -8201.907   $ Sizing
 "HtCap_Sys_T_Cordr_C" = -34187.94   $ Sizing
 "HtCap_Sys_T_Cordr_E" = -12558.4   $ Sizing
 "HtCap_Sys_T_Cordr_N" = -6008.32   $ Sizing
 "HtCap_Sys_T_Cordr_S" = -13760.86   $ Sizing
 "HtCap_Sys_T_Cordr_W" = -11942.25   $ Sizing
 "HtCap_Sys_T_LobWait_C" = -24172.72   $ Sizing
 "HtCap_Sys_T_MechElec_C" = -6773.021   $ Sizing
 "HtCap_Sys_T_OfficeOpn_C" = -84277.73   $ Sizing
 "HtCap_Sys_T_OfficeOpn_E" = -88580.09   $ Sizing
 "HtCap_Sys_T_OfficeOpn_N" = -43065.81   $ Sizing
 "HtCap_Sys_T_OfficeOpn_S" = -96288.71   $ Sizing
 "HtCap_Sys_T_OfficeOpn_W" = -85595.35   $ Sizing
 "HtCap_Sys_T_OfficeSm_C" = -11694.46   $ Sizing
 "HtCap_Sys_T_OfficeSm_E" = -66063.14   $ Sizing
 "HtCap_Sys_T_OfficeSm_N" = -27287   $ Sizing
 "HtCap_Sys_T_OfficeSm_S" = -72218.5   $ Sizing
 "HtCap_Sys_T_OfficeSm_W" = -64546.23   $ Sizing
 "HtCap_Sys_T_Restrm_C" = -9123.863   $ Sizing
 "HtCap_Sys_T_StorSm_C" = -17851.52   $ Sizing
 "HtCap_T_Break_CZn" = 0   $ Sizing
 "HtCap_T_Conf_CZn" = 0   $ Sizing
 "HtCap_T_CopyRm_CZn" = 0   $ Sizing
 "HtCap_T_Cordr_CZn" = 0   $ Sizing
 "HtCap_T_Cordr_EZn" = 0   $ Sizing
 "HtCap_T_Cordr_NZn" = 0   $ Sizing
 "HtCap_T_Cordr_SZn" = 0   $ Sizing
 "HtCap_T_Cordr_WZn" = 0   $ Sizing
 "HtCap_T_LobWait_CZn" = 0   $ Sizing
 "HtCap_T_MechElec_CZn" = 0   $ Sizing
 "HtCap_T_OfficeOpn_CZn" = 0   $ Sizing
 "HtCap_T_OfficeOpn_EZn" = 0   $ Sizing
 "HtCap_T_OfficeOpn_NZn" = 0   $ Sizing
 "HtCap_T_OfficeOpn_SZn" = 0   $ Sizing
 "HtCap_T_OfficeOpn_WZn" = 0   $ Sizing
 "HtCap_T_OfficeSm_CZn" = 0   $ Sizing
 "HtCap_T_OfficeSm_EZn" = 0   $ Sizing
 "HtCap_T_OfficeSm_NZn" = 0   $ Sizing
 "HtCap_T_OfficeSm_SZn" = 0   $ Sizing
 "HtCap_T_OfficeSm_WZn" = 0   $ Sizing
 "HtCap_T_Restrm_CZn" = 0   $ Sizing
 "HtCap_T_StorSm_CZn" = 0   $ Sizing
..

##include Templates\OfL_DX_SZ.inp
END ..
COMPUTE ..
STOP ..
