INPUT ..

##fileprefix C:\Users\jglasskatz\MASControl3\
##set1 IsSizing FALSE
##set1 CoolType DX
##set1 HeatType FURNACE
##set1 EU_HrRepVar 0
##set1 BldgVint 2007
##set1 BldgLoc CZ10

 ##set1 mBFMult 1   $ IP Tech: RefgChg-NRes-Std

PARAMETER
 "AltFactor" = 1.03143   $ IP Non-Tech
 "BF_fFlow" = SpltAC2SpHiSEER_BF_fFlow   $ Msr (Multi)TechID: MsrNResSplitAC-45to55-S17
 "BF_fT" = SpltAC2SpHiSEER_BF_fT   $ Msr (Multi)TechID: MsrNResSplitAC-45to55-S17
 "BldgEconoFlag" = 1   $ IP Non-Tech
 "Break_EWSF" = 1   $ IP Non-Tech
 "Break_LWSF" = 1.1   $ IP Non-Tech
 "CDD_DBHi10" = 92   $ IP Non-Tech
 "CDD_DBHi7" = 97   $ IP Non-Tech
 "CDD_DBHi8" = 99   $ IP Non-Tech
 "CDD_DBHi9" = 102   $ IP Non-Tech
 "CDD_DBRange10" = 19   $ IP Non-Tech
 "CDD_DBRange7" = 31   $ IP Non-Tech
 "CDD_DBRange8" = 31   $ IP Non-Tech
 "CDD_DBRange9" = 34   $ IP Non-Tech
 "CDD_Day10" = 15   $ IP Non-Tech
 "CDD_Day7" = 16   $ IP Non-Tech
 "CDD_Day8" = 20   $ IP Non-Tech
 "CDD_Day9" = 17   $ IP Non-Tech
 "CDD_HrHi10" = 15   $ IP Non-Tech
 "CDD_HrHi7" = 14   $ IP Non-Tech
 "CDD_HrHi8" = 14   $ IP Non-Tech
 "CDD_HrHi9" = 15   $ IP Non-Tech
 "CDD_HrLo10" = 3   $ IP Non-Tech
 "CDD_HrLo7" = 6   $ IP Non-Tech
 "CDD_HrLo8" = 5   $ IP Non-Tech
 "CDD_HrLo9" = 5   $ IP Non-Tech
 "CDD_WB10" = 62.63956451   $ IP Non-Tech
 "CDD_WB7" = 70.96998596   $ IP Non-Tech
 "CDD_WB8" = 71.98167419   $ IP Non-Tech
 "CDD_WB9" = 70.8795929   $ IP Non-Tech
 "CEIR_fPLR_Hot" = SpltAC2SpHiSEER_CEIR_fPLR_Hot   $ Msr (Multi)TechID: MsrNResSplitAC-45to55-S17
 "CEIR_fPLR_Mod" = SpltAC2SpHiSEER_CEIR_fPLR_Mod   $ Msr (Multi)TechID: MsrNResSplitAC-45to55-S17
 "CEIR_fPLR_Tem" = SpltAC2SpHiSEER_CEIR_fPLR_Tem   $ Msr (Multi)TechID: MsrNResSplitAC-45to55-S17
 "CLoss_fPLR_Hot" = SpltAC2SpHiSEER_CLoss_fPLR_Hot   $ Msr (Multi)TechID: MsrNResSplitAC-45to55-S17
 "CLoss_fPLR_Mod" = SpltAC2SpHiSEER_CLoss_fPLR_Mod   $ Msr (Multi)TechID: MsrNResSplitAC-45to55-S17
 "CLoss_fPLR_Tem" = SpltAC2SpHiSEER_CLoss_fPLR_Tem   $ Msr (Multi)TechID: MsrNResSplitAC-45to55-S17
 "COP47" = 0   $ Msr (Multi)TechID: MsrNResSplitAC-45to55-S17
 "CZ_Category" = Mod   $ IP Non-Tech
 "CapRange" = Any   $ Msr (Multi)TechID: MsrNResSplitAC-45to55-S17
 "CfmPerBtuh" = 0.03   $ Msr (Multi)TechID: MsrNResSplitAC-45to55-S17
 "ChwVintEconoFlag" = 1   $ IP Non-Tech
 "ClCap_fT" = SpltAC2SpHiSEER_ClCap_fT   $ Msr (Multi)TechID: MsrNResSplitAC-45to55-S17
 "ClSH_fT" = SpltAC2SpHiSEER_ClSH_fT   $ Msr (Multi)TechID: MsrNResSplitAC-45to55-S17
 "CoilBF" = 0.102   $ Msr (Multi)TechID: MsrNResSplitAC-45to55-S17
 "CondWPerBtuh" = 0   $ Msr (Multi)TechID: MsrNResSplitAC-45to55-S17
 "Conference_EWSF" = 1   $ IP Non-Tech
 "Conference_LWSF" = 1.4   $ IP Non-Tech
 "CoolSensCap" = 0.724   $ Msr (Multi)TechID: MsrNResSplitAC-45to55-S17
 "CoolSetT" = 45   $ IP Non-Tech
 "CoolType" = DX   $ IP Non-Tech
 "CoolingEIR" = 0.2225   $ Msr (Multi)TechID: MsrNResSplitAC-45to55-S17
 "CopyRoom_EWSF" = 1.5   $ IP Non-Tech
 "CopyRoom_LWSF" = 1.3   $ IP Non-Tech
 "CorridorStairway_EWSF" = 0.2   $ IP Non-Tech
 "CorridorStairway_LWSF" = 0.6   $ IP Non-Tech
 "CrnkEIR" = 0.002225   $ Msr (Multi)TechID: MsrNResSplitAC-45to55-S17
 "CrnkMaxT" = 50   $ Msr (Multi)TechID: MsrNResSplitAC-45to55-S17
 "DXType" = SplitSEER   $ Msr (Multi)TechID: MsrNResSplitAC-45to55-S17
 "DesCoolT" = 75   $ IP Non-Tech
 "DesHeatT" = 73   $ IP Non-Tech
 "EER" = 13.26   $ Msr (Multi)TechID: MsrNResSplitAC-45to55-S17
 "EIR_fT" = SpltAC2SpHiSEER_EIR_fT   $ Msr (Multi)TechID: MsrNResSplitAC-45to55-S17
 "EconoCtrl" = FIXED   $ Msr (Multi)TechID: MsrNResSplitAC-45to55-S17
 "EconoEnthLimit" = 28   $ IP Non-Tech
 "EconoTempLimit" = 73   $ IP Non-Tech
 "Elevation" = 840   $ IP Non-Tech
 "FanEirPlr" = TwoSpeedFan   $ Msr (Multi)TechID: MsrNResSplitAC-45to55-S17
 "FanWPerCfm" = 0.271   $ Msr (Multi)TechID: MsrNResSplitAC-45to55-S17
 "HDD_CloudAmt1" = 0   $ IP Non-Tech
 "HDD_DBHi1" = 53   $ IP Non-Tech
 "HDD_DBRange1" = 17   $ IP Non-Tech
 "HDD_Day1" = 15   $ IP Non-Tech
 "HDD_HrHi1" = 14   $ IP Non-Tech
 "HDD_HrLo1" = 5   $ IP Non-Tech
 "HDD_WB1" = 48.5   $ IP Non-Tech
 "HDD_WindSpd1" = 13.8   $ IP Non-Tech
 "HIR_fT" = 0   $ Msr (Multi)TechID: MsrNResSplitAC-45to55-S17
 "HSPF" = 0   $ Msr (Multi)TechID: MsrNResSplitAC-45to55-S17
 "HeatSrc" = FURNACE   $ IP Non-Tech
 "HeatSrcTU" = HEAT-PUMP   $ IP Non-Tech
 "HeatType" = GasFurn   $ IP Non-Tech
 "HeatTypeTU" = HEAT-PUMP   $ IP Non-Tech
 "HtCap_fT" = 0   $ Msr (Multi)TechID: MsrNResSplitAC-45to55-S17
 "HtCoolCapRatio" = 0   $ Msr (Multi)TechID: MsrNResSplitAC-45to55-S17
 "HtgEIR" = 0   $ Msr (Multi)TechID: MsrNResSplitAC-45to55-S17
 "IndoorFanMode" = CONTINUOUS   $ IP Non-Tech
 "KT_TransferAir" = No   $ IP Non-Tech
 "Latitude" = 34   $ IP Non-Tech
 "LobbyWaiting_EWSF" = 0.5   $ IP Non-Tech
 "LobbyWaiting_LWSF" = 1.3   $ IP Non-Tech
 "Longitude" = 117.4   $ IP Non-Tech
 "LowSpdCapRatio" = 0.686   $ Msr (Multi)TechID: MsrNResSplitAC-45to55-S17
 "LowSpdCfmRatio" = 0.739   $ Msr (Multi)TechID: MsrNResSplitAC-45to55-S17
 "MZFanMechEff" = 0.58   $ IP Non-Tech
 "MZHasRetFan" = FALSE   $ IP Non-Tech
 "MZ_RFanWPerCfm" = 0.37   $ IP Non-Tech
 "MZ_SFanWPerCfm" = 0.71   $ IP Non-Tech
 "MZ_SupFanStatic" = 2.25   $ IP Non-Tech
 "MaxOAFrac" = 1   $ Msr (Multi)TechID: MsrNResSplitAC-45to55-S17
 "MaxSupT_MZ" = 100   $ IP Non-Tech
 "MaxSupT_SZ" = 100   $ IP Non-Tech
 "MaxSupT_TU" = 90   $ IP Non-Tech
 "MechElecRoom_EWSF" = 0.2   $ IP Non-Tech
 "MechElecRoom_LWSF" = 0.7   $ IP Non-Tech
 "MinCfmPerSF" = 0.4   $ IP Non-Tech
 "MinSupT" = 55   $ IP Non-Tech
 "NumStages" = 2   $ Msr (Multi)TechID: MsrNResSplitAC-45to55-S17
 "OccCoolT" = 76   $ IP Non-Tech
 "OccHeatT" = 72   $ IP Non-Tech
 "OfficeOpen_EWSF" = 1.5   $ IP Non-Tech
 "OfficeOpen_LWSF" = 1.2   $ IP Non-Tech
 "OfficeSmall_EWSF" = 1.5   $ IP Non-Tech
 "OfficeSmall_LWSF" = 1.3   $ IP Non-Tech
 "PkgDxVintEconoFlag" = 0   $ IP Non-Tech
 "Restroom_EWSF" = 0.2   $ IP Non-Tech
 "Restroom_LWSF" = 0.6   $ IP Non-Tech
 "SEER" = 17   $ Msr (Multi)TechID: MsrNResSplitAC-45to55-S17
 "SZFanMechEff" = 0.58   $ IP Non-Tech
 "SZHasRetFan" = FALSE   $ IP Non-Tech
 "SZ_Is_2Spd" = FALSE   $ IP Non-Tech
 "SZ_SFanWPerCfm" = 0.46   $ IP Non-Tech
 "SZ_SupFanStatic" = 0.75   $ IP Non-Tech
 "Sector" = Any   $ Msr (Multi)TechID: MsrNResSplitAC-45to55-S17
 "StorageSmlCond_EWSF" = 0.2   $ IP Non-Tech
 "StorageSmlCond_LWSF" = 0.6   $ IP Non-Tech
 "SubType" = AC   $ Msr (Multi)TechID: MsrNResSplitAC-45to55-S17
 "T24GlzTbl" = CZTbl   $ IP Non-Tech
 "TermUnitFanMechEff" = 1   $ IP Non-Tech
 "TermUnitFanMode" = INTERMITTENT   $ IP Non-Tech
 "TotCoolCap" = 58805   $ Msr (Multi)TechID: MsrNResSplitAC-45to55-S17
 "TwrSetpt" = 82.2   $ IP Non-Tech
 "UnocCoolT" = 86   $ IP Non-Tech
 "UnocHeatT" = 62   $ IP Non-Tech
 "UseEconoVintApplic" = FALSE   $ Msr (Multi)TechID: MsrNResSplitAC-45to55-S17
 "WlhpVintEconoFlag" = 0   $ IP Non-Tech
 "DuctDT" = 1   $ IP Tech: ComDuctInsul-1
 "DuctAirLoss" = 0   $ IP Tech: ComDuctLeak-0
 "DuctLossOAFrac" = 0   $ IP Tech: ComDuctLeak-0
 "ComRoofInsCalc" = FromUo   $ IP Tech: ComRoofIns-Hvy-0.05
 "ComRoofInsR" = -999   $ IP Tech: ComRoofIns-Hvy-0.05
 "ComRoofUo" = 0.05   $ IP Tech: ComRoofIns-Hvy-0.05
 "ComEWInsCalc" = FromUo   $ IP Tech: ComWallIns-MFrm-0.13
 "ComEWInsR" = -999   $ IP Tech: ComWallIns-MFrm-0.13
 "ComEWUo" = 0.13   $ IP Tech: ComWallIns-MFrm-0.13
 "ComN_SHGC" = 0.47   $ IP Tech: NResWin-ComN-0.47-0.47
 "ComN_UFactor" = 0.47   $ IP Tech: NResWin-ComN-0.47-0.47
 "ComN_VisTrans" = 0.75   $ IP Tech: NResWin-ComN-0.47-0.47
 "ComN_WinCode" = G2633   $ IP Tech: NResWin-ComN-0.47-0.47
 "ComN_WinFrmFrac" = 0.17   $ IP Tech: NResWin-ComN-0.47-0.47
 "ComN_WinFrmU" = 0.3   $ IP Tech: NResWin-ComN-0.47-0.47
 "ComO_SHGC" = 0.31   $ IP Tech: NResWin-ComO-0.47-0.31
 "ComO_UFactor" = 0.47   $ IP Tech: NResWin-ComO-0.47-0.31
 "ComO_VisTrans" = 0.44   $ IP Tech: NResWin-ComO-0.47-0.31
 "ComO_WinCode" = G2637   $ IP Tech: NResWin-ComO-0.47-0.31
 "ComO_WinFrmFrac" = 0.17   $ IP Tech: NResWin-ComO-0.47-0.31
 "ComO_WinFrmU" = 0.3   $ IP Tech: NResWin-ComO-0.47-0.31
 "LtgMsrApplic" = ALL   $ IP Tech: NonResLtgRefPre
 "LtgSav_CFL" = 0   $ IP Tech: NonResLtgRefPre
 "LtgSav_EX" = 0   $ IP Tech: NonResLtgRefPre
 "LtgSav_HB" = 0   $ IP Tech: NonResLtgRefPre
 "LtgSav_LF" = 0   $ IP Tech: NonResLtgRefPre
 "LtgSav_SP" = 0   $ IP Tech: NonResLtgRefPre
 "CEIR_fPLR" = PSZ65to135_CEIR_fPLR   $ IP Tech: PkgAC1SpH-65to135-E10
 "CLoss_fPLR" = PSZ65to135_CLoss_fPLR   $ IP Tech: PkgAC1SpH-65to135-E10
 "COP" = -1   $ IP Tech: PkgAC1SpH-65to135-E10
 "HtgFuel" = Gas   $ IP Tech: PkgAC1SpH-65to135-E10
 "IEER" = 11.87   $ IP Tech: PkgAC1SpH-65to135-E10
 "NominalCap" = 15   $ IP Tech: PkgAC1SpH-65to135-E10
 "RatedEER" = 10   $ IP Tech: PkgAC1SpH-65to135-E10
 "RatedSupMtrClass" = HiEff   $ IP Tech: PkgAC1SpH-65to135-E10
 "SizeRange" = 65to135   $ IP Tech: PkgAC1SpH-65to135-E10
 "SupMotEff" = 0.84   $ IP Tech: PkgAC1SpH-65to135-E10
 "Tier" = 0   $ IP Tech: PkgAC1SpH-65to135-E10
 "FanPwrMult" = 1   $ IP Tech: PkgFurn-0.80AFUE
 "FurnAFUE" = 0.8   $ IP Tech: PkgFurn-0.80AFUE
 "FurnEt" = 0.82   $ IP Tech: PkgFurn-0.80AFUE
 "FurnaceAuxKW" = 0.1   $ IP Tech: PkgFurn-0.80AFUE
 "HIR_fPLR" = Furnace-HIR-fPLR   $ IP Tech: PkgFurn-0.80AFUE
 "VSM" = FALSE   $ IP Tech: PkgFurn-0.80AFUE
 "BFMult" = 1   $ IP Tech: RefgChg-NRes-Std
 "CoolEirMult" = 1   $ IP Tech: RefgChg-NRes-Std
 "SensCoolCapMult" = 1   $ IP Tech: RefgChg-NRes-Std
 "TotCoolCapMult" = 1   $ IP Tech: RefgChg-NRes-Std
 "AltAdjFactor" = 1.031429   $ Sizing
 "CAssFlo_L_Break_CZn" = 561.86   $ Sizing
 "CAssFlo_L_Conf_CZn" = 541.1838   $ Sizing
 "CAssFlo_L_CopyRm_CZn" = 174.9011   $ Sizing
 "CAssFlo_L_Cordr_CZn" = 647.7216   $ Sizing
 "CAssFlo_L_Cordr_EZn" = 223.0269   $ Sizing
 "CAssFlo_L_Cordr_NZn" = 157.3445   $ Sizing
 "CAssFlo_L_Cordr_SZn" = 238.0887   $ Sizing
 "CAssFlo_L_Cordr_WZn" = 264.657   $ Sizing
 "CAssFlo_L_LobWait_CZn" = 554.5231   $ Sizing
 "CAssFlo_L_MechElec_CZn" = 114.8346   $ Sizing
 "CAssFlo_L_OfficeOpn_CZn" = 1866.764   $ Sizing
 "CAssFlo_L_OfficeOpn_EZn" = 1594.538   $ Sizing
 "CAssFlo_L_OfficeOpn_NZn" = 1204.023   $ Sizing
 "CAssFlo_L_OfficeOpn_SZn" = 1684.533   $ Sizing
 "CAssFlo_L_OfficeOpn_WZn" = 1928.263   $ Sizing
 "CAssFlo_L_OfficeSm_CZn" = 236.2441   $ Sizing
 "CAssFlo_L_OfficeSm_EZn" = 1127.838   $ Sizing
 "CAssFlo_L_OfficeSm_NZn" = 779.9475   $ Sizing
 "CAssFlo_L_OfficeSm_SZn" = 1181.429   $ Sizing
 "CAssFlo_L_OfficeSm_WZn" = 1354.237   $ Sizing
 "CAssFlo_L_Restrm_CZn" = 92.29778   $ Sizing
 "CAssFlo_L_StorSm_CZn" = 360.6092   $ Sizing
 "CAssFlo_M_Break_CZn" = 567.8469   $ Sizing
 "CAssFlo_M_Conf_CZn" = 543.2489   $ Sizing
 "CAssFlo_M_CopyRm_CZn" = 168.8729   $ Sizing
 "CAssFlo_M_Cordr_CZn" = 839.7433   $ Sizing
 "CAssFlo_M_Cordr_EZn" = 257.4078   $ Sizing
 "CAssFlo_M_Cordr_NZn" = 178.1118   $ Sizing
 "CAssFlo_M_Cordr_SZn" = 264.6993   $ Sizing
 "CAssFlo_M_Cordr_WZn" = 284.1503   $ Sizing
 "CAssFlo_M_LobWait_CZn" = 576.9261   $ Sizing
 "CAssFlo_M_MechElec_CZn" = 144.8043   $ Sizing
 "CAssFlo_M_OfficeOpn_CZn" = 1887.933   $ Sizing
 "CAssFlo_M_OfficeOpn_EZn" = 1714.984   $ Sizing
 "CAssFlo_M_OfficeOpn_NZn" = 1270.368   $ Sizing
 "CAssFlo_M_OfficeOpn_SZn" = 1797.377   $ Sizing
 "CAssFlo_M_OfficeOpn_WZn" = 1995.405   $ Sizing
 "CAssFlo_M_OfficeSm_CZn" = 276.2977   $ Sizing
 "CAssFlo_M_OfficeSm_EZn" = 1200.454   $ Sizing
 "CAssFlo_M_OfficeSm_NZn" = 819.9753   $ Sizing
 "CAssFlo_M_OfficeSm_SZn" = 1250.428   $ Sizing
 "CAssFlo_M_OfficeSm_WZn" = 1390.479   $ Sizing
 "CAssFlo_M_Restrm_CZn" = 99.63007   $ Sizing
 "CAssFlo_M_StorSm_CZn" = 386.2367   $ Sizing
 "CAssFlo_T_Break_CZn" = 559.1018   $ Sizing
 "CAssFlo_T_Conf_CZn" = 537.4451   $ Sizing
 "CAssFlo_T_CopyRm_CZn" = 168.8833   $ Sizing
 "CAssFlo_T_Cordr_CZn" = 783.4578   $ Sizing
 "CAssFlo_T_Cordr_EZn" = 248.5674   $ Sizing
 "CAssFlo_T_Cordr_NZn" = 177.4542   $ Sizing
 "CAssFlo_T_Cordr_SZn" = 266.7758   $ Sizing
 "CAssFlo_T_Cordr_WZn" = 280.9139   $ Sizing
 "CAssFlo_T_LobWait_CZn" = 577.4465   $ Sizing
 "CAssFlo_T_MechElec_CZn" = 162.4044   $ Sizing
 "CAssFlo_T_OfficeOpn_CZn" = 1925.92   $ Sizing
 "CAssFlo_T_OfficeOpn_EZn" = 1678.094   $ Sizing
 "CAssFlo_T_OfficeOpn_NZn" = 1285.94   $ Sizing
 "CAssFlo_T_OfficeOpn_SZn" = 1827.965   $ Sizing
 "CAssFlo_T_OfficeOpn_WZn" = 1977.365   $ Sizing
 "CAssFlo_T_OfficeSm_CZn" = 265.1944   $ Sizing
 "CAssFlo_T_OfficeSm_EZn" = 1206.709   $ Sizing
 "CAssFlo_T_OfficeSm_NZn" = 836.5121   $ Sizing
 "CAssFlo_T_OfficeSm_SZn" = 1285.368   $ Sizing
 "CAssFlo_T_OfficeSm_WZn" = 1402.586   $ Sizing
 "CAssFlo_T_Restrm_CZn" = 137.5961   $ Sizing
 "CAssFlo_T_StorSm_CZn" = 274.2457   $ Sizing
 "CHRtFlo_Sys_L_Break_C" = 561.86   $ Sizing
 "CHRtFlo_Sys_L_Conf_C" = 541.1838   $ Sizing
 "CHRtFlo_Sys_L_CopyRm_C" = 174.9011   $ Sizing
 "CHRtFlo_Sys_L_Cordr_C" = 664.9385   $ Sizing
 "CHRtFlo_Sys_L_Cordr_E" = 258.7069   $ Sizing
 "CHRtFlo_Sys_L_Cordr_N" = 157.3445   $ Sizing
 "CHRtFlo_Sys_L_Cordr_S" = 264.4557   $ Sizing
 "CHRtFlo_Sys_L_Cordr_W" = 264.657   $ Sizing
 "CHRtFlo_Sys_L_LobWait_C" = 554.5231   $ Sizing
 "CHRtFlo_Sys_L_MechElec_C" = 140.3965   $ Sizing
 "CHRtFlo_Sys_L_OfficeOpn_C" = 1866.764   $ Sizing
 "CHRtFlo_Sys_L_OfficeOpn_E" = 1891.241   $ Sizing
 "CHRtFlo_Sys_L_OfficeOpn_N" = 1204.023   $ Sizing
 "CHRtFlo_Sys_L_OfficeOpn_S" = 1896.565   $ Sizing
 "CHRtFlo_Sys_L_OfficeOpn_W" = 1953.959   $ Sizing
 "CHRtFlo_Sys_L_OfficeSm_C" = 261.0125   $ Sizing
 "CHRtFlo_Sys_L_OfficeSm_E" = 1360.786   $ Sizing
 "CHRtFlo_Sys_L_OfficeSm_N" = 779.9474   $ Sizing
 "CHRtFlo_Sys_L_OfficeSm_S" = 1381.679   $ Sizing
 "CHRtFlo_Sys_L_OfficeSm_W" = 1403.322   $ Sizing
 "CHRtFlo_Sys_L_Restrm_C" = 216.8861   $ Sizing
 "CHRtFlo_Sys_L_StorSm_C" = 440.0947   $ Sizing
 "CHRtFlo_Sys_M_Break_C" = 4542.775   $ Sizing
 "CHRtFlo_Sys_M_Conf_C" = 4364.57   $ Sizing
 "CHRtFlo_Sys_M_CopyRm_C" = 1350.983   $ Sizing
 "CHRtFlo_Sys_M_Cordr_C" = 8146.746   $ Sizing
 "CHRtFlo_Sys_M_Cordr_E" = 2446.822   $ Sizing
 "CHRtFlo_Sys_M_Cordr_N" = 1439.92   $ Sizing
 "CHRtFlo_Sys_M_Cordr_S" = 2414.77   $ Sizing
 "CHRtFlo_Sys_M_Cordr_W" = 2273.202   $ Sizing
 "CHRtFlo_Sys_M_LobWait_C" = 4673.957   $ Sizing
 "CHRtFlo_Sys_M_MechElec_C" = 1475.449   $ Sizing
 "CHRtFlo_Sys_M_OfficeOpn_C" = 17565.09   $ Sizing
 "CHRtFlo_Sys_M_OfficeOpn_E" = 16489.21   $ Sizing
 "CHRtFlo_Sys_M_OfficeOpn_N" = 10162.95   $ Sizing
 "CHRtFlo_Sys_M_OfficeOpn_S" = 16381.16   $ Sizing
 "CHRtFlo_Sys_M_OfficeOpn_W" = 16302.39   $ Sizing
 "CHRtFlo_Sys_M_OfficeSm_C" = 2680.007   $ Sizing
 "CHRtFlo_Sys_M_OfficeSm_E" = 11700.65   $ Sizing
 "CHRtFlo_Sys_M_OfficeSm_N" = 6559.803   $ Sizing
 "CHRtFlo_Sys_M_OfficeSm_S" = 11796.99   $ Sizing
 "CHRtFlo_Sys_M_OfficeSm_W" = 11601.56   $ Sizing
 "CHRtFlo_Sys_M_Restrm_C" = 1735.089   $ Sizing
 "CHRtFlo_Sys_M_StorSm_C" = 3758.398   $ Sizing
 "CHRtFlo_Sys_T_Break_C" = 559.1018   $ Sizing
 "CHRtFlo_Sys_T_Conf_C" = 537.4451   $ Sizing
 "CHRtFlo_Sys_T_CopyRm_C" = 168.8833   $ Sizing
 "CHRtFlo_Sys_T_Cordr_C" = 859.3153   $ Sizing
 "CHRtFlo_Sys_T_Cordr_E" = 267.7495   $ Sizing
 "CHRtFlo_Sys_T_Cordr_N" = 177.4542   $ Sizing
 "CHRtFlo_Sys_T_Cordr_S" = 272.0245   $ Sizing
 "CHRtFlo_Sys_T_Cordr_W" = 280.9139   $ Sizing
 "CHRtFlo_Sys_T_LobWait_C" = 577.4465   $ Sizing
 "CHRtFlo_Sys_T_MechElec_C" = 214.1955   $ Sizing
 "CHRtFlo_Sys_T_OfficeOpn_C" = 1925.92   $ Sizing
 "CHRtFlo_Sys_T_OfficeOpn_E" = 1862.193   $ Sizing
 "CHRtFlo_Sys_T_OfficeOpn_N" = 1285.94   $ Sizing
 "CHRtFlo_Sys_T_OfficeOpn_S" = 1907.624   $ Sizing
 "CHRtFlo_Sys_T_OfficeOpn_W" = 1977.365   $ Sizing
 "CHRtFlo_Sys_T_OfficeSm_C" = 295.4284   $ Sizing
 "CHRtFlo_Sys_T_OfficeSm_E" = 1360.731   $ Sizing
 "CHRtFlo_Sys_T_OfficeSm_N" = 836.5121   $ Sizing
 "CHRtFlo_Sys_T_OfficeSm_S" = 1400.68   $ Sizing
 "CHRtFlo_Sys_T_OfficeSm_W" = 1402.586   $ Sizing
 "CHRtFlo_Sys_T_Restrm_C" = 216.8861   $ Sizing
 "CHRtFlo_Sys_T_StorSm_C" = 342.0135   $ Sizing
 "CRtdFlo_Sys_L_Break_C" = 561.86   $ Sizing
 "CRtdFlo_Sys_L_Conf_C" = 541.1838   $ Sizing
 "CRtdFlo_Sys_L_CopyRm_C" = 174.9011   $ Sizing
 "CRtdFlo_Sys_L_Cordr_C" = 647.7216   $ Sizing
 "CRtdFlo_Sys_L_Cordr_E" = 223.0269   $ Sizing
 "CRtdFlo_Sys_L_Cordr_N" = 157.3445   $ Sizing
 "CRtdFlo_Sys_L_Cordr_S" = 238.0887   $ Sizing
 "CRtdFlo_Sys_L_Cordr_W" = 264.657   $ Sizing
 "CRtdFlo_Sys_L_LobWait_C" = 554.5231   $ Sizing
 "CRtdFlo_Sys_L_MechElec_C" = 114.8346   $ Sizing
 "CRtdFlo_Sys_L_OfficeOpn_C" = 1866.764   $ Sizing
 "CRtdFlo_Sys_L_OfficeOpn_E" = 1594.538   $ Sizing
 "CRtdFlo_Sys_L_OfficeOpn_N" = 1204.023   $ Sizing
 "CRtdFlo_Sys_L_OfficeOpn_S" = 1684.533   $ Sizing
 "CRtdFlo_Sys_L_OfficeOpn_W" = 1928.263   $ Sizing
 "CRtdFlo_Sys_L_OfficeSm_C" = 236.2442   $ Sizing
 "CRtdFlo_Sys_L_OfficeSm_E" = 1127.838   $ Sizing
 "CRtdFlo_Sys_L_OfficeSm_N" = 779.9474   $ Sizing
 "CRtdFlo_Sys_L_OfficeSm_S" = 1181.429   $ Sizing
 "CRtdFlo_Sys_L_OfficeSm_W" = 1354.237   $ Sizing
 "CRtdFlo_Sys_L_Restrm_C" = 92.29778   $ Sizing
 "CRtdFlo_Sys_L_StorSm_C" = 360.6092   $ Sizing
 "CRtdFlo_Sys_M_Break_C" = 4542.775   $ Sizing
 "CRtdFlo_Sys_M_Conf_C" = 4345.991   $ Sizing
 "CRtdFlo_Sys_M_CopyRm_C" = 1350.983   $ Sizing
 "CRtdFlo_Sys_M_Cordr_C" = 6717.947   $ Sizing
 "CRtdFlo_Sys_M_Cordr_E" = 2059.263   $ Sizing
 "CRtdFlo_Sys_M_Cordr_N" = 1424.895   $ Sizing
 "CRtdFlo_Sys_M_Cordr_S" = 2117.595   $ Sizing
 "CRtdFlo_Sys_M_Cordr_W" = 2273.202   $ Sizing
 "CRtdFlo_Sys_M_LobWait_C" = 4615.409   $ Sizing
 "CRtdFlo_Sys_M_MechElec_C" = 1158.434   $ Sizing
 "CRtdFlo_Sys_M_OfficeOpn_C" = 15103.46   $ Sizing
 "CRtdFlo_Sys_M_OfficeOpn_E" = 13719.87   $ Sizing
 "CRtdFlo_Sys_M_OfficeOpn_N" = 10162.95   $ Sizing
 "CRtdFlo_Sys_M_OfficeOpn_S" = 14379.02   $ Sizing
 "CRtdFlo_Sys_M_OfficeOpn_W" = 15963.24   $ Sizing
 "CRtdFlo_Sys_M_OfficeSm_C" = 2210.382   $ Sizing
 "CRtdFlo_Sys_M_OfficeSm_E" = 9603.631   $ Sizing
 "CRtdFlo_Sys_M_OfficeSm_N" = 6559.803   $ Sizing
 "CRtdFlo_Sys_M_OfficeSm_S" = 10003.42   $ Sizing
 "CRtdFlo_Sys_M_OfficeSm_W" = 11123.83   $ Sizing
 "CRtdFlo_Sys_M_Restrm_C" = 797.0406   $ Sizing
 "CRtdFlo_Sys_M_StorSm_C" = 3089.894   $ Sizing
 "CRtdFlo_Sys_T_Break_C" = 559.1018   $ Sizing
 "CRtdFlo_Sys_T_Conf_C" = 537.4451   $ Sizing
 "CRtdFlo_Sys_T_CopyRm_C" = 168.8833   $ Sizing
 "CRtdFlo_Sys_T_Cordr_C" = 783.4578   $ Sizing
 "CRtdFlo_Sys_T_Cordr_E" = 248.5674   $ Sizing
 "CRtdFlo_Sys_T_Cordr_N" = 177.4542   $ Sizing
 "CRtdFlo_Sys_T_Cordr_S" = 266.7758   $ Sizing
 "CRtdFlo_Sys_T_Cordr_W" = 280.9139   $ Sizing
 "CRtdFlo_Sys_T_LobWait_C" = 577.4465   $ Sizing
 "CRtdFlo_Sys_T_MechElec_C" = 162.4044   $ Sizing
 "CRtdFlo_Sys_T_OfficeOpn_C" = 1925.92   $ Sizing
 "CRtdFlo_Sys_T_OfficeOpn_E" = 1678.094   $ Sizing
 "CRtdFlo_Sys_T_OfficeOpn_N" = 1285.94   $ Sizing
 "CRtdFlo_Sys_T_OfficeOpn_S" = 1827.965   $ Sizing
 "CRtdFlo_Sys_T_OfficeOpn_W" = 1977.365   $ Sizing
 "CRtdFlo_Sys_T_OfficeSm_C" = 265.1944   $ Sizing
 "CRtdFlo_Sys_T_OfficeSm_E" = 1206.709   $ Sizing
 "CRtdFlo_Sys_T_OfficeSm_N" = 836.5121   $ Sizing
 "CRtdFlo_Sys_T_OfficeSm_S" = 1285.368   $ Sizing
 "CRtdFlo_Sys_T_OfficeSm_W" = 1402.586   $ Sizing
 "CRtdFlo_Sys_T_Restrm_C" = 137.5961   $ Sizing
 "CRtdFlo_Sys_T_StorSm_C" = 274.2457   $ Sizing
 "CSupFlo_Sys_L_Break_C" = 561.86   $ Sizing
 "CSupFlo_Sys_L_Conf_C" = 541.1838   $ Sizing
 "CSupFlo_Sys_L_CopyRm_C" = 174.9011   $ Sizing
 "CSupFlo_Sys_L_Cordr_C" = 647.7216   $ Sizing
 "CSupFlo_Sys_L_Cordr_E" = 223.0269   $ Sizing
 "CSupFlo_Sys_L_Cordr_N" = 157.3445   $ Sizing
 "CSupFlo_Sys_L_Cordr_S" = 238.0887   $ Sizing
 "CSupFlo_Sys_L_Cordr_W" = 264.657   $ Sizing
 "CSupFlo_Sys_L_LobWait_C" = 554.5231   $ Sizing
 "CSupFlo_Sys_L_MechElec_C" = 114.8346   $ Sizing
 "CSupFlo_Sys_L_OfficeOpn_C" = 1866.764   $ Sizing
 "CSupFlo_Sys_L_OfficeOpn_E" = 1594.538   $ Sizing
 "CSupFlo_Sys_L_OfficeOpn_N" = 1204.023   $ Sizing
 "CSupFlo_Sys_L_OfficeOpn_S" = 1684.533   $ Sizing
 "CSupFlo_Sys_L_OfficeOpn_W" = 1928.263   $ Sizing
 "CSupFlo_Sys_L_OfficeSm_C" = 236.2442   $ Sizing
 "CSupFlo_Sys_L_OfficeSm_E" = 1127.838   $ Sizing
 "CSupFlo_Sys_L_OfficeSm_N" = 779.9474   $ Sizing
 "CSupFlo_Sys_L_OfficeSm_S" = 1181.429   $ Sizing
 "CSupFlo_Sys_L_OfficeSm_W" = 1354.237   $ Sizing
 "CSupFlo_Sys_L_Restrm_C" = 92.29778   $ Sizing
 "CSupFlo_Sys_L_StorSm_C" = 360.6092   $ Sizing
 "CSupFlo_Sys_M_Break_C" = 4542.775   $ Sizing
 "CSupFlo_Sys_M_Conf_C" = 4345.991   $ Sizing
 "CSupFlo_Sys_M_CopyRm_C" = 1350.983   $ Sizing
 "CSupFlo_Sys_M_Cordr_C" = 6717.947   $ Sizing
 "CSupFlo_Sys_M_Cordr_E" = 2059.263   $ Sizing
 "CSupFlo_Sys_M_Cordr_N" = 1424.895   $ Sizing
 "CSupFlo_Sys_M_Cordr_S" = 2117.595   $ Sizing
 "CSupFlo_Sys_M_Cordr_W" = 2273.202   $ Sizing
 "CSupFlo_Sys_M_LobWait_C" = 4615.409   $ Sizing
 "CSupFlo_Sys_M_MechElec_C" = 1158.434   $ Sizing
 "CSupFlo_Sys_M_OfficeOpn_C" = 15103.46   $ Sizing
 "CSupFlo_Sys_M_OfficeOpn_E" = 13719.87   $ Sizing
 "CSupFlo_Sys_M_OfficeOpn_N" = 10162.95   $ Sizing
 "CSupFlo_Sys_M_OfficeOpn_S" = 14379.02   $ Sizing
 "CSupFlo_Sys_M_OfficeOpn_W" = 15963.24   $ Sizing
 "CSupFlo_Sys_M_OfficeSm_C" = 2210.382   $ Sizing
 "CSupFlo_Sys_M_OfficeSm_E" = 9603.631   $ Sizing
 "CSupFlo_Sys_M_OfficeSm_N" = 6559.803   $ Sizing
 "CSupFlo_Sys_M_OfficeSm_S" = 10003.42   $ Sizing
 "CSupFlo_Sys_M_OfficeSm_W" = 11123.83   $ Sizing
 "CSupFlo_Sys_M_Restrm_C" = 797.0406   $ Sizing
 "CSupFlo_Sys_M_StorSm_C" = 3089.894   $ Sizing
 "CSupFlo_Sys_T_Break_C" = 559.1018   $ Sizing
 "CSupFlo_Sys_T_Conf_C" = 537.4451   $ Sizing
 "CSupFlo_Sys_T_CopyRm_C" = 168.8833   $ Sizing
 "CSupFlo_Sys_T_Cordr_C" = 783.4578   $ Sizing
 "CSupFlo_Sys_T_Cordr_E" = 248.5674   $ Sizing
 "CSupFlo_Sys_T_Cordr_N" = 177.4542   $ Sizing
 "CSupFlo_Sys_T_Cordr_S" = 266.7758   $ Sizing
 "CSupFlo_Sys_T_Cordr_W" = 280.9139   $ Sizing
 "CSupFlo_Sys_T_LobWait_C" = 577.4465   $ Sizing
 "CSupFlo_Sys_T_MechElec_C" = 162.4044   $ Sizing
 "CSupFlo_Sys_T_OfficeOpn_C" = 1925.92   $ Sizing
 "CSupFlo_Sys_T_OfficeOpn_E" = 1678.094   $ Sizing
 "CSupFlo_Sys_T_OfficeOpn_N" = 1285.94   $ Sizing
 "CSupFlo_Sys_T_OfficeOpn_S" = 1827.965   $ Sizing
 "CSupFlo_Sys_T_OfficeOpn_W" = 1977.365   $ Sizing
 "CSupFlo_Sys_T_OfficeSm_C" = 265.1944   $ Sizing
 "CSupFlo_Sys_T_OfficeSm_E" = 1206.709   $ Sizing
 "CSupFlo_Sys_T_OfficeSm_N" = 836.5121   $ Sizing
 "CSupFlo_Sys_T_OfficeSm_S" = 1285.368   $ Sizing
 "CSupFlo_Sys_T_OfficeSm_W" = 1402.586   $ Sizing
 "CSupFlo_Sys_T_Restrm_C" = 137.5961   $ Sizing
 "CSupFlo_Sys_T_StorSm_C" = 274.2457   $ Sizing
 "ClCap_Sys_L_Break_C" = 18676.78   $ Sizing
 "ClCap_Sys_L_Conf_C" = 22895.7   $ Sizing
 "ClCap_Sys_L_CopyRm_C" = 5813.882   $ Sizing
 "ClCap_Sys_L_Cordr_C" = 21530.9   $ Sizing
 "ClCap_Sys_L_Cordr_E" = 7413.63   $ Sizing
 "ClCap_Sys_L_Cordr_N" = 5230.285   $ Sizing
 "ClCap_Sys_L_Cordr_S" = 7914.299   $ Sizing
 "ClCap_Sys_L_Cordr_W" = 8797.456   $ Sizing
 "ClCap_Sys_L_LobWait_C" = 18432.89   $ Sizing
 "ClCap_Sys_L_MechElec_C" = 3817.215   $ Sizing
 "ClCap_Sys_L_OfficeOpn_C" = 62053.05   $ Sizing
 "ClCap_Sys_L_OfficeOpn_E" = 53004   $ Sizing
 "ClCap_Sys_L_OfficeOpn_N" = 40022.91   $ Sizing
 "ClCap_Sys_L_OfficeOpn_S" = 55995.52   $ Sizing
 "ClCap_Sys_L_OfficeOpn_W" = 64097.36   $ Sizing
 "ClCap_Sys_L_OfficeSm_C" = 7852.986   $ Sizing
 "ClCap_Sys_L_OfficeSm_E" = 37490.43   $ Sizing
 "ClCap_Sys_L_OfficeSm_N" = 25926.21   $ Sizing
 "ClCap_Sys_L_OfficeSm_S" = 39271.86   $ Sizing
 "ClCap_Sys_L_OfficeSm_W" = 45016.15   $ Sizing
 "ClCap_Sys_L_Restrm_C" = 3068.068   $ Sizing
 "ClCap_Sys_L_StorSm_C" = 11987   $ Sizing
 "ClCap_Sys_M_Break_C" = 151006.3   $ Sizing
 "ClCap_Sys_M_Conf_C" = 183864.5   $ Sizing
 "ClCap_Sys_M_CopyRm_C" = 44908   $ Sizing
 "ClCap_Sys_M_Cordr_C" = 223311.1   $ Sizing
 "ClCap_Sys_M_Cordr_E" = 68451.9   $ Sizing
 "ClCap_Sys_M_Cordr_N" = 47364.88   $ Sizing
 "ClCap_Sys_M_Cordr_S" = 70390.91   $ Sizing
 "ClCap_Sys_M_Cordr_W" = 75563.46   $ Sizing
 "ClCap_Sys_M_LobWait_C" = 153420.7   $ Sizing
 "ClCap_Sys_M_MechElec_C" = 38507.48   $ Sizing
 "ClCap_Sys_M_OfficeOpn_C" = 502053.8   $ Sizing
 "ClCap_Sys_M_OfficeOpn_E" = 456061.9   $ Sizing
 "ClCap_Sys_M_OfficeOpn_N" = 337826.2   $ Sizing
 "ClCap_Sys_M_OfficeOpn_S" = 477972.6   $ Sizing
 "ClCap_Sys_M_OfficeOpn_W" = 530633.8   $ Sizing
 "ClCap_Sys_M_OfficeSm_C" = 73475.23   $ Sizing
 "ClCap_Sys_M_OfficeSm_E" = 319234   $ Sizing
 "ClCap_Sys_M_OfficeSm_N" = 218054.2   $ Sizing
 "ClCap_Sys_M_OfficeSm_S" = 332523.6   $ Sizing
 "ClCap_Sys_M_OfficeSm_W" = 369767.1   $ Sizing
 "ClCap_Sys_M_Restrm_C" = 26494.41   $ Sizing
 "ClCap_Sys_M_StorSm_C" = 102711.1   $ Sizing
 "ClCap_Sys_T_Break_C" = 18585.09   $ Sizing
 "ClCap_Sys_T_Conf_C" = 22737.52   $ Sizing
 "ClCap_Sys_T_CopyRm_C" = 5613.846   $ Sizing
 "ClCap_Sys_T_Cordr_C" = 26042.9   $ Sizing
 "ClCap_Sys_T_Cordr_E" = 8262.624   $ Sizing
 "ClCap_Sys_T_Cordr_N" = 5898.75   $ Sizing
 "ClCap_Sys_T_Cordr_S" = 8867.889   $ Sizing
 "ClCap_Sys_T_Cordr_W" = 9337.851   $ Sizing
 "ClCap_Sys_T_LobWait_C" = 19194.88   $ Sizing
 "ClCap_Sys_T_MechElec_C" = 5398.479   $ Sizing
 "ClCap_Sys_T_OfficeOpn_C" = 64019.46   $ Sizing
 "ClCap_Sys_T_OfficeOpn_E" = 55781.49   $ Sizing
 "ClCap_Sys_T_OfficeOpn_N" = 42745.91   $ Sizing
 "ClCap_Sys_T_OfficeOpn_S" = 60763.35   $ Sizing
 "ClCap_Sys_T_OfficeOpn_W" = 65729.52   $ Sizing
 "ClCap_Sys_T_OfficeSm_C" = 8815.32   $ Sizing
 "ClCap_Sys_T_OfficeSm_E" = 40112.18   $ Sizing
 "ClCap_Sys_T_OfficeSm_N" = 27806.48   $ Sizing
 "ClCap_Sys_T_OfficeSm_S" = 42726.9   $ Sizing
 "ClCap_Sys_T_OfficeSm_W" = 46623.33   $ Sizing
 "ClCap_Sys_T_Restrm_C" = 4573.83   $ Sizing
 "ClCap_Sys_T_StorSm_C" = 9116.195   $ Sizing
 "HtCap_Sys_L_Break_C" = -28922.53   $ Sizing
 "HtCap_Sys_L_Conf_C" = -29011.2   $ Sizing
 "HtCap_Sys_L_CopyRm_C" = -10273.88   $ Sizing
 "HtCap_Sys_L_Cordr_C" = -27633.92   $ Sizing
 "HtCap_Sys_L_Cordr_E" = -8802.622   $ Sizing
 "HtCap_Sys_L_Cordr_N" = -6175.963   $ Sizing
 "HtCap_Sys_L_Cordr_S" = -8941.546   $ Sizing
 "HtCap_Sys_L_Cordr_W" = -9018.207   $ Sizing
 "HtCap_Sys_L_LobWait_C" = -27839.72   $ Sizing
 "HtCap_Sys_L_MechElec_C" = -6041.934   $ Sizing
 "HtCap_Sys_L_OfficeOpn_C" = -88622.56   $ Sizing
 "HtCap_Sys_L_OfficeOpn_E" = -61219.84   $ Sizing
 "HtCap_Sys_L_OfficeOpn_N" = -42793.62   $ Sizing
 "HtCap_Sys_L_OfficeOpn_S" = -61127.47   $ Sizing
 "HtCap_Sys_L_OfficeOpn_W" = -62973.5   $ Sizing
 "HtCap_Sys_L_OfficeSm_C" = -9706.497   $ Sizing
 "HtCap_Sys_L_OfficeSm_E" = -43063.89   $ Sizing
 "HtCap_Sys_L_OfficeSm_N" = -27848.26   $ Sizing
 "HtCap_Sys_L_OfficeSm_S" = -43327.31   $ Sizing
 "HtCap_Sys_L_OfficeSm_W" = -45270.26   $ Sizing
 "HtCap_Sys_L_Restrm_C" = -7701.405   $ Sizing
 "HtCap_Sys_L_StorSm_C" = -17895.12   $ Sizing
 "HtCap_Sys_M_Break_C" = -222406   $ Sizing
 "HtCap_Sys_M_Conf_C" = -219129.9   $ Sizing
 "HtCap_Sys_M_CopyRm_C" = -70393.42   $ Sizing
 "HtCap_Sys_M_Cordr_C" = -299088   $ Sizing
 "HtCap_Sys_M_Cordr_E" = -80987.36   $ Sizing
 "HtCap_Sys_M_Cordr_N" = -52896.83   $ Sizing
 "HtCap_Sys_M_Cordr_S" = -79651.27   $ Sizing
 "HtCap_Sys_M_Cordr_W" = -76072.66   $ Sizing
 "HtCap_Sys_M_LobWait_C" = -207320.1   $ Sizing
 "HtCap_Sys_M_MechElec_C" = -58007.51   $ Sizing
 "HtCap_Sys_M_OfficeOpn_C" = -831159.4   $ Sizing
 "HtCap_Sys_M_OfficeOpn_E" = -525946.9   $ Sizing
 "HtCap_Sys_M_OfficeOpn_N" = -354805.1   $ Sizing
 "HtCap_Sys_M_OfficeOpn_S" = -521048.8   $ Sizing
 "HtCap_Sys_M_OfficeOpn_W" = -521478.7   $ Sizing
 "HtCap_Sys_M_OfficeSm_C" = -94135.18   $ Sizing
 "HtCap_Sys_M_OfficeSm_E" = -368837.9   $ Sizing
 "HtCap_Sys_M_OfficeSm_N" = -230372.1   $ Sizing
 "HtCap_Sys_M_OfficeSm_S" = -373761.8   $ Sizing
 "HtCap_Sys_M_OfficeSm_W" = -371530.7   $ Sizing
 "HtCap_Sys_M_Restrm_C" = -66335.47   $ Sizing
 "HtCap_Sys_M_StorSm_C" = -145870.6   $ Sizing
 "HtCap_Sys_T_Break_C" = -29737.67   $ Sizing
 "HtCap_Sys_T_Conf_C" = -29094.18   $ Sizing
 "HtCap_Sys_T_CopyRm_C" = -9842.448   $ Sizing
 "HtCap_Sys_T_Cordr_C" = -36807.94   $ Sizing
 "HtCap_Sys_T_Cordr_E" = -10307.62   $ Sizing
 "HtCap_Sys_T_Cordr_N" = -7607.723   $ Sizing
 "HtCap_Sys_T_Cordr_S" = -10031.48   $ Sizing
 "HtCap_Sys_T_Cordr_W" = -10927   $ Sizing
 "HtCap_Sys_T_LobWait_C" = -28717.71   $ Sizing
 "HtCap_Sys_T_MechElec_C" = -8071.923   $ Sizing
 "HtCap_Sys_T_OfficeOpn_C" = -91496.09   $ Sizing
 "HtCap_Sys_T_OfficeOpn_E" = -67950.72   $ Sizing
 "HtCap_Sys_T_OfficeOpn_N" = -51733.43   $ Sizing
 "HtCap_Sys_T_OfficeOpn_S" = -69586.48   $ Sizing
 "HtCap_Sys_T_OfficeOpn_W" = -71990.48   $ Sizing
 "HtCap_Sys_T_OfficeSm_C" = -11992.08   $ Sizing
 "HtCap_Sys_T_OfficeSm_E" = -49830.92   $ Sizing
 "HtCap_Sys_T_OfficeSm_N" = -33609.59   $ Sizing
 "HtCap_Sys_T_OfficeSm_S" = -51093.37   $ Sizing
 "HtCap_Sys_T_OfficeSm_W" = -51599.72   $ Sizing
 "HtCap_Sys_T_Restrm_C" = -8695.482   $ Sizing
 "HtCap_Sys_T_StorSm_C" = -16098.51   $ Sizing
..

##include Templates\OfL_DX_SZ.inp
END ..
COMPUTE ..
STOP ..
