INPUT ..

##fileprefix C:\Users\jglasskatz\MASControl3\
##set1 IsSizing FALSE
##set1 CoolType DX
##set1 HeatType FURNACE
##set1 EU_HrRepVar 0
##set1 BldgVint 2020
##set1 BldgLoc CZ01

 ##set1 mBFMult 1   $ IP Tech: RefgChg-NRes-Std

PARAMETER
 "AltFactor" = 1.00753   $ IP Non-Tech
 "BF_fFlow" = SpltAC1Sp-ge45_BF_fFlow   $ Msr (Var)TechID: PreNResSplitAC-45to-PENo
 "BF_fT" = SpltAC1Sp-ge45_BF_fT   $ Msr (Var)TechID: PreNResSplitAC-45to-PENo
 "BldgEconoFlag" = 1   $ IP Non-Tech
 "Break_EWSF" = 1   $ IP Non-Tech
 "Break_LWSF" = 0.65   $ IP Non-Tech
 "CDD_DBHi10" = 65   $ IP Non-Tech
 "CDD_DBHi7" = 68   $ IP Non-Tech
 "CDD_DBHi8" = 66   $ IP Non-Tech
 "CDD_DBHi9" = 77   $ IP Non-Tech
 "CDD_DBRange10" = 17   $ IP Non-Tech
 "CDD_DBRange7" = 11   $ IP Non-Tech
 "CDD_DBRange8" = 10   $ IP Non-Tech
 "CDD_DBRange9" = 29   $ IP Non-Tech
 "CDD_Day10" = 15   $ IP Non-Tech
 "CDD_Day7" = 16   $ IP Non-Tech
 "CDD_Day8" = 20   $ IP Non-Tech
 "CDD_Day9" = 17   $ IP Non-Tech
 "CDD_HrHi10" = 12   $ IP Non-Tech
 "CDD_HrHi7" = 12   $ IP Non-Tech
 "CDD_HrHi8" = 13   $ IP Non-Tech
 "CDD_HrHi9" = 17   $ IP Non-Tech
 "CDD_HrLo10" = 6   $ IP Non-Tech
 "CDD_HrLo7" = 3   $ IP Non-Tech
 "CDD_HrLo8" = 8   $ IP Non-Tech
 "CDD_HrLo9" = 4   $ IP Non-Tech
 "CDD_WB10" = 57.53039551   $ IP Non-Tech
 "CDD_WB7" = 59.29250717   $ IP Non-Tech
 "CDD_WB8" = 60.75350189   $ IP Non-Tech
 "CDD_WB9" = 61.08643341   $ IP Non-Tech
 "CEIR_fPLR_Hot" = SpltAC1Sp-ge45_CEIR_fPLR_Hot   $ Msr (Var)TechID: PreNResSplitAC-45to-PENo
 "CEIR_fPLR_Mod" = SpltAC1Sp-ge45_CEIR_fPLR_Mod   $ Msr (Var)TechID: PreNResSplitAC-45to-PENo
 "CEIR_fPLR_Tem" = SpltAC1Sp-ge45_CEIR_fPLR_Tem   $ Msr (Var)TechID: PreNResSplitAC-45to-PENo
 "CLoss_fPLR_Hot" = SpltAC1Sp-ge45_CLoss_fPLR_Hot   $ Msr (Var)TechID: PreNResSplitAC-45to-PENo
 "CLoss_fPLR_Mod" = SpltAC1Sp-ge45_CLoss_fPLR_Mod   $ Msr (Var)TechID: PreNResSplitAC-45to-PENo
 "CLoss_fPLR_Tem" = SpltAC1Sp-ge45_CLoss_fPLR_Tem   $ Msr (Var)TechID: PreNResSplitAC-45to-PENo
 "COP47" = 0   $ Msr (Var)TechID: PreNResSplitAC-45to-PENo
 "CZ_Category" = Tem   $ IP Non-Tech
 "CapRange" = ge45   $ Msr (Var)TechID: PreNResSplitAC-45to-PENo
 "CfmPerBtuh" = 0.03263   $ Msr (Var)TechID: PreNResSplitAC-45to-PENo
 "ChwVintEconoFlag" = 1   $ IP Non-Tech
 "ClCap_fT" = SpltAC1Sp-ge45_ClCap_fT   $ Msr (Var)TechID: PreNResSplitAC-45to-PENo
 "ClSH_fT" = SpltAC1Sp-ge45_ClSH_fT   $ Msr (Var)TechID: PreNResSplitAC-45to-PENo
 "CoilBF" = 0.106518182   $ Msr (Var)TechID: PreNResSplitAC-45to-PENo
 "CondWPerBtuh" = 0   $ Msr (Var)TechID: PreNResSplitAC-45to-PENo
 "Conference_EWSF" = 1   $ IP Non-Tech
 "Conference_LWSF" = 0.85   $ IP Non-Tech
 "CoolSensCap" = 0.759218182   $ Msr (Var)TechID: PreNResSplitAC-45to-PENo
 "CoolSetT" = 45   $ IP Non-Tech
 "CoolType" = DX   $ IP Non-Tech
 "CoolingEIR" = 0.2466   $ Msr (Var)TechID: PreNResSplitAC-45to-PENo
 "CopyRoom_EWSF" = 1.5   $ IP Non-Tech
 "CopyRoom_LWSF" = 0.5   $ IP Non-Tech
 "CorridorStairway_EWSF" = 0.2   $ IP Non-Tech
 "CorridorStairway_LWSF" = 0.55   $ IP Non-Tech
 "CrnkEIR" = 0.002466   $ Msr (Var)TechID: PreNResSplitAC-45to-PENo
 "CrnkMaxT" = 50   $ Msr (Var)TechID: PreNResSplitAC-45to-PENo
 "DXType" = SplitSEER   $ Msr (Var)TechID: PreNResSplitAC-45to-PENo
 "DesCoolT" = 75   $ IP Non-Tech
 "DesHeatT" = 73   $ IP Non-Tech
 "EER" = 11.81793103   $ Msr (Var)TechID: PreNResSplitAC-45to-PENo
 "EIR_fT" = SpltAC1Sp-ge45_EIR_fT   $ Msr (Var)TechID: PreNResSplitAC-45to-PENo
 "EconoCtrl" = FIXED   $ Msr (Multi)TechID: PreNResSplitAC-45to-PENo
 "EconoEnthLimit" = 28   $ IP Non-Tech
 "EconoTempLimit" = 70   $ IP Non-Tech
 "Elevation" = 203   $ IP Non-Tech
 "FanEirPlr" = TwoSpeedFan   $ Msr (Var)TechID: PreNResSplitAC-45to-PENo
 "FanWPerCfm" = 0.294   $ Msr (Var)TechID: PreNResSplitAC-45to-PENo
 "HDD_CloudAmt1" = 0   $ IP Non-Tech
 "HDD_DBHi1" = 53   $ IP Non-Tech
 "HDD_DBRange1" = 20   $ IP Non-Tech
 "HDD_Day1" = 15   $ IP Non-Tech
 "HDD_HrHi1" = 14   $ IP Non-Tech
 "HDD_HrLo1" = 6   $ IP Non-Tech
 "HDD_WB1" = 42.3   $ IP Non-Tech
 "HDD_WindSpd1" = 12.7   $ IP Non-Tech
 "HIR_fT" = 0   $ Msr (Var)TechID: PreNResSplitAC-45to-PENo
 "HSPF" = 0   $ Msr (Var)TechID: PreNResSplitAC-45to-PENo
 "HeatSrc" = FURNACE   $ IP Non-Tech
 "HeatSrcTU" = HEAT-PUMP   $ IP Non-Tech
 "HeatType" = GasFurn   $ IP Non-Tech
 "HeatTypeTU" = HEAT-PUMP   $ IP Non-Tech
 "HtCap_fT" = 0   $ Msr (Var)TechID: PreNResSplitAC-45to-PENo
 "HtCoolCapRatio" = 0   $ Msr (Var)TechID: PreNResSplitAC-45to-PENo
 "HtgEIR" = 0   $ Msr (Var)TechID: PreNResSplitAC-45to-PENo
 "IndoorFanMode" = CONTINUOUS   $ IP Non-Tech
 "KT_TransferAir" = Yes   $ IP Non-Tech
 "Latitude" = 40.8   $ IP Non-Tech
 "LobbyWaiting_EWSF" = 0.5   $ IP Non-Tech
 "LobbyWaiting_LWSF" = 0.75   $ IP Non-Tech
 "Longitude" = 124.2   $ IP Non-Tech
 "LowSpdCapRatio" = 1   $ Msr (Var)TechID: PreNResSplitAC-45to-PENo
 "LowSpdCfmRatio" = 1   $ Msr (Var)TechID: PreNResSplitAC-45to-PENo
 "MZFanMechEff" = 0.58   $ IP Non-Tech
 "MZHasRetFan" = FALSE   $ IP Non-Tech
 "MZ_RFanWPerCfm" = 0.37   $ IP Non-Tech
 "MZ_SFanWPerCfm" = 0.71   $ IP Non-Tech
 "MZ_SupFanStatic" = 2.25   $ IP Non-Tech
 "MaxOAFrac" = 1   $ Msr (Multi)TechID: PreNResSplitAC-45to-PENo
 "MaxSupT_MZ" = 100   $ IP Non-Tech
 "MaxSupT_SZ" = 100   $ IP Non-Tech
 "MaxSupT_TU" = 90   $ IP Non-Tech
 "MechElecRoom_EWSF" = 0.2   $ IP Non-Tech
 "MechElecRoom_LWSF" = 0.4   $ IP Non-Tech
 "MinCfmPerSF" = 0.4   $ IP Non-Tech
 "MinSupT" = 55   $ IP Non-Tech
 "NumStages" = 1   $ Msr (Var)TechID: PreNResSplitAC-45to-PENo
 "OccCoolT" = 76   $ IP Non-Tech
 "OccHeatT" = 72   $ IP Non-Tech
 "OfficeOpen_EWSF" = 1.5   $ IP Non-Tech
 "OfficeOpen_LWSF" = 0.8   $ IP Non-Tech
 "OfficeSmall_EWSF" = 1.5   $ IP Non-Tech
 "OfficeSmall_LWSF" = 0.9   $ IP Non-Tech
 "PkgDxVintEconoFlag" = 1   $ IP Non-Tech
 "Restroom_EWSF" = 0.2   $ IP Non-Tech
 "Restroom_LWSF" = 0.65   $ IP Non-Tech
 "SEER" = 14   $ Msr (Var)TechID: PreNResSplitAC-45to-PENo
 "SZFanMechEff" = 0.58   $ IP Non-Tech
 "SZHasRetFan" = FALSE   $ IP Non-Tech
 "SZ_Is_2Spd" = TRUE   $ IP Non-Tech
 "SZ_SFanWPerCfm" = 0.46   $ IP Non-Tech
 "SZ_SupFanStatic" = 0.75   $ IP Non-Tech
 "Sector" = Any   $ Msr (Var)TechID: PreNResSplitAC-45to-PENo
 "StorageSmlCond_EWSF" = 0.2   $ IP Non-Tech
 "StorageSmlCond_LWSF" = 0.45   $ IP Non-Tech
 "SubType" = AC   $ Msr (Var)TechID: PreNResSplitAC-45to-PENo
 "TermUnitFanMechEff" = 1   $ IP Non-Tech
 "TermUnitFanMode" = INTERMITTENT   $ IP Non-Tech
 "TotCoolCap" = 52519.36364   $ Msr (Var)TechID: PreNResSplitAC-45to-PENo
 "TwrSetpt" = 80   $ IP Non-Tech
 "UnocCoolT" = 86   $ IP Non-Tech
 "UnocHeatT" = 62   $ IP Non-Tech
 "UseEconoVintApplic" = FALSE   $ Msr (Multi)TechID: PreNResSplitAC-45to-PENo
 "WlhpVintEconoFlag" = 1   $ IP Non-Tech
 "DuctDT" = 1   $ IP Tech: ComDuctInsul-1
 "DuctAirLoss" = 0   $ IP Tech: ComDuctLeak-0
 "DuctLossOAFrac" = 0   $ IP Tech: ComDuctLeak-0
 "ComRoofInsCalc" = FromUo   $ IP Tech: ComRoofIns-Hvy-0.03
 "ComRoofInsR" = -999   $ IP Tech: ComRoofIns-Hvy-0.03
 "ComRoofUo" = 0.03   $ IP Tech: ComRoofIns-Hvy-0.03
 "ComEWInsCalc" = FromUo   $ IP Tech: ComWallIns-MFrm-0.07
 "ComEWInsR" = -999   $ IP Tech: ComWallIns-MFrm-0.07
 "ComEWUo" = 0.07   $ IP Tech: ComWallIns-MFrm-0.07
 "ComN_SHGC" = 0.26   $ IP Tech: NResWin-ComN-0.41-0.26
 "ComN_UFactor" = 0.41   $ IP Tech: NResWin-ComN-0.41-0.26
 "ComN_VisTrans" = 0.41   $ IP Tech: NResWin-ComN-0.41-0.26
 "ComN_WinCode" = G2666   $ IP Tech: NResWin-ComN-0.41-0.26
 "ComN_WinFrmFrac" = 0.17   $ IP Tech: NResWin-ComN-0.41-0.26
 "ComN_WinFrmU" = 0.3   $ IP Tech: NResWin-ComN-0.41-0.26
 "ComO_SHGC" = 0.26   $ IP Tech: NResWin-ComO-0.41-0.26
 "ComO_UFactor" = 0.41   $ IP Tech: NResWin-ComO-0.41-0.26
 "ComO_VisTrans" = 0.41   $ IP Tech: NResWin-ComO-0.41-0.26
 "ComO_WinCode" = G2666   $ IP Tech: NResWin-ComO-0.41-0.26
 "ComO_WinFrmFrac" = 0.17   $ IP Tech: NResWin-ComO-0.41-0.26
 "ComO_WinFrmU" = 0.3   $ IP Tech: NResWin-ComO-0.41-0.26
 "LtgMsrApplic" = ALL   $ IP Tech: NonResLtgRefPre
 "LtgSav_CFL" = 0   $ IP Tech: NonResLtgRefPre
 "LtgSav_EX" = 0   $ IP Tech: NonResLtgRefPre
 "LtgSav_HB" = 0   $ IP Tech: NonResLtgRefPre
 "LtgSav_LF" = 0   $ IP Tech: NonResLtgRefPre
 "LtgSav_SP" = 0   $ IP Tech: NonResLtgRefPre
 "CEIR_fPLR" = PSZ65to135_CEIR_fPLR   $ IP Tech: PkgAC2SpP-65to135-E11
 "CLoss_fPLR" = PSZ65to135_CLoss_fPLR   $ IP Tech: PkgAC2SpP-65to135-E11
 "COP" = -1   $ IP Tech: PkgAC2SpP-65to135-E11
 "HtgFuel" = Gas   $ IP Tech: PkgAC2SpP-65to135-E11
 "IEER" = 13.35   $ IP Tech: PkgAC2SpP-65to135-E11
 "NominalCap" = 15   $ IP Tech: PkgAC2SpP-65to135-E11
 "RatedEER" = 11   $ IP Tech: PkgAC2SpP-65to135-E11
 "RatedSupMtrClass" = Premium   $ IP Tech: PkgAC2SpP-65to135-E11
 "SizeRange" = 65to135   $ IP Tech: PkgAC2SpP-65to135-E11
 "SupMotEff" = 0.865   $ IP Tech: PkgAC2SpP-65to135-E11
 "Tier" = 0   $ IP Tech: PkgAC2SpP-65to135-E11
 "FanPwrMult" = 1   $ IP Tech: PkgFurn-0.80AFUE
 "FurnAFUE" = 0.8   $ IP Tech: PkgFurn-0.80AFUE
 "FurnEt" = 0.82   $ IP Tech: PkgFurn-0.80AFUE
 "FurnaceAuxKW" = 0.1   $ IP Tech: PkgFurn-0.80AFUE
 "HIR_fPLR" = Furnace-HIR-fPLR   $ IP Tech: PkgFurn-0.80AFUE
 "VSM" = FALSE   $ IP Tech: PkgFurn-0.80AFUE
 "BFMult" = 1   $ IP Tech: RefgChg-NRes-Std
 "CoolEirMult" = 1   $ IP Tech: RefgChg-NRes-Std
 "SensCoolCapMult" = 1   $ IP Tech: RefgChg-NRes-Std
 "TotCoolCapMult" = 1   $ IP Tech: RefgChg-NRes-Std
 "AltAdjFactor" = 1.007532   $ Sizing
 "CAssFlo_L_Break_CZn" = 338.6699   $ Sizing
 "CAssFlo_L_Conf_CZn" = 395.8239   $ Sizing
 "CAssFlo_L_CopyRm_CZn" = 97.13982   $ Sizing
 "CAssFlo_L_Cordr_CZn" = 565.4379   $ Sizing
 "CAssFlo_L_Cordr_EZn" = 184.2061   $ Sizing
 "CAssFlo_L_Cordr_NZn" = 94.24052   $ Sizing
 "CAssFlo_L_Cordr_SZn" = 194.8697   $ Sizing
 "CAssFlo_L_Cordr_WZn" = 180.1848   $ Sizing
 "CAssFlo_L_LobWait_CZn" = 280.8625   $ Sizing
 "CAssFlo_L_MechElec_CZn" = 134.1697   $ Sizing
 "CAssFlo_L_OfficeOpn_CZn" = 1513.082   $ Sizing
 "CAssFlo_L_OfficeOpn_EZn" = 1532.305   $ Sizing
 "CAssFlo_L_OfficeOpn_NZn" = 655.5168   $ Sizing
 "CAssFlo_L_OfficeOpn_SZn" = 1556.382   $ Sizing
 "CAssFlo_L_OfficeOpn_WZn" = 1482.399   $ Sizing
 "CAssFlo_L_OfficeSm_CZn" = 206.6502   $ Sizing
 "CAssFlo_L_OfficeSm_EZn" = 1090.755   $ Sizing
 "CAssFlo_L_OfficeSm_NZn" = 383.7424   $ Sizing
 "CAssFlo_L_OfficeSm_SZn" = 1132.134   $ Sizing
 "CAssFlo_L_OfficeSm_WZn" = 1057.703   $ Sizing
 "CAssFlo_L_Restrm_CZn" = 211.8611   $ Sizing
 "CAssFlo_L_StorSm_CZn" = 334.0894   $ Sizing
 "CAssFlo_M_Break_CZn" = 373.6851   $ Sizing
 "CAssFlo_M_Conf_CZn" = 444.9141   $ Sizing
 "CAssFlo_M_CopyRm_CZn" = 126.9753   $ Sizing
 "CAssFlo_M_Cordr_CZn" = 714.6007   $ Sizing
 "CAssFlo_M_Cordr_EZn" = 237.9437   $ Sizing
 "CAssFlo_M_Cordr_NZn" = 94.24052   $ Sizing
 "CAssFlo_M_Cordr_SZn" = 238.0266   $ Sizing
 "CAssFlo_M_Cordr_WZn" = 214.6067   $ Sizing
 "CAssFlo_M_LobWait_CZn" = 382.1433   $ Sizing
 "CAssFlo_M_MechElec_CZn" = 134.1697   $ Sizing
 "CAssFlo_M_OfficeOpn_CZn" = 1811.033   $ Sizing
 "CAssFlo_M_OfficeOpn_EZn" = 1731.249   $ Sizing
 "CAssFlo_M_OfficeOpn_NZn" = 806.8449   $ Sizing
 "CAssFlo_M_OfficeOpn_SZn" = 1732.18   $ Sizing
 "CAssFlo_M_OfficeOpn_WZn" = 1595.179   $ Sizing
 "CAssFlo_M_OfficeSm_CZn" = 255.203   $ Sizing
 "CAssFlo_M_OfficeSm_EZn" = 1216.267   $ Sizing
 "CAssFlo_M_OfficeSm_NZn" = 475.5482   $ Sizing
 "CAssFlo_M_OfficeSm_SZn" = 1249.825   $ Sizing
 "CAssFlo_M_OfficeSm_WZn" = 1140.278   $ Sizing
 "CAssFlo_M_Restrm_CZn" = 211.8611   $ Sizing
 "CAssFlo_M_StorSm_CZn" = 334.0894   $ Sizing
 "CAssFlo_T_Break_CZn" = 352.9453   $ Sizing
 "CAssFlo_T_Conf_CZn" = 422.4017   $ Sizing
 "CAssFlo_T_CopyRm_CZn" = 113.0668   $ Sizing
 "CAssFlo_T_Cordr_CZn" = 613.1072   $ Sizing
 "CAssFlo_T_Cordr_EZn" = 212.7984   $ Sizing
 "CAssFlo_T_Cordr_NZn" = 94.24052   $ Sizing
 "CAssFlo_T_Cordr_SZn" = 217.9111   $ Sizing
 "CAssFlo_T_Cordr_WZn" = 194.6908   $ Sizing
 "CAssFlo_T_LobWait_CZn" = 347.7395   $ Sizing
 "CAssFlo_T_MechElec_CZn" = 134.1697   $ Sizing
 "CAssFlo_T_OfficeOpn_CZn" = 1682.933   $ Sizing
 "CAssFlo_T_OfficeOpn_EZn" = 1568.018   $ Sizing
 "CAssFlo_T_OfficeOpn_NZn" = 746.3898   $ Sizing
 "CAssFlo_T_OfficeOpn_SZn" = 1624.679   $ Sizing
 "CAssFlo_T_OfficeOpn_WZn" = 1472.876   $ Sizing
 "CAssFlo_T_OfficeSm_CZn" = 250.607   $ Sizing
 "CAssFlo_T_OfficeSm_EZn" = 1141.135   $ Sizing
 "CAssFlo_T_OfficeSm_NZn" = 453.6645   $ Sizing
 "CAssFlo_T_OfficeSm_SZn" = 1197.866   $ Sizing
 "CAssFlo_T_OfficeSm_WZn" = 1081.478   $ Sizing
 "CAssFlo_T_Restrm_CZn" = 211.8611   $ Sizing
 "CAssFlo_T_StorSm_CZn" = 334.0894   $ Sizing
 "CHRtFlo_Sys_L_Break_C" = 338.6699   $ Sizing
 "CHRtFlo_Sys_L_Conf_C" = 395.8239   $ Sizing
 "CHRtFlo_Sys_L_CopyRm_C" = 97.13982   $ Sizing
 "CHRtFlo_Sys_L_Cordr_C" = 565.4379   $ Sizing
 "CHRtFlo_Sys_L_Cordr_E" = 184.2061   $ Sizing
 "CHRtFlo_Sys_L_Cordr_N" = 94.24052   $ Sizing
 "CHRtFlo_Sys_L_Cordr_S" = 194.8697   $ Sizing
 "CHRtFlo_Sys_L_Cordr_W" = 180.1848   $ Sizing
 "CHRtFlo_Sys_L_LobWait_C" = 280.8625   $ Sizing
 "CHRtFlo_Sys_L_MechElec_C" = 134.1697   $ Sizing
 "CHRtFlo_Sys_L_OfficeOpn_C" = 1513.082   $ Sizing
 "CHRtFlo_Sys_L_OfficeOpn_E" = 1532.305   $ Sizing
 "CHRtFlo_Sys_L_OfficeOpn_N" = 655.5168   $ Sizing
 "CHRtFlo_Sys_L_OfficeOpn_S" = 1556.382   $ Sizing
 "CHRtFlo_Sys_L_OfficeOpn_W" = 1482.399   $ Sizing
 "CHRtFlo_Sys_L_OfficeSm_C" = 206.6502   $ Sizing
 "CHRtFlo_Sys_L_OfficeSm_E" = 1090.755   $ Sizing
 "CHRtFlo_Sys_L_OfficeSm_N" = 383.7424   $ Sizing
 "CHRtFlo_Sys_L_OfficeSm_S" = 1132.134   $ Sizing
 "CHRtFlo_Sys_L_OfficeSm_W" = 1057.703   $ Sizing
 "CHRtFlo_Sys_L_Restrm_C" = 211.8611   $ Sizing
 "CHRtFlo_Sys_L_StorSm_C" = 334.0894   $ Sizing
 "CHRtFlo_Sys_M_Break_C" = 2989.481   $ Sizing
 "CHRtFlo_Sys_M_Conf_C" = 3559.313   $ Sizing
 "CHRtFlo_Sys_M_CopyRm_C" = 1015.802   $ Sizing
 "CHRtFlo_Sys_M_Cordr_C" = 5716.806   $ Sizing
 "CHRtFlo_Sys_M_Cordr_E" = 1903.55   $ Sizing
 "CHRtFlo_Sys_M_Cordr_N" = 753.9242   $ Sizing
 "CHRtFlo_Sys_M_Cordr_S" = 1904.213   $ Sizing
 "CHRtFlo_Sys_M_Cordr_W" = 1716.854   $ Sizing
 "CHRtFlo_Sys_M_LobWait_C" = 3057.147   $ Sizing
 "CHRtFlo_Sys_M_MechElec_C" = 1073.357   $ Sizing
 "CHRtFlo_Sys_M_OfficeOpn_C" = 14488.27   $ Sizing
 "CHRtFlo_Sys_M_OfficeOpn_E" = 13850   $ Sizing
 "CHRtFlo_Sys_M_OfficeOpn_N" = 6454.759   $ Sizing
 "CHRtFlo_Sys_M_OfficeOpn_S" = 13857.44   $ Sizing
 "CHRtFlo_Sys_M_OfficeOpn_W" = 12761.43   $ Sizing
 "CHRtFlo_Sys_M_OfficeSm_C" = 2041.624   $ Sizing
 "CHRtFlo_Sys_M_OfficeSm_E" = 9730.139   $ Sizing
 "CHRtFlo_Sys_M_OfficeSm_N" = 3804.385   $ Sizing
 "CHRtFlo_Sys_M_OfficeSm_S" = 9998.603   $ Sizing
 "CHRtFlo_Sys_M_OfficeSm_W" = 9122.221   $ Sizing
 "CHRtFlo_Sys_M_Restrm_C" = 1694.889   $ Sizing
 "CHRtFlo_Sys_M_StorSm_C" = 2672.715   $ Sizing
 "CHRtFlo_Sys_T_Break_C" = 352.9453   $ Sizing
 "CHRtFlo_Sys_T_Conf_C" = 422.4017   $ Sizing
 "CHRtFlo_Sys_T_CopyRm_C" = 113.0668   $ Sizing
 "CHRtFlo_Sys_T_Cordr_C" = 613.1072   $ Sizing
 "CHRtFlo_Sys_T_Cordr_E" = 212.7984   $ Sizing
 "CHRtFlo_Sys_T_Cordr_N" = 94.24052   $ Sizing
 "CHRtFlo_Sys_T_Cordr_S" = 217.9111   $ Sizing
 "CHRtFlo_Sys_T_Cordr_W" = 194.6908   $ Sizing
 "CHRtFlo_Sys_T_LobWait_C" = 347.7395   $ Sizing
 "CHRtFlo_Sys_T_MechElec_C" = 134.1697   $ Sizing
 "CHRtFlo_Sys_T_OfficeOpn_C" = 1682.933   $ Sizing
 "CHRtFlo_Sys_T_OfficeOpn_E" = 1568.018   $ Sizing
 "CHRtFlo_Sys_T_OfficeOpn_N" = 746.3898   $ Sizing
 "CHRtFlo_Sys_T_OfficeOpn_S" = 1624.679   $ Sizing
 "CHRtFlo_Sys_T_OfficeOpn_W" = 1472.876   $ Sizing
 "CHRtFlo_Sys_T_OfficeSm_C" = 250.607   $ Sizing
 "CHRtFlo_Sys_T_OfficeSm_E" = 1141.135   $ Sizing
 "CHRtFlo_Sys_T_OfficeSm_N" = 453.6645   $ Sizing
 "CHRtFlo_Sys_T_OfficeSm_S" = 1197.866   $ Sizing
 "CHRtFlo_Sys_T_OfficeSm_W" = 1081.478   $ Sizing
 "CHRtFlo_Sys_T_Restrm_C" = 211.8611   $ Sizing
 "CHRtFlo_Sys_T_StorSm_C" = 334.0894   $ Sizing
 "CRtdFlo_Sys_L_Break_C" = 338.6699   $ Sizing
 "CRtdFlo_Sys_L_Conf_C" = 395.8239   $ Sizing
 "CRtdFlo_Sys_L_CopyRm_C" = 97.13982   $ Sizing
 "CRtdFlo_Sys_L_Cordr_C" = 565.4379   $ Sizing
 "CRtdFlo_Sys_L_Cordr_E" = 184.2061   $ Sizing
 "CRtdFlo_Sys_L_Cordr_N" = 94.24052   $ Sizing
 "CRtdFlo_Sys_L_Cordr_S" = 194.8697   $ Sizing
 "CRtdFlo_Sys_L_Cordr_W" = 180.1848   $ Sizing
 "CRtdFlo_Sys_L_LobWait_C" = 280.8625   $ Sizing
 "CRtdFlo_Sys_L_MechElec_C" = 134.1697   $ Sizing
 "CRtdFlo_Sys_L_OfficeOpn_C" = 1513.082   $ Sizing
 "CRtdFlo_Sys_L_OfficeOpn_E" = 1532.305   $ Sizing
 "CRtdFlo_Sys_L_OfficeOpn_N" = 655.5168   $ Sizing
 "CRtdFlo_Sys_L_OfficeOpn_S" = 1556.382   $ Sizing
 "CRtdFlo_Sys_L_OfficeOpn_W" = 1482.399   $ Sizing
 "CRtdFlo_Sys_L_OfficeSm_C" = 206.6502   $ Sizing
 "CRtdFlo_Sys_L_OfficeSm_E" = 1090.755   $ Sizing
 "CRtdFlo_Sys_L_OfficeSm_N" = 383.7424   $ Sizing
 "CRtdFlo_Sys_L_OfficeSm_S" = 1132.134   $ Sizing
 "CRtdFlo_Sys_L_OfficeSm_W" = 1057.703   $ Sizing
 "CRtdFlo_Sys_L_Restrm_C" = 211.8611   $ Sizing
 "CRtdFlo_Sys_L_StorSm_C" = 334.0894   $ Sizing
 "CRtdFlo_Sys_M_Break_C" = 2989.481   $ Sizing
 "CRtdFlo_Sys_M_Conf_C" = 3559.313   $ Sizing
 "CRtdFlo_Sys_M_CopyRm_C" = 1015.802   $ Sizing
 "CRtdFlo_Sys_M_Cordr_C" = 5716.806   $ Sizing
 "CRtdFlo_Sys_M_Cordr_E" = 1903.55   $ Sizing
 "CRtdFlo_Sys_M_Cordr_N" = 753.9242   $ Sizing
 "CRtdFlo_Sys_M_Cordr_S" = 1904.213   $ Sizing
 "CRtdFlo_Sys_M_Cordr_W" = 1716.854   $ Sizing
 "CRtdFlo_Sys_M_LobWait_C" = 3057.147   $ Sizing
 "CRtdFlo_Sys_M_MechElec_C" = 1073.357   $ Sizing
 "CRtdFlo_Sys_M_OfficeOpn_C" = 14488.27   $ Sizing
 "CRtdFlo_Sys_M_OfficeOpn_E" = 13850   $ Sizing
 "CRtdFlo_Sys_M_OfficeOpn_N" = 6454.759   $ Sizing
 "CRtdFlo_Sys_M_OfficeOpn_S" = 13857.44   $ Sizing
 "CRtdFlo_Sys_M_OfficeOpn_W" = 12761.43   $ Sizing
 "CRtdFlo_Sys_M_OfficeSm_C" = 2041.624   $ Sizing
 "CRtdFlo_Sys_M_OfficeSm_E" = 9730.139   $ Sizing
 "CRtdFlo_Sys_M_OfficeSm_N" = 3804.385   $ Sizing
 "CRtdFlo_Sys_M_OfficeSm_S" = 9998.603   $ Sizing
 "CRtdFlo_Sys_M_OfficeSm_W" = 9122.221   $ Sizing
 "CRtdFlo_Sys_M_Restrm_C" = 1694.889   $ Sizing
 "CRtdFlo_Sys_M_StorSm_C" = 2672.715   $ Sizing
 "CRtdFlo_Sys_T_Break_C" = 352.9453   $ Sizing
 "CRtdFlo_Sys_T_Conf_C" = 422.4017   $ Sizing
 "CRtdFlo_Sys_T_CopyRm_C" = 113.0668   $ Sizing
 "CRtdFlo_Sys_T_Cordr_C" = 613.1072   $ Sizing
 "CRtdFlo_Sys_T_Cordr_E" = 212.7984   $ Sizing
 "CRtdFlo_Sys_T_Cordr_N" = 94.24052   $ Sizing
 "CRtdFlo_Sys_T_Cordr_S" = 217.9111   $ Sizing
 "CRtdFlo_Sys_T_Cordr_W" = 194.6908   $ Sizing
 "CRtdFlo_Sys_T_LobWait_C" = 347.7395   $ Sizing
 "CRtdFlo_Sys_T_MechElec_C" = 134.1697   $ Sizing
 "CRtdFlo_Sys_T_OfficeOpn_C" = 1682.933   $ Sizing
 "CRtdFlo_Sys_T_OfficeOpn_E" = 1568.018   $ Sizing
 "CRtdFlo_Sys_T_OfficeOpn_N" = 746.3898   $ Sizing
 "CRtdFlo_Sys_T_OfficeOpn_S" = 1624.679   $ Sizing
 "CRtdFlo_Sys_T_OfficeOpn_W" = 1472.876   $ Sizing
 "CRtdFlo_Sys_T_OfficeSm_C" = 250.607   $ Sizing
 "CRtdFlo_Sys_T_OfficeSm_E" = 1141.135   $ Sizing
 "CRtdFlo_Sys_T_OfficeSm_N" = 453.6645   $ Sizing
 "CRtdFlo_Sys_T_OfficeSm_S" = 1197.866   $ Sizing
 "CRtdFlo_Sys_T_OfficeSm_W" = 1081.478   $ Sizing
 "CRtdFlo_Sys_T_Restrm_C" = 211.8611   $ Sizing
 "CRtdFlo_Sys_T_StorSm_C" = 334.0894   $ Sizing
 "CSupFlo_Sys_L_Break_C" = 338.6699   $ Sizing
 "CSupFlo_Sys_L_Conf_C" = 395.8239   $ Sizing
 "CSupFlo_Sys_L_CopyRm_C" = 97.13982   $ Sizing
 "CSupFlo_Sys_L_Cordr_C" = 565.4379   $ Sizing
 "CSupFlo_Sys_L_Cordr_E" = 184.2061   $ Sizing
 "CSupFlo_Sys_L_Cordr_N" = 94.24052   $ Sizing
 "CSupFlo_Sys_L_Cordr_S" = 194.8697   $ Sizing
 "CSupFlo_Sys_L_Cordr_W" = 180.1848   $ Sizing
 "CSupFlo_Sys_L_LobWait_C" = 280.8625   $ Sizing
 "CSupFlo_Sys_L_MechElec_C" = 134.1697   $ Sizing
 "CSupFlo_Sys_L_OfficeOpn_C" = 1513.082   $ Sizing
 "CSupFlo_Sys_L_OfficeOpn_E" = 1532.305   $ Sizing
 "CSupFlo_Sys_L_OfficeOpn_N" = 655.5168   $ Sizing
 "CSupFlo_Sys_L_OfficeOpn_S" = 1556.382   $ Sizing
 "CSupFlo_Sys_L_OfficeOpn_W" = 1482.399   $ Sizing
 "CSupFlo_Sys_L_OfficeSm_C" = 206.6502   $ Sizing
 "CSupFlo_Sys_L_OfficeSm_E" = 1090.755   $ Sizing
 "CSupFlo_Sys_L_OfficeSm_N" = 383.7424   $ Sizing
 "CSupFlo_Sys_L_OfficeSm_S" = 1132.134   $ Sizing
 "CSupFlo_Sys_L_OfficeSm_W" = 1057.703   $ Sizing
 "CSupFlo_Sys_L_Restrm_C" = 211.8611   $ Sizing
 "CSupFlo_Sys_L_StorSm_C" = 334.0894   $ Sizing
 "CSupFlo_Sys_M_Break_C" = 2989.481   $ Sizing
 "CSupFlo_Sys_M_Conf_C" = 3559.313   $ Sizing
 "CSupFlo_Sys_M_CopyRm_C" = 1015.802   $ Sizing
 "CSupFlo_Sys_M_Cordr_C" = 5716.806   $ Sizing
 "CSupFlo_Sys_M_Cordr_E" = 1903.55   $ Sizing
 "CSupFlo_Sys_M_Cordr_N" = 753.9242   $ Sizing
 "CSupFlo_Sys_M_Cordr_S" = 1904.213   $ Sizing
 "CSupFlo_Sys_M_Cordr_W" = 1716.854   $ Sizing
 "CSupFlo_Sys_M_LobWait_C" = 3057.147   $ Sizing
 "CSupFlo_Sys_M_MechElec_C" = 1073.357   $ Sizing
 "CSupFlo_Sys_M_OfficeOpn_C" = 14488.27   $ Sizing
 "CSupFlo_Sys_M_OfficeOpn_E" = 13850   $ Sizing
 "CSupFlo_Sys_M_OfficeOpn_N" = 6454.759   $ Sizing
 "CSupFlo_Sys_M_OfficeOpn_S" = 13857.44   $ Sizing
 "CSupFlo_Sys_M_OfficeOpn_W" = 12761.43   $ Sizing
 "CSupFlo_Sys_M_OfficeSm_C" = 2041.624   $ Sizing
 "CSupFlo_Sys_M_OfficeSm_E" = 9730.139   $ Sizing
 "CSupFlo_Sys_M_OfficeSm_N" = 3804.385   $ Sizing
 "CSupFlo_Sys_M_OfficeSm_S" = 9998.603   $ Sizing
 "CSupFlo_Sys_M_OfficeSm_W" = 9122.221   $ Sizing
 "CSupFlo_Sys_M_Restrm_C" = 1694.889   $ Sizing
 "CSupFlo_Sys_M_StorSm_C" = 2672.715   $ Sizing
 "CSupFlo_Sys_T_Break_C" = 352.9453   $ Sizing
 "CSupFlo_Sys_T_Conf_C" = 422.4017   $ Sizing
 "CSupFlo_Sys_T_CopyRm_C" = 113.0668   $ Sizing
 "CSupFlo_Sys_T_Cordr_C" = 613.1072   $ Sizing
 "CSupFlo_Sys_T_Cordr_E" = 212.7984   $ Sizing
 "CSupFlo_Sys_T_Cordr_N" = 94.24052   $ Sizing
 "CSupFlo_Sys_T_Cordr_S" = 217.9111   $ Sizing
 "CSupFlo_Sys_T_Cordr_W" = 194.6908   $ Sizing
 "CSupFlo_Sys_T_LobWait_C" = 347.7395   $ Sizing
 "CSupFlo_Sys_T_MechElec_C" = 134.1697   $ Sizing
 "CSupFlo_Sys_T_OfficeOpn_C" = 1682.933   $ Sizing
 "CSupFlo_Sys_T_OfficeOpn_E" = 1568.018   $ Sizing
 "CSupFlo_Sys_T_OfficeOpn_N" = 746.3898   $ Sizing
 "CSupFlo_Sys_T_OfficeOpn_S" = 1624.679   $ Sizing
 "CSupFlo_Sys_T_OfficeOpn_W" = 1472.876   $ Sizing
 "CSupFlo_Sys_T_OfficeSm_C" = 250.607   $ Sizing
 "CSupFlo_Sys_T_OfficeSm_E" = 1141.135   $ Sizing
 "CSupFlo_Sys_T_OfficeSm_N" = 453.6645   $ Sizing
 "CSupFlo_Sys_T_OfficeSm_S" = 1197.866   $ Sizing
 "CSupFlo_Sys_T_OfficeSm_W" = 1081.478   $ Sizing
 "CSupFlo_Sys_T_Restrm_C" = 211.8611   $ Sizing
 "CSupFlo_Sys_T_StorSm_C" = 334.0894   $ Sizing
 "ClCap_Sys_L_Break_C" = 11524.73   $ Sizing
 "ClCap_Sys_L_Conf_C" = 17143.19   $ Sizing
 "ClCap_Sys_L_CopyRm_C" = 3305.61   $ Sizing
 "ClCap_Sys_L_Cordr_C" = 19241.51   $ Sizing
 "ClCap_Sys_L_Cordr_E" = 6268.424   $ Sizing
 "ClCap_Sys_L_Cordr_N" = 3206.949   $ Sizing
 "ClCap_Sys_L_Cordr_S" = 6631.3   $ Sizing
 "ClCap_Sys_L_Cordr_W" = 6131.582   $ Sizing
 "ClCap_Sys_L_LobWait_C" = 9557.582   $ Sizing
 "ClCap_Sys_L_MechElec_C" = 4565.713   $ Sizing
 "ClCap_Sys_L_OfficeOpn_C" = 51489.26   $ Sizing
 "ClCap_Sys_L_OfficeOpn_E" = 52143.43   $ Sizing
 "ClCap_Sys_L_OfficeOpn_N" = 22306.84   $ Sizing
 "ClCap_Sys_L_OfficeOpn_S" = 52962.75   $ Sizing
 "ClCap_Sys_L_OfficeOpn_W" = 50445.14   $ Sizing
 "ClCap_Sys_L_OfficeSm_C" = 7032.181   $ Sizing
 "ClCap_Sys_L_OfficeSm_E" = 37117.73   $ Sizing
 "ClCap_Sys_L_OfficeSm_N" = 13058.53   $ Sizing
 "ClCap_Sys_L_OfficeSm_S" = 38525.84   $ Sizing
 "ClCap_Sys_L_OfficeSm_W" = 35993   $ Sizing
 "ClCap_Sys_L_Restrm_C" = 7209.506   $ Sizing
 "ClCap_Sys_L_StorSm_C" = 11368.86   $ Sizing
 "ClCap_Sys_M_Break_C" = 101730.3   $ Sizing
 "ClCap_Sys_M_Conf_C" = 154154.4   $ Sizing
 "ClCap_Sys_M_CopyRm_C" = 34567.14   $ Sizing
 "ClCap_Sys_M_Cordr_C" = 194539.5   $ Sizing
 "ClCap_Sys_M_Cordr_E" = 64776.65   $ Sizing
 "ClCap_Sys_M_Cordr_N" = 25655.59   $ Sizing
 "ClCap_Sys_M_Cordr_S" = 64799.22   $ Sizing
 "ClCap_Sys_M_Cordr_W" = 58423.5   $ Sizing
 "ClCap_Sys_M_LobWait_C" = 104032.9   $ Sizing
 "ClCap_Sys_M_MechElec_C" = 36525.71   $ Sizing
 "ClCap_Sys_M_OfficeOpn_C" = 493027.1   $ Sizing
 "ClCap_Sys_M_OfficeOpn_E" = 471307   $ Sizing
 "ClCap_Sys_M_OfficeOpn_N" = 219651.6   $ Sizing
 "ClCap_Sys_M_OfficeOpn_S" = 471560.3   $ Sizing
 "ClCap_Sys_M_OfficeOpn_W" = 434263.9   $ Sizing
 "ClCap_Sys_M_OfficeSm_C" = 69475.23   $ Sizing
 "ClCap_Sys_M_OfficeSm_E" = 331110.8   $ Sizing
 "ClCap_Sys_M_OfficeSm_N" = 129461   $ Sizing
 "ClCap_Sys_M_OfficeSm_S" = 340246.5   $ Sizing
 "ClCap_Sys_M_OfficeSm_W" = 310423.7   $ Sizing
 "ClCap_Sys_M_Restrm_C" = 57676.05   $ Sizing
 "ClCap_Sys_M_StorSm_C" = 90950.89   $ Sizing
 "ClCap_Sys_T_Break_C" = 12010.52   $ Sizing
 "ClCap_Sys_T_Conf_C" = 18294.28   $ Sizing
 "ClCap_Sys_T_CopyRm_C" = 3847.596   $ Sizing
 "ClCap_Sys_T_Cordr_C" = 20863.67   $ Sizing
 "ClCap_Sys_T_Cordr_E" = 7241.402   $ Sizing
 "ClCap_Sys_T_Cordr_N" = 3206.949   $ Sizing
 "ClCap_Sys_T_Cordr_S" = 7415.384   $ Sizing
 "ClCap_Sys_T_Cordr_W" = 6625.211   $ Sizing
 "ClCap_Sys_T_LobWait_C" = 11833.37   $ Sizing
 "ClCap_Sys_T_MechElec_C" = 4565.713   $ Sizing
 "ClCap_Sys_T_OfficeOpn_C" = 57269.2   $ Sizing
 "ClCap_Sys_T_OfficeOpn_E" = 53358.7   $ Sizing
 "ClCap_Sys_T_OfficeOpn_N" = 25399.2   $ Sizing
 "ClCap_Sys_T_OfficeOpn_S" = 55286.86   $ Sizing
 "ClCap_Sys_T_OfficeOpn_W" = 50121.1   $ Sizing
 "ClCap_Sys_T_OfficeSm_C" = 8528.008   $ Sizing
 "ClCap_Sys_T_OfficeSm_E" = 38832.15   $ Sizing
 "ClCap_Sys_T_OfficeSm_N" = 15437.93   $ Sizing
 "ClCap_Sys_T_OfficeSm_S" = 40762.65   $ Sizing
 "ClCap_Sys_T_OfficeSm_W" = 36802.05   $ Sizing
 "ClCap_Sys_T_Restrm_C" = 7209.506   $ Sizing
 "ClCap_Sys_T_StorSm_C" = 11368.86   $ Sizing
 "HtCap_Sys_L_Break_C" = -19743.75   $ Sizing
 "HtCap_Sys_L_Conf_C" = -24392.51   $ Sizing
 "HtCap_Sys_L_CopyRm_C" = -6669.783   $ Sizing
 "HtCap_Sys_L_Cordr_C" = -26080.08   $ Sizing
 "HtCap_Sys_L_Cordr_E" = -7022.253   $ Sizing
 "HtCap_Sys_L_Cordr_N" = -4385.33   $ Sizing
 "HtCap_Sys_L_Cordr_S" = -7275.952   $ Sizing
 "HtCap_Sys_L_Cordr_W" = -6900.617   $ Sizing
 "HtCap_Sys_L_LobWait_C" = -18370.24   $ Sizing
 "HtCap_Sys_L_MechElec_C" = -6125.159   $ Sizing
 "HtCap_Sys_L_OfficeOpn_C" = -73571.07   $ Sizing
 "HtCap_Sys_L_OfficeOpn_E" = -53735.31   $ Sizing
 "HtCap_Sys_L_OfficeOpn_N" = -28319.96   $ Sizing
 "HtCap_Sys_L_OfficeOpn_S" = -53735.79   $ Sizing
 "HtCap_Sys_L_OfficeOpn_W" = -52230.87   $ Sizing
 "HtCap_Sys_L_OfficeSm_C" = -8574.877   $ Sizing
 "HtCap_Sys_L_OfficeSm_E" = -37945.95   $ Sizing
 "HtCap_Sys_L_OfficeSm_N" = -16995.25   $ Sizing
 "HtCap_Sys_L_OfficeSm_S" = -38889.3   $ Sizing
 "HtCap_Sys_L_OfficeSm_W" = -37023.5   $ Sizing
 "HtCap_Sys_L_Restrm_C" = -7670.954   $ Sizing
 "HtCap_Sys_L_StorSm_C" = -15551.22   $ Sizing
 "HtCap_Sys_M_Break_C" = -165965.9   $ Sizing
 "HtCap_Sys_M_Conf_C" = -206587.5   $ Sizing
 "HtCap_Sys_M_CopyRm_C" = -61736.86   $ Sizing
 "HtCap_Sys_M_Cordr_C" = -242294.8   $ Sizing
 "HtCap_Sys_M_Cordr_E" = -68410.99   $ Sizing
 "HtCap_Sys_M_Cordr_N" = -34981.64   $ Sizing
 "HtCap_Sys_M_Cordr_S" = -67803.01   $ Sizing
 "HtCap_Sys_M_Cordr_W" = -62946.62   $ Sizing
 "HtCap_Sys_M_LobWait_C" = -170633.3   $ Sizing
 "HtCap_Sys_M_MechElec_C" = -49003.12   $ Sizing
 "HtCap_Sys_M_OfficeOpn_C" = -705490.1   $ Sizing
 "HtCap_Sys_M_OfficeOpn_E" = -474004.2   $ Sizing
 "HtCap_Sys_M_OfficeOpn_N" = -260959.5   $ Sizing
 "HtCap_Sys_M_OfficeOpn_S" = -467986.9   $ Sizing
 "HtCap_Sys_M_OfficeOpn_W" = -442177   $ Sizing
 "HtCap_Sys_M_OfficeSm_C" = -79708.3   $ Sizing
 "HtCap_Sys_M_OfficeSm_E" = -331236.5   $ Sizing
 "HtCap_Sys_M_OfficeSm_N" = -157365.4   $ Sizing
 "HtCap_Sys_M_OfficeSm_S" = -336361.6   $ Sizing
 "HtCap_Sys_M_OfficeSm_W" = -313837.3   $ Sizing
 "HtCap_Sys_M_Restrm_C" = -66124.22   $ Sizing
 "HtCap_Sys_M_StorSm_C" = -121722.9   $ Sizing
 "HtCap_Sys_T_Break_C" = -20626.05   $ Sizing
 "HtCap_Sys_T_Conf_C" = -25622.25   $ Sizing
 "HtCap_Sys_T_CopyRm_C" = -7367.522   $ Sizing
 "HtCap_Sys_T_Cordr_C" = -29478.09   $ Sizing
 "HtCap_Sys_T_Cordr_E" = -8655.171   $ Sizing
 "HtCap_Sys_T_Cordr_N" = -4668.166   $ Sizing
 "HtCap_Sys_T_Cordr_S" = -8821.775   $ Sizing
 "HtCap_Sys_T_Cordr_W" = -8057.361   $ Sizing
 "HtCap_Sys_T_LobWait_C" = -20823.66   $ Sizing
 "HtCap_Sys_T_MechElec_C" = -6127.005   $ Sizing
 "HtCap_Sys_T_OfficeOpn_C" = -73233   $ Sizing
 "HtCap_Sys_T_OfficeOpn_E" = -59625.75   $ Sizing
 "HtCap_Sys_T_OfficeOpn_N" = -33561.57   $ Sizing
 "HtCap_Sys_T_OfficeOpn_S" = -62370.99   $ Sizing
 "HtCap_Sys_T_OfficeOpn_W" = -56544.82   $ Sizing
 "HtCap_Sys_T_OfficeSm_C" = -10726.95   $ Sizing
 "HtCap_Sys_T_OfficeSm_E" = -43260.1   $ Sizing
 "HtCap_Sys_T_OfficeSm_N" = -20616.01   $ Sizing
 "HtCap_Sys_T_OfficeSm_S" = -45284.64   $ Sizing
 "HtCap_Sys_T_OfficeSm_W" = -41415.86   $ Sizing
 "HtCap_Sys_T_Restrm_C" = -8480.237   $ Sizing
 "HtCap_Sys_T_StorSm_C" = -16633.01   $ Sizing
..

##include Templates\OfL_DX_SZ.inp
END ..
COMPUTE ..
STOP ..
