INPUT ..

##fileprefix C:\Users\jglasskatz\MASControl3\
##set1 IsSizing FALSE
##set1 CoolType DX
##set1 HeatType FURNACE
##set1 EU_HrRepVar 1
##set1 BldgVint 2017
##set1 BldgLoc CZ01

 ##set1 mBFMult 1   $ IP Tech: RefgChg-NRes-Std

PARAMETER
 "AltFactor" = 1.00753   $ IP Non-Tech
 "BldgEconoFlag" = 1   $ IP Non-Tech
 "Break_EWSF" = 1   $ IP Non-Tech
 "Break_LWSF" = 0.9   $ IP Non-Tech
 "CDD_DBHi10" = 65   $ IP Non-Tech
 "CDD_DBHi7" = 68   $ IP Non-Tech
 "CDD_DBHi8" = 66   $ IP Non-Tech
 "CDD_DBHi9" = 77   $ IP Non-Tech
 "CDD_DBRange10" = 17   $ IP Non-Tech
 "CDD_DBRange7" = 11   $ IP Non-Tech
 "CDD_DBRange8" = 10   $ IP Non-Tech
 "CDD_DBRange9" = 29   $ IP Non-Tech
 "CDD_Day10" = 15   $ IP Non-Tech
 "CDD_Day7" = 16   $ IP Non-Tech
 "CDD_Day8" = 20   $ IP Non-Tech
 "CDD_Day9" = 17   $ IP Non-Tech
 "CDD_HrHi10" = 12   $ IP Non-Tech
 "CDD_HrHi7" = 12   $ IP Non-Tech
 "CDD_HrHi8" = 13   $ IP Non-Tech
 "CDD_HrHi9" = 17   $ IP Non-Tech
 "CDD_HrLo10" = 6   $ IP Non-Tech
 "CDD_HrLo7" = 3   $ IP Non-Tech
 "CDD_HrLo8" = 8   $ IP Non-Tech
 "CDD_HrLo9" = 4   $ IP Non-Tech
 "CDD_WB10" = 57.53039551   $ IP Non-Tech
 "CDD_WB7" = 59.29250717   $ IP Non-Tech
 "CDD_WB8" = 60.75350189   $ IP Non-Tech
 "CDD_WB9" = 61.08643341   $ IP Non-Tech
 "CZ_Category" = Tem   $ IP Non-Tech
 "ChwVintEconoFlag" = 1   $ IP Non-Tech
 "Conference_EWSF" = 1   $ IP Non-Tech
 "Conference_LWSF" = 1.2   $ IP Non-Tech
 "CoolSetT" = 45   $ IP Non-Tech
 "CoolType" = DX   $ IP Non-Tech
 "CopyRoom_EWSF" = 1.5   $ IP Non-Tech
 "CopyRoom_LWSF" = 1.3   $ IP Non-Tech
 "CorridorStairway_EWSF" = 0.2   $ IP Non-Tech
 "CorridorStairway_LWSF" = 0.6   $ IP Non-Tech
 "DesCoolT" = 75   $ IP Non-Tech
 "DesHeatT" = 73   $ IP Non-Tech
 "EconoEnthLimit" = 28   $ IP Non-Tech
 "EconoTempLimit" = 70   $ IP Non-Tech
 "Elevation" = 203   $ IP Non-Tech
 "HDD_CloudAmt1" = 0   $ IP Non-Tech
 "HDD_DBHi1" = 53   $ IP Non-Tech
 "HDD_DBRange1" = 20   $ IP Non-Tech
 "HDD_Day1" = 15   $ IP Non-Tech
 "HDD_HrHi1" = 14   $ IP Non-Tech
 "HDD_HrLo1" = 6   $ IP Non-Tech
 "HDD_WB1" = 42.3   $ IP Non-Tech
 "HDD_WindSpd1" = 12.7   $ IP Non-Tech
 "HeatSrc" = FURNACE   $ IP Non-Tech
 "HeatSrcTU" = HEAT-PUMP   $ IP Non-Tech
 "HeatType" = GasFurn   $ IP Non-Tech
 "HeatTypeTU" = HEAT-PUMP   $ IP Non-Tech
 "IndoorFanMode" = CONTINUOUS   $ IP Non-Tech
 "KT_TransferAir" = Yes   $ IP Non-Tech
 "Latitude" = 40.8   $ IP Non-Tech
 "LobbyWaiting_EWSF" = 0.5   $ IP Non-Tech
 "LobbyWaiting_LWSF" = 0.875   $ IP Non-Tech
 "Longitude" = 124.2   $ IP Non-Tech
 "LtgMsrApplic" = ALL   $ Msr TechID: NonResLtgRefMsr-LF
 "LtgSav_CFL" = 0   $ Msr TechID: NonResLtgRefMsr-LF
 "LtgSav_EX" = 0   $ Msr TechID: NonResLtgRefMsr-LF
 "LtgSav_HB" = 0   $ Msr TechID: NonResLtgRefMsr-LF
 "LtgSav_LF" = 0.3   $ Msr TechID: NonResLtgRefMsr-LF
 "LtgSav_SP" = 0   $ Msr TechID: NonResLtgRefMsr-LF
 "MZFanMechEff" = 0.58   $ IP Non-Tech
 "MZHasRetFan" = FALSE   $ IP Non-Tech
 "MZ_RFanWPerCfm" = 0.37   $ IP Non-Tech
 "MZ_SFanWPerCfm" = 0.71   $ IP Non-Tech
 "MZ_SupFanStatic" = 2.25   $ IP Non-Tech
 "MaxSupT_MZ" = 100   $ IP Non-Tech
 "MaxSupT_SZ" = 100   $ IP Non-Tech
 "MaxSupT_TU" = 90   $ IP Non-Tech
 "MechElecRoom_EWSF" = 0.2   $ IP Non-Tech
 "MechElecRoom_LWSF" = 0.55   $ IP Non-Tech
 "MinCfmPerSF" = 0.4   $ IP Non-Tech
 "MinSupT" = 55   $ IP Non-Tech
 "OccCoolT" = 76   $ IP Non-Tech
 "OccHeatT" = 72   $ IP Non-Tech
 "OfficeOpen_EWSF" = 1.5   $ IP Non-Tech
 "OfficeOpen_LWSF" = 1.05   $ IP Non-Tech
 "OfficeSmall_EWSF" = 1.5   $ IP Non-Tech
 "OfficeSmall_LWSF" = 1.3   $ IP Non-Tech
 "PkgDxVintEconoFlag" = 1   $ IP Non-Tech
 "Restroom_EWSF" = 0.2   $ IP Non-Tech
 "Restroom_LWSF" = 0.6   $ IP Non-Tech
 "SZFanMechEff" = 0.58   $ IP Non-Tech
 "SZHasRetFan" = FALSE   $ IP Non-Tech
 "SZ_Is_2Spd" = TRUE   $ IP Non-Tech
 "SZ_SFanWPerCfm" = 0.46   $ IP Non-Tech
 "SZ_SupFanStatic" = 0.75   $ IP Non-Tech
 "StorageSmlCond_EWSF" = 0.2   $ IP Non-Tech
 "StorageSmlCond_LWSF" = 0.6   $ IP Non-Tech
 "TermUnitFanMechEff" = 1   $ IP Non-Tech
 "TermUnitFanMode" = INTERMITTENT   $ IP Non-Tech
 "TwrSetpt" = 80   $ IP Non-Tech
 "UnocCoolT" = 86   $ IP Non-Tech
 "UnocHeatT" = 62   $ IP Non-Tech
 "WlhpVintEconoFlag" = 1   $ IP Non-Tech
 "EconoCtrl" = OA-TEMP   $ IP Tech: AirEcono-OATemp
 "MaxOAFrac" = 0.85   $ IP Tech: AirEcono-OATemp
 "UseEconoVintApplic" = FALSE   $ IP Tech: AirEcono-OATemp
 "DuctDT" = 1   $ IP Tech: ComDuctInsul-1
 "DuctAirLoss" = 0   $ IP Tech: ComDuctLeak-0
 "DuctLossOAFrac" = 0   $ IP Tech: ComDuctLeak-0
 "ComRoofInsCalc" = FromUo   $ IP Tech: ComRoofIns-Hvy-0.03
 "ComRoofInsR" = -999   $ IP Tech: ComRoofIns-Hvy-0.03
 "ComRoofUo" = 0.03   $ IP Tech: ComRoofIns-Hvy-0.03
 "ComEWInsCalc" = FromUo   $ IP Tech: ComWallIns-MFrm-0.07
 "ComEWInsR" = -999   $ IP Tech: ComWallIns-MFrm-0.07
 "ComEWUo" = 0.07   $ IP Tech: ComWallIns-MFrm-0.07
 "ComN_SHGC" = 0.26   $ IP Tech: NResWin-ComN-0.41-0.26
 "ComN_UFactor" = 0.41   $ IP Tech: NResWin-ComN-0.41-0.26
 "ComN_VisTrans" = 0.41   $ IP Tech: NResWin-ComN-0.41-0.26
 "ComN_WinCode" = G2666   $ IP Tech: NResWin-ComN-0.41-0.26
 "ComN_WinFrmFrac" = 0.17   $ IP Tech: NResWin-ComN-0.41-0.26
 "ComN_WinFrmU" = 0.3   $ IP Tech: NResWin-ComN-0.41-0.26
 "ComO_SHGC" = 0.26   $ IP Tech: NResWin-ComO-0.41-0.26
 "ComO_UFactor" = 0.41   $ IP Tech: NResWin-ComO-0.41-0.26
 "ComO_VisTrans" = 0.41   $ IP Tech: NResWin-ComO-0.41-0.26
 "ComO_WinCode" = G2666   $ IP Tech: NResWin-ComO-0.41-0.26
 "ComO_WinFrmFrac" = 0.17   $ IP Tech: NResWin-ComO-0.41-0.26
 "ComO_WinFrmU" = 0.3   $ IP Tech: NResWin-ComO-0.41-0.26
 "BF_fFlow" = PSZ65to135_BF_fFlow   $ IP Tech: PkgAC2SpP-65to135-E11
 "BF_fT" = PSZ65to135_BF_fT   $ IP Tech: PkgAC2SpP-65to135-E11
 "CEIR_fPLR" = PSZ65to135_CEIR_fPLR   $ IP Tech: PkgAC2SpP-65to135-E11
 "CLoss_fPLR" = PSZ65to135_CLoss_fPLR   $ IP Tech: PkgAC2SpP-65to135-E11
 "COP" = -1   $ IP Tech: PkgAC2SpP-65to135-E11
 "COP47" = -1   $ IP Tech: PkgAC2SpP-65to135-E11
 "CfmPerBtuh" = 0.02917   $ IP Tech: PkgAC2SpP-65to135-E11
 "ClCap_fT" = PSZ65to135_ClCap_fT   $ IP Tech: PkgAC2SpP-65to135-E11
 "ClSH_fT" = PSZ65to135_ClSH_fT   $ IP Tech: PkgAC2SpP-65to135-E11
 "CoilBF" = 0.114   $ IP Tech: PkgAC2SpP-65to135-E11
 "CondWPerBtuh" = 0   $ IP Tech: PkgAC2SpP-65to135-E11
 "CoolSensCap" = 0.663   $ IP Tech: PkgAC2SpP-65to135-E11
 "CoolingEIR" = 0.26817   $ IP Tech: PkgAC2SpP-65to135-E11
 "CrnkEIR" = 0.0027   $ IP Tech: PkgAC2SpP-65to135-E11
 "CrnkMaxT" = 50   $ IP Tech: PkgAC2SpP-65to135-E11
 "DXType" = Pkg   $ IP Tech: PkgAC2SpP-65to135-E11
 "EER" = 10.64   $ IP Tech: PkgAC2SpP-65to135-E11
 "EIR_fT" = PSZ65to135_EIR_fT   $ IP Tech: PkgAC2SpP-65to135-E11
 "FanEirPlr" = TwoSpeedFan   $ IP Tech: PkgAC2SpP-65to135-E11
 "FanWPerCfm" = 0.4   $ IP Tech: PkgAC2SpP-65to135-E11
 "HIR_fT" = DEFAULT   $ IP Tech: PkgAC2SpP-65to135-E11
 "HtCap_fT" = DEFAULT   $ IP Tech: PkgAC2SpP-65to135-E11
 "HtCoolCapRatio" = -1   $ IP Tech: PkgAC2SpP-65to135-E11
 "HtgEIR" = -1   $ IP Tech: PkgAC2SpP-65to135-E11
 "HtgFuel" = Gas   $ IP Tech: PkgAC2SpP-65to135-E11
 "IEER" = 13.35   $ IP Tech: PkgAC2SpP-65to135-E11
 "LowSpdCapRatio" = 0.5   $ IP Tech: PkgAC2SpP-65to135-E11
 "LowSpdCfmRatio" = 0.66   $ IP Tech: PkgAC2SpP-65to135-E11
 "NominalCap" = 15   $ IP Tech: PkgAC2SpP-65to135-E11
 "NumStages" = 2   $ IP Tech: PkgAC2SpP-65to135-E11
 "RatedEER" = 11   $ IP Tech: PkgAC2SpP-65to135-E11
 "RatedSupMtrClass" = Premium   $ IP Tech: PkgAC2SpP-65to135-E11
 "SizeRange" = 65to135   $ IP Tech: PkgAC2SpP-65to135-E11
 "SubType" = AC   $ IP Tech: PkgAC2SpP-65to135-E11
 "SupMotEff" = 0.865   $ IP Tech: PkgAC2SpP-65to135-E11
 "Tier" = 0   $ IP Tech: PkgAC2SpP-65to135-E11
 "TotCoolCap" = 184140   $ IP Tech: PkgAC2SpP-65to135-E11
 "FanPwrMult" = 1   $ IP Tech: PkgFurn-0.80AFUE
 "FurnAFUE" = 0.8   $ IP Tech: PkgFurn-0.80AFUE
 "FurnEt" = 0.82   $ IP Tech: PkgFurn-0.80AFUE
 "FurnaceAuxKW" = 0.1   $ IP Tech: PkgFurn-0.80AFUE
 "HIR_fPLR" = Furnace-HIR-fPLR   $ IP Tech: PkgFurn-0.80AFUE
 "VSM" = FALSE   $ IP Tech: PkgFurn-0.80AFUE
 "BFMult" = 1   $ IP Tech: RefgChg-NRes-Std
 "CoolEirMult" = 1   $ IP Tech: RefgChg-NRes-Std
 "SensCoolCapMult" = 1   $ IP Tech: RefgChg-NRes-Std
 "TotCoolCapMult" = 1   $ IP Tech: RefgChg-NRes-Std
 "AltAdjFactor" = 1.007532   $ Sizing
 "CAssFlo_L_Break_CZn" = 350.5608   $ Sizing
 "CAssFlo_L_Conf_CZn" = 407.8806   $ Sizing
 "CAssFlo_L_CopyRm_CZn" = 104.7114   $ Sizing
 "CAssFlo_L_Cordr_CZn" = 565.4379   $ Sizing
 "CAssFlo_L_Cordr_EZn" = 186.7082   $ Sizing
 "CAssFlo_L_Cordr_NZn" = 94.24052   $ Sizing
 "CAssFlo_L_Cordr_SZn" = 196.9278   $ Sizing
 "CAssFlo_L_Cordr_WZn" = 181.7859   $ Sizing
 "CAssFlo_L_LobWait_CZn" = 296.9636   $ Sizing
 "CAssFlo_L_MechElec_CZn" = 134.1697   $ Sizing
 "CAssFlo_L_OfficeOpn_CZn" = 1592.332   $ Sizing
 "CAssFlo_L_OfficeOpn_EZn" = 1567.394   $ Sizing
 "CAssFlo_L_OfficeOpn_NZn" = 693.9277   $ Sizing
 "CAssFlo_L_OfficeOpn_SZn" = 1594.4   $ Sizing
 "CAssFlo_L_OfficeOpn_WZn" = 1517.895   $ Sizing
 "CAssFlo_L_OfficeSm_CZn" = 203.9633   $ Sizing
 "CAssFlo_L_OfficeSm_EZn" = 1112.808   $ Sizing
 "CAssFlo_L_OfficeSm_NZn" = 409.0732   $ Sizing
 "CAssFlo_L_OfficeSm_SZn" = 1157.133   $ Sizing
 "CAssFlo_L_OfficeSm_WZn" = 1069.741   $ Sizing
 "CAssFlo_L_Restrm_CZn" = 211.8611   $ Sizing
 "CAssFlo_L_StorSm_CZn" = 334.0894   $ Sizing
 "CAssFlo_M_Break_CZn" = 387.0595   $ Sizing
 "CAssFlo_M_Conf_CZn" = 455.8521   $ Sizing
 "CAssFlo_M_CopyRm_CZn" = 130.8832   $ Sizing
 "CAssFlo_M_Cordr_CZn" = 748.467   $ Sizing
 "CAssFlo_M_Cordr_EZn" = 241.228   $ Sizing
 "CAssFlo_M_Cordr_NZn" = 94.24052   $ Sizing
 "CAssFlo_M_Cordr_SZn" = 240.6873   $ Sizing
 "CAssFlo_M_Cordr_WZn" = 216.3693   $ Sizing
 "CAssFlo_M_LobWait_CZn" = 397.5268   $ Sizing
 "CAssFlo_M_MechElec_CZn" = 134.1697   $ Sizing
 "CAssFlo_M_OfficeOpn_CZn" = 1884.291   $ Sizing
 "CAssFlo_M_OfficeOpn_EZn" = 1760.208   $ Sizing
 "CAssFlo_M_OfficeOpn_NZn" = 851.1628   $ Sizing
 "CAssFlo_M_OfficeOpn_SZn" = 1773.15   $ Sizing
 "CAssFlo_M_OfficeOpn_WZn" = 1632.893   $ Sizing
 "CAssFlo_M_OfficeSm_CZn" = 261.5202   $ Sizing
 "CAssFlo_M_OfficeSm_EZn" = 1239.444   $ Sizing
 "CAssFlo_M_OfficeSm_NZn" = 502.6819   $ Sizing
 "CAssFlo_M_OfficeSm_SZn" = 1276.318   $ Sizing
 "CAssFlo_M_OfficeSm_WZn" = 1153.594   $ Sizing
 "CAssFlo_M_Restrm_CZn" = 211.8611   $ Sizing
 "CAssFlo_M_StorSm_CZn" = 334.0894   $ Sizing
 "CAssFlo_T_Break_CZn" = 364.0947   $ Sizing
 "CAssFlo_T_Conf_CZn" = 433.977   $ Sizing
 "CAssFlo_T_CopyRm_CZn" = 122.0185   $ Sizing
 "CAssFlo_T_Cordr_CZn" = 634.4294   $ Sizing
 "CAssFlo_T_Cordr_EZn" = 215.5889   $ Sizing
 "CAssFlo_T_Cordr_NZn" = 94.24052   $ Sizing
 "CAssFlo_T_Cordr_SZn" = 220.1526   $ Sizing
 "CAssFlo_T_Cordr_WZn" = 196.1802   $ Sizing
 "CAssFlo_T_LobWait_CZn" = 362.228   $ Sizing
 "CAssFlo_T_MechElec_CZn" = 134.1697   $ Sizing
 "CAssFlo_T_OfficeOpn_CZn" = 1756.237   $ Sizing
 "CAssFlo_T_OfficeOpn_EZn" = 1599.877   $ Sizing
 "CAssFlo_T_OfficeOpn_NZn" = 788.1339   $ Sizing
 "CAssFlo_T_OfficeOpn_SZn" = 1662.934   $ Sizing
 "CAssFlo_T_OfficeOpn_WZn" = 1508.622   $ Sizing
 "CAssFlo_T_OfficeSm_CZn" = 257.7626   $ Sizing
 "CAssFlo_T_OfficeSm_EZn" = 1162.426   $ Sizing
 "CAssFlo_T_OfficeSm_NZn" = 479.6841   $ Sizing
 "CAssFlo_T_OfficeSm_SZn" = 1223.317   $ Sizing
 "CAssFlo_T_OfficeSm_WZn" = 1093.55   $ Sizing
 "CAssFlo_T_Restrm_CZn" = 211.8611   $ Sizing
 "CAssFlo_T_StorSm_CZn" = 334.0894   $ Sizing
 "CHRtFlo_Sys_L_Break_C" = 350.5608   $ Sizing
 "CHRtFlo_Sys_L_Conf_C" = 407.8806   $ Sizing
 "CHRtFlo_Sys_L_CopyRm_C" = 104.7114   $ Sizing
 "CHRtFlo_Sys_L_Cordr_C" = 565.4379   $ Sizing
 "CHRtFlo_Sys_L_Cordr_E" = 186.7082   $ Sizing
 "CHRtFlo_Sys_L_Cordr_N" = 94.24052   $ Sizing
 "CHRtFlo_Sys_L_Cordr_S" = 196.9278   $ Sizing
 "CHRtFlo_Sys_L_Cordr_W" = 181.7859   $ Sizing
 "CHRtFlo_Sys_L_LobWait_C" = 296.9636   $ Sizing
 "CHRtFlo_Sys_L_MechElec_C" = 134.1697   $ Sizing
 "CHRtFlo_Sys_L_OfficeOpn_C" = 1050.939   $ Sizing
 "CHRtFlo_Sys_L_OfficeOpn_E" = 1567.394   $ Sizing
 "CHRtFlo_Sys_L_OfficeOpn_N" = 693.9277   $ Sizing
 "CHRtFlo_Sys_L_OfficeOpn_S" = 1594.4   $ Sizing
 "CHRtFlo_Sys_L_OfficeOpn_W" = 1517.895   $ Sizing
 "CHRtFlo_Sys_L_OfficeSm_C" = 175.1203   $ Sizing
 "CHRtFlo_Sys_L_OfficeSm_E" = 1112.808   $ Sizing
 "CHRtFlo_Sys_L_OfficeSm_N" = 409.0732   $ Sizing
 "CHRtFlo_Sys_L_OfficeSm_S" = 1157.133   $ Sizing
 "CHRtFlo_Sys_L_OfficeSm_W" = 1069.741   $ Sizing
 "CHRtFlo_Sys_L_Restrm_C" = 139.8283   $ Sizing
 "CHRtFlo_Sys_L_StorSm_C" = 334.0894   $ Sizing
 "CHRtFlo_Sys_M_Break_C" = 3096.476   $ Sizing
 "CHRtFlo_Sys_M_Conf_C" = 3646.817   $ Sizing
 "CHRtFlo_Sys_M_CopyRm_C" = 1047.066   $ Sizing
 "CHRtFlo_Sys_M_Cordr_C" = 5987.736   $ Sizing
 "CHRtFlo_Sys_M_Cordr_E" = 1929.824   $ Sizing
 "CHRtFlo_Sys_M_Cordr_N" = 753.9242   $ Sizing
 "CHRtFlo_Sys_M_Cordr_S" = 1925.499   $ Sizing
 "CHRtFlo_Sys_M_Cordr_W" = 1730.955   $ Sizing
 "CHRtFlo_Sys_M_LobWait_C" = 3180.214   $ Sizing
 "CHRtFlo_Sys_M_MechElec_C" = 1073.357   $ Sizing
 "CHRtFlo_Sys_M_OfficeOpn_C" = 15018.56   $ Sizing
 "CHRtFlo_Sys_M_OfficeOpn_E" = 14081.66   $ Sizing
 "CHRtFlo_Sys_M_OfficeOpn_N" = 6809.303   $ Sizing
 "CHRtFlo_Sys_M_OfficeOpn_S" = 13651.1   $ Sizing
 "CHRtFlo_Sys_M_OfficeOpn_W" = 13063.14   $ Sizing
 "CHRtFlo_Sys_M_OfficeSm_C" = 2033.342   $ Sizing
 "CHRtFlo_Sys_M_OfficeSm_E" = 9915.554   $ Sizing
 "CHRtFlo_Sys_M_OfficeSm_N" = 4021.455   $ Sizing
 "CHRtFlo_Sys_M_OfficeSm_S" = 10210.55   $ Sizing
 "CHRtFlo_Sys_M_OfficeSm_W" = 9228.751   $ Sizing
 "CHRtFlo_Sys_M_Restrm_C" = 1272.251   $ Sizing
 "CHRtFlo_Sys_M_StorSm_C" = 2672.715   $ Sizing
 "CHRtFlo_Sys_T_Break_C" = 364.0947   $ Sizing
 "CHRtFlo_Sys_T_Conf_C" = 433.977   $ Sizing
 "CHRtFlo_Sys_T_CopyRm_C" = 122.0185   $ Sizing
 "CHRtFlo_Sys_T_Cordr_C" = 634.4294   $ Sizing
 "CHRtFlo_Sys_T_Cordr_E" = 215.5889   $ Sizing
 "CHRtFlo_Sys_T_Cordr_N" = 94.24052   $ Sizing
 "CHRtFlo_Sys_T_Cordr_S" = 220.1526   $ Sizing
 "CHRtFlo_Sys_T_Cordr_W" = 196.1802   $ Sizing
 "CHRtFlo_Sys_T_LobWait_C" = 362.228   $ Sizing
 "CHRtFlo_Sys_T_MechElec_C" = 134.1697   $ Sizing
 "CHRtFlo_Sys_T_OfficeOpn_C" = 1159.116   $ Sizing
 "CHRtFlo_Sys_T_OfficeOpn_E" = 1599.877   $ Sizing
 "CHRtFlo_Sys_T_OfficeOpn_N" = 788.1339   $ Sizing
 "CHRtFlo_Sys_T_OfficeOpn_S" = 1662.934   $ Sizing
 "CHRtFlo_Sys_T_OfficeOpn_W" = 1508.622   $ Sizing
 "CHRtFlo_Sys_T_OfficeSm_C" = 238.1262   $ Sizing
 "CHRtFlo_Sys_T_OfficeSm_E" = 1162.426   $ Sizing
 "CHRtFlo_Sys_T_OfficeSm_N" = 479.6841   $ Sizing
 "CHRtFlo_Sys_T_OfficeSm_S" = 1223.317   $ Sizing
 "CHRtFlo_Sys_T_OfficeSm_W" = 1093.55   $ Sizing
 "CHRtFlo_Sys_T_Restrm_C" = 139.8283   $ Sizing
 "CHRtFlo_Sys_T_StorSm_C" = 334.0894   $ Sizing
 "CRtdFlo_Sys_L_Break_C" = 350.5608   $ Sizing
 "CRtdFlo_Sys_L_Conf_C" = 407.8806   $ Sizing
 "CRtdFlo_Sys_L_CopyRm_C" = 104.7114   $ Sizing
 "CRtdFlo_Sys_L_Cordr_C" = 565.4379   $ Sizing
 "CRtdFlo_Sys_L_Cordr_E" = 186.7082   $ Sizing
 "CRtdFlo_Sys_L_Cordr_N" = 94.24052   $ Sizing
 "CRtdFlo_Sys_L_Cordr_S" = 196.9278   $ Sizing
 "CRtdFlo_Sys_L_Cordr_W" = 181.7859   $ Sizing
 "CRtdFlo_Sys_L_LobWait_C" = 296.9636   $ Sizing
 "CRtdFlo_Sys_L_MechElec_C" = 134.1697   $ Sizing
 "CRtdFlo_Sys_L_OfficeOpn_C" = 1592.332   $ Sizing
 "CRtdFlo_Sys_L_OfficeOpn_E" = 1567.394   $ Sizing
 "CRtdFlo_Sys_L_OfficeOpn_N" = 693.9277   $ Sizing
 "CRtdFlo_Sys_L_OfficeOpn_S" = 1594.4   $ Sizing
 "CRtdFlo_Sys_L_OfficeOpn_W" = 1517.895   $ Sizing
 "CRtdFlo_Sys_L_OfficeSm_C" = 203.9633   $ Sizing
 "CRtdFlo_Sys_L_OfficeSm_E" = 1112.808   $ Sizing
 "CRtdFlo_Sys_L_OfficeSm_N" = 409.0732   $ Sizing
 "CRtdFlo_Sys_L_OfficeSm_S" = 1157.133   $ Sizing
 "CRtdFlo_Sys_L_OfficeSm_W" = 1069.741   $ Sizing
 "CRtdFlo_Sys_L_Restrm_C" = 211.8611   $ Sizing
 "CRtdFlo_Sys_L_StorSm_C" = 334.0894   $ Sizing
 "CRtdFlo_Sys_M_Break_C" = 3096.476   $ Sizing
 "CRtdFlo_Sys_M_Conf_C" = 3646.817   $ Sizing
 "CRtdFlo_Sys_M_CopyRm_C" = 1047.066   $ Sizing
 "CRtdFlo_Sys_M_Cordr_C" = 5987.736   $ Sizing
 "CRtdFlo_Sys_M_Cordr_E" = 1929.824   $ Sizing
 "CRtdFlo_Sys_M_Cordr_N" = 753.9242   $ Sizing
 "CRtdFlo_Sys_M_Cordr_S" = 1925.499   $ Sizing
 "CRtdFlo_Sys_M_Cordr_W" = 1730.955   $ Sizing
 "CRtdFlo_Sys_M_LobWait_C" = 3180.214   $ Sizing
 "CRtdFlo_Sys_M_MechElec_C" = 1073.357   $ Sizing
 "CRtdFlo_Sys_M_OfficeOpn_C" = 15074.33   $ Sizing
 "CRtdFlo_Sys_M_OfficeOpn_E" = 14081.66   $ Sizing
 "CRtdFlo_Sys_M_OfficeOpn_N" = 6809.303   $ Sizing
 "CRtdFlo_Sys_M_OfficeOpn_S" = 14185.2   $ Sizing
 "CRtdFlo_Sys_M_OfficeOpn_W" = 13063.14   $ Sizing
 "CRtdFlo_Sys_M_OfficeSm_C" = 2092.162   $ Sizing
 "CRtdFlo_Sys_M_OfficeSm_E" = 9915.554   $ Sizing
 "CRtdFlo_Sys_M_OfficeSm_N" = 4021.455   $ Sizing
 "CRtdFlo_Sys_M_OfficeSm_S" = 10210.55   $ Sizing
 "CRtdFlo_Sys_M_OfficeSm_W" = 9228.751   $ Sizing
 "CRtdFlo_Sys_M_Restrm_C" = 1694.889   $ Sizing
 "CRtdFlo_Sys_M_StorSm_C" = 2672.715   $ Sizing
 "CRtdFlo_Sys_T_Break_C" = 364.0947   $ Sizing
 "CRtdFlo_Sys_T_Conf_C" = 433.977   $ Sizing
 "CRtdFlo_Sys_T_CopyRm_C" = 122.0185   $ Sizing
 "CRtdFlo_Sys_T_Cordr_C" = 634.4294   $ Sizing
 "CRtdFlo_Sys_T_Cordr_E" = 215.5889   $ Sizing
 "CRtdFlo_Sys_T_Cordr_N" = 94.24052   $ Sizing
 "CRtdFlo_Sys_T_Cordr_S" = 220.1526   $ Sizing
 "CRtdFlo_Sys_T_Cordr_W" = 196.1802   $ Sizing
 "CRtdFlo_Sys_T_LobWait_C" = 362.228   $ Sizing
 "CRtdFlo_Sys_T_MechElec_C" = 134.1697   $ Sizing
 "CRtdFlo_Sys_T_OfficeOpn_C" = 1756.237   $ Sizing
 "CRtdFlo_Sys_T_OfficeOpn_E" = 1599.877   $ Sizing
 "CRtdFlo_Sys_T_OfficeOpn_N" = 788.1339   $ Sizing
 "CRtdFlo_Sys_T_OfficeOpn_S" = 1662.934   $ Sizing
 "CRtdFlo_Sys_T_OfficeOpn_W" = 1508.622   $ Sizing
 "CRtdFlo_Sys_T_OfficeSm_C" = 257.7626   $ Sizing
 "CRtdFlo_Sys_T_OfficeSm_E" = 1162.426   $ Sizing
 "CRtdFlo_Sys_T_OfficeSm_N" = 479.6841   $ Sizing
 "CRtdFlo_Sys_T_OfficeSm_S" = 1223.317   $ Sizing
 "CRtdFlo_Sys_T_OfficeSm_W" = 1093.55   $ Sizing
 "CRtdFlo_Sys_T_Restrm_C" = 211.8611   $ Sizing
 "CRtdFlo_Sys_T_StorSm_C" = 334.0894   $ Sizing
 "CSupFlo_Sys_L_Break_C" = 350.5608   $ Sizing
 "CSupFlo_Sys_L_Conf_C" = 407.8806   $ Sizing
 "CSupFlo_Sys_L_CopyRm_C" = 104.7114   $ Sizing
 "CSupFlo_Sys_L_Cordr_C" = 565.4379   $ Sizing
 "CSupFlo_Sys_L_Cordr_E" = 186.7082   $ Sizing
 "CSupFlo_Sys_L_Cordr_N" = 94.24052   $ Sizing
 "CSupFlo_Sys_L_Cordr_S" = 196.9278   $ Sizing
 "CSupFlo_Sys_L_Cordr_W" = 181.7859   $ Sizing
 "CSupFlo_Sys_L_LobWait_C" = 296.9636   $ Sizing
 "CSupFlo_Sys_L_MechElec_C" = 134.1697   $ Sizing
 "CSupFlo_Sys_L_OfficeOpn_C" = 1592.332   $ Sizing
 "CSupFlo_Sys_L_OfficeOpn_E" = 1567.394   $ Sizing
 "CSupFlo_Sys_L_OfficeOpn_N" = 693.9277   $ Sizing
 "CSupFlo_Sys_L_OfficeOpn_S" = 1594.4   $ Sizing
 "CSupFlo_Sys_L_OfficeOpn_W" = 1517.895   $ Sizing
 "CSupFlo_Sys_L_OfficeSm_C" = 203.9633   $ Sizing
 "CSupFlo_Sys_L_OfficeSm_E" = 1112.808   $ Sizing
 "CSupFlo_Sys_L_OfficeSm_N" = 409.0732   $ Sizing
 "CSupFlo_Sys_L_OfficeSm_S" = 1157.133   $ Sizing
 "CSupFlo_Sys_L_OfficeSm_W" = 1069.741   $ Sizing
 "CSupFlo_Sys_L_Restrm_C" = 211.8611   $ Sizing
 "CSupFlo_Sys_L_StorSm_C" = 334.0894   $ Sizing
 "CSupFlo_Sys_M_Break_C" = 3096.476   $ Sizing
 "CSupFlo_Sys_M_Conf_C" = 3646.817   $ Sizing
 "CSupFlo_Sys_M_CopyRm_C" = 1047.066   $ Sizing
 "CSupFlo_Sys_M_Cordr_C" = 5987.736   $ Sizing
 "CSupFlo_Sys_M_Cordr_E" = 1929.824   $ Sizing
 "CSupFlo_Sys_M_Cordr_N" = 753.9242   $ Sizing
 "CSupFlo_Sys_M_Cordr_S" = 1925.499   $ Sizing
 "CSupFlo_Sys_M_Cordr_W" = 1730.955   $ Sizing
 "CSupFlo_Sys_M_LobWait_C" = 3180.214   $ Sizing
 "CSupFlo_Sys_M_MechElec_C" = 1073.357   $ Sizing
 "CSupFlo_Sys_M_OfficeOpn_C" = 15074.33   $ Sizing
 "CSupFlo_Sys_M_OfficeOpn_E" = 14081.66   $ Sizing
 "CSupFlo_Sys_M_OfficeOpn_N" = 6809.303   $ Sizing
 "CSupFlo_Sys_M_OfficeOpn_S" = 14185.2   $ Sizing
 "CSupFlo_Sys_M_OfficeOpn_W" = 13063.14   $ Sizing
 "CSupFlo_Sys_M_OfficeSm_C" = 2092.162   $ Sizing
 "CSupFlo_Sys_M_OfficeSm_E" = 9915.554   $ Sizing
 "CSupFlo_Sys_M_OfficeSm_N" = 4021.455   $ Sizing
 "CSupFlo_Sys_M_OfficeSm_S" = 10210.55   $ Sizing
 "CSupFlo_Sys_M_OfficeSm_W" = 9228.751   $ Sizing
 "CSupFlo_Sys_M_Restrm_C" = 1694.889   $ Sizing
 "CSupFlo_Sys_M_StorSm_C" = 2672.715   $ Sizing
 "CSupFlo_Sys_T_Break_C" = 364.0947   $ Sizing
 "CSupFlo_Sys_T_Conf_C" = 433.977   $ Sizing
 "CSupFlo_Sys_T_CopyRm_C" = 122.0185   $ Sizing
 "CSupFlo_Sys_T_Cordr_C" = 634.4294   $ Sizing
 "CSupFlo_Sys_T_Cordr_E" = 215.5889   $ Sizing
 "CSupFlo_Sys_T_Cordr_N" = 94.24052   $ Sizing
 "CSupFlo_Sys_T_Cordr_S" = 220.1526   $ Sizing
 "CSupFlo_Sys_T_Cordr_W" = 196.1802   $ Sizing
 "CSupFlo_Sys_T_LobWait_C" = 362.228   $ Sizing
 "CSupFlo_Sys_T_MechElec_C" = 134.1697   $ Sizing
 "CSupFlo_Sys_T_OfficeOpn_C" = 1756.237   $ Sizing
 "CSupFlo_Sys_T_OfficeOpn_E" = 1599.877   $ Sizing
 "CSupFlo_Sys_T_OfficeOpn_N" = 788.1339   $ Sizing
 "CSupFlo_Sys_T_OfficeOpn_S" = 1662.934   $ Sizing
 "CSupFlo_Sys_T_OfficeOpn_W" = 1508.622   $ Sizing
 "CSupFlo_Sys_T_OfficeSm_C" = 257.7626   $ Sizing
 "CSupFlo_Sys_T_OfficeSm_E" = 1162.426   $ Sizing
 "CSupFlo_Sys_T_OfficeSm_N" = 479.6841   $ Sizing
 "CSupFlo_Sys_T_OfficeSm_S" = 1223.317   $ Sizing
 "CSupFlo_Sys_T_OfficeSm_W" = 1093.55   $ Sizing
 "CSupFlo_Sys_T_Restrm_C" = 211.8611   $ Sizing
 "CSupFlo_Sys_T_StorSm_C" = 334.0894   $ Sizing
 "ClCap_Sys_L_Break_C" = 11929.37   $ Sizing
 "ClCap_Sys_L_Conf_C" = 17665.37   $ Sizing
 "ClCap_Sys_L_CopyRm_C" = 3563.266   $ Sizing
 "ClCap_Sys_L_Cordr_C" = 19241.51   $ Sizing
 "ClCap_Sys_L_Cordr_E" = 6353.568   $ Sizing
 "ClCap_Sys_L_Cordr_N" = 3206.949   $ Sizing
 "ClCap_Sys_L_Cordr_S" = 6701.336   $ Sizing
 "ClCap_Sys_L_Cordr_W" = 6186.065   $ Sizing
 "ClCap_Sys_L_LobWait_C" = 10105.49   $ Sizing
 "ClCap_Sys_L_MechElec_C" = 4565.713   $ Sizing
 "ClCap_Sys_L_OfficeOpn_C" = 54186.12   $ Sizing
 "ClCap_Sys_L_OfficeOpn_E" = 53337.47   $ Sizing
 "ClCap_Sys_L_OfficeOpn_N" = 23613.94   $ Sizing
 "ClCap_Sys_L_OfficeOpn_S" = 54256.49   $ Sizing
 "ClCap_Sys_L_OfficeOpn_W" = 51653.06   $ Sizing
 "ClCap_Sys_L_OfficeSm_C" = 6940.749   $ Sizing
 "ClCap_Sys_L_OfficeSm_E" = 37868.21   $ Sizing
 "ClCap_Sys_L_OfficeSm_N" = 13920.51   $ Sizing
 "ClCap_Sys_L_OfficeSm_S" = 39376.53   $ Sizing
 "ClCap_Sys_L_OfficeSm_W" = 36402.66   $ Sizing
 "ClCap_Sys_L_Restrm_C" = 7209.506   $ Sizing
 "ClCap_Sys_L_StorSm_C" = 11368.86   $ Sizing
 "ClCap_Sys_M_Break_C" = 105371.2   $ Sizing
 "ClCap_Sys_M_Conf_C" = 157944.2   $ Sizing
 "ClCap_Sys_M_CopyRm_C" = 35631.02   $ Sizing
 "ClCap_Sys_M_Cordr_C" = 203759.1   $ Sizing
 "ClCap_Sys_M_Cordr_E" = 65670.76   $ Sizing
 "ClCap_Sys_M_Cordr_N" = 25655.59   $ Sizing
 "ClCap_Sys_M_Cordr_S" = 65523.57   $ Sizing
 "ClCap_Sys_M_Cordr_W" = 58903.35   $ Sizing
 "ClCap_Sys_M_LobWait_C" = 108220.8   $ Sizing
 "ClCap_Sys_M_MechElec_C" = 36525.71   $ Sizing
 "ClCap_Sys_M_OfficeOpn_C" = 512970.3   $ Sizing
 "ClCap_Sys_M_OfficeOpn_E" = 479190.6   $ Sizing
 "ClCap_Sys_M_OfficeOpn_N" = 231716.5   $ Sizing
 "ClCap_Sys_M_OfficeOpn_S" = 482713.8   $ Sizing
 "ClCap_Sys_M_OfficeOpn_W" = 444531   $ Sizing
 "ClCap_Sys_M_OfficeSm_C" = 71195.01   $ Sizing
 "ClCap_Sys_M_OfficeSm_E" = 337420.4   $ Sizing
 "ClCap_Sys_M_OfficeSm_N" = 136847.7   $ Sizing
 "ClCap_Sys_M_OfficeSm_S" = 347458.8   $ Sizing
 "ClCap_Sys_M_OfficeSm_W" = 314048.9   $ Sizing
 "ClCap_Sys_M_Restrm_C" = 57676.05   $ Sizing
 "ClCap_Sys_M_StorSm_C" = 90950.89   $ Sizing
 "ClCap_Sys_T_Break_C" = 12389.92   $ Sizing
 "ClCap_Sys_T_Conf_C" = 18795.61   $ Sizing
 "ClCap_Sys_T_CopyRm_C" = 4152.215   $ Sizing
 "ClCap_Sys_T_Cordr_C" = 21589.25   $ Sizing
 "ClCap_Sys_T_Cordr_E" = 7336.36   $ Sizing
 "ClCap_Sys_T_Cordr_N" = 3206.949   $ Sizing
 "ClCap_Sys_T_Cordr_S" = 7491.661   $ Sizing
 "ClCap_Sys_T_Cordr_W" = 6675.895   $ Sizing
 "ClCap_Sys_T_LobWait_C" = 12326.4   $ Sizing
 "ClCap_Sys_T_MechElec_C" = 4565.713   $ Sizing
 "ClCap_Sys_T_OfficeOpn_C" = 59763.68   $ Sizing
 "ClCap_Sys_T_OfficeOpn_E" = 54442.86   $ Sizing
 "ClCap_Sys_T_OfficeOpn_N" = 26819.72   $ Sizing
 "ClCap_Sys_T_OfficeOpn_S" = 56588.64   $ Sizing
 "ClCap_Sys_T_OfficeOpn_W" = 51337.5   $ Sizing
 "ClCap_Sys_T_OfficeSm_C" = 8771.508   $ Sizing
 "ClCap_Sys_T_OfficeSm_E" = 39556.64   $ Sizing
 "ClCap_Sys_T_OfficeSm_N" = 16323.36   $ Sizing
 "ClCap_Sys_T_OfficeSm_S" = 41628.73   $ Sizing
 "ClCap_Sys_T_OfficeSm_W" = 37212.87   $ Sizing
 "ClCap_Sys_T_Restrm_C" = 7209.506   $ Sizing
 "ClCap_Sys_T_StorSm_C" = 11368.86   $ Sizing
 "HtCap_Sys_L_Break_C" = -19953.56   $ Sizing
 "HtCap_Sys_L_Conf_C" = -24597.05   $ Sizing
 "HtCap_Sys_L_CopyRm_C" = -7030.781   $ Sizing
 "HtCap_Sys_L_Cordr_C" = -25838.78   $ Sizing
 "HtCap_Sys_L_Cordr_E" = -7014.536   $ Sizing
 "HtCap_Sys_L_Cordr_N" = -4345.956   $ Sizing
 "HtCap_Sys_L_Cordr_S" = -7249.577   $ Sizing
 "HtCap_Sys_L_Cordr_W" = -6868.529   $ Sizing
 "HtCap_Sys_L_LobWait_C" = -18735.87   $ Sizing
 "HtCap_Sys_L_MechElec_C" = -6075.472   $ Sizing
 "HtCap_Sys_L_OfficeOpn_C" = -54737.89   $ Sizing
 "HtCap_Sys_L_OfficeOpn_E" = -54017.72   $ Sizing
 "HtCap_Sys_L_OfficeOpn_N" = -29120.91   $ Sizing
 "HtCap_Sys_L_OfficeOpn_S" = -54148.52   $ Sizing
 "HtCap_Sys_L_OfficeOpn_W" = -52548.4   $ Sizing
 "HtCap_Sys_L_OfficeSm_C" = -7560.209   $ Sizing
 "HtCap_Sys_L_OfficeSm_E" = -38086.66   $ Sizing
 "HtCap_Sys_L_OfficeSm_N" = -17576.45   $ Sizing
 "HtCap_Sys_L_OfficeSm_S" = -39094.71   $ Sizing
 "HtCap_Sys_L_OfficeSm_W" = -36896.84   $ Sizing
 "HtCap_Sys_L_Restrm_C" = -5616.113   $ Sizing
 "HtCap_Sys_L_StorSm_C" = -15428.25   $ Sizing
 "HtCap_Sys_M_Break_C" = -167822.1   $ Sizing
 "HtCap_Sys_M_Conf_C" = -207748.9   $ Sizing
 "HtCap_Sys_M_CopyRm_C" = -62239.11   $ Sizing
 "HtCap_Sys_M_Cordr_C" = -247464.7   $ Sizing
 "HtCap_Sys_M_Cordr_E" = -68332.7   $ Sizing
 "HtCap_Sys_M_Cordr_N" = -34665.91   $ Sizing
 "HtCap_Sys_M_Cordr_S" = -67510.24   $ Sizing
 "HtCap_Sys_M_Cordr_W" = -62601.5   $ Sizing
 "HtCap_Sys_M_LobWait_C" = -172941.7   $ Sizing
 "HtCap_Sys_M_MechElec_C" = -48605.9   $ Sizing
 "HtCap_Sys_M_OfficeOpn_C" = -733385   $ Sizing
 "HtCap_Sys_M_OfficeOpn_E" = -474072.2   $ Sizing
 "HtCap_Sys_M_OfficeOpn_N" = -268022.4   $ Sizing
 "HtCap_Sys_M_OfficeOpn_S" = -456169.2   $ Sizing
 "HtCap_Sys_M_OfficeOpn_W" = -444741.5   $ Sizing
 "HtCap_Sys_M_OfficeSm_C" = -78550.69   $ Sizing
 "HtCap_Sys_M_OfficeSm_E" = -332133.3   $ Sizing
 "HtCap_Sys_M_OfficeSm_N" = -162020.9   $ Sizing
 "HtCap_Sys_M_OfficeSm_S" = -337889.4   $ Sizing
 "HtCap_Sys_M_OfficeSm_W" = -312806.8   $ Sizing
 "HtCap_Sys_M_Restrm_C" = -54291.32   $ Sizing
 "HtCap_Sys_M_StorSm_C" = -120625.3   $ Sizing
 "HtCap_Sys_T_Break_C" = -20912.87   $ Sizing
 "HtCap_Sys_T_Conf_C" = -25905.03   $ Sizing
 "HtCap_Sys_T_CopyRm_C" = -7634.93   $ Sizing
 "HtCap_Sys_T_Cordr_C" = -30142.96   $ Sizing
 "HtCap_Sys_T_Cordr_E" = -8735.862   $ Sizing
 "HtCap_Sys_T_Cordr_N" = -4658.357   $ Sizing
 "HtCap_Sys_T_Cordr_S" = -8886.509   $ Sizing
 "HtCap_Sys_T_Cordr_W" = -8097.011   $ Sizing
 "HtCap_Sys_T_LobWait_C" = -21244.57   $ Sizing
 "HtCap_Sys_T_MechElec_C" = -6077.81   $ Sizing
 "HtCap_Sys_T_OfficeOpn_C" = -60954.88   $ Sizing
 "HtCap_Sys_T_OfficeOpn_E" = -60481.87   $ Sizing
 "HtCap_Sys_T_OfficeOpn_N" = -34951.6   $ Sizing
 "HtCap_Sys_T_OfficeOpn_S" = -63457.21   $ Sizing
 "HtCap_Sys_T_OfficeOpn_W" = -57536.12   $ Sizing
 "HtCap_Sys_T_OfficeSm_C" = -10288.54   $ Sizing
 "HtCap_Sys_T_OfficeSm_E" = -43876.58   $ Sizing
 "HtCap_Sys_T_OfficeSm_N" = -21488.92   $ Sizing
 "HtCap_Sys_T_OfficeSm_S" = -46060.47   $ Sizing
 "HtCap_Sys_T_OfficeSm_W" = -41752.7   $ Sizing
 "HtCap_Sys_T_Restrm_C" = -6479.292   $ Sizing
 "HtCap_Sys_T_StorSm_C" = -16232.79   $ Sizing
..

##include Templates\OfL_DX_SZ.inp
END ..
COMPUTE ..
STOP ..
