INPUT ..

##fileprefix C:\Users\jglasskatz\MASControl3\
##set1 IsSizing FALSE
##set1 CoolType DX
##set1 HeatType FURNACE
##set1 EU_HrRepVar 0
##set1 BldgVint 2017
##set1 BldgLoc CZ11

 ##set1 mBFMult 1   $ IP Tech: RefgChg-NRes-Std

PARAMETER
 "AltFactor" = 1.01292   $ IP Non-Tech
 "BF_fFlow" = SpltAC1Sp-ge45_BF_fFlow   $ Msr (Multi)TechID: StdNResSplitAC-45to55
 "BF_fT" = SpltAC1Sp-ge45_BF_fT   $ Msr (Multi)TechID: StdNResSplitAC-45to55
 "BldgEconoFlag" = 1   $ IP Non-Tech
 "Break_EWSF" = 1   $ IP Non-Tech
 "Break_LWSF" = 0.9   $ IP Non-Tech
 "CDD_DBHi10" = 85   $ IP Non-Tech
 "CDD_DBHi7" = 106   $ IP Non-Tech
 "CDD_DBHi8" = 106   $ IP Non-Tech
 "CDD_DBHi9" = 99   $ IP Non-Tech
 "CDD_DBRange10" = 23   $ IP Non-Tech
 "CDD_DBRange7" = 30   $ IP Non-Tech
 "CDD_DBRange8" = 33   $ IP Non-Tech
 "CDD_DBRange9" = 33   $ IP Non-Tech
 "CDD_Day10" = 15   $ IP Non-Tech
 "CDD_Day7" = 16   $ IP Non-Tech
 "CDD_Day8" = 20   $ IP Non-Tech
 "CDD_Day9" = 17   $ IP Non-Tech
 "CDD_HrHi10" = 16   $ IP Non-Tech
 "CDD_HrHi7" = 16   $ IP Non-Tech
 "CDD_HrHi8" = 16   $ IP Non-Tech
 "CDD_HrHi9" = 16   $ IP Non-Tech
 "CDD_HrLo10" = 6   $ IP Non-Tech
 "CDD_HrLo7" = 7   $ IP Non-Tech
 "CDD_HrLo8" = 7   $ IP Non-Tech
 "CDD_HrLo9" = 7   $ IP Non-Tech
 "CDD_WB10" = 59.3704567   $ IP Non-Tech
 "CDD_WB7" = 72.37876129   $ IP Non-Tech
 "CDD_WB8" = 69.41531372   $ IP Non-Tech
 "CDD_WB9" = 65.60124207   $ IP Non-Tech
 "CEIR_fPLR_Hot" = SpltAC1Sp-ge45_CEIR_fPLR_Hot   $ Msr (Multi)TechID: StdNResSplitAC-45to55
 "CEIR_fPLR_Mod" = SpltAC1Sp-ge45_CEIR_fPLR_Mod   $ Msr (Multi)TechID: StdNResSplitAC-45to55
 "CEIR_fPLR_Tem" = SpltAC1Sp-ge45_CEIR_fPLR_Tem   $ Msr (Multi)TechID: StdNResSplitAC-45to55
 "CLoss_fPLR_Hot" = SpltAC1Sp-ge45_CLoss_fPLR_Hot   $ Msr (Multi)TechID: StdNResSplitAC-45to55
 "CLoss_fPLR_Mod" = SpltAC1Sp-ge45_CLoss_fPLR_Mod   $ Msr (Multi)TechID: StdNResSplitAC-45to55
 "CLoss_fPLR_Tem" = SpltAC1Sp-ge45_CLoss_fPLR_Tem   $ Msr (Multi)TechID: StdNResSplitAC-45to55
 "COP47" = 0   $ Msr (Multi)TechID: StdNResSplitAC-45to55
 "CZ_Category" = Hot   $ IP Non-Tech
 "CapRange" = ge45   $ Msr (Multi)TechID: StdNResSplitAC-45to55
 "CfmPerBtuh" = 0.03263   $ Msr (Multi)TechID: StdNResSplitAC-45to55
 "ChwVintEconoFlag" = 1   $ IP Non-Tech
 "ClCap_fT" = SpltAC1Sp-ge45_ClCap_fT   $ Msr (Multi)TechID: StdNResSplitAC-45to55
 "ClSH_fT" = SpltAC1Sp-ge45_ClSH_fT   $ Msr (Multi)TechID: StdNResSplitAC-45to55
 "CoilBF" = 0.106518182   $ Msr (Multi)TechID: StdNResSplitAC-45to55
 "CondWPerBtuh" = 0   $ Msr (Multi)TechID: StdNResSplitAC-45to55
 "Conference_EWSF" = 1   $ IP Non-Tech
 "Conference_LWSF" = 1.2   $ IP Non-Tech
 "CoolSensCap" = 0.759218182   $ Msr (Multi)TechID: StdNResSplitAC-45to55
 "CoolSetT" = 45   $ IP Non-Tech
 "CoolType" = DX   $ IP Non-Tech
 "CoolingEIR" = 0.2466   $ Msr (Multi)TechID: StdNResSplitAC-45to55
 "CopyRoom_EWSF" = 1.5   $ IP Non-Tech
 "CopyRoom_LWSF" = 1.3   $ IP Non-Tech
 "CorridorStairway_EWSF" = 0.2   $ IP Non-Tech
 "CorridorStairway_LWSF" = 0.6   $ IP Non-Tech
 "CrnkEIR" = 0.002466   $ Msr (Multi)TechID: StdNResSplitAC-45to55
 "CrnkMaxT" = 50   $ Msr (Multi)TechID: StdNResSplitAC-45to55
 "DXType" = SplitSEER   $ Msr (Multi)TechID: StdNResSplitAC-45to55
 "DesCoolT" = 75   $ IP Non-Tech
 "DesHeatT" = 73   $ IP Non-Tech
 "EER" = 11.81793103   $ Msr (Multi)TechID: StdNResSplitAC-45to55
 "EIR_fT" = SpltAC1Sp-ge45_EIR_fT   $ Msr (Multi)TechID: StdNResSplitAC-45to55
 "EconoCtrl" = FIXED   $ Msr (Multi)TechID: StdNResSplitAC-45to55
 "EconoEnthLimit" = 28   $ IP Non-Tech
 "EconoTempLimit" = 75   $ IP Non-Tech
 "Elevation" = 348   $ IP Non-Tech
 "FanEirPlr" = TwoSpeedFan   $ Msr (Multi)TechID: StdNResSplitAC-45to55
 "FanWPerCfm" = 0.294   $ Msr (Multi)TechID: StdNResSplitAC-45to55
 "HDD_CloudAmt1" = 0   $ IP Non-Tech
 "HDD_DBHi1" = 46   $ IP Non-Tech
 "HDD_DBRange1" = 14   $ IP Non-Tech
 "HDD_Day1" = 15   $ IP Non-Tech
 "HDD_HrHi1" = 16   $ IP Non-Tech
 "HDD_HrLo1" = 7   $ IP Non-Tech
 "HDD_WB1" = 39.9   $ IP Non-Tech
 "HDD_WindSpd1" = 19.6   $ IP Non-Tech
 "HIR_fT" = 0   $ Msr (Multi)TechID: StdNResSplitAC-45to55
 "HSPF" = 0   $ Msr (Multi)TechID: StdNResSplitAC-45to55
 "HeatSrc" = FURNACE   $ IP Non-Tech
 "HeatSrcTU" = HEAT-PUMP   $ IP Non-Tech
 "HeatType" = GasFurn   $ IP Non-Tech
 "HeatTypeTU" = HEAT-PUMP   $ IP Non-Tech
 "HtCap_fT" = 0   $ Msr (Multi)TechID: StdNResSplitAC-45to55
 "HtCoolCapRatio" = 0   $ Msr (Multi)TechID: StdNResSplitAC-45to55
 "HtgEIR" = 0   $ Msr (Multi)TechID: StdNResSplitAC-45to55
 "IndoorFanMode" = CONTINUOUS   $ IP Non-Tech
 "KT_TransferAir" = Yes   $ IP Non-Tech
 "Latitude" = 40.2   $ IP Non-Tech
 "LobbyWaiting_EWSF" = 0.5   $ IP Non-Tech
 "LobbyWaiting_LWSF" = 0.875   $ IP Non-Tech
 "Longitude" = 122.3   $ IP Non-Tech
 "LowSpdCapRatio" = 1   $ Msr (Multi)TechID: StdNResSplitAC-45to55
 "LowSpdCfmRatio" = 1   $ Msr (Multi)TechID: StdNResSplitAC-45to55
 "MZFanMechEff" = 0.58   $ IP Non-Tech
 "MZHasRetFan" = FALSE   $ IP Non-Tech
 "MZ_RFanWPerCfm" = 0.37   $ IP Non-Tech
 "MZ_SFanWPerCfm" = 0.71   $ IP Non-Tech
 "MZ_SupFanStatic" = 2.25   $ IP Non-Tech
 "MaxOAFrac" = 1   $ Msr (Multi)TechID: StdNResSplitAC-45to55
 "MaxSupT_MZ" = 100   $ IP Non-Tech
 "MaxSupT_SZ" = 100   $ IP Non-Tech
 "MaxSupT_TU" = 90   $ IP Non-Tech
 "MechElecRoom_EWSF" = 0.2   $ IP Non-Tech
 "MechElecRoom_LWSF" = 0.55   $ IP Non-Tech
 "MinCfmPerSF" = 0.4   $ IP Non-Tech
 "MinSupT" = 55   $ IP Non-Tech
 "NumStages" = 1   $ Msr (Multi)TechID: StdNResSplitAC-45to55
 "OccCoolT" = 76   $ IP Non-Tech
 "OccHeatT" = 72   $ IP Non-Tech
 "OfficeOpen_EWSF" = 1.5   $ IP Non-Tech
 "OfficeOpen_LWSF" = 1.05   $ IP Non-Tech
 "OfficeSmall_EWSF" = 1.5   $ IP Non-Tech
 "OfficeSmall_LWSF" = 1.3   $ IP Non-Tech
 "PkgDxVintEconoFlag" = 1   $ IP Non-Tech
 "Restroom_EWSF" = 0.2   $ IP Non-Tech
 "Restroom_LWSF" = 0.6   $ IP Non-Tech
 "SEER" = 14   $ Msr (Multi)TechID: StdNResSplitAC-45to55
 "SZFanMechEff" = 0.58   $ IP Non-Tech
 "SZHasRetFan" = FALSE   $ IP Non-Tech
 "SZ_Is_2Spd" = TRUE   $ IP Non-Tech
 "SZ_SFanWPerCfm" = 0.46   $ IP Non-Tech
 "SZ_SupFanStatic" = 0.75   $ IP Non-Tech
 "Sector" = Any   $ Msr (Multi)TechID: StdNResSplitAC-45to55
 "StorageSmlCond_EWSF" = 0.2   $ IP Non-Tech
 "StorageSmlCond_LWSF" = 0.6   $ IP Non-Tech
 "SubType" = AC   $ Msr (Multi)TechID: StdNResSplitAC-45to55
 "TermUnitFanMechEff" = 1   $ IP Non-Tech
 "TermUnitFanMode" = INTERMITTENT   $ IP Non-Tech
 "TotCoolCap" = 52519.36364   $ Msr (Multi)TechID: StdNResSplitAC-45to55
 "TwrSetpt" = 85.8   $ IP Non-Tech
 "UnocCoolT" = 86   $ IP Non-Tech
 "UnocHeatT" = 62   $ IP Non-Tech
 "UseEconoVintApplic" = FALSE   $ Msr (Multi)TechID: StdNResSplitAC-45to55
 "WlhpVintEconoFlag" = 1   $ IP Non-Tech
 "DuctDT" = 1   $ IP Tech: ComDuctInsul-1
 "DuctAirLoss" = 0   $ IP Tech: ComDuctLeak-0
 "DuctLossOAFrac" = 0   $ IP Tech: ComDuctLeak-0
 "ComRoofInsCalc" = FromUo   $ IP Tech: ComRoofIns-Hvy-0.03
 "ComRoofInsR" = -999   $ IP Tech: ComRoofIns-Hvy-0.03
 "ComRoofUo" = 0.03   $ IP Tech: ComRoofIns-Hvy-0.03
 "ComEWInsCalc" = FromUo   $ IP Tech: ComWallIns-MFrm-0.06
 "ComEWInsR" = -999   $ IP Tech: ComWallIns-MFrm-0.06
 "ComEWUo" = 0.06   $ IP Tech: ComWallIns-MFrm-0.06
 "ComN_SHGC" = 0.26   $ IP Tech: NResWin-ComN-0.41-0.26
 "ComN_UFactor" = 0.41   $ IP Tech: NResWin-ComN-0.41-0.26
 "ComN_VisTrans" = 0.41   $ IP Tech: NResWin-ComN-0.41-0.26
 "ComN_WinCode" = G2666   $ IP Tech: NResWin-ComN-0.41-0.26
 "ComN_WinFrmFrac" = 0.17   $ IP Tech: NResWin-ComN-0.41-0.26
 "ComN_WinFrmU" = 0.3   $ IP Tech: NResWin-ComN-0.41-0.26
 "ComO_SHGC" = 0.26   $ IP Tech: NResWin-ComO-0.41-0.26
 "ComO_UFactor" = 0.41   $ IP Tech: NResWin-ComO-0.41-0.26
 "ComO_VisTrans" = 0.41   $ IP Tech: NResWin-ComO-0.41-0.26
 "ComO_WinCode" = G2666   $ IP Tech: NResWin-ComO-0.41-0.26
 "ComO_WinFrmFrac" = 0.17   $ IP Tech: NResWin-ComO-0.41-0.26
 "ComO_WinFrmU" = 0.3   $ IP Tech: NResWin-ComO-0.41-0.26
 "LtgMsrApplic" = ALL   $ IP Tech: NonResLtgRefPre
 "LtgSav_CFL" = 0   $ IP Tech: NonResLtgRefPre
 "LtgSav_EX" = 0   $ IP Tech: NonResLtgRefPre
 "LtgSav_HB" = 0   $ IP Tech: NonResLtgRefPre
 "LtgSav_LF" = 0   $ IP Tech: NonResLtgRefPre
 "LtgSav_SP" = 0   $ IP Tech: NonResLtgRefPre
 "CEIR_fPLR" = PSZ65to135_CEIR_fPLR   $ IP Tech: PkgAC2SpP-65to135-E11
 "CLoss_fPLR" = PSZ65to135_CLoss_fPLR   $ IP Tech: PkgAC2SpP-65to135-E11
 "COP" = -1   $ IP Tech: PkgAC2SpP-65to135-E11
 "HtgFuel" = Gas   $ IP Tech: PkgAC2SpP-65to135-E11
 "IEER" = 13.35   $ IP Tech: PkgAC2SpP-65to135-E11
 "NominalCap" = 15   $ IP Tech: PkgAC2SpP-65to135-E11
 "RatedEER" = 11   $ IP Tech: PkgAC2SpP-65to135-E11
 "RatedSupMtrClass" = Premium   $ IP Tech: PkgAC2SpP-65to135-E11
 "SizeRange" = 65to135   $ IP Tech: PkgAC2SpP-65to135-E11
 "SupMotEff" = 0.865   $ IP Tech: PkgAC2SpP-65to135-E11
 "Tier" = 0   $ IP Tech: PkgAC2SpP-65to135-E11
 "FanPwrMult" = 1   $ IP Tech: PkgFurn-0.80AFUE
 "FurnAFUE" = 0.8   $ IP Tech: PkgFurn-0.80AFUE
 "FurnEt" = 0.82   $ IP Tech: PkgFurn-0.80AFUE
 "FurnaceAuxKW" = 0.1   $ IP Tech: PkgFurn-0.80AFUE
 "HIR_fPLR" = Furnace-HIR-fPLR   $ IP Tech: PkgFurn-0.80AFUE
 "VSM" = FALSE   $ IP Tech: PkgFurn-0.80AFUE
 "BFMult" = 1   $ IP Tech: RefgChg-NRes-Std
 "CoolEirMult" = 1   $ IP Tech: RefgChg-NRes-Std
 "SensCoolCapMult" = 1   $ IP Tech: RefgChg-NRes-Std
 "TotCoolCapMult" = 1   $ IP Tech: RefgChg-NRes-Std
 "AltAdjFactor" = 1.012923   $ Sizing
 "CAssFlo_L_Break_CZn" = 567.8359   $ Sizing
 "CAssFlo_L_Conf_CZn" = 551.3824   $ Sizing
 "CAssFlo_L_CopyRm_CZn" = 181.0714   $ Sizing
 "CAssFlo_L_Cordr_CZn" = 672.6563   $ Sizing
 "CAssFlo_L_Cordr_EZn" = 232.7599   $ Sizing
 "CAssFlo_L_Cordr_NZn" = 171.2357   $ Sizing
 "CAssFlo_L_Cordr_SZn" = 223.4912   $ Sizing
 "CAssFlo_L_Cordr_WZn" = 265.6851   $ Sizing
 "CAssFlo_L_LobWait_CZn" = 528.9402   $ Sizing
 "CAssFlo_L_MechElec_CZn" = 119.9245   $ Sizing
 "CAssFlo_L_OfficeOpn_CZn" = 1876.126   $ Sizing
 "CAssFlo_L_OfficeOpn_EZn" = 1605.01   $ Sizing
 "CAssFlo_L_OfficeOpn_NZn" = 1238.313   $ Sizing
 "CAssFlo_L_OfficeOpn_SZn" = 1564.43   $ Sizing
 "CAssFlo_L_OfficeOpn_WZn" = 1868.753   $ Sizing
 "CAssFlo_L_OfficeSm_CZn" = 241.4355   $ Sizing
 "CAssFlo_L_OfficeSm_EZn" = 1145.717   $ Sizing
 "CAssFlo_L_OfficeSm_NZn" = 815.0085   $ Sizing
 "CAssFlo_L_OfficeSm_SZn" = 1117.028   $ Sizing
 "CAssFlo_L_OfficeSm_WZn" = 1309.823   $ Sizing
 "CAssFlo_L_Restrm_CZn" = 93.94095   $ Sizing
 "CAssFlo_L_StorSm_CZn" = 373.3455   $ Sizing
 "CAssFlo_M_Break_CZn" = 572.2912   $ Sizing
 "CAssFlo_M_Conf_CZn" = 549.2117   $ Sizing
 "CAssFlo_M_CopyRm_CZn" = 178.1705   $ Sizing
 "CAssFlo_M_Cordr_CZn" = 875.4431   $ Sizing
 "CAssFlo_M_Cordr_EZn" = 265.0604   $ Sizing
 "CAssFlo_M_Cordr_NZn" = 184.8459   $ Sizing
 "CAssFlo_M_Cordr_SZn" = 241.5872   $ Sizing
 "CAssFlo_M_Cordr_WZn" = 277.1035   $ Sizing
 "CAssFlo_M_LobWait_CZn" = 552.2375   $ Sizing
 "CAssFlo_M_MechElec_CZn" = 144.4589   $ Sizing
 "CAssFlo_M_OfficeOpn_CZn" = 1878.802   $ Sizing
 "CAssFlo_M_OfficeOpn_EZn" = 1731.142   $ Sizing
 "CAssFlo_M_OfficeOpn_NZn" = 1292.326   $ Sizing
 "CAssFlo_M_OfficeOpn_SZn" = 1644.566   $ Sizing
 "CAssFlo_M_OfficeOpn_WZn" = 1911.104   $ Sizing
 "CAssFlo_M_OfficeSm_CZn" = 272.9578   $ Sizing
 "CAssFlo_M_OfficeSm_EZn" = 1216.48   $ Sizing
 "CAssFlo_M_OfficeSm_NZn" = 844.0139   $ Sizing
 "CAssFlo_M_OfficeSm_SZn" = 1164.386   $ Sizing
 "CAssFlo_M_OfficeSm_WZn" = 1326.592   $ Sizing
 "CAssFlo_M_Restrm_CZn" = 101.5112   $ Sizing
 "CAssFlo_M_StorSm_CZn" = 390.8743   $ Sizing
 "CAssFlo_T_Break_CZn" = 563.7521   $ Sizing
 "CAssFlo_T_Conf_CZn" = 540.6733   $ Sizing
 "CAssFlo_T_CopyRm_CZn" = 173.1793   $ Sizing
 "CAssFlo_T_Cordr_CZn" = 810.813   $ Sizing
 "CAssFlo_T_Cordr_EZn" = 259.7959   $ Sizing
 "CAssFlo_T_Cordr_NZn" = 186.3814   $ Sizing
 "CAssFlo_T_Cordr_SZn" = 242.423   $ Sizing
 "CAssFlo_T_Cordr_WZn" = 276.5377   $ Sizing
 "CAssFlo_T_LobWait_CZn" = 549.6301   $ Sizing
 "CAssFlo_T_MechElec_CZn" = 162.3185   $ Sizing
 "CAssFlo_T_OfficeOpn_CZn" = 1913.466   $ Sizing
 "CAssFlo_T_OfficeOpn_EZn" = 1725.368   $ Sizing
 "CAssFlo_T_OfficeOpn_NZn" = 1305.431   $ Sizing
 "CAssFlo_T_OfficeOpn_SZn" = 1660.732   $ Sizing
 "CAssFlo_T_OfficeOpn_WZn" = 1896.218   $ Sizing
 "CAssFlo_T_OfficeSm_CZn" = 249.0999   $ Sizing
 "CAssFlo_T_OfficeSm_EZn" = 1240.78   $ Sizing
 "CAssFlo_T_OfficeSm_NZn" = 858.8564   $ Sizing
 "CAssFlo_T_OfficeSm_SZn" = 1170.491   $ Sizing
 "CAssFlo_T_OfficeSm_WZn" = 1341.586   $ Sizing
 "CAssFlo_T_Restrm_CZn" = 131.1728   $ Sizing
 "CAssFlo_T_StorSm_CZn" = 290.9927   $ Sizing
 "CHRtFlo_Sys_L_Break_C" = 567.8359   $ Sizing
 "CHRtFlo_Sys_L_Conf_C" = 551.3824   $ Sizing
 "CHRtFlo_Sys_L_CopyRm_C" = 181.0714   $ Sizing
 "CHRtFlo_Sys_L_Cordr_C" = 683.1682   $ Sizing
 "CHRtFlo_Sys_L_Cordr_E" = 264.2734   $ Sizing
 "CHRtFlo_Sys_L_Cordr_N" = 171.2357   $ Sizing
 "CHRtFlo_Sys_L_Cordr_S" = 250.4429   $ Sizing
 "CHRtFlo_Sys_L_Cordr_W" = 265.6851   $ Sizing
 "CHRtFlo_Sys_L_LobWait_C" = 528.9402   $ Sizing
 "CHRtFlo_Sys_L_MechElec_C" = 136.6191   $ Sizing
 "CHRtFlo_Sys_L_OfficeOpn_C" = 1876.126   $ Sizing
 "CHRtFlo_Sys_L_OfficeOpn_E" = 1854.437   $ Sizing
 "CHRtFlo_Sys_L_OfficeOpn_N" = 1238.313   $ Sizing
 "CHRtFlo_Sys_L_OfficeOpn_S" = 1809.529   $ Sizing
 "CHRtFlo_Sys_L_OfficeOpn_W" = 1868.753   $ Sizing
 "CHRtFlo_Sys_L_OfficeSm_C" = 266.4372   $ Sizing
 "CHRtFlo_Sys_L_OfficeSm_E" = 1352.185   $ Sizing
 "CHRtFlo_Sys_L_OfficeSm_N" = 815.0084   $ Sizing
 "CHRtFlo_Sys_L_OfficeSm_S" = 1331.734   $ Sizing
 "CHRtFlo_Sys_L_OfficeSm_W" = 1331.564   $ Sizing
 "CHRtFlo_Sys_L_Restrm_C" = 212.9946   $ Sizing
 "CHRtFlo_Sys_L_StorSm_C" = 420.2424   $ Sizing
 "CHRtFlo_Sys_M_Break_C" = 4578.33   $ Sizing
 "CHRtFlo_Sys_M_Conf_C" = 4393.694   $ Sizing
 "CHRtFlo_Sys_M_CopyRm_C" = 1425.364   $ Sizing
 "CHRtFlo_Sys_M_Cordr_C" = 8166.191   $ Sizing
 "CHRtFlo_Sys_M_Cordr_E" = 2462.552   $ Sizing
 "CHRtFlo_Sys_M_Cordr_N" = 1515.21   $ Sizing
 "CHRtFlo_Sys_M_Cordr_S" = 2243.26   $ Sizing
 "CHRtFlo_Sys_M_Cordr_W" = 2216.828   $ Sizing
 "CHRtFlo_Sys_M_LobWait_C" = 4417.9   $ Sizing
 "CHRtFlo_Sys_M_MechElec_C" = 1413.852   $ Sizing
 "CHRtFlo_Sys_M_OfficeOpn_C" = 17003.92   $ Sizing
 "CHRtFlo_Sys_M_OfficeOpn_E" = 16152.34   $ Sizing
 "CHRtFlo_Sys_M_OfficeOpn_N" = 10338.61   $ Sizing
 "CHRtFlo_Sys_M_OfficeOpn_S" = 15498.47   $ Sizing
 "CHRtFlo_Sys_M_OfficeOpn_W" = 15288.83   $ Sizing
 "CHRtFlo_Sys_M_OfficeSm_C" = 2658.414   $ Sizing
 "CHRtFlo_Sys_M_OfficeSm_E" = 11594.62   $ Sizing
 "CHRtFlo_Sys_M_OfficeSm_N" = 6752.112   $ Sizing
 "CHRtFlo_Sys_M_OfficeSm_S" = 11256.96   $ Sizing
 "CHRtFlo_Sys_M_OfficeSm_W" = 10917.47   $ Sizing
 "CHRtFlo_Sys_M_Restrm_C" = 1703.957   $ Sizing
 "CHRtFlo_Sys_M_StorSm_C" = 3651.68   $ Sizing
 "CHRtFlo_Sys_T_Break_C" = 563.7521   $ Sizing
 "CHRtFlo_Sys_T_Conf_C" = 540.6733   $ Sizing
 "CHRtFlo_Sys_T_CopyRm_C" = 173.1793   $ Sizing
 "CHRtFlo_Sys_T_Cordr_C" = 859.7249   $ Sizing
 "CHRtFlo_Sys_T_Cordr_E" = 271.989   $ Sizing
 "CHRtFlo_Sys_T_Cordr_N" = 186.3814   $ Sizing
 "CHRtFlo_Sys_T_Cordr_S" = 254.5772   $ Sizing
 "CHRtFlo_Sys_T_Cordr_W" = 276.5377   $ Sizing
 "CHRtFlo_Sys_T_LobWait_C" = 549.6301   $ Sizing
 "CHRtFlo_Sys_T_MechElec_C" = 200.012   $ Sizing
 "CHRtFlo_Sys_T_OfficeOpn_C" = 1913.466   $ Sizing
 "CHRtFlo_Sys_T_OfficeOpn_E" = 1837.724   $ Sizing
 "CHRtFlo_Sys_T_OfficeOpn_N" = 1305.431   $ Sizing
 "CHRtFlo_Sys_T_OfficeOpn_S" = 1809.422   $ Sizing
 "CHRtFlo_Sys_T_OfficeOpn_W" = 1896.218   $ Sizing
 "CHRtFlo_Sys_T_OfficeSm_C" = 293.1034   $ Sizing
 "CHRtFlo_Sys_T_OfficeSm_E" = 1357.146   $ Sizing
 "CHRtFlo_Sys_T_OfficeSm_N" = 858.8564   $ Sizing
 "CHRtFlo_Sys_T_OfficeSm_S" = 1343.176   $ Sizing
 "CHRtFlo_Sys_T_OfficeSm_W" = 1341.586   $ Sizing
 "CHRtFlo_Sys_T_Restrm_C" = 212.9946   $ Sizing
 "CHRtFlo_Sys_T_StorSm_C" = 335.8768   $ Sizing
 "CRtdFlo_Sys_L_Break_C" = 567.8359   $ Sizing
 "CRtdFlo_Sys_L_Conf_C" = 551.3824   $ Sizing
 "CRtdFlo_Sys_L_CopyRm_C" = 181.0714   $ Sizing
 "CRtdFlo_Sys_L_Cordr_C" = 672.6563   $ Sizing
 "CRtdFlo_Sys_L_Cordr_E" = 232.7599   $ Sizing
 "CRtdFlo_Sys_L_Cordr_N" = 171.2357   $ Sizing
 "CRtdFlo_Sys_L_Cordr_S" = 223.4912   $ Sizing
 "CRtdFlo_Sys_L_Cordr_W" = 265.6851   $ Sizing
 "CRtdFlo_Sys_L_LobWait_C" = 528.9402   $ Sizing
 "CRtdFlo_Sys_L_MechElec_C" = 119.9245   $ Sizing
 "CRtdFlo_Sys_L_OfficeOpn_C" = 1876.126   $ Sizing
 "CRtdFlo_Sys_L_OfficeOpn_E" = 1605.01   $ Sizing
 "CRtdFlo_Sys_L_OfficeOpn_N" = 1238.313   $ Sizing
 "CRtdFlo_Sys_L_OfficeOpn_S" = 1564.43   $ Sizing
 "CRtdFlo_Sys_L_OfficeOpn_W" = 1868.753   $ Sizing
 "CRtdFlo_Sys_L_OfficeSm_C" = 241.4356   $ Sizing
 "CRtdFlo_Sys_L_OfficeSm_E" = 1145.717   $ Sizing
 "CRtdFlo_Sys_L_OfficeSm_N" = 815.0084   $ Sizing
 "CRtdFlo_Sys_L_OfficeSm_S" = 1117.028   $ Sizing
 "CRtdFlo_Sys_L_OfficeSm_W" = 1309.823   $ Sizing
 "CRtdFlo_Sys_L_Restrm_C" = 93.94095   $ Sizing
 "CRtdFlo_Sys_L_StorSm_C" = 373.3455   $ Sizing
 "CRtdFlo_Sys_M_Break_C" = 4578.33   $ Sizing
 "CRtdFlo_Sys_M_Conf_C" = 4393.694   $ Sizing
 "CRtdFlo_Sys_M_CopyRm_C" = 1425.364   $ Sizing
 "CRtdFlo_Sys_M_Cordr_C" = 7003.544   $ Sizing
 "CRtdFlo_Sys_M_Cordr_E" = 2120.483   $ Sizing
 "CRtdFlo_Sys_M_Cordr_N" = 1478.767   $ Sizing
 "CRtdFlo_Sys_M_Cordr_S" = 1932.698   $ Sizing
 "CRtdFlo_Sys_M_Cordr_W" = 2216.828   $ Sizing
 "CRtdFlo_Sys_M_LobWait_C" = 4417.9   $ Sizing
 "CRtdFlo_Sys_M_MechElec_C" = 1155.671   $ Sizing
 "CRtdFlo_Sys_M_OfficeOpn_C" = 15030.42   $ Sizing
 "CRtdFlo_Sys_M_OfficeOpn_E" = 13849.13   $ Sizing
 "CRtdFlo_Sys_M_OfficeOpn_N" = 10338.61   $ Sizing
 "CRtdFlo_Sys_M_OfficeOpn_S" = 13156.53   $ Sizing
 "CRtdFlo_Sys_M_OfficeOpn_W" = 15288.83   $ Sizing
 "CRtdFlo_Sys_M_OfficeSm_C" = 2183.663   $ Sizing
 "CRtdFlo_Sys_M_OfficeSm_E" = 9731.841   $ Sizing
 "CRtdFlo_Sys_M_OfficeSm_N" = 6752.112   $ Sizing
 "CRtdFlo_Sys_M_OfficeSm_S" = 9315.086   $ Sizing
 "CRtdFlo_Sys_M_OfficeSm_W" = 10612.74   $ Sizing
 "CRtdFlo_Sys_M_Restrm_C" = 812.0899   $ Sizing
 "CRtdFlo_Sys_M_StorSm_C" = 3126.995   $ Sizing
 "CRtdFlo_Sys_T_Break_C" = 563.7521   $ Sizing
 "CRtdFlo_Sys_T_Conf_C" = 540.6733   $ Sizing
 "CRtdFlo_Sys_T_CopyRm_C" = 173.1793   $ Sizing
 "CRtdFlo_Sys_T_Cordr_C" = 810.813   $ Sizing
 "CRtdFlo_Sys_T_Cordr_E" = 259.7959   $ Sizing
 "CRtdFlo_Sys_T_Cordr_N" = 186.3814   $ Sizing
 "CRtdFlo_Sys_T_Cordr_S" = 242.423   $ Sizing
 "CRtdFlo_Sys_T_Cordr_W" = 276.5377   $ Sizing
 "CRtdFlo_Sys_T_LobWait_C" = 549.6301   $ Sizing
 "CRtdFlo_Sys_T_MechElec_C" = 162.3185   $ Sizing
 "CRtdFlo_Sys_T_OfficeOpn_C" = 1913.466   $ Sizing
 "CRtdFlo_Sys_T_OfficeOpn_E" = 1725.368   $ Sizing
 "CRtdFlo_Sys_T_OfficeOpn_N" = 1305.431   $ Sizing
 "CRtdFlo_Sys_T_OfficeOpn_S" = 1660.732   $ Sizing
 "CRtdFlo_Sys_T_OfficeOpn_W" = 1896.218   $ Sizing
 "CRtdFlo_Sys_T_OfficeSm_C" = 249.0999   $ Sizing
 "CRtdFlo_Sys_T_OfficeSm_E" = 1240.78   $ Sizing
 "CRtdFlo_Sys_T_OfficeSm_N" = 858.8564   $ Sizing
 "CRtdFlo_Sys_T_OfficeSm_S" = 1170.491   $ Sizing
 "CRtdFlo_Sys_T_OfficeSm_W" = 1341.586   $ Sizing
 "CRtdFlo_Sys_T_Restrm_C" = 131.1728   $ Sizing
 "CRtdFlo_Sys_T_StorSm_C" = 290.9927   $ Sizing
 "CSupFlo_Sys_L_Break_C" = 567.8359   $ Sizing
 "CSupFlo_Sys_L_Conf_C" = 551.3824   $ Sizing
 "CSupFlo_Sys_L_CopyRm_C" = 181.0714   $ Sizing
 "CSupFlo_Sys_L_Cordr_C" = 672.6563   $ Sizing
 "CSupFlo_Sys_L_Cordr_E" = 232.7599   $ Sizing
 "CSupFlo_Sys_L_Cordr_N" = 171.2357   $ Sizing
 "CSupFlo_Sys_L_Cordr_S" = 223.4912   $ Sizing
 "CSupFlo_Sys_L_Cordr_W" = 265.6851   $ Sizing
 "CSupFlo_Sys_L_LobWait_C" = 528.9402   $ Sizing
 "CSupFlo_Sys_L_MechElec_C" = 119.9245   $ Sizing
 "CSupFlo_Sys_L_OfficeOpn_C" = 1876.126   $ Sizing
 "CSupFlo_Sys_L_OfficeOpn_E" = 1605.01   $ Sizing
 "CSupFlo_Sys_L_OfficeOpn_N" = 1238.313   $ Sizing
 "CSupFlo_Sys_L_OfficeOpn_S" = 1564.43   $ Sizing
 "CSupFlo_Sys_L_OfficeOpn_W" = 1868.753   $ Sizing
 "CSupFlo_Sys_L_OfficeSm_C" = 241.4356   $ Sizing
 "CSupFlo_Sys_L_OfficeSm_E" = 1145.717   $ Sizing
 "CSupFlo_Sys_L_OfficeSm_N" = 815.0084   $ Sizing
 "CSupFlo_Sys_L_OfficeSm_S" = 1117.028   $ Sizing
 "CSupFlo_Sys_L_OfficeSm_W" = 1309.823   $ Sizing
 "CSupFlo_Sys_L_Restrm_C" = 93.94095   $ Sizing
 "CSupFlo_Sys_L_StorSm_C" = 373.3455   $ Sizing
 "CSupFlo_Sys_M_Break_C" = 4578.33   $ Sizing
 "CSupFlo_Sys_M_Conf_C" = 4393.694   $ Sizing
 "CSupFlo_Sys_M_CopyRm_C" = 1425.364   $ Sizing
 "CSupFlo_Sys_M_Cordr_C" = 7003.544   $ Sizing
 "CSupFlo_Sys_M_Cordr_E" = 2120.483   $ Sizing
 "CSupFlo_Sys_M_Cordr_N" = 1478.767   $ Sizing
 "CSupFlo_Sys_M_Cordr_S" = 1932.698   $ Sizing
 "CSupFlo_Sys_M_Cordr_W" = 2216.828   $ Sizing
 "CSupFlo_Sys_M_LobWait_C" = 4417.9   $ Sizing
 "CSupFlo_Sys_M_MechElec_C" = 1155.671   $ Sizing
 "CSupFlo_Sys_M_OfficeOpn_C" = 15030.42   $ Sizing
 "CSupFlo_Sys_M_OfficeOpn_E" = 13849.13   $ Sizing
 "CSupFlo_Sys_M_OfficeOpn_N" = 10338.61   $ Sizing
 "CSupFlo_Sys_M_OfficeOpn_S" = 13156.53   $ Sizing
 "CSupFlo_Sys_M_OfficeOpn_W" = 15288.83   $ Sizing
 "CSupFlo_Sys_M_OfficeSm_C" = 2183.663   $ Sizing
 "CSupFlo_Sys_M_OfficeSm_E" = 9731.841   $ Sizing
 "CSupFlo_Sys_M_OfficeSm_N" = 6752.112   $ Sizing
 "CSupFlo_Sys_M_OfficeSm_S" = 9315.086   $ Sizing
 "CSupFlo_Sys_M_OfficeSm_W" = 10612.74   $ Sizing
 "CSupFlo_Sys_M_Restrm_C" = 812.0899   $ Sizing
 "CSupFlo_Sys_M_StorSm_C" = 3126.995   $ Sizing
 "CSupFlo_Sys_T_Break_C" = 563.7521   $ Sizing
 "CSupFlo_Sys_T_Conf_C" = 540.6733   $ Sizing
 "CSupFlo_Sys_T_CopyRm_C" = 173.1793   $ Sizing
 "CSupFlo_Sys_T_Cordr_C" = 810.813   $ Sizing
 "CSupFlo_Sys_T_Cordr_E" = 259.7959   $ Sizing
 "CSupFlo_Sys_T_Cordr_N" = 186.3814   $ Sizing
 "CSupFlo_Sys_T_Cordr_S" = 242.423   $ Sizing
 "CSupFlo_Sys_T_Cordr_W" = 276.5377   $ Sizing
 "CSupFlo_Sys_T_LobWait_C" = 549.6301   $ Sizing
 "CSupFlo_Sys_T_MechElec_C" = 162.3185   $ Sizing
 "CSupFlo_Sys_T_OfficeOpn_C" = 1913.466   $ Sizing
 "CSupFlo_Sys_T_OfficeOpn_E" = 1725.368   $ Sizing
 "CSupFlo_Sys_T_OfficeOpn_N" = 1305.431   $ Sizing
 "CSupFlo_Sys_T_OfficeOpn_S" = 1660.732   $ Sizing
 "CSupFlo_Sys_T_OfficeOpn_W" = 1896.218   $ Sizing
 "CSupFlo_Sys_T_OfficeSm_C" = 249.0999   $ Sizing
 "CSupFlo_Sys_T_OfficeSm_E" = 1240.78   $ Sizing
 "CSupFlo_Sys_T_OfficeSm_N" = 858.8564   $ Sizing
 "CSupFlo_Sys_T_OfficeSm_S" = 1170.491   $ Sizing
 "CSupFlo_Sys_T_OfficeSm_W" = 1341.586   $ Sizing
 "CSupFlo_Sys_T_Restrm_C" = 131.1728   $ Sizing
 "CSupFlo_Sys_T_StorSm_C" = 290.9927   $ Sizing
 "ClCap_Sys_L_Break_C" = 19220.28   $ Sizing
 "ClCap_Sys_L_Conf_C" = 23753.37   $ Sizing
 "ClCap_Sys_L_CopyRm_C" = 6128.959   $ Sizing
 "ClCap_Sys_L_Cordr_C" = 22768.28   $ Sizing
 "ClCap_Sys_L_Cordr_E" = 7878.528   $ Sizing
 "ClCap_Sys_L_Cordr_N" = 5796.04   $ Sizing
 "ClCap_Sys_L_Cordr_S" = 7564.8   $ Sizing
 "ClCap_Sys_L_Cordr_W" = 8992.991   $ Sizing
 "ClCap_Sys_L_LobWait_C" = 17903.73   $ Sizing
 "ClCap_Sys_L_MechElec_C" = 4059.242   $ Sizing
 "ClCap_Sys_L_OfficeOpn_C" = 63503.68   $ Sizing
 "ClCap_Sys_L_OfficeOpn_E" = 54326.88   $ Sizing
 "ClCap_Sys_L_OfficeOpn_N" = 41914.81   $ Sizing
 "ClCap_Sys_L_OfficeOpn_S" = 52953.31   $ Sizing
 "ClCap_Sys_L_OfficeOpn_W" = 63254.13   $ Sizing
 "ClCap_Sys_L_OfficeSm_C" = 8172.185   $ Sizing
 "ClCap_Sys_L_OfficeSm_E" = 38780.57   $ Sizing
 "ClCap_Sys_L_OfficeSm_N" = 27586.66   $ Sizing
 "ClCap_Sys_L_OfficeSm_S" = 37809.51   $ Sizing
 "ClCap_Sys_L_OfficeSm_W" = 44335.27   $ Sizing
 "ClCap_Sys_L_Restrm_C" = 3179.742   $ Sizing
 "ClCap_Sys_L_StorSm_C" = 12637.11   $ Sizing
 "ClCap_Sys_M_Break_C" = 154968.7   $ Sizing
 "ClCap_Sys_M_Conf_C" = 189278.9   $ Sizing
 "ClCap_Sys_M_CopyRm_C" = 48246.17   $ Sizing
 "ClCap_Sys_M_Cordr_C" = 237058.1   $ Sizing
 "ClCap_Sys_M_Cordr_E" = 71774.76   $ Sizing
 "ClCap_Sys_M_Cordr_N" = 50053.77   $ Sizing
 "ClCap_Sys_M_Cordr_S" = 65418.56   $ Sizing
 "ClCap_Sys_M_Cordr_W" = 75035.87   $ Sizing
 "ClCap_Sys_M_LobWait_C" = 149538.4   $ Sizing
 "ClCap_Sys_M_MechElec_C" = 39117.51   $ Sizing
 "ClCap_Sys_M_OfficeOpn_C" = 508754.2   $ Sizing
 "ClCap_Sys_M_OfficeOpn_E" = 468769.7   $ Sizing
 "ClCap_Sys_M_OfficeOpn_N" = 349944.3   $ Sizing
 "ClCap_Sys_M_OfficeOpn_S" = 445326.3   $ Sizing
 "ClCap_Sys_M_OfficeOpn_W" = 517501   $ Sizing
 "ClCap_Sys_M_OfficeSm_C" = 73913.28   $ Sizing
 "ClCap_Sys_M_OfficeSm_E" = 329406.3   $ Sizing
 "ClCap_Sys_M_OfficeSm_N" = 228547.6   $ Sizing
 "ClCap_Sys_M_OfficeSm_S" = 315299.9   $ Sizing
 "ClCap_Sys_M_OfficeSm_W" = 359223.3   $ Sizing
 "ClCap_Sys_M_Restrm_C" = 27487.87   $ Sizing
 "ClCap_Sys_M_StorSm_C" = 105843.5   $ Sizing
 "ClCap_Sys_T_Break_C" = 19082.05   $ Sizing
 "ClCap_Sys_T_Conf_C" = 23292.03   $ Sizing
 "ClCap_Sys_T_CopyRm_C" = 5861.828   $ Sizing
 "ClCap_Sys_T_Cordr_C" = 27444.65   $ Sizing
 "ClCap_Sys_T_Cordr_E" = 8793.65   $ Sizing
 "ClCap_Sys_T_Cordr_N" = 6308.696   $ Sizing
 "ClCap_Sys_T_Cordr_S" = 8205.608   $ Sizing
 "ClCap_Sys_T_Cordr_W" = 9360.334   $ Sizing
 "ClCap_Sys_T_LobWait_C" = 18604.05   $ Sizing
 "ClCap_Sys_T_MechElec_C" = 5494.206   $ Sizing
 "ClCap_Sys_T_OfficeOpn_C" = 64767.57   $ Sizing
 "ClCap_Sys_T_OfficeOpn_E" = 58400.8   $ Sizing
 "ClCap_Sys_T_OfficeOpn_N" = 44186.63   $ Sizing
 "ClCap_Sys_T_OfficeOpn_S" = 56212.96   $ Sizing
 "ClCap_Sys_T_OfficeOpn_W" = 64183.75   $ Sizing
 "ClCap_Sys_T_OfficeSm_C" = 8431.61   $ Sizing
 "ClCap_Sys_T_OfficeSm_E" = 41998.31   $ Sizing
 "ClCap_Sys_T_OfficeSm_N" = 29070.83   $ Sizing
 "ClCap_Sys_T_OfficeSm_S" = 39619.13   $ Sizing
 "ClCap_Sys_T_OfficeSm_W" = 45410.41   $ Sizing
 "ClCap_Sys_T_Restrm_C" = 4439.978   $ Sizing
 "ClCap_Sys_T_StorSm_C" = 9849.609   $ Sizing
 "HtCap_Sys_L_Break_C" = -31996.94   $ Sizing
 "HtCap_Sys_L_Conf_C" = -32103.33   $ Sizing
 "HtCap_Sys_L_CopyRm_C" = -11818.57   $ Sizing
 "HtCap_Sys_L_Cordr_C" = -29935.17   $ Sizing
 "HtCap_Sys_L_Cordr_E" = -9437.146   $ Sizing
 "HtCap_Sys_L_Cordr_N" = -7028.379   $ Sizing
 "HtCap_Sys_L_Cordr_S" = -8965.285   $ Sizing
 "HtCap_Sys_L_Cordr_W" = -9560.08   $ Sizing
 "HtCap_Sys_L_LobWait_C" = -29841.18   $ Sizing
 "HtCap_Sys_L_MechElec_C" = -6286.546   $ Sizing
 "HtCap_Sys_L_OfficeOpn_C" = -90894.88   $ Sizing
 "HtCap_Sys_L_OfficeOpn_E" = -63465.06   $ Sizing
 "HtCap_Sys_L_OfficeOpn_N" = -46823.29   $ Sizing
 "HtCap_Sys_L_OfficeOpn_S" = -61488.89   $ Sizing
 "HtCap_Sys_L_OfficeOpn_W" = -63916.83   $ Sizing
 "HtCap_Sys_L_OfficeSm_C" = -10457.04   $ Sizing
 "HtCap_Sys_L_OfficeSm_E" = -45886.81   $ Sizing
 "HtCap_Sys_L_OfficeSm_N" = -30680.32   $ Sizing
 "HtCap_Sys_L_OfficeSm_S" = -45002.91   $ Sizing
 "HtCap_Sys_L_OfficeSm_W" = -45331.6   $ Sizing
 "HtCap_Sys_L_Restrm_C" = -7744.962   $ Sizing
 "HtCap_Sys_L_StorSm_C" = -18350.55   $ Sizing
 "HtCap_Sys_M_Break_C" = -243723   $ Sizing
 "HtCap_Sys_M_Conf_C" = -237735.1   $ Sizing
 "HtCap_Sys_M_CopyRm_C" = -80757.02   $ Sizing
 "HtCap_Sys_M_Cordr_C" = -316569.2   $ Sizing
 "HtCap_Sys_M_Cordr_E" = -85289.64   $ Sizing
 "HtCap_Sys_M_Cordr_N" = -57936.05   $ Sizing
 "HtCap_Sys_M_Cordr_S" = -78289.39   $ Sizing
 "HtCap_Sys_M_Cordr_W" = -78498.29   $ Sizing
 "HtCap_Sys_M_LobWait_C" = -214583.9   $ Sizing
 "HtCap_Sys_M_MechElec_C" = -59301.24   $ Sizing
 "HtCap_Sys_M_OfficeOpn_C" = -644570   $ Sizing
 "HtCap_Sys_M_OfficeOpn_E" = -544094.1   $ Sizing
 "HtCap_Sys_M_OfficeOpn_N" = -384338.4   $ Sizing
 "HtCap_Sys_M_OfficeOpn_S" = -518840.1   $ Sizing
 "HtCap_Sys_M_OfficeOpn_W" = -519473.5   $ Sizing
 "HtCap_Sys_M_OfficeSm_C" = -98889.68   $ Sizing
 "HtCap_Sys_M_OfficeSm_E" = -388505.2   $ Sizing
 "HtCap_Sys_M_OfficeSm_N" = -250675   $ Sizing
 "HtCap_Sys_M_OfficeSm_S" = -375917.2   $ Sizing
 "HtCap_Sys_M_OfficeSm_W" = -369130.5   $ Sizing
 "HtCap_Sys_M_Restrm_C" = -66718.28   $ Sizing
 "HtCap_Sys_M_StorSm_C" = -150879.5   $ Sizing
 "HtCap_Sys_T_Break_C" = -32346.86   $ Sizing
 "HtCap_Sys_T_Conf_C" = -31471.43   $ Sizing
 "HtCap_Sys_T_CopyRm_C" = -10825.8   $ Sizing
 "HtCap_Sys_T_Cordr_C" = -38113.01   $ Sizing
 "HtCap_Sys_T_Cordr_E" = -10613.49   $ Sizing
 "HtCap_Sys_T_Cordr_N" = -8118.063   $ Sizing
 "HtCap_Sys_T_Cordr_S" = -10057.16   $ Sizing
 "HtCap_Sys_T_Cordr_W" = -10979.13   $ Sizing
 "HtCap_Sys_T_LobWait_C" = -29629.03   $ Sizing
 "HtCap_Sys_T_MechElec_C" = -8068.241   $ Sizing
 "HtCap_Sys_T_OfficeOpn_C" = -82549.02   $ Sizing
 "HtCap_Sys_T_OfficeOpn_E" = -68396.73   $ Sizing
 "HtCap_Sys_T_OfficeOpn_N" = -54092.49   $ Sizing
 "HtCap_Sys_T_OfficeOpn_S" = -68355.84   $ Sizing
 "HtCap_Sys_T_OfficeOpn_W" = -71096.87   $ Sizing
 "HtCap_Sys_T_OfficeSm_C" = -12178.83   $ Sizing
 "HtCap_Sys_T_OfficeSm_E" = -50153.19   $ Sizing
 "HtCap_Sys_T_OfficeSm_N" = -35203.22   $ Sizing
 "HtCap_Sys_T_OfficeSm_S" = -49850.37   $ Sizing
 "HtCap_Sys_T_OfficeSm_W" = -49969.93   $ Sizing
 "HtCap_Sys_T_Restrm_C" = -8414.861   $ Sizing
 "HtCap_Sys_T_StorSm_C" = -17046.61   $ Sizing
..

##include Templates\OfL_DX_SZ.inp
END ..
COMPUTE ..
STOP ..
