INPUT ..

##fileprefix C:\Users\jglasskatz\MASControl3\
##set1 IsSizing FALSE
##set1 CoolType DX
##set1 HeatType FURNACE
##set1 EU_HrRepVar 0
##set1 BldgVint 2003
##set1 BldgLoc CZ15

 ##set1 mBFMult 1   $ IP Tech: RefgChg-NRes-Std

PARAMETER
 "AltFactor" = 1.01767   $ IP Non-Tech
 "BF_fFlow" = SpltAC2SpHiSEER_BF_fFlow   $ Msr (Multi)TechID: MsrNResSplitAC-lt45-S17
 "BF_fT" = SpltAC2SpHiSEER_BF_fT   $ Msr (Multi)TechID: MsrNResSplitAC-lt45-S17
 "BldgEconoFlag" = 1   $ IP Non-Tech
 "Break_EWSF" = 1   $ IP Non-Tech
 "Break_LWSF" = 1.1   $ IP Non-Tech
 "CDD_DBHi10" = 97   $ IP Non-Tech
 "CDD_DBHi7" = 110   $ IP Non-Tech
 "CDD_DBHi8" = 111   $ IP Non-Tech
 "CDD_DBHi9" = 109   $ IP Non-Tech
 "CDD_DBRange10" = 25   $ IP Non-Tech
 "CDD_DBRange7" = 18   $ IP Non-Tech
 "CDD_DBRange8" = 23   $ IP Non-Tech
 "CDD_DBRange9" = 21   $ IP Non-Tech
 "CDD_Day10" = 15   $ IP Non-Tech
 "CDD_Day7" = 16   $ IP Non-Tech
 "CDD_Day8" = 20   $ IP Non-Tech
 "CDD_Day9" = 17   $ IP Non-Tech
 "CDD_HrHi10" = 14   $ IP Non-Tech
 "CDD_HrHi7" = 15   $ IP Non-Tech
 "CDD_HrHi8" = 18   $ IP Non-Tech
 "CDD_HrHi9" = 12   $ IP Non-Tech
 "CDD_HrLo10" = 5   $ IP Non-Tech
 "CDD_HrLo7" = 3   $ IP Non-Tech
 "CDD_HrLo8" = 4   $ IP Non-Tech
 "CDD_HrLo9" = 7   $ IP Non-Tech
 "CDD_WB10" = 64.62915039   $ IP Non-Tech
 "CDD_WB7" = 77.7762146   $ IP Non-Tech
 "CDD_WB8" = 78.616539   $ IP Non-Tech
 "CDD_WB9" = 73.63479614   $ IP Non-Tech
 "CEIR_fPLR_Hot" = SpltAC2SpHiSEER_CEIR_fPLR_Hot   $ Msr (Multi)TechID: MsrNResSplitAC-lt45-S17
 "CEIR_fPLR_Mod" = SpltAC2SpHiSEER_CEIR_fPLR_Mod   $ Msr (Multi)TechID: MsrNResSplitAC-lt45-S17
 "CEIR_fPLR_Tem" = SpltAC2SpHiSEER_CEIR_fPLR_Tem   $ Msr (Multi)TechID: MsrNResSplitAC-lt45-S17
 "CLoss_fPLR_Hot" = SpltAC2SpHiSEER_CLoss_fPLR_Hot   $ Msr (Multi)TechID: MsrNResSplitAC-lt45-S17
 "CLoss_fPLR_Mod" = SpltAC2SpHiSEER_CLoss_fPLR_Mod   $ Msr (Multi)TechID: MsrNResSplitAC-lt45-S17
 "CLoss_fPLR_Tem" = SpltAC2SpHiSEER_CLoss_fPLR_Tem   $ Msr (Multi)TechID: MsrNResSplitAC-lt45-S17
 "COP47" = 0   $ Msr (Multi)TechID: MsrNResSplitAC-lt45-S17
 "CZ_Category" = Hot   $ IP Non-Tech
 "CapRange" = Any   $ Msr (Multi)TechID: MsrNResSplitAC-lt45-S17
 "CfmPerBtuh" = 0.03   $ Msr (Multi)TechID: MsrNResSplitAC-lt45-S17
 "ChwVintEconoFlag" = 1   $ IP Non-Tech
 "ClCap_fT" = SpltAC2SpHiSEER_ClCap_fT   $ Msr (Multi)TechID: MsrNResSplitAC-lt45-S17
 "ClSH_fT" = SpltAC2SpHiSEER_ClSH_fT   $ Msr (Multi)TechID: MsrNResSplitAC-lt45-S17
 "CoilBF" = 0.102   $ Msr (Multi)TechID: MsrNResSplitAC-lt45-S17
 "CondWPerBtuh" = 0   $ Msr (Multi)TechID: MsrNResSplitAC-lt45-S17
 "Conference_EWSF" = 1   $ IP Non-Tech
 "Conference_LWSF" = 1.4   $ IP Non-Tech
 "CoolSensCap" = 0.724   $ Msr (Multi)TechID: MsrNResSplitAC-lt45-S17
 "CoolSetT" = 45   $ IP Non-Tech
 "CoolType" = DX   $ IP Non-Tech
 "CoolingEIR" = 0.2225   $ Msr (Multi)TechID: MsrNResSplitAC-lt45-S17
 "CopyRoom_EWSF" = 1.5   $ IP Non-Tech
 "CopyRoom_LWSF" = 1.3   $ IP Non-Tech
 "CorridorStairway_EWSF" = 0.2   $ IP Non-Tech
 "CorridorStairway_LWSF" = 0.6   $ IP Non-Tech
 "CrnkEIR" = 0.002225   $ Msr (Multi)TechID: MsrNResSplitAC-lt45-S17
 "CrnkMaxT" = 50   $ Msr (Multi)TechID: MsrNResSplitAC-lt45-S17
 "DXType" = SplitSEER   $ Msr (Multi)TechID: MsrNResSplitAC-lt45-S17
 "DesCoolT" = 75   $ IP Non-Tech
 "DesHeatT" = 73   $ IP Non-Tech
 "EER" = 13.26   $ Msr (Multi)TechID: MsrNResSplitAC-lt45-S17
 "EIR_fT" = SpltAC2SpHiSEER_EIR_fT   $ Msr (Multi)TechID: MsrNResSplitAC-lt45-S17
 "EconoCtrl" = FIXED   $ Msr (Multi)TechID: MsrNResSplitAC-lt45-S17
 "EconoEnthLimit" = 28   $ IP Non-Tech
 "EconoTempLimit" = 75   $ IP Non-Tech
 "Elevation" = 475   $ IP Non-Tech
 "FanEirPlr" = TwoSpeedFan   $ Msr (Multi)TechID: MsrNResSplitAC-lt45-S17
 "FanWPerCfm" = 0.271   $ Msr (Multi)TechID: MsrNResSplitAC-lt45-S17
 "HDD_CloudAmt1" = 0   $ IP Non-Tech
 "HDD_DBHi1" = 58   $ IP Non-Tech
 "HDD_DBRange1" = 21   $ IP Non-Tech
 "HDD_Day1" = 15   $ IP Non-Tech
 "HDD_HrHi1" = 13   $ IP Non-Tech
 "HDD_HrLo1" = 7   $ IP Non-Tech
 "HDD_WB1" = 39.7   $ IP Non-Tech
 "HDD_WindSpd1" = 10.4   $ IP Non-Tech
 "HIR_fT" = 0   $ Msr (Multi)TechID: MsrNResSplitAC-lt45-S17
 "HSPF" = 0   $ Msr (Multi)TechID: MsrNResSplitAC-lt45-S17
 "HeatSrc" = FURNACE   $ IP Non-Tech
 "HeatSrcTU" = HEAT-PUMP   $ IP Non-Tech
 "HeatType" = GasFurn   $ IP Non-Tech
 "HeatTypeTU" = HEAT-PUMP   $ IP Non-Tech
 "HtCap_fT" = 0   $ Msr (Multi)TechID: MsrNResSplitAC-lt45-S17
 "HtCoolCapRatio" = 0   $ Msr (Multi)TechID: MsrNResSplitAC-lt45-S17
 "HtgEIR" = 0   $ Msr (Multi)TechID: MsrNResSplitAC-lt45-S17
 "IndoorFanMode" = CONTINUOUS   $ IP Non-Tech
 "KT_TransferAir" = No   $ IP Non-Tech
 "Latitude" = 33.8   $ IP Non-Tech
 "LobbyWaiting_EWSF" = 0.5   $ IP Non-Tech
 "LobbyWaiting_LWSF" = 1.3   $ IP Non-Tech
 "Longitude" = 116.5   $ IP Non-Tech
 "LowSpdCapRatio" = 0.686   $ Msr (Multi)TechID: MsrNResSplitAC-lt45-S17
 "LowSpdCfmRatio" = 0.739   $ Msr (Multi)TechID: MsrNResSplitAC-lt45-S17
 "MZFanMechEff" = 0.58   $ IP Non-Tech
 "MZHasRetFan" = FALSE   $ IP Non-Tech
 "MZ_RFanWPerCfm" = 0.37   $ IP Non-Tech
 "MZ_SFanWPerCfm" = 0.71   $ IP Non-Tech
 "MZ_SupFanStatic" = 2.25   $ IP Non-Tech
 "MaxOAFrac" = 1   $ Msr (Multi)TechID: MsrNResSplitAC-lt45-S17
 "MaxSupT_MZ" = 100   $ IP Non-Tech
 "MaxSupT_SZ" = 100   $ IP Non-Tech
 "MaxSupT_TU" = 90   $ IP Non-Tech
 "MechElecRoom_EWSF" = 0.2   $ IP Non-Tech
 "MechElecRoom_LWSF" = 0.7   $ IP Non-Tech
 "MinCfmPerSF" = 0.4   $ IP Non-Tech
 "MinSupT" = 55   $ IP Non-Tech
 "NumStages" = 2   $ Msr (Multi)TechID: MsrNResSplitAC-lt45-S17
 "OccCoolT" = 76   $ IP Non-Tech
 "OccHeatT" = 72   $ IP Non-Tech
 "OfficeOpen_EWSF" = 1.5   $ IP Non-Tech
 "OfficeOpen_LWSF" = 1.2   $ IP Non-Tech
 "OfficeSmall_EWSF" = 1.5   $ IP Non-Tech
 "OfficeSmall_LWSF" = 1.3   $ IP Non-Tech
 "PkgDxVintEconoFlag" = 0   $ IP Non-Tech
 "Restroom_EWSF" = 0.2   $ IP Non-Tech
 "Restroom_LWSF" = 0.6   $ IP Non-Tech
 "SEER" = 17   $ Msr (Multi)TechID: MsrNResSplitAC-lt45-S17
 "SZFanMechEff" = 0.58   $ IP Non-Tech
 "SZHasRetFan" = FALSE   $ IP Non-Tech
 "SZ_Is_2Spd" = FALSE   $ IP Non-Tech
 "SZ_SFanWPerCfm" = 0.46   $ IP Non-Tech
 "SZ_SupFanStatic" = 0.75   $ IP Non-Tech
 "Sector" = Any   $ Msr (Multi)TechID: MsrNResSplitAC-lt45-S17
 "StorageSmlCond_EWSF" = 0.2   $ IP Non-Tech
 "StorageSmlCond_LWSF" = 0.6   $ IP Non-Tech
 "SubType" = AC   $ Msr (Multi)TechID: MsrNResSplitAC-lt45-S17
 "T24GlzTbl" = CZTbl   $ IP Non-Tech
 "TermUnitFanMechEff" = 1   $ IP Non-Tech
 "TermUnitFanMode" = INTERMITTENT   $ IP Non-Tech
 "TotCoolCap" = 58805   $ Msr (Multi)TechID: MsrNResSplitAC-lt45-S17
 "TwrSetpt" = 89.1   $ IP Non-Tech
 "UnocCoolT" = 86   $ IP Non-Tech
 "UnocHeatT" = 62   $ IP Non-Tech
 "UseEconoVintApplic" = FALSE   $ Msr (Multi)TechID: MsrNResSplitAC-lt45-S17
 "WlhpVintEconoFlag" = 0   $ IP Non-Tech
 "DuctDT" = 1   $ IP Tech: ComDuctInsul-1
 "DuctAirLoss" = 0   $ IP Tech: ComDuctLeak-0
 "DuctLossOAFrac" = 0   $ IP Tech: ComDuctLeak-0
 "ComRoofInsCalc" = FromUo   $ IP Tech: ComRoofIns-Hvy-0.06
 "ComRoofInsR" = -999   $ IP Tech: ComRoofIns-Hvy-0.06
 "ComRoofUo" = 0.06   $ IP Tech: ComRoofIns-Hvy-0.06
 "ComEWInsCalc" = FromUo   $ IP Tech: ComWallIns-MFrm-0.13
 "ComEWInsR" = -999   $ IP Tech: ComWallIns-MFrm-0.13
 "ComEWUo" = 0.13   $ IP Tech: ComWallIns-MFrm-0.13
 "ComN_SHGC" = 0.4   $ IP Tech: NResWin-ComN-0.47-0.4
 "ComN_UFactor" = 0.47   $ IP Tech: NResWin-ComN-0.47-0.4
 "ComN_VisTrans" = 0.68   $ IP Tech: NResWin-ComN-0.47-0.4
 "ComN_WinCode" = G2663   $ IP Tech: NResWin-ComN-0.47-0.4
 "ComN_WinFrmFrac" = 0.17   $ IP Tech: NResWin-ComN-0.47-0.4
 "ComN_WinFrmU" = 0.3   $ IP Tech: NResWin-ComN-0.47-0.4
 "ComO_SHGC" = 0.31   $ IP Tech: NResWin-ComO-0.47-0.31
 "ComO_UFactor" = 0.47   $ IP Tech: NResWin-ComO-0.47-0.31
 "ComO_VisTrans" = 0.44   $ IP Tech: NResWin-ComO-0.47-0.31
 "ComO_WinCode" = G2637   $ IP Tech: NResWin-ComO-0.47-0.31
 "ComO_WinFrmFrac" = 0.17   $ IP Tech: NResWin-ComO-0.47-0.31
 "ComO_WinFrmU" = 0.3   $ IP Tech: NResWin-ComO-0.47-0.31
 "LtgMsrApplic" = ALL   $ IP Tech: NonResLtgRefPre
 "LtgSav_CFL" = 0   $ IP Tech: NonResLtgRefPre
 "LtgSav_EX" = 0   $ IP Tech: NonResLtgRefPre
 "LtgSav_HB" = 0   $ IP Tech: NonResLtgRefPre
 "LtgSav_LF" = 0   $ IP Tech: NonResLtgRefPre
 "LtgSav_SP" = 0   $ IP Tech: NonResLtgRefPre
 "CEIR_fPLR" = PSZ65to135_CEIR_fPLR   $ IP Tech: PkgAC1SpH-65to135-E10
 "CLoss_fPLR" = PSZ65to135_CLoss_fPLR   $ IP Tech: PkgAC1SpH-65to135-E10
 "COP" = -1   $ IP Tech: PkgAC1SpH-65to135-E10
 "HtgFuel" = Gas   $ IP Tech: PkgAC1SpH-65to135-E10
 "IEER" = 11.87   $ IP Tech: PkgAC1SpH-65to135-E10
 "NominalCap" = 15   $ IP Tech: PkgAC1SpH-65to135-E10
 "RatedEER" = 10   $ IP Tech: PkgAC1SpH-65to135-E10
 "RatedSupMtrClass" = HiEff   $ IP Tech: PkgAC1SpH-65to135-E10
 "SizeRange" = 65to135   $ IP Tech: PkgAC1SpH-65to135-E10
 "SupMotEff" = 0.84   $ IP Tech: PkgAC1SpH-65to135-E10
 "Tier" = 0   $ IP Tech: PkgAC1SpH-65to135-E10
 "FanPwrMult" = 1   $ IP Tech: PkgFurn-0.80AFUE
 "FurnAFUE" = 0.8   $ IP Tech: PkgFurn-0.80AFUE
 "FurnEt" = 0.82   $ IP Tech: PkgFurn-0.80AFUE
 "FurnaceAuxKW" = 0.1   $ IP Tech: PkgFurn-0.80AFUE
 "HIR_fPLR" = Furnace-HIR-fPLR   $ IP Tech: PkgFurn-0.80AFUE
 "VSM" = FALSE   $ IP Tech: PkgFurn-0.80AFUE
 "BFMult" = 1   $ IP Tech: RefgChg-NRes-Std
 "CoolEirMult" = 1   $ IP Tech: RefgChg-NRes-Std
 "SensCoolCapMult" = 1   $ IP Tech: RefgChg-NRes-Std
 "TotCoolCapMult" = 1   $ IP Tech: RefgChg-NRes-Std
 "AltAdjFactor" = 1.017668   $ Sizing
 "CAssFlo_L_Break_CZn" = 762.5001   $ Sizing
 "CAssFlo_L_Conf_CZn" = 748.0378   $ Sizing
 "CAssFlo_L_CopyRm_CZn" = 252.4082   $ Sizing
 "CAssFlo_L_Cordr_CZn" = 914.1599   $ Sizing
 "CAssFlo_L_Cordr_EZn" = 310.4584   $ Sizing
 "CAssFlo_L_Cordr_NZn" = 235.0328   $ Sizing
 "CAssFlo_L_Cordr_SZn" = 286.7721   $ Sizing
 "CAssFlo_L_Cordr_WZn" = 344.6335   $ Sizing
 "CAssFlo_L_LobWait_CZn" = 786.9676   $ Sizing
 "CAssFlo_L_MechElec_CZn" = 192.061   $ Sizing
 "CAssFlo_L_OfficeOpn_CZn" = 2371.048   $ Sizing
 "CAssFlo_L_OfficeOpn_EZn" = 2066.811   $ Sizing
 "CAssFlo_L_OfficeOpn_NZn" = 1586.123   $ Sizing
 "CAssFlo_L_OfficeOpn_SZn" = 1925.275   $ Sizing
 "CAssFlo_L_OfficeOpn_WZn" = 2360.879   $ Sizing
 "CAssFlo_L_OfficeSm_CZn" = 305.2877   $ Sizing
 "CAssFlo_L_OfficeSm_EZn" = 1462.891   $ Sizing
 "CAssFlo_L_OfficeSm_NZn" = 1042.807   $ Sizing
 "CAssFlo_L_OfficeSm_SZn" = 1356.751   $ Sizing
 "CAssFlo_L_OfficeSm_WZn" = 1654.205   $ Sizing
 "CAssFlo_L_Restrm_CZn" = 128.5263   $ Sizing
 "CAssFlo_L_StorSm_CZn" = 561.5995   $ Sizing
 "CAssFlo_M_Break_CZn" = 772.3318   $ Sizing
 "CAssFlo_M_Conf_CZn" = 754.0969   $ Sizing
 "CAssFlo_M_CopyRm_CZn" = 250.1108   $ Sizing
 "CAssFlo_M_Cordr_CZn" = 1240.068   $ Sizing
 "CAssFlo_M_Cordr_EZn" = 341.0959   $ Sizing
 "CAssFlo_M_Cordr_NZn" = 245.5994   $ Sizing
 "CAssFlo_M_Cordr_SZn" = 304.187   $ Sizing
 "CAssFlo_M_Cordr_WZn" = 352.0471   $ Sizing
 "CAssFlo_M_LobWait_CZn" = 807.9333   $ Sizing
 "CAssFlo_M_MechElec_CZn" = 237.777   $ Sizing
 "CAssFlo_M_OfficeOpn_CZn" = 2406.097   $ Sizing
 "CAssFlo_M_OfficeOpn_EZn" = 2191.054   $ Sizing
 "CAssFlo_M_OfficeOpn_NZn" = 1619.806   $ Sizing
 "CAssFlo_M_OfficeOpn_SZn" = 2012.162   $ Sizing
 "CAssFlo_M_OfficeOpn_WZn" = 2395.5   $ Sizing
 "CAssFlo_M_OfficeSm_CZn" = 367.9265   $ Sizing
 "CAssFlo_M_OfficeSm_EZn" = 1531.658   $ Sizing
 "CAssFlo_M_OfficeSm_NZn" = 1051.586   $ Sizing
 "CAssFlo_M_OfficeSm_SZn" = 1399.821   $ Sizing
 "CAssFlo_M_OfficeSm_WZn" = 1661.776   $ Sizing
 "CAssFlo_M_Restrm_CZn" = 147.349   $ Sizing
 "CAssFlo_M_StorSm_CZn" = 596.5941   $ Sizing
 "CAssFlo_T_Break_CZn" = 766.6396   $ Sizing
 "CAssFlo_T_Conf_CZn" = 745.6133   $ Sizing
 "CAssFlo_T_CopyRm_CZn" = 247.1183   $ Sizing
 "CAssFlo_T_Cordr_CZn" = 1201.974   $ Sizing
 "CAssFlo_T_Cordr_EZn" = 344.4081   $ Sizing
 "CAssFlo_T_Cordr_NZn" = 249.2797   $ Sizing
 "CAssFlo_T_Cordr_SZn" = 313.5839   $ Sizing
 "CAssFlo_T_Cordr_WZn" = 360.9234   $ Sizing
 "CAssFlo_T_LobWait_CZn" = 801.3947   $ Sizing
 "CAssFlo_T_MechElec_CZn" = 285.794   $ Sizing
 "CAssFlo_T_OfficeOpn_CZn" = 2485.934   $ Sizing
 "CAssFlo_T_OfficeOpn_EZn" = 2208.725   $ Sizing
 "CAssFlo_T_OfficeOpn_NZn" = 1677.782   $ Sizing
 "CAssFlo_T_OfficeOpn_SZn" = 2090.512   $ Sizing
 "CAssFlo_T_OfficeOpn_WZn" = 2431.742   $ Sizing
 "CAssFlo_T_OfficeSm_CZn" = 345.0809   $ Sizing
 "CAssFlo_T_OfficeSm_EZn" = 1582.117   $ Sizing
 "CAssFlo_T_OfficeSm_NZn" = 1097.021   $ Sizing
 "CAssFlo_T_OfficeSm_SZn" = 1469.977   $ Sizing
 "CAssFlo_T_OfficeSm_WZn" = 1715.876   $ Sizing
 "CAssFlo_T_Restrm_CZn" = 207.3665   $ Sizing
 "CAssFlo_T_StorSm_CZn" = 474.0836   $ Sizing
 "CHRtFlo_Sys_L_Break_C" = 762.5001   $ Sizing
 "CHRtFlo_Sys_L_Conf_C" = 748.0378   $ Sizing
 "CHRtFlo_Sys_L_CopyRm_C" = 252.4082   $ Sizing
 "CHRtFlo_Sys_L_Cordr_C" = 914.1599   $ Sizing
 "CHRtFlo_Sys_L_Cordr_E" = 310.4584   $ Sizing
 "CHRtFlo_Sys_L_Cordr_N" = 235.0328   $ Sizing
 "CHRtFlo_Sys_L_Cordr_S" = 286.7721   $ Sizing
 "CHRtFlo_Sys_L_Cordr_W" = 344.6335   $ Sizing
 "CHRtFlo_Sys_L_LobWait_C" = 786.9676   $ Sizing
 "CHRtFlo_Sys_L_MechElec_C" = 192.061   $ Sizing
 "CHRtFlo_Sys_L_OfficeOpn_C" = 2371.048   $ Sizing
 "CHRtFlo_Sys_L_OfficeOpn_E" = 2066.811   $ Sizing
 "CHRtFlo_Sys_L_OfficeOpn_N" = 1586.123   $ Sizing
 "CHRtFlo_Sys_L_OfficeOpn_S" = 1932.884   $ Sizing
 "CHRtFlo_Sys_L_OfficeOpn_W" = 2360.879   $ Sizing
 "CHRtFlo_Sys_L_OfficeSm_C" = 305.2877   $ Sizing
 "CHRtFlo_Sys_L_OfficeSm_E" = 1467.684   $ Sizing
 "CHRtFlo_Sys_L_OfficeSm_N" = 1042.807   $ Sizing
 "CHRtFlo_Sys_L_OfficeSm_S" = 1413.494   $ Sizing
 "CHRtFlo_Sys_L_OfficeSm_W" = 1654.205   $ Sizing
 "CHRtFlo_Sys_L_Restrm_C" = 213.9924   $ Sizing
 "CHRtFlo_Sys_L_StorSm_C" = 561.5995   $ Sizing
 "CHRtFlo_Sys_M_Break_C" = 6178.654   $ Sizing
 "CHRtFlo_Sys_M_Conf_C" = 6032.775   $ Sizing
 "CHRtFlo_Sys_M_CopyRm_C" = 2000.887   $ Sizing
 "CHRtFlo_Sys_M_Cordr_C" = 9920.547   $ Sizing
 "CHRtFlo_Sys_M_Cordr_E" = 2728.767   $ Sizing
 "CHRtFlo_Sys_M_Cordr_N" = 1964.795   $ Sizing
 "CHRtFlo_Sys_M_Cordr_S" = 2433.496   $ Sizing
 "CHRtFlo_Sys_M_Cordr_W" = 2816.377   $ Sizing
 "CHRtFlo_Sys_M_LobWait_C" = 6463.467   $ Sizing
 "CHRtFlo_Sys_M_MechElec_C" = 1902.216   $ Sizing
 "CHRtFlo_Sys_M_OfficeOpn_C" = 19248.77   $ Sizing
 "CHRtFlo_Sys_M_OfficeOpn_E" = 17528.43   $ Sizing
 "CHRtFlo_Sys_M_OfficeOpn_N" = 12958.45   $ Sizing
 "CHRtFlo_Sys_M_OfficeOpn_S" = 16339.47   $ Sizing
 "CHRtFlo_Sys_M_OfficeOpn_W" = 19164   $ Sizing
 "CHRtFlo_Sys_M_OfficeSm_C" = 2943.412   $ Sizing
 "CHRtFlo_Sys_M_OfficeSm_E" = 12451.38   $ Sizing
 "CHRtFlo_Sys_M_OfficeSm_N" = 8412.69   $ Sizing
 "CHRtFlo_Sys_M_OfficeSm_S" = 11787.28   $ Sizing
 "CHRtFlo_Sys_M_OfficeSm_W" = 13294.21   $ Sizing
 "CHRtFlo_Sys_M_Restrm_C" = 1711.939   $ Sizing
 "CHRtFlo_Sys_M_StorSm_C" = 4772.753   $ Sizing
 "CHRtFlo_Sys_T_Break_C" = 766.6396   $ Sizing
 "CHRtFlo_Sys_T_Conf_C" = 745.6133   $ Sizing
 "CHRtFlo_Sys_T_CopyRm_C" = 247.1183   $ Sizing
 "CHRtFlo_Sys_T_Cordr_C" = 1201.974   $ Sizing
 "CHRtFlo_Sys_T_Cordr_E" = 344.4081   $ Sizing
 "CHRtFlo_Sys_T_Cordr_N" = 249.2797   $ Sizing
 "CHRtFlo_Sys_T_Cordr_S" = 313.5839   $ Sizing
 "CHRtFlo_Sys_T_Cordr_W" = 360.9234   $ Sizing
 "CHRtFlo_Sys_T_LobWait_C" = 801.3947   $ Sizing
 "CHRtFlo_Sys_T_MechElec_C" = 290.6015   $ Sizing
 "CHRtFlo_Sys_T_OfficeOpn_C" = 2485.934   $ Sizing
 "CHRtFlo_Sys_T_OfficeOpn_E" = 2208.725   $ Sizing
 "CHRtFlo_Sys_T_OfficeOpn_N" = 1677.782   $ Sizing
 "CHRtFlo_Sys_T_OfficeOpn_S" = 2090.512   $ Sizing
 "CHRtFlo_Sys_T_OfficeOpn_W" = 2431.742   $ Sizing
 "CHRtFlo_Sys_T_OfficeSm_C" = 345.0809   $ Sizing
 "CHRtFlo_Sys_T_OfficeSm_E" = 1582.117   $ Sizing
 "CHRtFlo_Sys_T_OfficeSm_N" = 1097.021   $ Sizing
 "CHRtFlo_Sys_T_OfficeSm_S" = 1469.977   $ Sizing
 "CHRtFlo_Sys_T_OfficeSm_W" = 1715.876   $ Sizing
 "CHRtFlo_Sys_T_Restrm_C" = 213.9924   $ Sizing
 "CHRtFlo_Sys_T_StorSm_C" = 474.0836   $ Sizing
 "CRtdFlo_Sys_L_Break_C" = 762.5001   $ Sizing
 "CRtdFlo_Sys_L_Conf_C" = 748.0378   $ Sizing
 "CRtdFlo_Sys_L_CopyRm_C" = 252.4082   $ Sizing
 "CRtdFlo_Sys_L_Cordr_C" = 914.1599   $ Sizing
 "CRtdFlo_Sys_L_Cordr_E" = 310.4584   $ Sizing
 "CRtdFlo_Sys_L_Cordr_N" = 235.0328   $ Sizing
 "CRtdFlo_Sys_L_Cordr_S" = 286.7721   $ Sizing
 "CRtdFlo_Sys_L_Cordr_W" = 344.6335   $ Sizing
 "CRtdFlo_Sys_L_LobWait_C" = 786.9676   $ Sizing
 "CRtdFlo_Sys_L_MechElec_C" = 192.061   $ Sizing
 "CRtdFlo_Sys_L_OfficeOpn_C" = 2371.048   $ Sizing
 "CRtdFlo_Sys_L_OfficeOpn_E" = 2066.811   $ Sizing
 "CRtdFlo_Sys_L_OfficeOpn_N" = 1586.123   $ Sizing
 "CRtdFlo_Sys_L_OfficeOpn_S" = 1925.275   $ Sizing
 "CRtdFlo_Sys_L_OfficeOpn_W" = 2360.879   $ Sizing
 "CRtdFlo_Sys_L_OfficeSm_C" = 305.2877   $ Sizing
 "CRtdFlo_Sys_L_OfficeSm_E" = 1462.891   $ Sizing
 "CRtdFlo_Sys_L_OfficeSm_N" = 1042.807   $ Sizing
 "CRtdFlo_Sys_L_OfficeSm_S" = 1356.751   $ Sizing
 "CRtdFlo_Sys_L_OfficeSm_W" = 1654.205   $ Sizing
 "CRtdFlo_Sys_L_Restrm_C" = 128.5263   $ Sizing
 "CRtdFlo_Sys_L_StorSm_C" = 561.5995   $ Sizing
 "CRtdFlo_Sys_M_Break_C" = 6178.654   $ Sizing
 "CRtdFlo_Sys_M_Conf_C" = 6032.775   $ Sizing
 "CRtdFlo_Sys_M_CopyRm_C" = 2000.887   $ Sizing
 "CRtdFlo_Sys_M_Cordr_C" = 9920.547   $ Sizing
 "CRtdFlo_Sys_M_Cordr_E" = 2728.767   $ Sizing
 "CRtdFlo_Sys_M_Cordr_N" = 1964.795   $ Sizing
 "CRtdFlo_Sys_M_Cordr_S" = 2433.496   $ Sizing
 "CRtdFlo_Sys_M_Cordr_W" = 2816.377   $ Sizing
 "CRtdFlo_Sys_M_LobWait_C" = 6463.467   $ Sizing
 "CRtdFlo_Sys_M_MechElec_C" = 1902.216   $ Sizing
 "CRtdFlo_Sys_M_OfficeOpn_C" = 19248.77   $ Sizing
 "CRtdFlo_Sys_M_OfficeOpn_E" = 17528.43   $ Sizing
 "CRtdFlo_Sys_M_OfficeOpn_N" = 12958.45   $ Sizing
 "CRtdFlo_Sys_M_OfficeOpn_S" = 16097.3   $ Sizing
 "CRtdFlo_Sys_M_OfficeOpn_W" = 19164   $ Sizing
 "CRtdFlo_Sys_M_OfficeSm_C" = 2943.412   $ Sizing
 "CRtdFlo_Sys_M_OfficeSm_E" = 12253.26   $ Sizing
 "CRtdFlo_Sys_M_OfficeSm_N" = 8412.69   $ Sizing
 "CRtdFlo_Sys_M_OfficeSm_S" = 11198.57   $ Sizing
 "CRtdFlo_Sys_M_OfficeSm_W" = 13294.21   $ Sizing
 "CRtdFlo_Sys_M_Restrm_C" = 1178.792   $ Sizing
 "CRtdFlo_Sys_M_StorSm_C" = 4772.753   $ Sizing
 "CRtdFlo_Sys_T_Break_C" = 766.6396   $ Sizing
 "CRtdFlo_Sys_T_Conf_C" = 745.6133   $ Sizing
 "CRtdFlo_Sys_T_CopyRm_C" = 247.1183   $ Sizing
 "CRtdFlo_Sys_T_Cordr_C" = 1201.974   $ Sizing
 "CRtdFlo_Sys_T_Cordr_E" = 344.4081   $ Sizing
 "CRtdFlo_Sys_T_Cordr_N" = 249.2797   $ Sizing
 "CRtdFlo_Sys_T_Cordr_S" = 313.5839   $ Sizing
 "CRtdFlo_Sys_T_Cordr_W" = 360.9234   $ Sizing
 "CRtdFlo_Sys_T_LobWait_C" = 801.3947   $ Sizing
 "CRtdFlo_Sys_T_MechElec_C" = 285.794   $ Sizing
 "CRtdFlo_Sys_T_OfficeOpn_C" = 2485.934   $ Sizing
 "CRtdFlo_Sys_T_OfficeOpn_E" = 2208.725   $ Sizing
 "CRtdFlo_Sys_T_OfficeOpn_N" = 1677.782   $ Sizing
 "CRtdFlo_Sys_T_OfficeOpn_S" = 2090.512   $ Sizing
 "CRtdFlo_Sys_T_OfficeOpn_W" = 2431.742   $ Sizing
 "CRtdFlo_Sys_T_OfficeSm_C" = 345.0809   $ Sizing
 "CRtdFlo_Sys_T_OfficeSm_E" = 1582.117   $ Sizing
 "CRtdFlo_Sys_T_OfficeSm_N" = 1097.021   $ Sizing
 "CRtdFlo_Sys_T_OfficeSm_S" = 1469.977   $ Sizing
 "CRtdFlo_Sys_T_OfficeSm_W" = 1715.876   $ Sizing
 "CRtdFlo_Sys_T_Restrm_C" = 207.3665   $ Sizing
 "CRtdFlo_Sys_T_StorSm_C" = 474.0836   $ Sizing
 "CSupFlo_Sys_L_Break_C" = 762.5001   $ Sizing
 "CSupFlo_Sys_L_Conf_C" = 748.0378   $ Sizing
 "CSupFlo_Sys_L_CopyRm_C" = 252.4082   $ Sizing
 "CSupFlo_Sys_L_Cordr_C" = 914.1599   $ Sizing
 "CSupFlo_Sys_L_Cordr_E" = 310.4584   $ Sizing
 "CSupFlo_Sys_L_Cordr_N" = 235.0328   $ Sizing
 "CSupFlo_Sys_L_Cordr_S" = 286.7721   $ Sizing
 "CSupFlo_Sys_L_Cordr_W" = 344.6335   $ Sizing
 "CSupFlo_Sys_L_LobWait_C" = 786.9676   $ Sizing
 "CSupFlo_Sys_L_MechElec_C" = 192.061   $ Sizing
 "CSupFlo_Sys_L_OfficeOpn_C" = 2371.048   $ Sizing
 "CSupFlo_Sys_L_OfficeOpn_E" = 2066.811   $ Sizing
 "CSupFlo_Sys_L_OfficeOpn_N" = 1586.123   $ Sizing
 "CSupFlo_Sys_L_OfficeOpn_S" = 1925.275   $ Sizing
 "CSupFlo_Sys_L_OfficeOpn_W" = 2360.879   $ Sizing
 "CSupFlo_Sys_L_OfficeSm_C" = 305.2877   $ Sizing
 "CSupFlo_Sys_L_OfficeSm_E" = 1462.891   $ Sizing
 "CSupFlo_Sys_L_OfficeSm_N" = 1042.807   $ Sizing
 "CSupFlo_Sys_L_OfficeSm_S" = 1356.751   $ Sizing
 "CSupFlo_Sys_L_OfficeSm_W" = 1654.205   $ Sizing
 "CSupFlo_Sys_L_Restrm_C" = 128.5263   $ Sizing
 "CSupFlo_Sys_L_StorSm_C" = 561.5995   $ Sizing
 "CSupFlo_Sys_M_Break_C" = 6178.654   $ Sizing
 "CSupFlo_Sys_M_Conf_C" = 6032.775   $ Sizing
 "CSupFlo_Sys_M_CopyRm_C" = 2000.887   $ Sizing
 "CSupFlo_Sys_M_Cordr_C" = 9920.547   $ Sizing
 "CSupFlo_Sys_M_Cordr_E" = 2728.767   $ Sizing
 "CSupFlo_Sys_M_Cordr_N" = 1964.795   $ Sizing
 "CSupFlo_Sys_M_Cordr_S" = 2433.496   $ Sizing
 "CSupFlo_Sys_M_Cordr_W" = 2816.377   $ Sizing
 "CSupFlo_Sys_M_LobWait_C" = 6463.467   $ Sizing
 "CSupFlo_Sys_M_MechElec_C" = 1902.216   $ Sizing
 "CSupFlo_Sys_M_OfficeOpn_C" = 19248.77   $ Sizing
 "CSupFlo_Sys_M_OfficeOpn_E" = 17528.43   $ Sizing
 "CSupFlo_Sys_M_OfficeOpn_N" = 12958.45   $ Sizing
 "CSupFlo_Sys_M_OfficeOpn_S" = 16097.3   $ Sizing
 "CSupFlo_Sys_M_OfficeOpn_W" = 19164   $ Sizing
 "CSupFlo_Sys_M_OfficeSm_C" = 2943.412   $ Sizing
 "CSupFlo_Sys_M_OfficeSm_E" = 12253.26   $ Sizing
 "CSupFlo_Sys_M_OfficeSm_N" = 8412.69   $ Sizing
 "CSupFlo_Sys_M_OfficeSm_S" = 11198.57   $ Sizing
 "CSupFlo_Sys_M_OfficeSm_W" = 13294.21   $ Sizing
 "CSupFlo_Sys_M_Restrm_C" = 1178.792   $ Sizing
 "CSupFlo_Sys_M_StorSm_C" = 4772.753   $ Sizing
 "CSupFlo_Sys_T_Break_C" = 766.6396   $ Sizing
 "CSupFlo_Sys_T_Conf_C" = 745.6133   $ Sizing
 "CSupFlo_Sys_T_CopyRm_C" = 247.1183   $ Sizing
 "CSupFlo_Sys_T_Cordr_C" = 1201.974   $ Sizing
 "CSupFlo_Sys_T_Cordr_E" = 344.4081   $ Sizing
 "CSupFlo_Sys_T_Cordr_N" = 249.2797   $ Sizing
 "CSupFlo_Sys_T_Cordr_S" = 313.5839   $ Sizing
 "CSupFlo_Sys_T_Cordr_W" = 360.9234   $ Sizing
 "CSupFlo_Sys_T_LobWait_C" = 801.3947   $ Sizing
 "CSupFlo_Sys_T_MechElec_C" = 285.794   $ Sizing
 "CSupFlo_Sys_T_OfficeOpn_C" = 2485.934   $ Sizing
 "CSupFlo_Sys_T_OfficeOpn_E" = 2208.725   $ Sizing
 "CSupFlo_Sys_T_OfficeOpn_N" = 1677.782   $ Sizing
 "CSupFlo_Sys_T_OfficeOpn_S" = 2090.512   $ Sizing
 "CSupFlo_Sys_T_OfficeOpn_W" = 2431.742   $ Sizing
 "CSupFlo_Sys_T_OfficeSm_C" = 345.0809   $ Sizing
 "CSupFlo_Sys_T_OfficeSm_E" = 1582.117   $ Sizing
 "CSupFlo_Sys_T_OfficeSm_N" = 1097.021   $ Sizing
 "CSupFlo_Sys_T_OfficeSm_S" = 1469.977   $ Sizing
 "CSupFlo_Sys_T_OfficeSm_W" = 1715.876   $ Sizing
 "CSupFlo_Sys_T_Restrm_C" = 207.3665   $ Sizing
 "CSupFlo_Sys_T_StorSm_C" = 474.0836   $ Sizing
 "ClCap_Sys_L_Break_C" = 25688.99   $ Sizing
 "ClCap_Sys_L_Conf_C" = 32074.96   $ Sizing
 "ClCap_Sys_L_CopyRm_C" = 8503.754   $ Sizing
 "ClCap_Sys_L_Cordr_C" = 30798.49   $ Sizing
 "ClCap_Sys_L_Cordr_E" = 10459.49   $ Sizing
 "ClCap_Sys_L_Cordr_N" = 7918.368   $ Sizing
 "ClCap_Sys_L_Cordr_S" = 9661.491   $ Sizing
 "ClCap_Sys_L_Cordr_W" = 11610.87   $ Sizing
 "ClCap_Sys_L_LobWait_C" = 26513.32   $ Sizing
 "ClCap_Sys_L_MechElec_C" = 6470.627   $ Sizing
 "ClCap_Sys_L_OfficeOpn_C" = 79881.73   $ Sizing
 "ClCap_Sys_L_OfficeOpn_E" = 69631.85   $ Sizing
 "ClCap_Sys_L_OfficeOpn_N" = 53437.25   $ Sizing
 "ClCap_Sys_L_OfficeOpn_S" = 64863.45   $ Sizing
 "ClCap_Sys_L_OfficeOpn_W" = 79539.16   $ Sizing
 "ClCap_Sys_L_OfficeSm_C" = 10285.29   $ Sizing
 "ClCap_Sys_L_OfficeSm_E" = 49285.5   $ Sizing
 "ClCap_Sys_L_OfficeSm_N" = 35132.69   $ Sizing
 "ClCap_Sys_L_OfficeSm_S" = 45709.6   $ Sizing
 "ClCap_Sys_L_OfficeSm_W" = 55730.96   $ Sizing
 "ClCap_Sys_L_Restrm_C" = 4330.112   $ Sizing
 "ClCap_Sys_L_StorSm_C" = 18920.56   $ Sizing
 "ClCap_Sys_M_Break_C" = 208161.8   $ Sizing
 "ClCap_Sys_M_Conf_C" = 258678.1   $ Sizing
 "ClCap_Sys_M_CopyRm_C" = 67410.84   $ Sizing
 "ClCap_Sys_M_Cordr_C" = 334228   $ Sizing
 "ClCap_Sys_M_Cordr_E" = 91933.48   $ Sizing
 "ClCap_Sys_M_Cordr_N" = 66194.9   $ Sizing
 "ClCap_Sys_M_Cordr_S" = 81985.66   $ Sizing
 "ClCap_Sys_M_Cordr_W" = 94885.09   $ Sizing
 "ClCap_Sys_M_LobWait_C" = 217757.3   $ Sizing
 "ClCap_Sys_M_MechElec_C" = 64086.57   $ Sizing
 "ClCap_Sys_M_OfficeOpn_C" = 648500.4   $ Sizing
 "ClCap_Sys_M_OfficeOpn_E" = 590541.3   $ Sizing
 "ClCap_Sys_M_OfficeOpn_N" = 436576.3   $ Sizing
 "ClCap_Sys_M_OfficeOpn_S" = 542325.8   $ Sizing
 "ClCap_Sys_M_OfficeOpn_W" = 645644.5   $ Sizing
 "ClCap_Sys_M_OfficeSm_C" = 99164.97   $ Sizing
 "ClCap_Sys_M_OfficeSm_E" = 412818.4   $ Sizing
 "ClCap_Sys_M_OfficeSm_N" = 283427.6   $ Sizing
 "ClCap_Sys_M_OfficeSm_S" = 377285.2   $ Sizing
 "ClCap_Sys_M_OfficeSm_W" = 447888.4   $ Sizing
 "ClCap_Sys_M_Restrm_C" = 39714.07   $ Sizing
 "ClCap_Sys_M_StorSm_C" = 160796.3   $ Sizing
 "ClCap_Sys_T_Break_C" = 25828.46   $ Sizing
 "ClCap_Sys_T_Conf_C" = 31971   $ Sizing
 "ClCap_Sys_T_CopyRm_C" = 8325.536   $ Sizing
 "ClCap_Sys_T_Cordr_C" = 40495.09   $ Sizing
 "ClCap_Sys_T_Cordr_E" = 11603.27   $ Sizing
 "ClCap_Sys_T_Cordr_N" = 8398.353   $ Sizing
 "ClCap_Sys_T_Cordr_S" = 10564.79   $ Sizing
 "ClCap_Sys_T_Cordr_W" = 12159.68   $ Sizing
 "ClCap_Sys_T_LobWait_C" = 26999.38   $ Sizing
 "ClCap_Sys_T_MechElec_C" = 9628.539   $ Sizing
 "ClCap_Sys_T_OfficeOpn_C" = 83752.32   $ Sizing
 "ClCap_Sys_T_OfficeOpn_E" = 74413   $ Sizing
 "ClCap_Sys_T_OfficeOpn_N" = 56525.29   $ Sizing
 "ClCap_Sys_T_OfficeOpn_S" = 70430.37   $ Sizing
 "ClCap_Sys_T_OfficeOpn_W" = 81926.58   $ Sizing
 "ClCap_Sys_T_OfficeSm_C" = 11625.94   $ Sizing
 "ClCap_Sys_T_OfficeSm_E" = 53302.29   $ Sizing
 "ClCap_Sys_T_OfficeSm_N" = 36959.16   $ Sizing
 "ClCap_Sys_T_OfficeSm_S" = 49524.22   $ Sizing
 "ClCap_Sys_T_OfficeSm_W" = 57808.68   $ Sizing
 "ClCap_Sys_T_Restrm_C" = 6986.276   $ Sizing
 "ClCap_Sys_T_StorSm_C" = 15972.11   $ Sizing
 "HtCap_Sys_L_Break_C" = -38347.32   $ Sizing
 "HtCap_Sys_L_Conf_C" = -38780   $ Sizing
 "HtCap_Sys_L_CopyRm_C" = -14747.25   $ Sizing
 "HtCap_Sys_L_Cordr_C" = -36387.09   $ Sizing
 "HtCap_Sys_L_Cordr_E" = -10249.56   $ Sizing
 "HtCap_Sys_L_Cordr_N" = -8550.994   $ Sizing
 "HtCap_Sys_L_Cordr_S" = -9499.893   $ Sizing
 "HtCap_Sys_L_Cordr_W" = -11433.23   $ Sizing
 "HtCap_Sys_L_LobWait_C" = -37513.67   $ Sizing
 "HtCap_Sys_L_MechElec_C" = -7780.856   $ Sizing
 "HtCap_Sys_L_OfficeOpn_C" = -114277.4   $ Sizing
 "HtCap_Sys_L_OfficeOpn_E" = -99725.38   $ Sizing
 "HtCap_Sys_L_OfficeOpn_N" = -54309.52   $ Sizing
 "HtCap_Sys_L_OfficeOpn_S" = -93034.38   $ Sizing
 "HtCap_Sys_L_OfficeOpn_W" = -74845.05   $ Sizing
 "HtCap_Sys_L_OfficeSm_C" = -14591.23   $ Sizing
 "HtCap_Sys_L_OfficeSm_E" = -45682.97   $ Sizing
 "HtCap_Sys_L_OfficeSm_N" = -35779.77   $ Sizing
 "HtCap_Sys_L_OfficeSm_S" = -44042.52   $ Sizing
 "HtCap_Sys_L_OfficeSm_W" = -52308.4   $ Sizing
 "HtCap_Sys_L_Restrm_C" = -7827.991   $ Sizing
 "HtCap_Sys_L_StorSm_C" = -21866.24   $ Sizing
 "HtCap_Sys_M_Break_C" = -295744.4   $ Sizing
 "HtCap_Sys_M_Conf_C" = -292899   $ Sizing
 "HtCap_Sys_M_CopyRm_C" = -104103.1   $ Sizing
 "HtCap_Sys_M_Cordr_C" = -352627.9   $ Sizing
 "HtCap_Sys_M_Cordr_E" = -88399.23   $ Sizing
 "HtCap_Sys_M_Cordr_N" = -67922.04   $ Sizing
 "HtCap_Sys_M_Cordr_S" = -79437.14   $ Sizing
 "HtCap_Sys_M_Cordr_W" = -92886.04   $ Sizing
 "HtCap_Sys_M_LobWait_C" = -276927.8   $ Sizing
 "HtCap_Sys_M_MechElec_C" = -70467.89   $ Sizing
 "HtCap_Sys_M_OfficeOpn_C" = -920059.5   $ Sizing
 "HtCap_Sys_M_OfficeOpn_E" = -845190.3   $ Sizing
 "HtCap_Sys_M_OfficeOpn_N" = -437447.8   $ Sizing
 "HtCap_Sys_M_OfficeOpn_S" = -786386.1   $ Sizing
 "HtCap_Sys_M_OfficeOpn_W" = -605136.2   $ Sizing
 "HtCap_Sys_M_OfficeSm_C" = -140625.1   $ Sizing
 "HtCap_Sys_M_OfficeSm_E" = -387032   $ Sizing
 "HtCap_Sys_M_OfficeSm_N" = -285874.1   $ Sizing
 "HtCap_Sys_M_OfficeSm_S" = -370320.9   $ Sizing
 "HtCap_Sys_M_OfficeSm_W" = -418996.5   $ Sizing
 "HtCap_Sys_M_Restrm_C" = -67320.89   $ Sizing
 "HtCap_Sys_M_StorSm_C" = -176181   $ Sizing
 "HtCap_Sys_T_Break_C" = -40158.77   $ Sizing
 "HtCap_Sys_T_Conf_C" = -39439.25   $ Sizing
 "HtCap_Sys_T_CopyRm_C" = -14041.9   $ Sizing
 "HtCap_Sys_T_Cordr_C" = -48603.05   $ Sizing
 "HtCap_Sys_T_Cordr_E" = -13103.09   $ Sizing
 "HtCap_Sys_T_Cordr_N" = -10243.91   $ Sizing
 "HtCap_Sys_T_Cordr_S" = -11535.66   $ Sizing
 "HtCap_Sys_T_Cordr_W" = -13951.8   $ Sizing
 "HtCap_Sys_T_LobWait_C" = -39277.62   $ Sizing
 "HtCap_Sys_T_MechElec_C" = -10085.67   $ Sizing
 "HtCap_Sys_T_OfficeOpn_C" = -119475.1   $ Sizing
 "HtCap_Sys_T_OfficeOpn_E" = -79510.57   $ Sizing
 "HtCap_Sys_T_OfficeOpn_N" = -66369.74   $ Sizing
 "HtCap_Sys_T_OfficeOpn_S" = -73750.09   $ Sizing
 "HtCap_Sys_T_OfficeOpn_W" = -87770.92   $ Sizing
 "HtCap_Sys_T_OfficeSm_C" = -13860.22   $ Sizing
 "HtCap_Sys_T_OfficeSm_E" = -57624.03   $ Sizing
 "HtCap_Sys_T_OfficeSm_N" = -43129.36   $ Sizing
 "HtCap_Sys_T_OfficeSm_S" = -53087.86   $ Sizing
 "HtCap_Sys_T_OfficeSm_W" = -62536.66   $ Sizing
 "HtCap_Sys_T_Restrm_C" = -8391.781   $ Sizing
 "HtCap_Sys_T_StorSm_C" = -22330.51   $ Sizing
..

##include Templates\OfL_DX_SZ.inp
END ..
COMPUTE ..
STOP ..
