INPUT ..

##fileprefix C:\Users\jglasskatz\MASControl3\
##set1 IsSizing FALSE
##set1 CoolType DX
##set1 HeatType FURNACE
##set1 EU_HrRepVar 0
##set1 BldgVint 1975
##set1 BldgLoc CZ07

 ##set1 mBFMult 1   $ IP Tech: RefgChg-NRes-Std

PARAMETER
 "AltFactor" = 1.00051   $ IP Non-Tech
 "BF_fFlow" = SpltAC1Sp-ge45_BF_fFlow   $ Msr (Multi)TechID: StdNResSplitAC-45to55
 "BF_fT" = SpltAC1Sp-ge45_BF_fT   $ Msr (Multi)TechID: StdNResSplitAC-45to55
 "BldgEconoFlag" = 1   $ IP Non-Tech
 "Break_EWSF" = 1   $ IP Non-Tech
 "Break_LWSF" = 1.1   $ IP Non-Tech
 "CDD_DBHi10" = 80   $ IP Non-Tech
 "CDD_DBHi7" = 75   $ IP Non-Tech
 "CDD_DBHi8" = 75   $ IP Non-Tech
 "CDD_DBHi9" = 80   $ IP Non-Tech
 "CDD_DBRange10" = 20   $ IP Non-Tech
 "CDD_DBRange7" = 8   $ IP Non-Tech
 "CDD_DBRange8" = 6   $ IP Non-Tech
 "CDD_DBRange9" = 12   $ IP Non-Tech
 "CDD_Day10" = 15   $ IP Non-Tech
 "CDD_Day7" = 16   $ IP Non-Tech
 "CDD_Day8" = 20   $ IP Non-Tech
 "CDD_Day9" = 17   $ IP Non-Tech
 "CDD_HrHi10" = 11   $ IP Non-Tech
 "CDD_HrHi7" = 14   $ IP Non-Tech
 "CDD_HrHi8" = 11   $ IP Non-Tech
 "CDD_HrHi9" = 11   $ IP Non-Tech
 "CDD_HrLo10" = 4   $ IP Non-Tech
 "CDD_HrLo7" = 6   $ IP Non-Tech
 "CDD_HrLo8" = 1   $ IP Non-Tech
 "CDD_HrLo9" = 5   $ IP Non-Tech
 "CDD_WB10" = 64.57550049   $ IP Non-Tech
 "CDD_WB7" = 66.79747772   $ IP Non-Tech
 "CDD_WB8" = 69.55462646   $ IP Non-Tech
 "CDD_WB9" = 68.8309021   $ IP Non-Tech
 "CEIR_fPLR_Hot" = SpltAC1Sp-ge45_CEIR_fPLR_Hot   $ Msr (Multi)TechID: StdNResSplitAC-45to55
 "CEIR_fPLR_Mod" = SpltAC1Sp-ge45_CEIR_fPLR_Mod   $ Msr (Multi)TechID: StdNResSplitAC-45to55
 "CEIR_fPLR_Tem" = SpltAC1Sp-ge45_CEIR_fPLR_Tem   $ Msr (Multi)TechID: StdNResSplitAC-45to55
 "CLoss_fPLR_Hot" = SpltAC1Sp-ge45_CLoss_fPLR_Hot   $ Msr (Multi)TechID: StdNResSplitAC-45to55
 "CLoss_fPLR_Mod" = SpltAC1Sp-ge45_CLoss_fPLR_Mod   $ Msr (Multi)TechID: StdNResSplitAC-45to55
 "CLoss_fPLR_Tem" = SpltAC1Sp-ge45_CLoss_fPLR_Tem   $ Msr (Multi)TechID: StdNResSplitAC-45to55
 "COP47" = 0   $ Msr (Multi)TechID: StdNResSplitAC-45to55
 "CZ_Category" = Tem   $ IP Non-Tech
 "CapRange" = ge45   $ Msr (Multi)TechID: StdNResSplitAC-45to55
 "CfmPerBtuh" = 0.03263   $ Msr (Multi)TechID: StdNResSplitAC-45to55
 "ChwVintEconoFlag" = 1   $ IP Non-Tech
 "ClCap_fT" = SpltAC1Sp-ge45_ClCap_fT   $ Msr (Multi)TechID: StdNResSplitAC-45to55
 "ClSH_fT" = SpltAC1Sp-ge45_ClSH_fT   $ Msr (Multi)TechID: StdNResSplitAC-45to55
 "CoilBF" = 0.106518182   $ Msr (Multi)TechID: StdNResSplitAC-45to55
 "CondWPerBtuh" = 0   $ Msr (Multi)TechID: StdNResSplitAC-45to55
 "Conference_EWSF" = 1.15   $ IP Non-Tech
 "Conference_LWSF" = 1.4   $ IP Non-Tech
 "CoolSensCap" = 0.759218182   $ Msr (Multi)TechID: StdNResSplitAC-45to55
 "CoolSetT" = 45   $ IP Non-Tech
 "CoolType" = DX   $ IP Non-Tech
 "CoolingEIR" = 0.2466   $ Msr (Multi)TechID: StdNResSplitAC-45to55
 "CopyRoom_EWSF" = 1.725   $ IP Non-Tech
 "CopyRoom_LWSF" = 1.3   $ IP Non-Tech
 "CorridorStairway_EWSF" = 0.23   $ IP Non-Tech
 "CorridorStairway_LWSF" = 0.6   $ IP Non-Tech
 "CrnkEIR" = 0.002466   $ Msr (Multi)TechID: StdNResSplitAC-45to55
 "CrnkMaxT" = 50   $ Msr (Multi)TechID: StdNResSplitAC-45to55
 "DXType" = SplitSEER   $ Msr (Multi)TechID: StdNResSplitAC-45to55
 "DesCoolT" = 75   $ IP Non-Tech
 "DesHeatT" = 73   $ IP Non-Tech
 "EER" = 11.81793103   $ Msr (Multi)TechID: StdNResSplitAC-45to55
 "EIR_fT" = SpltAC1Sp-ge45_EIR_fT   $ Msr (Multi)TechID: StdNResSplitAC-45to55
 "EconoCtrl" = FIXED   $ Msr (Multi)TechID: StdNResSplitAC-45to55
 "EconoEnthLimit" = 28   $ IP Non-Tech
 "EconoTempLimit" = 69   $ IP Non-Tech
 "Elevation" = 13   $ IP Non-Tech
 "FanEirPlr" = TwoSpeedFan   $ Msr (Multi)TechID: StdNResSplitAC-45to55
 "FanWPerCfm" = 0.294   $ Msr (Multi)TechID: StdNResSplitAC-45to55
 "HDD_CloudAmt1" = 0   $ IP Non-Tech
 "HDD_DBHi1" = 57   $ IP Non-Tech
 "HDD_DBRange1" = 13   $ IP Non-Tech
 "HDD_Day1" = 15   $ IP Non-Tech
 "HDD_HrHi1" = 13   $ IP Non-Tech
 "HDD_HrLo1" = 5   $ IP Non-Tech
 "HDD_WB1" = 43.6   $ IP Non-Tech
 "HDD_WindSpd1" = 11.5   $ IP Non-Tech
 "HIR_fT" = 0   $ Msr (Multi)TechID: StdNResSplitAC-45to55
 "HSPF" = 0   $ Msr (Multi)TechID: StdNResSplitAC-45to55
 "HeatSrc" = FURNACE   $ IP Non-Tech
 "HeatSrcTU" = HEAT-PUMP   $ IP Non-Tech
 "HeatType" = GasFurn   $ IP Non-Tech
 "HeatTypeTU" = HEAT-PUMP   $ IP Non-Tech
 "HtCap_fT" = 0   $ Msr (Multi)TechID: StdNResSplitAC-45to55
 "HtCoolCapRatio" = 0   $ Msr (Multi)TechID: StdNResSplitAC-45to55
 "HtgEIR" = 0   $ Msr (Multi)TechID: StdNResSplitAC-45to55
 "IndoorFanMode" = CONTINUOUS   $ IP Non-Tech
 "KT_TransferAir" = No   $ IP Non-Tech
 "Latitude" = 32.7   $ IP Non-Tech
 "LobbyWaiting_EWSF" = 0.5375   $ IP Non-Tech
 "LobbyWaiting_LWSF" = 1.3   $ IP Non-Tech
 "Longitude" = 117.2   $ IP Non-Tech
 "LowSpdCapRatio" = 1   $ Msr (Multi)TechID: StdNResSplitAC-45to55
 "LowSpdCfmRatio" = 1   $ Msr (Multi)TechID: StdNResSplitAC-45to55
 "MZFanMechEff" = 0.58   $ IP Non-Tech
 "MZHasRetFan" = FALSE   $ IP Non-Tech
 "MZ_RFanWPerCfm" = 0.37   $ IP Non-Tech
 "MZ_SFanWPerCfm" = 0.71   $ IP Non-Tech
 "MZ_SupFanStatic" = 2.25   $ IP Non-Tech
 "MaxOAFrac" = 1   $ Msr (Multi)TechID: StdNResSplitAC-45to55
 "MaxSupT_MZ" = 100   $ IP Non-Tech
 "MaxSupT_SZ" = 100   $ IP Non-Tech
 "MaxSupT_TU" = 90   $ IP Non-Tech
 "MechElecRoom_EWSF" = 0.23   $ IP Non-Tech
 "MechElecRoom_LWSF" = 0.7   $ IP Non-Tech
 "MinCfmPerSF" = 0.4   $ IP Non-Tech
 "MinSupT" = 55   $ IP Non-Tech
 "NumStages" = 1   $ Msr (Multi)TechID: StdNResSplitAC-45to55
 "OccCoolT" = 76   $ IP Non-Tech
 "OccHeatT" = 72   $ IP Non-Tech
 "OfficeOpen_EWSF" = 1.725   $ IP Non-Tech
 "OfficeOpen_LWSF" = 1.2   $ IP Non-Tech
 "OfficeSmall_EWSF" = 1.725   $ IP Non-Tech
 "OfficeSmall_LWSF" = 1.3   $ IP Non-Tech
 "PkgDxVintEconoFlag" = 0   $ IP Non-Tech
 "Restroom_EWSF" = 0.23   $ IP Non-Tech
 "Restroom_LWSF" = 0.6   $ IP Non-Tech
 "SEER" = 14   $ Msr (Multi)TechID: StdNResSplitAC-45to55
 "SZFanMechEff" = 0.58   $ IP Non-Tech
 "SZHasRetFan" = FALSE   $ IP Non-Tech
 "SZ_Is_2Spd" = FALSE   $ IP Non-Tech
 "SZ_SFanWPerCfm" = 0.46   $ IP Non-Tech
 "SZ_SupFanStatic" = 0.75   $ IP Non-Tech
 "Sector" = Any   $ Msr (Multi)TechID: StdNResSplitAC-45to55
 "StorageSmlCond_EWSF" = 0.23   $ IP Non-Tech
 "StorageSmlCond_LWSF" = 0.6   $ IP Non-Tech
 "SubType" = AC   $ Msr (Multi)TechID: StdNResSplitAC-45to55
 "T24GlzTbl" = CZTbl   $ IP Non-Tech
 "TermUnitFanMechEff" = 1   $ IP Non-Tech
 "TermUnitFanMode" = INTERMITTENT   $ IP Non-Tech
 "TotCoolCap" = 52519.36364   $ Msr (Multi)TechID: StdNResSplitAC-45to55
 "TwrSetpt" = 80   $ IP Non-Tech
 "UnocCoolT" = 86   $ IP Non-Tech
 "UnocHeatT" = 62   $ IP Non-Tech
 "UseEconoVintApplic" = FALSE   $ Msr (Multi)TechID: StdNResSplitAC-45to55
 "WlhpVintEconoFlag" = 0   $ IP Non-Tech
 "DuctDT" = 1   $ IP Tech: ComDuctInsul-1
 "DuctAirLoss" = 0   $ IP Tech: ComDuctLeak-0
 "DuctLossOAFrac" = 0   $ IP Tech: ComDuctLeak-0
 "ComRoofInsCalc" = FromUo   $ IP Tech: ComRoofIns-Hvy-0.06
 "ComRoofInsR" = -999   $ IP Tech: ComRoofIns-Hvy-0.06
 "ComRoofUo" = 0.06   $ IP Tech: ComRoofIns-Hvy-0.06
 "ComEWInsCalc" = FromUo   $ IP Tech: ComWallIns-MFrm-0.18
 "ComEWInsR" = -999   $ IP Tech: ComWallIns-MFrm-0.18
 "ComEWUo" = 0.18   $ IP Tech: ComWallIns-MFrm-0.18
 "ComN_SHGC" = 0.82   $ IP Tech: NResWin-ComN-1.23-0.82
 "ComN_UFactor" = 1.23   $ IP Tech: NResWin-ComN-1.23-0.82
 "ComN_VisTrans" = 0.9   $ IP Tech: NResWin-ComN-1.23-0.82
 "ComN_WinCode" = G1000   $ IP Tech: NResWin-ComN-1.23-0.82
 "ComN_WinFrmFrac" = 0.17   $ IP Tech: NResWin-ComN-1.23-0.82
 "ComN_WinFrmU" = 1   $ IP Tech: NResWin-ComN-1.23-0.82
 "ComO_SHGC" = 0.82   $ IP Tech: NResWin-ComO-1.23-0.82
 "ComO_UFactor" = 1.23   $ IP Tech: NResWin-ComO-1.23-0.82
 "ComO_VisTrans" = 0.9   $ IP Tech: NResWin-ComO-1.23-0.82
 "ComO_WinCode" = G1000   $ IP Tech: NResWin-ComO-1.23-0.82
 "ComO_WinFrmFrac" = 0.17   $ IP Tech: NResWin-ComO-1.23-0.82
 "ComO_WinFrmU" = 1   $ IP Tech: NResWin-ComO-1.23-0.82
 "LtgMsrApplic" = ALL   $ IP Tech: NonResLtgRefPre
 "LtgSav_CFL" = 0   $ IP Tech: NonResLtgRefPre
 "LtgSav_EX" = 0   $ IP Tech: NonResLtgRefPre
 "LtgSav_HB" = 0   $ IP Tech: NonResLtgRefPre
 "LtgSav_LF" = 0   $ IP Tech: NonResLtgRefPre
 "LtgSav_SP" = 0   $ IP Tech: NonResLtgRefPre
 "CEIR_fPLR" = PSZ65to135_CEIR_fPLR   $ IP Tech: PkgAC1SpH-65to135-E10
 "CLoss_fPLR" = PSZ65to135_CLoss_fPLR   $ IP Tech: PkgAC1SpH-65to135-E10
 "COP" = -1   $ IP Tech: PkgAC1SpH-65to135-E10
 "HtgFuel" = Gas   $ IP Tech: PkgAC1SpH-65to135-E10
 "IEER" = 11.87   $ IP Tech: PkgAC1SpH-65to135-E10
 "NominalCap" = 15   $ IP Tech: PkgAC1SpH-65to135-E10
 "RatedEER" = 10   $ IP Tech: PkgAC1SpH-65to135-E10
 "RatedSupMtrClass" = HiEff   $ IP Tech: PkgAC1SpH-65to135-E10
 "SizeRange" = 65to135   $ IP Tech: PkgAC1SpH-65to135-E10
 "SupMotEff" = 0.84   $ IP Tech: PkgAC1SpH-65to135-E10
 "Tier" = 0   $ IP Tech: PkgAC1SpH-65to135-E10
 "FanPwrMult" = 1   $ IP Tech: PkgFurn-0.80AFUE
 "FurnAFUE" = 0.8   $ IP Tech: PkgFurn-0.80AFUE
 "FurnEt" = 0.82   $ IP Tech: PkgFurn-0.80AFUE
 "FurnaceAuxKW" = 0.1   $ IP Tech: PkgFurn-0.80AFUE
 "HIR_fPLR" = Furnace-HIR-fPLR   $ IP Tech: PkgFurn-0.80AFUE
 "VSM" = FALSE   $ IP Tech: PkgFurn-0.80AFUE
 "BFMult" = 1   $ IP Tech: RefgChg-NRes-Std
 "CoolEirMult" = 1   $ IP Tech: RefgChg-NRes-Std
 "SensCoolCapMult" = 1   $ IP Tech: RefgChg-NRes-Std
 "TotCoolCapMult" = 1   $ IP Tech: RefgChg-NRes-Std
 "AltAdjFactor" = 1.000512   $ Sizing
 "CAssFlo_L_Break_CZn" = 373.7191   $ Sizing
 "CAssFlo_L_Conf_CZn" = 460.0786   $ Sizing
 "CAssFlo_L_CopyRm_CZn" = 123.0091   $ Sizing
 "CAssFlo_L_Cordr_CZn" = 603.3113   $ Sizing
 "CAssFlo_L_Cordr_EZn" = 328.4266   $ Sizing
 "CAssFlo_L_Cordr_NZn" = 111.8561   $ Sizing
 "CAssFlo_L_Cordr_SZn" = 347.5197   $ Sizing
 "CAssFlo_L_Cordr_WZn" = 324.4539   $ Sizing
 "CAssFlo_L_LobWait_CZn" = 400.3648   $ Sizing
 "CAssFlo_L_MechElec_CZn" = 133.2348   $ Sizing
 "CAssFlo_L_OfficeOpn_CZn" = 1823.878   $ Sizing
 "CAssFlo_L_OfficeOpn_EZn" = 2528.755   $ Sizing
 "CAssFlo_L_OfficeOpn_NZn" = 1051.645   $ Sizing
 "CAssFlo_L_OfficeOpn_SZn" = 2559.27   $ Sizing
 "CAssFlo_L_OfficeOpn_WZn" = 2576.92   $ Sizing
 "CAssFlo_L_OfficeSm_CZn" = 248.3661   $ Sizing
 "CAssFlo_L_OfficeSm_EZn" = 1873.55   $ Sizing
 "CAssFlo_L_OfficeSm_NZn" = 677.4144   $ Sizing
 "CAssFlo_L_OfficeSm_SZn" = 1927.833   $ Sizing
 "CAssFlo_L_OfficeSm_WZn" = 1903.996   $ Sizing
 "CAssFlo_L_Restrm_CZn" = 210.3849   $ Sizing
 "CAssFlo_L_StorSm_CZn" = 397.173   $ Sizing
 "CAssFlo_M_Break_CZn" = 410.9682   $ Sizing
 "CAssFlo_M_Conf_CZn" = 517.9919   $ Sizing
 "CAssFlo_M_CopyRm_CZn" = 154.4369   $ Sizing
 "CAssFlo_M_Cordr_CZn" = 962.2519   $ Sizing
 "CAssFlo_M_Cordr_EZn" = 377.197   $ Sizing
 "CAssFlo_M_Cordr_NZn" = 156.3591   $ Sizing
 "CAssFlo_M_Cordr_SZn" = 398.8303   $ Sizing
 "CAssFlo_M_Cordr_WZn" = 359.2864   $ Sizing
 "CAssFlo_M_LobWait_CZn" = 526.6714   $ Sizing
 "CAssFlo_M_MechElec_CZn" = 171.3123   $ Sizing
 "CAssFlo_M_OfficeOpn_CZn" = 2188.435   $ Sizing
 "CAssFlo_M_OfficeOpn_EZn" = 2691.854   $ Sizing
 "CAssFlo_M_OfficeOpn_NZn" = 1181.932   $ Sizing
 "CAssFlo_M_OfficeOpn_SZn" = 2796.831   $ Sizing
 "CAssFlo_M_OfficeOpn_WZn" = 2699.078   $ Sizing
 "CAssFlo_M_OfficeSm_CZn" = 309.0938   $ Sizing
 "CAssFlo_M_OfficeSm_EZn" = 1971.147   $ Sizing
 "CAssFlo_M_OfficeSm_NZn" = 748.9789   $ Sizing
 "CAssFlo_M_OfficeSm_SZn" = 2088.122   $ Sizing
 "CAssFlo_M_OfficeSm_WZn" = 1983.884   $ Sizing
 "CAssFlo_M_Restrm_CZn" = 210.3849   $ Sizing
 "CAssFlo_M_StorSm_CZn" = 427.1837   $ Sizing
 "CAssFlo_T_Break_CZn" = 385.9838   $ Sizing
 "CAssFlo_T_Conf_CZn" = 477.9388   $ Sizing
 "CAssFlo_T_CopyRm_CZn" = 132.5128   $ Sizing
 "CAssFlo_T_Cordr_CZn" = 792.2681   $ Sizing
 "CAssFlo_T_Cordr_EZn" = 329.2858   $ Sizing
 "CAssFlo_T_Cordr_NZn" = 133.5617   $ Sizing
 "CAssFlo_T_Cordr_SZn" = 358.5044   $ Sizing
 "CAssFlo_T_Cordr_WZn" = 320.6375   $ Sizing
 "CAssFlo_T_LobWait_CZn" = 468.6792   $ Sizing
 "CAssFlo_T_MechElec_CZn" = 193.5071   $ Sizing
 "CAssFlo_T_OfficeOpn_CZn" = 1893.975   $ Sizing
 "CAssFlo_T_OfficeOpn_EZn" = 2419.745   $ Sizing
 "CAssFlo_T_OfficeOpn_NZn" = 1074.483   $ Sizing
 "CAssFlo_T_OfficeOpn_SZn" = 2590.415   $ Sizing
 "CAssFlo_T_OfficeOpn_WZn" = 2450.827   $ Sizing
 "CAssFlo_T_OfficeSm_CZn" = 292.556   $ Sizing
 "CAssFlo_T_OfficeSm_EZn" = 1826.912   $ Sizing
 "CAssFlo_T_OfficeSm_NZn" = 708.2958   $ Sizing
 "CAssFlo_T_OfficeSm_SZn" = 1982.544   $ Sizing
 "CAssFlo_T_OfficeSm_WZn" = 1849.915   $ Sizing
 "CAssFlo_T_Restrm_CZn" = 210.3849   $ Sizing
 "CAssFlo_T_StorSm_CZn" = 331.7615   $ Sizing
 "CHRtFlo_Sys_L_Break_C" = 373.7191   $ Sizing
 "CHRtFlo_Sys_L_Conf_C" = 460.0786   $ Sizing
 "CHRtFlo_Sys_L_CopyRm_C" = 123.0091   $ Sizing
 "CHRtFlo_Sys_L_Cordr_C" = 603.3113   $ Sizing
 "CHRtFlo_Sys_L_Cordr_E" = 328.4266   $ Sizing
 "CHRtFlo_Sys_L_Cordr_N" = 111.8561   $ Sizing
 "CHRtFlo_Sys_L_Cordr_S" = 347.5197   $ Sizing
 "CHRtFlo_Sys_L_Cordr_W" = 324.4539   $ Sizing
 "CHRtFlo_Sys_L_LobWait_C" = 400.3648   $ Sizing
 "CHRtFlo_Sys_L_MechElec_C" = 133.2348   $ Sizing
 "CHRtFlo_Sys_L_OfficeOpn_C" = 1823.878   $ Sizing
 "CHRtFlo_Sys_L_OfficeOpn_E" = 2528.755   $ Sizing
 "CHRtFlo_Sys_L_OfficeOpn_N" = 1051.645   $ Sizing
 "CHRtFlo_Sys_L_OfficeOpn_S" = 2559.27   $ Sizing
 "CHRtFlo_Sys_L_OfficeOpn_W" = 2576.92   $ Sizing
 "CHRtFlo_Sys_L_OfficeSm_C" = 248.3661   $ Sizing
 "CHRtFlo_Sys_L_OfficeSm_E" = 1873.55   $ Sizing
 "CHRtFlo_Sys_L_OfficeSm_N" = 677.4144   $ Sizing
 "CHRtFlo_Sys_L_OfficeSm_S" = 1927.833   $ Sizing
 "CHRtFlo_Sys_L_OfficeSm_W" = 1903.996   $ Sizing
 "CHRtFlo_Sys_L_Restrm_C" = 210.3849   $ Sizing
 "CHRtFlo_Sys_L_StorSm_C" = 397.173   $ Sizing
 "CHRtFlo_Sys_M_Break_C" = 3287.746   $ Sizing
 "CHRtFlo_Sys_M_Conf_C" = 4143.935   $ Sizing
 "CHRtFlo_Sys_M_CopyRm_C" = 1235.495   $ Sizing
 "CHRtFlo_Sys_M_Cordr_C" = 7698.015   $ Sizing
 "CHRtFlo_Sys_M_Cordr_E" = 3017.576   $ Sizing
 "CHRtFlo_Sys_M_Cordr_N" = 1250.873   $ Sizing
 "CHRtFlo_Sys_M_Cordr_S" = 3190.642   $ Sizing
 "CHRtFlo_Sys_M_Cordr_W" = 2874.291   $ Sizing
 "CHRtFlo_Sys_M_LobWait_C" = 4213.371   $ Sizing
 "CHRtFlo_Sys_M_MechElec_C" = 1370.499   $ Sizing
 "CHRtFlo_Sys_M_OfficeOpn_C" = 17507.48   $ Sizing
 "CHRtFlo_Sys_M_OfficeOpn_E" = 21534.83   $ Sizing
 "CHRtFlo_Sys_M_OfficeOpn_N" = 9455.459   $ Sizing
 "CHRtFlo_Sys_M_OfficeOpn_S" = 22374.65   $ Sizing
 "CHRtFlo_Sys_M_OfficeOpn_W" = 21592.63   $ Sizing
 "CHRtFlo_Sys_M_OfficeSm_C" = 2472.75   $ Sizing
 "CHRtFlo_Sys_M_OfficeSm_E" = 15769.17   $ Sizing
 "CHRtFlo_Sys_M_OfficeSm_N" = 5991.831   $ Sizing
 "CHRtFlo_Sys_M_OfficeSm_S" = 16704.97   $ Sizing
 "CHRtFlo_Sys_M_OfficeSm_W" = 15871.07   $ Sizing
 "CHRtFlo_Sys_M_Restrm_C" = 1683.079   $ Sizing
 "CHRtFlo_Sys_M_StorSm_C" = 3417.469   $ Sizing
 "CHRtFlo_Sys_T_Break_C" = 385.9838   $ Sizing
 "CHRtFlo_Sys_T_Conf_C" = 477.9388   $ Sizing
 "CHRtFlo_Sys_T_CopyRm_C" = 132.5128   $ Sizing
 "CHRtFlo_Sys_T_Cordr_C" = 792.2681   $ Sizing
 "CHRtFlo_Sys_T_Cordr_E" = 329.2858   $ Sizing
 "CHRtFlo_Sys_T_Cordr_N" = 133.5617   $ Sizing
 "CHRtFlo_Sys_T_Cordr_S" = 358.5044   $ Sizing
 "CHRtFlo_Sys_T_Cordr_W" = 320.6375   $ Sizing
 "CHRtFlo_Sys_T_LobWait_C" = 468.6792   $ Sizing
 "CHRtFlo_Sys_T_MechElec_C" = 193.5071   $ Sizing
 "CHRtFlo_Sys_T_OfficeOpn_C" = 1893.975   $ Sizing
 "CHRtFlo_Sys_T_OfficeOpn_E" = 2419.745   $ Sizing
 "CHRtFlo_Sys_T_OfficeOpn_N" = 1074.483   $ Sizing
 "CHRtFlo_Sys_T_OfficeOpn_S" = 2590.415   $ Sizing
 "CHRtFlo_Sys_T_OfficeOpn_W" = 2450.827   $ Sizing
 "CHRtFlo_Sys_T_OfficeSm_C" = 292.556   $ Sizing
 "CHRtFlo_Sys_T_OfficeSm_E" = 1826.912   $ Sizing
 "CHRtFlo_Sys_T_OfficeSm_N" = 708.2958   $ Sizing
 "CHRtFlo_Sys_T_OfficeSm_S" = 1982.544   $ Sizing
 "CHRtFlo_Sys_T_OfficeSm_W" = 1849.915   $ Sizing
 "CHRtFlo_Sys_T_Restrm_C" = 210.3849   $ Sizing
 "CHRtFlo_Sys_T_StorSm_C" = 331.7615   $ Sizing
 "CRtdFlo_Sys_L_Break_C" = 373.7191   $ Sizing
 "CRtdFlo_Sys_L_Conf_C" = 460.0786   $ Sizing
 "CRtdFlo_Sys_L_CopyRm_C" = 123.0091   $ Sizing
 "CRtdFlo_Sys_L_Cordr_C" = 603.3113   $ Sizing
 "CRtdFlo_Sys_L_Cordr_E" = 328.4266   $ Sizing
 "CRtdFlo_Sys_L_Cordr_N" = 111.8561   $ Sizing
 "CRtdFlo_Sys_L_Cordr_S" = 347.5197   $ Sizing
 "CRtdFlo_Sys_L_Cordr_W" = 324.4539   $ Sizing
 "CRtdFlo_Sys_L_LobWait_C" = 400.3648   $ Sizing
 "CRtdFlo_Sys_L_MechElec_C" = 133.2348   $ Sizing
 "CRtdFlo_Sys_L_OfficeOpn_C" = 1823.878   $ Sizing
 "CRtdFlo_Sys_L_OfficeOpn_E" = 2528.755   $ Sizing
 "CRtdFlo_Sys_L_OfficeOpn_N" = 1051.645   $ Sizing
 "CRtdFlo_Sys_L_OfficeOpn_S" = 2559.27   $ Sizing
 "CRtdFlo_Sys_L_OfficeOpn_W" = 2576.92   $ Sizing
 "CRtdFlo_Sys_L_OfficeSm_C" = 248.3661   $ Sizing
 "CRtdFlo_Sys_L_OfficeSm_E" = 1873.55   $ Sizing
 "CRtdFlo_Sys_L_OfficeSm_N" = 677.4144   $ Sizing
 "CRtdFlo_Sys_L_OfficeSm_S" = 1927.833   $ Sizing
 "CRtdFlo_Sys_L_OfficeSm_W" = 1903.996   $ Sizing
 "CRtdFlo_Sys_L_Restrm_C" = 210.3849   $ Sizing
 "CRtdFlo_Sys_L_StorSm_C" = 397.173   $ Sizing
 "CRtdFlo_Sys_M_Break_C" = 3287.746   $ Sizing
 "CRtdFlo_Sys_M_Conf_C" = 4143.935   $ Sizing
 "CRtdFlo_Sys_M_CopyRm_C" = 1235.495   $ Sizing
 "CRtdFlo_Sys_M_Cordr_C" = 7698.015   $ Sizing
 "CRtdFlo_Sys_M_Cordr_E" = 3017.576   $ Sizing
 "CRtdFlo_Sys_M_Cordr_N" = 1250.873   $ Sizing
 "CRtdFlo_Sys_M_Cordr_S" = 3190.642   $ Sizing
 "CRtdFlo_Sys_M_Cordr_W" = 2874.291   $ Sizing
 "CRtdFlo_Sys_M_LobWait_C" = 4213.371   $ Sizing
 "CRtdFlo_Sys_M_MechElec_C" = 1370.499   $ Sizing
 "CRtdFlo_Sys_M_OfficeOpn_C" = 17507.48   $ Sizing
 "CRtdFlo_Sys_M_OfficeOpn_E" = 21534.83   $ Sizing
 "CRtdFlo_Sys_M_OfficeOpn_N" = 9455.459   $ Sizing
 "CRtdFlo_Sys_M_OfficeOpn_S" = 22374.65   $ Sizing
 "CRtdFlo_Sys_M_OfficeOpn_W" = 21592.63   $ Sizing
 "CRtdFlo_Sys_M_OfficeSm_C" = 2472.75   $ Sizing
 "CRtdFlo_Sys_M_OfficeSm_E" = 15769.17   $ Sizing
 "CRtdFlo_Sys_M_OfficeSm_N" = 5991.831   $ Sizing
 "CRtdFlo_Sys_M_OfficeSm_S" = 16704.97   $ Sizing
 "CRtdFlo_Sys_M_OfficeSm_W" = 15871.07   $ Sizing
 "CRtdFlo_Sys_M_Restrm_C" = 1683.079   $ Sizing
 "CRtdFlo_Sys_M_StorSm_C" = 3417.469   $ Sizing
 "CRtdFlo_Sys_T_Break_C" = 385.9838   $ Sizing
 "CRtdFlo_Sys_T_Conf_C" = 477.9388   $ Sizing
 "CRtdFlo_Sys_T_CopyRm_C" = 132.5128   $ Sizing
 "CRtdFlo_Sys_T_Cordr_C" = 792.2681   $ Sizing
 "CRtdFlo_Sys_T_Cordr_E" = 329.2858   $ Sizing
 "CRtdFlo_Sys_T_Cordr_N" = 133.5617   $ Sizing
 "CRtdFlo_Sys_T_Cordr_S" = 358.5044   $ Sizing
 "CRtdFlo_Sys_T_Cordr_W" = 320.6375   $ Sizing
 "CRtdFlo_Sys_T_LobWait_C" = 468.6792   $ Sizing
 "CRtdFlo_Sys_T_MechElec_C" = 193.5071   $ Sizing
 "CRtdFlo_Sys_T_OfficeOpn_C" = 1893.975   $ Sizing
 "CRtdFlo_Sys_T_OfficeOpn_E" = 2419.745   $ Sizing
 "CRtdFlo_Sys_T_OfficeOpn_N" = 1074.483   $ Sizing
 "CRtdFlo_Sys_T_OfficeOpn_S" = 2590.415   $ Sizing
 "CRtdFlo_Sys_T_OfficeOpn_W" = 2450.827   $ Sizing
 "CRtdFlo_Sys_T_OfficeSm_C" = 292.556   $ Sizing
 "CRtdFlo_Sys_T_OfficeSm_E" = 1826.912   $ Sizing
 "CRtdFlo_Sys_T_OfficeSm_N" = 708.2958   $ Sizing
 "CRtdFlo_Sys_T_OfficeSm_S" = 1982.544   $ Sizing
 "CRtdFlo_Sys_T_OfficeSm_W" = 1849.915   $ Sizing
 "CRtdFlo_Sys_T_Restrm_C" = 210.3849   $ Sizing
 "CRtdFlo_Sys_T_StorSm_C" = 331.7615   $ Sizing
 "CSupFlo_Sys_L_Break_C" = 373.7191   $ Sizing
 "CSupFlo_Sys_L_Conf_C" = 460.0786   $ Sizing
 "CSupFlo_Sys_L_CopyRm_C" = 123.0091   $ Sizing
 "CSupFlo_Sys_L_Cordr_C" = 603.3113   $ Sizing
 "CSupFlo_Sys_L_Cordr_E" = 328.4266   $ Sizing
 "CSupFlo_Sys_L_Cordr_N" = 111.8561   $ Sizing
 "CSupFlo_Sys_L_Cordr_S" = 347.5197   $ Sizing
 "CSupFlo_Sys_L_Cordr_W" = 324.4539   $ Sizing
 "CSupFlo_Sys_L_LobWait_C" = 400.3648   $ Sizing
 "CSupFlo_Sys_L_MechElec_C" = 133.2348   $ Sizing
 "CSupFlo_Sys_L_OfficeOpn_C" = 1823.878   $ Sizing
 "CSupFlo_Sys_L_OfficeOpn_E" = 2528.755   $ Sizing
 "CSupFlo_Sys_L_OfficeOpn_N" = 1051.645   $ Sizing
 "CSupFlo_Sys_L_OfficeOpn_S" = 2559.27   $ Sizing
 "CSupFlo_Sys_L_OfficeOpn_W" = 2576.92   $ Sizing
 "CSupFlo_Sys_L_OfficeSm_C" = 248.3661   $ Sizing
 "CSupFlo_Sys_L_OfficeSm_E" = 1873.55   $ Sizing
 "CSupFlo_Sys_L_OfficeSm_N" = 677.4144   $ Sizing
 "CSupFlo_Sys_L_OfficeSm_S" = 1927.833   $ Sizing
 "CSupFlo_Sys_L_OfficeSm_W" = 1903.996   $ Sizing
 "CSupFlo_Sys_L_Restrm_C" = 210.3849   $ Sizing
 "CSupFlo_Sys_L_StorSm_C" = 397.173   $ Sizing
 "CSupFlo_Sys_M_Break_C" = 3287.746   $ Sizing
 "CSupFlo_Sys_M_Conf_C" = 4143.935   $ Sizing
 "CSupFlo_Sys_M_CopyRm_C" = 1235.495   $ Sizing
 "CSupFlo_Sys_M_Cordr_C" = 7698.015   $ Sizing
 "CSupFlo_Sys_M_Cordr_E" = 3017.576   $ Sizing
 "CSupFlo_Sys_M_Cordr_N" = 1250.873   $ Sizing
 "CSupFlo_Sys_M_Cordr_S" = 3190.642   $ Sizing
 "CSupFlo_Sys_M_Cordr_W" = 2874.291   $ Sizing
 "CSupFlo_Sys_M_LobWait_C" = 4213.371   $ Sizing
 "CSupFlo_Sys_M_MechElec_C" = 1370.499   $ Sizing
 "CSupFlo_Sys_M_OfficeOpn_C" = 17507.48   $ Sizing
 "CSupFlo_Sys_M_OfficeOpn_E" = 21534.83   $ Sizing
 "CSupFlo_Sys_M_OfficeOpn_N" = 9455.459   $ Sizing
 "CSupFlo_Sys_M_OfficeOpn_S" = 22374.65   $ Sizing
 "CSupFlo_Sys_M_OfficeOpn_W" = 21592.63   $ Sizing
 "CSupFlo_Sys_M_OfficeSm_C" = 2472.75   $ Sizing
 "CSupFlo_Sys_M_OfficeSm_E" = 15769.17   $ Sizing
 "CSupFlo_Sys_M_OfficeSm_N" = 5991.831   $ Sizing
 "CSupFlo_Sys_M_OfficeSm_S" = 16704.97   $ Sizing
 "CSupFlo_Sys_M_OfficeSm_W" = 15871.07   $ Sizing
 "CSupFlo_Sys_M_Restrm_C" = 1683.079   $ Sizing
 "CSupFlo_Sys_M_StorSm_C" = 3417.469   $ Sizing
 "CSupFlo_Sys_T_Break_C" = 385.9838   $ Sizing
 "CSupFlo_Sys_T_Conf_C" = 477.9388   $ Sizing
 "CSupFlo_Sys_T_CopyRm_C" = 132.5128   $ Sizing
 "CSupFlo_Sys_T_Cordr_C" = 792.2681   $ Sizing
 "CSupFlo_Sys_T_Cordr_E" = 329.2858   $ Sizing
 "CSupFlo_Sys_T_Cordr_N" = 133.5617   $ Sizing
 "CSupFlo_Sys_T_Cordr_S" = 358.5044   $ Sizing
 "CSupFlo_Sys_T_Cordr_W" = 320.6375   $ Sizing
 "CSupFlo_Sys_T_LobWait_C" = 468.6792   $ Sizing
 "CSupFlo_Sys_T_MechElec_C" = 193.5071   $ Sizing
 "CSupFlo_Sys_T_OfficeOpn_C" = 1893.975   $ Sizing
 "CSupFlo_Sys_T_OfficeOpn_E" = 2419.745   $ Sizing
 "CSupFlo_Sys_T_OfficeOpn_N" = 1074.483   $ Sizing
 "CSupFlo_Sys_T_OfficeOpn_S" = 2590.415   $ Sizing
 "CSupFlo_Sys_T_OfficeOpn_W" = 2450.827   $ Sizing
 "CSupFlo_Sys_T_OfficeSm_C" = 292.556   $ Sizing
 "CSupFlo_Sys_T_OfficeSm_E" = 1826.912   $ Sizing
 "CSupFlo_Sys_T_OfficeSm_N" = 708.2958   $ Sizing
 "CSupFlo_Sys_T_OfficeSm_S" = 1982.544   $ Sizing
 "CSupFlo_Sys_T_OfficeSm_W" = 1849.915   $ Sizing
 "CSupFlo_Sys_T_Restrm_C" = 210.3849   $ Sizing
 "CSupFlo_Sys_T_StorSm_C" = 331.7615   $ Sizing
 "ClCap_Sys_L_Break_C" = 12806.67   $ Sizing
 "ClCap_Sys_L_Conf_C" = 20065.89   $ Sizing
 "ClCap_Sys_L_CopyRm_C" = 4215.298   $ Sizing
 "ClCap_Sys_L_Cordr_C" = 20674.38   $ Sizing
 "ClCap_Sys_L_Cordr_E" = 11254.58   $ Sizing
 "ClCap_Sys_L_Cordr_N" = 3833.105   $ Sizing
 "ClCap_Sys_L_Cordr_S" = 11908.87   $ Sizing
 "ClCap_Sys_L_Cordr_W" = 11118.44   $ Sizing
 "ClCap_Sys_L_LobWait_C" = 13719.77   $ Sizing
 "ClCap_Sys_L_MechElec_C" = 4565.713   $ Sizing
 "ClCap_Sys_L_OfficeOpn_C" = 62500.95   $ Sizing
 "ClCap_Sys_L_OfficeOpn_E" = 86655.8   $ Sizing
 "ClCap_Sys_L_OfficeOpn_N" = 36037.95   $ Sizing
 "ClCap_Sys_L_OfficeOpn_S" = 87701.49   $ Sizing
 "ClCap_Sys_L_OfficeOpn_W" = 88306.34   $ Sizing
 "ClCap_Sys_L_OfficeSm_C" = 8511.054   $ Sizing
 "ClCap_Sys_L_OfficeSm_E" = 64203.13   $ Sizing
 "ClCap_Sys_L_OfficeSm_N" = 23213.75   $ Sizing
 "ClCap_Sys_L_OfficeSm_S" = 66063.33   $ Sizing
 "ClCap_Sys_L_OfficeSm_W" = 65246.46   $ Sizing
 "ClCap_Sys_L_Restrm_C" = 7209.506   $ Sizing
 "ClCap_Sys_L_StorSm_C" = 13610.39   $ Sizing
 "ClCap_Sys_M_Break_C" = 112665   $ Sizing
 "ClCap_Sys_M_Conf_C" = 180733.7   $ Sizing
 "ClCap_Sys_M_CopyRm_C" = 42338.17   $ Sizing
 "ClCap_Sys_M_Cordr_C" = 263796.9   $ Sizing
 "ClCap_Sys_M_Cordr_E" = 103406.8   $ Sizing
 "ClCap_Sys_M_Cordr_N" = 42865.13   $ Sizing
 "ClCap_Sys_M_Cordr_S" = 109337.5   $ Sizing
 "ClCap_Sys_M_Cordr_W" = 98496.7   $ Sizing
 "ClCap_Sys_M_LobWait_C" = 144384.5   $ Sizing
 "ClCap_Sys_M_MechElec_C" = 46964.48   $ Sizing
 "ClCap_Sys_M_OfficeOpn_C" = 599949.4   $ Sizing
 "ClCap_Sys_M_OfficeOpn_E" = 737959.3   $ Sizing
 "ClCap_Sys_M_OfficeOpn_N" = 324021.3   $ Sizing
 "ClCap_Sys_M_OfficeOpn_S" = 766738.3   $ Sizing
 "ClCap_Sys_M_OfficeOpn_W" = 739939.8   $ Sizing
 "ClCap_Sys_M_OfficeSm_C" = 84736.63   $ Sizing
 "ClCap_Sys_M_OfficeSm_E" = 540380.8   $ Sizing
 "ClCap_Sys_M_OfficeSm_N" = 205329.1   $ Sizing
 "ClCap_Sys_M_OfficeSm_S" = 572448.9   $ Sizing
 "ClCap_Sys_M_OfficeSm_W" = 543872.7   $ Sizing
 "ClCap_Sys_M_Restrm_C" = 57676.05   $ Sizing
 "ClCap_Sys_M_StorSm_C" = 117110.4   $ Sizing
 "ClCap_Sys_T_Break_C" = 13226.96   $ Sizing
 "ClCap_Sys_T_Conf_C" = 20844.84   $ Sizing
 "ClCap_Sys_T_CopyRm_C" = 4540.973   $ Sizing
 "ClCap_Sys_T_Cordr_C" = 27149.58   $ Sizing
 "ClCap_Sys_T_Cordr_E" = 11284.02   $ Sizing
 "ClCap_Sys_T_Cordr_N" = 4576.917   $ Sizing
 "ClCap_Sys_T_Cordr_S" = 12285.29   $ Sizing
 "ClCap_Sys_T_Cordr_W" = 10987.66   $ Sizing
 "ClCap_Sys_T_LobWait_C" = 16060.78   $ Sizing
 "ClCap_Sys_T_MechElec_C" = 6631.135   $ Sizing
 "ClCap_Sys_T_OfficeOpn_C" = 64903.07   $ Sizing
 "ClCap_Sys_T_OfficeOpn_E" = 82920.25   $ Sizing
 "ClCap_Sys_T_OfficeOpn_N" = 36820.57   $ Sizing
 "ClCap_Sys_T_OfficeOpn_S" = 88768.77   $ Sizing
 "ClCap_Sys_T_OfficeOpn_W" = 83985.38   $ Sizing
 "ClCap_Sys_T_OfficeSm_C" = 10025.36   $ Sizing
 "ClCap_Sys_T_OfficeSm_E" = 62604.94   $ Sizing
 "ClCap_Sys_T_OfficeSm_N" = 24272   $ Sizing
 "ClCap_Sys_T_OfficeSm_S" = 67938.16   $ Sizing
 "ClCap_Sys_T_OfficeSm_W" = 63393.2   $ Sizing
 "ClCap_Sys_T_Restrm_C" = 7209.506   $ Sizing
 "ClCap_Sys_T_StorSm_C" = 11368.86   $ Sizing
 "HtCap_Sys_L_Break_C" = -17848.12   $ Sizing
 "HtCap_Sys_L_Conf_C" = -22550.33   $ Sizing
 "HtCap_Sys_L_CopyRm_C" = -6464.209   $ Sizing
 "HtCap_Sys_L_Cordr_C" = -24228.42   $ Sizing
 "HtCap_Sys_L_Cordr_E" = -10368.17   $ Sizing
 "HtCap_Sys_L_Cordr_N" = -4412.695   $ Sizing
 "HtCap_Sys_L_Cordr_S" = -11110.97   $ Sizing
 "HtCap_Sys_L_Cordr_W" = -10531.5   $ Sizing
 "HtCap_Sys_L_LobWait_C" = -18930.01   $ Sizing
 "HtCap_Sys_L_MechElec_C" = -5453.195   $ Sizing
 "HtCap_Sys_L_OfficeOpn_C" = -89548.23   $ Sizing
 "HtCap_Sys_L_OfficeOpn_E" = -78953.42   $ Sizing
 "HtCap_Sys_L_OfficeOpn_N" = -36699.27   $ Sizing
 "HtCap_Sys_L_OfficeOpn_S" = -125537.5   $ Sizing
 "HtCap_Sys_L_OfficeOpn_W" = -79951.39   $ Sizing
 "HtCap_Sys_L_OfficeSm_C" = -12144.12   $ Sizing
 "HtCap_Sys_L_OfficeSm_E" = -59572.18   $ Sizing
 "HtCap_Sys_L_OfficeSm_N" = -23828.06   $ Sizing
 "HtCap_Sys_L_OfficeSm_S" = -61051.47   $ Sizing
 "HtCap_Sys_L_OfficeSm_W" = -59225.49   $ Sizing
 "HtCap_Sys_L_Restrm_C" = -7841.061   $ Sizing
 "HtCap_Sys_L_StorSm_C" = -15551.38   $ Sizing
 "HtCap_Sys_M_Break_C" = -151138.7   $ Sizing
 "HtCap_Sys_M_Conf_C" = -194042.8   $ Sizing
 "HtCap_Sys_M_CopyRm_C" = -58811.32   $ Sizing
 "HtCap_Sys_M_Cordr_C" = -274674   $ Sizing
 "HtCap_Sys_M_Cordr_E" = -94941.63   $ Sizing
 "HtCap_Sys_M_Cordr_N" = -45491.32   $ Sizing
 "HtCap_Sys_M_Cordr_S" = -100213.8   $ Sizing
 "HtCap_Sys_M_Cordr_W" = -91980.66   $ Sizing
 "HtCap_Sys_M_LobWait_C" = -180093.4   $ Sizing
 "HtCap_Sys_M_MechElec_C" = -52187.94   $ Sizing
 "HtCap_Sys_M_OfficeOpn_C" = -857280.5   $ Sizing
 "HtCap_Sys_M_OfficeOpn_E" = -670528.1   $ Sizing
 "HtCap_Sys_M_OfficeOpn_N" = -322432   $ Sizing
 "HtCap_Sys_M_OfficeOpn_S" = -1097450   $ Sizing
 "HtCap_Sys_M_OfficeOpn_W" = -665558.6   $ Sizing
 "HtCap_Sys_M_OfficeSm_C" = -120617   $ Sizing
 "HtCap_Sys_M_OfficeSm_E" = -499437.7   $ Sizing
 "HtCap_Sys_M_OfficeSm_N" = -206874.5   $ Sizing
 "HtCap_Sys_M_OfficeSm_S" = -526753.1   $ Sizing
 "HtCap_Sys_M_OfficeSm_W" = -490505.3   $ Sizing
 "HtCap_Sys_M_Restrm_C" = -67627.88   $ Sizing
 "HtCap_Sys_M_StorSm_C" = -129693   $ Sizing
 "HtCap_Sys_T_Break_C" = -18875.91   $ Sizing
 "HtCap_Sys_T_Conf_C" = -23696.29   $ Sizing
 "HtCap_Sys_T_CopyRm_C" = -6826.925   $ Sizing
 "HtCap_Sys_T_Cordr_C" = -31690.41   $ Sizing
 "HtCap_Sys_T_Cordr_E" = -11775.08   $ Sizing
 "HtCap_Sys_T_Cordr_N" = -5498.004   $ Sizing
 "HtCap_Sys_T_Cordr_S" = -12407.02   $ Sizing
 "HtCap_Sys_T_Cordr_W" = -11528.58   $ Sizing
 "HtCap_Sys_T_LobWait_C" = -21570.7   $ Sizing
 "HtCap_Sys_T_MechElec_C" = -7149.79   $ Sizing
 "HtCap_Sys_T_OfficeOpn_C" = -92739.38   $ Sizing
 "HtCap_Sys_T_OfficeOpn_E" = -82136.27   $ Sizing
 "HtCap_Sys_T_OfficeOpn_N" = -41392.38   $ Sizing
 "HtCap_Sys_T_OfficeOpn_S" = -86334.75   $ Sizing
 "HtCap_Sys_T_OfficeOpn_W" = -82886.68   $ Sizing
 "HtCap_Sys_T_OfficeSm_C" = -14273.38   $ Sizing
 "HtCap_Sys_T_OfficeSm_E" = -63729.61   $ Sizing
 "HtCap_Sys_T_OfficeSm_N" = -27096.78   $ Sizing
 "HtCap_Sys_T_OfficeSm_S" = -66504.81   $ Sizing
 "HtCap_Sys_T_OfficeSm_W" = -63009.15   $ Sizing
 "HtCap_Sys_T_Restrm_C" = -8212.386   $ Sizing
 "HtCap_Sys_T_StorSm_C" = -14787.74   $ Sizing
..

##include Templates\OfL_DX_SZ.inp
END ..
COMPUTE ..
STOP ..
