INPUT ..

##fileprefix C:\Users\jglasskatz\MASControl3\
##set1 IsSizing FALSE
##set1 CoolType DX
##set1 HeatType FURNACE
##set1 EU_HrRepVar 0
##set1 BldgVint 2003
##set1 BldgLoc CZ02

 ##set1 mBFMult 1   $ IP Tech: RefgChg-NRes-Std

PARAMETER
 "AltFactor" = 1.00464   $ IP Non-Tech
 "BF_fFlow" = SpltAC2SpHiSEER_BF_fFlow   $ Msr (Multi)TechID: MsrNResSplitAC-45to55-S17
 "BF_fT" = SpltAC2SpHiSEER_BF_fT   $ Msr (Multi)TechID: MsrNResSplitAC-45to55-S17
 "BldgEconoFlag" = 1   $ IP Non-Tech
 "Break_EWSF" = 1   $ IP Non-Tech
 "Break_LWSF" = 1.1   $ IP Non-Tech
 "CDD_DBHi10" = 83   $ IP Non-Tech
 "CDD_DBHi7" = 96   $ IP Non-Tech
 "CDD_DBHi8" = 92   $ IP Non-Tech
 "CDD_DBHi9" = 96   $ IP Non-Tech
 "CDD_DBRange10" = 35   $ IP Non-Tech
 "CDD_DBRange7" = 44   $ IP Non-Tech
 "CDD_DBRange8" = 38   $ IP Non-Tech
 "CDD_DBRange9" = 43   $ IP Non-Tech
 "CDD_Day10" = 15   $ IP Non-Tech
 "CDD_Day7" = 16   $ IP Non-Tech
 "CDD_Day8" = 20   $ IP Non-Tech
 "CDD_Day9" = 17   $ IP Non-Tech
 "CDD_HrHi10" = 15   $ IP Non-Tech
 "CDD_HrHi7" = 15   $ IP Non-Tech
 "CDD_HrHi8" = 16   $ IP Non-Tech
 "CDD_HrHi9" = 14   $ IP Non-Tech
 "CDD_HrLo10" = 7   $ IP Non-Tech
 "CDD_HrLo7" = 7   $ IP Non-Tech
 "CDD_HrLo8" = 6   $ IP Non-Tech
 "CDD_HrLo9" = 6   $ IP Non-Tech
 "CDD_WB10" = 61.02124405   $ IP Non-Tech
 "CDD_WB7" = 68.3706665   $ IP Non-Tech
 "CDD_WB8" = 69.14488983   $ IP Non-Tech
 "CDD_WB9" = 65.15551758   $ IP Non-Tech
 "CEIR_fPLR_Hot" = SpltAC2SpHiSEER_CEIR_fPLR_Hot   $ Msr (Multi)TechID: MsrNResSplitAC-45to55-S17
 "CEIR_fPLR_Mod" = SpltAC2SpHiSEER_CEIR_fPLR_Mod   $ Msr (Multi)TechID: MsrNResSplitAC-45to55-S17
 "CEIR_fPLR_Tem" = SpltAC2SpHiSEER_CEIR_fPLR_Tem   $ Msr (Multi)TechID: MsrNResSplitAC-45to55-S17
 "CLoss_fPLR_Hot" = SpltAC2SpHiSEER_CLoss_fPLR_Hot   $ Msr (Multi)TechID: MsrNResSplitAC-45to55-S17
 "CLoss_fPLR_Mod" = SpltAC2SpHiSEER_CLoss_fPLR_Mod   $ Msr (Multi)TechID: MsrNResSplitAC-45to55-S17
 "CLoss_fPLR_Tem" = SpltAC2SpHiSEER_CLoss_fPLR_Tem   $ Msr (Multi)TechID: MsrNResSplitAC-45to55-S17
 "COP47" = 0   $ Msr (Multi)TechID: MsrNResSplitAC-45to55-S17
 "CZ_Category" = Mod   $ IP Non-Tech
 "CapRange" = Any   $ Msr (Multi)TechID: MsrNResSplitAC-45to55-S17
 "CfmPerBtuh" = 0.03   $ Msr (Multi)TechID: MsrNResSplitAC-45to55-S17
 "ChwVintEconoFlag" = 1   $ IP Non-Tech
 "ClCap_fT" = SpltAC2SpHiSEER_ClCap_fT   $ Msr (Multi)TechID: MsrNResSplitAC-45to55-S17
 "ClSH_fT" = SpltAC2SpHiSEER_ClSH_fT   $ Msr (Multi)TechID: MsrNResSplitAC-45to55-S17
 "CoilBF" = 0.102   $ Msr (Multi)TechID: MsrNResSplitAC-45to55-S17
 "CondWPerBtuh" = 0   $ Msr (Multi)TechID: MsrNResSplitAC-45to55-S17
 "Conference_EWSF" = 1   $ IP Non-Tech
 "Conference_LWSF" = 1.4   $ IP Non-Tech
 "CoolSensCap" = 0.724   $ Msr (Multi)TechID: MsrNResSplitAC-45to55-S17
 "CoolSetT" = 45   $ IP Non-Tech
 "CoolType" = DX   $ IP Non-Tech
 "CoolingEIR" = 0.2225   $ Msr (Multi)TechID: MsrNResSplitAC-45to55-S17
 "CopyRoom_EWSF" = 1.5   $ IP Non-Tech
 "CopyRoom_LWSF" = 1.3   $ IP Non-Tech
 "CorridorStairway_EWSF" = 0.2   $ IP Non-Tech
 "CorridorStairway_LWSF" = 0.6   $ IP Non-Tech
 "CrnkEIR" = 0.002225   $ Msr (Multi)TechID: MsrNResSplitAC-45to55-S17
 "CrnkMaxT" = 50   $ Msr (Multi)TechID: MsrNResSplitAC-45to55-S17
 "DXType" = SplitSEER   $ Msr (Multi)TechID: MsrNResSplitAC-45to55-S17
 "DesCoolT" = 75   $ IP Non-Tech
 "DesHeatT" = 73   $ IP Non-Tech
 "EER" = 13.26   $ Msr (Multi)TechID: MsrNResSplitAC-45to55-S17
 "EIR_fT" = SpltAC2SpHiSEER_EIR_fT   $ Msr (Multi)TechID: MsrNResSplitAC-45to55-S17
 "EconoCtrl" = FIXED   $ Msr (Multi)TechID: MsrNResSplitAC-45to55-S17
 "EconoEnthLimit" = 28   $ IP Non-Tech
 "EconoTempLimit" = 73   $ IP Non-Tech
 "Elevation" = 125   $ IP Non-Tech
 "FanEirPlr" = TwoSpeedFan   $ Msr (Multi)TechID: MsrNResSplitAC-45to55-S17
 "FanWPerCfm" = 0.271   $ Msr (Multi)TechID: MsrNResSplitAC-45to55-S17
 "HDD_CloudAmt1" = 0   $ IP Non-Tech
 "HDD_DBHi1" = 51   $ IP Non-Tech
 "HDD_DBRange1" = 22   $ IP Non-Tech
 "HDD_Day1" = 15   $ IP Non-Tech
 "HDD_HrHi1" = 15   $ IP Non-Tech
 "HDD_HrLo1" = 8   $ IP Non-Tech
 "HDD_WB1" = 45.9   $ IP Non-Tech
 "HDD_WindSpd1" = 10.4   $ IP Non-Tech
 "HIR_fT" = 0   $ Msr (Multi)TechID: MsrNResSplitAC-45to55-S17
 "HSPF" = 0   $ Msr (Multi)TechID: MsrNResSplitAC-45to55-S17
 "HeatSrc" = FURNACE   $ IP Non-Tech
 "HeatSrcTU" = HEAT-PUMP   $ IP Non-Tech
 "HeatType" = GasFurn   $ IP Non-Tech
 "HeatTypeTU" = HEAT-PUMP   $ IP Non-Tech
 "HtCap_fT" = 0   $ Msr (Multi)TechID: MsrNResSplitAC-45to55-S17
 "HtCoolCapRatio" = 0   $ Msr (Multi)TechID: MsrNResSplitAC-45to55-S17
 "HtgEIR" = 0   $ Msr (Multi)TechID: MsrNResSplitAC-45to55-S17
 "IndoorFanMode" = CONTINUOUS   $ IP Non-Tech
 "KT_TransferAir" = No   $ IP Non-Tech
 "Latitude" = 38.5   $ IP Non-Tech
 "LobbyWaiting_EWSF" = 0.5   $ IP Non-Tech
 "LobbyWaiting_LWSF" = 1.3   $ IP Non-Tech
 "Longitude" = 122.7   $ IP Non-Tech
 "LowSpdCapRatio" = 0.686   $ Msr (Multi)TechID: MsrNResSplitAC-45to55-S17
 "LowSpdCfmRatio" = 0.739   $ Msr (Multi)TechID: MsrNResSplitAC-45to55-S17
 "MZFanMechEff" = 0.58   $ IP Non-Tech
 "MZHasRetFan" = FALSE   $ IP Non-Tech
 "MZ_RFanWPerCfm" = 0.37   $ IP Non-Tech
 "MZ_SFanWPerCfm" = 0.71   $ IP Non-Tech
 "MZ_SupFanStatic" = 2.25   $ IP Non-Tech
 "MaxOAFrac" = 1   $ Msr (Multi)TechID: MsrNResSplitAC-45to55-S17
 "MaxSupT_MZ" = 100   $ IP Non-Tech
 "MaxSupT_SZ" = 100   $ IP Non-Tech
 "MaxSupT_TU" = 90   $ IP Non-Tech
 "MechElecRoom_EWSF" = 0.2   $ IP Non-Tech
 "MechElecRoom_LWSF" = 0.7   $ IP Non-Tech
 "MinCfmPerSF" = 0.4   $ IP Non-Tech
 "MinSupT" = 55   $ IP Non-Tech
 "NumStages" = 2   $ Msr (Multi)TechID: MsrNResSplitAC-45to55-S17
 "OccCoolT" = 76   $ IP Non-Tech
 "OccHeatT" = 72   $ IP Non-Tech
 "OfficeOpen_EWSF" = 1.5   $ IP Non-Tech
 "OfficeOpen_LWSF" = 1.2   $ IP Non-Tech
 "OfficeSmall_EWSF" = 1.5   $ IP Non-Tech
 "OfficeSmall_LWSF" = 1.3   $ IP Non-Tech
 "PkgDxVintEconoFlag" = 0   $ IP Non-Tech
 "Restroom_EWSF" = 0.2   $ IP Non-Tech
 "Restroom_LWSF" = 0.6   $ IP Non-Tech
 "SEER" = 17   $ Msr (Multi)TechID: MsrNResSplitAC-45to55-S17
 "SZFanMechEff" = 0.58   $ IP Non-Tech
 "SZHasRetFan" = FALSE   $ IP Non-Tech
 "SZ_Is_2Spd" = FALSE   $ IP Non-Tech
 "SZ_SFanWPerCfm" = 0.46   $ IP Non-Tech
 "SZ_SupFanStatic" = 0.75   $ IP Non-Tech
 "Sector" = Any   $ Msr (Multi)TechID: MsrNResSplitAC-45to55-S17
 "StorageSmlCond_EWSF" = 0.2   $ IP Non-Tech
 "StorageSmlCond_LWSF" = 0.6   $ IP Non-Tech
 "SubType" = AC   $ Msr (Multi)TechID: MsrNResSplitAC-45to55-S17
 "T24GlzTbl" = CZTbl   $ IP Non-Tech
 "TermUnitFanMechEff" = 1   $ IP Non-Tech
 "TermUnitFanMode" = INTERMITTENT   $ IP Non-Tech
 "TotCoolCap" = 58805   $ Msr (Multi)TechID: MsrNResSplitAC-45to55-S17
 "TwrSetpt" = 84   $ IP Non-Tech
 "UnocCoolT" = 86   $ IP Non-Tech
 "UnocHeatT" = 62   $ IP Non-Tech
 "UseEconoVintApplic" = FALSE   $ Msr (Multi)TechID: MsrNResSplitAC-45to55-S17
 "WlhpVintEconoFlag" = 0   $ IP Non-Tech
 "DuctDT" = 1   $ IP Tech: ComDuctInsul-1
 "DuctAirLoss" = 0   $ IP Tech: ComDuctLeak-0
 "DuctLossOAFrac" = 0   $ IP Tech: ComDuctLeak-0
 "ComRoofInsCalc" = FromUo   $ IP Tech: ComRoofIns-Hvy-0.06
 "ComRoofInsR" = -999   $ IP Tech: ComRoofIns-Hvy-0.06
 "ComRoofUo" = 0.06   $ IP Tech: ComRoofIns-Hvy-0.06
 "ComEWInsCalc" = FromUo   $ IP Tech: ComWallIns-MFrm-0.13
 "ComEWInsR" = -999   $ IP Tech: ComWallIns-MFrm-0.13
 "ComEWUo" = 0.13   $ IP Tech: ComWallIns-MFrm-0.13
 "ComN_SHGC" = 0.47   $ IP Tech: NResWin-ComN-0.47-0.47
 "ComN_UFactor" = 0.47   $ IP Tech: NResWin-ComN-0.47-0.47
 "ComN_VisTrans" = 0.75   $ IP Tech: NResWin-ComN-0.47-0.47
 "ComN_WinCode" = G2633   $ IP Tech: NResWin-ComN-0.47-0.47
 "ComN_WinFrmFrac" = 0.17   $ IP Tech: NResWin-ComN-0.47-0.47
 "ComN_WinFrmU" = 0.3   $ IP Tech: NResWin-ComN-0.47-0.47
 "ComO_SHGC" = 0.31   $ IP Tech: NResWin-ComO-0.47-0.31
 "ComO_UFactor" = 0.47   $ IP Tech: NResWin-ComO-0.47-0.31
 "ComO_VisTrans" = 0.44   $ IP Tech: NResWin-ComO-0.47-0.31
 "ComO_WinCode" = G2637   $ IP Tech: NResWin-ComO-0.47-0.31
 "ComO_WinFrmFrac" = 0.17   $ IP Tech: NResWin-ComO-0.47-0.31
 "ComO_WinFrmU" = 0.3   $ IP Tech: NResWin-ComO-0.47-0.31
 "LtgMsrApplic" = ALL   $ IP Tech: NonResLtgRefPre
 "LtgSav_CFL" = 0   $ IP Tech: NonResLtgRefPre
 "LtgSav_EX" = 0   $ IP Tech: NonResLtgRefPre
 "LtgSav_HB" = 0   $ IP Tech: NonResLtgRefPre
 "LtgSav_LF" = 0   $ IP Tech: NonResLtgRefPre
 "LtgSav_SP" = 0   $ IP Tech: NonResLtgRefPre
 "CEIR_fPLR" = PSZ65to135_CEIR_fPLR   $ IP Tech: PkgAC1SpH-65to135-E10
 "CLoss_fPLR" = PSZ65to135_CLoss_fPLR   $ IP Tech: PkgAC1SpH-65to135-E10
 "COP" = -1   $ IP Tech: PkgAC1SpH-65to135-E10
 "HtgFuel" = Gas   $ IP Tech: PkgAC1SpH-65to135-E10
 "IEER" = 11.87   $ IP Tech: PkgAC1SpH-65to135-E10
 "NominalCap" = 15   $ IP Tech: PkgAC1SpH-65to135-E10
 "RatedEER" = 10   $ IP Tech: PkgAC1SpH-65to135-E10
 "RatedSupMtrClass" = HiEff   $ IP Tech: PkgAC1SpH-65to135-E10
 "SizeRange" = 65to135   $ IP Tech: PkgAC1SpH-65to135-E10
 "SupMotEff" = 0.84   $ IP Tech: PkgAC1SpH-65to135-E10
 "Tier" = 0   $ IP Tech: PkgAC1SpH-65to135-E10
 "FanPwrMult" = 1   $ IP Tech: PkgFurn-0.80AFUE
 "FurnAFUE" = 0.8   $ IP Tech: PkgFurn-0.80AFUE
 "FurnEt" = 0.82   $ IP Tech: PkgFurn-0.80AFUE
 "FurnaceAuxKW" = 0.1   $ IP Tech: PkgFurn-0.80AFUE
 "HIR_fPLR" = Furnace-HIR-fPLR   $ IP Tech: PkgFurn-0.80AFUE
 "VSM" = FALSE   $ IP Tech: PkgFurn-0.80AFUE
 "BFMult" = 1   $ IP Tech: RefgChg-NRes-Std
 "CoolEirMult" = 1   $ IP Tech: RefgChg-NRes-Std
 "SensCoolCapMult" = 1   $ IP Tech: RefgChg-NRes-Std
 "TotCoolCapMult" = 1   $ IP Tech: RefgChg-NRes-Std
 "AltAdjFactor" = 1.004644   $ Sizing
 "CAssFlo_L_Break_CZn" = 461.981   $ Sizing
 "CAssFlo_L_Conf_CZn" = 439.6288   $ Sizing
 "CAssFlo_L_CopyRm_CZn" = 140.057   $ Sizing
 "CAssFlo_L_Cordr_CZn" = 512.2212   $ Sizing
 "CAssFlo_L_Cordr_EZn" = 174.3128   $ Sizing
 "CAssFlo_L_Cordr_NZn" = 121.964   $ Sizing
 "CAssFlo_L_Cordr_SZn" = 200.2476   $ Sizing
 "CAssFlo_L_Cordr_WZn" = 210.3249   $ Sizing
 "CAssFlo_L_LobWait_CZn" = 441.4823   $ Sizing
 "CAssFlo_L_MechElec_CZn" = 94.56641   $ Sizing
 "CAssFlo_L_OfficeOpn_CZn" = 1624.834   $ Sizing
 "CAssFlo_L_OfficeOpn_EZn" = 1347.856   $ Sizing
 "CAssFlo_L_OfficeOpn_NZn" = 1026.399   $ Sizing
 "CAssFlo_L_OfficeOpn_SZn" = 1498.878   $ Sizing
 "CAssFlo_L_OfficeOpn_WZn" = 1605.227   $ Sizing
 "CAssFlo_L_OfficeSm_CZn" = 199.1701   $ Sizing
 "CAssFlo_L_OfficeSm_EZn" = 944.975   $ Sizing
 "CAssFlo_L_OfficeSm_NZn" = 658.0844   $ Sizing
 "CAssFlo_L_OfficeSm_SZn" = 1059   $ Sizing
 "CAssFlo_L_OfficeSm_WZn" = 1108.701   $ Sizing
 "CAssFlo_L_Restrm_CZn" = 79.05927   $ Sizing
 "CAssFlo_L_StorSm_CZn" = 281.9864   $ Sizing
 "CAssFlo_M_Break_CZn" = 468.2677   $ Sizing
 "CAssFlo_M_Conf_CZn" = 444.8539   $ Sizing
 "CAssFlo_M_CopyRm_CZn" = 141.9999   $ Sizing
 "CAssFlo_M_Cordr_CZn" = 637.8618   $ Sizing
 "CAssFlo_M_Cordr_EZn" = 210.5958   $ Sizing
 "CAssFlo_M_Cordr_NZn" = 149.5997   $ Sizing
 "CAssFlo_M_Cordr_SZn" = 231.8468   $ Sizing
 "CAssFlo_M_Cordr_WZn" = 232.6543   $ Sizing
 "CAssFlo_M_LobWait_CZn" = 460.5718   $ Sizing
 "CAssFlo_M_MechElec_CZn" = 104.8046   $ Sizing
 "CAssFlo_M_OfficeOpn_CZn" = 1630.193   $ Sizing
 "CAssFlo_M_OfficeOpn_EZn" = 1481.183   $ Sizing
 "CAssFlo_M_OfficeOpn_NZn" = 1116.742   $ Sizing
 "CAssFlo_M_OfficeOpn_SZn" = 1624.223   $ Sizing
 "CAssFlo_M_OfficeOpn_WZn" = 1677.261   $ Sizing
 "CAssFlo_M_OfficeSm_CZn" = 209.9847   $ Sizing
 "CAssFlo_M_OfficeSm_EZn" = 1027.547   $ Sizing
 "CAssFlo_M_OfficeSm_NZn" = 718.4325   $ Sizing
 "CAssFlo_M_OfficeSm_SZn" = 1139.637   $ Sizing
 "CAssFlo_M_OfficeSm_WZn" = 1157.392   $ Sizing
 "CAssFlo_M_Restrm_CZn" = 85.86855   $ Sizing
 "CAssFlo_M_StorSm_CZn" = 276.2668   $ Sizing
 "CAssFlo_T_Break_CZn" = 464.4897   $ Sizing
 "CAssFlo_T_Conf_CZn" = 440.6365   $ Sizing
 "CAssFlo_T_CopyRm_CZn" = 138.6767   $ Sizing
 "CAssFlo_T_Cordr_CZn" = 612.6039   $ Sizing
 "CAssFlo_T_Cordr_EZn" = 204.9079   $ Sizing
 "CAssFlo_T_Cordr_NZn" = 149.2948   $ Sizing
 "CAssFlo_T_Cordr_SZn" = 224.5732   $ Sizing
 "CAssFlo_T_Cordr_WZn" = 233.1007   $ Sizing
 "CAssFlo_T_LobWait_CZn" = 460.4125   $ Sizing
 "CAssFlo_T_MechElec_CZn" = 137.451   $ Sizing
 "CAssFlo_T_OfficeOpn_CZn" = 1671.448   $ Sizing
 "CAssFlo_T_OfficeOpn_EZn" = 1450.063   $ Sizing
 "CAssFlo_T_OfficeOpn_NZn" = 1129.83   $ Sizing
 "CAssFlo_T_OfficeOpn_SZn" = 1601.078   $ Sizing
 "CAssFlo_T_OfficeOpn_WZn" = 1668.634   $ Sizing
 "CAssFlo_T_OfficeSm_CZn" = 210.3824   $ Sizing
 "CAssFlo_T_OfficeSm_EZn" = 1033.803   $ Sizing
 "CAssFlo_T_OfficeSm_NZn" = 735.0559   $ Sizing
 "CAssFlo_T_OfficeSm_SZn" = 1138.561   $ Sizing
 "CAssFlo_T_OfficeSm_WZn" = 1179.804   $ Sizing
 "CAssFlo_T_Restrm_CZn" = 120.2563   $ Sizing
 "CAssFlo_T_StorSm_CZn" = 237.6469   $ Sizing
 "CHRtFlo_Sys_L_Break_C" = 461.981   $ Sizing
 "CHRtFlo_Sys_L_Conf_C" = 443.9603   $ Sizing
 "CHRtFlo_Sys_L_CopyRm_C" = 140.057   $ Sizing
 "CHRtFlo_Sys_L_Cordr_C" = 568.485   $ Sizing
 "CHRtFlo_Sys_L_Cordr_E" = 226.4013   $ Sizing
 "CHRtFlo_Sys_L_Cordr_N" = 121.964   $ Sizing
 "CHRtFlo_Sys_L_Cordr_S" = 231.9668   $ Sizing
 "CHRtFlo_Sys_L_Cordr_W" = 222.4988   $ Sizing
 "CHRtFlo_Sys_L_LobWait_C" = 441.4823   $ Sizing
 "CHRtFlo_Sys_L_MechElec_C" = 133.7851   $ Sizing
 "CHRtFlo_Sys_L_OfficeOpn_C" = 1730.505   $ Sizing
 "CHRtFlo_Sys_L_OfficeOpn_E" = 1743.593   $ Sizing
 "CHRtFlo_Sys_L_OfficeOpn_N" = 1040.591   $ Sizing
 "CHRtFlo_Sys_L_OfficeOpn_S" = 1778.588   $ Sizing
 "CHRtFlo_Sys_L_OfficeOpn_W" = 1756.568   $ Sizing
 "CHRtFlo_Sys_L_OfficeSm_C" = 239.5169   $ Sizing
 "CHRtFlo_Sys_L_OfficeSm_E" = 1239.065   $ Sizing
 "CHRtFlo_Sys_L_OfficeSm_N" = 676.342   $ Sizing
 "CHRtFlo_Sys_L_OfficeSm_S" = 1289.611   $ Sizing
 "CHRtFlo_Sys_L_OfficeSm_W" = 1242.745   $ Sizing
 "CHRtFlo_Sys_L_Restrm_C" = 211.2538   $ Sizing
 "CHRtFlo_Sys_L_StorSm_C" = 389.8946   $ Sizing
 "CHRtFlo_Sys_M_Break_C" = 3746.142   $ Sizing
 "CHRtFlo_Sys_M_Conf_C" = 4029.721   $ Sizing
 "CHRtFlo_Sys_M_CopyRm_C" = 1154.216   $ Sizing
 "CHRtFlo_Sys_M_Cordr_C" = 7299.132   $ Sizing
 "CHRtFlo_Sys_M_Cordr_E" = 2225.103   $ Sizing
 "CHRtFlo_Sys_M_Cordr_N" = 1196.798   $ Sizing
 "CHRtFlo_Sys_M_Cordr_S" = 2190.527   $ Sizing
 "CHRtFlo_Sys_M_Cordr_W" = 2035.754   $ Sizing
 "CHRtFlo_Sys_M_LobWait_C" = 4137.012   $ Sizing
 "CHRtFlo_Sys_M_MechElec_C" = 1348.453   $ Sizing
 "CHRtFlo_Sys_M_OfficeOpn_C" = 16633.96   $ Sizing
 "CHRtFlo_Sys_M_OfficeOpn_E" = 15403.26   $ Sizing
 "CHRtFlo_Sys_M_OfficeOpn_N" = 9233.015   $ Sizing
 "CHRtFlo_Sys_M_OfficeOpn_S" = 15683.08   $ Sizing
 "CHRtFlo_Sys_M_OfficeOpn_W" = 14813.33   $ Sizing
 "CHRtFlo_Sys_M_OfficeSm_C" = 2361.3   $ Sizing
 "CHRtFlo_Sys_M_OfficeSm_E" = 10818.64   $ Sizing
 "CHRtFlo_Sys_M_OfficeSm_N" = 6013.308   $ Sizing
 "CHRtFlo_Sys_M_OfficeSm_S" = 11253.32   $ Sizing
 "CHRtFlo_Sys_M_OfficeSm_W" = 10526.9   $ Sizing
 "CHRtFlo_Sys_M_Restrm_C" = 1690.031   $ Sizing
 "CHRtFlo_Sys_M_StorSm_C" = 3417.734   $ Sizing
 "CHRtFlo_Sys_T_Break_C" = 464.4897   $ Sizing
 "CHRtFlo_Sys_T_Conf_C" = 464.8631   $ Sizing
 "CHRtFlo_Sys_T_CopyRm_C" = 138.6767   $ Sizing
 "CHRtFlo_Sys_T_Cordr_C" = 798.6291   $ Sizing
 "CHRtFlo_Sys_T_Cordr_E" = 245.1014   $ Sizing
 "CHRtFlo_Sys_T_Cordr_N" = 149.2948   $ Sizing
 "CHRtFlo_Sys_T_Cordr_S" = 248.2662   $ Sizing
 "CHRtFlo_Sys_T_Cordr_W" = 233.1007   $ Sizing
 "CHRtFlo_Sys_T_LobWait_C" = 461.9917   $ Sizing
 "CHRtFlo_Sys_T_MechElec_C" = 193.363   $ Sizing
 "CHRtFlo_Sys_T_OfficeOpn_C" = 1846.82   $ Sizing
 "CHRtFlo_Sys_T_OfficeOpn_E" = 1744.673   $ Sizing
 "CHRtFlo_Sys_T_OfficeOpn_N" = 1129.83   $ Sizing
 "CHRtFlo_Sys_T_OfficeOpn_S" = 1822.531   $ Sizing
 "CHRtFlo_Sys_T_OfficeOpn_W" = 1703.952   $ Sizing
 "CHRtFlo_Sys_T_OfficeSm_C" = 273.1079   $ Sizing
 "CHRtFlo_Sys_T_OfficeSm_E" = 1259.396   $ Sizing
 "CHRtFlo_Sys_T_OfficeSm_N" = 735.0559   $ Sizing
 "CHRtFlo_Sys_T_OfficeSm_S" = 1338.971   $ Sizing
 "CHRtFlo_Sys_T_OfficeSm_W" = 1244.597   $ Sizing
 "CHRtFlo_Sys_T_Restrm_C" = 211.2538   $ Sizing
 "CHRtFlo_Sys_T_StorSm_C" = 333.1317   $ Sizing
 "CRtdFlo_Sys_L_Break_C" = 461.981   $ Sizing
 "CRtdFlo_Sys_L_Conf_C" = 439.6288   $ Sizing
 "CRtdFlo_Sys_L_CopyRm_C" = 140.057   $ Sizing
 "CRtdFlo_Sys_L_Cordr_C" = 512.2212   $ Sizing
 "CRtdFlo_Sys_L_Cordr_E" = 174.3128   $ Sizing
 "CRtdFlo_Sys_L_Cordr_N" = 121.964   $ Sizing
 "CRtdFlo_Sys_L_Cordr_S" = 200.2476   $ Sizing
 "CRtdFlo_Sys_L_Cordr_W" = 210.3249   $ Sizing
 "CRtdFlo_Sys_L_LobWait_C" = 441.4823   $ Sizing
 "CRtdFlo_Sys_L_MechElec_C" = 94.56641   $ Sizing
 "CRtdFlo_Sys_L_OfficeOpn_C" = 1624.835   $ Sizing
 "CRtdFlo_Sys_L_OfficeOpn_E" = 1347.856   $ Sizing
 "CRtdFlo_Sys_L_OfficeOpn_N" = 1026.399   $ Sizing
 "CRtdFlo_Sys_L_OfficeOpn_S" = 1498.878   $ Sizing
 "CRtdFlo_Sys_L_OfficeOpn_W" = 1605.227   $ Sizing
 "CRtdFlo_Sys_L_OfficeSm_C" = 199.1701   $ Sizing
 "CRtdFlo_Sys_L_OfficeSm_E" = 944.975   $ Sizing
 "CRtdFlo_Sys_L_OfficeSm_N" = 658.0844   $ Sizing
 "CRtdFlo_Sys_L_OfficeSm_S" = 1059   $ Sizing
 "CRtdFlo_Sys_L_OfficeSm_W" = 1108.701   $ Sizing
 "CRtdFlo_Sys_L_Restrm_C" = 79.05927   $ Sizing
 "CRtdFlo_Sys_L_StorSm_C" = 281.9864   $ Sizing
 "CRtdFlo_Sys_M_Break_C" = 3746.142   $ Sizing
 "CRtdFlo_Sys_M_Conf_C" = 3558.831   $ Sizing
 "CRtdFlo_Sys_M_CopyRm_C" = 1135.999   $ Sizing
 "CRtdFlo_Sys_M_Cordr_C" = 5102.895   $ Sizing
 "CRtdFlo_Sys_M_Cordr_E" = 1684.767   $ Sizing
 "CRtdFlo_Sys_M_Cordr_N" = 1196.798   $ Sizing
 "CRtdFlo_Sys_M_Cordr_S" = 1854.775   $ Sizing
 "CRtdFlo_Sys_M_Cordr_W" = 1861.235   $ Sizing
 "CRtdFlo_Sys_M_LobWait_C" = 3684.575   $ Sizing
 "CRtdFlo_Sys_M_MechElec_C" = 838.4371   $ Sizing
 "CRtdFlo_Sys_M_OfficeOpn_C" = 13041.54   $ Sizing
 "CRtdFlo_Sys_M_OfficeOpn_E" = 11849.46   $ Sizing
 "CRtdFlo_Sys_M_OfficeOpn_N" = 8933.936   $ Sizing
 "CRtdFlo_Sys_M_OfficeOpn_S" = 12993.78   $ Sizing
 "CRtdFlo_Sys_M_OfficeOpn_W" = 13418.08   $ Sizing
 "CRtdFlo_Sys_M_OfficeSm_C" = 1679.878   $ Sizing
 "CRtdFlo_Sys_M_OfficeSm_E" = 8220.375   $ Sizing
 "CRtdFlo_Sys_M_OfficeSm_N" = 5747.46   $ Sizing
 "CRtdFlo_Sys_M_OfficeSm_S" = 9117.096   $ Sizing
 "CRtdFlo_Sys_M_OfficeSm_W" = 9259.136   $ Sizing
 "CRtdFlo_Sys_M_Restrm_C" = 686.9484   $ Sizing
 "CRtdFlo_Sys_M_StorSm_C" = 2210.135   $ Sizing
 "CRtdFlo_Sys_T_Break_C" = 464.4897   $ Sizing
 "CRtdFlo_Sys_T_Conf_C" = 440.6365   $ Sizing
 "CRtdFlo_Sys_T_CopyRm_C" = 138.6767   $ Sizing
 "CRtdFlo_Sys_T_Cordr_C" = 612.6039   $ Sizing
 "CRtdFlo_Sys_T_Cordr_E" = 204.9079   $ Sizing
 "CRtdFlo_Sys_T_Cordr_N" = 149.2948   $ Sizing
 "CRtdFlo_Sys_T_Cordr_S" = 224.5732   $ Sizing
 "CRtdFlo_Sys_T_Cordr_W" = 233.1007   $ Sizing
 "CRtdFlo_Sys_T_LobWait_C" = 460.4125   $ Sizing
 "CRtdFlo_Sys_T_MechElec_C" = 137.451   $ Sizing
 "CRtdFlo_Sys_T_OfficeOpn_C" = 1671.448   $ Sizing
 "CRtdFlo_Sys_T_OfficeOpn_E" = 1450.063   $ Sizing
 "CRtdFlo_Sys_T_OfficeOpn_N" = 1129.83   $ Sizing
 "CRtdFlo_Sys_T_OfficeOpn_S" = 1601.078   $ Sizing
 "CRtdFlo_Sys_T_OfficeOpn_W" = 1668.634   $ Sizing
 "CRtdFlo_Sys_T_OfficeSm_C" = 210.3824   $ Sizing
 "CRtdFlo_Sys_T_OfficeSm_E" = 1033.803   $ Sizing
 "CRtdFlo_Sys_T_OfficeSm_N" = 735.0559   $ Sizing
 "CRtdFlo_Sys_T_OfficeSm_S" = 1138.561   $ Sizing
 "CRtdFlo_Sys_T_OfficeSm_W" = 1179.804   $ Sizing
 "CRtdFlo_Sys_T_Restrm_C" = 120.2563   $ Sizing
 "CRtdFlo_Sys_T_StorSm_C" = 237.6469   $ Sizing
 "CSupFlo_Sys_L_Break_C" = 461.981   $ Sizing
 "CSupFlo_Sys_L_Conf_C" = 439.6288   $ Sizing
 "CSupFlo_Sys_L_CopyRm_C" = 140.057   $ Sizing
 "CSupFlo_Sys_L_Cordr_C" = 512.2212   $ Sizing
 "CSupFlo_Sys_L_Cordr_E" = 174.3128   $ Sizing
 "CSupFlo_Sys_L_Cordr_N" = 121.964   $ Sizing
 "CSupFlo_Sys_L_Cordr_S" = 200.2476   $ Sizing
 "CSupFlo_Sys_L_Cordr_W" = 210.3249   $ Sizing
 "CSupFlo_Sys_L_LobWait_C" = 441.4823   $ Sizing
 "CSupFlo_Sys_L_MechElec_C" = 94.56641   $ Sizing
 "CSupFlo_Sys_L_OfficeOpn_C" = 1624.835   $ Sizing
 "CSupFlo_Sys_L_OfficeOpn_E" = 1347.856   $ Sizing
 "CSupFlo_Sys_L_OfficeOpn_N" = 1026.399   $ Sizing
 "CSupFlo_Sys_L_OfficeOpn_S" = 1498.878   $ Sizing
 "CSupFlo_Sys_L_OfficeOpn_W" = 1605.227   $ Sizing
 "CSupFlo_Sys_L_OfficeSm_C" = 199.1701   $ Sizing
 "CSupFlo_Sys_L_OfficeSm_E" = 944.975   $ Sizing
 "CSupFlo_Sys_L_OfficeSm_N" = 658.0844   $ Sizing
 "CSupFlo_Sys_L_OfficeSm_S" = 1059   $ Sizing
 "CSupFlo_Sys_L_OfficeSm_W" = 1108.701   $ Sizing
 "CSupFlo_Sys_L_Restrm_C" = 79.05927   $ Sizing
 "CSupFlo_Sys_L_StorSm_C" = 281.9864   $ Sizing
 "CSupFlo_Sys_M_Break_C" = 3746.142   $ Sizing
 "CSupFlo_Sys_M_Conf_C" = 3558.831   $ Sizing
 "CSupFlo_Sys_M_CopyRm_C" = 1135.999   $ Sizing
 "CSupFlo_Sys_M_Cordr_C" = 5102.895   $ Sizing
 "CSupFlo_Sys_M_Cordr_E" = 1684.767   $ Sizing
 "CSupFlo_Sys_M_Cordr_N" = 1196.798   $ Sizing
 "CSupFlo_Sys_M_Cordr_S" = 1854.775   $ Sizing
 "CSupFlo_Sys_M_Cordr_W" = 1861.235   $ Sizing
 "CSupFlo_Sys_M_LobWait_C" = 3684.575   $ Sizing
 "CSupFlo_Sys_M_MechElec_C" = 838.4371   $ Sizing
 "CSupFlo_Sys_M_OfficeOpn_C" = 13041.54   $ Sizing
 "CSupFlo_Sys_M_OfficeOpn_E" = 11849.46   $ Sizing
 "CSupFlo_Sys_M_OfficeOpn_N" = 8933.936   $ Sizing
 "CSupFlo_Sys_M_OfficeOpn_S" = 12993.78   $ Sizing
 "CSupFlo_Sys_M_OfficeOpn_W" = 13418.08   $ Sizing
 "CSupFlo_Sys_M_OfficeSm_C" = 1679.878   $ Sizing
 "CSupFlo_Sys_M_OfficeSm_E" = 8220.375   $ Sizing
 "CSupFlo_Sys_M_OfficeSm_N" = 5747.46   $ Sizing
 "CSupFlo_Sys_M_OfficeSm_S" = 9117.096   $ Sizing
 "CSupFlo_Sys_M_OfficeSm_W" = 9259.136   $ Sizing
 "CSupFlo_Sys_M_Restrm_C" = 686.9484   $ Sizing
 "CSupFlo_Sys_M_StorSm_C" = 2210.135   $ Sizing
 "CSupFlo_Sys_T_Break_C" = 464.4897   $ Sizing
 "CSupFlo_Sys_T_Conf_C" = 440.6365   $ Sizing
 "CSupFlo_Sys_T_CopyRm_C" = 138.6767   $ Sizing
 "CSupFlo_Sys_T_Cordr_C" = 612.6039   $ Sizing
 "CSupFlo_Sys_T_Cordr_E" = 204.9079   $ Sizing
 "CSupFlo_Sys_T_Cordr_N" = 149.2948   $ Sizing
 "CSupFlo_Sys_T_Cordr_S" = 224.5732   $ Sizing
 "CSupFlo_Sys_T_Cordr_W" = 233.1007   $ Sizing
 "CSupFlo_Sys_T_LobWait_C" = 460.4125   $ Sizing
 "CSupFlo_Sys_T_MechElec_C" = 137.451   $ Sizing
 "CSupFlo_Sys_T_OfficeOpn_C" = 1671.448   $ Sizing
 "CSupFlo_Sys_T_OfficeOpn_E" = 1450.063   $ Sizing
 "CSupFlo_Sys_T_OfficeOpn_N" = 1129.83   $ Sizing
 "CSupFlo_Sys_T_OfficeOpn_S" = 1601.078   $ Sizing
 "CSupFlo_Sys_T_OfficeOpn_W" = 1668.634   $ Sizing
 "CSupFlo_Sys_T_OfficeSm_C" = 210.3824   $ Sizing
 "CSupFlo_Sys_T_OfficeSm_E" = 1033.803   $ Sizing
 "CSupFlo_Sys_T_OfficeSm_N" = 735.0559   $ Sizing
 "CSupFlo_Sys_T_OfficeSm_S" = 1138.561   $ Sizing
 "CSupFlo_Sys_T_OfficeSm_W" = 1179.804   $ Sizing
 "CSupFlo_Sys_T_Restrm_C" = 120.2563   $ Sizing
 "CSupFlo_Sys_T_StorSm_C" = 237.6469   $ Sizing
 "ClCap_Sys_L_Break_C" = 15766.13   $ Sizing
 "ClCap_Sys_L_Conf_C" = 19095.12   $ Sizing
 "ClCap_Sys_L_CopyRm_C" = 4779.755   $ Sizing
 "ClCap_Sys_L_Cordr_C" = 17480.69   $ Sizing
 "ClCap_Sys_L_Cordr_E" = 5948.812   $ Sizing
 "ClCap_Sys_L_Cordr_N" = 4162.292   $ Sizing
 "ClCap_Sys_L_Cordr_S" = 6833.896   $ Sizing
 "ClCap_Sys_L_Cordr_W" = 7177.806   $ Sizing
 "ClCap_Sys_L_LobWait_C" = 15066.56   $ Sizing
 "ClCap_Sys_L_MechElec_C" = 3227.289   $ Sizing
 "ClCap_Sys_L_OfficeOpn_C" = 55451.09   $ Sizing
 "ClCap_Sys_L_OfficeOpn_E" = 45998.57   $ Sizing
 "ClCap_Sys_L_OfficeOpn_N" = 35028.15   $ Sizing
 "ClCap_Sys_L_OfficeOpn_S" = 51152.53   $ Sizing
 "ClCap_Sys_L_OfficeOpn_W" = 54781.93   $ Sizing
 "ClCap_Sys_L_OfficeSm_C" = 6797.122   $ Sizing
 "ClCap_Sys_L_OfficeSm_E" = 32249.37   $ Sizing
 "ClCap_Sys_L_OfficeSm_N" = 22458.59   $ Sizing
 "ClCap_Sys_L_OfficeSm_S" = 36140.72   $ Sizing
 "ClCap_Sys_L_OfficeSm_W" = 37836.87   $ Sizing
 "ClCap_Sys_L_Restrm_C" = 2698.073   $ Sizing
 "ClCap_Sys_L_StorSm_C" = 9623.411   $ Sizing
 "ClCap_Sys_M_Break_C" = 127845.4   $ Sizing
 "ClCap_Sys_M_Conf_C" = 154576.6   $ Sizing
 "ClCap_Sys_M_CopyRm_C" = 38768.49   $ Sizing
 "ClCap_Sys_M_Cordr_C" = 174147.6   $ Sizing
 "ClCap_Sys_M_Cordr_E" = 57496.4   $ Sizing
 "ClCap_Sys_M_Cordr_N" = 40843.38   $ Sizing
 "ClCap_Sys_M_Cordr_S" = 63298.3   $ Sizing
 "ClCap_Sys_M_Cordr_W" = 63518.77   $ Sizing
 "ClCap_Sys_M_LobWait_C" = 125744.3   $ Sizing
 "ClCap_Sys_M_MechElec_C" = 28613.53   $ Sizing
 "ClCap_Sys_M_OfficeOpn_C" = 445071.6   $ Sizing
 "ClCap_Sys_M_OfficeOpn_E" = 404389.3   $ Sizing
 "ClCap_Sys_M_OfficeOpn_N" = 304890.4   $ Sizing
 "ClCap_Sys_M_OfficeOpn_S" = 443441.6   $ Sizing
 "ClCap_Sys_M_OfficeOpn_W" = 457921.9   $ Sizing
 "ClCap_Sys_M_OfficeSm_C" = 57329.56   $ Sizing
 "ClCap_Sys_M_OfficeSm_E" = 280538.6   $ Sizing
 "ClCap_Sys_M_OfficeSm_N" = 196144.8   $ Sizing
 "ClCap_Sys_M_OfficeSm_S" = 311141.1   $ Sizing
 "ClCap_Sys_M_OfficeSm_W" = 315988.6   $ Sizing
 "ClCap_Sys_M_Restrm_C" = 23443.64   $ Sizing
 "ClCap_Sys_M_StorSm_C" = 75425.76   $ Sizing
 "ClCap_Sys_T_Break_C" = 15851.74   $ Sizing
 "ClCap_Sys_T_Conf_C" = 19138.89   $ Sizing
 "ClCap_Sys_T_CopyRm_C" = 4732.65   $ Sizing
 "ClCap_Sys_T_Cordr_C" = 20906.47   $ Sizing
 "ClCap_Sys_T_Cordr_E" = 6992.938   $ Sizing
 "ClCap_Sys_T_Cordr_N" = 5095.016   $ Sizing
 "ClCap_Sys_T_Cordr_S" = 7664.06   $ Sizing
 "ClCap_Sys_T_Cordr_W" = 7955.08   $ Sizing
 "ClCap_Sys_T_LobWait_C" = 15712.6   $ Sizing
 "ClCap_Sys_T_MechElec_C" = 4690.82   $ Sizing
 "ClCap_Sys_T_OfficeOpn_C" = 57041.89   $ Sizing
 "ClCap_Sys_T_OfficeOpn_E" = 49486.6   $ Sizing
 "ClCap_Sys_T_OfficeOpn_N" = 38557.96   $ Sizing
 "ClCap_Sys_T_OfficeOpn_S" = 54640.33   $ Sizing
 "ClCap_Sys_T_OfficeOpn_W" = 56945.85   $ Sizing
 "ClCap_Sys_T_OfficeSm_C" = 7179.767   $ Sizing
 "ClCap_Sys_T_OfficeSm_E" = 35280.82   $ Sizing
 "ClCap_Sys_T_OfficeSm_N" = 25085.42   $ Sizing
 "ClCap_Sys_T_OfficeSm_S" = 38855.93   $ Sizing
 "ClCap_Sys_T_OfficeSm_W" = 40263.44   $ Sizing
 "ClCap_Sys_T_Restrm_C" = 4104.013   $ Sizing
 "ClCap_Sys_T_StorSm_C" = 8110.227   $ Sizing
 "HtCap_Sys_L_Break_C" = -26850.09   $ Sizing
 "HtCap_Sys_L_Conf_C" = -27125.59   $ Sizing
 "HtCap_Sys_L_CopyRm_C" = -9553.433   $ Sizing
 "HtCap_Sys_L_Cordr_C" = -27160.63   $ Sizing
 "HtCap_Sys_L_Cordr_E" = -8464.985   $ Sizing
 "HtCap_Sys_L_Cordr_N" = -5528.061   $ Sizing
 "HtCap_Sys_L_Cordr_S" = -8539.167   $ Sizing
 "HtCap_Sys_L_Cordr_W" = -8345.221   $ Sizing
 "HtCap_Sys_L_LobWait_C" = -25492.3   $ Sizing
 "HtCap_Sys_L_MechElec_C" = -6338.213   $ Sizing
 "HtCap_Sys_L_OfficeOpn_C" = -84373.55   $ Sizing
 "HtCap_Sys_L_OfficeOpn_E" = -61138.13   $ Sizing
 "HtCap_Sys_L_OfficeOpn_N" = -40746.2   $ Sizing
 "HtCap_Sys_L_OfficeOpn_S" = -61357.43   $ Sizing
 "HtCap_Sys_L_OfficeOpn_W" = -61456.28   $ Sizing
 "HtCap_Sys_L_OfficeSm_C" = -9821.242   $ Sizing
 "HtCap_Sys_L_OfficeSm_E" = -43150.36   $ Sizing
 "HtCap_Sys_L_OfficeSm_N" = -26527.49   $ Sizing
 "HtCap_Sys_L_OfficeSm_S" = -43970.54   $ Sizing
 "HtCap_Sys_L_OfficeSm_W" = -43327.84   $ Sizing
 "HtCap_Sys_L_Restrm_C" = -7667.684   $ Sizing
 "HtCap_Sys_L_StorSm_C" = -17959.46   $ Sizing
 "HtCap_Sys_M_Break_C" = -207344.6   $ Sizing
 "HtCap_Sys_M_Conf_C" = -231004.9   $ Sizing
 "HtCap_Sys_M_CopyRm_C" = -69021.02   $ Sizing
 "HtCap_Sys_M_Cordr_C" = -296182.5   $ Sizing
 "HtCap_Sys_M_Cordr_E" = -79564.92   $ Sizing
 "HtCap_Sys_M_Cordr_N" = -49718.62   $ Sizing
 "HtCap_Sys_M_Cordr_S" = -77692.25   $ Sizing
 "HtCap_Sys_M_Cordr_W" = -74012.63   $ Sizing
 "HtCap_Sys_M_LobWait_C" = -210487.4   $ Sizing
 "HtCap_Sys_M_MechElec_C" = -58527.91   $ Sizing
 "HtCap_Sys_M_OfficeOpn_C" = -810322.8   $ Sizing
 "HtCap_Sys_M_OfficeOpn_E" = -530063.6   $ Sizing
 "HtCap_Sys_M_OfficeOpn_N" = -351783.4   $ Sizing
 "HtCap_Sys_M_OfficeOpn_S" = -530829.7   $ Sizing
 "HtCap_Sys_M_OfficeOpn_W" = -512510   $ Sizing
 "HtCap_Sys_M_OfficeSm_C" = -91482.84   $ Sizing
 "HtCap_Sys_M_OfficeSm_E" = -370481.8   $ Sizing
 "HtCap_Sys_M_OfficeSm_N" = -229623   $ Sizing
 "HtCap_Sys_M_OfficeSm_S" = -379859.2   $ Sizing
 "HtCap_Sys_M_OfficeSm_W" = -362488.1   $ Sizing
 "HtCap_Sys_M_Restrm_C" = -66032.86   $ Sizing
 "HtCap_Sys_M_StorSm_C" = -147211   $ Sizing
 "HtCap_Sys_T_Break_C" = -27781.6   $ Sizing
 "HtCap_Sys_T_Conf_C" = -28762.27   $ Sizing
 "HtCap_Sys_T_CopyRm_C" = -8988.491   $ Sizing
 "HtCap_Sys_T_Cordr_C" = -38557.2   $ Sizing
 "HtCap_Sys_T_Cordr_E" = -10524.56   $ Sizing
 "HtCap_Sys_T_Cordr_N" = -7271.292   $ Sizing
 "HtCap_Sys_T_Cordr_S" = -10681.39   $ Sizing
 "HtCap_Sys_T_Cordr_W" = -10118.87   $ Sizing
 "HtCap_Sys_T_LobWait_C" = -26386.07   $ Sizing
 "HtCap_Sys_T_MechElec_C" = -8015.271   $ Sizing
 "HtCap_Sys_T_OfficeOpn_C" = -84533.8   $ Sizing
 "HtCap_Sys_T_OfficeOpn_E" = -70059.52   $ Sizing
 "HtCap_Sys_T_OfficeOpn_N" = -50647.95   $ Sizing
 "HtCap_Sys_T_OfficeOpn_S" = -73684.61   $ Sizing
 "HtCap_Sys_T_OfficeOpn_W" = -68573.9   $ Sizing
 "HtCap_Sys_T_OfficeSm_C" = -12349.3   $ Sizing
 "HtCap_Sys_T_OfficeSm_E" = -50793.15   $ Sizing
 "HtCap_Sys_T_OfficeSm_N" = -32808.92   $ Sizing
 "HtCap_Sys_T_OfficeSm_S" = -53425.71   $ Sizing
 "HtCap_Sys_T_OfficeSm_W" = -50367.55   $ Sizing
 "HtCap_Sys_T_Restrm_C" = -8980.764   $ Sizing
 "HtCap_Sys_T_StorSm_C" = -18012.05   $ Sizing
..

##include Templates\OfL_DX_SZ.inp
END ..
COMPUTE ..
STOP ..
