
Start DOESIM : Storage capacity =  75000000
Starting LOADS   : SAVE-FILES is On , weather is CZ03OAKLAND-METROPOL
Finished LOADS    BDL  1 : Memory (wds) =    391941, Time (sec) =    2.48
Starting REPORT  
Finished REPORT   BDL  1 : Memory (wds) =    784879, Time (sec) =    0.88
Starting HVAC    : SAVE-FILES is On , weather is CZ03OAKLAND-METROPOL
*** ERRORS or WARNINGS from HVAC     program. Examine output file for details.
Finished HVAC     BDL  1 : Memory (wds) =    676482, Time (sec) =    7.71
Starting REPORT  
Finished REPORT   BDL  1 : Memory (wds) =   1154301, Time (sec) =    0.78
Starting HOURLY-R
Finished HOURLY-R BDL  1 : Memory (wds) =   1519799, Time (sec) =    0.14
Starting ECONOMIC
Finished ECONOMIC BDL  1 : Memory (wds) =      1034, Time (sec) =    0.04
End   DOESIM : Total elapsed time of     12.0 seconds
RUN COMPLETE
