INPUT ..

##fileprefix C:\Users\jglasskatz\MASControl3\
##set1 IsSizing FALSE
##set1 CoolType DX
##set1 HeatType HOT-WATER
##set1 EU_HrRepVar 1
##set1 BldgVint 2020
##set1 BldgLoc CZ01

 ##set1 mHW_FlowCtrl VarSec   $ IP Tech: HwFlowCtrlVarSec
 ##set1 mBFMult 1   $ IP Tech: RefgChg-NRes-Std
 ##set1 mBlrIsCond FALSE   $ IP Tech: WBlr-300to2500-82p0Ec

PARAMETER
 "AltFactor" = 1.00753   $ IP Non-Tech
 "BldgEconoFlag" = 1   $ IP Non-Tech
 "BlrPrimLp" = BlrPrimLoop   $ IP Non-Tech
 "Break_EWSF" = 1   $ IP Non-Tech
 "Break_LWSF" = 0.65   $ IP Non-Tech
 "CDD_DBHi10" = 65   $ IP Non-Tech
 "CDD_DBHi7" = 68   $ IP Non-Tech
 "CDD_DBHi8" = 66   $ IP Non-Tech
 "CDD_DBHi9" = 77   $ IP Non-Tech
 "CDD_DBRange10" = 17   $ IP Non-Tech
 "CDD_DBRange7" = 11   $ IP Non-Tech
 "CDD_DBRange8" = 10   $ IP Non-Tech
 "CDD_DBRange9" = 29   $ IP Non-Tech
 "CDD_Day10" = 15   $ IP Non-Tech
 "CDD_Day7" = 16   $ IP Non-Tech
 "CDD_Day8" = 20   $ IP Non-Tech
 "CDD_Day9" = 17   $ IP Non-Tech
 "CDD_HrHi10" = 12   $ IP Non-Tech
 "CDD_HrHi7" = 12   $ IP Non-Tech
 "CDD_HrHi8" = 13   $ IP Non-Tech
 "CDD_HrHi9" = 17   $ IP Non-Tech
 "CDD_HrLo10" = 6   $ IP Non-Tech
 "CDD_HrLo7" = 3   $ IP Non-Tech
 "CDD_HrLo8" = 8   $ IP Non-Tech
 "CDD_HrLo9" = 4   $ IP Non-Tech
 "CDD_WB10" = 57.53039551   $ IP Non-Tech
 "CDD_WB7" = 59.29250717   $ IP Non-Tech
 "CDD_WB8" = 60.75350189   $ IP Non-Tech
 "CDD_WB9" = 61.08643341   $ IP Non-Tech
 "CZ_Category" = Tem   $ IP Non-Tech
 "ChwVintEconoFlag" = 1   $ IP Non-Tech
 "Conference_EWSF" = 1   $ IP Non-Tech
 "Conference_LWSF" = 0.85   $ IP Non-Tech
 "CoolSetT" = 45   $ IP Non-Tech
 "CoolType" = DX   $ IP Non-Tech
 "CopyRoom_EWSF" = 1.5   $ IP Non-Tech
 "CopyRoom_LWSF" = 0.5   $ IP Non-Tech
 "CorridorStairway_EWSF" = 0.2   $ IP Non-Tech
 "CorridorStairway_LWSF" = 0.55   $ IP Non-Tech
 "DesCoolT" = 75   $ IP Non-Tech
 "DesHeatT" = 73   $ IP Non-Tech
 "EconoEnthLimit" = 28   $ IP Non-Tech
 "EconoTempLimit" = 70   $ IP Non-Tech
 "Elevation" = 203   $ IP Non-Tech
 "HDD_CloudAmt1" = 0   $ IP Non-Tech
 "HDD_DBHi1" = 53   $ IP Non-Tech
 "HDD_DBRange1" = 20   $ IP Non-Tech
 "HDD_Day1" = 15   $ IP Non-Tech
 "HDD_HrHi1" = 14   $ IP Non-Tech
 "HDD_HrLo1" = 6   $ IP Non-Tech
 "HDD_WB1" = 42.3   $ IP Non-Tech
 "HDD_WindSpd1" = 12.7   $ IP Non-Tech
 "HeatSrc" = HOT-WATER   $ IP Non-Tech
 "HeatSrcTU" = HOT-WATER   $ IP Non-Tech
 "HeatType" = GasBlr   $ IP Non-Tech
 "HeatTypeTU" = HOT-WATER   $ IP Non-Tech
 "HwDesignDT" = 30   $ IP Non-Tech
 "HwPipeHead" = 40   $ IP Non-Tech
 "HwRetDT" = 0.3   $ IP Non-Tech
 "HwSupDT" = 0.5   $ IP Non-Tech
 "IndoorFanMode" = CONTINUOUS   $ IP Non-Tech
 "KT_TransferAir" = Yes   $ IP Non-Tech
 "Latitude" = 40.8   $ IP Non-Tech
 "LobbyWaiting_EWSF" = 0.5   $ IP Non-Tech
 "LobbyWaiting_LWSF" = 0.75   $ IP Non-Tech
 "Longitude" = 124.2   $ IP Non-Tech
 "LtgMsrApplic" = ALL   $ Msr TechID: NonResLtgRefMsr-CFL
 "LtgSav_CFL" = 0.3   $ Msr TechID: NonResLtgRefMsr-CFL
 "LtgSav_EX" = 0   $ Msr TechID: NonResLtgRefMsr-CFL
 "LtgSav_HB" = 0   $ Msr TechID: NonResLtgRefMsr-CFL
 "LtgSav_LF" = 0   $ Msr TechID: NonResLtgRefMsr-CFL
 "LtgSav_SP" = 0   $ Msr TechID: NonResLtgRefMsr-CFL
 "MZFanMechEff" = 0.58   $ IP Non-Tech
 "MZHasRetFan" = FALSE   $ IP Non-Tech
 "MZ_RFanWPerCfm" = 0.37   $ IP Non-Tech
 "MZ_SFanWPerCfm" = 0.71   $ IP Non-Tech
 "MZ_SupFanStatic" = 4   $ IP Non-Tech
 "MaxSupT_MZ" = 95   $ IP Non-Tech
 "MaxSupT_SZ" = 100   $ IP Non-Tech
 "MaxSupT_TU" = 90   $ IP Non-Tech
 "MechElecRoom_EWSF" = 0.2   $ IP Non-Tech
 "MechElecRoom_LWSF" = 0.4   $ IP Non-Tech
 "MinCfmPerSF" = 0.4   $ IP Non-Tech
 "MinSupT" = 55   $ IP Non-Tech
 "NumBlrs" = 2   $ IP Non-Tech
 "OccCoolT" = 76   $ IP Non-Tech
 "OccHeatT" = 72   $ IP Non-Tech
 "OfficeOpen_EWSF" = 1.5   $ IP Non-Tech
 "OfficeOpen_LWSF" = 0.8   $ IP Non-Tech
 "OfficeSmall_EWSF" = 1.5   $ IP Non-Tech
 "OfficeSmall_LWSF" = 0.9   $ IP Non-Tech
 "PkgDxVintEconoFlag" = 1   $ IP Non-Tech
 "ReheatDeltaT" = 40   $ IP Non-Tech
 "Restroom_EWSF" = 0.2   $ IP Non-Tech
 "Restroom_LWSF" = 0.65   $ IP Non-Tech
 "SZFanMechEff" = 0.58   $ IP Non-Tech
 "SZHasRetFan" = FALSE   $ IP Non-Tech
 "SZ_Is_2Spd" = TRUE   $ IP Non-Tech
 "SZ_SFanWPerCfm" = 0.46   $ IP Non-Tech
 "StorageSmlCond_EWSF" = 0.2   $ IP Non-Tech
 "StorageSmlCond_LWSF" = 0.45   $ IP Non-Tech
 "TermUnitFanMechEff" = 1   $ IP Non-Tech
 "TermUnitFanMode" = INTERMITTENT   $ IP Non-Tech
 "TwrSetpt" = 80   $ IP Non-Tech
 "UnocCoolT" = 86   $ IP Non-Tech
 "UnocHeatT" = 62   $ IP Non-Tech
 "VAVMinFlow" = 0.3   $ IP Non-Tech
 "WlhpVintEconoFlag" = 1   $ IP Non-Tech
 "EconoCtrl" = OA-TEMP   $ IP Tech: AirEcono-OATemp
 "MaxOAFrac" = 0.85   $ IP Tech: AirEcono-OATemp
 "UseEconoVintApplic" = FALSE   $ IP Tech: AirEcono-OATemp
 "DuctDT" = 1   $ IP Tech: ComDuctInsul-1
 "DuctAirLoss" = 0   $ IP Tech: ComDuctLeak-0
 "DuctLossOAFrac" = 0   $ IP Tech: ComDuctLeak-0
 "ComRoofInsCalc" = FromUo   $ IP Tech: ComRoofIns-Hvy-0.03
 "ComRoofInsR" = -999   $ IP Tech: ComRoofIns-Hvy-0.03
 "ComRoofUo" = 0.03   $ IP Tech: ComRoofIns-Hvy-0.03
 "ComEWInsCalc" = FromUo   $ IP Tech: ComWallIns-MFrm-0.07
 "ComEWInsR" = -999   $ IP Tech: ComWallIns-MFrm-0.07
 "ComEWUo" = 0.07   $ IP Tech: ComWallIns-MFrm-0.07
 "HW_FlowCtrl" = VarSec   $ IP Tech: HwFlowCtrlVarSec
 "HW_HdSensLoc" = AT-COILS   $ IP Tech: HwFlowCtrlVarSec
 "HW_HdSptCtrl" = FIXED   $ IP Tech: HwFlowCtrlVarSec
 "HWP_Encl" = Any   $ IP Tech: HwPumpMtrEff-PR
 "HWP_MotClass" = PREMIUM   $ IP Tech: HwPumpMtrEff-PR
 "HWP_MotHP" = Any   $ IP Tech: HwPumpMtrEff-PR
 "HWP_NEMA_DC" = Any   $ IP Tech: HwPumpMtrEff-PR
 "HWP_RPM" = Any   $ IP Tech: HwPumpMtrEff-PR
 "HWP_Volt" = Any   $ IP Tech: HwPumpMtrEff-PR
 "HWResetOutsideHi" = 60   $ IP Tech: HwTempCtrlOAReset
 "HWResetOutsideLo" = 30   $ IP Tech: HwTempCtrlOAReset
 "HW_TempCtrl" = OA-RESET   $ IP Tech: HwTempCtrlOAReset
 "ComN_SHGC" = 0.26   $ IP Tech: NResWin-ComN-0.41-0.26
 "ComN_UFactor" = 0.41   $ IP Tech: NResWin-ComN-0.41-0.26
 "ComN_VisTrans" = 0.41   $ IP Tech: NResWin-ComN-0.41-0.26
 "ComN_WinCode" = G2666   $ IP Tech: NResWin-ComN-0.41-0.26
 "ComN_WinFrmFrac" = 0.17   $ IP Tech: NResWin-ComN-0.41-0.26
 "ComN_WinFrmU" = 0.3   $ IP Tech: NResWin-ComN-0.41-0.26
 "ComO_SHGC" = 0.26   $ IP Tech: NResWin-ComO-0.41-0.26
 "ComO_UFactor" = 0.41   $ IP Tech: NResWin-ComO-0.41-0.26
 "ComO_VisTrans" = 0.41   $ IP Tech: NResWin-ComO-0.41-0.26
 "ComO_WinCode" = G2666   $ IP Tech: NResWin-ComO-0.41-0.26
 "ComO_WinFrmFrac" = 0.17   $ IP Tech: NResWin-ComO-0.41-0.26
 "ComO_WinFrmU" = 0.3   $ IP Tech: NResWin-ComO-0.41-0.26
 "PV_BF_fFlow" = PVV240to760_BF_fFlow   $ IP Tech: PVVAC-P-240to760-E10
 "PV_BF_fT" = PVV240to760_BF_fT   $ IP Tech: PVVAC-P-240to760-E10
 "PV_CEIR_fPLR" = PVV240to760_CEIR_fPLR   $ IP Tech: PVVAC-P-240to760-E10
 "PV_CLoss_fPLR" = PVV240to760_CLoss_fPLR   $ IP Tech: PVVAC-P-240to760-E10
 "PV_COP" = -1   $ IP Tech: PVVAC-P-240to760-E10
 "PV_COP47" = -1   $ IP Tech: PVVAC-P-240to760-E10
 "PV_CfmPerBtuh" = 0.02917   $ IP Tech: PVVAC-P-240to760-E10
 "PV_ClCap_fT" = PVV240to760_ClCap_fT   $ IP Tech: PVVAC-P-240to760-E10
 "PV_ClSH_fT" = PVV240to760_ClSH_fT   $ IP Tech: PVVAC-P-240to760-E10
 "PV_CoilBF" = 0.125   $ IP Tech: PVVAC-P-240to760-E10
 "PV_CondWPerBtuh" = 0   $ IP Tech: PVVAC-P-240to760-E10
 "PV_CoolSensCap" = 0.708   $ IP Tech: PVVAC-P-240to760-E10
 "PV_CoolingEIR" = 0.27383   $ IP Tech: PVVAC-P-240to760-E10
 "PV_CrnkEIR" = 0.0027   $ IP Tech: PVVAC-P-240to760-E10
 "PV_CrnkMaxT" = 50   $ IP Tech: PVVAC-P-240to760-E10
 "PV_DXType" = PVV   $ IP Tech: PVVAC-P-240to760-E10
 "PV_EER" = 9.17   $ IP Tech: PVVAC-P-240to760-E10
 "PV_EIR_fT" = PVV240to760_EIR_fT   $ IP Tech: PVVAC-P-240to760-E10
 "PV_FanEirPlr" = NA   $ IP Tech: PVVAC-P-240to760-E10
 "PV_FanWPerCfm" = 0.72   $ IP Tech: PVVAC-P-240to760-E10
 "PV_HIR_fT" = DEFAULT   $ IP Tech: PVVAC-P-240to760-E10
 "PV_HtCap_fT" = DEFAULT   $ IP Tech: PVVAC-P-240to760-E10
 "PV_HtCoolCapRatio" = -1   $ IP Tech: PVVAC-P-240to760-E10
 "PV_HtgEIR" = -1   $ IP Tech: PVVAC-P-240to760-E10
 "PV_HtgFuel" = HW   $ IP Tech: PVVAC-P-240to760-E10
 "PV_IEER" = 11.44   $ IP Tech: PVVAC-P-240to760-E10
 "PV_LowSpdCapRatio" = 0.17   $ IP Tech: PVVAC-P-240to760-E10
 "PV_LowSpdCfmRatio" = 0.24   $ IP Tech: PVVAC-P-240to760-E10
 "PV_NominalCap" = 40   $ IP Tech: PVVAC-P-240to760-E10
 "PV_NumStages" = 1   $ IP Tech: PVVAC-P-240to760-E10
 "PV_RatedEER" = 10   $ IP Tech: PVVAC-P-240to760-E10
 "PV_RatedSupMtrClass" = Premium   $ IP Tech: PVVAC-P-240to760-E10
 "PV_SizeRange" = 240to760   $ IP Tech: PVVAC-P-240to760-E10
 "PV_SubType" = AC   $ IP Tech: PVVAC-P-240to760-E10
 "PV_SupMotEff" = 0.93   $ IP Tech: PVVAC-P-240to760-E10
 "PV_Tier" = 0   $ IP Tech: PVVAC-P-240to760-E10
 "PV_TotCoolCap" = 485760   $ IP Tech: PVVAC-P-240to760-E10
 "BF_fFlow" = PSZ65to135_BF_fFlow   $ IP Tech: PkgAC2SpP-65to135-E11.2
 "BF_fT" = PSZ65to135_BF_fT   $ IP Tech: PkgAC2SpP-65to135-E11.2
 "CEIR_fPLR" = PSZ65to135_CEIR_fPLR   $ IP Tech: PkgAC2SpP-65to135-E11.2
 "CLoss_fPLR" = PSZ65to135_CLoss_fPLR   $ IP Tech: PkgAC2SpP-65to135-E11.2
 "COP" = -1   $ IP Tech: PkgAC2SpP-65to135-E11.2
 "COP47" = -1   $ IP Tech: PkgAC2SpP-65to135-E11.2
 "CfmPerBtuh" = 0.02917   $ IP Tech: PkgAC2SpP-65to135-E11.2
 "ClCap_fT" = PSZ65to135_ClCap_fT   $ IP Tech: PkgAC2SpP-65to135-E11.2
 "ClSH_fT" = PSZ65to135_ClSH_fT   $ IP Tech: PkgAC2SpP-65to135-E11.2
 "CoilBF" = 0.114   $ IP Tech: PkgAC2SpP-65to135-E11.2
 "CondWPerBtuh" = 0   $ IP Tech: PkgAC2SpP-65to135-E11.2
 "CoolSensCap" = 0.663   $ IP Tech: PkgAC2SpP-65to135-E11.2
 "CoolingEIR" = 0.26277   $ IP Tech: PkgAC2SpP-65to135-E11.2
 "CrnkEIR" = 0.0026   $ IP Tech: PkgAC2SpP-65to135-E11.2
 "CrnkMaxT" = 50   $ IP Tech: PkgAC2SpP-65to135-E11.2
 "DXType" = Pkg   $ IP Tech: PkgAC2SpP-65to135-E11.2
 "EER" = 10.83   $ IP Tech: PkgAC2SpP-65to135-E11.2
 "EIR_fT" = PSZ65to135_EIR_fT   $ IP Tech: PkgAC2SpP-65to135-E11.2
 "FanEirPlr" = TwoSpeedFan   $ IP Tech: PkgAC2SpP-65to135-E11.2
 "FanWPerCfm" = 0.4   $ IP Tech: PkgAC2SpP-65to135-E11.2
 "HIR_fT" = DEFAULT   $ IP Tech: PkgAC2SpP-65to135-E11.2
 "HtCap_fT" = DEFAULT   $ IP Tech: PkgAC2SpP-65to135-E11.2
 "HtCoolCapRatio" = -1   $ IP Tech: PkgAC2SpP-65to135-E11.2
 "HtgEIR" = -1   $ IP Tech: PkgAC2SpP-65to135-E11.2
 "HtgFuel" = Gas   $ IP Tech: PkgAC2SpP-65to135-E11.2
 "IEER" = 13.65   $ IP Tech: PkgAC2SpP-65to135-E11.2
 "LowSpdCapRatio" = 0.5   $ IP Tech: PkgAC2SpP-65to135-E11.2
 "LowSpdCfmRatio" = 0.66   $ IP Tech: PkgAC2SpP-65to135-E11.2
 "NominalCap" = 15   $ IP Tech: PkgAC2SpP-65to135-E11.2
 "NumStages" = 2   $ IP Tech: PkgAC2SpP-65to135-E11.2
 "RatedEER" = 11.2   $ IP Tech: PkgAC2SpP-65to135-E11.2
 "RatedSupMtrClass" = Premium   $ IP Tech: PkgAC2SpP-65to135-E11.2
 "SizeRange" = 65to135   $ IP Tech: PkgAC2SpP-65to135-E11.2
 "SubType" = AC   $ IP Tech: PkgAC2SpP-65to135-E11.2
 "SupMotEff" = 0.865   $ IP Tech: PkgAC2SpP-65to135-E11.2
 "Tier" = 0   $ IP Tech: PkgAC2SpP-65to135-E11.2
 "TotCoolCap" = 184140   $ IP Tech: PkgAC2SpP-65to135-E11.2
 "BFMult" = 1   $ IP Tech: RefgChg-NRes-Std
 "CoolEirMult" = 1   $ IP Tech: RefgChg-NRes-Std
 "SensCoolCapMult" = 1   $ IP Tech: RefgChg-NRes-Std
 "TotCoolCapMult" = 1   $ IP Tech: RefgChg-NRes-Std
 "SATempCtrl" = WARMEST   $ IP Tech: SATempCtrl-Warmest
 "FanEIR_fPLR" = "Variable Speed Drive FPLR"   $ IP Tech: VAVCtrl-VSD-AnyHP
 "Fan_Control" = VSD   $ IP Tech: VAVCtrl-VSD-AnyHP
 "Motor_Horsepower" = AnyHP   $ IP Tech: VAVCtrl-VSD-AnyHP
 "BlrCapRange" = 300to2500   $ IP Tech: WBlr-300to2500-82p0Ec
 "BlrDraftType" = FDr   $ IP Tech: WBlr-300to2500-82p0Ec
 "BlrEff" = 0.82   $ IP Tech: WBlr-300to2500-82p0Ec
 "BlrEffUnits" = Ec   $ IP Tech: WBlr-300to2500-82p0Ec
 "BlrEt" = 0.8   $ IP Tech: WBlr-300to2500-82p0Ec
 "BlrFluid" = Wtr   $ IP Tech: WBlr-300to2500-82p0Ec
 "BlrIsCond" = FALSE   $ IP Tech: WBlr-300to2500-82p0Ec
 "BlrT" = 165   $ IP Tech: WBlr-300to2500-82p0Ec
 "AltAdjFactor" = 1.007532   $ Sizing
 "CAssFlo_L_Break_CZn" = 295.111   $ Sizing
 "CAssFlo_L_Conf_CZn" = 349.6021   $ Sizing
 "CAssFlo_L_CopyRm_CZn" = 88.37569   $ Sizing
 "CAssFlo_L_Cordr_CZn" = 565.4379   $ Sizing
 "CAssFlo_L_Cordr_EZn" = 163.0933   $ Sizing
 "CAssFlo_L_Cordr_NZn" = 96.69113   $ Sizing
 "CAssFlo_L_Cordr_SZn" = 182.8553   $ Sizing
 "CAssFlo_L_Cordr_WZn" = 165.6855   $ Sizing
 "CAssFlo_L_LobWait_CZn" = 275.5261   $ Sizing
 "CAssFlo_L_MechElec_CZn" = 134.1697   $ Sizing
 "CAssFlo_L_OfficeOpn_CZn" = 1271.645   $ Sizing
 "CAssFlo_L_OfficeOpn_EZn" = 1440.726   $ Sizing
 "CAssFlo_L_OfficeOpn_NZn" = 589.8687   $ Sizing
 "CAssFlo_L_OfficeOpn_SZn" = 1515.896   $ Sizing
 "CAssFlo_L_OfficeOpn_WZn" = 1420.139   $ Sizing
 "CAssFlo_L_OfficeSm_CZn" = 160.2991   $ Sizing
 "CAssFlo_L_OfficeSm_EZn" = 1032.647   $ Sizing
 "CAssFlo_L_OfficeSm_NZn" = 345.9586   $ Sizing
 "CAssFlo_L_OfficeSm_SZn" = 1114.855   $ Sizing
 "CAssFlo_L_OfficeSm_WZn" = 1023.546   $ Sizing
 "CAssFlo_L_Restrm_CZn" = 211.8611   $ Sizing
 "CAssFlo_L_StorSm_CZn" = 334.0894   $ Sizing
 "CAssFlo_M_Break_CZn" = 315.8068   $ Sizing
 "CAssFlo_M_Conf_CZn" = 379.2381   $ Sizing
 "CAssFlo_M_CopyRm_CZn" = 88.37569   $ Sizing
 "CAssFlo_M_Cordr_CZn" = 565.4379   $ Sizing
 "CAssFlo_M_Cordr_EZn" = 208.4873   $ Sizing
 "CAssFlo_M_Cordr_NZn" = 94.24052   $ Sizing
 "CAssFlo_M_Cordr_SZn" = 221.2019   $ Sizing
 "CAssFlo_M_Cordr_WZn" = 200.3126   $ Sizing
 "CAssFlo_M_LobWait_CZn" = 275.5261   $ Sizing
 "CAssFlo_M_MechElec_CZn" = 134.1697   $ Sizing
 "CAssFlo_M_OfficeOpn_CZn" = 1422.809   $ Sizing
 "CAssFlo_M_OfficeOpn_EZn" = 1579.949   $ Sizing
 "CAssFlo_M_OfficeOpn_NZn" = 714.9598   $ Sizing
 "CAssFlo_M_OfficeOpn_SZn" = 1665.514   $ Sizing
 "CAssFlo_M_OfficeOpn_WZn" = 1524.981   $ Sizing
 "CAssFlo_M_OfficeSm_CZn" = 196.4308   $ Sizing
 "CAssFlo_M_OfficeSm_EZn" = 1136.092   $ Sizing
 "CAssFlo_M_OfficeSm_NZn" = 441.8403   $ Sizing
 "CAssFlo_M_OfficeSm_SZn" = 1225.845   $ Sizing
 "CAssFlo_M_OfficeSm_WZn" = 1106.091   $ Sizing
 "CAssFlo_M_Restrm_CZn" = 211.8611   $ Sizing
 "CAssFlo_M_StorSm_CZn" = 334.0894   $ Sizing
 "CAssFlo_T_Break_CZn" = 303.191   $ Sizing
 "CAssFlo_T_Conf_CZn" = 360.7415   $ Sizing
 "CAssFlo_T_CopyRm_CZn" = 88.37569   $ Sizing
 "CAssFlo_T_Cordr_CZn" = 565.4379   $ Sizing
 "CAssFlo_T_Cordr_EZn" = 184.3071   $ Sizing
 "CAssFlo_T_Cordr_NZn" = 94.24052   $ Sizing
 "CAssFlo_T_Cordr_SZn" = 204.7114   $ Sizing
 "CAssFlo_T_Cordr_WZn" = 182.7332   $ Sizing
 "CAssFlo_T_LobWait_CZn" = 275.5261   $ Sizing
 "CAssFlo_T_MechElec_CZn" = 134.1697   $ Sizing
 "CAssFlo_T_OfficeOpn_CZn" = 1351.167   $ Sizing
 "CAssFlo_T_OfficeOpn_EZn" = 1456.21   $ Sizing
 "CAssFlo_T_OfficeOpn_NZn" = 682.2436   $ Sizing
 "CAssFlo_T_OfficeOpn_SZn" = 1578.637   $ Sizing
 "CAssFlo_T_OfficeOpn_WZn" = 1424.473   $ Sizing
 "CAssFlo_T_OfficeSm_CZn" = 184.7346   $ Sizing
 "CAssFlo_T_OfficeSm_EZn" = 1063.483   $ Sizing
 "CAssFlo_T_OfficeSm_NZn" = 420.3252   $ Sizing
 "CAssFlo_T_OfficeSm_SZn" = 1177.407   $ Sizing
 "CAssFlo_T_OfficeSm_WZn" = 1055.32   $ Sizing
 "CAssFlo_T_Restrm_CZn" = 211.8611   $ Sizing
 "CAssFlo_T_StorSm_CZn" = 334.0894   $ Sizing
 "CHRtFlo_L_Break_CZn" = 216.6311   $ Sizing
 "CHRtFlo_L_Conf_CZn" = 281.7439   $ Sizing
 "CHRtFlo_L_CopyRm_CZn" = 88.37569   $ Sizing
 "CHRtFlo_L_Cordr_CZn" = 212.0392   $ Sizing
 "CHRtFlo_L_Cordr_EZn" = 87.02133   $ Sizing
 "CHRtFlo_L_Cordr_NZn" = 96.69113   $ Sizing
 "CHRtFlo_L_Cordr_SZn" = 54.85659   $ Sizing
 "CHRtFlo_L_Cordr_WZn" = 85.31126   $ Sizing
 "CHRtFlo_L_LobWait_CZn" = 223.8649   $ Sizing
 "CHRtFlo_L_MechElec_CZn" = 50.31363   $ Sizing
 "CHRtFlo_L_OfficeOpn_CZn" = 413.8266   $ Sizing
 "CHRtFlo_L_OfficeOpn_EZn" = 432.2178   $ Sizing
 "CHRtFlo_L_OfficeOpn_NZn" = 331.1031   $ Sizing
 "CHRtFlo_L_OfficeOpn_SZn" = 454.7688   $ Sizing
 "CHRtFlo_L_OfficeOpn_WZn" = 426.0418   $ Sizing
 "CHRtFlo_L_OfficeSm_CZn" = 53.97937   $ Sizing
 "CHRtFlo_L_OfficeSm_EZn" = 322.6964   $ Sizing
 "CHRtFlo_L_OfficeSm_NZn" = 345.9586   $ Sizing
 "CHRtFlo_L_OfficeSm_SZn" = 334.4566   $ Sizing
 "CHRtFlo_L_OfficeSm_WZn" = 313.2883   $ Sizing
 "CHRtFlo_L_Restrm_CZn" = 63.55833   $ Sizing
 "CHRtFlo_L_StorSm_CZn" = 125.2835   $ Sizing
 "CHRtFlo_M_Break_CZn" = 216.6311   $ Sizing
 "CHRtFlo_M_Conf_CZn" = 281.7439   $ Sizing
 "CHRtFlo_M_CopyRm_CZn" = 88.37569   $ Sizing
 "CHRtFlo_M_Cordr_CZn" = 212.0392   $ Sizing
 "CHRtFlo_M_Cordr_EZn" = 74.51063   $ Sizing
 "CHRtFlo_M_Cordr_NZn" = 81.67233   $ Sizing
 "CHRtFlo_M_Cordr_SZn" = 66.36057   $ Sizing
 "CHRtFlo_M_Cordr_WZn" = 71.07507   $ Sizing
 "CHRtFlo_M_LobWait_CZn" = 223.8649   $ Sizing
 "CHRtFlo_M_MechElec_CZn" = 50.31363   $ Sizing
 "CHRtFlo_M_OfficeOpn_CZn" = 426.8426   $ Sizing
 "CHRtFlo_M_OfficeOpn_EZn" = 473.9848   $ Sizing
 "CHRtFlo_M_OfficeOpn_NZn" = 258.6539   $ Sizing
 "CHRtFlo_M_OfficeOpn_SZn" = 499.6541   $ Sizing
 "CHRtFlo_M_OfficeOpn_WZn" = 457.4942   $ Sizing
 "CHRtFlo_M_OfficeSm_CZn" = 58.92923   $ Sizing
 "CHRtFlo_M_OfficeSm_EZn" = 340.8277   $ Sizing
 "CHRtFlo_M_OfficeSm_NZn" = 283.7738   $ Sizing
 "CHRtFlo_M_OfficeSm_SZn" = 367.7535   $ Sizing
 "CHRtFlo_M_OfficeSm_WZn" = 331.8275   $ Sizing
 "CHRtFlo_M_Restrm_CZn" = 63.55833   $ Sizing
 "CHRtFlo_M_StorSm_CZn" = 125.2835   $ Sizing
 "CHRtFlo_T_Break_CZn" = 216.6311   $ Sizing
 "CHRtFlo_T_Conf_CZn" = 281.7439   $ Sizing
 "CHRtFlo_T_CopyRm_CZn" = 88.37569   $ Sizing
 "CHRtFlo_T_Cordr_CZn" = 212.0392   $ Sizing
 "CHRtFlo_T_Cordr_EZn" = 65.77083   $ Sizing
 "CHRtFlo_T_Cordr_NZn" = 74.80604   $ Sizing
 "CHRtFlo_T_Cordr_SZn" = 61.41341   $ Sizing
 "CHRtFlo_T_Cordr_WZn" = 61.72605   $ Sizing
 "CHRtFlo_T_LobWait_CZn" = 223.8649   $ Sizing
 "CHRtFlo_T_MechElec_CZn" = 50.31363   $ Sizing
 "CHRtFlo_T_OfficeOpn_CZn" = 413.8266   $ Sizing
 "CHRtFlo_T_OfficeOpn_EZn" = 436.863   $ Sizing
 "CHRtFlo_T_OfficeOpn_NZn" = 243.4433   $ Sizing
 "CHRtFlo_T_OfficeOpn_SZn" = 473.591   $ Sizing
 "CHRtFlo_T_OfficeOpn_WZn" = 427.3418   $ Sizing
 "CHRtFlo_T_OfficeSm_CZn" = 55.42038   $ Sizing
 "CHRtFlo_T_OfficeSm_EZn" = 319.0448   $ Sizing
 "CHRtFlo_T_OfficeSm_NZn" = 288.1017   $ Sizing
 "CHRtFlo_T_OfficeSm_SZn" = 353.222   $ Sizing
 "CHRtFlo_T_OfficeSm_WZn" = 316.5961   $ Sizing
 "CHRtFlo_T_Restrm_CZn" = 63.55833   $ Sizing
 "CHRtFlo_T_StorSm_CZn" = 125.2835   $ Sizing
 "CRtdFlo_Sys_L" = 9216.268   $ Sizing
 "CRtdFlo_Sys_M" = 83612.91   $ Sizing
 "CRtdFlo_Sys_T" = 10049.22   $ Sizing
 "CSupFlo_Sys_L" = 9216.268   $ Sizing
 "CSupFlo_Sys_M" = 83612.91   $ Sizing
 "CSupFlo_Sys_T" = 10049.22   $ Sizing
 "Cap_Boiler1" = -0.8092539   $ Sizing
 "Cap_Boiler2" = -0.8092539   $ Sizing
 "ClCap_Sys_L" = 315426.5   $ Sizing
 "ClCap_Sys_M" = 2861649   $ Sizing
 "ClCap_Sys_T" = 343934.4   $ Sizing
 "HRtEDB_L_Break_CZn" = 49.17746   $ Sizing
 "HRtEDB_L_Conf_CZn" = 49.17746   $ Sizing
 "HRtEDB_L_CopyRm_CZn" = 49.17746   $ Sizing
 "HRtEDB_L_Cordr_CZn" = 49.17746   $ Sizing
 "HRtEDB_L_Cordr_EZn" = 49.29407   $ Sizing
 "HRtEDB_L_Cordr_NZn" = 49.29407   $ Sizing
 "HRtEDB_L_Cordr_SZn" = 49.29407   $ Sizing
 "HRtEDB_L_Cordr_WZn" = 49.29407   $ Sizing
 "HRtEDB_L_LobWait_CZn" = 49.17746   $ Sizing
 "HRtEDB_L_MechElec_CZn" = 49.17746   $ Sizing
 "HRtEDB_L_OfficeOpn_CZn" = 49.17746   $ Sizing
 "HRtEDB_L_OfficeOpn_EZn" = 55.80778   $ Sizing
 "HRtEDB_L_OfficeOpn_NZn" = 55.80778   $ Sizing
 "HRtEDB_L_OfficeOpn_SZn" = 49.27642   $ Sizing
 "HRtEDB_L_OfficeOpn_WZn" = 55.80778   $ Sizing
 "HRtEDB_L_OfficeSm_CZn" = 49.17746   $ Sizing
 "HRtEDB_L_OfficeSm_EZn" = 55.80778   $ Sizing
 "HRtEDB_L_OfficeSm_NZn" = 55.80778   $ Sizing
 "HRtEDB_L_OfficeSm_SZn" = 49.27642   $ Sizing
 "HRtEDB_L_OfficeSm_WZn" = 55.80778   $ Sizing
 "HRtEDB_L_Restrm_CZn" = 49.17746   $ Sizing
 "HRtEDB_L_StorSm_CZn" = 49.17746   $ Sizing
 "HRtEDB_M_Break_CZn" = 49.47506   $ Sizing
 "HRtEDB_M_Conf_CZn" = 49.47506   $ Sizing
 "HRtEDB_M_CopyRm_CZn" = 49.47506   $ Sizing
 "HRtEDB_M_Cordr_CZn" = 49.47506   $ Sizing
 "HRtEDB_M_Cordr_EZn" = 49.58054   $ Sizing
 "HRtEDB_M_Cordr_NZn" = 49.58054   $ Sizing
 "HRtEDB_M_Cordr_SZn" = 49.47506   $ Sizing
 "HRtEDB_M_Cordr_WZn" = 49.58054   $ Sizing
 "HRtEDB_M_LobWait_CZn" = 49.47506   $ Sizing
 "HRtEDB_M_MechElec_CZn" = 49.47506   $ Sizing
 "HRtEDB_M_OfficeOpn_CZn" = 49.47506   $ Sizing
 "HRtEDB_M_OfficeOpn_EZn" = 49.47506   $ Sizing
 "HRtEDB_M_OfficeOpn_NZn" = 55.82398   $ Sizing
 "HRtEDB_M_OfficeOpn_SZn" = 49.47506   $ Sizing
 "HRtEDB_M_OfficeOpn_WZn" = 49.47506   $ Sizing
 "HRtEDB_M_OfficeSm_CZn" = 49.47506   $ Sizing
 "HRtEDB_M_OfficeSm_EZn" = 49.47506   $ Sizing
 "HRtEDB_M_OfficeSm_NZn" = 55.82398   $ Sizing
 "HRtEDB_M_OfficeSm_SZn" = 49.47506   $ Sizing
 "HRtEDB_M_OfficeSm_WZn" = 49.47506   $ Sizing
 "HRtEDB_M_Restrm_CZn" = 49.47506   $ Sizing
 "HRtEDB_M_StorSm_CZn" = 49.47506   $ Sizing
 "HRtEDB_T_Break_CZn" = 46.23677   $ Sizing
 "HRtEDB_T_Conf_CZn" = 46.23677   $ Sizing
 "HRtEDB_T_CopyRm_CZn" = 46.23677   $ Sizing
 "HRtEDB_T_Cordr_CZn" = 46.23677   $ Sizing
 "HRtEDB_T_Cordr_EZn" = 46.85583   $ Sizing
 "HRtEDB_T_Cordr_NZn" = 48.31172   $ Sizing
 "HRtEDB_T_Cordr_SZn" = 46.23677   $ Sizing
 "HRtEDB_T_Cordr_WZn" = 48.31172   $ Sizing
 "HRtEDB_T_LobWait_CZn" = 46.23677   $ Sizing
 "HRtEDB_T_MechElec_CZn" = 46.23677   $ Sizing
 "HRtEDB_T_OfficeOpn_CZn" = 46.23677   $ Sizing
 "HRtEDB_T_OfficeOpn_EZn" = 46.23677   $ Sizing
 "HRtEDB_T_OfficeOpn_NZn" = 55.47779   $ Sizing
 "HRtEDB_T_OfficeOpn_SZn" = 46.23677   $ Sizing
 "HRtEDB_T_OfficeOpn_WZn" = 46.23677   $ Sizing
 "HRtEDB_T_OfficeSm_CZn" = 46.23677   $ Sizing
 "HRtEDB_T_OfficeSm_EZn" = 46.23677   $ Sizing
 "HRtEDB_T_OfficeSm_NZn" = 55.47779   $ Sizing
 "HRtEDB_T_OfficeSm_SZn" = 46.80282   $ Sizing
 "HRtEDB_T_OfficeSm_WZn" = 46.23677   $ Sizing
 "HRtEDB_T_Restrm_CZn" = 46.23677   $ Sizing
 "HRtEDB_T_StorSm_CZn" = 46.23677   $ Sizing
 "HWDT_Boiler1" = 46.67243   $ Sizing
 "HWDT_Boiler2" = 46.67243   $ Sizing
 "HtCap_L_Break_CZn" = -10696.7   $ Sizing
 "HtCap_L_Conf_CZn" = -13911.81   $ Sizing
 "HtCap_L_CopyRm_CZn" = -4363.77   $ Sizing
 "HtCap_L_Cordr_CZn" = -10469.96   $ Sizing
 "HtCap_L_Cordr_EZn" = -4286.347   $ Sizing
 "HtCap_L_Cordr_NZn" = -4762.646   $ Sizing
 "HtCap_L_Cordr_SZn" = -2702.032   $ Sizing
 "HtCap_L_Cordr_WZn" = -4202.115   $ Sizing
 "HtCap_L_LobWait_CZn" = -11053.89   $ Sizing
 "HtCap_L_MechElec_CZn" = -2484.361   $ Sizing
 "HtCap_L_OfficeOpn_CZn" = -20451.97   $ Sizing
 "HtCap_L_OfficeOpn_EZn" = -18267.37   $ Sizing
 "HtCap_L_OfficeOpn_NZn" = -13993.83   $ Sizing
 "HtCap_L_OfficeOpn_SZn" = -22408.87   $ Sizing
 "HtCap_L_OfficeOpn_WZn" = -18006.34   $ Sizing
 "HtCap_L_OfficeSm_CZn" = -2665.366   $ Sizing
 "HtCap_L_OfficeSm_EZn" = -13638.53   $ Sizing
 "HtCap_L_OfficeSm_NZn" = -14621.68   $ Sizing
 "HtCap_L_OfficeSm_SZn" = -16480.45   $ Sizing
 "HtCap_L_OfficeSm_WZn" = -13240.9   $ Sizing
 "HtCap_L_Restrm_CZn" = -3138.35   $ Sizing
 "HtCap_L_StorSm_CZn" = -6186.185   $ Sizing
 "HtCap_M_Break_CZn" = -10627.53   $ Sizing
 "HtCap_M_Conf_CZn" = -13821.85   $ Sizing
 "HtCap_M_CopyRm_CZn" = -4335.552   $ Sizing
 "HtCap_M_Cordr_CZn" = -10402.26   $ Sizing
 "HtCap_M_Cordr_EZn" = -3647.252   $ Sizing
 "HtCap_M_Cordr_NZn" = -3997.813   $ Sizing
 "HtCap_M_Cordr_SZn" = -3255.53   $ Sizing
 "HtCap_M_Cordr_WZn" = -3479.084   $ Sizing
 "HtCap_M_LobWait_CZn" = -10982.41   $ Sizing
 "HtCap_M_MechElec_CZn" = -2468.296   $ Sizing
 "HtCap_M_OfficeOpn_CZn" = -20940.15   $ Sizing
 "HtCap_M_OfficeOpn_EZn" = -23252.84   $ Sizing
 "HtCap_M_OfficeOpn_NZn" = -10928.93   $ Sizing
 "HtCap_M_OfficeOpn_SZn" = -24512.13   $ Sizing
 "HtCap_M_OfficeOpn_WZn" = -22443.84   $ Sizing
 "HtCap_M_OfficeSm_CZn" = -2890.962   $ Sizing
 "HtCap_M_OfficeSm_EZn" = -16720.39   $ Sizing
 "HtCap_M_OfficeSm_NZn" = -11990.32   $ Sizing
 "HtCap_M_OfficeSm_SZn" = -18041.32   $ Sizing
 "HtCap_M_OfficeSm_WZn" = -16278.86   $ Sizing
 "HtCap_M_Restrm_CZn" = -3118.057   $ Sizing
 "HtCap_M_StorSm_CZn" = -6146.182   $ Sizing
 "HtCap_T_Break_CZn" = -11383.14   $ Sizing
 "HtCap_T_Conf_CZn" = -14804.57   $ Sizing
 "HtCap_T_CopyRm_CZn" = -4643.806   $ Sizing
 "HtCap_T_Cordr_CZn" = -11141.85   $ Sizing
 "HtCap_T_Cordr_EZn" = -3412.438   $ Sizing
 "HtCap_T_Cordr_NZn" = -3764.396   $ Sizing
 "HtCap_T_Cordr_SZn" = -3227.041   $ Sizing
 "HtCap_T_Cordr_WZn" = -3106.184   $ Sizing
 "HtCap_T_LobWait_CZn" = -11763.25   $ Sizing
 "HtCap_T_MechElec_CZn" = -2643.789   $ Sizing
 "HtCap_T_OfficeOpn_CZn" = -21755.94   $ Sizing
 "HtCap_T_OfficeOpn_EZn" = -22955.48   $ Sizing
 "HtCap_T_OfficeOpn_NZn" = -10377.15   $ Sizing
 "HtCap_T_OfficeOpn_SZn" = -24885.4   $ Sizing
 "HtCap_T_OfficeOpn_WZn" = -22455.18   $ Sizing
 "HtCap_T_OfficeSm_CZn" = -2912.129   $ Sizing
 "HtCap_T_OfficeSm_EZn" = -16764.59   $ Sizing
 "HtCap_T_OfficeSm_NZn" = -12280.79   $ Sizing
 "HtCap_T_OfficeSm_SZn" = -18346.67   $ Sizing
 "HtCap_T_OfficeSm_WZn" = -16635.91   $ Sizing
 "HtCap_T_Restrm_CZn" = -3339.748   $ Sizing
 "HtCap_T_StorSm_CZn" = -6583.17   $ Sizing
 "LpFlo_BlrPrimLoop" = 69.30061   $ Sizing
 "LpFlo_CircLp_Hw_L" = 7.338972   $ Sizing
 "LpFlo_CircLp_Hw_M" = 55.45959   $ Sizing
 "LpFlo_CircLp_Hw_T" = 6.502042   $ Sizing
 "SUtime_Boiler1" = 0.083   $ Sizing
 "SUtime_Boiler2" = 0.083   $ Sizing
..

##include Templates\OfL_DX_MZ.inp
END ..
COMPUTE ..
STOP ..
