INPUT ..

##fileprefix C:\Users\jglasskatz\MASControl3\
##set1 IsSizing FALSE
##set1 CoolType WCH
##set1 HeatType ELECTRIC
##set1 EU_HrRepVar 1
##set1 BldgVint 2017
##set1 BldgLoc CZ01

 ##set1 mChlrCap_fT DEFAULT   $ IP Tech: ChlrScrW-150to299-0.66kWpTon
 ##set1 mChlrEIR_fPLR DEFAULT   $ IP Tech: ChlrScrW-150to299-0.66kWpTon
 ##set1 mChlrEIR_fT DEFAULT   $ IP Tech: ChlrScrW-150to299-0.66kWpTon
 ##set1 mChlrType Screw   $ IP Tech: ChlrScrW-150to299-0.66kWpTon
 ##set1 mCondType Water   $ IP Tech: ChlrScrW-150to299-0.66kWpTon
 ##set1 mSetupLdChlr FALSE   $ IP Tech: ChlrScrW-150to299-0.66kWpTon
 ##set1 mCHW_FlowCtrl VarSec   $ IP Tech: ChwFlowCtrlVarSec

PARAMETER
 "AltFactor" = 1.00753   $ IP Non-Tech
 "BldgEconoFlag" = 1   $ IP Non-Tech
 "BlrPrimLp" = BlrPrimLoop   $ IP Non-Tech
 "Break_EWSF" = 1   $ IP Non-Tech
 "Break_LWSF" = 0.9   $ IP Non-Tech
 "CDD_DBHi10" = 65   $ IP Non-Tech
 "CDD_DBHi7" = 68   $ IP Non-Tech
 "CDD_DBHi8" = 66   $ IP Non-Tech
 "CDD_DBHi9" = 77   $ IP Non-Tech
 "CDD_DBRange10" = 17   $ IP Non-Tech
 "CDD_DBRange7" = 11   $ IP Non-Tech
 "CDD_DBRange8" = 10   $ IP Non-Tech
 "CDD_DBRange9" = 29   $ IP Non-Tech
 "CDD_Day10" = 15   $ IP Non-Tech
 "CDD_Day7" = 16   $ IP Non-Tech
 "CDD_Day8" = 20   $ IP Non-Tech
 "CDD_Day9" = 17   $ IP Non-Tech
 "CDD_HrHi10" = 12   $ IP Non-Tech
 "CDD_HrHi7" = 12   $ IP Non-Tech
 "CDD_HrHi8" = 13   $ IP Non-Tech
 "CDD_HrHi9" = 17   $ IP Non-Tech
 "CDD_HrLo10" = 6   $ IP Non-Tech
 "CDD_HrLo7" = 3   $ IP Non-Tech
 "CDD_HrLo8" = 8   $ IP Non-Tech
 "CDD_HrLo9" = 4   $ IP Non-Tech
 "CDD_WB10" = 57.53039551   $ IP Non-Tech
 "CDD_WB7" = 59.29250717   $ IP Non-Tech
 "CDD_WB8" = 60.75350189   $ IP Non-Tech
 "CDD_WB9" = 61.08643341   $ IP Non-Tech
 "CZ_Category" = Tem   $ IP Non-Tech
 "ChwDesignDT" = 12   $ IP Non-Tech
 "ChwPipeHead" = 62   $ IP Non-Tech
 "ChwRetDT" = 0.03   $ IP Non-Tech
 "ChwSupDT" = 0.05   $ IP Non-Tech
 "ChwT" = 44   $ IP Non-Tech
 "ChwVintEconoFlag" = 1   $ IP Non-Tech
 "Conference_EWSF" = 1   $ IP Non-Tech
 "Conference_LWSF" = 1.2   $ IP Non-Tech
 "CoolSetT" = 55   $ IP Non-Tech
 "CoolType" = WCH   $ IP Non-Tech
 "CopyRoom_EWSF" = 1.5   $ IP Non-Tech
 "CopyRoom_LWSF" = 1.3   $ IP Non-Tech
 "CorridorStairway_EWSF" = 0.2   $ IP Non-Tech
 "CorridorStairway_LWSF" = 0.6   $ IP Non-Tech
 "CwPipeHead" = 20   $ IP Non-Tech
 "DesCoolT" = 75   $ IP Non-Tech
 "DesHeatT" = 73   $ IP Non-Tech
 "EconoEnthLimit" = 28   $ IP Non-Tech
 "EconoTempLimit" = 70   $ IP Non-Tech
 "Elevation" = 203   $ IP Non-Tech
 "HDD_CloudAmt1" = 0   $ IP Non-Tech
 "HDD_DBHi1" = 53   $ IP Non-Tech
 "HDD_DBRange1" = 20   $ IP Non-Tech
 "HDD_Day1" = 15   $ IP Non-Tech
 "HDD_HrHi1" = 14   $ IP Non-Tech
 "HDD_HrLo1" = 6   $ IP Non-Tech
 "HDD_WB1" = 42.3   $ IP Non-Tech
 "HDD_WindSpd1" = 12.7   $ IP Non-Tech
 "HeatSrc" = ELECTRIC   $ IP Non-Tech
 "HeatSrcTU" = ELECTRIC   $ IP Non-Tech
 "HeatType" = Elec   $ IP Non-Tech
 "HeatTypeTU" = ELECTRIC   $ IP Non-Tech
 "HwDesignDT" = 30   $ IP Non-Tech
 "HwPipeHead" = 40   $ IP Non-Tech
 "IndoorFanMode" = CONTINUOUS   $ IP Non-Tech
 "KT_TransferAir" = Yes   $ IP Non-Tech
 "Latitude" = 40.8   $ IP Non-Tech
 "LobbyWaiting_EWSF" = 0.5   $ IP Non-Tech
 "LobbyWaiting_LWSF" = 0.875   $ IP Non-Tech
 "Longitude" = 124.2   $ IP Non-Tech
 "LtgMsrApplic" = ALL   $ Msr TechID: NonResLtgRefMsr-HB
 "LtgSav_CFL" = 0   $ Msr TechID: NonResLtgRefMsr-HB
 "LtgSav_EX" = 0   $ Msr TechID: NonResLtgRefMsr-HB
 "LtgSav_HB" = 0.3   $ Msr TechID: NonResLtgRefMsr-HB
 "LtgSav_LF" = 0   $ Msr TechID: NonResLtgRefMsr-HB
 "LtgSav_SP" = 0   $ Msr TechID: NonResLtgRefMsr-HB
 "MZFanMechEff" = 0.68   $ IP Non-Tech
 "MZHasRetFan" = TRUE   $ IP Non-Tech
 "MZ_RFanWPerCfm" = 0.37   $ IP Non-Tech
 "MZ_SFanWPerCfm" = 0.71   $ IP Non-Tech
 "MaxSupT_MZ" = 95   $ IP Non-Tech
 "MaxSupT_SZ" = 105   $ IP Non-Tech
 "MaxSupT_TU" = 105   $ IP Non-Tech
 "MechElecRoom_EWSF" = 0.2   $ IP Non-Tech
 "MechElecRoom_LWSF" = 0.55   $ IP Non-Tech
 "MinCfmPerSF" = 0.4   $ IP Non-Tech
 "MinSupT" = 55   $ IP Non-Tech
 "OccCoolT" = 76   $ IP Non-Tech
 "OccHeatT" = 72   $ IP Non-Tech
 "OfficeOpen_EWSF" = 1.5   $ IP Non-Tech
 "OfficeOpen_LWSF" = 1.05   $ IP Non-Tech
 "OfficeSmall_EWSF" = 1.5   $ IP Non-Tech
 "OfficeSmall_LWSF" = 1.3   $ IP Non-Tech
 "PkgDxVintEconoFlag" = 1   $ IP Non-Tech
 "ReheatDeltaT" = 40   $ IP Non-Tech
 "Restroom_EWSF" = 0.2   $ IP Non-Tech
 "Restroom_LWSF" = 0.6   $ IP Non-Tech
 "SZFanMechEff" = 0.54   $ IP Non-Tech
 "SZHasRetFan" = TRUE   $ IP Non-Tech
 "SZ_Is_2Spd" = TRUE   $ IP Non-Tech
 "SZ_SFanWPerCfm" = 0.46   $ IP Non-Tech
 "StorageSmlCond_EWSF" = 0.2   $ IP Non-Tech
 "StorageSmlCond_LWSF" = 0.6   $ IP Non-Tech
 "TermUnitFanMechEff" = 1   $ IP Non-Tech
 "TermUnitFanMode" = INTERMITTENT   $ IP Non-Tech
 "TermUnitFanWPerCfm" = 0.175   $ IP Non-Tech
 "TwrEIR" = 0.011   $ IP Non-Tech
 "TwrPipeHead" = 10   $ IP Non-Tech
 "TwrSetpt" = 80   $ IP Non-Tech
 "TwrStaticHead" = 15   $ IP Non-Tech
 "UnocCoolT" = 86   $ IP Non-Tech
 "UnocHeatT" = 62   $ IP Non-Tech
 "VAVMinFlow" = 0.3   $ IP Non-Tech
 "WlhpVintEconoFlag" = 1   $ IP Non-Tech
 "EconoCtrl" = OA-TEMP   $ IP Tech: AirEcono-OATemp
 "MaxOAFrac" = 0.85   $ IP Tech: AirEcono-OATemp
 "UseEconoVintApplic" = FALSE   $ IP Tech: AirEcono-OATemp
 "ChlrCapRange" = 150to299   $ IP Tech: ChlrScrW-150to299-0.66kWpTon
 "ChlrEff" = 0.66   $ IP Tech: ChlrScrW-150to299-0.66kWpTon
 "ChlrType" = Screw   $ IP Tech: ChlrScrW-150to299-0.66kWpTon
 "ChlrVSD" = NO   $ IP Tech: ChlrScrW-150to299-0.66kWpTon
 "CmpPerCkt" = NA   $ IP Tech: ChlrScrW-150to299-0.66kWpTon
 "CondRelief" = FALSE   $ IP Tech: ChlrScrW-150to299-0.66kWpTon
 "CondType" = Water   $ IP Tech: ChlrScrW-150to299-0.66kWpTon
 "EffUnits" = kWpTon   $ IP Tech: ChlrScrW-150to299-0.66kWpTon
 "IPLV" = 0.54   $ IP Tech: ChlrScrW-150to299-0.66kWpTon
 "CHW_FlowCtrl" = VarSec   $ IP Tech: ChwFlowCtrlVarSec
 "CHW_HdSensLoc" = AT-COILS   $ IP Tech: ChwFlowCtrlVarSec
 "CHW_HdSptCtrl" = FIXED   $ IP Tech: ChwFlowCtrlVarSec
 "CHWP_Encl" = Any   $ IP Tech: ChwPumpMtrEff-PR
 "CHWP_MotClass" = PREMIUM   $ IP Tech: ChwPumpMtrEff-PR
 "CHWP_MotHP" = Any   $ IP Tech: ChwPumpMtrEff-PR
 "CHWP_NEMA_DC" =    $ IP Tech: ChwPumpMtrEff-PR
 "CHWP_RPM" = Any   $ IP Tech: ChwPumpMtrEff-PR
 "CHWP_Volt" =    $ IP Tech: ChwPumpMtrEff-PR
 "CHW_MaxT" = 54   $ IP Tech: ChwTempCtrlReset
 "CHW_TempCtrl" = LOAD-RESET   $ IP Tech: ChwTempCtrlReset
 "DuctDT" = 1   $ IP Tech: ComDuctInsul-1
 "DuctAirLoss" = 0   $ IP Tech: ComDuctLeak-0
 "DuctLossOAFrac" = 0   $ IP Tech: ComDuctLeak-0
 "ComRoofInsCalc" = FromUo   $ IP Tech: ComRoofIns-Hvy-0.03
 "ComRoofInsR" = -999   $ IP Tech: ComRoofIns-Hvy-0.03
 "ComRoofUo" = 0.03   $ IP Tech: ComRoofIns-Hvy-0.03
 "ComEWInsCalc" = FromUo   $ IP Tech: ComWallIns-MFrm-0.07
 "ComEWInsR" = -999   $ IP Tech: ComWallIns-MFrm-0.07
 "ComEWUo" = 0.07   $ IP Tech: ComWallIns-MFrm-0.07
 "CWP_Encl" = Any   $ IP Tech: CwPumpMtrEff-PR
 "CWP_MotClass" = PREMIUM   $ IP Tech: CwPumpMtrEff-PR
 "CWP_MotHP" = Any   $ IP Tech: CwPumpMtrEff-PR
 "CWP_NEMA_DC" = Any   $ IP Tech: CwPumpMtrEff-PR
 "CWP_RPM" = Any   $ IP Tech: CwPumpMtrEff-PR
 "CWP_Volt" = Any   $ IP Tech: CwPumpMtrEff-PR
 "MotorClass" = PREMIUM   $ IP Tech: ExhFanMtr-Prem
 "ComN_SHGC" = 0.26   $ IP Tech: NResWin-ComN-0.41-0.26
 "ComN_UFactor" = 0.41   $ IP Tech: NResWin-ComN-0.41-0.26
 "ComN_VisTrans" = 0.41   $ IP Tech: NResWin-ComN-0.41-0.26
 "ComN_WinCode" = G2666   $ IP Tech: NResWin-ComN-0.41-0.26
 "ComN_WinFrmFrac" = 0.17   $ IP Tech: NResWin-ComN-0.41-0.26
 "ComN_WinFrmU" = 0.3   $ IP Tech: NResWin-ComN-0.41-0.26
 "ComO_SHGC" = 0.26   $ IP Tech: NResWin-ComO-0.41-0.26
 "ComO_UFactor" = 0.41   $ IP Tech: NResWin-ComO-0.41-0.26
 "ComO_VisTrans" = 0.41   $ IP Tech: NResWin-ComO-0.41-0.26
 "ComO_WinCode" = G2666   $ IP Tech: NResWin-ComO-0.41-0.26
 "ComO_WinFrmFrac" = 0.17   $ IP Tech: NResWin-ComO-0.41-0.26
 "ComO_WinFrmU" = 0.3   $ IP Tech: NResWin-ComO-0.41-0.26
 "SATempCtrl" = WARMEST   $ IP Tech: SATempCtrl-Warmest
 "TwrFanCtrl" = TWO-SPEED-FAN   $ IP Tech: TwrFanCtrl-2sp
 "TFan_Encl" = Any   $ IP Tech: TwrFanMtrEff-PR
 "TFan_MotClass" = PREMIUM   $ IP Tech: TwrFanMtrEff-PR
 "TFan_MotHP" = Any   $ IP Tech: TwrFanMtrEff-PR
 "TFan_NEMA_DC" = Any   $ IP Tech: TwrFanMtrEff-PR
 "TFan_RPM" = Any   $ IP Tech: TwrFanMtrEff-PR
 "TFan_Volt" = Any   $ IP Tech: TwrFanMtrEff-PR
 "Twr_TempCtrl" = FIXED   $ IP Tech: TwrTempCtrl-Cst
 "FanEIR_fPLR" = "Variable Speed Drive FPLR"   $ IP Tech: VAVCtrl-VSD-AnyHP
 "Fan_Control" = VSD   $ IP Tech: VAVCtrl-VSD-AnyHP
 "Motor_Horsepower" = AnyHP   $ IP Tech: VAVCtrl-VSD-AnyHP
 "AltAdjFactor" = 1.007532   $ Sizing
 "CAssFlo_L_Break_CZn" = 304.7587   $ Sizing
 "CAssFlo_L_Conf_CZn" = 361.0726   $ Sizing
 "CAssFlo_L_CopyRm_CZn" = 88.37569   $ Sizing
 "CAssFlo_L_Cordr_CZn" = 565.4379   $ Sizing
 "CAssFlo_L_Cordr_EZn" = 165.1378   $ Sizing
 "CAssFlo_L_Cordr_NZn" = 94.69536   $ Sizing
 "CAssFlo_L_Cordr_SZn" = 183.2011   $ Sizing
 "CAssFlo_L_Cordr_WZn" = 167.2501   $ Sizing
 "CAssFlo_L_LobWait_CZn" = 275.5261   $ Sizing
 "CAssFlo_L_MechElec_CZn" = 134.1697   $ Sizing
 "CAssFlo_L_OfficeOpn_CZn" = 1354.66   $ Sizing
 "CAssFlo_L_OfficeOpn_EZn" = 1476.375   $ Sizing
 "CAssFlo_L_OfficeOpn_NZn" = 625.0292   $ Sizing
 "CAssFlo_L_OfficeOpn_SZn" = 1545.871   $ Sizing
 "CAssFlo_L_OfficeOpn_WZn" = 1455.65   $ Sizing
 "CAssFlo_L_OfficeSm_CZn" = 171.7594   $ Sizing
 "CAssFlo_L_OfficeSm_EZn" = 1055.379   $ Sizing
 "CAssFlo_L_OfficeSm_NZn" = 371.4313   $ Sizing
 "CAssFlo_L_OfficeSm_SZn" = 1135.729   $ Sizing
 "CAssFlo_L_OfficeSm_WZn" = 1037.44   $ Sizing
 "CAssFlo_L_Restrm_CZn" = 211.8611   $ Sizing
 "CAssFlo_L_StorSm_CZn" = 334.0894   $ Sizing
 "CAssFlo_M_Break_CZn" = 325.2245   $ Sizing
 "CAssFlo_M_Conf_CZn" = 390.7287   $ Sizing
 "CAssFlo_M_CopyRm_CZn" = 94.8494   $ Sizing
 "CAssFlo_M_Cordr_CZn" = 565.4379   $ Sizing
 "CAssFlo_M_Cordr_EZn" = 210.9842   $ Sizing
 "CAssFlo_M_Cordr_NZn" = 94.24052   $ Sizing
 "CAssFlo_M_Cordr_SZn" = 223.0885   $ Sizing
 "CAssFlo_M_Cordr_WZn" = 201.6633   $ Sizing
 "CAssFlo_M_LobWait_CZn" = 275.5261   $ Sizing
 "CAssFlo_M_MechElec_CZn" = 134.1697   $ Sizing
 "CAssFlo_M_OfficeOpn_CZn" = 1505.492   $ Sizing
 "CAssFlo_M_OfficeOpn_EZn" = 1617.699   $ Sizing
 "CAssFlo_M_OfficeOpn_NZn" = 751.4952   $ Sizing
 "CAssFlo_M_OfficeOpn_SZn" = 1703.529   $ Sizing
 "CAssFlo_M_OfficeOpn_WZn" = 1561.948   $ Sizing
 "CAssFlo_M_OfficeSm_CZn" = 205.5125   $ Sizing
 "CAssFlo_M_OfficeSm_EZn" = 1160.201   $ Sizing
 "CAssFlo_M_OfficeSm_NZn" = 467.8584   $ Sizing
 "CAssFlo_M_OfficeSm_SZn" = 1252.368   $ Sizing
 "CAssFlo_M_OfficeSm_WZn" = 1120.842   $ Sizing
 "CAssFlo_M_Restrm_CZn" = 211.8611   $ Sizing
 "CAssFlo_M_StorSm_CZn" = 334.0894   $ Sizing
 "CAssFlo_T_Break_CZn" = 312.5817   $ Sizing
 "CAssFlo_T_Conf_CZn" = 372.3618   $ Sizing
 "CAssFlo_T_CopyRm_CZn" = 89.05354   $ Sizing
 "CAssFlo_T_Cordr_CZn" = 565.4379   $ Sizing
 "CAssFlo_T_Cordr_EZn" = 186.4467   $ Sizing
 "CAssFlo_T_Cordr_NZn" = 94.24052   $ Sizing
 "CAssFlo_T_Cordr_SZn" = 207.1748   $ Sizing
 "CAssFlo_T_Cordr_WZn" = 184.0048   $ Sizing
 "CAssFlo_T_LobWait_CZn" = 275.5261   $ Sizing
 "CAssFlo_T_MechElec_CZn" = 134.1697   $ Sizing
 "CAssFlo_T_OfficeOpn_CZn" = 1430.728   $ Sizing
 "CAssFlo_T_OfficeOpn_EZn" = 1491.548   $ Sizing
 "CAssFlo_T_OfficeOpn_NZn" = 717.6829   $ Sizing
 "CAssFlo_T_OfficeOpn_SZn" = 1616.484   $ Sizing
 "CAssFlo_T_OfficeOpn_WZn" = 1459.906   $ Sizing
 "CAssFlo_T_OfficeSm_CZn" = 193.3063   $ Sizing
 "CAssFlo_T_OfficeSm_EZn" = 1086.975   $ Sizing
 "CAssFlo_T_OfficeSm_NZn" = 446.2289   $ Sizing
 "CAssFlo_T_OfficeSm_SZn" = 1204.281   $ Sizing
 "CAssFlo_T_OfficeSm_WZn" = 1070.033   $ Sizing
 "CAssFlo_T_Restrm_CZn" = 211.8611   $ Sizing
 "CAssFlo_T_StorSm_CZn" = 334.0894   $ Sizing
 "CBF_Sys_L" = 0.04369169   $ Sizing
 "CBF_Sys_M" = 0.04336834   $ Sizing
 "CBF_Sys_T" = 0.04256772   $ Sizing
 "CHRtFlo_L_Break_CZn" = 216.6311   $ Sizing
 "CHRtFlo_L_Conf_CZn" = 281.7439   $ Sizing
 "CHRtFlo_L_CopyRm_CZn" = 88.37569   $ Sizing
 "CHRtFlo_L_Cordr_CZn" = 212.0392   $ Sizing
 "CHRtFlo_L_Cordr_EZn" = 85.02558   $ Sizing
 "CHRtFlo_L_Cordr_NZn" = 94.69536   $ Sizing
 "CHRtFlo_L_Cordr_SZn" = 54.96032   $ Sizing
 "CHRtFlo_L_Cordr_WZn" = 83.27447   $ Sizing
 "CHRtFlo_L_LobWait_CZn" = 223.8649   $ Sizing
 "CHRtFlo_L_MechElec_CZn" = 50.31363   $ Sizing
 "CHRtFlo_L_OfficeOpn_CZn" = 413.8266   $ Sizing
 "CHRtFlo_L_OfficeOpn_EZn" = 442.9124   $ Sizing
 "CHRtFlo_L_OfficeOpn_NZn" = 314.2887   $ Sizing
 "CHRtFlo_L_OfficeOpn_SZn" = 463.7614   $ Sizing
 "CHRtFlo_L_OfficeOpn_WZn" = 436.6951   $ Sizing
 "CHRtFlo_L_OfficeSm_CZn" = 53.97937   $ Sizing
 "CHRtFlo_L_OfficeSm_EZn" = 316.6136   $ Sizing
 "CHRtFlo_L_OfficeSm_NZn" = 338.1797   $ Sizing
 "CHRtFlo_L_OfficeSm_SZn" = 340.7188   $ Sizing
 "CHRtFlo_L_OfficeSm_WZn" = 311.2319   $ Sizing
 "CHRtFlo_L_Restrm_CZn" = 63.55833   $ Sizing
 "CHRtFlo_L_StorSm_CZn" = 125.2835   $ Sizing
 "CHRtFlo_M_Break_CZn" = 216.6311   $ Sizing
 "CHRtFlo_M_Conf_CZn" = 281.7439   $ Sizing
 "CHRtFlo_M_CopyRm_CZn" = 88.37569   $ Sizing
 "CHRtFlo_M_Cordr_CZn" = 212.0392   $ Sizing
 "CHRtFlo_M_Cordr_EZn" = 70.25879   $ Sizing
 "CHRtFlo_M_Cordr_NZn" = 77.91257   $ Sizing
 "CHRtFlo_M_Cordr_SZn" = 66.92654   $ Sizing
 "CHRtFlo_M_Cordr_WZn" = 66.44744   $ Sizing
 "CHRtFlo_M_LobWait_CZn" = 223.8649   $ Sizing
 "CHRtFlo_M_MechElec_CZn" = 50.31363   $ Sizing
 "CHRtFlo_M_OfficeOpn_CZn" = 451.6477   $ Sizing
 "CHRtFlo_M_OfficeOpn_EZn" = 485.3098   $ Sizing
 "CHRtFlo_M_OfficeOpn_NZn" = 225.4486   $ Sizing
 "CHRtFlo_M_OfficeOpn_SZn" = 511.0587   $ Sizing
 "CHRtFlo_M_OfficeOpn_WZn" = 468.5844   $ Sizing
 "CHRtFlo_M_OfficeSm_CZn" = 61.65376   $ Sizing
 "CHRtFlo_M_OfficeSm_EZn" = 348.0603   $ Sizing
 "CHRtFlo_M_OfficeSm_NZn" = 277.9346   $ Sizing
 "CHRtFlo_M_OfficeSm_SZn" = 375.7104   $ Sizing
 "CHRtFlo_M_OfficeSm_WZn" = 336.2525   $ Sizing
 "CHRtFlo_M_Restrm_CZn" = 63.55833   $ Sizing
 "CHRtFlo_M_StorSm_CZn" = 125.2835   $ Sizing
 "CHRtFlo_T_Break_CZn" = 216.6311   $ Sizing
 "CHRtFlo_T_Conf_CZn" = 281.7439   $ Sizing
 "CHRtFlo_T_CopyRm_CZn" = 88.37569   $ Sizing
 "CHRtFlo_T_Cordr_CZn" = 212.0392   $ Sizing
 "CHRtFlo_T_Cordr_EZn" = 62.69653   $ Sizing
 "CHRtFlo_T_Cordr_NZn" = 71.73386   $ Sizing
 "CHRtFlo_T_Cordr_SZn" = 62.15244   $ Sizing
 "CHRtFlo_T_Cordr_WZn" = 58.63472   $ Sizing
 "CHRtFlo_T_LobWait_CZn" = 223.8649   $ Sizing
 "CHRtFlo_T_MechElec_CZn" = 50.31363   $ Sizing
 "CHRtFlo_T_OfficeOpn_CZn" = 429.2184   $ Sizing
 "CHRtFlo_T_OfficeOpn_EZn" = 447.4646   $ Sizing
 "CHRtFlo_T_OfficeOpn_NZn" = 218.3675   $ Sizing
 "CHRtFlo_T_OfficeOpn_SZn" = 484.9451   $ Sizing
 "CHRtFlo_T_OfficeOpn_WZn" = 437.9717   $ Sizing
 "CHRtFlo_T_OfficeSm_CZn" = 57.9919   $ Sizing
 "CHRtFlo_T_OfficeSm_EZn" = 326.0926   $ Sizing
 "CHRtFlo_T_OfficeSm_NZn" = 275.2172   $ Sizing
 "CHRtFlo_T_OfficeSm_SZn" = 361.2843   $ Sizing
 "CHRtFlo_T_OfficeSm_WZn" = 321.0099   $ Sizing
 "CHRtFlo_T_Restrm_CZn" = 63.55833   $ Sizing
 "CHRtFlo_T_StorSm_CZn" = 125.2835   $ Sizing
 "CRtdFlo_Sys_L" = 9560.357   $ Sizing
 "CRtdFlo_Sys_M" = 86489.96   $ Sizing
 "CRtdFlo_Sys_T" = 10393.54   $ Sizing
 "CSupFlo_Sys_L" = 9560.357   $ Sizing
 "CSupFlo_Sys_M" = 86489.96   $ Sizing
 "CSupFlo_Sys_T" = 10393.54   $ Sizing
 "Cap_Chiller1" = 1.516835   $ Sizing
 "Cap_Chiller2" = 1.516835   $ Sizing
 "ClCap_Sys_L" = 255746.3   $ Sizing
 "ClCap_Sys_M" = 2325236   $ Sizing
 "ClCap_Sys_T" = 282828.1   $ Sizing
 "HRtEDB_L_Break_CZn" = 49.44758   $ Sizing
 "HRtEDB_L_Conf_CZn" = 49.44758   $ Sizing
 "HRtEDB_L_CopyRm_CZn" = 49.44758   $ Sizing
 "HRtEDB_L_Cordr_CZn" = 49.44758   $ Sizing
 "HRtEDB_L_Cordr_EZn" = 49.5948   $ Sizing
 "HRtEDB_L_Cordr_NZn" = 49.5948   $ Sizing
 "HRtEDB_L_Cordr_SZn" = 49.5948   $ Sizing
 "HRtEDB_L_Cordr_WZn" = 49.5948   $ Sizing
 "HRtEDB_L_LobWait_CZn" = 49.44758   $ Sizing
 "HRtEDB_L_MechElec_CZn" = 49.44758   $ Sizing
 "HRtEDB_L_OfficeOpn_CZn" = 49.44758   $ Sizing
 "HRtEDB_L_OfficeOpn_EZn" = 49.44758   $ Sizing
 "HRtEDB_L_OfficeOpn_NZn" = 55.80949   $ Sizing
 "HRtEDB_L_OfficeOpn_SZn" = 49.53475   $ Sizing
 "HRtEDB_L_OfficeOpn_WZn" = 49.44758   $ Sizing
 "HRtEDB_L_OfficeSm_CZn" = 49.44758   $ Sizing
 "HRtEDB_L_OfficeSm_EZn" = 49.44758   $ Sizing
 "HRtEDB_L_OfficeSm_NZn" = 49.44758   $ Sizing
 "HRtEDB_L_OfficeSm_SZn" = 49.53475   $ Sizing
 "HRtEDB_L_OfficeSm_WZn" = 49.44758   $ Sizing
 "HRtEDB_L_Restrm_CZn" = 49.44758   $ Sizing
 "HRtEDB_L_StorSm_CZn" = 49.44758   $ Sizing
 "HRtEDB_M_Break_CZn" = 49.91716   $ Sizing
 "HRtEDB_M_Conf_CZn" = 49.91716   $ Sizing
 "HRtEDB_M_CopyRm_CZn" = 49.91716   $ Sizing
 "HRtEDB_M_Cordr_CZn" = 49.91716   $ Sizing
 "HRtEDB_M_Cordr_EZn" = 49.98878   $ Sizing
 "HRtEDB_M_Cordr_NZn" = 49.98878   $ Sizing
 "HRtEDB_M_Cordr_SZn" = 49.91716   $ Sizing
 "HRtEDB_M_Cordr_WZn" = 49.98878   $ Sizing
 "HRtEDB_M_LobWait_CZn" = 49.91716   $ Sizing
 "HRtEDB_M_MechElec_CZn" = 49.91716   $ Sizing
 "HRtEDB_M_OfficeOpn_CZn" = 49.91716   $ Sizing
 "HRtEDB_M_OfficeOpn_EZn" = 49.91716   $ Sizing
 "HRtEDB_M_OfficeOpn_NZn" = 49.91716   $ Sizing
 "HRtEDB_M_OfficeOpn_SZn" = 49.91716   $ Sizing
 "HRtEDB_M_OfficeOpn_WZn" = 49.91716   $ Sizing
 "HRtEDB_M_OfficeSm_CZn" = 49.91716   $ Sizing
 "HRtEDB_M_OfficeSm_EZn" = 49.91716   $ Sizing
 "HRtEDB_M_OfficeSm_NZn" = 49.91716   $ Sizing
 "HRtEDB_M_OfficeSm_SZn" = 49.91716   $ Sizing
 "HRtEDB_M_OfficeSm_WZn" = 49.91716   $ Sizing
 "HRtEDB_M_Restrm_CZn" = 49.91716   $ Sizing
 "HRtEDB_M_StorSm_CZn" = 49.91716   $ Sizing
 "HRtEDB_T_Break_CZn" = 46.60488   $ Sizing
 "HRtEDB_T_Conf_CZn" = 46.60488   $ Sizing
 "HRtEDB_T_CopyRm_CZn" = 46.60488   $ Sizing
 "HRtEDB_T_Cordr_CZn" = 46.60488   $ Sizing
 "HRtEDB_T_Cordr_EZn" = 47.26461   $ Sizing
 "HRtEDB_T_Cordr_NZn" = 48.90915   $ Sizing
 "HRtEDB_T_Cordr_SZn" = 46.60488   $ Sizing
 "HRtEDB_T_Cordr_WZn" = 48.90915   $ Sizing
 "HRtEDB_T_LobWait_CZn" = 46.60488   $ Sizing
 "HRtEDB_T_MechElec_CZn" = 46.60488   $ Sizing
 "HRtEDB_T_OfficeOpn_CZn" = 46.60487   $ Sizing
 "HRtEDB_T_OfficeOpn_EZn" = 46.60488   $ Sizing
 "HRtEDB_T_OfficeOpn_NZn" = 46.60488   $ Sizing
 "HRtEDB_T_OfficeOpn_SZn" = 46.60488   $ Sizing
 "HRtEDB_T_OfficeOpn_WZn" = 46.60488   $ Sizing
 "HRtEDB_T_OfficeSm_CZn" = 46.60488   $ Sizing
 "HRtEDB_T_OfficeSm_EZn" = 46.60488   $ Sizing
 "HRtEDB_T_OfficeSm_NZn" = 47.17162   $ Sizing
 "HRtEDB_T_OfficeSm_SZn" = 47.17162   $ Sizing
 "HRtEDB_T_OfficeSm_WZn" = 46.60488   $ Sizing
 "HRtEDB_T_Restrm_CZn" = 46.60488   $ Sizing
 "HRtEDB_T_StorSm_CZn" = 46.60488   $ Sizing
 "HtCap_L_Break_CZn" = -10633.63   $ Sizing
 "HtCap_L_Conf_CZn" = -13829.79   $ Sizing
 "HtCap_L_CopyRm_CZn" = -4338.042   $ Sizing
 "HtCap_L_Cordr_CZn" = -10408.23   $ Sizing
 "HtCap_L_Cordr_EZn" = -4160.485   $ Sizing
 "HtCap_L_Cordr_NZn" = -4633.647   $ Sizing
 "HtCap_L_Cordr_SZn" = -2689.327   $ Sizing
 "HtCap_L_Cordr_WZn" = -4074.799   $ Sizing
 "HtCap_L_LobWait_CZn" = -10988.72   $ Sizing
 "HtCap_L_MechElec_CZn" = -2469.713   $ Sizing
 "HtCap_L_OfficeOpn_CZn" = -20313.25   $ Sizing
 "HtCap_L_OfficeOpn_EZn" = -21740.97   $ Sizing
 "HtCap_L_OfficeOpn_NZn" = -13282.58   $ Sizing
 "HtCap_L_OfficeOpn_SZn" = -22722.86   $ Sizing
 "HtCap_L_OfficeOpn_WZn" = -21435.78   $ Sizing
 "HtCap_L_OfficeSm_CZn" = -2649.651   $ Sizing
 "HtCap_L_OfficeSm_EZn" = -15541.41   $ Sizing
 "HtCap_L_OfficeSm_NZn" = -16600.01   $ Sizing
 "HtCap_L_OfficeSm_SZn" = -16694.15   $ Sizing
 "HtCap_L_OfficeSm_WZn" = -15277.25   $ Sizing
 "HtCap_L_Restrm_CZn" = -3119.848   $ Sizing
 "HtCap_L_StorSm_CZn" = -6149.712   $ Sizing
 "HtCap_M_Break_CZn" = -10524.37   $ Sizing
 "HtCap_M_Conf_CZn" = -13687.67   $ Sizing
 "HtCap_M_CopyRm_CZn" = -4293.465   $ Sizing
 "HtCap_M_Cordr_CZn" = -10301.28   $ Sizing
 "HtCap_M_Cordr_EZn" = -3408.234   $ Sizing
 "HtCap_M_Cordr_NZn" = -3779.518   $ Sizing
 "HtCap_M_Cordr_SZn" = -3251.423   $ Sizing
 "HtCap_M_Cordr_WZn" = -3223.347   $ Sizing
 "HtCap_M_LobWait_CZn" = -10875.8   $ Sizing
 "HtCap_M_MechElec_CZn" = -2444.335   $ Sizing
 "HtCap_M_OfficeOpn_CZn" = -21941.94   $ Sizing
 "HtCap_M_OfficeOpn_EZn" = -23577.3   $ Sizing
 "HtCap_M_OfficeOpn_NZn" = -10952.74   $ Sizing
 "HtCap_M_OfficeOpn_SZn" = -24828.24   $ Sizing
 "HtCap_M_OfficeOpn_WZn" = -22764.75   $ Sizing
 "HtCap_M_OfficeSm_CZn" = -2995.261   $ Sizing
 "HtCap_M_OfficeSm_EZn" = -16909.46   $ Sizing
 "HtCap_M_OfficeSm_NZn" = -13502.61   $ Sizing
 "HtCap_M_OfficeSm_SZn" = -18252.75   $ Sizing
 "HtCap_M_OfficeSm_WZn" = -16335.81   $ Sizing
 "HtCap_M_Restrm_CZn" = -3087.789   $ Sizing
 "HtCap_M_StorSm_CZn" = -6086.519   $ Sizing
 "HtCap_T_Break_CZn" = -11297.25   $ Sizing
 "HtCap_T_Conf_CZn" = -14692.86   $ Sizing
 "HtCap_T_CopyRm_CZn" = -4608.767   $ Sizing
 "HtCap_T_Cordr_CZn" = -11057.78   $ Sizing
 "HtCap_T_Cordr_EZn" = -3225.333   $ Sizing
 "HtCap_T_Cordr_NZn" = -3563.691   $ Sizing
 "HtCap_T_Cordr_SZn" = -3241.232   $ Sizing
 "HtCap_T_Cordr_WZn" = -2912.935   $ Sizing
 "HtCap_T_LobWait_CZn" = -11674.49   $ Sizing
 "HtCap_T_MechElec_CZn" = -2623.841   $ Sizing
 "HtCap_T_OfficeOpn_CZn" = -22383.62   $ Sizing
 "HtCap_T_OfficeOpn_EZn" = -23335.15   $ Sizing
 "HtCap_T_OfficeOpn_NZn" = -11387.8   $ Sizing
 "HtCap_T_OfficeOpn_SZn" = -25289.74   $ Sizing
 "HtCap_T_OfficeOpn_WZn" = -22840.1   $ Sizing
 "HtCap_T_OfficeSm_CZn" = -3024.26   $ Sizing
 "HtCap_T_OfficeSm_EZn" = -17005.63   $ Sizing
 "HtCap_T_OfficeSm_NZn" = -14185.72   $ Sizing
 "HtCap_T_OfficeSm_SZn" = -18621.94   $ Sizing
 "HtCap_T_OfficeSm_WZn" = -16740.57   $ Sizing
 "HtCap_T_Restrm_CZn" = -3314.548   $ Sizing
 "HtCap_T_StorSm_CZn" = -6533.498   $ Sizing
 "LpFlo_BlrPrimLoop" = 0   $ Sizing
 "LpFlo_ChlrPrimLoop" = 476.595   $ Sizing
 "LpFlo_CircLp_Chw_L" = 42.56227   $ Sizing
 "LpFlo_CircLp_Chw_M" = 386.9551   $ Sizing
 "LpFlo_CircLp_Chw_T" = 47.07767   $ Sizing
 "LpFlo_CircLp_Hw_L" = 0   $ Sizing
 "LpFlo_CircLp_Hw_M" = 0   $ Sizing
 "LpFlo_CircLp_Hw_T" = 0   $ Sizing
 "RtChwFlo_Chiller1" = 1.998401   $ Sizing
 "RtChwFlo_Chiller2" = 1.998401   $ Sizing
 "RtCndFlo_Chiller1" = 3   $ Sizing
 "RtCndFlo_Chiller2" = 3   $ Sizing
 "RtdEDB_Sys_L" = 72.29684   $ Sizing
 "RtdEDB_Sys_M" = 72.889   $ Sizing
 "RtdEDB_Sys_T" = 73.05124   $ Sizing
 "RtdEWB_Sys_L" = 61.83283   $ Sizing
 "RtdEWB_Sys_M" = 61.85418   $ Sizing
 "RtdEWB_Sys_T" = 61.95862   $ Sizing
..

##include Templates\OfL_CH_MZ.inp
END ..
COMPUTE ..
STOP ..
