INPUT ..

##fileprefix C:\Users\jglasskatz\MASControl3\
##set1 IsSizing FALSE
##set1 CoolType DX
##set1 HeatType FURNACE
##set1 EU_HrRepVar 0
##set1 BldgVint 1996
##set1 BldgLoc CZ16

 ##set1 mBFMult 1   $ IP Tech: RefgChg-NRes-Std

PARAMETER
 "AltFactor" = 1.21446   $ IP Non-Tech
 "BF_fFlow" = SpltAC2SpHiSEER_BF_fFlow   $ Msr (Multi)TechID: MsrNResSplitAC-45to55-S17
 "BF_fT" = SpltAC2SpHiSEER_BF_fT   $ Msr (Multi)TechID: MsrNResSplitAC-45to55-S17
 "BldgEconoFlag" = 1   $ IP Non-Tech
 "Break_EWSF" = 1   $ IP Non-Tech
 "Break_LWSF" = 1.1   $ IP Non-Tech
 "CDD_DBHi10" = 66   $ IP Non-Tech
 "CDD_DBHi7" = 83   $ IP Non-Tech
 "CDD_DBHi8" = 83   $ IP Non-Tech
 "CDD_DBHi9" = 78   $ IP Non-Tech
 "CDD_DBRange10" = 10   $ IP Non-Tech
 "CDD_DBRange7" = 7   $ IP Non-Tech
 "CDD_DBRange8" = 11   $ IP Non-Tech
 "CDD_DBRange9" = 10   $ IP Non-Tech
 "CDD_Day10" = 15   $ IP Non-Tech
 "CDD_Day7" = 16   $ IP Non-Tech
 "CDD_Day8" = 20   $ IP Non-Tech
 "CDD_Day9" = 17   $ IP Non-Tech
 "CDD_HrHi10" = 15   $ IP Non-Tech
 "CDD_HrHi7" = 15   $ IP Non-Tech
 "CDD_HrHi8" = 13   $ IP Non-Tech
 "CDD_HrHi9" = 14   $ IP Non-Tech
 "CDD_HrLo10" = 7   $ IP Non-Tech
 "CDD_HrLo7" = 22   $ IP Non-Tech
 "CDD_HrLo8" = 2   $ IP Non-Tech
 "CDD_HrLo9" = 7   $ IP Non-Tech
 "CDD_WB10" = 49.76695633   $ IP Non-Tech
 "CDD_WB7" = 62.86373901   $ IP Non-Tech
 "CDD_WB8" = 57.26689529   $ IP Non-Tech
 "CDD_WB9" = 55.95214462   $ IP Non-Tech
 "CEIR_fPLR_Hot" = SpltAC2SpHiSEER_CEIR_fPLR_Hot   $ Msr (Multi)TechID: MsrNResSplitAC-45to55-S17
 "CEIR_fPLR_Mod" = SpltAC2SpHiSEER_CEIR_fPLR_Mod   $ Msr (Multi)TechID: MsrNResSplitAC-45to55-S17
 "CEIR_fPLR_Tem" = SpltAC2SpHiSEER_CEIR_fPLR_Tem   $ Msr (Multi)TechID: MsrNResSplitAC-45to55-S17
 "CLoss_fPLR_Hot" = SpltAC2SpHiSEER_CLoss_fPLR_Hot   $ Msr (Multi)TechID: MsrNResSplitAC-45to55-S17
 "CLoss_fPLR_Mod" = SpltAC2SpHiSEER_CLoss_fPLR_Mod   $ Msr (Multi)TechID: MsrNResSplitAC-45to55-S17
 "CLoss_fPLR_Tem" = SpltAC2SpHiSEER_CLoss_fPLR_Tem   $ Msr (Multi)TechID: MsrNResSplitAC-45to55-S17
 "COP47" = 0   $ Msr (Multi)TechID: MsrNResSplitAC-45to55-S17
 "CZ_Category" = Tem   $ IP Non-Tech
 "CapRange" = Any   $ Msr (Multi)TechID: MsrNResSplitAC-45to55-S17
 "CfmPerBtuh" = 0.03   $ Msr (Multi)TechID: MsrNResSplitAC-45to55-S17
 "ChwVintEconoFlag" = 1   $ IP Non-Tech
 "ClCap_fT" = SpltAC2SpHiSEER_ClCap_fT   $ Msr (Multi)TechID: MsrNResSplitAC-45to55-S17
 "ClSH_fT" = SpltAC2SpHiSEER_ClSH_fT   $ Msr (Multi)TechID: MsrNResSplitAC-45to55-S17
 "CoilBF" = 0.102   $ Msr (Multi)TechID: MsrNResSplitAC-45to55-S17
 "CondWPerBtuh" = 0   $ Msr (Multi)TechID: MsrNResSplitAC-45to55-S17
 "Conference_EWSF" = 1.05   $ IP Non-Tech
 "Conference_LWSF" = 1.4   $ IP Non-Tech
 "CoolSensCap" = 0.724   $ Msr (Multi)TechID: MsrNResSplitAC-45to55-S17
 "CoolSetT" = 45   $ IP Non-Tech
 "CoolType" = DX   $ IP Non-Tech
 "CoolingEIR" = 0.2225   $ Msr (Multi)TechID: MsrNResSplitAC-45to55-S17
 "CopyRoom_EWSF" = 1.575   $ IP Non-Tech
 "CopyRoom_LWSF" = 1.3   $ IP Non-Tech
 "CorridorStairway_EWSF" = 0.21   $ IP Non-Tech
 "CorridorStairway_LWSF" = 0.6   $ IP Non-Tech
 "CrnkEIR" = 0.002225   $ Msr (Multi)TechID: MsrNResSplitAC-45to55-S17
 "CrnkMaxT" = 50   $ Msr (Multi)TechID: MsrNResSplitAC-45to55-S17
 "DXType" = SplitSEER   $ Msr (Multi)TechID: MsrNResSplitAC-45to55-S17
 "DesCoolT" = 75   $ IP Non-Tech
 "DesHeatT" = 73   $ IP Non-Tech
 "EER" = 13.26   $ Msr (Multi)TechID: MsrNResSplitAC-45to55-S17
 "EIR_fT" = SpltAC2SpHiSEER_EIR_fT   $ Msr (Multi)TechID: MsrNResSplitAC-45to55-S17
 "EconoCtrl" = FIXED   $ Msr (Multi)TechID: MsrNResSplitAC-45to55-S17
 "EconoEnthLimit" = 28   $ IP Non-Tech
 "EconoTempLimit" = 75   $ IP Non-Tech
 "Elevation" = 5279   $ IP Non-Tech
 "FanEirPlr" = TwoSpeedFan   $ Msr (Multi)TechID: MsrNResSplitAC-45to55-S17
 "FanWPerCfm" = 0.271   $ Msr (Multi)TechID: MsrNResSplitAC-45to55-S17
 "HDD_CloudAmt1" = 0   $ IP Non-Tech
 "HDD_DBHi1" = 30   $ IP Non-Tech
 "HDD_DBRange1" = 8   $ IP Non-Tech
 "HDD_Day1" = 15   $ IP Non-Tech
 "HDD_HrHi1" = 15   $ IP Non-Tech
 "HDD_HrLo1" = 2   $ IP Non-Tech
 "HDD_WB1" = 22.9   $ IP Non-Tech
 "HDD_WindSpd1" = 16.1   $ IP Non-Tech
 "HIR_fT" = 0   $ Msr (Multi)TechID: MsrNResSplitAC-45to55-S17
 "HSPF" = 0   $ Msr (Multi)TechID: MsrNResSplitAC-45to55-S17
 "HeatSrc" = FURNACE   $ IP Non-Tech
 "HeatSrcTU" = HEAT-PUMP   $ IP Non-Tech
 "HeatType" = GasFurn   $ IP Non-Tech
 "HeatTypeTU" = HEAT-PUMP   $ IP Non-Tech
 "HtCap_fT" = 0   $ Msr (Multi)TechID: MsrNResSplitAC-45to55-S17
 "HtCoolCapRatio" = 0   $ Msr (Multi)TechID: MsrNResSplitAC-45to55-S17
 "HtgEIR" = 0   $ Msr (Multi)TechID: MsrNResSplitAC-45to55-S17
 "IndoorFanMode" = CONTINUOUS   $ IP Non-Tech
 "KT_TransferAir" = No   $ IP Non-Tech
 "Latitude" = 41.3   $ IP Non-Tech
 "LobbyWaiting_EWSF" = 0.5125   $ IP Non-Tech
 "LobbyWaiting_LWSF" = 1.3   $ IP Non-Tech
 "Longitude" = 122.3   $ IP Non-Tech
 "LowSpdCapRatio" = 0.686   $ Msr (Multi)TechID: MsrNResSplitAC-45to55-S17
 "LowSpdCfmRatio" = 0.739   $ Msr (Multi)TechID: MsrNResSplitAC-45to55-S17
 "MZFanMechEff" = 0.58   $ IP Non-Tech
 "MZHasRetFan" = FALSE   $ IP Non-Tech
 "MZ_RFanWPerCfm" = 0.37   $ IP Non-Tech
 "MZ_SFanWPerCfm" = 0.71   $ IP Non-Tech
 "MZ_SupFanStatic" = 2.25   $ IP Non-Tech
 "MaxOAFrac" = 1   $ Msr (Multi)TechID: MsrNResSplitAC-45to55-S17
 "MaxSupT_MZ" = 100   $ IP Non-Tech
 "MaxSupT_SZ" = 100   $ IP Non-Tech
 "MaxSupT_TU" = 90   $ IP Non-Tech
 "MechElecRoom_EWSF" = 0.21   $ IP Non-Tech
 "MechElecRoom_LWSF" = 0.7   $ IP Non-Tech
 "MinCfmPerSF" = 0.4   $ IP Non-Tech
 "MinSupT" = 55   $ IP Non-Tech
 "NumStages" = 2   $ Msr (Multi)TechID: MsrNResSplitAC-45to55-S17
 "OccCoolT" = 76   $ IP Non-Tech
 "OccHeatT" = 72   $ IP Non-Tech
 "OfficeOpen_EWSF" = 1.575   $ IP Non-Tech
 "OfficeOpen_LWSF" = 1.2   $ IP Non-Tech
 "OfficeSmall_EWSF" = 1.575   $ IP Non-Tech
 "OfficeSmall_LWSF" = 1.3   $ IP Non-Tech
 "PkgDxVintEconoFlag" = 0   $ IP Non-Tech
 "Restroom_EWSF" = 0.21   $ IP Non-Tech
 "Restroom_LWSF" = 0.6   $ IP Non-Tech
 "SEER" = 17   $ Msr (Multi)TechID: MsrNResSplitAC-45to55-S17
 "SZFanMechEff" = 0.58   $ IP Non-Tech
 "SZHasRetFan" = FALSE   $ IP Non-Tech
 "SZ_Is_2Spd" = FALSE   $ IP Non-Tech
 "SZ_SFanWPerCfm" = 0.46   $ IP Non-Tech
 "SZ_SupFanStatic" = 0.75   $ IP Non-Tech
 "Sector" = Any   $ Msr (Multi)TechID: MsrNResSplitAC-45to55-S17
 "StorageSmlCond_EWSF" = 0.21   $ IP Non-Tech
 "StorageSmlCond_LWSF" = 0.6   $ IP Non-Tech
 "SubType" = AC   $ Msr (Multi)TechID: MsrNResSplitAC-45to55-S17
 "T24GlzTbl" = CZTbl   $ IP Non-Tech
 "TermUnitFanMechEff" = 1   $ IP Non-Tech
 "TermUnitFanMode" = INTERMITTENT   $ IP Non-Tech
 "TotCoolCap" = 58805   $ Msr (Multi)TechID: MsrNResSplitAC-45to55-S17
 "TwrSetpt" = 80   $ IP Non-Tech
 "UnocCoolT" = 86   $ IP Non-Tech
 "UnocHeatT" = 62   $ IP Non-Tech
 "UseEconoVintApplic" = FALSE   $ Msr (Multi)TechID: MsrNResSplitAC-45to55-S17
 "WlhpVintEconoFlag" = 0   $ IP Non-Tech
 "DuctDT" = 1   $ IP Tech: ComDuctInsul-1
 "DuctAirLoss" = 0   $ IP Tech: ComDuctLeak-0
 "DuctLossOAFrac" = 0   $ IP Tech: ComDuctLeak-0
 "ComRoofInsCalc" = FromUo   $ IP Tech: ComRoofIns-Hvy-0.06
 "ComRoofInsR" = -999   $ IP Tech: ComRoofIns-Hvy-0.06
 "ComRoofUo" = 0.06   $ IP Tech: ComRoofIns-Hvy-0.06
 "ComEWInsCalc" = FromUo   $ IP Tech: ComWallIns-MFrm-0.13
 "ComEWInsR" = -999   $ IP Tech: ComWallIns-MFrm-0.13
 "ComEWUo" = 0.13   $ IP Tech: ComWallIns-MFrm-0.13
 "ComN_SHGC" = 0.77   $ IP Tech: NResWin-ComN-0.77-0.77
 "ComN_UFactor" = 0.77   $ IP Tech: NResWin-ComN-0.77-0.77
 "ComN_VisTrans" = 0.81   $ IP Tech: NResWin-ComN-0.77-0.77
 "ComN_WinCode" = G2000   $ IP Tech: NResWin-ComN-0.77-0.77
 "ComN_WinFrmFrac" = 0.17   $ IP Tech: NResWin-ComN-0.77-0.77
 "ComN_WinFrmU" = 1   $ IP Tech: NResWin-ComN-0.77-0.77
 "ComO_SHGC" = 0.5   $ IP Tech: NResWin-ComO-0.77-0.5
 "ComO_UFactor" = 0.77   $ IP Tech: NResWin-ComO-0.77-0.5
 "ComO_VisTrans" = 0.77   $ IP Tech: NResWin-ComO-0.77-0.5
 "ComO_WinCode" = G2630   $ IP Tech: NResWin-ComO-0.77-0.5
 "ComO_WinFrmFrac" = 0.17   $ IP Tech: NResWin-ComO-0.77-0.5
 "ComO_WinFrmU" = 1   $ IP Tech: NResWin-ComO-0.77-0.5
 "LtgMsrApplic" = ALL   $ IP Tech: NonResLtgRefPre
 "LtgSav_CFL" = 0   $ IP Tech: NonResLtgRefPre
 "LtgSav_EX" = 0   $ IP Tech: NonResLtgRefPre
 "LtgSav_HB" = 0   $ IP Tech: NonResLtgRefPre
 "LtgSav_LF" = 0   $ IP Tech: NonResLtgRefPre
 "LtgSav_SP" = 0   $ IP Tech: NonResLtgRefPre
 "CEIR_fPLR" = PSZ65to135_CEIR_fPLR   $ IP Tech: PkgAC1SpH-65to135-E10
 "CLoss_fPLR" = PSZ65to135_CLoss_fPLR   $ IP Tech: PkgAC1SpH-65to135-E10
 "COP" = -1   $ IP Tech: PkgAC1SpH-65to135-E10
 "HtgFuel" = Gas   $ IP Tech: PkgAC1SpH-65to135-E10
 "IEER" = 11.87   $ IP Tech: PkgAC1SpH-65to135-E10
 "NominalCap" = 15   $ IP Tech: PkgAC1SpH-65to135-E10
 "RatedEER" = 10   $ IP Tech: PkgAC1SpH-65to135-E10
 "RatedSupMtrClass" = HiEff   $ IP Tech: PkgAC1SpH-65to135-E10
 "SizeRange" = 65to135   $ IP Tech: PkgAC1SpH-65to135-E10
 "SupMotEff" = 0.84   $ IP Tech: PkgAC1SpH-65to135-E10
 "Tier" = 0   $ IP Tech: PkgAC1SpH-65to135-E10
 "FanPwrMult" = 1   $ IP Tech: PkgFurn-0.80AFUE
 "FurnAFUE" = 0.8   $ IP Tech: PkgFurn-0.80AFUE
 "FurnEt" = 0.82   $ IP Tech: PkgFurn-0.80AFUE
 "FurnaceAuxKW" = 0.1   $ IP Tech: PkgFurn-0.80AFUE
 "HIR_fPLR" = Furnace-HIR-fPLR   $ IP Tech: PkgFurn-0.80AFUE
 "VSM" = FALSE   $ IP Tech: PkgFurn-0.80AFUE
 "BFMult" = 1   $ IP Tech: RefgChg-NRes-Std
 "CoolEirMult" = 1   $ IP Tech: RefgChg-NRes-Std
 "SensCoolCapMult" = 1   $ IP Tech: RefgChg-NRes-Std
 "TotCoolCapMult" = 1   $ IP Tech: RefgChg-NRes-Std
 "AltAdjFactor" = 1.214461   $ Sizing
 "CAssFlo_L_Break_CZn" = 462.4461   $ Sizing
 "CAssFlo_L_Conf_CZn" = 559.8962   $ Sizing
 "CAssFlo_L_CopyRm_CZn" = 141.478   $ Sizing
 "CAssFlo_L_Cordr_CZn" = 776.165   $ Sizing
 "CAssFlo_L_Cordr_EZn" = 356.095   $ Sizing
 "CAssFlo_L_Cordr_NZn" = 169.9167   $ Sizing
 "CAssFlo_L_Cordr_SZn" = 330.3459   $ Sizing
 "CAssFlo_L_Cordr_WZn" = 332.5766   $ Sizing
 "CAssFlo_L_LobWait_CZn" = 505.3047   $ Sizing
 "CAssFlo_L_MechElec_CZn" = 166.351   $ Sizing
 "CAssFlo_L_OfficeOpn_CZn" = 2151.9   $ Sizing
 "CAssFlo_L_OfficeOpn_EZn" = 2658.01   $ Sizing
 "CAssFlo_L_OfficeOpn_NZn" = 1316.501   $ Sizing
 "CAssFlo_L_OfficeOpn_SZn" = 2533.331   $ Sizing
 "CAssFlo_L_OfficeOpn_WZn" = 2530.196   $ Sizing
 "CAssFlo_L_OfficeSm_CZn" = 312.6882   $ Sizing
 "CAssFlo_L_OfficeSm_EZn" = 1950.999   $ Sizing
 "CAssFlo_L_OfficeSm_NZn" = 854.1862   $ Sizing
 "CAssFlo_L_OfficeSm_SZn" = 1871.846   $ Sizing
 "CAssFlo_L_OfficeSm_WZn" = 1862.333   $ Sizing
 "CAssFlo_L_Restrm_CZn" = 255.3736   $ Sizing
 "CAssFlo_L_StorSm_CZn" = 503.4145   $ Sizing
 "CAssFlo_M_Break_CZn" = 516.1111   $ Sizing
 "CAssFlo_M_Conf_CZn" = 648.123   $ Sizing
 "CAssFlo_M_CopyRm_CZn" = 177.8755   $ Sizing
 "CAssFlo_M_Cordr_CZn" = 1198.292   $ Sizing
 "CAssFlo_M_Cordr_EZn" = 424.8492   $ Sizing
 "CAssFlo_M_Cordr_NZn" = 229.1316   $ Sizing
 "CAssFlo_M_Cordr_SZn" = 387.1436   $ Sizing
 "CAssFlo_M_Cordr_WZn" = 372.0725   $ Sizing
 "CAssFlo_M_LobWait_CZn" = 683.0266   $ Sizing
 "CAssFlo_M_MechElec_CZn" = 220.0414   $ Sizing
 "CAssFlo_M_OfficeOpn_CZn" = 2612.216   $ Sizing
 "CAssFlo_M_OfficeOpn_EZn" = 2907.2   $ Sizing
 "CAssFlo_M_OfficeOpn_NZn" = 1512.631   $ Sizing
 "CAssFlo_M_OfficeOpn_SZn" = 2782.201   $ Sizing
 "CAssFlo_M_OfficeOpn_WZn" = 2667.759   $ Sizing
 "CAssFlo_M_OfficeSm_CZn" = 401.5371   $ Sizing
 "CAssFlo_M_OfficeSm_EZn" = 2110.895   $ Sizing
 "CAssFlo_M_OfficeSm_NZn" = 980.8929   $ Sizing
 "CAssFlo_M_OfficeSm_SZn" = 2036.016   $ Sizing
 "CAssFlo_M_OfficeSm_WZn" = 1964.123   $ Sizing
 "CAssFlo_M_Restrm_CZn" = 255.3736   $ Sizing
 "CAssFlo_M_StorSm_CZn" = 551.8165   $ Sizing
 "CAssFlo_T_Break_CZn" = 470.2663   $ Sizing
 "CAssFlo_T_Conf_CZn" = 596.1685   $ Sizing
 "CAssFlo_T_CopyRm_CZn" = 154.8638   $ Sizing
 "CAssFlo_T_Cordr_CZn" = 1018.593   $ Sizing
 "CAssFlo_T_Cordr_EZn" = 373.5599   $ Sizing
 "CAssFlo_T_Cordr_NZn" = 192.3081   $ Sizing
 "CAssFlo_T_Cordr_SZn" = 350.4106   $ Sizing
 "CAssFlo_T_Cordr_WZn" = 335.5356   $ Sizing
 "CAssFlo_T_LobWait_CZn" = 604.8837   $ Sizing
 "CAssFlo_T_MechElec_CZn" = 251.8088   $ Sizing
 "CAssFlo_T_OfficeOpn_CZn" = 2247.888   $ Sizing
 "CAssFlo_T_OfficeOpn_EZn" = 2639.232   $ Sizing
 "CAssFlo_T_OfficeOpn_NZn" = 1376.047   $ Sizing
 "CAssFlo_T_OfficeOpn_SZn" = 2589.037   $ Sizing
 "CAssFlo_T_OfficeOpn_WZn" = 2463.983   $ Sizing
 "CAssFlo_T_OfficeSm_CZn" = 354.4496   $ Sizing
 "CAssFlo_T_OfficeSm_EZn" = 1972.361   $ Sizing
 "CAssFlo_T_OfficeSm_NZn" = 910.0657   $ Sizing
 "CAssFlo_T_OfficeSm_SZn" = 1940.887   $ Sizing
 "CAssFlo_T_OfficeSm_WZn" = 1856.633   $ Sizing
 "CAssFlo_T_Restrm_CZn" = 255.3736   $ Sizing
 "CAssFlo_T_StorSm_CZn" = 402.7054   $ Sizing
 "CHRtFlo_Sys_L_Break_C" = 462.4461   $ Sizing
 "CHRtFlo_Sys_L_Conf_C" = 559.8962   $ Sizing
 "CHRtFlo_Sys_L_CopyRm_C" = 141.478   $ Sizing
 "CHRtFlo_Sys_L_Cordr_C" = 776.165   $ Sizing
 "CHRtFlo_Sys_L_Cordr_E" = 356.095   $ Sizing
 "CHRtFlo_Sys_L_Cordr_N" = 169.9167   $ Sizing
 "CHRtFlo_Sys_L_Cordr_S" = 330.3459   $ Sizing
 "CHRtFlo_Sys_L_Cordr_W" = 332.5766   $ Sizing
 "CHRtFlo_Sys_L_LobWait_C" = 505.3047   $ Sizing
 "CHRtFlo_Sys_L_MechElec_C" = 166.351   $ Sizing
 "CHRtFlo_Sys_L_OfficeOpn_C" = 2151.9   $ Sizing
 "CHRtFlo_Sys_L_OfficeOpn_E" = 2658.01   $ Sizing
 "CHRtFlo_Sys_L_OfficeOpn_N" = 1316.501   $ Sizing
 "CHRtFlo_Sys_L_OfficeOpn_S" = 2533.331   $ Sizing
 "CHRtFlo_Sys_L_OfficeOpn_W" = 2530.196   $ Sizing
 "CHRtFlo_Sys_L_OfficeSm_C" = 312.6882   $ Sizing
 "CHRtFlo_Sys_L_OfficeSm_E" = 1950.999   $ Sizing
 "CHRtFlo_Sys_L_OfficeSm_N" = 854.1862   $ Sizing
 "CHRtFlo_Sys_L_OfficeSm_S" = 1871.846   $ Sizing
 "CHRtFlo_Sys_L_OfficeSm_W" = 1862.333   $ Sizing
 "CHRtFlo_Sys_L_Restrm_C" = 255.3736   $ Sizing
 "CHRtFlo_Sys_L_StorSm_C" = 503.4145   $ Sizing
 "CHRtFlo_Sys_M_Break_C" = 4128.889   $ Sizing
 "CHRtFlo_Sys_M_Conf_C" = 5184.984   $ Sizing
 "CHRtFlo_Sys_M_CopyRm_C" = 1423.004   $ Sizing
 "CHRtFlo_Sys_M_Cordr_C" = 9586.339   $ Sizing
 "CHRtFlo_Sys_M_Cordr_E" = 3398.793   $ Sizing
 "CHRtFlo_Sys_M_Cordr_N" = 1833.053   $ Sizing
 "CHRtFlo_Sys_M_Cordr_S" = 3097.149   $ Sizing
 "CHRtFlo_Sys_M_Cordr_W" = 2976.58   $ Sizing
 "CHRtFlo_Sys_M_LobWait_C" = 5464.213   $ Sizing
 "CHRtFlo_Sys_M_MechElec_C" = 1760.332   $ Sizing
 "CHRtFlo_Sys_M_OfficeOpn_C" = 20897.73   $ Sizing
 "CHRtFlo_Sys_M_OfficeOpn_E" = 23257.6   $ Sizing
 "CHRtFlo_Sys_M_OfficeOpn_N" = 12101.04   $ Sizing
 "CHRtFlo_Sys_M_OfficeOpn_S" = 22257.61   $ Sizing
 "CHRtFlo_Sys_M_OfficeOpn_W" = 21342.07   $ Sizing
 "CHRtFlo_Sys_M_OfficeSm_C" = 3212.297   $ Sizing
 "CHRtFlo_Sys_M_OfficeSm_E" = 16887.16   $ Sizing
 "CHRtFlo_Sys_M_OfficeSm_N" = 7847.144   $ Sizing
 "CHRtFlo_Sys_M_OfficeSm_S" = 16288.13   $ Sizing
 "CHRtFlo_Sys_M_OfficeSm_W" = 15712.98   $ Sizing
 "CHRtFlo_Sys_M_Restrm_C" = 2042.989   $ Sizing
 "CHRtFlo_Sys_M_StorSm_C" = 4414.532   $ Sizing
 "CHRtFlo_Sys_T_Break_C" = 470.2663   $ Sizing
 "CHRtFlo_Sys_T_Conf_C" = 596.1685   $ Sizing
 "CHRtFlo_Sys_T_CopyRm_C" = 154.8638   $ Sizing
 "CHRtFlo_Sys_T_Cordr_C" = 1018.593   $ Sizing
 "CHRtFlo_Sys_T_Cordr_E" = 373.5599   $ Sizing
 "CHRtFlo_Sys_T_Cordr_N" = 192.3081   $ Sizing
 "CHRtFlo_Sys_T_Cordr_S" = 350.4106   $ Sizing
 "CHRtFlo_Sys_T_Cordr_W" = 335.5356   $ Sizing
 "CHRtFlo_Sys_T_LobWait_C" = 604.8837   $ Sizing
 "CHRtFlo_Sys_T_MechElec_C" = 251.8088   $ Sizing
 "CHRtFlo_Sys_T_OfficeOpn_C" = 2247.888   $ Sizing
 "CHRtFlo_Sys_T_OfficeOpn_E" = 2639.232   $ Sizing
 "CHRtFlo_Sys_T_OfficeOpn_N" = 1376.047   $ Sizing
 "CHRtFlo_Sys_T_OfficeOpn_S" = 2589.037   $ Sizing
 "CHRtFlo_Sys_T_OfficeOpn_W" = 2463.983   $ Sizing
 "CHRtFlo_Sys_T_OfficeSm_C" = 354.4496   $ Sizing
 "CHRtFlo_Sys_T_OfficeSm_E" = 1972.361   $ Sizing
 "CHRtFlo_Sys_T_OfficeSm_N" = 910.0657   $ Sizing
 "CHRtFlo_Sys_T_OfficeSm_S" = 1940.887   $ Sizing
 "CHRtFlo_Sys_T_OfficeSm_W" = 1856.633   $ Sizing
 "CHRtFlo_Sys_T_Restrm_C" = 255.3736   $ Sizing
 "CHRtFlo_Sys_T_StorSm_C" = 402.7054   $ Sizing
 "CRtdFlo_Sys_L_Break_C" = 462.4461   $ Sizing
 "CRtdFlo_Sys_L_Conf_C" = 559.8962   $ Sizing
 "CRtdFlo_Sys_L_CopyRm_C" = 141.478   $ Sizing
 "CRtdFlo_Sys_L_Cordr_C" = 776.165   $ Sizing
 "CRtdFlo_Sys_L_Cordr_E" = 356.095   $ Sizing
 "CRtdFlo_Sys_L_Cordr_N" = 169.9167   $ Sizing
 "CRtdFlo_Sys_L_Cordr_S" = 330.3459   $ Sizing
 "CRtdFlo_Sys_L_Cordr_W" = 332.5766   $ Sizing
 "CRtdFlo_Sys_L_LobWait_C" = 505.3047   $ Sizing
 "CRtdFlo_Sys_L_MechElec_C" = 166.351   $ Sizing
 "CRtdFlo_Sys_L_OfficeOpn_C" = 2151.9   $ Sizing
 "CRtdFlo_Sys_L_OfficeOpn_E" = 2658.01   $ Sizing
 "CRtdFlo_Sys_L_OfficeOpn_N" = 1316.501   $ Sizing
 "CRtdFlo_Sys_L_OfficeOpn_S" = 2533.331   $ Sizing
 "CRtdFlo_Sys_L_OfficeOpn_W" = 2530.196   $ Sizing
 "CRtdFlo_Sys_L_OfficeSm_C" = 312.6882   $ Sizing
 "CRtdFlo_Sys_L_OfficeSm_E" = 1950.999   $ Sizing
 "CRtdFlo_Sys_L_OfficeSm_N" = 854.1862   $ Sizing
 "CRtdFlo_Sys_L_OfficeSm_S" = 1871.846   $ Sizing
 "CRtdFlo_Sys_L_OfficeSm_W" = 1862.333   $ Sizing
 "CRtdFlo_Sys_L_Restrm_C" = 255.3736   $ Sizing
 "CRtdFlo_Sys_L_StorSm_C" = 503.4145   $ Sizing
 "CRtdFlo_Sys_M_Break_C" = 4128.889   $ Sizing
 "CRtdFlo_Sys_M_Conf_C" = 5184.984   $ Sizing
 "CRtdFlo_Sys_M_CopyRm_C" = 1423.004   $ Sizing
 "CRtdFlo_Sys_M_Cordr_C" = 9586.339   $ Sizing
 "CRtdFlo_Sys_M_Cordr_E" = 3398.793   $ Sizing
 "CRtdFlo_Sys_M_Cordr_N" = 1833.053   $ Sizing
 "CRtdFlo_Sys_M_Cordr_S" = 3097.149   $ Sizing
 "CRtdFlo_Sys_M_Cordr_W" = 2976.58   $ Sizing
 "CRtdFlo_Sys_M_LobWait_C" = 5464.213   $ Sizing
 "CRtdFlo_Sys_M_MechElec_C" = 1760.332   $ Sizing
 "CRtdFlo_Sys_M_OfficeOpn_C" = 20897.73   $ Sizing
 "CRtdFlo_Sys_M_OfficeOpn_E" = 23257.6   $ Sizing
 "CRtdFlo_Sys_M_OfficeOpn_N" = 12101.04   $ Sizing
 "CRtdFlo_Sys_M_OfficeOpn_S" = 22257.61   $ Sizing
 "CRtdFlo_Sys_M_OfficeOpn_W" = 21342.07   $ Sizing
 "CRtdFlo_Sys_M_OfficeSm_C" = 3212.297   $ Sizing
 "CRtdFlo_Sys_M_OfficeSm_E" = 16887.16   $ Sizing
 "CRtdFlo_Sys_M_OfficeSm_N" = 7847.144   $ Sizing
 "CRtdFlo_Sys_M_OfficeSm_S" = 16288.13   $ Sizing
 "CRtdFlo_Sys_M_OfficeSm_W" = 15712.98   $ Sizing
 "CRtdFlo_Sys_M_Restrm_C" = 2042.989   $ Sizing
 "CRtdFlo_Sys_M_StorSm_C" = 4414.532   $ Sizing
 "CRtdFlo_Sys_T_Break_C" = 470.2663   $ Sizing
 "CRtdFlo_Sys_T_Conf_C" = 596.1685   $ Sizing
 "CRtdFlo_Sys_T_CopyRm_C" = 154.8638   $ Sizing
 "CRtdFlo_Sys_T_Cordr_C" = 1018.593   $ Sizing
 "CRtdFlo_Sys_T_Cordr_E" = 373.5599   $ Sizing
 "CRtdFlo_Sys_T_Cordr_N" = 192.3081   $ Sizing
 "CRtdFlo_Sys_T_Cordr_S" = 350.4106   $ Sizing
 "CRtdFlo_Sys_T_Cordr_W" = 335.5357   $ Sizing
 "CRtdFlo_Sys_T_LobWait_C" = 604.8837   $ Sizing
 "CRtdFlo_Sys_T_MechElec_C" = 251.8088   $ Sizing
 "CRtdFlo_Sys_T_OfficeOpn_C" = 2247.888   $ Sizing
 "CRtdFlo_Sys_T_OfficeOpn_E" = 2639.232   $ Sizing
 "CRtdFlo_Sys_T_OfficeOpn_N" = 1376.047   $ Sizing
 "CRtdFlo_Sys_T_OfficeOpn_S" = 2589.037   $ Sizing
 "CRtdFlo_Sys_T_OfficeOpn_W" = 2463.983   $ Sizing
 "CRtdFlo_Sys_T_OfficeSm_C" = 354.4496   $ Sizing
 "CRtdFlo_Sys_T_OfficeSm_E" = 1972.361   $ Sizing
 "CRtdFlo_Sys_T_OfficeSm_N" = 910.0657   $ Sizing
 "CRtdFlo_Sys_T_OfficeSm_S" = 1940.887   $ Sizing
 "CRtdFlo_Sys_T_OfficeSm_W" = 1856.633   $ Sizing
 "CRtdFlo_Sys_T_Restrm_C" = 255.3736   $ Sizing
 "CRtdFlo_Sys_T_StorSm_C" = 402.7054   $ Sizing
 "CSupFlo_Sys_L_Break_C" = 462.4461   $ Sizing
 "CSupFlo_Sys_L_Conf_C" = 559.8962   $ Sizing
 "CSupFlo_Sys_L_CopyRm_C" = 141.478   $ Sizing
 "CSupFlo_Sys_L_Cordr_C" = 776.165   $ Sizing
 "CSupFlo_Sys_L_Cordr_E" = 356.095   $ Sizing
 "CSupFlo_Sys_L_Cordr_N" = 169.9167   $ Sizing
 "CSupFlo_Sys_L_Cordr_S" = 330.3459   $ Sizing
 "CSupFlo_Sys_L_Cordr_W" = 332.5766   $ Sizing
 "CSupFlo_Sys_L_LobWait_C" = 505.3047   $ Sizing
 "CSupFlo_Sys_L_MechElec_C" = 166.351   $ Sizing
 "CSupFlo_Sys_L_OfficeOpn_C" = 2151.9   $ Sizing
 "CSupFlo_Sys_L_OfficeOpn_E" = 2658.01   $ Sizing
 "CSupFlo_Sys_L_OfficeOpn_N" = 1316.501   $ Sizing
 "CSupFlo_Sys_L_OfficeOpn_S" = 2533.331   $ Sizing
 "CSupFlo_Sys_L_OfficeOpn_W" = 2530.196   $ Sizing
 "CSupFlo_Sys_L_OfficeSm_C" = 312.6882   $ Sizing
 "CSupFlo_Sys_L_OfficeSm_E" = 1950.999   $ Sizing
 "CSupFlo_Sys_L_OfficeSm_N" = 854.1862   $ Sizing
 "CSupFlo_Sys_L_OfficeSm_S" = 1871.846   $ Sizing
 "CSupFlo_Sys_L_OfficeSm_W" = 1862.333   $ Sizing
 "CSupFlo_Sys_L_Restrm_C" = 255.3736   $ Sizing
 "CSupFlo_Sys_L_StorSm_C" = 503.4145   $ Sizing
 "CSupFlo_Sys_M_Break_C" = 4128.889   $ Sizing
 "CSupFlo_Sys_M_Conf_C" = 5184.984   $ Sizing
 "CSupFlo_Sys_M_CopyRm_C" = 1423.004   $ Sizing
 "CSupFlo_Sys_M_Cordr_C" = 9586.339   $ Sizing
 "CSupFlo_Sys_M_Cordr_E" = 3398.793   $ Sizing
 "CSupFlo_Sys_M_Cordr_N" = 1833.053   $ Sizing
 "CSupFlo_Sys_M_Cordr_S" = 3097.149   $ Sizing
 "CSupFlo_Sys_M_Cordr_W" = 2976.58   $ Sizing
 "CSupFlo_Sys_M_LobWait_C" = 5464.213   $ Sizing
 "CSupFlo_Sys_M_MechElec_C" = 1760.332   $ Sizing
 "CSupFlo_Sys_M_OfficeOpn_C" = 20897.73   $ Sizing
 "CSupFlo_Sys_M_OfficeOpn_E" = 23257.6   $ Sizing
 "CSupFlo_Sys_M_OfficeOpn_N" = 12101.04   $ Sizing
 "CSupFlo_Sys_M_OfficeOpn_S" = 22257.61   $ Sizing
 "CSupFlo_Sys_M_OfficeOpn_W" = 21342.07   $ Sizing
 "CSupFlo_Sys_M_OfficeSm_C" = 3212.297   $ Sizing
 "CSupFlo_Sys_M_OfficeSm_E" = 16887.16   $ Sizing
 "CSupFlo_Sys_M_OfficeSm_N" = 7847.144   $ Sizing
 "CSupFlo_Sys_M_OfficeSm_S" = 16288.13   $ Sizing
 "CSupFlo_Sys_M_OfficeSm_W" = 15712.98   $ Sizing
 "CSupFlo_Sys_M_Restrm_C" = 2042.989   $ Sizing
 "CSupFlo_Sys_M_StorSm_C" = 4414.532   $ Sizing
 "CSupFlo_Sys_T_Break_C" = 470.2663   $ Sizing
 "CSupFlo_Sys_T_Conf_C" = 596.1685   $ Sizing
 "CSupFlo_Sys_T_CopyRm_C" = 154.8638   $ Sizing
 "CSupFlo_Sys_T_Cordr_C" = 1018.593   $ Sizing
 "CSupFlo_Sys_T_Cordr_E" = 373.5599   $ Sizing
 "CSupFlo_Sys_T_Cordr_N" = 192.3081   $ Sizing
 "CSupFlo_Sys_T_Cordr_S" = 350.4106   $ Sizing
 "CSupFlo_Sys_T_Cordr_W" = 335.5356   $ Sizing
 "CSupFlo_Sys_T_LobWait_C" = 604.8837   $ Sizing
 "CSupFlo_Sys_T_MechElec_C" = 251.8088   $ Sizing
 "CSupFlo_Sys_T_OfficeOpn_C" = 2247.888   $ Sizing
 "CSupFlo_Sys_T_OfficeOpn_E" = 2639.232   $ Sizing
 "CSupFlo_Sys_T_OfficeOpn_N" = 1376.047   $ Sizing
 "CSupFlo_Sys_T_OfficeOpn_S" = 2589.037   $ Sizing
 "CSupFlo_Sys_T_OfficeOpn_W" = 2463.983   $ Sizing
 "CSupFlo_Sys_T_OfficeSm_C" = 354.4496   $ Sizing
 "CSupFlo_Sys_T_OfficeSm_E" = 1972.361   $ Sizing
 "CSupFlo_Sys_T_OfficeSm_N" = 910.0657   $ Sizing
 "CSupFlo_Sys_T_OfficeSm_S" = 1940.887   $ Sizing
 "CSupFlo_Sys_T_OfficeSm_W" = 1856.633   $ Sizing
 "CSupFlo_Sys_T_Restrm_C" = 255.3736   $ Sizing
 "CSupFlo_Sys_T_StorSm_C" = 402.7054   $ Sizing
 "ClCap_Sys_L_Break_C" = 13055.41   $ Sizing
 "ClCap_Sys_L_Conf_C" = 20117.43   $ Sizing
 "ClCap_Sys_L_CopyRm_C" = 3994.094   $ Sizing
 "ClCap_Sys_L_Cordr_C" = 21912.08   $ Sizing
 "ClCap_Sys_L_Cordr_E" = 10052.99   $ Sizing
 "ClCap_Sys_L_Cordr_N" = 4796.954   $ Sizing
 "ClCap_Sys_L_Cordr_S" = 9326.065   $ Sizing
 "ClCap_Sys_L_Cordr_W" = 9389.041   $ Sizing
 "ClCap_Sys_L_LobWait_C" = 14265.37   $ Sizing
 "ClCap_Sys_L_MechElec_C" = 4696.291   $ Sizing
 "ClCap_Sys_L_OfficeOpn_C" = 60750.74   $ Sizing
 "ClCap_Sys_L_OfficeOpn_E" = 75038.83   $ Sizing
 "ClCap_Sys_L_OfficeOpn_N" = 37166.42   $ Sizing
 "ClCap_Sys_L_OfficeOpn_S" = 71519.01   $ Sizing
 "ClCap_Sys_L_OfficeOpn_W" = 71430.49   $ Sizing
 "ClCap_Sys_L_OfficeSm_C" = 8827.565   $ Sizing
 "ClCap_Sys_L_OfficeSm_E" = 55079.07   $ Sizing
 "ClCap_Sys_L_OfficeSm_N" = 24114.71   $ Sizing
 "ClCap_Sys_L_OfficeSm_S" = 52844.48   $ Sizing
 "ClCap_Sys_L_OfficeSm_W" = 52575.91   $ Sizing
 "ClCap_Sys_L_Restrm_C" = 7209.506   $ Sizing
 "ClCap_Sys_L_StorSm_C" = 14212   $ Sizing
 "ClCap_Sys_M_Break_C" = 116563.5   $ Sizing
 "ClCap_Sys_M_Conf_C" = 186299.8   $ Sizing
 "ClCap_Sys_M_CopyRm_C" = 40173.13   $ Sizing
 "ClCap_Sys_M_Cordr_C" = 270634   $ Sizing
 "ClCap_Sys_M_Cordr_E" = 95952.05   $ Sizing
 "ClCap_Sys_M_Cordr_N" = 51749.31   $ Sizing
 "ClCap_Sys_M_Cordr_S" = 87436.26   $ Sizing
 "ClCap_Sys_M_Cordr_W" = 84032.45   $ Sizing
 "ClCap_Sys_M_LobWait_C" = 154261.3   $ Sizing
 "ClCap_Sys_M_MechElec_C" = 49696.29   $ Sizing
 "ClCap_Sys_M_OfficeOpn_C" = 589968.2   $ Sizing
 "ClCap_Sys_M_OfficeOpn_E" = 656590.2   $ Sizing
 "ClCap_Sys_M_OfficeOpn_N" = 341627.2   $ Sizing
 "ClCap_Sys_M_OfficeOpn_S" = 628359.3   $ Sizing
 "ClCap_Sys_M_OfficeOpn_W" = 602512.4   $ Sizing
 "ClCap_Sys_M_OfficeSm_C" = 90687.03   $ Sizing
 "ClCap_Sys_M_OfficeSm_E" = 476745   $ Sizing
 "ClCap_Sys_M_OfficeSm_N" = 221534.4   $ Sizing
 "ClCap_Sys_M_OfficeSm_S" = 459833.6   $ Sizing
 "ClCap_Sys_M_OfficeSm_W" = 443596.6   $ Sizing
 "ClCap_Sys_M_Restrm_C" = 57676.05   $ Sizing
 "ClCap_Sys_M_StorSm_C" = 124627.6   $ Sizing
 "ClCap_Sys_T_Break_C" = 13276.19   $ Sizing
 "ClCap_Sys_T_Conf_C" = 21420.71   $ Sizing
 "ClCap_Sys_T_CopyRm_C" = 4371.993   $ Sizing
 "ClCap_Sys_T_Cordr_C" = 28756.11   $ Sizing
 "ClCap_Sys_T_Cordr_E" = 10546.05   $ Sizing
 "ClCap_Sys_T_Cordr_N" = 5429.092   $ Sizing
 "ClCap_Sys_T_Cordr_S" = 9892.517   $ Sizing
 "ClCap_Sys_T_Cordr_W" = 9472.578   $ Sizing
 "ClCap_Sys_T_LobWait_C" = 17076.6   $ Sizing
 "ClCap_Sys_T_MechElec_C" = 7108.868   $ Sizing
 "ClCap_Sys_T_OfficeOpn_C" = 63460.61   $ Sizing
 "ClCap_Sys_T_OfficeOpn_E" = 74508.71   $ Sizing
 "ClCap_Sys_T_OfficeOpn_N" = 38847.47   $ Sizing
 "ClCap_Sys_T_OfficeOpn_S" = 73091.64   $ Sizing
 "ClCap_Sys_T_OfficeOpn_W" = 69561.22   $ Sizing
 "ClCap_Sys_T_OfficeSm_C" = 10006.54   $ Sizing
 "ClCap_Sys_T_OfficeSm_E" = 55682.13   $ Sizing
 "ClCap_Sys_T_OfficeSm_N" = 25692.26   $ Sizing
 "ClCap_Sys_T_OfficeSm_S" = 54793.59   $ Sizing
 "ClCap_Sys_T_OfficeSm_W" = 52414.99   $ Sizing
 "ClCap_Sys_T_Restrm_C" = 7209.506   $ Sizing
 "ClCap_Sys_T_StorSm_C" = 11368.86   $ Sizing
 "HtCap_Sys_L_Break_C" = -24437.29   $ Sizing
 "HtCap_Sys_L_Conf_C" = -30776.01   $ Sizing
 "HtCap_Sys_L_CopyRm_C" = -8767.364   $ Sizing
 "HtCap_Sys_L_Cordr_C" = -32098.92   $ Sizing
 "HtCap_Sys_L_Cordr_E" = -11201.73   $ Sizing
 "HtCap_Sys_L_Cordr_N" = -6484.333   $ Sizing
 "HtCap_Sys_L_Cordr_S" = -10435.76   $ Sizing
 "HtCap_Sys_L_Cordr_W" = -10605.43   $ Sizing
 "HtCap_Sys_L_LobWait_C" = -25953.92   $ Sizing
 "HtCap_Sys_L_MechElec_C" = -6950.852   $ Sizing
 "HtCap_Sys_L_OfficeOpn_C" = -78474.49   $ Sizing
 "HtCap_Sys_L_OfficeOpn_E" = -79541.78   $ Sizing
 "HtCap_Sys_L_OfficeOpn_N" = -45911.46   $ Sizing
 "HtCap_Sys_L_OfficeOpn_S" = -75003.4   $ Sizing
 "HtCap_Sys_L_OfficeOpn_W" = -76279.2   $ Sizing
 "HtCap_Sys_L_OfficeSm_C" = -11192.14   $ Sizing
 "HtCap_Sys_L_OfficeSm_E" = -56800.68   $ Sizing
 "HtCap_Sys_L_OfficeSm_N" = -29546.56   $ Sizing
 "HtCap_Sys_L_OfficeSm_S" = -54687.57   $ Sizing
 "HtCap_Sys_L_OfficeSm_W" = -55079.05   $ Sizing
 "HtCap_Sys_L_Restrm_C" = -7719.503   $ Sizing
 "HtCap_Sys_L_StorSm_C" = -20519.16   $ Sizing
 "HtCap_Sys_M_Break_C" = -206025.1   $ Sizing
 "HtCap_Sys_M_Conf_C" = -263933.4   $ Sizing
 "HtCap_Sys_M_CopyRm_C" = -77461.2   $ Sizing
 "HtCap_Sys_M_Cordr_C" = -339963.5   $ Sizing
 "HtCap_Sys_M_Cordr_E" = -102770.9   $ Sizing
 "HtCap_Sys_M_Cordr_N" = -63807.61   $ Sizing
 "HtCap_Sys_M_Cordr_S" = -94163.5   $ Sizing
 "HtCap_Sys_M_Cordr_W" = -92254.94   $ Sizing
 "HtCap_Sys_M_LobWait_C" = -242993.2   $ Sizing
 "HtCap_Sys_M_MechElec_C" = -65542.13   $ Sizing
 "HtCap_Sys_M_OfficeOpn_C" = -716232.2   $ Sizing
 "HtCap_Sys_M_OfficeOpn_E" = -682398.4   $ Sizing
 "HtCap_Sys_M_OfficeOpn_N" = -405575.3   $ Sizing
 "HtCap_Sys_M_OfficeOpn_S" = -645909.3   $ Sizing
 "HtCap_Sys_M_OfficeOpn_W" = -634576.6   $ Sizing
 "HtCap_Sys_M_OfficeSm_C" = -107161.3   $ Sizing
 "HtCap_Sys_M_OfficeSm_E" = -488648.4   $ Sizing
 "HtCap_Sys_M_OfficeSm_N" = -261540.6   $ Sizing
 "HtCap_Sys_M_OfficeSm_S" = -467740.7   $ Sizing
 "HtCap_Sys_M_OfficeSm_W" = -459007.5   $ Sizing
 "HtCap_Sys_M_Restrm_C" = -66624.46   $ Sizing
 "HtCap_Sys_M_StorSm_C" = -165282.3   $ Sizing
 "HtCap_Sys_T_Break_C" = -25750.46   $ Sizing
 "HtCap_Sys_T_Conf_C" = -32941.38   $ Sizing
 "HtCap_Sys_T_CopyRm_C" = -9329.387   $ Sizing
 "HtCap_Sys_T_Cordr_C" = -44486.58   $ Sizing
 "HtCap_Sys_T_Cordr_E" = -13873.54   $ Sizing
 "HtCap_Sys_T_Cordr_N" = -8223.649   $ Sizing
 "HtCap_Sys_T_Cordr_S" = -13322.95   $ Sizing
 "HtCap_Sys_T_Cordr_W" = -12801.16   $ Sizing
 "HtCap_Sys_T_LobWait_C" = -30671.13   $ Sizing
 "HtCap_Sys_T_MechElec_C" = -8931.12   $ Sizing
 "HtCap_Sys_T_OfficeOpn_C" = -94324.77   $ Sizing
 "HtCap_Sys_T_OfficeOpn_E" = -91792.14   $ Sizing
 "HtCap_Sys_T_OfficeOpn_N" = -55552.96   $ Sizing
 "HtCap_Sys_T_OfficeOpn_S" = -92495.7   $ Sizing
 "HtCap_Sys_T_OfficeOpn_W" = -87232.88   $ Sizing
 "HtCap_Sys_T_OfficeSm_C" = -13956.17   $ Sizing
 "HtCap_Sys_T_OfficeSm_E" = -65846.31   $ Sizing
 "HtCap_Sys_T_OfficeSm_N" = -35725.47   $ Sizing
 "HtCap_Sys_T_OfficeSm_S" = -66339.7   $ Sizing
 "HtCap_Sys_T_OfficeSm_W" = -63275.88   $ Sizing
 "HtCap_Sys_T_Restrm_C" = -10091.61   $ Sizing
 "HtCap_Sys_T_StorSm_C" = -20533   $ Sizing
..

##include Templates\OfL_DX_SZ.inp
END ..
COMPUTE ..
STOP ..
