INPUT ..

##fileprefix C:\Users\jglasskatz\MASControl3\
##set1 IsSizing FALSE
##set1 CoolType DX
##set1 HeatType FURNACE
##set1 EU_HrRepVar 0
##set1 BldgVint 2007
##set1 BldgLoc CZ04

 ##set1 mBFMult 1   $ IP Tech: RefgChg-NRes-Std

PARAMETER
 "AltFactor" = 1.00501   $ IP Non-Tech
 "BF_fFlow" = SpltAC1Sp_BF_fFlow   $ Msr (Var)TechID: PreNResSplitAC-45to-PENo
 "BF_fT" = SpltAC1Sp_BF_fT   $ Msr (Var)TechID: PreNResSplitAC-45to-PENo
 "BldgEconoFlag" = 1   $ IP Non-Tech
 "Break_EWSF" = 1   $ IP Non-Tech
 "Break_LWSF" = 1.1   $ IP Non-Tech
 "CDD_DBHi10" = 82   $ IP Non-Tech
 "CDD_DBHi7" = 91   $ IP Non-Tech
 "CDD_DBHi8" = 88   $ IP Non-Tech
 "CDD_DBHi9" = 95   $ IP Non-Tech
 "CDD_DBRange10" = 29   $ IP Non-Tech
 "CDD_DBRange7" = 33   $ IP Non-Tech
 "CDD_DBRange8" = 27   $ IP Non-Tech
 "CDD_DBRange9" = 35   $ IP Non-Tech
 "CDD_Day10" = 15   $ IP Non-Tech
 "CDD_Day7" = 16   $ IP Non-Tech
 "CDD_Day8" = 20   $ IP Non-Tech
 "CDD_Day9" = 17   $ IP Non-Tech
 "CDD_HrHi10" = 13   $ IP Non-Tech
 "CDD_HrHi7" = 15   $ IP Non-Tech
 "CDD_HrHi8" = 14   $ IP Non-Tech
 "CDD_HrHi9" = 15   $ IP Non-Tech
 "CDD_HrLo10" = 3   $ IP Non-Tech
 "CDD_HrLo7" = 3   $ IP Non-Tech
 "CDD_HrLo8" = 1   $ IP Non-Tech
 "CDD_HrLo9" = 7   $ IP Non-Tech
 "CDD_WB10" = 63.1697731   $ IP Non-Tech
 "CDD_WB7" = 68.42946625   $ IP Non-Tech
 "CDD_WB8" = 67.10523987   $ IP Non-Tech
 "CDD_WB9" = 68.06200409   $ IP Non-Tech
 "CEIR_fPLR_Hot" = SpltAC1Sp_CEIR_fPLR_Hot   $ Msr (Var)TechID: PreNResSplitAC-45to-PENo
 "CEIR_fPLR_Mod" = SpltAC1Sp_CEIR_fPLR_Mod   $ Msr (Var)TechID: PreNResSplitAC-45to-PENo
 "CEIR_fPLR_Tem" = SpltAC1Sp_CEIR_fPLR_Tem   $ Msr (Var)TechID: PreNResSplitAC-45to-PENo
 "CLoss_fPLR_Hot" = SpltAC1Sp_CLoss_fPLR_Hot   $ Msr (Var)TechID: PreNResSplitAC-45to-PENo
 "CLoss_fPLR_Mod" = SpltAC1Sp_CLoss_fPLR_Mod   $ Msr (Var)TechID: PreNResSplitAC-45to-PENo
 "CLoss_fPLR_Tem" = SpltAC1Sp_CLoss_fPLR_Tem   $ Msr (Var)TechID: PreNResSplitAC-45to-PENo
 "COP47" = 0   $ Msr (Var)TechID: PreNResSplitAC-45to-PENo
 "CZ_Category" = Mod   $ IP Non-Tech
 "CapRange" = Any   $ Msr (Var)TechID: PreNResSplitAC-45to-PENo
 "CfmPerBtuh" = 0.0321   $ Msr (Var)TechID: PreNResSplitAC-45to-PENo
 "ChwVintEconoFlag" = 1   $ IP Non-Tech
 "ClCap_fT" = SpltAC1Sp_ClCap_fT   $ Msr (Var)TechID: PreNResSplitAC-45to-PENo
 "ClSH_fT" = SpltAC1Sp_ClSH_fT   $ Msr (Var)TechID: PreNResSplitAC-45to-PENo
 "CoilBF" = 0.12   $ Msr (Var)TechID: PreNResSplitAC-45to-PENo
 "CondWPerBtuh" = 0   $ Msr (Var)TechID: PreNResSplitAC-45to-PENo
 "Conference_EWSF" = 1   $ IP Non-Tech
 "Conference_LWSF" = 1.4   $ IP Non-Tech
 "CoolSensCap" = 0.744   $ Msr (Var)TechID: PreNResSplitAC-45to-PENo
 "CoolSetT" = 45   $ IP Non-Tech
 "CoolType" = DX   $ IP Non-Tech
 "CoolingEIR" = 0.25823   $ Msr (Var)TechID: PreNResSplitAC-45to-PENo
 "CopyRoom_EWSF" = 1.5   $ IP Non-Tech
 "CopyRoom_LWSF" = 1.3   $ IP Non-Tech
 "CorridorStairway_EWSF" = 0.2   $ IP Non-Tech
 "CorridorStairway_LWSF" = 0.6   $ IP Non-Tech
 "CrnkEIR" = 0.0025823   $ Msr (Var)TechID: PreNResSplitAC-45to-PENo
 "CrnkMaxT" = 50   $ Msr (Var)TechID: PreNResSplitAC-45to-PENo
 "DXType" = SplitSEER   $ Msr (Var)TechID: PreNResSplitAC-45to-PENo
 "DesCoolT" = 75   $ IP Non-Tech
 "DesHeatT" = 73   $ IP Non-Tech
 "EER" = 11.07746479   $ Msr (Var)TechID: PreNResSplitAC-45to-PENo
 "EIR_fT" = SpltAC1Sp_EIR_fT   $ Msr (Var)TechID: PreNResSplitAC-45to-PENo
 "EconoCtrl" = FIXED   $ Msr (Multi)TechID: PreNResSplitAC-45to-PENo
 "EconoEnthLimit" = 28   $ IP Non-Tech
 "EconoTempLimit" = 73   $ IP Non-Tech
 "Elevation" = 135   $ IP Non-Tech
 "FanEirPlr" = TwoSpeedFan   $ Msr (Var)TechID: PreNResSplitAC-45to-PENo
 "FanWPerCfm" = 0.348   $ Msr (Var)TechID: PreNResSplitAC-45to-PENo
 "HDD_CloudAmt1" = 0   $ IP Non-Tech
 "HDD_DBHi1" = 57   $ IP Non-Tech
 "HDD_DBRange1" = 28.92485619   $ IP Non-Tech
 "HDD_Day1" = 15   $ IP Non-Tech
 "HDD_HrHi1" = 16   $ IP Non-Tech
 "HDD_HrLo1" = 4   $ IP Non-Tech
 "HDD_WB1" = 44.7   $ IP Non-Tech
 "HDD_WindSpd1" = 13.8   $ IP Non-Tech
 "HIR_fT" = 0   $ Msr (Var)TechID: PreNResSplitAC-45to-PENo
 "HSPF" = 0   $ Msr (Var)TechID: PreNResSplitAC-45to-PENo
 "HeatSrc" = FURNACE   $ IP Non-Tech
 "HeatSrcTU" = HEAT-PUMP   $ IP Non-Tech
 "HeatType" = GasFurn   $ IP Non-Tech
 "HeatTypeTU" = HEAT-PUMP   $ IP Non-Tech
 "HtCap_fT" = 0   $ Msr (Var)TechID: PreNResSplitAC-45to-PENo
 "HtCoolCapRatio" = 0   $ Msr (Var)TechID: PreNResSplitAC-45to-PENo
 "HtgEIR" = 0   $ Msr (Var)TechID: PreNResSplitAC-45to-PENo
 "IndoorFanMode" = CONTINUOUS   $ IP Non-Tech
 "KT_TransferAir" = No   $ IP Non-Tech
 "Latitude" = 37.4   $ IP Non-Tech
 "LobbyWaiting_EWSF" = 0.5   $ IP Non-Tech
 "LobbyWaiting_LWSF" = 1.3   $ IP Non-Tech
 "Longitude" = 122   $ IP Non-Tech
 "LowSpdCapRatio" = 1   $ Msr (Var)TechID: PreNResSplitAC-45to-PENo
 "LowSpdCfmRatio" = 1   $ Msr (Var)TechID: PreNResSplitAC-45to-PENo
 "MZFanMechEff" = 0.58   $ IP Non-Tech
 "MZHasRetFan" = FALSE   $ IP Non-Tech
 "MZ_RFanWPerCfm" = 0.37   $ IP Non-Tech
 "MZ_SFanWPerCfm" = 0.71   $ IP Non-Tech
 "MZ_SupFanStatic" = 2.25   $ IP Non-Tech
 "MaxOAFrac" = 1   $ Msr (Multi)TechID: PreNResSplitAC-45to-PENo
 "MaxSupT_MZ" = 100   $ IP Non-Tech
 "MaxSupT_SZ" = 100   $ IP Non-Tech
 "MaxSupT_TU" = 90   $ IP Non-Tech
 "MechElecRoom_EWSF" = 0.2   $ IP Non-Tech
 "MechElecRoom_LWSF" = 0.7   $ IP Non-Tech
 "MinCfmPerSF" = 0.4   $ IP Non-Tech
 "MinSupT" = 55   $ IP Non-Tech
 "NumStages" = 1   $ Msr (Var)TechID: PreNResSplitAC-45to-PENo
 "OccCoolT" = 76   $ IP Non-Tech
 "OccHeatT" = 72   $ IP Non-Tech
 "OfficeOpen_EWSF" = 1.5   $ IP Non-Tech
 "OfficeOpen_LWSF" = 1.2   $ IP Non-Tech
 "OfficeSmall_EWSF" = 1.5   $ IP Non-Tech
 "OfficeSmall_LWSF" = 1.3   $ IP Non-Tech
 "PkgDxVintEconoFlag" = 0   $ IP Non-Tech
 "Restroom_EWSF" = 0.2   $ IP Non-Tech
 "Restroom_LWSF" = 0.6   $ IP Non-Tech
 "SEER" = 13   $ Msr (Var)TechID: PreNResSplitAC-45to-PENo
 "SZFanMechEff" = 0.58   $ IP Non-Tech
 "SZHasRetFan" = FALSE   $ IP Non-Tech
 "SZ_Is_2Spd" = FALSE   $ IP Non-Tech
 "SZ_SFanWPerCfm" = 0.46   $ IP Non-Tech
 "SZ_SupFanStatic" = 0.75   $ IP Non-Tech
 "Sector" = Any   $ Msr (Var)TechID: PreNResSplitAC-45to-PENo
 "StorageSmlCond_EWSF" = 0.2   $ IP Non-Tech
 "StorageSmlCond_LWSF" = 0.6   $ IP Non-Tech
 "SubType" = AC   $ Msr (Var)TechID: PreNResSplitAC-45to-PENo
 "T24GlzTbl" = CZTbl   $ IP Non-Tech
 "TermUnitFanMechEff" = 1   $ IP Non-Tech
 "TermUnitFanMode" = INTERMITTENT   $ IP Non-Tech
 "TotCoolCap" = 34895   $ Msr (Var)TechID: PreNResSplitAC-45to-PENo
 "TwrSetpt" = 80   $ IP Non-Tech
 "UnocCoolT" = 86   $ IP Non-Tech
 "UnocHeatT" = 62   $ IP Non-Tech
 "UseEconoVintApplic" = FALSE   $ Msr (Multi)TechID: PreNResSplitAC-45to-PENo
 "WlhpVintEconoFlag" = 0   $ IP Non-Tech
 "DuctDT" = 1   $ IP Tech: ComDuctInsul-1
 "DuctAirLoss" = 0   $ IP Tech: ComDuctLeak-0
 "DuctLossOAFrac" = 0   $ IP Tech: ComDuctLeak-0
 "ComRoofInsCalc" = FromUo   $ IP Tech: ComRoofIns-Hvy-0.05
 "ComRoofInsR" = -999   $ IP Tech: ComRoofIns-Hvy-0.05
 "ComRoofUo" = 0.05   $ IP Tech: ComRoofIns-Hvy-0.05
 "ComEWInsCalc" = FromUo   $ IP Tech: ComWallIns-MFrm-0.14
 "ComEWInsR" = -999   $ IP Tech: ComWallIns-MFrm-0.14
 "ComEWUo" = 0.14   $ IP Tech: ComWallIns-MFrm-0.14
 "ComN_SHGC" = 0.61   $ IP Tech: NResWin-ComN-0.77-0.61
 "ComN_UFactor" = 0.77   $ IP Tech: NResWin-ComN-0.77-0.61
 "ComN_VisTrans" = 0.77   $ IP Tech: NResWin-ComN-0.77-0.61
 "ComN_WinCode" = G2600   $ IP Tech: NResWin-ComN-0.77-0.61
 "ComN_WinFrmFrac" = 0.17   $ IP Tech: NResWin-ComN-0.77-0.61
 "ComN_WinFrmU" = 1   $ IP Tech: NResWin-ComN-0.77-0.61
 "ComO_SHGC" = 0.41   $ IP Tech: NResWin-ComO-0.77-0.41
 "ComO_UFactor" = 0.77   $ IP Tech: NResWin-ComO-0.77-0.41
 "ComO_VisTrans" = 0.44   $ IP Tech: NResWin-ComO-0.77-0.41
 "ComO_WinCode" = G2636   $ IP Tech: NResWin-ComO-0.77-0.41
 "ComO_WinFrmFrac" = 0.17   $ IP Tech: NResWin-ComO-0.77-0.41
 "ComO_WinFrmU" = 1   $ IP Tech: NResWin-ComO-0.77-0.41
 "LtgMsrApplic" = ALL   $ IP Tech: NonResLtgRefPre
 "LtgSav_CFL" = 0   $ IP Tech: NonResLtgRefPre
 "LtgSav_EX" = 0   $ IP Tech: NonResLtgRefPre
 "LtgSav_HB" = 0   $ IP Tech: NonResLtgRefPre
 "LtgSav_LF" = 0   $ IP Tech: NonResLtgRefPre
 "LtgSav_SP" = 0   $ IP Tech: NonResLtgRefPre
 "CEIR_fPLR" = PSZ65to135_CEIR_fPLR   $ IP Tech: PkgAC1SpH-65to135-E10
 "CLoss_fPLR" = PSZ65to135_CLoss_fPLR   $ IP Tech: PkgAC1SpH-65to135-E10
 "COP" = -1   $ IP Tech: PkgAC1SpH-65to135-E10
 "HtgFuel" = Gas   $ IP Tech: PkgAC1SpH-65to135-E10
 "IEER" = 11.87   $ IP Tech: PkgAC1SpH-65to135-E10
 "NominalCap" = 15   $ IP Tech: PkgAC1SpH-65to135-E10
 "RatedEER" = 10   $ IP Tech: PkgAC1SpH-65to135-E10
 "RatedSupMtrClass" = HiEff   $ IP Tech: PkgAC1SpH-65to135-E10
 "SizeRange" = 65to135   $ IP Tech: PkgAC1SpH-65to135-E10
 "SupMotEff" = 0.84   $ IP Tech: PkgAC1SpH-65to135-E10
 "Tier" = 0   $ IP Tech: PkgAC1SpH-65to135-E10
 "FanPwrMult" = 1   $ IP Tech: PkgFurn-0.80AFUE
 "FurnAFUE" = 0.8   $ IP Tech: PkgFurn-0.80AFUE
 "FurnEt" = 0.82   $ IP Tech: PkgFurn-0.80AFUE
 "FurnaceAuxKW" = 0.1   $ IP Tech: PkgFurn-0.80AFUE
 "HIR_fPLR" = Furnace-HIR-fPLR   $ IP Tech: PkgFurn-0.80AFUE
 "VSM" = FALSE   $ IP Tech: PkgFurn-0.80AFUE
 "BFMult" = 1   $ IP Tech: RefgChg-NRes-Std
 "CoolEirMult" = 1   $ IP Tech: RefgChg-NRes-Std
 "SensCoolCapMult" = 1   $ IP Tech: RefgChg-NRes-Std
 "TotCoolCapMult" = 1   $ IP Tech: RefgChg-NRes-Std
 "AltAdjFactor" = 1.005014   $ Sizing
 "CAssFlo_L_Break_CZn" = 452.2008   $ Sizing
 "CAssFlo_L_Conf_CZn" = 432.276   $ Sizing
 "CAssFlo_L_CopyRm_CZn" = 136.4191   $ Sizing
 "CAssFlo_L_Cordr_CZn" = 511.5931   $ Sizing
 "CAssFlo_L_Cordr_EZn" = 202.5026   $ Sizing
 "CAssFlo_L_Cordr_NZn" = 129.4526   $ Sizing
 "CAssFlo_L_Cordr_SZn" = 230.8146   $ Sizing
 "CAssFlo_L_Cordr_WZn" = 240.3429   $ Sizing
 "CAssFlo_L_LobWait_CZn" = 435.2393   $ Sizing
 "CAssFlo_L_MechElec_CZn" = 91.89057   $ Sizing
 "CAssFlo_L_OfficeOpn_CZn" = 1604.336   $ Sizing
 "CAssFlo_L_OfficeOpn_EZn" = 1496.196   $ Sizing
 "CAssFlo_L_OfficeOpn_NZn" = 1045.018   $ Sizing
 "CAssFlo_L_OfficeOpn_SZn" = 1658.526   $ Sizing
 "CAssFlo_L_OfficeOpn_WZn" = 1792.869   $ Sizing
 "CAssFlo_L_OfficeSm_CZn" = 197.729   $ Sizing
 "CAssFlo_L_OfficeSm_EZn" = 1068.425   $ Sizing
 "CAssFlo_L_OfficeSm_NZn" = 678.9772   $ Sizing
 "CAssFlo_L_OfficeSm_SZn" = 1184.475   $ Sizing
 "CAssFlo_L_OfficeSm_WZn" = 1268.106   $ Sizing
 "CAssFlo_L_Restrm_CZn" = 77.59894   $ Sizing
 "CAssFlo_L_StorSm_CZn" = 275.7055   $ Sizing
 "CAssFlo_M_Break_CZn" = 457.7748   $ Sizing
 "CAssFlo_M_Conf_CZn" = 435.5503   $ Sizing
 "CAssFlo_M_CopyRm_CZn" = 138.1372   $ Sizing
 "CAssFlo_M_Cordr_CZn" = 700.7297   $ Sizing
 "CAssFlo_M_Cordr_EZn" = 237.7537   $ Sizing
 "CAssFlo_M_Cordr_NZn" = 153.7763   $ Sizing
 "CAssFlo_M_Cordr_SZn" = 261.5966   $ Sizing
 "CAssFlo_M_Cordr_WZn" = 263.1214   $ Sizing
 "CAssFlo_M_LobWait_CZn" = 456.2998   $ Sizing
 "CAssFlo_M_MechElec_CZn" = 106.9078   $ Sizing
 "CAssFlo_M_OfficeOpn_CZn" = 1612.98   $ Sizing
 "CAssFlo_M_OfficeOpn_EZn" = 1621.789   $ Sizing
 "CAssFlo_M_OfficeOpn_NZn" = 1131.388   $ Sizing
 "CAssFlo_M_OfficeOpn_SZn" = 1785.058   $ Sizing
 "CAssFlo_M_OfficeOpn_WZn" = 1868.228   $ Sizing
 "CAssFlo_M_OfficeSm_CZn" = 217.8922   $ Sizing
 "CAssFlo_M_OfficeSm_EZn" = 1145.894   $ Sizing
 "CAssFlo_M_OfficeSm_NZn" = 736.0892   $ Sizing
 "CAssFlo_M_OfficeSm_SZn" = 1263.354   $ Sizing
 "CAssFlo_M_OfficeSm_WZn" = 1312.992   $ Sizing
 "CAssFlo_M_Restrm_CZn" = 84.58052   $ Sizing
 "CAssFlo_M_StorSm_CZn" = 297.0797   $ Sizing
 "CAssFlo_T_Break_CZn" = 451.0625   $ Sizing
 "CAssFlo_T_Conf_CZn" = 428.9446   $ Sizing
 "CAssFlo_T_CopyRm_CZn" = 134.184   $ Sizing
 "CAssFlo_T_Cordr_CZn" = 610.7719   $ Sizing
 "CAssFlo_T_Cordr_EZn" = 227.5714   $ Sizing
 "CAssFlo_T_Cordr_NZn" = 152.9163   $ Sizing
 "CAssFlo_T_Cordr_SZn" = 256.0464   $ Sizing
 "CAssFlo_T_Cordr_WZn" = 254.2894   $ Sizing
 "CAssFlo_T_LobWait_CZn" = 450.2014   $ Sizing
 "CAssFlo_T_MechElec_CZn" = 125.059   $ Sizing
 "CAssFlo_T_OfficeOpn_CZn" = 1626.014   $ Sizing
 "CAssFlo_T_OfficeOpn_EZn" = 1575.949   $ Sizing
 "CAssFlo_T_OfficeOpn_NZn" = 1139.855   $ Sizing
 "CAssFlo_T_OfficeOpn_SZn" = 1769.139   $ Sizing
 "CAssFlo_T_OfficeOpn_WZn" = 1818.649   $ Sizing
 "CAssFlo_T_OfficeSm_CZn" = 217.9598   $ Sizing
 "CAssFlo_T_OfficeSm_EZn" = 1152.818   $ Sizing
 "CAssFlo_T_OfficeSm_NZn" = 750.8246   $ Sizing
 "CAssFlo_T_OfficeSm_SZn" = 1272.594   $ Sizing
 "CAssFlo_T_OfficeSm_WZn" = 1304.15   $ Sizing
 "CAssFlo_T_Restrm_CZn" = 111.264   $ Sizing
 "CAssFlo_T_StorSm_CZn" = 213.972   $ Sizing
 "CHRtFlo_Sys_L_Break_C" = 452.2007   $ Sizing
 "CHRtFlo_Sys_L_Conf_C" = 446.7366   $ Sizing
 "CHRtFlo_Sys_L_CopyRm_C" = 136.4191   $ Sizing
 "CHRtFlo_Sys_L_Cordr_C" = 584.5046   $ Sizing
 "CHRtFlo_Sys_L_Cordr_E" = 258.5369   $ Sizing
 "CHRtFlo_Sys_L_Cordr_N" = 129.4526   $ Sizing
 "CHRtFlo_Sys_L_Cordr_S" = 261.8939   $ Sizing
 "CHRtFlo_Sys_L_Cordr_W" = 254.5366   $ Sizing
 "CHRtFlo_Sys_L_LobWait_C" = 435.2392   $ Sizing
 "CHRtFlo_Sys_L_MechElec_C" = 133.8343   $ Sizing
 "CHRtFlo_Sys_L_OfficeOpn_C" = 1733.918   $ Sizing
 "CHRtFlo_Sys_L_OfficeOpn_E" = 1927.468   $ Sizing
 "CHRtFlo_Sys_L_OfficeOpn_N" = 1100.85   $ Sizing
 "CHRtFlo_Sys_L_OfficeOpn_S" = 1943.501   $ Sizing
 "CHRtFlo_Sys_L_OfficeOpn_W" = 1968.809   $ Sizing
 "CHRtFlo_Sys_L_OfficeSm_C" = 234.2999   $ Sizing
 "CHRtFlo_Sys_L_OfficeSm_E" = 1393.176   $ Sizing
 "CHRtFlo_Sys_L_OfficeSm_N" = 726.614   $ Sizing
 "CHRtFlo_Sys_L_OfficeSm_S" = 1427.267   $ Sizing
 "CHRtFlo_Sys_L_OfficeSm_W" = 1420.312   $ Sizing
 "CHRtFlo_Sys_L_Restrm_C" = 211.3316   $ Sizing
 "CHRtFlo_Sys_L_StorSm_C" = 386.8125   $ Sizing
 "CHRtFlo_Sys_M_Break_C" = 3662.198   $ Sizing
 "CHRtFlo_Sys_M_Conf_C" = 4047.093   $ Sizing
 "CHRtFlo_Sys_M_CopyRm_C" = 1161.433   $ Sizing
 "CHRtFlo_Sys_M_Cordr_C" = 7525.114   $ Sizing
 "CHRtFlo_Sys_M_Cordr_E" = 2461.381   $ Sizing
 "CHRtFlo_Sys_M_Cordr_N" = 1275.977   $ Sizing
 "CHRtFlo_Sys_M_Cordr_S" = 2415.51   $ Sizing
 "CHRtFlo_Sys_M_Cordr_W" = 2269.687   $ Sizing
 "CHRtFlo_Sys_M_LobWait_C" = 4204.012   $ Sizing
 "CHRtFlo_Sys_M_MechElec_C" = 1359.787   $ Sizing
 "CHRtFlo_Sys_M_OfficeOpn_C" = 16688.33   $ Sizing
 "CHRtFlo_Sys_M_OfficeOpn_E" = 16828.14   $ Sizing
 "CHRtFlo_Sys_M_OfficeOpn_N" = 9699.981   $ Sizing
 "CHRtFlo_Sys_M_OfficeOpn_S" = 16982.03   $ Sizing
 "CHRtFlo_Sys_M_OfficeOpn_W" = 16526.82   $ Sizing
 "CHRtFlo_Sys_M_OfficeSm_C" = 2379.098   $ Sizing
 "CHRtFlo_Sys_M_OfficeSm_E" = 12002.18   $ Sizing
 "CHRtFlo_Sys_M_OfficeSm_N" = 6399.678   $ Sizing
 "CHRtFlo_Sys_M_OfficeSm_S" = 12330.17   $ Sizing
 "CHRtFlo_Sys_M_OfficeSm_W" = 11825.54   $ Sizing
 "CHRtFlo_Sys_M_Restrm_C" = 1690.653   $ Sizing
 "CHRtFlo_Sys_M_StorSm_C" = 3376.896   $ Sizing
 "CHRtFlo_Sys_T_Break_C" = 451.0625   $ Sizing
 "CHRtFlo_Sys_T_Conf_C" = 464.3682   $ Sizing
 "CHRtFlo_Sys_T_CopyRm_C" = 134.184   $ Sizing
 "CHRtFlo_Sys_T_Cordr_C" = 806.4062   $ Sizing
 "CHRtFlo_Sys_T_Cordr_E" = 270.4406   $ Sizing
 "CHRtFlo_Sys_T_Cordr_N" = 152.9163   $ Sizing
 "CHRtFlo_Sys_T_Cordr_S" = 273.4607   $ Sizing
 "CHRtFlo_Sys_T_Cordr_W" = 256.695   $ Sizing
 "CHRtFlo_Sys_T_LobWait_C" = 465.8831   $ Sizing
 "CHRtFlo_Sys_T_MechElec_C" = 187.2512   $ Sizing
 "CHRtFlo_Sys_T_OfficeOpn_C" = 1844.718   $ Sizing
 "CHRtFlo_Sys_T_OfficeOpn_E" = 1901.931   $ Sizing
 "CHRtFlo_Sys_T_OfficeOpn_N" = 1139.855   $ Sizing
 "CHRtFlo_Sys_T_OfficeOpn_S" = 1972.898   $ Sizing
 "CHRtFlo_Sys_T_OfficeOpn_W" = 1894.498   $ Sizing
 "CHRtFlo_Sys_T_OfficeSm_C" = 274.8007   $ Sizing
 "CHRtFlo_Sys_T_OfficeSm_E" = 1398.289   $ Sizing
 "CHRtFlo_Sys_T_OfficeSm_N" = 759.7199   $ Sizing
 "CHRtFlo_Sys_T_OfficeSm_S" = 1467.111   $ Sizing
 "CHRtFlo_Sys_T_OfficeSm_W" = 1388.66   $ Sizing
 "CHRtFlo_Sys_T_Restrm_C" = 211.3316   $ Sizing
 "CHRtFlo_Sys_T_StorSm_C" = 333.2543   $ Sizing
 "CRtdFlo_Sys_L_Break_C" = 452.2007   $ Sizing
 "CRtdFlo_Sys_L_Conf_C" = 432.276   $ Sizing
 "CRtdFlo_Sys_L_CopyRm_C" = 136.4191   $ Sizing
 "CRtdFlo_Sys_L_Cordr_C" = 511.5931   $ Sizing
 "CRtdFlo_Sys_L_Cordr_E" = 202.5026   $ Sizing
 "CRtdFlo_Sys_L_Cordr_N" = 129.4526   $ Sizing
 "CRtdFlo_Sys_L_Cordr_S" = 230.8146   $ Sizing
 "CRtdFlo_Sys_L_Cordr_W" = 240.3429   $ Sizing
 "CRtdFlo_Sys_L_LobWait_C" = 435.2392   $ Sizing
 "CRtdFlo_Sys_L_MechElec_C" = 91.89057   $ Sizing
 "CRtdFlo_Sys_L_OfficeOpn_C" = 1604.336   $ Sizing
 "CRtdFlo_Sys_L_OfficeOpn_E" = 1496.196   $ Sizing
 "CRtdFlo_Sys_L_OfficeOpn_N" = 1045.018   $ Sizing
 "CRtdFlo_Sys_L_OfficeOpn_S" = 1658.526   $ Sizing
 "CRtdFlo_Sys_L_OfficeOpn_W" = 1792.87   $ Sizing
 "CRtdFlo_Sys_L_OfficeSm_C" = 197.729   $ Sizing
 "CRtdFlo_Sys_L_OfficeSm_E" = 1068.425   $ Sizing
 "CRtdFlo_Sys_L_OfficeSm_N" = 678.9772   $ Sizing
 "CRtdFlo_Sys_L_OfficeSm_S" = 1184.475   $ Sizing
 "CRtdFlo_Sys_L_OfficeSm_W" = 1268.106   $ Sizing
 "CRtdFlo_Sys_L_Restrm_C" = 77.59894   $ Sizing
 "CRtdFlo_Sys_L_StorSm_C" = 275.7055   $ Sizing
 "CRtdFlo_Sys_M_Break_C" = 3662.198   $ Sizing
 "CRtdFlo_Sys_M_Conf_C" = 3484.403   $ Sizing
 "CRtdFlo_Sys_M_CopyRm_C" = 1105.097   $ Sizing
 "CRtdFlo_Sys_M_Cordr_C" = 5605.838   $ Sizing
 "CRtdFlo_Sys_M_Cordr_E" = 1902.029   $ Sizing
 "CRtdFlo_Sys_M_Cordr_N" = 1230.21   $ Sizing
 "CRtdFlo_Sys_M_Cordr_S" = 2092.773   $ Sizing
 "CRtdFlo_Sys_M_Cordr_W" = 2104.971   $ Sizing
 "CRtdFlo_Sys_M_LobWait_C" = 3650.399   $ Sizing
 "CRtdFlo_Sys_M_MechElec_C" = 855.262   $ Sizing
 "CRtdFlo_Sys_M_OfficeOpn_C" = 12903.84   $ Sizing
 "CRtdFlo_Sys_M_OfficeOpn_E" = 12974.31   $ Sizing
 "CRtdFlo_Sys_M_OfficeOpn_N" = 9051.101   $ Sizing
 "CRtdFlo_Sys_M_OfficeOpn_S" = 14280.46   $ Sizing
 "CRtdFlo_Sys_M_OfficeOpn_W" = 14945.82   $ Sizing
 "CRtdFlo_Sys_M_OfficeSm_C" = 1743.137   $ Sizing
 "CRtdFlo_Sys_M_OfficeSm_E" = 9167.15   $ Sizing
 "CRtdFlo_Sys_M_OfficeSm_N" = 5888.713   $ Sizing
 "CRtdFlo_Sys_M_OfficeSm_S" = 10106.83   $ Sizing
 "CRtdFlo_Sys_M_OfficeSm_W" = 10503.94   $ Sizing
 "CRtdFlo_Sys_M_Restrm_C" = 676.6442   $ Sizing
 "CRtdFlo_Sys_M_StorSm_C" = 2376.637   $ Sizing
 "CRtdFlo_Sys_T_Break_C" = 451.0625   $ Sizing
 "CRtdFlo_Sys_T_Conf_C" = 428.9446   $ Sizing
 "CRtdFlo_Sys_T_CopyRm_C" = 134.184   $ Sizing
 "CRtdFlo_Sys_T_Cordr_C" = 610.7719   $ Sizing
 "CRtdFlo_Sys_T_Cordr_E" = 227.5714   $ Sizing
 "CRtdFlo_Sys_T_Cordr_N" = 152.9163   $ Sizing
 "CRtdFlo_Sys_T_Cordr_S" = 256.0464   $ Sizing
 "CRtdFlo_Sys_T_Cordr_W" = 254.2894   $ Sizing
 "CRtdFlo_Sys_T_LobWait_C" = 450.2014   $ Sizing
 "CRtdFlo_Sys_T_MechElec_C" = 125.059   $ Sizing
 "CRtdFlo_Sys_T_OfficeOpn_C" = 1626.014   $ Sizing
 "CRtdFlo_Sys_T_OfficeOpn_E" = 1575.949   $ Sizing
 "CRtdFlo_Sys_T_OfficeOpn_N" = 1139.855   $ Sizing
 "CRtdFlo_Sys_T_OfficeOpn_S" = 1769.139   $ Sizing
 "CRtdFlo_Sys_T_OfficeOpn_W" = 1818.649   $ Sizing
 "CRtdFlo_Sys_T_OfficeSm_C" = 217.9599   $ Sizing
 "CRtdFlo_Sys_T_OfficeSm_E" = 1152.818   $ Sizing
 "CRtdFlo_Sys_T_OfficeSm_N" = 750.8246   $ Sizing
 "CRtdFlo_Sys_T_OfficeSm_S" = 1272.594   $ Sizing
 "CRtdFlo_Sys_T_OfficeSm_W" = 1304.15   $ Sizing
 "CRtdFlo_Sys_T_Restrm_C" = 111.264   $ Sizing
 "CRtdFlo_Sys_T_StorSm_C" = 213.972   $ Sizing
 "CSupFlo_Sys_L_Break_C" = 452.2007   $ Sizing
 "CSupFlo_Sys_L_Conf_C" = 432.276   $ Sizing
 "CSupFlo_Sys_L_CopyRm_C" = 136.4191   $ Sizing
 "CSupFlo_Sys_L_Cordr_C" = 511.5931   $ Sizing
 "CSupFlo_Sys_L_Cordr_E" = 202.5026   $ Sizing
 "CSupFlo_Sys_L_Cordr_N" = 129.4526   $ Sizing
 "CSupFlo_Sys_L_Cordr_S" = 230.8146   $ Sizing
 "CSupFlo_Sys_L_Cordr_W" = 240.3429   $ Sizing
 "CSupFlo_Sys_L_LobWait_C" = 435.2392   $ Sizing
 "CSupFlo_Sys_L_MechElec_C" = 91.89057   $ Sizing
 "CSupFlo_Sys_L_OfficeOpn_C" = 1604.336   $ Sizing
 "CSupFlo_Sys_L_OfficeOpn_E" = 1496.196   $ Sizing
 "CSupFlo_Sys_L_OfficeOpn_N" = 1045.018   $ Sizing
 "CSupFlo_Sys_L_OfficeOpn_S" = 1658.526   $ Sizing
 "CSupFlo_Sys_L_OfficeOpn_W" = 1792.87   $ Sizing
 "CSupFlo_Sys_L_OfficeSm_C" = 197.729   $ Sizing
 "CSupFlo_Sys_L_OfficeSm_E" = 1068.425   $ Sizing
 "CSupFlo_Sys_L_OfficeSm_N" = 678.9772   $ Sizing
 "CSupFlo_Sys_L_OfficeSm_S" = 1184.475   $ Sizing
 "CSupFlo_Sys_L_OfficeSm_W" = 1268.106   $ Sizing
 "CSupFlo_Sys_L_Restrm_C" = 77.59894   $ Sizing
 "CSupFlo_Sys_L_StorSm_C" = 275.7055   $ Sizing
 "CSupFlo_Sys_M_Break_C" = 3662.198   $ Sizing
 "CSupFlo_Sys_M_Conf_C" = 3484.403   $ Sizing
 "CSupFlo_Sys_M_CopyRm_C" = 1105.097   $ Sizing
 "CSupFlo_Sys_M_Cordr_C" = 5605.838   $ Sizing
 "CSupFlo_Sys_M_Cordr_E" = 1902.029   $ Sizing
 "CSupFlo_Sys_M_Cordr_N" = 1230.21   $ Sizing
 "CSupFlo_Sys_M_Cordr_S" = 2092.773   $ Sizing
 "CSupFlo_Sys_M_Cordr_W" = 2104.971   $ Sizing
 "CSupFlo_Sys_M_LobWait_C" = 3650.399   $ Sizing
 "CSupFlo_Sys_M_MechElec_C" = 855.262   $ Sizing
 "CSupFlo_Sys_M_OfficeOpn_C" = 12903.84   $ Sizing
 "CSupFlo_Sys_M_OfficeOpn_E" = 12974.31   $ Sizing
 "CSupFlo_Sys_M_OfficeOpn_N" = 9051.101   $ Sizing
 "CSupFlo_Sys_M_OfficeOpn_S" = 14280.46   $ Sizing
 "CSupFlo_Sys_M_OfficeOpn_W" = 14945.82   $ Sizing
 "CSupFlo_Sys_M_OfficeSm_C" = 1743.137   $ Sizing
 "CSupFlo_Sys_M_OfficeSm_E" = 9167.15   $ Sizing
 "CSupFlo_Sys_M_OfficeSm_N" = 5888.713   $ Sizing
 "CSupFlo_Sys_M_OfficeSm_S" = 10106.83   $ Sizing
 "CSupFlo_Sys_M_OfficeSm_W" = 10503.94   $ Sizing
 "CSupFlo_Sys_M_Restrm_C" = 676.6442   $ Sizing
 "CSupFlo_Sys_M_StorSm_C" = 2376.637   $ Sizing
 "CSupFlo_Sys_T_Break_C" = 451.0625   $ Sizing
 "CSupFlo_Sys_T_Conf_C" = 428.9446   $ Sizing
 "CSupFlo_Sys_T_CopyRm_C" = 134.184   $ Sizing
 "CSupFlo_Sys_T_Cordr_C" = 610.7719   $ Sizing
 "CSupFlo_Sys_T_Cordr_E" = 227.5714   $ Sizing
 "CSupFlo_Sys_T_Cordr_N" = 152.9163   $ Sizing
 "CSupFlo_Sys_T_Cordr_S" = 256.0464   $ Sizing
 "CSupFlo_Sys_T_Cordr_W" = 254.2894   $ Sizing
 "CSupFlo_Sys_T_LobWait_C" = 450.2014   $ Sizing
 "CSupFlo_Sys_T_MechElec_C" = 125.059   $ Sizing
 "CSupFlo_Sys_T_OfficeOpn_C" = 1626.014   $ Sizing
 "CSupFlo_Sys_T_OfficeOpn_E" = 1575.949   $ Sizing
 "CSupFlo_Sys_T_OfficeOpn_N" = 1139.855   $ Sizing
 "CSupFlo_Sys_T_OfficeOpn_S" = 1769.139   $ Sizing
 "CSupFlo_Sys_T_OfficeOpn_W" = 1818.649   $ Sizing
 "CSupFlo_Sys_T_OfficeSm_C" = 217.9599   $ Sizing
 "CSupFlo_Sys_T_OfficeSm_E" = 1152.818   $ Sizing
 "CSupFlo_Sys_T_OfficeSm_N" = 750.8246   $ Sizing
 "CSupFlo_Sys_T_OfficeSm_S" = 1272.594   $ Sizing
 "CSupFlo_Sys_T_OfficeSm_W" = 1304.15   $ Sizing
 "CSupFlo_Sys_T_Restrm_C" = 111.264   $ Sizing
 "CSupFlo_Sys_T_StorSm_C" = 213.972   $ Sizing
 "ClCap_Sys_L_Break_C" = 15426.68   $ Sizing
 "ClCap_Sys_L_Conf_C" = 18768.85   $ Sizing
 "ClCap_Sys_L_CopyRm_C" = 4653.891   $ Sizing
 "ClCap_Sys_L_Cordr_C" = 17452.83   $ Sizing
 "ClCap_Sys_L_Cordr_E" = 6908.31   $ Sizing
 "ClCap_Sys_L_Cordr_N" = 4416.231   $ Sizing
 "ClCap_Sys_L_Cordr_S" = 7874.162   $ Sizing
 "ClCap_Sys_L_Cordr_W" = 8199.218   $ Sizing
 "ClCap_Sys_L_LobWait_C" = 14848.04   $ Sizing
 "ClCap_Sys_L_MechElec_C" = 3134.816   $ Sizing
 "ClCap_Sys_L_OfficeOpn_C" = 54731.4   $ Sizing
 "ClCap_Sys_L_OfficeOpn_E" = 51042.22   $ Sizing
 "ClCap_Sys_L_OfficeOpn_N" = 35650.44   $ Sizing
 "ClCap_Sys_L_OfficeOpn_S" = 56580.05   $ Sizing
 "ClCap_Sys_L_OfficeOpn_W" = 61163.14   $ Sizing
 "ClCap_Sys_L_OfficeSm_C" = 6745.46   $ Sizing
 "ClCap_Sys_L_OfficeSm_E" = 36448.96   $ Sizing
 "ClCap_Sys_L_OfficeSm_N" = 23163.08   $ Sizing
 "ClCap_Sys_L_OfficeSm_S" = 40407.98   $ Sizing
 "ClCap_Sys_L_OfficeSm_W" = 43261.02   $ Sizing
 "ClCap_Sys_L_Restrm_C" = 2647.262   $ Sizing
 "ClCap_Sys_L_StorSm_C" = 9405.603   $ Sizing
 "ClCap_Sys_M_Break_C" = 124934.7   $ Sizing
 "ClCap_Sys_M_Conf_C" = 151288.1   $ Sizing
 "ClCap_Sys_M_CopyRm_C" = 37700.02   $ Sizing
 "ClCap_Sys_M_Cordr_C" = 191241.3   $ Sizing
 "ClCap_Sys_M_Cordr_E" = 64887.09   $ Sizing
 "ClCap_Sys_M_Cordr_N" = 41968.21   $ Sizing
 "ClCap_Sys_M_Cordr_S" = 71394.25   $ Sizing
 "ClCap_Sys_M_Cordr_W" = 71810.38   $ Sizing
 "ClCap_Sys_M_LobWait_C" = 124532.1   $ Sizing
 "ClCap_Sys_M_MechElec_C" = 29176.98   $ Sizing
 "ClCap_Sys_M_OfficeOpn_C" = 440210.1   $ Sizing
 "ClCap_Sys_M_OfficeOpn_E" = 442614.3   $ Sizing
 "ClCap_Sys_M_OfficeOpn_N" = 308775.3   $ Sizing
 "ClCap_Sys_M_OfficeOpn_S" = 487173.2   $ Sizing
 "ClCap_Sys_M_OfficeOpn_W" = 509871.7   $ Sizing
 "ClCap_Sys_M_OfficeSm_C" = 59466.55   $ Sizing
 "ClCap_Sys_M_OfficeSm_E" = 312734.3   $ Sizing
 "ClCap_Sys_M_OfficeSm_N" = 200891.5   $ Sizing
 "ClCap_Sys_M_OfficeSm_S" = 344791.2   $ Sizing
 "ClCap_Sys_M_OfficeSm_W" = 358338.3   $ Sizing
 "ClCap_Sys_M_Restrm_C" = 23083.49   $ Sizing
 "ClCap_Sys_M_StorSm_C" = 81078.18   $ Sizing
 "ClCap_Sys_T_Break_C" = 15387.85   $ Sizing
 "ClCap_Sys_T_Conf_C" = 18624.2   $ Sizing
 "ClCap_Sys_T_CopyRm_C" = 4577.642   $ Sizing
 "ClCap_Sys_T_Cordr_C" = 20836.28   $ Sizing
 "ClCap_Sys_T_Cordr_E" = 7763.521   $ Sizing
 "ClCap_Sys_T_Cordr_N" = 5216.688   $ Sizing
 "ClCap_Sys_T_Cordr_S" = 8734.938   $ Sizing
 "ClCap_Sys_T_Cordr_W" = 8674.999   $ Sizing
 "ClCap_Sys_T_LobWait_C" = 15358.47   $ Sizing
 "ClCap_Sys_T_MechElec_C" = 4266.346   $ Sizing
 "ClCap_Sys_T_OfficeOpn_C" = 55470.91   $ Sizing
 "ClCap_Sys_T_OfficeOpn_E" = 53762.97   $ Sizing
 "ClCap_Sys_T_OfficeOpn_N" = 38885.79   $ Sizing
 "ClCap_Sys_T_OfficeOpn_S" = 60353.59   $ Sizing
 "ClCap_Sys_T_OfficeOpn_W" = 62042.61   $ Sizing
 "ClCap_Sys_T_OfficeSm_C" = 7435.627   $ Sizing
 "ClCap_Sys_T_OfficeSm_E" = 39328   $ Sizing
 "ClCap_Sys_T_OfficeSm_N" = 25614.13   $ Sizing
 "ClCap_Sys_T_OfficeSm_S" = 43414.12   $ Sizing
 "ClCap_Sys_T_OfficeSm_W" = 44490.65   $ Sizing
 "ClCap_Sys_T_Restrm_C" = 3795.735   $ Sizing
 "ClCap_Sys_T_StorSm_C" = 7299.583   $ Sizing
 "HtCap_Sys_L_Break_C" = -26356.73   $ Sizing
 "HtCap_Sys_L_Conf_C" = -27274.56   $ Sizing
 "HtCap_Sys_L_CopyRm_C" = -9288.908   $ Sizing
 "HtCap_Sys_L_Cordr_C" = -27735.04   $ Sizing
 "HtCap_Sys_L_Cordr_E" = -9473.094   $ Sizing
 "HtCap_Sys_L_Cordr_N" = -5683.373   $ Sizing
 "HtCap_Sys_L_Cordr_S" = -9439.723   $ Sizing
 "HtCap_Sys_L_Cordr_W" = -9347.839   $ Sizing
 "HtCap_Sys_L_LobWait_C" = -25092.81   $ Sizing
 "HtCap_Sys_L_MechElec_C" = -6344.938   $ Sizing
 "HtCap_Sys_L_OfficeOpn_C" = -84560.3   $ Sizing
 "HtCap_Sys_L_OfficeOpn_E" = -66994.19   $ Sizing
 "HtCap_Sys_L_OfficeOpn_N" = -42835.93   $ Sizing
 "HtCap_Sys_L_OfficeOpn_S" = -66408.42   $ Sizing
 "HtCap_Sys_L_OfficeOpn_W" = -68120.33   $ Sizing
 "HtCap_Sys_L_OfficeSm_C" = -9703.944   $ Sizing
 "HtCap_Sys_L_OfficeSm_E" = -47247.99   $ Sizing
 "HtCap_Sys_L_OfficeSm_N" = -28220.99   $ Sizing
 "HtCap_Sys_L_OfficeSm_S" = -48501.07   $ Sizing
 "HtCap_Sys_L_OfficeSm_W" = -48883.54   $ Sizing
 "HtCap_Sys_L_Restrm_C" = -7706.457   $ Sizing
 "HtCap_Sys_L_StorSm_C" = -17861.41   $ Sizing
 "HtCap_Sys_M_Break_C" = -203451.8   $ Sizing
 "HtCap_Sys_M_Conf_C" = -232193.5   $ Sizing
 "HtCap_Sys_M_CopyRm_C" = -69426.5   $ Sizing
 "HtCap_Sys_M_Cordr_C" = -304255.4   $ Sizing
 "HtCap_Sys_M_Cordr_E" = -87072.45   $ Sizing
 "HtCap_Sys_M_Cordr_N" = -52311.1   $ Sizing
 "HtCap_Sys_M_Cordr_S" = -84799.53   $ Sizing
 "HtCap_Sys_M_Cordr_W" = -81395.46   $ Sizing
 "HtCap_Sys_M_LobWait_C" = -213164.9   $ Sizing
 "HtCap_Sys_M_MechElec_C" = -58883.3   $ Sizing
 "HtCap_Sys_M_OfficeOpn_C" = -648253.8   $ Sizing
 "HtCap_Sys_M_OfficeOpn_E" = -575560   $ Sizing
 "HtCap_Sys_M_OfficeOpn_N" = -368127.6   $ Sizing
 "HtCap_Sys_M_OfficeOpn_S" = -570332.6   $ Sizing
 "HtCap_Sys_M_OfficeOpn_W" = -566165.5   $ Sizing
 "HtCap_Sys_M_OfficeSm_C" = -92427.4   $ Sizing
 "HtCap_Sys_M_OfficeSm_E" = -405342.8   $ Sizing
 "HtCap_Sys_M_OfficeSm_N" = -242736.8   $ Sizing
 "HtCap_Sys_M_OfficeSm_S" = -413894.5   $ Sizing
 "HtCap_Sys_M_OfficeSm_W" = -403473.9   $ Sizing
 "HtCap_Sys_M_Restrm_C" = -66349.3   $ Sizing
 "HtCap_Sys_M_StorSm_C" = -146191.5   $ Sizing
 "HtCap_Sys_T_Break_C" = -26850.22   $ Sizing
 "HtCap_Sys_T_Conf_C" = -28596.77   $ Sizing
 "HtCap_Sys_T_CopyRm_C" = -8666.543   $ Sizing
 "HtCap_Sys_T_Cordr_C" = -38106.15   $ Sizing
 "HtCap_Sys_T_Cordr_E" = -11168.65   $ Sizing
 "HtCap_Sys_T_Cordr_N" = -7194.724   $ Sizing
 "HtCap_Sys_T_Cordr_S" = -11264.64   $ Sizing
 "HtCap_Sys_T_Cordr_W" = -10702.88   $ Sizing
 "HtCap_Sys_T_LobWait_C" = -26283.79   $ Sizing
 "HtCap_Sys_T_MechElec_C" = -7848.77   $ Sizing
 "HtCap_Sys_T_OfficeOpn_C" = -82936.09   $ Sizing
 "HtCap_Sys_T_OfficeOpn_E" = -73958.27   $ Sizing
 "HtCap_Sys_T_OfficeOpn_N" = -49680.08   $ Sizing
 "HtCap_Sys_T_OfficeOpn_S" = -76914.91   $ Sizing
 "HtCap_Sys_T_OfficeOpn_W" = -73613.34   $ Sizing
 "HtCap_Sys_T_OfficeSm_C" = -12134.93   $ Sizing
 "HtCap_Sys_T_OfficeSm_E" = -53669.73   $ Sizing
 "HtCap_Sys_T_OfficeSm_N" = -32835.01   $ Sizing
 "HtCap_Sys_T_OfficeSm_S" = -56348.3   $ Sizing
 "HtCap_Sys_T_OfficeSm_W" = -54010.02   $ Sizing
 "HtCap_Sys_T_Restrm_C" = -8735.445   $ Sizing
 "HtCap_Sys_T_StorSm_C" = -17710.9   $ Sizing
..

##include Templates\OfL_DX_SZ.inp
END ..
COMPUTE ..
STOP ..
