INPUT ..

##fileprefix C:\Users\jglasskatz\MASControl3\
##set1 IsSizing FALSE
##set1 CoolType None
##set1 HeatType FURNACE
##set1 EU_HrRepVar 1
##set1 BldgVint 2020
##set1 BldgLoc CZ01


PARAMETER
 "AltFactor" = 1.00753   $ IP Non-Tech
 "BldgEconoFlag" = 1   $ IP Non-Tech
 "Break_EWSF" = 1   $ IP Non-Tech
 "Break_LWSF" = 0.65   $ IP Non-Tech
 "CDD_DBHi10" = 65   $ IP Non-Tech
 "CDD_DBHi7" = 68   $ IP Non-Tech
 "CDD_DBHi8" = 66   $ IP Non-Tech
 "CDD_DBHi9" = 77   $ IP Non-Tech
 "CDD_DBRange10" = 17   $ IP Non-Tech
 "CDD_DBRange7" = 11   $ IP Non-Tech
 "CDD_DBRange8" = 10   $ IP Non-Tech
 "CDD_DBRange9" = 29   $ IP Non-Tech
 "CDD_Day10" = 15   $ IP Non-Tech
 "CDD_Day7" = 16   $ IP Non-Tech
 "CDD_Day8" = 20   $ IP Non-Tech
 "CDD_Day9" = 17   $ IP Non-Tech
 "CDD_HrHi10" = 12   $ IP Non-Tech
 "CDD_HrHi7" = 12   $ IP Non-Tech
 "CDD_HrHi8" = 13   $ IP Non-Tech
 "CDD_HrHi9" = 17   $ IP Non-Tech
 "CDD_HrLo10" = 6   $ IP Non-Tech
 "CDD_HrLo7" = 3   $ IP Non-Tech
 "CDD_HrLo8" = 8   $ IP Non-Tech
 "CDD_HrLo9" = 4   $ IP Non-Tech
 "CDD_WB10" = 57.53039551   $ IP Non-Tech
 "CDD_WB7" = 59.29250717   $ IP Non-Tech
 "CDD_WB8" = 60.75350189   $ IP Non-Tech
 "CDD_WB9" = 61.08643341   $ IP Non-Tech
 "CZ_Category" = Tem   $ IP Non-Tech
 "ChwVintEconoFlag" = 1   $ IP Non-Tech
 "Conference_EWSF" = 1   $ IP Non-Tech
 "Conference_LWSF" = 0.85   $ IP Non-Tech
 "CoolSetT" = 45   $ IP Non-Tech
 "CoolType" = None   $ IP Non-Tech
 "CopyRoom_EWSF" = 1.5   $ IP Non-Tech
 "CopyRoom_LWSF" = 0.5   $ IP Non-Tech
 "CorridorStairway_EWSF" = 0.2   $ IP Non-Tech
 "CorridorStairway_LWSF" = 0.55   $ IP Non-Tech
 "DesCoolT" = 75   $ IP Non-Tech
 "DesHeatT" = 73   $ IP Non-Tech
 "EconoEnthLimit" = 28   $ IP Non-Tech
 "EconoTempLimit" = 70   $ IP Non-Tech
 "Elevation" = 203   $ IP Non-Tech
 "HDD_CloudAmt1" = 0   $ IP Non-Tech
 "HDD_DBHi1" = 53   $ IP Non-Tech
 "HDD_DBRange1" = 20   $ IP Non-Tech
 "HDD_Day1" = 15   $ IP Non-Tech
 "HDD_HrHi1" = 14   $ IP Non-Tech
 "HDD_HrLo1" = 6   $ IP Non-Tech
 "HDD_WB1" = 42.3   $ IP Non-Tech
 "HDD_WindSpd1" = 12.7   $ IP Non-Tech
 "HeatSrc" = FURNACE   $ IP Non-Tech
 "HeatSrcTU" = FURNACE   $ IP Non-Tech
 "HeatType" = GasFurn   $ IP Non-Tech
 "HeatTypeTU" = FURNACE   $ IP Non-Tech
 "IndoorFanMode" = CONTINUOUS   $ IP Non-Tech
 "KT_TransferAir" = Yes   $ IP Non-Tech
 "Latitude" = 40.8   $ IP Non-Tech
 "LobbyWaiting_EWSF" = 0.5   $ IP Non-Tech
 "LobbyWaiting_LWSF" = 0.75   $ IP Non-Tech
 "Longitude" = 124.2   $ IP Non-Tech
 "MZFanMechEff" = 1   $ IP Non-Tech
 "MZHasRetFan" = FALSE   $ IP Non-Tech
 "MZ_RFanWPerCfm" = 0.37   $ IP Non-Tech
 "MZ_SFanWPerCfm" = 0.71   $ IP Non-Tech
 "MaxSupT_MZ" = 100   $ IP Non-Tech
 "MaxSupT_SZ" = 100   $ IP Non-Tech
 "MaxSupT_TU" = 100   $ IP Non-Tech
 "MechElecRoom_EWSF" = 0.2   $ IP Non-Tech
 "MechElecRoom_LWSF" = 0.4   $ IP Non-Tech
 "MinCfmPerSF" = 0.4   $ IP Non-Tech
 "MinSupT" = 55   $ IP Non-Tech
 "OccCoolT" = 76   $ IP Non-Tech
 "OccHeatT" = 72   $ IP Non-Tech
 "OfficeOpen_EWSF" = 1.5   $ IP Non-Tech
 "OfficeOpen_LWSF" = 0.8   $ IP Non-Tech
 "OfficeSmall_EWSF" = 1.5   $ IP Non-Tech
 "OfficeSmall_LWSF" = 0.9   $ IP Non-Tech
 "PkgDxVintEconoFlag" = 1   $ IP Non-Tech
 "Restroom_EWSF" = 0.2   $ IP Non-Tech
 "Restroom_LWSF" = 0.65   $ IP Non-Tech
 "SZFanMechEff" = 1   $ IP Non-Tech
 "SZHasRetFan" = FALSE   $ IP Non-Tech
 "SZ_Is_2Spd" = TRUE   $ IP Non-Tech
 "SZ_SFanWPerCfm" = 0.46   $ IP Non-Tech
 "StorageSmlCond_EWSF" = 0.2   $ IP Non-Tech
 "StorageSmlCond_LWSF" = 0.45   $ IP Non-Tech
 "TermUnitFanMechEff" = 1   $ IP Non-Tech
 "TermUnitFanMode" = INTERMITTENT   $ IP Non-Tech
 "TermUnitFanWPerCfm" = 0.175   $ IP Non-Tech
 "TwrSetpt" = 80   $ IP Non-Tech
 "UnocCoolT" = 86   $ IP Non-Tech
 "UnocHeatT" = 62   $ IP Non-Tech
 "WlhpVintEconoFlag" = 1   $ IP Non-Tech
 "EconoCtrl" = OA-TEMP   $ IP Tech: AirEcono-OATemp
 "MaxOAFrac" = 0.85   $ IP Tech: AirEcono-OATemp
 "UseEconoVintApplic" = FALSE   $ IP Tech: AirEcono-OATemp
 "DuctDT" = 1   $ IP Tech: ComDuctInsul-1
 "DuctAirLoss" = 0   $ IP Tech: ComDuctLeak-0
 "DuctLossOAFrac" = 0   $ IP Tech: ComDuctLeak-0
 "ComRoofInsCalc" = FromUo   $ IP Tech: ComRoofIns-Hvy-0.03
 "ComRoofInsR" = -999   $ IP Tech: ComRoofIns-Hvy-0.03
 "ComRoofUo" = 0.03   $ IP Tech: ComRoofIns-Hvy-0.03
 "ComEWInsCalc" = FromUo   $ IP Tech: ComWallIns-MFrm-0.07
 "ComEWInsR" = -999   $ IP Tech: ComWallIns-MFrm-0.07
 "ComEWUo" = 0.07   $ IP Tech: ComWallIns-MFrm-0.07
 "ComN_SHGC" = 0.26   $ IP Tech: NResWin-ComN-0.41-0.26
 "ComN_UFactor" = 0.41   $ IP Tech: NResWin-ComN-0.41-0.26
 "ComN_VisTrans" = 0.41   $ IP Tech: NResWin-ComN-0.41-0.26
 "ComN_WinCode" = G2666   $ IP Tech: NResWin-ComN-0.41-0.26
 "ComN_WinFrmFrac" = 0.17   $ IP Tech: NResWin-ComN-0.41-0.26
 "ComN_WinFrmU" = 0.3   $ IP Tech: NResWin-ComN-0.41-0.26
 "ComO_SHGC" = 0.26   $ IP Tech: NResWin-ComO-0.41-0.26
 "ComO_UFactor" = 0.41   $ IP Tech: NResWin-ComO-0.41-0.26
 "ComO_VisTrans" = 0.41   $ IP Tech: NResWin-ComO-0.41-0.26
 "ComO_WinCode" = G2666   $ IP Tech: NResWin-ComO-0.41-0.26
 "ComO_WinFrmFrac" = 0.17   $ IP Tech: NResWin-ComO-0.41-0.26
 "ComO_WinFrmU" = 0.3   $ IP Tech: NResWin-ComO-0.41-0.26
 "LtgMsrApplic" = ALL   $ IP Tech: NonResLtgRefPre
 "LtgSav_CFL" = 0   $ IP Tech: NonResLtgRefPre
 "LtgSav_EX" = 0   $ IP Tech: NonResLtgRefPre
 "LtgSav_HB" = 0   $ IP Tech: NonResLtgRefPre
 "LtgSav_LF" = 0   $ IP Tech: NonResLtgRefPre
 "LtgSav_SP" = 0   $ IP Tech: NonResLtgRefPre
 "FanPwrMult" = 1   $ IP Tech: PkgFurn-0.80AFUE
 "FurnAFUE" = 0.8   $ IP Tech: PkgFurn-0.80AFUE
 "FurnEt" = 0.82   $ IP Tech: PkgFurn-0.80AFUE
 "FurnaceAuxKW" = 0.1   $ IP Tech: PkgFurn-0.80AFUE
 "HIR_fPLR" = Furnace-HIR-fPLR   $ IP Tech: PkgFurn-0.80AFUE
 "VSM" = FALSE   $ IP Tech: PkgFurn-0.80AFUE
 "AltAdjFactor" = 1.007532   $ Sizing
 "CAssFlo_L_Break_CZn" = 216.6311   $ Sizing
 "CAssFlo_L_Conf_CZn" = 281.7439   $ Sizing
 "CAssFlo_L_CopyRm_CZn" = 88.37569   $ Sizing
 "CAssFlo_L_Cordr_CZn" = 565.4379   $ Sizing
 "CAssFlo_L_Cordr_EZn" = 94.24052   $ Sizing
 "CAssFlo_L_Cordr_NZn" = 94.24052   $ Sizing
 "CAssFlo_L_Cordr_SZn" = 94.24052   $ Sizing
 "CAssFlo_L_Cordr_WZn" = 94.24052   $ Sizing
 "CAssFlo_L_LobWait_CZn" = 275.5261   $ Sizing
 "CAssFlo_L_MechElec_CZn" = 134.1697   $ Sizing
 "CAssFlo_L_OfficeOpn_CZn" = 1103.538   $ Sizing
 "CAssFlo_L_OfficeOpn_EZn" = 535.5477   $ Sizing
 "CAssFlo_L_OfficeOpn_NZn" = 535.5477   $ Sizing
 "CAssFlo_L_OfficeOpn_SZn" = 535.5477   $ Sizing
 "CAssFlo_L_OfficeOpn_WZn" = 535.5477   $ Sizing
 "CAssFlo_L_OfficeSm_CZn" = 143.945   $ Sizing
 "CAssFlo_L_OfficeSm_EZn" = 323.8893   $ Sizing
 "CAssFlo_L_OfficeSm_NZn" = 323.8893   $ Sizing
 "CAssFlo_L_OfficeSm_SZn" = 323.8893   $ Sizing
 "CAssFlo_L_OfficeSm_WZn" = 323.8893   $ Sizing
 "CAssFlo_L_Restrm_CZn" = 211.8611   $ Sizing
 "CAssFlo_L_StorSm_CZn" = 334.0894   $ Sizing
 "CAssFlo_M_Break_CZn" = 216.6311   $ Sizing
 "CAssFlo_M_Conf_CZn" = 281.7439   $ Sizing
 "CAssFlo_M_CopyRm_CZn" = 88.37569   $ Sizing
 "CAssFlo_M_Cordr_CZn" = 565.4379   $ Sizing
 "CAssFlo_M_Cordr_EZn" = 94.24052   $ Sizing
 "CAssFlo_M_Cordr_NZn" = 94.24052   $ Sizing
 "CAssFlo_M_Cordr_SZn" = 94.24052   $ Sizing
 "CAssFlo_M_Cordr_WZn" = 94.24052   $ Sizing
 "CAssFlo_M_LobWait_CZn" = 275.5261   $ Sizing
 "CAssFlo_M_MechElec_CZn" = 134.1697   $ Sizing
 "CAssFlo_M_OfficeOpn_CZn" = 1103.538   $ Sizing
 "CAssFlo_M_OfficeOpn_EZn" = 535.5477   $ Sizing
 "CAssFlo_M_OfficeOpn_NZn" = 535.5477   $ Sizing
 "CAssFlo_M_OfficeOpn_SZn" = 535.5477   $ Sizing
 "CAssFlo_M_OfficeOpn_WZn" = 535.5477   $ Sizing
 "CAssFlo_M_OfficeSm_CZn" = 143.945   $ Sizing
 "CAssFlo_M_OfficeSm_EZn" = 323.8893   $ Sizing
 "CAssFlo_M_OfficeSm_NZn" = 323.8893   $ Sizing
 "CAssFlo_M_OfficeSm_SZn" = 323.8893   $ Sizing
 "CAssFlo_M_OfficeSm_WZn" = 323.8893   $ Sizing
 "CAssFlo_M_Restrm_CZn" = 211.8611   $ Sizing
 "CAssFlo_M_StorSm_CZn" = 334.0894   $ Sizing
 "CAssFlo_T_Break_CZn" = 216.6311   $ Sizing
 "CAssFlo_T_Conf_CZn" = 281.7439   $ Sizing
 "CAssFlo_T_CopyRm_CZn" = 88.37569   $ Sizing
 "CAssFlo_T_Cordr_CZn" = 565.4379   $ Sizing
 "CAssFlo_T_Cordr_EZn" = 94.24052   $ Sizing
 "CAssFlo_T_Cordr_NZn" = 94.24052   $ Sizing
 "CAssFlo_T_Cordr_SZn" = 94.24052   $ Sizing
 "CAssFlo_T_Cordr_WZn" = 94.24052   $ Sizing
 "CAssFlo_T_LobWait_CZn" = 275.5261   $ Sizing
 "CAssFlo_T_MechElec_CZn" = 134.1697   $ Sizing
 "CAssFlo_T_OfficeOpn_CZn" = 1103.538   $ Sizing
 "CAssFlo_T_OfficeOpn_EZn" = 535.5477   $ Sizing
 "CAssFlo_T_OfficeOpn_NZn" = 535.5477   $ Sizing
 "CAssFlo_T_OfficeOpn_SZn" = 535.5477   $ Sizing
 "CAssFlo_T_OfficeOpn_WZn" = 535.5477   $ Sizing
 "CAssFlo_T_OfficeSm_CZn" = 143.945   $ Sizing
 "CAssFlo_T_OfficeSm_EZn" = 323.8893   $ Sizing
 "CAssFlo_T_OfficeSm_NZn" = 323.8893   $ Sizing
 "CAssFlo_T_OfficeSm_SZn" = 323.8893   $ Sizing
 "CAssFlo_T_OfficeSm_WZn" = 323.8893   $ Sizing
 "CAssFlo_T_Restrm_CZn" = 211.8611   $ Sizing
 "CAssFlo_T_StorSm_CZn" = 334.0894   $ Sizing
 "CHRtFlo_Sys_L_Break_C" = 15   $ Sizing
 "CHRtFlo_Sys_L_Conf_C" = 15   $ Sizing
 "CHRtFlo_Sys_L_CopyRm_C" = 15   $ Sizing
 "CHRtFlo_Sys_L_Cordr_C" = 15   $ Sizing
 "CHRtFlo_Sys_L_Cordr_E" = 15   $ Sizing
 "CHRtFlo_Sys_L_Cordr_N" = 15   $ Sizing
 "CHRtFlo_Sys_L_Cordr_S" = 15   $ Sizing
 "CHRtFlo_Sys_L_Cordr_W" = 15   $ Sizing
 "CHRtFlo_Sys_L_LobWait_C" = 15   $ Sizing
 "CHRtFlo_Sys_L_MechElec_C" = 15   $ Sizing
 "CHRtFlo_Sys_L_OfficeOpn_C" = 15   $ Sizing
 "CHRtFlo_Sys_L_OfficeOpn_E" = 15   $ Sizing
 "CHRtFlo_Sys_L_OfficeOpn_N" = 15   $ Sizing
 "CHRtFlo_Sys_L_OfficeOpn_S" = 15   $ Sizing
 "CHRtFlo_Sys_L_OfficeOpn_W" = 15   $ Sizing
 "CHRtFlo_Sys_L_OfficeSm_C" = 15   $ Sizing
 "CHRtFlo_Sys_L_OfficeSm_E" = 15   $ Sizing
 "CHRtFlo_Sys_L_OfficeSm_N" = 15   $ Sizing
 "CHRtFlo_Sys_L_OfficeSm_S" = 15   $ Sizing
 "CHRtFlo_Sys_L_OfficeSm_W" = 15   $ Sizing
 "CHRtFlo_Sys_L_Restrm_C" = 15   $ Sizing
 "CHRtFlo_Sys_L_StorSm_C" = 15   $ Sizing
 "CHRtFlo_Sys_M_Break_C" = 15   $ Sizing
 "CHRtFlo_Sys_M_Conf_C" = 15   $ Sizing
 "CHRtFlo_Sys_M_CopyRm_C" = 15   $ Sizing
 "CHRtFlo_Sys_M_Cordr_C" = 15   $ Sizing
 "CHRtFlo_Sys_M_Cordr_E" = 15   $ Sizing
 "CHRtFlo_Sys_M_Cordr_N" = 15   $ Sizing
 "CHRtFlo_Sys_M_Cordr_S" = 15   $ Sizing
 "CHRtFlo_Sys_M_Cordr_W" = 15   $ Sizing
 "CHRtFlo_Sys_M_LobWait_C" = 15   $ Sizing
 "CHRtFlo_Sys_M_MechElec_C" = 15   $ Sizing
 "CHRtFlo_Sys_M_OfficeOpn_C" = 15   $ Sizing
 "CHRtFlo_Sys_M_OfficeOpn_E" = 15   $ Sizing
 "CHRtFlo_Sys_M_OfficeOpn_N" = 15   $ Sizing
 "CHRtFlo_Sys_M_OfficeOpn_S" = 15   $ Sizing
 "CHRtFlo_Sys_M_OfficeOpn_W" = 15   $ Sizing
 "CHRtFlo_Sys_M_OfficeSm_C" = 15   $ Sizing
 "CHRtFlo_Sys_M_OfficeSm_E" = 15   $ Sizing
 "CHRtFlo_Sys_M_OfficeSm_N" = 15   $ Sizing
 "CHRtFlo_Sys_M_OfficeSm_S" = 15   $ Sizing
 "CHRtFlo_Sys_M_OfficeSm_W" = 15   $ Sizing
 "CHRtFlo_Sys_M_Restrm_C" = 15   $ Sizing
 "CHRtFlo_Sys_M_StorSm_C" = 15   $ Sizing
 "CHRtFlo_Sys_T_Break_C" = 15   $ Sizing
 "CHRtFlo_Sys_T_Conf_C" = 15   $ Sizing
 "CHRtFlo_Sys_T_CopyRm_C" = 15   $ Sizing
 "CHRtFlo_Sys_T_Cordr_C" = 15   $ Sizing
 "CHRtFlo_Sys_T_Cordr_E" = 15   $ Sizing
 "CHRtFlo_Sys_T_Cordr_N" = 15   $ Sizing
 "CHRtFlo_Sys_T_Cordr_S" = 15   $ Sizing
 "CHRtFlo_Sys_T_Cordr_W" = 15   $ Sizing
 "CHRtFlo_Sys_T_LobWait_C" = 15   $ Sizing
 "CHRtFlo_Sys_T_MechElec_C" = 15   $ Sizing
 "CHRtFlo_Sys_T_OfficeOpn_C" = 15   $ Sizing
 "CHRtFlo_Sys_T_OfficeOpn_E" = 15   $ Sizing
 "CHRtFlo_Sys_T_OfficeOpn_N" = 15   $ Sizing
 "CHRtFlo_Sys_T_OfficeOpn_S" = 15   $ Sizing
 "CHRtFlo_Sys_T_OfficeOpn_W" = 15   $ Sizing
 "CHRtFlo_Sys_T_OfficeSm_C" = 15   $ Sizing
 "CHRtFlo_Sys_T_OfficeSm_E" = 15   $ Sizing
 "CHRtFlo_Sys_T_OfficeSm_N" = 15   $ Sizing
 "CHRtFlo_Sys_T_OfficeSm_S" = 15   $ Sizing
 "CHRtFlo_Sys_T_OfficeSm_W" = 15   $ Sizing
 "CHRtFlo_Sys_T_Restrm_C" = 15   $ Sizing
 "CHRtFlo_Sys_T_StorSm_C" = 15   $ Sizing
 "CRtdFlo_Sys_L_Break_C" = 15   $ Sizing
 "CRtdFlo_Sys_L_Conf_C" = 15   $ Sizing
 "CRtdFlo_Sys_L_CopyRm_C" = 15   $ Sizing
 "CRtdFlo_Sys_L_Cordr_C" = 15   $ Sizing
 "CRtdFlo_Sys_L_Cordr_E" = 15   $ Sizing
 "CRtdFlo_Sys_L_Cordr_N" = 15   $ Sizing
 "CRtdFlo_Sys_L_Cordr_S" = 15   $ Sizing
 "CRtdFlo_Sys_L_Cordr_W" = 15   $ Sizing
 "CRtdFlo_Sys_L_LobWait_C" = 15   $ Sizing
 "CRtdFlo_Sys_L_MechElec_C" = 15   $ Sizing
 "CRtdFlo_Sys_L_OfficeOpn_C" = 15   $ Sizing
 "CRtdFlo_Sys_L_OfficeOpn_E" = 15   $ Sizing
 "CRtdFlo_Sys_L_OfficeOpn_N" = 15   $ Sizing
 "CRtdFlo_Sys_L_OfficeOpn_S" = 15   $ Sizing
 "CRtdFlo_Sys_L_OfficeOpn_W" = 15   $ Sizing
 "CRtdFlo_Sys_L_OfficeSm_C" = 15   $ Sizing
 "CRtdFlo_Sys_L_OfficeSm_E" = 15   $ Sizing
 "CRtdFlo_Sys_L_OfficeSm_N" = 15   $ Sizing
 "CRtdFlo_Sys_L_OfficeSm_S" = 15   $ Sizing
 "CRtdFlo_Sys_L_OfficeSm_W" = 15   $ Sizing
 "CRtdFlo_Sys_L_Restrm_C" = 15   $ Sizing
 "CRtdFlo_Sys_L_StorSm_C" = 15   $ Sizing
 "CRtdFlo_Sys_M_Break_C" = 15   $ Sizing
 "CRtdFlo_Sys_M_Conf_C" = 15   $ Sizing
 "CRtdFlo_Sys_M_CopyRm_C" = 15   $ Sizing
 "CRtdFlo_Sys_M_Cordr_C" = 15   $ Sizing
 "CRtdFlo_Sys_M_Cordr_E" = 15   $ Sizing
 "CRtdFlo_Sys_M_Cordr_N" = 15   $ Sizing
 "CRtdFlo_Sys_M_Cordr_S" = 15   $ Sizing
 "CRtdFlo_Sys_M_Cordr_W" = 15   $ Sizing
 "CRtdFlo_Sys_M_LobWait_C" = 15   $ Sizing
 "CRtdFlo_Sys_M_MechElec_C" = 15   $ Sizing
 "CRtdFlo_Sys_M_OfficeOpn_C" = 15   $ Sizing
 "CRtdFlo_Sys_M_OfficeOpn_E" = 15   $ Sizing
 "CRtdFlo_Sys_M_OfficeOpn_N" = 15   $ Sizing
 "CRtdFlo_Sys_M_OfficeOpn_S" = 15   $ Sizing
 "CRtdFlo_Sys_M_OfficeOpn_W" = 15   $ Sizing
 "CRtdFlo_Sys_M_OfficeSm_C" = 15   $ Sizing
 "CRtdFlo_Sys_M_OfficeSm_E" = 15   $ Sizing
 "CRtdFlo_Sys_M_OfficeSm_N" = 15   $ Sizing
 "CRtdFlo_Sys_M_OfficeSm_S" = 15   $ Sizing
 "CRtdFlo_Sys_M_OfficeSm_W" = 15   $ Sizing
 "CRtdFlo_Sys_M_Restrm_C" = 15   $ Sizing
 "CRtdFlo_Sys_M_StorSm_C" = 15   $ Sizing
 "CRtdFlo_Sys_T_Break_C" = 15   $ Sizing
 "CRtdFlo_Sys_T_Conf_C" = 15   $ Sizing
 "CRtdFlo_Sys_T_CopyRm_C" = 15   $ Sizing
 "CRtdFlo_Sys_T_Cordr_C" = 15   $ Sizing
 "CRtdFlo_Sys_T_Cordr_E" = 15   $ Sizing
 "CRtdFlo_Sys_T_Cordr_N" = 15   $ Sizing
 "CRtdFlo_Sys_T_Cordr_S" = 15   $ Sizing
 "CRtdFlo_Sys_T_Cordr_W" = 15   $ Sizing
 "CRtdFlo_Sys_T_LobWait_C" = 15   $ Sizing
 "CRtdFlo_Sys_T_MechElec_C" = 15   $ Sizing
 "CRtdFlo_Sys_T_OfficeOpn_C" = 15   $ Sizing
 "CRtdFlo_Sys_T_OfficeOpn_E" = 15   $ Sizing
 "CRtdFlo_Sys_T_OfficeOpn_N" = 15   $ Sizing
 "CRtdFlo_Sys_T_OfficeOpn_S" = 15   $ Sizing
 "CRtdFlo_Sys_T_OfficeOpn_W" = 15   $ Sizing
 "CRtdFlo_Sys_T_OfficeSm_C" = 15   $ Sizing
 "CRtdFlo_Sys_T_OfficeSm_E" = 15   $ Sizing
 "CRtdFlo_Sys_T_OfficeSm_N" = 15   $ Sizing
 "CRtdFlo_Sys_T_OfficeSm_S" = 15   $ Sizing
 "CRtdFlo_Sys_T_OfficeSm_W" = 15   $ Sizing
 "CRtdFlo_Sys_T_Restrm_C" = 15   $ Sizing
 "CRtdFlo_Sys_T_StorSm_C" = 15   $ Sizing
 "CSupFlo_Sys_L_Break_C" = 216.6311   $ Sizing
 "CSupFlo_Sys_L_Conf_C" = 281.7439   $ Sizing
 "CSupFlo_Sys_L_CopyRm_C" = 88.37569   $ Sizing
 "CSupFlo_Sys_L_Cordr_C" = 565.4379   $ Sizing
 "CSupFlo_Sys_L_Cordr_E" = 94.24052   $ Sizing
 "CSupFlo_Sys_L_Cordr_N" = 94.24052   $ Sizing
 "CSupFlo_Sys_L_Cordr_S" = 94.24052   $ Sizing
 "CSupFlo_Sys_L_Cordr_W" = 94.24052   $ Sizing
 "CSupFlo_Sys_L_LobWait_C" = 275.5261   $ Sizing
 "CSupFlo_Sys_L_MechElec_C" = 134.1697   $ Sizing
 "CSupFlo_Sys_L_OfficeOpn_C" = 1103.538   $ Sizing
 "CSupFlo_Sys_L_OfficeOpn_E" = 535.5477   $ Sizing
 "CSupFlo_Sys_L_OfficeOpn_N" = 535.5477   $ Sizing
 "CSupFlo_Sys_L_OfficeOpn_S" = 535.5477   $ Sizing
 "CSupFlo_Sys_L_OfficeOpn_W" = 535.5477   $ Sizing
 "CSupFlo_Sys_L_OfficeSm_C" = 143.945   $ Sizing
 "CSupFlo_Sys_L_OfficeSm_E" = 323.8893   $ Sizing
 "CSupFlo_Sys_L_OfficeSm_N" = 323.8893   $ Sizing
 "CSupFlo_Sys_L_OfficeSm_S" = 323.8893   $ Sizing
 "CSupFlo_Sys_L_OfficeSm_W" = 323.8893   $ Sizing
 "CSupFlo_Sys_L_Restrm_C" = 211.8611   $ Sizing
 "CSupFlo_Sys_L_StorSm_C" = 334.0894   $ Sizing
 "CSupFlo_Sys_M_Break_C" = 1733.049   $ Sizing
 "CSupFlo_Sys_M_Conf_C" = 2253.951   $ Sizing
 "CSupFlo_Sys_M_CopyRm_C" = 707.0056   $ Sizing
 "CSupFlo_Sys_M_Cordr_C" = 4523.503   $ Sizing
 "CSupFlo_Sys_M_Cordr_E" = 753.9242   $ Sizing
 "CSupFlo_Sys_M_Cordr_N" = 753.9242   $ Sizing
 "CSupFlo_Sys_M_Cordr_S" = 753.9242   $ Sizing
 "CSupFlo_Sys_M_Cordr_W" = 753.9242   $ Sizing
 "CSupFlo_Sys_M_LobWait_C" = 2204.208   $ Sizing
 "CSupFlo_Sys_M_MechElec_C" = 1073.357   $ Sizing
 "CSupFlo_Sys_M_OfficeOpn_C" = 8828.302   $ Sizing
 "CSupFlo_Sys_M_OfficeOpn_E" = 4284.381   $ Sizing
 "CSupFlo_Sys_M_OfficeOpn_N" = 4284.381   $ Sizing
 "CSupFlo_Sys_M_OfficeOpn_S" = 4284.381   $ Sizing
 "CSupFlo_Sys_M_OfficeOpn_W" = 4284.381   $ Sizing
 "CSupFlo_Sys_M_OfficeSm_C" = 1151.56   $ Sizing
 "CSupFlo_Sys_M_OfficeSm_E" = 2591.115   $ Sizing
 "CSupFlo_Sys_M_OfficeSm_N" = 2591.115   $ Sizing
 "CSupFlo_Sys_M_OfficeSm_S" = 2591.115   $ Sizing
 "CSupFlo_Sys_M_OfficeSm_W" = 2591.115   $ Sizing
 "CSupFlo_Sys_M_Restrm_C" = 1694.889   $ Sizing
 "CSupFlo_Sys_M_StorSm_C" = 2672.715   $ Sizing
 "CSupFlo_Sys_T_Break_C" = 216.6311   $ Sizing
 "CSupFlo_Sys_T_Conf_C" = 281.7439   $ Sizing
 "CSupFlo_Sys_T_CopyRm_C" = 88.37569   $ Sizing
 "CSupFlo_Sys_T_Cordr_C" = 565.4379   $ Sizing
 "CSupFlo_Sys_T_Cordr_E" = 94.24052   $ Sizing
 "CSupFlo_Sys_T_Cordr_N" = 94.24052   $ Sizing
 "CSupFlo_Sys_T_Cordr_S" = 94.24052   $ Sizing
 "CSupFlo_Sys_T_Cordr_W" = 94.24052   $ Sizing
 "CSupFlo_Sys_T_LobWait_C" = 275.5261   $ Sizing
 "CSupFlo_Sys_T_MechElec_C" = 134.1697   $ Sizing
 "CSupFlo_Sys_T_OfficeOpn_C" = 1103.538   $ Sizing
 "CSupFlo_Sys_T_OfficeOpn_E" = 535.5477   $ Sizing
 "CSupFlo_Sys_T_OfficeOpn_N" = 535.5477   $ Sizing
 "CSupFlo_Sys_T_OfficeOpn_S" = 535.5477   $ Sizing
 "CSupFlo_Sys_T_OfficeOpn_W" = 535.5477   $ Sizing
 "CSupFlo_Sys_T_OfficeSm_C" = 143.945   $ Sizing
 "CSupFlo_Sys_T_OfficeSm_E" = 323.8893   $ Sizing
 "CSupFlo_Sys_T_OfficeSm_N" = 323.8893   $ Sizing
 "CSupFlo_Sys_T_OfficeSm_S" = 323.8893   $ Sizing
 "CSupFlo_Sys_T_OfficeSm_W" = 323.8893   $ Sizing
 "CSupFlo_Sys_T_Restrm_C" = 211.8611   $ Sizing
 "CSupFlo_Sys_T_StorSm_C" = 334.0894   $ Sizing
 "ClCap_Sys_L_Break_C" = 0   $ Sizing
 "ClCap_Sys_L_Conf_C" = 0   $ Sizing
 "ClCap_Sys_L_CopyRm_C" = 0   $ Sizing
 "ClCap_Sys_L_Cordr_C" = 0   $ Sizing
 "ClCap_Sys_L_Cordr_E" = 0   $ Sizing
 "ClCap_Sys_L_Cordr_N" = 0   $ Sizing
 "ClCap_Sys_L_Cordr_S" = 0   $ Sizing
 "ClCap_Sys_L_Cordr_W" = 0   $ Sizing
 "ClCap_Sys_L_LobWait_C" = 0   $ Sizing
 "ClCap_Sys_L_MechElec_C" = 0   $ Sizing
 "ClCap_Sys_L_OfficeOpn_C" = 0   $ Sizing
 "ClCap_Sys_L_OfficeOpn_E" = 0   $ Sizing
 "ClCap_Sys_L_OfficeOpn_N" = 0   $ Sizing
 "ClCap_Sys_L_OfficeOpn_S" = 0   $ Sizing
 "ClCap_Sys_L_OfficeOpn_W" = 0   $ Sizing
 "ClCap_Sys_L_OfficeSm_C" = 0   $ Sizing
 "ClCap_Sys_L_OfficeSm_E" = 0   $ Sizing
 "ClCap_Sys_L_OfficeSm_N" = 0   $ Sizing
 "ClCap_Sys_L_OfficeSm_S" = 0   $ Sizing
 "ClCap_Sys_L_OfficeSm_W" = 0   $ Sizing
 "ClCap_Sys_L_Restrm_C" = 0   $ Sizing
 "ClCap_Sys_L_StorSm_C" = 0   $ Sizing
 "ClCap_Sys_M_Break_C" = 0   $ Sizing
 "ClCap_Sys_M_Conf_C" = 0   $ Sizing
 "ClCap_Sys_M_CopyRm_C" = 0   $ Sizing
 "ClCap_Sys_M_Cordr_C" = 0   $ Sizing
 "ClCap_Sys_M_Cordr_E" = 0   $ Sizing
 "ClCap_Sys_M_Cordr_N" = 0   $ Sizing
 "ClCap_Sys_M_Cordr_S" = 0   $ Sizing
 "ClCap_Sys_M_Cordr_W" = 0   $ Sizing
 "ClCap_Sys_M_LobWait_C" = 0   $ Sizing
 "ClCap_Sys_M_MechElec_C" = 0   $ Sizing
 "ClCap_Sys_M_OfficeOpn_C" = 0   $ Sizing
 "ClCap_Sys_M_OfficeOpn_E" = 0   $ Sizing
 "ClCap_Sys_M_OfficeOpn_N" = 0   $ Sizing
 "ClCap_Sys_M_OfficeOpn_S" = 0   $ Sizing
 "ClCap_Sys_M_OfficeOpn_W" = 0   $ Sizing
 "ClCap_Sys_M_OfficeSm_C" = 0   $ Sizing
 "ClCap_Sys_M_OfficeSm_E" = 0   $ Sizing
 "ClCap_Sys_M_OfficeSm_N" = 0   $ Sizing
 "ClCap_Sys_M_OfficeSm_S" = 0   $ Sizing
 "ClCap_Sys_M_OfficeSm_W" = 0   $ Sizing
 "ClCap_Sys_M_Restrm_C" = 0   $ Sizing
 "ClCap_Sys_M_StorSm_C" = 0   $ Sizing
 "ClCap_Sys_T_Break_C" = 0   $ Sizing
 "ClCap_Sys_T_Conf_C" = 0   $ Sizing
 "ClCap_Sys_T_CopyRm_C" = 0   $ Sizing
 "ClCap_Sys_T_Cordr_C" = 0   $ Sizing
 "ClCap_Sys_T_Cordr_E" = 0   $ Sizing
 "ClCap_Sys_T_Cordr_N" = 0   $ Sizing
 "ClCap_Sys_T_Cordr_S" = 0   $ Sizing
 "ClCap_Sys_T_Cordr_W" = 0   $ Sizing
 "ClCap_Sys_T_LobWait_C" = 0   $ Sizing
 "ClCap_Sys_T_MechElec_C" = 0   $ Sizing
 "ClCap_Sys_T_OfficeOpn_C" = 0   $ Sizing
 "ClCap_Sys_T_OfficeOpn_E" = 0   $ Sizing
 "ClCap_Sys_T_OfficeOpn_N" = 0   $ Sizing
 "ClCap_Sys_T_OfficeOpn_S" = 0   $ Sizing
 "ClCap_Sys_T_OfficeOpn_W" = 0   $ Sizing
 "ClCap_Sys_T_OfficeSm_C" = 0   $ Sizing
 "ClCap_Sys_T_OfficeSm_E" = 0   $ Sizing
 "ClCap_Sys_T_OfficeSm_N" = 0   $ Sizing
 "ClCap_Sys_T_OfficeSm_S" = 0   $ Sizing
 "ClCap_Sys_T_OfficeSm_W" = 0   $ Sizing
 "ClCap_Sys_T_Restrm_C" = 0   $ Sizing
 "ClCap_Sys_T_StorSm_C" = 0   $ Sizing
 "HtCap_L_Break_CZn" = -14821.93   $ Sizing
 "HtCap_L_Conf_CZn" = -19276.96   $ Sizing
 "HtCap_L_CopyRm_CZn" = -6046.677   $ Sizing
 "HtCap_L_Cordr_CZn" = -25673.05   $ Sizing
 "HtCap_L_Cordr_EZn" = -4279.631   $ Sizing
 "HtCap_L_Cordr_NZn" = -4279.987   $ Sizing
 "HtCap_L_Cordr_SZn" = -4278.359   $ Sizing
 "HtCap_L_Cordr_WZn" = -4279.566   $ Sizing
 "HtCap_L_LobWait_CZn" = -18120.45   $ Sizing
 "HtCap_L_MechElec_CZn" = -6088.432   $ Sizing
 "HtCap_L_OfficeOpn_CZn" = -49437.25   $ Sizing
 "HtCap_L_OfficeOpn_EZn" = -24307.75   $ Sizing
 "HtCap_L_OfficeOpn_NZn" = -24308.93   $ Sizing
 "HtCap_L_OfficeOpn_SZn" = -24302.09   $ Sizing
 "HtCap_L_OfficeOpn_WZn" = -24307.39   $ Sizing
 "HtCap_L_OfficeSm_CZn" = -6534.188   $ Sizing
 "HtCap_L_OfficeSm_EZn" = -14706.4   $ Sizing
 "HtCap_L_OfficeSm_NZn" = -14707.43   $ Sizing
 "HtCap_L_OfficeSm_SZn" = -14703.01   $ Sizing
 "HtCap_L_OfficeSm_WZn" = -14706.31   $ Sizing
 "HtCap_L_Restrm_CZn" = -6575.536   $ Sizing
 "HtCap_L_StorSm_CZn" = -15165.03   $ Sizing
 "HtCap_M_Break_CZn" = -14821.93   $ Sizing
 "HtCap_M_Conf_CZn" = -19276.96   $ Sizing
 "HtCap_M_CopyRm_CZn" = -6046.677   $ Sizing
 "HtCap_M_Cordr_CZn" = -25673.39   $ Sizing
 "HtCap_M_Cordr_EZn" = -4279.556   $ Sizing
 "HtCap_M_Cordr_NZn" = -4279.919   $ Sizing
 "HtCap_M_Cordr_SZn" = -4278.113   $ Sizing
 "HtCap_M_Cordr_WZn" = -4279.406   $ Sizing
 "HtCap_M_LobWait_CZn" = -18120.59   $ Sizing
 "HtCap_M_MechElec_CZn" = -6088.813   $ Sizing
 "HtCap_M_OfficeOpn_CZn" = -49763.8   $ Sizing
 "HtCap_M_OfficeOpn_EZn" = -24308.75   $ Sizing
 "HtCap_M_OfficeOpn_NZn" = -24309.09   $ Sizing
 "HtCap_M_OfficeOpn_SZn" = -24301.94   $ Sizing
 "HtCap_M_OfficeOpn_WZn" = -24307.88   $ Sizing
 "HtCap_M_OfficeSm_CZn" = -6534.629   $ Sizing
 "HtCap_M_OfficeSm_EZn" = -14707.61   $ Sizing
 "HtCap_M_OfficeSm_NZn" = -14708.47   $ Sizing
 "HtCap_M_OfficeSm_SZn" = -14704.32   $ Sizing
 "HtCap_M_OfficeSm_WZn" = -14707.36   $ Sizing
 "HtCap_M_Restrm_CZn" = -6423.233   $ Sizing
 "HtCap_M_StorSm_CZn" = -15165.96   $ Sizing
 "HtCap_Sys_L_Break_C" = -14821.93   $ Sizing
 "HtCap_Sys_L_Break_C" = 0   $ Sizing
 "HtCap_Sys_L_Conf_C" = -19276.96   $ Sizing
 "HtCap_Sys_L_Conf_C" = 0   $ Sizing
 "HtCap_Sys_L_CopyRm_C" = -6046.678   $ Sizing
 "HtCap_Sys_L_CopyRm_C" = 0   $ Sizing
 "HtCap_Sys_L_Cordr_C" = -25673.05   $ Sizing
 "HtCap_Sys_L_Cordr_C" = 0   $ Sizing
 "HtCap_Sys_L_Cordr_E" = -4279.632   $ Sizing
 "HtCap_Sys_L_Cordr_E" = 0   $ Sizing
 "HtCap_Sys_L_Cordr_N" = -4279.987   $ Sizing
 "HtCap_Sys_L_Cordr_N" = 0   $ Sizing
 "HtCap_Sys_L_Cordr_S" = -4278.359   $ Sizing
 "HtCap_Sys_L_Cordr_S" = 0   $ Sizing
 "HtCap_Sys_L_Cordr_W" = -4279.566   $ Sizing
 "HtCap_Sys_L_Cordr_W" = 0   $ Sizing
 "HtCap_Sys_L_LobWait_C" = -18120.45   $ Sizing
 "HtCap_Sys_L_LobWait_C" = 0   $ Sizing
 "HtCap_Sys_L_MechElec_C" = -6088.432   $ Sizing
 "HtCap_Sys_L_MechElec_C" = 0   $ Sizing
 "HtCap_Sys_L_OfficeOpn_C" = -49437.25   $ Sizing
 "HtCap_Sys_L_OfficeOpn_C" = 0   $ Sizing
 "HtCap_Sys_L_OfficeOpn_E" = -24307.75   $ Sizing
 "HtCap_Sys_L_OfficeOpn_E" = 0   $ Sizing
 "HtCap_Sys_L_OfficeOpn_N" = -24308.93   $ Sizing
 "HtCap_Sys_L_OfficeOpn_N" = 0   $ Sizing
 "HtCap_Sys_L_OfficeOpn_S" = -24302.09   $ Sizing
 "HtCap_Sys_L_OfficeOpn_S" = 0   $ Sizing
 "HtCap_Sys_L_OfficeOpn_W" = -24307.39   $ Sizing
 "HtCap_Sys_L_OfficeOpn_W" = 0   $ Sizing
 "HtCap_Sys_L_OfficeSm_C" = -6534.188   $ Sizing
 "HtCap_Sys_L_OfficeSm_C" = 0   $ Sizing
 "HtCap_Sys_L_OfficeSm_E" = -14706.4   $ Sizing
 "HtCap_Sys_L_OfficeSm_E" = 0   $ Sizing
 "HtCap_Sys_L_OfficeSm_N" = -14707.43   $ Sizing
 "HtCap_Sys_L_OfficeSm_N" = 0   $ Sizing
 "HtCap_Sys_L_OfficeSm_S" = -14703.01   $ Sizing
 "HtCap_Sys_L_OfficeSm_S" = 0   $ Sizing
 "HtCap_Sys_L_OfficeSm_W" = -14706.31   $ Sizing
 "HtCap_Sys_L_OfficeSm_W" = 0   $ Sizing
 "HtCap_Sys_L_Restrm_C" = -6575.536   $ Sizing
 "HtCap_Sys_L_Restrm_C" = 0   $ Sizing
 "HtCap_Sys_L_StorSm_C" = -15165.03   $ Sizing
 "HtCap_Sys_L_StorSm_C" = 0   $ Sizing
 "HtCap_Sys_M_Break_C" = -118575.4   $ Sizing
 "HtCap_Sys_M_Break_C" = 0   $ Sizing
 "HtCap_Sys_M_Conf_C" = -154215.7   $ Sizing
 "HtCap_Sys_M_Conf_C" = 0   $ Sizing
 "HtCap_Sys_M_CopyRm_C" = -48373.42   $ Sizing
 "HtCap_Sys_M_CopyRm_C" = 0   $ Sizing
 "HtCap_Sys_M_Cordr_C" = -205387.1   $ Sizing
 "HtCap_Sys_M_Cordr_C" = 0   $ Sizing
 "HtCap_Sys_M_Cordr_E" = -34236.45   $ Sizing
 "HtCap_Sys_M_Cordr_E" = 0   $ Sizing
 "HtCap_Sys_M_Cordr_N" = -34239.36   $ Sizing
 "HtCap_Sys_M_Cordr_N" = 0   $ Sizing
 "HtCap_Sys_M_Cordr_S" = -34224.91   $ Sizing
 "HtCap_Sys_M_Cordr_S" = 0   $ Sizing
 "HtCap_Sys_M_Cordr_W" = -34235.25   $ Sizing
 "HtCap_Sys_M_Cordr_W" = 0   $ Sizing
 "HtCap_Sys_M_LobWait_C" = -144964.7   $ Sizing
 "HtCap_Sys_M_LobWait_C" = 0   $ Sizing
 "HtCap_Sys_M_MechElec_C" = -48710.51   $ Sizing
 "HtCap_Sys_M_MechElec_C" = 0   $ Sizing
 "HtCap_Sys_M_OfficeOpn_C" = -398110.4   $ Sizing
 "HtCap_Sys_M_OfficeOpn_C" = 0   $ Sizing
 "HtCap_Sys_M_OfficeOpn_E" = -194470   $ Sizing
 "HtCap_Sys_M_OfficeOpn_E" = 0   $ Sizing
 "HtCap_Sys_M_OfficeOpn_N" = -194472.7   $ Sizing
 "HtCap_Sys_M_OfficeOpn_N" = 0   $ Sizing
 "HtCap_Sys_M_OfficeOpn_S" = -194415.6   $ Sizing
 "HtCap_Sys_M_OfficeOpn_S" = 0   $ Sizing
 "HtCap_Sys_M_OfficeOpn_W" = -194463.1   $ Sizing
 "HtCap_Sys_M_OfficeOpn_W" = 0   $ Sizing
 "HtCap_Sys_M_OfficeSm_C" = -52277.04   $ Sizing
 "HtCap_Sys_M_OfficeSm_C" = 0   $ Sizing
 "HtCap_Sys_M_OfficeSm_E" = -117660.9   $ Sizing
 "HtCap_Sys_M_OfficeSm_E" = 0   $ Sizing
 "HtCap_Sys_M_OfficeSm_N" = -117667.8   $ Sizing
 "HtCap_Sys_M_OfficeSm_N" = 0   $ Sizing
 "HtCap_Sys_M_OfficeSm_S" = -117634.6   $ Sizing
 "HtCap_Sys_M_OfficeSm_S" = 0   $ Sizing
 "HtCap_Sys_M_OfficeSm_W" = -117658.9   $ Sizing
 "HtCap_Sys_M_OfficeSm_W" = 0   $ Sizing
 "HtCap_Sys_M_Restrm_C" = -51385.86   $ Sizing
 "HtCap_Sys_M_Restrm_C" = 0   $ Sizing
 "HtCap_Sys_M_StorSm_C" = -121327.7   $ Sizing
 "HtCap_Sys_M_StorSm_C" = 0   $ Sizing
 "HtCap_Sys_T_Break_C" = -14821.93   $ Sizing
 "HtCap_Sys_T_Break_C" = 0   $ Sizing
 "HtCap_Sys_T_Conf_C" = -19276.96   $ Sizing
 "HtCap_Sys_T_Conf_C" = 0   $ Sizing
 "HtCap_Sys_T_CopyRm_C" = -6046.678   $ Sizing
 "HtCap_Sys_T_CopyRm_C" = 0   $ Sizing
 "HtCap_Sys_T_Cordr_C" = -25671.58   $ Sizing
 "HtCap_Sys_T_Cordr_C" = 0   $ Sizing
 "HtCap_Sys_T_Cordr_E" = -4279.108   $ Sizing
 "HtCap_Sys_T_Cordr_E" = 0   $ Sizing
 "HtCap_Sys_T_Cordr_N" = -4279.498   $ Sizing
 "HtCap_Sys_T_Cordr_N" = 0   $ Sizing
 "HtCap_Sys_T_Cordr_S" = -4277.58   $ Sizing
 "HtCap_Sys_T_Cordr_S" = 0   $ Sizing
 "HtCap_Sys_T_Cordr_W" = -4278.951   $ Sizing
 "HtCap_Sys_T_Cordr_W" = 0   $ Sizing
 "HtCap_Sys_T_LobWait_C" = -18120.47   $ Sizing
 "HtCap_Sys_T_LobWait_C" = 0   $ Sizing
 "HtCap_Sys_T_MechElec_C" = -6091.121   $ Sizing
 "HtCap_Sys_T_MechElec_C" = 0   $ Sizing
 "HtCap_Sys_T_OfficeOpn_C" = -49428.25   $ Sizing
 "HtCap_Sys_T_OfficeOpn_C" = 0   $ Sizing
 "HtCap_Sys_T_OfficeOpn_E" = -24306.93   $ Sizing
 "HtCap_Sys_T_OfficeOpn_E" = 0   $ Sizing
 "HtCap_Sys_T_OfficeOpn_N" = -24307.74   $ Sizing
 "HtCap_Sys_T_OfficeOpn_N" = 0   $ Sizing
 "HtCap_Sys_T_OfficeOpn_S" = -24299.89   $ Sizing
 "HtCap_Sys_T_OfficeOpn_S" = 0   $ Sizing
 "HtCap_Sys_T_OfficeOpn_W" = -24305.98   $ Sizing
 "HtCap_Sys_T_OfficeOpn_W" = 0   $ Sizing
 "HtCap_Sys_T_OfficeSm_C" = -6534.014   $ Sizing
 "HtCap_Sys_T_OfficeSm_C" = 0   $ Sizing
 "HtCap_Sys_T_OfficeSm_E" = -14706.02   $ Sizing
 "HtCap_Sys_T_OfficeSm_E" = 0   $ Sizing
 "HtCap_Sys_T_OfficeSm_N" = -14706.96   $ Sizing
 "HtCap_Sys_T_OfficeSm_N" = 0   $ Sizing
 "HtCap_Sys_T_OfficeSm_S" = -14702.16   $ Sizing
 "HtCap_Sys_T_OfficeSm_S" = 0   $ Sizing
 "HtCap_Sys_T_OfficeSm_W" = -14705.64   $ Sizing
 "HtCap_Sys_T_OfficeSm_W" = 0   $ Sizing
 "HtCap_Sys_T_Restrm_C" = -6372.669   $ Sizing
 "HtCap_Sys_T_Restrm_C" = 0   $ Sizing
 "HtCap_Sys_T_StorSm_C" = -15160.78   $ Sizing
 "HtCap_Sys_T_StorSm_C" = 0   $ Sizing
 "HtCap_T_Break_CZn" = -14821.93   $ Sizing
 "HtCap_T_Conf_CZn" = -19276.96   $ Sizing
 "HtCap_T_CopyRm_CZn" = -6046.677   $ Sizing
 "HtCap_T_Cordr_CZn" = -25671.58   $ Sizing
 "HtCap_T_Cordr_EZn" = -4279.108   $ Sizing
 "HtCap_T_Cordr_NZn" = -4279.498   $ Sizing
 "HtCap_T_Cordr_SZn" = -4277.58   $ Sizing
 "HtCap_T_Cordr_WZn" = -4278.951   $ Sizing
 "HtCap_T_LobWait_CZn" = -18120.46   $ Sizing
 "HtCap_T_MechElec_CZn" = -6091.121   $ Sizing
 "HtCap_T_OfficeOpn_CZn" = -49428.25   $ Sizing
 "HtCap_T_OfficeOpn_EZn" = -24306.92   $ Sizing
 "HtCap_T_OfficeOpn_NZn" = -24307.73   $ Sizing
 "HtCap_T_OfficeOpn_SZn" = -24299.89   $ Sizing
 "HtCap_T_OfficeOpn_WZn" = -24305.98   $ Sizing
 "HtCap_T_OfficeSm_CZn" = -6534.014   $ Sizing
 "HtCap_T_OfficeSm_EZn" = -14706.02   $ Sizing
 "HtCap_T_OfficeSm_NZn" = -14706.96   $ Sizing
 "HtCap_T_OfficeSm_SZn" = -14702.16   $ Sizing
 "HtCap_T_OfficeSm_WZn" = -14705.64   $ Sizing
 "HtCap_T_Restrm_CZn" = -6372.668   $ Sizing
 "HtCap_T_StorSm_CZn" = -15160.78   $ Sizing
..

##include Templates\OfL_DX_SZ.inp
END ..
COMPUTE ..
STOP ..
