INPUT ..

##fileprefix C:\Users\jglasskatz\MASControl3\
##set1 IsSizing FALSE
##set1 CoolType DX
##set1 HeatType FURNACE
##set1 EU_HrRepVar 0
##set1 BldgVint 2015
##set1 BldgLoc CZ04

 ##set1 mBFMult 1   $ IP Tech: RefgChg-NRes-Std

PARAMETER
 "AltFactor" = 1.00501   $ IP Non-Tech
 "BF_fFlow" = SpltAC1Sp-ge45_BF_fFlow   $ Msr (Var)TechID: PreNResSplitAC-45to-PENo
 "BF_fT" = SpltAC1Sp-ge45_BF_fT   $ Msr (Var)TechID: PreNResSplitAC-45to-PENo
 "BldgEconoFlag" = 1   $ IP Non-Tech
 "Break_EWSF" = 1   $ IP Non-Tech
 "Break_LWSF" = 1.1   $ IP Non-Tech
 "CDD_DBHi10" = 82   $ IP Non-Tech
 "CDD_DBHi7" = 91   $ IP Non-Tech
 "CDD_DBHi8" = 88   $ IP Non-Tech
 "CDD_DBHi9" = 95   $ IP Non-Tech
 "CDD_DBRange10" = 29   $ IP Non-Tech
 "CDD_DBRange7" = 33   $ IP Non-Tech
 "CDD_DBRange8" = 27   $ IP Non-Tech
 "CDD_DBRange9" = 35   $ IP Non-Tech
 "CDD_Day10" = 15   $ IP Non-Tech
 "CDD_Day7" = 16   $ IP Non-Tech
 "CDD_Day8" = 20   $ IP Non-Tech
 "CDD_Day9" = 17   $ IP Non-Tech
 "CDD_HrHi10" = 13   $ IP Non-Tech
 "CDD_HrHi7" = 15   $ IP Non-Tech
 "CDD_HrHi8" = 14   $ IP Non-Tech
 "CDD_HrHi9" = 15   $ IP Non-Tech
 "CDD_HrLo10" = 3   $ IP Non-Tech
 "CDD_HrLo7" = 3   $ IP Non-Tech
 "CDD_HrLo8" = 1   $ IP Non-Tech
 "CDD_HrLo9" = 7   $ IP Non-Tech
 "CDD_WB10" = 63.1697731   $ IP Non-Tech
 "CDD_WB7" = 68.42946625   $ IP Non-Tech
 "CDD_WB8" = 67.10523987   $ IP Non-Tech
 "CDD_WB9" = 68.06200409   $ IP Non-Tech
 "CEIR_fPLR_Hot" = SpltAC1Sp-ge45_CEIR_fPLR_Hot   $ Msr (Var)TechID: PreNResSplitAC-45to-PENo
 "CEIR_fPLR_Mod" = SpltAC1Sp-ge45_CEIR_fPLR_Mod   $ Msr (Var)TechID: PreNResSplitAC-45to-PENo
 "CEIR_fPLR_Tem" = SpltAC1Sp-ge45_CEIR_fPLR_Tem   $ Msr (Var)TechID: PreNResSplitAC-45to-PENo
 "CLoss_fPLR_Hot" = SpltAC1Sp-ge45_CLoss_fPLR_Hot   $ Msr (Var)TechID: PreNResSplitAC-45to-PENo
 "CLoss_fPLR_Mod" = SpltAC1Sp-ge45_CLoss_fPLR_Mod   $ Msr (Var)TechID: PreNResSplitAC-45to-PENo
 "CLoss_fPLR_Tem" = SpltAC1Sp-ge45_CLoss_fPLR_Tem   $ Msr (Var)TechID: PreNResSplitAC-45to-PENo
 "COP47" = 0   $ Msr (Var)TechID: PreNResSplitAC-45to-PENo
 "CZ_Category" = Mod   $ IP Non-Tech
 "CapRange" = ge45   $ Msr (Var)TechID: PreNResSplitAC-45to-PENo
 "CfmPerBtuh" = 0.03263   $ Msr (Var)TechID: PreNResSplitAC-45to-PENo
 "ChwVintEconoFlag" = 1   $ IP Non-Tech
 "ClCap_fT" = SpltAC1Sp-ge45_ClCap_fT   $ Msr (Var)TechID: PreNResSplitAC-45to-PENo
 "ClSH_fT" = SpltAC1Sp-ge45_ClSH_fT   $ Msr (Var)TechID: PreNResSplitAC-45to-PENo
 "CoilBF" = 0.106518182   $ Msr (Var)TechID: PreNResSplitAC-45to-PENo
 "CondWPerBtuh" = 0   $ Msr (Var)TechID: PreNResSplitAC-45to-PENo
 "Conference_EWSF" = 1   $ IP Non-Tech
 "Conference_LWSF" = 1.4   $ IP Non-Tech
 "CoolSensCap" = 0.759218182   $ Msr (Var)TechID: PreNResSplitAC-45to-PENo
 "CoolSetT" = 45   $ IP Non-Tech
 "CoolType" = DX   $ IP Non-Tech
 "CoolingEIR" = 0.2466   $ Msr (Var)TechID: PreNResSplitAC-45to-PENo
 "CopyRoom_EWSF" = 1.5   $ IP Non-Tech
 "CopyRoom_LWSF" = 1.3   $ IP Non-Tech
 "CorridorStairway_EWSF" = 0.2   $ IP Non-Tech
 "CorridorStairway_LWSF" = 0.6   $ IP Non-Tech
 "CrnkEIR" = 0.002466   $ Msr (Var)TechID: PreNResSplitAC-45to-PENo
 "CrnkMaxT" = 50   $ Msr (Var)TechID: PreNResSplitAC-45to-PENo
 "DXType" = SplitSEER   $ Msr (Var)TechID: PreNResSplitAC-45to-PENo
 "DesCoolT" = 75   $ IP Non-Tech
 "DesHeatT" = 73   $ IP Non-Tech
 "EER" = 11.81793103   $ Msr (Var)TechID: PreNResSplitAC-45to-PENo
 "EIR_fT" = SpltAC1Sp-ge45_EIR_fT   $ Msr (Var)TechID: PreNResSplitAC-45to-PENo
 "EconoCtrl" = FIXED   $ Msr (Multi)TechID: PreNResSplitAC-45to-PENo
 "EconoEnthLimit" = 28   $ IP Non-Tech
 "EconoTempLimit" = 73   $ IP Non-Tech
 "Elevation" = 135   $ IP Non-Tech
 "FanEirPlr" = TwoSpeedFan   $ Msr (Var)TechID: PreNResSplitAC-45to-PENo
 "FanWPerCfm" = 0.294   $ Msr (Var)TechID: PreNResSplitAC-45to-PENo
 "HDD_CloudAmt1" = 0   $ IP Non-Tech
 "HDD_DBHi1" = 57   $ IP Non-Tech
 "HDD_DBRange1" = 28.92485619   $ IP Non-Tech
 "HDD_Day1" = 15   $ IP Non-Tech
 "HDD_HrHi1" = 16   $ IP Non-Tech
 "HDD_HrLo1" = 4   $ IP Non-Tech
 "HDD_WB1" = 44.7   $ IP Non-Tech
 "HDD_WindSpd1" = 13.8   $ IP Non-Tech
 "HIR_fT" = 0   $ Msr (Var)TechID: PreNResSplitAC-45to-PENo
 "HSPF" = 0   $ Msr (Var)TechID: PreNResSplitAC-45to-PENo
 "HeatSrc" = FURNACE   $ IP Non-Tech
 "HeatSrcTU" = HEAT-PUMP   $ IP Non-Tech
 "HeatType" = GasFurn   $ IP Non-Tech
 "HeatTypeTU" = HEAT-PUMP   $ IP Non-Tech
 "HtCap_fT" = 0   $ Msr (Var)TechID: PreNResSplitAC-45to-PENo
 "HtCoolCapRatio" = 0   $ Msr (Var)TechID: PreNResSplitAC-45to-PENo
 "HtgEIR" = 0   $ Msr (Var)TechID: PreNResSplitAC-45to-PENo
 "IndoorFanMode" = CONTINUOUS   $ IP Non-Tech
 "KT_TransferAir" = Yes   $ IP Non-Tech
 "Latitude" = 37.4   $ IP Non-Tech
 "LobbyWaiting_EWSF" = 0.5   $ IP Non-Tech
 "LobbyWaiting_LWSF" = 1.3   $ IP Non-Tech
 "Longitude" = 122   $ IP Non-Tech
 "LowSpdCapRatio" = 1   $ Msr (Var)TechID: PreNResSplitAC-45to-PENo
 "LowSpdCfmRatio" = 1   $ Msr (Var)TechID: PreNResSplitAC-45to-PENo
 "MZFanMechEff" = 0.58   $ IP Non-Tech
 "MZHasRetFan" = FALSE   $ IP Non-Tech
 "MZ_RFanWPerCfm" = 0.37   $ IP Non-Tech
 "MZ_SFanWPerCfm" = 0.71   $ IP Non-Tech
 "MZ_SupFanStatic" = 2.25   $ IP Non-Tech
 "MaxOAFrac" = 1   $ Msr (Multi)TechID: PreNResSplitAC-45to-PENo
 "MaxSupT_MZ" = 100   $ IP Non-Tech
 "MaxSupT_SZ" = 100   $ IP Non-Tech
 "MaxSupT_TU" = 90   $ IP Non-Tech
 "MechElecRoom_EWSF" = 0.2   $ IP Non-Tech
 "MechElecRoom_LWSF" = 0.7   $ IP Non-Tech
 "MinCfmPerSF" = 0.4   $ IP Non-Tech
 "MinSupT" = 55   $ IP Non-Tech
 "NumStages" = 1   $ Msr (Var)TechID: PreNResSplitAC-45to-PENo
 "OccCoolT" = 76   $ IP Non-Tech
 "OccHeatT" = 72   $ IP Non-Tech
 "OfficeOpen_EWSF" = 1.5   $ IP Non-Tech
 "OfficeOpen_LWSF" = 1.05   $ IP Non-Tech
 "OfficeSmall_EWSF" = 1.5   $ IP Non-Tech
 "OfficeSmall_LWSF" = 1.3   $ IP Non-Tech
 "PkgDxVintEconoFlag" = 1   $ IP Non-Tech
 "Restroom_EWSF" = 0.2   $ IP Non-Tech
 "Restroom_LWSF" = 0.6   $ IP Non-Tech
 "SEER" = 14   $ Msr (Var)TechID: PreNResSplitAC-45to-PENo
 "SZFanMechEff" = 0.58   $ IP Non-Tech
 "SZHasRetFan" = FALSE   $ IP Non-Tech
 "SZ_Is_2Spd" = TRUE   $ IP Non-Tech
 "SZ_SFanWPerCfm" = 0.46   $ IP Non-Tech
 "SZ_SupFanStatic" = 0.75   $ IP Non-Tech
 "Sector" = Any   $ Msr (Var)TechID: PreNResSplitAC-45to-PENo
 "StorageSmlCond_EWSF" = 0.2   $ IP Non-Tech
 "StorageSmlCond_LWSF" = 0.6   $ IP Non-Tech
 "SubType" = AC   $ Msr (Var)TechID: PreNResSplitAC-45to-PENo
 "T24GlzTbl" = TypeTbl   $ IP Non-Tech
 "TermUnitFanMechEff" = 1   $ IP Non-Tech
 "TermUnitFanMode" = INTERMITTENT   $ IP Non-Tech
 "TotCoolCap" = 52519.36364   $ Msr (Var)TechID: PreNResSplitAC-45to-PENo
 "TwrSetpt" = 80   $ IP Non-Tech
 "UnocCoolT" = 86   $ IP Non-Tech
 "UnocHeatT" = 62   $ IP Non-Tech
 "UseEconoVintApplic" = FALSE   $ Msr (Multi)TechID: PreNResSplitAC-45to-PENo
 "WlhpVintEconoFlag" = 1   $ IP Non-Tech
 "DuctDT" = 1   $ IP Tech: ComDuctInsul-1
 "DuctAirLoss" = 0   $ IP Tech: ComDuctLeak-0
 "DuctLossOAFrac" = 0   $ IP Tech: ComDuctLeak-0
 "ComRoofInsCalc" = FromUo   $ IP Tech: ComRoofIns-Hvy-0.04
 "ComRoofInsR" = -999   $ IP Tech: ComRoofIns-Hvy-0.04
 "ComRoofUo" = 0.04   $ IP Tech: ComRoofIns-Hvy-0.04
 "ComEWInsCalc" = FromUo   $ IP Tech: ComWallIns-MFrm-0.06
 "ComEWInsR" = -999   $ IP Tech: ComWallIns-MFrm-0.06
 "ComEWUo" = 0.06   $ IP Tech: ComWallIns-MFrm-0.06
 "ComN_SHGC" = 0.26   $ IP Tech: NResWin-ComN-0.41-0.26
 "ComN_UFactor" = 0.41   $ IP Tech: NResWin-ComN-0.41-0.26
 "ComN_VisTrans" = 0.41   $ IP Tech: NResWin-ComN-0.41-0.26
 "ComN_WinCode" = G2666   $ IP Tech: NResWin-ComN-0.41-0.26
 "ComN_WinFrmFrac" = 0.17   $ IP Tech: NResWin-ComN-0.41-0.26
 "ComN_WinFrmU" = 0.3   $ IP Tech: NResWin-ComN-0.41-0.26
 "ComO_SHGC" = 0.26   $ IP Tech: NResWin-ComO-0.41-0.26
 "ComO_UFactor" = 0.41   $ IP Tech: NResWin-ComO-0.41-0.26
 "ComO_VisTrans" = 0.41   $ IP Tech: NResWin-ComO-0.41-0.26
 "ComO_WinCode" = G2666   $ IP Tech: NResWin-ComO-0.41-0.26
 "ComO_WinFrmFrac" = 0.17   $ IP Tech: NResWin-ComO-0.41-0.26
 "ComO_WinFrmU" = 0.3   $ IP Tech: NResWin-ComO-0.41-0.26
 "LtgMsrApplic" = ALL   $ IP Tech: NonResLtgRefPre
 "LtgSav_CFL" = 0   $ IP Tech: NonResLtgRefPre
 "LtgSav_EX" = 0   $ IP Tech: NonResLtgRefPre
 "LtgSav_HB" = 0   $ IP Tech: NonResLtgRefPre
 "LtgSav_LF" = 0   $ IP Tech: NonResLtgRefPre
 "LtgSav_SP" = 0   $ IP Tech: NonResLtgRefPre
 "CEIR_fPLR" = PSZ65to135_CEIR_fPLR   $ IP Tech: PkgAC2SpP-65to135-E11
 "CLoss_fPLR" = PSZ65to135_CLoss_fPLR   $ IP Tech: PkgAC2SpP-65to135-E11
 "COP" = -1   $ IP Tech: PkgAC2SpP-65to135-E11
 "HtgFuel" = Gas   $ IP Tech: PkgAC2SpP-65to135-E11
 "IEER" = 13.35   $ IP Tech: PkgAC2SpP-65to135-E11
 "NominalCap" = 15   $ IP Tech: PkgAC2SpP-65to135-E11
 "RatedEER" = 11   $ IP Tech: PkgAC2SpP-65to135-E11
 "RatedSupMtrClass" = Premium   $ IP Tech: PkgAC2SpP-65to135-E11
 "SizeRange" = 65to135   $ IP Tech: PkgAC2SpP-65to135-E11
 "SupMotEff" = 0.865   $ IP Tech: PkgAC2SpP-65to135-E11
 "Tier" = 0   $ IP Tech: PkgAC2SpP-65to135-E11
 "FanPwrMult" = 1   $ IP Tech: PkgFurn-0.80AFUE
 "FurnAFUE" = 0.8   $ IP Tech: PkgFurn-0.80AFUE
 "FurnEt" = 0.82   $ IP Tech: PkgFurn-0.80AFUE
 "FurnaceAuxKW" = 0.1   $ IP Tech: PkgFurn-0.80AFUE
 "HIR_fPLR" = Furnace-HIR-fPLR   $ IP Tech: PkgFurn-0.80AFUE
 "VSM" = FALSE   $ IP Tech: PkgFurn-0.80AFUE
 "BFMult" = 1   $ IP Tech: RefgChg-NRes-Std
 "CoolEirMult" = 1   $ IP Tech: RefgChg-NRes-Std
 "SensCoolCapMult" = 1   $ IP Tech: RefgChg-NRes-Std
 "TotCoolCapMult" = 1   $ IP Tech: RefgChg-NRes-Std
 "AltAdjFactor" = 1.005014   $ Sizing
 "CAssFlo_L_Break_CZn" = 444.1778   $ Sizing
 "CAssFlo_L_Conf_CZn" = 422.6046   $ Sizing
 "CAssFlo_L_CopyRm_CZn" = 133.5424   $ Sizing
 "CAssFlo_L_Cordr_CZn" = 492.2815   $ Sizing
 "CAssFlo_L_Cordr_EZn" = 172.2732   $ Sizing
 "CAssFlo_L_Cordr_NZn" = 103.2246   $ Sizing
 "CAssFlo_L_Cordr_SZn" = 200.811   $ Sizing
 "CAssFlo_L_Cordr_WZn" = 209.168   $ Sizing
 "CAssFlo_L_LobWait_CZn" = 423.8314   $ Sizing
 "CAssFlo_L_MechElec_CZn" = 89.51371   $ Sizing
 "CAssFlo_L_OfficeOpn_CZn" = 1545.729   $ Sizing
 "CAssFlo_L_OfficeOpn_EZn" = 1291.342   $ Sizing
 "CAssFlo_L_OfficeOpn_NZn" = 900.4305   $ Sizing
 "CAssFlo_L_OfficeOpn_SZn" = 1457.215   $ Sizing
 "CAssFlo_L_OfficeOpn_WZn" = 1576.513   $ Sizing
 "CAssFlo_L_OfficeSm_CZn" = 193.4449   $ Sizing
 "CAssFlo_L_OfficeSm_EZn" = 919.5906   $ Sizing
 "CAssFlo_L_OfficeSm_NZn" = 574.3701   $ Sizing
 "CAssFlo_L_OfficeSm_SZn" = 1033.865   $ Sizing
 "CAssFlo_L_OfficeSm_WZn" = 1106.639   $ Sizing
 "CAssFlo_L_Restrm_CZn" = 76.2579   $ Sizing
 "CAssFlo_L_StorSm_CZn" = 262.7799   $ Sizing
 "CAssFlo_M_Break_CZn" = 449.2495   $ Sizing
 "CAssFlo_M_Conf_CZn" = 423.9558   $ Sizing
 "CAssFlo_M_CopyRm_CZn" = 135.9243   $ Sizing
 "CAssFlo_M_Cordr_CZn" = 647.8966   $ Sizing
 "CAssFlo_M_Cordr_EZn" = 207.3769   $ Sizing
 "CAssFlo_M_Cordr_NZn" = 126.0713   $ Sizing
 "CAssFlo_M_Cordr_SZn" = 227.5044   $ Sizing
 "CAssFlo_M_Cordr_WZn" = 229.0977   $ Sizing
 "CAssFlo_M_LobWait_CZn" = 447.4544   $ Sizing
 "CAssFlo_M_MechElec_CZn" = 102.0697   $ Sizing
 "CAssFlo_M_OfficeOpn_CZn" = 1544.163   $ Sizing
 "CAssFlo_M_OfficeOpn_EZn" = 1416.282   $ Sizing
 "CAssFlo_M_OfficeOpn_NZn" = 970.5442   $ Sizing
 "CAssFlo_M_OfficeOpn_SZn" = 1558.801   $ Sizing
 "CAssFlo_M_OfficeOpn_WZn" = 1635.452   $ Sizing
 "CAssFlo_M_OfficeSm_CZn" = 213.492   $ Sizing
 "CAssFlo_M_OfficeSm_EZn" = 993.6649   $ Sizing
 "CAssFlo_M_OfficeSm_NZn" = 619.4257   $ Sizing
 "CAssFlo_M_OfficeSm_SZn" = 1097.827   $ Sizing
 "CAssFlo_M_OfficeSm_WZn" = 1143.258   $ Sizing
 "CAssFlo_M_Restrm_CZn" = 83.28172   $ Sizing
 "CAssFlo_M_StorSm_CZn" = 277.1166   $ Sizing
 "CAssFlo_T_Break_CZn" = 441.846   $ Sizing
 "CAssFlo_T_Conf_CZn" = 417.9839   $ Sizing
 "CAssFlo_T_CopyRm_CZn" = 132.299   $ Sizing
 "CAssFlo_T_Cordr_CZn" = 601.8647   $ Sizing
 "CAssFlo_T_Cordr_EZn" = 197.5599   $ Sizing
 "CAssFlo_T_Cordr_NZn" = 124.4902   $ Sizing
 "CAssFlo_T_Cordr_SZn" = 222.2086   $ Sizing
 "CAssFlo_T_Cordr_WZn" = 221.2645   $ Sizing
 "CAssFlo_T_LobWait_CZn" = 437.7376   $ Sizing
 "CAssFlo_T_MechElec_CZn" = 112.8236   $ Sizing
 "CAssFlo_T_OfficeOpn_CZn" = 1534.701   $ Sizing
 "CAssFlo_T_OfficeOpn_EZn" = 1376.973   $ Sizing
 "CAssFlo_T_OfficeOpn_NZn" = 969.0126   $ Sizing
 "CAssFlo_T_OfficeOpn_SZn" = 1543.614   $ Sizing
 "CAssFlo_T_OfficeOpn_WZn" = 1594.46   $ Sizing
 "CAssFlo_T_OfficeSm_CZn" = 213.0326   $ Sizing
 "CAssFlo_T_OfficeSm_EZn" = 992.8065   $ Sizing
 "CAssFlo_T_OfficeSm_NZn" = 624.7097   $ Sizing
 "CAssFlo_T_OfficeSm_SZn" = 1102.274   $ Sizing
 "CAssFlo_T_OfficeSm_WZn" = 1133.027   $ Sizing
 "CAssFlo_T_Restrm_CZn" = 102.9527   $ Sizing
 "CAssFlo_T_StorSm_CZn" = 205.6549   $ Sizing
 "CHRtFlo_Sys_L_Break_C" = 444.1778   $ Sizing
 "CHRtFlo_Sys_L_Conf_C" = 444.5658   $ Sizing
 "CHRtFlo_Sys_L_CopyRm_C" = 133.5424   $ Sizing
 "CHRtFlo_Sys_L_Cordr_C" = 568.7258   $ Sizing
 "CHRtFlo_Sys_L_Cordr_E" = 227.4852   $ Sizing
 "CHRtFlo_Sys_L_Cordr_N" = 103.2246   $ Sizing
 "CHRtFlo_Sys_L_Cordr_S" = 227.3835   $ Sizing
 "CHRtFlo_Sys_L_Cordr_W" = 220.5065   $ Sizing
 "CHRtFlo_Sys_L_LobWait_C" = 423.8314   $ Sizing
 "CHRtFlo_Sys_L_MechElec_C" = 133.8343   $ Sizing
 "CHRtFlo_Sys_L_OfficeOpn_C" = 1681.841   $ Sizing
 "CHRtFlo_Sys_L_OfficeOpn_E" = 1715.863   $ Sizing
 "CHRtFlo_Sys_L_OfficeOpn_N" = 932.1877   $ Sizing
 "CHRtFlo_Sys_L_OfficeOpn_S" = 1698.985   $ Sizing
 "CHRtFlo_Sys_L_OfficeOpn_W" = 1729.386   $ Sizing
 "CHRtFlo_Sys_L_OfficeSm_C" = 233.5427   $ Sizing
 "CHRtFlo_Sys_L_OfficeSm_E" = 1237.694   $ Sizing
 "CHRtFlo_Sys_L_OfficeSm_N" = 603.1499   $ Sizing
 "CHRtFlo_Sys_L_OfficeSm_S" = 1244.259   $ Sizing
 "CHRtFlo_Sys_L_OfficeSm_W" = 1241.053   $ Sizing
 "CHRtFlo_Sys_L_Restrm_C" = 211.3316   $ Sizing
 "CHRtFlo_Sys_L_StorSm_C" = 376.167   $ Sizing
 "CHRtFlo_Sys_M_Break_C" = 3593.996   $ Sizing
 "CHRtFlo_Sys_M_Conf_C" = 4040.372   $ Sizing
 "CHRtFlo_Sys_M_CopyRm_C" = 1148.431   $ Sizing
 "CHRtFlo_Sys_M_Cordr_C" = 7288.888   $ Sizing
 "CHRtFlo_Sys_M_Cordr_E" = 2223.635   $ Sizing
 "CHRtFlo_Sys_M_Cordr_N" = 1074.876   $ Sizing
 "CHRtFlo_Sys_M_Cordr_S" = 2109.299   $ Sizing
 "CHRtFlo_Sys_M_Cordr_W" = 1970.514   $ Sizing
 "CHRtFlo_Sys_M_LobWait_C" = 4173.906   $ Sizing
 "CHRtFlo_Sys_M_MechElec_C" = 1294.396   $ Sizing
 "CHRtFlo_Sys_M_OfficeOpn_C" = 16253.12   $ Sizing
 "CHRtFlo_Sys_M_OfficeOpn_E" = 15117.9   $ Sizing
 "CHRtFlo_Sys_M_OfficeOpn_N" = 8194.416   $ Sizing
 "CHRtFlo_Sys_M_OfficeOpn_S" = 14806.17   $ Sizing
 "CHRtFlo_Sys_M_OfficeOpn_W" = 14477.67   $ Sizing
 "CHRtFlo_Sys_M_OfficeSm_C" = 2379.627   $ Sizing
 "CHRtFlo_Sys_M_OfficeSm_E" = 10738.72   $ Sizing
 "CHRtFlo_Sys_M_OfficeSm_N" = 5296.029   $ Sizing
 "CHRtFlo_Sys_M_OfficeSm_S" = 10733.82   $ Sizing
 "CHRtFlo_Sys_M_OfficeSm_W" = 10308.9   $ Sizing
 "CHRtFlo_Sys_M_Restrm_C" = 1690.653   $ Sizing
 "CHRtFlo_Sys_M_StorSm_C" = 3227.611   $ Sizing
 "CHRtFlo_Sys_T_Break_C" = 441.846   $ Sizing
 "CHRtFlo_Sys_T_Conf_C" = 462.8697   $ Sizing
 "CHRtFlo_Sys_T_CopyRm_C" = 132.299   $ Sizing
 "CHRtFlo_Sys_T_Cordr_C" = 787.3649   $ Sizing
 "CHRtFlo_Sys_T_Cordr_E" = 245.1227   $ Sizing
 "CHRtFlo_Sys_T_Cordr_N" = 124.4902   $ Sizing
 "CHRtFlo_Sys_T_Cordr_S" = 239.6403   $ Sizing
 "CHRtFlo_Sys_T_Cordr_W" = 223.0522   $ Sizing
 "CHRtFlo_Sys_T_LobWait_C" = 461.9815   $ Sizing
 "CHRtFlo_Sys_T_MechElec_C" = 175.2975   $ Sizing
 "CHRtFlo_Sys_T_OfficeOpn_C" = 1813.665   $ Sizing
 "CHRtFlo_Sys_T_OfficeOpn_E" = 1718.681   $ Sizing
 "CHRtFlo_Sys_T_OfficeOpn_N" = 969.0126   $ Sizing
 "CHRtFlo_Sys_T_OfficeOpn_S" = 1734.474   $ Sizing
 "CHRtFlo_Sys_T_OfficeOpn_W" = 1671.191   $ Sizing
 "CHRtFlo_Sys_T_OfficeSm_C" = 275.5166   $ Sizing
 "CHRtFlo_Sys_T_OfficeSm_E" = 1255.761   $ Sizing
 "CHRtFlo_Sys_T_OfficeSm_N" = 628.7167   $ Sizing
 "CHRtFlo_Sys_T_OfficeSm_S" = 1284.434   $ Sizing
 "CHRtFlo_Sys_T_OfficeSm_W" = 1217.656   $ Sizing
 "CHRtFlo_Sys_T_Restrm_C" = 211.3316   $ Sizing
 "CHRtFlo_Sys_T_StorSm_C" = 333.2543   $ Sizing
 "CRtdFlo_Sys_L_Break_C" = 444.1778   $ Sizing
 "CRtdFlo_Sys_L_Conf_C" = 422.6046   $ Sizing
 "CRtdFlo_Sys_L_CopyRm_C" = 133.5424   $ Sizing
 "CRtdFlo_Sys_L_Cordr_C" = 492.2815   $ Sizing
 "CRtdFlo_Sys_L_Cordr_E" = 172.2732   $ Sizing
 "CRtdFlo_Sys_L_Cordr_N" = 103.2246   $ Sizing
 "CRtdFlo_Sys_L_Cordr_S" = 200.811   $ Sizing
 "CRtdFlo_Sys_L_Cordr_W" = 209.168   $ Sizing
 "CRtdFlo_Sys_L_LobWait_C" = 423.8314   $ Sizing
 "CRtdFlo_Sys_L_MechElec_C" = 89.51371   $ Sizing
 "CRtdFlo_Sys_L_OfficeOpn_C" = 1545.729   $ Sizing
 "CRtdFlo_Sys_L_OfficeOpn_E" = 1291.342   $ Sizing
 "CRtdFlo_Sys_L_OfficeOpn_N" = 900.4305   $ Sizing
 "CRtdFlo_Sys_L_OfficeOpn_S" = 1457.215   $ Sizing
 "CRtdFlo_Sys_L_OfficeOpn_W" = 1576.514   $ Sizing
 "CRtdFlo_Sys_L_OfficeSm_C" = 193.4449   $ Sizing
 "CRtdFlo_Sys_L_OfficeSm_E" = 919.5906   $ Sizing
 "CRtdFlo_Sys_L_OfficeSm_N" = 574.3701   $ Sizing
 "CRtdFlo_Sys_L_OfficeSm_S" = 1033.865   $ Sizing
 "CRtdFlo_Sys_L_OfficeSm_W" = 1106.639   $ Sizing
 "CRtdFlo_Sys_L_Restrm_C" = 76.25791   $ Sizing
 "CRtdFlo_Sys_L_StorSm_C" = 262.7799   $ Sizing
 "CRtdFlo_Sys_M_Break_C" = 3593.996   $ Sizing
 "CRtdFlo_Sys_M_Conf_C" = 3391.646   $ Sizing
 "CRtdFlo_Sys_M_CopyRm_C" = 1087.394   $ Sizing
 "CRtdFlo_Sys_M_Cordr_C" = 5183.173   $ Sizing
 "CRtdFlo_Sys_M_Cordr_E" = 1659.015   $ Sizing
 "CRtdFlo_Sys_M_Cordr_N" = 1008.57   $ Sizing
 "CRtdFlo_Sys_M_Cordr_S" = 1820.035   $ Sizing
 "CRtdFlo_Sys_M_Cordr_W" = 1832.782   $ Sizing
 "CRtdFlo_Sys_M_LobWait_C" = 3579.635   $ Sizing
 "CRtdFlo_Sys_M_MechElec_C" = 816.5578   $ Sizing
 "CRtdFlo_Sys_M_OfficeOpn_C" = 12353.31   $ Sizing
 "CRtdFlo_Sys_M_OfficeOpn_E" = 11330.26   $ Sizing
 "CRtdFlo_Sys_M_OfficeOpn_N" = 7764.354   $ Sizing
 "CRtdFlo_Sys_M_OfficeOpn_S" = 12470.41   $ Sizing
 "CRtdFlo_Sys_M_OfficeOpn_W" = 13083.62   $ Sizing
 "CRtdFlo_Sys_M_OfficeSm_C" = 1707.936   $ Sizing
 "CRtdFlo_Sys_M_OfficeSm_E" = 7949.319   $ Sizing
 "CRtdFlo_Sys_M_OfficeSm_N" = 4955.406   $ Sizing
 "CRtdFlo_Sys_M_OfficeSm_S" = 8782.614   $ Sizing
 "CRtdFlo_Sys_M_OfficeSm_W" = 9146.063   $ Sizing
 "CRtdFlo_Sys_M_Restrm_C" = 666.2538   $ Sizing
 "CRtdFlo_Sys_M_StorSm_C" = 2216.933   $ Sizing
 "CRtdFlo_Sys_T_Break_C" = 441.846   $ Sizing
 "CRtdFlo_Sys_T_Conf_C" = 417.9839   $ Sizing
 "CRtdFlo_Sys_T_CopyRm_C" = 132.299   $ Sizing
 "CRtdFlo_Sys_T_Cordr_C" = 601.8647   $ Sizing
 "CRtdFlo_Sys_T_Cordr_E" = 197.5599   $ Sizing
 "CRtdFlo_Sys_T_Cordr_N" = 124.4902   $ Sizing
 "CRtdFlo_Sys_T_Cordr_S" = 222.2086   $ Sizing
 "CRtdFlo_Sys_T_Cordr_W" = 221.2645   $ Sizing
 "CRtdFlo_Sys_T_LobWait_C" = 437.7376   $ Sizing
 "CRtdFlo_Sys_T_MechElec_C" = 112.8236   $ Sizing
 "CRtdFlo_Sys_T_OfficeOpn_C" = 1534.701   $ Sizing
 "CRtdFlo_Sys_T_OfficeOpn_E" = 1376.973   $ Sizing
 "CRtdFlo_Sys_T_OfficeOpn_N" = 969.0126   $ Sizing
 "CRtdFlo_Sys_T_OfficeOpn_S" = 1543.614   $ Sizing
 "CRtdFlo_Sys_T_OfficeOpn_W" = 1594.46   $ Sizing
 "CRtdFlo_Sys_T_OfficeSm_C" = 213.0326   $ Sizing
 "CRtdFlo_Sys_T_OfficeSm_E" = 992.8065   $ Sizing
 "CRtdFlo_Sys_T_OfficeSm_N" = 624.7097   $ Sizing
 "CRtdFlo_Sys_T_OfficeSm_S" = 1102.274   $ Sizing
 "CRtdFlo_Sys_T_OfficeSm_W" = 1133.027   $ Sizing
 "CRtdFlo_Sys_T_Restrm_C" = 102.9527   $ Sizing
 "CRtdFlo_Sys_T_StorSm_C" = 205.6549   $ Sizing
 "CSupFlo_Sys_L_Break_C" = 444.1778   $ Sizing
 "CSupFlo_Sys_L_Conf_C" = 422.6046   $ Sizing
 "CSupFlo_Sys_L_CopyRm_C" = 133.5424   $ Sizing
 "CSupFlo_Sys_L_Cordr_C" = 492.2815   $ Sizing
 "CSupFlo_Sys_L_Cordr_E" = 172.2732   $ Sizing
 "CSupFlo_Sys_L_Cordr_N" = 103.2246   $ Sizing
 "CSupFlo_Sys_L_Cordr_S" = 200.811   $ Sizing
 "CSupFlo_Sys_L_Cordr_W" = 209.168   $ Sizing
 "CSupFlo_Sys_L_LobWait_C" = 423.8314   $ Sizing
 "CSupFlo_Sys_L_MechElec_C" = 89.51371   $ Sizing
 "CSupFlo_Sys_L_OfficeOpn_C" = 1545.729   $ Sizing
 "CSupFlo_Sys_L_OfficeOpn_E" = 1291.342   $ Sizing
 "CSupFlo_Sys_L_OfficeOpn_N" = 900.4305   $ Sizing
 "CSupFlo_Sys_L_OfficeOpn_S" = 1457.215   $ Sizing
 "CSupFlo_Sys_L_OfficeOpn_W" = 1576.514   $ Sizing
 "CSupFlo_Sys_L_OfficeSm_C" = 193.4449   $ Sizing
 "CSupFlo_Sys_L_OfficeSm_E" = 919.5906   $ Sizing
 "CSupFlo_Sys_L_OfficeSm_N" = 574.3701   $ Sizing
 "CSupFlo_Sys_L_OfficeSm_S" = 1033.865   $ Sizing
 "CSupFlo_Sys_L_OfficeSm_W" = 1106.639   $ Sizing
 "CSupFlo_Sys_L_Restrm_C" = 76.25791   $ Sizing
 "CSupFlo_Sys_L_StorSm_C" = 262.7799   $ Sizing
 "CSupFlo_Sys_M_Break_C" = 3593.996   $ Sizing
 "CSupFlo_Sys_M_Conf_C" = 3391.646   $ Sizing
 "CSupFlo_Sys_M_CopyRm_C" = 1087.394   $ Sizing
 "CSupFlo_Sys_M_Cordr_C" = 5183.173   $ Sizing
 "CSupFlo_Sys_M_Cordr_E" = 1659.015   $ Sizing
 "CSupFlo_Sys_M_Cordr_N" = 1008.57   $ Sizing
 "CSupFlo_Sys_M_Cordr_S" = 1820.035   $ Sizing
 "CSupFlo_Sys_M_Cordr_W" = 1832.782   $ Sizing
 "CSupFlo_Sys_M_LobWait_C" = 3579.635   $ Sizing
 "CSupFlo_Sys_M_MechElec_C" = 816.5578   $ Sizing
 "CSupFlo_Sys_M_OfficeOpn_C" = 12353.31   $ Sizing
 "CSupFlo_Sys_M_OfficeOpn_E" = 11330.26   $ Sizing
 "CSupFlo_Sys_M_OfficeOpn_N" = 7764.354   $ Sizing
 "CSupFlo_Sys_M_OfficeOpn_S" = 12470.41   $ Sizing
 "CSupFlo_Sys_M_OfficeOpn_W" = 13083.62   $ Sizing
 "CSupFlo_Sys_M_OfficeSm_C" = 1707.936   $ Sizing
 "CSupFlo_Sys_M_OfficeSm_E" = 7949.319   $ Sizing
 "CSupFlo_Sys_M_OfficeSm_N" = 4955.406   $ Sizing
 "CSupFlo_Sys_M_OfficeSm_S" = 8782.614   $ Sizing
 "CSupFlo_Sys_M_OfficeSm_W" = 9146.063   $ Sizing
 "CSupFlo_Sys_M_Restrm_C" = 666.2538   $ Sizing
 "CSupFlo_Sys_M_StorSm_C" = 2216.933   $ Sizing
 "CSupFlo_Sys_T_Break_C" = 441.846   $ Sizing
 "CSupFlo_Sys_T_Conf_C" = 417.9839   $ Sizing
 "CSupFlo_Sys_T_CopyRm_C" = 132.299   $ Sizing
 "CSupFlo_Sys_T_Cordr_C" = 601.8647   $ Sizing
 "CSupFlo_Sys_T_Cordr_E" = 197.5599   $ Sizing
 "CSupFlo_Sys_T_Cordr_N" = 124.4902   $ Sizing
 "CSupFlo_Sys_T_Cordr_S" = 222.2086   $ Sizing
 "CSupFlo_Sys_T_Cordr_W" = 221.2645   $ Sizing
 "CSupFlo_Sys_T_LobWait_C" = 437.7376   $ Sizing
 "CSupFlo_Sys_T_MechElec_C" = 112.8236   $ Sizing
 "CSupFlo_Sys_T_OfficeOpn_C" = 1534.701   $ Sizing
 "CSupFlo_Sys_T_OfficeOpn_E" = 1376.973   $ Sizing
 "CSupFlo_Sys_T_OfficeOpn_N" = 969.0126   $ Sizing
 "CSupFlo_Sys_T_OfficeOpn_S" = 1543.614   $ Sizing
 "CSupFlo_Sys_T_OfficeOpn_W" = 1594.46   $ Sizing
 "CSupFlo_Sys_T_OfficeSm_C" = 213.0326   $ Sizing
 "CSupFlo_Sys_T_OfficeSm_E" = 992.8065   $ Sizing
 "CSupFlo_Sys_T_OfficeSm_N" = 624.7097   $ Sizing
 "CSupFlo_Sys_T_OfficeSm_S" = 1102.274   $ Sizing
 "CSupFlo_Sys_T_OfficeSm_W" = 1133.027   $ Sizing
 "CSupFlo_Sys_T_Restrm_C" = 102.9527   $ Sizing
 "CSupFlo_Sys_T_StorSm_C" = 205.6549   $ Sizing
 "ClCap_Sys_L_Break_C" = 15152.98   $ Sizing
 "ClCap_Sys_L_Conf_C" = 18348.93   $ Sizing
 "ClCap_Sys_L_CopyRm_C" = 4555.755   $ Sizing
 "ClCap_Sys_L_Cordr_C" = 16794.02   $ Sizing
 "ClCap_Sys_L_Cordr_E" = 5877.042   $ Sizing
 "ClCap_Sys_L_Cordr_N" = 3521.474   $ Sizing
 "ClCap_Sys_L_Cordr_S" = 6850.6   $ Sizing
 "ClCap_Sys_L_Cordr_W" = 7135.695   $ Sizing
 "ClCap_Sys_L_LobWait_C" = 14458.87   $ Sizing
 "ClCap_Sys_L_MechElec_C" = 3053.73   $ Sizing
 "ClCap_Sys_L_OfficeOpn_C" = 52732.04   $ Sizing
 "ClCap_Sys_L_OfficeOpn_E" = 44053.7   $ Sizing
 "ClCap_Sys_L_OfficeOpn_N" = 30717.89   $ Sizing
 "ClCap_Sys_L_OfficeOpn_S" = 49712.41   $ Sizing
 "ClCap_Sys_L_OfficeOpn_W" = 53782.23   $ Sizing
 "ClCap_Sys_L_OfficeSm_C" = 6599.309   $ Sizing
 "ClCap_Sys_L_OfficeSm_E" = 31371.53   $ Sizing
 "ClCap_Sys_L_OfficeSm_N" = 19594.44   $ Sizing
 "ClCap_Sys_L_OfficeSm_S" = 35269.95   $ Sizing
 "ClCap_Sys_L_OfficeSm_W" = 37752.63   $ Sizing
 "ClCap_Sys_L_Restrm_C" = 2601.513   $ Sizing
 "ClCap_Sys_L_StorSm_C" = 8964.649   $ Sizing
 "ClCap_Sys_M_Break_C" = 122608   $ Sizing
 "ClCap_Sys_M_Conf_C" = 147260.8   $ Sizing
 "ClCap_Sys_M_CopyRm_C" = 37096.09   $ Sizing
 "ClCap_Sys_M_Cordr_C" = 176822.2   $ Sizing
 "ClCap_Sys_M_Cordr_E" = 56596.75   $ Sizing
 "ClCap_Sys_M_Cordr_N" = 34407.03   $ Sizing
 "ClCap_Sys_M_Cordr_S" = 62089.9   $ Sizing
 "ClCap_Sys_M_Cordr_W" = 62524.74   $ Sizing
 "ClCap_Sys_M_LobWait_C" = 122118   $ Sizing
 "ClCap_Sys_M_MechElec_C" = 27856.6   $ Sizing
 "ClCap_Sys_M_OfficeOpn_C" = 421428.9   $ Sizing
 "ClCap_Sys_M_OfficeOpn_E" = 386527.9   $ Sizing
 "ClCap_Sys_M_OfficeOpn_N" = 264878.3   $ Sizing
 "ClCap_Sys_M_OfficeOpn_S" = 425423.8   $ Sizing
 "ClCap_Sys_M_OfficeOpn_W" = 446343.3   $ Sizing
 "ClCap_Sys_M_OfficeSm_C" = 58265.66   $ Sizing
 "ClCap_Sys_M_OfficeSm_E" = 271188.4   $ Sizing
 "ClCap_Sys_M_OfficeSm_N" = 169052   $ Sizing
 "ClCap_Sys_M_OfficeSm_S" = 299615.9   $ Sizing
 "ClCap_Sys_M_OfficeSm_W" = 312014.9   $ Sizing
 "ClCap_Sys_M_Restrm_C" = 22729.03   $ Sizing
 "ClCap_Sys_M_StorSm_C" = 75629.91   $ Sizing
 "ClCap_Sys_T_Break_C" = 15073.43   $ Sizing
 "ClCap_Sys_T_Conf_C" = 18148.3   $ Sizing
 "ClCap_Sys_T_CopyRm_C" = 4513.336   $ Sizing
 "ClCap_Sys_T_Cordr_C" = 20532.41   $ Sizing
 "ClCap_Sys_T_Cordr_E" = 6739.688   $ Sizing
 "ClCap_Sys_T_Cordr_N" = 4246.94   $ Sizing
 "ClCap_Sys_T_Cordr_S" = 7580.572   $ Sizing
 "ClCap_Sys_T_Cordr_W" = 7548.366   $ Sizing
 "ClCap_Sys_T_LobWait_C" = 14933.27   $ Sizing
 "ClCap_Sys_T_MechElec_C" = 3848.939   $ Sizing
 "ClCap_Sys_T_OfficeOpn_C" = 52355.82   $ Sizing
 "ClCap_Sys_T_OfficeOpn_E" = 46974.96   $ Sizing
 "ClCap_Sys_T_OfficeOpn_N" = 33057.54   $ Sizing
 "ClCap_Sys_T_OfficeOpn_S" = 52659.88   $ Sizing
 "ClCap_Sys_T_OfficeOpn_W" = 54394.46   $ Sizing
 "ClCap_Sys_T_OfficeSm_C" = 7267.535   $ Sizing
 "ClCap_Sys_T_OfficeSm_E" = 33869.26   $ Sizing
 "ClCap_Sys_T_OfficeSm_N" = 21311.76   $ Sizing
 "ClCap_Sys_T_OfficeSm_S" = 37603.72   $ Sizing
 "ClCap_Sys_T_OfficeSm_W" = 38652.84   $ Sizing
 "ClCap_Sys_T_Restrm_C" = 3512.196   $ Sizing
 "ClCap_Sys_T_StorSm_C" = 7015.849   $ Sizing
 "HtCap_Sys_L_Break_C" = -25935.13   $ Sizing
 "HtCap_Sys_L_Conf_C" = -27187.77   $ Sizing
 "HtCap_Sys_L_CopyRm_C" = -9163.39   $ Sizing
 "HtCap_Sys_L_Cordr_C" = -27124.9   $ Sizing
 "HtCap_Sys_L_Cordr_E" = -8413.874   $ Sizing
 "HtCap_Sys_L_Cordr_N" = -4911.45   $ Sizing
 "HtCap_Sys_L_Cordr_S" = -8339.264   $ Sizing
 "HtCap_Sys_L_Cordr_W" = -8204.731   $ Sizing
 "HtCap_Sys_L_LobWait_C" = -24515.54   $ Sizing
 "HtCap_Sys_L_MechElec_C" = -6368.977   $ Sizing
 "HtCap_Sys_L_OfficeOpn_C" = -82137.62   $ Sizing
 "HtCap_Sys_L_OfficeOpn_E" = -59580.52   $ Sizing
 "HtCap_Sys_L_OfficeOpn_N" = -37128.45   $ Sizing
 "HtCap_Sys_L_OfficeOpn_S" = -58588.2   $ Sizing
 "HtCap_Sys_L_OfficeOpn_W" = -59892.94   $ Sizing
 "HtCap_Sys_L_OfficeSm_C" = -9573.204   $ Sizing
 "HtCap_Sys_L_OfficeSm_E" = -42511.9   $ Sizing
 "HtCap_Sys_L_OfficeSm_N" = -23982.3   $ Sizing
 "HtCap_Sys_L_OfficeSm_S" = -42133.7   $ Sizing
 "HtCap_Sys_L_OfficeSm_W" = -42665.13   $ Sizing
 "HtCap_Sys_L_Restrm_C" = -7706.367   $ Sizing
 "HtCap_Sys_L_StorSm_C" = -17371.28   $ Sizing
 "HtCap_Sys_M_Break_C" = -199925.3   $ Sizing
 "HtCap_Sys_M_Conf_C" = -231433.6   $ Sizing
 "HtCap_Sys_M_CopyRm_C" = -68978.59   $ Sizing
 "HtCap_Sys_M_Cordr_C" = -294692.5   $ Sizing
 "HtCap_Sys_M_Cordr_E" = -78705.7   $ Sizing
 "HtCap_Sys_M_Cordr_N" = -45629.91   $ Sizing
 "HtCap_Sys_M_Cordr_S" = -74789.57   $ Sizing
 "HtCap_Sys_M_Cordr_W" = -71361.3   $ Sizing
 "HtCap_Sys_M_LobWait_C" = -211250.9   $ Sizing
 "HtCap_Sys_M_MechElec_C" = -57277.16   $ Sizing
 "HtCap_Sys_M_OfficeOpn_C" = -795878.4   $ Sizing
 "HtCap_Sys_M_OfficeOpn_E" = -515012.3   $ Sizing
 "HtCap_Sys_M_OfficeOpn_N" = -317408.4   $ Sizing
 "HtCap_Sys_M_OfficeOpn_S" = -501466.8   $ Sizing
 "HtCap_Sys_M_OfficeOpn_W" = -496106.4   $ Sizing
 "HtCap_Sys_M_OfficeSm_C" = -91174.4   $ Sizing
 "HtCap_Sys_M_OfficeSm_E" = -362813.4   $ Sizing
 "HtCap_Sys_M_OfficeSm_N" = -204927   $ Sizing
 "HtCap_Sys_M_OfficeSm_S" = -359616   $ Sizing
 "HtCap_Sys_M_OfficeSm_W" = -350748   $ Sizing
 "HtCap_Sys_M_Restrm_C" = -66350.42   $ Sizing
 "HtCap_Sys_M_StorSm_C" = -142037.8   $ Sizing
 "HtCap_Sys_T_Break_C" = -26106.76   $ Sizing
 "HtCap_Sys_T_Conf_C" = -28392.05   $ Sizing
 "HtCap_Sys_T_CopyRm_C" = -8516.573   $ Sizing
 "HtCap_Sys_T_Cordr_C" = -36523.82   $ Sizing
 "HtCap_Sys_T_Cordr_E" = -9919.042   $ Sizing
 "HtCap_Sys_T_Cordr_N" = -5992.812   $ Sizing
 "HtCap_Sys_T_Cordr_S" = -9742.559   $ Sizing
 "HtCap_Sys_T_Cordr_W" = -9204.052   $ Sizing
 "HtCap_Sys_T_LobWait_C" = -25867.52   $ Sizing
 "HtCap_Sys_T_MechElec_C" = -7543.662   $ Sizing
 "HtCap_Sys_T_OfficeOpn_C" = -79727.54   $ Sizing
 "HtCap_Sys_T_OfficeOpn_E" = -65460.18   $ Sizing
 "HtCap_Sys_T_OfficeOpn_N" = -42233.13   $ Sizing
 "HtCap_Sys_T_OfficeOpn_S" = -66936.49   $ Sizing
 "HtCap_Sys_T_OfficeOpn_W" = -63886.27   $ Sizing
 "HtCap_Sys_T_OfficeSm_C" = -11834.43   $ Sizing
 "HtCap_Sys_T_OfficeSm_E" = -47614.46   $ Sizing
 "HtCap_Sys_T_OfficeSm_N" = -27195.95   $ Sizing
 "HtCap_Sys_T_OfficeSm_S" = -48733.92   $ Sizing
 "HtCap_Sys_T_OfficeSm_W" = -46473.24   $ Sizing
 "HtCap_Sys_T_Restrm_C" = -8555.061   $ Sizing
 "HtCap_Sys_T_StorSm_C" = -17091.98   $ Sizing
..

##include Templates\OfL_DX_SZ.inp
END ..
COMPUTE ..
STOP ..
