
Start DOESIM : Storage capacity =  75000000
Starting LOADS   : SAVE-FILES is On , weather is CZ01ARCATA-AP       
Finished LOADS    BDL  1 : Memory (wds) =    391995, Time (sec) =    2.50
Starting REPORT  
Finished REPORT   BDL  1 : Memory (wds) =    784933, Time (sec) =    0.87
Starting HVAC    : SAVE-FILES is On , weather is CZ01ARCATA-AP       
*** ERRORS or WARNINGS from HVAC     program. Examine output file for details.
Finished HVAC     BDL  1 : Memory (wds) =    676536, Time (sec) =    8.58
Starting REPORT  
Finished REPORT   BDL  1 : Memory (wds) =   1201848, Time (sec) =    0.89
Starting HOURLY-R
Finished HOURLY-R BDL  1 : Memory (wds) =   1539311, Time (sec) =    0.14
Starting ECONOMIC
Finished ECONOMIC BDL  1 : Memory (wds) =      1034, Time (sec) =    0.04
End   DOESIM : Total elapsed time of     13.0 seconds
RUN COMPLETE
