This JJHirsch DOE-2.3-50i  was released in February 2018.

Start DOEBDL : Storage capacity =  75000000
Starting BDL   1
Finished BDL   1 : Memory (wds) = 14358597, clock time (secs) =     8.8
End   DOEBDL : Total elapsed time of      8.9 seconds
ERRORLEVEL=0 
