INPUT ..

##fileprefix C:\Users\jglasskatz\MASControl3\
##set1 IsSizing FALSE
##set1 CoolType DX
##set1 HeatType ELECTRIC
##set1 EU_HrRepVar 1
##set1 BldgVint 1996
##set1 BldgLoc CZ01

 ##set1 mBFMult 1   $ IP Tech: RefgChg-NRes-Std

PARAMETER
 "AltFactor" = 1.00753   $ IP Non-Tech
 "BldgEconoFlag" = 1   $ IP Non-Tech
 "Break_EWSF" = 1   $ IP Non-Tech
 "Break_LWSF" = 1.1   $ IP Non-Tech
 "CDD_DBHi10" = 65   $ IP Non-Tech
 "CDD_DBHi7" = 68   $ IP Non-Tech
 "CDD_DBHi8" = 66   $ IP Non-Tech
 "CDD_DBHi9" = 77   $ IP Non-Tech
 "CDD_DBRange10" = 17   $ IP Non-Tech
 "CDD_DBRange7" = 11   $ IP Non-Tech
 "CDD_DBRange8" = 10   $ IP Non-Tech
 "CDD_DBRange9" = 29   $ IP Non-Tech
 "CDD_Day10" = 15   $ IP Non-Tech
 "CDD_Day7" = 16   $ IP Non-Tech
 "CDD_Day8" = 20   $ IP Non-Tech
 "CDD_Day9" = 17   $ IP Non-Tech
 "CDD_HrHi10" = 12   $ IP Non-Tech
 "CDD_HrHi7" = 12   $ IP Non-Tech
 "CDD_HrHi8" = 13   $ IP Non-Tech
 "CDD_HrHi9" = 17   $ IP Non-Tech
 "CDD_HrLo10" = 6   $ IP Non-Tech
 "CDD_HrLo7" = 3   $ IP Non-Tech
 "CDD_HrLo8" = 8   $ IP Non-Tech
 "CDD_HrLo9" = 4   $ IP Non-Tech
 "CDD_WB10" = 57.53039551   $ IP Non-Tech
 "CDD_WB7" = 59.29250717   $ IP Non-Tech
 "CDD_WB8" = 60.75350189   $ IP Non-Tech
 "CDD_WB9" = 61.08643341   $ IP Non-Tech
 "CZ_Category" = Tem   $ IP Non-Tech
 "ChwVintEconoFlag" = 1   $ IP Non-Tech
 "Conference_EWSF" = 1.05   $ IP Non-Tech
 "Conference_LWSF" = 1.4   $ IP Non-Tech
 "CoolSetT" = 45   $ IP Non-Tech
 "CoolType" = DX   $ IP Non-Tech
 "CopyRoom_EWSF" = 1.575   $ IP Non-Tech
 "CopyRoom_LWSF" = 1.3   $ IP Non-Tech
 "CorridorStairway_EWSF" = 0.21   $ IP Non-Tech
 "CorridorStairway_LWSF" = 0.6   $ IP Non-Tech
 "DesCoolT" = 75   $ IP Non-Tech
 "DesHeatT" = 73   $ IP Non-Tech
 "EconoEnthLimit" = 28   $ IP Non-Tech
 "EconoTempLimit" = 70   $ IP Non-Tech
 "Elevation" = 203   $ IP Non-Tech
 "HDD_CloudAmt1" = 0   $ IP Non-Tech
 "HDD_DBHi1" = 53   $ IP Non-Tech
 "HDD_DBRange1" = 20   $ IP Non-Tech
 "HDD_Day1" = 15   $ IP Non-Tech
 "HDD_HrHi1" = 14   $ IP Non-Tech
 "HDD_HrLo1" = 6   $ IP Non-Tech
 "HDD_WB1" = 42.3   $ IP Non-Tech
 "HDD_WindSpd1" = 12.7   $ IP Non-Tech
 "HeatSrc" = ELECTRIC   $ IP Non-Tech
 "HeatSrcTU" = HEAT-PUMP   $ IP Non-Tech
 "HeatType" = Elec   $ IP Non-Tech
 "HeatTypeTU" = HEAT-PUMP   $ IP Non-Tech
 "IndoorFanMode" = CONTINUOUS   $ IP Non-Tech
 "KT_TransferAir" = No   $ IP Non-Tech
 "Latitude" = 40.8   $ IP Non-Tech
 "LobbyWaiting_EWSF" = 0.5125   $ IP Non-Tech
 "LobbyWaiting_LWSF" = 1.3   $ IP Non-Tech
 "Longitude" = 124.2   $ IP Non-Tech
 "LtgMsrApplic" = ALL   $ Msr TechID: NonResLtgRefMsr-LF
 "LtgSav_CFL" = 0   $ Msr TechID: NonResLtgRefMsr-LF
 "LtgSav_EX" = 0   $ Msr TechID: NonResLtgRefMsr-LF
 "LtgSav_HB" = 0   $ Msr TechID: NonResLtgRefMsr-LF
 "LtgSav_LF" = 0.3   $ Msr TechID: NonResLtgRefMsr-LF
 "LtgSav_SP" = 0   $ Msr TechID: NonResLtgRefMsr-LF
 "MZFanMechEff" = 0.58   $ IP Non-Tech
 "MZHasRetFan" = FALSE   $ IP Non-Tech
 "MZ_RFanWPerCfm" = 0.37   $ IP Non-Tech
 "MZ_SFanWPerCfm" = 0.71   $ IP Non-Tech
 "MZ_SupFanStatic" = 2.25   $ IP Non-Tech
 "MaxSupT_MZ" = 100   $ IP Non-Tech
 "MaxSupT_SZ" = 100   $ IP Non-Tech
 "MaxSupT_TU" = 90   $ IP Non-Tech
 "MechElecRoom_EWSF" = 0.21   $ IP Non-Tech
 "MechElecRoom_LWSF" = 0.7   $ IP Non-Tech
 "MinCfmPerSF" = 0.4   $ IP Non-Tech
 "MinSupT" = 55   $ IP Non-Tech
 "OccCoolT" = 76   $ IP Non-Tech
 "OccHeatT" = 72   $ IP Non-Tech
 "OfficeOpen_EWSF" = 1.575   $ IP Non-Tech
 "OfficeOpen_LWSF" = 1.2   $ IP Non-Tech
 "OfficeSmall_EWSF" = 1.575   $ IP Non-Tech
 "OfficeSmall_LWSF" = 1.3   $ IP Non-Tech
 "PkgDxVintEconoFlag" = 0   $ IP Non-Tech
 "Restroom_EWSF" = 0.21   $ IP Non-Tech
 "Restroom_LWSF" = 0.6   $ IP Non-Tech
 "SZFanMechEff" = 0.58   $ IP Non-Tech
 "SZHasRetFan" = FALSE   $ IP Non-Tech
 "SZ_Is_2Spd" = FALSE   $ IP Non-Tech
 "SZ_SFanWPerCfm" = 0.46   $ IP Non-Tech
 "SZ_SupFanStatic" = 0.75   $ IP Non-Tech
 "StorageSmlCond_EWSF" = 0.21   $ IP Non-Tech
 "StorageSmlCond_LWSF" = 0.6   $ IP Non-Tech
 "T24GlzTbl" = CZTbl   $ IP Non-Tech
 "TermUnitFanMechEff" = 1   $ IP Non-Tech
 "TermUnitFanMode" = INTERMITTENT   $ IP Non-Tech
 "TwrSetpt" = 80   $ IP Non-Tech
 "UnocCoolT" = 86   $ IP Non-Tech
 "UnocHeatT" = 62   $ IP Non-Tech
 "WlhpVintEconoFlag" = 0   $ IP Non-Tech
 "EconoCtrl" = OA-TEMP   $ IP Tech: AirEcono-OATemp
 "MaxOAFrac" = 0.85   $ IP Tech: AirEcono-OATemp
 "UseEconoVintApplic" = FALSE   $ IP Tech: AirEcono-OATemp
 "DuctDT" = 1   $ IP Tech: ComDuctInsul-1
 "DuctAirLoss" = 0   $ IP Tech: ComDuctLeak-0
 "DuctLossOAFrac" = 0   $ IP Tech: ComDuctLeak-0
 "ComRoofInsCalc" = FromUo   $ IP Tech: ComRoofIns-Hvy-0.06
 "ComRoofInsR" = -999   $ IP Tech: ComRoofIns-Hvy-0.06
 "ComRoofUo" = 0.06   $ IP Tech: ComRoofIns-Hvy-0.06
 "ComEWInsCalc" = FromUo   $ IP Tech: ComWallIns-MFrm-0.13
 "ComEWInsR" = -999   $ IP Tech: ComWallIns-MFrm-0.13
 "ComEWUo" = 0.13   $ IP Tech: ComWallIns-MFrm-0.13
 "ComN_SHGC" = 0.77   $ IP Tech: NResWin-ComN-0.77-0.77
 "ComN_UFactor" = 0.77   $ IP Tech: NResWin-ComN-0.77-0.77
 "ComN_VisTrans" = 0.81   $ IP Tech: NResWin-ComN-0.77-0.77
 "ComN_WinCode" = G2000   $ IP Tech: NResWin-ComN-0.77-0.77
 "ComN_WinFrmFrac" = 0.17   $ IP Tech: NResWin-ComN-0.77-0.77
 "ComN_WinFrmU" = 1   $ IP Tech: NResWin-ComN-0.77-0.77
 "ComO_SHGC" = 0.5   $ IP Tech: NResWin-ComO-0.77-0.5
 "ComO_UFactor" = 0.77   $ IP Tech: NResWin-ComO-0.77-0.5
 "ComO_VisTrans" = 0.77   $ IP Tech: NResWin-ComO-0.77-0.5
 "ComO_WinCode" = G2630   $ IP Tech: NResWin-ComO-0.77-0.5
 "ComO_WinFrmFrac" = 0.17   $ IP Tech: NResWin-ComO-0.77-0.5
 "ComO_WinFrmU" = 1   $ IP Tech: NResWin-ComO-0.77-0.5
 "BF_fFlow" = PSZ65to135_BF_fFlow   $ IP Tech: PkgAC1SpH-65to135-E10
 "BF_fT" = PSZ65to135_BF_fT   $ IP Tech: PkgAC1SpH-65to135-E10
 "CEIR_fPLR" = PSZ65to135_CEIR_fPLR   $ IP Tech: PkgAC1SpH-65to135-E10
 "CLoss_fPLR" = PSZ65to135_CLoss_fPLR   $ IP Tech: PkgAC1SpH-65to135-E10
 "COP" = -1   $ IP Tech: PkgAC1SpH-65to135-E10
 "COP47" = -1   $ IP Tech: PkgAC1SpH-65to135-E10
 "CfmPerBtuh" = 0.02917   $ IP Tech: PkgAC1SpH-65to135-E10
 "ClCap_fT" = PSZ65to135_ClCap_fT   $ IP Tech: PkgAC1SpH-65to135-E10
 "ClSH_fT" = PSZ65to135_ClSH_fT   $ IP Tech: PkgAC1SpH-65to135-E10
 "CoilBF" = 0.114   $ IP Tech: PkgAC1SpH-65to135-E10
 "CondWPerBtuh" = 0   $ IP Tech: PkgAC1SpH-65to135-E10
 "CoolSensCap" = 0.663   $ IP Tech: PkgAC1SpH-65to135-E10
 "CoolingEIR" = 0.29745   $ IP Tech: PkgAC1SpH-65to135-E10
 "CrnkEIR" = 0.01   $ IP Tech: PkgAC1SpH-65to135-E10
 "CrnkMaxT" = 50   $ IP Tech: PkgAC1SpH-65to135-E10
 "DXType" = Pkg   $ IP Tech: PkgAC1SpH-65to135-E10
 "EER" = 9.67   $ IP Tech: PkgAC1SpH-65to135-E10
 "EIR_fT" = PSZ65to135_EIR_fT   $ IP Tech: PkgAC1SpH-65to135-E10
 "FanEirPlr" = TwoSpeedFan   $ IP Tech: PkgAC1SpH-65to135-E10
 "FanWPerCfm" = 0.412   $ IP Tech: PkgAC1SpH-65to135-E10
 "HIR_fT" = DEFAULT   $ IP Tech: PkgAC1SpH-65to135-E10
 "HtCap_fT" = DEFAULT   $ IP Tech: PkgAC1SpH-65to135-E10
 "HtCoolCapRatio" = -1   $ IP Tech: PkgAC1SpH-65to135-E10
 "HtgEIR" = -1   $ IP Tech: PkgAC1SpH-65to135-E10
 "HtgFuel" = Gas   $ IP Tech: PkgAC1SpH-65to135-E10
 "IEER" = 11.87   $ IP Tech: PkgAC1SpH-65to135-E10
 "LowSpdCapRatio" = 0.5   $ IP Tech: PkgAC1SpH-65to135-E10
 "LowSpdCfmRatio" = 0.66   $ IP Tech: PkgAC1SpH-65to135-E10
 "NominalCap" = 15   $ IP Tech: PkgAC1SpH-65to135-E10
 "NumStages" = 1   $ IP Tech: PkgAC1SpH-65to135-E10
 "RatedEER" = 10   $ IP Tech: PkgAC1SpH-65to135-E10
 "RatedSupMtrClass" = HiEff   $ IP Tech: PkgAC1SpH-65to135-E10
 "SizeRange" = 65to135   $ IP Tech: PkgAC1SpH-65to135-E10
 "SubType" = AC   $ IP Tech: PkgAC1SpH-65to135-E10
 "SupMotEff" = 0.84   $ IP Tech: PkgAC1SpH-65to135-E10
 "Tier" = 0   $ IP Tech: PkgAC1SpH-65to135-E10
 "TotCoolCap" = 184140   $ IP Tech: PkgAC1SpH-65to135-E10
 "BFMult" = 1   $ IP Tech: RefgChg-NRes-Std
 "CoolEirMult" = 1   $ IP Tech: RefgChg-NRes-Std
 "SensCoolCapMult" = 1   $ IP Tech: RefgChg-NRes-Std
 "TotCoolCapMult" = 1   $ IP Tech: RefgChg-NRes-Std
 "AltAdjFactor" = 1.007532   $ Sizing
 "CAssFlo_L_Break_CZn" = 364.4112   $ Sizing
 "CAssFlo_L_Conf_CZn" = 428.5363   $ Sizing
 "CAssFlo_L_CopyRm_CZn" = 109.6703   $ Sizing
 "CAssFlo_L_Cordr_CZn" = 565.4379   $ Sizing
 "CAssFlo_L_Cordr_EZn" = 243.5469   $ Sizing
 "CAssFlo_L_Cordr_NZn" = 104.0672   $ Sizing
 "CAssFlo_L_Cordr_SZn" = 261.455   $ Sizing
 "CAssFlo_L_Cordr_WZn" = 233.1175   $ Sizing
 "CAssFlo_L_LobWait_CZn" = 357.5176   $ Sizing
 "CAssFlo_L_MechElec_CZn" = 134.1697   $ Sizing
 "CAssFlo_L_OfficeOpn_CZn" = 1713.469   $ Sizing
 "CAssFlo_L_OfficeOpn_EZn" = 1995.949   $ Sizing
 "CAssFlo_L_OfficeOpn_NZn" = 855.4881   $ Sizing
 "CAssFlo_L_OfficeOpn_SZn" = 2063.241   $ Sizing
 "CAssFlo_L_OfficeOpn_WZn" = 1911.491   $ Sizing
 "CAssFlo_L_OfficeSm_CZn" = 217.4292   $ Sizing
 "CAssFlo_L_OfficeSm_EZn" = 1439.297   $ Sizing
 "CAssFlo_L_OfficeSm_NZn" = 521.7958   $ Sizing
 "CAssFlo_L_OfficeSm_SZn" = 1522.007   $ Sizing
 "CAssFlo_L_OfficeSm_WZn" = 1383.461   $ Sizing
 "CAssFlo_L_Restrm_CZn" = 211.8611   $ Sizing
 "CAssFlo_L_StorSm_CZn" = 345.7904   $ Sizing
 "CAssFlo_M_Break_CZn" = 398.487   $ Sizing
 "CAssFlo_M_Conf_CZn" = 479.7747   $ Sizing
 "CAssFlo_M_CopyRm_CZn" = 136.9949   $ Sizing
 "CAssFlo_M_Cordr_CZn" = 786.4829   $ Sizing
 "CAssFlo_M_Cordr_EZn" = 302.0668   $ Sizing
 "CAssFlo_M_Cordr_NZn" = 111.2999   $ Sizing
 "CAssFlo_M_Cordr_SZn" = 314.318   $ Sizing
 "CAssFlo_M_Cordr_WZn" = 270.7955   $ Sizing
 "CAssFlo_M_LobWait_CZn" = 464.352   $ Sizing
 "CAssFlo_M_MechElec_CZn" = 143.7077   $ Sizing
 "CAssFlo_M_OfficeOpn_CZn" = 2002.674   $ Sizing
 "CAssFlo_M_OfficeOpn_EZn" = 2179.91   $ Sizing
 "CAssFlo_M_OfficeOpn_NZn" = 999.1856   $ Sizing
 "CAssFlo_M_OfficeOpn_SZn" = 2299.333   $ Sizing
 "CAssFlo_M_OfficeOpn_WZn" = 2029.189   $ Sizing
 "CAssFlo_M_OfficeSm_CZn" = 280.4047   $ Sizing
 "CAssFlo_M_OfficeSm_EZn" = 1558.38   $ Sizing
 "CAssFlo_M_OfficeSm_NZn" = 620.3127   $ Sizing
 "CAssFlo_M_OfficeSm_SZn" = 1683.89   $ Sizing
 "CAssFlo_M_OfficeSm_WZn" = 1476.252   $ Sizing
 "CAssFlo_M_Restrm_CZn" = 211.8611   $ Sizing
 "CAssFlo_M_StorSm_CZn" = 374.2632   $ Sizing
 "CAssFlo_T_Break_CZn" = 376.9581   $ Sizing
 "CAssFlo_T_Conf_CZn" = 457.3697   $ Sizing
 "CAssFlo_T_CopyRm_CZn" = 131.25   $ Sizing
 "CAssFlo_T_Cordr_CZn" = 691.7634   $ Sizing
 "CAssFlo_T_Cordr_EZn" = 266.441   $ Sizing
 "CAssFlo_T_Cordr_NZn" = 99.53352   $ Sizing
 "CAssFlo_T_Cordr_SZn" = 286.0114   $ Sizing
 "CAssFlo_T_Cordr_WZn" = 244.2412   $ Sizing
 "CAssFlo_T_LobWait_CZn" = 429.1299   $ Sizing
 "CAssFlo_T_MechElec_CZn" = 150.3808   $ Sizing
 "CAssFlo_T_OfficeOpn_CZn" = 1849.696   $ Sizing
 "CAssFlo_T_OfficeOpn_EZn" = 1983.492   $ Sizing
 "CAssFlo_T_OfficeOpn_NZn" = 935.6747   $ Sizing
 "CAssFlo_T_OfficeOpn_SZn" = 2143.867   $ Sizing
 "CAssFlo_T_OfficeOpn_WZn" = 1866.663   $ Sizing
 "CAssFlo_T_OfficeSm_CZn" = 261.536   $ Sizing
 "CAssFlo_T_OfficeSm_EZn" = 1462.398   $ Sizing
 "CAssFlo_T_OfficeSm_NZn" = 592.3904   $ Sizing
 "CAssFlo_T_OfficeSm_SZn" = 1606.466   $ Sizing
 "CAssFlo_T_OfficeSm_WZn" = 1392.183   $ Sizing
 "CAssFlo_T_Restrm_CZn" = 211.8611   $ Sizing
 "CAssFlo_T_StorSm_CZn" = 334.0894   $ Sizing
 "CHRtFlo_Sys_L_Break_C" = 364.4112   $ Sizing
 "CHRtFlo_Sys_L_Conf_C" = 428.5363   $ Sizing
 "CHRtFlo_Sys_L_CopyRm_C" = 109.6703   $ Sizing
 "CHRtFlo_Sys_L_Cordr_C" = 565.4379   $ Sizing
 "CHRtFlo_Sys_L_Cordr_E" = 243.5469   $ Sizing
 "CHRtFlo_Sys_L_Cordr_N" = 104.0672   $ Sizing
 "CHRtFlo_Sys_L_Cordr_S" = 261.455   $ Sizing
 "CHRtFlo_Sys_L_Cordr_W" = 233.1175   $ Sizing
 "CHRtFlo_Sys_L_LobWait_C" = 357.5176   $ Sizing
 "CHRtFlo_Sys_L_MechElec_C" = 134.1697   $ Sizing
 "CHRtFlo_Sys_L_OfficeOpn_C" = 1713.469   $ Sizing
 "CHRtFlo_Sys_L_OfficeOpn_E" = 1995.949   $ Sizing
 "CHRtFlo_Sys_L_OfficeOpn_N" = 855.4881   $ Sizing
 "CHRtFlo_Sys_L_OfficeOpn_S" = 2063.241   $ Sizing
 "CHRtFlo_Sys_L_OfficeOpn_W" = 1911.491   $ Sizing
 "CHRtFlo_Sys_L_OfficeSm_C" = 217.4292   $ Sizing
 "CHRtFlo_Sys_L_OfficeSm_E" = 1439.297   $ Sizing
 "CHRtFlo_Sys_L_OfficeSm_N" = 521.7958   $ Sizing
 "CHRtFlo_Sys_L_OfficeSm_S" = 1522.007   $ Sizing
 "CHRtFlo_Sys_L_OfficeSm_W" = 1383.461   $ Sizing
 "CHRtFlo_Sys_L_Restrm_C" = 211.8611   $ Sizing
 "CHRtFlo_Sys_L_StorSm_C" = 345.7904   $ Sizing
 "CHRtFlo_Sys_M_Break_C" = 3187.896   $ Sizing
 "CHRtFlo_Sys_M_Conf_C" = 3838.197   $ Sizing
 "CHRtFlo_Sys_M_CopyRm_C" = 1095.959   $ Sizing
 "CHRtFlo_Sys_M_Cordr_C" = 6291.863   $ Sizing
 "CHRtFlo_Sys_M_Cordr_E" = 2416.535   $ Sizing
 "CHRtFlo_Sys_M_Cordr_N" = 890.3996   $ Sizing
 "CHRtFlo_Sys_M_Cordr_S" = 2514.544   $ Sizing
 "CHRtFlo_Sys_M_Cordr_W" = 2166.364   $ Sizing
 "CHRtFlo_Sys_M_LobWait_C" = 3714.816   $ Sizing
 "CHRtFlo_Sys_M_MechElec_C" = 1149.662   $ Sizing
 "CHRtFlo_Sys_M_OfficeOpn_C" = 16021.4   $ Sizing
 "CHRtFlo_Sys_M_OfficeOpn_E" = 17439.28   $ Sizing
 "CHRtFlo_Sys_M_OfficeOpn_N" = 7993.485   $ Sizing
 "CHRtFlo_Sys_M_OfficeOpn_S" = 18394.66   $ Sizing
 "CHRtFlo_Sys_M_OfficeOpn_W" = 16233.51   $ Sizing
 "CHRtFlo_Sys_M_OfficeSm_C" = 2243.237   $ Sizing
 "CHRtFlo_Sys_M_OfficeSm_E" = 12467.04   $ Sizing
 "CHRtFlo_Sys_M_OfficeSm_N" = 4962.502   $ Sizing
 "CHRtFlo_Sys_M_OfficeSm_S" = 13471.12   $ Sizing
 "CHRtFlo_Sys_M_OfficeSm_W" = 11810.01   $ Sizing
 "CHRtFlo_Sys_M_Restrm_C" = 1694.889   $ Sizing
 "CHRtFlo_Sys_M_StorSm_C" = 2994.105   $ Sizing
 "CHRtFlo_Sys_T_Break_C" = 376.9581   $ Sizing
 "CHRtFlo_Sys_T_Conf_C" = 457.3697   $ Sizing
 "CHRtFlo_Sys_T_CopyRm_C" = 131.25   $ Sizing
 "CHRtFlo_Sys_T_Cordr_C" = 691.7634   $ Sizing
 "CHRtFlo_Sys_T_Cordr_E" = 266.441   $ Sizing
 "CHRtFlo_Sys_T_Cordr_N" = 99.53352   $ Sizing
 "CHRtFlo_Sys_T_Cordr_S" = 286.0114   $ Sizing
 "CHRtFlo_Sys_T_Cordr_W" = 244.2412   $ Sizing
 "CHRtFlo_Sys_T_LobWait_C" = 429.1299   $ Sizing
 "CHRtFlo_Sys_T_MechElec_C" = 150.3808   $ Sizing
 "CHRtFlo_Sys_T_OfficeOpn_C" = 1849.696   $ Sizing
 "CHRtFlo_Sys_T_OfficeOpn_E" = 1983.492   $ Sizing
 "CHRtFlo_Sys_T_OfficeOpn_N" = 935.6747   $ Sizing
 "CHRtFlo_Sys_T_OfficeOpn_S" = 2143.867   $ Sizing
 "CHRtFlo_Sys_T_OfficeOpn_W" = 1866.663   $ Sizing
 "CHRtFlo_Sys_T_OfficeSm_C" = 261.536   $ Sizing
 "CHRtFlo_Sys_T_OfficeSm_E" = 1462.398   $ Sizing
 "CHRtFlo_Sys_T_OfficeSm_N" = 592.3904   $ Sizing
 "CHRtFlo_Sys_T_OfficeSm_S" = 1606.466   $ Sizing
 "CHRtFlo_Sys_T_OfficeSm_W" = 1392.183   $ Sizing
 "CHRtFlo_Sys_T_Restrm_C" = 211.8611   $ Sizing
 "CHRtFlo_Sys_T_StorSm_C" = 334.0894   $ Sizing
 "CRtdFlo_Sys_L_Break_C" = 364.4112   $ Sizing
 "CRtdFlo_Sys_L_Conf_C" = 428.5363   $ Sizing
 "CRtdFlo_Sys_L_CopyRm_C" = 109.6703   $ Sizing
 "CRtdFlo_Sys_L_Cordr_C" = 565.4379   $ Sizing
 "CRtdFlo_Sys_L_Cordr_E" = 243.5469   $ Sizing
 "CRtdFlo_Sys_L_Cordr_N" = 104.0672   $ Sizing
 "CRtdFlo_Sys_L_Cordr_S" = 261.455   $ Sizing
 "CRtdFlo_Sys_L_Cordr_W" = 233.1175   $ Sizing
 "CRtdFlo_Sys_L_LobWait_C" = 357.5176   $ Sizing
 "CRtdFlo_Sys_L_MechElec_C" = 134.1697   $ Sizing
 "CRtdFlo_Sys_L_OfficeOpn_C" = 1713.469   $ Sizing
 "CRtdFlo_Sys_L_OfficeOpn_E" = 1995.949   $ Sizing
 "CRtdFlo_Sys_L_OfficeOpn_N" = 855.4881   $ Sizing
 "CRtdFlo_Sys_L_OfficeOpn_S" = 2063.241   $ Sizing
 "CRtdFlo_Sys_L_OfficeOpn_W" = 1911.491   $ Sizing
 "CRtdFlo_Sys_L_OfficeSm_C" = 217.4292   $ Sizing
 "CRtdFlo_Sys_L_OfficeSm_E" = 1439.297   $ Sizing
 "CRtdFlo_Sys_L_OfficeSm_N" = 521.7958   $ Sizing
 "CRtdFlo_Sys_L_OfficeSm_S" = 1522.007   $ Sizing
 "CRtdFlo_Sys_L_OfficeSm_W" = 1383.461   $ Sizing
 "CRtdFlo_Sys_L_Restrm_C" = 211.8611   $ Sizing
 "CRtdFlo_Sys_L_StorSm_C" = 345.7904   $ Sizing
 "CRtdFlo_Sys_M_Break_C" = 3187.896   $ Sizing
 "CRtdFlo_Sys_M_Conf_C" = 3838.197   $ Sizing
 "CRtdFlo_Sys_M_CopyRm_C" = 1095.959   $ Sizing
 "CRtdFlo_Sys_M_Cordr_C" = 6291.863   $ Sizing
 "CRtdFlo_Sys_M_Cordr_E" = 2416.535   $ Sizing
 "CRtdFlo_Sys_M_Cordr_N" = 890.3996   $ Sizing
 "CRtdFlo_Sys_M_Cordr_S" = 2514.544   $ Sizing
 "CRtdFlo_Sys_M_Cordr_W" = 2166.364   $ Sizing
 "CRtdFlo_Sys_M_LobWait_C" = 3714.816   $ Sizing
 "CRtdFlo_Sys_M_MechElec_C" = 1149.662   $ Sizing
 "CRtdFlo_Sys_M_OfficeOpn_C" = 16021.4   $ Sizing
 "CRtdFlo_Sys_M_OfficeOpn_E" = 17439.28   $ Sizing
 "CRtdFlo_Sys_M_OfficeOpn_N" = 7993.485   $ Sizing
 "CRtdFlo_Sys_M_OfficeOpn_S" = 18394.66   $ Sizing
 "CRtdFlo_Sys_M_OfficeOpn_W" = 16233.51   $ Sizing
 "CRtdFlo_Sys_M_OfficeSm_C" = 2243.237   $ Sizing
 "CRtdFlo_Sys_M_OfficeSm_E" = 12467.04   $ Sizing
 "CRtdFlo_Sys_M_OfficeSm_N" = 4962.502   $ Sizing
 "CRtdFlo_Sys_M_OfficeSm_S" = 13471.12   $ Sizing
 "CRtdFlo_Sys_M_OfficeSm_W" = 11810.01   $ Sizing
 "CRtdFlo_Sys_M_Restrm_C" = 1694.889   $ Sizing
 "CRtdFlo_Sys_M_StorSm_C" = 2994.105   $ Sizing
 "CRtdFlo_Sys_T_Break_C" = 376.9581   $ Sizing
 "CRtdFlo_Sys_T_Conf_C" = 457.3697   $ Sizing
 "CRtdFlo_Sys_T_CopyRm_C" = 131.25   $ Sizing
 "CRtdFlo_Sys_T_Cordr_C" = 691.7634   $ Sizing
 "CRtdFlo_Sys_T_Cordr_E" = 266.441   $ Sizing
 "CRtdFlo_Sys_T_Cordr_N" = 99.53352   $ Sizing
 "CRtdFlo_Sys_T_Cordr_S" = 286.0114   $ Sizing
 "CRtdFlo_Sys_T_Cordr_W" = 244.2412   $ Sizing
 "CRtdFlo_Sys_T_LobWait_C" = 429.1299   $ Sizing
 "CRtdFlo_Sys_T_MechElec_C" = 150.3808   $ Sizing
 "CRtdFlo_Sys_T_OfficeOpn_C" = 1849.696   $ Sizing
 "CRtdFlo_Sys_T_OfficeOpn_E" = 1983.492   $ Sizing
 "CRtdFlo_Sys_T_OfficeOpn_N" = 935.6747   $ Sizing
 "CRtdFlo_Sys_T_OfficeOpn_S" = 2143.867   $ Sizing
 "CRtdFlo_Sys_T_OfficeOpn_W" = 1866.663   $ Sizing
 "CRtdFlo_Sys_T_OfficeSm_C" = 261.536   $ Sizing
 "CRtdFlo_Sys_T_OfficeSm_E" = 1462.398   $ Sizing
 "CRtdFlo_Sys_T_OfficeSm_N" = 592.3904   $ Sizing
 "CRtdFlo_Sys_T_OfficeSm_S" = 1606.466   $ Sizing
 "CRtdFlo_Sys_T_OfficeSm_W" = 1392.183   $ Sizing
 "CRtdFlo_Sys_T_Restrm_C" = 211.8611   $ Sizing
 "CRtdFlo_Sys_T_StorSm_C" = 334.0894   $ Sizing
 "CSupFlo_Sys_L_Break_C" = 364.4112   $ Sizing
 "CSupFlo_Sys_L_Conf_C" = 428.5363   $ Sizing
 "CSupFlo_Sys_L_CopyRm_C" = 109.6703   $ Sizing
 "CSupFlo_Sys_L_Cordr_C" = 565.4379   $ Sizing
 "CSupFlo_Sys_L_Cordr_E" = 243.5469   $ Sizing
 "CSupFlo_Sys_L_Cordr_N" = 104.0672   $ Sizing
 "CSupFlo_Sys_L_Cordr_S" = 261.455   $ Sizing
 "CSupFlo_Sys_L_Cordr_W" = 233.1175   $ Sizing
 "CSupFlo_Sys_L_LobWait_C" = 357.5176   $ Sizing
 "CSupFlo_Sys_L_MechElec_C" = 134.1697   $ Sizing
 "CSupFlo_Sys_L_OfficeOpn_C" = 1713.469   $ Sizing
 "CSupFlo_Sys_L_OfficeOpn_E" = 1995.949   $ Sizing
 "CSupFlo_Sys_L_OfficeOpn_N" = 855.4881   $ Sizing
 "CSupFlo_Sys_L_OfficeOpn_S" = 2063.241   $ Sizing
 "CSupFlo_Sys_L_OfficeOpn_W" = 1911.491   $ Sizing
 "CSupFlo_Sys_L_OfficeSm_C" = 217.4292   $ Sizing
 "CSupFlo_Sys_L_OfficeSm_E" = 1439.297   $ Sizing
 "CSupFlo_Sys_L_OfficeSm_N" = 521.7958   $ Sizing
 "CSupFlo_Sys_L_OfficeSm_S" = 1522.007   $ Sizing
 "CSupFlo_Sys_L_OfficeSm_W" = 1383.461   $ Sizing
 "CSupFlo_Sys_L_Restrm_C" = 211.8611   $ Sizing
 "CSupFlo_Sys_L_StorSm_C" = 345.7904   $ Sizing
 "CSupFlo_Sys_M_Break_C" = 3187.896   $ Sizing
 "CSupFlo_Sys_M_Conf_C" = 3838.197   $ Sizing
 "CSupFlo_Sys_M_CopyRm_C" = 1095.959   $ Sizing
 "CSupFlo_Sys_M_Cordr_C" = 6291.863   $ Sizing
 "CSupFlo_Sys_M_Cordr_E" = 2416.535   $ Sizing
 "CSupFlo_Sys_M_Cordr_N" = 890.3996   $ Sizing
 "CSupFlo_Sys_M_Cordr_S" = 2514.544   $ Sizing
 "CSupFlo_Sys_M_Cordr_W" = 2166.364   $ Sizing
 "CSupFlo_Sys_M_LobWait_C" = 3714.816   $ Sizing
 "CSupFlo_Sys_M_MechElec_C" = 1149.662   $ Sizing
 "CSupFlo_Sys_M_OfficeOpn_C" = 16021.4   $ Sizing
 "CSupFlo_Sys_M_OfficeOpn_E" = 17439.28   $ Sizing
 "CSupFlo_Sys_M_OfficeOpn_N" = 7993.485   $ Sizing
 "CSupFlo_Sys_M_OfficeOpn_S" = 18394.66   $ Sizing
 "CSupFlo_Sys_M_OfficeOpn_W" = 16233.51   $ Sizing
 "CSupFlo_Sys_M_OfficeSm_C" = 2243.237   $ Sizing
 "CSupFlo_Sys_M_OfficeSm_E" = 12467.04   $ Sizing
 "CSupFlo_Sys_M_OfficeSm_N" = 4962.502   $ Sizing
 "CSupFlo_Sys_M_OfficeSm_S" = 13471.12   $ Sizing
 "CSupFlo_Sys_M_OfficeSm_W" = 11810.01   $ Sizing
 "CSupFlo_Sys_M_Restrm_C" = 1694.889   $ Sizing
 "CSupFlo_Sys_M_StorSm_C" = 2994.105   $ Sizing
 "CSupFlo_Sys_T_Break_C" = 376.9581   $ Sizing
 "CSupFlo_Sys_T_Conf_C" = 457.3697   $ Sizing
 "CSupFlo_Sys_T_CopyRm_C" = 131.25   $ Sizing
 "CSupFlo_Sys_T_Cordr_C" = 691.7634   $ Sizing
 "CSupFlo_Sys_T_Cordr_E" = 266.441   $ Sizing
 "CSupFlo_Sys_T_Cordr_N" = 99.53352   $ Sizing
 "CSupFlo_Sys_T_Cordr_S" = 286.0114   $ Sizing
 "CSupFlo_Sys_T_Cordr_W" = 244.2412   $ Sizing
 "CSupFlo_Sys_T_LobWait_C" = 429.1299   $ Sizing
 "CSupFlo_Sys_T_MechElec_C" = 150.3808   $ Sizing
 "CSupFlo_Sys_T_OfficeOpn_C" = 1849.696   $ Sizing
 "CSupFlo_Sys_T_OfficeOpn_E" = 1983.492   $ Sizing
 "CSupFlo_Sys_T_OfficeOpn_N" = 935.6747   $ Sizing
 "CSupFlo_Sys_T_OfficeOpn_S" = 2143.867   $ Sizing
 "CSupFlo_Sys_T_OfficeOpn_W" = 1866.663   $ Sizing
 "CSupFlo_Sys_T_OfficeSm_C" = 261.536   $ Sizing
 "CSupFlo_Sys_T_OfficeSm_E" = 1462.398   $ Sizing
 "CSupFlo_Sys_T_OfficeSm_N" = 592.3904   $ Sizing
 "CSupFlo_Sys_T_OfficeSm_S" = 1606.466   $ Sizing
 "CSupFlo_Sys_T_OfficeSm_W" = 1392.183   $ Sizing
 "CSupFlo_Sys_T_Restrm_C" = 211.8611   $ Sizing
 "CSupFlo_Sys_T_StorSm_C" = 334.0894   $ Sizing
 "ClCap_Sys_L_Break_C" = 12400.7   $ Sizing
 "ClCap_Sys_L_Conf_C" = 18559.97   $ Sizing
 "ClCap_Sys_L_CopyRm_C" = 3732.016   $ Sizing
 "ClCap_Sys_L_Cordr_C" = 19241.51   $ Sizing
 "ClCap_Sys_L_Cordr_E" = 8287.755   $ Sizing
 "ClCap_Sys_L_Cordr_N" = 3541.346   $ Sizing
 "ClCap_Sys_L_Cordr_S" = 8897.159   $ Sizing
 "ClCap_Sys_L_Cordr_W" = 7932.85   $ Sizing
 "ClCap_Sys_L_LobWait_C" = 12166.11   $ Sizing
 "ClCap_Sys_L_MechElec_C" = 4565.713   $ Sizing
 "ClCap_Sys_L_OfficeOpn_C" = 58308.31   $ Sizing
 "ClCap_Sys_L_OfficeOpn_E" = 67920.96   $ Sizing
 "ClCap_Sys_L_OfficeOpn_N" = 29111.75   $ Sizing
 "ClCap_Sys_L_OfficeOpn_S" = 70210.87   $ Sizing
 "ClCap_Sys_L_OfficeOpn_W" = 65046.91   $ Sizing
 "ClCap_Sys_L_OfficeSm_C" = 7398.985   $ Sizing
 "ClCap_Sys_L_OfficeSm_E" = 48978.4   $ Sizing
 "ClCap_Sys_L_OfficeSm_N" = 17756.4   $ Sizing
 "ClCap_Sys_L_OfficeSm_S" = 51792.98   $ Sizing
 "ClCap_Sys_L_OfficeSm_W" = 47078.36   $ Sizing
 "ClCap_Sys_L_Restrm_C" = 7209.506   $ Sizing
 "ClCap_Sys_L_StorSm_C" = 11767.04   $ Sizing
 "ClCap_Sys_M_Break_C" = 108482.2   $ Sizing
 "ClCap_Sys_M_Conf_C" = 166232.9   $ Sizing
 "ClCap_Sys_M_CopyRm_C" = 37294.83   $ Sizing
 "ClCap_Sys_M_Cordr_C" = 214108.3   $ Sizing
 "ClCap_Sys_M_Cordr_E" = 82233.23   $ Sizing
 "ClCap_Sys_M_Cordr_N" = 30299.77   $ Sizing
 "ClCap_Sys_M_Cordr_S" = 85568.43   $ Sizing
 "ClCap_Sys_M_Cordr_W" = 73720.07   $ Sizing
 "ClCap_Sys_M_LobWait_C" = 126413   $ Sizing
 "ClCap_Sys_M_MechElec_C" = 39122.3   $ Sizing
 "ClCap_Sys_M_OfficeOpn_C" = 545198.5   $ Sizing
 "ClCap_Sys_M_OfficeOpn_E" = 593448.3   $ Sizing
 "ClCap_Sys_M_OfficeOpn_N" = 272013.5   $ Sizing
 "ClCap_Sys_M_OfficeOpn_S" = 625959.4   $ Sizing
 "ClCap_Sys_M_OfficeOpn_W" = 552416.8   $ Sizing
 "ClCap_Sys_M_OfficeSm_C" = 76336.02   $ Sizing
 "ClCap_Sys_M_OfficeSm_E" = 424246   $ Sizing
 "ClCap_Sys_M_OfficeSm_N" = 168871   $ Sizing
 "ClCap_Sys_M_OfficeSm_S" = 458414   $ Sizing
 "ClCap_Sys_M_OfficeSm_W" = 401887.7   $ Sizing
 "ClCap_Sys_M_Restrm_C" = 57676.05   $ Sizing
 "ClCap_Sys_M_StorSm_C" = 101887.6   $ Sizing
 "ClCap_Sys_T_Break_C" = 12827.66   $ Sizing
 "ClCap_Sys_T_Conf_C" = 19808.75   $ Sizing
 "ClCap_Sys_T_CopyRm_C" = 4466.36   $ Sizing
 "ClCap_Sys_T_Cordr_C" = 23540.29   $ Sizing
 "ClCap_Sys_T_Cordr_E" = 9066.827   $ Sizing
 "ClCap_Sys_T_Cordr_N" = 3387.066   $ Sizing
 "ClCap_Sys_T_Cordr_S" = 9732.797   $ Sizing
 "ClCap_Sys_T_Cordr_W" = 8311.381   $ Sizing
 "ClCap_Sys_T_LobWait_C" = 14603.04   $ Sizing
 "ClCap_Sys_T_MechElec_C" = 5117.367   $ Sizing
 "ClCap_Sys_T_OfficeOpn_C" = 62944.05   $ Sizing
 "ClCap_Sys_T_OfficeOpn_E" = 67497.04   $ Sizing
 "ClCap_Sys_T_OfficeOpn_N" = 31840.45   $ Sizing
 "ClCap_Sys_T_OfficeOpn_S" = 72954.52   $ Sizing
 "ClCap_Sys_T_OfficeOpn_W" = 63521.41   $ Sizing
 "ClCap_Sys_T_OfficeSm_C" = 8899.915   $ Sizing
 "ClCap_Sys_T_OfficeSm_E" = 49764.54   $ Sizing
 "ClCap_Sys_T_OfficeSm_N" = 20158.69   $ Sizing
 "ClCap_Sys_T_OfficeSm_S" = 54667.08   $ Sizing
 "ClCap_Sys_T_OfficeSm_W" = 47375.14   $ Sizing
 "ClCap_Sys_T_Restrm_C" = 7209.506   $ Sizing
 "ClCap_Sys_T_StorSm_C" = 11368.86   $ Sizing
 "HtCap_L_Break_CZn" = 0   $ Sizing
 "HtCap_L_Conf_CZn" = 0   $ Sizing
 "HtCap_L_CopyRm_CZn" = 0   $ Sizing
 "HtCap_L_Cordr_CZn" = 0   $ Sizing
 "HtCap_L_Cordr_EZn" = 0   $ Sizing
 "HtCap_L_Cordr_NZn" = 0   $ Sizing
 "HtCap_L_Cordr_SZn" = 0   $ Sizing
 "HtCap_L_Cordr_WZn" = 0   $ Sizing
 "HtCap_L_LobWait_CZn" = 0   $ Sizing
 "HtCap_L_MechElec_CZn" = 0   $ Sizing
 "HtCap_L_OfficeOpn_CZn" = 0   $ Sizing
 "HtCap_L_OfficeOpn_EZn" = 0   $ Sizing
 "HtCap_L_OfficeOpn_NZn" = 0   $ Sizing
 "HtCap_L_OfficeOpn_SZn" = 0   $ Sizing
 "HtCap_L_OfficeOpn_WZn" = 0   $ Sizing
 "HtCap_L_OfficeSm_CZn" = 0   $ Sizing
 "HtCap_L_OfficeSm_EZn" = 0   $ Sizing
 "HtCap_L_OfficeSm_NZn" = 0   $ Sizing
 "HtCap_L_OfficeSm_SZn" = 0   $ Sizing
 "HtCap_L_OfficeSm_WZn" = 0   $ Sizing
 "HtCap_L_Restrm_CZn" = 0   $ Sizing
 "HtCap_L_StorSm_CZn" = 0   $ Sizing
 "HtCap_M_Break_CZn" = 0   $ Sizing
 "HtCap_M_Conf_CZn" = 0   $ Sizing
 "HtCap_M_CopyRm_CZn" = 0   $ Sizing
 "HtCap_M_Cordr_CZn" = 0   $ Sizing
 "HtCap_M_Cordr_EZn" = 0   $ Sizing
 "HtCap_M_Cordr_NZn" = 0   $ Sizing
 "HtCap_M_Cordr_SZn" = 0   $ Sizing
 "HtCap_M_Cordr_WZn" = 0   $ Sizing
 "HtCap_M_LobWait_CZn" = 0   $ Sizing
 "HtCap_M_MechElec_CZn" = 0   $ Sizing
 "HtCap_M_OfficeOpn_CZn" = 0   $ Sizing
 "HtCap_M_OfficeOpn_EZn" = 0   $ Sizing
 "HtCap_M_OfficeOpn_NZn" = 0   $ Sizing
 "HtCap_M_OfficeOpn_SZn" = 0   $ Sizing
 "HtCap_M_OfficeOpn_WZn" = 0   $ Sizing
 "HtCap_M_OfficeSm_CZn" = 0   $ Sizing
 "HtCap_M_OfficeSm_EZn" = 0   $ Sizing
 "HtCap_M_OfficeSm_NZn" = 0   $ Sizing
 "HtCap_M_OfficeSm_SZn" = 0   $ Sizing
 "HtCap_M_OfficeSm_WZn" = 0   $ Sizing
 "HtCap_M_Restrm_CZn" = 0   $ Sizing
 "HtCap_M_StorSm_CZn" = 0   $ Sizing
 "HtCap_Sys_L_Break_C" = -20860.09   $ Sizing
 "HtCap_Sys_L_Conf_C" = -25794.58   $ Sizing
 "HtCap_Sys_L_CopyRm_C" = -7323.73   $ Sizing
 "HtCap_Sys_L_Cordr_C" = -26629.36   $ Sizing
 "HtCap_Sys_L_Cordr_E" = -9040.293   $ Sizing
 "HtCap_Sys_L_Cordr_N" = -4802.261   $ Sizing
 "HtCap_Sys_L_Cordr_S" = -9488.068   $ Sizing
 "HtCap_Sys_L_Cordr_W" = -8715.794   $ Sizing
 "HtCap_Sys_L_LobWait_C" = -20975.2   $ Sizing
 "HtCap_Sys_L_MechElec_C" = -6258.618   $ Sizing
 "HtCap_Sys_L_OfficeOpn_C" = -85964.79   $ Sizing
 "HtCap_Sys_L_OfficeOpn_E" = -69425.69   $ Sizing
 "HtCap_Sys_L_OfficeOpn_N" = -35189.95   $ Sizing
 "HtCap_Sys_L_OfficeOpn_S" = -70616.24   $ Sizing
 "HtCap_Sys_L_OfficeOpn_W" = -66800.12   $ Sizing
 "HtCap_Sys_L_OfficeSm_C" = -9110.687   $ Sizing
 "HtCap_Sys_L_OfficeSm_E" = -49876.11   $ Sizing
 "HtCap_Sys_L_OfficeSm_N" = -21784.13   $ Sizing
 "HtCap_Sys_L_OfficeSm_S" = -51696.5   $ Sizing
 "HtCap_Sys_L_OfficeSm_W" = -48227.75   $ Sizing
 "HtCap_Sys_L_Restrm_C" = -7970.122   $ Sizing
 "HtCap_Sys_L_StorSm_C" = -16349.07   $ Sizing
 "HtCap_Sys_M_Break_C" = -174916.8   $ Sizing
 "HtCap_Sys_M_Conf_C" = -218694.7   $ Sizing
 "HtCap_Sys_M_CopyRm_C" = -65162.52   $ Sizing
 "HtCap_Sys_M_Cordr_C" = -265140.4   $ Sizing
 "HtCap_Sys_M_Cordr_E" = -86133.95   $ Sizing
 "HtCap_Sys_M_Cordr_N" = -40101.5   $ Sizing
 "HtCap_Sys_M_Cordr_S" = -88151.68   $ Sizing
 "HtCap_Sys_M_Cordr_W" = -78523.18   $ Sizing
 "HtCap_Sys_M_LobWait_C" = -193383.7   $ Sizing
 "HtCap_Sys_M_MechElec_C" = -52300.2   $ Sizing
 "HtCap_Sys_M_OfficeOpn_C" = -803655.4   $ Sizing
 "HtCap_Sys_M_OfficeOpn_E" = -597788.6   $ Sizing
 "HtCap_Sys_M_OfficeOpn_N" = -315633   $ Sizing
 "HtCap_Sys_M_OfficeOpn_S" = -618385.1   $ Sizing
 "HtCap_Sys_M_OfficeOpn_W" = -561038.3   $ Sizing
 "HtCap_Sys_M_OfficeSm_C" = -87936.19   $ Sizing
 "HtCap_Sys_M_OfficeSm_E" = -425883.8   $ Sizing
 "HtCap_Sys_M_OfficeSm_N" = -198069.8   $ Sizing
 "HtCap_Sys_M_OfficeSm_S" = -450048.2   $ Sizing
 "HtCap_Sys_M_OfficeSm_W" = -406391.4   $ Sizing
 "HtCap_Sys_M_Restrm_C" = -68508.77   $ Sizing
 "HtCap_Sys_M_StorSm_C" = -133767.5   $ Sizing
 "HtCap_Sys_T_Break_C" = -22102.91   $ Sizing
 "HtCap_Sys_T_Conf_C" = -27515.47   $ Sizing
 "HtCap_Sys_T_CopyRm_C" = -8181.1   $ Sizing
 "HtCap_Sys_T_Cordr_C" = -34013.71   $ Sizing
 "HtCap_Sys_T_Cordr_E" = -11267.46   $ Sizing
 "HtCap_Sys_T_Cordr_N" = -5140.785   $ Sizing
 "HtCap_Sys_T_Cordr_S" = -11984.9   $ Sizing
 "HtCap_Sys_T_Cordr_W" = -10477.5   $ Sizing
 "HtCap_Sys_T_LobWait_C" = -24362.61   $ Sizing
 "HtCap_Sys_T_MechElec_C" = -6735.32   $ Sizing
 "HtCap_Sys_T_OfficeOpn_C" = -83650.44   $ Sizing
 "HtCap_Sys_T_OfficeOpn_E" = -78320.13   $ Sizing
 "HtCap_Sys_T_OfficeOpn_N" = -42822.73   $ Sizing
 "HtCap_Sys_T_OfficeOpn_S" = -83923.33   $ Sizing
 "HtCap_Sys_T_OfficeOpn_W" = -74246.55   $ Sizing
 "HtCap_Sys_T_OfficeSm_C" = -11730.02   $ Sizing
 "HtCap_Sys_T_OfficeSm_E" = -57703.44   $ Sizing
 "HtCap_Sys_T_OfficeSm_N" = -27015.22   $ Sizing
 "HtCap_Sys_T_OfficeSm_S" = -61887.07   $ Sizing
 "HtCap_Sys_T_OfficeSm_W" = -55328.4   $ Sizing
 "HtCap_Sys_T_Restrm_C" = -9123.386   $ Sizing
 "HtCap_Sys_T_StorSm_C" = -17852.51   $ Sizing
 "HtCap_T_Break_CZn" = 0   $ Sizing
 "HtCap_T_Conf_CZn" = 0   $ Sizing
 "HtCap_T_CopyRm_CZn" = 0   $ Sizing
 "HtCap_T_Cordr_CZn" = 0   $ Sizing
 "HtCap_T_Cordr_EZn" = 0   $ Sizing
 "HtCap_T_Cordr_NZn" = 0   $ Sizing
 "HtCap_T_Cordr_SZn" = 0   $ Sizing
 "HtCap_T_Cordr_WZn" = 0   $ Sizing
 "HtCap_T_LobWait_CZn" = 0   $ Sizing
 "HtCap_T_MechElec_CZn" = 0   $ Sizing
 "HtCap_T_OfficeOpn_CZn" = 0   $ Sizing
 "HtCap_T_OfficeOpn_EZn" = 0   $ Sizing
 "HtCap_T_OfficeOpn_NZn" = 0   $ Sizing
 "HtCap_T_OfficeOpn_SZn" = 0   $ Sizing
 "HtCap_T_OfficeOpn_WZn" = 0   $ Sizing
 "HtCap_T_OfficeSm_CZn" = 0   $ Sizing
 "HtCap_T_OfficeSm_EZn" = 0   $ Sizing
 "HtCap_T_OfficeSm_NZn" = 0   $ Sizing
 "HtCap_T_OfficeSm_SZn" = 0   $ Sizing
 "HtCap_T_OfficeSm_WZn" = 0   $ Sizing
 "HtCap_T_Restrm_CZn" = 0   $ Sizing
 "HtCap_T_StorSm_CZn" = 0   $ Sizing
..

##include Templates\OfL_DX_SZ.inp
END ..
COMPUTE ..
STOP ..
