INPUT ..

##fileprefix C:\Users\jglasskatz\MASControl3\
##set1 IsSizing FALSE
##set1 CoolType DX
##set1 HeatType FURNACE
##set1 EU_HrRepVar 0
##set1 BldgVint 1996
##set1 BldgLoc CZ08

 ##set1 mBFMult 1   $ IP Tech: RefgChg-NRes-Std

PARAMETER
 "AltFactor" = 1.01468   $ IP Non-Tech
 "BF_fFlow" = SpltAC2SpHiSEER_BF_fFlow   $ Msr (Multi)TechID: MsrNResSplitAC-45to55-S17
 "BF_fT" = SpltAC2SpHiSEER_BF_fT   $ Msr (Multi)TechID: MsrNResSplitAC-45to55-S17
 "BldgEconoFlag" = 1   $ IP Non-Tech
 "Break_EWSF" = 1   $ IP Non-Tech
 "Break_LWSF" = 1.1   $ IP Non-Tech
 "CDD_DBHi10" = 92   $ IP Non-Tech
 "CDD_DBHi7" = 84   $ IP Non-Tech
 "CDD_DBHi8" = 87   $ IP Non-Tech
 "CDD_DBHi9" = 91   $ IP Non-Tech
 "CDD_DBRange10" = 31   $ IP Non-Tech
 "CDD_DBRange7" = 16   $ IP Non-Tech
 "CDD_DBRange8" = 20   $ IP Non-Tech
 "CDD_DBRange9" = 23   $ IP Non-Tech
 "CDD_Day10" = 15   $ IP Non-Tech
 "CDD_Day7" = 16   $ IP Non-Tech
 "CDD_Day8" = 20   $ IP Non-Tech
 "CDD_Day9" = 17   $ IP Non-Tech
 "CDD_HrHi10" = 16   $ IP Non-Tech
 "CDD_HrHi7" = 14   $ IP Non-Tech
 "CDD_HrHi8" = 15   $ IP Non-Tech
 "CDD_HrHi9" = 13   $ IP Non-Tech
 "CDD_HrLo10" = 3   $ IP Non-Tech
 "CDD_HrLo7" = 4   $ IP Non-Tech
 "CDD_HrLo8" = 7   $ IP Non-Tech
 "CDD_HrLo9" = 7   $ IP Non-Tech
 "CDD_WB10" = 63.44163513   $ IP Non-Tech
 "CDD_WB7" = 69.12194824   $ IP Non-Tech
 "CDD_WB8" = 71.41388702   $ IP Non-Tech
 "CDD_WB9" = 69.41378784   $ IP Non-Tech
 "CEIR_fPLR_Hot" = SpltAC2SpHiSEER_CEIR_fPLR_Hot   $ Msr (Multi)TechID: MsrNResSplitAC-45to55-S17
 "CEIR_fPLR_Mod" = SpltAC2SpHiSEER_CEIR_fPLR_Mod   $ Msr (Multi)TechID: MsrNResSplitAC-45to55-S17
 "CEIR_fPLR_Tem" = SpltAC2SpHiSEER_CEIR_fPLR_Tem   $ Msr (Multi)TechID: MsrNResSplitAC-45to55-S17
 "CLoss_fPLR_Hot" = SpltAC2SpHiSEER_CLoss_fPLR_Hot   $ Msr (Multi)TechID: MsrNResSplitAC-45to55-S17
 "CLoss_fPLR_Mod" = SpltAC2SpHiSEER_CLoss_fPLR_Mod   $ Msr (Multi)TechID: MsrNResSplitAC-45to55-S17
 "CLoss_fPLR_Tem" = SpltAC2SpHiSEER_CLoss_fPLR_Tem   $ Msr (Multi)TechID: MsrNResSplitAC-45to55-S17
 "COP47" = 0   $ Msr (Multi)TechID: MsrNResSplitAC-45to55-S17
 "CZ_Category" = Mod   $ IP Non-Tech
 "CapRange" = Any   $ Msr (Multi)TechID: MsrNResSplitAC-45to55-S17
 "CfmPerBtuh" = 0.03   $ Msr (Multi)TechID: MsrNResSplitAC-45to55-S17
 "ChwVintEconoFlag" = 1   $ IP Non-Tech
 "ClCap_fT" = SpltAC2SpHiSEER_ClCap_fT   $ Msr (Multi)TechID: MsrNResSplitAC-45to55-S17
 "ClSH_fT" = SpltAC2SpHiSEER_ClSH_fT   $ Msr (Multi)TechID: MsrNResSplitAC-45to55-S17
 "CoilBF" = 0.102   $ Msr (Multi)TechID: MsrNResSplitAC-45to55-S17
 "CondWPerBtuh" = 0   $ Msr (Multi)TechID: MsrNResSplitAC-45to55-S17
 "Conference_EWSF" = 1.05   $ IP Non-Tech
 "Conference_LWSF" = 1.4   $ IP Non-Tech
 "CoolSensCap" = 0.724   $ Msr (Multi)TechID: MsrNResSplitAC-45to55-S17
 "CoolSetT" = 45   $ IP Non-Tech
 "CoolType" = DX   $ IP Non-Tech
 "CoolingEIR" = 0.2225   $ Msr (Multi)TechID: MsrNResSplitAC-45to55-S17
 "CopyRoom_EWSF" = 1.575   $ IP Non-Tech
 "CopyRoom_LWSF" = 1.3   $ IP Non-Tech
 "CorridorStairway_EWSF" = 0.21   $ IP Non-Tech
 "CorridorStairway_LWSF" = 0.6   $ IP Non-Tech
 "CrnkEIR" = 0.002225   $ Msr (Multi)TechID: MsrNResSplitAC-45to55-S17
 "CrnkMaxT" = 50   $ Msr (Multi)TechID: MsrNResSplitAC-45to55-S17
 "DXType" = SplitSEER   $ Msr (Multi)TechID: MsrNResSplitAC-45to55-S17
 "DesCoolT" = 75   $ IP Non-Tech
 "DesHeatT" = 73   $ IP Non-Tech
 "EER" = 13.26   $ Msr (Multi)TechID: MsrNResSplitAC-45to55-S17
 "EIR_fT" = SpltAC2SpHiSEER_EIR_fT   $ Msr (Multi)TechID: MsrNResSplitAC-45to55-S17
 "EconoCtrl" = FIXED   $ Msr (Multi)TechID: MsrNResSplitAC-45to55-S17
 "EconoEnthLimit" = 28   $ IP Non-Tech
 "EconoTempLimit" = 71   $ IP Non-Tech
 "Elevation" = 395   $ IP Non-Tech
 "FanEirPlr" = TwoSpeedFan   $ Msr (Multi)TechID: MsrNResSplitAC-45to55-S17
 "FanWPerCfm" = 0.271   $ Msr (Multi)TechID: MsrNResSplitAC-45to55-S17
 "HDD_CloudAmt1" = 0   $ IP Non-Tech
 "HDD_DBHi1" = 55   $ IP Non-Tech
 "HDD_DBRange1" = 18   $ IP Non-Tech
 "HDD_Day1" = 15   $ IP Non-Tech
 "HDD_HrHi1" = 11   $ IP Non-Tech
 "HDD_HrLo1" = 6   $ IP Non-Tech
 "HDD_WB1" = 49.4   $ IP Non-Tech
 "HDD_WindSpd1" = 9.2   $ IP Non-Tech
 "HIR_fT" = 0   $ Msr (Multi)TechID: MsrNResSplitAC-45to55-S17
 "HSPF" = 0   $ Msr (Multi)TechID: MsrNResSplitAC-45to55-S17
 "HeatSrc" = FURNACE   $ IP Non-Tech
 "HeatSrcTU" = HEAT-PUMP   $ IP Non-Tech
 "HeatType" = GasFurn   $ IP Non-Tech
 "HeatTypeTU" = HEAT-PUMP   $ IP Non-Tech
 "HtCap_fT" = 0   $ Msr (Multi)TechID: MsrNResSplitAC-45to55-S17
 "HtCoolCapRatio" = 0   $ Msr (Multi)TechID: MsrNResSplitAC-45to55-S17
 "HtgEIR" = 0   $ Msr (Multi)TechID: MsrNResSplitAC-45to55-S17
 "IndoorFanMode" = CONTINUOUS   $ IP Non-Tech
 "KT_TransferAir" = No   $ IP Non-Tech
 "Latitude" = 33.8   $ IP Non-Tech
 "LobbyWaiting_EWSF" = 0.5125   $ IP Non-Tech
 "LobbyWaiting_LWSF" = 1.3   $ IP Non-Tech
 "Longitude" = 118.2   $ IP Non-Tech
 "LowSpdCapRatio" = 0.686   $ Msr (Multi)TechID: MsrNResSplitAC-45to55-S17
 "LowSpdCfmRatio" = 0.739   $ Msr (Multi)TechID: MsrNResSplitAC-45to55-S17
 "MZFanMechEff" = 0.58   $ IP Non-Tech
 "MZHasRetFan" = FALSE   $ IP Non-Tech
 "MZ_RFanWPerCfm" = 0.37   $ IP Non-Tech
 "MZ_SFanWPerCfm" = 0.71   $ IP Non-Tech
 "MZ_SupFanStatic" = 2.25   $ IP Non-Tech
 "MaxOAFrac" = 1   $ Msr (Multi)TechID: MsrNResSplitAC-45to55-S17
 "MaxSupT_MZ" = 100   $ IP Non-Tech
 "MaxSupT_SZ" = 100   $ IP Non-Tech
 "MaxSupT_TU" = 90   $ IP Non-Tech
 "MechElecRoom_EWSF" = 0.21   $ IP Non-Tech
 "MechElecRoom_LWSF" = 0.7   $ IP Non-Tech
 "MinCfmPerSF" = 0.4   $ IP Non-Tech
 "MinSupT" = 55   $ IP Non-Tech
 "NumStages" = 2   $ Msr (Multi)TechID: MsrNResSplitAC-45to55-S17
 "OccCoolT" = 76   $ IP Non-Tech
 "OccHeatT" = 72   $ IP Non-Tech
 "OfficeOpen_EWSF" = 1.575   $ IP Non-Tech
 "OfficeOpen_LWSF" = 1.2   $ IP Non-Tech
 "OfficeSmall_EWSF" = 1.575   $ IP Non-Tech
 "OfficeSmall_LWSF" = 1.3   $ IP Non-Tech
 "PkgDxVintEconoFlag" = 0   $ IP Non-Tech
 "Restroom_EWSF" = 0.21   $ IP Non-Tech
 "Restroom_LWSF" = 0.6   $ IP Non-Tech
 "SEER" = 17   $ Msr (Multi)TechID: MsrNResSplitAC-45to55-S17
 "SZFanMechEff" = 0.58   $ IP Non-Tech
 "SZHasRetFan" = FALSE   $ IP Non-Tech
 "SZ_Is_2Spd" = FALSE   $ IP Non-Tech
 "SZ_SFanWPerCfm" = 0.46   $ IP Non-Tech
 "SZ_SupFanStatic" = 0.75   $ IP Non-Tech
 "Sector" = Any   $ Msr (Multi)TechID: MsrNResSplitAC-45to55-S17
 "StorageSmlCond_EWSF" = 0.21   $ IP Non-Tech
 "StorageSmlCond_LWSF" = 0.6   $ IP Non-Tech
 "SubType" = AC   $ Msr (Multi)TechID: MsrNResSplitAC-45to55-S17
 "T24GlzTbl" = CZTbl   $ IP Non-Tech
 "TermUnitFanMechEff" = 1   $ IP Non-Tech
 "TermUnitFanMode" = INTERMITTENT   $ IP Non-Tech
 "TotCoolCap" = 58805   $ Msr (Multi)TechID: MsrNResSplitAC-45to55-S17
 "TwrSetpt" = 80.5   $ IP Non-Tech
 "UnocCoolT" = 86   $ IP Non-Tech
 "UnocHeatT" = 62   $ IP Non-Tech
 "UseEconoVintApplic" = FALSE   $ Msr (Multi)TechID: MsrNResSplitAC-45to55-S17
 "WlhpVintEconoFlag" = 0   $ IP Non-Tech
 "DuctDT" = 1   $ IP Tech: ComDuctInsul-1
 "DuctAirLoss" = 0   $ IP Tech: ComDuctLeak-0
 "DuctLossOAFrac" = 0   $ IP Tech: ComDuctLeak-0
 "ComRoofInsCalc" = FromUo   $ IP Tech: ComRoofIns-Hvy-0.08
 "ComRoofInsR" = -999   $ IP Tech: ComRoofIns-Hvy-0.08
 "ComRoofUo" = 0.08   $ IP Tech: ComRoofIns-Hvy-0.08
 "ComEWInsCalc" = FromUo   $ IP Tech: ComWallIns-MFrm-0.14
 "ComEWInsR" = -999   $ IP Tech: ComWallIns-MFrm-0.14
 "ComEWUo" = 0.14   $ IP Tech: ComWallIns-MFrm-0.14
 "ComN_SHGC" = 0.82   $ IP Tech: NResWin-ComN-1.23-0.82
 "ComN_UFactor" = 1.23   $ IP Tech: NResWin-ComN-1.23-0.82
 "ComN_VisTrans" = 0.9   $ IP Tech: NResWin-ComN-1.23-0.82
 "ComN_WinCode" = G1000   $ IP Tech: NResWin-ComN-1.23-0.82
 "ComN_WinFrmFrac" = 0.17   $ IP Tech: NResWin-ComN-1.23-0.82
 "ComN_WinFrmU" = 1   $ IP Tech: NResWin-ComN-1.23-0.82
 "ComO_SHGC" = 0.62   $ IP Tech: NResWin-ComO-1.23-0.62
 "ComO_UFactor" = 1.23   $ IP Tech: NResWin-ComO-1.23-0.62
 "ComO_VisTrans" = 0.69   $ IP Tech: NResWin-ComO-1.23-0.62
 "ComO_WinCode" = G1200   $ IP Tech: NResWin-ComO-1.23-0.62
 "ComO_WinFrmFrac" = 0.17   $ IP Tech: NResWin-ComO-1.23-0.62
 "ComO_WinFrmU" = 1   $ IP Tech: NResWin-ComO-1.23-0.62
 "LtgMsrApplic" = ALL   $ IP Tech: NonResLtgRefPre
 "LtgSav_CFL" = 0   $ IP Tech: NonResLtgRefPre
 "LtgSav_EX" = 0   $ IP Tech: NonResLtgRefPre
 "LtgSav_HB" = 0   $ IP Tech: NonResLtgRefPre
 "LtgSav_LF" = 0   $ IP Tech: NonResLtgRefPre
 "LtgSav_SP" = 0   $ IP Tech: NonResLtgRefPre
 "CEIR_fPLR" = PSZ65to135_CEIR_fPLR   $ IP Tech: PkgAC1SpH-65to135-E10
 "CLoss_fPLR" = PSZ65to135_CLoss_fPLR   $ IP Tech: PkgAC1SpH-65to135-E10
 "COP" = -1   $ IP Tech: PkgAC1SpH-65to135-E10
 "HtgFuel" = Gas   $ IP Tech: PkgAC1SpH-65to135-E10
 "IEER" = 11.87   $ IP Tech: PkgAC1SpH-65to135-E10
 "NominalCap" = 15   $ IP Tech: PkgAC1SpH-65to135-E10
 "RatedEER" = 10   $ IP Tech: PkgAC1SpH-65to135-E10
 "RatedSupMtrClass" = HiEff   $ IP Tech: PkgAC1SpH-65to135-E10
 "SizeRange" = 65to135   $ IP Tech: PkgAC1SpH-65to135-E10
 "SupMotEff" = 0.84   $ IP Tech: PkgAC1SpH-65to135-E10
 "Tier" = 0   $ IP Tech: PkgAC1SpH-65to135-E10
 "FanPwrMult" = 1   $ IP Tech: PkgFurn-0.80AFUE
 "FurnAFUE" = 0.8   $ IP Tech: PkgFurn-0.80AFUE
 "FurnEt" = 0.82   $ IP Tech: PkgFurn-0.80AFUE
 "FurnaceAuxKW" = 0.1   $ IP Tech: PkgFurn-0.80AFUE
 "HIR_fPLR" = Furnace-HIR-fPLR   $ IP Tech: PkgFurn-0.80AFUE
 "VSM" = FALSE   $ IP Tech: PkgFurn-0.80AFUE
 "BFMult" = 1   $ IP Tech: RefgChg-NRes-Std
 "CoolEirMult" = 1   $ IP Tech: RefgChg-NRes-Std
 "SensCoolCapMult" = 1   $ IP Tech: RefgChg-NRes-Std
 "TotCoolCapMult" = 1   $ IP Tech: RefgChg-NRes-Std
 "AltAdjFactor" = 1.014676   $ Sizing
 "CAssFlo_L_Break_CZn" = 491.9756   $ Sizing
 "CAssFlo_L_Conf_CZn" = 471.3193   $ Sizing
 "CAssFlo_L_CopyRm_CZn" = 153.0154   $ Sizing
 "CAssFlo_L_Cordr_CZn" = 570.9636   $ Sizing
 "CAssFlo_L_Cordr_EZn" = 275.2522   $ Sizing
 "CAssFlo_L_Cordr_NZn" = 137.6275   $ Sizing
 "CAssFlo_L_Cordr_SZn" = 292.6476   $ Sizing
 "CAssFlo_L_Cordr_WZn" = 302.5813   $ Sizing
 "CAssFlo_L_LobWait_CZn" = 480.2058   $ Sizing
 "CAssFlo_L_MechElec_CZn" = 118.7831   $ Sizing
 "CAssFlo_L_OfficeOpn_CZn" = 1700.152   $ Sizing
 "CAssFlo_L_OfficeOpn_EZn" = 1994.732   $ Sizing
 "CAssFlo_L_OfficeOpn_NZn" = 1104.126   $ Sizing
 "CAssFlo_L_OfficeOpn_SZn" = 2075.962   $ Sizing
 "CAssFlo_L_OfficeOpn_WZn" = 2227.406   $ Sizing
 "CAssFlo_L_OfficeSm_CZn" = 214.9227   $ Sizing
 "CAssFlo_L_OfficeSm_EZn" = 1443.495   $ Sizing
 "CAssFlo_L_OfficeSm_NZn" = 718.8332   $ Sizing
 "CAssFlo_L_OfficeSm_SZn" = 1543.412   $ Sizing
 "CAssFlo_L_OfficeSm_WZn" = 1615.307   $ Sizing
 "CAssFlo_L_Restrm_CZn" = 84.16682   $ Sizing
 "CAssFlo_L_StorSm_CZn" = 388.6892   $ Sizing
 "CAssFlo_M_Break_CZn" = 495.9586   $ Sizing
 "CAssFlo_M_Conf_CZn" = 469.2749   $ Sizing
 "CAssFlo_M_CopyRm_CZn" = 146.9576   $ Sizing
 "CAssFlo_M_Cordr_CZn" = 845.8908   $ Sizing
 "CAssFlo_M_Cordr_EZn" = 309.0113   $ Sizing
 "CAssFlo_M_Cordr_NZn" = 159.5242   $ Sizing
 "CAssFlo_M_Cordr_SZn" = 331.5527   $ Sizing
 "CAssFlo_M_Cordr_WZn" = 324.7087   $ Sizing
 "CAssFlo_M_LobWait_CZn" = 505.1581   $ Sizing
 "CAssFlo_M_MechElec_CZn" = 154.6591   $ Sizing
 "CAssFlo_M_OfficeOpn_CZn" = 1897.351   $ Sizing
 "CAssFlo_M_OfficeOpn_EZn" = 2102.291   $ Sizing
 "CAssFlo_M_OfficeOpn_NZn" = 1184.549   $ Sizing
 "CAssFlo_M_OfficeOpn_SZn" = 2264.998   $ Sizing
 "CAssFlo_M_OfficeOpn_WZn" = 2309.769   $ Sizing
 "CAssFlo_M_OfficeSm_CZn" = 264.9616   $ Sizing
 "CAssFlo_M_OfficeSm_EZn" = 1510.458   $ Sizing
 "CAssFlo_M_OfficeSm_NZn" = 767.144   $ Sizing
 "CAssFlo_M_OfficeSm_SZn" = 1667.374   $ Sizing
 "CAssFlo_M_OfficeSm_WZn" = 1664.929   $ Sizing
 "CAssFlo_M_Restrm_CZn" = 106.9228   $ Sizing
 "CAssFlo_M_StorSm_CZn" = 399.0674   $ Sizing
 "CAssFlo_T_Break_CZn" = 493.4868   $ Sizing
 "CAssFlo_T_Conf_CZn" = 470.1724   $ Sizing
 "CAssFlo_T_CopyRm_CZn" = 147.217   $ Sizing
 "CAssFlo_T_Cordr_CZn" = 798.1445   $ Sizing
 "CAssFlo_T_Cordr_EZn" = 296.7463   $ Sizing
 "CAssFlo_T_Cordr_NZn" = 160.2771   $ Sizing
 "CAssFlo_T_Cordr_SZn" = 318.5394   $ Sizing
 "CAssFlo_T_Cordr_WZn" = 318.9573   $ Sizing
 "CAssFlo_T_LobWait_CZn" = 505.3683   $ Sizing
 "CAssFlo_T_MechElec_CZn" = 177.2269   $ Sizing
 "CAssFlo_T_OfficeOpn_CZn" = 1786.436   $ Sizing
 "CAssFlo_T_OfficeOpn_EZn" = 2043.902   $ Sizing
 "CAssFlo_T_OfficeOpn_NZn" = 1204.62   $ Sizing
 "CAssFlo_T_OfficeOpn_SZn" = 2218.252   $ Sizing
 "CAssFlo_T_OfficeOpn_WZn" = 2270.352   $ Sizing
 "CAssFlo_T_OfficeSm_CZn" = 271.0487   $ Sizing
 "CAssFlo_T_OfficeSm_EZn" = 1513.386   $ Sizing
 "CAssFlo_T_OfficeSm_NZn" = 787.9415   $ Sizing
 "CAssFlo_T_OfficeSm_SZn" = 1658.485   $ Sizing
 "CAssFlo_T_OfficeSm_WZn" = 1669.482   $ Sizing
 "CAssFlo_T_Restrm_CZn" = 137.5117   $ Sizing
 "CAssFlo_T_StorSm_CZn" = 270.9899   $ Sizing
 "CHRtFlo_Sys_L_Break_C" = 491.9756   $ Sizing
 "CHRtFlo_Sys_L_Conf_C" = 471.3193   $ Sizing
 "CHRtFlo_Sys_L_CopyRm_C" = 153.0154   $ Sizing
 "CHRtFlo_Sys_L_Cordr_C" = 634.2324   $ Sizing
 "CHRtFlo_Sys_L_Cordr_E" = 327.3882   $ Sizing
 "CHRtFlo_Sys_L_Cordr_N" = 137.6275   $ Sizing
 "CHRtFlo_Sys_L_Cordr_S" = 355.529   $ Sizing
 "CHRtFlo_Sys_L_Cordr_W" = 332.4678   $ Sizing
 "CHRtFlo_Sys_L_LobWait_C" = 480.2057   $ Sizing
 "CHRtFlo_Sys_L_MechElec_C" = 140.1529   $ Sizing
 "CHRtFlo_Sys_L_OfficeOpn_C" = 1787.489   $ Sizing
 "CHRtFlo_Sys_L_OfficeOpn_E" = 2432.727   $ Sizing
 "CHRtFlo_Sys_L_OfficeOpn_N" = 1132.467   $ Sizing
 "CHRtFlo_Sys_L_OfficeOpn_S" = 2542.474   $ Sizing
 "CHRtFlo_Sys_L_OfficeOpn_W" = 2533.07   $ Sizing
 "CHRtFlo_Sys_L_OfficeSm_C" = 249.6282   $ Sizing
 "CHRtFlo_Sys_L_OfficeSm_E" = 1797.601   $ Sizing
 "CHRtFlo_Sys_L_OfficeSm_N" = 752.2084   $ Sizing
 "CHRtFlo_Sys_L_OfficeSm_S" = 1917.948   $ Sizing
 "CHRtFlo_Sys_L_OfficeSm_W" = 1876.639   $ Sizing
 "CHRtFlo_Sys_L_Restrm_C" = 213.3633   $ Sizing
 "CHRtFlo_Sys_L_StorSm_C" = 427.1937   $ Sizing
 "CHRtFlo_Sys_M_Break_C" = 3967.668   $ Sizing
 "CHRtFlo_Sys_M_Conf_C" = 4213.482   $ Sizing
 "CHRtFlo_Sys_M_CopyRm_C" = 1235.695   $ Sizing
 "CHRtFlo_Sys_M_Cordr_C" = 7834.087   $ Sizing
 "CHRtFlo_Sys_M_Cordr_E" = 3018.881   $ Sizing
 "CHRtFlo_Sys_M_Cordr_N" = 1393.083   $ Sizing
 "CHRtFlo_Sys_M_Cordr_S" = 3215.846   $ Sizing
 "CHRtFlo_Sys_M_Cordr_W" = 2894.655   $ Sizing
 "CHRtFlo_Sys_M_LobWait_C" = 4416.766   $ Sizing
 "CHRtFlo_Sys_M_MechElec_C" = 1494.59   $ Sizing
 "CHRtFlo_Sys_M_OfficeOpn_C" = 17400.6   $ Sizing
 "CHRtFlo_Sys_M_OfficeOpn_E" = 20770.62   $ Sizing
 "CHRtFlo_Sys_M_OfficeOpn_N" = 9984.245   $ Sizing
 "CHRtFlo_Sys_M_OfficeOpn_S" = 22062.78   $ Sizing
 "CHRtFlo_Sys_M_OfficeOpn_W" = 21136   $ Sizing
 "CHRtFlo_Sys_M_OfficeSm_C" = 2526.397   $ Sizing
 "CHRtFlo_Sys_M_OfficeSm_E" = 15217.26   $ Sizing
 "CHRtFlo_Sys_M_OfficeSm_N" = 6568.017   $ Sizing
 "CHRtFlo_Sys_M_OfficeSm_S" = 16464.91   $ Sizing
 "CHRtFlo_Sys_M_OfficeSm_W" = 15539.86   $ Sizing
 "CHRtFlo_Sys_M_Restrm_C" = 1706.906   $ Sizing
 "CHRtFlo_Sys_M_StorSm_C" = 3681.009   $ Sizing
 "CHRtFlo_Sys_T_Break_C" = 493.4868   $ Sizing
 "CHRtFlo_Sys_T_Conf_C" = 486.7231   $ Sizing
 "CHRtFlo_Sys_T_CopyRm_C" = 147.217   $ Sizing
 "CHRtFlo_Sys_T_Cordr_C" = 831.1685   $ Sizing
 "CHRtFlo_Sys_T_Cordr_E" = 328.7759   $ Sizing
 "CHRtFlo_Sys_T_Cordr_N" = 160.2772   $ Sizing
 "CHRtFlo_Sys_T_Cordr_S" = 361.6873   $ Sizing
 "CHRtFlo_Sys_T_Cordr_W" = 325.2016   $ Sizing
 "CHRtFlo_Sys_T_LobWait_C" = 505.3683   $ Sizing
 "CHRtFlo_Sys_T_MechElec_C" = 224.5672   $ Sizing
 "CHRtFlo_Sys_T_OfficeOpn_C" = 1878.934   $ Sizing
 "CHRtFlo_Sys_T_OfficeOpn_E" = 2340.133   $ Sizing
 "CHRtFlo_Sys_T_OfficeOpn_N" = 1204.62   $ Sizing
 "CHRtFlo_Sys_T_OfficeOpn_S" = 2559.964   $ Sizing
 "CHRtFlo_Sys_T_OfficeOpn_W" = 2413.052   $ Sizing
 "CHRtFlo_Sys_T_OfficeSm_C" = 292.7513   $ Sizing
 "CHRtFlo_Sys_T_OfficeSm_E" = 1773.989   $ Sizing
 "CHRtFlo_Sys_T_OfficeSm_N" = 787.9415   $ Sizing
 "CHRtFlo_Sys_T_OfficeSm_S" = 1955.554   $ Sizing
 "CHRtFlo_Sys_T_OfficeSm_W" = 1820.693   $ Sizing
 "CHRtFlo_Sys_T_Restrm_C" = 213.3633   $ Sizing
 "CHRtFlo_Sys_T_StorSm_C" = 336.4583   $ Sizing
 "CRtdFlo_Sys_L_Break_C" = 491.9756   $ Sizing
 "CRtdFlo_Sys_L_Conf_C" = 471.3193   $ Sizing
 "CRtdFlo_Sys_L_CopyRm_C" = 153.0154   $ Sizing
 "CRtdFlo_Sys_L_Cordr_C" = 570.9636   $ Sizing
 "CRtdFlo_Sys_L_Cordr_E" = 275.2522   $ Sizing
 "CRtdFlo_Sys_L_Cordr_N" = 137.6275   $ Sizing
 "CRtdFlo_Sys_L_Cordr_S" = 292.6476   $ Sizing
 "CRtdFlo_Sys_L_Cordr_W" = 302.5813   $ Sizing
 "CRtdFlo_Sys_L_LobWait_C" = 480.2057   $ Sizing
 "CRtdFlo_Sys_L_MechElec_C" = 118.7831   $ Sizing
 "CRtdFlo_Sys_L_OfficeOpn_C" = 1700.152   $ Sizing
 "CRtdFlo_Sys_L_OfficeOpn_E" = 1994.732   $ Sizing
 "CRtdFlo_Sys_L_OfficeOpn_N" = 1104.126   $ Sizing
 "CRtdFlo_Sys_L_OfficeOpn_S" = 2075.962   $ Sizing
 "CRtdFlo_Sys_L_OfficeOpn_W" = 2227.406   $ Sizing
 "CRtdFlo_Sys_L_OfficeSm_C" = 214.9227   $ Sizing
 "CRtdFlo_Sys_L_OfficeSm_E" = 1443.495   $ Sizing
 "CRtdFlo_Sys_L_OfficeSm_N" = 718.8332   $ Sizing
 "CRtdFlo_Sys_L_OfficeSm_S" = 1543.412   $ Sizing
 "CRtdFlo_Sys_L_OfficeSm_W" = 1615.307   $ Sizing
 "CRtdFlo_Sys_L_Restrm_C" = 84.16682   $ Sizing
 "CRtdFlo_Sys_L_StorSm_C" = 388.6892   $ Sizing
 "CRtdFlo_Sys_M_Break_C" = 3967.668   $ Sizing
 "CRtdFlo_Sys_M_Conf_C" = 3754.199   $ Sizing
 "CRtdFlo_Sys_M_CopyRm_C" = 1175.66   $ Sizing
 "CRtdFlo_Sys_M_Cordr_C" = 6767.126   $ Sizing
 "CRtdFlo_Sys_M_Cordr_E" = 2472.09   $ Sizing
 "CRtdFlo_Sys_M_Cordr_N" = 1276.194   $ Sizing
 "CRtdFlo_Sys_M_Cordr_S" = 2652.422   $ Sizing
 "CRtdFlo_Sys_M_Cordr_W" = 2597.67   $ Sizing
 "CRtdFlo_Sys_M_LobWait_C" = 4041.264   $ Sizing
 "CRtdFlo_Sys_M_MechElec_C" = 1237.273   $ Sizing
 "CRtdFlo_Sys_M_OfficeOpn_C" = 15178.81   $ Sizing
 "CRtdFlo_Sys_M_OfficeOpn_E" = 16818.33   $ Sizing
 "CRtdFlo_Sys_M_OfficeOpn_N" = 9476.393   $ Sizing
 "CRtdFlo_Sys_M_OfficeOpn_S" = 18119.98   $ Sizing
 "CRtdFlo_Sys_M_OfficeOpn_W" = 18478.15   $ Sizing
 "CRtdFlo_Sys_M_OfficeSm_C" = 2119.693   $ Sizing
 "CRtdFlo_Sys_M_OfficeSm_E" = 12083.67   $ Sizing
 "CRtdFlo_Sys_M_OfficeSm_N" = 6137.152   $ Sizing
 "CRtdFlo_Sys_M_OfficeSm_S" = 13338.99   $ Sizing
 "CRtdFlo_Sys_M_OfficeSm_W" = 13319.43   $ Sizing
 "CRtdFlo_Sys_M_Restrm_C" = 855.3826   $ Sizing
 "CRtdFlo_Sys_M_StorSm_C" = 3192.539   $ Sizing
 "CRtdFlo_Sys_T_Break_C" = 493.4868   $ Sizing
 "CRtdFlo_Sys_T_Conf_C" = 470.1724   $ Sizing
 "CRtdFlo_Sys_T_CopyRm_C" = 147.217   $ Sizing
 "CRtdFlo_Sys_T_Cordr_C" = 798.1445   $ Sizing
 "CRtdFlo_Sys_T_Cordr_E" = 296.7463   $ Sizing
 "CRtdFlo_Sys_T_Cordr_N" = 160.2772   $ Sizing
 "CRtdFlo_Sys_T_Cordr_S" = 318.5394   $ Sizing
 "CRtdFlo_Sys_T_Cordr_W" = 318.9573   $ Sizing
 "CRtdFlo_Sys_T_LobWait_C" = 505.3683   $ Sizing
 "CRtdFlo_Sys_T_MechElec_C" = 177.2269   $ Sizing
 "CRtdFlo_Sys_T_OfficeOpn_C" = 1786.436   $ Sizing
 "CRtdFlo_Sys_T_OfficeOpn_E" = 2043.902   $ Sizing
 "CRtdFlo_Sys_T_OfficeOpn_N" = 1204.62   $ Sizing
 "CRtdFlo_Sys_T_OfficeOpn_S" = 2218.252   $ Sizing
 "CRtdFlo_Sys_T_OfficeOpn_W" = 2270.352   $ Sizing
 "CRtdFlo_Sys_T_OfficeSm_C" = 271.0487   $ Sizing
 "CRtdFlo_Sys_T_OfficeSm_E" = 1513.386   $ Sizing
 "CRtdFlo_Sys_T_OfficeSm_N" = 787.9415   $ Sizing
 "CRtdFlo_Sys_T_OfficeSm_S" = 1658.485   $ Sizing
 "CRtdFlo_Sys_T_OfficeSm_W" = 1669.482   $ Sizing
 "CRtdFlo_Sys_T_Restrm_C" = 137.5117   $ Sizing
 "CRtdFlo_Sys_T_StorSm_C" = 270.9899   $ Sizing
 "CSupFlo_Sys_L_Break_C" = 491.9756   $ Sizing
 "CSupFlo_Sys_L_Conf_C" = 471.3193   $ Sizing
 "CSupFlo_Sys_L_CopyRm_C" = 153.0154   $ Sizing
 "CSupFlo_Sys_L_Cordr_C" = 570.9636   $ Sizing
 "CSupFlo_Sys_L_Cordr_E" = 275.2522   $ Sizing
 "CSupFlo_Sys_L_Cordr_N" = 137.6275   $ Sizing
 "CSupFlo_Sys_L_Cordr_S" = 292.6476   $ Sizing
 "CSupFlo_Sys_L_Cordr_W" = 302.5813   $ Sizing
 "CSupFlo_Sys_L_LobWait_C" = 480.2057   $ Sizing
 "CSupFlo_Sys_L_MechElec_C" = 118.7831   $ Sizing
 "CSupFlo_Sys_L_OfficeOpn_C" = 1700.152   $ Sizing
 "CSupFlo_Sys_L_OfficeOpn_E" = 1994.732   $ Sizing
 "CSupFlo_Sys_L_OfficeOpn_N" = 1104.126   $ Sizing
 "CSupFlo_Sys_L_OfficeOpn_S" = 2075.962   $ Sizing
 "CSupFlo_Sys_L_OfficeOpn_W" = 2227.406   $ Sizing
 "CSupFlo_Sys_L_OfficeSm_C" = 214.9227   $ Sizing
 "CSupFlo_Sys_L_OfficeSm_E" = 1443.495   $ Sizing
 "CSupFlo_Sys_L_OfficeSm_N" = 718.8332   $ Sizing
 "CSupFlo_Sys_L_OfficeSm_S" = 1543.412   $ Sizing
 "CSupFlo_Sys_L_OfficeSm_W" = 1615.307   $ Sizing
 "CSupFlo_Sys_L_Restrm_C" = 84.16682   $ Sizing
 "CSupFlo_Sys_L_StorSm_C" = 388.6892   $ Sizing
 "CSupFlo_Sys_M_Break_C" = 3967.668   $ Sizing
 "CSupFlo_Sys_M_Conf_C" = 3754.199   $ Sizing
 "CSupFlo_Sys_M_CopyRm_C" = 1175.66   $ Sizing
 "CSupFlo_Sys_M_Cordr_C" = 6767.126   $ Sizing
 "CSupFlo_Sys_M_Cordr_E" = 2472.09   $ Sizing
 "CSupFlo_Sys_M_Cordr_N" = 1276.194   $ Sizing
 "CSupFlo_Sys_M_Cordr_S" = 2652.422   $ Sizing
 "CSupFlo_Sys_M_Cordr_W" = 2597.67   $ Sizing
 "CSupFlo_Sys_M_LobWait_C" = 4041.264   $ Sizing
 "CSupFlo_Sys_M_MechElec_C" = 1237.273   $ Sizing
 "CSupFlo_Sys_M_OfficeOpn_C" = 15178.81   $ Sizing
 "CSupFlo_Sys_M_OfficeOpn_E" = 16818.33   $ Sizing
 "CSupFlo_Sys_M_OfficeOpn_N" = 9476.393   $ Sizing
 "CSupFlo_Sys_M_OfficeOpn_S" = 18119.98   $ Sizing
 "CSupFlo_Sys_M_OfficeOpn_W" = 18478.15   $ Sizing
 "CSupFlo_Sys_M_OfficeSm_C" = 2119.693   $ Sizing
 "CSupFlo_Sys_M_OfficeSm_E" = 12083.67   $ Sizing
 "CSupFlo_Sys_M_OfficeSm_N" = 6137.152   $ Sizing
 "CSupFlo_Sys_M_OfficeSm_S" = 13338.99   $ Sizing
 "CSupFlo_Sys_M_OfficeSm_W" = 13319.43   $ Sizing
 "CSupFlo_Sys_M_Restrm_C" = 855.3826   $ Sizing
 "CSupFlo_Sys_M_StorSm_C" = 3192.539   $ Sizing
 "CSupFlo_Sys_T_Break_C" = 493.4868   $ Sizing
 "CSupFlo_Sys_T_Conf_C" = 470.1724   $ Sizing
 "CSupFlo_Sys_T_CopyRm_C" = 147.217   $ Sizing
 "CSupFlo_Sys_T_Cordr_C" = 798.1445   $ Sizing
 "CSupFlo_Sys_T_Cordr_E" = 296.7463   $ Sizing
 "CSupFlo_Sys_T_Cordr_N" = 160.2772   $ Sizing
 "CSupFlo_Sys_T_Cordr_S" = 318.5394   $ Sizing
 "CSupFlo_Sys_T_Cordr_W" = 318.9573   $ Sizing
 "CSupFlo_Sys_T_LobWait_C" = 505.3683   $ Sizing
 "CSupFlo_Sys_T_MechElec_C" = 177.2269   $ Sizing
 "CSupFlo_Sys_T_OfficeOpn_C" = 1786.436   $ Sizing
 "CSupFlo_Sys_T_OfficeOpn_E" = 2043.902   $ Sizing
 "CSupFlo_Sys_T_OfficeOpn_N" = 1204.62   $ Sizing
 "CSupFlo_Sys_T_OfficeOpn_S" = 2218.252   $ Sizing
 "CSupFlo_Sys_T_OfficeOpn_W" = 2270.352   $ Sizing
 "CSupFlo_Sys_T_OfficeSm_C" = 271.0487   $ Sizing
 "CSupFlo_Sys_T_OfficeSm_E" = 1513.386   $ Sizing
 "CSupFlo_Sys_T_OfficeSm_N" = 787.9415   $ Sizing
 "CSupFlo_Sys_T_OfficeSm_S" = 1658.485   $ Sizing
 "CSupFlo_Sys_T_OfficeSm_W" = 1669.482   $ Sizing
 "CSupFlo_Sys_T_Restrm_C" = 137.5117   $ Sizing
 "CSupFlo_Sys_T_StorSm_C" = 270.9899   $ Sizing
 "ClCap_Sys_L_Break_C" = 16623.76   $ Sizing
 "ClCap_Sys_L_Conf_C" = 20269.19   $ Sizing
 "ClCap_Sys_L_CopyRm_C" = 5170.361   $ Sizing
 "ClCap_Sys_L_Cordr_C" = 19292.75   $ Sizing
 "ClCap_Sys_L_Cordr_E" = 9300.719   $ Sizing
 "ClCap_Sys_L_Cordr_N" = 4650.408   $ Sizing
 "ClCap_Sys_L_Cordr_S" = 9888.506   $ Sizing
 "ClCap_Sys_L_Cordr_W" = 10224.17   $ Sizing
 "ClCap_Sys_L_LobWait_C" = 16226.06   $ Sizing
 "ClCap_Sys_L_MechElec_C" = 4013.66   $ Sizing
 "ClCap_Sys_L_OfficeOpn_C" = 57447.82   $ Sizing
 "ClCap_Sys_L_OfficeOpn_E" = 67401.63   $ Sizing
 "ClCap_Sys_L_OfficeOpn_N" = 37308.2   $ Sizing
 "ClCap_Sys_L_OfficeOpn_S" = 70146.38   $ Sizing
 "ClCap_Sys_L_OfficeOpn_W" = 75263.65   $ Sizing
 "ClCap_Sys_L_OfficeSm_C" = 7262.198   $ Sizing
 "ClCap_Sys_L_OfficeSm_E" = 48775.43   $ Sizing
 "ClCap_Sys_L_OfficeSm_N" = 24289.24   $ Sizing
 "ClCap_Sys_L_OfficeSm_S" = 52151.61   $ Sizing
 "ClCap_Sys_L_OfficeSm_W" = 54580.9   $ Sizing
 "ClCap_Sys_L_Restrm_C" = 2843.981   $ Sizing
 "ClCap_Sys_L_StorSm_C" = 13133.73   $ Sizing
 "ClCap_Sys_M_Break_C" = 134066.8   $ Sizing
 "ClCap_Sys_M_Conf_C" = 161450.2   $ Sizing
 "ClCap_Sys_M_CopyRm_C" = 39725.34   $ Sizing
 "ClCap_Sys_M_Cordr_C" = 228659.9   $ Sizing
 "ClCap_Sys_M_Cordr_E" = 83531.46   $ Sizing
 "ClCap_Sys_M_Cordr_N" = 43122.34   $ Sizing
 "ClCap_Sys_M_Cordr_S" = 89624.83   $ Sizing
 "ClCap_Sys_M_Cordr_W" = 87774.77   $ Sizing
 "ClCap_Sys_M_LobWait_C" = 136553.6   $ Sizing
 "ClCap_Sys_M_MechElec_C" = 41807.23   $ Sizing
 "ClCap_Sys_M_OfficeOpn_C" = 512889   $ Sizing
 "ClCap_Sys_M_OfficeOpn_E" = 568288.2   $ Sizing
 "ClCap_Sys_M_OfficeOpn_N" = 320205.5   $ Sizing
 "ClCap_Sys_M_OfficeOpn_S" = 612270.8   $ Sizing
 "ClCap_Sys_M_OfficeOpn_W" = 624373.3   $ Sizing
 "ClCap_Sys_M_OfficeSm_C" = 71624.02   $ Sizing
 "ClCap_Sys_M_OfficeSm_E" = 408304.8   $ Sizing
 "ClCap_Sys_M_OfficeSm_N" = 207373.2   $ Sizing
 "ClCap_Sys_M_OfficeSm_S" = 450722   $ Sizing
 "ClCap_Sys_M_OfficeSm_W" = 450061   $ Sizing
 "ClCap_Sys_M_Restrm_C" = 28903.22   $ Sizing
 "ClCap_Sys_M_StorSm_C" = 107875.3   $ Sizing
 "ClCap_Sys_T_Break_C" = 16674.82   $ Sizing
 "ClCap_Sys_T_Conf_C" = 20219.86   $ Sizing
 "ClCap_Sys_T_CopyRm_C" = 4974.436   $ Sizing
 "ClCap_Sys_T_Cordr_C" = 26969.15   $ Sizing
 "ClCap_Sys_T_Cordr_E" = 10027   $ Sizing
 "ClCap_Sys_T_Cordr_N" = 5415.735   $ Sizing
 "ClCap_Sys_T_Cordr_S" = 10763.39   $ Sizing
 "ClCap_Sys_T_Cordr_W" = 10777.51   $ Sizing
 "ClCap_Sys_T_LobWait_C" = 17076.3   $ Sizing
 "ClCap_Sys_T_MechElec_C" = 5988.465   $ Sizing
 "ClCap_Sys_T_OfficeOpn_C" = 60363.32   $ Sizing
 "ClCap_Sys_T_OfficeOpn_E" = 69063.06   $ Sizing
 "ClCap_Sys_T_OfficeOpn_N" = 40703.89   $ Sizing
 "ClCap_Sys_T_OfficeOpn_S" = 74954.3   $ Sizing
 "ClCap_Sys_T_OfficeOpn_W" = 76714.77   $ Sizing
 "ClCap_Sys_T_OfficeSm_C" = 9158.684   $ Sizing
 "ClCap_Sys_T_OfficeSm_E" = 51137.02   $ Sizing
 "ClCap_Sys_T_OfficeSm_N" = 26624.4   $ Sizing
 "ClCap_Sys_T_OfficeSm_S" = 56039.9   $ Sizing
 "ClCap_Sys_T_OfficeSm_W" = 56411.48   $ Sizing
 "ClCap_Sys_T_Restrm_C" = 4646.496   $ Sizing
 "ClCap_Sys_T_StorSm_C" = 9156.696   $ Sizing
 "HtCap_Sys_L_Break_C" = -25512.49   $ Sizing
 "HtCap_Sys_L_Conf_C" = -25351.33   $ Sizing
 "HtCap_Sys_L_CopyRm_C" = -8969.293   $ Sizing
 "HtCap_Sys_L_Cordr_C" = -26831.44   $ Sizing
 "HtCap_Sys_L_Cordr_E" = -10883.18   $ Sizing
 "HtCap_Sys_L_Cordr_N" = -5480.905   $ Sizing
 "HtCap_Sys_L_Cordr_S" = -11619.15   $ Sizing
 "HtCap_Sys_L_Cordr_W" = -11025.55   $ Sizing
 "HtCap_Sys_L_LobWait_C" = -24400.83   $ Sizing
 "HtCap_Sys_L_MechElec_C" = -6021.119   $ Sizing
 "HtCap_Sys_L_OfficeOpn_C" = -86543.05   $ Sizing
 "HtCap_Sys_L_OfficeOpn_E" = -76949.21   $ Sizing
 "HtCap_Sys_L_OfficeOpn_N" = -40893.4   $ Sizing
 "HtCap_Sys_L_OfficeOpn_S" = -79821.59   $ Sizing
 "HtCap_Sys_L_OfficeOpn_W" = -80321.3   $ Sizing
 "HtCap_Sys_L_OfficeSm_C" = -9444.49   $ Sizing
 "HtCap_Sys_L_OfficeSm_E" = -58100.18   $ Sizing
 "HtCap_Sys_L_OfficeSm_N" = -27164.31   $ Sizing
 "HtCap_Sys_L_OfficeSm_S" = -61333.61   $ Sizing
 "HtCap_Sys_L_OfficeSm_W" = -60675.4   $ Sizing
 "HtCap_Sys_L_Restrm_C" = -7726.355   $ Sizing
 "HtCap_Sys_L_StorSm_C" = -17590.78   $ Sizing
 "HtCap_Sys_M_Break_C" = -196778.1   $ Sizing
 "HtCap_Sys_M_Conf_C" = -213740   $ Sizing
 "HtCap_Sys_M_CopyRm_C" = -64378.47   $ Sizing
 "HtCap_Sys_M_Cordr_C" = -292345.3   $ Sizing
 "HtCap_Sys_M_Cordr_E" = -98197.48   $ Sizing
 "HtCap_Sys_M_Cordr_N" = -52124.07   $ Sizing
 "HtCap_Sys_M_Cordr_S" = -103087.6   $ Sizing
 "HtCap_Sys_M_Cordr_W" = -94640.79   $ Sizing
 "HtCap_Sys_M_LobWait_C" = -199827   $ Sizing
 "HtCap_Sys_M_MechElec_C" = -58579.92   $ Sizing
 "HtCap_Sys_M_OfficeOpn_C" = -837740.6   $ Sizing
 "HtCap_Sys_M_OfficeOpn_E" = -654726.8   $ Sizing
 "HtCap_Sys_M_OfficeOpn_N" = -353168.7   $ Sizing
 "HtCap_Sys_M_OfficeOpn_S" = -689726.1   $ Sizing
 "HtCap_Sys_M_OfficeOpn_W" = -665540.8   $ Sizing
 "HtCap_Sys_M_OfficeSm_C" = -90550.23   $ Sizing
 "HtCap_Sys_M_OfficeSm_E" = -489715.8   $ Sizing
 "HtCap_Sys_M_OfficeSm_N" = -232734.8   $ Sizing
 "HtCap_Sys_M_OfficeSm_S" = -524004.4   $ Sizing
 "HtCap_Sys_M_OfficeSm_W" = -489278.1   $ Sizing
 "HtCap_Sys_M_Restrm_C" = -66932.13   $ Sizing
 "HtCap_Sys_M_StorSm_C" = -144096.3   $ Sizing
 "HtCap_Sys_T_Break_C" = -26292.44   $ Sizing
 "HtCap_Sys_T_Conf_C" = -26341.16   $ Sizing
 "HtCap_Sys_T_CopyRm_C" = -8444.87   $ Sizing
 "HtCap_Sys_T_Cordr_C" = -35944.69   $ Sizing
 "HtCap_Sys_T_Cordr_E" = -12375.13   $ Sizing
 "HtCap_Sys_T_Cordr_N" = -6925.093   $ Sizing
 "HtCap_Sys_T_Cordr_S" = -13344.58   $ Sizing
 "HtCap_Sys_T_Cordr_W" = -12298.21   $ Sizing
 "HtCap_Sys_T_LobWait_C" = -25180.93   $ Sizing
 "HtCap_Sys_T_MechElec_C" = -8378.658   $ Sizing
 "HtCap_Sys_T_OfficeOpn_C" = -90406.63   $ Sizing
 "HtCap_Sys_T_OfficeOpn_E" = -83076.34   $ Sizing
 "HtCap_Sys_T_OfficeOpn_N" = -48882.01   $ Sizing
 "HtCap_Sys_T_OfficeOpn_S" = -89670.52   $ Sizing
 "HtCap_Sys_T_OfficeOpn_W" = -86015.51   $ Sizing
 "HtCap_Sys_T_OfficeSm_C" = -11784.61   $ Sizing
 "HtCap_Sys_T_OfficeSm_E" = -64025.71   $ Sizing
 "HtCap_Sys_T_OfficeSm_N" = -31432.02   $ Sizing
 "HtCap_Sys_T_OfficeSm_S" = -68656.39   $ Sizing
 "HtCap_Sys_T_OfficeSm_W" = -64529.39   $ Sizing
 "HtCap_Sys_T_Restrm_C" = -8600.039   $ Sizing
 "HtCap_Sys_T_StorSm_C" = -16191.86   $ Sizing
..

##include Templates\OfL_DX_SZ.inp
END ..
COMPUTE ..
STOP ..
