INPUT ..

##fileprefix C:\Users\jglasskatz\MASControl3\
##set1 IsSizing FALSE
##set1 CoolType DX
##set1 HeatType FURNACE
##set1 EU_HrRepVar 0
##set1 BldgVint 2011
##set1 BldgLoc CZ12

 ##set1 mBFMult 1   $ IP Tech: RefgChg-NRes-Std

PARAMETER
 "AltFactor" = 1.00062   $ IP Non-Tech
 "BF_fFlow" = SpltAC2SpHiSEER_BF_fFlow   $ Msr (Multi)TechID: MsrNResSplitAC-lt45-S17
 "BF_fT" = SpltAC2SpHiSEER_BF_fT   $ Msr (Multi)TechID: MsrNResSplitAC-lt45-S17
 "BldgEconoFlag" = 1   $ IP Non-Tech
 "Break_EWSF" = 1   $ IP Non-Tech
 "Break_LWSF" = 1.1   $ IP Non-Tech
 "CDD_DBHi10" = 83   $ IP Non-Tech
 "CDD_DBHi7" = 101   $ IP Non-Tech
 "CDD_DBHi8" = 99   $ IP Non-Tech
 "CDD_DBHi9" = 98   $ IP Non-Tech
 "CDD_DBRange10" = 23   $ IP Non-Tech
 "CDD_DBRange7" = 30   $ IP Non-Tech
 "CDD_DBRange8" = 34   $ IP Non-Tech
 "CDD_DBRange9" = 34   $ IP Non-Tech
 "CDD_Day10" = 15   $ IP Non-Tech
 "CDD_Day7" = 16   $ IP Non-Tech
 "CDD_Day8" = 20   $ IP Non-Tech
 "CDD_Day9" = 17   $ IP Non-Tech
 "CDD_HrHi10" = 14   $ IP Non-Tech
 "CDD_HrHi7" = 16   $ IP Non-Tech
 "CDD_HrHi8" = 16   $ IP Non-Tech
 "CDD_HrHi9" = 16   $ IP Non-Tech
 "CDD_HrLo10" = 3   $ IP Non-Tech
 "CDD_HrLo7" = 4   $ IP Non-Tech
 "CDD_HrLo8" = 8   $ IP Non-Tech
 "CDD_HrLo9" = 7   $ IP Non-Tech
 "CDD_WB10" = 61.40390396   $ IP Non-Tech
 "CDD_WB7" = 71.25247955   $ IP Non-Tech
 "CDD_WB8" = 68.94035339   $ IP Non-Tech
 "CDD_WB9" = 66.54764557   $ IP Non-Tech
 "CEIR_fPLR_Hot" = SpltAC2SpHiSEER_CEIR_fPLR_Hot   $ Msr (Multi)TechID: MsrNResSplitAC-lt45-S17
 "CEIR_fPLR_Mod" = SpltAC2SpHiSEER_CEIR_fPLR_Mod   $ Msr (Multi)TechID: MsrNResSplitAC-lt45-S17
 "CEIR_fPLR_Tem" = SpltAC2SpHiSEER_CEIR_fPLR_Tem   $ Msr (Multi)TechID: MsrNResSplitAC-lt45-S17
 "CLoss_fPLR_Hot" = SpltAC2SpHiSEER_CLoss_fPLR_Hot   $ Msr (Multi)TechID: MsrNResSplitAC-lt45-S17
 "CLoss_fPLR_Mod" = SpltAC2SpHiSEER_CLoss_fPLR_Mod   $ Msr (Multi)TechID: MsrNResSplitAC-lt45-S17
 "CLoss_fPLR_Tem" = SpltAC2SpHiSEER_CLoss_fPLR_Tem   $ Msr (Multi)TechID: MsrNResSplitAC-lt45-S17
 "COP47" = 0   $ Msr (Multi)TechID: MsrNResSplitAC-lt45-S17
 "CZ_Category" = Mod   $ IP Non-Tech
 "CapRange" = Any   $ Msr (Multi)TechID: MsrNResSplitAC-lt45-S17
 "CfmPerBtuh" = 0.03   $ Msr (Multi)TechID: MsrNResSplitAC-lt45-S17
 "ChwVintEconoFlag" = 1   $ IP Non-Tech
 "ClCap_fT" = SpltAC2SpHiSEER_ClCap_fT   $ Msr (Multi)TechID: MsrNResSplitAC-lt45-S17
 "ClSH_fT" = SpltAC2SpHiSEER_ClSH_fT   $ Msr (Multi)TechID: MsrNResSplitAC-lt45-S17
 "CoilBF" = 0.102   $ Msr (Multi)TechID: MsrNResSplitAC-lt45-S17
 "CondWPerBtuh" = 0   $ Msr (Multi)TechID: MsrNResSplitAC-lt45-S17
 "Conference_EWSF" = 1   $ IP Non-Tech
 "Conference_LWSF" = 1.4   $ IP Non-Tech
 "CoolSensCap" = 0.724   $ Msr (Multi)TechID: MsrNResSplitAC-lt45-S17
 "CoolSetT" = 45   $ IP Non-Tech
 "CoolType" = DX   $ IP Non-Tech
 "CoolingEIR" = 0.2225   $ Msr (Multi)TechID: MsrNResSplitAC-lt45-S17
 "CopyRoom_EWSF" = 1.5   $ IP Non-Tech
 "CopyRoom_LWSF" = 1.3   $ IP Non-Tech
 "CorridorStairway_EWSF" = 0.2   $ IP Non-Tech
 "CorridorStairway_LWSF" = 0.6   $ IP Non-Tech
 "CrnkEIR" = 0.002225   $ Msr (Multi)TechID: MsrNResSplitAC-lt45-S17
 "CrnkMaxT" = 50   $ Msr (Multi)TechID: MsrNResSplitAC-lt45-S17
 "DXType" = SplitSEER   $ Msr (Multi)TechID: MsrNResSplitAC-lt45-S17
 "DesCoolT" = 75   $ IP Non-Tech
 "DesHeatT" = 73   $ IP Non-Tech
 "EER" = 13.26   $ Msr (Multi)TechID: MsrNResSplitAC-lt45-S17
 "EIR_fT" = SpltAC2SpHiSEER_EIR_fT   $ Msr (Multi)TechID: MsrNResSplitAC-lt45-S17
 "EconoCtrl" = FIXED   $ Msr (Multi)TechID: MsrNResSplitAC-lt45-S17
 "EconoEnthLimit" = 28   $ IP Non-Tech
 "EconoTempLimit" = 75   $ IP Non-Tech
 "Elevation" = 16   $ IP Non-Tech
 "FanEirPlr" = TwoSpeedFan   $ Msr (Multi)TechID: MsrNResSplitAC-lt45-S17
 "FanWPerCfm" = 0.271   $ Msr (Multi)TechID: MsrNResSplitAC-lt45-S17
 "HDD_CloudAmt1" = 0   $ IP Non-Tech
 "HDD_DBHi1" = 50   $ IP Non-Tech
 "HDD_DBRange1" = 21   $ IP Non-Tech
 "HDD_Day1" = 15   $ IP Non-Tech
 "HDD_HrHi1" = 16   $ IP Non-Tech
 "HDD_HrLo1" = 8   $ IP Non-Tech
 "HDD_WB1" = 43.9   $ IP Non-Tech
 "HDD_WindSpd1" = 13.8   $ IP Non-Tech
 "HIR_fT" = 0   $ Msr (Multi)TechID: MsrNResSplitAC-lt45-S17
 "HSPF" = 0   $ Msr (Multi)TechID: MsrNResSplitAC-lt45-S17
 "HeatSrc" = FURNACE   $ IP Non-Tech
 "HeatSrcTU" = HEAT-PUMP   $ IP Non-Tech
 "HeatType" = GasFurn   $ IP Non-Tech
 "HeatTypeTU" = HEAT-PUMP   $ IP Non-Tech
 "HtCap_fT" = 0   $ Msr (Multi)TechID: MsrNResSplitAC-lt45-S17
 "HtCoolCapRatio" = 0   $ Msr (Multi)TechID: MsrNResSplitAC-lt45-S17
 "HtgEIR" = 0   $ Msr (Multi)TechID: MsrNResSplitAC-lt45-S17
 "IndoorFanMode" = CONTINUOUS   $ IP Non-Tech
 "KT_TransferAir" = No   $ IP Non-Tech
 "Latitude" = 38.5   $ IP Non-Tech
 "LobbyWaiting_EWSF" = 0.5   $ IP Non-Tech
 "LobbyWaiting_LWSF" = 1.3   $ IP Non-Tech
 "Longitude" = 121.5   $ IP Non-Tech
 "LowSpdCapRatio" = 0.686   $ Msr (Multi)TechID: MsrNResSplitAC-lt45-S17
 "LowSpdCfmRatio" = 0.739   $ Msr (Multi)TechID: MsrNResSplitAC-lt45-S17
 "MZFanMechEff" = 0.58   $ IP Non-Tech
 "MZHasRetFan" = FALSE   $ IP Non-Tech
 "MZ_RFanWPerCfm" = 0.37   $ IP Non-Tech
 "MZ_SFanWPerCfm" = 0.71   $ IP Non-Tech
 "MZ_SupFanStatic" = 2.25   $ IP Non-Tech
 "MaxOAFrac" = 1   $ Msr (Multi)TechID: MsrNResSplitAC-lt45-S17
 "MaxSupT_MZ" = 100   $ IP Non-Tech
 "MaxSupT_SZ" = 100   $ IP Non-Tech
 "MaxSupT_TU" = 90   $ IP Non-Tech
 "MechElecRoom_EWSF" = 0.2   $ IP Non-Tech
 "MechElecRoom_LWSF" = 0.7   $ IP Non-Tech
 "MinCfmPerSF" = 0.4   $ IP Non-Tech
 "MinSupT" = 55   $ IP Non-Tech
 "NumStages" = 2   $ Msr (Multi)TechID: MsrNResSplitAC-lt45-S17
 "OccCoolT" = 76   $ IP Non-Tech
 "OccHeatT" = 72   $ IP Non-Tech
 "OfficeOpen_EWSF" = 1.5   $ IP Non-Tech
 "OfficeOpen_LWSF" = 1.1   $ IP Non-Tech
 "OfficeSmall_EWSF" = 1.5   $ IP Non-Tech
 "OfficeSmall_LWSF" = 1.3   $ IP Non-Tech
 "PkgDxVintEconoFlag" = 0   $ IP Non-Tech
 "Restroom_EWSF" = 0.2   $ IP Non-Tech
 "Restroom_LWSF" = 0.6   $ IP Non-Tech
 "SEER" = 17   $ Msr (Multi)TechID: MsrNResSplitAC-lt45-S17
 "SZFanMechEff" = 0.58   $ IP Non-Tech
 "SZHasRetFan" = FALSE   $ IP Non-Tech
 "SZ_Is_2Spd" = FALSE   $ IP Non-Tech
 "SZ_SFanWPerCfm" = 0.46   $ IP Non-Tech
 "SZ_SupFanStatic" = 0.75   $ IP Non-Tech
 "Sector" = Any   $ Msr (Multi)TechID: MsrNResSplitAC-lt45-S17
 "StorageSmlCond_EWSF" = 0.2   $ IP Non-Tech
 "StorageSmlCond_LWSF" = 0.6   $ IP Non-Tech
 "SubType" = AC   $ Msr (Multi)TechID: MsrNResSplitAC-lt45-S17
 "T24GlzTbl" = CZTbl   $ IP Non-Tech
 "TermUnitFanMechEff" = 1   $ IP Non-Tech
 "TermUnitFanMode" = INTERMITTENT   $ IP Non-Tech
 "TotCoolCap" = 58805   $ Msr (Multi)TechID: MsrNResSplitAC-lt45-S17
 "TwrSetpt" = 82.3   $ IP Non-Tech
 "UnocCoolT" = 86   $ IP Non-Tech
 "UnocHeatT" = 62   $ IP Non-Tech
 "UseEconoVintApplic" = FALSE   $ Msr (Multi)TechID: MsrNResSplitAC-lt45-S17
 "WlhpVintEconoFlag" = 0   $ IP Non-Tech
 "DuctDT" = 1   $ IP Tech: ComDuctInsul-1
 "DuctAirLoss" = 0   $ IP Tech: ComDuctLeak-0
 "DuctLossOAFrac" = 0   $ IP Tech: ComDuctLeak-0
 "ComRoofInsCalc" = FromUo   $ IP Tech: ComRoofIns-Hvy-0.04
 "ComRoofInsR" = -999   $ IP Tech: ComRoofIns-Hvy-0.04
 "ComRoofUo" = 0.04   $ IP Tech: ComRoofIns-Hvy-0.04
 "ComEWInsCalc" = FromUo   $ IP Tech: ComWallIns-MFrm-0.06
 "ComEWInsR" = -999   $ IP Tech: ComWallIns-MFrm-0.06
 "ComEWUo" = 0.06   $ IP Tech: ComWallIns-MFrm-0.06
 "ComN_SHGC" = 0.47   $ IP Tech: NResWin-ComN-0.47-0.47
 "ComN_UFactor" = 0.47   $ IP Tech: NResWin-ComN-0.47-0.47
 "ComN_VisTrans" = 0.75   $ IP Tech: NResWin-ComN-0.47-0.47
 "ComN_WinCode" = G2633   $ IP Tech: NResWin-ComN-0.47-0.47
 "ComN_WinFrmFrac" = 0.17   $ IP Tech: NResWin-ComN-0.47-0.47
 "ComN_WinFrmU" = 0.3   $ IP Tech: NResWin-ComN-0.47-0.47
 "ComO_SHGC" = 0.31   $ IP Tech: NResWin-ComO-0.47-0.31
 "ComO_UFactor" = 0.47   $ IP Tech: NResWin-ComO-0.47-0.31
 "ComO_VisTrans" = 0.44   $ IP Tech: NResWin-ComO-0.47-0.31
 "ComO_WinCode" = G2637   $ IP Tech: NResWin-ComO-0.47-0.31
 "ComO_WinFrmFrac" = 0.17   $ IP Tech: NResWin-ComO-0.47-0.31
 "ComO_WinFrmU" = 0.3   $ IP Tech: NResWin-ComO-0.47-0.31
 "LtgMsrApplic" = ALL   $ IP Tech: NonResLtgRefPre
 "LtgSav_CFL" = 0   $ IP Tech: NonResLtgRefPre
 "LtgSav_EX" = 0   $ IP Tech: NonResLtgRefPre
 "LtgSav_HB" = 0   $ IP Tech: NonResLtgRefPre
 "LtgSav_LF" = 0   $ IP Tech: NonResLtgRefPre
 "LtgSav_SP" = 0   $ IP Tech: NonResLtgRefPre
 "CEIR_fPLR" = PSZ65to135_CEIR_fPLR   $ IP Tech: PkgAC1SpH-65to135-E11
 "CLoss_fPLR" = PSZ65to135_CLoss_fPLR   $ IP Tech: PkgAC1SpH-65to135-E11
 "COP" = -1   $ IP Tech: PkgAC1SpH-65to135-E11
 "HtgFuel" = Gas   $ IP Tech: PkgAC1SpH-65to135-E11
 "IEER" = 13.35   $ IP Tech: PkgAC1SpH-65to135-E11
 "NominalCap" = 15   $ IP Tech: PkgAC1SpH-65to135-E11
 "RatedEER" = 11   $ IP Tech: PkgAC1SpH-65to135-E11
 "RatedSupMtrClass" = HiEff   $ IP Tech: PkgAC1SpH-65to135-E11
 "SizeRange" = 65to135   $ IP Tech: PkgAC1SpH-65to135-E11
 "SupMotEff" = 0.84   $ IP Tech: PkgAC1SpH-65to135-E11
 "Tier" = 0   $ IP Tech: PkgAC1SpH-65to135-E11
 "FanPwrMult" = 1   $ IP Tech: PkgFurn-0.80AFUE
 "FurnAFUE" = 0.8   $ IP Tech: PkgFurn-0.80AFUE
 "FurnEt" = 0.82   $ IP Tech: PkgFurn-0.80AFUE
 "FurnaceAuxKW" = 0.1   $ IP Tech: PkgFurn-0.80AFUE
 "HIR_fPLR" = Furnace-HIR-fPLR   $ IP Tech: PkgFurn-0.80AFUE
 "VSM" = FALSE   $ IP Tech: PkgFurn-0.80AFUE
 "BFMult" = 1   $ IP Tech: RefgChg-NRes-Std
 "CoolEirMult" = 1   $ IP Tech: RefgChg-NRes-Std
 "SensCoolCapMult" = 1   $ IP Tech: RefgChg-NRes-Std
 "TotCoolCapMult" = 1   $ IP Tech: RefgChg-NRes-Std
 "AltAdjFactor" = 1.000622   $ Sizing
 "CAssFlo_L_Break_CZn" = 535.1425   $ Sizing
 "CAssFlo_L_Conf_CZn" = 515.3839   $ Sizing
 "CAssFlo_L_CopyRm_CZn" = 165.167   $ Sizing
 "CAssFlo_L_Cordr_CZn" = 622.0267   $ Sizing
 "CAssFlo_L_Cordr_EZn" = 208.7593   $ Sizing
 "CAssFlo_L_Cordr_NZn" = 154.6164   $ Sizing
 "CAssFlo_L_Cordr_SZn" = 203.8811   $ Sizing
 "CAssFlo_L_Cordr_WZn" = 233.6875   $ Sizing
 "CAssFlo_L_LobWait_CZn" = 529.5217   $ Sizing
 "CAssFlo_L_MechElec_CZn" = 110.3868   $ Sizing
 "CAssFlo_L_OfficeOpn_CZn" = 1771.264   $ Sizing
 "CAssFlo_L_OfficeOpn_EZn" = 1492.241   $ Sizing
 "CAssFlo_L_OfficeOpn_NZn" = 1154.289   $ Sizing
 "CAssFlo_L_OfficeOpn_SZn" = 1479.18   $ Sizing
 "CAssFlo_L_OfficeOpn_WZn" = 1701.301   $ Sizing
 "CAssFlo_L_OfficeSm_CZn" = 226.9162   $ Sizing
 "CAssFlo_L_OfficeSm_EZn" = 1058.848   $ Sizing
 "CAssFlo_L_OfficeSm_NZn" = 754.5486   $ Sizing
 "CAssFlo_L_OfficeSm_SZn" = 1048.542   $ Sizing
 "CAssFlo_L_OfficeSm_WZn" = 1177.984   $ Sizing
 "CAssFlo_L_Restrm_CZn" = 87.47325   $ Sizing
 "CAssFlo_L_StorSm_CZn" = 348.7382   $ Sizing
 "CAssFlo_M_Break_CZn" = 540.383   $ Sizing
 "CAssFlo_M_Conf_CZn" = 515.6645   $ Sizing
 "CAssFlo_M_CopyRm_CZn" = 160.0321   $ Sizing
 "CAssFlo_M_Cordr_CZn" = 822.4398   $ Sizing
 "CAssFlo_M_Cordr_EZn" = 244.1505   $ Sizing
 "CAssFlo_M_Cordr_NZn" = 173.1019   $ Sizing
 "CAssFlo_M_Cordr_SZn" = 228.2435   $ Sizing
 "CAssFlo_M_Cordr_WZn" = 247.7734   $ Sizing
 "CAssFlo_M_LobWait_CZn" = 549.9157   $ Sizing
 "CAssFlo_M_MechElec_CZn" = 139.7063   $ Sizing
 "CAssFlo_M_OfficeOpn_CZn" = 1795.397   $ Sizing
 "CAssFlo_M_OfficeOpn_EZn" = 1620.659   $ Sizing
 "CAssFlo_M_OfficeOpn_NZn" = 1224.155   $ Sizing
 "CAssFlo_M_OfficeOpn_SZn" = 1575.391   $ Sizing
 "CAssFlo_M_OfficeOpn_WZn" = 1748.757   $ Sizing
 "CAssFlo_M_OfficeSm_CZn" = 266.8032   $ Sizing
 "CAssFlo_M_OfficeSm_EZn" = 1135.353   $ Sizing
 "CAssFlo_M_OfficeSm_NZn" = 795.4621   $ Sizing
 "CAssFlo_M_OfficeSm_SZn" = 1107.679   $ Sizing
 "CAssFlo_M_OfficeSm_WZn" = 1200.733   $ Sizing
 "CAssFlo_M_Restrm_CZn" = 94.14198   $ Sizing
 "CAssFlo_M_StorSm_CZn" = 367.879   $ Sizing
 "CAssFlo_T_Break_CZn" = 533.7919   $ Sizing
 "CAssFlo_T_Conf_CZn" = 510.2693   $ Sizing
 "CAssFlo_T_CopyRm_CZn" = 158.8595   $ Sizing
 "CAssFlo_T_Cordr_CZn" = 764.0399   $ Sizing
 "CAssFlo_T_Cordr_EZn" = 238.4189   $ Sizing
 "CAssFlo_T_Cordr_NZn" = 175.397   $ Sizing
 "CAssFlo_T_Cordr_SZn" = 224.1037   $ Sizing
 "CAssFlo_T_Cordr_WZn" = 249.1726   $ Sizing
 "CAssFlo_T_LobWait_CZn" = 543.3275   $ Sizing
 "CAssFlo_T_MechElec_CZn" = 158.6433   $ Sizing
 "CAssFlo_T_OfficeOpn_CZn" = 1823.315   $ Sizing
 "CAssFlo_T_OfficeOpn_EZn" = 1613.758   $ Sizing
 "CAssFlo_T_OfficeOpn_NZn" = 1246.073   $ Sizing
 "CAssFlo_T_OfficeOpn_SZn" = 1572.876   $ Sizing
 "CAssFlo_T_OfficeOpn_WZn" = 1744.537   $ Sizing
 "CAssFlo_T_OfficeSm_CZn" = 253.9083   $ Sizing
 "CAssFlo_T_OfficeSm_EZn" = 1153.53   $ Sizing
 "CAssFlo_T_OfficeSm_NZn" = 815.6149   $ Sizing
 "CAssFlo_T_OfficeSm_SZn" = 1117.974   $ Sizing
 "CAssFlo_T_OfficeSm_WZn" = 1222.187   $ Sizing
 "CAssFlo_T_Restrm_CZn" = 130.6214   $ Sizing
 "CAssFlo_T_StorSm_CZn" = 268.0281   $ Sizing
 "CHRtFlo_Sys_L_Break_C" = 535.1425   $ Sizing
 "CHRtFlo_Sys_L_Conf_C" = 515.3839   $ Sizing
 "CHRtFlo_Sys_L_CopyRm_C" = 165.167   $ Sizing
 "CHRtFlo_Sys_L_Cordr_C" = 648.1404   $ Sizing
 "CHRtFlo_Sys_L_Cordr_E" = 244.3567   $ Sizing
 "CHRtFlo_Sys_L_Cordr_N" = 154.6164   $ Sizing
 "CHRtFlo_Sys_L_Cordr_S" = 235.0732   $ Sizing
 "CHRtFlo_Sys_L_Cordr_W" = 233.6875   $ Sizing
 "CHRtFlo_Sys_L_LobWait_C" = 529.5217   $ Sizing
 "CHRtFlo_Sys_L_MechElec_C" = 136.8088   $ Sizing
 "CHRtFlo_Sys_L_OfficeOpn_C" = 1771.264   $ Sizing
 "CHRtFlo_Sys_L_OfficeOpn_E" = 1772.478   $ Sizing
 "CHRtFlo_Sys_L_OfficeOpn_N" = 1154.289   $ Sizing
 "CHRtFlo_Sys_L_OfficeOpn_S" = 1740.263   $ Sizing
 "CHRtFlo_Sys_L_OfficeOpn_W" = 1723.656   $ Sizing
 "CHRtFlo_Sys_L_OfficeSm_C" = 257.1123   $ Sizing
 "CHRtFlo_Sys_L_OfficeSm_E" = 1280.335   $ Sizing
 "CHRtFlo_Sys_L_OfficeSm_N" = 754.5486   $ Sizing
 "CHRtFlo_Sys_L_OfficeSm_S" = 1268.576   $ Sizing
 "CHRtFlo_Sys_L_OfficeSm_W" = 1228.727   $ Sizing
 "CHRtFlo_Sys_L_Restrm_C" = 210.4081   $ Sizing
 "CHRtFlo_Sys_L_StorSm_C" = 423.4427   $ Sizing
 "CHRtFlo_Sys_M_Break_C" = 4323.064   $ Sizing
 "CHRtFlo_Sys_M_Conf_C" = 4260.93   $ Sizing
 "CHRtFlo_Sys_M_CopyRm_C" = 1280.257   $ Sizing
 "CHRtFlo_Sys_M_Cordr_C" = 7914.95   $ Sizing
 "CHRtFlo_Sys_M_Cordr_E" = 2327.343   $ Sizing
 "CHRtFlo_Sys_M_Cordr_N" = 1449.723   $ Sizing
 "CHRtFlo_Sys_M_Cordr_S" = 2160.232   $ Sizing
 "CHRtFlo_Sys_M_Cordr_W" = 1992.929   $ Sizing
 "CHRtFlo_Sys_M_LobWait_C" = 4569.985   $ Sizing
 "CHRtFlo_Sys_M_MechElec_C" = 1428.371   $ Sizing
 "CHRtFlo_Sys_M_OfficeOpn_C" = 16838.56   $ Sizing
 "CHRtFlo_Sys_M_OfficeOpn_E" = 15563.19   $ Sizing
 "CHRtFlo_Sys_M_OfficeOpn_N" = 9793.24   $ Sizing
 "CHRtFlo_Sys_M_OfficeOpn_S" = 15063.24   $ Sizing
 "CHRtFlo_Sys_M_OfficeOpn_W" = 14248.07   $ Sizing
 "CHRtFlo_Sys_M_OfficeSm_C" = 2594.778   $ Sizing
 "CHRtFlo_Sys_M_OfficeSm_E" = 11077.26   $ Sizing
 "CHRtFlo_Sys_M_OfficeSm_N" = 6363.697   $ Sizing
 "CHRtFlo_Sys_M_OfficeSm_S" = 10885.58   $ Sizing
 "CHRtFlo_Sys_M_OfficeSm_W" = 10216.24   $ Sizing
 "CHRtFlo_Sys_M_Restrm_C" = 1683.265   $ Sizing
 "CHRtFlo_Sys_M_StorSm_C" = 3580.523   $ Sizing
 "CHRtFlo_Sys_T_Break_C" = 533.7919   $ Sizing
 "CHRtFlo_Sys_T_Conf_C" = 510.2693   $ Sizing
 "CHRtFlo_Sys_T_CopyRm_C" = 158.8595   $ Sizing
 "CHRtFlo_Sys_T_Cordr_C" = 836.9149   $ Sizing
 "CHRtFlo_Sys_T_Cordr_E" = 256.748   $ Sizing
 "CHRtFlo_Sys_T_Cordr_N" = 175.397   $ Sizing
 "CHRtFlo_Sys_T_Cordr_S" = 244.9811   $ Sizing
 "CHRtFlo_Sys_T_Cordr_W" = 249.1726   $ Sizing
 "CHRtFlo_Sys_T_LobWait_C" = 543.3275   $ Sizing
 "CHRtFlo_Sys_T_MechElec_C" = 203.7343   $ Sizing
 "CHRtFlo_Sys_T_OfficeOpn_C" = 1823.315   $ Sizing
 "CHRtFlo_Sys_T_OfficeOpn_E" = 1773.372   $ Sizing
 "CHRtFlo_Sys_T_OfficeOpn_N" = 1246.073   $ Sizing
 "CHRtFlo_Sys_T_OfficeOpn_S" = 1764.664   $ Sizing
 "CHRtFlo_Sys_T_OfficeOpn_W" = 1744.537   $ Sizing
 "CHRtFlo_Sys_T_OfficeSm_C" = 286.0203   $ Sizing
 "CHRtFlo_Sys_T_OfficeSm_E" = 1297.193   $ Sizing
 "CHRtFlo_Sys_T_OfficeSm_N" = 815.6149   $ Sizing
 "CHRtFlo_Sys_T_OfficeSm_S" = 1302.605   $ Sizing
 "CHRtFlo_Sys_T_OfficeSm_W" = 1222.187   $ Sizing
 "CHRtFlo_Sys_T_Restrm_C" = 210.4081   $ Sizing
 "CHRtFlo_Sys_T_StorSm_C" = 331.7982   $ Sizing
 "CRtdFlo_Sys_L_Break_C" = 535.1425   $ Sizing
 "CRtdFlo_Sys_L_Conf_C" = 515.3839   $ Sizing
 "CRtdFlo_Sys_L_CopyRm_C" = 165.167   $ Sizing
 "CRtdFlo_Sys_L_Cordr_C" = 622.0267   $ Sizing
 "CRtdFlo_Sys_L_Cordr_E" = 208.7593   $ Sizing
 "CRtdFlo_Sys_L_Cordr_N" = 154.6164   $ Sizing
 "CRtdFlo_Sys_L_Cordr_S" = 203.8811   $ Sizing
 "CRtdFlo_Sys_L_Cordr_W" = 233.6875   $ Sizing
 "CRtdFlo_Sys_L_LobWait_C" = 529.5217   $ Sizing
 "CRtdFlo_Sys_L_MechElec_C" = 110.3868   $ Sizing
 "CRtdFlo_Sys_L_OfficeOpn_C" = 1771.264   $ Sizing
 "CRtdFlo_Sys_L_OfficeOpn_E" = 1492.241   $ Sizing
 "CRtdFlo_Sys_L_OfficeOpn_N" = 1154.289   $ Sizing
 "CRtdFlo_Sys_L_OfficeOpn_S" = 1479.18   $ Sizing
 "CRtdFlo_Sys_L_OfficeOpn_W" = 1701.301   $ Sizing
 "CRtdFlo_Sys_L_OfficeSm_C" = 226.9162   $ Sizing
 "CRtdFlo_Sys_L_OfficeSm_E" = 1058.848   $ Sizing
 "CRtdFlo_Sys_L_OfficeSm_N" = 754.5486   $ Sizing
 "CRtdFlo_Sys_L_OfficeSm_S" = 1048.542   $ Sizing
 "CRtdFlo_Sys_L_OfficeSm_W" = 1177.984   $ Sizing
 "CRtdFlo_Sys_L_Restrm_C" = 87.47324   $ Sizing
 "CRtdFlo_Sys_L_StorSm_C" = 348.7382   $ Sizing
 "CRtdFlo_Sys_M_Break_C" = 4323.064   $ Sizing
 "CRtdFlo_Sys_M_Conf_C" = 4125.316   $ Sizing
 "CRtdFlo_Sys_M_CopyRm_C" = 1280.257   $ Sizing
 "CRtdFlo_Sys_M_Cordr_C" = 6579.518   $ Sizing
 "CRtdFlo_Sys_M_Cordr_E" = 1953.204   $ Sizing
 "CRtdFlo_Sys_M_Cordr_N" = 1384.816   $ Sizing
 "CRtdFlo_Sys_M_Cordr_S" = 1825.948   $ Sizing
 "CRtdFlo_Sys_M_Cordr_W" = 1982.187   $ Sizing
 "CRtdFlo_Sys_M_LobWait_C" = 4399.326   $ Sizing
 "CRtdFlo_Sys_M_MechElec_C" = 1117.65   $ Sizing
 "CRtdFlo_Sys_M_OfficeOpn_C" = 14363.18   $ Sizing
 "CRtdFlo_Sys_M_OfficeOpn_E" = 12965.28   $ Sizing
 "CRtdFlo_Sys_M_OfficeOpn_N" = 9793.24   $ Sizing
 "CRtdFlo_Sys_M_OfficeOpn_S" = 12603.13   $ Sizing
 "CRtdFlo_Sys_M_OfficeOpn_W" = 13990.05   $ Sizing
 "CRtdFlo_Sys_M_OfficeSm_C" = 2134.425   $ Sizing
 "CRtdFlo_Sys_M_OfficeSm_E" = 9082.823   $ Sizing
 "CRtdFlo_Sys_M_OfficeSm_N" = 6363.697   $ Sizing
 "CRtdFlo_Sys_M_OfficeSm_S" = 8861.432   $ Sizing
 "CRtdFlo_Sys_M_OfficeSm_W" = 9605.865   $ Sizing
 "CRtdFlo_Sys_M_Restrm_C" = 753.1359   $ Sizing
 "CRtdFlo_Sys_M_StorSm_C" = 2943.032   $ Sizing
 "CRtdFlo_Sys_T_Break_C" = 533.7919   $ Sizing
 "CRtdFlo_Sys_T_Conf_C" = 510.2693   $ Sizing
 "CRtdFlo_Sys_T_CopyRm_C" = 158.8595   $ Sizing
 "CRtdFlo_Sys_T_Cordr_C" = 764.0399   $ Sizing
 "CRtdFlo_Sys_T_Cordr_E" = 238.4189   $ Sizing
 "CRtdFlo_Sys_T_Cordr_N" = 175.397   $ Sizing
 "CRtdFlo_Sys_T_Cordr_S" = 224.1037   $ Sizing
 "CRtdFlo_Sys_T_Cordr_W" = 249.1726   $ Sizing
 "CRtdFlo_Sys_T_LobWait_C" = 543.3275   $ Sizing
 "CRtdFlo_Sys_T_MechElec_C" = 158.6433   $ Sizing
 "CRtdFlo_Sys_T_OfficeOpn_C" = 1823.315   $ Sizing
 "CRtdFlo_Sys_T_OfficeOpn_E" = 1613.758   $ Sizing
 "CRtdFlo_Sys_T_OfficeOpn_N" = 1246.073   $ Sizing
 "CRtdFlo_Sys_T_OfficeOpn_S" = 1572.876   $ Sizing
 "CRtdFlo_Sys_T_OfficeOpn_W" = 1744.537   $ Sizing
 "CRtdFlo_Sys_T_OfficeSm_C" = 253.9083   $ Sizing
 "CRtdFlo_Sys_T_OfficeSm_E" = 1153.53   $ Sizing
 "CRtdFlo_Sys_T_OfficeSm_N" = 815.6149   $ Sizing
 "CRtdFlo_Sys_T_OfficeSm_S" = 1117.974   $ Sizing
 "CRtdFlo_Sys_T_OfficeSm_W" = 1222.187   $ Sizing
 "CRtdFlo_Sys_T_Restrm_C" = 130.6214   $ Sizing
 "CRtdFlo_Sys_T_StorSm_C" = 268.0281   $ Sizing
 "CSupFlo_Sys_L_Break_C" = 535.1425   $ Sizing
 "CSupFlo_Sys_L_Conf_C" = 515.3839   $ Sizing
 "CSupFlo_Sys_L_CopyRm_C" = 165.167   $ Sizing
 "CSupFlo_Sys_L_Cordr_C" = 622.0267   $ Sizing
 "CSupFlo_Sys_L_Cordr_E" = 208.7593   $ Sizing
 "CSupFlo_Sys_L_Cordr_N" = 154.6164   $ Sizing
 "CSupFlo_Sys_L_Cordr_S" = 203.8811   $ Sizing
 "CSupFlo_Sys_L_Cordr_W" = 233.6875   $ Sizing
 "CSupFlo_Sys_L_LobWait_C" = 529.5217   $ Sizing
 "CSupFlo_Sys_L_MechElec_C" = 110.3868   $ Sizing
 "CSupFlo_Sys_L_OfficeOpn_C" = 1771.264   $ Sizing
 "CSupFlo_Sys_L_OfficeOpn_E" = 1492.241   $ Sizing
 "CSupFlo_Sys_L_OfficeOpn_N" = 1154.289   $ Sizing
 "CSupFlo_Sys_L_OfficeOpn_S" = 1479.18   $ Sizing
 "CSupFlo_Sys_L_OfficeOpn_W" = 1701.301   $ Sizing
 "CSupFlo_Sys_L_OfficeSm_C" = 226.9162   $ Sizing
 "CSupFlo_Sys_L_OfficeSm_E" = 1058.848   $ Sizing
 "CSupFlo_Sys_L_OfficeSm_N" = 754.5486   $ Sizing
 "CSupFlo_Sys_L_OfficeSm_S" = 1048.542   $ Sizing
 "CSupFlo_Sys_L_OfficeSm_W" = 1177.984   $ Sizing
 "CSupFlo_Sys_L_Restrm_C" = 87.47324   $ Sizing
 "CSupFlo_Sys_L_StorSm_C" = 348.7382   $ Sizing
 "CSupFlo_Sys_M_Break_C" = 4323.064   $ Sizing
 "CSupFlo_Sys_M_Conf_C" = 4125.316   $ Sizing
 "CSupFlo_Sys_M_CopyRm_C" = 1280.257   $ Sizing
 "CSupFlo_Sys_M_Cordr_C" = 6579.518   $ Sizing
 "CSupFlo_Sys_M_Cordr_E" = 1953.204   $ Sizing
 "CSupFlo_Sys_M_Cordr_N" = 1384.816   $ Sizing
 "CSupFlo_Sys_M_Cordr_S" = 1825.948   $ Sizing
 "CSupFlo_Sys_M_Cordr_W" = 1982.187   $ Sizing
 "CSupFlo_Sys_M_LobWait_C" = 4399.326   $ Sizing
 "CSupFlo_Sys_M_MechElec_C" = 1117.65   $ Sizing
 "CSupFlo_Sys_M_OfficeOpn_C" = 14363.18   $ Sizing
 "CSupFlo_Sys_M_OfficeOpn_E" = 12965.28   $ Sizing
 "CSupFlo_Sys_M_OfficeOpn_N" = 9793.24   $ Sizing
 "CSupFlo_Sys_M_OfficeOpn_S" = 12603.13   $ Sizing
 "CSupFlo_Sys_M_OfficeOpn_W" = 13990.05   $ Sizing
 "CSupFlo_Sys_M_OfficeSm_C" = 2134.425   $ Sizing
 "CSupFlo_Sys_M_OfficeSm_E" = 9082.823   $ Sizing
 "CSupFlo_Sys_M_OfficeSm_N" = 6363.697   $ Sizing
 "CSupFlo_Sys_M_OfficeSm_S" = 8861.432   $ Sizing
 "CSupFlo_Sys_M_OfficeSm_W" = 9605.865   $ Sizing
 "CSupFlo_Sys_M_Restrm_C" = 753.1359   $ Sizing
 "CSupFlo_Sys_M_StorSm_C" = 2943.032   $ Sizing
 "CSupFlo_Sys_T_Break_C" = 533.7919   $ Sizing
 "CSupFlo_Sys_T_Conf_C" = 510.2693   $ Sizing
 "CSupFlo_Sys_T_CopyRm_C" = 158.8595   $ Sizing
 "CSupFlo_Sys_T_Cordr_C" = 764.0399   $ Sizing
 "CSupFlo_Sys_T_Cordr_E" = 238.4189   $ Sizing
 "CSupFlo_Sys_T_Cordr_N" = 175.397   $ Sizing
 "CSupFlo_Sys_T_Cordr_S" = 224.1037   $ Sizing
 "CSupFlo_Sys_T_Cordr_W" = 249.1726   $ Sizing
 "CSupFlo_Sys_T_LobWait_C" = 543.3275   $ Sizing
 "CSupFlo_Sys_T_MechElec_C" = 158.6433   $ Sizing
 "CSupFlo_Sys_T_OfficeOpn_C" = 1823.315   $ Sizing
 "CSupFlo_Sys_T_OfficeOpn_E" = 1613.758   $ Sizing
 "CSupFlo_Sys_T_OfficeOpn_N" = 1246.073   $ Sizing
 "CSupFlo_Sys_T_OfficeOpn_S" = 1572.876   $ Sizing
 "CSupFlo_Sys_T_OfficeOpn_W" = 1744.537   $ Sizing
 "CSupFlo_Sys_T_OfficeSm_C" = 253.9083   $ Sizing
 "CSupFlo_Sys_T_OfficeSm_E" = 1153.53   $ Sizing
 "CSupFlo_Sys_T_OfficeSm_N" = 815.6149   $ Sizing
 "CSupFlo_Sys_T_OfficeSm_S" = 1117.974   $ Sizing
 "CSupFlo_Sys_T_OfficeSm_W" = 1222.187   $ Sizing
 "CSupFlo_Sys_T_Restrm_C" = 130.6214   $ Sizing
 "CSupFlo_Sys_T_StorSm_C" = 268.0281   $ Sizing
 "ClCap_Sys_L_Break_C" = 18336.33   $ Sizing
 "ClCap_Sys_L_Conf_C" = 22475.49   $ Sizing
 "ClCap_Sys_L_CopyRm_C" = 5659.347   $ Sizing
 "ClCap_Sys_L_Cordr_C" = 21313.36   $ Sizing
 "ClCap_Sys_L_Cordr_E" = 7153.009   $ Sizing
 "ClCap_Sys_L_Cordr_N" = 5297.835   $ Sizing
 "ClCap_Sys_L_Cordr_S" = 6985.862   $ Sizing
 "ClCap_Sys_L_Cordr_W" = 8007.158   $ Sizing
 "ClCap_Sys_L_LobWait_C" = 18143.74   $ Sizing
 "ClCap_Sys_L_MechElec_C" = 3782.335   $ Sizing
 "ClCap_Sys_L_OfficeOpn_C" = 60691.26   $ Sizing
 "ClCap_Sys_L_OfficeOpn_E" = 51130.74   $ Sizing
 "ClCap_Sys_L_OfficeOpn_N" = 39551   $ Sizing
 "ClCap_Sys_L_OfficeOpn_S" = 50683.21   $ Sizing
 "ClCap_Sys_L_OfficeOpn_W" = 58294.02   $ Sizing
 "ClCap_Sys_L_OfficeSm_C" = 7775.145   $ Sizing
 "ClCap_Sys_L_OfficeSm_E" = 36280.79   $ Sizing
 "ClCap_Sys_L_OfficeSm_N" = 25854.15   $ Sizing
 "ClCap_Sys_L_OfficeSm_S" = 35927.66   $ Sizing
 "ClCap_Sys_L_OfficeSm_W" = 40362.91   $ Sizing
 "ClCap_Sys_L_Restrm_C" = 2997.217   $ Sizing
 "ClCap_Sys_L_StorSm_C" = 11949.3   $ Sizing
 "ClCap_Sys_M_Break_C" = 148127.1   $ Sizing
 "ClCap_Sys_M_Conf_C" = 179901.8   $ Sizing
 "ClCap_Sys_M_CopyRm_C" = 43867.23   $ Sizing
 "ClCap_Sys_M_Cordr_C" = 225443.2   $ Sizing
 "ClCap_Sys_M_Cordr_E" = 66925.35   $ Sizing
 "ClCap_Sys_M_Cordr_N" = 47449.86   $ Sizing
 "ClCap_Sys_M_Cordr_S" = 62565   $ Sizing
 "ClCap_Sys_M_Cordr_W" = 67918.43   $ Sizing
 "ClCap_Sys_M_LobWait_C" = 150740.2   $ Sizing
 "ClCap_Sys_M_MechElec_C" = 38295.59   $ Sizing
 "ClCap_Sys_M_OfficeOpn_C" = 492145.5   $ Sizing
 "ClCap_Sys_M_OfficeOpn_E" = 444247.2   $ Sizing
 "ClCap_Sys_M_OfficeOpn_N" = 335559.4   $ Sizing
 "ClCap_Sys_M_OfficeOpn_S" = 431838.5   $ Sizing
 "ClCap_Sys_M_OfficeOpn_W" = 479360.7   $ Sizing
 "ClCap_Sys_M_OfficeSm_C" = 73134.77   $ Sizing
 "ClCap_Sys_M_OfficeSm_E" = 311217.4   $ Sizing
 "ClCap_Sys_M_OfficeSm_N" = 218048.2   $ Sizing
 "ClCap_Sys_M_OfficeSm_S" = 303631.5   $ Sizing
 "ClCap_Sys_M_OfficeSm_W" = 329139.1   $ Sizing
 "ClCap_Sys_M_Restrm_C" = 25805.74   $ Sizing
 "ClCap_Sys_M_StorSm_C" = 100841.2   $ Sizing
 "ClCap_Sys_T_Break_C" = 18290.05   $ Sizing
 "ClCap_Sys_T_Conf_C" = 22252.45   $ Sizing
 "ClCap_Sys_T_CopyRm_C" = 5443.224   $ Sizing
 "ClCap_Sys_T_Cordr_C" = 26179.36   $ Sizing
 "ClCap_Sys_T_Cordr_E" = 8169.278   $ Sizing
 "ClCap_Sys_T_Cordr_N" = 6009.87   $ Sizing
 "ClCap_Sys_T_Cordr_S" = 7678.777   $ Sizing
 "ClCap_Sys_T_Cordr_W" = 8537.747   $ Sizing
 "ClCap_Sys_T_LobWait_C" = 18616.79   $ Sizing
 "ClCap_Sys_T_MechElec_C" = 5435.815   $ Sizing
 "ClCap_Sys_T_OfficeOpn_C" = 62474.77   $ Sizing
 "ClCap_Sys_T_OfficeOpn_E" = 55294.42   $ Sizing
 "ClCap_Sys_T_OfficeOpn_N" = 42695.93   $ Sizing
 "ClCap_Sys_T_OfficeOpn_S" = 53893.63   $ Sizing
 "ClCap_Sys_T_OfficeOpn_W" = 59775.5   $ Sizing
 "ClCap_Sys_T_OfficeSm_C" = 8700.014   $ Sizing
 "ClCap_Sys_T_OfficeSm_E" = 39524.99   $ Sizing
 "ClCap_Sys_T_OfficeSm_N" = 27946.55   $ Sizing
 "ClCap_Sys_T_OfficeSm_S" = 38306.71   $ Sizing
 "ClCap_Sys_T_OfficeSm_W" = 41877.5   $ Sizing
 "ClCap_Sys_T_Restrm_C" = 4475.661   $ Sizing
 "ClCap_Sys_T_StorSm_C" = 9183.818   $ Sizing
 "HtCap_Sys_L_Break_C" = -30806.37   $ Sizing
 "HtCap_Sys_L_Conf_C" = -30906.85   $ Sizing
 "HtCap_Sys_L_CopyRm_C" = -10986.2   $ Sizing
 "HtCap_Sys_L_Cordr_C" = -29291.31   $ Sizing
 "HtCap_Sys_L_Cordr_E" = -8817.557   $ Sizing
 "HtCap_Sys_L_Cordr_N" = -6501.806   $ Sizing
 "HtCap_Sys_L_Cordr_S" = -8525.121   $ Sizing
 "HtCap_Sys_L_Cordr_W" = -8549.526   $ Sizing
 "HtCap_Sys_L_LobWait_C" = -29532.19   $ Sizing
 "HtCap_Sys_L_MechElec_C" = -6451.312   $ Sizing
 "HtCap_Sys_L_OfficeOpn_C" = -86800.55   $ Sizing
 "HtCap_Sys_L_OfficeOpn_E" = -60463.7   $ Sizing
 "HtCap_Sys_L_OfficeOpn_N" = -43697   $ Sizing
 "HtCap_Sys_L_OfficeOpn_S" = -59358.08   $ Sizing
 "HtCap_Sys_L_OfficeOpn_W" = -58925.42   $ Sizing
 "HtCap_Sys_L_OfficeSm_C" = -10176.25   $ Sizing
 "HtCap_Sys_L_OfficeSm_E" = -43280.65   $ Sizing
 "HtCap_Sys_L_OfficeSm_N" = -28430.89   $ Sizing
 "HtCap_Sys_L_OfficeSm_S" = -42667.4   $ Sizing
 "HtCap_Sys_L_OfficeSm_W" = -41841.59   $ Sizing
 "HtCap_Sys_L_Restrm_C" = -7704.885   $ Sizing
 "HtCap_Sys_L_StorSm_C" = -18679.51   $ Sizing
 "HtCap_Sys_M_Break_C" = -235496.6   $ Sizing
 "HtCap_Sys_M_Conf_C" = -237131.3   $ Sizing
 "HtCap_Sys_M_CopyRm_C" = -74725.33   $ Sizing
 "HtCap_Sys_M_Cordr_C" = -311155.9   $ Sizing
 "HtCap_Sys_M_Cordr_E" = -80904.76   $ Sizing
 "HtCap_Sys_M_Cordr_N" = -56089.81   $ Sizing
 "HtCap_Sys_M_Cordr_S" = -75917.57   $ Sizing
 "HtCap_Sys_M_Cordr_W" = -71318.34   $ Sizing
 "HtCap_Sys_M_LobWait_C" = -221685.3   $ Sizing
 "HtCap_Sys_M_MechElec_C" = -61034.97   $ Sizing
 "HtCap_Sys_M_OfficeOpn_C" = -822954.7   $ Sizing
 "HtCap_Sys_M_OfficeOpn_E" = -520912.9   $ Sizing
 "HtCap_Sys_M_OfficeOpn_N" = -362735.8   $ Sizing
 "HtCap_Sys_M_OfficeOpn_S" = -505349.8   $ Sizing
 "HtCap_Sys_M_OfficeOpn_W" = -484208   $ Sizing
 "HtCap_Sys_M_OfficeSm_C" = -96591.48   $ Sizing
 "HtCap_Sys_M_OfficeSm_E" = -368728.7   $ Sizing
 "HtCap_Sys_M_OfficeSm_N" = -235222.9   $ Sizing
 "HtCap_Sys_M_OfficeSm_S" = -361001.8   $ Sizing
 "HtCap_Sys_M_OfficeSm_W" = -344416.3   $ Sizing
 "HtCap_Sys_M_Restrm_C" = -66659.5   $ Sizing
 "HtCap_Sys_M_StorSm_C" = -152306.8   $ Sizing
 "HtCap_Sys_T_Break_C" = -31592.56   $ Sizing
 "HtCap_Sys_T_Conf_C" = -30625.71   $ Sizing
 "HtCap_Sys_T_CopyRm_C" = -10311.07   $ Sizing
 "HtCap_Sys_T_Cordr_C" = -38287.26   $ Sizing
 "HtCap_Sys_T_Cordr_E" = -10351.35   $ Sizing
 "HtCap_Sys_T_Cordr_N" = -7913.96   $ Sizing
 "HtCap_Sys_T_Cordr_S" = -9603.107   $ Sizing
 "HtCap_Sys_T_Cordr_W" = -10272.67   $ Sizing
 "HtCap_Sys_T_LobWait_C" = -29547.42   $ Sizing
 "HtCap_Sys_T_MechElec_C" = -8343.735   $ Sizing
 "HtCap_Sys_T_OfficeOpn_C" = -89307.63   $ Sizing
 "HtCap_Sys_T_OfficeOpn_E" = -67466.52   $ Sizing
 "HtCap_Sys_T_OfficeOpn_N" = -52795.48   $ Sizing
 "HtCap_Sys_T_OfficeOpn_S" = -67647.78   $ Sizing
 "HtCap_Sys_T_OfficeOpn_W" = -67078.35   $ Sizing
 "HtCap_Sys_T_OfficeSm_C" = -12232.7   $ Sizing
 "HtCap_Sys_T_OfficeSm_E" = -49261.85   $ Sizing
 "HtCap_Sys_T_OfficeSm_N" = -34198.84   $ Sizing
 "HtCap_Sys_T_OfficeSm_S" = -49364.54   $ Sizing
 "HtCap_Sys_T_OfficeSm_W" = -46947.96   $ Sizing
 "HtCap_Sys_T_Restrm_C" = -8637.589   $ Sizing
 "HtCap_Sys_T_StorSm_C" = -17141.99   $ Sizing
..

##include Templates\OfL_DX_SZ.inp
END ..
COMPUTE ..
STOP ..
