INPUT ..

##fileprefix C:\Users\jglasskatz\MASControl3\
##set1 IsSizing FALSE
##set1 CoolType DX
##set1 HeatType FURNACE
##set1 EU_HrRepVar 0
##set1 BldgVint 1996
##set1 BldgLoc CZ07

 ##set1 mBFMult 1   $ IP Tech: RefgChg-NRes-Std

PARAMETER
 "AltFactor" = 1.00051   $ IP Non-Tech
 "BF_fFlow" = SpltAC2SpHiSEER_BF_fFlow   $ Msr (Multi)TechID: MsrNResSplitAC-lt45-S17
 "BF_fT" = SpltAC2SpHiSEER_BF_fT   $ Msr (Multi)TechID: MsrNResSplitAC-lt45-S17
 "BldgEconoFlag" = 1   $ IP Non-Tech
 "Break_EWSF" = 1   $ IP Non-Tech
 "Break_LWSF" = 1.1   $ IP Non-Tech
 "CDD_DBHi10" = 80   $ IP Non-Tech
 "CDD_DBHi7" = 75   $ IP Non-Tech
 "CDD_DBHi8" = 75   $ IP Non-Tech
 "CDD_DBHi9" = 80   $ IP Non-Tech
 "CDD_DBRange10" = 20   $ IP Non-Tech
 "CDD_DBRange7" = 8   $ IP Non-Tech
 "CDD_DBRange8" = 6   $ IP Non-Tech
 "CDD_DBRange9" = 12   $ IP Non-Tech
 "CDD_Day10" = 15   $ IP Non-Tech
 "CDD_Day7" = 16   $ IP Non-Tech
 "CDD_Day8" = 20   $ IP Non-Tech
 "CDD_Day9" = 17   $ IP Non-Tech
 "CDD_HrHi10" = 11   $ IP Non-Tech
 "CDD_HrHi7" = 14   $ IP Non-Tech
 "CDD_HrHi8" = 11   $ IP Non-Tech
 "CDD_HrHi9" = 11   $ IP Non-Tech
 "CDD_HrLo10" = 4   $ IP Non-Tech
 "CDD_HrLo7" = 6   $ IP Non-Tech
 "CDD_HrLo8" = 1   $ IP Non-Tech
 "CDD_HrLo9" = 5   $ IP Non-Tech
 "CDD_WB10" = 64.57550049   $ IP Non-Tech
 "CDD_WB7" = 66.79747772   $ IP Non-Tech
 "CDD_WB8" = 69.55462646   $ IP Non-Tech
 "CDD_WB9" = 68.8309021   $ IP Non-Tech
 "CEIR_fPLR_Hot" = SpltAC2SpHiSEER_CEIR_fPLR_Hot   $ Msr (Multi)TechID: MsrNResSplitAC-lt45-S17
 "CEIR_fPLR_Mod" = SpltAC2SpHiSEER_CEIR_fPLR_Mod   $ Msr (Multi)TechID: MsrNResSplitAC-lt45-S17
 "CEIR_fPLR_Tem" = SpltAC2SpHiSEER_CEIR_fPLR_Tem   $ Msr (Multi)TechID: MsrNResSplitAC-lt45-S17
 "CLoss_fPLR_Hot" = SpltAC2SpHiSEER_CLoss_fPLR_Hot   $ Msr (Multi)TechID: MsrNResSplitAC-lt45-S17
 "CLoss_fPLR_Mod" = SpltAC2SpHiSEER_CLoss_fPLR_Mod   $ Msr (Multi)TechID: MsrNResSplitAC-lt45-S17
 "CLoss_fPLR_Tem" = SpltAC2SpHiSEER_CLoss_fPLR_Tem   $ Msr (Multi)TechID: MsrNResSplitAC-lt45-S17
 "COP47" = 0   $ Msr (Multi)TechID: MsrNResSplitAC-lt45-S17
 "CZ_Category" = Tem   $ IP Non-Tech
 "CapRange" = Any   $ Msr (Multi)TechID: MsrNResSplitAC-lt45-S17
 "CfmPerBtuh" = 0.03   $ Msr (Multi)TechID: MsrNResSplitAC-lt45-S17
 "ChwVintEconoFlag" = 1   $ IP Non-Tech
 "ClCap_fT" = SpltAC2SpHiSEER_ClCap_fT   $ Msr (Multi)TechID: MsrNResSplitAC-lt45-S17
 "ClSH_fT" = SpltAC2SpHiSEER_ClSH_fT   $ Msr (Multi)TechID: MsrNResSplitAC-lt45-S17
 "CoilBF" = 0.102   $ Msr (Multi)TechID: MsrNResSplitAC-lt45-S17
 "CondWPerBtuh" = 0   $ Msr (Multi)TechID: MsrNResSplitAC-lt45-S17
 "Conference_EWSF" = 1.05   $ IP Non-Tech
 "Conference_LWSF" = 1.4   $ IP Non-Tech
 "CoolSensCap" = 0.724   $ Msr (Multi)TechID: MsrNResSplitAC-lt45-S17
 "CoolSetT" = 45   $ IP Non-Tech
 "CoolType" = DX   $ IP Non-Tech
 "CoolingEIR" = 0.2225   $ Msr (Multi)TechID: MsrNResSplitAC-lt45-S17
 "CopyRoom_EWSF" = 1.575   $ IP Non-Tech
 "CopyRoom_LWSF" = 1.3   $ IP Non-Tech
 "CorridorStairway_EWSF" = 0.21   $ IP Non-Tech
 "CorridorStairway_LWSF" = 0.6   $ IP Non-Tech
 "CrnkEIR" = 0.002225   $ Msr (Multi)TechID: MsrNResSplitAC-lt45-S17
 "CrnkMaxT" = 50   $ Msr (Multi)TechID: MsrNResSplitAC-lt45-S17
 "DXType" = SplitSEER   $ Msr (Multi)TechID: MsrNResSplitAC-lt45-S17
 "DesCoolT" = 75   $ IP Non-Tech
 "DesHeatT" = 73   $ IP Non-Tech
 "EER" = 13.26   $ Msr (Multi)TechID: MsrNResSplitAC-lt45-S17
 "EIR_fT" = SpltAC2SpHiSEER_EIR_fT   $ Msr (Multi)TechID: MsrNResSplitAC-lt45-S17
 "EconoCtrl" = FIXED   $ Msr (Multi)TechID: MsrNResSplitAC-lt45-S17
 "EconoEnthLimit" = 28   $ IP Non-Tech
 "EconoTempLimit" = 69   $ IP Non-Tech
 "Elevation" = 13   $ IP Non-Tech
 "FanEirPlr" = TwoSpeedFan   $ Msr (Multi)TechID: MsrNResSplitAC-lt45-S17
 "FanWPerCfm" = 0.271   $ Msr (Multi)TechID: MsrNResSplitAC-lt45-S17
 "HDD_CloudAmt1" = 0   $ IP Non-Tech
 "HDD_DBHi1" = 57   $ IP Non-Tech
 "HDD_DBRange1" = 13   $ IP Non-Tech
 "HDD_Day1" = 15   $ IP Non-Tech
 "HDD_HrHi1" = 13   $ IP Non-Tech
 "HDD_HrLo1" = 5   $ IP Non-Tech
 "HDD_WB1" = 43.6   $ IP Non-Tech
 "HDD_WindSpd1" = 11.5   $ IP Non-Tech
 "HIR_fT" = 0   $ Msr (Multi)TechID: MsrNResSplitAC-lt45-S17
 "HSPF" = 0   $ Msr (Multi)TechID: MsrNResSplitAC-lt45-S17
 "HeatSrc" = FURNACE   $ IP Non-Tech
 "HeatSrcTU" = HEAT-PUMP   $ IP Non-Tech
 "HeatType" = GasFurn   $ IP Non-Tech
 "HeatTypeTU" = HEAT-PUMP   $ IP Non-Tech
 "HtCap_fT" = 0   $ Msr (Multi)TechID: MsrNResSplitAC-lt45-S17
 "HtCoolCapRatio" = 0   $ Msr (Multi)TechID: MsrNResSplitAC-lt45-S17
 "HtgEIR" = 0   $ Msr (Multi)TechID: MsrNResSplitAC-lt45-S17
 "IndoorFanMode" = CONTINUOUS   $ IP Non-Tech
 "KT_TransferAir" = No   $ IP Non-Tech
 "Latitude" = 32.7   $ IP Non-Tech
 "LobbyWaiting_EWSF" = 0.5125   $ IP Non-Tech
 "LobbyWaiting_LWSF" = 1.3   $ IP Non-Tech
 "Longitude" = 117.2   $ IP Non-Tech
 "LowSpdCapRatio" = 0.686   $ Msr (Multi)TechID: MsrNResSplitAC-lt45-S17
 "LowSpdCfmRatio" = 0.739   $ Msr (Multi)TechID: MsrNResSplitAC-lt45-S17
 "MZFanMechEff" = 0.58   $ IP Non-Tech
 "MZHasRetFan" = FALSE   $ IP Non-Tech
 "MZ_RFanWPerCfm" = 0.37   $ IP Non-Tech
 "MZ_SFanWPerCfm" = 0.71   $ IP Non-Tech
 "MZ_SupFanStatic" = 2.25   $ IP Non-Tech
 "MaxOAFrac" = 1   $ Msr (Multi)TechID: MsrNResSplitAC-lt45-S17
 "MaxSupT_MZ" = 100   $ IP Non-Tech
 "MaxSupT_SZ" = 100   $ IP Non-Tech
 "MaxSupT_TU" = 90   $ IP Non-Tech
 "MechElecRoom_EWSF" = 0.21   $ IP Non-Tech
 "MechElecRoom_LWSF" = 0.7   $ IP Non-Tech
 "MinCfmPerSF" = 0.4   $ IP Non-Tech
 "MinSupT" = 55   $ IP Non-Tech
 "NumStages" = 2   $ Msr (Multi)TechID: MsrNResSplitAC-lt45-S17
 "OccCoolT" = 76   $ IP Non-Tech
 "OccHeatT" = 72   $ IP Non-Tech
 "OfficeOpen_EWSF" = 1.575   $ IP Non-Tech
 "OfficeOpen_LWSF" = 1.2   $ IP Non-Tech
 "OfficeSmall_EWSF" = 1.575   $ IP Non-Tech
 "OfficeSmall_LWSF" = 1.3   $ IP Non-Tech
 "PkgDxVintEconoFlag" = 0   $ IP Non-Tech
 "Restroom_EWSF" = 0.21   $ IP Non-Tech
 "Restroom_LWSF" = 0.6   $ IP Non-Tech
 "SEER" = 17   $ Msr (Multi)TechID: MsrNResSplitAC-lt45-S17
 "SZFanMechEff" = 0.58   $ IP Non-Tech
 "SZHasRetFan" = FALSE   $ IP Non-Tech
 "SZ_Is_2Spd" = FALSE   $ IP Non-Tech
 "SZ_SFanWPerCfm" = 0.46   $ IP Non-Tech
 "SZ_SupFanStatic" = 0.75   $ IP Non-Tech
 "Sector" = Any   $ Msr (Multi)TechID: MsrNResSplitAC-lt45-S17
 "StorageSmlCond_EWSF" = 0.21   $ IP Non-Tech
 "StorageSmlCond_LWSF" = 0.6   $ IP Non-Tech
 "SubType" = AC   $ Msr (Multi)TechID: MsrNResSplitAC-lt45-S17
 "T24GlzTbl" = CZTbl   $ IP Non-Tech
 "TermUnitFanMechEff" = 1   $ IP Non-Tech
 "TermUnitFanMode" = INTERMITTENT   $ IP Non-Tech
 "TotCoolCap" = 58805   $ Msr (Multi)TechID: MsrNResSplitAC-lt45-S17
 "TwrSetpt" = 80   $ IP Non-Tech
 "UnocCoolT" = 86   $ IP Non-Tech
 "UnocHeatT" = 62   $ IP Non-Tech
 "UseEconoVintApplic" = FALSE   $ Msr (Multi)TechID: MsrNResSplitAC-lt45-S17
 "WlhpVintEconoFlag" = 0   $ IP Non-Tech
 "DuctDT" = 1   $ IP Tech: ComDuctInsul-1
 "DuctAirLoss" = 0   $ IP Tech: ComDuctLeak-0
 "DuctLossOAFrac" = 0   $ IP Tech: ComDuctLeak-0
 "ComRoofInsCalc" = FromUo   $ IP Tech: ComRoofIns-Hvy-0.08
 "ComRoofInsR" = -999   $ IP Tech: ComRoofIns-Hvy-0.08
 "ComRoofUo" = 0.08   $ IP Tech: ComRoofIns-Hvy-0.08
 "ComEWInsCalc" = FromUo   $ IP Tech: ComWallIns-MFrm-0.14
 "ComEWInsR" = -999   $ IP Tech: ComWallIns-MFrm-0.14
 "ComEWUo" = 0.14   $ IP Tech: ComWallIns-MFrm-0.14
 "ComN_SHGC" = 0.82   $ IP Tech: NResWin-ComN-1.23-0.82
 "ComN_UFactor" = 1.23   $ IP Tech: NResWin-ComN-1.23-0.82
 "ComN_VisTrans" = 0.9   $ IP Tech: NResWin-ComN-1.23-0.82
 "ComN_WinCode" = G1000   $ IP Tech: NResWin-ComN-1.23-0.82
 "ComN_WinFrmFrac" = 0.17   $ IP Tech: NResWin-ComN-1.23-0.82
 "ComN_WinFrmU" = 1   $ IP Tech: NResWin-ComN-1.23-0.82
 "ComO_SHGC" = 0.62   $ IP Tech: NResWin-ComO-1.23-0.62
 "ComO_UFactor" = 1.23   $ IP Tech: NResWin-ComO-1.23-0.62
 "ComO_VisTrans" = 0.69   $ IP Tech: NResWin-ComO-1.23-0.62
 "ComO_WinCode" = G1200   $ IP Tech: NResWin-ComO-1.23-0.62
 "ComO_WinFrmFrac" = 0.17   $ IP Tech: NResWin-ComO-1.23-0.62
 "ComO_WinFrmU" = 1   $ IP Tech: NResWin-ComO-1.23-0.62
 "LtgMsrApplic" = ALL   $ IP Tech: NonResLtgRefPre
 "LtgSav_CFL" = 0   $ IP Tech: NonResLtgRefPre
 "LtgSav_EX" = 0   $ IP Tech: NonResLtgRefPre
 "LtgSav_HB" = 0   $ IP Tech: NonResLtgRefPre
 "LtgSav_LF" = 0   $ IP Tech: NonResLtgRefPre
 "LtgSav_SP" = 0   $ IP Tech: NonResLtgRefPre
 "CEIR_fPLR" = PSZ65to135_CEIR_fPLR   $ IP Tech: PkgAC1SpH-65to135-E10
 "CLoss_fPLR" = PSZ65to135_CLoss_fPLR   $ IP Tech: PkgAC1SpH-65to135-E10
 "COP" = -1   $ IP Tech: PkgAC1SpH-65to135-E10
 "HtgFuel" = Gas   $ IP Tech: PkgAC1SpH-65to135-E10
 "IEER" = 11.87   $ IP Tech: PkgAC1SpH-65to135-E10
 "NominalCap" = 15   $ IP Tech: PkgAC1SpH-65to135-E10
 "RatedEER" = 10   $ IP Tech: PkgAC1SpH-65to135-E10
 "RatedSupMtrClass" = HiEff   $ IP Tech: PkgAC1SpH-65to135-E10
 "SizeRange" = 65to135   $ IP Tech: PkgAC1SpH-65to135-E10
 "SupMotEff" = 0.84   $ IP Tech: PkgAC1SpH-65to135-E10
 "Tier" = 0   $ IP Tech: PkgAC1SpH-65to135-E10
 "FanPwrMult" = 1   $ IP Tech: PkgFurn-0.80AFUE
 "FurnAFUE" = 0.8   $ IP Tech: PkgFurn-0.80AFUE
 "FurnEt" = 0.82   $ IP Tech: PkgFurn-0.80AFUE
 "FurnaceAuxKW" = 0.1   $ IP Tech: PkgFurn-0.80AFUE
 "HIR_fPLR" = Furnace-HIR-fPLR   $ IP Tech: PkgFurn-0.80AFUE
 "VSM" = FALSE   $ IP Tech: PkgFurn-0.80AFUE
 "BFMult" = 1   $ IP Tech: RefgChg-NRes-Std
 "CoolEirMult" = 1   $ IP Tech: RefgChg-NRes-Std
 "SensCoolCapMult" = 1   $ IP Tech: RefgChg-NRes-Std
 "TotCoolCapMult" = 1   $ IP Tech: RefgChg-NRes-Std
 "AltAdjFactor" = 1.000512   $ Sizing
 "CAssFlo_L_Break_CZn" = 371.7668   $ Sizing
 "CAssFlo_L_Conf_CZn" = 447.8282   $ Sizing
 "CAssFlo_L_CopyRm_CZn" = 118.5684   $ Sizing
 "CAssFlo_L_Cordr_CZn" = 586.475   $ Sizing
 "CAssFlo_L_Cordr_EZn" = 312.2803   $ Sizing
 "CAssFlo_L_Cordr_NZn" = 110.363   $ Sizing
 "CAssFlo_L_Cordr_SZn" = 324.4342   $ Sizing
 "CAssFlo_L_Cordr_WZn" = 307.0276   $ Sizing
 "CAssFlo_L_LobWait_CZn" = 393.4341   $ Sizing
 "CAssFlo_L_MechElec_CZn" = 133.2348   $ Sizing
 "CAssFlo_L_OfficeOpn_CZn" = 1764.052   $ Sizing
 "CAssFlo_L_OfficeOpn_EZn" = 2361.507   $ Sizing
 "CAssFlo_L_OfficeOpn_NZn" = 1017.757   $ Sizing
 "CAssFlo_L_OfficeOpn_SZn" = 2360.146   $ Sizing
 "CAssFlo_L_OfficeOpn_WZn" = 2394.448   $ Sizing
 "CAssFlo_L_OfficeSm_CZn" = 237.3587   $ Sizing
 "CAssFlo_L_OfficeSm_EZn" = 1743.202   $ Sizing
 "CAssFlo_L_OfficeSm_NZn" = 655.4263   $ Sizing
 "CAssFlo_L_OfficeSm_SZn" = 1771.204   $ Sizing
 "CAssFlo_L_OfficeSm_WZn" = 1764.353   $ Sizing
 "CAssFlo_L_Restrm_CZn" = 210.3849   $ Sizing
 "CAssFlo_L_StorSm_CZn" = 395.2021   $ Sizing
 "CAssFlo_M_Break_CZn" = 408.8249   $ Sizing
 "CAssFlo_M_Conf_CZn" = 505.862   $ Sizing
 "CAssFlo_M_CopyRm_CZn" = 149.4252   $ Sizing
 "CAssFlo_M_Cordr_CZn" = 938.4329   $ Sizing
 "CAssFlo_M_Cordr_EZn" = 360.1187   $ Sizing
 "CAssFlo_M_Cordr_NZn" = 155.367   $ Sizing
 "CAssFlo_M_Cordr_SZn" = 370.0215   $ Sizing
 "CAssFlo_M_Cordr_WZn" = 338.7543   $ Sizing
 "CAssFlo_M_LobWait_CZn" = 519.2693   $ Sizing
 "CAssFlo_M_MechElec_CZn" = 173.1459   $ Sizing
 "CAssFlo_M_OfficeOpn_CZn" = 2117.258   $ Sizing
 "CAssFlo_M_OfficeOpn_EZn" = 2534.256   $ Sizing
 "CAssFlo_M_OfficeOpn_NZn" = 1149.977   $ Sizing
 "CAssFlo_M_OfficeOpn_SZn" = 2564.377   $ Sizing
 "CAssFlo_M_OfficeOpn_WZn" = 2506.069   $ Sizing
 "CAssFlo_M_OfficeSm_CZn" = 298.8325   $ Sizing
 "CAssFlo_M_OfficeSm_EZn" = 1842.026   $ Sizing
 "CAssFlo_M_OfficeSm_NZn" = 727.4475   $ Sizing
 "CAssFlo_M_OfficeSm_SZn" = 1904.874   $ Sizing
 "CAssFlo_M_OfficeSm_WZn" = 1835.275   $ Sizing
 "CAssFlo_M_Restrm_CZn" = 210.3849   $ Sizing
 "CAssFlo_M_StorSm_CZn" = 430.1826   $ Sizing
 "CAssFlo_T_Break_CZn" = 386.5091   $ Sizing
 "CAssFlo_T_Conf_CZn" = 466.9915   $ Sizing
 "CAssFlo_T_CopyRm_CZn" = 128.7129   $ Sizing
 "CAssFlo_T_Cordr_CZn" = 798.2768   $ Sizing
 "CAssFlo_T_Cordr_EZn" = 316.7139   $ Sizing
 "CAssFlo_T_Cordr_NZn" = 133.8407   $ Sizing
 "CAssFlo_T_Cordr_SZn" = 333.7977   $ Sizing
 "CAssFlo_T_Cordr_WZn" = 302.428   $ Sizing
 "CAssFlo_T_LobWait_CZn" = 462.7703   $ Sizing
 "CAssFlo_T_MechElec_CZn" = 205.8142   $ Sizing
 "CAssFlo_T_OfficeOpn_CZn" = 1869.959   $ Sizing
 "CAssFlo_T_OfficeOpn_EZn" = 2275.951   $ Sizing
 "CAssFlo_T_OfficeOpn_NZn" = 1047.164   $ Sizing
 "CAssFlo_T_OfficeOpn_SZn" = 2378.282   $ Sizing
 "CAssFlo_T_OfficeOpn_WZn" = 2286.823   $ Sizing
 "CAssFlo_T_OfficeSm_CZn" = 280.9963   $ Sizing
 "CAssFlo_T_OfficeSm_EZn" = 1712.979   $ Sizing
 "CAssFlo_T_OfficeSm_NZn" = 689.3369   $ Sizing
 "CAssFlo_T_OfficeSm_SZn" = 1810.186   $ Sizing
 "CAssFlo_T_OfficeSm_WZn" = 1720.602   $ Sizing
 "CAssFlo_T_Restrm_CZn" = 210.3849   $ Sizing
 "CAssFlo_T_StorSm_CZn" = 331.7615   $ Sizing
 "CHRtFlo_Sys_L_Break_C" = 371.7668   $ Sizing
 "CHRtFlo_Sys_L_Conf_C" = 447.8282   $ Sizing
 "CHRtFlo_Sys_L_CopyRm_C" = 118.5684   $ Sizing
 "CHRtFlo_Sys_L_Cordr_C" = 586.475   $ Sizing
 "CHRtFlo_Sys_L_Cordr_E" = 312.2803   $ Sizing
 "CHRtFlo_Sys_L_Cordr_N" = 110.363   $ Sizing
 "CHRtFlo_Sys_L_Cordr_S" = 324.4342   $ Sizing
 "CHRtFlo_Sys_L_Cordr_W" = 307.0276   $ Sizing
 "CHRtFlo_Sys_L_LobWait_C" = 393.4341   $ Sizing
 "CHRtFlo_Sys_L_MechElec_C" = 133.2348   $ Sizing
 "CHRtFlo_Sys_L_OfficeOpn_C" = 1764.052   $ Sizing
 "CHRtFlo_Sys_L_OfficeOpn_E" = 2361.507   $ Sizing
 "CHRtFlo_Sys_L_OfficeOpn_N" = 1017.757   $ Sizing
 "CHRtFlo_Sys_L_OfficeOpn_S" = 2360.146   $ Sizing
 "CHRtFlo_Sys_L_OfficeOpn_W" = 2394.448   $ Sizing
 "CHRtFlo_Sys_L_OfficeSm_C" = 237.3587   $ Sizing
 "CHRtFlo_Sys_L_OfficeSm_E" = 1743.202   $ Sizing
 "CHRtFlo_Sys_L_OfficeSm_N" = 655.4263   $ Sizing
 "CHRtFlo_Sys_L_OfficeSm_S" = 1771.204   $ Sizing
 "CHRtFlo_Sys_L_OfficeSm_W" = 1764.353   $ Sizing
 "CHRtFlo_Sys_L_Restrm_C" = 210.3849   $ Sizing
 "CHRtFlo_Sys_L_StorSm_C" = 395.2021   $ Sizing
 "CHRtFlo_Sys_M_Break_C" = 3270.599   $ Sizing
 "CHRtFlo_Sys_M_Conf_C" = 4046.896   $ Sizing
 "CHRtFlo_Sys_M_CopyRm_C" = 1195.402   $ Sizing
 "CHRtFlo_Sys_M_Cordr_C" = 7507.463   $ Sizing
 "CHRtFlo_Sys_M_Cordr_E" = 2880.949   $ Sizing
 "CHRtFlo_Sys_M_Cordr_N" = 1242.936   $ Sizing
 "CHRtFlo_Sys_M_Cordr_S" = 2960.172   $ Sizing
 "CHRtFlo_Sys_M_Cordr_W" = 2710.034   $ Sizing
 "CHRtFlo_Sys_M_LobWait_C" = 4154.155   $ Sizing
 "CHRtFlo_Sys_M_MechElec_C" = 1385.167   $ Sizing
 "CHRtFlo_Sys_M_OfficeOpn_C" = 16938.06   $ Sizing
 "CHRtFlo_Sys_M_OfficeOpn_E" = 20274.04   $ Sizing
 "CHRtFlo_Sys_M_OfficeOpn_N" = 9199.816   $ Sizing
 "CHRtFlo_Sys_M_OfficeOpn_S" = 20515.02   $ Sizing
 "CHRtFlo_Sys_M_OfficeOpn_W" = 20048.55   $ Sizing
 "CHRtFlo_Sys_M_OfficeSm_C" = 2390.66   $ Sizing
 "CHRtFlo_Sys_M_OfficeSm_E" = 14736.21   $ Sizing
 "CHRtFlo_Sys_M_OfficeSm_N" = 5819.58   $ Sizing
 "CHRtFlo_Sys_M_OfficeSm_S" = 15239   $ Sizing
 "CHRtFlo_Sys_M_OfficeSm_W" = 14682.2   $ Sizing
 "CHRtFlo_Sys_M_Restrm_C" = 1683.079   $ Sizing
 "CHRtFlo_Sys_M_StorSm_C" = 3441.461   $ Sizing
 "CHRtFlo_Sys_T_Break_C" = 386.5091   $ Sizing
 "CHRtFlo_Sys_T_Conf_C" = 466.9915   $ Sizing
 "CHRtFlo_Sys_T_CopyRm_C" = 128.7129   $ Sizing
 "CHRtFlo_Sys_T_Cordr_C" = 798.2768   $ Sizing
 "CHRtFlo_Sys_T_Cordr_E" = 316.7139   $ Sizing
 "CHRtFlo_Sys_T_Cordr_N" = 133.8407   $ Sizing
 "CHRtFlo_Sys_T_Cordr_S" = 333.7977   $ Sizing
 "CHRtFlo_Sys_T_Cordr_W" = 302.428   $ Sizing
 "CHRtFlo_Sys_T_LobWait_C" = 462.7703   $ Sizing
 "CHRtFlo_Sys_T_MechElec_C" = 205.8142   $ Sizing
 "CHRtFlo_Sys_T_OfficeOpn_C" = 1869.959   $ Sizing
 "CHRtFlo_Sys_T_OfficeOpn_E" = 2275.951   $ Sizing
 "CHRtFlo_Sys_T_OfficeOpn_N" = 1047.164   $ Sizing
 "CHRtFlo_Sys_T_OfficeOpn_S" = 2378.282   $ Sizing
 "CHRtFlo_Sys_T_OfficeOpn_W" = 2286.823   $ Sizing
 "CHRtFlo_Sys_T_OfficeSm_C" = 280.9963   $ Sizing
 "CHRtFlo_Sys_T_OfficeSm_E" = 1712.979   $ Sizing
 "CHRtFlo_Sys_T_OfficeSm_N" = 689.3369   $ Sizing
 "CHRtFlo_Sys_T_OfficeSm_S" = 1810.186   $ Sizing
 "CHRtFlo_Sys_T_OfficeSm_W" = 1720.602   $ Sizing
 "CHRtFlo_Sys_T_Restrm_C" = 210.3849   $ Sizing
 "CHRtFlo_Sys_T_StorSm_C" = 331.7615   $ Sizing
 "CRtdFlo_Sys_L_Break_C" = 371.7668   $ Sizing
 "CRtdFlo_Sys_L_Conf_C" = 447.8282   $ Sizing
 "CRtdFlo_Sys_L_CopyRm_C" = 118.5684   $ Sizing
 "CRtdFlo_Sys_L_Cordr_C" = 586.475   $ Sizing
 "CRtdFlo_Sys_L_Cordr_E" = 312.2803   $ Sizing
 "CRtdFlo_Sys_L_Cordr_N" = 110.363   $ Sizing
 "CRtdFlo_Sys_L_Cordr_S" = 324.4342   $ Sizing
 "CRtdFlo_Sys_L_Cordr_W" = 307.0276   $ Sizing
 "CRtdFlo_Sys_L_LobWait_C" = 393.4341   $ Sizing
 "CRtdFlo_Sys_L_MechElec_C" = 133.2348   $ Sizing
 "CRtdFlo_Sys_L_OfficeOpn_C" = 1764.052   $ Sizing
 "CRtdFlo_Sys_L_OfficeOpn_E" = 2361.507   $ Sizing
 "CRtdFlo_Sys_L_OfficeOpn_N" = 1017.757   $ Sizing
 "CRtdFlo_Sys_L_OfficeOpn_S" = 2360.146   $ Sizing
 "CRtdFlo_Sys_L_OfficeOpn_W" = 2394.448   $ Sizing
 "CRtdFlo_Sys_L_OfficeSm_C" = 237.3587   $ Sizing
 "CRtdFlo_Sys_L_OfficeSm_E" = 1743.202   $ Sizing
 "CRtdFlo_Sys_L_OfficeSm_N" = 655.4263   $ Sizing
 "CRtdFlo_Sys_L_OfficeSm_S" = 1771.204   $ Sizing
 "CRtdFlo_Sys_L_OfficeSm_W" = 1764.353   $ Sizing
 "CRtdFlo_Sys_L_Restrm_C" = 210.3849   $ Sizing
 "CRtdFlo_Sys_L_StorSm_C" = 395.2021   $ Sizing
 "CRtdFlo_Sys_M_Break_C" = 3270.599   $ Sizing
 "CRtdFlo_Sys_M_Conf_C" = 4046.896   $ Sizing
 "CRtdFlo_Sys_M_CopyRm_C" = 1195.402   $ Sizing
 "CRtdFlo_Sys_M_Cordr_C" = 7507.463   $ Sizing
 "CRtdFlo_Sys_M_Cordr_E" = 2880.949   $ Sizing
 "CRtdFlo_Sys_M_Cordr_N" = 1242.936   $ Sizing
 "CRtdFlo_Sys_M_Cordr_S" = 2960.172   $ Sizing
 "CRtdFlo_Sys_M_Cordr_W" = 2710.034   $ Sizing
 "CRtdFlo_Sys_M_LobWait_C" = 4154.155   $ Sizing
 "CRtdFlo_Sys_M_MechElec_C" = 1385.167   $ Sizing
 "CRtdFlo_Sys_M_OfficeOpn_C" = 16938.06   $ Sizing
 "CRtdFlo_Sys_M_OfficeOpn_E" = 20274.04   $ Sizing
 "CRtdFlo_Sys_M_OfficeOpn_N" = 9199.816   $ Sizing
 "CRtdFlo_Sys_M_OfficeOpn_S" = 20515.02   $ Sizing
 "CRtdFlo_Sys_M_OfficeOpn_W" = 20048.55   $ Sizing
 "CRtdFlo_Sys_M_OfficeSm_C" = 2390.66   $ Sizing
 "CRtdFlo_Sys_M_OfficeSm_E" = 14736.21   $ Sizing
 "CRtdFlo_Sys_M_OfficeSm_N" = 5819.58   $ Sizing
 "CRtdFlo_Sys_M_OfficeSm_S" = 15239   $ Sizing
 "CRtdFlo_Sys_M_OfficeSm_W" = 14682.2   $ Sizing
 "CRtdFlo_Sys_M_Restrm_C" = 1683.079   $ Sizing
 "CRtdFlo_Sys_M_StorSm_C" = 3441.461   $ Sizing
 "CRtdFlo_Sys_T_Break_C" = 386.5091   $ Sizing
 "CRtdFlo_Sys_T_Conf_C" = 466.9915   $ Sizing
 "CRtdFlo_Sys_T_CopyRm_C" = 128.7129   $ Sizing
 "CRtdFlo_Sys_T_Cordr_C" = 798.2768   $ Sizing
 "CRtdFlo_Sys_T_Cordr_E" = 316.7139   $ Sizing
 "CRtdFlo_Sys_T_Cordr_N" = 133.8407   $ Sizing
 "CRtdFlo_Sys_T_Cordr_S" = 333.7977   $ Sizing
 "CRtdFlo_Sys_T_Cordr_W" = 302.428   $ Sizing
 "CRtdFlo_Sys_T_LobWait_C" = 462.7703   $ Sizing
 "CRtdFlo_Sys_T_MechElec_C" = 205.8142   $ Sizing
 "CRtdFlo_Sys_T_OfficeOpn_C" = 1869.959   $ Sizing
 "CRtdFlo_Sys_T_OfficeOpn_E" = 2275.951   $ Sizing
 "CRtdFlo_Sys_T_OfficeOpn_N" = 1047.164   $ Sizing
 "CRtdFlo_Sys_T_OfficeOpn_S" = 2378.282   $ Sizing
 "CRtdFlo_Sys_T_OfficeOpn_W" = 2286.823   $ Sizing
 "CRtdFlo_Sys_T_OfficeSm_C" = 280.9963   $ Sizing
 "CRtdFlo_Sys_T_OfficeSm_E" = 1712.979   $ Sizing
 "CRtdFlo_Sys_T_OfficeSm_N" = 689.3369   $ Sizing
 "CRtdFlo_Sys_T_OfficeSm_S" = 1810.186   $ Sizing
 "CRtdFlo_Sys_T_OfficeSm_W" = 1720.602   $ Sizing
 "CRtdFlo_Sys_T_Restrm_C" = 210.3849   $ Sizing
 "CRtdFlo_Sys_T_StorSm_C" = 331.7615   $ Sizing
 "CSupFlo_Sys_L_Break_C" = 371.7668   $ Sizing
 "CSupFlo_Sys_L_Conf_C" = 447.8282   $ Sizing
 "CSupFlo_Sys_L_CopyRm_C" = 118.5684   $ Sizing
 "CSupFlo_Sys_L_Cordr_C" = 586.475   $ Sizing
 "CSupFlo_Sys_L_Cordr_E" = 312.2803   $ Sizing
 "CSupFlo_Sys_L_Cordr_N" = 110.363   $ Sizing
 "CSupFlo_Sys_L_Cordr_S" = 324.4342   $ Sizing
 "CSupFlo_Sys_L_Cordr_W" = 307.0276   $ Sizing
 "CSupFlo_Sys_L_LobWait_C" = 393.4341   $ Sizing
 "CSupFlo_Sys_L_MechElec_C" = 133.2348   $ Sizing
 "CSupFlo_Sys_L_OfficeOpn_C" = 1764.052   $ Sizing
 "CSupFlo_Sys_L_OfficeOpn_E" = 2361.507   $ Sizing
 "CSupFlo_Sys_L_OfficeOpn_N" = 1017.757   $ Sizing
 "CSupFlo_Sys_L_OfficeOpn_S" = 2360.146   $ Sizing
 "CSupFlo_Sys_L_OfficeOpn_W" = 2394.448   $ Sizing
 "CSupFlo_Sys_L_OfficeSm_C" = 237.3587   $ Sizing
 "CSupFlo_Sys_L_OfficeSm_E" = 1743.202   $ Sizing
 "CSupFlo_Sys_L_OfficeSm_N" = 655.4263   $ Sizing
 "CSupFlo_Sys_L_OfficeSm_S" = 1771.204   $ Sizing
 "CSupFlo_Sys_L_OfficeSm_W" = 1764.353   $ Sizing
 "CSupFlo_Sys_L_Restrm_C" = 210.3849   $ Sizing
 "CSupFlo_Sys_L_StorSm_C" = 395.2021   $ Sizing
 "CSupFlo_Sys_M_Break_C" = 3270.599   $ Sizing
 "CSupFlo_Sys_M_Conf_C" = 4046.896   $ Sizing
 "CSupFlo_Sys_M_CopyRm_C" = 1195.402   $ Sizing
 "CSupFlo_Sys_M_Cordr_C" = 7507.463   $ Sizing
 "CSupFlo_Sys_M_Cordr_E" = 2880.949   $ Sizing
 "CSupFlo_Sys_M_Cordr_N" = 1242.936   $ Sizing
 "CSupFlo_Sys_M_Cordr_S" = 2960.172   $ Sizing
 "CSupFlo_Sys_M_Cordr_W" = 2710.034   $ Sizing
 "CSupFlo_Sys_M_LobWait_C" = 4154.155   $ Sizing
 "CSupFlo_Sys_M_MechElec_C" = 1385.167   $ Sizing
 "CSupFlo_Sys_M_OfficeOpn_C" = 16938.06   $ Sizing
 "CSupFlo_Sys_M_OfficeOpn_E" = 20274.04   $ Sizing
 "CSupFlo_Sys_M_OfficeOpn_N" = 9199.816   $ Sizing
 "CSupFlo_Sys_M_OfficeOpn_S" = 20515.02   $ Sizing
 "CSupFlo_Sys_M_OfficeOpn_W" = 20048.55   $ Sizing
 "CSupFlo_Sys_M_OfficeSm_C" = 2390.66   $ Sizing
 "CSupFlo_Sys_M_OfficeSm_E" = 14736.21   $ Sizing
 "CSupFlo_Sys_M_OfficeSm_N" = 5819.58   $ Sizing
 "CSupFlo_Sys_M_OfficeSm_S" = 15239   $ Sizing
 "CSupFlo_Sys_M_OfficeSm_W" = 14682.2   $ Sizing
 "CSupFlo_Sys_M_Restrm_C" = 1683.079   $ Sizing
 "CSupFlo_Sys_M_StorSm_C" = 3441.461   $ Sizing
 "CSupFlo_Sys_T_Break_C" = 386.5091   $ Sizing
 "CSupFlo_Sys_T_Conf_C" = 466.9915   $ Sizing
 "CSupFlo_Sys_T_CopyRm_C" = 128.7129   $ Sizing
 "CSupFlo_Sys_T_Cordr_C" = 798.2768   $ Sizing
 "CSupFlo_Sys_T_Cordr_E" = 316.7139   $ Sizing
 "CSupFlo_Sys_T_Cordr_N" = 133.8407   $ Sizing
 "CSupFlo_Sys_T_Cordr_S" = 333.7977   $ Sizing
 "CSupFlo_Sys_T_Cordr_W" = 302.428   $ Sizing
 "CSupFlo_Sys_T_LobWait_C" = 462.7703   $ Sizing
 "CSupFlo_Sys_T_MechElec_C" = 205.8142   $ Sizing
 "CSupFlo_Sys_T_OfficeOpn_C" = 1869.959   $ Sizing
 "CSupFlo_Sys_T_OfficeOpn_E" = 2275.951   $ Sizing
 "CSupFlo_Sys_T_OfficeOpn_N" = 1047.164   $ Sizing
 "CSupFlo_Sys_T_OfficeOpn_S" = 2378.282   $ Sizing
 "CSupFlo_Sys_T_OfficeOpn_W" = 2286.823   $ Sizing
 "CSupFlo_Sys_T_OfficeSm_C" = 280.9963   $ Sizing
 "CSupFlo_Sys_T_OfficeSm_E" = 1712.979   $ Sizing
 "CSupFlo_Sys_T_OfficeSm_N" = 689.3369   $ Sizing
 "CSupFlo_Sys_T_OfficeSm_S" = 1810.186   $ Sizing
 "CSupFlo_Sys_T_OfficeSm_W" = 1720.602   $ Sizing
 "CSupFlo_Sys_T_Restrm_C" = 210.3849   $ Sizing
 "CSupFlo_Sys_T_StorSm_C" = 331.7615   $ Sizing
 "ClCap_Sys_L_Break_C" = 12739.77   $ Sizing
 "ClCap_Sys_L_Conf_C" = 19531.59   $ Sizing
 "ClCap_Sys_L_CopyRm_C" = 4063.124   $ Sizing
 "ClCap_Sys_L_Cordr_C" = 20097.43   $ Sizing
 "ClCap_Sys_L_Cordr_E" = 10701.27   $ Sizing
 "ClCap_Sys_L_Cordr_N" = 3781.937   $ Sizing
 "ClCap_Sys_L_Cordr_S" = 11117.77   $ Sizing
 "ClCap_Sys_L_Cordr_W" = 10521.28   $ Sizing
 "ClCap_Sys_L_LobWait_C" = 13482.27   $ Sizing
 "ClCap_Sys_L_MechElec_C" = 4565.713   $ Sizing
 "ClCap_Sys_L_OfficeOpn_C" = 60450.84   $ Sizing
 "ClCap_Sys_L_OfficeOpn_E" = 80924.52   $ Sizing
 "ClCap_Sys_L_OfficeOpn_N" = 34876.68   $ Sizing
 "ClCap_Sys_L_OfficeOpn_S" = 80877.91   $ Sizing
 "ClCap_Sys_L_OfficeOpn_W" = 82053.34   $ Sizing
 "ClCap_Sys_L_OfficeSm_C" = 8133.848   $ Sizing
 "ClCap_Sys_L_OfficeSm_E" = 59736.35   $ Sizing
 "ClCap_Sys_L_OfficeSm_N" = 22460.26   $ Sizing
 "ClCap_Sys_L_OfficeSm_S" = 60695.93   $ Sizing
 "ClCap_Sys_L_OfficeSm_W" = 60461.14   $ Sizing
 "ClCap_Sys_L_Restrm_C" = 7209.506   $ Sizing
 "ClCap_Sys_L_StorSm_C" = 13542.85   $ Sizing
 "ClCap_Sys_M_Break_C" = 112077.5   $ Sizing
 "ClCap_Sys_M_Conf_C" = 176501.5   $ Sizing
 "ClCap_Sys_M_CopyRm_C" = 40964.23   $ Sizing
 "ClCap_Sys_M_Cordr_C" = 257267   $ Sizing
 "ClCap_Sys_M_Cordr_E" = 98724.86   $ Sizing
 "ClCap_Sys_M_Cordr_N" = 42593.14   $ Sizing
 "ClCap_Sys_M_Cordr_S" = 101439.7   $ Sizing
 "ClCap_Sys_M_Cordr_W" = 92867.92   $ Sizing
 "ClCap_Sys_M_LobWait_C" = 142355.3   $ Sizing
 "ClCap_Sys_M_MechElec_C" = 47467.16   $ Sizing
 "ClCap_Sys_M_OfficeOpn_C" = 580436.4   $ Sizing
 "ClCap_Sys_M_OfficeOpn_E" = 694754.4   $ Sizing
 "ClCap_Sys_M_OfficeOpn_N" = 315260.9   $ Sizing
 "ClCap_Sys_M_OfficeOpn_S" = 703012.1   $ Sizing
 "ClCap_Sys_M_OfficeOpn_W" = 687027.3   $ Sizing
 "ClCap_Sys_M_OfficeSm_C" = 81923.55   $ Sizing
 "ClCap_Sys_M_OfficeSm_E" = 504983   $ Sizing
 "ClCap_Sys_M_OfficeSm_N" = 199426.4   $ Sizing
 "ClCap_Sys_M_OfficeSm_S" = 522212.5   $ Sizing
 "ClCap_Sys_M_OfficeSm_W" = 503132   $ Sizing
 "ClCap_Sys_M_Restrm_C" = 57676.05   $ Sizing
 "ClCap_Sys_M_StorSm_C" = 117932.6   $ Sizing
 "ClCap_Sys_T_Break_C" = 13244.96   $ Sizing
 "ClCap_Sys_T_Conf_C" = 20367.39   $ Sizing
 "ClCap_Sys_T_CopyRm_C" = 4410.754   $ Sizing
 "ClCap_Sys_T_Cordr_C" = 27355.49   $ Sizing
 "ClCap_Sys_T_Cordr_E" = 10853.21   $ Sizing
 "ClCap_Sys_T_Cordr_N" = 4586.476   $ Sizing
 "ClCap_Sys_T_Cordr_S" = 11438.64   $ Sizing
 "ClCap_Sys_T_Cordr_W" = 10363.65   $ Sizing
 "ClCap_Sys_T_LobWait_C" = 15858.29   $ Sizing
 "ClCap_Sys_T_MechElec_C" = 7052.877   $ Sizing
 "ClCap_Sys_T_OfficeOpn_C" = 64080.08   $ Sizing
 "ClCap_Sys_T_OfficeOpn_E" = 77992.69   $ Sizing
 "ClCap_Sys_T_OfficeOpn_N" = 35884.41   $ Sizing
 "ClCap_Sys_T_OfficeOpn_S" = 81499.39   $ Sizing
 "ClCap_Sys_T_OfficeOpn_W" = 78365.23   $ Sizing
 "ClCap_Sys_T_OfficeSm_C" = 9629.23   $ Sizing
 "ClCap_Sys_T_OfficeSm_E" = 58700.66   $ Sizing
 "ClCap_Sys_T_OfficeSm_N" = 23622.31   $ Sizing
 "ClCap_Sys_T_OfficeSm_S" = 62031.76   $ Sizing
 "ClCap_Sys_T_OfficeSm_W" = 58961.88   $ Sizing
 "ClCap_Sys_T_Restrm_C" = 7209.506   $ Sizing
 "ClCap_Sys_T_StorSm_C" = 11368.86   $ Sizing
 "HtCap_Sys_L_Break_C" = -17817.74   $ Sizing
 "HtCap_Sys_L_Conf_C" = -22218.84   $ Sizing
 "HtCap_Sys_L_CopyRm_C" = -6337.266   $ Sizing
 "HtCap_Sys_L_Cordr_C" = -23750.92   $ Sizing
 "HtCap_Sys_L_Cordr_E" = -9821.82   $ Sizing
 "HtCap_Sys_L_Cordr_N" = -4359.483   $ Sizing
 "HtCap_Sys_L_Cordr_S" = -10434.37   $ Sizing
 "HtCap_Sys_L_Cordr_W" = -10000.64   $ Sizing
 "HtCap_Sys_L_LobWait_C" = -18723.83   $ Sizing
 "HtCap_Sys_L_MechElec_C" = -5453.347   $ Sizing
 "HtCap_Sys_L_OfficeOpn_C" = -86406.7   $ Sizing
 "HtCap_Sys_L_OfficeOpn_E" = -73452.08   $ Sizing
 "HtCap_Sys_L_OfficeOpn_N" = -35648.23   $ Sizing
 "HtCap_Sys_L_OfficeOpn_S" = -115765.2   $ Sizing
 "HtCap_Sys_L_OfficeOpn_W" = -74587.05   $ Sizing
 "HtCap_Sys_L_OfficeSm_C" = -11604.68   $ Sizing
 "HtCap_Sys_L_OfficeSm_E" = -55106.39   $ Sizing
 "HtCap_Sys_L_OfficeSm_N" = -23129.84   $ Sizing
 "HtCap_Sys_L_OfficeSm_S" = -55845.65   $ Sizing
 "HtCap_Sys_L_OfficeSm_W" = -55014.59   $ Sizing
 "HtCap_Sys_L_Restrm_C" = -7756.842   $ Sizing
 "HtCap_Sys_L_StorSm_C" = -15522.86   $ Sizing
 "HtCap_Sys_M_Break_C" = -150862.3   $ Sizing
 "HtCap_Sys_M_Conf_C" = -190926.5   $ Sizing
 "HtCap_Sys_M_CopyRm_C" = -57666.98   $ Sizing
 "HtCap_Sys_M_Cordr_C" = -269265.4   $ Sizing
 "HtCap_Sys_M_Cordr_E" = -91962.46   $ Sizing
 "HtCap_Sys_M_Cordr_N" = -45144.97   $ Sizing
 "HtCap_Sys_M_Cordr_S" = -93533.25   $ Sizing
 "HtCap_Sys_M_Cordr_W" = -87038.6   $ Sizing
 "HtCap_Sys_M_LobWait_C" = -178273.7   $ Sizing
 "HtCap_Sys_M_MechElec_C" = -52599.17   $ Sizing
 "HtCap_Sys_M_OfficeOpn_C" = -830398.6   $ Sizing
 "HtCap_Sys_M_OfficeOpn_E" = -628942.8   $ Sizing
 "HtCap_Sys_M_OfficeOpn_N" = -314347   $ Sizing
 "HtCap_Sys_M_OfficeOpn_S" = -1006145   $ Sizing
 "HtCap_Sys_M_OfficeOpn_W" = -620424.9   $ Sizing
 "HtCap_Sys_M_OfficeSm_C" = -116625.9   $ Sizing
 "HtCap_Sys_M_OfficeSm_E" = -463878.4   $ Sizing
 "HtCap_Sys_M_OfficeSm_N" = -201225.3   $ Sizing
 "HtCap_Sys_M_OfficeSm_S" = -478507.3   $ Sizing
 "HtCap_Sys_M_OfficeSm_W" = -454738.1   $ Sizing
 "HtCap_Sys_M_Restrm_C" = -66722.94   $ Sizing
 "HtCap_Sys_M_StorSm_C" = -130412.1   $ Sizing
 "HtCap_Sys_T_Break_C" = -19004.19   $ Sizing
 "HtCap_Sys_T_Conf_C" = -23465.85   $ Sizing
 "HtCap_Sys_T_CopyRm_C" = -6774.177   $ Sizing
 "HtCap_Sys_T_Cordr_C" = -32261.76   $ Sizing
 "HtCap_Sys_T_Cordr_E" = -11621.83   $ Sizing
 "HtCap_Sys_T_Cordr_N" = -5601.258   $ Sizing
 "HtCap_Sys_T_Cordr_S" = -11795.02   $ Sizing
 "HtCap_Sys_T_Cordr_W" = -11179.31   $ Sizing
 "HtCap_Sys_T_LobWait_C" = -21489.46   $ Sizing
 "HtCap_Sys_T_MechElec_C" = -7497.449   $ Sizing
 "HtCap_Sys_T_OfficeOpn_C" = -91545.43   $ Sizing
 "HtCap_Sys_T_OfficeOpn_E" = -79377.91   $ Sizing
 "HtCap_Sys_T_OfficeOpn_N" = -41272.17   $ Sizing
 "HtCap_Sys_T_OfficeOpn_S" = -80865.54   $ Sizing
 "HtCap_Sys_T_OfficeOpn_W" = -79578.2   $ Sizing
 "HtCap_Sys_T_OfficeSm_C" = -10907.34   $ Sizing
 "HtCap_Sys_T_OfficeSm_E" = -60812.64   $ Sizing
 "HtCap_Sys_T_OfficeSm_N" = -26882.41   $ Sizing
 "HtCap_Sys_T_OfficeSm_S" = -61297.81   $ Sizing
 "HtCap_Sys_T_OfficeSm_W" = -60083.1   $ Sizing
 "HtCap_Sys_T_Restrm_C" = -8575.175   $ Sizing
 "HtCap_Sys_T_StorSm_C" = -15027.97   $ Sizing
..

##include Templates\OfL_DX_SZ.inp
END ..
COMPUTE ..
STOP ..
