INPUT ..

##fileprefix C:\Users\jglasskatz\MASControl3\
##set1 IsSizing FALSE
##set1 CoolType DX
##set1 HeatType FURNACE
##set1 EU_HrRepVar 0
##set1 BldgVint 2011
##set1 BldgLoc CZ08

 ##set1 mBFMult 1   $ IP Tech: RefgChg-NRes-Std

PARAMETER
 "AltFactor" = 1.01468   $ IP Non-Tech
 "BF_fFlow" = SpltAC2SpHiSEER_BF_fFlow   $ Msr (Multi)TechID: MsrNResSplitAC-45to55-S17
 "BF_fT" = SpltAC2SpHiSEER_BF_fT   $ Msr (Multi)TechID: MsrNResSplitAC-45to55-S17
 "BldgEconoFlag" = 1   $ IP Non-Tech
 "Break_EWSF" = 1   $ IP Non-Tech
 "Break_LWSF" = 1.1   $ IP Non-Tech
 "CDD_DBHi10" = 92   $ IP Non-Tech
 "CDD_DBHi7" = 84   $ IP Non-Tech
 "CDD_DBHi8" = 87   $ IP Non-Tech
 "CDD_DBHi9" = 91   $ IP Non-Tech
 "CDD_DBRange10" = 31   $ IP Non-Tech
 "CDD_DBRange7" = 16   $ IP Non-Tech
 "CDD_DBRange8" = 20   $ IP Non-Tech
 "CDD_DBRange9" = 23   $ IP Non-Tech
 "CDD_Day10" = 15   $ IP Non-Tech
 "CDD_Day7" = 16   $ IP Non-Tech
 "CDD_Day8" = 20   $ IP Non-Tech
 "CDD_Day9" = 17   $ IP Non-Tech
 "CDD_HrHi10" = 16   $ IP Non-Tech
 "CDD_HrHi7" = 14   $ IP Non-Tech
 "CDD_HrHi8" = 15   $ IP Non-Tech
 "CDD_HrHi9" = 13   $ IP Non-Tech
 "CDD_HrLo10" = 3   $ IP Non-Tech
 "CDD_HrLo7" = 4   $ IP Non-Tech
 "CDD_HrLo8" = 7   $ IP Non-Tech
 "CDD_HrLo9" = 7   $ IP Non-Tech
 "CDD_WB10" = 63.44163513   $ IP Non-Tech
 "CDD_WB7" = 69.12194824   $ IP Non-Tech
 "CDD_WB8" = 71.41388702   $ IP Non-Tech
 "CDD_WB9" = 69.41378784   $ IP Non-Tech
 "CEIR_fPLR_Hot" = SpltAC2SpHiSEER_CEIR_fPLR_Hot   $ Msr (Multi)TechID: MsrNResSplitAC-45to55-S17
 "CEIR_fPLR_Mod" = SpltAC2SpHiSEER_CEIR_fPLR_Mod   $ Msr (Multi)TechID: MsrNResSplitAC-45to55-S17
 "CEIR_fPLR_Tem" = SpltAC2SpHiSEER_CEIR_fPLR_Tem   $ Msr (Multi)TechID: MsrNResSplitAC-45to55-S17
 "CLoss_fPLR_Hot" = SpltAC2SpHiSEER_CLoss_fPLR_Hot   $ Msr (Multi)TechID: MsrNResSplitAC-45to55-S17
 "CLoss_fPLR_Mod" = SpltAC2SpHiSEER_CLoss_fPLR_Mod   $ Msr (Multi)TechID: MsrNResSplitAC-45to55-S17
 "CLoss_fPLR_Tem" = SpltAC2SpHiSEER_CLoss_fPLR_Tem   $ Msr (Multi)TechID: MsrNResSplitAC-45to55-S17
 "COP47" = 0   $ Msr (Multi)TechID: MsrNResSplitAC-45to55-S17
 "CZ_Category" = Mod   $ IP Non-Tech
 "CapRange" = Any   $ Msr (Multi)TechID: MsrNResSplitAC-45to55-S17
 "CfmPerBtuh" = 0.03   $ Msr (Multi)TechID: MsrNResSplitAC-45to55-S17
 "ChwVintEconoFlag" = 1   $ IP Non-Tech
 "ClCap_fT" = SpltAC2SpHiSEER_ClCap_fT   $ Msr (Multi)TechID: MsrNResSplitAC-45to55-S17
 "ClSH_fT" = SpltAC2SpHiSEER_ClSH_fT   $ Msr (Multi)TechID: MsrNResSplitAC-45to55-S17
 "CoilBF" = 0.102   $ Msr (Multi)TechID: MsrNResSplitAC-45to55-S17
 "CondWPerBtuh" = 0   $ Msr (Multi)TechID: MsrNResSplitAC-45to55-S17
 "Conference_EWSF" = 1   $ IP Non-Tech
 "Conference_LWSF" = 1.4   $ IP Non-Tech
 "CoolSensCap" = 0.724   $ Msr (Multi)TechID: MsrNResSplitAC-45to55-S17
 "CoolSetT" = 45   $ IP Non-Tech
 "CoolType" = DX   $ IP Non-Tech
 "CoolingEIR" = 0.2225   $ Msr (Multi)TechID: MsrNResSplitAC-45to55-S17
 "CopyRoom_EWSF" = 1.5   $ IP Non-Tech
 "CopyRoom_LWSF" = 1.3   $ IP Non-Tech
 "CorridorStairway_EWSF" = 0.2   $ IP Non-Tech
 "CorridorStairway_LWSF" = 0.6   $ IP Non-Tech
 "CrnkEIR" = 0.002225   $ Msr (Multi)TechID: MsrNResSplitAC-45to55-S17
 "CrnkMaxT" = 50   $ Msr (Multi)TechID: MsrNResSplitAC-45to55-S17
 "DXType" = SplitSEER   $ Msr (Multi)TechID: MsrNResSplitAC-45to55-S17
 "DesCoolT" = 75   $ IP Non-Tech
 "DesHeatT" = 73   $ IP Non-Tech
 "EER" = 13.26   $ Msr (Multi)TechID: MsrNResSplitAC-45to55-S17
 "EIR_fT" = SpltAC2SpHiSEER_EIR_fT   $ Msr (Multi)TechID: MsrNResSplitAC-45to55-S17
 "EconoCtrl" = FIXED   $ Msr (Multi)TechID: MsrNResSplitAC-45to55-S17
 "EconoEnthLimit" = 28   $ IP Non-Tech
 "EconoTempLimit" = 71   $ IP Non-Tech
 "Elevation" = 395   $ IP Non-Tech
 "FanEirPlr" = TwoSpeedFan   $ Msr (Multi)TechID: MsrNResSplitAC-45to55-S17
 "FanWPerCfm" = 0.271   $ Msr (Multi)TechID: MsrNResSplitAC-45to55-S17
 "HDD_CloudAmt1" = 0   $ IP Non-Tech
 "HDD_DBHi1" = 55   $ IP Non-Tech
 "HDD_DBRange1" = 18   $ IP Non-Tech
 "HDD_Day1" = 15   $ IP Non-Tech
 "HDD_HrHi1" = 11   $ IP Non-Tech
 "HDD_HrLo1" = 6   $ IP Non-Tech
 "HDD_WB1" = 49.4   $ IP Non-Tech
 "HDD_WindSpd1" = 9.2   $ IP Non-Tech
 "HIR_fT" = 0   $ Msr (Multi)TechID: MsrNResSplitAC-45to55-S17
 "HSPF" = 0   $ Msr (Multi)TechID: MsrNResSplitAC-45to55-S17
 "HeatSrc" = FURNACE   $ IP Non-Tech
 "HeatSrcTU" = HEAT-PUMP   $ IP Non-Tech
 "HeatType" = GasFurn   $ IP Non-Tech
 "HeatTypeTU" = HEAT-PUMP   $ IP Non-Tech
 "HtCap_fT" = 0   $ Msr (Multi)TechID: MsrNResSplitAC-45to55-S17
 "HtCoolCapRatio" = 0   $ Msr (Multi)TechID: MsrNResSplitAC-45to55-S17
 "HtgEIR" = 0   $ Msr (Multi)TechID: MsrNResSplitAC-45to55-S17
 "IndoorFanMode" = CONTINUOUS   $ IP Non-Tech
 "KT_TransferAir" = No   $ IP Non-Tech
 "Latitude" = 33.8   $ IP Non-Tech
 "LobbyWaiting_EWSF" = 0.5   $ IP Non-Tech
 "LobbyWaiting_LWSF" = 1.3   $ IP Non-Tech
 "Longitude" = 118.2   $ IP Non-Tech
 "LowSpdCapRatio" = 0.686   $ Msr (Multi)TechID: MsrNResSplitAC-45to55-S17
 "LowSpdCfmRatio" = 0.739   $ Msr (Multi)TechID: MsrNResSplitAC-45to55-S17
 "MZFanMechEff" = 0.58   $ IP Non-Tech
 "MZHasRetFan" = FALSE   $ IP Non-Tech
 "MZ_RFanWPerCfm" = 0.37   $ IP Non-Tech
 "MZ_SFanWPerCfm" = 0.71   $ IP Non-Tech
 "MZ_SupFanStatic" = 2.25   $ IP Non-Tech
 "MaxOAFrac" = 1   $ Msr (Multi)TechID: MsrNResSplitAC-45to55-S17
 "MaxSupT_MZ" = 100   $ IP Non-Tech
 "MaxSupT_SZ" = 100   $ IP Non-Tech
 "MaxSupT_TU" = 90   $ IP Non-Tech
 "MechElecRoom_EWSF" = 0.2   $ IP Non-Tech
 "MechElecRoom_LWSF" = 0.7   $ IP Non-Tech
 "MinCfmPerSF" = 0.4   $ IP Non-Tech
 "MinSupT" = 55   $ IP Non-Tech
 "NumStages" = 2   $ Msr (Multi)TechID: MsrNResSplitAC-45to55-S17
 "OccCoolT" = 76   $ IP Non-Tech
 "OccHeatT" = 72   $ IP Non-Tech
 "OfficeOpen_EWSF" = 1.5   $ IP Non-Tech
 "OfficeOpen_LWSF" = 1.1   $ IP Non-Tech
 "OfficeSmall_EWSF" = 1.5   $ IP Non-Tech
 "OfficeSmall_LWSF" = 1.3   $ IP Non-Tech
 "PkgDxVintEconoFlag" = 0   $ IP Non-Tech
 "Restroom_EWSF" = 0.2   $ IP Non-Tech
 "Restroom_LWSF" = 0.6   $ IP Non-Tech
 "SEER" = 17   $ Msr (Multi)TechID: MsrNResSplitAC-45to55-S17
 "SZFanMechEff" = 0.58   $ IP Non-Tech
 "SZHasRetFan" = FALSE   $ IP Non-Tech
 "SZ_Is_2Spd" = FALSE   $ IP Non-Tech
 "SZ_SFanWPerCfm" = 0.46   $ IP Non-Tech
 "SZ_SupFanStatic" = 0.75   $ IP Non-Tech
 "Sector" = Any   $ Msr (Multi)TechID: MsrNResSplitAC-45to55-S17
 "StorageSmlCond_EWSF" = 0.2   $ IP Non-Tech
 "StorageSmlCond_LWSF" = 0.6   $ IP Non-Tech
 "SubType" = AC   $ Msr (Multi)TechID: MsrNResSplitAC-45to55-S17
 "T24GlzTbl" = CZTbl   $ IP Non-Tech
 "TermUnitFanMechEff" = 1   $ IP Non-Tech
 "TermUnitFanMode" = INTERMITTENT   $ IP Non-Tech
 "TotCoolCap" = 58805   $ Msr (Multi)TechID: MsrNResSplitAC-45to55-S17
 "TwrSetpt" = 80.5   $ IP Non-Tech
 "UnocCoolT" = 86   $ IP Non-Tech
 "UnocHeatT" = 62   $ IP Non-Tech
 "UseEconoVintApplic" = FALSE   $ Msr (Multi)TechID: MsrNResSplitAC-45to55-S17
 "WlhpVintEconoFlag" = 0   $ IP Non-Tech
 "DuctDT" = 1   $ IP Tech: ComDuctInsul-1
 "DuctAirLoss" = 0   $ IP Tech: ComDuctLeak-0
 "DuctLossOAFrac" = 0   $ IP Tech: ComDuctLeak-0
 "ComRoofInsCalc" = FromUo   $ IP Tech: ComRoofIns-Hvy-0.07
 "ComRoofInsR" = -999   $ IP Tech: ComRoofIns-Hvy-0.07
 "ComRoofUo" = 0.07   $ IP Tech: ComRoofIns-Hvy-0.07
 "ComEWInsCalc" = FromUo   $ IP Tech: ComWallIns-MFrm-0.06
 "ComEWInsR" = -999   $ IP Tech: ComWallIns-MFrm-0.06
 "ComEWUo" = 0.06   $ IP Tech: ComWallIns-MFrm-0.06
 "ComN_SHGC" = 0.61   $ IP Tech: NResWin-ComN-0.77-0.61
 "ComN_UFactor" = 0.77   $ IP Tech: NResWin-ComN-0.77-0.61
 "ComN_VisTrans" = 0.77   $ IP Tech: NResWin-ComN-0.77-0.61
 "ComN_WinCode" = G2600   $ IP Tech: NResWin-ComN-0.77-0.61
 "ComN_WinFrmFrac" = 0.17   $ IP Tech: NResWin-ComN-0.77-0.61
 "ComN_WinFrmU" = 1   $ IP Tech: NResWin-ComN-0.77-0.61
 "ComO_SHGC" = 0.34   $ IP Tech: NResWin-ComO-0.77-0.34
 "ComO_UFactor" = 0.77   $ IP Tech: NResWin-ComO-0.77-0.34
 "ComO_VisTrans" = 0.44   $ IP Tech: NResWin-ComO-0.77-0.34
 "ComO_WinCode" = G2636   $ IP Tech: NResWin-ComO-0.77-0.34
 "ComO_WinFrmFrac" = 0.17   $ IP Tech: NResWin-ComO-0.77-0.34
 "ComO_WinFrmU" = 1   $ IP Tech: NResWin-ComO-0.77-0.34
 "LtgMsrApplic" = ALL   $ IP Tech: NonResLtgRefPre
 "LtgSav_CFL" = 0   $ IP Tech: NonResLtgRefPre
 "LtgSav_EX" = 0   $ IP Tech: NonResLtgRefPre
 "LtgSav_HB" = 0   $ IP Tech: NonResLtgRefPre
 "LtgSav_LF" = 0   $ IP Tech: NonResLtgRefPre
 "LtgSav_SP" = 0   $ IP Tech: NonResLtgRefPre
 "CEIR_fPLR" = PSZ65to135_CEIR_fPLR   $ IP Tech: PkgAC1SpH-65to135-E11
 "CLoss_fPLR" = PSZ65to135_CLoss_fPLR   $ IP Tech: PkgAC1SpH-65to135-E11
 "COP" = -1   $ IP Tech: PkgAC1SpH-65to135-E11
 "HtgFuel" = Gas   $ IP Tech: PkgAC1SpH-65to135-E11
 "IEER" = 13.35   $ IP Tech: PkgAC1SpH-65to135-E11
 "NominalCap" = 15   $ IP Tech: PkgAC1SpH-65to135-E11
 "RatedEER" = 11   $ IP Tech: PkgAC1SpH-65to135-E11
 "RatedSupMtrClass" = HiEff   $ IP Tech: PkgAC1SpH-65to135-E11
 "SizeRange" = 65to135   $ IP Tech: PkgAC1SpH-65to135-E11
 "SupMotEff" = 0.84   $ IP Tech: PkgAC1SpH-65to135-E11
 "Tier" = 0   $ IP Tech: PkgAC1SpH-65to135-E11
 "FanPwrMult" = 1   $ IP Tech: PkgFurn-0.80AFUE
 "FurnAFUE" = 0.8   $ IP Tech: PkgFurn-0.80AFUE
 "FurnEt" = 0.82   $ IP Tech: PkgFurn-0.80AFUE
 "FurnaceAuxKW" = 0.1   $ IP Tech: PkgFurn-0.80AFUE
 "HIR_fPLR" = Furnace-HIR-fPLR   $ IP Tech: PkgFurn-0.80AFUE
 "VSM" = FALSE   $ IP Tech: PkgFurn-0.80AFUE
 "BFMult" = 1   $ IP Tech: RefgChg-NRes-Std
 "CoolEirMult" = 1   $ IP Tech: RefgChg-NRes-Std
 "SensCoolCapMult" = 1   $ IP Tech: RefgChg-NRes-Std
 "TotCoolCapMult" = 1   $ IP Tech: RefgChg-NRes-Std
 "AltAdjFactor" = 1.014676   $ Sizing
 "CAssFlo_L_Break_CZn" = 490.6713   $ Sizing
 "CAssFlo_L_Conf_CZn" = 465.5555   $ Sizing
 "CAssFlo_L_CopyRm_CZn" = 150.3166   $ Sizing
 "CAssFlo_L_Cordr_CZn" = 554.5132   $ Sizing
 "CAssFlo_L_Cordr_EZn" = 220.6576   $ Sizing
 "CAssFlo_L_Cordr_NZn" = 129.0777   $ Sizing
 "CAssFlo_L_Cordr_SZn" = 219.9278   $ Sizing
 "CAssFlo_L_Cordr_WZn" = 236.1952   $ Sizing
 "CAssFlo_L_LobWait_CZn" = 476.4973   $ Sizing
 "CAssFlo_L_MechElec_CZn" = 120.7909   $ Sizing
 "CAssFlo_L_OfficeOpn_CZn" = 1646.159   $ Sizing
 "CAssFlo_L_OfficeOpn_EZn" = 1588.561   $ Sizing
 "CAssFlo_L_OfficeOpn_NZn" = 1038.258   $ Sizing
 "CAssFlo_L_OfficeOpn_SZn" = 1580.802   $ Sizing
 "CAssFlo_L_OfficeOpn_WZn" = 1741.058   $ Sizing
 "CAssFlo_L_OfficeSm_CZn" = 211.875   $ Sizing
 "CAssFlo_L_OfficeSm_EZn" = 1129.395   $ Sizing
 "CAssFlo_L_OfficeSm_NZn" = 673.6776   $ Sizing
 "CAssFlo_L_OfficeSm_SZn" = 1144.705   $ Sizing
 "CAssFlo_L_OfficeSm_WZn" = 1230.643   $ Sizing
 "CAssFlo_L_Restrm_CZn" = 82.50394   $ Sizing
 "CAssFlo_L_StorSm_CZn" = 377.9149   $ Sizing
 "CAssFlo_M_Break_CZn" = 495.2317   $ Sizing
 "CAssFlo_M_Conf_CZn" = 464.2704   $ Sizing
 "CAssFlo_M_CopyRm_CZn" = 143.4709   $ Sizing
 "CAssFlo_M_Cordr_CZn" = 827.2894   $ Sizing
 "CAssFlo_M_Cordr_EZn" = 255.5605   $ Sizing
 "CAssFlo_M_Cordr_NZn" = 154.2698   $ Sizing
 "CAssFlo_M_Cordr_SZn" = 248.9811   $ Sizing
 "CAssFlo_M_Cordr_WZn" = 253.9018   $ Sizing
 "CAssFlo_M_LobWait_CZn" = 504.1567   $ Sizing
 "CAssFlo_M_MechElec_CZn" = 149.7607   $ Sizing
 "CAssFlo_M_OfficeOpn_CZn" = 1869.062   $ Sizing
 "CAssFlo_M_OfficeOpn_EZn" = 1704.234   $ Sizing
 "CAssFlo_M_OfficeOpn_NZn" = 1103.869   $ Sizing
 "CAssFlo_M_OfficeOpn_SZn" = 1702.14   $ Sizing
 "CAssFlo_M_OfficeOpn_WZn" = 1795.386   $ Sizing
 "CAssFlo_M_OfficeSm_CZn" = 264.7642   $ Sizing
 "CAssFlo_M_OfficeSm_EZn" = 1197.883   $ Sizing
 "CAssFlo_M_OfficeSm_NZn" = 716.8033   $ Sizing
 "CAssFlo_M_OfficeSm_SZn" = 1224.181   $ Sizing
 "CAssFlo_M_OfficeSm_WZn" = 1261.66   $ Sizing
 "CAssFlo_M_Restrm_CZn" = 103.071   $ Sizing
 "CAssFlo_M_StorSm_CZn" = 391.7221   $ Sizing
 "CAssFlo_T_Break_CZn" = 491.9013   $ Sizing
 "CAssFlo_T_Conf_CZn" = 465.3462   $ Sizing
 "CAssFlo_T_CopyRm_CZn" = 144.5028   $ Sizing
 "CAssFlo_T_Cordr_CZn" = 779.9646   $ Sizing
 "CAssFlo_T_Cordr_EZn" = 248.1948   $ Sizing
 "CAssFlo_T_Cordr_NZn" = 153.137   $ Sizing
 "CAssFlo_T_Cordr_SZn" = 240.7115   $ Sizing
 "CAssFlo_T_Cordr_WZn" = 254.0191   $ Sizing
 "CAssFlo_T_LobWait_CZn" = 501.8497   $ Sizing
 "CAssFlo_T_MechElec_CZn" = 170.9565   $ Sizing
 "CAssFlo_T_OfficeOpn_CZn" = 1727.657   $ Sizing
 "CAssFlo_T_OfficeOpn_EZn" = 1676.403   $ Sizing
 "CAssFlo_T_OfficeOpn_NZn" = 1129.147   $ Sizing
 "CAssFlo_T_OfficeOpn_SZn" = 1679.069   $ Sizing
 "CAssFlo_T_OfficeOpn_WZn" = 1790.593   $ Sizing
 "CAssFlo_T_OfficeSm_CZn" = 270.7224   $ Sizing
 "CAssFlo_T_OfficeSm_EZn" = 1212.712   $ Sizing
 "CAssFlo_T_OfficeSm_NZn" = 740.513   $ Sizing
 "CAssFlo_T_OfficeSm_SZn" = 1222.96   $ Sizing
 "CAssFlo_T_OfficeSm_WZn" = 1279.919   $ Sizing
 "CAssFlo_T_Restrm_CZn" = 130.72   $ Sizing
 "CAssFlo_T_StorSm_CZn" = 255.3339   $ Sizing
 "CHRtFlo_Sys_L_Break_C" = 490.6713   $ Sizing
 "CHRtFlo_Sys_L_Conf_C" = 465.5555   $ Sizing
 "CHRtFlo_Sys_L_CopyRm_C" = 150.3166   $ Sizing
 "CHRtFlo_Sys_L_Cordr_C" = 610.4938   $ Sizing
 "CHRtFlo_Sys_L_Cordr_E" = 257.7819   $ Sizing
 "CHRtFlo_Sys_L_Cordr_N" = 129.0777   $ Sizing
 "CHRtFlo_Sys_L_Cordr_S" = 265.8767   $ Sizing
 "CHRtFlo_Sys_L_Cordr_W" = 252.4812   $ Sizing
 "CHRtFlo_Sys_L_LobWait_C" = 476.4973   $ Sizing
 "CHRtFlo_Sys_L_MechElec_C" = 137.5622   $ Sizing
 "CHRtFlo_Sys_L_OfficeOpn_C" = 1728.766   $ Sizing
 "CHRtFlo_Sys_L_OfficeOpn_E" = 1906.212   $ Sizing
 "CHRtFlo_Sys_L_OfficeOpn_N" = 1057.707   $ Sizing
 "CHRtFlo_Sys_L_OfficeOpn_S" = 1912.998   $ Sizing
 "CHRtFlo_Sys_L_OfficeOpn_W" = 1936.094   $ Sizing
 "CHRtFlo_Sys_L_OfficeSm_C" = 243.5284   $ Sizing
 "CHRtFlo_Sys_L_OfficeSm_E" = 1386.276   $ Sizing
 "CHRtFlo_Sys_L_OfficeSm_N" = 699.2536   $ Sizing
 "CHRtFlo_Sys_L_OfficeSm_S" = 1411.774   $ Sizing
 "CHRtFlo_Sys_L_OfficeSm_W" = 1402.843   $ Sizing
 "CHRtFlo_Sys_L_Restrm_C" = 213.3633   $ Sizing
 "CHRtFlo_Sys_L_StorSm_C" = 410.3308   $ Sizing
 "CHRtFlo_Sys_M_Break_C" = 3961.854   $ Sizing
 "CHRtFlo_Sys_M_Conf_C" = 4159.381   $ Sizing
 "CHRtFlo_Sys_M_CopyRm_C" = 1222.594   $ Sizing
 "CHRtFlo_Sys_M_Cordr_C" = 7823.861   $ Sizing
 "CHRtFlo_Sys_M_Cordr_E" = 2465.01   $ Sizing
 "CHRtFlo_Sys_M_Cordr_N" = 1413.712   $ Sizing
 "CHRtFlo_Sys_M_Cordr_S" = 2423.767   $ Sizing
 "CHRtFlo_Sys_M_Cordr_W" = 2210.255   $ Sizing
 "CHRtFlo_Sys_M_LobWait_C" = 4364.256   $ Sizing
 "CHRtFlo_Sys_M_MechElec_C" = 1444.855   $ Sizing
 "CHRtFlo_Sys_M_OfficeOpn_C" = 17044.61   $ Sizing
 "CHRtFlo_Sys_M_OfficeOpn_E" = 16555.17   $ Sizing
 "CHRtFlo_Sys_M_OfficeOpn_N" = 9440.853   $ Sizing
 "CHRtFlo_Sys_M_OfficeOpn_S" = 16449.11   $ Sizing
 "CHRtFlo_Sys_M_OfficeOpn_W" = 16081.95   $ Sizing
 "CHRtFlo_Sys_M_OfficeSm_C" = 2476.692   $ Sizing
 "CHRtFlo_Sys_M_OfficeSm_E" = 11967.53   $ Sizing
 "CHRtFlo_Sys_M_OfficeSm_N" = 6173.093   $ Sizing
 "CHRtFlo_Sys_M_OfficeSm_S" = 12008.89   $ Sizing
 "CHRtFlo_Sys_M_OfficeSm_W" = 11554.71   $ Sizing
 "CHRtFlo_Sys_M_Restrm_C" = 1706.906   $ Sizing
 "CHRtFlo_Sys_M_StorSm_C" = 3552.514   $ Sizing
 "CHRtFlo_Sys_T_Break_C" = 491.9013   $ Sizing
 "CHRtFlo_Sys_T_Conf_C" = 480.7661   $ Sizing
 "CHRtFlo_Sys_T_CopyRm_C" = 144.5028   $ Sizing
 "CHRtFlo_Sys_T_Cordr_C" = 809.8793   $ Sizing
 "CHRtFlo_Sys_T_Cordr_E" = 272.1434   $ Sizing
 "CHRtFlo_Sys_T_Cordr_N" = 153.137   $ Sizing
 "CHRtFlo_Sys_T_Cordr_S" = 274.1941   $ Sizing
 "CHRtFlo_Sys_T_Cordr_W" = 254.0191   $ Sizing
 "CHRtFlo_Sys_T_LobWait_C" = 501.8497   $ Sizing
 "CHRtFlo_Sys_T_MechElec_C" = 214.3469   $ Sizing
 "CHRtFlo_Sys_T_OfficeOpn_C" = 1828.491   $ Sizing
 "CHRtFlo_Sys_T_OfficeOpn_E" = 1888.254   $ Sizing
 "CHRtFlo_Sys_T_OfficeOpn_N" = 1129.147   $ Sizing
 "CHRtFlo_Sys_T_OfficeOpn_S" = 1930.044   $ Sizing
 "CHRtFlo_Sys_T_OfficeOpn_W" = 1864.762   $ Sizing
 "CHRtFlo_Sys_T_OfficeSm_C" = 289.2793   $ Sizing
 "CHRtFlo_Sys_T_OfficeSm_E" = 1397.829   $ Sizing
 "CHRtFlo_Sys_T_OfficeSm_N" = 740.5131   $ Sizing
 "CHRtFlo_Sys_T_OfficeSm_S" = 1438.383   $ Sizing
 "CHRtFlo_Sys_T_OfficeSm_W" = 1369.433   $ Sizing
 "CHRtFlo_Sys_T_Restrm_C" = 213.3633   $ Sizing
 "CHRtFlo_Sys_T_StorSm_C" = 336.4583   $ Sizing
 "CRtdFlo_Sys_L_Break_C" = 490.6713   $ Sizing
 "CRtdFlo_Sys_L_Conf_C" = 465.5555   $ Sizing
 "CRtdFlo_Sys_L_CopyRm_C" = 150.3166   $ Sizing
 "CRtdFlo_Sys_L_Cordr_C" = 554.5132   $ Sizing
 "CRtdFlo_Sys_L_Cordr_E" = 220.6576   $ Sizing
 "CRtdFlo_Sys_L_Cordr_N" = 129.0777   $ Sizing
 "CRtdFlo_Sys_L_Cordr_S" = 219.9278   $ Sizing
 "CRtdFlo_Sys_L_Cordr_W" = 236.1952   $ Sizing
 "CRtdFlo_Sys_L_LobWait_C" = 476.4973   $ Sizing
 "CRtdFlo_Sys_L_MechElec_C" = 120.7909   $ Sizing
 "CRtdFlo_Sys_L_OfficeOpn_C" = 1646.159   $ Sizing
 "CRtdFlo_Sys_L_OfficeOpn_E" = 1588.561   $ Sizing
 "CRtdFlo_Sys_L_OfficeOpn_N" = 1038.258   $ Sizing
 "CRtdFlo_Sys_L_OfficeOpn_S" = 1580.802   $ Sizing
 "CRtdFlo_Sys_L_OfficeOpn_W" = 1741.058   $ Sizing
 "CRtdFlo_Sys_L_OfficeSm_C" = 211.875   $ Sizing
 "CRtdFlo_Sys_L_OfficeSm_E" = 1129.395   $ Sizing
 "CRtdFlo_Sys_L_OfficeSm_N" = 673.6776   $ Sizing
 "CRtdFlo_Sys_L_OfficeSm_S" = 1144.705   $ Sizing
 "CRtdFlo_Sys_L_OfficeSm_W" = 1230.643   $ Sizing
 "CRtdFlo_Sys_L_Restrm_C" = 82.50394   $ Sizing
 "CRtdFlo_Sys_L_StorSm_C" = 377.9149   $ Sizing
 "CRtdFlo_Sys_M_Break_C" = 3961.854   $ Sizing
 "CRtdFlo_Sys_M_Conf_C" = 3714.164   $ Sizing
 "CRtdFlo_Sys_M_CopyRm_C" = 1147.767   $ Sizing
 "CRtdFlo_Sys_M_Cordr_C" = 6618.315   $ Sizing
 "CRtdFlo_Sys_M_Cordr_E" = 2044.484   $ Sizing
 "CRtdFlo_Sys_M_Cordr_N" = 1234.159   $ Sizing
 "CRtdFlo_Sys_M_Cordr_S" = 1991.849   $ Sizing
 "CRtdFlo_Sys_M_Cordr_W" = 2031.215   $ Sizing
 "CRtdFlo_Sys_M_LobWait_C" = 4033.253   $ Sizing
 "CRtdFlo_Sys_M_MechElec_C" = 1198.086   $ Sizing
 "CRtdFlo_Sys_M_OfficeOpn_C" = 14952.5   $ Sizing
 "CRtdFlo_Sys_M_OfficeOpn_E" = 13633.87   $ Sizing
 "CRtdFlo_Sys_M_OfficeOpn_N" = 8830.952   $ Sizing
 "CRtdFlo_Sys_M_OfficeOpn_S" = 13617.12   $ Sizing
 "CRtdFlo_Sys_M_OfficeOpn_W" = 14363.09   $ Sizing
 "CRtdFlo_Sys_M_OfficeSm_C" = 2118.114   $ Sizing
 "CRtdFlo_Sys_M_OfficeSm_E" = 9583.064   $ Sizing
 "CRtdFlo_Sys_M_OfficeSm_N" = 5734.426   $ Sizing
 "CRtdFlo_Sys_M_OfficeSm_S" = 9793.45   $ Sizing
 "CRtdFlo_Sys_M_OfficeSm_W" = 10093.28   $ Sizing
 "CRtdFlo_Sys_M_Restrm_C" = 824.5682   $ Sizing
 "CRtdFlo_Sys_M_StorSm_C" = 3133.777   $ Sizing
 "CRtdFlo_Sys_T_Break_C" = 491.9013   $ Sizing
 "CRtdFlo_Sys_T_Conf_C" = 465.3462   $ Sizing
 "CRtdFlo_Sys_T_CopyRm_C" = 144.5028   $ Sizing
 "CRtdFlo_Sys_T_Cordr_C" = 779.9646   $ Sizing
 "CRtdFlo_Sys_T_Cordr_E" = 248.1948   $ Sizing
 "CRtdFlo_Sys_T_Cordr_N" = 153.137   $ Sizing
 "CRtdFlo_Sys_T_Cordr_S" = 240.7115   $ Sizing
 "CRtdFlo_Sys_T_Cordr_W" = 254.0191   $ Sizing
 "CRtdFlo_Sys_T_LobWait_C" = 501.8497   $ Sizing
 "CRtdFlo_Sys_T_MechElec_C" = 170.9565   $ Sizing
 "CRtdFlo_Sys_T_OfficeOpn_C" = 1727.657   $ Sizing
 "CRtdFlo_Sys_T_OfficeOpn_E" = 1676.403   $ Sizing
 "CRtdFlo_Sys_T_OfficeOpn_N" = 1129.147   $ Sizing
 "CRtdFlo_Sys_T_OfficeOpn_S" = 1679.069   $ Sizing
 "CRtdFlo_Sys_T_OfficeOpn_W" = 1790.593   $ Sizing
 "CRtdFlo_Sys_T_OfficeSm_C" = 270.7224   $ Sizing
 "CRtdFlo_Sys_T_OfficeSm_E" = 1212.712   $ Sizing
 "CRtdFlo_Sys_T_OfficeSm_N" = 740.5131   $ Sizing
 "CRtdFlo_Sys_T_OfficeSm_S" = 1222.96   $ Sizing
 "CRtdFlo_Sys_T_OfficeSm_W" = 1279.919   $ Sizing
 "CRtdFlo_Sys_T_Restrm_C" = 130.72   $ Sizing
 "CRtdFlo_Sys_T_StorSm_C" = 255.3339   $ Sizing
 "CSupFlo_Sys_L_Break_C" = 490.6713   $ Sizing
 "CSupFlo_Sys_L_Conf_C" = 465.5555   $ Sizing
 "CSupFlo_Sys_L_CopyRm_C" = 150.3166   $ Sizing
 "CSupFlo_Sys_L_Cordr_C" = 554.5132   $ Sizing
 "CSupFlo_Sys_L_Cordr_E" = 220.6576   $ Sizing
 "CSupFlo_Sys_L_Cordr_N" = 129.0777   $ Sizing
 "CSupFlo_Sys_L_Cordr_S" = 219.9278   $ Sizing
 "CSupFlo_Sys_L_Cordr_W" = 236.1952   $ Sizing
 "CSupFlo_Sys_L_LobWait_C" = 476.4973   $ Sizing
 "CSupFlo_Sys_L_MechElec_C" = 120.7909   $ Sizing
 "CSupFlo_Sys_L_OfficeOpn_C" = 1646.159   $ Sizing
 "CSupFlo_Sys_L_OfficeOpn_E" = 1588.561   $ Sizing
 "CSupFlo_Sys_L_OfficeOpn_N" = 1038.258   $ Sizing
 "CSupFlo_Sys_L_OfficeOpn_S" = 1580.802   $ Sizing
 "CSupFlo_Sys_L_OfficeOpn_W" = 1741.058   $ Sizing
 "CSupFlo_Sys_L_OfficeSm_C" = 211.875   $ Sizing
 "CSupFlo_Sys_L_OfficeSm_E" = 1129.395   $ Sizing
 "CSupFlo_Sys_L_OfficeSm_N" = 673.6776   $ Sizing
 "CSupFlo_Sys_L_OfficeSm_S" = 1144.705   $ Sizing
 "CSupFlo_Sys_L_OfficeSm_W" = 1230.643   $ Sizing
 "CSupFlo_Sys_L_Restrm_C" = 82.50394   $ Sizing
 "CSupFlo_Sys_L_StorSm_C" = 377.9149   $ Sizing
 "CSupFlo_Sys_M_Break_C" = 3961.854   $ Sizing
 "CSupFlo_Sys_M_Conf_C" = 3714.164   $ Sizing
 "CSupFlo_Sys_M_CopyRm_C" = 1147.767   $ Sizing
 "CSupFlo_Sys_M_Cordr_C" = 6618.315   $ Sizing
 "CSupFlo_Sys_M_Cordr_E" = 2044.484   $ Sizing
 "CSupFlo_Sys_M_Cordr_N" = 1234.159   $ Sizing
 "CSupFlo_Sys_M_Cordr_S" = 1991.849   $ Sizing
 "CSupFlo_Sys_M_Cordr_W" = 2031.215   $ Sizing
 "CSupFlo_Sys_M_LobWait_C" = 4033.253   $ Sizing
 "CSupFlo_Sys_M_MechElec_C" = 1198.086   $ Sizing
 "CSupFlo_Sys_M_OfficeOpn_C" = 14952.5   $ Sizing
 "CSupFlo_Sys_M_OfficeOpn_E" = 13633.87   $ Sizing
 "CSupFlo_Sys_M_OfficeOpn_N" = 8830.952   $ Sizing
 "CSupFlo_Sys_M_OfficeOpn_S" = 13617.12   $ Sizing
 "CSupFlo_Sys_M_OfficeOpn_W" = 14363.09   $ Sizing
 "CSupFlo_Sys_M_OfficeSm_C" = 2118.114   $ Sizing
 "CSupFlo_Sys_M_OfficeSm_E" = 9583.064   $ Sizing
 "CSupFlo_Sys_M_OfficeSm_N" = 5734.426   $ Sizing
 "CSupFlo_Sys_M_OfficeSm_S" = 9793.45   $ Sizing
 "CSupFlo_Sys_M_OfficeSm_W" = 10093.28   $ Sizing
 "CSupFlo_Sys_M_Restrm_C" = 824.5682   $ Sizing
 "CSupFlo_Sys_M_StorSm_C" = 3133.777   $ Sizing
 "CSupFlo_Sys_T_Break_C" = 491.9013   $ Sizing
 "CSupFlo_Sys_T_Conf_C" = 465.3462   $ Sizing
 "CSupFlo_Sys_T_CopyRm_C" = 144.5028   $ Sizing
 "CSupFlo_Sys_T_Cordr_C" = 779.9646   $ Sizing
 "CSupFlo_Sys_T_Cordr_E" = 248.1948   $ Sizing
 "CSupFlo_Sys_T_Cordr_N" = 153.137   $ Sizing
 "CSupFlo_Sys_T_Cordr_S" = 240.7115   $ Sizing
 "CSupFlo_Sys_T_Cordr_W" = 254.0191   $ Sizing
 "CSupFlo_Sys_T_LobWait_C" = 501.8497   $ Sizing
 "CSupFlo_Sys_T_MechElec_C" = 170.9565   $ Sizing
 "CSupFlo_Sys_T_OfficeOpn_C" = 1727.657   $ Sizing
 "CSupFlo_Sys_T_OfficeOpn_E" = 1676.403   $ Sizing
 "CSupFlo_Sys_T_OfficeOpn_N" = 1129.147   $ Sizing
 "CSupFlo_Sys_T_OfficeOpn_S" = 1679.069   $ Sizing
 "CSupFlo_Sys_T_OfficeOpn_W" = 1790.593   $ Sizing
 "CSupFlo_Sys_T_OfficeSm_C" = 270.7224   $ Sizing
 "CSupFlo_Sys_T_OfficeSm_E" = 1212.712   $ Sizing
 "CSupFlo_Sys_T_OfficeSm_N" = 740.5131   $ Sizing
 "CSupFlo_Sys_T_OfficeSm_S" = 1222.96   $ Sizing
 "CSupFlo_Sys_T_OfficeSm_W" = 1279.919   $ Sizing
 "CSupFlo_Sys_T_Restrm_C" = 130.72   $ Sizing
 "CSupFlo_Sys_T_StorSm_C" = 255.3339   $ Sizing
 "ClCap_Sys_L_Break_C" = 16579.69   $ Sizing
 "ClCap_Sys_L_Conf_C" = 20021.31   $ Sizing
 "ClCap_Sys_L_CopyRm_C" = 5079.17   $ Sizing
 "ClCap_Sys_L_Cordr_C" = 18736.9   $ Sizing
 "ClCap_Sys_L_Cordr_E" = 7455.979   $ Sizing
 "ClCap_Sys_L_Cordr_N" = 4361.51   $ Sizing
 "ClCap_Sys_L_Cordr_S" = 7431.318   $ Sizing
 "ClCap_Sys_L_Cordr_W" = 7980.992   $ Sizing
 "ClCap_Sys_L_LobWait_C" = 16100.76   $ Sizing
 "ClCap_Sys_L_MechElec_C" = 4081.501   $ Sizing
 "ClCap_Sys_L_OfficeOpn_C" = 55623.39   $ Sizing
 "ClCap_Sys_L_OfficeOpn_E" = 53677.16   $ Sizing
 "ClCap_Sys_L_OfficeOpn_N" = 35082.56   $ Sizing
 "ClCap_Sys_L_OfficeOpn_S" = 53415   $ Sizing
 "ClCap_Sys_L_OfficeOpn_W" = 58830.01   $ Sizing
 "ClCap_Sys_L_OfficeSm_C" = 7159.218   $ Sizing
 "ClCap_Sys_L_OfficeSm_E" = 38162.04   $ Sizing
 "ClCap_Sys_L_OfficeSm_N" = 22763.44   $ Sizing
 "ClCap_Sys_L_OfficeSm_S" = 38679.36   $ Sizing
 "ClCap_Sys_L_OfficeSm_W" = 41583.2   $ Sizing
 "ClCap_Sys_L_Restrm_C" = 2787.793   $ Sizing
 "ClCap_Sys_L_StorSm_C" = 12769.67   $ Sizing
 "ClCap_Sys_M_Break_C" = 133870.3   $ Sizing
 "ClCap_Sys_M_Conf_C" = 159728.4   $ Sizing
 "ClCap_Sys_M_CopyRm_C" = 38782.83   $ Sizing
 "ClCap_Sys_M_Cordr_C" = 223631.6   $ Sizing
 "ClCap_Sys_M_Cordr_E" = 69082.72   $ Sizing
 "ClCap_Sys_M_Cordr_N" = 41701.98   $ Sizing
 "ClCap_Sys_M_Cordr_S" = 67304.19   $ Sizing
 "ClCap_Sys_M_Cordr_W" = 68634.36   $ Sizing
 "ClCap_Sys_M_LobWait_C" = 136282.9   $ Sizing
 "ClCap_Sys_M_MechElec_C" = 40483.09   $ Sizing
 "ClCap_Sys_M_OfficeOpn_C" = 505242   $ Sizing
 "ClCap_Sys_M_OfficeOpn_E" = 460685.9   $ Sizing
 "ClCap_Sys_M_OfficeOpn_N" = 298396.2   $ Sizing
 "ClCap_Sys_M_OfficeOpn_S" = 460120   $ Sizing
 "ClCap_Sys_M_OfficeOpn_W" = 485326   $ Sizing
 "ClCap_Sys_M_OfficeSm_C" = 71570.66   $ Sizing
 "ClCap_Sys_M_OfficeSm_E" = 323809.9   $ Sizing
 "ClCap_Sys_M_OfficeSm_N" = 193765.2   $ Sizing
 "ClCap_Sys_M_OfficeSm_S" = 330918.8   $ Sizing
 "ClCap_Sys_M_OfficeSm_W" = 341050   $ Sizing
 "ClCap_Sys_M_Restrm_C" = 27862.01   $ Sizing
 "ClCap_Sys_M_StorSm_C" = 105889.7   $ Sizing
 "ClCap_Sys_T_Break_C" = 16621.25   $ Sizing
 "ClCap_Sys_T_Conf_C" = 20012.31   $ Sizing
 "ClCap_Sys_T_CopyRm_C" = 4882.724   $ Sizing
 "ClCap_Sys_T_Cordr_C" = 26354.86   $ Sizing
 "ClCap_Sys_T_Cordr_E" = 8386.456   $ Sizing
 "ClCap_Sys_T_Cordr_N" = 5174.47   $ Sizing
 "ClCap_Sys_T_Cordr_S" = 8133.596   $ Sizing
 "ClCap_Sys_T_Cordr_W" = 8583.257   $ Sizing
 "ClCap_Sys_T_LobWait_C" = 16957.41   $ Sizing
 "ClCap_Sys_T_MechElec_C" = 5776.586   $ Sizing
 "ClCap_Sys_T_OfficeOpn_C" = 58377.21   $ Sizing
 "ClCap_Sys_T_OfficeOpn_E" = 56645.33   $ Sizing
 "ClCap_Sys_T_OfficeOpn_N" = 38153.67   $ Sizing
 "ClCap_Sys_T_OfficeOpn_S" = 56735.44   $ Sizing
 "ClCap_Sys_T_OfficeOpn_W" = 60503.79   $ Sizing
 "ClCap_Sys_T_OfficeSm_C" = 9147.659   $ Sizing
 "ClCap_Sys_T_OfficeSm_E" = 40977.29   $ Sizing
 "ClCap_Sys_T_OfficeSm_N" = 25021.8   $ Sizing
 "ClCap_Sys_T_OfficeSm_S" = 41323.58   $ Sizing
 "ClCap_Sys_T_OfficeSm_W" = 43248.22   $ Sizing
 "ClCap_Sys_T_Restrm_C" = 4417.002   $ Sizing
 "ClCap_Sys_T_StorSm_C" = 8627.684   $ Sizing
 "HtCap_Sys_L_Break_C" = -25399.21   $ Sizing
 "HtCap_Sys_L_Conf_C" = -25138.7   $ Sizing
 "HtCap_Sys_L_CopyRm_C" = -8888.679   $ Sizing
 "HtCap_Sys_L_Cordr_C" = -25945.22   $ Sizing
 "HtCap_Sys_L_Cordr_E" = -8746.253   $ Sizing
 "HtCap_Sys_L_Cordr_N" = -5143.739   $ Sizing
 "HtCap_Sys_L_Cordr_S" = -8928.719   $ Sizing
 "HtCap_Sys_L_Cordr_W" = -8586.525   $ Sizing
 "HtCap_Sys_L_LobWait_C" = -24269.3   $ Sizing
 "HtCap_Sys_L_MechElec_C" = -5957.091   $ Sizing
 "HtCap_Sys_L_OfficeOpn_C" = -83564.77   $ Sizing
 "HtCap_Sys_L_OfficeOpn_E" = -92266.84   $ Sizing
 "HtCap_Sys_L_OfficeOpn_N" = -37622.89   $ Sizing
 "HtCap_Sys_L_OfficeOpn_S" = -92443.25   $ Sizing
 "HtCap_Sys_L_OfficeOpn_W" = -62116.64   $ Sizing
 "HtCap_Sys_L_OfficeSm_C" = -11748.84   $ Sizing
 "HtCap_Sys_L_OfficeSm_E" = -43088.2   $ Sizing
 "HtCap_Sys_L_OfficeSm_N" = -24859.94   $ Sizing
 "HtCap_Sys_L_OfficeSm_S" = -43902.44   $ Sizing
 "HtCap_Sys_L_OfficeSm_W" = -44616.48   $ Sizing
 "HtCap_Sys_L_Restrm_C" = -7682.502   $ Sizing
 "HtCap_Sys_L_StorSm_C" = -16844.82   $ Sizing
 "HtCap_Sys_M_Break_C" = -195870   $ Sizing
 "HtCap_Sys_M_Conf_C" = -210974.8   $ Sizing
 "HtCap_Sys_M_CopyRm_C" = -63796.82   $ Sizing
 "HtCap_Sys_M_Cordr_C" = -289055.8   $ Sizing
 "HtCap_Sys_M_Cordr_E" = -81140.95   $ Sizing
 "HtCap_Sys_M_Cordr_N" = -51387.87   $ Sizing
 "HtCap_Sys_M_Cordr_S" = -79522.26   $ Sizing
 "HtCap_Sys_M_Cordr_W" = -73893.55   $ Sizing
 "HtCap_Sys_M_LobWait_C" = -197138.5   $ Sizing
 "HtCap_Sys_M_MechElec_C" = -57275.39   $ Sizing
 "HtCap_Sys_M_OfficeOpn_C" = -821032.6   $ Sizing
 "HtCap_Sys_M_OfficeOpn_E" = -801338.4   $ Sizing
 "HtCap_Sys_M_OfficeOpn_N" = -329263   $ Sizing
 "HtCap_Sys_M_OfficeOpn_S" = -794547.6   $ Sizing
 "HtCap_Sys_M_OfficeOpn_W" = -512251.1   $ Sizing
 "HtCap_Sys_M_OfficeSm_C" = -120047.1   $ Sizing
 "HtCap_Sys_M_OfficeSm_E" = -370406.7   $ Sizing
 "HtCap_Sys_M_OfficeSm_N" = -214667.5   $ Sizing
 "HtCap_Sys_M_OfficeSm_S" = -377494.9   $ Sizing
 "HtCap_Sys_M_OfficeSm_W" = -365835.4   $ Sizing
 "HtCap_Sys_M_Restrm_C" = -66473.24   $ Sizing
 "HtCap_Sys_M_StorSm_C" = -140954.3   $ Sizing
 "HtCap_Sys_T_Break_C" = -26089.45   $ Sizing
 "HtCap_Sys_T_Conf_C" = -26087.25   $ Sizing
 "HtCap_Sys_T_CopyRm_C" = -8224.273   $ Sizing
 "HtCap_Sys_T_Cordr_C" = -34017.01   $ Sizing
 "HtCap_Sys_T_Cordr_E" = -10363.54   $ Sizing
 "HtCap_Sys_T_Cordr_N" = -6495.902   $ Sizing
 "HtCap_Sys_T_Cordr_S" = -10072.72   $ Sizing
 "HtCap_Sys_T_Cordr_W" = -9832.196   $ Sizing
 "HtCap_Sys_T_LobWait_C" = -24636.48   $ Sizing
 "HtCap_Sys_T_MechElec_C" = -8104.461   $ Sizing
 "HtCap_Sys_T_OfficeOpn_C" = -87929.39   $ Sizing
 "HtCap_Sys_T_OfficeOpn_E" = -67910.01   $ Sizing
 "HtCap_Sys_T_OfficeOpn_N" = -45288.52   $ Sizing
 "HtCap_Sys_T_OfficeOpn_S" = -67858.08   $ Sizing
 "HtCap_Sys_T_OfficeOpn_W" = -67075.92   $ Sizing
 "HtCap_Sys_T_OfficeSm_C" = -11565.59   $ Sizing
 "HtCap_Sys_T_OfficeSm_E" = -49885.82   $ Sizing
 "HtCap_Sys_T_OfficeSm_N" = -29314.41   $ Sizing
 "HtCap_Sys_T_OfficeSm_S" = -51022.77   $ Sizing
 "HtCap_Sys_T_OfficeSm_W" = -49297.21   $ Sizing
 "HtCap_Sys_T_Restrm_C" = -8484.746   $ Sizing
 "HtCap_Sys_T_StorSm_C" = -16085.14   $ Sizing
..

##include Templates\OfL_DX_SZ.inp
END ..
COMPUTE ..
STOP ..
