
Start DOESIM : Storage capacity =  75000000
Starting LOADS   : SAVE-FILES is On , weather is CZ01ARCATA-AP       
Finished LOADS    BDL  1 : Memory (wds) =    391941, Time (sec) =    1.84
Starting REPORT  
Finished REPORT   BDL  1 : Memory (wds) =    784879, Time (sec) =    0.86
Starting HVAC    : SAVE-FILES is On , weather is CZ01ARCATA-AP       
*** ERRORS or WARNINGS from HVAC     program. Examine output file for details.
Finished HVAC     BDL  1 : Memory (wds) =    676482, Time (sec) =    7.75
Starting REPORT  
Finished REPORT   BDL  1 : Memory (wds) =   1153761, Time (sec) =    0.76
Starting HOURLY-R
Finished HOURLY-R BDL  1 : Memory (wds) =   1519799, Time (sec) =    0.12
Starting ECONOMIC
Finished ECONOMIC BDL  1 : Memory (wds) =      1034, Time (sec) =    0.03
End   DOESIM : Total elapsed time of     11.4 seconds
RUN COMPLETE
