INPUT ..

##fileprefix C:\Users\jglasskatz\MASControl3\
##set1 IsSizing FALSE
##set1 CoolType DX
##set1 HeatType ELECTRIC
##set1 EU_HrRepVar 1
##set1 BldgVint 1996
##set1 BldgLoc CZ01

 ##set1 mBFMult 1   $ IP Tech: RefgChg-NRes-Std

PARAMETER
 "AltFactor" = 1.00753   $ IP Non-Tech
 "BldgEconoFlag" = 1   $ IP Non-Tech
 "Break_EWSF" = 1   $ IP Non-Tech
 "Break_LWSF" = 1.1   $ IP Non-Tech
 "CDD_DBHi10" = 65   $ IP Non-Tech
 "CDD_DBHi7" = 68   $ IP Non-Tech
 "CDD_DBHi8" = 66   $ IP Non-Tech
 "CDD_DBHi9" = 77   $ IP Non-Tech
 "CDD_DBRange10" = 17   $ IP Non-Tech
 "CDD_DBRange7" = 11   $ IP Non-Tech
 "CDD_DBRange8" = 10   $ IP Non-Tech
 "CDD_DBRange9" = 29   $ IP Non-Tech
 "CDD_Day10" = 15   $ IP Non-Tech
 "CDD_Day7" = 16   $ IP Non-Tech
 "CDD_Day8" = 20   $ IP Non-Tech
 "CDD_Day9" = 17   $ IP Non-Tech
 "CDD_HrHi10" = 12   $ IP Non-Tech
 "CDD_HrHi7" = 12   $ IP Non-Tech
 "CDD_HrHi8" = 13   $ IP Non-Tech
 "CDD_HrHi9" = 17   $ IP Non-Tech
 "CDD_HrLo10" = 6   $ IP Non-Tech
 "CDD_HrLo7" = 3   $ IP Non-Tech
 "CDD_HrLo8" = 8   $ IP Non-Tech
 "CDD_HrLo9" = 4   $ IP Non-Tech
 "CDD_WB10" = 57.53039551   $ IP Non-Tech
 "CDD_WB7" = 59.29250717   $ IP Non-Tech
 "CDD_WB8" = 60.75350189   $ IP Non-Tech
 "CDD_WB9" = 61.08643341   $ IP Non-Tech
 "CZ_Category" = Tem   $ IP Non-Tech
 "ChwVintEconoFlag" = 1   $ IP Non-Tech
 "Conference_EWSF" = 1.05   $ IP Non-Tech
 "Conference_LWSF" = 1.4   $ IP Non-Tech
 "CoolSetT" = 45   $ IP Non-Tech
 "CoolType" = DX   $ IP Non-Tech
 "CopyRoom_EWSF" = 1.575   $ IP Non-Tech
 "CopyRoom_LWSF" = 1.3   $ IP Non-Tech
 "CorridorStairway_EWSF" = 0.21   $ IP Non-Tech
 "CorridorStairway_LWSF" = 0.6   $ IP Non-Tech
 "DesCoolT" = 75   $ IP Non-Tech
 "DesHeatT" = 73   $ IP Non-Tech
 "EconoEnthLimit" = 28   $ IP Non-Tech
 "EconoTempLimit" = 70   $ IP Non-Tech
 "Elevation" = 203   $ IP Non-Tech
 "HDD_CloudAmt1" = 0   $ IP Non-Tech
 "HDD_DBHi1" = 53   $ IP Non-Tech
 "HDD_DBRange1" = 20   $ IP Non-Tech
 "HDD_Day1" = 15   $ IP Non-Tech
 "HDD_HrHi1" = 14   $ IP Non-Tech
 "HDD_HrLo1" = 6   $ IP Non-Tech
 "HDD_WB1" = 42.3   $ IP Non-Tech
 "HDD_WindSpd1" = 12.7   $ IP Non-Tech
 "HeatSrc" = ELECTRIC   $ IP Non-Tech
 "HeatSrcTU" = HEAT-PUMP   $ IP Non-Tech
 "HeatType" = Elec   $ IP Non-Tech
 "HeatTypeTU" = HEAT-PUMP   $ IP Non-Tech
 "IndoorFanMode" = CONTINUOUS   $ IP Non-Tech
 "KT_TransferAir" = No   $ IP Non-Tech
 "Latitude" = 40.8   $ IP Non-Tech
 "LobbyWaiting_EWSF" = 0.5125   $ IP Non-Tech
 "LobbyWaiting_LWSF" = 1.3   $ IP Non-Tech
 "Longitude" = 124.2   $ IP Non-Tech
 "LtgMsrApplic" = ALL   $ Msr TechID: NonResLtgRefMsr-HB
 "LtgSav_CFL" = 0   $ Msr TechID: NonResLtgRefMsr-HB
 "LtgSav_EX" = 0   $ Msr TechID: NonResLtgRefMsr-HB
 "LtgSav_HB" = 0.3   $ Msr TechID: NonResLtgRefMsr-HB
 "LtgSav_LF" = 0   $ Msr TechID: NonResLtgRefMsr-HB
 "LtgSav_SP" = 0   $ Msr TechID: NonResLtgRefMsr-HB
 "MZFanMechEff" = 0.58   $ IP Non-Tech
 "MZHasRetFan" = FALSE   $ IP Non-Tech
 "MZ_RFanWPerCfm" = 0.37   $ IP Non-Tech
 "MZ_SFanWPerCfm" = 0.71   $ IP Non-Tech
 "MZ_SupFanStatic" = 4   $ IP Non-Tech
 "MaxSupT_MZ" = 95   $ IP Non-Tech
 "MaxSupT_SZ" = 100   $ IP Non-Tech
 "MaxSupT_TU" = 100   $ IP Non-Tech
 "MechElecRoom_EWSF" = 0.21   $ IP Non-Tech
 "MechElecRoom_LWSF" = 0.7   $ IP Non-Tech
 "MinCfmPerSF" = 0.4   $ IP Non-Tech
 "MinSupT" = 55   $ IP Non-Tech
 "NumBlrs" = 2   $ IP Non-Tech
 "OccCoolT" = 76   $ IP Non-Tech
 "OccHeatT" = 72   $ IP Non-Tech
 "OfficeOpen_EWSF" = 1.575   $ IP Non-Tech
 "OfficeOpen_LWSF" = 1.2   $ IP Non-Tech
 "OfficeSmall_EWSF" = 1.575   $ IP Non-Tech
 "OfficeSmall_LWSF" = 1.3   $ IP Non-Tech
 "PkgDxVintEconoFlag" = 0   $ IP Non-Tech
 "ReheatDeltaT" = 39   $ IP Non-Tech
 "Restroom_EWSF" = 0.21   $ IP Non-Tech
 "Restroom_LWSF" = 0.6   $ IP Non-Tech
 "SZFanMechEff" = 0.58   $ IP Non-Tech
 "SZHasRetFan" = FALSE   $ IP Non-Tech
 "SZ_Is_2Spd" = FALSE   $ IP Non-Tech
 "SZ_SFanWPerCfm" = 0.46   $ IP Non-Tech
 "StorageSmlCond_EWSF" = 0.21   $ IP Non-Tech
 "StorageSmlCond_LWSF" = 0.6   $ IP Non-Tech
 "T24GlzTbl" = CZTbl   $ IP Non-Tech
 "TermUnitFanMechEff" = 1   $ IP Non-Tech
 "TermUnitFanMode" = INTERMITTENT   $ IP Non-Tech
 "TwrSetpt" = 80   $ IP Non-Tech
 "UnocCoolT" = 86   $ IP Non-Tech
 "UnocHeatT" = 62   $ IP Non-Tech
 "VAVMinFlow" = 0.3   $ IP Non-Tech
 "WlhpVintEconoFlag" = 0   $ IP Non-Tech
 "EconoCtrl" = OA-TEMP   $ IP Tech: AirEcono-OATemp
 "MaxOAFrac" = 0.85   $ IP Tech: AirEcono-OATemp
 "UseEconoVintApplic" = FALSE   $ IP Tech: AirEcono-OATemp
 "DuctDT" = 2   $ IP Tech: ComDuctInsul-2
 "DuctAirLoss" = 0   $ IP Tech: ComDuctLeak-0
 "DuctLossOAFrac" = 0   $ IP Tech: ComDuctLeak-0
 "ComRoofInsCalc" = FromUo   $ IP Tech: ComRoofIns-Hvy-0.06
 "ComRoofInsR" = -999   $ IP Tech: ComRoofIns-Hvy-0.06
 "ComRoofUo" = 0.06   $ IP Tech: ComRoofIns-Hvy-0.06
 "ComEWInsCalc" = FromUo   $ IP Tech: ComWallIns-MFrm-0.13
 "ComEWInsR" = -999   $ IP Tech: ComWallIns-MFrm-0.13
 "ComEWUo" = 0.13   $ IP Tech: ComWallIns-MFrm-0.13
 "ComN_SHGC" = 0.77   $ IP Tech: NResWin-ComN-0.77-0.77
 "ComN_UFactor" = 0.77   $ IP Tech: NResWin-ComN-0.77-0.77
 "ComN_VisTrans" = 0.81   $ IP Tech: NResWin-ComN-0.77-0.77
 "ComN_WinCode" = G2000   $ IP Tech: NResWin-ComN-0.77-0.77
 "ComN_WinFrmFrac" = 0.17   $ IP Tech: NResWin-ComN-0.77-0.77
 "ComN_WinFrmU" = 1   $ IP Tech: NResWin-ComN-0.77-0.77
 "ComO_SHGC" = 0.5   $ IP Tech: NResWin-ComO-0.77-0.5
 "ComO_UFactor" = 0.77   $ IP Tech: NResWin-ComO-0.77-0.5
 "ComO_VisTrans" = 0.77   $ IP Tech: NResWin-ComO-0.77-0.5
 "ComO_WinCode" = G2630   $ IP Tech: NResWin-ComO-0.77-0.5
 "ComO_WinFrmFrac" = 0.17   $ IP Tech: NResWin-ComO-0.77-0.5
 "ComO_WinFrmU" = 1   $ IP Tech: NResWin-ComO-0.77-0.5
 "PV_BF_fFlow" = PVV240to760_BF_fFlow   $ IP Tech: PVVAC-H-240to760-E10
 "PV_BF_fT" = PVV240to760_BF_fT   $ IP Tech: PVVAC-H-240to760-E10
 "PV_CEIR_fPLR" = PVV240to760_CEIR_fPLR   $ IP Tech: PVVAC-H-240to760-E10
 "PV_CLoss_fPLR" = PVV240to760_CLoss_fPLR   $ IP Tech: PVVAC-H-240to760-E10
 "PV_COP" = -1   $ IP Tech: PVVAC-H-240to760-E10
 "PV_COP47" = -1   $ IP Tech: PVVAC-H-240to760-E10
 "PV_CfmPerBtuh" = 0.02917   $ IP Tech: PVVAC-H-240to760-E10
 "PV_ClCap_fT" = PVV240to760_ClCap_fT   $ IP Tech: PVVAC-H-240to760-E10
 "PV_ClSH_fT" = PVV240to760_ClSH_fT   $ IP Tech: PVVAC-H-240to760-E10
 "PV_CoilBF" = 0.125   $ IP Tech: PVVAC-H-240to760-E10
 "PV_CondWPerBtuh" = 0   $ IP Tech: PVVAC-H-240to760-E10
 "PV_CoolSensCap" = 0.708   $ IP Tech: PVVAC-H-240to760-E10
 "PV_CoolingEIR" = 0.27165   $ IP Tech: PVVAC-H-240to760-E10
 "PV_CrnkEIR" = 0.0027   $ IP Tech: PVVAC-H-240to760-E10
 "PV_CrnkMaxT" = 50   $ IP Tech: PVVAC-H-240to760-E10
 "PV_DXType" = PVV   $ IP Tech: PVVAC-H-240to760-E10
 "PV_EER" = 9.17   $ IP Tech: PVVAC-H-240to760-E10
 "PV_EIR_fT" = PVV240to760_EIR_fT   $ IP Tech: PVVAC-H-240to760-E10
 "PV_FanEirPlr" = NA   $ IP Tech: PVVAC-H-240to760-E10
 "PV_FanWPerCfm" = 0.736   $ IP Tech: PVVAC-H-240to760-E10
 "PV_HIR_fT" = DEFAULT   $ IP Tech: PVVAC-H-240to760-E10
 "PV_HtCap_fT" = DEFAULT   $ IP Tech: PVVAC-H-240to760-E10
 "PV_HtCoolCapRatio" = -1   $ IP Tech: PVVAC-H-240to760-E10
 "PV_HtgEIR" = -1   $ IP Tech: PVVAC-H-240to760-E10
 "PV_HtgFuel" = HW   $ IP Tech: PVVAC-H-240to760-E10
 "PV_IEER" = 11.44   $ IP Tech: PVVAC-H-240to760-E10
 "PV_LowSpdCapRatio" = 0.17   $ IP Tech: PVVAC-H-240to760-E10
 "PV_LowSpdCfmRatio" = 0.24   $ IP Tech: PVVAC-H-240to760-E10
 "PV_NominalCap" = 40   $ IP Tech: PVVAC-H-240to760-E10
 "PV_NumStages" = 1   $ IP Tech: PVVAC-H-240to760-E10
 "PV_RatedEER" = 10   $ IP Tech: PVVAC-H-240to760-E10
 "PV_RatedSupMtrClass" = HiEff   $ IP Tech: PVVAC-H-240to760-E10
 "PV_SizeRange" = 240to760   $ IP Tech: PVVAC-H-240to760-E10
 "PV_SubType" = AC   $ IP Tech: PVVAC-H-240to760-E10
 "PV_SupMotEff" = 0.91   $ IP Tech: PVVAC-H-240to760-E10
 "PV_Tier" = 0   $ IP Tech: PVVAC-H-240to760-E10
 "PV_TotCoolCap" = 485760   $ IP Tech: PVVAC-H-240to760-E10
 "BF_fFlow" = PSZ65to135_BF_fFlow   $ IP Tech: PkgAC1SpH-65to135-E10
 "BF_fT" = PSZ65to135_BF_fT   $ IP Tech: PkgAC1SpH-65to135-E10
 "CEIR_fPLR" = PSZ65to135_CEIR_fPLR   $ IP Tech: PkgAC1SpH-65to135-E10
 "CLoss_fPLR" = PSZ65to135_CLoss_fPLR   $ IP Tech: PkgAC1SpH-65to135-E10
 "COP" = -1   $ IP Tech: PkgAC1SpH-65to135-E10
 "COP47" = -1   $ IP Tech: PkgAC1SpH-65to135-E10
 "CfmPerBtuh" = 0.02917   $ IP Tech: PkgAC1SpH-65to135-E10
 "ClCap_fT" = PSZ65to135_ClCap_fT   $ IP Tech: PkgAC1SpH-65to135-E10
 "ClSH_fT" = PSZ65to135_ClSH_fT   $ IP Tech: PkgAC1SpH-65to135-E10
 "CoilBF" = 0.114   $ IP Tech: PkgAC1SpH-65to135-E10
 "CondWPerBtuh" = 0   $ IP Tech: PkgAC1SpH-65to135-E10
 "CoolSensCap" = 0.663   $ IP Tech: PkgAC1SpH-65to135-E10
 "CoolingEIR" = 0.29745   $ IP Tech: PkgAC1SpH-65to135-E10
 "CrnkEIR" = 0.01   $ IP Tech: PkgAC1SpH-65to135-E10
 "CrnkMaxT" = 50   $ IP Tech: PkgAC1SpH-65to135-E10
 "DXType" = Pkg   $ IP Tech: PkgAC1SpH-65to135-E10
 "EER" = 9.67   $ IP Tech: PkgAC1SpH-65to135-E10
 "EIR_fT" = PSZ65to135_EIR_fT   $ IP Tech: PkgAC1SpH-65to135-E10
 "FanEirPlr" = TwoSpeedFan   $ IP Tech: PkgAC1SpH-65to135-E10
 "FanWPerCfm" = 0.412   $ IP Tech: PkgAC1SpH-65to135-E10
 "HIR_fT" = DEFAULT   $ IP Tech: PkgAC1SpH-65to135-E10
 "HtCap_fT" = DEFAULT   $ IP Tech: PkgAC1SpH-65to135-E10
 "HtCoolCapRatio" = -1   $ IP Tech: PkgAC1SpH-65to135-E10
 "HtgEIR" = -1   $ IP Tech: PkgAC1SpH-65to135-E10
 "HtgFuel" = Gas   $ IP Tech: PkgAC1SpH-65to135-E10
 "IEER" = 11.87   $ IP Tech: PkgAC1SpH-65to135-E10
 "LowSpdCapRatio" = 0.5   $ IP Tech: PkgAC1SpH-65to135-E10
 "LowSpdCfmRatio" = 0.66   $ IP Tech: PkgAC1SpH-65to135-E10
 "NominalCap" = 15   $ IP Tech: PkgAC1SpH-65to135-E10
 "NumStages" = 1   $ IP Tech: PkgAC1SpH-65to135-E10
 "RatedEER" = 10   $ IP Tech: PkgAC1SpH-65to135-E10
 "RatedSupMtrClass" = HiEff   $ IP Tech: PkgAC1SpH-65to135-E10
 "SizeRange" = 65to135   $ IP Tech: PkgAC1SpH-65to135-E10
 "SubType" = AC   $ IP Tech: PkgAC1SpH-65to135-E10
 "SupMotEff" = 0.84   $ IP Tech: PkgAC1SpH-65to135-E10
 "Tier" = 0   $ IP Tech: PkgAC1SpH-65to135-E10
 "TotCoolCap" = 184140   $ IP Tech: PkgAC1SpH-65to135-E10
 "BFMult" = 1   $ IP Tech: RefgChg-NRes-Std
 "CoolEirMult" = 1   $ IP Tech: RefgChg-NRes-Std
 "SensCoolCapMult" = 1   $ IP Tech: RefgChg-NRes-Std
 "TotCoolCapMult" = 1   $ IP Tech: RefgChg-NRes-Std
 "SATempCtrl" = RESET   $ IP Tech: SATempCtrl-Reset
 "FanEIR_fPLR" = "ForCurve w Inlet Vanes FPLR"   $ IP Tech: VAVCtrl-Inlet-AnyHP
 "Fan_Control" = Inlet   $ IP Tech: VAVCtrl-Inlet-AnyHP
 "Motor_Horsepower" = AnyHP   $ IP Tech: VAVCtrl-Inlet-AnyHP
 "AltAdjFactor" = 1.007532   $ Sizing
 "CAssFlo_L_Break_CZn" = 327.3722   $ Sizing
 "CAssFlo_L_Conf_CZn" = 391.044   $ Sizing
 "CAssFlo_L_CopyRm_CZn" = 89.55319   $ Sizing
 "CAssFlo_L_Cordr_CZn" = 565.4379   $ Sizing
 "CAssFlo_L_Cordr_EZn" = 232.0156   $ Sizing
 "CAssFlo_L_Cordr_NZn" = 114.4398   $ Sizing
 "CAssFlo_L_Cordr_SZn" = 263.1965   $ Sizing
 "CAssFlo_L_Cordr_WZn" = 230.703   $ Sizing
 "CAssFlo_L_LobWait_CZn" = 275.5261   $ Sizing
 "CAssFlo_L_MechElec_CZn" = 134.1697   $ Sizing
 "CAssFlo_L_OfficeOpn_CZn" = 1510.881   $ Sizing
 "CAssFlo_L_OfficeOpn_EZn" = 2003.964   $ Sizing
 "CAssFlo_L_OfficeOpn_NZn" = 812.0077   $ Sizing
 "CAssFlo_L_OfficeOpn_SZn" = 2119.522   $ Sizing
 "CAssFlo_L_OfficeOpn_WZn" = 1950.168   $ Sizing
 "CAssFlo_L_OfficeSm_CZn" = 187.9536   $ Sizing
 "CAssFlo_L_OfficeSm_EZn" = 1454.403   $ Sizing
 "CAssFlo_L_OfficeSm_NZn" = 501.9356   $ Sizing
 "CAssFlo_L_OfficeSm_SZn" = 1581.177   $ Sizing
 "CAssFlo_L_OfficeSm_WZn" = 1418.96   $ Sizing
 "CAssFlo_L_Restrm_CZn" = 211.8611   $ Sizing
 "CAssFlo_L_StorSm_CZn" = 334.0894   $ Sizing
 "CAssFlo_M_Break_CZn" = 343.3362   $ Sizing
 "CAssFlo_M_Conf_CZn" = 415.5376   $ Sizing
 "CAssFlo_M_CopyRm_CZn" = 98.3745   $ Sizing
 "CAssFlo_M_Cordr_CZn" = 565.4379   $ Sizing
 "CAssFlo_M_Cordr_EZn" = 275.5694   $ Sizing
 "CAssFlo_M_Cordr_NZn" = 108.7756   $ Sizing
 "CAssFlo_M_Cordr_SZn" = 310.1749   $ Sizing
 "CAssFlo_M_Cordr_WZn" = 264.8506   $ Sizing
 "CAssFlo_M_LobWait_CZn" = 316.8844   $ Sizing
 "CAssFlo_M_MechElec_CZn" = 134.1697   $ Sizing
 "CAssFlo_M_OfficeOpn_CZn" = 1634.844   $ Sizing
 "CAssFlo_M_OfficeOpn_EZn" = 2134.024   $ Sizing
 "CAssFlo_M_OfficeOpn_NZn" = 950.789   $ Sizing
 "CAssFlo_M_OfficeOpn_SZn" = 2331.23   $ Sizing
 "CAssFlo_M_OfficeOpn_WZn" = 2051.4   $ Sizing
 "CAssFlo_M_OfficeSm_CZn" = 217.6144   $ Sizing
 "CAssFlo_M_OfficeSm_EZn" = 1548.401   $ Sizing
 "CAssFlo_M_OfficeSm_NZn" = 603.4045   $ Sizing
 "CAssFlo_M_OfficeSm_SZn" = 1735.294   $ Sizing
 "CAssFlo_M_OfficeSm_WZn" = 1508.656   $ Sizing
 "CAssFlo_M_Restrm_CZn" = 211.8611   $ Sizing
 "CAssFlo_M_StorSm_CZn" = 334.0894   $ Sizing
 "CAssFlo_T_Break_CZn" = 333.9192   $ Sizing
 "CAssFlo_T_Conf_CZn" = 402.567   $ Sizing
 "CAssFlo_T_CopyRm_CZn" = 95.50994   $ Sizing
 "CAssFlo_T_Cordr_CZn" = 565.4379   $ Sizing
 "CAssFlo_T_Cordr_EZn" = 250.7013   $ Sizing
 "CAssFlo_T_Cordr_NZn" = 100.5065   $ Sizing
 "CAssFlo_T_Cordr_SZn" = 284.7895   $ Sizing
 "CAssFlo_T_Cordr_WZn" = 242.6382   $ Sizing
 "CAssFlo_T_LobWait_CZn" = 275.5261   $ Sizing
 "CAssFlo_T_MechElec_CZn" = 134.1697   $ Sizing
 "CAssFlo_T_OfficeOpn_CZn" = 1570.033   $ Sizing
 "CAssFlo_T_OfficeOpn_EZn" = 1992.611   $ Sizing
 "CAssFlo_T_OfficeOpn_NZn" = 918.3082   $ Sizing
 "CAssFlo_T_OfficeOpn_SZn" = 2187.271   $ Sizing
 "CAssFlo_T_OfficeOpn_WZn" = 1925.695   $ Sizing
 "CAssFlo_T_OfficeSm_CZn" = 208.3879   $ Sizing
 "CAssFlo_T_OfficeSm_EZn" = 1478.732   $ Sizing
 "CAssFlo_T_OfficeSm_NZn" = 584.8219   $ Sizing
 "CAssFlo_T_OfficeSm_SZn" = 1655.082   $ Sizing
 "CAssFlo_T_OfficeSm_WZn" = 1446.353   $ Sizing
 "CAssFlo_T_Restrm_CZn" = 211.8611   $ Sizing
 "CAssFlo_T_StorSm_CZn" = 334.0894   $ Sizing
 "CHRtFlo_L_Break_CZn" = 216.6311   $ Sizing
 "CHRtFlo_L_Conf_CZn" = 281.7439   $ Sizing
 "CHRtFlo_L_CopyRm_CZn" = 88.37569   $ Sizing
 "CHRtFlo_L_Cordr_CZn" = 212.0392   $ Sizing
 "CHRtFlo_L_Cordr_EZn" = 90.6873   $ Sizing
 "CHRtFlo_L_Cordr_NZn" = 114.4398   $ Sizing
 "CHRtFlo_L_Cordr_SZn" = 78.95895   $ Sizing
 "CHRtFlo_L_Cordr_WZn" = 88.56234   $ Sizing
 "CHRtFlo_L_LobWait_CZn" = 223.8649   $ Sizing
 "CHRtFlo_L_MechElec_CZn" = 50.31363   $ Sizing
 "CHRtFlo_L_OfficeOpn_CZn" = 453.2642   $ Sizing
 "CHRtFlo_L_OfficeOpn_EZn" = 601.1891   $ Sizing
 "CHRtFlo_L_OfficeOpn_NZn" = 414.4143   $ Sizing
 "CHRtFlo_L_OfficeOpn_SZn" = 635.8567   $ Sizing
 "CHRtFlo_L_OfficeOpn_WZn" = 585.0504   $ Sizing
 "CHRtFlo_L_OfficeSm_CZn" = 56.3861   $ Sizing
 "CHRtFlo_L_OfficeSm_EZn" = 436.321   $ Sizing
 "CHRtFlo_L_OfficeSm_NZn" = 416.6592   $ Sizing
 "CHRtFlo_L_OfficeSm_SZn" = 474.353   $ Sizing
 "CHRtFlo_L_OfficeSm_WZn" = 425.6881   $ Sizing
 "CHRtFlo_L_Restrm_CZn" = 63.55833   $ Sizing
 "CHRtFlo_L_StorSm_CZn" = 125.2835   $ Sizing
 "CHRtFlo_M_Break_CZn" = 216.6311   $ Sizing
 "CHRtFlo_M_Conf_CZn" = 281.7439   $ Sizing
 "CHRtFlo_M_CopyRm_CZn" = 88.37569   $ Sizing
 "CHRtFlo_M_Cordr_CZn" = 212.0392   $ Sizing
 "CHRtFlo_M_Cordr_EZn" = 88.34081   $ Sizing
 "CHRtFlo_M_Cordr_NZn" = 108.7756   $ Sizing
 "CHRtFlo_M_Cordr_SZn" = 93.05248   $ Sizing
 "CHRtFlo_M_Cordr_WZn" = 82.9256   $ Sizing
 "CHRtFlo_M_LobWait_CZn" = 223.8649   $ Sizing
 "CHRtFlo_M_MechElec_CZn" = 50.31363   $ Sizing
 "CHRtFlo_M_OfficeOpn_CZn" = 490.4532   $ Sizing
 "CHRtFlo_M_OfficeOpn_EZn" = 640.2073   $ Sizing
 "CHRtFlo_M_OfficeOpn_NZn" = 390.9988   $ Sizing
 "CHRtFlo_M_OfficeOpn_SZn" = 699.369   $ Sizing
 "CHRtFlo_M_OfficeOpn_WZn" = 615.4199   $ Sizing
 "CHRtFlo_M_OfficeSm_CZn" = 65.28433   $ Sizing
 "CHRtFlo_M_OfficeSm_EZn" = 464.5203   $ Sizing
 "CHRtFlo_M_OfficeSm_NZn" = 390.6683   $ Sizing
 "CHRtFlo_M_OfficeSm_SZn" = 520.5882   $ Sizing
 "CHRtFlo_M_OfficeSm_WZn" = 452.597   $ Sizing
 "CHRtFlo_M_Restrm_CZn" = 63.55833   $ Sizing
 "CHRtFlo_M_StorSm_CZn" = 125.2835   $ Sizing
 "CHRtFlo_T_Break_CZn" = 216.6311   $ Sizing
 "CHRtFlo_T_Conf_CZn" = 281.7439   $ Sizing
 "CHRtFlo_T_CopyRm_CZn" = 88.37569   $ Sizing
 "CHRtFlo_T_Cordr_CZn" = 212.0392   $ Sizing
 "CHRtFlo_T_Cordr_EZn" = 78.25365   $ Sizing
 "CHRtFlo_T_Cordr_NZn" = 100.5065   $ Sizing
 "CHRtFlo_T_Cordr_SZn" = 85.43686   $ Sizing
 "CHRtFlo_T_Cordr_WZn" = 72.79147   $ Sizing
 "CHRtFlo_T_LobWait_CZn" = 223.8649   $ Sizing
 "CHRtFlo_T_MechElec_CZn" = 92.85594   $ Sizing
 "CHRtFlo_T_OfficeOpn_CZn" = 471.0098   $ Sizing
 "CHRtFlo_T_OfficeOpn_EZn" = 597.7833   $ Sizing
 "CHRtFlo_T_OfficeOpn_NZn" = 374.6411   $ Sizing
 "CHRtFlo_T_OfficeOpn_SZn" = 656.1814   $ Sizing
 "CHRtFlo_T_OfficeOpn_WZn" = 577.7086   $ Sizing
 "CHRtFlo_T_OfficeSm_CZn" = 62.51638   $ Sizing
 "CHRtFlo_T_OfficeSm_EZn" = 443.6196   $ Sizing
 "CHRtFlo_T_OfficeSm_NZn" = 385.3977   $ Sizing
 "CHRtFlo_T_OfficeSm_SZn" = 496.5247   $ Sizing
 "CHRtFlo_T_OfficeSm_WZn" = 433.906   $ Sizing
 "CHRtFlo_T_Restrm_CZn" = 63.55833   $ Sizing
 "CHRtFlo_T_StorSm_CZn" = 125.2835   $ Sizing
 "CRtdFlo_Sys_L" = 11789.84   $ Sizing
 "CRtdFlo_Sys_M" = 105495.5   $ Sizing
 "CRtdFlo_Sys_T" = 12847.92   $ Sizing
 "CSupFlo_Sys_L" = 11789.84   $ Sizing
 "CSupFlo_Sys_M" = 105495.5   $ Sizing
 "CSupFlo_Sys_T" = 12847.92   $ Sizing
 "ClCap_Sys_L" = 403507   $ Sizing
 "ClCap_Sys_M" = 3610581   $ Sizing
 "ClCap_Sys_T" = 439719.8   $ Sizing
 "HRtEDB_L_Break_CZn" = 56.52044   $ Sizing
 "HRtEDB_L_Conf_CZn" = 56.52044   $ Sizing
 "HRtEDB_L_CopyRm_CZn" = 54.33957   $ Sizing
 "HRtEDB_L_Cordr_CZn" = 54.33957   $ Sizing
 "HRtEDB_L_Cordr_EZn" = 54.33957   $ Sizing
 "HRtEDB_L_Cordr_NZn" = 54.33957   $ Sizing
 "HRtEDB_L_Cordr_SZn" = 54.33957   $ Sizing
 "HRtEDB_L_Cordr_WZn" = 54.33957   $ Sizing
 "HRtEDB_L_LobWait_CZn" = 54.33957   $ Sizing
 "HRtEDB_L_MechElec_CZn" = 54.33957   $ Sizing
 "HRtEDB_L_OfficeOpn_CZn" = 54.33957   $ Sizing
 "HRtEDB_L_OfficeOpn_EZn" = 56.52044   $ Sizing
 "HRtEDB_L_OfficeOpn_NZn" = 56.52044   $ Sizing
 "HRtEDB_L_OfficeOpn_SZn" = 56.52044   $ Sizing
 "HRtEDB_L_OfficeOpn_WZn" = 56.52044   $ Sizing
 "HRtEDB_L_OfficeSm_CZn" = 56.52044   $ Sizing
 "HRtEDB_L_OfficeSm_EZn" = 56.52044   $ Sizing
 "HRtEDB_L_OfficeSm_NZn" = 56.52044   $ Sizing
 "HRtEDB_L_OfficeSm_SZn" = 56.58132   $ Sizing
 "HRtEDB_L_OfficeSm_WZn" = 56.52044   $ Sizing
 "HRtEDB_L_Restrm_CZn" = 54.33957   $ Sizing
 "HRtEDB_L_StorSm_CZn" = 54.33957   $ Sizing
 "HRtEDB_M_Break_CZn" = 55.1125   $ Sizing
 "HRtEDB_M_Conf_CZn" = 55.1125   $ Sizing
 "HRtEDB_M_CopyRm_CZn" = 55.1125   $ Sizing
 "HRtEDB_M_Cordr_CZn" = 55.1125   $ Sizing
 "HRtEDB_M_Cordr_EZn" = 55.1125   $ Sizing
 "HRtEDB_M_Cordr_NZn" = 55.1125   $ Sizing
 "HRtEDB_M_Cordr_SZn" = 55.1125   $ Sizing
 "HRtEDB_M_Cordr_WZn" = 55.1125   $ Sizing
 "HRtEDB_M_LobWait_CZn" = 55.1125   $ Sizing
 "HRtEDB_M_MechElec_CZn" = 55.1125   $ Sizing
 "HRtEDB_M_OfficeOpn_CZn" = 55.1125   $ Sizing
 "HRtEDB_M_OfficeOpn_EZn" = 56.54484   $ Sizing
 "HRtEDB_M_OfficeOpn_NZn" = 56.54484   $ Sizing
 "HRtEDB_M_OfficeOpn_SZn" = 55.1125   $ Sizing
 "HRtEDB_M_OfficeOpn_WZn" = 56.54484   $ Sizing
 "HRtEDB_M_OfficeSm_CZn" = 55.1125   $ Sizing
 "HRtEDB_M_OfficeSm_EZn" = 56.54484   $ Sizing
 "HRtEDB_M_OfficeSm_NZn" = 55.1125   $ Sizing
 "HRtEDB_M_OfficeSm_SZn" = 55.1125   $ Sizing
 "HRtEDB_M_OfficeSm_WZn" = 56.54484   $ Sizing
 "HRtEDB_M_Restrm_CZn" = 55.1125   $ Sizing
 "HRtEDB_M_StorSm_CZn" = 55.1125   $ Sizing
 "HRtEDB_T_Break_CZn" = 50.18654   $ Sizing
 "HRtEDB_T_Conf_CZn" = 50.18654   $ Sizing
 "HRtEDB_T_CopyRm_CZn" = 50.18654   $ Sizing
 "HRtEDB_T_Cordr_CZn" = 50.18654   $ Sizing
 "HRtEDB_T_Cordr_EZn" = 50.18654   $ Sizing
 "HRtEDB_T_Cordr_NZn" = 50.18654   $ Sizing
 "HRtEDB_T_Cordr_SZn" = 50.18654   $ Sizing
 "HRtEDB_T_Cordr_WZn" = 50.18654   $ Sizing
 "HRtEDB_T_LobWait_CZn" = 50.18654   $ Sizing
 "HRtEDB_T_MechElec_CZn" = 50.18654   $ Sizing
 "HRtEDB_T_OfficeOpn_CZn" = 50.18655   $ Sizing
 "HRtEDB_T_OfficeOpn_EZn" = 50.18654   $ Sizing
 "HRtEDB_T_OfficeOpn_NZn" = 50.18654   $ Sizing
 "HRtEDB_T_OfficeOpn_SZn" = 50.18654   $ Sizing
 "HRtEDB_T_OfficeOpn_WZn" = 50.18654   $ Sizing
 "HRtEDB_T_OfficeSm_CZn" = 50.18654   $ Sizing
 "HRtEDB_T_OfficeSm_EZn" = 50.18654   $ Sizing
 "HRtEDB_T_OfficeSm_NZn" = 50.18654   $ Sizing
 "HRtEDB_T_OfficeSm_SZn" = 50.18654   $ Sizing
 "HRtEDB_T_OfficeSm_WZn" = 50.18654   $ Sizing
 "HRtEDB_T_Restrm_CZn" = 50.18654   $ Sizing
 "HRtEDB_T_StorSm_CZn" = 50.18654   $ Sizing
 "HtCap_L_Break_CZn" = -8981.323   $ Sizing
 "HtCap_L_Conf_CZn" = -11680.84   $ Sizing
 "HtCap_L_CopyRm_CZn" = -3871.87   $ Sizing
 "HtCap_L_Cordr_CZn" = -9289.751   $ Sizing
 "HtCap_L_Cordr_EZn" = -3973.145   $ Sizing
 "HtCap_L_Cordr_NZn" = -5013.775   $ Sizing
 "HtCap_L_Cordr_SZn" = -3459.308   $ Sizing
 "HtCap_L_Cordr_WZn" = -3880.047   $ Sizing
 "HtCap_L_LobWait_CZn" = -9807.853   $ Sizing
 "HtCap_L_MechElec_CZn" = -2204.314   $ Sizing
 "HtCap_L_OfficeOpn_CZn" = -19858.17   $ Sizing
 "HtCap_L_OfficeOpn_EZn" = -24924.74   $ Sizing
 "HtCap_L_OfficeOpn_NZn" = -17181.23   $ Sizing
 "HtCap_L_OfficeOpn_SZn" = -26362.02   $ Sizing
 "HtCap_L_OfficeOpn_WZn" = -24255.64   $ Sizing
 "HtCap_L_OfficeSm_CZn" = -2337.715   $ Sizing
 "HtCap_L_OfficeSm_EZn" = -18089.46   $ Sizing
 "HtCap_L_OfficeSm_NZn" = -17274.3   $ Sizing
 "HtCap_L_OfficeSm_SZn" = -19660.24   $ Sizing
 "HtCap_L_OfficeSm_WZn" = -17648.63   $ Sizing
 "HtCap_L_Restrm_CZn" = -2784.584   $ Sizing
 "HtCap_L_StorSm_CZn" = -5488.855   $ Sizing
 "HtCap_M_Break_CZn" = -9310.884   $ Sizing
 "HtCap_M_Conf_CZn" = -12109.46   $ Sizing
 "HtCap_M_CopyRm_CZn" = -3798.419   $ Sizing
 "HtCap_M_Cordr_CZn" = -9113.521   $ Sizing
 "HtCap_M_Cordr_EZn" = -3796.92   $ Sizing
 "HtCap_M_Cordr_NZn" = -4675.215   $ Sizing
 "HtCap_M_Cordr_SZn" = -3999.43   $ Sizing
 "HtCap_M_Cordr_WZn" = -3564.173   $ Sizing
 "HtCap_M_LobWait_CZn" = -9621.796   $ Sizing
 "HtCap_M_MechElec_CZn" = -2162.498   $ Sizing
 "HtCap_M_OfficeOpn_CZn" = -21079.86   $ Sizing
 "HtCap_M_OfficeOpn_EZn" = -26528.88   $ Sizing
 "HtCap_M_OfficeOpn_NZn" = -16202.19   $ Sizing
 "HtCap_M_OfficeOpn_SZn" = -30059.14   $ Sizing
 "HtCap_M_OfficeOpn_WZn" = -25501.74   $ Sizing
 "HtCap_M_OfficeSm_CZn" = -2805.944   $ Sizing
 "HtCap_M_OfficeSm_EZn" = -19248.77   $ Sizing
 "HtCap_M_OfficeSm_NZn" = -16791.07   $ Sizing
 "HtCap_M_OfficeSm_SZn" = -22375.07   $ Sizing
 "HtCap_M_OfficeSm_WZn" = -18754.69   $ Sizing
 "HtCap_M_Restrm_CZn" = -2731.76   $ Sizing
 "HtCap_M_StorSm_CZn" = -5384.731   $ Sizing
 "HtCap_T_Break_CZn" = -10460.32   $ Sizing
 "HtCap_T_Conf_CZn" = -13604.38   $ Sizing
 "HtCap_T_CopyRm_CZn" = -4267.338   $ Sizing
 "HtCap_T_Cordr_CZn" = -10238.6   $ Sizing
 "HtCap_T_Cordr_EZn" = -3778.582   $ Sizing
 "HtCap_T_Cordr_NZn" = -4853.092   $ Sizing
 "HtCap_T_Cordr_SZn" = -4125.433   $ Sizing
 "HtCap_T_Cordr_WZn" = -3514.833   $ Sizing
 "HtCap_T_LobWait_CZn" = -10809.62   $ Sizing
 "HtCap_T_MechElec_CZn" = -4483.673   $ Sizing
 "HtCap_T_OfficeOpn_CZn" = -22743.34   $ Sizing
 "HtCap_T_OfficeOpn_EZn" = -28864.77   $ Sizing
 "HtCap_T_OfficeOpn_NZn" = -18090.04   $ Sizing
 "HtCap_T_OfficeOpn_SZn" = -31684.59   $ Sizing
 "HtCap_T_OfficeOpn_WZn" = -27895.43   $ Sizing
 "HtCap_T_OfficeSm_CZn" = -3018.687   $ Sizing
 "HtCap_T_OfficeSm_EZn" = -21420.76   $ Sizing
 "HtCap_T_OfficeSm_NZn" = -18609.45   $ Sizing
 "HtCap_T_OfficeSm_SZn" = -23975.36   $ Sizing
 "HtCap_T_OfficeSm_WZn" = -20951.73   $ Sizing
 "HtCap_T_Restrm_CZn" = -3068.999   $ Sizing
 "HtCap_T_StorSm_CZn" = -6049.482   $ Sizing
..

##include Templates\OfL_DX_MZ.inp
END ..
COMPUTE ..
STOP ..
