This JJHirsch DOE-2.3-50i  was released in February 2018.

Start DOEBDL : Storage capacity =  75000000
Starting BDL   1
Finished BDL   1 : Memory (wds) = 14548336, clock time (secs) =     9.3
End   DOEBDL : Total elapsed time of      9.5 seconds
ERRORLEVEL=0 
