INPUT ..

##fileprefix C:\Users\jglasskatz\MASControl3\
##set1 IsSizing FALSE
##set1 CoolType DX
##set1 HeatType FURNACE
##set1 EU_HrRepVar 0
##set1 BldgVint 1975
##set1 BldgLoc CZ12

 ##set1 mBFMult 1   $ IP Tech: RefgChg-NRes-Std

PARAMETER
 "AltFactor" = 1.00062   $ IP Non-Tech
 "BF_fFlow" = SpltAC1Sp-lt45_BF_fFlow   $ Msr (Multi)TechID: StdNResSplitAC-lt45
 "BF_fT" = SpltAC1Sp-lt45_BF_fT   $ Msr (Multi)TechID: StdNResSplitAC-lt45
 "BldgEconoFlag" = 1   $ IP Non-Tech
 "Break_EWSF" = 1   $ IP Non-Tech
 "Break_LWSF" = 1.1   $ IP Non-Tech
 "CDD_DBHi10" = 83   $ IP Non-Tech
 "CDD_DBHi7" = 101   $ IP Non-Tech
 "CDD_DBHi8" = 99   $ IP Non-Tech
 "CDD_DBHi9" = 98   $ IP Non-Tech
 "CDD_DBRange10" = 23   $ IP Non-Tech
 "CDD_DBRange7" = 30   $ IP Non-Tech
 "CDD_DBRange8" = 34   $ IP Non-Tech
 "CDD_DBRange9" = 34   $ IP Non-Tech
 "CDD_Day10" = 15   $ IP Non-Tech
 "CDD_Day7" = 16   $ IP Non-Tech
 "CDD_Day8" = 20   $ IP Non-Tech
 "CDD_Day9" = 17   $ IP Non-Tech
 "CDD_HrHi10" = 14   $ IP Non-Tech
 "CDD_HrHi7" = 16   $ IP Non-Tech
 "CDD_HrHi8" = 16   $ IP Non-Tech
 "CDD_HrHi9" = 16   $ IP Non-Tech
 "CDD_HrLo10" = 3   $ IP Non-Tech
 "CDD_HrLo7" = 4   $ IP Non-Tech
 "CDD_HrLo8" = 8   $ IP Non-Tech
 "CDD_HrLo9" = 7   $ IP Non-Tech
 "CDD_WB10" = 61.40390396   $ IP Non-Tech
 "CDD_WB7" = 71.25247955   $ IP Non-Tech
 "CDD_WB8" = 68.94035339   $ IP Non-Tech
 "CDD_WB9" = 66.54764557   $ IP Non-Tech
 "CEIR_fPLR_Hot" = SpltAC1Sp-lt45_CEIR_fPLR_Hot   $ Msr (Multi)TechID: StdNResSplitAC-lt45
 "CEIR_fPLR_Mod" = SpltAC1Sp-lt45_CEIR_fPLR_Mod   $ Msr (Multi)TechID: StdNResSplitAC-lt45
 "CEIR_fPLR_Tem" = SpltAC1Sp-lt45_CEIR_fPLR_Tem   $ Msr (Multi)TechID: StdNResSplitAC-lt45
 "CLoss_fPLR_Hot" = SpltAC1Sp-lt45_CLoss_fPLR_Hot   $ Msr (Multi)TechID: StdNResSplitAC-lt45
 "CLoss_fPLR_Mod" = SpltAC1Sp-lt45_CLoss_fPLR_Mod   $ Msr (Multi)TechID: StdNResSplitAC-lt45
 "CLoss_fPLR_Tem" = SpltAC1Sp-lt45_CLoss_fPLR_Tem   $ Msr (Multi)TechID: StdNResSplitAC-lt45
 "COP47" = 0   $ Msr (Multi)TechID: StdNResSplitAC-lt45
 "CZ_Category" = Mod   $ IP Non-Tech
 "CapRange" = lt45   $ Msr (Multi)TechID: StdNResSplitAC-lt45
 "CfmPerBtuh" = 0.032504286   $ Msr (Multi)TechID: StdNResSplitAC-lt45
 "ChwVintEconoFlag" = 1   $ IP Non-Tech
 "ClCap_fT" = SpltAC1Sp-lt45_ClCap_fT   $ Msr (Multi)TechID: StdNResSplitAC-lt45
 "ClSH_fT" = SpltAC1Sp-lt45_ClSH_fT   $ Msr (Multi)TechID: StdNResSplitAC-lt45
 "CoilBF" = 0.1212   $ Msr (Multi)TechID: StdNResSplitAC-lt45
 "CondWPerBtuh" = 0   $ Msr (Multi)TechID: StdNResSplitAC-lt45
 "Conference_EWSF" = 1.15   $ IP Non-Tech
 "Conference_LWSF" = 1.4   $ IP Non-Tech
 "CoolSensCap" = 0.754064286   $ Msr (Multi)TechID: StdNResSplitAC-lt45
 "CoolSetT" = 45   $ IP Non-Tech
 "CoolType" = DX   $ IP Non-Tech
 "CoolingEIR" = 0.23878   $ Msr (Multi)TechID: StdNResSplitAC-lt45
 "CopyRoom_EWSF" = 1.725   $ IP Non-Tech
 "CopyRoom_LWSF" = 1.3   $ IP Non-Tech
 "CorridorStairway_EWSF" = 0.23   $ IP Non-Tech
 "CorridorStairway_LWSF" = 0.6   $ IP Non-Tech
 "CrnkEIR" = 0.0023878   $ Msr (Multi)TechID: StdNResSplitAC-lt45
 "CrnkMaxT" = 50   $ Msr (Multi)TechID: StdNResSplitAC-lt45
 "DXType" = SplitSEER   $ Msr (Multi)TechID: StdNResSplitAC-lt45
 "DesCoolT" = 75   $ IP Non-Tech
 "DesHeatT" = 73   $ IP Non-Tech
 "EER" = 12.16551724   $ Msr (Multi)TechID: StdNResSplitAC-lt45
 "EIR_fT" = SpltAC1Sp-lt45_EIR_fT   $ Msr (Multi)TechID: StdNResSplitAC-lt45
 "EconoCtrl" = FIXED   $ Msr (Multi)TechID: StdNResSplitAC-lt45
 "EconoEnthLimit" = 28   $ IP Non-Tech
 "EconoTempLimit" = 75   $ IP Non-Tech
 "Elevation" = 16   $ IP Non-Tech
 "FanEirPlr" = TwoSpeedFan   $ Msr (Multi)TechID: StdNResSplitAC-lt45
 "FanWPerCfm" = 0.294   $ Msr (Multi)TechID: StdNResSplitAC-lt45
 "HDD_CloudAmt1" = 0   $ IP Non-Tech
 "HDD_DBHi1" = 50   $ IP Non-Tech
 "HDD_DBRange1" = 21   $ IP Non-Tech
 "HDD_Day1" = 15   $ IP Non-Tech
 "HDD_HrHi1" = 16   $ IP Non-Tech
 "HDD_HrLo1" = 8   $ IP Non-Tech
 "HDD_WB1" = 43.9   $ IP Non-Tech
 "HDD_WindSpd1" = 13.8   $ IP Non-Tech
 "HIR_fT" = 0   $ Msr (Multi)TechID: StdNResSplitAC-lt45
 "HSPF" = 0   $ Msr (Multi)TechID: StdNResSplitAC-lt45
 "HeatSrc" = FURNACE   $ IP Non-Tech
 "HeatSrcTU" = HEAT-PUMP   $ IP Non-Tech
 "HeatType" = GasFurn   $ IP Non-Tech
 "HeatTypeTU" = HEAT-PUMP   $ IP Non-Tech
 "HtCap_fT" = 0   $ Msr (Multi)TechID: StdNResSplitAC-lt45
 "HtCoolCapRatio" = 0   $ Msr (Multi)TechID: StdNResSplitAC-lt45
 "HtgEIR" = 0   $ Msr (Multi)TechID: StdNResSplitAC-lt45
 "IndoorFanMode" = CONTINUOUS   $ IP Non-Tech
 "KT_TransferAir" = No   $ IP Non-Tech
 "Latitude" = 38.5   $ IP Non-Tech
 "LobbyWaiting_EWSF" = 0.5375   $ IP Non-Tech
 "LobbyWaiting_LWSF" = 1.3   $ IP Non-Tech
 "Longitude" = 121.5   $ IP Non-Tech
 "LowSpdCapRatio" = 1   $ Msr (Multi)TechID: StdNResSplitAC-lt45
 "LowSpdCfmRatio" = 1   $ Msr (Multi)TechID: StdNResSplitAC-lt45
 "MZFanMechEff" = 0.58   $ IP Non-Tech
 "MZHasRetFan" = FALSE   $ IP Non-Tech
 "MZ_RFanWPerCfm" = 0.37   $ IP Non-Tech
 "MZ_SFanWPerCfm" = 0.71   $ IP Non-Tech
 "MZ_SupFanStatic" = 2.25   $ IP Non-Tech
 "MaxOAFrac" = 1   $ Msr (Multi)TechID: StdNResSplitAC-lt45
 "MaxSupT_MZ" = 100   $ IP Non-Tech
 "MaxSupT_SZ" = 100   $ IP Non-Tech
 "MaxSupT_TU" = 90   $ IP Non-Tech
 "MechElecRoom_EWSF" = 0.23   $ IP Non-Tech
 "MechElecRoom_LWSF" = 0.7   $ IP Non-Tech
 "MinCfmPerSF" = 0.4   $ IP Non-Tech
 "MinSupT" = 55   $ IP Non-Tech
 "NumStages" = 1   $ Msr (Multi)TechID: StdNResSplitAC-lt45
 "OccCoolT" = 76   $ IP Non-Tech
 "OccHeatT" = 72   $ IP Non-Tech
 "OfficeOpen_EWSF" = 1.725   $ IP Non-Tech
 "OfficeOpen_LWSF" = 1.2   $ IP Non-Tech
 "OfficeSmall_EWSF" = 1.725   $ IP Non-Tech
 "OfficeSmall_LWSF" = 1.3   $ IP Non-Tech
 "PkgDxVintEconoFlag" = 0   $ IP Non-Tech
 "Restroom_EWSF" = 0.23   $ IP Non-Tech
 "Restroom_LWSF" = 0.6   $ IP Non-Tech
 "SEER" = 14   $ Msr (Multi)TechID: StdNResSplitAC-lt45
 "SZFanMechEff" = 0.58   $ IP Non-Tech
 "SZHasRetFan" = FALSE   $ IP Non-Tech
 "SZ_Is_2Spd" = FALSE   $ IP Non-Tech
 "SZ_SFanWPerCfm" = 0.46   $ IP Non-Tech
 "SZ_SupFanStatic" = 0.75   $ IP Non-Tech
 "Sector" = Any   $ Msr (Multi)TechID: StdNResSplitAC-lt45
 "StorageSmlCond_EWSF" = 0.23   $ IP Non-Tech
 "StorageSmlCond_LWSF" = 0.6   $ IP Non-Tech
 "SubType" = AC   $ Msr (Multi)TechID: StdNResSplitAC-lt45
 "T24GlzTbl" = CZTbl   $ IP Non-Tech
 "TermUnitFanMechEff" = 1   $ IP Non-Tech
 "TermUnitFanMode" = INTERMITTENT   $ IP Non-Tech
 "TotCoolCap" = 30924.85714   $ Msr (Multi)TechID: StdNResSplitAC-lt45
 "TwrSetpt" = 82.3   $ IP Non-Tech
 "UnocCoolT" = 86   $ IP Non-Tech
 "UnocHeatT" = 62   $ IP Non-Tech
 "UseEconoVintApplic" = FALSE   $ Msr (Multi)TechID: StdNResSplitAC-lt45
 "WlhpVintEconoFlag" = 0   $ IP Non-Tech
 "DuctDT" = 1   $ IP Tech: ComDuctInsul-1
 "DuctAirLoss" = 0   $ IP Tech: ComDuctLeak-0
 "DuctLossOAFrac" = 0   $ IP Tech: ComDuctLeak-0
 "ComRoofInsCalc" = FromUo   $ IP Tech: ComRoofIns-Hvy-0.06
 "ComRoofInsR" = -999   $ IP Tech: ComRoofIns-Hvy-0.06
 "ComRoofUo" = 0.06   $ IP Tech: ComRoofIns-Hvy-0.06
 "ComEWInsCalc" = FromUo   $ IP Tech: ComWallIns-MFrm-0.18
 "ComEWInsR" = -999   $ IP Tech: ComWallIns-MFrm-0.18
 "ComEWUo" = 0.18   $ IP Tech: ComWallIns-MFrm-0.18
 "ComN_SHGC" = 0.82   $ IP Tech: NResWin-ComN-1.23-0.82
 "ComN_UFactor" = 1.23   $ IP Tech: NResWin-ComN-1.23-0.82
 "ComN_VisTrans" = 0.9   $ IP Tech: NResWin-ComN-1.23-0.82
 "ComN_WinCode" = G1000   $ IP Tech: NResWin-ComN-1.23-0.82
 "ComN_WinFrmFrac" = 0.17   $ IP Tech: NResWin-ComN-1.23-0.82
 "ComN_WinFrmU" = 1   $ IP Tech: NResWin-ComN-1.23-0.82
 "ComO_SHGC" = 0.82   $ IP Tech: NResWin-ComO-1.23-0.82
 "ComO_UFactor" = 1.23   $ IP Tech: NResWin-ComO-1.23-0.82
 "ComO_VisTrans" = 0.9   $ IP Tech: NResWin-ComO-1.23-0.82
 "ComO_WinCode" = G1000   $ IP Tech: NResWin-ComO-1.23-0.82
 "ComO_WinFrmFrac" = 0.17   $ IP Tech: NResWin-ComO-1.23-0.82
 "ComO_WinFrmU" = 1   $ IP Tech: NResWin-ComO-1.23-0.82
 "LtgMsrApplic" = ALL   $ IP Tech: NonResLtgRefPre
 "LtgSav_CFL" = 0   $ IP Tech: NonResLtgRefPre
 "LtgSav_EX" = 0   $ IP Tech: NonResLtgRefPre
 "LtgSav_HB" = 0   $ IP Tech: NonResLtgRefPre
 "LtgSav_LF" = 0   $ IP Tech: NonResLtgRefPre
 "LtgSav_SP" = 0   $ IP Tech: NonResLtgRefPre
 "CEIR_fPLR" = PSZ65to135_CEIR_fPLR   $ IP Tech: PkgAC1SpH-65to135-E10
 "CLoss_fPLR" = PSZ65to135_CLoss_fPLR   $ IP Tech: PkgAC1SpH-65to135-E10
 "COP" = -1   $ IP Tech: PkgAC1SpH-65to135-E10
 "HtgFuel" = Gas   $ IP Tech: PkgAC1SpH-65to135-E10
 "IEER" = 11.87   $ IP Tech: PkgAC1SpH-65to135-E10
 "NominalCap" = 15   $ IP Tech: PkgAC1SpH-65to135-E10
 "RatedEER" = 10   $ IP Tech: PkgAC1SpH-65to135-E10
 "RatedSupMtrClass" = HiEff   $ IP Tech: PkgAC1SpH-65to135-E10
 "SizeRange" = 65to135   $ IP Tech: PkgAC1SpH-65to135-E10
 "SupMotEff" = 0.84   $ IP Tech: PkgAC1SpH-65to135-E10
 "Tier" = 0   $ IP Tech: PkgAC1SpH-65to135-E10
 "FanPwrMult" = 1   $ IP Tech: PkgFurn-0.80AFUE
 "FurnAFUE" = 0.8   $ IP Tech: PkgFurn-0.80AFUE
 "FurnEt" = 0.82   $ IP Tech: PkgFurn-0.80AFUE
 "FurnaceAuxKW" = 0.1   $ IP Tech: PkgFurn-0.80AFUE
 "HIR_fPLR" = Furnace-HIR-fPLR   $ IP Tech: PkgFurn-0.80AFUE
 "VSM" = FALSE   $ IP Tech: PkgFurn-0.80AFUE
 "BFMult" = 1   $ IP Tech: RefgChg-NRes-Std
 "CoolEirMult" = 1   $ IP Tech: RefgChg-NRes-Std
 "SensCoolCapMult" = 1   $ IP Tech: RefgChg-NRes-Std
 "TotCoolCapMult" = 1   $ IP Tech: RefgChg-NRes-Std
 "AltAdjFactor" = 1.000622   $ Sizing
 "CAssFlo_L_Break_CZn" = 536.767   $ Sizing
 "CAssFlo_L_Conf_CZn" = 530.6077   $ Sizing
 "CAssFlo_L_CopyRm_CZn" = 173.4634   $ Sizing
 "CAssFlo_L_Cordr_CZn" = 652.403   $ Sizing
 "CAssFlo_L_Cordr_EZn" = 306.6624   $ Sizing
 "CAssFlo_L_Cordr_NZn" = 190.0687   $ Sizing
 "CAssFlo_L_Cordr_SZn" = 315.5134   $ Sizing
 "CAssFlo_L_Cordr_WZn" = 351.1028   $ Sizing
 "CAssFlo_L_LobWait_CZn" = 542.3301   $ Sizing
 "CAssFlo_L_MechElec_CZn" = 116.0496   $ Sizing
 "CAssFlo_L_OfficeOpn_CZn" = 1892.664   $ Sizing
 "CAssFlo_L_OfficeOpn_EZn" = 2204.866   $ Sizing
 "CAssFlo_L_OfficeOpn_NZn" = 1398.232   $ Sizing
 "CAssFlo_L_OfficeOpn_SZn" = 2260.167   $ Sizing
 "CAssFlo_L_OfficeOpn_WZn" = 2539.429   $ Sizing
 "CAssFlo_L_OfficeSm_CZn" = 240.4774   $ Sizing
 "CAssFlo_L_OfficeSm_EZn" = 1618.057   $ Sizing
 "CAssFlo_L_OfficeSm_NZn" = 939.61   $ Sizing
 "CAssFlo_L_OfficeSm_SZn" = 1675.091   $ Sizing
 "CAssFlo_L_OfficeSm_WZn" = 1869.761   $ Sizing
 "CAssFlo_L_Restrm_CZn" = 92.96897   $ Sizing
 "CAssFlo_L_StorSm_CZn" = 361.1841   $ Sizing
 "CAssFlo_M_Break_CZn" = 542.382   $ Sizing
 "CAssFlo_M_Conf_CZn" = 528.1635   $ Sizing
 "CAssFlo_M_CopyRm_CZn" = 165.9479   $ Sizing
 "CAssFlo_M_Cordr_CZn" = 854.8034   $ Sizing
 "CAssFlo_M_Cordr_EZn" = 346.6004   $ Sizing
 "CAssFlo_M_Cordr_NZn" = 211.8703   $ Sizing
 "CAssFlo_M_Cordr_SZn" = 352.4489   $ Sizing
 "CAssFlo_M_Cordr_WZn" = 379.4041   $ Sizing
 "CAssFlo_M_LobWait_CZn" = 556.6584   $ Sizing
 "CAssFlo_M_MechElec_CZn" = 152.1911   $ Sizing
 "CAssFlo_M_OfficeOpn_CZn" = 1908.003   $ Sizing
 "CAssFlo_M_OfficeOpn_EZn" = 2365.036   $ Sizing
 "CAssFlo_M_OfficeOpn_NZn" = 1494.012   $ Sizing
 "CAssFlo_M_OfficeOpn_SZn" = 2438.883   $ Sizing
 "CAssFlo_M_OfficeOpn_WZn" = 2640.4   $ Sizing
 "CAssFlo_M_OfficeSm_CZn" = 265.8998   $ Sizing
 "CAssFlo_M_OfficeSm_EZn" = 1723.529   $ Sizing
 "CAssFlo_M_OfficeSm_NZn" = 998.4129   $ Sizing
 "CAssFlo_M_OfficeSm_SZn" = 1794.217   $ Sizing
 "CAssFlo_M_OfficeSm_WZn" = 1949.273   $ Sizing
 "CAssFlo_M_Restrm_CZn" = 101.088   $ Sizing
 "CAssFlo_M_StorSm_CZn" = 398.7775   $ Sizing
 "CAssFlo_T_Break_CZn" = 536.2935   $ Sizing
 "CAssFlo_T_Conf_CZn" = 524.0997   $ Sizing
 "CAssFlo_T_CopyRm_CZn" = 166.4224   $ Sizing
 "CAssFlo_T_Cordr_CZn" = 807.4716   $ Sizing
 "CAssFlo_T_Cordr_EZn" = 341.4689   $ Sizing
 "CAssFlo_T_Cordr_NZn" = 213.6834   $ Sizing
 "CAssFlo_T_Cordr_SZn" = 343.7088   $ Sizing
 "CAssFlo_T_Cordr_WZn" = 377.3405   $ Sizing
 "CAssFlo_T_LobWait_CZn" = 556.5802   $ Sizing
 "CAssFlo_T_MechElec_CZn" = 181.543   $ Sizing
 "CAssFlo_T_OfficeOpn_CZn" = 1969.379   $ Sizing
 "CAssFlo_T_OfficeOpn_EZn" = 2339.464   $ Sizing
 "CAssFlo_T_OfficeOpn_NZn" = 1521.897   $ Sizing
 "CAssFlo_T_OfficeOpn_SZn" = 2409.259   $ Sizing
 "CAssFlo_T_OfficeOpn_WZn" = 2611.175   $ Sizing
 "CAssFlo_T_OfficeSm_CZn" = 259.1618   $ Sizing
 "CAssFlo_T_OfficeSm_EZn" = 1743.396   $ Sizing
 "CAssFlo_T_OfficeSm_NZn" = 1026.844   $ Sizing
 "CAssFlo_T_OfficeSm_SZn" = 1802.079   $ Sizing
 "CAssFlo_T_OfficeSm_WZn" = 1963.233   $ Sizing
 "CAssFlo_T_Restrm_CZn" = 150.2384   $ Sizing
 "CAssFlo_T_StorSm_CZn" = 294.3982   $ Sizing
 "CHRtFlo_Sys_L_Break_C" = 536.767   $ Sizing
 "CHRtFlo_Sys_L_Conf_C" = 530.6077   $ Sizing
 "CHRtFlo_Sys_L_CopyRm_C" = 173.4634   $ Sizing
 "CHRtFlo_Sys_L_Cordr_C" = 679.1497   $ Sizing
 "CHRtFlo_Sys_L_Cordr_E" = 361.1572   $ Sizing
 "CHRtFlo_Sys_L_Cordr_N" = 190.0687   $ Sizing
 "CHRtFlo_Sys_L_Cordr_S" = 371.8492   $ Sizing
 "CHRtFlo_Sys_L_Cordr_W" = 370.6406   $ Sizing
 "CHRtFlo_Sys_L_LobWait_C" = 542.3301   $ Sizing
 "CHRtFlo_Sys_L_MechElec_C" = 147.5483   $ Sizing
 "CHRtFlo_Sys_L_OfficeOpn_C" = 1892.664   $ Sizing
 "CHRtFlo_Sys_L_OfficeOpn_E" = 2671.761   $ Sizing
 "CHRtFlo_Sys_L_OfficeOpn_N" = 1398.232   $ Sizing
 "CHRtFlo_Sys_L_OfficeOpn_S" = 2728.394   $ Sizing
 "CHRtFlo_Sys_L_OfficeOpn_W" = 2734.038   $ Sizing
 "CHRtFlo_Sys_L_OfficeSm_C" = 271.9715   $ Sizing
 "CHRtFlo_Sys_L_OfficeSm_E" = 1990.886   $ Sizing
 "CHRtFlo_Sys_L_OfficeSm_N" = 939.61   $ Sizing
 "CHRtFlo_Sys_L_OfficeSm_S" = 2062.982   $ Sizing
 "CHRtFlo_Sys_L_OfficeSm_W" = 2074.749   $ Sizing
 "CHRtFlo_Sys_L_Restrm_C" = 210.4081   $ Sizing
 "CHRtFlo_Sys_L_StorSm_C" = 438.2202   $ Sizing
 "CHRtFlo_Sys_M_Break_C" = 4339.056   $ Sizing
 "CHRtFlo_Sys_M_Conf_C" = 4429.537   $ Sizing
 "CHRtFlo_Sys_M_CopyRm_C" = 1327.583   $ Sizing
 "CHRtFlo_Sys_M_Cordr_C" = 8312.816   $ Sizing
 "CHRtFlo_Sys_M_Cordr_E" = 3270.984   $ Sizing
 "CHRtFlo_Sys_M_Cordr_N" = 1694.962   $ Sizing
 "CHRtFlo_Sys_M_Cordr_S" = 3402.775   $ Sizing
 "CHRtFlo_Sys_M_Cordr_W" = 3252.204   $ Sizing
 "CHRtFlo_Sys_M_LobWait_C" = 4726.943   $ Sizing
 "CHRtFlo_Sys_M_MechElec_C" = 1572.98   $ Sizing
 "CHRtFlo_Sys_M_OfficeOpn_C" = 17645.02   $ Sizing
 "CHRtFlo_Sys_M_OfficeOpn_E" = 22727.64   $ Sizing
 "CHRtFlo_Sys_M_OfficeOpn_N" = 11952.1   $ Sizing
 "CHRtFlo_Sys_M_OfficeOpn_S" = 23848.57   $ Sizing
 "CHRtFlo_Sys_M_OfficeOpn_W" = 23154.85   $ Sizing
 "CHRtFlo_Sys_M_OfficeSm_C" = 2699.461   $ Sizing
 "CHRtFlo_Sys_M_OfficeSm_E" = 16761.61   $ Sizing
 "CHRtFlo_Sys_M_OfficeSm_N" = 8060.448   $ Sizing
 "CHRtFlo_Sys_M_OfficeSm_S" = 17903.45   $ Sizing
 "CHRtFlo_Sys_M_OfficeSm_W" = 17413.96   $ Sizing
 "CHRtFlo_Sys_M_Restrm_C" = 1683.265   $ Sizing
 "CHRtFlo_Sys_M_StorSm_C" = 4001.65   $ Sizing
 "CHRtFlo_Sys_T_Break_C" = 536.2935   $ Sizing
 "CHRtFlo_Sys_T_Conf_C" = 524.0997   $ Sizing
 "CHRtFlo_Sys_T_CopyRm_C" = 166.4224   $ Sizing
 "CHRtFlo_Sys_T_Cordr_C" = 880.5641   $ Sizing
 "CHRtFlo_Sys_T_Cordr_E" = 362.3926   $ Sizing
 "CHRtFlo_Sys_T_Cordr_N" = 213.6834   $ Sizing
 "CHRtFlo_Sys_T_Cordr_S" = 380.2194   $ Sizing
 "CHRtFlo_Sys_T_Cordr_W" = 377.3405   $ Sizing
 "CHRtFlo_Sys_T_LobWait_C" = 556.5802   $ Sizing
 "CHRtFlo_Sys_T_MechElec_C" = 240.1783   $ Sizing
 "CHRtFlo_Sys_T_OfficeOpn_C" = 1969.378   $ Sizing
 "CHRtFlo_Sys_T_OfficeOpn_E" = 2586.685   $ Sizing
 "CHRtFlo_Sys_T_OfficeOpn_N" = 1521.897   $ Sizing
 "CHRtFlo_Sys_T_OfficeOpn_S" = 2751.255   $ Sizing
 "CHRtFlo_Sys_T_OfficeOpn_W" = 2649.465   $ Sizing
 "CHRtFlo_Sys_T_OfficeSm_C" = 299.7686   $ Sizing
 "CHRtFlo_Sys_T_OfficeSm_E" = 1969.149   $ Sizing
 "CHRtFlo_Sys_T_OfficeSm_N" = 1026.844   $ Sizing
 "CHRtFlo_Sys_T_OfficeSm_S" = 2116.106   $ Sizing
 "CHRtFlo_Sys_T_OfficeSm_W" = 2046.888   $ Sizing
 "CHRtFlo_Sys_T_Restrm_C" = 210.4081   $ Sizing
 "CHRtFlo_Sys_T_StorSm_C" = 331.7982   $ Sizing
 "CRtdFlo_Sys_L_Break_C" = 536.767   $ Sizing
 "CRtdFlo_Sys_L_Conf_C" = 530.6077   $ Sizing
 "CRtdFlo_Sys_L_CopyRm_C" = 173.4634   $ Sizing
 "CRtdFlo_Sys_L_Cordr_C" = 652.403   $ Sizing
 "CRtdFlo_Sys_L_Cordr_E" = 306.6624   $ Sizing
 "CRtdFlo_Sys_L_Cordr_N" = 190.0687   $ Sizing
 "CRtdFlo_Sys_L_Cordr_S" = 315.5134   $ Sizing
 "CRtdFlo_Sys_L_Cordr_W" = 351.1028   $ Sizing
 "CRtdFlo_Sys_L_LobWait_C" = 542.3301   $ Sizing
 "CRtdFlo_Sys_L_MechElec_C" = 116.0496   $ Sizing
 "CRtdFlo_Sys_L_OfficeOpn_C" = 1892.664   $ Sizing
 "CRtdFlo_Sys_L_OfficeOpn_E" = 2204.866   $ Sizing
 "CRtdFlo_Sys_L_OfficeOpn_N" = 1398.232   $ Sizing
 "CRtdFlo_Sys_L_OfficeOpn_S" = 2260.167   $ Sizing
 "CRtdFlo_Sys_L_OfficeOpn_W" = 2539.429   $ Sizing
 "CRtdFlo_Sys_L_OfficeSm_C" = 240.4774   $ Sizing
 "CRtdFlo_Sys_L_OfficeSm_E" = 1618.057   $ Sizing
 "CRtdFlo_Sys_L_OfficeSm_N" = 939.61   $ Sizing
 "CRtdFlo_Sys_L_OfficeSm_S" = 1675.091   $ Sizing
 "CRtdFlo_Sys_L_OfficeSm_W" = 1869.761   $ Sizing
 "CRtdFlo_Sys_L_Restrm_C" = 92.96897   $ Sizing
 "CRtdFlo_Sys_L_StorSm_C" = 361.1841   $ Sizing
 "CRtdFlo_Sys_M_Break_C" = 4339.056   $ Sizing
 "CRtdFlo_Sys_M_Conf_C" = 4225.308   $ Sizing
 "CRtdFlo_Sys_M_CopyRm_C" = 1327.583   $ Sizing
 "CRtdFlo_Sys_M_Cordr_C" = 6838.427   $ Sizing
 "CRtdFlo_Sys_M_Cordr_E" = 2772.803   $ Sizing
 "CRtdFlo_Sys_M_Cordr_N" = 1694.962   $ Sizing
 "CRtdFlo_Sys_M_Cordr_S" = 2819.591   $ Sizing
 "CRtdFlo_Sys_M_Cordr_W" = 3035.233   $ Sizing
 "CRtdFlo_Sys_M_LobWait_C" = 4453.268   $ Sizing
 "CRtdFlo_Sys_M_MechElec_C" = 1217.529   $ Sizing
 "CRtdFlo_Sys_M_OfficeOpn_C" = 15264.02   $ Sizing
 "CRtdFlo_Sys_M_OfficeOpn_E" = 18920.29   $ Sizing
 "CRtdFlo_Sys_M_OfficeOpn_N" = 11952.1   $ Sizing
 "CRtdFlo_Sys_M_OfficeOpn_S" = 19511.06   $ Sizing
 "CRtdFlo_Sys_M_OfficeOpn_W" = 21123.2   $ Sizing
 "CRtdFlo_Sys_M_OfficeSm_C" = 2127.198   $ Sizing
 "CRtdFlo_Sys_M_OfficeSm_E" = 13788.23   $ Sizing
 "CRtdFlo_Sys_M_OfficeSm_N" = 7987.303   $ Sizing
 "CRtdFlo_Sys_M_OfficeSm_S" = 14353.73   $ Sizing
 "CRtdFlo_Sys_M_OfficeSm_W" = 15594.19   $ Sizing
 "CRtdFlo_Sys_M_Restrm_C" = 808.7038   $ Sizing
 "CRtdFlo_Sys_M_StorSm_C" = 3190.22   $ Sizing
 "CRtdFlo_Sys_T_Break_C" = 536.2935   $ Sizing
 "CRtdFlo_Sys_T_Conf_C" = 524.0997   $ Sizing
 "CRtdFlo_Sys_T_CopyRm_C" = 166.4224   $ Sizing
 "CRtdFlo_Sys_T_Cordr_C" = 807.4716   $ Sizing
 "CRtdFlo_Sys_T_Cordr_E" = 341.4689   $ Sizing
 "CRtdFlo_Sys_T_Cordr_N" = 213.6834   $ Sizing
 "CRtdFlo_Sys_T_Cordr_S" = 343.7088   $ Sizing
 "CRtdFlo_Sys_T_Cordr_W" = 377.3405   $ Sizing
 "CRtdFlo_Sys_T_LobWait_C" = 556.5802   $ Sizing
 "CRtdFlo_Sys_T_MechElec_C" = 181.543   $ Sizing
 "CRtdFlo_Sys_T_OfficeOpn_C" = 1969.378   $ Sizing
 "CRtdFlo_Sys_T_OfficeOpn_E" = 2339.464   $ Sizing
 "CRtdFlo_Sys_T_OfficeOpn_N" = 1521.897   $ Sizing
 "CRtdFlo_Sys_T_OfficeOpn_S" = 2409.259   $ Sizing
 "CRtdFlo_Sys_T_OfficeOpn_W" = 2611.175   $ Sizing
 "CRtdFlo_Sys_T_OfficeSm_C" = 259.1618   $ Sizing
 "CRtdFlo_Sys_T_OfficeSm_E" = 1743.396   $ Sizing
 "CRtdFlo_Sys_T_OfficeSm_N" = 1026.844   $ Sizing
 "CRtdFlo_Sys_T_OfficeSm_S" = 1802.079   $ Sizing
 "CRtdFlo_Sys_T_OfficeSm_W" = 1963.233   $ Sizing
 "CRtdFlo_Sys_T_Restrm_C" = 150.2384   $ Sizing
 "CRtdFlo_Sys_T_StorSm_C" = 294.3982   $ Sizing
 "CSupFlo_Sys_L_Break_C" = 536.767   $ Sizing
 "CSupFlo_Sys_L_Conf_C" = 530.6077   $ Sizing
 "CSupFlo_Sys_L_CopyRm_C" = 173.4634   $ Sizing
 "CSupFlo_Sys_L_Cordr_C" = 652.403   $ Sizing
 "CSupFlo_Sys_L_Cordr_E" = 306.6624   $ Sizing
 "CSupFlo_Sys_L_Cordr_N" = 190.0687   $ Sizing
 "CSupFlo_Sys_L_Cordr_S" = 315.5134   $ Sizing
 "CSupFlo_Sys_L_Cordr_W" = 351.1028   $ Sizing
 "CSupFlo_Sys_L_LobWait_C" = 542.3301   $ Sizing
 "CSupFlo_Sys_L_MechElec_C" = 116.0496   $ Sizing
 "CSupFlo_Sys_L_OfficeOpn_C" = 1892.664   $ Sizing
 "CSupFlo_Sys_L_OfficeOpn_E" = 2204.866   $ Sizing
 "CSupFlo_Sys_L_OfficeOpn_N" = 1398.232   $ Sizing
 "CSupFlo_Sys_L_OfficeOpn_S" = 2260.167   $ Sizing
 "CSupFlo_Sys_L_OfficeOpn_W" = 2539.429   $ Sizing
 "CSupFlo_Sys_L_OfficeSm_C" = 240.4774   $ Sizing
 "CSupFlo_Sys_L_OfficeSm_E" = 1618.057   $ Sizing
 "CSupFlo_Sys_L_OfficeSm_N" = 939.61   $ Sizing
 "CSupFlo_Sys_L_OfficeSm_S" = 1675.091   $ Sizing
 "CSupFlo_Sys_L_OfficeSm_W" = 1869.761   $ Sizing
 "CSupFlo_Sys_L_Restrm_C" = 92.96897   $ Sizing
 "CSupFlo_Sys_L_StorSm_C" = 361.1841   $ Sizing
 "CSupFlo_Sys_M_Break_C" = 4339.056   $ Sizing
 "CSupFlo_Sys_M_Conf_C" = 4225.308   $ Sizing
 "CSupFlo_Sys_M_CopyRm_C" = 1327.583   $ Sizing
 "CSupFlo_Sys_M_Cordr_C" = 6838.427   $ Sizing
 "CSupFlo_Sys_M_Cordr_E" = 2772.803   $ Sizing
 "CSupFlo_Sys_M_Cordr_N" = 1694.962   $ Sizing
 "CSupFlo_Sys_M_Cordr_S" = 2819.591   $ Sizing
 "CSupFlo_Sys_M_Cordr_W" = 3035.233   $ Sizing
 "CSupFlo_Sys_M_LobWait_C" = 4453.268   $ Sizing
 "CSupFlo_Sys_M_MechElec_C" = 1217.529   $ Sizing
 "CSupFlo_Sys_M_OfficeOpn_C" = 15264.02   $ Sizing
 "CSupFlo_Sys_M_OfficeOpn_E" = 18920.29   $ Sizing
 "CSupFlo_Sys_M_OfficeOpn_N" = 11952.1   $ Sizing
 "CSupFlo_Sys_M_OfficeOpn_S" = 19511.06   $ Sizing
 "CSupFlo_Sys_M_OfficeOpn_W" = 21123.2   $ Sizing
 "CSupFlo_Sys_M_OfficeSm_C" = 2127.198   $ Sizing
 "CSupFlo_Sys_M_OfficeSm_E" = 13788.23   $ Sizing
 "CSupFlo_Sys_M_OfficeSm_N" = 7987.303   $ Sizing
 "CSupFlo_Sys_M_OfficeSm_S" = 14353.73   $ Sizing
 "CSupFlo_Sys_M_OfficeSm_W" = 15594.19   $ Sizing
 "CSupFlo_Sys_M_Restrm_C" = 808.7038   $ Sizing
 "CSupFlo_Sys_M_StorSm_C" = 3190.22   $ Sizing
 "CSupFlo_Sys_T_Break_C" = 536.2935   $ Sizing
 "CSupFlo_Sys_T_Conf_C" = 524.0997   $ Sizing
 "CSupFlo_Sys_T_CopyRm_C" = 166.4224   $ Sizing
 "CSupFlo_Sys_T_Cordr_C" = 807.4716   $ Sizing
 "CSupFlo_Sys_T_Cordr_E" = 341.4689   $ Sizing
 "CSupFlo_Sys_T_Cordr_N" = 213.6834   $ Sizing
 "CSupFlo_Sys_T_Cordr_S" = 343.7088   $ Sizing
 "CSupFlo_Sys_T_Cordr_W" = 377.3405   $ Sizing
 "CSupFlo_Sys_T_LobWait_C" = 556.5802   $ Sizing
 "CSupFlo_Sys_T_MechElec_C" = 181.543   $ Sizing
 "CSupFlo_Sys_T_OfficeOpn_C" = 1969.378   $ Sizing
 "CSupFlo_Sys_T_OfficeOpn_E" = 2339.464   $ Sizing
 "CSupFlo_Sys_T_OfficeOpn_N" = 1521.897   $ Sizing
 "CSupFlo_Sys_T_OfficeOpn_S" = 2409.259   $ Sizing
 "CSupFlo_Sys_T_OfficeOpn_W" = 2611.175   $ Sizing
 "CSupFlo_Sys_T_OfficeSm_C" = 259.1618   $ Sizing
 "CSupFlo_Sys_T_OfficeSm_E" = 1743.396   $ Sizing
 "CSupFlo_Sys_T_OfficeSm_N" = 1026.844   $ Sizing
 "CSupFlo_Sys_T_OfficeSm_S" = 1802.079   $ Sizing
 "CSupFlo_Sys_T_OfficeSm_W" = 1963.233   $ Sizing
 "CSupFlo_Sys_T_Restrm_C" = 150.2384   $ Sizing
 "CSupFlo_Sys_T_StorSm_C" = 294.3982   $ Sizing
 "ClCap_Sys_L_Break_C" = 18391.99   $ Sizing
 "ClCap_Sys_L_Conf_C" = 23139.39   $ Sizing
 "ClCap_Sys_L_CopyRm_C" = 5943.617   $ Sizing
 "ClCap_Sys_L_Cordr_C" = 22354.19   $ Sizing
 "ClCap_Sys_L_Cordr_E" = 10507.6   $ Sizing
 "ClCap_Sys_L_Cordr_N" = 6512.587   $ Sizing
 "ClCap_Sys_L_Cordr_S" = 10810.87   $ Sizing
 "ClCap_Sys_L_Cordr_W" = 12030.32   $ Sizing
 "ClCap_Sys_L_LobWait_C" = 18582.61   $ Sizing
 "ClCap_Sys_L_MechElec_C" = 3976.369   $ Sizing
 "ClCap_Sys_L_OfficeOpn_C" = 64850.96   $ Sizing
 "ClCap_Sys_L_OfficeOpn_E" = 75548.38   $ Sizing
 "ClCap_Sys_L_OfficeOpn_N" = 47909.55   $ Sizing
 "ClCap_Sys_L_OfficeOpn_S" = 77443.25   $ Sizing
 "ClCap_Sys_L_OfficeOpn_W" = 87011.97   $ Sizing
 "ClCap_Sys_L_OfficeSm_C" = 8239.812   $ Sizing
 "ClCap_Sys_L_OfficeSm_E" = 55441.73   $ Sizing
 "ClCap_Sys_L_OfficeSm_N" = 32195.16   $ Sizing
 "ClCap_Sys_L_OfficeSm_S" = 57395.95   $ Sizing
 "ClCap_Sys_L_OfficeSm_W" = 64066.21   $ Sizing
 "ClCap_Sys_L_Restrm_C" = 3185.525   $ Sizing
 "ClCap_Sys_L_StorSm_C" = 12375.75   $ Sizing
 "ClCap_Sys_M_Break_C" = 148675.1   $ Sizing
 "ClCap_Sys_M_Conf_C" = 184262.4   $ Sizing
 "ClCap_Sys_M_CopyRm_C" = 45488.82   $ Sizing
 "ClCap_Sys_M_Cordr_C" = 234314.5   $ Sizing
 "ClCap_Sys_M_Cordr_E" = 95008.41   $ Sizing
 "ClCap_Sys_M_Cordr_N" = 58076.84   $ Sizing
 "ClCap_Sys_M_Cordr_S" = 96611.55   $ Sizing
 "ClCap_Sys_M_Cordr_W" = 104000.4   $ Sizing
 "ClCap_Sys_M_LobWait_C" = 152588.5   $ Sizing
 "ClCap_Sys_M_MechElec_C" = 41717.87   $ Sizing
 "ClCap_Sys_M_OfficeOpn_C" = 523012.3   $ Sizing
 "ClCap_Sys_M_OfficeOpn_E" = 648292.2   $ Sizing
 "ClCap_Sys_M_OfficeOpn_N" = 409531.4   $ Sizing
 "ClCap_Sys_M_OfficeOpn_S" = 668534.7   $ Sizing
 "ClCap_Sys_M_OfficeOpn_W" = 723773.6   $ Sizing
 "ClCap_Sys_M_OfficeSm_C" = 72887.16   $ Sizing
 "ClCap_Sys_M_OfficeSm_E" = 472445.3   $ Sizing
 "ClCap_Sys_M_OfficeSm_N" = 273680.1   $ Sizing
 "ClCap_Sys_M_OfficeSm_S" = 491821.8   $ Sizing
 "ClCap_Sys_M_OfficeSm_W" = 534325.3   $ Sizing
 "ClCap_Sys_M_Restrm_C" = 27709.74   $ Sizing
 "ClCap_Sys_M_StorSm_C" = 109310.9   $ Sizing
 "ClCap_Sys_T_Break_C" = 18375.77   $ Sizing
 "ClCap_Sys_T_Conf_C" = 22855.58   $ Sizing
 "ClCap_Sys_T_CopyRm_C" = 5702.361   $ Sizing
 "ClCap_Sys_T_Cordr_C" = 27667.52   $ Sizing
 "ClCap_Sys_T_Cordr_E" = 11700.22   $ Sizing
 "ClCap_Sys_T_Cordr_N" = 7321.729   $ Sizing
 "ClCap_Sys_T_Cordr_S" = 11776.97   $ Sizing
 "ClCap_Sys_T_Cordr_W" = 12929.34   $ Sizing
 "ClCap_Sys_T_LobWait_C" = 19070.88   $ Sizing
 "ClCap_Sys_T_MechElec_C" = 6220.459   $ Sizing
 "ClCap_Sys_T_OfficeOpn_C" = 67479.55   $ Sizing
 "ClCap_Sys_T_OfficeOpn_E" = 80160.31   $ Sizing
 "ClCap_Sys_T_OfficeOpn_N" = 52146.86   $ Sizing
 "ClCap_Sys_T_OfficeOpn_S" = 82551.77   $ Sizing
 "ClCap_Sys_T_OfficeOpn_W" = 89470.3   $ Sizing
 "ClCap_Sys_T_OfficeSm_C" = 8880.021   $ Sizing
 "ClCap_Sys_T_OfficeSm_E" = 59736.41   $ Sizing
 "ClCap_Sys_T_OfficeSm_N" = 35184.19   $ Sizing
 "ClCap_Sys_T_OfficeSm_S" = 61747.14   $ Sizing
 "ClCap_Sys_T_OfficeSm_W" = 67268.99   $ Sizing
 "ClCap_Sys_T_Restrm_C" = 5147.828   $ Sizing
 "ClCap_Sys_T_StorSm_C" = 10087.38   $ Sizing
 "HtCap_Sys_L_Break_C" = -31096.84   $ Sizing
 "HtCap_Sys_L_Conf_C" = -31385.26   $ Sizing
 "HtCap_Sys_L_CopyRm_C" = -11463.91   $ Sizing
 "HtCap_Sys_L_Cordr_C" = -30823.81   $ Sizing
 "HtCap_Sys_L_Cordr_E" = -12717.59   $ Sizing
 "HtCap_Sys_L_Cordr_N" = -7773.052   $ Sizing
 "HtCap_Sys_L_Cordr_S" = -12779.31   $ Sizing
 "HtCap_Sys_L_Cordr_W" = -12976.28   $ Sizing
 "HtCap_Sys_L_LobWait_C" = -30041.74   $ Sizing
 "HtCap_Sys_L_MechElec_C" = -6746.718   $ Sizing
 "HtCap_Sys_L_OfficeOpn_C" = -77160.84   $ Sizing
 "HtCap_Sys_L_OfficeOpn_E" = -90230.84   $ Sizing
 "HtCap_Sys_L_OfficeOpn_N" = -53104.37   $ Sizing
 "HtCap_Sys_L_OfficeOpn_S" = -90121.97   $ Sizing
 "HtCap_Sys_L_OfficeOpn_W" = -91975.82   $ Sizing
 "HtCap_Sys_L_OfficeSm_C" = -10940.82   $ Sizing
 "HtCap_Sys_L_OfficeSm_E" = -68428.73   $ Sizing
 "HtCap_Sys_L_OfficeSm_N" = -35324.85   $ Sizing
 "HtCap_Sys_L_OfficeSm_S" = -69672.92   $ Sizing
 "HtCap_Sys_L_OfficeSm_W" = -71169.38   $ Sizing
 "HtCap_Sys_L_Restrm_C" = -7835.055   $ Sizing
 "HtCap_Sys_L_StorSm_C" = -19605.16   $ Sizing
 "HtCap_Sys_M_Break_C" = -238896.1   $ Sizing
 "HtCap_Sys_M_Conf_C" = -244612.6   $ Sizing
 "HtCap_Sys_M_CopyRm_C" = -76906.28   $ Sizing
 "HtCap_Sys_M_Cordr_C" = -330912.7   $ Sizing
 "HtCap_Sys_M_Cordr_E" = -112561.8   $ Sizing
 "HtCap_Sys_M_Cordr_N" = -66648.19   $ Sizing
 "HtCap_Sys_M_Cordr_S" = -114125.7   $ Sizing
 "HtCap_Sys_M_Cordr_W" = -111869.9   $ Sizing
 "HtCap_Sys_M_LobWait_C" = -229888.3   $ Sizing
 "HtCap_Sys_M_MechElec_C" = -65047.97   $ Sizing
 "HtCap_Sys_M_OfficeOpn_C" = -684630.3   $ Sizing
 "HtCap_Sys_M_OfficeOpn_E" = -764535.8   $ Sizing
 "HtCap_Sys_M_OfficeOpn_N" = -444467.4   $ Sizing
 "HtCap_Sys_M_OfficeOpn_S" = -775914.3   $ Sizing
 "HtCap_Sys_M_OfficeOpn_W" = -770885.2   $ Sizing
 "HtCap_Sys_M_OfficeSm_C" = -102928.3   $ Sizing
 "HtCap_Sys_M_OfficeSm_E" = -572605   $ Sizing
 "HtCap_Sys_M_OfficeSm_N" = -297641.3   $ Sizing
 "HtCap_Sys_M_OfficeSm_S" = -601616.6   $ Sizing
 "HtCap_Sys_M_OfficeSm_W" = -594175.5   $ Sizing
 "HtCap_Sys_M_Restrm_C" = -68059.85   $ Sizing
 "HtCap_Sys_M_StorSm_C" = -164774.1   $ Sizing
 "HtCap_Sys_T_Break_C" = -32092.89   $ Sizing
 "HtCap_Sys_T_Conf_C" = -31340.92   $ Sizing
 "HtCap_Sys_T_CopyRm_C" = -10713.53   $ Sizing
 "HtCap_Sys_T_Cordr_C" = -41251.3   $ Sizing
 "HtCap_Sys_T_Cordr_E" = -14538.17   $ Sizing
 "HtCap_Sys_T_Cordr_N" = -9735.473   $ Sizing
 "HtCap_Sys_T_Cordr_S" = -15083.5   $ Sizing
 "HtCap_Sys_T_Cordr_W" = -15134.23   $ Sizing
 "HtCap_Sys_T_LobWait_C" = -30609.4   $ Sizing
 "HtCap_Sys_T_MechElec_C" = -9360.843   $ Sizing
 "HtCap_Sys_T_OfficeOpn_C" = -89140.36   $ Sizing
 "HtCap_Sys_T_OfficeOpn_E" = -98274.45   $ Sizing
 "HtCap_Sys_T_OfficeOpn_N" = -65345.5   $ Sizing
 "HtCap_Sys_T_OfficeOpn_S" = -102670.6   $ Sizing
 "HtCap_Sys_T_OfficeOpn_W" = -100099.6   $ Sizing
 "HtCap_Sys_T_OfficeSm_C" = -13026.85   $ Sizing
 "HtCap_Sys_T_OfficeSm_E" = -75246.75   $ Sizing
 "HtCap_Sys_T_OfficeSm_N" = -43101   $ Sizing
 "HtCap_Sys_T_OfficeSm_S" = -79021.13   $ Sizing
 "HtCap_Sys_T_OfficeSm_W" = -77831.34   $ Sizing
 "HtCap_Sys_T_Restrm_C" = -9060.677   $ Sizing
 "HtCap_Sys_T_StorSm_C" = -18138.88   $ Sizing
..

##include Templates\OfL_DX_SZ.inp
END ..
COMPUTE ..
STOP ..
