INPUT ..

##fileprefix C:\Users\jglasskatz\MASControl3\
##set1 IsSizing FALSE
##set1 CoolType DX
##set1 HeatType FURNACE
##set1 EU_HrRepVar 0
##set1 BldgVint 2015
##set1 BldgLoc CZ14

 ##set1 mBFMult 1   $ IP Tech: RefgChg-NRes-Std

PARAMETER
 "AltFactor" = 1.09733   $ IP Non-Tech
 "BF_fFlow" = SpltAC1Sp-ge45_BF_fFlow   $ Msr (Multi)TechID: StdNResSplitAC-45to55
 "BF_fT" = SpltAC1Sp-ge45_BF_fT   $ Msr (Multi)TechID: StdNResSplitAC-45to55
 "BldgEconoFlag" = 1   $ IP Non-Tech
 "Break_EWSF" = 1   $ IP Non-Tech
 "Break_LWSF" = 1.1   $ IP Non-Tech
 "CDD_DBHi10" = 86   $ IP Non-Tech
 "CDD_DBHi7" = 102   $ IP Non-Tech
 "CDD_DBHi8" = 102   $ IP Non-Tech
 "CDD_DBHi9" = 99   $ IP Non-Tech
 "CDD_DBRange10" = 24   $ IP Non-Tech
 "CDD_DBRange7" = 25   $ IP Non-Tech
 "CDD_DBRange8" = 24   $ IP Non-Tech
 "CDD_DBRange9" = 26   $ IP Non-Tech
 "CDD_Day10" = 15   $ IP Non-Tech
 "CDD_Day7" = 16   $ IP Non-Tech
 "CDD_Day8" = 20   $ IP Non-Tech
 "CDD_Day9" = 17   $ IP Non-Tech
 "CDD_HrHi10" = 15   $ IP Non-Tech
 "CDD_HrHi7" = 14   $ IP Non-Tech
 "CDD_HrHi8" = 14   $ IP Non-Tech
 "CDD_HrHi9" = 13   $ IP Non-Tech
 "CDD_HrLo10" = 3   $ IP Non-Tech
 "CDD_HrLo7" = 4   $ IP Non-Tech
 "CDD_HrLo8" = 6   $ IP Non-Tech
 "CDD_HrLo9" = 6   $ IP Non-Tech
 "CDD_WB10" = 59.47153854   $ IP Non-Tech
 "CDD_WB7" = 72.7782135   $ IP Non-Tech
 "CDD_WB8" = 69.10041809   $ IP Non-Tech
 "CDD_WB9" = 72.65714264   $ IP Non-Tech
 "CEIR_fPLR_Hot" = SpltAC1Sp-ge45_CEIR_fPLR_Hot   $ Msr (Multi)TechID: StdNResSplitAC-45to55
 "CEIR_fPLR_Mod" = SpltAC1Sp-ge45_CEIR_fPLR_Mod   $ Msr (Multi)TechID: StdNResSplitAC-45to55
 "CEIR_fPLR_Tem" = SpltAC1Sp-ge45_CEIR_fPLR_Tem   $ Msr (Multi)TechID: StdNResSplitAC-45to55
 "CLoss_fPLR_Hot" = SpltAC1Sp-ge45_CLoss_fPLR_Hot   $ Msr (Multi)TechID: StdNResSplitAC-45to55
 "CLoss_fPLR_Mod" = SpltAC1Sp-ge45_CLoss_fPLR_Mod   $ Msr (Multi)TechID: StdNResSplitAC-45to55
 "CLoss_fPLR_Tem" = SpltAC1Sp-ge45_CLoss_fPLR_Tem   $ Msr (Multi)TechID: StdNResSplitAC-45to55
 "COP47" = 0   $ Msr (Multi)TechID: StdNResSplitAC-45to55
 "CZ_Category" = Hot   $ IP Non-Tech
 "CapRange" = ge45   $ Msr (Multi)TechID: StdNResSplitAC-45to55
 "CfmPerBtuh" = 0.03263   $ Msr (Multi)TechID: StdNResSplitAC-45to55
 "ChwVintEconoFlag" = 1   $ IP Non-Tech
 "ClCap_fT" = SpltAC1Sp-ge45_ClCap_fT   $ Msr (Multi)TechID: StdNResSplitAC-45to55
 "ClSH_fT" = SpltAC1Sp-ge45_ClSH_fT   $ Msr (Multi)TechID: StdNResSplitAC-45to55
 "CoilBF" = 0.106518182   $ Msr (Multi)TechID: StdNResSplitAC-45to55
 "CondWPerBtuh" = 0   $ Msr (Multi)TechID: StdNResSplitAC-45to55
 "Conference_EWSF" = 1   $ IP Non-Tech
 "Conference_LWSF" = 1.4   $ IP Non-Tech
 "CoolSensCap" = 0.759218182   $ Msr (Multi)TechID: StdNResSplitAC-45to55
 "CoolSetT" = 45   $ IP Non-Tech
 "CoolType" = DX   $ IP Non-Tech
 "CoolingEIR" = 0.2466   $ Msr (Multi)TechID: StdNResSplitAC-45to55
 "CopyRoom_EWSF" = 1.5   $ IP Non-Tech
 "CopyRoom_LWSF" = 1.3   $ IP Non-Tech
 "CorridorStairway_EWSF" = 0.2   $ IP Non-Tech
 "CorridorStairway_LWSF" = 0.6   $ IP Non-Tech
 "CrnkEIR" = 0.002466   $ Msr (Multi)TechID: StdNResSplitAC-45to55
 "CrnkMaxT" = 50   $ Msr (Multi)TechID: StdNResSplitAC-45to55
 "DXType" = SplitSEER   $ Msr (Multi)TechID: StdNResSplitAC-45to55
 "DesCoolT" = 75   $ IP Non-Tech
 "DesHeatT" = 73   $ IP Non-Tech
 "EER" = 11.81793103   $ Msr (Multi)TechID: StdNResSplitAC-45to55
 "EIR_fT" = SpltAC1Sp-ge45_EIR_fT   $ Msr (Multi)TechID: StdNResSplitAC-45to55
 "EconoCtrl" = FIXED   $ Msr (Multi)TechID: StdNResSplitAC-45to55
 "EconoEnthLimit" = 28   $ IP Non-Tech
 "EconoTempLimit" = 75   $ IP Non-Tech
 "Elevation" = 2523   $ IP Non-Tech
 "FanEirPlr" = TwoSpeedFan   $ Msr (Multi)TechID: StdNResSplitAC-45to55
 "FanWPerCfm" = 0.294   $ Msr (Multi)TechID: StdNResSplitAC-45to55
 "HDD_CloudAmt1" = 0   $ IP Non-Tech
 "HDD_DBHi1" = 50   $ IP Non-Tech
 "HDD_DBRange1" = 24   $ IP Non-Tech
 "HDD_Day1" = 15   $ IP Non-Tech
 "HDD_HrHi1" = 14   $ IP Non-Tech
 "HDD_HrLo1" = 6   $ IP Non-Tech
 "HDD_WB1" = 36.9   $ IP Non-Tech
 "HDD_WindSpd1" = 17.3   $ IP Non-Tech
 "HIR_fT" = 0   $ Msr (Multi)TechID: StdNResSplitAC-45to55
 "HSPF" = 0   $ Msr (Multi)TechID: StdNResSplitAC-45to55
 "HeatSrc" = FURNACE   $ IP Non-Tech
 "HeatSrcTU" = HEAT-PUMP   $ IP Non-Tech
 "HeatType" = GasFurn   $ IP Non-Tech
 "HeatTypeTU" = HEAT-PUMP   $ IP Non-Tech
 "HtCap_fT" = 0   $ Msr (Multi)TechID: StdNResSplitAC-45to55
 "HtCoolCapRatio" = 0   $ Msr (Multi)TechID: StdNResSplitAC-45to55
 "HtgEIR" = 0   $ Msr (Multi)TechID: StdNResSplitAC-45to55
 "IndoorFanMode" = CONTINUOUS   $ IP Non-Tech
 "KT_TransferAir" = Yes   $ IP Non-Tech
 "Latitude" = 35.7   $ IP Non-Tech
 "LobbyWaiting_EWSF" = 0.5   $ IP Non-Tech
 "LobbyWaiting_LWSF" = 1.3   $ IP Non-Tech
 "Longitude" = 117.7   $ IP Non-Tech
 "LowSpdCapRatio" = 1   $ Msr (Multi)TechID: StdNResSplitAC-45to55
 "LowSpdCfmRatio" = 1   $ Msr (Multi)TechID: StdNResSplitAC-45to55
 "MZFanMechEff" = 0.58   $ IP Non-Tech
 "MZHasRetFan" = FALSE   $ IP Non-Tech
 "MZ_RFanWPerCfm" = 0.37   $ IP Non-Tech
 "MZ_SFanWPerCfm" = 0.71   $ IP Non-Tech
 "MZ_SupFanStatic" = 2.25   $ IP Non-Tech
 "MaxOAFrac" = 1   $ Msr (Multi)TechID: StdNResSplitAC-45to55
 "MaxSupT_MZ" = 100   $ IP Non-Tech
 "MaxSupT_SZ" = 100   $ IP Non-Tech
 "MaxSupT_TU" = 90   $ IP Non-Tech
 "MechElecRoom_EWSF" = 0.2   $ IP Non-Tech
 "MechElecRoom_LWSF" = 0.7   $ IP Non-Tech
 "MinCfmPerSF" = 0.4   $ IP Non-Tech
 "MinSupT" = 55   $ IP Non-Tech
 "NumStages" = 1   $ Msr (Multi)TechID: StdNResSplitAC-45to55
 "OccCoolT" = 76   $ IP Non-Tech
 "OccHeatT" = 72   $ IP Non-Tech
 "OfficeOpen_EWSF" = 1.5   $ IP Non-Tech
 "OfficeOpen_LWSF" = 1.05   $ IP Non-Tech
 "OfficeSmall_EWSF" = 1.5   $ IP Non-Tech
 "OfficeSmall_LWSF" = 1.3   $ IP Non-Tech
 "PkgDxVintEconoFlag" = 1   $ IP Non-Tech
 "Restroom_EWSF" = 0.2   $ IP Non-Tech
 "Restroom_LWSF" = 0.6   $ IP Non-Tech
 "SEER" = 14   $ Msr (Multi)TechID: StdNResSplitAC-45to55
 "SZFanMechEff" = 0.58   $ IP Non-Tech
 "SZHasRetFan" = FALSE   $ IP Non-Tech
 "SZ_Is_2Spd" = TRUE   $ IP Non-Tech
 "SZ_SFanWPerCfm" = 0.46   $ IP Non-Tech
 "SZ_SupFanStatic" = 0.75   $ IP Non-Tech
 "Sector" = Any   $ Msr (Multi)TechID: StdNResSplitAC-45to55
 "StorageSmlCond_EWSF" = 0.2   $ IP Non-Tech
 "StorageSmlCond_LWSF" = 0.6   $ IP Non-Tech
 "SubType" = AC   $ Msr (Multi)TechID: StdNResSplitAC-45to55
 "T24GlzTbl" = TypeTbl   $ IP Non-Tech
 "TermUnitFanMechEff" = 1   $ IP Non-Tech
 "TermUnitFanMode" = INTERMITTENT   $ IP Non-Tech
 "TotCoolCap" = 52519.36364   $ Msr (Multi)TechID: StdNResSplitAC-45to55
 "TwrSetpt" = 90   $ IP Non-Tech
 "UnocCoolT" = 86   $ IP Non-Tech
 "UnocHeatT" = 62   $ IP Non-Tech
 "UseEconoVintApplic" = FALSE   $ Msr (Multi)TechID: StdNResSplitAC-45to55
 "WlhpVintEconoFlag" = 1   $ IP Non-Tech
 "DuctDT" = 1   $ IP Tech: ComDuctInsul-1
 "DuctAirLoss" = 0   $ IP Tech: ComDuctLeak-0
 "DuctLossOAFrac" = 0   $ IP Tech: ComDuctLeak-0
 "ComRoofInsCalc" = FromUo   $ IP Tech: ComRoofIns-Hvy-0.04
 "ComRoofInsR" = -999   $ IP Tech: ComRoofIns-Hvy-0.04
 "ComRoofUo" = 0.04   $ IP Tech: ComRoofIns-Hvy-0.04
 "ComEWInsCalc" = FromUo   $ IP Tech: ComWallIns-MFrm-0.06
 "ComEWInsR" = -999   $ IP Tech: ComWallIns-MFrm-0.06
 "ComEWUo" = 0.06   $ IP Tech: ComWallIns-MFrm-0.06
 "ComN_SHGC" = 0.26   $ IP Tech: NResWin-ComN-0.41-0.26
 "ComN_UFactor" = 0.41   $ IP Tech: NResWin-ComN-0.41-0.26
 "ComN_VisTrans" = 0.41   $ IP Tech: NResWin-ComN-0.41-0.26
 "ComN_WinCode" = G2666   $ IP Tech: NResWin-ComN-0.41-0.26
 "ComN_WinFrmFrac" = 0.17   $ IP Tech: NResWin-ComN-0.41-0.26
 "ComN_WinFrmU" = 0.3   $ IP Tech: NResWin-ComN-0.41-0.26
 "ComO_SHGC" = 0.26   $ IP Tech: NResWin-ComO-0.41-0.26
 "ComO_UFactor" = 0.41   $ IP Tech: NResWin-ComO-0.41-0.26
 "ComO_VisTrans" = 0.41   $ IP Tech: NResWin-ComO-0.41-0.26
 "ComO_WinCode" = G2666   $ IP Tech: NResWin-ComO-0.41-0.26
 "ComO_WinFrmFrac" = 0.17   $ IP Tech: NResWin-ComO-0.41-0.26
 "ComO_WinFrmU" = 0.3   $ IP Tech: NResWin-ComO-0.41-0.26
 "LtgMsrApplic" = ALL   $ IP Tech: NonResLtgRefPre
 "LtgSav_CFL" = 0   $ IP Tech: NonResLtgRefPre
 "LtgSav_EX" = 0   $ IP Tech: NonResLtgRefPre
 "LtgSav_HB" = 0   $ IP Tech: NonResLtgRefPre
 "LtgSav_LF" = 0   $ IP Tech: NonResLtgRefPre
 "LtgSav_SP" = 0   $ IP Tech: NonResLtgRefPre
 "CEIR_fPLR" = PSZ65to135_CEIR_fPLR   $ IP Tech: PkgAC2SpP-65to135-E11
 "CLoss_fPLR" = PSZ65to135_CLoss_fPLR   $ IP Tech: PkgAC2SpP-65to135-E11
 "COP" = -1   $ IP Tech: PkgAC2SpP-65to135-E11
 "HtgFuel" = Gas   $ IP Tech: PkgAC2SpP-65to135-E11
 "IEER" = 13.35   $ IP Tech: PkgAC2SpP-65to135-E11
 "NominalCap" = 15   $ IP Tech: PkgAC2SpP-65to135-E11
 "RatedEER" = 11   $ IP Tech: PkgAC2SpP-65to135-E11
 "RatedSupMtrClass" = Premium   $ IP Tech: PkgAC2SpP-65to135-E11
 "SizeRange" = 65to135   $ IP Tech: PkgAC2SpP-65to135-E11
 "SupMotEff" = 0.865   $ IP Tech: PkgAC2SpP-65to135-E11
 "Tier" = 0   $ IP Tech: PkgAC2SpP-65to135-E11
 "FanPwrMult" = 1   $ IP Tech: PkgFurn-0.80AFUE
 "FurnAFUE" = 0.8   $ IP Tech: PkgFurn-0.80AFUE
 "FurnEt" = 0.82   $ IP Tech: PkgFurn-0.80AFUE
 "FurnaceAuxKW" = 0.1   $ IP Tech: PkgFurn-0.80AFUE
 "HIR_fPLR" = Furnace-HIR-fPLR   $ IP Tech: PkgFurn-0.80AFUE
 "VSM" = FALSE   $ IP Tech: PkgFurn-0.80AFUE
 "BFMult" = 1   $ IP Tech: RefgChg-NRes-Std
 "CoolEirMult" = 1   $ IP Tech: RefgChg-NRes-Std
 "SensCoolCapMult" = 1   $ IP Tech: RefgChg-NRes-Std
 "TotCoolCapMult" = 1   $ IP Tech: RefgChg-NRes-Std
 "AltAdjFactor" = 1.09733   $ Sizing
 "CAssFlo_L_Break_CZn" = 642.7659   $ Sizing
 "CAssFlo_L_Conf_CZn" = 622.6977   $ Sizing
 "CAssFlo_L_CopyRm_CZn" = 204.6903   $ Sizing
 "CAssFlo_L_Cordr_CZn" = 741.189   $ Sizing
 "CAssFlo_L_Cordr_EZn" = 259.8845   $ Sizing
 "CAssFlo_L_Cordr_NZn" = 183.9509   $ Sizing
 "CAssFlo_L_Cordr_SZn" = 260.9415   $ Sizing
 "CAssFlo_L_Cordr_WZn" = 290.9866   $ Sizing
 "CAssFlo_L_LobWait_CZn" = 643.7903   $ Sizing
 "CAssFlo_L_MechElec_CZn" = 144.7942   $ Sizing
 "CAssFlo_L_OfficeOpn_CZn" = 2065.132   $ Sizing
 "CAssFlo_L_OfficeOpn_EZn" = 1785.404   $ Sizing
 "CAssFlo_L_OfficeOpn_NZn" = 1331.529   $ Sizing
 "CAssFlo_L_OfficeOpn_SZn" = 1799.641   $ Sizing
 "CAssFlo_L_OfficeOpn_WZn" = 2048.861   $ Sizing
 "CAssFlo_L_OfficeSm_CZn" = 267.9526   $ Sizing
 "CAssFlo_L_OfficeSm_EZn" = 1270.32   $ Sizing
 "CAssFlo_L_OfficeSm_NZn" = 871.3282   $ Sizing
 "CAssFlo_L_OfficeSm_SZn" = 1267.641   $ Sizing
 "CAssFlo_L_OfficeSm_WZn" = 1435.83   $ Sizing
 "CAssFlo_L_Restrm_CZn" = 103.2659   $ Sizing
 "CAssFlo_L_StorSm_CZn" = 448.9414   $ Sizing
 "CAssFlo_M_Break_CZn" = 648.1553   $ Sizing
 "CAssFlo_M_Conf_CZn" = 618.2205   $ Sizing
 "CAssFlo_M_CopyRm_CZn" = 194.2407   $ Sizing
 "CAssFlo_M_Cordr_CZn" = 1022.378   $ Sizing
 "CAssFlo_M_Cordr_EZn" = 297.2365   $ Sizing
 "CAssFlo_M_Cordr_NZn" = 198.2945   $ Sizing
 "CAssFlo_M_Cordr_SZn" = 282.8875   $ Sizing
 "CAssFlo_M_Cordr_WZn" = 305.4802   $ Sizing
 "CAssFlo_M_LobWait_CZn" = 661.0392   $ Sizing
 "CAssFlo_M_MechElec_CZn" = 181.18   $ Sizing
 "CAssFlo_M_OfficeOpn_CZn" = 2087.258   $ Sizing
 "CAssFlo_M_OfficeOpn_EZn" = 1928.354   $ Sizing
 "CAssFlo_M_OfficeOpn_NZn" = 1391.081   $ Sizing
 "CAssFlo_M_OfficeOpn_SZn" = 1892.303   $ Sizing
 "CAssFlo_M_OfficeOpn_WZn" = 2100.03   $ Sizing
 "CAssFlo_M_OfficeSm_CZn" = 325.894   $ Sizing
 "CAssFlo_M_OfficeSm_EZn" = 1356.333   $ Sizing
 "CAssFlo_M_OfficeSm_NZn" = 904.3529   $ Sizing
 "CAssFlo_M_OfficeSm_SZn" = 1319.824   $ Sizing
 "CAssFlo_M_OfficeSm_WZn" = 1461.765   $ Sizing
 "CAssFlo_M_Restrm_CZn" = 115.5935   $ Sizing
 "CAssFlo_M_StorSm_CZn" = 474.813   $ Sizing
 "CAssFlo_T_Break_CZn" = 638.9355   $ Sizing
 "CAssFlo_T_Conf_CZn" = 614.0095   $ Sizing
 "CAssFlo_T_CopyRm_CZn" = 194.6642   $ Sizing
 "CAssFlo_T_Cordr_CZn" = 958.5809   $ Sizing
 "CAssFlo_T_Cordr_EZn" = 291.3428   $ Sizing
 "CAssFlo_T_Cordr_NZn" = 202.6913   $ Sizing
 "CAssFlo_T_Cordr_SZn" = 282.842   $ Sizing
 "CAssFlo_T_Cordr_WZn" = 307.347   $ Sizing
 "CAssFlo_T_LobWait_CZn" = 653.2067   $ Sizing
 "CAssFlo_T_MechElec_CZn" = 205.3227   $ Sizing
 "CAssFlo_T_OfficeOpn_CZn" = 2118.775   $ Sizing
 "CAssFlo_T_OfficeOpn_EZn" = 1911.652   $ Sizing
 "CAssFlo_T_OfficeOpn_NZn" = 1415.043   $ Sizing
 "CAssFlo_T_OfficeOpn_SZn" = 1912.89   $ Sizing
 "CAssFlo_T_OfficeOpn_WZn" = 2099.63   $ Sizing
 "CAssFlo_T_OfficeSm_CZn" = 302.9476   $ Sizing
 "CAssFlo_T_OfficeSm_EZn" = 1377.49   $ Sizing
 "CAssFlo_T_OfficeSm_NZn" = 927.5516   $ Sizing
 "CAssFlo_T_OfficeSm_SZn" = 1350.261   $ Sizing
 "CAssFlo_T_OfficeSm_WZn" = 1489.008   $ Sizing
 "CAssFlo_T_Restrm_CZn" = 155.4875   $ Sizing
 "CAssFlo_T_StorSm_CZn" = 305.7941   $ Sizing
 "CHRtFlo_Sys_L_Break_C" = 642.7659   $ Sizing
 "CHRtFlo_Sys_L_Conf_C" = 622.6977   $ Sizing
 "CHRtFlo_Sys_L_CopyRm_C" = 204.6903   $ Sizing
 "CHRtFlo_Sys_L_Cordr_C" = 741.189   $ Sizing
 "CHRtFlo_Sys_L_Cordr_E" = 284.1005   $ Sizing
 "CHRtFlo_Sys_L_Cordr_N" = 183.9509   $ Sizing
 "CHRtFlo_Sys_L_Cordr_S" = 261.275   $ Sizing
 "CHRtFlo_Sys_L_Cordr_W" = 290.9866   $ Sizing
 "CHRtFlo_Sys_L_LobWait_C" = 643.7903   $ Sizing
 "CHRtFlo_Sys_L_MechElec_C" = 152.7466   $ Sizing
 "CHRtFlo_Sys_L_OfficeOpn_C" = 2065.132   $ Sizing
 "CHRtFlo_Sys_L_OfficeOpn_E" = 2004.518   $ Sizing
 "CHRtFlo_Sys_L_OfficeOpn_N" = 1331.529   $ Sizing
 "CHRtFlo_Sys_L_OfficeOpn_S" = 1888.827   $ Sizing
 "CHRtFlo_Sys_L_OfficeOpn_W" = 2048.861   $ Sizing
 "CHRtFlo_Sys_L_OfficeSm_C" = 285.5422   $ Sizing
 "CHRtFlo_Sys_L_OfficeSm_E" = 1460.474   $ Sizing
 "CHRtFlo_Sys_L_OfficeSm_N" = 871.3282   $ Sizing
 "CHRtFlo_Sys_L_OfficeSm_S" = 1384.739   $ Sizing
 "CHRtFlo_Sys_L_OfficeSm_W" = 1469.268   $ Sizing
 "CHRtFlo_Sys_L_Restrm_C" = 230.7435   $ Sizing
 "CHRtFlo_Sys_L_StorSm_C" = 457.8416   $ Sizing
 "CHRtFlo_Sys_M_Break_C" = 5185.243   $ Sizing
 "CHRtFlo_Sys_M_Conf_C" = 4945.764   $ Sizing
 "CHRtFlo_Sys_M_CopyRm_C" = 1553.925   $ Sizing
 "CHRtFlo_Sys_M_Cordr_C" = 8768.281   $ Sizing
 "CHRtFlo_Sys_M_Cordr_E" = 2648.583   $ Sizing
 "CHRtFlo_Sys_M_Cordr_N" = 1645.985   $ Sizing
 "CHRtFlo_Sys_M_Cordr_S" = 2359.838   $ Sizing
 "CHRtFlo_Sys_M_Cordr_W" = 2443.841   $ Sizing
 "CHRtFlo_Sys_M_LobWait_C" = 5288.313   $ Sizing
 "CHRtFlo_Sys_M_MechElec_C" = 1601.311   $ Sizing
 "CHRtFlo_Sys_M_OfficeOpn_C" = 18517.91   $ Sizing
 "CHRtFlo_Sys_M_OfficeOpn_E" = 17416.73   $ Sizing
 "CHRtFlo_Sys_M_OfficeOpn_N" = 11128.65   $ Sizing
 "CHRtFlo_Sys_M_OfficeOpn_S" = 16190.7   $ Sizing
 "CHRtFlo_Sys_M_OfficeOpn_W" = 16800.24   $ Sizing
 "CHRtFlo_Sys_M_OfficeSm_C" = 2864.812   $ Sizing
 "CHRtFlo_Sys_M_OfficeSm_E" = 12490.65   $ Sizing
 "CHRtFlo_Sys_M_OfficeSm_N" = 7234.823   $ Sizing
 "CHRtFlo_Sys_M_OfficeSm_S" = 11718.98   $ Sizing
 "CHRtFlo_Sys_M_OfficeSm_W" = 11962.25   $ Sizing
 "CHRtFlo_Sys_M_Restrm_C" = 1845.948   $ Sizing
 "CHRtFlo_Sys_M_StorSm_C" = 4010.598   $ Sizing
 "CHRtFlo_Sys_T_Break_C" = 638.9355   $ Sizing
 "CHRtFlo_Sys_T_Conf_C" = 614.0095   $ Sizing
 "CHRtFlo_Sys_T_CopyRm_C" = 194.6642   $ Sizing
 "CHRtFlo_Sys_T_Cordr_C" = 958.5809   $ Sizing
 "CHRtFlo_Sys_T_Cordr_E" = 292.7273   $ Sizing
 "CHRtFlo_Sys_T_Cordr_N" = 202.6913   $ Sizing
 "CHRtFlo_Sys_T_Cordr_S" = 282.842   $ Sizing
 "CHRtFlo_Sys_T_Cordr_W" = 307.347   $ Sizing
 "CHRtFlo_Sys_T_LobWait_C" = 653.2067   $ Sizing
 "CHRtFlo_Sys_T_MechElec_C" = 234.2639   $ Sizing
 "CHRtFlo_Sys_T_OfficeOpn_C" = 2118.775   $ Sizing
 "CHRtFlo_Sys_T_OfficeOpn_E" = 1980.932   $ Sizing
 "CHRtFlo_Sys_T_OfficeOpn_N" = 1415.043   $ Sizing
 "CHRtFlo_Sys_T_OfficeOpn_S" = 1912.89   $ Sizing
 "CHRtFlo_Sys_T_OfficeOpn_W" = 2099.63   $ Sizing
 "CHRtFlo_Sys_T_OfficeSm_C" = 316.8943   $ Sizing
 "CHRtFlo_Sys_T_OfficeSm_E" = 1462.796   $ Sizing
 "CHRtFlo_Sys_T_OfficeSm_N" = 927.5516   $ Sizing
 "CHRtFlo_Sys_T_OfficeSm_S" = 1396.86   $ Sizing
 "CHRtFlo_Sys_T_OfficeSm_W" = 1489.008   $ Sizing
 "CHRtFlo_Sys_T_Restrm_C" = 230.7435   $ Sizing
 "CHRtFlo_Sys_T_StorSm_C" = 363.8655   $ Sizing
 "CRtdFlo_Sys_L_Break_C" = 642.7659   $ Sizing
 "CRtdFlo_Sys_L_Conf_C" = 622.6977   $ Sizing
 "CRtdFlo_Sys_L_CopyRm_C" = 204.6903   $ Sizing
 "CRtdFlo_Sys_L_Cordr_C" = 741.189   $ Sizing
 "CRtdFlo_Sys_L_Cordr_E" = 259.8845   $ Sizing
 "CRtdFlo_Sys_L_Cordr_N" = 183.9509   $ Sizing
 "CRtdFlo_Sys_L_Cordr_S" = 260.9415   $ Sizing
 "CRtdFlo_Sys_L_Cordr_W" = 290.9866   $ Sizing
 "CRtdFlo_Sys_L_LobWait_C" = 643.7903   $ Sizing
 "CRtdFlo_Sys_L_MechElec_C" = 144.7942   $ Sizing
 "CRtdFlo_Sys_L_OfficeOpn_C" = 2065.132   $ Sizing
 "CRtdFlo_Sys_L_OfficeOpn_E" = 1785.404   $ Sizing
 "CRtdFlo_Sys_L_OfficeOpn_N" = 1331.529   $ Sizing
 "CRtdFlo_Sys_L_OfficeOpn_S" = 1799.641   $ Sizing
 "CRtdFlo_Sys_L_OfficeOpn_W" = 2048.861   $ Sizing
 "CRtdFlo_Sys_L_OfficeSm_C" = 267.9526   $ Sizing
 "CRtdFlo_Sys_L_OfficeSm_E" = 1270.32   $ Sizing
 "CRtdFlo_Sys_L_OfficeSm_N" = 871.3282   $ Sizing
 "CRtdFlo_Sys_L_OfficeSm_S" = 1267.641   $ Sizing
 "CRtdFlo_Sys_L_OfficeSm_W" = 1435.83   $ Sizing
 "CRtdFlo_Sys_L_Restrm_C" = 103.2659   $ Sizing
 "CRtdFlo_Sys_L_StorSm_C" = 448.9414   $ Sizing
 "CRtdFlo_Sys_M_Break_C" = 5185.243   $ Sizing
 "CRtdFlo_Sys_M_Conf_C" = 4945.764   $ Sizing
 "CRtdFlo_Sys_M_CopyRm_C" = 1553.925   $ Sizing
 "CRtdFlo_Sys_M_Cordr_C" = 8179.027   $ Sizing
 "CRtdFlo_Sys_M_Cordr_E" = 2377.892   $ Sizing
 "CRtdFlo_Sys_M_Cordr_N" = 1586.356   $ Sizing
 "CRtdFlo_Sys_M_Cordr_S" = 2263.1   $ Sizing
 "CRtdFlo_Sys_M_Cordr_W" = 2443.841   $ Sizing
 "CRtdFlo_Sys_M_LobWait_C" = 5288.313   $ Sizing
 "CRtdFlo_Sys_M_MechElec_C" = 1449.44   $ Sizing
 "CRtdFlo_Sys_M_OfficeOpn_C" = 16698.06   $ Sizing
 "CRtdFlo_Sys_M_OfficeOpn_E" = 15426.83   $ Sizing
 "CRtdFlo_Sys_M_OfficeOpn_N" = 11128.65   $ Sizing
 "CRtdFlo_Sys_M_OfficeOpn_S" = 15138.42   $ Sizing
 "CRtdFlo_Sys_M_OfficeOpn_W" = 16800.24   $ Sizing
 "CRtdFlo_Sys_M_OfficeSm_C" = 2607.152   $ Sizing
 "CRtdFlo_Sys_M_OfficeSm_E" = 10850.67   $ Sizing
 "CRtdFlo_Sys_M_OfficeSm_N" = 7234.823   $ Sizing
 "CRtdFlo_Sys_M_OfficeSm_S" = 10558.6   $ Sizing
 "CRtdFlo_Sys_M_OfficeSm_W" = 11694.12   $ Sizing
 "CRtdFlo_Sys_M_Restrm_C" = 924.7482   $ Sizing
 "CRtdFlo_Sys_M_StorSm_C" = 3798.504   $ Sizing
 "CRtdFlo_Sys_T_Break_C" = 638.9355   $ Sizing
 "CRtdFlo_Sys_T_Conf_C" = 614.0095   $ Sizing
 "CRtdFlo_Sys_T_CopyRm_C" = 194.6642   $ Sizing
 "CRtdFlo_Sys_T_Cordr_C" = 958.5809   $ Sizing
 "CRtdFlo_Sys_T_Cordr_E" = 291.3428   $ Sizing
 "CRtdFlo_Sys_T_Cordr_N" = 202.6913   $ Sizing
 "CRtdFlo_Sys_T_Cordr_S" = 282.842   $ Sizing
 "CRtdFlo_Sys_T_Cordr_W" = 307.347   $ Sizing
 "CRtdFlo_Sys_T_LobWait_C" = 653.2067   $ Sizing
 "CRtdFlo_Sys_T_MechElec_C" = 205.3227   $ Sizing
 "CRtdFlo_Sys_T_OfficeOpn_C" = 2118.775   $ Sizing
 "CRtdFlo_Sys_T_OfficeOpn_E" = 1911.652   $ Sizing
 "CRtdFlo_Sys_T_OfficeOpn_N" = 1415.043   $ Sizing
 "CRtdFlo_Sys_T_OfficeOpn_S" = 1912.89   $ Sizing
 "CRtdFlo_Sys_T_OfficeOpn_W" = 2099.63   $ Sizing
 "CRtdFlo_Sys_T_OfficeSm_C" = 302.9476   $ Sizing
 "CRtdFlo_Sys_T_OfficeSm_E" = 1377.49   $ Sizing
 "CRtdFlo_Sys_T_OfficeSm_N" = 927.5516   $ Sizing
 "CRtdFlo_Sys_T_OfficeSm_S" = 1350.261   $ Sizing
 "CRtdFlo_Sys_T_OfficeSm_W" = 1489.008   $ Sizing
 "CRtdFlo_Sys_T_Restrm_C" = 155.4875   $ Sizing
 "CRtdFlo_Sys_T_StorSm_C" = 305.7941   $ Sizing
 "CSupFlo_Sys_L_Break_C" = 642.7659   $ Sizing
 "CSupFlo_Sys_L_Conf_C" = 622.6977   $ Sizing
 "CSupFlo_Sys_L_CopyRm_C" = 204.6903   $ Sizing
 "CSupFlo_Sys_L_Cordr_C" = 741.189   $ Sizing
 "CSupFlo_Sys_L_Cordr_E" = 259.8845   $ Sizing
 "CSupFlo_Sys_L_Cordr_N" = 183.9509   $ Sizing
 "CSupFlo_Sys_L_Cordr_S" = 260.9415   $ Sizing
 "CSupFlo_Sys_L_Cordr_W" = 290.9866   $ Sizing
 "CSupFlo_Sys_L_LobWait_C" = 643.7903   $ Sizing
 "CSupFlo_Sys_L_MechElec_C" = 144.7942   $ Sizing
 "CSupFlo_Sys_L_OfficeOpn_C" = 2065.132   $ Sizing
 "CSupFlo_Sys_L_OfficeOpn_E" = 1785.404   $ Sizing
 "CSupFlo_Sys_L_OfficeOpn_N" = 1331.529   $ Sizing
 "CSupFlo_Sys_L_OfficeOpn_S" = 1799.641   $ Sizing
 "CSupFlo_Sys_L_OfficeOpn_W" = 2048.861   $ Sizing
 "CSupFlo_Sys_L_OfficeSm_C" = 267.9526   $ Sizing
 "CSupFlo_Sys_L_OfficeSm_E" = 1270.32   $ Sizing
 "CSupFlo_Sys_L_OfficeSm_N" = 871.3282   $ Sizing
 "CSupFlo_Sys_L_OfficeSm_S" = 1267.641   $ Sizing
 "CSupFlo_Sys_L_OfficeSm_W" = 1435.83   $ Sizing
 "CSupFlo_Sys_L_Restrm_C" = 103.2659   $ Sizing
 "CSupFlo_Sys_L_StorSm_C" = 448.9414   $ Sizing
 "CSupFlo_Sys_M_Break_C" = 5185.243   $ Sizing
 "CSupFlo_Sys_M_Conf_C" = 4945.764   $ Sizing
 "CSupFlo_Sys_M_CopyRm_C" = 1553.925   $ Sizing
 "CSupFlo_Sys_M_Cordr_C" = 8179.027   $ Sizing
 "CSupFlo_Sys_M_Cordr_E" = 2377.892   $ Sizing
 "CSupFlo_Sys_M_Cordr_N" = 1586.356   $ Sizing
 "CSupFlo_Sys_M_Cordr_S" = 2263.1   $ Sizing
 "CSupFlo_Sys_M_Cordr_W" = 2443.841   $ Sizing
 "CSupFlo_Sys_M_LobWait_C" = 5288.313   $ Sizing
 "CSupFlo_Sys_M_MechElec_C" = 1449.44   $ Sizing
 "CSupFlo_Sys_M_OfficeOpn_C" = 16698.06   $ Sizing
 "CSupFlo_Sys_M_OfficeOpn_E" = 15426.83   $ Sizing
 "CSupFlo_Sys_M_OfficeOpn_N" = 11128.65   $ Sizing
 "CSupFlo_Sys_M_OfficeOpn_S" = 15138.42   $ Sizing
 "CSupFlo_Sys_M_OfficeOpn_W" = 16800.24   $ Sizing
 "CSupFlo_Sys_M_OfficeSm_C" = 2607.152   $ Sizing
 "CSupFlo_Sys_M_OfficeSm_E" = 10850.67   $ Sizing
 "CSupFlo_Sys_M_OfficeSm_N" = 7234.823   $ Sizing
 "CSupFlo_Sys_M_OfficeSm_S" = 10558.6   $ Sizing
 "CSupFlo_Sys_M_OfficeSm_W" = 11694.12   $ Sizing
 "CSupFlo_Sys_M_Restrm_C" = 924.7482   $ Sizing
 "CSupFlo_Sys_M_StorSm_C" = 3798.504   $ Sizing
 "CSupFlo_Sys_T_Break_C" = 638.9355   $ Sizing
 "CSupFlo_Sys_T_Conf_C" = 614.0095   $ Sizing
 "CSupFlo_Sys_T_CopyRm_C" = 194.6642   $ Sizing
 "CSupFlo_Sys_T_Cordr_C" = 958.5809   $ Sizing
 "CSupFlo_Sys_T_Cordr_E" = 291.3428   $ Sizing
 "CSupFlo_Sys_T_Cordr_N" = 202.6913   $ Sizing
 "CSupFlo_Sys_T_Cordr_S" = 282.842   $ Sizing
 "CSupFlo_Sys_T_Cordr_W" = 307.347   $ Sizing
 "CSupFlo_Sys_T_LobWait_C" = 653.2067   $ Sizing
 "CSupFlo_Sys_T_MechElec_C" = 205.3227   $ Sizing
 "CSupFlo_Sys_T_OfficeOpn_C" = 2118.775   $ Sizing
 "CSupFlo_Sys_T_OfficeOpn_E" = 1911.652   $ Sizing
 "CSupFlo_Sys_T_OfficeOpn_N" = 1415.043   $ Sizing
 "CSupFlo_Sys_T_OfficeOpn_S" = 1912.89   $ Sizing
 "CSupFlo_Sys_T_OfficeOpn_W" = 2099.63   $ Sizing
 "CSupFlo_Sys_T_OfficeSm_C" = 302.9476   $ Sizing
 "CSupFlo_Sys_T_OfficeSm_E" = 1377.49   $ Sizing
 "CSupFlo_Sys_T_OfficeSm_N" = 927.5516   $ Sizing
 "CSupFlo_Sys_T_OfficeSm_S" = 1350.261   $ Sizing
 "CSupFlo_Sys_T_OfficeSm_W" = 1489.008   $ Sizing
 "CSupFlo_Sys_T_Restrm_C" = 155.4875   $ Sizing
 "CSupFlo_Sys_T_StorSm_C" = 305.7941   $ Sizing
 "ClCap_Sys_L_Break_C" = 20083.01   $ Sizing
 "ClCap_Sys_L_Conf_C" = 24762.16   $ Sizing
 "ClCap_Sys_L_CopyRm_C" = 6395.483   $ Sizing
 "ClCap_Sys_L_Cordr_C" = 23158.21   $ Sizing
 "ClCap_Sys_L_Cordr_E" = 8120.005   $ Sizing
 "ClCap_Sys_L_Cordr_N" = 5747.487   $ Sizing
 "ClCap_Sys_L_Cordr_S" = 8153.033   $ Sizing
 "ClCap_Sys_L_Cordr_W" = 9091.781   $ Sizing
 "ClCap_Sys_L_LobWait_C" = 20115.02   $ Sizing
 "ClCap_Sys_L_MechElec_C" = 4524.047   $ Sizing
 "ClCap_Sys_L_OfficeOpn_C" = 64524.38   $ Sizing
 "ClCap_Sys_L_OfficeOpn_E" = 55784.38   $ Sizing
 "ClCap_Sys_L_OfficeOpn_N" = 41603.2   $ Sizing
 "ClCap_Sys_L_OfficeOpn_S" = 56229.2   $ Sizing
 "ClCap_Sys_L_OfficeOpn_W" = 64016   $ Sizing
 "ClCap_Sys_L_OfficeSm_C" = 8372.093   $ Sizing
 "ClCap_Sys_L_OfficeSm_E" = 39690.73   $ Sizing
 "ClCap_Sys_L_OfficeSm_N" = 27224.37   $ Sizing
 "ClCap_Sys_L_OfficeSm_S" = 39607.04   $ Sizing
 "ClCap_Sys_L_OfficeSm_W" = 44862.04   $ Sizing
 "ClCap_Sys_L_Restrm_C" = 3226.51   $ Sizing
 "ClCap_Sys_L_StorSm_C" = 14027.03   $ Sizing
 "ClCap_Sys_M_Break_C" = 162011.2   $ Sizing
 "ClCap_Sys_M_Conf_C" = 196673   $ Sizing
 "ClCap_Sys_M_CopyRm_C" = 48551.89   $ Sizing
 "ClCap_Sys_M_Cordr_C" = 255551   $ Sizing
 "ClCap_Sys_M_Cordr_E" = 74296.45   $ Sizing
 "ClCap_Sys_M_Cordr_N" = 49565.18   $ Sizing
 "ClCap_Sys_M_Cordr_S" = 70709.8   $ Sizing
 "ClCap_Sys_M_Cordr_W" = 76357.02   $ Sizing
 "ClCap_Sys_M_LobWait_C" = 165231.6   $ Sizing
 "ClCap_Sys_M_MechElec_C" = 45287.29   $ Sizing
 "ClCap_Sys_M_OfficeOpn_C" = 521725.6   $ Sizing
 "ClCap_Sys_M_OfficeOpn_E" = 482006.3   $ Sizing
 "ClCap_Sys_M_OfficeOpn_N" = 347711.1   $ Sizing
 "ClCap_Sys_M_OfficeOpn_S" = 472995.1   $ Sizing
 "ClCap_Sys_M_OfficeOpn_W" = 524918.1   $ Sizing
 "ClCap_Sys_M_OfficeSm_C" = 81459.62   $ Sizing
 "ClCap_Sys_M_OfficeSm_E" = 339025.6   $ Sizing
 "ClCap_Sys_M_OfficeSm_N" = 226049.7   $ Sizing
 "ClCap_Sys_M_OfficeSm_S" = 329899.9   $ Sizing
 "ClCap_Sys_M_OfficeSm_W" = 365379.1   $ Sizing
 "ClCap_Sys_M_Restrm_C" = 28893.46   $ Sizing
 "ClCap_Sys_M_StorSm_C" = 118683   $ Sizing
 "ClCap_Sys_T_Break_C" = 19963.33   $ Sizing
 "ClCap_Sys_T_Conf_C" = 24416.67   $ Sizing
 "ClCap_Sys_T_CopyRm_C" = 6082.219   $ Sizing
 "ClCap_Sys_T_Cordr_C" = 29950.55   $ Sizing
 "ClCap_Sys_T_Cordr_E" = 9102.911   $ Sizing
 "ClCap_Sys_T_Cordr_N" = 6333.023   $ Sizing
 "ClCap_Sys_T_Cordr_S" = 8837.306   $ Sizing
 "ClCap_Sys_T_Cordr_W" = 9602.957   $ Sizing
 "ClCap_Sys_T_LobWait_C" = 20409.23   $ Sizing
 "ClCap_Sys_T_MechElec_C" = 6415.241   $ Sizing
 "ClCap_Sys_T_OfficeOpn_C" = 66200.44   $ Sizing
 "ClCap_Sys_T_OfficeOpn_E" = 59728.94   $ Sizing
 "ClCap_Sys_T_OfficeOpn_N" = 44212.54   $ Sizing
 "ClCap_Sys_T_OfficeOpn_S" = 59767.61   $ Sizing
 "ClCap_Sys_T_OfficeOpn_W" = 65602.27   $ Sizing
 "ClCap_Sys_T_OfficeSm_C" = 9465.5   $ Sizing
 "ClCap_Sys_T_OfficeSm_E" = 43039.22   $ Sizing
 "ClCap_Sys_T_OfficeSm_N" = 28981.05   $ Sizing
 "ClCap_Sys_T_OfficeSm_S" = 42188.45   $ Sizing
 "ClCap_Sys_T_OfficeSm_W" = 46523.56   $ Sizing
 "ClCap_Sys_T_Restrm_C" = 4858.156   $ Sizing
 "ClCap_Sys_T_StorSm_C" = 9554.436   $ Sizing
 "HtCap_Sys_L_Break_C" = -34996.93   $ Sizing
 "HtCap_Sys_L_Conf_C" = -35216.23   $ Sizing
 "HtCap_Sys_L_CopyRm_C" = -13164.68   $ Sizing
 "HtCap_Sys_L_Cordr_C" = -31321.94   $ Sizing
 "HtCap_Sys_L_Cordr_E" = -9557.058   $ Sizing
 "HtCap_Sys_L_Cordr_N" = -7276.893   $ Sizing
 "HtCap_Sys_L_Cordr_S" = -8879.707   $ Sizing
 "HtCap_Sys_L_Cordr_W" = -9837.093   $ Sizing
 "HtCap_Sys_L_LobWait_C" = -33801.21   $ Sizing
 "HtCap_Sys_L_MechElec_C" = -6688.995   $ Sizing
 "HtCap_Sys_L_OfficeOpn_C" = -79203.73   $ Sizing
 "HtCap_Sys_L_OfficeOpn_E" = -64365.39   $ Sizing
 "HtCap_Sys_L_OfficeOpn_N" = -47972.02   $ Sizing
 "HtCap_Sys_L_OfficeOpn_S" = -60432.88   $ Sizing
 "HtCap_Sys_L_OfficeOpn_W" = -65562.11   $ Sizing
 "HtCap_Sys_L_OfficeSm_C" = -10647.13   $ Sizing
 "HtCap_Sys_L_OfficeSm_E" = -44991.18   $ Sizing
 "HtCap_Sys_L_OfficeSm_N" = -31128.63   $ Sizing
 "HtCap_Sys_L_OfficeSm_S" = -42325.3   $ Sizing
 "HtCap_Sys_L_OfficeSm_W" = -46572.63   $ Sizing
 "HtCap_Sys_L_Restrm_C" = -7765.205   $ Sizing
 "HtCap_Sys_L_StorSm_C" = -19165.06   $ Sizing
 "HtCap_Sys_M_Break_C" = -267584.3   $ Sizing
 "HtCap_Sys_M_Conf_C" = -259318.7   $ Sizing
 "HtCap_Sys_M_CopyRm_C" = -85868.45   $ Sizing
 "HtCap_Sys_M_Cordr_C" = -323436.6   $ Sizing
 "HtCap_Sys_M_Cordr_E" = -86152.09   $ Sizing
 "HtCap_Sys_M_Cordr_N" = -59564.42   $ Sizing
 "HtCap_Sys_M_Cordr_S" = -77836.89   $ Sizing
 "HtCap_Sys_M_Cordr_W" = -81306.83   $ Sizing
 "HtCap_Sys_M_LobWait_C" = -240992.5   $ Sizing
 "HtCap_Sys_M_MechElec_C" = -63310.83   $ Sizing
 "HtCap_Sys_M_OfficeOpn_C" = -664427.8   $ Sizing
 "HtCap_Sys_M_OfficeOpn_E" = -549826.5   $ Sizing
 "HtCap_Sys_M_OfficeOpn_N" = -390856.3   $ Sizing
 "HtCap_Sys_M_OfficeOpn_S" = -510884.5   $ Sizing
 "HtCap_Sys_M_OfficeOpn_W" = -533299.1   $ Sizing
 "HtCap_Sys_M_OfficeSm_C" = -100548.3   $ Sizing
 "HtCap_Sys_M_OfficeSm_E" = -383007.2   $ Sizing
 "HtCap_Sys_M_OfficeSm_N" = -252967.6   $ Sizing
 "HtCap_Sys_M_OfficeSm_S" = -366959.9   $ Sizing
 "HtCap_Sys_M_OfficeSm_W" = -376712.7   $ Sizing
 "HtCap_Sys_M_Restrm_C" = -66884.56   $ Sizing
 "HtCap_Sys_M_StorSm_C" = -157844.5   $ Sizing
 "HtCap_Sys_T_Break_C" = -35647.61   $ Sizing
 "HtCap_Sys_T_Conf_C" = -34847.02   $ Sizing
 "HtCap_Sys_T_CopyRm_C" = -11897.9   $ Sizing
 "HtCap_Sys_T_Cordr_C" = -41323.32   $ Sizing
 "HtCap_Sys_T_Cordr_E" = -11008.57   $ Sizing
 "HtCap_Sys_T_Cordr_N" = -8542.199   $ Sizing
 "HtCap_Sys_T_Cordr_S" = -10825.99   $ Sizing
 "HtCap_Sys_T_Cordr_W" = -11771.76   $ Sizing
 "HtCap_Sys_T_LobWait_C" = -33597.39   $ Sizing
 "HtCap_Sys_T_MechElec_C" = -8797.411   $ Sizing
 "HtCap_Sys_T_OfficeOpn_C" = -88420.22   $ Sizing
 "HtCap_Sys_T_OfficeOpn_E" = -70495.14   $ Sizing
 "HtCap_Sys_T_OfficeOpn_N" = -56860.39   $ Sizing
 "HtCap_Sys_T_OfficeOpn_S" = -69782.23   $ Sizing
 "HtCap_Sys_T_OfficeOpn_W" = -74968.02   $ Sizing
 "HtCap_Sys_T_OfficeSm_C" = -12684.46   $ Sizing
 "HtCap_Sys_T_OfficeSm_E" = -50422.93   $ Sizing
 "HtCap_Sys_T_OfficeSm_N" = -36748.63   $ Sizing
 "HtCap_Sys_T_OfficeSm_S" = -49805.54   $ Sizing
 "HtCap_Sys_T_OfficeSm_W" = -52851.96   $ Sizing
 "HtCap_Sys_T_Restrm_C" = -8839.333   $ Sizing
 "HtCap_Sys_T_StorSm_C" = -18147.24   $ Sizing
..

##include Templates\OfL_DX_SZ.inp
END ..
COMPUTE ..
STOP ..
