INPUT ..

##fileprefix C:\Users\jglasskatz\MASControl3\
##set1 IsSizing FALSE
##set1 CoolType DX
##set1 HeatType FURNACE
##set1 EU_HrRepVar 0
##set1 BldgVint 2020
##set1 BldgLoc CZ10

 ##set1 mBFMult 1   $ IP Tech: RefgChg-NRes-Std

PARAMETER
 "AltFactor" = 1.03143   $ IP Non-Tech
 "BF_fFlow" = SpltAC2SpHiSEER_BF_fFlow   $ Msr (Multi)TechID: MsrNResSplitAC-45to55-S17
 "BF_fT" = SpltAC2SpHiSEER_BF_fT   $ Msr (Multi)TechID: MsrNResSplitAC-45to55-S17
 "BldgEconoFlag" = 1   $ IP Non-Tech
 "Break_EWSF" = 1   $ IP Non-Tech
 "Break_LWSF" = 0.65   $ IP Non-Tech
 "CDD_DBHi10" = 92   $ IP Non-Tech
 "CDD_DBHi7" = 97   $ IP Non-Tech
 "CDD_DBHi8" = 99   $ IP Non-Tech
 "CDD_DBHi9" = 102   $ IP Non-Tech
 "CDD_DBRange10" = 19   $ IP Non-Tech
 "CDD_DBRange7" = 31   $ IP Non-Tech
 "CDD_DBRange8" = 31   $ IP Non-Tech
 "CDD_DBRange9" = 34   $ IP Non-Tech
 "CDD_Day10" = 15   $ IP Non-Tech
 "CDD_Day7" = 16   $ IP Non-Tech
 "CDD_Day8" = 20   $ IP Non-Tech
 "CDD_Day9" = 17   $ IP Non-Tech
 "CDD_HrHi10" = 15   $ IP Non-Tech
 "CDD_HrHi7" = 14   $ IP Non-Tech
 "CDD_HrHi8" = 14   $ IP Non-Tech
 "CDD_HrHi9" = 15   $ IP Non-Tech
 "CDD_HrLo10" = 3   $ IP Non-Tech
 "CDD_HrLo7" = 6   $ IP Non-Tech
 "CDD_HrLo8" = 5   $ IP Non-Tech
 "CDD_HrLo9" = 5   $ IP Non-Tech
 "CDD_WB10" = 62.63956451   $ IP Non-Tech
 "CDD_WB7" = 70.96998596   $ IP Non-Tech
 "CDD_WB8" = 71.98167419   $ IP Non-Tech
 "CDD_WB9" = 70.8795929   $ IP Non-Tech
 "CEIR_fPLR_Hot" = SpltAC2SpHiSEER_CEIR_fPLR_Hot   $ Msr (Multi)TechID: MsrNResSplitAC-45to55-S17
 "CEIR_fPLR_Mod" = SpltAC2SpHiSEER_CEIR_fPLR_Mod   $ Msr (Multi)TechID: MsrNResSplitAC-45to55-S17
 "CEIR_fPLR_Tem" = SpltAC2SpHiSEER_CEIR_fPLR_Tem   $ Msr (Multi)TechID: MsrNResSplitAC-45to55-S17
 "CLoss_fPLR_Hot" = SpltAC2SpHiSEER_CLoss_fPLR_Hot   $ Msr (Multi)TechID: MsrNResSplitAC-45to55-S17
 "CLoss_fPLR_Mod" = SpltAC2SpHiSEER_CLoss_fPLR_Mod   $ Msr (Multi)TechID: MsrNResSplitAC-45to55-S17
 "CLoss_fPLR_Tem" = SpltAC2SpHiSEER_CLoss_fPLR_Tem   $ Msr (Multi)TechID: MsrNResSplitAC-45to55-S17
 "COP47" = 0   $ Msr (Multi)TechID: MsrNResSplitAC-45to55-S17
 "CZ_Category" = Mod   $ IP Non-Tech
 "CapRange" = Any   $ Msr (Multi)TechID: MsrNResSplitAC-45to55-S17
 "CfmPerBtuh" = 0.03   $ Msr (Multi)TechID: MsrNResSplitAC-45to55-S17
 "ChwVintEconoFlag" = 1   $ IP Non-Tech
 "ClCap_fT" = SpltAC2SpHiSEER_ClCap_fT   $ Msr (Multi)TechID: MsrNResSplitAC-45to55-S17
 "ClSH_fT" = SpltAC2SpHiSEER_ClSH_fT   $ Msr (Multi)TechID: MsrNResSplitAC-45to55-S17
 "CoilBF" = 0.102   $ Msr (Multi)TechID: MsrNResSplitAC-45to55-S17
 "CondWPerBtuh" = 0   $ Msr (Multi)TechID: MsrNResSplitAC-45to55-S17
 "Conference_EWSF" = 1   $ IP Non-Tech
 "Conference_LWSF" = 0.85   $ IP Non-Tech
 "CoolSensCap" = 0.724   $ Msr (Multi)TechID: MsrNResSplitAC-45to55-S17
 "CoolSetT" = 45   $ IP Non-Tech
 "CoolType" = DX   $ IP Non-Tech
 "CoolingEIR" = 0.2225   $ Msr (Multi)TechID: MsrNResSplitAC-45to55-S17
 "CopyRoom_EWSF" = 1.5   $ IP Non-Tech
 "CopyRoom_LWSF" = 0.5   $ IP Non-Tech
 "CorridorStairway_EWSF" = 0.2   $ IP Non-Tech
 "CorridorStairway_LWSF" = 0.55   $ IP Non-Tech
 "CrnkEIR" = 0.002225   $ Msr (Multi)TechID: MsrNResSplitAC-45to55-S17
 "CrnkMaxT" = 50   $ Msr (Multi)TechID: MsrNResSplitAC-45to55-S17
 "DXType" = SplitSEER   $ Msr (Multi)TechID: MsrNResSplitAC-45to55-S17
 "DesCoolT" = 75   $ IP Non-Tech
 "DesHeatT" = 73   $ IP Non-Tech
 "EER" = 13.26   $ Msr (Multi)TechID: MsrNResSplitAC-45to55-S17
 "EIR_fT" = SpltAC2SpHiSEER_EIR_fT   $ Msr (Multi)TechID: MsrNResSplitAC-45to55-S17
 "EconoCtrl" = FIXED   $ Msr (Multi)TechID: MsrNResSplitAC-45to55-S17
 "EconoEnthLimit" = 28   $ IP Non-Tech
 "EconoTempLimit" = 73   $ IP Non-Tech
 "Elevation" = 840   $ IP Non-Tech
 "FanEirPlr" = TwoSpeedFan   $ Msr (Multi)TechID: MsrNResSplitAC-45to55-S17
 "FanWPerCfm" = 0.271   $ Msr (Multi)TechID: MsrNResSplitAC-45to55-S17
 "HDD_CloudAmt1" = 0   $ IP Non-Tech
 "HDD_DBHi1" = 53   $ IP Non-Tech
 "HDD_DBRange1" = 17   $ IP Non-Tech
 "HDD_Day1" = 15   $ IP Non-Tech
 "HDD_HrHi1" = 14   $ IP Non-Tech
 "HDD_HrLo1" = 5   $ IP Non-Tech
 "HDD_WB1" = 48.5   $ IP Non-Tech
 "HDD_WindSpd1" = 13.8   $ IP Non-Tech
 "HIR_fT" = 0   $ Msr (Multi)TechID: MsrNResSplitAC-45to55-S17
 "HSPF" = 0   $ Msr (Multi)TechID: MsrNResSplitAC-45to55-S17
 "HeatSrc" = FURNACE   $ IP Non-Tech
 "HeatSrcTU" = HEAT-PUMP   $ IP Non-Tech
 "HeatType" = GasFurn   $ IP Non-Tech
 "HeatTypeTU" = HEAT-PUMP   $ IP Non-Tech
 "HtCap_fT" = 0   $ Msr (Multi)TechID: MsrNResSplitAC-45to55-S17
 "HtCoolCapRatio" = 0   $ Msr (Multi)TechID: MsrNResSplitAC-45to55-S17
 "HtgEIR" = 0   $ Msr (Multi)TechID: MsrNResSplitAC-45to55-S17
 "IndoorFanMode" = CONTINUOUS   $ IP Non-Tech
 "KT_TransferAir" = Yes   $ IP Non-Tech
 "Latitude" = 34   $ IP Non-Tech
 "LobbyWaiting_EWSF" = 0.5   $ IP Non-Tech
 "LobbyWaiting_LWSF" = 0.75   $ IP Non-Tech
 "Longitude" = 117.4   $ IP Non-Tech
 "LowSpdCapRatio" = 0.686   $ Msr (Multi)TechID: MsrNResSplitAC-45to55-S17
 "LowSpdCfmRatio" = 0.739   $ Msr (Multi)TechID: MsrNResSplitAC-45to55-S17
 "MZFanMechEff" = 0.58   $ IP Non-Tech
 "MZHasRetFan" = FALSE   $ IP Non-Tech
 "MZ_RFanWPerCfm" = 0.37   $ IP Non-Tech
 "MZ_SFanWPerCfm" = 0.71   $ IP Non-Tech
 "MZ_SupFanStatic" = 2.25   $ IP Non-Tech
 "MaxOAFrac" = 1   $ Msr (Multi)TechID: MsrNResSplitAC-45to55-S17
 "MaxSupT_MZ" = 100   $ IP Non-Tech
 "MaxSupT_SZ" = 100   $ IP Non-Tech
 "MaxSupT_TU" = 90   $ IP Non-Tech
 "MechElecRoom_EWSF" = 0.2   $ IP Non-Tech
 "MechElecRoom_LWSF" = 0.4   $ IP Non-Tech
 "MinCfmPerSF" = 0.4   $ IP Non-Tech
 "MinSupT" = 55   $ IP Non-Tech
 "NumStages" = 2   $ Msr (Multi)TechID: MsrNResSplitAC-45to55-S17
 "OccCoolT" = 76   $ IP Non-Tech
 "OccHeatT" = 72   $ IP Non-Tech
 "OfficeOpen_EWSF" = 1.5   $ IP Non-Tech
 "OfficeOpen_LWSF" = 0.8   $ IP Non-Tech
 "OfficeSmall_EWSF" = 1.5   $ IP Non-Tech
 "OfficeSmall_LWSF" = 0.9   $ IP Non-Tech
 "PkgDxVintEconoFlag" = 1   $ IP Non-Tech
 "Restroom_EWSF" = 0.2   $ IP Non-Tech
 "Restroom_LWSF" = 0.65   $ IP Non-Tech
 "SEER" = 17   $ Msr (Multi)TechID: MsrNResSplitAC-45to55-S17
 "SZFanMechEff" = 0.58   $ IP Non-Tech
 "SZHasRetFan" = FALSE   $ IP Non-Tech
 "SZ_Is_2Spd" = TRUE   $ IP Non-Tech
 "SZ_SFanWPerCfm" = 0.46   $ IP Non-Tech
 "SZ_SupFanStatic" = 0.75   $ IP Non-Tech
 "Sector" = Any   $ Msr (Multi)TechID: MsrNResSplitAC-45to55-S17
 "StorageSmlCond_EWSF" = 0.2   $ IP Non-Tech
 "StorageSmlCond_LWSF" = 0.45   $ IP Non-Tech
 "SubType" = AC   $ Msr (Multi)TechID: MsrNResSplitAC-45to55-S17
 "TermUnitFanMechEff" = 1   $ IP Non-Tech
 "TermUnitFanMode" = INTERMITTENT   $ IP Non-Tech
 "TotCoolCap" = 58805   $ Msr (Multi)TechID: MsrNResSplitAC-45to55-S17
 "TwrSetpt" = 82.2   $ IP Non-Tech
 "UnocCoolT" = 86   $ IP Non-Tech
 "UnocHeatT" = 62   $ IP Non-Tech
 "UseEconoVintApplic" = FALSE   $ Msr (Multi)TechID: MsrNResSplitAC-45to55-S17
 "WlhpVintEconoFlag" = 1   $ IP Non-Tech
 "DuctDT" = 1   $ IP Tech: ComDuctInsul-1
 "DuctAirLoss" = 0   $ IP Tech: ComDuctLeak-0
 "DuctLossOAFrac" = 0   $ IP Tech: ComDuctLeak-0
 "ComRoofInsCalc" = FromUo   $ IP Tech: ComRoofIns-Hvy-0.03
 "ComRoofInsR" = -999   $ IP Tech: ComRoofIns-Hvy-0.03
 "ComRoofUo" = 0.03   $ IP Tech: ComRoofIns-Hvy-0.03
 "ComEWInsCalc" = FromUo   $ IP Tech: ComWallIns-MFrm-0.06
 "ComEWInsR" = -999   $ IP Tech: ComWallIns-MFrm-0.06
 "ComEWUo" = 0.06   $ IP Tech: ComWallIns-MFrm-0.06
 "ComN_SHGC" = 0.26   $ IP Tech: NResWin-ComN-0.41-0.26
 "ComN_UFactor" = 0.41   $ IP Tech: NResWin-ComN-0.41-0.26
 "ComN_VisTrans" = 0.41   $ IP Tech: NResWin-ComN-0.41-0.26
 "ComN_WinCode" = G2666   $ IP Tech: NResWin-ComN-0.41-0.26
 "ComN_WinFrmFrac" = 0.17   $ IP Tech: NResWin-ComN-0.41-0.26
 "ComN_WinFrmU" = 0.3   $ IP Tech: NResWin-ComN-0.41-0.26
 "ComO_SHGC" = 0.26   $ IP Tech: NResWin-ComO-0.41-0.26
 "ComO_UFactor" = 0.41   $ IP Tech: NResWin-ComO-0.41-0.26
 "ComO_VisTrans" = 0.41   $ IP Tech: NResWin-ComO-0.41-0.26
 "ComO_WinCode" = G2666   $ IP Tech: NResWin-ComO-0.41-0.26
 "ComO_WinFrmFrac" = 0.17   $ IP Tech: NResWin-ComO-0.41-0.26
 "ComO_WinFrmU" = 0.3   $ IP Tech: NResWin-ComO-0.41-0.26
 "LtgMsrApplic" = ALL   $ IP Tech: NonResLtgRefPre
 "LtgSav_CFL" = 0   $ IP Tech: NonResLtgRefPre
 "LtgSav_EX" = 0   $ IP Tech: NonResLtgRefPre
 "LtgSav_HB" = 0   $ IP Tech: NonResLtgRefPre
 "LtgSav_LF" = 0   $ IP Tech: NonResLtgRefPre
 "LtgSav_SP" = 0   $ IP Tech: NonResLtgRefPre
 "CEIR_fPLR" = PSZ65to135_CEIR_fPLR   $ IP Tech: PkgAC2SpP-65to135-E11
 "CLoss_fPLR" = PSZ65to135_CLoss_fPLR   $ IP Tech: PkgAC2SpP-65to135-E11
 "COP" = -1   $ IP Tech: PkgAC2SpP-65to135-E11
 "HtgFuel" = Gas   $ IP Tech: PkgAC2SpP-65to135-E11
 "IEER" = 13.35   $ IP Tech: PkgAC2SpP-65to135-E11
 "NominalCap" = 15   $ IP Tech: PkgAC2SpP-65to135-E11
 "RatedEER" = 11   $ IP Tech: PkgAC2SpP-65to135-E11
 "RatedSupMtrClass" = Premium   $ IP Tech: PkgAC2SpP-65to135-E11
 "SizeRange" = 65to135   $ IP Tech: PkgAC2SpP-65to135-E11
 "SupMotEff" = 0.865   $ IP Tech: PkgAC2SpP-65to135-E11
 "Tier" = 0   $ IP Tech: PkgAC2SpP-65to135-E11
 "FanPwrMult" = 1   $ IP Tech: PkgFurn-0.80AFUE
 "FurnAFUE" = 0.8   $ IP Tech: PkgFurn-0.80AFUE
 "FurnEt" = 0.82   $ IP Tech: PkgFurn-0.80AFUE
 "FurnaceAuxKW" = 0.1   $ IP Tech: PkgFurn-0.80AFUE
 "HIR_fPLR" = Furnace-HIR-fPLR   $ IP Tech: PkgFurn-0.80AFUE
 "VSM" = FALSE   $ IP Tech: PkgFurn-0.80AFUE
 "BFMult" = 1   $ IP Tech: RefgChg-NRes-Std
 "CoolEirMult" = 1   $ IP Tech: RefgChg-NRes-Std
 "SensCoolCapMult" = 1   $ IP Tech: RefgChg-NRes-Std
 "TotCoolCapMult" = 1   $ IP Tech: RefgChg-NRes-Std
 "AltAdjFactor" = 1.031429   $ Sizing
 "CAssFlo_L_Break_CZn" = 532.4077   $ Sizing
 "CAssFlo_L_Conf_CZn" = 514.2952   $ Sizing
 "CAssFlo_L_CopyRm_CZn" = 153.9799   $ Sizing
 "CAssFlo_L_Cordr_CZn" = 609.009   $ Sizing
 "CAssFlo_L_Cordr_EZn" = 210.6707   $ Sizing
 "CAssFlo_L_Cordr_NZn" = 141.9173   $ Sizing
 "CAssFlo_L_Cordr_SZn" = 227.2862   $ Sizing
 "CAssFlo_L_Cordr_WZn" = 254.4555   $ Sizing
 "CAssFlo_L_LobWait_CZn" = 480.5934   $ Sizing
 "CAssFlo_L_MechElec_CZn" = 104.603   $ Sizing
 "CAssFlo_L_OfficeOpn_CZn" = 1726.461   $ Sizing
 "CAssFlo_L_OfficeOpn_EZn" = 1475.207   $ Sizing
 "CAssFlo_L_OfficeOpn_NZn" = 1082.933   $ Sizing
 "CAssFlo_L_OfficeOpn_SZn" = 1578.98   $ Sizing
 "CAssFlo_L_OfficeOpn_WZn" = 1817.164   $ Sizing
 "CAssFlo_L_OfficeSm_CZn" = 218.3586   $ Sizing
 "CAssFlo_L_OfficeSm_EZn" = 1053.326   $ Sizing
 "CAssFlo_L_OfficeSm_NZn" = 700.7915   $ Sizing
 "CAssFlo_L_OfficeSm_SZn" = 1114.416   $ Sizing
 "CAssFlo_L_OfficeSm_WZn" = 1288.643   $ Sizing
 "CAssFlo_L_Restrm_CZn" = 91.53485   $ Sizing
 "CAssFlo_L_StorSm_CZn" = 336.1227   $ Sizing
 "CAssFlo_M_Break_CZn" = 537.1387   $ Sizing
 "CAssFlo_M_Conf_CZn" = 512.5256   $ Sizing
 "CAssFlo_M_CopyRm_CZn" = 151.3462   $ Sizing
 "CAssFlo_M_Cordr_CZn" = 789.2953   $ Sizing
 "CAssFlo_M_Cordr_EZn" = 242.9557   $ Sizing
 "CAssFlo_M_Cordr_NZn" = 159.5149   $ Sizing
 "CAssFlo_M_Cordr_SZn" = 250.6467   $ Sizing
 "CAssFlo_M_Cordr_WZn" = 271.3487   $ Sizing
 "CAssFlo_M_LobWait_CZn" = 498.7338   $ Sizing
 "CAssFlo_M_MechElec_CZn" = 128.7278   $ Sizing
 "CAssFlo_M_OfficeOpn_CZn" = 1730.07   $ Sizing
 "CAssFlo_M_OfficeOpn_EZn" = 1587.162   $ Sizing
 "CAssFlo_M_OfficeOpn_NZn" = 1137.971   $ Sizing
 "CAssFlo_M_OfficeOpn_SZn" = 1671.195   $ Sizing
 "CAssFlo_M_OfficeOpn_WZn" = 1869.803   $ Sizing
 "CAssFlo_M_OfficeSm_CZn" = 259.9688   $ Sizing
 "CAssFlo_M_OfficeSm_EZn" = 1118.43   $ Sizing
 "CAssFlo_M_OfficeSm_NZn" = 731.0981   $ Sizing
 "CAssFlo_M_OfficeSm_SZn" = 1170.02   $ Sizing
 "CAssFlo_M_OfficeSm_WZn" = 1315.738   $ Sizing
 "CAssFlo_M_Restrm_CZn" = 99.19624   $ Sizing
 "CAssFlo_M_StorSm_CZn" = 342.681   $ Sizing
 "CAssFlo_T_Break_CZn" = 526.0526   $ Sizing
 "CAssFlo_T_Conf_CZn" = 507.1111   $ Sizing
 "CAssFlo_T_CopyRm_CZn" = 146.6949   $ Sizing
 "CAssFlo_T_Cordr_CZn" = 718.9623   $ Sizing
 "CAssFlo_T_Cordr_EZn" = 231.5677   $ Sizing
 "CAssFlo_T_Cordr_NZn" = 158.42   $ Sizing
 "CAssFlo_T_Cordr_SZn" = 248.4095   $ Sizing
 "CAssFlo_T_Cordr_WZn" = 264.6492   $ Sizing
 "CAssFlo_T_LobWait_CZn" = 495.0831   $ Sizing
 "CAssFlo_T_MechElec_CZn" = 136.3272   $ Sizing
 "CAssFlo_T_OfficeOpn_CZn" = 1736.16   $ Sizing
 "CAssFlo_T_OfficeOpn_EZn" = 1544.574   $ Sizing
 "CAssFlo_T_OfficeOpn_NZn" = 1130.116   $ Sizing
 "CAssFlo_T_OfficeOpn_SZn" = 1675.877   $ Sizing
 "CAssFlo_T_OfficeOpn_WZn" = 1836.378   $ Sizing
 "CAssFlo_T_OfficeSm_CZn" = 250.1039   $ Sizing
 "CAssFlo_T_OfficeSm_EZn" = 1116.632   $ Sizing
 "CAssFlo_T_OfficeSm_NZn" = 734.7996   $ Sizing
 "CAssFlo_T_OfficeSm_SZn" = 1188.049   $ Sizing
 "CAssFlo_T_OfficeSm_WZn" = 1312.225   $ Sizing
 "CAssFlo_T_Restrm_CZn" = 120.4779   $ Sizing
 "CAssFlo_T_StorSm_CZn" = 244.5677   $ Sizing
 "CHRtFlo_Sys_L_Break_C" = 532.4077   $ Sizing
 "CHRtFlo_Sys_L_Conf_C" = 514.2952   $ Sizing
 "CHRtFlo_Sys_L_CopyRm_C" = 153.9799   $ Sizing
 "CHRtFlo_Sys_L_Cordr_C" = 623.2009   $ Sizing
 "CHRtFlo_Sys_L_Cordr_E" = 250.5759   $ Sizing
 "CHRtFlo_Sys_L_Cordr_N" = 141.9173   $ Sizing
 "CHRtFlo_Sys_L_Cordr_S" = 254.5728   $ Sizing
 "CHRtFlo_Sys_L_Cordr_W" = 254.4555   $ Sizing
 "CHRtFlo_Sys_L_LobWait_C" = 480.5934   $ Sizing
 "CHRtFlo_Sys_L_MechElec_C" = 137.352   $ Sizing
 "CHRtFlo_Sys_L_OfficeOpn_C" = 1726.461   $ Sizing
 "CHRtFlo_Sys_L_OfficeOpn_E" = 1784.995   $ Sizing
 "CHRtFlo_Sys_L_OfficeOpn_N" = 1082.933   $ Sizing
 "CHRtFlo_Sys_L_OfficeOpn_S" = 1782.197   $ Sizing
 "CHRtFlo_Sys_L_OfficeOpn_W" = 1860.346   $ Sizing
 "CHRtFlo_Sys_L_OfficeSm_C" = 246.054   $ Sizing
 "CHRtFlo_Sys_L_OfficeSm_E" = 1300.033   $ Sizing
 "CHRtFlo_Sys_L_OfficeSm_N" = 700.7915   $ Sizing
 "CHRtFlo_Sys_L_OfficeSm_S" = 1313.818   $ Sizing
 "CHRtFlo_Sys_L_OfficeSm_W" = 1355.165   $ Sizing
 "CHRtFlo_Sys_L_Restrm_C" = 216.8861   $ Sizing
 "CHRtFlo_Sys_L_StorSm_C" = 397.352   $ Sizing
 "CHRtFlo_Sys_M_Break_C" = 4297.109   $ Sizing
 "CHRtFlo_Sys_M_Conf_C" = 4152.015   $ Sizing
 "CHRtFlo_Sys_M_CopyRm_C" = 1210.77   $ Sizing
 "CHRtFlo_Sys_M_Cordr_C" = 7874.998   $ Sizing
 "CHRtFlo_Sys_M_Cordr_E" = 2363.915   $ Sizing
 "CHRtFlo_Sys_M_Cordr_N" = 1323.283   $ Sizing
 "CHRtFlo_Sys_M_Cordr_S" = 2305.536   $ Sizing
 "CHRtFlo_Sys_M_Cordr_W" = 2178.107   $ Sizing
 "CHRtFlo_Sys_M_LobWait_C" = 4150.338   $ Sizing
 "CHRtFlo_Sys_M_MechElec_C" = 1322.173   $ Sizing
 "CHRtFlo_Sys_M_OfficeOpn_C" = 16983.87   $ Sizing
 "CHRtFlo_Sys_M_OfficeOpn_E" = 15554.36   $ Sizing
 "CHRtFlo_Sys_M_OfficeOpn_N" = 9103.765   $ Sizing
 "CHRtFlo_Sys_M_OfficeOpn_S" = 15292.02   $ Sizing
 "CHRtFlo_Sys_M_OfficeOpn_W" = 15413.38   $ Sizing
 "CHRtFlo_Sys_M_OfficeSm_C" = 2534.954   $ Sizing
 "CHRtFlo_Sys_M_OfficeSm_E" = 11157.79   $ Sizing
 "CHRtFlo_Sys_M_OfficeSm_N" = 5848.786   $ Sizing
 "CHRtFlo_Sys_M_OfficeSm_S" = 11135.29   $ Sizing
 "CHRtFlo_Sys_M_OfficeSm_W" = 11124.63   $ Sizing
 "CHRtFlo_Sys_M_Restrm_C" = 1735.089   $ Sizing
 "CHRtFlo_Sys_M_StorSm_C" = 3361.125   $ Sizing
 "CHRtFlo_Sys_T_Break_C" = 526.0526   $ Sizing
 "CHRtFlo_Sys_T_Conf_C" = 507.1111   $ Sizing
 "CHRtFlo_Sys_T_CopyRm_C" = 146.6949   $ Sizing
 "CHRtFlo_Sys_T_Cordr_C" = 820.0227   $ Sizing
 "CHRtFlo_Sys_T_Cordr_E" = 259.6414   $ Sizing
 "CHRtFlo_Sys_T_Cordr_N" = 158.42   $ Sizing
 "CHRtFlo_Sys_T_Cordr_S" = 261.6502   $ Sizing
 "CHRtFlo_Sys_T_Cordr_W" = 264.6492   $ Sizing
 "CHRtFlo_Sys_T_LobWait_C" = 495.0831   $ Sizing
 "CHRtFlo_Sys_T_MechElec_C" = 181.5351   $ Sizing
 "CHRtFlo_Sys_T_OfficeOpn_C" = 1773.051   $ Sizing
 "CHRtFlo_Sys_T_OfficeOpn_E" = 1761.52   $ Sizing
 "CHRtFlo_Sys_T_OfficeOpn_N" = 1130.116   $ Sizing
 "CHRtFlo_Sys_T_OfficeOpn_S" = 1783.847   $ Sizing
 "CHRtFlo_Sys_T_OfficeOpn_W" = 1836.378   $ Sizing
 "CHRtFlo_Sys_T_OfficeSm_C" = 291.4549   $ Sizing
 "CHRtFlo_Sys_T_OfficeSm_E" = 1300.786   $ Sizing
 "CHRtFlo_Sys_T_OfficeSm_N" = 734.7997   $ Sizing
 "CHRtFlo_Sys_T_OfficeSm_S" = 1321.977   $ Sizing
 "CHRtFlo_Sys_T_OfficeSm_W" = 1315.1   $ Sizing
 "CHRtFlo_Sys_T_Restrm_C" = 216.8861   $ Sizing
 "CHRtFlo_Sys_T_StorSm_C" = 342.0135   $ Sizing
 "CRtdFlo_Sys_L_Break_C" = 532.4077   $ Sizing
 "CRtdFlo_Sys_L_Conf_C" = 514.2952   $ Sizing
 "CRtdFlo_Sys_L_CopyRm_C" = 153.9799   $ Sizing
 "CRtdFlo_Sys_L_Cordr_C" = 609.009   $ Sizing
 "CRtdFlo_Sys_L_Cordr_E" = 210.6707   $ Sizing
 "CRtdFlo_Sys_L_Cordr_N" = 141.9173   $ Sizing
 "CRtdFlo_Sys_L_Cordr_S" = 227.2862   $ Sizing
 "CRtdFlo_Sys_L_Cordr_W" = 254.4555   $ Sizing
 "CRtdFlo_Sys_L_LobWait_C" = 480.5934   $ Sizing
 "CRtdFlo_Sys_L_MechElec_C" = 104.603   $ Sizing
 "CRtdFlo_Sys_L_OfficeOpn_C" = 1726.461   $ Sizing
 "CRtdFlo_Sys_L_OfficeOpn_E" = 1475.207   $ Sizing
 "CRtdFlo_Sys_L_OfficeOpn_N" = 1082.933   $ Sizing
 "CRtdFlo_Sys_L_OfficeOpn_S" = 1578.98   $ Sizing
 "CRtdFlo_Sys_L_OfficeOpn_W" = 1817.164   $ Sizing
 "CRtdFlo_Sys_L_OfficeSm_C" = 218.3586   $ Sizing
 "CRtdFlo_Sys_L_OfficeSm_E" = 1053.326   $ Sizing
 "CRtdFlo_Sys_L_OfficeSm_N" = 700.7915   $ Sizing
 "CRtdFlo_Sys_L_OfficeSm_S" = 1114.416   $ Sizing
 "CRtdFlo_Sys_L_OfficeSm_W" = 1288.643   $ Sizing
 "CRtdFlo_Sys_L_Restrm_C" = 91.53485   $ Sizing
 "CRtdFlo_Sys_L_StorSm_C" = 336.1227   $ Sizing
 "CRtdFlo_Sys_M_Break_C" = 4297.109   $ Sizing
 "CRtdFlo_Sys_M_Conf_C" = 4100.205   $ Sizing
 "CRtdFlo_Sys_M_CopyRm_C" = 1210.77   $ Sizing
 "CRtdFlo_Sys_M_Cordr_C" = 6314.362   $ Sizing
 "CRtdFlo_Sys_M_Cordr_E" = 1943.645   $ Sizing
 "CRtdFlo_Sys_M_Cordr_N" = 1276.119   $ Sizing
 "CRtdFlo_Sys_M_Cordr_S" = 2005.174   $ Sizing
 "CRtdFlo_Sys_M_Cordr_W" = 2170.79   $ Sizing
 "CRtdFlo_Sys_M_LobWait_C" = 3989.87   $ Sizing
 "CRtdFlo_Sys_M_MechElec_C" = 1029.823   $ Sizing
 "CRtdFlo_Sys_M_OfficeOpn_C" = 13840.56   $ Sizing
 "CRtdFlo_Sys_M_OfficeOpn_E" = 12697.29   $ Sizing
 "CRtdFlo_Sys_M_OfficeOpn_N" = 9103.765   $ Sizing
 "CRtdFlo_Sys_M_OfficeOpn_S" = 13369.56   $ Sizing
 "CRtdFlo_Sys_M_OfficeOpn_W" = 14958.43   $ Sizing
 "CRtdFlo_Sys_M_OfficeSm_C" = 2079.75   $ Sizing
 "CRtdFlo_Sys_M_OfficeSm_E" = 8947.44   $ Sizing
 "CRtdFlo_Sys_M_OfficeSm_N" = 5848.786   $ Sizing
 "CRtdFlo_Sys_M_OfficeSm_S" = 9360.157   $ Sizing
 "CRtdFlo_Sys_M_OfficeSm_W" = 10525.9   $ Sizing
 "CRtdFlo_Sys_M_Restrm_C" = 793.5699   $ Sizing
 "CRtdFlo_Sys_M_StorSm_C" = 2741.448   $ Sizing
 "CRtdFlo_Sys_T_Break_C" = 526.0526   $ Sizing
 "CRtdFlo_Sys_T_Conf_C" = 507.1111   $ Sizing
 "CRtdFlo_Sys_T_CopyRm_C" = 146.6949   $ Sizing
 "CRtdFlo_Sys_T_Cordr_C" = 718.9623   $ Sizing
 "CRtdFlo_Sys_T_Cordr_E" = 231.5677   $ Sizing
 "CRtdFlo_Sys_T_Cordr_N" = 158.42   $ Sizing
 "CRtdFlo_Sys_T_Cordr_S" = 248.4095   $ Sizing
 "CRtdFlo_Sys_T_Cordr_W" = 264.6492   $ Sizing
 "CRtdFlo_Sys_T_LobWait_C" = 495.0831   $ Sizing
 "CRtdFlo_Sys_T_MechElec_C" = 136.3272   $ Sizing
 "CRtdFlo_Sys_T_OfficeOpn_C" = 1736.16   $ Sizing
 "CRtdFlo_Sys_T_OfficeOpn_E" = 1544.574   $ Sizing
 "CRtdFlo_Sys_T_OfficeOpn_N" = 1130.116   $ Sizing
 "CRtdFlo_Sys_T_OfficeOpn_S" = 1675.877   $ Sizing
 "CRtdFlo_Sys_T_OfficeOpn_W" = 1836.378   $ Sizing
 "CRtdFlo_Sys_T_OfficeSm_C" = 250.1039   $ Sizing
 "CRtdFlo_Sys_T_OfficeSm_E" = 1116.632   $ Sizing
 "CRtdFlo_Sys_T_OfficeSm_N" = 734.7997   $ Sizing
 "CRtdFlo_Sys_T_OfficeSm_S" = 1188.049   $ Sizing
 "CRtdFlo_Sys_T_OfficeSm_W" = 1312.225   $ Sizing
 "CRtdFlo_Sys_T_Restrm_C" = 120.4779   $ Sizing
 "CRtdFlo_Sys_T_StorSm_C" = 244.5677   $ Sizing
 "CSupFlo_Sys_L_Break_C" = 532.4077   $ Sizing
 "CSupFlo_Sys_L_Conf_C" = 514.2952   $ Sizing
 "CSupFlo_Sys_L_CopyRm_C" = 153.9799   $ Sizing
 "CSupFlo_Sys_L_Cordr_C" = 609.009   $ Sizing
 "CSupFlo_Sys_L_Cordr_E" = 210.6707   $ Sizing
 "CSupFlo_Sys_L_Cordr_N" = 141.9173   $ Sizing
 "CSupFlo_Sys_L_Cordr_S" = 227.2862   $ Sizing
 "CSupFlo_Sys_L_Cordr_W" = 254.4555   $ Sizing
 "CSupFlo_Sys_L_LobWait_C" = 480.5934   $ Sizing
 "CSupFlo_Sys_L_MechElec_C" = 104.603   $ Sizing
 "CSupFlo_Sys_L_OfficeOpn_C" = 1726.461   $ Sizing
 "CSupFlo_Sys_L_OfficeOpn_E" = 1475.207   $ Sizing
 "CSupFlo_Sys_L_OfficeOpn_N" = 1082.933   $ Sizing
 "CSupFlo_Sys_L_OfficeOpn_S" = 1578.98   $ Sizing
 "CSupFlo_Sys_L_OfficeOpn_W" = 1817.164   $ Sizing
 "CSupFlo_Sys_L_OfficeSm_C" = 218.3586   $ Sizing
 "CSupFlo_Sys_L_OfficeSm_E" = 1053.326   $ Sizing
 "CSupFlo_Sys_L_OfficeSm_N" = 700.7915   $ Sizing
 "CSupFlo_Sys_L_OfficeSm_S" = 1114.416   $ Sizing
 "CSupFlo_Sys_L_OfficeSm_W" = 1288.643   $ Sizing
 "CSupFlo_Sys_L_Restrm_C" = 91.53485   $ Sizing
 "CSupFlo_Sys_L_StorSm_C" = 336.1227   $ Sizing
 "CSupFlo_Sys_M_Break_C" = 4297.109   $ Sizing
 "CSupFlo_Sys_M_Conf_C" = 4100.205   $ Sizing
 "CSupFlo_Sys_M_CopyRm_C" = 1210.77   $ Sizing
 "CSupFlo_Sys_M_Cordr_C" = 6314.362   $ Sizing
 "CSupFlo_Sys_M_Cordr_E" = 1943.645   $ Sizing
 "CSupFlo_Sys_M_Cordr_N" = 1276.119   $ Sizing
 "CSupFlo_Sys_M_Cordr_S" = 2005.174   $ Sizing
 "CSupFlo_Sys_M_Cordr_W" = 2170.79   $ Sizing
 "CSupFlo_Sys_M_LobWait_C" = 3989.87   $ Sizing
 "CSupFlo_Sys_M_MechElec_C" = 1029.823   $ Sizing
 "CSupFlo_Sys_M_OfficeOpn_C" = 13840.56   $ Sizing
 "CSupFlo_Sys_M_OfficeOpn_E" = 12697.29   $ Sizing
 "CSupFlo_Sys_M_OfficeOpn_N" = 9103.765   $ Sizing
 "CSupFlo_Sys_M_OfficeOpn_S" = 13369.56   $ Sizing
 "CSupFlo_Sys_M_OfficeOpn_W" = 14958.43   $ Sizing
 "CSupFlo_Sys_M_OfficeSm_C" = 2079.75   $ Sizing
 "CSupFlo_Sys_M_OfficeSm_E" = 8947.44   $ Sizing
 "CSupFlo_Sys_M_OfficeSm_N" = 5848.786   $ Sizing
 "CSupFlo_Sys_M_OfficeSm_S" = 9360.157   $ Sizing
 "CSupFlo_Sys_M_OfficeSm_W" = 10525.9   $ Sizing
 "CSupFlo_Sys_M_Restrm_C" = 793.5699   $ Sizing
 "CSupFlo_Sys_M_StorSm_C" = 2741.448   $ Sizing
 "CSupFlo_Sys_T_Break_C" = 526.0526   $ Sizing
 "CSupFlo_Sys_T_Conf_C" = 507.1111   $ Sizing
 "CSupFlo_Sys_T_CopyRm_C" = 146.6949   $ Sizing
 "CSupFlo_Sys_T_Cordr_C" = 718.9623   $ Sizing
 "CSupFlo_Sys_T_Cordr_E" = 231.5677   $ Sizing
 "CSupFlo_Sys_T_Cordr_N" = 158.42   $ Sizing
 "CSupFlo_Sys_T_Cordr_S" = 248.4095   $ Sizing
 "CSupFlo_Sys_T_Cordr_W" = 264.6492   $ Sizing
 "CSupFlo_Sys_T_LobWait_C" = 495.0831   $ Sizing
 "CSupFlo_Sys_T_MechElec_C" = 136.3272   $ Sizing
 "CSupFlo_Sys_T_OfficeOpn_C" = 1736.16   $ Sizing
 "CSupFlo_Sys_T_OfficeOpn_E" = 1544.574   $ Sizing
 "CSupFlo_Sys_T_OfficeOpn_N" = 1130.116   $ Sizing
 "CSupFlo_Sys_T_OfficeOpn_S" = 1675.877   $ Sizing
 "CSupFlo_Sys_T_OfficeOpn_W" = 1836.378   $ Sizing
 "CSupFlo_Sys_T_OfficeSm_C" = 250.1039   $ Sizing
 "CSupFlo_Sys_T_OfficeSm_E" = 1116.632   $ Sizing
 "CSupFlo_Sys_T_OfficeSm_N" = 734.7997   $ Sizing
 "CSupFlo_Sys_T_OfficeSm_S" = 1188.049   $ Sizing
 "CSupFlo_Sys_T_OfficeSm_W" = 1312.225   $ Sizing
 "CSupFlo_Sys_T_Restrm_C" = 120.4779   $ Sizing
 "CSupFlo_Sys_T_StorSm_C" = 244.5677   $ Sizing
 "ClCap_Sys_L_Break_C" = 17697.75   $ Sizing
 "ClCap_Sys_L_Conf_C" = 21758.13   $ Sizing
 "ClCap_Sys_L_CopyRm_C" = 5118.44   $ Sizing
 "ClCap_Sys_L_Cordr_C" = 20244.05   $ Sizing
 "ClCap_Sys_L_Cordr_E" = 7002.897   $ Sizing
 "ClCap_Sys_L_Cordr_N" = 4717.47   $ Sizing
 "ClCap_Sys_L_Cordr_S" = 7555.215   $ Sizing
 "ClCap_Sys_L_Cordr_W" = 8458.348   $ Sizing
 "ClCap_Sys_L_LobWait_C" = 15975.39   $ Sizing
 "ClCap_Sys_L_MechElec_C" = 3477.104   $ Sizing
 "ClCap_Sys_L_OfficeOpn_C" = 57389.26   $ Sizing
 "ClCap_Sys_L_OfficeOpn_E" = 49037.32   $ Sizing
 "ClCap_Sys_L_OfficeOpn_N" = 35997.75   $ Sizing
 "ClCap_Sys_L_OfficeOpn_S" = 52486.83   $ Sizing
 "ClCap_Sys_L_OfficeOpn_W" = 60404.29   $ Sizing
 "ClCap_Sys_L_OfficeSm_C" = 7258.452   $ Sizing
 "ClCap_Sys_L_OfficeSm_E" = 35013.57   $ Sizing
 "ClCap_Sys_L_OfficeSm_N" = 23294.99   $ Sizing
 "ClCap_Sys_L_OfficeSm_S" = 37044.27   $ Sizing
 "ClCap_Sys_L_OfficeSm_W" = 42835.76   $ Sizing
 "ClCap_Sys_L_Restrm_C" = 3042.708   $ Sizing
 "ClCap_Sys_L_StorSm_C" = 11173.04   $ Sizing
 "ClCap_Sys_M_Break_C" = 142840.1   $ Sizing
 "ClCap_Sys_M_Conf_C" = 173466.1   $ Sizing
 "ClCap_Sys_M_CopyRm_C" = 40247.16   $ Sizing
 "ClCap_Sys_M_Cordr_C" = 209895.5   $ Sizing
 "ClCap_Sys_M_Cordr_E" = 64608.66   $ Sizing
 "ClCap_Sys_M_Cordr_N" = 42419.45   $ Sizing
 "ClCap_Sys_M_Cordr_S" = 66653.93   $ Sizing
 "ClCap_Sys_M_Cordr_W" = 72159.16   $ Sizing
 "ClCap_Sys_M_LobWait_C" = 132627.2   $ Sizing
 "ClCap_Sys_M_MechElec_C" = 34232.31   $ Sizing
 "ClCap_Sys_M_OfficeOpn_C" = 460073.8   $ Sizing
 "ClCap_Sys_M_OfficeOpn_E" = 422070.4   $ Sizing
 "ClCap_Sys_M_OfficeOpn_N" = 302618   $ Sizing
 "ClCap_Sys_M_OfficeOpn_S" = 444417.2   $ Sizing
 "ClCap_Sys_M_OfficeOpn_W" = 497232.6   $ Sizing
 "ClCap_Sys_M_OfficeSm_C" = 69132.92   $ Sizing
 "ClCap_Sys_M_OfficeSm_E" = 297421.6   $ Sizing
 "ClCap_Sys_M_OfficeSm_N" = 194419.3   $ Sizing
 "ClCap_Sys_M_OfficeSm_S" = 311140.8   $ Sizing
 "ClCap_Sys_M_OfficeSm_W" = 349891.2   $ Sizing
 "ClCap_Sys_M_Restrm_C" = 26379.04   $ Sizing
 "ClCap_Sys_M_StorSm_C" = 91128.41   $ Sizing
 "ClCap_Sys_T_Break_C" = 17486.5   $ Sizing
 "ClCap_Sys_T_Conf_C" = 21454.19   $ Sizing
 "ClCap_Sys_T_CopyRm_C" = 4876.282   $ Sizing
 "ClCap_Sys_T_Cordr_C" = 23899.01   $ Sizing
 "ClCap_Sys_T_Cordr_E" = 7697.535   $ Sizing
 "ClCap_Sys_T_Cordr_N" = 5266.035   $ Sizing
 "ClCap_Sys_T_Cordr_S" = 8257.373   $ Sizing
 "ClCap_Sys_T_Cordr_W" = 8797.197   $ Sizing
 "ClCap_Sys_T_LobWait_C" = 16457.04   $ Sizing
 "ClCap_Sys_T_MechElec_C" = 4531.649   $ Sizing
 "ClCap_Sys_T_OfficeOpn_C" = 57711.64   $ Sizing
 "ClCap_Sys_T_OfficeOpn_E" = 51343.14   $ Sizing
 "ClCap_Sys_T_OfficeOpn_N" = 37566.16   $ Sizing
 "ClCap_Sys_T_OfficeOpn_S" = 55707.79   $ Sizing
 "ClCap_Sys_T_OfficeOpn_W" = 61043   $ Sizing
 "ClCap_Sys_T_OfficeSm_C" = 8313.697   $ Sizing
 "ClCap_Sys_T_OfficeSm_E" = 37117.92   $ Sizing
 "ClCap_Sys_T_OfficeSm_N" = 24425.46   $ Sizing
 "ClCap_Sys_T_OfficeSm_S" = 39491.91   $ Sizing
 "ClCap_Sys_T_OfficeSm_W" = 43619.64   $ Sizing
 "ClCap_Sys_T_Restrm_C" = 4004.802   $ Sizing
 "ClCap_Sys_T_StorSm_C" = 8129.67   $ Sizing
 "HtCap_Sys_L_Break_C" = -28337.59   $ Sizing
 "HtCap_Sys_L_Conf_C" = -28331.48   $ Sizing
 "HtCap_Sys_L_CopyRm_C" = -9428.654   $ Sizing
 "HtCap_Sys_L_Cordr_C" = -26530.89   $ Sizing
 "HtCap_Sys_L_Cordr_E" = -8579.238   $ Sizing
 "HtCap_Sys_L_Cordr_N" = -5789.715   $ Sizing
 "HtCap_Sys_L_Cordr_S" = -8647.094   $ Sizing
 "HtCap_Sys_L_Cordr_W" = -8705.567   $ Sizing
 "HtCap_Sys_L_LobWait_C" = -26019.19   $ Sizing
 "HtCap_Sys_L_MechElec_C" = -5983.108   $ Sizing
 "HtCap_Sys_L_OfficeOpn_C" = -81841.89   $ Sizing
 "HtCap_Sys_L_OfficeOpn_E" = -54749.4   $ Sizing
 "HtCap_Sys_L_OfficeOpn_N" = -39509.1   $ Sizing
 "HtCap_Sys_L_OfficeOpn_S" = -57947.36   $ Sizing
 "HtCap_Sys_L_OfficeOpn_W" = -60234.89   $ Sizing
 "HtCap_Sys_L_OfficeSm_C" = -9304.367   $ Sizing
 "HtCap_Sys_L_OfficeSm_E" = -41045.39   $ Sizing
 "HtCap_Sys_L_OfficeSm_N" = -25559.05   $ Sizing
 "HtCap_Sys_L_OfficeSm_S" = -41004.54   $ Sizing
 "HtCap_Sys_L_OfficeSm_W" = -43793.34   $ Sizing
 "HtCap_Sys_L_Restrm_C" = -7741.85   $ Sizing
 "HtCap_Sys_L_StorSm_C" = -16610.72   $ Sizing
 "HtCap_Sys_M_Break_C" = -217080.5   $ Sizing
 "HtCap_Sys_M_Conf_C" = -213647.3   $ Sizing
 "HtCap_Sys_M_CopyRm_C" = -65040.89   $ Sizing
 "HtCap_Sys_M_Cordr_C" = -292141.8   $ Sizing
 "HtCap_Sys_M_Cordr_E" = -78470.11   $ Sizing
 "HtCap_Sys_M_Cordr_N" = -49478.71   $ Sizing
 "HtCap_Sys_M_Cordr_S" = -76472.82   $ Sizing
 "HtCap_Sys_M_Cordr_W" = -73212.63   $ Sizing
 "HtCap_Sys_M_LobWait_C" = -193376.6   $ Sizing
 "HtCap_Sys_M_MechElec_C" = -54043.39   $ Sizing
 "HtCap_Sys_M_OfficeOpn_C" = -803185.2   $ Sizing
 "HtCap_Sys_M_OfficeOpn_E" = -500290.2   $ Sizing
 "HtCap_Sys_M_OfficeOpn_N" = -326019.3   $ Sizing
 "HtCap_Sys_M_OfficeOpn_S" = -490655.9   $ Sizing
 "HtCap_Sys_M_OfficeOpn_W" = -495579.2   $ Sizing
 "HtCap_Sys_M_OfficeSm_C" = -90204.44   $ Sizing
 "HtCap_Sys_M_OfficeSm_E" = -350772.3   $ Sizing
 "HtCap_Sys_M_OfficeSm_N" = -209115.1   $ Sizing
 "HtCap_Sys_M_OfficeSm_S" = -353982.1   $ Sizing
 "HtCap_Sys_M_OfficeSm_W" = -356951.7   $ Sizing
 "HtCap_Sys_M_Restrm_C" = -66786.36   $ Sizing
 "HtCap_Sys_M_StorSm_C" = -136192.4   $ Sizing
 "HtCap_Sys_T_Break_C" = -28164   $ Sizing
 "HtCap_Sys_T_Conf_C" = -27657.53   $ Sizing
 "HtCap_Sys_T_CopyRm_C" = -8567.975   $ Sizing
 "HtCap_Sys_T_Cordr_C" = -34312.32   $ Sizing
 "HtCap_Sys_T_Cordr_E" = -9576.731   $ Sizing
 "HtCap_Sys_T_Cordr_N" = -6615.048   $ Sizing
 "HtCap_Sys_T_Cordr_S" = -9362.405   $ Sizing
 "HtCap_Sys_T_Cordr_W" = -9852.286   $ Sizing
 "HtCap_Sys_T_LobWait_C" = -25465.68   $ Sizing
 "HtCap_Sys_T_MechElec_C" = -7205.84   $ Sizing
 "HtCap_Sys_T_OfficeOpn_C" = -84407.41   $ Sizing
 "HtCap_Sys_T_OfficeOpn_E" = -62000.99   $ Sizing
 "HtCap_Sys_T_OfficeOpn_N" = -44607.59   $ Sizing
 "HtCap_Sys_T_OfficeOpn_S" = -63333.52   $ Sizing
 "HtCap_Sys_T_OfficeOpn_W" = -64556.36   $ Sizing
 "HtCap_Sys_T_OfficeSm_C" = -11396.23   $ Sizing
 "HtCap_Sys_T_OfficeSm_E" = -44629.51   $ Sizing
 "HtCap_Sys_T_OfficeSm_N" = -28834.09   $ Sizing
 "HtCap_Sys_T_OfficeSm_S" = -46467.34   $ Sizing
 "HtCap_Sys_T_OfficeSm_W" = -46183.22   $ Sizing
 "HtCap_Sys_T_Restrm_C" = -8129.865   $ Sizing
 "HtCap_Sys_T_StorSm_C" = -15775.47   $ Sizing
..

##include Templates\OfL_DX_SZ.inp
END ..
COMPUTE ..
STOP ..
