
Start DOESIM : Storage capacity =  75000000
Starting LOADS   : SAVE-FILES is On , weather is CZ12SACRAMENTO-EXECU
Finished LOADS    BDL  1 : Memory (wds) =    391958, Time (sec) =    2.52
Starting REPORT  
Finished REPORT   BDL  1 : Memory (wds) =    784896, Time (sec) =    0.89
Starting HVAC    : SAVE-FILES is On , weather is CZ12SACRAMENTO-EXECU
*** ERRORS or WARNINGS from HVAC     program. Examine output file for details.
Finished HVAC     BDL  1 : Memory (wds) =    676489, Time (sec) =    8.22
Starting REPORT  
Finished REPORT   BDL  1 : Memory (wds) =   1186797, Time (sec) =    0.91
Starting HOURLY-R
Finished HOURLY-R BDL  1 : Memory (wds) =   1519802, Time (sec) =    0.14
Starting ECONOMIC
Finished ECONOMIC BDL  1 : Memory (wds) =      1034, Time (sec) =    0.04
End   DOESIM : Total elapsed time of     12.7 seconds
RUN COMPLETE
