INPUT ..

##fileprefix C:\Users\jglasskatz\MASControl3\
##set1 IsSizing FALSE
##set1 CoolType DX
##set1 HeatType FURNACE
##set1 EU_HrRepVar 0
##set1 BldgVint 2015
##set1 BldgLoc CZ15

 ##set1 mBFMult 1   $ IP Tech: RefgChg-NRes-Std

PARAMETER
 "AltFactor" = 1.01767   $ IP Non-Tech
 "BF_fFlow" = SpltAC1Sp-ge45_BF_fFlow   $ Msr (Var)TechID: PreNResSplitAC-45to-PENo
 "BF_fT" = SpltAC1Sp-ge45_BF_fT   $ Msr (Var)TechID: PreNResSplitAC-45to-PENo
 "BldgEconoFlag" = 1   $ IP Non-Tech
 "Break_EWSF" = 1   $ IP Non-Tech
 "Break_LWSF" = 1.1   $ IP Non-Tech
 "CDD_DBHi10" = 97   $ IP Non-Tech
 "CDD_DBHi7" = 110   $ IP Non-Tech
 "CDD_DBHi8" = 111   $ IP Non-Tech
 "CDD_DBHi9" = 109   $ IP Non-Tech
 "CDD_DBRange10" = 25   $ IP Non-Tech
 "CDD_DBRange7" = 18   $ IP Non-Tech
 "CDD_DBRange8" = 23   $ IP Non-Tech
 "CDD_DBRange9" = 21   $ IP Non-Tech
 "CDD_Day10" = 15   $ IP Non-Tech
 "CDD_Day7" = 16   $ IP Non-Tech
 "CDD_Day8" = 20   $ IP Non-Tech
 "CDD_Day9" = 17   $ IP Non-Tech
 "CDD_HrHi10" = 14   $ IP Non-Tech
 "CDD_HrHi7" = 15   $ IP Non-Tech
 "CDD_HrHi8" = 18   $ IP Non-Tech
 "CDD_HrHi9" = 12   $ IP Non-Tech
 "CDD_HrLo10" = 5   $ IP Non-Tech
 "CDD_HrLo7" = 3   $ IP Non-Tech
 "CDD_HrLo8" = 4   $ IP Non-Tech
 "CDD_HrLo9" = 7   $ IP Non-Tech
 "CDD_WB10" = 64.62915039   $ IP Non-Tech
 "CDD_WB7" = 77.7762146   $ IP Non-Tech
 "CDD_WB8" = 78.616539   $ IP Non-Tech
 "CDD_WB9" = 73.63479614   $ IP Non-Tech
 "CEIR_fPLR_Hot" = SpltAC1Sp-ge45_CEIR_fPLR_Hot   $ Msr (Var)TechID: PreNResSplitAC-45to-PENo
 "CEIR_fPLR_Mod" = SpltAC1Sp-ge45_CEIR_fPLR_Mod   $ Msr (Var)TechID: PreNResSplitAC-45to-PENo
 "CEIR_fPLR_Tem" = SpltAC1Sp-ge45_CEIR_fPLR_Tem   $ Msr (Var)TechID: PreNResSplitAC-45to-PENo
 "CLoss_fPLR_Hot" = SpltAC1Sp-ge45_CLoss_fPLR_Hot   $ Msr (Var)TechID: PreNResSplitAC-45to-PENo
 "CLoss_fPLR_Mod" = SpltAC1Sp-ge45_CLoss_fPLR_Mod   $ Msr (Var)TechID: PreNResSplitAC-45to-PENo
 "CLoss_fPLR_Tem" = SpltAC1Sp-ge45_CLoss_fPLR_Tem   $ Msr (Var)TechID: PreNResSplitAC-45to-PENo
 "COP47" = 0   $ Msr (Var)TechID: PreNResSplitAC-45to-PENo
 "CZ_Category" = Hot   $ IP Non-Tech
 "CapRange" = ge45   $ Msr (Var)TechID: PreNResSplitAC-45to-PENo
 "CfmPerBtuh" = 0.03263   $ Msr (Var)TechID: PreNResSplitAC-45to-PENo
 "ChwVintEconoFlag" = 1   $ IP Non-Tech
 "ClCap_fT" = SpltAC1Sp-ge45_ClCap_fT   $ Msr (Var)TechID: PreNResSplitAC-45to-PENo
 "ClSH_fT" = SpltAC1Sp-ge45_ClSH_fT   $ Msr (Var)TechID: PreNResSplitAC-45to-PENo
 "CoilBF" = 0.106518182   $ Msr (Var)TechID: PreNResSplitAC-45to-PENo
 "CondWPerBtuh" = 0   $ Msr (Var)TechID: PreNResSplitAC-45to-PENo
 "Conference_EWSF" = 1   $ IP Non-Tech
 "Conference_LWSF" = 1.4   $ IP Non-Tech
 "CoolSensCap" = 0.759218182   $ Msr (Var)TechID: PreNResSplitAC-45to-PENo
 "CoolSetT" = 45   $ IP Non-Tech
 "CoolType" = DX   $ IP Non-Tech
 "CoolingEIR" = 0.2466   $ Msr (Var)TechID: PreNResSplitAC-45to-PENo
 "CopyRoom_EWSF" = 1.5   $ IP Non-Tech
 "CopyRoom_LWSF" = 1.3   $ IP Non-Tech
 "CorridorStairway_EWSF" = 0.2   $ IP Non-Tech
 "CorridorStairway_LWSF" = 0.6   $ IP Non-Tech
 "CrnkEIR" = 0.002466   $ Msr (Var)TechID: PreNResSplitAC-45to-PENo
 "CrnkMaxT" = 50   $ Msr (Var)TechID: PreNResSplitAC-45to-PENo
 "DXType" = SplitSEER   $ Msr (Var)TechID: PreNResSplitAC-45to-PENo
 "DesCoolT" = 75   $ IP Non-Tech
 "DesHeatT" = 73   $ IP Non-Tech
 "EER" = 11.81793103   $ Msr (Var)TechID: PreNResSplitAC-45to-PENo
 "EIR_fT" = SpltAC1Sp-ge45_EIR_fT   $ Msr (Var)TechID: PreNResSplitAC-45to-PENo
 "EconoCtrl" = FIXED   $ Msr (Multi)TechID: PreNResSplitAC-45to-PENo
 "EconoEnthLimit" = 28   $ IP Non-Tech
 "EconoTempLimit" = 75   $ IP Non-Tech
 "Elevation" = 475   $ IP Non-Tech
 "FanEirPlr" = TwoSpeedFan   $ Msr (Var)TechID: PreNResSplitAC-45to-PENo
 "FanWPerCfm" = 0.294   $ Msr (Var)TechID: PreNResSplitAC-45to-PENo
 "HDD_CloudAmt1" = 0   $ IP Non-Tech
 "HDD_DBHi1" = 58   $ IP Non-Tech
 "HDD_DBRange1" = 21   $ IP Non-Tech
 "HDD_Day1" = 15   $ IP Non-Tech
 "HDD_HrHi1" = 13   $ IP Non-Tech
 "HDD_HrLo1" = 7   $ IP Non-Tech
 "HDD_WB1" = 39.7   $ IP Non-Tech
 "HDD_WindSpd1" = 10.4   $ IP Non-Tech
 "HIR_fT" = 0   $ Msr (Var)TechID: PreNResSplitAC-45to-PENo
 "HSPF" = 0   $ Msr (Var)TechID: PreNResSplitAC-45to-PENo
 "HeatSrc" = FURNACE   $ IP Non-Tech
 "HeatSrcTU" = HEAT-PUMP   $ IP Non-Tech
 "HeatType" = GasFurn   $ IP Non-Tech
 "HeatTypeTU" = HEAT-PUMP   $ IP Non-Tech
 "HtCap_fT" = 0   $ Msr (Var)TechID: PreNResSplitAC-45to-PENo
 "HtCoolCapRatio" = 0   $ Msr (Var)TechID: PreNResSplitAC-45to-PENo
 "HtgEIR" = 0   $ Msr (Var)TechID: PreNResSplitAC-45to-PENo
 "IndoorFanMode" = CONTINUOUS   $ IP Non-Tech
 "KT_TransferAir" = Yes   $ IP Non-Tech
 "Latitude" = 33.8   $ IP Non-Tech
 "LobbyWaiting_EWSF" = 0.5   $ IP Non-Tech
 "LobbyWaiting_LWSF" = 1.3   $ IP Non-Tech
 "Longitude" = 116.5   $ IP Non-Tech
 "LowSpdCapRatio" = 1   $ Msr (Var)TechID: PreNResSplitAC-45to-PENo
 "LowSpdCfmRatio" = 1   $ Msr (Var)TechID: PreNResSplitAC-45to-PENo
 "MZFanMechEff" = 0.58   $ IP Non-Tech
 "MZHasRetFan" = FALSE   $ IP Non-Tech
 "MZ_RFanWPerCfm" = 0.37   $ IP Non-Tech
 "MZ_SFanWPerCfm" = 0.71   $ IP Non-Tech
 "MZ_SupFanStatic" = 2.25   $ IP Non-Tech
 "MaxOAFrac" = 1   $ Msr (Multi)TechID: PreNResSplitAC-45to-PENo
 "MaxSupT_MZ" = 100   $ IP Non-Tech
 "MaxSupT_SZ" = 100   $ IP Non-Tech
 "MaxSupT_TU" = 90   $ IP Non-Tech
 "MechElecRoom_EWSF" = 0.2   $ IP Non-Tech
 "MechElecRoom_LWSF" = 0.7   $ IP Non-Tech
 "MinCfmPerSF" = 0.4   $ IP Non-Tech
 "MinSupT" = 55   $ IP Non-Tech
 "NumStages" = 1   $ Msr (Var)TechID: PreNResSplitAC-45to-PENo
 "OccCoolT" = 76   $ IP Non-Tech
 "OccHeatT" = 72   $ IP Non-Tech
 "OfficeOpen_EWSF" = 1.5   $ IP Non-Tech
 "OfficeOpen_LWSF" = 1.05   $ IP Non-Tech
 "OfficeSmall_EWSF" = 1.5   $ IP Non-Tech
 "OfficeSmall_LWSF" = 1.3   $ IP Non-Tech
 "PkgDxVintEconoFlag" = 1   $ IP Non-Tech
 "Restroom_EWSF" = 0.2   $ IP Non-Tech
 "Restroom_LWSF" = 0.6   $ IP Non-Tech
 "SEER" = 14   $ Msr (Var)TechID: PreNResSplitAC-45to-PENo
 "SZFanMechEff" = 0.58   $ IP Non-Tech
 "SZHasRetFan" = FALSE   $ IP Non-Tech
 "SZ_Is_2Spd" = TRUE   $ IP Non-Tech
 "SZ_SFanWPerCfm" = 0.46   $ IP Non-Tech
 "SZ_SupFanStatic" = 0.75   $ IP Non-Tech
 "Sector" = Any   $ Msr (Var)TechID: PreNResSplitAC-45to-PENo
 "StorageSmlCond_EWSF" = 0.2   $ IP Non-Tech
 "StorageSmlCond_LWSF" = 0.6   $ IP Non-Tech
 "SubType" = AC   $ Msr (Var)TechID: PreNResSplitAC-45to-PENo
 "T24GlzTbl" = TypeTbl   $ IP Non-Tech
 "TermUnitFanMechEff" = 1   $ IP Non-Tech
 "TermUnitFanMode" = INTERMITTENT   $ IP Non-Tech
 "TotCoolCap" = 52519.36364   $ Msr (Var)TechID: PreNResSplitAC-45to-PENo
 "TwrSetpt" = 89.1   $ IP Non-Tech
 "UnocCoolT" = 86   $ IP Non-Tech
 "UnocHeatT" = 62   $ IP Non-Tech
 "UseEconoVintApplic" = FALSE   $ Msr (Multi)TechID: PreNResSplitAC-45to-PENo
 "WlhpVintEconoFlag" = 1   $ IP Non-Tech
 "DuctDT" = 1   $ IP Tech: ComDuctInsul-1
 "DuctAirLoss" = 0   $ IP Tech: ComDuctLeak-0
 "DuctLossOAFrac" = 0   $ IP Tech: ComDuctLeak-0
 "ComRoofInsCalc" = FromUo   $ IP Tech: ComRoofIns-Hvy-0.04
 "ComRoofInsR" = -999   $ IP Tech: ComRoofIns-Hvy-0.04
 "ComRoofUo" = 0.04   $ IP Tech: ComRoofIns-Hvy-0.04
 "ComEWInsCalc" = FromUo   $ IP Tech: ComWallIns-MFrm-0.06
 "ComEWInsR" = -999   $ IP Tech: ComWallIns-MFrm-0.06
 "ComEWUo" = 0.06   $ IP Tech: ComWallIns-MFrm-0.06
 "ComN_SHGC" = 0.26   $ IP Tech: NResWin-ComN-0.41-0.26
 "ComN_UFactor" = 0.41   $ IP Tech: NResWin-ComN-0.41-0.26
 "ComN_VisTrans" = 0.41   $ IP Tech: NResWin-ComN-0.41-0.26
 "ComN_WinCode" = G2666   $ IP Tech: NResWin-ComN-0.41-0.26
 "ComN_WinFrmFrac" = 0.17   $ IP Tech: NResWin-ComN-0.41-0.26
 "ComN_WinFrmU" = 0.3   $ IP Tech: NResWin-ComN-0.41-0.26
 "ComO_SHGC" = 0.26   $ IP Tech: NResWin-ComO-0.41-0.26
 "ComO_UFactor" = 0.41   $ IP Tech: NResWin-ComO-0.41-0.26
 "ComO_VisTrans" = 0.41   $ IP Tech: NResWin-ComO-0.41-0.26
 "ComO_WinCode" = G2666   $ IP Tech: NResWin-ComO-0.41-0.26
 "ComO_WinFrmFrac" = 0.17   $ IP Tech: NResWin-ComO-0.41-0.26
 "ComO_WinFrmU" = 0.3   $ IP Tech: NResWin-ComO-0.41-0.26
 "LtgMsrApplic" = ALL   $ IP Tech: NonResLtgRefPre
 "LtgSav_CFL" = 0   $ IP Tech: NonResLtgRefPre
 "LtgSav_EX" = 0   $ IP Tech: NonResLtgRefPre
 "LtgSav_HB" = 0   $ IP Tech: NonResLtgRefPre
 "LtgSav_LF" = 0   $ IP Tech: NonResLtgRefPre
 "LtgSav_SP" = 0   $ IP Tech: NonResLtgRefPre
 "CEIR_fPLR" = PSZ65to135_CEIR_fPLR   $ IP Tech: PkgAC2SpP-65to135-E11
 "CLoss_fPLR" = PSZ65to135_CLoss_fPLR   $ IP Tech: PkgAC2SpP-65to135-E11
 "COP" = -1   $ IP Tech: PkgAC2SpP-65to135-E11
 "HtgFuel" = Gas   $ IP Tech: PkgAC2SpP-65to135-E11
 "IEER" = 13.35   $ IP Tech: PkgAC2SpP-65to135-E11
 "NominalCap" = 15   $ IP Tech: PkgAC2SpP-65to135-E11
 "RatedEER" = 11   $ IP Tech: PkgAC2SpP-65to135-E11
 "RatedSupMtrClass" = Premium   $ IP Tech: PkgAC2SpP-65to135-E11
 "SizeRange" = 65to135   $ IP Tech: PkgAC2SpP-65to135-E11
 "SupMotEff" = 0.865   $ IP Tech: PkgAC2SpP-65to135-E11
 "Tier" = 0   $ IP Tech: PkgAC2SpP-65to135-E11
 "FanPwrMult" = 1   $ IP Tech: PkgFurn-0.80AFUE
 "FurnAFUE" = 0.8   $ IP Tech: PkgFurn-0.80AFUE
 "FurnEt" = 0.82   $ IP Tech: PkgFurn-0.80AFUE
 "FurnaceAuxKW" = 0.1   $ IP Tech: PkgFurn-0.80AFUE
 "HIR_fPLR" = Furnace-HIR-fPLR   $ IP Tech: PkgFurn-0.80AFUE
 "VSM" = FALSE   $ IP Tech: PkgFurn-0.80AFUE
 "BFMult" = 1   $ IP Tech: RefgChg-NRes-Std
 "CoolEirMult" = 1   $ IP Tech: RefgChg-NRes-Std
 "SensCoolCapMult" = 1   $ IP Tech: RefgChg-NRes-Std
 "TotCoolCapMult" = 1   $ IP Tech: RefgChg-NRes-Std
 "AltAdjFactor" = 1.017668   $ Sizing
 "CAssFlo_L_Break_CZn" = 736.7388   $ Sizing
 "CAssFlo_L_Conf_CZn" = 720.8254   $ Sizing
 "CAssFlo_L_CopyRm_CZn" = 243.8082   $ Sizing
 "CAssFlo_L_Cordr_CZn" = 878.6517   $ Sizing
 "CAssFlo_L_Cordr_EZn" = 300.4388   $ Sizing
 "CAssFlo_L_Cordr_NZn" = 225.4407   $ Sizing
 "CAssFlo_L_Cordr_SZn" = 279.3543   $ Sizing
 "CAssFlo_L_Cordr_WZn" = 333.3988   $ Sizing
 "CAssFlo_L_LobWait_CZn" = 756.5073   $ Sizing
 "CAssFlo_L_MechElec_CZn" = 184.4669   $ Sizing
 "CAssFlo_L_OfficeOpn_CZn" = 2259.59   $ Sizing
 "CAssFlo_L_OfficeOpn_EZn" = 1972.857   $ Sizing
 "CAssFlo_L_OfficeOpn_NZn" = 1512.298   $ Sizing
 "CAssFlo_L_OfficeOpn_SZn" = 1842.766   $ Sizing
 "CAssFlo_L_OfficeOpn_WZn" = 2253.931   $ Sizing
 "CAssFlo_L_OfficeSm_CZn" = 308.2723   $ Sizing
 "CAssFlo_L_OfficeSm_EZn" = 1403.034   $ Sizing
 "CAssFlo_L_OfficeSm_NZn" = 1002.63   $ Sizing
 "CAssFlo_L_OfficeSm_SZn" = 1305.299   $ Sizing
 "CAssFlo_L_OfficeSm_WZn" = 1586.135   $ Sizing
 "CAssFlo_L_Restrm_CZn" = 123.3712   $ Sizing
 "CAssFlo_L_StorSm_CZn" = 545.0429   $ Sizing
 "CAssFlo_M_Break_CZn" = 744.4363   $ Sizing
 "CAssFlo_M_Conf_CZn" = 718.9014   $ Sizing
 "CAssFlo_M_CopyRm_CZn" = 239.298   $ Sizing
 "CAssFlo_M_Cordr_CZn" = 1193.177   $ Sizing
 "CAssFlo_M_Cordr_EZn" = 330.3799   $ Sizing
 "CAssFlo_M_Cordr_NZn" = 242.6485   $ Sizing
 "CAssFlo_M_Cordr_SZn" = 292.0974   $ Sizing
 "CAssFlo_M_Cordr_WZn" = 338.2433   $ Sizing
 "CAssFlo_M_LobWait_CZn" = 767.532   $ Sizing
 "CAssFlo_M_MechElec_CZn" = 223.5515   $ Sizing
 "CAssFlo_M_OfficeOpn_CZn" = 2369.81   $ Sizing
 "CAssFlo_M_OfficeOpn_EZn" = 2081.652   $ Sizing
 "CAssFlo_M_OfficeOpn_NZn" = 1528.896   $ Sizing
 "CAssFlo_M_OfficeOpn_SZn" = 1905.496   $ Sizing
 "CAssFlo_M_OfficeOpn_WZn" = 2273.13   $ Sizing
 "CAssFlo_M_OfficeSm_CZn" = 339.1756   $ Sizing
 "CAssFlo_M_OfficeSm_EZn" = 1460.762   $ Sizing
 "CAssFlo_M_OfficeSm_NZn" = 1001.354   $ Sizing
 "CAssFlo_M_OfficeSm_SZn" = 1333.348   $ Sizing
 "CAssFlo_M_OfficeSm_WZn" = 1583.872   $ Sizing
 "CAssFlo_M_Restrm_CZn" = 145.3699   $ Sizing
 "CAssFlo_M_StorSm_CZn" = 588.2498   $ Sizing
 "CAssFlo_T_Break_CZn" = 734.2333   $ Sizing
 "CAssFlo_T_Conf_CZn" = 714.1437   $ Sizing
 "CAssFlo_T_CopyRm_CZn" = 238.0589   $ Sizing
 "CAssFlo_T_Cordr_CZn" = 1135.017   $ Sizing
 "CAssFlo_T_Cordr_EZn" = 326.9084   $ Sizing
 "CAssFlo_T_Cordr_NZn" = 233.5273   $ Sizing
 "CAssFlo_T_Cordr_SZn" = 294.3457   $ Sizing
 "CAssFlo_T_Cordr_WZn" = 340.9128   $ Sizing
 "CAssFlo_T_LobWait_CZn" = 769.2534   $ Sizing
 "CAssFlo_T_MechElec_CZn" = 269.5123   $ Sizing
 "CAssFlo_T_OfficeOpn_CZn" = 2320.912   $ Sizing
 "CAssFlo_T_OfficeOpn_EZn" = 2086.808   $ Sizing
 "CAssFlo_T_OfficeOpn_NZn" = 1562.262   $ Sizing
 "CAssFlo_T_OfficeOpn_SZn" = 1955.276   $ Sizing
 "CAssFlo_T_OfficeOpn_WZn" = 2285.232   $ Sizing
 "CAssFlo_T_OfficeSm_CZn" = 335.2767   $ Sizing
 "CAssFlo_T_OfficeSm_EZn" = 1499.058   $ Sizing
 "CAssFlo_T_OfficeSm_NZn" = 1029.73   $ Sizing
 "CAssFlo_T_OfficeSm_SZn" = 1383.409   $ Sizing
 "CAssFlo_T_OfficeSm_WZn" = 1618.322   $ Sizing
 "CAssFlo_T_Restrm_CZn" = 180.9227   $ Sizing
 "CAssFlo_T_StorSm_CZn" = 433.6713   $ Sizing
 "CHRtFlo_Sys_L_Break_C" = 736.7388   $ Sizing
 "CHRtFlo_Sys_L_Conf_C" = 720.8254   $ Sizing
 "CHRtFlo_Sys_L_CopyRm_C" = 243.8082   $ Sizing
 "CHRtFlo_Sys_L_Cordr_C" = 878.6517   $ Sizing
 "CHRtFlo_Sys_L_Cordr_E" = 300.4388   $ Sizing
 "CHRtFlo_Sys_L_Cordr_N" = 225.4407   $ Sizing
 "CHRtFlo_Sys_L_Cordr_S" = 279.3543   $ Sizing
 "CHRtFlo_Sys_L_Cordr_W" = 333.3988   $ Sizing
 "CHRtFlo_Sys_L_LobWait_C" = 756.5073   $ Sizing
 "CHRtFlo_Sys_L_MechElec_C" = 184.4669   $ Sizing
 "CHRtFlo_Sys_L_OfficeOpn_C" = 2259.59   $ Sizing
 "CHRtFlo_Sys_L_OfficeOpn_E" = 1972.857   $ Sizing
 "CHRtFlo_Sys_L_OfficeOpn_N" = 1512.298   $ Sizing
 "CHRtFlo_Sys_L_OfficeOpn_S" = 1859.141   $ Sizing
 "CHRtFlo_Sys_L_OfficeOpn_W" = 2253.931   $ Sizing
 "CHRtFlo_Sys_L_OfficeSm_C" = 308.2723   $ Sizing
 "CHRtFlo_Sys_L_OfficeSm_E" = 1434.811   $ Sizing
 "CHRtFlo_Sys_L_OfficeSm_N" = 1002.63   $ Sizing
 "CHRtFlo_Sys_L_OfficeSm_S" = 1372.677   $ Sizing
 "CHRtFlo_Sys_L_OfficeSm_W" = 1586.135   $ Sizing
 "CHRtFlo_Sys_L_Restrm_C" = 213.9924   $ Sizing
 "CHRtFlo_Sys_L_StorSm_C" = 545.0429   $ Sizing
 "CHRtFlo_Sys_M_Break_C" = 5955.491   $ Sizing
 "CHRtFlo_Sys_M_Conf_C" = 5751.211   $ Sizing
 "CHRtFlo_Sys_M_CopyRm_C" = 1914.384   $ Sizing
 "CHRtFlo_Sys_M_Cordr_C" = 9545.414   $ Sizing
 "CHRtFlo_Sys_M_Cordr_E" = 2643.039   $ Sizing
 "CHRtFlo_Sys_M_Cordr_N" = 1941.188   $ Sizing
 "CHRtFlo_Sys_M_Cordr_S" = 2336.78   $ Sizing
 "CHRtFlo_Sys_M_Cordr_W" = 2705.947   $ Sizing
 "CHRtFlo_Sys_M_LobWait_C" = 6140.256   $ Sizing
 "CHRtFlo_Sys_M_MechElec_C" = 1788.412   $ Sizing
 "CHRtFlo_Sys_M_OfficeOpn_C" = 18958.48   $ Sizing
 "CHRtFlo_Sys_M_OfficeOpn_E" = 16734.03   $ Sizing
 "CHRtFlo_Sys_M_OfficeOpn_N" = 12231.17   $ Sizing
 "CHRtFlo_Sys_M_OfficeOpn_S" = 15582.04   $ Sizing
 "CHRtFlo_Sys_M_OfficeOpn_W" = 18185.04   $ Sizing
 "CHRtFlo_Sys_M_OfficeSm_C" = 2713.405   $ Sizing
 "CHRtFlo_Sys_M_OfficeSm_E" = 12098.47   $ Sizing
 "CHRtFlo_Sys_M_OfficeSm_N" = 8010.833   $ Sizing
 "CHRtFlo_Sys_M_OfficeSm_S" = 11348.33   $ Sizing
 "CHRtFlo_Sys_M_OfficeSm_W" = 12670.98   $ Sizing
 "CHRtFlo_Sys_M_Restrm_C" = 1711.939   $ Sizing
 "CHRtFlo_Sys_M_StorSm_C" = 4705.999   $ Sizing
 "CHRtFlo_Sys_T_Break_C" = 734.2333   $ Sizing
 "CHRtFlo_Sys_T_Conf_C" = 714.1437   $ Sizing
 "CHRtFlo_Sys_T_CopyRm_C" = 238.0589   $ Sizing
 "CHRtFlo_Sys_T_Cordr_C" = 1135.017   $ Sizing
 "CHRtFlo_Sys_T_Cordr_E" = 326.9084   $ Sizing
 "CHRtFlo_Sys_T_Cordr_N" = 233.5274   $ Sizing
 "CHRtFlo_Sys_T_Cordr_S" = 294.3457   $ Sizing
 "CHRtFlo_Sys_T_Cordr_W" = 340.9128   $ Sizing
 "CHRtFlo_Sys_T_LobWait_C" = 769.2534   $ Sizing
 "CHRtFlo_Sys_T_MechElec_C" = 269.5123   $ Sizing
 "CHRtFlo_Sys_T_OfficeOpn_C" = 2320.912   $ Sizing
 "CHRtFlo_Sys_T_OfficeOpn_E" = 2086.808   $ Sizing
 "CHRtFlo_Sys_T_OfficeOpn_N" = 1562.262   $ Sizing
 "CHRtFlo_Sys_T_OfficeOpn_S" = 1955.276   $ Sizing
 "CHRtFlo_Sys_T_OfficeOpn_W" = 2285.232   $ Sizing
 "CHRtFlo_Sys_T_OfficeSm_C" = 335.2767   $ Sizing
 "CHRtFlo_Sys_T_OfficeSm_E" = 1499.058   $ Sizing
 "CHRtFlo_Sys_T_OfficeSm_N" = 1029.73   $ Sizing
 "CHRtFlo_Sys_T_OfficeSm_S" = 1383.409   $ Sizing
 "CHRtFlo_Sys_T_OfficeSm_W" = 1618.322   $ Sizing
 "CHRtFlo_Sys_T_Restrm_C" = 213.9924   $ Sizing
 "CHRtFlo_Sys_T_StorSm_C" = 433.6713   $ Sizing
 "CRtdFlo_Sys_L_Break_C" = 736.7388   $ Sizing
 "CRtdFlo_Sys_L_Conf_C" = 720.8254   $ Sizing
 "CRtdFlo_Sys_L_CopyRm_C" = 243.8082   $ Sizing
 "CRtdFlo_Sys_L_Cordr_C" = 878.6517   $ Sizing
 "CRtdFlo_Sys_L_Cordr_E" = 300.4388   $ Sizing
 "CRtdFlo_Sys_L_Cordr_N" = 225.4407   $ Sizing
 "CRtdFlo_Sys_L_Cordr_S" = 279.3543   $ Sizing
 "CRtdFlo_Sys_L_Cordr_W" = 333.3988   $ Sizing
 "CRtdFlo_Sys_L_LobWait_C" = 756.5073   $ Sizing
 "CRtdFlo_Sys_L_MechElec_C" = 184.4669   $ Sizing
 "CRtdFlo_Sys_L_OfficeOpn_C" = 2259.59   $ Sizing
 "CRtdFlo_Sys_L_OfficeOpn_E" = 1972.857   $ Sizing
 "CRtdFlo_Sys_L_OfficeOpn_N" = 1512.298   $ Sizing
 "CRtdFlo_Sys_L_OfficeOpn_S" = 1842.766   $ Sizing
 "CRtdFlo_Sys_L_OfficeOpn_W" = 2253.931   $ Sizing
 "CRtdFlo_Sys_L_OfficeSm_C" = 308.2723   $ Sizing
 "CRtdFlo_Sys_L_OfficeSm_E" = 1403.034   $ Sizing
 "CRtdFlo_Sys_L_OfficeSm_N" = 1002.63   $ Sizing
 "CRtdFlo_Sys_L_OfficeSm_S" = 1305.299   $ Sizing
 "CRtdFlo_Sys_L_OfficeSm_W" = 1586.135   $ Sizing
 "CRtdFlo_Sys_L_Restrm_C" = 123.3712   $ Sizing
 "CRtdFlo_Sys_L_StorSm_C" = 545.0429   $ Sizing
 "CRtdFlo_Sys_M_Break_C" = 5955.491   $ Sizing
 "CRtdFlo_Sys_M_Conf_C" = 5751.211   $ Sizing
 "CRtdFlo_Sys_M_CopyRm_C" = 1914.384   $ Sizing
 "CRtdFlo_Sys_M_Cordr_C" = 9545.414   $ Sizing
 "CRtdFlo_Sys_M_Cordr_E" = 2643.039   $ Sizing
 "CRtdFlo_Sys_M_Cordr_N" = 1941.188   $ Sizing
 "CRtdFlo_Sys_M_Cordr_S" = 2336.78   $ Sizing
 "CRtdFlo_Sys_M_Cordr_W" = 2705.947   $ Sizing
 "CRtdFlo_Sys_M_LobWait_C" = 6140.256   $ Sizing
 "CRtdFlo_Sys_M_MechElec_C" = 1788.412   $ Sizing
 "CRtdFlo_Sys_M_OfficeOpn_C" = 18958.48   $ Sizing
 "CRtdFlo_Sys_M_OfficeOpn_E" = 16653.22   $ Sizing
 "CRtdFlo_Sys_M_OfficeOpn_N" = 12231.17   $ Sizing
 "CRtdFlo_Sys_M_OfficeOpn_S" = 15243.97   $ Sizing
 "CRtdFlo_Sys_M_OfficeOpn_W" = 18185.04   $ Sizing
 "CRtdFlo_Sys_M_OfficeSm_C" = 2713.405   $ Sizing
 "CRtdFlo_Sys_M_OfficeSm_E" = 11686.1   $ Sizing
 "CRtdFlo_Sys_M_OfficeSm_N" = 8010.833   $ Sizing
 "CRtdFlo_Sys_M_OfficeSm_S" = 10666.78   $ Sizing
 "CRtdFlo_Sys_M_OfficeSm_W" = 12670.98   $ Sizing
 "CRtdFlo_Sys_M_Restrm_C" = 1162.96   $ Sizing
 "CRtdFlo_Sys_M_StorSm_C" = 4705.999   $ Sizing
 "CRtdFlo_Sys_T_Break_C" = 734.2333   $ Sizing
 "CRtdFlo_Sys_T_Conf_C" = 714.1437   $ Sizing
 "CRtdFlo_Sys_T_CopyRm_C" = 238.0589   $ Sizing
 "CRtdFlo_Sys_T_Cordr_C" = 1135.017   $ Sizing
 "CRtdFlo_Sys_T_Cordr_E" = 326.9084   $ Sizing
 "CRtdFlo_Sys_T_Cordr_N" = 233.5274   $ Sizing
 "CRtdFlo_Sys_T_Cordr_S" = 294.3457   $ Sizing
 "CRtdFlo_Sys_T_Cordr_W" = 340.9128   $ Sizing
 "CRtdFlo_Sys_T_LobWait_C" = 769.2534   $ Sizing
 "CRtdFlo_Sys_T_MechElec_C" = 269.5123   $ Sizing
 "CRtdFlo_Sys_T_OfficeOpn_C" = 2320.912   $ Sizing
 "CRtdFlo_Sys_T_OfficeOpn_E" = 2086.808   $ Sizing
 "CRtdFlo_Sys_T_OfficeOpn_N" = 1562.262   $ Sizing
 "CRtdFlo_Sys_T_OfficeOpn_S" = 1955.276   $ Sizing
 "CRtdFlo_Sys_T_OfficeOpn_W" = 2285.232   $ Sizing
 "CRtdFlo_Sys_T_OfficeSm_C" = 335.2767   $ Sizing
 "CRtdFlo_Sys_T_OfficeSm_E" = 1499.058   $ Sizing
 "CRtdFlo_Sys_T_OfficeSm_N" = 1029.73   $ Sizing
 "CRtdFlo_Sys_T_OfficeSm_S" = 1383.409   $ Sizing
 "CRtdFlo_Sys_T_OfficeSm_W" = 1618.322   $ Sizing
 "CRtdFlo_Sys_T_Restrm_C" = 180.9227   $ Sizing
 "CRtdFlo_Sys_T_StorSm_C" = 433.6713   $ Sizing
 "CSupFlo_Sys_L_Break_C" = 736.7388   $ Sizing
 "CSupFlo_Sys_L_Conf_C" = 720.8254   $ Sizing
 "CSupFlo_Sys_L_CopyRm_C" = 243.8082   $ Sizing
 "CSupFlo_Sys_L_Cordr_C" = 878.6517   $ Sizing
 "CSupFlo_Sys_L_Cordr_E" = 300.4388   $ Sizing
 "CSupFlo_Sys_L_Cordr_N" = 225.4407   $ Sizing
 "CSupFlo_Sys_L_Cordr_S" = 279.3543   $ Sizing
 "CSupFlo_Sys_L_Cordr_W" = 333.3988   $ Sizing
 "CSupFlo_Sys_L_LobWait_C" = 756.5073   $ Sizing
 "CSupFlo_Sys_L_MechElec_C" = 184.4669   $ Sizing
 "CSupFlo_Sys_L_OfficeOpn_C" = 2259.59   $ Sizing
 "CSupFlo_Sys_L_OfficeOpn_E" = 1972.857   $ Sizing
 "CSupFlo_Sys_L_OfficeOpn_N" = 1512.298   $ Sizing
 "CSupFlo_Sys_L_OfficeOpn_S" = 1842.766   $ Sizing
 "CSupFlo_Sys_L_OfficeOpn_W" = 2253.931   $ Sizing
 "CSupFlo_Sys_L_OfficeSm_C" = 308.2723   $ Sizing
 "CSupFlo_Sys_L_OfficeSm_E" = 1403.034   $ Sizing
 "CSupFlo_Sys_L_OfficeSm_N" = 1002.63   $ Sizing
 "CSupFlo_Sys_L_OfficeSm_S" = 1305.299   $ Sizing
 "CSupFlo_Sys_L_OfficeSm_W" = 1586.135   $ Sizing
 "CSupFlo_Sys_L_Restrm_C" = 123.3712   $ Sizing
 "CSupFlo_Sys_L_StorSm_C" = 545.0429   $ Sizing
 "CSupFlo_Sys_M_Break_C" = 5955.491   $ Sizing
 "CSupFlo_Sys_M_Conf_C" = 5751.211   $ Sizing
 "CSupFlo_Sys_M_CopyRm_C" = 1914.384   $ Sizing
 "CSupFlo_Sys_M_Cordr_C" = 9545.414   $ Sizing
 "CSupFlo_Sys_M_Cordr_E" = 2643.039   $ Sizing
 "CSupFlo_Sys_M_Cordr_N" = 1941.188   $ Sizing
 "CSupFlo_Sys_M_Cordr_S" = 2336.78   $ Sizing
 "CSupFlo_Sys_M_Cordr_W" = 2705.947   $ Sizing
 "CSupFlo_Sys_M_LobWait_C" = 6140.256   $ Sizing
 "CSupFlo_Sys_M_MechElec_C" = 1788.412   $ Sizing
 "CSupFlo_Sys_M_OfficeOpn_C" = 18958.48   $ Sizing
 "CSupFlo_Sys_M_OfficeOpn_E" = 16653.22   $ Sizing
 "CSupFlo_Sys_M_OfficeOpn_N" = 12231.17   $ Sizing
 "CSupFlo_Sys_M_OfficeOpn_S" = 15243.97   $ Sizing
 "CSupFlo_Sys_M_OfficeOpn_W" = 18185.04   $ Sizing
 "CSupFlo_Sys_M_OfficeSm_C" = 2713.405   $ Sizing
 "CSupFlo_Sys_M_OfficeSm_E" = 11686.1   $ Sizing
 "CSupFlo_Sys_M_OfficeSm_N" = 8010.833   $ Sizing
 "CSupFlo_Sys_M_OfficeSm_S" = 10666.78   $ Sizing
 "CSupFlo_Sys_M_OfficeSm_W" = 12670.98   $ Sizing
 "CSupFlo_Sys_M_Restrm_C" = 1162.96   $ Sizing
 "CSupFlo_Sys_M_StorSm_C" = 4705.999   $ Sizing
 "CSupFlo_Sys_T_Break_C" = 734.2333   $ Sizing
 "CSupFlo_Sys_T_Conf_C" = 714.1437   $ Sizing
 "CSupFlo_Sys_T_CopyRm_C" = 238.0589   $ Sizing
 "CSupFlo_Sys_T_Cordr_C" = 1135.017   $ Sizing
 "CSupFlo_Sys_T_Cordr_E" = 326.9084   $ Sizing
 "CSupFlo_Sys_T_Cordr_N" = 233.5274   $ Sizing
 "CSupFlo_Sys_T_Cordr_S" = 294.3457   $ Sizing
 "CSupFlo_Sys_T_Cordr_W" = 340.9128   $ Sizing
 "CSupFlo_Sys_T_LobWait_C" = 769.2534   $ Sizing
 "CSupFlo_Sys_T_MechElec_C" = 269.5123   $ Sizing
 "CSupFlo_Sys_T_OfficeOpn_C" = 2320.912   $ Sizing
 "CSupFlo_Sys_T_OfficeOpn_E" = 2086.808   $ Sizing
 "CSupFlo_Sys_T_OfficeOpn_N" = 1562.262   $ Sizing
 "CSupFlo_Sys_T_OfficeOpn_S" = 1955.276   $ Sizing
 "CSupFlo_Sys_T_OfficeOpn_W" = 2285.232   $ Sizing
 "CSupFlo_Sys_T_OfficeSm_C" = 335.2767   $ Sizing
 "CSupFlo_Sys_T_OfficeSm_E" = 1499.058   $ Sizing
 "CSupFlo_Sys_T_OfficeSm_N" = 1029.73   $ Sizing
 "CSupFlo_Sys_T_OfficeSm_S" = 1383.409   $ Sizing
 "CSupFlo_Sys_T_OfficeSm_W" = 1618.322   $ Sizing
 "CSupFlo_Sys_T_Restrm_C" = 180.9227   $ Sizing
 "CSupFlo_Sys_T_StorSm_C" = 433.6713   $ Sizing
 "ClCap_Sys_L_Break_C" = 24821.09   $ Sizing
 "ClCap_Sys_L_Conf_C" = 30908.13   $ Sizing
 "ClCap_Sys_L_CopyRm_C" = 8214.017   $ Sizing
 "ClCap_Sys_L_Cordr_C" = 29602.2   $ Sizing
 "ClCap_Sys_L_Cordr_E" = 10121.93   $ Sizing
 "ClCap_Sys_L_Cordr_N" = 7595.206   $ Sizing
 "ClCap_Sys_L_Cordr_S" = 9411.58   $ Sizing
 "ClCap_Sys_L_Cordr_W" = 11232.37   $ Sizing
 "ClCap_Sys_L_LobWait_C" = 25487.1   $ Sizing
 "ClCap_Sys_L_MechElec_C" = 6214.779   $ Sizing
 "ClCap_Sys_L_OfficeOpn_C" = 76126.66   $ Sizing
 "ClCap_Sys_L_OfficeOpn_E" = 66466.5   $ Sizing
 "ClCap_Sys_L_OfficeOpn_N" = 50950.05   $ Sizing
 "ClCap_Sys_L_OfficeOpn_S" = 62083.66   $ Sizing
 "ClCap_Sys_L_OfficeOpn_W" = 75936.02   $ Sizing
 "ClCap_Sys_L_OfficeSm_C" = 10385.84   $ Sizing
 "ClCap_Sys_L_OfficeSm_E" = 47268.89   $ Sizing
 "ClCap_Sys_L_OfficeSm_N" = 33779.08   $ Sizing
 "ClCap_Sys_L_OfficeSm_S" = 43976.16   $ Sizing
 "ClCap_Sys_L_OfficeSm_W" = 53437.67   $ Sizing
 "ClCap_Sys_L_Restrm_C" = 4156.437   $ Sizing
 "ClCap_Sys_L_StorSm_C" = 18362.76   $ Sizing
 "ClCap_Sys_M_Break_C" = 200643.4   $ Sizing
 "ClCap_Sys_M_Conf_C" = 246605   $ Sizing
 "ClCap_Sys_M_CopyRm_C" = 64496.53   $ Sizing
 "ClCap_Sys_M_Cordr_C" = 321589.6   $ Sizing
 "ClCap_Sys_M_Cordr_E" = 89045.26   $ Sizing
 "ClCap_Sys_M_Cordr_N" = 65399.57   $ Sizing
 "ClCap_Sys_M_Cordr_S" = 78727.23   $ Sizing
 "ClCap_Sys_M_Cordr_W" = 91164.65   $ Sizing
 "ClCap_Sys_M_LobWait_C" = 206868.2   $ Sizing
 "ClCap_Sys_M_MechElec_C" = 60252.48   $ Sizing
 "ClCap_Sys_M_OfficeOpn_C" = 638720.3   $ Sizing
 "ClCap_Sys_M_OfficeOpn_E" = 561054.9   $ Sizing
 "ClCap_Sys_M_OfficeOpn_N" = 412073.9   $ Sizing
 "ClCap_Sys_M_OfficeOpn_S" = 513576.6   $ Sizing
 "ClCap_Sys_M_OfficeOpn_W" = 612662.8   $ Sizing
 "ClCap_Sys_M_OfficeSm_C" = 91415.92   $ Sizing
 "ClCap_Sys_M_OfficeSm_E" = 393710.2   $ Sizing
 "ClCap_Sys_M_OfficeSm_N" = 269888.8   $ Sizing
 "ClCap_Sys_M_OfficeSm_S" = 359369.1   $ Sizing
 "ClCap_Sys_M_OfficeSm_W" = 426891.3   $ Sizing
 "ClCap_Sys_M_Restrm_C" = 39180.67   $ Sizing
 "ClCap_Sys_M_StorSm_C" = 158547.4   $ Sizing
 "ClCap_Sys_T_Break_C" = 24736.67   $ Sizing
 "ClCap_Sys_T_Conf_C" = 30621.62   $ Sizing
 "ClCap_Sys_T_CopyRm_C" = 8020.32   $ Sizing
 "ClCap_Sys_T_Cordr_C" = 38239.26   $ Sizing
 "ClCap_Sys_T_Cordr_E" = 11013.7   $ Sizing
 "ClCap_Sys_T_Cordr_N" = 7867.649   $ Sizing
 "ClCap_Sys_T_Cordr_S" = 9916.648   $ Sizing
 "ClCap_Sys_T_Cordr_W" = 11485.51   $ Sizing
 "ClCap_Sys_T_LobWait_C" = 25916.52   $ Sizing
 "ClCap_Sys_T_MechElec_C" = 9080   $ Sizing
 "ClCap_Sys_T_OfficeOpn_C" = 78192.64   $ Sizing
 "ClCap_Sys_T_OfficeOpn_E" = 70305.57   $ Sizing
 "ClCap_Sys_T_OfficeOpn_N" = 52633.36   $ Sizing
 "ClCap_Sys_T_OfficeOpn_S" = 65874.19   $ Sizing
 "ClCap_Sys_T_OfficeOpn_W" = 76990.59   $ Sizing
 "ClCap_Sys_T_OfficeSm_C" = 11295.63   $ Sizing
 "ClCap_Sys_T_OfficeSm_E" = 50504   $ Sizing
 "ClCap_Sys_T_OfficeSm_N" = 34692.1   $ Sizing
 "ClCap_Sys_T_OfficeSm_S" = 46607.73   $ Sizing
 "ClCap_Sys_T_OfficeSm_W" = 54522.06   $ Sizing
 "ClCap_Sys_T_Restrm_C" = 6095.373   $ Sizing
 "ClCap_Sys_T_StorSm_C" = 14610.6   $ Sizing
 "HtCap_Sys_L_Break_C" = -37294.94   $ Sizing
 "HtCap_Sys_L_Conf_C" = -37639   $ Sizing
 "HtCap_Sys_L_CopyRm_C" = -14346.15   $ Sizing
 "HtCap_Sys_L_Cordr_C" = -35389.62   $ Sizing
 "HtCap_Sys_L_Cordr_E" = -9928.241   $ Sizing
 "HtCap_Sys_L_Cordr_N" = -8186.829   $ Sizing
 "HtCap_Sys_L_Cordr_S" = -9286.644   $ Sizing
 "HtCap_Sys_L_Cordr_W" = -10988.27   $ Sizing
 "HtCap_Sys_L_LobWait_C" = -36502.55   $ Sizing
 "HtCap_Sys_L_MechElec_C" = -7665.071   $ Sizing
 "HtCap_Sys_L_OfficeOpn_C" = -109049.5   $ Sizing
 "HtCap_Sys_L_OfficeOpn_E" = -95236.09   $ Sizing
 "HtCap_Sys_L_OfficeOpn_N" = -51972.22   $ Sizing
 "HtCap_Sys_L_OfficeOpn_S" = -89498.3   $ Sizing
 "HtCap_Sys_L_OfficeOpn_W" = -71458.2   $ Sizing
 "HtCap_Sys_L_OfficeSm_C" = -14791.97   $ Sizing
 "HtCap_Sys_L_OfficeSm_E" = -44407.91   $ Sizing
 "HtCap_Sys_L_OfficeSm_N" = -34327.92   $ Sizing
 "HtCap_Sys_L_OfficeSm_S" = -42341.1   $ Sizing
 "HtCap_Sys_L_OfficeSm_W" = -49977.41   $ Sizing
 "HtCap_Sys_L_Restrm_C" = -7828.983   $ Sizing
 "HtCap_Sys_L_StorSm_C" = -21555.27   $ Sizing
 "HtCap_Sys_M_Break_C" = -287684.8   $ Sizing
 "HtCap_Sys_M_Conf_C" = -280825.1   $ Sizing
 "HtCap_Sys_M_CopyRm_C" = -98624   $ Sizing
 "HtCap_Sys_M_Cordr_C" = -343173   $ Sizing
 "HtCap_Sys_M_Cordr_E" = -85634.2   $ Sizing
 "HtCap_Sys_M_Cordr_N" = -66954.65   $ Sizing
 "HtCap_Sys_M_Cordr_S" = -76663.26   $ Sizing
 "HtCap_Sys_M_Cordr_W" = -89212.59   $ Sizing
 "HtCap_Sys_M_LobWait_C" = -263936.7   $ Sizing
 "HtCap_Sys_M_MechElec_C" = -68249.24   $ Sizing
 "HtCap_Sys_M_OfficeOpn_C" = -910529.9   $ Sizing
 "HtCap_Sys_M_OfficeOpn_E" = -807612.9   $ Sizing
 "HtCap_Sys_M_OfficeOpn_N" = -414326.8   $ Sizing
 "HtCap_Sys_M_OfficeOpn_S" = -750009.4   $ Sizing
 "HtCap_Sys_M_OfficeOpn_W" = -574709.8   $ Sizing
 "HtCap_Sys_M_OfficeSm_C" = -128724.3   $ Sizing
 "HtCap_Sys_M_OfficeSm_E" = -374043.4   $ Sizing
 "HtCap_Sys_M_OfficeSm_N" = -270953.6   $ Sizing
 "HtCap_Sys_M_OfficeSm_S" = -356699.3   $ Sizing
 "HtCap_Sys_M_OfficeSm_W" = -398856.3   $ Sizing
 "HtCap_Sys_M_Restrm_C" = -67325.75   $ Sizing
 "HtCap_Sys_M_StorSm_C" = -178399.1   $ Sizing
 "HtCap_Sys_T_Break_C" = -38056.85   $ Sizing
 "HtCap_Sys_T_Conf_C" = -37536.93   $ Sizing
 "HtCap_Sys_T_CopyRm_C" = -13547.14   $ Sizing
 "HtCap_Sys_T_Cordr_C" = -45193.3   $ Sizing
 "HtCap_Sys_T_Cordr_E" = -11892.87   $ Sizing
 "HtCap_Sys_T_Cordr_N" = -9201.543   $ Sizing
 "HtCap_Sys_T_Cordr_S" = -10521.85   $ Sizing
 "HtCap_Sys_T_Cordr_W" = -12581.41   $ Sizing
 "HtCap_Sys_T_LobWait_C" = -36974.93   $ Sizing
 "HtCap_Sys_T_MechElec_C" = -9669.972   $ Sizing
 "HtCap_Sys_T_OfficeOpn_C" = -111874.4   $ Sizing
 "HtCap_Sys_T_OfficeOpn_E" = -72510.4   $ Sizing
 "HtCap_Sys_T_OfficeOpn_N" = -59620.1   $ Sizing
 "HtCap_Sys_T_OfficeOpn_S" = -67203.98   $ Sizing
 "HtCap_Sys_T_OfficeOpn_W" = -79495.66   $ Sizing
 "HtCap_Sys_T_OfficeSm_C" = -13006.8   $ Sizing
 "HtCap_Sys_T_OfficeSm_E" = -51595.29   $ Sizing
 "HtCap_Sys_T_OfficeSm_N" = -38858.63   $ Sizing
 "HtCap_Sys_T_OfficeSm_S" = -48176.43   $ Sizing
 "HtCap_Sys_T_OfficeSm_W" = -56401.69   $ Sizing
 "HtCap_Sys_T_Restrm_C" = -8309.176   $ Sizing
 "HtCap_Sys_T_StorSm_C" = -20083.04   $ Sizing
..

##include Templates\OfL_DX_SZ.inp
END ..
COMPUTE ..
STOP ..
