INPUT ..

##fileprefix C:\Users\jglasskatz\MASControl3\
##set1 IsSizing FALSE
##set1 CoolType DX
##set1 HeatType FURNACE
##set1 EU_HrRepVar 0
##set1 BldgVint 2011
##set1 BldgLoc CZ16

 ##set1 mBFMult 1   $ IP Tech: RefgChg-NRes-Std

PARAMETER
 "AltFactor" = 1.21446   $ IP Non-Tech
 "BF_fFlow" = SpltAC1Sp_BF_fFlow   $ Msr (Var)TechID: PreNResSplitAC-lt45-PENo
 "BF_fT" = SpltAC1Sp_BF_fT   $ Msr (Var)TechID: PreNResSplitAC-lt45-PENo
 "BldgEconoFlag" = 1   $ IP Non-Tech
 "Break_EWSF" = 1   $ IP Non-Tech
 "Break_LWSF" = 1.1   $ IP Non-Tech
 "CDD_DBHi10" = 66   $ IP Non-Tech
 "CDD_DBHi7" = 83   $ IP Non-Tech
 "CDD_DBHi8" = 83   $ IP Non-Tech
 "CDD_DBHi9" = 78   $ IP Non-Tech
 "CDD_DBRange10" = 10   $ IP Non-Tech
 "CDD_DBRange7" = 7   $ IP Non-Tech
 "CDD_DBRange8" = 11   $ IP Non-Tech
 "CDD_DBRange9" = 10   $ IP Non-Tech
 "CDD_Day10" = 15   $ IP Non-Tech
 "CDD_Day7" = 16   $ IP Non-Tech
 "CDD_Day8" = 20   $ IP Non-Tech
 "CDD_Day9" = 17   $ IP Non-Tech
 "CDD_HrHi10" = 15   $ IP Non-Tech
 "CDD_HrHi7" = 15   $ IP Non-Tech
 "CDD_HrHi8" = 13   $ IP Non-Tech
 "CDD_HrHi9" = 14   $ IP Non-Tech
 "CDD_HrLo10" = 7   $ IP Non-Tech
 "CDD_HrLo7" = 22   $ IP Non-Tech
 "CDD_HrLo8" = 2   $ IP Non-Tech
 "CDD_HrLo9" = 7   $ IP Non-Tech
 "CDD_WB10" = 49.76695633   $ IP Non-Tech
 "CDD_WB7" = 62.86373901   $ IP Non-Tech
 "CDD_WB8" = 57.26689529   $ IP Non-Tech
 "CDD_WB9" = 55.95214462   $ IP Non-Tech
 "CEIR_fPLR_Hot" = SpltAC1Sp_CEIR_fPLR_Hot   $ Msr (Var)TechID: PreNResSplitAC-lt45-PENo
 "CEIR_fPLR_Mod" = SpltAC1Sp_CEIR_fPLR_Mod   $ Msr (Var)TechID: PreNResSplitAC-lt45-PENo
 "CEIR_fPLR_Tem" = SpltAC1Sp_CEIR_fPLR_Tem   $ Msr (Var)TechID: PreNResSplitAC-lt45-PENo
 "CLoss_fPLR_Hot" = SpltAC1Sp_CLoss_fPLR_Hot   $ Msr (Var)TechID: PreNResSplitAC-lt45-PENo
 "CLoss_fPLR_Mod" = SpltAC1Sp_CLoss_fPLR_Mod   $ Msr (Var)TechID: PreNResSplitAC-lt45-PENo
 "CLoss_fPLR_Tem" = SpltAC1Sp_CLoss_fPLR_Tem   $ Msr (Var)TechID: PreNResSplitAC-lt45-PENo
 "COP47" = 0   $ Msr (Var)TechID: PreNResSplitAC-lt45-PENo
 "CZ_Category" = Tem   $ IP Non-Tech
 "CapRange" = Any   $ Msr (Var)TechID: PreNResSplitAC-lt45-PENo
 "CfmPerBtuh" = 0.0321   $ Msr (Var)TechID: PreNResSplitAC-lt45-PENo
 "ChwVintEconoFlag" = 1   $ IP Non-Tech
 "ClCap_fT" = SpltAC1Sp_ClCap_fT   $ Msr (Var)TechID: PreNResSplitAC-lt45-PENo
 "ClSH_fT" = SpltAC1Sp_ClSH_fT   $ Msr (Var)TechID: PreNResSplitAC-lt45-PENo
 "CoilBF" = 0.12   $ Msr (Var)TechID: PreNResSplitAC-lt45-PENo
 "CondWPerBtuh" = 0   $ Msr (Var)TechID: PreNResSplitAC-lt45-PENo
 "Conference_EWSF" = 1   $ IP Non-Tech
 "Conference_LWSF" = 1.4   $ IP Non-Tech
 "CoolSensCap" = 0.744   $ Msr (Var)TechID: PreNResSplitAC-lt45-PENo
 "CoolSetT" = 45   $ IP Non-Tech
 "CoolType" = DX   $ IP Non-Tech
 "CoolingEIR" = 0.25823   $ Msr (Var)TechID: PreNResSplitAC-lt45-PENo
 "CopyRoom_EWSF" = 1.5   $ IP Non-Tech
 "CopyRoom_LWSF" = 1.3   $ IP Non-Tech
 "CorridorStairway_EWSF" = 0.2   $ IP Non-Tech
 "CorridorStairway_LWSF" = 0.6   $ IP Non-Tech
 "CrnkEIR" = 0.0025823   $ Msr (Var)TechID: PreNResSplitAC-lt45-PENo
 "CrnkMaxT" = 50   $ Msr (Var)TechID: PreNResSplitAC-lt45-PENo
 "DXType" = SplitSEER   $ Msr (Var)TechID: PreNResSplitAC-lt45-PENo
 "DesCoolT" = 75   $ IP Non-Tech
 "DesHeatT" = 73   $ IP Non-Tech
 "EER" = 11.07746479   $ Msr (Var)TechID: PreNResSplitAC-lt45-PENo
 "EIR_fT" = SpltAC1Sp_EIR_fT   $ Msr (Var)TechID: PreNResSplitAC-lt45-PENo
 "EconoCtrl" = FIXED   $ Msr (Multi)TechID: PreNResSplitAC-lt45-PENo
 "EconoEnthLimit" = 28   $ IP Non-Tech
 "EconoTempLimit" = 75   $ IP Non-Tech
 "Elevation" = 5279   $ IP Non-Tech
 "FanEirPlr" = TwoSpeedFan   $ Msr (Var)TechID: PreNResSplitAC-lt45-PENo
 "FanWPerCfm" = 0.348   $ Msr (Var)TechID: PreNResSplitAC-lt45-PENo
 "HDD_CloudAmt1" = 0   $ IP Non-Tech
 "HDD_DBHi1" = 30   $ IP Non-Tech
 "HDD_DBRange1" = 8   $ IP Non-Tech
 "HDD_Day1" = 15   $ IP Non-Tech
 "HDD_HrHi1" = 15   $ IP Non-Tech
 "HDD_HrLo1" = 2   $ IP Non-Tech
 "HDD_WB1" = 22.9   $ IP Non-Tech
 "HDD_WindSpd1" = 16.1   $ IP Non-Tech
 "HIR_fT" = 0   $ Msr (Var)TechID: PreNResSplitAC-lt45-PENo
 "HSPF" = 0   $ Msr (Var)TechID: PreNResSplitAC-lt45-PENo
 "HeatSrc" = FURNACE   $ IP Non-Tech
 "HeatSrcTU" = HEAT-PUMP   $ IP Non-Tech
 "HeatType" = GasFurn   $ IP Non-Tech
 "HeatTypeTU" = HEAT-PUMP   $ IP Non-Tech
 "HtCap_fT" = 0   $ Msr (Var)TechID: PreNResSplitAC-lt45-PENo
 "HtCoolCapRatio" = 0   $ Msr (Var)TechID: PreNResSplitAC-lt45-PENo
 "HtgEIR" = 0   $ Msr (Var)TechID: PreNResSplitAC-lt45-PENo
 "IndoorFanMode" = CONTINUOUS   $ IP Non-Tech
 "KT_TransferAir" = No   $ IP Non-Tech
 "Latitude" = 41.3   $ IP Non-Tech
 "LobbyWaiting_EWSF" = 0.5   $ IP Non-Tech
 "LobbyWaiting_LWSF" = 1.3   $ IP Non-Tech
 "Longitude" = 122.3   $ IP Non-Tech
 "LowSpdCapRatio" = 1   $ Msr (Var)TechID: PreNResSplitAC-lt45-PENo
 "LowSpdCfmRatio" = 1   $ Msr (Var)TechID: PreNResSplitAC-lt45-PENo
 "MZFanMechEff" = 0.58   $ IP Non-Tech
 "MZHasRetFan" = FALSE   $ IP Non-Tech
 "MZ_RFanWPerCfm" = 0.37   $ IP Non-Tech
 "MZ_SFanWPerCfm" = 0.71   $ IP Non-Tech
 "MZ_SupFanStatic" = 2.25   $ IP Non-Tech
 "MaxOAFrac" = 1   $ Msr (Multi)TechID: PreNResSplitAC-lt45-PENo
 "MaxSupT_MZ" = 100   $ IP Non-Tech
 "MaxSupT_SZ" = 100   $ IP Non-Tech
 "MaxSupT_TU" = 90   $ IP Non-Tech
 "MechElecRoom_EWSF" = 0.2   $ IP Non-Tech
 "MechElecRoom_LWSF" = 0.7   $ IP Non-Tech
 "MinCfmPerSF" = 0.4   $ IP Non-Tech
 "MinSupT" = 55   $ IP Non-Tech
 "NumStages" = 1   $ Msr (Var)TechID: PreNResSplitAC-lt45-PENo
 "OccCoolT" = 76   $ IP Non-Tech
 "OccHeatT" = 72   $ IP Non-Tech
 "OfficeOpen_EWSF" = 1.5   $ IP Non-Tech
 "OfficeOpen_LWSF" = 1.1   $ IP Non-Tech
 "OfficeSmall_EWSF" = 1.5   $ IP Non-Tech
 "OfficeSmall_LWSF" = 1.3   $ IP Non-Tech
 "PkgDxVintEconoFlag" = 0   $ IP Non-Tech
 "Restroom_EWSF" = 0.2   $ IP Non-Tech
 "Restroom_LWSF" = 0.6   $ IP Non-Tech
 "SEER" = 13   $ Msr (Var)TechID: PreNResSplitAC-lt45-PENo
 "SZFanMechEff" = 0.58   $ IP Non-Tech
 "SZHasRetFan" = FALSE   $ IP Non-Tech
 "SZ_Is_2Spd" = FALSE   $ IP Non-Tech
 "SZ_SFanWPerCfm" = 0.46   $ IP Non-Tech
 "SZ_SupFanStatic" = 0.75   $ IP Non-Tech
 "Sector" = Any   $ Msr (Var)TechID: PreNResSplitAC-lt45-PENo
 "StorageSmlCond_EWSF" = 0.2   $ IP Non-Tech
 "StorageSmlCond_LWSF" = 0.6   $ IP Non-Tech
 "SubType" = AC   $ Msr (Var)TechID: PreNResSplitAC-lt45-PENo
 "T24GlzTbl" = CZTbl   $ IP Non-Tech
 "TermUnitFanMechEff" = 1   $ IP Non-Tech
 "TermUnitFanMode" = INTERMITTENT   $ IP Non-Tech
 "TotCoolCap" = 34895   $ Msr (Var)TechID: PreNResSplitAC-lt45-PENo
 "TwrSetpt" = 80   $ IP Non-Tech
 "UnocCoolT" = 86   $ IP Non-Tech
 "UnocHeatT" = 62   $ IP Non-Tech
 "UseEconoVintApplic" = FALSE   $ Msr (Multi)TechID: PreNResSplitAC-lt45-PENo
 "WlhpVintEconoFlag" = 0   $ IP Non-Tech
 "DuctDT" = 1   $ IP Tech: ComDuctInsul-1
 "DuctAirLoss" = 0   $ IP Tech: ComDuctLeak-0
 "DuctLossOAFrac" = 0   $ IP Tech: ComDuctLeak-0
 "ComRoofInsCalc" = FromUo   $ IP Tech: ComRoofIns-Hvy-0.04
 "ComRoofInsR" = -999   $ IP Tech: ComRoofIns-Hvy-0.04
 "ComRoofUo" = 0.04   $ IP Tech: ComRoofIns-Hvy-0.04
 "ComEWInsCalc" = FromUo   $ IP Tech: ComWallIns-MFrm-0.06
 "ComEWInsR" = -999   $ IP Tech: ComWallIns-MFrm-0.06
 "ComEWUo" = 0.06   $ IP Tech: ComWallIns-MFrm-0.06
 "ComN_SHGC" = 0.47   $ IP Tech: NResWin-ComN-0.47-0.47
 "ComN_UFactor" = 0.47   $ IP Tech: NResWin-ComN-0.47-0.47
 "ComN_VisTrans" = 0.75   $ IP Tech: NResWin-ComN-0.47-0.47
 "ComN_WinCode" = G2633   $ IP Tech: NResWin-ComN-0.47-0.47
 "ComN_WinFrmFrac" = 0.17   $ IP Tech: NResWin-ComN-0.47-0.47
 "ComN_WinFrmU" = 0.3   $ IP Tech: NResWin-ComN-0.47-0.47
 "ComO_SHGC" = 0.43   $ IP Tech: NResWin-ComO-0.47-0.43
 "ComO_UFactor" = 0.47   $ IP Tech: NResWin-ComO-0.47-0.43
 "ComO_VisTrans" = 0.68   $ IP Tech: NResWin-ComO-0.47-0.43
 "ComO_WinCode" = G2663   $ IP Tech: NResWin-ComO-0.47-0.43
 "ComO_WinFrmFrac" = 0.17   $ IP Tech: NResWin-ComO-0.47-0.43
 "ComO_WinFrmU" = 0.3   $ IP Tech: NResWin-ComO-0.47-0.43
 "LtgMsrApplic" = ALL   $ IP Tech: NonResLtgRefPre
 "LtgSav_CFL" = 0   $ IP Tech: NonResLtgRefPre
 "LtgSav_EX" = 0   $ IP Tech: NonResLtgRefPre
 "LtgSav_HB" = 0   $ IP Tech: NonResLtgRefPre
 "LtgSav_LF" = 0   $ IP Tech: NonResLtgRefPre
 "LtgSav_SP" = 0   $ IP Tech: NonResLtgRefPre
 "CEIR_fPLR" = PSZ65to135_CEIR_fPLR   $ IP Tech: PkgAC1SpH-65to135-E11
 "CLoss_fPLR" = PSZ65to135_CLoss_fPLR   $ IP Tech: PkgAC1SpH-65to135-E11
 "COP" = -1   $ IP Tech: PkgAC1SpH-65to135-E11
 "HtgFuel" = Gas   $ IP Tech: PkgAC1SpH-65to135-E11
 "IEER" = 13.35   $ IP Tech: PkgAC1SpH-65to135-E11
 "NominalCap" = 15   $ IP Tech: PkgAC1SpH-65to135-E11
 "RatedEER" = 11   $ IP Tech: PkgAC1SpH-65to135-E11
 "RatedSupMtrClass" = HiEff   $ IP Tech: PkgAC1SpH-65to135-E11
 "SizeRange" = 65to135   $ IP Tech: PkgAC1SpH-65to135-E11
 "SupMotEff" = 0.84   $ IP Tech: PkgAC1SpH-65to135-E11
 "Tier" = 0   $ IP Tech: PkgAC1SpH-65to135-E11
 "FanPwrMult" = 1   $ IP Tech: PkgFurn-0.80AFUE
 "FurnAFUE" = 0.8   $ IP Tech: PkgFurn-0.80AFUE
 "FurnEt" = 0.82   $ IP Tech: PkgFurn-0.80AFUE
 "FurnaceAuxKW" = 0.1   $ IP Tech: PkgFurn-0.80AFUE
 "HIR_fPLR" = Furnace-HIR-fPLR   $ IP Tech: PkgFurn-0.80AFUE
 "VSM" = FALSE   $ IP Tech: PkgFurn-0.80AFUE
 "BFMult" = 1   $ IP Tech: RefgChg-NRes-Std
 "CoolEirMult" = 1   $ IP Tech: RefgChg-NRes-Std
 "SensCoolCapMult" = 1   $ IP Tech: RefgChg-NRes-Std
 "TotCoolCapMult" = 1   $ IP Tech: RefgChg-NRes-Std
 "AltAdjFactor" = 1.214461   $ Sizing
 "CAssFlo_L_Break_CZn" = 459.5944   $ Sizing
 "CAssFlo_L_Conf_CZn" = 549.5245   $ Sizing
 "CAssFlo_L_CopyRm_CZn" = 143.1324   $ Sizing
 "CAssFlo_L_Cordr_CZn" = 737.8504   $ Sizing
 "CAssFlo_L_Cordr_EZn" = 275.9854   $ Sizing
 "CAssFlo_L_Cordr_NZn" = 135.1009   $ Sizing
 "CAssFlo_L_Cordr_SZn" = 249.4364   $ Sizing
 "CAssFlo_L_Cordr_WZn" = 250.3835   $ Sizing
 "CAssFlo_L_LobWait_CZn" = 496.7116   $ Sizing
 "CAssFlo_L_MechElec_CZn" = 161.7257   $ Sizing
 "CAssFlo_L_OfficeOpn_CZn" = 2072.134   $ Sizing
 "CAssFlo_L_OfficeOpn_EZn" = 2102.239   $ Sizing
 "CAssFlo_L_OfficeOpn_NZn" = 1183.953   $ Sizing
 "CAssFlo_L_OfficeOpn_SZn" = 1970.027   $ Sizing
 "CAssFlo_L_OfficeOpn_WZn" = 1996.218   $ Sizing
 "CAssFlo_L_OfficeSm_CZn" = 299.0458   $ Sizing
 "CAssFlo_L_OfficeSm_EZn" = 1515.865   $ Sizing
 "CAssFlo_L_OfficeSm_NZn" = 759.3217   $ Sizing
 "CAssFlo_L_OfficeSm_SZn" = 1425.111   $ Sizing
 "CAssFlo_L_OfficeSm_WZn" = 1409.991   $ Sizing
 "CAssFlo_L_Restrm_CZn" = 255.3736   $ Sizing
 "CAssFlo_L_StorSm_CZn" = 485.4619   $ Sizing
 "CAssFlo_M_Break_CZn" = 512.5918   $ Sizing
 "CAssFlo_M_Conf_CZn" = 635.5889   $ Sizing
 "CAssFlo_M_CopyRm_CZn" = 183.1611   $ Sizing
 "CAssFlo_M_Cordr_CZn" = 1162.214   $ Sizing
 "CAssFlo_M_Cordr_EZn" = 345.0011   $ Sizing
 "CAssFlo_M_Cordr_NZn" = 214.8496   $ Sizing
 "CAssFlo_M_Cordr_SZn" = 298.9269   $ Sizing
 "CAssFlo_M_Cordr_WZn" = 284.7095   $ Sizing
 "CAssFlo_M_LobWait_CZn" = 668.6266   $ Sizing
 "CAssFlo_M_MechElec_CZn" = 205.2118   $ Sizing
 "CAssFlo_M_OfficeOpn_CZn" = 2562.95   $ Sizing
 "CAssFlo_M_OfficeOpn_EZn" = 2346.643   $ Sizing
 "CAssFlo_M_OfficeOpn_NZn" = 1386.28   $ Sizing
 "CAssFlo_M_OfficeOpn_SZn" = 2180.029   $ Sizing
 "CAssFlo_M_OfficeOpn_WZn" = 2087.105   $ Sizing
 "CAssFlo_M_OfficeSm_CZn" = 389.8188   $ Sizing
 "CAssFlo_M_OfficeSm_EZn" = 1671.983   $ Sizing
 "CAssFlo_M_OfficeSm_NZn" = 921.8007   $ Sizing
 "CAssFlo_M_OfficeSm_SZn" = 1567.185   $ Sizing
 "CAssFlo_M_OfficeSm_WZn" = 1487.499   $ Sizing
 "CAssFlo_M_Restrm_CZn" = 255.3736   $ Sizing
 "CAssFlo_M_StorSm_CZn" = 515.2255   $ Sizing
 "CAssFlo_T_Break_CZn" = 468.1661   $ Sizing
 "CAssFlo_T_Conf_CZn" = 580.261   $ Sizing
 "CAssFlo_T_CopyRm_CZn" = 152.2011   $ Sizing
 "CAssFlo_T_Cordr_CZn" = 989.1053   $ Sizing
 "CAssFlo_T_Cordr_EZn" = 304.099   $ Sizing
 "CAssFlo_T_Cordr_NZn" = 182.0524   $ Sizing
 "CAssFlo_T_Cordr_SZn" = 272.9806   $ Sizing
 "CAssFlo_T_Cordr_WZn" = 259.8365   $ Sizing
 "CAssFlo_T_LobWait_CZn" = 599.2028   $ Sizing
 "CAssFlo_T_MechElec_CZn" = 224.1278   $ Sizing
 "CAssFlo_T_OfficeOpn_CZn" = 2159.218   $ Sizing
 "CAssFlo_T_OfficeOpn_EZn" = 2134.419   $ Sizing
 "CAssFlo_T_OfficeOpn_NZn" = 1264.311   $ Sizing
 "CAssFlo_T_OfficeOpn_SZn" = 2042.107   $ Sizing
 "CAssFlo_T_OfficeOpn_WZn" = 1926.547   $ Sizing
 "CAssFlo_T_OfficeSm_CZn" = 349.9802   $ Sizing
 "CAssFlo_T_OfficeSm_EZn" = 1564.112   $ Sizing
 "CAssFlo_T_OfficeSm_NZn" = 829.3756   $ Sizing
 "CAssFlo_T_OfficeSm_SZn" = 1496.783   $ Sizing
 "CAssFlo_T_OfficeSm_WZn" = 1409.678   $ Sizing
 "CAssFlo_T_Restrm_CZn" = 255.3736   $ Sizing
 "CAssFlo_T_StorSm_CZn" = 402.7054   $ Sizing
 "CHRtFlo_Sys_L_Break_C" = 459.5944   $ Sizing
 "CHRtFlo_Sys_L_Conf_C" = 549.5245   $ Sizing
 "CHRtFlo_Sys_L_CopyRm_C" = 143.1324   $ Sizing
 "CHRtFlo_Sys_L_Cordr_C" = 737.8504   $ Sizing
 "CHRtFlo_Sys_L_Cordr_E" = 275.9854   $ Sizing
 "CHRtFlo_Sys_L_Cordr_N" = 135.1009   $ Sizing
 "CHRtFlo_Sys_L_Cordr_S" = 249.4364   $ Sizing
 "CHRtFlo_Sys_L_Cordr_W" = 250.3835   $ Sizing
 "CHRtFlo_Sys_L_LobWait_C" = 496.7116   $ Sizing
 "CHRtFlo_Sys_L_MechElec_C" = 161.7257   $ Sizing
 "CHRtFlo_Sys_L_OfficeOpn_C" = 2072.134   $ Sizing
 "CHRtFlo_Sys_L_OfficeOpn_E" = 2102.239   $ Sizing
 "CHRtFlo_Sys_L_OfficeOpn_N" = 1183.953   $ Sizing
 "CHRtFlo_Sys_L_OfficeOpn_S" = 1970.027   $ Sizing
 "CHRtFlo_Sys_L_OfficeOpn_W" = 1996.218   $ Sizing
 "CHRtFlo_Sys_L_OfficeSm_C" = 299.0458   $ Sizing
 "CHRtFlo_Sys_L_OfficeSm_E" = 1515.865   $ Sizing
 "CHRtFlo_Sys_L_OfficeSm_N" = 759.3217   $ Sizing
 "CHRtFlo_Sys_L_OfficeSm_S" = 1425.111   $ Sizing
 "CHRtFlo_Sys_L_OfficeSm_W" = 1409.991   $ Sizing
 "CHRtFlo_Sys_L_Restrm_C" = 255.3736   $ Sizing
 "CHRtFlo_Sys_L_StorSm_C" = 485.4619   $ Sizing
 "CHRtFlo_Sys_M_Break_C" = 4100.734   $ Sizing
 "CHRtFlo_Sys_M_Conf_C" = 5084.711   $ Sizing
 "CHRtFlo_Sys_M_CopyRm_C" = 1465.289   $ Sizing
 "CHRtFlo_Sys_M_Cordr_C" = 9297.71   $ Sizing
 "CHRtFlo_Sys_M_Cordr_E" = 2760.009   $ Sizing
 "CHRtFlo_Sys_M_Cordr_N" = 1718.797   $ Sizing
 "CHRtFlo_Sys_M_Cordr_S" = 2391.416   $ Sizing
 "CHRtFlo_Sys_M_Cordr_W" = 2277.676   $ Sizing
 "CHRtFlo_Sys_M_LobWait_C" = 5349.013   $ Sizing
 "CHRtFlo_Sys_M_MechElec_C" = 1641.694   $ Sizing
 "CHRtFlo_Sys_M_OfficeOpn_C" = 20503.6   $ Sizing
 "CHRtFlo_Sys_M_OfficeOpn_E" = 18773.14   $ Sizing
 "CHRtFlo_Sys_M_OfficeOpn_N" = 11090.24   $ Sizing
 "CHRtFlo_Sys_M_OfficeOpn_S" = 17440.23   $ Sizing
 "CHRtFlo_Sys_M_OfficeOpn_W" = 16696.84   $ Sizing
 "CHRtFlo_Sys_M_OfficeSm_C" = 3118.55   $ Sizing
 "CHRtFlo_Sys_M_OfficeSm_E" = 13375.87   $ Sizing
 "CHRtFlo_Sys_M_OfficeSm_N" = 7374.406   $ Sizing
 "CHRtFlo_Sys_M_OfficeSm_S" = 12537.48   $ Sizing
 "CHRtFlo_Sys_M_OfficeSm_W" = 11900   $ Sizing
 "CHRtFlo_Sys_M_Restrm_C" = 2042.989   $ Sizing
 "CHRtFlo_Sys_M_StorSm_C" = 4121.804   $ Sizing
 "CHRtFlo_Sys_T_Break_C" = 468.1661   $ Sizing
 "CHRtFlo_Sys_T_Conf_C" = 580.261   $ Sizing
 "CHRtFlo_Sys_T_CopyRm_C" = 152.2011   $ Sizing
 "CHRtFlo_Sys_T_Cordr_C" = 989.1053   $ Sizing
 "CHRtFlo_Sys_T_Cordr_E" = 304.099   $ Sizing
 "CHRtFlo_Sys_T_Cordr_N" = 182.0524   $ Sizing
 "CHRtFlo_Sys_T_Cordr_S" = 272.9806   $ Sizing
 "CHRtFlo_Sys_T_Cordr_W" = 259.8365   $ Sizing
 "CHRtFlo_Sys_T_LobWait_C" = 599.2028   $ Sizing
 "CHRtFlo_Sys_T_MechElec_C" = 224.1278   $ Sizing
 "CHRtFlo_Sys_T_OfficeOpn_C" = 2159.218   $ Sizing
 "CHRtFlo_Sys_T_OfficeOpn_E" = 2134.419   $ Sizing
 "CHRtFlo_Sys_T_OfficeOpn_N" = 1264.311   $ Sizing
 "CHRtFlo_Sys_T_OfficeOpn_S" = 2042.107   $ Sizing
 "CHRtFlo_Sys_T_OfficeOpn_W" = 1926.547   $ Sizing
 "CHRtFlo_Sys_T_OfficeSm_C" = 349.9802   $ Sizing
 "CHRtFlo_Sys_T_OfficeSm_E" = 1564.112   $ Sizing
 "CHRtFlo_Sys_T_OfficeSm_N" = 829.3756   $ Sizing
 "CHRtFlo_Sys_T_OfficeSm_S" = 1496.783   $ Sizing
 "CHRtFlo_Sys_T_OfficeSm_W" = 1409.678   $ Sizing
 "CHRtFlo_Sys_T_Restrm_C" = 255.3736   $ Sizing
 "CHRtFlo_Sys_T_StorSm_C" = 402.7054   $ Sizing
 "CRtdFlo_Sys_L_Break_C" = 459.5944   $ Sizing
 "CRtdFlo_Sys_L_Conf_C" = 549.5245   $ Sizing
 "CRtdFlo_Sys_L_CopyRm_C" = 143.1324   $ Sizing
 "CRtdFlo_Sys_L_Cordr_C" = 737.8504   $ Sizing
 "CRtdFlo_Sys_L_Cordr_E" = 275.9854   $ Sizing
 "CRtdFlo_Sys_L_Cordr_N" = 135.1009   $ Sizing
 "CRtdFlo_Sys_L_Cordr_S" = 249.4364   $ Sizing
 "CRtdFlo_Sys_L_Cordr_W" = 250.3835   $ Sizing
 "CRtdFlo_Sys_L_LobWait_C" = 496.7116   $ Sizing
 "CRtdFlo_Sys_L_MechElec_C" = 161.7257   $ Sizing
 "CRtdFlo_Sys_L_OfficeOpn_C" = 2072.134   $ Sizing
 "CRtdFlo_Sys_L_OfficeOpn_E" = 2102.239   $ Sizing
 "CRtdFlo_Sys_L_OfficeOpn_N" = 1183.953   $ Sizing
 "CRtdFlo_Sys_L_OfficeOpn_S" = 1970.027   $ Sizing
 "CRtdFlo_Sys_L_OfficeOpn_W" = 1996.218   $ Sizing
 "CRtdFlo_Sys_L_OfficeSm_C" = 299.0458   $ Sizing
 "CRtdFlo_Sys_L_OfficeSm_E" = 1515.865   $ Sizing
 "CRtdFlo_Sys_L_OfficeSm_N" = 759.3217   $ Sizing
 "CRtdFlo_Sys_L_OfficeSm_S" = 1425.111   $ Sizing
 "CRtdFlo_Sys_L_OfficeSm_W" = 1409.991   $ Sizing
 "CRtdFlo_Sys_L_Restrm_C" = 255.3736   $ Sizing
 "CRtdFlo_Sys_L_StorSm_C" = 485.4619   $ Sizing
 "CRtdFlo_Sys_M_Break_C" = 4100.734   $ Sizing
 "CRtdFlo_Sys_M_Conf_C" = 5084.711   $ Sizing
 "CRtdFlo_Sys_M_CopyRm_C" = 1465.289   $ Sizing
 "CRtdFlo_Sys_M_Cordr_C" = 9297.71   $ Sizing
 "CRtdFlo_Sys_M_Cordr_E" = 2760.009   $ Sizing
 "CRtdFlo_Sys_M_Cordr_N" = 1718.797   $ Sizing
 "CRtdFlo_Sys_M_Cordr_S" = 2391.416   $ Sizing
 "CRtdFlo_Sys_M_Cordr_W" = 2277.676   $ Sizing
 "CRtdFlo_Sys_M_LobWait_C" = 5349.013   $ Sizing
 "CRtdFlo_Sys_M_MechElec_C" = 1641.694   $ Sizing
 "CRtdFlo_Sys_M_OfficeOpn_C" = 20503.6   $ Sizing
 "CRtdFlo_Sys_M_OfficeOpn_E" = 18773.14   $ Sizing
 "CRtdFlo_Sys_M_OfficeOpn_N" = 11090.24   $ Sizing
 "CRtdFlo_Sys_M_OfficeOpn_S" = 17440.23   $ Sizing
 "CRtdFlo_Sys_M_OfficeOpn_W" = 16696.84   $ Sizing
 "CRtdFlo_Sys_M_OfficeSm_C" = 3118.55   $ Sizing
 "CRtdFlo_Sys_M_OfficeSm_E" = 13375.87   $ Sizing
 "CRtdFlo_Sys_M_OfficeSm_N" = 7374.406   $ Sizing
 "CRtdFlo_Sys_M_OfficeSm_S" = 12537.48   $ Sizing
 "CRtdFlo_Sys_M_OfficeSm_W" = 11900   $ Sizing
 "CRtdFlo_Sys_M_Restrm_C" = 2042.989   $ Sizing
 "CRtdFlo_Sys_M_StorSm_C" = 4121.804   $ Sizing
 "CRtdFlo_Sys_T_Break_C" = 468.1661   $ Sizing
 "CRtdFlo_Sys_T_Conf_C" = 580.261   $ Sizing
 "CRtdFlo_Sys_T_CopyRm_C" = 152.2011   $ Sizing
 "CRtdFlo_Sys_T_Cordr_C" = 989.1053   $ Sizing
 "CRtdFlo_Sys_T_Cordr_E" = 304.099   $ Sizing
 "CRtdFlo_Sys_T_Cordr_N" = 182.0524   $ Sizing
 "CRtdFlo_Sys_T_Cordr_S" = 272.9806   $ Sizing
 "CRtdFlo_Sys_T_Cordr_W" = 259.8365   $ Sizing
 "CRtdFlo_Sys_T_LobWait_C" = 599.2028   $ Sizing
 "CRtdFlo_Sys_T_MechElec_C" = 224.1278   $ Sizing
 "CRtdFlo_Sys_T_OfficeOpn_C" = 2159.218   $ Sizing
 "CRtdFlo_Sys_T_OfficeOpn_E" = 2134.419   $ Sizing
 "CRtdFlo_Sys_T_OfficeOpn_N" = 1264.311   $ Sizing
 "CRtdFlo_Sys_T_OfficeOpn_S" = 2042.107   $ Sizing
 "CRtdFlo_Sys_T_OfficeOpn_W" = 1926.547   $ Sizing
 "CRtdFlo_Sys_T_OfficeSm_C" = 349.9802   $ Sizing
 "CRtdFlo_Sys_T_OfficeSm_E" = 1564.112   $ Sizing
 "CRtdFlo_Sys_T_OfficeSm_N" = 829.3756   $ Sizing
 "CRtdFlo_Sys_T_OfficeSm_S" = 1496.783   $ Sizing
 "CRtdFlo_Sys_T_OfficeSm_W" = 1409.678   $ Sizing
 "CRtdFlo_Sys_T_Restrm_C" = 255.3736   $ Sizing
 "CRtdFlo_Sys_T_StorSm_C" = 402.7054   $ Sizing
 "CSupFlo_Sys_L_Break_C" = 459.5944   $ Sizing
 "CSupFlo_Sys_L_Conf_C" = 549.5245   $ Sizing
 "CSupFlo_Sys_L_CopyRm_C" = 143.1324   $ Sizing
 "CSupFlo_Sys_L_Cordr_C" = 737.8504   $ Sizing
 "CSupFlo_Sys_L_Cordr_E" = 275.9854   $ Sizing
 "CSupFlo_Sys_L_Cordr_N" = 135.1009   $ Sizing
 "CSupFlo_Sys_L_Cordr_S" = 249.4364   $ Sizing
 "CSupFlo_Sys_L_Cordr_W" = 250.3835   $ Sizing
 "CSupFlo_Sys_L_LobWait_C" = 496.7116   $ Sizing
 "CSupFlo_Sys_L_MechElec_C" = 161.7257   $ Sizing
 "CSupFlo_Sys_L_OfficeOpn_C" = 2072.134   $ Sizing
 "CSupFlo_Sys_L_OfficeOpn_E" = 2102.239   $ Sizing
 "CSupFlo_Sys_L_OfficeOpn_N" = 1183.953   $ Sizing
 "CSupFlo_Sys_L_OfficeOpn_S" = 1970.027   $ Sizing
 "CSupFlo_Sys_L_OfficeOpn_W" = 1996.218   $ Sizing
 "CSupFlo_Sys_L_OfficeSm_C" = 299.0458   $ Sizing
 "CSupFlo_Sys_L_OfficeSm_E" = 1515.865   $ Sizing
 "CSupFlo_Sys_L_OfficeSm_N" = 759.3217   $ Sizing
 "CSupFlo_Sys_L_OfficeSm_S" = 1425.111   $ Sizing
 "CSupFlo_Sys_L_OfficeSm_W" = 1409.991   $ Sizing
 "CSupFlo_Sys_L_Restrm_C" = 255.3736   $ Sizing
 "CSupFlo_Sys_L_StorSm_C" = 485.4619   $ Sizing
 "CSupFlo_Sys_M_Break_C" = 4100.734   $ Sizing
 "CSupFlo_Sys_M_Conf_C" = 5084.711   $ Sizing
 "CSupFlo_Sys_M_CopyRm_C" = 1465.289   $ Sizing
 "CSupFlo_Sys_M_Cordr_C" = 9297.71   $ Sizing
 "CSupFlo_Sys_M_Cordr_E" = 2760.009   $ Sizing
 "CSupFlo_Sys_M_Cordr_N" = 1718.797   $ Sizing
 "CSupFlo_Sys_M_Cordr_S" = 2391.416   $ Sizing
 "CSupFlo_Sys_M_Cordr_W" = 2277.676   $ Sizing
 "CSupFlo_Sys_M_LobWait_C" = 5349.013   $ Sizing
 "CSupFlo_Sys_M_MechElec_C" = 1641.694   $ Sizing
 "CSupFlo_Sys_M_OfficeOpn_C" = 20503.6   $ Sizing
 "CSupFlo_Sys_M_OfficeOpn_E" = 18773.14   $ Sizing
 "CSupFlo_Sys_M_OfficeOpn_N" = 11090.24   $ Sizing
 "CSupFlo_Sys_M_OfficeOpn_S" = 17440.23   $ Sizing
 "CSupFlo_Sys_M_OfficeOpn_W" = 16696.84   $ Sizing
 "CSupFlo_Sys_M_OfficeSm_C" = 3118.55   $ Sizing
 "CSupFlo_Sys_M_OfficeSm_E" = 13375.87   $ Sizing
 "CSupFlo_Sys_M_OfficeSm_N" = 7374.406   $ Sizing
 "CSupFlo_Sys_M_OfficeSm_S" = 12537.48   $ Sizing
 "CSupFlo_Sys_M_OfficeSm_W" = 11900   $ Sizing
 "CSupFlo_Sys_M_Restrm_C" = 2042.989   $ Sizing
 "CSupFlo_Sys_M_StorSm_C" = 4121.804   $ Sizing
 "CSupFlo_Sys_T_Break_C" = 468.1661   $ Sizing
 "CSupFlo_Sys_T_Conf_C" = 580.261   $ Sizing
 "CSupFlo_Sys_T_CopyRm_C" = 152.2011   $ Sizing
 "CSupFlo_Sys_T_Cordr_C" = 989.1053   $ Sizing
 "CSupFlo_Sys_T_Cordr_E" = 304.099   $ Sizing
 "CSupFlo_Sys_T_Cordr_N" = 182.0524   $ Sizing
 "CSupFlo_Sys_T_Cordr_S" = 272.9806   $ Sizing
 "CSupFlo_Sys_T_Cordr_W" = 259.8365   $ Sizing
 "CSupFlo_Sys_T_LobWait_C" = 599.2028   $ Sizing
 "CSupFlo_Sys_T_MechElec_C" = 224.1278   $ Sizing
 "CSupFlo_Sys_T_OfficeOpn_C" = 2159.218   $ Sizing
 "CSupFlo_Sys_T_OfficeOpn_E" = 2134.419   $ Sizing
 "CSupFlo_Sys_T_OfficeOpn_N" = 1264.311   $ Sizing
 "CSupFlo_Sys_T_OfficeOpn_S" = 2042.107   $ Sizing
 "CSupFlo_Sys_T_OfficeOpn_W" = 1926.547   $ Sizing
 "CSupFlo_Sys_T_OfficeSm_C" = 349.9802   $ Sizing
 "CSupFlo_Sys_T_OfficeSm_E" = 1564.112   $ Sizing
 "CSupFlo_Sys_T_OfficeSm_N" = 829.3756   $ Sizing
 "CSupFlo_Sys_T_OfficeSm_S" = 1496.783   $ Sizing
 "CSupFlo_Sys_T_OfficeSm_W" = 1409.678   $ Sizing
 "CSupFlo_Sys_T_Restrm_C" = 255.3736   $ Sizing
 "CSupFlo_Sys_T_StorSm_C" = 402.7054   $ Sizing
 "ClCap_Sys_L_Break_C" = 12974.91   $ Sizing
 "ClCap_Sys_L_Conf_C" = 19744.76   $ Sizing
 "ClCap_Sys_L_CopyRm_C" = 4040.801   $ Sizing
 "ClCap_Sys_L_Cordr_C" = 20830.41   $ Sizing
 "ClCap_Sys_L_Cordr_E" = 7791.401   $ Sizing
 "ClCap_Sys_L_Cordr_N" = 3814.063   $ Sizing
 "ClCap_Sys_L_Cordr_S" = 7041.893   $ Sizing
 "ClCap_Sys_L_Cordr_W" = 7068.628   $ Sizing
 "ClCap_Sys_L_LobWait_C" = 14022.77   $ Sizing
 "ClCap_Sys_L_MechElec_C" = 4565.713   $ Sizing
 "ClCap_Sys_L_OfficeOpn_C" = 58498.86   $ Sizing
 "ClCap_Sys_L_OfficeOpn_E" = 59348.75   $ Sizing
 "ClCap_Sys_L_OfficeOpn_N" = 33424.44   $ Sizing
 "ClCap_Sys_L_OfficeOpn_S" = 55616.24   $ Sizing
 "ClCap_Sys_L_OfficeOpn_W" = 56355.66   $ Sizing
 "ClCap_Sys_L_OfficeSm_C" = 8442.426   $ Sizing
 "ClCap_Sys_L_OfficeSm_E" = 42794.71   $ Sizing
 "ClCap_Sys_L_OfficeSm_N" = 21436.57   $ Sizing
 "ClCap_Sys_L_OfficeSm_S" = 40232.61   $ Sizing
 "ClCap_Sys_L_OfficeSm_W" = 39805.75   $ Sizing
 "ClCap_Sys_L_Restrm_C" = 7209.506   $ Sizing
 "ClCap_Sys_L_StorSm_C" = 13705.18   $ Sizing
 "ClCap_Sys_M_Break_C" = 115768.7   $ Sizing
 "ClCap_Sys_M_Conf_C" = 182696.9   $ Sizing
 "ClCap_Sys_M_CopyRm_C" = 41366.88   $ Sizing
 "ClCap_Sys_M_Cordr_C" = 262485.6   $ Sizing
 "ClCap_Sys_M_Cordr_E" = 77918.39   $ Sizing
 "ClCap_Sys_M_Cordr_N" = 48523.72   $ Sizing
 "ClCap_Sys_M_Cordr_S" = 67512.55   $ Sizing
 "ClCap_Sys_M_Cordr_W" = 64301.55   $ Sizing
 "ClCap_Sys_M_LobWait_C" = 151009.1   $ Sizing
 "ClCap_Sys_M_MechElec_C" = 46347.02   $ Sizing
 "ClCap_Sys_M_OfficeOpn_C" = 578841.5   $ Sizing
 "ClCap_Sys_M_OfficeOpn_E" = 529988.6   $ Sizing
 "ClCap_Sys_M_OfficeOpn_N" = 313090.8   $ Sizing
 "ClCap_Sys_M_OfficeOpn_S" = 492358.9   $ Sizing
 "ClCap_Sys_M_OfficeOpn_W" = 471372   $ Sizing
 "ClCap_Sys_M_OfficeSm_C" = 88040.45   $ Sizing
 "ClCap_Sys_M_OfficeSm_E" = 377616.9   $ Sizing
 "ClCap_Sys_M_OfficeSm_N" = 208188.4   $ Sizing
 "ClCap_Sys_M_OfficeSm_S" = 353948.3   $ Sizing
 "ClCap_Sys_M_OfficeSm_W" = 335951.3   $ Sizing
 "ClCap_Sys_M_Restrm_C" = 57676.05   $ Sizing
 "ClCap_Sys_M_StorSm_C" = 116363.5   $ Sizing
 "ClCap_Sys_T_Break_C" = 13216.9   $ Sizing
 "ClCap_Sys_T_Conf_C" = 20849.15   $ Sizing
 "ClCap_Sys_T_CopyRm_C" = 4296.821   $ Sizing
 "ClCap_Sys_T_Cordr_C" = 27923.64   $ Sizing
 "ClCap_Sys_T_Cordr_E" = 8585.084   $ Sizing
 "ClCap_Sys_T_Cordr_N" = 5139.56   $ Sizing
 "ClCap_Sys_T_Cordr_S" = 7706.574   $ Sizing
 "ClCap_Sys_T_Cordr_W" = 7335.5   $ Sizing
 "ClCap_Sys_T_LobWait_C" = 16916.22   $ Sizing
 "ClCap_Sys_T_MechElec_C" = 6327.4   $ Sizing
 "ClCap_Sys_T_OfficeOpn_C" = 60957.35   $ Sizing
 "ClCap_Sys_T_OfficeOpn_E" = 60257.23   $ Sizing
 "ClCap_Sys_T_OfficeOpn_N" = 35693.02   $ Sizing
 "ClCap_Sys_T_OfficeOpn_S" = 57651.14   $ Sizing
 "ClCap_Sys_T_OfficeOpn_W" = 54388.76   $ Sizing
 "ClCap_Sys_T_OfficeSm_C" = 9880.365   $ Sizing
 "ClCap_Sys_T_OfficeSm_E" = 44156.78   $ Sizing
 "ClCap_Sys_T_OfficeSm_N" = 23414.28   $ Sizing
 "ClCap_Sys_T_OfficeSm_S" = 42256.01   $ Sizing
 "ClCap_Sys_T_OfficeSm_W" = 39796.91   $ Sizing
 "ClCap_Sys_T_Restrm_C" = 7209.506   $ Sizing
 "ClCap_Sys_T_StorSm_C" = 11368.86   $ Sizing
 "HtCap_Sys_L_Break_C" = -24284.85   $ Sizing
 "HtCap_Sys_L_Conf_C" = -30440.43   $ Sizing
 "HtCap_Sys_L_CopyRm_C" = -8802.403   $ Sizing
 "HtCap_Sys_L_Cordr_C" = -30766.03   $ Sizing
 "HtCap_Sys_L_Cordr_E" = -8945.408   $ Sizing
 "HtCap_Sys_L_Cordr_N" = -5483.014   $ Sizing
 "HtCap_Sys_L_Cordr_S" = -8228.148   $ Sizing
 "HtCap_Sys_L_Cordr_W" = -8313.484   $ Sizing
 "HtCap_Sys_L_LobWait_C" = -25642.6   $ Sizing
 "HtCap_Sys_L_MechElec_C" = -6850.748   $ Sizing
 "HtCap_Sys_L_OfficeOpn_C" = -75139.02   $ Sizing
 "HtCap_Sys_L_OfficeOpn_E" = -63733.79   $ Sizing
 "HtCap_Sys_L_OfficeOpn_N" = -41318.63   $ Sizing
 "HtCap_Sys_L_OfficeOpn_S" = -59251.71   $ Sizing
 "HtCap_Sys_L_OfficeOpn_W" = -61090.4   $ Sizing
 "HtCap_Sys_L_OfficeSm_C" = -10719.75   $ Sizing
 "HtCap_Sys_L_OfficeSm_E" = -45339.87   $ Sizing
 "HtCap_Sys_L_OfficeSm_N" = -26538.17   $ Sizing
 "HtCap_Sys_L_OfficeSm_S" = -42681.13   $ Sizing
 "HtCap_Sys_L_OfficeSm_W" = -42790.41   $ Sizing
 "HtCap_Sys_L_Restrm_C" = -7675.758   $ Sizing
 "HtCap_Sys_L_StorSm_C" = -19733.19   $ Sizing
 "HtCap_Sys_M_Break_C" = -204296   $ Sizing
 "HtCap_Sys_M_Conf_C" = -260161.3   $ Sizing
 "HtCap_Sys_M_CopyRm_C" = -78233.95   $ Sizing
 "HtCap_Sys_M_Cordr_C" = -327076.5   $ Sizing
 "HtCap_Sys_M_Cordr_E" = -84550.04   $ Sizing
 "HtCap_Sys_M_Cordr_N" = -59408.82   $ Sizing
 "HtCap_Sys_M_Cordr_S" = -74927.48   $ Sizing
 "HtCap_Sys_M_Cordr_W" = -72832.6   $ Sizing
 "HtCap_Sys_M_LobWait_C" = -238274.3   $ Sizing
 "HtCap_Sys_M_MechElec_C" = -62868.09   $ Sizing
 "HtCap_Sys_M_OfficeOpn_C" = -692541.7   $ Sizing
 "HtCap_Sys_M_OfficeOpn_E" = -554598.5   $ Sizing
 "HtCap_Sys_M_OfficeOpn_N" = -368477.9   $ Sizing
 "HtCap_Sys_M_OfficeOpn_S" = -513961.8   $ Sizing
 "HtCap_Sys_M_OfficeOpn_W" = -504049.5   $ Sizing
 "HtCap_Sys_M_OfficeSm_C" = -103061.8   $ Sizing
 "HtCap_Sys_M_OfficeSm_E" = -390020   $ Sizing
 "HtCap_Sys_M_OfficeSm_N" = -243112.6   $ Sizing
 "HtCap_Sys_M_OfficeSm_S" = -365966.9   $ Sizing
 "HtCap_Sys_M_OfficeSm_W" = -354525.7   $ Sizing
 "HtCap_Sys_M_Restrm_C" = -66152.91   $ Sizing
 "HtCap_Sys_M_StorSm_C" = -157676   $ Sizing
 "HtCap_Sys_T_Break_C" = -25498.32   $ Sizing
 "HtCap_Sys_T_Conf_C" = -32297.14   $ Sizing
 "HtCap_Sys_T_CopyRm_C" = -9213.037   $ Sizing
 "HtCap_Sys_T_Cordr_C" = -42092.78   $ Sizing
 "HtCap_Sys_T_Cordr_E" = -11256.38   $ Sizing
 "HtCap_Sys_T_Cordr_N" = -7599.059   $ Sizing
 "HtCap_Sys_T_Cordr_S" = -10378.81   $ Sizing
 "HtCap_Sys_T_Cordr_W" = -9967.13   $ Sizing
 "HtCap_Sys_T_LobWait_C" = -30123.71   $ Sizing
 "HtCap_Sys_T_MechElec_C" = -8299.557   $ Sizing
 "HtCap_Sys_T_OfficeOpn_C" = -87995.03   $ Sizing
 "HtCap_Sys_T_OfficeOpn_E" = -73609.11   $ Sizing
 "HtCap_Sys_T_OfficeOpn_N" = -49820.67   $ Sizing
 "HtCap_Sys_T_OfficeOpn_S" = -72638.27   $ Sizing
 "HtCap_Sys_T_OfficeOpn_W" = -67745.38   $ Sizing
 "HtCap_Sys_T_OfficeSm_C" = -13580.86   $ Sizing
 "HtCap_Sys_T_OfficeSm_E" = -53319.74   $ Sizing
 "HtCap_Sys_T_OfficeSm_N" = -32216.13   $ Sizing
 "HtCap_Sys_T_OfficeSm_S" = -51760   $ Sizing
 "HtCap_Sys_T_OfficeSm_W" = -49110.98   $ Sizing
 "HtCap_Sys_T_Restrm_C" = -9462.211   $ Sizing
 "HtCap_Sys_T_StorSm_C" = -19687.3   $ Sizing
..

##include Templates\OfL_DX_SZ.inp
END ..
COMPUTE ..
STOP ..
