INPUT ..

##fileprefix C:\Users\jglasskatz\MASControl3\
##set1 IsSizing FALSE
##set1 CoolType DX
##set1 HeatType FURNACE
##set1 EU_HrRepVar 0
##set1 BldgVint 2020
##set1 BldgLoc CZ13

 ##set1 mBFMult 1   $ IP Tech: RefgChg-NRes-Std

PARAMETER
 "AltFactor" = 1.01244   $ IP Non-Tech
 "BF_fFlow" = SpltAC2SpHiSEER_BF_fFlow   $ Msr (Multi)TechID: MsrNResSplitAC-lt45-S17
 "BF_fT" = SpltAC2SpHiSEER_BF_fT   $ Msr (Multi)TechID: MsrNResSplitAC-lt45-S17
 "BldgEconoFlag" = 1   $ IP Non-Tech
 "Break_EWSF" = 1   $ IP Non-Tech
 "Break_LWSF" = 0.65   $ IP Non-Tech
 "CDD_DBHi10" = 86   $ IP Non-Tech
 "CDD_DBHi7" = 105   $ IP Non-Tech
 "CDD_DBHi8" = 102   $ IP Non-Tech
 "CDD_DBHi9" = 100   $ IP Non-Tech
 "CDD_DBRange10" = 28   $ IP Non-Tech
 "CDD_DBRange7" = 28   $ IP Non-Tech
 "CDD_DBRange8" = 28   $ IP Non-Tech
 "CDD_DBRange9" = 30   $ IP Non-Tech
 "CDD_Day10" = 15   $ IP Non-Tech
 "CDD_Day7" = 16   $ IP Non-Tech
 "CDD_Day8" = 20   $ IP Non-Tech
 "CDD_Day9" = 17   $ IP Non-Tech
 "CDD_HrHi10" = 16   $ IP Non-Tech
 "CDD_HrHi7" = 18   $ IP Non-Tech
 "CDD_HrHi8" = 18   $ IP Non-Tech
 "CDD_HrHi9" = 15   $ IP Non-Tech
 "CDD_HrLo10" = 5   $ IP Non-Tech
 "CDD_HrLo7" = 6   $ IP Non-Tech
 "CDD_HrLo8" = 7   $ IP Non-Tech
 "CDD_HrLo9" = 3   $ IP Non-Tech
 "CDD_WB10" = 62.19377518   $ IP Non-Tech
 "CDD_WB7" = 72.76699829   $ IP Non-Tech
 "CDD_WB8" = 69.69030762   $ IP Non-Tech
 "CDD_WB9" = 71.78777313   $ IP Non-Tech
 "CEIR_fPLR_Hot" = SpltAC2SpHiSEER_CEIR_fPLR_Hot   $ Msr (Multi)TechID: MsrNResSplitAC-lt45-S17
 "CEIR_fPLR_Mod" = SpltAC2SpHiSEER_CEIR_fPLR_Mod   $ Msr (Multi)TechID: MsrNResSplitAC-lt45-S17
 "CEIR_fPLR_Tem" = SpltAC2SpHiSEER_CEIR_fPLR_Tem   $ Msr (Multi)TechID: MsrNResSplitAC-lt45-S17
 "CLoss_fPLR_Hot" = SpltAC2SpHiSEER_CLoss_fPLR_Hot   $ Msr (Multi)TechID: MsrNResSplitAC-lt45-S17
 "CLoss_fPLR_Mod" = SpltAC2SpHiSEER_CLoss_fPLR_Mod   $ Msr (Multi)TechID: MsrNResSplitAC-lt45-S17
 "CLoss_fPLR_Tem" = SpltAC2SpHiSEER_CLoss_fPLR_Tem   $ Msr (Multi)TechID: MsrNResSplitAC-lt45-S17
 "COP47" = 0   $ Msr (Multi)TechID: MsrNResSplitAC-lt45-S17
 "CZ_Category" = Mod   $ IP Non-Tech
 "CapRange" = Any   $ Msr (Multi)TechID: MsrNResSplitAC-lt45-S17
 "CfmPerBtuh" = 0.03   $ Msr (Multi)TechID: MsrNResSplitAC-lt45-S17
 "ChwVintEconoFlag" = 1   $ IP Non-Tech
 "ClCap_fT" = SpltAC2SpHiSEER_ClCap_fT   $ Msr (Multi)TechID: MsrNResSplitAC-lt45-S17
 "ClSH_fT" = SpltAC2SpHiSEER_ClSH_fT   $ Msr (Multi)TechID: MsrNResSplitAC-lt45-S17
 "CoilBF" = 0.102   $ Msr (Multi)TechID: MsrNResSplitAC-lt45-S17
 "CondWPerBtuh" = 0   $ Msr (Multi)TechID: MsrNResSplitAC-lt45-S17
 "Conference_EWSF" = 1   $ IP Non-Tech
 "Conference_LWSF" = 0.85   $ IP Non-Tech
 "CoolSensCap" = 0.724   $ Msr (Multi)TechID: MsrNResSplitAC-lt45-S17
 "CoolSetT" = 45   $ IP Non-Tech
 "CoolType" = DX   $ IP Non-Tech
 "CoolingEIR" = 0.2225   $ Msr (Multi)TechID: MsrNResSplitAC-lt45-S17
 "CopyRoom_EWSF" = 1.5   $ IP Non-Tech
 "CopyRoom_LWSF" = 0.5   $ IP Non-Tech
 "CorridorStairway_EWSF" = 0.2   $ IP Non-Tech
 "CorridorStairway_LWSF" = 0.55   $ IP Non-Tech
 "CrnkEIR" = 0.002225   $ Msr (Multi)TechID: MsrNResSplitAC-lt45-S17
 "CrnkMaxT" = 50   $ Msr (Multi)TechID: MsrNResSplitAC-lt45-S17
 "DXType" = SplitSEER   $ Msr (Multi)TechID: MsrNResSplitAC-lt45-S17
 "DesCoolT" = 75   $ IP Non-Tech
 "DesHeatT" = 73   $ IP Non-Tech
 "EER" = 13.26   $ Msr (Multi)TechID: MsrNResSplitAC-lt45-S17
 "EIR_fT" = SpltAC2SpHiSEER_EIR_fT   $ Msr (Multi)TechID: MsrNResSplitAC-lt45-S17
 "EconoCtrl" = FIXED   $ Msr (Multi)TechID: MsrNResSplitAC-lt45-S17
 "EconoEnthLimit" = 28   $ IP Non-Tech
 "EconoTempLimit" = 75   $ IP Non-Tech
 "Elevation" = 335   $ IP Non-Tech
 "FanEirPlr" = TwoSpeedFan   $ Msr (Multi)TechID: MsrNResSplitAC-lt45-S17
 "FanWPerCfm" = 0.271   $ Msr (Multi)TechID: MsrNResSplitAC-lt45-S17
 "HDD_CloudAmt1" = 0   $ IP Non-Tech
 "HDD_DBHi1" = 40.29372406   $ IP Non-Tech
 "HDD_DBRange1" = 8   $ IP Non-Tech
 "HDD_Day1" = 15   $ IP Non-Tech
 "HDD_HrHi1" = 22   $ IP Non-Tech
 "HDD_HrLo1" = 7   $ IP Non-Tech
 "HDD_WB1" = 38.2   $ IP Non-Tech
 "HDD_WindSpd1" = 10.4   $ IP Non-Tech
 "HIR_fT" = 0   $ Msr (Multi)TechID: MsrNResSplitAC-lt45-S17
 "HSPF" = 0   $ Msr (Multi)TechID: MsrNResSplitAC-lt45-S17
 "HeatSrc" = FURNACE   $ IP Non-Tech
 "HeatSrcTU" = HEAT-PUMP   $ IP Non-Tech
 "HeatType" = GasFurn   $ IP Non-Tech
 "HeatTypeTU" = HEAT-PUMP   $ IP Non-Tech
 "HtCap_fT" = 0   $ Msr (Multi)TechID: MsrNResSplitAC-lt45-S17
 "HtCoolCapRatio" = 0   $ Msr (Multi)TechID: MsrNResSplitAC-lt45-S17
 "HtgEIR" = 0   $ Msr (Multi)TechID: MsrNResSplitAC-lt45-S17
 "IndoorFanMode" = CONTINUOUS   $ IP Non-Tech
 "KT_TransferAir" = Yes   $ IP Non-Tech
 "Latitude" = 36.8   $ IP Non-Tech
 "LobbyWaiting_EWSF" = 0.5   $ IP Non-Tech
 "LobbyWaiting_LWSF" = 0.75   $ IP Non-Tech
 "Longitude" = 119.7   $ IP Non-Tech
 "LowSpdCapRatio" = 0.686   $ Msr (Multi)TechID: MsrNResSplitAC-lt45-S17
 "LowSpdCfmRatio" = 0.739   $ Msr (Multi)TechID: MsrNResSplitAC-lt45-S17
 "MZFanMechEff" = 0.58   $ IP Non-Tech
 "MZHasRetFan" = FALSE   $ IP Non-Tech
 "MZ_RFanWPerCfm" = 0.37   $ IP Non-Tech
 "MZ_SFanWPerCfm" = 0.71   $ IP Non-Tech
 "MZ_SupFanStatic" = 2.25   $ IP Non-Tech
 "MaxOAFrac" = 1   $ Msr (Multi)TechID: MsrNResSplitAC-lt45-S17
 "MaxSupT_MZ" = 100   $ IP Non-Tech
 "MaxSupT_SZ" = 100   $ IP Non-Tech
 "MaxSupT_TU" = 90   $ IP Non-Tech
 "MechElecRoom_EWSF" = 0.2   $ IP Non-Tech
 "MechElecRoom_LWSF" = 0.4   $ IP Non-Tech
 "MinCfmPerSF" = 0.4   $ IP Non-Tech
 "MinSupT" = 55   $ IP Non-Tech
 "NumStages" = 2   $ Msr (Multi)TechID: MsrNResSplitAC-lt45-S17
 "OccCoolT" = 76   $ IP Non-Tech
 "OccHeatT" = 72   $ IP Non-Tech
 "OfficeOpen_EWSF" = 1.5   $ IP Non-Tech
 "OfficeOpen_LWSF" = 0.8   $ IP Non-Tech
 "OfficeSmall_EWSF" = 1.5   $ IP Non-Tech
 "OfficeSmall_LWSF" = 0.9   $ IP Non-Tech
 "PkgDxVintEconoFlag" = 1   $ IP Non-Tech
 "Restroom_EWSF" = 0.2   $ IP Non-Tech
 "Restroom_LWSF" = 0.65   $ IP Non-Tech
 "SEER" = 17   $ Msr (Multi)TechID: MsrNResSplitAC-lt45-S17
 "SZFanMechEff" = 0.58   $ IP Non-Tech
 "SZHasRetFan" = FALSE   $ IP Non-Tech
 "SZ_Is_2Spd" = TRUE   $ IP Non-Tech
 "SZ_SFanWPerCfm" = 0.46   $ IP Non-Tech
 "SZ_SupFanStatic" = 0.75   $ IP Non-Tech
 "Sector" = Any   $ Msr (Multi)TechID: MsrNResSplitAC-lt45-S17
 "StorageSmlCond_EWSF" = 0.2   $ IP Non-Tech
 "StorageSmlCond_LWSF" = 0.45   $ IP Non-Tech
 "SubType" = AC   $ Msr (Multi)TechID: MsrNResSplitAC-lt45-S17
 "TermUnitFanMechEff" = 1   $ IP Non-Tech
 "TermUnitFanMode" = INTERMITTENT   $ IP Non-Tech
 "TotCoolCap" = 58805   $ Msr (Multi)TechID: MsrNResSplitAC-lt45-S17
 "TwrSetpt" = 82.7   $ IP Non-Tech
 "UnocCoolT" = 86   $ IP Non-Tech
 "UnocHeatT" = 62   $ IP Non-Tech
 "UseEconoVintApplic" = FALSE   $ Msr (Multi)TechID: MsrNResSplitAC-lt45-S17
 "WlhpVintEconoFlag" = 1   $ IP Non-Tech
 "DuctDT" = 1   $ IP Tech: ComDuctInsul-1
 "DuctAirLoss" = 0   $ IP Tech: ComDuctLeak-0
 "DuctLossOAFrac" = 0   $ IP Tech: ComDuctLeak-0
 "ComRoofInsCalc" = FromUo   $ IP Tech: ComRoofIns-Hvy-0.03
 "ComRoofInsR" = -999   $ IP Tech: ComRoofIns-Hvy-0.03
 "ComRoofUo" = 0.03   $ IP Tech: ComRoofIns-Hvy-0.03
 "ComEWInsCalc" = FromUo   $ IP Tech: ComWallIns-MFrm-0.06
 "ComEWInsR" = -999   $ IP Tech: ComWallIns-MFrm-0.06
 "ComEWUo" = 0.06   $ IP Tech: ComWallIns-MFrm-0.06
 "ComN_SHGC" = 0.26   $ IP Tech: NResWin-ComN-0.41-0.26
 "ComN_UFactor" = 0.41   $ IP Tech: NResWin-ComN-0.41-0.26
 "ComN_VisTrans" = 0.41   $ IP Tech: NResWin-ComN-0.41-0.26
 "ComN_WinCode" = G2666   $ IP Tech: NResWin-ComN-0.41-0.26
 "ComN_WinFrmFrac" = 0.17   $ IP Tech: NResWin-ComN-0.41-0.26
 "ComN_WinFrmU" = 0.3   $ IP Tech: NResWin-ComN-0.41-0.26
 "ComO_SHGC" = 0.26   $ IP Tech: NResWin-ComO-0.41-0.26
 "ComO_UFactor" = 0.41   $ IP Tech: NResWin-ComO-0.41-0.26
 "ComO_VisTrans" = 0.41   $ IP Tech: NResWin-ComO-0.41-0.26
 "ComO_WinCode" = G2666   $ IP Tech: NResWin-ComO-0.41-0.26
 "ComO_WinFrmFrac" = 0.17   $ IP Tech: NResWin-ComO-0.41-0.26
 "ComO_WinFrmU" = 0.3   $ IP Tech: NResWin-ComO-0.41-0.26
 "LtgMsrApplic" = ALL   $ IP Tech: NonResLtgRefPre
 "LtgSav_CFL" = 0   $ IP Tech: NonResLtgRefPre
 "LtgSav_EX" = 0   $ IP Tech: NonResLtgRefPre
 "LtgSav_HB" = 0   $ IP Tech: NonResLtgRefPre
 "LtgSav_LF" = 0   $ IP Tech: NonResLtgRefPre
 "LtgSav_SP" = 0   $ IP Tech: NonResLtgRefPre
 "CEIR_fPLR" = PSZ65to135_CEIR_fPLR   $ IP Tech: PkgAC2SpP-65to135-E11
 "CLoss_fPLR" = PSZ65to135_CLoss_fPLR   $ IP Tech: PkgAC2SpP-65to135-E11
 "COP" = -1   $ IP Tech: PkgAC2SpP-65to135-E11
 "HtgFuel" = Gas   $ IP Tech: PkgAC2SpP-65to135-E11
 "IEER" = 13.35   $ IP Tech: PkgAC2SpP-65to135-E11
 "NominalCap" = 15   $ IP Tech: PkgAC2SpP-65to135-E11
 "RatedEER" = 11   $ IP Tech: PkgAC2SpP-65to135-E11
 "RatedSupMtrClass" = Premium   $ IP Tech: PkgAC2SpP-65to135-E11
 "SizeRange" = 65to135   $ IP Tech: PkgAC2SpP-65to135-E11
 "SupMotEff" = 0.865   $ IP Tech: PkgAC2SpP-65to135-E11
 "Tier" = 0   $ IP Tech: PkgAC2SpP-65to135-E11
 "FanPwrMult" = 1   $ IP Tech: PkgFurn-0.80AFUE
 "FurnAFUE" = 0.8   $ IP Tech: PkgFurn-0.80AFUE
 "FurnEt" = 0.82   $ IP Tech: PkgFurn-0.80AFUE
 "FurnaceAuxKW" = 0.1   $ IP Tech: PkgFurn-0.80AFUE
 "HIR_fPLR" = Furnace-HIR-fPLR   $ IP Tech: PkgFurn-0.80AFUE
 "VSM" = FALSE   $ IP Tech: PkgFurn-0.80AFUE
 "BFMult" = 1   $ IP Tech: RefgChg-NRes-Std
 "CoolEirMult" = 1   $ IP Tech: RefgChg-NRes-Std
 "SensCoolCapMult" = 1   $ IP Tech: RefgChg-NRes-Std
 "TotCoolCapMult" = 1   $ IP Tech: RefgChg-NRes-Std
 "AltAdjFactor" = 1.012438   $ Sizing
 "CAssFlo_L_Break_CZn" = 572.3322   $ Sizing
 "CAssFlo_L_Conf_CZn" = 558.4905   $ Sizing
 "CAssFlo_L_CopyRm_CZn" = 170.704   $ Sizing
 "CAssFlo_L_Cordr_CZn" = 673.8925   $ Sizing
 "CAssFlo_L_Cordr_EZn" = 237.4206   $ Sizing
 "CAssFlo_L_Cordr_NZn" = 170.7803   $ Sizing
 "CAssFlo_L_Cordr_SZn" = 238.9849   $ Sizing
 "CAssFlo_L_Cordr_WZn" = 268.8784   $ Sizing
 "CAssFlo_L_LobWait_CZn" = 530.7368   $ Sizing
 "CAssFlo_L_MechElec_CZn" = 120.9382   $ Sizing
 "CAssFlo_L_OfficeOpn_CZn" = 1819.113   $ Sizing
 "CAssFlo_L_OfficeOpn_EZn" = 1615.799   $ Sizing
 "CAssFlo_L_OfficeOpn_NZn" = 1209.439   $ Sizing
 "CAssFlo_L_OfficeOpn_SZn" = 1633.027   $ Sizing
 "CAssFlo_L_OfficeOpn_WZn" = 1872.912   $ Sizing
 "CAssFlo_L_OfficeSm_CZn" = 232.417   $ Sizing
 "CAssFlo_L_OfficeSm_EZn" = 1155.981   $ Sizing
 "CAssFlo_L_OfficeSm_NZn" = 795.4438   $ Sizing
 "CAssFlo_L_OfficeSm_SZn" = 1158.628   $ Sizing
 "CAssFlo_L_OfficeSm_WZn" = 1320.272   $ Sizing
 "CAssFlo_L_Restrm_CZn" = 98.17812   $ Sizing
 "CAssFlo_L_StorSm_CZn" = 385.0786   $ Sizing
 "CAssFlo_M_Break_CZn" = 576.4848   $ Sizing
 "CAssFlo_M_Conf_CZn" = 556.1434   $ Sizing
 "CAssFlo_M_CopyRm_CZn" = 162.6923   $ Sizing
 "CAssFlo_M_Cordr_CZn" = 902.3639   $ Sizing
 "CAssFlo_M_Cordr_EZn" = 270.6144   $ Sizing
 "CAssFlo_M_Cordr_NZn" = 184.0897   $ Sizing
 "CAssFlo_M_Cordr_SZn" = 258.9515   $ Sizing
 "CAssFlo_M_Cordr_WZn" = 280.8572   $ Sizing
 "CAssFlo_M_LobWait_CZn" = 551.366   $ Sizing
 "CAssFlo_M_MechElec_CZn" = 149.6327   $ Sizing
 "CAssFlo_M_OfficeOpn_CZn" = 1852.656   $ Sizing
 "CAssFlo_M_OfficeOpn_EZn" = 1744.338   $ Sizing
 "CAssFlo_M_OfficeOpn_NZn" = 1260.078   $ Sizing
 "CAssFlo_M_OfficeOpn_SZn" = 1715.049   $ Sizing
 "CAssFlo_M_OfficeOpn_WZn" = 1915.048   $ Sizing
 "CAssFlo_M_OfficeSm_CZn" = 268.1551   $ Sizing
 "CAssFlo_M_OfficeSm_EZn" = 1230.377   $ Sizing
 "CAssFlo_M_OfficeSm_NZn" = 821.0975   $ Sizing
 "CAssFlo_M_OfficeSm_SZn" = 1206.066   $ Sizing
 "CAssFlo_M_OfficeSm_WZn" = 1337.413   $ Sizing
 "CAssFlo_M_Restrm_CZn" = 105.2929   $ Sizing
 "CAssFlo_M_StorSm_CZn" = 401.647   $ Sizing
 "CAssFlo_T_Break_CZn" = 568.7258   $ Sizing
 "CAssFlo_T_Conf_CZn" = 548.8651   $ Sizing
 "CAssFlo_T_CopyRm_CZn" = 162.4206   $ Sizing
 "CAssFlo_T_Cordr_CZn" = 833.5205   $ Sizing
 "CAssFlo_T_Cordr_EZn" = 262.4537   $ Sizing
 "CAssFlo_T_Cordr_NZn" = 185.7609   $ Sizing
 "CAssFlo_T_Cordr_SZn" = 254.1731   $ Sizing
 "CAssFlo_T_Cordr_WZn" = 279.0847   $ Sizing
 "CAssFlo_T_LobWait_CZn" = 551.8769   $ Sizing
 "CAssFlo_T_MechElec_CZn" = 168.4615   $ Sizing
 "CAssFlo_T_OfficeOpn_CZn" = 1852.873   $ Sizing
 "CAssFlo_T_OfficeOpn_EZn" = 1712.825   $ Sizing
 "CAssFlo_T_OfficeOpn_NZn" = 1270.99   $ Sizing
 "CAssFlo_T_OfficeOpn_SZn" = 1709.044   $ Sizing
 "CAssFlo_T_OfficeOpn_WZn" = 1894.202   $ Sizing
 "CAssFlo_T_OfficeSm_CZn" = 258.0437   $ Sizing
 "CAssFlo_T_OfficeSm_EZn" = 1240.603   $ Sizing
 "CAssFlo_T_OfficeSm_NZn" = 835.6161   $ Sizing
 "CAssFlo_T_OfficeSm_SZn" = 1215.97   $ Sizing
 "CAssFlo_T_OfficeSm_WZn" = 1348.068   $ Sizing
 "CAssFlo_T_Restrm_CZn" = 137.9752   $ Sizing
 "CAssFlo_T_StorSm_CZn" = 278.1356   $ Sizing
 "CHRtFlo_Sys_L_Break_C" = 572.3322   $ Sizing
 "CHRtFlo_Sys_L_Conf_C" = 558.4905   $ Sizing
 "CHRtFlo_Sys_L_CopyRm_C" = 170.704   $ Sizing
 "CHRtFlo_Sys_L_Cordr_C" = 673.8925   $ Sizing
 "CHRtFlo_Sys_L_Cordr_E" = 262.375   $ Sizing
 "CHRtFlo_Sys_L_Cordr_N" = 170.7803   $ Sizing
 "CHRtFlo_Sys_L_Cordr_S" = 242.0735   $ Sizing
 "CHRtFlo_Sys_L_Cordr_W" = 268.8784   $ Sizing
 "CHRtFlo_Sys_L_LobWait_C" = 530.7368   $ Sizing
 "CHRtFlo_Sys_L_MechElec_C" = 135.2844   $ Sizing
 "CHRtFlo_Sys_L_OfficeOpn_C" = 1819.113   $ Sizing
 "CHRtFlo_Sys_L_OfficeOpn_E" = 1816.984   $ Sizing
 "CHRtFlo_Sys_L_OfficeOpn_N" = 1209.439   $ Sizing
 "CHRtFlo_Sys_L_OfficeOpn_S" = 1727.936   $ Sizing
 "CHRtFlo_Sys_L_OfficeOpn_W" = 1872.912   $ Sizing
 "CHRtFlo_Sys_L_OfficeSm_C" = 261.2086   $ Sizing
 "CHRtFlo_Sys_L_OfficeSm_E" = 1327.889   $ Sizing
 "CHRtFlo_Sys_L_OfficeSm_N" = 795.4438   $ Sizing
 "CHRtFlo_Sys_L_OfficeSm_S" = 1271.457   $ Sizing
 "CHRtFlo_Sys_L_OfficeSm_W" = 1320.272   $ Sizing
 "CHRtFlo_Sys_L_Restrm_C" = 212.8927   $ Sizing
 "CHRtFlo_Sys_L_StorSm_C" = 425.1497   $ Sizing
 "CHRtFlo_Sys_M_Break_C" = 4611.878   $ Sizing
 "CHRtFlo_Sys_M_Conf_C" = 4449.147   $ Sizing
 "CHRtFlo_Sys_M_CopyRm_C" = 1301.538   $ Sizing
 "CHRtFlo_Sys_M_Cordr_C" = 8062.348   $ Sizing
 "CHRtFlo_Sys_M_Cordr_E" = 2451.592   $ Sizing
 "CHRtFlo_Sys_M_Cordr_N" = 1517.182   $ Sizing
 "CHRtFlo_Sys_M_Cordr_S" = 2169.105   $ Sizing
 "CHRtFlo_Sys_M_Cordr_W" = 2246.858   $ Sizing
 "CHRtFlo_Sys_M_LobWait_C" = 4410.928   $ Sizing
 "CHRtFlo_Sys_M_MechElec_C" = 1376.653   $ Sizing
 "CHRtFlo_Sys_M_OfficeOpn_C" = 16814.63   $ Sizing
 "CHRtFlo_Sys_M_OfficeOpn_E" = 15863.83   $ Sizing
 "CHRtFlo_Sys_M_OfficeOpn_N" = 10080.63   $ Sizing
 "CHRtFlo_Sys_M_OfficeOpn_S" = 14774.62   $ Sizing
 "CHRtFlo_Sys_M_OfficeOpn_W" = 15320.39   $ Sizing
 "CHRtFlo_Sys_M_OfficeSm_C" = 2606.793   $ Sizing
 "CHRtFlo_Sys_M_OfficeSm_E" = 11412.48   $ Sizing
 "CHRtFlo_Sys_M_OfficeSm_N" = 6568.78   $ Sizing
 "CHRtFlo_Sys_M_OfficeSm_S" = 10722.95   $ Sizing
 "CHRtFlo_Sys_M_OfficeSm_W" = 10855.72   $ Sizing
 "CHRtFlo_Sys_M_Restrm_C" = 1703.142   $ Sizing
 "CHRtFlo_Sys_M_StorSm_C" = 3566.574   $ Sizing
 "CHRtFlo_Sys_T_Break_C" = 568.7258   $ Sizing
 "CHRtFlo_Sys_T_Conf_C" = 548.8651   $ Sizing
 "CHRtFlo_Sys_T_CopyRm_C" = 162.4206   $ Sizing
 "CHRtFlo_Sys_T_Cordr_C" = 847.2847   $ Sizing
 "CHRtFlo_Sys_T_Cordr_E" = 270.4061   $ Sizing
 "CHRtFlo_Sys_T_Cordr_N" = 185.7609   $ Sizing
 "CHRtFlo_Sys_T_Cordr_S" = 254.1731   $ Sizing
 "CHRtFlo_Sys_T_Cordr_W" = 279.0847   $ Sizing
 "CHRtFlo_Sys_T_LobWait_C" = 551.8769   $ Sizing
 "CHRtFlo_Sys_T_MechElec_C" = 195.6989   $ Sizing
 "CHRtFlo_Sys_T_OfficeOpn_C" = 1852.873   $ Sizing
 "CHRtFlo_Sys_T_OfficeOpn_E" = 1805.505   $ Sizing
 "CHRtFlo_Sys_T_OfficeOpn_N" = 1270.99   $ Sizing
 "CHRtFlo_Sys_T_OfficeOpn_S" = 1730.992   $ Sizing
 "CHRtFlo_Sys_T_OfficeOpn_W" = 1894.202   $ Sizing
 "CHRtFlo_Sys_T_OfficeSm_C" = 287.5172   $ Sizing
 "CHRtFlo_Sys_T_OfficeSm_E" = 1336.049   $ Sizing
 "CHRtFlo_Sys_T_OfficeSm_N" = 835.6161   $ Sizing
 "CHRtFlo_Sys_T_OfficeSm_S" = 1280.901   $ Sizing
 "CHRtFlo_Sys_T_OfficeSm_W" = 1348.068   $ Sizing
 "CHRtFlo_Sys_T_Restrm_C" = 212.8927   $ Sizing
 "CHRtFlo_Sys_T_StorSm_C" = 335.7162   $ Sizing
 "CRtdFlo_Sys_L_Break_C" = 572.3322   $ Sizing
 "CRtdFlo_Sys_L_Conf_C" = 558.4905   $ Sizing
 "CRtdFlo_Sys_L_CopyRm_C" = 170.704   $ Sizing
 "CRtdFlo_Sys_L_Cordr_C" = 673.8925   $ Sizing
 "CRtdFlo_Sys_L_Cordr_E" = 237.4206   $ Sizing
 "CRtdFlo_Sys_L_Cordr_N" = 170.7803   $ Sizing
 "CRtdFlo_Sys_L_Cordr_S" = 238.9849   $ Sizing
 "CRtdFlo_Sys_L_Cordr_W" = 268.8784   $ Sizing
 "CRtdFlo_Sys_L_LobWait_C" = 530.7368   $ Sizing
 "CRtdFlo_Sys_L_MechElec_C" = 120.9382   $ Sizing
 "CRtdFlo_Sys_L_OfficeOpn_C" = 1819.113   $ Sizing
 "CRtdFlo_Sys_L_OfficeOpn_E" = 1615.799   $ Sizing
 "CRtdFlo_Sys_L_OfficeOpn_N" = 1209.439   $ Sizing
 "CRtdFlo_Sys_L_OfficeOpn_S" = 1633.027   $ Sizing
 "CRtdFlo_Sys_L_OfficeOpn_W" = 1872.912   $ Sizing
 "CRtdFlo_Sys_L_OfficeSm_C" = 232.417   $ Sizing
 "CRtdFlo_Sys_L_OfficeSm_E" = 1155.981   $ Sizing
 "CRtdFlo_Sys_L_OfficeSm_N" = 795.4438   $ Sizing
 "CRtdFlo_Sys_L_OfficeSm_S" = 1158.628   $ Sizing
 "CRtdFlo_Sys_L_OfficeSm_W" = 1319.737   $ Sizing
 "CRtdFlo_Sys_L_Restrm_C" = 98.17812   $ Sizing
 "CRtdFlo_Sys_L_StorSm_C" = 385.0786   $ Sizing
 "CRtdFlo_Sys_M_Break_C" = 4611.878   $ Sizing
 "CRtdFlo_Sys_M_Conf_C" = 4449.147   $ Sizing
 "CRtdFlo_Sys_M_CopyRm_C" = 1301.538   $ Sizing
 "CRtdFlo_Sys_M_Cordr_C" = 7218.911   $ Sizing
 "CRtdFlo_Sys_M_Cordr_E" = 2164.916   $ Sizing
 "CRtdFlo_Sys_M_Cordr_N" = 1472.718   $ Sizing
 "CRtdFlo_Sys_M_Cordr_S" = 2071.612   $ Sizing
 "CRtdFlo_Sys_M_Cordr_W" = 2246.858   $ Sizing
 "CRtdFlo_Sys_M_LobWait_C" = 4410.928   $ Sizing
 "CRtdFlo_Sys_M_MechElec_C" = 1197.062   $ Sizing
 "CRtdFlo_Sys_M_OfficeOpn_C" = 14821.25   $ Sizing
 "CRtdFlo_Sys_M_OfficeOpn_E" = 13954.7   $ Sizing
 "CRtdFlo_Sys_M_OfficeOpn_N" = 10080.63   $ Sizing
 "CRtdFlo_Sys_M_OfficeOpn_S" = 13720.39   $ Sizing
 "CRtdFlo_Sys_M_OfficeOpn_W" = 15320.39   $ Sizing
 "CRtdFlo_Sys_M_OfficeSm_C" = 2145.24   $ Sizing
 "CRtdFlo_Sys_M_OfficeSm_E" = 9843.017   $ Sizing
 "CRtdFlo_Sys_M_OfficeSm_N" = 6568.78   $ Sizing
 "CRtdFlo_Sys_M_OfficeSm_S" = 9648.531   $ Sizing
 "CRtdFlo_Sys_M_OfficeSm_W" = 10699.3   $ Sizing
 "CRtdFlo_Sys_M_Restrm_C" = 842.3434   $ Sizing
 "CRtdFlo_Sys_M_StorSm_C" = 3213.176   $ Sizing
 "CRtdFlo_Sys_T_Break_C" = 568.7258   $ Sizing
 "CRtdFlo_Sys_T_Conf_C" = 548.8651   $ Sizing
 "CRtdFlo_Sys_T_CopyRm_C" = 162.4206   $ Sizing
 "CRtdFlo_Sys_T_Cordr_C" = 833.5205   $ Sizing
 "CRtdFlo_Sys_T_Cordr_E" = 262.4537   $ Sizing
 "CRtdFlo_Sys_T_Cordr_N" = 185.7609   $ Sizing
 "CRtdFlo_Sys_T_Cordr_S" = 254.1731   $ Sizing
 "CRtdFlo_Sys_T_Cordr_W" = 279.0847   $ Sizing
 "CRtdFlo_Sys_T_LobWait_C" = 551.8769   $ Sizing
 "CRtdFlo_Sys_T_MechElec_C" = 168.4615   $ Sizing
 "CRtdFlo_Sys_T_OfficeOpn_C" = 1852.873   $ Sizing
 "CRtdFlo_Sys_T_OfficeOpn_E" = 1712.825   $ Sizing
 "CRtdFlo_Sys_T_OfficeOpn_N" = 1270.99   $ Sizing
 "CRtdFlo_Sys_T_OfficeOpn_S" = 1709.044   $ Sizing
 "CRtdFlo_Sys_T_OfficeOpn_W" = 1894.202   $ Sizing
 "CRtdFlo_Sys_T_OfficeSm_C" = 258.0437   $ Sizing
 "CRtdFlo_Sys_T_OfficeSm_E" = 1240.603   $ Sizing
 "CRtdFlo_Sys_T_OfficeSm_N" = 835.6161   $ Sizing
 "CRtdFlo_Sys_T_OfficeSm_S" = 1215.97   $ Sizing
 "CRtdFlo_Sys_T_OfficeSm_W" = 1348.068   $ Sizing
 "CRtdFlo_Sys_T_Restrm_C" = 137.9752   $ Sizing
 "CRtdFlo_Sys_T_StorSm_C" = 278.1356   $ Sizing
 "CSupFlo_Sys_L_Break_C" = 572.3322   $ Sizing
 "CSupFlo_Sys_L_Conf_C" = 558.4905   $ Sizing
 "CSupFlo_Sys_L_CopyRm_C" = 170.704   $ Sizing
 "CSupFlo_Sys_L_Cordr_C" = 673.8925   $ Sizing
 "CSupFlo_Sys_L_Cordr_E" = 237.4206   $ Sizing
 "CSupFlo_Sys_L_Cordr_N" = 170.7803   $ Sizing
 "CSupFlo_Sys_L_Cordr_S" = 238.9849   $ Sizing
 "CSupFlo_Sys_L_Cordr_W" = 268.8784   $ Sizing
 "CSupFlo_Sys_L_LobWait_C" = 530.7368   $ Sizing
 "CSupFlo_Sys_L_MechElec_C" = 120.9382   $ Sizing
 "CSupFlo_Sys_L_OfficeOpn_C" = 1819.113   $ Sizing
 "CSupFlo_Sys_L_OfficeOpn_E" = 1615.799   $ Sizing
 "CSupFlo_Sys_L_OfficeOpn_N" = 1209.439   $ Sizing
 "CSupFlo_Sys_L_OfficeOpn_S" = 1633.027   $ Sizing
 "CSupFlo_Sys_L_OfficeOpn_W" = 1872.912   $ Sizing
 "CSupFlo_Sys_L_OfficeSm_C" = 232.417   $ Sizing
 "CSupFlo_Sys_L_OfficeSm_E" = 1155.981   $ Sizing
 "CSupFlo_Sys_L_OfficeSm_N" = 795.4438   $ Sizing
 "CSupFlo_Sys_L_OfficeSm_S" = 1158.628   $ Sizing
 "CSupFlo_Sys_L_OfficeSm_W" = 1319.737   $ Sizing
 "CSupFlo_Sys_L_Restrm_C" = 98.17812   $ Sizing
 "CSupFlo_Sys_L_StorSm_C" = 385.0786   $ Sizing
 "CSupFlo_Sys_M_Break_C" = 4611.878   $ Sizing
 "CSupFlo_Sys_M_Conf_C" = 4449.147   $ Sizing
 "CSupFlo_Sys_M_CopyRm_C" = 1301.538   $ Sizing
 "CSupFlo_Sys_M_Cordr_C" = 7218.911   $ Sizing
 "CSupFlo_Sys_M_Cordr_E" = 2164.916   $ Sizing
 "CSupFlo_Sys_M_Cordr_N" = 1472.718   $ Sizing
 "CSupFlo_Sys_M_Cordr_S" = 2071.612   $ Sizing
 "CSupFlo_Sys_M_Cordr_W" = 2246.858   $ Sizing
 "CSupFlo_Sys_M_LobWait_C" = 4410.928   $ Sizing
 "CSupFlo_Sys_M_MechElec_C" = 1197.062   $ Sizing
 "CSupFlo_Sys_M_OfficeOpn_C" = 14821.25   $ Sizing
 "CSupFlo_Sys_M_OfficeOpn_E" = 13954.7   $ Sizing
 "CSupFlo_Sys_M_OfficeOpn_N" = 10080.63   $ Sizing
 "CSupFlo_Sys_M_OfficeOpn_S" = 13720.39   $ Sizing
 "CSupFlo_Sys_M_OfficeOpn_W" = 15320.39   $ Sizing
 "CSupFlo_Sys_M_OfficeSm_C" = 2145.24   $ Sizing
 "CSupFlo_Sys_M_OfficeSm_E" = 9843.017   $ Sizing
 "CSupFlo_Sys_M_OfficeSm_N" = 6568.78   $ Sizing
 "CSupFlo_Sys_M_OfficeSm_S" = 9648.531   $ Sizing
 "CSupFlo_Sys_M_OfficeSm_W" = 10699.3   $ Sizing
 "CSupFlo_Sys_M_Restrm_C" = 842.3434   $ Sizing
 "CSupFlo_Sys_M_StorSm_C" = 3213.176   $ Sizing
 "CSupFlo_Sys_T_Break_C" = 568.7258   $ Sizing
 "CSupFlo_Sys_T_Conf_C" = 548.8651   $ Sizing
 "CSupFlo_Sys_T_CopyRm_C" = 162.4206   $ Sizing
 "CSupFlo_Sys_T_Cordr_C" = 833.5205   $ Sizing
 "CSupFlo_Sys_T_Cordr_E" = 262.4537   $ Sizing
 "CSupFlo_Sys_T_Cordr_N" = 185.7609   $ Sizing
 "CSupFlo_Sys_T_Cordr_S" = 254.1731   $ Sizing
 "CSupFlo_Sys_T_Cordr_W" = 279.0847   $ Sizing
 "CSupFlo_Sys_T_LobWait_C" = 551.8769   $ Sizing
 "CSupFlo_Sys_T_MechElec_C" = 168.4615   $ Sizing
 "CSupFlo_Sys_T_OfficeOpn_C" = 1852.873   $ Sizing
 "CSupFlo_Sys_T_OfficeOpn_E" = 1712.825   $ Sizing
 "CSupFlo_Sys_T_OfficeOpn_N" = 1270.99   $ Sizing
 "CSupFlo_Sys_T_OfficeOpn_S" = 1709.044   $ Sizing
 "CSupFlo_Sys_T_OfficeOpn_W" = 1894.202   $ Sizing
 "CSupFlo_Sys_T_OfficeSm_C" = 258.0437   $ Sizing
 "CSupFlo_Sys_T_OfficeSm_E" = 1240.603   $ Sizing
 "CSupFlo_Sys_T_OfficeSm_N" = 835.6161   $ Sizing
 "CSupFlo_Sys_T_OfficeSm_S" = 1215.97   $ Sizing
 "CSupFlo_Sys_T_OfficeSm_W" = 1348.068   $ Sizing
 "CSupFlo_Sys_T_Restrm_C" = 137.9752   $ Sizing
 "CSupFlo_Sys_T_StorSm_C" = 278.1356   $ Sizing
 "ClCap_Sys_L_Break_C" = 19381.74   $ Sizing
 "ClCap_Sys_L_Conf_C" = 24071.1   $ Sizing
 "ClCap_Sys_L_CopyRm_C" = 5780.805   $ Sizing
 "ClCap_Sys_L_Cordr_C" = 22821.03   $ Sizing
 "ClCap_Sys_L_Cordr_E" = 8040.129   $ Sizing
 "ClCap_Sys_L_Cordr_N" = 5783.391   $ Sizing
 "ClCap_Sys_L_Cordr_S" = 8093.105   $ Sizing
 "ClCap_Sys_L_Cordr_W" = 9105.435   $ Sizing
 "ClCap_Sys_L_LobWait_C" = 17973.13   $ Sizing
 "ClCap_Sys_L_MechElec_C" = 4095.513   $ Sizing
 "ClCap_Sys_L_OfficeOpn_C" = 61603.34   $ Sizing
 "ClCap_Sys_L_OfficeOpn_E" = 54718.21   $ Sizing
 "ClCap_Sys_L_OfficeOpn_N" = 40957.07   $ Sizing
 "ClCap_Sys_L_OfficeOpn_S" = 55301.64   $ Sizing
 "ClCap_Sys_L_OfficeOpn_W" = 63425.25   $ Sizing
 "ClCap_Sys_L_OfficeSm_C" = 7870.687   $ Sizing
 "ClCap_Sys_L_OfficeSm_E" = 39146.73   $ Sizing
 "ClCap_Sys_L_OfficeSm_N" = 26937.31   $ Sizing
 "ClCap_Sys_L_OfficeSm_S" = 39236.36   $ Sizing
 "ClCap_Sys_L_OfficeSm_W" = 44692.23   $ Sizing
 "ClCap_Sys_L_Restrm_C" = 3324.753   $ Sizing
 "ClCap_Sys_L_StorSm_C" = 13040.49   $ Sizing
 "ClCap_Sys_M_Break_C" = 156179   $ Sizing
 "ClCap_Sys_M_Conf_C" = 191759.5   $ Sizing
 "ClCap_Sys_M_CopyRm_C" = 44075.95   $ Sizing
 "ClCap_Sys_M_Cordr_C" = 244464.8   $ Sizing
 "ClCap_Sys_M_Cordr_E" = 73313.79   $ Sizing
 "ClCap_Sys_M_Cordr_N" = 49872.85   $ Sizing
 "ClCap_Sys_M_Cordr_S" = 70154.11   $ Sizing
 "ClCap_Sys_M_Cordr_W" = 76088.73   $ Sizing
 "ClCap_Sys_M_LobWait_C" = 149373.9   $ Sizing
 "ClCap_Sys_M_MechElec_C" = 40537.91   $ Sizing
 "ClCap_Sys_M_OfficeOpn_C" = 501914.2   $ Sizing
 "ClCap_Sys_M_OfficeOpn_E" = 472569.1   $ Sizing
 "ClCap_Sys_M_OfficeOpn_N" = 341375.4   $ Sizing
 "ClCap_Sys_M_OfficeOpn_S" = 464634.2   $ Sizing
 "ClCap_Sys_M_OfficeOpn_W" = 518817.2   $ Sizing
 "ClCap_Sys_M_OfficeSm_C" = 72647.5   $ Sizing
 "ClCap_Sys_M_OfficeSm_E" = 333328.8   $ Sizing
 "ClCap_Sys_M_OfficeSm_N" = 222448.5   $ Sizing
 "ClCap_Sys_M_OfficeSm_S" = 326742.7   $ Sizing
 "ClCap_Sys_M_OfficeSm_W" = 362326.6   $ Sizing
 "ClCap_Sys_M_Restrm_C" = 28525.54   $ Sizing
 "ClCap_Sys_M_StorSm_C" = 108812.6   $ Sizing
 "ClCap_Sys_T_Break_C" = 19259.62   $ Sizing
 "ClCap_Sys_T_Conf_C" = 23656.24   $ Sizing
 "ClCap_Sys_T_CopyRm_C" = 5500.293   $ Sizing
 "ClCap_Sys_T_Cordr_C" = 28226.76   $ Sizing
 "ClCap_Sys_T_Cordr_E" = 8887.864   $ Sizing
 "ClCap_Sys_T_Cordr_N" = 6290.702   $ Sizing
 "ClCap_Sys_T_Cordr_S" = 8607.446   $ Sizing
 "ClCap_Sys_T_Cordr_W" = 9451.066   $ Sizing
 "ClCap_Sys_T_LobWait_C" = 18689.04   $ Sizing
 "ClCap_Sys_T_MechElec_C" = 5704.865   $ Sizing
 "ClCap_Sys_T_OfficeOpn_C" = 62746.63   $ Sizing
 "ClCap_Sys_T_OfficeOpn_E" = 58003.98   $ Sizing
 "ClCap_Sys_T_OfficeOpn_N" = 43041.46   $ Sizing
 "ClCap_Sys_T_OfficeOpn_S" = 57875.94   $ Sizing
 "ClCap_Sys_T_OfficeOpn_W" = 64146.21   $ Sizing
 "ClCap_Sys_T_OfficeSm_C" = 8738.521   $ Sizing
 "ClCap_Sys_T_OfficeSm_E" = 42012.39   $ Sizing
 "ClCap_Sys_T_OfficeSm_N" = 28297.72   $ Sizing
 "ClCap_Sys_T_OfficeSm_S" = 41178.21   $ Sizing
 "ClCap_Sys_T_OfficeSm_W" = 45651.65   $ Sizing
 "ClCap_Sys_T_Restrm_C" = 4672.46   $ Sizing
 "ClCap_Sys_T_StorSm_C" = 9418.922   $ Sizing
 "HtCap_Sys_L_Break_C" = -32941.54   $ Sizing
 "HtCap_Sys_L_Conf_C" = -33117.55   $ Sizing
 "HtCap_Sys_L_CopyRm_C" = -11405.98   $ Sizing
 "HtCap_Sys_L_Cordr_C" = -29959.82   $ Sizing
 "HtCap_Sys_L_Cordr_E" = -9424.794   $ Sizing
 "HtCap_Sys_L_Cordr_N" = -7074.821   $ Sizing
 "HtCap_Sys_L_Cordr_S" = -8760.521   $ Sizing
 "HtCap_Sys_L_Cordr_W" = -9723.563   $ Sizing
 "HtCap_Sys_L_LobWait_C" = -30602.1   $ Sizing
 "HtCap_Sys_L_MechElec_C" = -6279.74   $ Sizing
 "HtCap_Sys_L_OfficeOpn_C" = -74612.95   $ Sizing
 "HtCap_Sys_L_OfficeOpn_E" = -62741.5   $ Sizing
 "HtCap_Sys_L_OfficeOpn_N" = -46426.59   $ Sizing
 "HtCap_Sys_L_OfficeOpn_S" = -59231.48   $ Sizing
 "HtCap_Sys_L_OfficeOpn_W" = -64565.54   $ Sizing
 "HtCap_Sys_L_OfficeSm_C" = -10352.78   $ Sizing
 "HtCap_Sys_L_OfficeSm_E" = -44261.71   $ Sizing
 "HtCap_Sys_L_OfficeSm_N" = -30330.76   $ Sizing
 "HtCap_Sys_L_OfficeSm_S" = -43393.38   $ Sizing
 "HtCap_Sys_L_OfficeSm_W" = -45169.79   $ Sizing
 "HtCap_Sys_L_Restrm_C" = -7795.029   $ Sizing
 "HtCap_Sys_L_StorSm_C" = -18609.98   $ Sizing
 "HtCap_Sys_M_Break_C" = -249053   $ Sizing
 "HtCap_Sys_M_Conf_C" = -244364.5   $ Sizing
 "HtCap_Sys_M_CopyRm_C" = -75735.4   $ Sizing
 "HtCap_Sys_M_Cordr_C" = -315424.7   $ Sizing
 "HtCap_Sys_M_Cordr_E" = -85359.11   $ Sizing
 "HtCap_Sys_M_Cordr_N" = -58332.78   $ Sizing
 "HtCap_Sys_M_Cordr_S" = -76487.06   $ Sizing
 "HtCap_Sys_M_Cordr_W" = -79959.36   $ Sizing
 "HtCap_Sys_M_LobWait_C" = -217974.9   $ Sizing
 "HtCap_Sys_M_MechElec_C" = -58513.67   $ Sizing
 "HtCap_Sys_M_OfficeOpn_C" = -643467   $ Sizing
 "HtCap_Sys_M_OfficeOpn_E" = -538864.8   $ Sizing
 "HtCap_Sys_M_OfficeOpn_N" = -379295.5   $ Sizing
 "HtCap_Sys_M_OfficeOpn_S" = -500749.8   $ Sizing
 "HtCap_Sys_M_OfficeOpn_W" = -524603   $ Sizing
 "HtCap_Sys_M_OfficeSm_C" = -97841.28   $ Sizing
 "HtCap_Sys_M_OfficeSm_E" = -378979.1   $ Sizing
 "HtCap_Sys_M_OfficeSm_N" = -246206.5   $ Sizing
 "HtCap_Sys_M_OfficeSm_S" = -361635.4   $ Sizing
 "HtCap_Sys_M_OfficeSm_W" = -368714.3   $ Sizing
 "HtCap_Sys_M_Restrm_C" = -67326.45   $ Sizing
 "HtCap_Sys_M_StorSm_C" = -149441.7   $ Sizing
 "HtCap_Sys_T_Break_C" = -33126.8   $ Sizing
 "HtCap_Sys_T_Conf_C" = -32375.28   $ Sizing
 "HtCap_Sys_T_CopyRm_C" = -10561.83   $ Sizing
 "HtCap_Sys_T_Cordr_C" = -37885.6   $ Sizing
 "HtCap_Sys_T_Cordr_E" = -10599.56   $ Sizing
 "HtCap_Sys_T_Cordr_N" = -8121.584   $ Sizing
 "HtCap_Sys_T_Cordr_S" = -10138.67   $ Sizing
 "HtCap_Sys_T_Cordr_W" = -11122.04   $ Sizing
 "HtCap_Sys_T_LobWait_C" = -30286.15   $ Sizing
 "HtCap_Sys_T_MechElec_C" = -7979.995   $ Sizing
 "HtCap_Sys_T_OfficeOpn_C" = -80982.76   $ Sizing
 "HtCap_Sys_T_OfficeOpn_E" = -67699.75   $ Sizing
 "HtCap_Sys_T_OfficeOpn_N" = -53326.84   $ Sizing
 "HtCap_Sys_T_OfficeOpn_S" = -66133.43   $ Sizing
 "HtCap_Sys_T_OfficeOpn_W" = -71480.19   $ Sizing
 "HtCap_Sys_T_OfficeSm_C" = -12034.09   $ Sizing
 "HtCap_Sys_T_OfficeSm_E" = -48418.33   $ Sizing
 "HtCap_Sys_T_OfficeSm_N" = -34633.04   $ Sizing
 "HtCap_Sys_T_OfficeSm_S" = -47991.77   $ Sizing
 "HtCap_Sys_T_OfficeSm_W" = -50387   $ Sizing
 "HtCap_Sys_T_Restrm_C" = -8409.375   $ Sizing
 "HtCap_Sys_T_StorSm_C" = -17075.64   $ Sizing
..

##include Templates\OfL_DX_SZ.inp
END ..
COMPUTE ..
STOP ..
