INPUT ..

##fileprefix C:\Users\jglasskatz\MASControl3\
##set1 IsSizing FALSE
##set1 CoolType DX
##set1 HeatType FURNACE
##set1 EU_HrRepVar 1
##set1 BldgVint 2003
##set1 BldgLoc CZ01

 ##set1 mBFMult 1   $ IP Tech: RefgChg-NRes-Std

PARAMETER
 "AltFactor" = 1.00753   $ IP Non-Tech
 "BldgEconoFlag" = 1   $ IP Non-Tech
 "Break_EWSF" = 1   $ IP Non-Tech
 "Break_LWSF" = 1.1   $ IP Non-Tech
 "CDD_DBHi10" = 65   $ IP Non-Tech
 "CDD_DBHi7" = 68   $ IP Non-Tech
 "CDD_DBHi8" = 66   $ IP Non-Tech
 "CDD_DBHi9" = 77   $ IP Non-Tech
 "CDD_DBRange10" = 17   $ IP Non-Tech
 "CDD_DBRange7" = 11   $ IP Non-Tech
 "CDD_DBRange8" = 10   $ IP Non-Tech
 "CDD_DBRange9" = 29   $ IP Non-Tech
 "CDD_Day10" = 15   $ IP Non-Tech
 "CDD_Day7" = 16   $ IP Non-Tech
 "CDD_Day8" = 20   $ IP Non-Tech
 "CDD_Day9" = 17   $ IP Non-Tech
 "CDD_HrHi10" = 12   $ IP Non-Tech
 "CDD_HrHi7" = 12   $ IP Non-Tech
 "CDD_HrHi8" = 13   $ IP Non-Tech
 "CDD_HrHi9" = 17   $ IP Non-Tech
 "CDD_HrLo10" = 6   $ IP Non-Tech
 "CDD_HrLo7" = 3   $ IP Non-Tech
 "CDD_HrLo8" = 8   $ IP Non-Tech
 "CDD_HrLo9" = 4   $ IP Non-Tech
 "CDD_WB10" = 57.53039551   $ IP Non-Tech
 "CDD_WB7" = 59.29250717   $ IP Non-Tech
 "CDD_WB8" = 60.75350189   $ IP Non-Tech
 "CDD_WB9" = 61.08643341   $ IP Non-Tech
 "CZ_Category" = Tem   $ IP Non-Tech
 "ChwVintEconoFlag" = 1   $ IP Non-Tech
 "Conference_EWSF" = 1   $ IP Non-Tech
 "Conference_LWSF" = 1.4   $ IP Non-Tech
 "CoolSetT" = 45   $ IP Non-Tech
 "CoolType" = DX   $ IP Non-Tech
 "CopyRoom_EWSF" = 1.5   $ IP Non-Tech
 "CopyRoom_LWSF" = 1.3   $ IP Non-Tech
 "CorridorStairway_EWSF" = 0.2   $ IP Non-Tech
 "CorridorStairway_LWSF" = 0.6   $ IP Non-Tech
 "DesCoolT" = 75   $ IP Non-Tech
 "DesHeatT" = 73   $ IP Non-Tech
 "EconoEnthLimit" = 28   $ IP Non-Tech
 "EconoTempLimit" = 70   $ IP Non-Tech
 "Elevation" = 203   $ IP Non-Tech
 "HDD_CloudAmt1" = 0   $ IP Non-Tech
 "HDD_DBHi1" = 53   $ IP Non-Tech
 "HDD_DBRange1" = 20   $ IP Non-Tech
 "HDD_Day1" = 15   $ IP Non-Tech
 "HDD_HrHi1" = 14   $ IP Non-Tech
 "HDD_HrLo1" = 6   $ IP Non-Tech
 "HDD_WB1" = 42.3   $ IP Non-Tech
 "HDD_WindSpd1" = 12.7   $ IP Non-Tech
 "HeatSrc" = FURNACE   $ IP Non-Tech
 "HeatSrcTU" = HEAT-PUMP   $ IP Non-Tech
 "HeatType" = GasFurn   $ IP Non-Tech
 "HeatTypeTU" = HEAT-PUMP   $ IP Non-Tech
 "IndoorFanMode" = CONTINUOUS   $ IP Non-Tech
 "KT_TransferAir" = No   $ IP Non-Tech
 "Latitude" = 40.8   $ IP Non-Tech
 "LobbyWaiting_EWSF" = 0.5   $ IP Non-Tech
 "LobbyWaiting_LWSF" = 1.3   $ IP Non-Tech
 "Longitude" = 124.2   $ IP Non-Tech
 "LtgMsrApplic" = ALL   $ Msr TechID: NonResLtgRefMsr-EX
 "LtgSav_CFL" = 0   $ Msr TechID: NonResLtgRefMsr-EX
 "LtgSav_EX" = 0.3   $ Msr TechID: NonResLtgRefMsr-EX
 "LtgSav_HB" = 0   $ Msr TechID: NonResLtgRefMsr-EX
 "LtgSav_LF" = 0   $ Msr TechID: NonResLtgRefMsr-EX
 "LtgSav_SP" = 0   $ Msr TechID: NonResLtgRefMsr-EX
 "MZFanMechEff" = 0.58   $ IP Non-Tech
 "MZHasRetFan" = FALSE   $ IP Non-Tech
 "MZ_RFanWPerCfm" = 0.37   $ IP Non-Tech
 "MZ_SFanWPerCfm" = 0.71   $ IP Non-Tech
 "MZ_SupFanStatic" = 2.25   $ IP Non-Tech
 "MaxSupT_MZ" = 100   $ IP Non-Tech
 "MaxSupT_SZ" = 100   $ IP Non-Tech
 "MaxSupT_TU" = 90   $ IP Non-Tech
 "MechElecRoom_EWSF" = 0.2   $ IP Non-Tech
 "MechElecRoom_LWSF" = 0.7   $ IP Non-Tech
 "MinCfmPerSF" = 0.4   $ IP Non-Tech
 "MinSupT" = 55   $ IP Non-Tech
 "OccCoolT" = 76   $ IP Non-Tech
 "OccHeatT" = 72   $ IP Non-Tech
 "OfficeOpen_EWSF" = 1.5   $ IP Non-Tech
 "OfficeOpen_LWSF" = 1.2   $ IP Non-Tech
 "OfficeSmall_EWSF" = 1.5   $ IP Non-Tech
 "OfficeSmall_LWSF" = 1.3   $ IP Non-Tech
 "PkgDxVintEconoFlag" = 0   $ IP Non-Tech
 "Restroom_EWSF" = 0.2   $ IP Non-Tech
 "Restroom_LWSF" = 0.6   $ IP Non-Tech
 "SZFanMechEff" = 0.58   $ IP Non-Tech
 "SZHasRetFan" = FALSE   $ IP Non-Tech
 "SZ_Is_2Spd" = FALSE   $ IP Non-Tech
 "SZ_SFanWPerCfm" = 0.46   $ IP Non-Tech
 "SZ_SupFanStatic" = 0.75   $ IP Non-Tech
 "StorageSmlCond_EWSF" = 0.2   $ IP Non-Tech
 "StorageSmlCond_LWSF" = 0.6   $ IP Non-Tech
 "T24GlzTbl" = CZTbl   $ IP Non-Tech
 "TermUnitFanMechEff" = 1   $ IP Non-Tech
 "TermUnitFanMode" = INTERMITTENT   $ IP Non-Tech
 "TwrSetpt" = 80   $ IP Non-Tech
 "UnocCoolT" = 86   $ IP Non-Tech
 "UnocHeatT" = 62   $ IP Non-Tech
 "WlhpVintEconoFlag" = 0   $ IP Non-Tech
 "EconoCtrl" = OA-TEMP   $ IP Tech: AirEcono-OATemp
 "MaxOAFrac" = 0.85   $ IP Tech: AirEcono-OATemp
 "UseEconoVintApplic" = FALSE   $ IP Tech: AirEcono-OATemp
 "DuctDT" = 1   $ IP Tech: ComDuctInsul-1
 "DuctAirLoss" = 0   $ IP Tech: ComDuctLeak-0
 "DuctLossOAFrac" = 0   $ IP Tech: ComDuctLeak-0
 "ComRoofInsCalc" = FromUo   $ IP Tech: ComRoofIns-Hvy-0.06
 "ComRoofInsR" = -999   $ IP Tech: ComRoofIns-Hvy-0.06
 "ComRoofUo" = 0.06   $ IP Tech: ComRoofIns-Hvy-0.06
 "ComEWInsCalc" = FromUo   $ IP Tech: ComWallIns-MFrm-0.13
 "ComEWInsR" = -999   $ IP Tech: ComWallIns-MFrm-0.13
 "ComEWUo" = 0.13   $ IP Tech: ComWallIns-MFrm-0.13
 "ComN_SHGC" = 0.47   $ IP Tech: NResWin-ComN-0.47-0.47
 "ComN_UFactor" = 0.47   $ IP Tech: NResWin-ComN-0.47-0.47
 "ComN_VisTrans" = 0.75   $ IP Tech: NResWin-ComN-0.47-0.47
 "ComN_WinCode" = G2633   $ IP Tech: NResWin-ComN-0.47-0.47
 "ComN_WinFrmFrac" = 0.17   $ IP Tech: NResWin-ComN-0.47-0.47
 "ComN_WinFrmU" = 0.3   $ IP Tech: NResWin-ComN-0.47-0.47
 "ComO_SHGC" = 0.43   $ IP Tech: NResWin-ComO-0.47-0.43
 "ComO_UFactor" = 0.47   $ IP Tech: NResWin-ComO-0.47-0.43
 "ComO_VisTrans" = 0.68   $ IP Tech: NResWin-ComO-0.47-0.43
 "ComO_WinCode" = G2663   $ IP Tech: NResWin-ComO-0.47-0.43
 "ComO_WinFrmFrac" = 0.17   $ IP Tech: NResWin-ComO-0.47-0.43
 "ComO_WinFrmU" = 0.3   $ IP Tech: NResWin-ComO-0.47-0.43
 "BF_fFlow" = PSZ65to135_BF_fFlow   $ IP Tech: PkgAC1SpH-65to135-E10
 "BF_fT" = PSZ65to135_BF_fT   $ IP Tech: PkgAC1SpH-65to135-E10
 "CEIR_fPLR" = PSZ65to135_CEIR_fPLR   $ IP Tech: PkgAC1SpH-65to135-E10
 "CLoss_fPLR" = PSZ65to135_CLoss_fPLR   $ IP Tech: PkgAC1SpH-65to135-E10
 "COP" = -1   $ IP Tech: PkgAC1SpH-65to135-E10
 "COP47" = -1   $ IP Tech: PkgAC1SpH-65to135-E10
 "CfmPerBtuh" = 0.02917   $ IP Tech: PkgAC1SpH-65to135-E10
 "ClCap_fT" = PSZ65to135_ClCap_fT   $ IP Tech: PkgAC1SpH-65to135-E10
 "ClSH_fT" = PSZ65to135_ClSH_fT   $ IP Tech: PkgAC1SpH-65to135-E10
 "CoilBF" = 0.114   $ IP Tech: PkgAC1SpH-65to135-E10
 "CondWPerBtuh" = 0   $ IP Tech: PkgAC1SpH-65to135-E10
 "CoolSensCap" = 0.663   $ IP Tech: PkgAC1SpH-65to135-E10
 "CoolingEIR" = 0.29745   $ IP Tech: PkgAC1SpH-65to135-E10
 "CrnkEIR" = 0.01   $ IP Tech: PkgAC1SpH-65to135-E10
 "CrnkMaxT" = 50   $ IP Tech: PkgAC1SpH-65to135-E10
 "DXType" = Pkg   $ IP Tech: PkgAC1SpH-65to135-E10
 "EER" = 9.67   $ IP Tech: PkgAC1SpH-65to135-E10
 "EIR_fT" = PSZ65to135_EIR_fT   $ IP Tech: PkgAC1SpH-65to135-E10
 "FanEirPlr" = TwoSpeedFan   $ IP Tech: PkgAC1SpH-65to135-E10
 "FanWPerCfm" = 0.412   $ IP Tech: PkgAC1SpH-65to135-E10
 "HIR_fT" = DEFAULT   $ IP Tech: PkgAC1SpH-65to135-E10
 "HtCap_fT" = DEFAULT   $ IP Tech: PkgAC1SpH-65to135-E10
 "HtCoolCapRatio" = -1   $ IP Tech: PkgAC1SpH-65to135-E10
 "HtgEIR" = -1   $ IP Tech: PkgAC1SpH-65to135-E10
 "HtgFuel" = Gas   $ IP Tech: PkgAC1SpH-65to135-E10
 "IEER" = 11.87   $ IP Tech: PkgAC1SpH-65to135-E10
 "LowSpdCapRatio" = 0.5   $ IP Tech: PkgAC1SpH-65to135-E10
 "LowSpdCfmRatio" = 0.66   $ IP Tech: PkgAC1SpH-65to135-E10
 "NominalCap" = 15   $ IP Tech: PkgAC1SpH-65to135-E10
 "NumStages" = 1   $ IP Tech: PkgAC1SpH-65to135-E10
 "RatedEER" = 10   $ IP Tech: PkgAC1SpH-65to135-E10
 "RatedSupMtrClass" = HiEff   $ IP Tech: PkgAC1SpH-65to135-E10
 "SizeRange" = 65to135   $ IP Tech: PkgAC1SpH-65to135-E10
 "SubType" = AC   $ IP Tech: PkgAC1SpH-65to135-E10
 "SupMotEff" = 0.84   $ IP Tech: PkgAC1SpH-65to135-E10
 "Tier" = 0   $ IP Tech: PkgAC1SpH-65to135-E10
 "TotCoolCap" = 184140   $ IP Tech: PkgAC1SpH-65to135-E10
 "FanPwrMult" = 1   $ IP Tech: PkgFurn-0.80AFUE
 "FurnAFUE" = 0.8   $ IP Tech: PkgFurn-0.80AFUE
 "FurnEt" = 0.82   $ IP Tech: PkgFurn-0.80AFUE
 "FurnaceAuxKW" = 0.1   $ IP Tech: PkgFurn-0.80AFUE
 "HIR_fPLR" = Furnace-HIR-fPLR   $ IP Tech: PkgFurn-0.80AFUE
 "VSM" = FALSE   $ IP Tech: PkgFurn-0.80AFUE
 "BFMult" = 1   $ IP Tech: RefgChg-NRes-Std
 "CoolEirMult" = 1   $ IP Tech: RefgChg-NRes-Std
 "SensCoolCapMult" = 1   $ IP Tech: RefgChg-NRes-Std
 "TotCoolCapMult" = 1   $ IP Tech: RefgChg-NRes-Std
 "AltAdjFactor" = 1.007532   $ Sizing
 "CAssFlo_L_Break_CZn" = 362.8459   $ Sizing
 "CAssFlo_L_Conf_CZn" = 419.3146   $ Sizing
 "CAssFlo_L_CopyRm_CZn" = 105.5948   $ Sizing
 "CAssFlo_L_Cordr_CZn" = 565.4379   $ Sizing
 "CAssFlo_L_Cordr_EZn" = 187.8325   $ Sizing
 "CAssFlo_L_Cordr_NZn" = 94.24052   $ Sizing
 "CAssFlo_L_Cordr_SZn" = 199.83   $ Sizing
 "CAssFlo_L_Cordr_WZn" = 179.779   $ Sizing
 "CAssFlo_L_LobWait_CZn" = 348.1873   $ Sizing
 "CAssFlo_L_MechElec_CZn" = 134.1697   $ Sizing
 "CAssFlo_L_OfficeOpn_CZn" = 1656.011   $ Sizing
 "CAssFlo_L_OfficeOpn_EZn" = 1622.784   $ Sizing
 "CAssFlo_L_OfficeOpn_NZn" = 781.5438   $ Sizing
 "CAssFlo_L_OfficeOpn_SZn" = 1657.484   $ Sizing
 "CAssFlo_L_OfficeOpn_WZn" = 1562.222   $ Sizing
 "CAssFlo_L_OfficeSm_CZn" = 207.4905   $ Sizing
 "CAssFlo_L_OfficeSm_EZn" = 1138.21   $ Sizing
 "CAssFlo_L_OfficeSm_NZn" = 463.9563   $ Sizing
 "CAssFlo_L_OfficeSm_SZn" = 1191.926   $ Sizing
 "CAssFlo_L_OfficeSm_WZn" = 1084.637   $ Sizing
 "CAssFlo_L_Restrm_CZn" = 211.8611   $ Sizing
 "CAssFlo_L_StorSm_CZn" = 334.3917   $ Sizing
 "CAssFlo_M_Break_CZn" = 401.1939   $ Sizing
 "CAssFlo_M_Conf_CZn" = 467.1967   $ Sizing
 "CAssFlo_M_CopyRm_CZn" = 131.9577   $ Sizing
 "CAssFlo_M_Cordr_CZn" = 740.9033   $ Sizing
 "CAssFlo_M_Cordr_EZn" = 244.5391   $ Sizing
 "CAssFlo_M_Cordr_NZn" = 97.47026   $ Sizing
 "CAssFlo_M_Cordr_SZn" = 247.9012   $ Sizing
 "CAssFlo_M_Cordr_WZn" = 215.9971   $ Sizing
 "CAssFlo_M_LobWait_CZn" = 448.7938   $ Sizing
 "CAssFlo_M_MechElec_CZn" = 138.48   $ Sizing
 "CAssFlo_M_OfficeOpn_CZn" = 1941.203   $ Sizing
 "CAssFlo_M_OfficeOpn_EZn" = 1814.75   $ Sizing
 "CAssFlo_M_OfficeOpn_NZn" = 936.1826   $ Sizing
 "CAssFlo_M_OfficeOpn_SZn" = 1859.635   $ Sizing
 "CAssFlo_M_OfficeOpn_WZn" = 1680.88   $ Sizing
 "CAssFlo_M_OfficeSm_CZn" = 266.3737   $ Sizing
 "CAssFlo_M_OfficeSm_EZn" = 1264.981   $ Sizing
 "CAssFlo_M_OfficeSm_NZn" = 559.2401   $ Sizing
 "CAssFlo_M_OfficeSm_SZn" = 1328.116   $ Sizing
 "CAssFlo_M_OfficeSm_WZn" = 1170.966   $ Sizing
 "CAssFlo_M_Restrm_CZn" = 211.8611   $ Sizing
 "CAssFlo_M_StorSm_CZn" = 359.2128   $ Sizing
 "CAssFlo_T_Break_CZn" = 375.5158   $ Sizing
 "CAssFlo_T_Conf_CZn" = 447.0234   $ Sizing
 "CAssFlo_T_CopyRm_CZn" = 124.9753   $ Sizing
 "CAssFlo_T_Cordr_CZn" = 657.0974   $ Sizing
 "CAssFlo_T_Cordr_EZn" = 217.5871   $ Sizing
 "CAssFlo_T_Cordr_NZn" = 94.24052   $ Sizing
 "CAssFlo_T_Cordr_SZn" = 224.977   $ Sizing
 "CAssFlo_T_Cordr_WZn" = 194.7792   $ Sizing
 "CAssFlo_T_LobWait_CZn" = 415.6283   $ Sizing
 "CAssFlo_T_MechElec_CZn" = 145.9567   $ Sizing
 "CAssFlo_T_OfficeOpn_CZn" = 1814.528   $ Sizing
 "CAssFlo_T_OfficeOpn_EZn" = 1647.33   $ Sizing
 "CAssFlo_T_OfficeOpn_NZn" = 864.1763   $ Sizing
 "CAssFlo_T_OfficeOpn_SZn" = 1731.44   $ Sizing
 "CAssFlo_T_OfficeOpn_WZn" = 1541.076   $ Sizing
 "CAssFlo_T_OfficeSm_CZn" = 252.3872   $ Sizing
 "CAssFlo_T_OfficeSm_EZn" = 1183.137   $ Sizing
 "CAssFlo_T_OfficeSm_NZn" = 536.2774   $ Sizing
 "CAssFlo_T_OfficeSm_SZn" = 1265.184   $ Sizing
 "CAssFlo_T_OfficeSm_WZn" = 1102.953   $ Sizing
 "CAssFlo_T_Restrm_CZn" = 211.8611   $ Sizing
 "CAssFlo_T_StorSm_CZn" = 334.0894   $ Sizing
 "CHRtFlo_Sys_L_Break_C" = 362.8459   $ Sizing
 "CHRtFlo_Sys_L_Conf_C" = 419.3146   $ Sizing
 "CHRtFlo_Sys_L_CopyRm_C" = 105.5948   $ Sizing
 "CHRtFlo_Sys_L_Cordr_C" = 565.4379   $ Sizing
 "CHRtFlo_Sys_L_Cordr_E" = 187.8325   $ Sizing
 "CHRtFlo_Sys_L_Cordr_N" = 94.24052   $ Sizing
 "CHRtFlo_Sys_L_Cordr_S" = 199.83   $ Sizing
 "CHRtFlo_Sys_L_Cordr_W" = 179.779   $ Sizing
 "CHRtFlo_Sys_L_LobWait_C" = 348.1873   $ Sizing
 "CHRtFlo_Sys_L_MechElec_C" = 134.1697   $ Sizing
 "CHRtFlo_Sys_L_OfficeOpn_C" = 1656.011   $ Sizing
 "CHRtFlo_Sys_L_OfficeOpn_E" = 1622.784   $ Sizing
 "CHRtFlo_Sys_L_OfficeOpn_N" = 781.5438   $ Sizing
 "CHRtFlo_Sys_L_OfficeOpn_S" = 1657.484   $ Sizing
 "CHRtFlo_Sys_L_OfficeOpn_W" = 1562.222   $ Sizing
 "CHRtFlo_Sys_L_OfficeSm_C" = 207.4905   $ Sizing
 "CHRtFlo_Sys_L_OfficeSm_E" = 1138.21   $ Sizing
 "CHRtFlo_Sys_L_OfficeSm_N" = 463.9563   $ Sizing
 "CHRtFlo_Sys_L_OfficeSm_S" = 1191.926   $ Sizing
 "CHRtFlo_Sys_L_OfficeSm_W" = 1084.637   $ Sizing
 "CHRtFlo_Sys_L_Restrm_C" = 211.8611   $ Sizing
 "CHRtFlo_Sys_L_StorSm_C" = 334.3917   $ Sizing
 "CHRtFlo_Sys_M_Break_C" = 3209.551   $ Sizing
 "CHRtFlo_Sys_M_Conf_C" = 3737.574   $ Sizing
 "CHRtFlo_Sys_M_CopyRm_C" = 1055.662   $ Sizing
 "CHRtFlo_Sys_M_Cordr_C" = 5927.227   $ Sizing
 "CHRtFlo_Sys_M_Cordr_E" = 1956.313   $ Sizing
 "CHRtFlo_Sys_M_Cordr_N" = 779.7621   $ Sizing
 "CHRtFlo_Sys_M_Cordr_S" = 1983.21   $ Sizing
 "CHRtFlo_Sys_M_Cordr_W" = 1727.977   $ Sizing
 "CHRtFlo_Sys_M_LobWait_C" = 3590.35   $ Sizing
 "CHRtFlo_Sys_M_MechElec_C" = 1107.84   $ Sizing
 "CHRtFlo_Sys_M_OfficeOpn_C" = 15529.62   $ Sizing
 "CHRtFlo_Sys_M_OfficeOpn_E" = 14518   $ Sizing
 "CHRtFlo_Sys_M_OfficeOpn_N" = 7489.46   $ Sizing
 "CHRtFlo_Sys_M_OfficeOpn_S" = 14877.08   $ Sizing
 "CHRtFlo_Sys_M_OfficeOpn_W" = 13447.04   $ Sizing
 "CHRtFlo_Sys_M_OfficeSm_C" = 2130.99   $ Sizing
 "CHRtFlo_Sys_M_OfficeSm_E" = 10119.85   $ Sizing
 "CHRtFlo_Sys_M_OfficeSm_N" = 4473.921   $ Sizing
 "CHRtFlo_Sys_M_OfficeSm_S" = 10624.93   $ Sizing
 "CHRtFlo_Sys_M_OfficeSm_W" = 9367.729   $ Sizing
 "CHRtFlo_Sys_M_Restrm_C" = 1694.889   $ Sizing
 "CHRtFlo_Sys_M_StorSm_C" = 2873.703   $ Sizing
 "CHRtFlo_Sys_T_Break_C" = 375.5158   $ Sizing
 "CHRtFlo_Sys_T_Conf_C" = 447.0234   $ Sizing
 "CHRtFlo_Sys_T_CopyRm_C" = 124.9753   $ Sizing
 "CHRtFlo_Sys_T_Cordr_C" = 657.0974   $ Sizing
 "CHRtFlo_Sys_T_Cordr_E" = 217.5871   $ Sizing
 "CHRtFlo_Sys_T_Cordr_N" = 94.24052   $ Sizing
 "CHRtFlo_Sys_T_Cordr_S" = 224.977   $ Sizing
 "CHRtFlo_Sys_T_Cordr_W" = 194.7792   $ Sizing
 "CHRtFlo_Sys_T_LobWait_C" = 415.6283   $ Sizing
 "CHRtFlo_Sys_T_MechElec_C" = 145.9567   $ Sizing
 "CHRtFlo_Sys_T_OfficeOpn_C" = 1814.528   $ Sizing
 "CHRtFlo_Sys_T_OfficeOpn_E" = 1647.33   $ Sizing
 "CHRtFlo_Sys_T_OfficeOpn_N" = 864.1763   $ Sizing
 "CHRtFlo_Sys_T_OfficeOpn_S" = 1731.44   $ Sizing
 "CHRtFlo_Sys_T_OfficeOpn_W" = 1541.076   $ Sizing
 "CHRtFlo_Sys_T_OfficeSm_C" = 252.3872   $ Sizing
 "CHRtFlo_Sys_T_OfficeSm_E" = 1183.137   $ Sizing
 "CHRtFlo_Sys_T_OfficeSm_N" = 536.2774   $ Sizing
 "CHRtFlo_Sys_T_OfficeSm_S" = 1265.184   $ Sizing
 "CHRtFlo_Sys_T_OfficeSm_W" = 1102.953   $ Sizing
 "CHRtFlo_Sys_T_Restrm_C" = 211.8611   $ Sizing
 "CHRtFlo_Sys_T_StorSm_C" = 334.0894   $ Sizing
 "CRtdFlo_Sys_L_Break_C" = 362.8459   $ Sizing
 "CRtdFlo_Sys_L_Conf_C" = 419.3147   $ Sizing
 "CRtdFlo_Sys_L_CopyRm_C" = 105.5948   $ Sizing
 "CRtdFlo_Sys_L_Cordr_C" = 565.4379   $ Sizing
 "CRtdFlo_Sys_L_Cordr_E" = 187.8325   $ Sizing
 "CRtdFlo_Sys_L_Cordr_N" = 94.24052   $ Sizing
 "CRtdFlo_Sys_L_Cordr_S" = 199.83   $ Sizing
 "CRtdFlo_Sys_L_Cordr_W" = 179.779   $ Sizing
 "CRtdFlo_Sys_L_LobWait_C" = 348.1873   $ Sizing
 "CRtdFlo_Sys_L_MechElec_C" = 134.1697   $ Sizing
 "CRtdFlo_Sys_L_OfficeOpn_C" = 1656.011   $ Sizing
 "CRtdFlo_Sys_L_OfficeOpn_E" = 1622.784   $ Sizing
 "CRtdFlo_Sys_L_OfficeOpn_N" = 781.5438   $ Sizing
 "CRtdFlo_Sys_L_OfficeOpn_S" = 1657.484   $ Sizing
 "CRtdFlo_Sys_L_OfficeOpn_W" = 1562.222   $ Sizing
 "CRtdFlo_Sys_L_OfficeSm_C" = 207.4905   $ Sizing
 "CRtdFlo_Sys_L_OfficeSm_E" = 1138.21   $ Sizing
 "CRtdFlo_Sys_L_OfficeSm_N" = 463.9563   $ Sizing
 "CRtdFlo_Sys_L_OfficeSm_S" = 1191.926   $ Sizing
 "CRtdFlo_Sys_L_OfficeSm_W" = 1084.637   $ Sizing
 "CRtdFlo_Sys_L_Restrm_C" = 211.8611   $ Sizing
 "CRtdFlo_Sys_L_StorSm_C" = 334.3917   $ Sizing
 "CRtdFlo_Sys_M_Break_C" = 3209.551   $ Sizing
 "CRtdFlo_Sys_M_Conf_C" = 3737.574   $ Sizing
 "CRtdFlo_Sys_M_CopyRm_C" = 1055.662   $ Sizing
 "CRtdFlo_Sys_M_Cordr_C" = 5927.227   $ Sizing
 "CRtdFlo_Sys_M_Cordr_E" = 1956.312   $ Sizing
 "CRtdFlo_Sys_M_Cordr_N" = 779.7621   $ Sizing
 "CRtdFlo_Sys_M_Cordr_S" = 1983.21   $ Sizing
 "CRtdFlo_Sys_M_Cordr_W" = 1727.977   $ Sizing
 "CRtdFlo_Sys_M_LobWait_C" = 3590.35   $ Sizing
 "CRtdFlo_Sys_M_MechElec_C" = 1107.84   $ Sizing
 "CRtdFlo_Sys_M_OfficeOpn_C" = 15529.62   $ Sizing
 "CRtdFlo_Sys_M_OfficeOpn_E" = 14518   $ Sizing
 "CRtdFlo_Sys_M_OfficeOpn_N" = 7489.46   $ Sizing
 "CRtdFlo_Sys_M_OfficeOpn_S" = 14877.08   $ Sizing
 "CRtdFlo_Sys_M_OfficeOpn_W" = 13447.04   $ Sizing
 "CRtdFlo_Sys_M_OfficeSm_C" = 2130.99   $ Sizing
 "CRtdFlo_Sys_M_OfficeSm_E" = 10119.85   $ Sizing
 "CRtdFlo_Sys_M_OfficeSm_N" = 4473.921   $ Sizing
 "CRtdFlo_Sys_M_OfficeSm_S" = 10624.93   $ Sizing
 "CRtdFlo_Sys_M_OfficeSm_W" = 9367.729   $ Sizing
 "CRtdFlo_Sys_M_Restrm_C" = 1694.889   $ Sizing
 "CRtdFlo_Sys_M_StorSm_C" = 2873.703   $ Sizing
 "CRtdFlo_Sys_T_Break_C" = 375.5158   $ Sizing
 "CRtdFlo_Sys_T_Conf_C" = 447.0235   $ Sizing
 "CRtdFlo_Sys_T_CopyRm_C" = 124.9753   $ Sizing
 "CRtdFlo_Sys_T_Cordr_C" = 657.0974   $ Sizing
 "CRtdFlo_Sys_T_Cordr_E" = 217.5871   $ Sizing
 "CRtdFlo_Sys_T_Cordr_N" = 94.24052   $ Sizing
 "CRtdFlo_Sys_T_Cordr_S" = 224.977   $ Sizing
 "CRtdFlo_Sys_T_Cordr_W" = 194.7792   $ Sizing
 "CRtdFlo_Sys_T_LobWait_C" = 415.6283   $ Sizing
 "CRtdFlo_Sys_T_MechElec_C" = 145.9567   $ Sizing
 "CRtdFlo_Sys_T_OfficeOpn_C" = 1814.528   $ Sizing
 "CRtdFlo_Sys_T_OfficeOpn_E" = 1647.33   $ Sizing
 "CRtdFlo_Sys_T_OfficeOpn_N" = 864.1763   $ Sizing
 "CRtdFlo_Sys_T_OfficeOpn_S" = 1731.44   $ Sizing
 "CRtdFlo_Sys_T_OfficeOpn_W" = 1541.076   $ Sizing
 "CRtdFlo_Sys_T_OfficeSm_C" = 252.3872   $ Sizing
 "CRtdFlo_Sys_T_OfficeSm_E" = 1183.137   $ Sizing
 "CRtdFlo_Sys_T_OfficeSm_N" = 536.2774   $ Sizing
 "CRtdFlo_Sys_T_OfficeSm_S" = 1265.184   $ Sizing
 "CRtdFlo_Sys_T_OfficeSm_W" = 1102.953   $ Sizing
 "CRtdFlo_Sys_T_Restrm_C" = 211.8611   $ Sizing
 "CRtdFlo_Sys_T_StorSm_C" = 334.0894   $ Sizing
 "CSupFlo_Sys_L_Break_C" = 362.8459   $ Sizing
 "CSupFlo_Sys_L_Conf_C" = 419.3146   $ Sizing
 "CSupFlo_Sys_L_CopyRm_C" = 105.5948   $ Sizing
 "CSupFlo_Sys_L_Cordr_C" = 565.4379   $ Sizing
 "CSupFlo_Sys_L_Cordr_E" = 187.8325   $ Sizing
 "CSupFlo_Sys_L_Cordr_N" = 94.24052   $ Sizing
 "CSupFlo_Sys_L_Cordr_S" = 199.83   $ Sizing
 "CSupFlo_Sys_L_Cordr_W" = 179.779   $ Sizing
 "CSupFlo_Sys_L_LobWait_C" = 348.1873   $ Sizing
 "CSupFlo_Sys_L_MechElec_C" = 134.1697   $ Sizing
 "CSupFlo_Sys_L_OfficeOpn_C" = 1656.011   $ Sizing
 "CSupFlo_Sys_L_OfficeOpn_E" = 1622.784   $ Sizing
 "CSupFlo_Sys_L_OfficeOpn_N" = 781.5438   $ Sizing
 "CSupFlo_Sys_L_OfficeOpn_S" = 1657.484   $ Sizing
 "CSupFlo_Sys_L_OfficeOpn_W" = 1562.222   $ Sizing
 "CSupFlo_Sys_L_OfficeSm_C" = 207.4905   $ Sizing
 "CSupFlo_Sys_L_OfficeSm_E" = 1138.21   $ Sizing
 "CSupFlo_Sys_L_OfficeSm_N" = 463.9563   $ Sizing
 "CSupFlo_Sys_L_OfficeSm_S" = 1191.926   $ Sizing
 "CSupFlo_Sys_L_OfficeSm_W" = 1084.637   $ Sizing
 "CSupFlo_Sys_L_Restrm_C" = 211.8611   $ Sizing
 "CSupFlo_Sys_L_StorSm_C" = 334.3917   $ Sizing
 "CSupFlo_Sys_M_Break_C" = 3209.551   $ Sizing
 "CSupFlo_Sys_M_Conf_C" = 3737.574   $ Sizing
 "CSupFlo_Sys_M_CopyRm_C" = 1055.662   $ Sizing
 "CSupFlo_Sys_M_Cordr_C" = 5927.227   $ Sizing
 "CSupFlo_Sys_M_Cordr_E" = 1956.313   $ Sizing
 "CSupFlo_Sys_M_Cordr_N" = 779.7621   $ Sizing
 "CSupFlo_Sys_M_Cordr_S" = 1983.21   $ Sizing
 "CSupFlo_Sys_M_Cordr_W" = 1727.977   $ Sizing
 "CSupFlo_Sys_M_LobWait_C" = 3590.35   $ Sizing
 "CSupFlo_Sys_M_MechElec_C" = 1107.84   $ Sizing
 "CSupFlo_Sys_M_OfficeOpn_C" = 15529.62   $ Sizing
 "CSupFlo_Sys_M_OfficeOpn_E" = 14518   $ Sizing
 "CSupFlo_Sys_M_OfficeOpn_N" = 7489.46   $ Sizing
 "CSupFlo_Sys_M_OfficeOpn_S" = 14877.08   $ Sizing
 "CSupFlo_Sys_M_OfficeOpn_W" = 13447.04   $ Sizing
 "CSupFlo_Sys_M_OfficeSm_C" = 2130.99   $ Sizing
 "CSupFlo_Sys_M_OfficeSm_E" = 10119.85   $ Sizing
 "CSupFlo_Sys_M_OfficeSm_N" = 4473.921   $ Sizing
 "CSupFlo_Sys_M_OfficeSm_S" = 10624.93   $ Sizing
 "CSupFlo_Sys_M_OfficeSm_W" = 9367.729   $ Sizing
 "CSupFlo_Sys_M_Restrm_C" = 1694.889   $ Sizing
 "CSupFlo_Sys_M_StorSm_C" = 2873.703   $ Sizing
 "CSupFlo_Sys_T_Break_C" = 375.5158   $ Sizing
 "CSupFlo_Sys_T_Conf_C" = 447.0234   $ Sizing
 "CSupFlo_Sys_T_CopyRm_C" = 124.9753   $ Sizing
 "CSupFlo_Sys_T_Cordr_C" = 657.0974   $ Sizing
 "CSupFlo_Sys_T_Cordr_E" = 217.5871   $ Sizing
 "CSupFlo_Sys_T_Cordr_N" = 94.24052   $ Sizing
 "CSupFlo_Sys_T_Cordr_S" = 224.977   $ Sizing
 "CSupFlo_Sys_T_Cordr_W" = 194.7792   $ Sizing
 "CSupFlo_Sys_T_LobWait_C" = 415.6283   $ Sizing
 "CSupFlo_Sys_T_MechElec_C" = 145.9567   $ Sizing
 "CSupFlo_Sys_T_OfficeOpn_C" = 1814.528   $ Sizing
 "CSupFlo_Sys_T_OfficeOpn_E" = 1647.33   $ Sizing
 "CSupFlo_Sys_T_OfficeOpn_N" = 864.1763   $ Sizing
 "CSupFlo_Sys_T_OfficeOpn_S" = 1731.44   $ Sizing
 "CSupFlo_Sys_T_OfficeOpn_W" = 1541.076   $ Sizing
 "CSupFlo_Sys_T_OfficeSm_C" = 252.3872   $ Sizing
 "CSupFlo_Sys_T_OfficeSm_E" = 1183.137   $ Sizing
 "CSupFlo_Sys_T_OfficeSm_N" = 536.2774   $ Sizing
 "CSupFlo_Sys_T_OfficeSm_S" = 1265.184   $ Sizing
 "CSupFlo_Sys_T_OfficeSm_W" = 1102.953   $ Sizing
 "CSupFlo_Sys_T_Restrm_C" = 211.8611   $ Sizing
 "CSupFlo_Sys_T_StorSm_C" = 334.0894   $ Sizing
 "ClCap_Sys_L_Break_C" = 12347.43   $ Sizing
 "ClCap_Sys_L_Conf_C" = 18160.58   $ Sizing
 "ClCap_Sys_L_CopyRm_C" = 3593.329   $ Sizing
 "ClCap_Sys_L_Cordr_C" = 19241.51   $ Sizing
 "ClCap_Sys_L_Cordr_E" = 6391.826   $ Sizing
 "ClCap_Sys_L_Cordr_N" = 3206.949   $ Sizing
 "ClCap_Sys_L_Cordr_S" = 6800.095   $ Sizing
 "ClCap_Sys_L_Cordr_W" = 6117.773   $ Sizing
 "ClCap_Sys_L_LobWait_C" = 11848.61   $ Sizing
 "ClCap_Sys_L_MechElec_C" = 4565.713   $ Sizing
 "ClCap_Sys_L_OfficeOpn_C" = 56353.07   $ Sizing
 "ClCap_Sys_L_OfficeOpn_E" = 55222.38   $ Sizing
 "ClCap_Sys_L_OfficeOpn_N" = 26595.47   $ Sizing
 "ClCap_Sys_L_OfficeOpn_S" = 56403.19   $ Sizing
 "ClCap_Sys_L_OfficeOpn_W" = 53161.49   $ Sizing
 "ClCap_Sys_L_OfficeSm_C" = 7060.778   $ Sizing
 "ClCap_Sys_L_OfficeSm_E" = 38732.62   $ Sizing
 "ClCap_Sys_L_OfficeSm_N" = 15788.16   $ Sizing
 "ClCap_Sys_L_OfficeSm_S" = 40560.52   $ Sizing
 "ClCap_Sys_L_OfficeSm_W" = 36909.54   $ Sizing
 "ClCap_Sys_L_Restrm_C" = 7209.506   $ Sizing
 "ClCap_Sys_L_StorSm_C" = 11379.15   $ Sizing
 "ClCap_Sys_M_Break_C" = 109219.1   $ Sizing
 "ClCap_Sys_M_Conf_C" = 161874.9   $ Sizing
 "ClCap_Sys_M_CopyRm_C" = 35923.54   $ Sizing
 "ClCap_Sys_M_Cordr_C" = 201700   $ Sizing
 "ClCap_Sys_M_Cordr_E" = 66572.14   $ Sizing
 "ClCap_Sys_M_Cordr_N" = 26534.84   $ Sizing
 "ClCap_Sys_M_Cordr_S" = 67487.44   $ Sizing
 "ClCap_Sys_M_Cordr_W" = 58802.01   $ Sizing
 "ClCap_Sys_M_LobWait_C" = 122177.5   $ Sizing
 "ClCap_Sys_M_MechElec_C" = 37699.12   $ Sizing
 "ClCap_Sys_M_OfficeOpn_C" = 528463.8   $ Sizing
 "ClCap_Sys_M_OfficeOpn_E" = 494038.8   $ Sizing
 "ClCap_Sys_M_OfficeOpn_N" = 254861.9   $ Sizing
 "ClCap_Sys_M_OfficeOpn_S" = 506258   $ Sizing
 "ClCap_Sys_M_OfficeOpn_W" = 457594.6   $ Sizing
 "ClCap_Sys_M_OfficeSm_C" = 72516.31   $ Sizing
 "ClCap_Sys_M_OfficeSm_E" = 344372.4   $ Sizing
 "ClCap_Sys_M_OfficeSm_N" = 152244.8   $ Sizing
 "ClCap_Sys_M_OfficeSm_S" = 361560   $ Sizing
 "ClCap_Sys_M_OfficeSm_W" = 318778.2   $ Sizing
 "ClCap_Sys_M_Restrm_C" = 57676.05   $ Sizing
 "ClCap_Sys_M_StorSm_C" = 97790.38   $ Sizing
 "ClCap_Sys_T_Break_C" = 12778.58   $ Sizing
 "ClCap_Sys_T_Conf_C" = 19360.65   $ Sizing
 "ClCap_Sys_T_CopyRm_C" = 4252.834   $ Sizing
 "ClCap_Sys_T_Cordr_C" = 22360.63   $ Sizing
 "ClCap_Sys_T_Cordr_E" = 7404.359   $ Sizing
 "ClCap_Sys_T_Cordr_N" = 3206.949   $ Sizing
 "ClCap_Sys_T_Cordr_S" = 7655.833   $ Sizing
 "ClCap_Sys_T_Cordr_W" = 6628.218   $ Sizing
 "ClCap_Sys_T_LobWait_C" = 14143.58   $ Sizing
 "ClCap_Sys_T_MechElec_C" = 4966.818   $ Sizing
 "ClCap_Sys_T_OfficeOpn_C" = 61747.3   $ Sizing
 "ClCap_Sys_T_OfficeOpn_E" = 56057.66   $ Sizing
 "ClCap_Sys_T_OfficeOpn_N" = 29407.4   $ Sizing
 "ClCap_Sys_T_OfficeOpn_S" = 58919.87   $ Sizing
 "ClCap_Sys_T_OfficeOpn_W" = 52441.88   $ Sizing
 "ClCap_Sys_T_OfficeSm_C" = 8588.586   $ Sizing
 "ClCap_Sys_T_OfficeSm_E" = 40261.46   $ Sizing
 "ClCap_Sys_T_OfficeSm_N" = 18249.2   $ Sizing
 "ClCap_Sys_T_OfficeSm_S" = 43053.44   $ Sizing
 "ClCap_Sys_T_OfficeSm_W" = 37532.83   $ Sizing
 "ClCap_Sys_T_Restrm_C" = 7209.506   $ Sizing
 "ClCap_Sys_T_StorSm_C" = 11368.86   $ Sizing
 "HtCap_Sys_L_Break_C" = -20317.51   $ Sizing
 "HtCap_Sys_L_Conf_C" = -24941.26   $ Sizing
 "HtCap_Sys_L_CopyRm_C" = -7053.106   $ Sizing
 "HtCap_Sys_L_Cordr_C" = -25866.8   $ Sizing
 "HtCap_Sys_L_Cordr_E" = -7094.447   $ Sizing
 "HtCap_Sys_L_Cordr_N" = -4366.134   $ Sizing
 "HtCap_Sys_L_Cordr_S" = -7365.691   $ Sizing
 "HtCap_Sys_L_Cordr_W" = -6855.325   $ Sizing
 "HtCap_Sys_L_LobWait_C" = -20218.11   $ Sizing
 "HtCap_Sys_L_MechElec_C" = -6071.393   $ Sizing
 "HtCap_Sys_L_OfficeOpn_C" = -80773.8   $ Sizing
 "HtCap_Sys_L_OfficeOpn_E" = -56099.96   $ Sizing
 "HtCap_Sys_L_OfficeOpn_N" = -31846.42   $ Sizing
 "HtCap_Sys_L_OfficeOpn_S" = -56305   $ Sizing
 "HtCap_Sys_L_OfficeOpn_W" = -54299.3   $ Sizing
 "HtCap_Sys_L_OfficeSm_C" = -8541.034   $ Sizing
 "HtCap_Sys_L_OfficeSm_E" = -39214.16   $ Sizing
 "HtCap_Sys_L_OfficeSm_N" = -19346.58   $ Sizing
 "HtCap_Sys_L_OfficeSm_S" = -40140.34   $ Sizing
 "HtCap_Sys_L_OfficeSm_W" = -37706.95   $ Sizing
 "HtCap_Sys_L_Restrm_C" = -7631.026   $ Sizing
 "HtCap_Sys_L_StorSm_C" = -15576.18   $ Sizing
 "HtCap_Sys_M_Break_C" = -171203.6   $ Sizing
 "HtCap_Sys_M_Conf_C" = -210574.1   $ Sizing
 "HtCap_Sys_M_CopyRm_C" = -62509.59   $ Sizing
 "HtCap_Sys_M_Cordr_C" = -246369.4   $ Sizing
 "HtCap_Sys_M_Cordr_E" = -69647.63   $ Sizing
 "HtCap_Sys_M_Cordr_N" = -35607.62   $ Sizing
 "HtCap_Sys_M_Cordr_S" = -69648.57   $ Sizing
 "HtCap_Sys_M_Cordr_W" = -63016.51   $ Sizing
 "HtCap_Sys_M_LobWait_C" = -184813.9   $ Sizing
 "HtCap_Sys_M_MechElec_C" = -49534.02   $ Sizing
 "HtCap_Sys_M_OfficeOpn_C" = -756907.4   $ Sizing
 "HtCap_Sys_M_OfficeOpn_E" = -491468.6   $ Sizing
 "HtCap_Sys_M_OfficeOpn_N" = -289889.5   $ Sizing
 "HtCap_Sys_M_OfficeOpn_S" = -494342.4   $ Sizing
 "HtCap_Sys_M_OfficeOpn_W" = -460362.9   $ Sizing
 "HtCap_Sys_M_OfficeSm_C" = -81806.58   $ Sizing
 "HtCap_Sys_M_OfficeSm_E" = -341604.1   $ Sizing
 "HtCap_Sys_M_OfficeSm_N" = -176874.7   $ Sizing
 "HtCap_Sys_M_OfficeSm_S" = -352425.3   $ Sizing
 "HtCap_Sys_M_OfficeSm_W" = -320229.7   $ Sizing
 "HtCap_Sys_M_Restrm_C" = -65677.47   $ Sizing
 "HtCap_Sys_M_StorSm_C" = -126332.9   $ Sizing
 "HtCap_Sys_T_Break_C" = -21624.33   $ Sizing
 "HtCap_Sys_T_Conf_C" = -26662.32   $ Sizing
 "HtCap_Sys_T_CopyRm_C" = -7795.844   $ Sizing
 "HtCap_Sys_T_Cordr_C" = -32191.06   $ Sizing
 "HtCap_Sys_T_Cordr_E" = -9339.779   $ Sizing
 "HtCap_Sys_T_Cordr_N" = -4849.079   $ Sizing
 "HtCap_Sys_T_Cordr_S" = -9634.947   $ Sizing
 "HtCap_Sys_T_Cordr_W" = -8545.406   $ Sizing
 "HtCap_Sys_T_LobWait_C" = -23502.47   $ Sizing
 "HtCap_Sys_T_MechElec_C" = -6402.568   $ Sizing
 "HtCap_Sys_T_OfficeOpn_C" = -80882.67   $ Sizing
 "HtCap_Sys_T_OfficeOpn_E" = -65282.8   $ Sizing
 "HtCap_Sys_T_OfficeOpn_N" = -39460.38   $ Sizing
 "HtCap_Sys_T_OfficeOpn_S" = -68923.27   $ Sizing
 "HtCap_Sys_T_OfficeOpn_W" = -61631.2   $ Sizing
 "HtCap_Sys_T_OfficeSm_C" = -11282.11   $ Sizing
 "HtCap_Sys_T_OfficeSm_E" = -47248.52   $ Sizing
 "HtCap_Sys_T_OfficeSm_N" = -24630   $ Sizing
 "HtCap_Sys_T_OfficeSm_S" = -49957.51   $ Sizing
 "HtCap_Sys_T_OfficeSm_W" = -44598.2   $ Sizing
 "HtCap_Sys_T_Restrm_C" = -8827.094   $ Sizing
 "HtCap_Sys_T_StorSm_C" = -17385   $ Sizing
..

##include Templates\OfL_DX_SZ.inp
END ..
COMPUTE ..
STOP ..
