
Start DOESIM : Storage capacity =  75000000
Starting LOADS   : SAVE-FILES is On , weather is CZ01ARCATA-AP       
Finished LOADS    BDL  1 : Memory (wds) =    244003, Time (sec) =    2.15
Starting REPORT  
Finished REPORT   BDL  1 : Memory (wds) =    481358, Time (sec) =    0.52
Starting HVAC    : SAVE-FILES is On , weather is CZ01ARCATA-AP       
*** ERRORS or WARNINGS from HVAC     program. Examine output file for details.
Finished HVAC     BDL  1 : Memory (wds) =    350519, Time (sec) =    5.07
Starting REPORT  
Finished REPORT   BDL  1 : Memory (wds) =    482595, Time (sec) =    0.22
Starting HOURLY-R
Finished HOURLY-R BDL  1 : Memory (wds) =    758395, Time (sec) =    0.15
Starting ECONOMIC
Finished ECONOMIC BDL  1 : Memory (wds) =      1034, Time (sec) =    0.03
End   DOESIM : Total elapsed time of      8.2 seconds
RUN COMPLETE
