INPUT ..

##fileprefix C:\Users\jglasskatz\MASControl3\
##set1 IsSizing FALSE
##set1 CoolType WLHP
##set1 HeatType HEAT-PUMP
##set1 EU_HrRepVar 1
##set1 BldgVint 1996
##set1 BldgLoc CZ01

 ##set1 mHW_FlowCtrl Const   $ IP Tech: HwFlowCtrlCst
 ##set1 mBlrIsCond FALSE   $ IP Tech: WBlr-300to2500-80p0Ec
 ##set1 mWLHP_FlowCtrl Const   $ IP Tech: WlhpFlowCtrlCst

PARAMETER
 "AltFactor" = 1.00753   $ IP Non-Tech
 "BldgEconoFlag" = 1   $ IP Non-Tech
 "BlrPrimLp" = WLHPCircLoop   $ IP Non-Tech
 "Break_EWSF" = 1   $ IP Non-Tech
 "Break_LWSF" = 1.1   $ IP Non-Tech
 "CDD_DBHi10" = 65   $ IP Non-Tech
 "CDD_DBHi7" = 68   $ IP Non-Tech
 "CDD_DBHi8" = 66   $ IP Non-Tech
 "CDD_DBHi9" = 77   $ IP Non-Tech
 "CDD_DBRange10" = 17   $ IP Non-Tech
 "CDD_DBRange7" = 11   $ IP Non-Tech
 "CDD_DBRange8" = 10   $ IP Non-Tech
 "CDD_DBRange9" = 29   $ IP Non-Tech
 "CDD_Day10" = 15   $ IP Non-Tech
 "CDD_Day7" = 16   $ IP Non-Tech
 "CDD_Day8" = 20   $ IP Non-Tech
 "CDD_Day9" = 17   $ IP Non-Tech
 "CDD_HrHi10" = 12   $ IP Non-Tech
 "CDD_HrHi7" = 12   $ IP Non-Tech
 "CDD_HrHi8" = 13   $ IP Non-Tech
 "CDD_HrHi9" = 17   $ IP Non-Tech
 "CDD_HrLo10" = 6   $ IP Non-Tech
 "CDD_HrLo7" = 3   $ IP Non-Tech
 "CDD_HrLo8" = 8   $ IP Non-Tech
 "CDD_HrLo9" = 4   $ IP Non-Tech
 "CDD_WB10" = 57.53039551   $ IP Non-Tech
 "CDD_WB7" = 59.29250717   $ IP Non-Tech
 "CDD_WB8" = 60.75350189   $ IP Non-Tech
 "CDD_WB9" = 61.08643341   $ IP Non-Tech
 "CZ_Category" = Tem   $ IP Non-Tech
 "ChwVintEconoFlag" = 1   $ IP Non-Tech
 "Conference_EWSF" = 1.05   $ IP Non-Tech
 "Conference_LWSF" = 1.4   $ IP Non-Tech
 "CoolSetT" = 45   $ IP Non-Tech
 "CoolType" = WLHP   $ IP Non-Tech
 "CopyRoom_EWSF" = 1.575   $ IP Non-Tech
 "CopyRoom_LWSF" = 1.3   $ IP Non-Tech
 "CorridorStairway_EWSF" = 0.21   $ IP Non-Tech
 "CorridorStairway_LWSF" = 0.6   $ IP Non-Tech
 "CwPipeHead" = 40   $ IP Non-Tech
 "DesCoolT" = 75   $ IP Non-Tech
 "DesHeatT" = 73   $ IP Non-Tech
 "EconoEnthLimit" = 28   $ IP Non-Tech
 "EconoTempLimit" = 70   $ IP Non-Tech
 "Elevation" = 203   $ IP Non-Tech
 "HDD_CloudAmt1" = 0   $ IP Non-Tech
 "HDD_DBHi1" = 53   $ IP Non-Tech
 "HDD_DBRange1" = 20   $ IP Non-Tech
 "HDD_Day1" = 15   $ IP Non-Tech
 "HDD_HrHi1" = 14   $ IP Non-Tech
 "HDD_HrLo1" = 6   $ IP Non-Tech
 "HDD_WB1" = 42.3   $ IP Non-Tech
 "HDD_WindSpd1" = 12.7   $ IP Non-Tech
 "HeatSrc" = HEAT-PUMP   $ IP Non-Tech
 "HeatSrcTU" = HEAT-PUMP   $ IP Non-Tech
 "HeatType" = WLHP   $ IP Non-Tech
 "HeatTypeTU" = HEAT-PUMP   $ IP Non-Tech
 "IndoorFanMode" = CONTINUOUS   $ IP Non-Tech
 "KT_TransferAir" = No   $ IP Non-Tech
 "Latitude" = 40.8   $ IP Non-Tech
 "LobbyWaiting_EWSF" = 0.5125   $ IP Non-Tech
 "LobbyWaiting_LWSF" = 1.3   $ IP Non-Tech
 "Longitude" = 124.2   $ IP Non-Tech
 "LtgMsrApplic" = ALL   $ Msr TechID: NonResLtgRefMsr-HB
 "LtgSav_CFL" = 0   $ Msr TechID: NonResLtgRefMsr-HB
 "LtgSav_EX" = 0   $ Msr TechID: NonResLtgRefMsr-HB
 "LtgSav_HB" = 0.3   $ Msr TechID: NonResLtgRefMsr-HB
 "LtgSav_LF" = 0   $ Msr TechID: NonResLtgRefMsr-HB
 "LtgSav_SP" = 0   $ Msr TechID: NonResLtgRefMsr-HB
 "MZFanMechEff" = 0.54   $ IP Non-Tech
 "MZHasRetFan" = FALSE   $ IP Non-Tech
 "MZ_RFanWPerCfm" = 0.37   $ IP Non-Tech
 "MZ_SFanWPerCfm" = 0.71   $ IP Non-Tech
 "MZ_SupFanStatic" = 0.75   $ IP Non-Tech
 "MaxSupT_MZ" = 90   $ IP Non-Tech
 "MaxSupT_SZ" = 90   $ IP Non-Tech
 "MaxSupT_TU" = 90   $ IP Non-Tech
 "MechElecRoom_EWSF" = 0.21   $ IP Non-Tech
 "MechElecRoom_LWSF" = 0.7   $ IP Non-Tech
 "MinCfmPerSF" = 0.4   $ IP Non-Tech
 "MinSupT" = 55   $ IP Non-Tech
 "NumBlrs" = 2   $ IP Non-Tech
 "OccCoolT" = 76   $ IP Non-Tech
 "OccHeatT" = 72   $ IP Non-Tech
 "OfficeOpen_EWSF" = 1.575   $ IP Non-Tech
 "OfficeOpen_LWSF" = 1.2   $ IP Non-Tech
 "OfficeSmall_EWSF" = 1.575   $ IP Non-Tech
 "OfficeSmall_LWSF" = 1.3   $ IP Non-Tech
 "PkgDxVintEconoFlag" = 0   $ IP Non-Tech
 "Restroom_EWSF" = 0.21   $ IP Non-Tech
 "Restroom_LWSF" = 0.6   $ IP Non-Tech
 "SZFanMechEff" = 0.54   $ IP Non-Tech
 "SZHasRetFan" = FALSE   $ IP Non-Tech
 "SZ_Is_2Spd" = FALSE   $ IP Non-Tech
 "SZ_SFanWPerCfm" = 0.46   $ IP Non-Tech
 "SZ_SupFanStatic" = 0.75   $ IP Non-Tech
 "StorageSmlCond_EWSF" = 0.21   $ IP Non-Tech
 "StorageSmlCond_LWSF" = 0.6   $ IP Non-Tech
 "T24GlzTbl" = CZTbl   $ IP Non-Tech
 "TermUnitFanMechEff" = 1   $ IP Non-Tech
 "TermUnitFanMode" = INTERMITTENT   $ IP Non-Tech
 "TermUnitFanWPerCfm" = 0.175   $ IP Non-Tech
 "TwrEIR" = 0.0329   $ IP Non-Tech
 "TwrPipeHead" = 15   $ IP Non-Tech
 "TwrSetpt" = 80   $ IP Non-Tech
 "TwrStaticHead" = 0   $ IP Non-Tech
 "UnocCoolT" = 86   $ IP Non-Tech
 "UnocHeatT" = 62   $ IP Non-Tech
 "WLHPLoopHeatSetpt" = 65   $ IP Non-Tech
 "WlhpVintEconoFlag" = 0   $ IP Non-Tech
 "EconoCtrl" = OA-TEMP   $ IP Tech: AirEcono-OAT-ByVint
 "MaxOAFrac" = 0.85   $ IP Tech: AirEcono-OAT-ByVint
 "UseEconoVintApplic" = TRUE   $ IP Tech: AirEcono-OAT-ByVint
 "DuctDT" = 1   $ IP Tech: ComDuctInsul-1
 "DuctAirLoss" = 0   $ IP Tech: ComDuctLeak-0
 "DuctLossOAFrac" = 0   $ IP Tech: ComDuctLeak-0
 "ComRoofInsCalc" = FromUo   $ IP Tech: ComRoofIns-Hvy-0.06
 "ComRoofInsR" = -999   $ IP Tech: ComRoofIns-Hvy-0.06
 "ComRoofUo" = 0.06   $ IP Tech: ComRoofIns-Hvy-0.06
 "ComEWInsCalc" = FromUo   $ IP Tech: ComWallIns-MFrm-0.13
 "ComEWInsR" = -999   $ IP Tech: ComWallIns-MFrm-0.13
 "ComEWUo" = 0.13   $ IP Tech: ComWallIns-MFrm-0.13
 "HW_FlowCtrl" = Const   $ IP Tech: HwFlowCtrlCst
 "HW_HdSensLoc" = AT-COILS   $ IP Tech: HwFlowCtrlCst
 "HW_HdSptCtrl" = FIXED   $ IP Tech: HwFlowCtrlCst
 "HWP_Encl" = Any   $ IP Tech: HwPumpMtrEff-HI
 "HWP_MotClass" = HI-EFF   $ IP Tech: HwPumpMtrEff-HI
 "HWP_MotHP" = Any   $ IP Tech: HwPumpMtrEff-HI
 "HWP_NEMA_DC" = Any   $ IP Tech: HwPumpMtrEff-HI
 "HWP_RPM" = Any   $ IP Tech: HwPumpMtrEff-HI
 "HWP_Volt" = Any   $ IP Tech: HwPumpMtrEff-HI
 "ComN_SHGC" = 0.77   $ IP Tech: NResWin-ComN-0.77-0.77
 "ComN_UFactor" = 0.77   $ IP Tech: NResWin-ComN-0.77-0.77
 "ComN_VisTrans" = 0.81   $ IP Tech: NResWin-ComN-0.77-0.77
 "ComN_WinCode" = G2000   $ IP Tech: NResWin-ComN-0.77-0.77
 "ComN_WinFrmFrac" = 0.17   $ IP Tech: NResWin-ComN-0.77-0.77
 "ComN_WinFrmU" = 1   $ IP Tech: NResWin-ComN-0.77-0.77
 "ComO_SHGC" = 0.5   $ IP Tech: NResWin-ComO-0.77-0.5
 "ComO_UFactor" = 0.77   $ IP Tech: NResWin-ComO-0.77-0.5
 "ComO_VisTrans" = 0.77   $ IP Tech: NResWin-ComO-0.77-0.5
 "ComO_WinCode" = G2630   $ IP Tech: NResWin-ComO-0.77-0.5
 "ComO_WinFrmFrac" = 0.17   $ IP Tech: NResWin-ComO-0.77-0.5
 "ComO_WinFrmU" = 1   $ IP Tech: NResWin-ComO-0.77-0.5
 "TwrFanCtrl" = TWO-SPEED-FAN   $ IP Tech: TwrFanCtrl-2sp
 "TFan_Encl" = Any   $ IP Tech: TwrFanMtrEff-HI
 "TFan_MotClass" = HI-EFF   $ IP Tech: TwrFanMtrEff-HI
 "TFan_MotHP" = Any   $ IP Tech: TwrFanMtrEff-HI
 "TFan_NEMA_DC" = Any   $ IP Tech: TwrFanMtrEff-HI
 "TFan_RPM" = Any   $ IP Tech: TwrFanMtrEff-HI
 "TFan_Volt" = Any   $ IP Tech: TwrFanMtrEff-HI
 "BlrCapRange" = 300to2500   $ IP Tech: WBlr-300to2500-80p0Ec
 "BlrDraftType" = FDr   $ IP Tech: WBlr-300to2500-80p0Ec
 "BlrEff" = 0.8   $ IP Tech: WBlr-300to2500-80p0Ec
 "BlrEffUnits" = Ec   $ IP Tech: WBlr-300to2500-80p0Ec
 "BlrEt" = 0.78   $ IP Tech: WBlr-300to2500-80p0Ec
 "BlrFluid" = Wtr   $ IP Tech: WBlr-300to2500-80p0Ec
 "BlrIsCond" = FALSE   $ IP Tech: WBlr-300to2500-80p0Ec
 "BlrT" = 165   $ IP Tech: WBlr-300to2500-80p0Ec
 "COP47" = 4.813   $ IP Tech: WLHP1SpH-ge17-E12-C4.2
 "CfmPerBtuh" = 0.033333333   $ IP Tech: WLHP1SpH-ge17-E12-C4.2
 "CoilBF" = 0.15   $ IP Tech: WLHP1SpH-ge17-E12-C4.2
 "CoolingEIR" = 0.23327   $ IP Tech: WLHP1SpH-ge17-E12-C4.2
 "DXType" = WLHP   $ IP Tech: WLHP1SpH-ge17-E12-C4.2
 "EER" = 12   $ IP Tech: WLHP1SpH-ge17-E12-C4.2
 "FanWPerCfm" = 0.35   $ IP Tech: WLHP1SpH-ge17-E12-C4.2
 "HtCoolCapRatio" = 0.88   $ IP Tech: WLHP1SpH-ge17-E12-C4.2
 "HtgEIR" = 0.20776   $ IP Tech: WLHP1SpH-ge17-E12-C4.2
 "NumStages" = 1   $ IP Tech: WLHP1SpH-ge17-E12-C4.2
 "RatedSupMtrClass" = HiEff   $ IP Tech: WLHP1SpH-ge17-E12-C4.2
 "SubType" = 1SpH   $ IP Tech: WLHP1SpH-ge17-E12-C4.2
 "UnitCOP" = 4.2   $ IP Tech: WLHP1SpH-ge17-E12-C4.2
 "WLHP_FlowCtrl" = Const   $ IP Tech: WlhpFlowCtrlCst
 "WLHP_HdSensLoc" = AT-COILS   $ IP Tech: WlhpFlowCtrlCst
 "WLHP_HdSptCtrl" = FIXED   $ IP Tech: WlhpFlowCtrlCst
 "WLHP_Encl" = Any   $ IP Tech: WlhpPumpMtrEff-HI
 "WLHP_MotClass" = HI-EFF   $ IP Tech: WlhpPumpMtrEff-HI
 "WLHP_MotHP" = Any   $ IP Tech: WlhpPumpMtrEff-HI
 "WLHP_NEMA_DC" = Any   $ IP Tech: WlhpPumpMtrEff-HI
 "WLHP_RPM" = Any   $ IP Tech: WlhpPumpMtrEff-HI
 "WLHP_Volt" = Any   $ IP Tech: WlhpPumpMtrEff-HI
 "AltAdjFactor" = 1.007532   $ Sizing
 "CAssFlo_L_Break_CZn" = 364.3667   $ Sizing
 "CAssFlo_L_Conf_CZn" = 428.4743   $ Sizing
 "CAssFlo_L_CopyRm_CZn" = 109.6539   $ Sizing
 "CAssFlo_L_Cordr_CZn" = 565.4379   $ Sizing
 "CAssFlo_L_Cordr_EZn" = 243.4877   $ Sizing
 "CAssFlo_L_Cordr_NZn" = 164.7452   $ Sizing
 "CAssFlo_L_Cordr_SZn" = 261.3753   $ Sizing
 "CAssFlo_L_Cordr_WZn" = 233.0655   $ Sizing
 "CAssFlo_L_LobWait_CZn" = 357.4612   $ Sizing
 "CAssFlo_L_MechElec_CZn" = 134.1697   $ Sizing
 "CAssFlo_L_OfficeOpn_CZn" = 1713.103   $ Sizing
 "CAssFlo_L_OfficeOpn_EZn" = 1995.417   $ Sizing
 "CAssFlo_L_OfficeOpn_NZn" = 855.3331   $ Sizing
 "CAssFlo_L_OfficeOpn_SZn" = 2062.6   $ Sizing
 "CAssFlo_L_OfficeOpn_WZn" = 1911.313   $ Sizing
 "CAssFlo_L_OfficeSm_CZn" = 217.3983   $ Sizing
 "CAssFlo_L_OfficeSm_EZn" = 1438.873   $ Sizing
 "CAssFlo_L_OfficeSm_NZn" = 577.6498   $ Sizing
 "CAssFlo_L_OfficeSm_SZn" = 1521.518   $ Sizing
 "CAssFlo_L_OfficeSm_WZn" = 1383.067   $ Sizing
 "CAssFlo_L_Restrm_CZn" = 211.8611   $ Sizing
 "CAssFlo_L_StorSm_CZn" = 345.7372   $ Sizing
 "CAssFlo_M_Break_CZn" = 398.4377   $ Sizing
 "CAssFlo_M_Conf_CZn" = 479.7046   $ Sizing
 "CAssFlo_M_CopyRm_CZn" = 136.9729   $ Sizing
 "CAssFlo_M_Cordr_CZn" = 786.3659   $ Sizing
 "CAssFlo_M_Cordr_EZn" = 301.9892   $ Sizing
 "CAssFlo_M_Cordr_NZn" = 175.1476   $ Sizing
 "CAssFlo_M_Cordr_SZn" = 314.2155   $ Sizing
 "CAssFlo_M_Cordr_WZn" = 270.7304   $ Sizing
 "CAssFlo_M_LobWait_CZn" = 464.2792   $ Sizing
 "CAssFlo_M_MechElec_CZn" = 143.684   $ Sizing
 "CAssFlo_M_OfficeOpn_CZn" = 2002.279   $ Sizing
 "CAssFlo_M_OfficeOpn_EZn" = 2179.322   $ Sizing
 "CAssFlo_M_OfficeOpn_NZn" = 998.9993   $ Sizing
 "CAssFlo_M_OfficeOpn_SZn" = 2298.571   $ Sizing
 "CAssFlo_M_OfficeOpn_WZn" = 2028.993   $ Sizing
 "CAssFlo_M_OfficeSm_CZn" = 280.3657   $ Sizing
 "CAssFlo_M_OfficeSm_EZn" = 1557.928   $ Sizing
 "CAssFlo_M_OfficeSm_NZn" = 620.1893   $ Sizing
 "CAssFlo_M_OfficeSm_SZn" = 1683.342   $ Sizing
 "CAssFlo_M_OfficeSm_WZn" = 1475.832   $ Sizing
 "CAssFlo_M_Restrm_CZn" = 211.8611   $ Sizing
 "CAssFlo_M_StorSm_CZn" = 374.199   $ Sizing
 "CAssFlo_T_Break_CZn" = 376.9188   $ Sizing
 "CAssFlo_T_Conf_CZn" = 457.3078   $ Sizing
 "CAssFlo_T_CopyRm_CZn" = 131.2293   $ Sizing
 "CAssFlo_T_Cordr_CZn" = 691.6617   $ Sizing
 "CAssFlo_T_Cordr_EZn" = 266.4029   $ Sizing
 "CAssFlo_T_Cordr_NZn" = 157.3654   $ Sizing
 "CAssFlo_T_Cordr_SZn" = 285.9634   $ Sizing
 "CAssFlo_T_Cordr_WZn" = 244.2211   $ Sizing
 "CAssFlo_T_LobWait_CZn" = 429.0662   $ Sizing
 "CAssFlo_T_MechElec_CZn" = 150.3546   $ Sizing
 "CAssFlo_T_OfficeOpn_CZn" = 1849.288   $ Sizing
 "CAssFlo_T_OfficeOpn_EZn" = 1983.143   $ Sizing
 "CAssFlo_T_OfficeOpn_NZn" = 935.5959   $ Sizing
 "CAssFlo_T_OfficeOpn_SZn" = 2143.445   $ Sizing
 "CAssFlo_T_OfficeOpn_WZn" = 1866.412   $ Sizing
 "CAssFlo_T_OfficeSm_CZn" = 261.4917   $ Sizing
 "CAssFlo_T_OfficeSm_EZn" = 1462.089   $ Sizing
 "CAssFlo_T_OfficeSm_NZn" = 592.3283   $ Sizing
 "CAssFlo_T_OfficeSm_SZn" = 1606.181   $ Sizing
 "CAssFlo_T_OfficeSm_WZn" = 1391.953   $ Sizing
 "CAssFlo_T_Restrm_CZn" = 211.8611   $ Sizing
 "CAssFlo_T_StorSm_CZn" = 334.0894   $ Sizing
 "CHRtFlo_Sys_L_Break_C" = 364.3667   $ Sizing
 "CHRtFlo_Sys_L_Conf_C" = 428.4743   $ Sizing
 "CHRtFlo_Sys_L_CopyRm_C" = 109.6539   $ Sizing
 "CHRtFlo_Sys_L_Cordr_C" = 565.4378   $ Sizing
 "CHRtFlo_Sys_L_Cordr_E" = 243.4877   $ Sizing
 "CHRtFlo_Sys_L_Cordr_N" = 164.7452   $ Sizing
 "CHRtFlo_Sys_L_Cordr_S" = 261.3753   $ Sizing
 "CHRtFlo_Sys_L_Cordr_W" = 233.0655   $ Sizing
 "CHRtFlo_Sys_L_LobWait_C" = 357.4612   $ Sizing
 "CHRtFlo_Sys_L_MechElec_C" = 134.1697   $ Sizing
 "CHRtFlo_Sys_L_OfficeOpn_C" = 1713.103   $ Sizing
 "CHRtFlo_Sys_L_OfficeOpn_E" = 1995.417   $ Sizing
 "CHRtFlo_Sys_L_OfficeOpn_N" = 855.3331   $ Sizing
 "CHRtFlo_Sys_L_OfficeOpn_S" = 2062.6   $ Sizing
 "CHRtFlo_Sys_L_OfficeOpn_W" = 1911.313   $ Sizing
 "CHRtFlo_Sys_L_OfficeSm_C" = 217.3983   $ Sizing
 "CHRtFlo_Sys_L_OfficeSm_E" = 1438.873   $ Sizing
 "CHRtFlo_Sys_L_OfficeSm_N" = 577.6498   $ Sizing
 "CHRtFlo_Sys_L_OfficeSm_S" = 1521.518   $ Sizing
 "CHRtFlo_Sys_L_OfficeSm_W" = 1383.067   $ Sizing
 "CHRtFlo_Sys_L_Restrm_C" = 211.8611   $ Sizing
 "CHRtFlo_Sys_L_StorSm_C" = 345.7372   $ Sizing
 "CHRtFlo_Sys_M_Break_C" = 3187.501   $ Sizing
 "CHRtFlo_Sys_M_Conf_C" = 3837.636   $ Sizing
 "CHRtFlo_Sys_M_CopyRm_C" = 1095.783   $ Sizing
 "CHRtFlo_Sys_M_Cordr_C" = 6290.928   $ Sizing
 "CHRtFlo_Sys_M_Cordr_E" = 2415.914   $ Sizing
 "CHRtFlo_Sys_M_Cordr_N" = 1401.181   $ Sizing
 "CHRtFlo_Sys_M_Cordr_S" = 2513.724   $ Sizing
 "CHRtFlo_Sys_M_Cordr_W" = 2165.844   $ Sizing
 "CHRtFlo_Sys_M_LobWait_C" = 3714.234   $ Sizing
 "CHRtFlo_Sys_M_MechElec_C" = 1149.472   $ Sizing
 "CHRtFlo_Sys_M_OfficeOpn_C" = 16018.23   $ Sizing
 "CHRtFlo_Sys_M_OfficeOpn_E" = 17434.58   $ Sizing
 "CHRtFlo_Sys_M_OfficeOpn_N" = 7991.994   $ Sizing
 "CHRtFlo_Sys_M_OfficeOpn_S" = 18388.57   $ Sizing
 "CHRtFlo_Sys_M_OfficeOpn_W" = 16231.94   $ Sizing
 "CHRtFlo_Sys_M_OfficeSm_C" = 2242.926   $ Sizing
 "CHRtFlo_Sys_M_OfficeSm_E" = 12463.43   $ Sizing
 "CHRtFlo_Sys_M_OfficeSm_N" = 4961.514   $ Sizing
 "CHRtFlo_Sys_M_OfficeSm_S" = 13466.74   $ Sizing
 "CHRtFlo_Sys_M_OfficeSm_W" = 11806.66   $ Sizing
 "CHRtFlo_Sys_M_Restrm_C" = 1694.889   $ Sizing
 "CHRtFlo_Sys_M_StorSm_C" = 2993.592   $ Sizing
 "CHRtFlo_Sys_T_Break_C" = 376.9188   $ Sizing
 "CHRtFlo_Sys_T_Conf_C" = 457.3078   $ Sizing
 "CHRtFlo_Sys_T_CopyRm_C" = 131.2293   $ Sizing
 "CHRtFlo_Sys_T_Cordr_C" = 691.6617   $ Sizing
 "CHRtFlo_Sys_T_Cordr_E" = 266.4029   $ Sizing
 "CHRtFlo_Sys_T_Cordr_N" = 157.3654   $ Sizing
 "CHRtFlo_Sys_T_Cordr_S" = 285.9634   $ Sizing
 "CHRtFlo_Sys_T_Cordr_W" = 244.2211   $ Sizing
 "CHRtFlo_Sys_T_LobWait_C" = 429.0662   $ Sizing
 "CHRtFlo_Sys_T_MechElec_C" = 150.3546   $ Sizing
 "CHRtFlo_Sys_T_OfficeOpn_C" = 1849.288   $ Sizing
 "CHRtFlo_Sys_T_OfficeOpn_E" = 1983.143   $ Sizing
 "CHRtFlo_Sys_T_OfficeOpn_N" = 935.5958   $ Sizing
 "CHRtFlo_Sys_T_OfficeOpn_S" = 2143.445   $ Sizing
 "CHRtFlo_Sys_T_OfficeOpn_W" = 1866.412   $ Sizing
 "CHRtFlo_Sys_T_OfficeSm_C" = 261.4917   $ Sizing
 "CHRtFlo_Sys_T_OfficeSm_E" = 1462.089   $ Sizing
 "CHRtFlo_Sys_T_OfficeSm_N" = 592.3283   $ Sizing
 "CHRtFlo_Sys_T_OfficeSm_S" = 1606.181   $ Sizing
 "CHRtFlo_Sys_T_OfficeSm_W" = 1391.953   $ Sizing
 "CHRtFlo_Sys_T_Restrm_C" = 211.8611   $ Sizing
 "CHRtFlo_Sys_T_StorSm_C" = 334.0894   $ Sizing
 "CRtdFlo_Sys_L_Break_C" = 364.3667   $ Sizing
 "CRtdFlo_Sys_L_Conf_C" = 428.4743   $ Sizing
 "CRtdFlo_Sys_L_CopyRm_C" = 109.6539   $ Sizing
 "CRtdFlo_Sys_L_Cordr_C" = 565.4379   $ Sizing
 "CRtdFlo_Sys_L_Cordr_E" = 243.4877   $ Sizing
 "CRtdFlo_Sys_L_Cordr_N" = 164.7452   $ Sizing
 "CRtdFlo_Sys_L_Cordr_S" = 261.3753   $ Sizing
 "CRtdFlo_Sys_L_Cordr_W" = 233.0655   $ Sizing
 "CRtdFlo_Sys_L_LobWait_C" = 357.4612   $ Sizing
 "CRtdFlo_Sys_L_MechElec_C" = 134.1697   $ Sizing
 "CRtdFlo_Sys_L_OfficeOpn_C" = 1713.103   $ Sizing
 "CRtdFlo_Sys_L_OfficeOpn_E" = 1995.417   $ Sizing
 "CRtdFlo_Sys_L_OfficeOpn_N" = 855.3331   $ Sizing
 "CRtdFlo_Sys_L_OfficeOpn_S" = 2062.6   $ Sizing
 "CRtdFlo_Sys_L_OfficeOpn_W" = 1911.313   $ Sizing
 "CRtdFlo_Sys_L_OfficeSm_C" = 217.3983   $ Sizing
 "CRtdFlo_Sys_L_OfficeSm_E" = 1438.873   $ Sizing
 "CRtdFlo_Sys_L_OfficeSm_N" = 577.6498   $ Sizing
 "CRtdFlo_Sys_L_OfficeSm_S" = 1521.518   $ Sizing
 "CRtdFlo_Sys_L_OfficeSm_W" = 1383.067   $ Sizing
 "CRtdFlo_Sys_L_Restrm_C" = 211.8611   $ Sizing
 "CRtdFlo_Sys_L_StorSm_C" = 345.7372   $ Sizing
 "CRtdFlo_Sys_M_Break_C" = 3187.501   $ Sizing
 "CRtdFlo_Sys_M_Conf_C" = 3837.636   $ Sizing
 "CRtdFlo_Sys_M_CopyRm_C" = 1095.783   $ Sizing
 "CRtdFlo_Sys_M_Cordr_C" = 6290.927   $ Sizing
 "CRtdFlo_Sys_M_Cordr_E" = 2415.914   $ Sizing
 "CRtdFlo_Sys_M_Cordr_N" = 1401.181   $ Sizing
 "CRtdFlo_Sys_M_Cordr_S" = 2513.724   $ Sizing
 "CRtdFlo_Sys_M_Cordr_W" = 2165.844   $ Sizing
 "CRtdFlo_Sys_M_LobWait_C" = 3714.234   $ Sizing
 "CRtdFlo_Sys_M_MechElec_C" = 1149.472   $ Sizing
 "CRtdFlo_Sys_M_OfficeOpn_C" = 16018.23   $ Sizing
 "CRtdFlo_Sys_M_OfficeOpn_E" = 17434.58   $ Sizing
 "CRtdFlo_Sys_M_OfficeOpn_N" = 7991.994   $ Sizing
 "CRtdFlo_Sys_M_OfficeOpn_S" = 18388.57   $ Sizing
 "CRtdFlo_Sys_M_OfficeOpn_W" = 16231.94   $ Sizing
 "CRtdFlo_Sys_M_OfficeSm_C" = 2242.926   $ Sizing
 "CRtdFlo_Sys_M_OfficeSm_E" = 12463.43   $ Sizing
 "CRtdFlo_Sys_M_OfficeSm_N" = 4961.514   $ Sizing
 "CRtdFlo_Sys_M_OfficeSm_S" = 13466.74   $ Sizing
 "CRtdFlo_Sys_M_OfficeSm_W" = 11806.66   $ Sizing
 "CRtdFlo_Sys_M_Restrm_C" = 1694.889   $ Sizing
 "CRtdFlo_Sys_M_StorSm_C" = 2993.592   $ Sizing
 "CRtdFlo_Sys_T_Break_C" = 376.9188   $ Sizing
 "CRtdFlo_Sys_T_Conf_C" = 457.3078   $ Sizing
 "CRtdFlo_Sys_T_CopyRm_C" = 131.2293   $ Sizing
 "CRtdFlo_Sys_T_Cordr_C" = 691.6617   $ Sizing
 "CRtdFlo_Sys_T_Cordr_E" = 266.4029   $ Sizing
 "CRtdFlo_Sys_T_Cordr_N" = 157.3654   $ Sizing
 "CRtdFlo_Sys_T_Cordr_S" = 285.9634   $ Sizing
 "CRtdFlo_Sys_T_Cordr_W" = 244.2211   $ Sizing
 "CRtdFlo_Sys_T_LobWait_C" = 429.0662   $ Sizing
 "CRtdFlo_Sys_T_MechElec_C" = 150.3546   $ Sizing
 "CRtdFlo_Sys_T_OfficeOpn_C" = 1849.288   $ Sizing
 "CRtdFlo_Sys_T_OfficeOpn_E" = 1983.143   $ Sizing
 "CRtdFlo_Sys_T_OfficeOpn_N" = 935.5959   $ Sizing
 "CRtdFlo_Sys_T_OfficeOpn_S" = 2143.445   $ Sizing
 "CRtdFlo_Sys_T_OfficeOpn_W" = 1866.412   $ Sizing
 "CRtdFlo_Sys_T_OfficeSm_C" = 261.4917   $ Sizing
 "CRtdFlo_Sys_T_OfficeSm_E" = 1462.089   $ Sizing
 "CRtdFlo_Sys_T_OfficeSm_N" = 592.3283   $ Sizing
 "CRtdFlo_Sys_T_OfficeSm_S" = 1606.181   $ Sizing
 "CRtdFlo_Sys_T_OfficeSm_W" = 1391.953   $ Sizing
 "CRtdFlo_Sys_T_Restrm_C" = 211.8611   $ Sizing
 "CRtdFlo_Sys_T_StorSm_C" = 334.0894   $ Sizing
 "CSupFlo_Sys_L_Break_C" = 364.3667   $ Sizing
 "CSupFlo_Sys_L_Conf_C" = 428.4743   $ Sizing
 "CSupFlo_Sys_L_CopyRm_C" = 109.6539   $ Sizing
 "CSupFlo_Sys_L_Cordr_C" = 565.4379   $ Sizing
 "CSupFlo_Sys_L_Cordr_E" = 243.4877   $ Sizing
 "CSupFlo_Sys_L_Cordr_N" = 164.7452   $ Sizing
 "CSupFlo_Sys_L_Cordr_S" = 261.3753   $ Sizing
 "CSupFlo_Sys_L_Cordr_W" = 233.0655   $ Sizing
 "CSupFlo_Sys_L_LobWait_C" = 357.4612   $ Sizing
 "CSupFlo_Sys_L_MechElec_C" = 134.1697   $ Sizing
 "CSupFlo_Sys_L_OfficeOpn_C" = 1713.103   $ Sizing
 "CSupFlo_Sys_L_OfficeOpn_E" = 1995.417   $ Sizing
 "CSupFlo_Sys_L_OfficeOpn_N" = 855.3331   $ Sizing
 "CSupFlo_Sys_L_OfficeOpn_S" = 2062.6   $ Sizing
 "CSupFlo_Sys_L_OfficeOpn_W" = 1911.313   $ Sizing
 "CSupFlo_Sys_L_OfficeSm_C" = 217.3983   $ Sizing
 "CSupFlo_Sys_L_OfficeSm_E" = 1438.873   $ Sizing
 "CSupFlo_Sys_L_OfficeSm_N" = 577.6498   $ Sizing
 "CSupFlo_Sys_L_OfficeSm_S" = 1521.518   $ Sizing
 "CSupFlo_Sys_L_OfficeSm_W" = 1383.067   $ Sizing
 "CSupFlo_Sys_L_Restrm_C" = 211.8611   $ Sizing
 "CSupFlo_Sys_L_StorSm_C" = 345.7372   $ Sizing
 "CSupFlo_Sys_M_Break_C" = 3187.501   $ Sizing
 "CSupFlo_Sys_M_Conf_C" = 3837.637   $ Sizing
 "CSupFlo_Sys_M_CopyRm_C" = 1095.783   $ Sizing
 "CSupFlo_Sys_M_Cordr_C" = 6290.927   $ Sizing
 "CSupFlo_Sys_M_Cordr_E" = 2415.914   $ Sizing
 "CSupFlo_Sys_M_Cordr_N" = 1401.181   $ Sizing
 "CSupFlo_Sys_M_Cordr_S" = 2513.724   $ Sizing
 "CSupFlo_Sys_M_Cordr_W" = 2165.844   $ Sizing
 "CSupFlo_Sys_M_LobWait_C" = 3714.234   $ Sizing
 "CSupFlo_Sys_M_MechElec_C" = 1149.472   $ Sizing
 "CSupFlo_Sys_M_OfficeOpn_C" = 16018.23   $ Sizing
 "CSupFlo_Sys_M_OfficeOpn_E" = 17434.58   $ Sizing
 "CSupFlo_Sys_M_OfficeOpn_N" = 7991.994   $ Sizing
 "CSupFlo_Sys_M_OfficeOpn_S" = 18388.57   $ Sizing
 "CSupFlo_Sys_M_OfficeOpn_W" = 16231.94   $ Sizing
 "CSupFlo_Sys_M_OfficeSm_C" = 2242.926   $ Sizing
 "CSupFlo_Sys_M_OfficeSm_E" = 12463.43   $ Sizing
 "CSupFlo_Sys_M_OfficeSm_N" = 4961.514   $ Sizing
 "CSupFlo_Sys_M_OfficeSm_S" = 13466.74   $ Sizing
 "CSupFlo_Sys_M_OfficeSm_W" = 11806.66   $ Sizing
 "CSupFlo_Sys_M_Restrm_C" = 1694.889   $ Sizing
 "CSupFlo_Sys_M_StorSm_C" = 2993.592   $ Sizing
 "CSupFlo_Sys_T_Break_C" = 376.9188   $ Sizing
 "CSupFlo_Sys_T_Conf_C" = 457.3078   $ Sizing
 "CSupFlo_Sys_T_CopyRm_C" = 131.2293   $ Sizing
 "CSupFlo_Sys_T_Cordr_C" = 691.6617   $ Sizing
 "CSupFlo_Sys_T_Cordr_E" = 266.4029   $ Sizing
 "CSupFlo_Sys_T_Cordr_N" = 157.3654   $ Sizing
 "CSupFlo_Sys_T_Cordr_S" = 285.9634   $ Sizing
 "CSupFlo_Sys_T_Cordr_W" = 244.2211   $ Sizing
 "CSupFlo_Sys_T_LobWait_C" = 429.0662   $ Sizing
 "CSupFlo_Sys_T_MechElec_C" = 150.3546   $ Sizing
 "CSupFlo_Sys_T_OfficeOpn_C" = 1849.288   $ Sizing
 "CSupFlo_Sys_T_OfficeOpn_E" = 1983.143   $ Sizing
 "CSupFlo_Sys_T_OfficeOpn_N" = 935.5959   $ Sizing
 "CSupFlo_Sys_T_OfficeOpn_S" = 2143.445   $ Sizing
 "CSupFlo_Sys_T_OfficeOpn_W" = 1866.412   $ Sizing
 "CSupFlo_Sys_T_OfficeSm_C" = 261.4917   $ Sizing
 "CSupFlo_Sys_T_OfficeSm_E" = 1462.089   $ Sizing
 "CSupFlo_Sys_T_OfficeSm_N" = 592.3283   $ Sizing
 "CSupFlo_Sys_T_OfficeSm_S" = 1606.181   $ Sizing
 "CSupFlo_Sys_T_OfficeSm_W" = 1391.953   $ Sizing
 "CSupFlo_Sys_T_Restrm_C" = 211.8611   $ Sizing
 "CSupFlo_Sys_T_StorSm_C" = 334.0894   $ Sizing
 "Cap_Boiler1" = -0.6800089   $ Sizing
 "Cap_Boiler2" = -0.6800089   $ Sizing
 "ClCap_Sys_L_Break_C" = 12399.18   $ Sizing
 "ClCap_Sys_L_Conf_C" = 18557.29   $ Sizing
 "ClCap_Sys_L_CopyRm_C" = 3731.458   $ Sizing
 "ClCap_Sys_L_Cordr_C" = 19241.51   $ Sizing
 "ClCap_Sys_L_Cordr_E" = 8285.741   $ Sizing
 "ClCap_Sys_L_Cordr_N" = 5606.179   $ Sizing
 "ClCap_Sys_L_Cordr_S" = 8894.445   $ Sizing
 "ClCap_Sys_L_Cordr_W" = 7931.079   $ Sizing
 "ClCap_Sys_L_LobWait_C" = 12164.19   $ Sizing
 "ClCap_Sys_L_MechElec_C" = 4565.713   $ Sizing
 "ClCap_Sys_L_OfficeOpn_C" = 58295.88   $ Sizing
 "ClCap_Sys_L_OfficeOpn_E" = 67902.83   $ Sizing
 "ClCap_Sys_L_OfficeOpn_N" = 29106.47   $ Sizing
 "ClCap_Sys_L_OfficeOpn_S" = 70189.05   $ Sizing
 "ClCap_Sys_L_OfficeOpn_W" = 65040.85   $ Sizing
 "ClCap_Sys_L_OfficeSm_C" = 7397.936   $ Sizing
 "ClCap_Sys_L_OfficeSm_E" = 48963.98   $ Sizing
 "ClCap_Sys_L_OfficeSm_N" = 19657.08   $ Sizing
 "ClCap_Sys_L_OfficeSm_S" = 51776.33   $ Sizing
 "ClCap_Sys_L_OfficeSm_W" = 47064.93   $ Sizing
 "ClCap_Sys_L_Restrm_C" = 7209.506   $ Sizing
 "ClCap_Sys_L_StorSm_C" = 11765.23   $ Sizing
 "ClCap_Sys_M_Break_C" = 108468.8   $ Sizing
 "ClCap_Sys_M_Conf_C" = 166208.6   $ Sizing
 "ClCap_Sys_M_CopyRm_C" = 37288.84   $ Sizing
 "ClCap_Sys_M_Cordr_C" = 214076.5   $ Sizing
 "ClCap_Sys_M_Cordr_E" = 82212.1   $ Sizing
 "ClCap_Sys_M_Cordr_N" = 47681.36   $ Sizing
 "ClCap_Sys_M_Cordr_S" = 85540.51   $ Sizing
 "ClCap_Sys_M_Cordr_W" = 73702.36   $ Sizing
 "ClCap_Sys_M_LobWait_C" = 126393.2   $ Sizing
 "ClCap_Sys_M_MechElec_C" = 39115.85   $ Sizing
 "ClCap_Sys_M_OfficeOpn_C" = 545090.9   $ Sizing
 "ClCap_Sys_M_OfficeOpn_E" = 593288.2   $ Sizing
 "ClCap_Sys_M_OfficeOpn_N" = 271962.8   $ Sizing
 "ClCap_Sys_M_OfficeOpn_S" = 625752.1   $ Sizing
 "ClCap_Sys_M_OfficeOpn_W" = 552363.3   $ Sizing
 "ClCap_Sys_M_OfficeSm_C" = 76325.41   $ Sizing
 "ClCap_Sys_M_OfficeSm_E" = 424122.9   $ Sizing
 "ClCap_Sys_M_OfficeSm_N" = 168837.4   $ Sizing
 "ClCap_Sys_M_OfficeSm_S" = 458265.1   $ Sizing
 "ClCap_Sys_M_OfficeSm_W" = 401773.4   $ Sizing
 "ClCap_Sys_M_Restrm_C" = 57676.05   $ Sizing
 "ClCap_Sys_M_StorSm_C" = 101870.1   $ Sizing
 "ClCap_Sys_T_Break_C" = 12826.32   $ Sizing
 "ClCap_Sys_T_Conf_C" = 19806.07   $ Sizing
 "ClCap_Sys_T_CopyRm_C" = 4465.655   $ Sizing
 "ClCap_Sys_T_Cordr_C" = 23536.84   $ Sizing
 "ClCap_Sys_T_Cordr_E" = 9065.53   $ Sizing
 "ClCap_Sys_T_Cordr_N" = 5355.049   $ Sizing
 "ClCap_Sys_T_Cordr_S" = 9731.165   $ Sizing
 "ClCap_Sys_T_Cordr_W" = 8310.699   $ Sizing
 "ClCap_Sys_T_LobWait_C" = 14600.87   $ Sizing
 "ClCap_Sys_T_MechElec_C" = 5116.476   $ Sizing
 "ClCap_Sys_T_OfficeOpn_C" = 62930.16   $ Sizing
 "ClCap_Sys_T_OfficeOpn_E" = 67485.17   $ Sizing
 "ClCap_Sys_T_OfficeOpn_N" = 31837.77   $ Sizing
 "ClCap_Sys_T_OfficeOpn_S" = 72940.15   $ Sizing
 "ClCap_Sys_T_OfficeOpn_W" = 63512.87   $ Sizing
 "ClCap_Sys_T_OfficeSm_C" = 8898.405   $ Sizing
 "ClCap_Sys_T_OfficeSm_E" = 49754.02   $ Sizing
 "ClCap_Sys_T_OfficeSm_N" = 20156.58   $ Sizing
 "ClCap_Sys_T_OfficeSm_S" = 54657.39   $ Sizing
 "ClCap_Sys_T_OfficeSm_W" = 47367.34   $ Sizing
 "ClCap_Sys_T_Restrm_C" = 7209.506   $ Sizing
 "ClCap_Sys_T_StorSm_C" = 11368.86   $ Sizing
 "HtCap_Sys_L_Break_C" = -10911.28   $ Sizing
 "HtCap_Sys_L_Conf_C" = -16330.41   $ Sizing
 "HtCap_Sys_L_CopyRm_C" = -3283.683   $ Sizing
 "HtCap_Sys_L_Cordr_C" = -16932.53   $ Sizing
 "HtCap_Sys_L_Cordr_E" = -7291.452   $ Sizing
 "HtCap_Sys_L_Cordr_N" = -4933.438   $ Sizing
 "HtCap_Sys_L_Cordr_S" = -7827.112   $ Sizing
 "HtCap_Sys_L_Cordr_W" = -6979.35   $ Sizing
 "HtCap_Sys_L_LobWait_C" = -10704.49   $ Sizing
 "HtCap_Sys_L_MechElec_C" = -4017.828   $ Sizing
 "HtCap_Sys_L_OfficeOpn_C" = -51300.37   $ Sizing
 "HtCap_Sys_L_OfficeOpn_E" = -59754.49   $ Sizing
 "HtCap_Sys_L_OfficeOpn_N" = -25613.7   $ Sizing
 "HtCap_Sys_L_OfficeOpn_S" = -61766.36   $ Sizing
 "HtCap_Sys_L_OfficeOpn_W" = -57235.95   $ Sizing
 "HtCap_Sys_L_OfficeSm_C" = -6510.183   $ Sizing
 "HtCap_Sys_L_OfficeSm_E" = -43088.3   $ Sizing
 "HtCap_Sys_L_OfficeSm_N" = -17298.23   $ Sizing
 "HtCap_Sys_L_OfficeSm_S" = -45563.17   $ Sizing
 "HtCap_Sys_L_OfficeSm_W" = -41417.14   $ Sizing
 "HtCap_Sys_L_Restrm_C" = -6344.366   $ Sizing
 "HtCap_Sys_L_StorSm_C" = -10353.4   $ Sizing
 "HtCap_Sys_M_Break_C" = -95452.51   $ Sizing
 "HtCap_Sys_M_Conf_C" = -146263.6   $ Sizing
 "HtCap_Sys_M_CopyRm_C" = -32814.18   $ Sizing
 "HtCap_Sys_M_Cordr_C" = -188387.3   $ Sizing
 "HtCap_Sys_M_Cordr_E" = -72346.65   $ Sizing
 "HtCap_Sys_M_Cordr_N" = -41959.59   $ Sizing
 "HtCap_Sys_M_Cordr_S" = -75275.65   $ Sizing
 "HtCap_Sys_M_Cordr_W" = -64858.07   $ Sizing
 "HtCap_Sys_M_LobWait_C" = -111226   $ Sizing
 "HtCap_Sys_M_MechElec_C" = -34421.95   $ Sizing
 "HtCap_Sys_M_OfficeOpn_C" = -479680   $ Sizing
 "HtCap_Sys_M_OfficeOpn_E" = -522093.6   $ Sizing
 "HtCap_Sys_M_OfficeOpn_N" = -239327.3   $ Sizing
 "HtCap_Sys_M_OfficeOpn_S" = -550661.8   $ Sizing
 "HtCap_Sys_M_OfficeOpn_W" = -486079.7   $ Sizing
 "HtCap_Sys_M_OfficeSm_C" = -67166.37   $ Sizing
 "HtCap_Sys_M_OfficeSm_E" = -373228.2   $ Sizing
 "HtCap_Sys_M_OfficeSm_N" = -148576.9   $ Sizing
 "HtCap_Sys_M_OfficeSm_S" = -403273.3   $ Sizing
 "HtCap_Sys_M_OfficeSm_W" = -353560.6   $ Sizing
 "HtCap_Sys_M_Restrm_C" = -50754.93   $ Sizing
 "HtCap_Sys_M_StorSm_C" = -89645.73   $ Sizing
 "HtCap_Sys_T_Break_C" = -11287.16   $ Sizing
 "HtCap_Sys_T_Conf_C" = -17429.34   $ Sizing
 "HtCap_Sys_T_CopyRm_C" = -3929.777   $ Sizing
 "HtCap_Sys_T_Cordr_C" = -20712.42   $ Sizing
 "HtCap_Sys_T_Cordr_E" = -7977.667   $ Sizing
 "HtCap_Sys_T_Cordr_N" = -4712.443   $ Sizing
 "HtCap_Sys_T_Cordr_S" = -8563.425   $ Sizing
 "HtCap_Sys_T_Cordr_W" = -7313.415   $ Sizing
 "HtCap_Sys_T_LobWait_C" = -12848.76   $ Sizing
 "HtCap_Sys_T_MechElec_C" = -4502.499   $ Sizing
 "HtCap_Sys_T_OfficeOpn_C" = -55378.54   $ Sizing
 "HtCap_Sys_T_OfficeOpn_E" = -59386.95   $ Sizing
 "HtCap_Sys_T_OfficeOpn_N" = -28017.23   $ Sizing
 "HtCap_Sys_T_OfficeOpn_S" = -64187.33   $ Sizing
 "HtCap_Sys_T_OfficeOpn_W" = -55891.33   $ Sizing
 "HtCap_Sys_T_OfficeSm_C" = -7830.597   $ Sizing
 "HtCap_Sys_T_OfficeSm_E" = -43783.54   $ Sizing
 "HtCap_Sys_T_OfficeSm_N" = -17737.79   $ Sizing
 "HtCap_Sys_T_OfficeSm_S" = -48098.5   $ Sizing
 "HtCap_Sys_T_OfficeSm_W" = -41683.25   $ Sizing
 "HtCap_Sys_T_Restrm_C" = -6344.366   $ Sizing
 "HtCap_Sys_T_StorSm_C" = -10004.6   $ Sizing
 "LpFlo_WLHPCircLoop" = 1590.804   $ Sizing
 "SUtime_Boiler1" = 0.083   $ Sizing
 "SUtime_Boiler2" = 0.083   $ Sizing
..

##include Templates\OfL_WLHP.inp
END ..
COMPUTE ..
STOP ..
