INPUT ..

##fileprefix C:\Users\jglasskatz\MASControl3\
##set1 IsSizing FALSE
##set1 CoolType DX
##set1 HeatType ELECTRIC
##set1 EU_HrRepVar 1
##set1 BldgVint 2017
##set1 BldgLoc CZ01

 ##set1 mBFMult 1   $ IP Tech: RefgChg-NRes-Std

PARAMETER
 "AltFactor" = 1.00753   $ IP Non-Tech
 "BldgEconoFlag" = 1   $ IP Non-Tech
 "Break_EWSF" = 1   $ IP Non-Tech
 "Break_LWSF" = 0.9   $ IP Non-Tech
 "CDD_DBHi10" = 65   $ IP Non-Tech
 "CDD_DBHi7" = 68   $ IP Non-Tech
 "CDD_DBHi8" = 66   $ IP Non-Tech
 "CDD_DBHi9" = 77   $ IP Non-Tech
 "CDD_DBRange10" = 17   $ IP Non-Tech
 "CDD_DBRange7" = 11   $ IP Non-Tech
 "CDD_DBRange8" = 10   $ IP Non-Tech
 "CDD_DBRange9" = 29   $ IP Non-Tech
 "CDD_Day10" = 15   $ IP Non-Tech
 "CDD_Day7" = 16   $ IP Non-Tech
 "CDD_Day8" = 20   $ IP Non-Tech
 "CDD_Day9" = 17   $ IP Non-Tech
 "CDD_HrHi10" = 12   $ IP Non-Tech
 "CDD_HrHi7" = 12   $ IP Non-Tech
 "CDD_HrHi8" = 13   $ IP Non-Tech
 "CDD_HrHi9" = 17   $ IP Non-Tech
 "CDD_HrLo10" = 6   $ IP Non-Tech
 "CDD_HrLo7" = 3   $ IP Non-Tech
 "CDD_HrLo8" = 8   $ IP Non-Tech
 "CDD_HrLo9" = 4   $ IP Non-Tech
 "CDD_WB10" = 57.53039551   $ IP Non-Tech
 "CDD_WB7" = 59.29250717   $ IP Non-Tech
 "CDD_WB8" = 60.75350189   $ IP Non-Tech
 "CDD_WB9" = 61.08643341   $ IP Non-Tech
 "CZ_Category" = Tem   $ IP Non-Tech
 "ChwVintEconoFlag" = 1   $ IP Non-Tech
 "Conference_EWSF" = 1   $ IP Non-Tech
 "Conference_LWSF" = 1.2   $ IP Non-Tech
 "CoolSetT" = 45   $ IP Non-Tech
 "CoolType" = DX   $ IP Non-Tech
 "CopyRoom_EWSF" = 1.5   $ IP Non-Tech
 "CopyRoom_LWSF" = 1.3   $ IP Non-Tech
 "CorridorStairway_EWSF" = 0.2   $ IP Non-Tech
 "CorridorStairway_LWSF" = 0.6   $ IP Non-Tech
 "DesCoolT" = 75   $ IP Non-Tech
 "DesHeatT" = 73   $ IP Non-Tech
 "EconoEnthLimit" = 28   $ IP Non-Tech
 "EconoTempLimit" = 70   $ IP Non-Tech
 "Elevation" = 203   $ IP Non-Tech
 "HDD_CloudAmt1" = 0   $ IP Non-Tech
 "HDD_DBHi1" = 53   $ IP Non-Tech
 "HDD_DBRange1" = 20   $ IP Non-Tech
 "HDD_Day1" = 15   $ IP Non-Tech
 "HDD_HrHi1" = 14   $ IP Non-Tech
 "HDD_HrLo1" = 6   $ IP Non-Tech
 "HDD_WB1" = 42.3   $ IP Non-Tech
 "HDD_WindSpd1" = 12.7   $ IP Non-Tech
 "HeatSrc" = ELECTRIC   $ IP Non-Tech
 "HeatSrcTU" = HEAT-PUMP   $ IP Non-Tech
 "HeatType" = Elec   $ IP Non-Tech
 "HeatTypeTU" = HEAT-PUMP   $ IP Non-Tech
 "IndoorFanMode" = CONTINUOUS   $ IP Non-Tech
 "KT_TransferAir" = Yes   $ IP Non-Tech
 "Latitude" = 40.8   $ IP Non-Tech
 "LobbyWaiting_EWSF" = 0.5   $ IP Non-Tech
 "LobbyWaiting_LWSF" = 0.875   $ IP Non-Tech
 "Longitude" = 124.2   $ IP Non-Tech
 "LtgMsrApplic" = ALL   $ Msr TechID: NonResLtgRefMsr-HB
 "LtgSav_CFL" = 0   $ Msr TechID: NonResLtgRefMsr-HB
 "LtgSav_EX" = 0   $ Msr TechID: NonResLtgRefMsr-HB
 "LtgSav_HB" = 0.3   $ Msr TechID: NonResLtgRefMsr-HB
 "LtgSav_LF" = 0   $ Msr TechID: NonResLtgRefMsr-HB
 "LtgSav_SP" = 0   $ Msr TechID: NonResLtgRefMsr-HB
 "MZFanMechEff" = 0.58   $ IP Non-Tech
 "MZHasRetFan" = FALSE   $ IP Non-Tech
 "MZ_RFanWPerCfm" = 0.37   $ IP Non-Tech
 "MZ_SFanWPerCfm" = 0.71   $ IP Non-Tech
 "MZ_SupFanStatic" = 4   $ IP Non-Tech
 "MaxSupT_MZ" = 95   $ IP Non-Tech
 "MaxSupT_SZ" = 100   $ IP Non-Tech
 "MaxSupT_TU" = 100   $ IP Non-Tech
 "MechElecRoom_EWSF" = 0.2   $ IP Non-Tech
 "MechElecRoom_LWSF" = 0.55   $ IP Non-Tech
 "MinCfmPerSF" = 0.4   $ IP Non-Tech
 "MinSupT" = 55   $ IP Non-Tech
 "NumBlrs" = 2   $ IP Non-Tech
 "OccCoolT" = 76   $ IP Non-Tech
 "OccHeatT" = 72   $ IP Non-Tech
 "OfficeOpen_EWSF" = 1.5   $ IP Non-Tech
 "OfficeOpen_LWSF" = 1.05   $ IP Non-Tech
 "OfficeSmall_EWSF" = 1.5   $ IP Non-Tech
 "OfficeSmall_LWSF" = 1.3   $ IP Non-Tech
 "PkgDxVintEconoFlag" = 1   $ IP Non-Tech
 "ReheatDeltaT" = 40   $ IP Non-Tech
 "Restroom_EWSF" = 0.2   $ IP Non-Tech
 "Restroom_LWSF" = 0.6   $ IP Non-Tech
 "SZFanMechEff" = 0.58   $ IP Non-Tech
 "SZHasRetFan" = FALSE   $ IP Non-Tech
 "SZ_Is_2Spd" = TRUE   $ IP Non-Tech
 "SZ_SFanWPerCfm" = 0.46   $ IP Non-Tech
 "StorageSmlCond_EWSF" = 0.2   $ IP Non-Tech
 "StorageSmlCond_LWSF" = 0.6   $ IP Non-Tech
 "TermUnitFanMechEff" = 1   $ IP Non-Tech
 "TermUnitFanMode" = INTERMITTENT   $ IP Non-Tech
 "TwrSetpt" = 80   $ IP Non-Tech
 "UnocCoolT" = 86   $ IP Non-Tech
 "UnocHeatT" = 62   $ IP Non-Tech
 "VAVMinFlow" = 0.3   $ IP Non-Tech
 "WlhpVintEconoFlag" = 1   $ IP Non-Tech
 "EconoCtrl" = OA-TEMP   $ IP Tech: AirEcono-OATemp
 "MaxOAFrac" = 0.85   $ IP Tech: AirEcono-OATemp
 "UseEconoVintApplic" = FALSE   $ IP Tech: AirEcono-OATemp
 "DuctDT" = 1   $ IP Tech: ComDuctInsul-1
 "DuctAirLoss" = 0   $ IP Tech: ComDuctLeak-0
 "DuctLossOAFrac" = 0   $ IP Tech: ComDuctLeak-0
 "ComRoofInsCalc" = FromUo   $ IP Tech: ComRoofIns-Hvy-0.03
 "ComRoofInsR" = -999   $ IP Tech: ComRoofIns-Hvy-0.03
 "ComRoofUo" = 0.03   $ IP Tech: ComRoofIns-Hvy-0.03
 "ComEWInsCalc" = FromUo   $ IP Tech: ComWallIns-MFrm-0.07
 "ComEWInsR" = -999   $ IP Tech: ComWallIns-MFrm-0.07
 "ComEWUo" = 0.07   $ IP Tech: ComWallIns-MFrm-0.07
 "ComN_SHGC" = 0.26   $ IP Tech: NResWin-ComN-0.41-0.26
 "ComN_UFactor" = 0.41   $ IP Tech: NResWin-ComN-0.41-0.26
 "ComN_VisTrans" = 0.41   $ IP Tech: NResWin-ComN-0.41-0.26
 "ComN_WinCode" = G2666   $ IP Tech: NResWin-ComN-0.41-0.26
 "ComN_WinFrmFrac" = 0.17   $ IP Tech: NResWin-ComN-0.41-0.26
 "ComN_WinFrmU" = 0.3   $ IP Tech: NResWin-ComN-0.41-0.26
 "ComO_SHGC" = 0.26   $ IP Tech: NResWin-ComO-0.41-0.26
 "ComO_UFactor" = 0.41   $ IP Tech: NResWin-ComO-0.41-0.26
 "ComO_VisTrans" = 0.41   $ IP Tech: NResWin-ComO-0.41-0.26
 "ComO_WinCode" = G2666   $ IP Tech: NResWin-ComO-0.41-0.26
 "ComO_WinFrmFrac" = 0.17   $ IP Tech: NResWin-ComO-0.41-0.26
 "ComO_WinFrmU" = 0.3   $ IP Tech: NResWin-ComO-0.41-0.26
 "PV_BF_fFlow" = PVV240to760_BF_fFlow   $ IP Tech: PVVAC-P-240to760-E10
 "PV_BF_fT" = PVV240to760_BF_fT   $ IP Tech: PVVAC-P-240to760-E10
 "PV_CEIR_fPLR" = PVV240to760_CEIR_fPLR   $ IP Tech: PVVAC-P-240to760-E10
 "PV_CLoss_fPLR" = PVV240to760_CLoss_fPLR   $ IP Tech: PVVAC-P-240to760-E10
 "PV_COP" = -1   $ IP Tech: PVVAC-P-240to760-E10
 "PV_COP47" = -1   $ IP Tech: PVVAC-P-240to760-E10
 "PV_CfmPerBtuh" = 0.02917   $ IP Tech: PVVAC-P-240to760-E10
 "PV_ClCap_fT" = PVV240to760_ClCap_fT   $ IP Tech: PVVAC-P-240to760-E10
 "PV_ClSH_fT" = PVV240to760_ClSH_fT   $ IP Tech: PVVAC-P-240to760-E10
 "PV_CoilBF" = 0.125   $ IP Tech: PVVAC-P-240to760-E10
 "PV_CondWPerBtuh" = 0   $ IP Tech: PVVAC-P-240to760-E10
 "PV_CoolSensCap" = 0.708   $ IP Tech: PVVAC-P-240to760-E10
 "PV_CoolingEIR" = 0.27383   $ IP Tech: PVVAC-P-240to760-E10
 "PV_CrnkEIR" = 0.0027   $ IP Tech: PVVAC-P-240to760-E10
 "PV_CrnkMaxT" = 50   $ IP Tech: PVVAC-P-240to760-E10
 "PV_DXType" = PVV   $ IP Tech: PVVAC-P-240to760-E10
 "PV_EER" = 9.17   $ IP Tech: PVVAC-P-240to760-E10
 "PV_EIR_fT" = PVV240to760_EIR_fT   $ IP Tech: PVVAC-P-240to760-E10
 "PV_FanEirPlr" = NA   $ IP Tech: PVVAC-P-240to760-E10
 "PV_FanWPerCfm" = 0.72   $ IP Tech: PVVAC-P-240to760-E10
 "PV_HIR_fT" = DEFAULT   $ IP Tech: PVVAC-P-240to760-E10
 "PV_HtCap_fT" = DEFAULT   $ IP Tech: PVVAC-P-240to760-E10
 "PV_HtCoolCapRatio" = -1   $ IP Tech: PVVAC-P-240to760-E10
 "PV_HtgEIR" = -1   $ IP Tech: PVVAC-P-240to760-E10
 "PV_HtgFuel" = HW   $ IP Tech: PVVAC-P-240to760-E10
 "PV_IEER" = 11.44   $ IP Tech: PVVAC-P-240to760-E10
 "PV_LowSpdCapRatio" = 0.17   $ IP Tech: PVVAC-P-240to760-E10
 "PV_LowSpdCfmRatio" = 0.24   $ IP Tech: PVVAC-P-240to760-E10
 "PV_NominalCap" = 40   $ IP Tech: PVVAC-P-240to760-E10
 "PV_NumStages" = 1   $ IP Tech: PVVAC-P-240to760-E10
 "PV_RatedEER" = 10   $ IP Tech: PVVAC-P-240to760-E10
 "PV_RatedSupMtrClass" = Premium   $ IP Tech: PVVAC-P-240to760-E10
 "PV_SizeRange" = 240to760   $ IP Tech: PVVAC-P-240to760-E10
 "PV_SubType" = AC   $ IP Tech: PVVAC-P-240to760-E10
 "PV_SupMotEff" = 0.93   $ IP Tech: PVVAC-P-240to760-E10
 "PV_Tier" = 0   $ IP Tech: PVVAC-P-240to760-E10
 "PV_TotCoolCap" = 485760   $ IP Tech: PVVAC-P-240to760-E10
 "BF_fFlow" = PSZ65to135_BF_fFlow   $ IP Tech: PkgAC2SpP-65to135-E11.2
 "BF_fT" = PSZ65to135_BF_fT   $ IP Tech: PkgAC2SpP-65to135-E11.2
 "CEIR_fPLR" = PSZ65to135_CEIR_fPLR   $ IP Tech: PkgAC2SpP-65to135-E11.2
 "CLoss_fPLR" = PSZ65to135_CLoss_fPLR   $ IP Tech: PkgAC2SpP-65to135-E11.2
 "COP" = -1   $ IP Tech: PkgAC2SpP-65to135-E11.2
 "COP47" = -1   $ IP Tech: PkgAC2SpP-65to135-E11.2
 "CfmPerBtuh" = 0.02917   $ IP Tech: PkgAC2SpP-65to135-E11.2
 "ClCap_fT" = PSZ65to135_ClCap_fT   $ IP Tech: PkgAC2SpP-65to135-E11.2
 "ClSH_fT" = PSZ65to135_ClSH_fT   $ IP Tech: PkgAC2SpP-65to135-E11.2
 "CoilBF" = 0.114   $ IP Tech: PkgAC2SpP-65to135-E11.2
 "CondWPerBtuh" = 0   $ IP Tech: PkgAC2SpP-65to135-E11.2
 "CoolSensCap" = 0.663   $ IP Tech: PkgAC2SpP-65to135-E11.2
 "CoolingEIR" = 0.26277   $ IP Tech: PkgAC2SpP-65to135-E11.2
 "CrnkEIR" = 0.0026   $ IP Tech: PkgAC2SpP-65to135-E11.2
 "CrnkMaxT" = 50   $ IP Tech: PkgAC2SpP-65to135-E11.2
 "DXType" = Pkg   $ IP Tech: PkgAC2SpP-65to135-E11.2
 "EER" = 10.83   $ IP Tech: PkgAC2SpP-65to135-E11.2
 "EIR_fT" = PSZ65to135_EIR_fT   $ IP Tech: PkgAC2SpP-65to135-E11.2
 "FanEirPlr" = TwoSpeedFan   $ IP Tech: PkgAC2SpP-65to135-E11.2
 "FanWPerCfm" = 0.4   $ IP Tech: PkgAC2SpP-65to135-E11.2
 "HIR_fT" = DEFAULT   $ IP Tech: PkgAC2SpP-65to135-E11.2
 "HtCap_fT" = DEFAULT   $ IP Tech: PkgAC2SpP-65to135-E11.2
 "HtCoolCapRatio" = -1   $ IP Tech: PkgAC2SpP-65to135-E11.2
 "HtgEIR" = -1   $ IP Tech: PkgAC2SpP-65to135-E11.2
 "HtgFuel" = Gas   $ IP Tech: PkgAC2SpP-65to135-E11.2
 "IEER" = 13.65   $ IP Tech: PkgAC2SpP-65to135-E11.2
 "LowSpdCapRatio" = 0.5   $ IP Tech: PkgAC2SpP-65to135-E11.2
 "LowSpdCfmRatio" = 0.66   $ IP Tech: PkgAC2SpP-65to135-E11.2
 "NominalCap" = 15   $ IP Tech: PkgAC2SpP-65to135-E11.2
 "NumStages" = 2   $ IP Tech: PkgAC2SpP-65to135-E11.2
 "RatedEER" = 11.2   $ IP Tech: PkgAC2SpP-65to135-E11.2
 "RatedSupMtrClass" = Premium   $ IP Tech: PkgAC2SpP-65to135-E11.2
 "SizeRange" = 65to135   $ IP Tech: PkgAC2SpP-65to135-E11.2
 "SubType" = AC   $ IP Tech: PkgAC2SpP-65to135-E11.2
 "SupMotEff" = 0.865   $ IP Tech: PkgAC2SpP-65to135-E11.2
 "Tier" = 0   $ IP Tech: PkgAC2SpP-65to135-E11.2
 "TotCoolCap" = 184140   $ IP Tech: PkgAC2SpP-65to135-E11.2
 "BFMult" = 1   $ IP Tech: RefgChg-NRes-Std
 "CoolEirMult" = 1   $ IP Tech: RefgChg-NRes-Std
 "SensCoolCapMult" = 1   $ IP Tech: RefgChg-NRes-Std
 "TotCoolCapMult" = 1   $ IP Tech: RefgChg-NRes-Std
 "SATempCtrl" = WARMEST   $ IP Tech: SATempCtrl-Warmest
 "FanEIR_fPLR" = "Variable Speed Drive FPLR"   $ IP Tech: VAVCtrl-VSD-AnyHP
 "Fan_Control" = VSD   $ IP Tech: VAVCtrl-VSD-AnyHP
 "Motor_Horsepower" = AnyHP   $ IP Tech: VAVCtrl-VSD-AnyHP
 "AltAdjFactor" = 1.007532   $ Sizing
 "CAssFlo_L_Break_CZn" = 305.4024   $ Sizing
 "CAssFlo_L_Conf_CZn" = 361.8781   $ Sizing
 "CAssFlo_L_CopyRm_CZn" = 88.37569   $ Sizing
 "CAssFlo_L_Cordr_CZn" = 565.4379   $ Sizing
 "CAssFlo_L_Cordr_EZn" = 165.5803   $ Sizing
 "CAssFlo_L_Cordr_NZn" = 94.61561   $ Sizing
 "CAssFlo_L_Cordr_SZn" = 183.6162   $ Sizing
 "CAssFlo_L_Cordr_WZn" = 167.7508   $ Sizing
 "CAssFlo_L_LobWait_CZn" = 275.5261   $ Sizing
 "CAssFlo_L_MechElec_CZn" = 134.1697   $ Sizing
 "CAssFlo_L_OfficeOpn_CZn" = 1359.025   $ Sizing
 "CAssFlo_L_OfficeOpn_EZn" = 1479.23   $ Sizing
 "CAssFlo_L_OfficeOpn_NZn" = 626.9642   $ Sizing
 "CAssFlo_L_OfficeOpn_SZn" = 1548.735   $ Sizing
 "CAssFlo_L_OfficeOpn_WZn" = 1459.728   $ Sizing
 "CAssFlo_L_OfficeSm_CZn" = 172.3432   $ Sizing
 "CAssFlo_L_OfficeSm_EZn" = 1057.305   $ Sizing
 "CAssFlo_L_OfficeSm_NZn" = 372.6901   $ Sizing
 "CAssFlo_L_OfficeSm_SZn" = 1137.75   $ Sizing
 "CAssFlo_L_OfficeSm_WZn" = 1040.134   $ Sizing
 "CAssFlo_L_Restrm_CZn" = 211.8611   $ Sizing
 "CAssFlo_L_StorSm_CZn" = 334.0894   $ Sizing
 "CAssFlo_M_Break_CZn" = 326.3077   $ Sizing
 "CAssFlo_M_Conf_CZn" = 392.1053   $ Sizing
 "CAssFlo_M_CopyRm_CZn" = 95.20245   $ Sizing
 "CAssFlo_M_Cordr_CZn" = 565.4379   $ Sizing
 "CAssFlo_M_Cordr_EZn" = 211.6141   $ Sizing
 "CAssFlo_M_Cordr_NZn" = 94.24052   $ Sizing
 "CAssFlo_M_Cordr_SZn" = 223.9508   $ Sizing
 "CAssFlo_M_Cordr_WZn" = 202.4317   $ Sizing
 "CAssFlo_M_LobWait_CZn" = 276.4011   $ Sizing
 "CAssFlo_M_MechElec_CZn" = 134.1697   $ Sizing
 "CAssFlo_M_OfficeOpn_CZn" = 1510.86   $ Sizing
 "CAssFlo_M_OfficeOpn_EZn" = 1621.228   $ Sizing
 "CAssFlo_M_OfficeOpn_NZn" = 754.5124   $ Sizing
 "CAssFlo_M_OfficeOpn_SZn" = 1708.021   $ Sizing
 "CAssFlo_M_OfficeOpn_WZn" = 1568.106   $ Sizing
 "CAssFlo_M_OfficeSm_CZn" = 205.9666   $ Sizing
 "CAssFlo_M_OfficeSm_EZn" = 1162.521   $ Sizing
 "CAssFlo_M_OfficeSm_NZn" = 469.6887   $ Sizing
 "CAssFlo_M_OfficeSm_SZn" = 1255.37   $ Sizing
 "CAssFlo_M_OfficeSm_WZn" = 1123.718   $ Sizing
 "CAssFlo_M_Restrm_CZn" = 211.8611   $ Sizing
 "CAssFlo_M_StorSm_CZn" = 334.0894   $ Sizing
 "CAssFlo_T_Break_CZn" = 313.3785   $ Sizing
 "CAssFlo_T_Conf_CZn" = 373.3902   $ Sizing
 "CAssFlo_T_CopyRm_CZn" = 89.38651   $ Sizing
 "CAssFlo_T_Cordr_CZn" = 565.4379   $ Sizing
 "CAssFlo_T_Cordr_EZn" = 186.4187   $ Sizing
 "CAssFlo_T_Cordr_NZn" = 94.24052   $ Sizing
 "CAssFlo_T_Cordr_SZn" = 207.8531   $ Sizing
 "CAssFlo_T_Cordr_WZn" = 184.3428   $ Sizing
 "CAssFlo_T_LobWait_CZn" = 275.5261   $ Sizing
 "CAssFlo_T_MechElec_CZn" = 134.1697   $ Sizing
 "CAssFlo_T_OfficeOpn_CZn" = 1431.261   $ Sizing
 "CAssFlo_T_OfficeOpn_EZn" = 1493.256   $ Sizing
 "CAssFlo_T_OfficeOpn_NZn" = 719.2004   $ Sizing
 "CAssFlo_T_OfficeOpn_SZn" = 1619.975   $ Sizing
 "CAssFlo_T_OfficeOpn_WZn" = 1464.593   $ Sizing
 "CAssFlo_T_OfficeSm_CZn" = 192.9617   $ Sizing
 "CAssFlo_T_OfficeSm_EZn" = 1088.128   $ Sizing
 "CAssFlo_T_OfficeSm_NZn" = 447.085   $ Sizing
 "CAssFlo_T_OfficeSm_SZn" = 1206.767   $ Sizing
 "CAssFlo_T_OfficeSm_WZn" = 1072.051   $ Sizing
 "CAssFlo_T_Restrm_CZn" = 211.8611   $ Sizing
 "CAssFlo_T_StorSm_CZn" = 334.0894   $ Sizing
 "CHRtFlo_L_Break_CZn" = 216.6311   $ Sizing
 "CHRtFlo_L_Conf_CZn" = 281.7439   $ Sizing
 "CHRtFlo_L_CopyRm_CZn" = 88.37569   $ Sizing
 "CHRtFlo_L_Cordr_CZn" = 212.0392   $ Sizing
 "CHRtFlo_L_Cordr_EZn" = 84.94568   $ Sizing
 "CHRtFlo_L_Cordr_NZn" = 94.61561   $ Sizing
 "CHRtFlo_L_Cordr_SZn" = 55.08486   $ Sizing
 "CHRtFlo_L_Cordr_WZn" = 83.19348   $ Sizing
 "CHRtFlo_L_LobWait_CZn" = 223.8649   $ Sizing
 "CHRtFlo_L_MechElec_CZn" = 50.31363   $ Sizing
 "CHRtFlo_L_OfficeOpn_CZn" = 413.8266   $ Sizing
 "CHRtFlo_L_OfficeOpn_EZn" = 443.7692   $ Sizing
 "CHRtFlo_L_OfficeOpn_NZn" = 313.9516   $ Sizing
 "CHRtFlo_L_OfficeOpn_SZn" = 464.6207   $ Sizing
 "CHRtFlo_L_OfficeOpn_WZn" = 437.9183   $ Sizing
 "CHRtFlo_L_OfficeSm_CZn" = 53.97937   $ Sizing
 "CHRtFlo_L_OfficeSm_EZn" = 317.1916   $ Sizing
 "CHRtFlo_L_OfficeSm_NZn" = 337.9883   $ Sizing
 "CHRtFlo_L_OfficeSm_SZn" = 341.3252   $ Sizing
 "CHRtFlo_L_OfficeSm_WZn" = 312.0402   $ Sizing
 "CHRtFlo_L_Restrm_CZn" = 63.55833   $ Sizing
 "CHRtFlo_L_StorSm_CZn" = 125.2835   $ Sizing
 "CHRtFlo_M_Break_CZn" = 216.6311   $ Sizing
 "CHRtFlo_M_Conf_CZn" = 281.7439   $ Sizing
 "CHRtFlo_M_CopyRm_CZn" = 88.37569   $ Sizing
 "CHRtFlo_M_Cordr_CZn" = 212.0392   $ Sizing
 "CHRtFlo_M_Cordr_EZn" = 70.00982   $ Sizing
 "CHRtFlo_M_Cordr_NZn" = 77.66376   $ Sizing
 "CHRtFlo_M_Cordr_SZn" = 67.18524   $ Sizing
 "CHRtFlo_M_Cordr_WZn" = 66.19798   $ Sizing
 "CHRtFlo_M_LobWait_CZn" = 223.8649   $ Sizing
 "CHRtFlo_M_MechElec_CZn" = 50.31363   $ Sizing
 "CHRtFlo_M_OfficeOpn_CZn" = 453.258   $ Sizing
 "CHRtFlo_M_OfficeOpn_EZn" = 486.3683   $ Sizing
 "CHRtFlo_M_OfficeOpn_NZn" = 226.3537   $ Sizing
 "CHRtFlo_M_OfficeOpn_SZn" = 512.4062   $ Sizing
 "CHRtFlo_M_OfficeOpn_WZn" = 470.4319   $ Sizing
 "CHRtFlo_M_OfficeSm_CZn" = 61.78997   $ Sizing
 "CHRtFlo_M_OfficeSm_EZn" = 348.7563   $ Sizing
 "CHRtFlo_M_OfficeSm_NZn" = 277.5386   $ Sizing
 "CHRtFlo_M_OfficeSm_SZn" = 376.6111   $ Sizing
 "CHRtFlo_M_OfficeSm_WZn" = 337.1154   $ Sizing
 "CHRtFlo_M_Restrm_CZn" = 63.55833   $ Sizing
 "CHRtFlo_M_StorSm_CZn" = 125.2835   $ Sizing
 "CHRtFlo_T_Break_CZn" = 216.6311   $ Sizing
 "CHRtFlo_T_Conf_CZn" = 281.7439   $ Sizing
 "CHRtFlo_T_CopyRm_CZn" = 88.37569   $ Sizing
 "CHRtFlo_T_Cordr_CZn" = 212.0392   $ Sizing
 "CHRtFlo_T_Cordr_EZn" = 62.52303   $ Sizing
 "CHRtFlo_T_Cordr_NZn" = 71.5603   $ Sizing
 "CHRtFlo_T_Cordr_SZn" = 62.35594   $ Sizing
 "CHRtFlo_T_Cordr_WZn" = 58.46074   $ Sizing
 "CHRtFlo_T_LobWait_CZn" = 223.8649   $ Sizing
 "CHRtFlo_T_MechElec_CZn" = 50.31363   $ Sizing
 "CHRtFlo_T_OfficeOpn_CZn" = 429.3784   $ Sizing
 "CHRtFlo_T_OfficeOpn_EZn" = 447.9768   $ Sizing
 "CHRtFlo_T_OfficeOpn_NZn" = 218.1946   $ Sizing
 "CHRtFlo_T_OfficeOpn_SZn" = 485.9924   $ Sizing
 "CHRtFlo_T_OfficeOpn_WZn" = 439.378   $ Sizing
 "CHRtFlo_T_OfficeSm_CZn" = 57.88851   $ Sizing
 "CHRtFlo_T_OfficeSm_EZn" = 326.4384   $ Sizing
 "CHRtFlo_T_OfficeSm_NZn" = 275.1086   $ Sizing
 "CHRtFlo_T_OfficeSm_SZn" = 362.03   $ Sizing
 "CHRtFlo_T_OfficeSm_WZn" = 321.6152   $ Sizing
 "CHRtFlo_T_Restrm_CZn" = 63.55833   $ Sizing
 "CHRtFlo_T_StorSm_CZn" = 125.2835   $ Sizing
 "CRtdFlo_Sys_L" = 9593.668   $ Sizing
 "CRtdFlo_Sys_M" = 87012.86   $ Sizing
 "CRtdFlo_Sys_T" = 10457.73   $ Sizing
 "CSupFlo_Sys_L" = 9593.668   $ Sizing
 "CSupFlo_Sys_M" = 87012.86   $ Sizing
 "CSupFlo_Sys_T" = 10457.73   $ Sizing
 "ClCap_Sys_L" = 328343   $ Sizing
 "ClCap_Sys_M" = 2978013   $ Sizing
 "ClCap_Sys_T" = 357915.4   $ Sizing
 "HRtEDB_L_Break_CZn" = 49.19364   $ Sizing
 "HRtEDB_L_Conf_CZn" = 49.19364   $ Sizing
 "HRtEDB_L_CopyRm_CZn" = 49.19364   $ Sizing
 "HRtEDB_L_Cordr_CZn" = 49.19364   $ Sizing
 "HRtEDB_L_Cordr_EZn" = 49.32561   $ Sizing
 "HRtEDB_L_Cordr_NZn" = 49.32561   $ Sizing
 "HRtEDB_L_Cordr_SZn" = 49.32561   $ Sizing
 "HRtEDB_L_Cordr_WZn" = 49.32561   $ Sizing
 "HRtEDB_L_LobWait_CZn" = 49.19364   $ Sizing
 "HRtEDB_L_MechElec_CZn" = 49.19364   $ Sizing
 "HRtEDB_L_OfficeOpn_CZn" = 49.19364   $ Sizing
 "HRtEDB_L_OfficeOpn_EZn" = 49.19364   $ Sizing
 "HRtEDB_L_OfficeOpn_NZn" = 55.81038   $ Sizing
 "HRtEDB_L_OfficeOpn_SZn" = 49.28145   $ Sizing
 "HRtEDB_L_OfficeOpn_WZn" = 49.19364   $ Sizing
 "HRtEDB_L_OfficeSm_CZn" = 49.19364   $ Sizing
 "HRtEDB_L_OfficeSm_EZn" = 49.19364   $ Sizing
 "HRtEDB_L_OfficeSm_NZn" = 49.19364   $ Sizing
 "HRtEDB_L_OfficeSm_SZn" = 49.28145   $ Sizing
 "HRtEDB_L_OfficeSm_WZn" = 49.19364   $ Sizing
 "HRtEDB_L_Restrm_CZn" = 49.19364   $ Sizing
 "HRtEDB_L_StorSm_CZn" = 49.19364   $ Sizing
 "HRtEDB_M_Break_CZn" = 49.67216   $ Sizing
 "HRtEDB_M_Conf_CZn" = 49.67216   $ Sizing
 "HRtEDB_M_CopyRm_CZn" = 49.67216   $ Sizing
 "HRtEDB_M_Cordr_CZn" = 49.67216   $ Sizing
 "HRtEDB_M_Cordr_EZn" = 49.74881   $ Sizing
 "HRtEDB_M_Cordr_NZn" = 49.74881   $ Sizing
 "HRtEDB_M_Cordr_SZn" = 49.67216   $ Sizing
 "HRtEDB_M_Cordr_WZn" = 49.74881   $ Sizing
 "HRtEDB_M_LobWait_CZn" = 49.67216   $ Sizing
 "HRtEDB_M_MechElec_CZn" = 49.67216   $ Sizing
 "HRtEDB_M_OfficeOpn_CZn" = 49.67216   $ Sizing
 "HRtEDB_M_OfficeOpn_EZn" = 49.67216   $ Sizing
 "HRtEDB_M_OfficeOpn_NZn" = 49.67216   $ Sizing
 "HRtEDB_M_OfficeOpn_SZn" = 49.67216   $ Sizing
 "HRtEDB_M_OfficeOpn_WZn" = 49.67216   $ Sizing
 "HRtEDB_M_OfficeSm_CZn" = 49.67216   $ Sizing
 "HRtEDB_M_OfficeSm_EZn" = 49.67216   $ Sizing
 "HRtEDB_M_OfficeSm_NZn" = 49.67216   $ Sizing
 "HRtEDB_M_OfficeSm_SZn" = 49.67216   $ Sizing
 "HRtEDB_M_OfficeSm_WZn" = 49.67216   $ Sizing
 "HRtEDB_M_Restrm_CZn" = 49.67216   $ Sizing
 "HRtEDB_M_StorSm_CZn" = 49.67216   $ Sizing
 "HRtEDB_T_Break_CZn" = 46.36589   $ Sizing
 "HRtEDB_T_Conf_CZn" = 46.36589   $ Sizing
 "HRtEDB_T_CopyRm_CZn" = 46.36589   $ Sizing
 "HRtEDB_T_Cordr_CZn" = 46.36589   $ Sizing
 "HRtEDB_T_Cordr_EZn" = 47.01511   $ Sizing
 "HRtEDB_T_Cordr_NZn" = 48.62403   $ Sizing
 "HRtEDB_T_Cordr_SZn" = 46.36589   $ Sizing
 "HRtEDB_T_Cordr_WZn" = 48.62403   $ Sizing
 "HRtEDB_T_LobWait_CZn" = 46.36589   $ Sizing
 "HRtEDB_T_MechElec_CZn" = 46.36589   $ Sizing
 "HRtEDB_T_OfficeOpn_CZn" = 46.36589   $ Sizing
 "HRtEDB_T_OfficeOpn_EZn" = 46.36589   $ Sizing
 "HRtEDB_T_OfficeOpn_NZn" = 46.36589   $ Sizing
 "HRtEDB_T_OfficeOpn_SZn" = 46.36589   $ Sizing
 "HRtEDB_T_OfficeOpn_WZn" = 46.36589   $ Sizing
 "HRtEDB_T_OfficeSm_CZn" = 46.36589   $ Sizing
 "HRtEDB_T_OfficeSm_EZn" = 46.36589   $ Sizing
 "HRtEDB_T_OfficeSm_NZn" = 47.01511   $ Sizing
 "HRtEDB_T_OfficeSm_SZn" = 46.92635   $ Sizing
 "HRtEDB_T_OfficeSm_WZn" = 46.36589   $ Sizing
 "HRtEDB_T_Restrm_CZn" = 46.36589   $ Sizing
 "HRtEDB_T_StorSm_CZn" = 46.36589   $ Sizing
 "HtCap_L_Break_CZn" = -10692.92   $ Sizing
 "HtCap_L_Conf_CZn" = -13906.89   $ Sizing
 "HtCap_L_CopyRm_CZn" = -4362.228   $ Sizing
 "HtCap_L_Cordr_CZn" = -10466.26   $ Sizing
 "HtCap_L_Cordr_EZn" = -4181.22   $ Sizing
 "HtCap_L_Cordr_NZn" = -4657.196   $ Sizing
 "HtCap_L_Cordr_SZn" = -2711.402   $ Sizing
 "HtCap_L_Cordr_WZn" = -4094.973   $ Sizing
 "HtCap_L_LobWait_CZn" = -11049.98   $ Sizing
 "HtCap_L_MechElec_CZn" = -2483.483   $ Sizing
 "HtCap_L_OfficeOpn_CZn" = -20426.5   $ Sizing
 "HtCap_L_OfficeOpn_EZn" = -21904.46   $ Sizing
 "HtCap_L_OfficeOpn_NZn" = -13268.03   $ Sizing
 "HtCap_L_OfficeOpn_SZn" = -22891.8   $ Sizing
 "HtCap_L_OfficeOpn_WZn" = -21615.67   $ Sizing
 "HtCap_L_OfficeSm_CZn" = -2664.424   $ Sizing
 "HtCap_L_OfficeSm_EZn" = -15656.59   $ Sizing
 "HtCap_L_OfficeSm_NZn" = -16683.12   $ Sizing
 "HtCap_L_OfficeSm_SZn" = -16817.05   $ Sizing
 "HtCap_L_OfficeSm_WZn" = -15402.32   $ Sizing
 "HtCap_L_Restrm_CZn" = -3137.242   $ Sizing
 "HtCap_L_StorSm_CZn" = -6183.999   $ Sizing
 "HtCap_M_Break_CZn" = -10581.57   $ Sizing
 "HtCap_M_Conf_CZn" = -13762.08   $ Sizing
 "HtCap_M_CopyRm_CZn" = -4316.804   $ Sizing
 "HtCap_M_Cordr_CZn" = -10357.28   $ Sizing
 "HtCap_M_Cordr_EZn" = -3414.269   $ Sizing
 "HtCap_M_Cordr_NZn" = -3787.539   $ Sizing
 "HtCap_M_Cordr_SZn" = -3281.734   $ Sizing
 "HtCap_M_Cordr_WZn" = -3228.371   $ Sizing
 "HtCap_M_LobWait_CZn" = -10934.92   $ Sizing
 "HtCap_M_MechElec_CZn" = -2457.622   $ Sizing
 "HtCap_M_OfficeOpn_CZn" = -22139.86   $ Sizing
 "HtCap_M_OfficeOpn_EZn" = -23757.17   $ Sizing
 "HtCap_M_OfficeOpn_NZn" = -11056.49   $ Sizing
 "HtCap_M_OfficeOpn_SZn" = -25029.02   $ Sizing
 "HtCap_M_OfficeOpn_WZn" = -22978.74   $ Sizing
 "HtCap_M_OfficeSm_CZn" = -3018.197   $ Sizing
 "HtCap_M_OfficeSm_EZn" = -17035.37   $ Sizing
 "HtCap_M_OfficeSm_NZn" = -13556.67   $ Sizing
 "HtCap_M_OfficeSm_SZn" = -18395.97   $ Sizing
 "HtCap_M_OfficeSm_WZn" = -16466.76   $ Sizing
 "HtCap_M_Restrm_CZn" = -3104.573   $ Sizing
 "HtCap_M_StorSm_CZn" = -6119.604   $ Sizing
 "HtCap_T_Break_CZn" = -11353.04   $ Sizing
 "HtCap_T_Conf_CZn" = -14765.43   $ Sizing
 "HtCap_T_CopyRm_CZn" = -4631.528   $ Sizing
 "HtCap_T_Cordr_CZn" = -11112.39   $ Sizing
 "HtCap_T_Cordr_EZn" = -3233.22   $ Sizing
 "HtCap_T_Cordr_NZn" = -3577.057   $ Sizing
 "HtCap_T_Cordr_SZn" = -3267.904   $ Sizing
 "HtCap_T_Cordr_WZn" = -2922.254   $ Sizing
 "HtCap_T_LobWait_CZn" = -11732.15   $ Sizing
 "HtCap_T_MechElec_CZn" = -2636.8   $ Sizing
 "HtCap_T_OfficeOpn_CZn" = -22502.55   $ Sizing
 "HtCap_T_OfficeOpn_EZn" = -23477.24   $ Sizing
 "HtCap_T_OfficeOpn_NZn" = -11434.98   $ Sizing
 "HtCap_T_OfficeOpn_SZn" = -25469.53   $ Sizing
 "HtCap_T_OfficeOpn_WZn" = -23026.6   $ Sizing
 "HtCap_T_OfficeSm_CZn" = -3033.779   $ Sizing
 "HtCap_T_OfficeSm_EZn" = -17107.74   $ Sizing
 "HtCap_T_OfficeSm_NZn" = -14226.54   $ Sizing
 "HtCap_T_OfficeSm_SZn" = -18756.08   $ Sizing
 "HtCap_T_OfficeSm_WZn" = -16854.97   $ Sizing
 "HtCap_T_Restrm_CZn" = -3330.918   $ Sizing
 "HtCap_T_StorSm_CZn" = -6565.766   $ Sizing
..

##include Templates\OfL_DX_MZ.inp
END ..
COMPUTE ..
STOP ..
