INPUT ..

##fileprefix C:\Users\jglasskatz\MASControl3\
##set1 IsSizing FALSE
##set1 CoolType WLHP
##set1 HeatType HEAT-PUMP
##set1 EU_HrRepVar 1
##set1 BldgVint 2007
##set1 BldgLoc CZ01

 ##set1 mHW_FlowCtrl Const   $ IP Tech: HwFlowCtrlCst
 ##set1 mBlrIsCond FALSE   $ IP Tech: WBlr-300to2500-80p0Ec
 ##set1 mWLHP_FlowCtrl VSD   $ IP Tech: WlhpFlowCtrlVar

PARAMETER
 "AltFactor" = 1.00753   $ IP Non-Tech
 "BldgEconoFlag" = 1   $ IP Non-Tech
 "BlrPrimLp" = WLHPCircLoop   $ IP Non-Tech
 "Break_EWSF" = 1   $ IP Non-Tech
 "Break_LWSF" = 1.1   $ IP Non-Tech
 "CDD_DBHi10" = 65   $ IP Non-Tech
 "CDD_DBHi7" = 68   $ IP Non-Tech
 "CDD_DBHi8" = 66   $ IP Non-Tech
 "CDD_DBHi9" = 77   $ IP Non-Tech
 "CDD_DBRange10" = 17   $ IP Non-Tech
 "CDD_DBRange7" = 11   $ IP Non-Tech
 "CDD_DBRange8" = 10   $ IP Non-Tech
 "CDD_DBRange9" = 29   $ IP Non-Tech
 "CDD_Day10" = 15   $ IP Non-Tech
 "CDD_Day7" = 16   $ IP Non-Tech
 "CDD_Day8" = 20   $ IP Non-Tech
 "CDD_Day9" = 17   $ IP Non-Tech
 "CDD_HrHi10" = 12   $ IP Non-Tech
 "CDD_HrHi7" = 12   $ IP Non-Tech
 "CDD_HrHi8" = 13   $ IP Non-Tech
 "CDD_HrHi9" = 17   $ IP Non-Tech
 "CDD_HrLo10" = 6   $ IP Non-Tech
 "CDD_HrLo7" = 3   $ IP Non-Tech
 "CDD_HrLo8" = 8   $ IP Non-Tech
 "CDD_HrLo9" = 4   $ IP Non-Tech
 "CDD_WB10" = 57.53039551   $ IP Non-Tech
 "CDD_WB7" = 59.29250717   $ IP Non-Tech
 "CDD_WB8" = 60.75350189   $ IP Non-Tech
 "CDD_WB9" = 61.08643341   $ IP Non-Tech
 "CZ_Category" = Tem   $ IP Non-Tech
 "ChwVintEconoFlag" = 1   $ IP Non-Tech
 "Conference_EWSF" = 1   $ IP Non-Tech
 "Conference_LWSF" = 1.4   $ IP Non-Tech
 "CoolSetT" = 45   $ IP Non-Tech
 "CoolType" = WLHP   $ IP Non-Tech
 "CopyRoom_EWSF" = 1.5   $ IP Non-Tech
 "CopyRoom_LWSF" = 1.3   $ IP Non-Tech
 "CorridorStairway_EWSF" = 0.2   $ IP Non-Tech
 "CorridorStairway_LWSF" = 0.6   $ IP Non-Tech
 "CwPipeHead" = 40   $ IP Non-Tech
 "DesCoolT" = 75   $ IP Non-Tech
 "DesHeatT" = 73   $ IP Non-Tech
 "EconoEnthLimit" = 28   $ IP Non-Tech
 "EconoTempLimit" = 70   $ IP Non-Tech
 "Elevation" = 203   $ IP Non-Tech
 "HDD_CloudAmt1" = 0   $ IP Non-Tech
 "HDD_DBHi1" = 53   $ IP Non-Tech
 "HDD_DBRange1" = 20   $ IP Non-Tech
 "HDD_Day1" = 15   $ IP Non-Tech
 "HDD_HrHi1" = 14   $ IP Non-Tech
 "HDD_HrLo1" = 6   $ IP Non-Tech
 "HDD_WB1" = 42.3   $ IP Non-Tech
 "HDD_WindSpd1" = 12.7   $ IP Non-Tech
 "HeatSrc" = HEAT-PUMP   $ IP Non-Tech
 "HeatSrcTU" = HEAT-PUMP   $ IP Non-Tech
 "HeatType" = WLHP   $ IP Non-Tech
 "HeatTypeTU" = HEAT-PUMP   $ IP Non-Tech
 "IndoorFanMode" = CONTINUOUS   $ IP Non-Tech
 "KT_TransferAir" = No   $ IP Non-Tech
 "Latitude" = 40.8   $ IP Non-Tech
 "LobbyWaiting_EWSF" = 0.5   $ IP Non-Tech
 "LobbyWaiting_LWSF" = 1.3   $ IP Non-Tech
 "Longitude" = 124.2   $ IP Non-Tech
 "LtgMsrApplic" = ALL   $ Msr TechID: NonResLtgRefMsr-LF
 "LtgSav_CFL" = 0   $ Msr TechID: NonResLtgRefMsr-LF
 "LtgSav_EX" = 0   $ Msr TechID: NonResLtgRefMsr-LF
 "LtgSav_HB" = 0   $ Msr TechID: NonResLtgRefMsr-LF
 "LtgSav_LF" = 0.3   $ Msr TechID: NonResLtgRefMsr-LF
 "LtgSav_SP" = 0   $ Msr TechID: NonResLtgRefMsr-LF
 "MZFanMechEff" = 0.54   $ IP Non-Tech
 "MZHasRetFan" = FALSE   $ IP Non-Tech
 "MZ_RFanWPerCfm" = 0.37   $ IP Non-Tech
 "MZ_SFanWPerCfm" = 0.71   $ IP Non-Tech
 "MZ_SupFanStatic" = 0.75   $ IP Non-Tech
 "MaxSupT_MZ" = 90   $ IP Non-Tech
 "MaxSupT_SZ" = 90   $ IP Non-Tech
 "MaxSupT_TU" = 90   $ IP Non-Tech
 "MechElecRoom_EWSF" = 0.2   $ IP Non-Tech
 "MechElecRoom_LWSF" = 0.7   $ IP Non-Tech
 "MinCfmPerSF" = 0.4   $ IP Non-Tech
 "MinSupT" = 55   $ IP Non-Tech
 "NumBlrs" = 2   $ IP Non-Tech
 "OccCoolT" = 76   $ IP Non-Tech
 "OccHeatT" = 72   $ IP Non-Tech
 "OfficeOpen_EWSF" = 1.5   $ IP Non-Tech
 "OfficeOpen_LWSF" = 1.2   $ IP Non-Tech
 "OfficeSmall_EWSF" = 1.5   $ IP Non-Tech
 "OfficeSmall_LWSF" = 1.3   $ IP Non-Tech
 "PkgDxVintEconoFlag" = 0   $ IP Non-Tech
 "Restroom_EWSF" = 0.2   $ IP Non-Tech
 "Restroom_LWSF" = 0.6   $ IP Non-Tech
 "SZFanMechEff" = 0.54   $ IP Non-Tech
 "SZHasRetFan" = FALSE   $ IP Non-Tech
 "SZ_Is_2Spd" = FALSE   $ IP Non-Tech
 "SZ_SFanWPerCfm" = 0.46   $ IP Non-Tech
 "SZ_SupFanStatic" = 0.75   $ IP Non-Tech
 "StorageSmlCond_EWSF" = 0.2   $ IP Non-Tech
 "StorageSmlCond_LWSF" = 0.6   $ IP Non-Tech
 "T24GlzTbl" = CZTbl   $ IP Non-Tech
 "TermUnitFanMechEff" = 1   $ IP Non-Tech
 "TermUnitFanMode" = INTERMITTENT   $ IP Non-Tech
 "TermUnitFanWPerCfm" = 0.175   $ IP Non-Tech
 "TwrEIR" = 0.0329   $ IP Non-Tech
 "TwrPipeHead" = 15   $ IP Non-Tech
 "TwrSetpt" = 80   $ IP Non-Tech
 "TwrStaticHead" = 0   $ IP Non-Tech
 "UnocCoolT" = 86   $ IP Non-Tech
 "UnocHeatT" = 62   $ IP Non-Tech
 "WLHPLoopHeatSetpt" = 65   $ IP Non-Tech
 "WlhpVintEconoFlag" = 0   $ IP Non-Tech
 "EconoCtrl" = OA-TEMP   $ IP Tech: AirEcono-OAT-ByVint
 "MaxOAFrac" = 0.85   $ IP Tech: AirEcono-OAT-ByVint
 "UseEconoVintApplic" = TRUE   $ IP Tech: AirEcono-OAT-ByVint
 "DuctDT" = 1   $ IP Tech: ComDuctInsul-1
 "DuctAirLoss" = 0   $ IP Tech: ComDuctLeak-0
 "DuctLossOAFrac" = 0   $ IP Tech: ComDuctLeak-0
 "ComRoofInsCalc" = FromUo   $ IP Tech: ComRoofIns-Hvy-0.05
 "ComRoofInsR" = -999   $ IP Tech: ComRoofIns-Hvy-0.05
 "ComRoofUo" = 0.05   $ IP Tech: ComRoofIns-Hvy-0.05
 "ComEWInsCalc" = FromUo   $ IP Tech: ComWallIns-MFrm-0.13
 "ComEWInsR" = -999   $ IP Tech: ComWallIns-MFrm-0.13
 "ComEWUo" = 0.13   $ IP Tech: ComWallIns-MFrm-0.13
 "HW_FlowCtrl" = Const   $ IP Tech: HwFlowCtrlCst
 "HW_HdSensLoc" = AT-COILS   $ IP Tech: HwFlowCtrlCst
 "HW_HdSptCtrl" = FIXED   $ IP Tech: HwFlowCtrlCst
 "HWP_Encl" = Any   $ IP Tech: HwPumpMtrEff-HI
 "HWP_MotClass" = HI-EFF   $ IP Tech: HwPumpMtrEff-HI
 "HWP_MotHP" = Any   $ IP Tech: HwPumpMtrEff-HI
 "HWP_NEMA_DC" = Any   $ IP Tech: HwPumpMtrEff-HI
 "HWP_RPM" = Any   $ IP Tech: HwPumpMtrEff-HI
 "HWP_Volt" = Any   $ IP Tech: HwPumpMtrEff-HI
 "ComN_SHGC" = 0.47   $ IP Tech: NResWin-ComN-0.47-0.47
 "ComN_UFactor" = 0.47   $ IP Tech: NResWin-ComN-0.47-0.47
 "ComN_VisTrans" = 0.75   $ IP Tech: NResWin-ComN-0.47-0.47
 "ComN_WinCode" = G2633   $ IP Tech: NResWin-ComN-0.47-0.47
 "ComN_WinFrmFrac" = 0.17   $ IP Tech: NResWin-ComN-0.47-0.47
 "ComN_WinFrmU" = 0.3   $ IP Tech: NResWin-ComN-0.47-0.47
 "ComO_SHGC" = 0.43   $ IP Tech: NResWin-ComO-0.47-0.43
 "ComO_UFactor" = 0.47   $ IP Tech: NResWin-ComO-0.47-0.43
 "ComO_VisTrans" = 0.68   $ IP Tech: NResWin-ComO-0.47-0.43
 "ComO_WinCode" = G2663   $ IP Tech: NResWin-ComO-0.47-0.43
 "ComO_WinFrmFrac" = 0.17   $ IP Tech: NResWin-ComO-0.47-0.43
 "ComO_WinFrmU" = 0.3   $ IP Tech: NResWin-ComO-0.47-0.43
 "TwrFanCtrl" = TWO-SPEED-FAN   $ IP Tech: TwrFanCtrl-2sp
 "TFan_Encl" = Any   $ IP Tech: TwrFanMtrEff-HI
 "TFan_MotClass" = HI-EFF   $ IP Tech: TwrFanMtrEff-HI
 "TFan_MotHP" = Any   $ IP Tech: TwrFanMtrEff-HI
 "TFan_NEMA_DC" = Any   $ IP Tech: TwrFanMtrEff-HI
 "TFan_RPM" = Any   $ IP Tech: TwrFanMtrEff-HI
 "TFan_Volt" = Any   $ IP Tech: TwrFanMtrEff-HI
 "BlrCapRange" = 300to2500   $ IP Tech: WBlr-300to2500-80p0Ec
 "BlrDraftType" = FDr   $ IP Tech: WBlr-300to2500-80p0Ec
 "BlrEff" = 0.8   $ IP Tech: WBlr-300to2500-80p0Ec
 "BlrEffUnits" = Ec   $ IP Tech: WBlr-300to2500-80p0Ec
 "BlrEt" = 0.78   $ IP Tech: WBlr-300to2500-80p0Ec
 "BlrFluid" = Wtr   $ IP Tech: WBlr-300to2500-80p0Ec
 "BlrIsCond" = FALSE   $ IP Tech: WBlr-300to2500-80p0Ec
 "BlrT" = 165   $ IP Tech: WBlr-300to2500-80p0Ec
 "COP47" = 4.813   $ IP Tech: WLHP1SpH-ge17-E12-C4.2
 "CfmPerBtuh" = 0.033333333   $ IP Tech: WLHP1SpH-ge17-E12-C4.2
 "CoilBF" = 0.15   $ IP Tech: WLHP1SpH-ge17-E12-C4.2
 "CoolingEIR" = 0.23327   $ IP Tech: WLHP1SpH-ge17-E12-C4.2
 "DXType" = WLHP   $ IP Tech: WLHP1SpH-ge17-E12-C4.2
 "EER" = 12   $ IP Tech: WLHP1SpH-ge17-E12-C4.2
 "FanWPerCfm" = 0.35   $ IP Tech: WLHP1SpH-ge17-E12-C4.2
 "HtCoolCapRatio" = 0.88   $ IP Tech: WLHP1SpH-ge17-E12-C4.2
 "HtgEIR" = 0.20776   $ IP Tech: WLHP1SpH-ge17-E12-C4.2
 "NumStages" = 1   $ IP Tech: WLHP1SpH-ge17-E12-C4.2
 "RatedSupMtrClass" = HiEff   $ IP Tech: WLHP1SpH-ge17-E12-C4.2
 "SubType" = 1SpH   $ IP Tech: WLHP1SpH-ge17-E12-C4.2
 "UnitCOP" = 4.2   $ IP Tech: WLHP1SpH-ge17-E12-C4.2
 "WLHP_FlowCtrl" = VSD   $ IP Tech: WlhpFlowCtrlVar
 "WLHP_HdSensLoc" = AT-COILS   $ IP Tech: WlhpFlowCtrlVar
 "WLHP_HdSptCtrl" = FIXED   $ IP Tech: WlhpFlowCtrlVar
 "WLHP_Encl" = Any   $ IP Tech: WlhpPumpMtrEff-HI
 "WLHP_MotClass" = HI-EFF   $ IP Tech: WlhpPumpMtrEff-HI
 "WLHP_MotHP" = Any   $ IP Tech: WlhpPumpMtrEff-HI
 "WLHP_NEMA_DC" = Any   $ IP Tech: WlhpPumpMtrEff-HI
 "WLHP_RPM" = Any   $ IP Tech: WlhpPumpMtrEff-HI
 "WLHP_Volt" = Any   $ IP Tech: WlhpPumpMtrEff-HI
 "AltAdjFactor" = 1.007532   $ Sizing
 "CAssFlo_L_Break_CZn" = 362.9926   $ Sizing
 "CAssFlo_L_Conf_CZn" = 419.5012   $ Sizing
 "CAssFlo_L_CopyRm_CZn" = 105.6218   $ Sizing
 "CAssFlo_L_Cordr_CZn" = 565.4379   $ Sizing
 "CAssFlo_L_Cordr_EZn" = 187.925   $ Sizing
 "CAssFlo_L_Cordr_NZn" = 138.9712   $ Sizing
 "CAssFlo_L_Cordr_SZn" = 199.9362   $ Sizing
 "CAssFlo_L_Cordr_WZn" = 179.8671   $ Sizing
 "CAssFlo_L_LobWait_CZn" = 348.3496   $ Sizing
 "CAssFlo_L_MechElec_CZn" = 134.1697   $ Sizing
 "CAssFlo_L_OfficeOpn_CZn" = 1656.348   $ Sizing
 "CAssFlo_L_OfficeOpn_EZn" = 1623.292   $ Sizing
 "CAssFlo_L_OfficeOpn_NZn" = 781.8248   $ Sizing
 "CAssFlo_L_OfficeOpn_SZn" = 1658.414   $ Sizing
 "CAssFlo_L_OfficeOpn_WZn" = 1563.201   $ Sizing
 "CAssFlo_L_OfficeSm_CZn" = 207.6052   $ Sizing
 "CAssFlo_L_OfficeSm_EZn" = 1138.812   $ Sizing
 "CAssFlo_L_OfficeSm_NZn" = 482.6292   $ Sizing
 "CAssFlo_L_OfficeSm_SZn" = 1192.558   $ Sizing
 "CAssFlo_L_OfficeSm_WZn" = 1085.397   $ Sizing
 "CAssFlo_L_Restrm_CZn" = 211.8611   $ Sizing
 "CAssFlo_L_StorSm_CZn" = 334.0894   $ Sizing
 "CAssFlo_M_Break_CZn" = 401.3611   $ Sizing
 "CAssFlo_M_Conf_CZn" = 467.4053   $ Sizing
 "CAssFlo_M_CopyRm_CZn" = 131.9716   $ Sizing
 "CAssFlo_M_Cordr_CZn" = 740.9568   $ Sizing
 "CAssFlo_M_Cordr_EZn" = 244.6469   $ Sizing
 "CAssFlo_M_Cordr_NZn" = 144.5675   $ Sizing
 "CAssFlo_M_Cordr_SZn" = 248.0404   $ Sizing
 "CAssFlo_M_Cordr_WZn" = 216.1046   $ Sizing
 "CAssFlo_M_LobWait_CZn" = 448.9865   $ Sizing
 "CAssFlo_M_MechElec_CZn" = 135.5953   $ Sizing
 "CAssFlo_M_OfficeOpn_CZn" = 1941.374   $ Sizing
 "CAssFlo_M_OfficeOpn_EZn" = 1816.144   $ Sizing
 "CAssFlo_M_OfficeOpn_NZn" = 936.3799   $ Sizing
 "CAssFlo_M_OfficeOpn_SZn" = 1860.689   $ Sizing
 "CAssFlo_M_OfficeOpn_WZn" = 1681.858   $ Sizing
 "CAssFlo_M_OfficeSm_CZn" = 266.5185   $ Sizing
 "CAssFlo_M_OfficeSm_EZn" = 1265.647   $ Sizing
 "CAssFlo_M_OfficeSm_NZn" = 559.5379   $ Sizing
 "CAssFlo_M_OfficeSm_SZn" = 1328.828   $ Sizing
 "CAssFlo_M_OfficeSm_WZn" = 1171.61   $ Sizing
 "CAssFlo_M_Restrm_CZn" = 211.8611   $ Sizing
 "CAssFlo_M_StorSm_CZn" = 352.1516   $ Sizing
 "CAssFlo_T_Break_CZn" = 375.4326   $ Sizing
 "CAssFlo_T_Conf_CZn" = 446.8749   $ Sizing
 "CAssFlo_T_CopyRm_CZn" = 124.869   $ Sizing
 "CAssFlo_T_Cordr_CZn" = 656.7316   $ Sizing
 "CAssFlo_T_Cordr_EZn" = 217.5123   $ Sizing
 "CAssFlo_T_Cordr_NZn" = 126.9247   $ Sizing
 "CAssFlo_T_Cordr_SZn" = 225.1696   $ Sizing
 "CAssFlo_T_Cordr_WZn" = 194.6816   $ Sizing
 "CAssFlo_T_LobWait_CZn" = 415.4232   $ Sizing
 "CAssFlo_T_MechElec_CZn" = 140.762   $ Sizing
 "CAssFlo_T_OfficeOpn_CZn" = 1812.703   $ Sizing
 "CAssFlo_T_OfficeOpn_EZn" = 1647.071   $ Sizing
 "CAssFlo_T_OfficeOpn_NZn" = 863.7791   $ Sizing
 "CAssFlo_T_OfficeOpn_SZn" = 1732.866   $ Sizing
 "CAssFlo_T_OfficeOpn_WZn" = 1541.633   $ Sizing
 "CAssFlo_T_OfficeSm_CZn" = 252.3021   $ Sizing
 "CAssFlo_T_OfficeSm_EZn" = 1183.087   $ Sizing
 "CAssFlo_T_OfficeSm_NZn" = 536.0798   $ Sizing
 "CAssFlo_T_OfficeSm_SZn" = 1266.122   $ Sizing
 "CAssFlo_T_OfficeSm_WZn" = 1102.732   $ Sizing
 "CAssFlo_T_Restrm_CZn" = 211.8611   $ Sizing
 "CAssFlo_T_StorSm_CZn" = 334.0894   $ Sizing
 "CHRtFlo_Sys_L_Break_C" = 362.9926   $ Sizing
 "CHRtFlo_Sys_L_Conf_C" = 419.5012   $ Sizing
 "CHRtFlo_Sys_L_CopyRm_C" = 105.6218   $ Sizing
 "CHRtFlo_Sys_L_Cordr_C" = 565.4378   $ Sizing
 "CHRtFlo_Sys_L_Cordr_E" = 187.925   $ Sizing
 "CHRtFlo_Sys_L_Cordr_N" = 138.9712   $ Sizing
 "CHRtFlo_Sys_L_Cordr_S" = 199.9362   $ Sizing
 "CHRtFlo_Sys_L_Cordr_W" = 179.8671   $ Sizing
 "CHRtFlo_Sys_L_LobWait_C" = 348.3496   $ Sizing
 "CHRtFlo_Sys_L_MechElec_C" = 134.1697   $ Sizing
 "CHRtFlo_Sys_L_OfficeOpn_C" = 1656.348   $ Sizing
 "CHRtFlo_Sys_L_OfficeOpn_E" = 1623.292   $ Sizing
 "CHRtFlo_Sys_L_OfficeOpn_N" = 781.8248   $ Sizing
 "CHRtFlo_Sys_L_OfficeOpn_S" = 1658.414   $ Sizing
 "CHRtFlo_Sys_L_OfficeOpn_W" = 1563.201   $ Sizing
 "CHRtFlo_Sys_L_OfficeSm_C" = 207.6052   $ Sizing
 "CHRtFlo_Sys_L_OfficeSm_E" = 1138.812   $ Sizing
 "CHRtFlo_Sys_L_OfficeSm_N" = 482.6292   $ Sizing
 "CHRtFlo_Sys_L_OfficeSm_S" = 1192.558   $ Sizing
 "CHRtFlo_Sys_L_OfficeSm_W" = 1085.397   $ Sizing
 "CHRtFlo_Sys_L_Restrm_C" = 211.8611   $ Sizing
 "CHRtFlo_Sys_L_StorSm_C" = 334.0894   $ Sizing
 "CHRtFlo_Sys_M_Break_C" = 3210.889   $ Sizing
 "CHRtFlo_Sys_M_Conf_C" = 3739.243   $ Sizing
 "CHRtFlo_Sys_M_CopyRm_C" = 1055.773   $ Sizing
 "CHRtFlo_Sys_M_Cordr_C" = 5927.654   $ Sizing
 "CHRtFlo_Sys_M_Cordr_E" = 1957.175   $ Sizing
 "CHRtFlo_Sys_M_Cordr_N" = 1156.54   $ Sizing
 "CHRtFlo_Sys_M_Cordr_S" = 1984.323   $ Sizing
 "CHRtFlo_Sys_M_Cordr_W" = 1728.837   $ Sizing
 "CHRtFlo_Sys_M_LobWait_C" = 3591.892   $ Sizing
 "CHRtFlo_Sys_M_MechElec_C" = 1084.762   $ Sizing
 "CHRtFlo_Sys_M_OfficeOpn_C" = 15531   $ Sizing
 "CHRtFlo_Sys_M_OfficeOpn_E" = 14529.15   $ Sizing
 "CHRtFlo_Sys_M_OfficeOpn_N" = 7491.04   $ Sizing
 "CHRtFlo_Sys_M_OfficeOpn_S" = 14885.52   $ Sizing
 "CHRtFlo_Sys_M_OfficeOpn_W" = 13454.87   $ Sizing
 "CHRtFlo_Sys_M_OfficeSm_C" = 2132.148   $ Sizing
 "CHRtFlo_Sys_M_OfficeSm_E" = 10125.17   $ Sizing
 "CHRtFlo_Sys_M_OfficeSm_N" = 4476.303   $ Sizing
 "CHRtFlo_Sys_M_OfficeSm_S" = 10630.62   $ Sizing
 "CHRtFlo_Sys_M_OfficeSm_W" = 9372.881   $ Sizing
 "CHRtFlo_Sys_M_Restrm_C" = 1694.889   $ Sizing
 "CHRtFlo_Sys_M_StorSm_C" = 2817.212   $ Sizing
 "CHRtFlo_Sys_T_Break_C" = 375.4326   $ Sizing
 "CHRtFlo_Sys_T_Conf_C" = 446.8749   $ Sizing
 "CHRtFlo_Sys_T_CopyRm_C" = 124.8691   $ Sizing
 "CHRtFlo_Sys_T_Cordr_C" = 656.7316   $ Sizing
 "CHRtFlo_Sys_T_Cordr_E" = 217.5123   $ Sizing
 "CHRtFlo_Sys_T_Cordr_N" = 126.9247   $ Sizing
 "CHRtFlo_Sys_T_Cordr_S" = 225.1696   $ Sizing
 "CHRtFlo_Sys_T_Cordr_W" = 194.6816   $ Sizing
 "CHRtFlo_Sys_T_LobWait_C" = 415.4232   $ Sizing
 "CHRtFlo_Sys_T_MechElec_C" = 140.762   $ Sizing
 "CHRtFlo_Sys_T_OfficeOpn_C" = 1812.703   $ Sizing
 "CHRtFlo_Sys_T_OfficeOpn_E" = 1647.071   $ Sizing
 "CHRtFlo_Sys_T_OfficeOpn_N" = 863.7792   $ Sizing
 "CHRtFlo_Sys_T_OfficeOpn_S" = 1732.866   $ Sizing
 "CHRtFlo_Sys_T_OfficeOpn_W" = 1541.633   $ Sizing
 "CHRtFlo_Sys_T_OfficeSm_C" = 252.3021   $ Sizing
 "CHRtFlo_Sys_T_OfficeSm_E" = 1183.087   $ Sizing
 "CHRtFlo_Sys_T_OfficeSm_N" = 536.0798   $ Sizing
 "CHRtFlo_Sys_T_OfficeSm_S" = 1266.122   $ Sizing
 "CHRtFlo_Sys_T_OfficeSm_W" = 1102.732   $ Sizing
 "CHRtFlo_Sys_T_Restrm_C" = 211.8611   $ Sizing
 "CHRtFlo_Sys_T_StorSm_C" = 334.0894   $ Sizing
 "CRtdFlo_Sys_L_Break_C" = 362.9926   $ Sizing
 "CRtdFlo_Sys_L_Conf_C" = 419.5012   $ Sizing
 "CRtdFlo_Sys_L_CopyRm_C" = 105.6218   $ Sizing
 "CRtdFlo_Sys_L_Cordr_C" = 565.4379   $ Sizing
 "CRtdFlo_Sys_L_Cordr_E" = 187.925   $ Sizing
 "CRtdFlo_Sys_L_Cordr_N" = 138.9712   $ Sizing
 "CRtdFlo_Sys_L_Cordr_S" = 199.9362   $ Sizing
 "CRtdFlo_Sys_L_Cordr_W" = 179.8671   $ Sizing
 "CRtdFlo_Sys_L_LobWait_C" = 348.3496   $ Sizing
 "CRtdFlo_Sys_L_MechElec_C" = 134.1697   $ Sizing
 "CRtdFlo_Sys_L_OfficeOpn_C" = 1656.348   $ Sizing
 "CRtdFlo_Sys_L_OfficeOpn_E" = 1623.292   $ Sizing
 "CRtdFlo_Sys_L_OfficeOpn_N" = 781.8248   $ Sizing
 "CRtdFlo_Sys_L_OfficeOpn_S" = 1658.414   $ Sizing
 "CRtdFlo_Sys_L_OfficeOpn_W" = 1563.201   $ Sizing
 "CRtdFlo_Sys_L_OfficeSm_C" = 207.6052   $ Sizing
 "CRtdFlo_Sys_L_OfficeSm_E" = 1138.812   $ Sizing
 "CRtdFlo_Sys_L_OfficeSm_N" = 482.6292   $ Sizing
 "CRtdFlo_Sys_L_OfficeSm_S" = 1192.558   $ Sizing
 "CRtdFlo_Sys_L_OfficeSm_W" = 1085.397   $ Sizing
 "CRtdFlo_Sys_L_Restrm_C" = 211.8611   $ Sizing
 "CRtdFlo_Sys_L_StorSm_C" = 334.0894   $ Sizing
 "CRtdFlo_Sys_M_Break_C" = 3210.888   $ Sizing
 "CRtdFlo_Sys_M_Conf_C" = 3739.243   $ Sizing
 "CRtdFlo_Sys_M_CopyRm_C" = 1055.773   $ Sizing
 "CRtdFlo_Sys_M_Cordr_C" = 5927.654   $ Sizing
 "CRtdFlo_Sys_M_Cordr_E" = 1957.175   $ Sizing
 "CRtdFlo_Sys_M_Cordr_N" = 1156.54   $ Sizing
 "CRtdFlo_Sys_M_Cordr_S" = 1984.323   $ Sizing
 "CRtdFlo_Sys_M_Cordr_W" = 1728.837   $ Sizing
 "CRtdFlo_Sys_M_LobWait_C" = 3591.892   $ Sizing
 "CRtdFlo_Sys_M_MechElec_C" = 1084.762   $ Sizing
 "CRtdFlo_Sys_M_OfficeOpn_C" = 15531   $ Sizing
 "CRtdFlo_Sys_M_OfficeOpn_E" = 14529.15   $ Sizing
 "CRtdFlo_Sys_M_OfficeOpn_N" = 7491.04   $ Sizing
 "CRtdFlo_Sys_M_OfficeOpn_S" = 14885.51   $ Sizing
 "CRtdFlo_Sys_M_OfficeOpn_W" = 13454.87   $ Sizing
 "CRtdFlo_Sys_M_OfficeSm_C" = 2132.148   $ Sizing
 "CRtdFlo_Sys_M_OfficeSm_E" = 10125.17   $ Sizing
 "CRtdFlo_Sys_M_OfficeSm_N" = 4476.303   $ Sizing
 "CRtdFlo_Sys_M_OfficeSm_S" = 10630.62   $ Sizing
 "CRtdFlo_Sys_M_OfficeSm_W" = 9372.88   $ Sizing
 "CRtdFlo_Sys_M_Restrm_C" = 1694.889   $ Sizing
 "CRtdFlo_Sys_M_StorSm_C" = 2817.212   $ Sizing
 "CRtdFlo_Sys_T_Break_C" = 375.4326   $ Sizing
 "CRtdFlo_Sys_T_Conf_C" = 446.8749   $ Sizing
 "CRtdFlo_Sys_T_CopyRm_C" = 124.8691   $ Sizing
 "CRtdFlo_Sys_T_Cordr_C" = 656.7316   $ Sizing
 "CRtdFlo_Sys_T_Cordr_E" = 217.5123   $ Sizing
 "CRtdFlo_Sys_T_Cordr_N" = 126.9247   $ Sizing
 "CRtdFlo_Sys_T_Cordr_S" = 225.1696   $ Sizing
 "CRtdFlo_Sys_T_Cordr_W" = 194.6816   $ Sizing
 "CRtdFlo_Sys_T_LobWait_C" = 415.4232   $ Sizing
 "CRtdFlo_Sys_T_MechElec_C" = 140.762   $ Sizing
 "CRtdFlo_Sys_T_OfficeOpn_C" = 1812.703   $ Sizing
 "CRtdFlo_Sys_T_OfficeOpn_E" = 1647.071   $ Sizing
 "CRtdFlo_Sys_T_OfficeOpn_N" = 863.7791   $ Sizing
 "CRtdFlo_Sys_T_OfficeOpn_S" = 1732.866   $ Sizing
 "CRtdFlo_Sys_T_OfficeOpn_W" = 1541.633   $ Sizing
 "CRtdFlo_Sys_T_OfficeSm_C" = 252.3021   $ Sizing
 "CRtdFlo_Sys_T_OfficeSm_E" = 1183.087   $ Sizing
 "CRtdFlo_Sys_T_OfficeSm_N" = 536.0798   $ Sizing
 "CRtdFlo_Sys_T_OfficeSm_S" = 1266.122   $ Sizing
 "CRtdFlo_Sys_T_OfficeSm_W" = 1102.732   $ Sizing
 "CRtdFlo_Sys_T_Restrm_C" = 211.8611   $ Sizing
 "CRtdFlo_Sys_T_StorSm_C" = 334.0894   $ Sizing
 "CSupFlo_Sys_L_Break_C" = 362.9926   $ Sizing
 "CSupFlo_Sys_L_Conf_C" = 419.5012   $ Sizing
 "CSupFlo_Sys_L_CopyRm_C" = 105.6218   $ Sizing
 "CSupFlo_Sys_L_Cordr_C" = 565.4379   $ Sizing
 "CSupFlo_Sys_L_Cordr_E" = 187.925   $ Sizing
 "CSupFlo_Sys_L_Cordr_N" = 138.9712   $ Sizing
 "CSupFlo_Sys_L_Cordr_S" = 199.9362   $ Sizing
 "CSupFlo_Sys_L_Cordr_W" = 179.8671   $ Sizing
 "CSupFlo_Sys_L_LobWait_C" = 348.3496   $ Sizing
 "CSupFlo_Sys_L_MechElec_C" = 134.1697   $ Sizing
 "CSupFlo_Sys_L_OfficeOpn_C" = 1656.348   $ Sizing
 "CSupFlo_Sys_L_OfficeOpn_E" = 1623.292   $ Sizing
 "CSupFlo_Sys_L_OfficeOpn_N" = 781.8248   $ Sizing
 "CSupFlo_Sys_L_OfficeOpn_S" = 1658.414   $ Sizing
 "CSupFlo_Sys_L_OfficeOpn_W" = 1563.201   $ Sizing
 "CSupFlo_Sys_L_OfficeSm_C" = 207.6052   $ Sizing
 "CSupFlo_Sys_L_OfficeSm_E" = 1138.812   $ Sizing
 "CSupFlo_Sys_L_OfficeSm_N" = 482.6292   $ Sizing
 "CSupFlo_Sys_L_OfficeSm_S" = 1192.558   $ Sizing
 "CSupFlo_Sys_L_OfficeSm_W" = 1085.397   $ Sizing
 "CSupFlo_Sys_L_Restrm_C" = 211.8611   $ Sizing
 "CSupFlo_Sys_L_StorSm_C" = 334.0894   $ Sizing
 "CSupFlo_Sys_M_Break_C" = 3210.888   $ Sizing
 "CSupFlo_Sys_M_Conf_C" = 3739.243   $ Sizing
 "CSupFlo_Sys_M_CopyRm_C" = 1055.773   $ Sizing
 "CSupFlo_Sys_M_Cordr_C" = 5927.654   $ Sizing
 "CSupFlo_Sys_M_Cordr_E" = 1957.175   $ Sizing
 "CSupFlo_Sys_M_Cordr_N" = 1156.54   $ Sizing
 "CSupFlo_Sys_M_Cordr_S" = 1984.323   $ Sizing
 "CSupFlo_Sys_M_Cordr_W" = 1728.837   $ Sizing
 "CSupFlo_Sys_M_LobWait_C" = 3591.892   $ Sizing
 "CSupFlo_Sys_M_MechElec_C" = 1084.762   $ Sizing
 "CSupFlo_Sys_M_OfficeOpn_C" = 15531   $ Sizing
 "CSupFlo_Sys_M_OfficeOpn_E" = 14529.15   $ Sizing
 "CSupFlo_Sys_M_OfficeOpn_N" = 7491.04   $ Sizing
 "CSupFlo_Sys_M_OfficeOpn_S" = 14885.51   $ Sizing
 "CSupFlo_Sys_M_OfficeOpn_W" = 13454.87   $ Sizing
 "CSupFlo_Sys_M_OfficeSm_C" = 2132.148   $ Sizing
 "CSupFlo_Sys_M_OfficeSm_E" = 10125.17   $ Sizing
 "CSupFlo_Sys_M_OfficeSm_N" = 4476.303   $ Sizing
 "CSupFlo_Sys_M_OfficeSm_S" = 10630.62   $ Sizing
 "CSupFlo_Sys_M_OfficeSm_W" = 9372.88   $ Sizing
 "CSupFlo_Sys_M_Restrm_C" = 1694.889   $ Sizing
 "CSupFlo_Sys_M_StorSm_C" = 2817.212   $ Sizing
 "CSupFlo_Sys_T_Break_C" = 375.4326   $ Sizing
 "CSupFlo_Sys_T_Conf_C" = 446.8749   $ Sizing
 "CSupFlo_Sys_T_CopyRm_C" = 124.869   $ Sizing
 "CSupFlo_Sys_T_Cordr_C" = 656.7316   $ Sizing
 "CSupFlo_Sys_T_Cordr_E" = 217.5123   $ Sizing
 "CSupFlo_Sys_T_Cordr_N" = 126.9247   $ Sizing
 "CSupFlo_Sys_T_Cordr_S" = 225.1696   $ Sizing
 "CSupFlo_Sys_T_Cordr_W" = 194.6816   $ Sizing
 "CSupFlo_Sys_T_LobWait_C" = 415.4232   $ Sizing
 "CSupFlo_Sys_T_MechElec_C" = 140.762   $ Sizing
 "CSupFlo_Sys_T_OfficeOpn_C" = 1812.703   $ Sizing
 "CSupFlo_Sys_T_OfficeOpn_E" = 1647.071   $ Sizing
 "CSupFlo_Sys_T_OfficeOpn_N" = 863.7791   $ Sizing
 "CSupFlo_Sys_T_OfficeOpn_S" = 1732.866   $ Sizing
 "CSupFlo_Sys_T_OfficeOpn_W" = 1541.633   $ Sizing
 "CSupFlo_Sys_T_OfficeSm_C" = 252.3021   $ Sizing
 "CSupFlo_Sys_T_OfficeSm_E" = 1183.087   $ Sizing
 "CSupFlo_Sys_T_OfficeSm_N" = 536.0798   $ Sizing
 "CSupFlo_Sys_T_OfficeSm_S" = 1266.122   $ Sizing
 "CSupFlo_Sys_T_OfficeSm_W" = 1102.732   $ Sizing
 "CSupFlo_Sys_T_Restrm_C" = 211.8611   $ Sizing
 "CSupFlo_Sys_T_StorSm_C" = 334.0894   $ Sizing
 "Cap_Boiler1" = -0.6580456   $ Sizing
 "Cap_Boiler2" = -0.6580456   $ Sizing
 "ClCap_Sys_L_Break_C" = 12352.42   $ Sizing
 "ClCap_Sys_L_Conf_C" = 18168.66   $ Sizing
 "ClCap_Sys_L_CopyRm_C" = 3594.246   $ Sizing
 "ClCap_Sys_L_Cordr_C" = 19241.51   $ Sizing
 "ClCap_Sys_L_Cordr_E" = 6394.976   $ Sizing
 "ClCap_Sys_L_Cordr_N" = 4729.107   $ Sizing
 "ClCap_Sys_L_Cordr_S" = 6803.711   $ Sizing
 "ClCap_Sys_L_Cordr_W" = 6120.768   $ Sizing
 "ClCap_Sys_L_LobWait_C" = 11854.13   $ Sizing
 "ClCap_Sys_L_MechElec_C" = 4565.713   $ Sizing
 "ClCap_Sys_L_OfficeOpn_C" = 56364.52   $ Sizing
 "ClCap_Sys_L_OfficeOpn_E" = 55239.66   $ Sizing
 "ClCap_Sys_L_OfficeOpn_N" = 26605.03   $ Sizing
 "ClCap_Sys_L_OfficeOpn_S" = 56434.82   $ Sizing
 "ClCap_Sys_L_OfficeOpn_W" = 53194.78   $ Sizing
 "ClCap_Sys_L_OfficeSm_C" = 7064.68   $ Sizing
 "ClCap_Sys_L_OfficeSm_E" = 38753.08   $ Sizing
 "ClCap_Sys_L_OfficeSm_N" = 16423.58   $ Sizing
 "ClCap_Sys_L_OfficeSm_S" = 40582.05   $ Sizing
 "ClCap_Sys_L_OfficeSm_W" = 36935.43   $ Sizing
 "ClCap_Sys_L_Restrm_C" = 7209.506   $ Sizing
 "ClCap_Sys_L_StorSm_C" = 11368.86   $ Sizing
 "ClCap_Sys_M_Break_C" = 109264.6   $ Sizing
 "ClCap_Sys_M_Conf_C" = 161947.2   $ Sizing
 "ClCap_Sys_M_CopyRm_C" = 35927.33   $ Sizing
 "ClCap_Sys_M_Cordr_C" = 201714.5   $ Sizing
 "ClCap_Sys_M_Cordr_E" = 66601.49   $ Sizing
 "ClCap_Sys_M_Cordr_N" = 39356.36   $ Sizing
 "ClCap_Sys_M_Cordr_S" = 67525.34   $ Sizing
 "ClCap_Sys_M_Cordr_W" = 58831.29   $ Sizing
 "ClCap_Sys_M_LobWait_C" = 122229.9   $ Sizing
 "ClCap_Sys_M_MechElec_C" = 36913.81   $ Sizing
 "ClCap_Sys_M_OfficeOpn_C" = 528510.5   $ Sizing
 "ClCap_Sys_M_OfficeOpn_E" = 494418.4   $ Sizing
 "ClCap_Sys_M_OfficeOpn_N" = 254915.6   $ Sizing
 "ClCap_Sys_M_OfficeOpn_S" = 506545.2   $ Sizing
 "ClCap_Sys_M_OfficeOpn_W" = 457861.1   $ Sizing
 "ClCap_Sys_M_OfficeSm_C" = 72555.72   $ Sizing
 "ClCap_Sys_M_OfficeSm_E" = 344553.6   $ Sizing
 "ClCap_Sys_M_OfficeSm_N" = 152325.9   $ Sizing
 "ClCap_Sys_M_OfficeSm_S" = 361753.8   $ Sizing
 "ClCap_Sys_M_OfficeSm_W" = 318953.5   $ Sizing
 "ClCap_Sys_M_Restrm_C" = 57676.05   $ Sizing
 "ClCap_Sys_M_StorSm_C" = 95868.05   $ Sizing
 "ClCap_Sys_T_Break_C" = 12775.75   $ Sizing
 "ClCap_Sys_T_Conf_C" = 19354.22   $ Sizing
 "ClCap_Sys_T_CopyRm_C" = 4249.219   $ Sizing
 "ClCap_Sys_T_Cordr_C" = 22348.18   $ Sizing
 "ClCap_Sys_T_Cordr_E" = 7401.814   $ Sizing
 "ClCap_Sys_T_Cordr_N" = 4319.17   $ Sizing
 "ClCap_Sys_T_Cordr_S" = 7662.385   $ Sizing
 "ClCap_Sys_T_Cordr_W" = 6624.898   $ Sizing
 "ClCap_Sys_T_LobWait_C" = 14136.6   $ Sizing
 "ClCap_Sys_T_MechElec_C" = 4790.046   $ Sizing
 "ClCap_Sys_T_OfficeOpn_C" = 61685.2   $ Sizing
 "ClCap_Sys_T_OfficeOpn_E" = 56048.83   $ Sizing
 "ClCap_Sys_T_OfficeOpn_N" = 29393.89   $ Sizing
 "ClCap_Sys_T_OfficeOpn_S" = 58968.41   $ Sizing
 "ClCap_Sys_T_OfficeOpn_W" = 52460.85   $ Sizing
 "ClCap_Sys_T_OfficeSm_C" = 8585.69   $ Sizing
 "ClCap_Sys_T_OfficeSm_E" = 40259.73   $ Sizing
 "ClCap_Sys_T_OfficeSm_N" = 18242.48   $ Sizing
 "ClCap_Sys_T_OfficeSm_S" = 43085.39   $ Sizing
 "ClCap_Sys_T_OfficeSm_W" = 37525.3   $ Sizing
 "ClCap_Sys_T_Restrm_C" = 7209.506   $ Sizing
 "ClCap_Sys_T_StorSm_C" = 11368.86   $ Sizing
 "HtCap_Sys_L_Break_C" = -10870.13   $ Sizing
 "HtCap_Sys_L_Conf_C" = -15988.42   $ Sizing
 "HtCap_Sys_L_CopyRm_C" = -3162.936   $ Sizing
 "HtCap_Sys_L_Cordr_C" = -16932.53   $ Sizing
 "HtCap_Sys_L_Cordr_E" = -5627.579   $ Sizing
 "HtCap_Sys_L_Cordr_N" = -4161.615   $ Sizing
 "HtCap_Sys_L_Cordr_S" = -5987.266   $ Sizing
 "HtCap_Sys_L_Cordr_W" = -5386.276   $ Sizing
 "HtCap_Sys_L_LobWait_C" = -10431.63   $ Sizing
 "HtCap_Sys_L_MechElec_C" = -4017.828   $ Sizing
 "HtCap_Sys_L_OfficeOpn_C" = -49600.77   $ Sizing
 "HtCap_Sys_L_OfficeOpn_E" = -48610.9   $ Sizing
 "HtCap_Sys_L_OfficeOpn_N" = -23412.43   $ Sizing
 "HtCap_Sys_L_OfficeOpn_S" = -49662.64   $ Sizing
 "HtCap_Sys_L_OfficeOpn_W" = -46811.41   $ Sizing
 "HtCap_Sys_L_OfficeSm_C" = -6216.918   $ Sizing
 "HtCap_Sys_L_OfficeSm_E" = -34102.71   $ Sizing
 "HtCap_Sys_L_OfficeSm_N" = -14452.75   $ Sizing
 "HtCap_Sys_L_OfficeSm_S" = -35712.2   $ Sizing
 "HtCap_Sys_L_OfficeSm_W" = -32503.17   $ Sizing
 "HtCap_Sys_L_Restrm_C" = -6344.366   $ Sizing
 "HtCap_Sys_L_StorSm_C" = -10004.6   $ Sizing
 "HtCap_Sys_M_Break_C" = -96152.86   $ Sizing
 "HtCap_Sys_M_Conf_C" = -142513.5   $ Sizing
 "HtCap_Sys_M_CopyRm_C" = -31616.05   $ Sizing
 "HtCap_Sys_M_Cordr_C" = -177508.8   $ Sizing
 "HtCap_Sys_M_Cordr_E" = -58609.31   $ Sizing
 "HtCap_Sys_M_Cordr_N" = -34633.59   $ Sizing
 "HtCap_Sys_M_Cordr_S" = -59422.3   $ Sizing
 "HtCap_Sys_M_Cordr_W" = -51771.54   $ Sizing
 "HtCap_Sys_M_LobWait_C" = -107562.4   $ Sizing
 "HtCap_Sys_M_MechElec_C" = -32484.15   $ Sizing
 "HtCap_Sys_M_OfficeOpn_C" = -465089.3   $ Sizing
 "HtCap_Sys_M_OfficeOpn_E" = -435088.2   $ Sizing
 "HtCap_Sys_M_OfficeOpn_N" = -224325.7   $ Sizing
 "HtCap_Sys_M_OfficeOpn_S" = -445759.8   $ Sizing
 "HtCap_Sys_M_OfficeOpn_W" = -402917.8   $ Sizing
 "HtCap_Sys_M_OfficeSm_C" = -63849.03   $ Sizing
 "HtCap_Sys_M_OfficeSm_E" = -303207.2   $ Sizing
 "HtCap_Sys_M_OfficeSm_N" = -134046.8   $ Sizing
 "HtCap_Sys_M_OfficeSm_S" = -318343.3   $ Sizing
 "HtCap_Sys_M_OfficeSm_W" = -280679.1   $ Sizing
 "HtCap_Sys_M_Restrm_C" = -50754.93   $ Sizing
 "HtCap_Sys_M_StorSm_C" = -84363.89   $ Sizing
 "HtCap_Sys_T_Break_C" = -11242.66   $ Sizing
 "HtCap_Sys_T_Conf_C" = -17031.71   $ Sizing
 "HtCap_Sys_T_CopyRm_C" = -3739.313   $ Sizing
 "HtCap_Sys_T_Cordr_C" = -19666.4   $ Sizing
 "HtCap_Sys_T_Cordr_E" = -6513.597   $ Sizing
 "HtCap_Sys_T_Cordr_N" = -3800.87   $ Sizing
 "HtCap_Sys_T_Cordr_S" = -6742.899   $ Sizing
 "HtCap_Sys_T_Cordr_W" = -5829.91   $ Sizing
 "HtCap_Sys_T_LobWait_C" = -12440.21   $ Sizing
 "HtCap_Sys_T_MechElec_C" = -4215.241   $ Sizing
 "HtCap_Sys_T_OfficeOpn_C" = -54282.98   $ Sizing
 "HtCap_Sys_T_OfficeOpn_E" = -49322.97   $ Sizing
 "HtCap_Sys_T_OfficeOpn_N" = -25866.62   $ Sizing
 "HtCap_Sys_T_OfficeOpn_S" = -51892.2   $ Sizing
 "HtCap_Sys_T_OfficeOpn_W" = -46165.55   $ Sizing
 "HtCap_Sys_T_OfficeSm_C" = -7555.408   $ Sizing
 "HtCap_Sys_T_OfficeSm_E" = -35428.56   $ Sizing
 "HtCap_Sys_T_OfficeSm_N" = -16053.38   $ Sizing
 "HtCap_Sys_T_OfficeSm_S" = -37915.14   $ Sizing
 "HtCap_Sys_T_OfficeSm_W" = -33022.27   $ Sizing
 "HtCap_Sys_T_Restrm_C" = -6344.366   $ Sizing
 "HtCap_Sys_T_StorSm_C" = -10004.6   $ Sizing
 "LpFlo_WLHPCircLoop" = 1373.935   $ Sizing
 "SUtime_Boiler1" = 0.083   $ Sizing
 "SUtime_Boiler2" = 0.083   $ Sizing
..

##include Templates\OfL_WLHP.inp
END ..
COMPUTE ..
STOP ..
