INPUT ..

##fileprefix C:\Users\jglasskatz\MASControl3\
##set1 IsSizing FALSE
##set1 CoolType DX
##set1 HeatType FURNACE
##set1 EU_HrRepVar 0
##set1 BldgVint 2017
##set1 BldgLoc CZ13

 ##set1 mBFMult 1   $ IP Tech: RefgChg-NRes-Std

PARAMETER
 "AltFactor" = 1.01244   $ IP Non-Tech
 "BF_fFlow" = SpltAC1Sp-ge45_BF_fFlow   $ Msr (Multi)TechID: StdNResSplitAC-45to55
 "BF_fT" = SpltAC1Sp-ge45_BF_fT   $ Msr (Multi)TechID: StdNResSplitAC-45to55
 "BldgEconoFlag" = 1   $ IP Non-Tech
 "Break_EWSF" = 1   $ IP Non-Tech
 "Break_LWSF" = 0.9   $ IP Non-Tech
 "CDD_DBHi10" = 86   $ IP Non-Tech
 "CDD_DBHi7" = 105   $ IP Non-Tech
 "CDD_DBHi8" = 102   $ IP Non-Tech
 "CDD_DBHi9" = 100   $ IP Non-Tech
 "CDD_DBRange10" = 28   $ IP Non-Tech
 "CDD_DBRange7" = 28   $ IP Non-Tech
 "CDD_DBRange8" = 28   $ IP Non-Tech
 "CDD_DBRange9" = 30   $ IP Non-Tech
 "CDD_Day10" = 15   $ IP Non-Tech
 "CDD_Day7" = 16   $ IP Non-Tech
 "CDD_Day8" = 20   $ IP Non-Tech
 "CDD_Day9" = 17   $ IP Non-Tech
 "CDD_HrHi10" = 16   $ IP Non-Tech
 "CDD_HrHi7" = 18   $ IP Non-Tech
 "CDD_HrHi8" = 18   $ IP Non-Tech
 "CDD_HrHi9" = 15   $ IP Non-Tech
 "CDD_HrLo10" = 5   $ IP Non-Tech
 "CDD_HrLo7" = 6   $ IP Non-Tech
 "CDD_HrLo8" = 7   $ IP Non-Tech
 "CDD_HrLo9" = 3   $ IP Non-Tech
 "CDD_WB10" = 62.19377518   $ IP Non-Tech
 "CDD_WB7" = 72.76699829   $ IP Non-Tech
 "CDD_WB8" = 69.69030762   $ IP Non-Tech
 "CDD_WB9" = 71.78777313   $ IP Non-Tech
 "CEIR_fPLR_Hot" = SpltAC1Sp-ge45_CEIR_fPLR_Hot   $ Msr (Multi)TechID: StdNResSplitAC-45to55
 "CEIR_fPLR_Mod" = SpltAC1Sp-ge45_CEIR_fPLR_Mod   $ Msr (Multi)TechID: StdNResSplitAC-45to55
 "CEIR_fPLR_Tem" = SpltAC1Sp-ge45_CEIR_fPLR_Tem   $ Msr (Multi)TechID: StdNResSplitAC-45to55
 "CLoss_fPLR_Hot" = SpltAC1Sp-ge45_CLoss_fPLR_Hot   $ Msr (Multi)TechID: StdNResSplitAC-45to55
 "CLoss_fPLR_Mod" = SpltAC1Sp-ge45_CLoss_fPLR_Mod   $ Msr (Multi)TechID: StdNResSplitAC-45to55
 "CLoss_fPLR_Tem" = SpltAC1Sp-ge45_CLoss_fPLR_Tem   $ Msr (Multi)TechID: StdNResSplitAC-45to55
 "COP47" = 0   $ Msr (Multi)TechID: StdNResSplitAC-45to55
 "CZ_Category" = Mod   $ IP Non-Tech
 "CapRange" = ge45   $ Msr (Multi)TechID: StdNResSplitAC-45to55
 "CfmPerBtuh" = 0.03263   $ Msr (Multi)TechID: StdNResSplitAC-45to55
 "ChwVintEconoFlag" = 1   $ IP Non-Tech
 "ClCap_fT" = SpltAC1Sp-ge45_ClCap_fT   $ Msr (Multi)TechID: StdNResSplitAC-45to55
 "ClSH_fT" = SpltAC1Sp-ge45_ClSH_fT   $ Msr (Multi)TechID: StdNResSplitAC-45to55
 "CoilBF" = 0.106518182   $ Msr (Multi)TechID: StdNResSplitAC-45to55
 "CondWPerBtuh" = 0   $ Msr (Multi)TechID: StdNResSplitAC-45to55
 "Conference_EWSF" = 1   $ IP Non-Tech
 "Conference_LWSF" = 1.2   $ IP Non-Tech
 "CoolSensCap" = 0.759218182   $ Msr (Multi)TechID: StdNResSplitAC-45to55
 "CoolSetT" = 45   $ IP Non-Tech
 "CoolType" = DX   $ IP Non-Tech
 "CoolingEIR" = 0.2466   $ Msr (Multi)TechID: StdNResSplitAC-45to55
 "CopyRoom_EWSF" = 1.5   $ IP Non-Tech
 "CopyRoom_LWSF" = 1.3   $ IP Non-Tech
 "CorridorStairway_EWSF" = 0.2   $ IP Non-Tech
 "CorridorStairway_LWSF" = 0.6   $ IP Non-Tech
 "CrnkEIR" = 0.002466   $ Msr (Multi)TechID: StdNResSplitAC-45to55
 "CrnkMaxT" = 50   $ Msr (Multi)TechID: StdNResSplitAC-45to55
 "DXType" = SplitSEER   $ Msr (Multi)TechID: StdNResSplitAC-45to55
 "DesCoolT" = 75   $ IP Non-Tech
 "DesHeatT" = 73   $ IP Non-Tech
 "EER" = 11.81793103   $ Msr (Multi)TechID: StdNResSplitAC-45to55
 "EIR_fT" = SpltAC1Sp-ge45_EIR_fT   $ Msr (Multi)TechID: StdNResSplitAC-45to55
 "EconoCtrl" = FIXED   $ Msr (Multi)TechID: StdNResSplitAC-45to55
 "EconoEnthLimit" = 28   $ IP Non-Tech
 "EconoTempLimit" = 75   $ IP Non-Tech
 "Elevation" = 335   $ IP Non-Tech
 "FanEirPlr" = TwoSpeedFan   $ Msr (Multi)TechID: StdNResSplitAC-45to55
 "FanWPerCfm" = 0.294   $ Msr (Multi)TechID: StdNResSplitAC-45to55
 "HDD_CloudAmt1" = 0   $ IP Non-Tech
 "HDD_DBHi1" = 40.29372406   $ IP Non-Tech
 "HDD_DBRange1" = 8   $ IP Non-Tech
 "HDD_Day1" = 15   $ IP Non-Tech
 "HDD_HrHi1" = 22   $ IP Non-Tech
 "HDD_HrLo1" = 7   $ IP Non-Tech
 "HDD_WB1" = 38.2   $ IP Non-Tech
 "HDD_WindSpd1" = 10.4   $ IP Non-Tech
 "HIR_fT" = 0   $ Msr (Multi)TechID: StdNResSplitAC-45to55
 "HSPF" = 0   $ Msr (Multi)TechID: StdNResSplitAC-45to55
 "HeatSrc" = FURNACE   $ IP Non-Tech
 "HeatSrcTU" = HEAT-PUMP   $ IP Non-Tech
 "HeatType" = GasFurn   $ IP Non-Tech
 "HeatTypeTU" = HEAT-PUMP   $ IP Non-Tech
 "HtCap_fT" = 0   $ Msr (Multi)TechID: StdNResSplitAC-45to55
 "HtCoolCapRatio" = 0   $ Msr (Multi)TechID: StdNResSplitAC-45to55
 "HtgEIR" = 0   $ Msr (Multi)TechID: StdNResSplitAC-45to55
 "IndoorFanMode" = CONTINUOUS   $ IP Non-Tech
 "KT_TransferAir" = Yes   $ IP Non-Tech
 "Latitude" = 36.8   $ IP Non-Tech
 "LobbyWaiting_EWSF" = 0.5   $ IP Non-Tech
 "LobbyWaiting_LWSF" = 0.875   $ IP Non-Tech
 "Longitude" = 119.7   $ IP Non-Tech
 "LowSpdCapRatio" = 1   $ Msr (Multi)TechID: StdNResSplitAC-45to55
 "LowSpdCfmRatio" = 1   $ Msr (Multi)TechID: StdNResSplitAC-45to55
 "MZFanMechEff" = 0.58   $ IP Non-Tech
 "MZHasRetFan" = FALSE   $ IP Non-Tech
 "MZ_RFanWPerCfm" = 0.37   $ IP Non-Tech
 "MZ_SFanWPerCfm" = 0.71   $ IP Non-Tech
 "MZ_SupFanStatic" = 2.25   $ IP Non-Tech
 "MaxOAFrac" = 1   $ Msr (Multi)TechID: StdNResSplitAC-45to55
 "MaxSupT_MZ" = 100   $ IP Non-Tech
 "MaxSupT_SZ" = 100   $ IP Non-Tech
 "MaxSupT_TU" = 90   $ IP Non-Tech
 "MechElecRoom_EWSF" = 0.2   $ IP Non-Tech
 "MechElecRoom_LWSF" = 0.55   $ IP Non-Tech
 "MinCfmPerSF" = 0.4   $ IP Non-Tech
 "MinSupT" = 55   $ IP Non-Tech
 "NumStages" = 1   $ Msr (Multi)TechID: StdNResSplitAC-45to55
 "OccCoolT" = 76   $ IP Non-Tech
 "OccHeatT" = 72   $ IP Non-Tech
 "OfficeOpen_EWSF" = 1.5   $ IP Non-Tech
 "OfficeOpen_LWSF" = 1.05   $ IP Non-Tech
 "OfficeSmall_EWSF" = 1.5   $ IP Non-Tech
 "OfficeSmall_LWSF" = 1.3   $ IP Non-Tech
 "PkgDxVintEconoFlag" = 1   $ IP Non-Tech
 "Restroom_EWSF" = 0.2   $ IP Non-Tech
 "Restroom_LWSF" = 0.6   $ IP Non-Tech
 "SEER" = 14   $ Msr (Multi)TechID: StdNResSplitAC-45to55
 "SZFanMechEff" = 0.58   $ IP Non-Tech
 "SZHasRetFan" = FALSE   $ IP Non-Tech
 "SZ_Is_2Spd" = TRUE   $ IP Non-Tech
 "SZ_SFanWPerCfm" = 0.46   $ IP Non-Tech
 "SZ_SupFanStatic" = 0.75   $ IP Non-Tech
 "Sector" = Any   $ Msr (Multi)TechID: StdNResSplitAC-45to55
 "StorageSmlCond_EWSF" = 0.2   $ IP Non-Tech
 "StorageSmlCond_LWSF" = 0.6   $ IP Non-Tech
 "SubType" = AC   $ Msr (Multi)TechID: StdNResSplitAC-45to55
 "TermUnitFanMechEff" = 1   $ IP Non-Tech
 "TermUnitFanMode" = INTERMITTENT   $ IP Non-Tech
 "TotCoolCap" = 52519.36364   $ Msr (Multi)TechID: StdNResSplitAC-45to55
 "TwrSetpt" = 82.7   $ IP Non-Tech
 "UnocCoolT" = 86   $ IP Non-Tech
 "UnocHeatT" = 62   $ IP Non-Tech
 "UseEconoVintApplic" = FALSE   $ Msr (Multi)TechID: StdNResSplitAC-45to55
 "WlhpVintEconoFlag" = 1   $ IP Non-Tech
 "DuctDT" = 1   $ IP Tech: ComDuctInsul-1
 "DuctAirLoss" = 0   $ IP Tech: ComDuctLeak-0
 "DuctLossOAFrac" = 0   $ IP Tech: ComDuctLeak-0
 "ComRoofInsCalc" = FromUo   $ IP Tech: ComRoofIns-Hvy-0.03
 "ComRoofInsR" = -999   $ IP Tech: ComRoofIns-Hvy-0.03
 "ComRoofUo" = 0.03   $ IP Tech: ComRoofIns-Hvy-0.03
 "ComEWInsCalc" = FromUo   $ IP Tech: ComWallIns-MFrm-0.06
 "ComEWInsR" = -999   $ IP Tech: ComWallIns-MFrm-0.06
 "ComEWUo" = 0.06   $ IP Tech: ComWallIns-MFrm-0.06
 "ComN_SHGC" = 0.26   $ IP Tech: NResWin-ComN-0.41-0.26
 "ComN_UFactor" = 0.41   $ IP Tech: NResWin-ComN-0.41-0.26
 "ComN_VisTrans" = 0.41   $ IP Tech: NResWin-ComN-0.41-0.26
 "ComN_WinCode" = G2666   $ IP Tech: NResWin-ComN-0.41-0.26
 "ComN_WinFrmFrac" = 0.17   $ IP Tech: NResWin-ComN-0.41-0.26
 "ComN_WinFrmU" = 0.3   $ IP Tech: NResWin-ComN-0.41-0.26
 "ComO_SHGC" = 0.26   $ IP Tech: NResWin-ComO-0.41-0.26
 "ComO_UFactor" = 0.41   $ IP Tech: NResWin-ComO-0.41-0.26
 "ComO_VisTrans" = 0.41   $ IP Tech: NResWin-ComO-0.41-0.26
 "ComO_WinCode" = G2666   $ IP Tech: NResWin-ComO-0.41-0.26
 "ComO_WinFrmFrac" = 0.17   $ IP Tech: NResWin-ComO-0.41-0.26
 "ComO_WinFrmU" = 0.3   $ IP Tech: NResWin-ComO-0.41-0.26
 "LtgMsrApplic" = ALL   $ IP Tech: NonResLtgRefPre
 "LtgSav_CFL" = 0   $ IP Tech: NonResLtgRefPre
 "LtgSav_EX" = 0   $ IP Tech: NonResLtgRefPre
 "LtgSav_HB" = 0   $ IP Tech: NonResLtgRefPre
 "LtgSav_LF" = 0   $ IP Tech: NonResLtgRefPre
 "LtgSav_SP" = 0   $ IP Tech: NonResLtgRefPre
 "CEIR_fPLR" = PSZ65to135_CEIR_fPLR   $ IP Tech: PkgAC2SpP-65to135-E11
 "CLoss_fPLR" = PSZ65to135_CLoss_fPLR   $ IP Tech: PkgAC2SpP-65to135-E11
 "COP" = -1   $ IP Tech: PkgAC2SpP-65to135-E11
 "HtgFuel" = Gas   $ IP Tech: PkgAC2SpP-65to135-E11
 "IEER" = 13.35   $ IP Tech: PkgAC2SpP-65to135-E11
 "NominalCap" = 15   $ IP Tech: PkgAC2SpP-65to135-E11
 "RatedEER" = 11   $ IP Tech: PkgAC2SpP-65to135-E11
 "RatedSupMtrClass" = Premium   $ IP Tech: PkgAC2SpP-65to135-E11
 "SizeRange" = 65to135   $ IP Tech: PkgAC2SpP-65to135-E11
 "SupMotEff" = 0.865   $ IP Tech: PkgAC2SpP-65to135-E11
 "Tier" = 0   $ IP Tech: PkgAC2SpP-65to135-E11
 "FanPwrMult" = 1   $ IP Tech: PkgFurn-0.80AFUE
 "FurnAFUE" = 0.8   $ IP Tech: PkgFurn-0.80AFUE
 "FurnEt" = 0.82   $ IP Tech: PkgFurn-0.80AFUE
 "FurnaceAuxKW" = 0.1   $ IP Tech: PkgFurn-0.80AFUE
 "HIR_fPLR" = Furnace-HIR-fPLR   $ IP Tech: PkgFurn-0.80AFUE
 "VSM" = FALSE   $ IP Tech: PkgFurn-0.80AFUE
 "BFMult" = 1   $ IP Tech: RefgChg-NRes-Std
 "CoolEirMult" = 1   $ IP Tech: RefgChg-NRes-Std
 "SensCoolCapMult" = 1   $ IP Tech: RefgChg-NRes-Std
 "TotCoolCapMult" = 1   $ IP Tech: RefgChg-NRes-Std
 "AltAdjFactor" = 1.012438   $ Sizing
 "CAssFlo_L_Break_CZn" = 571.6231   $ Sizing
 "CAssFlo_L_Conf_CZn" = 555.2509   $ Sizing
 "CAssFlo_L_CopyRm_CZn" = 182.9508   $ Sizing
 "CAssFlo_L_Cordr_CZn" = 675.9482   $ Sizing
 "CAssFlo_L_Cordr_EZn" = 235.3486   $ Sizing
 "CAssFlo_L_Cordr_NZn" = 171.54   $ Sizing
 "CAssFlo_L_Cordr_SZn" = 238.7675   $ Sizing
 "CAssFlo_L_Cordr_WZn" = 268.7934   $ Sizing
 "CAssFlo_L_LobWait_CZn" = 533.6355   $ Sizing
 "CAssFlo_L_MechElec_CZn" = 119.2461   $ Sizing
 "CAssFlo_L_OfficeOpn_CZn" = 1879.242   $ Sizing
 "CAssFlo_L_OfficeOpn_EZn" = 1616.001   $ Sizing
 "CAssFlo_L_OfficeOpn_NZn" = 1235.509   $ Sizing
 "CAssFlo_L_OfficeOpn_SZn" = 1648.9   $ Sizing
 "CAssFlo_L_OfficeOpn_WZn" = 1887.096   $ Sizing
 "CAssFlo_L_OfficeSm_CZn" = 242.6901   $ Sizing
 "CAssFlo_L_OfficeSm_EZn" = 1153.415   $ Sizing
 "CAssFlo_L_OfficeSm_NZn" = 812.562   $ Sizing
 "CAssFlo_L_OfficeSm_SZn" = 1167.677   $ Sizing
 "CAssFlo_L_OfficeSm_WZn" = 1324.931   $ Sizing
 "CAssFlo_L_Restrm_CZn" = 94.72862   $ Sizing
 "CAssFlo_L_StorSm_CZn" = 385.9364   $ Sizing
 "CAssFlo_M_Break_CZn" = 576.1812   $ Sizing
 "CAssFlo_M_Conf_CZn" = 552.8231   $ Sizing
 "CAssFlo_M_CopyRm_CZn" = 174.6984   $ Sizing
 "CAssFlo_M_Cordr_CZn" = 898.1743   $ Sizing
 "CAssFlo_M_Cordr_EZn" = 267.7845   $ Sizing
 "CAssFlo_M_Cordr_NZn" = 184.4378   $ Sizing
 "CAssFlo_M_Cordr_SZn" = 258.1292   $ Sizing
 "CAssFlo_M_Cordr_WZn" = 280.338   $ Sizing
 "CAssFlo_M_LobWait_CZn" = 554.2916   $ Sizing
 "CAssFlo_M_MechElec_CZn" = 150.2175   $ Sizing
 "CAssFlo_M_OfficeOpn_CZn" = 1882.618   $ Sizing
 "CAssFlo_M_OfficeOpn_EZn" = 1741.46   $ Sizing
 "CAssFlo_M_OfficeOpn_NZn" = 1287.455   $ Sizing
 "CAssFlo_M_OfficeOpn_SZn" = 1730.995   $ Sizing
 "CAssFlo_M_OfficeOpn_WZn" = 1930.214   $ Sizing
 "CAssFlo_M_OfficeSm_CZn" = 265.9327   $ Sizing
 "CAssFlo_M_OfficeSm_EZn" = 1225.564   $ Sizing
 "CAssFlo_M_OfficeSm_NZn" = 841.5007   $ Sizing
 "CAssFlo_M_OfficeSm_SZn" = 1214.483   $ Sizing
 "CAssFlo_M_OfficeSm_WZn" = 1343.937   $ Sizing
 "CAssFlo_M_Restrm_CZn" = 101.2222   $ Sizing
 "CAssFlo_M_StorSm_CZn" = 403.2497   $ Sizing
 "CAssFlo_T_Break_CZn" = 567.7021   $ Sizing
 "CAssFlo_T_Conf_CZn" = 544.3881   $ Sizing
 "CAssFlo_T_CopyRm_CZn" = 174.9473   $ Sizing
 "CAssFlo_T_Cordr_CZn" = 833.5837   $ Sizing
 "CAssFlo_T_Cordr_EZn" = 260.5256   $ Sizing
 "CAssFlo_T_Cordr_NZn" = 186.2728   $ Sizing
 "CAssFlo_T_Cordr_SZn" = 254.1369   $ Sizing
 "CAssFlo_T_Cordr_WZn" = 279.5839   $ Sizing
 "CAssFlo_T_LobWait_CZn" = 554.5944   $ Sizing
 "CAssFlo_T_MechElec_CZn" = 168.4215   $ Sizing
 "CAssFlo_T_OfficeOpn_CZn" = 1917.973   $ Sizing
 "CAssFlo_T_OfficeOpn_EZn" = 1719.973   $ Sizing
 "CAssFlo_T_OfficeOpn_NZn" = 1301.682   $ Sizing
 "CAssFlo_T_OfficeOpn_SZn" = 1731.325   $ Sizing
 "CAssFlo_T_OfficeOpn_WZn" = 1915.979   $ Sizing
 "CAssFlo_T_OfficeSm_CZn" = 257.184   $ Sizing
 "CAssFlo_T_OfficeSm_EZn" = 1241.639   $ Sizing
 "CAssFlo_T_OfficeSm_NZn" = 855.6989   $ Sizing
 "CAssFlo_T_OfficeSm_SZn" = 1228.59   $ Sizing
 "CAssFlo_T_OfficeSm_WZn" = 1358.326   $ Sizing
 "CAssFlo_T_Restrm_CZn" = 132.7528   $ Sizing
 "CAssFlo_T_StorSm_CZn" = 285.7297   $ Sizing
 "CHRtFlo_Sys_L_Break_C" = 571.6231   $ Sizing
 "CHRtFlo_Sys_L_Conf_C" = 555.2509   $ Sizing
 "CHRtFlo_Sys_L_CopyRm_C" = 182.9508   $ Sizing
 "CHRtFlo_Sys_L_Cordr_C" = 682.3661   $ Sizing
 "CHRtFlo_Sys_L_Cordr_E" = 263.9041   $ Sizing
 "CHRtFlo_Sys_L_Cordr_N" = 171.54   $ Sizing
 "CHRtFlo_Sys_L_Cordr_S" = 243.8764   $ Sizing
 "CHRtFlo_Sys_L_Cordr_W" = 268.7934   $ Sizing
 "CHRtFlo_Sys_L_LobWait_C" = 533.6355   $ Sizing
 "CHRtFlo_Sys_L_MechElec_C" = 136.4925   $ Sizing
 "CHRtFlo_Sys_L_OfficeOpn_C" = 1879.242   $ Sizing
 "CHRtFlo_Sys_L_OfficeOpn_E" = 1849.58   $ Sizing
 "CHRtFlo_Sys_L_OfficeOpn_N" = 1235.509   $ Sizing
 "CHRtFlo_Sys_L_OfficeOpn_S" = 1764.206   $ Sizing
 "CHRtFlo_Sys_L_OfficeOpn_W" = 1887.096   $ Sizing
 "CHRtFlo_Sys_L_OfficeSm_C" = 261.7809   $ Sizing
 "CHRtFlo_Sys_L_OfficeSm_E" = 1348.878   $ Sizing
 "CHRtFlo_Sys_L_OfficeSm_N" = 812.562   $ Sizing
 "CHRtFlo_Sys_L_OfficeSm_S" = 1294.599   $ Sizing
 "CHRtFlo_Sys_L_OfficeSm_W" = 1339.171   $ Sizing
 "CHRtFlo_Sys_L_Restrm_C" = 212.8927   $ Sizing
 "CHRtFlo_Sys_L_StorSm_C" = 419.7671   $ Sizing
 "CHRtFlo_Sys_M_Break_C" = 4609.45   $ Sizing
 "CHRtFlo_Sys_M_Conf_C" = 4422.584   $ Sizing
 "CHRtFlo_Sys_M_CopyRm_C" = 1397.587   $ Sizing
 "CHRtFlo_Sys_M_Cordr_C" = 8156.584   $ Sizing
 "CHRtFlo_Sys_M_Cordr_E" = 2459.289   $ Sizing
 "CHRtFlo_Sys_M_Cordr_N" = 1529.009   $ Sizing
 "CHRtFlo_Sys_M_Cordr_S" = 2185.327   $ Sizing
 "CHRtFlo_Sys_M_Cordr_W" = 2242.704   $ Sizing
 "CHRtFlo_Sys_M_LobWait_C" = 4434.333   $ Sizing
 "CHRtFlo_Sys_M_MechElec_C" = 1412.795   $ Sizing
 "CHRtFlo_Sys_M_OfficeOpn_C" = 17043.97   $ Sizing
 "CHRtFlo_Sys_M_OfficeOpn_E" = 16127.87   $ Sizing
 "CHRtFlo_Sys_M_OfficeOpn_N" = 10299.64   $ Sizing
 "CHRtFlo_Sys_M_OfficeOpn_S" = 15086.27   $ Sizing
 "CHRtFlo_Sys_M_OfficeOpn_W" = 15441.71   $ Sizing
 "CHRtFlo_Sys_M_OfficeSm_C" = 2655.466   $ Sizing
 "CHRtFlo_Sys_M_OfficeSm_E" = 11583.69   $ Sizing
 "CHRtFlo_Sys_M_OfficeSm_N" = 6732.005   $ Sizing
 "CHRtFlo_Sys_M_OfficeSm_S" = 10930.92   $ Sizing
 "CHRtFlo_Sys_M_OfficeSm_W" = 10960.24   $ Sizing
 "CHRtFlo_Sys_M_Restrm_C" = 1703.142   $ Sizing
 "CHRtFlo_Sys_M_StorSm_C" = 3644.536   $ Sizing
 "CHRtFlo_Sys_T_Break_C" = 567.7021   $ Sizing
 "CHRtFlo_Sys_T_Conf_C" = 544.3881   $ Sizing
 "CHRtFlo_Sys_T_CopyRm_C" = 174.9473   $ Sizing
 "CHRtFlo_Sys_T_Cordr_C" = 858.5076   $ Sizing
 "CHRtFlo_Sys_T_Cordr_E" = 271.9398   $ Sizing
 "CHRtFlo_Sys_T_Cordr_N" = 186.2728   $ Sizing
 "CHRtFlo_Sys_T_Cordr_S" = 254.1369   $ Sizing
 "CHRtFlo_Sys_T_Cordr_W" = 279.5839   $ Sizing
 "CHRtFlo_Sys_T_LobWait_C" = 554.5944   $ Sizing
 "CHRtFlo_Sys_T_MechElec_C" = 199.8582   $ Sizing
 "CHRtFlo_Sys_T_OfficeOpn_C" = 1917.973   $ Sizing
 "CHRtFlo_Sys_T_OfficeOpn_E" = 1836.265   $ Sizing
 "CHRtFlo_Sys_T_OfficeOpn_N" = 1301.682   $ Sizing
 "CHRtFlo_Sys_T_OfficeOpn_S" = 1767.872   $ Sizing
 "CHRtFlo_Sys_T_OfficeOpn_W" = 1915.979   $ Sizing
 "CHRtFlo_Sys_T_OfficeSm_C" = 289.3882   $ Sizing
 "CHRtFlo_Sys_T_OfficeSm_E" = 1356.488   $ Sizing
 "CHRtFlo_Sys_T_OfficeSm_N" = 855.6989   $ Sizing
 "CHRtFlo_Sys_T_OfficeSm_S" = 1305.856   $ Sizing
 "CHRtFlo_Sys_T_OfficeSm_W" = 1358.326   $ Sizing
 "CHRtFlo_Sys_T_Restrm_C" = 212.8927   $ Sizing
 "CHRtFlo_Sys_T_StorSm_C" = 335.7162   $ Sizing
 "CRtdFlo_Sys_L_Break_C" = 571.6231   $ Sizing
 "CRtdFlo_Sys_L_Conf_C" = 555.2509   $ Sizing
 "CRtdFlo_Sys_L_CopyRm_C" = 182.9508   $ Sizing
 "CRtdFlo_Sys_L_Cordr_C" = 675.9482   $ Sizing
 "CRtdFlo_Sys_L_Cordr_E" = 235.3486   $ Sizing
 "CRtdFlo_Sys_L_Cordr_N" = 171.54   $ Sizing
 "CRtdFlo_Sys_L_Cordr_S" = 238.7675   $ Sizing
 "CRtdFlo_Sys_L_Cordr_W" = 268.7934   $ Sizing
 "CRtdFlo_Sys_L_LobWait_C" = 533.6355   $ Sizing
 "CRtdFlo_Sys_L_MechElec_C" = 119.2461   $ Sizing
 "CRtdFlo_Sys_L_OfficeOpn_C" = 1879.242   $ Sizing
 "CRtdFlo_Sys_L_OfficeOpn_E" = 1616.001   $ Sizing
 "CRtdFlo_Sys_L_OfficeOpn_N" = 1235.509   $ Sizing
 "CRtdFlo_Sys_L_OfficeOpn_S" = 1648.9   $ Sizing
 "CRtdFlo_Sys_L_OfficeOpn_W" = 1887.096   $ Sizing
 "CRtdFlo_Sys_L_OfficeSm_C" = 242.6901   $ Sizing
 "CRtdFlo_Sys_L_OfficeSm_E" = 1153.415   $ Sizing
 "CRtdFlo_Sys_L_OfficeSm_N" = 812.562   $ Sizing
 "CRtdFlo_Sys_L_OfficeSm_S" = 1167.677   $ Sizing
 "CRtdFlo_Sys_L_OfficeSm_W" = 1324.931   $ Sizing
 "CRtdFlo_Sys_L_Restrm_C" = 94.72862   $ Sizing
 "CRtdFlo_Sys_L_StorSm_C" = 385.9364   $ Sizing
 "CRtdFlo_Sys_M_Break_C" = 4609.45   $ Sizing
 "CRtdFlo_Sys_M_Conf_C" = 4422.584   $ Sizing
 "CRtdFlo_Sys_M_CopyRm_C" = 1397.587   $ Sizing
 "CRtdFlo_Sys_M_Cordr_C" = 7185.394   $ Sizing
 "CRtdFlo_Sys_M_Cordr_E" = 2142.276   $ Sizing
 "CRtdFlo_Sys_M_Cordr_N" = 1475.502   $ Sizing
 "CRtdFlo_Sys_M_Cordr_S" = 2065.033   $ Sizing
 "CRtdFlo_Sys_M_Cordr_W" = 2242.704   $ Sizing
 "CRtdFlo_Sys_M_LobWait_C" = 4434.333   $ Sizing
 "CRtdFlo_Sys_M_MechElec_C" = 1201.74   $ Sizing
 "CRtdFlo_Sys_M_OfficeOpn_C" = 15060.94   $ Sizing
 "CRtdFlo_Sys_M_OfficeOpn_E" = 13931.68   $ Sizing
 "CRtdFlo_Sys_M_OfficeOpn_N" = 10299.64   $ Sizing
 "CRtdFlo_Sys_M_OfficeOpn_S" = 13847.96   $ Sizing
 "CRtdFlo_Sys_M_OfficeOpn_W" = 15441.71   $ Sizing
 "CRtdFlo_Sys_M_OfficeSm_C" = 2127.462   $ Sizing
 "CRtdFlo_Sys_M_OfficeSm_E" = 9804.515   $ Sizing
 "CRtdFlo_Sys_M_OfficeSm_N" = 6732.005   $ Sizing
 "CRtdFlo_Sys_M_OfficeSm_S" = 9715.867   $ Sizing
 "CRtdFlo_Sys_M_OfficeSm_W" = 10751.5   $ Sizing
 "CRtdFlo_Sys_M_Restrm_C" = 809.7776   $ Sizing
 "CRtdFlo_Sys_M_StorSm_C" = 3225.997   $ Sizing
 "CRtdFlo_Sys_T_Break_C" = 567.7021   $ Sizing
 "CRtdFlo_Sys_T_Conf_C" = 544.3881   $ Sizing
 "CRtdFlo_Sys_T_CopyRm_C" = 174.9473   $ Sizing
 "CRtdFlo_Sys_T_Cordr_C" = 833.5837   $ Sizing
 "CRtdFlo_Sys_T_Cordr_E" = 260.5256   $ Sizing
 "CRtdFlo_Sys_T_Cordr_N" = 186.2728   $ Sizing
 "CRtdFlo_Sys_T_Cordr_S" = 254.1369   $ Sizing
 "CRtdFlo_Sys_T_Cordr_W" = 279.5839   $ Sizing
 "CRtdFlo_Sys_T_LobWait_C" = 554.5944   $ Sizing
 "CRtdFlo_Sys_T_MechElec_C" = 168.4215   $ Sizing
 "CRtdFlo_Sys_T_OfficeOpn_C" = 1917.973   $ Sizing
 "CRtdFlo_Sys_T_OfficeOpn_E" = 1719.973   $ Sizing
 "CRtdFlo_Sys_T_OfficeOpn_N" = 1301.682   $ Sizing
 "CRtdFlo_Sys_T_OfficeOpn_S" = 1731.325   $ Sizing
 "CRtdFlo_Sys_T_OfficeOpn_W" = 1915.979   $ Sizing
 "CRtdFlo_Sys_T_OfficeSm_C" = 257.184   $ Sizing
 "CRtdFlo_Sys_T_OfficeSm_E" = 1241.639   $ Sizing
 "CRtdFlo_Sys_T_OfficeSm_N" = 855.6989   $ Sizing
 "CRtdFlo_Sys_T_OfficeSm_S" = 1228.59   $ Sizing
 "CRtdFlo_Sys_T_OfficeSm_W" = 1358.326   $ Sizing
 "CRtdFlo_Sys_T_Restrm_C" = 132.7528   $ Sizing
 "CRtdFlo_Sys_T_StorSm_C" = 285.7297   $ Sizing
 "CSupFlo_Sys_L_Break_C" = 571.6231   $ Sizing
 "CSupFlo_Sys_L_Conf_C" = 555.2509   $ Sizing
 "CSupFlo_Sys_L_CopyRm_C" = 182.9508   $ Sizing
 "CSupFlo_Sys_L_Cordr_C" = 675.9482   $ Sizing
 "CSupFlo_Sys_L_Cordr_E" = 235.3486   $ Sizing
 "CSupFlo_Sys_L_Cordr_N" = 171.54   $ Sizing
 "CSupFlo_Sys_L_Cordr_S" = 238.7675   $ Sizing
 "CSupFlo_Sys_L_Cordr_W" = 268.7934   $ Sizing
 "CSupFlo_Sys_L_LobWait_C" = 533.6355   $ Sizing
 "CSupFlo_Sys_L_MechElec_C" = 119.2461   $ Sizing
 "CSupFlo_Sys_L_OfficeOpn_C" = 1879.242   $ Sizing
 "CSupFlo_Sys_L_OfficeOpn_E" = 1616.001   $ Sizing
 "CSupFlo_Sys_L_OfficeOpn_N" = 1235.509   $ Sizing
 "CSupFlo_Sys_L_OfficeOpn_S" = 1648.9   $ Sizing
 "CSupFlo_Sys_L_OfficeOpn_W" = 1887.096   $ Sizing
 "CSupFlo_Sys_L_OfficeSm_C" = 242.6901   $ Sizing
 "CSupFlo_Sys_L_OfficeSm_E" = 1153.415   $ Sizing
 "CSupFlo_Sys_L_OfficeSm_N" = 812.562   $ Sizing
 "CSupFlo_Sys_L_OfficeSm_S" = 1167.677   $ Sizing
 "CSupFlo_Sys_L_OfficeSm_W" = 1324.931   $ Sizing
 "CSupFlo_Sys_L_Restrm_C" = 94.72862   $ Sizing
 "CSupFlo_Sys_L_StorSm_C" = 385.9364   $ Sizing
 "CSupFlo_Sys_M_Break_C" = 4609.45   $ Sizing
 "CSupFlo_Sys_M_Conf_C" = 4422.584   $ Sizing
 "CSupFlo_Sys_M_CopyRm_C" = 1397.587   $ Sizing
 "CSupFlo_Sys_M_Cordr_C" = 7185.394   $ Sizing
 "CSupFlo_Sys_M_Cordr_E" = 2142.276   $ Sizing
 "CSupFlo_Sys_M_Cordr_N" = 1475.502   $ Sizing
 "CSupFlo_Sys_M_Cordr_S" = 2065.033   $ Sizing
 "CSupFlo_Sys_M_Cordr_W" = 2242.704   $ Sizing
 "CSupFlo_Sys_M_LobWait_C" = 4434.333   $ Sizing
 "CSupFlo_Sys_M_MechElec_C" = 1201.74   $ Sizing
 "CSupFlo_Sys_M_OfficeOpn_C" = 15060.94   $ Sizing
 "CSupFlo_Sys_M_OfficeOpn_E" = 13931.68   $ Sizing
 "CSupFlo_Sys_M_OfficeOpn_N" = 10299.64   $ Sizing
 "CSupFlo_Sys_M_OfficeOpn_S" = 13847.96   $ Sizing
 "CSupFlo_Sys_M_OfficeOpn_W" = 15441.71   $ Sizing
 "CSupFlo_Sys_M_OfficeSm_C" = 2127.462   $ Sizing
 "CSupFlo_Sys_M_OfficeSm_E" = 9804.515   $ Sizing
 "CSupFlo_Sys_M_OfficeSm_N" = 6732.005   $ Sizing
 "CSupFlo_Sys_M_OfficeSm_S" = 9715.867   $ Sizing
 "CSupFlo_Sys_M_OfficeSm_W" = 10751.5   $ Sizing
 "CSupFlo_Sys_M_Restrm_C" = 809.7776   $ Sizing
 "CSupFlo_Sys_M_StorSm_C" = 3225.997   $ Sizing
 "CSupFlo_Sys_T_Break_C" = 567.7021   $ Sizing
 "CSupFlo_Sys_T_Conf_C" = 544.3881   $ Sizing
 "CSupFlo_Sys_T_CopyRm_C" = 174.9473   $ Sizing
 "CSupFlo_Sys_T_Cordr_C" = 833.5837   $ Sizing
 "CSupFlo_Sys_T_Cordr_E" = 260.5256   $ Sizing
 "CSupFlo_Sys_T_Cordr_N" = 186.2728   $ Sizing
 "CSupFlo_Sys_T_Cordr_S" = 254.1369   $ Sizing
 "CSupFlo_Sys_T_Cordr_W" = 279.5839   $ Sizing
 "CSupFlo_Sys_T_LobWait_C" = 554.5944   $ Sizing
 "CSupFlo_Sys_T_MechElec_C" = 168.4215   $ Sizing
 "CSupFlo_Sys_T_OfficeOpn_C" = 1917.973   $ Sizing
 "CSupFlo_Sys_T_OfficeOpn_E" = 1719.973   $ Sizing
 "CSupFlo_Sys_T_OfficeOpn_N" = 1301.682   $ Sizing
 "CSupFlo_Sys_T_OfficeOpn_S" = 1731.325   $ Sizing
 "CSupFlo_Sys_T_OfficeOpn_W" = 1915.979   $ Sizing
 "CSupFlo_Sys_T_OfficeSm_C" = 257.184   $ Sizing
 "CSupFlo_Sys_T_OfficeSm_E" = 1241.639   $ Sizing
 "CSupFlo_Sys_T_OfficeSm_N" = 855.6989   $ Sizing
 "CSupFlo_Sys_T_OfficeSm_S" = 1228.59   $ Sizing
 "CSupFlo_Sys_T_OfficeSm_W" = 1358.326   $ Sizing
 "CSupFlo_Sys_T_Restrm_C" = 132.7528   $ Sizing
 "CSupFlo_Sys_T_StorSm_C" = 285.7297   $ Sizing
 "ClCap_Sys_L_Break_C" = 19357.73   $ Sizing
 "ClCap_Sys_L_Conf_C" = 23931.47   $ Sizing
 "ClCap_Sys_L_CopyRm_C" = 6195.537   $ Sizing
 "ClCap_Sys_L_Cordr_C" = 22890.65   $ Sizing
 "ClCap_Sys_L_Cordr_E" = 7969.962   $ Sizing
 "ClCap_Sys_L_Cordr_N" = 5809.115   $ Sizing
 "ClCap_Sys_L_Cordr_S" = 8085.742   $ Sizing
 "ClCap_Sys_L_Cordr_W" = 9102.554   $ Sizing
 "ClCap_Sys_L_LobWait_C" = 18071.3   $ Sizing
 "ClCap_Sys_L_MechElec_C" = 4038.211   $ Sizing
 "ClCap_Sys_L_OfficeOpn_C" = 63639.59   $ Sizing
 "ClCap_Sys_L_OfficeOpn_E" = 54725.06   $ Sizing
 "ClCap_Sys_L_OfficeOpn_N" = 41839.89   $ Sizing
 "ClCap_Sys_L_OfficeOpn_S" = 55839.16   $ Sizing
 "ClCap_Sys_L_OfficeOpn_W" = 63905.57   $ Sizing
 "ClCap_Sys_L_OfficeSm_C" = 8218.579   $ Sizing
 "ClCap_Sys_L_OfficeSm_E" = 39059.83   $ Sizing
 "ClCap_Sys_L_OfficeSm_N" = 27517.01   $ Sizing
 "ClCap_Sys_L_OfficeSm_S" = 39542.82   $ Sizing
 "ClCap_Sys_L_OfficeSm_W" = 44868.13   $ Sizing
 "ClCap_Sys_L_Restrm_C" = 3207.938   $ Sizing
 "ClCap_Sys_L_StorSm_C" = 13069.54   $ Sizing
 "ClCap_Sys_M_Break_C" = 156096.7   $ Sizing
 "ClCap_Sys_M_Conf_C" = 190614.6   $ Sizing
 "ClCap_Sys_M_CopyRm_C" = 47328.59   $ Sizing
 "ClCap_Sys_M_Cordr_C" = 243329.8   $ Sizing
 "ClCap_Sys_M_Cordr_E" = 72547.1   $ Sizing
 "ClCap_Sys_M_Cordr_N" = 49967.16   $ Sizing
 "ClCap_Sys_M_Cordr_S" = 69931.32   $ Sizing
 "ClCap_Sys_M_Cordr_W" = 75948.04   $ Sizing
 "ClCap_Sys_M_LobWait_C" = 150166.5   $ Sizing
 "ClCap_Sys_M_MechElec_C" = 40696.34   $ Sizing
 "ClCap_Sys_M_OfficeOpn_C" = 510031.4   $ Sizing
 "ClCap_Sys_M_OfficeOpn_E" = 471789.4   $ Sizing
 "ClCap_Sys_M_OfficeOpn_N" = 348792.2   $ Sizing
 "ClCap_Sys_M_OfficeOpn_S" = 468954.3   $ Sizing
 "ClCap_Sys_M_OfficeOpn_W" = 522925.8   $ Sizing
 "ClCap_Sys_M_OfficeSm_C" = 72045.44   $ Sizing
 "ClCap_Sys_M_OfficeSm_E" = 332025   $ Sizing
 "ClCap_Sys_M_OfficeSm_N" = 227976   $ Sizing
 "ClCap_Sys_M_OfficeSm_S" = 329023   $ Sizing
 "ClCap_Sys_M_OfficeSm_W" = 364094.1   $ Sizing
 "ClCap_Sys_M_Restrm_C" = 27422.72   $ Sizing
 "ClCap_Sys_M_StorSm_C" = 109246.8   $ Sizing
 "ClCap_Sys_T_Break_C" = 19224.95   $ Sizing
 "ClCap_Sys_T_Conf_C" = 23463.28   $ Sizing
 "ClCap_Sys_T_CopyRm_C" = 5924.503   $ Sizing
 "ClCap_Sys_T_Cordr_C" = 28228.9   $ Sizing
 "ClCap_Sys_T_Cordr_E" = 8822.568   $ Sizing
 "ClCap_Sys_T_Cordr_N" = 6308.035   $ Sizing
 "ClCap_Sys_T_Cordr_S" = 8606.221   $ Sizing
 "ClCap_Sys_T_Cordr_W" = 9467.97   $ Sizing
 "ClCap_Sys_T_LobWait_C" = 18781.06   $ Sizing
 "ClCap_Sys_T_MechElec_C" = 5703.51   $ Sizing
 "ClCap_Sys_T_OfficeOpn_C" = 64951.19   $ Sizing
 "ClCap_Sys_T_OfficeOpn_E" = 58246.04   $ Sizing
 "ClCap_Sys_T_OfficeOpn_N" = 44080.8   $ Sizing
 "ClCap_Sys_T_OfficeOpn_S" = 58630.45   $ Sizing
 "ClCap_Sys_T_OfficeOpn_W" = 64883.66   $ Sizing
 "ClCap_Sys_T_OfficeSm_C" = 8709.407   $ Sizing
 "ClCap_Sys_T_OfficeSm_E" = 42047.49   $ Sizing
 "ClCap_Sys_T_OfficeSm_N" = 28977.82   $ Sizing
 "ClCap_Sys_T_OfficeSm_S" = 41605.59   $ Sizing
 "ClCap_Sys_T_OfficeSm_W" = 45999.04   $ Sizing
 "ClCap_Sys_T_Restrm_C" = 4495.606   $ Sizing
 "ClCap_Sys_T_StorSm_C" = 9676.095   $ Sizing
 "HtCap_Sys_L_Break_C" = -32402.33   $ Sizing
 "HtCap_Sys_L_Conf_C" = -32522.27   $ Sizing
 "HtCap_Sys_L_CopyRm_C" = -12022.7   $ Sizing
 "HtCap_Sys_L_Cordr_C" = -30045.79   $ Sizing
 "HtCap_Sys_L_Cordr_E" = -9450.38   $ Sizing
 "HtCap_Sys_L_Cordr_N" = -7070.171   $ Sizing
 "HtCap_Sys_L_Cordr_S" = -8793.919   $ Sizing
 "HtCap_Sys_L_Cordr_W" = -9693.307   $ Sizing
 "HtCap_Sys_L_LobWait_C" = -30293.1   $ Sizing
 "HtCap_Sys_L_MechElec_C" = -6313.464   $ Sizing
 "HtCap_Sys_L_OfficeOpn_C" = -91107.83   $ Sizing
 "HtCap_Sys_L_OfficeOpn_E" = -63481.96   $ Sizing
 "HtCap_Sys_L_OfficeOpn_N" = -46933.92   $ Sizing
 "HtCap_Sys_L_OfficeOpn_S" = -60096.4   $ Sizing
 "HtCap_Sys_L_OfficeOpn_W" = -64659.35   $ Sizing
 "HtCap_Sys_L_OfficeSm_C" = -10357.81   $ Sizing
 "HtCap_Sys_L_OfficeSm_E" = -44873.5   $ Sizing
 "HtCap_Sys_L_OfficeSm_N" = -30721.55   $ Sizing
 "HtCap_Sys_L_OfficeSm_S" = -43998.02   $ Sizing
 "HtCap_Sys_L_OfficeSm_W" = -45654.41   $ Sizing
 "HtCap_Sys_L_Restrm_C" = -7754.173   $ Sizing
 "HtCap_Sys_L_StorSm_C" = -18414.71   $ Sizing
 "HtCap_Sys_M_Break_C" = -246929.8   $ Sizing
 "HtCap_Sys_M_Conf_C" = -240707.2   $ Sizing
 "HtCap_Sys_M_CopyRm_C" = -79621   $ Sizing
 "HtCap_Sys_M_Cordr_C" = -317482.8   $ Sizing
 "HtCap_Sys_M_Cordr_E" = -85403.05   $ Sizing
 "HtCap_Sys_M_Cordr_N" = -58569.64   $ Sizing
 "HtCap_Sys_M_Cordr_S" = -76785.2   $ Sizing
 "HtCap_Sys_M_Cordr_W" = -79579.41   $ Sizing
 "HtCap_Sys_M_LobWait_C" = -216605.9   $ Sizing
 "HtCap_Sys_M_MechElec_C" = -59526.34   $ Sizing
 "HtCap_Sys_M_OfficeOpn_C" = -648099.2   $ Sizing
 "HtCap_Sys_M_OfficeOpn_E" = -544700.3   $ Sizing
 "HtCap_Sys_M_OfficeOpn_N" = -383722.8   $ Sizing
 "HtCap_Sys_M_OfficeOpn_S" = -508032.6   $ Sizing
 "HtCap_Sys_M_OfficeOpn_W" = -525544.2   $ Sizing
 "HtCap_Sys_M_OfficeSm_C" = -99132.56   $ Sizing
 "HtCap_Sys_M_OfficeSm_E" = -383749.1   $ Sizing
 "HtCap_Sys_M_OfficeSm_N" = -251027.9   $ Sizing
 "HtCap_Sys_M_OfficeSm_S" = -367082.8   $ Sizing
 "HtCap_Sys_M_OfficeSm_W" = -371196.8   $ Sizing
 "HtCap_Sys_M_Restrm_C" = -66890.98   $ Sizing
 "HtCap_Sys_M_StorSm_C" = -151347   $ Sizing
 "HtCap_Sys_T_Break_C" = -32753.84   $ Sizing
 "HtCap_Sys_T_Conf_C" = -31828.02   $ Sizing
 "HtCap_Sys_T_CopyRm_C" = -11066.34   $ Sizing
 "HtCap_Sys_T_Cordr_C" = -38182.75   $ Sizing
 "HtCap_Sys_T_Cordr_E" = -10625.38   $ Sizing
 "HtCap_Sys_T_Cordr_N" = -8114.138   $ Sizing
 "HtCap_Sys_T_Cordr_S" = -10099.52   $ Sizing
 "HtCap_Sys_T_Cordr_W" = -11108.2   $ Sizing
 "HtCap_Sys_T_LobWait_C" = -30059.62   $ Sizing
 "HtCap_Sys_T_MechElec_C" = -8096.51   $ Sizing
 "HtCap_Sys_T_OfficeOpn_C" = -83062.65   $ Sizing
 "HtCap_Sys_T_OfficeOpn_E" = -68453.51   $ Sizing
 "HtCap_Sys_T_OfficeOpn_N" = -54097.28   $ Sizing
 "HtCap_Sys_T_OfficeOpn_S" = -67114.6   $ Sizing
 "HtCap_Sys_T_OfficeOpn_W" = -71897.13   $ Sizing
 "HtCap_Sys_T_OfficeSm_C" = -12087.01   $ Sizing
 "HtCap_Sys_T_OfficeSm_E" = -49126.57   $ Sizing
 "HtCap_Sys_T_OfficeSm_N" = -35175.13   $ Sizing
 "HtCap_Sys_T_OfficeSm_S" = -48712.23   $ Sizing
 "HtCap_Sys_T_OfficeSm_W" = -50619.86   $ Sizing
 "HtCap_Sys_T_Restrm_C" = -8409.797   $ Sizing
 "HtCap_Sys_T_StorSm_C" = -17072.94   $ Sizing
..

##include Templates\OfL_DX_SZ.inp
END ..
COMPUTE ..
STOP ..
