INPUT ..

##fileprefix C:\Users\jglasskatz\MASControl3\
##set1 IsSizing FALSE
##set1 CoolType DX
##set1 HeatType FURNACE
##set1 EU_HrRepVar 0
##set1 BldgVint 2011
##set1 BldgLoc CZ14

 ##set1 mBFMult 1   $ IP Tech: RefgChg-NRes-Std

PARAMETER
 "AltFactor" = 1.09733   $ IP Non-Tech
 "BF_fFlow" = SpltAC1Sp_BF_fFlow   $ Msr (Var)TechID: PreNResSplitAC-lt45-PENo
 "BF_fT" = SpltAC1Sp_BF_fT   $ Msr (Var)TechID: PreNResSplitAC-lt45-PENo
 "BldgEconoFlag" = 1   $ IP Non-Tech
 "Break_EWSF" = 1   $ IP Non-Tech
 "Break_LWSF" = 1.1   $ IP Non-Tech
 "CDD_DBHi10" = 86   $ IP Non-Tech
 "CDD_DBHi7" = 102   $ IP Non-Tech
 "CDD_DBHi8" = 102   $ IP Non-Tech
 "CDD_DBHi9" = 99   $ IP Non-Tech
 "CDD_DBRange10" = 24   $ IP Non-Tech
 "CDD_DBRange7" = 25   $ IP Non-Tech
 "CDD_DBRange8" = 24   $ IP Non-Tech
 "CDD_DBRange9" = 26   $ IP Non-Tech
 "CDD_Day10" = 15   $ IP Non-Tech
 "CDD_Day7" = 16   $ IP Non-Tech
 "CDD_Day8" = 20   $ IP Non-Tech
 "CDD_Day9" = 17   $ IP Non-Tech
 "CDD_HrHi10" = 15   $ IP Non-Tech
 "CDD_HrHi7" = 14   $ IP Non-Tech
 "CDD_HrHi8" = 14   $ IP Non-Tech
 "CDD_HrHi9" = 13   $ IP Non-Tech
 "CDD_HrLo10" = 3   $ IP Non-Tech
 "CDD_HrLo7" = 4   $ IP Non-Tech
 "CDD_HrLo8" = 6   $ IP Non-Tech
 "CDD_HrLo9" = 6   $ IP Non-Tech
 "CDD_WB10" = 59.47153854   $ IP Non-Tech
 "CDD_WB7" = 72.7782135   $ IP Non-Tech
 "CDD_WB8" = 69.10041809   $ IP Non-Tech
 "CDD_WB9" = 72.65714264   $ IP Non-Tech
 "CEIR_fPLR_Hot" = SpltAC1Sp_CEIR_fPLR_Hot   $ Msr (Var)TechID: PreNResSplitAC-lt45-PENo
 "CEIR_fPLR_Mod" = SpltAC1Sp_CEIR_fPLR_Mod   $ Msr (Var)TechID: PreNResSplitAC-lt45-PENo
 "CEIR_fPLR_Tem" = SpltAC1Sp_CEIR_fPLR_Tem   $ Msr (Var)TechID: PreNResSplitAC-lt45-PENo
 "CLoss_fPLR_Hot" = SpltAC1Sp_CLoss_fPLR_Hot   $ Msr (Var)TechID: PreNResSplitAC-lt45-PENo
 "CLoss_fPLR_Mod" = SpltAC1Sp_CLoss_fPLR_Mod   $ Msr (Var)TechID: PreNResSplitAC-lt45-PENo
 "CLoss_fPLR_Tem" = SpltAC1Sp_CLoss_fPLR_Tem   $ Msr (Var)TechID: PreNResSplitAC-lt45-PENo
 "COP47" = 0   $ Msr (Var)TechID: PreNResSplitAC-lt45-PENo
 "CZ_Category" = Hot   $ IP Non-Tech
 "CapRange" = Any   $ Msr (Var)TechID: PreNResSplitAC-lt45-PENo
 "CfmPerBtuh" = 0.0321   $ Msr (Var)TechID: PreNResSplitAC-lt45-PENo
 "ChwVintEconoFlag" = 1   $ IP Non-Tech
 "ClCap_fT" = SpltAC1Sp_ClCap_fT   $ Msr (Var)TechID: PreNResSplitAC-lt45-PENo
 "ClSH_fT" = SpltAC1Sp_ClSH_fT   $ Msr (Var)TechID: PreNResSplitAC-lt45-PENo
 "CoilBF" = 0.12   $ Msr (Var)TechID: PreNResSplitAC-lt45-PENo
 "CondWPerBtuh" = 0   $ Msr (Var)TechID: PreNResSplitAC-lt45-PENo
 "Conference_EWSF" = 1   $ IP Non-Tech
 "Conference_LWSF" = 1.4   $ IP Non-Tech
 "CoolSensCap" = 0.744   $ Msr (Var)TechID: PreNResSplitAC-lt45-PENo
 "CoolSetT" = 45   $ IP Non-Tech
 "CoolType" = DX   $ IP Non-Tech
 "CoolingEIR" = 0.25823   $ Msr (Var)TechID: PreNResSplitAC-lt45-PENo
 "CopyRoom_EWSF" = 1.5   $ IP Non-Tech
 "CopyRoom_LWSF" = 1.3   $ IP Non-Tech
 "CorridorStairway_EWSF" = 0.2   $ IP Non-Tech
 "CorridorStairway_LWSF" = 0.6   $ IP Non-Tech
 "CrnkEIR" = 0.0025823   $ Msr (Var)TechID: PreNResSplitAC-lt45-PENo
 "CrnkMaxT" = 50   $ Msr (Var)TechID: PreNResSplitAC-lt45-PENo
 "DXType" = SplitSEER   $ Msr (Var)TechID: PreNResSplitAC-lt45-PENo
 "DesCoolT" = 75   $ IP Non-Tech
 "DesHeatT" = 73   $ IP Non-Tech
 "EER" = 11.07746479   $ Msr (Var)TechID: PreNResSplitAC-lt45-PENo
 "EIR_fT" = SpltAC1Sp_EIR_fT   $ Msr (Var)TechID: PreNResSplitAC-lt45-PENo
 "EconoCtrl" = FIXED   $ Msr (Multi)TechID: PreNResSplitAC-lt45-PENo
 "EconoEnthLimit" = 28   $ IP Non-Tech
 "EconoTempLimit" = 75   $ IP Non-Tech
 "Elevation" = 2523   $ IP Non-Tech
 "FanEirPlr" = TwoSpeedFan   $ Msr (Var)TechID: PreNResSplitAC-lt45-PENo
 "FanWPerCfm" = 0.348   $ Msr (Var)TechID: PreNResSplitAC-lt45-PENo
 "HDD_CloudAmt1" = 0   $ IP Non-Tech
 "HDD_DBHi1" = 50   $ IP Non-Tech
 "HDD_DBRange1" = 24   $ IP Non-Tech
 "HDD_Day1" = 15   $ IP Non-Tech
 "HDD_HrHi1" = 14   $ IP Non-Tech
 "HDD_HrLo1" = 6   $ IP Non-Tech
 "HDD_WB1" = 36.9   $ IP Non-Tech
 "HDD_WindSpd1" = 17.3   $ IP Non-Tech
 "HIR_fT" = 0   $ Msr (Var)TechID: PreNResSplitAC-lt45-PENo
 "HSPF" = 0   $ Msr (Var)TechID: PreNResSplitAC-lt45-PENo
 "HeatSrc" = FURNACE   $ IP Non-Tech
 "HeatSrcTU" = HEAT-PUMP   $ IP Non-Tech
 "HeatType" = GasFurn   $ IP Non-Tech
 "HeatTypeTU" = HEAT-PUMP   $ IP Non-Tech
 "HtCap_fT" = 0   $ Msr (Var)TechID: PreNResSplitAC-lt45-PENo
 "HtCoolCapRatio" = 0   $ Msr (Var)TechID: PreNResSplitAC-lt45-PENo
 "HtgEIR" = 0   $ Msr (Var)TechID: PreNResSplitAC-lt45-PENo
 "IndoorFanMode" = CONTINUOUS   $ IP Non-Tech
 "KT_TransferAir" = No   $ IP Non-Tech
 "Latitude" = 35.7   $ IP Non-Tech
 "LobbyWaiting_EWSF" = 0.5   $ IP Non-Tech
 "LobbyWaiting_LWSF" = 1.3   $ IP Non-Tech
 "Longitude" = 117.7   $ IP Non-Tech
 "LowSpdCapRatio" = 1   $ Msr (Var)TechID: PreNResSplitAC-lt45-PENo
 "LowSpdCfmRatio" = 1   $ Msr (Var)TechID: PreNResSplitAC-lt45-PENo
 "MZFanMechEff" = 0.58   $ IP Non-Tech
 "MZHasRetFan" = FALSE   $ IP Non-Tech
 "MZ_RFanWPerCfm" = 0.37   $ IP Non-Tech
 "MZ_SFanWPerCfm" = 0.71   $ IP Non-Tech
 "MZ_SupFanStatic" = 2.25   $ IP Non-Tech
 "MaxOAFrac" = 1   $ Msr (Multi)TechID: PreNResSplitAC-lt45-PENo
 "MaxSupT_MZ" = 100   $ IP Non-Tech
 "MaxSupT_SZ" = 100   $ IP Non-Tech
 "MaxSupT_TU" = 90   $ IP Non-Tech
 "MechElecRoom_EWSF" = 0.2   $ IP Non-Tech
 "MechElecRoom_LWSF" = 0.7   $ IP Non-Tech
 "MinCfmPerSF" = 0.4   $ IP Non-Tech
 "MinSupT" = 55   $ IP Non-Tech
 "NumStages" = 1   $ Msr (Var)TechID: PreNResSplitAC-lt45-PENo
 "OccCoolT" = 76   $ IP Non-Tech
 "OccHeatT" = 72   $ IP Non-Tech
 "OfficeOpen_EWSF" = 1.5   $ IP Non-Tech
 "OfficeOpen_LWSF" = 1.1   $ IP Non-Tech
 "OfficeSmall_EWSF" = 1.5   $ IP Non-Tech
 "OfficeSmall_LWSF" = 1.3   $ IP Non-Tech
 "PkgDxVintEconoFlag" = 0   $ IP Non-Tech
 "Restroom_EWSF" = 0.2   $ IP Non-Tech
 "Restroom_LWSF" = 0.6   $ IP Non-Tech
 "SEER" = 13   $ Msr (Var)TechID: PreNResSplitAC-lt45-PENo
 "SZFanMechEff" = 0.58   $ IP Non-Tech
 "SZHasRetFan" = FALSE   $ IP Non-Tech
 "SZ_Is_2Spd" = FALSE   $ IP Non-Tech
 "SZ_SFanWPerCfm" = 0.46   $ IP Non-Tech
 "SZ_SupFanStatic" = 0.75   $ IP Non-Tech
 "Sector" = Any   $ Msr (Var)TechID: PreNResSplitAC-lt45-PENo
 "StorageSmlCond_EWSF" = 0.2   $ IP Non-Tech
 "StorageSmlCond_LWSF" = 0.6   $ IP Non-Tech
 "SubType" = AC   $ Msr (Var)TechID: PreNResSplitAC-lt45-PENo
 "T24GlzTbl" = CZTbl   $ IP Non-Tech
 "TermUnitFanMechEff" = 1   $ IP Non-Tech
 "TermUnitFanMode" = INTERMITTENT   $ IP Non-Tech
 "TotCoolCap" = 34895   $ Msr (Var)TechID: PreNResSplitAC-lt45-PENo
 "TwrSetpt" = 90   $ IP Non-Tech
 "UnocCoolT" = 86   $ IP Non-Tech
 "UnocHeatT" = 62   $ IP Non-Tech
 "UseEconoVintApplic" = FALSE   $ Msr (Multi)TechID: PreNResSplitAC-lt45-PENo
 "WlhpVintEconoFlag" = 0   $ IP Non-Tech
 "DuctDT" = 1   $ IP Tech: ComDuctInsul-1
 "DuctAirLoss" = 0   $ IP Tech: ComDuctLeak-0
 "DuctLossOAFrac" = 0   $ IP Tech: ComDuctLeak-0
 "ComRoofInsCalc" = FromUo   $ IP Tech: ComRoofIns-Hvy-0.04
 "ComRoofInsR" = -999   $ IP Tech: ComRoofIns-Hvy-0.04
 "ComRoofUo" = 0.04   $ IP Tech: ComRoofIns-Hvy-0.04
 "ComEWInsCalc" = FromUo   $ IP Tech: ComWallIns-MFrm-0.06
 "ComEWInsR" = -999   $ IP Tech: ComWallIns-MFrm-0.06
 "ComEWUo" = 0.06   $ IP Tech: ComWallIns-MFrm-0.06
 "ComN_SHGC" = 0.4   $ IP Tech: NResWin-ComN-0.47-0.4
 "ComN_UFactor" = 0.47   $ IP Tech: NResWin-ComN-0.47-0.4
 "ComN_VisTrans" = 0.68   $ IP Tech: NResWin-ComN-0.47-0.4
 "ComN_WinCode" = G2663   $ IP Tech: NResWin-ComN-0.47-0.4
 "ComN_WinFrmFrac" = 0.17   $ IP Tech: NResWin-ComN-0.47-0.4
 "ComN_WinFrmU" = 0.3   $ IP Tech: NResWin-ComN-0.47-0.4
 "ComO_SHGC" = 0.31   $ IP Tech: NResWin-ComO-0.47-0.31
 "ComO_UFactor" = 0.47   $ IP Tech: NResWin-ComO-0.47-0.31
 "ComO_VisTrans" = 0.44   $ IP Tech: NResWin-ComO-0.47-0.31
 "ComO_WinCode" = G2637   $ IP Tech: NResWin-ComO-0.47-0.31
 "ComO_WinFrmFrac" = 0.17   $ IP Tech: NResWin-ComO-0.47-0.31
 "ComO_WinFrmU" = 0.3   $ IP Tech: NResWin-ComO-0.47-0.31
 "LtgMsrApplic" = ALL   $ IP Tech: NonResLtgRefPre
 "LtgSav_CFL" = 0   $ IP Tech: NonResLtgRefPre
 "LtgSav_EX" = 0   $ IP Tech: NonResLtgRefPre
 "LtgSav_HB" = 0   $ IP Tech: NonResLtgRefPre
 "LtgSav_LF" = 0   $ IP Tech: NonResLtgRefPre
 "LtgSav_SP" = 0   $ IP Tech: NonResLtgRefPre
 "CEIR_fPLR" = PSZ65to135_CEIR_fPLR   $ IP Tech: PkgAC1SpH-65to135-E11
 "CLoss_fPLR" = PSZ65to135_CLoss_fPLR   $ IP Tech: PkgAC1SpH-65to135-E11
 "COP" = -1   $ IP Tech: PkgAC1SpH-65to135-E11
 "HtgFuel" = Gas   $ IP Tech: PkgAC1SpH-65to135-E11
 "IEER" = 13.35   $ IP Tech: PkgAC1SpH-65to135-E11
 "NominalCap" = 15   $ IP Tech: PkgAC1SpH-65to135-E11
 "RatedEER" = 11   $ IP Tech: PkgAC1SpH-65to135-E11
 "RatedSupMtrClass" = HiEff   $ IP Tech: PkgAC1SpH-65to135-E11
 "SizeRange" = 65to135   $ IP Tech: PkgAC1SpH-65to135-E11
 "SupMotEff" = 0.84   $ IP Tech: PkgAC1SpH-65to135-E11
 "Tier" = 0   $ IP Tech: PkgAC1SpH-65to135-E11
 "FanPwrMult" = 1   $ IP Tech: PkgFurn-0.80AFUE
 "FurnAFUE" = 0.8   $ IP Tech: PkgFurn-0.80AFUE
 "FurnEt" = 0.82   $ IP Tech: PkgFurn-0.80AFUE
 "FurnaceAuxKW" = 0.1   $ IP Tech: PkgFurn-0.80AFUE
 "HIR_fPLR" = Furnace-HIR-fPLR   $ IP Tech: PkgFurn-0.80AFUE
 "VSM" = FALSE   $ IP Tech: PkgFurn-0.80AFUE
 "BFMult" = 1   $ IP Tech: RefgChg-NRes-Std
 "CoolEirMult" = 1   $ IP Tech: RefgChg-NRes-Std
 "SensCoolCapMult" = 1   $ IP Tech: RefgChg-NRes-Std
 "TotCoolCapMult" = 1   $ IP Tech: RefgChg-NRes-Std
 "AltAdjFactor" = 1.09733   $ Sizing
 "CAssFlo_L_Break_CZn" = 654.0481   $ Sizing
 "CAssFlo_L_Conf_CZn" = 635.0033   $ Sizing
 "CAssFlo_L_CopyRm_CZn" = 208.5119   $ Sizing
 "CAssFlo_L_Cordr_CZn" = 756.1542   $ Sizing
 "CAssFlo_L_Cordr_EZn" = 256.7139   $ Sizing
 "CAssFlo_L_Cordr_NZn" = 183.3272   $ Sizing
 "CAssFlo_L_Cordr_SZn" = 254.2497   $ Sizing
 "CAssFlo_L_Cordr_WZn" = 282.0959   $ Sizing
 "CAssFlo_L_LobWait_CZn" = 656.3124   $ Sizing
 "CAssFlo_L_MechElec_CZn" = 147.4797   $ Sizing
 "CAssFlo_L_OfficeOpn_CZn" = 2105.065   $ Sizing
 "CAssFlo_L_OfficeOpn_EZn" = 1787.224   $ Sizing
 "CAssFlo_L_OfficeOpn_NZn" = 1332.79   $ Sizing
 "CAssFlo_L_OfficeOpn_SZn" = 1772.659   $ Sizing
 "CAssFlo_L_OfficeOpn_WZn" = 2012.998   $ Sizing
 "CAssFlo_L_OfficeSm_CZn" = 268.5766   $ Sizing
 "CAssFlo_L_OfficeSm_EZn" = 1263.988   $ Sizing
 "CAssFlo_L_OfficeSm_NZn" = 865.7527   $ Sizing
 "CAssFlo_L_OfficeSm_SZn" = 1236.667   $ Sizing
 "CAssFlo_L_OfficeSm_WZn" = 1398.295   $ Sizing
 "CAssFlo_L_Restrm_CZn" = 106.5539   $ Sizing
 "CAssFlo_L_StorSm_CZn" = 457.2709   $ Sizing
 "CAssFlo_M_Break_CZn" = 657.4654   $ Sizing
 "CAssFlo_M_Conf_CZn" = 631.9146   $ Sizing
 "CAssFlo_M_CopyRm_CZn" = 201.0686   $ Sizing
 "CAssFlo_M_Cordr_CZn" = 1040.645   $ Sizing
 "CAssFlo_M_Cordr_EZn" = 294.5428   $ Sizing
 "CAssFlo_M_Cordr_NZn" = 198.7243   $ Sizing
 "CAssFlo_M_Cordr_SZn" = 276.9821   $ Sizing
 "CAssFlo_M_Cordr_WZn" = 296.0805   $ Sizing
 "CAssFlo_M_LobWait_CZn" = 675.7584   $ Sizing
 "CAssFlo_M_MechElec_CZn" = 184.3095   $ Sizing
 "CAssFlo_M_OfficeOpn_CZn" = 2126.396   $ Sizing
 "CAssFlo_M_OfficeOpn_EZn" = 1930.997   $ Sizing
 "CAssFlo_M_OfficeOpn_NZn" = 1396.628   $ Sizing
 "CAssFlo_M_OfficeOpn_SZn" = 1869.745   $ Sizing
 "CAssFlo_M_OfficeOpn_WZn" = 2059.849   $ Sizing
 "CAssFlo_M_OfficeSm_CZn" = 331.2564   $ Sizing
 "CAssFlo_M_OfficeSm_EZn" = 1350.972   $ Sizing
 "CAssFlo_M_OfficeSm_NZn" = 900.5392   $ Sizing
 "CAssFlo_M_OfficeSm_SZn" = 1292.523   $ Sizing
 "CAssFlo_M_OfficeSm_WZn" = 1420.595   $ Sizing
 "CAssFlo_M_Restrm_CZn" = 118.8396   $ Sizing
 "CAssFlo_M_StorSm_CZn" = 482.8411   $ Sizing
 "CAssFlo_T_Break_CZn" = 650.3698   $ Sizing
 "CAssFlo_T_Conf_CZn" = 624.6376   $ Sizing
 "CAssFlo_T_CopyRm_CZn" = 199.8332   $ Sizing
 "CAssFlo_T_Cordr_CZn" = 975.5969   $ Sizing
 "CAssFlo_T_Cordr_EZn" = 289.359   $ Sizing
 "CAssFlo_T_Cordr_NZn" = 203.3475   $ Sizing
 "CAssFlo_T_Cordr_SZn" = 278.7664   $ Sizing
 "CAssFlo_T_Cordr_WZn" = 297.7168   $ Sizing
 "CAssFlo_T_LobWait_CZn" = 666.2795   $ Sizing
 "CAssFlo_T_MechElec_CZn" = 208.7556   $ Sizing
 "CAssFlo_T_OfficeOpn_CZn" = 2167.383   $ Sizing
 "CAssFlo_T_OfficeOpn_EZn" = 1900.311   $ Sizing
 "CAssFlo_T_OfficeOpn_NZn" = 1425.282   $ Sizing
 "CAssFlo_T_OfficeOpn_SZn" = 1899.92   $ Sizing
 "CAssFlo_T_OfficeOpn_WZn" = 2066.148   $ Sizing
 "CAssFlo_T_OfficeSm_CZn" = 307.496   $ Sizing
 "CAssFlo_T_OfficeSm_EZn" = 1375.462   $ Sizing
 "CAssFlo_T_OfficeSm_NZn" = 925.156   $ Sizing
 "CAssFlo_T_OfficeSm_SZn" = 1328.248   $ Sizing
 "CAssFlo_T_OfficeSm_WZn" = 1447.353   $ Sizing
 "CAssFlo_T_Restrm_CZn" = 158.6974   $ Sizing
 "CAssFlo_T_StorSm_CZn" = 316.2613   $ Sizing
 "CHRtFlo_Sys_L_Break_C" = 654.0481   $ Sizing
 "CHRtFlo_Sys_L_Conf_C" = 635.0033   $ Sizing
 "CHRtFlo_Sys_L_CopyRm_C" = 208.5119   $ Sizing
 "CHRtFlo_Sys_L_Cordr_C" = 756.1542   $ Sizing
 "CHRtFlo_Sys_L_Cordr_E" = 276.434   $ Sizing
 "CHRtFlo_Sys_L_Cordr_N" = 183.3272   $ Sizing
 "CHRtFlo_Sys_L_Cordr_S" = 258.1105   $ Sizing
 "CHRtFlo_Sys_L_Cordr_W" = 282.0959   $ Sizing
 "CHRtFlo_Sys_L_LobWait_C" = 656.3124   $ Sizing
 "CHRtFlo_Sys_L_MechElec_C" = 153.4021   $ Sizing
 "CHRtFlo_Sys_L_OfficeOpn_C" = 2105.065   $ Sizing
 "CHRtFlo_Sys_L_OfficeOpn_E" = 1984.794   $ Sizing
 "CHRtFlo_Sys_L_OfficeOpn_N" = 1332.79   $ Sizing
 "CHRtFlo_Sys_L_OfficeOpn_S" = 1884.501   $ Sizing
 "CHRtFlo_Sys_L_OfficeOpn_W" = 2012.998   $ Sizing
 "CHRtFlo_Sys_L_OfficeSm_C" = 287.5131   $ Sizing
 "CHRtFlo_Sys_L_OfficeSm_E" = 1437.463   $ Sizing
 "CHRtFlo_Sys_L_OfficeSm_N" = 865.7527   $ Sizing
 "CHRtFlo_Sys_L_OfficeSm_S" = 1372.637   $ Sizing
 "CHRtFlo_Sys_L_OfficeSm_W" = 1417.481   $ Sizing
 "CHRtFlo_Sys_L_Restrm_C" = 230.7435   $ Sizing
 "CHRtFlo_Sys_L_StorSm_C" = 459.4138   $ Sizing
 "CHRtFlo_Sys_M_Break_C" = 5259.723   $ Sizing
 "CHRtFlo_Sys_M_Conf_C" = 5055.316   $ Sizing
 "CHRtFlo_Sys_M_CopyRm_C" = 1608.549   $ Sizing
 "CHRtFlo_Sys_M_Cordr_C" = 8802.604   $ Sizing
 "CHRtFlo_Sys_M_Cordr_E" = 2595.847   $ Sizing
 "CHRtFlo_Sys_M_Cordr_N" = 1627.252   $ Sizing
 "CHRtFlo_Sys_M_Cordr_S" = 2353.04   $ Sizing
 "CHRtFlo_Sys_M_Cordr_W" = 2368.644   $ Sizing
 "CHRtFlo_Sys_M_LobWait_C" = 5406.067   $ Sizing
 "CHRtFlo_Sys_M_MechElec_C" = 1606.451   $ Sizing
 "CHRtFlo_Sys_M_OfficeOpn_C" = 18494.63   $ Sizing
 "CHRtFlo_Sys_M_OfficeOpn_E" = 17264.31   $ Sizing
 "CHRtFlo_Sys_M_OfficeOpn_N" = 11173.03   $ Sizing
 "CHRtFlo_Sys_M_OfficeOpn_S" = 16154.48   $ Sizing
 "CHRtFlo_Sys_M_OfficeOpn_W" = 16478.79   $ Sizing
 "CHRtFlo_Sys_M_OfficeSm_C" = 2889.648   $ Sizing
 "CHRtFlo_Sys_M_OfficeSm_E" = 12323.67   $ Sizing
 "CHRtFlo_Sys_M_OfficeSm_N" = 7204.313   $ Sizing
 "CHRtFlo_Sys_M_OfficeSm_S" = 11665.55   $ Sizing
 "CHRtFlo_Sys_M_OfficeSm_W" = 11521.93   $ Sizing
 "CHRtFlo_Sys_M_Restrm_C" = 1845.948   $ Sizing
 "CHRtFlo_Sys_M_StorSm_C" = 4023.512   $ Sizing
 "CHRtFlo_Sys_T_Break_C" = 650.3698   $ Sizing
 "CHRtFlo_Sys_T_Conf_C" = 624.6376   $ Sizing
 "CHRtFlo_Sys_T_CopyRm_C" = 199.8332   $ Sizing
 "CHRtFlo_Sys_T_Cordr_C" = 975.5969   $ Sizing
 "CHRtFlo_Sys_T_Cordr_E" = 289.359   $ Sizing
 "CHRtFlo_Sys_T_Cordr_N" = 203.3475   $ Sizing
 "CHRtFlo_Sys_T_Cordr_S" = 278.7664   $ Sizing
 "CHRtFlo_Sys_T_Cordr_W" = 297.7168   $ Sizing
 "CHRtFlo_Sys_T_LobWait_C" = 666.2795   $ Sizing
 "CHRtFlo_Sys_T_MechElec_C" = 234.7384   $ Sizing
 "CHRtFlo_Sys_T_OfficeOpn_C" = 2167.383   $ Sizing
 "CHRtFlo_Sys_T_OfficeOpn_E" = 1964.495   $ Sizing
 "CHRtFlo_Sys_T_OfficeOpn_N" = 1425.282   $ Sizing
 "CHRtFlo_Sys_T_OfficeOpn_S" = 1899.92   $ Sizing
 "CHRtFlo_Sys_T_OfficeOpn_W" = 2066.148   $ Sizing
 "CHRtFlo_Sys_T_OfficeSm_C" = 317.5876   $ Sizing
 "CHRtFlo_Sys_T_OfficeSm_E" = 1445.255   $ Sizing
 "CHRtFlo_Sys_T_OfficeSm_N" = 925.156   $ Sizing
 "CHRtFlo_Sys_T_OfficeSm_S" = 1391.633   $ Sizing
 "CHRtFlo_Sys_T_OfficeSm_W" = 1447.353   $ Sizing
 "CHRtFlo_Sys_T_Restrm_C" = 230.7435   $ Sizing
 "CHRtFlo_Sys_T_StorSm_C" = 363.8655   $ Sizing
 "CRtdFlo_Sys_L_Break_C" = 654.0481   $ Sizing
 "CRtdFlo_Sys_L_Conf_C" = 635.0033   $ Sizing
 "CRtdFlo_Sys_L_CopyRm_C" = 208.5119   $ Sizing
 "CRtdFlo_Sys_L_Cordr_C" = 756.1542   $ Sizing
 "CRtdFlo_Sys_L_Cordr_E" = 256.7139   $ Sizing
 "CRtdFlo_Sys_L_Cordr_N" = 183.3272   $ Sizing
 "CRtdFlo_Sys_L_Cordr_S" = 254.2497   $ Sizing
 "CRtdFlo_Sys_L_Cordr_W" = 282.0959   $ Sizing
 "CRtdFlo_Sys_L_LobWait_C" = 656.3124   $ Sizing
 "CRtdFlo_Sys_L_MechElec_C" = 147.4797   $ Sizing
 "CRtdFlo_Sys_L_OfficeOpn_C" = 2105.065   $ Sizing
 "CRtdFlo_Sys_L_OfficeOpn_E" = 1787.224   $ Sizing
 "CRtdFlo_Sys_L_OfficeOpn_N" = 1332.79   $ Sizing
 "CRtdFlo_Sys_L_OfficeOpn_S" = 1772.659   $ Sizing
 "CRtdFlo_Sys_L_OfficeOpn_W" = 2012.998   $ Sizing
 "CRtdFlo_Sys_L_OfficeSm_C" = 268.5766   $ Sizing
 "CRtdFlo_Sys_L_OfficeSm_E" = 1263.988   $ Sizing
 "CRtdFlo_Sys_L_OfficeSm_N" = 865.7527   $ Sizing
 "CRtdFlo_Sys_L_OfficeSm_S" = 1236.667   $ Sizing
 "CRtdFlo_Sys_L_OfficeSm_W" = 1398.295   $ Sizing
 "CRtdFlo_Sys_L_Restrm_C" = 106.5539   $ Sizing
 "CRtdFlo_Sys_L_StorSm_C" = 457.2709   $ Sizing
 "CRtdFlo_Sys_M_Break_C" = 5259.723   $ Sizing
 "CRtdFlo_Sys_M_Conf_C" = 5055.316   $ Sizing
 "CRtdFlo_Sys_M_CopyRm_C" = 1608.549   $ Sizing
 "CRtdFlo_Sys_M_Cordr_C" = 8325.158   $ Sizing
 "CRtdFlo_Sys_M_Cordr_E" = 2356.342   $ Sizing
 "CRtdFlo_Sys_M_Cordr_N" = 1589.795   $ Sizing
 "CRtdFlo_Sys_M_Cordr_S" = 2215.857   $ Sizing
 "CRtdFlo_Sys_M_Cordr_W" = 2368.644   $ Sizing
 "CRtdFlo_Sys_M_LobWait_C" = 5406.067   $ Sizing
 "CRtdFlo_Sys_M_MechElec_C" = 1474.476   $ Sizing
 "CRtdFlo_Sys_M_OfficeOpn_C" = 17011.16   $ Sizing
 "CRtdFlo_Sys_M_OfficeOpn_E" = 15447.98   $ Sizing
 "CRtdFlo_Sys_M_OfficeOpn_N" = 11173.03   $ Sizing
 "CRtdFlo_Sys_M_OfficeOpn_S" = 14957.96   $ Sizing
 "CRtdFlo_Sys_M_OfficeOpn_W" = 16478.79   $ Sizing
 "CRtdFlo_Sys_M_OfficeSm_C" = 2650.052   $ Sizing
 "CRtdFlo_Sys_M_OfficeSm_E" = 10807.77   $ Sizing
 "CRtdFlo_Sys_M_OfficeSm_N" = 7204.313   $ Sizing
 "CRtdFlo_Sys_M_OfficeSm_S" = 10340.19   $ Sizing
 "CRtdFlo_Sys_M_OfficeSm_W" = 11364.76   $ Sizing
 "CRtdFlo_Sys_M_Restrm_C" = 950.7168   $ Sizing
 "CRtdFlo_Sys_M_StorSm_C" = 3862.729   $ Sizing
 "CRtdFlo_Sys_T_Break_C" = 650.3698   $ Sizing
 "CRtdFlo_Sys_T_Conf_C" = 624.6376   $ Sizing
 "CRtdFlo_Sys_T_CopyRm_C" = 199.8332   $ Sizing
 "CRtdFlo_Sys_T_Cordr_C" = 975.5969   $ Sizing
 "CRtdFlo_Sys_T_Cordr_E" = 289.359   $ Sizing
 "CRtdFlo_Sys_T_Cordr_N" = 203.3475   $ Sizing
 "CRtdFlo_Sys_T_Cordr_S" = 278.7664   $ Sizing
 "CRtdFlo_Sys_T_Cordr_W" = 297.7168   $ Sizing
 "CRtdFlo_Sys_T_LobWait_C" = 666.2795   $ Sizing
 "CRtdFlo_Sys_T_MechElec_C" = 208.7556   $ Sizing
 "CRtdFlo_Sys_T_OfficeOpn_C" = 2167.383   $ Sizing
 "CRtdFlo_Sys_T_OfficeOpn_E" = 1900.311   $ Sizing
 "CRtdFlo_Sys_T_OfficeOpn_N" = 1425.282   $ Sizing
 "CRtdFlo_Sys_T_OfficeOpn_S" = 1899.92   $ Sizing
 "CRtdFlo_Sys_T_OfficeOpn_W" = 2066.148   $ Sizing
 "CRtdFlo_Sys_T_OfficeSm_C" = 307.496   $ Sizing
 "CRtdFlo_Sys_T_OfficeSm_E" = 1375.462   $ Sizing
 "CRtdFlo_Sys_T_OfficeSm_N" = 925.156   $ Sizing
 "CRtdFlo_Sys_T_OfficeSm_S" = 1328.248   $ Sizing
 "CRtdFlo_Sys_T_OfficeSm_W" = 1447.353   $ Sizing
 "CRtdFlo_Sys_T_Restrm_C" = 158.6974   $ Sizing
 "CRtdFlo_Sys_T_StorSm_C" = 316.2613   $ Sizing
 "CSupFlo_Sys_L_Break_C" = 654.0481   $ Sizing
 "CSupFlo_Sys_L_Conf_C" = 635.0033   $ Sizing
 "CSupFlo_Sys_L_CopyRm_C" = 208.5119   $ Sizing
 "CSupFlo_Sys_L_Cordr_C" = 756.1542   $ Sizing
 "CSupFlo_Sys_L_Cordr_E" = 256.7139   $ Sizing
 "CSupFlo_Sys_L_Cordr_N" = 183.3272   $ Sizing
 "CSupFlo_Sys_L_Cordr_S" = 254.2497   $ Sizing
 "CSupFlo_Sys_L_Cordr_W" = 282.0959   $ Sizing
 "CSupFlo_Sys_L_LobWait_C" = 656.3124   $ Sizing
 "CSupFlo_Sys_L_MechElec_C" = 147.4797   $ Sizing
 "CSupFlo_Sys_L_OfficeOpn_C" = 2105.065   $ Sizing
 "CSupFlo_Sys_L_OfficeOpn_E" = 1787.224   $ Sizing
 "CSupFlo_Sys_L_OfficeOpn_N" = 1332.79   $ Sizing
 "CSupFlo_Sys_L_OfficeOpn_S" = 1772.659   $ Sizing
 "CSupFlo_Sys_L_OfficeOpn_W" = 2012.998   $ Sizing
 "CSupFlo_Sys_L_OfficeSm_C" = 268.5766   $ Sizing
 "CSupFlo_Sys_L_OfficeSm_E" = 1263.988   $ Sizing
 "CSupFlo_Sys_L_OfficeSm_N" = 865.7527   $ Sizing
 "CSupFlo_Sys_L_OfficeSm_S" = 1236.667   $ Sizing
 "CSupFlo_Sys_L_OfficeSm_W" = 1398.295   $ Sizing
 "CSupFlo_Sys_L_Restrm_C" = 106.5539   $ Sizing
 "CSupFlo_Sys_L_StorSm_C" = 457.2709   $ Sizing
 "CSupFlo_Sys_M_Break_C" = 5259.723   $ Sizing
 "CSupFlo_Sys_M_Conf_C" = 5055.316   $ Sizing
 "CSupFlo_Sys_M_CopyRm_C" = 1608.549   $ Sizing
 "CSupFlo_Sys_M_Cordr_C" = 8325.158   $ Sizing
 "CSupFlo_Sys_M_Cordr_E" = 2356.342   $ Sizing
 "CSupFlo_Sys_M_Cordr_N" = 1589.795   $ Sizing
 "CSupFlo_Sys_M_Cordr_S" = 2215.857   $ Sizing
 "CSupFlo_Sys_M_Cordr_W" = 2368.644   $ Sizing
 "CSupFlo_Sys_M_LobWait_C" = 5406.067   $ Sizing
 "CSupFlo_Sys_M_MechElec_C" = 1474.476   $ Sizing
 "CSupFlo_Sys_M_OfficeOpn_C" = 17011.16   $ Sizing
 "CSupFlo_Sys_M_OfficeOpn_E" = 15447.98   $ Sizing
 "CSupFlo_Sys_M_OfficeOpn_N" = 11173.03   $ Sizing
 "CSupFlo_Sys_M_OfficeOpn_S" = 14957.96   $ Sizing
 "CSupFlo_Sys_M_OfficeOpn_W" = 16478.79   $ Sizing
 "CSupFlo_Sys_M_OfficeSm_C" = 2650.052   $ Sizing
 "CSupFlo_Sys_M_OfficeSm_E" = 10807.77   $ Sizing
 "CSupFlo_Sys_M_OfficeSm_N" = 7204.313   $ Sizing
 "CSupFlo_Sys_M_OfficeSm_S" = 10340.19   $ Sizing
 "CSupFlo_Sys_M_OfficeSm_W" = 11364.76   $ Sizing
 "CSupFlo_Sys_M_Restrm_C" = 950.7168   $ Sizing
 "CSupFlo_Sys_M_StorSm_C" = 3862.729   $ Sizing
 "CSupFlo_Sys_T_Break_C" = 650.3698   $ Sizing
 "CSupFlo_Sys_T_Conf_C" = 624.6376   $ Sizing
 "CSupFlo_Sys_T_CopyRm_C" = 199.8332   $ Sizing
 "CSupFlo_Sys_T_Cordr_C" = 975.5969   $ Sizing
 "CSupFlo_Sys_T_Cordr_E" = 289.359   $ Sizing
 "CSupFlo_Sys_T_Cordr_N" = 203.3475   $ Sizing
 "CSupFlo_Sys_T_Cordr_S" = 278.7664   $ Sizing
 "CSupFlo_Sys_T_Cordr_W" = 297.7168   $ Sizing
 "CSupFlo_Sys_T_LobWait_C" = 666.2795   $ Sizing
 "CSupFlo_Sys_T_MechElec_C" = 208.7556   $ Sizing
 "CSupFlo_Sys_T_OfficeOpn_C" = 2167.383   $ Sizing
 "CSupFlo_Sys_T_OfficeOpn_E" = 1900.311   $ Sizing
 "CSupFlo_Sys_T_OfficeOpn_N" = 1425.282   $ Sizing
 "CSupFlo_Sys_T_OfficeOpn_S" = 1899.92   $ Sizing
 "CSupFlo_Sys_T_OfficeOpn_W" = 2066.148   $ Sizing
 "CSupFlo_Sys_T_OfficeSm_C" = 307.496   $ Sizing
 "CSupFlo_Sys_T_OfficeSm_E" = 1375.462   $ Sizing
 "CSupFlo_Sys_T_OfficeSm_N" = 925.156   $ Sizing
 "CSupFlo_Sys_T_OfficeSm_S" = 1328.248   $ Sizing
 "CSupFlo_Sys_T_OfficeSm_W" = 1447.353   $ Sizing
 "CSupFlo_Sys_T_Restrm_C" = 158.6974   $ Sizing
 "CSupFlo_Sys_T_StorSm_C" = 316.2613   $ Sizing
 "ClCap_Sys_L_Break_C" = 20435.52   $ Sizing
 "ClCap_Sys_L_Conf_C" = 25251.51   $ Sizing
 "ClCap_Sys_L_CopyRm_C" = 6514.886   $ Sizing
 "ClCap_Sys_L_Cordr_C" = 23625.79   $ Sizing
 "ClCap_Sys_L_Cordr_E" = 8020.941   $ Sizing
 "ClCap_Sys_L_Cordr_N" = 5727.998   $ Sizing
 "ClCap_Sys_L_Cordr_S" = 7943.948   $ Sizing
 "ClCap_Sys_L_Cordr_W" = 8813.995   $ Sizing
 "ClCap_Sys_L_LobWait_C" = 20506.27   $ Sizing
 "ClCap_Sys_L_MechElec_C" = 4607.956   $ Sizing
 "ClCap_Sys_L_OfficeOpn_C" = 65772.08   $ Sizing
 "ClCap_Sys_L_OfficeOpn_E" = 55841.22   $ Sizing
 "ClCap_Sys_L_OfficeOpn_N" = 41642.59   $ Sizing
 "ClCap_Sys_L_OfficeOpn_S" = 55386.14   $ Sizing
 "ClCap_Sys_L_OfficeOpn_W" = 62895.46   $ Sizing
 "ClCap_Sys_L_OfficeSm_C" = 8391.588   $ Sizing
 "ClCap_Sys_L_OfficeSm_E" = 39492.88   $ Sizing
 "ClCap_Sys_L_OfficeSm_N" = 27050.16   $ Sizing
 "ClCap_Sys_L_OfficeSm_S" = 38639.25   $ Sizing
 "ClCap_Sys_L_OfficeSm_W" = 43689.26   $ Sizing
 "ClCap_Sys_L_Restrm_C" = 3329.242   $ Sizing
 "ClCap_Sys_L_StorSm_C" = 14287.28   $ Sizing
 "ClCap_Sys_M_Break_C" = 164338.3   $ Sizing
 "ClCap_Sys_M_Conf_C" = 201029.4   $ Sizing
 "ClCap_Sys_M_CopyRm_C" = 50258.58   $ Sizing
 "ClCap_Sys_M_Cordr_C" = 260116.9   $ Sizing
 "ClCap_Sys_M_Cordr_E" = 73623.15   $ Sizing
 "ClCap_Sys_M_Cordr_N" = 49672.62   $ Sizing
 "ClCap_Sys_M_Cordr_S" = 69233.73   $ Sizing
 "ClCap_Sys_M_Cordr_W" = 74007.52   $ Sizing
 "ClCap_Sys_M_LobWait_C" = 168910.8   $ Sizing
 "ClCap_Sys_M_MechElec_C" = 46069.52   $ Sizing
 "ClCap_Sys_M_OfficeOpn_C" = 531508.3   $ Sizing
 "ClCap_Sys_M_OfficeOpn_E" = 482667   $ Sizing
 "ClCap_Sys_M_OfficeOpn_N" = 349097.6   $ Sizing
 "ClCap_Sys_M_OfficeOpn_S" = 467356.6   $ Sizing
 "ClCap_Sys_M_OfficeOpn_W" = 514874.4   $ Sizing
 "ClCap_Sys_M_OfficeSm_C" = 82799.99   $ Sizing
 "ClCap_Sys_M_OfficeSm_E" = 337685.3   $ Sizing
 "ClCap_Sys_M_OfficeSm_N" = 225096.4   $ Sizing
 "ClCap_Sys_M_OfficeSm_S" = 323075.7   $ Sizing
 "ClCap_Sys_M_OfficeSm_W" = 355088.2   $ Sizing
 "ClCap_Sys_M_Restrm_C" = 29704.84   $ Sizing
 "ClCap_Sys_M_StorSm_C" = 120689.7   $ Sizing
 "ClCap_Sys_T_Break_C" = 20320.59   $ Sizing
 "ClCap_Sys_T_Conf_C" = 24839.3   $ Sizing
 "ClCap_Sys_T_CopyRm_C" = 6243.724   $ Sizing
 "ClCap_Sys_T_Cordr_C" = 30482.21   $ Sizing
 "ClCap_Sys_T_Cordr_E" = 9040.927   $ Sizing
 "ClCap_Sys_T_Cordr_N" = 6353.527   $ Sizing
 "ClCap_Sys_T_Cordr_S" = 8709.965   $ Sizing
 "ClCap_Sys_T_Cordr_W" = 9302.063   $ Sizing
 "ClCap_Sys_T_LobWait_C" = 20817.69   $ Sizing
 "ClCap_Sys_T_MechElec_C" = 6522.501   $ Sizing
 "ClCap_Sys_T_OfficeOpn_C" = 67719.17   $ Sizing
 "ClCap_Sys_T_OfficeOpn_E" = 59374.58   $ Sizing
 "ClCap_Sys_T_OfficeOpn_N" = 44532.47   $ Sizing
 "ClCap_Sys_T_OfficeOpn_S" = 59362.38   $ Sizing
 "ClCap_Sys_T_OfficeOpn_W" = 64556.11   $ Sizing
 "ClCap_Sys_T_OfficeSm_C" = 9607.613   $ Sizing
 "ClCap_Sys_T_OfficeSm_E" = 42975.87   $ Sizing
 "ClCap_Sys_T_OfficeSm_N" = 28906.2   $ Sizing
 "ClCap_Sys_T_OfficeSm_S" = 41500.67   $ Sizing
 "ClCap_Sys_T_OfficeSm_W" = 45222.06   $ Sizing
 "ClCap_Sys_T_Restrm_C" = 4958.448   $ Sizing
 "ClCap_Sys_T_StorSm_C" = 9881.479   $ Sizing
 "HtCap_Sys_L_Break_C" = -35398.39   $ Sizing
 "HtCap_Sys_L_Conf_C" = -35593.04   $ Sizing
 "HtCap_Sys_L_CopyRm_C" = -13341.23   $ Sizing
 "HtCap_Sys_L_Cordr_C" = -31418.99   $ Sizing
 "HtCap_Sys_L_Cordr_E" = -9144.468   $ Sizing
 "HtCap_Sys_L_Cordr_N" = -7168.379   $ Sizing
 "HtCap_Sys_L_Cordr_S" = -8635.027   $ Sizing
 "HtCap_Sys_L_Cordr_W" = -9418   $ Sizing
 "HtCap_Sys_L_LobWait_C" = -34041.41   $ Sizing
 "HtCap_Sys_L_MechElec_C" = -6679.942   $ Sizing
 "HtCap_Sys_L_OfficeOpn_C" = -94229.21   $ Sizing
 "HtCap_Sys_L_OfficeOpn_E" = -62115.29   $ Sizing
 "HtCap_Sys_L_OfficeOpn_N" = -46983.81   $ Sizing
 "HtCap_Sys_L_OfficeOpn_S" = -59352.92   $ Sizing
 "HtCap_Sys_L_OfficeOpn_W" = -62957.69   $ Sizing
 "HtCap_Sys_L_OfficeSm_C" = -10478.38   $ Sizing
 "HtCap_Sys_L_OfficeSm_E" = -42778.75   $ Sizing
 "HtCap_Sys_L_OfficeSm_N" = -30362.76   $ Sizing
 "HtCap_Sys_L_OfficeSm_S" = -42530.76   $ Sizing
 "HtCap_Sys_L_OfficeSm_W" = -44043   $ Sizing
 "HtCap_Sys_L_Restrm_C" = -7765.246   $ Sizing
 "HtCap_Sys_L_StorSm_C" = -18945.85   $ Sizing
 "HtCap_Sys_M_Break_C" = -268145.1   $ Sizing
 "HtCap_Sys_M_Conf_C" = -262136.5   $ Sizing
 "HtCap_Sys_M_CopyRm_C" = -90137.58   $ Sizing
 "HtCap_Sys_M_Cordr_C" = -319066.7   $ Sizing
 "HtCap_Sys_M_Cordr_E" = -82841.45   $ Sizing
 "HtCap_Sys_M_Cordr_N" = -57926.34   $ Sizing
 "HtCap_Sys_M_Cordr_S" = -76301.98   $ Sizing
 "HtCap_Sys_M_Cordr_W" = -77767.97   $ Sizing
 "HtCap_Sys_M_LobWait_C" = -242532.3   $ Sizing
 "HtCap_Sys_M_MechElec_C" = -63164.4   $ Sizing
 "HtCap_Sys_M_OfficeOpn_C" = -816654.1   $ Sizing
 "HtCap_Sys_M_OfficeOpn_E" = -531006.6   $ Sizing
 "HtCap_Sys_M_OfficeOpn_N" = -382956.8   $ Sizing
 "HtCap_Sys_M_OfficeOpn_S" = -500865.3   $ Sizing
 "HtCap_Sys_M_OfficeOpn_W" = -512455.8   $ Sizing
 "HtCap_Sys_M_OfficeSm_C" = -98954.14   $ Sizing
 "HtCap_Sys_M_OfficeSm_E" = -364519.8   $ Sizing
 "HtCap_Sys_M_OfficeSm_N" = -246408.4   $ Sizing
 "HtCap_Sys_M_OfficeSm_S" = -356610.8   $ Sizing
 "HtCap_Sys_M_OfficeSm_W" = -355510.2   $ Sizing
 "HtCap_Sys_M_Restrm_C" = -66884.76   $ Sizing
 "HtCap_Sys_M_StorSm_C" = -156914.5   $ Sizing
 "HtCap_Sys_T_Break_C" = -36217.9   $ Sizing
 "HtCap_Sys_T_Conf_C" = -35340.52   $ Sizing
 "HtCap_Sys_T_CopyRm_C" = -12322.34   $ Sizing
 "HtCap_Sys_T_Cordr_C" = -41648.62   $ Sizing
 "HtCap_Sys_T_Cordr_E" = -10828.68   $ Sizing
 "HtCap_Sys_T_Cordr_N" = -8533.577   $ Sizing
 "HtCap_Sys_T_Cordr_S" = -10162.33   $ Sizing
 "HtCap_Sys_T_Cordr_W" = -11405.74   $ Sizing
 "HtCap_Sys_T_LobWait_C" = -34105.99   $ Sizing
 "HtCap_Sys_T_MechElec_C" = -8769.183   $ Sizing
 "HtCap_Sys_T_OfficeOpn_C" = -89464.49   $ Sizing
 "HtCap_Sys_T_OfficeOpn_E" = -69336.49   $ Sizing
 "HtCap_Sys_T_OfficeOpn_N" = -56741.03   $ Sizing
 "HtCap_Sys_T_OfficeOpn_S" = -68225.44   $ Sizing
 "HtCap_Sys_T_OfficeOpn_W" = -73376   $ Sizing
 "HtCap_Sys_T_OfficeSm_C" = -12651.02   $ Sizing
 "HtCap_Sys_T_OfficeSm_E" = -49978.79   $ Sizing
 "HtCap_Sys_T_OfficeSm_N" = -36523.31   $ Sizing
 "HtCap_Sys_T_OfficeSm_S" = -49389.26   $ Sizing
 "HtCap_Sys_T_OfficeSm_W" = -51537.08   $ Sizing
 "HtCap_Sys_T_Restrm_C" = -8800.019   $ Sizing
 "HtCap_Sys_T_StorSm_C" = -17603.63   $ Sizing
..

##include Templates\OfL_DX_SZ.inp
END ..
COMPUTE ..
STOP ..
