INPUT ..

##fileprefix C:\Users\jglasskatz\MASControl3\
##set1 IsSizing FALSE
##set1 CoolType DX
##set1 HeatType FURNACE
##set1 EU_HrRepVar 0
##set1 BldgVint 2007
##set1 BldgLoc CZ08

 ##set1 mBFMult 1   $ IP Tech: RefgChg-NRes-Std

PARAMETER
 "AltFactor" = 1.01468   $ IP Non-Tech
 "BF_fFlow" = SpltAC1Sp_BF_fFlow   $ Msr (Var)TechID: PreNResSplitAC-lt45-PENo
 "BF_fT" = SpltAC1Sp_BF_fT   $ Msr (Var)TechID: PreNResSplitAC-lt45-PENo
 "BldgEconoFlag" = 1   $ IP Non-Tech
 "Break_EWSF" = 1   $ IP Non-Tech
 "Break_LWSF" = 1.1   $ IP Non-Tech
 "CDD_DBHi10" = 92   $ IP Non-Tech
 "CDD_DBHi7" = 84   $ IP Non-Tech
 "CDD_DBHi8" = 87   $ IP Non-Tech
 "CDD_DBHi9" = 91   $ IP Non-Tech
 "CDD_DBRange10" = 31   $ IP Non-Tech
 "CDD_DBRange7" = 16   $ IP Non-Tech
 "CDD_DBRange8" = 20   $ IP Non-Tech
 "CDD_DBRange9" = 23   $ IP Non-Tech
 "CDD_Day10" = 15   $ IP Non-Tech
 "CDD_Day7" = 16   $ IP Non-Tech
 "CDD_Day8" = 20   $ IP Non-Tech
 "CDD_Day9" = 17   $ IP Non-Tech
 "CDD_HrHi10" = 16   $ IP Non-Tech
 "CDD_HrHi7" = 14   $ IP Non-Tech
 "CDD_HrHi8" = 15   $ IP Non-Tech
 "CDD_HrHi9" = 13   $ IP Non-Tech
 "CDD_HrLo10" = 3   $ IP Non-Tech
 "CDD_HrLo7" = 4   $ IP Non-Tech
 "CDD_HrLo8" = 7   $ IP Non-Tech
 "CDD_HrLo9" = 7   $ IP Non-Tech
 "CDD_WB10" = 63.44163513   $ IP Non-Tech
 "CDD_WB7" = 69.12194824   $ IP Non-Tech
 "CDD_WB8" = 71.41388702   $ IP Non-Tech
 "CDD_WB9" = 69.41378784   $ IP Non-Tech
 "CEIR_fPLR_Hot" = SpltAC1Sp_CEIR_fPLR_Hot   $ Msr (Var)TechID: PreNResSplitAC-lt45-PENo
 "CEIR_fPLR_Mod" = SpltAC1Sp_CEIR_fPLR_Mod   $ Msr (Var)TechID: PreNResSplitAC-lt45-PENo
 "CEIR_fPLR_Tem" = SpltAC1Sp_CEIR_fPLR_Tem   $ Msr (Var)TechID: PreNResSplitAC-lt45-PENo
 "CLoss_fPLR_Hot" = SpltAC1Sp_CLoss_fPLR_Hot   $ Msr (Var)TechID: PreNResSplitAC-lt45-PENo
 "CLoss_fPLR_Mod" = SpltAC1Sp_CLoss_fPLR_Mod   $ Msr (Var)TechID: PreNResSplitAC-lt45-PENo
 "CLoss_fPLR_Tem" = SpltAC1Sp_CLoss_fPLR_Tem   $ Msr (Var)TechID: PreNResSplitAC-lt45-PENo
 "COP47" = 0   $ Msr (Var)TechID: PreNResSplitAC-lt45-PENo
 "CZ_Category" = Mod   $ IP Non-Tech
 "CapRange" = Any   $ Msr (Var)TechID: PreNResSplitAC-lt45-PENo
 "CfmPerBtuh" = 0.0321   $ Msr (Var)TechID: PreNResSplitAC-lt45-PENo
 "ChwVintEconoFlag" = 1   $ IP Non-Tech
 "ClCap_fT" = SpltAC1Sp_ClCap_fT   $ Msr (Var)TechID: PreNResSplitAC-lt45-PENo
 "ClSH_fT" = SpltAC1Sp_ClSH_fT   $ Msr (Var)TechID: PreNResSplitAC-lt45-PENo
 "CoilBF" = 0.12   $ Msr (Var)TechID: PreNResSplitAC-lt45-PENo
 "CondWPerBtuh" = 0   $ Msr (Var)TechID: PreNResSplitAC-lt45-PENo
 "Conference_EWSF" = 1   $ IP Non-Tech
 "Conference_LWSF" = 1.4   $ IP Non-Tech
 "CoolSensCap" = 0.744   $ Msr (Var)TechID: PreNResSplitAC-lt45-PENo
 "CoolSetT" = 45   $ IP Non-Tech
 "CoolType" = DX   $ IP Non-Tech
 "CoolingEIR" = 0.25823   $ Msr (Var)TechID: PreNResSplitAC-lt45-PENo
 "CopyRoom_EWSF" = 1.5   $ IP Non-Tech
 "CopyRoom_LWSF" = 1.3   $ IP Non-Tech
 "CorridorStairway_EWSF" = 0.2   $ IP Non-Tech
 "CorridorStairway_LWSF" = 0.6   $ IP Non-Tech
 "CrnkEIR" = 0.0025823   $ Msr (Var)TechID: PreNResSplitAC-lt45-PENo
 "CrnkMaxT" = 50   $ Msr (Var)TechID: PreNResSplitAC-lt45-PENo
 "DXType" = SplitSEER   $ Msr (Var)TechID: PreNResSplitAC-lt45-PENo
 "DesCoolT" = 75   $ IP Non-Tech
 "DesHeatT" = 73   $ IP Non-Tech
 "EER" = 11.07746479   $ Msr (Var)TechID: PreNResSplitAC-lt45-PENo
 "EIR_fT" = SpltAC1Sp_EIR_fT   $ Msr (Var)TechID: PreNResSplitAC-lt45-PENo
 "EconoCtrl" = FIXED   $ Msr (Multi)TechID: PreNResSplitAC-lt45-PENo
 "EconoEnthLimit" = 28   $ IP Non-Tech
 "EconoTempLimit" = 71   $ IP Non-Tech
 "Elevation" = 395   $ IP Non-Tech
 "FanEirPlr" = TwoSpeedFan   $ Msr (Var)TechID: PreNResSplitAC-lt45-PENo
 "FanWPerCfm" = 0.348   $ Msr (Var)TechID: PreNResSplitAC-lt45-PENo
 "HDD_CloudAmt1" = 0   $ IP Non-Tech
 "HDD_DBHi1" = 55   $ IP Non-Tech
 "HDD_DBRange1" = 18   $ IP Non-Tech
 "HDD_Day1" = 15   $ IP Non-Tech
 "HDD_HrHi1" = 11   $ IP Non-Tech
 "HDD_HrLo1" = 6   $ IP Non-Tech
 "HDD_WB1" = 49.4   $ IP Non-Tech
 "HDD_WindSpd1" = 9.2   $ IP Non-Tech
 "HIR_fT" = 0   $ Msr (Var)TechID: PreNResSplitAC-lt45-PENo
 "HSPF" = 0   $ Msr (Var)TechID: PreNResSplitAC-lt45-PENo
 "HeatSrc" = FURNACE   $ IP Non-Tech
 "HeatSrcTU" = HEAT-PUMP   $ IP Non-Tech
 "HeatType" = GasFurn   $ IP Non-Tech
 "HeatTypeTU" = HEAT-PUMP   $ IP Non-Tech
 "HtCap_fT" = 0   $ Msr (Var)TechID: PreNResSplitAC-lt45-PENo
 "HtCoolCapRatio" = 0   $ Msr (Var)TechID: PreNResSplitAC-lt45-PENo
 "HtgEIR" = 0   $ Msr (Var)TechID: PreNResSplitAC-lt45-PENo
 "IndoorFanMode" = CONTINUOUS   $ IP Non-Tech
 "KT_TransferAir" = No   $ IP Non-Tech
 "Latitude" = 33.8   $ IP Non-Tech
 "LobbyWaiting_EWSF" = 0.5   $ IP Non-Tech
 "LobbyWaiting_LWSF" = 1.3   $ IP Non-Tech
 "Longitude" = 118.2   $ IP Non-Tech
 "LowSpdCapRatio" = 1   $ Msr (Var)TechID: PreNResSplitAC-lt45-PENo
 "LowSpdCfmRatio" = 1   $ Msr (Var)TechID: PreNResSplitAC-lt45-PENo
 "MZFanMechEff" = 0.58   $ IP Non-Tech
 "MZHasRetFan" = FALSE   $ IP Non-Tech
 "MZ_RFanWPerCfm" = 0.37   $ IP Non-Tech
 "MZ_SFanWPerCfm" = 0.71   $ IP Non-Tech
 "MZ_SupFanStatic" = 2.25   $ IP Non-Tech
 "MaxOAFrac" = 1   $ Msr (Multi)TechID: PreNResSplitAC-lt45-PENo
 "MaxSupT_MZ" = 100   $ IP Non-Tech
 "MaxSupT_SZ" = 100   $ IP Non-Tech
 "MaxSupT_TU" = 90   $ IP Non-Tech
 "MechElecRoom_EWSF" = 0.2   $ IP Non-Tech
 "MechElecRoom_LWSF" = 0.7   $ IP Non-Tech
 "MinCfmPerSF" = 0.4   $ IP Non-Tech
 "MinSupT" = 55   $ IP Non-Tech
 "NumStages" = 1   $ Msr (Var)TechID: PreNResSplitAC-lt45-PENo
 "OccCoolT" = 76   $ IP Non-Tech
 "OccHeatT" = 72   $ IP Non-Tech
 "OfficeOpen_EWSF" = 1.5   $ IP Non-Tech
 "OfficeOpen_LWSF" = 1.2   $ IP Non-Tech
 "OfficeSmall_EWSF" = 1.5   $ IP Non-Tech
 "OfficeSmall_LWSF" = 1.3   $ IP Non-Tech
 "PkgDxVintEconoFlag" = 0   $ IP Non-Tech
 "Restroom_EWSF" = 0.2   $ IP Non-Tech
 "Restroom_LWSF" = 0.6   $ IP Non-Tech
 "SEER" = 13   $ Msr (Var)TechID: PreNResSplitAC-lt45-PENo
 "SZFanMechEff" = 0.58   $ IP Non-Tech
 "SZHasRetFan" = FALSE   $ IP Non-Tech
 "SZ_Is_2Spd" = FALSE   $ IP Non-Tech
 "SZ_SFanWPerCfm" = 0.46   $ IP Non-Tech
 "SZ_SupFanStatic" = 0.75   $ IP Non-Tech
 "Sector" = Any   $ Msr (Var)TechID: PreNResSplitAC-lt45-PENo
 "StorageSmlCond_EWSF" = 0.2   $ IP Non-Tech
 "StorageSmlCond_LWSF" = 0.6   $ IP Non-Tech
 "SubType" = AC   $ Msr (Var)TechID: PreNResSplitAC-lt45-PENo
 "T24GlzTbl" = CZTbl   $ IP Non-Tech
 "TermUnitFanMechEff" = 1   $ IP Non-Tech
 "TermUnitFanMode" = INTERMITTENT   $ IP Non-Tech
 "TotCoolCap" = 34895   $ Msr (Var)TechID: PreNResSplitAC-lt45-PENo
 "TwrSetpt" = 80.5   $ IP Non-Tech
 "UnocCoolT" = 86   $ IP Non-Tech
 "UnocHeatT" = 62   $ IP Non-Tech
 "UseEconoVintApplic" = FALSE   $ Msr (Multi)TechID: PreNResSplitAC-lt45-PENo
 "WlhpVintEconoFlag" = 0   $ IP Non-Tech
 "DuctDT" = 1   $ IP Tech: ComDuctInsul-1
 "DuctAirLoss" = 0   $ IP Tech: ComDuctLeak-0
 "DuctLossOAFrac" = 0   $ IP Tech: ComDuctLeak-0
 "ComRoofInsCalc" = FromUo   $ IP Tech: ComRoofIns-Hvy-0.08
 "ComRoofInsR" = -999   $ IP Tech: ComRoofIns-Hvy-0.08
 "ComRoofUo" = 0.08   $ IP Tech: ComRoofIns-Hvy-0.08
 "ComEWInsCalc" = FromUo   $ IP Tech: ComWallIns-MFrm-0.14
 "ComEWInsR" = -999   $ IP Tech: ComWallIns-MFrm-0.14
 "ComEWUo" = 0.14   $ IP Tech: ComWallIns-MFrm-0.14
 "ComN_SHGC" = 0.61   $ IP Tech: NResWin-ComN-0.77-0.61
 "ComN_UFactor" = 0.77   $ IP Tech: NResWin-ComN-0.77-0.61
 "ComN_VisTrans" = 0.77   $ IP Tech: NResWin-ComN-0.77-0.61
 "ComN_WinCode" = G2600   $ IP Tech: NResWin-ComN-0.77-0.61
 "ComN_WinFrmFrac" = 0.17   $ IP Tech: NResWin-ComN-0.77-0.61
 "ComN_WinFrmU" = 1   $ IP Tech: NResWin-ComN-0.77-0.61
 "ComO_SHGC" = 0.34   $ IP Tech: NResWin-ComO-0.77-0.34
 "ComO_UFactor" = 0.77   $ IP Tech: NResWin-ComO-0.77-0.34
 "ComO_VisTrans" = 0.44   $ IP Tech: NResWin-ComO-0.77-0.34
 "ComO_WinCode" = G2636   $ IP Tech: NResWin-ComO-0.77-0.34
 "ComO_WinFrmFrac" = 0.17   $ IP Tech: NResWin-ComO-0.77-0.34
 "ComO_WinFrmU" = 1   $ IP Tech: NResWin-ComO-0.77-0.34
 "LtgMsrApplic" = ALL   $ IP Tech: NonResLtgRefPre
 "LtgSav_CFL" = 0   $ IP Tech: NonResLtgRefPre
 "LtgSav_EX" = 0   $ IP Tech: NonResLtgRefPre
 "LtgSav_HB" = 0   $ IP Tech: NonResLtgRefPre
 "LtgSav_LF" = 0   $ IP Tech: NonResLtgRefPre
 "LtgSav_SP" = 0   $ IP Tech: NonResLtgRefPre
 "CEIR_fPLR" = PSZ65to135_CEIR_fPLR   $ IP Tech: PkgAC1SpH-65to135-E10
 "CLoss_fPLR" = PSZ65to135_CLoss_fPLR   $ IP Tech: PkgAC1SpH-65to135-E10
 "COP" = -1   $ IP Tech: PkgAC1SpH-65to135-E10
 "HtgFuel" = Gas   $ IP Tech: PkgAC1SpH-65to135-E10
 "IEER" = 11.87   $ IP Tech: PkgAC1SpH-65to135-E10
 "NominalCap" = 15   $ IP Tech: PkgAC1SpH-65to135-E10
 "RatedEER" = 10   $ IP Tech: PkgAC1SpH-65to135-E10
 "RatedSupMtrClass" = HiEff   $ IP Tech: PkgAC1SpH-65to135-E10
 "SizeRange" = 65to135   $ IP Tech: PkgAC1SpH-65to135-E10
 "SupMotEff" = 0.84   $ IP Tech: PkgAC1SpH-65to135-E10
 "Tier" = 0   $ IP Tech: PkgAC1SpH-65to135-E10
 "FanPwrMult" = 1   $ IP Tech: PkgFurn-0.80AFUE
 "FurnAFUE" = 0.8   $ IP Tech: PkgFurn-0.80AFUE
 "FurnEt" = 0.82   $ IP Tech: PkgFurn-0.80AFUE
 "FurnaceAuxKW" = 0.1   $ IP Tech: PkgFurn-0.80AFUE
 "HIR_fPLR" = Furnace-HIR-fPLR   $ IP Tech: PkgFurn-0.80AFUE
 "VSM" = FALSE   $ IP Tech: PkgFurn-0.80AFUE
 "BFMult" = 1   $ IP Tech: RefgChg-NRes-Std
 "CoolEirMult" = 1   $ IP Tech: RefgChg-NRes-Std
 "SensCoolCapMult" = 1   $ IP Tech: RefgChg-NRes-Std
 "TotCoolCapMult" = 1   $ IP Tech: RefgChg-NRes-Std
 "AltAdjFactor" = 1.014676   $ Sizing
 "CAssFlo_L_Break_CZn" = 491.4628   $ Sizing
 "CAssFlo_L_Conf_CZn" = 467.2887   $ Sizing
 "CAssFlo_L_CopyRm_CZn" = 150.8931   $ Sizing
 "CAssFlo_L_Cordr_CZn" = 556.1106   $ Sizing
 "CAssFlo_L_Cordr_EZn" = 230.8138   $ Sizing
 "CAssFlo_L_Cordr_NZn" = 131.851   $ Sizing
 "CAssFlo_L_Cordr_SZn" = 233.7142   $ Sizing
 "CAssFlo_L_Cordr_WZn" = 250.355   $ Sizing
 "CAssFlo_L_LobWait_CZn" = 477.1854   $ Sizing
 "CAssFlo_L_MechElec_CZn" = 116.6792   $ Sizing
 "CAssFlo_L_OfficeOpn_CZn" = 1678.21   $ Sizing
 "CAssFlo_L_OfficeOpn_EZn" = 1663.762   $ Sizing
 "CAssFlo_L_OfficeOpn_NZn" = 1064.677   $ Sizing
 "CAssFlo_L_OfficeOpn_SZn" = 1678.029   $ Sizing
 "CAssFlo_L_OfficeOpn_WZn" = 1839.357   $ Sizing
 "CAssFlo_L_OfficeSm_CZn" = 210.3567   $ Sizing
 "CAssFlo_L_OfficeSm_EZn" = 1180.144   $ Sizing
 "CAssFlo_L_OfficeSm_NZn" = 687.7077   $ Sizing
 "CAssFlo_L_OfficeSm_SZn" = 1217.082   $ Sizing
 "CAssFlo_L_OfficeSm_WZn" = 1303.898   $ Sizing
 "CAssFlo_L_Restrm_CZn" = 82.36654   $ Sizing
 "CAssFlo_L_StorSm_CZn" = 380.2091   $ Sizing
 "CAssFlo_M_Break_CZn" = 496.4469   $ Sizing
 "CAssFlo_M_Conf_CZn" = 467.9083   $ Sizing
 "CAssFlo_M_CopyRm_CZn" = 145.7464   $ Sizing
 "CAssFlo_M_Cordr_CZn" = 825.4489   $ Sizing
 "CAssFlo_M_Cordr_EZn" = 266.4875   $ Sizing
 "CAssFlo_M_Cordr_NZn" = 152.6631   $ Sizing
 "CAssFlo_M_Cordr_SZn" = 265.4545   $ Sizing
 "CAssFlo_M_Cordr_WZn" = 270.979   $ Sizing
 "CAssFlo_M_LobWait_CZn" = 502.832   $ Sizing
 "CAssFlo_M_MechElec_CZn" = 152.3208   $ Sizing
 "CAssFlo_M_OfficeOpn_CZn" = 1888.166   $ Sizing
 "CAssFlo_M_OfficeOpn_EZn" = 1782.573   $ Sizing
 "CAssFlo_M_OfficeOpn_NZn" = 1140.729   $ Sizing
 "CAssFlo_M_OfficeOpn_SZn" = 1817.105   $ Sizing
 "CAssFlo_M_OfficeOpn_WZn" = 1907.226   $ Sizing
 "CAssFlo_M_OfficeSm_CZn" = 258.8455   $ Sizing
 "CAssFlo_M_OfficeSm_EZn" = 1256.069   $ Sizing
 "CAssFlo_M_OfficeSm_NZn" = 732.6238   $ Sizing
 "CAssFlo_M_OfficeSm_SZn" = 1304.508   $ Sizing
 "CAssFlo_M_OfficeSm_WZn" = 1344.003   $ Sizing
 "CAssFlo_M_Restrm_CZn" = 103.1109   $ Sizing
 "CAssFlo_M_StorSm_CZn" = 394.5697   $ Sizing
 "CAssFlo_T_Break_CZn" = 494.8523   $ Sizing
 "CAssFlo_T_Conf_CZn" = 468.479   $ Sizing
 "CAssFlo_T_CopyRm_CZn" = 146.1541   $ Sizing
 "CAssFlo_T_Cordr_CZn" = 783.5809   $ Sizing
 "CAssFlo_T_Cordr_EZn" = 260.7669   $ Sizing
 "CAssFlo_T_Cordr_NZn" = 156.3449   $ Sizing
 "CAssFlo_T_Cordr_SZn" = 256.265   $ Sizing
 "CAssFlo_T_Cordr_WZn" = 269.4422   $ Sizing
 "CAssFlo_T_LobWait_CZn" = 504.2904   $ Sizing
 "CAssFlo_T_MechElec_CZn" = 175.4568   $ Sizing
 "CAssFlo_T_OfficeOpn_CZn" = 1762.856   $ Sizing
 "CAssFlo_T_OfficeOpn_EZn" = 1746.557   $ Sizing
 "CAssFlo_T_OfficeOpn_NZn" = 1162.01   $ Sizing
 "CAssFlo_T_OfficeOpn_SZn" = 1784.036   $ Sizing
 "CAssFlo_T_OfficeOpn_WZn" = 1896.586   $ Sizing
 "CAssFlo_T_OfficeSm_CZn" = 269.0398   $ Sizing
 "CAssFlo_T_OfficeSm_EZn" = 1270.941   $ Sizing
 "CAssFlo_T_OfficeSm_NZn" = 755.7769   $ Sizing
 "CAssFlo_T_OfficeSm_SZn" = 1300.465   $ Sizing
 "CAssFlo_T_OfficeSm_WZn" = 1363.203   $ Sizing
 "CAssFlo_T_Restrm_CZn" = 134.8673   $ Sizing
 "CAssFlo_T_StorSm_CZn" = 263.0144   $ Sizing
 "CHRtFlo_Sys_L_Break_C" = 491.4627   $ Sizing
 "CHRtFlo_Sys_L_Conf_C" = 467.2887   $ Sizing
 "CHRtFlo_Sys_L_CopyRm_C" = 150.8931   $ Sizing
 "CHRtFlo_Sys_L_Cordr_C" = 615.1875   $ Sizing
 "CHRtFlo_Sys_L_Cordr_E" = 268.5056   $ Sizing
 "CHRtFlo_Sys_L_Cordr_N" = 131.851   $ Sizing
 "CHRtFlo_Sys_L_Cordr_S" = 279.3529   $ Sizing
 "CHRtFlo_Sys_L_Cordr_W" = 266.6444   $ Sizing
 "CHRtFlo_Sys_L_LobWait_C" = 477.1854   $ Sizing
 "CHRtFlo_Sys_L_MechElec_C" = 138.1431   $ Sizing
 "CHRtFlo_Sys_L_OfficeOpn_C" = 1762.92   $ Sizing
 "CHRtFlo_Sys_L_OfficeOpn_E" = 1986.288   $ Sizing
 "CHRtFlo_Sys_L_OfficeOpn_N" = 1085.867   $ Sizing
 "CHRtFlo_Sys_L_OfficeOpn_S" = 2008.699   $ Sizing
 "CHRtFlo_Sys_L_OfficeOpn_W" = 2033.94   $ Sizing
 "CHRtFlo_Sys_L_OfficeSm_C" = 243.4042   $ Sizing
 "CHRtFlo_Sys_L_OfficeSm_E" = 1437.766   $ Sizing
 "CHRtFlo_Sys_L_OfficeSm_N" = 712.2058   $ Sizing
 "CHRtFlo_Sys_L_OfficeSm_S" = 1479.527   $ Sizing
 "CHRtFlo_Sys_L_OfficeSm_W" = 1471.955   $ Sizing
 "CHRtFlo_Sys_L_Restrm_C" = 213.3633   $ Sizing
 "CHRtFlo_Sys_L_StorSm_C" = 419.7069   $ Sizing
 "CHRtFlo_Sys_M_Break_C" = 3971.575   $ Sizing
 "CHRtFlo_Sys_M_Conf_C" = 4170.632   $ Sizing
 "CHRtFlo_Sys_M_CopyRm_C" = 1217.333   $ Sizing
 "CHRtFlo_Sys_M_Cordr_C" = 7848.399   $ Sizing
 "CHRtFlo_Sys_M_Cordr_E" = 2553.198   $ Sizing
 "CHRtFlo_Sys_M_Cordr_N" = 1384.975   $ Sizing
 "CHRtFlo_Sys_M_Cordr_S" = 2552.132   $ Sizing
 "CHRtFlo_Sys_M_Cordr_W" = 2352.848   $ Sizing
 "CHRtFlo_Sys_M_LobWait_C" = 4379.504   $ Sizing
 "CHRtFlo_Sys_M_MechElec_C" = 1476.734   $ Sizing
 "CHRtFlo_Sys_M_OfficeOpn_C" = 17117.25   $ Sizing
 "CHRtFlo_Sys_M_OfficeOpn_E" = 17233.27   $ Sizing
 "CHRtFlo_Sys_M_OfficeOpn_N" = 9581.172   $ Sizing
 "CHRtFlo_Sys_M_OfficeOpn_S" = 17378.93   $ Sizing
 "CHRtFlo_Sys_M_OfficeOpn_W" = 16999.61   $ Sizing
 "CHRtFlo_Sys_M_OfficeSm_C" = 2467.316   $ Sizing
 "CHRtFlo_Sys_M_OfficeSm_E" = 12363.66   $ Sizing
 "CHRtFlo_Sys_M_OfficeSm_N" = 6218.641   $ Sizing
 "CHRtFlo_Sys_M_OfficeSm_S" = 12630.8   $ Sizing
 "CHRtFlo_Sys_M_OfficeSm_W" = 12205.58   $ Sizing
 "CHRtFlo_Sys_M_Restrm_C" = 1706.906   $ Sizing
 "CHRtFlo_Sys_M_StorSm_C" = 3662.563   $ Sizing
 "CHRtFlo_Sys_T_Break_C" = 494.8523   $ Sizing
 "CHRtFlo_Sys_T_Conf_C" = 480.4789   $ Sizing
 "CHRtFlo_Sys_T_CopyRm_C" = 146.1541   $ Sizing
 "CHRtFlo_Sys_T_Cordr_C" = 816.3192   $ Sizing
 "CHRtFlo_Sys_T_Cordr_E" = 280.5848   $ Sizing
 "CHRtFlo_Sys_T_Cordr_N" = 156.3449   $ Sizing
 "CHRtFlo_Sys_T_Cordr_S" = 287.9729   $ Sizing
 "CHRtFlo_Sys_T_Cordr_W" = 269.4422   $ Sizing
 "CHRtFlo_Sys_T_LobWait_C" = 504.2904   $ Sizing
 "CHRtFlo_Sys_T_MechElec_C" = 223.1174   $ Sizing
 "CHRtFlo_Sys_T_OfficeOpn_C" = 1853.344   $ Sizing
 "CHRtFlo_Sys_T_OfficeOpn_E" = 1953.066   $ Sizing
 "CHRtFlo_Sys_T_OfficeOpn_N" = 1162.01   $ Sizing
 "CHRtFlo_Sys_T_OfficeOpn_S" = 2021.748   $ Sizing
 "CHRtFlo_Sys_T_OfficeOpn_W" = 1958.046   $ Sizing
 "CHRtFlo_Sys_T_OfficeSm_C" = 287.9141   $ Sizing
 "CHRtFlo_Sys_T_OfficeSm_E" = 1449.833   $ Sizing
 "CHRtFlo_Sys_T_OfficeSm_N" = 755.7769   $ Sizing
 "CHRtFlo_Sys_T_OfficeSm_S" = 1504.047   $ Sizing
 "CHRtFlo_Sys_T_OfficeSm_W" = 1438.759   $ Sizing
 "CHRtFlo_Sys_T_Restrm_C" = 213.3633   $ Sizing
 "CHRtFlo_Sys_T_StorSm_C" = 336.4583   $ Sizing
 "CRtdFlo_Sys_L_Break_C" = 491.4627   $ Sizing
 "CRtdFlo_Sys_L_Conf_C" = 467.2887   $ Sizing
 "CRtdFlo_Sys_L_CopyRm_C" = 150.8931   $ Sizing
 "CRtdFlo_Sys_L_Cordr_C" = 556.1106   $ Sizing
 "CRtdFlo_Sys_L_Cordr_E" = 230.8138   $ Sizing
 "CRtdFlo_Sys_L_Cordr_N" = 131.851   $ Sizing
 "CRtdFlo_Sys_L_Cordr_S" = 233.7142   $ Sizing
 "CRtdFlo_Sys_L_Cordr_W" = 250.355   $ Sizing
 "CRtdFlo_Sys_L_LobWait_C" = 477.1854   $ Sizing
 "CRtdFlo_Sys_L_MechElec_C" = 116.6792   $ Sizing
 "CRtdFlo_Sys_L_OfficeOpn_C" = 1678.21   $ Sizing
 "CRtdFlo_Sys_L_OfficeOpn_E" = 1663.762   $ Sizing
 "CRtdFlo_Sys_L_OfficeOpn_N" = 1064.677   $ Sizing
 "CRtdFlo_Sys_L_OfficeOpn_S" = 1678.029   $ Sizing
 "CRtdFlo_Sys_L_OfficeOpn_W" = 1839.357   $ Sizing
 "CRtdFlo_Sys_L_OfficeSm_C" = 210.3567   $ Sizing
 "CRtdFlo_Sys_L_OfficeSm_E" = 1180.144   $ Sizing
 "CRtdFlo_Sys_L_OfficeSm_N" = 687.7077   $ Sizing
 "CRtdFlo_Sys_L_OfficeSm_S" = 1217.082   $ Sizing
 "CRtdFlo_Sys_L_OfficeSm_W" = 1303.898   $ Sizing
 "CRtdFlo_Sys_L_Restrm_C" = 82.36654   $ Sizing
 "CRtdFlo_Sys_L_StorSm_C" = 380.2091   $ Sizing
 "CRtdFlo_Sys_M_Break_C" = 3971.575   $ Sizing
 "CRtdFlo_Sys_M_Conf_C" = 3743.267   $ Sizing
 "CRtdFlo_Sys_M_CopyRm_C" = 1165.971   $ Sizing
 "CRtdFlo_Sys_M_Cordr_C" = 6603.591   $ Sizing
 "CRtdFlo_Sys_M_Cordr_E" = 2131.9   $ Sizing
 "CRtdFlo_Sys_M_Cordr_N" = 1221.305   $ Sizing
 "CRtdFlo_Sys_M_Cordr_S" = 2123.636   $ Sizing
 "CRtdFlo_Sys_M_Cordr_W" = 2167.832   $ Sizing
 "CRtdFlo_Sys_M_LobWait_C" = 4022.656   $ Sizing
 "CRtdFlo_Sys_M_MechElec_C" = 1218.567   $ Sizing
 "CRtdFlo_Sys_M_OfficeOpn_C" = 15105.33   $ Sizing
 "CRtdFlo_Sys_M_OfficeOpn_E" = 14260.58   $ Sizing
 "CRtdFlo_Sys_M_OfficeOpn_N" = 9125.828   $ Sizing
 "CRtdFlo_Sys_M_OfficeOpn_S" = 14536.84   $ Sizing
 "CRtdFlo_Sys_M_OfficeOpn_W" = 15257.81   $ Sizing
 "CRtdFlo_Sys_M_OfficeSm_C" = 2070.764   $ Sizing
 "CRtdFlo_Sys_M_OfficeSm_E" = 10048.55   $ Sizing
 "CRtdFlo_Sys_M_OfficeSm_N" = 5860.991   $ Sizing
 "CRtdFlo_Sys_M_OfficeSm_S" = 10436.07   $ Sizing
 "CRtdFlo_Sys_M_OfficeSm_W" = 10752.02   $ Sizing
 "CRtdFlo_Sys_M_Restrm_C" = 824.887   $ Sizing
 "CRtdFlo_Sys_M_StorSm_C" = 3156.558   $ Sizing
 "CRtdFlo_Sys_T_Break_C" = 494.8523   $ Sizing
 "CRtdFlo_Sys_T_Conf_C" = 468.479   $ Sizing
 "CRtdFlo_Sys_T_CopyRm_C" = 146.1541   $ Sizing
 "CRtdFlo_Sys_T_Cordr_C" = 783.5809   $ Sizing
 "CRtdFlo_Sys_T_Cordr_E" = 260.7669   $ Sizing
 "CRtdFlo_Sys_T_Cordr_N" = 156.3449   $ Sizing
 "CRtdFlo_Sys_T_Cordr_S" = 256.265   $ Sizing
 "CRtdFlo_Sys_T_Cordr_W" = 269.4422   $ Sizing
 "CRtdFlo_Sys_T_LobWait_C" = 504.2904   $ Sizing
 "CRtdFlo_Sys_T_MechElec_C" = 175.4568   $ Sizing
 "CRtdFlo_Sys_T_OfficeOpn_C" = 1762.856   $ Sizing
 "CRtdFlo_Sys_T_OfficeOpn_E" = 1746.557   $ Sizing
 "CRtdFlo_Sys_T_OfficeOpn_N" = 1162.01   $ Sizing
 "CRtdFlo_Sys_T_OfficeOpn_S" = 1784.036   $ Sizing
 "CRtdFlo_Sys_T_OfficeOpn_W" = 1896.586   $ Sizing
 "CRtdFlo_Sys_T_OfficeSm_C" = 269.0398   $ Sizing
 "CRtdFlo_Sys_T_OfficeSm_E" = 1270.941   $ Sizing
 "CRtdFlo_Sys_T_OfficeSm_N" = 755.7769   $ Sizing
 "CRtdFlo_Sys_T_OfficeSm_S" = 1300.465   $ Sizing
 "CRtdFlo_Sys_T_OfficeSm_W" = 1363.203   $ Sizing
 "CRtdFlo_Sys_T_Restrm_C" = 134.8673   $ Sizing
 "CRtdFlo_Sys_T_StorSm_C" = 263.0144   $ Sizing
 "CSupFlo_Sys_L_Break_C" = 491.4627   $ Sizing
 "CSupFlo_Sys_L_Conf_C" = 467.2887   $ Sizing
 "CSupFlo_Sys_L_CopyRm_C" = 150.8931   $ Sizing
 "CSupFlo_Sys_L_Cordr_C" = 556.1106   $ Sizing
 "CSupFlo_Sys_L_Cordr_E" = 230.8138   $ Sizing
 "CSupFlo_Sys_L_Cordr_N" = 131.851   $ Sizing
 "CSupFlo_Sys_L_Cordr_S" = 233.7142   $ Sizing
 "CSupFlo_Sys_L_Cordr_W" = 250.355   $ Sizing
 "CSupFlo_Sys_L_LobWait_C" = 477.1854   $ Sizing
 "CSupFlo_Sys_L_MechElec_C" = 116.6792   $ Sizing
 "CSupFlo_Sys_L_OfficeOpn_C" = 1678.21   $ Sizing
 "CSupFlo_Sys_L_OfficeOpn_E" = 1663.762   $ Sizing
 "CSupFlo_Sys_L_OfficeOpn_N" = 1064.677   $ Sizing
 "CSupFlo_Sys_L_OfficeOpn_S" = 1678.029   $ Sizing
 "CSupFlo_Sys_L_OfficeOpn_W" = 1839.357   $ Sizing
 "CSupFlo_Sys_L_OfficeSm_C" = 210.3567   $ Sizing
 "CSupFlo_Sys_L_OfficeSm_E" = 1180.144   $ Sizing
 "CSupFlo_Sys_L_OfficeSm_N" = 687.7077   $ Sizing
 "CSupFlo_Sys_L_OfficeSm_S" = 1217.082   $ Sizing
 "CSupFlo_Sys_L_OfficeSm_W" = 1303.898   $ Sizing
 "CSupFlo_Sys_L_Restrm_C" = 82.36654   $ Sizing
 "CSupFlo_Sys_L_StorSm_C" = 380.2091   $ Sizing
 "CSupFlo_Sys_M_Break_C" = 3971.575   $ Sizing
 "CSupFlo_Sys_M_Conf_C" = 3743.267   $ Sizing
 "CSupFlo_Sys_M_CopyRm_C" = 1165.971   $ Sizing
 "CSupFlo_Sys_M_Cordr_C" = 6603.591   $ Sizing
 "CSupFlo_Sys_M_Cordr_E" = 2131.9   $ Sizing
 "CSupFlo_Sys_M_Cordr_N" = 1221.305   $ Sizing
 "CSupFlo_Sys_M_Cordr_S" = 2123.636   $ Sizing
 "CSupFlo_Sys_M_Cordr_W" = 2167.832   $ Sizing
 "CSupFlo_Sys_M_LobWait_C" = 4022.656   $ Sizing
 "CSupFlo_Sys_M_MechElec_C" = 1218.567   $ Sizing
 "CSupFlo_Sys_M_OfficeOpn_C" = 15105.33   $ Sizing
 "CSupFlo_Sys_M_OfficeOpn_E" = 14260.58   $ Sizing
 "CSupFlo_Sys_M_OfficeOpn_N" = 9125.828   $ Sizing
 "CSupFlo_Sys_M_OfficeOpn_S" = 14536.84   $ Sizing
 "CSupFlo_Sys_M_OfficeOpn_W" = 15257.81   $ Sizing
 "CSupFlo_Sys_M_OfficeSm_C" = 2070.764   $ Sizing
 "CSupFlo_Sys_M_OfficeSm_E" = 10048.55   $ Sizing
 "CSupFlo_Sys_M_OfficeSm_N" = 5860.991   $ Sizing
 "CSupFlo_Sys_M_OfficeSm_S" = 10436.07   $ Sizing
 "CSupFlo_Sys_M_OfficeSm_W" = 10752.02   $ Sizing
 "CSupFlo_Sys_M_Restrm_C" = 824.887   $ Sizing
 "CSupFlo_Sys_M_StorSm_C" = 3156.558   $ Sizing
 "CSupFlo_Sys_T_Break_C" = 494.8523   $ Sizing
 "CSupFlo_Sys_T_Conf_C" = 468.479   $ Sizing
 "CSupFlo_Sys_T_CopyRm_C" = 146.1541   $ Sizing
 "CSupFlo_Sys_T_Cordr_C" = 783.5809   $ Sizing
 "CSupFlo_Sys_T_Cordr_E" = 260.7669   $ Sizing
 "CSupFlo_Sys_T_Cordr_N" = 156.3449   $ Sizing
 "CSupFlo_Sys_T_Cordr_S" = 256.265   $ Sizing
 "CSupFlo_Sys_T_Cordr_W" = 269.4422   $ Sizing
 "CSupFlo_Sys_T_LobWait_C" = 504.2904   $ Sizing
 "CSupFlo_Sys_T_MechElec_C" = 175.4568   $ Sizing
 "CSupFlo_Sys_T_OfficeOpn_C" = 1762.856   $ Sizing
 "CSupFlo_Sys_T_OfficeOpn_E" = 1746.557   $ Sizing
 "CSupFlo_Sys_T_OfficeOpn_N" = 1162.01   $ Sizing
 "CSupFlo_Sys_T_OfficeOpn_S" = 1784.036   $ Sizing
 "CSupFlo_Sys_T_OfficeOpn_W" = 1896.586   $ Sizing
 "CSupFlo_Sys_T_OfficeSm_C" = 269.0398   $ Sizing
 "CSupFlo_Sys_T_OfficeSm_E" = 1270.941   $ Sizing
 "CSupFlo_Sys_T_OfficeSm_N" = 755.7769   $ Sizing
 "CSupFlo_Sys_T_OfficeSm_S" = 1300.465   $ Sizing
 "CSupFlo_Sys_T_OfficeSm_W" = 1363.203   $ Sizing
 "CSupFlo_Sys_T_Restrm_C" = 134.8673   $ Sizing
 "CSupFlo_Sys_T_StorSm_C" = 263.0144   $ Sizing
 "ClCap_Sys_L_Break_C" = 16606.43   $ Sizing
 "ClCap_Sys_L_Conf_C" = 20095.85   $ Sizing
 "ClCap_Sys_L_CopyRm_C" = 5098.648   $ Sizing
 "ClCap_Sys_L_Cordr_C" = 18790.87   $ Sizing
 "ClCap_Sys_L_Cordr_E" = 7799.155   $ Sizing
 "ClCap_Sys_L_Cordr_N" = 4455.22   $ Sizing
 "ClCap_Sys_L_Cordr_S" = 7897.159   $ Sizing
 "ClCap_Sys_L_Cordr_W" = 8459.448   $ Sizing
 "ClCap_Sys_L_LobWait_C" = 16124   $ Sizing
 "ClCap_Sys_L_MechElec_C" = 3942.568   $ Sizing
 "ClCap_Sys_L_OfficeOpn_C" = 56706.4   $ Sizing
 "ClCap_Sys_L_OfficeOpn_E" = 56218.2   $ Sizing
 "ClCap_Sys_L_OfficeOpn_N" = 35975.22   $ Sizing
 "ClCap_Sys_L_OfficeOpn_S" = 56700.28   $ Sizing
 "ClCap_Sys_L_OfficeOpn_W" = 62151.52   $ Sizing
 "ClCap_Sys_L_OfficeSm_C" = 7107.913   $ Sizing
 "ClCap_Sys_L_OfficeSm_E" = 39876.83   $ Sizing
 "ClCap_Sys_L_OfficeSm_N" = 23237.51   $ Sizing
 "ClCap_Sys_L_OfficeSm_S" = 41124.97   $ Sizing
 "ClCap_Sys_L_OfficeSm_W" = 44058.45   $ Sizing
 "ClCap_Sys_L_Restrm_C" = 2783.15   $ Sizing
 "ClCap_Sys_L_StorSm_C" = 12847.19   $ Sizing
 "ClCap_Sys_M_Break_C" = 134198.8   $ Sizing
 "ClCap_Sys_M_Conf_C" = 160980   $ Sizing
 "ClCap_Sys_M_CopyRm_C" = 39397.95   $ Sizing
 "ClCap_Sys_M_Cordr_C" = 223134.1   $ Sizing
 "ClCap_Sys_M_Cordr_E" = 72036.49   $ Sizing
 "ClCap_Sys_M_Cordr_N" = 41267.66   $ Sizing
 "ClCap_Sys_M_Cordr_S" = 71757.26   $ Sizing
 "ClCap_Sys_M_Cordr_W" = 73250.65   $ Sizing
 "ClCap_Sys_M_LobWait_C" = 135924.8   $ Sizing
 "ClCap_Sys_M_MechElec_C" = 41175.14   $ Sizing
 "ClCap_Sys_M_OfficeOpn_C" = 510406.2   $ Sizing
 "ClCap_Sys_M_OfficeOpn_E" = 481862.4   $ Sizing
 "ClCap_Sys_M_OfficeOpn_N" = 308360   $ Sizing
 "ClCap_Sys_M_OfficeOpn_S" = 491197   $ Sizing
 "ClCap_Sys_M_OfficeOpn_W" = 515558.4   $ Sizing
 "ClCap_Sys_M_OfficeSm_C" = 69970.72   $ Sizing
 "ClCap_Sys_M_OfficeSm_E" = 339538.6   $ Sizing
 "ClCap_Sys_M_OfficeSm_N" = 198041.8   $ Sizing
 "ClCap_Sys_M_OfficeSm_S" = 352632.7   $ Sizing
 "ClCap_Sys_M_OfficeSm_W" = 363308.8   $ Sizing
 "ClCap_Sys_M_Restrm_C" = 27872.78   $ Sizing
 "ClCap_Sys_M_StorSm_C" = 106659.5   $ Sizing
 "ClCap_Sys_T_Break_C" = 16720.97   $ Sizing
 "ClCap_Sys_T_Conf_C" = 20147.04   $ Sizing
 "ClCap_Sys_T_CopyRm_C" = 4938.519   $ Sizing
 "ClCap_Sys_T_Cordr_C" = 26477.05   $ Sizing
 "ClCap_Sys_T_Cordr_E" = 8811.264   $ Sizing
 "ClCap_Sys_T_Cordr_N" = 5282.866   $ Sizing
 "ClCap_Sys_T_Cordr_S" = 8659.145   $ Sizing
 "ClCap_Sys_T_Cordr_W" = 9104.402   $ Sizing
 "ClCap_Sys_T_LobWait_C" = 17039.88   $ Sizing
 "ClCap_Sys_T_MechElec_C" = 5928.652   $ Sizing
 "ClCap_Sys_T_OfficeOpn_C" = 59566.56   $ Sizing
 "ClCap_Sys_T_OfficeOpn_E" = 59015.84   $ Sizing
 "ClCap_Sys_T_OfficeOpn_N" = 39264.09   $ Sizing
 "ClCap_Sys_T_OfficeOpn_S" = 60282.25   $ Sizing
 "ClCap_Sys_T_OfficeOpn_W" = 64085.29   $ Sizing
 "ClCap_Sys_T_OfficeSm_C" = 9090.805   $ Sizing
 "ClCap_Sys_T_OfficeSm_E" = 42944.86   $ Sizing
 "ClCap_Sys_T_OfficeSm_N" = 25537.56   $ Sizing
 "ClCap_Sys_T_OfficeSm_S" = 43942.48   $ Sizing
 "ClCap_Sys_T_OfficeSm_W" = 46062.37   $ Sizing
 "ClCap_Sys_T_Restrm_C" = 4557.14   $ Sizing
 "ClCap_Sys_T_StorSm_C" = 8887.208   $ Sizing
 "HtCap_Sys_L_Break_C" = -25524.72   $ Sizing
 "HtCap_Sys_L_Conf_C" = -25320.19   $ Sizing
 "HtCap_Sys_L_CopyRm_C" = -8939.631   $ Sizing
 "HtCap_Sys_L_Cordr_C" = -26290.04   $ Sizing
 "HtCap_Sys_L_Cordr_E" = -9203.443   $ Sizing
 "HtCap_Sys_L_Cordr_N" = -5331.45   $ Sizing
 "HtCap_Sys_L_Cordr_S" = -9461.541   $ Sizing
 "HtCap_Sys_L_Cordr_W" = -9153.611   $ Sizing
 "HtCap_Sys_L_LobWait_C" = -24375.16   $ Sizing
 "HtCap_Sys_L_MechElec_C" = -5972.907   $ Sizing
 "HtCap_Sys_L_OfficeOpn_C" = -85183.31   $ Sizing
 "HtCap_Sys_L_OfficeOpn_E" = -62699.46   $ Sizing
 "HtCap_Sys_L_OfficeOpn_N" = -39482.54   $ Sizing
 "HtCap_Sys_L_OfficeOpn_S" = -65135.3   $ Sizing
 "HtCap_Sys_L_OfficeOpn_W" = -66233.14   $ Sizing
 "HtCap_Sys_L_OfficeSm_C" = -9280.323   $ Sizing
 "HtCap_Sys_L_OfficeSm_E" = -46534.06   $ Sizing
 "HtCap_Sys_L_OfficeSm_N" = -25988.43   $ Sizing
 "HtCap_Sys_L_OfficeSm_S" = -47260.31   $ Sizing
 "HtCap_Sys_L_OfficeSm_W" = -47976.69   $ Sizing
 "HtCap_Sys_L_Restrm_C" = -7682.853   $ Sizing
 "HtCap_Sys_L_StorSm_C" = -17432.28   $ Sizing
 "HtCap_Sys_M_Break_C" = -197072.1   $ Sizing
 "HtCap_Sys_M_Conf_C" = -212835.6   $ Sizing
 "HtCap_Sys_M_CopyRm_C" = -63940.9   $ Sizing
 "HtCap_Sys_M_Cordr_C" = -292819.6   $ Sizing
 "HtCap_Sys_M_Cordr_E" = -85030.66   $ Sizing
 "HtCap_Sys_M_Cordr_N" = -51857.23   $ Sizing
 "HtCap_Sys_M_Cordr_S" = -84481.69   $ Sizing
 "HtCap_Sys_M_Cordr_W" = -79339.66   $ Sizing
 "HtCap_Sys_M_LobWait_C" = -199100.5   $ Sizing
 "HtCap_Sys_M_MechElec_C" = -58166.1   $ Sizing
 "HtCap_Sys_M_OfficeOpn_C" = -825766   $ Sizing
 "HtCap_Sys_M_OfficeOpn_E" = -542772.1   $ Sizing
 "HtCap_Sys_M_OfficeOpn_N" = -341183.3   $ Sizing
 "HtCap_Sys_M_OfficeOpn_S" = -556728.9   $ Sizing
 "HtCap_Sys_M_OfficeOpn_W" = -550129.3   $ Sizing
 "HtCap_Sys_M_OfficeSm_C" = -89112.71   $ Sizing
 "HtCap_Sys_M_OfficeSm_E" = -398991   $ Sizing
 "HtCap_Sys_M_OfficeSm_N" = -222715   $ Sizing
 "HtCap_Sys_M_OfficeSm_S" = -402129.9   $ Sizing
 "HtCap_Sys_M_OfficeSm_W" = -395157.3   $ Sizing
 "HtCap_Sys_M_Restrm_C" = -66475.88   $ Sizing
 "HtCap_Sys_M_StorSm_C" = -143797.7   $ Sizing
 "HtCap_Sys_T_Break_C" = -26471.96   $ Sizing
 "HtCap_Sys_T_Conf_C" = -26333.15   $ Sizing
 "HtCap_Sys_T_CopyRm_C" = -8542.104   $ Sizing
 "HtCap_Sys_T_Cordr_C" = -36076.08   $ Sizing
 "HtCap_Sys_T_Cordr_E" = -11022.97   $ Sizing
 "HtCap_Sys_T_Cordr_N" = -6869.255   $ Sizing
 "HtCap_Sys_T_Cordr_S" = -11290.24   $ Sizing
 "HtCap_Sys_T_Cordr_W" = -10697.92   $ Sizing
 "HtCap_Sys_T_LobWait_C" = -25543.36   $ Sizing
 "HtCap_Sys_T_MechElec_C" = -8351.121   $ Sizing
 "HtCap_Sys_T_OfficeOpn_C" = -89185.41   $ Sizing
 "HtCap_Sys_T_OfficeOpn_E" = -71015.88   $ Sizing
 "HtCap_Sys_T_OfficeOpn_N" = -48233.54   $ Sizing
 "HtCap_Sys_T_OfficeOpn_S" = -75195.31   $ Sizing
 "HtCap_Sys_T_OfficeOpn_W" = -72640.61   $ Sizing
 "HtCap_Sys_T_OfficeSm_C" = -11896.93   $ Sizing
 "HtCap_Sys_T_OfficeSm_E" = -53981.09   $ Sizing
 "HtCap_Sys_T_OfficeSm_N" = -31081.71   $ Sizing
 "HtCap_Sys_T_OfficeSm_S" = -55369.73   $ Sizing
 "HtCap_Sys_T_OfficeSm_W" = -53559.88   $ Sizing
 "HtCap_Sys_T_Restrm_C" = -8613.439   $ Sizing
 "HtCap_Sys_T_StorSm_C" = -16210.59   $ Sizing
..

##include Templates\OfL_DX_SZ.inp
END ..
COMPUTE ..
STOP ..
