INPUT ..

##fileprefix C:\Users\jglasskatz\MASControl3\
##set1 IsSizing FALSE
##set1 CoolType DX
##set1 HeatType FURNACE
##set1 EU_HrRepVar 0
##set1 BldgVint 2003
##set1 BldgLoc CZ14

 ##set1 mBFMult 1   $ IP Tech: RefgChg-NRes-Std

PARAMETER
 "AltFactor" = 1.09733   $ IP Non-Tech
 "BF_fFlow" = SpltAC1Sp-lt45_BF_fFlow   $ Msr (Multi)TechID: StdNResSplitAC-lt45
 "BF_fT" = SpltAC1Sp-lt45_BF_fT   $ Msr (Multi)TechID: StdNResSplitAC-lt45
 "BldgEconoFlag" = 1   $ IP Non-Tech
 "Break_EWSF" = 1   $ IP Non-Tech
 "Break_LWSF" = 1.1   $ IP Non-Tech
 "CDD_DBHi10" = 86   $ IP Non-Tech
 "CDD_DBHi7" = 102   $ IP Non-Tech
 "CDD_DBHi8" = 102   $ IP Non-Tech
 "CDD_DBHi9" = 99   $ IP Non-Tech
 "CDD_DBRange10" = 24   $ IP Non-Tech
 "CDD_DBRange7" = 25   $ IP Non-Tech
 "CDD_DBRange8" = 24   $ IP Non-Tech
 "CDD_DBRange9" = 26   $ IP Non-Tech
 "CDD_Day10" = 15   $ IP Non-Tech
 "CDD_Day7" = 16   $ IP Non-Tech
 "CDD_Day8" = 20   $ IP Non-Tech
 "CDD_Day9" = 17   $ IP Non-Tech
 "CDD_HrHi10" = 15   $ IP Non-Tech
 "CDD_HrHi7" = 14   $ IP Non-Tech
 "CDD_HrHi8" = 14   $ IP Non-Tech
 "CDD_HrHi9" = 13   $ IP Non-Tech
 "CDD_HrLo10" = 3   $ IP Non-Tech
 "CDD_HrLo7" = 4   $ IP Non-Tech
 "CDD_HrLo8" = 6   $ IP Non-Tech
 "CDD_HrLo9" = 6   $ IP Non-Tech
 "CDD_WB10" = 59.47153854   $ IP Non-Tech
 "CDD_WB7" = 72.7782135   $ IP Non-Tech
 "CDD_WB8" = 69.10041809   $ IP Non-Tech
 "CDD_WB9" = 72.65714264   $ IP Non-Tech
 "CEIR_fPLR_Hot" = SpltAC1Sp-lt45_CEIR_fPLR_Hot   $ Msr (Multi)TechID: StdNResSplitAC-lt45
 "CEIR_fPLR_Mod" = SpltAC1Sp-lt45_CEIR_fPLR_Mod   $ Msr (Multi)TechID: StdNResSplitAC-lt45
 "CEIR_fPLR_Tem" = SpltAC1Sp-lt45_CEIR_fPLR_Tem   $ Msr (Multi)TechID: StdNResSplitAC-lt45
 "CLoss_fPLR_Hot" = SpltAC1Sp-lt45_CLoss_fPLR_Hot   $ Msr (Multi)TechID: StdNResSplitAC-lt45
 "CLoss_fPLR_Mod" = SpltAC1Sp-lt45_CLoss_fPLR_Mod   $ Msr (Multi)TechID: StdNResSplitAC-lt45
 "CLoss_fPLR_Tem" = SpltAC1Sp-lt45_CLoss_fPLR_Tem   $ Msr (Multi)TechID: StdNResSplitAC-lt45
 "COP47" = 0   $ Msr (Multi)TechID: StdNResSplitAC-lt45
 "CZ_Category" = Hot   $ IP Non-Tech
 "CapRange" = lt45   $ Msr (Multi)TechID: StdNResSplitAC-lt45
 "CfmPerBtuh" = 0.032504286   $ Msr (Multi)TechID: StdNResSplitAC-lt45
 "ChwVintEconoFlag" = 1   $ IP Non-Tech
 "ClCap_fT" = SpltAC1Sp-lt45_ClCap_fT   $ Msr (Multi)TechID: StdNResSplitAC-lt45
 "ClSH_fT" = SpltAC1Sp-lt45_ClSH_fT   $ Msr (Multi)TechID: StdNResSplitAC-lt45
 "CoilBF" = 0.1212   $ Msr (Multi)TechID: StdNResSplitAC-lt45
 "CondWPerBtuh" = 0   $ Msr (Multi)TechID: StdNResSplitAC-lt45
 "Conference_EWSF" = 1   $ IP Non-Tech
 "Conference_LWSF" = 1.4   $ IP Non-Tech
 "CoolSensCap" = 0.754064286   $ Msr (Multi)TechID: StdNResSplitAC-lt45
 "CoolSetT" = 45   $ IP Non-Tech
 "CoolType" = DX   $ IP Non-Tech
 "CoolingEIR" = 0.23878   $ Msr (Multi)TechID: StdNResSplitAC-lt45
 "CopyRoom_EWSF" = 1.5   $ IP Non-Tech
 "CopyRoom_LWSF" = 1.3   $ IP Non-Tech
 "CorridorStairway_EWSF" = 0.2   $ IP Non-Tech
 "CorridorStairway_LWSF" = 0.6   $ IP Non-Tech
 "CrnkEIR" = 0.0023878   $ Msr (Multi)TechID: StdNResSplitAC-lt45
 "CrnkMaxT" = 50   $ Msr (Multi)TechID: StdNResSplitAC-lt45
 "DXType" = SplitSEER   $ Msr (Multi)TechID: StdNResSplitAC-lt45
 "DesCoolT" = 75   $ IP Non-Tech
 "DesHeatT" = 73   $ IP Non-Tech
 "EER" = 12.16551724   $ Msr (Multi)TechID: StdNResSplitAC-lt45
 "EIR_fT" = SpltAC1Sp-lt45_EIR_fT   $ Msr (Multi)TechID: StdNResSplitAC-lt45
 "EconoCtrl" = FIXED   $ Msr (Multi)TechID: StdNResSplitAC-lt45
 "EconoEnthLimit" = 28   $ IP Non-Tech
 "EconoTempLimit" = 75   $ IP Non-Tech
 "Elevation" = 2523   $ IP Non-Tech
 "FanEirPlr" = TwoSpeedFan   $ Msr (Multi)TechID: StdNResSplitAC-lt45
 "FanWPerCfm" = 0.294   $ Msr (Multi)TechID: StdNResSplitAC-lt45
 "HDD_CloudAmt1" = 0   $ IP Non-Tech
 "HDD_DBHi1" = 50   $ IP Non-Tech
 "HDD_DBRange1" = 24   $ IP Non-Tech
 "HDD_Day1" = 15   $ IP Non-Tech
 "HDD_HrHi1" = 14   $ IP Non-Tech
 "HDD_HrLo1" = 6   $ IP Non-Tech
 "HDD_WB1" = 36.9   $ IP Non-Tech
 "HDD_WindSpd1" = 17.3   $ IP Non-Tech
 "HIR_fT" = 0   $ Msr (Multi)TechID: StdNResSplitAC-lt45
 "HSPF" = 0   $ Msr (Multi)TechID: StdNResSplitAC-lt45
 "HeatSrc" = FURNACE   $ IP Non-Tech
 "HeatSrcTU" = HEAT-PUMP   $ IP Non-Tech
 "HeatType" = GasFurn   $ IP Non-Tech
 "HeatTypeTU" = HEAT-PUMP   $ IP Non-Tech
 "HtCap_fT" = 0   $ Msr (Multi)TechID: StdNResSplitAC-lt45
 "HtCoolCapRatio" = 0   $ Msr (Multi)TechID: StdNResSplitAC-lt45
 "HtgEIR" = 0   $ Msr (Multi)TechID: StdNResSplitAC-lt45
 "IndoorFanMode" = CONTINUOUS   $ IP Non-Tech
 "KT_TransferAir" = No   $ IP Non-Tech
 "Latitude" = 35.7   $ IP Non-Tech
 "LobbyWaiting_EWSF" = 0.5   $ IP Non-Tech
 "LobbyWaiting_LWSF" = 1.3   $ IP Non-Tech
 "Longitude" = 117.7   $ IP Non-Tech
 "LowSpdCapRatio" = 1   $ Msr (Multi)TechID: StdNResSplitAC-lt45
 "LowSpdCfmRatio" = 1   $ Msr (Multi)TechID: StdNResSplitAC-lt45
 "MZFanMechEff" = 0.58   $ IP Non-Tech
 "MZHasRetFan" = FALSE   $ IP Non-Tech
 "MZ_RFanWPerCfm" = 0.37   $ IP Non-Tech
 "MZ_SFanWPerCfm" = 0.71   $ IP Non-Tech
 "MZ_SupFanStatic" = 2.25   $ IP Non-Tech
 "MaxOAFrac" = 1   $ Msr (Multi)TechID: StdNResSplitAC-lt45
 "MaxSupT_MZ" = 100   $ IP Non-Tech
 "MaxSupT_SZ" = 100   $ IP Non-Tech
 "MaxSupT_TU" = 90   $ IP Non-Tech
 "MechElecRoom_EWSF" = 0.2   $ IP Non-Tech
 "MechElecRoom_LWSF" = 0.7   $ IP Non-Tech
 "MinCfmPerSF" = 0.4   $ IP Non-Tech
 "MinSupT" = 55   $ IP Non-Tech
 "NumStages" = 1   $ Msr (Multi)TechID: StdNResSplitAC-lt45
 "OccCoolT" = 76   $ IP Non-Tech
 "OccHeatT" = 72   $ IP Non-Tech
 "OfficeOpen_EWSF" = 1.5   $ IP Non-Tech
 "OfficeOpen_LWSF" = 1.2   $ IP Non-Tech
 "OfficeSmall_EWSF" = 1.5   $ IP Non-Tech
 "OfficeSmall_LWSF" = 1.3   $ IP Non-Tech
 "PkgDxVintEconoFlag" = 0   $ IP Non-Tech
 "Restroom_EWSF" = 0.2   $ IP Non-Tech
 "Restroom_LWSF" = 0.6   $ IP Non-Tech
 "SEER" = 14   $ Msr (Multi)TechID: StdNResSplitAC-lt45
 "SZFanMechEff" = 0.58   $ IP Non-Tech
 "SZHasRetFan" = FALSE   $ IP Non-Tech
 "SZ_Is_2Spd" = FALSE   $ IP Non-Tech
 "SZ_SFanWPerCfm" = 0.46   $ IP Non-Tech
 "SZ_SupFanStatic" = 0.75   $ IP Non-Tech
 "Sector" = Any   $ Msr (Multi)TechID: StdNResSplitAC-lt45
 "StorageSmlCond_EWSF" = 0.2   $ IP Non-Tech
 "StorageSmlCond_LWSF" = 0.6   $ IP Non-Tech
 "SubType" = AC   $ Msr (Multi)TechID: StdNResSplitAC-lt45
 "T24GlzTbl" = CZTbl   $ IP Non-Tech
 "TermUnitFanMechEff" = 1   $ IP Non-Tech
 "TermUnitFanMode" = INTERMITTENT   $ IP Non-Tech
 "TotCoolCap" = 30924.85714   $ Msr (Multi)TechID: StdNResSplitAC-lt45
 "TwrSetpt" = 90   $ IP Non-Tech
 "UnocCoolT" = 86   $ IP Non-Tech
 "UnocHeatT" = 62   $ IP Non-Tech
 "UseEconoVintApplic" = FALSE   $ Msr (Multi)TechID: StdNResSplitAC-lt45
 "WlhpVintEconoFlag" = 0   $ IP Non-Tech
 "DuctDT" = 1   $ IP Tech: ComDuctInsul-1
 "DuctAirLoss" = 0   $ IP Tech: ComDuctLeak-0
 "DuctLossOAFrac" = 0   $ IP Tech: ComDuctLeak-0
 "ComRoofInsCalc" = FromUo   $ IP Tech: ComRoofIns-Hvy-0.06
 "ComRoofInsR" = -999   $ IP Tech: ComRoofIns-Hvy-0.06
 "ComRoofUo" = 0.06   $ IP Tech: ComRoofIns-Hvy-0.06
 "ComEWInsCalc" = FromUo   $ IP Tech: ComWallIns-MFrm-0.13
 "ComEWInsR" = -999   $ IP Tech: ComWallIns-MFrm-0.13
 "ComEWUo" = 0.13   $ IP Tech: ComWallIns-MFrm-0.13
 "ComN_SHGC" = 0.4   $ IP Tech: NResWin-ComN-0.47-0.4
 "ComN_UFactor" = 0.47   $ IP Tech: NResWin-ComN-0.47-0.4
 "ComN_VisTrans" = 0.68   $ IP Tech: NResWin-ComN-0.47-0.4
 "ComN_WinCode" = G2663   $ IP Tech: NResWin-ComN-0.47-0.4
 "ComN_WinFrmFrac" = 0.17   $ IP Tech: NResWin-ComN-0.47-0.4
 "ComN_WinFrmU" = 0.3   $ IP Tech: NResWin-ComN-0.47-0.4
 "ComO_SHGC" = 0.31   $ IP Tech: NResWin-ComO-0.47-0.31
 "ComO_UFactor" = 0.47   $ IP Tech: NResWin-ComO-0.47-0.31
 "ComO_VisTrans" = 0.44   $ IP Tech: NResWin-ComO-0.47-0.31
 "ComO_WinCode" = G2637   $ IP Tech: NResWin-ComO-0.47-0.31
 "ComO_WinFrmFrac" = 0.17   $ IP Tech: NResWin-ComO-0.47-0.31
 "ComO_WinFrmU" = 0.3   $ IP Tech: NResWin-ComO-0.47-0.31
 "LtgMsrApplic" = ALL   $ IP Tech: NonResLtgRefPre
 "LtgSav_CFL" = 0   $ IP Tech: NonResLtgRefPre
 "LtgSav_EX" = 0   $ IP Tech: NonResLtgRefPre
 "LtgSav_HB" = 0   $ IP Tech: NonResLtgRefPre
 "LtgSav_LF" = 0   $ IP Tech: NonResLtgRefPre
 "LtgSav_SP" = 0   $ IP Tech: NonResLtgRefPre
 "CEIR_fPLR" = PSZ65to135_CEIR_fPLR   $ IP Tech: PkgAC1SpH-65to135-E10
 "CLoss_fPLR" = PSZ65to135_CLoss_fPLR   $ IP Tech: PkgAC1SpH-65to135-E10
 "COP" = -1   $ IP Tech: PkgAC1SpH-65to135-E10
 "HtgFuel" = Gas   $ IP Tech: PkgAC1SpH-65to135-E10
 "IEER" = 11.87   $ IP Tech: PkgAC1SpH-65to135-E10
 "NominalCap" = 15   $ IP Tech: PkgAC1SpH-65to135-E10
 "RatedEER" = 10   $ IP Tech: PkgAC1SpH-65to135-E10
 "RatedSupMtrClass" = HiEff   $ IP Tech: PkgAC1SpH-65to135-E10
 "SizeRange" = 65to135   $ IP Tech: PkgAC1SpH-65to135-E10
 "SupMotEff" = 0.84   $ IP Tech: PkgAC1SpH-65to135-E10
 "Tier" = 0   $ IP Tech: PkgAC1SpH-65to135-E10
 "FanPwrMult" = 1   $ IP Tech: PkgFurn-0.80AFUE
 "FurnAFUE" = 0.8   $ IP Tech: PkgFurn-0.80AFUE
 "FurnEt" = 0.82   $ IP Tech: PkgFurn-0.80AFUE
 "FurnaceAuxKW" = 0.1   $ IP Tech: PkgFurn-0.80AFUE
 "HIR_fPLR" = Furnace-HIR-fPLR   $ IP Tech: PkgFurn-0.80AFUE
 "VSM" = FALSE   $ IP Tech: PkgFurn-0.80AFUE
 "BFMult" = 1   $ IP Tech: RefgChg-NRes-Std
 "CoolEirMult" = 1   $ IP Tech: RefgChg-NRes-Std
 "SensCoolCapMult" = 1   $ IP Tech: RefgChg-NRes-Std
 "TotCoolCapMult" = 1   $ IP Tech: RefgChg-NRes-Std
 "AltAdjFactor" = 1.09733   $ Sizing
 "CAssFlo_L_Break_CZn" = 657.9553   $ Sizing
 "CAssFlo_L_Conf_CZn" = 639.3046   $ Sizing
 "CAssFlo_L_CopyRm_CZn" = 209.4317   $ Sizing
 "CAssFlo_L_Cordr_CZn" = 774.7754   $ Sizing
 "CAssFlo_L_Cordr_EZn" = 270.9555   $ Sizing
 "CAssFlo_L_Cordr_NZn" = 191.8966   $ Sizing
 "CAssFlo_L_Cordr_SZn" = 270.5365   $ Sizing
 "CAssFlo_L_Cordr_WZn" = 299.9922   $ Sizing
 "CAssFlo_L_LobWait_CZn" = 662.598   $ Sizing
 "CAssFlo_L_MechElec_CZn" = 152.5447   $ Sizing
 "CAssFlo_L_OfficeOpn_CZn" = 2151.709   $ Sizing
 "CAssFlo_L_OfficeOpn_EZn" = 1885.323   $ Sizing
 "CAssFlo_L_OfficeOpn_NZn" = 1393.065   $ Sizing
 "CAssFlo_L_OfficeOpn_SZn" = 1882.249   $ Sizing
 "CAssFlo_L_OfficeOpn_WZn" = 2136.059   $ Sizing
 "CAssFlo_L_OfficeSm_CZn" = 276.2491   $ Sizing
 "CAssFlo_L_OfficeSm_EZn" = 1334.541   $ Sizing
 "CAssFlo_L_OfficeSm_NZn" = 903.3832   $ Sizing
 "CAssFlo_L_OfficeSm_SZn" = 1317.475   $ Sizing
 "CAssFlo_L_OfficeSm_WZn" = 1489.481   $ Sizing
 "CAssFlo_L_Restrm_CZn" = 106.9457   $ Sizing
 "CAssFlo_L_StorSm_CZn" = 467.3011   $ Sizing
 "CAssFlo_M_Break_CZn" = 664.3566   $ Sizing
 "CAssFlo_M_Conf_CZn" = 638.5385   $ Sizing
 "CAssFlo_M_CopyRm_CZn" = 203.1004   $ Sizing
 "CAssFlo_M_Cordr_CZn" = 1061.18   $ Sizing
 "CAssFlo_M_Cordr_EZn" = 310.7055   $ Sizing
 "CAssFlo_M_Cordr_NZn" = 209.3414   $ Sizing
 "CAssFlo_M_Cordr_SZn" = 296.5515   $ Sizing
 "CAssFlo_M_Cordr_WZn" = 317.4917   $ Sizing
 "CAssFlo_M_LobWait_CZn" = 682.7587   $ Sizing
 "CAssFlo_M_MechElec_CZn" = 194.1538   $ Sizing
 "CAssFlo_M_OfficeOpn_CZn" = 2181.934   $ Sizing
 "CAssFlo_M_OfficeOpn_EZn" = 2039.871   $ Sizing
 "CAssFlo_M_OfficeOpn_NZn" = 1467.056   $ Sizing
 "CAssFlo_M_OfficeOpn_SZn" = 1996.998   $ Sizing
 "CAssFlo_M_OfficeOpn_WZn" = 2198.674   $ Sizing
 "CAssFlo_M_OfficeSm_CZn" = 323.5441   $ Sizing
 "CAssFlo_M_OfficeSm_EZn" = 1426.868   $ Sizing
 "CAssFlo_M_OfficeSm_NZn" = 945.8057   $ Sizing
 "CAssFlo_M_OfficeSm_SZn" = 1383.18   $ Sizing
 "CAssFlo_M_OfficeSm_WZn" = 1521.425   $ Sizing
 "CAssFlo_M_Restrm_CZn" = 119.2739   $ Sizing
 "CAssFlo_M_StorSm_CZn" = 508.4164   $ Sizing
 "CAssFlo_T_Break_CZn" = 657.3138   $ Sizing
 "CAssFlo_T_Conf_CZn" = 633.2541   $ Sizing
 "CAssFlo_T_CopyRm_CZn" = 201.8201   $ Sizing
 "CAssFlo_T_Cordr_CZn" = 1011.774   $ Sizing
 "CAssFlo_T_Cordr_EZn" = 308.8951   $ Sizing
 "CAssFlo_T_Cordr_NZn" = 215.8717   $ Sizing
 "CAssFlo_T_Cordr_SZn" = 300.2446   $ Sizing
 "CAssFlo_T_Cordr_WZn" = 322.9513   $ Sizing
 "CAssFlo_T_LobWait_CZn" = 678.7094   $ Sizing
 "CAssFlo_T_MechElec_CZn" = 227.8029   $ Sizing
 "CAssFlo_T_OfficeOpn_CZn" = 2254.355   $ Sizing
 "CAssFlo_T_OfficeOpn_EZn" = 2028.733   $ Sizing
 "CAssFlo_T_OfficeOpn_NZn" = 1513.465   $ Sizing
 "CAssFlo_T_OfficeOpn_SZn" = 2039.96   $ Sizing
 "CAssFlo_T_OfficeOpn_WZn" = 2221.126   $ Sizing
 "CAssFlo_T_OfficeSm_CZn" = 304.6629   $ Sizing
 "CAssFlo_T_OfficeSm_EZn" = 1459.084   $ Sizing
 "CAssFlo_T_OfficeSm_NZn" = 979.9727   $ Sizing
 "CAssFlo_T_OfficeSm_SZn" = 1429.759   $ Sizing
 "CAssFlo_T_OfficeSm_WZn" = 1568.417   $ Sizing
 "CAssFlo_T_Restrm_CZn" = 176.4901   $ Sizing
 "CAssFlo_T_StorSm_CZn" = 350.7374   $ Sizing
 "CHRtFlo_Sys_L_Break_C" = 657.9553   $ Sizing
 "CHRtFlo_Sys_L_Conf_C" = 639.3046   $ Sizing
 "CHRtFlo_Sys_L_CopyRm_C" = 209.4317   $ Sizing
 "CHRtFlo_Sys_L_Cordr_C" = 774.7755   $ Sizing
 "CHRtFlo_Sys_L_Cordr_E" = 290.1177   $ Sizing
 "CHRtFlo_Sys_L_Cordr_N" = 191.8966   $ Sizing
 "CHRtFlo_Sys_L_Cordr_S" = 270.5365   $ Sizing
 "CHRtFlo_Sys_L_Cordr_W" = 299.9922   $ Sizing
 "CHRtFlo_Sys_L_LobWait_C" = 662.598   $ Sizing
 "CHRtFlo_Sys_L_MechElec_C" = 160.9299   $ Sizing
 "CHRtFlo_Sys_L_OfficeOpn_C" = 2151.709   $ Sizing
 "CHRtFlo_Sys_L_OfficeOpn_E" = 2078.375   $ Sizing
 "CHRtFlo_Sys_L_OfficeOpn_N" = 1393.065   $ Sizing
 "CHRtFlo_Sys_L_OfficeOpn_S" = 1975.23   $ Sizing
 "CHRtFlo_Sys_L_OfficeOpn_W" = 2136.059   $ Sizing
 "CHRtFlo_Sys_L_OfficeSm_C" = 289.4591   $ Sizing
 "CHRtFlo_Sys_L_OfficeSm_E" = 1500.913   $ Sizing
 "CHRtFlo_Sys_L_OfficeSm_N" = 903.3832   $ Sizing
 "CHRtFlo_Sys_L_OfficeSm_S" = 1433.39   $ Sizing
 "CHRtFlo_Sys_L_OfficeSm_W" = 1496.065   $ Sizing
 "CHRtFlo_Sys_L_Restrm_C" = 230.7435   $ Sizing
 "CHRtFlo_Sys_L_StorSm_C" = 482.7444   $ Sizing
 "CHRtFlo_Sys_M_Break_C" = 5314.853   $ Sizing
 "CHRtFlo_Sys_M_Conf_C" = 5108.308   $ Sizing
 "CHRtFlo_Sys_M_CopyRm_C" = 1624.803   $ Sizing
 "CHRtFlo_Sys_M_Cordr_C" = 9035.994   $ Sizing
 "CHRtFlo_Sys_M_Cordr_E" = 2724.581   $ Sizing
 "CHRtFlo_Sys_M_Cordr_N" = 1674.731   $ Sizing
 "CHRtFlo_Sys_M_Cordr_S" = 2466.149   $ Sizing
 "CHRtFlo_Sys_M_Cordr_W" = 2539.933   $ Sizing
 "CHRtFlo_Sys_M_LobWait_C" = 5462.07   $ Sizing
 "CHRtFlo_Sys_M_MechElec_C" = 1730.574   $ Sizing
 "CHRtFlo_Sys_M_OfficeOpn_C" = 18262.2   $ Sizing
 "CHRtFlo_Sys_M_OfficeOpn_E" = 18109.02   $ Sizing
 "CHRtFlo_Sys_M_OfficeOpn_N" = 11736.45   $ Sizing
 "CHRtFlo_Sys_M_OfficeOpn_S" = 17009.27   $ Sizing
 "CHRtFlo_Sys_M_OfficeOpn_W" = 17589.39   $ Sizing
 "CHRtFlo_Sys_M_OfficeSm_C" = 2896.439   $ Sizing
 "CHRtFlo_Sys_M_OfficeSm_E" = 12906.06   $ Sizing
 "CHRtFlo_Sys_M_OfficeSm_N" = 7566.445   $ Sizing
 "CHRtFlo_Sys_M_OfficeSm_S" = 12211.95   $ Sizing
 "CHRtFlo_Sys_M_OfficeSm_W" = 12260.32   $ Sizing
 "CHRtFlo_Sys_M_Restrm_C" = 1845.948   $ Sizing
 "CHRtFlo_Sys_M_StorSm_C" = 4468.213   $ Sizing
 "CHRtFlo_Sys_T_Break_C" = 657.3138   $ Sizing
 "CHRtFlo_Sys_T_Conf_C" = 633.2541   $ Sizing
 "CHRtFlo_Sys_T_CopyRm_C" = 201.8201   $ Sizing
 "CHRtFlo_Sys_T_Cordr_C" = 1011.774   $ Sizing
 "CHRtFlo_Sys_T_Cordr_E" = 308.8951   $ Sizing
 "CHRtFlo_Sys_T_Cordr_N" = 215.8717   $ Sizing
 "CHRtFlo_Sys_T_Cordr_S" = 300.2446   $ Sizing
 "CHRtFlo_Sys_T_Cordr_W" = 322.9513   $ Sizing
 "CHRtFlo_Sys_T_LobWait_C" = 678.7094   $ Sizing
 "CHRtFlo_Sys_T_MechElec_C" = 267.8781   $ Sizing
 "CHRtFlo_Sys_T_OfficeOpn_C" = 2254.355   $ Sizing
 "CHRtFlo_Sys_T_OfficeOpn_E" = 2053.898   $ Sizing
 "CHRtFlo_Sys_T_OfficeOpn_N" = 1513.465   $ Sizing
 "CHRtFlo_Sys_T_OfficeOpn_S" = 2039.96   $ Sizing
 "CHRtFlo_Sys_T_OfficeOpn_W" = 2221.126   $ Sizing
 "CHRtFlo_Sys_T_OfficeSm_C" = 320.2267   $ Sizing
 "CHRtFlo_Sys_T_OfficeSm_E" = 1509.556   $ Sizing
 "CHRtFlo_Sys_T_OfficeSm_N" = 979.9727   $ Sizing
 "CHRtFlo_Sys_T_OfficeSm_S" = 1454.664   $ Sizing
 "CHRtFlo_Sys_T_OfficeSm_W" = 1568.417   $ Sizing
 "CHRtFlo_Sys_T_Restrm_C" = 230.7435   $ Sizing
 "CHRtFlo_Sys_T_StorSm_C" = 363.8655   $ Sizing
 "CRtdFlo_Sys_L_Break_C" = 657.9553   $ Sizing
 "CRtdFlo_Sys_L_Conf_C" = 639.3046   $ Sizing
 "CRtdFlo_Sys_L_CopyRm_C" = 209.4317   $ Sizing
 "CRtdFlo_Sys_L_Cordr_C" = 774.7755   $ Sizing
 "CRtdFlo_Sys_L_Cordr_E" = 270.9555   $ Sizing
 "CRtdFlo_Sys_L_Cordr_N" = 191.8966   $ Sizing
 "CRtdFlo_Sys_L_Cordr_S" = 270.5365   $ Sizing
 "CRtdFlo_Sys_L_Cordr_W" = 299.9922   $ Sizing
 "CRtdFlo_Sys_L_LobWait_C" = 662.598   $ Sizing
 "CRtdFlo_Sys_L_MechElec_C" = 152.5447   $ Sizing
 "CRtdFlo_Sys_L_OfficeOpn_C" = 2151.709   $ Sizing
 "CRtdFlo_Sys_L_OfficeOpn_E" = 1885.323   $ Sizing
 "CRtdFlo_Sys_L_OfficeOpn_N" = 1393.065   $ Sizing
 "CRtdFlo_Sys_L_OfficeOpn_S" = 1882.248   $ Sizing
 "CRtdFlo_Sys_L_OfficeOpn_W" = 2136.059   $ Sizing
 "CRtdFlo_Sys_L_OfficeSm_C" = 276.2491   $ Sizing
 "CRtdFlo_Sys_L_OfficeSm_E" = 1334.541   $ Sizing
 "CRtdFlo_Sys_L_OfficeSm_N" = 903.3832   $ Sizing
 "CRtdFlo_Sys_L_OfficeSm_S" = 1317.475   $ Sizing
 "CRtdFlo_Sys_L_OfficeSm_W" = 1489.481   $ Sizing
 "CRtdFlo_Sys_L_Restrm_C" = 106.9457   $ Sizing
 "CRtdFlo_Sys_L_StorSm_C" = 467.3011   $ Sizing
 "CRtdFlo_Sys_M_Break_C" = 5314.853   $ Sizing
 "CRtdFlo_Sys_M_Conf_C" = 5108.308   $ Sizing
 "CRtdFlo_Sys_M_CopyRm_C" = 1624.803   $ Sizing
 "CRtdFlo_Sys_M_Cordr_C" = 8489.441   $ Sizing
 "CRtdFlo_Sys_M_Cordr_E" = 2485.644   $ Sizing
 "CRtdFlo_Sys_M_Cordr_N" = 1674.731   $ Sizing
 "CRtdFlo_Sys_M_Cordr_S" = 2372.412   $ Sizing
 "CRtdFlo_Sys_M_Cordr_W" = 2539.933   $ Sizing
 "CRtdFlo_Sys_M_LobWait_C" = 5462.07   $ Sizing
 "CRtdFlo_Sys_M_MechElec_C" = 1553.231   $ Sizing
 "CRtdFlo_Sys_M_OfficeOpn_C" = 17455.47   $ Sizing
 "CRtdFlo_Sys_M_OfficeOpn_E" = 16318.97   $ Sizing
 "CRtdFlo_Sys_M_OfficeOpn_N" = 11736.45   $ Sizing
 "CRtdFlo_Sys_M_OfficeOpn_S" = 15975.98   $ Sizing
 "CRtdFlo_Sys_M_OfficeOpn_W" = 17589.39   $ Sizing
 "CRtdFlo_Sys_M_OfficeSm_C" = 2588.353   $ Sizing
 "CRtdFlo_Sys_M_OfficeSm_E" = 11414.94   $ Sizing
 "CRtdFlo_Sys_M_OfficeSm_N" = 7566.445   $ Sizing
 "CRtdFlo_Sys_M_OfficeSm_S" = 11065.44   $ Sizing
 "CRtdFlo_Sys_M_OfficeSm_W" = 12171.4   $ Sizing
 "CRtdFlo_Sys_M_Restrm_C" = 954.1914   $ Sizing
 "CRtdFlo_Sys_M_StorSm_C" = 4067.332   $ Sizing
 "CRtdFlo_Sys_T_Break_C" = 657.3138   $ Sizing
 "CRtdFlo_Sys_T_Conf_C" = 633.2541   $ Sizing
 "CRtdFlo_Sys_T_CopyRm_C" = 201.8201   $ Sizing
 "CRtdFlo_Sys_T_Cordr_C" = 1011.774   $ Sizing
 "CRtdFlo_Sys_T_Cordr_E" = 308.8951   $ Sizing
 "CRtdFlo_Sys_T_Cordr_N" = 215.8717   $ Sizing
 "CRtdFlo_Sys_T_Cordr_S" = 300.2446   $ Sizing
 "CRtdFlo_Sys_T_Cordr_W" = 322.9513   $ Sizing
 "CRtdFlo_Sys_T_LobWait_C" = 678.7094   $ Sizing
 "CRtdFlo_Sys_T_MechElec_C" = 227.8029   $ Sizing
 "CRtdFlo_Sys_T_OfficeOpn_C" = 2254.355   $ Sizing
 "CRtdFlo_Sys_T_OfficeOpn_E" = 2028.733   $ Sizing
 "CRtdFlo_Sys_T_OfficeOpn_N" = 1513.465   $ Sizing
 "CRtdFlo_Sys_T_OfficeOpn_S" = 2039.96   $ Sizing
 "CRtdFlo_Sys_T_OfficeOpn_W" = 2221.126   $ Sizing
 "CRtdFlo_Sys_T_OfficeSm_C" = 304.6629   $ Sizing
 "CRtdFlo_Sys_T_OfficeSm_E" = 1459.084   $ Sizing
 "CRtdFlo_Sys_T_OfficeSm_N" = 979.9727   $ Sizing
 "CRtdFlo_Sys_T_OfficeSm_S" = 1429.759   $ Sizing
 "CRtdFlo_Sys_T_OfficeSm_W" = 1568.417   $ Sizing
 "CRtdFlo_Sys_T_Restrm_C" = 176.4901   $ Sizing
 "CRtdFlo_Sys_T_StorSm_C" = 350.7374   $ Sizing
 "CSupFlo_Sys_L_Break_C" = 657.9553   $ Sizing
 "CSupFlo_Sys_L_Conf_C" = 639.3046   $ Sizing
 "CSupFlo_Sys_L_CopyRm_C" = 209.4317   $ Sizing
 "CSupFlo_Sys_L_Cordr_C" = 774.7755   $ Sizing
 "CSupFlo_Sys_L_Cordr_E" = 270.9555   $ Sizing
 "CSupFlo_Sys_L_Cordr_N" = 191.8966   $ Sizing
 "CSupFlo_Sys_L_Cordr_S" = 270.5365   $ Sizing
 "CSupFlo_Sys_L_Cordr_W" = 299.9922   $ Sizing
 "CSupFlo_Sys_L_LobWait_C" = 662.598   $ Sizing
 "CSupFlo_Sys_L_MechElec_C" = 152.5447   $ Sizing
 "CSupFlo_Sys_L_OfficeOpn_C" = 2151.709   $ Sizing
 "CSupFlo_Sys_L_OfficeOpn_E" = 1885.323   $ Sizing
 "CSupFlo_Sys_L_OfficeOpn_N" = 1393.065   $ Sizing
 "CSupFlo_Sys_L_OfficeOpn_S" = 1882.248   $ Sizing
 "CSupFlo_Sys_L_OfficeOpn_W" = 2136.059   $ Sizing
 "CSupFlo_Sys_L_OfficeSm_C" = 276.2491   $ Sizing
 "CSupFlo_Sys_L_OfficeSm_E" = 1334.541   $ Sizing
 "CSupFlo_Sys_L_OfficeSm_N" = 903.3832   $ Sizing
 "CSupFlo_Sys_L_OfficeSm_S" = 1317.475   $ Sizing
 "CSupFlo_Sys_L_OfficeSm_W" = 1489.481   $ Sizing
 "CSupFlo_Sys_L_Restrm_C" = 106.9457   $ Sizing
 "CSupFlo_Sys_L_StorSm_C" = 467.3011   $ Sizing
 "CSupFlo_Sys_M_Break_C" = 5314.853   $ Sizing
 "CSupFlo_Sys_M_Conf_C" = 5108.308   $ Sizing
 "CSupFlo_Sys_M_CopyRm_C" = 1624.803   $ Sizing
 "CSupFlo_Sys_M_Cordr_C" = 8489.441   $ Sizing
 "CSupFlo_Sys_M_Cordr_E" = 2485.644   $ Sizing
 "CSupFlo_Sys_M_Cordr_N" = 1674.731   $ Sizing
 "CSupFlo_Sys_M_Cordr_S" = 2372.412   $ Sizing
 "CSupFlo_Sys_M_Cordr_W" = 2539.933   $ Sizing
 "CSupFlo_Sys_M_LobWait_C" = 5462.07   $ Sizing
 "CSupFlo_Sys_M_MechElec_C" = 1553.231   $ Sizing
 "CSupFlo_Sys_M_OfficeOpn_C" = 17455.47   $ Sizing
 "CSupFlo_Sys_M_OfficeOpn_E" = 16318.97   $ Sizing
 "CSupFlo_Sys_M_OfficeOpn_N" = 11736.45   $ Sizing
 "CSupFlo_Sys_M_OfficeOpn_S" = 15975.98   $ Sizing
 "CSupFlo_Sys_M_OfficeOpn_W" = 17589.39   $ Sizing
 "CSupFlo_Sys_M_OfficeSm_C" = 2588.353   $ Sizing
 "CSupFlo_Sys_M_OfficeSm_E" = 11414.94   $ Sizing
 "CSupFlo_Sys_M_OfficeSm_N" = 7566.445   $ Sizing
 "CSupFlo_Sys_M_OfficeSm_S" = 11065.44   $ Sizing
 "CSupFlo_Sys_M_OfficeSm_W" = 12171.4   $ Sizing
 "CSupFlo_Sys_M_Restrm_C" = 954.1914   $ Sizing
 "CSupFlo_Sys_M_StorSm_C" = 4067.332   $ Sizing
 "CSupFlo_Sys_T_Break_C" = 657.3138   $ Sizing
 "CSupFlo_Sys_T_Conf_C" = 633.2541   $ Sizing
 "CSupFlo_Sys_T_CopyRm_C" = 201.8201   $ Sizing
 "CSupFlo_Sys_T_Cordr_C" = 1011.774   $ Sizing
 "CSupFlo_Sys_T_Cordr_E" = 308.8951   $ Sizing
 "CSupFlo_Sys_T_Cordr_N" = 215.8717   $ Sizing
 "CSupFlo_Sys_T_Cordr_S" = 300.2446   $ Sizing
 "CSupFlo_Sys_T_Cordr_W" = 322.9513   $ Sizing
 "CSupFlo_Sys_T_LobWait_C" = 678.7094   $ Sizing
 "CSupFlo_Sys_T_MechElec_C" = 227.8029   $ Sizing
 "CSupFlo_Sys_T_OfficeOpn_C" = 2254.355   $ Sizing
 "CSupFlo_Sys_T_OfficeOpn_E" = 2028.733   $ Sizing
 "CSupFlo_Sys_T_OfficeOpn_N" = 1513.465   $ Sizing
 "CSupFlo_Sys_T_OfficeOpn_S" = 2039.96   $ Sizing
 "CSupFlo_Sys_T_OfficeOpn_W" = 2221.126   $ Sizing
 "CSupFlo_Sys_T_OfficeSm_C" = 304.6629   $ Sizing
 "CSupFlo_Sys_T_OfficeSm_E" = 1459.084   $ Sizing
 "CSupFlo_Sys_T_OfficeSm_N" = 979.9727   $ Sizing
 "CSupFlo_Sys_T_OfficeSm_S" = 1429.759   $ Sizing
 "CSupFlo_Sys_T_OfficeSm_W" = 1568.417   $ Sizing
 "CSupFlo_Sys_T_Restrm_C" = 176.4901   $ Sizing
 "CSupFlo_Sys_T_StorSm_C" = 350.7374   $ Sizing
 "ClCap_Sys_L_Break_C" = 20557.6   $ Sizing
 "ClCap_Sys_L_Conf_C" = 25422.55   $ Sizing
 "ClCap_Sys_L_CopyRm_C" = 6543.626   $ Sizing
 "ClCap_Sys_L_Cordr_C" = 24207.61   $ Sizing
 "ClCap_Sys_L_Cordr_E" = 8465.917   $ Sizing
 "ClCap_Sys_L_Cordr_N" = 5995.746   $ Sizing
 "ClCap_Sys_L_Cordr_S" = 8452.824   $ Sizing
 "ClCap_Sys_L_Cordr_W" = 9373.158   $ Sizing
 "ClCap_Sys_L_LobWait_C" = 20702.66   $ Sizing
 "ClCap_Sys_L_MechElec_C" = 4766.209   $ Sizing
 "ClCap_Sys_L_OfficeOpn_C" = 67229.44   $ Sizing
 "ClCap_Sys_L_OfficeOpn_E" = 58906.29   $ Sizing
 "ClCap_Sys_L_OfficeOpn_N" = 43525.88   $ Sizing
 "ClCap_Sys_L_OfficeOpn_S" = 58810.24   $ Sizing
 "ClCap_Sys_L_OfficeOpn_W" = 66740.48   $ Sizing
 "ClCap_Sys_L_OfficeSm_C" = 8631.313   $ Sizing
 "ClCap_Sys_L_OfficeSm_E" = 41697.28   $ Sizing
 "ClCap_Sys_L_OfficeSm_N" = 28225.91   $ Sizing
 "ClCap_Sys_L_OfficeSm_S" = 41164.06   $ Sizing
 "ClCap_Sys_L_OfficeSm_W" = 46538.36   $ Sizing
 "ClCap_Sys_L_Restrm_C" = 3341.484   $ Sizing
 "ClCap_Sys_L_StorSm_C" = 14600.67   $ Sizing
 "ClCap_Sys_M_Break_C" = 166060.8   $ Sizing
 "ClCap_Sys_M_Conf_C" = 203136.7   $ Sizing
 "ClCap_Sys_M_CopyRm_C" = 50766.44   $ Sizing
 "ClCap_Sys_M_Cordr_C" = 265249.8   $ Sizing
 "ClCap_Sys_M_Cordr_E" = 77663.13   $ Sizing
 "ClCap_Sys_M_Cordr_N" = 52326.43   $ Sizing
 "ClCap_Sys_M_Cordr_S" = 74125.23   $ Sizing
 "ClCap_Sys_M_Cordr_W" = 79359.38   $ Sizing
 "ClCap_Sys_M_LobWait_C" = 170660.6   $ Sizing
 "ClCap_Sys_M_MechElec_C" = 48530.19   $ Sizing
 "ClCap_Sys_M_OfficeOpn_C" = 545390.6   $ Sizing
 "ClCap_Sys_M_OfficeOpn_E" = 509880.8   $ Sizing
 "ClCap_Sys_M_OfficeOpn_N" = 366701.4   $ Sizing
 "ClCap_Sys_M_OfficeOpn_S" = 499164.4   $ Sizing
 "ClCap_Sys_M_OfficeOpn_W" = 549574.8   $ Sizing
 "ClCap_Sys_M_OfficeSm_C" = 80872.24   $ Sizing
 "ClCap_Sys_M_OfficeSm_E" = 356656.2   $ Sizing
 "ClCap_Sys_M_OfficeSm_N" = 236411.1   $ Sizing
 "ClCap_Sys_M_OfficeSm_S" = 345736.1   $ Sizing
 "ClCap_Sys_M_OfficeSm_W" = 380291.5   $ Sizing
 "ClCap_Sys_M_Restrm_C" = 29813.4   $ Sizing
 "ClCap_Sys_M_StorSm_C" = 127082.4   $ Sizing
 "ClCap_Sys_T_Break_C" = 20537.56   $ Sizing
 "ClCap_Sys_T_Conf_C" = 25181.95   $ Sizing
 "ClCap_Sys_T_CopyRm_C" = 6305.803   $ Sizing
 "ClCap_Sys_T_Cordr_C" = 31612.56   $ Sizing
 "ClCap_Sys_T_Cordr_E" = 9651.326   $ Sizing
 "ClCap_Sys_T_Cordr_N" = 6744.84   $ Sizing
 "ClCap_Sys_T_Cordr_S" = 9381.045   $ Sizing
 "ClCap_Sys_T_Cordr_W" = 10090.51   $ Sizing
 "ClCap_Sys_T_LobWait_C" = 21206.05   $ Sizing
 "ClCap_Sys_T_MechElec_C" = 7117.628   $ Sizing
 "ClCap_Sys_T_OfficeOpn_C" = 70436.59   $ Sizing
 "ClCap_Sys_T_OfficeOpn_E" = 63387.09   $ Sizing
 "ClCap_Sys_T_OfficeOpn_N" = 47287.71   $ Sizing
 "ClCap_Sys_T_OfficeOpn_S" = 63737.87   $ Sizing
 "ClCap_Sys_T_OfficeOpn_W" = 69398.35   $ Sizing
 "ClCap_Sys_T_OfficeSm_C" = 9519.094   $ Sizing
 "ClCap_Sys_T_OfficeSm_E" = 45588.62   $ Sizing
 "ClCap_Sys_T_OfficeSm_N" = 30618.93   $ Sizing
 "ClCap_Sys_T_OfficeSm_S" = 44672.37   $ Sizing
 "ClCap_Sys_T_OfficeSm_W" = 49004.67   $ Sizing
 "ClCap_Sys_T_Restrm_C" = 5514.374   $ Sizing
 "ClCap_Sys_T_StorSm_C" = 10958.68   $ Sizing
 "HtCap_Sys_L_Break_C" = -35610.58   $ Sizing
 "HtCap_Sys_L_Conf_C" = -35856.3   $ Sizing
 "HtCap_Sys_L_CopyRm_C" = -13376.5   $ Sizing
 "HtCap_Sys_L_Cordr_C" = -32644.96   $ Sizing
 "HtCap_Sys_L_Cordr_E" = -9745.43   $ Sizing
 "HtCap_Sys_L_Cordr_N" = -7542.397   $ Sizing
 "HtCap_Sys_L_Cordr_S" = -9108.484   $ Sizing
 "HtCap_Sys_L_Cordr_W" = -10148.08   $ Sizing
 "HtCap_Sys_L_LobWait_C" = -34333.31   $ Sizing
 "HtCap_Sys_L_MechElec_C" = -6864.933   $ Sizing
 "HtCap_Sys_L_OfficeOpn_C" = -81554.39   $ Sizing
 "HtCap_Sys_L_OfficeOpn_E" = -62909.78   $ Sizing
 "HtCap_Sys_L_OfficeOpn_N" = -49988.61   $ Sizing
 "HtCap_Sys_L_OfficeOpn_S" = -62913.72   $ Sizing
 "HtCap_Sys_L_OfficeOpn_W" = -68395.68   $ Sizing
 "HtCap_Sys_L_OfficeSm_C" = -10763.82   $ Sizing
 "HtCap_Sys_L_OfficeSm_E" = -46604.44   $ Sizing
 "HtCap_Sys_L_OfficeSm_N" = -32353.18   $ Sizing
 "HtCap_Sys_L_OfficeSm_S" = -44072.69   $ Sizing
 "HtCap_Sys_L_OfficeSm_W" = -47613.18   $ Sizing
 "HtCap_Sys_L_Restrm_C" = -7765.531   $ Sizing
 "HtCap_Sys_L_StorSm_C" = -19990.19   $ Sizing
 "HtCap_Sys_M_Break_C" = -272372.9   $ Sizing
 "HtCap_Sys_M_Conf_C" = -264929.1   $ Sizing
 "HtCap_Sys_M_CopyRm_C" = -91225.5   $ Sizing
 "HtCap_Sys_M_Cordr_C" = -330002.7   $ Sizing
 "HtCap_Sys_M_Cordr_E" = -88481.55   $ Sizing
 "HtCap_Sys_M_Cordr_N" = -60825.59   $ Sizing
 "HtCap_Sys_M_Cordr_S" = -80798.59   $ Sizing
 "HtCap_Sys_M_Cordr_W" = -84455.25   $ Sizing
 "HtCap_Sys_M_LobWait_C" = -245923.5   $ Sizing
 "HtCap_Sys_M_MechElec_C" = -66270.38   $ Sizing
 "HtCap_Sys_M_OfficeOpn_C" = -656833.4   $ Sizing
 "HtCap_Sys_M_OfficeOpn_E" = -570801.9   $ Sizing
 "HtCap_Sys_M_OfficeOpn_N" = -411349.2   $ Sizing
 "HtCap_Sys_M_OfficeOpn_S" = -533183.8   $ Sizing
 "HtCap_Sys_M_OfficeOpn_W" = -558399.8   $ Sizing
 "HtCap_Sys_M_OfficeSm_C" = -101517.5   $ Sizing
 "HtCap_Sys_M_OfficeSm_E" = -398584.3   $ Sizing
 "HtCap_Sys_M_OfficeSm_N" = -266005.5   $ Sizing
 "HtCap_Sys_M_OfficeSm_S" = -381921.2   $ Sizing
 "HtCap_Sys_M_OfficeSm_W" = -387233.8   $ Sizing
 "HtCap_Sys_M_Restrm_C" = -66891.05   $ Sizing
 "HtCap_Sys_M_StorSm_C" = -169056.8   $ Sizing
 "HtCap_Sys_T_Break_C" = -37223.41   $ Sizing
 "HtCap_Sys_T_Conf_C" = -36271.04   $ Sizing
 "HtCap_Sys_T_CopyRm_C" = -12523.81   $ Sizing
 "HtCap_Sys_T_Cordr_C" = -45209.19   $ Sizing
 "HtCap_Sys_T_Cordr_E" = -12239.42   $ Sizing
 "HtCap_Sys_T_Cordr_N" = -9562.32   $ Sizing
 "HtCap_Sys_T_Cordr_S" = -12088.76   $ Sizing
 "HtCap_Sys_T_Cordr_W" = -13036.95   $ Sizing
 "HtCap_Sys_T_LobWait_C" = -35658.77   $ Sizing
 "HtCap_Sys_T_MechElec_C" = -9607.684   $ Sizing
 "HtCap_Sys_T_OfficeOpn_C" = -97631.22   $ Sizing
 "HtCap_Sys_T_OfficeOpn_E" = -74179.24   $ Sizing
 "HtCap_Sys_T_OfficeOpn_N" = -63565.28   $ Sizing
 "HtCap_Sys_T_OfficeOpn_S" = -78009.36   $ Sizing
 "HtCap_Sys_T_OfficeOpn_W" = -83141.72   $ Sizing
 "HtCap_Sys_T_OfficeSm_C" = -13429.93   $ Sizing
 "HtCap_Sys_T_OfficeSm_E" = -55675.24   $ Sizing
 "HtCap_Sys_T_OfficeSm_N" = -40890.92   $ Sizing
 "HtCap_Sys_T_OfficeSm_S" = -53867.27   $ Sizing
 "HtCap_Sys_T_OfficeSm_W" = -59008.27   $ Sizing
 "HtCap_Sys_T_Restrm_C" = -9252.317   $ Sizing
 "HtCap_Sys_T_StorSm_C" = -18694.06   $ Sizing
..

##include Templates\OfL_DX_SZ.inp
END ..
COMPUTE ..
STOP ..
