INPUT ..

##fileprefix C:\Users\jglasskatz\MASControl3\
##set1 IsSizing FALSE
##set1 CoolType DX
##set1 HeatType FURNACE
##set1 EU_HrRepVar 0
##set1 BldgVint 1996
##set1 BldgLoc CZ01

 ##set1 mBFMult 1   $ IP Tech: RefgChg-NRes-Std

PARAMETER
 "AltFactor" = 1.00753   $ IP Non-Tech
 "BF_fFlow" = SpltAC1Sp_BF_fFlow   $ Msr (Var)TechID: PreNResSplitAC-45to-PENo
 "BF_fT" = SpltAC1Sp_BF_fT   $ Msr (Var)TechID: PreNResSplitAC-45to-PENo
 "BldgEconoFlag" = 1   $ IP Non-Tech
 "Break_EWSF" = 1   $ IP Non-Tech
 "Break_LWSF" = 1.1   $ IP Non-Tech
 "CDD_DBHi10" = 65   $ IP Non-Tech
 "CDD_DBHi7" = 68   $ IP Non-Tech
 "CDD_DBHi8" = 66   $ IP Non-Tech
 "CDD_DBHi9" = 77   $ IP Non-Tech
 "CDD_DBRange10" = 17   $ IP Non-Tech
 "CDD_DBRange7" = 11   $ IP Non-Tech
 "CDD_DBRange8" = 10   $ IP Non-Tech
 "CDD_DBRange9" = 29   $ IP Non-Tech
 "CDD_Day10" = 15   $ IP Non-Tech
 "CDD_Day7" = 16   $ IP Non-Tech
 "CDD_Day8" = 20   $ IP Non-Tech
 "CDD_Day9" = 17   $ IP Non-Tech
 "CDD_HrHi10" = 12   $ IP Non-Tech
 "CDD_HrHi7" = 12   $ IP Non-Tech
 "CDD_HrHi8" = 13   $ IP Non-Tech
 "CDD_HrHi9" = 17   $ IP Non-Tech
 "CDD_HrLo10" = 6   $ IP Non-Tech
 "CDD_HrLo7" = 3   $ IP Non-Tech
 "CDD_HrLo8" = 8   $ IP Non-Tech
 "CDD_HrLo9" = 4   $ IP Non-Tech
 "CDD_WB10" = 57.53039551   $ IP Non-Tech
 "CDD_WB7" = 59.29250717   $ IP Non-Tech
 "CDD_WB8" = 60.75350189   $ IP Non-Tech
 "CDD_WB9" = 61.08643341   $ IP Non-Tech
 "CEIR_fPLR_Hot" = SpltAC1Sp_CEIR_fPLR_Hot   $ Msr (Var)TechID: PreNResSplitAC-45to-PENo
 "CEIR_fPLR_Mod" = SpltAC1Sp_CEIR_fPLR_Mod   $ Msr (Var)TechID: PreNResSplitAC-45to-PENo
 "CEIR_fPLR_Tem" = SpltAC1Sp_CEIR_fPLR_Tem   $ Msr (Var)TechID: PreNResSplitAC-45to-PENo
 "CLoss_fPLR_Hot" = SpltAC1Sp_CLoss_fPLR_Hot   $ Msr (Var)TechID: PreNResSplitAC-45to-PENo
 "CLoss_fPLR_Mod" = SpltAC1Sp_CLoss_fPLR_Mod   $ Msr (Var)TechID: PreNResSplitAC-45to-PENo
 "CLoss_fPLR_Tem" = SpltAC1Sp_CLoss_fPLR_Tem   $ Msr (Var)TechID: PreNResSplitAC-45to-PENo
 "COP47" = 0   $ Msr (Var)TechID: PreNResSplitAC-45to-PENo
 "CZ_Category" = Tem   $ IP Non-Tech
 "CapRange" = Any   $ Msr (Var)TechID: PreNResSplitAC-45to-PENo
 "CfmPerBtuh" = 0.0321   $ Msr (Var)TechID: PreNResSplitAC-45to-PENo
 "ChwVintEconoFlag" = 1   $ IP Non-Tech
 "ClCap_fT" = SpltAC1Sp_ClCap_fT   $ Msr (Var)TechID: PreNResSplitAC-45to-PENo
 "ClSH_fT" = SpltAC1Sp_ClSH_fT   $ Msr (Var)TechID: PreNResSplitAC-45to-PENo
 "CoilBF" = 0.12   $ Msr (Var)TechID: PreNResSplitAC-45to-PENo
 "CondWPerBtuh" = 0   $ Msr (Var)TechID: PreNResSplitAC-45to-PENo
 "Conference_EWSF" = 1.05   $ IP Non-Tech
 "Conference_LWSF" = 1.4   $ IP Non-Tech
 "CoolSensCap" = 0.744   $ Msr (Var)TechID: PreNResSplitAC-45to-PENo
 "CoolSetT" = 45   $ IP Non-Tech
 "CoolType" = DX   $ IP Non-Tech
 "CoolingEIR" = 0.29437   $ Msr (Var)TechID: PreNResSplitAC-45to-PENo
 "CopyRoom_EWSF" = 1.575   $ IP Non-Tech
 "CopyRoom_LWSF" = 1.3   $ IP Non-Tech
 "CorridorStairway_EWSF" = 0.21   $ IP Non-Tech
 "CorridorStairway_LWSF" = 0.6   $ IP Non-Tech
 "CrnkEIR" = 0.0029437   $ Msr (Var)TechID: PreNResSplitAC-45to-PENo
 "CrnkMaxT" = 50   $ Msr (Var)TechID: PreNResSplitAC-45to-PENo
 "DXType" = SplitSEER   $ Msr (Var)TechID: PreNResSplitAC-45to-PENo
 "DesCoolT" = 75   $ IP Non-Tech
 "DesHeatT" = 73   $ IP Non-Tech
 "EER" = 9.799295775   $ Msr (Var)TechID: PreNResSplitAC-45to-PENo
 "EIR_fT" = SpltAC1Sp_EIR_fT   $ Msr (Var)TechID: PreNResSplitAC-45to-PENo
 "EconoCtrl" = FIXED   $ Msr (Multi)TechID: PreNResSplitAC-45to-PENo
 "EconoEnthLimit" = 28   $ IP Non-Tech
 "EconoTempLimit" = 70   $ IP Non-Tech
 "Elevation" = 203   $ IP Non-Tech
 "FanEirPlr" = TwoSpeedFan   $ Msr (Var)TechID: PreNResSplitAC-45to-PENo
 "FanWPerCfm" = 0.365   $ Msr (Var)TechID: PreNResSplitAC-45to-PENo
 "HDD_CloudAmt1" = 0   $ IP Non-Tech
 "HDD_DBHi1" = 53   $ IP Non-Tech
 "HDD_DBRange1" = 20   $ IP Non-Tech
 "HDD_Day1" = 15   $ IP Non-Tech
 "HDD_HrHi1" = 14   $ IP Non-Tech
 "HDD_HrLo1" = 6   $ IP Non-Tech
 "HDD_WB1" = 42.3   $ IP Non-Tech
 "HDD_WindSpd1" = 12.7   $ IP Non-Tech
 "HIR_fT" = 0   $ Msr (Var)TechID: PreNResSplitAC-45to-PENo
 "HSPF" = 0   $ Msr (Var)TechID: PreNResSplitAC-45to-PENo
 "HeatSrc" = FURNACE   $ IP Non-Tech
 "HeatSrcTU" = HEAT-PUMP   $ IP Non-Tech
 "HeatType" = GasFurn   $ IP Non-Tech
 "HeatTypeTU" = HEAT-PUMP   $ IP Non-Tech
 "HtCap_fT" = 0   $ Msr (Var)TechID: PreNResSplitAC-45to-PENo
 "HtCoolCapRatio" = 0   $ Msr (Var)TechID: PreNResSplitAC-45to-PENo
 "HtgEIR" = 0   $ Msr (Var)TechID: PreNResSplitAC-45to-PENo
 "IndoorFanMode" = CONTINUOUS   $ IP Non-Tech
 "KT_TransferAir" = No   $ IP Non-Tech
 "Latitude" = 40.8   $ IP Non-Tech
 "LobbyWaiting_EWSF" = 0.5125   $ IP Non-Tech
 "LobbyWaiting_LWSF" = 1.3   $ IP Non-Tech
 "Longitude" = 124.2   $ IP Non-Tech
 "LowSpdCapRatio" = 1   $ Msr (Var)TechID: PreNResSplitAC-45to-PENo
 "LowSpdCfmRatio" = 1   $ Msr (Var)TechID: PreNResSplitAC-45to-PENo
 "MZFanMechEff" = 0.58   $ IP Non-Tech
 "MZHasRetFan" = FALSE   $ IP Non-Tech
 "MZ_RFanWPerCfm" = 0.37   $ IP Non-Tech
 "MZ_SFanWPerCfm" = 0.71   $ IP Non-Tech
 "MZ_SupFanStatic" = 2.25   $ IP Non-Tech
 "MaxOAFrac" = 1   $ Msr (Multi)TechID: PreNResSplitAC-45to-PENo
 "MaxSupT_MZ" = 100   $ IP Non-Tech
 "MaxSupT_SZ" = 100   $ IP Non-Tech
 "MaxSupT_TU" = 90   $ IP Non-Tech
 "MechElecRoom_EWSF" = 0.21   $ IP Non-Tech
 "MechElecRoom_LWSF" = 0.7   $ IP Non-Tech
 "MinCfmPerSF" = 0.4   $ IP Non-Tech
 "MinSupT" = 55   $ IP Non-Tech
 "NumStages" = 1   $ Msr (Var)TechID: PreNResSplitAC-45to-PENo
 "OccCoolT" = 76   $ IP Non-Tech
 "OccHeatT" = 72   $ IP Non-Tech
 "OfficeOpen_EWSF" = 1.575   $ IP Non-Tech
 "OfficeOpen_LWSF" = 1.2   $ IP Non-Tech
 "OfficeSmall_EWSF" = 1.575   $ IP Non-Tech
 "OfficeSmall_LWSF" = 1.3   $ IP Non-Tech
 "PkgDxVintEconoFlag" = 0   $ IP Non-Tech
 "Restroom_EWSF" = 0.21   $ IP Non-Tech
 "Restroom_LWSF" = 0.6   $ IP Non-Tech
 "SEER" = 11.5   $ Msr (Var)TechID: PreNResSplitAC-45to-PENo
 "SZFanMechEff" = 0.58   $ IP Non-Tech
 "SZHasRetFan" = FALSE   $ IP Non-Tech
 "SZ_Is_2Spd" = FALSE   $ IP Non-Tech
 "SZ_SFanWPerCfm" = 0.46   $ IP Non-Tech
 "SZ_SupFanStatic" = 0.75   $ IP Non-Tech
 "Sector" = Any   $ Msr (Var)TechID: PreNResSplitAC-45to-PENo
 "StorageSmlCond_EWSF" = 0.21   $ IP Non-Tech
 "StorageSmlCond_LWSF" = 0.6   $ IP Non-Tech
 "SubType" = AC   $ Msr (Var)TechID: PreNResSplitAC-45to-PENo
 "T24GlzTbl" = CZTbl   $ IP Non-Tech
 "TermUnitFanMechEff" = 1   $ IP Non-Tech
 "TermUnitFanMode" = INTERMITTENT   $ IP Non-Tech
 "TotCoolCap" = 34895   $ Msr (Var)TechID: PreNResSplitAC-45to-PENo
 "TwrSetpt" = 80   $ IP Non-Tech
 "UnocCoolT" = 86   $ IP Non-Tech
 "UnocHeatT" = 62   $ IP Non-Tech
 "UseEconoVintApplic" = FALSE   $ Msr (Multi)TechID: PreNResSplitAC-45to-PENo
 "WlhpVintEconoFlag" = 0   $ IP Non-Tech
 "DuctDT" = 1   $ IP Tech: ComDuctInsul-1
 "DuctAirLoss" = 0   $ IP Tech: ComDuctLeak-0
 "DuctLossOAFrac" = 0   $ IP Tech: ComDuctLeak-0
 "ComRoofInsCalc" = FromUo   $ IP Tech: ComRoofIns-Hvy-0.06
 "ComRoofInsR" = -999   $ IP Tech: ComRoofIns-Hvy-0.06
 "ComRoofUo" = 0.06   $ IP Tech: ComRoofIns-Hvy-0.06
 "ComEWInsCalc" = FromUo   $ IP Tech: ComWallIns-MFrm-0.13
 "ComEWInsR" = -999   $ IP Tech: ComWallIns-MFrm-0.13
 "ComEWUo" = 0.13   $ IP Tech: ComWallIns-MFrm-0.13
 "ComN_SHGC" = 0.77   $ IP Tech: NResWin-ComN-0.77-0.77
 "ComN_UFactor" = 0.77   $ IP Tech: NResWin-ComN-0.77-0.77
 "ComN_VisTrans" = 0.81   $ IP Tech: NResWin-ComN-0.77-0.77
 "ComN_WinCode" = G2000   $ IP Tech: NResWin-ComN-0.77-0.77
 "ComN_WinFrmFrac" = 0.17   $ IP Tech: NResWin-ComN-0.77-0.77
 "ComN_WinFrmU" = 1   $ IP Tech: NResWin-ComN-0.77-0.77
 "ComO_SHGC" = 0.5   $ IP Tech: NResWin-ComO-0.77-0.5
 "ComO_UFactor" = 0.77   $ IP Tech: NResWin-ComO-0.77-0.5
 "ComO_VisTrans" = 0.77   $ IP Tech: NResWin-ComO-0.77-0.5
 "ComO_WinCode" = G2630   $ IP Tech: NResWin-ComO-0.77-0.5
 "ComO_WinFrmFrac" = 0.17   $ IP Tech: NResWin-ComO-0.77-0.5
 "ComO_WinFrmU" = 1   $ IP Tech: NResWin-ComO-0.77-0.5
 "LtgMsrApplic" = ALL   $ IP Tech: NonResLtgRefPre
 "LtgSav_CFL" = 0   $ IP Tech: NonResLtgRefPre
 "LtgSav_EX" = 0   $ IP Tech: NonResLtgRefPre
 "LtgSav_HB" = 0   $ IP Tech: NonResLtgRefPre
 "LtgSav_LF" = 0   $ IP Tech: NonResLtgRefPre
 "LtgSav_SP" = 0   $ IP Tech: NonResLtgRefPre
 "CEIR_fPLR" = PSZ65to135_CEIR_fPLR   $ IP Tech: PkgAC1SpH-65to135-E10
 "CLoss_fPLR" = PSZ65to135_CLoss_fPLR   $ IP Tech: PkgAC1SpH-65to135-E10
 "COP" = -1   $ IP Tech: PkgAC1SpH-65to135-E10
 "HtgFuel" = Gas   $ IP Tech: PkgAC1SpH-65to135-E10
 "IEER" = 11.87   $ IP Tech: PkgAC1SpH-65to135-E10
 "NominalCap" = 15   $ IP Tech: PkgAC1SpH-65to135-E10
 "RatedEER" = 10   $ IP Tech: PkgAC1SpH-65to135-E10
 "RatedSupMtrClass" = HiEff   $ IP Tech: PkgAC1SpH-65to135-E10
 "SizeRange" = 65to135   $ IP Tech: PkgAC1SpH-65to135-E10
 "SupMotEff" = 0.84   $ IP Tech: PkgAC1SpH-65to135-E10
 "Tier" = 0   $ IP Tech: PkgAC1SpH-65to135-E10
 "FanPwrMult" = 1   $ IP Tech: PkgFurn-0.80AFUE
 "FurnAFUE" = 0.8   $ IP Tech: PkgFurn-0.80AFUE
 "FurnEt" = 0.82   $ IP Tech: PkgFurn-0.80AFUE
 "FurnaceAuxKW" = 0.1   $ IP Tech: PkgFurn-0.80AFUE
 "HIR_fPLR" = Furnace-HIR-fPLR   $ IP Tech: PkgFurn-0.80AFUE
 "VSM" = FALSE   $ IP Tech: PkgFurn-0.80AFUE
 "BFMult" = 1   $ IP Tech: RefgChg-NRes-Std
 "CoolEirMult" = 1   $ IP Tech: RefgChg-NRes-Std
 "SensCoolCapMult" = 1   $ IP Tech: RefgChg-NRes-Std
 "TotCoolCapMult" = 1   $ IP Tech: RefgChg-NRes-Std
 "AltAdjFactor" = 1.007532   $ Sizing
 "CAssFlo_L_Break_CZn" = 364.3814   $ Sizing
 "CAssFlo_L_Conf_CZn" = 428.5186   $ Sizing
 "CAssFlo_L_CopyRm_CZn" = 109.6588   $ Sizing
 "CAssFlo_L_Cordr_CZn" = 565.4379   $ Sizing
 "CAssFlo_L_Cordr_EZn" = 243.6443   $ Sizing
 "CAssFlo_L_Cordr_NZn" = 104.0757   $ Sizing
 "CAssFlo_L_Cordr_SZn" = 261.5795   $ Sizing
 "CAssFlo_L_Cordr_WZn" = 233.2196   $ Sizing
 "CAssFlo_L_LobWait_CZn" = 357.5237   $ Sizing
 "CAssFlo_L_MechElec_CZn" = 134.1697   $ Sizing
 "CAssFlo_L_OfficeOpn_CZn" = 1714.065   $ Sizing
 "CAssFlo_L_OfficeOpn_EZn" = 1996.922   $ Sizing
 "CAssFlo_L_OfficeOpn_NZn" = 855.7896   $ Sizing
 "CAssFlo_L_OfficeOpn_SZn" = 2064.322   $ Sizing
 "CAssFlo_L_OfficeOpn_WZn" = 1912.177   $ Sizing
 "CAssFlo_L_OfficeSm_CZn" = 217.5222   $ Sizing
 "CAssFlo_L_OfficeSm_EZn" = 1440.015   $ Sizing
 "CAssFlo_L_OfficeSm_NZn" = 521.9759   $ Sizing
 "CAssFlo_L_OfficeSm_SZn" = 1522.81   $ Sizing
 "CAssFlo_L_OfficeSm_WZn" = 1384.213   $ Sizing
 "CAssFlo_L_Restrm_CZn" = 211.8611   $ Sizing
 "CAssFlo_L_StorSm_CZn" = 345.8763   $ Sizing
 "CAssFlo_M_Break_CZn" = 398.45   $ Sizing
 "CAssFlo_M_Conf_CZn" = 479.7411   $ Sizing
 "CAssFlo_M_CopyRm_CZn" = 136.982   $ Sizing
 "CAssFlo_M_Cordr_CZn" = 786.765   $ Sizing
 "CAssFlo_M_Cordr_EZn" = 302.2027   $ Sizing
 "CAssFlo_M_Cordr_NZn" = 111.3168   $ Sizing
 "CAssFlo_M_Cordr_SZn" = 314.4614   $ Sizing
 "CAssFlo_M_Cordr_WZn" = 270.9213   $ Sizing
 "CAssFlo_M_LobWait_CZn" = 464.3901   $ Sizing
 "CAssFlo_M_MechElec_CZn" = 143.7362   $ Sizing
 "CAssFlo_M_OfficeOpn_CZn" = 2003.617   $ Sizing
 "CAssFlo_M_OfficeOpn_EZn" = 2181.008   $ Sizing
 "CAssFlo_M_OfficeOpn_NZn" = 999.5759   $ Sizing
 "CAssFlo_M_OfficeOpn_SZn" = 2300.523   $ Sizing
 "CAssFlo_M_OfficeOpn_WZn" = 2029.924   $ Sizing
 "CAssFlo_M_OfficeSm_CZn" = 280.5542   $ Sizing
 "CAssFlo_M_OfficeSm_EZn" = 1559.202   $ Sizing
 "CAssFlo_M_OfficeSm_NZn" = 620.5526   $ Sizing
 "CAssFlo_M_OfficeSm_SZn" = 1684.814   $ Sizing
 "CAssFlo_M_OfficeSm_WZn" = 1477.072   $ Sizing
 "CAssFlo_M_Restrm_CZn" = 211.8611   $ Sizing
 "CAssFlo_M_StorSm_CZn" = 374.3428   $ Sizing
 "CAssFlo_T_Break_CZn" = 376.9352   $ Sizing
 "CAssFlo_T_Conf_CZn" = 457.3711   $ Sizing
 "CAssFlo_T_CopyRm_CZn" = 131.2349   $ Sizing
 "CAssFlo_T_Cordr_CZn" = 692.009   $ Sizing
 "CAssFlo_T_Cordr_EZn" = 266.571   $ Sizing
 "CAssFlo_T_Cordr_NZn" = 99.56195   $ Sizing
 "CAssFlo_T_Cordr_SZn" = 286.1594   $ Sizing
 "CAssFlo_T_Cordr_WZn" = 244.3712   $ Sizing
 "CAssFlo_T_LobWait_CZn" = 429.1529   $ Sizing
 "CAssFlo_T_MechElec_CZn" = 150.4152   $ Sizing
 "CAssFlo_T_OfficeOpn_CZn" = 1850.447   $ Sizing
 "CAssFlo_T_OfficeOpn_EZn" = 1984.576   $ Sizing
 "CAssFlo_T_OfficeOpn_NZn" = 936.0753   $ Sizing
 "CAssFlo_T_OfficeOpn_SZn" = 2145.132   $ Sizing
 "CAssFlo_T_OfficeOpn_WZn" = 1867.749   $ Sizing
 "CAssFlo_T_OfficeSm_CZn" = 261.6368   $ Sizing
 "CAssFlo_T_OfficeSm_EZn" = 1463.217   $ Sizing
 "CAssFlo_T_OfficeSm_NZn" = 592.6427   $ Sizing
 "CAssFlo_T_OfficeSm_SZn" = 1607.427   $ Sizing
 "CAssFlo_T_OfficeSm_WZn" = 1393.015   $ Sizing
 "CAssFlo_T_Restrm_CZn" = 211.8611   $ Sizing
 "CAssFlo_T_StorSm_CZn" = 334.0894   $ Sizing
 "CHRtFlo_Sys_L_Break_C" = 364.3814   $ Sizing
 "CHRtFlo_Sys_L_Conf_C" = 428.5186   $ Sizing
 "CHRtFlo_Sys_L_CopyRm_C" = 109.6588   $ Sizing
 "CHRtFlo_Sys_L_Cordr_C" = 565.4379   $ Sizing
 "CHRtFlo_Sys_L_Cordr_E" = 243.6443   $ Sizing
 "CHRtFlo_Sys_L_Cordr_N" = 104.0757   $ Sizing
 "CHRtFlo_Sys_L_Cordr_S" = 261.5795   $ Sizing
 "CHRtFlo_Sys_L_Cordr_W" = 233.2196   $ Sizing
 "CHRtFlo_Sys_L_LobWait_C" = 357.5237   $ Sizing
 "CHRtFlo_Sys_L_MechElec_C" = 134.1697   $ Sizing
 "CHRtFlo_Sys_L_OfficeOpn_C" = 1714.065   $ Sizing
 "CHRtFlo_Sys_L_OfficeOpn_E" = 1996.922   $ Sizing
 "CHRtFlo_Sys_L_OfficeOpn_N" = 855.7896   $ Sizing
 "CHRtFlo_Sys_L_OfficeOpn_S" = 2064.322   $ Sizing
 "CHRtFlo_Sys_L_OfficeOpn_W" = 1912.177   $ Sizing
 "CHRtFlo_Sys_L_OfficeSm_C" = 217.5222   $ Sizing
 "CHRtFlo_Sys_L_OfficeSm_E" = 1440.015   $ Sizing
 "CHRtFlo_Sys_L_OfficeSm_N" = 521.9759   $ Sizing
 "CHRtFlo_Sys_L_OfficeSm_S" = 1522.81   $ Sizing
 "CHRtFlo_Sys_L_OfficeSm_W" = 1384.213   $ Sizing
 "CHRtFlo_Sys_L_Restrm_C" = 211.8611   $ Sizing
 "CHRtFlo_Sys_L_StorSm_C" = 345.8763   $ Sizing
 "CHRtFlo_Sys_M_Break_C" = 3187.6   $ Sizing
 "CHRtFlo_Sys_M_Conf_C" = 3837.929   $ Sizing
 "CHRtFlo_Sys_M_CopyRm_C" = 1095.856   $ Sizing
 "CHRtFlo_Sys_M_Cordr_C" = 6294.12   $ Sizing
 "CHRtFlo_Sys_M_Cordr_E" = 2417.622   $ Sizing
 "CHRtFlo_Sys_M_Cordr_N" = 890.5344   $ Sizing
 "CHRtFlo_Sys_M_Cordr_S" = 2515.691   $ Sizing
 "CHRtFlo_Sys_M_Cordr_W" = 2167.37   $ Sizing
 "CHRtFlo_Sys_M_LobWait_C" = 3715.121   $ Sizing
 "CHRtFlo_Sys_M_MechElec_C" = 1149.89   $ Sizing
 "CHRtFlo_Sys_M_OfficeOpn_C" = 16028.94   $ Sizing
 "CHRtFlo_Sys_M_OfficeOpn_E" = 17448.06   $ Sizing
 "CHRtFlo_Sys_M_OfficeOpn_N" = 7996.607   $ Sizing
 "CHRtFlo_Sys_M_OfficeOpn_S" = 18404.18   $ Sizing
 "CHRtFlo_Sys_M_OfficeOpn_W" = 16239.4   $ Sizing
 "CHRtFlo_Sys_M_OfficeSm_C" = 2244.434   $ Sizing
 "CHRtFlo_Sys_M_OfficeSm_E" = 12473.62   $ Sizing
 "CHRtFlo_Sys_M_OfficeSm_N" = 4964.421   $ Sizing
 "CHRtFlo_Sys_M_OfficeSm_S" = 13478.51   $ Sizing
 "CHRtFlo_Sys_M_OfficeSm_W" = 11816.58   $ Sizing
 "CHRtFlo_Sys_M_Restrm_C" = 1694.889   $ Sizing
 "CHRtFlo_Sys_M_StorSm_C" = 2994.743   $ Sizing
 "CHRtFlo_Sys_T_Break_C" = 376.9352   $ Sizing
 "CHRtFlo_Sys_T_Conf_C" = 457.3711   $ Sizing
 "CHRtFlo_Sys_T_CopyRm_C" = 131.2349   $ Sizing
 "CHRtFlo_Sys_T_Cordr_C" = 692.009   $ Sizing
 "CHRtFlo_Sys_T_Cordr_E" = 266.571   $ Sizing
 "CHRtFlo_Sys_T_Cordr_N" = 99.56195   $ Sizing
 "CHRtFlo_Sys_T_Cordr_S" = 286.1594   $ Sizing
 "CHRtFlo_Sys_T_Cordr_W" = 244.3712   $ Sizing
 "CHRtFlo_Sys_T_LobWait_C" = 429.1529   $ Sizing
 "CHRtFlo_Sys_T_MechElec_C" = 150.4152   $ Sizing
 "CHRtFlo_Sys_T_OfficeOpn_C" = 1850.447   $ Sizing
 "CHRtFlo_Sys_T_OfficeOpn_E" = 1984.576   $ Sizing
 "CHRtFlo_Sys_T_OfficeOpn_N" = 936.0753   $ Sizing
 "CHRtFlo_Sys_T_OfficeOpn_S" = 2145.132   $ Sizing
 "CHRtFlo_Sys_T_OfficeOpn_W" = 1867.749   $ Sizing
 "CHRtFlo_Sys_T_OfficeSm_C" = 261.6368   $ Sizing
 "CHRtFlo_Sys_T_OfficeSm_E" = 1463.217   $ Sizing
 "CHRtFlo_Sys_T_OfficeSm_N" = 592.6427   $ Sizing
 "CHRtFlo_Sys_T_OfficeSm_S" = 1607.427   $ Sizing
 "CHRtFlo_Sys_T_OfficeSm_W" = 1393.015   $ Sizing
 "CHRtFlo_Sys_T_Restrm_C" = 211.8611   $ Sizing
 "CHRtFlo_Sys_T_StorSm_C" = 334.0894   $ Sizing
 "CRtdFlo_Sys_L_Break_C" = 364.3814   $ Sizing
 "CRtdFlo_Sys_L_Conf_C" = 428.5186   $ Sizing
 "CRtdFlo_Sys_L_CopyRm_C" = 109.6588   $ Sizing
 "CRtdFlo_Sys_L_Cordr_C" = 565.4379   $ Sizing
 "CRtdFlo_Sys_L_Cordr_E" = 243.6443   $ Sizing
 "CRtdFlo_Sys_L_Cordr_N" = 104.0757   $ Sizing
 "CRtdFlo_Sys_L_Cordr_S" = 261.5795   $ Sizing
 "CRtdFlo_Sys_L_Cordr_W" = 233.2196   $ Sizing
 "CRtdFlo_Sys_L_LobWait_C" = 357.5237   $ Sizing
 "CRtdFlo_Sys_L_MechElec_C" = 134.1697   $ Sizing
 "CRtdFlo_Sys_L_OfficeOpn_C" = 1714.065   $ Sizing
 "CRtdFlo_Sys_L_OfficeOpn_E" = 1996.922   $ Sizing
 "CRtdFlo_Sys_L_OfficeOpn_N" = 855.7896   $ Sizing
 "CRtdFlo_Sys_L_OfficeOpn_S" = 2064.322   $ Sizing
 "CRtdFlo_Sys_L_OfficeOpn_W" = 1912.177   $ Sizing
 "CRtdFlo_Sys_L_OfficeSm_C" = 217.5222   $ Sizing
 "CRtdFlo_Sys_L_OfficeSm_E" = 1440.015   $ Sizing
 "CRtdFlo_Sys_L_OfficeSm_N" = 521.9759   $ Sizing
 "CRtdFlo_Sys_L_OfficeSm_S" = 1522.81   $ Sizing
 "CRtdFlo_Sys_L_OfficeSm_W" = 1384.213   $ Sizing
 "CRtdFlo_Sys_L_Restrm_C" = 211.8611   $ Sizing
 "CRtdFlo_Sys_L_StorSm_C" = 345.8763   $ Sizing
 "CRtdFlo_Sys_M_Break_C" = 3187.6   $ Sizing
 "CRtdFlo_Sys_M_Conf_C" = 3837.929   $ Sizing
 "CRtdFlo_Sys_M_CopyRm_C" = 1095.856   $ Sizing
 "CRtdFlo_Sys_M_Cordr_C" = 6294.12   $ Sizing
 "CRtdFlo_Sys_M_Cordr_E" = 2417.622   $ Sizing
 "CRtdFlo_Sys_M_Cordr_N" = 890.5344   $ Sizing
 "CRtdFlo_Sys_M_Cordr_S" = 2515.691   $ Sizing
 "CRtdFlo_Sys_M_Cordr_W" = 2167.37   $ Sizing
 "CRtdFlo_Sys_M_LobWait_C" = 3715.121   $ Sizing
 "CRtdFlo_Sys_M_MechElec_C" = 1149.89   $ Sizing
 "CRtdFlo_Sys_M_OfficeOpn_C" = 16028.94   $ Sizing
 "CRtdFlo_Sys_M_OfficeOpn_E" = 17448.06   $ Sizing
 "CRtdFlo_Sys_M_OfficeOpn_N" = 7996.607   $ Sizing
 "CRtdFlo_Sys_M_OfficeOpn_S" = 18404.18   $ Sizing
 "CRtdFlo_Sys_M_OfficeOpn_W" = 16239.4   $ Sizing
 "CRtdFlo_Sys_M_OfficeSm_C" = 2244.434   $ Sizing
 "CRtdFlo_Sys_M_OfficeSm_E" = 12473.62   $ Sizing
 "CRtdFlo_Sys_M_OfficeSm_N" = 4964.421   $ Sizing
 "CRtdFlo_Sys_M_OfficeSm_S" = 13478.51   $ Sizing
 "CRtdFlo_Sys_M_OfficeSm_W" = 11816.58   $ Sizing
 "CRtdFlo_Sys_M_Restrm_C" = 1694.889   $ Sizing
 "CRtdFlo_Sys_M_StorSm_C" = 2994.743   $ Sizing
 "CRtdFlo_Sys_T_Break_C" = 376.9352   $ Sizing
 "CRtdFlo_Sys_T_Conf_C" = 457.3711   $ Sizing
 "CRtdFlo_Sys_T_CopyRm_C" = 131.2349   $ Sizing
 "CRtdFlo_Sys_T_Cordr_C" = 692.009   $ Sizing
 "CRtdFlo_Sys_T_Cordr_E" = 266.571   $ Sizing
 "CRtdFlo_Sys_T_Cordr_N" = 99.56195   $ Sizing
 "CRtdFlo_Sys_T_Cordr_S" = 286.1594   $ Sizing
 "CRtdFlo_Sys_T_Cordr_W" = 244.3712   $ Sizing
 "CRtdFlo_Sys_T_LobWait_C" = 429.1529   $ Sizing
 "CRtdFlo_Sys_T_MechElec_C" = 150.4152   $ Sizing
 "CRtdFlo_Sys_T_OfficeOpn_C" = 1850.447   $ Sizing
 "CRtdFlo_Sys_T_OfficeOpn_E" = 1984.576   $ Sizing
 "CRtdFlo_Sys_T_OfficeOpn_N" = 936.0753   $ Sizing
 "CRtdFlo_Sys_T_OfficeOpn_S" = 2145.132   $ Sizing
 "CRtdFlo_Sys_T_OfficeOpn_W" = 1867.749   $ Sizing
 "CRtdFlo_Sys_T_OfficeSm_C" = 261.6368   $ Sizing
 "CRtdFlo_Sys_T_OfficeSm_E" = 1463.217   $ Sizing
 "CRtdFlo_Sys_T_OfficeSm_N" = 592.6427   $ Sizing
 "CRtdFlo_Sys_T_OfficeSm_S" = 1607.427   $ Sizing
 "CRtdFlo_Sys_T_OfficeSm_W" = 1393.015   $ Sizing
 "CRtdFlo_Sys_T_Restrm_C" = 211.8611   $ Sizing
 "CRtdFlo_Sys_T_StorSm_C" = 334.0894   $ Sizing
 "CSupFlo_Sys_L_Break_C" = 364.3814   $ Sizing
 "CSupFlo_Sys_L_Conf_C" = 428.5186   $ Sizing
 "CSupFlo_Sys_L_CopyRm_C" = 109.6588   $ Sizing
 "CSupFlo_Sys_L_Cordr_C" = 565.4379   $ Sizing
 "CSupFlo_Sys_L_Cordr_E" = 243.6443   $ Sizing
 "CSupFlo_Sys_L_Cordr_N" = 104.0757   $ Sizing
 "CSupFlo_Sys_L_Cordr_S" = 261.5795   $ Sizing
 "CSupFlo_Sys_L_Cordr_W" = 233.2196   $ Sizing
 "CSupFlo_Sys_L_LobWait_C" = 357.5237   $ Sizing
 "CSupFlo_Sys_L_MechElec_C" = 134.1697   $ Sizing
 "CSupFlo_Sys_L_OfficeOpn_C" = 1714.065   $ Sizing
 "CSupFlo_Sys_L_OfficeOpn_E" = 1996.922   $ Sizing
 "CSupFlo_Sys_L_OfficeOpn_N" = 855.7896   $ Sizing
 "CSupFlo_Sys_L_OfficeOpn_S" = 2064.322   $ Sizing
 "CSupFlo_Sys_L_OfficeOpn_W" = 1912.177   $ Sizing
 "CSupFlo_Sys_L_OfficeSm_C" = 217.5222   $ Sizing
 "CSupFlo_Sys_L_OfficeSm_E" = 1440.015   $ Sizing
 "CSupFlo_Sys_L_OfficeSm_N" = 521.9759   $ Sizing
 "CSupFlo_Sys_L_OfficeSm_S" = 1522.81   $ Sizing
 "CSupFlo_Sys_L_OfficeSm_W" = 1384.213   $ Sizing
 "CSupFlo_Sys_L_Restrm_C" = 211.8611   $ Sizing
 "CSupFlo_Sys_L_StorSm_C" = 345.8763   $ Sizing
 "CSupFlo_Sys_M_Break_C" = 3187.6   $ Sizing
 "CSupFlo_Sys_M_Conf_C" = 3837.929   $ Sizing
 "CSupFlo_Sys_M_CopyRm_C" = 1095.856   $ Sizing
 "CSupFlo_Sys_M_Cordr_C" = 6294.12   $ Sizing
 "CSupFlo_Sys_M_Cordr_E" = 2417.622   $ Sizing
 "CSupFlo_Sys_M_Cordr_N" = 890.5344   $ Sizing
 "CSupFlo_Sys_M_Cordr_S" = 2515.691   $ Sizing
 "CSupFlo_Sys_M_Cordr_W" = 2167.37   $ Sizing
 "CSupFlo_Sys_M_LobWait_C" = 3715.121   $ Sizing
 "CSupFlo_Sys_M_MechElec_C" = 1149.89   $ Sizing
 "CSupFlo_Sys_M_OfficeOpn_C" = 16028.94   $ Sizing
 "CSupFlo_Sys_M_OfficeOpn_E" = 17448.06   $ Sizing
 "CSupFlo_Sys_M_OfficeOpn_N" = 7996.607   $ Sizing
 "CSupFlo_Sys_M_OfficeOpn_S" = 18404.18   $ Sizing
 "CSupFlo_Sys_M_OfficeOpn_W" = 16239.4   $ Sizing
 "CSupFlo_Sys_M_OfficeSm_C" = 2244.434   $ Sizing
 "CSupFlo_Sys_M_OfficeSm_E" = 12473.62   $ Sizing
 "CSupFlo_Sys_M_OfficeSm_N" = 4964.421   $ Sizing
 "CSupFlo_Sys_M_OfficeSm_S" = 13478.51   $ Sizing
 "CSupFlo_Sys_M_OfficeSm_W" = 11816.58   $ Sizing
 "CSupFlo_Sys_M_Restrm_C" = 1694.889   $ Sizing
 "CSupFlo_Sys_M_StorSm_C" = 2994.743   $ Sizing
 "CSupFlo_Sys_T_Break_C" = 376.9352   $ Sizing
 "CSupFlo_Sys_T_Conf_C" = 457.3711   $ Sizing
 "CSupFlo_Sys_T_CopyRm_C" = 131.2349   $ Sizing
 "CSupFlo_Sys_T_Cordr_C" = 692.009   $ Sizing
 "CSupFlo_Sys_T_Cordr_E" = 266.571   $ Sizing
 "CSupFlo_Sys_T_Cordr_N" = 99.56195   $ Sizing
 "CSupFlo_Sys_T_Cordr_S" = 286.1594   $ Sizing
 "CSupFlo_Sys_T_Cordr_W" = 244.3712   $ Sizing
 "CSupFlo_Sys_T_LobWait_C" = 429.1529   $ Sizing
 "CSupFlo_Sys_T_MechElec_C" = 150.4152   $ Sizing
 "CSupFlo_Sys_T_OfficeOpn_C" = 1850.447   $ Sizing
 "CSupFlo_Sys_T_OfficeOpn_E" = 1984.576   $ Sizing
 "CSupFlo_Sys_T_OfficeOpn_N" = 936.0753   $ Sizing
 "CSupFlo_Sys_T_OfficeOpn_S" = 2145.132   $ Sizing
 "CSupFlo_Sys_T_OfficeOpn_W" = 1867.749   $ Sizing
 "CSupFlo_Sys_T_OfficeSm_C" = 261.6368   $ Sizing
 "CSupFlo_Sys_T_OfficeSm_E" = 1463.217   $ Sizing
 "CSupFlo_Sys_T_OfficeSm_N" = 592.6427   $ Sizing
 "CSupFlo_Sys_T_OfficeSm_S" = 1607.427   $ Sizing
 "CSupFlo_Sys_T_OfficeSm_W" = 1393.015   $ Sizing
 "CSupFlo_Sys_T_Restrm_C" = 211.8611   $ Sizing
 "CSupFlo_Sys_T_StorSm_C" = 334.0894   $ Sizing
 "ClCap_Sys_L_Break_C" = 12399.68   $ Sizing
 "ClCap_Sys_L_Conf_C" = 18559.21   $ Sizing
 "ClCap_Sys_L_CopyRm_C" = 3731.624   $ Sizing
 "ClCap_Sys_L_Cordr_C" = 19241.51   $ Sizing
 "ClCap_Sys_L_Cordr_E" = 8291.069   $ Sizing
 "ClCap_Sys_L_Cordr_N" = 3541.633   $ Sizing
 "ClCap_Sys_L_Cordr_S" = 8901.395   $ Sizing
 "ClCap_Sys_L_Cordr_W" = 7936.325   $ Sizing
 "ClCap_Sys_L_LobWait_C" = 12166.32   $ Sizing
 "ClCap_Sys_L_MechElec_C" = 4565.713   $ Sizing
 "ClCap_Sys_L_OfficeOpn_C" = 58328.61   $ Sizing
 "ClCap_Sys_L_OfficeOpn_E" = 67954.05   $ Sizing
 "ClCap_Sys_L_OfficeOpn_N" = 29122.01   $ Sizing
 "ClCap_Sys_L_OfficeOpn_S" = 70247.63   $ Sizing
 "ClCap_Sys_L_OfficeOpn_W" = 65070.24   $ Sizing
 "ClCap_Sys_L_OfficeSm_C" = 7402.15   $ Sizing
 "ClCap_Sys_L_OfficeSm_E" = 49002.85   $ Sizing
 "ClCap_Sys_L_OfficeSm_N" = 17762.53   $ Sizing
 "ClCap_Sys_L_OfficeSm_S" = 51820.32   $ Sizing
 "ClCap_Sys_L_OfficeSm_W" = 47103.94   $ Sizing
 "ClCap_Sys_L_Restrm_C" = 7209.506   $ Sizing
 "ClCap_Sys_L_StorSm_C" = 11769.96   $ Sizing
 "ClCap_Sys_M_Break_C" = 108472.1   $ Sizing
 "ClCap_Sys_M_Conf_C" = 166221.3   $ Sizing
 "ClCap_Sys_M_CopyRm_C" = 37291.34   $ Sizing
 "ClCap_Sys_M_Cordr_C" = 214185.1   $ Sizing
 "ClCap_Sys_M_Cordr_E" = 82270.23   $ Sizing
 "ClCap_Sys_M_Cordr_N" = 30304.35   $ Sizing
 "ClCap_Sys_M_Cordr_S" = 85607.48   $ Sizing
 "ClCap_Sys_M_Cordr_W" = 73754.32   $ Sizing
 "ClCap_Sys_M_LobWait_C" = 126423.3   $ Sizing
 "ClCap_Sys_M_MechElec_C" = 39130.05   $ Sizing
 "ClCap_Sys_M_OfficeOpn_C" = 545455.2   $ Sizing
 "ClCap_Sys_M_OfficeOpn_E" = 593747.1   $ Sizing
 "ClCap_Sys_M_OfficeOpn_N" = 272119.8   $ Sizing
 "ClCap_Sys_M_OfficeOpn_S" = 626283.4   $ Sizing
 "ClCap_Sys_M_OfficeOpn_W" = 552616.9   $ Sizing
 "ClCap_Sys_M_OfficeSm_C" = 76376.73   $ Sizing
 "ClCap_Sys_M_OfficeSm_E" = 424469.7   $ Sizing
 "ClCap_Sys_M_OfficeSm_N" = 168936.3   $ Sizing
 "ClCap_Sys_M_OfficeSm_S" = 458665.8   $ Sizing
 "ClCap_Sys_M_OfficeSm_W" = 402111.1   $ Sizing
 "ClCap_Sys_M_Restrm_C" = 57676.05   $ Sizing
 "ClCap_Sys_M_StorSm_C" = 101909.3   $ Sizing
 "ClCap_Sys_T_Break_C" = 12826.88   $ Sizing
 "ClCap_Sys_T_Conf_C" = 19808.81   $ Sizing
 "ClCap_Sys_T_CopyRm_C" = 4465.847   $ Sizing
 "ClCap_Sys_T_Cordr_C" = 23548.65   $ Sizing
 "ClCap_Sys_T_Cordr_E" = 9071.253   $ Sizing
 "ClCap_Sys_T_Cordr_N" = 3388.034   $ Sizing
 "ClCap_Sys_T_Cordr_S" = 9737.833   $ Sizing
 "ClCap_Sys_T_Cordr_W" = 8315.805   $ Sizing
 "ClCap_Sys_T_LobWait_C" = 14603.82   $ Sizing
 "ClCap_Sys_T_MechElec_C" = 5118.539   $ Sizing
 "ClCap_Sys_T_OfficeOpn_C" = 62969.6   $ Sizing
 "ClCap_Sys_T_OfficeOpn_E" = 67533.93   $ Sizing
 "ClCap_Sys_T_OfficeOpn_N" = 31854.08   $ Sizing
 "ClCap_Sys_T_OfficeOpn_S" = 72997.57   $ Sizing
 "ClCap_Sys_T_OfficeOpn_W" = 63558.39   $ Sizing
 "ClCap_Sys_T_OfficeSm_C" = 8903.344   $ Sizing
 "ClCap_Sys_T_OfficeSm_E" = 49792.41   $ Sizing
 "ClCap_Sys_T_OfficeSm_N" = 20167.28   $ Sizing
 "ClCap_Sys_T_OfficeSm_S" = 54699.77   $ Sizing
 "ClCap_Sys_T_OfficeSm_W" = 47403.47   $ Sizing
 "ClCap_Sys_T_Restrm_C" = 7209.506   $ Sizing
 "ClCap_Sys_T_StorSm_C" = 11368.86   $ Sizing
 "HtCap_Sys_L_Break_C" = -20409.41   $ Sizing
 "HtCap_Sys_L_Conf_C" = -25264.85   $ Sizing
 "HtCap_Sys_L_CopyRm_C" = -7187.847   $ Sizing
 "HtCap_Sys_L_Cordr_C" = -25932.5   $ Sizing
 "HtCap_Sys_L_Cordr_E" = -8742.999   $ Sizing
 "HtCap_Sys_L_Cordr_N" = -4674.2   $ Sizing
 "HtCap_Sys_L_Cordr_S" = -9169.383   $ Sizing
 "HtCap_Sys_L_Cordr_W" = -8431.52   $ Sizing
 "HtCap_Sys_L_LobWait_C" = -20534.1   $ Sizing
 "HtCap_Sys_L_MechElec_C" = -6092.755   $ Sizing
 "HtCap_Sys_L_OfficeOpn_C" = -83567.17   $ Sizing
 "HtCap_Sys_L_OfficeOpn_E" = -67003.48   $ Sizing
 "HtCap_Sys_L_OfficeOpn_N" = -34148.33   $ Sizing
 "HtCap_Sys_L_OfficeOpn_S" = -68111.65   $ Sizing
 "HtCap_Sys_L_OfficeOpn_W" = -64474.11   $ Sizing
 "HtCap_Sys_L_OfficeSm_C" = -8845.57   $ Sizing
 "HtCap_Sys_L_OfficeSm_E" = -48124.26   $ Sizing
 "HtCap_Sys_L_OfficeSm_N" = -21147.11   $ Sizing
 "HtCap_Sys_L_OfficeSm_S" = -49842.86   $ Sizing
 "HtCap_Sys_L_OfficeSm_W" = -46545.38   $ Sizing
 "HtCap_Sys_L_Restrm_C" = -7674.326   $ Sizing
 "HtCap_Sys_L_StorSm_C" = -15925.75   $ Sizing
 "HtCap_Sys_M_Break_C" = -170974.4   $ Sizing
 "HtCap_Sys_M_Conf_C" = -213949.3   $ Sizing
 "HtCap_Sys_M_CopyRm_C" = -63806.17   $ Sizing
 "HtCap_Sys_M_Cordr_C" = -257455.2   $ Sizing
 "HtCap_Sys_M_Cordr_E" = -83187.44   $ Sizing
 "HtCap_Sys_M_Cordr_N" = -39007.85   $ Sizing
 "HtCap_Sys_M_Cordr_S" = -85082.88   $ Sizing
 "HtCap_Sys_M_Cordr_W" = -75883.08   $ Sizing
 "HtCap_Sys_M_LobWait_C" = -188812.8   $ Sizing
 "HtCap_Sys_M_MechElec_C" = -50885.33   $ Sizing
 "HtCap_Sys_M_OfficeOpn_C" = -781203.4   $ Sizing
 "HtCap_Sys_M_OfficeOpn_E" = -576614.8   $ Sizing
 "HtCap_Sys_M_OfficeOpn_N" = -305902.3   $ Sizing
 "HtCap_Sys_M_OfficeOpn_S" = -596042.6   $ Sizing
 "HtCap_Sys_M_OfficeOpn_W" = -541265.8   $ Sizing
 "HtCap_Sys_M_OfficeSm_C" = -85208.92   $ Sizing
 "HtCap_Sys_M_OfficeSm_E" = -410719.8   $ Sizing
 "HtCap_Sys_M_OfficeSm_N" = -192018.1   $ Sizing
 "HtCap_Sys_M_OfficeSm_S" = -433647.3   $ Sizing
 "HtCap_Sys_M_OfficeSm_W" = -392035.6   $ Sizing
 "HtCap_Sys_M_Restrm_C" = -66139.31   $ Sizing
 "HtCap_Sys_M_StorSm_C" = -130088.9   $ Sizing
 "HtCap_Sys_T_Break_C" = -21637.81   $ Sizing
 "HtCap_Sys_T_Conf_C" = -26951.95   $ Sizing
 "HtCap_Sys_T_CopyRm_C" = -8018.667   $ Sizing
 "HtCap_Sys_T_Cordr_C" = -33174.25   $ Sizing
 "HtCap_Sys_T_Cordr_E" = -10945.17   $ Sizing
 "HtCap_Sys_T_Cordr_N" = -5019.646   $ Sizing
 "HtCap_Sys_T_Cordr_S" = -11639.49   $ Sizing
 "HtCap_Sys_T_Cordr_W" = -10182.51   $ Sizing
 "HtCap_Sys_T_LobWait_C" = -23836.07   $ Sizing
 "HtCap_Sys_T_MechElec_C" = -6550.371   $ Sizing
 "HtCap_Sys_T_OfficeOpn_C" = -81410.41   $ Sizing
 "HtCap_Sys_T_OfficeOpn_E" = -75923.49   $ Sizing
 "HtCap_Sys_T_OfficeOpn_N" = -41689.99   $ Sizing
 "HtCap_Sys_T_OfficeOpn_S" = -81347.14   $ Sizing
 "HtCap_Sys_T_OfficeOpn_W" = -71992.64   $ Sizing
 "HtCap_Sys_T_OfficeSm_C" = -11413.13   $ Sizing
 "HtCap_Sys_T_OfficeSm_E" = -55938.12   $ Sizing
 "HtCap_Sys_T_OfficeSm_N" = -26299.14   $ Sizing
 "HtCap_Sys_T_OfficeSm_S" = -59955.07   $ Sizing
 "HtCap_Sys_T_OfficeSm_W" = -53649.52   $ Sizing
 "HtCap_Sys_T_Restrm_C" = -8861.718   $ Sizing
 "HtCap_Sys_T_StorSm_C" = -17439.42   $ Sizing
..

##include Templates\OfL_DX_SZ.inp
END ..
COMPUTE ..
STOP ..
