INPUT ..

##fileprefix C:\Users\jglasskatz\MASControl3\
##set1 IsSizing FALSE
##set1 CoolType DX
##set1 HeatType FURNACE
##set1 EU_HrRepVar 0
##set1 BldgVint 1975
##set1 BldgLoc CZ14

 ##set1 mBFMult 1   $ IP Tech: RefgChg-NRes-Std

PARAMETER
 "AltFactor" = 1.09733   $ IP Non-Tech
 "BF_fFlow" = SpltAC2SpHiSEER_BF_fFlow   $ Msr (Multi)TechID: MsrNResSplitAC-45to55-S17
 "BF_fT" = SpltAC2SpHiSEER_BF_fT   $ Msr (Multi)TechID: MsrNResSplitAC-45to55-S17
 "BldgEconoFlag" = 1   $ IP Non-Tech
 "Break_EWSF" = 1   $ IP Non-Tech
 "Break_LWSF" = 1.1   $ IP Non-Tech
 "CDD_DBHi10" = 86   $ IP Non-Tech
 "CDD_DBHi7" = 102   $ IP Non-Tech
 "CDD_DBHi8" = 102   $ IP Non-Tech
 "CDD_DBHi9" = 99   $ IP Non-Tech
 "CDD_DBRange10" = 24   $ IP Non-Tech
 "CDD_DBRange7" = 25   $ IP Non-Tech
 "CDD_DBRange8" = 24   $ IP Non-Tech
 "CDD_DBRange9" = 26   $ IP Non-Tech
 "CDD_Day10" = 15   $ IP Non-Tech
 "CDD_Day7" = 16   $ IP Non-Tech
 "CDD_Day8" = 20   $ IP Non-Tech
 "CDD_Day9" = 17   $ IP Non-Tech
 "CDD_HrHi10" = 15   $ IP Non-Tech
 "CDD_HrHi7" = 14   $ IP Non-Tech
 "CDD_HrHi8" = 14   $ IP Non-Tech
 "CDD_HrHi9" = 13   $ IP Non-Tech
 "CDD_HrLo10" = 3   $ IP Non-Tech
 "CDD_HrLo7" = 4   $ IP Non-Tech
 "CDD_HrLo8" = 6   $ IP Non-Tech
 "CDD_HrLo9" = 6   $ IP Non-Tech
 "CDD_WB10" = 59.47153854   $ IP Non-Tech
 "CDD_WB7" = 72.7782135   $ IP Non-Tech
 "CDD_WB8" = 69.10041809   $ IP Non-Tech
 "CDD_WB9" = 72.65714264   $ IP Non-Tech
 "CEIR_fPLR_Hot" = SpltAC2SpHiSEER_CEIR_fPLR_Hot   $ Msr (Multi)TechID: MsrNResSplitAC-45to55-S17
 "CEIR_fPLR_Mod" = SpltAC2SpHiSEER_CEIR_fPLR_Mod   $ Msr (Multi)TechID: MsrNResSplitAC-45to55-S17
 "CEIR_fPLR_Tem" = SpltAC2SpHiSEER_CEIR_fPLR_Tem   $ Msr (Multi)TechID: MsrNResSplitAC-45to55-S17
 "CLoss_fPLR_Hot" = SpltAC2SpHiSEER_CLoss_fPLR_Hot   $ Msr (Multi)TechID: MsrNResSplitAC-45to55-S17
 "CLoss_fPLR_Mod" = SpltAC2SpHiSEER_CLoss_fPLR_Mod   $ Msr (Multi)TechID: MsrNResSplitAC-45to55-S17
 "CLoss_fPLR_Tem" = SpltAC2SpHiSEER_CLoss_fPLR_Tem   $ Msr (Multi)TechID: MsrNResSplitAC-45to55-S17
 "COP47" = 0   $ Msr (Multi)TechID: MsrNResSplitAC-45to55-S17
 "CZ_Category" = Hot   $ IP Non-Tech
 "CapRange" = Any   $ Msr (Multi)TechID: MsrNResSplitAC-45to55-S17
 "CfmPerBtuh" = 0.03   $ Msr (Multi)TechID: MsrNResSplitAC-45to55-S17
 "ChwVintEconoFlag" = 1   $ IP Non-Tech
 "ClCap_fT" = SpltAC2SpHiSEER_ClCap_fT   $ Msr (Multi)TechID: MsrNResSplitAC-45to55-S17
 "ClSH_fT" = SpltAC2SpHiSEER_ClSH_fT   $ Msr (Multi)TechID: MsrNResSplitAC-45to55-S17
 "CoilBF" = 0.102   $ Msr (Multi)TechID: MsrNResSplitAC-45to55-S17
 "CondWPerBtuh" = 0   $ Msr (Multi)TechID: MsrNResSplitAC-45to55-S17
 "Conference_EWSF" = 1.15   $ IP Non-Tech
 "Conference_LWSF" = 1.4   $ IP Non-Tech
 "CoolSensCap" = 0.724   $ Msr (Multi)TechID: MsrNResSplitAC-45to55-S17
 "CoolSetT" = 45   $ IP Non-Tech
 "CoolType" = DX   $ IP Non-Tech
 "CoolingEIR" = 0.2225   $ Msr (Multi)TechID: MsrNResSplitAC-45to55-S17
 "CopyRoom_EWSF" = 1.725   $ IP Non-Tech
 "CopyRoom_LWSF" = 1.3   $ IP Non-Tech
 "CorridorStairway_EWSF" = 0.23   $ IP Non-Tech
 "CorridorStairway_LWSF" = 0.6   $ IP Non-Tech
 "CrnkEIR" = 0.002225   $ Msr (Multi)TechID: MsrNResSplitAC-45to55-S17
 "CrnkMaxT" = 50   $ Msr (Multi)TechID: MsrNResSplitAC-45to55-S17
 "DXType" = SplitSEER   $ Msr (Multi)TechID: MsrNResSplitAC-45to55-S17
 "DesCoolT" = 75   $ IP Non-Tech
 "DesHeatT" = 73   $ IP Non-Tech
 "EER" = 13.26   $ Msr (Multi)TechID: MsrNResSplitAC-45to55-S17
 "EIR_fT" = SpltAC2SpHiSEER_EIR_fT   $ Msr (Multi)TechID: MsrNResSplitAC-45to55-S17
 "EconoCtrl" = FIXED   $ Msr (Multi)TechID: MsrNResSplitAC-45to55-S17
 "EconoEnthLimit" = 28   $ IP Non-Tech
 "EconoTempLimit" = 75   $ IP Non-Tech
 "Elevation" = 2523   $ IP Non-Tech
 "FanEirPlr" = TwoSpeedFan   $ Msr (Multi)TechID: MsrNResSplitAC-45to55-S17
 "FanWPerCfm" = 0.271   $ Msr (Multi)TechID: MsrNResSplitAC-45to55-S17
 "HDD_CloudAmt1" = 0   $ IP Non-Tech
 "HDD_DBHi1" = 50   $ IP Non-Tech
 "HDD_DBRange1" = 24   $ IP Non-Tech
 "HDD_Day1" = 15   $ IP Non-Tech
 "HDD_HrHi1" = 14   $ IP Non-Tech
 "HDD_HrLo1" = 6   $ IP Non-Tech
 "HDD_WB1" = 36.9   $ IP Non-Tech
 "HDD_WindSpd1" = 17.3   $ IP Non-Tech
 "HIR_fT" = 0   $ Msr (Multi)TechID: MsrNResSplitAC-45to55-S17
 "HSPF" = 0   $ Msr (Multi)TechID: MsrNResSplitAC-45to55-S17
 "HeatSrc" = FURNACE   $ IP Non-Tech
 "HeatSrcTU" = HEAT-PUMP   $ IP Non-Tech
 "HeatType" = GasFurn   $ IP Non-Tech
 "HeatTypeTU" = HEAT-PUMP   $ IP Non-Tech
 "HtCap_fT" = 0   $ Msr (Multi)TechID: MsrNResSplitAC-45to55-S17
 "HtCoolCapRatio" = 0   $ Msr (Multi)TechID: MsrNResSplitAC-45to55-S17
 "HtgEIR" = 0   $ Msr (Multi)TechID: MsrNResSplitAC-45to55-S17
 "IndoorFanMode" = CONTINUOUS   $ IP Non-Tech
 "KT_TransferAir" = No   $ IP Non-Tech
 "Latitude" = 35.7   $ IP Non-Tech
 "LobbyWaiting_EWSF" = 0.5375   $ IP Non-Tech
 "LobbyWaiting_LWSF" = 1.3   $ IP Non-Tech
 "Longitude" = 117.7   $ IP Non-Tech
 "LowSpdCapRatio" = 0.686   $ Msr (Multi)TechID: MsrNResSplitAC-45to55-S17
 "LowSpdCfmRatio" = 0.739   $ Msr (Multi)TechID: MsrNResSplitAC-45to55-S17
 "MZFanMechEff" = 0.58   $ IP Non-Tech
 "MZHasRetFan" = FALSE   $ IP Non-Tech
 "MZ_RFanWPerCfm" = 0.37   $ IP Non-Tech
 "MZ_SFanWPerCfm" = 0.71   $ IP Non-Tech
 "MZ_SupFanStatic" = 2.25   $ IP Non-Tech
 "MaxOAFrac" = 1   $ Msr (Multi)TechID: MsrNResSplitAC-45to55-S17
 "MaxSupT_MZ" = 100   $ IP Non-Tech
 "MaxSupT_SZ" = 100   $ IP Non-Tech
 "MaxSupT_TU" = 90   $ IP Non-Tech
 "MechElecRoom_EWSF" = 0.23   $ IP Non-Tech
 "MechElecRoom_LWSF" = 0.7   $ IP Non-Tech
 "MinCfmPerSF" = 0.4   $ IP Non-Tech
 "MinSupT" = 55   $ IP Non-Tech
 "NumStages" = 2   $ Msr (Multi)TechID: MsrNResSplitAC-45to55-S17
 "OccCoolT" = 76   $ IP Non-Tech
 "OccHeatT" = 72   $ IP Non-Tech
 "OfficeOpen_EWSF" = 1.725   $ IP Non-Tech
 "OfficeOpen_LWSF" = 1.2   $ IP Non-Tech
 "OfficeSmall_EWSF" = 1.725   $ IP Non-Tech
 "OfficeSmall_LWSF" = 1.3   $ IP Non-Tech
 "PkgDxVintEconoFlag" = 0   $ IP Non-Tech
 "Restroom_EWSF" = 0.23   $ IP Non-Tech
 "Restroom_LWSF" = 0.6   $ IP Non-Tech
 "SEER" = 17   $ Msr (Multi)TechID: MsrNResSplitAC-45to55-S17
 "SZFanMechEff" = 0.58   $ IP Non-Tech
 "SZHasRetFan" = FALSE   $ IP Non-Tech
 "SZ_Is_2Spd" = FALSE   $ IP Non-Tech
 "SZ_SFanWPerCfm" = 0.46   $ IP Non-Tech
 "SZ_SupFanStatic" = 0.75   $ IP Non-Tech
 "Sector" = Any   $ Msr (Multi)TechID: MsrNResSplitAC-45to55-S17
 "StorageSmlCond_EWSF" = 0.23   $ IP Non-Tech
 "StorageSmlCond_LWSF" = 0.6   $ IP Non-Tech
 "SubType" = AC   $ Msr (Multi)TechID: MsrNResSplitAC-45to55-S17
 "T24GlzTbl" = CZTbl   $ IP Non-Tech
 "TermUnitFanMechEff" = 1   $ IP Non-Tech
 "TermUnitFanMode" = INTERMITTENT   $ IP Non-Tech
 "TotCoolCap" = 58805   $ Msr (Multi)TechID: MsrNResSplitAC-45to55-S17
 "TwrSetpt" = 90   $ IP Non-Tech
 "UnocCoolT" = 86   $ IP Non-Tech
 "UnocHeatT" = 62   $ IP Non-Tech
 "UseEconoVintApplic" = FALSE   $ Msr (Multi)TechID: MsrNResSplitAC-45to55-S17
 "WlhpVintEconoFlag" = 0   $ IP Non-Tech
 "DuctDT" = 1   $ IP Tech: ComDuctInsul-1
 "DuctAirLoss" = 0   $ IP Tech: ComDuctLeak-0
 "DuctLossOAFrac" = 0   $ IP Tech: ComDuctLeak-0
 "ComRoofInsCalc" = FromUo   $ IP Tech: ComRoofIns-Hvy-0.06
 "ComRoofInsR" = -999   $ IP Tech: ComRoofIns-Hvy-0.06
 "ComRoofUo" = 0.06   $ IP Tech: ComRoofIns-Hvy-0.06
 "ComEWInsCalc" = FromUo   $ IP Tech: ComWallIns-MFrm-0.18
 "ComEWInsR" = -999   $ IP Tech: ComWallIns-MFrm-0.18
 "ComEWUo" = 0.18   $ IP Tech: ComWallIns-MFrm-0.18
 "ComN_SHGC" = 0.82   $ IP Tech: NResWin-ComN-1.23-0.82
 "ComN_UFactor" = 1.23   $ IP Tech: NResWin-ComN-1.23-0.82
 "ComN_VisTrans" = 0.9   $ IP Tech: NResWin-ComN-1.23-0.82
 "ComN_WinCode" = G1000   $ IP Tech: NResWin-ComN-1.23-0.82
 "ComN_WinFrmFrac" = 0.17   $ IP Tech: NResWin-ComN-1.23-0.82
 "ComN_WinFrmU" = 1   $ IP Tech: NResWin-ComN-1.23-0.82
 "ComO_SHGC" = 0.82   $ IP Tech: NResWin-ComO-1.23-0.82
 "ComO_UFactor" = 1.23   $ IP Tech: NResWin-ComO-1.23-0.82
 "ComO_VisTrans" = 0.9   $ IP Tech: NResWin-ComO-1.23-0.82
 "ComO_WinCode" = G1000   $ IP Tech: NResWin-ComO-1.23-0.82
 "ComO_WinFrmFrac" = 0.17   $ IP Tech: NResWin-ComO-1.23-0.82
 "ComO_WinFrmU" = 1   $ IP Tech: NResWin-ComO-1.23-0.82
 "LtgMsrApplic" = ALL   $ IP Tech: NonResLtgRefPre
 "LtgSav_CFL" = 0   $ IP Tech: NonResLtgRefPre
 "LtgSav_EX" = 0   $ IP Tech: NonResLtgRefPre
 "LtgSav_HB" = 0   $ IP Tech: NonResLtgRefPre
 "LtgSav_LF" = 0   $ IP Tech: NonResLtgRefPre
 "LtgSav_SP" = 0   $ IP Tech: NonResLtgRefPre
 "CEIR_fPLR" = PSZ65to135_CEIR_fPLR   $ IP Tech: PkgAC1SpH-65to135-E10
 "CLoss_fPLR" = PSZ65to135_CLoss_fPLR   $ IP Tech: PkgAC1SpH-65to135-E10
 "COP" = -1   $ IP Tech: PkgAC1SpH-65to135-E10
 "HtgFuel" = Gas   $ IP Tech: PkgAC1SpH-65to135-E10
 "IEER" = 11.87   $ IP Tech: PkgAC1SpH-65to135-E10
 "NominalCap" = 15   $ IP Tech: PkgAC1SpH-65to135-E10
 "RatedEER" = 10   $ IP Tech: PkgAC1SpH-65to135-E10
 "RatedSupMtrClass" = HiEff   $ IP Tech: PkgAC1SpH-65to135-E10
 "SizeRange" = 65to135   $ IP Tech: PkgAC1SpH-65to135-E10
 "SupMotEff" = 0.84   $ IP Tech: PkgAC1SpH-65to135-E10
 "Tier" = 0   $ IP Tech: PkgAC1SpH-65to135-E10
 "FanPwrMult" = 1   $ IP Tech: PkgFurn-0.80AFUE
 "FurnAFUE" = 0.8   $ IP Tech: PkgFurn-0.80AFUE
 "FurnEt" = 0.82   $ IP Tech: PkgFurn-0.80AFUE
 "FurnaceAuxKW" = 0.1   $ IP Tech: PkgFurn-0.80AFUE
 "HIR_fPLR" = Furnace-HIR-fPLR   $ IP Tech: PkgFurn-0.80AFUE
 "VSM" = FALSE   $ IP Tech: PkgFurn-0.80AFUE
 "BFMult" = 1   $ IP Tech: RefgChg-NRes-Std
 "CoolEirMult" = 1   $ IP Tech: RefgChg-NRes-Std
 "SensCoolCapMult" = 1   $ IP Tech: RefgChg-NRes-Std
 "TotCoolCapMult" = 1   $ IP Tech: RefgChg-NRes-Std
 "AltAdjFactor" = 1.09733   $ Sizing
 "CAssFlo_L_Break_CZn" = 655.1686   $ Sizing
 "CAssFlo_L_Conf_CZn" = 651.1758   $ Sizing
 "CAssFlo_L_CopyRm_CZn" = 216.0401   $ Sizing
 "CAssFlo_L_Cordr_CZn" = 796.1076   $ Sizing
 "CAssFlo_L_Cordr_EZn" = 369.7371   $ Sizing
 "CAssFlo_L_Cordr_NZn" = 233.0627   $ Sizing
 "CAssFlo_L_Cordr_SZn" = 375.9417   $ Sizing
 "CAssFlo_L_Cordr_WZn" = 414.3956   $ Sizing
 "CAssFlo_L_LobWait_CZn" = 671.0246   $ Sizing
 "CAssFlo_L_MechElec_CZn" = 157.2507   $ Sizing
 "CAssFlo_L_OfficeOpn_CZn" = 2238.644   $ Sizing
 "CAssFlo_L_OfficeOpn_EZn" = 2612.481   $ Sizing
 "CAssFlo_L_OfficeOpn_NZn" = 1667.381   $ Sizing
 "CAssFlo_L_OfficeOpn_SZn" = 2610.154   $ Sizing
 "CAssFlo_L_OfficeOpn_WZn" = 2987.426   $ Sizing
 "CAssFlo_L_OfficeSm_CZn" = 285.4765   $ Sizing
 "CAssFlo_L_OfficeSm_EZn" = 1920.088   $ Sizing
 "CAssFlo_L_OfficeSm_NZn" = 1121.866   $ Sizing
 "CAssFlo_L_OfficeSm_SZn" = 1909.677   $ Sizing
 "CAssFlo_L_OfficeSm_WZn" = 2169.297   $ Sizing
 "CAssFlo_L_Restrm_CZn" = 111.9566   $ Sizing
 "CAssFlo_L_StorSm_CZn" = 470.1938   $ Sizing
 "CAssFlo_M_Break_CZn" = 659.0329   $ Sizing
 "CAssFlo_M_Conf_CZn" = 646.1629   $ Sizing
 "CAssFlo_M_CopyRm_CZn" = 208.8637   $ Sizing
 "CAssFlo_M_Cordr_CZn" = 1083.531   $ Sizing
 "CAssFlo_M_Cordr_EZn" = 408.5945   $ Sizing
 "CAssFlo_M_Cordr_NZn" = 255.0357   $ Sizing
 "CAssFlo_M_Cordr_SZn" = 415.1534   $ Sizing
 "CAssFlo_M_Cordr_WZn" = 443.8341   $ Sizing
 "CAssFlo_M_LobWait_CZn" = 680.8382   $ Sizing
 "CAssFlo_M_MechElec_CZn" = 199.254   $ Sizing
 "CAssFlo_M_OfficeOpn_CZn" = 2254.11   $ Sizing
 "CAssFlo_M_OfficeOpn_EZn" = 2769.585   $ Sizing
 "CAssFlo_M_OfficeOpn_NZn" = 1769.582   $ Sizing
 "CAssFlo_M_OfficeOpn_SZn" = 2808.643   $ Sizing
 "CAssFlo_M_OfficeOpn_WZn" = 3075   $ Sizing
 "CAssFlo_M_OfficeSm_CZn" = 328.4052   $ Sizing
 "CAssFlo_M_OfficeSm_EZn" = 2008.375   $ Sizing
 "CAssFlo_M_OfficeSm_NZn" = 1181.493   $ Sizing
 "CAssFlo_M_OfficeSm_SZn" = 2037.106   $ Sizing
 "CAssFlo_M_OfficeSm_WZn" = 2257.84   $ Sizing
 "CAssFlo_M_Restrm_CZn" = 131.385   $ Sizing
 "CAssFlo_M_StorSm_CZn" = 521.2789   $ Sizing
 "CAssFlo_T_Break_CZn" = 653.5531   $ Sizing
 "CAssFlo_T_Conf_CZn" = 641.1232   $ Sizing
 "CAssFlo_T_CopyRm_CZn" = 208.0189   $ Sizing
 "CAssFlo_T_Cordr_CZn" = 1040.677   $ Sizing
 "CAssFlo_T_Cordr_EZn" = 404.1053   $ Sizing
 "CAssFlo_T_Cordr_NZn" = 258.8662   $ Sizing
 "CAssFlo_T_Cordr_SZn" = 413.9105   $ Sizing
 "CAssFlo_T_Cordr_WZn" = 445.5468   $ Sizing
 "CAssFlo_T_LobWait_CZn" = 676.355   $ Sizing
 "CAssFlo_T_MechElec_CZn" = 231.2447   $ Sizing
 "CAssFlo_T_OfficeOpn_CZn" = 2334.563   $ Sizing
 "CAssFlo_T_OfficeOpn_EZn" = 2730.108   $ Sizing
 "CAssFlo_T_OfficeOpn_NZn" = 1811.354   $ Sizing
 "CAssFlo_T_OfficeOpn_SZn" = 2829.744   $ Sizing
 "CAssFlo_T_OfficeOpn_WZn" = 3046.97   $ Sizing
 "CAssFlo_T_OfficeSm_CZn" = 309.5173   $ Sizing
 "CAssFlo_T_OfficeSm_EZn" = 2035.345   $ Sizing
 "CAssFlo_T_OfficeSm_NZn" = 1220.011   $ Sizing
 "CAssFlo_T_OfficeSm_SZn" = 2078.497   $ Sizing
 "CAssFlo_T_OfficeSm_WZn" = 2285.183   $ Sizing
 "CAssFlo_T_Restrm_CZn" = 181.0457   $ Sizing
 "CAssFlo_T_StorSm_CZn" = 375.2526   $ Sizing
 "CHRtFlo_Sys_L_Break_C" = 655.1686   $ Sizing
 "CHRtFlo_Sys_L_Conf_C" = 651.1758   $ Sizing
 "CHRtFlo_Sys_L_CopyRm_C" = 216.0401   $ Sizing
 "CHRtFlo_Sys_L_Cordr_C" = 796.1076   $ Sizing
 "CHRtFlo_Sys_L_Cordr_E" = 409.0479   $ Sizing
 "CHRtFlo_Sys_L_Cordr_N" = 233.0626   $ Sizing
 "CHRtFlo_Sys_L_Cordr_S" = 407.0979   $ Sizing
 "CHRtFlo_Sys_L_Cordr_W" = 417.067   $ Sizing
 "CHRtFlo_Sys_L_LobWait_C" = 671.0246   $ Sizing
 "CHRtFlo_Sys_L_MechElec_C" = 166.3732   $ Sizing
 "CHRtFlo_Sys_L_OfficeOpn_C" = 2238.644   $ Sizing
 "CHRtFlo_Sys_L_OfficeOpn_E" = 2990.019   $ Sizing
 "CHRtFlo_Sys_L_OfficeOpn_N" = 1667.381   $ Sizing
 "CHRtFlo_Sys_L_OfficeOpn_S" = 2952.923   $ Sizing
 "CHRtFlo_Sys_L_OfficeOpn_W" = 3102.343   $ Sizing
 "CHRtFlo_Sys_L_OfficeSm_C" = 286.3526   $ Sizing
 "CHRtFlo_Sys_L_OfficeSm_E" = 2236.609   $ Sizing
 "CHRtFlo_Sys_L_OfficeSm_N" = 1121.866   $ Sizing
 "CHRtFlo_Sys_L_OfficeSm_S" = 2231.386   $ Sizing
 "CHRtFlo_Sys_L_OfficeSm_W" = 2318.386   $ Sizing
 "CHRtFlo_Sys_L_Restrm_C" = 230.7435   $ Sizing
 "CHRtFlo_Sys_L_StorSm_C" = 488.9199   $ Sizing
 "CHRtFlo_Sys_M_Break_C" = 5272.263   $ Sizing
 "CHRtFlo_Sys_M_Conf_C" = 5169.303   $ Sizing
 "CHRtFlo_Sys_M_CopyRm_C" = 1670.91   $ Sizing
 "CHRtFlo_Sys_M_Cordr_C" = 9285.143   $ Sizing
 "CHRtFlo_Sys_M_Cordr_E" = 3687.78   $ Sizing
 "CHRtFlo_Sys_M_Cordr_N" = 2040.285   $ Sizing
 "CHRtFlo_Sys_M_Cordr_S" = 3687.333   $ Sizing
 "CHRtFlo_Sys_M_Cordr_W" = 3645.654   $ Sizing
 "CHRtFlo_Sys_M_LobWait_C" = 5446.706   $ Sizing
 "CHRtFlo_Sys_M_MechElec_C" = 1777.761   $ Sizing
 "CHRtFlo_Sys_M_OfficeOpn_C" = 19349.6   $ Sizing
 "CHRtFlo_Sys_M_OfficeOpn_E" = 25475.09   $ Sizing
 "CHRtFlo_Sys_M_OfficeOpn_N" = 14156.66   $ Sizing
 "CHRtFlo_Sys_M_OfficeOpn_S" = 25668.98   $ Sizing
 "CHRtFlo_Sys_M_OfficeOpn_W" = 25824.73   $ Sizing
 "CHRtFlo_Sys_M_OfficeSm_C" = 2954.709   $ Sizing
 "CHRtFlo_Sys_M_OfficeSm_E" = 18824.64   $ Sizing
 "CHRtFlo_Sys_M_OfficeSm_N" = 9451.945   $ Sizing
 "CHRtFlo_Sys_M_OfficeSm_S" = 19211.19   $ Sizing
 "CHRtFlo_Sys_M_OfficeSm_W" = 19500.22   $ Sizing
 "CHRtFlo_Sys_M_Restrm_C" = 1845.948   $ Sizing
 "CHRtFlo_Sys_M_StorSm_C" = 4550.964   $ Sizing
 "CHRtFlo_Sys_T_Break_C" = 653.5531   $ Sizing
 "CHRtFlo_Sys_T_Conf_C" = 641.1232   $ Sizing
 "CHRtFlo_Sys_T_CopyRm_C" = 208.0189   $ Sizing
 "CHRtFlo_Sys_T_Cordr_C" = 1040.677   $ Sizing
 "CHRtFlo_Sys_T_Cordr_E" = 404.324   $ Sizing
 "CHRtFlo_Sys_T_Cordr_N" = 258.8662   $ Sizing
 "CHRtFlo_Sys_T_Cordr_S" = 413.9105   $ Sizing
 "CHRtFlo_Sys_T_Cordr_W" = 445.5468   $ Sizing
 "CHRtFlo_Sys_T_LobWait_C" = 676.355   $ Sizing
 "CHRtFlo_Sys_T_MechElec_C" = 271.7155   $ Sizing
 "CHRtFlo_Sys_T_OfficeOpn_C" = 2334.563   $ Sizing
 "CHRtFlo_Sys_T_OfficeOpn_E" = 2859.228   $ Sizing
 "CHRtFlo_Sys_T_OfficeOpn_N" = 1811.354   $ Sizing
 "CHRtFlo_Sys_T_OfficeOpn_S" = 2962.649   $ Sizing
 "CHRtFlo_Sys_T_OfficeOpn_W" = 3046.97   $ Sizing
 "CHRtFlo_Sys_T_OfficeSm_C" = 314.3698   $ Sizing
 "CHRtFlo_Sys_T_OfficeSm_E" = 2190.516   $ Sizing
 "CHRtFlo_Sys_T_OfficeSm_N" = 1220.011   $ Sizing
 "CHRtFlo_Sys_T_OfficeSm_S" = 2276.071   $ Sizing
 "CHRtFlo_Sys_T_OfficeSm_W" = 2295.806   $ Sizing
 "CHRtFlo_Sys_T_Restrm_C" = 230.7435   $ Sizing
 "CHRtFlo_Sys_T_StorSm_C" = 375.2526   $ Sizing
 "CRtdFlo_Sys_L_Break_C" = 655.1686   $ Sizing
 "CRtdFlo_Sys_L_Conf_C" = 651.1758   $ Sizing
 "CRtdFlo_Sys_L_CopyRm_C" = 216.0401   $ Sizing
 "CRtdFlo_Sys_L_Cordr_C" = 796.1076   $ Sizing
 "CRtdFlo_Sys_L_Cordr_E" = 369.7371   $ Sizing
 "CRtdFlo_Sys_L_Cordr_N" = 233.0626   $ Sizing
 "CRtdFlo_Sys_L_Cordr_S" = 375.9417   $ Sizing
 "CRtdFlo_Sys_L_Cordr_W" = 414.3956   $ Sizing
 "CRtdFlo_Sys_L_LobWait_C" = 671.0246   $ Sizing
 "CRtdFlo_Sys_L_MechElec_C" = 157.2507   $ Sizing
 "CRtdFlo_Sys_L_OfficeOpn_C" = 2238.644   $ Sizing
 "CRtdFlo_Sys_L_OfficeOpn_E" = 2612.481   $ Sizing
 "CRtdFlo_Sys_L_OfficeOpn_N" = 1667.381   $ Sizing
 "CRtdFlo_Sys_L_OfficeOpn_S" = 2610.154   $ Sizing
 "CRtdFlo_Sys_L_OfficeOpn_W" = 2987.426   $ Sizing
 "CRtdFlo_Sys_L_OfficeSm_C" = 285.4765   $ Sizing
 "CRtdFlo_Sys_L_OfficeSm_E" = 1920.088   $ Sizing
 "CRtdFlo_Sys_L_OfficeSm_N" = 1121.866   $ Sizing
 "CRtdFlo_Sys_L_OfficeSm_S" = 1909.677   $ Sizing
 "CRtdFlo_Sys_L_OfficeSm_W" = 2169.297   $ Sizing
 "CRtdFlo_Sys_L_Restrm_C" = 111.9566   $ Sizing
 "CRtdFlo_Sys_L_StorSm_C" = 470.1938   $ Sizing
 "CRtdFlo_Sys_M_Break_C" = 5272.263   $ Sizing
 "CRtdFlo_Sys_M_Conf_C" = 5169.303   $ Sizing
 "CRtdFlo_Sys_M_CopyRm_C" = 1670.91   $ Sizing
 "CRtdFlo_Sys_M_Cordr_C" = 8668.252   $ Sizing
 "CRtdFlo_Sys_M_Cordr_E" = 3268.756   $ Sizing
 "CRtdFlo_Sys_M_Cordr_N" = 2040.285   $ Sizing
 "CRtdFlo_Sys_M_Cordr_S" = 3321.228   $ Sizing
 "CRtdFlo_Sys_M_Cordr_W" = 3550.673   $ Sizing
 "CRtdFlo_Sys_M_LobWait_C" = 5446.706   $ Sizing
 "CRtdFlo_Sys_M_MechElec_C" = 1594.032   $ Sizing
 "CRtdFlo_Sys_M_OfficeOpn_C" = 18032.88   $ Sizing
 "CRtdFlo_Sys_M_OfficeOpn_E" = 22156.68   $ Sizing
 "CRtdFlo_Sys_M_OfficeOpn_N" = 14156.66   $ Sizing
 "CRtdFlo_Sys_M_OfficeOpn_S" = 22469.14   $ Sizing
 "CRtdFlo_Sys_M_OfficeOpn_W" = 24600   $ Sizing
 "CRtdFlo_Sys_M_OfficeSm_C" = 2627.241   $ Sizing
 "CRtdFlo_Sys_M_OfficeSm_E" = 16067   $ Sizing
 "CRtdFlo_Sys_M_OfficeSm_N" = 9451.945   $ Sizing
 "CRtdFlo_Sys_M_OfficeSm_S" = 16296.85   $ Sizing
 "CRtdFlo_Sys_M_OfficeSm_W" = 18062.72   $ Sizing
 "CRtdFlo_Sys_M_Restrm_C" = 1051.08   $ Sizing
 "CRtdFlo_Sys_M_StorSm_C" = 4170.231   $ Sizing
 "CRtdFlo_Sys_T_Break_C" = 653.5531   $ Sizing
 "CRtdFlo_Sys_T_Conf_C" = 641.1232   $ Sizing
 "CRtdFlo_Sys_T_CopyRm_C" = 208.0189   $ Sizing
 "CRtdFlo_Sys_T_Cordr_C" = 1040.677   $ Sizing
 "CRtdFlo_Sys_T_Cordr_E" = 404.324   $ Sizing
 "CRtdFlo_Sys_T_Cordr_N" = 258.8662   $ Sizing
 "CRtdFlo_Sys_T_Cordr_S" = 413.9105   $ Sizing
 "CRtdFlo_Sys_T_Cordr_W" = 445.5468   $ Sizing
 "CRtdFlo_Sys_T_LobWait_C" = 676.355   $ Sizing
 "CRtdFlo_Sys_T_MechElec_C" = 231.2447   $ Sizing
 "CRtdFlo_Sys_T_OfficeOpn_C" = 2334.563   $ Sizing
 "CRtdFlo_Sys_T_OfficeOpn_E" = 2730.108   $ Sizing
 "CRtdFlo_Sys_T_OfficeOpn_N" = 1811.354   $ Sizing
 "CRtdFlo_Sys_T_OfficeOpn_S" = 2829.744   $ Sizing
 "CRtdFlo_Sys_T_OfficeOpn_W" = 3046.97   $ Sizing
 "CRtdFlo_Sys_T_OfficeSm_C" = 309.5173   $ Sizing
 "CRtdFlo_Sys_T_OfficeSm_E" = 2035.345   $ Sizing
 "CRtdFlo_Sys_T_OfficeSm_N" = 1220.011   $ Sizing
 "CRtdFlo_Sys_T_OfficeSm_S" = 2078.497   $ Sizing
 "CRtdFlo_Sys_T_OfficeSm_W" = 2285.183   $ Sizing
 "CRtdFlo_Sys_T_Restrm_C" = 181.0457   $ Sizing
 "CRtdFlo_Sys_T_StorSm_C" = 375.2526   $ Sizing
 "CSupFlo_Sys_L_Break_C" = 655.1686   $ Sizing
 "CSupFlo_Sys_L_Conf_C" = 651.1758   $ Sizing
 "CSupFlo_Sys_L_CopyRm_C" = 216.0401   $ Sizing
 "CSupFlo_Sys_L_Cordr_C" = 796.1076   $ Sizing
 "CSupFlo_Sys_L_Cordr_E" = 369.7371   $ Sizing
 "CSupFlo_Sys_L_Cordr_N" = 233.0626   $ Sizing
 "CSupFlo_Sys_L_Cordr_S" = 375.9417   $ Sizing
 "CSupFlo_Sys_L_Cordr_W" = 414.3956   $ Sizing
 "CSupFlo_Sys_L_LobWait_C" = 671.0246   $ Sizing
 "CSupFlo_Sys_L_MechElec_C" = 157.2507   $ Sizing
 "CSupFlo_Sys_L_OfficeOpn_C" = 2238.644   $ Sizing
 "CSupFlo_Sys_L_OfficeOpn_E" = 2612.481   $ Sizing
 "CSupFlo_Sys_L_OfficeOpn_N" = 1667.381   $ Sizing
 "CSupFlo_Sys_L_OfficeOpn_S" = 2610.154   $ Sizing
 "CSupFlo_Sys_L_OfficeOpn_W" = 2987.426   $ Sizing
 "CSupFlo_Sys_L_OfficeSm_C" = 285.4765   $ Sizing
 "CSupFlo_Sys_L_OfficeSm_E" = 1920.088   $ Sizing
 "CSupFlo_Sys_L_OfficeSm_N" = 1121.866   $ Sizing
 "CSupFlo_Sys_L_OfficeSm_S" = 1909.677   $ Sizing
 "CSupFlo_Sys_L_OfficeSm_W" = 2169.297   $ Sizing
 "CSupFlo_Sys_L_Restrm_C" = 111.9566   $ Sizing
 "CSupFlo_Sys_L_StorSm_C" = 470.1938   $ Sizing
 "CSupFlo_Sys_M_Break_C" = 5272.263   $ Sizing
 "CSupFlo_Sys_M_Conf_C" = 5169.303   $ Sizing
 "CSupFlo_Sys_M_CopyRm_C" = 1670.91   $ Sizing
 "CSupFlo_Sys_M_Cordr_C" = 8668.252   $ Sizing
 "CSupFlo_Sys_M_Cordr_E" = 3268.756   $ Sizing
 "CSupFlo_Sys_M_Cordr_N" = 2040.285   $ Sizing
 "CSupFlo_Sys_M_Cordr_S" = 3321.228   $ Sizing
 "CSupFlo_Sys_M_Cordr_W" = 3550.673   $ Sizing
 "CSupFlo_Sys_M_LobWait_C" = 5446.706   $ Sizing
 "CSupFlo_Sys_M_MechElec_C" = 1594.032   $ Sizing
 "CSupFlo_Sys_M_OfficeOpn_C" = 18032.88   $ Sizing
 "CSupFlo_Sys_M_OfficeOpn_E" = 22156.68   $ Sizing
 "CSupFlo_Sys_M_OfficeOpn_N" = 14156.66   $ Sizing
 "CSupFlo_Sys_M_OfficeOpn_S" = 22469.14   $ Sizing
 "CSupFlo_Sys_M_OfficeOpn_W" = 24600   $ Sizing
 "CSupFlo_Sys_M_OfficeSm_C" = 2627.241   $ Sizing
 "CSupFlo_Sys_M_OfficeSm_E" = 16067   $ Sizing
 "CSupFlo_Sys_M_OfficeSm_N" = 9451.945   $ Sizing
 "CSupFlo_Sys_M_OfficeSm_S" = 16296.85   $ Sizing
 "CSupFlo_Sys_M_OfficeSm_W" = 18062.72   $ Sizing
 "CSupFlo_Sys_M_Restrm_C" = 1051.08   $ Sizing
 "CSupFlo_Sys_M_StorSm_C" = 4170.231   $ Sizing
 "CSupFlo_Sys_T_Break_C" = 653.5531   $ Sizing
 "CSupFlo_Sys_T_Conf_C" = 641.1232   $ Sizing
 "CSupFlo_Sys_T_CopyRm_C" = 208.0189   $ Sizing
 "CSupFlo_Sys_T_Cordr_C" = 1040.677   $ Sizing
 "CSupFlo_Sys_T_Cordr_E" = 404.324   $ Sizing
 "CSupFlo_Sys_T_Cordr_N" = 258.8662   $ Sizing
 "CSupFlo_Sys_T_Cordr_S" = 413.9105   $ Sizing
 "CSupFlo_Sys_T_Cordr_W" = 445.5468   $ Sizing
 "CSupFlo_Sys_T_LobWait_C" = 676.355   $ Sizing
 "CSupFlo_Sys_T_MechElec_C" = 231.2447   $ Sizing
 "CSupFlo_Sys_T_OfficeOpn_C" = 2334.563   $ Sizing
 "CSupFlo_Sys_T_OfficeOpn_E" = 2730.108   $ Sizing
 "CSupFlo_Sys_T_OfficeOpn_N" = 1811.354   $ Sizing
 "CSupFlo_Sys_T_OfficeOpn_S" = 2829.744   $ Sizing
 "CSupFlo_Sys_T_OfficeOpn_W" = 3046.97   $ Sizing
 "CSupFlo_Sys_T_OfficeSm_C" = 309.5173   $ Sizing
 "CSupFlo_Sys_T_OfficeSm_E" = 2035.345   $ Sizing
 "CSupFlo_Sys_T_OfficeSm_N" = 1220.011   $ Sizing
 "CSupFlo_Sys_T_OfficeSm_S" = 2078.497   $ Sizing
 "CSupFlo_Sys_T_OfficeSm_W" = 2285.183   $ Sizing
 "CSupFlo_Sys_T_Restrm_C" = 181.0457   $ Sizing
 "CSupFlo_Sys_T_StorSm_C" = 375.2526   $ Sizing
 "ClCap_Sys_L_Break_C" = 20470.53   $ Sizing
 "ClCap_Sys_L_Conf_C" = 25894.62   $ Sizing
 "ClCap_Sys_L_CopyRm_C" = 6750.101   $ Sizing
 "ClCap_Sys_L_Cordr_C" = 24874.12   $ Sizing
 "ClCap_Sys_L_Cordr_E" = 11552.32   $ Sizing
 "ClCap_Sys_L_Cordr_N" = 7281.966   $ Sizing
 "ClCap_Sys_L_Cordr_S" = 11746.18   $ Sizing
 "ClCap_Sys_L_Cordr_W" = 12947.66   $ Sizing
 "ClCap_Sys_L_LobWait_C" = 20965.95   $ Sizing
 "ClCap_Sys_L_MechElec_C" = 4913.246   $ Sizing
 "ClCap_Sys_L_OfficeOpn_C" = 69945.71   $ Sizing
 "ClCap_Sys_L_OfficeOpn_E" = 81626.13   $ Sizing
 "ClCap_Sys_L_OfficeOpn_N" = 52096.77   $ Sizing
 "ClCap_Sys_L_OfficeOpn_S" = 81553.42   $ Sizing
 "ClCap_Sys_L_OfficeOpn_W" = 93341.13   $ Sizing
 "ClCap_Sys_L_OfficeSm_C" = 8919.621   $ Sizing
 "ClCap_Sys_L_OfficeSm_E" = 59992.51   $ Sizing
 "ClCap_Sys_L_OfficeSm_N" = 35052.34   $ Sizing
 "ClCap_Sys_L_OfficeSm_S" = 59667.23   $ Sizing
 "ClCap_Sys_L_OfficeSm_W" = 67778.98   $ Sizing
 "ClCap_Sys_L_Restrm_C" = 3498.048   $ Sizing
 "ClCap_Sys_L_StorSm_C" = 14691.05   $ Sizing
 "ClCap_Sys_M_Break_C" = 164730.1   $ Sizing
 "ClCap_Sys_M_Conf_C" = 205562.2   $ Sizing
 "ClCap_Sys_M_CopyRm_C" = 52207.03   $ Sizing
 "ClCap_Sys_M_Cordr_C" = 270836.7   $ Sizing
 "ClCap_Sys_M_Cordr_E" = 102131.2   $ Sizing
 "ClCap_Sys_M_Cordr_N" = 63748.05   $ Sizing
 "ClCap_Sys_M_Cordr_S" = 103770.7   $ Sizing
 "ClCap_Sys_M_Cordr_W" = 110939.6   $ Sizing
 "ClCap_Sys_M_LobWait_C" = 170180.5   $ Sizing
 "ClCap_Sys_M_MechElec_C" = 49805.01   $ Sizing
 "ClCap_Sys_M_OfficeOpn_C" = 563431.5   $ Sizing
 "ClCap_Sys_M_OfficeOpn_E" = 692278.2   $ Sizing
 "ClCap_Sys_M_OfficeOpn_N" = 442320.2   $ Sizing
 "ClCap_Sys_M_OfficeOpn_S" = 702041.1   $ Sizing
 "ClCap_Sys_M_OfficeOpn_W" = 768619.1   $ Sizing
 "ClCap_Sys_M_OfficeSm_C" = 82087.3   $ Sizing
 "ClCap_Sys_M_OfficeSm_E" = 502008.2   $ Sizing
 "ClCap_Sys_M_OfficeSm_N" = 295322.9   $ Sizing
 "ClCap_Sys_M_OfficeSm_S" = 509189.8   $ Sizing
 "ClCap_Sys_M_OfficeSm_W" = 564363.8   $ Sizing
 "ClCap_Sys_M_Restrm_C" = 32840.64   $ Sizing
 "ClCap_Sys_M_StorSm_C" = 130297.5   $ Sizing
 "ClCap_Sys_T_Break_C" = 20420.05   $ Sizing
 "ClCap_Sys_T_Conf_C" = 25494.87   $ Sizing
 "ClCap_Sys_T_CopyRm_C" = 6499.481   $ Sizing
 "ClCap_Sys_T_Cordr_C" = 32515.62   $ Sizing
 "ClCap_Sys_T_Cordr_E" = 12632.97   $ Sizing
 "ClCap_Sys_T_Cordr_N" = 8088.19   $ Sizing
 "ClCap_Sys_T_Cordr_S" = 12932.5   $ Sizing
 "ClCap_Sys_T_Cordr_W" = 13920.96   $ Sizing
 "ClCap_Sys_T_LobWait_C" = 21132.49   $ Sizing
 "ClCap_Sys_T_MechElec_C" = 7225.165   $ Sizing
 "ClCap_Sys_T_OfficeOpn_C" = 72942.67   $ Sizing
 "ClCap_Sys_T_OfficeOpn_E" = 85301.33   $ Sizing
 "ClCap_Sys_T_OfficeOpn_N" = 56595.18   $ Sizing
 "ClCap_Sys_T_OfficeOpn_S" = 88414.41   $ Sizing
 "ClCap_Sys_T_OfficeOpn_W" = 95201.59   $ Sizing
 "ClCap_Sys_T_OfficeSm_C" = 9670.768   $ Sizing
 "ClCap_Sys_T_OfficeSm_E" = 63593.68   $ Sizing
 "ClCap_Sys_T_OfficeSm_N" = 38118.83   $ Sizing
 "ClCap_Sys_T_OfficeSm_S" = 64941.95   $ Sizing
 "ClCap_Sys_T_OfficeSm_W" = 71399.79   $ Sizing
 "ClCap_Sys_T_Restrm_C" = 5656.713   $ Sizing
 "ClCap_Sys_T_StorSm_C" = 11724.64   $ Sizing
 "HtCap_Sys_L_Break_C" = -35597.5   $ Sizing
 "HtCap_Sys_L_Conf_C" = -36033.74   $ Sizing
 "HtCap_Sys_L_CopyRm_C" = -13440.2   $ Sizing
 "HtCap_Sys_L_Cordr_C" = -33381.18   $ Sizing
 "HtCap_Sys_L_Cordr_E" = -12849.53   $ Sizing
 "HtCap_Sys_L_Cordr_N" = -8709.836   $ Sizing
 "HtCap_Sys_L_Cordr_S" = -12869.63   $ Sizing
 "HtCap_Sys_L_Cordr_W" = -13395.98   $ Sizing
 "HtCap_Sys_L_LobWait_C" = -34406.81   $ Sizing
 "HtCap_Sys_L_MechElec_C" = -7004.928   $ Sizing
 "HtCap_Sys_L_OfficeOpn_C" = -84654.72   $ Sizing
 "HtCap_Sys_L_OfficeOpn_E" = -92826.32   $ Sizing
 "HtCap_Sys_L_OfficeOpn_N" = -58238.73   $ Sizing
 "HtCap_Sys_L_OfficeOpn_S" = -89274.96   $ Sizing
 "HtCap_Sys_L_OfficeOpn_W" = -95569.53   $ Sizing
 "HtCap_Sys_L_OfficeSm_C" = -10767.46   $ Sizing
 "HtCap_Sys_L_OfficeSm_E" = -70437.48   $ Sizing
 "HtCap_Sys_L_OfficeSm_N" = -38658.29   $ Sizing
 "HtCap_Sys_L_OfficeSm_S" = -69135.47   $ Sizing
 "HtCap_Sys_L_OfficeSm_W" = -72843.54   $ Sizing
 "HtCap_Sys_L_Restrm_C" = -7894.978   $ Sizing
 "HtCap_Sys_L_StorSm_C" = -20244.58   $ Sizing
 "HtCap_Sys_M_Break_C" = -271577.7   $ Sizing
 "HtCap_Sys_M_Conf_C" = -266511   $ Sizing
 "HtCap_Sys_M_CopyRm_C" = -92501.6   $ Sizing
 "HtCap_Sys_M_Cordr_C" = -340859.9   $ Sizing
 "HtCap_Sys_M_Cordr_E" = -114919.9   $ Sizing
 "HtCap_Sys_M_Cordr_N" = -73654.72   $ Sizing
 "HtCap_Sys_M_Cordr_S" = -113770.8   $ Sizing
 "HtCap_Sys_M_Cordr_W" = -115031.8   $ Sizing
 "HtCap_Sys_M_LobWait_C" = -246034.4   $ Sizing
 "HtCap_Sys_M_MechElec_C" = -67485.63   $ Sizing
 "HtCap_Sys_M_OfficeOpn_C" = -695155.9   $ Sizing
 "HtCap_Sys_M_OfficeOpn_E" = -786656.3   $ Sizing
 "HtCap_Sys_M_OfficeOpn_N" = -484569.1   $ Sizing
 "HtCap_Sys_M_OfficeOpn_S" = -776293.4   $ Sizing
 "HtCap_Sys_M_OfficeOpn_W" = -788488.3   $ Sizing
 "HtCap_Sys_M_OfficeSm_C" = -104041.5   $ Sizing
 "HtCap_Sys_M_OfficeSm_E" = -589308.7   $ Sizing
 "HtCap_Sys_M_OfficeSm_N" = -320353.1   $ Sizing
 "HtCap_Sys_M_OfficeSm_S" = -592288.3   $ Sizing
 "HtCap_Sys_M_OfficeSm_W" = -609611.1   $ Sizing
 "HtCap_Sys_M_Restrm_C" = -68330.95   $ Sizing
 "HtCap_Sys_M_StorSm_C" = -171822.6   $ Sizing
 "HtCap_Sys_T_Break_C" = -36852.46   $ Sizing
 "HtCap_Sys_T_Conf_C" = -36006.93   $ Sizing
 "HtCap_Sys_T_CopyRm_C" = -12568.53   $ Sizing
 "HtCap_Sys_T_Cordr_C" = -45299.61   $ Sizing
 "HtCap_Sys_T_Cordr_E" = -14990.47   $ Sizing
 "HtCap_Sys_T_Cordr_N" = -10901.88   $ Sizing
 "HtCap_Sys_T_Cordr_S" = -15228.85   $ Sizing
 "HtCap_Sys_T_Cordr_W" = -16515.88   $ Sizing
 "HtCap_Sys_T_LobWait_C" = -34851.26   $ Sizing
 "HtCap_Sys_T_MechElec_C" = -9706.383   $ Sizing
 "HtCap_Sys_T_OfficeOpn_C" = -98496.12   $ Sizing
 "HtCap_Sys_T_OfficeOpn_E" = -100417.5   $ Sizing
 "HtCap_Sys_T_OfficeOpn_N" = -72028.4   $ Sizing
 "HtCap_Sys_T_OfficeOpn_S" = -103061.9   $ Sizing
 "HtCap_Sys_T_OfficeOpn_W" = -106263.7   $ Sizing
 "HtCap_Sys_T_OfficeSm_C" = -12796.74   $ Sizing
 "HtCap_Sys_T_OfficeSm_E" = -77133.18   $ Sizing
 "HtCap_Sys_T_OfficeSm_N" = -47283.06   $ Sizing
 "HtCap_Sys_T_OfficeSm_S" = -78644.51   $ Sizing
 "HtCap_Sys_T_OfficeSm_W" = -80348.02   $ Sizing
 "HtCap_Sys_T_Restrm_C" = -9255.321   $ Sizing
 "HtCap_Sys_T_StorSm_C" = -19277.2   $ Sizing
..

##include Templates\OfL_DX_SZ.inp
END ..
COMPUTE ..
STOP ..
