INPUT ..

##fileprefix C:\Users\jglasskatz\MASControl3\
##set1 IsSizing FALSE
##set1 CoolType DX
##set1 HeatType ELECTRIC
##set1 EU_HrRepVar 1
##set1 BldgVint 2003
##set1 BldgLoc CZ01

 ##set1 mBFMult 1   $ IP Tech: RefgChg-NRes-Std

PARAMETER
 "AltFactor" = 1.00753   $ IP Non-Tech
 "BldgEconoFlag" = 1   $ IP Non-Tech
 "Break_EWSF" = 1   $ IP Non-Tech
 "Break_LWSF" = 1.1   $ IP Non-Tech
 "CDD_DBHi10" = 65   $ IP Non-Tech
 "CDD_DBHi7" = 68   $ IP Non-Tech
 "CDD_DBHi8" = 66   $ IP Non-Tech
 "CDD_DBHi9" = 77   $ IP Non-Tech
 "CDD_DBRange10" = 17   $ IP Non-Tech
 "CDD_DBRange7" = 11   $ IP Non-Tech
 "CDD_DBRange8" = 10   $ IP Non-Tech
 "CDD_DBRange9" = 29   $ IP Non-Tech
 "CDD_Day10" = 15   $ IP Non-Tech
 "CDD_Day7" = 16   $ IP Non-Tech
 "CDD_Day8" = 20   $ IP Non-Tech
 "CDD_Day9" = 17   $ IP Non-Tech
 "CDD_HrHi10" = 12   $ IP Non-Tech
 "CDD_HrHi7" = 12   $ IP Non-Tech
 "CDD_HrHi8" = 13   $ IP Non-Tech
 "CDD_HrHi9" = 17   $ IP Non-Tech
 "CDD_HrLo10" = 6   $ IP Non-Tech
 "CDD_HrLo7" = 3   $ IP Non-Tech
 "CDD_HrLo8" = 8   $ IP Non-Tech
 "CDD_HrLo9" = 4   $ IP Non-Tech
 "CDD_WB10" = 57.53039551   $ IP Non-Tech
 "CDD_WB7" = 59.29250717   $ IP Non-Tech
 "CDD_WB8" = 60.75350189   $ IP Non-Tech
 "CDD_WB9" = 61.08643341   $ IP Non-Tech
 "CZ_Category" = Tem   $ IP Non-Tech
 "ChwVintEconoFlag" = 1   $ IP Non-Tech
 "Conference_EWSF" = 1   $ IP Non-Tech
 "Conference_LWSF" = 1.4   $ IP Non-Tech
 "CoolSetT" = 45   $ IP Non-Tech
 "CoolType" = DX   $ IP Non-Tech
 "CopyRoom_EWSF" = 1.5   $ IP Non-Tech
 "CopyRoom_LWSF" = 1.3   $ IP Non-Tech
 "CorridorStairway_EWSF" = 0.2   $ IP Non-Tech
 "CorridorStairway_LWSF" = 0.6   $ IP Non-Tech
 "DesCoolT" = 75   $ IP Non-Tech
 "DesHeatT" = 73   $ IP Non-Tech
 "EconoEnthLimit" = 28   $ IP Non-Tech
 "EconoTempLimit" = 70   $ IP Non-Tech
 "Elevation" = 203   $ IP Non-Tech
 "HDD_CloudAmt1" = 0   $ IP Non-Tech
 "HDD_DBHi1" = 53   $ IP Non-Tech
 "HDD_DBRange1" = 20   $ IP Non-Tech
 "HDD_Day1" = 15   $ IP Non-Tech
 "HDD_HrHi1" = 14   $ IP Non-Tech
 "HDD_HrLo1" = 6   $ IP Non-Tech
 "HDD_WB1" = 42.3   $ IP Non-Tech
 "HDD_WindSpd1" = 12.7   $ IP Non-Tech
 "HeatSrc" = ELECTRIC   $ IP Non-Tech
 "HeatSrcTU" = HEAT-PUMP   $ IP Non-Tech
 "HeatType" = Elec   $ IP Non-Tech
 "HeatTypeTU" = HEAT-PUMP   $ IP Non-Tech
 "IndoorFanMode" = CONTINUOUS   $ IP Non-Tech
 "KT_TransferAir" = No   $ IP Non-Tech
 "Latitude" = 40.8   $ IP Non-Tech
 "LobbyWaiting_EWSF" = 0.5   $ IP Non-Tech
 "LobbyWaiting_LWSF" = 1.3   $ IP Non-Tech
 "Longitude" = 124.2   $ IP Non-Tech
 "LtgMsrApplic" = ALL   $ Msr TechID: NonResLtgRefMsr-LF
 "LtgSav_CFL" = 0   $ Msr TechID: NonResLtgRefMsr-LF
 "LtgSav_EX" = 0   $ Msr TechID: NonResLtgRefMsr-LF
 "LtgSav_HB" = 0   $ Msr TechID: NonResLtgRefMsr-LF
 "LtgSav_LF" = 0.3   $ Msr TechID: NonResLtgRefMsr-LF
 "LtgSav_SP" = 0   $ Msr TechID: NonResLtgRefMsr-LF
 "MZFanMechEff" = 0.58   $ IP Non-Tech
 "MZHasRetFan" = FALSE   $ IP Non-Tech
 "MZ_RFanWPerCfm" = 0.37   $ IP Non-Tech
 "MZ_SFanWPerCfm" = 0.71   $ IP Non-Tech
 "MZ_SupFanStatic" = 2.25   $ IP Non-Tech
 "MaxSupT_MZ" = 100   $ IP Non-Tech
 "MaxSupT_SZ" = 100   $ IP Non-Tech
 "MaxSupT_TU" = 90   $ IP Non-Tech
 "MechElecRoom_EWSF" = 0.2   $ IP Non-Tech
 "MechElecRoom_LWSF" = 0.7   $ IP Non-Tech
 "MinCfmPerSF" = 0.4   $ IP Non-Tech
 "MinSupT" = 55   $ IP Non-Tech
 "OccCoolT" = 76   $ IP Non-Tech
 "OccHeatT" = 72   $ IP Non-Tech
 "OfficeOpen_EWSF" = 1.5   $ IP Non-Tech
 "OfficeOpen_LWSF" = 1.2   $ IP Non-Tech
 "OfficeSmall_EWSF" = 1.5   $ IP Non-Tech
 "OfficeSmall_LWSF" = 1.3   $ IP Non-Tech
 "PkgDxVintEconoFlag" = 0   $ IP Non-Tech
 "Restroom_EWSF" = 0.2   $ IP Non-Tech
 "Restroom_LWSF" = 0.6   $ IP Non-Tech
 "SZFanMechEff" = 0.58   $ IP Non-Tech
 "SZHasRetFan" = FALSE   $ IP Non-Tech
 "SZ_Is_2Spd" = FALSE   $ IP Non-Tech
 "SZ_SFanWPerCfm" = 0.46   $ IP Non-Tech
 "SZ_SupFanStatic" = 0.75   $ IP Non-Tech
 "StorageSmlCond_EWSF" = 0.2   $ IP Non-Tech
 "StorageSmlCond_LWSF" = 0.6   $ IP Non-Tech
 "T24GlzTbl" = CZTbl   $ IP Non-Tech
 "TermUnitFanMechEff" = 1   $ IP Non-Tech
 "TermUnitFanMode" = INTERMITTENT   $ IP Non-Tech
 "TwrSetpt" = 80   $ IP Non-Tech
 "UnocCoolT" = 86   $ IP Non-Tech
 "UnocHeatT" = 62   $ IP Non-Tech
 "WlhpVintEconoFlag" = 0   $ IP Non-Tech
 "EconoCtrl" = OA-TEMP   $ IP Tech: AirEcono-OATemp
 "MaxOAFrac" = 0.85   $ IP Tech: AirEcono-OATemp
 "UseEconoVintApplic" = FALSE   $ IP Tech: AirEcono-OATemp
 "DuctDT" = 1   $ IP Tech: ComDuctInsul-1
 "DuctAirLoss" = 0   $ IP Tech: ComDuctLeak-0
 "DuctLossOAFrac" = 0   $ IP Tech: ComDuctLeak-0
 "ComRoofInsCalc" = FromUo   $ IP Tech: ComRoofIns-Hvy-0.06
 "ComRoofInsR" = -999   $ IP Tech: ComRoofIns-Hvy-0.06
 "ComRoofUo" = 0.06   $ IP Tech: ComRoofIns-Hvy-0.06
 "ComEWInsCalc" = FromUo   $ IP Tech: ComWallIns-MFrm-0.13
 "ComEWInsR" = -999   $ IP Tech: ComWallIns-MFrm-0.13
 "ComEWUo" = 0.13   $ IP Tech: ComWallIns-MFrm-0.13
 "ComN_SHGC" = 0.47   $ IP Tech: NResWin-ComN-0.47-0.47
 "ComN_UFactor" = 0.47   $ IP Tech: NResWin-ComN-0.47-0.47
 "ComN_VisTrans" = 0.75   $ IP Tech: NResWin-ComN-0.47-0.47
 "ComN_WinCode" = G2633   $ IP Tech: NResWin-ComN-0.47-0.47
 "ComN_WinFrmFrac" = 0.17   $ IP Tech: NResWin-ComN-0.47-0.47
 "ComN_WinFrmU" = 0.3   $ IP Tech: NResWin-ComN-0.47-0.47
 "ComO_SHGC" = 0.43   $ IP Tech: NResWin-ComO-0.47-0.43
 "ComO_UFactor" = 0.47   $ IP Tech: NResWin-ComO-0.47-0.43
 "ComO_VisTrans" = 0.68   $ IP Tech: NResWin-ComO-0.47-0.43
 "ComO_WinCode" = G2663   $ IP Tech: NResWin-ComO-0.47-0.43
 "ComO_WinFrmFrac" = 0.17   $ IP Tech: NResWin-ComO-0.47-0.43
 "ComO_WinFrmU" = 0.3   $ IP Tech: NResWin-ComO-0.47-0.43
 "BF_fFlow" = PSZ65to135_BF_fFlow   $ IP Tech: PkgAC1SpH-65to135-E10
 "BF_fT" = PSZ65to135_BF_fT   $ IP Tech: PkgAC1SpH-65to135-E10
 "CEIR_fPLR" = PSZ65to135_CEIR_fPLR   $ IP Tech: PkgAC1SpH-65to135-E10
 "CLoss_fPLR" = PSZ65to135_CLoss_fPLR   $ IP Tech: PkgAC1SpH-65to135-E10
 "COP" = -1   $ IP Tech: PkgAC1SpH-65to135-E10
 "COP47" = -1   $ IP Tech: PkgAC1SpH-65to135-E10
 "CfmPerBtuh" = 0.02917   $ IP Tech: PkgAC1SpH-65to135-E10
 "ClCap_fT" = PSZ65to135_ClCap_fT   $ IP Tech: PkgAC1SpH-65to135-E10
 "ClSH_fT" = PSZ65to135_ClSH_fT   $ IP Tech: PkgAC1SpH-65to135-E10
 "CoilBF" = 0.114   $ IP Tech: PkgAC1SpH-65to135-E10
 "CondWPerBtuh" = 0   $ IP Tech: PkgAC1SpH-65to135-E10
 "CoolSensCap" = 0.663   $ IP Tech: PkgAC1SpH-65to135-E10
 "CoolingEIR" = 0.29745   $ IP Tech: PkgAC1SpH-65to135-E10
 "CrnkEIR" = 0.01   $ IP Tech: PkgAC1SpH-65to135-E10
 "CrnkMaxT" = 50   $ IP Tech: PkgAC1SpH-65to135-E10
 "DXType" = Pkg   $ IP Tech: PkgAC1SpH-65to135-E10
 "EER" = 9.67   $ IP Tech: PkgAC1SpH-65to135-E10
 "EIR_fT" = PSZ65to135_EIR_fT   $ IP Tech: PkgAC1SpH-65to135-E10
 "FanEirPlr" = TwoSpeedFan   $ IP Tech: PkgAC1SpH-65to135-E10
 "FanWPerCfm" = 0.412   $ IP Tech: PkgAC1SpH-65to135-E10
 "HIR_fT" = DEFAULT   $ IP Tech: PkgAC1SpH-65to135-E10
 "HtCap_fT" = DEFAULT   $ IP Tech: PkgAC1SpH-65to135-E10
 "HtCoolCapRatio" = -1   $ IP Tech: PkgAC1SpH-65to135-E10
 "HtgEIR" = -1   $ IP Tech: PkgAC1SpH-65to135-E10
 "HtgFuel" = Gas   $ IP Tech: PkgAC1SpH-65to135-E10
 "IEER" = 11.87   $ IP Tech: PkgAC1SpH-65to135-E10
 "LowSpdCapRatio" = 0.5   $ IP Tech: PkgAC1SpH-65to135-E10
 "LowSpdCfmRatio" = 0.66   $ IP Tech: PkgAC1SpH-65to135-E10
 "NominalCap" = 15   $ IP Tech: PkgAC1SpH-65to135-E10
 "NumStages" = 1   $ IP Tech: PkgAC1SpH-65to135-E10
 "RatedEER" = 10   $ IP Tech: PkgAC1SpH-65to135-E10
 "RatedSupMtrClass" = HiEff   $ IP Tech: PkgAC1SpH-65to135-E10
 "SizeRange" = 65to135   $ IP Tech: PkgAC1SpH-65to135-E10
 "SubType" = AC   $ IP Tech: PkgAC1SpH-65to135-E10
 "SupMotEff" = 0.84   $ IP Tech: PkgAC1SpH-65to135-E10
 "Tier" = 0   $ IP Tech: PkgAC1SpH-65to135-E10
 "TotCoolCap" = 184140   $ IP Tech: PkgAC1SpH-65to135-E10
 "BFMult" = 1   $ IP Tech: RefgChg-NRes-Std
 "CoolEirMult" = 1   $ IP Tech: RefgChg-NRes-Std
 "SensCoolCapMult" = 1   $ IP Tech: RefgChg-NRes-Std
 "TotCoolCapMult" = 1   $ IP Tech: RefgChg-NRes-Std
 "AltAdjFactor" = 1.007532   $ Sizing
 "CAssFlo_L_Break_CZn" = 363.0887   $ Sizing
 "CAssFlo_L_Conf_CZn" = 419.5783   $ Sizing
 "CAssFlo_L_CopyRm_CZn" = 105.6591   $ Sizing
 "CAssFlo_L_Cordr_CZn" = 565.4379   $ Sizing
 "CAssFlo_L_Cordr_EZn" = 187.9843   $ Sizing
 "CAssFlo_L_Cordr_NZn" = 94.24052   $ Sizing
 "CAssFlo_L_Cordr_SZn" = 199.9952   $ Sizing
 "CAssFlo_L_Cordr_WZn" = 179.9129   $ Sizing
 "CAssFlo_L_LobWait_CZn" = 348.4055   $ Sizing
 "CAssFlo_L_MechElec_CZn" = 134.1697   $ Sizing
 "CAssFlo_L_OfficeOpn_CZn" = 1657.318   $ Sizing
 "CAssFlo_L_OfficeOpn_EZn" = 1624.097   $ Sizing
 "CAssFlo_L_OfficeOpn_NZn" = 782.1168   $ Sizing
 "CAssFlo_L_OfficeOpn_SZn" = 1658.9   $ Sizing
 "CAssFlo_L_OfficeOpn_WZn" = 1563.47   $ Sizing
 "CAssFlo_L_OfficeSm_CZn" = 207.6431   $ Sizing
 "CAssFlo_L_OfficeSm_EZn" = 1139.153   $ Sizing
 "CAssFlo_L_OfficeSm_NZn" = 464.3048   $ Sizing
 "CAssFlo_L_OfficeSm_SZn" = 1192.937   $ Sizing
 "CAssFlo_L_OfficeSm_WZn" = 1085.517   $ Sizing
 "CAssFlo_L_Restrm_CZn" = 211.8611   $ Sizing
 "CAssFlo_L_StorSm_CZn" = 334.6109   $ Sizing
 "CAssFlo_M_Break_CZn" = 401.4713   $ Sizing
 "CAssFlo_M_Conf_CZn" = 467.495   $ Sizing
 "CAssFlo_M_CopyRm_CZn" = 132.042   $ Sizing
 "CAssFlo_M_Cordr_CZn" = 741.4445   $ Sizing
 "CAssFlo_M_Cordr_EZn" = 244.7393   $ Sizing
 "CAssFlo_M_Cordr_NZn" = 97.54273   $ Sizing
 "CAssFlo_M_Cordr_SZn" = 248.111   $ Sizing
 "CAssFlo_M_Cordr_WZn" = 216.1633   $ Sizing
 "CAssFlo_M_LobWait_CZn" = 449.0893   $ Sizing
 "CAssFlo_M_MechElec_CZn" = 138.572   $ Sizing
 "CAssFlo_M_OfficeOpn_CZn" = 1942.742   $ Sizing
 "CAssFlo_M_OfficeOpn_EZn" = 1816.232   $ Sizing
 "CAssFlo_M_OfficeOpn_NZn" = 936.9474   $ Sizing
 "CAssFlo_M_OfficeOpn_SZn" = 1861.229   $ Sizing
 "CAssFlo_M_OfficeOpn_WZn" = 1682.231   $ Sizing
 "CAssFlo_M_OfficeSm_CZn" = 266.5754   $ Sizing
 "CAssFlo_M_OfficeSm_EZn" = 1266.032   $ Sizing
 "CAssFlo_M_OfficeSm_NZn" = 559.6573   $ Sizing
 "CAssFlo_M_OfficeSm_SZn" = 1329.256   $ Sizing
 "CAssFlo_M_OfficeSm_WZn" = 1171.925   $ Sizing
 "CAssFlo_M_Restrm_CZn" = 211.8611   $ Sizing
 "CAssFlo_M_StorSm_CZn" = 359.4479   $ Sizing
 "CAssFlo_T_Break_CZn" = 375.7723   $ Sizing
 "CAssFlo_T_Conf_CZn" = 447.3034   $ Sizing
 "CAssFlo_T_CopyRm_CZn" = 125.0566   $ Sizing
 "CAssFlo_T_Cordr_CZn" = 657.5813   $ Sizing
 "CAssFlo_T_Cordr_EZn" = 217.7532   $ Sizing
 "CAssFlo_T_Cordr_NZn" = 94.24052   $ Sizing
 "CAssFlo_T_Cordr_SZn" = 225.1485   $ Sizing
 "CAssFlo_T_Cordr_WZn" = 194.923   $ Sizing
 "CAssFlo_T_LobWait_CZn" = 415.9071   $ Sizing
 "CAssFlo_T_MechElec_CZn" = 146.0537   $ Sizing
 "CAssFlo_T_OfficeOpn_CZn" = 1815.997   $ Sizing
 "CAssFlo_T_OfficeOpn_EZn" = 1648.629   $ Sizing
 "CAssFlo_T_OfficeOpn_NZn" = 864.799   $ Sizing
 "CAssFlo_T_OfficeOpn_SZn" = 1732.777   $ Sizing
 "CAssFlo_T_OfficeOpn_WZn" = 1542.3   $ Sizing
 "CAssFlo_T_OfficeSm_CZn" = 252.5828   $ Sizing
 "CAssFlo_T_OfficeSm_EZn" = 1184.097   $ Sizing
 "CAssFlo_T_OfficeSm_NZn" = 536.6673   $ Sizing
 "CAssFlo_T_OfficeSm_SZn" = 1266.141   $ Sizing
 "CAssFlo_T_OfficeSm_WZn" = 1103.824   $ Sizing
 "CAssFlo_T_Restrm_CZn" = 211.8611   $ Sizing
 "CAssFlo_T_StorSm_CZn" = 334.0894   $ Sizing
 "CHRtFlo_Sys_L_Break_C" = 363.0887   $ Sizing
 "CHRtFlo_Sys_L_Conf_C" = 419.5783   $ Sizing
 "CHRtFlo_Sys_L_CopyRm_C" = 105.6591   $ Sizing
 "CHRtFlo_Sys_L_Cordr_C" = 565.4379   $ Sizing
 "CHRtFlo_Sys_L_Cordr_E" = 187.9843   $ Sizing
 "CHRtFlo_Sys_L_Cordr_N" = 94.24052   $ Sizing
 "CHRtFlo_Sys_L_Cordr_S" = 199.9952   $ Sizing
 "CHRtFlo_Sys_L_Cordr_W" = 179.9129   $ Sizing
 "CHRtFlo_Sys_L_LobWait_C" = 348.4055   $ Sizing
 "CHRtFlo_Sys_L_MechElec_C" = 134.1697   $ Sizing
 "CHRtFlo_Sys_L_OfficeOpn_C" = 1657.318   $ Sizing
 "CHRtFlo_Sys_L_OfficeOpn_E" = 1624.097   $ Sizing
 "CHRtFlo_Sys_L_OfficeOpn_N" = 782.1168   $ Sizing
 "CHRtFlo_Sys_L_OfficeOpn_S" = 1658.9   $ Sizing
 "CHRtFlo_Sys_L_OfficeOpn_W" = 1563.47   $ Sizing
 "CHRtFlo_Sys_L_OfficeSm_C" = 207.6431   $ Sizing
 "CHRtFlo_Sys_L_OfficeSm_E" = 1139.153   $ Sizing
 "CHRtFlo_Sys_L_OfficeSm_N" = 464.3048   $ Sizing
 "CHRtFlo_Sys_L_OfficeSm_S" = 1192.937   $ Sizing
 "CHRtFlo_Sys_L_OfficeSm_W" = 1085.517   $ Sizing
 "CHRtFlo_Sys_L_Restrm_C" = 211.8611   $ Sizing
 "CHRtFlo_Sys_L_StorSm_C" = 334.6109   $ Sizing
 "CHRtFlo_Sys_M_Break_C" = 3211.771   $ Sizing
 "CHRtFlo_Sys_M_Conf_C" = 3739.96   $ Sizing
 "CHRtFlo_Sys_M_CopyRm_C" = 1056.336   $ Sizing
 "CHRtFlo_Sys_M_Cordr_C" = 5931.556   $ Sizing
 "CHRtFlo_Sys_M_Cordr_E" = 1957.915   $ Sizing
 "CHRtFlo_Sys_M_Cordr_N" = 780.3419   $ Sizing
 "CHRtFlo_Sys_M_Cordr_S" = 1984.888   $ Sizing
 "CHRtFlo_Sys_M_Cordr_W" = 1729.307   $ Sizing
 "CHRtFlo_Sys_M_LobWait_C" = 3592.715   $ Sizing
 "CHRtFlo_Sys_M_MechElec_C" = 1108.576   $ Sizing
 "CHRtFlo_Sys_M_OfficeOpn_C" = 15541.94   $ Sizing
 "CHRtFlo_Sys_M_OfficeOpn_E" = 14529.86   $ Sizing
 "CHRtFlo_Sys_M_OfficeOpn_N" = 7495.579   $ Sizing
 "CHRtFlo_Sys_M_OfficeOpn_S" = 14889.83   $ Sizing
 "CHRtFlo_Sys_M_OfficeOpn_W" = 13457.84   $ Sizing
 "CHRtFlo_Sys_M_OfficeSm_C" = 2132.603   $ Sizing
 "CHRtFlo_Sys_M_OfficeSm_E" = 10128.26   $ Sizing
 "CHRtFlo_Sys_M_OfficeSm_N" = 4477.258   $ Sizing
 "CHRtFlo_Sys_M_OfficeSm_S" = 10634.05   $ Sizing
 "CHRtFlo_Sys_M_OfficeSm_W" = 9375.397   $ Sizing
 "CHRtFlo_Sys_M_Restrm_C" = 1694.889   $ Sizing
 "CHRtFlo_Sys_M_StorSm_C" = 2875.583   $ Sizing
 "CHRtFlo_Sys_T_Break_C" = 375.7723   $ Sizing
 "CHRtFlo_Sys_T_Conf_C" = 447.3034   $ Sizing
 "CHRtFlo_Sys_T_CopyRm_C" = 125.0566   $ Sizing
 "CHRtFlo_Sys_T_Cordr_C" = 657.5813   $ Sizing
 "CHRtFlo_Sys_T_Cordr_E" = 217.7532   $ Sizing
 "CHRtFlo_Sys_T_Cordr_N" = 94.24052   $ Sizing
 "CHRtFlo_Sys_T_Cordr_S" = 225.1485   $ Sizing
 "CHRtFlo_Sys_T_Cordr_W" = 194.923   $ Sizing
 "CHRtFlo_Sys_T_LobWait_C" = 415.9071   $ Sizing
 "CHRtFlo_Sys_T_MechElec_C" = 146.0537   $ Sizing
 "CHRtFlo_Sys_T_OfficeOpn_C" = 1815.997   $ Sizing
 "CHRtFlo_Sys_T_OfficeOpn_E" = 1648.629   $ Sizing
 "CHRtFlo_Sys_T_OfficeOpn_N" = 864.799   $ Sizing
 "CHRtFlo_Sys_T_OfficeOpn_S" = 1732.777   $ Sizing
 "CHRtFlo_Sys_T_OfficeOpn_W" = 1542.3   $ Sizing
 "CHRtFlo_Sys_T_OfficeSm_C" = 252.5828   $ Sizing
 "CHRtFlo_Sys_T_OfficeSm_E" = 1184.097   $ Sizing
 "CHRtFlo_Sys_T_OfficeSm_N" = 536.6673   $ Sizing
 "CHRtFlo_Sys_T_OfficeSm_S" = 1266.141   $ Sizing
 "CHRtFlo_Sys_T_OfficeSm_W" = 1103.824   $ Sizing
 "CHRtFlo_Sys_T_Restrm_C" = 211.8611   $ Sizing
 "CHRtFlo_Sys_T_StorSm_C" = 334.0894   $ Sizing
 "CRtdFlo_Sys_L_Break_C" = 363.0887   $ Sizing
 "CRtdFlo_Sys_L_Conf_C" = 419.5783   $ Sizing
 "CRtdFlo_Sys_L_CopyRm_C" = 105.6591   $ Sizing
 "CRtdFlo_Sys_L_Cordr_C" = 565.4379   $ Sizing
 "CRtdFlo_Sys_L_Cordr_E" = 187.9843   $ Sizing
 "CRtdFlo_Sys_L_Cordr_N" = 94.24052   $ Sizing
 "CRtdFlo_Sys_L_Cordr_S" = 199.9952   $ Sizing
 "CRtdFlo_Sys_L_Cordr_W" = 179.9129   $ Sizing
 "CRtdFlo_Sys_L_LobWait_C" = 348.4055   $ Sizing
 "CRtdFlo_Sys_L_MechElec_C" = 134.1697   $ Sizing
 "CRtdFlo_Sys_L_OfficeOpn_C" = 1657.318   $ Sizing
 "CRtdFlo_Sys_L_OfficeOpn_E" = 1624.097   $ Sizing
 "CRtdFlo_Sys_L_OfficeOpn_N" = 782.1168   $ Sizing
 "CRtdFlo_Sys_L_OfficeOpn_S" = 1658.9   $ Sizing
 "CRtdFlo_Sys_L_OfficeOpn_W" = 1563.47   $ Sizing
 "CRtdFlo_Sys_L_OfficeSm_C" = 207.6431   $ Sizing
 "CRtdFlo_Sys_L_OfficeSm_E" = 1139.153   $ Sizing
 "CRtdFlo_Sys_L_OfficeSm_N" = 464.3048   $ Sizing
 "CRtdFlo_Sys_L_OfficeSm_S" = 1192.937   $ Sizing
 "CRtdFlo_Sys_L_OfficeSm_W" = 1085.517   $ Sizing
 "CRtdFlo_Sys_L_Restrm_C" = 211.8611   $ Sizing
 "CRtdFlo_Sys_L_StorSm_C" = 334.6109   $ Sizing
 "CRtdFlo_Sys_M_Break_C" = 3211.771   $ Sizing
 "CRtdFlo_Sys_M_Conf_C" = 3739.96   $ Sizing
 "CRtdFlo_Sys_M_CopyRm_C" = 1056.336   $ Sizing
 "CRtdFlo_Sys_M_Cordr_C" = 5931.556   $ Sizing
 "CRtdFlo_Sys_M_Cordr_E" = 1957.915   $ Sizing
 "CRtdFlo_Sys_M_Cordr_N" = 780.3419   $ Sizing
 "CRtdFlo_Sys_M_Cordr_S" = 1984.888   $ Sizing
 "CRtdFlo_Sys_M_Cordr_W" = 1729.307   $ Sizing
 "CRtdFlo_Sys_M_LobWait_C" = 3592.715   $ Sizing
 "CRtdFlo_Sys_M_MechElec_C" = 1108.576   $ Sizing
 "CRtdFlo_Sys_M_OfficeOpn_C" = 15541.94   $ Sizing
 "CRtdFlo_Sys_M_OfficeOpn_E" = 14529.86   $ Sizing
 "CRtdFlo_Sys_M_OfficeOpn_N" = 7495.579   $ Sizing
 "CRtdFlo_Sys_M_OfficeOpn_S" = 14889.83   $ Sizing
 "CRtdFlo_Sys_M_OfficeOpn_W" = 13457.84   $ Sizing
 "CRtdFlo_Sys_M_OfficeSm_C" = 2132.603   $ Sizing
 "CRtdFlo_Sys_M_OfficeSm_E" = 10128.26   $ Sizing
 "CRtdFlo_Sys_M_OfficeSm_N" = 4477.258   $ Sizing
 "CRtdFlo_Sys_M_OfficeSm_S" = 10634.05   $ Sizing
 "CRtdFlo_Sys_M_OfficeSm_W" = 9375.397   $ Sizing
 "CRtdFlo_Sys_M_Restrm_C" = 1694.889   $ Sizing
 "CRtdFlo_Sys_M_StorSm_C" = 2875.583   $ Sizing
 "CRtdFlo_Sys_T_Break_C" = 375.7723   $ Sizing
 "CRtdFlo_Sys_T_Conf_C" = 447.3034   $ Sizing
 "CRtdFlo_Sys_T_CopyRm_C" = 125.0566   $ Sizing
 "CRtdFlo_Sys_T_Cordr_C" = 657.5813   $ Sizing
 "CRtdFlo_Sys_T_Cordr_E" = 217.7532   $ Sizing
 "CRtdFlo_Sys_T_Cordr_N" = 94.24052   $ Sizing
 "CRtdFlo_Sys_T_Cordr_S" = 225.1485   $ Sizing
 "CRtdFlo_Sys_T_Cordr_W" = 194.923   $ Sizing
 "CRtdFlo_Sys_T_LobWait_C" = 415.9071   $ Sizing
 "CRtdFlo_Sys_T_MechElec_C" = 146.0537   $ Sizing
 "CRtdFlo_Sys_T_OfficeOpn_C" = 1815.997   $ Sizing
 "CRtdFlo_Sys_T_OfficeOpn_E" = 1648.629   $ Sizing
 "CRtdFlo_Sys_T_OfficeOpn_N" = 864.799   $ Sizing
 "CRtdFlo_Sys_T_OfficeOpn_S" = 1732.777   $ Sizing
 "CRtdFlo_Sys_T_OfficeOpn_W" = 1542.3   $ Sizing
 "CRtdFlo_Sys_T_OfficeSm_C" = 252.5828   $ Sizing
 "CRtdFlo_Sys_T_OfficeSm_E" = 1184.097   $ Sizing
 "CRtdFlo_Sys_T_OfficeSm_N" = 536.6673   $ Sizing
 "CRtdFlo_Sys_T_OfficeSm_S" = 1266.141   $ Sizing
 "CRtdFlo_Sys_T_OfficeSm_W" = 1103.824   $ Sizing
 "CRtdFlo_Sys_T_Restrm_C" = 211.8611   $ Sizing
 "CRtdFlo_Sys_T_StorSm_C" = 334.0894   $ Sizing
 "CSupFlo_Sys_L_Break_C" = 363.0887   $ Sizing
 "CSupFlo_Sys_L_Conf_C" = 419.5783   $ Sizing
 "CSupFlo_Sys_L_CopyRm_C" = 105.6591   $ Sizing
 "CSupFlo_Sys_L_Cordr_C" = 565.4379   $ Sizing
 "CSupFlo_Sys_L_Cordr_E" = 187.9843   $ Sizing
 "CSupFlo_Sys_L_Cordr_N" = 94.24052   $ Sizing
 "CSupFlo_Sys_L_Cordr_S" = 199.9952   $ Sizing
 "CSupFlo_Sys_L_Cordr_W" = 179.9129   $ Sizing
 "CSupFlo_Sys_L_LobWait_C" = 348.4055   $ Sizing
 "CSupFlo_Sys_L_MechElec_C" = 134.1697   $ Sizing
 "CSupFlo_Sys_L_OfficeOpn_C" = 1657.318   $ Sizing
 "CSupFlo_Sys_L_OfficeOpn_E" = 1624.097   $ Sizing
 "CSupFlo_Sys_L_OfficeOpn_N" = 782.1168   $ Sizing
 "CSupFlo_Sys_L_OfficeOpn_S" = 1658.9   $ Sizing
 "CSupFlo_Sys_L_OfficeOpn_W" = 1563.47   $ Sizing
 "CSupFlo_Sys_L_OfficeSm_C" = 207.6431   $ Sizing
 "CSupFlo_Sys_L_OfficeSm_E" = 1139.153   $ Sizing
 "CSupFlo_Sys_L_OfficeSm_N" = 464.3048   $ Sizing
 "CSupFlo_Sys_L_OfficeSm_S" = 1192.937   $ Sizing
 "CSupFlo_Sys_L_OfficeSm_W" = 1085.517   $ Sizing
 "CSupFlo_Sys_L_Restrm_C" = 211.8611   $ Sizing
 "CSupFlo_Sys_L_StorSm_C" = 334.6109   $ Sizing
 "CSupFlo_Sys_M_Break_C" = 3211.771   $ Sizing
 "CSupFlo_Sys_M_Conf_C" = 3739.96   $ Sizing
 "CSupFlo_Sys_M_CopyRm_C" = 1056.336   $ Sizing
 "CSupFlo_Sys_M_Cordr_C" = 5931.556   $ Sizing
 "CSupFlo_Sys_M_Cordr_E" = 1957.915   $ Sizing
 "CSupFlo_Sys_M_Cordr_N" = 780.3419   $ Sizing
 "CSupFlo_Sys_M_Cordr_S" = 1984.888   $ Sizing
 "CSupFlo_Sys_M_Cordr_W" = 1729.307   $ Sizing
 "CSupFlo_Sys_M_LobWait_C" = 3592.715   $ Sizing
 "CSupFlo_Sys_M_MechElec_C" = 1108.576   $ Sizing
 "CSupFlo_Sys_M_OfficeOpn_C" = 15541.94   $ Sizing
 "CSupFlo_Sys_M_OfficeOpn_E" = 14529.86   $ Sizing
 "CSupFlo_Sys_M_OfficeOpn_N" = 7495.579   $ Sizing
 "CSupFlo_Sys_M_OfficeOpn_S" = 14889.83   $ Sizing
 "CSupFlo_Sys_M_OfficeOpn_W" = 13457.84   $ Sizing
 "CSupFlo_Sys_M_OfficeSm_C" = 2132.603   $ Sizing
 "CSupFlo_Sys_M_OfficeSm_E" = 10128.26   $ Sizing
 "CSupFlo_Sys_M_OfficeSm_N" = 4477.258   $ Sizing
 "CSupFlo_Sys_M_OfficeSm_S" = 10634.05   $ Sizing
 "CSupFlo_Sys_M_OfficeSm_W" = 9375.397   $ Sizing
 "CSupFlo_Sys_M_Restrm_C" = 1694.889   $ Sizing
 "CSupFlo_Sys_M_StorSm_C" = 2875.583   $ Sizing
 "CSupFlo_Sys_T_Break_C" = 375.7723   $ Sizing
 "CSupFlo_Sys_T_Conf_C" = 447.3034   $ Sizing
 "CSupFlo_Sys_T_CopyRm_C" = 125.0566   $ Sizing
 "CSupFlo_Sys_T_Cordr_C" = 657.5813   $ Sizing
 "CSupFlo_Sys_T_Cordr_E" = 217.7532   $ Sizing
 "CSupFlo_Sys_T_Cordr_N" = 94.24052   $ Sizing
 "CSupFlo_Sys_T_Cordr_S" = 225.1485   $ Sizing
 "CSupFlo_Sys_T_Cordr_W" = 194.923   $ Sizing
 "CSupFlo_Sys_T_LobWait_C" = 415.9071   $ Sizing
 "CSupFlo_Sys_T_MechElec_C" = 146.0537   $ Sizing
 "CSupFlo_Sys_T_OfficeOpn_C" = 1815.997   $ Sizing
 "CSupFlo_Sys_T_OfficeOpn_E" = 1648.629   $ Sizing
 "CSupFlo_Sys_T_OfficeOpn_N" = 864.799   $ Sizing
 "CSupFlo_Sys_T_OfficeOpn_S" = 1732.777   $ Sizing
 "CSupFlo_Sys_T_OfficeOpn_W" = 1542.3   $ Sizing
 "CSupFlo_Sys_T_OfficeSm_C" = 252.5828   $ Sizing
 "CSupFlo_Sys_T_OfficeSm_E" = 1184.097   $ Sizing
 "CSupFlo_Sys_T_OfficeSm_N" = 536.6673   $ Sizing
 "CSupFlo_Sys_T_OfficeSm_S" = 1266.141   $ Sizing
 "CSupFlo_Sys_T_OfficeSm_W" = 1103.824   $ Sizing
 "CSupFlo_Sys_T_Restrm_C" = 211.8611   $ Sizing
 "CSupFlo_Sys_T_StorSm_C" = 334.0894   $ Sizing
 "ClCap_Sys_L_Break_C" = 12355.69   $ Sizing
 "ClCap_Sys_L_Conf_C" = 18172   $ Sizing
 "ClCap_Sys_L_CopyRm_C" = 3595.517   $ Sizing
 "ClCap_Sys_L_Cordr_C" = 19241.51   $ Sizing
 "ClCap_Sys_L_Cordr_E" = 6396.993   $ Sizing
 "ClCap_Sys_L_Cordr_N" = 3206.949   $ Sizing
 "ClCap_Sys_L_Cordr_S" = 6805.718   $ Sizing
 "ClCap_Sys_L_Cordr_W" = 6122.327   $ Sizing
 "ClCap_Sys_L_LobWait_C" = 11856.03   $ Sizing
 "ClCap_Sys_L_MechElec_C" = 4565.713   $ Sizing
 "ClCap_Sys_L_OfficeOpn_C" = 56397.54   $ Sizing
 "ClCap_Sys_L_OfficeOpn_E" = 55267.04   $ Sizing
 "ClCap_Sys_L_OfficeOpn_N" = 26614.97   $ Sizing
 "ClCap_Sys_L_OfficeOpn_S" = 56451.38   $ Sizing
 "ClCap_Sys_L_OfficeOpn_W" = 53203.94   $ Sizing
 "ClCap_Sys_L_OfficeSm_C" = 7065.97   $ Sizing
 "ClCap_Sys_L_OfficeSm_E" = 38764.7   $ Sizing
 "ClCap_Sys_L_OfficeSm_N" = 15800.02   $ Sizing
 "ClCap_Sys_L_OfficeSm_S" = 40594.93   $ Sizing
 "ClCap_Sys_L_OfficeSm_W" = 36939.5   $ Sizing
 "ClCap_Sys_L_Restrm_C" = 7209.506   $ Sizing
 "ClCap_Sys_L_StorSm_C" = 11386.61   $ Sizing
 "ClCap_Sys_M_Break_C" = 109294.6   $ Sizing
 "ClCap_Sys_M_Conf_C" = 161978.2   $ Sizing
 "ClCap_Sys_M_CopyRm_C" = 35946.48   $ Sizing
 "ClCap_Sys_M_Cordr_C" = 201847.3   $ Sizing
 "ClCap_Sys_M_Cordr_E" = 66626.67   $ Sizing
 "ClCap_Sys_M_Cordr_N" = 26554.57   $ Sizing
 "ClCap_Sys_M_Cordr_S" = 67544.55   $ Sizing
 "ClCap_Sys_M_Cordr_W" = 58847.27   $ Sizing
 "ClCap_Sys_M_LobWait_C" = 122257.9   $ Sizing
 "ClCap_Sys_M_MechElec_C" = 37724.17   $ Sizing
 "ClCap_Sys_M_OfficeOpn_C" = 528882.8   $ Sizing
 "ClCap_Sys_M_OfficeOpn_E" = 494442.3   $ Sizing
 "ClCap_Sys_M_OfficeOpn_N" = 255070.1   $ Sizing
 "ClCap_Sys_M_OfficeOpn_S" = 506692.2   $ Sizing
 "ClCap_Sys_M_OfficeOpn_W" = 457962.4   $ Sizing
 "ClCap_Sys_M_OfficeSm_C" = 72571.2   $ Sizing
 "ClCap_Sys_M_OfficeSm_E" = 344658.5   $ Sizing
 "ClCap_Sys_M_OfficeSm_N" = 152358.4   $ Sizing
 "ClCap_Sys_M_OfficeSm_S" = 361870.3   $ Sizing
 "ClCap_Sys_M_OfficeSm_W" = 319039.2   $ Sizing
 "ClCap_Sys_M_Restrm_C" = 57676.05   $ Sizing
 "ClCap_Sys_M_StorSm_C" = 97854.37   $ Sizing
 "ClCap_Sys_T_Break_C" = 12787.31   $ Sizing
 "ClCap_Sys_T_Conf_C" = 19372.78   $ Sizing
 "ClCap_Sys_T_CopyRm_C" = 4255.603   $ Sizing
 "ClCap_Sys_T_Cordr_C" = 22377.1   $ Sizing
 "ClCap_Sys_T_Cordr_E" = 7410.01   $ Sizing
 "ClCap_Sys_T_Cordr_N" = 3206.949   $ Sizing
 "ClCap_Sys_T_Cordr_S" = 7661.667   $ Sizing
 "ClCap_Sys_T_Cordr_W" = 6633.115   $ Sizing
 "ClCap_Sys_T_LobWait_C" = 14153.07   $ Sizing
 "ClCap_Sys_T_MechElec_C" = 4970.121   $ Sizing
 "ClCap_Sys_T_OfficeOpn_C" = 61797.3   $ Sizing
 "ClCap_Sys_T_OfficeOpn_E" = 56101.86   $ Sizing
 "ClCap_Sys_T_OfficeOpn_N" = 29428.59   $ Sizing
 "ClCap_Sys_T_OfficeOpn_S" = 58965.35   $ Sizing
 "ClCap_Sys_T_OfficeOpn_W" = 52483.54   $ Sizing
 "ClCap_Sys_T_OfficeSm_C" = 8595.242   $ Sizing
 "ClCap_Sys_T_OfficeSm_E" = 40294.11   $ Sizing
 "ClCap_Sys_T_OfficeSm_N" = 18262.47   $ Sizing
 "ClCap_Sys_T_OfficeSm_S" = 43086.01   $ Sizing
 "ClCap_Sys_T_OfficeSm_W" = 37562.46   $ Sizing
 "ClCap_Sys_T_Restrm_C" = 7209.506   $ Sizing
 "ClCap_Sys_T_StorSm_C" = 11368.86   $ Sizing
 "HtCap_L_Break_CZn" = 0   $ Sizing
 "HtCap_L_Conf_CZn" = 0   $ Sizing
 "HtCap_L_CopyRm_CZn" = 0   $ Sizing
 "HtCap_L_Cordr_CZn" = 0   $ Sizing
 "HtCap_L_Cordr_EZn" = 0   $ Sizing
 "HtCap_L_Cordr_NZn" = 0   $ Sizing
 "HtCap_L_Cordr_SZn" = 0   $ Sizing
 "HtCap_L_Cordr_WZn" = 0   $ Sizing
 "HtCap_L_LobWait_CZn" = 0   $ Sizing
 "HtCap_L_MechElec_CZn" = 0   $ Sizing
 "HtCap_L_OfficeOpn_CZn" = 0   $ Sizing
 "HtCap_L_OfficeOpn_EZn" = 0   $ Sizing
 "HtCap_L_OfficeOpn_NZn" = 0   $ Sizing
 "HtCap_L_OfficeOpn_SZn" = 0   $ Sizing
 "HtCap_L_OfficeOpn_WZn" = 0   $ Sizing
 "HtCap_L_OfficeSm_CZn" = 0   $ Sizing
 "HtCap_L_OfficeSm_EZn" = 0   $ Sizing
 "HtCap_L_OfficeSm_NZn" = 0   $ Sizing
 "HtCap_L_OfficeSm_SZn" = 0   $ Sizing
 "HtCap_L_OfficeSm_WZn" = 0   $ Sizing
 "HtCap_L_Restrm_CZn" = 0   $ Sizing
 "HtCap_L_StorSm_CZn" = 0   $ Sizing
 "HtCap_M_Break_CZn" = 0   $ Sizing
 "HtCap_M_Conf_CZn" = 0   $ Sizing
 "HtCap_M_CopyRm_CZn" = 0   $ Sizing
 "HtCap_M_Cordr_CZn" = 0   $ Sizing
 "HtCap_M_Cordr_EZn" = 0   $ Sizing
 "HtCap_M_Cordr_NZn" = 0   $ Sizing
 "HtCap_M_Cordr_SZn" = 0   $ Sizing
 "HtCap_M_Cordr_WZn" = 0   $ Sizing
 "HtCap_M_LobWait_CZn" = 0   $ Sizing
 "HtCap_M_MechElec_CZn" = 0   $ Sizing
 "HtCap_M_OfficeOpn_CZn" = 0   $ Sizing
 "HtCap_M_OfficeOpn_EZn" = 0   $ Sizing
 "HtCap_M_OfficeOpn_NZn" = 0   $ Sizing
 "HtCap_M_OfficeOpn_SZn" = 0   $ Sizing
 "HtCap_M_OfficeOpn_WZn" = 0   $ Sizing
 "HtCap_M_OfficeSm_CZn" = 0   $ Sizing
 "HtCap_M_OfficeSm_EZn" = 0   $ Sizing
 "HtCap_M_OfficeSm_NZn" = 0   $ Sizing
 "HtCap_M_OfficeSm_SZn" = 0   $ Sizing
 "HtCap_M_OfficeSm_WZn" = 0   $ Sizing
 "HtCap_M_Restrm_CZn" = 0   $ Sizing
 "HtCap_M_StorSm_CZn" = 0   $ Sizing
 "HtCap_Sys_L_Break_C" = -20831.26   $ Sizing
 "HtCap_Sys_L_Conf_C" = -25534.59   $ Sizing
 "HtCap_Sys_L_CopyRm_C" = -7202.439   $ Sizing
 "HtCap_Sys_L_Cordr_C" = -26655.89   $ Sizing
 "HtCap_Sys_L_Cordr_E" = -7361.208   $ Sizing
 "HtCap_Sys_L_Cordr_N" = -4497.654   $ Sizing
 "HtCap_Sys_L_Cordr_S" = -7649.531   $ Sizing
 "HtCap_Sys_L_Cordr_W" = -7110.295   $ Sizing
 "HtCap_Sys_L_LobWait_C" = -20710.67   $ Sizing
 "HtCap_Sys_L_MechElec_C" = -6258.644   $ Sizing
 "HtCap_Sys_L_OfficeOpn_C" = -83090.29   $ Sizing
 "HtCap_Sys_L_OfficeOpn_E" = -58403.86   $ Sizing
 "HtCap_Sys_L_OfficeOpn_N" = -32954.5   $ Sizing
 "HtCap_Sys_L_OfficeOpn_S" = -58659.97   $ Sizing
 "HtCap_Sys_L_OfficeOpn_W" = -56516.71   $ Sizing
 "HtCap_Sys_L_OfficeSm_C" = -8835.256   $ Sizing
 "HtCap_Sys_L_OfficeSm_E" = -40831.3   $ Sizing
 "HtCap_Sys_L_OfficeSm_N" = -20004.95   $ Sizing
 "HtCap_Sys_L_OfficeSm_S" = -41834.07   $ Sizing
 "HtCap_Sys_L_OfficeSm_W" = -39247.5   $ Sizing
 "HtCap_Sys_L_Restrm_C" = -7926.707   $ Sizing
 "HtCap_Sys_L_StorSm_C" = -16049.59   $ Sizing
 "HtCap_Sys_M_Break_C" = -175749.6   $ Sizing
 "HtCap_Sys_M_Conf_C" = -215863.1   $ Sizing
 "HtCap_Sys_M_CopyRm_C" = -64003.22   $ Sizing
 "HtCap_Sys_M_Cordr_C" = -254769.9   $ Sizing
 "HtCap_Sys_M_Cordr_E" = -72426.13   $ Sizing
 "HtCap_Sys_M_Cordr_N" = -36713.67   $ Sizing
 "HtCap_Sys_M_Cordr_S" = -72466.33   $ Sizing
 "HtCap_Sys_M_Cordr_W" = -65468.2   $ Sizing
 "HtCap_Sys_M_LobWait_C" = -189895.7   $ Sizing
 "HtCap_Sys_M_MechElec_C" = -51101.64   $ Sizing
 "HtCap_Sys_M_OfficeOpn_C" = -778614.5   $ Sizing
 "HtCap_Sys_M_OfficeOpn_E" = -512082.3   $ Sizing
 "HtCap_Sys_M_OfficeOpn_N" = -300526.1   $ Sizing
 "HtCap_Sys_M_OfficeOpn_S" = -515480   $ Sizing
 "HtCap_Sys_M_OfficeOpn_W" = -479451.1   $ Sizing
 "HtCap_Sys_M_OfficeSm_C" = -84829.29   $ Sizing
 "HtCap_Sys_M_OfficeSm_E" = -355981.6   $ Sizing
 "HtCap_Sys_M_OfficeSm_N" = -183221.6   $ Sizing
 "HtCap_Sys_M_OfficeSm_S" = -367526.3   $ Sizing
 "HtCap_Sys_M_OfficeSm_W" = -333535.3   $ Sizing
 "HtCap_Sys_M_Restrm_C" = -68042.89   $ Sizing
 "HtCap_Sys_M_StorSm_C" = -130398   $ Sizing
 "HtCap_Sys_T_Break_C" = -22157.71   $ Sizing
 "HtCap_Sys_T_Conf_C" = -27296.49   $ Sizing
 "HtCap_Sys_T_CopyRm_C" = -7973.289   $ Sizing
 "HtCap_Sys_T_Cordr_C" = -33125.68   $ Sizing
 "HtCap_Sys_T_Cordr_E" = -9649.21   $ Sizing
 "HtCap_Sys_T_Cordr_N" = -4980.491   $ Sizing
 "HtCap_Sys_T_Cordr_S" = -9954.894   $ Sizing
 "HtCap_Sys_T_Cordr_W" = -8822.293   $ Sizing
 "HtCap_Sys_T_LobWait_C" = -24092.82   $ Sizing
 "HtCap_Sys_T_MechElec_C" = -6609.104   $ Sizing
 "HtCap_Sys_T_OfficeOpn_C" = -83465.95   $ Sizing
 "HtCap_Sys_T_OfficeOpn_E" = -67624.65   $ Sizing
 "HtCap_Sys_T_OfficeOpn_N" = -40688.59   $ Sizing
 "HtCap_Sys_T_OfficeOpn_S" = -71383.71   $ Sizing
 "HtCap_Sys_T_OfficeOpn_W" = -63822.49   $ Sizing
 "HtCap_Sys_T_OfficeSm_C" = -11641.15   $ Sizing
 "HtCap_Sys_T_OfficeSm_E" = -48931.61   $ Sizing
 "HtCap_Sys_T_OfficeSm_N" = -25392.42   $ Sizing
 "HtCap_Sys_T_OfficeSm_S" = -51754.59   $ Sizing
 "HtCap_Sys_T_OfficeSm_W" = -46166.64   $ Sizing
 "HtCap_Sys_T_Restrm_C" = -9122.774   $ Sizing
 "HtCap_Sys_T_StorSm_C" = -17851.27   $ Sizing
 "HtCap_T_Break_CZn" = 0   $ Sizing
 "HtCap_T_Conf_CZn" = 0   $ Sizing
 "HtCap_T_CopyRm_CZn" = 0   $ Sizing
 "HtCap_T_Cordr_CZn" = 0   $ Sizing
 "HtCap_T_Cordr_EZn" = 0   $ Sizing
 "HtCap_T_Cordr_NZn" = 0   $ Sizing
 "HtCap_T_Cordr_SZn" = 0   $ Sizing
 "HtCap_T_Cordr_WZn" = 0   $ Sizing
 "HtCap_T_LobWait_CZn" = 0   $ Sizing
 "HtCap_T_MechElec_CZn" = 0   $ Sizing
 "HtCap_T_OfficeOpn_CZn" = 0   $ Sizing
 "HtCap_T_OfficeOpn_EZn" = 0   $ Sizing
 "HtCap_T_OfficeOpn_NZn" = 0   $ Sizing
 "HtCap_T_OfficeOpn_SZn" = 0   $ Sizing
 "HtCap_T_OfficeOpn_WZn" = 0   $ Sizing
 "HtCap_T_OfficeSm_CZn" = 0   $ Sizing
 "HtCap_T_OfficeSm_EZn" = 0   $ Sizing
 "HtCap_T_OfficeSm_NZn" = 0   $ Sizing
 "HtCap_T_OfficeSm_SZn" = 0   $ Sizing
 "HtCap_T_OfficeSm_WZn" = 0   $ Sizing
 "HtCap_T_Restrm_CZn" = 0   $ Sizing
 "HtCap_T_StorSm_CZn" = 0   $ Sizing
..

##include Templates\OfL_DX_SZ.inp
END ..
COMPUTE ..
STOP ..
