
Start DOESIM : Storage capacity =  75000000
Starting LOADS   : SAVE-FILES is On , weather is CZ08FULLERTON-MUNICI
Finished LOADS    BDL  1 : Memory (wds) =    391958, Time (sec) =    2.39
Starting REPORT  
Finished REPORT   BDL  1 : Memory (wds) =    784896, Time (sec) =    0.86
Starting HVAC    : SAVE-FILES is On , weather is CZ08FULLERTON-MUNICI
*** ERRORS or WARNINGS from HVAC     program. Examine output file for details.
Finished HVAC     BDL  1 : Memory (wds) =    676489, Time (sec) =    7.48
Starting REPORT  
Finished REPORT   BDL  1 : Memory (wds) =   1186941, Time (sec) =    0.86
Starting HOURLY-R
Finished HOURLY-R BDL  1 : Memory (wds) =   1519802, Time (sec) =    0.14
Starting ECONOMIC
Finished ECONOMIC BDL  1 : Memory (wds) =      1034, Time (sec) =    0.02
End   DOESIM : Total elapsed time of     11.8 seconds
RUN COMPLETE
