
Start DOESIM : Storage capacity =  75000000
Starting LOADS   : SAVE-FILES is On , weather is CZ01ARCATA-AP       
Finished LOADS    BDL  1 : Memory (wds) =    243933, Time (sec) =    2.11
Starting REPORT  
Finished REPORT   BDL  1 : Memory (wds) =    481230, Time (sec) =    0.48
Starting HVAC    : SAVE-FILES is On , weather is CZ01ARCATA-AP       
*** ERRORS or WARNINGS from HVAC     program. Examine output file for details.
Finished HVAC     BDL  1 : Memory (wds) =    349769, Time (sec) =    3.42
Starting REPORT  
Finished REPORT   BDL  1 : Memory (wds) =    478533, Time (sec) =    0.20
Starting HOURLY-R
Finished HOURLY-R BDL  1 : Memory (wds) =    756895, Time (sec) =    0.14
Starting ECONOMIC
Finished ECONOMIC BDL  1 : Memory (wds) =      1034, Time (sec) =    0.04
End   DOESIM : Total elapsed time of      6.4 seconds
RUN COMPLETE
