INPUT ..

##fileprefix C:\Users\jglasskatz\MASControl3\
##set1 IsSizing FALSE
##set1 CoolType WCH
##set1 HeatType HOT-WATER
##set1 EU_HrRepVar 1
##set1 BldgVint 1975
##set1 BldgLoc CZ01

 ##set1 mChlrCap_fT DEFAULT   $ IP Tech: ChlrScrW-150to299-0.79kWpTon
 ##set1 mChlrEIR_fPLR DEFAULT   $ IP Tech: ChlrScrW-150to299-0.79kWpTon
 ##set1 mChlrEIR_fT DEFAULT   $ IP Tech: ChlrScrW-150to299-0.79kWpTon
 ##set1 mChlrType Screw   $ IP Tech: ChlrScrW-150to299-0.79kWpTon
 ##set1 mCondType Water   $ IP Tech: ChlrScrW-150to299-0.79kWpTon
 ##set1 mSetupLdChlr FALSE   $ IP Tech: ChlrScrW-150to299-0.79kWpTon
 ##set1 mCHW_FlowCtrl Const   $ IP Tech: ChwFlowCtrlCst
 ##set1 mHW_FlowCtrl Const   $ IP Tech: HwFlowCtrlCst
 ##set1 mBlrIsCond FALSE   $ IP Tech: WBlr-300to2500-80p0Ec

PARAMETER
 "AltFactor" = 1.00753   $ IP Non-Tech
 "BldgEconoFlag" = 1   $ IP Non-Tech
 "BlrPrimLp" = BlrPrimLoop   $ IP Non-Tech
 "Break_EWSF" = 1   $ IP Non-Tech
 "Break_LWSF" = 1.1   $ IP Non-Tech
 "CDD_DBHi10" = 65   $ IP Non-Tech
 "CDD_DBHi7" = 68   $ IP Non-Tech
 "CDD_DBHi8" = 66   $ IP Non-Tech
 "CDD_DBHi9" = 77   $ IP Non-Tech
 "CDD_DBRange10" = 17   $ IP Non-Tech
 "CDD_DBRange7" = 11   $ IP Non-Tech
 "CDD_DBRange8" = 10   $ IP Non-Tech
 "CDD_DBRange9" = 29   $ IP Non-Tech
 "CDD_Day10" = 15   $ IP Non-Tech
 "CDD_Day7" = 16   $ IP Non-Tech
 "CDD_Day8" = 20   $ IP Non-Tech
 "CDD_Day9" = 17   $ IP Non-Tech
 "CDD_HrHi10" = 12   $ IP Non-Tech
 "CDD_HrHi7" = 12   $ IP Non-Tech
 "CDD_HrHi8" = 13   $ IP Non-Tech
 "CDD_HrHi9" = 17   $ IP Non-Tech
 "CDD_HrLo10" = 6   $ IP Non-Tech
 "CDD_HrLo7" = 3   $ IP Non-Tech
 "CDD_HrLo8" = 8   $ IP Non-Tech
 "CDD_HrLo9" = 4   $ IP Non-Tech
 "CDD_WB10" = 57.53039551   $ IP Non-Tech
 "CDD_WB7" = 59.29250717   $ IP Non-Tech
 "CDD_WB8" = 60.75350189   $ IP Non-Tech
 "CDD_WB9" = 61.08643341   $ IP Non-Tech
 "CZ_Category" = Tem   $ IP Non-Tech
 "ChwDesignDT" = 12   $ IP Non-Tech
 "ChwPipeHead" = 62   $ IP Non-Tech
 "ChwRetDT" = 0.038   $ IP Non-Tech
 "ChwSupDT" = 0.063   $ IP Non-Tech
 "ChwT" = 44   $ IP Non-Tech
 "ChwVintEconoFlag" = 1   $ IP Non-Tech
 "Conference_EWSF" = 1.15   $ IP Non-Tech
 "Conference_LWSF" = 1.4   $ IP Non-Tech
 "CoolSetT" = 55   $ IP Non-Tech
 "CoolType" = WCH   $ IP Non-Tech
 "CopyRoom_EWSF" = 1.725   $ IP Non-Tech
 "CopyRoom_LWSF" = 1.3   $ IP Non-Tech
 "CorridorStairway_EWSF" = 0.23   $ IP Non-Tech
 "CorridorStairway_LWSF" = 0.6   $ IP Non-Tech
 "CwPipeHead" = 20   $ IP Non-Tech
 "DesCoolT" = 75   $ IP Non-Tech
 "DesHeatT" = 73   $ IP Non-Tech
 "EconoEnthLimit" = 28   $ IP Non-Tech
 "EconoTempLimit" = 70   $ IP Non-Tech
 "Elevation" = 203   $ IP Non-Tech
 "HDD_CloudAmt1" = 0   $ IP Non-Tech
 "HDD_DBHi1" = 53   $ IP Non-Tech
 "HDD_DBRange1" = 20   $ IP Non-Tech
 "HDD_Day1" = 15   $ IP Non-Tech
 "HDD_HrHi1" = 14   $ IP Non-Tech
 "HDD_HrLo1" = 6   $ IP Non-Tech
 "HDD_WB1" = 42.3   $ IP Non-Tech
 "HDD_WindSpd1" = 12.7   $ IP Non-Tech
 "HeatSrc" = HOT-WATER   $ IP Non-Tech
 "HeatSrcTU" = HOT-WATER   $ IP Non-Tech
 "HeatType" = GasBlr   $ IP Non-Tech
 "HeatTypeTU" = HOT-WATER   $ IP Non-Tech
 "HwDesignDT" = 30   $ IP Non-Tech
 "HwPipeHead" = 40   $ IP Non-Tech
 "HwRetDT" = 0.3   $ IP Non-Tech
 "HwSupDT" = 0.5   $ IP Non-Tech
 "IndoorFanMode" = CONTINUOUS   $ IP Non-Tech
 "KT_TransferAir" = No   $ IP Non-Tech
 "Latitude" = 40.8   $ IP Non-Tech
 "LobbyWaiting_EWSF" = 0.5375   $ IP Non-Tech
 "LobbyWaiting_LWSF" = 1.3   $ IP Non-Tech
 "Longitude" = 124.2   $ IP Non-Tech
 "MZFanMechEff" = 0.68   $ IP Non-Tech
 "MZHasRetFan" = TRUE   $ IP Non-Tech
 "MZ_RFanWPerCfm" = 0.37   $ IP Non-Tech
 "MZ_SFanWPerCfm" = 0.71   $ IP Non-Tech
 "MaxSupT_MZ" = 95   $ IP Non-Tech
 "MaxSupT_SZ" = 105   $ IP Non-Tech
 "MaxSupT_TU" = 105   $ IP Non-Tech
 "MechElecRoom_EWSF" = 0.23   $ IP Non-Tech
 "MechElecRoom_LWSF" = 0.7   $ IP Non-Tech
 "MinCfmPerSF" = 0.4   $ IP Non-Tech
 "MinSupT" = 55   $ IP Non-Tech
 "OccCoolT" = 76   $ IP Non-Tech
 "OccHeatT" = 72   $ IP Non-Tech
 "OfficeOpen_EWSF" = 1.725   $ IP Non-Tech
 "OfficeOpen_LWSF" = 1.2   $ IP Non-Tech
 "OfficeSmall_EWSF" = 1.725   $ IP Non-Tech
 "OfficeSmall_LWSF" = 1.3   $ IP Non-Tech
 "PkgDxVintEconoFlag" = 0   $ IP Non-Tech
 "ReheatDeltaT" = 39   $ IP Non-Tech
 "Restroom_EWSF" = 0.23   $ IP Non-Tech
 "Restroom_LWSF" = 0.6   $ IP Non-Tech
 "SZFanMechEff" = 0.54   $ IP Non-Tech
 "SZHasRetFan" = TRUE   $ IP Non-Tech
 "SZ_Is_2Spd" = FALSE   $ IP Non-Tech
 "SZ_SFanWPerCfm" = 0.46   $ IP Non-Tech
 "StorageSmlCond_EWSF" = 0.23   $ IP Non-Tech
 "StorageSmlCond_LWSF" = 0.6   $ IP Non-Tech
 "T24GlzTbl" = CZTbl   $ IP Non-Tech
 "TermUnitFanMechEff" = 1   $ IP Non-Tech
 "TermUnitFanMode" = INTERMITTENT   $ IP Non-Tech
 "TermUnitFanWPerCfm" = 0.175   $ IP Non-Tech
 "TwrEIR" = 0.011   $ IP Non-Tech
 "TwrPipeHead" = 10   $ IP Non-Tech
 "TwrSetpt" = 80   $ IP Non-Tech
 "TwrStaticHead" = 15   $ IP Non-Tech
 "UnocCoolT" = 86   $ IP Non-Tech
 "UnocHeatT" = 62   $ IP Non-Tech
 "VAVMinFlow" = 0.3   $ IP Non-Tech
 "WlhpVintEconoFlag" = 0   $ IP Non-Tech
 "EconoCtrl" = OA-TEMP   $ IP Tech: AirEcono-OATemp
 "MaxOAFrac" = 0.85   $ IP Tech: AirEcono-OATemp
 "UseEconoVintApplic" = FALSE   $ IP Tech: AirEcono-OATemp
 "ChlrCapRange" = 150to299   $ IP Tech: ChlrScrW-150to299-0.79kWpTon
 "ChlrEff" = 0.79   $ IP Tech: ChlrScrW-150to299-0.79kWpTon
 "ChlrType" = Screw   $ IP Tech: ChlrScrW-150to299-0.79kWpTon
 "ChlrVSD" = NO   $ IP Tech: ChlrScrW-150to299-0.79kWpTon
 "CmpPerCkt" = NA   $ IP Tech: ChlrScrW-150to299-0.79kWpTon
 "CondRelief" = FALSE   $ IP Tech: ChlrScrW-150to299-0.79kWpTon
 "CondType" = Water   $ IP Tech: ChlrScrW-150to299-0.79kWpTon
 "EffUnits" = kWpTon   $ IP Tech: ChlrScrW-150to299-0.79kWpTon
 "IPLV" = -99   $ IP Tech: ChlrScrW-150to299-0.79kWpTon
 "CHW_FlowCtrl" = Const   $ IP Tech: ChwFlowCtrlCst
 "CHW_HdSensLoc" = AT-COILS   $ IP Tech: ChwFlowCtrlCst
 "CHW_HdSptCtrl" = FIXED   $ IP Tech: ChwFlowCtrlCst
 "CHWP_Encl" = Any   $ IP Tech: ChwPumpMtrEff-HI
 "CHWP_MotClass" = HI-EFF   $ IP Tech: ChwPumpMtrEff-HI
 "CHWP_MotHP" = Any   $ IP Tech: ChwPumpMtrEff-HI
 "CHWP_NEMA_DC" =    $ IP Tech: ChwPumpMtrEff-HI
 "CHWP_RPM" = Any   $ IP Tech: ChwPumpMtrEff-HI
 "CHWP_Volt" =    $ IP Tech: ChwPumpMtrEff-HI
 "CHW_MaxT" = 54   $ IP Tech: ChwTempCtrlReset
 "CHW_TempCtrl" = LOAD-RESET   $ IP Tech: ChwTempCtrlReset
 "DuctDT" = 2   $ IP Tech: ComDuctInsul-2
 "DuctAirLoss" = 0   $ IP Tech: ComDuctLeak-0
 "DuctLossOAFrac" = 0   $ IP Tech: ComDuctLeak-0
 "ComRoofInsCalc" = FromUo   $ IP Tech: ComRoofIns-Hvy-0.06
 "ComRoofInsR" = -999   $ IP Tech: ComRoofIns-Hvy-0.06
 "ComRoofUo" = 0.06   $ IP Tech: ComRoofIns-Hvy-0.06
 "ComEWInsCalc" = FromUo   $ IP Tech: ComWallIns-MFrm-0.18
 "ComEWInsR" = -999   $ IP Tech: ComWallIns-MFrm-0.18
 "ComEWUo" = 0.18   $ IP Tech: ComWallIns-MFrm-0.18
 "CWP_Encl" = Any   $ IP Tech: CwPumpMtrEff-HI
 "CWP_MotClass" = HI-EFF   $ IP Tech: CwPumpMtrEff-HI
 "CWP_MotHP" = Any   $ IP Tech: CwPumpMtrEff-HI
 "CWP_NEMA_DC" = Any   $ IP Tech: CwPumpMtrEff-HI
 "CWP_RPM" = Any   $ IP Tech: CwPumpMtrEff-HI
 "CWP_Volt" = Any   $ IP Tech: CwPumpMtrEff-HI
 "MotorClass" = HI-EFF   $ IP Tech: ExhFanMtr-High
 "HW_FlowCtrl" = Const   $ IP Tech: HwFlowCtrlCst
 "HW_HdSensLoc" = AT-COILS   $ IP Tech: HwFlowCtrlCst
 "HW_HdSptCtrl" = FIXED   $ IP Tech: HwFlowCtrlCst
 "HWP_Encl" = Any   $ IP Tech: HwPumpMtrEff-HI
 "HWP_MotClass" = HI-EFF   $ IP Tech: HwPumpMtrEff-HI
 "HWP_MotHP" = Any   $ IP Tech: HwPumpMtrEff-HI
 "HWP_NEMA_DC" = Any   $ IP Tech: HwPumpMtrEff-HI
 "HWP_RPM" = Any   $ IP Tech: HwPumpMtrEff-HI
 "HWP_Volt" = Any   $ IP Tech: HwPumpMtrEff-HI
 "HWResetOutsideHi" = -1   $ IP Tech: HwTempCtrlFixed
 "HWResetOutsideLo" = -1   $ IP Tech: HwTempCtrlFixed
 "HW_TempCtrl" = FIXED   $ IP Tech: HwTempCtrlFixed
 "ComN_SHGC" = 0.82   $ IP Tech: NResWin-ComN-1.23-0.82
 "ComN_UFactor" = 1.23   $ IP Tech: NResWin-ComN-1.23-0.82
 "ComN_VisTrans" = 0.9   $ IP Tech: NResWin-ComN-1.23-0.82
 "ComN_WinCode" = G1000   $ IP Tech: NResWin-ComN-1.23-0.82
 "ComN_WinFrmFrac" = 0.17   $ IP Tech: NResWin-ComN-1.23-0.82
 "ComN_WinFrmU" = 1   $ IP Tech: NResWin-ComN-1.23-0.82
 "ComO_SHGC" = 0.82   $ IP Tech: NResWin-ComO-1.23-0.82
 "ComO_UFactor" = 1.23   $ IP Tech: NResWin-ComO-1.23-0.82
 "ComO_VisTrans" = 0.9   $ IP Tech: NResWin-ComO-1.23-0.82
 "ComO_WinCode" = G1000   $ IP Tech: NResWin-ComO-1.23-0.82
 "ComO_WinFrmFrac" = 0.17   $ IP Tech: NResWin-ComO-1.23-0.82
 "ComO_WinFrmU" = 1   $ IP Tech: NResWin-ComO-1.23-0.82
 "LtgMsrApplic" = ALL   $ IP Tech: NonResLtgRefPre
 "LtgSav_CFL" = 0   $ IP Tech: NonResLtgRefPre
 "LtgSav_EX" = 0   $ IP Tech: NonResLtgRefPre
 "LtgSav_HB" = 0   $ IP Tech: NonResLtgRefPre
 "LtgSav_LF" = 0   $ IP Tech: NonResLtgRefPre
 "LtgSav_SP" = 0   $ IP Tech: NonResLtgRefPre
 "SATempCtrl" = RESET   $ IP Tech: SATempCtrl-Reset
 "TwrFanCtrl" = TWO-SPEED-FAN   $ IP Tech: TwrFanCtrl-2sp
 "TFan_Encl" = Any   $ IP Tech: TwrFanMtrEff-HI
 "TFan_MotClass" = HI-EFF   $ IP Tech: TwrFanMtrEff-HI
 "TFan_MotHP" = Any   $ IP Tech: TwrFanMtrEff-HI
 "TFan_NEMA_DC" = Any   $ IP Tech: TwrFanMtrEff-HI
 "TFan_RPM" = Any   $ IP Tech: TwrFanMtrEff-HI
 "TFan_Volt" = Any   $ IP Tech: TwrFanMtrEff-HI
 "Twr_TempCtrl" = FIXED   $ IP Tech: TwrTempCtrl-Cst
 "FanEIR_fPLR" = "ForCurve w Inlet Vanes FPLR"   $ IP Tech: VAVCtrl-Inlet-AnyHP
 "Fan_Control" = Inlet   $ IP Tech: VAVCtrl-Inlet-AnyHP
 "Motor_Horsepower" = AnyHP   $ IP Tech: VAVCtrl-Inlet-AnyHP
 "BlrCapRange" = 300to2500   $ IP Tech: WBlr-300to2500-80p0Ec
 "BlrDraftType" = FDr   $ IP Tech: WBlr-300to2500-80p0Ec
 "BlrEff" = 0.8   $ IP Tech: WBlr-300to2500-80p0Ec
 "BlrEffUnits" = Ec   $ IP Tech: WBlr-300to2500-80p0Ec
 "BlrEt" = 0.78   $ IP Tech: WBlr-300to2500-80p0Ec
 "BlrFluid" = Wtr   $ IP Tech: WBlr-300to2500-80p0Ec
 "BlrIsCond" = FALSE   $ IP Tech: WBlr-300to2500-80p0Ec
 "BlrT" = 165   $ IP Tech: WBlr-300to2500-80p0Ec
 "AltAdjFactor" = 1.007532   $ Sizing
 "CAssFlo_L_Break_CZn" = 325.3414   $ Sizing
 "CAssFlo_L_Conf_CZn" = 399.397   $ Sizing
 "CAssFlo_L_CopyRm_CZn" = 95.26625   $ Sizing
 "CAssFlo_L_Cordr_CZn" = 565.4379   $ Sizing
 "CAssFlo_L_Cordr_EZn" = 283.7033   $ Sizing
 "CAssFlo_L_Cordr_NZn" = 145.522   $ Sizing
 "CAssFlo_L_Cordr_SZn" = 327.0963   $ Sizing
 "CAssFlo_L_Cordr_WZn" = 284.931   $ Sizing
 "CAssFlo_L_LobWait_CZn" = 275.5261   $ Sizing
 "CAssFlo_L_MechElec_CZn" = 134.1697   $ Sizing
 "CAssFlo_L_OfficeOpn_CZn" = 1577.869   $ Sizing
 "CAssFlo_L_OfficeOpn_EZn" = 2401.259   $ Sizing
 "CAssFlo_L_OfficeOpn_NZn" = 839.407   $ Sizing
 "CAssFlo_L_OfficeOpn_SZn" = 2584.839   $ Sizing
 "CAssFlo_L_OfficeOpn_WZn" = 2359.922   $ Sizing
 "CAssFlo_L_OfficeSm_CZn" = 193.8259   $ Sizing
 "CAssFlo_L_OfficeSm_EZn" = 1771.319   $ Sizing
 "CAssFlo_L_OfficeSm_NZn" = 526.8923   $ Sizing
 "CAssFlo_L_OfficeSm_SZn" = 1958.007   $ Sizing
 "CAssFlo_L_OfficeSm_WZn" = 1760.734   $ Sizing
 "CAssFlo_L_Restrm_CZn" = 211.8611   $ Sizing
 "CAssFlo_L_StorSm_CZn" = 334.0894   $ Sizing
 "CAssFlo_M_Break_CZn" = 338.5228   $ Sizing
 "CAssFlo_M_Conf_CZn" = 420.4732   $ Sizing
 "CAssFlo_M_CopyRm_CZn" = 101.5404   $ Sizing
 "CAssFlo_M_Cordr_CZn" = 565.4379   $ Sizing
 "CAssFlo_M_Cordr_EZn" = 330.9862   $ Sizing
 "CAssFlo_M_Cordr_NZn" = 158.2342   $ Sizing
 "CAssFlo_M_Cordr_SZn" = 381.1336   $ Sizing
 "CAssFlo_M_Cordr_WZn" = 323.5449   $ Sizing
 "CAssFlo_M_LobWait_CZn" = 307.5967   $ Sizing
 "CAssFlo_M_MechElec_CZn" = 134.1697   $ Sizing
 "CAssFlo_M_OfficeOpn_CZn" = 1683.994   $ Sizing
 "CAssFlo_M_OfficeOpn_EZn" = 2541.374   $ Sizing
 "CAssFlo_M_OfficeOpn_NZn" = 983.3173   $ Sizing
 "CAssFlo_M_OfficeOpn_SZn" = 2844.979   $ Sizing
 "CAssFlo_M_OfficeOpn_WZn" = 2497.374   $ Sizing
 "CAssFlo_M_OfficeSm_CZn" = 223.2902   $ Sizing
 "CAssFlo_M_OfficeSm_EZn" = 1883.179   $ Sizing
 "CAssFlo_M_OfficeSm_NZn" = 627.7855   $ Sizing
 "CAssFlo_M_OfficeSm_SZn" = 2150.982   $ Sizing
 "CAssFlo_M_OfficeSm_WZn" = 1871.685   $ Sizing
 "CAssFlo_M_Restrm_CZn" = 211.8611   $ Sizing
 "CAssFlo_M_StorSm_CZn" = 334.0894   $ Sizing
 "CAssFlo_T_Break_CZn" = 329.3548   $ Sizing
 "CAssFlo_T_Conf_CZn" = 407.1039   $ Sizing
 "CAssFlo_T_CopyRm_CZn" = 98.71697   $ Sizing
 "CAssFlo_T_Cordr_CZn" = 565.4379   $ Sizing
 "CAssFlo_T_Cordr_EZn" = 297.8422   $ Sizing
 "CAssFlo_T_Cordr_NZn" = 139.779   $ Sizing
 "CAssFlo_T_Cordr_SZn" = 344.6792   $ Sizing
 "CAssFlo_T_Cordr_WZn" = 291.7199   $ Sizing
 "CAssFlo_T_LobWait_CZn" = 275.5261   $ Sizing
 "CAssFlo_T_MechElec_CZn" = 134.1697   $ Sizing
 "CAssFlo_T_OfficeOpn_CZn" = 1637.076   $ Sizing
 "CAssFlo_T_OfficeOpn_EZn" = 2350.806   $ Sizing
 "CAssFlo_T_OfficeOpn_NZn" = 943.715   $ Sizing
 "CAssFlo_T_OfficeOpn_SZn" = 2635.49   $ Sizing
 "CAssFlo_T_OfficeOpn_WZn" = 2316.231   $ Sizing
 "CAssFlo_T_OfficeSm_CZn" = 213.9952   $ Sizing
 "CAssFlo_T_OfficeSm_EZn" = 1781.465   $ Sizing
 "CAssFlo_T_OfficeSm_NZn" = 605.7103   $ Sizing
 "CAssFlo_T_OfficeSm_SZn" = 2034.374   $ Sizing
 "CAssFlo_T_OfficeSm_WZn" = 1775.001   $ Sizing
 "CAssFlo_T_Restrm_CZn" = 211.8611   $ Sizing
 "CAssFlo_T_StorSm_CZn" = 334.0894   $ Sizing
 "CBF_Sys_L" = 0.04506181   $ Sizing
 "CBF_Sys_M" = 0.04503998   $ Sizing
 "CBF_Sys_T" = 0.04475723   $ Sizing
 "CHRtFlo_L_Break_CZn" = 216.6311   $ Sizing
 "CHRtFlo_L_Conf_CZn" = 281.7439   $ Sizing
 "CHRtFlo_L_CopyRm_CZn" = 88.37569   $ Sizing
 "CHRtFlo_L_Cordr_CZn" = 212.0392   $ Sizing
 "CHRtFlo_L_Cordr_EZn" = 125.6953   $ Sizing
 "CHRtFlo_L_Cordr_NZn" = 145.522   $ Sizing
 "CHRtFlo_L_Cordr_SZn" = 98.12891   $ Sizing
 "CHRtFlo_L_Cordr_WZn" = 121.5652   $ Sizing
 "CHRtFlo_L_LobWait_CZn" = 223.8649   $ Sizing
 "CHRtFlo_L_MechElec_CZn" = 50.31363   $ Sizing
 "CHRtFlo_L_OfficeOpn_CZn" = 473.3606   $ Sizing
 "CHRtFlo_L_OfficeOpn_EZn" = 720.3777   $ Sizing
 "CHRtFlo_L_OfficeOpn_NZn" = 584.8464   $ Sizing
 "CHRtFlo_L_OfficeOpn_SZn" = 775.4518   $ Sizing
 "CHRtFlo_L_OfficeOpn_WZn" = 707.9767   $ Sizing
 "CHRtFlo_L_OfficeSm_CZn" = 58.14776   $ Sizing
 "CHRtFlo_L_OfficeSm_EZn" = 531.3956   $ Sizing
 "CHRtFlo_L_OfficeSm_NZn" = 526.8923   $ Sizing
 "CHRtFlo_L_OfficeSm_SZn" = 587.4022   $ Sizing
 "CHRtFlo_L_OfficeSm_WZn" = 528.2203   $ Sizing
 "CHRtFlo_L_Restrm_CZn" = 63.55833   $ Sizing
 "CHRtFlo_L_StorSm_CZn" = 167.6097   $ Sizing
 "CHRtFlo_M_Break_CZn" = 216.6311   $ Sizing
 "CHRtFlo_M_Conf_CZn" = 281.7439   $ Sizing
 "CHRtFlo_M_CopyRm_CZn" = 88.37569   $ Sizing
 "CHRtFlo_M_Cordr_CZn" = 275.819   $ Sizing
 "CHRtFlo_M_Cordr_EZn" = 142.6358   $ Sizing
 "CHRtFlo_M_Cordr_NZn" = 158.2342   $ Sizing
 "CHRtFlo_M_Cordr_SZn" = 114.3401   $ Sizing
 "CHRtFlo_M_Cordr_WZn" = 133.572   $ Sizing
 "CHRtFlo_M_LobWait_CZn" = 223.8649   $ Sizing
 "CHRtFlo_M_MechElec_CZn" = 56.47673   $ Sizing
 "CHRtFlo_M_OfficeOpn_CZn" = 505.1981   $ Sizing
 "CHRtFlo_M_OfficeOpn_EZn" = 762.4121   $ Sizing
 "CHRtFlo_M_OfficeOpn_NZn" = 641.7549   $ Sizing
 "CHRtFlo_M_OfficeOpn_SZn" = 853.4937   $ Sizing
 "CHRtFlo_M_OfficeOpn_WZn" = 749.2122   $ Sizing
 "CHRtFlo_M_OfficeSm_CZn" = 66.98705   $ Sizing
 "CHRtFlo_M_OfficeSm_EZn" = 564.9536   $ Sizing
 "CHRtFlo_M_OfficeSm_NZn" = 565.7945   $ Sizing
 "CHRtFlo_M_OfficeSm_SZn" = 645.2946   $ Sizing
 "CHRtFlo_M_OfficeSm_WZn" = 561.5055   $ Sizing
 "CHRtFlo_M_Restrm_CZn" = 106.5631   $ Sizing
 "CHRtFlo_M_StorSm_CZn" = 183.9346   $ Sizing
 "CHRtFlo_T_Break_CZn" = 216.6311   $ Sizing
 "CHRtFlo_T_Conf_CZn" = 281.7439   $ Sizing
 "CHRtFlo_T_CopyRm_CZn" = 88.37569   $ Sizing
 "CHRtFlo_T_Cordr_CZn" = 212.0392   $ Sizing
 "CHRtFlo_T_Cordr_EZn" = 122.1148   $ Sizing
 "CHRtFlo_T_Cordr_NZn" = 139.779   $ Sizing
 "CHRtFlo_T_Cordr_SZn" = 103.4038   $ Sizing
 "CHRtFlo_T_Cordr_WZn" = 112.4156   $ Sizing
 "CHRtFlo_T_LobWait_CZn" = 223.8649   $ Sizing
 "CHRtFlo_T_MechElec_CZn" = 116.7342   $ Sizing
 "CHRtFlo_T_OfficeOpn_CZn" = 491.1228   $ Sizing
 "CHRtFlo_T_OfficeOpn_EZn" = 705.2419   $ Sizing
 "CHRtFlo_T_OfficeOpn_NZn" = 574.6817   $ Sizing
 "CHRtFlo_T_OfficeOpn_SZn" = 790.6472   $ Sizing
 "CHRtFlo_T_OfficeOpn_WZn" = 694.8693   $ Sizing
 "CHRtFlo_T_OfficeSm_CZn" = 64.19858   $ Sizing
 "CHRtFlo_T_OfficeSm_EZn" = 534.4396   $ Sizing
 "CHRtFlo_T_OfficeSm_NZn" = 520.5707   $ Sizing
 "CHRtFlo_T_OfficeSm_SZn" = 610.3123   $ Sizing
 "CHRtFlo_T_OfficeSm_WZn" = 532.5005   $ Sizing
 "CHRtFlo_T_Restrm_CZn" = 63.55833   $ Sizing
 "CHRtFlo_T_StorSm_CZn" = 125.2835   $ Sizing
 "CRtdFlo_Sys_L" = 13602.95   $ Sizing
 "CRtdFlo_Sys_M" = 121775.5   $ Sizing
 "CRtdFlo_Sys_T" = 14636.44   $ Sizing
 "CSupFlo_Sys_L" = 13602.95   $ Sizing
 "CSupFlo_Sys_M" = 121775.2   $ Sizing
 "CSupFlo_Sys_T" = 14636.41   $ Sizing
 "Cap_Boiler1" = -1.174916   $ Sizing
 "Cap_Boiler2" = -1.174916   $ Sizing
 "Cap_Chiller1" = 2.094867   $ Sizing
 "Cap_Chiller2" = 2.094868   $ Sizing
 "ClCap_Sys_L" = 357128.1   $ Sizing
 "ClCap_Sys_M" = 3198154   $ Sizing
 "ClCap_Sys_T" = 385982.3   $ Sizing
 "HRtEDB_L_Break_CZn" = 56.38581   $ Sizing
 "HRtEDB_L_Conf_CZn" = 56.38581   $ Sizing
 "HRtEDB_L_CopyRm_CZn" = 56.38581   $ Sizing
 "HRtEDB_L_Cordr_CZn" = 56.50801   $ Sizing
 "HRtEDB_L_Cordr_EZn" = 56.50801   $ Sizing
 "HRtEDB_L_Cordr_NZn" = 56.50801   $ Sizing
 "HRtEDB_L_Cordr_SZn" = 56.50801   $ Sizing
 "HRtEDB_L_Cordr_WZn" = 56.50801   $ Sizing
 "HRtEDB_L_LobWait_CZn" = 56.50801   $ Sizing
 "HRtEDB_L_MechElec_CZn" = 56.50801   $ Sizing
 "HRtEDB_L_OfficeOpn_CZn" = 56.38581   $ Sizing
 "HRtEDB_L_OfficeOpn_EZn" = 56.38581   $ Sizing
 "HRtEDB_L_OfficeOpn_NZn" = 56.38581   $ Sizing
 "HRtEDB_L_OfficeOpn_SZn" = 56.38581   $ Sizing
 "HRtEDB_L_OfficeOpn_WZn" = 56.38581   $ Sizing
 "HRtEDB_L_OfficeSm_CZn" = 56.38581   $ Sizing
 "HRtEDB_L_OfficeSm_EZn" = 56.38581   $ Sizing
 "HRtEDB_L_OfficeSm_NZn" = 56.38581   $ Sizing
 "HRtEDB_L_OfficeSm_SZn" = 56.38581   $ Sizing
 "HRtEDB_L_OfficeSm_WZn" = 56.38581   $ Sizing
 "HRtEDB_L_Restrm_CZn" = 56.50801   $ Sizing
 "HRtEDB_L_StorSm_CZn" = 56.50801   $ Sizing
 "HRtEDB_M_Break_CZn" = 56.4255   $ Sizing
 "HRtEDB_M_Conf_CZn" = 56.4255   $ Sizing
 "HRtEDB_M_CopyRm_CZn" = 56.4255   $ Sizing
 "HRtEDB_M_Cordr_CZn" = 56.4255   $ Sizing
 "HRtEDB_M_Cordr_EZn" = 56.54631   $ Sizing
 "HRtEDB_M_Cordr_NZn" = 56.54631   $ Sizing
 "HRtEDB_M_Cordr_SZn" = 56.54631   $ Sizing
 "HRtEDB_M_Cordr_WZn" = 56.54631   $ Sizing
 "HRtEDB_M_LobWait_CZn" = 56.54631   $ Sizing
 "HRtEDB_M_MechElec_CZn" = 56.54631   $ Sizing
 "HRtEDB_M_OfficeOpn_CZn" = 56.4255   $ Sizing
 "HRtEDB_M_OfficeOpn_EZn" = 56.4255   $ Sizing
 "HRtEDB_M_OfficeOpn_NZn" = 56.4255   $ Sizing
 "HRtEDB_M_OfficeOpn_SZn" = 56.4255   $ Sizing
 "HRtEDB_M_OfficeOpn_WZn" = 56.4255   $ Sizing
 "HRtEDB_M_OfficeSm_CZn" = 56.4255   $ Sizing
 "HRtEDB_M_OfficeSm_EZn" = 56.4255   $ Sizing
 "HRtEDB_M_OfficeSm_NZn" = 56.4255   $ Sizing
 "HRtEDB_M_OfficeSm_SZn" = 56.4255   $ Sizing
 "HRtEDB_M_OfficeSm_WZn" = 56.4255   $ Sizing
 "HRtEDB_M_Restrm_CZn" = 56.4255   $ Sizing
 "HRtEDB_M_StorSm_CZn" = 56.57371   $ Sizing
 "HRtEDB_T_Break_CZn" = 55.77174   $ Sizing
 "HRtEDB_T_Conf_CZn" = 55.77174   $ Sizing
 "HRtEDB_T_CopyRm_CZn" = 55.77174   $ Sizing
 "HRtEDB_T_Cordr_CZn" = 53.37976   $ Sizing
 "HRtEDB_T_Cordr_EZn" = 53.37976   $ Sizing
 "HRtEDB_T_Cordr_NZn" = 53.37976   $ Sizing
 "HRtEDB_T_Cordr_SZn" = 53.37976   $ Sizing
 "HRtEDB_T_Cordr_WZn" = 53.37976   $ Sizing
 "HRtEDB_T_LobWait_CZn" = 53.37976   $ Sizing
 "HRtEDB_T_MechElec_CZn" = 53.37976   $ Sizing
 "HRtEDB_T_OfficeOpn_CZn" = 55.77174   $ Sizing
 "HRtEDB_T_OfficeOpn_EZn" = 55.77174   $ Sizing
 "HRtEDB_T_OfficeOpn_NZn" = 55.77174   $ Sizing
 "HRtEDB_T_OfficeOpn_SZn" = 55.77174   $ Sizing
 "HRtEDB_T_OfficeOpn_WZn" = 55.77174   $ Sizing
 "HRtEDB_T_OfficeSm_CZn" = 55.77174   $ Sizing
 "HRtEDB_T_OfficeSm_EZn" = 55.77174   $ Sizing
 "HRtEDB_T_OfficeSm_NZn" = 55.77174   $ Sizing
 "HRtEDB_T_OfficeSm_SZn" = 53.37976   $ Sizing
 "HRtEDB_T_OfficeSm_WZn" = 55.77174   $ Sizing
 "HRtEDB_T_Restrm_CZn" = 54.66815   $ Sizing
 "HRtEDB_T_StorSm_CZn" = 54.66815   $ Sizing
 "HWDT_Boiler1" = 10.87152   $ Sizing
 "HWDT_Boiler2" = 10.87152   $ Sizing
 "HtCap_L_Break_CZn" = -9011.559   $ Sizing
 "HtCap_L_Conf_CZn" = -11720.16   $ Sizing
 "HtCap_L_CopyRm_CZn" = -3676.309   $ Sizing
 "HtCap_L_Cordr_CZn" = -8794.373   $ Sizing
 "HtCap_L_Cordr_EZn" = -5213.239   $ Sizing
 "HtCap_L_Cordr_NZn" = -6035.556   $ Sizing
 "HtCap_L_Cordr_SZn" = -4069.918   $ Sizing
 "HtCap_L_Cordr_WZn" = -5041.945   $ Sizing
 "HtCap_L_LobWait_CZn" = -9284.848   $ Sizing
 "HtCap_L_MechElec_CZn" = -2086.769   $ Sizing
 "HtCap_L_OfficeOpn_CZn" = -19691.16   $ Sizing
 "HtCap_L_OfficeOpn_EZn" = -29966.73   $ Sizing
 "HtCap_L_OfficeOpn_NZn" = -24328.81   $ Sizing
 "HtCap_L_OfficeOpn_SZn" = -32257.74   $ Sizing
 "HtCap_L_OfficeOpn_WZn" = -29450.86   $ Sizing
 "HtCap_L_OfficeSm_CZn" = -2418.868   $ Sizing
 "HtCap_L_OfficeSm_EZn" = -22105.33   $ Sizing
 "HtCap_L_OfficeSm_NZn" = -21918   $ Sizing
 "HtCap_L_OfficeSm_SZn" = -24435.13   $ Sizing
 "HtCap_L_OfficeSm_WZn" = -21973.25   $ Sizing
 "HtCap_L_Restrm_CZn" = -2636.096   $ Sizing
 "HtCap_L_StorSm_CZn" = -6951.649   $ Sizing
 "HtCap_M_Break_CZn" = -9002.891   $ Sizing
 "HtCap_M_Conf_CZn" = -11708.89   $ Sizing
 "HtCap_M_CopyRm_CZn" = -3672.772   $ Sizing
 "HtCap_M_Cordr_CZn" = -11462.66   $ Sizing
 "HtCap_M_Cordr_EZn" = -5910.181   $ Sizing
 "HtCap_M_Cordr_NZn" = -6556.508   $ Sizing
 "HtCap_M_Cordr_SZn" = -4737.734   $ Sizing
 "HtCap_M_Cordr_WZn" = -5534.616   $ Sizing
 "HtCap_M_LobWait_CZn" = -9275.944   $ Sizing
 "HtCap_M_MechElec_CZn" = -2340.139   $ Sizing
 "HtCap_M_OfficeOpn_CZn" = -20995.34   $ Sizing
 "HtCap_M_OfficeOpn_EZn" = -31684.8   $ Sizing
 "HtCap_M_OfficeOpn_NZn" = -26670.45   $ Sizing
 "HtCap_M_OfficeOpn_SZn" = -35470.02   $ Sizing
 "HtCap_M_OfficeOpn_WZn" = -31136.23   $ Sizing
 "HtCap_M_OfficeSm_CZn" = -2783.89   $ Sizing
 "HtCap_M_OfficeSm_EZn" = -23478.7   $ Sizing
 "HtCap_M_OfficeSm_NZn" = -23513.64   $ Sizing
 "HtCap_M_OfficeSm_SZn" = -26817.56   $ Sizing
 "HtCap_M_OfficeSm_WZn" = -23335.39   $ Sizing
 "HtCap_M_Restrm_CZn" = -4428.616   $ Sizing
 "HtCap_M_StorSm_CZn" = -7620.76   $ Sizing
 "HtCap_T_Break_CZn" = -9155.028   $ Sizing
 "HtCap_T_Conf_CZn" = -11906.76   $ Sizing
 "HtCap_T_CopyRm_CZn" = -3734.838   $ Sizing
 "HtCap_T_Cordr_CZn" = -9509.148   $ Sizing
 "HtCap_T_Cordr_EZn" = -5476.382   $ Sizing
 "HtCap_T_Cordr_NZn" = -6268.554   $ Sizing
 "HtCap_T_Cordr_SZn" = -4637.264   $ Sizing
 "HtCap_T_Cordr_WZn" = -5041.409   $ Sizing
 "HtCap_T_LobWait_CZn" = -10039.49   $ Sizing
 "HtCap_T_MechElec_CZn" = -5235.083   $ Sizing
 "HtCap_T_OfficeOpn_CZn" = -20755.29   $ Sizing
 "HtCap_T_OfficeOpn_EZn" = -29804.17   $ Sizing
 "HtCap_T_OfficeOpn_NZn" = -24286.57   $ Sizing
 "HtCap_T_OfficeOpn_SZn" = -33413.47   $ Sizing
 "HtCap_T_OfficeOpn_WZn" = -29365.81   $ Sizing
 "HtCap_T_OfficeSm_CZn" = -2713.091   $ Sizing
 "HtCap_T_OfficeSm_EZn" = -22585.91   $ Sizing
 "HtCap_T_OfficeSm_NZn" = -21999.79   $ Sizing
 "HtCap_T_OfficeSm_SZn" = -27370.18   $ Sizing
 "HtCap_T_OfficeSm_WZn" = -22503.96   $ Sizing
 "HtCap_T_Restrm_CZn" = -2763.744   $ Sizing
 "HtCap_T_StorSm_CZn" = -5447.777   $ Sizing
 "LpFlo_BlrPrimLoop" = 213.8345   $ Sizing
 "LpFlo_BlrPrimLoop" = 213.8345   $ Sizing
 "LpFlo_ChlrPrimLoop" = 654.674   $ Sizing
 "LpFlo_ChlrPrimLoop" = 654.674   $ Sizing
 "LpFlo_CircLp_Chw_L" = 59.32197   $ Sizing
 "LpFlo_CircLp_Chw_L" = 59.32197   $ Sizing
 "LpFlo_CircLp_Chw_M" = 531.2317   $ Sizing
 "LpFlo_CircLp_Chw_M" = 531.2317   $ Sizing
 "LpFlo_CircLp_Chw_T" = 64.12029   $ Sizing
 "LpFlo_CircLp_Chw_T" = 64.12029   $ Sizing
 "LpFlo_CircLp_Hw_L" = 19.98852   $ Sizing
 "LpFlo_CircLp_Hw_L" = 19.98852   $ Sizing
 "LpFlo_CircLp_Hw_M" = 173.1355   $ Sizing
 "LpFlo_CircLp_Hw_M" = 173.1355   $ Sizing
 "LpFlo_CircLp_Hw_T" = 20.71041   $ Sizing
 "LpFlo_CircLp_Hw_T" = 20.71041   $ Sizing
 "RtChwFlo_Chiller1" = 3.550627   $ Sizing
 "RtChwFlo_Chiller2" = 3.996803   $ Sizing
 "RtCndFlo_Chiller1" = 2.665101   $ Sizing
 "RtCndFlo_Chiller2" = 3   $ Sizing
 "RtdEDB_Sys_L" = 75.9507   $ Sizing
 "RtdEDB_Sys_M" = 76.008   $ Sizing
 "RtdEDB_Sys_T" = 76.08564   $ Sizing
 "RtdEWB_Sys_L" = 61.53197   $ Sizing
 "RtdEWB_Sys_M" = 61.53266   $ Sizing
 "RtdEWB_Sys_T" = 61.56683   $ Sizing
 "SUtime_Boiler1" = 0.083   $ Sizing
 "SUtime_Boiler2" = 0.083   $ Sizing
..

##include Templates\OfL_CH_MZ.inp
END ..
COMPUTE ..
STOP ..
