INPUT ..

##fileprefix C:\Users\jglasskatz\MASControl3\
##set1 IsSizing FALSE
##set1 CoolType DX
##set1 HeatType FURNACE
##set1 EU_HrRepVar 0
##set1 BldgVint 2003
##set1 BldgLoc CZ01

 ##set1 mBFMult 1   $ IP Tech: RefgChg-NRes-Std

PARAMETER
 "AltFactor" = 1.00753   $ IP Non-Tech
 "BF_fFlow" = SpltAC2SpHiSEER_BF_fFlow   $ Msr (Multi)TechID: MsrNResSplitAC-45to55-S17
 "BF_fT" = SpltAC2SpHiSEER_BF_fT   $ Msr (Multi)TechID: MsrNResSplitAC-45to55-S17
 "BldgEconoFlag" = 1   $ IP Non-Tech
 "Break_EWSF" = 1   $ IP Non-Tech
 "Break_LWSF" = 1.1   $ IP Non-Tech
 "CDD_DBHi10" = 65   $ IP Non-Tech
 "CDD_DBHi7" = 68   $ IP Non-Tech
 "CDD_DBHi8" = 66   $ IP Non-Tech
 "CDD_DBHi9" = 77   $ IP Non-Tech
 "CDD_DBRange10" = 17   $ IP Non-Tech
 "CDD_DBRange7" = 11   $ IP Non-Tech
 "CDD_DBRange8" = 10   $ IP Non-Tech
 "CDD_DBRange9" = 29   $ IP Non-Tech
 "CDD_Day10" = 15   $ IP Non-Tech
 "CDD_Day7" = 16   $ IP Non-Tech
 "CDD_Day8" = 20   $ IP Non-Tech
 "CDD_Day9" = 17   $ IP Non-Tech
 "CDD_HrHi10" = 12   $ IP Non-Tech
 "CDD_HrHi7" = 12   $ IP Non-Tech
 "CDD_HrHi8" = 13   $ IP Non-Tech
 "CDD_HrHi9" = 17   $ IP Non-Tech
 "CDD_HrLo10" = 6   $ IP Non-Tech
 "CDD_HrLo7" = 3   $ IP Non-Tech
 "CDD_HrLo8" = 8   $ IP Non-Tech
 "CDD_HrLo9" = 4   $ IP Non-Tech
 "CDD_WB10" = 57.53039551   $ IP Non-Tech
 "CDD_WB7" = 59.29250717   $ IP Non-Tech
 "CDD_WB8" = 60.75350189   $ IP Non-Tech
 "CDD_WB9" = 61.08643341   $ IP Non-Tech
 "CEIR_fPLR_Hot" = SpltAC2SpHiSEER_CEIR_fPLR_Hot   $ Msr (Multi)TechID: MsrNResSplitAC-45to55-S17
 "CEIR_fPLR_Mod" = SpltAC2SpHiSEER_CEIR_fPLR_Mod   $ Msr (Multi)TechID: MsrNResSplitAC-45to55-S17
 "CEIR_fPLR_Tem" = SpltAC2SpHiSEER_CEIR_fPLR_Tem   $ Msr (Multi)TechID: MsrNResSplitAC-45to55-S17
 "CLoss_fPLR_Hot" = SpltAC2SpHiSEER_CLoss_fPLR_Hot   $ Msr (Multi)TechID: MsrNResSplitAC-45to55-S17
 "CLoss_fPLR_Mod" = SpltAC2SpHiSEER_CLoss_fPLR_Mod   $ Msr (Multi)TechID: MsrNResSplitAC-45to55-S17
 "CLoss_fPLR_Tem" = SpltAC2SpHiSEER_CLoss_fPLR_Tem   $ Msr (Multi)TechID: MsrNResSplitAC-45to55-S17
 "COP47" = 0   $ Msr (Multi)TechID: MsrNResSplitAC-45to55-S17
 "CZ_Category" = Tem   $ IP Non-Tech
 "CapRange" = Any   $ Msr (Multi)TechID: MsrNResSplitAC-45to55-S17
 "CfmPerBtuh" = 0.03   $ Msr (Multi)TechID: MsrNResSplitAC-45to55-S17
 "ChwVintEconoFlag" = 1   $ IP Non-Tech
 "ClCap_fT" = SpltAC2SpHiSEER_ClCap_fT   $ Msr (Multi)TechID: MsrNResSplitAC-45to55-S17
 "ClSH_fT" = SpltAC2SpHiSEER_ClSH_fT   $ Msr (Multi)TechID: MsrNResSplitAC-45to55-S17
 "CoilBF" = 0.102   $ Msr (Multi)TechID: MsrNResSplitAC-45to55-S17
 "CondWPerBtuh" = 0   $ Msr (Multi)TechID: MsrNResSplitAC-45to55-S17
 "Conference_EWSF" = 1   $ IP Non-Tech
 "Conference_LWSF" = 1.4   $ IP Non-Tech
 "CoolSensCap" = 0.724   $ Msr (Multi)TechID: MsrNResSplitAC-45to55-S17
 "CoolSetT" = 45   $ IP Non-Tech
 "CoolType" = DX   $ IP Non-Tech
 "CoolingEIR" = 0.2225   $ Msr (Multi)TechID: MsrNResSplitAC-45to55-S17
 "CopyRoom_EWSF" = 1.5   $ IP Non-Tech
 "CopyRoom_LWSF" = 1.3   $ IP Non-Tech
 "CorridorStairway_EWSF" = 0.2   $ IP Non-Tech
 "CorridorStairway_LWSF" = 0.6   $ IP Non-Tech
 "CrnkEIR" = 0.002225   $ Msr (Multi)TechID: MsrNResSplitAC-45to55-S17
 "CrnkMaxT" = 50   $ Msr (Multi)TechID: MsrNResSplitAC-45to55-S17
 "DXType" = SplitSEER   $ Msr (Multi)TechID: MsrNResSplitAC-45to55-S17
 "DesCoolT" = 75   $ IP Non-Tech
 "DesHeatT" = 73   $ IP Non-Tech
 "EER" = 13.26   $ Msr (Multi)TechID: MsrNResSplitAC-45to55-S17
 "EIR_fT" = SpltAC2SpHiSEER_EIR_fT   $ Msr (Multi)TechID: MsrNResSplitAC-45to55-S17
 "EconoCtrl" = FIXED   $ Msr (Multi)TechID: MsrNResSplitAC-45to55-S17
 "EconoEnthLimit" = 28   $ IP Non-Tech
 "EconoTempLimit" = 70   $ IP Non-Tech
 "Elevation" = 203   $ IP Non-Tech
 "FanEirPlr" = TwoSpeedFan   $ Msr (Multi)TechID: MsrNResSplitAC-45to55-S17
 "FanWPerCfm" = 0.271   $ Msr (Multi)TechID: MsrNResSplitAC-45to55-S17
 "HDD_CloudAmt1" = 0   $ IP Non-Tech
 "HDD_DBHi1" = 53   $ IP Non-Tech
 "HDD_DBRange1" = 20   $ IP Non-Tech
 "HDD_Day1" = 15   $ IP Non-Tech
 "HDD_HrHi1" = 14   $ IP Non-Tech
 "HDD_HrLo1" = 6   $ IP Non-Tech
 "HDD_WB1" = 42.3   $ IP Non-Tech
 "HDD_WindSpd1" = 12.7   $ IP Non-Tech
 "HIR_fT" = 0   $ Msr (Multi)TechID: MsrNResSplitAC-45to55-S17
 "HSPF" = 0   $ Msr (Multi)TechID: MsrNResSplitAC-45to55-S17
 "HeatSrc" = FURNACE   $ IP Non-Tech
 "HeatSrcTU" = HEAT-PUMP   $ IP Non-Tech
 "HeatType" = GasFurn   $ IP Non-Tech
 "HeatTypeTU" = HEAT-PUMP   $ IP Non-Tech
 "HtCap_fT" = 0   $ Msr (Multi)TechID: MsrNResSplitAC-45to55-S17
 "HtCoolCapRatio" = 0   $ Msr (Multi)TechID: MsrNResSplitAC-45to55-S17
 "HtgEIR" = 0   $ Msr (Multi)TechID: MsrNResSplitAC-45to55-S17
 "IndoorFanMode" = CONTINUOUS   $ IP Non-Tech
 "KT_TransferAir" = No   $ IP Non-Tech
 "Latitude" = 40.8   $ IP Non-Tech
 "LobbyWaiting_EWSF" = 0.5   $ IP Non-Tech
 "LobbyWaiting_LWSF" = 1.3   $ IP Non-Tech
 "Longitude" = 124.2   $ IP Non-Tech
 "LowSpdCapRatio" = 0.686   $ Msr (Multi)TechID: MsrNResSplitAC-45to55-S17
 "LowSpdCfmRatio" = 0.739   $ Msr (Multi)TechID: MsrNResSplitAC-45to55-S17
 "MZFanMechEff" = 0.58   $ IP Non-Tech
 "MZHasRetFan" = FALSE   $ IP Non-Tech
 "MZ_RFanWPerCfm" = 0.37   $ IP Non-Tech
 "MZ_SFanWPerCfm" = 0.71   $ IP Non-Tech
 "MZ_SupFanStatic" = 2.25   $ IP Non-Tech
 "MaxOAFrac" = 1   $ Msr (Multi)TechID: MsrNResSplitAC-45to55-S17
 "MaxSupT_MZ" = 100   $ IP Non-Tech
 "MaxSupT_SZ" = 100   $ IP Non-Tech
 "MaxSupT_TU" = 90   $ IP Non-Tech
 "MechElecRoom_EWSF" = 0.2   $ IP Non-Tech
 "MechElecRoom_LWSF" = 0.7   $ IP Non-Tech
 "MinCfmPerSF" = 0.4   $ IP Non-Tech
 "MinSupT" = 55   $ IP Non-Tech
 "NumStages" = 2   $ Msr (Multi)TechID: MsrNResSplitAC-45to55-S17
 "OccCoolT" = 76   $ IP Non-Tech
 "OccHeatT" = 72   $ IP Non-Tech
 "OfficeOpen_EWSF" = 1.5   $ IP Non-Tech
 "OfficeOpen_LWSF" = 1.2   $ IP Non-Tech
 "OfficeSmall_EWSF" = 1.5   $ IP Non-Tech
 "OfficeSmall_LWSF" = 1.3   $ IP Non-Tech
 "PkgDxVintEconoFlag" = 0   $ IP Non-Tech
 "Restroom_EWSF" = 0.2   $ IP Non-Tech
 "Restroom_LWSF" = 0.6   $ IP Non-Tech
 "SEER" = 17   $ Msr (Multi)TechID: MsrNResSplitAC-45to55-S17
 "SZFanMechEff" = 0.58   $ IP Non-Tech
 "SZHasRetFan" = FALSE   $ IP Non-Tech
 "SZ_Is_2Spd" = FALSE   $ IP Non-Tech
 "SZ_SFanWPerCfm" = 0.46   $ IP Non-Tech
 "SZ_SupFanStatic" = 0.75   $ IP Non-Tech
 "Sector" = Any   $ Msr (Multi)TechID: MsrNResSplitAC-45to55-S17
 "StorageSmlCond_EWSF" = 0.2   $ IP Non-Tech
 "StorageSmlCond_LWSF" = 0.6   $ IP Non-Tech
 "SubType" = AC   $ Msr (Multi)TechID: MsrNResSplitAC-45to55-S17
 "T24GlzTbl" = CZTbl   $ IP Non-Tech
 "TermUnitFanMechEff" = 1   $ IP Non-Tech
 "TermUnitFanMode" = INTERMITTENT   $ IP Non-Tech
 "TotCoolCap" = 58805   $ Msr (Multi)TechID: MsrNResSplitAC-45to55-S17
 "TwrSetpt" = 80   $ IP Non-Tech
 "UnocCoolT" = 86   $ IP Non-Tech
 "UnocHeatT" = 62   $ IP Non-Tech
 "UseEconoVintApplic" = FALSE   $ Msr (Multi)TechID: MsrNResSplitAC-45to55-S17
 "WlhpVintEconoFlag" = 0   $ IP Non-Tech
 "DuctDT" = 1   $ IP Tech: ComDuctInsul-1
 "DuctAirLoss" = 0   $ IP Tech: ComDuctLeak-0
 "DuctLossOAFrac" = 0   $ IP Tech: ComDuctLeak-0
 "ComRoofInsCalc" = FromUo   $ IP Tech: ComRoofIns-Hvy-0.06
 "ComRoofInsR" = -999   $ IP Tech: ComRoofIns-Hvy-0.06
 "ComRoofUo" = 0.06   $ IP Tech: ComRoofIns-Hvy-0.06
 "ComEWInsCalc" = FromUo   $ IP Tech: ComWallIns-MFrm-0.13
 "ComEWInsR" = -999   $ IP Tech: ComWallIns-MFrm-0.13
 "ComEWUo" = 0.13   $ IP Tech: ComWallIns-MFrm-0.13
 "ComN_SHGC" = 0.47   $ IP Tech: NResWin-ComN-0.47-0.47
 "ComN_UFactor" = 0.47   $ IP Tech: NResWin-ComN-0.47-0.47
 "ComN_VisTrans" = 0.75   $ IP Tech: NResWin-ComN-0.47-0.47
 "ComN_WinCode" = G2633   $ IP Tech: NResWin-ComN-0.47-0.47
 "ComN_WinFrmFrac" = 0.17   $ IP Tech: NResWin-ComN-0.47-0.47
 "ComN_WinFrmU" = 0.3   $ IP Tech: NResWin-ComN-0.47-0.47
 "ComO_SHGC" = 0.43   $ IP Tech: NResWin-ComO-0.47-0.43
 "ComO_UFactor" = 0.47   $ IP Tech: NResWin-ComO-0.47-0.43
 "ComO_VisTrans" = 0.68   $ IP Tech: NResWin-ComO-0.47-0.43
 "ComO_WinCode" = G2663   $ IP Tech: NResWin-ComO-0.47-0.43
 "ComO_WinFrmFrac" = 0.17   $ IP Tech: NResWin-ComO-0.47-0.43
 "ComO_WinFrmU" = 0.3   $ IP Tech: NResWin-ComO-0.47-0.43
 "LtgMsrApplic" = ALL   $ IP Tech: NonResLtgRefPre
 "LtgSav_CFL" = 0   $ IP Tech: NonResLtgRefPre
 "LtgSav_EX" = 0   $ IP Tech: NonResLtgRefPre
 "LtgSav_HB" = 0   $ IP Tech: NonResLtgRefPre
 "LtgSav_LF" = 0   $ IP Tech: NonResLtgRefPre
 "LtgSav_SP" = 0   $ IP Tech: NonResLtgRefPre
 "CEIR_fPLR" = PSZ65to135_CEIR_fPLR   $ IP Tech: PkgAC1SpH-65to135-E10
 "CLoss_fPLR" = PSZ65to135_CLoss_fPLR   $ IP Tech: PkgAC1SpH-65to135-E10
 "COP" = -1   $ IP Tech: PkgAC1SpH-65to135-E10
 "HtgFuel" = Gas   $ IP Tech: PkgAC1SpH-65to135-E10
 "IEER" = 11.87   $ IP Tech: PkgAC1SpH-65to135-E10
 "NominalCap" = 15   $ IP Tech: PkgAC1SpH-65to135-E10
 "RatedEER" = 10   $ IP Tech: PkgAC1SpH-65to135-E10
 "RatedSupMtrClass" = HiEff   $ IP Tech: PkgAC1SpH-65to135-E10
 "SizeRange" = 65to135   $ IP Tech: PkgAC1SpH-65to135-E10
 "SupMotEff" = 0.84   $ IP Tech: PkgAC1SpH-65to135-E10
 "Tier" = 0   $ IP Tech: PkgAC1SpH-65to135-E10
 "FanPwrMult" = 1   $ IP Tech: PkgFurn-0.80AFUE
 "FurnAFUE" = 0.8   $ IP Tech: PkgFurn-0.80AFUE
 "FurnEt" = 0.82   $ IP Tech: PkgFurn-0.80AFUE
 "FurnaceAuxKW" = 0.1   $ IP Tech: PkgFurn-0.80AFUE
 "HIR_fPLR" = Furnace-HIR-fPLR   $ IP Tech: PkgFurn-0.80AFUE
 "VSM" = FALSE   $ IP Tech: PkgFurn-0.80AFUE
 "BFMult" = 1   $ IP Tech: RefgChg-NRes-Std
 "CoolEirMult" = 1   $ IP Tech: RefgChg-NRes-Std
 "SensCoolCapMult" = 1   $ IP Tech: RefgChg-NRes-Std
 "TotCoolCapMult" = 1   $ IP Tech: RefgChg-NRes-Std
 "AltAdjFactor" = 1.007532   $ Sizing
 "CAssFlo_L_Break_CZn" = 363.0581   $ Sizing
 "CAssFlo_L_Conf_CZn" = 419.5556   $ Sizing
 "CAssFlo_L_CopyRm_CZn" = 105.6458   $ Sizing
 "CAssFlo_L_Cordr_CZn" = 565.4379   $ Sizing
 "CAssFlo_L_Cordr_EZn" = 188.0469   $ Sizing
 "CAssFlo_L_Cordr_NZn" = 94.24052   $ Sizing
 "CAssFlo_L_Cordr_SZn" = 200.0703   $ Sizing
 "CAssFlo_L_Cordr_WZn" = 179.9817   $ Sizing
 "CAssFlo_L_LobWait_CZn" = 348.4072   $ Sizing
 "CAssFlo_L_MechElec_CZn" = 134.1697   $ Sizing
 "CAssFlo_L_OfficeOpn_CZn" = 1657.861   $ Sizing
 "CAssFlo_L_OfficeOpn_EZn" = 1624.825   $ Sizing
 "CAssFlo_L_OfficeOpn_NZn" = 782.3724   $ Sizing
 "CAssFlo_L_OfficeOpn_SZn" = 1659.681   $ Sizing
 "CAssFlo_L_OfficeOpn_WZn" = 1564.016   $ Sizing
 "CAssFlo_L_OfficeSm_CZn" = 207.7244   $ Sizing
 "CAssFlo_L_OfficeSm_EZn" = 1139.687   $ Sizing
 "CAssFlo_L_OfficeSm_NZn" = 464.4529   $ Sizing
 "CAssFlo_L_OfficeSm_SZn" = 1193.534   $ Sizing
 "CAssFlo_L_OfficeSm_WZn" = 1085.884   $ Sizing
 "CAssFlo_L_Restrm_CZn" = 211.8611   $ Sizing
 "CAssFlo_L_StorSm_CZn" = 334.689   $ Sizing
 "CAssFlo_M_Break_CZn" = 401.4353   $ Sizing
 "CAssFlo_M_Conf_CZn" = 467.456   $ Sizing
 "CAssFlo_M_CopyRm_CZn" = 132.0252   $ Sizing
 "CAssFlo_M_Cordr_CZn" = 741.6728   $ Sizing
 "CAssFlo_M_Cordr_EZn" = 244.8376   $ Sizing
 "CAssFlo_M_Cordr_NZn" = 97.56524   $ Sizing
 "CAssFlo_M_Cordr_SZn" = 248.2156   $ Sizing
 "CAssFlo_M_Cordr_WZn" = 216.2552   $ Sizing
 "CAssFlo_M_LobWait_CZn" = 449.1164   $ Sizing
 "CAssFlo_M_MechElec_CZn" = 138.5956   $ Sizing
 "CAssFlo_M_OfficeOpn_CZn" = 1943.656   $ Sizing
 "CAssFlo_M_OfficeOpn_EZn" = 1817.096   $ Sizing
 "CAssFlo_M_OfficeOpn_NZn" = 937.2866   $ Sizing
 "CAssFlo_M_OfficeOpn_SZn" = 1862.111   $ Sizing
 "CAssFlo_M_OfficeOpn_WZn" = 1682.828   $ Sizing
 "CAssFlo_M_OfficeSm_CZn" = 266.7097   $ Sizing
 "CAssFlo_M_OfficeSm_EZn" = 1266.654   $ Sizing
 "CAssFlo_M_OfficeSm_NZn" = 559.8602   $ Sizing
 "CAssFlo_M_OfficeSm_SZn" = 1329.925   $ Sizing
 "CAssFlo_M_OfficeSm_WZn" = 1172.533   $ Sizing
 "CAssFlo_M_Restrm_CZn" = 211.8611   $ Sizing
 "CAssFlo_M_StorSm_CZn" = 359.5145   $ Sizing
 "CAssFlo_T_Break_CZn" = 375.7483   $ Sizing
 "CAssFlo_T_Conf_CZn" = 447.2997   $ Sizing
 "CAssFlo_T_CopyRm_CZn" = 125.0368   $ Sizing
 "CAssFlo_T_Cordr_CZn" = 657.787   $ Sizing
 "CAssFlo_T_Cordr_EZn" = 217.8454   $ Sizing
 "CAssFlo_T_Cordr_NZn" = 94.24052   $ Sizing
 "CAssFlo_T_Cordr_SZn" = 225.2513   $ Sizing
 "CAssFlo_T_Cordr_WZn" = 195.018   $ Sizing
 "CAssFlo_T_LobWait_CZn" = 415.9165   $ Sizing
 "CAssFlo_T_MechElec_CZn" = 146.0844   $ Sizing
 "CAssFlo_T_OfficeOpn_CZn" = 1816.738   $ Sizing
 "CAssFlo_T_OfficeOpn_EZn" = 1649.475   $ Sizing
 "CAssFlo_T_OfficeOpn_NZn" = 865.1516   $ Sizing
 "CAssFlo_T_OfficeOpn_SZn" = 1733.726   $ Sizing
 "CAssFlo_T_OfficeOpn_WZn" = 1542.848   $ Sizing
 "CAssFlo_T_OfficeSm_CZn" = 252.7101   $ Sizing
 "CAssFlo_T_OfficeSm_EZn" = 1184.725   $ Sizing
 "CAssFlo_T_OfficeSm_NZn" = 536.8815   $ Sizing
 "CAssFlo_T_OfficeSm_SZn" = 1266.844   $ Sizing
 "CAssFlo_T_OfficeSm_WZn" = 1104.458   $ Sizing
 "CAssFlo_T_Restrm_CZn" = 211.8611   $ Sizing
 "CAssFlo_T_StorSm_CZn" = 334.0894   $ Sizing
 "CHRtFlo_Sys_L_Break_C" = 363.0581   $ Sizing
 "CHRtFlo_Sys_L_Conf_C" = 419.5556   $ Sizing
 "CHRtFlo_Sys_L_CopyRm_C" = 105.6458   $ Sizing
 "CHRtFlo_Sys_L_Cordr_C" = 565.4379   $ Sizing
 "CHRtFlo_Sys_L_Cordr_E" = 188.0469   $ Sizing
 "CHRtFlo_Sys_L_Cordr_N" = 94.24052   $ Sizing
 "CHRtFlo_Sys_L_Cordr_S" = 200.0703   $ Sizing
 "CHRtFlo_Sys_L_Cordr_W" = 179.9817   $ Sizing
 "CHRtFlo_Sys_L_LobWait_C" = 348.4072   $ Sizing
 "CHRtFlo_Sys_L_MechElec_C" = 134.1697   $ Sizing
 "CHRtFlo_Sys_L_OfficeOpn_C" = 1657.861   $ Sizing
 "CHRtFlo_Sys_L_OfficeOpn_E" = 1624.825   $ Sizing
 "CHRtFlo_Sys_L_OfficeOpn_N" = 782.3724   $ Sizing
 "CHRtFlo_Sys_L_OfficeOpn_S" = 1659.681   $ Sizing
 "CHRtFlo_Sys_L_OfficeOpn_W" = 1564.016   $ Sizing
 "CHRtFlo_Sys_L_OfficeSm_C" = 207.7244   $ Sizing
 "CHRtFlo_Sys_L_OfficeSm_E" = 1139.687   $ Sizing
 "CHRtFlo_Sys_L_OfficeSm_N" = 464.4529   $ Sizing
 "CHRtFlo_Sys_L_OfficeSm_S" = 1193.534   $ Sizing
 "CHRtFlo_Sys_L_OfficeSm_W" = 1085.884   $ Sizing
 "CHRtFlo_Sys_L_Restrm_C" = 211.8611   $ Sizing
 "CHRtFlo_Sys_L_StorSm_C" = 334.689   $ Sizing
 "CHRtFlo_Sys_M_Break_C" = 3211.482   $ Sizing
 "CHRtFlo_Sys_M_Conf_C" = 3739.648   $ Sizing
 "CHRtFlo_Sys_M_CopyRm_C" = 1056.202   $ Sizing
 "CHRtFlo_Sys_M_Cordr_C" = 5933.382   $ Sizing
 "CHRtFlo_Sys_M_Cordr_E" = 1958.701   $ Sizing
 "CHRtFlo_Sys_M_Cordr_N" = 780.5219   $ Sizing
 "CHRtFlo_Sys_M_Cordr_S" = 1985.725   $ Sizing
 "CHRtFlo_Sys_M_Cordr_W" = 1730.042   $ Sizing
 "CHRtFlo_Sys_M_LobWait_C" = 3592.931   $ Sizing
 "CHRtFlo_Sys_M_MechElec_C" = 1108.765   $ Sizing
 "CHRtFlo_Sys_M_OfficeOpn_C" = 15549.25   $ Sizing
 "CHRtFlo_Sys_M_OfficeOpn_E" = 14536.76   $ Sizing
 "CHRtFlo_Sys_M_OfficeOpn_N" = 7498.293   $ Sizing
 "CHRtFlo_Sys_M_OfficeOpn_S" = 14896.88   $ Sizing
 "CHRtFlo_Sys_M_OfficeOpn_W" = 13462.63   $ Sizing
 "CHRtFlo_Sys_M_OfficeSm_C" = 2133.677   $ Sizing
 "CHRtFlo_Sys_M_OfficeSm_E" = 10133.24   $ Sizing
 "CHRtFlo_Sys_M_OfficeSm_N" = 4478.881   $ Sizing
 "CHRtFlo_Sys_M_OfficeSm_S" = 10639.4   $ Sizing
 "CHRtFlo_Sys_M_OfficeSm_W" = 9380.264   $ Sizing
 "CHRtFlo_Sys_M_Restrm_C" = 1694.889   $ Sizing
 "CHRtFlo_Sys_M_StorSm_C" = 2876.116   $ Sizing
 "CHRtFlo_Sys_T_Break_C" = 375.7483   $ Sizing
 "CHRtFlo_Sys_T_Conf_C" = 447.2997   $ Sizing
 "CHRtFlo_Sys_T_CopyRm_C" = 125.0368   $ Sizing
 "CHRtFlo_Sys_T_Cordr_C" = 657.787   $ Sizing
 "CHRtFlo_Sys_T_Cordr_E" = 217.8454   $ Sizing
 "CHRtFlo_Sys_T_Cordr_N" = 94.24052   $ Sizing
 "CHRtFlo_Sys_T_Cordr_S" = 225.2513   $ Sizing
 "CHRtFlo_Sys_T_Cordr_W" = 195.018   $ Sizing
 "CHRtFlo_Sys_T_LobWait_C" = 415.9165   $ Sizing
 "CHRtFlo_Sys_T_MechElec_C" = 146.0844   $ Sizing
 "CHRtFlo_Sys_T_OfficeOpn_C" = 1816.738   $ Sizing
 "CHRtFlo_Sys_T_OfficeOpn_E" = 1649.475   $ Sizing
 "CHRtFlo_Sys_T_OfficeOpn_N" = 865.1516   $ Sizing
 "CHRtFlo_Sys_T_OfficeOpn_S" = 1733.726   $ Sizing
 "CHRtFlo_Sys_T_OfficeOpn_W" = 1542.848   $ Sizing
 "CHRtFlo_Sys_T_OfficeSm_C" = 252.7101   $ Sizing
 "CHRtFlo_Sys_T_OfficeSm_E" = 1184.725   $ Sizing
 "CHRtFlo_Sys_T_OfficeSm_N" = 536.8815   $ Sizing
 "CHRtFlo_Sys_T_OfficeSm_S" = 1266.844   $ Sizing
 "CHRtFlo_Sys_T_OfficeSm_W" = 1104.458   $ Sizing
 "CHRtFlo_Sys_T_Restrm_C" = 211.8611   $ Sizing
 "CHRtFlo_Sys_T_StorSm_C" = 334.0894   $ Sizing
 "CRtdFlo_Sys_L_Break_C" = 363.0581   $ Sizing
 "CRtdFlo_Sys_L_Conf_C" = 419.5556   $ Sizing
 "CRtdFlo_Sys_L_CopyRm_C" = 105.6458   $ Sizing
 "CRtdFlo_Sys_L_Cordr_C" = 565.4379   $ Sizing
 "CRtdFlo_Sys_L_Cordr_E" = 188.0469   $ Sizing
 "CRtdFlo_Sys_L_Cordr_N" = 94.24052   $ Sizing
 "CRtdFlo_Sys_L_Cordr_S" = 200.0703   $ Sizing
 "CRtdFlo_Sys_L_Cordr_W" = 179.9817   $ Sizing
 "CRtdFlo_Sys_L_LobWait_C" = 348.4072   $ Sizing
 "CRtdFlo_Sys_L_MechElec_C" = 134.1697   $ Sizing
 "CRtdFlo_Sys_L_OfficeOpn_C" = 1657.861   $ Sizing
 "CRtdFlo_Sys_L_OfficeOpn_E" = 1624.825   $ Sizing
 "CRtdFlo_Sys_L_OfficeOpn_N" = 782.3724   $ Sizing
 "CRtdFlo_Sys_L_OfficeOpn_S" = 1659.681   $ Sizing
 "CRtdFlo_Sys_L_OfficeOpn_W" = 1564.016   $ Sizing
 "CRtdFlo_Sys_L_OfficeSm_C" = 207.7244   $ Sizing
 "CRtdFlo_Sys_L_OfficeSm_E" = 1139.687   $ Sizing
 "CRtdFlo_Sys_L_OfficeSm_N" = 464.4529   $ Sizing
 "CRtdFlo_Sys_L_OfficeSm_S" = 1193.534   $ Sizing
 "CRtdFlo_Sys_L_OfficeSm_W" = 1085.884   $ Sizing
 "CRtdFlo_Sys_L_Restrm_C" = 211.8611   $ Sizing
 "CRtdFlo_Sys_L_StorSm_C" = 334.689   $ Sizing
 "CRtdFlo_Sys_M_Break_C" = 3211.482   $ Sizing
 "CRtdFlo_Sys_M_Conf_C" = 3739.648   $ Sizing
 "CRtdFlo_Sys_M_CopyRm_C" = 1056.202   $ Sizing
 "CRtdFlo_Sys_M_Cordr_C" = 5933.382   $ Sizing
 "CRtdFlo_Sys_M_Cordr_E" = 1958.701   $ Sizing
 "CRtdFlo_Sys_M_Cordr_N" = 780.5219   $ Sizing
 "CRtdFlo_Sys_M_Cordr_S" = 1985.725   $ Sizing
 "CRtdFlo_Sys_M_Cordr_W" = 1730.042   $ Sizing
 "CRtdFlo_Sys_M_LobWait_C" = 3592.931   $ Sizing
 "CRtdFlo_Sys_M_MechElec_C" = 1108.765   $ Sizing
 "CRtdFlo_Sys_M_OfficeOpn_C" = 15549.25   $ Sizing
 "CRtdFlo_Sys_M_OfficeOpn_E" = 14536.76   $ Sizing
 "CRtdFlo_Sys_M_OfficeOpn_N" = 7498.293   $ Sizing
 "CRtdFlo_Sys_M_OfficeOpn_S" = 14896.88   $ Sizing
 "CRtdFlo_Sys_M_OfficeOpn_W" = 13462.63   $ Sizing
 "CRtdFlo_Sys_M_OfficeSm_C" = 2133.677   $ Sizing
 "CRtdFlo_Sys_M_OfficeSm_E" = 10133.24   $ Sizing
 "CRtdFlo_Sys_M_OfficeSm_N" = 4478.881   $ Sizing
 "CRtdFlo_Sys_M_OfficeSm_S" = 10639.4   $ Sizing
 "CRtdFlo_Sys_M_OfficeSm_W" = 9380.264   $ Sizing
 "CRtdFlo_Sys_M_Restrm_C" = 1694.889   $ Sizing
 "CRtdFlo_Sys_M_StorSm_C" = 2876.116   $ Sizing
 "CRtdFlo_Sys_T_Break_C" = 375.7483   $ Sizing
 "CRtdFlo_Sys_T_Conf_C" = 447.2997   $ Sizing
 "CRtdFlo_Sys_T_CopyRm_C" = 125.0368   $ Sizing
 "CRtdFlo_Sys_T_Cordr_C" = 657.787   $ Sizing
 "CRtdFlo_Sys_T_Cordr_E" = 217.8454   $ Sizing
 "CRtdFlo_Sys_T_Cordr_N" = 94.24052   $ Sizing
 "CRtdFlo_Sys_T_Cordr_S" = 225.2513   $ Sizing
 "CRtdFlo_Sys_T_Cordr_W" = 195.018   $ Sizing
 "CRtdFlo_Sys_T_LobWait_C" = 415.9165   $ Sizing
 "CRtdFlo_Sys_T_MechElec_C" = 146.0844   $ Sizing
 "CRtdFlo_Sys_T_OfficeOpn_C" = 1816.738   $ Sizing
 "CRtdFlo_Sys_T_OfficeOpn_E" = 1649.475   $ Sizing
 "CRtdFlo_Sys_T_OfficeOpn_N" = 865.1516   $ Sizing
 "CRtdFlo_Sys_T_OfficeOpn_S" = 1733.726   $ Sizing
 "CRtdFlo_Sys_T_OfficeOpn_W" = 1542.848   $ Sizing
 "CRtdFlo_Sys_T_OfficeSm_C" = 252.7101   $ Sizing
 "CRtdFlo_Sys_T_OfficeSm_E" = 1184.725   $ Sizing
 "CRtdFlo_Sys_T_OfficeSm_N" = 536.8815   $ Sizing
 "CRtdFlo_Sys_T_OfficeSm_S" = 1266.844   $ Sizing
 "CRtdFlo_Sys_T_OfficeSm_W" = 1104.458   $ Sizing
 "CRtdFlo_Sys_T_Restrm_C" = 211.8611   $ Sizing
 "CRtdFlo_Sys_T_StorSm_C" = 334.0894   $ Sizing
 "CSupFlo_Sys_L_Break_C" = 363.0581   $ Sizing
 "CSupFlo_Sys_L_Conf_C" = 419.5556   $ Sizing
 "CSupFlo_Sys_L_CopyRm_C" = 105.6458   $ Sizing
 "CSupFlo_Sys_L_Cordr_C" = 565.4379   $ Sizing
 "CSupFlo_Sys_L_Cordr_E" = 188.0469   $ Sizing
 "CSupFlo_Sys_L_Cordr_N" = 94.24052   $ Sizing
 "CSupFlo_Sys_L_Cordr_S" = 200.0703   $ Sizing
 "CSupFlo_Sys_L_Cordr_W" = 179.9817   $ Sizing
 "CSupFlo_Sys_L_LobWait_C" = 348.4072   $ Sizing
 "CSupFlo_Sys_L_MechElec_C" = 134.1697   $ Sizing
 "CSupFlo_Sys_L_OfficeOpn_C" = 1657.861   $ Sizing
 "CSupFlo_Sys_L_OfficeOpn_E" = 1624.825   $ Sizing
 "CSupFlo_Sys_L_OfficeOpn_N" = 782.3724   $ Sizing
 "CSupFlo_Sys_L_OfficeOpn_S" = 1659.681   $ Sizing
 "CSupFlo_Sys_L_OfficeOpn_W" = 1564.016   $ Sizing
 "CSupFlo_Sys_L_OfficeSm_C" = 207.7244   $ Sizing
 "CSupFlo_Sys_L_OfficeSm_E" = 1139.687   $ Sizing
 "CSupFlo_Sys_L_OfficeSm_N" = 464.4529   $ Sizing
 "CSupFlo_Sys_L_OfficeSm_S" = 1193.534   $ Sizing
 "CSupFlo_Sys_L_OfficeSm_W" = 1085.884   $ Sizing
 "CSupFlo_Sys_L_Restrm_C" = 211.8611   $ Sizing
 "CSupFlo_Sys_L_StorSm_C" = 334.689   $ Sizing
 "CSupFlo_Sys_M_Break_C" = 3211.482   $ Sizing
 "CSupFlo_Sys_M_Conf_C" = 3739.648   $ Sizing
 "CSupFlo_Sys_M_CopyRm_C" = 1056.202   $ Sizing
 "CSupFlo_Sys_M_Cordr_C" = 5933.382   $ Sizing
 "CSupFlo_Sys_M_Cordr_E" = 1958.701   $ Sizing
 "CSupFlo_Sys_M_Cordr_N" = 780.5219   $ Sizing
 "CSupFlo_Sys_M_Cordr_S" = 1985.725   $ Sizing
 "CSupFlo_Sys_M_Cordr_W" = 1730.042   $ Sizing
 "CSupFlo_Sys_M_LobWait_C" = 3592.931   $ Sizing
 "CSupFlo_Sys_M_MechElec_C" = 1108.765   $ Sizing
 "CSupFlo_Sys_M_OfficeOpn_C" = 15549.25   $ Sizing
 "CSupFlo_Sys_M_OfficeOpn_E" = 14536.76   $ Sizing
 "CSupFlo_Sys_M_OfficeOpn_N" = 7498.293   $ Sizing
 "CSupFlo_Sys_M_OfficeOpn_S" = 14896.88   $ Sizing
 "CSupFlo_Sys_M_OfficeOpn_W" = 13462.63   $ Sizing
 "CSupFlo_Sys_M_OfficeSm_C" = 2133.677   $ Sizing
 "CSupFlo_Sys_M_OfficeSm_E" = 10133.24   $ Sizing
 "CSupFlo_Sys_M_OfficeSm_N" = 4478.881   $ Sizing
 "CSupFlo_Sys_M_OfficeSm_S" = 10639.4   $ Sizing
 "CSupFlo_Sys_M_OfficeSm_W" = 9380.264   $ Sizing
 "CSupFlo_Sys_M_Restrm_C" = 1694.889   $ Sizing
 "CSupFlo_Sys_M_StorSm_C" = 2876.116   $ Sizing
 "CSupFlo_Sys_T_Break_C" = 375.7483   $ Sizing
 "CSupFlo_Sys_T_Conf_C" = 447.2997   $ Sizing
 "CSupFlo_Sys_T_CopyRm_C" = 125.0368   $ Sizing
 "CSupFlo_Sys_T_Cordr_C" = 657.787   $ Sizing
 "CSupFlo_Sys_T_Cordr_E" = 217.8454   $ Sizing
 "CSupFlo_Sys_T_Cordr_N" = 94.24052   $ Sizing
 "CSupFlo_Sys_T_Cordr_S" = 225.2513   $ Sizing
 "CSupFlo_Sys_T_Cordr_W" = 195.018   $ Sizing
 "CSupFlo_Sys_T_LobWait_C" = 415.9165   $ Sizing
 "CSupFlo_Sys_T_MechElec_C" = 146.0844   $ Sizing
 "CSupFlo_Sys_T_OfficeOpn_C" = 1816.738   $ Sizing
 "CSupFlo_Sys_T_OfficeOpn_E" = 1649.475   $ Sizing
 "CSupFlo_Sys_T_OfficeOpn_N" = 865.1516   $ Sizing
 "CSupFlo_Sys_T_OfficeOpn_S" = 1733.726   $ Sizing
 "CSupFlo_Sys_T_OfficeOpn_W" = 1542.848   $ Sizing
 "CSupFlo_Sys_T_OfficeSm_C" = 252.7101   $ Sizing
 "CSupFlo_Sys_T_OfficeSm_E" = 1184.725   $ Sizing
 "CSupFlo_Sys_T_OfficeSm_N" = 536.8815   $ Sizing
 "CSupFlo_Sys_T_OfficeSm_S" = 1266.844   $ Sizing
 "CSupFlo_Sys_T_OfficeSm_W" = 1104.458   $ Sizing
 "CSupFlo_Sys_T_Restrm_C" = 211.8611   $ Sizing
 "CSupFlo_Sys_T_StorSm_C" = 334.0894   $ Sizing
 "ClCap_Sys_L_Break_C" = 12354.65   $ Sizing
 "ClCap_Sys_L_Conf_C" = 18171.02   $ Sizing
 "ClCap_Sys_L_CopyRm_C" = 3595.064   $ Sizing
 "ClCap_Sys_L_Cordr_C" = 19241.51   $ Sizing
 "ClCap_Sys_L_Cordr_E" = 6399.123   $ Sizing
 "ClCap_Sys_L_Cordr_N" = 3206.949   $ Sizing
 "ClCap_Sys_L_Cordr_S" = 6808.272   $ Sizing
 "ClCap_Sys_L_Cordr_W" = 6124.67   $ Sizing
 "ClCap_Sys_L_LobWait_C" = 11856.09   $ Sizing
 "ClCap_Sys_L_MechElec_C" = 4565.713   $ Sizing
 "ClCap_Sys_L_OfficeOpn_C" = 56416.03   $ Sizing
 "ClCap_Sys_L_OfficeOpn_E" = 55291.84   $ Sizing
 "ClCap_Sys_L_OfficeOpn_N" = 26623.67   $ Sizing
 "ClCap_Sys_L_OfficeOpn_S" = 56477.95   $ Sizing
 "ClCap_Sys_L_OfficeOpn_W" = 53222.55   $ Sizing
 "ClCap_Sys_L_OfficeSm_C" = 7068.738   $ Sizing
 "ClCap_Sys_L_OfficeSm_E" = 38782.86   $ Sizing
 "ClCap_Sys_L_OfficeSm_N" = 15805.05   $ Sizing
 "ClCap_Sys_L_OfficeSm_S" = 40615.26   $ Sizing
 "ClCap_Sys_L_OfficeSm_W" = 36951.98   $ Sizing
 "ClCap_Sys_L_Restrm_C" = 7209.506   $ Sizing
 "ClCap_Sys_L_StorSm_C" = 11389.27   $ Sizing
 "ClCap_Sys_M_Break_C" = 109284.8   $ Sizing
 "ClCap_Sys_M_Conf_C" = 161964.7   $ Sizing
 "ClCap_Sys_M_CopyRm_C" = 35941.91   $ Sizing
 "ClCap_Sys_M_Cordr_C" = 201909.5   $ Sizing
 "ClCap_Sys_M_Cordr_E" = 66653.43   $ Sizing
 "ClCap_Sys_M_Cordr_N" = 26560.69   $ Sizing
 "ClCap_Sys_M_Cordr_S" = 67573.03   $ Sizing
 "ClCap_Sys_M_Cordr_W" = 58872.29   $ Sizing
 "ClCap_Sys_M_LobWait_C" = 122265.3   $ Sizing
 "ClCap_Sys_M_MechElec_C" = 37730.59   $ Sizing
 "ClCap_Sys_M_OfficeOpn_C" = 529131.6   $ Sizing
 "ClCap_Sys_M_OfficeOpn_E" = 494677.4   $ Sizing
 "ClCap_Sys_M_OfficeOpn_N" = 255162.4   $ Sizing
 "ClCap_Sys_M_OfficeOpn_S" = 506932.1   $ Sizing
 "ClCap_Sys_M_OfficeOpn_W" = 458125.2   $ Sizing
 "ClCap_Sys_M_OfficeSm_C" = 72607.77   $ Sizing
 "ClCap_Sys_M_OfficeSm_E" = 344827.9   $ Sizing
 "ClCap_Sys_M_OfficeSm_N" = 152413.7   $ Sizing
 "ClCap_Sys_M_OfficeSm_S" = 362052.3   $ Sizing
 "ClCap_Sys_M_OfficeSm_W" = 319204.8   $ Sizing
 "ClCap_Sys_M_Restrm_C" = 57676.05   $ Sizing
 "ClCap_Sys_M_StorSm_C" = 97872.52   $ Sizing
 "ClCap_Sys_T_Break_C" = 12786.49   $ Sizing
 "ClCap_Sys_T_Conf_C" = 19372.62   $ Sizing
 "ClCap_Sys_T_CopyRm_C" = 4254.927   $ Sizing
 "ClCap_Sys_T_Cordr_C" = 22384.1   $ Sizing
 "ClCap_Sys_T_Cordr_E" = 7413.148   $ Sizing
 "ClCap_Sys_T_Cordr_N" = 3206.949   $ Sizing
 "ClCap_Sys_T_Cordr_S" = 7665.167   $ Sizing
 "ClCap_Sys_T_Cordr_W" = 6636.344   $ Sizing
 "ClCap_Sys_T_LobWait_C" = 14153.39   $ Sizing
 "ClCap_Sys_T_MechElec_C" = 4971.164   $ Sizing
 "ClCap_Sys_T_OfficeOpn_C" = 61822.49   $ Sizing
 "ClCap_Sys_T_OfficeOpn_E" = 56130.66   $ Sizing
 "ClCap_Sys_T_OfficeOpn_N" = 29440.59   $ Sizing
 "ClCap_Sys_T_OfficeOpn_S" = 58997.65   $ Sizing
 "ClCap_Sys_T_OfficeOpn_W" = 52502.2   $ Sizing
 "ClCap_Sys_T_OfficeSm_C" = 8599.572   $ Sizing
 "ClCap_Sys_T_OfficeSm_E" = 40315.5   $ Sizing
 "ClCap_Sys_T_OfficeSm_N" = 18269.76   $ Sizing
 "ClCap_Sys_T_OfficeSm_S" = 43109.96   $ Sizing
 "ClCap_Sys_T_OfficeSm_W" = 37584.05   $ Sizing
 "ClCap_Sys_T_Restrm_C" = 7209.506   $ Sizing
 "ClCap_Sys_T_StorSm_C" = 11368.86   $ Sizing
 "HtCap_Sys_L_Break_C" = -20382.26   $ Sizing
 "HtCap_Sys_L_Conf_C" = -25015.74   $ Sizing
 "HtCap_Sys_L_CopyRm_C" = -7071.438   $ Sizing
 "HtCap_Sys_L_Cordr_C" = -25960.45   $ Sizing
 "HtCap_Sys_L_Cordr_E" = -7131.814   $ Sizing
 "HtCap_Sys_L_Cordr_N" = -4381.618   $ Sizing
 "HtCap_Sys_L_Cordr_S" = -7405.145   $ Sizing
 "HtCap_Sys_L_Cordr_W" = -6891.04   $ Sizing
 "HtCap_Sys_L_LobWait_C" = -20280.6   $ Sizing
 "HtCap_Sys_L_MechElec_C" = -6092.778   $ Sizing
 "HtCap_Sys_L_OfficeOpn_C" = -80773.63   $ Sizing
 "HtCap_Sys_L_OfficeOpn_E" = -56434.04   $ Sizing
 "HtCap_Sys_L_OfficeOpn_N" = -32003.11   $ Sizing
 "HtCap_Sys_L_OfficeOpn_S" = -56643.82   $ Sizing
 "HtCap_Sys_L_OfficeOpn_W" = -54616.64   $ Sizing
 "HtCap_Sys_L_OfficeSm_C" = -8581.875   $ Sizing
 "HtCap_Sys_L_OfficeSm_E" = -39444.3   $ Sizing
 "HtCap_Sys_L_OfficeSm_N" = -19437.53   $ Sizing
 "HtCap_Sys_L_OfficeSm_S" = -40381.41   $ Sizing
 "HtCap_Sys_L_OfficeSm_W" = -37921.33   $ Sizing
 "HtCap_Sys_L_Restrm_C" = -7630.95   $ Sizing
 "HtCap_Sys_L_StorSm_C" = -15639.84   $ Sizing
 "HtCap_Sys_M_Break_C" = -171778.1   $ Sizing
 "HtCap_Sys_M_Conf_C" = -211236.1   $ Sizing
 "HtCap_Sys_M_CopyRm_C" = -62694.66   $ Sizing
 "HtCap_Sys_M_Cordr_C" = -247518   $ Sizing
 "HtCap_Sys_M_Cordr_E" = -70037.01   $ Sizing
 "HtCap_Sys_M_Cordr_N" = -35757.07   $ Sizing
 "HtCap_Sys_M_Cordr_S" = -70042.91   $ Sizing
 "HtCap_Sys_M_Cordr_W" = -63359.6   $ Sizing
 "HtCap_Sys_M_LobWait_C" = -185469.2   $ Sizing
 "HtCap_Sys_M_MechElec_C" = -49736.47   $ Sizing
 "HtCap_Sys_M_OfficeOpn_C" = -756874   $ Sizing
 "HtCap_Sys_M_OfficeOpn_E" = -494438.9   $ Sizing
 "HtCap_Sys_M_OfficeOpn_N" = -291397.9   $ Sizing
 "HtCap_Sys_M_OfficeOpn_S" = -497379.1   $ Sizing
 "HtCap_Sys_M_OfficeOpn_W" = -463064.5   $ Sizing
 "HtCap_Sys_M_OfficeSm_C" = -82233.21   $ Sizing
 "HtCap_Sys_M_OfficeSm_E" = -343650.8   $ Sizing
 "HtCap_Sys_M_OfficeSm_N" = -177754   $ Sizing
 "HtCap_Sys_M_OfficeSm_S" = -354585.5   $ Sizing
 "HtCap_Sys_M_OfficeSm_W" = -322126.5   $ Sizing
 "HtCap_Sys_M_Restrm_C" = -65674.67   $ Sizing
 "HtCap_Sys_M_StorSm_C" = -126862.4   $ Sizing
 "HtCap_Sys_T_Break_C" = -21693.28   $ Sizing
 "HtCap_Sys_T_Conf_C" = -26744.14   $ Sizing
 "HtCap_Sys_T_CopyRm_C" = -7818.116   $ Sizing
 "HtCap_Sys_T_Cordr_C" = -32324.59   $ Sizing
 "HtCap_Sys_T_Cordr_E" = -9384.729   $ Sizing
 "HtCap_Sys_T_Cordr_N" = -4864.497   $ Sizing
 "HtCap_Sys_T_Cordr_S" = -9681.804   $ Sizing
 "HtCap_Sys_T_Cordr_W" = -8586.053   $ Sizing
 "HtCap_Sys_T_LobWait_C" = -23580.27   $ Sizing
 "HtCap_Sys_T_MechElec_C" = -6429.395   $ Sizing
 "HtCap_Sys_T_OfficeOpn_C" = -81261.65   $ Sizing
 "HtCap_Sys_T_OfficeOpn_E" = -65627.84   $ Sizing
 "HtCap_Sys_T_OfficeOpn_N" = -39638.68   $ Sizing
 "HtCap_Sys_T_OfficeOpn_S" = -69291.41   $ Sizing
 "HtCap_Sys_T_OfficeOpn_W" = -61946.1   $ Sizing
 "HtCap_Sys_T_OfficeSm_C" = -11334.8   $ Sizing
 "HtCap_Sys_T_OfficeSm_E" = -47495.94   $ Sizing
 "HtCap_Sys_T_OfficeSm_N" = -24739.87   $ Sizing
 "HtCap_Sys_T_OfficeSm_S" = -50221.4   $ Sizing
 "HtCap_Sys_T_OfficeSm_W" = -44829.82   $ Sizing
 "HtCap_Sys_T_Restrm_C" = -8861.099   $ Sizing
 "HtCap_Sys_T_StorSm_C" = -17438.19   $ Sizing
..

##include Templates\OfL_DX_SZ.inp
END ..
COMPUTE ..
STOP ..
