INPUT ..

##fileprefix C:\Users\jglasskatz\MASControl3\
##set1 IsSizing TRUE
##set1 CoolType WCH
##set1 HeatType HOT-WATER
##set1 EU_HrRepVar 1
##set1 BldgVint 2015
##set1 BldgLoc CZ01

 ##set1 mChlrCap_fT DEFAULT   $ IP Tech: ChlrScrW-150to299-0.68kWpTon
 ##set1 mChlrEIR_fPLR DEFAULT   $ IP Tech: ChlrScrW-150to299-0.68kWpTon
 ##set1 mChlrEIR_fT DEFAULT   $ IP Tech: ChlrScrW-150to299-0.68kWpTon
 ##set1 mChlrType Screw   $ IP Tech: ChlrScrW-150to299-0.68kWpTon
 ##set1 mCondType Water   $ IP Tech: ChlrScrW-150to299-0.68kWpTon
 ##set1 mSetupLdChlr FALSE   $ IP Tech: ChlrScrW-150to299-0.68kWpTon
 ##set1 mCHW_FlowCtrl VarSec   $ IP Tech: ChwFlowCtrlVarSec
 ##set1 mHW_FlowCtrl VarSec   $ IP Tech: HwFlowCtrlVarSec
 ##set1 mBlrIsCond FALSE   $ IP Tech: WBlr-300to2500-82p0Ec

PARAMETER
 "AltFactor" = 1.00753   $ IP Non-Tech
 "BldgEconoFlag" = 1   $ IP Non-Tech
 "BlrPrimLp" = BlrPrimLoop   $ IP Non-Tech
 "Break_EWSF" = 1   $ IP Non-Tech
 "Break_LWSF" = 1.1   $ IP Non-Tech
 "CDD_DBHi10" = 65   $ IP Non-Tech
 "CDD_DBHi7" = 68   $ IP Non-Tech
 "CDD_DBHi8" = 66   $ IP Non-Tech
 "CDD_DBHi9" = 77   $ IP Non-Tech
 "CDD_DBRange10" = 17   $ IP Non-Tech
 "CDD_DBRange7" = 11   $ IP Non-Tech
 "CDD_DBRange8" = 10   $ IP Non-Tech
 "CDD_DBRange9" = 29   $ IP Non-Tech
 "CDD_Day10" = 15   $ IP Non-Tech
 "CDD_Day7" = 16   $ IP Non-Tech
 "CDD_Day8" = 20   $ IP Non-Tech
 "CDD_Day9" = 17   $ IP Non-Tech
 "CDD_HrHi10" = 12   $ IP Non-Tech
 "CDD_HrHi7" = 12   $ IP Non-Tech
 "CDD_HrHi8" = 13   $ IP Non-Tech
 "CDD_HrHi9" = 17   $ IP Non-Tech
 "CDD_HrLo10" = 6   $ IP Non-Tech
 "CDD_HrLo7" = 3   $ IP Non-Tech
 "CDD_HrLo8" = 8   $ IP Non-Tech
 "CDD_HrLo9" = 4   $ IP Non-Tech
 "CDD_WB10" = 57.53039551   $ IP Non-Tech
 "CDD_WB7" = 59.29250717   $ IP Non-Tech
 "CDD_WB8" = 60.75350189   $ IP Non-Tech
 "CDD_WB9" = 61.08643341   $ IP Non-Tech
 "CZ_Category" = Tem   $ IP Non-Tech
 "ChwDesignDT" = 12   $ IP Non-Tech
 "ChwPipeHead" = 62   $ IP Non-Tech
 "ChwRetDT" = 0.03   $ IP Non-Tech
 "ChwSupDT" = 0.05   $ IP Non-Tech
 "ChwT" = 44   $ IP Non-Tech
 "ChwVintEconoFlag" = 1   $ IP Non-Tech
 "Conference_EWSF" = 1   $ IP Non-Tech
 "Conference_LWSF" = 1.4   $ IP Non-Tech
 "CoolSetT" = 55   $ IP Non-Tech
 "CoolType" = WCH   $ IP Non-Tech
 "CopyRoom_EWSF" = 1.5   $ IP Non-Tech
 "CopyRoom_LWSF" = 1.3   $ IP Non-Tech
 "CorridorStairway_EWSF" = 0.2   $ IP Non-Tech
 "CorridorStairway_LWSF" = 0.6   $ IP Non-Tech
 "CwPipeHead" = 20   $ IP Non-Tech
 "DesCoolT" = 75   $ IP Non-Tech
 "DesHeatT" = 73   $ IP Non-Tech
 "EconoEnthLimit" = 28   $ IP Non-Tech
 "EconoTempLimit" = 70   $ IP Non-Tech
 "Elevation" = 203   $ IP Non-Tech
 "HDD_CloudAmt1" = 0   $ IP Non-Tech
 "HDD_DBHi1" = 53   $ IP Non-Tech
 "HDD_DBRange1" = 20   $ IP Non-Tech
 "HDD_Day1" = 15   $ IP Non-Tech
 "HDD_HrHi1" = 14   $ IP Non-Tech
 "HDD_HrLo1" = 6   $ IP Non-Tech
 "HDD_WB1" = 42.3   $ IP Non-Tech
 "HDD_WindSpd1" = 12.7   $ IP Non-Tech
 "HeatSrc" = HOT-WATER   $ IP Non-Tech
 "HeatSrcTU" = HOT-WATER   $ IP Non-Tech
 "HeatType" = GasBlr   $ IP Non-Tech
 "HeatTypeTU" = HOT-WATER   $ IP Non-Tech
 "HwDesignDT" = 30   $ IP Non-Tech
 "HwPipeHead" = 40   $ IP Non-Tech
 "HwRetDT" = 0.3   $ IP Non-Tech
 "HwSupDT" = 0.5   $ IP Non-Tech
 "IndoorFanMode" = CONTINUOUS   $ IP Non-Tech
 "KT_TransferAir" = Yes   $ IP Non-Tech
 "Latitude" = 40.8   $ IP Non-Tech
 "LobbyWaiting_EWSF" = 0.5   $ IP Non-Tech
 "LobbyWaiting_LWSF" = 1.3   $ IP Non-Tech
 "Longitude" = 124.2   $ IP Non-Tech
 "MZFanMechEff" = 0.68   $ IP Non-Tech
 "MZHasRetFan" = TRUE   $ IP Non-Tech
 "MZ_RFanWPerCfm" = 0.37   $ IP Non-Tech
 "MZ_SFanWPerCfm" = 0.71   $ IP Non-Tech
 "MaxSupT_MZ" = 95   $ IP Non-Tech
 "MaxSupT_SZ" = 105   $ IP Non-Tech
 "MaxSupT_TU" = 105   $ IP Non-Tech
 "MechElecRoom_EWSF" = 0.2   $ IP Non-Tech
 "MechElecRoom_LWSF" = 0.7   $ IP Non-Tech
 "MinCfmPerSF" = 0.4   $ IP Non-Tech
 "MinSupT" = 55   $ IP Non-Tech
 "OccCoolT" = 76   $ IP Non-Tech
 "OccHeatT" = 72   $ IP Non-Tech
 "OfficeOpen_EWSF" = 1.5   $ IP Non-Tech
 "OfficeOpen_LWSF" = 1.05   $ IP Non-Tech
 "OfficeSmall_EWSF" = 1.5   $ IP Non-Tech
 "OfficeSmall_LWSF" = 1.3   $ IP Non-Tech
 "PkgDxVintEconoFlag" = 1   $ IP Non-Tech
 "ReheatDeltaT" = 40   $ IP Non-Tech
 "Restroom_EWSF" = 0.2   $ IP Non-Tech
 "Restroom_LWSF" = 0.6   $ IP Non-Tech
 "SZFanMechEff" = 0.54   $ IP Non-Tech
 "SZHasRetFan" = TRUE   $ IP Non-Tech
 "SZ_Is_2Spd" = TRUE   $ IP Non-Tech
 "SZ_SFanWPerCfm" = 0.46   $ IP Non-Tech
 "StorageSmlCond_EWSF" = 0.2   $ IP Non-Tech
 "StorageSmlCond_LWSF" = 0.6   $ IP Non-Tech
 "T24GlzTbl" = TypeTbl   $ IP Non-Tech
 "TermUnitFanMechEff" = 1   $ IP Non-Tech
 "TermUnitFanMode" = INTERMITTENT   $ IP Non-Tech
 "TermUnitFanWPerCfm" = 0.175   $ IP Non-Tech
 "TwrEIR" = 0.011   $ IP Non-Tech
 "TwrPipeHead" = 10   $ IP Non-Tech
 "TwrSetpt" = 80   $ IP Non-Tech
 "TwrStaticHead" = 15   $ IP Non-Tech
 "UnocCoolT" = 86   $ IP Non-Tech
 "UnocHeatT" = 62   $ IP Non-Tech
 "VAVMinFlow" = 0.3   $ IP Non-Tech
 "WlhpVintEconoFlag" = 1   $ IP Non-Tech
 "EconoCtrl" = OA-TEMP   $ IP Tech: AirEcono-OATemp
 "MaxOAFrac" = 0.85   $ IP Tech: AirEcono-OATemp
 "UseEconoVintApplic" = FALSE   $ IP Tech: AirEcono-OATemp
 "ChlrCapRange" = 150to299   $ IP Tech: ChlrScrW-150to299-0.68kWpTon
 "ChlrEff" = 0.68   $ IP Tech: ChlrScrW-150to299-0.68kWpTon
 "ChlrType" = Screw   $ IP Tech: ChlrScrW-150to299-0.68kWpTon
 "ChlrVSD" = NO   $ IP Tech: ChlrScrW-150to299-0.68kWpTon
 "CmpPerCkt" = NA   $ IP Tech: ChlrScrW-150to299-0.68kWpTon
 "CondRelief" = FALSE   $ IP Tech: ChlrScrW-150to299-0.68kWpTon
 "CondType" = Water   $ IP Tech: ChlrScrW-150to299-0.68kWpTon
 "EffUnits" = kWpTon   $ IP Tech: ChlrScrW-150to299-0.68kWpTon
 "IPLV" = -99   $ IP Tech: ChlrScrW-150to299-0.68kWpTon
 "CHW_FlowCtrl" = VarSec   $ IP Tech: ChwFlowCtrlVarSec
 "CHW_HdSensLoc" = AT-COILS   $ IP Tech: ChwFlowCtrlVarSec
 "CHW_HdSptCtrl" = FIXED   $ IP Tech: ChwFlowCtrlVarSec
 "CHWP_Encl" = Any   $ IP Tech: ChwPumpMtrEff-PR
 "CHWP_MotClass" = PREMIUM   $ IP Tech: ChwPumpMtrEff-PR
 "CHWP_MotHP" = Any   $ IP Tech: ChwPumpMtrEff-PR
 "CHWP_NEMA_DC" =    $ IP Tech: ChwPumpMtrEff-PR
 "CHWP_RPM" = Any   $ IP Tech: ChwPumpMtrEff-PR
 "CHWP_Volt" =    $ IP Tech: ChwPumpMtrEff-PR
 "CHW_MaxT" = 54   $ IP Tech: ChwTempCtrlReset
 "CHW_TempCtrl" = LOAD-RESET   $ IP Tech: ChwTempCtrlReset
 "DuctDT" = 1   $ IP Tech: ComDuctInsul-1
 "DuctAirLoss" = 0   $ IP Tech: ComDuctLeak-0
 "DuctLossOAFrac" = 0   $ IP Tech: ComDuctLeak-0
 "ComRoofInsCalc" = FromUo   $ IP Tech: ComRoofIns-Hvy-0.05
 "ComRoofInsR" = -999   $ IP Tech: ComRoofIns-Hvy-0.05
 "ComRoofUo" = 0.05   $ IP Tech: ComRoofIns-Hvy-0.05
 "ComEWInsCalc" = FromUo   $ IP Tech: ComWallIns-MFrm-0.1
 "ComEWInsR" = -999   $ IP Tech: ComWallIns-MFrm-0.1
 "ComEWUo" = 0.1   $ IP Tech: ComWallIns-MFrm-0.1
 "CWP_Encl" = Any   $ IP Tech: CwPumpMtrEff-PR
 "CWP_MotClass" = PREMIUM   $ IP Tech: CwPumpMtrEff-PR
 "CWP_MotHP" = Any   $ IP Tech: CwPumpMtrEff-PR
 "CWP_NEMA_DC" = Any   $ IP Tech: CwPumpMtrEff-PR
 "CWP_RPM" = Any   $ IP Tech: CwPumpMtrEff-PR
 "CWP_Volt" = Any   $ IP Tech: CwPumpMtrEff-PR
 "MotorClass" = PREMIUM   $ IP Tech: ExhFanMtr-Prem
 "HW_FlowCtrl" = VarSec   $ IP Tech: HwFlowCtrlVarSec
 "HW_HdSensLoc" = AT-COILS   $ IP Tech: HwFlowCtrlVarSec
 "HW_HdSptCtrl" = FIXED   $ IP Tech: HwFlowCtrlVarSec
 "HWP_Encl" = Any   $ IP Tech: HwPumpMtrEff-PR
 "HWP_MotClass" = PREMIUM   $ IP Tech: HwPumpMtrEff-PR
 "HWP_MotHP" = Any   $ IP Tech: HwPumpMtrEff-PR
 "HWP_NEMA_DC" = Any   $ IP Tech: HwPumpMtrEff-PR
 "HWP_RPM" = Any   $ IP Tech: HwPumpMtrEff-PR
 "HWP_Volt" = Any   $ IP Tech: HwPumpMtrEff-PR
 "HWResetOutsideHi" = 60   $ IP Tech: HwTempCtrlOAReset
 "HWResetOutsideLo" = 30   $ IP Tech: HwTempCtrlOAReset
 "HW_TempCtrl" = OA-RESET   $ IP Tech: HwTempCtrlOAReset
 "ComN_SHGC" = 0.26   $ IP Tech: NResWin-ComN-0.41-0.26
 "ComN_UFactor" = 0.41   $ IP Tech: NResWin-ComN-0.41-0.26
 "ComN_VisTrans" = 0.41   $ IP Tech: NResWin-ComN-0.41-0.26
 "ComN_WinCode" = G2666   $ IP Tech: NResWin-ComN-0.41-0.26
 "ComN_WinFrmFrac" = 0.17   $ IP Tech: NResWin-ComN-0.41-0.26
 "ComN_WinFrmU" = 0.3   $ IP Tech: NResWin-ComN-0.41-0.26
 "ComO_SHGC" = 0.26   $ IP Tech: NResWin-ComO-0.41-0.26
 "ComO_UFactor" = 0.41   $ IP Tech: NResWin-ComO-0.41-0.26
 "ComO_VisTrans" = 0.41   $ IP Tech: NResWin-ComO-0.41-0.26
 "ComO_WinCode" = G2666   $ IP Tech: NResWin-ComO-0.41-0.26
 "ComO_WinFrmFrac" = 0.17   $ IP Tech: NResWin-ComO-0.41-0.26
 "ComO_WinFrmU" = 0.3   $ IP Tech: NResWin-ComO-0.41-0.26
 "LtgMsrApplic" = ALL   $ IP Tech: NonResLtgRefPre
 "LtgSav_CFL" = 0   $ IP Tech: NonResLtgRefPre
 "LtgSav_EX" = 0   $ IP Tech: NonResLtgRefPre
 "LtgSav_HB" = 0   $ IP Tech: NonResLtgRefPre
 "LtgSav_LF" = 0   $ IP Tech: NonResLtgRefPre
 "LtgSav_SP" = 0   $ IP Tech: NonResLtgRefPre
 "SATempCtrl" = WARMEST   $ IP Tech: SATempCtrl-Warmest
 "TwrFanCtrl" = TWO-SPEED-FAN   $ IP Tech: TwrFanCtrl-2sp
 "TFan_Encl" = Any   $ IP Tech: TwrFanMtrEff-PR
 "TFan_MotClass" = PREMIUM   $ IP Tech: TwrFanMtrEff-PR
 "TFan_MotHP" = Any   $ IP Tech: TwrFanMtrEff-PR
 "TFan_NEMA_DC" = Any   $ IP Tech: TwrFanMtrEff-PR
 "TFan_RPM" = Any   $ IP Tech: TwrFanMtrEff-PR
 "TFan_Volt" = Any   $ IP Tech: TwrFanMtrEff-PR
 "Twr_TempCtrl" = FIXED   $ IP Tech: TwrTempCtrl-Cst
 "FanEIR_fPLR" = "Variable Speed Drive FPLR"   $ IP Tech: VAVCtrl-VSD-AnyHP
 "Fan_Control" = VSD   $ IP Tech: VAVCtrl-VSD-AnyHP
 "Motor_Horsepower" = AnyHP   $ IP Tech: VAVCtrl-VSD-AnyHP
 "BlrCapRange" = 300to2500   $ IP Tech: WBlr-300to2500-82p0Ec
 "BlrDraftType" = FDr   $ IP Tech: WBlr-300to2500-82p0Ec
 "BlrEff" = 0.82   $ IP Tech: WBlr-300to2500-82p0Ec
 "BlrEffUnits" = Ec   $ IP Tech: WBlr-300to2500-82p0Ec
 "BlrEt" = 0.8   $ IP Tech: WBlr-300to2500-82p0Ec
 "BlrFluid" = Wtr   $ IP Tech: WBlr-300to2500-82p0Ec
 "BlrIsCond" = FALSE   $ IP Tech: WBlr-300to2500-82p0Ec
 "BlrT" = 165   $ IP Tech: WBlr-300to2500-82p0Ec
..

##include Templates\OfL_CH_MZ.inp
END ..
COMPUTE ..
STOP ..
