
Start DOESIM : Storage capacity =  75000000
Starting LOADS   : SAVE-FILES is On , weather is CZ01ARCATA-AP       
Finished LOADS    BDL  1 : Memory (wds) =    243949, Time (sec) =    2.10
Starting REPORT  
Finished REPORT   BDL  1 : Memory (wds) =    481304, Time (sec) =    0.47
Starting HVAC    : SAVE-FILES is On , weather is CZ01ARCATA-AP       
*** ERRORS or WARNINGS from HVAC     program. Examine output file for details.
Finished HVAC     BDL  1 : Memory (wds) =    344964, Time (sec) =    3.59
Starting REPORT  
Finished REPORT   BDL  1 : Memory (wds) =    464157, Time (sec) =    0.18
Starting HOURLY-R
Finished HOURLY-R BDL  1 : Memory (wds) =    744231, Time (sec) =    0.14
Starting ECONOMIC
Finished ECONOMIC BDL  1 : Memory (wds) =      1034, Time (sec) =    0.03
End   DOESIM : Total elapsed time of      6.5 seconds
RUN COMPLETE
