INPUT ..

##fileprefix C:\Users\jglasskatz\MASControl3\
##set1 IsSizing FALSE
##set1 CoolType DX
##set1 HeatType FURNACE
##set1 EU_HrRepVar 0
##set1 BldgVint 2017
##set1 BldgLoc CZ10

 ##set1 mBFMult 1   $ IP Tech: RefgChg-NRes-Std

PARAMETER
 "AltFactor" = 1.03143   $ IP Non-Tech
 "BF_fFlow" = SpltAC1Sp-ge45_BF_fFlow   $ Msr (Multi)TechID: StdNResSplitAC-45to55
 "BF_fT" = SpltAC1Sp-ge45_BF_fT   $ Msr (Multi)TechID: StdNResSplitAC-45to55
 "BldgEconoFlag" = 1   $ IP Non-Tech
 "Break_EWSF" = 1   $ IP Non-Tech
 "Break_LWSF" = 0.9   $ IP Non-Tech
 "CDD_DBHi10" = 92   $ IP Non-Tech
 "CDD_DBHi7" = 97   $ IP Non-Tech
 "CDD_DBHi8" = 99   $ IP Non-Tech
 "CDD_DBHi9" = 102   $ IP Non-Tech
 "CDD_DBRange10" = 19   $ IP Non-Tech
 "CDD_DBRange7" = 31   $ IP Non-Tech
 "CDD_DBRange8" = 31   $ IP Non-Tech
 "CDD_DBRange9" = 34   $ IP Non-Tech
 "CDD_Day10" = 15   $ IP Non-Tech
 "CDD_Day7" = 16   $ IP Non-Tech
 "CDD_Day8" = 20   $ IP Non-Tech
 "CDD_Day9" = 17   $ IP Non-Tech
 "CDD_HrHi10" = 15   $ IP Non-Tech
 "CDD_HrHi7" = 14   $ IP Non-Tech
 "CDD_HrHi8" = 14   $ IP Non-Tech
 "CDD_HrHi9" = 15   $ IP Non-Tech
 "CDD_HrLo10" = 3   $ IP Non-Tech
 "CDD_HrLo7" = 6   $ IP Non-Tech
 "CDD_HrLo8" = 5   $ IP Non-Tech
 "CDD_HrLo9" = 5   $ IP Non-Tech
 "CDD_WB10" = 62.63956451   $ IP Non-Tech
 "CDD_WB7" = 70.96998596   $ IP Non-Tech
 "CDD_WB8" = 71.98167419   $ IP Non-Tech
 "CDD_WB9" = 70.8795929   $ IP Non-Tech
 "CEIR_fPLR_Hot" = SpltAC1Sp-ge45_CEIR_fPLR_Hot   $ Msr (Multi)TechID: StdNResSplitAC-45to55
 "CEIR_fPLR_Mod" = SpltAC1Sp-ge45_CEIR_fPLR_Mod   $ Msr (Multi)TechID: StdNResSplitAC-45to55
 "CEIR_fPLR_Tem" = SpltAC1Sp-ge45_CEIR_fPLR_Tem   $ Msr (Multi)TechID: StdNResSplitAC-45to55
 "CLoss_fPLR_Hot" = SpltAC1Sp-ge45_CLoss_fPLR_Hot   $ Msr (Multi)TechID: StdNResSplitAC-45to55
 "CLoss_fPLR_Mod" = SpltAC1Sp-ge45_CLoss_fPLR_Mod   $ Msr (Multi)TechID: StdNResSplitAC-45to55
 "CLoss_fPLR_Tem" = SpltAC1Sp-ge45_CLoss_fPLR_Tem   $ Msr (Multi)TechID: StdNResSplitAC-45to55
 "COP47" = 0   $ Msr (Multi)TechID: StdNResSplitAC-45to55
 "CZ_Category" = Mod   $ IP Non-Tech
 "CapRange" = ge45   $ Msr (Multi)TechID: StdNResSplitAC-45to55
 "CfmPerBtuh" = 0.03263   $ Msr (Multi)TechID: StdNResSplitAC-45to55
 "ChwVintEconoFlag" = 1   $ IP Non-Tech
 "ClCap_fT" = SpltAC1Sp-ge45_ClCap_fT   $ Msr (Multi)TechID: StdNResSplitAC-45to55
 "ClSH_fT" = SpltAC1Sp-ge45_ClSH_fT   $ Msr (Multi)TechID: StdNResSplitAC-45to55
 "CoilBF" = 0.106518182   $ Msr (Multi)TechID: StdNResSplitAC-45to55
 "CondWPerBtuh" = 0   $ Msr (Multi)TechID: StdNResSplitAC-45to55
 "Conference_EWSF" = 1   $ IP Non-Tech
 "Conference_LWSF" = 1.2   $ IP Non-Tech
 "CoolSensCap" = 0.759218182   $ Msr (Multi)TechID: StdNResSplitAC-45to55
 "CoolSetT" = 45   $ IP Non-Tech
 "CoolType" = DX   $ IP Non-Tech
 "CoolingEIR" = 0.2466   $ Msr (Multi)TechID: StdNResSplitAC-45to55
 "CopyRoom_EWSF" = 1.5   $ IP Non-Tech
 "CopyRoom_LWSF" = 1.3   $ IP Non-Tech
 "CorridorStairway_EWSF" = 0.2   $ IP Non-Tech
 "CorridorStairway_LWSF" = 0.6   $ IP Non-Tech
 "CrnkEIR" = 0.002466   $ Msr (Multi)TechID: StdNResSplitAC-45to55
 "CrnkMaxT" = 50   $ Msr (Multi)TechID: StdNResSplitAC-45to55
 "DXType" = SplitSEER   $ Msr (Multi)TechID: StdNResSplitAC-45to55
 "DesCoolT" = 75   $ IP Non-Tech
 "DesHeatT" = 73   $ IP Non-Tech
 "EER" = 11.81793103   $ Msr (Multi)TechID: StdNResSplitAC-45to55
 "EIR_fT" = SpltAC1Sp-ge45_EIR_fT   $ Msr (Multi)TechID: StdNResSplitAC-45to55
 "EconoCtrl" = FIXED   $ Msr (Multi)TechID: StdNResSplitAC-45to55
 "EconoEnthLimit" = 28   $ IP Non-Tech
 "EconoTempLimit" = 73   $ IP Non-Tech
 "Elevation" = 840   $ IP Non-Tech
 "FanEirPlr" = TwoSpeedFan   $ Msr (Multi)TechID: StdNResSplitAC-45to55
 "FanWPerCfm" = 0.294   $ Msr (Multi)TechID: StdNResSplitAC-45to55
 "HDD_CloudAmt1" = 0   $ IP Non-Tech
 "HDD_DBHi1" = 53   $ IP Non-Tech
 "HDD_DBRange1" = 17   $ IP Non-Tech
 "HDD_Day1" = 15   $ IP Non-Tech
 "HDD_HrHi1" = 14   $ IP Non-Tech
 "HDD_HrLo1" = 5   $ IP Non-Tech
 "HDD_WB1" = 48.5   $ IP Non-Tech
 "HDD_WindSpd1" = 13.8   $ IP Non-Tech
 "HIR_fT" = 0   $ Msr (Multi)TechID: StdNResSplitAC-45to55
 "HSPF" = 0   $ Msr (Multi)TechID: StdNResSplitAC-45to55
 "HeatSrc" = FURNACE   $ IP Non-Tech
 "HeatSrcTU" = HEAT-PUMP   $ IP Non-Tech
 "HeatType" = GasFurn   $ IP Non-Tech
 "HeatTypeTU" = HEAT-PUMP   $ IP Non-Tech
 "HtCap_fT" = 0   $ Msr (Multi)TechID: StdNResSplitAC-45to55
 "HtCoolCapRatio" = 0   $ Msr (Multi)TechID: StdNResSplitAC-45to55
 "HtgEIR" = 0   $ Msr (Multi)TechID: StdNResSplitAC-45to55
 "IndoorFanMode" = CONTINUOUS   $ IP Non-Tech
 "KT_TransferAir" = Yes   $ IP Non-Tech
 "Latitude" = 34   $ IP Non-Tech
 "LobbyWaiting_EWSF" = 0.5   $ IP Non-Tech
 "LobbyWaiting_LWSF" = 0.875   $ IP Non-Tech
 "Longitude" = 117.4   $ IP Non-Tech
 "LowSpdCapRatio" = 1   $ Msr (Multi)TechID: StdNResSplitAC-45to55
 "LowSpdCfmRatio" = 1   $ Msr (Multi)TechID: StdNResSplitAC-45to55
 "MZFanMechEff" = 0.58   $ IP Non-Tech
 "MZHasRetFan" = FALSE   $ IP Non-Tech
 "MZ_RFanWPerCfm" = 0.37   $ IP Non-Tech
 "MZ_SFanWPerCfm" = 0.71   $ IP Non-Tech
 "MZ_SupFanStatic" = 2.25   $ IP Non-Tech
 "MaxOAFrac" = 1   $ Msr (Multi)TechID: StdNResSplitAC-45to55
 "MaxSupT_MZ" = 100   $ IP Non-Tech
 "MaxSupT_SZ" = 100   $ IP Non-Tech
 "MaxSupT_TU" = 90   $ IP Non-Tech
 "MechElecRoom_EWSF" = 0.2   $ IP Non-Tech
 "MechElecRoom_LWSF" = 0.55   $ IP Non-Tech
 "MinCfmPerSF" = 0.4   $ IP Non-Tech
 "MinSupT" = 55   $ IP Non-Tech
 "NumStages" = 1   $ Msr (Multi)TechID: StdNResSplitAC-45to55
 "OccCoolT" = 76   $ IP Non-Tech
 "OccHeatT" = 72   $ IP Non-Tech
 "OfficeOpen_EWSF" = 1.5   $ IP Non-Tech
 "OfficeOpen_LWSF" = 1.05   $ IP Non-Tech
 "OfficeSmall_EWSF" = 1.5   $ IP Non-Tech
 "OfficeSmall_LWSF" = 1.3   $ IP Non-Tech
 "PkgDxVintEconoFlag" = 1   $ IP Non-Tech
 "Restroom_EWSF" = 0.2   $ IP Non-Tech
 "Restroom_LWSF" = 0.6   $ IP Non-Tech
 "SEER" = 14   $ Msr (Multi)TechID: StdNResSplitAC-45to55
 "SZFanMechEff" = 0.58   $ IP Non-Tech
 "SZHasRetFan" = FALSE   $ IP Non-Tech
 "SZ_Is_2Spd" = TRUE   $ IP Non-Tech
 "SZ_SFanWPerCfm" = 0.46   $ IP Non-Tech
 "SZ_SupFanStatic" = 0.75   $ IP Non-Tech
 "Sector" = Any   $ Msr (Multi)TechID: StdNResSplitAC-45to55
 "StorageSmlCond_EWSF" = 0.2   $ IP Non-Tech
 "StorageSmlCond_LWSF" = 0.6   $ IP Non-Tech
 "SubType" = AC   $ Msr (Multi)TechID: StdNResSplitAC-45to55
 "TermUnitFanMechEff" = 1   $ IP Non-Tech
 "TermUnitFanMode" = INTERMITTENT   $ IP Non-Tech
 "TotCoolCap" = 52519.36364   $ Msr (Multi)TechID: StdNResSplitAC-45to55
 "TwrSetpt" = 82.2   $ IP Non-Tech
 "UnocCoolT" = 86   $ IP Non-Tech
 "UnocHeatT" = 62   $ IP Non-Tech
 "UseEconoVintApplic" = FALSE   $ Msr (Multi)TechID: StdNResSplitAC-45to55
 "WlhpVintEconoFlag" = 1   $ IP Non-Tech
 "DuctDT" = 1   $ IP Tech: ComDuctInsul-1
 "DuctAirLoss" = 0   $ IP Tech: ComDuctLeak-0
 "DuctLossOAFrac" = 0   $ IP Tech: ComDuctLeak-0
 "ComRoofInsCalc" = FromUo   $ IP Tech: ComRoofIns-Hvy-0.03
 "ComRoofInsR" = -999   $ IP Tech: ComRoofIns-Hvy-0.03
 "ComRoofUo" = 0.03   $ IP Tech: ComRoofIns-Hvy-0.03
 "ComEWInsCalc" = FromUo   $ IP Tech: ComWallIns-MFrm-0.06
 "ComEWInsR" = -999   $ IP Tech: ComWallIns-MFrm-0.06
 "ComEWUo" = 0.06   $ IP Tech: ComWallIns-MFrm-0.06
 "ComN_SHGC" = 0.26   $ IP Tech: NResWin-ComN-0.41-0.26
 "ComN_UFactor" = 0.41   $ IP Tech: NResWin-ComN-0.41-0.26
 "ComN_VisTrans" = 0.41   $ IP Tech: NResWin-ComN-0.41-0.26
 "ComN_WinCode" = G2666   $ IP Tech: NResWin-ComN-0.41-0.26
 "ComN_WinFrmFrac" = 0.17   $ IP Tech: NResWin-ComN-0.41-0.26
 "ComN_WinFrmU" = 0.3   $ IP Tech: NResWin-ComN-0.41-0.26
 "ComO_SHGC" = 0.26   $ IP Tech: NResWin-ComO-0.41-0.26
 "ComO_UFactor" = 0.41   $ IP Tech: NResWin-ComO-0.41-0.26
 "ComO_VisTrans" = 0.41   $ IP Tech: NResWin-ComO-0.41-0.26
 "ComO_WinCode" = G2666   $ IP Tech: NResWin-ComO-0.41-0.26
 "ComO_WinFrmFrac" = 0.17   $ IP Tech: NResWin-ComO-0.41-0.26
 "ComO_WinFrmU" = 0.3   $ IP Tech: NResWin-ComO-0.41-0.26
 "LtgMsrApplic" = ALL   $ IP Tech: NonResLtgRefPre
 "LtgSav_CFL" = 0   $ IP Tech: NonResLtgRefPre
 "LtgSav_EX" = 0   $ IP Tech: NonResLtgRefPre
 "LtgSav_HB" = 0   $ IP Tech: NonResLtgRefPre
 "LtgSav_LF" = 0   $ IP Tech: NonResLtgRefPre
 "LtgSav_SP" = 0   $ IP Tech: NonResLtgRefPre
 "CEIR_fPLR" = PSZ65to135_CEIR_fPLR   $ IP Tech: PkgAC2SpP-65to135-E11
 "CLoss_fPLR" = PSZ65to135_CLoss_fPLR   $ IP Tech: PkgAC2SpP-65to135-E11
 "COP" = -1   $ IP Tech: PkgAC2SpP-65to135-E11
 "HtgFuel" = Gas   $ IP Tech: PkgAC2SpP-65to135-E11
 "IEER" = 13.35   $ IP Tech: PkgAC2SpP-65to135-E11
 "NominalCap" = 15   $ IP Tech: PkgAC2SpP-65to135-E11
 "RatedEER" = 11   $ IP Tech: PkgAC2SpP-65to135-E11
 "RatedSupMtrClass" = Premium   $ IP Tech: PkgAC2SpP-65to135-E11
 "SizeRange" = 65to135   $ IP Tech: PkgAC2SpP-65to135-E11
 "SupMotEff" = 0.865   $ IP Tech: PkgAC2SpP-65to135-E11
 "Tier" = 0   $ IP Tech: PkgAC2SpP-65to135-E11
 "FanPwrMult" = 1   $ IP Tech: PkgFurn-0.80AFUE
 "FurnAFUE" = 0.8   $ IP Tech: PkgFurn-0.80AFUE
 "FurnEt" = 0.82   $ IP Tech: PkgFurn-0.80AFUE
 "FurnaceAuxKW" = 0.1   $ IP Tech: PkgFurn-0.80AFUE
 "HIR_fPLR" = Furnace-HIR-fPLR   $ IP Tech: PkgFurn-0.80AFUE
 "VSM" = FALSE   $ IP Tech: PkgFurn-0.80AFUE
 "BFMult" = 1   $ IP Tech: RefgChg-NRes-Std
 "CoolEirMult" = 1   $ IP Tech: RefgChg-NRes-Std
 "SensCoolCapMult" = 1   $ IP Tech: RefgChg-NRes-Std
 "TotCoolCapMult" = 1   $ IP Tech: RefgChg-NRes-Std
 "AltAdjFactor" = 1.031429   $ Sizing
 "CAssFlo_L_Break_CZn" = 543.4833   $ Sizing
 "CAssFlo_L_Conf_CZn" = 523.0331   $ Sizing
 "CAssFlo_L_CopyRm_CZn" = 170.8636   $ Sizing
 "CAssFlo_L_Cordr_CZn" = 622.879   $ Sizing
 "CAssFlo_L_Cordr_EZn" = 212.1921   $ Sizing
 "CAssFlo_L_Cordr_NZn" = 143.8871   $ Sizing
 "CAssFlo_L_Cordr_SZn" = 228.9658   $ Sizing
 "CAssFlo_L_Cordr_WZn" = 256.0078   $ Sizing
 "CAssFlo_L_LobWait_CZn" = 494.3566   $ Sizing
 "CAssFlo_L_MechElec_CZn" = 108.1717   $ Sizing
 "CAssFlo_L_OfficeOpn_CZn" = 1793.962   $ Sizing
 "CAssFlo_L_OfficeOpn_EZn" = 1502.688   $ Sizing
 "CAssFlo_L_OfficeOpn_NZn" = 1115.108   $ Sizing
 "CAssFlo_L_OfficeOpn_SZn" = 1610.407   $ Sizing
 "CAssFlo_L_OfficeOpn_WZn" = 1846.752   $ Sizing
 "CAssFlo_L_OfficeSm_CZn" = 229.745   $ Sizing
 "CAssFlo_L_OfficeSm_EZn" = 1071.12   $ Sizing
 "CAssFlo_L_OfficeSm_NZn" = 722.7576   $ Sizing
 "CAssFlo_L_OfficeSm_SZn" = 1136.297   $ Sizing
 "CAssFlo_L_OfficeSm_WZn" = 1304.519   $ Sizing
 "CAssFlo_L_Restrm_CZn" = 89.78761   $ Sizing
 "CAssFlo_L_StorSm_CZn" = 343.8779   $ Sizing
 "CAssFlo_M_Break_CZn" = 548.3672   $ Sizing
 "CAssFlo_M_Conf_CZn" = 521.8782   $ Sizing
 "CAssFlo_M_CopyRm_CZn" = 164.6935   $ Sizing
 "CAssFlo_M_Cordr_CZn" = 802.2985   $ Sizing
 "CAssFlo_M_Cordr_EZn" = 244.5886   $ Sizing
 "CAssFlo_M_Cordr_NZn" = 161.5946   $ Sizing
 "CAssFlo_M_Cordr_SZn" = 252.3577   $ Sizing
 "CAssFlo_M_Cordr_WZn" = 272.798   $ Sizing
 "CAssFlo_M_LobWait_CZn" = 512.1724   $ Sizing
 "CAssFlo_M_MechElec_CZn" = 133.9486   $ Sizing
 "CAssFlo_M_OfficeOpn_CZn" = 1804.069   $ Sizing
 "CAssFlo_M_OfficeOpn_EZn" = 1614.932   $ Sizing
 "CAssFlo_M_OfficeOpn_NZn" = 1172.361   $ Sizing
 "CAssFlo_M_OfficeOpn_SZn" = 1705.096   $ Sizing
 "CAssFlo_M_OfficeOpn_WZn" = 1900.614   $ Sizing
 "CAssFlo_M_OfficeSm_CZn" = 265.4278   $ Sizing
 "CAssFlo_M_OfficeSm_EZn" = 1136.098   $ Sizing
 "CAssFlo_M_OfficeSm_NZn" = 755.67   $ Sizing
 "CAssFlo_M_OfficeSm_SZn" = 1192.684   $ Sizing
 "CAssFlo_M_OfficeSm_WZn" = 1333.002   $ Sizing
 "CAssFlo_M_Restrm_CZn" = 96.95999   $ Sizing
 "CAssFlo_M_StorSm_CZn" = 351.3178   $ Sizing
 "CAssFlo_T_Break_CZn" = 536.9352   $ Sizing
 "CAssFlo_T_Conf_CZn" = 516.6965   $ Sizing
 "CAssFlo_T_CopyRm_CZn" = 164.3247   $ Sizing
 "CAssFlo_T_Cordr_CZn" = 731.8201   $ Sizing
 "CAssFlo_T_Cordr_EZn" = 233.2011   $ Sizing
 "CAssFlo_T_Cordr_NZn" = 160.6785   $ Sizing
 "CAssFlo_T_Cordr_SZn" = 250.1056   $ Sizing
 "CAssFlo_T_Cordr_WZn" = 266.187   $ Sizing
 "CAssFlo_T_LobWait_CZn" = 509.5386   $ Sizing
 "CAssFlo_T_MechElec_CZn" = 140.7292   $ Sizing
 "CAssFlo_T_OfficeOpn_CZn" = 1813.608   $ Sizing
 "CAssFlo_T_OfficeOpn_EZn" = 1572.342   $ Sizing
 "CAssFlo_T_OfficeOpn_NZn" = 1164.679   $ Sizing
 "CAssFlo_T_OfficeOpn_SZn" = 1710.795   $ Sizing
 "CAssFlo_T_OfficeOpn_WZn" = 1868.691   $ Sizing
 "CAssFlo_T_OfficeSm_CZn" = 255.9306   $ Sizing
 "CAssFlo_T_OfficeSm_EZn" = 1134.655   $ Sizing
 "CAssFlo_T_OfficeSm_NZn" = 758.473   $ Sizing
 "CAssFlo_T_OfficeSm_SZn" = 1211.048   $ Sizing
 "CAssFlo_T_OfficeSm_WZn" = 1329.866   $ Sizing
 "CAssFlo_T_Restrm_CZn" = 118.8033   $ Sizing
 "CAssFlo_T_StorSm_CZn" = 253.8857   $ Sizing
 "CHRtFlo_Sys_L_Break_C" = 543.4833   $ Sizing
 "CHRtFlo_Sys_L_Conf_C" = 523.0331   $ Sizing
 "CHRtFlo_Sys_L_CopyRm_C" = 170.8636   $ Sizing
 "CHRtFlo_Sys_L_Cordr_C" = 637.3827   $ Sizing
 "CHRtFlo_Sys_L_Cordr_E" = 251.9671   $ Sizing
 "CHRtFlo_Sys_L_Cordr_N" = 143.8871   $ Sizing
 "CHRtFlo_Sys_L_Cordr_S" = 256.5372   $ Sizing
 "CHRtFlo_Sys_L_Cordr_W" = 256.0078   $ Sizing
 "CHRtFlo_Sys_L_LobWait_C" = 494.3566   $ Sizing
 "CHRtFlo_Sys_L_MechElec_C" = 137.352   $ Sizing
 "CHRtFlo_Sys_L_OfficeOpn_C" = 1793.962   $ Sizing
 "CHRtFlo_Sys_L_OfficeOpn_E" = 1819.63   $ Sizing
 "CHRtFlo_Sys_L_OfficeOpn_N" = 1115.108   $ Sizing
 "CHRtFlo_Sys_L_OfficeOpn_S" = 1819.231   $ Sizing
 "CHRtFlo_Sys_L_OfficeOpn_W" = 1895.613   $ Sizing
 "CHRtFlo_Sys_L_OfficeSm_C" = 252.6645   $ Sizing
 "CHRtFlo_Sys_L_OfficeSm_E" = 1323.302   $ Sizing
 "CHRtFlo_Sys_L_OfficeSm_N" = 722.7576   $ Sizing
 "CHRtFlo_Sys_L_OfficeSm_S" = 1338.171   $ Sizing
 "CHRtFlo_Sys_L_OfficeSm_W" = 1375.81   $ Sizing
 "CHRtFlo_Sys_L_Restrm_C" = 216.8861   $ Sizing
 "CHRtFlo_Sys_L_StorSm_C" = 405.3404   $ Sizing
 "CHRtFlo_Sys_M_Break_C" = 4386.938   $ Sizing
 "CHRtFlo_Sys_M_Conf_C" = 4230.734   $ Sizing
 "CHRtFlo_Sys_M_CopyRm_C" = 1317.548   $ Sizing
 "CHRtFlo_Sys_M_Cordr_C" = 7914.945   $ Sizing
 "CHRtFlo_Sys_M_Cordr_E" = 2382.176   $ Sizing
 "CHRtFlo_Sys_M_Cordr_N" = 1347.542   $ Sizing
 "CHRtFlo_Sys_M_Cordr_S" = 2321.316   $ Sizing
 "CHRtFlo_Sys_M_Cordr_W" = 2192.552   $ Sizing
 "CHRtFlo_Sys_M_LobWait_C" = 4243.174   $ Sizing
 "CHRtFlo_Sys_M_MechElec_C" = 1362.832   $ Sizing
 "CHRtFlo_Sys_M_OfficeOpn_C" = 17391.83   $ Sizing
 "CHRtFlo_Sys_M_OfficeOpn_E" = 15835.98   $ Sizing
 "CHRtFlo_Sys_M_OfficeOpn_N" = 9378.885   $ Sizing
 "CHRtFlo_Sys_M_OfficeOpn_S" = 15604.16   $ Sizing
 "CHRtFlo_Sys_M_OfficeOpn_W" = 15713.31   $ Sizing
 "CHRtFlo_Sys_M_OfficeSm_C" = 2590.435   $ Sizing
 "CHRtFlo_Sys_M_OfficeSm_E" = 11333.12   $ Sizing
 "CHRtFlo_Sys_M_OfficeSm_N" = 6045.36   $ Sizing
 "CHRtFlo_Sys_M_OfficeSm_S" = 11336.88   $ Sizing
 "CHRtFlo_Sys_M_OfficeSm_W" = 11298.56   $ Sizing
 "CHRtFlo_Sys_M_Restrm_C" = 1735.089   $ Sizing
 "CHRtFlo_Sys_M_StorSm_C" = 3450.512   $ Sizing
 "CHRtFlo_Sys_T_Break_C" = 536.9352   $ Sizing
 "CHRtFlo_Sys_T_Conf_C" = 516.6965   $ Sizing
 "CHRtFlo_Sys_T_CopyRm_C" = 164.3247   $ Sizing
 "CHRtFlo_Sys_T_Cordr_C" = 833.8715   $ Sizing
 "CHRtFlo_Sys_T_Cordr_E" = 261.3741   $ Sizing
 "CHRtFlo_Sys_T_Cordr_N" = 160.6785   $ Sizing
 "CHRtFlo_Sys_T_Cordr_S" = 263.0659   $ Sizing
 "CHRtFlo_Sys_T_Cordr_W" = 266.187   $ Sizing
 "CHRtFlo_Sys_T_LobWait_C" = 509.5386   $ Sizing
 "CHRtFlo_Sys_T_MechElec_C" = 181.3931   $ Sizing
 "CHRtFlo_Sys_T_OfficeOpn_C" = 1823.926   $ Sizing
 "CHRtFlo_Sys_T_OfficeOpn_E" = 1791.709   $ Sizing
 "CHRtFlo_Sys_T_OfficeOpn_N" = 1164.679   $ Sizing
 "CHRtFlo_Sys_T_OfficeOpn_S" = 1820.626   $ Sizing
 "CHRtFlo_Sys_T_OfficeOpn_W" = 1868.691   $ Sizing
 "CHRtFlo_Sys_T_OfficeSm_C" = 295.68   $ Sizing
 "CHRtFlo_Sys_T_OfficeSm_E" = 1320.849   $ Sizing
 "CHRtFlo_Sys_T_OfficeSm_N" = 758.473   $ Sizing
 "CHRtFlo_Sys_T_OfficeSm_S" = 1346.764   $ Sizing
 "CHRtFlo_Sys_T_OfficeSm_W" = 1336.471   $ Sizing
 "CHRtFlo_Sys_T_Restrm_C" = 216.8861   $ Sizing
 "CHRtFlo_Sys_T_StorSm_C" = 342.0135   $ Sizing
 "CRtdFlo_Sys_L_Break_C" = 543.4833   $ Sizing
 "CRtdFlo_Sys_L_Conf_C" = 523.0331   $ Sizing
 "CRtdFlo_Sys_L_CopyRm_C" = 170.8636   $ Sizing
 "CRtdFlo_Sys_L_Cordr_C" = 622.879   $ Sizing
 "CRtdFlo_Sys_L_Cordr_E" = 212.1921   $ Sizing
 "CRtdFlo_Sys_L_Cordr_N" = 143.8871   $ Sizing
 "CRtdFlo_Sys_L_Cordr_S" = 228.9658   $ Sizing
 "CRtdFlo_Sys_L_Cordr_W" = 256.0078   $ Sizing
 "CRtdFlo_Sys_L_LobWait_C" = 494.3566   $ Sizing
 "CRtdFlo_Sys_L_MechElec_C" = 108.1717   $ Sizing
 "CRtdFlo_Sys_L_OfficeOpn_C" = 1793.962   $ Sizing
 "CRtdFlo_Sys_L_OfficeOpn_E" = 1502.688   $ Sizing
 "CRtdFlo_Sys_L_OfficeOpn_N" = 1115.108   $ Sizing
 "CRtdFlo_Sys_L_OfficeOpn_S" = 1610.407   $ Sizing
 "CRtdFlo_Sys_L_OfficeOpn_W" = 1846.752   $ Sizing
 "CRtdFlo_Sys_L_OfficeSm_C" = 229.745   $ Sizing
 "CRtdFlo_Sys_L_OfficeSm_E" = 1071.12   $ Sizing
 "CRtdFlo_Sys_L_OfficeSm_N" = 722.7576   $ Sizing
 "CRtdFlo_Sys_L_OfficeSm_S" = 1136.297   $ Sizing
 "CRtdFlo_Sys_L_OfficeSm_W" = 1304.519   $ Sizing
 "CRtdFlo_Sys_L_Restrm_C" = 89.78761   $ Sizing
 "CRtdFlo_Sys_L_StorSm_C" = 343.8779   $ Sizing
 "CRtdFlo_Sys_M_Break_C" = 4386.938   $ Sizing
 "CRtdFlo_Sys_M_Conf_C" = 4175.025   $ Sizing
 "CRtdFlo_Sys_M_CopyRm_C" = 1317.548   $ Sizing
 "CRtdFlo_Sys_M_Cordr_C" = 6418.388   $ Sizing
 "CRtdFlo_Sys_M_Cordr_E" = 1956.709   $ Sizing
 "CRtdFlo_Sys_M_Cordr_N" = 1292.757   $ Sizing
 "CRtdFlo_Sys_M_Cordr_S" = 2018.861   $ Sizing
 "CRtdFlo_Sys_M_Cordr_W" = 2182.384   $ Sizing
 "CRtdFlo_Sys_M_LobWait_C" = 4097.379   $ Sizing
 "CRtdFlo_Sys_M_MechElec_C" = 1071.589   $ Sizing
 "CRtdFlo_Sys_M_OfficeOpn_C" = 14432.55   $ Sizing
 "CRtdFlo_Sys_M_OfficeOpn_E" = 12919.45   $ Sizing
 "CRtdFlo_Sys_M_OfficeOpn_N" = 9378.885   $ Sizing
 "CRtdFlo_Sys_M_OfficeOpn_S" = 13640.77   $ Sizing
 "CRtdFlo_Sys_M_OfficeOpn_W" = 15204.91   $ Sizing
 "CRtdFlo_Sys_M_OfficeSm_C" = 2123.422   $ Sizing
 "CRtdFlo_Sys_M_OfficeSm_E" = 9088.784   $ Sizing
 "CRtdFlo_Sys_M_OfficeSm_N" = 6045.36   $ Sizing
 "CRtdFlo_Sys_M_OfficeSm_S" = 9541.474   $ Sizing
 "CRtdFlo_Sys_M_OfficeSm_W" = 10664.02   $ Sizing
 "CRtdFlo_Sys_M_Restrm_C" = 775.6799   $ Sizing
 "CRtdFlo_Sys_M_StorSm_C" = 2810.542   $ Sizing
 "CRtdFlo_Sys_T_Break_C" = 536.9352   $ Sizing
 "CRtdFlo_Sys_T_Conf_C" = 516.6965   $ Sizing
 "CRtdFlo_Sys_T_CopyRm_C" = 164.3247   $ Sizing
 "CRtdFlo_Sys_T_Cordr_C" = 731.8201   $ Sizing
 "CRtdFlo_Sys_T_Cordr_E" = 233.2011   $ Sizing
 "CRtdFlo_Sys_T_Cordr_N" = 160.6785   $ Sizing
 "CRtdFlo_Sys_T_Cordr_S" = 250.1056   $ Sizing
 "CRtdFlo_Sys_T_Cordr_W" = 266.187   $ Sizing
 "CRtdFlo_Sys_T_LobWait_C" = 509.5386   $ Sizing
 "CRtdFlo_Sys_T_MechElec_C" = 140.7292   $ Sizing
 "CRtdFlo_Sys_T_OfficeOpn_C" = 1813.608   $ Sizing
 "CRtdFlo_Sys_T_OfficeOpn_E" = 1572.342   $ Sizing
 "CRtdFlo_Sys_T_OfficeOpn_N" = 1164.679   $ Sizing
 "CRtdFlo_Sys_T_OfficeOpn_S" = 1710.795   $ Sizing
 "CRtdFlo_Sys_T_OfficeOpn_W" = 1868.691   $ Sizing
 "CRtdFlo_Sys_T_OfficeSm_C" = 255.9306   $ Sizing
 "CRtdFlo_Sys_T_OfficeSm_E" = 1134.655   $ Sizing
 "CRtdFlo_Sys_T_OfficeSm_N" = 758.473   $ Sizing
 "CRtdFlo_Sys_T_OfficeSm_S" = 1211.048   $ Sizing
 "CRtdFlo_Sys_T_OfficeSm_W" = 1329.866   $ Sizing
 "CRtdFlo_Sys_T_Restrm_C" = 118.8033   $ Sizing
 "CRtdFlo_Sys_T_StorSm_C" = 253.8857   $ Sizing
 "CSupFlo_Sys_L_Break_C" = 543.4833   $ Sizing
 "CSupFlo_Sys_L_Conf_C" = 523.0331   $ Sizing
 "CSupFlo_Sys_L_CopyRm_C" = 170.8636   $ Sizing
 "CSupFlo_Sys_L_Cordr_C" = 622.879   $ Sizing
 "CSupFlo_Sys_L_Cordr_E" = 212.1921   $ Sizing
 "CSupFlo_Sys_L_Cordr_N" = 143.8871   $ Sizing
 "CSupFlo_Sys_L_Cordr_S" = 228.9658   $ Sizing
 "CSupFlo_Sys_L_Cordr_W" = 256.0078   $ Sizing
 "CSupFlo_Sys_L_LobWait_C" = 494.3566   $ Sizing
 "CSupFlo_Sys_L_MechElec_C" = 108.1717   $ Sizing
 "CSupFlo_Sys_L_OfficeOpn_C" = 1793.962   $ Sizing
 "CSupFlo_Sys_L_OfficeOpn_E" = 1502.688   $ Sizing
 "CSupFlo_Sys_L_OfficeOpn_N" = 1115.108   $ Sizing
 "CSupFlo_Sys_L_OfficeOpn_S" = 1610.407   $ Sizing
 "CSupFlo_Sys_L_OfficeOpn_W" = 1846.752   $ Sizing
 "CSupFlo_Sys_L_OfficeSm_C" = 229.745   $ Sizing
 "CSupFlo_Sys_L_OfficeSm_E" = 1071.12   $ Sizing
 "CSupFlo_Sys_L_OfficeSm_N" = 722.7576   $ Sizing
 "CSupFlo_Sys_L_OfficeSm_S" = 1136.297   $ Sizing
 "CSupFlo_Sys_L_OfficeSm_W" = 1304.519   $ Sizing
 "CSupFlo_Sys_L_Restrm_C" = 89.78761   $ Sizing
 "CSupFlo_Sys_L_StorSm_C" = 343.8779   $ Sizing
 "CSupFlo_Sys_M_Break_C" = 4386.938   $ Sizing
 "CSupFlo_Sys_M_Conf_C" = 4175.025   $ Sizing
 "CSupFlo_Sys_M_CopyRm_C" = 1317.548   $ Sizing
 "CSupFlo_Sys_M_Cordr_C" = 6418.388   $ Sizing
 "CSupFlo_Sys_M_Cordr_E" = 1956.709   $ Sizing
 "CSupFlo_Sys_M_Cordr_N" = 1292.757   $ Sizing
 "CSupFlo_Sys_M_Cordr_S" = 2018.861   $ Sizing
 "CSupFlo_Sys_M_Cordr_W" = 2182.384   $ Sizing
 "CSupFlo_Sys_M_LobWait_C" = 4097.379   $ Sizing
 "CSupFlo_Sys_M_MechElec_C" = 1071.589   $ Sizing
 "CSupFlo_Sys_M_OfficeOpn_C" = 14432.55   $ Sizing
 "CSupFlo_Sys_M_OfficeOpn_E" = 12919.45   $ Sizing
 "CSupFlo_Sys_M_OfficeOpn_N" = 9378.885   $ Sizing
 "CSupFlo_Sys_M_OfficeOpn_S" = 13640.77   $ Sizing
 "CSupFlo_Sys_M_OfficeOpn_W" = 15204.91   $ Sizing
 "CSupFlo_Sys_M_OfficeSm_C" = 2123.422   $ Sizing
 "CSupFlo_Sys_M_OfficeSm_E" = 9088.784   $ Sizing
 "CSupFlo_Sys_M_OfficeSm_N" = 6045.36   $ Sizing
 "CSupFlo_Sys_M_OfficeSm_S" = 9541.474   $ Sizing
 "CSupFlo_Sys_M_OfficeSm_W" = 10664.02   $ Sizing
 "CSupFlo_Sys_M_Restrm_C" = 775.6799   $ Sizing
 "CSupFlo_Sys_M_StorSm_C" = 2810.542   $ Sizing
 "CSupFlo_Sys_T_Break_C" = 536.9352   $ Sizing
 "CSupFlo_Sys_T_Conf_C" = 516.6965   $ Sizing
 "CSupFlo_Sys_T_CopyRm_C" = 164.3247   $ Sizing
 "CSupFlo_Sys_T_Cordr_C" = 731.8201   $ Sizing
 "CSupFlo_Sys_T_Cordr_E" = 233.2011   $ Sizing
 "CSupFlo_Sys_T_Cordr_N" = 160.6785   $ Sizing
 "CSupFlo_Sys_T_Cordr_S" = 250.1056   $ Sizing
 "CSupFlo_Sys_T_Cordr_W" = 266.187   $ Sizing
 "CSupFlo_Sys_T_LobWait_C" = 509.5386   $ Sizing
 "CSupFlo_Sys_T_MechElec_C" = 140.7292   $ Sizing
 "CSupFlo_Sys_T_OfficeOpn_C" = 1813.608   $ Sizing
 "CSupFlo_Sys_T_OfficeOpn_E" = 1572.342   $ Sizing
 "CSupFlo_Sys_T_OfficeOpn_N" = 1164.679   $ Sizing
 "CSupFlo_Sys_T_OfficeOpn_S" = 1710.795   $ Sizing
 "CSupFlo_Sys_T_OfficeOpn_W" = 1868.691   $ Sizing
 "CSupFlo_Sys_T_OfficeSm_C" = 255.9306   $ Sizing
 "CSupFlo_Sys_T_OfficeSm_E" = 1134.655   $ Sizing
 "CSupFlo_Sys_T_OfficeSm_N" = 758.473   $ Sizing
 "CSupFlo_Sys_T_OfficeSm_S" = 1211.048   $ Sizing
 "CSupFlo_Sys_T_OfficeSm_W" = 1329.866   $ Sizing
 "CSupFlo_Sys_T_Restrm_C" = 118.8033   $ Sizing
 "CSupFlo_Sys_T_StorSm_C" = 253.8857   $ Sizing
 "ClCap_Sys_L_Break_C" = 18065.91   $ Sizing
 "ClCap_Sys_L_Conf_C" = 22127.8   $ Sizing
 "ClCap_Sys_L_CopyRm_C" = 5679.671   $ Sizing
 "ClCap_Sys_L_Cordr_C" = 20705.11   $ Sizing
 "ClCap_Sys_L_Cordr_E" = 7053.472   $ Sizing
 "ClCap_Sys_L_Cordr_N" = 4782.949   $ Sizing
 "ClCap_Sys_L_Cordr_S" = 7611.046   $ Sizing
 "ClCap_Sys_L_Cordr_W" = 8509.948   $ Sizing
 "ClCap_Sys_L_LobWait_C" = 16432.89   $ Sizing
 "ClCap_Sys_L_MechElec_C" = 3595.732   $ Sizing
 "ClCap_Sys_L_OfficeOpn_C" = 59633.05   $ Sizing
 "ClCap_Sys_L_OfficeOpn_E" = 49950.8   $ Sizing
 "ClCap_Sys_L_OfficeOpn_N" = 37067.26   $ Sizing
 "ClCap_Sys_L_OfficeOpn_S" = 53531.49   $ Sizing
 "ClCap_Sys_L_OfficeOpn_W" = 61387.82   $ Sizing
 "ClCap_Sys_L_OfficeSm_C" = 7636.948   $ Sizing
 "ClCap_Sys_L_OfficeSm_E" = 35605.06   $ Sizing
 "ClCap_Sys_L_OfficeSm_N" = 24025.17   $ Sizing
 "ClCap_Sys_L_OfficeSm_S" = 37771.6   $ Sizing
 "ClCap_Sys_L_OfficeSm_W" = 43363.5   $ Sizing
 "ClCap_Sys_L_Restrm_C" = 2984.628   $ Sizing
 "ClCap_Sys_L_StorSm_C" = 11430.84   $ Sizing
 "ClCap_Sys_M_Break_C" = 145826.1   $ Sizing
 "ClCap_Sys_M_Conf_C" = 176631.5   $ Sizing
 "ClCap_Sys_M_CopyRm_C" = 43796.57   $ Sizing
 "ClCap_Sys_M_Cordr_C" = 213353.5   $ Sizing
 "ClCap_Sys_M_Cordr_E" = 65042.92   $ Sizing
 "ClCap_Sys_M_Cordr_N" = 42972.5   $ Sizing
 "ClCap_Sys_M_Cordr_S" = 67108.92   $ Sizing
 "ClCap_Sys_M_Cordr_W" = 72544.57   $ Sizing
 "ClCap_Sys_M_LobWait_C" = 136200.9   $ Sizing
 "ClCap_Sys_M_MechElec_C" = 35620.66   $ Sizing
 "ClCap_Sys_M_OfficeOpn_C" = 479752.2   $ Sizing
 "ClCap_Sys_M_OfficeOpn_E" = 429455.2   $ Sizing
 "ClCap_Sys_M_OfficeOpn_N" = 311763.3   $ Sizing
 "ClCap_Sys_M_OfficeOpn_S" = 453432.5   $ Sizing
 "ClCap_Sys_M_OfficeOpn_W" = 505426   $ Sizing
 "ClCap_Sys_M_OfficeSm_C" = 70584.63   $ Sizing
 "ClCap_Sys_M_OfficeSm_E" = 302120   $ Sizing
 "ClCap_Sys_M_OfficeSm_N" = 200953.7   $ Sizing
 "ClCap_Sys_M_OfficeSm_S" = 317167.9   $ Sizing
 "ClCap_Sys_M_OfficeSm_W" = 354482.3   $ Sizing
 "ClCap_Sys_M_Restrm_C" = 25784.36   $ Sizing
 "ClCap_Sys_M_StorSm_C" = 93425.16   $ Sizing
 "ClCap_Sys_T_Break_C" = 17848.25   $ Sizing
 "ClCap_Sys_T_Conf_C" = 21859.72   $ Sizing
 "ClCap_Sys_T_CopyRm_C" = 5462.312   $ Sizing
 "ClCap_Sys_T_Cordr_C" = 24326.41   $ Sizing
 "ClCap_Sys_T_Cordr_E" = 7751.832   $ Sizing
 "ClCap_Sys_T_Cordr_N" = 5341.109   $ Sizing
 "ClCap_Sys_T_Cordr_S" = 8313.754   $ Sizing
 "ClCap_Sys_T_Cordr_W" = 8848.315   $ Sizing
 "ClCap_Sys_T_LobWait_C" = 16937.56   $ Sizing
 "ClCap_Sys_T_MechElec_C" = 4677.976   $ Sizing
 "ClCap_Sys_T_OfficeOpn_C" = 60286.09   $ Sizing
 "ClCap_Sys_T_OfficeOpn_E" = 52266.18   $ Sizing
 "ClCap_Sys_T_OfficeOpn_N" = 38715.06   $ Sizing
 "ClCap_Sys_T_OfficeOpn_S" = 56868.5   $ Sizing
 "ClCap_Sys_T_OfficeOpn_W" = 62117.09   $ Sizing
 "ClCap_Sys_T_OfficeSm_C" = 8507.384   $ Sizing
 "ClCap_Sys_T_OfficeSm_E" = 37717.04   $ Sizing
 "ClCap_Sys_T_OfficeSm_N" = 25212.38   $ Sizing
 "ClCap_Sys_T_OfficeSm_S" = 40256.42   $ Sizing
 "ClCap_Sys_T_OfficeSm_W" = 44206.04   $ Sizing
 "ClCap_Sys_T_Restrm_C" = 3949.136   $ Sizing
 "ClCap_Sys_T_StorSm_C" = 8439.408   $ Sizing
 "HtCap_Sys_L_Break_C" = -28473.21   $ Sizing
 "HtCap_Sys_L_Conf_C" = -28454.68   $ Sizing
 "HtCap_Sys_L_CopyRm_C" = -10101.3   $ Sizing
 "HtCap_Sys_L_Cordr_C" = -26894.81   $ Sizing
 "HtCap_Sys_L_Cordr_E" = -8597.589   $ Sizing
 "HtCap_Sys_L_Cordr_N" = -5826.632   $ Sizing
 "HtCap_Sys_L_Cordr_S" = -8689.378   $ Sizing
 "HtCap_Sys_L_Cordr_W" = -8724.629   $ Sizing
 "HtCap_Sys_L_LobWait_C" = -26312.86   $ Sizing
 "HtCap_Sys_L_MechElec_C" = -5982.916   $ Sizing
 "HtCap_Sys_L_OfficeOpn_C" = -85336.48   $ Sizing
 "HtCap_Sys_L_OfficeOpn_E" = -55635.22   $ Sizing
 "HtCap_Sys_L_OfficeOpn_N" = -40173.74   $ Sizing
 "HtCap_Sys_L_OfficeOpn_S" = -58803.94   $ Sizing
 "HtCap_Sys_L_OfficeOpn_W" = -60944.59   $ Sizing
 "HtCap_Sys_L_OfficeSm_C" = -9476.764   $ Sizing
 "HtCap_Sys_L_OfficeSm_E" = -41653.36   $ Sizing
 "HtCap_Sys_L_OfficeSm_N" = -26098.06   $ Sizing
 "HtCap_Sys_L_OfficeSm_S" = -41669.86   $ Sizing
 "HtCap_Sys_L_OfficeSm_W" = -44291.04   $ Sizing
 "HtCap_Sys_L_Restrm_C" = -7700.513   $ Sizing
 "HtCap_Sys_L_StorSm_C" = -16734.65   $ Sizing
 "HtCap_Sys_M_Break_C" = -218906.2   $ Sizing
 "HtCap_Sys_M_Conf_C" = -215771.4   $ Sizing
 "HtCap_Sys_M_CopyRm_C" = -68958.78   $ Sizing
 "HtCap_Sys_M_Cordr_C" = -292836.1   $ Sizing
 "HtCap_Sys_M_Cordr_E" = -78799.7   $ Sizing
 "HtCap_Sys_M_Cordr_N" = -50064.07   $ Sizing
 "HtCap_Sys_M_Cordr_S" = -76803.73   $ Sizing
 "HtCap_Sys_M_Cordr_W" = -73447.09   $ Sizing
 "HtCap_Sys_M_LobWait_C" = -195839.1   $ Sizing
 "HtCap_Sys_M_MechElec_C" = -55165.82   $ Sizing
 "HtCap_Sys_M_OfficeOpn_C" = -821707.6   $ Sizing
 "HtCap_Sys_M_OfficeOpn_E" = -505986.8   $ Sizing
 "HtCap_Sys_M_OfficeOpn_N" = -332078   $ Sizing
 "HtCap_Sys_M_OfficeOpn_S" = -497884   $ Sizing
 "HtCap_Sys_M_OfficeOpn_W" = -501632   $ Sizing
 "HtCap_Sys_M_OfficeSm_C" = -91630.75   $ Sizing
 "HtCap_Sys_M_OfficeSm_E" = -355112.9   $ Sizing
 "HtCap_Sys_M_OfficeSm_N" = -214786.4   $ Sizing
 "HtCap_Sys_M_OfficeSm_S" = -359053.5   $ Sizing
 "HtCap_Sys_M_OfficeSm_W" = -361243.4   $ Sizing
 "HtCap_Sys_M_Restrm_C" = -66325.91   $ Sizing
 "HtCap_Sys_M_StorSm_C" = -138570.5   $ Sizing
 "HtCap_Sys_T_Break_C" = -28475.13   $ Sizing
 "HtCap_Sys_T_Conf_C" = -27907.35   $ Sizing
 "HtCap_Sys_T_CopyRm_C" = -9547.571   $ Sizing
 "HtCap_Sys_T_Cordr_C" = -34640.02   $ Sizing
 "HtCap_Sys_T_Cordr_E" = -9598.311   $ Sizing
 "HtCap_Sys_T_Cordr_N" = -6670.926   $ Sizing
 "HtCap_Sys_T_Cordr_S" = -9384.199   $ Sizing
 "HtCap_Sys_T_Cordr_W" = -9865.913   $ Sizing
 "HtCap_Sys_T_LobWait_C" = -25887.31   $ Sizing
 "HtCap_Sys_T_MechElec_C" = -7201.573   $ Sizing
 "HtCap_Sys_T_OfficeOpn_C" = -86830.96   $ Sizing
 "HtCap_Sys_T_OfficeOpn_E" = -62744.98   $ Sizing
 "HtCap_Sys_T_OfficeOpn_N" = -45445.77   $ Sizing
 "HtCap_Sys_T_OfficeOpn_S" = -64058.29   $ Sizing
 "HtCap_Sys_T_OfficeOpn_W" = -65207.85   $ Sizing
 "HtCap_Sys_T_OfficeSm_C" = -11490.56   $ Sizing
 "HtCap_Sys_T_OfficeSm_E" = -45143.04   $ Sizing
 "HtCap_Sys_T_OfficeSm_N" = -29440.47   $ Sizing
 "HtCap_Sys_T_OfficeSm_S" = -46964.41   $ Sizing
 "HtCap_Sys_T_OfficeSm_W" = -46717.07   $ Sizing
 "HtCap_Sys_T_Restrm_C" = -8142.823   $ Sizing
 "HtCap_Sys_T_StorSm_C" = -15773.52   $ Sizing
..

##include Templates\OfL_DX_SZ.inp
END ..
COMPUTE ..
STOP ..
