INPUT ..

##fileprefix C:\Users\jglasskatz\MASControl3\
##set1 IsSizing FALSE
##set1 CoolType DX
##set1 HeatType FURNACE
##set1 EU_HrRepVar 0
##set1 BldgVint 2020
##set1 BldgLoc CZ14

 ##set1 mBFMult 1   $ IP Tech: RefgChg-NRes-Std

PARAMETER
 "AltFactor" = 1.09733   $ IP Non-Tech
 "BF_fFlow" = SpltAC2SpHiSEER_BF_fFlow   $ Msr (Multi)TechID: MsrNResSplitAC-lt45-S17
 "BF_fT" = SpltAC2SpHiSEER_BF_fT   $ Msr (Multi)TechID: MsrNResSplitAC-lt45-S17
 "BldgEconoFlag" = 1   $ IP Non-Tech
 "Break_EWSF" = 1   $ IP Non-Tech
 "Break_LWSF" = 0.65   $ IP Non-Tech
 "CDD_DBHi10" = 86   $ IP Non-Tech
 "CDD_DBHi7" = 102   $ IP Non-Tech
 "CDD_DBHi8" = 102   $ IP Non-Tech
 "CDD_DBHi9" = 99   $ IP Non-Tech
 "CDD_DBRange10" = 24   $ IP Non-Tech
 "CDD_DBRange7" = 25   $ IP Non-Tech
 "CDD_DBRange8" = 24   $ IP Non-Tech
 "CDD_DBRange9" = 26   $ IP Non-Tech
 "CDD_Day10" = 15   $ IP Non-Tech
 "CDD_Day7" = 16   $ IP Non-Tech
 "CDD_Day8" = 20   $ IP Non-Tech
 "CDD_Day9" = 17   $ IP Non-Tech
 "CDD_HrHi10" = 15   $ IP Non-Tech
 "CDD_HrHi7" = 14   $ IP Non-Tech
 "CDD_HrHi8" = 14   $ IP Non-Tech
 "CDD_HrHi9" = 13   $ IP Non-Tech
 "CDD_HrLo10" = 3   $ IP Non-Tech
 "CDD_HrLo7" = 4   $ IP Non-Tech
 "CDD_HrLo8" = 6   $ IP Non-Tech
 "CDD_HrLo9" = 6   $ IP Non-Tech
 "CDD_WB10" = 59.47153854   $ IP Non-Tech
 "CDD_WB7" = 72.7782135   $ IP Non-Tech
 "CDD_WB8" = 69.10041809   $ IP Non-Tech
 "CDD_WB9" = 72.65714264   $ IP Non-Tech
 "CEIR_fPLR_Hot" = SpltAC2SpHiSEER_CEIR_fPLR_Hot   $ Msr (Multi)TechID: MsrNResSplitAC-lt45-S17
 "CEIR_fPLR_Mod" = SpltAC2SpHiSEER_CEIR_fPLR_Mod   $ Msr (Multi)TechID: MsrNResSplitAC-lt45-S17
 "CEIR_fPLR_Tem" = SpltAC2SpHiSEER_CEIR_fPLR_Tem   $ Msr (Multi)TechID: MsrNResSplitAC-lt45-S17
 "CLoss_fPLR_Hot" = SpltAC2SpHiSEER_CLoss_fPLR_Hot   $ Msr (Multi)TechID: MsrNResSplitAC-lt45-S17
 "CLoss_fPLR_Mod" = SpltAC2SpHiSEER_CLoss_fPLR_Mod   $ Msr (Multi)TechID: MsrNResSplitAC-lt45-S17
 "CLoss_fPLR_Tem" = SpltAC2SpHiSEER_CLoss_fPLR_Tem   $ Msr (Multi)TechID: MsrNResSplitAC-lt45-S17
 "COP47" = 0   $ Msr (Multi)TechID: MsrNResSplitAC-lt45-S17
 "CZ_Category" = Hot   $ IP Non-Tech
 "CapRange" = Any   $ Msr (Multi)TechID: MsrNResSplitAC-lt45-S17
 "CfmPerBtuh" = 0.03   $ Msr (Multi)TechID: MsrNResSplitAC-lt45-S17
 "ChwVintEconoFlag" = 1   $ IP Non-Tech
 "ClCap_fT" = SpltAC2SpHiSEER_ClCap_fT   $ Msr (Multi)TechID: MsrNResSplitAC-lt45-S17
 "ClSH_fT" = SpltAC2SpHiSEER_ClSH_fT   $ Msr (Multi)TechID: MsrNResSplitAC-lt45-S17
 "CoilBF" = 0.102   $ Msr (Multi)TechID: MsrNResSplitAC-lt45-S17
 "CondWPerBtuh" = 0   $ Msr (Multi)TechID: MsrNResSplitAC-lt45-S17
 "Conference_EWSF" = 1   $ IP Non-Tech
 "Conference_LWSF" = 0.85   $ IP Non-Tech
 "CoolSensCap" = 0.724   $ Msr (Multi)TechID: MsrNResSplitAC-lt45-S17
 "CoolSetT" = 45   $ IP Non-Tech
 "CoolType" = DX   $ IP Non-Tech
 "CoolingEIR" = 0.2225   $ Msr (Multi)TechID: MsrNResSplitAC-lt45-S17
 "CopyRoom_EWSF" = 1.5   $ IP Non-Tech
 "CopyRoom_LWSF" = 0.5   $ IP Non-Tech
 "CorridorStairway_EWSF" = 0.2   $ IP Non-Tech
 "CorridorStairway_LWSF" = 0.55   $ IP Non-Tech
 "CrnkEIR" = 0.002225   $ Msr (Multi)TechID: MsrNResSplitAC-lt45-S17
 "CrnkMaxT" = 50   $ Msr (Multi)TechID: MsrNResSplitAC-lt45-S17
 "DXType" = SplitSEER   $ Msr (Multi)TechID: MsrNResSplitAC-lt45-S17
 "DesCoolT" = 75   $ IP Non-Tech
 "DesHeatT" = 73   $ IP Non-Tech
 "EER" = 13.26   $ Msr (Multi)TechID: MsrNResSplitAC-lt45-S17
 "EIR_fT" = SpltAC2SpHiSEER_EIR_fT   $ Msr (Multi)TechID: MsrNResSplitAC-lt45-S17
 "EconoCtrl" = FIXED   $ Msr (Multi)TechID: MsrNResSplitAC-lt45-S17
 "EconoEnthLimit" = 28   $ IP Non-Tech
 "EconoTempLimit" = 75   $ IP Non-Tech
 "Elevation" = 2523   $ IP Non-Tech
 "FanEirPlr" = TwoSpeedFan   $ Msr (Multi)TechID: MsrNResSplitAC-lt45-S17
 "FanWPerCfm" = 0.271   $ Msr (Multi)TechID: MsrNResSplitAC-lt45-S17
 "HDD_CloudAmt1" = 0   $ IP Non-Tech
 "HDD_DBHi1" = 50   $ IP Non-Tech
 "HDD_DBRange1" = 24   $ IP Non-Tech
 "HDD_Day1" = 15   $ IP Non-Tech
 "HDD_HrHi1" = 14   $ IP Non-Tech
 "HDD_HrLo1" = 6   $ IP Non-Tech
 "HDD_WB1" = 36.9   $ IP Non-Tech
 "HDD_WindSpd1" = 17.3   $ IP Non-Tech
 "HIR_fT" = 0   $ Msr (Multi)TechID: MsrNResSplitAC-lt45-S17
 "HSPF" = 0   $ Msr (Multi)TechID: MsrNResSplitAC-lt45-S17
 "HeatSrc" = FURNACE   $ IP Non-Tech
 "HeatSrcTU" = HEAT-PUMP   $ IP Non-Tech
 "HeatType" = GasFurn   $ IP Non-Tech
 "HeatTypeTU" = HEAT-PUMP   $ IP Non-Tech
 "HtCap_fT" = 0   $ Msr (Multi)TechID: MsrNResSplitAC-lt45-S17
 "HtCoolCapRatio" = 0   $ Msr (Multi)TechID: MsrNResSplitAC-lt45-S17
 "HtgEIR" = 0   $ Msr (Multi)TechID: MsrNResSplitAC-lt45-S17
 "IndoorFanMode" = CONTINUOUS   $ IP Non-Tech
 "KT_TransferAir" = Yes   $ IP Non-Tech
 "Latitude" = 35.7   $ IP Non-Tech
 "LobbyWaiting_EWSF" = 0.5   $ IP Non-Tech
 "LobbyWaiting_LWSF" = 0.75   $ IP Non-Tech
 "Longitude" = 117.7   $ IP Non-Tech
 "LowSpdCapRatio" = 0.686   $ Msr (Multi)TechID: MsrNResSplitAC-lt45-S17
 "LowSpdCfmRatio" = 0.739   $ Msr (Multi)TechID: MsrNResSplitAC-lt45-S17
 "MZFanMechEff" = 0.58   $ IP Non-Tech
 "MZHasRetFan" = FALSE   $ IP Non-Tech
 "MZ_RFanWPerCfm" = 0.37   $ IP Non-Tech
 "MZ_SFanWPerCfm" = 0.71   $ IP Non-Tech
 "MZ_SupFanStatic" = 2.25   $ IP Non-Tech
 "MaxOAFrac" = 1   $ Msr (Multi)TechID: MsrNResSplitAC-lt45-S17
 "MaxSupT_MZ" = 100   $ IP Non-Tech
 "MaxSupT_SZ" = 100   $ IP Non-Tech
 "MaxSupT_TU" = 90   $ IP Non-Tech
 "MechElecRoom_EWSF" = 0.2   $ IP Non-Tech
 "MechElecRoom_LWSF" = 0.4   $ IP Non-Tech
 "MinCfmPerSF" = 0.4   $ IP Non-Tech
 "MinSupT" = 55   $ IP Non-Tech
 "NumStages" = 2   $ Msr (Multi)TechID: MsrNResSplitAC-lt45-S17
 "OccCoolT" = 76   $ IP Non-Tech
 "OccHeatT" = 72   $ IP Non-Tech
 "OfficeOpen_EWSF" = 1.5   $ IP Non-Tech
 "OfficeOpen_LWSF" = 0.8   $ IP Non-Tech
 "OfficeSmall_EWSF" = 1.5   $ IP Non-Tech
 "OfficeSmall_LWSF" = 0.9   $ IP Non-Tech
 "PkgDxVintEconoFlag" = 1   $ IP Non-Tech
 "Restroom_EWSF" = 0.2   $ IP Non-Tech
 "Restroom_LWSF" = 0.65   $ IP Non-Tech
 "SEER" = 17   $ Msr (Multi)TechID: MsrNResSplitAC-lt45-S17
 "SZFanMechEff" = 0.58   $ IP Non-Tech
 "SZHasRetFan" = FALSE   $ IP Non-Tech
 "SZ_Is_2Spd" = TRUE   $ IP Non-Tech
 "SZ_SFanWPerCfm" = 0.46   $ IP Non-Tech
 "SZ_SupFanStatic" = 0.75   $ IP Non-Tech
 "Sector" = Any   $ Msr (Multi)TechID: MsrNResSplitAC-lt45-S17
 "StorageSmlCond_EWSF" = 0.2   $ IP Non-Tech
 "StorageSmlCond_LWSF" = 0.45   $ IP Non-Tech
 "SubType" = AC   $ Msr (Multi)TechID: MsrNResSplitAC-lt45-S17
 "TermUnitFanMechEff" = 1   $ IP Non-Tech
 "TermUnitFanMode" = INTERMITTENT   $ IP Non-Tech
 "TotCoolCap" = 58805   $ Msr (Multi)TechID: MsrNResSplitAC-lt45-S17
 "TwrSetpt" = 90   $ IP Non-Tech
 "UnocCoolT" = 86   $ IP Non-Tech
 "UnocHeatT" = 62   $ IP Non-Tech
 "UseEconoVintApplic" = FALSE   $ Msr (Multi)TechID: MsrNResSplitAC-lt45-S17
 "WlhpVintEconoFlag" = 1   $ IP Non-Tech
 "DuctDT" = 1   $ IP Tech: ComDuctInsul-1
 "DuctAirLoss" = 0   $ IP Tech: ComDuctLeak-0
 "DuctLossOAFrac" = 0   $ IP Tech: ComDuctLeak-0
 "ComRoofInsCalc" = FromUo   $ IP Tech: ComRoofIns-Hvy-0.03
 "ComRoofInsR" = -999   $ IP Tech: ComRoofIns-Hvy-0.03
 "ComRoofUo" = 0.03   $ IP Tech: ComRoofIns-Hvy-0.03
 "ComEWInsCalc" = FromUo   $ IP Tech: ComWallIns-MFrm-0.06
 "ComEWInsR" = -999   $ IP Tech: ComWallIns-MFrm-0.06
 "ComEWUo" = 0.06   $ IP Tech: ComWallIns-MFrm-0.06
 "ComN_SHGC" = 0.26   $ IP Tech: NResWin-ComN-0.41-0.26
 "ComN_UFactor" = 0.41   $ IP Tech: NResWin-ComN-0.41-0.26
 "ComN_VisTrans" = 0.41   $ IP Tech: NResWin-ComN-0.41-0.26
 "ComN_WinCode" = G2666   $ IP Tech: NResWin-ComN-0.41-0.26
 "ComN_WinFrmFrac" = 0.17   $ IP Tech: NResWin-ComN-0.41-0.26
 "ComN_WinFrmU" = 0.3   $ IP Tech: NResWin-ComN-0.41-0.26
 "ComO_SHGC" = 0.26   $ IP Tech: NResWin-ComO-0.41-0.26
 "ComO_UFactor" = 0.41   $ IP Tech: NResWin-ComO-0.41-0.26
 "ComO_VisTrans" = 0.41   $ IP Tech: NResWin-ComO-0.41-0.26
 "ComO_WinCode" = G2666   $ IP Tech: NResWin-ComO-0.41-0.26
 "ComO_WinFrmFrac" = 0.17   $ IP Tech: NResWin-ComO-0.41-0.26
 "ComO_WinFrmU" = 0.3   $ IP Tech: NResWin-ComO-0.41-0.26
 "LtgMsrApplic" = ALL   $ IP Tech: NonResLtgRefPre
 "LtgSav_CFL" = 0   $ IP Tech: NonResLtgRefPre
 "LtgSav_EX" = 0   $ IP Tech: NonResLtgRefPre
 "LtgSav_HB" = 0   $ IP Tech: NonResLtgRefPre
 "LtgSav_LF" = 0   $ IP Tech: NonResLtgRefPre
 "LtgSav_SP" = 0   $ IP Tech: NonResLtgRefPre
 "CEIR_fPLR" = PSZ65to135_CEIR_fPLR   $ IP Tech: PkgAC2SpP-65to135-E11
 "CLoss_fPLR" = PSZ65to135_CLoss_fPLR   $ IP Tech: PkgAC2SpP-65to135-E11
 "COP" = -1   $ IP Tech: PkgAC2SpP-65to135-E11
 "HtgFuel" = Gas   $ IP Tech: PkgAC2SpP-65to135-E11
 "IEER" = 13.35   $ IP Tech: PkgAC2SpP-65to135-E11
 "NominalCap" = 15   $ IP Tech: PkgAC2SpP-65to135-E11
 "RatedEER" = 11   $ IP Tech: PkgAC2SpP-65to135-E11
 "RatedSupMtrClass" = Premium   $ IP Tech: PkgAC2SpP-65to135-E11
 "SizeRange" = 65to135   $ IP Tech: PkgAC2SpP-65to135-E11
 "SupMotEff" = 0.865   $ IP Tech: PkgAC2SpP-65to135-E11
 "Tier" = 0   $ IP Tech: PkgAC2SpP-65to135-E11
 "FanPwrMult" = 1   $ IP Tech: PkgFurn-0.80AFUE
 "FurnAFUE" = 0.8   $ IP Tech: PkgFurn-0.80AFUE
 "FurnEt" = 0.82   $ IP Tech: PkgFurn-0.80AFUE
 "FurnaceAuxKW" = 0.1   $ IP Tech: PkgFurn-0.80AFUE
 "HIR_fPLR" = Furnace-HIR-fPLR   $ IP Tech: PkgFurn-0.80AFUE
 "VSM" = FALSE   $ IP Tech: PkgFurn-0.80AFUE
 "BFMult" = 1   $ IP Tech: RefgChg-NRes-Std
 "CoolEirMult" = 1   $ IP Tech: RefgChg-NRes-Std
 "SensCoolCapMult" = 1   $ IP Tech: RefgChg-NRes-Std
 "TotCoolCapMult" = 1   $ IP Tech: RefgChg-NRes-Std
 "AltAdjFactor" = 1.09733   $ Sizing
 "CAssFlo_L_Break_CZn" = 634.1096   $ Sizing
 "CAssFlo_L_Conf_CZn" = 619.4631   $ Sizing
 "CAssFlo_L_CopyRm_CZn" = 189.5166   $ Sizing
 "CAssFlo_L_Cordr_CZn" = 738.2408   $ Sizing
 "CAssFlo_L_Cordr_EZn" = 262.4991   $ Sizing
 "CAssFlo_L_Cordr_NZn" = 183.1522   $ Sizing
 "CAssFlo_L_Cordr_SZn" = 261.395   $ Sizing
 "CAssFlo_L_Cordr_WZn" = 291.5929   $ Sizing
 "CAssFlo_L_LobWait_CZn" = 588.5002   $ Sizing
 "CAssFlo_L_MechElec_CZn" = 141.3973   $ Sizing
 "CAssFlo_L_OfficeOpn_CZn" = 2001.454   $ Sizing
 "CAssFlo_L_OfficeOpn_EZn" = 1787.568   $ Sizing
 "CAssFlo_L_OfficeOpn_NZn" = 1304.528   $ Sizing
 "CAssFlo_L_OfficeOpn_SZn" = 1783.342   $ Sizing
 "CAssFlo_L_OfficeOpn_WZn" = 2038.57   $ Sizing
 "CAssFlo_L_OfficeSm_CZn" = 269.4436   $ Sizing
 "CAssFlo_L_OfficeSm_EZn" = 1277.465   $ Sizing
 "CAssFlo_L_OfficeSm_NZn" = 853.6845   $ Sizing
 "CAssFlo_L_OfficeSm_SZn" = 1257.628   $ Sizing
 "CAssFlo_L_OfficeSm_WZn" = 1436.898   $ Sizing
 "CAssFlo_L_Restrm_CZn" = 107.1644   $ Sizing
 "CAssFlo_L_StorSm_CZn" = 445.284   $ Sizing
 "CAssFlo_M_Break_CZn" = 635.1488   $ Sizing
 "CAssFlo_M_Conf_CZn" = 614.3208   $ Sizing
 "CAssFlo_M_CopyRm_CZn" = 179.9763   $ Sizing
 "CAssFlo_M_Cordr_CZn" = 1026.455   $ Sizing
 "CAssFlo_M_Cordr_EZn" = 301.0554   $ Sizing
 "CAssFlo_M_Cordr_NZn" = 197.8154   $ Sizing
 "CAssFlo_M_Cordr_SZn" = 283.9645   $ Sizing
 "CAssFlo_M_Cordr_WZn" = 306.4117   $ Sizing
 "CAssFlo_M_LobWait_CZn" = 607.392   $ Sizing
 "CAssFlo_M_MechElec_CZn" = 172.2951   $ Sizing
 "CAssFlo_M_OfficeOpn_CZn" = 2142.276   $ Sizing
 "CAssFlo_M_OfficeOpn_EZn" = 1936.861   $ Sizing
 "CAssFlo_M_OfficeOpn_NZn" = 1362.942   $ Sizing
 "CAssFlo_M_OfficeOpn_SZn" = 1875.433   $ Sizing
 "CAssFlo_M_OfficeOpn_WZn" = 2086.68   $ Sizing
 "CAssFlo_M_OfficeSm_CZn" = 327.1751   $ Sizing
 "CAssFlo_M_OfficeSm_EZn" = 1366.188   $ Sizing
 "CAssFlo_M_OfficeSm_NZn" = 881.957   $ Sizing
 "CAssFlo_M_OfficeSm_SZn" = 1310.262   $ Sizing
 "CAssFlo_M_OfficeSm_WZn" = 1461.856   $ Sizing
 "CAssFlo_M_Restrm_CZn" = 120.5043   $ Sizing
 "CAssFlo_M_StorSm_CZn" = 461.1841   $ Sizing
 "CAssFlo_T_Break_CZn" = 629.9927   $ Sizing
 "CAssFlo_T_Conf_CZn" = 609.3196   $ Sizing
 "CAssFlo_T_CopyRm_CZn" = 180.1971   $ Sizing
 "CAssFlo_T_Cordr_CZn" = 949.2505   $ Sizing
 "CAssFlo_T_Cordr_EZn" = 290.6369   $ Sizing
 "CAssFlo_T_Cordr_NZn" = 199.8441   $ Sizing
 "CAssFlo_T_Cordr_SZn" = 280.5547   $ Sizing
 "CAssFlo_T_Cordr_WZn" = 304.5219   $ Sizing
 "CAssFlo_T_LobWait_CZn" = 609.1293   $ Sizing
 "CAssFlo_T_MechElec_CZn" = 191.9427   $ Sizing
 "CAssFlo_T_OfficeOpn_CZn" = 2031.06   $ Sizing
 "CAssFlo_T_OfficeOpn_EZn" = 1899.673   $ Sizing
 "CAssFlo_T_OfficeOpn_NZn" = 1372.703   $ Sizing
 "CAssFlo_T_OfficeOpn_SZn" = 1879.147   $ Sizing
 "CAssFlo_T_OfficeOpn_WZn" = 2065.113   $ Sizing
 "CAssFlo_T_OfficeSm_CZn" = 301.3611   $ Sizing
 "CAssFlo_T_OfficeSm_EZn" = 1373.486   $ Sizing
 "CAssFlo_T_OfficeSm_NZn" = 899.4123   $ Sizing
 "CAssFlo_T_OfficeSm_SZn" = 1328.852   $ Sizing
 "CAssFlo_T_OfficeSm_WZn" = 1471.246   $ Sizing
 "CAssFlo_T_Restrm_CZn" = 149.1348   $ Sizing
 "CAssFlo_T_StorSm_CZn" = 285.9005   $ Sizing
 "CHRtFlo_Sys_L_Break_C" = 634.1096   $ Sizing
 "CHRtFlo_Sys_L_Conf_C" = 619.4631   $ Sizing
 "CHRtFlo_Sys_L_CopyRm_C" = 189.5166   $ Sizing
 "CHRtFlo_Sys_L_Cordr_C" = 738.2408   $ Sizing
 "CHRtFlo_Sys_L_Cordr_E" = 282.4779   $ Sizing
 "CHRtFlo_Sys_L_Cordr_N" = 183.1522   $ Sizing
 "CHRtFlo_Sys_L_Cordr_S" = 261.395   $ Sizing
 "CHRtFlo_Sys_L_Cordr_W" = 291.5929   $ Sizing
 "CHRtFlo_Sys_L_LobWait_C" = 588.5002   $ Sizing
 "CHRtFlo_Sys_L_MechElec_C" = 146.1277   $ Sizing
 "CHRtFlo_Sys_L_OfficeOpn_C" = 2001.454   $ Sizing
 "CHRtFlo_Sys_L_OfficeOpn_E" = 1969.138   $ Sizing
 "CHRtFlo_Sys_L_OfficeOpn_N" = 1304.528   $ Sizing
 "CHRtFlo_Sys_L_OfficeOpn_S" = 1847.769   $ Sizing
 "CHRtFlo_Sys_L_OfficeOpn_W" = 2038.57   $ Sizing
 "CHRtFlo_Sys_L_OfficeSm_C" = 280.6912   $ Sizing
 "CHRtFlo_Sys_L_OfficeSm_E" = 1437.47   $ Sizing
 "CHRtFlo_Sys_L_OfficeSm_N" = 853.6845   $ Sizing
 "CHRtFlo_Sys_L_OfficeSm_S" = 1358.107   $ Sizing
 "CHRtFlo_Sys_L_OfficeSm_W" = 1448.93   $ Sizing
 "CHRtFlo_Sys_L_Restrm_C" = 230.7435   $ Sizing
 "CHRtFlo_Sys_L_StorSm_C" = 455.0001   $ Sizing
 "CHRtFlo_Sys_M_Break_C" = 5081.19   $ Sizing
 "CHRtFlo_Sys_M_Conf_C" = 4914.566   $ Sizing
 "CHRtFlo_Sys_M_CopyRm_C" = 1439.811   $ Sizing
 "CHRtFlo_Sys_M_Cordr_C" = 8657.326   $ Sizing
 "CHRtFlo_Sys_M_Cordr_E" = 2634.831   $ Sizing
 "CHRtFlo_Sys_M_Cordr_N" = 1631.459   $ Sizing
 "CHRtFlo_Sys_M_Cordr_S" = 2340.259   $ Sizing
 "CHRtFlo_Sys_M_Cordr_W" = 2451.293   $ Sizing
 "CHRtFlo_Sys_M_LobWait_C" = 4859.136   $ Sizing
 "CHRtFlo_Sys_M_MechElec_C" = 1474.839   $ Sizing
 "CHRtFlo_Sys_M_OfficeOpn_C" = 18276.38   $ Sizing
 "CHRtFlo_Sys_M_OfficeOpn_E" = 17104.6   $ Sizing
 "CHRtFlo_Sys_M_OfficeOpn_N" = 10903.53   $ Sizing
 "CHRtFlo_Sys_M_OfficeOpn_S" = 15846.05   $ Sizing
 "CHRtFlo_Sys_M_OfficeOpn_W" = 16693.44   $ Sizing
 "CHRtFlo_Sys_M_OfficeSm_C" = 2846.95   $ Sizing
 "CHRtFlo_Sys_M_OfficeSm_E" = 12306.54   $ Sizing
 "CHRtFlo_Sys_M_OfficeSm_N" = 7055.656   $ Sizing
 "CHRtFlo_Sys_M_OfficeSm_S" = 11486.34   $ Sizing
 "CHRtFlo_Sys_M_OfficeSm_W" = 11788.61   $ Sizing
 "CHRtFlo_Sys_M_Restrm_C" = 1845.948   $ Sizing
 "CHRtFlo_Sys_M_StorSm_C" = 3820.608   $ Sizing
 "CHRtFlo_Sys_T_Break_C" = 629.9927   $ Sizing
 "CHRtFlo_Sys_T_Conf_C" = 609.3196   $ Sizing
 "CHRtFlo_Sys_T_CopyRm_C" = 180.1971   $ Sizing
 "CHRtFlo_Sys_T_Cordr_C" = 949.2505   $ Sizing
 "CHRtFlo_Sys_T_Cordr_E" = 291.1281   $ Sizing
 "CHRtFlo_Sys_T_Cordr_N" = 199.8441   $ Sizing
 "CHRtFlo_Sys_T_Cordr_S" = 280.5547   $ Sizing
 "CHRtFlo_Sys_T_Cordr_W" = 304.5219   $ Sizing
 "CHRtFlo_Sys_T_LobWait_C" = 609.1293   $ Sizing
 "CHRtFlo_Sys_T_MechElec_C" = 208.6809   $ Sizing
 "CHRtFlo_Sys_T_OfficeOpn_C" = 2031.06   $ Sizing
 "CHRtFlo_Sys_T_OfficeOpn_E" = 1944.012   $ Sizing
 "CHRtFlo_Sys_T_OfficeOpn_N" = 1372.703   $ Sizing
 "CHRtFlo_Sys_T_OfficeOpn_S" = 1879.147   $ Sizing
 "CHRtFlo_Sys_T_OfficeOpn_W" = 2065.113   $ Sizing
 "CHRtFlo_Sys_T_OfficeSm_C" = 312.0221   $ Sizing
 "CHRtFlo_Sys_T_OfficeSm_E" = 1439.244   $ Sizing
 "CHRtFlo_Sys_T_OfficeSm_N" = 899.4124   $ Sizing
 "CHRtFlo_Sys_T_OfficeSm_S" = 1367.163   $ Sizing
 "CHRtFlo_Sys_T_OfficeSm_W" = 1471.246   $ Sizing
 "CHRtFlo_Sys_T_Restrm_C" = 230.7435   $ Sizing
 "CHRtFlo_Sys_T_StorSm_C" = 363.8655   $ Sizing
 "CRtdFlo_Sys_L_Break_C" = 634.1096   $ Sizing
 "CRtdFlo_Sys_L_Conf_C" = 619.4631   $ Sizing
 "CRtdFlo_Sys_L_CopyRm_C" = 189.5166   $ Sizing
 "CRtdFlo_Sys_L_Cordr_C" = 738.2408   $ Sizing
 "CRtdFlo_Sys_L_Cordr_E" = 262.4991   $ Sizing
 "CRtdFlo_Sys_L_Cordr_N" = 183.1522   $ Sizing
 "CRtdFlo_Sys_L_Cordr_S" = 261.395   $ Sizing
 "CRtdFlo_Sys_L_Cordr_W" = 291.5929   $ Sizing
 "CRtdFlo_Sys_L_LobWait_C" = 588.5002   $ Sizing
 "CRtdFlo_Sys_L_MechElec_C" = 141.3973   $ Sizing
 "CRtdFlo_Sys_L_OfficeOpn_C" = 2001.454   $ Sizing
 "CRtdFlo_Sys_L_OfficeOpn_E" = 1787.568   $ Sizing
 "CRtdFlo_Sys_L_OfficeOpn_N" = 1304.528   $ Sizing
 "CRtdFlo_Sys_L_OfficeOpn_S" = 1783.342   $ Sizing
 "CRtdFlo_Sys_L_OfficeOpn_W" = 2038.57   $ Sizing
 "CRtdFlo_Sys_L_OfficeSm_C" = 269.4436   $ Sizing
 "CRtdFlo_Sys_L_OfficeSm_E" = 1277.465   $ Sizing
 "CRtdFlo_Sys_L_OfficeSm_N" = 853.6845   $ Sizing
 "CRtdFlo_Sys_L_OfficeSm_S" = 1257.628   $ Sizing
 "CRtdFlo_Sys_L_OfficeSm_W" = 1436.898   $ Sizing
 "CRtdFlo_Sys_L_Restrm_C" = 107.1644   $ Sizing
 "CRtdFlo_Sys_L_StorSm_C" = 445.284   $ Sizing
 "CRtdFlo_Sys_M_Break_C" = 5081.19   $ Sizing
 "CRtdFlo_Sys_M_Conf_C" = 4914.566   $ Sizing
 "CRtdFlo_Sys_M_CopyRm_C" = 1439.811   $ Sizing
 "CRtdFlo_Sys_M_Cordr_C" = 8211.641   $ Sizing
 "CRtdFlo_Sys_M_Cordr_E" = 2408.443   $ Sizing
 "CRtdFlo_Sys_M_Cordr_N" = 1582.523   $ Sizing
 "CRtdFlo_Sys_M_Cordr_S" = 2271.716   $ Sizing
 "CRtdFlo_Sys_M_Cordr_W" = 2451.293   $ Sizing
 "CRtdFlo_Sys_M_LobWait_C" = 4859.136   $ Sizing
 "CRtdFlo_Sys_M_MechElec_C" = 1378.361   $ Sizing
 "CRtdFlo_Sys_M_OfficeOpn_C" = 17138.21   $ Sizing
 "CRtdFlo_Sys_M_OfficeOpn_E" = 15494.88   $ Sizing
 "CRtdFlo_Sys_M_OfficeOpn_N" = 10903.53   $ Sizing
 "CRtdFlo_Sys_M_OfficeOpn_S" = 15003.47   $ Sizing
 "CRtdFlo_Sys_M_OfficeOpn_W" = 16693.44   $ Sizing
 "CRtdFlo_Sys_M_OfficeSm_C" = 2617.401   $ Sizing
 "CRtdFlo_Sys_M_OfficeSm_E" = 10929.51   $ Sizing
 "CRtdFlo_Sys_M_OfficeSm_N" = 7055.656   $ Sizing
 "CRtdFlo_Sys_M_OfficeSm_S" = 10482.1   $ Sizing
 "CRtdFlo_Sys_M_OfficeSm_W" = 11694.85   $ Sizing
 "CRtdFlo_Sys_M_Restrm_C" = 964.0342   $ Sizing
 "CRtdFlo_Sys_M_StorSm_C" = 3689.473   $ Sizing
 "CRtdFlo_Sys_T_Break_C" = 629.9927   $ Sizing
 "CRtdFlo_Sys_T_Conf_C" = 609.3196   $ Sizing
 "CRtdFlo_Sys_T_CopyRm_C" = 180.1971   $ Sizing
 "CRtdFlo_Sys_T_Cordr_C" = 949.2505   $ Sizing
 "CRtdFlo_Sys_T_Cordr_E" = 290.6369   $ Sizing
 "CRtdFlo_Sys_T_Cordr_N" = 199.8441   $ Sizing
 "CRtdFlo_Sys_T_Cordr_S" = 280.5547   $ Sizing
 "CRtdFlo_Sys_T_Cordr_W" = 304.5219   $ Sizing
 "CRtdFlo_Sys_T_LobWait_C" = 609.1293   $ Sizing
 "CRtdFlo_Sys_T_MechElec_C" = 191.9427   $ Sizing
 "CRtdFlo_Sys_T_OfficeOpn_C" = 2031.06   $ Sizing
 "CRtdFlo_Sys_T_OfficeOpn_E" = 1899.673   $ Sizing
 "CRtdFlo_Sys_T_OfficeOpn_N" = 1372.703   $ Sizing
 "CRtdFlo_Sys_T_OfficeOpn_S" = 1879.147   $ Sizing
 "CRtdFlo_Sys_T_OfficeOpn_W" = 2065.113   $ Sizing
 "CRtdFlo_Sys_T_OfficeSm_C" = 301.3611   $ Sizing
 "CRtdFlo_Sys_T_OfficeSm_E" = 1373.486   $ Sizing
 "CRtdFlo_Sys_T_OfficeSm_N" = 899.4124   $ Sizing
 "CRtdFlo_Sys_T_OfficeSm_S" = 1328.852   $ Sizing
 "CRtdFlo_Sys_T_OfficeSm_W" = 1471.246   $ Sizing
 "CRtdFlo_Sys_T_Restrm_C" = 149.1348   $ Sizing
 "CRtdFlo_Sys_T_StorSm_C" = 285.9005   $ Sizing
 "CSupFlo_Sys_L_Break_C" = 634.1096   $ Sizing
 "CSupFlo_Sys_L_Conf_C" = 619.4631   $ Sizing
 "CSupFlo_Sys_L_CopyRm_C" = 189.5166   $ Sizing
 "CSupFlo_Sys_L_Cordr_C" = 738.2408   $ Sizing
 "CSupFlo_Sys_L_Cordr_E" = 262.4991   $ Sizing
 "CSupFlo_Sys_L_Cordr_N" = 183.1522   $ Sizing
 "CSupFlo_Sys_L_Cordr_S" = 261.395   $ Sizing
 "CSupFlo_Sys_L_Cordr_W" = 291.5929   $ Sizing
 "CSupFlo_Sys_L_LobWait_C" = 588.5002   $ Sizing
 "CSupFlo_Sys_L_MechElec_C" = 141.3973   $ Sizing
 "CSupFlo_Sys_L_OfficeOpn_C" = 2001.454   $ Sizing
 "CSupFlo_Sys_L_OfficeOpn_E" = 1787.568   $ Sizing
 "CSupFlo_Sys_L_OfficeOpn_N" = 1304.528   $ Sizing
 "CSupFlo_Sys_L_OfficeOpn_S" = 1783.342   $ Sizing
 "CSupFlo_Sys_L_OfficeOpn_W" = 2038.57   $ Sizing
 "CSupFlo_Sys_L_OfficeSm_C" = 269.4436   $ Sizing
 "CSupFlo_Sys_L_OfficeSm_E" = 1277.465   $ Sizing
 "CSupFlo_Sys_L_OfficeSm_N" = 853.6845   $ Sizing
 "CSupFlo_Sys_L_OfficeSm_S" = 1257.628   $ Sizing
 "CSupFlo_Sys_L_OfficeSm_W" = 1436.898   $ Sizing
 "CSupFlo_Sys_L_Restrm_C" = 107.1644   $ Sizing
 "CSupFlo_Sys_L_StorSm_C" = 445.284   $ Sizing
 "CSupFlo_Sys_M_Break_C" = 5081.19   $ Sizing
 "CSupFlo_Sys_M_Conf_C" = 4914.566   $ Sizing
 "CSupFlo_Sys_M_CopyRm_C" = 1439.811   $ Sizing
 "CSupFlo_Sys_M_Cordr_C" = 8211.641   $ Sizing
 "CSupFlo_Sys_M_Cordr_E" = 2408.443   $ Sizing
 "CSupFlo_Sys_M_Cordr_N" = 1582.523   $ Sizing
 "CSupFlo_Sys_M_Cordr_S" = 2271.716   $ Sizing
 "CSupFlo_Sys_M_Cordr_W" = 2451.293   $ Sizing
 "CSupFlo_Sys_M_LobWait_C" = 4859.136   $ Sizing
 "CSupFlo_Sys_M_MechElec_C" = 1378.361   $ Sizing
 "CSupFlo_Sys_M_OfficeOpn_C" = 17138.21   $ Sizing
 "CSupFlo_Sys_M_OfficeOpn_E" = 15494.88   $ Sizing
 "CSupFlo_Sys_M_OfficeOpn_N" = 10903.53   $ Sizing
 "CSupFlo_Sys_M_OfficeOpn_S" = 15003.47   $ Sizing
 "CSupFlo_Sys_M_OfficeOpn_W" = 16693.44   $ Sizing
 "CSupFlo_Sys_M_OfficeSm_C" = 2617.401   $ Sizing
 "CSupFlo_Sys_M_OfficeSm_E" = 10929.51   $ Sizing
 "CSupFlo_Sys_M_OfficeSm_N" = 7055.656   $ Sizing
 "CSupFlo_Sys_M_OfficeSm_S" = 10482.1   $ Sizing
 "CSupFlo_Sys_M_OfficeSm_W" = 11694.85   $ Sizing
 "CSupFlo_Sys_M_Restrm_C" = 964.0342   $ Sizing
 "CSupFlo_Sys_M_StorSm_C" = 3689.473   $ Sizing
 "CSupFlo_Sys_T_Break_C" = 629.9927   $ Sizing
 "CSupFlo_Sys_T_Conf_C" = 609.3196   $ Sizing
 "CSupFlo_Sys_T_CopyRm_C" = 180.1971   $ Sizing
 "CSupFlo_Sys_T_Cordr_C" = 949.2505   $ Sizing
 "CSupFlo_Sys_T_Cordr_E" = 290.6369   $ Sizing
 "CSupFlo_Sys_T_Cordr_N" = 199.8441   $ Sizing
 "CSupFlo_Sys_T_Cordr_S" = 280.5547   $ Sizing
 "CSupFlo_Sys_T_Cordr_W" = 304.5219   $ Sizing
 "CSupFlo_Sys_T_LobWait_C" = 609.1293   $ Sizing
 "CSupFlo_Sys_T_MechElec_C" = 191.9427   $ Sizing
 "CSupFlo_Sys_T_OfficeOpn_C" = 2031.06   $ Sizing
 "CSupFlo_Sys_T_OfficeOpn_E" = 1899.673   $ Sizing
 "CSupFlo_Sys_T_OfficeOpn_N" = 1372.703   $ Sizing
 "CSupFlo_Sys_T_OfficeOpn_S" = 1879.147   $ Sizing
 "CSupFlo_Sys_T_OfficeOpn_W" = 2065.113   $ Sizing
 "CSupFlo_Sys_T_OfficeSm_C" = 301.3611   $ Sizing
 "CSupFlo_Sys_T_OfficeSm_E" = 1373.486   $ Sizing
 "CSupFlo_Sys_T_OfficeSm_N" = 899.4124   $ Sizing
 "CSupFlo_Sys_T_OfficeSm_S" = 1328.852   $ Sizing
 "CSupFlo_Sys_T_OfficeSm_W" = 1471.246   $ Sizing
 "CSupFlo_Sys_T_Restrm_C" = 149.1348   $ Sizing
 "CSupFlo_Sys_T_StorSm_C" = 285.9005   $ Sizing
 "ClCap_Sys_L_Break_C" = 19812.55   $ Sizing
 "ClCap_Sys_L_Conf_C" = 24633.54   $ Sizing
 "ClCap_Sys_L_CopyRm_C" = 5921.383   $ Sizing
 "ClCap_Sys_L_Cordr_C" = 23066.09   $ Sizing
 "ClCap_Sys_L_Cordr_E" = 8201.699   $ Sizing
 "ClCap_Sys_L_Cordr_N" = 5722.532   $ Sizing
 "ClCap_Sys_L_Cordr_S" = 8167.202   $ Sizing
 "ClCap_Sys_L_Cordr_W" = 9110.726   $ Sizing
 "ClCap_Sys_L_LobWait_C" = 18387.5   $ Sizing
 "ClCap_Sys_L_MechElec_C" = 4417.913   $ Sizing
 "ClCap_Sys_L_OfficeOpn_C" = 62534.78   $ Sizing
 "ClCap_Sys_L_OfficeOpn_E" = 55851.97   $ Sizing
 "ClCap_Sys_L_OfficeOpn_N" = 40759.55   $ Sizing
 "ClCap_Sys_L_OfficeOpn_S" = 55719.95   $ Sizing
 "ClCap_Sys_L_OfficeOpn_W" = 63694.45   $ Sizing
 "ClCap_Sys_L_OfficeSm_C" = 8418.677   $ Sizing
 "ClCap_Sys_L_OfficeSm_E" = 39913.98   $ Sizing
 "ClCap_Sys_L_OfficeSm_N" = 26673.09   $ Sizing
 "ClCap_Sys_L_OfficeSm_S" = 39294.18   $ Sizing
 "ClCap_Sys_L_OfficeSm_W" = 44895.4   $ Sizing
 "ClCap_Sys_L_Restrm_C" = 3348.318   $ Sizing
 "ClCap_Sys_L_StorSm_C" = 13912.75   $ Sizing
 "ClCap_Sys_M_Break_C" = 158760.1   $ Sizing
 "ClCap_Sys_M_Conf_C" = 195432.4   $ Sizing
 "ClCap_Sys_M_CopyRm_C" = 44986.41   $ Sizing
 "ClCap_Sys_M_Cordr_C" = 256570   $ Sizing
 "ClCap_Sys_M_Cordr_E" = 75251.01   $ Sizing
 "ClCap_Sys_M_Cordr_N" = 49445.42   $ Sizing
 "ClCap_Sys_M_Cordr_S" = 70979.02   $ Sizing
 "ClCap_Sys_M_Cordr_W" = 76589.86   $ Sizing
 "ClCap_Sys_M_LobWait_C" = 151822.1   $ Sizing
 "ClCap_Sys_M_MechElec_C" = 43066.44   $ Sizing
 "ClCap_Sys_M_OfficeOpn_C" = 535477.8   $ Sizing
 "ClCap_Sys_M_OfficeOpn_E" = 484132.6   $ Sizing
 "ClCap_Sys_M_OfficeOpn_N" = 340677.4   $ Sizing
 "ClCap_Sys_M_OfficeOpn_S" = 468778.4   $ Sizing
 "ClCap_Sys_M_OfficeOpn_W" = 521581   $ Sizing
 "ClCap_Sys_M_OfficeSm_C" = 81779.84   $ Sizing
 "ClCap_Sys_M_OfficeSm_E" = 341488.8   $ Sizing
 "ClCap_Sys_M_OfficeSm_N" = 220451.7   $ Sizing
 "ClCap_Sys_M_OfficeSm_S" = 327509.8   $ Sizing
 "ClCap_Sys_M_OfficeSm_W" = 365401.8   $ Sizing
 "ClCap_Sys_M_Restrm_C" = 30120.93   $ Sizing
 "ClCap_Sys_M_StorSm_C" = 115276.4   $ Sizing
 "ClCap_Sys_T_Break_C" = 19683.92   $ Sizing
 "ClCap_Sys_T_Conf_C" = 24230.17   $ Sizing
 "ClCap_Sys_T_CopyRm_C" = 5630.199   $ Sizing
 "ClCap_Sys_T_Cordr_C" = 29659.02   $ Sizing
 "ClCap_Sys_T_Cordr_E" = 9080.854   $ Sizing
 "ClCap_Sys_T_Cordr_N" = 6244.063   $ Sizing
 "ClCap_Sys_T_Cordr_S" = 8765.839   $ Sizing
 "ClCap_Sys_T_Cordr_W" = 9514.687   $ Sizing
 "ClCap_Sys_T_LobWait_C" = 19032.05   $ Sizing
 "ClCap_Sys_T_MechElec_C" = 5997.188   $ Sizing
 "ClCap_Sys_T_OfficeOpn_C" = 63459.8   $ Sizing
 "ClCap_Sys_T_OfficeOpn_E" = 59354.66   $ Sizing
 "ClCap_Sys_T_OfficeOpn_N" = 42889.65   $ Sizing
 "ClCap_Sys_T_OfficeOpn_S" = 58713.33   $ Sizing
 "ClCap_Sys_T_OfficeOpn_W" = 64523.79   $ Sizing
 "ClCap_Sys_T_OfficeSm_C" = 9415.931   $ Sizing
 "ClCap_Sys_T_OfficeSm_E" = 42914.11   $ Sizing
 "ClCap_Sys_T_OfficeSm_N" = 28101.85   $ Sizing
 "ClCap_Sys_T_OfficeSm_S" = 41519.54   $ Sizing
 "ClCap_Sys_T_OfficeSm_W" = 45968.59   $ Sizing
 "ClCap_Sys_T_Restrm_C" = 4659.669   $ Sizing
 "ClCap_Sys_T_StorSm_C" = 8932.869   $ Sizing
 "HtCap_Sys_L_Break_C" = -35401.67   $ Sizing
 "HtCap_Sys_L_Conf_C" = -35782.48   $ Sizing
 "HtCap_Sys_L_CopyRm_C" = -12395.71   $ Sizing
 "HtCap_Sys_L_Cordr_C" = -31538.14   $ Sizing
 "HtCap_Sys_L_Cordr_E" = -9531.82   $ Sizing
 "HtCap_Sys_L_Cordr_N" = -7290.778   $ Sizing
 "HtCap_Sys_L_Cordr_S" = -8917.905   $ Sizing
 "HtCap_Sys_L_Cordr_W" = -9888.172   $ Sizing
 "HtCap_Sys_L_LobWait_C" = -33081.26   $ Sizing
 "HtCap_Sys_L_MechElec_C" = -6518.292   $ Sizing
 "HtCap_Sys_L_OfficeOpn_C" = -78023.28   $ Sizing
 "HtCap_Sys_L_OfficeOpn_E" = -63571   $ Sizing
 "HtCap_Sys_L_OfficeOpn_N" = -47543.77   $ Sizing
 "HtCap_Sys_L_OfficeOpn_S" = -59483.38   $ Sizing
 "HtCap_Sys_L_OfficeOpn_W" = -65568.87   $ Sizing
 "HtCap_Sys_L_OfficeSm_C" = -10540.45   $ Sizing
 "HtCap_Sys_L_OfficeSm_E" = -44441.02   $ Sizing
 "HtCap_Sys_L_OfficeSm_N" = -30867.47   $ Sizing
 "HtCap_Sys_L_OfficeSm_S" = -41748.58   $ Sizing
 "HtCap_Sys_L_OfficeSm_W" = -46145.65   $ Sizing
 "HtCap_Sys_L_Restrm_C" = -7805.866   $ Sizing
 "HtCap_Sys_L_StorSm_C" = -19061.6   $ Sizing
 "HtCap_Sys_M_Break_C" = -265932.6   $ Sizing
 "HtCap_Sys_M_Conf_C" = -261806.2   $ Sizing
 "HtCap_Sys_M_CopyRm_C" = -81303   $ Sizing
 "HtCap_Sys_M_Cordr_C" = -321089.1   $ Sizing
 "HtCap_Sys_M_Cordr_E" = -85949.16   $ Sizing
 "HtCap_Sys_M_Cordr_N" = -59272.2   $ Sizing
 "HtCap_Sys_M_Cordr_S" = -77472.28   $ Sizing
 "HtCap_Sys_M_Cordr_W" = -81801.52   $ Sizing
 "HtCap_Sys_M_LobWait_C" = -231845.6   $ Sizing
 "HtCap_Sys_M_MechElec_C" = -60046.89   $ Sizing
 "HtCap_Sys_M_OfficeOpn_C" = -659682.4   $ Sizing
 "HtCap_Sys_M_OfficeOpn_E" = -542775.2   $ Sizing
 "HtCap_Sys_M_OfficeOpn_N" = -386886.8   $ Sizing
 "HtCap_Sys_M_OfficeOpn_S" = -503229.9   $ Sizing
 "HtCap_Sys_M_OfficeOpn_W" = -532798.4   $ Sizing
 "HtCap_Sys_M_OfficeSm_C" = -100316.2   $ Sizing
 "HtCap_Sys_M_OfficeSm_E" = -378769.4   $ Sizing
 "HtCap_Sys_M_OfficeSm_N" = -248309.7   $ Sizing
 "HtCap_Sys_M_OfficeSm_S" = -361995.8   $ Sizing
 "HtCap_Sys_M_OfficeSm_W" = -372964.7   $ Sizing
 "HtCap_Sys_M_Restrm_C" = -67339.28   $ Sizing
 "HtCap_Sys_M_StorSm_C" = -153114.6   $ Sizing
 "HtCap_Sys_T_Break_C" = -35631.04   $ Sizing
 "HtCap_Sys_T_Conf_C" = -34858.91   $ Sizing
 "HtCap_Sys_T_CopyRm_C" = -11435.38   $ Sizing
 "HtCap_Sys_T_Cordr_C" = -40422.92   $ Sizing
 "HtCap_Sys_T_Cordr_E" = -10738.26   $ Sizing
 "HtCap_Sys_T_Cordr_N" = -8292.729   $ Sizing
 "HtCap_Sys_T_Cordr_S" = -10534.68   $ Sizing
 "HtCap_Sys_T_Cordr_W" = -11447.05   $ Sizing
 "HtCap_Sys_T_LobWait_C" = -32369.13   $ Sizing
 "HtCap_Sys_T_MechElec_C" = -8136.211   $ Sizing
 "HtCap_Sys_T_OfficeOpn_C" = -83997.02   $ Sizing
 "HtCap_Sys_T_OfficeOpn_E" = -68353.91   $ Sizing
 "HtCap_Sys_T_OfficeOpn_N" = -54658.87   $ Sizing
 "HtCap_Sys_T_OfficeOpn_S" = -67519.4   $ Sizing
 "HtCap_Sys_T_OfficeOpn_W" = -72884.45   $ Sizing
 "HtCap_Sys_T_OfficeSm_C" = -12348.19   $ Sizing
 "HtCap_Sys_T_OfficeSm_E" = -48665.5   $ Sizing
 "HtCap_Sys_T_OfficeSm_N" = -35346.29   $ Sizing
 "HtCap_Sys_T_OfficeSm_S" = -48086.96   $ Sizing
 "HtCap_Sys_T_OfficeSm_W" = -51497.7   $ Sizing
 "HtCap_Sys_T_Restrm_C" = -8560.904   $ Sizing
 "HtCap_Sys_T_StorSm_C" = -17774.35   $ Sizing
..

##include Templates\OfL_DX_SZ.inp
END ..
COMPUTE ..
STOP ..
