INPUT ..

##fileprefix C:\Users\jglasskatz\MASControl3\
##set1 IsSizing FALSE
##set1 CoolType DX
##set1 HeatType FURNACE
##set1 EU_HrRepVar 0
##set1 BldgVint 1996
##set1 BldgLoc CZ15

 ##set1 mBFMult 1   $ IP Tech: RefgChg-NRes-Std

PARAMETER
 "AltFactor" = 1.01767   $ IP Non-Tech
 "BF_fFlow" = SpltAC1Sp_BF_fFlow   $ Msr (Var)TechID: PreNResSplitAC-lt45-PENo
 "BF_fT" = SpltAC1Sp_BF_fT   $ Msr (Var)TechID: PreNResSplitAC-lt45-PENo
 "BldgEconoFlag" = 1   $ IP Non-Tech
 "Break_EWSF" = 1   $ IP Non-Tech
 "Break_LWSF" = 1.1   $ IP Non-Tech
 "CDD_DBHi10" = 97   $ IP Non-Tech
 "CDD_DBHi7" = 110   $ IP Non-Tech
 "CDD_DBHi8" = 111   $ IP Non-Tech
 "CDD_DBHi9" = 109   $ IP Non-Tech
 "CDD_DBRange10" = 25   $ IP Non-Tech
 "CDD_DBRange7" = 18   $ IP Non-Tech
 "CDD_DBRange8" = 23   $ IP Non-Tech
 "CDD_DBRange9" = 21   $ IP Non-Tech
 "CDD_Day10" = 15   $ IP Non-Tech
 "CDD_Day7" = 16   $ IP Non-Tech
 "CDD_Day8" = 20   $ IP Non-Tech
 "CDD_Day9" = 17   $ IP Non-Tech
 "CDD_HrHi10" = 14   $ IP Non-Tech
 "CDD_HrHi7" = 15   $ IP Non-Tech
 "CDD_HrHi8" = 18   $ IP Non-Tech
 "CDD_HrHi9" = 12   $ IP Non-Tech
 "CDD_HrLo10" = 5   $ IP Non-Tech
 "CDD_HrLo7" = 3   $ IP Non-Tech
 "CDD_HrLo8" = 4   $ IP Non-Tech
 "CDD_HrLo9" = 7   $ IP Non-Tech
 "CDD_WB10" = 64.62915039   $ IP Non-Tech
 "CDD_WB7" = 77.7762146   $ IP Non-Tech
 "CDD_WB8" = 78.616539   $ IP Non-Tech
 "CDD_WB9" = 73.63479614   $ IP Non-Tech
 "CEIR_fPLR_Hot" = SpltAC1Sp_CEIR_fPLR_Hot   $ Msr (Var)TechID: PreNResSplitAC-lt45-PENo
 "CEIR_fPLR_Mod" = SpltAC1Sp_CEIR_fPLR_Mod   $ Msr (Var)TechID: PreNResSplitAC-lt45-PENo
 "CEIR_fPLR_Tem" = SpltAC1Sp_CEIR_fPLR_Tem   $ Msr (Var)TechID: PreNResSplitAC-lt45-PENo
 "CLoss_fPLR_Hot" = SpltAC1Sp_CLoss_fPLR_Hot   $ Msr (Var)TechID: PreNResSplitAC-lt45-PENo
 "CLoss_fPLR_Mod" = SpltAC1Sp_CLoss_fPLR_Mod   $ Msr (Var)TechID: PreNResSplitAC-lt45-PENo
 "CLoss_fPLR_Tem" = SpltAC1Sp_CLoss_fPLR_Tem   $ Msr (Var)TechID: PreNResSplitAC-lt45-PENo
 "COP47" = 0   $ Msr (Var)TechID: PreNResSplitAC-lt45-PENo
 "CZ_Category" = Hot   $ IP Non-Tech
 "CapRange" = Any   $ Msr (Var)TechID: PreNResSplitAC-lt45-PENo
 "CfmPerBtuh" = 0.0321   $ Msr (Var)TechID: PreNResSplitAC-lt45-PENo
 "ChwVintEconoFlag" = 1   $ IP Non-Tech
 "ClCap_fT" = SpltAC1Sp_ClCap_fT   $ Msr (Var)TechID: PreNResSplitAC-lt45-PENo
 "ClSH_fT" = SpltAC1Sp_ClSH_fT   $ Msr (Var)TechID: PreNResSplitAC-lt45-PENo
 "CoilBF" = 0.12   $ Msr (Var)TechID: PreNResSplitAC-lt45-PENo
 "CondWPerBtuh" = 0   $ Msr (Var)TechID: PreNResSplitAC-lt45-PENo
 "Conference_EWSF" = 1.05   $ IP Non-Tech
 "Conference_LWSF" = 1.4   $ IP Non-Tech
 "CoolSensCap" = 0.744   $ Msr (Var)TechID: PreNResSplitAC-lt45-PENo
 "CoolSetT" = 45   $ IP Non-Tech
 "CoolType" = DX   $ IP Non-Tech
 "CoolingEIR" = 0.29437   $ Msr (Var)TechID: PreNResSplitAC-lt45-PENo
 "CopyRoom_EWSF" = 1.575   $ IP Non-Tech
 "CopyRoom_LWSF" = 1.3   $ IP Non-Tech
 "CorridorStairway_EWSF" = 0.21   $ IP Non-Tech
 "CorridorStairway_LWSF" = 0.6   $ IP Non-Tech
 "CrnkEIR" = 0.0029437   $ Msr (Var)TechID: PreNResSplitAC-lt45-PENo
 "CrnkMaxT" = 50   $ Msr (Var)TechID: PreNResSplitAC-lt45-PENo
 "DXType" = SplitSEER   $ Msr (Var)TechID: PreNResSplitAC-lt45-PENo
 "DesCoolT" = 75   $ IP Non-Tech
 "DesHeatT" = 73   $ IP Non-Tech
 "EER" = 9.799295775   $ Msr (Var)TechID: PreNResSplitAC-lt45-PENo
 "EIR_fT" = SpltAC1Sp_EIR_fT   $ Msr (Var)TechID: PreNResSplitAC-lt45-PENo
 "EconoCtrl" = FIXED   $ Msr (Multi)TechID: PreNResSplitAC-lt45-PENo
 "EconoEnthLimit" = 28   $ IP Non-Tech
 "EconoTempLimit" = 75   $ IP Non-Tech
 "Elevation" = 475   $ IP Non-Tech
 "FanEirPlr" = TwoSpeedFan   $ Msr (Var)TechID: PreNResSplitAC-lt45-PENo
 "FanWPerCfm" = 0.365   $ Msr (Var)TechID: PreNResSplitAC-lt45-PENo
 "HDD_CloudAmt1" = 0   $ IP Non-Tech
 "HDD_DBHi1" = 58   $ IP Non-Tech
 "HDD_DBRange1" = 21   $ IP Non-Tech
 "HDD_Day1" = 15   $ IP Non-Tech
 "HDD_HrHi1" = 13   $ IP Non-Tech
 "HDD_HrLo1" = 7   $ IP Non-Tech
 "HDD_WB1" = 39.7   $ IP Non-Tech
 "HDD_WindSpd1" = 10.4   $ IP Non-Tech
 "HIR_fT" = 0   $ Msr (Var)TechID: PreNResSplitAC-lt45-PENo
 "HSPF" = 0   $ Msr (Var)TechID: PreNResSplitAC-lt45-PENo
 "HeatSrc" = FURNACE   $ IP Non-Tech
 "HeatSrcTU" = HEAT-PUMP   $ IP Non-Tech
 "HeatType" = GasFurn   $ IP Non-Tech
 "HeatTypeTU" = HEAT-PUMP   $ IP Non-Tech
 "HtCap_fT" = 0   $ Msr (Var)TechID: PreNResSplitAC-lt45-PENo
 "HtCoolCapRatio" = 0   $ Msr (Var)TechID: PreNResSplitAC-lt45-PENo
 "HtgEIR" = 0   $ Msr (Var)TechID: PreNResSplitAC-lt45-PENo
 "IndoorFanMode" = CONTINUOUS   $ IP Non-Tech
 "KT_TransferAir" = No   $ IP Non-Tech
 "Latitude" = 33.8   $ IP Non-Tech
 "LobbyWaiting_EWSF" = 0.5125   $ IP Non-Tech
 "LobbyWaiting_LWSF" = 1.3   $ IP Non-Tech
 "Longitude" = 116.5   $ IP Non-Tech
 "LowSpdCapRatio" = 1   $ Msr (Var)TechID: PreNResSplitAC-lt45-PENo
 "LowSpdCfmRatio" = 1   $ Msr (Var)TechID: PreNResSplitAC-lt45-PENo
 "MZFanMechEff" = 0.58   $ IP Non-Tech
 "MZHasRetFan" = FALSE   $ IP Non-Tech
 "MZ_RFanWPerCfm" = 0.37   $ IP Non-Tech
 "MZ_SFanWPerCfm" = 0.71   $ IP Non-Tech
 "MZ_SupFanStatic" = 2.25   $ IP Non-Tech
 "MaxOAFrac" = 1   $ Msr (Multi)TechID: PreNResSplitAC-lt45-PENo
 "MaxSupT_MZ" = 100   $ IP Non-Tech
 "MaxSupT_SZ" = 100   $ IP Non-Tech
 "MaxSupT_TU" = 90   $ IP Non-Tech
 "MechElecRoom_EWSF" = 0.21   $ IP Non-Tech
 "MechElecRoom_LWSF" = 0.7   $ IP Non-Tech
 "MinCfmPerSF" = 0.4   $ IP Non-Tech
 "MinSupT" = 55   $ IP Non-Tech
 "NumStages" = 1   $ Msr (Var)TechID: PreNResSplitAC-lt45-PENo
 "OccCoolT" = 76   $ IP Non-Tech
 "OccHeatT" = 72   $ IP Non-Tech
 "OfficeOpen_EWSF" = 1.575   $ IP Non-Tech
 "OfficeOpen_LWSF" = 1.2   $ IP Non-Tech
 "OfficeSmall_EWSF" = 1.575   $ IP Non-Tech
 "OfficeSmall_LWSF" = 1.3   $ IP Non-Tech
 "PkgDxVintEconoFlag" = 0   $ IP Non-Tech
 "Restroom_EWSF" = 0.21   $ IP Non-Tech
 "Restroom_LWSF" = 0.6   $ IP Non-Tech
 "SEER" = 11.5   $ Msr (Var)TechID: PreNResSplitAC-lt45-PENo
 "SZFanMechEff" = 0.58   $ IP Non-Tech
 "SZHasRetFan" = FALSE   $ IP Non-Tech
 "SZ_Is_2Spd" = FALSE   $ IP Non-Tech
 "SZ_SFanWPerCfm" = 0.46   $ IP Non-Tech
 "SZ_SupFanStatic" = 0.75   $ IP Non-Tech
 "Sector" = Any   $ Msr (Var)TechID: PreNResSplitAC-lt45-PENo
 "StorageSmlCond_EWSF" = 0.21   $ IP Non-Tech
 "StorageSmlCond_LWSF" = 0.6   $ IP Non-Tech
 "SubType" = AC   $ Msr (Var)TechID: PreNResSplitAC-lt45-PENo
 "T24GlzTbl" = CZTbl   $ IP Non-Tech
 "TermUnitFanMechEff" = 1   $ IP Non-Tech
 "TermUnitFanMode" = INTERMITTENT   $ IP Non-Tech
 "TotCoolCap" = 34895   $ Msr (Var)TechID: PreNResSplitAC-lt45-PENo
 "TwrSetpt" = 89.1   $ IP Non-Tech
 "UnocCoolT" = 86   $ IP Non-Tech
 "UnocHeatT" = 62   $ IP Non-Tech
 "UseEconoVintApplic" = FALSE   $ Msr (Multi)TechID: PreNResSplitAC-lt45-PENo
 "WlhpVintEconoFlag" = 0   $ IP Non-Tech
 "DuctDT" = 1   $ IP Tech: ComDuctInsul-1
 "DuctAirLoss" = 0   $ IP Tech: ComDuctLeak-0
 "DuctLossOAFrac" = 0   $ IP Tech: ComDuctLeak-0
 "ComRoofInsCalc" = FromUo   $ IP Tech: ComRoofIns-Hvy-0.06
 "ComRoofInsR" = -999   $ IP Tech: ComRoofIns-Hvy-0.06
 "ComRoofUo" = 0.06   $ IP Tech: ComRoofIns-Hvy-0.06
 "ComEWInsCalc" = FromUo   $ IP Tech: ComWallIns-MFrm-0.13
 "ComEWInsR" = -999   $ IP Tech: ComWallIns-MFrm-0.13
 "ComEWUo" = 0.13   $ IP Tech: ComWallIns-MFrm-0.13
 "ComN_SHGC" = 0.5   $ IP Tech: NResWin-ComN-0.77-0.5
 "ComN_UFactor" = 0.77   $ IP Tech: NResWin-ComN-0.77-0.5
 "ComN_VisTrans" = 0.77   $ IP Tech: NResWin-ComN-0.77-0.5
 "ComN_WinCode" = G2630   $ IP Tech: NResWin-ComN-0.77-0.5
 "ComN_WinFrmFrac" = 0.17   $ IP Tech: NResWin-ComN-0.77-0.5
 "ComN_WinFrmU" = 1   $ IP Tech: NResWin-ComN-0.77-0.5
 "ComO_SHGC" = 0.5   $ IP Tech: NResWin-ComO-0.77-0.5
 "ComO_UFactor" = 0.77   $ IP Tech: NResWin-ComO-0.77-0.5
 "ComO_VisTrans" = 0.77   $ IP Tech: NResWin-ComO-0.77-0.5
 "ComO_WinCode" = G2630   $ IP Tech: NResWin-ComO-0.77-0.5
 "ComO_WinFrmFrac" = 0.17   $ IP Tech: NResWin-ComO-0.77-0.5
 "ComO_WinFrmU" = 1   $ IP Tech: NResWin-ComO-0.77-0.5
 "LtgMsrApplic" = ALL   $ IP Tech: NonResLtgRefPre
 "LtgSav_CFL" = 0   $ IP Tech: NonResLtgRefPre
 "LtgSav_EX" = 0   $ IP Tech: NonResLtgRefPre
 "LtgSav_HB" = 0   $ IP Tech: NonResLtgRefPre
 "LtgSav_LF" = 0   $ IP Tech: NonResLtgRefPre
 "LtgSav_SP" = 0   $ IP Tech: NonResLtgRefPre
 "CEIR_fPLR" = PSZ65to135_CEIR_fPLR   $ IP Tech: PkgAC1SpH-65to135-E10
 "CLoss_fPLR" = PSZ65to135_CLoss_fPLR   $ IP Tech: PkgAC1SpH-65to135-E10
 "COP" = -1   $ IP Tech: PkgAC1SpH-65to135-E10
 "HtgFuel" = Gas   $ IP Tech: PkgAC1SpH-65to135-E10
 "IEER" = 11.87   $ IP Tech: PkgAC1SpH-65to135-E10
 "NominalCap" = 15   $ IP Tech: PkgAC1SpH-65to135-E10
 "RatedEER" = 10   $ IP Tech: PkgAC1SpH-65to135-E10
 "RatedSupMtrClass" = HiEff   $ IP Tech: PkgAC1SpH-65to135-E10
 "SizeRange" = 65to135   $ IP Tech: PkgAC1SpH-65to135-E10
 "SupMotEff" = 0.84   $ IP Tech: PkgAC1SpH-65to135-E10
 "Tier" = 0   $ IP Tech: PkgAC1SpH-65to135-E10
 "FanPwrMult" = 1   $ IP Tech: PkgFurn-0.80AFUE
 "FurnAFUE" = 0.8   $ IP Tech: PkgFurn-0.80AFUE
 "FurnEt" = 0.82   $ IP Tech: PkgFurn-0.80AFUE
 "FurnaceAuxKW" = 0.1   $ IP Tech: PkgFurn-0.80AFUE
 "HIR_fPLR" = Furnace-HIR-fPLR   $ IP Tech: PkgFurn-0.80AFUE
 "VSM" = FALSE   $ IP Tech: PkgFurn-0.80AFUE
 "BFMult" = 1   $ IP Tech: RefgChg-NRes-Std
 "CoolEirMult" = 1   $ IP Tech: RefgChg-NRes-Std
 "SensCoolCapMult" = 1   $ IP Tech: RefgChg-NRes-Std
 "TotCoolCapMult" = 1   $ IP Tech: RefgChg-NRes-Std
 "AltAdjFactor" = 1.017668   $ Sizing
 "CAssFlo_L_Break_CZn" = 761.0751   $ Sizing
 "CAssFlo_L_Conf_CZn" = 749.6651   $ Sizing
 "CAssFlo_L_CopyRm_CZn" = 254.2156   $ Sizing
 "CAssFlo_L_Cordr_CZn" = 916.9648   $ Sizing
 "CAssFlo_L_Cordr_EZn" = 358.2507   $ Sizing
 "CAssFlo_L_Cordr_NZn" = 250.0883   $ Sizing
 "CAssFlo_L_Cordr_SZn" = 332.1452   $ Sizing
 "CAssFlo_L_Cordr_WZn" = 398.3228   $ Sizing
 "CAssFlo_L_LobWait_CZn" = 786.8528   $ Sizing
 "CAssFlo_L_MechElec_CZn" = 193.2363   $ Sizing
 "CAssFlo_L_OfficeOpn_CZn" = 2392.713   $ Sizing
 "CAssFlo_L_OfficeOpn_EZn" = 2418.969   $ Sizing
 "CAssFlo_L_OfficeOpn_NZn" = 1690.104   $ Sizing
 "CAssFlo_L_OfficeOpn_SZn" = 2233.49   $ Sizing
 "CAssFlo_L_OfficeOpn_WZn" = 2764.18   $ Sizing
 "CAssFlo_L_OfficeSm_CZn" = 314.1753   $ Sizing
 "CAssFlo_L_OfficeSm_EZn" = 1744.813   $ Sizing
 "CAssFlo_L_OfficeSm_NZn" = 1123.973   $ Sizing
 "CAssFlo_L_OfficeSm_SZn" = 1607.923   $ Sizing
 "CAssFlo_L_OfficeSm_WZn" = 1973.589   $ Sizing
 "CAssFlo_L_Restrm_CZn" = 130.1675   $ Sizing
 "CAssFlo_L_StorSm_CZn" = 558.1691   $ Sizing
 "CAssFlo_M_Break_CZn" = 769.9182   $ Sizing
 "CAssFlo_M_Conf_CZn" = 750.5533   $ Sizing
 "CAssFlo_M_CopyRm_CZn" = 250.0426   $ Sizing
 "CAssFlo_M_Cordr_CZn" = 1243.13   $ Sizing
 "CAssFlo_M_Cordr_EZn" = 389.4289   $ Sizing
 "CAssFlo_M_Cordr_NZn" = 256.6514   $ Sizing
 "CAssFlo_M_Cordr_SZn" = 352.943   $ Sizing
 "CAssFlo_M_Cordr_WZn" = 408.0141   $ Sizing
 "CAssFlo_M_LobWait_CZn" = 798.5475   $ Sizing
 "CAssFlo_M_MechElec_CZn" = 239.0612   $ Sizing
 "CAssFlo_M_OfficeOpn_CZn" = 2425.218   $ Sizing
 "CAssFlo_M_OfficeOpn_EZn" = 2545.538   $ Sizing
 "CAssFlo_M_OfficeOpn_NZn" = 1731.324   $ Sizing
 "CAssFlo_M_OfficeOpn_SZn" = 2352.21   $ Sizing
 "CAssFlo_M_OfficeOpn_WZn" = 2805.02   $ Sizing
 "CAssFlo_M_OfficeSm_CZn" = 367.5353   $ Sizing
 "CAssFlo_M_OfficeSm_EZn" = 1813.785   $ Sizing
 "CAssFlo_M_OfficeSm_NZn" = 1138.953   $ Sizing
 "CAssFlo_M_OfficeSm_SZn" = 1674.504   $ Sizing
 "CAssFlo_M_OfficeSm_WZn" = 1984.76   $ Sizing
 "CAssFlo_M_Restrm_CZn" = 150.7057   $ Sizing
 "CAssFlo_M_StorSm_CZn" = 596.9171   $ Sizing
 "CAssFlo_T_Break_CZn" = 761.4626   $ Sizing
 "CAssFlo_T_Conf_CZn" = 745.4103   $ Sizing
 "CAssFlo_T_CopyRm_CZn" = 248.5349   $ Sizing
 "CAssFlo_T_Cordr_CZn" = 1202.232   $ Sizing
 "CAssFlo_T_Cordr_EZn" = 392.7379   $ Sizing
 "CAssFlo_T_Cordr_NZn" = 267.501   $ Sizing
 "CAssFlo_T_Cordr_SZn" = 365.2229   $ Sizing
 "CAssFlo_T_Cordr_WZn" = 416.3065   $ Sizing
 "CAssFlo_T_LobWait_CZn" = 797.3474   $ Sizing
 "CAssFlo_T_MechElec_CZn" = 286.2635   $ Sizing
 "CAssFlo_T_OfficeOpn_CZn" = 2500.416   $ Sizing
 "CAssFlo_T_OfficeOpn_EZn" = 2559.828   $ Sizing
 "CAssFlo_T_OfficeOpn_NZn" = 1802.209   $ Sizing
 "CAssFlo_T_OfficeOpn_SZn" = 2438.887   $ Sizing
 "CAssFlo_T_OfficeOpn_WZn" = 2830.112   $ Sizing
 "CAssFlo_T_OfficeSm_CZn" = 349.4434   $ Sizing
 "CAssFlo_T_OfficeSm_EZn" = 1866.443   $ Sizing
 "CAssFlo_T_OfficeSm_NZn" = 1192.101   $ Sizing
 "CAssFlo_T_OfficeSm_SZn" = 1752.832   $ Sizing
 "CAssFlo_T_OfficeSm_WZn" = 2035.169   $ Sizing
 "CAssFlo_T_Restrm_CZn" = 208.8425   $ Sizing
 "CAssFlo_T_StorSm_CZn" = 479.9787   $ Sizing
 "CHRtFlo_Sys_L_Break_C" = 761.0751   $ Sizing
 "CHRtFlo_Sys_L_Conf_C" = 749.6651   $ Sizing
 "CHRtFlo_Sys_L_CopyRm_C" = 254.2156   $ Sizing
 "CHRtFlo_Sys_L_Cordr_C" = 916.9648   $ Sizing
 "CHRtFlo_Sys_L_Cordr_E" = 358.2508   $ Sizing
 "CHRtFlo_Sys_L_Cordr_N" = 250.0882   $ Sizing
 "CHRtFlo_Sys_L_Cordr_S" = 338.2105   $ Sizing
 "CHRtFlo_Sys_L_Cordr_W" = 398.3228   $ Sizing
 "CHRtFlo_Sys_L_LobWait_C" = 786.8528   $ Sizing
 "CHRtFlo_Sys_L_MechElec_C" = 193.2363   $ Sizing
 "CHRtFlo_Sys_L_OfficeOpn_C" = 2392.713   $ Sizing
 "CHRtFlo_Sys_L_OfficeOpn_E" = 2442.037   $ Sizing
 "CHRtFlo_Sys_L_OfficeOpn_N" = 1690.104   $ Sizing
 "CHRtFlo_Sys_L_OfficeOpn_S" = 2367.246   $ Sizing
 "CHRtFlo_Sys_L_OfficeOpn_W" = 2764.18   $ Sizing
 "CHRtFlo_Sys_L_OfficeSm_C" = 314.1753   $ Sizing
 "CHRtFlo_Sys_L_OfficeSm_E" = 1815.159   $ Sizing
 "CHRtFlo_Sys_L_OfficeSm_N" = 1123.973   $ Sizing
 "CHRtFlo_Sys_L_OfficeSm_S" = 1770.604   $ Sizing
 "CHRtFlo_Sys_L_OfficeSm_W" = 1973.589   $ Sizing
 "CHRtFlo_Sys_L_Restrm_C" = 213.9924   $ Sizing
 "CHRtFlo_Sys_L_StorSm_C" = 558.1691   $ Sizing
 "CHRtFlo_Sys_M_Break_C" = 6159.346   $ Sizing
 "CHRtFlo_Sys_M_Conf_C" = 6004.426   $ Sizing
 "CHRtFlo_Sys_M_CopyRm_C" = 2000.341   $ Sizing
 "CHRtFlo_Sys_M_Cordr_C" = 9945.038   $ Sizing
 "CHRtFlo_Sys_M_Cordr_E" = 3116.673   $ Sizing
 "CHRtFlo_Sys_M_Cordr_N" = 2053.211   $ Sizing
 "CHRtFlo_Sys_M_Cordr_S" = 2941.898   $ Sizing
 "CHRtFlo_Sys_M_Cordr_W" = 3264.113   $ Sizing
 "CHRtFlo_Sys_M_LobWait_C" = 6388.38   $ Sizing
 "CHRtFlo_Sys_M_MechElec_C" = 1912.49   $ Sizing
 "CHRtFlo_Sys_M_OfficeOpn_C" = 19401.74   $ Sizing
 "CHRtFlo_Sys_M_OfficeOpn_E" = 20826.88   $ Sizing
 "CHRtFlo_Sys_M_OfficeOpn_N" = 13850.59   $ Sizing
 "CHRtFlo_Sys_M_OfficeOpn_S" = 20064.17   $ Sizing
 "CHRtFlo_Sys_M_OfficeOpn_W" = 22440.16   $ Sizing
 "CHRtFlo_Sys_M_OfficeSm_C" = 2940.282   $ Sizing
 "CHRtFlo_Sys_M_OfficeSm_E" = 15242.68   $ Sizing
 "CHRtFlo_Sys_M_OfficeSm_N" = 9111.62   $ Sizing
 "CHRtFlo_Sys_M_OfficeSm_S" = 14813.93   $ Sizing
 "CHRtFlo_Sys_M_OfficeSm_W" = 15878.08   $ Sizing
 "CHRtFlo_Sys_M_Restrm_C" = 1711.939   $ Sizing
 "CHRtFlo_Sys_M_StorSm_C" = 4775.336   $ Sizing
 "CHRtFlo_Sys_T_Break_C" = 761.4626   $ Sizing
 "CHRtFlo_Sys_T_Conf_C" = 745.4103   $ Sizing
 "CHRtFlo_Sys_T_CopyRm_C" = 248.5349   $ Sizing
 "CHRtFlo_Sys_T_Cordr_C" = 1202.232   $ Sizing
 "CHRtFlo_Sys_T_Cordr_E" = 392.7378   $ Sizing
 "CHRtFlo_Sys_T_Cordr_N" = 267.501   $ Sizing
 "CHRtFlo_Sys_T_Cordr_S" = 365.2229   $ Sizing
 "CHRtFlo_Sys_T_Cordr_W" = 416.3065   $ Sizing
 "CHRtFlo_Sys_T_LobWait_C" = 797.3474   $ Sizing
 "CHRtFlo_Sys_T_MechElec_C" = 289.9734   $ Sizing
 "CHRtFlo_Sys_T_OfficeOpn_C" = 2500.416   $ Sizing
 "CHRtFlo_Sys_T_OfficeOpn_E" = 2559.828   $ Sizing
 "CHRtFlo_Sys_T_OfficeOpn_N" = 1802.209   $ Sizing
 "CHRtFlo_Sys_T_OfficeOpn_S" = 2438.887   $ Sizing
 "CHRtFlo_Sys_T_OfficeOpn_W" = 2830.112   $ Sizing
 "CHRtFlo_Sys_T_OfficeSm_C" = 349.4434   $ Sizing
 "CHRtFlo_Sys_T_OfficeSm_E" = 1866.443   $ Sizing
 "CHRtFlo_Sys_T_OfficeSm_N" = 1192.101   $ Sizing
 "CHRtFlo_Sys_T_OfficeSm_S" = 1768.695   $ Sizing
 "CHRtFlo_Sys_T_OfficeSm_W" = 2035.169   $ Sizing
 "CHRtFlo_Sys_T_Restrm_C" = 213.9924   $ Sizing
 "CHRtFlo_Sys_T_StorSm_C" = 479.9787   $ Sizing
 "CRtdFlo_Sys_L_Break_C" = 761.0751   $ Sizing
 "CRtdFlo_Sys_L_Conf_C" = 749.6651   $ Sizing
 "CRtdFlo_Sys_L_CopyRm_C" = 254.2156   $ Sizing
 "CRtdFlo_Sys_L_Cordr_C" = 916.9648   $ Sizing
 "CRtdFlo_Sys_L_Cordr_E" = 358.2508   $ Sizing
 "CRtdFlo_Sys_L_Cordr_N" = 250.0882   $ Sizing
 "CRtdFlo_Sys_L_Cordr_S" = 332.1452   $ Sizing
 "CRtdFlo_Sys_L_Cordr_W" = 398.3228   $ Sizing
 "CRtdFlo_Sys_L_LobWait_C" = 786.8528   $ Sizing
 "CRtdFlo_Sys_L_MechElec_C" = 193.2363   $ Sizing
 "CRtdFlo_Sys_L_OfficeOpn_C" = 2392.713   $ Sizing
 "CRtdFlo_Sys_L_OfficeOpn_E" = 2418.969   $ Sizing
 "CRtdFlo_Sys_L_OfficeOpn_N" = 1690.104   $ Sizing
 "CRtdFlo_Sys_L_OfficeOpn_S" = 2233.49   $ Sizing
 "CRtdFlo_Sys_L_OfficeOpn_W" = 2764.18   $ Sizing
 "CRtdFlo_Sys_L_OfficeSm_C" = 314.1753   $ Sizing
 "CRtdFlo_Sys_L_OfficeSm_E" = 1744.813   $ Sizing
 "CRtdFlo_Sys_L_OfficeSm_N" = 1123.973   $ Sizing
 "CRtdFlo_Sys_L_OfficeSm_S" = 1607.923   $ Sizing
 "CRtdFlo_Sys_L_OfficeSm_W" = 1973.589   $ Sizing
 "CRtdFlo_Sys_L_Restrm_C" = 130.1675   $ Sizing
 "CRtdFlo_Sys_L_StorSm_C" = 558.1691   $ Sizing
 "CRtdFlo_Sys_M_Break_C" = 6159.346   $ Sizing
 "CRtdFlo_Sys_M_Conf_C" = 6004.426   $ Sizing
 "CRtdFlo_Sys_M_CopyRm_C" = 2000.341   $ Sizing
 "CRtdFlo_Sys_M_Cordr_C" = 9945.038   $ Sizing
 "CRtdFlo_Sys_M_Cordr_E" = 3116.673   $ Sizing
 "CRtdFlo_Sys_M_Cordr_N" = 2053.211   $ Sizing
 "CRtdFlo_Sys_M_Cordr_S" = 2823.544   $ Sizing
 "CRtdFlo_Sys_M_Cordr_W" = 3264.113   $ Sizing
 "CRtdFlo_Sys_M_LobWait_C" = 6388.38   $ Sizing
 "CRtdFlo_Sys_M_MechElec_C" = 1912.49   $ Sizing
 "CRtdFlo_Sys_M_OfficeOpn_C" = 19401.74   $ Sizing
 "CRtdFlo_Sys_M_OfficeOpn_E" = 20364.3   $ Sizing
 "CRtdFlo_Sys_M_OfficeOpn_N" = 13850.59   $ Sizing
 "CRtdFlo_Sys_M_OfficeOpn_S" = 18817.68   $ Sizing
 "CRtdFlo_Sys_M_OfficeOpn_W" = 22440.16   $ Sizing
 "CRtdFlo_Sys_M_OfficeSm_C" = 2940.282   $ Sizing
 "CRtdFlo_Sys_M_OfficeSm_E" = 14510.28   $ Sizing
 "CRtdFlo_Sys_M_OfficeSm_N" = 9111.62   $ Sizing
 "CRtdFlo_Sys_M_OfficeSm_S" = 13396.04   $ Sizing
 "CRtdFlo_Sys_M_OfficeSm_W" = 15878.08   $ Sizing
 "CRtdFlo_Sys_M_Restrm_C" = 1205.646   $ Sizing
 "CRtdFlo_Sys_M_StorSm_C" = 4775.336   $ Sizing
 "CRtdFlo_Sys_T_Break_C" = 761.4626   $ Sizing
 "CRtdFlo_Sys_T_Conf_C" = 745.4103   $ Sizing
 "CRtdFlo_Sys_T_CopyRm_C" = 248.5349   $ Sizing
 "CRtdFlo_Sys_T_Cordr_C" = 1202.232   $ Sizing
 "CRtdFlo_Sys_T_Cordr_E" = 392.7378   $ Sizing
 "CRtdFlo_Sys_T_Cordr_N" = 267.501   $ Sizing
 "CRtdFlo_Sys_T_Cordr_S" = 365.2229   $ Sizing
 "CRtdFlo_Sys_T_Cordr_W" = 416.3065   $ Sizing
 "CRtdFlo_Sys_T_LobWait_C" = 797.3474   $ Sizing
 "CRtdFlo_Sys_T_MechElec_C" = 286.2635   $ Sizing
 "CRtdFlo_Sys_T_OfficeOpn_C" = 2500.416   $ Sizing
 "CRtdFlo_Sys_T_OfficeOpn_E" = 2559.828   $ Sizing
 "CRtdFlo_Sys_T_OfficeOpn_N" = 1802.209   $ Sizing
 "CRtdFlo_Sys_T_OfficeOpn_S" = 2438.887   $ Sizing
 "CRtdFlo_Sys_T_OfficeOpn_W" = 2830.112   $ Sizing
 "CRtdFlo_Sys_T_OfficeSm_C" = 349.4434   $ Sizing
 "CRtdFlo_Sys_T_OfficeSm_E" = 1866.443   $ Sizing
 "CRtdFlo_Sys_T_OfficeSm_N" = 1192.101   $ Sizing
 "CRtdFlo_Sys_T_OfficeSm_S" = 1752.832   $ Sizing
 "CRtdFlo_Sys_T_OfficeSm_W" = 2035.169   $ Sizing
 "CRtdFlo_Sys_T_Restrm_C" = 208.8425   $ Sizing
 "CRtdFlo_Sys_T_StorSm_C" = 479.9787   $ Sizing
 "CSupFlo_Sys_L_Break_C" = 761.0751   $ Sizing
 "CSupFlo_Sys_L_Conf_C" = 749.6651   $ Sizing
 "CSupFlo_Sys_L_CopyRm_C" = 254.2156   $ Sizing
 "CSupFlo_Sys_L_Cordr_C" = 916.9648   $ Sizing
 "CSupFlo_Sys_L_Cordr_E" = 358.2508   $ Sizing
 "CSupFlo_Sys_L_Cordr_N" = 250.0882   $ Sizing
 "CSupFlo_Sys_L_Cordr_S" = 332.1452   $ Sizing
 "CSupFlo_Sys_L_Cordr_W" = 398.3228   $ Sizing
 "CSupFlo_Sys_L_LobWait_C" = 786.8528   $ Sizing
 "CSupFlo_Sys_L_MechElec_C" = 193.2363   $ Sizing
 "CSupFlo_Sys_L_OfficeOpn_C" = 2392.713   $ Sizing
 "CSupFlo_Sys_L_OfficeOpn_E" = 2418.969   $ Sizing
 "CSupFlo_Sys_L_OfficeOpn_N" = 1690.104   $ Sizing
 "CSupFlo_Sys_L_OfficeOpn_S" = 2233.49   $ Sizing
 "CSupFlo_Sys_L_OfficeOpn_W" = 2764.18   $ Sizing
 "CSupFlo_Sys_L_OfficeSm_C" = 314.1753   $ Sizing
 "CSupFlo_Sys_L_OfficeSm_E" = 1744.813   $ Sizing
 "CSupFlo_Sys_L_OfficeSm_N" = 1123.973   $ Sizing
 "CSupFlo_Sys_L_OfficeSm_S" = 1607.923   $ Sizing
 "CSupFlo_Sys_L_OfficeSm_W" = 1973.589   $ Sizing
 "CSupFlo_Sys_L_Restrm_C" = 130.1675   $ Sizing
 "CSupFlo_Sys_L_StorSm_C" = 558.1691   $ Sizing
 "CSupFlo_Sys_M_Break_C" = 6159.346   $ Sizing
 "CSupFlo_Sys_M_Conf_C" = 6004.426   $ Sizing
 "CSupFlo_Sys_M_CopyRm_C" = 2000.341   $ Sizing
 "CSupFlo_Sys_M_Cordr_C" = 9945.038   $ Sizing
 "CSupFlo_Sys_M_Cordr_E" = 3116.673   $ Sizing
 "CSupFlo_Sys_M_Cordr_N" = 2053.211   $ Sizing
 "CSupFlo_Sys_M_Cordr_S" = 2823.544   $ Sizing
 "CSupFlo_Sys_M_Cordr_W" = 3264.113   $ Sizing
 "CSupFlo_Sys_M_LobWait_C" = 6388.38   $ Sizing
 "CSupFlo_Sys_M_MechElec_C" = 1912.49   $ Sizing
 "CSupFlo_Sys_M_OfficeOpn_C" = 19401.74   $ Sizing
 "CSupFlo_Sys_M_OfficeOpn_E" = 20364.3   $ Sizing
 "CSupFlo_Sys_M_OfficeOpn_N" = 13850.59   $ Sizing
 "CSupFlo_Sys_M_OfficeOpn_S" = 18817.68   $ Sizing
 "CSupFlo_Sys_M_OfficeOpn_W" = 22440.16   $ Sizing
 "CSupFlo_Sys_M_OfficeSm_C" = 2940.282   $ Sizing
 "CSupFlo_Sys_M_OfficeSm_E" = 14510.28   $ Sizing
 "CSupFlo_Sys_M_OfficeSm_N" = 9111.62   $ Sizing
 "CSupFlo_Sys_M_OfficeSm_S" = 13396.04   $ Sizing
 "CSupFlo_Sys_M_OfficeSm_W" = 15878.08   $ Sizing
 "CSupFlo_Sys_M_Restrm_C" = 1205.646   $ Sizing
 "CSupFlo_Sys_M_StorSm_C" = 4775.336   $ Sizing
 "CSupFlo_Sys_T_Break_C" = 761.4626   $ Sizing
 "CSupFlo_Sys_T_Conf_C" = 745.4103   $ Sizing
 "CSupFlo_Sys_T_CopyRm_C" = 248.5349   $ Sizing
 "CSupFlo_Sys_T_Cordr_C" = 1202.232   $ Sizing
 "CSupFlo_Sys_T_Cordr_E" = 392.7378   $ Sizing
 "CSupFlo_Sys_T_Cordr_N" = 267.501   $ Sizing
 "CSupFlo_Sys_T_Cordr_S" = 365.2229   $ Sizing
 "CSupFlo_Sys_T_Cordr_W" = 416.3065   $ Sizing
 "CSupFlo_Sys_T_LobWait_C" = 797.3474   $ Sizing
 "CSupFlo_Sys_T_MechElec_C" = 286.2635   $ Sizing
 "CSupFlo_Sys_T_OfficeOpn_C" = 2500.416   $ Sizing
 "CSupFlo_Sys_T_OfficeOpn_E" = 2559.828   $ Sizing
 "CSupFlo_Sys_T_OfficeOpn_N" = 1802.209   $ Sizing
 "CSupFlo_Sys_T_OfficeOpn_S" = 2438.887   $ Sizing
 "CSupFlo_Sys_T_OfficeOpn_W" = 2830.112   $ Sizing
 "CSupFlo_Sys_T_OfficeSm_C" = 349.4434   $ Sizing
 "CSupFlo_Sys_T_OfficeSm_E" = 1866.443   $ Sizing
 "CSupFlo_Sys_T_OfficeSm_N" = 1192.101   $ Sizing
 "CSupFlo_Sys_T_OfficeSm_S" = 1752.832   $ Sizing
 "CSupFlo_Sys_T_OfficeSm_W" = 2035.169   $ Sizing
 "CSupFlo_Sys_T_Restrm_C" = 208.8425   $ Sizing
 "CSupFlo_Sys_T_StorSm_C" = 479.9787   $ Sizing
 "ClCap_Sys_L_Break_C" = 25640.99   $ Sizing
 "ClCap_Sys_L_Conf_C" = 32144.74   $ Sizing
 "ClCap_Sys_L_CopyRm_C" = 8564.646   $ Sizing
 "ClCap_Sys_L_Cordr_C" = 30892.99   $ Sizing
 "ClCap_Sys_L_Cordr_E" = 12069.64   $ Sizing
 "ClCap_Sys_L_Cordr_N" = 8425.594   $ Sizing
 "ClCap_Sys_L_Cordr_S" = 11190.13   $ Sizing
 "ClCap_Sys_L_Cordr_W" = 13419.69   $ Sizing
 "ClCap_Sys_L_LobWait_C" = 26509.45   $ Sizing
 "ClCap_Sys_L_MechElec_C" = 6510.224   $ Sizing
 "ClCap_Sys_L_OfficeOpn_C" = 80611.65   $ Sizing
 "ClCap_Sys_L_OfficeOpn_E" = 81496.23   $ Sizing
 "ClCap_Sys_L_OfficeOpn_N" = 56940.42   $ Sizing
 "ClCap_Sys_L_OfficeOpn_S" = 75247.34   $ Sizing
 "ClCap_Sys_L_OfficeOpn_W" = 93126.56   $ Sizing
 "ClCap_Sys_L_OfficeSm_C" = 10584.72   $ Sizing
 "ClCap_Sys_L_OfficeSm_E" = 58783.59   $ Sizing
 "ClCap_Sys_L_OfficeSm_N" = 37867.2   $ Sizing
 "ClCap_Sys_L_OfficeSm_S" = 54171.69   $ Sizing
 "ClCap_Sys_L_OfficeSm_W" = 66491.18   $ Sizing
 "ClCap_Sys_L_Restrm_C" = 4385.406   $ Sizing
 "ClCap_Sys_L_StorSm_C" = 18804.99   $ Sizing
 "ClCap_Sys_M_Break_C" = 207511.3   $ Sizing
 "ClCap_Sys_M_Conf_C" = 257462.6   $ Sizing
 "ClCap_Sys_M_CopyRm_C" = 67392.45   $ Sizing
 "ClCap_Sys_M_Cordr_C" = 335053.1   $ Sizing
 "ClCap_Sys_M_Cordr_E" = 105002.2   $ Sizing
 "ClCap_Sys_M_Cordr_N" = 69173.68   $ Sizing
 "ClCap_Sys_M_Cordr_S" = 95126.56   $ Sizing
 "ClCap_Sys_M_Cordr_W" = 109969.6   $ Sizing
 "ClCap_Sys_M_LobWait_C" = 215227.6   $ Sizing
 "ClCap_Sys_M_MechElec_C" = 64432.7   $ Sizing
 "ClCap_Sys_M_OfficeOpn_C" = 653654.1   $ Sizing
 "ClCap_Sys_M_OfficeOpn_E" = 686083.2   $ Sizing
 "ClCap_Sys_M_OfficeOpn_N" = 466633.1   $ Sizing
 "ClCap_Sys_M_OfficeOpn_S" = 633976.8   $ Sizing
 "ClCap_Sys_M_OfficeOpn_W" = 756019.7   $ Sizing
 "ClCap_Sys_M_OfficeSm_C" = 99059.53   $ Sizing
 "ClCap_Sys_M_OfficeSm_E" = 488858.4   $ Sizing
 "ClCap_Sys_M_OfficeSm_N" = 306974.9   $ Sizing
 "ClCap_Sys_M_OfficeSm_S" = 451318.9   $ Sizing
 "ClCap_Sys_M_OfficeSm_W" = 534940.3   $ Sizing
 "ClCap_Sys_M_Restrm_C" = 40618.78   $ Sizing
 "ClCap_Sys_M_StorSm_C" = 160883.4   $ Sizing
 "ClCap_Sys_T_Break_C" = 25654.04   $ Sizing
 "ClCap_Sys_T_Conf_C" = 31962.29   $ Sizing
 "ClCap_Sys_T_CopyRm_C" = 8373.26   $ Sizing
 "ClCap_Sys_T_Cordr_C" = 40503.77   $ Sizing
 "ClCap_Sys_T_Cordr_E" = 13231.53   $ Sizing
 "ClCap_Sys_T_Cordr_N" = 9012.239   $ Sizing
 "ClCap_Sys_T_Cordr_S" = 12304.54   $ Sizing
 "ClCap_Sys_T_Cordr_W" = 14025.57   $ Sizing
 "ClCap_Sys_T_LobWait_C" = 26863.02   $ Sizing
 "ClCap_Sys_T_MechElec_C" = 9644.354   $ Sizing
 "ClCap_Sys_T_OfficeOpn_C" = 84240.2   $ Sizing
 "ClCap_Sys_T_OfficeOpn_E" = 86241.83   $ Sizing
 "ClCap_Sys_T_OfficeOpn_N" = 60717.3   $ Sizing
 "ClCap_Sys_T_OfficeOpn_S" = 82167.29   $ Sizing
 "ClCap_Sys_T_OfficeOpn_W" = 95347.84   $ Sizing
 "ClCap_Sys_T_OfficeSm_C" = 11772.92   $ Sizing
 "ClCap_Sys_T_OfficeSm_E" = 62881.37   $ Sizing
 "ClCap_Sys_T_OfficeSm_N" = 40162.45   $ Sizing
 "ClCap_Sys_T_OfficeSm_S" = 59053.76   $ Sizing
 "ClCap_Sys_T_OfficeSm_W" = 68565.83   $ Sizing
 "ClCap_Sys_T_Restrm_C" = 7036.006   $ Sizing
 "ClCap_Sys_T_StorSm_C" = 16170.71   $ Sizing
 "HtCap_Sys_L_Break_C" = -38299.71   $ Sizing
 "HtCap_Sys_L_Conf_C" = -38689.13   $ Sizing
 "HtCap_Sys_L_CopyRm_C" = -14758.44   $ Sizing
 "HtCap_Sys_L_Cordr_C" = -36432.48   $ Sizing
 "HtCap_Sys_L_Cordr_E" = -11535.35   $ Sizing
 "HtCap_Sys_L_Cordr_N" = -8908.329   $ Sizing
 "HtCap_Sys_L_Cordr_S" = -10877.33   $ Sizing
 "HtCap_Sys_L_Cordr_W" = -12856.14   $ Sizing
 "HtCap_Sys_L_LobWait_C" = -37536.78   $ Sizing
 "HtCap_Sys_L_MechElec_C" = -7813.786   $ Sizing
 "HtCap_Sys_L_OfficeOpn_C" = -115307.1   $ Sizing
 "HtCap_Sys_L_OfficeOpn_E" = -75218.2   $ Sizing
 "HtCap_Sys_L_OfficeOpn_N" = -56875.21   $ Sizing
 "HtCap_Sys_L_OfficeOpn_S" = -113988.7   $ Sizing
 "HtCap_Sys_L_OfficeOpn_W" = -85688.36   $ Sizing
 "HtCap_Sys_L_OfficeSm_C" = -15021.65   $ Sizing
 "HtCap_Sys_L_OfficeSm_E" = -56755.23   $ Sizing
 "HtCap_Sys_L_OfficeSm_N" = -37821.7   $ Sizing
 "HtCap_Sys_L_OfficeSm_S" = -55201.38   $ Sizing
 "HtCap_Sys_L_OfficeSm_W" = -61057.73   $ Sizing
 "HtCap_Sys_L_Restrm_C" = -7870.078   $ Sizing
 "HtCap_Sys_L_StorSm_C" = -21759.77   $ Sizing
 "HtCap_Sys_M_Break_C" = -296291.9   $ Sizing
 "HtCap_Sys_M_Conf_C" = -290964.2   $ Sizing
 "HtCap_Sys_M_CopyRm_C" = -101946.4   $ Sizing
 "HtCap_Sys_M_Cordr_C" = -353463.4   $ Sizing
 "HtCap_Sys_M_Cordr_E" = -98894.08   $ Sizing
 "HtCap_Sys_M_Cordr_N" = -70486.38   $ Sizing
 "HtCap_Sys_M_Cordr_S" = -93407.87   $ Sizing
 "HtCap_Sys_M_Cordr_W" = -104599   $ Sizing
 "HtCap_Sys_M_LobWait_C" = -273831.7   $ Sizing
 "HtCap_Sys_M_MechElec_C" = -70789.03   $ Sizing
 "HtCap_Sys_M_OfficeOpn_C" = -932464.9   $ Sizing
 "HtCap_Sys_M_OfficeOpn_E" = -1004544   $ Sizing
 "HtCap_Sys_M_OfficeOpn_N" = -463618.7   $ Sizing
 "HtCap_Sys_M_OfficeOpn_S" = -965966.9   $ Sizing
 "HtCap_Sys_M_OfficeOpn_W" = -692959.9   $ Sizing
 "HtCap_Sys_M_OfficeSm_C" = -140120.4   $ Sizing
 "HtCap_Sys_M_OfficeSm_E" = -475141.8   $ Sizing
 "HtCap_Sys_M_OfficeSm_N" = -304695.5   $ Sizing
 "HtCap_Sys_M_OfficeSm_S" = -460381   $ Sizing
 "HtCap_Sys_M_OfficeSm_W" = -489466.3   $ Sizing
 "HtCap_Sys_M_Restrm_C" = -67835.27   $ Sizing
 "HtCap_Sys_M_StorSm_C" = -176879.7   $ Sizing
 "HtCap_Sys_T_Break_C" = -39796.36   $ Sizing
 "HtCap_Sys_T_Conf_C" = -39100.28   $ Sizing
 "HtCap_Sys_T_CopyRm_C" = -13909.79   $ Sizing
 "HtCap_Sys_T_Cordr_C" = -48179.65   $ Sizing
 "HtCap_Sys_T_Cordr_E" = -14323.67   $ Sizing
 "HtCap_Sys_T_Cordr_N" = -10706.61   $ Sizing
 "HtCap_Sys_T_Cordr_S" = -12927.52   $ Sizing
 "HtCap_Sys_T_Cordr_W" = -15370.54   $ Sizing
 "HtCap_Sys_T_LobWait_C" = -38040.95   $ Sizing
 "HtCap_Sys_T_MechElec_C" = -10068.06   $ Sizing
 "HtCap_Sys_T_OfficeOpn_C" = -120166.7   $ Sizing
 "HtCap_Sys_T_OfficeOpn_E" = -89101.81   $ Sizing
 "HtCap_Sys_T_OfficeOpn_N" = -69352.27   $ Sizing
 "HtCap_Sys_T_OfficeOpn_S" = -83045.4   $ Sizing
 "HtCap_Sys_T_OfficeOpn_W" = -98514.41   $ Sizing
 "HtCap_Sys_T_OfficeSm_C" = -13770.73   $ Sizing
 "HtCap_Sys_T_OfficeSm_E" = -66262.73   $ Sizing
 "HtCap_Sys_T_OfficeSm_N" = -45257.15   $ Sizing
 "HtCap_Sys_T_OfficeSm_S" = -59438.12   $ Sizing
 "HtCap_Sys_T_OfficeSm_W" = -70964.42   $ Sizing
 "HtCap_Sys_T_Restrm_C" = -8761.962   $ Sizing
 "HtCap_Sys_T_StorSm_C" = -22609.36   $ Sizing
..

##include Templates\OfL_DX_SZ.inp
END ..
COMPUTE ..
STOP ..
