INPUT ..

##fileprefix C:\Users\jglasskatz\MASControl3\
##set1 IsSizing FALSE
##set1 CoolType DX
##set1 HeatType FURNACE
##set1 EU_HrRepVar 1
##set1 BldgVint 1975
##set1 BldgLoc CZ01

 ##set1 mBFMult 1   $ IP Tech: RefgChg-NRes-Std

PARAMETER
 "AltFactor" = 1.00753   $ IP Non-Tech
 "BldgEconoFlag" = 1   $ IP Non-Tech
 "Break_EWSF" = 1   $ IP Non-Tech
 "Break_LWSF" = 1.1   $ IP Non-Tech
 "CDD_DBHi10" = 65   $ IP Non-Tech
 "CDD_DBHi7" = 68   $ IP Non-Tech
 "CDD_DBHi8" = 66   $ IP Non-Tech
 "CDD_DBHi9" = 77   $ IP Non-Tech
 "CDD_DBRange10" = 17   $ IP Non-Tech
 "CDD_DBRange7" = 11   $ IP Non-Tech
 "CDD_DBRange8" = 10   $ IP Non-Tech
 "CDD_DBRange9" = 29   $ IP Non-Tech
 "CDD_Day10" = 15   $ IP Non-Tech
 "CDD_Day7" = 16   $ IP Non-Tech
 "CDD_Day8" = 20   $ IP Non-Tech
 "CDD_Day9" = 17   $ IP Non-Tech
 "CDD_HrHi10" = 12   $ IP Non-Tech
 "CDD_HrHi7" = 12   $ IP Non-Tech
 "CDD_HrHi8" = 13   $ IP Non-Tech
 "CDD_HrHi9" = 17   $ IP Non-Tech
 "CDD_HrLo10" = 6   $ IP Non-Tech
 "CDD_HrLo7" = 3   $ IP Non-Tech
 "CDD_HrLo8" = 8   $ IP Non-Tech
 "CDD_HrLo9" = 4   $ IP Non-Tech
 "CDD_WB10" = 57.53039551   $ IP Non-Tech
 "CDD_WB7" = 59.29250717   $ IP Non-Tech
 "CDD_WB8" = 60.75350189   $ IP Non-Tech
 "CDD_WB9" = 61.08643341   $ IP Non-Tech
 "CZ_Category" = Tem   $ IP Non-Tech
 "ChwVintEconoFlag" = 1   $ IP Non-Tech
 "Conference_EWSF" = 1.15   $ IP Non-Tech
 "Conference_LWSF" = 1.4   $ IP Non-Tech
 "CoolSetT" = 45   $ IP Non-Tech
 "CoolType" = DX   $ IP Non-Tech
 "CopyRoom_EWSF" = 1.725   $ IP Non-Tech
 "CopyRoom_LWSF" = 1.3   $ IP Non-Tech
 "CorridorStairway_EWSF" = 0.23   $ IP Non-Tech
 "CorridorStairway_LWSF" = 0.6   $ IP Non-Tech
 "DesCoolT" = 75   $ IP Non-Tech
 "DesHeatT" = 73   $ IP Non-Tech
 "EconoEnthLimit" = 28   $ IP Non-Tech
 "EconoTempLimit" = 70   $ IP Non-Tech
 "Elevation" = 203   $ IP Non-Tech
 "HDD_CloudAmt1" = 0   $ IP Non-Tech
 "HDD_DBHi1" = 53   $ IP Non-Tech
 "HDD_DBRange1" = 20   $ IP Non-Tech
 "HDD_Day1" = 15   $ IP Non-Tech
 "HDD_HrHi1" = 14   $ IP Non-Tech
 "HDD_HrLo1" = 6   $ IP Non-Tech
 "HDD_WB1" = 42.3   $ IP Non-Tech
 "HDD_WindSpd1" = 12.7   $ IP Non-Tech
 "HeatSrc" = FURNACE   $ IP Non-Tech
 "HeatSrcTU" = HEAT-PUMP   $ IP Non-Tech
 "HeatType" = GasFurn   $ IP Non-Tech
 "HeatTypeTU" = HEAT-PUMP   $ IP Non-Tech
 "IndoorFanMode" = CONTINUOUS   $ IP Non-Tech
 "KT_TransferAir" = No   $ IP Non-Tech
 "Latitude" = 40.8   $ IP Non-Tech
 "LobbyWaiting_EWSF" = 0.5375   $ IP Non-Tech
 "LobbyWaiting_LWSF" = 1.3   $ IP Non-Tech
 "Longitude" = 124.2   $ IP Non-Tech
 "LtgMsrApplic" = ALL   $ Msr TechID: NonResLtgRefMsr-EX
 "LtgSav_CFL" = 0   $ Msr TechID: NonResLtgRefMsr-EX
 "LtgSav_EX" = 0.3   $ Msr TechID: NonResLtgRefMsr-EX
 "LtgSav_HB" = 0   $ Msr TechID: NonResLtgRefMsr-EX
 "LtgSav_LF" = 0   $ Msr TechID: NonResLtgRefMsr-EX
 "LtgSav_SP" = 0   $ Msr TechID: NonResLtgRefMsr-EX
 "MZFanMechEff" = 0.58   $ IP Non-Tech
 "MZHasRetFan" = FALSE   $ IP Non-Tech
 "MZ_RFanWPerCfm" = 0.37   $ IP Non-Tech
 "MZ_SFanWPerCfm" = 0.71   $ IP Non-Tech
 "MZ_SupFanStatic" = 2.25   $ IP Non-Tech
 "MaxSupT_MZ" = 100   $ IP Non-Tech
 "MaxSupT_SZ" = 100   $ IP Non-Tech
 "MaxSupT_TU" = 90   $ IP Non-Tech
 "MechElecRoom_EWSF" = 0.23   $ IP Non-Tech
 "MechElecRoom_LWSF" = 0.7   $ IP Non-Tech
 "MinCfmPerSF" = 0.4   $ IP Non-Tech
 "MinSupT" = 55   $ IP Non-Tech
 "OccCoolT" = 76   $ IP Non-Tech
 "OccHeatT" = 72   $ IP Non-Tech
 "OfficeOpen_EWSF" = 1.725   $ IP Non-Tech
 "OfficeOpen_LWSF" = 1.2   $ IP Non-Tech
 "OfficeSmall_EWSF" = 1.725   $ IP Non-Tech
 "OfficeSmall_LWSF" = 1.3   $ IP Non-Tech
 "PkgDxVintEconoFlag" = 0   $ IP Non-Tech
 "Restroom_EWSF" = 0.23   $ IP Non-Tech
 "Restroom_LWSF" = 0.6   $ IP Non-Tech
 "SZFanMechEff" = 0.58   $ IP Non-Tech
 "SZHasRetFan" = FALSE   $ IP Non-Tech
 "SZ_Is_2Spd" = FALSE   $ IP Non-Tech
 "SZ_SFanWPerCfm" = 0.46   $ IP Non-Tech
 "SZ_SupFanStatic" = 0.75   $ IP Non-Tech
 "StorageSmlCond_EWSF" = 0.23   $ IP Non-Tech
 "StorageSmlCond_LWSF" = 0.6   $ IP Non-Tech
 "T24GlzTbl" = CZTbl   $ IP Non-Tech
 "TermUnitFanMechEff" = 1   $ IP Non-Tech
 "TermUnitFanMode" = INTERMITTENT   $ IP Non-Tech
 "TwrSetpt" = 80   $ IP Non-Tech
 "UnocCoolT" = 86   $ IP Non-Tech
 "UnocHeatT" = 62   $ IP Non-Tech
 "WlhpVintEconoFlag" = 0   $ IP Non-Tech
 "EconoCtrl" = OA-TEMP   $ IP Tech: AirEcono-OATemp
 "MaxOAFrac" = 0.85   $ IP Tech: AirEcono-OATemp
 "UseEconoVintApplic" = FALSE   $ IP Tech: AirEcono-OATemp
 "DuctDT" = 1   $ IP Tech: ComDuctInsul-1
 "DuctAirLoss" = 0   $ IP Tech: ComDuctLeak-0
 "DuctLossOAFrac" = 0   $ IP Tech: ComDuctLeak-0
 "ComRoofInsCalc" = FromUo   $ IP Tech: ComRoofIns-Hvy-0.06
 "ComRoofInsR" = -999   $ IP Tech: ComRoofIns-Hvy-0.06
 "ComRoofUo" = 0.06   $ IP Tech: ComRoofIns-Hvy-0.06
 "ComEWInsCalc" = FromUo   $ IP Tech: ComWallIns-MFrm-0.18
 "ComEWInsR" = -999   $ IP Tech: ComWallIns-MFrm-0.18
 "ComEWUo" = 0.18   $ IP Tech: ComWallIns-MFrm-0.18
 "ComN_SHGC" = 0.82   $ IP Tech: NResWin-ComN-1.23-0.82
 "ComN_UFactor" = 1.23   $ IP Tech: NResWin-ComN-1.23-0.82
 "ComN_VisTrans" = 0.9   $ IP Tech: NResWin-ComN-1.23-0.82
 "ComN_WinCode" = G1000   $ IP Tech: NResWin-ComN-1.23-0.82
 "ComN_WinFrmFrac" = 0.17   $ IP Tech: NResWin-ComN-1.23-0.82
 "ComN_WinFrmU" = 1   $ IP Tech: NResWin-ComN-1.23-0.82
 "ComO_SHGC" = 0.82   $ IP Tech: NResWin-ComO-1.23-0.82
 "ComO_UFactor" = 1.23   $ IP Tech: NResWin-ComO-1.23-0.82
 "ComO_VisTrans" = 0.9   $ IP Tech: NResWin-ComO-1.23-0.82
 "ComO_WinCode" = G1000   $ IP Tech: NResWin-ComO-1.23-0.82
 "ComO_WinFrmFrac" = 0.17   $ IP Tech: NResWin-ComO-1.23-0.82
 "ComO_WinFrmU" = 1   $ IP Tech: NResWin-ComO-1.23-0.82
 "BF_fFlow" = PSZ65to135_BF_fFlow   $ IP Tech: PkgAC1SpH-65to135-E10
 "BF_fT" = PSZ65to135_BF_fT   $ IP Tech: PkgAC1SpH-65to135-E10
 "CEIR_fPLR" = PSZ65to135_CEIR_fPLR   $ IP Tech: PkgAC1SpH-65to135-E10
 "CLoss_fPLR" = PSZ65to135_CLoss_fPLR   $ IP Tech: PkgAC1SpH-65to135-E10
 "COP" = -1   $ IP Tech: PkgAC1SpH-65to135-E10
 "COP47" = -1   $ IP Tech: PkgAC1SpH-65to135-E10
 "CfmPerBtuh" = 0.02917   $ IP Tech: PkgAC1SpH-65to135-E10
 "ClCap_fT" = PSZ65to135_ClCap_fT   $ IP Tech: PkgAC1SpH-65to135-E10
 "ClSH_fT" = PSZ65to135_ClSH_fT   $ IP Tech: PkgAC1SpH-65to135-E10
 "CoilBF" = 0.114   $ IP Tech: PkgAC1SpH-65to135-E10
 "CondWPerBtuh" = 0   $ IP Tech: PkgAC1SpH-65to135-E10
 "CoolSensCap" = 0.663   $ IP Tech: PkgAC1SpH-65to135-E10
 "CoolingEIR" = 0.29745   $ IP Tech: PkgAC1SpH-65to135-E10
 "CrnkEIR" = 0.01   $ IP Tech: PkgAC1SpH-65to135-E10
 "CrnkMaxT" = 50   $ IP Tech: PkgAC1SpH-65to135-E10
 "DXType" = Pkg   $ IP Tech: PkgAC1SpH-65to135-E10
 "EER" = 9.67   $ IP Tech: PkgAC1SpH-65to135-E10
 "EIR_fT" = PSZ65to135_EIR_fT   $ IP Tech: PkgAC1SpH-65to135-E10
 "FanEirPlr" = TwoSpeedFan   $ IP Tech: PkgAC1SpH-65to135-E10
 "FanWPerCfm" = 0.412   $ IP Tech: PkgAC1SpH-65to135-E10
 "HIR_fT" = DEFAULT   $ IP Tech: PkgAC1SpH-65to135-E10
 "HtCap_fT" = DEFAULT   $ IP Tech: PkgAC1SpH-65to135-E10
 "HtCoolCapRatio" = -1   $ IP Tech: PkgAC1SpH-65to135-E10
 "HtgEIR" = -1   $ IP Tech: PkgAC1SpH-65to135-E10
 "HtgFuel" = Gas   $ IP Tech: PkgAC1SpH-65to135-E10
 "IEER" = 11.87   $ IP Tech: PkgAC1SpH-65to135-E10
 "LowSpdCapRatio" = 0.5   $ IP Tech: PkgAC1SpH-65to135-E10
 "LowSpdCfmRatio" = 0.66   $ IP Tech: PkgAC1SpH-65to135-E10
 "NominalCap" = 15   $ IP Tech: PkgAC1SpH-65to135-E10
 "NumStages" = 1   $ IP Tech: PkgAC1SpH-65to135-E10
 "RatedEER" = 10   $ IP Tech: PkgAC1SpH-65to135-E10
 "RatedSupMtrClass" = HiEff   $ IP Tech: PkgAC1SpH-65to135-E10
 "SizeRange" = 65to135   $ IP Tech: PkgAC1SpH-65to135-E10
 "SubType" = AC   $ IP Tech: PkgAC1SpH-65to135-E10
 "SupMotEff" = 0.84   $ IP Tech: PkgAC1SpH-65to135-E10
 "Tier" = 0   $ IP Tech: PkgAC1SpH-65to135-E10
 "TotCoolCap" = 184140   $ IP Tech: PkgAC1SpH-65to135-E10
 "FanPwrMult" = 1   $ IP Tech: PkgFurn-0.80AFUE
 "FurnAFUE" = 0.8   $ IP Tech: PkgFurn-0.80AFUE
 "FurnEt" = 0.82   $ IP Tech: PkgFurn-0.80AFUE
 "FurnaceAuxKW" = 0.1   $ IP Tech: PkgFurn-0.80AFUE
 "HIR_fPLR" = Furnace-HIR-fPLR   $ IP Tech: PkgFurn-0.80AFUE
 "VSM" = FALSE   $ IP Tech: PkgFurn-0.80AFUE
 "BFMult" = 1   $ IP Tech: RefgChg-NRes-Std
 "CoolEirMult" = 1   $ IP Tech: RefgChg-NRes-Std
 "SensCoolCapMult" = 1   $ IP Tech: RefgChg-NRes-Std
 "TotCoolCapMult" = 1   $ IP Tech: RefgChg-NRes-Std
 "AltAdjFactor" = 1.007532   $ Sizing
 "CAssFlo_L_Break_CZn" = 364.9508   $ Sizing
 "CAssFlo_L_Conf_CZn" = 438.6124   $ Sizing
 "CAssFlo_L_CopyRm_CZn" = 114.646   $ Sizing
 "CAssFlo_L_Cordr_CZn" = 565.4379   $ Sizing
 "CAssFlo_L_Cordr_EZn" = 292.2148   $ Sizing
 "CAssFlo_L_Cordr_NZn" = 128.2309   $ Sizing
 "CAssFlo_L_Cordr_SZn" = 321.0151   $ Sizing
 "CAssFlo_L_Cordr_WZn" = 285.4802   $ Sizing
 "CAssFlo_L_LobWait_CZn" = 357.5719   $ Sizing
 "CAssFlo_L_MechElec_CZn" = 134.1697   $ Sizing
 "CAssFlo_L_OfficeOpn_CZn" = 1786.72   $ Sizing
 "CAssFlo_L_OfficeOpn_EZn" = 2370.663   $ Sizing
 "CAssFlo_L_OfficeOpn_NZn" = 884.4172   $ Sizing
 "CAssFlo_L_OfficeOpn_SZn" = 2504.716   $ Sizing
 "CAssFlo_L_OfficeOpn_WZn" = 2296.768   $ Sizing
 "CAssFlo_L_OfficeSm_CZn" = 224.9954   $ Sizing
 "CAssFlo_L_OfficeSm_EZn" = 1738.726   $ Sizing
 "CAssFlo_L_OfficeSm_NZn" = 543.2628   $ Sizing
 "CAssFlo_L_OfficeSm_SZn" = 1880.972   $ Sizing
 "CAssFlo_L_OfficeSm_WZn" = 1711.323   $ Sizing
 "CAssFlo_L_Restrm_CZn" = 211.8611   $ Sizing
 "CAssFlo_L_StorSm_CZn" = 346.4792   $ Sizing
 "CAssFlo_M_Break_CZn" = 400.701   $ Sizing
 "CAssFlo_M_Conf_CZn" = 482.5431   $ Sizing
 "CAssFlo_M_CopyRm_CZn" = 140.5676   $ Sizing
 "CAssFlo_M_Cordr_CZn" = 788.1265   $ Sizing
 "CAssFlo_M_Cordr_EZn" = 348.5182   $ Sizing
 "CAssFlo_M_Cordr_NZn" = 149.2809   $ Sizing
 "CAssFlo_M_Cordr_SZn" = 383.2823   $ Sizing
 "CAssFlo_M_Cordr_WZn" = 327.6656   $ Sizing
 "CAssFlo_M_LobWait_CZn" = 456.9219   $ Sizing
 "CAssFlo_M_MechElec_CZn" = 144.233   $ Sizing
 "CAssFlo_M_OfficeOpn_CZn" = 2061.871   $ Sizing
 "CAssFlo_M_OfficeOpn_EZn" = 2549.052   $ Sizing
 "CAssFlo_M_OfficeOpn_NZn" = 1026.469   $ Sizing
 "CAssFlo_M_OfficeOpn_SZn" = 2796.608   $ Sizing
 "CAssFlo_M_OfficeOpn_WZn" = 2461.005   $ Sizing
 "CAssFlo_M_OfficeSm_CZn" = 280.7217   $ Sizing
 "CAssFlo_M_OfficeSm_EZn" = 1860.747   $ Sizing
 "CAssFlo_M_OfficeSm_NZn" = 643.0281   $ Sizing
 "CAssFlo_M_OfficeSm_SZn" = 2083.119   $ Sizing
 "CAssFlo_M_OfficeSm_WZn" = 1825.156   $ Sizing
 "CAssFlo_M_Restrm_CZn" = 211.8611   $ Sizing
 "CAssFlo_M_StorSm_CZn" = 376.5008   $ Sizing
 "CAssFlo_T_Break_CZn" = 375.1144   $ Sizing
 "CAssFlo_T_Conf_CZn" = 461.3708   $ Sizing
 "CAssFlo_T_CopyRm_CZn" = 132.9294   $ Sizing
 "CAssFlo_T_Cordr_CZn" = 693.3849   $ Sizing
 "CAssFlo_T_Cordr_EZn" = 307.7594   $ Sizing
 "CAssFlo_T_Cordr_NZn" = 130.4023   $ Sizing
 "CAssFlo_T_Cordr_SZn" = 343.2945   $ Sizing
 "CAssFlo_T_Cordr_WZn" = 290.6319   $ Sizing
 "CAssFlo_T_LobWait_CZn" = 420.0074   $ Sizing
 "CAssFlo_T_MechElec_CZn" = 150.566   $ Sizing
 "CAssFlo_T_OfficeOpn_CZn" = 1904.265   $ Sizing
 "CAssFlo_T_OfficeOpn_EZn" = 2320.2   $ Sizing
 "CAssFlo_T_OfficeOpn_NZn" = 956.8092   $ Sizing
 "CAssFlo_T_OfficeOpn_SZn" = 2577.034   $ Sizing
 "CAssFlo_T_OfficeOpn_WZn" = 2240.875   $ Sizing
 "CAssFlo_T_OfficeSm_CZn" = 266.1148   $ Sizing
 "CAssFlo_T_OfficeSm_EZn" = 1743.601   $ Sizing
 "CAssFlo_T_OfficeSm_NZn" = 610.8742   $ Sizing
 "CAssFlo_T_OfficeSm_SZn" = 1971.013   $ Sizing
 "CAssFlo_T_OfficeSm_WZn" = 1706.841   $ Sizing
 "CAssFlo_T_Restrm_CZn" = 211.8611   $ Sizing
 "CAssFlo_T_StorSm_CZn" = 334.0894   $ Sizing
 "CHRtFlo_Sys_L_Break_C" = 364.9508   $ Sizing
 "CHRtFlo_Sys_L_Conf_C" = 438.6124   $ Sizing
 "CHRtFlo_Sys_L_CopyRm_C" = 114.646   $ Sizing
 "CHRtFlo_Sys_L_Cordr_C" = 565.4379   $ Sizing
 "CHRtFlo_Sys_L_Cordr_E" = 292.2148   $ Sizing
 "CHRtFlo_Sys_L_Cordr_N" = 128.2309   $ Sizing
 "CHRtFlo_Sys_L_Cordr_S" = 321.0151   $ Sizing
 "CHRtFlo_Sys_L_Cordr_W" = 285.4802   $ Sizing
 "CHRtFlo_Sys_L_LobWait_C" = 357.5719   $ Sizing
 "CHRtFlo_Sys_L_MechElec_C" = 134.1697   $ Sizing
 "CHRtFlo_Sys_L_OfficeOpn_C" = 1786.72   $ Sizing
 "CHRtFlo_Sys_L_OfficeOpn_E" = 2370.663   $ Sizing
 "CHRtFlo_Sys_L_OfficeOpn_N" = 884.4172   $ Sizing
 "CHRtFlo_Sys_L_OfficeOpn_S" = 2504.716   $ Sizing
 "CHRtFlo_Sys_L_OfficeOpn_W" = 2296.768   $ Sizing
 "CHRtFlo_Sys_L_OfficeSm_C" = 224.9954   $ Sizing
 "CHRtFlo_Sys_L_OfficeSm_E" = 1738.726   $ Sizing
 "CHRtFlo_Sys_L_OfficeSm_N" = 543.2628   $ Sizing
 "CHRtFlo_Sys_L_OfficeSm_S" = 1880.972   $ Sizing
 "CHRtFlo_Sys_L_OfficeSm_W" = 1711.323   $ Sizing
 "CHRtFlo_Sys_L_Restrm_C" = 211.8611   $ Sizing
 "CHRtFlo_Sys_L_StorSm_C" = 346.4792   $ Sizing
 "CHRtFlo_Sys_M_Break_C" = 3205.608   $ Sizing
 "CHRtFlo_Sys_M_Conf_C" = 3860.344   $ Sizing
 "CHRtFlo_Sys_M_CopyRm_C" = 1124.541   $ Sizing
 "CHRtFlo_Sys_M_Cordr_C" = 6305.012   $ Sizing
 "CHRtFlo_Sys_M_Cordr_E" = 2788.146   $ Sizing
 "CHRtFlo_Sys_M_Cordr_N" = 1194.247   $ Sizing
 "CHRtFlo_Sys_M_Cordr_S" = 3066.259   $ Sizing
 "CHRtFlo_Sys_M_Cordr_W" = 2621.325   $ Sizing
 "CHRtFlo_Sys_M_LobWait_C" = 3655.375   $ Sizing
 "CHRtFlo_Sys_M_MechElec_C" = 1153.864   $ Sizing
 "CHRtFlo_Sys_M_OfficeOpn_C" = 16494.96   $ Sizing
 "CHRtFlo_Sys_M_OfficeOpn_E" = 20392.41   $ Sizing
 "CHRtFlo_Sys_M_OfficeOpn_N" = 8211.75   $ Sizing
 "CHRtFlo_Sys_M_OfficeOpn_S" = 22372.86   $ Sizing
 "CHRtFlo_Sys_M_OfficeOpn_W" = 19688.04   $ Sizing
 "CHRtFlo_Sys_M_OfficeSm_C" = 2245.773   $ Sizing
 "CHRtFlo_Sys_M_OfficeSm_E" = 14885.98   $ Sizing
 "CHRtFlo_Sys_M_OfficeSm_N" = 5144.225   $ Sizing
 "CHRtFlo_Sys_M_OfficeSm_S" = 16664.96   $ Sizing
 "CHRtFlo_Sys_M_OfficeSm_W" = 14601.25   $ Sizing
 "CHRtFlo_Sys_M_Restrm_C" = 1694.889   $ Sizing
 "CHRtFlo_Sys_M_StorSm_C" = 3012.007   $ Sizing
 "CHRtFlo_Sys_T_Break_C" = 375.1144   $ Sizing
 "CHRtFlo_Sys_T_Conf_C" = 461.3708   $ Sizing
 "CHRtFlo_Sys_T_CopyRm_C" = 132.9294   $ Sizing
 "CHRtFlo_Sys_T_Cordr_C" = 693.3849   $ Sizing
 "CHRtFlo_Sys_T_Cordr_E" = 307.7594   $ Sizing
 "CHRtFlo_Sys_T_Cordr_N" = 130.4023   $ Sizing
 "CHRtFlo_Sys_T_Cordr_S" = 343.2945   $ Sizing
 "CHRtFlo_Sys_T_Cordr_W" = 290.6319   $ Sizing
 "CHRtFlo_Sys_T_LobWait_C" = 420.0074   $ Sizing
 "CHRtFlo_Sys_T_MechElec_C" = 150.566   $ Sizing
 "CHRtFlo_Sys_T_OfficeOpn_C" = 1904.265   $ Sizing
 "CHRtFlo_Sys_T_OfficeOpn_E" = 2320.2   $ Sizing
 "CHRtFlo_Sys_T_OfficeOpn_N" = 956.8092   $ Sizing
 "CHRtFlo_Sys_T_OfficeOpn_S" = 2577.034   $ Sizing
 "CHRtFlo_Sys_T_OfficeOpn_W" = 2240.875   $ Sizing
 "CHRtFlo_Sys_T_OfficeSm_C" = 266.1148   $ Sizing
 "CHRtFlo_Sys_T_OfficeSm_E" = 1743.601   $ Sizing
 "CHRtFlo_Sys_T_OfficeSm_N" = 610.8742   $ Sizing
 "CHRtFlo_Sys_T_OfficeSm_S" = 1971.013   $ Sizing
 "CHRtFlo_Sys_T_OfficeSm_W" = 1706.841   $ Sizing
 "CHRtFlo_Sys_T_Restrm_C" = 211.8611   $ Sizing
 "CHRtFlo_Sys_T_StorSm_C" = 334.0894   $ Sizing
 "CRtdFlo_Sys_L_Break_C" = 364.9508   $ Sizing
 "CRtdFlo_Sys_L_Conf_C" = 438.6124   $ Sizing
 "CRtdFlo_Sys_L_CopyRm_C" = 114.646   $ Sizing
 "CRtdFlo_Sys_L_Cordr_C" = 565.4379   $ Sizing
 "CRtdFlo_Sys_L_Cordr_E" = 292.2148   $ Sizing
 "CRtdFlo_Sys_L_Cordr_N" = 128.2309   $ Sizing
 "CRtdFlo_Sys_L_Cordr_S" = 321.0151   $ Sizing
 "CRtdFlo_Sys_L_Cordr_W" = 285.4802   $ Sizing
 "CRtdFlo_Sys_L_LobWait_C" = 357.5719   $ Sizing
 "CRtdFlo_Sys_L_MechElec_C" = 134.1697   $ Sizing
 "CRtdFlo_Sys_L_OfficeOpn_C" = 1786.72   $ Sizing
 "CRtdFlo_Sys_L_OfficeOpn_E" = 2370.663   $ Sizing
 "CRtdFlo_Sys_L_OfficeOpn_N" = 884.4172   $ Sizing
 "CRtdFlo_Sys_L_OfficeOpn_S" = 2504.716   $ Sizing
 "CRtdFlo_Sys_L_OfficeOpn_W" = 2296.768   $ Sizing
 "CRtdFlo_Sys_L_OfficeSm_C" = 224.9954   $ Sizing
 "CRtdFlo_Sys_L_OfficeSm_E" = 1738.726   $ Sizing
 "CRtdFlo_Sys_L_OfficeSm_N" = 543.2628   $ Sizing
 "CRtdFlo_Sys_L_OfficeSm_S" = 1880.972   $ Sizing
 "CRtdFlo_Sys_L_OfficeSm_W" = 1711.323   $ Sizing
 "CRtdFlo_Sys_L_Restrm_C" = 211.8611   $ Sizing
 "CRtdFlo_Sys_L_StorSm_C" = 346.4792   $ Sizing
 "CRtdFlo_Sys_M_Break_C" = 3205.608   $ Sizing
 "CRtdFlo_Sys_M_Conf_C" = 3860.344   $ Sizing
 "CRtdFlo_Sys_M_CopyRm_C" = 1124.541   $ Sizing
 "CRtdFlo_Sys_M_Cordr_C" = 6305.012   $ Sizing
 "CRtdFlo_Sys_M_Cordr_E" = 2788.146   $ Sizing
 "CRtdFlo_Sys_M_Cordr_N" = 1194.247   $ Sizing
 "CRtdFlo_Sys_M_Cordr_S" = 3066.259   $ Sizing
 "CRtdFlo_Sys_M_Cordr_W" = 2621.325   $ Sizing
 "CRtdFlo_Sys_M_LobWait_C" = 3655.375   $ Sizing
 "CRtdFlo_Sys_M_MechElec_C" = 1153.864   $ Sizing
 "CRtdFlo_Sys_M_OfficeOpn_C" = 16494.96   $ Sizing
 "CRtdFlo_Sys_M_OfficeOpn_E" = 20392.41   $ Sizing
 "CRtdFlo_Sys_M_OfficeOpn_N" = 8211.75   $ Sizing
 "CRtdFlo_Sys_M_OfficeOpn_S" = 22372.86   $ Sizing
 "CRtdFlo_Sys_M_OfficeOpn_W" = 19688.04   $ Sizing
 "CRtdFlo_Sys_M_OfficeSm_C" = 2245.773   $ Sizing
 "CRtdFlo_Sys_M_OfficeSm_E" = 14885.98   $ Sizing
 "CRtdFlo_Sys_M_OfficeSm_N" = 5144.225   $ Sizing
 "CRtdFlo_Sys_M_OfficeSm_S" = 16664.96   $ Sizing
 "CRtdFlo_Sys_M_OfficeSm_W" = 14601.25   $ Sizing
 "CRtdFlo_Sys_M_Restrm_C" = 1694.889   $ Sizing
 "CRtdFlo_Sys_M_StorSm_C" = 3012.007   $ Sizing
 "CRtdFlo_Sys_T_Break_C" = 375.1144   $ Sizing
 "CRtdFlo_Sys_T_Conf_C" = 461.3708   $ Sizing
 "CRtdFlo_Sys_T_CopyRm_C" = 132.9294   $ Sizing
 "CRtdFlo_Sys_T_Cordr_C" = 693.3849   $ Sizing
 "CRtdFlo_Sys_T_Cordr_E" = 307.7594   $ Sizing
 "CRtdFlo_Sys_T_Cordr_N" = 130.4023   $ Sizing
 "CRtdFlo_Sys_T_Cordr_S" = 343.2945   $ Sizing
 "CRtdFlo_Sys_T_Cordr_W" = 290.6319   $ Sizing
 "CRtdFlo_Sys_T_LobWait_C" = 420.0074   $ Sizing
 "CRtdFlo_Sys_T_MechElec_C" = 150.566   $ Sizing
 "CRtdFlo_Sys_T_OfficeOpn_C" = 1904.265   $ Sizing
 "CRtdFlo_Sys_T_OfficeOpn_E" = 2320.2   $ Sizing
 "CRtdFlo_Sys_T_OfficeOpn_N" = 956.8092   $ Sizing
 "CRtdFlo_Sys_T_OfficeOpn_S" = 2577.034   $ Sizing
 "CRtdFlo_Sys_T_OfficeOpn_W" = 2240.875   $ Sizing
 "CRtdFlo_Sys_T_OfficeSm_C" = 266.1148   $ Sizing
 "CRtdFlo_Sys_T_OfficeSm_E" = 1743.601   $ Sizing
 "CRtdFlo_Sys_T_OfficeSm_N" = 610.8742   $ Sizing
 "CRtdFlo_Sys_T_OfficeSm_S" = 1971.013   $ Sizing
 "CRtdFlo_Sys_T_OfficeSm_W" = 1706.841   $ Sizing
 "CRtdFlo_Sys_T_Restrm_C" = 211.8611   $ Sizing
 "CRtdFlo_Sys_T_StorSm_C" = 334.0894   $ Sizing
 "CSupFlo_Sys_L_Break_C" = 364.9508   $ Sizing
 "CSupFlo_Sys_L_Conf_C" = 438.6124   $ Sizing
 "CSupFlo_Sys_L_CopyRm_C" = 114.646   $ Sizing
 "CSupFlo_Sys_L_Cordr_C" = 565.4379   $ Sizing
 "CSupFlo_Sys_L_Cordr_E" = 292.2148   $ Sizing
 "CSupFlo_Sys_L_Cordr_N" = 128.2309   $ Sizing
 "CSupFlo_Sys_L_Cordr_S" = 321.0151   $ Sizing
 "CSupFlo_Sys_L_Cordr_W" = 285.4802   $ Sizing
 "CSupFlo_Sys_L_LobWait_C" = 357.5719   $ Sizing
 "CSupFlo_Sys_L_MechElec_C" = 134.1697   $ Sizing
 "CSupFlo_Sys_L_OfficeOpn_C" = 1786.72   $ Sizing
 "CSupFlo_Sys_L_OfficeOpn_E" = 2370.663   $ Sizing
 "CSupFlo_Sys_L_OfficeOpn_N" = 884.4172   $ Sizing
 "CSupFlo_Sys_L_OfficeOpn_S" = 2504.716   $ Sizing
 "CSupFlo_Sys_L_OfficeOpn_W" = 2296.768   $ Sizing
 "CSupFlo_Sys_L_OfficeSm_C" = 224.9954   $ Sizing
 "CSupFlo_Sys_L_OfficeSm_E" = 1738.726   $ Sizing
 "CSupFlo_Sys_L_OfficeSm_N" = 543.2628   $ Sizing
 "CSupFlo_Sys_L_OfficeSm_S" = 1880.972   $ Sizing
 "CSupFlo_Sys_L_OfficeSm_W" = 1711.323   $ Sizing
 "CSupFlo_Sys_L_Restrm_C" = 211.8611   $ Sizing
 "CSupFlo_Sys_L_StorSm_C" = 346.4792   $ Sizing
 "CSupFlo_Sys_M_Break_C" = 3205.608   $ Sizing
 "CSupFlo_Sys_M_Conf_C" = 3860.344   $ Sizing
 "CSupFlo_Sys_M_CopyRm_C" = 1124.541   $ Sizing
 "CSupFlo_Sys_M_Cordr_C" = 6305.012   $ Sizing
 "CSupFlo_Sys_M_Cordr_E" = 2788.146   $ Sizing
 "CSupFlo_Sys_M_Cordr_N" = 1194.247   $ Sizing
 "CSupFlo_Sys_M_Cordr_S" = 3066.259   $ Sizing
 "CSupFlo_Sys_M_Cordr_W" = 2621.325   $ Sizing
 "CSupFlo_Sys_M_LobWait_C" = 3655.375   $ Sizing
 "CSupFlo_Sys_M_MechElec_C" = 1153.864   $ Sizing
 "CSupFlo_Sys_M_OfficeOpn_C" = 16494.96   $ Sizing
 "CSupFlo_Sys_M_OfficeOpn_E" = 20392.41   $ Sizing
 "CSupFlo_Sys_M_OfficeOpn_N" = 8211.75   $ Sizing
 "CSupFlo_Sys_M_OfficeOpn_S" = 22372.86   $ Sizing
 "CSupFlo_Sys_M_OfficeOpn_W" = 19688.04   $ Sizing
 "CSupFlo_Sys_M_OfficeSm_C" = 2245.773   $ Sizing
 "CSupFlo_Sys_M_OfficeSm_E" = 14885.98   $ Sizing
 "CSupFlo_Sys_M_OfficeSm_N" = 5144.225   $ Sizing
 "CSupFlo_Sys_M_OfficeSm_S" = 16664.96   $ Sizing
 "CSupFlo_Sys_M_OfficeSm_W" = 14601.25   $ Sizing
 "CSupFlo_Sys_M_Restrm_C" = 1694.889   $ Sizing
 "CSupFlo_Sys_M_StorSm_C" = 3012.007   $ Sizing
 "CSupFlo_Sys_T_Break_C" = 375.1144   $ Sizing
 "CSupFlo_Sys_T_Conf_C" = 461.3708   $ Sizing
 "CSupFlo_Sys_T_CopyRm_C" = 132.9294   $ Sizing
 "CSupFlo_Sys_T_Cordr_C" = 693.3849   $ Sizing
 "CSupFlo_Sys_T_Cordr_E" = 307.7594   $ Sizing
 "CSupFlo_Sys_T_Cordr_N" = 130.4023   $ Sizing
 "CSupFlo_Sys_T_Cordr_S" = 343.2945   $ Sizing
 "CSupFlo_Sys_T_Cordr_W" = 290.6319   $ Sizing
 "CSupFlo_Sys_T_LobWait_C" = 420.0074   $ Sizing
 "CSupFlo_Sys_T_MechElec_C" = 150.566   $ Sizing
 "CSupFlo_Sys_T_OfficeOpn_C" = 1904.265   $ Sizing
 "CSupFlo_Sys_T_OfficeOpn_E" = 2320.2   $ Sizing
 "CSupFlo_Sys_T_OfficeOpn_N" = 956.8092   $ Sizing
 "CSupFlo_Sys_T_OfficeOpn_S" = 2577.034   $ Sizing
 "CSupFlo_Sys_T_OfficeOpn_W" = 2240.875   $ Sizing
 "CSupFlo_Sys_T_OfficeSm_C" = 266.1148   $ Sizing
 "CSupFlo_Sys_T_OfficeSm_E" = 1743.601   $ Sizing
 "CSupFlo_Sys_T_OfficeSm_N" = 610.8742   $ Sizing
 "CSupFlo_Sys_T_OfficeSm_S" = 1971.013   $ Sizing
 "CSupFlo_Sys_T_OfficeSm_W" = 1706.841   $ Sizing
 "CSupFlo_Sys_T_Restrm_C" = 211.8611   $ Sizing
 "CSupFlo_Sys_T_StorSm_C" = 334.0894   $ Sizing
 "ClCap_Sys_L_Break_C" = 12419.06   $ Sizing
 "ClCap_Sys_L_Conf_C" = 18996.37   $ Sizing
 "ClCap_Sys_L_CopyRm_C" = 3901.335   $ Sizing
 "ClCap_Sys_L_Cordr_C" = 19241.51   $ Sizing
 "ClCap_Sys_L_Cordr_E" = 9943.896   $ Sizing
 "ClCap_Sys_L_Cordr_N" = 4363.622   $ Sizing
 "ClCap_Sys_L_Cordr_S" = 10923.95   $ Sizing
 "ClCap_Sys_L_Cordr_W" = 9714.719   $ Sizing
 "ClCap_Sys_L_LobWait_C" = 12167.96   $ Sizing
 "ClCap_Sys_L_MechElec_C" = 4565.713   $ Sizing
 "ClCap_Sys_L_OfficeOpn_C" = 60801   $ Sizing
 "ClCap_Sys_L_OfficeOpn_E" = 80672.25   $ Sizing
 "ClCap_Sys_L_OfficeOpn_N" = 30096.19   $ Sizing
 "ClCap_Sys_L_OfficeOpn_S" = 85233.99   $ Sizing
 "ClCap_Sys_L_OfficeOpn_W" = 78157.63   $ Sizing
 "ClCap_Sys_L_OfficeSm_C" = 7656.46   $ Sizing
 "ClCap_Sys_L_OfficeSm_E" = 59167.8   $ Sizing
 "ClCap_Sys_L_OfficeSm_N" = 18486.91   $ Sizing
 "ClCap_Sys_L_OfficeSm_S" = 64008.36   $ Sizing
 "ClCap_Sys_L_OfficeSm_W" = 58235.29   $ Sizing
 "ClCap_Sys_L_Restrm_C" = 7209.506   $ Sizing
 "ClCap_Sys_L_StorSm_C" = 11790.48   $ Sizing
 "ClCap_Sys_M_Break_C" = 109084.9   $ Sizing
 "ClCap_Sys_M_Conf_C" = 167192.1   $ Sizing
 "ClCap_Sys_M_CopyRm_C" = 38267.44   $ Sizing
 "ClCap_Sys_M_Cordr_C" = 214555.8   $ Sizing
 "ClCap_Sys_M_Cordr_E" = 94878.93   $ Sizing
 "ClCap_Sys_M_Cordr_N" = 40639.52   $ Sizing
 "ClCap_Sys_M_Cordr_S" = 104343   $ Sizing
 "ClCap_Sys_M_Cordr_W" = 89202.12   $ Sizing
 "ClCap_Sys_M_LobWait_C" = 124390.2   $ Sizing
 "ClCap_Sys_M_MechElec_C" = 39265.29   $ Sizing
 "ClCap_Sys_M_OfficeOpn_C" = 561313.8   $ Sizing
 "ClCap_Sys_M_OfficeOpn_E" = 693941.6   $ Sizing
 "ClCap_Sys_M_OfficeOpn_N" = 279440.9   $ Sizing
 "ClCap_Sys_M_OfficeOpn_S" = 761335.1   $ Sizing
 "ClCap_Sys_M_OfficeOpn_W" = 669972.1   $ Sizing
 "ClCap_Sys_M_OfficeSm_C" = 76422.33   $ Sizing
 "ClCap_Sys_M_OfficeSm_E" = 506560.8   $ Sizing
 "ClCap_Sys_M_OfficeSm_N" = 175054.9   $ Sizing
 "ClCap_Sys_M_OfficeSm_S" = 567098.4   $ Sizing
 "ClCap_Sys_M_OfficeSm_W" = 496871.8   $ Sizing
 "ClCap_Sys_M_Restrm_C" = 57676.05   $ Sizing
 "ClCap_Sys_M_StorSm_C" = 102496.8   $ Sizing
 "ClCap_Sys_T_Break_C" = 12764.92   $ Sizing
 "ClCap_Sys_T_Conf_C" = 19982.04   $ Sizing
 "ClCap_Sys_T_CopyRm_C" = 4523.507   $ Sizing
 "ClCap_Sys_T_Cordr_C" = 23595.47   $ Sizing
 "ClCap_Sys_T_Cordr_E" = 10472.87   $ Sizing
 "ClCap_Sys_T_Cordr_N" = 4437.514   $ Sizing
 "ClCap_Sys_T_Cordr_S" = 11682.11   $ Sizing
 "ClCap_Sys_T_Cordr_W" = 9890.029   $ Sizing
 "ClCap_Sys_T_LobWait_C" = 14292.6   $ Sizing
 "ClCap_Sys_T_MechElec_C" = 5123.672   $ Sizing
 "ClCap_Sys_T_OfficeOpn_C" = 64801.01   $ Sizing
 "ClCap_Sys_T_OfficeOpn_E" = 78955.01   $ Sizing
 "ClCap_Sys_T_OfficeOpn_N" = 32559.64   $ Sizing
 "ClCap_Sys_T_OfficeOpn_S" = 87694.92   $ Sizing
 "ClCap_Sys_T_OfficeOpn_W" = 76255.65   $ Sizing
 "ClCap_Sys_T_OfficeSm_C" = 9055.729   $ Sizing
 "ClCap_Sys_T_OfficeSm_E" = 59333.7   $ Sizing
 "ClCap_Sys_T_OfficeSm_N" = 20787.68   $ Sizing
 "ClCap_Sys_T_OfficeSm_S" = 67072.41   $ Sizing
 "ClCap_Sys_T_OfficeSm_W" = 58082.79   $ Sizing
 "ClCap_Sys_T_Restrm_C" = 7209.506   $ Sizing
 "ClCap_Sys_T_StorSm_C" = 11368.86   $ Sizing
 "HtCap_Sys_L_Break_C" = -20444.17   $ Sizing
 "HtCap_Sys_L_Conf_C" = -25565.72   $ Sizing
 "HtCap_Sys_L_CopyRm_C" = -7323.365   $ Sizing
 "HtCap_Sys_L_Cordr_C" = -26065.64   $ Sizing
 "HtCap_Sys_L_Cordr_E" = -10290.5   $ Sizing
 "HtCap_Sys_L_Cordr_N" = -5451.67   $ Sizing
 "HtCap_Sys_L_Cordr_S" = -10949.83   $ Sizing
 "HtCap_Sys_L_Cordr_W" = -10078.97   $ Sizing
 "HtCap_Sys_L_LobWait_C" = -20543.3   $ Sizing
 "HtCap_Sys_L_MechElec_C" = -6071.845   $ Sizing
 "HtCap_Sys_L_OfficeOpn_C" = -87131.09   $ Sizing
 "HtCap_Sys_L_OfficeOpn_E" = -78883.7   $ Sizing
 "HtCap_Sys_L_OfficeOpn_N" = -35512.56   $ Sizing
 "HtCap_Sys_L_OfficeOpn_S" = -81243.02   $ Sizing
 "HtCap_Sys_L_OfficeOpn_W" = -76602.33   $ Sizing
 "HtCap_Sys_L_OfficeSm_C" = -9136.895   $ Sizing
 "HtCap_Sys_L_OfficeSm_E" = -58429.06   $ Sizing
 "HtCap_Sys_L_OfficeSm_N" = -22077.43   $ Sizing
 "HtCap_Sys_L_OfficeSm_S" = -60573.09   $ Sizing
 "HtCap_Sys_L_OfficeSm_W" = -57516.46   $ Sizing
 "HtCap_Sys_L_Restrm_C" = -7761.488   $ Sizing
 "HtCap_Sys_L_StorSm_C" = -15986.63   $ Sizing
 "HtCap_Sys_M_Break_C" = -171735.5   $ Sizing
 "HtCap_Sys_M_Conf_C" = -214708   $ Sizing
 "HtCap_Sys_M_CopyRm_C" = -64636.46   $ Sizing
 "HtCap_Sys_M_Cordr_C" = -259536   $ Sizing
 "HtCap_Sys_M_Cordr_E" = -95086.94   $ Sizing
 "HtCap_Sys_M_Cordr_N" = -48516.65   $ Sizing
 "HtCap_Sys_M_Cordr_S" = -101326   $ Sizing
 "HtCap_Sys_M_Cordr_W" = -90103.26   $ Sizing
 "HtCap_Sys_M_LobWait_C" = -187401.6   $ Sizing
 "HtCap_Sys_M_MechElec_C" = -50817.25   $ Sizing
 "HtCap_Sys_M_OfficeOpn_C" = -624233.9   $ Sizing
 "HtCap_Sys_M_OfficeOpn_E" = -670376.5   $ Sizing
 "HtCap_Sys_M_OfficeOpn_N" = -317041.4   $ Sizing
 "HtCap_Sys_M_OfficeOpn_S" = -712889.8   $ Sizing
 "HtCap_Sys_M_OfficeOpn_W" = -648749.4   $ Sizing
 "HtCap_Sys_M_OfficeSm_C" = -85892.17   $ Sizing
 "HtCap_Sys_M_OfficeSm_E" = -496482.2   $ Sizing
 "HtCap_Sys_M_OfficeSm_N" = -199977.4   $ Sizing
 "HtCap_Sys_M_OfficeSm_S" = -527850   $ Sizing
 "HtCap_Sys_M_OfficeSm_W" = -478386.8   $ Sizing
 "HtCap_Sys_M_Restrm_C" = -67074.55   $ Sizing
 "HtCap_Sys_M_StorSm_C" = -130423.3   $ Sizing
 "HtCap_Sys_T_Break_C" = -21524.76   $ Sizing
 "HtCap_Sys_T_Conf_C" = -26991.62   $ Sizing
 "HtCap_Sys_T_CopyRm_C" = -8059.019   $ Sizing
 "HtCap_Sys_T_Cordr_C" = -33073.04   $ Sizing
 "HtCap_Sys_T_Cordr_E" = -12334.22   $ Sizing
 "HtCap_Sys_T_Cordr_N" = -6157.157   $ Sizing
 "HtCap_Sys_T_Cordr_S" = -13420.7   $ Sizing
 "HtCap_Sys_T_Cordr_W" = -11769.05   $ Sizing
 "HtCap_Sys_T_LobWait_C" = -23418.45   $ Sizing
 "HtCap_Sys_T_MechElec_C" = -6530.971   $ Sizing
 "HtCap_Sys_T_OfficeOpn_C" = -83165.92   $ Sizing
 "HtCap_Sys_T_OfficeOpn_E" = -87032.82   $ Sizing
 "HtCap_Sys_T_OfficeOpn_N" = -42558.92   $ Sizing
 "HtCap_Sys_T_OfficeOpn_S" = -94614.95   $ Sizing
 "HtCap_Sys_T_OfficeOpn_W" = -84428.5   $ Sizing
 "HtCap_Sys_T_OfficeSm_C" = -11495.41   $ Sizing
 "HtCap_Sys_T_OfficeSm_E" = -65824.03   $ Sizing
 "HtCap_Sys_T_OfficeSm_N" = -26960.82   $ Sizing
 "HtCap_Sys_T_OfficeSm_S" = -71009.78   $ Sizing
 "HtCap_Sys_T_OfficeSm_W" = -63818.13   $ Sizing
 "HtCap_Sys_T_Restrm_C" = -8828.516   $ Sizing
 "HtCap_Sys_T_StorSm_C" = -17384.47   $ Sizing
..

##include Templates\OfL_DX_SZ.inp
END ..
COMPUTE ..
STOP ..
