INPUT ..

##fileprefix C:\Users\jglasskatz\MASControl3\
##set1 IsSizing FALSE
##set1 CoolType DX
##set1 HeatType FURNACE
##set1 EU_HrRepVar 0
##set1 BldgVint 2007
##set1 BldgLoc CZ12

 ##set1 mBFMult 1   $ IP Tech: RefgChg-NRes-Std

PARAMETER
 "AltFactor" = 1.00062   $ IP Non-Tech
 "BF_fFlow" = SpltAC1Sp-ge45_BF_fFlow   $ Msr (Multi)TechID: StdNResSplitAC-45to55
 "BF_fT" = SpltAC1Sp-ge45_BF_fT   $ Msr (Multi)TechID: StdNResSplitAC-45to55
 "BldgEconoFlag" = 1   $ IP Non-Tech
 "Break_EWSF" = 1   $ IP Non-Tech
 "Break_LWSF" = 1.1   $ IP Non-Tech
 "CDD_DBHi10" = 83   $ IP Non-Tech
 "CDD_DBHi7" = 101   $ IP Non-Tech
 "CDD_DBHi8" = 99   $ IP Non-Tech
 "CDD_DBHi9" = 98   $ IP Non-Tech
 "CDD_DBRange10" = 23   $ IP Non-Tech
 "CDD_DBRange7" = 30   $ IP Non-Tech
 "CDD_DBRange8" = 34   $ IP Non-Tech
 "CDD_DBRange9" = 34   $ IP Non-Tech
 "CDD_Day10" = 15   $ IP Non-Tech
 "CDD_Day7" = 16   $ IP Non-Tech
 "CDD_Day8" = 20   $ IP Non-Tech
 "CDD_Day9" = 17   $ IP Non-Tech
 "CDD_HrHi10" = 14   $ IP Non-Tech
 "CDD_HrHi7" = 16   $ IP Non-Tech
 "CDD_HrHi8" = 16   $ IP Non-Tech
 "CDD_HrHi9" = 16   $ IP Non-Tech
 "CDD_HrLo10" = 3   $ IP Non-Tech
 "CDD_HrLo7" = 4   $ IP Non-Tech
 "CDD_HrLo8" = 8   $ IP Non-Tech
 "CDD_HrLo9" = 7   $ IP Non-Tech
 "CDD_WB10" = 61.40390396   $ IP Non-Tech
 "CDD_WB7" = 71.25247955   $ IP Non-Tech
 "CDD_WB8" = 68.94035339   $ IP Non-Tech
 "CDD_WB9" = 66.54764557   $ IP Non-Tech
 "CEIR_fPLR_Hot" = SpltAC1Sp-ge45_CEIR_fPLR_Hot   $ Msr (Multi)TechID: StdNResSplitAC-45to55
 "CEIR_fPLR_Mod" = SpltAC1Sp-ge45_CEIR_fPLR_Mod   $ Msr (Multi)TechID: StdNResSplitAC-45to55
 "CEIR_fPLR_Tem" = SpltAC1Sp-ge45_CEIR_fPLR_Tem   $ Msr (Multi)TechID: StdNResSplitAC-45to55
 "CLoss_fPLR_Hot" = SpltAC1Sp-ge45_CLoss_fPLR_Hot   $ Msr (Multi)TechID: StdNResSplitAC-45to55
 "CLoss_fPLR_Mod" = SpltAC1Sp-ge45_CLoss_fPLR_Mod   $ Msr (Multi)TechID: StdNResSplitAC-45to55
 "CLoss_fPLR_Tem" = SpltAC1Sp-ge45_CLoss_fPLR_Tem   $ Msr (Multi)TechID: StdNResSplitAC-45to55
 "COP47" = 0   $ Msr (Multi)TechID: StdNResSplitAC-45to55
 "CZ_Category" = Mod   $ IP Non-Tech
 "CapRange" = ge45   $ Msr (Multi)TechID: StdNResSplitAC-45to55
 "CfmPerBtuh" = 0.03263   $ Msr (Multi)TechID: StdNResSplitAC-45to55
 "ChwVintEconoFlag" = 1   $ IP Non-Tech
 "ClCap_fT" = SpltAC1Sp-ge45_ClCap_fT   $ Msr (Multi)TechID: StdNResSplitAC-45to55
 "ClSH_fT" = SpltAC1Sp-ge45_ClSH_fT   $ Msr (Multi)TechID: StdNResSplitAC-45to55
 "CoilBF" = 0.106518182   $ Msr (Multi)TechID: StdNResSplitAC-45to55
 "CondWPerBtuh" = 0   $ Msr (Multi)TechID: StdNResSplitAC-45to55
 "Conference_EWSF" = 1   $ IP Non-Tech
 "Conference_LWSF" = 1.4   $ IP Non-Tech
 "CoolSensCap" = 0.759218182   $ Msr (Multi)TechID: StdNResSplitAC-45to55
 "CoolSetT" = 45   $ IP Non-Tech
 "CoolType" = DX   $ IP Non-Tech
 "CoolingEIR" = 0.2466   $ Msr (Multi)TechID: StdNResSplitAC-45to55
 "CopyRoom_EWSF" = 1.5   $ IP Non-Tech
 "CopyRoom_LWSF" = 1.3   $ IP Non-Tech
 "CorridorStairway_EWSF" = 0.2   $ IP Non-Tech
 "CorridorStairway_LWSF" = 0.6   $ IP Non-Tech
 "CrnkEIR" = 0.002466   $ Msr (Multi)TechID: StdNResSplitAC-45to55
 "CrnkMaxT" = 50   $ Msr (Multi)TechID: StdNResSplitAC-45to55
 "DXType" = SplitSEER   $ Msr (Multi)TechID: StdNResSplitAC-45to55
 "DesCoolT" = 75   $ IP Non-Tech
 "DesHeatT" = 73   $ IP Non-Tech
 "EER" = 11.81793103   $ Msr (Multi)TechID: StdNResSplitAC-45to55
 "EIR_fT" = SpltAC1Sp-ge45_EIR_fT   $ Msr (Multi)TechID: StdNResSplitAC-45to55
 "EconoCtrl" = FIXED   $ Msr (Multi)TechID: StdNResSplitAC-45to55
 "EconoEnthLimit" = 28   $ IP Non-Tech
 "EconoTempLimit" = 75   $ IP Non-Tech
 "Elevation" = 16   $ IP Non-Tech
 "FanEirPlr" = TwoSpeedFan   $ Msr (Multi)TechID: StdNResSplitAC-45to55
 "FanWPerCfm" = 0.294   $ Msr (Multi)TechID: StdNResSplitAC-45to55
 "HDD_CloudAmt1" = 0   $ IP Non-Tech
 "HDD_DBHi1" = 50   $ IP Non-Tech
 "HDD_DBRange1" = 21   $ IP Non-Tech
 "HDD_Day1" = 15   $ IP Non-Tech
 "HDD_HrHi1" = 16   $ IP Non-Tech
 "HDD_HrLo1" = 8   $ IP Non-Tech
 "HDD_WB1" = 43.9   $ IP Non-Tech
 "HDD_WindSpd1" = 13.8   $ IP Non-Tech
 "HIR_fT" = 0   $ Msr (Multi)TechID: StdNResSplitAC-45to55
 "HSPF" = 0   $ Msr (Multi)TechID: StdNResSplitAC-45to55
 "HeatSrc" = FURNACE   $ IP Non-Tech
 "HeatSrcTU" = HEAT-PUMP   $ IP Non-Tech
 "HeatType" = GasFurn   $ IP Non-Tech
 "HeatTypeTU" = HEAT-PUMP   $ IP Non-Tech
 "HtCap_fT" = 0   $ Msr (Multi)TechID: StdNResSplitAC-45to55
 "HtCoolCapRatio" = 0   $ Msr (Multi)TechID: StdNResSplitAC-45to55
 "HtgEIR" = 0   $ Msr (Multi)TechID: StdNResSplitAC-45to55
 "IndoorFanMode" = CONTINUOUS   $ IP Non-Tech
 "KT_TransferAir" = No   $ IP Non-Tech
 "Latitude" = 38.5   $ IP Non-Tech
 "LobbyWaiting_EWSF" = 0.5   $ IP Non-Tech
 "LobbyWaiting_LWSF" = 1.3   $ IP Non-Tech
 "Longitude" = 121.5   $ IP Non-Tech
 "LowSpdCapRatio" = 1   $ Msr (Multi)TechID: StdNResSplitAC-45to55
 "LowSpdCfmRatio" = 1   $ Msr (Multi)TechID: StdNResSplitAC-45to55
 "MZFanMechEff" = 0.58   $ IP Non-Tech
 "MZHasRetFan" = FALSE   $ IP Non-Tech
 "MZ_RFanWPerCfm" = 0.37   $ IP Non-Tech
 "MZ_SFanWPerCfm" = 0.71   $ IP Non-Tech
 "MZ_SupFanStatic" = 2.25   $ IP Non-Tech
 "MaxOAFrac" = 1   $ Msr (Multi)TechID: StdNResSplitAC-45to55
 "MaxSupT_MZ" = 100   $ IP Non-Tech
 "MaxSupT_SZ" = 100   $ IP Non-Tech
 "MaxSupT_TU" = 90   $ IP Non-Tech
 "MechElecRoom_EWSF" = 0.2   $ IP Non-Tech
 "MechElecRoom_LWSF" = 0.7   $ IP Non-Tech
 "MinCfmPerSF" = 0.4   $ IP Non-Tech
 "MinSupT" = 55   $ IP Non-Tech
 "NumStages" = 1   $ Msr (Multi)TechID: StdNResSplitAC-45to55
 "OccCoolT" = 76   $ IP Non-Tech
 "OccHeatT" = 72   $ IP Non-Tech
 "OfficeOpen_EWSF" = 1.5   $ IP Non-Tech
 "OfficeOpen_LWSF" = 1.2   $ IP Non-Tech
 "OfficeSmall_EWSF" = 1.5   $ IP Non-Tech
 "OfficeSmall_LWSF" = 1.3   $ IP Non-Tech
 "PkgDxVintEconoFlag" = 0   $ IP Non-Tech
 "Restroom_EWSF" = 0.2   $ IP Non-Tech
 "Restroom_LWSF" = 0.6   $ IP Non-Tech
 "SEER" = 14   $ Msr (Multi)TechID: StdNResSplitAC-45to55
 "SZFanMechEff" = 0.58   $ IP Non-Tech
 "SZHasRetFan" = FALSE   $ IP Non-Tech
 "SZ_Is_2Spd" = FALSE   $ IP Non-Tech
 "SZ_SFanWPerCfm" = 0.46   $ IP Non-Tech
 "SZ_SupFanStatic" = 0.75   $ IP Non-Tech
 "Sector" = Any   $ Msr (Multi)TechID: StdNResSplitAC-45to55
 "StorageSmlCond_EWSF" = 0.2   $ IP Non-Tech
 "StorageSmlCond_LWSF" = 0.6   $ IP Non-Tech
 "SubType" = AC   $ Msr (Multi)TechID: StdNResSplitAC-45to55
 "T24GlzTbl" = CZTbl   $ IP Non-Tech
 "TermUnitFanMechEff" = 1   $ IP Non-Tech
 "TermUnitFanMode" = INTERMITTENT   $ IP Non-Tech
 "TotCoolCap" = 52519.36364   $ Msr (Multi)TechID: StdNResSplitAC-45to55
 "TwrSetpt" = 82.3   $ IP Non-Tech
 "UnocCoolT" = 86   $ IP Non-Tech
 "UnocHeatT" = 62   $ IP Non-Tech
 "UseEconoVintApplic" = FALSE   $ Msr (Multi)TechID: StdNResSplitAC-45to55
 "WlhpVintEconoFlag" = 0   $ IP Non-Tech
 "DuctDT" = 1   $ IP Tech: ComDuctInsul-1
 "DuctAirLoss" = 0   $ IP Tech: ComDuctLeak-0
 "DuctLossOAFrac" = 0   $ IP Tech: ComDuctLeak-0
 "ComRoofInsCalc" = FromUo   $ IP Tech: ComRoofIns-Hvy-0.05
 "ComRoofInsR" = -999   $ IP Tech: ComRoofIns-Hvy-0.05
 "ComRoofUo" = 0.05   $ IP Tech: ComRoofIns-Hvy-0.05
 "ComEWInsCalc" = FromUo   $ IP Tech: ComWallIns-MFrm-0.13
 "ComEWInsR" = -999   $ IP Tech: ComWallIns-MFrm-0.13
 "ComEWUo" = 0.13   $ IP Tech: ComWallIns-MFrm-0.13
 "ComN_SHGC" = 0.47   $ IP Tech: NResWin-ComN-0.47-0.47
 "ComN_UFactor" = 0.47   $ IP Tech: NResWin-ComN-0.47-0.47
 "ComN_VisTrans" = 0.75   $ IP Tech: NResWin-ComN-0.47-0.47
 "ComN_WinCode" = G2633   $ IP Tech: NResWin-ComN-0.47-0.47
 "ComN_WinFrmFrac" = 0.17   $ IP Tech: NResWin-ComN-0.47-0.47
 "ComN_WinFrmU" = 0.3   $ IP Tech: NResWin-ComN-0.47-0.47
 "ComO_SHGC" = 0.31   $ IP Tech: NResWin-ComO-0.47-0.31
 "ComO_UFactor" = 0.47   $ IP Tech: NResWin-ComO-0.47-0.31
 "ComO_VisTrans" = 0.44   $ IP Tech: NResWin-ComO-0.47-0.31
 "ComO_WinCode" = G2637   $ IP Tech: NResWin-ComO-0.47-0.31
 "ComO_WinFrmFrac" = 0.17   $ IP Tech: NResWin-ComO-0.47-0.31
 "ComO_WinFrmU" = 0.3   $ IP Tech: NResWin-ComO-0.47-0.31
 "LtgMsrApplic" = ALL   $ IP Tech: NonResLtgRefPre
 "LtgSav_CFL" = 0   $ IP Tech: NonResLtgRefPre
 "LtgSav_EX" = 0   $ IP Tech: NonResLtgRefPre
 "LtgSav_HB" = 0   $ IP Tech: NonResLtgRefPre
 "LtgSav_LF" = 0   $ IP Tech: NonResLtgRefPre
 "LtgSav_SP" = 0   $ IP Tech: NonResLtgRefPre
 "CEIR_fPLR" = PSZ65to135_CEIR_fPLR   $ IP Tech: PkgAC1SpH-65to135-E10
 "CLoss_fPLR" = PSZ65to135_CLoss_fPLR   $ IP Tech: PkgAC1SpH-65to135-E10
 "COP" = -1   $ IP Tech: PkgAC1SpH-65to135-E10
 "HtgFuel" = Gas   $ IP Tech: PkgAC1SpH-65to135-E10
 "IEER" = 11.87   $ IP Tech: PkgAC1SpH-65to135-E10
 "NominalCap" = 15   $ IP Tech: PkgAC1SpH-65to135-E10
 "RatedEER" = 10   $ IP Tech: PkgAC1SpH-65to135-E10
 "RatedSupMtrClass" = HiEff   $ IP Tech: PkgAC1SpH-65to135-E10
 "SizeRange" = 65to135   $ IP Tech: PkgAC1SpH-65to135-E10
 "SupMotEff" = 0.84   $ IP Tech: PkgAC1SpH-65to135-E10
 "Tier" = 0   $ IP Tech: PkgAC1SpH-65to135-E10
 "FanPwrMult" = 1   $ IP Tech: PkgFurn-0.80AFUE
 "FurnAFUE" = 0.8   $ IP Tech: PkgFurn-0.80AFUE
 "FurnEt" = 0.82   $ IP Tech: PkgFurn-0.80AFUE
 "FurnaceAuxKW" = 0.1   $ IP Tech: PkgFurn-0.80AFUE
 "HIR_fPLR" = Furnace-HIR-fPLR   $ IP Tech: PkgFurn-0.80AFUE
 "VSM" = FALSE   $ IP Tech: PkgFurn-0.80AFUE
 "BFMult" = 1   $ IP Tech: RefgChg-NRes-Std
 "CoolEirMult" = 1   $ IP Tech: RefgChg-NRes-Std
 "SensCoolCapMult" = 1   $ IP Tech: RefgChg-NRes-Std
 "TotCoolCapMult" = 1   $ IP Tech: RefgChg-NRes-Std
 "AltAdjFactor" = 1.000622   $ Sizing
 "CAssFlo_L_Break_CZn" = 536.9267   $ Sizing
 "CAssFlo_L_Conf_CZn" = 519.0291   $ Sizing
 "CAssFlo_L_CopyRm_CZn" = 166.2551   $ Sizing
 "CAssFlo_L_Cordr_CZn" = 632.4698   $ Sizing
 "CAssFlo_L_Cordr_EZn" = 220.1031   $ Sizing
 "CAssFlo_L_Cordr_NZn" = 161.0326   $ Sizing
 "CAssFlo_L_Cordr_SZn" = 216.7119   $ Sizing
 "CAssFlo_L_Cordr_WZn" = 248.121   $ Sizing
 "CAssFlo_L_LobWait_CZn" = 534.0959   $ Sizing
 "CAssFlo_L_MechElec_CZn" = 112.1154   $ Sizing
 "CAssFlo_L_OfficeOpn_CZn" = 1812.256   $ Sizing
 "CAssFlo_L_OfficeOpn_EZn" = 1570.375   $ Sizing
 "CAssFlo_L_OfficeOpn_NZn" = 1202.161   $ Sizing
 "CAssFlo_L_OfficeOpn_SZn" = 1571.586   $ Sizing
 "CAssFlo_L_OfficeOpn_WZn" = 1801.219   $ Sizing
 "CAssFlo_L_OfficeSm_CZn" = 229.7859   $ Sizing
 "CAssFlo_L_OfficeSm_EZn" = 1114.336   $ Sizing
 "CAssFlo_L_OfficeSm_NZn" = 784.876   $ Sizing
 "CAssFlo_L_OfficeSm_SZn" = 1114.551   $ Sizing
 "CAssFlo_L_OfficeSm_WZn" = 1251.737   $ Sizing
 "CAssFlo_L_Restrm_CZn" = 87.47132   $ Sizing
 "CAssFlo_L_StorSm_CZn" = 355.9001   $ Sizing
 "CAssFlo_M_Break_CZn" = 543.7347   $ Sizing
 "CAssFlo_M_Conf_CZn" = 521.085   $ Sizing
 "CAssFlo_M_CopyRm_CZn" = 161.37   $ Sizing
 "CAssFlo_M_Cordr_CZn" = 833.9552   $ Sizing
 "CAssFlo_M_Cordr_EZn" = 256.4936   $ Sizing
 "CAssFlo_M_Cordr_NZn" = 181.2015   $ Sizing
 "CAssFlo_M_Cordr_SZn" = 243.8358   $ Sizing
 "CAssFlo_M_Cordr_WZn" = 265.018   $ Sizing
 "CAssFlo_M_LobWait_CZn" = 557.0217   $ Sizing
 "CAssFlo_M_MechElec_CZn" = 144.2071   $ Sizing
 "CAssFlo_M_OfficeOpn_CZn" = 1832.289   $ Sizing
 "CAssFlo_M_OfficeOpn_EZn" = 1703.331   $ Sizing
 "CAssFlo_M_OfficeOpn_NZn" = 1279.339   $ Sizing
 "CAssFlo_M_OfficeOpn_SZn" = 1680.593   $ Sizing
 "CAssFlo_M_OfficeOpn_WZn" = 1862.058   $ Sizing
 "CAssFlo_M_OfficeSm_CZn" = 265.3416   $ Sizing
 "CAssFlo_M_OfficeSm_EZn" = 1194.661   $ Sizing
 "CAssFlo_M_OfficeSm_NZn" = 830.5643   $ Sizing
 "CAssFlo_M_OfficeSm_SZn" = 1182.863   $ Sizing
 "CAssFlo_M_OfficeSm_WZn" = 1282.529   $ Sizing
 "CAssFlo_M_Restrm_CZn" = 94.16655   $ Sizing
 "CAssFlo_M_StorSm_CZn" = 383.4995   $ Sizing
 "CAssFlo_T_Break_CZn" = 537.3464   $ Sizing
 "CAssFlo_T_Conf_CZn" = 514.005   $ Sizing
 "CAssFlo_T_CopyRm_CZn" = 160.2168   $ Sizing
 "CAssFlo_T_Cordr_CZn" = 784.0539   $ Sizing
 "CAssFlo_T_Cordr_EZn" = 252.5917   $ Sizing
 "CAssFlo_T_Cordr_NZn" = 183.479   $ Sizing
 "CAssFlo_T_Cordr_SZn" = 239.5759   $ Sizing
 "CAssFlo_T_Cordr_WZn" = 267.3576   $ Sizing
 "CAssFlo_T_LobWait_CZn" = 550.5027   $ Sizing
 "CAssFlo_T_MechElec_CZn" = 166.9982   $ Sizing
 "CAssFlo_T_OfficeOpn_CZn" = 1881.465   $ Sizing
 "CAssFlo_T_OfficeOpn_EZn" = 1700.077   $ Sizing
 "CAssFlo_T_OfficeOpn_NZn" = 1306.2   $ Sizing
 "CAssFlo_T_OfficeOpn_SZn" = 1675.462   $ Sizing
 "CAssFlo_T_OfficeOpn_WZn" = 1859.588   $ Sizing
 "CAssFlo_T_OfficeSm_CZn" = 245.115   $ Sizing
 "CAssFlo_T_OfficeSm_EZn" = 1217.288   $ Sizing
 "CAssFlo_T_OfficeSm_NZn" = 854.2078   $ Sizing
 "CAssFlo_T_OfficeSm_SZn" = 1194.932   $ Sizing
 "CAssFlo_T_OfficeSm_WZn" = 1309.32   $ Sizing
 "CAssFlo_T_Restrm_CZn" = 139.1645   $ Sizing
 "CAssFlo_T_StorSm_CZn" = 278.2556   $ Sizing
 "CHRtFlo_Sys_L_Break_C" = 536.9267   $ Sizing
 "CHRtFlo_Sys_L_Conf_C" = 519.0291   $ Sizing
 "CHRtFlo_Sys_L_CopyRm_C" = 166.2551   $ Sizing
 "CHRtFlo_Sys_L_Cordr_C" = 666.1965   $ Sizing
 "CHRtFlo_Sys_L_Cordr_E" = 255.8606   $ Sizing
 "CHRtFlo_Sys_L_Cordr_N" = 161.0326   $ Sizing
 "CHRtFlo_Sys_L_Cordr_S" = 245.6292   $ Sizing
 "CHRtFlo_Sys_L_Cordr_W" = 248.121   $ Sizing
 "CHRtFlo_Sys_L_LobWait_C" = 534.0959   $ Sizing
 "CHRtFlo_Sys_L_MechElec_C" = 140.7381   $ Sizing
 "CHRtFlo_Sys_L_OfficeOpn_C" = 1812.256   $ Sizing
 "CHRtFlo_Sys_L_OfficeOpn_E" = 1851.943   $ Sizing
 "CHRtFlo_Sys_L_OfficeOpn_N" = 1202.161   $ Sizing
 "CHRtFlo_Sys_L_OfficeOpn_S" = 1819.138   $ Sizing
 "CHRtFlo_Sys_L_OfficeOpn_W" = 1816.345   $ Sizing
 "CHRtFlo_Sys_L_OfficeSm_C" = 258.4618   $ Sizing
 "CHRtFlo_Sys_L_OfficeSm_E" = 1334.322   $ Sizing
 "CHRtFlo_Sys_L_OfficeSm_N" = 784.8759   $ Sizing
 "CHRtFlo_Sys_L_OfficeSm_S" = 1323.009   $ Sizing
 "CHRtFlo_Sys_L_OfficeSm_W" = 1302.371   $ Sizing
 "CHRtFlo_Sys_L_Restrm_C" = 210.4081   $ Sizing
 "CHRtFlo_Sys_L_StorSm_C" = 426.7055   $ Sizing
 "CHRtFlo_Sys_M_Break_C" = 4349.877   $ Sizing
 "CHRtFlo_Sys_M_Conf_C" = 4317.38   $ Sizing
 "CHRtFlo_Sys_M_CopyRm_C" = 1290.96   $ Sizing
 "CHRtFlo_Sys_M_Cordr_C" = 8080.217   $ Sizing
 "CHRtFlo_Sys_M_Cordr_E" = 2436.351   $ Sizing
 "CHRtFlo_Sys_M_Cordr_N" = 1457.352   $ Sizing
 "CHRtFlo_Sys_M_Cordr_S" = 2258.492   $ Sizing
 "CHRtFlo_Sys_M_Cordr_W" = 2144.296   $ Sizing
 "CHRtFlo_Sys_M_LobWait_C" = 4660.409   $ Sizing
 "CHRtFlo_Sys_M_MechElec_C" = 1490.339   $ Sizing
 "CHRtFlo_Sys_M_OfficeOpn_C" = 16941.84   $ Sizing
 "CHRtFlo_Sys_M_OfficeOpn_E" = 16257.7   $ Sizing
 "CHRtFlo_Sys_M_OfficeOpn_N" = 10234.72   $ Sizing
 "CHRtFlo_Sys_M_OfficeOpn_S" = 15842.84   $ Sizing
 "CHRtFlo_Sys_M_OfficeOpn_W" = 15107.91   $ Sizing
 "CHRtFlo_Sys_M_OfficeSm_C" = 2601.12   $ Sizing
 "CHRtFlo_Sys_M_OfficeSm_E" = 11564.71   $ Sizing
 "CHRtFlo_Sys_M_OfficeSm_N" = 6644.515   $ Sizing
 "CHRtFlo_Sys_M_OfficeSm_S" = 11391.87   $ Sizing
 "CHRtFlo_Sys_M_OfficeSm_W" = 10907.29   $ Sizing
 "CHRtFlo_Sys_M_Restrm_C" = 1683.265   $ Sizing
 "CHRtFlo_Sys_M_StorSm_C" = 3812.22   $ Sizing
 "CHRtFlo_Sys_T_Break_C" = 537.3464   $ Sizing
 "CHRtFlo_Sys_T_Conf_C" = 514.005   $ Sizing
 "CHRtFlo_Sys_T_CopyRm_C" = 160.2168   $ Sizing
 "CHRtFlo_Sys_T_Cordr_C" = 854.6985   $ Sizing
 "CHRtFlo_Sys_T_Cordr_E" = 266.7863   $ Sizing
 "CHRtFlo_Sys_T_Cordr_N" = 183.479   $ Sizing
 "CHRtFlo_Sys_T_Cordr_S" = 256.0427   $ Sizing
 "CHRtFlo_Sys_T_Cordr_W" = 267.3576   $ Sizing
 "CHRtFlo_Sys_T_LobWait_C" = 550.5027   $ Sizing
 "CHRtFlo_Sys_T_MechElec_C" = 220.0534   $ Sizing
 "CHRtFlo_Sys_T_OfficeOpn_C" = 1881.465   $ Sizing
 "CHRtFlo_Sys_T_OfficeOpn_E" = 1844.325   $ Sizing
 "CHRtFlo_Sys_T_OfficeOpn_N" = 1306.2   $ Sizing
 "CHRtFlo_Sys_T_OfficeOpn_S" = 1840.477   $ Sizing
 "CHRtFlo_Sys_T_OfficeOpn_W" = 1859.588   $ Sizing
 "CHRtFlo_Sys_T_OfficeSm_C" = 284.9817   $ Sizing
 "CHRtFlo_Sys_T_OfficeSm_E" = 1347.032   $ Sizing
 "CHRtFlo_Sys_T_OfficeSm_N" = 854.2078   $ Sizing
 "CHRtFlo_Sys_T_OfficeSm_S" = 1354.773   $ Sizing
 "CHRtFlo_Sys_T_OfficeSm_W" = 1309.32   $ Sizing
 "CHRtFlo_Sys_T_Restrm_C" = 210.4081   $ Sizing
 "CHRtFlo_Sys_T_StorSm_C" = 331.7982   $ Sizing
 "CRtdFlo_Sys_L_Break_C" = 536.9267   $ Sizing
 "CRtdFlo_Sys_L_Conf_C" = 519.0291   $ Sizing
 "CRtdFlo_Sys_L_CopyRm_C" = 166.2551   $ Sizing
 "CRtdFlo_Sys_L_Cordr_C" = 632.4698   $ Sizing
 "CRtdFlo_Sys_L_Cordr_E" = 220.1031   $ Sizing
 "CRtdFlo_Sys_L_Cordr_N" = 161.0326   $ Sizing
 "CRtdFlo_Sys_L_Cordr_S" = 216.7119   $ Sizing
 "CRtdFlo_Sys_L_Cordr_W" = 248.121   $ Sizing
 "CRtdFlo_Sys_L_LobWait_C" = 534.0959   $ Sizing
 "CRtdFlo_Sys_L_MechElec_C" = 112.1154   $ Sizing
 "CRtdFlo_Sys_L_OfficeOpn_C" = 1812.256   $ Sizing
 "CRtdFlo_Sys_L_OfficeOpn_E" = 1570.374   $ Sizing
 "CRtdFlo_Sys_L_OfficeOpn_N" = 1202.161   $ Sizing
 "CRtdFlo_Sys_L_OfficeOpn_S" = 1571.586   $ Sizing
 "CRtdFlo_Sys_L_OfficeOpn_W" = 1801.219   $ Sizing
 "CRtdFlo_Sys_L_OfficeSm_C" = 229.7859   $ Sizing
 "CRtdFlo_Sys_L_OfficeSm_E" = 1114.336   $ Sizing
 "CRtdFlo_Sys_L_OfficeSm_N" = 784.8759   $ Sizing
 "CRtdFlo_Sys_L_OfficeSm_S" = 1114.552   $ Sizing
 "CRtdFlo_Sys_L_OfficeSm_W" = 1251.737   $ Sizing
 "CRtdFlo_Sys_L_Restrm_C" = 87.47132   $ Sizing
 "CRtdFlo_Sys_L_StorSm_C" = 355.9001   $ Sizing
 "CRtdFlo_Sys_M_Break_C" = 4349.877   $ Sizing
 "CRtdFlo_Sys_M_Conf_C" = 4168.68   $ Sizing
 "CRtdFlo_Sys_M_CopyRm_C" = 1290.96   $ Sizing
 "CRtdFlo_Sys_M_Cordr_C" = 6671.642   $ Sizing
 "CRtdFlo_Sys_M_Cordr_E" = 2051.948   $ Sizing
 "CRtdFlo_Sys_M_Cordr_N" = 1449.612   $ Sizing
 "CRtdFlo_Sys_M_Cordr_S" = 1950.687   $ Sizing
 "CRtdFlo_Sys_M_Cordr_W" = 2120.144   $ Sizing
 "CRtdFlo_Sys_M_LobWait_C" = 4456.173   $ Sizing
 "CRtdFlo_Sys_M_MechElec_C" = 1153.657   $ Sizing
 "CRtdFlo_Sys_M_OfficeOpn_C" = 14658.31   $ Sizing
 "CRtdFlo_Sys_M_OfficeOpn_E" = 13626.65   $ Sizing
 "CRtdFlo_Sys_M_OfficeOpn_N" = 10234.72   $ Sizing
 "CRtdFlo_Sys_M_OfficeOpn_S" = 13444.74   $ Sizing
 "CRtdFlo_Sys_M_OfficeOpn_W" = 14896.46   $ Sizing
 "CRtdFlo_Sys_M_OfficeSm_C" = 2122.733   $ Sizing
 "CRtdFlo_Sys_M_OfficeSm_E" = 9557.292   $ Sizing
 "CRtdFlo_Sys_M_OfficeSm_N" = 6644.515   $ Sizing
 "CRtdFlo_Sys_M_OfficeSm_S" = 9462.907   $ Sizing
 "CRtdFlo_Sys_M_OfficeSm_W" = 10260.23   $ Sizing
 "CRtdFlo_Sys_M_Restrm_C" = 753.3324   $ Sizing
 "CRtdFlo_Sys_M_StorSm_C" = 3067.996   $ Sizing
 "CRtdFlo_Sys_T_Break_C" = 537.3464   $ Sizing
 "CRtdFlo_Sys_T_Conf_C" = 514.005   $ Sizing
 "CRtdFlo_Sys_T_CopyRm_C" = 160.2168   $ Sizing
 "CRtdFlo_Sys_T_Cordr_C" = 784.0539   $ Sizing
 "CRtdFlo_Sys_T_Cordr_E" = 252.5917   $ Sizing
 "CRtdFlo_Sys_T_Cordr_N" = 183.479   $ Sizing
 "CRtdFlo_Sys_T_Cordr_S" = 239.5759   $ Sizing
 "CRtdFlo_Sys_T_Cordr_W" = 267.3576   $ Sizing
 "CRtdFlo_Sys_T_LobWait_C" = 550.5027   $ Sizing
 "CRtdFlo_Sys_T_MechElec_C" = 166.9982   $ Sizing
 "CRtdFlo_Sys_T_OfficeOpn_C" = 1881.465   $ Sizing
 "CRtdFlo_Sys_T_OfficeOpn_E" = 1700.077   $ Sizing
 "CRtdFlo_Sys_T_OfficeOpn_N" = 1306.2   $ Sizing
 "CRtdFlo_Sys_T_OfficeOpn_S" = 1675.462   $ Sizing
 "CRtdFlo_Sys_T_OfficeOpn_W" = 1859.588   $ Sizing
 "CRtdFlo_Sys_T_OfficeSm_C" = 245.115   $ Sizing
 "CRtdFlo_Sys_T_OfficeSm_E" = 1217.288   $ Sizing
 "CRtdFlo_Sys_T_OfficeSm_N" = 854.2078   $ Sizing
 "CRtdFlo_Sys_T_OfficeSm_S" = 1194.932   $ Sizing
 "CRtdFlo_Sys_T_OfficeSm_W" = 1309.32   $ Sizing
 "CRtdFlo_Sys_T_Restrm_C" = 139.1645   $ Sizing
 "CRtdFlo_Sys_T_StorSm_C" = 278.2556   $ Sizing
 "CSupFlo_Sys_L_Break_C" = 536.9267   $ Sizing
 "CSupFlo_Sys_L_Conf_C" = 519.0291   $ Sizing
 "CSupFlo_Sys_L_CopyRm_C" = 166.2551   $ Sizing
 "CSupFlo_Sys_L_Cordr_C" = 632.4698   $ Sizing
 "CSupFlo_Sys_L_Cordr_E" = 220.1031   $ Sizing
 "CSupFlo_Sys_L_Cordr_N" = 161.0326   $ Sizing
 "CSupFlo_Sys_L_Cordr_S" = 216.7119   $ Sizing
 "CSupFlo_Sys_L_Cordr_W" = 248.121   $ Sizing
 "CSupFlo_Sys_L_LobWait_C" = 534.0959   $ Sizing
 "CSupFlo_Sys_L_MechElec_C" = 112.1154   $ Sizing
 "CSupFlo_Sys_L_OfficeOpn_C" = 1812.256   $ Sizing
 "CSupFlo_Sys_L_OfficeOpn_E" = 1570.374   $ Sizing
 "CSupFlo_Sys_L_OfficeOpn_N" = 1202.161   $ Sizing
 "CSupFlo_Sys_L_OfficeOpn_S" = 1571.586   $ Sizing
 "CSupFlo_Sys_L_OfficeOpn_W" = 1801.219   $ Sizing
 "CSupFlo_Sys_L_OfficeSm_C" = 229.7859   $ Sizing
 "CSupFlo_Sys_L_OfficeSm_E" = 1114.336   $ Sizing
 "CSupFlo_Sys_L_OfficeSm_N" = 784.8759   $ Sizing
 "CSupFlo_Sys_L_OfficeSm_S" = 1114.552   $ Sizing
 "CSupFlo_Sys_L_OfficeSm_W" = 1251.737   $ Sizing
 "CSupFlo_Sys_L_Restrm_C" = 87.47132   $ Sizing
 "CSupFlo_Sys_L_StorSm_C" = 355.9001   $ Sizing
 "CSupFlo_Sys_M_Break_C" = 4349.877   $ Sizing
 "CSupFlo_Sys_M_Conf_C" = 4168.68   $ Sizing
 "CSupFlo_Sys_M_CopyRm_C" = 1290.96   $ Sizing
 "CSupFlo_Sys_M_Cordr_C" = 6671.642   $ Sizing
 "CSupFlo_Sys_M_Cordr_E" = 2051.948   $ Sizing
 "CSupFlo_Sys_M_Cordr_N" = 1449.612   $ Sizing
 "CSupFlo_Sys_M_Cordr_S" = 1950.687   $ Sizing
 "CSupFlo_Sys_M_Cordr_W" = 2120.144   $ Sizing
 "CSupFlo_Sys_M_LobWait_C" = 4456.173   $ Sizing
 "CSupFlo_Sys_M_MechElec_C" = 1153.657   $ Sizing
 "CSupFlo_Sys_M_OfficeOpn_C" = 14658.31   $ Sizing
 "CSupFlo_Sys_M_OfficeOpn_E" = 13626.65   $ Sizing
 "CSupFlo_Sys_M_OfficeOpn_N" = 10234.72   $ Sizing
 "CSupFlo_Sys_M_OfficeOpn_S" = 13444.74   $ Sizing
 "CSupFlo_Sys_M_OfficeOpn_W" = 14896.46   $ Sizing
 "CSupFlo_Sys_M_OfficeSm_C" = 2122.733   $ Sizing
 "CSupFlo_Sys_M_OfficeSm_E" = 9557.292   $ Sizing
 "CSupFlo_Sys_M_OfficeSm_N" = 6644.515   $ Sizing
 "CSupFlo_Sys_M_OfficeSm_S" = 9462.907   $ Sizing
 "CSupFlo_Sys_M_OfficeSm_W" = 10260.23   $ Sizing
 "CSupFlo_Sys_M_Restrm_C" = 753.3324   $ Sizing
 "CSupFlo_Sys_M_StorSm_C" = 3067.996   $ Sizing
 "CSupFlo_Sys_T_Break_C" = 537.3464   $ Sizing
 "CSupFlo_Sys_T_Conf_C" = 514.005   $ Sizing
 "CSupFlo_Sys_T_CopyRm_C" = 160.2168   $ Sizing
 "CSupFlo_Sys_T_Cordr_C" = 784.0539   $ Sizing
 "CSupFlo_Sys_T_Cordr_E" = 252.5917   $ Sizing
 "CSupFlo_Sys_T_Cordr_N" = 183.479   $ Sizing
 "CSupFlo_Sys_T_Cordr_S" = 239.5759   $ Sizing
 "CSupFlo_Sys_T_Cordr_W" = 267.3576   $ Sizing
 "CSupFlo_Sys_T_LobWait_C" = 550.5027   $ Sizing
 "CSupFlo_Sys_T_MechElec_C" = 166.9982   $ Sizing
 "CSupFlo_Sys_T_OfficeOpn_C" = 1881.465   $ Sizing
 "CSupFlo_Sys_T_OfficeOpn_E" = 1700.077   $ Sizing
 "CSupFlo_Sys_T_OfficeOpn_N" = 1306.2   $ Sizing
 "CSupFlo_Sys_T_OfficeOpn_S" = 1675.462   $ Sizing
 "CSupFlo_Sys_T_OfficeOpn_W" = 1859.588   $ Sizing
 "CSupFlo_Sys_T_OfficeSm_C" = 245.115   $ Sizing
 "CSupFlo_Sys_T_OfficeSm_E" = 1217.288   $ Sizing
 "CSupFlo_Sys_T_OfficeSm_N" = 854.2078   $ Sizing
 "CSupFlo_Sys_T_OfficeSm_S" = 1194.932   $ Sizing
 "CSupFlo_Sys_T_OfficeSm_W" = 1309.32   $ Sizing
 "CSupFlo_Sys_T_Restrm_C" = 139.1645   $ Sizing
 "CSupFlo_Sys_T_StorSm_C" = 278.2556   $ Sizing
 "ClCap_Sys_L_Break_C" = 18397.46   $ Sizing
 "ClCap_Sys_L_Conf_C" = 22634.46   $ Sizing
 "ClCap_Sys_L_CopyRm_C" = 5696.631   $ Sizing
 "ClCap_Sys_L_Cordr_C" = 21671.19   $ Sizing
 "ClCap_Sys_L_Cordr_E" = 7541.698   $ Sizing
 "ClCap_Sys_L_Cordr_N" = 5517.683   $ Sizing
 "ClCap_Sys_L_Cordr_S" = 7425.502   $ Sizing
 "ClCap_Sys_L_Cordr_W" = 8501.716   $ Sizing
 "ClCap_Sys_L_LobWait_C" = 18300.47   $ Sizing
 "ClCap_Sys_L_MechElec_C" = 3841.565   $ Sizing
 "ClCap_Sys_L_OfficeOpn_C" = 62095.86   $ Sizing
 "ClCap_Sys_L_OfficeOpn_E" = 53807.92   $ Sizing
 "ClCap_Sys_L_OfficeOpn_N" = 41191.31   $ Sizing
 "ClCap_Sys_L_OfficeOpn_S" = 53849.43   $ Sizing
 "ClCap_Sys_L_OfficeOpn_W" = 61717.67   $ Sizing
 "ClCap_Sys_L_OfficeSm_C" = 7873.474   $ Sizing
 "ClCap_Sys_L_OfficeSm_E" = 38182.04   $ Sizing
 "ClCap_Sys_L_OfficeSm_N" = 26893.29   $ Sizing
 "ClCap_Sys_L_OfficeSm_S" = 38189.43   $ Sizing
 "ClCap_Sys_L_OfficeSm_W" = 42889.99   $ Sizing
 "ClCap_Sys_L_Restrm_C" = 2997.151   $ Sizing
 "ClCap_Sys_L_StorSm_C" = 12194.7   $ Sizing
 "ClCap_Sys_M_Break_C" = 149045.9   $ Sizing
 "ClCap_Sys_M_Conf_C" = 181792.9   $ Sizing
 "ClCap_Sys_M_CopyRm_C" = 44233.95   $ Sizing
 "ClCap_Sys_M_Cordr_C" = 228599.7   $ Sizing
 "ClCap_Sys_M_Cordr_E" = 70308.76   $ Sizing
 "ClCap_Sys_M_Cordr_N" = 49670.06   $ Sizing
 "ClCap_Sys_M_Cordr_S" = 66839.09   $ Sizing
 "ClCap_Sys_M_Cordr_W" = 72645.44   $ Sizing
 "ClCap_Sys_M_LobWait_C" = 152688   $ Sizing
 "ClCap_Sys_M_MechElec_C" = 39529.35   $ Sizing
 "ClCap_Sys_M_OfficeOpn_C" = 502258.2   $ Sizing
 "ClCap_Sys_M_OfficeOpn_E" = 466908.8   $ Sizing
 "ClCap_Sys_M_OfficeOpn_N" = 350686.3   $ Sizing
 "ClCap_Sys_M_OfficeOpn_S" = 460675.8   $ Sizing
 "ClCap_Sys_M_OfficeOpn_W" = 510418.2   $ Sizing
 "ClCap_Sys_M_OfficeSm_C" = 72734.13   $ Sizing
 "ClCap_Sys_M_OfficeSm_E" = 327474.8   $ Sizing
 "ClCap_Sys_M_OfficeSm_N" = 227670.2   $ Sizing
 "ClCap_Sys_M_OfficeSm_S" = 324240.7   $ Sizing
 "ClCap_Sys_M_OfficeSm_W" = 351560.4   $ Sizing
 "ClCap_Sys_M_Restrm_C" = 25812.47   $ Sizing
 "ClCap_Sys_M_StorSm_C" = 105123   $ Sizing
 "ClCap_Sys_T_Break_C" = 18411.85   $ Sizing
 "ClCap_Sys_T_Conf_C" = 22415.36   $ Sizing
 "ClCap_Sys_T_CopyRm_C" = 5489.732   $ Sizing
 "ClCap_Sys_T_Cordr_C" = 26865.13   $ Sizing
 "ClCap_Sys_T_Cordr_E" = 8654.901   $ Sizing
 "ClCap_Sys_T_Cordr_N" = 6286.795   $ Sizing
 "ClCap_Sys_T_Cordr_S" = 8208.921   $ Sizing
 "ClCap_Sys_T_Cordr_W" = 9160.845   $ Sizing
 "ClCap_Sys_T_LobWait_C" = 18862.64   $ Sizing
 "ClCap_Sys_T_MechElec_C" = 5722.092   $ Sizing
 "ClCap_Sys_T_OfficeOpn_C" = 64467.25   $ Sizing
 "ClCap_Sys_T_OfficeOpn_E" = 58252.09   $ Sizing
 "ClCap_Sys_T_OfficeOpn_N" = 44756.15   $ Sizing
 "ClCap_Sys_T_OfficeOpn_S" = 57408.68   $ Sizing
 "ClCap_Sys_T_OfficeOpn_W" = 63717.63   $ Sizing
 "ClCap_Sys_T_OfficeSm_C" = 8398.717   $ Sizing
 "ClCap_Sys_T_OfficeSm_E" = 41709.63   $ Sizing
 "ClCap_Sys_T_OfficeSm_N" = 29268.91   $ Sizing
 "ClCap_Sys_T_OfficeSm_S" = 40943.62   $ Sizing
 "ClCap_Sys_T_OfficeSm_W" = 44863.06   $ Sizing
 "ClCap_Sys_T_Restrm_C" = 4768.385   $ Sizing
 "ClCap_Sys_T_StorSm_C" = 9534.258   $ Sizing
 "HtCap_Sys_L_Break_C" = -30993.63   $ Sizing
 "HtCap_Sys_L_Conf_C" = -31172.14   $ Sizing
 "HtCap_Sys_L_CopyRm_C" = -11099.63   $ Sizing
 "HtCap_Sys_L_Cordr_C" = -30159.77   $ Sizing
 "HtCap_Sys_L_Cordr_E" = -9391.561   $ Sizing
 "HtCap_Sys_L_Cordr_N" = -6832.294   $ Sizing
 "HtCap_Sys_L_Cordr_S" = -8985.926   $ Sizing
 "HtCap_Sys_L_Cordr_W" = -9195.872   $ Sizing
 "HtCap_Sys_L_LobWait_C" = -29857.84   $ Sizing
 "HtCap_Sys_L_MechElec_C" = -6562.171   $ Sizing
 "HtCap_Sys_L_OfficeOpn_C" = -88813.28   $ Sizing
 "HtCap_Sys_L_OfficeOpn_E" = -64740.49   $ Sizing
 "HtCap_Sys_L_OfficeOpn_N" = -46429.59   $ Sizing
 "HtCap_Sys_L_OfficeOpn_S" = -62904.45   $ Sizing
 "HtCap_Sys_L_OfficeOpn_W" = -63639.96   $ Sizing
 "HtCap_Sys_L_OfficeSm_C" = -10447.27   $ Sizing
 "HtCap_Sys_L_OfficeSm_E" = -46294.36   $ Sizing
 "HtCap_Sys_L_OfficeSm_N" = -30257.57   $ Sizing
 "HtCap_Sys_L_OfficeSm_S" = -45511.57   $ Sizing
 "HtCap_Sys_L_OfficeSm_W" = -45420.13   $ Sizing
 "HtCap_Sys_L_Restrm_C" = -7704.871   $ Sizing
 "HtCap_Sys_L_StorSm_C" = -19151.92   $ Sizing
 "HtCap_Sys_M_Break_C" = -238807   $ Sizing
 "HtCap_Sys_M_Conf_C" = -240690.4   $ Sizing
 "HtCap_Sys_M_CopyRm_C" = -75826.75   $ Sizing
 "HtCap_Sys_M_Cordr_C" = -320689   $ Sizing
 "HtCap_Sys_M_Cordr_E" = -86331.44   $ Sizing
 "HtCap_Sys_M_Cordr_N" = -57746.18   $ Sizing
 "HtCap_Sys_M_Cordr_S" = -80123.35   $ Sizing
 "HtCap_Sys_M_Cordr_W" = -77724.66   $ Sizing
 "HtCap_Sys_M_LobWait_C" = -226933.8   $ Sizing
 "HtCap_Sys_M_MechElec_C" = -62796.08   $ Sizing
 "HtCap_Sys_M_OfficeOpn_C" = -655879.3   $ Sizing
 "HtCap_Sys_M_OfficeOpn_E" = -558828.8   $ Sizing
 "HtCap_Sys_M_OfficeOpn_N" = -387065.6   $ Sizing
 "HtCap_Sys_M_OfficeOpn_S" = -538738   $ Sizing
 "HtCap_Sys_M_OfficeOpn_W" = -524857.3   $ Sizing
 "HtCap_Sys_M_OfficeSm_C" = -99131.62   $ Sizing
 "HtCap_Sys_M_OfficeSm_E" = -395229.9   $ Sizing
 "HtCap_Sys_M_OfficeSm_N" = -251322.4   $ Sizing
 "HtCap_Sys_M_OfficeSm_S" = -386580.8   $ Sizing
 "HtCap_Sys_M_OfficeSm_W" = -376413   $ Sizing
 "HtCap_Sys_M_Restrm_C" = -66662.06   $ Sizing
 "HtCap_Sys_M_StorSm_C" = -158991.4   $ Sizing
 "HtCap_Sys_T_Break_C" = -32174.72   $ Sizing
 "HtCap_Sys_T_Conf_C" = -31485.79   $ Sizing
 "HtCap_Sys_T_CopyRm_C" = -10521.23   $ Sizing
 "HtCap_Sys_T_Cordr_C" = -40492.5   $ Sizing
 "HtCap_Sys_T_Cordr_E" = -11240.05   $ Sizing
 "HtCap_Sys_T_Cordr_N" = -8636.333   $ Sizing
 "HtCap_Sys_T_Cordr_S" = -10915.22   $ Sizing
 "HtCap_Sys_T_Cordr_W" = -11452.53   $ Sizing
 "HtCap_Sys_T_LobWait_C" = -30654.5   $ Sizing
 "HtCap_Sys_T_MechElec_C" = -8806.827   $ Sizing
 "HtCap_Sys_T_OfficeOpn_C" = -86226.15   $ Sizing
 "HtCap_Sys_T_OfficeOpn_E" = -73300.76   $ Sizing
 "HtCap_Sys_T_OfficeOpn_N" = -57690.48   $ Sizing
 "HtCap_Sys_T_OfficeOpn_S" = -74153.76   $ Sizing
 "HtCap_Sys_T_OfficeOpn_W" = -74499.7   $ Sizing
 "HtCap_Sys_T_OfficeSm_C" = -12773.26   $ Sizing
 "HtCap_Sys_T_OfficeSm_E" = -53732.84   $ Sizing
 "HtCap_Sys_T_OfficeSm_N" = -37608.63   $ Sizing
 "HtCap_Sys_T_OfficeSm_S" = -54078.24   $ Sizing
 "HtCap_Sys_T_OfficeSm_W" = -52688.21   $ Sizing
 "HtCap_Sys_T_Restrm_C" = -8865.3   $ Sizing
 "HtCap_Sys_T_StorSm_C" = -17885.2   $ Sizing
..

##include Templates\OfL_DX_SZ.inp
END ..
COMPUTE ..
STOP ..
