
Start DOESIM : Storage capacity =  75000000
Starting LOADS   : SAVE-FILES is On , weather is CZ01ARCATA-AP       
Finished LOADS    BDL  1 : Memory (wds) =    391717, Time (sec) =    1.82
Starting REPORT  
Finished REPORT   BDL  1 : Memory (wds) =    784429, Time (sec) =    0.85
Starting HVAC    : SAVE-FILES is On , weather is CZ01ARCATA-AP       
*** ERRORS or WARNINGS from HVAC     program. Examine output file for details.
Finished HVAC     BDL  1 : Memory (wds) =    676258, Time (sec) =    6.02
Starting REPORT  
Finished REPORT   BDL  1 : Memory (wds) =   1091877, Time (sec) =    0.71
Starting HOURLY-R
Finished HOURLY-R BDL  1 : Memory (wds) =   1493893, Time (sec) =    0.14
Starting ECONOMIC
Finished ECONOMIC BDL  1 : Memory (wds) =      1034, Time (sec) =    0.03
End   DOESIM : Total elapsed time of      9.6 seconds
RUN COMPLETE
