
Start DOESIM : Storage capacity =  75000000
Starting LOADS   : SAVE-FILES is On , weather is CZ01ARCATA-AP       
Finished LOADS    BDL  1 : Memory (wds) =    243807, Time (sec) =    2.10
Starting REPORT  
Finished REPORT   BDL  1 : Memory (wds) =    481104, Time (sec) =    0.48
Starting HVAC    : SAVE-FILES is On , weather is CZ01ARCATA-AP       
*** ERRORS or WARNINGS from HVAC     program. Examine output file for details.
Finished HVAC     BDL  1 : Memory (wds) =    340899, Time (sec) =    2.20
Starting REPORT  
Finished REPORT   BDL  1 : Memory (wds) =    447585, Time (sec) =    0.16
Starting HOURLY-R
Finished HOURLY-R BDL  1 : Memory (wds) =    726581, Time (sec) =    0.14
Starting ECONOMIC
Finished ECONOMIC BDL  1 : Memory (wds) =      1034, Time (sec) =    0.04
End   DOESIM : Total elapsed time of      5.1 seconds
RUN COMPLETE
