
Start DOESIM : Storage capacity =  75000000
Starting LOADS   : SAVE-FILES is On , weather is CZ01ARCATA-AP       
Finished LOADS    BDL  1 : Memory (wds) =    243915, Time (sec) =    2.12
Starting REPORT  
Finished REPORT   BDL  1 : Memory (wds) =    481212, Time (sec) =    0.47
Starting HVAC    : SAVE-FILES is On , weather is CZ01ARCATA-AP       
*** ERRORS or WARNINGS from HVAC     program. Examine output file for details.
Finished HVAC     BDL  1 : Memory (wds) =    346506, Time (sec) =    3.36
Starting REPORT  
Finished REPORT   BDL  1 : Memory (wds) =    466142, Time (sec) =    0.18
Starting HOURLY-R
Finished HOURLY-R BDL  1 : Memory (wds) =    740867, Time (sec) =    0.12
Starting ECONOMIC
Finished ECONOMIC BDL  1 : Memory (wds) =      1034, Time (sec) =    0.02
End   DOESIM : Total elapsed time of      6.3 seconds
RUN COMPLETE
