
Start DOESIM : Storage capacity =  75000000
Starting LOADS   : SAVE-FILES is On , weather is CZ16BLUE-CANYON-AP  
Finished LOADS    BDL  1 : Memory (wds) =    391958, Time (sec) =    2.43
Starting REPORT  
Finished REPORT   BDL  1 : Memory (wds) =    784896, Time (sec) =    0.85
Starting HVAC    : SAVE-FILES is On , weather is CZ16BLUE-CANYON-AP  
*** ERRORS or WARNINGS from HVAC     program. Examine output file for details.
Finished HVAC     BDL  1 : Memory (wds) =    676489, Time (sec) =    8.29
Starting REPORT  
Finished REPORT   BDL  1 : Memory (wds) =   1186650, Time (sec) =    0.88
Starting HOURLY-R
Finished HOURLY-R BDL  1 : Memory (wds) =   1519802, Time (sec) =    0.12
Starting ECONOMIC
Finished ECONOMIC BDL  1 : Memory (wds) =      1034, Time (sec) =    0.02
End   DOESIM : Total elapsed time of     12.6 seconds
RUN COMPLETE
