INPUT ..

##fileprefix C:\Users\jglasskatz\MASControl3\
##set1 IsSizing FALSE
##set1 CoolType DX
##set1 HeatType HEAT-PUMP
##set1 EU_HrRepVar 1
##set1 BldgVint 2003
##set1 BldgLoc CZ01

 ##set1 mBFMult 1   $ IP Tech: RefgChg-NRes-Std

PARAMETER
 "AltFactor" = 1.00753   $ IP Non-Tech
 "BldgEconoFlag" = 1   $ IP Non-Tech
 "Break_EWSF" = 1   $ IP Non-Tech
 "Break_LWSF" = 1.1   $ IP Non-Tech
 "CDD_DBHi10" = 65   $ IP Non-Tech
 "CDD_DBHi7" = 68   $ IP Non-Tech
 "CDD_DBHi8" = 66   $ IP Non-Tech
 "CDD_DBHi9" = 77   $ IP Non-Tech
 "CDD_DBRange10" = 17   $ IP Non-Tech
 "CDD_DBRange7" = 11   $ IP Non-Tech
 "CDD_DBRange8" = 10   $ IP Non-Tech
 "CDD_DBRange9" = 29   $ IP Non-Tech
 "CDD_Day10" = 15   $ IP Non-Tech
 "CDD_Day7" = 16   $ IP Non-Tech
 "CDD_Day8" = 20   $ IP Non-Tech
 "CDD_Day9" = 17   $ IP Non-Tech
 "CDD_HrHi10" = 12   $ IP Non-Tech
 "CDD_HrHi7" = 12   $ IP Non-Tech
 "CDD_HrHi8" = 13   $ IP Non-Tech
 "CDD_HrHi9" = 17   $ IP Non-Tech
 "CDD_HrLo10" = 6   $ IP Non-Tech
 "CDD_HrLo7" = 3   $ IP Non-Tech
 "CDD_HrLo8" = 8   $ IP Non-Tech
 "CDD_HrLo9" = 4   $ IP Non-Tech
 "CDD_WB10" = 57.53039551   $ IP Non-Tech
 "CDD_WB7" = 59.29250717   $ IP Non-Tech
 "CDD_WB8" = 60.75350189   $ IP Non-Tech
 "CDD_WB9" = 61.08643341   $ IP Non-Tech
 "CZ_Category" = Tem   $ IP Non-Tech
 "ChwVintEconoFlag" = 1   $ IP Non-Tech
 "Conference_EWSF" = 1   $ IP Non-Tech
 "Conference_LWSF" = 1.4   $ IP Non-Tech
 "CoolSetT" = 45   $ IP Non-Tech
 "CoolType" = DX   $ IP Non-Tech
 "CopyRoom_EWSF" = 1.5   $ IP Non-Tech
 "CopyRoom_LWSF" = 1.3   $ IP Non-Tech
 "CorridorStairway_EWSF" = 0.2   $ IP Non-Tech
 "CorridorStairway_LWSF" = 0.6   $ IP Non-Tech
 "DesCoolT" = 75   $ IP Non-Tech
 "DesHeatT" = 73   $ IP Non-Tech
 "EconoEnthLimit" = 28   $ IP Non-Tech
 "EconoTempLimit" = 70   $ IP Non-Tech
 "Elevation" = 203   $ IP Non-Tech
 "HDD_CloudAmt1" = 0   $ IP Non-Tech
 "HDD_DBHi1" = 53   $ IP Non-Tech
 "HDD_DBRange1" = 20   $ IP Non-Tech
 "HDD_Day1" = 15   $ IP Non-Tech
 "HDD_HrHi1" = 14   $ IP Non-Tech
 "HDD_HrLo1" = 6   $ IP Non-Tech
 "HDD_WB1" = 42.3   $ IP Non-Tech
 "HDD_WindSpd1" = 12.7   $ IP Non-Tech
 "HeatSrc" = HEAT-PUMP   $ IP Non-Tech
 "HeatSrcTU" = HEAT-PUMP   $ IP Non-Tech
 "HeatType" = HP   $ IP Non-Tech
 "HeatTypeTU" = HEAT-PUMP   $ IP Non-Tech
 "IndoorFanMode" = CONTINUOUS   $ IP Non-Tech
 "KT_TransferAir" = No   $ IP Non-Tech
 "Latitude" = 40.8   $ IP Non-Tech
 "LobbyWaiting_EWSF" = 0.5   $ IP Non-Tech
 "LobbyWaiting_LWSF" = 1.3   $ IP Non-Tech
 "Longitude" = 124.2   $ IP Non-Tech
 "LtgMsrApplic" = ALL   $ Msr TechID: NonResLtgRefMsr-CFL
 "LtgSav_CFL" = 0.3   $ Msr TechID: NonResLtgRefMsr-CFL
 "LtgSav_EX" = 0   $ Msr TechID: NonResLtgRefMsr-CFL
 "LtgSav_HB" = 0   $ Msr TechID: NonResLtgRefMsr-CFL
 "LtgSav_LF" = 0   $ Msr TechID: NonResLtgRefMsr-CFL
 "LtgSav_SP" = 0   $ Msr TechID: NonResLtgRefMsr-CFL
 "MZFanMechEff" = 0.58   $ IP Non-Tech
 "MZHasRetFan" = FALSE   $ IP Non-Tech
 "MZ_RFanWPerCfm" = 0.37   $ IP Non-Tech
 "MZ_SFanWPerCfm" = 0.71   $ IP Non-Tech
 "MZ_SupFanStatic" = 2.25   $ IP Non-Tech
 "MaxSupT_MZ" = 90   $ IP Non-Tech
 "MaxSupT_SZ" = 90   $ IP Non-Tech
 "MaxSupT_TU" = 90   $ IP Non-Tech
 "MechElecRoom_EWSF" = 0.2   $ IP Non-Tech
 "MechElecRoom_LWSF" = 0.7   $ IP Non-Tech
 "MinCfmPerSF" = 0.4   $ IP Non-Tech
 "MinSupT" = 55   $ IP Non-Tech
 "OccCoolT" = 76   $ IP Non-Tech
 "OccHeatT" = 72   $ IP Non-Tech
 "OfficeOpen_EWSF" = 1.5   $ IP Non-Tech
 "OfficeOpen_LWSF" = 1.2   $ IP Non-Tech
 "OfficeSmall_EWSF" = 1.5   $ IP Non-Tech
 "OfficeSmall_LWSF" = 1.3   $ IP Non-Tech
 "PkgDxVintEconoFlag" = 0   $ IP Non-Tech
 "Restroom_EWSF" = 0.2   $ IP Non-Tech
 "Restroom_LWSF" = 0.6   $ IP Non-Tech
 "SZFanMechEff" = 0.58   $ IP Non-Tech
 "SZHasRetFan" = FALSE   $ IP Non-Tech
 "SZ_Is_2Spd" = FALSE   $ IP Non-Tech
 "SZ_SFanWPerCfm" = 0.46   $ IP Non-Tech
 "SZ_SupFanStatic" = 0.75   $ IP Non-Tech
 "StorageSmlCond_EWSF" = 0.2   $ IP Non-Tech
 "StorageSmlCond_LWSF" = 0.6   $ IP Non-Tech
 "T24GlzTbl" = CZTbl   $ IP Non-Tech
 "TermUnitFanMechEff" = 1   $ IP Non-Tech
 "TermUnitFanMode" = INTERMITTENT   $ IP Non-Tech
 "TwrSetpt" = 80   $ IP Non-Tech
 "UnocCoolT" = 86   $ IP Non-Tech
 "UnocHeatT" = 62   $ IP Non-Tech
 "WlhpVintEconoFlag" = 0   $ IP Non-Tech
 "EconoCtrl" = OA-TEMP   $ IP Tech: AirEcono-OATemp
 "MaxOAFrac" = 0.85   $ IP Tech: AirEcono-OATemp
 "UseEconoVintApplic" = FALSE   $ IP Tech: AirEcono-OATemp
 "DuctDT" = 1   $ IP Tech: ComDuctInsul-1
 "DuctAirLoss" = 0   $ IP Tech: ComDuctLeak-0
 "DuctLossOAFrac" = 0   $ IP Tech: ComDuctLeak-0
 "ComRoofInsCalc" = FromUo   $ IP Tech: ComRoofIns-Hvy-0.06
 "ComRoofInsR" = -999   $ IP Tech: ComRoofIns-Hvy-0.06
 "ComRoofUo" = 0.06   $ IP Tech: ComRoofIns-Hvy-0.06
 "ComEWInsCalc" = FromUo   $ IP Tech: ComWallIns-MFrm-0.13
 "ComEWInsR" = -999   $ IP Tech: ComWallIns-MFrm-0.13
 "ComEWUo" = 0.13   $ IP Tech: ComWallIns-MFrm-0.13
 "ComN_SHGC" = 0.47   $ IP Tech: NResWin-ComN-0.47-0.47
 "ComN_UFactor" = 0.47   $ IP Tech: NResWin-ComN-0.47-0.47
 "ComN_VisTrans" = 0.75   $ IP Tech: NResWin-ComN-0.47-0.47
 "ComN_WinCode" = G2633   $ IP Tech: NResWin-ComN-0.47-0.47
 "ComN_WinFrmFrac" = 0.17   $ IP Tech: NResWin-ComN-0.47-0.47
 "ComN_WinFrmU" = 0.3   $ IP Tech: NResWin-ComN-0.47-0.47
 "ComO_SHGC" = 0.43   $ IP Tech: NResWin-ComO-0.47-0.43
 "ComO_UFactor" = 0.47   $ IP Tech: NResWin-ComO-0.47-0.43
 "ComO_VisTrans" = 0.68   $ IP Tech: NResWin-ComO-0.47-0.43
 "ComO_WinCode" = G2663   $ IP Tech: NResWin-ComO-0.47-0.43
 "ComO_WinFrmFrac" = 0.17   $ IP Tech: NResWin-ComO-0.47-0.43
 "ComO_WinFrmU" = 0.3   $ IP Tech: NResWin-ComO-0.47-0.43
 "BF_fFlow" = PSZ65to135_BF_fFlow   $ IP Tech: PkgHP1SpH-65to135-E10.1-C3.2
 "BF_fT" = PSZ65to135_BF_fT   $ IP Tech: PkgHP1SpH-65to135-E10.1-C3.2
 "CEIR_fPLR" = PSZ65to135_CEIR_fPLR   $ IP Tech: PkgHP1SpH-65to135-E10.1-C3.2
 "CLoss_fPLR" = PSZ65to135_CLoss_fPLR   $ IP Tech: PkgHP1SpH-65to135-E10.1-C3.2
 "COP" = 3.2   $ IP Tech: PkgHP1SpH-65to135-E10.1-C3.2
 "COP47" = 3.52   $ IP Tech: PkgHP1SpH-65to135-E10.1-C3.2
 "CfmPerBtuh" = 0.02917   $ IP Tech: PkgHP1SpH-65to135-E10.1-C3.2
 "ClCap_fT" = PSZ65to135_ClCap_fT   $ IP Tech: PkgHP1SpH-65to135-E10.1-C3.2
 "ClSH_fT" = PSZ65to135_ClSH_fT   $ IP Tech: PkgHP1SpH-65to135-E10.1-C3.2
 "CoilBF" = 0.114   $ IP Tech: PkgHP1SpH-65to135-E10.1-C3.2
 "CondWPerBtuh" = 0   $ IP Tech: PkgHP1SpH-65to135-E10.1-C3.2
 "CoolSensCap" = 0.663   $ IP Tech: PkgHP1SpH-65to135-E10.1-C3.2
 "CoolingEIR" = 0.29399   $ IP Tech: PkgHP1SpH-65to135-E10.1-C3.2
 "CrnkEIR" = 0.0029   $ IP Tech: PkgHP1SpH-65to135-E10.1-C3.2
 "CrnkMaxT" = 50   $ IP Tech: PkgHP1SpH-65to135-E10.1-C3.2
 "DXType" = Pkg   $ IP Tech: PkgHP1SpH-65to135-E10.1-C3.2
 "EER" = 9.77   $ IP Tech: PkgHP1SpH-65to135-E10.1-C3.2
 "EIR_fT" = PSZ65to135_EIR_fT   $ IP Tech: PkgHP1SpH-65to135-E10.1-C3.2
 "FanEirPlr" = TwoSpeedFan   $ IP Tech: PkgHP1SpH-65to135-E10.1-C3.2
 "FanWPerCfm" = 0.412   $ IP Tech: PkgHP1SpH-65to135-E10.1-C3.2
 "HIR_fT" = DEFAULT   $ IP Tech: PkgHP1SpH-65to135-E10.1-C3.2
 "HtCap_fT" = DEFAULT   $ IP Tech: PkgHP1SpH-65to135-E10.1-C3.2
 "HtCoolCapRatio" = 0.88   $ IP Tech: PkgHP1SpH-65to135-E10.1-C3.2
 "HtgEIR" = 0.2843   $ IP Tech: PkgHP1SpH-65to135-E10.1-C3.2
 "HtgFuel" = HP   $ IP Tech: PkgHP1SpH-65to135-E10.1-C3.2
 "IEER" = 12.02   $ IP Tech: PkgHP1SpH-65to135-E10.1-C3.2
 "LowSpdCapRatio" = 0.5   $ IP Tech: PkgHP1SpH-65to135-E10.1-C3.2
 "LowSpdCfmRatio" = 0.66   $ IP Tech: PkgHP1SpH-65to135-E10.1-C3.2
 "NominalCap" = 15   $ IP Tech: PkgHP1SpH-65to135-E10.1-C3.2
 "NumStages" = 1   $ IP Tech: PkgHP1SpH-65to135-E10.1-C3.2
 "RatedEER" = 10.1   $ IP Tech: PkgHP1SpH-65to135-E10.1-C3.2
 "RatedSupMtrClass" = HiEff   $ IP Tech: PkgHP1SpH-65to135-E10.1-C3.2
 "SizeRange" = 65to135   $ IP Tech: PkgHP1SpH-65to135-E10.1-C3.2
 "SubType" = HP   $ IP Tech: PkgHP1SpH-65to135-E10.1-C3.2
 "SupMotEff" = 0.84   $ IP Tech: PkgHP1SpH-65to135-E10.1-C3.2
 "Tier" = 0   $ IP Tech: PkgHP1SpH-65to135-E10.1-C3.2
 "TotCoolCap" = 184140   $ IP Tech: PkgHP1SpH-65to135-E10.1-C3.2
 "BFMult" = 1   $ IP Tech: RefgChg-NRes-Std
 "CoolEirMult" = 1   $ IP Tech: RefgChg-NRes-Std
 "SensCoolCapMult" = 1   $ IP Tech: RefgChg-NRes-Std
 "TotCoolCapMult" = 1   $ IP Tech: RefgChg-NRes-Std
 "AltAdjFactor" = 1.007532   $ Sizing
 "CAssFlo_L_Break_CZn" = 363.0887   $ Sizing
 "CAssFlo_L_Conf_CZn" = 419.5787   $ Sizing
 "CAssFlo_L_CopyRm_CZn" = 105.659   $ Sizing
 "CAssFlo_L_Cordr_CZn" = 565.4379   $ Sizing
 "CAssFlo_L_Cordr_EZn" = 187.9843   $ Sizing
 "CAssFlo_L_Cordr_NZn" = 139.017   $ Sizing
 "CAssFlo_L_Cordr_SZn" = 199.9954   $ Sizing
 "CAssFlo_L_Cordr_WZn" = 179.9129   $ Sizing
 "CAssFlo_L_LobWait_CZn" = 348.4055   $ Sizing
 "CAssFlo_L_MechElec_CZn" = 134.1697   $ Sizing
 "CAssFlo_L_OfficeOpn_CZn" = 1657.318   $ Sizing
 "CAssFlo_L_OfficeOpn_EZn" = 1624.097   $ Sizing
 "CAssFlo_L_OfficeOpn_NZn" = 782.1168   $ Sizing
 "CAssFlo_L_OfficeOpn_SZn" = 1658.9   $ Sizing
 "CAssFlo_L_OfficeOpn_WZn" = 1563.47   $ Sizing
 "CAssFlo_L_OfficeSm_CZn" = 207.6429   $ Sizing
 "CAssFlo_L_OfficeSm_EZn" = 1139.153   $ Sizing
 "CAssFlo_L_OfficeSm_NZn" = 482.5389   $ Sizing
 "CAssFlo_L_OfficeSm_SZn" = 1192.937   $ Sizing
 "CAssFlo_L_OfficeSm_WZn" = 1085.517   $ Sizing
 "CAssFlo_L_Restrm_CZn" = 211.8611   $ Sizing
 "CAssFlo_L_StorSm_CZn" = 334.6124   $ Sizing
 "CAssFlo_M_Break_CZn" = 401.472   $ Sizing
 "CAssFlo_M_Conf_CZn" = 467.4954   $ Sizing
 "CAssFlo_M_CopyRm_CZn" = 132.042   $ Sizing
 "CAssFlo_M_Cordr_CZn" = 741.4445   $ Sizing
 "CAssFlo_M_Cordr_EZn" = 244.7393   $ Sizing
 "CAssFlo_M_Cordr_NZn" = 144.7181   $ Sizing
 "CAssFlo_M_Cordr_SZn" = 248.111   $ Sizing
 "CAssFlo_M_Cordr_WZn" = 216.1633   $ Sizing
 "CAssFlo_M_LobWait_CZn" = 449.0901   $ Sizing
 "CAssFlo_M_MechElec_CZn" = 138.5723   $ Sizing
 "CAssFlo_M_OfficeOpn_CZn" = 1942.742   $ Sizing
 "CAssFlo_M_OfficeOpn_EZn" = 1816.232   $ Sizing
 "CAssFlo_M_OfficeOpn_NZn" = 936.9474   $ Sizing
 "CAssFlo_M_OfficeOpn_SZn" = 1861.229   $ Sizing
 "CAssFlo_M_OfficeOpn_WZn" = 1682.23   $ Sizing
 "CAssFlo_M_OfficeSm_CZn" = 266.5754   $ Sizing
 "CAssFlo_M_OfficeSm_EZn" = 1266.032   $ Sizing
 "CAssFlo_M_OfficeSm_NZn" = 559.6573   $ Sizing
 "CAssFlo_M_OfficeSm_SZn" = 1329.256   $ Sizing
 "CAssFlo_M_OfficeSm_WZn" = 1171.925   $ Sizing
 "CAssFlo_M_Restrm_CZn" = 211.8611   $ Sizing
 "CAssFlo_M_StorSm_CZn" = 359.4494   $ Sizing
 "CAssFlo_T_Break_CZn" = 375.7719   $ Sizing
 "CAssFlo_T_Conf_CZn" = 447.3034   $ Sizing
 "CAssFlo_T_CopyRm_CZn" = 125.0567   $ Sizing
 "CAssFlo_T_Cordr_CZn" = 657.5818   $ Sizing
 "CAssFlo_T_Cordr_EZn" = 217.7532   $ Sizing
 "CAssFlo_T_Cordr_NZn" = 127.4168   $ Sizing
 "CAssFlo_T_Cordr_SZn" = 225.1485   $ Sizing
 "CAssFlo_T_Cordr_WZn" = 194.923   $ Sizing
 "CAssFlo_T_LobWait_CZn" = 415.9071   $ Sizing
 "CAssFlo_T_MechElec_CZn" = 146.0541   $ Sizing
 "CAssFlo_T_OfficeOpn_CZn" = 1816   $ Sizing
 "CAssFlo_T_OfficeOpn_EZn" = 1648.629   $ Sizing
 "CAssFlo_T_OfficeOpn_NZn" = 864.799   $ Sizing
 "CAssFlo_T_OfficeOpn_SZn" = 1732.777   $ Sizing
 "CAssFlo_T_OfficeOpn_WZn" = 1542.3   $ Sizing
 "CAssFlo_T_OfficeSm_CZn" = 252.5832   $ Sizing
 "CAssFlo_T_OfficeSm_EZn" = 1184.097   $ Sizing
 "CAssFlo_T_OfficeSm_NZn" = 536.6677   $ Sizing
 "CAssFlo_T_OfficeSm_SZn" = 1266.141   $ Sizing
 "CAssFlo_T_OfficeSm_WZn" = 1103.824   $ Sizing
 "CAssFlo_T_Restrm_CZn" = 211.8611   $ Sizing
 "CAssFlo_T_StorSm_CZn" = 334.0894   $ Sizing
 "CHRtFlo_Sys_L_Break_C" = 363.0887   $ Sizing
 "CHRtFlo_Sys_L_Conf_C" = 419.5787   $ Sizing
 "CHRtFlo_Sys_L_CopyRm_C" = 105.659   $ Sizing
 "CHRtFlo_Sys_L_Cordr_C" = 565.4378   $ Sizing
 "CHRtFlo_Sys_L_Cordr_E" = 187.9843   $ Sizing
 "CHRtFlo_Sys_L_Cordr_N" = 139.017   $ Sizing
 "CHRtFlo_Sys_L_Cordr_S" = 199.9954   $ Sizing
 "CHRtFlo_Sys_L_Cordr_W" = 179.9129   $ Sizing
 "CHRtFlo_Sys_L_LobWait_C" = 348.4055   $ Sizing
 "CHRtFlo_Sys_L_MechElec_C" = 134.1697   $ Sizing
 "CHRtFlo_Sys_L_OfficeOpn_C" = 1657.318   $ Sizing
 "CHRtFlo_Sys_L_OfficeOpn_E" = 1624.097   $ Sizing
 "CHRtFlo_Sys_L_OfficeOpn_N" = 782.1168   $ Sizing
 "CHRtFlo_Sys_L_OfficeOpn_S" = 1658.9   $ Sizing
 "CHRtFlo_Sys_L_OfficeOpn_W" = 1563.47   $ Sizing
 "CHRtFlo_Sys_L_OfficeSm_C" = 207.6429   $ Sizing
 "CHRtFlo_Sys_L_OfficeSm_E" = 1139.153   $ Sizing
 "CHRtFlo_Sys_L_OfficeSm_N" = 482.5389   $ Sizing
 "CHRtFlo_Sys_L_OfficeSm_S" = 1192.937   $ Sizing
 "CHRtFlo_Sys_L_OfficeSm_W" = 1085.517   $ Sizing
 "CHRtFlo_Sys_L_Restrm_C" = 211.8611   $ Sizing
 "CHRtFlo_Sys_L_StorSm_C" = 334.6124   $ Sizing
 "CHRtFlo_Sys_M_Break_C" = 3211.776   $ Sizing
 "CHRtFlo_Sys_M_Conf_C" = 3739.963   $ Sizing
 "CHRtFlo_Sys_M_CopyRm_C" = 1056.336   $ Sizing
 "CHRtFlo_Sys_M_Cordr_C" = 5931.556   $ Sizing
 "CHRtFlo_Sys_M_Cordr_E" = 1957.915   $ Sizing
 "CHRtFlo_Sys_M_Cordr_N" = 1157.745   $ Sizing
 "CHRtFlo_Sys_M_Cordr_S" = 1984.888   $ Sizing
 "CHRtFlo_Sys_M_Cordr_W" = 1729.307   $ Sizing
 "CHRtFlo_Sys_M_LobWait_C" = 3592.721   $ Sizing
 "CHRtFlo_Sys_M_MechElec_C" = 1108.579   $ Sizing
 "CHRtFlo_Sys_M_OfficeOpn_C" = 15541.94   $ Sizing
 "CHRtFlo_Sys_M_OfficeOpn_E" = 14529.86   $ Sizing
 "CHRtFlo_Sys_M_OfficeOpn_N" = 7495.579   $ Sizing
 "CHRtFlo_Sys_M_OfficeOpn_S" = 14889.83   $ Sizing
 "CHRtFlo_Sys_M_OfficeOpn_W" = 13457.84   $ Sizing
 "CHRtFlo_Sys_M_OfficeSm_C" = 2132.603   $ Sizing
 "CHRtFlo_Sys_M_OfficeSm_E" = 10128.26   $ Sizing
 "CHRtFlo_Sys_M_OfficeSm_N" = 4477.258   $ Sizing
 "CHRtFlo_Sys_M_OfficeSm_S" = 10634.05   $ Sizing
 "CHRtFlo_Sys_M_OfficeSm_W" = 9375.397   $ Sizing
 "CHRtFlo_Sys_M_Restrm_C" = 1694.889   $ Sizing
 "CHRtFlo_Sys_M_StorSm_C" = 2875.595   $ Sizing
 "CHRtFlo_Sys_T_Break_C" = 375.7719   $ Sizing
 "CHRtFlo_Sys_T_Conf_C" = 447.3035   $ Sizing
 "CHRtFlo_Sys_T_CopyRm_C" = 125.0567   $ Sizing
 "CHRtFlo_Sys_T_Cordr_C" = 657.5818   $ Sizing
 "CHRtFlo_Sys_T_Cordr_E" = 217.7532   $ Sizing
 "CHRtFlo_Sys_T_Cordr_N" = 127.4168   $ Sizing
 "CHRtFlo_Sys_T_Cordr_S" = 225.1485   $ Sizing
 "CHRtFlo_Sys_T_Cordr_W" = 194.923   $ Sizing
 "CHRtFlo_Sys_T_LobWait_C" = 415.9071   $ Sizing
 "CHRtFlo_Sys_T_MechElec_C" = 146.0541   $ Sizing
 "CHRtFlo_Sys_T_OfficeOpn_C" = 1816   $ Sizing
 "CHRtFlo_Sys_T_OfficeOpn_E" = 1648.629   $ Sizing
 "CHRtFlo_Sys_T_OfficeOpn_N" = 864.799   $ Sizing
 "CHRtFlo_Sys_T_OfficeOpn_S" = 1732.777   $ Sizing
 "CHRtFlo_Sys_T_OfficeOpn_W" = 1542.3   $ Sizing
 "CHRtFlo_Sys_T_OfficeSm_C" = 252.5832   $ Sizing
 "CHRtFlo_Sys_T_OfficeSm_E" = 1184.097   $ Sizing
 "CHRtFlo_Sys_T_OfficeSm_N" = 536.6677   $ Sizing
 "CHRtFlo_Sys_T_OfficeSm_S" = 1266.141   $ Sizing
 "CHRtFlo_Sys_T_OfficeSm_W" = 1103.824   $ Sizing
 "CHRtFlo_Sys_T_Restrm_C" = 211.8611   $ Sizing
 "CHRtFlo_Sys_T_StorSm_C" = 334.0894   $ Sizing
 "CRtdFlo_Sys_L_Break_C" = 363.0887   $ Sizing
 "CRtdFlo_Sys_L_Conf_C" = 419.5787   $ Sizing
 "CRtdFlo_Sys_L_CopyRm_C" = 105.659   $ Sizing
 "CRtdFlo_Sys_L_Cordr_C" = 565.4379   $ Sizing
 "CRtdFlo_Sys_L_Cordr_E" = 187.9843   $ Sizing
 "CRtdFlo_Sys_L_Cordr_N" = 139.017   $ Sizing
 "CRtdFlo_Sys_L_Cordr_S" = 199.9954   $ Sizing
 "CRtdFlo_Sys_L_Cordr_W" = 179.9129   $ Sizing
 "CRtdFlo_Sys_L_LobWait_C" = 348.4055   $ Sizing
 "CRtdFlo_Sys_L_MechElec_C" = 134.1697   $ Sizing
 "CRtdFlo_Sys_L_OfficeOpn_C" = 1657.318   $ Sizing
 "CRtdFlo_Sys_L_OfficeOpn_E" = 1624.097   $ Sizing
 "CRtdFlo_Sys_L_OfficeOpn_N" = 782.1168   $ Sizing
 "CRtdFlo_Sys_L_OfficeOpn_S" = 1658.9   $ Sizing
 "CRtdFlo_Sys_L_OfficeOpn_W" = 1563.47   $ Sizing
 "CRtdFlo_Sys_L_OfficeSm_C" = 207.6429   $ Sizing
 "CRtdFlo_Sys_L_OfficeSm_E" = 1139.153   $ Sizing
 "CRtdFlo_Sys_L_OfficeSm_N" = 482.5389   $ Sizing
 "CRtdFlo_Sys_L_OfficeSm_S" = 1192.937   $ Sizing
 "CRtdFlo_Sys_L_OfficeSm_W" = 1085.517   $ Sizing
 "CRtdFlo_Sys_L_Restrm_C" = 211.8611   $ Sizing
 "CRtdFlo_Sys_L_StorSm_C" = 334.6124   $ Sizing
 "CRtdFlo_Sys_M_Break_C" = 3211.776   $ Sizing
 "CRtdFlo_Sys_M_Conf_C" = 3739.963   $ Sizing
 "CRtdFlo_Sys_M_CopyRm_C" = 1056.336   $ Sizing
 "CRtdFlo_Sys_M_Cordr_C" = 5931.556   $ Sizing
 "CRtdFlo_Sys_M_Cordr_E" = 1957.915   $ Sizing
 "CRtdFlo_Sys_M_Cordr_N" = 1157.745   $ Sizing
 "CRtdFlo_Sys_M_Cordr_S" = 1984.888   $ Sizing
 "CRtdFlo_Sys_M_Cordr_W" = 1729.307   $ Sizing
 "CRtdFlo_Sys_M_LobWait_C" = 3592.721   $ Sizing
 "CRtdFlo_Sys_M_MechElec_C" = 1108.579   $ Sizing
 "CRtdFlo_Sys_M_OfficeOpn_C" = 15541.94   $ Sizing
 "CRtdFlo_Sys_M_OfficeOpn_E" = 14529.86   $ Sizing
 "CRtdFlo_Sys_M_OfficeOpn_N" = 7495.579   $ Sizing
 "CRtdFlo_Sys_M_OfficeOpn_S" = 14889.83   $ Sizing
 "CRtdFlo_Sys_M_OfficeOpn_W" = 13457.84   $ Sizing
 "CRtdFlo_Sys_M_OfficeSm_C" = 2132.603   $ Sizing
 "CRtdFlo_Sys_M_OfficeSm_E" = 10128.26   $ Sizing
 "CRtdFlo_Sys_M_OfficeSm_N" = 4477.258   $ Sizing
 "CRtdFlo_Sys_M_OfficeSm_S" = 10634.05   $ Sizing
 "CRtdFlo_Sys_M_OfficeSm_W" = 9375.397   $ Sizing
 "CRtdFlo_Sys_M_Restrm_C" = 1694.889   $ Sizing
 "CRtdFlo_Sys_M_StorSm_C" = 2875.595   $ Sizing
 "CRtdFlo_Sys_T_Break_C" = 375.7719   $ Sizing
 "CRtdFlo_Sys_T_Conf_C" = 447.3034   $ Sizing
 "CRtdFlo_Sys_T_CopyRm_C" = 125.0567   $ Sizing
 "CRtdFlo_Sys_T_Cordr_C" = 657.5818   $ Sizing
 "CRtdFlo_Sys_T_Cordr_E" = 217.7532   $ Sizing
 "CRtdFlo_Sys_T_Cordr_N" = 127.4168   $ Sizing
 "CRtdFlo_Sys_T_Cordr_S" = 225.1485   $ Sizing
 "CRtdFlo_Sys_T_Cordr_W" = 194.923   $ Sizing
 "CRtdFlo_Sys_T_LobWait_C" = 415.9071   $ Sizing
 "CRtdFlo_Sys_T_MechElec_C" = 146.0541   $ Sizing
 "CRtdFlo_Sys_T_OfficeOpn_C" = 1816   $ Sizing
 "CRtdFlo_Sys_T_OfficeOpn_E" = 1648.629   $ Sizing
 "CRtdFlo_Sys_T_OfficeOpn_N" = 864.799   $ Sizing
 "CRtdFlo_Sys_T_OfficeOpn_S" = 1732.777   $ Sizing
 "CRtdFlo_Sys_T_OfficeOpn_W" = 1542.3   $ Sizing
 "CRtdFlo_Sys_T_OfficeSm_C" = 252.5832   $ Sizing
 "CRtdFlo_Sys_T_OfficeSm_E" = 1184.097   $ Sizing
 "CRtdFlo_Sys_T_OfficeSm_N" = 536.6677   $ Sizing
 "CRtdFlo_Sys_T_OfficeSm_S" = 1266.141   $ Sizing
 "CRtdFlo_Sys_T_OfficeSm_W" = 1103.824   $ Sizing
 "CRtdFlo_Sys_T_Restrm_C" = 211.8611   $ Sizing
 "CRtdFlo_Sys_T_StorSm_C" = 334.0894   $ Sizing
 "CSupFlo_Sys_L_Break_C" = 363.0887   $ Sizing
 "CSupFlo_Sys_L_Conf_C" = 419.5787   $ Sizing
 "CSupFlo_Sys_L_CopyRm_C" = 105.659   $ Sizing
 "CSupFlo_Sys_L_Cordr_C" = 565.4379   $ Sizing
 "CSupFlo_Sys_L_Cordr_E" = 187.9843   $ Sizing
 "CSupFlo_Sys_L_Cordr_N" = 139.017   $ Sizing
 "CSupFlo_Sys_L_Cordr_S" = 199.9954   $ Sizing
 "CSupFlo_Sys_L_Cordr_W" = 179.9129   $ Sizing
 "CSupFlo_Sys_L_LobWait_C" = 348.4055   $ Sizing
 "CSupFlo_Sys_L_MechElec_C" = 134.1697   $ Sizing
 "CSupFlo_Sys_L_OfficeOpn_C" = 1657.318   $ Sizing
 "CSupFlo_Sys_L_OfficeOpn_E" = 1624.097   $ Sizing
 "CSupFlo_Sys_L_OfficeOpn_N" = 782.1168   $ Sizing
 "CSupFlo_Sys_L_OfficeOpn_S" = 1658.9   $ Sizing
 "CSupFlo_Sys_L_OfficeOpn_W" = 1563.47   $ Sizing
 "CSupFlo_Sys_L_OfficeSm_C" = 207.6429   $ Sizing
 "CSupFlo_Sys_L_OfficeSm_E" = 1139.153   $ Sizing
 "CSupFlo_Sys_L_OfficeSm_N" = 482.5389   $ Sizing
 "CSupFlo_Sys_L_OfficeSm_S" = 1192.937   $ Sizing
 "CSupFlo_Sys_L_OfficeSm_W" = 1085.517   $ Sizing
 "CSupFlo_Sys_L_Restrm_C" = 211.8611   $ Sizing
 "CSupFlo_Sys_L_StorSm_C" = 334.6124   $ Sizing
 "CSupFlo_Sys_M_Break_C" = 3211.776   $ Sizing
 "CSupFlo_Sys_M_Conf_C" = 3739.963   $ Sizing
 "CSupFlo_Sys_M_CopyRm_C" = 1056.336   $ Sizing
 "CSupFlo_Sys_M_Cordr_C" = 5931.556   $ Sizing
 "CSupFlo_Sys_M_Cordr_E" = 1957.915   $ Sizing
 "CSupFlo_Sys_M_Cordr_N" = 1157.745   $ Sizing
 "CSupFlo_Sys_M_Cordr_S" = 1984.888   $ Sizing
 "CSupFlo_Sys_M_Cordr_W" = 1729.307   $ Sizing
 "CSupFlo_Sys_M_LobWait_C" = 3592.721   $ Sizing
 "CSupFlo_Sys_M_MechElec_C" = 1108.579   $ Sizing
 "CSupFlo_Sys_M_OfficeOpn_C" = 15541.94   $ Sizing
 "CSupFlo_Sys_M_OfficeOpn_E" = 14529.86   $ Sizing
 "CSupFlo_Sys_M_OfficeOpn_N" = 7495.579   $ Sizing
 "CSupFlo_Sys_M_OfficeOpn_S" = 14889.83   $ Sizing
 "CSupFlo_Sys_M_OfficeOpn_W" = 13457.84   $ Sizing
 "CSupFlo_Sys_M_OfficeSm_C" = 2132.603   $ Sizing
 "CSupFlo_Sys_M_OfficeSm_E" = 10128.26   $ Sizing
 "CSupFlo_Sys_M_OfficeSm_N" = 4477.258   $ Sizing
 "CSupFlo_Sys_M_OfficeSm_S" = 10634.05   $ Sizing
 "CSupFlo_Sys_M_OfficeSm_W" = 9375.397   $ Sizing
 "CSupFlo_Sys_M_Restrm_C" = 1694.889   $ Sizing
 "CSupFlo_Sys_M_StorSm_C" = 2875.595   $ Sizing
 "CSupFlo_Sys_T_Break_C" = 375.7719   $ Sizing
 "CSupFlo_Sys_T_Conf_C" = 447.3034   $ Sizing
 "CSupFlo_Sys_T_CopyRm_C" = 125.0567   $ Sizing
 "CSupFlo_Sys_T_Cordr_C" = 657.5818   $ Sizing
 "CSupFlo_Sys_T_Cordr_E" = 217.7532   $ Sizing
 "CSupFlo_Sys_T_Cordr_N" = 127.4168   $ Sizing
 "CSupFlo_Sys_T_Cordr_S" = 225.1485   $ Sizing
 "CSupFlo_Sys_T_Cordr_W" = 194.923   $ Sizing
 "CSupFlo_Sys_T_LobWait_C" = 415.9071   $ Sizing
 "CSupFlo_Sys_T_MechElec_C" = 146.0541   $ Sizing
 "CSupFlo_Sys_T_OfficeOpn_C" = 1816   $ Sizing
 "CSupFlo_Sys_T_OfficeOpn_E" = 1648.629   $ Sizing
 "CSupFlo_Sys_T_OfficeOpn_N" = 864.799   $ Sizing
 "CSupFlo_Sys_T_OfficeOpn_S" = 1732.777   $ Sizing
 "CSupFlo_Sys_T_OfficeOpn_W" = 1542.3   $ Sizing
 "CSupFlo_Sys_T_OfficeSm_C" = 252.5832   $ Sizing
 "CSupFlo_Sys_T_OfficeSm_E" = 1184.097   $ Sizing
 "CSupFlo_Sys_T_OfficeSm_N" = 536.6677   $ Sizing
 "CSupFlo_Sys_T_OfficeSm_S" = 1266.141   $ Sizing
 "CSupFlo_Sys_T_OfficeSm_W" = 1103.824   $ Sizing
 "CSupFlo_Sys_T_Restrm_C" = 211.8611   $ Sizing
 "CSupFlo_Sys_T_StorSm_C" = 334.0894   $ Sizing
 "ClCap_Sys_L_Break_C" = 12355.69   $ Sizing
 "ClCap_Sys_L_Conf_C" = 18172.02   $ Sizing
 "ClCap_Sys_L_CopyRm_C" = 3595.514   $ Sizing
 "ClCap_Sys_L_Cordr_C" = 19241.51   $ Sizing
 "ClCap_Sys_L_Cordr_E" = 6396.993   $ Sizing
 "ClCap_Sys_L_Cordr_N" = 4730.664   $ Sizing
 "ClCap_Sys_L_Cordr_S" = 6805.725   $ Sizing
 "ClCap_Sys_L_Cordr_W" = 6122.327   $ Sizing
 "ClCap_Sys_L_LobWait_C" = 11856.03   $ Sizing
 "ClCap_Sys_L_MechElec_C" = 4565.713   $ Sizing
 "ClCap_Sys_L_OfficeOpn_C" = 56397.54   $ Sizing
 "ClCap_Sys_L_OfficeOpn_E" = 55267.04   $ Sizing
 "ClCap_Sys_L_OfficeOpn_N" = 26614.97   $ Sizing
 "ClCap_Sys_L_OfficeOpn_S" = 56451.38   $ Sizing
 "ClCap_Sys_L_OfficeOpn_W" = 53203.94   $ Sizing
 "ClCap_Sys_L_OfficeSm_C" = 7065.964   $ Sizing
 "ClCap_Sys_L_OfficeSm_E" = 38764.7   $ Sizing
 "ClCap_Sys_L_OfficeSm_N" = 16420.51   $ Sizing
 "ClCap_Sys_L_OfficeSm_S" = 40594.93   $ Sizing
 "ClCap_Sys_L_OfficeSm_W" = 36939.5   $ Sizing
 "ClCap_Sys_L_Restrm_C" = 7209.506   $ Sizing
 "ClCap_Sys_L_StorSm_C" = 11386.66   $ Sizing
 "ClCap_Sys_M_Break_C" = 109294.8   $ Sizing
 "ClCap_Sys_M_Conf_C" = 161978.4   $ Sizing
 "ClCap_Sys_M_CopyRm_C" = 35946.48   $ Sizing
 "ClCap_Sys_M_Cordr_C" = 201847.3   $ Sizing
 "ClCap_Sys_M_Cordr_E" = 66626.67   $ Sizing
 "ClCap_Sys_M_Cordr_N" = 39397.37   $ Sizing
 "ClCap_Sys_M_Cordr_S" = 67544.56   $ Sizing
 "ClCap_Sys_M_Cordr_W" = 58847.27   $ Sizing
 "ClCap_Sys_M_LobWait_C" = 122258.1   $ Sizing
 "ClCap_Sys_M_MechElec_C" = 37724.27   $ Sizing
 "ClCap_Sys_M_OfficeOpn_C" = 528882.8   $ Sizing
 "ClCap_Sys_M_OfficeOpn_E" = 494442.3   $ Sizing
 "ClCap_Sys_M_OfficeOpn_N" = 255070.1   $ Sizing
 "ClCap_Sys_M_OfficeOpn_S" = 506692.2   $ Sizing
 "ClCap_Sys_M_OfficeOpn_W" = 457962.2   $ Sizing
 "ClCap_Sys_M_OfficeSm_C" = 72571.2   $ Sizing
 "ClCap_Sys_M_OfficeSm_E" = 344658.5   $ Sizing
 "ClCap_Sys_M_OfficeSm_N" = 152358.4   $ Sizing
 "ClCap_Sys_M_OfficeSm_S" = 361870.3   $ Sizing
 "ClCap_Sys_M_OfficeSm_W" = 319039.2   $ Sizing
 "ClCap_Sys_M_Restrm_C" = 57676.05   $ Sizing
 "ClCap_Sys_M_StorSm_C" = 97854.78   $ Sizing
 "ClCap_Sys_T_Break_C" = 12787.29   $ Sizing
 "ClCap_Sys_T_Conf_C" = 19372.78   $ Sizing
 "ClCap_Sys_T_CopyRm_C" = 4255.604   $ Sizing
 "ClCap_Sys_T_Cordr_C" = 22377.12   $ Sizing
 "ClCap_Sys_T_Cordr_E" = 7410.01   $ Sizing
 "ClCap_Sys_T_Cordr_N" = 4335.917   $ Sizing
 "ClCap_Sys_T_Cordr_S" = 7661.667   $ Sizing
 "ClCap_Sys_T_Cordr_W" = 6633.115   $ Sizing
 "ClCap_Sys_T_LobWait_C" = 14153.07   $ Sizing
 "ClCap_Sys_T_MechElec_C" = 4970.133   $ Sizing
 "ClCap_Sys_T_OfficeOpn_C" = 61797.4   $ Sizing
 "ClCap_Sys_T_OfficeOpn_E" = 56101.86   $ Sizing
 "ClCap_Sys_T_OfficeOpn_N" = 29428.59   $ Sizing
 "ClCap_Sys_T_OfficeOpn_S" = 58965.35   $ Sizing
 "ClCap_Sys_T_OfficeOpn_W" = 52483.54   $ Sizing
 "ClCap_Sys_T_OfficeSm_C" = 8595.255   $ Sizing
 "ClCap_Sys_T_OfficeSm_E" = 40294.12   $ Sizing
 "ClCap_Sys_T_OfficeSm_N" = 18262.48   $ Sizing
 "ClCap_Sys_T_OfficeSm_S" = 43086.02   $ Sizing
 "ClCap_Sys_T_OfficeSm_W" = 37562.46   $ Sizing
 "ClCap_Sys_T_Restrm_C" = 7209.506   $ Sizing
 "ClCap_Sys_T_StorSm_C" = 11368.86   $ Sizing
 "HRtECT_Sys_L_Break_C" = 47   $ Sizing
 "HRtECT_Sys_L_Conf_C" = 47   $ Sizing
 "HRtECT_Sys_L_CopyRm_C" = 47   $ Sizing
 "HRtECT_Sys_L_Cordr_C" = 47   $ Sizing
 "HRtECT_Sys_L_Cordr_E" = 47   $ Sizing
 "HRtECT_Sys_L_Cordr_N" = 47   $ Sizing
 "HRtECT_Sys_L_Cordr_S" = 47   $ Sizing
 "HRtECT_Sys_L_Cordr_W" = 47   $ Sizing
 "HRtECT_Sys_L_LobWait_C" = 47   $ Sizing
 "HRtECT_Sys_L_MechElec_C" = 47   $ Sizing
 "HRtECT_Sys_L_OfficeOpn_C" = 47   $ Sizing
 "HRtECT_Sys_L_OfficeOpn_E" = 47   $ Sizing
 "HRtECT_Sys_L_OfficeOpn_N" = 47   $ Sizing
 "HRtECT_Sys_L_OfficeOpn_S" = 47   $ Sizing
 "HRtECT_Sys_L_OfficeOpn_W" = 47   $ Sizing
 "HRtECT_Sys_L_OfficeSm_C" = 47   $ Sizing
 "HRtECT_Sys_L_OfficeSm_E" = 47   $ Sizing
 "HRtECT_Sys_L_OfficeSm_N" = 47   $ Sizing
 "HRtECT_Sys_L_OfficeSm_S" = 47   $ Sizing
 "HRtECT_Sys_L_OfficeSm_W" = 47   $ Sizing
 "HRtECT_Sys_L_Restrm_C" = 47   $ Sizing
 "HRtECT_Sys_L_StorSm_C" = 47   $ Sizing
 "HRtECT_Sys_M_Break_C" = 47   $ Sizing
 "HRtECT_Sys_M_Conf_C" = 47   $ Sizing
 "HRtECT_Sys_M_CopyRm_C" = 47   $ Sizing
 "HRtECT_Sys_M_Cordr_C" = 47   $ Sizing
 "HRtECT_Sys_M_Cordr_E" = 47   $ Sizing
 "HRtECT_Sys_M_Cordr_N" = 47   $ Sizing
 "HRtECT_Sys_M_Cordr_S" = 47   $ Sizing
 "HRtECT_Sys_M_Cordr_W" = 47   $ Sizing
 "HRtECT_Sys_M_LobWait_C" = 47   $ Sizing
 "HRtECT_Sys_M_MechElec_C" = 47   $ Sizing
 "HRtECT_Sys_M_OfficeOpn_C" = 47   $ Sizing
 "HRtECT_Sys_M_OfficeOpn_E" = 47   $ Sizing
 "HRtECT_Sys_M_OfficeOpn_N" = 47   $ Sizing
 "HRtECT_Sys_M_OfficeOpn_S" = 47   $ Sizing
 "HRtECT_Sys_M_OfficeOpn_W" = 47   $ Sizing
 "HRtECT_Sys_M_OfficeSm_C" = 47   $ Sizing
 "HRtECT_Sys_M_OfficeSm_E" = 47   $ Sizing
 "HRtECT_Sys_M_OfficeSm_N" = 47   $ Sizing
 "HRtECT_Sys_M_OfficeSm_S" = 47   $ Sizing
 "HRtECT_Sys_M_OfficeSm_W" = 47   $ Sizing
 "HRtECT_Sys_M_Restrm_C" = 47   $ Sizing
 "HRtECT_Sys_M_StorSm_C" = 47   $ Sizing
 "HRtECT_Sys_T_Break_C" = 47   $ Sizing
 "HRtECT_Sys_T_Conf_C" = 47   $ Sizing
 "HRtECT_Sys_T_CopyRm_C" = 47   $ Sizing
 "HRtECT_Sys_T_Cordr_C" = 47   $ Sizing
 "HRtECT_Sys_T_Cordr_E" = 47   $ Sizing
 "HRtECT_Sys_T_Cordr_N" = 47   $ Sizing
 "HRtECT_Sys_T_Cordr_S" = 47   $ Sizing
 "HRtECT_Sys_T_Cordr_W" = 47   $ Sizing
 "HRtECT_Sys_T_LobWait_C" = 47   $ Sizing
 "HRtECT_Sys_T_MechElec_C" = 47   $ Sizing
 "HRtECT_Sys_T_OfficeOpn_C" = 47   $ Sizing
 "HRtECT_Sys_T_OfficeOpn_E" = 47   $ Sizing
 "HRtECT_Sys_T_OfficeOpn_N" = 47   $ Sizing
 "HRtECT_Sys_T_OfficeOpn_S" = 47   $ Sizing
 "HRtECT_Sys_T_OfficeOpn_W" = 47   $ Sizing
 "HRtECT_Sys_T_OfficeSm_C" = 47   $ Sizing
 "HRtECT_Sys_T_OfficeSm_E" = 47   $ Sizing
 "HRtECT_Sys_T_OfficeSm_N" = 47   $ Sizing
 "HRtECT_Sys_T_OfficeSm_S" = 47   $ Sizing
 "HRtECT_Sys_T_OfficeSm_W" = 47   $ Sizing
 "HRtECT_Sys_T_Restrm_C" = 47   $ Sizing
 "HRtECT_Sys_T_StorSm_C" = 47   $ Sizing
 "HSpCap_Sys_L_Break_C" = -7250.148   $ Sizing
 "HSpCap_Sys_L_Conf_C" = -11734.16   $ Sizing
 "HSpCap_Sys_L_CopyRm_C" = -2928.726   $ Sizing
 "HSpCap_Sys_L_Cordr_C" = -8466.265   $ Sizing
 "HSpCap_Sys_L_Cordr_E" = -3909.832   $ Sizing
 "HSpCap_Sys_L_Cordr_N" = -4280.231   $ Sizing
 "HSpCap_Sys_L_Cordr_S" = -2994.519   $ Sizing
 "HSpCap_Sys_L_Cordr_W" = -3866.069   $ Sizing
 "HSpCap_Sys_L_LobWait_C" = -7462.902   $ Sizing
 "HSpCap_Sys_L_MechElec_C" = -2008.914   $ Sizing
 "HSpCap_Sys_L_OfficeOpn_C" = -24814.92   $ Sizing
 "HSpCap_Sys_L_OfficeOpn_E" = -24317.5   $ Sizing
 "HSpCap_Sys_L_OfficeOpn_N" = -14214.63   $ Sizing
 "HSpCap_Sys_L_OfficeOpn_S" = -24838.61   $ Sizing
 "HSpCap_Sys_L_OfficeOpn_W" = -23409.73   $ Sizing
 "HSpCap_Sys_L_OfficeSm_C" = -3109.024   $ Sizing
 "HSpCap_Sys_L_OfficeSm_E" = -17056.47   $ Sizing
 "HSpCap_Sys_L_OfficeSm_N" = -13483.63   $ Sizing
 "HSpCap_Sys_L_OfficeSm_S" = -17861.77   $ Sizing
 "HSpCap_Sys_L_OfficeSm_W" = -16253.38   $ Sizing
 "HSpCap_Sys_L_Restrm_C" = -3172.183   $ Sizing
 "HSpCap_Sys_L_StorSm_C" = -7933.843   $ Sizing
 "HSpCap_Sys_M_Break_C" = -64458.42   $ Sizing
 "HSpCap_Sys_M_Conf_C" = -100927   $ Sizing
 "HSpCap_Sys_M_CopyRm_C" = -25860.47   $ Sizing
 "HSpCap_Sys_M_Cordr_C" = -88812.82   $ Sizing
 "HSpCap_Sys_M_Cordr_E" = -31471.26   $ Sizing
 "HSpCap_Sys_M_Cordr_N" = -34764.15   $ Sizing
 "HSpCap_Sys_M_Cordr_S" = -29719.61   $ Sizing
 "HSpCap_Sys_M_Cordr_W" = -30738.75   $ Sizing
 "HSpCap_Sys_M_LobWait_C" = -70338.26   $ Sizing
 "HSpCap_Sys_M_MechElec_C" = -18459.33   $ Sizing
 "HSpCap_Sys_M_OfficeOpn_C" = -232708.4   $ Sizing
 "HSpCap_Sys_M_OfficeOpn_E" = -217554.6   $ Sizing
 "HSpCap_Sys_M_OfficeOpn_N" = -119705.1   $ Sizing
 "HSpCap_Sys_M_OfficeOpn_S" = -222944.6   $ Sizing
 "HSpCap_Sys_M_OfficeOpn_W" = -201503.4   $ Sizing
 "HSpCap_Sys_M_OfficeSm_C" = -31931.33   $ Sizing
 "HSpCap_Sys_M_OfficeSm_E" = -151649.8   $ Sizing
 "HSpCap_Sys_M_OfficeSm_N" = -115191.4   $ Sizing
 "HSpCap_Sys_M_OfficeSm_S" = -159222.9   $ Sizing
 "HSpCap_Sys_M_OfficeSm_W" = -140377.2   $ Sizing
 "HSpCap_Sys_M_Restrm_C" = -25377.46   $ Sizing
 "HSpCap_Sys_M_StorSm_C" = -60606.36   $ Sizing
 "HSpCap_Sys_T_Break_C" = -8537.785   $ Sizing
 "HSpCap_Sys_T_Conf_C" = -12843.11   $ Sizing
 "HSpCap_Sys_T_CopyRm_C" = -3155.687   $ Sizing
 "HSpCap_Sys_T_Cordr_C" = -11616.1   $ Sizing
 "HSpCap_Sys_T_Cordr_E" = -5091.939   $ Sizing
 "HSpCap_Sys_T_Cordr_N" = -4812.194   $ Sizing
 "HSpCap_Sys_T_Cordr_S" = -3710.066   $ Sizing
 "HSpCap_Sys_T_Cordr_W" = -4855.837   $ Sizing
 "HSpCap_Sys_T_LobWait_C" = -9402.304   $ Sizing
 "HSpCap_Sys_T_MechElec_C" = -4531.099   $ Sizing
 "HSpCap_Sys_T_OfficeOpn_C" = -27190.86   $ Sizing
 "HSpCap_Sys_T_OfficeOpn_E" = -24684.82   $ Sizing
 "HSpCap_Sys_T_OfficeOpn_N" = -19559.84   $ Sizing
 "HSpCap_Sys_T_OfficeOpn_S" = -25944.75   $ Sizing
 "HSpCap_Sys_T_OfficeOpn_W" = -23092.76   $ Sizing
 "HSpCap_Sys_T_OfficeSm_C" = -3781.912   $ Sizing
 "HSpCap_Sys_T_OfficeSm_E" = -18686.52   $ Sizing
 "HSpCap_Sys_T_OfficeSm_N" = -16676.62   $ Sizing
 "HSpCap_Sys_T_OfficeSm_S" = -18957.85   $ Sizing
 "HSpCap_Sys_T_OfficeSm_W" = -19129.17   $ Sizing
 "HSpCap_Sys_T_Restrm_C" = -3172.183   $ Sizing
 "HSpCap_Sys_T_StorSm_C" = -6450.425   $ Sizing
 "HtCap_Sys_L_Break_C" = -10873.01   $ Sizing
 "HtCap_Sys_L_Conf_C" = -15991.37   $ Sizing
 "HtCap_Sys_L_CopyRm_C" = -3164.052   $ Sizing
 "HtCap_Sys_L_Cordr_C" = -16932.53   $ Sizing
 "HtCap_Sys_L_Cordr_E" = -5629.354   $ Sizing
 "HtCap_Sys_L_Cordr_N" = -4162.984   $ Sizing
 "HtCap_Sys_L_Cordr_S" = -5989.038   $ Sizing
 "HtCap_Sys_L_Cordr_W" = -5387.648   $ Sizing
 "HtCap_Sys_L_LobWait_C" = -10433.31   $ Sizing
 "HtCap_Sys_L_MechElec_C" = -4017.828   $ Sizing
 "HtCap_Sys_L_OfficeOpn_C" = -49629.83   $ Sizing
 "HtCap_Sys_L_OfficeOpn_E" = -48634.99   $ Sizing
 "HtCap_Sys_L_OfficeOpn_N" = -23421.17   $ Sizing
 "HtCap_Sys_L_OfficeOpn_S" = -49677.21   $ Sizing
 "HtCap_Sys_L_OfficeOpn_W" = -46819.46   $ Sizing
 "HtCap_Sys_L_OfficeSm_C" = -6218.048   $ Sizing
 "HtCap_Sys_L_OfficeSm_E" = -34112.93   $ Sizing
 "HtCap_Sys_L_OfficeSm_N" = -14450.05   $ Sizing
 "HtCap_Sys_L_OfficeSm_S" = -35723.54   $ Sizing
 "HtCap_Sys_L_OfficeSm_W" = -32506.76   $ Sizing
 "HtCap_Sys_L_Restrm_C" = -6344.366   $ Sizing
 "HtCap_Sys_L_StorSm_C" = -10020.26   $ Sizing
 "HtCap_Sys_M_Break_C" = -96179.45   $ Sizing
 "HtCap_Sys_M_Conf_C" = -142541   $ Sizing
 "HtCap_Sys_M_CopyRm_C" = -31632.91   $ Sizing
 "HtCap_Sys_M_Cordr_C" = -177625.6   $ Sizing
 "HtCap_Sys_M_Cordr_E" = -58631.47   $ Sizing
 "HtCap_Sys_M_Cordr_N" = -34669.69   $ Sizing
 "HtCap_Sys_M_Cordr_S" = -59439.21   $ Sizing
 "HtCap_Sys_M_Cordr_W" = -51785.6   $ Sizing
 "HtCap_Sys_M_LobWait_C" = -107587.2   $ Sizing
 "HtCap_Sys_M_MechElec_C" = -33197.36   $ Sizing
 "HtCap_Sys_M_OfficeOpn_C" = -465416.9   $ Sizing
 "HtCap_Sys_M_OfficeOpn_E" = -435109.2   $ Sizing
 "HtCap_Sys_M_OfficeOpn_N" = -224461.7   $ Sizing
 "HtCap_Sys_M_OfficeOpn_S" = -445889.1   $ Sizing
 "HtCap_Sys_M_OfficeOpn_W" = -403006.8   $ Sizing
 "HtCap_Sys_M_OfficeSm_C" = -63862.66   $ Sizing
 "HtCap_Sys_M_OfficeSm_E" = -303299.5   $ Sizing
 "HtCap_Sys_M_OfficeSm_N" = -134075.4   $ Sizing
 "HtCap_Sys_M_OfficeSm_S" = -318445.8   $ Sizing
 "HtCap_Sys_M_OfficeSm_W" = -280754.5   $ Sizing
 "HtCap_Sys_M_Restrm_C" = -50754.93   $ Sizing
 "HtCap_Sys_M_StorSm_C" = -86112.21   $ Sizing
 "HtCap_Sys_T_Break_C" = -11252.82   $ Sizing
 "HtCap_Sys_T_Conf_C" = -17048.04   $ Sizing
 "HtCap_Sys_T_CopyRm_C" = -3744.931   $ Sizing
 "HtCap_Sys_T_Cordr_C" = -19691.86   $ Sizing
 "HtCap_Sys_T_Cordr_E" = -6520.809   $ Sizing
 "HtCap_Sys_T_Cordr_N" = -3815.607   $ Sizing
 "HtCap_Sys_T_Cordr_S" = -6742.267   $ Sizing
 "HtCap_Sys_T_Cordr_W" = -5837.141   $ Sizing
 "HtCap_Sys_T_LobWait_C" = -12454.7   $ Sizing
 "HtCap_Sys_T_MechElec_C" = -4373.717   $ Sizing
 "HtCap_Sys_T_OfficeOpn_C" = -54381.71   $ Sizing
 "HtCap_Sys_T_OfficeOpn_E" = -49369.63   $ Sizing
 "HtCap_Sys_T_OfficeOpn_N" = -25897.16   $ Sizing
 "HtCap_Sys_T_OfficeOpn_S" = -51889.51   $ Sizing
 "HtCap_Sys_T_OfficeOpn_W" = -46185.52   $ Sizing
 "HtCap_Sys_T_OfficeSm_C" = -7563.824   $ Sizing
 "HtCap_Sys_T_OfficeSm_E" = -35458.83   $ Sizing
 "HtCap_Sys_T_OfficeSm_N" = -16070.98   $ Sizing
 "HtCap_Sys_T_OfficeSm_S" = -37915.7   $ Sizing
 "HtCap_Sys_T_OfficeSm_W" = -33054.96   $ Sizing
 "HtCap_Sys_T_Restrm_C" = -6344.366   $ Sizing
 "HtCap_Sys_T_StorSm_C" = -10004.6   $ Sizing
..

##include Templates\OfL_DX_SZ.inp
END ..
COMPUTE ..
STOP ..
