INPUT ..

##fileprefix C:\Users\jglasskatz\MASControl3\
##set1 IsSizing FALSE
##set1 CoolType DX
##set1 HeatType FURNACE
##set1 EU_HrRepVar 0
##set1 BldgVint 1996
##set1 BldgLoc CZ03

 ##set1 mBFMult 1   $ IP Tech: RefgChg-NRes-Std

PARAMETER
 "AltFactor" = 1.00025   $ IP Non-Tech
 "BF_fFlow" = SpltAC1Sp-ge45_BF_fFlow   $ Msr (Multi)TechID: StdNResSplitAC-45to55
 "BF_fT" = SpltAC1Sp-ge45_BF_fT   $ Msr (Multi)TechID: StdNResSplitAC-45to55
 "BldgEconoFlag" = 1   $ IP Non-Tech
 "Break_EWSF" = 1   $ IP Non-Tech
 "Break_LWSF" = 1.1   $ IP Non-Tech
 "CDD_DBHi10" = 74   $ IP Non-Tech
 "CDD_DBHi7" = 78   $ IP Non-Tech
 "CDD_DBHi8" = 73   $ IP Non-Tech
 "CDD_DBHi9" = 83   $ IP Non-Tech
 "CDD_DBRange10" = 25   $ IP Non-Tech
 "CDD_DBRange7" = 24   $ IP Non-Tech
 "CDD_DBRange8" = 10   $ IP Non-Tech
 "CDD_DBRange9" = 25   $ IP Non-Tech
 "CDD_Day10" = 15   $ IP Non-Tech
 "CDD_Day7" = 16   $ IP Non-Tech
 "CDD_Day8" = 20   $ IP Non-Tech
 "CDD_Day9" = 17   $ IP Non-Tech
 "CDD_HrHi10" = 16   $ IP Non-Tech
 "CDD_HrHi7" = 13   $ IP Non-Tech
 "CDD_HrHi8" = 17   $ IP Non-Tech
 "CDD_HrHi9" = 15   $ IP Non-Tech
 "CDD_HrLo10" = 8   $ IP Non-Tech
 "CDD_HrLo7" = 5   $ IP Non-Tech
 "CDD_HrLo8" = 7   $ IP Non-Tech
 "CDD_HrLo9" = 7   $ IP Non-Tech
 "CDD_WB10" = 60.13755417   $ IP Non-Tech
 "CDD_WB7" = 64.09266663   $ IP Non-Tech
 "CDD_WB8" = 62.55457306   $ IP Non-Tech
 "CDD_WB9" = 64.6887207   $ IP Non-Tech
 "CEIR_fPLR_Hot" = SpltAC1Sp-ge45_CEIR_fPLR_Hot   $ Msr (Multi)TechID: StdNResSplitAC-45to55
 "CEIR_fPLR_Mod" = SpltAC1Sp-ge45_CEIR_fPLR_Mod   $ Msr (Multi)TechID: StdNResSplitAC-45to55
 "CEIR_fPLR_Tem" = SpltAC1Sp-ge45_CEIR_fPLR_Tem   $ Msr (Multi)TechID: StdNResSplitAC-45to55
 "CLoss_fPLR_Hot" = SpltAC1Sp-ge45_CLoss_fPLR_Hot   $ Msr (Multi)TechID: StdNResSplitAC-45to55
 "CLoss_fPLR_Mod" = SpltAC1Sp-ge45_CLoss_fPLR_Mod   $ Msr (Multi)TechID: StdNResSplitAC-45to55
 "CLoss_fPLR_Tem" = SpltAC1Sp-ge45_CLoss_fPLR_Tem   $ Msr (Multi)TechID: StdNResSplitAC-45to55
 "COP47" = 0   $ Msr (Multi)TechID: StdNResSplitAC-45to55
 "CZ_Category" = Tem   $ IP Non-Tech
 "CapRange" = ge45   $ Msr (Multi)TechID: StdNResSplitAC-45to55
 "CfmPerBtuh" = 0.03263   $ Msr (Multi)TechID: StdNResSplitAC-45to55
 "ChwVintEconoFlag" = 1   $ IP Non-Tech
 "ClCap_fT" = SpltAC1Sp-ge45_ClCap_fT   $ Msr (Multi)TechID: StdNResSplitAC-45to55
 "ClSH_fT" = SpltAC1Sp-ge45_ClSH_fT   $ Msr (Multi)TechID: StdNResSplitAC-45to55
 "CoilBF" = 0.106518182   $ Msr (Multi)TechID: StdNResSplitAC-45to55
 "CondWPerBtuh" = 0   $ Msr (Multi)TechID: StdNResSplitAC-45to55
 "Conference_EWSF" = 1.05   $ IP Non-Tech
 "Conference_LWSF" = 1.4   $ IP Non-Tech
 "CoolSensCap" = 0.759218182   $ Msr (Multi)TechID: StdNResSplitAC-45to55
 "CoolSetT" = 45   $ IP Non-Tech
 "CoolType" = DX   $ IP Non-Tech
 "CoolingEIR" = 0.2466   $ Msr (Multi)TechID: StdNResSplitAC-45to55
 "CopyRoom_EWSF" = 1.575   $ IP Non-Tech
 "CopyRoom_LWSF" = 1.3   $ IP Non-Tech
 "CorridorStairway_EWSF" = 0.21   $ IP Non-Tech
 "CorridorStairway_LWSF" = 0.6   $ IP Non-Tech
 "CrnkEIR" = 0.002466   $ Msr (Multi)TechID: StdNResSplitAC-45to55
 "CrnkMaxT" = 50   $ Msr (Multi)TechID: StdNResSplitAC-45to55
 "DXType" = SplitSEER   $ Msr (Multi)TechID: StdNResSplitAC-45to55
 "DesCoolT" = 75   $ IP Non-Tech
 "DesHeatT" = 73   $ IP Non-Tech
 "EER" = 11.81793103   $ Msr (Multi)TechID: StdNResSplitAC-45to55
 "EIR_fT" = SpltAC1Sp-ge45_EIR_fT   $ Msr (Multi)TechID: StdNResSplitAC-45to55
 "EconoCtrl" = FIXED   $ Msr (Multi)TechID: StdNResSplitAC-45to55
 "EconoEnthLimit" = 28   $ IP Non-Tech
 "EconoTempLimit" = 70   $ IP Non-Tech
 "Elevation" = 6   $ IP Non-Tech
 "FanEirPlr" = TwoSpeedFan   $ Msr (Multi)TechID: StdNResSplitAC-45to55
 "FanWPerCfm" = 0.294   $ Msr (Multi)TechID: StdNResSplitAC-45to55
 "HDD_CloudAmt1" = 0   $ IP Non-Tech
 "HDD_DBHi1" = 51   $ IP Non-Tech
 "HDD_DBRange1" = 17   $ IP Non-Tech
 "HDD_Day1" = 15   $ IP Non-Tech
 "HDD_HrHi1" = 16   $ IP Non-Tech
 "HDD_HrLo1" = 9   $ IP Non-Tech
 "HDD_WB1" = 42.6   $ IP Non-Tech
 "HDD_WindSpd1" = 15   $ IP Non-Tech
 "HIR_fT" = 0   $ Msr (Multi)TechID: StdNResSplitAC-45to55
 "HSPF" = 0   $ Msr (Multi)TechID: StdNResSplitAC-45to55
 "HeatSrc" = FURNACE   $ IP Non-Tech
 "HeatSrcTU" = HEAT-PUMP   $ IP Non-Tech
 "HeatType" = GasFurn   $ IP Non-Tech
 "HeatTypeTU" = HEAT-PUMP   $ IP Non-Tech
 "HtCap_fT" = 0   $ Msr (Multi)TechID: StdNResSplitAC-45to55
 "HtCoolCapRatio" = 0   $ Msr (Multi)TechID: StdNResSplitAC-45to55
 "HtgEIR" = 0   $ Msr (Multi)TechID: StdNResSplitAC-45to55
 "IndoorFanMode" = CONTINUOUS   $ IP Non-Tech
 "KT_TransferAir" = No   $ IP Non-Tech
 "Latitude" = 37.7   $ IP Non-Tech
 "LobbyWaiting_EWSF" = 0.5125   $ IP Non-Tech
 "LobbyWaiting_LWSF" = 1.3   $ IP Non-Tech
 "Longitude" = 122.2   $ IP Non-Tech
 "LowSpdCapRatio" = 1   $ Msr (Multi)TechID: StdNResSplitAC-45to55
 "LowSpdCfmRatio" = 1   $ Msr (Multi)TechID: StdNResSplitAC-45to55
 "MZFanMechEff" = 0.58   $ IP Non-Tech
 "MZHasRetFan" = FALSE   $ IP Non-Tech
 "MZ_RFanWPerCfm" = 0.37   $ IP Non-Tech
 "MZ_SFanWPerCfm" = 0.71   $ IP Non-Tech
 "MZ_SupFanStatic" = 2.25   $ IP Non-Tech
 "MaxOAFrac" = 1   $ Msr (Multi)TechID: StdNResSplitAC-45to55
 "MaxSupT_MZ" = 100   $ IP Non-Tech
 "MaxSupT_SZ" = 100   $ IP Non-Tech
 "MaxSupT_TU" = 90   $ IP Non-Tech
 "MechElecRoom_EWSF" = 0.21   $ IP Non-Tech
 "MechElecRoom_LWSF" = 0.7   $ IP Non-Tech
 "MinCfmPerSF" = 0.4   $ IP Non-Tech
 "MinSupT" = 55   $ IP Non-Tech
 "NumStages" = 1   $ Msr (Multi)TechID: StdNResSplitAC-45to55
 "OccCoolT" = 76   $ IP Non-Tech
 "OccHeatT" = 72   $ IP Non-Tech
 "OfficeOpen_EWSF" = 1.575   $ IP Non-Tech
 "OfficeOpen_LWSF" = 1.2   $ IP Non-Tech
 "OfficeSmall_EWSF" = 1.575   $ IP Non-Tech
 "OfficeSmall_LWSF" = 1.3   $ IP Non-Tech
 "PkgDxVintEconoFlag" = 0   $ IP Non-Tech
 "Restroom_EWSF" = 0.21   $ IP Non-Tech
 "Restroom_LWSF" = 0.6   $ IP Non-Tech
 "SEER" = 14   $ Msr (Multi)TechID: StdNResSplitAC-45to55
 "SZFanMechEff" = 0.58   $ IP Non-Tech
 "SZHasRetFan" = FALSE   $ IP Non-Tech
 "SZ_Is_2Spd" = FALSE   $ IP Non-Tech
 "SZ_SFanWPerCfm" = 0.46   $ IP Non-Tech
 "SZ_SupFanStatic" = 0.75   $ IP Non-Tech
 "Sector" = Any   $ Msr (Multi)TechID: StdNResSplitAC-45to55
 "StorageSmlCond_EWSF" = 0.21   $ IP Non-Tech
 "StorageSmlCond_LWSF" = 0.6   $ IP Non-Tech
 "SubType" = AC   $ Msr (Multi)TechID: StdNResSplitAC-45to55
 "T24GlzTbl" = CZTbl   $ IP Non-Tech
 "TermUnitFanMechEff" = 1   $ IP Non-Tech
 "TermUnitFanMode" = INTERMITTENT   $ IP Non-Tech
 "TotCoolCap" = 52519.36364   $ Msr (Multi)TechID: StdNResSplitAC-45to55
 "TwrSetpt" = 80   $ IP Non-Tech
 "UnocCoolT" = 86   $ IP Non-Tech
 "UnocHeatT" = 62   $ IP Non-Tech
 "UseEconoVintApplic" = FALSE   $ Msr (Multi)TechID: StdNResSplitAC-45to55
 "WlhpVintEconoFlag" = 0   $ IP Non-Tech
 "DuctDT" = 1   $ IP Tech: ComDuctInsul-1
 "DuctAirLoss" = 0   $ IP Tech: ComDuctLeak-0
 "DuctLossOAFrac" = 0   $ IP Tech: ComDuctLeak-0
 "ComRoofInsCalc" = FromUo   $ IP Tech: ComRoofIns-Hvy-0.06
 "ComRoofInsR" = -999   $ IP Tech: ComRoofIns-Hvy-0.06
 "ComRoofUo" = 0.06   $ IP Tech: ComRoofIns-Hvy-0.06
 "ComEWInsCalc" = FromUo   $ IP Tech: ComWallIns-MFrm-0.14
 "ComEWInsR" = -999   $ IP Tech: ComWallIns-MFrm-0.14
 "ComEWUo" = 0.14   $ IP Tech: ComWallIns-MFrm-0.14
 "ComN_SHGC" = 0.82   $ IP Tech: NResWin-ComN-1.23-0.82
 "ComN_UFactor" = 1.23   $ IP Tech: NResWin-ComN-1.23-0.82
 "ComN_VisTrans" = 0.9   $ IP Tech: NResWin-ComN-1.23-0.82
 "ComN_WinCode" = G1000   $ IP Tech: NResWin-ComN-1.23-0.82
 "ComN_WinFrmFrac" = 0.17   $ IP Tech: NResWin-ComN-1.23-0.82
 "ComN_WinFrmU" = 1   $ IP Tech: NResWin-ComN-1.23-0.82
 "ComO_SHGC" = 0.62   $ IP Tech: NResWin-ComO-1.23-0.62
 "ComO_UFactor" = 1.23   $ IP Tech: NResWin-ComO-1.23-0.62
 "ComO_VisTrans" = 0.69   $ IP Tech: NResWin-ComO-1.23-0.62
 "ComO_WinCode" = G1200   $ IP Tech: NResWin-ComO-1.23-0.62
 "ComO_WinFrmFrac" = 0.17   $ IP Tech: NResWin-ComO-1.23-0.62
 "ComO_WinFrmU" = 1   $ IP Tech: NResWin-ComO-1.23-0.62
 "LtgMsrApplic" = ALL   $ IP Tech: NonResLtgRefPre
 "LtgSav_CFL" = 0   $ IP Tech: NonResLtgRefPre
 "LtgSav_EX" = 0   $ IP Tech: NonResLtgRefPre
 "LtgSav_HB" = 0   $ IP Tech: NonResLtgRefPre
 "LtgSav_LF" = 0   $ IP Tech: NonResLtgRefPre
 "LtgSav_SP" = 0   $ IP Tech: NonResLtgRefPre
 "CEIR_fPLR" = PSZ65to135_CEIR_fPLR   $ IP Tech: PkgAC1SpH-65to135-E10
 "CLoss_fPLR" = PSZ65to135_CLoss_fPLR   $ IP Tech: PkgAC1SpH-65to135-E10
 "COP" = -1   $ IP Tech: PkgAC1SpH-65to135-E10
 "HtgFuel" = Gas   $ IP Tech: PkgAC1SpH-65to135-E10
 "IEER" = 11.87   $ IP Tech: PkgAC1SpH-65to135-E10
 "NominalCap" = 15   $ IP Tech: PkgAC1SpH-65to135-E10
 "RatedEER" = 10   $ IP Tech: PkgAC1SpH-65to135-E10
 "RatedSupMtrClass" = HiEff   $ IP Tech: PkgAC1SpH-65to135-E10
 "SizeRange" = 65to135   $ IP Tech: PkgAC1SpH-65to135-E10
 "SupMotEff" = 0.84   $ IP Tech: PkgAC1SpH-65to135-E10
 "Tier" = 0   $ IP Tech: PkgAC1SpH-65to135-E10
 "FanPwrMult" = 1   $ IP Tech: PkgFurn-0.80AFUE
 "FurnAFUE" = 0.8   $ IP Tech: PkgFurn-0.80AFUE
 "FurnEt" = 0.82   $ IP Tech: PkgFurn-0.80AFUE
 "FurnaceAuxKW" = 0.1   $ IP Tech: PkgFurn-0.80AFUE
 "HIR_fPLR" = Furnace-HIR-fPLR   $ IP Tech: PkgFurn-0.80AFUE
 "VSM" = FALSE   $ IP Tech: PkgFurn-0.80AFUE
 "BFMult" = 1   $ IP Tech: RefgChg-NRes-Std
 "CoolEirMult" = 1   $ IP Tech: RefgChg-NRes-Std
 "SensCoolCapMult" = 1   $ IP Tech: RefgChg-NRes-Std
 "TotCoolCapMult" = 1   $ IP Tech: RefgChg-NRes-Std
 "AltAdjFactor" = 1.000254   $ Sizing
 "CAssFlo_L_Break_CZn" = 365.3966   $ Sizing
 "CAssFlo_L_Conf_CZn" = 433.6572   $ Sizing
 "CAssFlo_L_CopyRm_CZn" = 110.7367   $ Sizing
 "CAssFlo_L_Cordr_CZn" = 561.3534   $ Sizing
 "CAssFlo_L_Cordr_EZn" = 289.3215   $ Sizing
 "CAssFlo_L_Cordr_NZn" = 120.9093   $ Sizing
 "CAssFlo_L_Cordr_SZn" = 313.9992   $ Sizing
 "CAssFlo_L_Cordr_WZn" = 289.1623   $ Sizing
 "CAssFlo_L_LobWait_CZn" = 372.5478   $ Sizing
 "CAssFlo_L_MechElec_CZn" = 133.2005   $ Sizing
 "CAssFlo_L_OfficeOpn_CZn" = 1725.964   $ Sizing
 "CAssFlo_L_OfficeOpn_EZn" = 2263.584   $ Sizing
 "CAssFlo_L_OfficeOpn_NZn" = 976.5289   $ Sizing
 "CAssFlo_L_OfficeOpn_SZn" = 2357.074   $ Sizing
 "CAssFlo_L_OfficeOpn_WZn" = 2287.637   $ Sizing
 "CAssFlo_L_OfficeSm_CZn" = 225.1659   $ Sizing
 "CAssFlo_L_OfficeSm_EZn" = 1656.79   $ Sizing
 "CAssFlo_L_OfficeSm_NZn" = 627.7918   $ Sizing
 "CAssFlo_L_OfficeSm_SZn" = 1767.217   $ Sizing
 "CAssFlo_L_OfficeSm_WZn" = 1675.86   $ Sizing
 "CAssFlo_L_Restrm_CZn" = 210.3307   $ Sizing
 "CAssFlo_L_StorSm_CZn" = 355.556   $ Sizing
 "CAssFlo_M_Break_CZn" = 399.6308   $ Sizing
 "CAssFlo_M_Conf_CZn" = 489.3016   $ Sizing
 "CAssFlo_M_CopyRm_CZn" = 139.0013   $ Sizing
 "CAssFlo_M_Cordr_CZn" = 846.1697   $ Sizing
 "CAssFlo_M_Cordr_EZn" = 336.0244   $ Sizing
 "CAssFlo_M_Cordr_NZn" = 142.0834   $ Sizing
 "CAssFlo_M_Cordr_SZn" = 364.6288   $ Sizing
 "CAssFlo_M_Cordr_WZn" = 326.3408   $ Sizing
 "CAssFlo_M_LobWait_CZn" = 490.3119   $ Sizing
 "CAssFlo_M_MechElec_CZn" = 151.787   $ Sizing
 "CAssFlo_M_OfficeOpn_CZn" = 2024.142   $ Sizing
 "CAssFlo_M_OfficeOpn_EZn" = 2406.656   $ Sizing
 "CAssFlo_M_OfficeOpn_NZn" = 1102.505   $ Sizing
 "CAssFlo_M_OfficeOpn_SZn" = 2590.05   $ Sizing
 "CAssFlo_M_OfficeOpn_WZn" = 2400.546   $ Sizing
 "CAssFlo_M_OfficeSm_CZn" = 295.7894   $ Sizing
 "CAssFlo_M_OfficeSm_EZn" = 1746.33   $ Sizing
 "CAssFlo_M_OfficeSm_NZn" = 710.9318   $ Sizing
 "CAssFlo_M_OfficeSm_SZn" = 1925.467   $ Sizing
 "CAssFlo_M_OfficeSm_WZn" = 1767.029   $ Sizing
 "CAssFlo_M_Restrm_CZn" = 210.3307   $ Sizing
 "CAssFlo_M_StorSm_CZn" = 392.4247   $ Sizing
 "CAssFlo_T_Break_CZn" = 376.731   $ Sizing
 "CAssFlo_T_Conf_CZn" = 454.4559   $ Sizing
 "CAssFlo_T_CopyRm_CZn" = 129.037   $ Sizing
 "CAssFlo_T_Cordr_CZn" = 731.0651   $ Sizing
 "CAssFlo_T_Cordr_EZn" = 295.9553   $ Sizing
 "CAssFlo_T_Cordr_NZn" = 125.6696   $ Sizing
 "CAssFlo_T_Cordr_SZn" = 328.5121   $ Sizing
 "CAssFlo_T_Cordr_WZn" = 291.5033   $ Sizing
 "CAssFlo_T_LobWait_CZn" = 435.9342   $ Sizing
 "CAssFlo_T_MechElec_CZn" = 170.3511   $ Sizing
 "CAssFlo_T_OfficeOpn_CZn" = 1852.785   $ Sizing
 "CAssFlo_T_OfficeOpn_EZn" = 2177.514   $ Sizing
 "CAssFlo_T_OfficeOpn_NZn" = 1025.362   $ Sizing
 "CAssFlo_T_OfficeOpn_SZn" = 2395.911   $ Sizing
 "CAssFlo_T_OfficeOpn_WZn" = 2181.369   $ Sizing
 "CAssFlo_T_OfficeSm_CZn" = 264.3   $ Sizing
 "CAssFlo_T_OfficeSm_EZn" = 1635.777   $ Sizing
 "CAssFlo_T_OfficeSm_NZn" = 674.5426   $ Sizing
 "CAssFlo_T_OfficeSm_SZn" = 1826.008   $ Sizing
 "CAssFlo_T_OfficeSm_WZn" = 1660.172   $ Sizing
 "CAssFlo_T_Restrm_CZn" = 210.3307   $ Sizing
 "CAssFlo_T_StorSm_CZn" = 331.6761   $ Sizing
 "CHRtFlo_Sys_L_Break_C" = 365.3966   $ Sizing
 "CHRtFlo_Sys_L_Conf_C" = 433.6572   $ Sizing
 "CHRtFlo_Sys_L_CopyRm_C" = 110.7367   $ Sizing
 "CHRtFlo_Sys_L_Cordr_C" = 561.3534   $ Sizing
 "CHRtFlo_Sys_L_Cordr_E" = 289.3215   $ Sizing
 "CHRtFlo_Sys_L_Cordr_N" = 120.9093   $ Sizing
 "CHRtFlo_Sys_L_Cordr_S" = 313.9992   $ Sizing
 "CHRtFlo_Sys_L_Cordr_W" = 289.1623   $ Sizing
 "CHRtFlo_Sys_L_LobWait_C" = 372.5478   $ Sizing
 "CHRtFlo_Sys_L_MechElec_C" = 133.2005   $ Sizing
 "CHRtFlo_Sys_L_OfficeOpn_C" = 1725.964   $ Sizing
 "CHRtFlo_Sys_L_OfficeOpn_E" = 2263.584   $ Sizing
 "CHRtFlo_Sys_L_OfficeOpn_N" = 976.5289   $ Sizing
 "CHRtFlo_Sys_L_OfficeOpn_S" = 2357.074   $ Sizing
 "CHRtFlo_Sys_L_OfficeOpn_W" = 2287.637   $ Sizing
 "CHRtFlo_Sys_L_OfficeSm_C" = 225.1659   $ Sizing
 "CHRtFlo_Sys_L_OfficeSm_E" = 1656.79   $ Sizing
 "CHRtFlo_Sys_L_OfficeSm_N" = 627.7918   $ Sizing
 "CHRtFlo_Sys_L_OfficeSm_S" = 1767.217   $ Sizing
 "CHRtFlo_Sys_L_OfficeSm_W" = 1675.86   $ Sizing
 "CHRtFlo_Sys_L_Restrm_C" = 210.3307   $ Sizing
 "CHRtFlo_Sys_L_StorSm_C" = 355.556   $ Sizing
 "CHRtFlo_Sys_M_Break_C" = 3197.046   $ Sizing
 "CHRtFlo_Sys_M_Conf_C" = 3914.413   $ Sizing
 "CHRtFlo_Sys_M_CopyRm_C" = 1112.011   $ Sizing
 "CHRtFlo_Sys_M_Cordr_C" = 6769.357   $ Sizing
 "CHRtFlo_Sys_M_Cordr_E" = 2688.195   $ Sizing
 "CHRtFlo_Sys_M_Cordr_N" = 1136.667   $ Sizing
 "CHRtFlo_Sys_M_Cordr_S" = 2917.031   $ Sizing
 "CHRtFlo_Sys_M_Cordr_W" = 2610.727   $ Sizing
 "CHRtFlo_Sys_M_LobWait_C" = 3922.495   $ Sizing
 "CHRtFlo_Sys_M_MechElec_C" = 1214.296   $ Sizing
 "CHRtFlo_Sys_M_OfficeOpn_C" = 16193.14   $ Sizing
 "CHRtFlo_Sys_M_OfficeOpn_E" = 19253.25   $ Sizing
 "CHRtFlo_Sys_M_OfficeOpn_N" = 8820.04   $ Sizing
 "CHRtFlo_Sys_M_OfficeOpn_S" = 20720.4   $ Sizing
 "CHRtFlo_Sys_M_OfficeOpn_W" = 19204.37   $ Sizing
 "CHRtFlo_Sys_M_OfficeSm_C" = 2366.315   $ Sizing
 "CHRtFlo_Sys_M_OfficeSm_E" = 13970.64   $ Sizing
 "CHRtFlo_Sys_M_OfficeSm_N" = 5687.454   $ Sizing
 "CHRtFlo_Sys_M_OfficeSm_S" = 15403.74   $ Sizing
 "CHRtFlo_Sys_M_OfficeSm_W" = 14136.23   $ Sizing
 "CHRtFlo_Sys_M_Restrm_C" = 1682.646   $ Sizing
 "CHRtFlo_Sys_M_StorSm_C" = 3139.397   $ Sizing
 "CHRtFlo_Sys_T_Break_C" = 376.731   $ Sizing
 "CHRtFlo_Sys_T_Conf_C" = 454.4559   $ Sizing
 "CHRtFlo_Sys_T_CopyRm_C" = 129.037   $ Sizing
 "CHRtFlo_Sys_T_Cordr_C" = 731.0651   $ Sizing
 "CHRtFlo_Sys_T_Cordr_E" = 295.9553   $ Sizing
 "CHRtFlo_Sys_T_Cordr_N" = 125.6696   $ Sizing
 "CHRtFlo_Sys_T_Cordr_S" = 328.5121   $ Sizing
 "CHRtFlo_Sys_T_Cordr_W" = 291.5033   $ Sizing
 "CHRtFlo_Sys_T_LobWait_C" = 435.9342   $ Sizing
 "CHRtFlo_Sys_T_MechElec_C" = 170.3511   $ Sizing
 "CHRtFlo_Sys_T_OfficeOpn_C" = 1852.785   $ Sizing
 "CHRtFlo_Sys_T_OfficeOpn_E" = 2177.514   $ Sizing
 "CHRtFlo_Sys_T_OfficeOpn_N" = 1025.362   $ Sizing
 "CHRtFlo_Sys_T_OfficeOpn_S" = 2395.911   $ Sizing
 "CHRtFlo_Sys_T_OfficeOpn_W" = 2181.369   $ Sizing
 "CHRtFlo_Sys_T_OfficeSm_C" = 264.3   $ Sizing
 "CHRtFlo_Sys_T_OfficeSm_E" = 1635.777   $ Sizing
 "CHRtFlo_Sys_T_OfficeSm_N" = 674.5426   $ Sizing
 "CHRtFlo_Sys_T_OfficeSm_S" = 1826.008   $ Sizing
 "CHRtFlo_Sys_T_OfficeSm_W" = 1660.172   $ Sizing
 "CHRtFlo_Sys_T_Restrm_C" = 210.3307   $ Sizing
 "CHRtFlo_Sys_T_StorSm_C" = 331.6761   $ Sizing
 "CRtdFlo_Sys_L_Break_C" = 365.3966   $ Sizing
 "CRtdFlo_Sys_L_Conf_C" = 433.6572   $ Sizing
 "CRtdFlo_Sys_L_CopyRm_C" = 110.7367   $ Sizing
 "CRtdFlo_Sys_L_Cordr_C" = 561.3534   $ Sizing
 "CRtdFlo_Sys_L_Cordr_E" = 289.3215   $ Sizing
 "CRtdFlo_Sys_L_Cordr_N" = 120.9093   $ Sizing
 "CRtdFlo_Sys_L_Cordr_S" = 313.9992   $ Sizing
 "CRtdFlo_Sys_L_Cordr_W" = 289.1623   $ Sizing
 "CRtdFlo_Sys_L_LobWait_C" = 372.5478   $ Sizing
 "CRtdFlo_Sys_L_MechElec_C" = 133.2005   $ Sizing
 "CRtdFlo_Sys_L_OfficeOpn_C" = 1725.964   $ Sizing
 "CRtdFlo_Sys_L_OfficeOpn_E" = 2263.584   $ Sizing
 "CRtdFlo_Sys_L_OfficeOpn_N" = 976.5288   $ Sizing
 "CRtdFlo_Sys_L_OfficeOpn_S" = 2357.074   $ Sizing
 "CRtdFlo_Sys_L_OfficeOpn_W" = 2287.637   $ Sizing
 "CRtdFlo_Sys_L_OfficeSm_C" = 225.1659   $ Sizing
 "CRtdFlo_Sys_L_OfficeSm_E" = 1656.79   $ Sizing
 "CRtdFlo_Sys_L_OfficeSm_N" = 627.7918   $ Sizing
 "CRtdFlo_Sys_L_OfficeSm_S" = 1767.217   $ Sizing
 "CRtdFlo_Sys_L_OfficeSm_W" = 1675.86   $ Sizing
 "CRtdFlo_Sys_L_Restrm_C" = 210.3307   $ Sizing
 "CRtdFlo_Sys_L_StorSm_C" = 355.556   $ Sizing
 "CRtdFlo_Sys_M_Break_C" = 3197.046   $ Sizing
 "CRtdFlo_Sys_M_Conf_C" = 3914.413   $ Sizing
 "CRtdFlo_Sys_M_CopyRm_C" = 1112.011   $ Sizing
 "CRtdFlo_Sys_M_Cordr_C" = 6769.357   $ Sizing
 "CRtdFlo_Sys_M_Cordr_E" = 2688.195   $ Sizing
 "CRtdFlo_Sys_M_Cordr_N" = 1136.667   $ Sizing
 "CRtdFlo_Sys_M_Cordr_S" = 2917.031   $ Sizing
 "CRtdFlo_Sys_M_Cordr_W" = 2610.727   $ Sizing
 "CRtdFlo_Sys_M_LobWait_C" = 3922.495   $ Sizing
 "CRtdFlo_Sys_M_MechElec_C" = 1214.296   $ Sizing
 "CRtdFlo_Sys_M_OfficeOpn_C" = 16193.14   $ Sizing
 "CRtdFlo_Sys_M_OfficeOpn_E" = 19253.25   $ Sizing
 "CRtdFlo_Sys_M_OfficeOpn_N" = 8820.04   $ Sizing
 "CRtdFlo_Sys_M_OfficeOpn_S" = 20720.4   $ Sizing
 "CRtdFlo_Sys_M_OfficeOpn_W" = 19204.37   $ Sizing
 "CRtdFlo_Sys_M_OfficeSm_C" = 2366.315   $ Sizing
 "CRtdFlo_Sys_M_OfficeSm_E" = 13970.64   $ Sizing
 "CRtdFlo_Sys_M_OfficeSm_N" = 5687.454   $ Sizing
 "CRtdFlo_Sys_M_OfficeSm_S" = 15403.74   $ Sizing
 "CRtdFlo_Sys_M_OfficeSm_W" = 14136.23   $ Sizing
 "CRtdFlo_Sys_M_Restrm_C" = 1682.646   $ Sizing
 "CRtdFlo_Sys_M_StorSm_C" = 3139.397   $ Sizing
 "CRtdFlo_Sys_T_Break_C" = 376.731   $ Sizing
 "CRtdFlo_Sys_T_Conf_C" = 454.456   $ Sizing
 "CRtdFlo_Sys_T_CopyRm_C" = 129.037   $ Sizing
 "CRtdFlo_Sys_T_Cordr_C" = 731.0651   $ Sizing
 "CRtdFlo_Sys_T_Cordr_E" = 295.9553   $ Sizing
 "CRtdFlo_Sys_T_Cordr_N" = 125.6696   $ Sizing
 "CRtdFlo_Sys_T_Cordr_S" = 328.5121   $ Sizing
 "CRtdFlo_Sys_T_Cordr_W" = 291.5033   $ Sizing
 "CRtdFlo_Sys_T_LobWait_C" = 435.9342   $ Sizing
 "CRtdFlo_Sys_T_MechElec_C" = 170.3511   $ Sizing
 "CRtdFlo_Sys_T_OfficeOpn_C" = 1852.785   $ Sizing
 "CRtdFlo_Sys_T_OfficeOpn_E" = 2177.514   $ Sizing
 "CRtdFlo_Sys_T_OfficeOpn_N" = 1025.362   $ Sizing
 "CRtdFlo_Sys_T_OfficeOpn_S" = 2395.911   $ Sizing
 "CRtdFlo_Sys_T_OfficeOpn_W" = 2181.369   $ Sizing
 "CRtdFlo_Sys_T_OfficeSm_C" = 264.3   $ Sizing
 "CRtdFlo_Sys_T_OfficeSm_E" = 1635.777   $ Sizing
 "CRtdFlo_Sys_T_OfficeSm_N" = 674.5426   $ Sizing
 "CRtdFlo_Sys_T_OfficeSm_S" = 1826.008   $ Sizing
 "CRtdFlo_Sys_T_OfficeSm_W" = 1660.172   $ Sizing
 "CRtdFlo_Sys_T_Restrm_C" = 210.3307   $ Sizing
 "CRtdFlo_Sys_T_StorSm_C" = 331.6761   $ Sizing
 "CSupFlo_Sys_L_Break_C" = 365.3966   $ Sizing
 "CSupFlo_Sys_L_Conf_C" = 433.6572   $ Sizing
 "CSupFlo_Sys_L_CopyRm_C" = 110.7367   $ Sizing
 "CSupFlo_Sys_L_Cordr_C" = 561.3534   $ Sizing
 "CSupFlo_Sys_L_Cordr_E" = 289.3215   $ Sizing
 "CSupFlo_Sys_L_Cordr_N" = 120.9093   $ Sizing
 "CSupFlo_Sys_L_Cordr_S" = 313.9992   $ Sizing
 "CSupFlo_Sys_L_Cordr_W" = 289.1623   $ Sizing
 "CSupFlo_Sys_L_LobWait_C" = 372.5478   $ Sizing
 "CSupFlo_Sys_L_MechElec_C" = 133.2005   $ Sizing
 "CSupFlo_Sys_L_OfficeOpn_C" = 1725.964   $ Sizing
 "CSupFlo_Sys_L_OfficeOpn_E" = 2263.584   $ Sizing
 "CSupFlo_Sys_L_OfficeOpn_N" = 976.5289   $ Sizing
 "CSupFlo_Sys_L_OfficeOpn_S" = 2357.074   $ Sizing
 "CSupFlo_Sys_L_OfficeOpn_W" = 2287.637   $ Sizing
 "CSupFlo_Sys_L_OfficeSm_C" = 225.1659   $ Sizing
 "CSupFlo_Sys_L_OfficeSm_E" = 1656.79   $ Sizing
 "CSupFlo_Sys_L_OfficeSm_N" = 627.7918   $ Sizing
 "CSupFlo_Sys_L_OfficeSm_S" = 1767.217   $ Sizing
 "CSupFlo_Sys_L_OfficeSm_W" = 1675.86   $ Sizing
 "CSupFlo_Sys_L_Restrm_C" = 210.3307   $ Sizing
 "CSupFlo_Sys_L_StorSm_C" = 355.556   $ Sizing
 "CSupFlo_Sys_M_Break_C" = 3197.046   $ Sizing
 "CSupFlo_Sys_M_Conf_C" = 3914.413   $ Sizing
 "CSupFlo_Sys_M_CopyRm_C" = 1112.011   $ Sizing
 "CSupFlo_Sys_M_Cordr_C" = 6769.357   $ Sizing
 "CSupFlo_Sys_M_Cordr_E" = 2688.195   $ Sizing
 "CSupFlo_Sys_M_Cordr_N" = 1136.667   $ Sizing
 "CSupFlo_Sys_M_Cordr_S" = 2917.031   $ Sizing
 "CSupFlo_Sys_M_Cordr_W" = 2610.727   $ Sizing
 "CSupFlo_Sys_M_LobWait_C" = 3922.495   $ Sizing
 "CSupFlo_Sys_M_MechElec_C" = 1214.296   $ Sizing
 "CSupFlo_Sys_M_OfficeOpn_C" = 16193.14   $ Sizing
 "CSupFlo_Sys_M_OfficeOpn_E" = 19253.25   $ Sizing
 "CSupFlo_Sys_M_OfficeOpn_N" = 8820.04   $ Sizing
 "CSupFlo_Sys_M_OfficeOpn_S" = 20720.4   $ Sizing
 "CSupFlo_Sys_M_OfficeOpn_W" = 19204.37   $ Sizing
 "CSupFlo_Sys_M_OfficeSm_C" = 2366.315   $ Sizing
 "CSupFlo_Sys_M_OfficeSm_E" = 13970.64   $ Sizing
 "CSupFlo_Sys_M_OfficeSm_N" = 5687.454   $ Sizing
 "CSupFlo_Sys_M_OfficeSm_S" = 15403.74   $ Sizing
 "CSupFlo_Sys_M_OfficeSm_W" = 14136.23   $ Sizing
 "CSupFlo_Sys_M_Restrm_C" = 1682.646   $ Sizing
 "CSupFlo_Sys_M_StorSm_C" = 3139.397   $ Sizing
 "CSupFlo_Sys_T_Break_C" = 376.731   $ Sizing
 "CSupFlo_Sys_T_Conf_C" = 454.4559   $ Sizing
 "CSupFlo_Sys_T_CopyRm_C" = 129.037   $ Sizing
 "CSupFlo_Sys_T_Cordr_C" = 731.0651   $ Sizing
 "CSupFlo_Sys_T_Cordr_E" = 295.9553   $ Sizing
 "CSupFlo_Sys_T_Cordr_N" = 125.6696   $ Sizing
 "CSupFlo_Sys_T_Cordr_S" = 328.5121   $ Sizing
 "CSupFlo_Sys_T_Cordr_W" = 291.5033   $ Sizing
 "CSupFlo_Sys_T_LobWait_C" = 435.9342   $ Sizing
 "CSupFlo_Sys_T_MechElec_C" = 170.3511   $ Sizing
 "CSupFlo_Sys_T_OfficeOpn_C" = 1852.785   $ Sizing
 "CSupFlo_Sys_T_OfficeOpn_E" = 2177.514   $ Sizing
 "CSupFlo_Sys_T_OfficeOpn_N" = 1025.362   $ Sizing
 "CSupFlo_Sys_T_OfficeOpn_S" = 2395.911   $ Sizing
 "CSupFlo_Sys_T_OfficeOpn_W" = 2181.369   $ Sizing
 "CSupFlo_Sys_T_OfficeSm_C" = 264.3   $ Sizing
 "CSupFlo_Sys_T_OfficeSm_E" = 1635.777   $ Sizing
 "CSupFlo_Sys_T_OfficeSm_N" = 674.5426   $ Sizing
 "CSupFlo_Sys_T_OfficeSm_S" = 1826.008   $ Sizing
 "CSupFlo_Sys_T_OfficeSm_W" = 1660.172   $ Sizing
 "CSupFlo_Sys_T_Restrm_C" = 210.3307   $ Sizing
 "CSupFlo_Sys_T_StorSm_C" = 331.6761   $ Sizing
 "ClCap_Sys_L_Break_C" = 12524.7   $ Sizing
 "ClCap_Sys_L_Conf_C" = 18918.41   $ Sizing
 "ClCap_Sys_L_CopyRm_C" = 3795.722   $ Sizing
 "ClCap_Sys_L_Cordr_C" = 19241.51   $ Sizing
 "ClCap_Sys_L_Cordr_E" = 9917.073   $ Sizing
 "ClCap_Sys_L_Cordr_N" = 4144.409   $ Sizing
 "ClCap_Sys_L_Cordr_S" = 10762.95   $ Sizing
 "ClCap_Sys_L_Cordr_W" = 9911.617   $ Sizing
 "ClCap_Sys_L_LobWait_C" = 12769.82   $ Sizing
 "ClCap_Sys_L_MechElec_C" = 4565.713   $ Sizing
 "ClCap_Sys_L_OfficeOpn_C" = 59160.86   $ Sizing
 "ClCap_Sys_L_OfficeOpn_E" = 77588.88   $ Sizing
 "ClCap_Sys_L_OfficeOpn_N" = 33472.48   $ Sizing
 "ClCap_Sys_L_OfficeOpn_S" = 80793.45   $ Sizing
 "ClCap_Sys_L_OfficeOpn_W" = 78413.35   $ Sizing
 "ClCap_Sys_L_OfficeSm_C" = 7718.011   $ Sizing
 "ClCap_Sys_L_OfficeSm_E" = 56789.8   $ Sizing
 "ClCap_Sys_L_OfficeSm_N" = 21518.82   $ Sizing
 "ClCap_Sys_L_OfficeSm_S" = 60574.89   $ Sizing
 "ClCap_Sys_L_OfficeSm_W" = 57443.45   $ Sizing
 "ClCap_Sys_L_Restrm_C" = 7209.506   $ Sizing
 "ClCap_Sys_L_StorSm_C" = 12187.39   $ Sizing
 "ClCap_Sys_M_Break_C" = 109585.2   $ Sizing
 "ClCap_Sys_M_Conf_C" = 170767.4   $ Sizing
 "ClCap_Sys_M_CopyRm_C" = 38116.39   $ Sizing
 "ClCap_Sys_M_Cordr_C" = 232033.3   $ Sizing
 "ClCap_Sys_M_Cordr_E" = 92143.27   $ Sizing
 "ClCap_Sys_M_Cordr_N" = 38961.55   $ Sizing
 "ClCap_Sys_M_Cordr_S" = 99987.06   $ Sizing
 "ClCap_Sys_M_Cordr_W" = 89487.88   $ Sizing
 "ClCap_Sys_M_LobWait_C" = 134451.4   $ Sizing
 "ClCap_Sys_M_MechElec_C" = 41622.42   $ Sizing
 "ClCap_Sys_M_OfficeOpn_C" = 555052.3   $ Sizing
 "ClCap_Sys_M_OfficeOpn_E" = 659943.7   $ Sizing
 "ClCap_Sys_M_OfficeOpn_N" = 302324.5   $ Sizing
 "ClCap_Sys_M_OfficeOpn_S" = 710233.1   $ Sizing
 "ClCap_Sys_M_OfficeOpn_W" = 658268.1   $ Sizing
 "ClCap_Sys_M_OfficeSm_C" = 81110.18   $ Sizing
 "ClCap_Sys_M_OfficeSm_E" = 478871.8   $ Sizing
 "ClCap_Sys_M_OfficeSm_N" = 194948.9   $ Sizing
 "ClCap_Sys_M_OfficeSm_S" = 527993.9   $ Sizing
 "ClCap_Sys_M_OfficeSm_W" = 484547.6   $ Sizing
 "ClCap_Sys_M_Restrm_C" = 57676.05   $ Sizing
 "ClCap_Sys_M_StorSm_C" = 107609.1   $ Sizing
 "ClCap_Sys_T_Break_C" = 12913.21   $ Sizing
 "ClCap_Sys_T_Conf_C" = 19825.77   $ Sizing
 "ClCap_Sys_T_CopyRm_C" = 4423.003   $ Sizing
 "ClCap_Sys_T_Cordr_C" = 25058.72   $ Sizing
 "ClCap_Sys_T_Cordr_E" = 10144.46   $ Sizing
 "ClCap_Sys_T_Cordr_N" = 4307.577   $ Sizing
 "ClCap_Sys_T_Cordr_S" = 11260.41   $ Sizing
 "ClCap_Sys_T_Cordr_W" = 9991.859   $ Sizing
 "ClCap_Sys_T_LobWait_C" = 14942.52   $ Sizing
 "ClCap_Sys_T_MechElec_C" = 5839.125   $ Sizing
 "ClCap_Sys_T_OfficeOpn_C" = 63507.93   $ Sizing
 "ClCap_Sys_T_OfficeOpn_E" = 74638.66   $ Sizing
 "ClCap_Sys_T_OfficeOpn_N" = 35146.33   $ Sizing
 "ClCap_Sys_T_OfficeOpn_S" = 82124.66   $ Sizing
 "ClCap_Sys_T_OfficeOpn_W" = 74770.8   $ Sizing
 "ClCap_Sys_T_OfficeSm_C" = 9059.411   $ Sizing
 "ClCap_Sys_T_OfficeSm_E" = 56069.52   $ Sizing
 "ClCap_Sys_T_OfficeSm_N" = 23121.3   $ Sizing
 "ClCap_Sys_T_OfficeSm_S" = 62590.08   $ Sizing
 "ClCap_Sys_T_OfficeSm_W" = 56905.73   $ Sizing
 "ClCap_Sys_T_Restrm_C" = 7209.506   $ Sizing
 "ClCap_Sys_T_StorSm_C" = 11368.86   $ Sizing
 "HtCap_Sys_L_Break_C" = -20433.96   $ Sizing
 "HtCap_Sys_L_Conf_C" = -25365.23   $ Sizing
 "HtCap_Sys_L_CopyRm_C" = -7184.556   $ Sizing
 "HtCap_Sys_L_Cordr_C" = -25982.73   $ Sizing
 "HtCap_Sys_L_Cordr_E" = -10242.31   $ Sizing
 "HtCap_Sys_L_Cordr_N" = -5229.275   $ Sizing
 "HtCap_Sys_L_Cordr_S" = -10792.78   $ Sizing
 "HtCap_Sys_L_Cordr_W" = -10224.31   $ Sizing
 "HtCap_Sys_L_LobWait_C" = -20956.24   $ Sizing
 "HtCap_Sys_L_MechElec_C" = -6058.984   $ Sizing
 "HtCap_Sys_L_OfficeOpn_C" = -84705.32   $ Sizing
 "HtCap_Sys_L_OfficeOpn_E" = -74925.38   $ Sizing
 "HtCap_Sys_L_OfficeOpn_N" = -38312.65   $ Sizing
 "HtCap_Sys_L_OfficeOpn_S" = -77483.24   $ Sizing
 "HtCap_Sys_L_OfficeOpn_W" = -76764.35   $ Sizing
 "HtCap_Sys_L_OfficeSm_C" = -9168.886   $ Sizing
 "HtCap_Sys_L_OfficeSm_E" = -56041.81   $ Sizing
 "HtCap_Sys_L_OfficeSm_N" = -24685.48   $ Sizing
 "HtCap_Sys_L_OfficeSm_S" = -58691.39   $ Sizing
 "HtCap_Sys_L_OfficeSm_W" = -56075.74   $ Sizing
 "HtCap_Sys_L_Restrm_C" = -7722.969   $ Sizing
 "HtCap_Sys_L_StorSm_C" = -16281.87   $ Sizing
 "HtCap_Sys_M_Break_C" = -171432.2   $ Sizing
 "HtCap_Sys_M_Conf_C" = -216096.2   $ Sizing
 "HtCap_Sys_M_CopyRm_C" = -64169.97   $ Sizing
 "HtCap_Sys_M_Cordr_C" = -274150.7   $ Sizing
 "HtCap_Sys_M_Cordr_E" = -92634.96   $ Sizing
 "HtCap_Sys_M_Cordr_N" = -46838.14   $ Sizing
 "HtCap_Sys_M_Cordr_S" = -97579.22   $ Sizing
 "HtCap_Sys_M_Cordr_W" = -90228.07   $ Sizing
 "HtCap_Sys_M_LobWait_C" = -195390.6   $ Sizing
 "HtCap_Sys_M_MechElec_C" = -52667.86   $ Sizing
 "HtCap_Sys_M_OfficeOpn_C" = -619271.4   $ Sizing
 "HtCap_Sys_M_OfficeOpn_E" = -641483.6   $ Sizing
 "HtCap_Sys_M_OfficeOpn_N" = -335814.8   $ Sizing
 "HtCap_Sys_M_OfficeOpn_S" = -670518.5   $ Sizing
 "HtCap_Sys_M_OfficeOpn_W" = -638653.8   $ Sizing
 "HtCap_Sys_M_OfficeSm_C" = -89947.25   $ Sizing
 "HtCap_Sys_M_OfficeSm_E" = -469872.5   $ Sizing
 "HtCap_Sys_M_OfficeSm_N" = -216906.7   $ Sizing
 "HtCap_Sys_M_OfficeSm_S" = -509247.4   $ Sizing
 "HtCap_Sys_M_OfficeSm_W" = -467692.5   $ Sizing
 "HtCap_Sys_M_Restrm_C" = -66536.66   $ Sizing
 "HtCap_Sys_M_StorSm_C" = -134442.7   $ Sizing
 "HtCap_Sys_T_Break_C" = -21542.05   $ Sizing
 "HtCap_Sys_T_Conf_C" = -26698.71   $ Sizing
 "HtCap_Sys_T_CopyRm_C" = -7900.802   $ Sizing
 "HtCap_Sys_T_Cordr_C" = -34462.16   $ Sizing
 "HtCap_Sys_T_Cordr_E" = -11926.04   $ Sizing
 "HtCap_Sys_T_Cordr_N" = -5968.961   $ Sizing
 "HtCap_Sys_T_Cordr_S" = -13041.16   $ Sizing
 "HtCap_Sys_T_Cordr_W" = -11789.03   $ Sizing
 "HtCap_Sys_T_LobWait_C" = -23974.24   $ Sizing
 "HtCap_Sys_T_MechElec_C" = -7109.653   $ Sizing
 "HtCap_Sys_T_OfficeOpn_C" = -81429.1   $ Sizing
 "HtCap_Sys_T_OfficeOpn_E" = -82395.39   $ Sizing
 "HtCap_Sys_T_OfficeOpn_N" = -44844.56   $ Sizing
 "HtCap_Sys_T_OfficeOpn_S" = -89362.06   $ Sizing
 "HtCap_Sys_T_OfficeOpn_W" = -82456.2   $ Sizing
 "HtCap_Sys_T_OfficeSm_C" = -11438.64   $ Sizing
 "HtCap_Sys_T_OfficeSm_E" = -61881.67   $ Sizing
 "HtCap_Sys_T_OfficeSm_N" = -29170.86   $ Sizing
 "HtCap_Sys_T_OfficeSm_S" = -66844.05   $ Sizing
 "HtCap_Sys_T_OfficeSm_W" = -62310.11   $ Sizing
 "HtCap_Sys_T_Restrm_C" = -8809.561   $ Sizing
 "HtCap_Sys_T_StorSm_C" = -17295.15   $ Sizing
..

##include Templates\OfL_DX_SZ.inp
END ..
COMPUTE ..
STOP ..
