INPUT ..

##fileprefix C:\Users\jglasskatz\MASControl3\
##set1 IsSizing FALSE
##set1 CoolType DX
##set1 HeatType HEAT-PUMP
##set1 EU_HrRepVar 1
##set1 BldgVint 2011
##set1 BldgLoc CZ01

 ##set1 mBFMult 1   $ IP Tech: RefgChg-NRes-Std

PARAMETER
 "AltFactor" = 1.00753   $ IP Non-Tech
 "BldgEconoFlag" = 1   $ IP Non-Tech
 "Break_EWSF" = 1   $ IP Non-Tech
 "Break_LWSF" = 1.1   $ IP Non-Tech
 "CDD_DBHi10" = 65   $ IP Non-Tech
 "CDD_DBHi7" = 68   $ IP Non-Tech
 "CDD_DBHi8" = 66   $ IP Non-Tech
 "CDD_DBHi9" = 77   $ IP Non-Tech
 "CDD_DBRange10" = 17   $ IP Non-Tech
 "CDD_DBRange7" = 11   $ IP Non-Tech
 "CDD_DBRange8" = 10   $ IP Non-Tech
 "CDD_DBRange9" = 29   $ IP Non-Tech
 "CDD_Day10" = 15   $ IP Non-Tech
 "CDD_Day7" = 16   $ IP Non-Tech
 "CDD_Day8" = 20   $ IP Non-Tech
 "CDD_Day9" = 17   $ IP Non-Tech
 "CDD_HrHi10" = 12   $ IP Non-Tech
 "CDD_HrHi7" = 12   $ IP Non-Tech
 "CDD_HrHi8" = 13   $ IP Non-Tech
 "CDD_HrHi9" = 17   $ IP Non-Tech
 "CDD_HrLo10" = 6   $ IP Non-Tech
 "CDD_HrLo7" = 3   $ IP Non-Tech
 "CDD_HrLo8" = 8   $ IP Non-Tech
 "CDD_HrLo9" = 4   $ IP Non-Tech
 "CDD_WB10" = 57.53039551   $ IP Non-Tech
 "CDD_WB7" = 59.29250717   $ IP Non-Tech
 "CDD_WB8" = 60.75350189   $ IP Non-Tech
 "CDD_WB9" = 61.08643341   $ IP Non-Tech
 "CZ_Category" = Tem   $ IP Non-Tech
 "ChwVintEconoFlag" = 1   $ IP Non-Tech
 "Conference_EWSF" = 1   $ IP Non-Tech
 "Conference_LWSF" = 1.4   $ IP Non-Tech
 "CoolSetT" = 45   $ IP Non-Tech
 "CoolType" = DX   $ IP Non-Tech
 "CopyRoom_EWSF" = 1.5   $ IP Non-Tech
 "CopyRoom_LWSF" = 1.3   $ IP Non-Tech
 "CorridorStairway_EWSF" = 0.2   $ IP Non-Tech
 "CorridorStairway_LWSF" = 0.6   $ IP Non-Tech
 "DesCoolT" = 75   $ IP Non-Tech
 "DesHeatT" = 73   $ IP Non-Tech
 "EconoEnthLimit" = 28   $ IP Non-Tech
 "EconoTempLimit" = 70   $ IP Non-Tech
 "Elevation" = 203   $ IP Non-Tech
 "HDD_CloudAmt1" = 0   $ IP Non-Tech
 "HDD_DBHi1" = 53   $ IP Non-Tech
 "HDD_DBRange1" = 20   $ IP Non-Tech
 "HDD_Day1" = 15   $ IP Non-Tech
 "HDD_HrHi1" = 14   $ IP Non-Tech
 "HDD_HrLo1" = 6   $ IP Non-Tech
 "HDD_WB1" = 42.3   $ IP Non-Tech
 "HDD_WindSpd1" = 12.7   $ IP Non-Tech
 "HeatSrc" = HEAT-PUMP   $ IP Non-Tech
 "HeatSrcTU" = HEAT-PUMP   $ IP Non-Tech
 "HeatType" = HP   $ IP Non-Tech
 "HeatTypeTU" = HEAT-PUMP   $ IP Non-Tech
 "IndoorFanMode" = CONTINUOUS   $ IP Non-Tech
 "KT_TransferAir" = No   $ IP Non-Tech
 "Latitude" = 40.8   $ IP Non-Tech
 "LobbyWaiting_EWSF" = 0.5   $ IP Non-Tech
 "LobbyWaiting_LWSF" = 1.3   $ IP Non-Tech
 "Longitude" = 124.2   $ IP Non-Tech
 "LtgMsrApplic" = ALL   $ Msr TechID: NonResLtgRefMsr-LF
 "LtgSav_CFL" = 0   $ Msr TechID: NonResLtgRefMsr-LF
 "LtgSav_EX" = 0   $ Msr TechID: NonResLtgRefMsr-LF
 "LtgSav_HB" = 0   $ Msr TechID: NonResLtgRefMsr-LF
 "LtgSav_LF" = 0.3   $ Msr TechID: NonResLtgRefMsr-LF
 "LtgSav_SP" = 0   $ Msr TechID: NonResLtgRefMsr-LF
 "MZFanMechEff" = 0.58   $ IP Non-Tech
 "MZHasRetFan" = FALSE   $ IP Non-Tech
 "MZ_RFanWPerCfm" = 0.37   $ IP Non-Tech
 "MZ_SFanWPerCfm" = 0.71   $ IP Non-Tech
 "MZ_SupFanStatic" = 2.25   $ IP Non-Tech
 "MaxSupT_MZ" = 90   $ IP Non-Tech
 "MaxSupT_SZ" = 90   $ IP Non-Tech
 "MaxSupT_TU" = 90   $ IP Non-Tech
 "MechElecRoom_EWSF" = 0.2   $ IP Non-Tech
 "MechElecRoom_LWSF" = 0.7   $ IP Non-Tech
 "MinCfmPerSF" = 0.4   $ IP Non-Tech
 "MinSupT" = 55   $ IP Non-Tech
 "OccCoolT" = 76   $ IP Non-Tech
 "OccHeatT" = 72   $ IP Non-Tech
 "OfficeOpen_EWSF" = 1.5   $ IP Non-Tech
 "OfficeOpen_LWSF" = 1.1   $ IP Non-Tech
 "OfficeSmall_EWSF" = 1.5   $ IP Non-Tech
 "OfficeSmall_LWSF" = 1.3   $ IP Non-Tech
 "PkgDxVintEconoFlag" = 0   $ IP Non-Tech
 "Restroom_EWSF" = 0.2   $ IP Non-Tech
 "Restroom_LWSF" = 0.6   $ IP Non-Tech
 "SZFanMechEff" = 0.58   $ IP Non-Tech
 "SZHasRetFan" = FALSE   $ IP Non-Tech
 "SZ_Is_2Spd" = FALSE   $ IP Non-Tech
 "SZ_SFanWPerCfm" = 0.46   $ IP Non-Tech
 "SZ_SupFanStatic" = 0.75   $ IP Non-Tech
 "StorageSmlCond_EWSF" = 0.2   $ IP Non-Tech
 "StorageSmlCond_LWSF" = 0.6   $ IP Non-Tech
 "T24GlzTbl" = CZTbl   $ IP Non-Tech
 "TermUnitFanMechEff" = 1   $ IP Non-Tech
 "TermUnitFanMode" = INTERMITTENT   $ IP Non-Tech
 "TwrSetpt" = 80   $ IP Non-Tech
 "UnocCoolT" = 86   $ IP Non-Tech
 "UnocHeatT" = 62   $ IP Non-Tech
 "WlhpVintEconoFlag" = 0   $ IP Non-Tech
 "EconoCtrl" = OA-TEMP   $ IP Tech: AirEcono-OATemp
 "MaxOAFrac" = 0.85   $ IP Tech: AirEcono-OATemp
 "UseEconoVintApplic" = FALSE   $ IP Tech: AirEcono-OATemp
 "DuctDT" = 1   $ IP Tech: ComDuctInsul-1
 "DuctAirLoss" = 0   $ IP Tech: ComDuctLeak-0
 "DuctLossOAFrac" = 0   $ IP Tech: ComDuctLeak-0
 "ComRoofInsCalc" = FromUo   $ IP Tech: ComRoofIns-Hvy-0.05
 "ComRoofInsR" = -999   $ IP Tech: ComRoofIns-Hvy-0.05
 "ComRoofUo" = 0.05   $ IP Tech: ComRoofIns-Hvy-0.05
 "ComEWInsCalc" = FromUo   $ IP Tech: ComWallIns-MFrm-0.1
 "ComEWInsR" = -999   $ IP Tech: ComWallIns-MFrm-0.1
 "ComEWUo" = 0.1   $ IP Tech: ComWallIns-MFrm-0.1
 "ComN_SHGC" = 0.47   $ IP Tech: NResWin-ComN-0.47-0.47
 "ComN_UFactor" = 0.47   $ IP Tech: NResWin-ComN-0.47-0.47
 "ComN_VisTrans" = 0.75   $ IP Tech: NResWin-ComN-0.47-0.47
 "ComN_WinCode" = G2633   $ IP Tech: NResWin-ComN-0.47-0.47
 "ComN_WinFrmFrac" = 0.17   $ IP Tech: NResWin-ComN-0.47-0.47
 "ComN_WinFrmU" = 0.3   $ IP Tech: NResWin-ComN-0.47-0.47
 "ComO_SHGC" = 0.43   $ IP Tech: NResWin-ComO-0.47-0.43
 "ComO_UFactor" = 0.47   $ IP Tech: NResWin-ComO-0.47-0.43
 "ComO_VisTrans" = 0.68   $ IP Tech: NResWin-ComO-0.47-0.43
 "ComO_WinCode" = G2663   $ IP Tech: NResWin-ComO-0.47-0.43
 "ComO_WinFrmFrac" = 0.17   $ IP Tech: NResWin-ComO-0.47-0.43
 "ComO_WinFrmU" = 0.3   $ IP Tech: NResWin-ComO-0.47-0.43
 "BF_fFlow" = PSZ65to135_BF_fFlow   $ IP Tech: PkgHP1SpH-65to135-E11-C3.3
 "BF_fT" = PSZ65to135_BF_fT   $ IP Tech: PkgHP1SpH-65to135-E11-C3.3
 "CEIR_fPLR" = PSZ65to135_CEIR_fPLR   $ IP Tech: PkgHP1SpH-65to135-E11-C3.3
 "CLoss_fPLR" = PSZ65to135_CLoss_fPLR   $ IP Tech: PkgHP1SpH-65to135-E11-C3.3
 "COP" = 3.3   $ IP Tech: PkgHP1SpH-65to135-E11-C3.3
 "COP47" = 3.64   $ IP Tech: PkgHP1SpH-65to135-E11-C3.3
 "CfmPerBtuh" = 0.02917   $ IP Tech: PkgHP1SpH-65to135-E11-C3.3
 "ClCap_fT" = PSZ65to135_ClCap_fT   $ IP Tech: PkgHP1SpH-65to135-E11-C3.3
 "ClSH_fT" = PSZ65to135_ClSH_fT   $ IP Tech: PkgHP1SpH-65to135-E11-C3.3
 "CoilBF" = 0.114   $ IP Tech: PkgHP1SpH-65to135-E11-C3.3
 "CondWPerBtuh" = 0   $ IP Tech: PkgHP1SpH-65to135-E11-C3.3
 "CoolSensCap" = 0.663   $ IP Tech: PkgHP1SpH-65to135-E11-C3.3
 "CoolingEIR" = 0.2666   $ IP Tech: PkgHP1SpH-65to135-E11-C3.3
 "CrnkEIR" = 0.0027   $ IP Tech: PkgHP1SpH-65to135-E11-C3.3
 "CrnkMaxT" = 50   $ IP Tech: PkgHP1SpH-65to135-E11-C3.3
 "DXType" = Pkg   $ IP Tech: PkgHP1SpH-65to135-E11-C3.3
 "EER" = 10.64   $ IP Tech: PkgHP1SpH-65to135-E11-C3.3
 "EIR_fT" = PSZ65to135_EIR_fT   $ IP Tech: PkgHP1SpH-65to135-E11-C3.3
 "FanEirPlr" = TwoSpeedFan   $ IP Tech: PkgHP1SpH-65to135-E11-C3.3
 "FanWPerCfm" = 0.412   $ IP Tech: PkgHP1SpH-65to135-E11-C3.3
 "HIR_fT" = DEFAULT   $ IP Tech: PkgHP1SpH-65to135-E11-C3.3
 "HtCap_fT" = DEFAULT   $ IP Tech: PkgHP1SpH-65to135-E11-C3.3
 "HtCoolCapRatio" = 0.88   $ IP Tech: PkgHP1SpH-65to135-E11-C3.3
 "HtgEIR" = 0.27444   $ IP Tech: PkgHP1SpH-65to135-E11-C3.3
 "HtgFuel" = HP   $ IP Tech: PkgHP1SpH-65to135-E11-C3.3
 "IEER" = 13.35   $ IP Tech: PkgHP1SpH-65to135-E11-C3.3
 "LowSpdCapRatio" = 0.5   $ IP Tech: PkgHP1SpH-65to135-E11-C3.3
 "LowSpdCfmRatio" = 0.66   $ IP Tech: PkgHP1SpH-65to135-E11-C3.3
 "NominalCap" = 15   $ IP Tech: PkgHP1SpH-65to135-E11-C3.3
 "NumStages" = 1   $ IP Tech: PkgHP1SpH-65to135-E11-C3.3
 "RatedEER" = 11   $ IP Tech: PkgHP1SpH-65to135-E11-C3.3
 "RatedSupMtrClass" = HiEff   $ IP Tech: PkgHP1SpH-65to135-E11-C3.3
 "SizeRange" = 65to135   $ IP Tech: PkgHP1SpH-65to135-E11-C3.3
 "SubType" = HP   $ IP Tech: PkgHP1SpH-65to135-E11-C3.3
 "SupMotEff" = 0.84   $ IP Tech: PkgHP1SpH-65to135-E11-C3.3
 "Tier" = 0   $ IP Tech: PkgHP1SpH-65to135-E11-C3.3
 "TotCoolCap" = 184140   $ IP Tech: PkgHP1SpH-65to135-E11-C3.3
 "BFMult" = 1   $ IP Tech: RefgChg-NRes-Std
 "CoolEirMult" = 1   $ IP Tech: RefgChg-NRes-Std
 "SensCoolCapMult" = 1   $ IP Tech: RefgChg-NRes-Std
 "TotCoolCapMult" = 1   $ IP Tech: RefgChg-NRes-Std
 "AltAdjFactor" = 1.007532   $ Sizing
 "CAssFlo_L_Break_CZn" = 364.1779   $ Sizing
 "CAssFlo_L_Conf_CZn" = 420.686   $ Sizing
 "CAssFlo_L_CopyRm_CZn" = 106.1822   $ Sizing
 "CAssFlo_L_Cordr_CZn" = 565.4379   $ Sizing
 "CAssFlo_L_Cordr_EZn" = 185.8456   $ Sizing
 "CAssFlo_L_Cordr_NZn" = 129.4546   $ Sizing
 "CAssFlo_L_Cordr_SZn" = 197.6327   $ Sizing
 "CAssFlo_L_Cordr_WZn" = 176.6573   $ Sizing
 "CAssFlo_L_LobWait_CZn" = 352.6653   $ Sizing
 "CAssFlo_L_MechElec_CZn" = 134.1697   $ Sizing
 "CAssFlo_L_OfficeOpn_CZn" = 1630.391   $ Sizing
 "CAssFlo_L_OfficeOpn_EZn" = 1595.649   $ Sizing
 "CAssFlo_L_OfficeOpn_NZn" = 772.6962   $ Sizing
 "CAssFlo_L_OfficeOpn_SZn" = 1627.495   $ Sizing
 "CAssFlo_L_OfficeOpn_WZn" = 1531.062   $ Sizing
 "CAssFlo_L_OfficeSm_CZn" = 210.2848   $ Sizing
 "CAssFlo_L_OfficeSm_EZn" = 1127.746   $ Sizing
 "CAssFlo_L_OfficeSm_NZn" = 468.5329   $ Sizing
 "CAssFlo_L_OfficeSm_SZn" = 1179.089   $ Sizing
 "CAssFlo_L_OfficeSm_WZn" = 1070.078   $ Sizing
 "CAssFlo_L_Restrm_CZn" = 211.8611   $ Sizing
 "CAssFlo_L_StorSm_CZn" = 335.2323   $ Sizing
 "CAssFlo_M_Break_CZn" = 397.7011   $ Sizing
 "CAssFlo_M_Conf_CZn" = 473.618   $ Sizing
 "CAssFlo_M_CopyRm_CZn" = 133.4273   $ Sizing
 "CAssFlo_M_Cordr_CZn" = 756.605   $ Sizing
 "CAssFlo_M_Cordr_EZn" = 243.5405   $ Sizing
 "CAssFlo_M_Cordr_NZn" = 127.1612   $ Sizing
 "CAssFlo_M_Cordr_SZn" = 245.3918   $ Sizing
 "CAssFlo_M_Cordr_WZn" = 212.3393   $ Sizing
 "CAssFlo_M_LobWait_CZn" = 459.5093   $ Sizing
 "CAssFlo_M_MechElec_CZn" = 137.3805   $ Sizing
 "CAssFlo_M_OfficeOpn_CZn" = 1930.519   $ Sizing
 "CAssFlo_M_OfficeOpn_EZn" = 1788.303   $ Sizing
 "CAssFlo_M_OfficeOpn_NZn" = 938.441   $ Sizing
 "CAssFlo_M_OfficeOpn_SZn" = 1826.381   $ Sizing
 "CAssFlo_M_OfficeOpn_WZn" = 1645.655   $ Sizing
 "CAssFlo_M_OfficeSm_CZn" = 273.3889   $ Sizing
 "CAssFlo_M_OfficeSm_EZn" = 1257.646   $ Sizing
 "CAssFlo_M_OfficeSm_NZn" = 565.078   $ Sizing
 "CAssFlo_M_OfficeSm_SZn" = 1314.441   $ Sizing
 "CAssFlo_M_OfficeSm_WZn" = 1151.503   $ Sizing
 "CAssFlo_M_Restrm_CZn" = 211.8611   $ Sizing
 "CAssFlo_M_StorSm_CZn" = 357.5023   $ Sizing
 "CAssFlo_T_Break_CZn" = 376.4472   $ Sizing
 "CAssFlo_T_Conf_CZn" = 451.6993   $ Sizing
 "CAssFlo_T_CopyRm_CZn" = 127.0947   $ Sizing
 "CAssFlo_T_Cordr_CZn" = 668.3901   $ Sizing
 "CAssFlo_T_Cordr_EZn" = 215.8246   $ Sizing
 "CAssFlo_T_Cordr_NZn" = 111.0301   $ Sizing
 "CAssFlo_T_Cordr_SZn" = 223.6854   $ Sizing
 "CAssFlo_T_Cordr_WZn" = 192.0701   $ Sizing
 "CAssFlo_T_LobWait_CZn" = 425.9988   $ Sizing
 "CAssFlo_T_MechElec_CZn" = 142.398   $ Sizing
 "CAssFlo_T_OfficeOpn_CZn" = 1803.956   $ Sizing
 "CAssFlo_T_OfficeOpn_EZn" = 1624.234   $ Sizing
 "CAssFlo_T_OfficeOpn_NZn" = 859.5163   $ Sizing
 "CAssFlo_T_OfficeOpn_SZn" = 1706.402   $ Sizing
 "CAssFlo_T_OfficeOpn_WZn" = 1510.123   $ Sizing
 "CAssFlo_T_OfficeSm_CZn" = 256.8696   $ Sizing
 "CAssFlo_T_OfficeSm_EZn" = 1176.476   $ Sizing
 "CAssFlo_T_OfficeSm_NZn" = 540.9522   $ Sizing
 "CAssFlo_T_OfficeSm_SZn" = 1254.874   $ Sizing
 "CAssFlo_T_OfficeSm_WZn" = 1086.918   $ Sizing
 "CAssFlo_T_Restrm_CZn" = 211.8611   $ Sizing
 "CAssFlo_T_StorSm_CZn" = 334.0894   $ Sizing
 "CHRtFlo_Sys_L_Break_C" = 364.1779   $ Sizing
 "CHRtFlo_Sys_L_Conf_C" = 420.686   $ Sizing
 "CHRtFlo_Sys_L_CopyRm_C" = 106.1822   $ Sizing
 "CHRtFlo_Sys_L_Cordr_C" = 565.4378   $ Sizing
 "CHRtFlo_Sys_L_Cordr_E" = 185.8456   $ Sizing
 "CHRtFlo_Sys_L_Cordr_N" = 129.4546   $ Sizing
 "CHRtFlo_Sys_L_Cordr_S" = 197.6327   $ Sizing
 "CHRtFlo_Sys_L_Cordr_W" = 176.6573   $ Sizing
 "CHRtFlo_Sys_L_LobWait_C" = 352.6653   $ Sizing
 "CHRtFlo_Sys_L_MechElec_C" = 134.1697   $ Sizing
 "CHRtFlo_Sys_L_OfficeOpn_C" = 1630.391   $ Sizing
 "CHRtFlo_Sys_L_OfficeOpn_E" = 1595.649   $ Sizing
 "CHRtFlo_Sys_L_OfficeOpn_N" = 772.6962   $ Sizing
 "CHRtFlo_Sys_L_OfficeOpn_S" = 1627.495   $ Sizing
 "CHRtFlo_Sys_L_OfficeOpn_W" = 1531.062   $ Sizing
 "CHRtFlo_Sys_L_OfficeSm_C" = 210.2848   $ Sizing
 "CHRtFlo_Sys_L_OfficeSm_E" = 1127.746   $ Sizing
 "CHRtFlo_Sys_L_OfficeSm_N" = 468.5329   $ Sizing
 "CHRtFlo_Sys_L_OfficeSm_S" = 1179.089   $ Sizing
 "CHRtFlo_Sys_L_OfficeSm_W" = 1070.078   $ Sizing
 "CHRtFlo_Sys_L_Restrm_C" = 211.8611   $ Sizing
 "CHRtFlo_Sys_L_StorSm_C" = 335.2323   $ Sizing
 "CHRtFlo_Sys_M_Break_C" = 3181.609   $ Sizing
 "CHRtFlo_Sys_M_Conf_C" = 3788.944   $ Sizing
 "CHRtFlo_Sys_M_CopyRm_C" = 1067.418   $ Sizing
 "CHRtFlo_Sys_M_Cordr_C" = 6052.84   $ Sizing
 "CHRtFlo_Sys_M_Cordr_E" = 1948.324   $ Sizing
 "CHRtFlo_Sys_M_Cordr_N" = 1017.289   $ Sizing
 "CHRtFlo_Sys_M_Cordr_S" = 1963.135   $ Sizing
 "CHRtFlo_Sys_M_Cordr_W" = 1698.714   $ Sizing
 "CHRtFlo_Sys_M_LobWait_C" = 3676.074   $ Sizing
 "CHRtFlo_Sys_M_MechElec_C" = 1099.044   $ Sizing
 "CHRtFlo_Sys_M_OfficeOpn_C" = 15444.15   $ Sizing
 "CHRtFlo_Sys_M_OfficeOpn_E" = 14306.42   $ Sizing
 "CHRtFlo_Sys_M_OfficeOpn_N" = 7507.528   $ Sizing
 "CHRtFlo_Sys_M_OfficeOpn_S" = 14611.05   $ Sizing
 "CHRtFlo_Sys_M_OfficeOpn_W" = 13165.24   $ Sizing
 "CHRtFlo_Sys_M_OfficeSm_C" = 2187.112   $ Sizing
 "CHRtFlo_Sys_M_OfficeSm_E" = 10061.16   $ Sizing
 "CHRtFlo_Sys_M_OfficeSm_N" = 4520.624   $ Sizing
 "CHRtFlo_Sys_M_OfficeSm_S" = 10515.53   $ Sizing
 "CHRtFlo_Sys_M_OfficeSm_W" = 9212.021   $ Sizing
 "CHRtFlo_Sys_M_Restrm_C" = 1694.889   $ Sizing
 "CHRtFlo_Sys_M_StorSm_C" = 2860.018   $ Sizing
 "CHRtFlo_Sys_T_Break_C" = 376.4472   $ Sizing
 "CHRtFlo_Sys_T_Conf_C" = 451.6993   $ Sizing
 "CHRtFlo_Sys_T_CopyRm_C" = 127.0947   $ Sizing
 "CHRtFlo_Sys_T_Cordr_C" = 668.3901   $ Sizing
 "CHRtFlo_Sys_T_Cordr_E" = 215.8246   $ Sizing
 "CHRtFlo_Sys_T_Cordr_N" = 111.0301   $ Sizing
 "CHRtFlo_Sys_T_Cordr_S" = 223.6854   $ Sizing
 "CHRtFlo_Sys_T_Cordr_W" = 192.0701   $ Sizing
 "CHRtFlo_Sys_T_LobWait_C" = 425.9988   $ Sizing
 "CHRtFlo_Sys_T_MechElec_C" = 142.3979   $ Sizing
 "CHRtFlo_Sys_T_OfficeOpn_C" = 1803.956   $ Sizing
 "CHRtFlo_Sys_T_OfficeOpn_E" = 1624.234   $ Sizing
 "CHRtFlo_Sys_T_OfficeOpn_N" = 859.5163   $ Sizing
 "CHRtFlo_Sys_T_OfficeOpn_S" = 1706.402   $ Sizing
 "CHRtFlo_Sys_T_OfficeOpn_W" = 1510.123   $ Sizing
 "CHRtFlo_Sys_T_OfficeSm_C" = 256.8696   $ Sizing
 "CHRtFlo_Sys_T_OfficeSm_E" = 1176.476   $ Sizing
 "CHRtFlo_Sys_T_OfficeSm_N" = 540.9522   $ Sizing
 "CHRtFlo_Sys_T_OfficeSm_S" = 1254.874   $ Sizing
 "CHRtFlo_Sys_T_OfficeSm_W" = 1086.918   $ Sizing
 "CHRtFlo_Sys_T_Restrm_C" = 211.8611   $ Sizing
 "CHRtFlo_Sys_T_StorSm_C" = 334.0894   $ Sizing
 "CRtdFlo_Sys_L_Break_C" = 364.1779   $ Sizing
 "CRtdFlo_Sys_L_Conf_C" = 420.686   $ Sizing
 "CRtdFlo_Sys_L_CopyRm_C" = 106.1822   $ Sizing
 "CRtdFlo_Sys_L_Cordr_C" = 565.4379   $ Sizing
 "CRtdFlo_Sys_L_Cordr_E" = 185.8456   $ Sizing
 "CRtdFlo_Sys_L_Cordr_N" = 129.4546   $ Sizing
 "CRtdFlo_Sys_L_Cordr_S" = 197.6327   $ Sizing
 "CRtdFlo_Sys_L_Cordr_W" = 176.6573   $ Sizing
 "CRtdFlo_Sys_L_LobWait_C" = 352.6653   $ Sizing
 "CRtdFlo_Sys_L_MechElec_C" = 134.1697   $ Sizing
 "CRtdFlo_Sys_L_OfficeOpn_C" = 1630.391   $ Sizing
 "CRtdFlo_Sys_L_OfficeOpn_E" = 1595.649   $ Sizing
 "CRtdFlo_Sys_L_OfficeOpn_N" = 772.6962   $ Sizing
 "CRtdFlo_Sys_L_OfficeOpn_S" = 1627.495   $ Sizing
 "CRtdFlo_Sys_L_OfficeOpn_W" = 1531.062   $ Sizing
 "CRtdFlo_Sys_L_OfficeSm_C" = 210.2848   $ Sizing
 "CRtdFlo_Sys_L_OfficeSm_E" = 1127.746   $ Sizing
 "CRtdFlo_Sys_L_OfficeSm_N" = 468.5329   $ Sizing
 "CRtdFlo_Sys_L_OfficeSm_S" = 1179.089   $ Sizing
 "CRtdFlo_Sys_L_OfficeSm_W" = 1070.078   $ Sizing
 "CRtdFlo_Sys_L_Restrm_C" = 211.8611   $ Sizing
 "CRtdFlo_Sys_L_StorSm_C" = 335.2323   $ Sizing
 "CRtdFlo_Sys_M_Break_C" = 3181.609   $ Sizing
 "CRtdFlo_Sys_M_Conf_C" = 3788.944   $ Sizing
 "CRtdFlo_Sys_M_CopyRm_C" = 1067.418   $ Sizing
 "CRtdFlo_Sys_M_Cordr_C" = 6052.84   $ Sizing
 "CRtdFlo_Sys_M_Cordr_E" = 1948.324   $ Sizing
 "CRtdFlo_Sys_M_Cordr_N" = 1017.289   $ Sizing
 "CRtdFlo_Sys_M_Cordr_S" = 1963.135   $ Sizing
 "CRtdFlo_Sys_M_Cordr_W" = 1698.714   $ Sizing
 "CRtdFlo_Sys_M_LobWait_C" = 3676.074   $ Sizing
 "CRtdFlo_Sys_M_MechElec_C" = 1099.044   $ Sizing
 "CRtdFlo_Sys_M_OfficeOpn_C" = 15444.15   $ Sizing
 "CRtdFlo_Sys_M_OfficeOpn_E" = 14306.42   $ Sizing
 "CRtdFlo_Sys_M_OfficeOpn_N" = 7507.528   $ Sizing
 "CRtdFlo_Sys_M_OfficeOpn_S" = 14611.05   $ Sizing
 "CRtdFlo_Sys_M_OfficeOpn_W" = 13165.24   $ Sizing
 "CRtdFlo_Sys_M_OfficeSm_C" = 2187.112   $ Sizing
 "CRtdFlo_Sys_M_OfficeSm_E" = 10061.16   $ Sizing
 "CRtdFlo_Sys_M_OfficeSm_N" = 4520.624   $ Sizing
 "CRtdFlo_Sys_M_OfficeSm_S" = 10515.53   $ Sizing
 "CRtdFlo_Sys_M_OfficeSm_W" = 9212.021   $ Sizing
 "CRtdFlo_Sys_M_Restrm_C" = 1694.889   $ Sizing
 "CRtdFlo_Sys_M_StorSm_C" = 2860.018   $ Sizing
 "CRtdFlo_Sys_T_Break_C" = 376.4472   $ Sizing
 "CRtdFlo_Sys_T_Conf_C" = 451.6993   $ Sizing
 "CRtdFlo_Sys_T_CopyRm_C" = 127.0947   $ Sizing
 "CRtdFlo_Sys_T_Cordr_C" = 668.3901   $ Sizing
 "CRtdFlo_Sys_T_Cordr_E" = 215.8246   $ Sizing
 "CRtdFlo_Sys_T_Cordr_N" = 111.0301   $ Sizing
 "CRtdFlo_Sys_T_Cordr_S" = 223.6854   $ Sizing
 "CRtdFlo_Sys_T_Cordr_W" = 192.0701   $ Sizing
 "CRtdFlo_Sys_T_LobWait_C" = 425.9988   $ Sizing
 "CRtdFlo_Sys_T_MechElec_C" = 142.398   $ Sizing
 "CRtdFlo_Sys_T_OfficeOpn_C" = 1803.956   $ Sizing
 "CRtdFlo_Sys_T_OfficeOpn_E" = 1624.234   $ Sizing
 "CRtdFlo_Sys_T_OfficeOpn_N" = 859.5163   $ Sizing
 "CRtdFlo_Sys_T_OfficeOpn_S" = 1706.402   $ Sizing
 "CRtdFlo_Sys_T_OfficeOpn_W" = 1510.123   $ Sizing
 "CRtdFlo_Sys_T_OfficeSm_C" = 256.8696   $ Sizing
 "CRtdFlo_Sys_T_OfficeSm_E" = 1176.476   $ Sizing
 "CRtdFlo_Sys_T_OfficeSm_N" = 540.9522   $ Sizing
 "CRtdFlo_Sys_T_OfficeSm_S" = 1254.874   $ Sizing
 "CRtdFlo_Sys_T_OfficeSm_W" = 1086.918   $ Sizing
 "CRtdFlo_Sys_T_Restrm_C" = 211.8611   $ Sizing
 "CRtdFlo_Sys_T_StorSm_C" = 334.0894   $ Sizing
 "CSupFlo_Sys_L_Break_C" = 364.1779   $ Sizing
 "CSupFlo_Sys_L_Conf_C" = 420.686   $ Sizing
 "CSupFlo_Sys_L_CopyRm_C" = 106.1822   $ Sizing
 "CSupFlo_Sys_L_Cordr_C" = 565.4379   $ Sizing
 "CSupFlo_Sys_L_Cordr_E" = 185.8456   $ Sizing
 "CSupFlo_Sys_L_Cordr_N" = 129.4546   $ Sizing
 "CSupFlo_Sys_L_Cordr_S" = 197.6327   $ Sizing
 "CSupFlo_Sys_L_Cordr_W" = 176.6573   $ Sizing
 "CSupFlo_Sys_L_LobWait_C" = 352.6653   $ Sizing
 "CSupFlo_Sys_L_MechElec_C" = 134.1697   $ Sizing
 "CSupFlo_Sys_L_OfficeOpn_C" = 1630.391   $ Sizing
 "CSupFlo_Sys_L_OfficeOpn_E" = 1595.649   $ Sizing
 "CSupFlo_Sys_L_OfficeOpn_N" = 772.6962   $ Sizing
 "CSupFlo_Sys_L_OfficeOpn_S" = 1627.495   $ Sizing
 "CSupFlo_Sys_L_OfficeOpn_W" = 1531.062   $ Sizing
 "CSupFlo_Sys_L_OfficeSm_C" = 210.2848   $ Sizing
 "CSupFlo_Sys_L_OfficeSm_E" = 1127.746   $ Sizing
 "CSupFlo_Sys_L_OfficeSm_N" = 468.5329   $ Sizing
 "CSupFlo_Sys_L_OfficeSm_S" = 1179.089   $ Sizing
 "CSupFlo_Sys_L_OfficeSm_W" = 1070.078   $ Sizing
 "CSupFlo_Sys_L_Restrm_C" = 211.8611   $ Sizing
 "CSupFlo_Sys_L_StorSm_C" = 335.2323   $ Sizing
 "CSupFlo_Sys_M_Break_C" = 3181.609   $ Sizing
 "CSupFlo_Sys_M_Conf_C" = 3788.944   $ Sizing
 "CSupFlo_Sys_M_CopyRm_C" = 1067.418   $ Sizing
 "CSupFlo_Sys_M_Cordr_C" = 6052.84   $ Sizing
 "CSupFlo_Sys_M_Cordr_E" = 1948.324   $ Sizing
 "CSupFlo_Sys_M_Cordr_N" = 1017.289   $ Sizing
 "CSupFlo_Sys_M_Cordr_S" = 1963.135   $ Sizing
 "CSupFlo_Sys_M_Cordr_W" = 1698.714   $ Sizing
 "CSupFlo_Sys_M_LobWait_C" = 3676.074   $ Sizing
 "CSupFlo_Sys_M_MechElec_C" = 1099.044   $ Sizing
 "CSupFlo_Sys_M_OfficeOpn_C" = 15444.15   $ Sizing
 "CSupFlo_Sys_M_OfficeOpn_E" = 14306.42   $ Sizing
 "CSupFlo_Sys_M_OfficeOpn_N" = 7507.528   $ Sizing
 "CSupFlo_Sys_M_OfficeOpn_S" = 14611.05   $ Sizing
 "CSupFlo_Sys_M_OfficeOpn_W" = 13165.24   $ Sizing
 "CSupFlo_Sys_M_OfficeSm_C" = 2187.112   $ Sizing
 "CSupFlo_Sys_M_OfficeSm_E" = 10061.16   $ Sizing
 "CSupFlo_Sys_M_OfficeSm_N" = 4520.624   $ Sizing
 "CSupFlo_Sys_M_OfficeSm_S" = 10515.53   $ Sizing
 "CSupFlo_Sys_M_OfficeSm_W" = 9212.021   $ Sizing
 "CSupFlo_Sys_M_Restrm_C" = 1694.889   $ Sizing
 "CSupFlo_Sys_M_StorSm_C" = 2860.018   $ Sizing
 "CSupFlo_Sys_T_Break_C" = 376.4472   $ Sizing
 "CSupFlo_Sys_T_Conf_C" = 451.6993   $ Sizing
 "CSupFlo_Sys_T_CopyRm_C" = 127.0947   $ Sizing
 "CSupFlo_Sys_T_Cordr_C" = 668.3901   $ Sizing
 "CSupFlo_Sys_T_Cordr_E" = 215.8246   $ Sizing
 "CSupFlo_Sys_T_Cordr_N" = 111.0301   $ Sizing
 "CSupFlo_Sys_T_Cordr_S" = 223.6854   $ Sizing
 "CSupFlo_Sys_T_Cordr_W" = 192.0701   $ Sizing
 "CSupFlo_Sys_T_LobWait_C" = 425.9988   $ Sizing
 "CSupFlo_Sys_T_MechElec_C" = 142.398   $ Sizing
 "CSupFlo_Sys_T_OfficeOpn_C" = 1803.956   $ Sizing
 "CSupFlo_Sys_T_OfficeOpn_E" = 1624.234   $ Sizing
 "CSupFlo_Sys_T_OfficeOpn_N" = 859.5163   $ Sizing
 "CSupFlo_Sys_T_OfficeOpn_S" = 1706.402   $ Sizing
 "CSupFlo_Sys_T_OfficeOpn_W" = 1510.123   $ Sizing
 "CSupFlo_Sys_T_OfficeSm_C" = 256.8696   $ Sizing
 "CSupFlo_Sys_T_OfficeSm_E" = 1176.476   $ Sizing
 "CSupFlo_Sys_T_OfficeSm_N" = 540.9522   $ Sizing
 "CSupFlo_Sys_T_OfficeSm_S" = 1254.874   $ Sizing
 "CSupFlo_Sys_T_OfficeSm_W" = 1086.918   $ Sizing
 "CSupFlo_Sys_T_Restrm_C" = 211.8611   $ Sizing
 "CSupFlo_Sys_T_StorSm_C" = 334.0894   $ Sizing
 "ClCap_Sys_L_Break_C" = 12392.75   $ Sizing
 "ClCap_Sys_L_Conf_C" = 18219.97   $ Sizing
 "ClCap_Sys_L_CopyRm_C" = 3613.318   $ Sizing
 "ClCap_Sys_L_Cordr_C" = 19241.51   $ Sizing
 "ClCap_Sys_L_Cordr_E" = 6324.215   $ Sizing
 "ClCap_Sys_L_Cordr_N" = 4405.263   $ Sizing
 "ClCap_Sys_L_Cordr_S" = 6725.323   $ Sizing
 "ClCap_Sys_L_Cordr_W" = 6011.543   $ Sizing
 "ClCap_Sys_L_LobWait_C" = 12000.99   $ Sizing
 "ClCap_Sys_L_MechElec_C" = 4565.713   $ Sizing
 "ClCap_Sys_L_OfficeOpn_C" = 55481.22   $ Sizing
 "ClCap_Sys_L_OfficeOpn_E" = 54298.99   $ Sizing
 "ClCap_Sys_L_OfficeOpn_N" = 26294.39   $ Sizing
 "ClCap_Sys_L_OfficeOpn_S" = 55382.67   $ Sizing
 "ClCap_Sys_L_OfficeOpn_W" = 52101.12   $ Sizing
 "ClCap_Sys_L_OfficeSm_C" = 7155.865   $ Sizing
 "ClCap_Sys_L_OfficeSm_E" = 38376.51   $ Sizing
 "ClCap_Sys_L_OfficeSm_N" = 15943.89   $ Sizing
 "ClCap_Sys_L_OfficeSm_S" = 40123.7   $ Sizing
 "ClCap_Sys_L_OfficeSm_W" = 36414.1   $ Sizing
 "ClCap_Sys_L_Restrm_C" = 7209.506   $ Sizing
 "ClCap_Sys_L_StorSm_C" = 11407.76   $ Sizing
 "ClCap_Sys_M_Break_C" = 108268.2   $ Sizing
 "ClCap_Sys_M_Conf_C" = 164099.7   $ Sizing
 "ClCap_Sys_M_CopyRm_C" = 36323.61   $ Sizing
 "ClCap_Sys_M_Cordr_C" = 205974.5   $ Sizing
 "ClCap_Sys_M_Cordr_E" = 66300.29   $ Sizing
 "ClCap_Sys_M_Cordr_N" = 34617.75   $ Sizing
 "ClCap_Sys_M_Cordr_S" = 66804.3   $ Sizing
 "ClCap_Sys_M_Cordr_W" = 57806.23   $ Sizing
 "ClCap_Sys_M_LobWait_C" = 125094.6   $ Sizing
 "ClCap_Sys_M_MechElec_C" = 37399.81   $ Sizing
 "ClCap_Sys_M_OfficeOpn_C" = 525555.3   $ Sizing
 "ClCap_Sys_M_OfficeOpn_E" = 486838.9   $ Sizing
 "ClCap_Sys_M_OfficeOpn_N" = 255476.7   $ Sizing
 "ClCap_Sys_M_OfficeOpn_S" = 497205.3   $ Sizing
 "ClCap_Sys_M_OfficeOpn_W" = 448005.3   $ Sizing
 "ClCap_Sys_M_OfficeSm_C" = 74426.1   $ Sizing
 "ClCap_Sys_M_OfficeSm_E" = 342375.4   $ Sizing
 "ClCap_Sys_M_OfficeSm_N" = 153834.1   $ Sizing
 "ClCap_Sys_M_OfficeSm_S" = 357837.1   $ Sizing
 "ClCap_Sys_M_OfficeSm_W" = 313479.5   $ Sizing
 "ClCap_Sys_M_Restrm_C" = 57676.05   $ Sizing
 "ClCap_Sys_M_StorSm_C" = 97324.7   $ Sizing
 "ClCap_Sys_T_Break_C" = 12810.27   $ Sizing
 "ClCap_Sys_T_Conf_C" = 19563.16   $ Sizing
 "ClCap_Sys_T_CopyRm_C" = 4324.957   $ Sizing
 "ClCap_Sys_T_Cordr_C" = 22744.91   $ Sizing
 "ClCap_Sys_T_Cordr_E" = 7344.384   $ Sizing
 "ClCap_Sys_T_Cordr_N" = 3778.289   $ Sizing
 "ClCap_Sys_T_Cordr_S" = 7611.88   $ Sizing
 "ClCap_Sys_T_Cordr_W" = 6536.029   $ Sizing
 "ClCap_Sys_T_LobWait_C" = 14496.48   $ Sizing
 "ClCap_Sys_T_MechElec_C" = 4845.717   $ Sizing
 "ClCap_Sys_T_OfficeOpn_C" = 61387.55   $ Sizing
 "ClCap_Sys_T_OfficeOpn_E" = 55271.7   $ Sizing
 "ClCap_Sys_T_OfficeOpn_N" = 29248.83   $ Sizing
 "ClCap_Sys_T_OfficeOpn_S" = 58067.82   $ Sizing
 "ClCap_Sys_T_OfficeOpn_W" = 51388.58   $ Sizing
 "ClCap_Sys_T_OfficeSm_C" = 8741.118   $ Sizing
 "ClCap_Sys_T_OfficeSm_E" = 40034.77   $ Sizing
 "ClCap_Sys_T_OfficeSm_N" = 18408.28   $ Sizing
 "ClCap_Sys_T_OfficeSm_S" = 42702.62   $ Sizing
 "ClCap_Sys_T_OfficeSm_W" = 36987.18   $ Sizing
 "ClCap_Sys_T_Restrm_C" = 7209.506   $ Sizing
 "ClCap_Sys_T_StorSm_C" = 11368.86   $ Sizing
 "HRtECT_Sys_L_Break_C" = 47   $ Sizing
 "HRtECT_Sys_L_Conf_C" = 47   $ Sizing
 "HRtECT_Sys_L_CopyRm_C" = 47   $ Sizing
 "HRtECT_Sys_L_Cordr_C" = 47   $ Sizing
 "HRtECT_Sys_L_Cordr_E" = 47   $ Sizing
 "HRtECT_Sys_L_Cordr_N" = 47   $ Sizing
 "HRtECT_Sys_L_Cordr_S" = 47   $ Sizing
 "HRtECT_Sys_L_Cordr_W" = 47   $ Sizing
 "HRtECT_Sys_L_LobWait_C" = 47   $ Sizing
 "HRtECT_Sys_L_MechElec_C" = 47   $ Sizing
 "HRtECT_Sys_L_OfficeOpn_C" = 47   $ Sizing
 "HRtECT_Sys_L_OfficeOpn_E" = 47   $ Sizing
 "HRtECT_Sys_L_OfficeOpn_N" = 47   $ Sizing
 "HRtECT_Sys_L_OfficeOpn_S" = 47   $ Sizing
 "HRtECT_Sys_L_OfficeOpn_W" = 47   $ Sizing
 "HRtECT_Sys_L_OfficeSm_C" = 47   $ Sizing
 "HRtECT_Sys_L_OfficeSm_E" = 47   $ Sizing
 "HRtECT_Sys_L_OfficeSm_N" = 47   $ Sizing
 "HRtECT_Sys_L_OfficeSm_S" = 47   $ Sizing
 "HRtECT_Sys_L_OfficeSm_W" = 47   $ Sizing
 "HRtECT_Sys_L_Restrm_C" = 47   $ Sizing
 "HRtECT_Sys_L_StorSm_C" = 47   $ Sizing
 "HRtECT_Sys_M_Break_C" = 47   $ Sizing
 "HRtECT_Sys_M_Conf_C" = 47   $ Sizing
 "HRtECT_Sys_M_CopyRm_C" = 47   $ Sizing
 "HRtECT_Sys_M_Cordr_C" = 47   $ Sizing
 "HRtECT_Sys_M_Cordr_E" = 47   $ Sizing
 "HRtECT_Sys_M_Cordr_N" = 47   $ Sizing
 "HRtECT_Sys_M_Cordr_S" = 47   $ Sizing
 "HRtECT_Sys_M_Cordr_W" = 47   $ Sizing
 "HRtECT_Sys_M_LobWait_C" = 47   $ Sizing
 "HRtECT_Sys_M_MechElec_C" = 47   $ Sizing
 "HRtECT_Sys_M_OfficeOpn_C" = 47   $ Sizing
 "HRtECT_Sys_M_OfficeOpn_E" = 47   $ Sizing
 "HRtECT_Sys_M_OfficeOpn_N" = 47   $ Sizing
 "HRtECT_Sys_M_OfficeOpn_S" = 47   $ Sizing
 "HRtECT_Sys_M_OfficeOpn_W" = 47   $ Sizing
 "HRtECT_Sys_M_OfficeSm_C" = 47   $ Sizing
 "HRtECT_Sys_M_OfficeSm_E" = 47   $ Sizing
 "HRtECT_Sys_M_OfficeSm_N" = 47   $ Sizing
 "HRtECT_Sys_M_OfficeSm_S" = 47   $ Sizing
 "HRtECT_Sys_M_OfficeSm_W" = 47   $ Sizing
 "HRtECT_Sys_M_Restrm_C" = 47   $ Sizing
 "HRtECT_Sys_M_StorSm_C" = 47   $ Sizing
 "HRtECT_Sys_T_Break_C" = 47   $ Sizing
 "HRtECT_Sys_T_Conf_C" = 47   $ Sizing
 "HRtECT_Sys_T_CopyRm_C" = 47   $ Sizing
 "HRtECT_Sys_T_Cordr_C" = 47   $ Sizing
 "HRtECT_Sys_T_Cordr_E" = 47   $ Sizing
 "HRtECT_Sys_T_Cordr_N" = 47   $ Sizing
 "HRtECT_Sys_T_Cordr_S" = 47   $ Sizing
 "HRtECT_Sys_T_Cordr_W" = 47   $ Sizing
 "HRtECT_Sys_T_LobWait_C" = 47   $ Sizing
 "HRtECT_Sys_T_MechElec_C" = 47   $ Sizing
 "HRtECT_Sys_T_OfficeOpn_C" = 47   $ Sizing
 "HRtECT_Sys_T_OfficeOpn_E" = 47   $ Sizing
 "HRtECT_Sys_T_OfficeOpn_N" = 47   $ Sizing
 "HRtECT_Sys_T_OfficeOpn_S" = 47   $ Sizing
 "HRtECT_Sys_T_OfficeOpn_W" = 47   $ Sizing
 "HRtECT_Sys_T_OfficeSm_C" = 47   $ Sizing
 "HRtECT_Sys_T_OfficeSm_E" = 47   $ Sizing
 "HRtECT_Sys_T_OfficeSm_N" = 47   $ Sizing
 "HRtECT_Sys_T_OfficeSm_S" = 47   $ Sizing
 "HRtECT_Sys_T_OfficeSm_W" = 47   $ Sizing
 "HRtECT_Sys_T_Restrm_C" = 47   $ Sizing
 "HRtECT_Sys_T_StorSm_C" = 47   $ Sizing
 "HSpCap_Sys_L_Break_C" = -6825.819   $ Sizing
 "HSpCap_Sys_L_Conf_C" = -11178.58   $ Sizing
 "HSpCap_Sys_L_CopyRm_C" = -2768.843   $ Sizing
 "HSpCap_Sys_L_Cordr_C" = -8466.265   $ Sizing
 "HSpCap_Sys_L_Cordr_E" = -3648.657   $ Sizing
 "HSpCap_Sys_L_Cordr_N" = -4052.378   $ Sizing
 "HSpCap_Sys_L_Cordr_S" = -2959.142   $ Sizing
 "HSpCap_Sys_L_Cordr_W" = -3608.573   $ Sizing
 "HSpCap_Sys_L_LobWait_C" = -6860.581   $ Sizing
 "HSpCap_Sys_L_MechElec_C" = -2008.914   $ Sizing
 "HSpCap_Sys_L_OfficeOpn_C" = -24411.74   $ Sizing
 "HSpCap_Sys_L_OfficeOpn_E" = -23891.55   $ Sizing
 "HSpCap_Sys_L_OfficeOpn_N" = -12952.06   $ Sizing
 "HSpCap_Sys_L_OfficeOpn_S" = -24368.38   $ Sizing
 "HSpCap_Sys_L_OfficeOpn_W" = -22924.49   $ Sizing
 "HSpCap_Sys_L_OfficeSm_C" = -3148.581   $ Sizing
 "HSpCap_Sys_L_OfficeSm_E" = -16885.66   $ Sizing
 "HSpCap_Sys_L_OfficeSm_N" = -12519.41   $ Sizing
 "HSpCap_Sys_L_OfficeSm_S" = -17654.43   $ Sizing
 "HSpCap_Sys_L_OfficeSm_W" = -16022.21   $ Sizing
 "HSpCap_Sys_L_Restrm_C" = -3172.183   $ Sizing
 "HSpCap_Sys_L_StorSm_C" = -6782.003   $ Sizing
 "HSpCap_Sys_M_Break_C" = -58573.72   $ Sizing
 "HSpCap_Sys_M_Conf_C" = -93151.03   $ Sizing
 "HSpCap_Sys_M_CopyRm_C" = -23464.96   $ Sizing
 "HSpCap_Sys_M_Cordr_C" = -90628.79   $ Sizing
 "HSpCap_Sys_M_Cordr_E" = -29172.13   $ Sizing
 "HSpCap_Sys_M_Cordr_N" = -31734.62   $ Sizing
 "HSpCap_Sys_M_Cordr_S" = -29393.89   $ Sizing
 "HSpCap_Sys_M_Cordr_W" = -27065.81   $ Sizing
 "HSpCap_Sys_M_LobWait_C" = -60684.4   $ Sizing
 "HSpCap_Sys_M_MechElec_C" = -16455.92   $ Sizing
 "HSpCap_Sys_M_OfficeOpn_C" = -231244.3   $ Sizing
 "HSpCap_Sys_M_OfficeOpn_E" = -214209.1   $ Sizing
 "HSpCap_Sys_M_OfficeOpn_N" = -112409.8   $ Sizing
 "HSpCap_Sys_M_OfficeOpn_S" = -218770.3   $ Sizing
 "HSpCap_Sys_M_OfficeOpn_W" = -197122.3   $ Sizing
 "HSpCap_Sys_M_OfficeSm_C" = -32747.48   $ Sizing
 "HSpCap_Sys_M_OfficeSm_E" = -150645.2   $ Sizing
 "HSpCap_Sys_M_OfficeSm_N" = -102889.2   $ Sizing
 "HSpCap_Sys_M_OfficeSm_S" = -157448.3   $ Sizing
 "HSpCap_Sys_M_OfficeSm_W" = -137931   $ Sizing
 "HSpCap_Sys_M_Restrm_C" = -25377.46   $ Sizing
 "HSpCap_Sys_M_StorSm_C" = -50758.54   $ Sizing
 "HSpCap_Sys_T_Break_C" = -7822.2   $ Sizing
 "HSpCap_Sys_T_Conf_C" = -11970.26   $ Sizing
 "HSpCap_Sys_T_CopyRm_C" = -2908.799   $ Sizing
 "HSpCap_Sys_T_Cordr_C" = -10007.76   $ Sizing
 "HSpCap_Sys_T_Cordr_E" = -4557.096   $ Sizing
 "HSpCap_Sys_T_Cordr_N" = -4257.271   $ Sizing
 "HSpCap_Sys_T_Cordr_S" = -3349.227   $ Sizing
 "HSpCap_Sys_T_Cordr_W" = -4293.014   $ Sizing
 "HSpCap_Sys_T_LobWait_C" = -8391.946   $ Sizing
 "HSpCap_Sys_T_MechElec_C" = -3942.887   $ Sizing
 "HSpCap_Sys_T_OfficeOpn_C" = -27010.52   $ Sizing
 "HSpCap_Sys_T_OfficeOpn_E" = -24319.55   $ Sizing
 "HSpCap_Sys_T_OfficeOpn_N" = -17089.53   $ Sizing
 "HSpCap_Sys_T_OfficeOpn_S" = -25549.84   $ Sizing
 "HSpCap_Sys_T_OfficeOpn_W" = -22610.97   $ Sizing
 "HSpCap_Sys_T_OfficeSm_C" = -3846.092   $ Sizing
 "HSpCap_Sys_T_OfficeSm_E" = -17615.3   $ Sizing
 "HSpCap_Sys_T_OfficeSm_N" = -15058.65   $ Sizing
 "HSpCap_Sys_T_OfficeSm_S" = -18789.15   $ Sizing
 "HSpCap_Sys_T_OfficeSm_W" = -16610.41   $ Sizing
 "HSpCap_Sys_T_Restrm_C" = -3172.183   $ Sizing
 "HSpCap_Sys_T_StorSm_C" = -5790.308   $ Sizing
 "HtCap_Sys_L_Break_C" = -10905.62   $ Sizing
 "HtCap_Sys_L_Conf_C" = -16033.58   $ Sizing
 "HtCap_Sys_L_CopyRm_C" = -3179.72   $ Sizing
 "HtCap_Sys_L_Cordr_C" = -16932.53   $ Sizing
 "HtCap_Sys_L_Cordr_E" = -5565.309   $ Sizing
 "HtCap_Sys_L_Cordr_N" = -3876.632   $ Sizing
 "HtCap_Sys_L_Cordr_S" = -5918.284   $ Sizing
 "HtCap_Sys_L_Cordr_W" = -5290.158   $ Sizing
 "HtCap_Sys_L_LobWait_C" = -10560.87   $ Sizing
 "HtCap_Sys_L_MechElec_C" = -4017.828   $ Sizing
 "HtCap_Sys_L_OfficeOpn_C" = -48823.47   $ Sizing
 "HtCap_Sys_L_OfficeOpn_E" = -47783.11   $ Sizing
 "HtCap_Sys_L_OfficeOpn_N" = -23139.06   $ Sizing
 "HtCap_Sys_L_OfficeOpn_S" = -48736.75   $ Sizing
 "HtCap_Sys_L_OfficeOpn_W" = -45848.98   $ Sizing
 "HtCap_Sys_L_OfficeSm_C" = -6297.161   $ Sizing
 "HtCap_Sys_L_OfficeSm_E" = -33771.33   $ Sizing
 "HtCap_Sys_L_OfficeSm_N" = -14030.63   $ Sizing
 "HtCap_Sys_L_OfficeSm_S" = -35308.85   $ Sizing
 "HtCap_Sys_L_OfficeSm_W" = -32044.41   $ Sizing
 "HtCap_Sys_L_Restrm_C" = -6344.366   $ Sizing
 "HtCap_Sys_L_StorSm_C" = -10038.83   $ Sizing
 "HtCap_Sys_M_Break_C" = -95276.05   $ Sizing
 "HtCap_Sys_M_Conf_C" = -144407.8   $ Sizing
 "HtCap_Sys_M_CopyRm_C" = -31964.77   $ Sizing
 "HtCap_Sys_M_Cordr_C" = -181257.6   $ Sizing
 "HtCap_Sys_M_Cordr_E" = -58344.25   $ Sizing
 "HtCap_Sys_M_Cordr_N" = -30463.62   $ Sizing
 "HtCap_Sys_M_Cordr_S" = -58787.78   $ Sizing
 "HtCap_Sys_M_Cordr_W" = -50869.48   $ Sizing
 "HtCap_Sys_M_LobWait_C" = -110083.3   $ Sizing
 "HtCap_Sys_M_MechElec_C" = -32911.83   $ Sizing
 "HtCap_Sys_M_OfficeOpn_C" = -462488.6   $ Sizing
 "HtCap_Sys_M_OfficeOpn_E" = -428418.3   $ Sizing
 "HtCap_Sys_M_OfficeOpn_N" = -224819.5   $ Sizing
 "HtCap_Sys_M_OfficeOpn_S" = -437540.7   $ Sizing
 "HtCap_Sys_M_OfficeOpn_W" = -394244.7   $ Sizing
 "HtCap_Sys_M_OfficeSm_C" = -65494.97   $ Sizing
 "HtCap_Sys_M_OfficeSm_E" = -301290.3   $ Sizing
 "HtCap_Sys_M_OfficeSm_N" = -135374   $ Sizing
 "HtCap_Sys_M_OfficeSm_S" = -314896.7   $ Sizing
 "HtCap_Sys_M_OfficeSm_W" = -275862   $ Sizing
 "HtCap_Sys_M_Restrm_C" = -50754.93   $ Sizing
 "HtCap_Sys_M_StorSm_C" = -85645.74   $ Sizing
 "HtCap_Sys_T_Break_C" = -11273.04   $ Sizing
 "HtCap_Sys_T_Conf_C" = -17215.58   $ Sizing
 "HtCap_Sys_T_CopyRm_C" = -3805.962   $ Sizing
 "HtCap_Sys_T_Cordr_C" = -20015.52   $ Sizing
 "HtCap_Sys_T_Cordr_E" = -6463.058   $ Sizing
 "HtCap_Sys_T_Cordr_N" = -3324.894   $ Sizing
 "HtCap_Sys_T_Cordr_S" = -6698.454   $ Sizing
 "HtCap_Sys_T_Cordr_W" = -5751.706   $ Sizing
 "HtCap_Sys_T_LobWait_C" = -12756.91   $ Sizing
 "HtCap_Sys_T_MechElec_C" = -4264.231   $ Sizing
 "HtCap_Sys_T_OfficeOpn_C" = -54021.04   $ Sizing
 "HtCap_Sys_T_OfficeOpn_E" = -48639.1   $ Sizing
 "HtCap_Sys_T_OfficeOpn_N" = -25738.97   $ Sizing
 "HtCap_Sys_T_OfficeOpn_S" = -51099.68   $ Sizing
 "HtCap_Sys_T_OfficeOpn_W" = -45221.95   $ Sizing
 "HtCap_Sys_T_OfficeSm_C" = -7692.184   $ Sizing
 "HtCap_Sys_T_OfficeSm_E" = -35230.6   $ Sizing
 "HtCap_Sys_T_OfficeSm_N" = -16199.29   $ Sizing
 "HtCap_Sys_T_OfficeSm_S" = -37578.3   $ Sizing
 "HtCap_Sys_T_OfficeSm_W" = -32548.72   $ Sizing
 "HtCap_Sys_T_Restrm_C" = -6344.366   $ Sizing
 "HtCap_Sys_T_StorSm_C" = -10004.6   $ Sizing
..

##include Templates\OfL_DX_SZ.inp
END ..
COMPUTE ..
STOP ..
