INPUT ..

##fileprefix C:\Users\jglasskatz\MASControl3\
##set1 IsSizing FALSE
##set1 CoolType DX
##set1 HeatType FURNACE
##set1 EU_HrRepVar 0
##set1 BldgVint 2015
##set1 BldgLoc CZ02

 ##set1 mBFMult 1   $ IP Tech: RefgChg-NRes-Std

PARAMETER
 "AltFactor" = 1.00464   $ IP Non-Tech
 "BF_fFlow" = SpltAC1Sp-ge45_BF_fFlow   $ Msr (Var)TechID: PreNResSplitAC-45to-PENo
 "BF_fT" = SpltAC1Sp-ge45_BF_fT   $ Msr (Var)TechID: PreNResSplitAC-45to-PENo
 "BldgEconoFlag" = 1   $ IP Non-Tech
 "Break_EWSF" = 1   $ IP Non-Tech
 "Break_LWSF" = 1.1   $ IP Non-Tech
 "CDD_DBHi10" = 83   $ IP Non-Tech
 "CDD_DBHi7" = 96   $ IP Non-Tech
 "CDD_DBHi8" = 92   $ IP Non-Tech
 "CDD_DBHi9" = 96   $ IP Non-Tech
 "CDD_DBRange10" = 35   $ IP Non-Tech
 "CDD_DBRange7" = 44   $ IP Non-Tech
 "CDD_DBRange8" = 38   $ IP Non-Tech
 "CDD_DBRange9" = 43   $ IP Non-Tech
 "CDD_Day10" = 15   $ IP Non-Tech
 "CDD_Day7" = 16   $ IP Non-Tech
 "CDD_Day8" = 20   $ IP Non-Tech
 "CDD_Day9" = 17   $ IP Non-Tech
 "CDD_HrHi10" = 15   $ IP Non-Tech
 "CDD_HrHi7" = 15   $ IP Non-Tech
 "CDD_HrHi8" = 16   $ IP Non-Tech
 "CDD_HrHi9" = 14   $ IP Non-Tech
 "CDD_HrLo10" = 7   $ IP Non-Tech
 "CDD_HrLo7" = 7   $ IP Non-Tech
 "CDD_HrLo8" = 6   $ IP Non-Tech
 "CDD_HrLo9" = 6   $ IP Non-Tech
 "CDD_WB10" = 61.02124405   $ IP Non-Tech
 "CDD_WB7" = 68.3706665   $ IP Non-Tech
 "CDD_WB8" = 69.14488983   $ IP Non-Tech
 "CDD_WB9" = 65.15551758   $ IP Non-Tech
 "CEIR_fPLR_Hot" = SpltAC1Sp-ge45_CEIR_fPLR_Hot   $ Msr (Var)TechID: PreNResSplitAC-45to-PENo
 "CEIR_fPLR_Mod" = SpltAC1Sp-ge45_CEIR_fPLR_Mod   $ Msr (Var)TechID: PreNResSplitAC-45to-PENo
 "CEIR_fPLR_Tem" = SpltAC1Sp-ge45_CEIR_fPLR_Tem   $ Msr (Var)TechID: PreNResSplitAC-45to-PENo
 "CLoss_fPLR_Hot" = SpltAC1Sp-ge45_CLoss_fPLR_Hot   $ Msr (Var)TechID: PreNResSplitAC-45to-PENo
 "CLoss_fPLR_Mod" = SpltAC1Sp-ge45_CLoss_fPLR_Mod   $ Msr (Var)TechID: PreNResSplitAC-45to-PENo
 "CLoss_fPLR_Tem" = SpltAC1Sp-ge45_CLoss_fPLR_Tem   $ Msr (Var)TechID: PreNResSplitAC-45to-PENo
 "COP47" = 0   $ Msr (Var)TechID: PreNResSplitAC-45to-PENo
 "CZ_Category" = Mod   $ IP Non-Tech
 "CapRange" = ge45   $ Msr (Var)TechID: PreNResSplitAC-45to-PENo
 "CfmPerBtuh" = 0.03263   $ Msr (Var)TechID: PreNResSplitAC-45to-PENo
 "ChwVintEconoFlag" = 1   $ IP Non-Tech
 "ClCap_fT" = SpltAC1Sp-ge45_ClCap_fT   $ Msr (Var)TechID: PreNResSplitAC-45to-PENo
 "ClSH_fT" = SpltAC1Sp-ge45_ClSH_fT   $ Msr (Var)TechID: PreNResSplitAC-45to-PENo
 "CoilBF" = 0.106518182   $ Msr (Var)TechID: PreNResSplitAC-45to-PENo
 "CondWPerBtuh" = 0   $ Msr (Var)TechID: PreNResSplitAC-45to-PENo
 "Conference_EWSF" = 1   $ IP Non-Tech
 "Conference_LWSF" = 1.4   $ IP Non-Tech
 "CoolSensCap" = 0.759218182   $ Msr (Var)TechID: PreNResSplitAC-45to-PENo
 "CoolSetT" = 45   $ IP Non-Tech
 "CoolType" = DX   $ IP Non-Tech
 "CoolingEIR" = 0.2466   $ Msr (Var)TechID: PreNResSplitAC-45to-PENo
 "CopyRoom_EWSF" = 1.5   $ IP Non-Tech
 "CopyRoom_LWSF" = 1.3   $ IP Non-Tech
 "CorridorStairway_EWSF" = 0.2   $ IP Non-Tech
 "CorridorStairway_LWSF" = 0.6   $ IP Non-Tech
 "CrnkEIR" = 0.002466   $ Msr (Var)TechID: PreNResSplitAC-45to-PENo
 "CrnkMaxT" = 50   $ Msr (Var)TechID: PreNResSplitAC-45to-PENo
 "DXType" = SplitSEER   $ Msr (Var)TechID: PreNResSplitAC-45to-PENo
 "DesCoolT" = 75   $ IP Non-Tech
 "DesHeatT" = 73   $ IP Non-Tech
 "EER" = 11.81793103   $ Msr (Var)TechID: PreNResSplitAC-45to-PENo
 "EIR_fT" = SpltAC1Sp-ge45_EIR_fT   $ Msr (Var)TechID: PreNResSplitAC-45to-PENo
 "EconoCtrl" = FIXED   $ Msr (Multi)TechID: PreNResSplitAC-45to-PENo
 "EconoEnthLimit" = 28   $ IP Non-Tech
 "EconoTempLimit" = 73   $ IP Non-Tech
 "Elevation" = 125   $ IP Non-Tech
 "FanEirPlr" = TwoSpeedFan   $ Msr (Var)TechID: PreNResSplitAC-45to-PENo
 "FanWPerCfm" = 0.294   $ Msr (Var)TechID: PreNResSplitAC-45to-PENo
 "HDD_CloudAmt1" = 0   $ IP Non-Tech
 "HDD_DBHi1" = 51   $ IP Non-Tech
 "HDD_DBRange1" = 22   $ IP Non-Tech
 "HDD_Day1" = 15   $ IP Non-Tech
 "HDD_HrHi1" = 15   $ IP Non-Tech
 "HDD_HrLo1" = 8   $ IP Non-Tech
 "HDD_WB1" = 45.9   $ IP Non-Tech
 "HDD_WindSpd1" = 10.4   $ IP Non-Tech
 "HIR_fT" = 0   $ Msr (Var)TechID: PreNResSplitAC-45to-PENo
 "HSPF" = 0   $ Msr (Var)TechID: PreNResSplitAC-45to-PENo
 "HeatSrc" = FURNACE   $ IP Non-Tech
 "HeatSrcTU" = HEAT-PUMP   $ IP Non-Tech
 "HeatType" = GasFurn   $ IP Non-Tech
 "HeatTypeTU" = HEAT-PUMP   $ IP Non-Tech
 "HtCap_fT" = 0   $ Msr (Var)TechID: PreNResSplitAC-45to-PENo
 "HtCoolCapRatio" = 0   $ Msr (Var)TechID: PreNResSplitAC-45to-PENo
 "HtgEIR" = 0   $ Msr (Var)TechID: PreNResSplitAC-45to-PENo
 "IndoorFanMode" = CONTINUOUS   $ IP Non-Tech
 "KT_TransferAir" = Yes   $ IP Non-Tech
 "Latitude" = 38.5   $ IP Non-Tech
 "LobbyWaiting_EWSF" = 0.5   $ IP Non-Tech
 "LobbyWaiting_LWSF" = 1.3   $ IP Non-Tech
 "Longitude" = 122.7   $ IP Non-Tech
 "LowSpdCapRatio" = 1   $ Msr (Var)TechID: PreNResSplitAC-45to-PENo
 "LowSpdCfmRatio" = 1   $ Msr (Var)TechID: PreNResSplitAC-45to-PENo
 "MZFanMechEff" = 0.58   $ IP Non-Tech
 "MZHasRetFan" = FALSE   $ IP Non-Tech
 "MZ_RFanWPerCfm" = 0.37   $ IP Non-Tech
 "MZ_SFanWPerCfm" = 0.71   $ IP Non-Tech
 "MZ_SupFanStatic" = 2.25   $ IP Non-Tech
 "MaxOAFrac" = 1   $ Msr (Multi)TechID: PreNResSplitAC-45to-PENo
 "MaxSupT_MZ" = 100   $ IP Non-Tech
 "MaxSupT_SZ" = 100   $ IP Non-Tech
 "MaxSupT_TU" = 90   $ IP Non-Tech
 "MechElecRoom_EWSF" = 0.2   $ IP Non-Tech
 "MechElecRoom_LWSF" = 0.7   $ IP Non-Tech
 "MinCfmPerSF" = 0.4   $ IP Non-Tech
 "MinSupT" = 55   $ IP Non-Tech
 "NumStages" = 1   $ Msr (Var)TechID: PreNResSplitAC-45to-PENo
 "OccCoolT" = 76   $ IP Non-Tech
 "OccHeatT" = 72   $ IP Non-Tech
 "OfficeOpen_EWSF" = 1.5   $ IP Non-Tech
 "OfficeOpen_LWSF" = 1.05   $ IP Non-Tech
 "OfficeSmall_EWSF" = 1.5   $ IP Non-Tech
 "OfficeSmall_LWSF" = 1.3   $ IP Non-Tech
 "PkgDxVintEconoFlag" = 1   $ IP Non-Tech
 "Restroom_EWSF" = 0.2   $ IP Non-Tech
 "Restroom_LWSF" = 0.6   $ IP Non-Tech
 "SEER" = 14   $ Msr (Var)TechID: PreNResSplitAC-45to-PENo
 "SZFanMechEff" = 0.58   $ IP Non-Tech
 "SZHasRetFan" = FALSE   $ IP Non-Tech
 "SZ_Is_2Spd" = TRUE   $ IP Non-Tech
 "SZ_SFanWPerCfm" = 0.46   $ IP Non-Tech
 "SZ_SupFanStatic" = 0.75   $ IP Non-Tech
 "Sector" = Any   $ Msr (Var)TechID: PreNResSplitAC-45to-PENo
 "StorageSmlCond_EWSF" = 0.2   $ IP Non-Tech
 "StorageSmlCond_LWSF" = 0.6   $ IP Non-Tech
 "SubType" = AC   $ Msr (Var)TechID: PreNResSplitAC-45to-PENo
 "T24GlzTbl" = TypeTbl   $ IP Non-Tech
 "TermUnitFanMechEff" = 1   $ IP Non-Tech
 "TermUnitFanMode" = INTERMITTENT   $ IP Non-Tech
 "TotCoolCap" = 52519.36364   $ Msr (Var)TechID: PreNResSplitAC-45to-PENo
 "TwrSetpt" = 84   $ IP Non-Tech
 "UnocCoolT" = 86   $ IP Non-Tech
 "UnocHeatT" = 62   $ IP Non-Tech
 "UseEconoVintApplic" = FALSE   $ Msr (Multi)TechID: PreNResSplitAC-45to-PENo
 "WlhpVintEconoFlag" = 1   $ IP Non-Tech
 "DuctDT" = 1   $ IP Tech: ComDuctInsul-1
 "DuctAirLoss" = 0   $ IP Tech: ComDuctLeak-0
 "DuctLossOAFrac" = 0   $ IP Tech: ComDuctLeak-0
 "ComRoofInsCalc" = FromUo   $ IP Tech: ComRoofIns-Hvy-0.04
 "ComRoofInsR" = -999   $ IP Tech: ComRoofIns-Hvy-0.04
 "ComRoofUo" = 0.04   $ IP Tech: ComRoofIns-Hvy-0.04
 "ComEWInsCalc" = FromUo   $ IP Tech: ComWallIns-MFrm-0.06
 "ComEWInsR" = -999   $ IP Tech: ComWallIns-MFrm-0.06
 "ComEWUo" = 0.06   $ IP Tech: ComWallIns-MFrm-0.06
 "ComN_SHGC" = 0.26   $ IP Tech: NResWin-ComN-0.41-0.26
 "ComN_UFactor" = 0.41   $ IP Tech: NResWin-ComN-0.41-0.26
 "ComN_VisTrans" = 0.41   $ IP Tech: NResWin-ComN-0.41-0.26
 "ComN_WinCode" = G2666   $ IP Tech: NResWin-ComN-0.41-0.26
 "ComN_WinFrmFrac" = 0.17   $ IP Tech: NResWin-ComN-0.41-0.26
 "ComN_WinFrmU" = 0.3   $ IP Tech: NResWin-ComN-0.41-0.26
 "ComO_SHGC" = 0.26   $ IP Tech: NResWin-ComO-0.41-0.26
 "ComO_UFactor" = 0.41   $ IP Tech: NResWin-ComO-0.41-0.26
 "ComO_VisTrans" = 0.41   $ IP Tech: NResWin-ComO-0.41-0.26
 "ComO_WinCode" = G2666   $ IP Tech: NResWin-ComO-0.41-0.26
 "ComO_WinFrmFrac" = 0.17   $ IP Tech: NResWin-ComO-0.41-0.26
 "ComO_WinFrmU" = 0.3   $ IP Tech: NResWin-ComO-0.41-0.26
 "LtgMsrApplic" = ALL   $ IP Tech: NonResLtgRefPre
 "LtgSav_CFL" = 0   $ IP Tech: NonResLtgRefPre
 "LtgSav_EX" = 0   $ IP Tech: NonResLtgRefPre
 "LtgSav_HB" = 0   $ IP Tech: NonResLtgRefPre
 "LtgSav_LF" = 0   $ IP Tech: NonResLtgRefPre
 "LtgSav_SP" = 0   $ IP Tech: NonResLtgRefPre
 "CEIR_fPLR" = PSZ65to135_CEIR_fPLR   $ IP Tech: PkgAC2SpP-65to135-E11
 "CLoss_fPLR" = PSZ65to135_CLoss_fPLR   $ IP Tech: PkgAC2SpP-65to135-E11
 "COP" = -1   $ IP Tech: PkgAC2SpP-65to135-E11
 "HtgFuel" = Gas   $ IP Tech: PkgAC2SpP-65to135-E11
 "IEER" = 13.35   $ IP Tech: PkgAC2SpP-65to135-E11
 "NominalCap" = 15   $ IP Tech: PkgAC2SpP-65to135-E11
 "RatedEER" = 11   $ IP Tech: PkgAC2SpP-65to135-E11
 "RatedSupMtrClass" = Premium   $ IP Tech: PkgAC2SpP-65to135-E11
 "SizeRange" = 65to135   $ IP Tech: PkgAC2SpP-65to135-E11
 "SupMotEff" = 0.865   $ IP Tech: PkgAC2SpP-65to135-E11
 "Tier" = 0   $ IP Tech: PkgAC2SpP-65to135-E11
 "FanPwrMult" = 1   $ IP Tech: PkgFurn-0.80AFUE
 "FurnAFUE" = 0.8   $ IP Tech: PkgFurn-0.80AFUE
 "FurnEt" = 0.82   $ IP Tech: PkgFurn-0.80AFUE
 "FurnaceAuxKW" = 0.1   $ IP Tech: PkgFurn-0.80AFUE
 "HIR_fPLR" = Furnace-HIR-fPLR   $ IP Tech: PkgFurn-0.80AFUE
 "VSM" = FALSE   $ IP Tech: PkgFurn-0.80AFUE
 "BFMult" = 1   $ IP Tech: RefgChg-NRes-Std
 "CoolEirMult" = 1   $ IP Tech: RefgChg-NRes-Std
 "SensCoolCapMult" = 1   $ IP Tech: RefgChg-NRes-Std
 "TotCoolCapMult" = 1   $ IP Tech: RefgChg-NRes-Std
 "AltAdjFactor" = 1.004644   $ Sizing
 "CAssFlo_L_Break_CZn" = 451.8983   $ Sizing
 "CAssFlo_L_Conf_CZn" = 427.7018   $ Sizing
 "CAssFlo_L_CopyRm_CZn" = 136.2903   $ Sizing
 "CAssFlo_L_Cordr_CZn" = 487.0204   $ Sizing
 "CAssFlo_L_Cordr_EZn" = 161.2432   $ Sizing
 "CAssFlo_L_Cordr_NZn" = 107.5114   $ Sizing
 "CAssFlo_L_Cordr_SZn" = 189.4755   $ Sizing
 "CAssFlo_L_Cordr_WZn" = 202.5956   $ Sizing
 "CAssFlo_L_LobWait_CZn" = 427.4848   $ Sizing
 "CAssFlo_L_MechElec_CZn" = 90.64416   $ Sizing
 "CAssFlo_L_OfficeOpn_CZn" = 1559.707   $ Sizing
 "CAssFlo_L_OfficeOpn_EZn" = 1248.77   $ Sizing
 "CAssFlo_L_OfficeOpn_NZn" = 939.4991   $ Sizing
 "CAssFlo_L_OfficeOpn_SZn" = 1407.254   $ Sizing
 "CAssFlo_L_OfficeOpn_WZn" = 1535.205   $ Sizing
 "CAssFlo_L_OfficeSm_CZn" = 193.9907   $ Sizing
 "CAssFlo_L_OfficeSm_EZn" = 881.0396   $ Sizing
 "CAssFlo_L_OfficeSm_NZn" = 603.019   $ Sizing
 "CAssFlo_L_OfficeSm_SZn" = 999.8091   $ Sizing
 "CAssFlo_L_OfficeSm_WZn" = 1066.377   $ Sizing
 "CAssFlo_L_Restrm_CZn" = 77.59238   $ Sizing
 "CAssFlo_L_StorSm_CZn" = 268.7852   $ Sizing
 "CAssFlo_M_Break_CZn" = 457.5125   $ Sizing
 "CAssFlo_M_Conf_CZn" = 430.318   $ Sizing
 "CAssFlo_M_CopyRm_CZn" = 139.2411   $ Sizing
 "CAssFlo_M_Cordr_CZn" = 590.1854   $ Sizing
 "CAssFlo_M_Cordr_EZn" = 195.6617   $ Sizing
 "CAssFlo_M_Cordr_NZn" = 133.9833   $ Sizing
 "CAssFlo_M_Cordr_SZn" = 218.3453   $ Sizing
 "CAssFlo_M_Cordr_WZn" = 223.2382   $ Sizing
 "CAssFlo_M_LobWait_CZn" = 451.1352   $ Sizing
 "CAssFlo_M_MechElec_CZn" = 100.2623   $ Sizing
 "CAssFlo_M_OfficeOpn_CZn" = 1555.258   $ Sizing
 "CAssFlo_M_OfficeOpn_EZn" = 1366.762   $ Sizing
 "CAssFlo_M_OfficeOpn_NZn" = 1019.703   $ Sizing
 "CAssFlo_M_OfficeOpn_SZn" = 1513.966   $ Sizing
 "CAssFlo_M_OfficeOpn_WZn" = 1601.652   $ Sizing
 "CAssFlo_M_OfficeSm_CZn" = 202.7549   $ Sizing
 "CAssFlo_M_OfficeSm_EZn" = 955.5434   $ Sizing
 "CAssFlo_M_OfficeSm_NZn" = 656.28   $ Sizing
 "CAssFlo_M_OfficeSm_SZn" = 1070.58   $ Sizing
 "CAssFlo_M_OfficeSm_WZn" = 1107.808   $ Sizing
 "CAssFlo_M_Restrm_CZn" = 84.51002   $ Sizing
 "CAssFlo_M_StorSm_CZn" = 259.32   $ Sizing
 "CAssFlo_T_Break_CZn" = 452.0608   $ Sizing
 "CAssFlo_T_Conf_CZn" = 426.8274   $ Sizing
 "CAssFlo_T_CopyRm_CZn" = 136.5658   $ Sizing
 "CAssFlo_T_Cordr_CZn" = 580.1316   $ Sizing
 "CAssFlo_T_Cordr_EZn" = 187.8344   $ Sizing
 "CAssFlo_T_Cordr_NZn" = 131.8534   $ Sizing
 "CAssFlo_T_Cordr_SZn" = 209.594   $ Sizing
 "CAssFlo_T_Cordr_WZn" = 219.7235   $ Sizing
 "CAssFlo_T_LobWait_CZn" = 445.6177   $ Sizing
 "CAssFlo_T_MechElec_CZn" = 122.0474   $ Sizing
 "CAssFlo_T_OfficeOpn_CZn" = 1578.021   $ Sizing
 "CAssFlo_T_OfficeOpn_EZn" = 1334.082   $ Sizing
 "CAssFlo_T_OfficeOpn_NZn" = 1017.491   $ Sizing
 "CAssFlo_T_OfficeOpn_SZn" = 1487.889   $ Sizing
 "CAssFlo_T_OfficeOpn_WZn" = 1580.492   $ Sizing
 "CAssFlo_T_OfficeSm_CZn" = 200.9618   $ Sizing
 "CAssFlo_T_OfficeSm_EZn" = 960.3054   $ Sizing
 "CAssFlo_T_OfficeSm_NZn" = 662.6459   $ Sizing
 "CAssFlo_T_OfficeSm_SZn" = 1067.143   $ Sizing
 "CAssFlo_T_OfficeSm_WZn" = 1113.36   $ Sizing
 "CAssFlo_T_Restrm_CZn" = 106.8734   $ Sizing
 "CAssFlo_T_StorSm_CZn" = 221.0213   $ Sizing
 "CHRtFlo_Sys_L_Break_C" = 451.8983   $ Sizing
 "CHRtFlo_Sys_L_Conf_C" = 438.8435   $ Sizing
 "CHRtFlo_Sys_L_CopyRm_C" = 136.2903   $ Sizing
 "CHRtFlo_Sys_L_Cordr_C" = 563.8171   $ Sizing
 "CHRtFlo_Sys_L_Cordr_E" = 218.8492   $ Sizing
 "CHRtFlo_Sys_L_Cordr_N" = 107.5114   $ Sizing
 "CHRtFlo_Sys_L_Cordr_S" = 223.3507   $ Sizing
 "CHRtFlo_Sys_L_Cordr_W" = 216.0293   $ Sizing
 "CHRtFlo_Sys_L_LobWait_C" = 427.4848   $ Sizing
 "CHRtFlo_Sys_L_MechElec_C" = 133.7851   $ Sizing
 "CHRtFlo_Sys_L_OfficeOpn_C" = 1670.062   $ Sizing
 "CHRtFlo_Sys_L_OfficeOpn_E" = 1673.046   $ Sizing
 "CHRtFlo_Sys_L_OfficeOpn_N" = 947.8481   $ Sizing
 "CHRtFlo_Sys_L_OfficeOpn_S" = 1695.193   $ Sizing
 "CHRtFlo_Sys_L_OfficeOpn_W" = 1695.372   $ Sizing
 "CHRtFlo_Sys_L_OfficeSm_C" = 235.4908   $ Sizing
 "CHRtFlo_Sys_L_OfficeSm_E" = 1199.756   $ Sizing
 "CHRtFlo_Sys_L_OfficeSm_N" = 617.178   $ Sizing
 "CHRtFlo_Sys_L_OfficeSm_S" = 1240.793   $ Sizing
 "CHRtFlo_Sys_L_OfficeSm_W" = 1213.739   $ Sizing
 "CHRtFlo_Sys_L_Restrm_C" = 211.2538   $ Sizing
 "CHRtFlo_Sys_L_StorSm_C" = 369.9286   $ Sizing
 "CHRtFlo_Sys_M_Break_C" = 3660.1   $ Sizing
 "CHRtFlo_Sys_M_Conf_C" = 4039.037   $ Sizing
 "CHRtFlo_Sys_M_CopyRm_C" = 1122.832   $ Sizing
 "CHRtFlo_Sys_M_Cordr_C" = 6984.608   $ Sizing
 "CHRtFlo_Sys_M_Cordr_E" = 2163.822   $ Sizing
 "CHRtFlo_Sys_M_Cordr_N" = 1071.866   $ Sizing
 "CHRtFlo_Sys_M_Cordr_S" = 2084.121   $ Sizing
 "CHRtFlo_Sys_M_Cordr_W" = 1961.27   $ Sizing
 "CHRtFlo_Sys_M_LobWait_C" = 4096.547   $ Sizing
 "CHRtFlo_Sys_M_MechElec_C" = 1269.059   $ Sizing
 "CHRtFlo_Sys_M_OfficeOpn_C" = 16012.8   $ Sizing
 "CHRtFlo_Sys_M_OfficeOpn_E" = 14749.21   $ Sizing
 "CHRtFlo_Sys_M_OfficeOpn_N" = 8384.558   $ Sizing
 "CHRtFlo_Sys_M_OfficeOpn_S" = 14858.74   $ Sizing
 "CHRtFlo_Sys_M_OfficeOpn_W" = 14263.23   $ Sizing
 "CHRtFlo_Sys_M_OfficeSm_C" = 2337.423   $ Sizing
 "CHRtFlo_Sys_M_OfficeSm_E" = 10509.8   $ Sizing
 "CHRtFlo_Sys_M_OfficeSm_N" = 5472.275   $ Sizing
 "CHRtFlo_Sys_M_OfficeSm_S" = 10763.06   $ Sizing
 "CHRtFlo_Sys_M_OfficeSm_W" = 10179.15   $ Sizing
 "CHRtFlo_Sys_M_Restrm_C" = 1690.031   $ Sizing
 "CHRtFlo_Sys_M_StorSm_C" = 3188.674   $ Sizing
 "CHRtFlo_Sys_T_Break_C" = 452.0608   $ Sizing
 "CHRtFlo_Sys_T_Conf_C" = 460.093   $ Sizing
 "CHRtFlo_Sys_T_CopyRm_C" = 136.5658   $ Sizing
 "CHRtFlo_Sys_T_Cordr_C" = 761.525   $ Sizing
 "CHRtFlo_Sys_T_Cordr_E" = 238.2041   $ Sizing
 "CHRtFlo_Sys_T_Cordr_N" = 131.8534   $ Sizing
 "CHRtFlo_Sys_T_Cordr_S" = 238.7214   $ Sizing
 "CHRtFlo_Sys_T_Cordr_W" = 223.9049   $ Sizing
 "CHRtFlo_Sys_T_LobWait_C" = 454.2533   $ Sizing
 "CHRtFlo_Sys_T_MechElec_C" = 172.2402   $ Sizing
 "CHRtFlo_Sys_T_OfficeOpn_C" = 1805.799   $ Sizing
 "CHRtFlo_Sys_T_OfficeOpn_E" = 1671.774   $ Sizing
 "CHRtFlo_Sys_T_OfficeOpn_N" = 1017.491   $ Sizing
 "CHRtFlo_Sys_T_OfficeOpn_S" = 1739.93   $ Sizing
 "CHRtFlo_Sys_T_OfficeOpn_W" = 1648.536   $ Sizing
 "CHRtFlo_Sys_T_OfficeSm_C" = 269.7422   $ Sizing
 "CHRtFlo_Sys_T_OfficeSm_E" = 1227.447   $ Sizing
 "CHRtFlo_Sys_T_OfficeSm_N" = 662.6459   $ Sizing
 "CHRtFlo_Sys_T_OfficeSm_S" = 1286.072   $ Sizing
 "CHRtFlo_Sys_T_OfficeSm_W" = 1209.324   $ Sizing
 "CHRtFlo_Sys_T_Restrm_C" = 211.2538   $ Sizing
 "CHRtFlo_Sys_T_StorSm_C" = 333.1317   $ Sizing
 "CRtdFlo_Sys_L_Break_C" = 451.8983   $ Sizing
 "CRtdFlo_Sys_L_Conf_C" = 427.7018   $ Sizing
 "CRtdFlo_Sys_L_CopyRm_C" = 136.2903   $ Sizing
 "CRtdFlo_Sys_L_Cordr_C" = 487.0204   $ Sizing
 "CRtdFlo_Sys_L_Cordr_E" = 161.2432   $ Sizing
 "CRtdFlo_Sys_L_Cordr_N" = 107.5114   $ Sizing
 "CRtdFlo_Sys_L_Cordr_S" = 189.4755   $ Sizing
 "CRtdFlo_Sys_L_Cordr_W" = 202.5956   $ Sizing
 "CRtdFlo_Sys_L_LobWait_C" = 427.4848   $ Sizing
 "CRtdFlo_Sys_L_MechElec_C" = 90.64416   $ Sizing
 "CRtdFlo_Sys_L_OfficeOpn_C" = 1559.707   $ Sizing
 "CRtdFlo_Sys_L_OfficeOpn_E" = 1248.77   $ Sizing
 "CRtdFlo_Sys_L_OfficeOpn_N" = 939.4991   $ Sizing
 "CRtdFlo_Sys_L_OfficeOpn_S" = 1407.254   $ Sizing
 "CRtdFlo_Sys_L_OfficeOpn_W" = 1535.205   $ Sizing
 "CRtdFlo_Sys_L_OfficeSm_C" = 193.9907   $ Sizing
 "CRtdFlo_Sys_L_OfficeSm_E" = 881.0396   $ Sizing
 "CRtdFlo_Sys_L_OfficeSm_N" = 603.019   $ Sizing
 "CRtdFlo_Sys_L_OfficeSm_S" = 999.8091   $ Sizing
 "CRtdFlo_Sys_L_OfficeSm_W" = 1066.377   $ Sizing
 "CRtdFlo_Sys_L_Restrm_C" = 77.59238   $ Sizing
 "CRtdFlo_Sys_L_StorSm_C" = 268.7852   $ Sizing
 "CRtdFlo_Sys_M_Break_C" = 3660.1   $ Sizing
 "CRtdFlo_Sys_M_Conf_C" = 3442.544   $ Sizing
 "CRtdFlo_Sys_M_CopyRm_C" = 1113.929   $ Sizing
 "CRtdFlo_Sys_M_Cordr_C" = 4721.483   $ Sizing
 "CRtdFlo_Sys_M_Cordr_E" = 1565.293   $ Sizing
 "CRtdFlo_Sys_M_Cordr_N" = 1071.866   $ Sizing
 "CRtdFlo_Sys_M_Cordr_S" = 1746.762   $ Sizing
 "CRtdFlo_Sys_M_Cordr_W" = 1785.906   $ Sizing
 "CRtdFlo_Sys_M_LobWait_C" = 3609.082   $ Sizing
 "CRtdFlo_Sys_M_MechElec_C" = 802.0982   $ Sizing
 "CRtdFlo_Sys_M_OfficeOpn_C" = 12442.06   $ Sizing
 "CRtdFlo_Sys_M_OfficeOpn_E" = 10934.1   $ Sizing
 "CRtdFlo_Sys_M_OfficeOpn_N" = 8157.627   $ Sizing
 "CRtdFlo_Sys_M_OfficeOpn_S" = 12111.73   $ Sizing
 "CRtdFlo_Sys_M_OfficeOpn_W" = 12813.22   $ Sizing
 "CRtdFlo_Sys_M_OfficeSm_C" = 1622.039   $ Sizing
 "CRtdFlo_Sys_M_OfficeSm_E" = 7644.347   $ Sizing
 "CRtdFlo_Sys_M_OfficeSm_N" = 5250.24   $ Sizing
 "CRtdFlo_Sys_M_OfficeSm_S" = 8564.643   $ Sizing
 "CRtdFlo_Sys_M_OfficeSm_W" = 8862.468   $ Sizing
 "CRtdFlo_Sys_M_Restrm_C" = 676.0801   $ Sizing
 "CRtdFlo_Sys_M_StorSm_C" = 2074.56   $ Sizing
 "CRtdFlo_Sys_T_Break_C" = 452.0608   $ Sizing
 "CRtdFlo_Sys_T_Conf_C" = 426.8274   $ Sizing
 "CRtdFlo_Sys_T_CopyRm_C" = 136.5658   $ Sizing
 "CRtdFlo_Sys_T_Cordr_C" = 580.1316   $ Sizing
 "CRtdFlo_Sys_T_Cordr_E" = 187.8344   $ Sizing
 "CRtdFlo_Sys_T_Cordr_N" = 131.8534   $ Sizing
 "CRtdFlo_Sys_T_Cordr_S" = 209.594   $ Sizing
 "CRtdFlo_Sys_T_Cordr_W" = 219.7235   $ Sizing
 "CRtdFlo_Sys_T_LobWait_C" = 445.6177   $ Sizing
 "CRtdFlo_Sys_T_MechElec_C" = 122.0474   $ Sizing
 "CRtdFlo_Sys_T_OfficeOpn_C" = 1578.021   $ Sizing
 "CRtdFlo_Sys_T_OfficeOpn_E" = 1334.082   $ Sizing
 "CRtdFlo_Sys_T_OfficeOpn_N" = 1017.491   $ Sizing
 "CRtdFlo_Sys_T_OfficeOpn_S" = 1487.889   $ Sizing
 "CRtdFlo_Sys_T_OfficeOpn_W" = 1580.492   $ Sizing
 "CRtdFlo_Sys_T_OfficeSm_C" = 200.9618   $ Sizing
 "CRtdFlo_Sys_T_OfficeSm_E" = 960.3054   $ Sizing
 "CRtdFlo_Sys_T_OfficeSm_N" = 662.6459   $ Sizing
 "CRtdFlo_Sys_T_OfficeSm_S" = 1067.143   $ Sizing
 "CRtdFlo_Sys_T_OfficeSm_W" = 1113.36   $ Sizing
 "CRtdFlo_Sys_T_Restrm_C" = 106.8734   $ Sizing
 "CRtdFlo_Sys_T_StorSm_C" = 221.0213   $ Sizing
 "CSupFlo_Sys_L_Break_C" = 451.8983   $ Sizing
 "CSupFlo_Sys_L_Conf_C" = 427.7018   $ Sizing
 "CSupFlo_Sys_L_CopyRm_C" = 136.2903   $ Sizing
 "CSupFlo_Sys_L_Cordr_C" = 487.0204   $ Sizing
 "CSupFlo_Sys_L_Cordr_E" = 161.2432   $ Sizing
 "CSupFlo_Sys_L_Cordr_N" = 107.5114   $ Sizing
 "CSupFlo_Sys_L_Cordr_S" = 189.4755   $ Sizing
 "CSupFlo_Sys_L_Cordr_W" = 202.5956   $ Sizing
 "CSupFlo_Sys_L_LobWait_C" = 427.4848   $ Sizing
 "CSupFlo_Sys_L_MechElec_C" = 90.64416   $ Sizing
 "CSupFlo_Sys_L_OfficeOpn_C" = 1559.707   $ Sizing
 "CSupFlo_Sys_L_OfficeOpn_E" = 1248.77   $ Sizing
 "CSupFlo_Sys_L_OfficeOpn_N" = 939.4991   $ Sizing
 "CSupFlo_Sys_L_OfficeOpn_S" = 1407.254   $ Sizing
 "CSupFlo_Sys_L_OfficeOpn_W" = 1535.205   $ Sizing
 "CSupFlo_Sys_L_OfficeSm_C" = 193.9907   $ Sizing
 "CSupFlo_Sys_L_OfficeSm_E" = 881.0396   $ Sizing
 "CSupFlo_Sys_L_OfficeSm_N" = 603.019   $ Sizing
 "CSupFlo_Sys_L_OfficeSm_S" = 999.8091   $ Sizing
 "CSupFlo_Sys_L_OfficeSm_W" = 1066.377   $ Sizing
 "CSupFlo_Sys_L_Restrm_C" = 77.59238   $ Sizing
 "CSupFlo_Sys_L_StorSm_C" = 268.7852   $ Sizing
 "CSupFlo_Sys_M_Break_C" = 3660.1   $ Sizing
 "CSupFlo_Sys_M_Conf_C" = 3442.544   $ Sizing
 "CSupFlo_Sys_M_CopyRm_C" = 1113.929   $ Sizing
 "CSupFlo_Sys_M_Cordr_C" = 4721.483   $ Sizing
 "CSupFlo_Sys_M_Cordr_E" = 1565.293   $ Sizing
 "CSupFlo_Sys_M_Cordr_N" = 1071.866   $ Sizing
 "CSupFlo_Sys_M_Cordr_S" = 1746.762   $ Sizing
 "CSupFlo_Sys_M_Cordr_W" = 1785.906   $ Sizing
 "CSupFlo_Sys_M_LobWait_C" = 3609.082   $ Sizing
 "CSupFlo_Sys_M_MechElec_C" = 802.0982   $ Sizing
 "CSupFlo_Sys_M_OfficeOpn_C" = 12442.06   $ Sizing
 "CSupFlo_Sys_M_OfficeOpn_E" = 10934.1   $ Sizing
 "CSupFlo_Sys_M_OfficeOpn_N" = 8157.627   $ Sizing
 "CSupFlo_Sys_M_OfficeOpn_S" = 12111.73   $ Sizing
 "CSupFlo_Sys_M_OfficeOpn_W" = 12813.22   $ Sizing
 "CSupFlo_Sys_M_OfficeSm_C" = 1622.039   $ Sizing
 "CSupFlo_Sys_M_OfficeSm_E" = 7644.347   $ Sizing
 "CSupFlo_Sys_M_OfficeSm_N" = 5250.24   $ Sizing
 "CSupFlo_Sys_M_OfficeSm_S" = 8564.643   $ Sizing
 "CSupFlo_Sys_M_OfficeSm_W" = 8862.468   $ Sizing
 "CSupFlo_Sys_M_Restrm_C" = 676.0801   $ Sizing
 "CSupFlo_Sys_M_StorSm_C" = 2074.56   $ Sizing
 "CSupFlo_Sys_T_Break_C" = 452.0608   $ Sizing
 "CSupFlo_Sys_T_Conf_C" = 426.8274   $ Sizing
 "CSupFlo_Sys_T_CopyRm_C" = 136.5658   $ Sizing
 "CSupFlo_Sys_T_Cordr_C" = 580.1316   $ Sizing
 "CSupFlo_Sys_T_Cordr_E" = 187.8344   $ Sizing
 "CSupFlo_Sys_T_Cordr_N" = 131.8534   $ Sizing
 "CSupFlo_Sys_T_Cordr_S" = 209.594   $ Sizing
 "CSupFlo_Sys_T_Cordr_W" = 219.7235   $ Sizing
 "CSupFlo_Sys_T_LobWait_C" = 445.6177   $ Sizing
 "CSupFlo_Sys_T_MechElec_C" = 122.0474   $ Sizing
 "CSupFlo_Sys_T_OfficeOpn_C" = 1578.021   $ Sizing
 "CSupFlo_Sys_T_OfficeOpn_E" = 1334.082   $ Sizing
 "CSupFlo_Sys_T_OfficeOpn_N" = 1017.491   $ Sizing
 "CSupFlo_Sys_T_OfficeOpn_S" = 1487.889   $ Sizing
 "CSupFlo_Sys_T_OfficeOpn_W" = 1580.492   $ Sizing
 "CSupFlo_Sys_T_OfficeSm_C" = 200.9618   $ Sizing
 "CSupFlo_Sys_T_OfficeSm_E" = 960.3054   $ Sizing
 "CSupFlo_Sys_T_OfficeSm_N" = 662.6459   $ Sizing
 "CSupFlo_Sys_T_OfficeSm_S" = 1067.143   $ Sizing
 "CSupFlo_Sys_T_OfficeSm_W" = 1113.36   $ Sizing
 "CSupFlo_Sys_T_Restrm_C" = 106.8734   $ Sizing
 "CSupFlo_Sys_T_StorSm_C" = 221.0213   $ Sizing
 "ClCap_Sys_L_Break_C" = 15422.03   $ Sizing
 "ClCap_Sys_L_Conf_C" = 18577.08   $ Sizing
 "ClCap_Sys_L_CopyRm_C" = 4651.211   $ Sizing
 "ClCap_Sys_L_Cordr_C" = 16620.65   $ Sizing
 "ClCap_Sys_L_Cordr_E" = 5502.782   $ Sizing
 "ClCap_Sys_L_Cordr_N" = 3669.067   $ Sizing
 "ClCap_Sys_L_Cordr_S" = 6466.272   $ Sizing
 "ClCap_Sys_L_Cordr_W" = 6914.024   $ Sizing
 "ClCap_Sys_L_LobWait_C" = 14588.87   $ Sizing
 "ClCap_Sys_L_MechElec_C" = 3093.433   $ Sizing
 "ClCap_Sys_L_OfficeOpn_C" = 53228.45   $ Sizing
 "ClCap_Sys_L_OfficeOpn_E" = 42617.04   $ Sizing
 "ClCap_Sys_L_OfficeOpn_N" = 32062.5   $ Sizing
 "ClCap_Sys_L_OfficeOpn_S" = 48025.66   $ Sizing
 "ClCap_Sys_L_OfficeOpn_W" = 52392.28   $ Sizing
 "ClCap_Sys_L_OfficeSm_C" = 6620.364   $ Sizing
 "ClCap_Sys_L_OfficeSm_E" = 30067.43   $ Sizing
 "ClCap_Sys_L_OfficeSm_N" = 20579.36   $ Sizing
 "ClCap_Sys_L_OfficeSm_S" = 34120.71   $ Sizing
 "ClCap_Sys_L_OfficeSm_W" = 36392.48   $ Sizing
 "ClCap_Sys_L_Restrm_C" = 2648.012   $ Sizing
 "ClCap_Sys_L_StorSm_C" = 9172.894   $ Sizing
 "ClCap_Sys_M_Break_C" = 124909   $ Sizing
 "ClCap_Sys_M_Conf_C" = 149525.7   $ Sizing
 "ClCap_Sys_M_CopyRm_C" = 38015.29   $ Sizing
 "ClCap_Sys_M_Cordr_C" = 161131.1   $ Sizing
 "ClCap_Sys_M_Cordr_E" = 53419.11   $ Sizing
 "ClCap_Sys_M_Cordr_N" = 36579.82   $ Sizing
 "ClCap_Sys_M_Cordr_S" = 59612.14   $ Sizing
 "ClCap_Sys_M_Cordr_W" = 60948   $ Sizing
 "ClCap_Sys_M_LobWait_C" = 123167.9   $ Sizing
 "ClCap_Sys_M_MechElec_C" = 27373.38   $ Sizing
 "ClCap_Sys_M_OfficeOpn_C" = 424612.9   $ Sizing
 "ClCap_Sys_M_OfficeOpn_E" = 373150.3   $ Sizing
 "ClCap_Sys_M_OfficeOpn_N" = 278397.2   $ Sizing
 "ClCap_Sys_M_OfficeOpn_S" = 413339.6   $ Sizing
 "ClCap_Sys_M_OfficeOpn_W" = 437279.6   $ Sizing
 "ClCap_Sys_M_OfficeSm_C" = 55355.68   $ Sizing
 "ClCap_Sys_M_OfficeSm_E" = 260880.3   $ Sizing
 "ClCap_Sys_M_OfficeSm_N" = 179176.1   $ Sizing
 "ClCap_Sys_M_OfficeSm_S" = 292287.4   $ Sizing
 "ClCap_Sys_M_OfficeSm_W" = 302451.4   $ Sizing
 "ClCap_Sys_M_Restrm_C" = 23072.74   $ Sizing
 "ClCap_Sys_M_StorSm_C" = 70798.97   $ Sizing
 "ClCap_Sys_T_Break_C" = 15427.58   $ Sizing
 "ClCap_Sys_T_Conf_C" = 18539.1   $ Sizing
 "ClCap_Sys_T_CopyRm_C" = 4660.609   $ Sizing
 "ClCap_Sys_T_Cordr_C" = 19798.28   $ Sizing
 "ClCap_Sys_T_Cordr_E" = 6410.268   $ Sizing
 "ClCap_Sys_T_Cordr_N" = 4499.789   $ Sizing
 "ClCap_Sys_T_Cordr_S" = 7152.859   $ Sizing
 "ClCap_Sys_T_Cordr_W" = 7498.552   $ Sizing
 "ClCap_Sys_T_LobWait_C" = 15207.7   $ Sizing
 "ClCap_Sys_T_MechElec_C" = 4165.137   $ Sizing
 "ClCap_Sys_T_OfficeOpn_C" = 53853.47   $ Sizing
 "ClCap_Sys_T_OfficeOpn_E" = 45528.51   $ Sizing
 "ClCap_Sys_T_OfficeOpn_N" = 34724.14   $ Sizing
 "ClCap_Sys_T_OfficeOpn_S" = 50777.5   $ Sizing
 "ClCap_Sys_T_OfficeOpn_W" = 53937.81   $ Sizing
 "ClCap_Sys_T_OfficeSm_C" = 6858.267   $ Sizing
 "ClCap_Sys_T_OfficeSm_E" = 32772.55   $ Sizing
 "ClCap_Sys_T_OfficeSm_N" = 22614.26   $ Sizing
 "ClCap_Sys_T_OfficeSm_S" = 36418.63   $ Sizing
 "ClCap_Sys_T_OfficeSm_W" = 37995.88   $ Sizing
 "ClCap_Sys_T_Restrm_C" = 3647.291   $ Sizing
 "ClCap_Sys_T_StorSm_C" = 7542.841   $ Sizing
 "HtCap_Sys_L_Break_C" = -26463.47   $ Sizing
 "HtCap_Sys_L_Conf_C" = -27034.65   $ Sizing
 "HtCap_Sys_L_CopyRm_C" = -9482.624   $ Sizing
 "HtCap_Sys_L_Cordr_C" = -27082.07   $ Sizing
 "HtCap_Sys_L_Cordr_E" = -8209.685   $ Sizing
 "HtCap_Sys_L_Cordr_N" = -5114.057   $ Sizing
 "HtCap_Sys_L_Cordr_S" = -8254.819   $ Sizing
 "HtCap_Sys_L_Cordr_W" = -8120.86   $ Sizing
 "HtCap_Sys_L_LobWait_C" = -24974.31   $ Sizing
 "HtCap_Sys_L_MechElec_C" = -6370.325   $ Sizing
 "HtCap_Sys_L_OfficeOpn_C" = -81589.87   $ Sizing
 "HtCap_Sys_L_OfficeOpn_E" = -58768.48   $ Sizing
 "HtCap_Sys_L_OfficeOpn_N" = -37814.55   $ Sizing
 "HtCap_Sys_L_OfficeOpn_S" = -58729.25   $ Sizing
 "HtCap_Sys_L_OfficeOpn_W" = -59336.76   $ Sizing
 "HtCap_Sys_L_OfficeSm_C" = -9690.91   $ Sizing
 "HtCap_Sys_L_OfficeSm_E" = -41704.29   $ Sizing
 "HtCap_Sys_L_OfficeSm_N" = -24552.81   $ Sizing
 "HtCap_Sys_L_OfficeSm_S" = -42577.54   $ Sizing
 "HtCap_Sys_L_OfficeSm_W" = -42164.57   $ Sizing
 "HtCap_Sys_L_Restrm_C" = -7667.361   $ Sizing
 "HtCap_Sys_L_StorSm_C" = -17258.95   $ Sizing
 "HtCap_Sys_M_Break_C" = -204359.8   $ Sizing
 "HtCap_Sys_M_Conf_C" = -231652.3   $ Sizing
 "HtCap_Sys_M_CopyRm_C" = -68281.24   $ Sizing
 "HtCap_Sys_M_Cordr_C" = -287437.8   $ Sizing
 "HtCap_Sys_M_Cordr_E" = -77418.77   $ Sizing
 "HtCap_Sys_M_Cordr_N" = -45970.89   $ Sizing
 "HtCap_Sys_M_Cordr_S" = -74329.89   $ Sizing
 "HtCap_Sys_M_Cordr_W" = -71485.28   $ Sizing
 "HtCap_Sys_M_LobWait_C" = -209579.1   $ Sizing
 "HtCap_Sys_M_MechElec_C" = -56599.17   $ Sizing
 "HtCap_Sys_M_OfficeOpn_C" = -784446   $ Sizing
 "HtCap_Sys_M_OfficeOpn_E" = -508035.6   $ Sizing
 "HtCap_Sys_M_OfficeOpn_N" = -324837.5   $ Sizing
 "HtCap_Sys_M_OfficeOpn_S" = -505039.5   $ Sizing
 "HtCap_Sys_M_OfficeOpn_W" = -493405.4   $ Sizing
 "HtCap_Sys_M_OfficeSm_C" = -90563.49   $ Sizing
 "HtCap_Sys_M_OfficeSm_E" = -358736.3   $ Sizing
 "HtCap_Sys_M_OfficeSm_N" = -211487   $ Sizing
 "HtCap_Sys_M_OfficeSm_S" = -362990.3   $ Sizing
 "HtCap_Sys_M_OfficeSm_W" = -349464.2   $ Sizing
 "HtCap_Sys_M_Restrm_C" = -66024.68   $ Sizing
 "HtCap_Sys_M_StorSm_C" = -141247   $ Sizing
 "HtCap_Sys_T_Break_C" = -26828.57   $ Sizing
 "HtCap_Sys_T_Conf_C" = -28327.71   $ Sizing
 "HtCap_Sys_T_CopyRm_C" = -8810.995   $ Sizing
 "HtCap_Sys_T_Cordr_C" = -35877.91   $ Sizing
 "HtCap_Sys_T_Cordr_E" = -9767.099   $ Sizing
 "HtCap_Sys_T_Cordr_N" = -6342.001   $ Sizing
 "HtCap_Sys_T_Cordr_S" = -9788.702   $ Sizing
 "HtCap_Sys_T_Cordr_W" = -9292.206   $ Sizing
 "HtCap_Sys_T_LobWait_C" = -25669.67   $ Sizing
 "HtCap_Sys_T_MechElec_C" = -7463.036   $ Sizing
 "HtCap_Sys_T_OfficeOpn_C" = -80071.78   $ Sizing
 "HtCap_Sys_T_OfficeOpn_E" = -64527.68   $ Sizing
 "HtCap_Sys_T_OfficeOpn_N" = -44395.56   $ Sizing
 "HtCap_Sys_T_OfficeOpn_S" = -67714.8   $ Sizing
 "HtCap_Sys_T_OfficeOpn_W" = -63698.51   $ Sizing
 "HtCap_Sys_T_OfficeSm_C" = -11723.83   $ Sizing
 "HtCap_Sys_T_OfficeSm_E" = -47044.38   $ Sizing
 "HtCap_Sys_T_OfficeSm_N" = -28652.9   $ Sizing
 "HtCap_Sys_T_OfficeSm_S" = -49167.66   $ Sizing
 "HtCap_Sys_T_OfficeSm_W" = -46550.89   $ Sizing
 "HtCap_Sys_T_Restrm_C" = -8617.778   $ Sizing
 "HtCap_Sys_T_StorSm_C" = -17129.81   $ Sizing
..

##include Templates\OfL_DX_SZ.inp
END ..
COMPUTE ..
STOP ..
