INPUT ..

##fileprefix C:\Users\jglasskatz\MASControl3\
##set1 IsSizing FALSE
##set1 CoolType DX
##set1 HeatType FURNACE
##set1 EU_HrRepVar 0
##set1 BldgVint 1985
##set1 BldgLoc CZ07

 ##set1 mBFMult 1   $ IP Tech: RefgChg-NRes-Std

PARAMETER
 "AltFactor" = 1.00051   $ IP Non-Tech
 "BF_fFlow" = SpltAC1Sp_BF_fFlow   $ Msr (Var)TechID: PreNResSplitAC-45to-PENo
 "BF_fT" = SpltAC1Sp_BF_fT   $ Msr (Var)TechID: PreNResSplitAC-45to-PENo
 "BldgEconoFlag" = 1   $ IP Non-Tech
 "Break_EWSF" = 1   $ IP Non-Tech
 "Break_LWSF" = 1.1   $ IP Non-Tech
 "CDD_DBHi10" = 80   $ IP Non-Tech
 "CDD_DBHi7" = 75   $ IP Non-Tech
 "CDD_DBHi8" = 75   $ IP Non-Tech
 "CDD_DBHi9" = 80   $ IP Non-Tech
 "CDD_DBRange10" = 20   $ IP Non-Tech
 "CDD_DBRange7" = 8   $ IP Non-Tech
 "CDD_DBRange8" = 6   $ IP Non-Tech
 "CDD_DBRange9" = 12   $ IP Non-Tech
 "CDD_Day10" = 15   $ IP Non-Tech
 "CDD_Day7" = 16   $ IP Non-Tech
 "CDD_Day8" = 20   $ IP Non-Tech
 "CDD_Day9" = 17   $ IP Non-Tech
 "CDD_HrHi10" = 11   $ IP Non-Tech
 "CDD_HrHi7" = 14   $ IP Non-Tech
 "CDD_HrHi8" = 11   $ IP Non-Tech
 "CDD_HrHi9" = 11   $ IP Non-Tech
 "CDD_HrLo10" = 4   $ IP Non-Tech
 "CDD_HrLo7" = 6   $ IP Non-Tech
 "CDD_HrLo8" = 1   $ IP Non-Tech
 "CDD_HrLo9" = 5   $ IP Non-Tech
 "CDD_WB10" = 64.57550049   $ IP Non-Tech
 "CDD_WB7" = 66.79747772   $ IP Non-Tech
 "CDD_WB8" = 69.55462646   $ IP Non-Tech
 "CDD_WB9" = 68.8309021   $ IP Non-Tech
 "CEIR_fPLR_Hot" = SpltAC1Sp_CEIR_fPLR_Hot   $ Msr (Var)TechID: PreNResSplitAC-45to-PENo
 "CEIR_fPLR_Mod" = SpltAC1Sp_CEIR_fPLR_Mod   $ Msr (Var)TechID: PreNResSplitAC-45to-PENo
 "CEIR_fPLR_Tem" = SpltAC1Sp_CEIR_fPLR_Tem   $ Msr (Var)TechID: PreNResSplitAC-45to-PENo
 "CLoss_fPLR_Hot" = SpltAC1Sp_CLoss_fPLR_Hot   $ Msr (Var)TechID: PreNResSplitAC-45to-PENo
 "CLoss_fPLR_Mod" = SpltAC1Sp_CLoss_fPLR_Mod   $ Msr (Var)TechID: PreNResSplitAC-45to-PENo
 "CLoss_fPLR_Tem" = SpltAC1Sp_CLoss_fPLR_Tem   $ Msr (Var)TechID: PreNResSplitAC-45to-PENo
 "COP47" = 0   $ Msr (Var)TechID: PreNResSplitAC-45to-PENo
 "CZ_Category" = Tem   $ IP Non-Tech
 "CapRange" = Any   $ Msr (Var)TechID: PreNResSplitAC-45to-PENo
 "CfmPerBtuh" = 0.0321   $ Msr (Var)TechID: PreNResSplitAC-45to-PENo
 "ChwVintEconoFlag" = 1   $ IP Non-Tech
 "ClCap_fT" = SpltAC1Sp_ClCap_fT   $ Msr (Var)TechID: PreNResSplitAC-45to-PENo
 "ClSH_fT" = SpltAC1Sp_ClSH_fT   $ Msr (Var)TechID: PreNResSplitAC-45to-PENo
 "CoilBF" = 0.12   $ Msr (Var)TechID: PreNResSplitAC-45to-PENo
 "CondWPerBtuh" = 0   $ Msr (Var)TechID: PreNResSplitAC-45to-PENo
 "Conference_EWSF" = 1.1   $ IP Non-Tech
 "Conference_LWSF" = 1.4   $ IP Non-Tech
 "CoolSensCap" = 0.744   $ Msr (Var)TechID: PreNResSplitAC-45to-PENo
 "CoolSetT" = 45   $ IP Non-Tech
 "CoolType" = DX   $ IP Non-Tech
 "CoolingEIR" = 0.29437   $ Msr (Var)TechID: PreNResSplitAC-45to-PENo
 "CopyRoom_EWSF" = 1.65   $ IP Non-Tech
 "CopyRoom_LWSF" = 1.3   $ IP Non-Tech
 "CorridorStairway_EWSF" = 0.22   $ IP Non-Tech
 "CorridorStairway_LWSF" = 0.6   $ IP Non-Tech
 "CrnkEIR" = 0.0029437   $ Msr (Var)TechID: PreNResSplitAC-45to-PENo
 "CrnkMaxT" = 50   $ Msr (Var)TechID: PreNResSplitAC-45to-PENo
 "DXType" = SplitSEER   $ Msr (Var)TechID: PreNResSplitAC-45to-PENo
 "DesCoolT" = 75   $ IP Non-Tech
 "DesHeatT" = 73   $ IP Non-Tech
 "EER" = 9.799295775   $ Msr (Var)TechID: PreNResSplitAC-45to-PENo
 "EIR_fT" = SpltAC1Sp_EIR_fT   $ Msr (Var)TechID: PreNResSplitAC-45to-PENo
 "EconoCtrl" = FIXED   $ Msr (Multi)TechID: PreNResSplitAC-45to-PENo
 "EconoEnthLimit" = 28   $ IP Non-Tech
 "EconoTempLimit" = 69   $ IP Non-Tech
 "Elevation" = 13   $ IP Non-Tech
 "FanEirPlr" = TwoSpeedFan   $ Msr (Var)TechID: PreNResSplitAC-45to-PENo
 "FanWPerCfm" = 0.365   $ Msr (Var)TechID: PreNResSplitAC-45to-PENo
 "HDD_CloudAmt1" = 0   $ IP Non-Tech
 "HDD_DBHi1" = 57   $ IP Non-Tech
 "HDD_DBRange1" = 13   $ IP Non-Tech
 "HDD_Day1" = 15   $ IP Non-Tech
 "HDD_HrHi1" = 13   $ IP Non-Tech
 "HDD_HrLo1" = 5   $ IP Non-Tech
 "HDD_WB1" = 43.6   $ IP Non-Tech
 "HDD_WindSpd1" = 11.5   $ IP Non-Tech
 "HIR_fT" = 0   $ Msr (Var)TechID: PreNResSplitAC-45to-PENo
 "HSPF" = 0   $ Msr (Var)TechID: PreNResSplitAC-45to-PENo
 "HeatSrc" = FURNACE   $ IP Non-Tech
 "HeatSrcTU" = HEAT-PUMP   $ IP Non-Tech
 "HeatType" = GasFurn   $ IP Non-Tech
 "HeatTypeTU" = HEAT-PUMP   $ IP Non-Tech
 "HtCap_fT" = 0   $ Msr (Var)TechID: PreNResSplitAC-45to-PENo
 "HtCoolCapRatio" = 0   $ Msr (Var)TechID: PreNResSplitAC-45to-PENo
 "HtgEIR" = 0   $ Msr (Var)TechID: PreNResSplitAC-45to-PENo
 "IndoorFanMode" = CONTINUOUS   $ IP Non-Tech
 "KT_TransferAir" = No   $ IP Non-Tech
 "Latitude" = 32.7   $ IP Non-Tech
 "LobbyWaiting_EWSF" = 0.525   $ IP Non-Tech
 "LobbyWaiting_LWSF" = 1.3   $ IP Non-Tech
 "Longitude" = 117.2   $ IP Non-Tech
 "LowSpdCapRatio" = 1   $ Msr (Var)TechID: PreNResSplitAC-45to-PENo
 "LowSpdCfmRatio" = 1   $ Msr (Var)TechID: PreNResSplitAC-45to-PENo
 "MZFanMechEff" = 0.58   $ IP Non-Tech
 "MZHasRetFan" = FALSE   $ IP Non-Tech
 "MZ_RFanWPerCfm" = 0.37   $ IP Non-Tech
 "MZ_SFanWPerCfm" = 0.71   $ IP Non-Tech
 "MZ_SupFanStatic" = 2.25   $ IP Non-Tech
 "MaxOAFrac" = 1   $ Msr (Multi)TechID: PreNResSplitAC-45to-PENo
 "MaxSupT_MZ" = 100   $ IP Non-Tech
 "MaxSupT_SZ" = 100   $ IP Non-Tech
 "MaxSupT_TU" = 90   $ IP Non-Tech
 "MechElecRoom_EWSF" = 0.22   $ IP Non-Tech
 "MechElecRoom_LWSF" = 0.7   $ IP Non-Tech
 "MinCfmPerSF" = 0.4   $ IP Non-Tech
 "MinSupT" = 55   $ IP Non-Tech
 "NumStages" = 1   $ Msr (Var)TechID: PreNResSplitAC-45to-PENo
 "OccCoolT" = 76   $ IP Non-Tech
 "OccHeatT" = 72   $ IP Non-Tech
 "OfficeOpen_EWSF" = 1.65   $ IP Non-Tech
 "OfficeOpen_LWSF" = 1.2   $ IP Non-Tech
 "OfficeSmall_EWSF" = 1.65   $ IP Non-Tech
 "OfficeSmall_LWSF" = 1.3   $ IP Non-Tech
 "PkgDxVintEconoFlag" = 0   $ IP Non-Tech
 "Restroom_EWSF" = 0.22   $ IP Non-Tech
 "Restroom_LWSF" = 0.6   $ IP Non-Tech
 "SEER" = 11.5   $ Msr (Var)TechID: PreNResSplitAC-45to-PENo
 "SZFanMechEff" = 0.58   $ IP Non-Tech
 "SZHasRetFan" = FALSE   $ IP Non-Tech
 "SZ_Is_2Spd" = FALSE   $ IP Non-Tech
 "SZ_SFanWPerCfm" = 0.46   $ IP Non-Tech
 "SZ_SupFanStatic" = 0.75   $ IP Non-Tech
 "Sector" = Any   $ Msr (Var)TechID: PreNResSplitAC-45to-PENo
 "StorageSmlCond_EWSF" = 0.22   $ IP Non-Tech
 "StorageSmlCond_LWSF" = 0.6   $ IP Non-Tech
 "SubType" = AC   $ Msr (Var)TechID: PreNResSplitAC-45to-PENo
 "T24GlzTbl" = CZTbl   $ IP Non-Tech
 "TermUnitFanMechEff" = 1   $ IP Non-Tech
 "TermUnitFanMode" = INTERMITTENT   $ IP Non-Tech
 "TotCoolCap" = 34895   $ Msr (Var)TechID: PreNResSplitAC-45to-PENo
 "TwrSetpt" = 80   $ IP Non-Tech
 "UnocCoolT" = 86   $ IP Non-Tech
 "UnocHeatT" = 62   $ IP Non-Tech
 "UseEconoVintApplic" = FALSE   $ Msr (Multi)TechID: PreNResSplitAC-45to-PENo
 "WlhpVintEconoFlag" = 0   $ IP Non-Tech
 "DuctDT" = 1   $ IP Tech: ComDuctInsul-1
 "DuctAirLoss" = 0   $ IP Tech: ComDuctLeak-0
 "DuctLossOAFrac" = 0   $ IP Tech: ComDuctLeak-0
 "ComRoofInsCalc" = FromUo   $ IP Tech: ComRoofIns-Hvy-0.06
 "ComRoofInsR" = -999   $ IP Tech: ComRoofIns-Hvy-0.06
 "ComRoofUo" = 0.06   $ IP Tech: ComRoofIns-Hvy-0.06
 "ComEWInsCalc" = FromUo   $ IP Tech: ComWallIns-MFrm-0.14
 "ComEWInsR" = -999   $ IP Tech: ComWallIns-MFrm-0.14
 "ComEWUo" = 0.14   $ IP Tech: ComWallIns-MFrm-0.14
 "ComN_SHGC" = 0.82   $ IP Tech: NResWin-ComN-1.23-0.82
 "ComN_UFactor" = 1.23   $ IP Tech: NResWin-ComN-1.23-0.82
 "ComN_VisTrans" = 0.9   $ IP Tech: NResWin-ComN-1.23-0.82
 "ComN_WinCode" = G1000   $ IP Tech: NResWin-ComN-1.23-0.82
 "ComN_WinFrmFrac" = 0.17   $ IP Tech: NResWin-ComN-1.23-0.82
 "ComN_WinFrmU" = 1   $ IP Tech: NResWin-ComN-1.23-0.82
 "ComO_SHGC" = 0.82   $ IP Tech: NResWin-ComO-1.23-0.82
 "ComO_UFactor" = 1.23   $ IP Tech: NResWin-ComO-1.23-0.82
 "ComO_VisTrans" = 0.9   $ IP Tech: NResWin-ComO-1.23-0.82
 "ComO_WinCode" = G1000   $ IP Tech: NResWin-ComO-1.23-0.82
 "ComO_WinFrmFrac" = 0.17   $ IP Tech: NResWin-ComO-1.23-0.82
 "ComO_WinFrmU" = 1   $ IP Tech: NResWin-ComO-1.23-0.82
 "LtgMsrApplic" = ALL   $ IP Tech: NonResLtgRefPre
 "LtgSav_CFL" = 0   $ IP Tech: NonResLtgRefPre
 "LtgSav_EX" = 0   $ IP Tech: NonResLtgRefPre
 "LtgSav_HB" = 0   $ IP Tech: NonResLtgRefPre
 "LtgSav_LF" = 0   $ IP Tech: NonResLtgRefPre
 "LtgSav_SP" = 0   $ IP Tech: NonResLtgRefPre
 "CEIR_fPLR" = PSZ65to135_CEIR_fPLR   $ IP Tech: PkgAC1SpH-65to135-E10
 "CLoss_fPLR" = PSZ65to135_CLoss_fPLR   $ IP Tech: PkgAC1SpH-65to135-E10
 "COP" = -1   $ IP Tech: PkgAC1SpH-65to135-E10
 "HtgFuel" = Gas   $ IP Tech: PkgAC1SpH-65to135-E10
 "IEER" = 11.87   $ IP Tech: PkgAC1SpH-65to135-E10
 "NominalCap" = 15   $ IP Tech: PkgAC1SpH-65to135-E10
 "RatedEER" = 10   $ IP Tech: PkgAC1SpH-65to135-E10
 "RatedSupMtrClass" = HiEff   $ IP Tech: PkgAC1SpH-65to135-E10
 "SizeRange" = 65to135   $ IP Tech: PkgAC1SpH-65to135-E10
 "SupMotEff" = 0.84   $ IP Tech: PkgAC1SpH-65to135-E10
 "Tier" = 0   $ IP Tech: PkgAC1SpH-65to135-E10
 "FanPwrMult" = 1   $ IP Tech: PkgFurn-0.80AFUE
 "FurnAFUE" = 0.8   $ IP Tech: PkgFurn-0.80AFUE
 "FurnEt" = 0.82   $ IP Tech: PkgFurn-0.80AFUE
 "FurnaceAuxKW" = 0.1   $ IP Tech: PkgFurn-0.80AFUE
 "HIR_fPLR" = Furnace-HIR-fPLR   $ IP Tech: PkgFurn-0.80AFUE
 "VSM" = FALSE   $ IP Tech: PkgFurn-0.80AFUE
 "BFMult" = 1   $ IP Tech: RefgChg-NRes-Std
 "CoolEirMult" = 1   $ IP Tech: RefgChg-NRes-Std
 "SensCoolCapMult" = 1   $ IP Tech: RefgChg-NRes-Std
 "TotCoolCapMult" = 1   $ IP Tech: RefgChg-NRes-Std
 "AltAdjFactor" = 1.000512   $ Sizing
 "CAssFlo_L_Break_CZn" = 373.3621   $ Sizing
 "CAssFlo_L_Conf_CZn" = 454.6318   $ Sizing
 "CAssFlo_L_CopyRm_CZn" = 121.0143   $ Sizing
 "CAssFlo_L_Cordr_CZn" = 600.8099   $ Sizing
 "CAssFlo_L_Cordr_EZn" = 324.5615   $ Sizing
 "CAssFlo_L_Cordr_NZn" = 111.3394   $ Sizing
 "CAssFlo_L_Cordr_SZn" = 342.9757   $ Sizing
 "CAssFlo_L_Cordr_WZn" = 319.4577   $ Sizing
 "CAssFlo_L_LobWait_CZn" = 398.7125   $ Sizing
 "CAssFlo_L_MechElec_CZn" = 133.2348   $ Sizing
 "CAssFlo_L_OfficeOpn_CZn" = 1798.071   $ Sizing
 "CAssFlo_L_OfficeOpn_EZn" = 2489.85   $ Sizing
 "CAssFlo_L_OfficeOpn_NZn" = 1035.989   $ Sizing
 "CAssFlo_L_OfficeOpn_SZn" = 2518.732   $ Sizing
 "CAssFlo_L_OfficeOpn_WZn" = 2530.762   $ Sizing
 "CAssFlo_L_OfficeSm_CZn" = 244.3442   $ Sizing
 "CAssFlo_L_OfficeSm_EZn" = 1844.607   $ Sizing
 "CAssFlo_L_OfficeSm_NZn" = 666.1567   $ Sizing
 "CAssFlo_L_OfficeSm_SZn" = 1897.409   $ Sizing
 "CAssFlo_L_OfficeSm_WZn" = 1870.058   $ Sizing
 "CAssFlo_L_Restrm_CZn" = 210.3849   $ Sizing
 "CAssFlo_L_StorSm_CZn" = 395.3112   $ Sizing
 "CAssFlo_M_Break_CZn" = 410.272   $ Sizing
 "CAssFlo_M_Conf_CZn" = 513.6951   $ Sizing
 "CAssFlo_M_CopyRm_CZn" = 152.9708   $ Sizing
 "CAssFlo_M_Cordr_CZn" = 962.2978   $ Sizing
 "CAssFlo_M_Cordr_EZn" = 373.372   $ Sizing
 "CAssFlo_M_Cordr_NZn" = 157.2938   $ Sizing
 "CAssFlo_M_Cordr_SZn" = 393.1469   $ Sizing
 "CAssFlo_M_Cordr_WZn" = 352.9685   $ Sizing
 "CAssFlo_M_LobWait_CZn" = 526.1178   $ Sizing
 "CAssFlo_M_MechElec_CZn" = 170.0091   $ Sizing
 "CAssFlo_M_OfficeOpn_CZn" = 2163.45   $ Sizing
 "CAssFlo_M_OfficeOpn_EZn" = 2653.546   $ Sizing
 "CAssFlo_M_OfficeOpn_NZn" = 1170.487   $ Sizing
 "CAssFlo_M_OfficeOpn_SZn" = 2749.201   $ Sizing
 "CAssFlo_M_OfficeOpn_WZn" = 2647.992   $ Sizing
 "CAssFlo_M_OfficeSm_CZn" = 305.7054   $ Sizing
 "CAssFlo_M_OfficeSm_EZn" = 1940.65   $ Sizing
 "CAssFlo_M_OfficeSm_NZn" = 739.5647   $ Sizing
 "CAssFlo_M_OfficeSm_SZn" = 2051.513   $ Sizing
 "CAssFlo_M_OfficeSm_WZn" = 1946.016   $ Sizing
 "CAssFlo_M_Restrm_CZn" = 210.3849   $ Sizing
 "CAssFlo_M_StorSm_CZn" = 424.1745   $ Sizing
 "CAssFlo_T_Break_CZn" = 385.3547   $ Sizing
 "CAssFlo_T_Conf_CZn" = 473.398   $ Sizing
 "CAssFlo_T_CopyRm_CZn" = 131.3483   $ Sizing
 "CAssFlo_T_Cordr_CZn" = 790.7626   $ Sizing
 "CAssFlo_T_Cordr_EZn" = 325.2892   $ Sizing
 "CAssFlo_T_Cordr_NZn" = 134.7997   $ Sizing
 "CAssFlo_T_Cordr_SZn" = 354.824   $ Sizing
 "CAssFlo_T_Cordr_WZn" = 316.5181   $ Sizing
 "CAssFlo_T_LobWait_CZn" = 467.8882   $ Sizing
 "CAssFlo_T_MechElec_CZn" = 192.6568   $ Sizing
 "CAssFlo_T_OfficeOpn_CZn" = 1872.42   $ Sizing
 "CAssFlo_T_OfficeOpn_EZn" = 2381.909   $ Sizing
 "CAssFlo_T_OfficeOpn_NZn" = 1063.254   $ Sizing
 "CAssFlo_T_OfficeOpn_SZn" = 2557.107   $ Sizing
 "CAssFlo_T_OfficeOpn_WZn" = 2412.803   $ Sizing
 "CAssFlo_T_OfficeSm_CZn" = 289.9641   $ Sizing
 "CAssFlo_T_OfficeSm_EZn" = 1803.742   $ Sizing
 "CAssFlo_T_OfficeSm_NZn" = 698.2703   $ Sizing
 "CAssFlo_T_OfficeSm_SZn" = 1952.438   $ Sizing
 "CAssFlo_T_OfficeSm_WZn" = 1818.42   $ Sizing
 "CAssFlo_T_Restrm_CZn" = 210.3849   $ Sizing
 "CAssFlo_T_StorSm_CZn" = 331.7615   $ Sizing
 "CHRtFlo_Sys_L_Break_C" = 373.3621   $ Sizing
 "CHRtFlo_Sys_L_Conf_C" = 454.6318   $ Sizing
 "CHRtFlo_Sys_L_CopyRm_C" = 121.0143   $ Sizing
 "CHRtFlo_Sys_L_Cordr_C" = 600.8099   $ Sizing
 "CHRtFlo_Sys_L_Cordr_E" = 324.5615   $ Sizing
 "CHRtFlo_Sys_L_Cordr_N" = 111.3394   $ Sizing
 "CHRtFlo_Sys_L_Cordr_S" = 342.9757   $ Sizing
 "CHRtFlo_Sys_L_Cordr_W" = 319.4577   $ Sizing
 "CHRtFlo_Sys_L_LobWait_C" = 398.7125   $ Sizing
 "CHRtFlo_Sys_L_MechElec_C" = 133.2348   $ Sizing
 "CHRtFlo_Sys_L_OfficeOpn_C" = 1798.071   $ Sizing
 "CHRtFlo_Sys_L_OfficeOpn_E" = 2489.85   $ Sizing
 "CHRtFlo_Sys_L_OfficeOpn_N" = 1035.989   $ Sizing
 "CHRtFlo_Sys_L_OfficeOpn_S" = 2518.732   $ Sizing
 "CHRtFlo_Sys_L_OfficeOpn_W" = 2530.762   $ Sizing
 "CHRtFlo_Sys_L_OfficeSm_C" = 244.3442   $ Sizing
 "CHRtFlo_Sys_L_OfficeSm_E" = 1844.607   $ Sizing
 "CHRtFlo_Sys_L_OfficeSm_N" = 666.1567   $ Sizing
 "CHRtFlo_Sys_L_OfficeSm_S" = 1897.409   $ Sizing
 "CHRtFlo_Sys_L_OfficeSm_W" = 1870.058   $ Sizing
 "CHRtFlo_Sys_L_Restrm_C" = 210.3849   $ Sizing
 "CHRtFlo_Sys_L_StorSm_C" = 395.3112   $ Sizing
 "CHRtFlo_Sys_M_Break_C" = 3282.176   $ Sizing
 "CHRtFlo_Sys_M_Conf_C" = 4109.561   $ Sizing
 "CHRtFlo_Sys_M_CopyRm_C" = 1223.766   $ Sizing
 "CHRtFlo_Sys_M_Cordr_C" = 7698.382   $ Sizing
 "CHRtFlo_Sys_M_Cordr_E" = 2986.976   $ Sizing
 "CHRtFlo_Sys_M_Cordr_N" = 1258.35   $ Sizing
 "CHRtFlo_Sys_M_Cordr_S" = 3145.176   $ Sizing
 "CHRtFlo_Sys_M_Cordr_W" = 2823.748   $ Sizing
 "CHRtFlo_Sys_M_LobWait_C" = 4208.942   $ Sizing
 "CHRtFlo_Sys_M_MechElec_C" = 1360.073   $ Sizing
 "CHRtFlo_Sys_M_OfficeOpn_C" = 17307.6   $ Sizing
 "CHRtFlo_Sys_M_OfficeOpn_E" = 21228.37   $ Sizing
 "CHRtFlo_Sys_M_OfficeOpn_N" = 9363.896   $ Sizing
 "CHRtFlo_Sys_M_OfficeOpn_S" = 21993.61   $ Sizing
 "CHRtFlo_Sys_M_OfficeOpn_W" = 21183.94   $ Sizing
 "CHRtFlo_Sys_M_OfficeSm_C" = 2445.644   $ Sizing
 "CHRtFlo_Sys_M_OfficeSm_E" = 15525.2   $ Sizing
 "CHRtFlo_Sys_M_OfficeSm_N" = 5916.518   $ Sizing
 "CHRtFlo_Sys_M_OfficeSm_S" = 16412.1   $ Sizing
 "CHRtFlo_Sys_M_OfficeSm_W" = 15568.13   $ Sizing
 "CHRtFlo_Sys_M_Restrm_C" = 1683.079   $ Sizing
 "CHRtFlo_Sys_M_StorSm_C" = 3393.396   $ Sizing
 "CHRtFlo_Sys_T_Break_C" = 385.3547   $ Sizing
 "CHRtFlo_Sys_T_Conf_C" = 473.398   $ Sizing
 "CHRtFlo_Sys_T_CopyRm_C" = 131.3483   $ Sizing
 "CHRtFlo_Sys_T_Cordr_C" = 790.7626   $ Sizing
 "CHRtFlo_Sys_T_Cordr_E" = 325.2892   $ Sizing
 "CHRtFlo_Sys_T_Cordr_N" = 134.7997   $ Sizing
 "CHRtFlo_Sys_T_Cordr_S" = 354.824   $ Sizing
 "CHRtFlo_Sys_T_Cordr_W" = 316.5181   $ Sizing
 "CHRtFlo_Sys_T_LobWait_C" = 467.8882   $ Sizing
 "CHRtFlo_Sys_T_MechElec_C" = 192.6568   $ Sizing
 "CHRtFlo_Sys_T_OfficeOpn_C" = 1872.42   $ Sizing
 "CHRtFlo_Sys_T_OfficeOpn_E" = 2381.909   $ Sizing
 "CHRtFlo_Sys_T_OfficeOpn_N" = 1063.254   $ Sizing
 "CHRtFlo_Sys_T_OfficeOpn_S" = 2557.107   $ Sizing
 "CHRtFlo_Sys_T_OfficeOpn_W" = 2412.803   $ Sizing
 "CHRtFlo_Sys_T_OfficeSm_C" = 289.9641   $ Sizing
 "CHRtFlo_Sys_T_OfficeSm_E" = 1803.742   $ Sizing
 "CHRtFlo_Sys_T_OfficeSm_N" = 698.2703   $ Sizing
 "CHRtFlo_Sys_T_OfficeSm_S" = 1952.438   $ Sizing
 "CHRtFlo_Sys_T_OfficeSm_W" = 1818.42   $ Sizing
 "CHRtFlo_Sys_T_Restrm_C" = 210.3849   $ Sizing
 "CHRtFlo_Sys_T_StorSm_C" = 331.7615   $ Sizing
 "CRtdFlo_Sys_L_Break_C" = 373.3621   $ Sizing
 "CRtdFlo_Sys_L_Conf_C" = 454.6318   $ Sizing
 "CRtdFlo_Sys_L_CopyRm_C" = 121.0143   $ Sizing
 "CRtdFlo_Sys_L_Cordr_C" = 600.8099   $ Sizing
 "CRtdFlo_Sys_L_Cordr_E" = 324.5615   $ Sizing
 "CRtdFlo_Sys_L_Cordr_N" = 111.3394   $ Sizing
 "CRtdFlo_Sys_L_Cordr_S" = 342.9757   $ Sizing
 "CRtdFlo_Sys_L_Cordr_W" = 319.4577   $ Sizing
 "CRtdFlo_Sys_L_LobWait_C" = 398.7125   $ Sizing
 "CRtdFlo_Sys_L_MechElec_C" = 133.2348   $ Sizing
 "CRtdFlo_Sys_L_OfficeOpn_C" = 1798.071   $ Sizing
 "CRtdFlo_Sys_L_OfficeOpn_E" = 2489.85   $ Sizing
 "CRtdFlo_Sys_L_OfficeOpn_N" = 1035.989   $ Sizing
 "CRtdFlo_Sys_L_OfficeOpn_S" = 2518.732   $ Sizing
 "CRtdFlo_Sys_L_OfficeOpn_W" = 2530.762   $ Sizing
 "CRtdFlo_Sys_L_OfficeSm_C" = 244.3442   $ Sizing
 "CRtdFlo_Sys_L_OfficeSm_E" = 1844.607   $ Sizing
 "CRtdFlo_Sys_L_OfficeSm_N" = 666.1567   $ Sizing
 "CRtdFlo_Sys_L_OfficeSm_S" = 1897.409   $ Sizing
 "CRtdFlo_Sys_L_OfficeSm_W" = 1870.058   $ Sizing
 "CRtdFlo_Sys_L_Restrm_C" = 210.3849   $ Sizing
 "CRtdFlo_Sys_L_StorSm_C" = 395.3112   $ Sizing
 "CRtdFlo_Sys_M_Break_C" = 3282.176   $ Sizing
 "CRtdFlo_Sys_M_Conf_C" = 4109.561   $ Sizing
 "CRtdFlo_Sys_M_CopyRm_C" = 1223.766   $ Sizing
 "CRtdFlo_Sys_M_Cordr_C" = 7698.383   $ Sizing
 "CRtdFlo_Sys_M_Cordr_E" = 2986.976   $ Sizing
 "CRtdFlo_Sys_M_Cordr_N" = 1258.35   $ Sizing
 "CRtdFlo_Sys_M_Cordr_S" = 3145.176   $ Sizing
 "CRtdFlo_Sys_M_Cordr_W" = 2823.748   $ Sizing
 "CRtdFlo_Sys_M_LobWait_C" = 4208.942   $ Sizing
 "CRtdFlo_Sys_M_MechElec_C" = 1360.073   $ Sizing
 "CRtdFlo_Sys_M_OfficeOpn_C" = 17307.6   $ Sizing
 "CRtdFlo_Sys_M_OfficeOpn_E" = 21228.37   $ Sizing
 "CRtdFlo_Sys_M_OfficeOpn_N" = 9363.896   $ Sizing
 "CRtdFlo_Sys_M_OfficeOpn_S" = 21993.61   $ Sizing
 "CRtdFlo_Sys_M_OfficeOpn_W" = 21183.94   $ Sizing
 "CRtdFlo_Sys_M_OfficeSm_C" = 2445.644   $ Sizing
 "CRtdFlo_Sys_M_OfficeSm_E" = 15525.2   $ Sizing
 "CRtdFlo_Sys_M_OfficeSm_N" = 5916.518   $ Sizing
 "CRtdFlo_Sys_M_OfficeSm_S" = 16412.1   $ Sizing
 "CRtdFlo_Sys_M_OfficeSm_W" = 15568.13   $ Sizing
 "CRtdFlo_Sys_M_Restrm_C" = 1683.079   $ Sizing
 "CRtdFlo_Sys_M_StorSm_C" = 3393.396   $ Sizing
 "CRtdFlo_Sys_T_Break_C" = 385.3547   $ Sizing
 "CRtdFlo_Sys_T_Conf_C" = 473.398   $ Sizing
 "CRtdFlo_Sys_T_CopyRm_C" = 131.3483   $ Sizing
 "CRtdFlo_Sys_T_Cordr_C" = 790.7626   $ Sizing
 "CRtdFlo_Sys_T_Cordr_E" = 325.2892   $ Sizing
 "CRtdFlo_Sys_T_Cordr_N" = 134.7997   $ Sizing
 "CRtdFlo_Sys_T_Cordr_S" = 354.824   $ Sizing
 "CRtdFlo_Sys_T_Cordr_W" = 316.5181   $ Sizing
 "CRtdFlo_Sys_T_LobWait_C" = 467.8882   $ Sizing
 "CRtdFlo_Sys_T_MechElec_C" = 192.6568   $ Sizing
 "CRtdFlo_Sys_T_OfficeOpn_C" = 1872.42   $ Sizing
 "CRtdFlo_Sys_T_OfficeOpn_E" = 2381.909   $ Sizing
 "CRtdFlo_Sys_T_OfficeOpn_N" = 1063.254   $ Sizing
 "CRtdFlo_Sys_T_OfficeOpn_S" = 2557.107   $ Sizing
 "CRtdFlo_Sys_T_OfficeOpn_W" = 2412.803   $ Sizing
 "CRtdFlo_Sys_T_OfficeSm_C" = 289.9641   $ Sizing
 "CRtdFlo_Sys_T_OfficeSm_E" = 1803.742   $ Sizing
 "CRtdFlo_Sys_T_OfficeSm_N" = 698.2703   $ Sizing
 "CRtdFlo_Sys_T_OfficeSm_S" = 1952.438   $ Sizing
 "CRtdFlo_Sys_T_OfficeSm_W" = 1818.42   $ Sizing
 "CRtdFlo_Sys_T_Restrm_C" = 210.3849   $ Sizing
 "CRtdFlo_Sys_T_StorSm_C" = 331.7615   $ Sizing
 "CSupFlo_Sys_L_Break_C" = 373.3621   $ Sizing
 "CSupFlo_Sys_L_Conf_C" = 454.6318   $ Sizing
 "CSupFlo_Sys_L_CopyRm_C" = 121.0143   $ Sizing
 "CSupFlo_Sys_L_Cordr_C" = 600.8099   $ Sizing
 "CSupFlo_Sys_L_Cordr_E" = 324.5615   $ Sizing
 "CSupFlo_Sys_L_Cordr_N" = 111.3394   $ Sizing
 "CSupFlo_Sys_L_Cordr_S" = 342.9757   $ Sizing
 "CSupFlo_Sys_L_Cordr_W" = 319.4577   $ Sizing
 "CSupFlo_Sys_L_LobWait_C" = 398.7125   $ Sizing
 "CSupFlo_Sys_L_MechElec_C" = 133.2348   $ Sizing
 "CSupFlo_Sys_L_OfficeOpn_C" = 1798.071   $ Sizing
 "CSupFlo_Sys_L_OfficeOpn_E" = 2489.85   $ Sizing
 "CSupFlo_Sys_L_OfficeOpn_N" = 1035.989   $ Sizing
 "CSupFlo_Sys_L_OfficeOpn_S" = 2518.732   $ Sizing
 "CSupFlo_Sys_L_OfficeOpn_W" = 2530.762   $ Sizing
 "CSupFlo_Sys_L_OfficeSm_C" = 244.3442   $ Sizing
 "CSupFlo_Sys_L_OfficeSm_E" = 1844.607   $ Sizing
 "CSupFlo_Sys_L_OfficeSm_N" = 666.1567   $ Sizing
 "CSupFlo_Sys_L_OfficeSm_S" = 1897.409   $ Sizing
 "CSupFlo_Sys_L_OfficeSm_W" = 1870.058   $ Sizing
 "CSupFlo_Sys_L_Restrm_C" = 210.3849   $ Sizing
 "CSupFlo_Sys_L_StorSm_C" = 395.3112   $ Sizing
 "CSupFlo_Sys_M_Break_C" = 3282.176   $ Sizing
 "CSupFlo_Sys_M_Conf_C" = 4109.561   $ Sizing
 "CSupFlo_Sys_M_CopyRm_C" = 1223.766   $ Sizing
 "CSupFlo_Sys_M_Cordr_C" = 7698.382   $ Sizing
 "CSupFlo_Sys_M_Cordr_E" = 2986.976   $ Sizing
 "CSupFlo_Sys_M_Cordr_N" = 1258.35   $ Sizing
 "CSupFlo_Sys_M_Cordr_S" = 3145.176   $ Sizing
 "CSupFlo_Sys_M_Cordr_W" = 2823.748   $ Sizing
 "CSupFlo_Sys_M_LobWait_C" = 4208.942   $ Sizing
 "CSupFlo_Sys_M_MechElec_C" = 1360.073   $ Sizing
 "CSupFlo_Sys_M_OfficeOpn_C" = 17307.6   $ Sizing
 "CSupFlo_Sys_M_OfficeOpn_E" = 21228.37   $ Sizing
 "CSupFlo_Sys_M_OfficeOpn_N" = 9363.896   $ Sizing
 "CSupFlo_Sys_M_OfficeOpn_S" = 21993.61   $ Sizing
 "CSupFlo_Sys_M_OfficeOpn_W" = 21183.94   $ Sizing
 "CSupFlo_Sys_M_OfficeSm_C" = 2445.644   $ Sizing
 "CSupFlo_Sys_M_OfficeSm_E" = 15525.2   $ Sizing
 "CSupFlo_Sys_M_OfficeSm_N" = 5916.518   $ Sizing
 "CSupFlo_Sys_M_OfficeSm_S" = 16412.1   $ Sizing
 "CSupFlo_Sys_M_OfficeSm_W" = 15568.13   $ Sizing
 "CSupFlo_Sys_M_Restrm_C" = 1683.079   $ Sizing
 "CSupFlo_Sys_M_StorSm_C" = 3393.396   $ Sizing
 "CSupFlo_Sys_T_Break_C" = 385.3547   $ Sizing
 "CSupFlo_Sys_T_Conf_C" = 473.398   $ Sizing
 "CSupFlo_Sys_T_CopyRm_C" = 131.3483   $ Sizing
 "CSupFlo_Sys_T_Cordr_C" = 790.7626   $ Sizing
 "CSupFlo_Sys_T_Cordr_E" = 325.2892   $ Sizing
 "CSupFlo_Sys_T_Cordr_N" = 134.7997   $ Sizing
 "CSupFlo_Sys_T_Cordr_S" = 354.824   $ Sizing
 "CSupFlo_Sys_T_Cordr_W" = 316.5181   $ Sizing
 "CSupFlo_Sys_T_LobWait_C" = 467.8882   $ Sizing
 "CSupFlo_Sys_T_MechElec_C" = 192.6568   $ Sizing
 "CSupFlo_Sys_T_OfficeOpn_C" = 1872.42   $ Sizing
 "CSupFlo_Sys_T_OfficeOpn_E" = 2381.909   $ Sizing
 "CSupFlo_Sys_T_OfficeOpn_N" = 1063.254   $ Sizing
 "CSupFlo_Sys_T_OfficeOpn_S" = 2557.107   $ Sizing
 "CSupFlo_Sys_T_OfficeOpn_W" = 2412.803   $ Sizing
 "CSupFlo_Sys_T_OfficeSm_C" = 289.9641   $ Sizing
 "CSupFlo_Sys_T_OfficeSm_E" = 1803.742   $ Sizing
 "CSupFlo_Sys_T_OfficeSm_N" = 698.2703   $ Sizing
 "CSupFlo_Sys_T_OfficeSm_S" = 1952.438   $ Sizing
 "CSupFlo_Sys_T_OfficeSm_W" = 1818.42   $ Sizing
 "CSupFlo_Sys_T_Restrm_C" = 210.3849   $ Sizing
 "CSupFlo_Sys_T_StorSm_C" = 331.7615   $ Sizing
 "ClCap_Sys_L_Break_C" = 12794.44   $ Sizing
 "ClCap_Sys_L_Conf_C" = 19828.33   $ Sizing
 "ClCap_Sys_L_CopyRm_C" = 4146.939   $ Sizing
 "ClCap_Sys_L_Cordr_C" = 20588.66   $ Sizing
 "ClCap_Sys_L_Cordr_E" = 11122.13   $ Sizing
 "ClCap_Sys_L_Cordr_N" = 3815.399   $ Sizing
 "ClCap_Sys_L_Cordr_S" = 11753.15   $ Sizing
 "ClCap_Sys_L_Cordr_W" = 10947.23   $ Sizing
 "ClCap_Sys_L_LobWait_C" = 13663.15   $ Sizing
 "ClCap_Sys_L_MechElec_C" = 4565.713   $ Sizing
 "ClCap_Sys_L_OfficeOpn_C" = 61616.62   $ Sizing
 "ClCap_Sys_L_OfficeOpn_E" = 85322.59   $ Sizing
 "ClCap_Sys_L_OfficeOpn_N" = 35501.46   $ Sizing
 "ClCap_Sys_L_OfficeOpn_S" = 86312.34   $ Sizing
 "ClCap_Sys_L_OfficeOpn_W" = 86724.59   $ Sizing
 "ClCap_Sys_L_OfficeSm_C" = 8373.228   $ Sizing
 "ClCap_Sys_L_OfficeSm_E" = 63211.3   $ Sizing
 "ClCap_Sys_L_OfficeSm_N" = 22827.97   $ Sizing
 "ClCap_Sys_L_OfficeSm_S" = 65020.73   $ Sizing
 "ClCap_Sys_L_OfficeSm_W" = 64083.46   $ Sizing
 "ClCap_Sys_L_Restrm_C" = 7209.506   $ Sizing
 "ClCap_Sys_L_StorSm_C" = 13546.59   $ Sizing
 "ClCap_Sys_M_Break_C" = 112474.2   $ Sizing
 "ClCap_Sys_M_Conf_C" = 179234.5   $ Sizing
 "ClCap_Sys_M_CopyRm_C" = 41936.23   $ Sizing
 "ClCap_Sys_M_Cordr_C" = 263809.5   $ Sizing
 "ClCap_Sys_M_Cordr_E" = 102358.2   $ Sizing
 "ClCap_Sys_M_Cordr_N" = 43121.36   $ Sizing
 "ClCap_Sys_M_Cordr_S" = 107779.4   $ Sizing
 "ClCap_Sys_M_Cordr_W" = 96764.68   $ Sizing
 "ClCap_Sys_M_LobWait_C" = 144232.8   $ Sizing
 "ClCap_Sys_M_MechElec_C" = 46607.2   $ Sizing
 "ClCap_Sys_M_OfficeOpn_C" = 593099.8   $ Sizing
 "ClCap_Sys_M_OfficeOpn_E" = 727457.3   $ Sizing
 "ClCap_Sys_M_OfficeOpn_N" = 320883.6   $ Sizing
 "ClCap_Sys_M_OfficeOpn_S" = 753680.7   $ Sizing
 "ClCap_Sys_M_OfficeOpn_W" = 725934.8   $ Sizing
 "ClCap_Sys_M_OfficeSm_C" = 83807.73   $ Sizing
 "ClCap_Sys_M_OfficeSm_E" = 532020.2   $ Sizing
 "ClCap_Sys_M_OfficeSm_N" = 202748.2   $ Sizing
 "ClCap_Sys_M_OfficeSm_S" = 562412.7   $ Sizing
 "ClCap_Sys_M_OfficeSm_W" = 533491.2   $ Sizing
 "ClCap_Sys_M_Restrm_C" = 57676.05   $ Sizing
 "ClCap_Sys_M_StorSm_C" = 116285.5   $ Sizing
 "ClCap_Sys_T_Break_C" = 13205.4   $ Sizing
 "ClCap_Sys_T_Conf_C" = 20646.8   $ Sizing
 "ClCap_Sys_T_CopyRm_C" = 4501.067   $ Sizing
 "ClCap_Sys_T_Cordr_C" = 27097.99   $ Sizing
 "ClCap_Sys_T_Cordr_E" = 11147.07   $ Sizing
 "ClCap_Sys_T_Cordr_N" = 4619.338   $ Sizing
 "ClCap_Sys_T_Cordr_S" = 12159.17   $ Sizing
 "ClCap_Sys_T_Cordr_W" = 10846.5   $ Sizing
 "ClCap_Sys_T_LobWait_C" = 16033.67   $ Sizing
 "ClCap_Sys_T_MechElec_C" = 6601.995   $ Sizing
 "ClCap_Sys_T_OfficeOpn_C" = 64164.42   $ Sizing
 "ClCap_Sys_T_OfficeOpn_E" = 81623.66   $ Sizing
 "ClCap_Sys_T_OfficeOpn_N" = 36435.79   $ Sizing
 "ClCap_Sys_T_OfficeOpn_S" = 87627.37   $ Sizing
 "ClCap_Sys_T_OfficeOpn_W" = 82682.34   $ Sizing
 "ClCap_Sys_T_OfficeSm_C" = 9936.539   $ Sizing
 "ClCap_Sys_T_OfficeSm_E" = 61810.95   $ Sizing
 "ClCap_Sys_T_OfficeSm_N" = 23928.45   $ Sizing
 "ClCap_Sys_T_OfficeSm_S" = 66906.48   $ Sizing
 "ClCap_Sys_T_OfficeSm_W" = 62313.91   $ Sizing
 "ClCap_Sys_T_Restrm_C" = 7209.506   $ Sizing
 "ClCap_Sys_T_StorSm_C" = 11368.86   $ Sizing
 "HtCap_Sys_L_Break_C" = -17851.41   $ Sizing
 "HtCap_Sys_L_Conf_C" = -22412.77   $ Sizing
 "HtCap_Sys_L_CopyRm_C" = -6404.241   $ Sizing
 "HtCap_Sys_L_Cordr_C" = -24083.84   $ Sizing
 "HtCap_Sys_L_Cordr_E" = -10147.15   $ Sizing
 "HtCap_Sys_L_Cordr_N" = -4364.514   $ Sizing
 "HtCap_Sys_L_Cordr_S" = -10913.77   $ Sizing
 "HtCap_Sys_L_Cordr_W" = -10318.7   $ Sizing
 "HtCap_Sys_L_LobWait_C" = -18851.06   $ Sizing
 "HtCap_Sys_L_MechElec_C" = -5453.14   $ Sizing
 "HtCap_Sys_L_OfficeOpn_C" = -87911.36   $ Sizing
 "HtCap_Sys_L_OfficeOpn_E" = -77144.65   $ Sizing
 "HtCap_Sys_L_OfficeOpn_N" = -35918.43   $ Sizing
 "HtCap_Sys_L_OfficeOpn_S" = -123551   $ Sizing
 "HtCap_Sys_L_OfficeOpn_W" = -78164.05   $ Sizing
 "HtCap_Sys_L_OfficeSm_C" = -11948.9   $ Sizing
 "HtCap_Sys_L_OfficeSm_E" = -58196.05   $ Sizing
 "HtCap_Sys_L_OfficeSm_N" = -23259.6   $ Sizing
 "HtCap_Sys_L_OfficeSm_S" = -59622.96   $ Sizing
 "HtCap_Sys_L_OfficeSm_W" = -57844.49   $ Sizing
 "HtCap_Sys_L_Restrm_C" = -7798.707   $ Sizing
 "HtCap_Sys_L_StorSm_C" = -15452.43   $ Sizing
 "HtCap_Sys_M_Break_C" = -151115.8   $ Sizing
 "HtCap_Sys_M_Conf_C" = -192718.7   $ Sizing
 "HtCap_Sys_M_CopyRm_C" = -58415.19   $ Sizing
 "HtCap_Sys_M_Cordr_C" = -273636.5   $ Sizing
 "HtCap_Sys_M_Cordr_E" = -94616.07   $ Sizing
 "HtCap_Sys_M_Cordr_N" = -45290.43   $ Sizing
 "HtCap_Sys_M_Cordr_S" = -98340.58   $ Sizing
 "HtCap_Sys_M_Cordr_W" = -89955.23   $ Sizing
 "HtCap_Sys_M_LobWait_C" = -179583.8   $ Sizing
 "HtCap_Sys_M_MechElec_C" = -51894.23   $ Sizing
 "HtCap_Sys_M_OfficeOpn_C" = -846628.9   $ Sizing
 "HtCap_Sys_M_OfficeOpn_E" = -655838.8   $ Sizing
 "HtCap_Sys_M_OfficeOpn_N" = -319161   $ Sizing
 "HtCap_Sys_M_OfficeOpn_S" = -1078902   $ Sizing
 "HtCap_Sys_M_OfficeOpn_W" = -649852.9   $ Sizing
 "HtCap_Sys_M_OfficeSm_C" = -119321.3   $ Sizing
 "HtCap_Sys_M_OfficeSm_E" = -487359.7   $ Sizing
 "HtCap_Sys_M_OfficeSm_N" = -202514.8   $ Sizing
 "HtCap_Sys_M_OfficeSm_S" = -513523   $ Sizing
 "HtCap_Sys_M_OfficeSm_W" = -478444.5   $ Sizing
 "HtCap_Sys_M_Restrm_C" = -67171.82   $ Sizing
 "HtCap_Sys_M_StorSm_C" = -128991.1   $ Sizing
 "HtCap_Sys_T_Break_C" = -18800.88   $ Sizing
 "HtCap_Sys_T_Conf_C" = -23477.03   $ Sizing
 "HtCap_Sys_T_CopyRm_C" = -6782.953   $ Sizing
 "HtCap_Sys_T_Cordr_C" = -31479.04   $ Sizing
 "HtCap_Sys_T_Cordr_E" = -11318.19   $ Sizing
 "HtCap_Sys_T_Cordr_N" = -5486.824   $ Sizing
 "HtCap_Sys_T_Cordr_S" = -12200.89   $ Sizing
 "HtCap_Sys_T_Cordr_W" = -11303.16   $ Sizing
 "HtCap_Sys_T_LobWait_C" = -21480.83   $ Sizing
 "HtCap_Sys_T_MechElec_C" = -7125.641   $ Sizing
 "HtCap_Sys_T_OfficeOpn_C" = -91506.21   $ Sizing
 "HtCap_Sys_T_OfficeOpn_E" = -79776.78   $ Sizing
 "HtCap_Sys_T_OfficeOpn_N" = -40559.84   $ Sizing
 "HtCap_Sys_T_OfficeOpn_S" = -84741.84   $ Sizing
 "HtCap_Sys_T_OfficeOpn_W" = -80766.49   $ Sizing
 "HtCap_Sys_T_OfficeSm_C" = -14160.82   $ Sizing
 "HtCap_Sys_T_OfficeSm_E" = -62226.29   $ Sizing
 "HtCap_Sys_T_OfficeSm_N" = -26416.05   $ Sizing
 "HtCap_Sys_T_OfficeSm_S" = -64915.29   $ Sizing
 "HtCap_Sys_T_OfficeSm_W" = -61122.52   $ Sizing
 "HtCap_Sys_T_Restrm_C" = -8219.986   $ Sizing
 "HtCap_Sys_T_StorSm_C" = -14787.69   $ Sizing
..

##include Templates\OfL_DX_SZ.inp
END ..
COMPUTE ..
STOP ..
