INPUT ..

##fileprefix C:\Users\jglasskatz\MASControl3\
##set1 IsSizing FALSE
##set1 CoolType DX
##set1 HeatType FURNACE
##set1 EU_HrRepVar 0
##set1 BldgVint 2020
##set1 BldgLoc CZ13

 ##set1 mBFMult 1   $ IP Tech: RefgChg-NRes-Std

PARAMETER
 "AltFactor" = 1.01244   $ IP Non-Tech
 "BF_fFlow" = SpltAC1Sp-ge45_BF_fFlow   $ Msr (Var)TechID: PreNResSplitAC-45to-PENo
 "BF_fT" = SpltAC1Sp-ge45_BF_fT   $ Msr (Var)TechID: PreNResSplitAC-45to-PENo
 "BldgEconoFlag" = 1   $ IP Non-Tech
 "Break_EWSF" = 1   $ IP Non-Tech
 "Break_LWSF" = 0.65   $ IP Non-Tech
 "CDD_DBHi10" = 86   $ IP Non-Tech
 "CDD_DBHi7" = 105   $ IP Non-Tech
 "CDD_DBHi8" = 102   $ IP Non-Tech
 "CDD_DBHi9" = 100   $ IP Non-Tech
 "CDD_DBRange10" = 28   $ IP Non-Tech
 "CDD_DBRange7" = 28   $ IP Non-Tech
 "CDD_DBRange8" = 28   $ IP Non-Tech
 "CDD_DBRange9" = 30   $ IP Non-Tech
 "CDD_Day10" = 15   $ IP Non-Tech
 "CDD_Day7" = 16   $ IP Non-Tech
 "CDD_Day8" = 20   $ IP Non-Tech
 "CDD_Day9" = 17   $ IP Non-Tech
 "CDD_HrHi10" = 16   $ IP Non-Tech
 "CDD_HrHi7" = 18   $ IP Non-Tech
 "CDD_HrHi8" = 18   $ IP Non-Tech
 "CDD_HrHi9" = 15   $ IP Non-Tech
 "CDD_HrLo10" = 5   $ IP Non-Tech
 "CDD_HrLo7" = 6   $ IP Non-Tech
 "CDD_HrLo8" = 7   $ IP Non-Tech
 "CDD_HrLo9" = 3   $ IP Non-Tech
 "CDD_WB10" = 62.19377518   $ IP Non-Tech
 "CDD_WB7" = 72.76699829   $ IP Non-Tech
 "CDD_WB8" = 69.69030762   $ IP Non-Tech
 "CDD_WB9" = 71.78777313   $ IP Non-Tech
 "CEIR_fPLR_Hot" = SpltAC1Sp-ge45_CEIR_fPLR_Hot   $ Msr (Var)TechID: PreNResSplitAC-45to-PENo
 "CEIR_fPLR_Mod" = SpltAC1Sp-ge45_CEIR_fPLR_Mod   $ Msr (Var)TechID: PreNResSplitAC-45to-PENo
 "CEIR_fPLR_Tem" = SpltAC1Sp-ge45_CEIR_fPLR_Tem   $ Msr (Var)TechID: PreNResSplitAC-45to-PENo
 "CLoss_fPLR_Hot" = SpltAC1Sp-ge45_CLoss_fPLR_Hot   $ Msr (Var)TechID: PreNResSplitAC-45to-PENo
 "CLoss_fPLR_Mod" = SpltAC1Sp-ge45_CLoss_fPLR_Mod   $ Msr (Var)TechID: PreNResSplitAC-45to-PENo
 "CLoss_fPLR_Tem" = SpltAC1Sp-ge45_CLoss_fPLR_Tem   $ Msr (Var)TechID: PreNResSplitAC-45to-PENo
 "COP47" = 0   $ Msr (Var)TechID: PreNResSplitAC-45to-PENo
 "CZ_Category" = Mod   $ IP Non-Tech
 "CapRange" = ge45   $ Msr (Var)TechID: PreNResSplitAC-45to-PENo
 "CfmPerBtuh" = 0.03263   $ Msr (Var)TechID: PreNResSplitAC-45to-PENo
 "ChwVintEconoFlag" = 1   $ IP Non-Tech
 "ClCap_fT" = SpltAC1Sp-ge45_ClCap_fT   $ Msr (Var)TechID: PreNResSplitAC-45to-PENo
 "ClSH_fT" = SpltAC1Sp-ge45_ClSH_fT   $ Msr (Var)TechID: PreNResSplitAC-45to-PENo
 "CoilBF" = 0.106518182   $ Msr (Var)TechID: PreNResSplitAC-45to-PENo
 "CondWPerBtuh" = 0   $ Msr (Var)TechID: PreNResSplitAC-45to-PENo
 "Conference_EWSF" = 1   $ IP Non-Tech
 "Conference_LWSF" = 0.85   $ IP Non-Tech
 "CoolSensCap" = 0.759218182   $ Msr (Var)TechID: PreNResSplitAC-45to-PENo
 "CoolSetT" = 45   $ IP Non-Tech
 "CoolType" = DX   $ IP Non-Tech
 "CoolingEIR" = 0.2466   $ Msr (Var)TechID: PreNResSplitAC-45to-PENo
 "CopyRoom_EWSF" = 1.5   $ IP Non-Tech
 "CopyRoom_LWSF" = 0.5   $ IP Non-Tech
 "CorridorStairway_EWSF" = 0.2   $ IP Non-Tech
 "CorridorStairway_LWSF" = 0.55   $ IP Non-Tech
 "CrnkEIR" = 0.002466   $ Msr (Var)TechID: PreNResSplitAC-45to-PENo
 "CrnkMaxT" = 50   $ Msr (Var)TechID: PreNResSplitAC-45to-PENo
 "DXType" = SplitSEER   $ Msr (Var)TechID: PreNResSplitAC-45to-PENo
 "DesCoolT" = 75   $ IP Non-Tech
 "DesHeatT" = 73   $ IP Non-Tech
 "EER" = 11.81793103   $ Msr (Var)TechID: PreNResSplitAC-45to-PENo
 "EIR_fT" = SpltAC1Sp-ge45_EIR_fT   $ Msr (Var)TechID: PreNResSplitAC-45to-PENo
 "EconoCtrl" = FIXED   $ Msr (Multi)TechID: PreNResSplitAC-45to-PENo
 "EconoEnthLimit" = 28   $ IP Non-Tech
 "EconoTempLimit" = 75   $ IP Non-Tech
 "Elevation" = 335   $ IP Non-Tech
 "FanEirPlr" = TwoSpeedFan   $ Msr (Var)TechID: PreNResSplitAC-45to-PENo
 "FanWPerCfm" = 0.294   $ Msr (Var)TechID: PreNResSplitAC-45to-PENo
 "HDD_CloudAmt1" = 0   $ IP Non-Tech
 "HDD_DBHi1" = 40.29372406   $ IP Non-Tech
 "HDD_DBRange1" = 8   $ IP Non-Tech
 "HDD_Day1" = 15   $ IP Non-Tech
 "HDD_HrHi1" = 22   $ IP Non-Tech
 "HDD_HrLo1" = 7   $ IP Non-Tech
 "HDD_WB1" = 38.2   $ IP Non-Tech
 "HDD_WindSpd1" = 10.4   $ IP Non-Tech
 "HIR_fT" = 0   $ Msr (Var)TechID: PreNResSplitAC-45to-PENo
 "HSPF" = 0   $ Msr (Var)TechID: PreNResSplitAC-45to-PENo
 "HeatSrc" = FURNACE   $ IP Non-Tech
 "HeatSrcTU" = HEAT-PUMP   $ IP Non-Tech
 "HeatType" = GasFurn   $ IP Non-Tech
 "HeatTypeTU" = HEAT-PUMP   $ IP Non-Tech
 "HtCap_fT" = 0   $ Msr (Var)TechID: PreNResSplitAC-45to-PENo
 "HtCoolCapRatio" = 0   $ Msr (Var)TechID: PreNResSplitAC-45to-PENo
 "HtgEIR" = 0   $ Msr (Var)TechID: PreNResSplitAC-45to-PENo
 "IndoorFanMode" = CONTINUOUS   $ IP Non-Tech
 "KT_TransferAir" = Yes   $ IP Non-Tech
 "Latitude" = 36.8   $ IP Non-Tech
 "LobbyWaiting_EWSF" = 0.5   $ IP Non-Tech
 "LobbyWaiting_LWSF" = 0.75   $ IP Non-Tech
 "Longitude" = 119.7   $ IP Non-Tech
 "LowSpdCapRatio" = 1   $ Msr (Var)TechID: PreNResSplitAC-45to-PENo
 "LowSpdCfmRatio" = 1   $ Msr (Var)TechID: PreNResSplitAC-45to-PENo
 "MZFanMechEff" = 0.58   $ IP Non-Tech
 "MZHasRetFan" = FALSE   $ IP Non-Tech
 "MZ_RFanWPerCfm" = 0.37   $ IP Non-Tech
 "MZ_SFanWPerCfm" = 0.71   $ IP Non-Tech
 "MZ_SupFanStatic" = 2.25   $ IP Non-Tech
 "MaxOAFrac" = 1   $ Msr (Multi)TechID: PreNResSplitAC-45to-PENo
 "MaxSupT_MZ" = 100   $ IP Non-Tech
 "MaxSupT_SZ" = 100   $ IP Non-Tech
 "MaxSupT_TU" = 90   $ IP Non-Tech
 "MechElecRoom_EWSF" = 0.2   $ IP Non-Tech
 "MechElecRoom_LWSF" = 0.4   $ IP Non-Tech
 "MinCfmPerSF" = 0.4   $ IP Non-Tech
 "MinSupT" = 55   $ IP Non-Tech
 "NumStages" = 1   $ Msr (Var)TechID: PreNResSplitAC-45to-PENo
 "OccCoolT" = 76   $ IP Non-Tech
 "OccHeatT" = 72   $ IP Non-Tech
 "OfficeOpen_EWSF" = 1.5   $ IP Non-Tech
 "OfficeOpen_LWSF" = 0.8   $ IP Non-Tech
 "OfficeSmall_EWSF" = 1.5   $ IP Non-Tech
 "OfficeSmall_LWSF" = 0.9   $ IP Non-Tech
 "PkgDxVintEconoFlag" = 1   $ IP Non-Tech
 "Restroom_EWSF" = 0.2   $ IP Non-Tech
 "Restroom_LWSF" = 0.65   $ IP Non-Tech
 "SEER" = 14   $ Msr (Var)TechID: PreNResSplitAC-45to-PENo
 "SZFanMechEff" = 0.58   $ IP Non-Tech
 "SZHasRetFan" = FALSE   $ IP Non-Tech
 "SZ_Is_2Spd" = TRUE   $ IP Non-Tech
 "SZ_SFanWPerCfm" = 0.46   $ IP Non-Tech
 "SZ_SupFanStatic" = 0.75   $ IP Non-Tech
 "Sector" = Any   $ Msr (Var)TechID: PreNResSplitAC-45to-PENo
 "StorageSmlCond_EWSF" = 0.2   $ IP Non-Tech
 "StorageSmlCond_LWSF" = 0.45   $ IP Non-Tech
 "SubType" = AC   $ Msr (Var)TechID: PreNResSplitAC-45to-PENo
 "TermUnitFanMechEff" = 1   $ IP Non-Tech
 "TermUnitFanMode" = INTERMITTENT   $ IP Non-Tech
 "TotCoolCap" = 52519.36364   $ Msr (Var)TechID: PreNResSplitAC-45to-PENo
 "TwrSetpt" = 82.7   $ IP Non-Tech
 "UnocCoolT" = 86   $ IP Non-Tech
 "UnocHeatT" = 62   $ IP Non-Tech
 "UseEconoVintApplic" = FALSE   $ Msr (Multi)TechID: PreNResSplitAC-45to-PENo
 "WlhpVintEconoFlag" = 1   $ IP Non-Tech
 "DuctDT" = 1   $ IP Tech: ComDuctInsul-1
 "DuctAirLoss" = 0   $ IP Tech: ComDuctLeak-0
 "DuctLossOAFrac" = 0   $ IP Tech: ComDuctLeak-0
 "ComRoofInsCalc" = FromUo   $ IP Tech: ComRoofIns-Hvy-0.03
 "ComRoofInsR" = -999   $ IP Tech: ComRoofIns-Hvy-0.03
 "ComRoofUo" = 0.03   $ IP Tech: ComRoofIns-Hvy-0.03
 "ComEWInsCalc" = FromUo   $ IP Tech: ComWallIns-MFrm-0.06
 "ComEWInsR" = -999   $ IP Tech: ComWallIns-MFrm-0.06
 "ComEWUo" = 0.06   $ IP Tech: ComWallIns-MFrm-0.06
 "ComN_SHGC" = 0.26   $ IP Tech: NResWin-ComN-0.41-0.26
 "ComN_UFactor" = 0.41   $ IP Tech: NResWin-ComN-0.41-0.26
 "ComN_VisTrans" = 0.41   $ IP Tech: NResWin-ComN-0.41-0.26
 "ComN_WinCode" = G2666   $ IP Tech: NResWin-ComN-0.41-0.26
 "ComN_WinFrmFrac" = 0.17   $ IP Tech: NResWin-ComN-0.41-0.26
 "ComN_WinFrmU" = 0.3   $ IP Tech: NResWin-ComN-0.41-0.26
 "ComO_SHGC" = 0.26   $ IP Tech: NResWin-ComO-0.41-0.26
 "ComO_UFactor" = 0.41   $ IP Tech: NResWin-ComO-0.41-0.26
 "ComO_VisTrans" = 0.41   $ IP Tech: NResWin-ComO-0.41-0.26
 "ComO_WinCode" = G2666   $ IP Tech: NResWin-ComO-0.41-0.26
 "ComO_WinFrmFrac" = 0.17   $ IP Tech: NResWin-ComO-0.41-0.26
 "ComO_WinFrmU" = 0.3   $ IP Tech: NResWin-ComO-0.41-0.26
 "LtgMsrApplic" = ALL   $ IP Tech: NonResLtgRefPre
 "LtgSav_CFL" = 0   $ IP Tech: NonResLtgRefPre
 "LtgSav_EX" = 0   $ IP Tech: NonResLtgRefPre
 "LtgSav_HB" = 0   $ IP Tech: NonResLtgRefPre
 "LtgSav_LF" = 0   $ IP Tech: NonResLtgRefPre
 "LtgSav_SP" = 0   $ IP Tech: NonResLtgRefPre
 "CEIR_fPLR" = PSZ65to135_CEIR_fPLR   $ IP Tech: PkgAC2SpP-65to135-E11
 "CLoss_fPLR" = PSZ65to135_CLoss_fPLR   $ IP Tech: PkgAC2SpP-65to135-E11
 "COP" = -1   $ IP Tech: PkgAC2SpP-65to135-E11
 "HtgFuel" = Gas   $ IP Tech: PkgAC2SpP-65to135-E11
 "IEER" = 13.35   $ IP Tech: PkgAC2SpP-65to135-E11
 "NominalCap" = 15   $ IP Tech: PkgAC2SpP-65to135-E11
 "RatedEER" = 11   $ IP Tech: PkgAC2SpP-65to135-E11
 "RatedSupMtrClass" = Premium   $ IP Tech: PkgAC2SpP-65to135-E11
 "SizeRange" = 65to135   $ IP Tech: PkgAC2SpP-65to135-E11
 "SupMotEff" = 0.865   $ IP Tech: PkgAC2SpP-65to135-E11
 "Tier" = 0   $ IP Tech: PkgAC2SpP-65to135-E11
 "FanPwrMult" = 1   $ IP Tech: PkgFurn-0.80AFUE
 "FurnAFUE" = 0.8   $ IP Tech: PkgFurn-0.80AFUE
 "FurnEt" = 0.82   $ IP Tech: PkgFurn-0.80AFUE
 "FurnaceAuxKW" = 0.1   $ IP Tech: PkgFurn-0.80AFUE
 "HIR_fPLR" = Furnace-HIR-fPLR   $ IP Tech: PkgFurn-0.80AFUE
 "VSM" = FALSE   $ IP Tech: PkgFurn-0.80AFUE
 "BFMult" = 1   $ IP Tech: RefgChg-NRes-Std
 "CoolEirMult" = 1   $ IP Tech: RefgChg-NRes-Std
 "SensCoolCapMult" = 1   $ IP Tech: RefgChg-NRes-Std
 "TotCoolCapMult" = 1   $ IP Tech: RefgChg-NRes-Std
 "AltAdjFactor" = 1.012438   $ Sizing
 "CAssFlo_L_Break_CZn" = 561.4225   $ Sizing
 "CAssFlo_L_Conf_CZn" = 546.3161   $ Sizing
 "CAssFlo_L_CopyRm_CZn" = 163.7662   $ Sizing
 "CAssFlo_L_Cordr_CZn" = 666.3638   $ Sizing
 "CAssFlo_L_Cordr_EZn" = 234.0423   $ Sizing
 "CAssFlo_L_Cordr_NZn" = 169.9751   $ Sizing
 "CAssFlo_L_Cordr_SZn" = 237.163   $ Sizing
 "CAssFlo_L_Cordr_WZn" = 267.4826   $ Sizing
 "CAssFlo_L_LobWait_CZn" = 519.6337   $ Sizing
 "CAssFlo_L_MechElec_CZn" = 118.6652   $ Sizing
 "CAssFlo_L_OfficeOpn_CZn" = 1809.053   $ Sizing
 "CAssFlo_L_OfficeOpn_EZn" = 1590.093   $ Sizing
 "CAssFlo_L_OfficeOpn_NZn" = 1203.508   $ Sizing
 "CAssFlo_L_OfficeOpn_SZn" = 1618.404   $ Sizing
 "CAssFlo_L_OfficeOpn_WZn" = 1857.923   $ Sizing
 "CAssFlo_L_OfficeSm_CZn" = 230.7578   $ Sizing
 "CAssFlo_L_OfficeSm_EZn" = 1135.62   $ Sizing
 "CAssFlo_L_OfficeSm_NZn" = 791.184   $ Sizing
 "CAssFlo_L_OfficeSm_SZn" = 1146.619   $ Sizing
 "CAssFlo_L_OfficeSm_WZn" = 1308.526   $ Sizing
 "CAssFlo_L_Restrm_CZn" = 96.44797   $ Sizing
 "CAssFlo_L_StorSm_CZn" = 379.1505   $ Sizing
 "CAssFlo_M_Break_CZn" = 565.4669   $ Sizing
 "CAssFlo_M_Conf_CZn" = 543.3828   $ Sizing
 "CAssFlo_M_CopyRm_CZn" = 160.9526   $ Sizing
 "CAssFlo_M_Cordr_CZn" = 888.3572   $ Sizing
 "CAssFlo_M_Cordr_EZn" = 266.3864   $ Sizing
 "CAssFlo_M_Cordr_NZn" = 183.0458   $ Sizing
 "CAssFlo_M_Cordr_SZn" = 256.8493   $ Sizing
 "CAssFlo_M_Cordr_WZn" = 279.2528   $ Sizing
 "CAssFlo_M_LobWait_CZn" = 540.5238   $ Sizing
 "CAssFlo_M_MechElec_CZn" = 146.6469   $ Sizing
 "CAssFlo_M_OfficeOpn_CZn" = 1824.818   $ Sizing
 "CAssFlo_M_OfficeOpn_EZn" = 1714.853   $ Sizing
 "CAssFlo_M_OfficeOpn_NZn" = 1253.591   $ Sizing
 "CAssFlo_M_OfficeOpn_SZn" = 1699.053   $ Sizing
 "CAssFlo_M_OfficeOpn_WZn" = 1899.806   $ Sizing
 "CAssFlo_M_OfficeSm_CZn" = 263.9575   $ Sizing
 "CAssFlo_M_OfficeSm_EZn" = 1207.727   $ Sizing
 "CAssFlo_M_OfficeSm_NZn" = 816.5512   $ Sizing
 "CAssFlo_M_OfficeSm_SZn" = 1193.234   $ Sizing
 "CAssFlo_M_OfficeSm_WZn" = 1324.349   $ Sizing
 "CAssFlo_M_Restrm_CZn" = 103.2139   $ Sizing
 "CAssFlo_M_StorSm_CZn" = 395.188   $ Sizing
 "CAssFlo_T_Break_CZn" = 556.3956   $ Sizing
 "CAssFlo_T_Conf_CZn" = 535.0139   $ Sizing
 "CAssFlo_T_CopyRm_CZn" = 155.5454   $ Sizing
 "CAssFlo_T_Cordr_CZn" = 822.7868   $ Sizing
 "CAssFlo_T_Cordr_EZn" = 259.4943   $ Sizing
 "CAssFlo_T_Cordr_NZn" = 184.7971   $ Sizing
 "CAssFlo_T_Cordr_SZn" = 252.6022   $ Sizing
 "CAssFlo_T_Cordr_WZn" = 278.1089   $ Sizing
 "CAssFlo_T_LobWait_CZn" = 539.5295   $ Sizing
 "CAssFlo_T_MechElec_CZn" = 165.2263   $ Sizing
 "CAssFlo_T_OfficeOpn_CZn" = 1839.358   $ Sizing
 "CAssFlo_T_OfficeOpn_EZn" = 1692.582   $ Sizing
 "CAssFlo_T_OfficeOpn_NZn" = 1265.768   $ Sizing
 "CAssFlo_T_OfficeOpn_SZn" = 1697.23   $ Sizing
 "CAssFlo_T_OfficeOpn_WZn" = 1885.264   $ Sizing
 "CAssFlo_T_OfficeSm_CZn" = 253.4413   $ Sizing
 "CAssFlo_T_OfficeSm_EZn" = 1223.797   $ Sizing
 "CAssFlo_T_OfficeSm_NZn" = 832.114   $ Sizing
 "CAssFlo_T_OfficeSm_SZn" = 1206.054   $ Sizing
 "CAssFlo_T_OfficeSm_WZn" = 1340.161   $ Sizing
 "CAssFlo_T_Restrm_CZn" = 134.5114   $ Sizing
 "CAssFlo_T_StorSm_CZn" = 275.8411   $ Sizing
 "CHRtFlo_Sys_L_Break_C" = 561.4225   $ Sizing
 "CHRtFlo_Sys_L_Conf_C" = 546.3161   $ Sizing
 "CHRtFlo_Sys_L_CopyRm_C" = 163.7662   $ Sizing
 "CHRtFlo_Sys_L_Cordr_C" = 666.3638   $ Sizing
 "CHRtFlo_Sys_L_Cordr_E" = 262.2306   $ Sizing
 "CHRtFlo_Sys_L_Cordr_N" = 169.9751   $ Sizing
 "CHRtFlo_Sys_L_Cordr_S" = 241.8369   $ Sizing
 "CHRtFlo_Sys_L_Cordr_W" = 267.4826   $ Sizing
 "CHRtFlo_Sys_L_LobWait_C" = 519.6337   $ Sizing
 "CHRtFlo_Sys_L_MechElec_C" = 135.2303   $ Sizing
 "CHRtFlo_Sys_L_OfficeOpn_C" = 1809.053   $ Sizing
 "CHRtFlo_Sys_L_OfficeOpn_E" = 1815.768   $ Sizing
 "CHRtFlo_Sys_L_OfficeOpn_N" = 1203.508   $ Sizing
 "CHRtFlo_Sys_L_OfficeOpn_S" = 1726.366   $ Sizing
 "CHRtFlo_Sys_L_OfficeOpn_W" = 1857.923   $ Sizing
 "CHRtFlo_Sys_L_OfficeSm_C" = 260.9421   $ Sizing
 "CHRtFlo_Sys_L_OfficeSm_E" = 1326.849   $ Sizing
 "CHRtFlo_Sys_L_OfficeSm_N" = 791.184   $ Sizing
 "CHRtFlo_Sys_L_OfficeSm_S" = 1270.379   $ Sizing
 "CHRtFlo_Sys_L_OfficeSm_W" = 1319.144   $ Sizing
 "CHRtFlo_Sys_L_Restrm_C" = 212.8927   $ Sizing
 "CHRtFlo_Sys_L_StorSm_C" = 424.9554   $ Sizing
 "CHRtFlo_Sys_M_Break_C" = 4523.735   $ Sizing
 "CHRtFlo_Sys_M_Conf_C" = 4347.062   $ Sizing
 "CHRtFlo_Sys_M_CopyRm_C" = 1287.62   $ Sizing
 "CHRtFlo_Sys_M_Cordr_C" = 8057.74   $ Sizing
 "CHRtFlo_Sys_M_Cordr_E" = 2449.992   $ Sizing
 "CHRtFlo_Sys_M_Cordr_N" = 1516.306   $ Sizing
 "CHRtFlo_Sys_M_Cordr_S" = 2167.055   $ Sizing
 "CHRtFlo_Sys_M_Cordr_W" = 2234.022   $ Sizing
 "CHRtFlo_Sys_M_LobWait_C" = 4324.19   $ Sizing
 "CHRtFlo_Sys_M_MechElec_C" = 1375.953   $ Sizing
 "CHRtFlo_Sys_M_OfficeOpn_C" = 16802.78   $ Sizing
 "CHRtFlo_Sys_M_OfficeOpn_E" = 15852.16   $ Sizing
 "CHRtFlo_Sys_M_OfficeOpn_N" = 10028.73   $ Sizing
 "CHRtFlo_Sys_M_OfficeOpn_S" = 14760.68   $ Sizing
 "CHRtFlo_Sys_M_OfficeOpn_W" = 15198.45   $ Sizing
 "CHRtFlo_Sys_M_OfficeSm_C" = 2604.188   $ Sizing
 "CHRtFlo_Sys_M_OfficeSm_E" = 11401.68   $ Sizing
 "CHRtFlo_Sys_M_OfficeSm_N" = 6532.41   $ Sizing
 "CHRtFlo_Sys_M_OfficeSm_S" = 10713.81   $ Sizing
 "CHRtFlo_Sys_M_OfficeSm_W" = 10847.57   $ Sizing
 "CHRtFlo_Sys_M_Restrm_C" = 1703.142   $ Sizing
 "CHRtFlo_Sys_M_StorSm_C" = 3564.768   $ Sizing
 "CHRtFlo_Sys_T_Break_C" = 556.3956   $ Sizing
 "CHRtFlo_Sys_T_Conf_C" = 535.0139   $ Sizing
 "CHRtFlo_Sys_T_CopyRm_C" = 155.5454   $ Sizing
 "CHRtFlo_Sys_T_Cordr_C" = 846.9178   $ Sizing
 "CHRtFlo_Sys_T_Cordr_E" = 270.2821   $ Sizing
 "CHRtFlo_Sys_T_Cordr_N" = 184.7971   $ Sizing
 "CHRtFlo_Sys_T_Cordr_S" = 252.6022   $ Sizing
 "CHRtFlo_Sys_T_Cordr_W" = 278.1089   $ Sizing
 "CHRtFlo_Sys_T_LobWait_C" = 539.5295   $ Sizing
 "CHRtFlo_Sys_T_MechElec_C" = 195.5867   $ Sizing
 "CHRtFlo_Sys_T_OfficeOpn_C" = 1839.358   $ Sizing
 "CHRtFlo_Sys_T_OfficeOpn_E" = 1804.528   $ Sizing
 "CHRtFlo_Sys_T_OfficeOpn_N" = 1265.768   $ Sizing
 "CHRtFlo_Sys_T_OfficeOpn_S" = 1729.467   $ Sizing
 "CHRtFlo_Sys_T_OfficeOpn_W" = 1885.264   $ Sizing
 "CHRtFlo_Sys_T_OfficeSm_C" = 289.368   $ Sizing
 "CHRtFlo_Sys_T_OfficeSm_E" = 1335.618   $ Sizing
 "CHRtFlo_Sys_T_OfficeSm_N" = 832.114   $ Sizing
 "CHRtFlo_Sys_T_OfficeSm_S" = 1279.854   $ Sizing
 "CHRtFlo_Sys_T_OfficeSm_W" = 1340.161   $ Sizing
 "CHRtFlo_Sys_T_Restrm_C" = 212.8927   $ Sizing
 "CHRtFlo_Sys_T_StorSm_C" = 335.7162   $ Sizing
 "CRtdFlo_Sys_L_Break_C" = 561.4225   $ Sizing
 "CRtdFlo_Sys_L_Conf_C" = 546.3161   $ Sizing
 "CRtdFlo_Sys_L_CopyRm_C" = 163.7662   $ Sizing
 "CRtdFlo_Sys_L_Cordr_C" = 666.2566   $ Sizing
 "CRtdFlo_Sys_L_Cordr_E" = 234.0423   $ Sizing
 "CRtdFlo_Sys_L_Cordr_N" = 169.9751   $ Sizing
 "CRtdFlo_Sys_L_Cordr_S" = 237.163   $ Sizing
 "CRtdFlo_Sys_L_Cordr_W" = 267.4826   $ Sizing
 "CRtdFlo_Sys_L_LobWait_C" = 519.6337   $ Sizing
 "CRtdFlo_Sys_L_MechElec_C" = 118.6652   $ Sizing
 "CRtdFlo_Sys_L_OfficeOpn_C" = 1809.053   $ Sizing
 "CRtdFlo_Sys_L_OfficeOpn_E" = 1590.093   $ Sizing
 "CRtdFlo_Sys_L_OfficeOpn_N" = 1203.508   $ Sizing
 "CRtdFlo_Sys_L_OfficeOpn_S" = 1618.404   $ Sizing
 "CRtdFlo_Sys_L_OfficeOpn_W" = 1857.923   $ Sizing
 "CRtdFlo_Sys_L_OfficeSm_C" = 230.7578   $ Sizing
 "CRtdFlo_Sys_L_OfficeSm_E" = 1135.62   $ Sizing
 "CRtdFlo_Sys_L_OfficeSm_N" = 791.184   $ Sizing
 "CRtdFlo_Sys_L_OfficeSm_S" = 1146.619   $ Sizing
 "CRtdFlo_Sys_L_OfficeSm_W" = 1308.526   $ Sizing
 "CRtdFlo_Sys_L_Restrm_C" = 96.44797   $ Sizing
 "CRtdFlo_Sys_L_StorSm_C" = 379.1505   $ Sizing
 "CRtdFlo_Sys_M_Break_C" = 4523.735   $ Sizing
 "CRtdFlo_Sys_M_Conf_C" = 4347.062   $ Sizing
 "CRtdFlo_Sys_M_CopyRm_C" = 1287.62   $ Sizing
 "CRtdFlo_Sys_M_Cordr_C" = 7106.857   $ Sizing
 "CRtdFlo_Sys_M_Cordr_E" = 2131.091   $ Sizing
 "CRtdFlo_Sys_M_Cordr_N" = 1464.366   $ Sizing
 "CRtdFlo_Sys_M_Cordr_S" = 2054.794   $ Sizing
 "CRtdFlo_Sys_M_Cordr_W" = 2234.022   $ Sizing
 "CRtdFlo_Sys_M_LobWait_C" = 4324.19   $ Sizing
 "CRtdFlo_Sys_M_MechElec_C" = 1173.175   $ Sizing
 "CRtdFlo_Sys_M_OfficeOpn_C" = 14598.54   $ Sizing
 "CRtdFlo_Sys_M_OfficeOpn_E" = 13718.82   $ Sizing
 "CRtdFlo_Sys_M_OfficeOpn_N" = 10028.73   $ Sizing
 "CRtdFlo_Sys_M_OfficeOpn_S" = 13592.42   $ Sizing
 "CRtdFlo_Sys_M_OfficeOpn_W" = 15198.45   $ Sizing
 "CRtdFlo_Sys_M_OfficeSm_C" = 2111.66   $ Sizing
 "CRtdFlo_Sys_M_OfficeSm_E" = 9661.815   $ Sizing
 "CRtdFlo_Sys_M_OfficeSm_N" = 6532.41   $ Sizing
 "CRtdFlo_Sys_M_OfficeSm_S" = 9545.876   $ Sizing
 "CRtdFlo_Sys_M_OfficeSm_W" = 10594.79   $ Sizing
 "CRtdFlo_Sys_M_Restrm_C" = 825.7112   $ Sizing
 "CRtdFlo_Sys_M_StorSm_C" = 3161.504   $ Sizing
 "CRtdFlo_Sys_T_Break_C" = 556.3956   $ Sizing
 "CRtdFlo_Sys_T_Conf_C" = 535.0139   $ Sizing
 "CRtdFlo_Sys_T_CopyRm_C" = 155.5454   $ Sizing
 "CRtdFlo_Sys_T_Cordr_C" = 822.7868   $ Sizing
 "CRtdFlo_Sys_T_Cordr_E" = 259.4943   $ Sizing
 "CRtdFlo_Sys_T_Cordr_N" = 184.7971   $ Sizing
 "CRtdFlo_Sys_T_Cordr_S" = 252.6022   $ Sizing
 "CRtdFlo_Sys_T_Cordr_W" = 278.1089   $ Sizing
 "CRtdFlo_Sys_T_LobWait_C" = 539.5295   $ Sizing
 "CRtdFlo_Sys_T_MechElec_C" = 165.2263   $ Sizing
 "CRtdFlo_Sys_T_OfficeOpn_C" = 1839.358   $ Sizing
 "CRtdFlo_Sys_T_OfficeOpn_E" = 1692.582   $ Sizing
 "CRtdFlo_Sys_T_OfficeOpn_N" = 1265.768   $ Sizing
 "CRtdFlo_Sys_T_OfficeOpn_S" = 1697.23   $ Sizing
 "CRtdFlo_Sys_T_OfficeOpn_W" = 1885.264   $ Sizing
 "CRtdFlo_Sys_T_OfficeSm_C" = 253.4413   $ Sizing
 "CRtdFlo_Sys_T_OfficeSm_E" = 1223.797   $ Sizing
 "CRtdFlo_Sys_T_OfficeSm_N" = 832.114   $ Sizing
 "CRtdFlo_Sys_T_OfficeSm_S" = 1206.054   $ Sizing
 "CRtdFlo_Sys_T_OfficeSm_W" = 1340.161   $ Sizing
 "CRtdFlo_Sys_T_Restrm_C" = 134.5114   $ Sizing
 "CRtdFlo_Sys_T_StorSm_C" = 275.8411   $ Sizing
 "CSupFlo_Sys_L_Break_C" = 561.4225   $ Sizing
 "CSupFlo_Sys_L_Conf_C" = 546.3161   $ Sizing
 "CSupFlo_Sys_L_CopyRm_C" = 163.7662   $ Sizing
 "CSupFlo_Sys_L_Cordr_C" = 666.2566   $ Sizing
 "CSupFlo_Sys_L_Cordr_E" = 234.0423   $ Sizing
 "CSupFlo_Sys_L_Cordr_N" = 169.9751   $ Sizing
 "CSupFlo_Sys_L_Cordr_S" = 237.163   $ Sizing
 "CSupFlo_Sys_L_Cordr_W" = 267.4826   $ Sizing
 "CSupFlo_Sys_L_LobWait_C" = 519.6337   $ Sizing
 "CSupFlo_Sys_L_MechElec_C" = 118.6652   $ Sizing
 "CSupFlo_Sys_L_OfficeOpn_C" = 1809.053   $ Sizing
 "CSupFlo_Sys_L_OfficeOpn_E" = 1590.093   $ Sizing
 "CSupFlo_Sys_L_OfficeOpn_N" = 1203.508   $ Sizing
 "CSupFlo_Sys_L_OfficeOpn_S" = 1618.404   $ Sizing
 "CSupFlo_Sys_L_OfficeOpn_W" = 1857.923   $ Sizing
 "CSupFlo_Sys_L_OfficeSm_C" = 230.7578   $ Sizing
 "CSupFlo_Sys_L_OfficeSm_E" = 1135.62   $ Sizing
 "CSupFlo_Sys_L_OfficeSm_N" = 791.184   $ Sizing
 "CSupFlo_Sys_L_OfficeSm_S" = 1146.619   $ Sizing
 "CSupFlo_Sys_L_OfficeSm_W" = 1308.526   $ Sizing
 "CSupFlo_Sys_L_Restrm_C" = 96.44797   $ Sizing
 "CSupFlo_Sys_L_StorSm_C" = 379.1505   $ Sizing
 "CSupFlo_Sys_M_Break_C" = 4523.735   $ Sizing
 "CSupFlo_Sys_M_Conf_C" = 4347.062   $ Sizing
 "CSupFlo_Sys_M_CopyRm_C" = 1287.62   $ Sizing
 "CSupFlo_Sys_M_Cordr_C" = 7106.857   $ Sizing
 "CSupFlo_Sys_M_Cordr_E" = 2131.091   $ Sizing
 "CSupFlo_Sys_M_Cordr_N" = 1464.366   $ Sizing
 "CSupFlo_Sys_M_Cordr_S" = 2054.794   $ Sizing
 "CSupFlo_Sys_M_Cordr_W" = 2234.022   $ Sizing
 "CSupFlo_Sys_M_LobWait_C" = 4324.19   $ Sizing
 "CSupFlo_Sys_M_MechElec_C" = 1173.175   $ Sizing
 "CSupFlo_Sys_M_OfficeOpn_C" = 14598.54   $ Sizing
 "CSupFlo_Sys_M_OfficeOpn_E" = 13718.82   $ Sizing
 "CSupFlo_Sys_M_OfficeOpn_N" = 10028.73   $ Sizing
 "CSupFlo_Sys_M_OfficeOpn_S" = 13592.42   $ Sizing
 "CSupFlo_Sys_M_OfficeOpn_W" = 15198.45   $ Sizing
 "CSupFlo_Sys_M_OfficeSm_C" = 2111.66   $ Sizing
 "CSupFlo_Sys_M_OfficeSm_E" = 9661.815   $ Sizing
 "CSupFlo_Sys_M_OfficeSm_N" = 6532.41   $ Sizing
 "CSupFlo_Sys_M_OfficeSm_S" = 9545.876   $ Sizing
 "CSupFlo_Sys_M_OfficeSm_W" = 10594.79   $ Sizing
 "CSupFlo_Sys_M_Restrm_C" = 825.7112   $ Sizing
 "CSupFlo_Sys_M_StorSm_C" = 3161.504   $ Sizing
 "CSupFlo_Sys_T_Break_C" = 556.3956   $ Sizing
 "CSupFlo_Sys_T_Conf_C" = 535.0139   $ Sizing
 "CSupFlo_Sys_T_CopyRm_C" = 155.5454   $ Sizing
 "CSupFlo_Sys_T_Cordr_C" = 822.7868   $ Sizing
 "CSupFlo_Sys_T_Cordr_E" = 259.4943   $ Sizing
 "CSupFlo_Sys_T_Cordr_N" = 184.7971   $ Sizing
 "CSupFlo_Sys_T_Cordr_S" = 252.6022   $ Sizing
 "CSupFlo_Sys_T_Cordr_W" = 278.1089   $ Sizing
 "CSupFlo_Sys_T_LobWait_C" = 539.5295   $ Sizing
 "CSupFlo_Sys_T_MechElec_C" = 165.2263   $ Sizing
 "CSupFlo_Sys_T_OfficeOpn_C" = 1839.358   $ Sizing
 "CSupFlo_Sys_T_OfficeOpn_E" = 1692.582   $ Sizing
 "CSupFlo_Sys_T_OfficeOpn_N" = 1265.768   $ Sizing
 "CSupFlo_Sys_T_OfficeOpn_S" = 1697.23   $ Sizing
 "CSupFlo_Sys_T_OfficeOpn_W" = 1885.264   $ Sizing
 "CSupFlo_Sys_T_OfficeSm_C" = 253.4413   $ Sizing
 "CSupFlo_Sys_T_OfficeSm_E" = 1223.797   $ Sizing
 "CSupFlo_Sys_T_OfficeSm_N" = 832.114   $ Sizing
 "CSupFlo_Sys_T_OfficeSm_S" = 1206.054   $ Sizing
 "CSupFlo_Sys_T_OfficeSm_W" = 1340.161   $ Sizing
 "CSupFlo_Sys_T_Restrm_C" = 134.5114   $ Sizing
 "CSupFlo_Sys_T_StorSm_C" = 275.8411   $ Sizing
 "ClCap_Sys_L_Break_C" = 19012.29   $ Sizing
 "ClCap_Sys_L_Conf_C" = 23546.38   $ Sizing
 "ClCap_Sys_L_CopyRm_C" = 5545.861   $ Sizing
 "ClCap_Sys_L_Cordr_C" = 22562.45   $ Sizing
 "ClCap_Sys_L_Cordr_E" = 7925.724   $ Sizing
 "ClCap_Sys_L_Cordr_N" = 5756.124   $ Sizing
 "ClCap_Sys_L_Cordr_S" = 8031.407   $ Sizing
 "ClCap_Sys_L_Cordr_W" = 9058.166   $ Sizing
 "ClCap_Sys_L_LobWait_C" = 17597.14   $ Sizing
 "ClCap_Sys_L_MechElec_C" = 4018.537   $ Sizing
 "ClCap_Sys_L_OfficeOpn_C" = 61262.66   $ Sizing
 "ClCap_Sys_L_OfficeOpn_E" = 53847.7   $ Sizing
 "ClCap_Sys_L_OfficeOpn_N" = 40756.2   $ Sizing
 "ClCap_Sys_L_OfficeOpn_S" = 54806.44   $ Sizing
 "ClCap_Sys_L_OfficeOpn_W" = 62917.64   $ Sizing
 "ClCap_Sys_L_OfficeSm_C" = 7814.497   $ Sizing
 "ClCap_Sys_L_OfficeSm_E" = 38457.21   $ Sizing
 "ClCap_Sys_L_OfficeSm_N" = 26793.05   $ Sizing
 "ClCap_Sys_L_OfficeSm_S" = 38829.68   $ Sizing
 "ClCap_Sys_L_OfficeSm_W" = 44312.58   $ Sizing
 "ClCap_Sys_L_Restrm_C" = 3266.162   $ Sizing
 "ClCap_Sys_L_StorSm_C" = 12839.74   $ Sizing
 "ClCap_Sys_M_Break_C" = 153194   $ Sizing
 "ClCap_Sys_M_Conf_C" = 187359.6   $ Sizing
 "ClCap_Sys_M_CopyRm_C" = 43604.63   $ Sizing
 "ClCap_Sys_M_Cordr_C" = 240670.2   $ Sizing
 "ClCap_Sys_M_Cordr_E" = 72168.34   $ Sizing
 "ClCap_Sys_M_Cordr_N" = 49590.03   $ Sizing
 "ClCap_Sys_M_Cordr_S" = 69584.58   $ Sizing
 "ClCap_Sys_M_Cordr_W" = 75654.05   $ Sizing
 "ClCap_Sys_M_LobWait_C" = 146436.6   $ Sizing
 "ClCap_Sys_M_MechElec_C" = 39728.98   $ Sizing
 "ClCap_Sys_M_OfficeOpn_C" = 494372.4   $ Sizing
 "ClCap_Sys_M_OfficeOpn_E" = 464581   $ Sizing
 "ClCap_Sys_M_OfficeOpn_N" = 339617.9   $ Sizing
 "ClCap_Sys_M_OfficeOpn_S" = 460300.7   $ Sizing
 "ClCap_Sys_M_OfficeOpn_W" = 514687.8   $ Sizing
 "ClCap_Sys_M_OfficeSm_C" = 71510.3   $ Sizing
 "ClCap_Sys_M_OfficeSm_E" = 327192.6   $ Sizing
 "ClCap_Sys_M_OfficeSm_N" = 221216.8   $ Sizing
 "ClCap_Sys_M_OfficeSm_S" = 323266.3   $ Sizing
 "ClCap_Sys_M_OfficeSm_W" = 358787.4   $ Sizing
 "ClCap_Sys_M_Restrm_C" = 27962.3   $ Sizing
 "ClCap_Sys_M_StorSm_C" = 107062.8   $ Sizing
 "ClCap_Sys_T_Break_C" = 18842.06   $ Sizing
 "ClCap_Sys_T_Conf_C" = 23059.25   $ Sizing
 "ClCap_Sys_T_CopyRm_C" = 5267.469   $ Sizing
 "ClCap_Sys_T_Cordr_C" = 27863.27   $ Sizing
 "ClCap_Sys_T_Cordr_E" = 8787.645   $ Sizing
 "ClCap_Sys_T_Cordr_N" = 6258.061   $ Sizing
 "ClCap_Sys_T_Cordr_S" = 8554.246   $ Sizing
 "ClCap_Sys_T_Cordr_W" = 9418.02   $ Sizing
 "ClCap_Sys_T_LobWait_C" = 18270.9   $ Sizing
 "ClCap_Sys_T_MechElec_C" = 5595.308   $ Sizing
 "ClCap_Sys_T_OfficeOpn_C" = 62288.95   $ Sizing
 "ClCap_Sys_T_OfficeOpn_E" = 57318.43   $ Sizing
 "ClCap_Sys_T_OfficeOpn_N" = 42864.59   $ Sizing
 "ClCap_Sys_T_OfficeOpn_S" = 57475.84   $ Sizing
 "ClCap_Sys_T_OfficeOpn_W" = 63843.53   $ Sizing
 "ClCap_Sys_T_OfficeSm_C" = 8582.662   $ Sizing
 "ClCap_Sys_T_OfficeSm_E" = 41443.28   $ Sizing
 "ClCap_Sys_T_OfficeSm_N" = 28179.13   $ Sizing
 "ClCap_Sys_T_OfficeSm_S" = 40842.41   $ Sizing
 "ClCap_Sys_T_OfficeSm_W" = 45383.88   $ Sizing
 "ClCap_Sys_T_Restrm_C" = 4555.161   $ Sizing
 "ClCap_Sys_T_StorSm_C" = 9341.22   $ Sizing
 "HtCap_Sys_L_Break_C" = -32317.36   $ Sizing
 "HtCap_Sys_L_Conf_C" = -32399.96   $ Sizing
 "HtCap_Sys_L_CopyRm_C" = -10943.81   $ Sizing
 "HtCap_Sys_L_Cordr_C" = -29629.4   $ Sizing
 "HtCap_Sys_L_Cordr_E" = -9420.594   $ Sizing
 "HtCap_Sys_L_Cordr_N" = -7042.056   $ Sizing
 "HtCap_Sys_L_Cordr_S" = -8753.693   $ Sizing
 "HtCap_Sys_L_Cordr_W" = -9673.93   $ Sizing
 "HtCap_Sys_L_LobWait_C" = -29965.73   $ Sizing
 "HtCap_Sys_L_MechElec_C" = -6278.217   $ Sizing
 "HtCap_Sys_L_OfficeOpn_C" = -74211.93   $ Sizing
 "HtCap_Sys_L_OfficeOpn_E" = -62706.52   $ Sizing
 "HtCap_Sys_L_OfficeOpn_N" = -46202.72   $ Sizing
 "HtCap_Sys_L_OfficeOpn_S" = -59186.95   $ Sizing
 "HtCap_Sys_L_OfficeOpn_W" = -64056.41   $ Sizing
 "HtCap_Sys_L_OfficeSm_C" = -10344.95   $ Sizing
 "HtCap_Sys_L_OfficeSm_E" = -44227.59   $ Sizing
 "HtCap_Sys_L_OfficeSm_N" = -30170.91   $ Sizing
 "HtCap_Sys_L_OfficeSm_S" = -43362.21   $ Sizing
 "HtCap_Sys_L_OfficeSm_W" = -45136.95   $ Sizing
 "HtCap_Sys_L_Restrm_C" = -7795.029   $ Sizing
 "HtCap_Sys_L_StorSm_C" = -18604.34   $ Sizing
 "HtCap_Sys_M_Break_C" = -244317.7   $ Sizing
 "HtCap_Sys_M_Conf_C" = -238789.6   $ Sizing
 "HtCap_Sys_M_CopyRm_C" = -74945.45   $ Sizing
 "HtCap_Sys_M_Cordr_C" = -315292.5   $ Sizing
 "HtCap_Sys_M_Cordr_E" = -85312.95   $ Sizing
 "HtCap_Sys_M_Cordr_N" = -58307.18   $ Sizing
 "HtCap_Sys_M_Cordr_S" = -76428.23   $ Sizing
 "HtCap_Sys_M_Cordr_W" = -79509.89   $ Sizing
 "HtCap_Sys_M_LobWait_C" = -213724.5   $ Sizing
 "HtCap_Sys_M_MechElec_C" = -58493.99   $ Sizing
 "HtCap_Sys_M_OfficeOpn_C" = -643130.1   $ Sizing
 "HtCap_Sys_M_OfficeOpn_E" = -538530.3   $ Sizing
 "HtCap_Sys_M_OfficeOpn_N" = -377379.7   $ Sizing
 "HtCap_Sys_M_OfficeOpn_S" = -500354.4   $ Sizing
 "HtCap_Sys_M_OfficeOpn_W" = -520490.4   $ Sizing
 "HtCap_Sys_M_OfficeSm_C" = -97765.35   $ Sizing
 "HtCap_Sys_M_OfficeSm_E" = -378625.5   $ Sizing
 "HtCap_Sys_M_OfficeSm_N" = -244897.1   $ Sizing
 "HtCap_Sys_M_OfficeSm_S" = -361372.3   $ Sizing
 "HtCap_Sys_M_OfficeSm_W" = -368478   $ Sizing
 "HtCap_Sys_M_Restrm_C" = -67338.72   $ Sizing
 "HtCap_Sys_M_StorSm_C" = -149391.1   $ Sizing
 "HtCap_Sys_T_Break_C" = -32410.68   $ Sizing
 "HtCap_Sys_T_Conf_C" = -31563.87   $ Sizing
 "HtCap_Sys_T_CopyRm_C" = -10115.7   $ Sizing
 "HtCap_Sys_T_Cordr_C" = -37874.05   $ Sizing
 "HtCap_Sys_T_Cordr_E" = -10595.78   $ Sizing
 "HtCap_Sys_T_Cordr_N" = -8080.417   $ Sizing
 "HtCap_Sys_T_Cordr_S" = -10077.88   $ Sizing
 "HtCap_Sys_T_Cordr_W" = -11084.12   $ Sizing
 "HtCap_Sys_T_LobWait_C" = -29609.93   $ Sizing
 "HtCap_Sys_T_MechElec_C" = -7976.839   $ Sizing
 "HtCap_Sys_T_OfficeOpn_C" = -80401.45   $ Sizing
 "HtCap_Sys_T_OfficeOpn_E" = -67670.05   $ Sizing
 "HtCap_Sys_T_OfficeOpn_N" = -53112.17   $ Sizing
 "HtCap_Sys_T_OfficeOpn_S" = -66086.16   $ Sizing
 "HtCap_Sys_T_OfficeOpn_W" = -71150.79   $ Sizing
 "HtCap_Sys_T_OfficeSm_C" = -12095.78   $ Sizing
 "HtCap_Sys_T_OfficeSm_E" = -48403.27   $ Sizing
 "HtCap_Sys_T_OfficeSm_N" = -34489.01   $ Sizing
 "HtCap_Sys_T_OfficeSm_S" = -47958.46   $ Sizing
 "HtCap_Sys_T_OfficeSm_W" = -50094.72   $ Sizing
 "HtCap_Sys_T_Restrm_C" = -8409.375   $ Sizing
 "HtCap_Sys_T_StorSm_C" = -17075.63   $ Sizing
..

##include Templates\OfL_DX_SZ.inp
END ..
COMPUTE ..
STOP ..
