INPUT ..

##fileprefix C:\Users\jglasskatz\MASControl3\
##set1 IsSizing FALSE
##set1 CoolType DX
##set1 HeatType FURNACE
##set1 EU_HrRepVar 0
##set1 BldgVint 1985
##set1 BldgLoc CZ02

 ##set1 mBFMult 1   $ IP Tech: RefgChg-NRes-Std

PARAMETER
 "AltFactor" = 1.00464   $ IP Non-Tech
 "BF_fFlow" = SpltAC2SpHiSEER_BF_fFlow   $ Msr (Multi)TechID: MsrNResSplitAC-45to55-S17
 "BF_fT" = SpltAC2SpHiSEER_BF_fT   $ Msr (Multi)TechID: MsrNResSplitAC-45to55-S17
 "BldgEconoFlag" = 1   $ IP Non-Tech
 "Break_EWSF" = 1   $ IP Non-Tech
 "Break_LWSF" = 1.1   $ IP Non-Tech
 "CDD_DBHi10" = 83   $ IP Non-Tech
 "CDD_DBHi7" = 96   $ IP Non-Tech
 "CDD_DBHi8" = 92   $ IP Non-Tech
 "CDD_DBHi9" = 96   $ IP Non-Tech
 "CDD_DBRange10" = 35   $ IP Non-Tech
 "CDD_DBRange7" = 44   $ IP Non-Tech
 "CDD_DBRange8" = 38   $ IP Non-Tech
 "CDD_DBRange9" = 43   $ IP Non-Tech
 "CDD_Day10" = 15   $ IP Non-Tech
 "CDD_Day7" = 16   $ IP Non-Tech
 "CDD_Day8" = 20   $ IP Non-Tech
 "CDD_Day9" = 17   $ IP Non-Tech
 "CDD_HrHi10" = 15   $ IP Non-Tech
 "CDD_HrHi7" = 15   $ IP Non-Tech
 "CDD_HrHi8" = 16   $ IP Non-Tech
 "CDD_HrHi9" = 14   $ IP Non-Tech
 "CDD_HrLo10" = 7   $ IP Non-Tech
 "CDD_HrLo7" = 7   $ IP Non-Tech
 "CDD_HrLo8" = 6   $ IP Non-Tech
 "CDD_HrLo9" = 6   $ IP Non-Tech
 "CDD_WB10" = 61.02124405   $ IP Non-Tech
 "CDD_WB7" = 68.3706665   $ IP Non-Tech
 "CDD_WB8" = 69.14488983   $ IP Non-Tech
 "CDD_WB9" = 65.15551758   $ IP Non-Tech
 "CEIR_fPLR_Hot" = SpltAC2SpHiSEER_CEIR_fPLR_Hot   $ Msr (Multi)TechID: MsrNResSplitAC-45to55-S17
 "CEIR_fPLR_Mod" = SpltAC2SpHiSEER_CEIR_fPLR_Mod   $ Msr (Multi)TechID: MsrNResSplitAC-45to55-S17
 "CEIR_fPLR_Tem" = SpltAC2SpHiSEER_CEIR_fPLR_Tem   $ Msr (Multi)TechID: MsrNResSplitAC-45to55-S17
 "CLoss_fPLR_Hot" = SpltAC2SpHiSEER_CLoss_fPLR_Hot   $ Msr (Multi)TechID: MsrNResSplitAC-45to55-S17
 "CLoss_fPLR_Mod" = SpltAC2SpHiSEER_CLoss_fPLR_Mod   $ Msr (Multi)TechID: MsrNResSplitAC-45to55-S17
 "CLoss_fPLR_Tem" = SpltAC2SpHiSEER_CLoss_fPLR_Tem   $ Msr (Multi)TechID: MsrNResSplitAC-45to55-S17
 "COP47" = 0   $ Msr (Multi)TechID: MsrNResSplitAC-45to55-S17
 "CZ_Category" = Mod   $ IP Non-Tech
 "CapRange" = Any   $ Msr (Multi)TechID: MsrNResSplitAC-45to55-S17
 "CfmPerBtuh" = 0.03   $ Msr (Multi)TechID: MsrNResSplitAC-45to55-S17
 "ChwVintEconoFlag" = 1   $ IP Non-Tech
 "ClCap_fT" = SpltAC2SpHiSEER_ClCap_fT   $ Msr (Multi)TechID: MsrNResSplitAC-45to55-S17
 "ClSH_fT" = SpltAC2SpHiSEER_ClSH_fT   $ Msr (Multi)TechID: MsrNResSplitAC-45to55-S17
 "CoilBF" = 0.102   $ Msr (Multi)TechID: MsrNResSplitAC-45to55-S17
 "CondWPerBtuh" = 0   $ Msr (Multi)TechID: MsrNResSplitAC-45to55-S17
 "Conference_EWSF" = 1.1   $ IP Non-Tech
 "Conference_LWSF" = 1.4   $ IP Non-Tech
 "CoolSensCap" = 0.724   $ Msr (Multi)TechID: MsrNResSplitAC-45to55-S17
 "CoolSetT" = 45   $ IP Non-Tech
 "CoolType" = DX   $ IP Non-Tech
 "CoolingEIR" = 0.2225   $ Msr (Multi)TechID: MsrNResSplitAC-45to55-S17
 "CopyRoom_EWSF" = 1.65   $ IP Non-Tech
 "CopyRoom_LWSF" = 1.3   $ IP Non-Tech
 "CorridorStairway_EWSF" = 0.22   $ IP Non-Tech
 "CorridorStairway_LWSF" = 0.6   $ IP Non-Tech
 "CrnkEIR" = 0.002225   $ Msr (Multi)TechID: MsrNResSplitAC-45to55-S17
 "CrnkMaxT" = 50   $ Msr (Multi)TechID: MsrNResSplitAC-45to55-S17
 "DXType" = SplitSEER   $ Msr (Multi)TechID: MsrNResSplitAC-45to55-S17
 "DesCoolT" = 75   $ IP Non-Tech
 "DesHeatT" = 73   $ IP Non-Tech
 "EER" = 13.26   $ Msr (Multi)TechID: MsrNResSplitAC-45to55-S17
 "EIR_fT" = SpltAC2SpHiSEER_EIR_fT   $ Msr (Multi)TechID: MsrNResSplitAC-45to55-S17
 "EconoCtrl" = FIXED   $ Msr (Multi)TechID: MsrNResSplitAC-45to55-S17
 "EconoEnthLimit" = 28   $ IP Non-Tech
 "EconoTempLimit" = 73   $ IP Non-Tech
 "Elevation" = 125   $ IP Non-Tech
 "FanEirPlr" = TwoSpeedFan   $ Msr (Multi)TechID: MsrNResSplitAC-45to55-S17
 "FanWPerCfm" = 0.271   $ Msr (Multi)TechID: MsrNResSplitAC-45to55-S17
 "HDD_CloudAmt1" = 0   $ IP Non-Tech
 "HDD_DBHi1" = 51   $ IP Non-Tech
 "HDD_DBRange1" = 22   $ IP Non-Tech
 "HDD_Day1" = 15   $ IP Non-Tech
 "HDD_HrHi1" = 15   $ IP Non-Tech
 "HDD_HrLo1" = 8   $ IP Non-Tech
 "HDD_WB1" = 45.9   $ IP Non-Tech
 "HDD_WindSpd1" = 10.4   $ IP Non-Tech
 "HIR_fT" = 0   $ Msr (Multi)TechID: MsrNResSplitAC-45to55-S17
 "HSPF" = 0   $ Msr (Multi)TechID: MsrNResSplitAC-45to55-S17
 "HeatSrc" = FURNACE   $ IP Non-Tech
 "HeatSrcTU" = HEAT-PUMP   $ IP Non-Tech
 "HeatType" = GasFurn   $ IP Non-Tech
 "HeatTypeTU" = HEAT-PUMP   $ IP Non-Tech
 "HtCap_fT" = 0   $ Msr (Multi)TechID: MsrNResSplitAC-45to55-S17
 "HtCoolCapRatio" = 0   $ Msr (Multi)TechID: MsrNResSplitAC-45to55-S17
 "HtgEIR" = 0   $ Msr (Multi)TechID: MsrNResSplitAC-45to55-S17
 "IndoorFanMode" = CONTINUOUS   $ IP Non-Tech
 "KT_TransferAir" = No   $ IP Non-Tech
 "Latitude" = 38.5   $ IP Non-Tech
 "LobbyWaiting_EWSF" = 0.525   $ IP Non-Tech
 "LobbyWaiting_LWSF" = 1.3   $ IP Non-Tech
 "Longitude" = 122.7   $ IP Non-Tech
 "LowSpdCapRatio" = 0.686   $ Msr (Multi)TechID: MsrNResSplitAC-45to55-S17
 "LowSpdCfmRatio" = 0.739   $ Msr (Multi)TechID: MsrNResSplitAC-45to55-S17
 "MZFanMechEff" = 0.58   $ IP Non-Tech
 "MZHasRetFan" = FALSE   $ IP Non-Tech
 "MZ_RFanWPerCfm" = 0.37   $ IP Non-Tech
 "MZ_SFanWPerCfm" = 0.71   $ IP Non-Tech
 "MZ_SupFanStatic" = 2.25   $ IP Non-Tech
 "MaxOAFrac" = 1   $ Msr (Multi)TechID: MsrNResSplitAC-45to55-S17
 "MaxSupT_MZ" = 100   $ IP Non-Tech
 "MaxSupT_SZ" = 100   $ IP Non-Tech
 "MaxSupT_TU" = 90   $ IP Non-Tech
 "MechElecRoom_EWSF" = 0.22   $ IP Non-Tech
 "MechElecRoom_LWSF" = 0.7   $ IP Non-Tech
 "MinCfmPerSF" = 0.4   $ IP Non-Tech
 "MinSupT" = 55   $ IP Non-Tech
 "NumStages" = 2   $ Msr (Multi)TechID: MsrNResSplitAC-45to55-S17
 "OccCoolT" = 76   $ IP Non-Tech
 "OccHeatT" = 72   $ IP Non-Tech
 "OfficeOpen_EWSF" = 1.65   $ IP Non-Tech
 "OfficeOpen_LWSF" = 1.2   $ IP Non-Tech
 "OfficeSmall_EWSF" = 1.65   $ IP Non-Tech
 "OfficeSmall_LWSF" = 1.3   $ IP Non-Tech
 "PkgDxVintEconoFlag" = 0   $ IP Non-Tech
 "Restroom_EWSF" = 0.22   $ IP Non-Tech
 "Restroom_LWSF" = 0.6   $ IP Non-Tech
 "SEER" = 17   $ Msr (Multi)TechID: MsrNResSplitAC-45to55-S17
 "SZFanMechEff" = 0.58   $ IP Non-Tech
 "SZHasRetFan" = FALSE   $ IP Non-Tech
 "SZ_Is_2Spd" = FALSE   $ IP Non-Tech
 "SZ_SFanWPerCfm" = 0.46   $ IP Non-Tech
 "SZ_SupFanStatic" = 0.75   $ IP Non-Tech
 "Sector" = Any   $ Msr (Multi)TechID: MsrNResSplitAC-45to55-S17
 "StorageSmlCond_EWSF" = 0.22   $ IP Non-Tech
 "StorageSmlCond_LWSF" = 0.6   $ IP Non-Tech
 "SubType" = AC   $ Msr (Multi)TechID: MsrNResSplitAC-45to55-S17
 "T24GlzTbl" = CZTbl   $ IP Non-Tech
 "TermUnitFanMechEff" = 1   $ IP Non-Tech
 "TermUnitFanMode" = INTERMITTENT   $ IP Non-Tech
 "TotCoolCap" = 58805   $ Msr (Multi)TechID: MsrNResSplitAC-45to55-S17
 "TwrSetpt" = 84   $ IP Non-Tech
 "UnocCoolT" = 86   $ IP Non-Tech
 "UnocHeatT" = 62   $ IP Non-Tech
 "UseEconoVintApplic" = FALSE   $ Msr (Multi)TechID: MsrNResSplitAC-45to55-S17
 "WlhpVintEconoFlag" = 0   $ IP Non-Tech
 "DuctDT" = 1   $ IP Tech: ComDuctInsul-1
 "DuctAirLoss" = 0   $ IP Tech: ComDuctLeak-0
 "DuctLossOAFrac" = 0   $ IP Tech: ComDuctLeak-0
 "ComRoofInsCalc" = FromUo   $ IP Tech: ComRoofIns-Hvy-0.06
 "ComRoofInsR" = -999   $ IP Tech: ComRoofIns-Hvy-0.06
 "ComRoofUo" = 0.06   $ IP Tech: ComRoofIns-Hvy-0.06
 "ComEWInsCalc" = FromUo   $ IP Tech: ComWallIns-MFrm-0.14
 "ComEWInsR" = -999   $ IP Tech: ComWallIns-MFrm-0.14
 "ComEWUo" = 0.14   $ IP Tech: ComWallIns-MFrm-0.14
 "ComN_SHGC" = 0.82   $ IP Tech: NResWin-ComN-1.23-0.82
 "ComN_UFactor" = 1.23   $ IP Tech: NResWin-ComN-1.23-0.82
 "ComN_VisTrans" = 0.9   $ IP Tech: NResWin-ComN-1.23-0.82
 "ComN_WinCode" = G1000   $ IP Tech: NResWin-ComN-1.23-0.82
 "ComN_WinFrmFrac" = 0.17   $ IP Tech: NResWin-ComN-1.23-0.82
 "ComN_WinFrmU" = 1   $ IP Tech: NResWin-ComN-1.23-0.82
 "ComO_SHGC" = 0.82   $ IP Tech: NResWin-ComO-1.23-0.82
 "ComO_UFactor" = 1.23   $ IP Tech: NResWin-ComO-1.23-0.82
 "ComO_VisTrans" = 0.9   $ IP Tech: NResWin-ComO-1.23-0.82
 "ComO_WinCode" = G1000   $ IP Tech: NResWin-ComO-1.23-0.82
 "ComO_WinFrmFrac" = 0.17   $ IP Tech: NResWin-ComO-1.23-0.82
 "ComO_WinFrmU" = 1   $ IP Tech: NResWin-ComO-1.23-0.82
 "LtgMsrApplic" = ALL   $ IP Tech: NonResLtgRefPre
 "LtgSav_CFL" = 0   $ IP Tech: NonResLtgRefPre
 "LtgSav_EX" = 0   $ IP Tech: NonResLtgRefPre
 "LtgSav_HB" = 0   $ IP Tech: NonResLtgRefPre
 "LtgSav_LF" = 0   $ IP Tech: NonResLtgRefPre
 "LtgSav_SP" = 0   $ IP Tech: NonResLtgRefPre
 "CEIR_fPLR" = PSZ65to135_CEIR_fPLR   $ IP Tech: PkgAC1SpH-65to135-E10
 "CLoss_fPLR" = PSZ65to135_CLoss_fPLR   $ IP Tech: PkgAC1SpH-65to135-E10
 "COP" = -1   $ IP Tech: PkgAC1SpH-65to135-E10
 "HtgFuel" = Gas   $ IP Tech: PkgAC1SpH-65to135-E10
 "IEER" = 11.87   $ IP Tech: PkgAC1SpH-65to135-E10
 "NominalCap" = 15   $ IP Tech: PkgAC1SpH-65to135-E10
 "RatedEER" = 10   $ IP Tech: PkgAC1SpH-65to135-E10
 "RatedSupMtrClass" = HiEff   $ IP Tech: PkgAC1SpH-65to135-E10
 "SizeRange" = 65to135   $ IP Tech: PkgAC1SpH-65to135-E10
 "SupMotEff" = 0.84   $ IP Tech: PkgAC1SpH-65to135-E10
 "Tier" = 0   $ IP Tech: PkgAC1SpH-65to135-E10
 "FanPwrMult" = 1   $ IP Tech: PkgFurn-0.80AFUE
 "FurnAFUE" = 0.8   $ IP Tech: PkgFurn-0.80AFUE
 "FurnEt" = 0.82   $ IP Tech: PkgFurn-0.80AFUE
 "FurnaceAuxKW" = 0.1   $ IP Tech: PkgFurn-0.80AFUE
 "HIR_fPLR" = Furnace-HIR-fPLR   $ IP Tech: PkgFurn-0.80AFUE
 "VSM" = FALSE   $ IP Tech: PkgFurn-0.80AFUE
 "BFMult" = 1   $ IP Tech: RefgChg-NRes-Std
 "CoolEirMult" = 1   $ IP Tech: RefgChg-NRes-Std
 "SensCoolCapMult" = 1   $ IP Tech: RefgChg-NRes-Std
 "TotCoolCapMult" = 1   $ IP Tech: RefgChg-NRes-Std
 "AltAdjFactor" = 1.004644   $ Sizing
 "CAssFlo_L_Break_CZn" = 461.5167   $ Sizing
 "CAssFlo_L_Conf_CZn" = 446.0092   $ Sizing
 "CAssFlo_L_CopyRm_CZn" = 143.443   $ Sizing
 "CAssFlo_L_Cordr_CZn" = 526.7269   $ Sizing
 "CAssFlo_L_Cordr_EZn" = 245.179   $ Sizing
 "CAssFlo_L_Cordr_NZn" = 145.3401   $ Sizing
 "CAssFlo_L_Cordr_SZn" = 289.7396   $ Sizing
 "CAssFlo_L_Cordr_WZn" = 299.6825   $ Sizing
 "CAssFlo_L_LobWait_CZn" = 444.7514   $ Sizing
 "CAssFlo_L_MechElec_CZn" = 96.29053   $ Sizing
 "CAssFlo_L_OfficeOpn_CZn" = 1675.143   $ Sizing
 "CAssFlo_L_OfficeOpn_EZn" = 1850.864   $ Sizing
 "CAssFlo_L_OfficeOpn_NZn" = 1163.971   $ Sizing
 "CAssFlo_L_OfficeOpn_SZn" = 2117.444   $ Sizing
 "CAssFlo_L_OfficeOpn_WZn" = 2227.961   $ Sizing
 "CAssFlo_L_OfficeSm_CZn" = 205.5918   $ Sizing
 "CAssFlo_L_OfficeSm_EZn" = 1349.372   $ Sizing
 "CAssFlo_L_OfficeSm_NZn" = 769.2183   $ Sizing
 "CAssFlo_L_OfficeSm_SZn" = 1561.918   $ Sizing
 "CAssFlo_L_OfficeSm_WZn" = 1640.505   $ Sizing
 "CAssFlo_L_Restrm_CZn" = 81.31813   $ Sizing
 "CAssFlo_L_StorSm_CZn" = 282.9632   $ Sizing
 "CAssFlo_M_Break_CZn" = 465.847   $ Sizing
 "CAssFlo_M_Conf_CZn" = 446.9555   $ Sizing
 "CAssFlo_M_CopyRm_CZn" = 144.4001   $ Sizing
 "CAssFlo_M_Cordr_CZn" = 682.9157   $ Sizing
 "CAssFlo_M_Cordr_EZn" = 282.8138   $ Sizing
 "CAssFlo_M_Cordr_NZn" = 172.513   $ Sizing
 "CAssFlo_M_Cordr_SZn" = 328.6353   $ Sizing
 "CAssFlo_M_Cordr_WZn" = 329.8549   $ Sizing
 "CAssFlo_M_LobWait_CZn" = 459.9588   $ Sizing
 "CAssFlo_M_MechElec_CZn" = 107.3238   $ Sizing
 "CAssFlo_M_OfficeOpn_CZn" = 1669.458   $ Sizing
 "CAssFlo_M_OfficeOpn_EZn" = 1991.571   $ Sizing
 "CAssFlo_M_OfficeOpn_NZn" = 1270.19   $ Sizing
 "CAssFlo_M_OfficeOpn_SZn" = 2299.072   $ Sizing
 "CAssFlo_M_OfficeOpn_WZn" = 2339.272   $ Sizing
 "CAssFlo_M_OfficeSm_CZn" = 214.1633   $ Sizing
 "CAssFlo_M_OfficeSm_EZn" = 1444.474   $ Sizing
 "CAssFlo_M_OfficeSm_NZn" = 836.8293   $ Sizing
 "CAssFlo_M_OfficeSm_SZn" = 1685.366   $ Sizing
 "CAssFlo_M_OfficeSm_WZn" = 1723.715   $ Sizing
 "CAssFlo_M_Restrm_CZn" = 88.48334   $ Sizing
 "CAssFlo_M_StorSm_CZn" = 286.9478   $ Sizing
 "CAssFlo_T_Break_CZn" = 461.1826   $ Sizing
 "CAssFlo_T_Conf_CZn" = 444.1653   $ Sizing
 "CAssFlo_T_CopyRm_CZn" = 141.3272   $ Sizing
 "CAssFlo_T_Cordr_CZn" = 618.8149   $ Sizing
 "CAssFlo_T_Cordr_EZn" = 274.0685   $ Sizing
 "CAssFlo_T_Cordr_NZn" = 170.9063   $ Sizing
 "CAssFlo_T_Cordr_SZn" = 317.4889   $ Sizing
 "CAssFlo_T_Cordr_WZn" = 324.5056   $ Sizing
 "CAssFlo_T_LobWait_CZn" = 460.3824   $ Sizing
 "CAssFlo_T_MechElec_CZn" = 138.6986   $ Sizing
 "CAssFlo_T_OfficeOpn_CZn" = 1725.684   $ Sizing
 "CAssFlo_T_OfficeOpn_EZn" = 1956.738   $ Sizing
 "CAssFlo_T_OfficeOpn_NZn" = 1279.768   $ Sizing
 "CAssFlo_T_OfficeOpn_SZn" = 2250.774   $ Sizing
 "CAssFlo_T_OfficeOpn_WZn" = 2302.804   $ Sizing
 "CAssFlo_T_OfficeSm_CZn" = 212.8658   $ Sizing
 "CAssFlo_T_OfficeSm_EZn" = 1453.175   $ Sizing
 "CAssFlo_T_OfficeSm_NZn" = 854.3072   $ Sizing
 "CAssFlo_T_OfficeSm_SZn" = 1679.464   $ Sizing
 "CAssFlo_T_OfficeSm_WZn" = 1732.189   $ Sizing
 "CAssFlo_T_Restrm_CZn" = 122.5257   $ Sizing
 "CAssFlo_T_StorSm_CZn" = 243.0569   $ Sizing
 "CHRtFlo_Sys_L_Break_C" = 461.5167   $ Sizing
 "CHRtFlo_Sys_L_Conf_C" = 453.8244   $ Sizing
 "CHRtFlo_Sys_L_CopyRm_C" = 143.443   $ Sizing
 "CHRtFlo_Sys_L_Cordr_C" = 593.605   $ Sizing
 "CHRtFlo_Sys_L_Cordr_E" = 317.5324   $ Sizing
 "CHRtFlo_Sys_L_Cordr_N" = 145.34   $ Sizing
 "CHRtFlo_Sys_L_Cordr_S" = 352.3914   $ Sizing
 "CHRtFlo_Sys_L_Cordr_W" = 338.6173   $ Sizing
 "CHRtFlo_Sys_L_LobWait_C" = 444.7514   $ Sizing
 "CHRtFlo_Sys_L_MechElec_C" = 133.7851   $ Sizing
 "CHRtFlo_Sys_L_OfficeOpn_C" = 1795.452   $ Sizing
 "CHRtFlo_Sys_L_OfficeOpn_E" = 2444.299   $ Sizing
 "CHRtFlo_Sys_L_OfficeOpn_N" = 1208.85   $ Sizing
 "CHRtFlo_Sys_L_OfficeOpn_S" = 2629.706   $ Sizing
 "CHRtFlo_Sys_L_OfficeOpn_W" = 2568.401   $ Sizing
 "CHRtFlo_Sys_L_OfficeSm_C" = 248.995   $ Sizing
 "CHRtFlo_Sys_L_OfficeSm_E" = 1799.099   $ Sizing
 "CHRtFlo_Sys_L_OfficeSm_N" = 813.6121   $ Sizing
 "CHRtFlo_Sys_L_OfficeSm_S" = 1986.831   $ Sizing
 "CHRtFlo_Sys_L_OfficeSm_W" = 1940.347   $ Sizing
 "CHRtFlo_Sys_L_Restrm_C" = 211.2538   $ Sizing
 "CHRtFlo_Sys_L_StorSm_C" = 393.7461   $ Sizing
 "CHRtFlo_Sys_M_Break_C" = 3726.776   $ Sizing
 "CHRtFlo_Sys_M_Conf_C" = 4092.071   $ Sizing
 "CHRtFlo_Sys_M_CopyRm_C" = 1193.959   $ Sizing
 "CHRtFlo_Sys_M_Cordr_C" = 7557.702   $ Sizing
 "CHRtFlo_Sys_M_Cordr_E" = 2959.774   $ Sizing
 "CHRtFlo_Sys_M_Cordr_N" = 1395.654   $ Sizing
 "CHRtFlo_Sys_M_Cordr_S" = 3282.86   $ Sizing
 "CHRtFlo_Sys_M_Cordr_W" = 3021.189   $ Sizing
 "CHRtFlo_Sys_M_LobWait_C" = 4159.654   $ Sizing
 "CHRtFlo_Sys_M_MechElec_C" = 1368.263   $ Sizing
 "CHRtFlo_Sys_M_OfficeOpn_C" = 17101.52   $ Sizing
 "CHRtFlo_Sys_M_OfficeOpn_E" = 20987.67   $ Sizing
 "CHRtFlo_Sys_M_OfficeOpn_N" = 10730.9   $ Sizing
 "CHRtFlo_Sys_M_OfficeOpn_S" = 23242.22   $ Sizing
 "CHRtFlo_Sys_M_OfficeOpn_W" = 21856.52   $ Sizing
 "CHRtFlo_Sys_M_OfficeSm_C" = 2421.831   $ Sizing
 "CHRtFlo_Sys_M_OfficeSm_E" = 15388.76   $ Sizing
 "CHRtFlo_Sys_M_OfficeSm_N" = 7190.481   $ Sizing
 "CHRtFlo_Sys_M_OfficeSm_S" = 17418.87   $ Sizing
 "CHRtFlo_Sys_M_OfficeSm_W" = 16389.69   $ Sizing
 "CHRtFlo_Sys_M_Restrm_C" = 1690.031   $ Sizing
 "CHRtFlo_Sys_M_StorSm_C" = 3455.363   $ Sizing
 "CHRtFlo_Sys_T_Break_C" = 461.1826   $ Sizing
 "CHRtFlo_Sys_T_Conf_C" = 472.5806   $ Sizing
 "CHRtFlo_Sys_T_CopyRm_C" = 141.3272   $ Sizing
 "CHRtFlo_Sys_T_Cordr_C" = 802.5667   $ Sizing
 "CHRtFlo_Sys_T_Cordr_E" = 327.415   $ Sizing
 "CHRtFlo_Sys_T_Cordr_N" = 170.9063   $ Sizing
 "CHRtFlo_Sys_T_Cordr_S" = 368.1293   $ Sizing
 "CHRtFlo_Sys_T_Cordr_W" = 337.2621   $ Sizing
 "CHRtFlo_Sys_T_LobWait_C" = 463.9253   $ Sizing
 "CHRtFlo_Sys_T_MechElec_C" = 195.1391   $ Sizing
 "CHRtFlo_Sys_T_OfficeOpn_C" = 1897.415   $ Sizing
 "CHRtFlo_Sys_T_OfficeOpn_E" = 2393.33   $ Sizing
 "CHRtFlo_Sys_T_OfficeOpn_N" = 1279.768   $ Sizing
 "CHRtFlo_Sys_T_OfficeOpn_S" = 2686.305   $ Sizing
 "CHRtFlo_Sys_T_OfficeOpn_W" = 2506.028   $ Sizing
 "CHRtFlo_Sys_T_OfficeSm_C" = 279.3625   $ Sizing
 "CHRtFlo_Sys_T_OfficeSm_E" = 1808.118   $ Sizing
 "CHRtFlo_Sys_T_OfficeSm_N" = 854.3071   $ Sizing
 "CHRtFlo_Sys_T_OfficeSm_S" = 2063.701   $ Sizing
 "CHRtFlo_Sys_T_OfficeSm_W" = 1925.521   $ Sizing
 "CHRtFlo_Sys_T_Restrm_C" = 211.2538   $ Sizing
 "CHRtFlo_Sys_T_StorSm_C" = 333.1317   $ Sizing
 "CRtdFlo_Sys_L_Break_C" = 461.5167   $ Sizing
 "CRtdFlo_Sys_L_Conf_C" = 446.0092   $ Sizing
 "CRtdFlo_Sys_L_CopyRm_C" = 143.443   $ Sizing
 "CRtdFlo_Sys_L_Cordr_C" = 526.7269   $ Sizing
 "CRtdFlo_Sys_L_Cordr_E" = 245.179   $ Sizing
 "CRtdFlo_Sys_L_Cordr_N" = 145.34   $ Sizing
 "CRtdFlo_Sys_L_Cordr_S" = 289.7396   $ Sizing
 "CRtdFlo_Sys_L_Cordr_W" = 299.6825   $ Sizing
 "CRtdFlo_Sys_L_LobWait_C" = 444.7514   $ Sizing
 "CRtdFlo_Sys_L_MechElec_C" = 96.29053   $ Sizing
 "CRtdFlo_Sys_L_OfficeOpn_C" = 1675.143   $ Sizing
 "CRtdFlo_Sys_L_OfficeOpn_E" = 1850.864   $ Sizing
 "CRtdFlo_Sys_L_OfficeOpn_N" = 1163.971   $ Sizing
 "CRtdFlo_Sys_L_OfficeOpn_S" = 2117.444   $ Sizing
 "CRtdFlo_Sys_L_OfficeOpn_W" = 2227.962   $ Sizing
 "CRtdFlo_Sys_L_OfficeSm_C" = 205.5918   $ Sizing
 "CRtdFlo_Sys_L_OfficeSm_E" = 1349.372   $ Sizing
 "CRtdFlo_Sys_L_OfficeSm_N" = 769.2183   $ Sizing
 "CRtdFlo_Sys_L_OfficeSm_S" = 1561.918   $ Sizing
 "CRtdFlo_Sys_L_OfficeSm_W" = 1640.505   $ Sizing
 "CRtdFlo_Sys_L_Restrm_C" = 81.31812   $ Sizing
 "CRtdFlo_Sys_L_StorSm_C" = 282.9632   $ Sizing
 "CRtdFlo_Sys_M_Break_C" = 3726.776   $ Sizing
 "CRtdFlo_Sys_M_Conf_C" = 3575.644   $ Sizing
 "CRtdFlo_Sys_M_CopyRm_C" = 1155.201   $ Sizing
 "CRtdFlo_Sys_M_Cordr_C" = 5463.326   $ Sizing
 "CRtdFlo_Sys_M_Cordr_E" = 2262.51   $ Sizing
 "CRtdFlo_Sys_M_Cordr_N" = 1380.104   $ Sizing
 "CRtdFlo_Sys_M_Cordr_S" = 2629.083   $ Sizing
 "CRtdFlo_Sys_M_Cordr_W" = 2638.839   $ Sizing
 "CRtdFlo_Sys_M_LobWait_C" = 3679.671   $ Sizing
 "CRtdFlo_Sys_M_MechElec_C" = 858.5907   $ Sizing
 "CRtdFlo_Sys_M_OfficeOpn_C" = 13355.67   $ Sizing
 "CRtdFlo_Sys_M_OfficeOpn_E" = 15932.57   $ Sizing
 "CRtdFlo_Sys_M_OfficeOpn_N" = 10161.52   $ Sizing
 "CRtdFlo_Sys_M_OfficeOpn_S" = 18392.57   $ Sizing
 "CRtdFlo_Sys_M_OfficeOpn_W" = 18714.18   $ Sizing
 "CRtdFlo_Sys_M_OfficeSm_C" = 1713.306   $ Sizing
 "CRtdFlo_Sys_M_OfficeSm_E" = 11555.79   $ Sizing
 "CRtdFlo_Sys_M_OfficeSm_N" = 6694.635   $ Sizing
 "CRtdFlo_Sys_M_OfficeSm_S" = 13482.93   $ Sizing
 "CRtdFlo_Sys_M_OfficeSm_W" = 13789.72   $ Sizing
 "CRtdFlo_Sys_M_Restrm_C" = 707.8667   $ Sizing
 "CRtdFlo_Sys_M_StorSm_C" = 2295.583   $ Sizing
 "CRtdFlo_Sys_T_Break_C" = 461.1826   $ Sizing
 "CRtdFlo_Sys_T_Conf_C" = 444.1653   $ Sizing
 "CRtdFlo_Sys_T_CopyRm_C" = 141.3272   $ Sizing
 "CRtdFlo_Sys_T_Cordr_C" = 618.8149   $ Sizing
 "CRtdFlo_Sys_T_Cordr_E" = 274.0685   $ Sizing
 "CRtdFlo_Sys_T_Cordr_N" = 170.9063   $ Sizing
 "CRtdFlo_Sys_T_Cordr_S" = 317.4889   $ Sizing
 "CRtdFlo_Sys_T_Cordr_W" = 324.5056   $ Sizing
 "CRtdFlo_Sys_T_LobWait_C" = 460.3824   $ Sizing
 "CRtdFlo_Sys_T_MechElec_C" = 138.6986   $ Sizing
 "CRtdFlo_Sys_T_OfficeOpn_C" = 1725.684   $ Sizing
 "CRtdFlo_Sys_T_OfficeOpn_E" = 1956.738   $ Sizing
 "CRtdFlo_Sys_T_OfficeOpn_N" = 1279.768   $ Sizing
 "CRtdFlo_Sys_T_OfficeOpn_S" = 2250.774   $ Sizing
 "CRtdFlo_Sys_T_OfficeOpn_W" = 2302.804   $ Sizing
 "CRtdFlo_Sys_T_OfficeSm_C" = 212.8658   $ Sizing
 "CRtdFlo_Sys_T_OfficeSm_E" = 1453.175   $ Sizing
 "CRtdFlo_Sys_T_OfficeSm_N" = 854.3071   $ Sizing
 "CRtdFlo_Sys_T_OfficeSm_S" = 1679.464   $ Sizing
 "CRtdFlo_Sys_T_OfficeSm_W" = 1732.189   $ Sizing
 "CRtdFlo_Sys_T_Restrm_C" = 122.5257   $ Sizing
 "CRtdFlo_Sys_T_StorSm_C" = 243.0569   $ Sizing
 "CSupFlo_Sys_L_Break_C" = 461.5167   $ Sizing
 "CSupFlo_Sys_L_Conf_C" = 446.0092   $ Sizing
 "CSupFlo_Sys_L_CopyRm_C" = 143.443   $ Sizing
 "CSupFlo_Sys_L_Cordr_C" = 526.7269   $ Sizing
 "CSupFlo_Sys_L_Cordr_E" = 245.179   $ Sizing
 "CSupFlo_Sys_L_Cordr_N" = 145.34   $ Sizing
 "CSupFlo_Sys_L_Cordr_S" = 289.7396   $ Sizing
 "CSupFlo_Sys_L_Cordr_W" = 299.6825   $ Sizing
 "CSupFlo_Sys_L_LobWait_C" = 444.7514   $ Sizing
 "CSupFlo_Sys_L_MechElec_C" = 96.29053   $ Sizing
 "CSupFlo_Sys_L_OfficeOpn_C" = 1675.143   $ Sizing
 "CSupFlo_Sys_L_OfficeOpn_E" = 1850.864   $ Sizing
 "CSupFlo_Sys_L_OfficeOpn_N" = 1163.971   $ Sizing
 "CSupFlo_Sys_L_OfficeOpn_S" = 2117.444   $ Sizing
 "CSupFlo_Sys_L_OfficeOpn_W" = 2227.962   $ Sizing
 "CSupFlo_Sys_L_OfficeSm_C" = 205.5918   $ Sizing
 "CSupFlo_Sys_L_OfficeSm_E" = 1349.372   $ Sizing
 "CSupFlo_Sys_L_OfficeSm_N" = 769.2183   $ Sizing
 "CSupFlo_Sys_L_OfficeSm_S" = 1561.918   $ Sizing
 "CSupFlo_Sys_L_OfficeSm_W" = 1640.505   $ Sizing
 "CSupFlo_Sys_L_Restrm_C" = 81.31812   $ Sizing
 "CSupFlo_Sys_L_StorSm_C" = 282.9632   $ Sizing
 "CSupFlo_Sys_M_Break_C" = 3726.776   $ Sizing
 "CSupFlo_Sys_M_Conf_C" = 3575.644   $ Sizing
 "CSupFlo_Sys_M_CopyRm_C" = 1155.201   $ Sizing
 "CSupFlo_Sys_M_Cordr_C" = 5463.326   $ Sizing
 "CSupFlo_Sys_M_Cordr_E" = 2262.51   $ Sizing
 "CSupFlo_Sys_M_Cordr_N" = 1380.104   $ Sizing
 "CSupFlo_Sys_M_Cordr_S" = 2629.083   $ Sizing
 "CSupFlo_Sys_M_Cordr_W" = 2638.839   $ Sizing
 "CSupFlo_Sys_M_LobWait_C" = 3679.671   $ Sizing
 "CSupFlo_Sys_M_MechElec_C" = 858.5907   $ Sizing
 "CSupFlo_Sys_M_OfficeOpn_C" = 13355.67   $ Sizing
 "CSupFlo_Sys_M_OfficeOpn_E" = 15932.57   $ Sizing
 "CSupFlo_Sys_M_OfficeOpn_N" = 10161.52   $ Sizing
 "CSupFlo_Sys_M_OfficeOpn_S" = 18392.57   $ Sizing
 "CSupFlo_Sys_M_OfficeOpn_W" = 18714.18   $ Sizing
 "CSupFlo_Sys_M_OfficeSm_C" = 1713.306   $ Sizing
 "CSupFlo_Sys_M_OfficeSm_E" = 11555.79   $ Sizing
 "CSupFlo_Sys_M_OfficeSm_N" = 6694.635   $ Sizing
 "CSupFlo_Sys_M_OfficeSm_S" = 13482.93   $ Sizing
 "CSupFlo_Sys_M_OfficeSm_W" = 13789.72   $ Sizing
 "CSupFlo_Sys_M_Restrm_C" = 707.8667   $ Sizing
 "CSupFlo_Sys_M_StorSm_C" = 2295.583   $ Sizing
 "CSupFlo_Sys_T_Break_C" = 461.1826   $ Sizing
 "CSupFlo_Sys_T_Conf_C" = 444.1653   $ Sizing
 "CSupFlo_Sys_T_CopyRm_C" = 141.3272   $ Sizing
 "CSupFlo_Sys_T_Cordr_C" = 618.8149   $ Sizing
 "CSupFlo_Sys_T_Cordr_E" = 274.0685   $ Sizing
 "CSupFlo_Sys_T_Cordr_N" = 170.9063   $ Sizing
 "CSupFlo_Sys_T_Cordr_S" = 317.4889   $ Sizing
 "CSupFlo_Sys_T_Cordr_W" = 324.5056   $ Sizing
 "CSupFlo_Sys_T_LobWait_C" = 460.3824   $ Sizing
 "CSupFlo_Sys_T_MechElec_C" = 138.6986   $ Sizing
 "CSupFlo_Sys_T_OfficeOpn_C" = 1725.684   $ Sizing
 "CSupFlo_Sys_T_OfficeOpn_E" = 1956.738   $ Sizing
 "CSupFlo_Sys_T_OfficeOpn_N" = 1279.768   $ Sizing
 "CSupFlo_Sys_T_OfficeOpn_S" = 2250.774   $ Sizing
 "CSupFlo_Sys_T_OfficeOpn_W" = 2302.804   $ Sizing
 "CSupFlo_Sys_T_OfficeSm_C" = 212.8658   $ Sizing
 "CSupFlo_Sys_T_OfficeSm_E" = 1453.175   $ Sizing
 "CSupFlo_Sys_T_OfficeSm_N" = 854.3071   $ Sizing
 "CSupFlo_Sys_T_OfficeSm_S" = 1679.464   $ Sizing
 "CSupFlo_Sys_T_OfficeSm_W" = 1732.189   $ Sizing
 "CSupFlo_Sys_T_Restrm_C" = 122.5257   $ Sizing
 "CSupFlo_Sys_T_StorSm_C" = 243.0569   $ Sizing
 "ClCap_Sys_L_Break_C" = 15750.28   $ Sizing
 "ClCap_Sys_L_Conf_C" = 19372.25   $ Sizing
 "ClCap_Sys_L_CopyRm_C" = 4895.311   $ Sizing
 "ClCap_Sys_L_Cordr_C" = 17975.73   $ Sizing
 "ClCap_Sys_L_Cordr_E" = 8367.276   $ Sizing
 "ClCap_Sys_L_Cordr_N" = 4960.052   $ Sizing
 "ClCap_Sys_L_Cordr_S" = 9888.006   $ Sizing
 "ClCap_Sys_L_Cordr_W" = 10227.33   $ Sizing
 "ClCap_Sys_L_LobWait_C" = 15178.13   $ Sizing
 "ClCap_Sys_L_MechElec_C" = 3286.128   $ Sizing
 "ClCap_Sys_L_OfficeOpn_C" = 57167.96   $ Sizing
 "ClCap_Sys_L_OfficeOpn_E" = 63164.86   $ Sizing
 "ClCap_Sys_L_OfficeOpn_N" = 39723.09   $ Sizing
 "ClCap_Sys_L_OfficeOpn_S" = 72262.49   $ Sizing
 "ClCap_Sys_L_OfficeOpn_W" = 76034.14   $ Sizing
 "ClCap_Sys_L_OfficeSm_C" = 7016.277   $ Sizing
 "ClCap_Sys_L_OfficeSm_E" = 46050.32   $ Sizing
 "ClCap_Sys_L_OfficeSm_N" = 26251.28   $ Sizing
 "ClCap_Sys_L_OfficeSm_S" = 53303.91   $ Sizing
 "ClCap_Sys_L_OfficeSm_W" = 55985.89   $ Sizing
 "ClCap_Sys_L_Restrm_C" = 2775.162   $ Sizing
 "ClCap_Sys_L_StorSm_C" = 9656.749   $ Sizing
 "ClCap_Sys_M_Break_C" = 127184.5   $ Sizing
 "ClCap_Sys_M_Conf_C" = 155306.8   $ Sizing
 "ClCap_Sys_M_CopyRm_C" = 39423.8   $ Sizing
 "ClCap_Sys_M_Cordr_C" = 186448.1   $ Sizing
 "ClCap_Sys_M_Cordr_E" = 77213.2   $ Sizing
 "ClCap_Sys_M_Cordr_N" = 47099.11   $ Sizing
 "ClCap_Sys_M_Cordr_S" = 89723.29   $ Sizing
 "ClCap_Sys_M_Cordr_W" = 90056.24   $ Sizing
 "ClCap_Sys_M_LobWait_C" = 125576.9   $ Sizing
 "ClCap_Sys_M_MechElec_C" = 29301.31   $ Sizing
 "ClCap_Sys_M_OfficeOpn_C" = 455791.8   $ Sizing
 "ClCap_Sys_M_OfficeOpn_E" = 543734.4   $ Sizing
 "ClCap_Sys_M_OfficeOpn_N" = 346784.5   $ Sizing
 "ClCap_Sys_M_OfficeOpn_S" = 627687.4   $ Sizing
 "ClCap_Sys_M_OfficeOpn_W" = 638662.9   $ Sizing
 "ClCap_Sys_M_OfficeSm_C" = 58470.39   $ Sizing
 "ClCap_Sys_M_OfficeSm_E" = 394367   $ Sizing
 "ClCap_Sys_M_OfficeSm_N" = 228469.3   $ Sizing
 "ClCap_Sys_M_OfficeSm_S" = 460135   $ Sizing
 "ClCap_Sys_M_OfficeSm_W" = 470604.8   $ Sizing
 "ClCap_Sys_M_Restrm_C" = 24157.52   $ Sizing
 "ClCap_Sys_M_StorSm_C" = 78341.86   $ Sizing
 "ClCap_Sys_T_Break_C" = 15738.88   $ Sizing
 "ClCap_Sys_T_Conf_C" = 19292.16   $ Sizing
 "ClCap_Sys_T_CopyRm_C" = 4823.105   $ Sizing
 "ClCap_Sys_T_Cordr_C" = 21118.43   $ Sizing
 "ClCap_Sys_T_Cordr_E" = 9353.198   $ Sizing
 "ClCap_Sys_T_Cordr_N" = 5832.556   $ Sizing
 "ClCap_Sys_T_Cordr_S" = 10835.01   $ Sizing
 "ClCap_Sys_T_Cordr_W" = 11074.48   $ Sizing
 "ClCap_Sys_T_LobWait_C" = 15711.57   $ Sizing
 "ClCap_Sys_T_MechElec_C" = 4733.396   $ Sizing
 "ClCap_Sys_T_OfficeOpn_C" = 58892.8   $ Sizing
 "ClCap_Sys_T_OfficeOpn_E" = 66778.02   $ Sizing
 "ClCap_Sys_T_OfficeOpn_N" = 43674.94   $ Sizing
 "ClCap_Sys_T_OfficeOpn_S" = 76812.68   $ Sizing
 "ClCap_Sys_T_OfficeOpn_W" = 78588.29   $ Sizing
 "ClCap_Sys_T_OfficeSm_C" = 7264.52   $ Sizing
 "ClCap_Sys_T_OfficeSm_E" = 49592.82   $ Sizing
 "ClCap_Sys_T_OfficeSm_N" = 29155.13   $ Sizing
 "ClCap_Sys_T_OfficeSm_S" = 57315.44   $ Sizing
 "ClCap_Sys_T_OfficeSm_W" = 59114.79   $ Sizing
 "ClCap_Sys_T_Restrm_C" = 4181.46   $ Sizing
 "ClCap_Sys_T_StorSm_C" = 8294.857   $ Sizing
 "HtCap_Sys_L_Break_C" = -26896.54   $ Sizing
 "HtCap_Sys_L_Conf_C" = -27447.68   $ Sizing
 "HtCap_Sys_L_CopyRm_C" = -9524.532   $ Sizing
 "HtCap_Sys_L_Cordr_C" = -28021.18   $ Sizing
 "HtCap_Sys_L_Cordr_E" = -11230.72   $ Sizing
 "HtCap_Sys_L_Cordr_N" = -6208.294   $ Sizing
 "HtCap_Sys_L_Cordr_S" = -12070.33   $ Sizing
 "HtCap_Sys_L_Cordr_W" = -11834.49   $ Sizing
 "HtCap_Sys_L_LobWait_C" = -25588.91   $ Sizing
 "HtCap_Sys_L_MechElec_C" = -6338.585   $ Sizing
 "HtCap_Sys_L_OfficeOpn_C" = -87628.48   $ Sizing
 "HtCap_Sys_L_OfficeOpn_E" = -82262.21   $ Sizing
 "HtCap_Sys_L_OfficeOpn_N" = -46265.45   $ Sizing
 "HtCap_Sys_L_OfficeOpn_S" = -86226.95   $ Sizing
 "HtCap_Sys_L_OfficeOpn_W" = -85708.18   $ Sizing
 "HtCap_Sys_L_OfficeSm_C" = -10146.58   $ Sizing
 "HtCap_Sys_L_OfficeSm_E" = -60961.65   $ Sizing
 "HtCap_Sys_L_OfficeSm_N" = -30932.14   $ Sizing
 "HtCap_Sys_L_OfficeSm_S" = -65740.95   $ Sizing
 "HtCap_Sys_L_OfficeSm_W" = -65642.69   $ Sizing
 "HtCap_Sys_L_Restrm_C" = -7754.336   $ Sizing
 "HtCap_Sys_L_StorSm_C" = -18064.47   $ Sizing
 "HtCap_Sys_M_Break_C" = -207383.5   $ Sizing
 "HtCap_Sys_M_Conf_C" = -233056.7   $ Sizing
 "HtCap_Sys_M_CopyRm_C" = -70272.72   $ Sizing
 "HtCap_Sys_M_Cordr_C" = -305288.2   $ Sizing
 "HtCap_Sys_M_Cordr_E" = -101699   $ Sizing
 "HtCap_Sys_M_Cordr_N" = -56027.75   $ Sizing
 "HtCap_Sys_M_Cordr_S" = -109325.6   $ Sizing
 "HtCap_Sys_M_Cordr_W" = -103360.2   $ Sizing
 "HtCap_Sys_M_LobWait_C" = -211464.4   $ Sizing
 "HtCap_Sys_M_MechElec_C" = -59088.45   $ Sizing
 "HtCap_Sys_M_OfficeOpn_C" = -660825.3   $ Sizing
 "HtCap_Sys_M_OfficeOpn_E" = -697219.8   $ Sizing
 "HtCap_Sys_M_OfficeOpn_N" = -400183.3   $ Sizing
 "HtCap_Sys_M_OfficeOpn_S" = -749015   $ Sizing
 "HtCap_Sys_M_OfficeOpn_W" = -720969.2   $ Sizing
 "HtCap_Sys_M_OfficeSm_C" = -93494.14   $ Sizing
 "HtCap_Sys_M_OfficeSm_E" = -517571.1   $ Sizing
 "HtCap_Sys_M_OfficeSm_N" = -266650.7   $ Sizing
 "HtCap_Sys_M_OfficeSm_S" = -575264.8   $ Sizing
 "HtCap_Sys_M_OfficeSm_W" = -550358.4   $ Sizing
 "HtCap_Sys_M_Restrm_C" = -66963.25   $ Sizing
 "HtCap_Sys_M_StorSm_C" = -148488   $ Sizing
 "HtCap_Sys_T_Break_C" = -27515.23   $ Sizing
 "HtCap_Sys_T_Conf_C" = -28754.96   $ Sizing
 "HtCap_Sys_T_CopyRm_C" = -9057.997   $ Sizing
 "HtCap_Sys_T_Cordr_C" = -37828.02   $ Sizing
 "HtCap_Sys_T_Cordr_E" = -13064.45   $ Sizing
 "HtCap_Sys_T_Cordr_N" = -7878.726   $ Sizing
 "HtCap_Sys_T_Cordr_S" = -14309.53   $ Sizing
 "HtCap_Sys_T_Cordr_W" = -13406.16   $ Sizing
 "HtCap_Sys_T_LobWait_C" = -26032.75   $ Sizing
 "HtCap_Sys_T_MechElec_C" = -8065.314   $ Sizing
 "HtCap_Sys_T_OfficeOpn_C" = -84633.63   $ Sizing
 "HtCap_Sys_T_OfficeOpn_E" = -89971.26   $ Sizing
 "HtCap_Sys_T_OfficeOpn_N" = -54748.55   $ Sizing
 "HtCap_Sys_T_OfficeOpn_S" = -98547.75   $ Sizing
 "HtCap_Sys_T_OfficeOpn_W" = -93478.19   $ Sizing
 "HtCap_Sys_T_OfficeSm_C" = -12161.72   $ Sizing
 "HtCap_Sys_T_OfficeSm_E" = -68173.39   $ Sizing
 "HtCap_Sys_T_OfficeSm_N" = -35888.39   $ Sizing
 "HtCap_Sys_T_OfficeSm_S" = -74138.11   $ Sizing
 "HtCap_Sys_T_OfficeSm_W" = -71055.68   $ Sizing
 "HtCap_Sys_T_Restrm_C" = -8982.55   $ Sizing
 "HtCap_Sys_T_StorSm_C" = -18011.62   $ Sizing
..

##include Templates\OfL_DX_SZ.inp
END ..
COMPUTE ..
STOP ..
