INPUT ..

##fileprefix C:\Users\jglasskatz\MASControl3\
##set1 IsSizing FALSE
##set1 CoolType DX
##set1 HeatType FURNACE
##set1 EU_HrRepVar 0
##set1 BldgVint 2015
##set1 BldgLoc CZ09

 ##set1 mBFMult 1   $ IP Tech: RefgChg-NRes-Std

PARAMETER
 "AltFactor" = 1.02768   $ IP Non-Tech
 "BF_fFlow" = SpltAC1Sp-lt45_BF_fFlow   $ Msr (Multi)TechID: StdNResSplitAC-lt45
 "BF_fT" = SpltAC1Sp-lt45_BF_fT   $ Msr (Multi)TechID: StdNResSplitAC-lt45
 "BldgEconoFlag" = 1   $ IP Non-Tech
 "Break_EWSF" = 1   $ IP Non-Tech
 "Break_LWSF" = 1.1   $ IP Non-Tech
 "CDD_DBHi10" = 91   $ IP Non-Tech
 "CDD_DBHi7" = 91   $ IP Non-Tech
 "CDD_DBHi8" = 94   $ IP Non-Tech
 "CDD_DBHi9" = 100   $ IP Non-Tech
 "CDD_DBRange10" = 30   $ IP Non-Tech
 "CDD_DBRange7" = 19   $ IP Non-Tech
 "CDD_DBRange8" = 23   $ IP Non-Tech
 "CDD_DBRange9" = 24   $ IP Non-Tech
 "CDD_Day10" = 15   $ IP Non-Tech
 "CDD_Day7" = 16   $ IP Non-Tech
 "CDD_Day8" = 20   $ IP Non-Tech
 "CDD_Day9" = 17   $ IP Non-Tech
 "CDD_HrHi10" = 16   $ IP Non-Tech
 "CDD_HrHi7" = 16   $ IP Non-Tech
 "CDD_HrHi8" = 15   $ IP Non-Tech
 "CDD_HrHi9" = 13   $ IP Non-Tech
 "CDD_HrLo10" = 5   $ IP Non-Tech
 "CDD_HrLo7" = 6   $ IP Non-Tech
 "CDD_HrLo8" = 3   $ IP Non-Tech
 "CDD_HrLo9" = 7   $ IP Non-Tech
 "CDD_WB10" = 61.50949097   $ IP Non-Tech
 "CDD_WB7" = 74.70972443   $ IP Non-Tech
 "CDD_WB8" = 73.69755554   $ IP Non-Tech
 "CDD_WB9" = 73.82730103   $ IP Non-Tech
 "CEIR_fPLR_Hot" = SpltAC1Sp-lt45_CEIR_fPLR_Hot   $ Msr (Multi)TechID: StdNResSplitAC-lt45
 "CEIR_fPLR_Mod" = SpltAC1Sp-lt45_CEIR_fPLR_Mod   $ Msr (Multi)TechID: StdNResSplitAC-lt45
 "CEIR_fPLR_Tem" = SpltAC1Sp-lt45_CEIR_fPLR_Tem   $ Msr (Multi)TechID: StdNResSplitAC-lt45
 "CLoss_fPLR_Hot" = SpltAC1Sp-lt45_CLoss_fPLR_Hot   $ Msr (Multi)TechID: StdNResSplitAC-lt45
 "CLoss_fPLR_Mod" = SpltAC1Sp-lt45_CLoss_fPLR_Mod   $ Msr (Multi)TechID: StdNResSplitAC-lt45
 "CLoss_fPLR_Tem" = SpltAC1Sp-lt45_CLoss_fPLR_Tem   $ Msr (Multi)TechID: StdNResSplitAC-lt45
 "COP47" = 0   $ Msr (Multi)TechID: StdNResSplitAC-lt45
 "CZ_Category" = Mod   $ IP Non-Tech
 "CapRange" = lt45   $ Msr (Multi)TechID: StdNResSplitAC-lt45
 "CfmPerBtuh" = 0.032504286   $ Msr (Multi)TechID: StdNResSplitAC-lt45
 "ChwVintEconoFlag" = 1   $ IP Non-Tech
 "ClCap_fT" = SpltAC1Sp-lt45_ClCap_fT   $ Msr (Multi)TechID: StdNResSplitAC-lt45
 "ClSH_fT" = SpltAC1Sp-lt45_ClSH_fT   $ Msr (Multi)TechID: StdNResSplitAC-lt45
 "CoilBF" = 0.1212   $ Msr (Multi)TechID: StdNResSplitAC-lt45
 "CondWPerBtuh" = 0   $ Msr (Multi)TechID: StdNResSplitAC-lt45
 "Conference_EWSF" = 1   $ IP Non-Tech
 "Conference_LWSF" = 1.4   $ IP Non-Tech
 "CoolSensCap" = 0.754064286   $ Msr (Multi)TechID: StdNResSplitAC-lt45
 "CoolSetT" = 45   $ IP Non-Tech
 "CoolType" = DX   $ IP Non-Tech
 "CoolingEIR" = 0.23878   $ Msr (Multi)TechID: StdNResSplitAC-lt45
 "CopyRoom_EWSF" = 1.5   $ IP Non-Tech
 "CopyRoom_LWSF" = 1.3   $ IP Non-Tech
 "CorridorStairway_EWSF" = 0.2   $ IP Non-Tech
 "CorridorStairway_LWSF" = 0.6   $ IP Non-Tech
 "CrnkEIR" = 0.0023878   $ Msr (Multi)TechID: StdNResSplitAC-lt45
 "CrnkMaxT" = 50   $ Msr (Multi)TechID: StdNResSplitAC-lt45
 "DXType" = SplitSEER   $ Msr (Multi)TechID: StdNResSplitAC-lt45
 "DesCoolT" = 75   $ IP Non-Tech
 "DesHeatT" = 73   $ IP Non-Tech
 "EER" = 12.16551724   $ Msr (Multi)TechID: StdNResSplitAC-lt45
 "EIR_fT" = SpltAC1Sp-lt45_EIR_fT   $ Msr (Multi)TechID: StdNResSplitAC-lt45
 "EconoCtrl" = FIXED   $ Msr (Multi)TechID: StdNResSplitAC-lt45
 "EconoEnthLimit" = 28   $ IP Non-Tech
 "EconoTempLimit" = 71   $ IP Non-Tech
 "Elevation" = 741   $ IP Non-Tech
 "FanEirPlr" = TwoSpeedFan   $ Msr (Multi)TechID: StdNResSplitAC-lt45
 "FanWPerCfm" = 0.294   $ Msr (Multi)TechID: StdNResSplitAC-lt45
 "HDD_CloudAmt1" = 0   $ IP Non-Tech
 "HDD_DBHi1" = 55   $ IP Non-Tech
 "HDD_DBRange1" = 18   $ IP Non-Tech
 "HDD_Day1" = 15   $ IP Non-Tech
 "HDD_HrHi1" = 15   $ IP Non-Tech
 "HDD_HrLo1" = 5   $ IP Non-Tech
 "HDD_WB1" = 48.4   $ IP Non-Tech
 "HDD_WindSpd1" = 10.4   $ IP Non-Tech
 "HIR_fT" = 0   $ Msr (Multi)TechID: StdNResSplitAC-lt45
 "HSPF" = 0   $ Msr (Multi)TechID: StdNResSplitAC-lt45
 "HeatSrc" = FURNACE   $ IP Non-Tech
 "HeatSrcTU" = HEAT-PUMP   $ IP Non-Tech
 "HeatType" = GasFurn   $ IP Non-Tech
 "HeatTypeTU" = HEAT-PUMP   $ IP Non-Tech
 "HtCap_fT" = 0   $ Msr (Multi)TechID: StdNResSplitAC-lt45
 "HtCoolCapRatio" = 0   $ Msr (Multi)TechID: StdNResSplitAC-lt45
 "HtgEIR" = 0   $ Msr (Multi)TechID: StdNResSplitAC-lt45
 "IndoorFanMode" = CONTINUOUS   $ IP Non-Tech
 "KT_TransferAir" = Yes   $ IP Non-Tech
 "Latitude" = 34.1   $ IP Non-Tech
 "LobbyWaiting_EWSF" = 0.5   $ IP Non-Tech
 "LobbyWaiting_LWSF" = 1.3   $ IP Non-Tech
 "Longitude" = 117.8   $ IP Non-Tech
 "LowSpdCapRatio" = 1   $ Msr (Multi)TechID: StdNResSplitAC-lt45
 "LowSpdCfmRatio" = 1   $ Msr (Multi)TechID: StdNResSplitAC-lt45
 "MZFanMechEff" = 0.58   $ IP Non-Tech
 "MZHasRetFan" = FALSE   $ IP Non-Tech
 "MZ_RFanWPerCfm" = 0.37   $ IP Non-Tech
 "MZ_SFanWPerCfm" = 0.71   $ IP Non-Tech
 "MZ_SupFanStatic" = 2.25   $ IP Non-Tech
 "MaxOAFrac" = 1   $ Msr (Multi)TechID: StdNResSplitAC-lt45
 "MaxSupT_MZ" = 100   $ IP Non-Tech
 "MaxSupT_SZ" = 100   $ IP Non-Tech
 "MaxSupT_TU" = 90   $ IP Non-Tech
 "MechElecRoom_EWSF" = 0.2   $ IP Non-Tech
 "MechElecRoom_LWSF" = 0.7   $ IP Non-Tech
 "MinCfmPerSF" = 0.4   $ IP Non-Tech
 "MinSupT" = 55   $ IP Non-Tech
 "NumStages" = 1   $ Msr (Multi)TechID: StdNResSplitAC-lt45
 "OccCoolT" = 76   $ IP Non-Tech
 "OccHeatT" = 72   $ IP Non-Tech
 "OfficeOpen_EWSF" = 1.5   $ IP Non-Tech
 "OfficeOpen_LWSF" = 1.05   $ IP Non-Tech
 "OfficeSmall_EWSF" = 1.5   $ IP Non-Tech
 "OfficeSmall_LWSF" = 1.3   $ IP Non-Tech
 "PkgDxVintEconoFlag" = 1   $ IP Non-Tech
 "Restroom_EWSF" = 0.2   $ IP Non-Tech
 "Restroom_LWSF" = 0.6   $ IP Non-Tech
 "SEER" = 14   $ Msr (Multi)TechID: StdNResSplitAC-lt45
 "SZFanMechEff" = 0.58   $ IP Non-Tech
 "SZHasRetFan" = FALSE   $ IP Non-Tech
 "SZ_Is_2Spd" = TRUE   $ IP Non-Tech
 "SZ_SFanWPerCfm" = 0.46   $ IP Non-Tech
 "SZ_SupFanStatic" = 0.75   $ IP Non-Tech
 "Sector" = Any   $ Msr (Multi)TechID: StdNResSplitAC-lt45
 "StorageSmlCond_EWSF" = 0.2   $ IP Non-Tech
 "StorageSmlCond_LWSF" = 0.6   $ IP Non-Tech
 "SubType" = AC   $ Msr (Multi)TechID: StdNResSplitAC-lt45
 "T24GlzTbl" = TypeTbl   $ IP Non-Tech
 "TermUnitFanMechEff" = 1   $ IP Non-Tech
 "TermUnitFanMode" = INTERMITTENT   $ IP Non-Tech
 "TotCoolCap" = 30924.85714   $ Msr (Multi)TechID: StdNResSplitAC-lt45
 "TwrSetpt" = 86.9   $ IP Non-Tech
 "UnocCoolT" = 86   $ IP Non-Tech
 "UnocHeatT" = 62   $ IP Non-Tech
 "UseEconoVintApplic" = FALSE   $ Msr (Multi)TechID: StdNResSplitAC-lt45
 "WlhpVintEconoFlag" = 1   $ IP Non-Tech
 "DuctDT" = 1   $ IP Tech: ComDuctInsul-1
 "DuctAirLoss" = 0   $ IP Tech: ComDuctLeak-0
 "DuctLossOAFrac" = 0   $ IP Tech: ComDuctLeak-0
 "ComRoofInsCalc" = FromUo   $ IP Tech: ComRoofIns-Hvy-0.04
 "ComRoofInsR" = -999   $ IP Tech: ComRoofIns-Hvy-0.04
 "ComRoofUo" = 0.04   $ IP Tech: ComRoofIns-Hvy-0.04
 "ComEWInsCalc" = FromUo   $ IP Tech: ComWallIns-MFrm-0.06
 "ComEWInsR" = -999   $ IP Tech: ComWallIns-MFrm-0.06
 "ComEWUo" = 0.06   $ IP Tech: ComWallIns-MFrm-0.06
 "ComN_SHGC" = 0.26   $ IP Tech: NResWin-ComN-0.41-0.26
 "ComN_UFactor" = 0.41   $ IP Tech: NResWin-ComN-0.41-0.26
 "ComN_VisTrans" = 0.41   $ IP Tech: NResWin-ComN-0.41-0.26
 "ComN_WinCode" = G2666   $ IP Tech: NResWin-ComN-0.41-0.26
 "ComN_WinFrmFrac" = 0.17   $ IP Tech: NResWin-ComN-0.41-0.26
 "ComN_WinFrmU" = 0.3   $ IP Tech: NResWin-ComN-0.41-0.26
 "ComO_SHGC" = 0.26   $ IP Tech: NResWin-ComO-0.41-0.26
 "ComO_UFactor" = 0.41   $ IP Tech: NResWin-ComO-0.41-0.26
 "ComO_VisTrans" = 0.41   $ IP Tech: NResWin-ComO-0.41-0.26
 "ComO_WinCode" = G2666   $ IP Tech: NResWin-ComO-0.41-0.26
 "ComO_WinFrmFrac" = 0.17   $ IP Tech: NResWin-ComO-0.41-0.26
 "ComO_WinFrmU" = 0.3   $ IP Tech: NResWin-ComO-0.41-0.26
 "LtgMsrApplic" = ALL   $ IP Tech: NonResLtgRefPre
 "LtgSav_CFL" = 0   $ IP Tech: NonResLtgRefPre
 "LtgSav_EX" = 0   $ IP Tech: NonResLtgRefPre
 "LtgSav_HB" = 0   $ IP Tech: NonResLtgRefPre
 "LtgSav_LF" = 0   $ IP Tech: NonResLtgRefPre
 "LtgSav_SP" = 0   $ IP Tech: NonResLtgRefPre
 "CEIR_fPLR" = PSZ65to135_CEIR_fPLR   $ IP Tech: PkgAC2SpP-65to135-E11
 "CLoss_fPLR" = PSZ65to135_CLoss_fPLR   $ IP Tech: PkgAC2SpP-65to135-E11
 "COP" = -1   $ IP Tech: PkgAC2SpP-65to135-E11
 "HtgFuel" = Gas   $ IP Tech: PkgAC2SpP-65to135-E11
 "IEER" = 13.35   $ IP Tech: PkgAC2SpP-65to135-E11
 "NominalCap" = 15   $ IP Tech: PkgAC2SpP-65to135-E11
 "RatedEER" = 11   $ IP Tech: PkgAC2SpP-65to135-E11
 "RatedSupMtrClass" = Premium   $ IP Tech: PkgAC2SpP-65to135-E11
 "SizeRange" = 65to135   $ IP Tech: PkgAC2SpP-65to135-E11
 "SupMotEff" = 0.865   $ IP Tech: PkgAC2SpP-65to135-E11
 "Tier" = 0   $ IP Tech: PkgAC2SpP-65to135-E11
 "FanPwrMult" = 1   $ IP Tech: PkgFurn-0.80AFUE
 "FurnAFUE" = 0.8   $ IP Tech: PkgFurn-0.80AFUE
 "FurnEt" = 0.82   $ IP Tech: PkgFurn-0.80AFUE
 "FurnaceAuxKW" = 0.1   $ IP Tech: PkgFurn-0.80AFUE
 "HIR_fPLR" = Furnace-HIR-fPLR   $ IP Tech: PkgFurn-0.80AFUE
 "VSM" = FALSE   $ IP Tech: PkgFurn-0.80AFUE
 "BFMult" = 1   $ IP Tech: RefgChg-NRes-Std
 "CoolEirMult" = 1   $ IP Tech: RefgChg-NRes-Std
 "SensCoolCapMult" = 1   $ IP Tech: RefgChg-NRes-Std
 "TotCoolCapMult" = 1   $ IP Tech: RefgChg-NRes-Std
 "AltAdjFactor" = 1.027678   $ Sizing
 "CAssFlo_L_Break_CZn" = 602.3462   $ Sizing
 "CAssFlo_L_Conf_CZn" = 584.0141   $ Sizing
 "CAssFlo_L_CopyRm_CZn" = 195.3123   $ Sizing
 "CAssFlo_L_Cordr_CZn" = 688.0079   $ Sizing
 "CAssFlo_L_Cordr_EZn" = 235.3137   $ Sizing
 "CAssFlo_L_Cordr_NZn" = 154.4085   $ Sizing
 "CAssFlo_L_Cordr_SZn" = 243.5858   $ Sizing
 "CAssFlo_L_Cordr_WZn" = 265.8734   $ Sizing
 "CAssFlo_L_LobWait_CZn" = 600.5472   $ Sizing
 "CAssFlo_L_MechElec_CZn" = 143.5815   $ Sizing
 "CAssFlo_L_OfficeOpn_CZn" = 1897.53   $ Sizing
 "CAssFlo_L_OfficeOpn_EZn" = 1638.701   $ Sizing
 "CAssFlo_L_OfficeOpn_NZn" = 1168.725   $ Sizing
 "CAssFlo_L_OfficeOpn_SZn" = 1682.413   $ Sizing
 "CAssFlo_L_OfficeOpn_WZn" = 1895.345   $ Sizing
 "CAssFlo_L_OfficeSm_CZn" = 253.3924   $ Sizing
 "CAssFlo_L_OfficeSm_EZn" = 1160.113   $ Sizing
 "CAssFlo_L_OfficeSm_NZn" = 759.3821   $ Sizing
 "CAssFlo_L_OfficeSm_SZn" = 1184.152   $ Sizing
 "CAssFlo_L_OfficeSm_WZn" = 1334.164   $ Sizing
 "CAssFlo_L_Restrm_CZn" = 98.97556   $ Sizing
 "CAssFlo_L_StorSm_CZn" = 430.4492   $ Sizing
 "CAssFlo_M_Break_CZn" = 608.6788   $ Sizing
 "CAssFlo_M_Conf_CZn" = 582.6378   $ Sizing
 "CAssFlo_M_CopyRm_CZn" = 186.3423   $ Sizing
 "CAssFlo_M_Cordr_CZn" = 947.9651   $ Sizing
 "CAssFlo_M_Cordr_EZn" = 269.691   $ Sizing
 "CAssFlo_M_Cordr_NZn" = 175.1625   $ Sizing
 "CAssFlo_M_Cordr_SZn" = 267.0131   $ Sizing
 "CAssFlo_M_Cordr_WZn" = 282.3205   $ Sizing
 "CAssFlo_M_LobWait_CZn" = 620.3102   $ Sizing
 "CAssFlo_M_MechElec_CZn" = 171.112   $ Sizing
 "CAssFlo_M_OfficeOpn_CZn" = 2084.257   $ Sizing
 "CAssFlo_M_OfficeOpn_EZn" = 1760.877   $ Sizing
 "CAssFlo_M_OfficeOpn_NZn" = 1226.834   $ Sizing
 "CAssFlo_M_OfficeOpn_SZn" = 1780.085   $ Sizing
 "CAssFlo_M_OfficeOpn_WZn" = 1949.133   $ Sizing
 "CAssFlo_M_OfficeSm_CZn" = 307.8136   $ Sizing
 "CAssFlo_M_OfficeSm_EZn" = 1231.802   $ Sizing
 "CAssFlo_M_OfficeSm_NZn" = 791.5395   $ Sizing
 "CAssFlo_M_OfficeSm_SZn" = 1243.14   $ Sizing
 "CAssFlo_M_OfficeSm_WZn" = 1361.847   $ Sizing
 "CAssFlo_M_Restrm_CZn" = 120.0184   $ Sizing
 "CAssFlo_M_StorSm_CZn" = 453.0716   $ Sizing
 "CAssFlo_T_Break_CZn" = 602.6529   $ Sizing
 "CAssFlo_T_Conf_CZn" = 578.7931   $ Sizing
 "CAssFlo_T_CopyRm_CZn" = 187.8797   $ Sizing
 "CAssFlo_T_Cordr_CZn" = 883.0145   $ Sizing
 "CAssFlo_T_Cordr_EZn" = 259.2911   $ Sizing
 "CAssFlo_T_Cordr_NZn" = 173.2205   $ Sizing
 "CAssFlo_T_Cordr_SZn" = 268.1153   $ Sizing
 "CAssFlo_T_Cordr_WZn" = 279.686   $ Sizing
 "CAssFlo_T_LobWait_CZn" = 618.6663   $ Sizing
 "CAssFlo_T_MechElec_CZn" = 191.2881   $ Sizing
 "CAssFlo_T_OfficeOpn_CZn" = 1938.533   $ Sizing
 "CAssFlo_T_OfficeOpn_EZn" = 1720.665   $ Sizing
 "CAssFlo_T_OfficeOpn_NZn" = 1231.272   $ Sizing
 "CAssFlo_T_OfficeOpn_SZn" = 1805.089   $ Sizing
 "CAssFlo_T_OfficeOpn_WZn" = 1933.631   $ Sizing
 "CAssFlo_T_OfficeSm_CZn" = 300.2213   $ Sizing
 "CAssFlo_T_OfficeSm_EZn" = 1232.765   $ Sizing
 "CAssFlo_T_OfficeSm_NZn" = 801.0382   $ Sizing
 "CAssFlo_T_OfficeSm_SZn" = 1273.738   $ Sizing
 "CAssFlo_T_OfficeSm_WZn" = 1372.39   $ Sizing
 "CAssFlo_T_Restrm_CZn" = 140.2951   $ Sizing
 "CAssFlo_T_StorSm_CZn" = 304.3106   $ Sizing
 "CHRtFlo_Sys_L_Break_C" = 602.3462   $ Sizing
 "CHRtFlo_Sys_L_Conf_C" = 584.0141   $ Sizing
 "CHRtFlo_Sys_L_CopyRm_C" = 195.3123   $ Sizing
 "CHRtFlo_Sys_L_Cordr_C" = 688.0079   $ Sizing
 "CHRtFlo_Sys_L_Cordr_E" = 253.7224   $ Sizing
 "CHRtFlo_Sys_L_Cordr_N" = 154.4085   $ Sizing
 "CHRtFlo_Sys_L_Cordr_S" = 245.6243   $ Sizing
 "CHRtFlo_Sys_L_Cordr_W" = 265.8734   $ Sizing
 "CHRtFlo_Sys_L_LobWait_C" = 600.5472   $ Sizing
 "CHRtFlo_Sys_L_MechElec_C" = 143.5815   $ Sizing
 "CHRtFlo_Sys_L_OfficeOpn_C" = 1897.53   $ Sizing
 "CHRtFlo_Sys_L_OfficeOpn_E" = 1818.361   $ Sizing
 "CHRtFlo_Sys_L_OfficeOpn_N" = 1168.725   $ Sizing
 "CHRtFlo_Sys_L_OfficeOpn_S" = 1778.687   $ Sizing
 "CHRtFlo_Sys_L_OfficeOpn_W" = 1895.346   $ Sizing
 "CHRtFlo_Sys_L_OfficeSm_C" = 265.7159   $ Sizing
 "CHRtFlo_Sys_L_OfficeSm_E" = 1323.327   $ Sizing
 "CHRtFlo_Sys_L_OfficeSm_N" = 759.3821   $ Sizing
 "CHRtFlo_Sys_L_OfficeSm_S" = 1305.24   $ Sizing
 "CHRtFlo_Sys_L_OfficeSm_W" = 1363.034   $ Sizing
 "CHRtFlo_Sys_L_Restrm_C" = 216.0974   $ Sizing
 "CHRtFlo_Sys_L_StorSm_C" = 430.4492   $ Sizing
 "CHRtFlo_Sys_M_Break_C" = 4869.43   $ Sizing
 "CHRtFlo_Sys_M_Conf_C" = 4661.102   $ Sizing
 "CHRtFlo_Sys_M_CopyRm_C" = 1490.739   $ Sizing
 "CHRtFlo_Sys_M_Cordr_C" = 8092.791   $ Sizing
 "CHRtFlo_Sys_M_Cordr_E" = 2394.33   $ Sizing
 "CHRtFlo_Sys_M_Cordr_N" = 1411.748   $ Sizing
 "CHRtFlo_Sys_M_Cordr_S" = 2243.728   $ Sizing
 "CHRtFlo_Sys_M_Cordr_W" = 2258.564   $ Sizing
 "CHRtFlo_Sys_M_LobWait_C" = 4962.481   $ Sizing
 "CHRtFlo_Sys_M_MechElec_C" = 1430.208   $ Sizing
 "CHRtFlo_Sys_M_OfficeOpn_C" = 17333.96   $ Sizing
 "CHRtFlo_Sys_M_OfficeOpn_E" = 15866.82   $ Sizing
 "CHRtFlo_Sys_M_OfficeOpn_N" = 9814.673   $ Sizing
 "CHRtFlo_Sys_M_OfficeOpn_S" = 15334.51   $ Sizing
 "CHRtFlo_Sys_M_OfficeOpn_W" = 15610.37   $ Sizing
 "CHRtFlo_Sys_M_OfficeSm_C" = 2677.929   $ Sizing
 "CHRtFlo_Sys_M_OfficeSm_E" = 11377.05   $ Sizing
 "CHRtFlo_Sys_M_OfficeSm_N" = 6332.316   $ Sizing
 "CHRtFlo_Sys_M_OfficeSm_S" = 11098.69   $ Sizing
 "CHRtFlo_Sys_M_OfficeSm_W" = 11202.66   $ Sizing
 "CHRtFlo_Sys_M_Restrm_C" = 1728.779   $ Sizing
 "CHRtFlo_Sys_M_StorSm_C" = 3624.573   $ Sizing
 "CHRtFlo_Sys_T_Break_C" = 602.6529   $ Sizing
 "CHRtFlo_Sys_T_Conf_C" = 578.7931   $ Sizing
 "CHRtFlo_Sys_T_CopyRm_C" = 187.8797   $ Sizing
 "CHRtFlo_Sys_T_Cordr_C" = 883.0145   $ Sizing
 "CHRtFlo_Sys_T_Cordr_E" = 264.1935   $ Sizing
 "CHRtFlo_Sys_T_Cordr_N" = 173.2205   $ Sizing
 "CHRtFlo_Sys_T_Cordr_S" = 268.1153   $ Sizing
 "CHRtFlo_Sys_T_Cordr_W" = 279.686   $ Sizing
 "CHRtFlo_Sys_T_LobWait_C" = 618.6663   $ Sizing
 "CHRtFlo_Sys_T_MechElec_C" = 207.15   $ Sizing
 "CHRtFlo_Sys_T_OfficeOpn_C" = 1938.533   $ Sizing
 "CHRtFlo_Sys_T_OfficeOpn_E" = 1803.77   $ Sizing
 "CHRtFlo_Sys_T_OfficeOpn_N" = 1231.272   $ Sizing
 "CHRtFlo_Sys_T_OfficeOpn_S" = 1805.089   $ Sizing
 "CHRtFlo_Sys_T_OfficeOpn_W" = 1933.631   $ Sizing
 "CHRtFlo_Sys_T_OfficeSm_C" = 300.2213   $ Sizing
 "CHRtFlo_Sys_T_OfficeSm_E" = 1331.8   $ Sizing
 "CHRtFlo_Sys_T_OfficeSm_N" = 801.0382   $ Sizing
 "CHRtFlo_Sys_T_OfficeSm_S" = 1326.581   $ Sizing
 "CHRtFlo_Sys_T_OfficeSm_W" = 1372.39   $ Sizing
 "CHRtFlo_Sys_T_Restrm_C" = 216.0974   $ Sizing
 "CHRtFlo_Sys_T_StorSm_C" = 340.7697   $ Sizing
 "CRtdFlo_Sys_L_Break_C" = 602.3462   $ Sizing
 "CRtdFlo_Sys_L_Conf_C" = 584.0141   $ Sizing
 "CRtdFlo_Sys_L_CopyRm_C" = 195.3123   $ Sizing
 "CRtdFlo_Sys_L_Cordr_C" = 688.0079   $ Sizing
 "CRtdFlo_Sys_L_Cordr_E" = 235.3137   $ Sizing
 "CRtdFlo_Sys_L_Cordr_N" = 154.4085   $ Sizing
 "CRtdFlo_Sys_L_Cordr_S" = 243.5858   $ Sizing
 "CRtdFlo_Sys_L_Cordr_W" = 265.8734   $ Sizing
 "CRtdFlo_Sys_L_LobWait_C" = 600.5472   $ Sizing
 "CRtdFlo_Sys_L_MechElec_C" = 143.5815   $ Sizing
 "CRtdFlo_Sys_L_OfficeOpn_C" = 1897.53   $ Sizing
 "CRtdFlo_Sys_L_OfficeOpn_E" = 1638.701   $ Sizing
 "CRtdFlo_Sys_L_OfficeOpn_N" = 1168.725   $ Sizing
 "CRtdFlo_Sys_L_OfficeOpn_S" = 1682.413   $ Sizing
 "CRtdFlo_Sys_L_OfficeOpn_W" = 1895.346   $ Sizing
 "CRtdFlo_Sys_L_OfficeSm_C" = 253.3924   $ Sizing
 "CRtdFlo_Sys_L_OfficeSm_E" = 1160.113   $ Sizing
 "CRtdFlo_Sys_L_OfficeSm_N" = 759.3821   $ Sizing
 "CRtdFlo_Sys_L_OfficeSm_S" = 1184.152   $ Sizing
 "CRtdFlo_Sys_L_OfficeSm_W" = 1334.164   $ Sizing
 "CRtdFlo_Sys_L_Restrm_C" = 98.97556   $ Sizing
 "CRtdFlo_Sys_L_StorSm_C" = 430.4492   $ Sizing
 "CRtdFlo_Sys_M_Break_C" = 4869.43   $ Sizing
 "CRtdFlo_Sys_M_Conf_C" = 4661.102   $ Sizing
 "CRtdFlo_Sys_M_CopyRm_C" = 1490.739   $ Sizing
 "CRtdFlo_Sys_M_Cordr_C" = 7583.721   $ Sizing
 "CRtdFlo_Sys_M_Cordr_E" = 2157.528   $ Sizing
 "CRtdFlo_Sys_M_Cordr_N" = 1401.3   $ Sizing
 "CRtdFlo_Sys_M_Cordr_S" = 2136.104   $ Sizing
 "CRtdFlo_Sys_M_Cordr_W" = 2258.564   $ Sizing
 "CRtdFlo_Sys_M_LobWait_C" = 4962.481   $ Sizing
 "CRtdFlo_Sys_M_MechElec_C" = 1368.896   $ Sizing
 "CRtdFlo_Sys_M_OfficeOpn_C" = 16674.05   $ Sizing
 "CRtdFlo_Sys_M_OfficeOpn_E" = 14087.02   $ Sizing
 "CRtdFlo_Sys_M_OfficeOpn_N" = 9814.673   $ Sizing
 "CRtdFlo_Sys_M_OfficeOpn_S" = 14240.68   $ Sizing
 "CRtdFlo_Sys_M_OfficeOpn_W" = 15593.06   $ Sizing
 "CRtdFlo_Sys_M_OfficeSm_C" = 2462.509   $ Sizing
 "CRtdFlo_Sys_M_OfficeSm_E" = 9854.419   $ Sizing
 "CRtdFlo_Sys_M_OfficeSm_N" = 6332.316   $ Sizing
 "CRtdFlo_Sys_M_OfficeSm_S" = 9945.118   $ Sizing
 "CRtdFlo_Sys_M_OfficeSm_W" = 10894.78   $ Sizing
 "CRtdFlo_Sys_M_Restrm_C" = 960.1475   $ Sizing
 "CRtdFlo_Sys_M_StorSm_C" = 3624.573   $ Sizing
 "CRtdFlo_Sys_T_Break_C" = 602.6529   $ Sizing
 "CRtdFlo_Sys_T_Conf_C" = 578.7931   $ Sizing
 "CRtdFlo_Sys_T_CopyRm_C" = 187.8797   $ Sizing
 "CRtdFlo_Sys_T_Cordr_C" = 883.0145   $ Sizing
 "CRtdFlo_Sys_T_Cordr_E" = 259.2911   $ Sizing
 "CRtdFlo_Sys_T_Cordr_N" = 173.2205   $ Sizing
 "CRtdFlo_Sys_T_Cordr_S" = 268.1153   $ Sizing
 "CRtdFlo_Sys_T_Cordr_W" = 279.686   $ Sizing
 "CRtdFlo_Sys_T_LobWait_C" = 618.6663   $ Sizing
 "CRtdFlo_Sys_T_MechElec_C" = 191.2881   $ Sizing
 "CRtdFlo_Sys_T_OfficeOpn_C" = 1938.533   $ Sizing
 "CRtdFlo_Sys_T_OfficeOpn_E" = 1720.665   $ Sizing
 "CRtdFlo_Sys_T_OfficeOpn_N" = 1231.272   $ Sizing
 "CRtdFlo_Sys_T_OfficeOpn_S" = 1805.089   $ Sizing
 "CRtdFlo_Sys_T_OfficeOpn_W" = 1933.631   $ Sizing
 "CRtdFlo_Sys_T_OfficeSm_C" = 300.2213   $ Sizing
 "CRtdFlo_Sys_T_OfficeSm_E" = 1232.765   $ Sizing
 "CRtdFlo_Sys_T_OfficeSm_N" = 801.0382   $ Sizing
 "CRtdFlo_Sys_T_OfficeSm_S" = 1273.738   $ Sizing
 "CRtdFlo_Sys_T_OfficeSm_W" = 1372.39   $ Sizing
 "CRtdFlo_Sys_T_Restrm_C" = 140.2951   $ Sizing
 "CRtdFlo_Sys_T_StorSm_C" = 304.3106   $ Sizing
 "CSupFlo_Sys_L_Break_C" = 602.3462   $ Sizing
 "CSupFlo_Sys_L_Conf_C" = 584.0141   $ Sizing
 "CSupFlo_Sys_L_CopyRm_C" = 195.3123   $ Sizing
 "CSupFlo_Sys_L_Cordr_C" = 688.0079   $ Sizing
 "CSupFlo_Sys_L_Cordr_E" = 235.3137   $ Sizing
 "CSupFlo_Sys_L_Cordr_N" = 154.4085   $ Sizing
 "CSupFlo_Sys_L_Cordr_S" = 243.5858   $ Sizing
 "CSupFlo_Sys_L_Cordr_W" = 265.8734   $ Sizing
 "CSupFlo_Sys_L_LobWait_C" = 600.5472   $ Sizing
 "CSupFlo_Sys_L_MechElec_C" = 143.5815   $ Sizing
 "CSupFlo_Sys_L_OfficeOpn_C" = 1897.53   $ Sizing
 "CSupFlo_Sys_L_OfficeOpn_E" = 1638.701   $ Sizing
 "CSupFlo_Sys_L_OfficeOpn_N" = 1168.725   $ Sizing
 "CSupFlo_Sys_L_OfficeOpn_S" = 1682.413   $ Sizing
 "CSupFlo_Sys_L_OfficeOpn_W" = 1895.346   $ Sizing
 "CSupFlo_Sys_L_OfficeSm_C" = 253.3924   $ Sizing
 "CSupFlo_Sys_L_OfficeSm_E" = 1160.113   $ Sizing
 "CSupFlo_Sys_L_OfficeSm_N" = 759.3821   $ Sizing
 "CSupFlo_Sys_L_OfficeSm_S" = 1184.152   $ Sizing
 "CSupFlo_Sys_L_OfficeSm_W" = 1334.164   $ Sizing
 "CSupFlo_Sys_L_Restrm_C" = 98.97556   $ Sizing
 "CSupFlo_Sys_L_StorSm_C" = 430.4492   $ Sizing
 "CSupFlo_Sys_M_Break_C" = 4869.43   $ Sizing
 "CSupFlo_Sys_M_Conf_C" = 4661.102   $ Sizing
 "CSupFlo_Sys_M_CopyRm_C" = 1490.739   $ Sizing
 "CSupFlo_Sys_M_Cordr_C" = 7583.721   $ Sizing
 "CSupFlo_Sys_M_Cordr_E" = 2157.528   $ Sizing
 "CSupFlo_Sys_M_Cordr_N" = 1401.3   $ Sizing
 "CSupFlo_Sys_M_Cordr_S" = 2136.104   $ Sizing
 "CSupFlo_Sys_M_Cordr_W" = 2258.564   $ Sizing
 "CSupFlo_Sys_M_LobWait_C" = 4962.481   $ Sizing
 "CSupFlo_Sys_M_MechElec_C" = 1368.896   $ Sizing
 "CSupFlo_Sys_M_OfficeOpn_C" = 16674.05   $ Sizing
 "CSupFlo_Sys_M_OfficeOpn_E" = 14087.02   $ Sizing
 "CSupFlo_Sys_M_OfficeOpn_N" = 9814.673   $ Sizing
 "CSupFlo_Sys_M_OfficeOpn_S" = 14240.68   $ Sizing
 "CSupFlo_Sys_M_OfficeOpn_W" = 15593.06   $ Sizing
 "CSupFlo_Sys_M_OfficeSm_C" = 2462.509   $ Sizing
 "CSupFlo_Sys_M_OfficeSm_E" = 9854.419   $ Sizing
 "CSupFlo_Sys_M_OfficeSm_N" = 6332.316   $ Sizing
 "CSupFlo_Sys_M_OfficeSm_S" = 9945.118   $ Sizing
 "CSupFlo_Sys_M_OfficeSm_W" = 10894.78   $ Sizing
 "CSupFlo_Sys_M_Restrm_C" = 960.1475   $ Sizing
 "CSupFlo_Sys_M_StorSm_C" = 3624.573   $ Sizing
 "CSupFlo_Sys_T_Break_C" = 602.6529   $ Sizing
 "CSupFlo_Sys_T_Conf_C" = 578.7931   $ Sizing
 "CSupFlo_Sys_T_CopyRm_C" = 187.8797   $ Sizing
 "CSupFlo_Sys_T_Cordr_C" = 883.0145   $ Sizing
 "CSupFlo_Sys_T_Cordr_E" = 259.2911   $ Sizing
 "CSupFlo_Sys_T_Cordr_N" = 173.2205   $ Sizing
 "CSupFlo_Sys_T_Cordr_S" = 268.1153   $ Sizing
 "CSupFlo_Sys_T_Cordr_W" = 279.686   $ Sizing
 "CSupFlo_Sys_T_LobWait_C" = 618.6663   $ Sizing
 "CSupFlo_Sys_T_MechElec_C" = 191.2881   $ Sizing
 "CSupFlo_Sys_T_OfficeOpn_C" = 1938.533   $ Sizing
 "CSupFlo_Sys_T_OfficeOpn_E" = 1720.665   $ Sizing
 "CSupFlo_Sys_T_OfficeOpn_N" = 1231.272   $ Sizing
 "CSupFlo_Sys_T_OfficeOpn_S" = 1805.089   $ Sizing
 "CSupFlo_Sys_T_OfficeOpn_W" = 1933.631   $ Sizing
 "CSupFlo_Sys_T_OfficeSm_C" = 300.2213   $ Sizing
 "CSupFlo_Sys_T_OfficeSm_E" = 1232.765   $ Sizing
 "CSupFlo_Sys_T_OfficeSm_N" = 801.0382   $ Sizing
 "CSupFlo_Sys_T_OfficeSm_S" = 1273.738   $ Sizing
 "CSupFlo_Sys_T_OfficeSm_W" = 1372.39   $ Sizing
 "CSupFlo_Sys_T_Restrm_C" = 140.2951   $ Sizing
 "CSupFlo_Sys_T_StorSm_C" = 304.3106   $ Sizing
 "ClCap_Sys_L_Break_C" = 20095.65   $ Sizing
 "ClCap_Sys_L_Conf_C" = 24797.89   $ Sizing
 "ClCap_Sys_L_CopyRm_C" = 6516.069   $ Sizing
 "ClCap_Sys_L_Cordr_C" = 22953.52   $ Sizing
 "ClCap_Sys_L_Cordr_E" = 7850.606   $ Sizing
 "ClCap_Sys_L_Cordr_N" = 5151.422   $ Sizing
 "ClCap_Sys_L_Cordr_S" = 8126.581   $ Sizing
 "ClCap_Sys_L_Cordr_W" = 8870.147   $ Sizing
 "ClCap_Sys_L_LobWait_C" = 20035.63   $ Sizing
 "ClCap_Sys_L_MechElec_C" = 4790.208   $ Sizing
 "ClCap_Sys_L_OfficeOpn_C" = 63305.95   $ Sizing
 "ClCap_Sys_L_OfficeOpn_E" = 54670.85   $ Sizing
 "ClCap_Sys_L_OfficeOpn_N" = 38991.36   $ Sizing
 "ClCap_Sys_L_OfficeOpn_S" = 56129.18   $ Sizing
 "ClCap_Sys_L_OfficeOpn_W" = 63233.09   $ Sizing
 "ClCap_Sys_L_OfficeSm_C" = 8453.754   $ Sizing
 "ClCap_Sys_L_OfficeSm_E" = 38704.02   $ Sizing
 "ClCap_Sys_L_OfficeSm_N" = 25334.73   $ Sizing
 "ClCap_Sys_L_OfficeSm_S" = 39506.04   $ Sizing
 "ClCap_Sys_L_OfficeSm_W" = 44510.78   $ Sizing
 "ClCap_Sys_L_Restrm_C" = 3302.052   $ Sizing
 "ClCap_Sys_L_StorSm_C" = 14360.77   $ Sizing
 "ClCap_Sys_M_Break_C" = 162455.4   $ Sizing
 "ClCap_Sys_M_Conf_C" = 197915.6   $ Sizing
 "ClCap_Sys_M_CopyRm_C" = 49734.46   $ Sizing
 "ClCap_Sys_M_Cordr_C" = 253010.4   $ Sizing
 "ClCap_Sys_M_Cordr_E" = 71980.09   $ Sizing
 "ClCap_Sys_M_Cordr_N" = 46750.59   $ Sizing
 "ClCap_Sys_M_Cordr_S" = 71265.36   $ Sizing
 "ClCap_Sys_M_Cordr_W" = 75350.88   $ Sizing
 "ClCap_Sys_M_LobWait_C" = 165559.8   $ Sizing
 "ClCap_Sys_M_MechElec_C" = 45669.5   $ Sizing
 "ClCap_Sys_M_OfficeOpn_C" = 556284.8   $ Sizing
 "ClCap_Sys_M_OfficeOpn_E" = 469975.3   $ Sizing
 "ClCap_Sys_M_OfficeOpn_N" = 327440   $ Sizing
 "ClCap_Sys_M_OfficeOpn_S" = 475101.8   $ Sizing
 "ClCap_Sys_M_OfficeOpn_W" = 520220.4   $ Sizing
 "ClCap_Sys_M_OfficeSm_C" = 82154.95   $ Sizing
 "ClCap_Sys_M_OfficeSm_E" = 328766.1   $ Sizing
 "ClCap_Sys_M_OfficeSm_N" = 211260.6   $ Sizing
 "ClCap_Sys_M_OfficeSm_S" = 331792   $ Sizing
 "ClCap_Sys_M_OfficeSm_W" = 363474.9   $ Sizing
 "ClCap_Sys_M_Restrm_C" = 32032.73   $ Sizing
 "ClCap_Sys_M_StorSm_C" = 120924.1   $ Sizing
 "ClCap_Sys_T_Break_C" = 20105.88   $ Sizing
 "ClCap_Sys_T_Conf_C" = 24576.2   $ Sizing
 "ClCap_Sys_T_CopyRm_C" = 6268.1   $ Sizing
 "ClCap_Sys_T_Cordr_C" = 29459.39   $ Sizing
 "ClCap_Sys_T_Cordr_E" = 8650.547   $ Sizing
 "ClCap_Sys_T_Cordr_N" = 5779.035   $ Sizing
 "ClCap_Sys_T_Cordr_S" = 8944.942   $ Sizing
 "ClCap_Sys_T_Cordr_W" = 9330.968   $ Sizing
 "ClCap_Sys_T_LobWait_C" = 20640.13   $ Sizing
 "ClCap_Sys_T_MechElec_C" = 6381.81   $ Sizing
 "ClCap_Sys_T_OfficeOpn_C" = 64673.92   $ Sizing
 "ClCap_Sys_T_OfficeOpn_E" = 57405.34   $ Sizing
 "ClCap_Sys_T_OfficeOpn_N" = 41078.07   $ Sizing
 "ClCap_Sys_T_OfficeOpn_S" = 60221.93   $ Sizing
 "ClCap_Sys_T_OfficeOpn_W" = 64510.39   $ Sizing
 "ClCap_Sys_T_OfficeSm_C" = 10016.07   $ Sizing
 "ClCap_Sys_T_OfficeSm_E" = 41127.87   $ Sizing
 "ClCap_Sys_T_OfficeSm_N" = 26724.48   $ Sizing
 "ClCap_Sys_T_OfficeSm_S" = 42494.82   $ Sizing
 "ClCap_Sys_T_OfficeSm_W" = 45786.07   $ Sizing
 "ClCap_Sys_T_Restrm_C" = 4680.568   $ Sizing
 "ClCap_Sys_T_StorSm_C" = 10152.5   $ Sizing
 "HtCap_Sys_L_Break_C" = -30740.79   $ Sizing
 "HtCap_Sys_L_Conf_C" = -30954.09   $ Sizing
 "HtCap_Sys_L_CopyRm_C" = -11612.19   $ Sizing
 "HtCap_Sys_L_Cordr_C" = -28369.72   $ Sizing
 "HtCap_Sys_L_Cordr_E" = -8570.307   $ Sizing
 "HtCap_Sys_L_Cordr_N" = -6154.169   $ Sizing
 "HtCap_Sys_L_Cordr_S" = -8334.897   $ Sizing
 "HtCap_Sys_L_Cordr_W" = -8983.238   $ Sizing
 "HtCap_Sys_L_LobWait_C" = -29824.12   $ Sizing
 "HtCap_Sys_L_MechElec_C" = -6168.479   $ Sizing
 "HtCap_Sys_L_OfficeOpn_C" = -90643.28   $ Sizing
 "HtCap_Sys_L_OfficeOpn_E" = -58604.98   $ Sizing
 "HtCap_Sys_L_OfficeOpn_N" = -41704.83   $ Sizing
 "HtCap_Sys_L_OfficeOpn_S" = -57371.41   $ Sizing
 "HtCap_Sys_L_OfficeOpn_W" = -60759.45   $ Sizing
 "HtCap_Sys_L_OfficeSm_C" = -12676.57   $ Sizing
 "HtCap_Sys_L_OfficeSm_E" = -41225.94   $ Sizing
 "HtCap_Sys_L_OfficeSm_N" = -27079.72   $ Sizing
 "HtCap_Sys_L_OfficeSm_S" = -41670.38   $ Sizing
 "HtCap_Sys_L_OfficeSm_W" = -43548.27   $ Sizing
 "HtCap_Sys_L_Restrm_C" = -7763.157   $ Sizing
 "HtCap_Sys_L_StorSm_C" = -17354.46   $ Sizing
 "HtCap_Sys_M_Break_C" = -236237.6   $ Sizing
 "HtCap_Sys_M_Conf_C" = -230893.1   $ Sizing
 "HtCap_Sys_M_CopyRm_C" = -77081.48   $ Sizing
 "HtCap_Sys_M_Cordr_C" = -295447   $ Sizing
 "HtCap_Sys_M_Cordr_E" = -78842.49   $ Sizing
 "HtCap_Sys_M_Cordr_N" = -51361.03   $ Sizing
 "HtCap_Sys_M_Cordr_S" = -74251.66   $ Sizing
 "HtCap_Sys_M_Cordr_W" = -75097.35   $ Sizing
 "HtCap_Sys_M_LobWait_C" = -217374.7   $ Sizing
 "HtCap_Sys_M_MechElec_C" = -56605.5   $ Sizing
 "HtCap_Sys_M_OfficeOpn_C" = -822520.3   $ Sizing
 "HtCap_Sys_M_OfficeOpn_E" = -504212.8   $ Sizing
 "HtCap_Sys_M_OfficeOpn_N" = -343236.4   $ Sizing
 "HtCap_Sys_M_OfficeOpn_S" = -488061.2   $ Sizing
 "HtCap_Sys_M_OfficeOpn_W" = -496849.6   $ Sizing
 "HtCap_Sys_M_OfficeSm_C" = -127195.3   $ Sizing
 "HtCap_Sys_M_OfficeSm_E" = -352733.9   $ Sizing
 "HtCap_Sys_M_OfficeSm_N" = -221790.9   $ Sizing
 "HtCap_Sys_M_OfficeSm_S" = -350615.2   $ Sizing
 "HtCap_Sys_M_OfficeSm_W" = -355556.9   $ Sizing
 "HtCap_Sys_M_Restrm_C" = -66783.87   $ Sizing
 "HtCap_Sys_M_StorSm_C" = -142687.3   $ Sizing
 "HtCap_Sys_T_Break_C" = -31548.41   $ Sizing
 "HtCap_Sys_T_Conf_C" = -30675.22   $ Sizing
 "HtCap_Sys_T_CopyRm_C" = -10764.03   $ Sizing
 "HtCap_Sys_T_Cordr_C" = -35624.24   $ Sizing
 "HtCap_Sys_T_Cordr_E" = -9713.02   $ Sizing
 "HtCap_Sys_T_Cordr_N" = -7135.158   $ Sizing
 "HtCap_Sys_T_Cordr_S" = -9638.89   $ Sizing
 "HtCap_Sys_T_Cordr_W" = -10391.87   $ Sizing
 "HtCap_Sys_T_LobWait_C" = -30024.02   $ Sizing
 "HtCap_Sys_T_MechElec_C" = -7864.114   $ Sizing
 "HtCap_Sys_T_OfficeOpn_C" = -91894.16   $ Sizing
 "HtCap_Sys_T_OfficeOpn_E" = -63117.42   $ Sizing
 "HtCap_Sys_T_OfficeOpn_N" = -48032.5   $ Sizing
 "HtCap_Sys_T_OfficeOpn_S" = -62132.62   $ Sizing
 "HtCap_Sys_T_OfficeOpn_W" = -67536.7   $ Sizing
 "HtCap_Sys_T_OfficeSm_C" = -11645.17   $ Sizing
 "HtCap_Sys_T_OfficeSm_E" = -45787.1   $ Sizing
 "HtCap_Sys_T_OfficeSm_N" = -31046.91   $ Sizing
 "HtCap_Sys_T_OfficeSm_S" = -46367.1   $ Sizing
 "HtCap_Sys_T_OfficeSm_W" = -48070.29   $ Sizing
 "HtCap_Sys_T_Restrm_C" = -8279.497   $ Sizing
 "HtCap_Sys_T_StorSm_C" = -15723.9   $ Sizing
..

##include Templates\OfL_DX_SZ.inp
END ..
COMPUTE ..
STOP ..
