INPUT ..

##fileprefix C:\Users\jglasskatz\MASControl3\
##set1 IsSizing FALSE
##set1 CoolType DX
##set1 HeatType ELECTRIC
##set1 EU_HrRepVar 1
##set1 BldgVint 1985
##set1 BldgLoc CZ01

 ##set1 mBFMult 1   $ IP Tech: RefgChg-NRes-Std

PARAMETER
 "AltFactor" = 1.00753   $ IP Non-Tech
 "BldgEconoFlag" = 1   $ IP Non-Tech
 "Break_EWSF" = 1   $ IP Non-Tech
 "Break_LWSF" = 1.1   $ IP Non-Tech
 "CDD_DBHi10" = 65   $ IP Non-Tech
 "CDD_DBHi7" = 68   $ IP Non-Tech
 "CDD_DBHi8" = 66   $ IP Non-Tech
 "CDD_DBHi9" = 77   $ IP Non-Tech
 "CDD_DBRange10" = 17   $ IP Non-Tech
 "CDD_DBRange7" = 11   $ IP Non-Tech
 "CDD_DBRange8" = 10   $ IP Non-Tech
 "CDD_DBRange9" = 29   $ IP Non-Tech
 "CDD_Day10" = 15   $ IP Non-Tech
 "CDD_Day7" = 16   $ IP Non-Tech
 "CDD_Day8" = 20   $ IP Non-Tech
 "CDD_Day9" = 17   $ IP Non-Tech
 "CDD_HrHi10" = 12   $ IP Non-Tech
 "CDD_HrHi7" = 12   $ IP Non-Tech
 "CDD_HrHi8" = 13   $ IP Non-Tech
 "CDD_HrHi9" = 17   $ IP Non-Tech
 "CDD_HrLo10" = 6   $ IP Non-Tech
 "CDD_HrLo7" = 3   $ IP Non-Tech
 "CDD_HrLo8" = 8   $ IP Non-Tech
 "CDD_HrLo9" = 4   $ IP Non-Tech
 "CDD_WB10" = 57.53039551   $ IP Non-Tech
 "CDD_WB7" = 59.29250717   $ IP Non-Tech
 "CDD_WB8" = 60.75350189   $ IP Non-Tech
 "CDD_WB9" = 61.08643341   $ IP Non-Tech
 "CZ_Category" = Tem   $ IP Non-Tech
 "ChwVintEconoFlag" = 1   $ IP Non-Tech
 "Conference_EWSF" = 1.1   $ IP Non-Tech
 "Conference_LWSF" = 1.4   $ IP Non-Tech
 "CoolSetT" = 45   $ IP Non-Tech
 "CoolType" = DX   $ IP Non-Tech
 "CopyRoom_EWSF" = 1.65   $ IP Non-Tech
 "CopyRoom_LWSF" = 1.3   $ IP Non-Tech
 "CorridorStairway_EWSF" = 0.22   $ IP Non-Tech
 "CorridorStairway_LWSF" = 0.6   $ IP Non-Tech
 "DesCoolT" = 75   $ IP Non-Tech
 "DesHeatT" = 73   $ IP Non-Tech
 "EconoEnthLimit" = 28   $ IP Non-Tech
 "EconoTempLimit" = 70   $ IP Non-Tech
 "Elevation" = 203   $ IP Non-Tech
 "HDD_CloudAmt1" = 0   $ IP Non-Tech
 "HDD_DBHi1" = 53   $ IP Non-Tech
 "HDD_DBRange1" = 20   $ IP Non-Tech
 "HDD_Day1" = 15   $ IP Non-Tech
 "HDD_HrHi1" = 14   $ IP Non-Tech
 "HDD_HrLo1" = 6   $ IP Non-Tech
 "HDD_WB1" = 42.3   $ IP Non-Tech
 "HDD_WindSpd1" = 12.7   $ IP Non-Tech
 "HeatSrc" = ELECTRIC   $ IP Non-Tech
 "HeatSrcTU" = HEAT-PUMP   $ IP Non-Tech
 "HeatType" = Elec   $ IP Non-Tech
 "HeatTypeTU" = HEAT-PUMP   $ IP Non-Tech
 "IndoorFanMode" = CONTINUOUS   $ IP Non-Tech
 "KT_TransferAir" = No   $ IP Non-Tech
 "Latitude" = 40.8   $ IP Non-Tech
 "LobbyWaiting_EWSF" = 0.525   $ IP Non-Tech
 "LobbyWaiting_LWSF" = 1.3   $ IP Non-Tech
 "Longitude" = 124.2   $ IP Non-Tech
 "MZFanMechEff" = 0.58   $ IP Non-Tech
 "MZHasRetFan" = FALSE   $ IP Non-Tech
 "MZ_RFanWPerCfm" = 0.37   $ IP Non-Tech
 "MZ_SFanWPerCfm" = 0.71   $ IP Non-Tech
 "MZ_SupFanStatic" = 4   $ IP Non-Tech
 "MaxSupT_MZ" = 95   $ IP Non-Tech
 "MaxSupT_SZ" = 100   $ IP Non-Tech
 "MaxSupT_TU" = 100   $ IP Non-Tech
 "MechElecRoom_EWSF" = 0.22   $ IP Non-Tech
 "MechElecRoom_LWSF" = 0.7   $ IP Non-Tech
 "MinCfmPerSF" = 0.4   $ IP Non-Tech
 "MinSupT" = 55   $ IP Non-Tech
 "NumBlrs" = 2   $ IP Non-Tech
 "OccCoolT" = 76   $ IP Non-Tech
 "OccHeatT" = 72   $ IP Non-Tech
 "OfficeOpen_EWSF" = 1.65   $ IP Non-Tech
 "OfficeOpen_LWSF" = 1.2   $ IP Non-Tech
 "OfficeSmall_EWSF" = 1.65   $ IP Non-Tech
 "OfficeSmall_LWSF" = 1.3   $ IP Non-Tech
 "PkgDxVintEconoFlag" = 0   $ IP Non-Tech
 "ReheatDeltaT" = 39   $ IP Non-Tech
 "Restroom_EWSF" = 0.22   $ IP Non-Tech
 "Restroom_LWSF" = 0.6   $ IP Non-Tech
 "SZFanMechEff" = 0.58   $ IP Non-Tech
 "SZHasRetFan" = FALSE   $ IP Non-Tech
 "SZ_Is_2Spd" = FALSE   $ IP Non-Tech
 "SZ_SFanWPerCfm" = 0.46   $ IP Non-Tech
 "StorageSmlCond_EWSF" = 0.22   $ IP Non-Tech
 "StorageSmlCond_LWSF" = 0.6   $ IP Non-Tech
 "T24GlzTbl" = CZTbl   $ IP Non-Tech
 "TermUnitFanMechEff" = 1   $ IP Non-Tech
 "TermUnitFanMode" = INTERMITTENT   $ IP Non-Tech
 "TwrSetpt" = 80   $ IP Non-Tech
 "UnocCoolT" = 86   $ IP Non-Tech
 "UnocHeatT" = 62   $ IP Non-Tech
 "VAVMinFlow" = 0.3   $ IP Non-Tech
 "WlhpVintEconoFlag" = 0   $ IP Non-Tech
 "EconoCtrl" = OA-TEMP   $ IP Tech: AirEcono-OATemp
 "MaxOAFrac" = 0.85   $ IP Tech: AirEcono-OATemp
 "UseEconoVintApplic" = FALSE   $ IP Tech: AirEcono-OATemp
 "DuctDT" = 2   $ IP Tech: ComDuctInsul-2
 "DuctAirLoss" = 0   $ IP Tech: ComDuctLeak-0
 "DuctLossOAFrac" = 0   $ IP Tech: ComDuctLeak-0
 "ComRoofInsCalc" = FromUo   $ IP Tech: ComRoofIns-Hvy-0.06
 "ComRoofInsR" = -999   $ IP Tech: ComRoofIns-Hvy-0.06
 "ComRoofUo" = 0.06   $ IP Tech: ComRoofIns-Hvy-0.06
 "ComEWInsCalc" = FromUo   $ IP Tech: ComWallIns-MFrm-0.14
 "ComEWInsR" = -999   $ IP Tech: ComWallIns-MFrm-0.14
 "ComEWUo" = 0.14   $ IP Tech: ComWallIns-MFrm-0.14
 "ComN_SHGC" = 0.82   $ IP Tech: NResWin-ComN-1.23-0.82
 "ComN_UFactor" = 1.23   $ IP Tech: NResWin-ComN-1.23-0.82
 "ComN_VisTrans" = 0.9   $ IP Tech: NResWin-ComN-1.23-0.82
 "ComN_WinCode" = G1000   $ IP Tech: NResWin-ComN-1.23-0.82
 "ComN_WinFrmFrac" = 0.17   $ IP Tech: NResWin-ComN-1.23-0.82
 "ComN_WinFrmU" = 1   $ IP Tech: NResWin-ComN-1.23-0.82
 "ComO_SHGC" = 0.82   $ IP Tech: NResWin-ComO-1.23-0.82
 "ComO_UFactor" = 1.23   $ IP Tech: NResWin-ComO-1.23-0.82
 "ComO_VisTrans" = 0.9   $ IP Tech: NResWin-ComO-1.23-0.82
 "ComO_WinCode" = G1000   $ IP Tech: NResWin-ComO-1.23-0.82
 "ComO_WinFrmFrac" = 0.17   $ IP Tech: NResWin-ComO-1.23-0.82
 "ComO_WinFrmU" = 1   $ IP Tech: NResWin-ComO-1.23-0.82
 "LtgMsrApplic" = ALL   $ IP Tech: NonResLtgRefPre
 "LtgSav_CFL" = 0   $ IP Tech: NonResLtgRefPre
 "LtgSav_EX" = 0   $ IP Tech: NonResLtgRefPre
 "LtgSav_HB" = 0   $ IP Tech: NonResLtgRefPre
 "LtgSav_LF" = 0   $ IP Tech: NonResLtgRefPre
 "LtgSav_SP" = 0   $ IP Tech: NonResLtgRefPre
 "PV_BF_fFlow" = PVV240to760_BF_fFlow   $ IP Tech: PVVAC-H-240to760-E10
 "PV_BF_fT" = PVV240to760_BF_fT   $ IP Tech: PVVAC-H-240to760-E10
 "PV_CEIR_fPLR" = PVV240to760_CEIR_fPLR   $ IP Tech: PVVAC-H-240to760-E10
 "PV_CLoss_fPLR" = PVV240to760_CLoss_fPLR   $ IP Tech: PVVAC-H-240to760-E10
 "PV_COP" = -1   $ IP Tech: PVVAC-H-240to760-E10
 "PV_COP47" = -1   $ IP Tech: PVVAC-H-240to760-E10
 "PV_CfmPerBtuh" = 0.02917   $ IP Tech: PVVAC-H-240to760-E10
 "PV_ClCap_fT" = PVV240to760_ClCap_fT   $ IP Tech: PVVAC-H-240to760-E10
 "PV_ClSH_fT" = PVV240to760_ClSH_fT   $ IP Tech: PVVAC-H-240to760-E10
 "PV_CoilBF" = 0.125   $ IP Tech: PVVAC-H-240to760-E10
 "PV_CondWPerBtuh" = 0   $ IP Tech: PVVAC-H-240to760-E10
 "PV_CoolSensCap" = 0.708   $ IP Tech: PVVAC-H-240to760-E10
 "PV_CoolingEIR" = 0.27165   $ IP Tech: PVVAC-H-240to760-E10
 "PV_CrnkEIR" = 0.0027   $ IP Tech: PVVAC-H-240to760-E10
 "PV_CrnkMaxT" = 50   $ IP Tech: PVVAC-H-240to760-E10
 "PV_DXType" = PVV   $ IP Tech: PVVAC-H-240to760-E10
 "PV_EER" = 9.17   $ IP Tech: PVVAC-H-240to760-E10
 "PV_EIR_fT" = PVV240to760_EIR_fT   $ IP Tech: PVVAC-H-240to760-E10
 "PV_FanEirPlr" = NA   $ IP Tech: PVVAC-H-240to760-E10
 "PV_FanWPerCfm" = 0.736   $ IP Tech: PVVAC-H-240to760-E10
 "PV_HIR_fT" = DEFAULT   $ IP Tech: PVVAC-H-240to760-E10
 "PV_HtCap_fT" = DEFAULT   $ IP Tech: PVVAC-H-240to760-E10
 "PV_HtCoolCapRatio" = -1   $ IP Tech: PVVAC-H-240to760-E10
 "PV_HtgEIR" = -1   $ IP Tech: PVVAC-H-240to760-E10
 "PV_HtgFuel" = HW   $ IP Tech: PVVAC-H-240to760-E10
 "PV_IEER" = 11.44   $ IP Tech: PVVAC-H-240to760-E10
 "PV_LowSpdCapRatio" = 0.17   $ IP Tech: PVVAC-H-240to760-E10
 "PV_LowSpdCfmRatio" = 0.24   $ IP Tech: PVVAC-H-240to760-E10
 "PV_NominalCap" = 40   $ IP Tech: PVVAC-H-240to760-E10
 "PV_NumStages" = 1   $ IP Tech: PVVAC-H-240to760-E10
 "PV_RatedEER" = 10   $ IP Tech: PVVAC-H-240to760-E10
 "PV_RatedSupMtrClass" = HiEff   $ IP Tech: PVVAC-H-240to760-E10
 "PV_SizeRange" = 240to760   $ IP Tech: PVVAC-H-240to760-E10
 "PV_SubType" = AC   $ IP Tech: PVVAC-H-240to760-E10
 "PV_SupMotEff" = 0.91   $ IP Tech: PVVAC-H-240to760-E10
 "PV_Tier" = 0   $ IP Tech: PVVAC-H-240to760-E10
 "PV_TotCoolCap" = 485760   $ IP Tech: PVVAC-H-240to760-E10
 "BF_fFlow" = PSZ65to135_BF_fFlow   $ IP Tech: PkgAC1SpH-65to135-E10
 "BF_fT" = PSZ65to135_BF_fT   $ IP Tech: PkgAC1SpH-65to135-E10
 "CEIR_fPLR" = PSZ65to135_CEIR_fPLR   $ IP Tech: PkgAC1SpH-65to135-E10
 "CLoss_fPLR" = PSZ65to135_CLoss_fPLR   $ IP Tech: PkgAC1SpH-65to135-E10
 "COP" = -1   $ IP Tech: PkgAC1SpH-65to135-E10
 "COP47" = -1   $ IP Tech: PkgAC1SpH-65to135-E10
 "CfmPerBtuh" = 0.02917   $ IP Tech: PkgAC1SpH-65to135-E10
 "ClCap_fT" = PSZ65to135_ClCap_fT   $ IP Tech: PkgAC1SpH-65to135-E10
 "ClSH_fT" = PSZ65to135_ClSH_fT   $ IP Tech: PkgAC1SpH-65to135-E10
 "CoilBF" = 0.114   $ IP Tech: PkgAC1SpH-65to135-E10
 "CondWPerBtuh" = 0   $ IP Tech: PkgAC1SpH-65to135-E10
 "CoolSensCap" = 0.663   $ IP Tech: PkgAC1SpH-65to135-E10
 "CoolingEIR" = 0.29745   $ IP Tech: PkgAC1SpH-65to135-E10
 "CrnkEIR" = 0.01   $ IP Tech: PkgAC1SpH-65to135-E10
 "CrnkMaxT" = 50   $ IP Tech: PkgAC1SpH-65to135-E10
 "DXType" = Pkg   $ IP Tech: PkgAC1SpH-65to135-E10
 "EER" = 9.67   $ IP Tech: PkgAC1SpH-65to135-E10
 "EIR_fT" = PSZ65to135_EIR_fT   $ IP Tech: PkgAC1SpH-65to135-E10
 "FanEirPlr" = TwoSpeedFan   $ IP Tech: PkgAC1SpH-65to135-E10
 "FanWPerCfm" = 0.412   $ IP Tech: PkgAC1SpH-65to135-E10
 "HIR_fT" = DEFAULT   $ IP Tech: PkgAC1SpH-65to135-E10
 "HtCap_fT" = DEFAULT   $ IP Tech: PkgAC1SpH-65to135-E10
 "HtCoolCapRatio" = -1   $ IP Tech: PkgAC1SpH-65to135-E10
 "HtgEIR" = -1   $ IP Tech: PkgAC1SpH-65to135-E10
 "HtgFuel" = Gas   $ IP Tech: PkgAC1SpH-65to135-E10
 "IEER" = 11.87   $ IP Tech: PkgAC1SpH-65to135-E10
 "LowSpdCapRatio" = 0.5   $ IP Tech: PkgAC1SpH-65to135-E10
 "LowSpdCfmRatio" = 0.66   $ IP Tech: PkgAC1SpH-65to135-E10
 "NominalCap" = 15   $ IP Tech: PkgAC1SpH-65to135-E10
 "NumStages" = 1   $ IP Tech: PkgAC1SpH-65to135-E10
 "RatedEER" = 10   $ IP Tech: PkgAC1SpH-65to135-E10
 "RatedSupMtrClass" = HiEff   $ IP Tech: PkgAC1SpH-65to135-E10
 "SizeRange" = 65to135   $ IP Tech: PkgAC1SpH-65to135-E10
 "SubType" = AC   $ IP Tech: PkgAC1SpH-65to135-E10
 "SupMotEff" = 0.84   $ IP Tech: PkgAC1SpH-65to135-E10
 "Tier" = 0   $ IP Tech: PkgAC1SpH-65to135-E10
 "TotCoolCap" = 184140   $ IP Tech: PkgAC1SpH-65to135-E10
 "BFMult" = 1   $ IP Tech: RefgChg-NRes-Std
 "CoolEirMult" = 1   $ IP Tech: RefgChg-NRes-Std
 "SensCoolCapMult" = 1   $ IP Tech: RefgChg-NRes-Std
 "TotCoolCapMult" = 1   $ IP Tech: RefgChg-NRes-Std
 "SATempCtrl" = RESET   $ IP Tech: SATempCtrl-Reset
 "FanEIR_fPLR" = "ForCurve w Inlet Vanes FPLR"   $ IP Tech: VAVCtrl-Inlet-AnyHP
 "Fan_Control" = Inlet   $ IP Tech: VAVCtrl-Inlet-AnyHP
 "Motor_Horsepower" = AnyHP   $ IP Tech: VAVCtrl-Inlet-AnyHP
 "AltAdjFactor" = 1.007532   $ Sizing
 "CAssFlo_L_Break_CZn" = 326.8328   $ Sizing
 "CAssFlo_L_Conf_CZn" = 395.7543   $ Sizing
 "CAssFlo_L_CopyRm_CZn" = 92.7648   $ Sizing
 "CAssFlo_L_Cordr_CZn" = 565.4379   $ Sizing
 "CAssFlo_L_Cordr_EZn" = 281.7977   $ Sizing
 "CAssFlo_L_Cordr_NZn" = 141.651   $ Sizing
 "CAssFlo_L_Cordr_SZn" = 325.205   $ Sizing
 "CAssFlo_L_Cordr_WZn" = 282.1733   $ Sizing
 "CAssFlo_L_LobWait_CZn" = 275.5261   $ Sizing
 "CAssFlo_L_MechElec_CZn" = 134.1697   $ Sizing
 "CAssFlo_L_OfficeOpn_CZn" = 1547.137   $ Sizing
 "CAssFlo_L_OfficeOpn_EZn" = 2374.064   $ Sizing
 "CAssFlo_L_OfficeOpn_NZn" = 827.1964   $ Sizing
 "CAssFlo_L_OfficeOpn_SZn" = 2558.272   $ Sizing
 "CAssFlo_L_OfficeOpn_WZn" = 2327.909   $ Sizing
 "CAssFlo_L_OfficeSm_CZn" = 189.9923   $ Sizing
 "CAssFlo_L_OfficeSm_EZn" = 1751.511   $ Sizing
 "CAssFlo_L_OfficeSm_NZn" = 516.3215   $ Sizing
 "CAssFlo_L_OfficeSm_SZn" = 1936.687   $ Sizing
 "CAssFlo_L_OfficeSm_WZn" = 1737.112   $ Sizing
 "CAssFlo_L_Restrm_CZn" = 211.8611   $ Sizing
 "CAssFlo_L_StorSm_CZn" = 334.0894   $ Sizing
 "CAssFlo_M_Break_CZn" = 341.0086   $ Sizing
 "CAssFlo_M_Conf_CZn" = 417.9794   $ Sizing
 "CAssFlo_M_CopyRm_CZn" = 100.2323   $ Sizing
 "CAssFlo_M_Cordr_CZn" = 565.4379   $ Sizing
 "CAssFlo_M_Cordr_EZn" = 330.1629   $ Sizing
 "CAssFlo_M_Cordr_NZn" = 151.3094   $ Sizing
 "CAssFlo_M_Cordr_SZn" = 379.7199   $ Sizing
 "CAssFlo_M_Cordr_WZn" = 321.0879   $ Sizing
 "CAssFlo_M_LobWait_CZn" = 312.5307   $ Sizing
 "CAssFlo_M_MechElec_CZn" = 134.1697   $ Sizing
 "CAssFlo_M_OfficeOpn_CZn" = 1663.706   $ Sizing
 "CAssFlo_M_OfficeOpn_EZn" = 2517.571   $ Sizing
 "CAssFlo_M_OfficeOpn_NZn" = 972.9595   $ Sizing
 "CAssFlo_M_OfficeOpn_SZn" = 2818.157   $ Sizing
 "CAssFlo_M_OfficeOpn_WZn" = 2467.858   $ Sizing
 "CAssFlo_M_OfficeSm_CZn" = 221.2251   $ Sizing
 "CAssFlo_M_OfficeSm_EZn" = 1865.438   $ Sizing
 "CAssFlo_M_OfficeSm_NZn" = 622.1604   $ Sizing
 "CAssFlo_M_OfficeSm_SZn" = 2130.782   $ Sizing
 "CAssFlo_M_OfficeSm_WZn" = 1848.914   $ Sizing
 "CAssFlo_M_Restrm_CZn" = 211.8611   $ Sizing
 "CAssFlo_M_StorSm_CZn" = 334.0894   $ Sizing
 "CAssFlo_T_Break_CZn" = 331.1952   $ Sizing
 "CAssFlo_T_Conf_CZn" = 403.8137   $ Sizing
 "CAssFlo_T_CopyRm_CZn" = 96.82381   $ Sizing
 "CAssFlo_T_Cordr_CZn" = 565.4379   $ Sizing
 "CAssFlo_T_Cordr_EZn" = 298.4288   $ Sizing
 "CAssFlo_T_Cordr_NZn" = 133.64   $ Sizing
 "CAssFlo_T_Cordr_SZn" = 344.9438   $ Sizing
 "CAssFlo_T_Cordr_WZn" = 290.7383   $ Sizing
 "CAssFlo_T_LobWait_CZn" = 275.5261   $ Sizing
 "CAssFlo_T_MechElec_CZn" = 134.1697   $ Sizing
 "CAssFlo_T_OfficeOpn_CZn" = 1601.674   $ Sizing
 "CAssFlo_T_OfficeOpn_EZn" = 2336.099   $ Sizing
 "CAssFlo_T_OfficeOpn_NZn" = 934.6665   $ Sizing
 "CAssFlo_T_OfficeOpn_SZn" = 2619.47   $ Sizing
 "CAssFlo_T_OfficeOpn_WZn" = 2295.666   $ Sizing
 "CAssFlo_T_OfficeSm_CZn" = 211.1903   $ Sizing
 "CAssFlo_T_OfficeSm_EZn" = 1767.946   $ Sizing
 "CAssFlo_T_OfficeSm_NZn" = 600.3806   $ Sizing
 "CAssFlo_T_OfficeSm_SZn" = 2019.331   $ Sizing
 "CAssFlo_T_OfficeSm_WZn" = 1756.346   $ Sizing
 "CAssFlo_T_Restrm_CZn" = 211.8611   $ Sizing
 "CAssFlo_T_StorSm_CZn" = 334.0894   $ Sizing
 "CHRtFlo_L_Break_CZn" = 216.6311   $ Sizing
 "CHRtFlo_L_Conf_CZn" = 281.7439   $ Sizing
 "CHRtFlo_L_CopyRm_CZn" = 88.37569   $ Sizing
 "CHRtFlo_L_Cordr_CZn" = 212.0392   $ Sizing
 "CHRtFlo_L_Cordr_EZn" = 121.4261   $ Sizing
 "CHRtFlo_L_Cordr_NZn" = 141.651   $ Sizing
 "CHRtFlo_L_Cordr_SZn" = 97.56149   $ Sizing
 "CHRtFlo_L_Cordr_WZn" = 117.1862   $ Sizing
 "CHRtFlo_L_LobWait_CZn" = 223.8649   $ Sizing
 "CHRtFlo_L_MechElec_CZn" = 50.31363   $ Sizing
 "CHRtFlo_L_OfficeOpn_CZn" = 464.1412   $ Sizing
 "CHRtFlo_L_OfficeOpn_EZn" = 712.2191   $ Sizing
 "CHRtFlo_L_OfficeOpn_NZn" = 568.0316   $ Sizing
 "CHRtFlo_L_OfficeOpn_SZn" = 767.4818   $ Sizing
 "CHRtFlo_L_OfficeOpn_WZn" = 698.3729   $ Sizing
 "CHRtFlo_L_OfficeSm_CZn" = 56.9977   $ Sizing
 "CHRtFlo_L_OfficeSm_EZn" = 525.4535   $ Sizing
 "CHRtFlo_L_OfficeSm_NZn" = 514.0964   $ Sizing
 "CHRtFlo_L_OfficeSm_SZn" = 581.0062   $ Sizing
 "CHRtFlo_L_OfficeSm_WZn" = 521.1337   $ Sizing
 "CHRtFlo_L_Restrm_CZn" = 63.55833   $ Sizing
 "CHRtFlo_L_StorSm_CZn" = 157.3409   $ Sizing
 "CHRtFlo_M_Break_CZn" = 216.6311   $ Sizing
 "CHRtFlo_M_Conf_CZn" = 281.7439   $ Sizing
 "CHRtFlo_M_CopyRm_CZn" = 88.37569   $ Sizing
 "CHRtFlo_M_Cordr_CZn" = 243.6364   $ Sizing
 "CHRtFlo_M_Cordr_EZn" = 135.6572   $ Sizing
 "CHRtFlo_M_Cordr_NZn" = 151.3094   $ Sizing
 "CHRtFlo_M_Cordr_SZn" = 113.916   $ Sizing
 "CHRtFlo_M_Cordr_WZn" = 126.6023   $ Sizing
 "CHRtFlo_M_LobWait_CZn" = 223.8649   $ Sizing
 "CHRtFlo_M_MechElec_CZn" = 52.80711   $ Sizing
 "CHRtFlo_M_OfficeOpn_CZn" = 499.1119   $ Sizing
 "CHRtFlo_M_OfficeOpn_EZn" = 755.2714   $ Sizing
 "CHRtFlo_M_OfficeOpn_NZn" = 610.3113   $ Sizing
 "CHRtFlo_M_OfficeOpn_SZn" = 845.4471   $ Sizing
 "CHRtFlo_M_OfficeOpn_WZn" = 740.3575   $ Sizing
 "CHRtFlo_M_OfficeSm_CZn" = 66.36753   $ Sizing
 "CHRtFlo_M_OfficeSm_EZn" = 559.6315   $ Sizing
 "CHRtFlo_M_OfficeSm_NZn" = 542.1662   $ Sizing
 "CHRtFlo_M_OfficeSm_SZn" = 639.2347   $ Sizing
 "CHRtFlo_M_OfficeSm_WZn" = 554.6744   $ Sizing
 "CHRtFlo_M_Restrm_CZn" = 95.02137   $ Sizing
 "CHRtFlo_M_StorSm_CZn" = 166.1948   $ Sizing
 "CHRtFlo_T_Break_CZn" = 216.6311   $ Sizing
 "CHRtFlo_T_Conf_CZn" = 281.7439   $ Sizing
 "CHRtFlo_T_CopyRm_CZn" = 88.37569   $ Sizing
 "CHRtFlo_T_Cordr_CZn" = 212.0392   $ Sizing
 "CHRtFlo_T_Cordr_EZn" = 115.1515   $ Sizing
 "CHRtFlo_T_Cordr_NZn" = 133.64   $ Sizing
 "CHRtFlo_T_Cordr_SZn" = 103.4832   $ Sizing
 "CHRtFlo_T_Cordr_WZn" = 105.4008   $ Sizing
 "CHRtFlo_T_LobWait_CZn" = 223.8649   $ Sizing
 "CHRtFlo_T_MechElec_CZn" = 111.7211   $ Sizing
 "CHRtFlo_T_OfficeOpn_CZn" = 480.5022   $ Sizing
 "CHRtFlo_T_OfficeOpn_EZn" = 700.8298   $ Sizing
 "CHRtFlo_T_OfficeOpn_NZn" = 546.6423   $ Sizing
 "CHRtFlo_T_OfficeOpn_SZn" = 785.841   $ Sizing
 "CHRtFlo_T_OfficeOpn_WZn" = 688.6998   $ Sizing
 "CHRtFlo_T_OfficeSm_CZn" = 63.35709   $ Sizing
 "CHRtFlo_T_OfficeSm_EZn" = 530.3839   $ Sizing
 "CHRtFlo_T_OfficeSm_NZn" = 505.7079   $ Sizing
 "CHRtFlo_T_OfficeSm_SZn" = 605.7994   $ Sizing
 "CHRtFlo_T_OfficeSm_WZn" = 526.9038   $ Sizing
 "CHRtFlo_T_Restrm_CZn" = 63.55833   $ Sizing
 "CHRtFlo_T_StorSm_CZn" = 125.2835   $ Sizing
 "CRtdFlo_Sys_L" = 13393.4   $ Sizing
 "CRtdFlo_Sys_M" = 120483.4   $ Sizing
 "CRtdFlo_Sys_T" = 14495.01   $ Sizing
 "CSupFlo_Sys_L" = 13393.4   $ Sizing
 "CSupFlo_Sys_M" = 120483.4   $ Sizing
 "CSupFlo_Sys_T" = 14495.01   $ Sizing
 "ClCap_Sys_L" = 458388.7   $ Sizing
 "ClCap_Sys_M" = 4123543   $ Sizing
 "ClCap_Sys_T" = 496091.3   $ Sizing
 "HRtEDB_L_Break_CZn" = 56.40107   $ Sizing
 "HRtEDB_L_Conf_CZn" = 56.40107   $ Sizing
 "HRtEDB_L_CopyRm_CZn" = 56.40107   $ Sizing
 "HRtEDB_L_Cordr_CZn" = 56.51786   $ Sizing
 "HRtEDB_L_Cordr_EZn" = 56.51786   $ Sizing
 "HRtEDB_L_Cordr_NZn" = 56.51786   $ Sizing
 "HRtEDB_L_Cordr_SZn" = 56.51786   $ Sizing
 "HRtEDB_L_Cordr_WZn" = 56.51786   $ Sizing
 "HRtEDB_L_LobWait_CZn" = 56.51786   $ Sizing
 "HRtEDB_L_MechElec_CZn" = 56.51786   $ Sizing
 "HRtEDB_L_OfficeOpn_CZn" = 56.40107   $ Sizing
 "HRtEDB_L_OfficeOpn_EZn" = 56.40107   $ Sizing
 "HRtEDB_L_OfficeOpn_NZn" = 56.40107   $ Sizing
 "HRtEDB_L_OfficeOpn_SZn" = 56.40107   $ Sizing
 "HRtEDB_L_OfficeOpn_WZn" = 56.40107   $ Sizing
 "HRtEDB_L_OfficeSm_CZn" = 56.40107   $ Sizing
 "HRtEDB_L_OfficeSm_EZn" = 56.40107   $ Sizing
 "HRtEDB_L_OfficeSm_NZn" = 56.40107   $ Sizing
 "HRtEDB_L_OfficeSm_SZn" = 56.40107   $ Sizing
 "HRtEDB_L_OfficeSm_WZn" = 56.40107   $ Sizing
 "HRtEDB_L_Restrm_CZn" = 56.51786   $ Sizing
 "HRtEDB_L_StorSm_CZn" = 56.51786   $ Sizing
 "HRtEDB_M_Break_CZn" = 56.4421   $ Sizing
 "HRtEDB_M_Conf_CZn" = 56.4421   $ Sizing
 "HRtEDB_M_CopyRm_CZn" = 56.4421   $ Sizing
 "HRtEDB_M_Cordr_CZn" = 56.55576   $ Sizing
 "HRtEDB_M_Cordr_EZn" = 56.55576   $ Sizing
 "HRtEDB_M_Cordr_NZn" = 56.55576   $ Sizing
 "HRtEDB_M_Cordr_SZn" = 56.55576   $ Sizing
 "HRtEDB_M_Cordr_WZn" = 56.55576   $ Sizing
 "HRtEDB_M_LobWait_CZn" = 56.55576   $ Sizing
 "HRtEDB_M_MechElec_CZn" = 56.55576   $ Sizing
 "HRtEDB_M_OfficeOpn_CZn" = 56.4421   $ Sizing
 "HRtEDB_M_OfficeOpn_EZn" = 56.4421   $ Sizing
 "HRtEDB_M_OfficeOpn_NZn" = 56.4421   $ Sizing
 "HRtEDB_M_OfficeOpn_SZn" = 56.4421   $ Sizing
 "HRtEDB_M_OfficeOpn_WZn" = 56.4421   $ Sizing
 "HRtEDB_M_OfficeSm_CZn" = 56.4421   $ Sizing
 "HRtEDB_M_OfficeSm_EZn" = 56.4421   $ Sizing
 "HRtEDB_M_OfficeSm_NZn" = 56.4421   $ Sizing
 "HRtEDB_M_OfficeSm_SZn" = 56.4421   $ Sizing
 "HRtEDB_M_OfficeSm_WZn" = 56.4421   $ Sizing
 "HRtEDB_M_Restrm_CZn" = 56.55576   $ Sizing
 "HRtEDB_M_StorSm_CZn" = 56.55576   $ Sizing
 "HRtEDB_T_Break_CZn" = 52.71748   $ Sizing
 "HRtEDB_T_Conf_CZn" = 52.71748   $ Sizing
 "HRtEDB_T_CopyRm_CZn" = 52.71748   $ Sizing
 "HRtEDB_T_Cordr_CZn" = 52.71748   $ Sizing
 "HRtEDB_T_Cordr_EZn" = 52.71748   $ Sizing
 "HRtEDB_T_Cordr_NZn" = 52.71748   $ Sizing
 "HRtEDB_T_Cordr_SZn" = 52.71748   $ Sizing
 "HRtEDB_T_Cordr_WZn" = 52.71748   $ Sizing
 "HRtEDB_T_LobWait_CZn" = 52.71748   $ Sizing
 "HRtEDB_T_MechElec_CZn" = 52.71748   $ Sizing
 "HRtEDB_T_OfficeOpn_CZn" = 55.77602   $ Sizing
 "HRtEDB_T_OfficeOpn_EZn" = 55.77602   $ Sizing
 "HRtEDB_T_OfficeOpn_NZn" = 52.71748   $ Sizing
 "HRtEDB_T_OfficeOpn_SZn" = 52.71748   $ Sizing
 "HRtEDB_T_OfficeOpn_WZn" = 52.71748   $ Sizing
 "HRtEDB_T_OfficeSm_CZn" = 55.77602   $ Sizing
 "HRtEDB_T_OfficeSm_EZn" = 52.71748   $ Sizing
 "HRtEDB_T_OfficeSm_NZn" = 52.71748   $ Sizing
 "HRtEDB_T_OfficeSm_SZn" = 52.71748   $ Sizing
 "HRtEDB_T_OfficeSm_WZn" = 52.71748   $ Sizing
 "HRtEDB_T_Restrm_CZn" = 54.02102   $ Sizing
 "HRtEDB_T_StorSm_CZn" = 52.71748   $ Sizing
 "HtCap_L_Break_CZn" = -9008.032   $ Sizing
 "HtCap_L_Conf_CZn" = -11715.58   $ Sizing
 "HtCap_L_CopyRm_CZn" = -3674.869   $ Sizing
 "HtCap_L_Cordr_CZn" = -8792.107   $ Sizing
 "HtCap_L_Cordr_EZn" = -5034.876   $ Sizing
 "HtCap_L_Cordr_NZn" = -5873.496   $ Sizing
 "HtCap_L_Cordr_SZn" = -4045.342   $ Sizing
 "HtCap_L_Cordr_WZn" = -4859.07   $ Sizing
 "HtCap_L_LobWait_CZn" = -9282.456   $ Sizing
 "HtCap_L_MechElec_CZn" = -2086.231   $ Sizing
 "HtCap_L_OfficeOpn_CZn" = -19300.08   $ Sizing
 "HtCap_L_OfficeOpn_EZn" = -29615.75   $ Sizing
 "HtCap_L_OfficeOpn_NZn" = -23620.09   $ Sizing
 "HtCap_L_OfficeOpn_SZn" = -31913.7   $ Sizing
 "HtCap_L_OfficeOpn_WZn" = -29039.99   $ Sizing
 "HtCap_L_OfficeSm_CZn" = -2370.098   $ Sizing
 "HtCap_L_OfficeSm_EZn" = -21849.59   $ Sizing
 "HtCap_L_OfficeSm_NZn" = -21377.34   $ Sizing
 "HtCap_L_OfficeSm_SZn" = -24159.61   $ Sizing
 "HtCap_L_OfficeSm_WZn" = -21669.97   $ Sizing
 "HtCap_L_Restrm_CZn" = -2635.417   $ Sizing
 "HtCap_L_StorSm_CZn" = -6524.067   $ Sizing
 "HtCap_M_Break_CZn" = -8999.288   $ Sizing
 "HtCap_M_Conf_CZn" = -11704.21   $ Sizing
 "HtCap_M_CopyRm_CZn" = -3671.303   $ Sizing
 "HtCap_M_Cordr_CZn" = -10092.74   $ Sizing
 "HtCap_M_Cordr_EZn" = -5619.657   $ Sizing
 "HtCap_M_Cordr_NZn" = -6268.057   $ Sizing
 "HtCap_M_Cordr_SZn" = -4719.016   $ Sizing
 "HtCap_M_Cordr_WZn" = -5244.553   $ Sizing
 "HtCap_M_LobWait_CZn" = -9273.696   $ Sizing
 "HtCap_M_MechElec_CZn" = -2187.556   $ Sizing
 "HtCap_M_OfficeOpn_CZn" = -20734.11   $ Sizing
 "HtCap_M_OfficeOpn_EZn" = -31375.48   $ Sizing
 "HtCap_M_OfficeOpn_NZn" = -25353.55   $ Sizing
 "HtCap_M_OfficeOpn_SZn" = -35121.56   $ Sizing
 "HtCap_M_OfficeOpn_WZn" = -30755.93   $ Sizing
 "HtCap_M_OfficeSm_CZn" = -2757.04   $ Sizing
 "HtCap_M_OfficeSm_EZn" = -23248.21   $ Sizing
 "HtCap_M_OfficeSm_NZn" = -22522.67   $ Sizing
 "HtCap_M_OfficeSm_SZn" = -26555.09   $ Sizing
 "HtCap_M_OfficeSm_WZn" = -23042.28   $ Sizing
 "HtCap_M_Restrm_CZn" = -3936.3   $ Sizing
 "HtCap_M_StorSm_CZn" = -6884.689   $ Sizing
 "HtCap_T_Break_CZn" = -9869.661   $ Sizing
 "HtCap_T_Conf_CZn" = -12836.19   $ Sizing
 "HtCap_T_CopyRm_CZn" = -4026.375   $ Sizing
 "HtCap_T_Cordr_CZn" = -9660.455   $ Sizing
 "HtCap_T_Cordr_EZn" = -5246.277   $ Sizing
 "HtCap_T_Cordr_NZn" = -6088.605   $ Sizing
 "HtCap_T_Cordr_SZn" = -4714.668   $ Sizing
 "HtCap_T_Cordr_WZn" = -4802.034   $ Sizing
 "HtCap_T_LobWait_CZn" = -10199.23   $ Sizing
 "HtCap_T_MechElec_CZn" = -5089.985   $ Sizing
 "HtCap_T_OfficeOpn_CZn" = -20304.41   $ Sizing
 "HtCap_T_OfficeOpn_EZn" = -29614.71   $ Sizing
 "HtCap_T_OfficeOpn_NZn" = -24904.89   $ Sizing
 "HtCap_T_OfficeOpn_SZn" = -35802.73   $ Sizing
 "HtCap_T_OfficeOpn_WZn" = -31376.99   $ Sizing
 "HtCap_T_OfficeSm_CZn" = -2677.258   $ Sizing
 "HtCap_T_OfficeSm_EZn" = -24164.16   $ Sizing
 "HtCap_T_OfficeSm_NZn" = -23039.93   $ Sizing
 "HtCap_T_OfficeSm_SZn" = -27600.08   $ Sizing
 "HtCap_T_OfficeSm_WZn" = -24005.61   $ Sizing
 "HtCap_T_Restrm_CZn" = -2808.06   $ Sizing
 "HtCap_T_StorSm_CZn" = -5707.886   $ Sizing
..

##include Templates\OfL_DX_MZ.inp
END ..
COMPUTE ..
STOP ..
