INPUT ..

##fileprefix C:\Users\jglasskatz\MASControl3\
##set1 IsSizing FALSE
##set1 CoolType DX
##set1 HeatType HOT-WATER
##set1 EU_HrRepVar 1
##set1 BldgVint 1985
##set1 BldgLoc CZ01

 ##set1 mHW_FlowCtrl Const   $ IP Tech: HwFlowCtrlCst
 ##set1 mBFMult 1   $ IP Tech: RefgChg-NRes-Std
 ##set1 mBlrIsCond FALSE   $ IP Tech: WBlr-300to2500-80p0Ec

PARAMETER
 "AltFactor" = 1.00753   $ IP Non-Tech
 "BldgEconoFlag" = 1   $ IP Non-Tech
 "BlrPrimLp" = BlrPrimLoop   $ IP Non-Tech
 "Break_EWSF" = 1   $ IP Non-Tech
 "Break_LWSF" = 1.1   $ IP Non-Tech
 "CDD_DBHi10" = 65   $ IP Non-Tech
 "CDD_DBHi7" = 68   $ IP Non-Tech
 "CDD_DBHi8" = 66   $ IP Non-Tech
 "CDD_DBHi9" = 77   $ IP Non-Tech
 "CDD_DBRange10" = 17   $ IP Non-Tech
 "CDD_DBRange7" = 11   $ IP Non-Tech
 "CDD_DBRange8" = 10   $ IP Non-Tech
 "CDD_DBRange9" = 29   $ IP Non-Tech
 "CDD_Day10" = 15   $ IP Non-Tech
 "CDD_Day7" = 16   $ IP Non-Tech
 "CDD_Day8" = 20   $ IP Non-Tech
 "CDD_Day9" = 17   $ IP Non-Tech
 "CDD_HrHi10" = 12   $ IP Non-Tech
 "CDD_HrHi7" = 12   $ IP Non-Tech
 "CDD_HrHi8" = 13   $ IP Non-Tech
 "CDD_HrHi9" = 17   $ IP Non-Tech
 "CDD_HrLo10" = 6   $ IP Non-Tech
 "CDD_HrLo7" = 3   $ IP Non-Tech
 "CDD_HrLo8" = 8   $ IP Non-Tech
 "CDD_HrLo9" = 4   $ IP Non-Tech
 "CDD_WB10" = 57.53039551   $ IP Non-Tech
 "CDD_WB7" = 59.29250717   $ IP Non-Tech
 "CDD_WB8" = 60.75350189   $ IP Non-Tech
 "CDD_WB9" = 61.08643341   $ IP Non-Tech
 "CZ_Category" = Tem   $ IP Non-Tech
 "ChwVintEconoFlag" = 1   $ IP Non-Tech
 "Conference_EWSF" = 1.1   $ IP Non-Tech
 "Conference_LWSF" = 1.4   $ IP Non-Tech
 "CoolSetT" = 45   $ IP Non-Tech
 "CoolType" = DX   $ IP Non-Tech
 "CopyRoom_EWSF" = 1.65   $ IP Non-Tech
 "CopyRoom_LWSF" = 1.3   $ IP Non-Tech
 "CorridorStairway_EWSF" = 0.22   $ IP Non-Tech
 "CorridorStairway_LWSF" = 0.6   $ IP Non-Tech
 "DesCoolT" = 75   $ IP Non-Tech
 "DesHeatT" = 73   $ IP Non-Tech
 "EconoEnthLimit" = 28   $ IP Non-Tech
 "EconoTempLimit" = 70   $ IP Non-Tech
 "Elevation" = 203   $ IP Non-Tech
 "HDD_CloudAmt1" = 0   $ IP Non-Tech
 "HDD_DBHi1" = 53   $ IP Non-Tech
 "HDD_DBRange1" = 20   $ IP Non-Tech
 "HDD_Day1" = 15   $ IP Non-Tech
 "HDD_HrHi1" = 14   $ IP Non-Tech
 "HDD_HrLo1" = 6   $ IP Non-Tech
 "HDD_WB1" = 42.3   $ IP Non-Tech
 "HDD_WindSpd1" = 12.7   $ IP Non-Tech
 "HeatSrc" = HOT-WATER   $ IP Non-Tech
 "HeatSrcTU" = HOT-WATER   $ IP Non-Tech
 "HeatType" = GasBlr   $ IP Non-Tech
 "HeatTypeTU" = HOT-WATER   $ IP Non-Tech
 "HwDesignDT" = 30   $ IP Non-Tech
 "HwPipeHead" = 40   $ IP Non-Tech
 "HwRetDT" = 0.3   $ IP Non-Tech
 "HwSupDT" = 0.5   $ IP Non-Tech
 "IndoorFanMode" = CONTINUOUS   $ IP Non-Tech
 "KT_TransferAir" = No   $ IP Non-Tech
 "Latitude" = 40.8   $ IP Non-Tech
 "LobbyWaiting_EWSF" = 0.525   $ IP Non-Tech
 "LobbyWaiting_LWSF" = 1.3   $ IP Non-Tech
 "Longitude" = 124.2   $ IP Non-Tech
 "LtgMsrApplic" = ALL   $ Msr TechID: NonResLtgRefMsr-HB
 "LtgSav_CFL" = 0   $ Msr TechID: NonResLtgRefMsr-HB
 "LtgSav_EX" = 0   $ Msr TechID: NonResLtgRefMsr-HB
 "LtgSav_HB" = 0.3   $ Msr TechID: NonResLtgRefMsr-HB
 "LtgSav_LF" = 0   $ Msr TechID: NonResLtgRefMsr-HB
 "LtgSav_SP" = 0   $ Msr TechID: NonResLtgRefMsr-HB
 "MZFanMechEff" = 0.58   $ IP Non-Tech
 "MZHasRetFan" = FALSE   $ IP Non-Tech
 "MZ_RFanWPerCfm" = 0.37   $ IP Non-Tech
 "MZ_SFanWPerCfm" = 0.71   $ IP Non-Tech
 "MZ_SupFanStatic" = 4   $ IP Non-Tech
 "MaxSupT_MZ" = 95   $ IP Non-Tech
 "MaxSupT_SZ" = 100   $ IP Non-Tech
 "MaxSupT_TU" = 90   $ IP Non-Tech
 "MechElecRoom_EWSF" = 0.22   $ IP Non-Tech
 "MechElecRoom_LWSF" = 0.7   $ IP Non-Tech
 "MinCfmPerSF" = 0.4   $ IP Non-Tech
 "MinSupT" = 55   $ IP Non-Tech
 "NumBlrs" = 2   $ IP Non-Tech
 "OccCoolT" = 76   $ IP Non-Tech
 "OccHeatT" = 72   $ IP Non-Tech
 "OfficeOpen_EWSF" = 1.65   $ IP Non-Tech
 "OfficeOpen_LWSF" = 1.2   $ IP Non-Tech
 "OfficeSmall_EWSF" = 1.65   $ IP Non-Tech
 "OfficeSmall_LWSF" = 1.3   $ IP Non-Tech
 "PkgDxVintEconoFlag" = 0   $ IP Non-Tech
 "ReheatDeltaT" = 39   $ IP Non-Tech
 "Restroom_EWSF" = 0.22   $ IP Non-Tech
 "Restroom_LWSF" = 0.6   $ IP Non-Tech
 "SZFanMechEff" = 0.58   $ IP Non-Tech
 "SZHasRetFan" = FALSE   $ IP Non-Tech
 "SZ_Is_2Spd" = FALSE   $ IP Non-Tech
 "SZ_SFanWPerCfm" = 0.46   $ IP Non-Tech
 "StorageSmlCond_EWSF" = 0.22   $ IP Non-Tech
 "StorageSmlCond_LWSF" = 0.6   $ IP Non-Tech
 "T24GlzTbl" = CZTbl   $ IP Non-Tech
 "TermUnitFanMechEff" = 1   $ IP Non-Tech
 "TermUnitFanMode" = INTERMITTENT   $ IP Non-Tech
 "TwrSetpt" = 80   $ IP Non-Tech
 "UnocCoolT" = 86   $ IP Non-Tech
 "UnocHeatT" = 62   $ IP Non-Tech
 "VAVMinFlow" = 0.3   $ IP Non-Tech
 "WlhpVintEconoFlag" = 0   $ IP Non-Tech
 "EconoCtrl" = OA-TEMP   $ IP Tech: AirEcono-OATemp
 "MaxOAFrac" = 0.85   $ IP Tech: AirEcono-OATemp
 "UseEconoVintApplic" = FALSE   $ IP Tech: AirEcono-OATemp
 "DuctDT" = 2   $ IP Tech: ComDuctInsul-2
 "DuctAirLoss" = 0   $ IP Tech: ComDuctLeak-0
 "DuctLossOAFrac" = 0   $ IP Tech: ComDuctLeak-0
 "ComRoofInsCalc" = FromUo   $ IP Tech: ComRoofIns-Hvy-0.06
 "ComRoofInsR" = -999   $ IP Tech: ComRoofIns-Hvy-0.06
 "ComRoofUo" = 0.06   $ IP Tech: ComRoofIns-Hvy-0.06
 "ComEWInsCalc" = FromUo   $ IP Tech: ComWallIns-MFrm-0.14
 "ComEWInsR" = -999   $ IP Tech: ComWallIns-MFrm-0.14
 "ComEWUo" = 0.14   $ IP Tech: ComWallIns-MFrm-0.14
 "HW_FlowCtrl" = Const   $ IP Tech: HwFlowCtrlCst
 "HW_HdSensLoc" = AT-COILS   $ IP Tech: HwFlowCtrlCst
 "HW_HdSptCtrl" = FIXED   $ IP Tech: HwFlowCtrlCst
 "HWP_Encl" = Any   $ IP Tech: HwPumpMtrEff-HI
 "HWP_MotClass" = HI-EFF   $ IP Tech: HwPumpMtrEff-HI
 "HWP_MotHP" = Any   $ IP Tech: HwPumpMtrEff-HI
 "HWP_NEMA_DC" = Any   $ IP Tech: HwPumpMtrEff-HI
 "HWP_RPM" = Any   $ IP Tech: HwPumpMtrEff-HI
 "HWP_Volt" = Any   $ IP Tech: HwPumpMtrEff-HI
 "HWResetOutsideHi" = -1   $ IP Tech: HwTempCtrlFixed
 "HWResetOutsideLo" = -1   $ IP Tech: HwTempCtrlFixed
 "HW_TempCtrl" = FIXED   $ IP Tech: HwTempCtrlFixed
 "ComN_SHGC" = 0.82   $ IP Tech: NResWin-ComN-1.23-0.82
 "ComN_UFactor" = 1.23   $ IP Tech: NResWin-ComN-1.23-0.82
 "ComN_VisTrans" = 0.9   $ IP Tech: NResWin-ComN-1.23-0.82
 "ComN_WinCode" = G1000   $ IP Tech: NResWin-ComN-1.23-0.82
 "ComN_WinFrmFrac" = 0.17   $ IP Tech: NResWin-ComN-1.23-0.82
 "ComN_WinFrmU" = 1   $ IP Tech: NResWin-ComN-1.23-0.82
 "ComO_SHGC" = 0.82   $ IP Tech: NResWin-ComO-1.23-0.82
 "ComO_UFactor" = 1.23   $ IP Tech: NResWin-ComO-1.23-0.82
 "ComO_VisTrans" = 0.9   $ IP Tech: NResWin-ComO-1.23-0.82
 "ComO_WinCode" = G1000   $ IP Tech: NResWin-ComO-1.23-0.82
 "ComO_WinFrmFrac" = 0.17   $ IP Tech: NResWin-ComO-1.23-0.82
 "ComO_WinFrmU" = 1   $ IP Tech: NResWin-ComO-1.23-0.82
 "PV_BF_fFlow" = PVV240to760_BF_fFlow   $ IP Tech: PVVAC-H-240to760-E10
 "PV_BF_fT" = PVV240to760_BF_fT   $ IP Tech: PVVAC-H-240to760-E10
 "PV_CEIR_fPLR" = PVV240to760_CEIR_fPLR   $ IP Tech: PVVAC-H-240to760-E10
 "PV_CLoss_fPLR" = PVV240to760_CLoss_fPLR   $ IP Tech: PVVAC-H-240to760-E10
 "PV_COP" = -1   $ IP Tech: PVVAC-H-240to760-E10
 "PV_COP47" = -1   $ IP Tech: PVVAC-H-240to760-E10
 "PV_CfmPerBtuh" = 0.02917   $ IP Tech: PVVAC-H-240to760-E10
 "PV_ClCap_fT" = PVV240to760_ClCap_fT   $ IP Tech: PVVAC-H-240to760-E10
 "PV_ClSH_fT" = PVV240to760_ClSH_fT   $ IP Tech: PVVAC-H-240to760-E10
 "PV_CoilBF" = 0.125   $ IP Tech: PVVAC-H-240to760-E10
 "PV_CondWPerBtuh" = 0   $ IP Tech: PVVAC-H-240to760-E10
 "PV_CoolSensCap" = 0.708   $ IP Tech: PVVAC-H-240to760-E10
 "PV_CoolingEIR" = 0.27165   $ IP Tech: PVVAC-H-240to760-E10
 "PV_CrnkEIR" = 0.0027   $ IP Tech: PVVAC-H-240to760-E10
 "PV_CrnkMaxT" = 50   $ IP Tech: PVVAC-H-240to760-E10
 "PV_DXType" = PVV   $ IP Tech: PVVAC-H-240to760-E10
 "PV_EER" = 9.17   $ IP Tech: PVVAC-H-240to760-E10
 "PV_EIR_fT" = PVV240to760_EIR_fT   $ IP Tech: PVVAC-H-240to760-E10
 "PV_FanEirPlr" = NA   $ IP Tech: PVVAC-H-240to760-E10
 "PV_FanWPerCfm" = 0.736   $ IP Tech: PVVAC-H-240to760-E10
 "PV_HIR_fT" = DEFAULT   $ IP Tech: PVVAC-H-240to760-E10
 "PV_HtCap_fT" = DEFAULT   $ IP Tech: PVVAC-H-240to760-E10
 "PV_HtCoolCapRatio" = -1   $ IP Tech: PVVAC-H-240to760-E10
 "PV_HtgEIR" = -1   $ IP Tech: PVVAC-H-240to760-E10
 "PV_HtgFuel" = HW   $ IP Tech: PVVAC-H-240to760-E10
 "PV_IEER" = 11.44   $ IP Tech: PVVAC-H-240to760-E10
 "PV_LowSpdCapRatio" = 0.17   $ IP Tech: PVVAC-H-240to760-E10
 "PV_LowSpdCfmRatio" = 0.24   $ IP Tech: PVVAC-H-240to760-E10
 "PV_NominalCap" = 40   $ IP Tech: PVVAC-H-240to760-E10
 "PV_NumStages" = 1   $ IP Tech: PVVAC-H-240to760-E10
 "PV_RatedEER" = 10   $ IP Tech: PVVAC-H-240to760-E10
 "PV_RatedSupMtrClass" = HiEff   $ IP Tech: PVVAC-H-240to760-E10
 "PV_SizeRange" = 240to760   $ IP Tech: PVVAC-H-240to760-E10
 "PV_SubType" = AC   $ IP Tech: PVVAC-H-240to760-E10
 "PV_SupMotEff" = 0.91   $ IP Tech: PVVAC-H-240to760-E10
 "PV_Tier" = 0   $ IP Tech: PVVAC-H-240to760-E10
 "PV_TotCoolCap" = 485760   $ IP Tech: PVVAC-H-240to760-E10
 "BF_fFlow" = PSZ65to135_BF_fFlow   $ IP Tech: PkgAC1SpH-65to135-E10
 "BF_fT" = PSZ65to135_BF_fT   $ IP Tech: PkgAC1SpH-65to135-E10
 "CEIR_fPLR" = PSZ65to135_CEIR_fPLR   $ IP Tech: PkgAC1SpH-65to135-E10
 "CLoss_fPLR" = PSZ65to135_CLoss_fPLR   $ IP Tech: PkgAC1SpH-65to135-E10
 "COP" = -1   $ IP Tech: PkgAC1SpH-65to135-E10
 "COP47" = -1   $ IP Tech: PkgAC1SpH-65to135-E10
 "CfmPerBtuh" = 0.02917   $ IP Tech: PkgAC1SpH-65to135-E10
 "ClCap_fT" = PSZ65to135_ClCap_fT   $ IP Tech: PkgAC1SpH-65to135-E10
 "ClSH_fT" = PSZ65to135_ClSH_fT   $ IP Tech: PkgAC1SpH-65to135-E10
 "CoilBF" = 0.114   $ IP Tech: PkgAC1SpH-65to135-E10
 "CondWPerBtuh" = 0   $ IP Tech: PkgAC1SpH-65to135-E10
 "CoolSensCap" = 0.663   $ IP Tech: PkgAC1SpH-65to135-E10
 "CoolingEIR" = 0.29745   $ IP Tech: PkgAC1SpH-65to135-E10
 "CrnkEIR" = 0.01   $ IP Tech: PkgAC1SpH-65to135-E10
 "CrnkMaxT" = 50   $ IP Tech: PkgAC1SpH-65to135-E10
 "DXType" = Pkg   $ IP Tech: PkgAC1SpH-65to135-E10
 "EER" = 9.67   $ IP Tech: PkgAC1SpH-65to135-E10
 "EIR_fT" = PSZ65to135_EIR_fT   $ IP Tech: PkgAC1SpH-65to135-E10
 "FanEirPlr" = TwoSpeedFan   $ IP Tech: PkgAC1SpH-65to135-E10
 "FanWPerCfm" = 0.412   $ IP Tech: PkgAC1SpH-65to135-E10
 "HIR_fT" = DEFAULT   $ IP Tech: PkgAC1SpH-65to135-E10
 "HtCap_fT" = DEFAULT   $ IP Tech: PkgAC1SpH-65to135-E10
 "HtCoolCapRatio" = -1   $ IP Tech: PkgAC1SpH-65to135-E10
 "HtgEIR" = -1   $ IP Tech: PkgAC1SpH-65to135-E10
 "HtgFuel" = Gas   $ IP Tech: PkgAC1SpH-65to135-E10
 "IEER" = 11.87   $ IP Tech: PkgAC1SpH-65to135-E10
 "LowSpdCapRatio" = 0.5   $ IP Tech: PkgAC1SpH-65to135-E10
 "LowSpdCfmRatio" = 0.66   $ IP Tech: PkgAC1SpH-65to135-E10
 "NominalCap" = 15   $ IP Tech: PkgAC1SpH-65to135-E10
 "NumStages" = 1   $ IP Tech: PkgAC1SpH-65to135-E10
 "RatedEER" = 10   $ IP Tech: PkgAC1SpH-65to135-E10
 "RatedSupMtrClass" = HiEff   $ IP Tech: PkgAC1SpH-65to135-E10
 "SizeRange" = 65to135   $ IP Tech: PkgAC1SpH-65to135-E10
 "SubType" = AC   $ IP Tech: PkgAC1SpH-65to135-E10
 "SupMotEff" = 0.84   $ IP Tech: PkgAC1SpH-65to135-E10
 "Tier" = 0   $ IP Tech: PkgAC1SpH-65to135-E10
 "TotCoolCap" = 184140   $ IP Tech: PkgAC1SpH-65to135-E10
 "BFMult" = 1   $ IP Tech: RefgChg-NRes-Std
 "CoolEirMult" = 1   $ IP Tech: RefgChg-NRes-Std
 "SensCoolCapMult" = 1   $ IP Tech: RefgChg-NRes-Std
 "TotCoolCapMult" = 1   $ IP Tech: RefgChg-NRes-Std
 "SATempCtrl" = RESET   $ IP Tech: SATempCtrl-Reset
 "FanEIR_fPLR" = "ForCurve w Inlet Vanes FPLR"   $ IP Tech: VAVCtrl-Inlet-AnyHP
 "Fan_Control" = Inlet   $ IP Tech: VAVCtrl-Inlet-AnyHP
 "Motor_Horsepower" = AnyHP   $ IP Tech: VAVCtrl-Inlet-AnyHP
 "BlrCapRange" = 300to2500   $ IP Tech: WBlr-300to2500-80p0Ec
 "BlrDraftType" = FDr   $ IP Tech: WBlr-300to2500-80p0Ec
 "BlrEff" = 0.8   $ IP Tech: WBlr-300to2500-80p0Ec
 "BlrEffUnits" = Ec   $ IP Tech: WBlr-300to2500-80p0Ec
 "BlrEt" = 0.78   $ IP Tech: WBlr-300to2500-80p0Ec
 "BlrFluid" = Wtr   $ IP Tech: WBlr-300to2500-80p0Ec
 "BlrIsCond" = FALSE   $ IP Tech: WBlr-300to2500-80p0Ec
 "BlrT" = 165   $ IP Tech: WBlr-300to2500-80p0Ec
 "AltAdjFactor" = 1.007532   $ Sizing
 "CAssFlo_L_Break_CZn" = 326.8385   $ Sizing
 "CAssFlo_L_Conf_CZn" = 395.7608   $ Sizing
 "CAssFlo_L_CopyRm_CZn" = 92.76919   $ Sizing
 "CAssFlo_L_Cordr_CZn" = 565.4379   $ Sizing
 "CAssFlo_L_Cordr_EZn" = 281.7983   $ Sizing
 "CAssFlo_L_Cordr_NZn" = 140.9458   $ Sizing
 "CAssFlo_L_Cordr_SZn" = 325.211   $ Sizing
 "CAssFlo_L_Cordr_WZn" = 282.1741   $ Sizing
 "CAssFlo_L_LobWait_CZn" = 275.5261   $ Sizing
 "CAssFlo_L_MechElec_CZn" = 134.1697   $ Sizing
 "CAssFlo_L_OfficeOpn_CZn" = 1547.151   $ Sizing
 "CAssFlo_L_OfficeOpn_EZn" = 2374.069   $ Sizing
 "CAssFlo_L_OfficeOpn_NZn" = 827.2005   $ Sizing
 "CAssFlo_L_OfficeOpn_SZn" = 2558.308   $ Sizing
 "CAssFlo_L_OfficeOpn_WZn" = 2327.917   $ Sizing
 "CAssFlo_L_OfficeSm_CZn" = 189.9932   $ Sizing
 "CAssFlo_L_OfficeSm_EZn" = 1751.515   $ Sizing
 "CAssFlo_L_OfficeSm_NZn" = 516.3232   $ Sizing
 "CAssFlo_L_OfficeSm_SZn" = 1936.705   $ Sizing
 "CAssFlo_L_OfficeSm_WZn" = 1737.115   $ Sizing
 "CAssFlo_L_Restrm_CZn" = 211.8611   $ Sizing
 "CAssFlo_L_StorSm_CZn" = 334.0894   $ Sizing
 "CAssFlo_M_Break_CZn" = 341.0095   $ Sizing
 "CAssFlo_M_Conf_CZn" = 417.981   $ Sizing
 "CAssFlo_M_CopyRm_CZn" = 100.2327   $ Sizing
 "CAssFlo_M_Cordr_CZn" = 565.4379   $ Sizing
 "CAssFlo_M_Cordr_EZn" = 330.1638   $ Sizing
 "CAssFlo_M_Cordr_NZn" = 149.2338   $ Sizing
 "CAssFlo_M_Cordr_SZn" = 379.7262   $ Sizing
 "CAssFlo_M_Cordr_WZn" = 321.0891   $ Sizing
 "CAssFlo_M_LobWait_CZn" = 312.5371   $ Sizing
 "CAssFlo_M_MechElec_CZn" = 134.1697   $ Sizing
 "CAssFlo_M_OfficeOpn_CZn" = 1663.713   $ Sizing
 "CAssFlo_M_OfficeOpn_EZn" = 2517.575   $ Sizing
 "CAssFlo_M_OfficeOpn_NZn" = 972.9634   $ Sizing
 "CAssFlo_M_OfficeOpn_SZn" = 2818.183   $ Sizing
 "CAssFlo_M_OfficeOpn_WZn" = 2467.863   $ Sizing
 "CAssFlo_M_OfficeSm_CZn" = 221.2304   $ Sizing
 "CAssFlo_M_OfficeSm_EZn" = 1865.44   $ Sizing
 "CAssFlo_M_OfficeSm_NZn" = 622.1621   $ Sizing
 "CAssFlo_M_OfficeSm_SZn" = 2130.805   $ Sizing
 "CAssFlo_M_OfficeSm_WZn" = 1848.916   $ Sizing
 "CAssFlo_M_Restrm_CZn" = 211.8611   $ Sizing
 "CAssFlo_M_StorSm_CZn" = 334.0894   $ Sizing
 "CAssFlo_T_Break_CZn" = 331.1969   $ Sizing
 "CAssFlo_T_Conf_CZn" = 403.8137   $ Sizing
 "CAssFlo_T_CopyRm_CZn" = 96.82497   $ Sizing
 "CAssFlo_T_Cordr_CZn" = 565.4379   $ Sizing
 "CAssFlo_T_Cordr_EZn" = 298.4289   $ Sizing
 "CAssFlo_T_Cordr_NZn" = 132.2999   $ Sizing
 "CAssFlo_T_Cordr_SZn" = 344.9475   $ Sizing
 "CAssFlo_T_Cordr_WZn" = 290.7384   $ Sizing
 "CAssFlo_T_LobWait_CZn" = 275.5261   $ Sizing
 "CAssFlo_T_MechElec_CZn" = 134.1697   $ Sizing
 "CAssFlo_T_OfficeOpn_CZn" = 1601.675   $ Sizing
 "CAssFlo_T_OfficeOpn_EZn" = 2336.1   $ Sizing
 "CAssFlo_T_OfficeOpn_NZn" = 934.6665   $ Sizing
 "CAssFlo_T_OfficeOpn_SZn" = 2619.491   $ Sizing
 "CAssFlo_T_OfficeOpn_WZn" = 2295.666   $ Sizing
 "CAssFlo_T_OfficeSm_CZn" = 211.1911   $ Sizing
 "CAssFlo_T_OfficeSm_EZn" = 1767.946   $ Sizing
 "CAssFlo_T_OfficeSm_NZn" = 600.3806   $ Sizing
 "CAssFlo_T_OfficeSm_SZn" = 2019.349   $ Sizing
 "CAssFlo_T_OfficeSm_WZn" = 1756.346   $ Sizing
 "CAssFlo_T_Restrm_CZn" = 211.8611   $ Sizing
 "CAssFlo_T_StorSm_CZn" = 334.0894   $ Sizing
 "CHRtFlo_L_Break_CZn" = 216.6311   $ Sizing
 "CHRtFlo_L_Conf_CZn" = 281.7439   $ Sizing
 "CHRtFlo_L_CopyRm_CZn" = 88.37569   $ Sizing
 "CHRtFlo_L_Cordr_CZn" = 212.0392   $ Sizing
 "CHRtFlo_L_Cordr_EZn" = 120.7153   $ Sizing
 "CHRtFlo_L_Cordr_NZn" = 140.9458   $ Sizing
 "CHRtFlo_L_Cordr_SZn" = 97.56332   $ Sizing
 "CHRtFlo_L_Cordr_WZn" = 116.4721   $ Sizing
 "CHRtFlo_L_LobWait_CZn" = 223.8649   $ Sizing
 "CHRtFlo_L_MechElec_CZn" = 50.31363   $ Sizing
 "CHRtFlo_L_OfficeOpn_CZn" = 464.1453   $ Sizing
 "CHRtFlo_L_OfficeOpn_EZn" = 712.2207   $ Sizing
 "CHRtFlo_L_OfficeOpn_NZn" = 565.566   $ Sizing
 "CHRtFlo_L_OfficeOpn_SZn" = 767.4926   $ Sizing
 "CHRtFlo_L_OfficeOpn_WZn" = 698.375   $ Sizing
 "CHRtFlo_L_OfficeSm_CZn" = 56.99796   $ Sizing
 "CHRtFlo_L_OfficeSm_EZn" = 525.4545   $ Sizing
 "CHRtFlo_L_OfficeSm_NZn" = 512.5989   $ Sizing
 "CHRtFlo_L_OfficeSm_SZn" = 581.0115   $ Sizing
 "CHRtFlo_L_OfficeSm_WZn" = 521.1346   $ Sizing
 "CHRtFlo_L_Restrm_CZn" = 63.55833   $ Sizing
 "CHRtFlo_L_StorSm_CZn" = 154.3571   $ Sizing
 "CHRtFlo_M_Break_CZn" = 216.6311   $ Sizing
 "CHRtFlo_M_Conf_CZn" = 281.7439   $ Sizing
 "CHRtFlo_M_CopyRm_CZn" = 88.37569   $ Sizing
 "CHRtFlo_M_Cordr_CZn" = 229.4844   $ Sizing
 "CHRtFlo_M_Cordr_EZn" = 133.5812   $ Sizing
 "CHRtFlo_M_Cordr_NZn" = 149.2338   $ Sizing
 "CHRtFlo_M_Cordr_SZn" = 113.9179   $ Sizing
 "CHRtFlo_M_Cordr_WZn" = 124.526   $ Sizing
 "CHRtFlo_M_LobWait_CZn" = 223.8649   $ Sizing
 "CHRtFlo_M_MechElec_CZn" = 52.74889   $ Sizing
 "CHRtFlo_M_OfficeOpn_CZn" = 499.1138   $ Sizing
 "CHRtFlo_M_OfficeOpn_EZn" = 755.2726   $ Sizing
 "CHRtFlo_M_OfficeOpn_NZn" = 604.5682   $ Sizing
 "CHRtFlo_M_OfficeOpn_SZn" = 845.455   $ Sizing
 "CHRtFlo_M_OfficeOpn_WZn" = 740.3588   $ Sizing
 "CHRtFlo_M_OfficeSm_CZn" = 66.36912   $ Sizing
 "CHRtFlo_M_OfficeSm_EZn" = 559.632   $ Sizing
 "CHRtFlo_M_OfficeSm_NZn" = 538.6819   $ Sizing
 "CHRtFlo_M_OfficeSm_SZn" = 639.2416   $ Sizing
 "CHRtFlo_M_OfficeSm_WZn" = 554.6748   $ Sizing
 "CHRtFlo_M_Restrm_CZn" = 89.70639   $ Sizing
 "CHRtFlo_M_StorSm_CZn" = 157.8554   $ Sizing
 "CHRtFlo_T_Break_CZn" = 216.6311   $ Sizing
 "CHRtFlo_T_Conf_CZn" = 281.7439   $ Sizing
 "CHRtFlo_T_CopyRm_CZn" = 88.37569   $ Sizing
 "CHRtFlo_T_Cordr_CZn" = 212.0392   $ Sizing
 "CHRtFlo_T_Cordr_EZn" = 113.8114   $ Sizing
 "CHRtFlo_T_Cordr_NZn" = 132.2999   $ Sizing
 "CHRtFlo_T_Cordr_SZn" = 103.4842   $ Sizing
 "CHRtFlo_T_Cordr_WZn" = 104.0599   $ Sizing
 "CHRtFlo_T_LobWait_CZn" = 223.8649   $ Sizing
 "CHRtFlo_T_MechElec_CZn" = 111.6729   $ Sizing
 "CHRtFlo_T_OfficeOpn_CZn" = 480.5024   $ Sizing
 "CHRtFlo_T_OfficeOpn_EZn" = 700.83   $ Sizing
 "CHRtFlo_T_OfficeOpn_NZn" = 543.4348   $ Sizing
 "CHRtFlo_T_OfficeOpn_SZn" = 785.8475   $ Sizing
 "CHRtFlo_T_OfficeOpn_WZn" = 688.6999   $ Sizing
 "CHRtFlo_T_OfficeSm_CZn" = 63.35733   $ Sizing
 "CHRtFlo_T_OfficeSm_EZn" = 530.3839   $ Sizing
 "CHRtFlo_T_OfficeSm_NZn" = 503.8918   $ Sizing
 "CHRtFlo_T_OfficeSm_SZn" = 605.8047   $ Sizing
 "CHRtFlo_T_OfficeSm_WZn" = 526.9039   $ Sizing
 "CHRtFlo_T_Restrm_CZn" = 63.55833   $ Sizing
 "CHRtFlo_T_StorSm_CZn" = 125.2835   $ Sizing
 "CRtdFlo_Sys_L" = 13394.87   $ Sizing
 "CRtdFlo_Sys_M" = 120499.8   $ Sizing
 "CRtdFlo_Sys_T" = 14498.2   $ Sizing
 "CSupFlo_Sys_L" = 13394.87   $ Sizing
 "CSupFlo_Sys_M" = 120499.8   $ Sizing
 "CSupFlo_Sys_T" = 14498.2   $ Sizing
 "Cap_Boiler1" = -1.112827   $ Sizing
 "Cap_Boiler2" = -1.112827   $ Sizing
 "ClCap_Sys_L" = 458439.1   $ Sizing
 "ClCap_Sys_M" = 4124101   $ Sizing
 "ClCap_Sys_T" = 496200.6   $ Sizing
 "HRtEDB_L_Break_CZn" = 56.42055   $ Sizing
 "HRtEDB_L_Conf_CZn" = 56.42055   $ Sizing
 "HRtEDB_L_CopyRm_CZn" = 56.42055   $ Sizing
 "HRtEDB_L_Cordr_CZn" = 56.54263   $ Sizing
 "HRtEDB_L_Cordr_EZn" = 56.54263   $ Sizing
 "HRtEDB_L_Cordr_NZn" = 56.54263   $ Sizing
 "HRtEDB_L_Cordr_SZn" = 56.54263   $ Sizing
 "HRtEDB_L_Cordr_WZn" = 56.54263   $ Sizing
 "HRtEDB_L_LobWait_CZn" = 56.54263   $ Sizing
 "HRtEDB_L_MechElec_CZn" = 56.54263   $ Sizing
 "HRtEDB_L_OfficeOpn_CZn" = 56.42055   $ Sizing
 "HRtEDB_L_OfficeOpn_EZn" = 56.42055   $ Sizing
 "HRtEDB_L_OfficeOpn_NZn" = 56.42055   $ Sizing
 "HRtEDB_L_OfficeOpn_SZn" = 56.42055   $ Sizing
 "HRtEDB_L_OfficeOpn_WZn" = 56.42055   $ Sizing
 "HRtEDB_L_OfficeSm_CZn" = 56.42055   $ Sizing
 "HRtEDB_L_OfficeSm_EZn" = 56.42055   $ Sizing
 "HRtEDB_L_OfficeSm_NZn" = 56.42055   $ Sizing
 "HRtEDB_L_OfficeSm_SZn" = 56.42055   $ Sizing
 "HRtEDB_L_OfficeSm_WZn" = 56.42055   $ Sizing
 "HRtEDB_L_Restrm_CZn" = 56.54263   $ Sizing
 "HRtEDB_L_StorSm_CZn" = 56.54263   $ Sizing
 "HRtEDB_M_Break_CZn" = 56.4638   $ Sizing
 "HRtEDB_M_Conf_CZn" = 56.4638   $ Sizing
 "HRtEDB_M_CopyRm_CZn" = 56.4638   $ Sizing
 "HRtEDB_M_Cordr_CZn" = 56.58513   $ Sizing
 "HRtEDB_M_Cordr_EZn" = 56.58513   $ Sizing
 "HRtEDB_M_Cordr_NZn" = 56.58513   $ Sizing
 "HRtEDB_M_Cordr_SZn" = 56.58513   $ Sizing
 "HRtEDB_M_Cordr_WZn" = 56.58513   $ Sizing
 "HRtEDB_M_LobWait_CZn" = 56.58513   $ Sizing
 "HRtEDB_M_MechElec_CZn" = 56.58513   $ Sizing
 "HRtEDB_M_OfficeOpn_CZn" = 56.4638   $ Sizing
 "HRtEDB_M_OfficeOpn_EZn" = 56.4638   $ Sizing
 "HRtEDB_M_OfficeOpn_NZn" = 56.4638   $ Sizing
 "HRtEDB_M_OfficeOpn_SZn" = 56.4638   $ Sizing
 "HRtEDB_M_OfficeOpn_WZn" = 56.4638   $ Sizing
 "HRtEDB_M_OfficeSm_CZn" = 56.4638   $ Sizing
 "HRtEDB_M_OfficeSm_EZn" = 56.4638   $ Sizing
 "HRtEDB_M_OfficeSm_NZn" = 56.4638   $ Sizing
 "HRtEDB_M_OfficeSm_SZn" = 56.4638   $ Sizing
 "HRtEDB_M_OfficeSm_WZn" = 56.4638   $ Sizing
 "HRtEDB_M_Restrm_CZn" = 56.60708   $ Sizing
 "HRtEDB_M_StorSm_CZn" = 56.60708   $ Sizing
 "HRtEDB_T_Break_CZn" = 55.79891   $ Sizing
 "HRtEDB_T_Conf_CZn" = 55.79891   $ Sizing
 "HRtEDB_T_CopyRm_CZn" = 52.86738   $ Sizing
 "HRtEDB_T_Cordr_CZn" = 52.86738   $ Sizing
 "HRtEDB_T_Cordr_EZn" = 55.79891   $ Sizing
 "HRtEDB_T_Cordr_NZn" = 52.86738   $ Sizing
 "HRtEDB_T_Cordr_SZn" = 52.86738   $ Sizing
 "HRtEDB_T_Cordr_WZn" = 55.79891   $ Sizing
 "HRtEDB_T_LobWait_CZn" = 52.86738   $ Sizing
 "HRtEDB_T_MechElec_CZn" = 52.86738   $ Sizing
 "HRtEDB_T_OfficeOpn_CZn" = 55.79891   $ Sizing
 "HRtEDB_T_OfficeOpn_EZn" = 55.79891   $ Sizing
 "HRtEDB_T_OfficeOpn_NZn" = 55.79891   $ Sizing
 "HRtEDB_T_OfficeOpn_SZn" = 52.86738   $ Sizing
 "HRtEDB_T_OfficeOpn_WZn" = 55.79891   $ Sizing
 "HRtEDB_T_OfficeSm_CZn" = 55.79891   $ Sizing
 "HRtEDB_T_OfficeSm_EZn" = 55.79891   $ Sizing
 "HRtEDB_T_OfficeSm_NZn" = 55.79891   $ Sizing
 "HRtEDB_T_OfficeSm_SZn" = 52.86738   $ Sizing
 "HRtEDB_T_OfficeSm_WZn" = 55.79891   $ Sizing
 "HRtEDB_T_Restrm_CZn" = 52.86738   $ Sizing
 "HRtEDB_T_StorSm_CZn" = 52.86738   $ Sizing
 "HWDT_Boiler1" = 10.58237   $ Sizing
 "HWDT_Boiler2" = 10.58237   $ Sizing
 "HtCap_L_Break_CZn" = -9003.486   $ Sizing
 "HtCap_L_Conf_CZn" = -11709.66   $ Sizing
 "HtCap_L_CopyRm_CZn" = -3673.015   $ Sizing
 "HtCap_L_Cordr_CZn" = -8786.445   $ Sizing
 "HtCap_L_Cordr_EZn" = -5002.181   $ Sizing
 "HtCap_L_Cordr_NZn" = -5840.487   $ Sizing
 "HtCap_L_Cordr_SZn" = -4042.813   $ Sizing
 "HtCap_L_Cordr_WZn" = -4826.352   $ Sizing
 "HtCap_L_LobWait_CZn" = -9276.478   $ Sizing
 "HtCap_L_MechElec_CZn" = -2084.888   $ Sizing
 "HtCap_L_OfficeOpn_CZn" = -19290.51   $ Sizing
 "HtCap_L_OfficeOpn_EZn" = -29600.87   $ Sizing
 "HtCap_L_OfficeOpn_NZn" = -23505.7   $ Sizing
 "HtCap_L_OfficeOpn_SZn" = -31898.04   $ Sizing
 "HtCap_L_OfficeOpn_WZn" = -29025.42   $ Sizing
 "HtCap_L_OfficeSm_CZn" = -2368.914   $ Sizing
 "HtCap_L_OfficeSm_EZn" = -21838.61   $ Sizing
 "HtCap_L_OfficeSm_NZn" = -21304.31   $ Sizing
 "HtCap_L_OfficeSm_SZn" = -24147.64   $ Sizing
 "HtCap_L_OfficeSm_WZn" = -21659.07   $ Sizing
 "HtCap_L_Restrm_CZn" = -2633.719   $ Sizing
 "HtCap_L_StorSm_CZn" = -6396.226   $ Sizing
 "HtCap_M_Break_CZn" = -8994.522   $ Sizing
 "HtCap_M_Conf_CZn" = -11698.01   $ Sizing
 "HtCap_M_CopyRm_CZn" = -3669.359   $ Sizing
 "HtCap_M_Cordr_CZn" = -9499.301   $ Sizing
 "HtCap_M_Cordr_EZn" = -5529.473   $ Sizing
 "HtCap_M_Cordr_NZn" = -6177.399   $ Sizing
 "HtCap_M_Cordr_SZn" = -4715.528   $ Sizing
 "HtCap_M_Cordr_WZn" = -5154.643   $ Sizing
 "HtCap_M_LobWait_CZn" = -9266.689   $ Sizing
 "HtCap_M_MechElec_CZn" = -2183.493   $ Sizing
 "HtCap_M_OfficeOpn_CZn" = -20723.21   $ Sizing
 "HtCap_M_OfficeOpn_EZn" = -31358.92   $ Sizing
 "HtCap_M_OfficeOpn_NZn" = -25101.67   $ Sizing
 "HtCap_M_OfficeOpn_SZn" = -35103.29   $ Sizing
 "HtCap_M_OfficeOpn_WZn" = -30739.7   $ Sizing
 "HtCap_M_OfficeSm_CZn" = -2755.646   $ Sizing
 "HtCap_M_OfficeSm_EZn" = -23235.92   $ Sizing
 "HtCap_M_OfficeSm_NZn" = -22366.07   $ Sizing
 "HtCap_M_OfficeSm_SZn" = -26541.31   $ Sizing
 "HtCap_M_OfficeSm_WZn" = -23030.1   $ Sizing
 "HtCap_M_Restrm_CZn" = -3713.422   $ Sizing
 "HtCap_M_StorSm_CZn" = -6534.469   $ Sizing
 "HtCap_T_Break_CZn" = -9148.762   $ Sizing
 "HtCap_T_Conf_CZn" = -11898.61   $ Sizing
 "HtCap_T_CopyRm_CZn" = -4012.101   $ Sizing
 "HtCap_T_Cordr_CZn" = -9626.205   $ Sizing
 "HtCap_T_Cordr_EZn" = -4806.481   $ Sizing
 "HtCap_T_Cordr_NZn" = -6006.184   $ Sizing
 "HtCap_T_Cordr_SZn" = -4698.002   $ Sizing
 "HtCap_T_Cordr_WZn" = -4394.655   $ Sizing
 "HtCap_T_LobWait_CZn" = -10163.07   $ Sizing
 "HtCap_T_MechElec_CZn" = -5069.752   $ Sizing
 "HtCap_T_OfficeOpn_CZn" = -20292.57   $ Sizing
 "HtCap_T_OfficeOpn_EZn" = -29597.44   $ Sizing
 "HtCap_T_OfficeOpn_NZn" = -22950.33   $ Sizing
 "HtCap_T_OfficeOpn_SZn" = -35676.09   $ Sizing
 "HtCap_T_OfficeOpn_WZn" = -29085.16   $ Sizing
 "HtCap_T_OfficeSm_CZn" = -2675.706   $ Sizing
 "HtCap_T_OfficeSm_EZn" = -22399.16   $ Sizing
 "HtCap_T_OfficeSm_NZn" = -21280.35   $ Sizing
 "HtCap_T_OfficeSm_SZn" = -27502.46   $ Sizing
 "HtCap_T_OfficeSm_WZn" = -22252.2   $ Sizing
 "HtCap_T_Restrm_CZn" = -2885.436   $ Sizing
 "HtCap_T_StorSm_CZn" = -5687.65   $ Sizing
 "LpFlo_BlrPrimLoop" = 208.0685   $ Sizing
 "LpFlo_CircLp_Hw_L" = 19.64863   $ Sizing
 "LpFlo_CircLp_Hw_M" = 167.8352   $ Sizing
 "LpFlo_CircLp_Hw_T" = 20.58474   $ Sizing
 "SUtime_Boiler1" = 0.083   $ Sizing
 "SUtime_Boiler2" = 0.083   $ Sizing
..

##include Templates\OfL_DX_MZ.inp
END ..
COMPUTE ..
STOP ..
