INPUT ..

##fileprefix C:\Users\jglasskatz\MASControl3\
##set1 IsSizing FALSE
##set1 CoolType DX
##set1 HeatType FURNACE
##set1 EU_HrRepVar 0
##set1 BldgVint 1985
##set1 BldgLoc CZ01

 ##set1 mBFMult 1   $ IP Tech: RefgChg-NRes-Std

PARAMETER
 "AltFactor" = 1.00753   $ IP Non-Tech
 "BF_fFlow" = SpltAC2SpHiSEER_BF_fFlow   $ Msr (Multi)TechID: MsrNResSplitAC-45to55-S17
 "BF_fT" = SpltAC2SpHiSEER_BF_fT   $ Msr (Multi)TechID: MsrNResSplitAC-45to55-S17
 "BldgEconoFlag" = 1   $ IP Non-Tech
 "Break_EWSF" = 1   $ IP Non-Tech
 "Break_LWSF" = 1.1   $ IP Non-Tech
 "CDD_DBHi10" = 65   $ IP Non-Tech
 "CDD_DBHi7" = 68   $ IP Non-Tech
 "CDD_DBHi8" = 66   $ IP Non-Tech
 "CDD_DBHi9" = 77   $ IP Non-Tech
 "CDD_DBRange10" = 17   $ IP Non-Tech
 "CDD_DBRange7" = 11   $ IP Non-Tech
 "CDD_DBRange8" = 10   $ IP Non-Tech
 "CDD_DBRange9" = 29   $ IP Non-Tech
 "CDD_Day10" = 15   $ IP Non-Tech
 "CDD_Day7" = 16   $ IP Non-Tech
 "CDD_Day8" = 20   $ IP Non-Tech
 "CDD_Day9" = 17   $ IP Non-Tech
 "CDD_HrHi10" = 12   $ IP Non-Tech
 "CDD_HrHi7" = 12   $ IP Non-Tech
 "CDD_HrHi8" = 13   $ IP Non-Tech
 "CDD_HrHi9" = 17   $ IP Non-Tech
 "CDD_HrLo10" = 6   $ IP Non-Tech
 "CDD_HrLo7" = 3   $ IP Non-Tech
 "CDD_HrLo8" = 8   $ IP Non-Tech
 "CDD_HrLo9" = 4   $ IP Non-Tech
 "CDD_WB10" = 57.53039551   $ IP Non-Tech
 "CDD_WB7" = 59.29250717   $ IP Non-Tech
 "CDD_WB8" = 60.75350189   $ IP Non-Tech
 "CDD_WB9" = 61.08643341   $ IP Non-Tech
 "CEIR_fPLR_Hot" = SpltAC2SpHiSEER_CEIR_fPLR_Hot   $ Msr (Multi)TechID: MsrNResSplitAC-45to55-S17
 "CEIR_fPLR_Mod" = SpltAC2SpHiSEER_CEIR_fPLR_Mod   $ Msr (Multi)TechID: MsrNResSplitAC-45to55-S17
 "CEIR_fPLR_Tem" = SpltAC2SpHiSEER_CEIR_fPLR_Tem   $ Msr (Multi)TechID: MsrNResSplitAC-45to55-S17
 "CLoss_fPLR_Hot" = SpltAC2SpHiSEER_CLoss_fPLR_Hot   $ Msr (Multi)TechID: MsrNResSplitAC-45to55-S17
 "CLoss_fPLR_Mod" = SpltAC2SpHiSEER_CLoss_fPLR_Mod   $ Msr (Multi)TechID: MsrNResSplitAC-45to55-S17
 "CLoss_fPLR_Tem" = SpltAC2SpHiSEER_CLoss_fPLR_Tem   $ Msr (Multi)TechID: MsrNResSplitAC-45to55-S17
 "COP47" = 0   $ Msr (Multi)TechID: MsrNResSplitAC-45to55-S17
 "CZ_Category" = Tem   $ IP Non-Tech
 "CapRange" = Any   $ Msr (Multi)TechID: MsrNResSplitAC-45to55-S17
 "CfmPerBtuh" = 0.03   $ Msr (Multi)TechID: MsrNResSplitAC-45to55-S17
 "ChwVintEconoFlag" = 1   $ IP Non-Tech
 "ClCap_fT" = SpltAC2SpHiSEER_ClCap_fT   $ Msr (Multi)TechID: MsrNResSplitAC-45to55-S17
 "ClSH_fT" = SpltAC2SpHiSEER_ClSH_fT   $ Msr (Multi)TechID: MsrNResSplitAC-45to55-S17
 "CoilBF" = 0.102   $ Msr (Multi)TechID: MsrNResSplitAC-45to55-S17
 "CondWPerBtuh" = 0   $ Msr (Multi)TechID: MsrNResSplitAC-45to55-S17
 "Conference_EWSF" = 1.1   $ IP Non-Tech
 "Conference_LWSF" = 1.4   $ IP Non-Tech
 "CoolSensCap" = 0.724   $ Msr (Multi)TechID: MsrNResSplitAC-45to55-S17
 "CoolSetT" = 45   $ IP Non-Tech
 "CoolType" = DX   $ IP Non-Tech
 "CoolingEIR" = 0.2225   $ Msr (Multi)TechID: MsrNResSplitAC-45to55-S17
 "CopyRoom_EWSF" = 1.65   $ IP Non-Tech
 "CopyRoom_LWSF" = 1.3   $ IP Non-Tech
 "CorridorStairway_EWSF" = 0.22   $ IP Non-Tech
 "CorridorStairway_LWSF" = 0.6   $ IP Non-Tech
 "CrnkEIR" = 0.002225   $ Msr (Multi)TechID: MsrNResSplitAC-45to55-S17
 "CrnkMaxT" = 50   $ Msr (Multi)TechID: MsrNResSplitAC-45to55-S17
 "DXType" = SplitSEER   $ Msr (Multi)TechID: MsrNResSplitAC-45to55-S17
 "DesCoolT" = 75   $ IP Non-Tech
 "DesHeatT" = 73   $ IP Non-Tech
 "EER" = 13.26   $ Msr (Multi)TechID: MsrNResSplitAC-45to55-S17
 "EIR_fT" = SpltAC2SpHiSEER_EIR_fT   $ Msr (Multi)TechID: MsrNResSplitAC-45to55-S17
 "EconoCtrl" = FIXED   $ Msr (Multi)TechID: MsrNResSplitAC-45to55-S17
 "EconoEnthLimit" = 28   $ IP Non-Tech
 "EconoTempLimit" = 70   $ IP Non-Tech
 "Elevation" = 203   $ IP Non-Tech
 "FanEirPlr" = TwoSpeedFan   $ Msr (Multi)TechID: MsrNResSplitAC-45to55-S17
 "FanWPerCfm" = 0.271   $ Msr (Multi)TechID: MsrNResSplitAC-45to55-S17
 "HDD_CloudAmt1" = 0   $ IP Non-Tech
 "HDD_DBHi1" = 53   $ IP Non-Tech
 "HDD_DBRange1" = 20   $ IP Non-Tech
 "HDD_Day1" = 15   $ IP Non-Tech
 "HDD_HrHi1" = 14   $ IP Non-Tech
 "HDD_HrLo1" = 6   $ IP Non-Tech
 "HDD_WB1" = 42.3   $ IP Non-Tech
 "HDD_WindSpd1" = 12.7   $ IP Non-Tech
 "HIR_fT" = 0   $ Msr (Multi)TechID: MsrNResSplitAC-45to55-S17
 "HSPF" = 0   $ Msr (Multi)TechID: MsrNResSplitAC-45to55-S17
 "HeatSrc" = FURNACE   $ IP Non-Tech
 "HeatSrcTU" = HEAT-PUMP   $ IP Non-Tech
 "HeatType" = GasFurn   $ IP Non-Tech
 "HeatTypeTU" = HEAT-PUMP   $ IP Non-Tech
 "HtCap_fT" = 0   $ Msr (Multi)TechID: MsrNResSplitAC-45to55-S17
 "HtCoolCapRatio" = 0   $ Msr (Multi)TechID: MsrNResSplitAC-45to55-S17
 "HtgEIR" = 0   $ Msr (Multi)TechID: MsrNResSplitAC-45to55-S17
 "IndoorFanMode" = CONTINUOUS   $ IP Non-Tech
 "KT_TransferAir" = No   $ IP Non-Tech
 "Latitude" = 40.8   $ IP Non-Tech
 "LobbyWaiting_EWSF" = 0.525   $ IP Non-Tech
 "LobbyWaiting_LWSF" = 1.3   $ IP Non-Tech
 "Longitude" = 124.2   $ IP Non-Tech
 "LowSpdCapRatio" = 0.686   $ Msr (Multi)TechID: MsrNResSplitAC-45to55-S17
 "LowSpdCfmRatio" = 0.739   $ Msr (Multi)TechID: MsrNResSplitAC-45to55-S17
 "MZFanMechEff" = 0.58   $ IP Non-Tech
 "MZHasRetFan" = FALSE   $ IP Non-Tech
 "MZ_RFanWPerCfm" = 0.37   $ IP Non-Tech
 "MZ_SFanWPerCfm" = 0.71   $ IP Non-Tech
 "MZ_SupFanStatic" = 2.25   $ IP Non-Tech
 "MaxOAFrac" = 1   $ Msr (Multi)TechID: MsrNResSplitAC-45to55-S17
 "MaxSupT_MZ" = 100   $ IP Non-Tech
 "MaxSupT_SZ" = 100   $ IP Non-Tech
 "MaxSupT_TU" = 90   $ IP Non-Tech
 "MechElecRoom_EWSF" = 0.22   $ IP Non-Tech
 "MechElecRoom_LWSF" = 0.7   $ IP Non-Tech
 "MinCfmPerSF" = 0.4   $ IP Non-Tech
 "MinSupT" = 55   $ IP Non-Tech
 "NumStages" = 2   $ Msr (Multi)TechID: MsrNResSplitAC-45to55-S17
 "OccCoolT" = 76   $ IP Non-Tech
 "OccHeatT" = 72   $ IP Non-Tech
 "OfficeOpen_EWSF" = 1.65   $ IP Non-Tech
 "OfficeOpen_LWSF" = 1.2   $ IP Non-Tech
 "OfficeSmall_EWSF" = 1.65   $ IP Non-Tech
 "OfficeSmall_LWSF" = 1.3   $ IP Non-Tech
 "PkgDxVintEconoFlag" = 0   $ IP Non-Tech
 "Restroom_EWSF" = 0.22   $ IP Non-Tech
 "Restroom_LWSF" = 0.6   $ IP Non-Tech
 "SEER" = 17   $ Msr (Multi)TechID: MsrNResSplitAC-45to55-S17
 "SZFanMechEff" = 0.58   $ IP Non-Tech
 "SZHasRetFan" = FALSE   $ IP Non-Tech
 "SZ_Is_2Spd" = FALSE   $ IP Non-Tech
 "SZ_SFanWPerCfm" = 0.46   $ IP Non-Tech
 "SZ_SupFanStatic" = 0.75   $ IP Non-Tech
 "Sector" = Any   $ Msr (Multi)TechID: MsrNResSplitAC-45to55-S17
 "StorageSmlCond_EWSF" = 0.22   $ IP Non-Tech
 "StorageSmlCond_LWSF" = 0.6   $ IP Non-Tech
 "SubType" = AC   $ Msr (Multi)TechID: MsrNResSplitAC-45to55-S17
 "T24GlzTbl" = CZTbl   $ IP Non-Tech
 "TermUnitFanMechEff" = 1   $ IP Non-Tech
 "TermUnitFanMode" = INTERMITTENT   $ IP Non-Tech
 "TotCoolCap" = 58805   $ Msr (Multi)TechID: MsrNResSplitAC-45to55-S17
 "TwrSetpt" = 80   $ IP Non-Tech
 "UnocCoolT" = 86   $ IP Non-Tech
 "UnocHeatT" = 62   $ IP Non-Tech
 "UseEconoVintApplic" = FALSE   $ Msr (Multi)TechID: MsrNResSplitAC-45to55-S17
 "WlhpVintEconoFlag" = 0   $ IP Non-Tech
 "DuctDT" = 1   $ IP Tech: ComDuctInsul-1
 "DuctAirLoss" = 0   $ IP Tech: ComDuctLeak-0
 "DuctLossOAFrac" = 0   $ IP Tech: ComDuctLeak-0
 "ComRoofInsCalc" = FromUo   $ IP Tech: ComRoofIns-Hvy-0.06
 "ComRoofInsR" = -999   $ IP Tech: ComRoofIns-Hvy-0.06
 "ComRoofUo" = 0.06   $ IP Tech: ComRoofIns-Hvy-0.06
 "ComEWInsCalc" = FromUo   $ IP Tech: ComWallIns-MFrm-0.14
 "ComEWInsR" = -999   $ IP Tech: ComWallIns-MFrm-0.14
 "ComEWUo" = 0.14   $ IP Tech: ComWallIns-MFrm-0.14
 "ComN_SHGC" = 0.82   $ IP Tech: NResWin-ComN-1.23-0.82
 "ComN_UFactor" = 1.23   $ IP Tech: NResWin-ComN-1.23-0.82
 "ComN_VisTrans" = 0.9   $ IP Tech: NResWin-ComN-1.23-0.82
 "ComN_WinCode" = G1000   $ IP Tech: NResWin-ComN-1.23-0.82
 "ComN_WinFrmFrac" = 0.17   $ IP Tech: NResWin-ComN-1.23-0.82
 "ComN_WinFrmU" = 1   $ IP Tech: NResWin-ComN-1.23-0.82
 "ComO_SHGC" = 0.82   $ IP Tech: NResWin-ComO-1.23-0.82
 "ComO_UFactor" = 1.23   $ IP Tech: NResWin-ComO-1.23-0.82
 "ComO_VisTrans" = 0.9   $ IP Tech: NResWin-ComO-1.23-0.82
 "ComO_WinCode" = G1000   $ IP Tech: NResWin-ComO-1.23-0.82
 "ComO_WinFrmFrac" = 0.17   $ IP Tech: NResWin-ComO-1.23-0.82
 "ComO_WinFrmU" = 1   $ IP Tech: NResWin-ComO-1.23-0.82
 "LtgMsrApplic" = ALL   $ IP Tech: NonResLtgRefPre
 "LtgSav_CFL" = 0   $ IP Tech: NonResLtgRefPre
 "LtgSav_EX" = 0   $ IP Tech: NonResLtgRefPre
 "LtgSav_HB" = 0   $ IP Tech: NonResLtgRefPre
 "LtgSav_LF" = 0   $ IP Tech: NonResLtgRefPre
 "LtgSav_SP" = 0   $ IP Tech: NonResLtgRefPre
 "CEIR_fPLR" = PSZ65to135_CEIR_fPLR   $ IP Tech: PkgAC1SpH-65to135-E10
 "CLoss_fPLR" = PSZ65to135_CLoss_fPLR   $ IP Tech: PkgAC1SpH-65to135-E10
 "COP" = -1   $ IP Tech: PkgAC1SpH-65to135-E10
 "HtgFuel" = Gas   $ IP Tech: PkgAC1SpH-65to135-E10
 "IEER" = 11.87   $ IP Tech: PkgAC1SpH-65to135-E10
 "NominalCap" = 15   $ IP Tech: PkgAC1SpH-65to135-E10
 "RatedEER" = 10   $ IP Tech: PkgAC1SpH-65to135-E10
 "RatedSupMtrClass" = HiEff   $ IP Tech: PkgAC1SpH-65to135-E10
 "SizeRange" = 65to135   $ IP Tech: PkgAC1SpH-65to135-E10
 "SupMotEff" = 0.84   $ IP Tech: PkgAC1SpH-65to135-E10
 "Tier" = 0   $ IP Tech: PkgAC1SpH-65to135-E10
 "FanPwrMult" = 1   $ IP Tech: PkgFurn-0.80AFUE
 "FurnAFUE" = 0.8   $ IP Tech: PkgFurn-0.80AFUE
 "FurnEt" = 0.82   $ IP Tech: PkgFurn-0.80AFUE
 "FurnaceAuxKW" = 0.1   $ IP Tech: PkgFurn-0.80AFUE
 "HIR_fPLR" = Furnace-HIR-fPLR   $ IP Tech: PkgFurn-0.80AFUE
 "VSM" = FALSE   $ IP Tech: PkgFurn-0.80AFUE
 "BFMult" = 1   $ IP Tech: RefgChg-NRes-Std
 "CoolEirMult" = 1   $ IP Tech: RefgChg-NRes-Std
 "SensCoolCapMult" = 1   $ IP Tech: RefgChg-NRes-Std
 "TotCoolCapMult" = 1   $ IP Tech: RefgChg-NRes-Std
 "AltAdjFactor" = 1.007532   $ Sizing
 "CAssFlo_L_Break_CZn" = 365.958   $ Sizing
 "CAssFlo_L_Conf_CZn" = 433.6856   $ Sizing
 "CAssFlo_L_CopyRm_CZn" = 112.5362   $ Sizing
 "CAssFlo_L_Cordr_CZn" = 565.4379   $ Sizing
 "CAssFlo_L_Cordr_EZn" = 290.2194   $ Sizing
 "CAssFlo_L_Cordr_NZn" = 123.8896   $ Sizing
 "CAssFlo_L_Cordr_SZn" = 318.7096   $ Sizing
 "CAssFlo_L_Cordr_WZn" = 282.2592   $ Sizing
 "CAssFlo_L_LobWait_CZn" = 359.2128   $ Sizing
 "CAssFlo_L_MechElec_CZn" = 134.1697   $ Sizing
 "CAssFlo_L_OfficeOpn_CZn" = 1755.517   $ Sizing
 "CAssFlo_L_OfficeOpn_EZn" = 2342.543   $ Sizing
 "CAssFlo_L_OfficeOpn_NZn" = 874.2047   $ Sizing
 "CAssFlo_L_OfficeOpn_SZn" = 2476.443   $ Sizing
 "CAssFlo_L_OfficeOpn_WZn" = 2262.463   $ Sizing
 "CAssFlo_L_OfficeSm_CZn" = 222.0957   $ Sizing
 "CAssFlo_L_OfficeSm_EZn" = 1718.431   $ Sizing
 "CAssFlo_L_OfficeSm_NZn" = 537.1083   $ Sizing
 "CAssFlo_L_OfficeSm_SZn" = 1858.849   $ Sizing
 "CAssFlo_L_OfficeSm_WZn" = 1686.845   $ Sizing
 "CAssFlo_L_Restrm_CZn" = 211.8611   $ Sizing
 "CAssFlo_L_StorSm_CZn" = 348.8927   $ Sizing
 "CAssFlo_M_Break_CZn" = 397.2617   $ Sizing
 "CAssFlo_M_Conf_CZn" = 482.9453   $ Sizing
 "CAssFlo_M_CopyRm_CZn" = 139.6452   $ Sizing
 "CAssFlo_M_Cordr_CZn" = 802.8414   $ Sizing
 "CAssFlo_M_Cordr_EZn" = 346.9429   $ Sizing
 "CAssFlo_M_Cordr_NZn" = 139.3313   $ Sizing
 "CAssFlo_M_Cordr_SZn" = 380.4424   $ Sizing
 "CAssFlo_M_Cordr_WZn" = 323.3845   $ Sizing
 "CAssFlo_M_LobWait_CZn" = 464.3622   $ Sizing
 "CAssFlo_M_MechElec_CZn" = 145.0008   $ Sizing
 "CAssFlo_M_OfficeOpn_CZn" = 2040.289   $ Sizing
 "CAssFlo_M_OfficeOpn_EZn" = 2521.316   $ Sizing
 "CAssFlo_M_OfficeOpn_NZn" = 1018.143   $ Sizing
 "CAssFlo_M_OfficeOpn_SZn" = 2763.536   $ Sizing
 "CAssFlo_M_OfficeOpn_WZn" = 2423.576   $ Sizing
 "CAssFlo_M_OfficeSm_CZn" = 282.1363   $ Sizing
 "CAssFlo_M_OfficeSm_EZn" = 1839.897   $ Sizing
 "CAssFlo_M_OfficeSm_NZn" = 637.1458   $ Sizing
 "CAssFlo_M_OfficeSm_SZn" = 2060.233   $ Sizing
 "CAssFlo_M_OfficeSm_WZn" = 1797.558   $ Sizing
 "CAssFlo_M_Restrm_CZn" = 211.8611   $ Sizing
 "CAssFlo_M_StorSm_CZn" = 380.4134   $ Sizing
 "CAssFlo_T_Break_CZn" = 376.0811   $ Sizing
 "CAssFlo_T_Conf_CZn" = 459.8096   $ Sizing
 "CAssFlo_T_CopyRm_CZn" = 132.1964   $ Sizing
 "CAssFlo_T_Cordr_CZn" = 704.2203   $ Sizing
 "CAssFlo_T_Cordr_EZn" = 306.447   $ Sizing
 "CAssFlo_T_Cordr_NZn" = 123.3058   $ Sizing
 "CAssFlo_T_Cordr_SZn" = 342.5245   $ Sizing
 "CAssFlo_T_Cordr_WZn" = 288.3752   $ Sizing
 "CAssFlo_T_LobWait_CZn" = 427.2757   $ Sizing
 "CAssFlo_T_MechElec_CZn" = 151.6997   $ Sizing
 "CAssFlo_T_OfficeOpn_CZn" = 1882.652   $ Sizing
 "CAssFlo_T_OfficeOpn_EZn" = 2301.661   $ Sizing
 "CAssFlo_T_OfficeOpn_NZn" = 948.54   $ Sizing
 "CAssFlo_T_OfficeOpn_SZn" = 2555.362   $ Sizing
 "CAssFlo_T_OfficeOpn_WZn" = 2215.709   $ Sizing
 "CAssFlo_T_OfficeSm_CZn" = 264.5718   $ Sizing
 "CAssFlo_T_OfficeSm_EZn" = 1728.046   $ Sizing
 "CAssFlo_T_OfficeSm_NZn" = 606.2609   $ Sizing
 "CAssFlo_T_OfficeSm_SZn" = 1953.589   $ Sizing
 "CAssFlo_T_OfficeSm_WZn" = 1683.618   $ Sizing
 "CAssFlo_T_Restrm_CZn" = 211.8611   $ Sizing
 "CAssFlo_T_StorSm_CZn" = 334.0894   $ Sizing
 "CHRtFlo_Sys_L_Break_C" = 365.958   $ Sizing
 "CHRtFlo_Sys_L_Conf_C" = 433.6856   $ Sizing
 "CHRtFlo_Sys_L_CopyRm_C" = 112.5362   $ Sizing
 "CHRtFlo_Sys_L_Cordr_C" = 565.4379   $ Sizing
 "CHRtFlo_Sys_L_Cordr_E" = 290.2194   $ Sizing
 "CHRtFlo_Sys_L_Cordr_N" = 123.8896   $ Sizing
 "CHRtFlo_Sys_L_Cordr_S" = 318.7096   $ Sizing
 "CHRtFlo_Sys_L_Cordr_W" = 282.2592   $ Sizing
 "CHRtFlo_Sys_L_LobWait_C" = 359.2128   $ Sizing
 "CHRtFlo_Sys_L_MechElec_C" = 134.1697   $ Sizing
 "CHRtFlo_Sys_L_OfficeOpn_C" = 1755.517   $ Sizing
 "CHRtFlo_Sys_L_OfficeOpn_E" = 2342.543   $ Sizing
 "CHRtFlo_Sys_L_OfficeOpn_N" = 874.2047   $ Sizing
 "CHRtFlo_Sys_L_OfficeOpn_S" = 2476.443   $ Sizing
 "CHRtFlo_Sys_L_OfficeOpn_W" = 2262.463   $ Sizing
 "CHRtFlo_Sys_L_OfficeSm_C" = 222.0957   $ Sizing
 "CHRtFlo_Sys_L_OfficeSm_E" = 1718.431   $ Sizing
 "CHRtFlo_Sys_L_OfficeSm_N" = 537.1083   $ Sizing
 "CHRtFlo_Sys_L_OfficeSm_S" = 1858.849   $ Sizing
 "CHRtFlo_Sys_L_OfficeSm_W" = 1686.845   $ Sizing
 "CHRtFlo_Sys_L_Restrm_C" = 211.8611   $ Sizing
 "CHRtFlo_Sys_L_StorSm_C" = 348.8927   $ Sizing
 "CHRtFlo_Sys_M_Break_C" = 3178.094   $ Sizing
 "CHRtFlo_Sys_M_Conf_C" = 3863.562   $ Sizing
 "CHRtFlo_Sys_M_CopyRm_C" = 1117.162   $ Sizing
 "CHRtFlo_Sys_M_Cordr_C" = 6422.731   $ Sizing
 "CHRtFlo_Sys_M_Cordr_E" = 2775.543   $ Sizing
 "CHRtFlo_Sys_M_Cordr_N" = 1114.65   $ Sizing
 "CHRtFlo_Sys_M_Cordr_S" = 3043.539   $ Sizing
 "CHRtFlo_Sys_M_Cordr_W" = 2587.076   $ Sizing
 "CHRtFlo_Sys_M_LobWait_C" = 3714.897   $ Sizing
 "CHRtFlo_Sys_M_MechElec_C" = 1160.006   $ Sizing
 "CHRtFlo_Sys_M_OfficeOpn_C" = 16322.31   $ Sizing
 "CHRtFlo_Sys_M_OfficeOpn_E" = 20170.53   $ Sizing
 "CHRtFlo_Sys_M_OfficeOpn_N" = 8145.14   $ Sizing
 "CHRtFlo_Sys_M_OfficeOpn_S" = 22108.29   $ Sizing
 "CHRtFlo_Sys_M_OfficeOpn_W" = 19388.61   $ Sizing
 "CHRtFlo_Sys_M_OfficeSm_C" = 2257.09   $ Sizing
 "CHRtFlo_Sys_M_OfficeSm_E" = 14719.18   $ Sizing
 "CHRtFlo_Sys_M_OfficeSm_N" = 5097.167   $ Sizing
 "CHRtFlo_Sys_M_OfficeSm_S" = 16481.86   $ Sizing
 "CHRtFlo_Sys_M_OfficeSm_W" = 14380.47   $ Sizing
 "CHRtFlo_Sys_M_Restrm_C" = 1694.889   $ Sizing
 "CHRtFlo_Sys_M_StorSm_C" = 3043.307   $ Sizing
 "CHRtFlo_Sys_T_Break_C" = 376.0811   $ Sizing
 "CHRtFlo_Sys_T_Conf_C" = 459.8096   $ Sizing
 "CHRtFlo_Sys_T_CopyRm_C" = 132.1964   $ Sizing
 "CHRtFlo_Sys_T_Cordr_C" = 704.2203   $ Sizing
 "CHRtFlo_Sys_T_Cordr_E" = 306.447   $ Sizing
 "CHRtFlo_Sys_T_Cordr_N" = 123.3058   $ Sizing
 "CHRtFlo_Sys_T_Cordr_S" = 342.5245   $ Sizing
 "CHRtFlo_Sys_T_Cordr_W" = 288.3752   $ Sizing
 "CHRtFlo_Sys_T_LobWait_C" = 427.2757   $ Sizing
 "CHRtFlo_Sys_T_MechElec_C" = 151.6997   $ Sizing
 "CHRtFlo_Sys_T_OfficeOpn_C" = 1882.652   $ Sizing
 "CHRtFlo_Sys_T_OfficeOpn_E" = 2301.661   $ Sizing
 "CHRtFlo_Sys_T_OfficeOpn_N" = 948.54   $ Sizing
 "CHRtFlo_Sys_T_OfficeOpn_S" = 2555.362   $ Sizing
 "CHRtFlo_Sys_T_OfficeOpn_W" = 2215.709   $ Sizing
 "CHRtFlo_Sys_T_OfficeSm_C" = 264.5718   $ Sizing
 "CHRtFlo_Sys_T_OfficeSm_E" = 1728.046   $ Sizing
 "CHRtFlo_Sys_T_OfficeSm_N" = 606.2609   $ Sizing
 "CHRtFlo_Sys_T_OfficeSm_S" = 1953.589   $ Sizing
 "CHRtFlo_Sys_T_OfficeSm_W" = 1683.618   $ Sizing
 "CHRtFlo_Sys_T_Restrm_C" = 211.8611   $ Sizing
 "CHRtFlo_Sys_T_StorSm_C" = 334.0894   $ Sizing
 "CRtdFlo_Sys_L_Break_C" = 365.958   $ Sizing
 "CRtdFlo_Sys_L_Conf_C" = 433.6856   $ Sizing
 "CRtdFlo_Sys_L_CopyRm_C" = 112.5362   $ Sizing
 "CRtdFlo_Sys_L_Cordr_C" = 565.4379   $ Sizing
 "CRtdFlo_Sys_L_Cordr_E" = 290.2194   $ Sizing
 "CRtdFlo_Sys_L_Cordr_N" = 123.8896   $ Sizing
 "CRtdFlo_Sys_L_Cordr_S" = 318.7096   $ Sizing
 "CRtdFlo_Sys_L_Cordr_W" = 282.2592   $ Sizing
 "CRtdFlo_Sys_L_LobWait_C" = 359.2128   $ Sizing
 "CRtdFlo_Sys_L_MechElec_C" = 134.1697   $ Sizing
 "CRtdFlo_Sys_L_OfficeOpn_C" = 1755.517   $ Sizing
 "CRtdFlo_Sys_L_OfficeOpn_E" = 2342.543   $ Sizing
 "CRtdFlo_Sys_L_OfficeOpn_N" = 874.2047   $ Sizing
 "CRtdFlo_Sys_L_OfficeOpn_S" = 2476.443   $ Sizing
 "CRtdFlo_Sys_L_OfficeOpn_W" = 2262.463   $ Sizing
 "CRtdFlo_Sys_L_OfficeSm_C" = 222.0957   $ Sizing
 "CRtdFlo_Sys_L_OfficeSm_E" = 1718.431   $ Sizing
 "CRtdFlo_Sys_L_OfficeSm_N" = 537.1083   $ Sizing
 "CRtdFlo_Sys_L_OfficeSm_S" = 1858.849   $ Sizing
 "CRtdFlo_Sys_L_OfficeSm_W" = 1686.845   $ Sizing
 "CRtdFlo_Sys_L_Restrm_C" = 211.8611   $ Sizing
 "CRtdFlo_Sys_L_StorSm_C" = 348.8927   $ Sizing
 "CRtdFlo_Sys_M_Break_C" = 3178.094   $ Sizing
 "CRtdFlo_Sys_M_Conf_C" = 3863.562   $ Sizing
 "CRtdFlo_Sys_M_CopyRm_C" = 1117.162   $ Sizing
 "CRtdFlo_Sys_M_Cordr_C" = 6422.731   $ Sizing
 "CRtdFlo_Sys_M_Cordr_E" = 2775.543   $ Sizing
 "CRtdFlo_Sys_M_Cordr_N" = 1114.65   $ Sizing
 "CRtdFlo_Sys_M_Cordr_S" = 3043.539   $ Sizing
 "CRtdFlo_Sys_M_Cordr_W" = 2587.076   $ Sizing
 "CRtdFlo_Sys_M_LobWait_C" = 3714.897   $ Sizing
 "CRtdFlo_Sys_M_MechElec_C" = 1160.006   $ Sizing
 "CRtdFlo_Sys_M_OfficeOpn_C" = 16322.31   $ Sizing
 "CRtdFlo_Sys_M_OfficeOpn_E" = 20170.53   $ Sizing
 "CRtdFlo_Sys_M_OfficeOpn_N" = 8145.14   $ Sizing
 "CRtdFlo_Sys_M_OfficeOpn_S" = 22108.29   $ Sizing
 "CRtdFlo_Sys_M_OfficeOpn_W" = 19388.61   $ Sizing
 "CRtdFlo_Sys_M_OfficeSm_C" = 2257.09   $ Sizing
 "CRtdFlo_Sys_M_OfficeSm_E" = 14719.18   $ Sizing
 "CRtdFlo_Sys_M_OfficeSm_N" = 5097.167   $ Sizing
 "CRtdFlo_Sys_M_OfficeSm_S" = 16481.86   $ Sizing
 "CRtdFlo_Sys_M_OfficeSm_W" = 14380.47   $ Sizing
 "CRtdFlo_Sys_M_Restrm_C" = 1694.889   $ Sizing
 "CRtdFlo_Sys_M_StorSm_C" = 3043.307   $ Sizing
 "CRtdFlo_Sys_T_Break_C" = 376.0811   $ Sizing
 "CRtdFlo_Sys_T_Conf_C" = 459.8096   $ Sizing
 "CRtdFlo_Sys_T_CopyRm_C" = 132.1964   $ Sizing
 "CRtdFlo_Sys_T_Cordr_C" = 704.2203   $ Sizing
 "CRtdFlo_Sys_T_Cordr_E" = 306.447   $ Sizing
 "CRtdFlo_Sys_T_Cordr_N" = 123.3058   $ Sizing
 "CRtdFlo_Sys_T_Cordr_S" = 342.5245   $ Sizing
 "CRtdFlo_Sys_T_Cordr_W" = 288.3752   $ Sizing
 "CRtdFlo_Sys_T_LobWait_C" = 427.2757   $ Sizing
 "CRtdFlo_Sys_T_MechElec_C" = 151.6997   $ Sizing
 "CRtdFlo_Sys_T_OfficeOpn_C" = 1882.652   $ Sizing
 "CRtdFlo_Sys_T_OfficeOpn_E" = 2301.661   $ Sizing
 "CRtdFlo_Sys_T_OfficeOpn_N" = 948.54   $ Sizing
 "CRtdFlo_Sys_T_OfficeOpn_S" = 2555.362   $ Sizing
 "CRtdFlo_Sys_T_OfficeOpn_W" = 2215.709   $ Sizing
 "CRtdFlo_Sys_T_OfficeSm_C" = 264.5718   $ Sizing
 "CRtdFlo_Sys_T_OfficeSm_E" = 1728.046   $ Sizing
 "CRtdFlo_Sys_T_OfficeSm_N" = 606.2609   $ Sizing
 "CRtdFlo_Sys_T_OfficeSm_S" = 1953.589   $ Sizing
 "CRtdFlo_Sys_T_OfficeSm_W" = 1683.618   $ Sizing
 "CRtdFlo_Sys_T_Restrm_C" = 211.8611   $ Sizing
 "CRtdFlo_Sys_T_StorSm_C" = 334.0894   $ Sizing
 "CSupFlo_Sys_L_Break_C" = 365.958   $ Sizing
 "CSupFlo_Sys_L_Conf_C" = 433.6856   $ Sizing
 "CSupFlo_Sys_L_CopyRm_C" = 112.5362   $ Sizing
 "CSupFlo_Sys_L_Cordr_C" = 565.4379   $ Sizing
 "CSupFlo_Sys_L_Cordr_E" = 290.2194   $ Sizing
 "CSupFlo_Sys_L_Cordr_N" = 123.8896   $ Sizing
 "CSupFlo_Sys_L_Cordr_S" = 318.7096   $ Sizing
 "CSupFlo_Sys_L_Cordr_W" = 282.2592   $ Sizing
 "CSupFlo_Sys_L_LobWait_C" = 359.2128   $ Sizing
 "CSupFlo_Sys_L_MechElec_C" = 134.1697   $ Sizing
 "CSupFlo_Sys_L_OfficeOpn_C" = 1755.517   $ Sizing
 "CSupFlo_Sys_L_OfficeOpn_E" = 2342.543   $ Sizing
 "CSupFlo_Sys_L_OfficeOpn_N" = 874.2047   $ Sizing
 "CSupFlo_Sys_L_OfficeOpn_S" = 2476.443   $ Sizing
 "CSupFlo_Sys_L_OfficeOpn_W" = 2262.463   $ Sizing
 "CSupFlo_Sys_L_OfficeSm_C" = 222.0957   $ Sizing
 "CSupFlo_Sys_L_OfficeSm_E" = 1718.431   $ Sizing
 "CSupFlo_Sys_L_OfficeSm_N" = 537.1083   $ Sizing
 "CSupFlo_Sys_L_OfficeSm_S" = 1858.849   $ Sizing
 "CSupFlo_Sys_L_OfficeSm_W" = 1686.845   $ Sizing
 "CSupFlo_Sys_L_Restrm_C" = 211.8611   $ Sizing
 "CSupFlo_Sys_L_StorSm_C" = 348.8927   $ Sizing
 "CSupFlo_Sys_M_Break_C" = 3178.094   $ Sizing
 "CSupFlo_Sys_M_Conf_C" = 3863.562   $ Sizing
 "CSupFlo_Sys_M_CopyRm_C" = 1117.162   $ Sizing
 "CSupFlo_Sys_M_Cordr_C" = 6422.731   $ Sizing
 "CSupFlo_Sys_M_Cordr_E" = 2775.543   $ Sizing
 "CSupFlo_Sys_M_Cordr_N" = 1114.65   $ Sizing
 "CSupFlo_Sys_M_Cordr_S" = 3043.539   $ Sizing
 "CSupFlo_Sys_M_Cordr_W" = 2587.076   $ Sizing
 "CSupFlo_Sys_M_LobWait_C" = 3714.897   $ Sizing
 "CSupFlo_Sys_M_MechElec_C" = 1160.006   $ Sizing
 "CSupFlo_Sys_M_OfficeOpn_C" = 16322.31   $ Sizing
 "CSupFlo_Sys_M_OfficeOpn_E" = 20170.53   $ Sizing
 "CSupFlo_Sys_M_OfficeOpn_N" = 8145.14   $ Sizing
 "CSupFlo_Sys_M_OfficeOpn_S" = 22108.29   $ Sizing
 "CSupFlo_Sys_M_OfficeOpn_W" = 19388.61   $ Sizing
 "CSupFlo_Sys_M_OfficeSm_C" = 2257.09   $ Sizing
 "CSupFlo_Sys_M_OfficeSm_E" = 14719.18   $ Sizing
 "CSupFlo_Sys_M_OfficeSm_N" = 5097.167   $ Sizing
 "CSupFlo_Sys_M_OfficeSm_S" = 16481.86   $ Sizing
 "CSupFlo_Sys_M_OfficeSm_W" = 14380.47   $ Sizing
 "CSupFlo_Sys_M_Restrm_C" = 1694.889   $ Sizing
 "CSupFlo_Sys_M_StorSm_C" = 3043.307   $ Sizing
 "CSupFlo_Sys_T_Break_C" = 376.0811   $ Sizing
 "CSupFlo_Sys_T_Conf_C" = 459.8096   $ Sizing
 "CSupFlo_Sys_T_CopyRm_C" = 132.1964   $ Sizing
 "CSupFlo_Sys_T_Cordr_C" = 704.2203   $ Sizing
 "CSupFlo_Sys_T_Cordr_E" = 306.447   $ Sizing
 "CSupFlo_Sys_T_Cordr_N" = 123.3058   $ Sizing
 "CSupFlo_Sys_T_Cordr_S" = 342.5245   $ Sizing
 "CSupFlo_Sys_T_Cordr_W" = 288.3752   $ Sizing
 "CSupFlo_Sys_T_LobWait_C" = 427.2757   $ Sizing
 "CSupFlo_Sys_T_MechElec_C" = 151.6997   $ Sizing
 "CSupFlo_Sys_T_OfficeOpn_C" = 1882.652   $ Sizing
 "CSupFlo_Sys_T_OfficeOpn_E" = 2301.661   $ Sizing
 "CSupFlo_Sys_T_OfficeOpn_N" = 948.54   $ Sizing
 "CSupFlo_Sys_T_OfficeOpn_S" = 2555.362   $ Sizing
 "CSupFlo_Sys_T_OfficeOpn_W" = 2215.709   $ Sizing
 "CSupFlo_Sys_T_OfficeSm_C" = 264.5718   $ Sizing
 "CSupFlo_Sys_T_OfficeSm_E" = 1728.046   $ Sizing
 "CSupFlo_Sys_T_OfficeSm_N" = 606.2609   $ Sizing
 "CSupFlo_Sys_T_OfficeSm_S" = 1953.589   $ Sizing
 "CSupFlo_Sys_T_OfficeSm_W" = 1683.618   $ Sizing
 "CSupFlo_Sys_T_Restrm_C" = 211.8611   $ Sizing
 "CSupFlo_Sys_T_StorSm_C" = 334.0894   $ Sizing
 "ClCap_Sys_L_Break_C" = 12453.33   $ Sizing
 "ClCap_Sys_L_Conf_C" = 18782.99   $ Sizing
 "ClCap_Sys_L_CopyRm_C" = 3829.539   $ Sizing
 "ClCap_Sys_L_Cordr_C" = 19241.51   $ Sizing
 "ClCap_Sys_L_Cordr_E" = 9875.992   $ Sizing
 "ClCap_Sys_L_Cordr_N" = 4215.888   $ Sizing
 "ClCap_Sys_L_Cordr_S" = 10845.5   $ Sizing
 "ClCap_Sys_L_Cordr_W" = 9605.11   $ Sizing
 "ClCap_Sys_L_LobWait_C" = 12223.8   $ Sizing
 "ClCap_Sys_L_MechElec_C" = 4565.713   $ Sizing
 "ClCap_Sys_L_OfficeOpn_C" = 59739.18   $ Sizing
 "ClCap_Sys_L_OfficeOpn_E" = 79715.34   $ Sizing
 "ClCap_Sys_L_OfficeOpn_N" = 29748.66   $ Sizing
 "ClCap_Sys_L_OfficeOpn_S" = 84271.88   $ Sizing
 "ClCap_Sys_L_OfficeOpn_W" = 76990.25   $ Sizing
 "ClCap_Sys_L_OfficeSm_C" = 7557.783   $ Sizing
 "ClCap_Sys_L_OfficeSm_E" = 58477.19   $ Sizing
 "ClCap_Sys_L_OfficeSm_N" = 18277.47   $ Sizing
 "ClCap_Sys_L_OfficeSm_S" = 63255.54   $ Sizing
 "ClCap_Sys_L_OfficeSm_W" = 57402.34   $ Sizing
 "ClCap_Sys_L_Restrm_C" = 7209.506   $ Sizing
 "ClCap_Sys_L_StorSm_C" = 11872.61   $ Sizing
 "ClCap_Sys_M_Break_C" = 108148.6   $ Sizing
 "ClCap_Sys_M_Conf_C" = 167331.5   $ Sizing
 "ClCap_Sys_M_CopyRm_C" = 38016.35   $ Sizing
 "ClCap_Sys_M_Cordr_C" = 218561.7   $ Sizing
 "ClCap_Sys_M_Cordr_E" = 94450.09   $ Sizing
 "ClCap_Sys_M_Cordr_N" = 37930.89   $ Sizing
 "ClCap_Sys_M_Cordr_S" = 103569.8   $ Sizing
 "ClCap_Sys_M_Cordr_W" = 88036.65   $ Sizing
 "ClCap_Sys_M_LobWait_C" = 126415.7   $ Sizing
 "ClCap_Sys_M_MechElec_C" = 39474.32   $ Sizing
 "ClCap_Sys_M_OfficeOpn_C" = 555438.4   $ Sizing
 "ClCap_Sys_M_OfficeOpn_E" = 686391   $ Sizing
 "ClCap_Sys_M_OfficeOpn_N" = 277174.3   $ Sizing
 "ClCap_Sys_M_OfficeOpn_S" = 752331.9   $ Sizing
 "ClCap_Sys_M_OfficeOpn_W" = 659782.8   $ Sizing
 "ClCap_Sys_M_OfficeSm_C" = 76807.43   $ Sizing
 "ClCap_Sys_M_OfficeSm_E" = 500884.8   $ Sizing
 "ClCap_Sys_M_OfficeSm_N" = 173453.5   $ Sizing
 "ClCap_Sys_M_OfficeSm_S" = 560867.9   $ Sizing
 "ClCap_Sys_M_OfficeSm_W" = 489358.7   $ Sizing
 "ClCap_Sys_M_Restrm_C" = 57676.05   $ Sizing
 "ClCap_Sys_M_StorSm_C" = 103561.9   $ Sizing
 "ClCap_Sys_T_Break_C" = 12797.81   $ Sizing
 "ClCap_Sys_T_Conf_C" = 19914.42   $ Sizing
 "ClCap_Sys_T_CopyRm_C" = 4498.565   $ Sizing
 "ClCap_Sys_T_Cordr_C" = 23964.2   $ Sizing
 "ClCap_Sys_T_Cordr_E" = 10428.21   $ Sizing
 "ClCap_Sys_T_Cordr_N" = 4196.023   $ Sizing
 "ClCap_Sys_T_Cordr_S" = 11655.91   $ Sizing
 "ClCap_Sys_T_Cordr_W" = 9813.236   $ Sizing
 "ClCap_Sys_T_LobWait_C" = 14539.94   $ Sizing
 "ClCap_Sys_T_MechElec_C" = 5162.25   $ Sizing
 "ClCap_Sys_T_OfficeOpn_C" = 64065.53   $ Sizing
 "ClCap_Sys_T_OfficeOpn_E" = 78324.13   $ Sizing
 "ClCap_Sys_T_OfficeOpn_N" = 32278.25   $ Sizing
 "ClCap_Sys_T_OfficeOpn_S" = 86957.43   $ Sizing
 "ClCap_Sys_T_OfficeOpn_W" = 75399.26   $ Sizing
 "ClCap_Sys_T_OfficeSm_C" = 9003.222   $ Sizing
 "ClCap_Sys_T_OfficeSm_E" = 58804.38   $ Sizing
 "ClCap_Sys_T_OfficeSm_N" = 20630.7   $ Sizing
 "ClCap_Sys_T_OfficeSm_S" = 66479.47   $ Sizing
 "ClCap_Sys_T_OfficeSm_W" = 57292.51   $ Sizing
 "ClCap_Sys_T_Restrm_C" = 7209.506   $ Sizing
 "ClCap_Sys_T_StorSm_C" = 11368.86   $ Sizing
 "HtCap_Sys_L_Break_C" = -20500.94   $ Sizing
 "HtCap_Sys_L_Conf_C" = -25452.04   $ Sizing
 "HtCap_Sys_L_CopyRm_C" = -7275.73   $ Sizing
 "HtCap_Sys_L_Cordr_C" = -26049.81   $ Sizing
 "HtCap_Sys_L_Cordr_E" = -10181.79   $ Sizing
 "HtCap_Sys_L_Cordr_N" = -5300.147   $ Sizing
 "HtCap_Sys_L_Cordr_S" = -10855.59   $ Sizing
 "HtCap_Sys_L_Cordr_W" = -9935.425   $ Sizing
 "HtCap_Sys_L_LobWait_C" = -20617.14   $ Sizing
 "HtCap_Sys_L_MechElec_C" = -6093.081   $ Sizing
 "HtCap_Sys_L_OfficeOpn_C" = -85514.78   $ Sizing
 "HtCap_Sys_L_OfficeOpn_E" = -77702.09   $ Sizing
 "HtCap_Sys_L_OfficeOpn_N" = -35029.7   $ Sizing
 "HtCap_Sys_L_OfficeOpn_S" = -80282.48   $ Sizing
 "HtCap_Sys_L_OfficeOpn_W" = -75249.7   $ Sizing
 "HtCap_Sys_L_OfficeSm_C" = -9033.217   $ Sizing
 "HtCap_Sys_L_OfficeSm_E" = -57413.36   $ Sizing
 "HtCap_Sys_L_OfficeSm_N" = -21781.84   $ Sizing
 "HtCap_Sys_L_OfficeSm_S" = -59777.27   $ Sizing
 "HtCap_Sys_L_OfficeSm_W" = -55865.73   $ Sizing
 "HtCap_Sys_L_Restrm_C" = -7717.441   $ Sizing
 "HtCap_Sys_L_StorSm_C" = -16046.41   $ Sizing
 "HtCap_Sys_M_Break_C" = -171095   $ Sizing
 "HtCap_Sys_M_Conf_C" = -214996.5   $ Sizing
 "HtCap_Sys_M_CopyRm_C" = -64509.8   $ Sizing
 "HtCap_Sys_M_Cordr_C" = -262556.8   $ Sizing
 "HtCap_Sys_M_Cordr_E" = -94228.82   $ Sizing
 "HtCap_Sys_M_Cordr_N" = -45933.86   $ Sizing
 "HtCap_Sys_M_Cordr_S" = -100447.2   $ Sizing
 "HtCap_Sys_M_Cordr_W" = -88653.88   $ Sizing
 "HtCap_Sys_M_LobWait_C" = -189217   $ Sizing
 "HtCap_Sys_M_MechElec_C" = -51171.14   $ Sizing
 "HtCap_Sys_M_OfficeOpn_C" = -795962.2   $ Sizing
 "HtCap_Sys_M_OfficeOpn_E" = -660604.9   $ Sizing
 "HtCap_Sys_M_OfficeOpn_N" = -313356   $ Sizing
 "HtCap_Sys_M_OfficeOpn_S" = -704030.4   $ Sizing
 "HtCap_Sys_M_OfficeOpn_W" = -636977.8   $ Sizing
 "HtCap_Sys_M_OfficeSm_C" = -85993.47   $ Sizing
 "HtCap_Sys_M_OfficeSm_E" = -487706.5   $ Sizing
 "HtCap_Sys_M_OfficeSm_N" = -197375.4   $ Sizing
 "HtCap_Sys_M_OfficeSm_S" = -521318.2   $ Sizing
 "HtCap_Sys_M_OfficeSm_W" = -469506.5   $ Sizing
 "HtCap_Sys_M_Restrm_C" = -66604.74   $ Sizing
 "HtCap_Sys_M_StorSm_C" = -131624.7   $ Sizing
 "HtCap_Sys_T_Break_C" = -21558.06   $ Sizing
 "HtCap_Sys_T_Conf_C" = -26938.65   $ Sizing
 "HtCap_Sys_T_CopyRm_C" = -8038.311   $ Sizing
 "HtCap_Sys_T_Cordr_C" = -33333.65   $ Sizing
 "HtCap_Sys_T_Cordr_E" = -12187.86   $ Sizing
 "HtCap_Sys_T_Cordr_N" = -5857.306   $ Sizing
 "HtCap_Sys_T_Cordr_S" = -13348.03   $ Sizing
 "HtCap_Sys_T_Cordr_W" = -11594.17   $ Sizing
 "HtCap_Sys_T_LobWait_C" = -23648.74   $ Sizing
 "HtCap_Sys_T_MechElec_C" = -6586.476   $ Sizing
 "HtCap_Sys_T_OfficeOpn_C" = -81997.43   $ Sizing
 "HtCap_Sys_T_OfficeOpn_E" = -85798.83   $ Sizing
 "HtCap_Sys_T_OfficeOpn_N" = -41917.28   $ Sizing
 "HtCap_Sys_T_OfficeOpn_S" = -93219.2   $ Sizing
 "HtCap_Sys_T_OfficeOpn_W" = -82919.88   $ Sizing
 "HtCap_Sys_T_OfficeSm_C" = -11375.32   $ Sizing
 "HtCap_Sys_T_OfficeSm_E" = -63977.17   $ Sizing
 "HtCap_Sys_T_OfficeSm_N" = -26554.69   $ Sizing
 "HtCap_Sys_T_OfficeSm_S" = -69872.3   $ Sizing
 "HtCap_Sys_T_OfficeSm_W" = -62516.23   $ Sizing
 "HtCap_Sys_T_Restrm_C" = -8862.324   $ Sizing
 "HtCap_Sys_T_StorSm_C" = -17438.43   $ Sizing
..

##include Templates\OfL_DX_SZ.inp
END ..
COMPUTE ..
STOP ..
