INPUT ..

##fileprefix C:\Users\jglasskatz\MASControl3\
##set1 IsSizing TRUE
##set1 CoolType DX
##set1 HeatType ELECTRIC
##set1 EU_HrRepVar 1
##set1 BldgVint 1985
##set1 BldgLoc CZ01

 ##set1 mBFMult 1   $ IP Tech: RefgChg-NRes-Std

PARAMETER
 "AltFactor" = 1.00753   $ IP Non-Tech
 "BldgEconoFlag" = 1   $ IP Non-Tech
 "Break_EWSF" = 1   $ IP Non-Tech
 "Break_LWSF" = 1.1   $ IP Non-Tech
 "CDD_DBHi10" = 65   $ IP Non-Tech
 "CDD_DBHi7" = 68   $ IP Non-Tech
 "CDD_DBHi8" = 66   $ IP Non-Tech
 "CDD_DBHi9" = 77   $ IP Non-Tech
 "CDD_DBRange10" = 17   $ IP Non-Tech
 "CDD_DBRange7" = 11   $ IP Non-Tech
 "CDD_DBRange8" = 10   $ IP Non-Tech
 "CDD_DBRange9" = 29   $ IP Non-Tech
 "CDD_Day10" = 15   $ IP Non-Tech
 "CDD_Day7" = 16   $ IP Non-Tech
 "CDD_Day8" = 20   $ IP Non-Tech
 "CDD_Day9" = 17   $ IP Non-Tech
 "CDD_HrHi10" = 12   $ IP Non-Tech
 "CDD_HrHi7" = 12   $ IP Non-Tech
 "CDD_HrHi8" = 13   $ IP Non-Tech
 "CDD_HrHi9" = 17   $ IP Non-Tech
 "CDD_HrLo10" = 6   $ IP Non-Tech
 "CDD_HrLo7" = 3   $ IP Non-Tech
 "CDD_HrLo8" = 8   $ IP Non-Tech
 "CDD_HrLo9" = 4   $ IP Non-Tech
 "CDD_WB10" = 57.53039551   $ IP Non-Tech
 "CDD_WB7" = 59.29250717   $ IP Non-Tech
 "CDD_WB8" = 60.75350189   $ IP Non-Tech
 "CDD_WB9" = 61.08643341   $ IP Non-Tech
 "CZ_Category" = Tem   $ IP Non-Tech
 "ChwVintEconoFlag" = 1   $ IP Non-Tech
 "Conference_EWSF" = 1.1   $ IP Non-Tech
 "Conference_LWSF" = 1.4   $ IP Non-Tech
 "CoolSetT" = 45   $ IP Non-Tech
 "CoolType" = DX   $ IP Non-Tech
 "CopyRoom_EWSF" = 1.65   $ IP Non-Tech
 "CopyRoom_LWSF" = 1.3   $ IP Non-Tech
 "CorridorStairway_EWSF" = 0.22   $ IP Non-Tech
 "CorridorStairway_LWSF" = 0.6   $ IP Non-Tech
 "DesCoolT" = 75   $ IP Non-Tech
 "DesHeatT" = 73   $ IP Non-Tech
 "EconoEnthLimit" = 28   $ IP Non-Tech
 "EconoTempLimit" = 70   $ IP Non-Tech
 "Elevation" = 203   $ IP Non-Tech
 "HDD_CloudAmt1" = 0   $ IP Non-Tech
 "HDD_DBHi1" = 53   $ IP Non-Tech
 "HDD_DBRange1" = 20   $ IP Non-Tech
 "HDD_Day1" = 15   $ IP Non-Tech
 "HDD_HrHi1" = 14   $ IP Non-Tech
 "HDD_HrLo1" = 6   $ IP Non-Tech
 "HDD_WB1" = 42.3   $ IP Non-Tech
 "HDD_WindSpd1" = 12.7   $ IP Non-Tech
 "HeatSrc" = ELECTRIC   $ IP Non-Tech
 "HeatSrcTU" = HEAT-PUMP   $ IP Non-Tech
 "HeatType" = Elec   $ IP Non-Tech
 "HeatTypeTU" = HEAT-PUMP   $ IP Non-Tech
 "IndoorFanMode" = CONTINUOUS   $ IP Non-Tech
 "KT_TransferAir" = No   $ IP Non-Tech
 "Latitude" = 40.8   $ IP Non-Tech
 "LobbyWaiting_EWSF" = 0.525   $ IP Non-Tech
 "LobbyWaiting_LWSF" = 1.3   $ IP Non-Tech
 "Longitude" = 124.2   $ IP Non-Tech
 "MZFanMechEff" = 0.58   $ IP Non-Tech
 "MZHasRetFan" = FALSE   $ IP Non-Tech
 "MZ_RFanWPerCfm" = 0.37   $ IP Non-Tech
 "MZ_SFanWPerCfm" = 0.71   $ IP Non-Tech
 "MZ_SupFanStatic" = 2.25   $ IP Non-Tech
 "MaxSupT_MZ" = 100   $ IP Non-Tech
 "MaxSupT_SZ" = 100   $ IP Non-Tech
 "MaxSupT_TU" = 90   $ IP Non-Tech
 "MechElecRoom_EWSF" = 0.22   $ IP Non-Tech
 "MechElecRoom_LWSF" = 0.7   $ IP Non-Tech
 "MinCfmPerSF" = 0.4   $ IP Non-Tech
 "MinSupT" = 55   $ IP Non-Tech
 "OccCoolT" = 76   $ IP Non-Tech
 "OccHeatT" = 72   $ IP Non-Tech
 "OfficeOpen_EWSF" = 1.65   $ IP Non-Tech
 "OfficeOpen_LWSF" = 1.2   $ IP Non-Tech
 "OfficeSmall_EWSF" = 1.65   $ IP Non-Tech
 "OfficeSmall_LWSF" = 1.3   $ IP Non-Tech
 "PkgDxVintEconoFlag" = 0   $ IP Non-Tech
 "Restroom_EWSF" = 0.22   $ IP Non-Tech
 "Restroom_LWSF" = 0.6   $ IP Non-Tech
 "SZFanMechEff" = 0.58   $ IP Non-Tech
 "SZHasRetFan" = FALSE   $ IP Non-Tech
 "SZ_Is_2Spd" = FALSE   $ IP Non-Tech
 "SZ_SFanWPerCfm" = 0.46   $ IP Non-Tech
 "SZ_SupFanStatic" = 0.75   $ IP Non-Tech
 "StorageSmlCond_EWSF" = 0.22   $ IP Non-Tech
 "StorageSmlCond_LWSF" = 0.6   $ IP Non-Tech
 "T24GlzTbl" = CZTbl   $ IP Non-Tech
 "TermUnitFanMechEff" = 1   $ IP Non-Tech
 "TermUnitFanMode" = INTERMITTENT   $ IP Non-Tech
 "TwrSetpt" = 80   $ IP Non-Tech
 "UnocCoolT" = 86   $ IP Non-Tech
 "UnocHeatT" = 62   $ IP Non-Tech
 "WlhpVintEconoFlag" = 0   $ IP Non-Tech
 "EconoCtrl" = OA-TEMP   $ IP Tech: AirEcono-OATemp
 "MaxOAFrac" = 0.85   $ IP Tech: AirEcono-OATemp
 "UseEconoVintApplic" = FALSE   $ IP Tech: AirEcono-OATemp
 "DuctDT" = 1   $ IP Tech: ComDuctInsul-1
 "DuctAirLoss" = 0   $ IP Tech: ComDuctLeak-0
 "DuctLossOAFrac" = 0   $ IP Tech: ComDuctLeak-0
 "ComRoofInsCalc" = FromUo   $ IP Tech: ComRoofIns-Hvy-0.06
 "ComRoofInsR" = -999   $ IP Tech: ComRoofIns-Hvy-0.06
 "ComRoofUo" = 0.06   $ IP Tech: ComRoofIns-Hvy-0.06
 "ComEWInsCalc" = FromUo   $ IP Tech: ComWallIns-MFrm-0.14
 "ComEWInsR" = -999   $ IP Tech: ComWallIns-MFrm-0.14
 "ComEWUo" = 0.14   $ IP Tech: ComWallIns-MFrm-0.14
 "ComN_SHGC" = 0.82   $ IP Tech: NResWin-ComN-1.23-0.82
 "ComN_UFactor" = 1.23   $ IP Tech: NResWin-ComN-1.23-0.82
 "ComN_VisTrans" = 0.9   $ IP Tech: NResWin-ComN-1.23-0.82
 "ComN_WinCode" = G1000   $ IP Tech: NResWin-ComN-1.23-0.82
 "ComN_WinFrmFrac" = 0.17   $ IP Tech: NResWin-ComN-1.23-0.82
 "ComN_WinFrmU" = 1   $ IP Tech: NResWin-ComN-1.23-0.82
 "ComO_SHGC" = 0.82   $ IP Tech: NResWin-ComO-1.23-0.82
 "ComO_UFactor" = 1.23   $ IP Tech: NResWin-ComO-1.23-0.82
 "ComO_VisTrans" = 0.9   $ IP Tech: NResWin-ComO-1.23-0.82
 "ComO_WinCode" = G1000   $ IP Tech: NResWin-ComO-1.23-0.82
 "ComO_WinFrmFrac" = 0.17   $ IP Tech: NResWin-ComO-1.23-0.82
 "ComO_WinFrmU" = 1   $ IP Tech: NResWin-ComO-1.23-0.82
 "LtgMsrApplic" = ALL   $ IP Tech: NonResLtgRefPre
 "LtgSav_CFL" = 0   $ IP Tech: NonResLtgRefPre
 "LtgSav_EX" = 0   $ IP Tech: NonResLtgRefPre
 "LtgSav_HB" = 0   $ IP Tech: NonResLtgRefPre
 "LtgSav_LF" = 0   $ IP Tech: NonResLtgRefPre
 "LtgSav_SP" = 0   $ IP Tech: NonResLtgRefPre
 "BF_fFlow" = PSZ65to135_BF_fFlow   $ IP Tech: PkgAC1SpH-65to135-E10
 "BF_fT" = PSZ65to135_BF_fT   $ IP Tech: PkgAC1SpH-65to135-E10
 "CEIR_fPLR" = PSZ65to135_CEIR_fPLR   $ IP Tech: PkgAC1SpH-65to135-E10
 "CLoss_fPLR" = PSZ65to135_CLoss_fPLR   $ IP Tech: PkgAC1SpH-65to135-E10
 "COP" = -1   $ IP Tech: PkgAC1SpH-65to135-E10
 "COP47" = -1   $ IP Tech: PkgAC1SpH-65to135-E10
 "CfmPerBtuh" = 0.02917   $ IP Tech: PkgAC1SpH-65to135-E10
 "ClCap_fT" = PSZ65to135_ClCap_fT   $ IP Tech: PkgAC1SpH-65to135-E10
 "ClSH_fT" = PSZ65to135_ClSH_fT   $ IP Tech: PkgAC1SpH-65to135-E10
 "CoilBF" = 0.114   $ IP Tech: PkgAC1SpH-65to135-E10
 "CondWPerBtuh" = 0   $ IP Tech: PkgAC1SpH-65to135-E10
 "CoolSensCap" = 0.663   $ IP Tech: PkgAC1SpH-65to135-E10
 "CoolingEIR" = 0.29745   $ IP Tech: PkgAC1SpH-65to135-E10
 "CrnkEIR" = 0.01   $ IP Tech: PkgAC1SpH-65to135-E10
 "CrnkMaxT" = 50   $ IP Tech: PkgAC1SpH-65to135-E10
 "DXType" = Pkg   $ IP Tech: PkgAC1SpH-65to135-E10
 "EER" = 9.67   $ IP Tech: PkgAC1SpH-65to135-E10
 "EIR_fT" = PSZ65to135_EIR_fT   $ IP Tech: PkgAC1SpH-65to135-E10
 "FanEirPlr" = TwoSpeedFan   $ IP Tech: PkgAC1SpH-65to135-E10
 "FanWPerCfm" = 0.412   $ IP Tech: PkgAC1SpH-65to135-E10
 "HIR_fT" = DEFAULT   $ IP Tech: PkgAC1SpH-65to135-E10
 "HtCap_fT" = DEFAULT   $ IP Tech: PkgAC1SpH-65to135-E10
 "HtCoolCapRatio" = -1   $ IP Tech: PkgAC1SpH-65to135-E10
 "HtgEIR" = -1   $ IP Tech: PkgAC1SpH-65to135-E10
 "HtgFuel" = Gas   $ IP Tech: PkgAC1SpH-65to135-E10
 "IEER" = 11.87   $ IP Tech: PkgAC1SpH-65to135-E10
 "LowSpdCapRatio" = 0.5   $ IP Tech: PkgAC1SpH-65to135-E10
 "LowSpdCfmRatio" = 0.66   $ IP Tech: PkgAC1SpH-65to135-E10
 "NominalCap" = 15   $ IP Tech: PkgAC1SpH-65to135-E10
 "NumStages" = 1   $ IP Tech: PkgAC1SpH-65to135-E10
 "RatedEER" = 10   $ IP Tech: PkgAC1SpH-65to135-E10
 "RatedSupMtrClass" = HiEff   $ IP Tech: PkgAC1SpH-65to135-E10
 "SizeRange" = 65to135   $ IP Tech: PkgAC1SpH-65to135-E10
 "SubType" = AC   $ IP Tech: PkgAC1SpH-65to135-E10
 "SupMotEff" = 0.84   $ IP Tech: PkgAC1SpH-65to135-E10
 "Tier" = 0   $ IP Tech: PkgAC1SpH-65to135-E10
 "TotCoolCap" = 184140   $ IP Tech: PkgAC1SpH-65to135-E10
 "BFMult" = 1   $ IP Tech: RefgChg-NRes-Std
 "CoolEirMult" = 1   $ IP Tech: RefgChg-NRes-Std
 "SensCoolCapMult" = 1   $ IP Tech: RefgChg-NRes-Std
 "TotCoolCapMult" = 1   $ IP Tech: RefgChg-NRes-Std
..

##include Templates\OfL_DX_SZ.inp
END ..
COMPUTE ..
STOP ..
