
Start DOESIM : Storage capacity =  75000000
Starting LOADS   : SAVE-FILES is On , weather is CZ01ARCATA-AP       
Finished LOADS    BDL  1 : Memory (wds) =    243859, Time (sec) =    1.48
Starting REPORT  
Finished REPORT   BDL  1 : Memory (wds) =    481214, Time (sec) =    0.47
Starting HVAC    : SAVE-FILES is On , weather is CZ01ARCATA-AP       
*** ERRORS or WARNINGS from HVAC     program. Examine output file for details.
Finished HVAC     BDL  1 : Memory (wds) =    340951, Time (sec) =    2.30
Starting REPORT  
Finished REPORT   BDL  1 : Memory (wds) =    447637, Time (sec) =    0.17
Starting HOURLY-R
Finished HOURLY-R BDL  1 : Memory (wds) =    726685, Time (sec) =    0.14
Starting ECONOMIC
Finished ECONOMIC BDL  1 : Memory (wds) =      1034, Time (sec) =    0.03
End   DOESIM : Total elapsed time of      4.6 seconds
RUN COMPLETE
