INPUT ..

##fileprefix C:\Users\jglasskatz\MASControl3\
##set1 IsSizing FALSE
##set1 CoolType DX
##set1 HeatType FURNACE
##set1 EU_HrRepVar 0
##set1 BldgVint 1985
##set1 BldgLoc CZ15

 ##set1 mBFMult 1   $ IP Tech: RefgChg-NRes-Std

PARAMETER
 "AltFactor" = 1.01767   $ IP Non-Tech
 "BF_fFlow" = SpltAC1Sp-ge45_BF_fFlow   $ Msr (Multi)TechID: StdNResSplitAC-45to55
 "BF_fT" = SpltAC1Sp-ge45_BF_fT   $ Msr (Multi)TechID: StdNResSplitAC-45to55
 "BldgEconoFlag" = 1   $ IP Non-Tech
 "Break_EWSF" = 1   $ IP Non-Tech
 "Break_LWSF" = 1.1   $ IP Non-Tech
 "CDD_DBHi10" = 97   $ IP Non-Tech
 "CDD_DBHi7" = 110   $ IP Non-Tech
 "CDD_DBHi8" = 111   $ IP Non-Tech
 "CDD_DBHi9" = 109   $ IP Non-Tech
 "CDD_DBRange10" = 25   $ IP Non-Tech
 "CDD_DBRange7" = 18   $ IP Non-Tech
 "CDD_DBRange8" = 23   $ IP Non-Tech
 "CDD_DBRange9" = 21   $ IP Non-Tech
 "CDD_Day10" = 15   $ IP Non-Tech
 "CDD_Day7" = 16   $ IP Non-Tech
 "CDD_Day8" = 20   $ IP Non-Tech
 "CDD_Day9" = 17   $ IP Non-Tech
 "CDD_HrHi10" = 14   $ IP Non-Tech
 "CDD_HrHi7" = 15   $ IP Non-Tech
 "CDD_HrHi8" = 18   $ IP Non-Tech
 "CDD_HrHi9" = 12   $ IP Non-Tech
 "CDD_HrLo10" = 5   $ IP Non-Tech
 "CDD_HrLo7" = 3   $ IP Non-Tech
 "CDD_HrLo8" = 4   $ IP Non-Tech
 "CDD_HrLo9" = 7   $ IP Non-Tech
 "CDD_WB10" = 64.62915039   $ IP Non-Tech
 "CDD_WB7" = 77.7762146   $ IP Non-Tech
 "CDD_WB8" = 78.616539   $ IP Non-Tech
 "CDD_WB9" = 73.63479614   $ IP Non-Tech
 "CEIR_fPLR_Hot" = SpltAC1Sp-ge45_CEIR_fPLR_Hot   $ Msr (Multi)TechID: StdNResSplitAC-45to55
 "CEIR_fPLR_Mod" = SpltAC1Sp-ge45_CEIR_fPLR_Mod   $ Msr (Multi)TechID: StdNResSplitAC-45to55
 "CEIR_fPLR_Tem" = SpltAC1Sp-ge45_CEIR_fPLR_Tem   $ Msr (Multi)TechID: StdNResSplitAC-45to55
 "CLoss_fPLR_Hot" = SpltAC1Sp-ge45_CLoss_fPLR_Hot   $ Msr (Multi)TechID: StdNResSplitAC-45to55
 "CLoss_fPLR_Mod" = SpltAC1Sp-ge45_CLoss_fPLR_Mod   $ Msr (Multi)TechID: StdNResSplitAC-45to55
 "CLoss_fPLR_Tem" = SpltAC1Sp-ge45_CLoss_fPLR_Tem   $ Msr (Multi)TechID: StdNResSplitAC-45to55
 "COP47" = 0   $ Msr (Multi)TechID: StdNResSplitAC-45to55
 "CZ_Category" = Hot   $ IP Non-Tech
 "CapRange" = ge45   $ Msr (Multi)TechID: StdNResSplitAC-45to55
 "CfmPerBtuh" = 0.03263   $ Msr (Multi)TechID: StdNResSplitAC-45to55
 "ChwVintEconoFlag" = 1   $ IP Non-Tech
 "ClCap_fT" = SpltAC1Sp-ge45_ClCap_fT   $ Msr (Multi)TechID: StdNResSplitAC-45to55
 "ClSH_fT" = SpltAC1Sp-ge45_ClSH_fT   $ Msr (Multi)TechID: StdNResSplitAC-45to55
 "CoilBF" = 0.106518182   $ Msr (Multi)TechID: StdNResSplitAC-45to55
 "CondWPerBtuh" = 0   $ Msr (Multi)TechID: StdNResSplitAC-45to55
 "Conference_EWSF" = 1.1   $ IP Non-Tech
 "Conference_LWSF" = 1.4   $ IP Non-Tech
 "CoolSensCap" = 0.759218182   $ Msr (Multi)TechID: StdNResSplitAC-45to55
 "CoolSetT" = 45   $ IP Non-Tech
 "CoolType" = DX   $ IP Non-Tech
 "CoolingEIR" = 0.2466   $ Msr (Multi)TechID: StdNResSplitAC-45to55
 "CopyRoom_EWSF" = 1.65   $ IP Non-Tech
 "CopyRoom_LWSF" = 1.3   $ IP Non-Tech
 "CorridorStairway_EWSF" = 0.22   $ IP Non-Tech
 "CorridorStairway_LWSF" = 0.6   $ IP Non-Tech
 "CrnkEIR" = 0.002466   $ Msr (Multi)TechID: StdNResSplitAC-45to55
 "CrnkMaxT" = 50   $ Msr (Multi)TechID: StdNResSplitAC-45to55
 "DXType" = SplitSEER   $ Msr (Multi)TechID: StdNResSplitAC-45to55
 "DesCoolT" = 75   $ IP Non-Tech
 "DesHeatT" = 73   $ IP Non-Tech
 "EER" = 11.81793103   $ Msr (Multi)TechID: StdNResSplitAC-45to55
 "EIR_fT" = SpltAC1Sp-ge45_EIR_fT   $ Msr (Multi)TechID: StdNResSplitAC-45to55
 "EconoCtrl" = FIXED   $ Msr (Multi)TechID: StdNResSplitAC-45to55
 "EconoEnthLimit" = 28   $ IP Non-Tech
 "EconoTempLimit" = 75   $ IP Non-Tech
 "Elevation" = 475   $ IP Non-Tech
 "FanEirPlr" = TwoSpeedFan   $ Msr (Multi)TechID: StdNResSplitAC-45to55
 "FanWPerCfm" = 0.294   $ Msr (Multi)TechID: StdNResSplitAC-45to55
 "HDD_CloudAmt1" = 0   $ IP Non-Tech
 "HDD_DBHi1" = 58   $ IP Non-Tech
 "HDD_DBRange1" = 21   $ IP Non-Tech
 "HDD_Day1" = 15   $ IP Non-Tech
 "HDD_HrHi1" = 13   $ IP Non-Tech
 "HDD_HrLo1" = 7   $ IP Non-Tech
 "HDD_WB1" = 39.7   $ IP Non-Tech
 "HDD_WindSpd1" = 10.4   $ IP Non-Tech
 "HIR_fT" = 0   $ Msr (Multi)TechID: StdNResSplitAC-45to55
 "HSPF" = 0   $ Msr (Multi)TechID: StdNResSplitAC-45to55
 "HeatSrc" = FURNACE   $ IP Non-Tech
 "HeatSrcTU" = HEAT-PUMP   $ IP Non-Tech
 "HeatType" = GasFurn   $ IP Non-Tech
 "HeatTypeTU" = HEAT-PUMP   $ IP Non-Tech
 "HtCap_fT" = 0   $ Msr (Multi)TechID: StdNResSplitAC-45to55
 "HtCoolCapRatio" = 0   $ Msr (Multi)TechID: StdNResSplitAC-45to55
 "HtgEIR" = 0   $ Msr (Multi)TechID: StdNResSplitAC-45to55
 "IndoorFanMode" = CONTINUOUS   $ IP Non-Tech
 "KT_TransferAir" = No   $ IP Non-Tech
 "Latitude" = 33.8   $ IP Non-Tech
 "LobbyWaiting_EWSF" = 0.525   $ IP Non-Tech
 "LobbyWaiting_LWSF" = 1.3   $ IP Non-Tech
 "Longitude" = 116.5   $ IP Non-Tech
 "LowSpdCapRatio" = 1   $ Msr (Multi)TechID: StdNResSplitAC-45to55
 "LowSpdCfmRatio" = 1   $ Msr (Multi)TechID: StdNResSplitAC-45to55
 "MZFanMechEff" = 0.58   $ IP Non-Tech
 "MZHasRetFan" = FALSE   $ IP Non-Tech
 "MZ_RFanWPerCfm" = 0.37   $ IP Non-Tech
 "MZ_SFanWPerCfm" = 0.71   $ IP Non-Tech
 "MZ_SupFanStatic" = 2.25   $ IP Non-Tech
 "MaxOAFrac" = 1   $ Msr (Multi)TechID: StdNResSplitAC-45to55
 "MaxSupT_MZ" = 100   $ IP Non-Tech
 "MaxSupT_SZ" = 100   $ IP Non-Tech
 "MaxSupT_TU" = 90   $ IP Non-Tech
 "MechElecRoom_EWSF" = 0.22   $ IP Non-Tech
 "MechElecRoom_LWSF" = 0.7   $ IP Non-Tech
 "MinCfmPerSF" = 0.4   $ IP Non-Tech
 "MinSupT" = 55   $ IP Non-Tech
 "NumStages" = 1   $ Msr (Multi)TechID: StdNResSplitAC-45to55
 "OccCoolT" = 76   $ IP Non-Tech
 "OccHeatT" = 72   $ IP Non-Tech
 "OfficeOpen_EWSF" = 1.65   $ IP Non-Tech
 "OfficeOpen_LWSF" = 1.2   $ IP Non-Tech
 "OfficeSmall_EWSF" = 1.65   $ IP Non-Tech
 "OfficeSmall_LWSF" = 1.3   $ IP Non-Tech
 "PkgDxVintEconoFlag" = 0   $ IP Non-Tech
 "Restroom_EWSF" = 0.22   $ IP Non-Tech
 "Restroom_LWSF" = 0.6   $ IP Non-Tech
 "SEER" = 14   $ Msr (Multi)TechID: StdNResSplitAC-45to55
 "SZFanMechEff" = 0.58   $ IP Non-Tech
 "SZHasRetFan" = FALSE   $ IP Non-Tech
 "SZ_Is_2Spd" = FALSE   $ IP Non-Tech
 "SZ_SFanWPerCfm" = 0.46   $ IP Non-Tech
 "SZ_SupFanStatic" = 0.75   $ IP Non-Tech
 "Sector" = Any   $ Msr (Multi)TechID: StdNResSplitAC-45to55
 "StorageSmlCond_EWSF" = 0.22   $ IP Non-Tech
 "StorageSmlCond_LWSF" = 0.6   $ IP Non-Tech
 "SubType" = AC   $ Msr (Multi)TechID: StdNResSplitAC-45to55
 "T24GlzTbl" = CZTbl   $ IP Non-Tech
 "TermUnitFanMechEff" = 1   $ IP Non-Tech
 "TermUnitFanMode" = INTERMITTENT   $ IP Non-Tech
 "TotCoolCap" = 52519.36364   $ Msr (Multi)TechID: StdNResSplitAC-45to55
 "TwrSetpt" = 89.1   $ IP Non-Tech
 "UnocCoolT" = 86   $ IP Non-Tech
 "UnocHeatT" = 62   $ IP Non-Tech
 "UseEconoVintApplic" = FALSE   $ Msr (Multi)TechID: StdNResSplitAC-45to55
 "WlhpVintEconoFlag" = 0   $ IP Non-Tech
 "DuctDT" = 1   $ IP Tech: ComDuctInsul-1
 "DuctAirLoss" = 0   $ IP Tech: ComDuctLeak-0
 "DuctLossOAFrac" = 0   $ IP Tech: ComDuctLeak-0
 "ComRoofInsCalc" = FromUo   $ IP Tech: ComRoofIns-Hvy-0.06
 "ComRoofInsR" = -999   $ IP Tech: ComRoofIns-Hvy-0.06
 "ComRoofUo" = 0.06   $ IP Tech: ComRoofIns-Hvy-0.06
 "ComEWInsCalc" = FromUo   $ IP Tech: ComWallIns-MFrm-0.14
 "ComEWInsR" = -999   $ IP Tech: ComWallIns-MFrm-0.14
 "ComEWUo" = 0.14   $ IP Tech: ComWallIns-MFrm-0.14
 "ComN_SHGC" = 0.82   $ IP Tech: NResWin-ComN-1.23-0.82
 "ComN_UFactor" = 1.23   $ IP Tech: NResWin-ComN-1.23-0.82
 "ComN_VisTrans" = 0.9   $ IP Tech: NResWin-ComN-1.23-0.82
 "ComN_WinCode" = G1000   $ IP Tech: NResWin-ComN-1.23-0.82
 "ComN_WinFrmFrac" = 0.17   $ IP Tech: NResWin-ComN-1.23-0.82
 "ComN_WinFrmU" = 1   $ IP Tech: NResWin-ComN-1.23-0.82
 "ComO_SHGC" = 0.82   $ IP Tech: NResWin-ComO-1.23-0.82
 "ComO_UFactor" = 1.23   $ IP Tech: NResWin-ComO-1.23-0.82
 "ComO_VisTrans" = 0.9   $ IP Tech: NResWin-ComO-1.23-0.82
 "ComO_WinCode" = G1000   $ IP Tech: NResWin-ComO-1.23-0.82
 "ComO_WinFrmFrac" = 0.17   $ IP Tech: NResWin-ComO-1.23-0.82
 "ComO_WinFrmU" = 1   $ IP Tech: NResWin-ComO-1.23-0.82
 "LtgMsrApplic" = ALL   $ IP Tech: NonResLtgRefPre
 "LtgSav_CFL" = 0   $ IP Tech: NonResLtgRefPre
 "LtgSav_EX" = 0   $ IP Tech: NonResLtgRefPre
 "LtgSav_HB" = 0   $ IP Tech: NonResLtgRefPre
 "LtgSav_LF" = 0   $ IP Tech: NonResLtgRefPre
 "LtgSav_SP" = 0   $ IP Tech: NonResLtgRefPre
 "CEIR_fPLR" = PSZ65to135_CEIR_fPLR   $ IP Tech: PkgAC1SpH-65to135-E10
 "CLoss_fPLR" = PSZ65to135_CLoss_fPLR   $ IP Tech: PkgAC1SpH-65to135-E10
 "COP" = -1   $ IP Tech: PkgAC1SpH-65to135-E10
 "HtgFuel" = Gas   $ IP Tech: PkgAC1SpH-65to135-E10
 "IEER" = 11.87   $ IP Tech: PkgAC1SpH-65to135-E10
 "NominalCap" = 15   $ IP Tech: PkgAC1SpH-65to135-E10
 "RatedEER" = 10   $ IP Tech: PkgAC1SpH-65to135-E10
 "RatedSupMtrClass" = HiEff   $ IP Tech: PkgAC1SpH-65to135-E10
 "SizeRange" = 65to135   $ IP Tech: PkgAC1SpH-65to135-E10
 "SupMotEff" = 0.84   $ IP Tech: PkgAC1SpH-65to135-E10
 "Tier" = 0   $ IP Tech: PkgAC1SpH-65to135-E10
 "FanPwrMult" = 1   $ IP Tech: PkgFurn-0.80AFUE
 "FurnAFUE" = 0.8   $ IP Tech: PkgFurn-0.80AFUE
 "FurnEt" = 0.82   $ IP Tech: PkgFurn-0.80AFUE
 "FurnaceAuxKW" = 0.1   $ IP Tech: PkgFurn-0.80AFUE
 "HIR_fPLR" = Furnace-HIR-fPLR   $ IP Tech: PkgFurn-0.80AFUE
 "VSM" = FALSE   $ IP Tech: PkgFurn-0.80AFUE
 "BFMult" = 1   $ IP Tech: RefgChg-NRes-Std
 "CoolEirMult" = 1   $ IP Tech: RefgChg-NRes-Std
 "SensCoolCapMult" = 1   $ IP Tech: RefgChg-NRes-Std
 "TotCoolCapMult" = 1   $ IP Tech: RefgChg-NRes-Std
 "AltAdjFactor" = 1.017668   $ Sizing
 "CAssFlo_L_Break_CZn" = 760.221   $ Sizing
 "CAssFlo_L_Conf_CZn" = 751.4909   $ Sizing
 "CAssFlo_L_CopyRm_CZn" = 256.1592   $ Sizing
 "CAssFlo_L_Cordr_CZn" = 921.4124   $ Sizing
 "CAssFlo_L_Cordr_EZn" = 407.399   $ Sizing
 "CAssFlo_L_Cordr_NZn" = 270.8201   $ Sizing
 "CAssFlo_L_Cordr_SZn" = 385.9037   $ Sizing
 "CAssFlo_L_Cordr_WZn" = 456.1413   $ Sizing
 "CAssFlo_L_LobWait_CZn" = 783.6394   $ Sizing
 "CAssFlo_L_MechElec_CZn" = 194.308   $ Sizing
 "CAssFlo_L_OfficeOpn_CZn" = 2417.151   $ Sizing
 "CAssFlo_L_OfficeOpn_EZn" = 2787.763   $ Sizing
 "CAssFlo_L_OfficeOpn_NZn" = 1839.469   $ Sizing
 "CAssFlo_L_OfficeOpn_SZn" = 2615.494   $ Sizing
 "CAssFlo_L_OfficeOpn_WZn" = 3198.544   $ Sizing
 "CAssFlo_L_OfficeSm_CZn" = 315.7564   $ Sizing
 "CAssFlo_L_OfficeSm_EZn" = 2040.085   $ Sizing
 "CAssFlo_L_OfficeSm_NZn" = 1245.231   $ Sizing
 "CAssFlo_L_OfficeSm_SZn" = 1921.522   $ Sizing
 "CAssFlo_L_OfficeSm_WZn" = 2321.638   $ Sizing
 "CAssFlo_L_Restrm_CZn" = 131.7656   $ Sizing
 "CAssFlo_L_StorSm_CZn" = 555.6409   $ Sizing
 "CAssFlo_M_Break_CZn" = 768.0735   $ Sizing
 "CAssFlo_M_Conf_CZn" = 752.5027   $ Sizing
 "CAssFlo_M_CopyRm_CZn" = 252.4225   $ Sizing
 "CAssFlo_M_Cordr_CZn" = 1251.842   $ Sizing
 "CAssFlo_M_Cordr_EZn" = 439.4648   $ Sizing
 "CAssFlo_M_Cordr_NZn" = 283.1227   $ Sizing
 "CAssFlo_M_Cordr_SZn" = 416.4506   $ Sizing
 "CAssFlo_M_Cordr_WZn" = 470.4697   $ Sizing
 "CAssFlo_M_LobWait_CZn" = 800.8832   $ Sizing
 "CAssFlo_M_MechElec_CZn" = 240.2721   $ Sizing
 "CAssFlo_M_OfficeOpn_CZn" = 2444.495   $ Sizing
 "CAssFlo_M_OfficeOpn_EZn" = 2918.234   $ Sizing
 "CAssFlo_M_OfficeOpn_NZn" = 1900.944   $ Sizing
 "CAssFlo_M_OfficeOpn_SZn" = 2782.643   $ Sizing
 "CAssFlo_M_OfficeOpn_WZn" = 3263.961   $ Sizing
 "CAssFlo_M_OfficeSm_CZn" = 345.6077   $ Sizing
 "CAssFlo_M_OfficeSm_EZn" = 2112.179   $ Sizing
 "CAssFlo_M_OfficeSm_NZn" = 1276.944   $ Sizing
 "CAssFlo_M_OfficeSm_SZn" = 2021.863   $ Sizing
 "CAssFlo_M_OfficeSm_WZn" = 2347.657   $ Sizing
 "CAssFlo_M_Restrm_CZn" = 154.1435   $ Sizing
 "CAssFlo_M_StorSm_CZn" = 597.562   $ Sizing
 "CAssFlo_T_Break_CZn" = 759.2873   $ Sizing
 "CAssFlo_T_Conf_CZn" = 744.4161   $ Sizing
 "CAssFlo_T_CopyRm_CZn" = 250.3721   $ Sizing
 "CAssFlo_T_Cordr_CZn" = 1207.369   $ Sizing
 "CAssFlo_T_Cordr_EZn" = 441.7626   $ Sizing
 "CAssFlo_T_Cordr_NZn" = 292.899   $ Sizing
 "CAssFlo_T_Cordr_SZn" = 425.8585   $ Sizing
 "CAssFlo_T_Cordr_WZn" = 474.9014   $ Sizing
 "CAssFlo_T_LobWait_CZn" = 794.5641   $ Sizing
 "CAssFlo_T_MechElec_CZn" = 286.6927   $ Sizing
 "CAssFlo_T_OfficeOpn_CZn" = 2518.364   $ Sizing
 "CAssFlo_T_OfficeOpn_EZn" = 2908.868   $ Sizing
 "CAssFlo_T_OfficeOpn_NZn" = 1974.319   $ Sizing
 "CAssFlo_T_OfficeOpn_SZn" = 2850.002   $ Sizing
 "CAssFlo_T_OfficeOpn_WZn" = 3254.199   $ Sizing
 "CAssFlo_T_OfficeSm_CZn" = 342.1404   $ Sizing
 "CAssFlo_T_OfficeSm_EZn" = 2152.205   $ Sizing
 "CAssFlo_T_OfficeSm_NZn" = 1334.448   $ Sizing
 "CAssFlo_T_OfficeSm_SZn" = 2091.356   $ Sizing
 "CAssFlo_T_OfficeSm_WZn" = 2380.112   $ Sizing
 "CAssFlo_T_Restrm_CZn" = 210.4861   $ Sizing
 "CAssFlo_T_StorSm_CZn" = 485.2224   $ Sizing
 "CHRtFlo_Sys_L_Break_C" = 760.221   $ Sizing
 "CHRtFlo_Sys_L_Conf_C" = 751.4909   $ Sizing
 "CHRtFlo_Sys_L_CopyRm_C" = 256.1592   $ Sizing
 "CHRtFlo_Sys_L_Cordr_C" = 921.4124   $ Sizing
 "CHRtFlo_Sys_L_Cordr_E" = 408.2275   $ Sizing
 "CHRtFlo_Sys_L_Cordr_N" = 270.8201   $ Sizing
 "CHRtFlo_Sys_L_Cordr_S" = 403.692   $ Sizing
 "CHRtFlo_Sys_L_Cordr_W" = 456.1413   $ Sizing
 "CHRtFlo_Sys_L_LobWait_C" = 783.6394   $ Sizing
 "CHRtFlo_Sys_L_MechElec_C" = 194.308   $ Sizing
 "CHRtFlo_Sys_L_OfficeOpn_C" = 2417.151   $ Sizing
 "CHRtFlo_Sys_L_OfficeOpn_E" = 2894.299   $ Sizing
 "CHRtFlo_Sys_L_OfficeOpn_N" = 1839.469   $ Sizing
 "CHRtFlo_Sys_L_OfficeOpn_S" = 2841.458   $ Sizing
 "CHRtFlo_Sys_L_OfficeOpn_W" = 3198.543   $ Sizing
 "CHRtFlo_Sys_L_OfficeSm_C" = 315.7564   $ Sizing
 "CHRtFlo_Sys_L_OfficeSm_E" = 2180.588   $ Sizing
 "CHRtFlo_Sys_L_OfficeSm_N" = 1245.231   $ Sizing
 "CHRtFlo_Sys_L_OfficeSm_S" = 2159.833   $ Sizing
 "CHRtFlo_Sys_L_OfficeSm_W" = 2321.638   $ Sizing
 "CHRtFlo_Sys_L_Restrm_C" = 213.9924   $ Sizing
 "CHRtFlo_Sys_L_StorSm_C" = 555.6409   $ Sizing
 "CHRtFlo_Sys_M_Break_C" = 6144.588   $ Sizing
 "CHRtFlo_Sys_M_Conf_C" = 6020.022   $ Sizing
 "CHRtFlo_Sys_M_CopyRm_C" = 2019.38   $ Sizing
 "CHRtFlo_Sys_M_Cordr_C" = 10014.73   $ Sizing
 "CHRtFlo_Sys_M_Cordr_E" = 3591.192   $ Sizing
 "CHRtFlo_Sys_M_Cordr_N" = 2264.982   $ Sizing
 "CHRtFlo_Sys_M_Cordr_S" = 3540.914   $ Sizing
 "CHRtFlo_Sys_M_Cordr_W" = 3763.758   $ Sizing
 "CHRtFlo_Sys_M_LobWait_C" = 6407.066   $ Sizing
 "CHRtFlo_Sys_M_MechElec_C" = 1922.177   $ Sizing
 "CHRtFlo_Sys_M_OfficeOpn_C" = 19555.96   $ Sizing
 "CHRtFlo_Sys_M_OfficeOpn_E" = 24480.93   $ Sizing
 "CHRtFlo_Sys_M_OfficeOpn_N" = 15207.56   $ Sizing
 "CHRtFlo_Sys_M_OfficeOpn_S" = 24300.58   $ Sizing
 "CHRtFlo_Sys_M_OfficeOpn_W" = 26111.69   $ Sizing
 "CHRtFlo_Sys_M_OfficeSm_C" = 2764.861   $ Sizing
 "CHRtFlo_Sys_M_OfficeSm_E" = 18194.54   $ Sizing
 "CHRtFlo_Sys_M_OfficeSm_N" = 10215.55   $ Sizing
 "CHRtFlo_Sys_M_OfficeSm_S" = 18253.62   $ Sizing
 "CHRtFlo_Sys_M_OfficeSm_W" = 18781.25   $ Sizing
 "CHRtFlo_Sys_M_Restrm_C" = 1711.939   $ Sizing
 "CHRtFlo_Sys_M_StorSm_C" = 4780.496   $ Sizing
 "CHRtFlo_Sys_T_Break_C" = 759.2873   $ Sizing
 "CHRtFlo_Sys_T_Conf_C" = 744.4161   $ Sizing
 "CHRtFlo_Sys_T_CopyRm_C" = 250.3721   $ Sizing
 "CHRtFlo_Sys_T_Cordr_C" = 1207.369   $ Sizing
 "CHRtFlo_Sys_T_Cordr_E" = 441.7626   $ Sizing
 "CHRtFlo_Sys_T_Cordr_N" = 292.899   $ Sizing
 "CHRtFlo_Sys_T_Cordr_S" = 425.8585   $ Sizing
 "CHRtFlo_Sys_T_Cordr_W" = 474.9015   $ Sizing
 "CHRtFlo_Sys_T_LobWait_C" = 794.5641   $ Sizing
 "CHRtFlo_Sys_T_MechElec_C" = 289.5573   $ Sizing
 "CHRtFlo_Sys_T_OfficeOpn_C" = 2518.364   $ Sizing
 "CHRtFlo_Sys_T_OfficeOpn_E" = 2908.868   $ Sizing
 "CHRtFlo_Sys_T_OfficeOpn_N" = 1974.319   $ Sizing
 "CHRtFlo_Sys_T_OfficeOpn_S" = 2850.002   $ Sizing
 "CHRtFlo_Sys_T_OfficeOpn_W" = 3254.199   $ Sizing
 "CHRtFlo_Sys_T_OfficeSm_C" = 342.1404   $ Sizing
 "CHRtFlo_Sys_T_OfficeSm_E" = 2152.205   $ Sizing
 "CHRtFlo_Sys_T_OfficeSm_N" = 1334.448   $ Sizing
 "CHRtFlo_Sys_T_OfficeSm_S" = 2175.103   $ Sizing
 "CHRtFlo_Sys_T_OfficeSm_W" = 2380.112   $ Sizing
 "CHRtFlo_Sys_T_Restrm_C" = 213.9924   $ Sizing
 "CHRtFlo_Sys_T_StorSm_C" = 485.2224   $ Sizing
 "CRtdFlo_Sys_L_Break_C" = 760.221   $ Sizing
 "CRtdFlo_Sys_L_Conf_C" = 751.4909   $ Sizing
 "CRtdFlo_Sys_L_CopyRm_C" = 256.1592   $ Sizing
 "CRtdFlo_Sys_L_Cordr_C" = 921.4124   $ Sizing
 "CRtdFlo_Sys_L_Cordr_E" = 407.399   $ Sizing
 "CRtdFlo_Sys_L_Cordr_N" = 270.8201   $ Sizing
 "CRtdFlo_Sys_L_Cordr_S" = 385.9037   $ Sizing
 "CRtdFlo_Sys_L_Cordr_W" = 456.1413   $ Sizing
 "CRtdFlo_Sys_L_LobWait_C" = 783.6394   $ Sizing
 "CRtdFlo_Sys_L_MechElec_C" = 194.308   $ Sizing
 "CRtdFlo_Sys_L_OfficeOpn_C" = 2417.151   $ Sizing
 "CRtdFlo_Sys_L_OfficeOpn_E" = 2787.763   $ Sizing
 "CRtdFlo_Sys_L_OfficeOpn_N" = 1839.469   $ Sizing
 "CRtdFlo_Sys_L_OfficeOpn_S" = 2615.494   $ Sizing
 "CRtdFlo_Sys_L_OfficeOpn_W" = 3198.543   $ Sizing
 "CRtdFlo_Sys_L_OfficeSm_C" = 315.7564   $ Sizing
 "CRtdFlo_Sys_L_OfficeSm_E" = 2040.085   $ Sizing
 "CRtdFlo_Sys_L_OfficeSm_N" = 1245.231   $ Sizing
 "CRtdFlo_Sys_L_OfficeSm_S" = 1921.522   $ Sizing
 "CRtdFlo_Sys_L_OfficeSm_W" = 2321.638   $ Sizing
 "CRtdFlo_Sys_L_Restrm_C" = 131.7656   $ Sizing
 "CRtdFlo_Sys_L_StorSm_C" = 555.6409   $ Sizing
 "CRtdFlo_Sys_M_Break_C" = 6144.588   $ Sizing
 "CRtdFlo_Sys_M_Conf_C" = 6020.022   $ Sizing
 "CRtdFlo_Sys_M_CopyRm_C" = 2019.38   $ Sizing
 "CRtdFlo_Sys_M_Cordr_C" = 10014.73   $ Sizing
 "CRtdFlo_Sys_M_Cordr_E" = 3515.719   $ Sizing
 "CRtdFlo_Sys_M_Cordr_N" = 2264.982   $ Sizing
 "CRtdFlo_Sys_M_Cordr_S" = 3331.605   $ Sizing
 "CRtdFlo_Sys_M_Cordr_W" = 3763.758   $ Sizing
 "CRtdFlo_Sys_M_LobWait_C" = 6407.066   $ Sizing
 "CRtdFlo_Sys_M_MechElec_C" = 1922.177   $ Sizing
 "CRtdFlo_Sys_M_OfficeOpn_C" = 19555.96   $ Sizing
 "CRtdFlo_Sys_M_OfficeOpn_E" = 23345.88   $ Sizing
 "CRtdFlo_Sys_M_OfficeOpn_N" = 15207.56   $ Sizing
 "CRtdFlo_Sys_M_OfficeOpn_S" = 22261.14   $ Sizing
 "CRtdFlo_Sys_M_OfficeOpn_W" = 26111.69   $ Sizing
 "CRtdFlo_Sys_M_OfficeSm_C" = 2764.861   $ Sizing
 "CRtdFlo_Sys_M_OfficeSm_E" = 16897.44   $ Sizing
 "CRtdFlo_Sys_M_OfficeSm_N" = 10215.55   $ Sizing
 "CRtdFlo_Sys_M_OfficeSm_S" = 16174.9   $ Sizing
 "CRtdFlo_Sys_M_OfficeSm_W" = 18781.25   $ Sizing
 "CRtdFlo_Sys_M_Restrm_C" = 1233.148   $ Sizing
 "CRtdFlo_Sys_M_StorSm_C" = 4780.496   $ Sizing
 "CRtdFlo_Sys_T_Break_C" = 759.2873   $ Sizing
 "CRtdFlo_Sys_T_Conf_C" = 744.4161   $ Sizing
 "CRtdFlo_Sys_T_CopyRm_C" = 250.3721   $ Sizing
 "CRtdFlo_Sys_T_Cordr_C" = 1207.369   $ Sizing
 "CRtdFlo_Sys_T_Cordr_E" = 441.7626   $ Sizing
 "CRtdFlo_Sys_T_Cordr_N" = 292.899   $ Sizing
 "CRtdFlo_Sys_T_Cordr_S" = 425.8585   $ Sizing
 "CRtdFlo_Sys_T_Cordr_W" = 474.9015   $ Sizing
 "CRtdFlo_Sys_T_LobWait_C" = 794.5641   $ Sizing
 "CRtdFlo_Sys_T_MechElec_C" = 286.6927   $ Sizing
 "CRtdFlo_Sys_T_OfficeOpn_C" = 2518.364   $ Sizing
 "CRtdFlo_Sys_T_OfficeOpn_E" = 2908.868   $ Sizing
 "CRtdFlo_Sys_T_OfficeOpn_N" = 1974.319   $ Sizing
 "CRtdFlo_Sys_T_OfficeOpn_S" = 2850.002   $ Sizing
 "CRtdFlo_Sys_T_OfficeOpn_W" = 3254.199   $ Sizing
 "CRtdFlo_Sys_T_OfficeSm_C" = 342.1404   $ Sizing
 "CRtdFlo_Sys_T_OfficeSm_E" = 2152.205   $ Sizing
 "CRtdFlo_Sys_T_OfficeSm_N" = 1334.448   $ Sizing
 "CRtdFlo_Sys_T_OfficeSm_S" = 2091.356   $ Sizing
 "CRtdFlo_Sys_T_OfficeSm_W" = 2380.112   $ Sizing
 "CRtdFlo_Sys_T_Restrm_C" = 210.4861   $ Sizing
 "CRtdFlo_Sys_T_StorSm_C" = 485.2224   $ Sizing
 "CSupFlo_Sys_L_Break_C" = 760.221   $ Sizing
 "CSupFlo_Sys_L_Conf_C" = 751.4909   $ Sizing
 "CSupFlo_Sys_L_CopyRm_C" = 256.1592   $ Sizing
 "CSupFlo_Sys_L_Cordr_C" = 921.4124   $ Sizing
 "CSupFlo_Sys_L_Cordr_E" = 407.399   $ Sizing
 "CSupFlo_Sys_L_Cordr_N" = 270.8201   $ Sizing
 "CSupFlo_Sys_L_Cordr_S" = 385.9037   $ Sizing
 "CSupFlo_Sys_L_Cordr_W" = 456.1413   $ Sizing
 "CSupFlo_Sys_L_LobWait_C" = 783.6394   $ Sizing
 "CSupFlo_Sys_L_MechElec_C" = 194.308   $ Sizing
 "CSupFlo_Sys_L_OfficeOpn_C" = 2417.151   $ Sizing
 "CSupFlo_Sys_L_OfficeOpn_E" = 2787.763   $ Sizing
 "CSupFlo_Sys_L_OfficeOpn_N" = 1839.469   $ Sizing
 "CSupFlo_Sys_L_OfficeOpn_S" = 2615.494   $ Sizing
 "CSupFlo_Sys_L_OfficeOpn_W" = 3198.543   $ Sizing
 "CSupFlo_Sys_L_OfficeSm_C" = 315.7564   $ Sizing
 "CSupFlo_Sys_L_OfficeSm_E" = 2040.085   $ Sizing
 "CSupFlo_Sys_L_OfficeSm_N" = 1245.231   $ Sizing
 "CSupFlo_Sys_L_OfficeSm_S" = 1921.522   $ Sizing
 "CSupFlo_Sys_L_OfficeSm_W" = 2321.638   $ Sizing
 "CSupFlo_Sys_L_Restrm_C" = 131.7656   $ Sizing
 "CSupFlo_Sys_L_StorSm_C" = 555.6409   $ Sizing
 "CSupFlo_Sys_M_Break_C" = 6144.588   $ Sizing
 "CSupFlo_Sys_M_Conf_C" = 6020.022   $ Sizing
 "CSupFlo_Sys_M_CopyRm_C" = 2019.38   $ Sizing
 "CSupFlo_Sys_M_Cordr_C" = 10014.73   $ Sizing
 "CSupFlo_Sys_M_Cordr_E" = 3515.719   $ Sizing
 "CSupFlo_Sys_M_Cordr_N" = 2264.982   $ Sizing
 "CSupFlo_Sys_M_Cordr_S" = 3331.605   $ Sizing
 "CSupFlo_Sys_M_Cordr_W" = 3763.758   $ Sizing
 "CSupFlo_Sys_M_LobWait_C" = 6407.066   $ Sizing
 "CSupFlo_Sys_M_MechElec_C" = 1922.177   $ Sizing
 "CSupFlo_Sys_M_OfficeOpn_C" = 19555.96   $ Sizing
 "CSupFlo_Sys_M_OfficeOpn_E" = 23345.88   $ Sizing
 "CSupFlo_Sys_M_OfficeOpn_N" = 15207.56   $ Sizing
 "CSupFlo_Sys_M_OfficeOpn_S" = 22261.14   $ Sizing
 "CSupFlo_Sys_M_OfficeOpn_W" = 26111.69   $ Sizing
 "CSupFlo_Sys_M_OfficeSm_C" = 2764.861   $ Sizing
 "CSupFlo_Sys_M_OfficeSm_E" = 16897.44   $ Sizing
 "CSupFlo_Sys_M_OfficeSm_N" = 10215.55   $ Sizing
 "CSupFlo_Sys_M_OfficeSm_S" = 16174.9   $ Sizing
 "CSupFlo_Sys_M_OfficeSm_W" = 18781.25   $ Sizing
 "CSupFlo_Sys_M_Restrm_C" = 1233.148   $ Sizing
 "CSupFlo_Sys_M_StorSm_C" = 4780.496   $ Sizing
 "CSupFlo_Sys_T_Break_C" = 759.2873   $ Sizing
 "CSupFlo_Sys_T_Conf_C" = 744.4161   $ Sizing
 "CSupFlo_Sys_T_CopyRm_C" = 250.3721   $ Sizing
 "CSupFlo_Sys_T_Cordr_C" = 1207.369   $ Sizing
 "CSupFlo_Sys_T_Cordr_E" = 441.7626   $ Sizing
 "CSupFlo_Sys_T_Cordr_N" = 292.899   $ Sizing
 "CSupFlo_Sys_T_Cordr_S" = 425.8585   $ Sizing
 "CSupFlo_Sys_T_Cordr_W" = 474.9015   $ Sizing
 "CSupFlo_Sys_T_LobWait_C" = 794.5641   $ Sizing
 "CSupFlo_Sys_T_MechElec_C" = 286.6927   $ Sizing
 "CSupFlo_Sys_T_OfficeOpn_C" = 2518.364   $ Sizing
 "CSupFlo_Sys_T_OfficeOpn_E" = 2908.868   $ Sizing
 "CSupFlo_Sys_T_OfficeOpn_N" = 1974.319   $ Sizing
 "CSupFlo_Sys_T_OfficeOpn_S" = 2850.002   $ Sizing
 "CSupFlo_Sys_T_OfficeOpn_W" = 3254.199   $ Sizing
 "CSupFlo_Sys_T_OfficeSm_C" = 342.1404   $ Sizing
 "CSupFlo_Sys_T_OfficeSm_E" = 2152.205   $ Sizing
 "CSupFlo_Sys_T_OfficeSm_N" = 1334.448   $ Sizing
 "CSupFlo_Sys_T_OfficeSm_S" = 2091.356   $ Sizing
 "CSupFlo_Sys_T_OfficeSm_W" = 2380.112   $ Sizing
 "CSupFlo_Sys_T_Restrm_C" = 210.4861   $ Sizing
 "CSupFlo_Sys_T_StorSm_C" = 485.2224   $ Sizing
 "ClCap_Sys_L_Break_C" = 25612.21   $ Sizing
 "ClCap_Sys_L_Conf_C" = 32223.03   $ Sizing
 "ClCap_Sys_L_CopyRm_C" = 8630.126   $ Sizing
 "ClCap_Sys_L_Cordr_C" = 31042.83   $ Sizing
 "ClCap_Sys_L_Cordr_E" = 13725.47   $ Sizing
 "ClCap_Sys_L_Cordr_N" = 9124.061   $ Sizing
 "ClCap_Sys_L_Cordr_S" = 13001.28   $ Sizing
 "ClCap_Sys_L_Cordr_W" = 15367.62   $ Sizing
 "ClCap_Sys_L_LobWait_C" = 26401.19   $ Sizing
 "ClCap_Sys_L_MechElec_C" = 6546.33   $ Sizing
 "ClCap_Sys_L_OfficeOpn_C" = 81435   $ Sizing
 "ClCap_Sys_L_OfficeOpn_E" = 93921.08   $ Sizing
 "ClCap_Sys_L_OfficeOpn_N" = 61972.61   $ Sizing
 "ClCap_Sys_L_OfficeOpn_S" = 88117.26   $ Sizing
 "ClCap_Sys_L_OfficeOpn_W" = 107760.5   $ Sizing
 "ClCap_Sys_L_OfficeSm_C" = 10637.99   $ Sizing
 "ClCap_Sys_L_OfficeSm_E" = 68731.45   $ Sizing
 "ClCap_Sys_L_OfficeSm_N" = 41952.42   $ Sizing
 "ClCap_Sys_L_OfficeSm_S" = 64736.99   $ Sizing
 "ClCap_Sys_L_OfficeSm_W" = 78217.1   $ Sizing
 "ClCap_Sys_L_Restrm_C" = 4439.248   $ Sizing
 "ClCap_Sys_L_StorSm_C" = 18719.81   $ Sizing
 "ClCap_Sys_M_Break_C" = 207014.1   $ Sizing
 "ClCap_Sys_M_Conf_C" = 258131.3   $ Sizing
 "ClCap_Sys_M_CopyRm_C" = 68033.88   $ Sizing
 "ClCap_Sys_M_Cordr_C" = 337401.2   $ Sizing
 "ClCap_Sys_M_Cordr_E" = 118446.3   $ Sizing
 "ClCap_Sys_M_Cordr_N" = 76308.34   $ Sizing
 "ClCap_Sys_M_Cordr_S" = 112243.4   $ Sizing
 "ClCap_Sys_M_Cordr_W" = 126802.8   $ Sizing
 "ClCap_Sys_M_LobWait_C" = 215857.1   $ Sizing
 "ClCap_Sys_M_MechElec_C" = 64759.07   $ Sizing
 "ClCap_Sys_M_OfficeOpn_C" = 658849.6   $ Sizing
 "ClCap_Sys_M_OfficeOpn_E" = 786533.8   $ Sizing
 "ClCap_Sys_M_OfficeOpn_N" = 512349.9   $ Sizing
 "ClCap_Sys_M_OfficeOpn_S" = 749988.6   $ Sizing
 "ClCap_Sys_M_OfficeOpn_W" = 879715.4   $ Sizing
 "ClCap_Sys_M_OfficeSm_C" = 93149.52   $ Sizing
 "ClCap_Sys_M_OfficeSm_E" = 569282.8   $ Sizing
 "ClCap_Sys_M_OfficeSm_N" = 344166.9   $ Sizing
 "ClCap_Sys_M_OfficeSm_S" = 544940.3   $ Sizing
 "ClCap_Sys_M_OfficeSm_W" = 632749.5   $ Sizing
 "ClCap_Sys_M_Restrm_C" = 41545.36   $ Sizing
 "ClCap_Sys_M_StorSm_C" = 161057.2   $ Sizing
 "ClCap_Sys_T_Break_C" = 25580.76   $ Sizing
 "ClCap_Sys_T_Conf_C" = 31919.67   $ Sizing
 "ClCap_Sys_T_CopyRm_C" = 8435.158   $ Sizing
 "ClCap_Sys_T_Cordr_C" = 40676.84   $ Sizing
 "ClCap_Sys_T_Cordr_E" = 14883.2   $ Sizing
 "ClCap_Sys_T_Cordr_N" = 9867.907   $ Sizing
 "ClCap_Sys_T_Cordr_S" = 14347.38   $ Sizing
 "ClCap_Sys_T_Cordr_W" = 15999.66   $ Sizing
 "ClCap_Sys_T_LobWait_C" = 26769.25   $ Sizing
 "ClCap_Sys_T_MechElec_C" = 9658.813   $ Sizing
 "ClCap_Sys_T_OfficeOpn_C" = 84844.89   $ Sizing
 "ClCap_Sys_T_OfficeOpn_E" = 98001.16   $ Sizing
 "ClCap_Sys_T_OfficeOpn_N" = 66515.77   $ Sizing
 "ClCap_Sys_T_OfficeOpn_S" = 96017.95   $ Sizing
 "ClCap_Sys_T_OfficeOpn_W" = 109635.5   $ Sizing
 "ClCap_Sys_T_OfficeSm_C" = 11526.87   $ Sizing
 "ClCap_Sys_T_OfficeSm_E" = 72508.82   $ Sizing
 "ClCap_Sys_T_OfficeSm_N" = 44958.2   $ Sizing
 "ClCap_Sys_T_OfficeSm_S" = 70458.79   $ Sizing
 "ClCap_Sys_T_OfficeSm_W" = 80187.12   $ Sizing
 "ClCap_Sys_T_Restrm_C" = 7091.379   $ Sizing
 "ClCap_Sys_T_StorSm_C" = 16347.38   $ Sizing
 "HtCap_Sys_L_Break_C" = -38487.61   $ Sizing
 "HtCap_Sys_L_Conf_C" = -38864.65   $ Sizing
 "HtCap_Sys_L_CopyRm_C" = -14775.35   $ Sizing
 "HtCap_Sys_L_Cordr_C" = -36694.08   $ Sizing
 "HtCap_Sys_L_Cordr_E" = -12813.73   $ Sizing
 "HtCap_Sys_L_Cordr_N" = -9503.213   $ Sizing
 "HtCap_Sys_L_Cordr_S" = -12766.78   $ Sizing
 "HtCap_Sys_L_Cordr_W" = -14489.51   $ Sizing
 "HtCap_Sys_L_LobWait_C" = -37417.77   $ Sizing
 "HtCap_Sys_L_MechElec_C" = -7845.031   $ Sizing
 "HtCap_Sys_L_OfficeOpn_C" = -116481.7   $ Sizing
 "HtCap_Sys_L_OfficeOpn_E" = -89846.07   $ Sizing
 "HtCap_Sys_L_OfficeOpn_N" = -61369.04   $ Sizing
 "HtCap_Sys_L_OfficeOpn_S" = -87727.76   $ Sizing
 "HtCap_Sys_L_OfficeOpn_W" = -97964.91   $ Sizing
 "HtCap_Sys_L_OfficeSm_C" = -15074.1   $ Sizing
 "HtCap_Sys_L_OfficeSm_E" = -68756.42   $ Sizing
 "HtCap_Sys_L_OfficeSm_N" = -41456.35   $ Sizing
 "HtCap_Sys_L_OfficeSm_S" = -67924.88   $ Sizing
 "HtCap_Sys_L_OfficeSm_W" = -73357.51   $ Sizing
 "HtCap_Sys_L_Restrm_C" = -7912.446   $ Sizing
 "HtCap_Sys_L_StorSm_C" = -21726.41   $ Sizing
 "HtCap_Sys_M_Break_C" = -297235.1   $ Sizing
 "HtCap_Sys_M_Conf_C" = -290953.2   $ Sizing
 "HtCap_Sys_M_CopyRm_C" = -104262.7   $ Sizing
 "HtCap_Sys_M_Cordr_C" = -357064.4   $ Sizing
 "HtCap_Sys_M_Cordr_E" = -112373.5   $ Sizing
 "HtCap_Sys_M_Cordr_N" = -77796.3   $ Sizing
 "HtCap_Sys_M_Cordr_S" = -110464.9   $ Sizing
 "HtCap_Sys_M_Cordr_W" = -118357   $ Sizing
 "HtCap_Sys_M_LobWait_C" = -275521.3   $ Sizing
 "HtCap_Sys_M_MechElec_C" = -71084.3   $ Sizing
 "HtCap_Sys_M_OfficeOpn_C" = -939247.8   $ Sizing
 "HtCap_Sys_M_OfficeOpn_E" = -758196.4   $ Sizing
 "HtCap_Sys_M_OfficeOpn_N" = -502511   $ Sizing
 "HtCap_Sys_M_OfficeOpn_S" = -747701.1   $ Sizing
 "HtCap_Sys_M_OfficeOpn_W" = -796395.3   $ Sizing
 "HtCap_Sys_M_OfficeSm_C" = -130414.7   $ Sizing
 "HtCap_Sys_M_OfficeSm_E" = -572164.3   $ Sizing
 "HtCap_Sys_M_OfficeSm_N" = -337290.9   $ Sizing
 "HtCap_Sys_M_OfficeSm_S" = -571838.4   $ Sizing
 "HtCap_Sys_M_OfficeSm_W" = -571170.6   $ Sizing
 "HtCap_Sys_M_Restrm_C" = -68353.96   $ Sizing
 "HtCap_Sys_M_StorSm_C" = -177419.5   $ Sizing
 "HtCap_Sys_T_Break_C" = -39612.8   $ Sizing
 "HtCap_Sys_T_Conf_C" = -38806.96   $ Sizing
 "HtCap_Sys_T_CopyRm_C" = -14020.95   $ Sizing
 "HtCap_Sys_T_Cordr_C" = -48063.64   $ Sizing
 "HtCap_Sys_T_Cordr_E" = -15529.56   $ Sizing
 "HtCap_Sys_T_Cordr_N" = -11429.77   $ Sizing
 "HtCap_Sys_T_Cordr_S" = -14643.24   $ Sizing
 "HtCap_Sys_T_Cordr_W" = -16854.57   $ Sizing
 "HtCap_Sys_T_LobWait_C" = -37602.22   $ Sizing
 "HtCap_Sys_T_MechElec_C" = -10056.99   $ Sizing
 "HtCap_Sys_T_OfficeOpn_C" = -120985.2   $ Sizing
 "HtCap_Sys_T_OfficeOpn_E" = -99440.08   $ Sizing
 "HtCap_Sys_T_OfficeOpn_N" = -73862.35   $ Sizing
 "HtCap_Sys_T_OfficeOpn_S" = -94622   $ Sizing
 "HtCap_Sys_T_OfficeOpn_W" = -109666.7   $ Sizing
 "HtCap_Sys_T_OfficeSm_C" = -13243.99   $ Sizing
 "HtCap_Sys_T_OfficeSm_E" = -74743.38   $ Sizing
 "HtCap_Sys_T_OfficeSm_N" = -49011.82   $ Sizing
 "HtCap_Sys_T_OfficeSm_S" = -73561.02   $ Sizing
 "HtCap_Sys_T_OfficeSm_W" = -79863.45   $ Sizing
 "HtCap_Sys_T_Restrm_C" = -8755.229   $ Sizing
 "HtCap_Sys_T_StorSm_C" = -22856.31   $ Sizing
..

##include Templates\OfL_DX_SZ.inp
END ..
COMPUTE ..
STOP ..
