INPUT ..

##fileprefix C:\Users\jglasskatz\MASControl3\
##set1 IsSizing FALSE
##set1 CoolType DX
##set1 HeatType HEAT-PUMP
##set1 EU_HrRepVar 1
##set1 BldgVint 2007
##set1 BldgLoc CZ01

 ##set1 mBFMult 1   $ IP Tech: RefgChg-NRes-Std

PARAMETER
 "AltFactor" = 1.00753   $ IP Non-Tech
 "BldgEconoFlag" = 1   $ IP Non-Tech
 "Break_EWSF" = 1   $ IP Non-Tech
 "Break_LWSF" = 1.1   $ IP Non-Tech
 "CDD_DBHi10" = 65   $ IP Non-Tech
 "CDD_DBHi7" = 68   $ IP Non-Tech
 "CDD_DBHi8" = 66   $ IP Non-Tech
 "CDD_DBHi9" = 77   $ IP Non-Tech
 "CDD_DBRange10" = 17   $ IP Non-Tech
 "CDD_DBRange7" = 11   $ IP Non-Tech
 "CDD_DBRange8" = 10   $ IP Non-Tech
 "CDD_DBRange9" = 29   $ IP Non-Tech
 "CDD_Day10" = 15   $ IP Non-Tech
 "CDD_Day7" = 16   $ IP Non-Tech
 "CDD_Day8" = 20   $ IP Non-Tech
 "CDD_Day9" = 17   $ IP Non-Tech
 "CDD_HrHi10" = 12   $ IP Non-Tech
 "CDD_HrHi7" = 12   $ IP Non-Tech
 "CDD_HrHi8" = 13   $ IP Non-Tech
 "CDD_HrHi9" = 17   $ IP Non-Tech
 "CDD_HrLo10" = 6   $ IP Non-Tech
 "CDD_HrLo7" = 3   $ IP Non-Tech
 "CDD_HrLo8" = 8   $ IP Non-Tech
 "CDD_HrLo9" = 4   $ IP Non-Tech
 "CDD_WB10" = 57.53039551   $ IP Non-Tech
 "CDD_WB7" = 59.29250717   $ IP Non-Tech
 "CDD_WB8" = 60.75350189   $ IP Non-Tech
 "CDD_WB9" = 61.08643341   $ IP Non-Tech
 "CZ_Category" = Tem   $ IP Non-Tech
 "ChwVintEconoFlag" = 1   $ IP Non-Tech
 "Conference_EWSF" = 1   $ IP Non-Tech
 "Conference_LWSF" = 1.4   $ IP Non-Tech
 "CoolSetT" = 45   $ IP Non-Tech
 "CoolType" = DX   $ IP Non-Tech
 "CopyRoom_EWSF" = 1.5   $ IP Non-Tech
 "CopyRoom_LWSF" = 1.3   $ IP Non-Tech
 "CorridorStairway_EWSF" = 0.2   $ IP Non-Tech
 "CorridorStairway_LWSF" = 0.6   $ IP Non-Tech
 "DesCoolT" = 75   $ IP Non-Tech
 "DesHeatT" = 73   $ IP Non-Tech
 "EconoEnthLimit" = 28   $ IP Non-Tech
 "EconoTempLimit" = 70   $ IP Non-Tech
 "Elevation" = 203   $ IP Non-Tech
 "HDD_CloudAmt1" = 0   $ IP Non-Tech
 "HDD_DBHi1" = 53   $ IP Non-Tech
 "HDD_DBRange1" = 20   $ IP Non-Tech
 "HDD_Day1" = 15   $ IP Non-Tech
 "HDD_HrHi1" = 14   $ IP Non-Tech
 "HDD_HrLo1" = 6   $ IP Non-Tech
 "HDD_WB1" = 42.3   $ IP Non-Tech
 "HDD_WindSpd1" = 12.7   $ IP Non-Tech
 "HeatSrc" = HEAT-PUMP   $ IP Non-Tech
 "HeatSrcTU" = HEAT-PUMP   $ IP Non-Tech
 "HeatType" = HP   $ IP Non-Tech
 "HeatTypeTU" = HEAT-PUMP   $ IP Non-Tech
 "IndoorFanMode" = CONTINUOUS   $ IP Non-Tech
 "KT_TransferAir" = No   $ IP Non-Tech
 "Latitude" = 40.8   $ IP Non-Tech
 "LobbyWaiting_EWSF" = 0.5   $ IP Non-Tech
 "LobbyWaiting_LWSF" = 1.3   $ IP Non-Tech
 "Longitude" = 124.2   $ IP Non-Tech
 "LtgMsrApplic" = ALL   $ Msr TechID: NonResLtgRefMsr-CFL
 "LtgSav_CFL" = 0.3   $ Msr TechID: NonResLtgRefMsr-CFL
 "LtgSav_EX" = 0   $ Msr TechID: NonResLtgRefMsr-CFL
 "LtgSav_HB" = 0   $ Msr TechID: NonResLtgRefMsr-CFL
 "LtgSav_LF" = 0   $ Msr TechID: NonResLtgRefMsr-CFL
 "LtgSav_SP" = 0   $ Msr TechID: NonResLtgRefMsr-CFL
 "MZFanMechEff" = 0.58   $ IP Non-Tech
 "MZHasRetFan" = FALSE   $ IP Non-Tech
 "MZ_RFanWPerCfm" = 0.37   $ IP Non-Tech
 "MZ_SFanWPerCfm" = 0.71   $ IP Non-Tech
 "MZ_SupFanStatic" = 2.25   $ IP Non-Tech
 "MaxSupT_MZ" = 90   $ IP Non-Tech
 "MaxSupT_SZ" = 90   $ IP Non-Tech
 "MaxSupT_TU" = 90   $ IP Non-Tech
 "MechElecRoom_EWSF" = 0.2   $ IP Non-Tech
 "MechElecRoom_LWSF" = 0.7   $ IP Non-Tech
 "MinCfmPerSF" = 0.4   $ IP Non-Tech
 "MinSupT" = 55   $ IP Non-Tech
 "OccCoolT" = 76   $ IP Non-Tech
 "OccHeatT" = 72   $ IP Non-Tech
 "OfficeOpen_EWSF" = 1.5   $ IP Non-Tech
 "OfficeOpen_LWSF" = 1.2   $ IP Non-Tech
 "OfficeSmall_EWSF" = 1.5   $ IP Non-Tech
 "OfficeSmall_LWSF" = 1.3   $ IP Non-Tech
 "PkgDxVintEconoFlag" = 0   $ IP Non-Tech
 "Restroom_EWSF" = 0.2   $ IP Non-Tech
 "Restroom_LWSF" = 0.6   $ IP Non-Tech
 "SZFanMechEff" = 0.58   $ IP Non-Tech
 "SZHasRetFan" = FALSE   $ IP Non-Tech
 "SZ_Is_2Spd" = FALSE   $ IP Non-Tech
 "SZ_SFanWPerCfm" = 0.46   $ IP Non-Tech
 "SZ_SupFanStatic" = 0.75   $ IP Non-Tech
 "StorageSmlCond_EWSF" = 0.2   $ IP Non-Tech
 "StorageSmlCond_LWSF" = 0.6   $ IP Non-Tech
 "T24GlzTbl" = CZTbl   $ IP Non-Tech
 "TermUnitFanMechEff" = 1   $ IP Non-Tech
 "TermUnitFanMode" = INTERMITTENT   $ IP Non-Tech
 "TwrSetpt" = 80   $ IP Non-Tech
 "UnocCoolT" = 86   $ IP Non-Tech
 "UnocHeatT" = 62   $ IP Non-Tech
 "WlhpVintEconoFlag" = 0   $ IP Non-Tech
 "EconoCtrl" = OA-TEMP   $ IP Tech: AirEcono-OATemp
 "MaxOAFrac" = 0.85   $ IP Tech: AirEcono-OATemp
 "UseEconoVintApplic" = FALSE   $ IP Tech: AirEcono-OATemp
 "DuctDT" = 1   $ IP Tech: ComDuctInsul-1
 "DuctAirLoss" = 0   $ IP Tech: ComDuctLeak-0
 "DuctLossOAFrac" = 0   $ IP Tech: ComDuctLeak-0
 "ComRoofInsCalc" = FromUo   $ IP Tech: ComRoofIns-Hvy-0.05
 "ComRoofInsR" = -999   $ IP Tech: ComRoofIns-Hvy-0.05
 "ComRoofUo" = 0.05   $ IP Tech: ComRoofIns-Hvy-0.05
 "ComEWInsCalc" = FromUo   $ IP Tech: ComWallIns-MFrm-0.13
 "ComEWInsR" = -999   $ IP Tech: ComWallIns-MFrm-0.13
 "ComEWUo" = 0.13   $ IP Tech: ComWallIns-MFrm-0.13
 "ComN_SHGC" = 0.47   $ IP Tech: NResWin-ComN-0.47-0.47
 "ComN_UFactor" = 0.47   $ IP Tech: NResWin-ComN-0.47-0.47
 "ComN_VisTrans" = 0.75   $ IP Tech: NResWin-ComN-0.47-0.47
 "ComN_WinCode" = G2633   $ IP Tech: NResWin-ComN-0.47-0.47
 "ComN_WinFrmFrac" = 0.17   $ IP Tech: NResWin-ComN-0.47-0.47
 "ComN_WinFrmU" = 0.3   $ IP Tech: NResWin-ComN-0.47-0.47
 "ComO_SHGC" = 0.43   $ IP Tech: NResWin-ComO-0.47-0.43
 "ComO_UFactor" = 0.47   $ IP Tech: NResWin-ComO-0.47-0.43
 "ComO_VisTrans" = 0.68   $ IP Tech: NResWin-ComO-0.47-0.43
 "ComO_WinCode" = G2663   $ IP Tech: NResWin-ComO-0.47-0.43
 "ComO_WinFrmFrac" = 0.17   $ IP Tech: NResWin-ComO-0.47-0.43
 "ComO_WinFrmU" = 0.3   $ IP Tech: NResWin-ComO-0.47-0.43
 "BF_fFlow" = PSZ65to135_BF_fFlow   $ IP Tech: PkgHP1SpH-65to135-E10.1-C3.2
 "BF_fT" = PSZ65to135_BF_fT   $ IP Tech: PkgHP1SpH-65to135-E10.1-C3.2
 "CEIR_fPLR" = PSZ65to135_CEIR_fPLR   $ IP Tech: PkgHP1SpH-65to135-E10.1-C3.2
 "CLoss_fPLR" = PSZ65to135_CLoss_fPLR   $ IP Tech: PkgHP1SpH-65to135-E10.1-C3.2
 "COP" = 3.2   $ IP Tech: PkgHP1SpH-65to135-E10.1-C3.2
 "COP47" = 3.52   $ IP Tech: PkgHP1SpH-65to135-E10.1-C3.2
 "CfmPerBtuh" = 0.02917   $ IP Tech: PkgHP1SpH-65to135-E10.1-C3.2
 "ClCap_fT" = PSZ65to135_ClCap_fT   $ IP Tech: PkgHP1SpH-65to135-E10.1-C3.2
 "ClSH_fT" = PSZ65to135_ClSH_fT   $ IP Tech: PkgHP1SpH-65to135-E10.1-C3.2
 "CoilBF" = 0.114   $ IP Tech: PkgHP1SpH-65to135-E10.1-C3.2
 "CondWPerBtuh" = 0   $ IP Tech: PkgHP1SpH-65to135-E10.1-C3.2
 "CoolSensCap" = 0.663   $ IP Tech: PkgHP1SpH-65to135-E10.1-C3.2
 "CoolingEIR" = 0.29399   $ IP Tech: PkgHP1SpH-65to135-E10.1-C3.2
 "CrnkEIR" = 0.0029   $ IP Tech: PkgHP1SpH-65to135-E10.1-C3.2
 "CrnkMaxT" = 50   $ IP Tech: PkgHP1SpH-65to135-E10.1-C3.2
 "DXType" = Pkg   $ IP Tech: PkgHP1SpH-65to135-E10.1-C3.2
 "EER" = 9.77   $ IP Tech: PkgHP1SpH-65to135-E10.1-C3.2
 "EIR_fT" = PSZ65to135_EIR_fT   $ IP Tech: PkgHP1SpH-65to135-E10.1-C3.2
 "FanEirPlr" = TwoSpeedFan   $ IP Tech: PkgHP1SpH-65to135-E10.1-C3.2
 "FanWPerCfm" = 0.412   $ IP Tech: PkgHP1SpH-65to135-E10.1-C3.2
 "HIR_fT" = DEFAULT   $ IP Tech: PkgHP1SpH-65to135-E10.1-C3.2
 "HtCap_fT" = DEFAULT   $ IP Tech: PkgHP1SpH-65to135-E10.1-C3.2
 "HtCoolCapRatio" = 0.88   $ IP Tech: PkgHP1SpH-65to135-E10.1-C3.2
 "HtgEIR" = 0.2843   $ IP Tech: PkgHP1SpH-65to135-E10.1-C3.2
 "HtgFuel" = HP   $ IP Tech: PkgHP1SpH-65to135-E10.1-C3.2
 "IEER" = 12.02   $ IP Tech: PkgHP1SpH-65to135-E10.1-C3.2
 "LowSpdCapRatio" = 0.5   $ IP Tech: PkgHP1SpH-65to135-E10.1-C3.2
 "LowSpdCfmRatio" = 0.66   $ IP Tech: PkgHP1SpH-65to135-E10.1-C3.2
 "NominalCap" = 15   $ IP Tech: PkgHP1SpH-65to135-E10.1-C3.2
 "NumStages" = 1   $ IP Tech: PkgHP1SpH-65to135-E10.1-C3.2
 "RatedEER" = 10.1   $ IP Tech: PkgHP1SpH-65to135-E10.1-C3.2
 "RatedSupMtrClass" = HiEff   $ IP Tech: PkgHP1SpH-65to135-E10.1-C3.2
 "SizeRange" = 65to135   $ IP Tech: PkgHP1SpH-65to135-E10.1-C3.2
 "SubType" = HP   $ IP Tech: PkgHP1SpH-65to135-E10.1-C3.2
 "SupMotEff" = 0.84   $ IP Tech: PkgHP1SpH-65to135-E10.1-C3.2
 "Tier" = 0   $ IP Tech: PkgHP1SpH-65to135-E10.1-C3.2
 "TotCoolCap" = 184140   $ IP Tech: PkgHP1SpH-65to135-E10.1-C3.2
 "BFMult" = 1   $ IP Tech: RefgChg-NRes-Std
 "CoolEirMult" = 1   $ IP Tech: RefgChg-NRes-Std
 "SensCoolCapMult" = 1   $ IP Tech: RefgChg-NRes-Std
 "TotCoolCapMult" = 1   $ IP Tech: RefgChg-NRes-Std
 "AltAdjFactor" = 1.007532   $ Sizing
 "CAssFlo_L_Break_CZn" = 363.0379   $ Sizing
 "CAssFlo_L_Conf_CZn" = 419.5641   $ Sizing
 "CAssFlo_L_CopyRm_CZn" = 105.6376   $ Sizing
 "CAssFlo_L_Cordr_CZn" = 565.4379   $ Sizing
 "CAssFlo_L_Cordr_EZn" = 187.9678   $ Sizing
 "CAssFlo_L_Cordr_NZn" = 138.931   $ Sizing
 "CAssFlo_L_Cordr_SZn" = 199.9992   $ Sizing
 "CAssFlo_L_Cordr_WZn" = 179.9027   $ Sizing
 "CAssFlo_L_LobWait_CZn" = 348.3947   $ Sizing
 "CAssFlo_L_MechElec_CZn" = 134.1697   $ Sizing
 "CAssFlo_L_OfficeOpn_CZn" = 1656.692   $ Sizing
 "CAssFlo_L_OfficeOpn_EZn" = 1623.713   $ Sizing
 "CAssFlo_L_OfficeOpn_NZn" = 781.9624   $ Sizing
 "CAssFlo_L_OfficeOpn_SZn" = 1658.943   $ Sizing
 "CAssFlo_L_OfficeOpn_WZn" = 1563.301   $ Sizing
 "CAssFlo_L_OfficeSm_CZn" = 207.6335   $ Sizing
 "CAssFlo_L_OfficeSm_EZn" = 1139.129   $ Sizing
 "CAssFlo_L_OfficeSm_NZn" = 482.4667   $ Sizing
 "CAssFlo_L_OfficeSm_SZn" = 1192.939   $ Sizing
 "CAssFlo_L_OfficeSm_WZn" = 1085.512   $ Sizing
 "CAssFlo_L_Restrm_CZn" = 211.8611   $ Sizing
 "CAssFlo_L_StorSm_CZn" = 334.0894   $ Sizing
 "CAssFlo_M_Break_CZn" = 401.4116   $ Sizing
 "CAssFlo_M_Conf_CZn" = 467.4725   $ Sizing
 "CAssFlo_M_CopyRm_CZn" = 131.9928   $ Sizing
 "CAssFlo_M_Cordr_CZn" = 741.0823   $ Sizing
 "CAssFlo_M_Cordr_EZn" = 244.7079   $ Sizing
 "CAssFlo_M_Cordr_NZn" = 144.4935   $ Sizing
 "CAssFlo_M_Cordr_SZn" = 248.1184   $ Sizing
 "CAssFlo_M_Cordr_WZn" = 216.1506   $ Sizing
 "CAssFlo_M_LobWait_CZn" = 449.0564   $ Sizing
 "CAssFlo_M_MechElec_CZn" = 135.6183   $ Sizing
 "CAssFlo_M_OfficeOpn_CZn" = 1941.731   $ Sizing
 "CAssFlo_M_OfficeOpn_EZn" = 1816.615   $ Sizing
 "CAssFlo_M_OfficeOpn_NZn" = 936.5912   $ Sizing
 "CAssFlo_M_OfficeOpn_SZn" = 1861.303   $ Sizing
 "CAssFlo_M_OfficeOpn_WZn" = 1681.975   $ Sizing
 "CAssFlo_M_OfficeSm_CZn" = 266.5565   $ Sizing
 "CAssFlo_M_OfficeSm_EZn" = 1265.993   $ Sizing
 "CAssFlo_M_OfficeSm_NZn" = 559.6456   $ Sizing
 "CAssFlo_M_OfficeSm_SZn" = 1329.261   $ Sizing
 "CAssFlo_M_OfficeSm_WZn" = 1171.907   $ Sizing
 "CAssFlo_M_Restrm_CZn" = 211.8611   $ Sizing
 "CAssFlo_M_StorSm_CZn" = 352.2156   $ Sizing
 "CAssFlo_T_Break_CZn" = 375.4736   $ Sizing
 "CAssFlo_T_Conf_CZn" = 446.9362   $ Sizing
 "CAssFlo_T_CopyRm_CZn" = 124.8893   $ Sizing
 "CAssFlo_T_Cordr_CZn" = 656.8363   $ Sizing
 "CAssFlo_T_Cordr_EZn" = 217.5527   $ Sizing
 "CAssFlo_T_Cordr_NZn" = 126.8911   $ Sizing
 "CAssFlo_T_Cordr_SZn" = 225.2075   $ Sizing
 "CAssFlo_T_Cordr_WZn" = 194.6983   $ Sizing
 "CAssFlo_T_LobWait_CZn" = 415.4909   $ Sizing
 "CAssFlo_T_MechElec_CZn" = 140.7869   $ Sizing
 "CAssFlo_T_OfficeOpn_CZn" = 1813.067   $ Sizing
 "CAssFlo_T_OfficeOpn_EZn" = 1647.376   $ Sizing
 "CAssFlo_T_OfficeOpn_NZn" = 863.9104   $ Sizing
 "CAssFlo_T_OfficeOpn_SZn" = 1733.178   $ Sizing
 "CAssFlo_T_OfficeOpn_WZn" = 1541.721   $ Sizing
 "CAssFlo_T_OfficeSm_CZn" = 252.3398   $ Sizing
 "CAssFlo_T_OfficeSm_EZn" = 1183.347   $ Sizing
 "CAssFlo_T_OfficeSm_NZn" = 536.1546   $ Sizing
 "CAssFlo_T_OfficeSm_SZn" = 1266.332   $ Sizing
 "CAssFlo_T_OfficeSm_WZn" = 1102.904   $ Sizing
 "CAssFlo_T_Restrm_CZn" = 211.8611   $ Sizing
 "CAssFlo_T_StorSm_CZn" = 334.0894   $ Sizing
 "CHRtFlo_Sys_L_Break_C" = 363.0379   $ Sizing
 "CHRtFlo_Sys_L_Conf_C" = 419.5641   $ Sizing
 "CHRtFlo_Sys_L_CopyRm_C" = 105.6376   $ Sizing
 "CHRtFlo_Sys_L_Cordr_C" = 565.4378   $ Sizing
 "CHRtFlo_Sys_L_Cordr_E" = 187.9678   $ Sizing
 "CHRtFlo_Sys_L_Cordr_N" = 138.931   $ Sizing
 "CHRtFlo_Sys_L_Cordr_S" = 199.9992   $ Sizing
 "CHRtFlo_Sys_L_Cordr_W" = 179.9027   $ Sizing
 "CHRtFlo_Sys_L_LobWait_C" = 348.3947   $ Sizing
 "CHRtFlo_Sys_L_MechElec_C" = 134.1697   $ Sizing
 "CHRtFlo_Sys_L_OfficeOpn_C" = 1656.692   $ Sizing
 "CHRtFlo_Sys_L_OfficeOpn_E" = 1623.713   $ Sizing
 "CHRtFlo_Sys_L_OfficeOpn_N" = 781.9624   $ Sizing
 "CHRtFlo_Sys_L_OfficeOpn_S" = 1658.943   $ Sizing
 "CHRtFlo_Sys_L_OfficeOpn_W" = 1563.301   $ Sizing
 "CHRtFlo_Sys_L_OfficeSm_C" = 207.6335   $ Sizing
 "CHRtFlo_Sys_L_OfficeSm_E" = 1139.129   $ Sizing
 "CHRtFlo_Sys_L_OfficeSm_N" = 482.4667   $ Sizing
 "CHRtFlo_Sys_L_OfficeSm_S" = 1192.939   $ Sizing
 "CHRtFlo_Sys_L_OfficeSm_W" = 1085.512   $ Sizing
 "CHRtFlo_Sys_L_Restrm_C" = 211.8611   $ Sizing
 "CHRtFlo_Sys_L_StorSm_C" = 334.0894   $ Sizing
 "CHRtFlo_Sys_M_Break_C" = 3211.293   $ Sizing
 "CHRtFlo_Sys_M_Conf_C" = 3739.78   $ Sizing
 "CHRtFlo_Sys_M_CopyRm_C" = 1055.942   $ Sizing
 "CHRtFlo_Sys_M_Cordr_C" = 5928.658   $ Sizing
 "CHRtFlo_Sys_M_Cordr_E" = 1957.663   $ Sizing
 "CHRtFlo_Sys_M_Cordr_N" = 1155.948   $ Sizing
 "CHRtFlo_Sys_M_Cordr_S" = 1984.947   $ Sizing
 "CHRtFlo_Sys_M_Cordr_W" = 1729.205   $ Sizing
 "CHRtFlo_Sys_M_LobWait_C" = 3592.451   $ Sizing
 "CHRtFlo_Sys_M_MechElec_C" = 1084.946   $ Sizing
 "CHRtFlo_Sys_M_OfficeOpn_C" = 15533.84   $ Sizing
 "CHRtFlo_Sys_M_OfficeOpn_E" = 14532.92   $ Sizing
 "CHRtFlo_Sys_M_OfficeOpn_N" = 7492.73   $ Sizing
 "CHRtFlo_Sys_M_OfficeOpn_S" = 14890.42   $ Sizing
 "CHRtFlo_Sys_M_OfficeOpn_W" = 13455.8   $ Sizing
 "CHRtFlo_Sys_M_OfficeSm_C" = 2132.452   $ Sizing
 "CHRtFlo_Sys_M_OfficeSm_E" = 10127.95   $ Sizing
 "CHRtFlo_Sys_M_OfficeSm_N" = 4477.165   $ Sizing
 "CHRtFlo_Sys_M_OfficeSm_S" = 10634.09   $ Sizing
 "CHRtFlo_Sys_M_OfficeSm_W" = 9375.255   $ Sizing
 "CHRtFlo_Sys_M_Restrm_C" = 1694.889   $ Sizing
 "CHRtFlo_Sys_M_StorSm_C" = 2817.725   $ Sizing
 "CHRtFlo_Sys_T_Break_C" = 375.4736   $ Sizing
 "CHRtFlo_Sys_T_Conf_C" = 446.9362   $ Sizing
 "CHRtFlo_Sys_T_CopyRm_C" = 124.8893   $ Sizing
 "CHRtFlo_Sys_T_Cordr_C" = 656.8363   $ Sizing
 "CHRtFlo_Sys_T_Cordr_E" = 217.5527   $ Sizing
 "CHRtFlo_Sys_T_Cordr_N" = 126.8911   $ Sizing
 "CHRtFlo_Sys_T_Cordr_S" = 225.2075   $ Sizing
 "CHRtFlo_Sys_T_Cordr_W" = 194.6983   $ Sizing
 "CHRtFlo_Sys_T_LobWait_C" = 415.4909   $ Sizing
 "CHRtFlo_Sys_T_MechElec_C" = 140.7869   $ Sizing
 "CHRtFlo_Sys_T_OfficeOpn_C" = 1813.067   $ Sizing
 "CHRtFlo_Sys_T_OfficeOpn_E" = 1647.376   $ Sizing
 "CHRtFlo_Sys_T_OfficeOpn_N" = 863.9104   $ Sizing
 "CHRtFlo_Sys_T_OfficeOpn_S" = 1733.178   $ Sizing
 "CHRtFlo_Sys_T_OfficeOpn_W" = 1541.721   $ Sizing
 "CHRtFlo_Sys_T_OfficeSm_C" = 252.3398   $ Sizing
 "CHRtFlo_Sys_T_OfficeSm_E" = 1183.347   $ Sizing
 "CHRtFlo_Sys_T_OfficeSm_N" = 536.1546   $ Sizing
 "CHRtFlo_Sys_T_OfficeSm_S" = 1266.332   $ Sizing
 "CHRtFlo_Sys_T_OfficeSm_W" = 1102.904   $ Sizing
 "CHRtFlo_Sys_T_Restrm_C" = 211.8611   $ Sizing
 "CHRtFlo_Sys_T_StorSm_C" = 334.0894   $ Sizing
 "CRtdFlo_Sys_L_Break_C" = 363.0379   $ Sizing
 "CRtdFlo_Sys_L_Conf_C" = 419.5641   $ Sizing
 "CRtdFlo_Sys_L_CopyRm_C" = 105.6376   $ Sizing
 "CRtdFlo_Sys_L_Cordr_C" = 565.4379   $ Sizing
 "CRtdFlo_Sys_L_Cordr_E" = 187.9678   $ Sizing
 "CRtdFlo_Sys_L_Cordr_N" = 138.931   $ Sizing
 "CRtdFlo_Sys_L_Cordr_S" = 199.9992   $ Sizing
 "CRtdFlo_Sys_L_Cordr_W" = 179.9027   $ Sizing
 "CRtdFlo_Sys_L_LobWait_C" = 348.3947   $ Sizing
 "CRtdFlo_Sys_L_MechElec_C" = 134.1697   $ Sizing
 "CRtdFlo_Sys_L_OfficeOpn_C" = 1656.692   $ Sizing
 "CRtdFlo_Sys_L_OfficeOpn_E" = 1623.713   $ Sizing
 "CRtdFlo_Sys_L_OfficeOpn_N" = 781.9624   $ Sizing
 "CRtdFlo_Sys_L_OfficeOpn_S" = 1658.943   $ Sizing
 "CRtdFlo_Sys_L_OfficeOpn_W" = 1563.301   $ Sizing
 "CRtdFlo_Sys_L_OfficeSm_C" = 207.6335   $ Sizing
 "CRtdFlo_Sys_L_OfficeSm_E" = 1139.129   $ Sizing
 "CRtdFlo_Sys_L_OfficeSm_N" = 482.4667   $ Sizing
 "CRtdFlo_Sys_L_OfficeSm_S" = 1192.939   $ Sizing
 "CRtdFlo_Sys_L_OfficeSm_W" = 1085.512   $ Sizing
 "CRtdFlo_Sys_L_Restrm_C" = 211.8611   $ Sizing
 "CRtdFlo_Sys_L_StorSm_C" = 334.0894   $ Sizing
 "CRtdFlo_Sys_M_Break_C" = 3211.293   $ Sizing
 "CRtdFlo_Sys_M_Conf_C" = 3739.78   $ Sizing
 "CRtdFlo_Sys_M_CopyRm_C" = 1055.942   $ Sizing
 "CRtdFlo_Sys_M_Cordr_C" = 5928.658   $ Sizing
 "CRtdFlo_Sys_M_Cordr_E" = 1957.663   $ Sizing
 "CRtdFlo_Sys_M_Cordr_N" = 1155.948   $ Sizing
 "CRtdFlo_Sys_M_Cordr_S" = 1984.947   $ Sizing
 "CRtdFlo_Sys_M_Cordr_W" = 1729.205   $ Sizing
 "CRtdFlo_Sys_M_LobWait_C" = 3592.451   $ Sizing
 "CRtdFlo_Sys_M_MechElec_C" = 1084.946   $ Sizing
 "CRtdFlo_Sys_M_OfficeOpn_C" = 15533.84   $ Sizing
 "CRtdFlo_Sys_M_OfficeOpn_E" = 14532.92   $ Sizing
 "CRtdFlo_Sys_M_OfficeOpn_N" = 7492.73   $ Sizing
 "CRtdFlo_Sys_M_OfficeOpn_S" = 14890.42   $ Sizing
 "CRtdFlo_Sys_M_OfficeOpn_W" = 13455.8   $ Sizing
 "CRtdFlo_Sys_M_OfficeSm_C" = 2132.452   $ Sizing
 "CRtdFlo_Sys_M_OfficeSm_E" = 10127.95   $ Sizing
 "CRtdFlo_Sys_M_OfficeSm_N" = 4477.165   $ Sizing
 "CRtdFlo_Sys_M_OfficeSm_S" = 10634.09   $ Sizing
 "CRtdFlo_Sys_M_OfficeSm_W" = 9375.255   $ Sizing
 "CRtdFlo_Sys_M_Restrm_C" = 1694.889   $ Sizing
 "CRtdFlo_Sys_M_StorSm_C" = 2817.725   $ Sizing
 "CRtdFlo_Sys_T_Break_C" = 375.4736   $ Sizing
 "CRtdFlo_Sys_T_Conf_C" = 446.9362   $ Sizing
 "CRtdFlo_Sys_T_CopyRm_C" = 124.8893   $ Sizing
 "CRtdFlo_Sys_T_Cordr_C" = 656.8363   $ Sizing
 "CRtdFlo_Sys_T_Cordr_E" = 217.5527   $ Sizing
 "CRtdFlo_Sys_T_Cordr_N" = 126.8911   $ Sizing
 "CRtdFlo_Sys_T_Cordr_S" = 225.2075   $ Sizing
 "CRtdFlo_Sys_T_Cordr_W" = 194.6983   $ Sizing
 "CRtdFlo_Sys_T_LobWait_C" = 415.4909   $ Sizing
 "CRtdFlo_Sys_T_MechElec_C" = 140.7869   $ Sizing
 "CRtdFlo_Sys_T_OfficeOpn_C" = 1813.067   $ Sizing
 "CRtdFlo_Sys_T_OfficeOpn_E" = 1647.376   $ Sizing
 "CRtdFlo_Sys_T_OfficeOpn_N" = 863.9104   $ Sizing
 "CRtdFlo_Sys_T_OfficeOpn_S" = 1733.178   $ Sizing
 "CRtdFlo_Sys_T_OfficeOpn_W" = 1541.721   $ Sizing
 "CRtdFlo_Sys_T_OfficeSm_C" = 252.3398   $ Sizing
 "CRtdFlo_Sys_T_OfficeSm_E" = 1183.347   $ Sizing
 "CRtdFlo_Sys_T_OfficeSm_N" = 536.1546   $ Sizing
 "CRtdFlo_Sys_T_OfficeSm_S" = 1266.332   $ Sizing
 "CRtdFlo_Sys_T_OfficeSm_W" = 1102.904   $ Sizing
 "CRtdFlo_Sys_T_Restrm_C" = 211.8611   $ Sizing
 "CRtdFlo_Sys_T_StorSm_C" = 334.0894   $ Sizing
 "CSupFlo_Sys_L_Break_C" = 363.0379   $ Sizing
 "CSupFlo_Sys_L_Conf_C" = 419.5641   $ Sizing
 "CSupFlo_Sys_L_CopyRm_C" = 105.6376   $ Sizing
 "CSupFlo_Sys_L_Cordr_C" = 565.4379   $ Sizing
 "CSupFlo_Sys_L_Cordr_E" = 187.9678   $ Sizing
 "CSupFlo_Sys_L_Cordr_N" = 138.931   $ Sizing
 "CSupFlo_Sys_L_Cordr_S" = 199.9992   $ Sizing
 "CSupFlo_Sys_L_Cordr_W" = 179.9027   $ Sizing
 "CSupFlo_Sys_L_LobWait_C" = 348.3947   $ Sizing
 "CSupFlo_Sys_L_MechElec_C" = 134.1697   $ Sizing
 "CSupFlo_Sys_L_OfficeOpn_C" = 1656.692   $ Sizing
 "CSupFlo_Sys_L_OfficeOpn_E" = 1623.713   $ Sizing
 "CSupFlo_Sys_L_OfficeOpn_N" = 781.9624   $ Sizing
 "CSupFlo_Sys_L_OfficeOpn_S" = 1658.943   $ Sizing
 "CSupFlo_Sys_L_OfficeOpn_W" = 1563.301   $ Sizing
 "CSupFlo_Sys_L_OfficeSm_C" = 207.6335   $ Sizing
 "CSupFlo_Sys_L_OfficeSm_E" = 1139.129   $ Sizing
 "CSupFlo_Sys_L_OfficeSm_N" = 482.4667   $ Sizing
 "CSupFlo_Sys_L_OfficeSm_S" = 1192.939   $ Sizing
 "CSupFlo_Sys_L_OfficeSm_W" = 1085.512   $ Sizing
 "CSupFlo_Sys_L_Restrm_C" = 211.8611   $ Sizing
 "CSupFlo_Sys_L_StorSm_C" = 334.0894   $ Sizing
 "CSupFlo_Sys_M_Break_C" = 3211.293   $ Sizing
 "CSupFlo_Sys_M_Conf_C" = 3739.78   $ Sizing
 "CSupFlo_Sys_M_CopyRm_C" = 1055.942   $ Sizing
 "CSupFlo_Sys_M_Cordr_C" = 5928.658   $ Sizing
 "CSupFlo_Sys_M_Cordr_E" = 1957.663   $ Sizing
 "CSupFlo_Sys_M_Cordr_N" = 1155.948   $ Sizing
 "CSupFlo_Sys_M_Cordr_S" = 1984.947   $ Sizing
 "CSupFlo_Sys_M_Cordr_W" = 1729.205   $ Sizing
 "CSupFlo_Sys_M_LobWait_C" = 3592.451   $ Sizing
 "CSupFlo_Sys_M_MechElec_C" = 1084.946   $ Sizing
 "CSupFlo_Sys_M_OfficeOpn_C" = 15533.84   $ Sizing
 "CSupFlo_Sys_M_OfficeOpn_E" = 14532.92   $ Sizing
 "CSupFlo_Sys_M_OfficeOpn_N" = 7492.73   $ Sizing
 "CSupFlo_Sys_M_OfficeOpn_S" = 14890.42   $ Sizing
 "CSupFlo_Sys_M_OfficeOpn_W" = 13455.8   $ Sizing
 "CSupFlo_Sys_M_OfficeSm_C" = 2132.452   $ Sizing
 "CSupFlo_Sys_M_OfficeSm_E" = 10127.95   $ Sizing
 "CSupFlo_Sys_M_OfficeSm_N" = 4477.165   $ Sizing
 "CSupFlo_Sys_M_OfficeSm_S" = 10634.09   $ Sizing
 "CSupFlo_Sys_M_OfficeSm_W" = 9375.255   $ Sizing
 "CSupFlo_Sys_M_Restrm_C" = 1694.889   $ Sizing
 "CSupFlo_Sys_M_StorSm_C" = 2817.725   $ Sizing
 "CSupFlo_Sys_T_Break_C" = 375.4736   $ Sizing
 "CSupFlo_Sys_T_Conf_C" = 446.9362   $ Sizing
 "CSupFlo_Sys_T_CopyRm_C" = 124.8893   $ Sizing
 "CSupFlo_Sys_T_Cordr_C" = 656.8363   $ Sizing
 "CSupFlo_Sys_T_Cordr_E" = 217.5527   $ Sizing
 "CSupFlo_Sys_T_Cordr_N" = 126.8911   $ Sizing
 "CSupFlo_Sys_T_Cordr_S" = 225.2075   $ Sizing
 "CSupFlo_Sys_T_Cordr_W" = 194.6983   $ Sizing
 "CSupFlo_Sys_T_LobWait_C" = 415.4909   $ Sizing
 "CSupFlo_Sys_T_MechElec_C" = 140.7869   $ Sizing
 "CSupFlo_Sys_T_OfficeOpn_C" = 1813.067   $ Sizing
 "CSupFlo_Sys_T_OfficeOpn_E" = 1647.376   $ Sizing
 "CSupFlo_Sys_T_OfficeOpn_N" = 863.9104   $ Sizing
 "CSupFlo_Sys_T_OfficeOpn_S" = 1733.178   $ Sizing
 "CSupFlo_Sys_T_OfficeOpn_W" = 1541.721   $ Sizing
 "CSupFlo_Sys_T_OfficeSm_C" = 252.3398   $ Sizing
 "CSupFlo_Sys_T_OfficeSm_E" = 1183.347   $ Sizing
 "CSupFlo_Sys_T_OfficeSm_N" = 536.1546   $ Sizing
 "CSupFlo_Sys_T_OfficeSm_S" = 1266.332   $ Sizing
 "CSupFlo_Sys_T_OfficeSm_W" = 1102.904   $ Sizing
 "CSupFlo_Sys_T_Restrm_C" = 211.8611   $ Sizing
 "CSupFlo_Sys_T_StorSm_C" = 334.0894   $ Sizing
 "ClCap_Sys_L_Break_C" = 12353.96   $ Sizing
 "ClCap_Sys_L_Conf_C" = 18171.38   $ Sizing
 "ClCap_Sys_L_CopyRm_C" = 3594.783   $ Sizing
 "ClCap_Sys_L_Cordr_C" = 19241.51   $ Sizing
 "ClCap_Sys_L_Cordr_E" = 6396.43   $ Sizing
 "ClCap_Sys_L_Cordr_N" = 4727.74   $ Sizing
 "ClCap_Sys_L_Cordr_S" = 6805.854   $ Sizing
 "ClCap_Sys_L_Cordr_W" = 6121.98   $ Sizing
 "ClCap_Sys_L_LobWait_C" = 11855.66   $ Sizing
 "ClCap_Sys_L_MechElec_C" = 4565.713   $ Sizing
 "ClCap_Sys_L_OfficeOpn_C" = 56376.23   $ Sizing
 "ClCap_Sys_L_OfficeOpn_E" = 55253.99   $ Sizing
 "ClCap_Sys_L_OfficeOpn_N" = 26609.71   $ Sizing
 "ClCap_Sys_L_OfficeOpn_S" = 56452.84   $ Sizing
 "ClCap_Sys_L_OfficeOpn_W" = 53198.19   $ Sizing
 "ClCap_Sys_L_OfficeSm_C" = 7065.644   $ Sizing
 "ClCap_Sys_L_OfficeSm_E" = 38763.87   $ Sizing
 "ClCap_Sys_L_OfficeSm_N" = 16418.05   $ Sizing
 "ClCap_Sys_L_OfficeSm_S" = 40595   $ Sizing
 "ClCap_Sys_L_OfficeSm_W" = 36939.34   $ Sizing
 "ClCap_Sys_L_Restrm_C" = 7209.506   $ Sizing
 "ClCap_Sys_L_StorSm_C" = 11368.86   $ Sizing
 "ClCap_Sys_M_Break_C" = 109278.4   $ Sizing
 "ClCap_Sys_M_Conf_C" = 161970.4   $ Sizing
 "ClCap_Sys_M_CopyRm_C" = 35933.08   $ Sizing
 "ClCap_Sys_M_Cordr_C" = 201748.7   $ Sizing
 "ClCap_Sys_M_Cordr_E" = 66618.12   $ Sizing
 "ClCap_Sys_M_Cordr_N" = 39336.22   $ Sizing
 "ClCap_Sys_M_Cordr_S" = 67546.57   $ Sizing
 "ClCap_Sys_M_Cordr_W" = 58843.8   $ Sizing
 "ClCap_Sys_M_LobWait_C" = 122249   $ Sizing
 "ClCap_Sys_M_MechElec_C" = 36920.07   $ Sizing
 "ClCap_Sys_M_OfficeOpn_C" = 528607.4   $ Sizing
 "ClCap_Sys_M_OfficeOpn_E" = 494546.6   $ Sizing
 "ClCap_Sys_M_OfficeOpn_N" = 254973.1   $ Sizing
 "ClCap_Sys_M_OfficeOpn_S" = 506712.2   $ Sizing
 "ClCap_Sys_M_OfficeOpn_W" = 457892.8   $ Sizing
 "ClCap_Sys_M_OfficeSm_C" = 72566.07   $ Sizing
 "ClCap_Sys_M_OfficeSm_E" = 344647.9   $ Sizing
 "ClCap_Sys_M_OfficeSm_N" = 152355.2   $ Sizing
 "ClCap_Sys_M_OfficeSm_S" = 361871.6   $ Sizing
 "ClCap_Sys_M_OfficeSm_W" = 319034.3   $ Sizing
 "ClCap_Sys_M_Restrm_C" = 57676.05   $ Sizing
 "ClCap_Sys_M_StorSm_C" = 95885.48   $ Sizing
 "ClCap_Sys_T_Break_C" = 12777.14   $ Sizing
 "ClCap_Sys_T_Conf_C" = 19356.87   $ Sizing
 "ClCap_Sys_T_CopyRm_C" = 4249.907   $ Sizing
 "ClCap_Sys_T_Cordr_C" = 22351.75   $ Sizing
 "ClCap_Sys_T_Cordr_E" = 7403.189   $ Sizing
 "ClCap_Sys_T_Cordr_N" = 4318.027   $ Sizing
 "ClCap_Sys_T_Cordr_S" = 7663.677   $ Sizing
 "ClCap_Sys_T_Cordr_W" = 6625.468   $ Sizing
 "ClCap_Sys_T_LobWait_C" = 14138.91   $ Sizing
 "ClCap_Sys_T_MechElec_C" = 4790.893   $ Sizing
 "ClCap_Sys_T_OfficeOpn_C" = 61697.58   $ Sizing
 "ClCap_Sys_T_OfficeOpn_E" = 56059.21   $ Sizing
 "ClCap_Sys_T_OfficeOpn_N" = 29398.35   $ Sizing
 "ClCap_Sys_T_OfficeOpn_S" = 58979   $ Sizing
 "ClCap_Sys_T_OfficeOpn_W" = 52463.83   $ Sizing
 "ClCap_Sys_T_OfficeSm_C" = 8586.974   $ Sizing
 "ClCap_Sys_T_OfficeSm_E" = 40268.58   $ Sizing
 "ClCap_Sys_T_OfficeSm_N" = 18245.02   $ Sizing
 "ClCap_Sys_T_OfficeSm_S" = 43092.5   $ Sizing
 "ClCap_Sys_T_OfficeSm_W" = 37531.16   $ Sizing
 "ClCap_Sys_T_Restrm_C" = 7209.506   $ Sizing
 "ClCap_Sys_T_StorSm_C" = 11368.86   $ Sizing
 "HRtECT_Sys_L_Break_C" = 47   $ Sizing
 "HRtECT_Sys_L_Conf_C" = 47   $ Sizing
 "HRtECT_Sys_L_CopyRm_C" = 47   $ Sizing
 "HRtECT_Sys_L_Cordr_C" = 47   $ Sizing
 "HRtECT_Sys_L_Cordr_E" = 47   $ Sizing
 "HRtECT_Sys_L_Cordr_N" = 47   $ Sizing
 "HRtECT_Sys_L_Cordr_S" = 47   $ Sizing
 "HRtECT_Sys_L_Cordr_W" = 47   $ Sizing
 "HRtECT_Sys_L_LobWait_C" = 47   $ Sizing
 "HRtECT_Sys_L_MechElec_C" = 47   $ Sizing
 "HRtECT_Sys_L_OfficeOpn_C" = 47   $ Sizing
 "HRtECT_Sys_L_OfficeOpn_E" = 47   $ Sizing
 "HRtECT_Sys_L_OfficeOpn_N" = 47   $ Sizing
 "HRtECT_Sys_L_OfficeOpn_S" = 47   $ Sizing
 "HRtECT_Sys_L_OfficeOpn_W" = 47   $ Sizing
 "HRtECT_Sys_L_OfficeSm_C" = 47   $ Sizing
 "HRtECT_Sys_L_OfficeSm_E" = 47   $ Sizing
 "HRtECT_Sys_L_OfficeSm_N" = 47   $ Sizing
 "HRtECT_Sys_L_OfficeSm_S" = 47   $ Sizing
 "HRtECT_Sys_L_OfficeSm_W" = 47   $ Sizing
 "HRtECT_Sys_L_Restrm_C" = 47   $ Sizing
 "HRtECT_Sys_L_StorSm_C" = 47   $ Sizing
 "HRtECT_Sys_M_Break_C" = 47   $ Sizing
 "HRtECT_Sys_M_Conf_C" = 47   $ Sizing
 "HRtECT_Sys_M_CopyRm_C" = 47   $ Sizing
 "HRtECT_Sys_M_Cordr_C" = 47   $ Sizing
 "HRtECT_Sys_M_Cordr_E" = 47   $ Sizing
 "HRtECT_Sys_M_Cordr_N" = 47   $ Sizing
 "HRtECT_Sys_M_Cordr_S" = 47   $ Sizing
 "HRtECT_Sys_M_Cordr_W" = 47   $ Sizing
 "HRtECT_Sys_M_LobWait_C" = 47   $ Sizing
 "HRtECT_Sys_M_MechElec_C" = 47   $ Sizing
 "HRtECT_Sys_M_OfficeOpn_C" = 47   $ Sizing
 "HRtECT_Sys_M_OfficeOpn_E" = 47   $ Sizing
 "HRtECT_Sys_M_OfficeOpn_N" = 47   $ Sizing
 "HRtECT_Sys_M_OfficeOpn_S" = 47   $ Sizing
 "HRtECT_Sys_M_OfficeOpn_W" = 47   $ Sizing
 "HRtECT_Sys_M_OfficeSm_C" = 47   $ Sizing
 "HRtECT_Sys_M_OfficeSm_E" = 47   $ Sizing
 "HRtECT_Sys_M_OfficeSm_N" = 47   $ Sizing
 "HRtECT_Sys_M_OfficeSm_S" = 47   $ Sizing
 "HRtECT_Sys_M_OfficeSm_W" = 47   $ Sizing
 "HRtECT_Sys_M_Restrm_C" = 47   $ Sizing
 "HRtECT_Sys_M_StorSm_C" = 47   $ Sizing
 "HRtECT_Sys_T_Break_C" = 47   $ Sizing
 "HRtECT_Sys_T_Conf_C" = 47   $ Sizing
 "HRtECT_Sys_T_CopyRm_C" = 47   $ Sizing
 "HRtECT_Sys_T_Cordr_C" = 47   $ Sizing
 "HRtECT_Sys_T_Cordr_E" = 47   $ Sizing
 "HRtECT_Sys_T_Cordr_N" = 47   $ Sizing
 "HRtECT_Sys_T_Cordr_S" = 47   $ Sizing
 "HRtECT_Sys_T_Cordr_W" = 47   $ Sizing
 "HRtECT_Sys_T_LobWait_C" = 47   $ Sizing
 "HRtECT_Sys_T_MechElec_C" = 47   $ Sizing
 "HRtECT_Sys_T_OfficeOpn_C" = 47   $ Sizing
 "HRtECT_Sys_T_OfficeOpn_E" = 47   $ Sizing
 "HRtECT_Sys_T_OfficeOpn_N" = 47   $ Sizing
 "HRtECT_Sys_T_OfficeOpn_S" = 47   $ Sizing
 "HRtECT_Sys_T_OfficeOpn_W" = 47   $ Sizing
 "HRtECT_Sys_T_OfficeSm_C" = 47   $ Sizing
 "HRtECT_Sys_T_OfficeSm_E" = 47   $ Sizing
 "HRtECT_Sys_T_OfficeSm_N" = 47   $ Sizing
 "HRtECT_Sys_T_OfficeSm_S" = 47   $ Sizing
 "HRtECT_Sys_T_OfficeSm_W" = 47   $ Sizing
 "HRtECT_Sys_T_Restrm_C" = 47   $ Sizing
 "HRtECT_Sys_T_StorSm_C" = 47   $ Sizing
 "HSpCap_Sys_L_Break_C" = -7240.172   $ Sizing
 "HSpCap_Sys_L_Conf_C" = -11730.64   $ Sizing
 "HSpCap_Sys_L_CopyRm_C" = -2925.7   $ Sizing
 "HSpCap_Sys_L_Cordr_C" = -8466.265   $ Sizing
 "HSpCap_Sys_L_Cordr_E" = -3907.314   $ Sizing
 "HSpCap_Sys_L_Cordr_N" = -4278.299   $ Sizing
 "HSpCap_Sys_L_Cordr_S" = -2994.576   $ Sizing
 "HSpCap_Sys_L_Cordr_W" = -3863.694   $ Sizing
 "HSpCap_Sys_L_LobWait_C" = -7460.118   $ Sizing
 "HSpCap_Sys_L_MechElec_C" = -2008.914   $ Sizing
 "HSpCap_Sys_L_OfficeOpn_C" = -24805.54   $ Sizing
 "HSpCap_Sys_L_OfficeOpn_E" = -24311.76   $ Sizing
 "HSpCap_Sys_L_OfficeOpn_N" = -14187.51   $ Sizing
 "HSpCap_Sys_L_OfficeOpn_S" = -24839.25   $ Sizing
 "HSpCap_Sys_L_OfficeOpn_W" = -23407.2   $ Sizing
 "HSpCap_Sys_L_OfficeSm_C" = -3108.883   $ Sizing
 "HSpCap_Sys_L_OfficeSm_E" = -17056.1   $ Sizing
 "HSpCap_Sys_L_OfficeSm_N" = -13481.69   $ Sizing
 "HSpCap_Sys_L_OfficeSm_S" = -17861.8   $ Sizing
 "HSpCap_Sys_L_OfficeSm_W" = -16253.31   $ Sizing
 "HSpCap_Sys_L_Restrm_C" = -3172.183   $ Sizing
 "HSpCap_Sys_L_StorSm_C" = -7679.07   $ Sizing
 "HSpCap_Sys_M_Break_C" = -64284.98   $ Sizing
 "HSpCap_Sys_M_Conf_C" = -100867.1   $ Sizing
 "HSpCap_Sys_M_CopyRm_C" = -25798.77   $ Sizing
 "HSpCap_Sys_M_Cordr_C" = -88769.42   $ Sizing
 "HSpCap_Sys_M_Cordr_E" = -31420.49   $ Sizing
 "HSpCap_Sys_M_Cordr_N" = -34719.38   $ Sizing
 "HSpCap_Sys_M_Cordr_S" = -29720.49   $ Sizing
 "HSpCap_Sys_M_Cordr_W" = -30686.02   $ Sizing
 "HSpCap_Sys_M_LobWait_C" = -70238.93   $ Sizing
 "HSpCap_Sys_M_MechElec_C" = -17231.68   $ Sizing
 "HSpCap_Sys_M_OfficeOpn_C" = -232587.3   $ Sizing
 "HSpCap_Sys_M_OfficeOpn_E" = -217600.5   $ Sizing
 "HSpCap_Sys_M_OfficeOpn_N" = -119166.8   $ Sizing
 "HSpCap_Sys_M_OfficeOpn_S" = -222953.3   $ Sizing
 "HSpCap_Sys_M_OfficeOpn_W" = -201472.8   $ Sizing
 "HSpCap_Sys_M_OfficeSm_C" = -31929.07   $ Sizing
 "HSpCap_Sys_M_OfficeSm_E" = -151645.1   $ Sizing
 "HSpCap_Sys_M_OfficeSm_N" = -115122.3   $ Sizing
 "HSpCap_Sys_M_OfficeSm_S" = -159223.5   $ Sizing
 "HSpCap_Sys_M_OfficeSm_W" = -140375.1   $ Sizing
 "HSpCap_Sys_M_Restrm_C" = -25377.46   $ Sizing
 "HSpCap_Sys_M_StorSm_C" = -57895.96   $ Sizing
 "HSpCap_Sys_T_Break_C" = -8409.82   $ Sizing
 "HSpCap_Sys_T_Conf_C" = -12722.01   $ Sizing
 "HSpCap_Sys_T_CopyRm_C" = -3125.317   $ Sizing
 "HSpCap_Sys_T_Cordr_C" = -11117.69   $ Sizing
 "HSpCap_Sys_T_Cordr_E" = -4928.341   $ Sizing
 "HSpCap_Sys_T_Cordr_N" = -4715.934   $ Sizing
 "HSpCap_Sys_T_Cordr_S" = -3533.635   $ Sizing
 "HSpCap_Sys_T_Cordr_W" = -4705.119   $ Sizing
 "HSpCap_Sys_T_LobWait_C" = -9235.532   $ Sizing
 "HSpCap_Sys_T_MechElec_C" = -4144.622   $ Sizing
 "HSpCap_Sys_T_OfficeOpn_C" = -27146.93   $ Sizing
 "HSpCap_Sys_T_OfficeOpn_E" = -24666.05   $ Sizing
 "HSpCap_Sys_T_OfficeOpn_N" = -18922.24   $ Sizing
 "HSpCap_Sys_T_OfficeOpn_S" = -25950.76   $ Sizing
 "HSpCap_Sys_T_OfficeOpn_W" = -23084.08   $ Sizing
 "HSpCap_Sys_T_OfficeSm_C" = -3778.268   $ Sizing
 "HSpCap_Sys_T_OfficeSm_E" = -19058.78   $ Sizing
 "HSpCap_Sys_T_OfficeSm_N" = -16338.86   $ Sizing
 "HSpCap_Sys_T_OfficeSm_S" = -18960.7   $ Sizing
 "HSpCap_Sys_T_OfficeSm_W" = -18462.47   $ Sizing
 "HSpCap_Sys_T_Restrm_C" = -3172.183   $ Sizing
 "HSpCap_Sys_T_StorSm_C" = -6050.565   $ Sizing
 "HtCap_Sys_L_Break_C" = -10871.49   $ Sizing
 "HtCap_Sys_L_Conf_C" = -15990.82   $ Sizing
 "HtCap_Sys_L_CopyRm_C" = -3163.409   $ Sizing
 "HtCap_Sys_L_Cordr_C" = -16932.53   $ Sizing
 "HtCap_Sys_L_Cordr_E" = -5628.858   $ Sizing
 "HtCap_Sys_L_Cordr_N" = -4160.411   $ Sizing
 "HtCap_Sys_L_Cordr_S" = -5989.151   $ Sizing
 "HtCap_Sys_L_Cordr_W" = -5387.343   $ Sizing
 "HtCap_Sys_L_LobWait_C" = -10432.98   $ Sizing
 "HtCap_Sys_L_MechElec_C" = -4017.828   $ Sizing
 "HtCap_Sys_L_OfficeOpn_C" = -49611.08   $ Sizing
 "HtCap_Sys_L_OfficeOpn_E" = -48623.51   $ Sizing
 "HtCap_Sys_L_OfficeOpn_N" = -23416.55   $ Sizing
 "HtCap_Sys_L_OfficeOpn_S" = -49678.5   $ Sizing
 "HtCap_Sys_L_OfficeOpn_W" = -46814.41   $ Sizing
 "HtCap_Sys_L_OfficeSm_C" = -6217.767   $ Sizing
 "HtCap_Sys_L_OfficeSm_E" = -34112.2   $ Sizing
 "HtCap_Sys_L_OfficeSm_N" = -14447.89   $ Sizing
 "HtCap_Sys_L_OfficeSm_S" = -35723.6   $ Sizing
 "HtCap_Sys_L_OfficeSm_W" = -32506.62   $ Sizing
 "HtCap_Sys_L_Restrm_C" = -6344.366   $ Sizing
 "HtCap_Sys_L_StorSm_C" = -10004.6   $ Sizing
 "HtCap_Sys_M_Break_C" = -96164.96   $ Sizing
 "HtCap_Sys_M_Conf_C" = -142534   $ Sizing
 "HtCap_Sys_M_CopyRm_C" = -31621.11   $ Sizing
 "HtCap_Sys_M_Cordr_C" = -177538.8   $ Sizing
 "HtCap_Sys_M_Cordr_E" = -58623.94   $ Sizing
 "HtCap_Sys_M_Cordr_N" = -34615.87   $ Sizing
 "HtCap_Sys_M_Cordr_S" = -59440.98   $ Sizing
 "HtCap_Sys_M_Cordr_W" = -51782.54   $ Sizing
 "HtCap_Sys_M_LobWait_C" = -107579.1   $ Sizing
 "HtCap_Sys_M_MechElec_C" = -32489.66   $ Sizing
 "HtCap_Sys_M_OfficeOpn_C" = -465174.5   $ Sizing
 "HtCap_Sys_M_OfficeOpn_E" = -435201   $ Sizing
 "HtCap_Sys_M_OfficeOpn_N" = -224376.3   $ Sizing
 "HtCap_Sys_M_OfficeOpn_S" = -445906.7   $ Sizing
 "HtCap_Sys_M_OfficeOpn_W" = -402945.7   $ Sizing
 "HtCap_Sys_M_OfficeSm_C" = -63858.14   $ Sizing
 "HtCap_Sys_M_OfficeSm_E" = -303290.2   $ Sizing
 "HtCap_Sys_M_OfficeSm_N" = -134072.6   $ Sizing
 "HtCap_Sys_M_OfficeSm_S" = -318447   $ Sizing
 "HtCap_Sys_M_OfficeSm_W" = -280750.2   $ Sizing
 "HtCap_Sys_M_Restrm_C" = -50754.93   $ Sizing
 "HtCap_Sys_M_StorSm_C" = -84379.23   $ Sizing
 "HtCap_Sys_T_Break_C" = -11243.89   $ Sizing
 "HtCap_Sys_T_Conf_C" = -17034.05   $ Sizing
 "HtCap_Sys_T_CopyRm_C" = -3739.918   $ Sizing
 "HtCap_Sys_T_Cordr_C" = -19669.54   $ Sizing
 "HtCap_Sys_T_Cordr_E" = -6514.807   $ Sizing
 "HtCap_Sys_T_Cordr_N" = -3799.864   $ Sizing
 "HtCap_Sys_T_Cordr_S" = -6744.036   $ Sizing
 "HtCap_Sys_T_Cordr_W" = -5830.412   $ Sizing
 "HtCap_Sys_T_LobWait_C" = -12442.24   $ Sizing
 "HtCap_Sys_T_MechElec_C" = -4215.986   $ Sizing
 "HtCap_Sys_T_OfficeOpn_C" = -54293.87   $ Sizing
 "HtCap_Sys_T_OfficeOpn_E" = -49332.1   $ Sizing
 "HtCap_Sys_T_OfficeOpn_N" = -25870.55   $ Sizing
 "HtCap_Sys_T_OfficeOpn_S" = -51901.52   $ Sizing
 "HtCap_Sys_T_OfficeOpn_W" = -46168.17   $ Sizing
 "HtCap_Sys_T_OfficeSm_C" = -7556.537   $ Sizing
 "HtCap_Sys_T_OfficeSm_E" = -35436.35   $ Sizing
 "HtCap_Sys_T_OfficeSm_N" = -16055.62   $ Sizing
 "HtCap_Sys_T_OfficeSm_S" = -37921.4   $ Sizing
 "HtCap_Sys_T_OfficeSm_W" = -33027.43   $ Sizing
 "HtCap_Sys_T_Restrm_C" = -6344.366   $ Sizing
 "HtCap_Sys_T_StorSm_C" = -10004.6   $ Sizing
..

##include Templates\OfL_DX_SZ.inp
END ..
COMPUTE ..
STOP ..
