
Start DOESIM : Storage capacity =  75000000
Starting LOADS   : SAVE-FILES is On , weather is CZ01ARCATA-AP       
Finished LOADS    BDL  1 : Memory (wds) =    391959, Time (sec) =    2.50
Starting REPORT  
Finished REPORT   BDL  1 : Memory (wds) =    784897, Time (sec) =    0.87
Starting HVAC    : SAVE-FILES is On , weather is CZ01ARCATA-AP       
*** ERRORS or WARNINGS from HVAC     program. Examine output file for details.
Finished HVAC     BDL  1 : Memory (wds) =    676500, Time (sec) =    7.68
Starting REPORT  
Finished REPORT   BDL  1 : Memory (wds) =   1186409, Time (sec) =    0.88
Starting HOURLY-R
Finished HOURLY-R BDL  1 : Memory (wds) =   1519835, Time (sec) =    0.13
Starting ECONOMIC
Finished ECONOMIC BDL  1 : Memory (wds) =      1034, Time (sec) =    0.05
End   DOESIM : Total elapsed time of     12.1 seconds
RUN COMPLETE
