INPUT ..

##fileprefix C:\Users\jglasskatz\MASControl3\
##set1 IsSizing FALSE
##set1 CoolType DX
##set1 HeatType FURNACE
##set1 EU_HrRepVar 0
##set1 BldgVint 2015
##set1 BldgLoc CZ13

 ##set1 mBFMult 1   $ IP Tech: RefgChg-NRes-Std

PARAMETER
 "AltFactor" = 1.01244   $ IP Non-Tech
 "BF_fFlow" = SpltAC1Sp-ge45_BF_fFlow   $ Msr (Multi)TechID: StdNResSplitAC-45to55
 "BF_fT" = SpltAC1Sp-ge45_BF_fT   $ Msr (Multi)TechID: StdNResSplitAC-45to55
 "BldgEconoFlag" = 1   $ IP Non-Tech
 "Break_EWSF" = 1   $ IP Non-Tech
 "Break_LWSF" = 1.1   $ IP Non-Tech
 "CDD_DBHi10" = 86   $ IP Non-Tech
 "CDD_DBHi7" = 105   $ IP Non-Tech
 "CDD_DBHi8" = 102   $ IP Non-Tech
 "CDD_DBHi9" = 100   $ IP Non-Tech
 "CDD_DBRange10" = 28   $ IP Non-Tech
 "CDD_DBRange7" = 28   $ IP Non-Tech
 "CDD_DBRange8" = 28   $ IP Non-Tech
 "CDD_DBRange9" = 30   $ IP Non-Tech
 "CDD_Day10" = 15   $ IP Non-Tech
 "CDD_Day7" = 16   $ IP Non-Tech
 "CDD_Day8" = 20   $ IP Non-Tech
 "CDD_Day9" = 17   $ IP Non-Tech
 "CDD_HrHi10" = 16   $ IP Non-Tech
 "CDD_HrHi7" = 18   $ IP Non-Tech
 "CDD_HrHi8" = 18   $ IP Non-Tech
 "CDD_HrHi9" = 15   $ IP Non-Tech
 "CDD_HrLo10" = 5   $ IP Non-Tech
 "CDD_HrLo7" = 6   $ IP Non-Tech
 "CDD_HrLo8" = 7   $ IP Non-Tech
 "CDD_HrLo9" = 3   $ IP Non-Tech
 "CDD_WB10" = 62.19377518   $ IP Non-Tech
 "CDD_WB7" = 72.76699829   $ IP Non-Tech
 "CDD_WB8" = 69.69030762   $ IP Non-Tech
 "CDD_WB9" = 71.78777313   $ IP Non-Tech
 "CEIR_fPLR_Hot" = SpltAC1Sp-ge45_CEIR_fPLR_Hot   $ Msr (Multi)TechID: StdNResSplitAC-45to55
 "CEIR_fPLR_Mod" = SpltAC1Sp-ge45_CEIR_fPLR_Mod   $ Msr (Multi)TechID: StdNResSplitAC-45to55
 "CEIR_fPLR_Tem" = SpltAC1Sp-ge45_CEIR_fPLR_Tem   $ Msr (Multi)TechID: StdNResSplitAC-45to55
 "CLoss_fPLR_Hot" = SpltAC1Sp-ge45_CLoss_fPLR_Hot   $ Msr (Multi)TechID: StdNResSplitAC-45to55
 "CLoss_fPLR_Mod" = SpltAC1Sp-ge45_CLoss_fPLR_Mod   $ Msr (Multi)TechID: StdNResSplitAC-45to55
 "CLoss_fPLR_Tem" = SpltAC1Sp-ge45_CLoss_fPLR_Tem   $ Msr (Multi)TechID: StdNResSplitAC-45to55
 "COP47" = 0   $ Msr (Multi)TechID: StdNResSplitAC-45to55
 "CZ_Category" = Mod   $ IP Non-Tech
 "CapRange" = ge45   $ Msr (Multi)TechID: StdNResSplitAC-45to55
 "CfmPerBtuh" = 0.03263   $ Msr (Multi)TechID: StdNResSplitAC-45to55
 "ChwVintEconoFlag" = 1   $ IP Non-Tech
 "ClCap_fT" = SpltAC1Sp-ge45_ClCap_fT   $ Msr (Multi)TechID: StdNResSplitAC-45to55
 "ClSH_fT" = SpltAC1Sp-ge45_ClSH_fT   $ Msr (Multi)TechID: StdNResSplitAC-45to55
 "CoilBF" = 0.106518182   $ Msr (Multi)TechID: StdNResSplitAC-45to55
 "CondWPerBtuh" = 0   $ Msr (Multi)TechID: StdNResSplitAC-45to55
 "Conference_EWSF" = 1   $ IP Non-Tech
 "Conference_LWSF" = 1.4   $ IP Non-Tech
 "CoolSensCap" = 0.759218182   $ Msr (Multi)TechID: StdNResSplitAC-45to55
 "CoolSetT" = 45   $ IP Non-Tech
 "CoolType" = DX   $ IP Non-Tech
 "CoolingEIR" = 0.2466   $ Msr (Multi)TechID: StdNResSplitAC-45to55
 "CopyRoom_EWSF" = 1.5   $ IP Non-Tech
 "CopyRoom_LWSF" = 1.3   $ IP Non-Tech
 "CorridorStairway_EWSF" = 0.2   $ IP Non-Tech
 "CorridorStairway_LWSF" = 0.6   $ IP Non-Tech
 "CrnkEIR" = 0.002466   $ Msr (Multi)TechID: StdNResSplitAC-45to55
 "CrnkMaxT" = 50   $ Msr (Multi)TechID: StdNResSplitAC-45to55
 "DXType" = SplitSEER   $ Msr (Multi)TechID: StdNResSplitAC-45to55
 "DesCoolT" = 75   $ IP Non-Tech
 "DesHeatT" = 73   $ IP Non-Tech
 "EER" = 11.81793103   $ Msr (Multi)TechID: StdNResSplitAC-45to55
 "EIR_fT" = SpltAC1Sp-ge45_EIR_fT   $ Msr (Multi)TechID: StdNResSplitAC-45to55
 "EconoCtrl" = FIXED   $ Msr (Multi)TechID: StdNResSplitAC-45to55
 "EconoEnthLimit" = 28   $ IP Non-Tech
 "EconoTempLimit" = 75   $ IP Non-Tech
 "Elevation" = 335   $ IP Non-Tech
 "FanEirPlr" = TwoSpeedFan   $ Msr (Multi)TechID: StdNResSplitAC-45to55
 "FanWPerCfm" = 0.294   $ Msr (Multi)TechID: StdNResSplitAC-45to55
 "HDD_CloudAmt1" = 0   $ IP Non-Tech
 "HDD_DBHi1" = 40.29372406   $ IP Non-Tech
 "HDD_DBRange1" = 8   $ IP Non-Tech
 "HDD_Day1" = 15   $ IP Non-Tech
 "HDD_HrHi1" = 22   $ IP Non-Tech
 "HDD_HrLo1" = 7   $ IP Non-Tech
 "HDD_WB1" = 38.2   $ IP Non-Tech
 "HDD_WindSpd1" = 10.4   $ IP Non-Tech
 "HIR_fT" = 0   $ Msr (Multi)TechID: StdNResSplitAC-45to55
 "HSPF" = 0   $ Msr (Multi)TechID: StdNResSplitAC-45to55
 "HeatSrc" = FURNACE   $ IP Non-Tech
 "HeatSrcTU" = HEAT-PUMP   $ IP Non-Tech
 "HeatType" = GasFurn   $ IP Non-Tech
 "HeatTypeTU" = HEAT-PUMP   $ IP Non-Tech
 "HtCap_fT" = 0   $ Msr (Multi)TechID: StdNResSplitAC-45to55
 "HtCoolCapRatio" = 0   $ Msr (Multi)TechID: StdNResSplitAC-45to55
 "HtgEIR" = 0   $ Msr (Multi)TechID: StdNResSplitAC-45to55
 "IndoorFanMode" = CONTINUOUS   $ IP Non-Tech
 "KT_TransferAir" = Yes   $ IP Non-Tech
 "Latitude" = 36.8   $ IP Non-Tech
 "LobbyWaiting_EWSF" = 0.5   $ IP Non-Tech
 "LobbyWaiting_LWSF" = 1.3   $ IP Non-Tech
 "Longitude" = 119.7   $ IP Non-Tech
 "LowSpdCapRatio" = 1   $ Msr (Multi)TechID: StdNResSplitAC-45to55
 "LowSpdCfmRatio" = 1   $ Msr (Multi)TechID: StdNResSplitAC-45to55
 "MZFanMechEff" = 0.58   $ IP Non-Tech
 "MZHasRetFan" = FALSE   $ IP Non-Tech
 "MZ_RFanWPerCfm" = 0.37   $ IP Non-Tech
 "MZ_SFanWPerCfm" = 0.71   $ IP Non-Tech
 "MZ_SupFanStatic" = 2.25   $ IP Non-Tech
 "MaxOAFrac" = 1   $ Msr (Multi)TechID: StdNResSplitAC-45to55
 "MaxSupT_MZ" = 100   $ IP Non-Tech
 "MaxSupT_SZ" = 100   $ IP Non-Tech
 "MaxSupT_TU" = 90   $ IP Non-Tech
 "MechElecRoom_EWSF" = 0.2   $ IP Non-Tech
 "MechElecRoom_LWSF" = 0.7   $ IP Non-Tech
 "MinCfmPerSF" = 0.4   $ IP Non-Tech
 "MinSupT" = 55   $ IP Non-Tech
 "NumStages" = 1   $ Msr (Multi)TechID: StdNResSplitAC-45to55
 "OccCoolT" = 76   $ IP Non-Tech
 "OccHeatT" = 72   $ IP Non-Tech
 "OfficeOpen_EWSF" = 1.5   $ IP Non-Tech
 "OfficeOpen_LWSF" = 1.05   $ IP Non-Tech
 "OfficeSmall_EWSF" = 1.5   $ IP Non-Tech
 "OfficeSmall_LWSF" = 1.3   $ IP Non-Tech
 "PkgDxVintEconoFlag" = 1   $ IP Non-Tech
 "Restroom_EWSF" = 0.2   $ IP Non-Tech
 "Restroom_LWSF" = 0.6   $ IP Non-Tech
 "SEER" = 14   $ Msr (Multi)TechID: StdNResSplitAC-45to55
 "SZFanMechEff" = 0.58   $ IP Non-Tech
 "SZHasRetFan" = FALSE   $ IP Non-Tech
 "SZ_Is_2Spd" = TRUE   $ IP Non-Tech
 "SZ_SFanWPerCfm" = 0.46   $ IP Non-Tech
 "SZ_SupFanStatic" = 0.75   $ IP Non-Tech
 "Sector" = Any   $ Msr (Multi)TechID: StdNResSplitAC-45to55
 "StorageSmlCond_EWSF" = 0.2   $ IP Non-Tech
 "StorageSmlCond_LWSF" = 0.6   $ IP Non-Tech
 "SubType" = AC   $ Msr (Multi)TechID: StdNResSplitAC-45to55
 "T24GlzTbl" = TypeTbl   $ IP Non-Tech
 "TermUnitFanMechEff" = 1   $ IP Non-Tech
 "TermUnitFanMode" = INTERMITTENT   $ IP Non-Tech
 "TotCoolCap" = 52519.36364   $ Msr (Multi)TechID: StdNResSplitAC-45to55
 "TwrSetpt" = 82.7   $ IP Non-Tech
 "UnocCoolT" = 86   $ IP Non-Tech
 "UnocHeatT" = 62   $ IP Non-Tech
 "UseEconoVintApplic" = FALSE   $ Msr (Multi)TechID: StdNResSplitAC-45to55
 "WlhpVintEconoFlag" = 1   $ IP Non-Tech
 "DuctDT" = 1   $ IP Tech: ComDuctInsul-1
 "DuctAirLoss" = 0   $ IP Tech: ComDuctLeak-0
 "DuctLossOAFrac" = 0   $ IP Tech: ComDuctLeak-0
 "ComRoofInsCalc" = FromUo   $ IP Tech: ComRoofIns-Hvy-0.04
 "ComRoofInsR" = -999   $ IP Tech: ComRoofIns-Hvy-0.04
 "ComRoofUo" = 0.04   $ IP Tech: ComRoofIns-Hvy-0.04
 "ComEWInsCalc" = FromUo   $ IP Tech: ComWallIns-MFrm-0.06
 "ComEWInsR" = -999   $ IP Tech: ComWallIns-MFrm-0.06
 "ComEWUo" = 0.06   $ IP Tech: ComWallIns-MFrm-0.06
 "ComN_SHGC" = 0.26   $ IP Tech: NResWin-ComN-0.41-0.26
 "ComN_UFactor" = 0.41   $ IP Tech: NResWin-ComN-0.41-0.26
 "ComN_VisTrans" = 0.41   $ IP Tech: NResWin-ComN-0.41-0.26
 "ComN_WinCode" = G2666   $ IP Tech: NResWin-ComN-0.41-0.26
 "ComN_WinFrmFrac" = 0.17   $ IP Tech: NResWin-ComN-0.41-0.26
 "ComN_WinFrmU" = 0.3   $ IP Tech: NResWin-ComN-0.41-0.26
 "ComO_SHGC" = 0.26   $ IP Tech: NResWin-ComO-0.41-0.26
 "ComO_UFactor" = 0.41   $ IP Tech: NResWin-ComO-0.41-0.26
 "ComO_VisTrans" = 0.41   $ IP Tech: NResWin-ComO-0.41-0.26
 "ComO_WinCode" = G2666   $ IP Tech: NResWin-ComO-0.41-0.26
 "ComO_WinFrmFrac" = 0.17   $ IP Tech: NResWin-ComO-0.41-0.26
 "ComO_WinFrmU" = 0.3   $ IP Tech: NResWin-ComO-0.41-0.26
 "LtgMsrApplic" = ALL   $ IP Tech: NonResLtgRefPre
 "LtgSav_CFL" = 0   $ IP Tech: NonResLtgRefPre
 "LtgSav_EX" = 0   $ IP Tech: NonResLtgRefPre
 "LtgSav_HB" = 0   $ IP Tech: NonResLtgRefPre
 "LtgSav_LF" = 0   $ IP Tech: NonResLtgRefPre
 "LtgSav_SP" = 0   $ IP Tech: NonResLtgRefPre
 "CEIR_fPLR" = PSZ65to135_CEIR_fPLR   $ IP Tech: PkgAC2SpP-65to135-E11
 "CLoss_fPLR" = PSZ65to135_CLoss_fPLR   $ IP Tech: PkgAC2SpP-65to135-E11
 "COP" = -1   $ IP Tech: PkgAC2SpP-65to135-E11
 "HtgFuel" = Gas   $ IP Tech: PkgAC2SpP-65to135-E11
 "IEER" = 13.35   $ IP Tech: PkgAC2SpP-65to135-E11
 "NominalCap" = 15   $ IP Tech: PkgAC2SpP-65to135-E11
 "RatedEER" = 11   $ IP Tech: PkgAC2SpP-65to135-E11
 "RatedSupMtrClass" = Premium   $ IP Tech: PkgAC2SpP-65to135-E11
 "SizeRange" = 65to135   $ IP Tech: PkgAC2SpP-65to135-E11
 "SupMotEff" = 0.865   $ IP Tech: PkgAC2SpP-65to135-E11
 "Tier" = 0   $ IP Tech: PkgAC2SpP-65to135-E11
 "FanPwrMult" = 1   $ IP Tech: PkgFurn-0.80AFUE
 "FurnAFUE" = 0.8   $ IP Tech: PkgFurn-0.80AFUE
 "FurnEt" = 0.82   $ IP Tech: PkgFurn-0.80AFUE
 "FurnaceAuxKW" = 0.1   $ IP Tech: PkgFurn-0.80AFUE
 "HIR_fPLR" = Furnace-HIR-fPLR   $ IP Tech: PkgFurn-0.80AFUE
 "VSM" = FALSE   $ IP Tech: PkgFurn-0.80AFUE
 "BFMult" = 1   $ IP Tech: RefgChg-NRes-Std
 "CoolEirMult" = 1   $ IP Tech: RefgChg-NRes-Std
 "SensCoolCapMult" = 1   $ IP Tech: RefgChg-NRes-Std
 "TotCoolCapMult" = 1   $ IP Tech: RefgChg-NRes-Std
 "AltAdjFactor" = 1.012438   $ Sizing
 "CAssFlo_L_Break_CZn" = 579.8254   $ Sizing
 "CAssFlo_L_Conf_CZn" = 560.3616   $ Sizing
 "CAssFlo_L_CopyRm_CZn" = 182.8592   $ Sizing
 "CAssFlo_L_Cordr_CZn" = 676.0558   $ Sizing
 "CAssFlo_L_Cordr_EZn" = 235.3639   $ Sizing
 "CAssFlo_L_Cordr_NZn" = 171.5569   $ Sizing
 "CAssFlo_L_Cordr_SZn" = 238.7784   $ Sizing
 "CAssFlo_L_Cordr_WZn" = 268.8052   $ Sizing
 "CAssFlo_L_LobWait_CZn" = 580.3992   $ Sizing
 "CAssFlo_L_MechElec_CZn" = 123.5274   $ Sizing
 "CAssFlo_L_OfficeOpn_CZn" = 1880.014   $ Sizing
 "CAssFlo_L_OfficeOpn_EZn" = 1617.613   $ Sizing
 "CAssFlo_L_OfficeOpn_NZn" = 1235.715   $ Sizing
 "CAssFlo_L_OfficeOpn_SZn" = 1649.051   $ Sizing
 "CAssFlo_L_OfficeOpn_WZn" = 1887.861   $ Sizing
 "CAssFlo_L_OfficeSm_CZn" = 241.7762   $ Sizing
 "CAssFlo_L_OfficeSm_EZn" = 1153.319   $ Sizing
 "CAssFlo_L_OfficeSm_NZn" = 813.2723   $ Sizing
 "CAssFlo_L_OfficeSm_SZn" = 1168.701   $ Sizing
 "CAssFlo_L_OfficeSm_WZn" = 1324.93   $ Sizing
 "CAssFlo_L_Restrm_CZn" = 94.72909   $ Sizing
 "CAssFlo_L_StorSm_CZn" = 388.0327   $ Sizing
 "CAssFlo_M_Break_CZn" = 582.5311   $ Sizing
 "CAssFlo_M_Conf_CZn" = 558.0879   $ Sizing
 "CAssFlo_M_CopyRm_CZn" = 176.327   $ Sizing
 "CAssFlo_M_Cordr_CZn" = 898.6554   $ Sizing
 "CAssFlo_M_Cordr_EZn" = 267.8054   $ Sizing
 "CAssFlo_M_Cordr_NZn" = 184.4719   $ Sizing
 "CAssFlo_M_Cordr_SZn" = 258.1492   $ Sizing
 "CAssFlo_M_Cordr_WZn" = 280.3545   $ Sizing
 "CAssFlo_M_LobWait_CZn" = 598.7656   $ Sizing
 "CAssFlo_M_MechElec_CZn" = 157.1233   $ Sizing
 "CAssFlo_M_OfficeOpn_CZn" = 1896.329   $ Sizing
 "CAssFlo_M_OfficeOpn_EZn" = 1739.987   $ Sizing
 "CAssFlo_M_OfficeOpn_NZn" = 1288.185   $ Sizing
 "CAssFlo_M_OfficeOpn_SZn" = 1731.177   $ Sizing
 "CAssFlo_M_OfficeOpn_WZn" = 1931.623   $ Sizing
 "CAssFlo_M_OfficeSm_CZn" = 265.9256   $ Sizing
 "CAssFlo_M_OfficeSm_EZn" = 1225.331   $ Sizing
 "CAssFlo_M_OfficeSm_NZn" = 840.9089   $ Sizing
 "CAssFlo_M_OfficeSm_SZn" = 1215.423   $ Sizing
 "CAssFlo_M_OfficeSm_WZn" = 1344.011   $ Sizing
 "CAssFlo_M_Restrm_CZn" = 101.2458   $ Sizing
 "CAssFlo_M_StorSm_CZn" = 413.8916   $ Sizing
 "CAssFlo_T_Break_CZn" = 575.6988   $ Sizing
 "CAssFlo_T_Conf_CZn" = 551.3954   $ Sizing
 "CAssFlo_T_CopyRm_CZn" = 175.3878   $ Sizing
 "CAssFlo_T_Cordr_CZn" = 841.9246   $ Sizing
 "CAssFlo_T_Cordr_EZn" = 262.9596   $ Sizing
 "CAssFlo_T_Cordr_NZn" = 188.235   $ Sizing
 "CAssFlo_T_Cordr_SZn" = 256.179   $ Sizing
 "CAssFlo_T_Cordr_WZn" = 282.5032   $ Sizing
 "CAssFlo_T_LobWait_CZn" = 595.3563   $ Sizing
 "CAssFlo_T_MechElec_CZn" = 180.6599   $ Sizing
 "CAssFlo_T_OfficeOpn_CZn" = 1933.355   $ Sizing
 "CAssFlo_T_OfficeOpn_EZn" = 1728.941   $ Sizing
 "CAssFlo_T_OfficeOpn_NZn" = 1313.033   $ Sizing
 "CAssFlo_T_OfficeOpn_SZn" = 1741.493   $ Sizing
 "CAssFlo_T_OfficeOpn_WZn" = 1930.282   $ Sizing
 "CAssFlo_T_OfficeSm_CZn" = 258.6629   $ Sizing
 "CAssFlo_T_OfficeSm_EZn" = 1247.643   $ Sizing
 "CAssFlo_T_OfficeSm_NZn" = 862.4152   $ Sizing
 "CAssFlo_T_OfficeSm_SZn" = 1236.558   $ Sizing
 "CAssFlo_T_OfficeSm_WZn" = 1368.8   $ Sizing
 "CAssFlo_T_Restrm_CZn" = 143.595   $ Sizing
 "CAssFlo_T_StorSm_CZn" = 296.3251   $ Sizing
 "CHRtFlo_Sys_L_Break_C" = 579.8254   $ Sizing
 "CHRtFlo_Sys_L_Conf_C" = 560.3616   $ Sizing
 "CHRtFlo_Sys_L_CopyRm_C" = 182.8592   $ Sizing
 "CHRtFlo_Sys_L_Cordr_C" = 682.7184   $ Sizing
 "CHRtFlo_Sys_L_Cordr_E" = 263.9158   $ Sizing
 "CHRtFlo_Sys_L_Cordr_N" = 171.5569   $ Sizing
 "CHRtFlo_Sys_L_Cordr_S" = 243.8861   $ Sizing
 "CHRtFlo_Sys_L_Cordr_W" = 268.8052   $ Sizing
 "CHRtFlo_Sys_L_LobWait_C" = 580.3992   $ Sizing
 "CHRtFlo_Sys_L_MechElec_C" = 142.3965   $ Sizing
 "CHRtFlo_Sys_L_OfficeOpn_C" = 1880.014   $ Sizing
 "CHRtFlo_Sys_L_OfficeOpn_E" = 1850.356   $ Sizing
 "CHRtFlo_Sys_L_OfficeOpn_N" = 1235.715   $ Sizing
 "CHRtFlo_Sys_L_OfficeOpn_S" = 1764.312   $ Sizing
 "CHRtFlo_Sys_L_OfficeOpn_W" = 1887.861   $ Sizing
 "CHRtFlo_Sys_L_OfficeSm_C" = 263.8255   $ Sizing
 "CHRtFlo_Sys_L_OfficeSm_E" = 1349.142   $ Sizing
 "CHRtFlo_Sys_L_OfficeSm_N" = 813.2724   $ Sizing
 "CHRtFlo_Sys_L_OfficeSm_S" = 1296.178   $ Sizing
 "CHRtFlo_Sys_L_OfficeSm_W" = 1339.403   $ Sizing
 "CHRtFlo_Sys_L_Restrm_C" = 212.8927   $ Sizing
 "CHRtFlo_Sys_L_StorSm_C" = 425.9417   $ Sizing
 "CHRtFlo_Sys_M_Break_C" = 4660.249   $ Sizing
 "CHRtFlo_Sys_M_Conf_C" = 4464.703   $ Sizing
 "CHRtFlo_Sys_M_CopyRm_C" = 1410.616   $ Sizing
 "CHRtFlo_Sys_M_Cordr_C" = 8158.434   $ Sizing
 "CHRtFlo_Sys_M_Cordr_E" = 2459.402   $ Sizing
 "CHRtFlo_Sys_M_Cordr_N" = 1529.248   $ Sizing
 "CHRtFlo_Sys_M_Cordr_S" = 2185.463   $ Sizing
 "CHRtFlo_Sys_M_Cordr_W" = 2242.836   $ Sizing
 "CHRtFlo_Sys_M_LobWait_C" = 4790.125   $ Sizing
 "CHRtFlo_Sys_M_MechElec_C" = 1494.169   $ Sizing
 "CHRtFlo_Sys_M_OfficeOpn_C" = 17080.45   $ Sizing
 "CHRtFlo_Sys_M_OfficeOpn_E" = 16142.13   $ Sizing
 "CHRtFlo_Sys_M_OfficeOpn_N" = 10305.48   $ Sizing
 "CHRtFlo_Sys_M_OfficeOpn_S" = 15087.35   $ Sizing
 "CHRtFlo_Sys_M_OfficeOpn_W" = 15452.98   $ Sizing
 "CHRtFlo_Sys_M_OfficeSm_C" = 2665.687   $ Sizing
 "CHRtFlo_Sys_M_OfficeSm_E" = 11588.33   $ Sizing
 "CHRtFlo_Sys_M_OfficeSm_N" = 6727.271   $ Sizing
 "CHRtFlo_Sys_M_OfficeSm_S" = 10943.66   $ Sizing
 "CHRtFlo_Sys_M_OfficeSm_W" = 10962.85   $ Sizing
 "CHRtFlo_Sys_M_Restrm_C" = 1703.142   $ Sizing
 "CHRtFlo_Sys_M_StorSm_C" = 3741.959   $ Sizing
 "CHRtFlo_Sys_T_Break_C" = 575.6988   $ Sizing
 "CHRtFlo_Sys_T_Conf_C" = 551.3954   $ Sizing
 "CHRtFlo_Sys_T_CopyRm_C" = 175.3878   $ Sizing
 "CHRtFlo_Sys_T_Cordr_C" = 861.0114   $ Sizing
 "CHRtFlo_Sys_T_Cordr_E" = 272.5137   $ Sizing
 "CHRtFlo_Sys_T_Cordr_N" = 188.235   $ Sizing
 "CHRtFlo_Sys_T_Cordr_S" = 256.179   $ Sizing
 "CHRtFlo_Sys_T_Cordr_W" = 282.5032   $ Sizing
 "CHRtFlo_Sys_T_LobWait_C" = 595.3563   $ Sizing
 "CHRtFlo_Sys_T_MechElec_C" = 219.8527   $ Sizing
 "CHRtFlo_Sys_T_OfficeOpn_C" = 1933.355   $ Sizing
 "CHRtFlo_Sys_T_OfficeOpn_E" = 1839.446   $ Sizing
 "CHRtFlo_Sys_T_OfficeOpn_N" = 1313.033   $ Sizing
 "CHRtFlo_Sys_T_OfficeOpn_S" = 1768.309   $ Sizing
 "CHRtFlo_Sys_T_OfficeOpn_W" = 1930.282   $ Sizing
 "CHRtFlo_Sys_T_OfficeSm_C" = 292.5643   $ Sizing
 "CHRtFlo_Sys_T_OfficeSm_E" = 1358.211   $ Sizing
 "CHRtFlo_Sys_T_OfficeSm_N" = 862.4152   $ Sizing
 "CHRtFlo_Sys_T_OfficeSm_S" = 1307.092   $ Sizing
 "CHRtFlo_Sys_T_OfficeSm_W" = 1368.8   $ Sizing
 "CHRtFlo_Sys_T_Restrm_C" = 212.8927   $ Sizing
 "CHRtFlo_Sys_T_StorSm_C" = 335.7162   $ Sizing
 "CRtdFlo_Sys_L_Break_C" = 579.8254   $ Sizing
 "CRtdFlo_Sys_L_Conf_C" = 560.3616   $ Sizing
 "CRtdFlo_Sys_L_CopyRm_C" = 182.8592   $ Sizing
 "CRtdFlo_Sys_L_Cordr_C" = 676.0558   $ Sizing
 "CRtdFlo_Sys_L_Cordr_E" = 235.3639   $ Sizing
 "CRtdFlo_Sys_L_Cordr_N" = 171.5569   $ Sizing
 "CRtdFlo_Sys_L_Cordr_S" = 238.7784   $ Sizing
 "CRtdFlo_Sys_L_Cordr_W" = 268.8052   $ Sizing
 "CRtdFlo_Sys_L_LobWait_C" = 580.3992   $ Sizing
 "CRtdFlo_Sys_L_MechElec_C" = 123.5274   $ Sizing
 "CRtdFlo_Sys_L_OfficeOpn_C" = 1880.014   $ Sizing
 "CRtdFlo_Sys_L_OfficeOpn_E" = 1617.613   $ Sizing
 "CRtdFlo_Sys_L_OfficeOpn_N" = 1235.715   $ Sizing
 "CRtdFlo_Sys_L_OfficeOpn_S" = 1649.051   $ Sizing
 "CRtdFlo_Sys_L_OfficeOpn_W" = 1887.861   $ Sizing
 "CRtdFlo_Sys_L_OfficeSm_C" = 241.7762   $ Sizing
 "CRtdFlo_Sys_L_OfficeSm_E" = 1153.319   $ Sizing
 "CRtdFlo_Sys_L_OfficeSm_N" = 813.2724   $ Sizing
 "CRtdFlo_Sys_L_OfficeSm_S" = 1168.701   $ Sizing
 "CRtdFlo_Sys_L_OfficeSm_W" = 1324.93   $ Sizing
 "CRtdFlo_Sys_L_Restrm_C" = 94.72909   $ Sizing
 "CRtdFlo_Sys_L_StorSm_C" = 388.0327   $ Sizing
 "CRtdFlo_Sys_M_Break_C" = 4660.249   $ Sizing
 "CRtdFlo_Sys_M_Conf_C" = 4464.703   $ Sizing
 "CRtdFlo_Sys_M_CopyRm_C" = 1410.616   $ Sizing
 "CRtdFlo_Sys_M_Cordr_C" = 7189.243   $ Sizing
 "CRtdFlo_Sys_M_Cordr_E" = 2142.443   $ Sizing
 "CRtdFlo_Sys_M_Cordr_N" = 1475.775   $ Sizing
 "CRtdFlo_Sys_M_Cordr_S" = 2065.193   $ Sizing
 "CRtdFlo_Sys_M_Cordr_W" = 2242.836   $ Sizing
 "CRtdFlo_Sys_M_LobWait_C" = 4790.125   $ Sizing
 "CRtdFlo_Sys_M_MechElec_C" = 1256.986   $ Sizing
 "CRtdFlo_Sys_M_OfficeOpn_C" = 15170.63   $ Sizing
 "CRtdFlo_Sys_M_OfficeOpn_E" = 13919.89   $ Sizing
 "CRtdFlo_Sys_M_OfficeOpn_N" = 10305.48   $ Sizing
 "CRtdFlo_Sys_M_OfficeOpn_S" = 13849.41   $ Sizing
 "CRtdFlo_Sys_M_OfficeOpn_W" = 15452.98   $ Sizing
 "CRtdFlo_Sys_M_OfficeSm_C" = 2127.405   $ Sizing
 "CRtdFlo_Sys_M_OfficeSm_E" = 9802.646   $ Sizing
 "CRtdFlo_Sys_M_OfficeSm_N" = 6727.271   $ Sizing
 "CRtdFlo_Sys_M_OfficeSm_S" = 9723.386   $ Sizing
 "CRtdFlo_Sys_M_OfficeSm_W" = 10752.08   $ Sizing
 "CRtdFlo_Sys_M_Restrm_C" = 809.9666   $ Sizing
 "CRtdFlo_Sys_M_StorSm_C" = 3311.133   $ Sizing
 "CRtdFlo_Sys_T_Break_C" = 575.6988   $ Sizing
 "CRtdFlo_Sys_T_Conf_C" = 551.3954   $ Sizing
 "CRtdFlo_Sys_T_CopyRm_C" = 175.3878   $ Sizing
 "CRtdFlo_Sys_T_Cordr_C" = 841.9246   $ Sizing
 "CRtdFlo_Sys_T_Cordr_E" = 262.9596   $ Sizing
 "CRtdFlo_Sys_T_Cordr_N" = 188.235   $ Sizing
 "CRtdFlo_Sys_T_Cordr_S" = 256.179   $ Sizing
 "CRtdFlo_Sys_T_Cordr_W" = 282.5032   $ Sizing
 "CRtdFlo_Sys_T_LobWait_C" = 595.3563   $ Sizing
 "CRtdFlo_Sys_T_MechElec_C" = 180.6599   $ Sizing
 "CRtdFlo_Sys_T_OfficeOpn_C" = 1933.355   $ Sizing
 "CRtdFlo_Sys_T_OfficeOpn_E" = 1728.941   $ Sizing
 "CRtdFlo_Sys_T_OfficeOpn_N" = 1313.033   $ Sizing
 "CRtdFlo_Sys_T_OfficeOpn_S" = 1741.493   $ Sizing
 "CRtdFlo_Sys_T_OfficeOpn_W" = 1930.282   $ Sizing
 "CRtdFlo_Sys_T_OfficeSm_C" = 258.6629   $ Sizing
 "CRtdFlo_Sys_T_OfficeSm_E" = 1247.643   $ Sizing
 "CRtdFlo_Sys_T_OfficeSm_N" = 862.4152   $ Sizing
 "CRtdFlo_Sys_T_OfficeSm_S" = 1236.558   $ Sizing
 "CRtdFlo_Sys_T_OfficeSm_W" = 1368.8   $ Sizing
 "CRtdFlo_Sys_T_Restrm_C" = 143.595   $ Sizing
 "CRtdFlo_Sys_T_StorSm_C" = 296.3251   $ Sizing
 "CSupFlo_Sys_L_Break_C" = 579.8254   $ Sizing
 "CSupFlo_Sys_L_Conf_C" = 560.3616   $ Sizing
 "CSupFlo_Sys_L_CopyRm_C" = 182.8592   $ Sizing
 "CSupFlo_Sys_L_Cordr_C" = 676.0558   $ Sizing
 "CSupFlo_Sys_L_Cordr_E" = 235.3639   $ Sizing
 "CSupFlo_Sys_L_Cordr_N" = 171.5569   $ Sizing
 "CSupFlo_Sys_L_Cordr_S" = 238.7784   $ Sizing
 "CSupFlo_Sys_L_Cordr_W" = 268.8052   $ Sizing
 "CSupFlo_Sys_L_LobWait_C" = 580.3992   $ Sizing
 "CSupFlo_Sys_L_MechElec_C" = 123.5274   $ Sizing
 "CSupFlo_Sys_L_OfficeOpn_C" = 1880.014   $ Sizing
 "CSupFlo_Sys_L_OfficeOpn_E" = 1617.613   $ Sizing
 "CSupFlo_Sys_L_OfficeOpn_N" = 1235.715   $ Sizing
 "CSupFlo_Sys_L_OfficeOpn_S" = 1649.051   $ Sizing
 "CSupFlo_Sys_L_OfficeOpn_W" = 1887.861   $ Sizing
 "CSupFlo_Sys_L_OfficeSm_C" = 241.7762   $ Sizing
 "CSupFlo_Sys_L_OfficeSm_E" = 1153.319   $ Sizing
 "CSupFlo_Sys_L_OfficeSm_N" = 813.2724   $ Sizing
 "CSupFlo_Sys_L_OfficeSm_S" = 1168.701   $ Sizing
 "CSupFlo_Sys_L_OfficeSm_W" = 1324.93   $ Sizing
 "CSupFlo_Sys_L_Restrm_C" = 94.72909   $ Sizing
 "CSupFlo_Sys_L_StorSm_C" = 388.0327   $ Sizing
 "CSupFlo_Sys_M_Break_C" = 4660.249   $ Sizing
 "CSupFlo_Sys_M_Conf_C" = 4464.703   $ Sizing
 "CSupFlo_Sys_M_CopyRm_C" = 1410.616   $ Sizing
 "CSupFlo_Sys_M_Cordr_C" = 7189.243   $ Sizing
 "CSupFlo_Sys_M_Cordr_E" = 2142.443   $ Sizing
 "CSupFlo_Sys_M_Cordr_N" = 1475.775   $ Sizing
 "CSupFlo_Sys_M_Cordr_S" = 2065.193   $ Sizing
 "CSupFlo_Sys_M_Cordr_W" = 2242.836   $ Sizing
 "CSupFlo_Sys_M_LobWait_C" = 4790.125   $ Sizing
 "CSupFlo_Sys_M_MechElec_C" = 1256.986   $ Sizing
 "CSupFlo_Sys_M_OfficeOpn_C" = 15170.63   $ Sizing
 "CSupFlo_Sys_M_OfficeOpn_E" = 13919.89   $ Sizing
 "CSupFlo_Sys_M_OfficeOpn_N" = 10305.48   $ Sizing
 "CSupFlo_Sys_M_OfficeOpn_S" = 13849.41   $ Sizing
 "CSupFlo_Sys_M_OfficeOpn_W" = 15452.98   $ Sizing
 "CSupFlo_Sys_M_OfficeSm_C" = 2127.405   $ Sizing
 "CSupFlo_Sys_M_OfficeSm_E" = 9802.646   $ Sizing
 "CSupFlo_Sys_M_OfficeSm_N" = 6727.271   $ Sizing
 "CSupFlo_Sys_M_OfficeSm_S" = 9723.386   $ Sizing
 "CSupFlo_Sys_M_OfficeSm_W" = 10752.08   $ Sizing
 "CSupFlo_Sys_M_Restrm_C" = 809.9666   $ Sizing
 "CSupFlo_Sys_M_StorSm_C" = 3311.133   $ Sizing
 "CSupFlo_Sys_T_Break_C" = 575.6988   $ Sizing
 "CSupFlo_Sys_T_Conf_C" = 551.3954   $ Sizing
 "CSupFlo_Sys_T_CopyRm_C" = 175.3878   $ Sizing
 "CSupFlo_Sys_T_Cordr_C" = 841.9246   $ Sizing
 "CSupFlo_Sys_T_Cordr_E" = 262.9596   $ Sizing
 "CSupFlo_Sys_T_Cordr_N" = 188.235   $ Sizing
 "CSupFlo_Sys_T_Cordr_S" = 256.179   $ Sizing
 "CSupFlo_Sys_T_Cordr_W" = 282.5032   $ Sizing
 "CSupFlo_Sys_T_LobWait_C" = 595.3563   $ Sizing
 "CSupFlo_Sys_T_MechElec_C" = 180.6599   $ Sizing
 "CSupFlo_Sys_T_OfficeOpn_C" = 1933.355   $ Sizing
 "CSupFlo_Sys_T_OfficeOpn_E" = 1728.941   $ Sizing
 "CSupFlo_Sys_T_OfficeOpn_N" = 1313.033   $ Sizing
 "CSupFlo_Sys_T_OfficeOpn_S" = 1741.493   $ Sizing
 "CSupFlo_Sys_T_OfficeOpn_W" = 1930.282   $ Sizing
 "CSupFlo_Sys_T_OfficeSm_C" = 258.6629   $ Sizing
 "CSupFlo_Sys_T_OfficeSm_E" = 1247.643   $ Sizing
 "CSupFlo_Sys_T_OfficeSm_N" = 862.4152   $ Sizing
 "CSupFlo_Sys_T_OfficeSm_S" = 1236.558   $ Sizing
 "CSupFlo_Sys_T_OfficeSm_W" = 1368.8   $ Sizing
 "CSupFlo_Sys_T_Restrm_C" = 143.595   $ Sizing
 "CSupFlo_Sys_T_StorSm_C" = 296.3251   $ Sizing
 "ClCap_Sys_L_Break_C" = 19635.5   $ Sizing
 "ClCap_Sys_L_Conf_C" = 24151.74   $ Sizing
 "ClCap_Sys_L_CopyRm_C" = 6192.436   $ Sizing
 "ClCap_Sys_L_Cordr_C" = 22894.29   $ Sizing
 "ClCap_Sys_L_Cordr_E" = 7970.481   $ Sizing
 "ClCap_Sys_L_Cordr_N" = 5809.69   $ Sizing
 "ClCap_Sys_L_Cordr_S" = 8086.112   $ Sizing
 "ClCap_Sys_L_Cordr_W" = 9102.955   $ Sizing
 "ClCap_Sys_L_LobWait_C" = 19654.93   $ Sizing
 "ClCap_Sys_L_MechElec_C" = 4183.195   $ Sizing
 "ClCap_Sys_L_OfficeOpn_C" = 63665.74   $ Sizing
 "ClCap_Sys_L_OfficeOpn_E" = 54779.67   $ Sizing
 "ClCap_Sys_L_OfficeOpn_N" = 41846.86   $ Sizing
 "ClCap_Sys_L_OfficeOpn_S" = 55844.3   $ Sizing
 "ClCap_Sys_L_OfficeOpn_W" = 63931.49   $ Sizing
 "ClCap_Sys_L_OfficeSm_C" = 8187.629   $ Sizing
 "ClCap_Sys_L_OfficeSm_E" = 39056.57   $ Sizing
 "ClCap_Sys_L_OfficeSm_N" = 27541.06   $ Sizing
 "ClCap_Sys_L_OfficeSm_S" = 39577.48   $ Sizing
 "ClCap_Sys_L_OfficeSm_W" = 44868.09   $ Sizing
 "ClCap_Sys_L_Restrm_C" = 3207.953   $ Sizing
 "ClCap_Sys_L_StorSm_C" = 13140.53   $ Sizing
 "ClCap_Sys_M_Break_C" = 157817   $ Sizing
 "ClCap_Sys_M_Conf_C" = 192429.9   $ Sizing
 "ClCap_Sys_M_CopyRm_C" = 47769.8   $ Sizing
 "ClCap_Sys_M_Cordr_C" = 243460.1   $ Sizing
 "ClCap_Sys_M_Cordr_E" = 72552.77   $ Sizing
 "ClCap_Sys_M_Cordr_N" = 49976.39   $ Sizing
 "ClCap_Sys_M_Cordr_S" = 69936.74   $ Sizing
 "ClCap_Sys_M_Cordr_W" = 75952.52   $ Sizing
 "ClCap_Sys_M_LobWait_C" = 162215.2   $ Sizing
 "ClCap_Sys_M_MechElec_C" = 42567.21   $ Sizing
 "ClCap_Sys_M_OfficeOpn_C" = 513745.9   $ Sizing
 "ClCap_Sys_M_OfficeOpn_E" = 471390.3   $ Sizing
 "ClCap_Sys_M_OfficeOpn_N" = 348990   $ Sizing
 "ClCap_Sys_M_OfficeOpn_S" = 469003.5   $ Sizing
 "ClCap_Sys_M_OfficeOpn_W" = 523307.5   $ Sizing
 "ClCap_Sys_M_OfficeSm_C" = 72043.49   $ Sizing
 "ClCap_Sys_M_OfficeSm_E" = 331961.8   $ Sizing
 "ClCap_Sys_M_OfficeSm_N" = 227815.7   $ Sizing
 "ClCap_Sys_M_OfficeSm_S" = 329277.6   $ Sizing
 "ClCap_Sys_M_OfficeSm_W" = 364114   $ Sizing
 "ClCap_Sys_M_Restrm_C" = 27429.11   $ Sizing
 "ClCap_Sys_M_StorSm_C" = 112129.9   $ Sizing
 "ClCap_Sys_T_Break_C" = 19495.75   $ Sizing
 "ClCap_Sys_T_Conf_C" = 23765.3   $ Sizing
 "ClCap_Sys_T_CopyRm_C" = 5939.421   $ Sizing
 "ClCap_Sys_T_Cordr_C" = 28511.36   $ Sizing
 "ClCap_Sys_T_Cordr_E" = 8904.995   $ Sizing
 "ClCap_Sys_T_Cordr_N" = 6374.484   $ Sizing
 "ClCap_Sys_T_Cordr_S" = 8675.375   $ Sizing
 "ClCap_Sys_T_Cordr_W" = 9566.831   $ Sizing
 "ClCap_Sys_T_LobWait_C" = 20161.45   $ Sizing
 "ClCap_Sys_T_MechElec_C" = 6117.957   $ Sizing
 "ClCap_Sys_T_OfficeOpn_C" = 65472.12   $ Sizing
 "ClCap_Sys_T_OfficeOpn_E" = 58549.73   $ Sizing
 "ClCap_Sys_T_OfficeOpn_N" = 44465.2   $ Sizing
 "ClCap_Sys_T_OfficeOpn_S" = 58974.79   $ Sizing
 "ClCap_Sys_T_OfficeOpn_W" = 65368.04   $ Sizing
 "ClCap_Sys_T_OfficeSm_C" = 8759.491   $ Sizing
 "ClCap_Sys_T_OfficeSm_E" = 42250.82   $ Sizing
 "ClCap_Sys_T_OfficeSm_N" = 29205.26   $ Sizing
 "ClCap_Sys_T_OfficeSm_S" = 41875.44   $ Sizing
 "ClCap_Sys_T_OfficeSm_W" = 46353.72   $ Sizing
 "ClCap_Sys_T_Restrm_C" = 4862.773   $ Sizing
 "ClCap_Sys_T_StorSm_C" = 10034.9   $ Sizing
 "HtCap_Sys_L_Break_C" = -32624.21   $ Sizing
 "HtCap_Sys_L_Conf_C" = -32575.57   $ Sizing
 "HtCap_Sys_L_CopyRm_C" = -12010.18   $ Sizing
 "HtCap_Sys_L_Cordr_C" = -30059.28   $ Sizing
 "HtCap_Sys_L_Cordr_E" = -9451.798   $ Sizing
 "HtCap_Sys_L_Cordr_N" = -7071.35   $ Sizing
 "HtCap_Sys_L_Cordr_S" = -8795.26   $ Sizing
 "HtCap_Sys_L_Cordr_W" = -9694.801   $ Sizing
 "HtCap_Sys_L_LobWait_C" = -31370.64   $ Sizing
 "HtCap_Sys_L_MechElec_C" = -6479.362   $ Sizing
 "HtCap_Sys_L_OfficeOpn_C" = -91140.98   $ Sizing
 "HtCap_Sys_L_OfficeOpn_E" = -63555.84   $ Sizing
 "HtCap_Sys_L_OfficeOpn_N" = -46953.36   $ Sizing
 "HtCap_Sys_L_OfficeOpn_S" = -60109.93   $ Sizing
 "HtCap_Sys_L_OfficeOpn_W" = -64743.43   $ Sizing
 "HtCap_Sys_L_OfficeSm_C" = -10408.59   $ Sizing
 "HtCap_Sys_L_OfficeSm_E" = -44826.29   $ Sizing
 "HtCap_Sys_L_OfficeSm_N" = -30689.85   $ Sizing
 "HtCap_Sys_L_OfficeSm_S" = -43965.15   $ Sizing
 "HtCap_Sys_L_OfficeSm_W" = -45623.99   $ Sizing
 "HtCap_Sys_L_Restrm_C" = -7754.162   $ Sizing
 "HtCap_Sys_L_StorSm_C" = -18658.01   $ Sizing
 "HtCap_Sys_M_Break_C" = -248102.4   $ Sizing
 "HtCap_Sys_M_Conf_C" = -241513.5   $ Sizing
 "HtCap_Sys_M_CopyRm_C" = -81896.54   $ Sizing
 "HtCap_Sys_M_Cordr_C" = -317592.2   $ Sizing
 "HtCap_Sys_M_Cordr_E" = -85419.77   $ Sizing
 "HtCap_Sys_M_Cordr_N" = -58585.19   $ Sizing
 "HtCap_Sys_M_Cordr_S" = -76802.45   $ Sizing
 "HtCap_Sys_M_Cordr_W" = -79595.95   $ Sizing
 "HtCap_Sys_M_LobWait_C" = -226714.9   $ Sizing
 "HtCap_Sys_M_MechElec_C" = -61813.71   $ Sizing
 "HtCap_Sys_M_OfficeOpn_C" = -649433.9   $ Sizing
 "HtCap_Sys_M_OfficeOpn_E" = -545563.3   $ Sizing
 "HtCap_Sys_M_OfficeOpn_N" = -384033.2   $ Sizing
 "HtCap_Sys_M_OfficeOpn_S" = -508238.4   $ Sizing
 "HtCap_Sys_M_OfficeOpn_W" = -526449.9   $ Sizing
 "HtCap_Sys_M_OfficeSm_C" = -99323.73   $ Sizing
 "HtCap_Sys_M_OfficeSm_E" = -383425.3   $ Sizing
 "HtCap_Sys_M_OfficeSm_N" = -250231.2   $ Sizing
 "HtCap_Sys_M_OfficeSm_S" = -366800.4   $ Sizing
 "HtCap_Sys_M_OfficeSm_W" = -370904.1   $ Sizing
 "HtCap_Sys_M_Restrm_C" = -66893.54   $ Sizing
 "HtCap_Sys_M_StorSm_C" = -154189.2   $ Sizing
 "HtCap_Sys_T_Break_C" = -33160.9   $ Sizing
 "HtCap_Sys_T_Conf_C" = -32239.21   $ Sizing
 "HtCap_Sys_T_CopyRm_C" = -11121.47   $ Sizing
 "HtCap_Sys_T_Cordr_C" = -38979.45   $ Sizing
 "HtCap_Sys_T_Cordr_E" = -10878.07   $ Sizing
 "HtCap_Sys_T_Cordr_N" = -8356.66   $ Sizing
 "HtCap_Sys_T_Cordr_S" = -10407.48   $ Sizing
 "HtCap_Sys_T_Cordr_W" = -11464.97   $ Sizing
 "HtCap_Sys_T_LobWait_C" = -31793.21   $ Sizing
 "HtCap_Sys_T_MechElec_C" = -8659.229   $ Sizing
 "HtCap_Sys_T_OfficeOpn_C" = -85136.01   $ Sizing
 "HtCap_Sys_T_OfficeOpn_E" = -69775.7   $ Sizing
 "HtCap_Sys_T_OfficeOpn_N" = -55623.36   $ Sizing
 "HtCap_Sys_T_OfficeOpn_S" = -68559.92   $ Sizing
 "HtCap_Sys_T_OfficeOpn_W" = -73738.03   $ Sizing
 "HtCap_Sys_T_OfficeSm_C" = -12390.33   $ Sizing
 "HtCap_Sys_T_OfficeSm_E" = -50222.77   $ Sizing
 "HtCap_Sys_T_OfficeSm_N" = -36055.88   $ Sizing
 "HtCap_Sys_T_OfficeSm_S" = -49645.39   $ Sizing
 "HtCap_Sys_T_OfficeSm_W" = -51909.61   $ Sizing
 "HtCap_Sys_T_Restrm_C" = -8665.078   $ Sizing
 "HtCap_Sys_T_StorSm_C" = -17432.46   $ Sizing
..

##include Templates\OfL_DX_SZ.inp
END ..
COMPUTE ..
STOP ..
