INPUT ..

##fileprefix C:\Users\jglasskatz\MASControl3\
##set1 IsSizing FALSE
##set1 CoolType DX
##set1 HeatType FURNACE
##set1 EU_HrRepVar 0
##set1 BldgVint 2017
##set1 BldgLoc CZ09

 ##set1 mBFMult 1   $ IP Tech: RefgChg-NRes-Std

PARAMETER
 "AltFactor" = 1.02768   $ IP Non-Tech
 "BF_fFlow" = SpltAC1Sp-lt45_BF_fFlow   $ Msr (Multi)TechID: StdNResSplitAC-lt45
 "BF_fT" = SpltAC1Sp-lt45_BF_fT   $ Msr (Multi)TechID: StdNResSplitAC-lt45
 "BldgEconoFlag" = 1   $ IP Non-Tech
 "Break_EWSF" = 1   $ IP Non-Tech
 "Break_LWSF" = 0.9   $ IP Non-Tech
 "CDD_DBHi10" = 91   $ IP Non-Tech
 "CDD_DBHi7" = 91   $ IP Non-Tech
 "CDD_DBHi8" = 94   $ IP Non-Tech
 "CDD_DBHi9" = 100   $ IP Non-Tech
 "CDD_DBRange10" = 30   $ IP Non-Tech
 "CDD_DBRange7" = 19   $ IP Non-Tech
 "CDD_DBRange8" = 23   $ IP Non-Tech
 "CDD_DBRange9" = 24   $ IP Non-Tech
 "CDD_Day10" = 15   $ IP Non-Tech
 "CDD_Day7" = 16   $ IP Non-Tech
 "CDD_Day8" = 20   $ IP Non-Tech
 "CDD_Day9" = 17   $ IP Non-Tech
 "CDD_HrHi10" = 16   $ IP Non-Tech
 "CDD_HrHi7" = 16   $ IP Non-Tech
 "CDD_HrHi8" = 15   $ IP Non-Tech
 "CDD_HrHi9" = 13   $ IP Non-Tech
 "CDD_HrLo10" = 5   $ IP Non-Tech
 "CDD_HrLo7" = 6   $ IP Non-Tech
 "CDD_HrLo8" = 3   $ IP Non-Tech
 "CDD_HrLo9" = 7   $ IP Non-Tech
 "CDD_WB10" = 61.50949097   $ IP Non-Tech
 "CDD_WB7" = 74.70972443   $ IP Non-Tech
 "CDD_WB8" = 73.69755554   $ IP Non-Tech
 "CDD_WB9" = 73.82730103   $ IP Non-Tech
 "CEIR_fPLR_Hot" = SpltAC1Sp-lt45_CEIR_fPLR_Hot   $ Msr (Multi)TechID: StdNResSplitAC-lt45
 "CEIR_fPLR_Mod" = SpltAC1Sp-lt45_CEIR_fPLR_Mod   $ Msr (Multi)TechID: StdNResSplitAC-lt45
 "CEIR_fPLR_Tem" = SpltAC1Sp-lt45_CEIR_fPLR_Tem   $ Msr (Multi)TechID: StdNResSplitAC-lt45
 "CLoss_fPLR_Hot" = SpltAC1Sp-lt45_CLoss_fPLR_Hot   $ Msr (Multi)TechID: StdNResSplitAC-lt45
 "CLoss_fPLR_Mod" = SpltAC1Sp-lt45_CLoss_fPLR_Mod   $ Msr (Multi)TechID: StdNResSplitAC-lt45
 "CLoss_fPLR_Tem" = SpltAC1Sp-lt45_CLoss_fPLR_Tem   $ Msr (Multi)TechID: StdNResSplitAC-lt45
 "COP47" = 0   $ Msr (Multi)TechID: StdNResSplitAC-lt45
 "CZ_Category" = Mod   $ IP Non-Tech
 "CapRange" = lt45   $ Msr (Multi)TechID: StdNResSplitAC-lt45
 "CfmPerBtuh" = 0.032504286   $ Msr (Multi)TechID: StdNResSplitAC-lt45
 "ChwVintEconoFlag" = 1   $ IP Non-Tech
 "ClCap_fT" = SpltAC1Sp-lt45_ClCap_fT   $ Msr (Multi)TechID: StdNResSplitAC-lt45
 "ClSH_fT" = SpltAC1Sp-lt45_ClSH_fT   $ Msr (Multi)TechID: StdNResSplitAC-lt45
 "CoilBF" = 0.1212   $ Msr (Multi)TechID: StdNResSplitAC-lt45
 "CondWPerBtuh" = 0   $ Msr (Multi)TechID: StdNResSplitAC-lt45
 "Conference_EWSF" = 1   $ IP Non-Tech
 "Conference_LWSF" = 1.2   $ IP Non-Tech
 "CoolSensCap" = 0.754064286   $ Msr (Multi)TechID: StdNResSplitAC-lt45
 "CoolSetT" = 45   $ IP Non-Tech
 "CoolType" = DX   $ IP Non-Tech
 "CoolingEIR" = 0.23878   $ Msr (Multi)TechID: StdNResSplitAC-lt45
 "CopyRoom_EWSF" = 1.5   $ IP Non-Tech
 "CopyRoom_LWSF" = 1.3   $ IP Non-Tech
 "CorridorStairway_EWSF" = 0.2   $ IP Non-Tech
 "CorridorStairway_LWSF" = 0.6   $ IP Non-Tech
 "CrnkEIR" = 0.0023878   $ Msr (Multi)TechID: StdNResSplitAC-lt45
 "CrnkMaxT" = 50   $ Msr (Multi)TechID: StdNResSplitAC-lt45
 "DXType" = SplitSEER   $ Msr (Multi)TechID: StdNResSplitAC-lt45
 "DesCoolT" = 75   $ IP Non-Tech
 "DesHeatT" = 73   $ IP Non-Tech
 "EER" = 12.16551724   $ Msr (Multi)TechID: StdNResSplitAC-lt45
 "EIR_fT" = SpltAC1Sp-lt45_EIR_fT   $ Msr (Multi)TechID: StdNResSplitAC-lt45
 "EconoCtrl" = FIXED   $ Msr (Multi)TechID: StdNResSplitAC-lt45
 "EconoEnthLimit" = 28   $ IP Non-Tech
 "EconoTempLimit" = 71   $ IP Non-Tech
 "Elevation" = 741   $ IP Non-Tech
 "FanEirPlr" = TwoSpeedFan   $ Msr (Multi)TechID: StdNResSplitAC-lt45
 "FanWPerCfm" = 0.294   $ Msr (Multi)TechID: StdNResSplitAC-lt45
 "HDD_CloudAmt1" = 0   $ IP Non-Tech
 "HDD_DBHi1" = 55   $ IP Non-Tech
 "HDD_DBRange1" = 18   $ IP Non-Tech
 "HDD_Day1" = 15   $ IP Non-Tech
 "HDD_HrHi1" = 15   $ IP Non-Tech
 "HDD_HrLo1" = 5   $ IP Non-Tech
 "HDD_WB1" = 48.4   $ IP Non-Tech
 "HDD_WindSpd1" = 10.4   $ IP Non-Tech
 "HIR_fT" = 0   $ Msr (Multi)TechID: StdNResSplitAC-lt45
 "HSPF" = 0   $ Msr (Multi)TechID: StdNResSplitAC-lt45
 "HeatSrc" = FURNACE   $ IP Non-Tech
 "HeatSrcTU" = HEAT-PUMP   $ IP Non-Tech
 "HeatType" = GasFurn   $ IP Non-Tech
 "HeatTypeTU" = HEAT-PUMP   $ IP Non-Tech
 "HtCap_fT" = 0   $ Msr (Multi)TechID: StdNResSplitAC-lt45
 "HtCoolCapRatio" = 0   $ Msr (Multi)TechID: StdNResSplitAC-lt45
 "HtgEIR" = 0   $ Msr (Multi)TechID: StdNResSplitAC-lt45
 "IndoorFanMode" = CONTINUOUS   $ IP Non-Tech
 "KT_TransferAir" = Yes   $ IP Non-Tech
 "Latitude" = 34.1   $ IP Non-Tech
 "LobbyWaiting_EWSF" = 0.5   $ IP Non-Tech
 "LobbyWaiting_LWSF" = 0.875   $ IP Non-Tech
 "Longitude" = 117.8   $ IP Non-Tech
 "LowSpdCapRatio" = 1   $ Msr (Multi)TechID: StdNResSplitAC-lt45
 "LowSpdCfmRatio" = 1   $ Msr (Multi)TechID: StdNResSplitAC-lt45
 "MZFanMechEff" = 0.58   $ IP Non-Tech
 "MZHasRetFan" = FALSE   $ IP Non-Tech
 "MZ_RFanWPerCfm" = 0.37   $ IP Non-Tech
 "MZ_SFanWPerCfm" = 0.71   $ IP Non-Tech
 "MZ_SupFanStatic" = 2.25   $ IP Non-Tech
 "MaxOAFrac" = 1   $ Msr (Multi)TechID: StdNResSplitAC-lt45
 "MaxSupT_MZ" = 100   $ IP Non-Tech
 "MaxSupT_SZ" = 100   $ IP Non-Tech
 "MaxSupT_TU" = 90   $ IP Non-Tech
 "MechElecRoom_EWSF" = 0.2   $ IP Non-Tech
 "MechElecRoom_LWSF" = 0.55   $ IP Non-Tech
 "MinCfmPerSF" = 0.4   $ IP Non-Tech
 "MinSupT" = 55   $ IP Non-Tech
 "NumStages" = 1   $ Msr (Multi)TechID: StdNResSplitAC-lt45
 "OccCoolT" = 76   $ IP Non-Tech
 "OccHeatT" = 72   $ IP Non-Tech
 "OfficeOpen_EWSF" = 1.5   $ IP Non-Tech
 "OfficeOpen_LWSF" = 1.05   $ IP Non-Tech
 "OfficeSmall_EWSF" = 1.5   $ IP Non-Tech
 "OfficeSmall_LWSF" = 1.3   $ IP Non-Tech
 "PkgDxVintEconoFlag" = 1   $ IP Non-Tech
 "Restroom_EWSF" = 0.2   $ IP Non-Tech
 "Restroom_LWSF" = 0.6   $ IP Non-Tech
 "SEER" = 14   $ Msr (Multi)TechID: StdNResSplitAC-lt45
 "SZFanMechEff" = 0.58   $ IP Non-Tech
 "SZHasRetFan" = FALSE   $ IP Non-Tech
 "SZ_Is_2Spd" = TRUE   $ IP Non-Tech
 "SZ_SFanWPerCfm" = 0.46   $ IP Non-Tech
 "SZ_SupFanStatic" = 0.75   $ IP Non-Tech
 "Sector" = Any   $ Msr (Multi)TechID: StdNResSplitAC-lt45
 "StorageSmlCond_EWSF" = 0.2   $ IP Non-Tech
 "StorageSmlCond_LWSF" = 0.6   $ IP Non-Tech
 "SubType" = AC   $ Msr (Multi)TechID: StdNResSplitAC-lt45
 "TermUnitFanMechEff" = 1   $ IP Non-Tech
 "TermUnitFanMode" = INTERMITTENT   $ IP Non-Tech
 "TotCoolCap" = 30924.85714   $ Msr (Multi)TechID: StdNResSplitAC-lt45
 "TwrSetpt" = 86.9   $ IP Non-Tech
 "UnocCoolT" = 86   $ IP Non-Tech
 "UnocHeatT" = 62   $ IP Non-Tech
 "UseEconoVintApplic" = FALSE   $ Msr (Multi)TechID: StdNResSplitAC-lt45
 "WlhpVintEconoFlag" = 1   $ IP Non-Tech
 "DuctDT" = 1   $ IP Tech: ComDuctInsul-1
 "DuctAirLoss" = 0   $ IP Tech: ComDuctLeak-0
 "DuctLossOAFrac" = 0   $ IP Tech: ComDuctLeak-0
 "ComRoofInsCalc" = FromUo   $ IP Tech: ComRoofIns-Hvy-0.03
 "ComRoofInsR" = -999   $ IP Tech: ComRoofIns-Hvy-0.03
 "ComRoofUo" = 0.03   $ IP Tech: ComRoofIns-Hvy-0.03
 "ComEWInsCalc" = FromUo   $ IP Tech: ComWallIns-MFrm-0.06
 "ComEWInsR" = -999   $ IP Tech: ComWallIns-MFrm-0.06
 "ComEWUo" = 0.06   $ IP Tech: ComWallIns-MFrm-0.06
 "ComN_SHGC" = 0.26   $ IP Tech: NResWin-ComN-0.41-0.26
 "ComN_UFactor" = 0.41   $ IP Tech: NResWin-ComN-0.41-0.26
 "ComN_VisTrans" = 0.41   $ IP Tech: NResWin-ComN-0.41-0.26
 "ComN_WinCode" = G2666   $ IP Tech: NResWin-ComN-0.41-0.26
 "ComN_WinFrmFrac" = 0.17   $ IP Tech: NResWin-ComN-0.41-0.26
 "ComN_WinFrmU" = 0.3   $ IP Tech: NResWin-ComN-0.41-0.26
 "ComO_SHGC" = 0.26   $ IP Tech: NResWin-ComO-0.41-0.26
 "ComO_UFactor" = 0.41   $ IP Tech: NResWin-ComO-0.41-0.26
 "ComO_VisTrans" = 0.41   $ IP Tech: NResWin-ComO-0.41-0.26
 "ComO_WinCode" = G2666   $ IP Tech: NResWin-ComO-0.41-0.26
 "ComO_WinFrmFrac" = 0.17   $ IP Tech: NResWin-ComO-0.41-0.26
 "ComO_WinFrmU" = 0.3   $ IP Tech: NResWin-ComO-0.41-0.26
 "LtgMsrApplic" = ALL   $ IP Tech: NonResLtgRefPre
 "LtgSav_CFL" = 0   $ IP Tech: NonResLtgRefPre
 "LtgSav_EX" = 0   $ IP Tech: NonResLtgRefPre
 "LtgSav_HB" = 0   $ IP Tech: NonResLtgRefPre
 "LtgSav_LF" = 0   $ IP Tech: NonResLtgRefPre
 "LtgSav_SP" = 0   $ IP Tech: NonResLtgRefPre
 "CEIR_fPLR" = PSZ65to135_CEIR_fPLR   $ IP Tech: PkgAC2SpP-65to135-E11
 "CLoss_fPLR" = PSZ65to135_CLoss_fPLR   $ IP Tech: PkgAC2SpP-65to135-E11
 "COP" = -1   $ IP Tech: PkgAC2SpP-65to135-E11
 "HtgFuel" = Gas   $ IP Tech: PkgAC2SpP-65to135-E11
 "IEER" = 13.35   $ IP Tech: PkgAC2SpP-65to135-E11
 "NominalCap" = 15   $ IP Tech: PkgAC2SpP-65to135-E11
 "RatedEER" = 11   $ IP Tech: PkgAC2SpP-65to135-E11
 "RatedSupMtrClass" = Premium   $ IP Tech: PkgAC2SpP-65to135-E11
 "SizeRange" = 65to135   $ IP Tech: PkgAC2SpP-65to135-E11
 "SupMotEff" = 0.865   $ IP Tech: PkgAC2SpP-65to135-E11
 "Tier" = 0   $ IP Tech: PkgAC2SpP-65to135-E11
 "FanPwrMult" = 1   $ IP Tech: PkgFurn-0.80AFUE
 "FurnAFUE" = 0.8   $ IP Tech: PkgFurn-0.80AFUE
 "FurnEt" = 0.82   $ IP Tech: PkgFurn-0.80AFUE
 "FurnaceAuxKW" = 0.1   $ IP Tech: PkgFurn-0.80AFUE
 "HIR_fPLR" = Furnace-HIR-fPLR   $ IP Tech: PkgFurn-0.80AFUE
 "VSM" = FALSE   $ IP Tech: PkgFurn-0.80AFUE
 "BFMult" = 1   $ IP Tech: RefgChg-NRes-Std
 "CoolEirMult" = 1   $ IP Tech: RefgChg-NRes-Std
 "SensCoolCapMult" = 1   $ IP Tech: RefgChg-NRes-Std
 "TotCoolCapMult" = 1   $ IP Tech: RefgChg-NRes-Std
 "AltAdjFactor" = 1.027678   $ Sizing
 "CAssFlo_L_Break_CZn" = 595.193   $ Sizing
 "CAssFlo_L_Conf_CZn" = 579.08   $ Sizing
 "CAssFlo_L_CopyRm_CZn" = 193.5633   $ Sizing
 "CAssFlo_L_Cordr_CZn" = 687.9247   $ Sizing
 "CAssFlo_L_Cordr_EZn" = 235.2979   $ Sizing
 "CAssFlo_L_Cordr_NZn" = 154.3926   $ Sizing
 "CAssFlo_L_Cordr_SZn" = 243.5748   $ Sizing
 "CAssFlo_L_Cordr_WZn" = 265.8965   $ Sizing
 "CAssFlo_L_LobWait_CZn" = 556.4592   $ Sizing
 "CAssFlo_L_MechElec_CZn" = 136.3713   $ Sizing
 "CAssFlo_L_OfficeOpn_CZn" = 1897.571   $ Sizing
 "CAssFlo_L_OfficeOpn_EZn" = 1638.391   $ Sizing
 "CAssFlo_L_OfficeOpn_NZn" = 1168.549   $ Sizing
 "CAssFlo_L_OfficeOpn_SZn" = 1682.254   $ Sizing
 "CAssFlo_L_OfficeOpn_WZn" = 1895.088   $ Sizing
 "CAssFlo_L_OfficeSm_CZn" = 253.9624   $ Sizing
 "CAssFlo_L_OfficeSm_EZn" = 1159.883   $ Sizing
 "CAssFlo_L_OfficeSm_NZn" = 758.1567   $ Sizing
 "CAssFlo_L_OfficeSm_SZn" = 1183.33   $ Sizing
 "CAssFlo_L_OfficeSm_WZn" = 1333.855   $ Sizing
 "CAssFlo_L_Restrm_CZn" = 98.97552   $ Sizing
 "CAssFlo_L_StorSm_CZn" = 440.4328   $ Sizing
 "CAssFlo_M_Break_CZn" = 600.1685   $ Sizing
 "CAssFlo_M_Conf_CZn" = 577.4509   $ Sizing
 "CAssFlo_M_CopyRm_CZn" = 186.2404   $ Sizing
 "CAssFlo_M_Cordr_CZn" = 947.8931   $ Sizing
 "CAssFlo_M_Cordr_EZn" = 269.678   $ Sizing
 "CAssFlo_M_Cordr_NZn" = 175.0275   $ Sizing
 "CAssFlo_M_Cordr_SZn" = 266.9873   $ Sizing
 "CAssFlo_M_Cordr_WZn" = 282.308   $ Sizing
 "CAssFlo_M_LobWait_CZn" = 576.3012   $ Sizing
 "CAssFlo_M_MechElec_CZn" = 164.0076   $ Sizing
 "CAssFlo_M_OfficeOpn_CZn" = 2084.197   $ Sizing
 "CAssFlo_M_OfficeOpn_EZn" = 1760.133   $ Sizing
 "CAssFlo_M_OfficeOpn_NZn" = 1226.801   $ Sizing
 "CAssFlo_M_OfficeOpn_SZn" = 1779.815   $ Sizing
 "CAssFlo_M_OfficeOpn_WZn" = 1950.259   $ Sizing
 "CAssFlo_M_OfficeSm_CZn" = 305.2671   $ Sizing
 "CAssFlo_M_OfficeSm_EZn" = 1231.014   $ Sizing
 "CAssFlo_M_OfficeSm_NZn" = 790.9525   $ Sizing
 "CAssFlo_M_OfficeSm_SZn" = 1242.034   $ Sizing
 "CAssFlo_M_OfficeSm_WZn" = 1361.565   $ Sizing
 "CAssFlo_M_Restrm_CZn" = 119.9872   $ Sizing
 "CAssFlo_M_StorSm_CZn" = 444.9681   $ Sizing
 "CAssFlo_T_Break_CZn" = 590.2158   $ Sizing
 "CAssFlo_T_Conf_CZn" = 571.8652   $ Sizing
 "CAssFlo_T_CopyRm_CZn" = 186.5858   $ Sizing
 "CAssFlo_T_Cordr_CZn" = 873.7615   $ Sizing
 "CAssFlo_T_Cordr_EZn" = 256.733   $ Sizing
 "CAssFlo_T_Cordr_NZn" = 171.7565   $ Sizing
 "CAssFlo_T_Cordr_SZn" = 265.8073   $ Sizing
 "CAssFlo_T_Cordr_WZn" = 277.3248   $ Sizing
 "CAssFlo_T_LobWait_CZn" = 575.4775   $ Sizing
 "CAssFlo_T_MechElec_CZn" = 179.7061   $ Sizing
 "CAssFlo_T_OfficeOpn_CZn" = 1926.548   $ Sizing
 "CAssFlo_T_OfficeOpn_EZn" = 1714.289   $ Sizing
 "CAssFlo_T_OfficeOpn_NZn" = 1223.331   $ Sizing
 "CAssFlo_T_OfficeOpn_SZn" = 1793.835   $ Sizing
 "CAssFlo_T_OfficeOpn_WZn" = 1922.744   $ Sizing
 "CAssFlo_T_OfficeSm_CZn" = 290.1055   $ Sizing
 "CAssFlo_T_OfficeSm_EZn" = 1226.919   $ Sizing
 "CAssFlo_T_OfficeSm_NZn" = 795.5883   $ Sizing
 "CAssFlo_T_OfficeSm_SZn" = 1265.027   $ Sizing
 "CAssFlo_T_OfficeSm_WZn" = 1363.739   $ Sizing
 "CAssFlo_T_Restrm_CZn" = 130.7549   $ Sizing
 "CAssFlo_T_StorSm_CZn" = 293.7694   $ Sizing
 "CHRtFlo_Sys_L_Break_C" = 595.193   $ Sizing
 "CHRtFlo_Sys_L_Conf_C" = 579.08   $ Sizing
 "CHRtFlo_Sys_L_CopyRm_C" = 193.5633   $ Sizing
 "CHRtFlo_Sys_L_Cordr_C" = 687.9248   $ Sizing
 "CHRtFlo_Sys_L_Cordr_E" = 253.707   $ Sizing
 "CHRtFlo_Sys_L_Cordr_N" = 154.3926   $ Sizing
 "CHRtFlo_Sys_L_Cordr_S" = 245.6142   $ Sizing
 "CHRtFlo_Sys_L_Cordr_W" = 265.8965   $ Sizing
 "CHRtFlo_Sys_L_LobWait_C" = 556.4592   $ Sizing
 "CHRtFlo_Sys_L_MechElec_C" = 136.8525   $ Sizing
 "CHRtFlo_Sys_L_OfficeOpn_C" = 1897.571   $ Sizing
 "CHRtFlo_Sys_L_OfficeOpn_E" = 1817.613   $ Sizing
 "CHRtFlo_Sys_L_OfficeOpn_N" = 1168.549   $ Sizing
 "CHRtFlo_Sys_L_OfficeOpn_S" = 1778.559   $ Sizing
 "CHRtFlo_Sys_L_OfficeOpn_W" = 1895.088   $ Sizing
 "CHRtFlo_Sys_L_OfficeSm_C" = 264.001   $ Sizing
 "CHRtFlo_Sys_L_OfficeSm_E" = 1322.426   $ Sizing
 "CHRtFlo_Sys_L_OfficeSm_N" = 758.1567   $ Sizing
 "CHRtFlo_Sys_L_OfficeSm_S" = 1303.84   $ Sizing
 "CHRtFlo_Sys_L_OfficeSm_W" = 1362.752   $ Sizing
 "CHRtFlo_Sys_L_Restrm_C" = 216.0974   $ Sizing
 "CHRtFlo_Sys_L_StorSm_C" = 440.4328   $ Sizing
 "CHRtFlo_Sys_M_Break_C" = 4801.348   $ Sizing
 "CHRtFlo_Sys_M_Conf_C" = 4619.607   $ Sizing
 "CHRtFlo_Sys_M_CopyRm_C" = 1489.923   $ Sizing
 "CHRtFlo_Sys_M_Cordr_C" = 8091.268   $ Sizing
 "CHRtFlo_Sys_M_Cordr_E" = 2394.193   $ Sizing
 "CHRtFlo_Sys_M_Cordr_N" = 1410.773   $ Sizing
 "CHRtFlo_Sys_M_Cordr_S" = 2243.542   $ Sizing
 "CHRtFlo_Sys_M_Cordr_W" = 2258.464   $ Sizing
 "CHRtFlo_Sys_M_LobWait_C" = 4610.41   $ Sizing
 "CHRtFlo_Sys_M_MechElec_C" = 1385.679   $ Sizing
 "CHRtFlo_Sys_M_OfficeOpn_C" = 17295   $ Sizing
 "CHRtFlo_Sys_M_OfficeOpn_E" = 15853.48   $ Sizing
 "CHRtFlo_Sys_M_OfficeOpn_N" = 9814.407   $ Sizing
 "CHRtFlo_Sys_M_OfficeOpn_S" = 15332.96   $ Sizing
 "CHRtFlo_Sys_M_OfficeOpn_W" = 15602.07   $ Sizing
 "CHRtFlo_Sys_M_OfficeSm_C" = 2696.927   $ Sizing
 "CHRtFlo_Sys_M_OfficeSm_E" = 11369.75   $ Sizing
 "CHRtFlo_Sys_M_OfficeSm_N" = 6327.62   $ Sizing
 "CHRtFlo_Sys_M_OfficeSm_S" = 11087.82   $ Sizing
 "CHRtFlo_Sys_M_OfficeSm_W" = 11199.83   $ Sizing
 "CHRtFlo_Sys_M_Restrm_C" = 1728.779   $ Sizing
 "CHRtFlo_Sys_M_StorSm_C" = 3559.745   $ Sizing
 "CHRtFlo_Sys_T_Break_C" = 590.2158   $ Sizing
 "CHRtFlo_Sys_T_Conf_C" = 571.8652   $ Sizing
 "CHRtFlo_Sys_T_CopyRm_C" = 186.5858   $ Sizing
 "CHRtFlo_Sys_T_Cordr_C" = 873.7614   $ Sizing
 "CHRtFlo_Sys_T_Cordr_E" = 263.6073   $ Sizing
 "CHRtFlo_Sys_T_Cordr_N" = 171.7565   $ Sizing
 "CHRtFlo_Sys_T_Cordr_S" = 265.8073   $ Sizing
 "CHRtFlo_Sys_T_Cordr_W" = 277.3248   $ Sizing
 "CHRtFlo_Sys_T_LobWait_C" = 575.4775   $ Sizing
 "CHRtFlo_Sys_T_MechElec_C" = 188.4592   $ Sizing
 "CHRtFlo_Sys_T_OfficeOpn_C" = 1926.548   $ Sizing
 "CHRtFlo_Sys_T_OfficeOpn_E" = 1803.266   $ Sizing
 "CHRtFlo_Sys_T_OfficeOpn_N" = 1223.331   $ Sizing
 "CHRtFlo_Sys_T_OfficeOpn_S" = 1793.835   $ Sizing
 "CHRtFlo_Sys_T_OfficeOpn_W" = 1922.744   $ Sizing
 "CHRtFlo_Sys_T_OfficeSm_C" = 294.8833   $ Sizing
 "CHRtFlo_Sys_T_OfficeSm_E" = 1329.5   $ Sizing
 "CHRtFlo_Sys_T_OfficeSm_N" = 795.5883   $ Sizing
 "CHRtFlo_Sys_T_OfficeSm_S" = 1325.07   $ Sizing
 "CHRtFlo_Sys_T_OfficeSm_W" = 1363.739   $ Sizing
 "CHRtFlo_Sys_T_Restrm_C" = 216.0974   $ Sizing
 "CHRtFlo_Sys_T_StorSm_C" = 340.7697   $ Sizing
 "CRtdFlo_Sys_L_Break_C" = 595.193   $ Sizing
 "CRtdFlo_Sys_L_Conf_C" = 579.08   $ Sizing
 "CRtdFlo_Sys_L_CopyRm_C" = 193.5633   $ Sizing
 "CRtdFlo_Sys_L_Cordr_C" = 687.9248   $ Sizing
 "CRtdFlo_Sys_L_Cordr_E" = 235.298   $ Sizing
 "CRtdFlo_Sys_L_Cordr_N" = 154.3926   $ Sizing
 "CRtdFlo_Sys_L_Cordr_S" = 243.5748   $ Sizing
 "CRtdFlo_Sys_L_Cordr_W" = 265.8965   $ Sizing
 "CRtdFlo_Sys_L_LobWait_C" = 556.4592   $ Sizing
 "CRtdFlo_Sys_L_MechElec_C" = 136.3713   $ Sizing
 "CRtdFlo_Sys_L_OfficeOpn_C" = 1897.571   $ Sizing
 "CRtdFlo_Sys_L_OfficeOpn_E" = 1638.391   $ Sizing
 "CRtdFlo_Sys_L_OfficeOpn_N" = 1168.549   $ Sizing
 "CRtdFlo_Sys_L_OfficeOpn_S" = 1682.254   $ Sizing
 "CRtdFlo_Sys_L_OfficeOpn_W" = 1895.088   $ Sizing
 "CRtdFlo_Sys_L_OfficeSm_C" = 253.9624   $ Sizing
 "CRtdFlo_Sys_L_OfficeSm_E" = 1159.883   $ Sizing
 "CRtdFlo_Sys_L_OfficeSm_N" = 758.1567   $ Sizing
 "CRtdFlo_Sys_L_OfficeSm_S" = 1183.33   $ Sizing
 "CRtdFlo_Sys_L_OfficeSm_W" = 1333.855   $ Sizing
 "CRtdFlo_Sys_L_Restrm_C" = 98.97552   $ Sizing
 "CRtdFlo_Sys_L_StorSm_C" = 440.4328   $ Sizing
 "CRtdFlo_Sys_M_Break_C" = 4801.348   $ Sizing
 "CRtdFlo_Sys_M_Conf_C" = 4619.607   $ Sizing
 "CRtdFlo_Sys_M_CopyRm_C" = 1489.923   $ Sizing
 "CRtdFlo_Sys_M_Cordr_C" = 7583.145   $ Sizing
 "CRtdFlo_Sys_M_Cordr_E" = 2157.424   $ Sizing
 "CRtdFlo_Sys_M_Cordr_N" = 1400.22   $ Sizing
 "CRtdFlo_Sys_M_Cordr_S" = 2135.899   $ Sizing
 "CRtdFlo_Sys_M_Cordr_W" = 2258.464   $ Sizing
 "CRtdFlo_Sys_M_LobWait_C" = 4610.41   $ Sizing
 "CRtdFlo_Sys_M_MechElec_C" = 1312.061   $ Sizing
 "CRtdFlo_Sys_M_OfficeOpn_C" = 16673.58   $ Sizing
 "CRtdFlo_Sys_M_OfficeOpn_E" = 14081.06   $ Sizing
 "CRtdFlo_Sys_M_OfficeOpn_N" = 9814.407   $ Sizing
 "CRtdFlo_Sys_M_OfficeOpn_S" = 14238.52   $ Sizing
 "CRtdFlo_Sys_M_OfficeOpn_W" = 15588.68   $ Sizing
 "CRtdFlo_Sys_M_OfficeSm_C" = 2442.137   $ Sizing
 "CRtdFlo_Sys_M_OfficeSm_E" = 9848.114   $ Sizing
 "CRtdFlo_Sys_M_OfficeSm_N" = 6327.62   $ Sizing
 "CRtdFlo_Sys_M_OfficeSm_S" = 9936.271   $ Sizing
 "CRtdFlo_Sys_M_OfficeSm_W" = 10892.52   $ Sizing
 "CRtdFlo_Sys_M_Restrm_C" = 959.8975   $ Sizing
 "CRtdFlo_Sys_M_StorSm_C" = 3559.745   $ Sizing
 "CRtdFlo_Sys_T_Break_C" = 590.2158   $ Sizing
 "CRtdFlo_Sys_T_Conf_C" = 571.8652   $ Sizing
 "CRtdFlo_Sys_T_CopyRm_C" = 186.5858   $ Sizing
 "CRtdFlo_Sys_T_Cordr_C" = 873.7614   $ Sizing
 "CRtdFlo_Sys_T_Cordr_E" = 256.733   $ Sizing
 "CRtdFlo_Sys_T_Cordr_N" = 171.7565   $ Sizing
 "CRtdFlo_Sys_T_Cordr_S" = 265.8073   $ Sizing
 "CRtdFlo_Sys_T_Cordr_W" = 277.3248   $ Sizing
 "CRtdFlo_Sys_T_LobWait_C" = 575.4775   $ Sizing
 "CRtdFlo_Sys_T_MechElec_C" = 179.7061   $ Sizing
 "CRtdFlo_Sys_T_OfficeOpn_C" = 1926.548   $ Sizing
 "CRtdFlo_Sys_T_OfficeOpn_E" = 1714.289   $ Sizing
 "CRtdFlo_Sys_T_OfficeOpn_N" = 1223.331   $ Sizing
 "CRtdFlo_Sys_T_OfficeOpn_S" = 1793.835   $ Sizing
 "CRtdFlo_Sys_T_OfficeOpn_W" = 1922.744   $ Sizing
 "CRtdFlo_Sys_T_OfficeSm_C" = 290.1055   $ Sizing
 "CRtdFlo_Sys_T_OfficeSm_E" = 1226.919   $ Sizing
 "CRtdFlo_Sys_T_OfficeSm_N" = 795.5883   $ Sizing
 "CRtdFlo_Sys_T_OfficeSm_S" = 1265.027   $ Sizing
 "CRtdFlo_Sys_T_OfficeSm_W" = 1363.739   $ Sizing
 "CRtdFlo_Sys_T_Restrm_C" = 130.7549   $ Sizing
 "CRtdFlo_Sys_T_StorSm_C" = 293.7694   $ Sizing
 "CSupFlo_Sys_L_Break_C" = 595.193   $ Sizing
 "CSupFlo_Sys_L_Conf_C" = 579.08   $ Sizing
 "CSupFlo_Sys_L_CopyRm_C" = 193.5633   $ Sizing
 "CSupFlo_Sys_L_Cordr_C" = 687.9248   $ Sizing
 "CSupFlo_Sys_L_Cordr_E" = 235.298   $ Sizing
 "CSupFlo_Sys_L_Cordr_N" = 154.3926   $ Sizing
 "CSupFlo_Sys_L_Cordr_S" = 243.5748   $ Sizing
 "CSupFlo_Sys_L_Cordr_W" = 265.8965   $ Sizing
 "CSupFlo_Sys_L_LobWait_C" = 556.4592   $ Sizing
 "CSupFlo_Sys_L_MechElec_C" = 136.3713   $ Sizing
 "CSupFlo_Sys_L_OfficeOpn_C" = 1897.571   $ Sizing
 "CSupFlo_Sys_L_OfficeOpn_E" = 1638.391   $ Sizing
 "CSupFlo_Sys_L_OfficeOpn_N" = 1168.549   $ Sizing
 "CSupFlo_Sys_L_OfficeOpn_S" = 1682.254   $ Sizing
 "CSupFlo_Sys_L_OfficeOpn_W" = 1895.088   $ Sizing
 "CSupFlo_Sys_L_OfficeSm_C" = 253.9624   $ Sizing
 "CSupFlo_Sys_L_OfficeSm_E" = 1159.883   $ Sizing
 "CSupFlo_Sys_L_OfficeSm_N" = 758.1567   $ Sizing
 "CSupFlo_Sys_L_OfficeSm_S" = 1183.33   $ Sizing
 "CSupFlo_Sys_L_OfficeSm_W" = 1333.855   $ Sizing
 "CSupFlo_Sys_L_Restrm_C" = 98.97552   $ Sizing
 "CSupFlo_Sys_L_StorSm_C" = 440.4328   $ Sizing
 "CSupFlo_Sys_M_Break_C" = 4801.348   $ Sizing
 "CSupFlo_Sys_M_Conf_C" = 4619.607   $ Sizing
 "CSupFlo_Sys_M_CopyRm_C" = 1489.923   $ Sizing
 "CSupFlo_Sys_M_Cordr_C" = 7583.145   $ Sizing
 "CSupFlo_Sys_M_Cordr_E" = 2157.424   $ Sizing
 "CSupFlo_Sys_M_Cordr_N" = 1400.22   $ Sizing
 "CSupFlo_Sys_M_Cordr_S" = 2135.899   $ Sizing
 "CSupFlo_Sys_M_Cordr_W" = 2258.464   $ Sizing
 "CSupFlo_Sys_M_LobWait_C" = 4610.41   $ Sizing
 "CSupFlo_Sys_M_MechElec_C" = 1312.061   $ Sizing
 "CSupFlo_Sys_M_OfficeOpn_C" = 16673.58   $ Sizing
 "CSupFlo_Sys_M_OfficeOpn_E" = 14081.06   $ Sizing
 "CSupFlo_Sys_M_OfficeOpn_N" = 9814.407   $ Sizing
 "CSupFlo_Sys_M_OfficeOpn_S" = 14238.52   $ Sizing
 "CSupFlo_Sys_M_OfficeOpn_W" = 15588.68   $ Sizing
 "CSupFlo_Sys_M_OfficeSm_C" = 2442.137   $ Sizing
 "CSupFlo_Sys_M_OfficeSm_E" = 9848.114   $ Sizing
 "CSupFlo_Sys_M_OfficeSm_N" = 6327.62   $ Sizing
 "CSupFlo_Sys_M_OfficeSm_S" = 9936.271   $ Sizing
 "CSupFlo_Sys_M_OfficeSm_W" = 10892.52   $ Sizing
 "CSupFlo_Sys_M_Restrm_C" = 959.8975   $ Sizing
 "CSupFlo_Sys_M_StorSm_C" = 3559.745   $ Sizing
 "CSupFlo_Sys_T_Break_C" = 590.2158   $ Sizing
 "CSupFlo_Sys_T_Conf_C" = 571.8652   $ Sizing
 "CSupFlo_Sys_T_CopyRm_C" = 186.5858   $ Sizing
 "CSupFlo_Sys_T_Cordr_C" = 873.7614   $ Sizing
 "CSupFlo_Sys_T_Cordr_E" = 256.733   $ Sizing
 "CSupFlo_Sys_T_Cordr_N" = 171.7565   $ Sizing
 "CSupFlo_Sys_T_Cordr_S" = 265.8073   $ Sizing
 "CSupFlo_Sys_T_Cordr_W" = 277.3248   $ Sizing
 "CSupFlo_Sys_T_LobWait_C" = 575.4775   $ Sizing
 "CSupFlo_Sys_T_MechElec_C" = 179.7061   $ Sizing
 "CSupFlo_Sys_T_OfficeOpn_C" = 1926.548   $ Sizing
 "CSupFlo_Sys_T_OfficeOpn_E" = 1714.289   $ Sizing
 "CSupFlo_Sys_T_OfficeOpn_N" = 1223.331   $ Sizing
 "CSupFlo_Sys_T_OfficeOpn_S" = 1793.835   $ Sizing
 "CSupFlo_Sys_T_OfficeOpn_W" = 1922.744   $ Sizing
 "CSupFlo_Sys_T_OfficeSm_C" = 290.1055   $ Sizing
 "CSupFlo_Sys_T_OfficeSm_E" = 1226.919   $ Sizing
 "CSupFlo_Sys_T_OfficeSm_N" = 795.5883   $ Sizing
 "CSupFlo_Sys_T_OfficeSm_S" = 1265.027   $ Sizing
 "CSupFlo_Sys_T_OfficeSm_W" = 1363.739   $ Sizing
 "CSupFlo_Sys_T_Restrm_C" = 130.7549   $ Sizing
 "CSupFlo_Sys_T_StorSm_C" = 293.7694   $ Sizing
 "ClCap_Sys_L_Break_C" = 19857.01   $ Sizing
 "ClCap_Sys_L_Conf_C" = 24588.38   $ Sizing
 "ClCap_Sys_L_CopyRm_C" = 6457.716   $ Sizing
 "ClCap_Sys_L_Cordr_C" = 22950.75   $ Sizing
 "ClCap_Sys_L_Cordr_E" = 7850.081   $ Sizing
 "ClCap_Sys_L_Cordr_N" = 5150.891   $ Sizing
 "ClCap_Sys_L_Cordr_S" = 8126.214   $ Sizing
 "ClCap_Sys_L_Cordr_W" = 8870.92   $ Sizing
 "ClCap_Sys_L_LobWait_C" = 18564.76   $ Sizing
 "ClCap_Sys_L_MechElec_C" = 4549.661   $ Sizing
 "ClCap_Sys_L_OfficeOpn_C" = 63307.32   $ Sizing
 "ClCap_Sys_L_OfficeOpn_E" = 54660.48   $ Sizing
 "ClCap_Sys_L_OfficeOpn_N" = 38985.49   $ Sizing
 "ClCap_Sys_L_OfficeOpn_S" = 56123.84   $ Sizing
 "ClCap_Sys_L_OfficeOpn_W" = 63224.5   $ Sizing
 "ClCap_Sys_L_OfficeSm_C" = 8472.77   $ Sizing
 "ClCap_Sys_L_OfficeSm_E" = 38696.35   $ Sizing
 "ClCap_Sys_L_OfficeSm_N" = 25293.85   $ Sizing
 "ClCap_Sys_L_OfficeSm_S" = 39478.61   $ Sizing
 "ClCap_Sys_L_OfficeSm_W" = 44500.47   $ Sizing
 "ClCap_Sys_L_Restrm_C" = 3302.051   $ Sizing
 "ClCap_Sys_L_StorSm_C" = 14693.85   $ Sizing
 "ClCap_Sys_M_Break_C" = 160184   $ Sizing
 "ClCap_Sys_M_Conf_C" = 196153.6   $ Sizing
 "ClCap_Sys_M_CopyRm_C" = 49707.25   $ Sizing
 "ClCap_Sys_M_Cordr_C" = 252991.1   $ Sizing
 "ClCap_Sys_M_Cordr_E" = 71976.63   $ Sizing
 "ClCap_Sys_M_Cordr_N" = 46714.55   $ Sizing
 "ClCap_Sys_M_Cordr_S" = 71258.49   $ Sizing
 "ClCap_Sys_M_Cordr_W" = 75347.55   $ Sizing
 "ClCap_Sys_M_LobWait_C" = 153813.9   $ Sizing
 "ClCap_Sys_M_MechElec_C" = 43773.37   $ Sizing
 "ClCap_Sys_M_OfficeOpn_C" = 556268.9   $ Sizing
 "ClCap_Sys_M_OfficeOpn_E" = 469776.7   $ Sizing
 "ClCap_Sys_M_OfficeOpn_N" = 327431.2   $ Sizing
 "ClCap_Sys_M_OfficeOpn_S" = 475029.8   $ Sizing
 "ClCap_Sys_M_OfficeOpn_W" = 520074.3   $ Sizing
 "ClCap_Sys_M_OfficeSm_C" = 81475.3   $ Sizing
 "ClCap_Sys_M_OfficeSm_E" = 328555.7   $ Sizing
 "ClCap_Sys_M_OfficeSm_N" = 211103.9   $ Sizing
 "ClCap_Sys_M_OfficeSm_S" = 331496.8   $ Sizing
 "ClCap_Sys_M_OfficeSm_W" = 363399.4   $ Sizing
 "ClCap_Sys_M_Restrm_C" = 32024.39   $ Sizing
 "ClCap_Sys_M_StorSm_C" = 118761.3   $ Sizing
 "ClCap_Sys_T_Break_C" = 19690.96   $ Sizing
 "ClCap_Sys_T_Conf_C" = 24282.03   $ Sizing
 "ClCap_Sys_T_CopyRm_C" = 6224.931   $ Sizing
 "ClCap_Sys_T_Cordr_C" = 29150.69   $ Sizing
 "ClCap_Sys_T_Cordr_E" = 8565.204   $ Sizing
 "ClCap_Sys_T_Cordr_N" = 5730.19   $ Sizing
 "ClCap_Sys_T_Cordr_S" = 8867.941   $ Sizing
 "ClCap_Sys_T_Cordr_W" = 9252.193   $ Sizing
 "ClCap_Sys_T_LobWait_C" = 19199.25   $ Sizing
 "ClCap_Sys_T_MechElec_C" = 5995.41   $ Sizing
 "ClCap_Sys_T_OfficeOpn_C" = 64274.07   $ Sizing
 "ClCap_Sys_T_OfficeOpn_E" = 57192.62   $ Sizing
 "ClCap_Sys_T_OfficeOpn_N" = 40813.13   $ Sizing
 "ClCap_Sys_T_OfficeOpn_S" = 59846.46   $ Sizing
 "ClCap_Sys_T_OfficeOpn_W" = 64147.16   $ Sizing
 "ClCap_Sys_T_OfficeSm_C" = 9678.585   $ Sizing
 "ClCap_Sys_T_OfficeSm_E" = 40932.83   $ Sizing
 "ClCap_Sys_T_OfficeSm_N" = 26542.65   $ Sizing
 "ClCap_Sys_T_OfficeSm_S" = 42204.2   $ Sizing
 "ClCap_Sys_T_OfficeSm_W" = 45497.47   $ Sizing
 "ClCap_Sys_T_Restrm_C" = 4362.284   $ Sizing
 "ClCap_Sys_T_StorSm_C" = 9800.823   $ Sizing
 "HtCap_Sys_L_Break_C" = -30677.79   $ Sizing
 "HtCap_Sys_L_Conf_C" = -30921.46   $ Sizing
 "HtCap_Sys_L_CopyRm_C" = -11278.17   $ Sizing
 "HtCap_Sys_L_Cordr_C" = -28369.36   $ Sizing
 "HtCap_Sys_L_Cordr_E" = -8568.703   $ Sizing
 "HtCap_Sys_L_Cordr_N" = -6153.101   $ Sizing
 "HtCap_Sys_L_Cordr_S" = -8334.12   $ Sizing
 "HtCap_Sys_L_Cordr_W" = -8982.815   $ Sizing
 "HtCap_Sys_L_LobWait_C" = -28928.14   $ Sizing
 "HtCap_Sys_L_MechElec_C" = -5912.687   $ Sizing
 "HtCap_Sys_L_OfficeOpn_C" = -90671.38   $ Sizing
 "HtCap_Sys_L_OfficeOpn_E" = -58564.16   $ Sizing
 "HtCap_Sys_L_OfficeOpn_N" = -41690.9   $ Sizing
 "HtCap_Sys_L_OfficeOpn_S" = -57361.69   $ Sizing
 "HtCap_Sys_L_OfficeOpn_W" = -60726.55   $ Sizing
 "HtCap_Sys_L_OfficeSm_C" = -12638.05   $ Sizing
 "HtCap_Sys_L_OfficeSm_E" = -41280.62   $ Sizing
 "HtCap_Sys_L_OfficeSm_N" = -27100.96   $ Sizing
 "HtCap_Sys_L_OfficeSm_S" = -41689.36   $ Sizing
 "HtCap_Sys_L_OfficeSm_W" = -43595.16   $ Sizing
 "HtCap_Sys_L_Restrm_C" = -7763.166   $ Sizing
 "HtCap_Sys_L_StorSm_C" = -17833.12   $ Sizing
 "HtCap_Sys_M_Break_C" = -234880.4   $ Sizing
 "HtCap_Sys_M_Conf_C" = -230273.9   $ Sizing
 "HtCap_Sys_M_CopyRm_C" = -77020.84   $ Sizing
 "HtCap_Sys_M_Cordr_C" = -295345.7   $ Sizing
 "HtCap_Sys_M_Cordr_E" = -78825.48   $ Sizing
 "HtCap_Sys_M_Cordr_N" = -51321.86   $ Sizing
 "HtCap_Sys_M_Cordr_S" = -74230.67   $ Sizing
 "HtCap_Sys_M_Cordr_W" = -75074.41   $ Sizing
 "HtCap_Sys_M_LobWait_C" = -208227.7   $ Sizing
 "HtCap_Sys_M_MechElec_C" = -55371.26   $ Sizing
 "HtCap_Sys_M_OfficeOpn_C" = -821249.6   $ Sizing
 "HtCap_Sys_M_OfficeOpn_E" = -503574.7   $ Sizing
 "HtCap_Sys_M_OfficeOpn_N" = -343101   $ Sizing
 "HtCap_Sys_M_OfficeOpn_S" = -487871.1   $ Sizing
 "HtCap_Sys_M_OfficeOpn_W" = -496313.4   $ Sizing
 "HtCap_Sys_M_OfficeSm_C" = -127715.9   $ Sizing
 "HtCap_Sys_M_OfficeSm_E" = -353171.1   $ Sizing
 "HtCap_Sys_M_OfficeSm_N" = -222258.1   $ Sizing
 "HtCap_Sys_M_OfficeSm_S" = -350721.2   $ Sizing
 "HtCap_Sys_M_OfficeSm_W" = -355903.1   $ Sizing
 "HtCap_Sys_M_Restrm_C" = -66781.27   $ Sizing
 "HtCap_Sys_M_StorSm_C" = -141038.1   $ Sizing
 "HtCap_Sys_T_Break_C" = -30848.1   $ Sizing
 "HtCap_Sys_T_Conf_C" = -30323.6   $ Sizing
 "HtCap_Sys_T_CopyRm_C" = -10518.37   $ Sizing
 "HtCap_Sys_T_Cordr_C" = -34892.29   $ Sizing
 "HtCap_Sys_T_Cordr_E" = -9522.904   $ Sizing
 "HtCap_Sys_T_Cordr_N" = -6970.809   $ Sizing
 "HtCap_Sys_T_Cordr_S" = -9432.896   $ Sizing
 "HtCap_Sys_T_Cordr_W" = -10125.08   $ Sizing
 "HtCap_Sys_T_LobWait_C" = -28443.16   $ Sizing
 "HtCap_Sys_T_MechElec_C" = -7344.989   $ Sizing
 "HtCap_Sys_T_OfficeOpn_C" = -91145.26   $ Sizing
 "HtCap_Sys_T_OfficeOpn_E" = -62141.69   $ Sizing
 "HtCap_Sys_T_OfficeOpn_N" = -46978.95   $ Sizing
 "HtCap_Sys_T_OfficeOpn_S" = -60982.91   $ Sizing
 "HtCap_Sys_T_OfficeOpn_W" = -66149.82   $ Sizing
 "HtCap_Sys_T_OfficeSm_C" = -11277.72   $ Sizing
 "HtCap_Sys_T_OfficeSm_E" = -44808.45   $ Sizing
 "HtCap_Sys_T_OfficeSm_N" = -30405.27   $ Sizing
 "HtCap_Sys_T_OfficeSm_S" = -45520.84   $ Sizing
 "HtCap_Sys_T_OfficeSm_W" = -47049.17   $ Sizing
 "HtCap_Sys_T_Restrm_C" = -8084.966   $ Sizing
 "HtCap_Sys_T_StorSm_C" = -15537.95   $ Sizing
..

##include Templates\OfL_DX_SZ.inp
END ..
COMPUTE ..
STOP ..
