
Start DOESIM : Storage capacity =  75000000
Starting LOADS   : SAVE-FILES is On , weather is CZ01ARCATA-AP       
Finished LOADS    BDL  1 : Memory (wds) =    392139, Time (sec) =    2.48
Starting REPORT  
Finished REPORT   BDL  1 : Memory (wds) =    785077, Time (sec) =    0.86
Starting HVAC    : SAVE-FILES is On , weather is CZ01ARCATA-AP       
*** ERRORS or WARNINGS from HVAC     program. Examine output file for details.
Finished HVAC     BDL  1 : Memory (wds) =    677951, Time (sec) =   10.37
Starting REPORT  
Finished REPORT   BDL  1 : Memory (wds) =   1199220, Time (sec) =    0.89
Starting HOURLY-R
Finished HOURLY-R BDL  1 : Memory (wds) =   1526817, Time (sec) =    0.15
Starting ECONOMIC
Finished ECONOMIC BDL  1 : Memory (wds) =      1034, Time (sec) =    0.03
End   DOESIM : Total elapsed time of     14.8 seconds
RUN COMPLETE
