This JJHirsch DOE-2.3-50i  was released in February 2018.

Start DOEBDL : Storage capacity =  75000000
Starting BDL   1
Finished BDL   1 : Memory (wds) = 14370831, clock time (secs) =     8.6
End   DOEBDL : Total elapsed time of      8.7 seconds
ERRORLEVEL=0 
