INPUT ..

##fileprefix C:\Users\jglasskatz\MASControl3\
##set1 IsSizing FALSE
##set1 CoolType DX
##set1 HeatType FURNACE
##set1 EU_HrRepVar 1
##set1 BldgVint 1996
##set1 BldgLoc CZ01

 ##set1 mBFMult 1   $ IP Tech: RefgChg-NRes-Std

PARAMETER
 "AltFactor" = 1.00753   $ IP Non-Tech
 "BldgEconoFlag" = 1   $ IP Non-Tech
 "Break_EWSF" = 1   $ IP Non-Tech
 "Break_LWSF" = 1.1   $ IP Non-Tech
 "CDD_DBHi10" = 65   $ IP Non-Tech
 "CDD_DBHi7" = 68   $ IP Non-Tech
 "CDD_DBHi8" = 66   $ IP Non-Tech
 "CDD_DBHi9" = 77   $ IP Non-Tech
 "CDD_DBRange10" = 17   $ IP Non-Tech
 "CDD_DBRange7" = 11   $ IP Non-Tech
 "CDD_DBRange8" = 10   $ IP Non-Tech
 "CDD_DBRange9" = 29   $ IP Non-Tech
 "CDD_Day10" = 15   $ IP Non-Tech
 "CDD_Day7" = 16   $ IP Non-Tech
 "CDD_Day8" = 20   $ IP Non-Tech
 "CDD_Day9" = 17   $ IP Non-Tech
 "CDD_HrHi10" = 12   $ IP Non-Tech
 "CDD_HrHi7" = 12   $ IP Non-Tech
 "CDD_HrHi8" = 13   $ IP Non-Tech
 "CDD_HrHi9" = 17   $ IP Non-Tech
 "CDD_HrLo10" = 6   $ IP Non-Tech
 "CDD_HrLo7" = 3   $ IP Non-Tech
 "CDD_HrLo8" = 8   $ IP Non-Tech
 "CDD_HrLo9" = 4   $ IP Non-Tech
 "CDD_WB10" = 57.53039551   $ IP Non-Tech
 "CDD_WB7" = 59.29250717   $ IP Non-Tech
 "CDD_WB8" = 60.75350189   $ IP Non-Tech
 "CDD_WB9" = 61.08643341   $ IP Non-Tech
 "CZ_Category" = Tem   $ IP Non-Tech
 "ChwVintEconoFlag" = 1   $ IP Non-Tech
 "Conference_EWSF" = 1.05   $ IP Non-Tech
 "Conference_LWSF" = 1.4   $ IP Non-Tech
 "CoolSetT" = 45   $ IP Non-Tech
 "CoolType" = DX   $ IP Non-Tech
 "CopyRoom_EWSF" = 1.575   $ IP Non-Tech
 "CopyRoom_LWSF" = 1.3   $ IP Non-Tech
 "CorridorStairway_EWSF" = 0.21   $ IP Non-Tech
 "CorridorStairway_LWSF" = 0.6   $ IP Non-Tech
 "DesCoolT" = 75   $ IP Non-Tech
 "DesHeatT" = 73   $ IP Non-Tech
 "EconoEnthLimit" = 28   $ IP Non-Tech
 "EconoTempLimit" = 70   $ IP Non-Tech
 "Elevation" = 203   $ IP Non-Tech
 "HDD_CloudAmt1" = 0   $ IP Non-Tech
 "HDD_DBHi1" = 53   $ IP Non-Tech
 "HDD_DBRange1" = 20   $ IP Non-Tech
 "HDD_Day1" = 15   $ IP Non-Tech
 "HDD_HrHi1" = 14   $ IP Non-Tech
 "HDD_HrLo1" = 6   $ IP Non-Tech
 "HDD_WB1" = 42.3   $ IP Non-Tech
 "HDD_WindSpd1" = 12.7   $ IP Non-Tech
 "HeatSrc" = FURNACE   $ IP Non-Tech
 "HeatSrcTU" = HEAT-PUMP   $ IP Non-Tech
 "HeatType" = GasFurn   $ IP Non-Tech
 "HeatTypeTU" = HEAT-PUMP   $ IP Non-Tech
 "IndoorFanMode" = CONTINUOUS   $ IP Non-Tech
 "KT_TransferAir" = No   $ IP Non-Tech
 "Latitude" = 40.8   $ IP Non-Tech
 "LobbyWaiting_EWSF" = 0.5125   $ IP Non-Tech
 "LobbyWaiting_LWSF" = 1.3   $ IP Non-Tech
 "Longitude" = 124.2   $ IP Non-Tech
 "MZFanMechEff" = 0.58   $ IP Non-Tech
 "MZHasRetFan" = FALSE   $ IP Non-Tech
 "MZ_RFanWPerCfm" = 0.37   $ IP Non-Tech
 "MZ_SFanWPerCfm" = 0.71   $ IP Non-Tech
 "MZ_SupFanStatic" = 2.25   $ IP Non-Tech
 "MaxSupT_MZ" = 100   $ IP Non-Tech
 "MaxSupT_SZ" = 100   $ IP Non-Tech
 "MaxSupT_TU" = 90   $ IP Non-Tech
 "MechElecRoom_EWSF" = 0.21   $ IP Non-Tech
 "MechElecRoom_LWSF" = 0.7   $ IP Non-Tech
 "MinCfmPerSF" = 0.4   $ IP Non-Tech
 "MinSupT" = 55   $ IP Non-Tech
 "OccCoolT" = 76   $ IP Non-Tech
 "OccHeatT" = 72   $ IP Non-Tech
 "OfficeOpen_EWSF" = 1.575   $ IP Non-Tech
 "OfficeOpen_LWSF" = 1.2   $ IP Non-Tech
 "OfficeSmall_EWSF" = 1.575   $ IP Non-Tech
 "OfficeSmall_LWSF" = 1.3   $ IP Non-Tech
 "PkgDxVintEconoFlag" = 0   $ IP Non-Tech
 "Restroom_EWSF" = 0.21   $ IP Non-Tech
 "Restroom_LWSF" = 0.6   $ IP Non-Tech
 "SZFanMechEff" = 0.58   $ IP Non-Tech
 "SZHasRetFan" = FALSE   $ IP Non-Tech
 "SZ_Is_2Spd" = FALSE   $ IP Non-Tech
 "SZ_SFanWPerCfm" = 0.46   $ IP Non-Tech
 "SZ_SupFanStatic" = 0.75   $ IP Non-Tech
 "StorageSmlCond_EWSF" = 0.21   $ IP Non-Tech
 "StorageSmlCond_LWSF" = 0.6   $ IP Non-Tech
 "T24GlzTbl" = CZTbl   $ IP Non-Tech
 "TermUnitFanMechEff" = 1   $ IP Non-Tech
 "TermUnitFanMode" = INTERMITTENT   $ IP Non-Tech
 "TwrSetpt" = 80   $ IP Non-Tech
 "UnocCoolT" = 86   $ IP Non-Tech
 "UnocHeatT" = 62   $ IP Non-Tech
 "WlhpVintEconoFlag" = 0   $ IP Non-Tech
 "EconoCtrl" = OA-TEMP   $ IP Tech: AirEcono-OATemp
 "MaxOAFrac" = 0.85   $ IP Tech: AirEcono-OATemp
 "UseEconoVintApplic" = FALSE   $ IP Tech: AirEcono-OATemp
 "DuctDT" = 1   $ IP Tech: ComDuctInsul-1
 "DuctAirLoss" = 0   $ IP Tech: ComDuctLeak-0
 "DuctLossOAFrac" = 0   $ IP Tech: ComDuctLeak-0
 "ComRoofInsCalc" = FromUo   $ IP Tech: ComRoofIns-Hvy-0.06
 "ComRoofInsR" = -999   $ IP Tech: ComRoofIns-Hvy-0.06
 "ComRoofUo" = 0.06   $ IP Tech: ComRoofIns-Hvy-0.06
 "ComEWInsCalc" = FromUo   $ IP Tech: ComWallIns-MFrm-0.13
 "ComEWInsR" = -999   $ IP Tech: ComWallIns-MFrm-0.13
 "ComEWUo" = 0.13   $ IP Tech: ComWallIns-MFrm-0.13
 "ComN_SHGC" = 0.77   $ IP Tech: NResWin-ComN-0.77-0.77
 "ComN_UFactor" = 0.77   $ IP Tech: NResWin-ComN-0.77-0.77
 "ComN_VisTrans" = 0.81   $ IP Tech: NResWin-ComN-0.77-0.77
 "ComN_WinCode" = G2000   $ IP Tech: NResWin-ComN-0.77-0.77
 "ComN_WinFrmFrac" = 0.17   $ IP Tech: NResWin-ComN-0.77-0.77
 "ComN_WinFrmU" = 1   $ IP Tech: NResWin-ComN-0.77-0.77
 "ComO_SHGC" = 0.5   $ IP Tech: NResWin-ComO-0.77-0.5
 "ComO_UFactor" = 0.77   $ IP Tech: NResWin-ComO-0.77-0.5
 "ComO_VisTrans" = 0.77   $ IP Tech: NResWin-ComO-0.77-0.5
 "ComO_WinCode" = G2630   $ IP Tech: NResWin-ComO-0.77-0.5
 "ComO_WinFrmFrac" = 0.17   $ IP Tech: NResWin-ComO-0.77-0.5
 "ComO_WinFrmU" = 1   $ IP Tech: NResWin-ComO-0.77-0.5
 "LtgMsrApplic" = ALL   $ IP Tech: NonResLtgRefPre
 "LtgSav_CFL" = 0   $ IP Tech: NonResLtgRefPre
 "LtgSav_EX" = 0   $ IP Tech: NonResLtgRefPre
 "LtgSav_HB" = 0   $ IP Tech: NonResLtgRefPre
 "LtgSav_LF" = 0   $ IP Tech: NonResLtgRefPre
 "LtgSav_SP" = 0   $ IP Tech: NonResLtgRefPre
 "BF_fFlow" = PSZ65to135_BF_fFlow   $ IP Tech: PkgAC1SpH-65to135-E10
 "BF_fT" = PSZ65to135_BF_fT   $ IP Tech: PkgAC1SpH-65to135-E10
 "CEIR_fPLR" = PSZ65to135_CEIR_fPLR   $ IP Tech: PkgAC1SpH-65to135-E10
 "CLoss_fPLR" = PSZ65to135_CLoss_fPLR   $ IP Tech: PkgAC1SpH-65to135-E10
 "COP" = -1   $ IP Tech: PkgAC1SpH-65to135-E10
 "COP47" = -1   $ IP Tech: PkgAC1SpH-65to135-E10
 "CfmPerBtuh" = 0.02917   $ IP Tech: PkgAC1SpH-65to135-E10
 "ClCap_fT" = PSZ65to135_ClCap_fT   $ IP Tech: PkgAC1SpH-65to135-E10
 "ClSH_fT" = PSZ65to135_ClSH_fT   $ IP Tech: PkgAC1SpH-65to135-E10
 "CoilBF" = 0.114   $ IP Tech: PkgAC1SpH-65to135-E10
 "CondWPerBtuh" = 0   $ IP Tech: PkgAC1SpH-65to135-E10
 "CoolSensCap" = 0.663   $ IP Tech: PkgAC1SpH-65to135-E10
 "CoolingEIR" = 0.29745   $ IP Tech: PkgAC1SpH-65to135-E10
 "CrnkEIR" = 0.01   $ IP Tech: PkgAC1SpH-65to135-E10
 "CrnkMaxT" = 50   $ IP Tech: PkgAC1SpH-65to135-E10
 "DXType" = Pkg   $ IP Tech: PkgAC1SpH-65to135-E10
 "EER" = 9.67   $ IP Tech: PkgAC1SpH-65to135-E10
 "EIR_fT" = PSZ65to135_EIR_fT   $ IP Tech: PkgAC1SpH-65to135-E10
 "FanEirPlr" = TwoSpeedFan   $ IP Tech: PkgAC1SpH-65to135-E10
 "FanWPerCfm" = 0.412   $ IP Tech: PkgAC1SpH-65to135-E10
 "HIR_fT" = DEFAULT   $ IP Tech: PkgAC1SpH-65to135-E10
 "HtCap_fT" = DEFAULT   $ IP Tech: PkgAC1SpH-65to135-E10
 "HtCoolCapRatio" = -1   $ IP Tech: PkgAC1SpH-65to135-E10
 "HtgEIR" = -1   $ IP Tech: PkgAC1SpH-65to135-E10
 "HtgFuel" = Gas   $ IP Tech: PkgAC1SpH-65to135-E10
 "IEER" = 11.87   $ IP Tech: PkgAC1SpH-65to135-E10
 "LowSpdCapRatio" = 0.5   $ IP Tech: PkgAC1SpH-65to135-E10
 "LowSpdCfmRatio" = 0.66   $ IP Tech: PkgAC1SpH-65to135-E10
 "NominalCap" = 15   $ IP Tech: PkgAC1SpH-65to135-E10
 "NumStages" = 1   $ IP Tech: PkgAC1SpH-65to135-E10
 "RatedEER" = 10   $ IP Tech: PkgAC1SpH-65to135-E10
 "RatedSupMtrClass" = HiEff   $ IP Tech: PkgAC1SpH-65to135-E10
 "SizeRange" = 65to135   $ IP Tech: PkgAC1SpH-65to135-E10
 "SubType" = AC   $ IP Tech: PkgAC1SpH-65to135-E10
 "SupMotEff" = 0.84   $ IP Tech: PkgAC1SpH-65to135-E10
 "Tier" = 0   $ IP Tech: PkgAC1SpH-65to135-E10
 "TotCoolCap" = 184140   $ IP Tech: PkgAC1SpH-65to135-E10
 "FanPwrMult" = 1   $ IP Tech: PkgFurn-0.80AFUE
 "FurnAFUE" = 0.8   $ IP Tech: PkgFurn-0.80AFUE
 "FurnEt" = 0.82   $ IP Tech: PkgFurn-0.80AFUE
 "FurnaceAuxKW" = 0.1   $ IP Tech: PkgFurn-0.80AFUE
 "HIR_fPLR" = Furnace-HIR-fPLR   $ IP Tech: PkgFurn-0.80AFUE
 "VSM" = FALSE   $ IP Tech: PkgFurn-0.80AFUE
 "BFMult" = 1   $ IP Tech: RefgChg-NRes-Std
 "CoolEirMult" = 1   $ IP Tech: RefgChg-NRes-Std
 "SensCoolCapMult" = 1   $ IP Tech: RefgChg-NRes-Std
 "TotCoolCapMult" = 1   $ IP Tech: RefgChg-NRes-Std
 "AltAdjFactor" = 1.007532   $ Sizing
 "CAssFlo_L_Break_CZn" = 364.166   $ Sizing
 "CAssFlo_L_Conf_CZn" = 428.2683   $ Sizing
 "CAssFlo_L_CopyRm_CZn" = 109.6033   $ Sizing
 "CAssFlo_L_Cordr_CZn" = 565.4379   $ Sizing
 "CAssFlo_L_Cordr_EZn" = 243.3497   $ Sizing
 "CAssFlo_L_Cordr_NZn" = 104.0672   $ Sizing
 "CAssFlo_L_Cordr_SZn" = 261.2373   $ Sizing
 "CAssFlo_L_Cordr_WZn" = 232.9357   $ Sizing
 "CAssFlo_L_LobWait_CZn" = 357.2935   $ Sizing
 "CAssFlo_L_MechElec_CZn" = 134.1697   $ Sizing
 "CAssFlo_L_OfficeOpn_CZn" = 1712.101   $ Sizing
 "CAssFlo_L_OfficeOpn_EZn" = 1994.308   $ Sizing
 "CAssFlo_L_OfficeOpn_NZn" = 854.8584   $ Sizing
 "CAssFlo_L_OfficeOpn_SZn" = 2061.499   $ Sizing
 "CAssFlo_L_OfficeOpn_WZn" = 1909.929   $ Sizing
 "CAssFlo_L_OfficeSm_CZn" = 217.2764   $ Sizing
 "CAssFlo_L_OfficeSm_EZn" = 1438.088   $ Sizing
 "CAssFlo_L_OfficeSm_NZn" = 521.4034   $ Sizing
 "CAssFlo_L_OfficeSm_SZn" = 1520.714   $ Sizing
 "CAssFlo_L_OfficeSm_WZn" = 1382.306   $ Sizing
 "CAssFlo_L_Restrm_CZn" = 211.8611   $ Sizing
 "CAssFlo_L_StorSm_CZn" = 345.5645   $ Sizing
 "CAssFlo_M_Break_CZn" = 398.2147   $ Sizing
 "CAssFlo_M_Conf_CZn" = 479.4673   $ Sizing
 "CAssFlo_M_CopyRm_CZn" = 136.9078   $ Sizing
 "CAssFlo_M_Cordr_CZn" = 785.9039   $ Sizing
 "CAssFlo_M_Cordr_EZn" = 301.8206   $ Sizing
 "CAssFlo_M_Cordr_NZn" = 111.2999   $ Sizing
 "CAssFlo_M_Cordr_SZn" = 314.0477   $ Sizing
 "CAssFlo_M_Cordr_WZn" = 270.5798   $ Sizing
 "CAssFlo_M_LobWait_CZn" = 464.0494   $ Sizing
 "CAssFlo_M_MechElec_CZn" = 143.6129   $ Sizing
 "CAssFlo_M_OfficeOpn_CZn" = 2001.075   $ Sizing
 "CAssFlo_M_OfficeOpn_EZn" = 2178.103   $ Sizing
 "CAssFlo_M_OfficeOpn_NZn" = 998.4382   $ Sizing
 "CAssFlo_M_OfficeOpn_SZn" = 2297.359   $ Sizing
 "CAssFlo_M_OfficeOpn_WZn" = 2027.523   $ Sizing
 "CAssFlo_M_OfficeSm_CZn" = 280.1864   $ Sizing
 "CAssFlo_M_OfficeSm_EZn" = 1557.064   $ Sizing
 "CAssFlo_M_OfficeSm_NZn" = 619.8454   $ Sizing
 "CAssFlo_M_OfficeSm_SZn" = 1682.447   $ Sizing
 "CAssFlo_M_OfficeSm_WZn" = 1475.017   $ Sizing
 "CAssFlo_M_Restrm_CZn" = 211.8611   $ Sizing
 "CAssFlo_M_StorSm_CZn" = 374.0205   $ Sizing
 "CAssFlo_T_Break_CZn" = 376.7013   $ Sizing
 "CAssFlo_T_Conf_CZn" = 457.0842   $ Sizing
 "CAssFlo_T_CopyRm_CZn" = 131.1661   $ Sizing
 "CAssFlo_T_Cordr_CZn" = 691.2563   $ Sizing
 "CAssFlo_T_Cordr_EZn" = 266.2355   $ Sizing
 "CAssFlo_T_Cordr_NZn" = 99.46485   $ Sizing
 "CAssFlo_T_Cordr_SZn" = 285.7892   $ Sizing
 "CAssFlo_T_Cordr_WZn" = 244.0557   $ Sizing
 "CAssFlo_T_LobWait_CZn" = 428.8518   $ Sizing
 "CAssFlo_T_MechElec_CZn" = 150.2804   $ Sizing
 "CAssFlo_T_OfficeOpn_CZn" = 1848.202   $ Sizing
 "CAssFlo_T_OfficeOpn_EZn" = 1981.896   $ Sizing
 "CAssFlo_T_OfficeOpn_NZn" = 934.9946   $ Sizing
 "CAssFlo_T_OfficeOpn_SZn" = 2142.187   $ Sizing
 "CAssFlo_T_OfficeOpn_WZn" = 1865.19   $ Sizing
 "CAssFlo_T_OfficeSm_CZn" = 261.3172   $ Sizing
 "CAssFlo_T_OfficeSm_EZn" = 1461.191   $ Sizing
 "CAssFlo_T_OfficeSm_NZn" = 591.9573   $ Sizing
 "CAssFlo_T_OfficeSm_SZn" = 1605.227   $ Sizing
 "CAssFlo_T_OfficeSm_WZn" = 1391.057   $ Sizing
 "CAssFlo_T_Restrm_CZn" = 211.8611   $ Sizing
 "CAssFlo_T_StorSm_CZn" = 334.0894   $ Sizing
 "CHRtFlo_Sys_L_Break_C" = 364.166   $ Sizing
 "CHRtFlo_Sys_L_Conf_C" = 428.2683   $ Sizing
 "CHRtFlo_Sys_L_CopyRm_C" = 109.6033   $ Sizing
 "CHRtFlo_Sys_L_Cordr_C" = 565.4379   $ Sizing
 "CHRtFlo_Sys_L_Cordr_E" = 243.3497   $ Sizing
 "CHRtFlo_Sys_L_Cordr_N" = 104.0672   $ Sizing
 "CHRtFlo_Sys_L_Cordr_S" = 261.2373   $ Sizing
 "CHRtFlo_Sys_L_Cordr_W" = 232.9357   $ Sizing
 "CHRtFlo_Sys_L_LobWait_C" = 357.2935   $ Sizing
 "CHRtFlo_Sys_L_MechElec_C" = 134.1697   $ Sizing
 "CHRtFlo_Sys_L_OfficeOpn_C" = 1712.101   $ Sizing
 "CHRtFlo_Sys_L_OfficeOpn_E" = 1994.308   $ Sizing
 "CHRtFlo_Sys_L_OfficeOpn_N" = 854.8584   $ Sizing
 "CHRtFlo_Sys_L_OfficeOpn_S" = 2061.499   $ Sizing
 "CHRtFlo_Sys_L_OfficeOpn_W" = 1909.929   $ Sizing
 "CHRtFlo_Sys_L_OfficeSm_C" = 217.2764   $ Sizing
 "CHRtFlo_Sys_L_OfficeSm_E" = 1438.088   $ Sizing
 "CHRtFlo_Sys_L_OfficeSm_N" = 521.4034   $ Sizing
 "CHRtFlo_Sys_L_OfficeSm_S" = 1520.714   $ Sizing
 "CHRtFlo_Sys_L_OfficeSm_W" = 1382.306   $ Sizing
 "CHRtFlo_Sys_L_Restrm_C" = 211.8611   $ Sizing
 "CHRtFlo_Sys_L_StorSm_C" = 345.5645   $ Sizing
 "CHRtFlo_Sys_M_Break_C" = 3185.718   $ Sizing
 "CHRtFlo_Sys_M_Conf_C" = 3835.739   $ Sizing
 "CHRtFlo_Sys_M_CopyRm_C" = 1095.262   $ Sizing
 "CHRtFlo_Sys_M_Cordr_C" = 6287.231   $ Sizing
 "CHRtFlo_Sys_M_Cordr_E" = 2414.564   $ Sizing
 "CHRtFlo_Sys_M_Cordr_N" = 890.3996   $ Sizing
 "CHRtFlo_Sys_M_Cordr_S" = 2512.381   $ Sizing
 "CHRtFlo_Sys_M_Cordr_W" = 2164.638   $ Sizing
 "CHRtFlo_Sys_M_LobWait_C" = 3712.396   $ Sizing
 "CHRtFlo_Sys_M_MechElec_C" = 1148.904   $ Sizing
 "CHRtFlo_Sys_M_OfficeOpn_C" = 16008.6   $ Sizing
 "CHRtFlo_Sys_M_OfficeOpn_E" = 17424.82   $ Sizing
 "CHRtFlo_Sys_M_OfficeOpn_N" = 7987.505   $ Sizing
 "CHRtFlo_Sys_M_OfficeOpn_S" = 18378.87   $ Sizing
 "CHRtFlo_Sys_M_OfficeOpn_W" = 16220.18   $ Sizing
 "CHRtFlo_Sys_M_OfficeSm_C" = 2241.491   $ Sizing
 "CHRtFlo_Sys_M_OfficeSm_E" = 12456.51   $ Sizing
 "CHRtFlo_Sys_M_OfficeSm_N" = 4958.763   $ Sizing
 "CHRtFlo_Sys_M_OfficeSm_S" = 13459.57   $ Sizing
 "CHRtFlo_Sys_M_OfficeSm_W" = 11800.13   $ Sizing
 "CHRtFlo_Sys_M_Restrm_C" = 1694.889   $ Sizing
 "CHRtFlo_Sys_M_StorSm_C" = 2992.164   $ Sizing
 "CHRtFlo_Sys_T_Break_C" = 376.7013   $ Sizing
 "CHRtFlo_Sys_T_Conf_C" = 457.0842   $ Sizing
 "CHRtFlo_Sys_T_CopyRm_C" = 131.1661   $ Sizing
 "CHRtFlo_Sys_T_Cordr_C" = 691.2563   $ Sizing
 "CHRtFlo_Sys_T_Cordr_E" = 266.2355   $ Sizing
 "CHRtFlo_Sys_T_Cordr_N" = 99.46485   $ Sizing
 "CHRtFlo_Sys_T_Cordr_S" = 285.7892   $ Sizing
 "CHRtFlo_Sys_T_Cordr_W" = 244.0557   $ Sizing
 "CHRtFlo_Sys_T_LobWait_C" = 428.8518   $ Sizing
 "CHRtFlo_Sys_T_MechElec_C" = 150.2804   $ Sizing
 "CHRtFlo_Sys_T_OfficeOpn_C" = 1848.202   $ Sizing
 "CHRtFlo_Sys_T_OfficeOpn_E" = 1981.896   $ Sizing
 "CHRtFlo_Sys_T_OfficeOpn_N" = 934.9946   $ Sizing
 "CHRtFlo_Sys_T_OfficeOpn_S" = 2142.187   $ Sizing
 "CHRtFlo_Sys_T_OfficeOpn_W" = 1865.19   $ Sizing
 "CHRtFlo_Sys_T_OfficeSm_C" = 261.3172   $ Sizing
 "CHRtFlo_Sys_T_OfficeSm_E" = 1461.191   $ Sizing
 "CHRtFlo_Sys_T_OfficeSm_N" = 591.9573   $ Sizing
 "CHRtFlo_Sys_T_OfficeSm_S" = 1605.227   $ Sizing
 "CHRtFlo_Sys_T_OfficeSm_W" = 1391.057   $ Sizing
 "CHRtFlo_Sys_T_Restrm_C" = 211.8611   $ Sizing
 "CHRtFlo_Sys_T_StorSm_C" = 334.0894   $ Sizing
 "CRtdFlo_Sys_L_Break_C" = 364.166   $ Sizing
 "CRtdFlo_Sys_L_Conf_C" = 428.2683   $ Sizing
 "CRtdFlo_Sys_L_CopyRm_C" = 109.6033   $ Sizing
 "CRtdFlo_Sys_L_Cordr_C" = 565.4379   $ Sizing
 "CRtdFlo_Sys_L_Cordr_E" = 243.3497   $ Sizing
 "CRtdFlo_Sys_L_Cordr_N" = 104.0672   $ Sizing
 "CRtdFlo_Sys_L_Cordr_S" = 261.2373   $ Sizing
 "CRtdFlo_Sys_L_Cordr_W" = 232.9357   $ Sizing
 "CRtdFlo_Sys_L_LobWait_C" = 357.2935   $ Sizing
 "CRtdFlo_Sys_L_MechElec_C" = 134.1697   $ Sizing
 "CRtdFlo_Sys_L_OfficeOpn_C" = 1712.101   $ Sizing
 "CRtdFlo_Sys_L_OfficeOpn_E" = 1994.308   $ Sizing
 "CRtdFlo_Sys_L_OfficeOpn_N" = 854.8584   $ Sizing
 "CRtdFlo_Sys_L_OfficeOpn_S" = 2061.499   $ Sizing
 "CRtdFlo_Sys_L_OfficeOpn_W" = 1909.929   $ Sizing
 "CRtdFlo_Sys_L_OfficeSm_C" = 217.2764   $ Sizing
 "CRtdFlo_Sys_L_OfficeSm_E" = 1438.088   $ Sizing
 "CRtdFlo_Sys_L_OfficeSm_N" = 521.4034   $ Sizing
 "CRtdFlo_Sys_L_OfficeSm_S" = 1520.714   $ Sizing
 "CRtdFlo_Sys_L_OfficeSm_W" = 1382.306   $ Sizing
 "CRtdFlo_Sys_L_Restrm_C" = 211.8611   $ Sizing
 "CRtdFlo_Sys_L_StorSm_C" = 345.5645   $ Sizing
 "CRtdFlo_Sys_M_Break_C" = 3185.718   $ Sizing
 "CRtdFlo_Sys_M_Conf_C" = 3835.739   $ Sizing
 "CRtdFlo_Sys_M_CopyRm_C" = 1095.262   $ Sizing
 "CRtdFlo_Sys_M_Cordr_C" = 6287.231   $ Sizing
 "CRtdFlo_Sys_M_Cordr_E" = 2414.564   $ Sizing
 "CRtdFlo_Sys_M_Cordr_N" = 890.3996   $ Sizing
 "CRtdFlo_Sys_M_Cordr_S" = 2512.381   $ Sizing
 "CRtdFlo_Sys_M_Cordr_W" = 2164.638   $ Sizing
 "CRtdFlo_Sys_M_LobWait_C" = 3712.396   $ Sizing
 "CRtdFlo_Sys_M_MechElec_C" = 1148.904   $ Sizing
 "CRtdFlo_Sys_M_OfficeOpn_C" = 16008.6   $ Sizing
 "CRtdFlo_Sys_M_OfficeOpn_E" = 17424.82   $ Sizing
 "CRtdFlo_Sys_M_OfficeOpn_N" = 7987.505   $ Sizing
 "CRtdFlo_Sys_M_OfficeOpn_S" = 18378.87   $ Sizing
 "CRtdFlo_Sys_M_OfficeOpn_W" = 16220.18   $ Sizing
 "CRtdFlo_Sys_M_OfficeSm_C" = 2241.491   $ Sizing
 "CRtdFlo_Sys_M_OfficeSm_E" = 12456.51   $ Sizing
 "CRtdFlo_Sys_M_OfficeSm_N" = 4958.763   $ Sizing
 "CRtdFlo_Sys_M_OfficeSm_S" = 13459.57   $ Sizing
 "CRtdFlo_Sys_M_OfficeSm_W" = 11800.13   $ Sizing
 "CRtdFlo_Sys_M_Restrm_C" = 1694.889   $ Sizing
 "CRtdFlo_Sys_M_StorSm_C" = 2992.164   $ Sizing
 "CRtdFlo_Sys_T_Break_C" = 376.7013   $ Sizing
 "CRtdFlo_Sys_T_Conf_C" = 457.0842   $ Sizing
 "CRtdFlo_Sys_T_CopyRm_C" = 131.1661   $ Sizing
 "CRtdFlo_Sys_T_Cordr_C" = 691.2563   $ Sizing
 "CRtdFlo_Sys_T_Cordr_E" = 266.2355   $ Sizing
 "CRtdFlo_Sys_T_Cordr_N" = 99.46485   $ Sizing
 "CRtdFlo_Sys_T_Cordr_S" = 285.7892   $ Sizing
 "CRtdFlo_Sys_T_Cordr_W" = 244.0557   $ Sizing
 "CRtdFlo_Sys_T_LobWait_C" = 428.8518   $ Sizing
 "CRtdFlo_Sys_T_MechElec_C" = 150.2804   $ Sizing
 "CRtdFlo_Sys_T_OfficeOpn_C" = 1848.202   $ Sizing
 "CRtdFlo_Sys_T_OfficeOpn_E" = 1981.896   $ Sizing
 "CRtdFlo_Sys_T_OfficeOpn_N" = 934.9946   $ Sizing
 "CRtdFlo_Sys_T_OfficeOpn_S" = 2142.187   $ Sizing
 "CRtdFlo_Sys_T_OfficeOpn_W" = 1865.19   $ Sizing
 "CRtdFlo_Sys_T_OfficeSm_C" = 261.3172   $ Sizing
 "CRtdFlo_Sys_T_OfficeSm_E" = 1461.191   $ Sizing
 "CRtdFlo_Sys_T_OfficeSm_N" = 591.9573   $ Sizing
 "CRtdFlo_Sys_T_OfficeSm_S" = 1605.227   $ Sizing
 "CRtdFlo_Sys_T_OfficeSm_W" = 1391.057   $ Sizing
 "CRtdFlo_Sys_T_Restrm_C" = 211.8611   $ Sizing
 "CRtdFlo_Sys_T_StorSm_C" = 334.0894   $ Sizing
 "CSupFlo_Sys_L_Break_C" = 364.166   $ Sizing
 "CSupFlo_Sys_L_Conf_C" = 428.2683   $ Sizing
 "CSupFlo_Sys_L_CopyRm_C" = 109.6033   $ Sizing
 "CSupFlo_Sys_L_Cordr_C" = 565.4379   $ Sizing
 "CSupFlo_Sys_L_Cordr_E" = 243.3497   $ Sizing
 "CSupFlo_Sys_L_Cordr_N" = 104.0672   $ Sizing
 "CSupFlo_Sys_L_Cordr_S" = 261.2373   $ Sizing
 "CSupFlo_Sys_L_Cordr_W" = 232.9357   $ Sizing
 "CSupFlo_Sys_L_LobWait_C" = 357.2935   $ Sizing
 "CSupFlo_Sys_L_MechElec_C" = 134.1697   $ Sizing
 "CSupFlo_Sys_L_OfficeOpn_C" = 1712.101   $ Sizing
 "CSupFlo_Sys_L_OfficeOpn_E" = 1994.308   $ Sizing
 "CSupFlo_Sys_L_OfficeOpn_N" = 854.8584   $ Sizing
 "CSupFlo_Sys_L_OfficeOpn_S" = 2061.499   $ Sizing
 "CSupFlo_Sys_L_OfficeOpn_W" = 1909.929   $ Sizing
 "CSupFlo_Sys_L_OfficeSm_C" = 217.2764   $ Sizing
 "CSupFlo_Sys_L_OfficeSm_E" = 1438.088   $ Sizing
 "CSupFlo_Sys_L_OfficeSm_N" = 521.4034   $ Sizing
 "CSupFlo_Sys_L_OfficeSm_S" = 1520.714   $ Sizing
 "CSupFlo_Sys_L_OfficeSm_W" = 1382.306   $ Sizing
 "CSupFlo_Sys_L_Restrm_C" = 211.8611   $ Sizing
 "CSupFlo_Sys_L_StorSm_C" = 345.5645   $ Sizing
 "CSupFlo_Sys_M_Break_C" = 3185.718   $ Sizing
 "CSupFlo_Sys_M_Conf_C" = 3835.739   $ Sizing
 "CSupFlo_Sys_M_CopyRm_C" = 1095.262   $ Sizing
 "CSupFlo_Sys_M_Cordr_C" = 6287.231   $ Sizing
 "CSupFlo_Sys_M_Cordr_E" = 2414.564   $ Sizing
 "CSupFlo_Sys_M_Cordr_N" = 890.3996   $ Sizing
 "CSupFlo_Sys_M_Cordr_S" = 2512.381   $ Sizing
 "CSupFlo_Sys_M_Cordr_W" = 2164.638   $ Sizing
 "CSupFlo_Sys_M_LobWait_C" = 3712.396   $ Sizing
 "CSupFlo_Sys_M_MechElec_C" = 1148.904   $ Sizing
 "CSupFlo_Sys_M_OfficeOpn_C" = 16008.6   $ Sizing
 "CSupFlo_Sys_M_OfficeOpn_E" = 17424.82   $ Sizing
 "CSupFlo_Sys_M_OfficeOpn_N" = 7987.505   $ Sizing
 "CSupFlo_Sys_M_OfficeOpn_S" = 18378.87   $ Sizing
 "CSupFlo_Sys_M_OfficeOpn_W" = 16220.18   $ Sizing
 "CSupFlo_Sys_M_OfficeSm_C" = 2241.491   $ Sizing
 "CSupFlo_Sys_M_OfficeSm_E" = 12456.51   $ Sizing
 "CSupFlo_Sys_M_OfficeSm_N" = 4958.763   $ Sizing
 "CSupFlo_Sys_M_OfficeSm_S" = 13459.57   $ Sizing
 "CSupFlo_Sys_M_OfficeSm_W" = 11800.13   $ Sizing
 "CSupFlo_Sys_M_Restrm_C" = 1694.889   $ Sizing
 "CSupFlo_Sys_M_StorSm_C" = 2992.164   $ Sizing
 "CSupFlo_Sys_T_Break_C" = 376.7013   $ Sizing
 "CSupFlo_Sys_T_Conf_C" = 457.0842   $ Sizing
 "CSupFlo_Sys_T_CopyRm_C" = 131.1661   $ Sizing
 "CSupFlo_Sys_T_Cordr_C" = 691.2563   $ Sizing
 "CSupFlo_Sys_T_Cordr_E" = 266.2355   $ Sizing
 "CSupFlo_Sys_T_Cordr_N" = 99.46485   $ Sizing
 "CSupFlo_Sys_T_Cordr_S" = 285.7892   $ Sizing
 "CSupFlo_Sys_T_Cordr_W" = 244.0557   $ Sizing
 "CSupFlo_Sys_T_LobWait_C" = 428.8518   $ Sizing
 "CSupFlo_Sys_T_MechElec_C" = 150.2804   $ Sizing
 "CSupFlo_Sys_T_OfficeOpn_C" = 1848.202   $ Sizing
 "CSupFlo_Sys_T_OfficeOpn_E" = 1981.896   $ Sizing
 "CSupFlo_Sys_T_OfficeOpn_N" = 934.9946   $ Sizing
 "CSupFlo_Sys_T_OfficeOpn_S" = 2142.187   $ Sizing
 "CSupFlo_Sys_T_OfficeOpn_W" = 1865.19   $ Sizing
 "CSupFlo_Sys_T_OfficeSm_C" = 261.3172   $ Sizing
 "CSupFlo_Sys_T_OfficeSm_E" = 1461.191   $ Sizing
 "CSupFlo_Sys_T_OfficeSm_N" = 591.9573   $ Sizing
 "CSupFlo_Sys_T_OfficeSm_S" = 1605.227   $ Sizing
 "CSupFlo_Sys_T_OfficeSm_W" = 1391.057   $ Sizing
 "CSupFlo_Sys_T_Restrm_C" = 211.8611   $ Sizing
 "CSupFlo_Sys_T_StorSm_C" = 334.0894   $ Sizing
 "ClCap_Sys_L_Break_C" = 12392.35   $ Sizing
 "ClCap_Sys_L_Conf_C" = 18548.37   $ Sizing
 "ClCap_Sys_L_CopyRm_C" = 3729.735   $ Sizing
 "ClCap_Sys_L_Cordr_C" = 19241.51   $ Sizing
 "ClCap_Sys_L_Cordr_E" = 8281.045   $ Sizing
 "ClCap_Sys_L_Cordr_N" = 3541.346   $ Sizing
 "ClCap_Sys_L_Cordr_S" = 8889.75   $ Sizing
 "ClCap_Sys_L_Cordr_W" = 7926.664   $ Sizing
 "ClCap_Sys_L_LobWait_C" = 12158.48   $ Sizing
 "ClCap_Sys_L_MechElec_C" = 4565.713   $ Sizing
 "ClCap_Sys_L_OfficeOpn_C" = 58261.78   $ Sizing
 "ClCap_Sys_L_OfficeOpn_E" = 67865.1   $ Sizing
 "ClCap_Sys_L_OfficeOpn_N" = 29090.32   $ Sizing
 "ClCap_Sys_L_OfficeOpn_S" = 70151.58   $ Sizing
 "ClCap_Sys_L_OfficeOpn_W" = 64993.74   $ Sizing
 "ClCap_Sys_L_OfficeSm_C" = 7393.788   $ Sizing
 "ClCap_Sys_L_OfficeSm_E" = 48937.27   $ Sizing
 "ClCap_Sys_L_OfficeSm_N" = 17743.05   $ Sizing
 "ClCap_Sys_L_OfficeSm_S" = 51748.98   $ Sizing
 "ClCap_Sys_L_OfficeSm_W" = 47039.06   $ Sizing
 "ClCap_Sys_L_Restrm_C" = 7209.506   $ Sizing
 "ClCap_Sys_L_StorSm_C" = 11759.35   $ Sizing
 "ClCap_Sys_M_Break_C" = 108408.1   $ Sizing
 "ClCap_Sys_M_Conf_C" = 166126.4   $ Sizing
 "ClCap_Sys_M_CopyRm_C" = 37271.12   $ Sizing
 "ClCap_Sys_M_Cordr_C" = 213950.7   $ Sizing
 "ClCap_Sys_M_Cordr_E" = 82166.18   $ Sizing
 "ClCap_Sys_M_Cordr_N" = 30299.77   $ Sizing
 "ClCap_Sys_M_Cordr_S" = 85494.84   $ Sizing
 "ClCap_Sys_M_Cordr_W" = 73661.34   $ Sizing
 "ClCap_Sys_M_LobWait_C" = 126330.6   $ Sizing
 "ClCap_Sys_M_MechElec_C" = 39096.5   $ Sizing
 "ClCap_Sys_M_OfficeOpn_C" = 544763.2   $ Sizing
 "ClCap_Sys_M_OfficeOpn_E" = 592956.3   $ Sizing
 "ClCap_Sys_M_OfficeOpn_N" = 271810   $ Sizing
 "ClCap_Sys_M_OfficeOpn_S" = 625422   $ Sizing
 "ClCap_Sys_M_OfficeOpn_W" = 551963.2   $ Sizing
 "ClCap_Sys_M_OfficeSm_C" = 76276.6   $ Sizing
 "ClCap_Sys_M_OfficeSm_E" = 423887.7   $ Sizing
 "ClCap_Sys_M_OfficeSm_N" = 168743.8   $ Sizing
 "ClCap_Sys_M_OfficeSm_S" = 458021.2   $ Sizing
 "ClCap_Sys_M_OfficeSm_W" = 401551.5   $ Sizing
 "ClCap_Sys_M_Restrm_C" = 57676.05   $ Sizing
 "ClCap_Sys_M_StorSm_C" = 101821.6   $ Sizing
 "ClCap_Sys_T_Break_C" = 12818.92   $ Sizing
 "ClCap_Sys_T_Conf_C" = 19796.38   $ Sizing
 "ClCap_Sys_T_CopyRm_C" = 4463.503   $ Sizing
 "ClCap_Sys_T_Cordr_C" = 23523.04   $ Sizing
 "ClCap_Sys_T_Cordr_E" = 9059.835   $ Sizing
 "ClCap_Sys_T_Cordr_N" = 3384.729   $ Sizing
 "ClCap_Sys_T_Cordr_S" = 9725.234   $ Sizing
 "ClCap_Sys_T_Cordr_W" = 8305.068   $ Sizing
 "ClCap_Sys_T_LobWait_C" = 14593.57   $ Sizing
 "ClCap_Sys_T_MechElec_C" = 5113.953   $ Sizing
 "ClCap_Sys_T_OfficeOpn_C" = 62893.22   $ Sizing
 "ClCap_Sys_T_OfficeOpn_E" = 67442.72   $ Sizing
 "ClCap_Sys_T_OfficeOpn_N" = 31817.31   $ Sizing
 "ClCap_Sys_T_OfficeOpn_S" = 72897.34   $ Sizing
 "ClCap_Sys_T_OfficeOpn_W" = 63471.3   $ Sizing
 "ClCap_Sys_T_OfficeSm_C" = 8892.468   $ Sizing
 "ClCap_Sys_T_OfficeSm_E" = 49723.46   $ Sizing
 "ClCap_Sys_T_OfficeSm_N" = 20143.95   $ Sizing
 "ClCap_Sys_T_OfficeSm_S" = 54624.91   $ Sizing
 "ClCap_Sys_T_OfficeSm_W" = 47336.82   $ Sizing
 "ClCap_Sys_T_Restrm_C" = 7209.506   $ Sizing
 "ClCap_Sys_T_StorSm_C" = 11368.86   $ Sizing
 "HtCap_Sys_L_Break_C" = -20344.46   $ Sizing
 "HtCap_Sys_L_Conf_C" = -25188.68   $ Sizing
 "HtCap_Sys_L_CopyRm_C" = -7168.732   $ Sizing
 "HtCap_Sys_L_Cordr_C" = -25840.28   $ Sizing
 "HtCap_Sys_L_Cordr_E" = -8694.715   $ Sizing
 "HtCap_Sys_L_Cordr_N" = -4657.029   $ Sizing
 "HtCap_Sys_L_Cordr_S" = -9116.982   $ Sizing
 "HtCap_Sys_L_Cordr_W" = -8385.214   $ Sizing
 "HtCap_Sys_L_LobWait_C" = -20469.78   $ Sizing
 "HtCap_Sys_L_MechElec_C" = -6071.367   $ Sizing
 "HtCap_Sys_L_OfficeOpn_C" = -83572.11   $ Sizing
 "HtCap_Sys_L_OfficeOpn_E" = -66593.72   $ Sizing
 "HtCap_Sys_L_OfficeOpn_N" = -33977.88   $ Sizing
 "HtCap_Sys_L_OfficeOpn_S" = -67687.88   $ Sizing
 "HtCap_Sys_L_OfficeOpn_W" = -64088.32   $ Sizing
 "HtCap_Sys_L_OfficeSm_C" = -8802.836   $ Sizing
 "HtCap_Sys_L_OfficeSm_E" = -47832.7   $ Sizing
 "HtCap_Sys_L_OfficeSm_N" = -21044.28   $ Sizing
 "HtCap_Sys_L_OfficeSm_S" = -49535.69   $ Sizing
 "HtCap_Sys_L_OfficeSm_W" = -46263.73   $ Sizing
 "HtCap_Sys_L_Restrm_C" = -7674.441   $ Sizing
 "HtCap_Sys_L_StorSm_C" = -15859.92   $ Sizing
 "HtCap_Sys_M_Break_C" = -170405.5   $ Sizing
 "HtCap_Sys_M_Conf_C" = -213266.8   $ Sizing
 "HtCap_Sys_M_CopyRm_C" = -63613.06   $ Sizing
 "HtCap_Sys_M_Cordr_C" = -256228.8   $ Sizing
 "HtCap_Sys_M_Cordr_E" = -82705.16   $ Sizing
 "HtCap_Sys_M_Cordr_N" = -38858.9   $ Sizing
 "HtCap_Sys_M_Cordr_S" = -84581.32   $ Sizing
 "HtCap_Sys_M_Cordr_W" = -75450.5   $ Sizing
 "HtCap_Sys_M_LobWait_C" = -188130.3   $ Sizing
 "HtCap_Sys_M_MechElec_C" = -50674.63   $ Sizing
 "HtCap_Sys_M_OfficeOpn_C" = -781283.6   $ Sizing
 "HtCap_Sys_M_OfficeOpn_E" = -573043.1   $ Sizing
 "HtCap_Sys_M_OfficeOpn_N" = -304306   $ Sizing
 "HtCap_Sys_M_OfficeOpn_S" = -592272.9   $ Sizing
 "HtCap_Sys_M_OfficeOpn_W" = -538007.6   $ Sizing
 "HtCap_Sys_M_OfficeSm_C" = -84755.52   $ Sizing
 "HtCap_Sys_M_OfficeSm_E" = -408183.7   $ Sizing
 "HtCap_Sys_M_OfficeSm_N" = -191034.2   $ Sizing
 "HtCap_Sys_M_OfficeSm_S" = -430922.3   $ Sizing
 "HtCap_Sys_M_OfficeSm_W" = -389626.4   $ Sizing
 "HtCap_Sys_M_Restrm_C" = -66143.33   $ Sizing
 "HtCap_Sys_M_StorSm_C" = -129535.4   $ Sizing
 "HtCap_Sys_T_Break_C" = -21568.05   $ Sizing
 "HtCap_Sys_T_Conf_C" = -26867.41   $ Sizing
 "HtCap_Sys_T_CopyRm_C" = -7995.01   $ Sizing
 "HtCap_Sys_T_Cordr_C" = -33031.13   $ Sizing
 "HtCap_Sys_T_Cordr_E" = -10889.02   $ Sizing
 "HtCap_Sys_T_Cordr_N" = -4999.456   $ Sizing
 "HtCap_Sys_T_Cordr_S" = -11578.64   $ Sizing
 "HtCap_Sys_T_Cordr_W" = -10130.63   $ Sizing
 "HtCap_Sys_T_LobWait_C" = -23754.23   $ Sizing
 "HtCap_Sys_T_MechElec_C" = -6522.654   $ Sizing
 "HtCap_Sys_T_OfficeOpn_C" = -81020.35   $ Sizing
 "HtCap_Sys_T_OfficeOpn_E" = -75502.83   $ Sizing
 "HtCap_Sys_T_OfficeOpn_N" = -41494.24   $ Sizing
 "HtCap_Sys_T_OfficeOpn_S" = -80880.42   $ Sizing
 "HtCap_Sys_T_OfficeOpn_W" = -71595.91   $ Sizing
 "HtCap_Sys_T_OfficeSm_C" = -11357.9   $ Sizing
 "HtCap_Sys_T_OfficeSm_E" = -55625.34   $ Sizing
 "HtCap_Sys_T_OfficeSm_N" = -26174.06   $ Sizing
 "HtCap_Sys_T_OfficeSm_S" = -59607.93   $ Sizing
 "HtCap_Sys_T_OfficeSm_W" = -53350.67   $ Sizing
 "HtCap_Sys_T_Restrm_C" = -8827.705   $ Sizing
 "HtCap_Sys_T_StorSm_C" = -17386.25   $ Sizing
..

##include Templates\OfL_DX_SZ.inp
END ..
COMPUTE ..
STOP ..
