
Start DOESIM : Storage capacity =  75000000
Starting LOADS   : SAVE-FILES is On , weather is CZ01ARCATA-AP       
Finished LOADS    BDL  1 : Memory (wds) =    392157, Time (sec) =    2.48
Starting REPORT  
Finished REPORT   BDL  1 : Memory (wds) =    785095, Time (sec) =    0.86
Starting HVAC    : SAVE-FILES is On , weather is CZ01ARCATA-AP       
*** ERRORS or WARNINGS from HVAC     program. Examine output file for details.
Finished HVAC     BDL  1 : Memory (wds) =    678309, Time (sec) =   10.67
Starting REPORT  
Finished REPORT   BDL  1 : Memory (wds) =   1200865, Time (sec) =    0.89
Starting HOURLY-R
Finished HOURLY-R BDL  1 : Memory (wds) =   1527533, Time (sec) =    0.13
Starting ECONOMIC
Finished ECONOMIC BDL  1 : Memory (wds) =      1034, Time (sec) =    0.03
End   DOESIM : Total elapsed time of     15.1 seconds
RUN COMPLETE
