INPUT ..

##fileprefix C:\Users\jglasskatz\MASControl3\
##set1 IsSizing FALSE
##set1 CoolType DX
##set1 HeatType FURNACE
##set1 EU_HrRepVar 0
##set1 BldgVint 2003
##set1 BldgLoc CZ13

 ##set1 mBFMult 1   $ IP Tech: RefgChg-NRes-Std

PARAMETER
 "AltFactor" = 1.01244   $ IP Non-Tech
 "BF_fFlow" = SpltAC1Sp_BF_fFlow   $ Msr (Var)TechID: PreNResSplitAC-45to-PENo
 "BF_fT" = SpltAC1Sp_BF_fT   $ Msr (Var)TechID: PreNResSplitAC-45to-PENo
 "BldgEconoFlag" = 1   $ IP Non-Tech
 "Break_EWSF" = 1   $ IP Non-Tech
 "Break_LWSF" = 1.1   $ IP Non-Tech
 "CDD_DBHi10" = 86   $ IP Non-Tech
 "CDD_DBHi7" = 105   $ IP Non-Tech
 "CDD_DBHi8" = 102   $ IP Non-Tech
 "CDD_DBHi9" = 100   $ IP Non-Tech
 "CDD_DBRange10" = 28   $ IP Non-Tech
 "CDD_DBRange7" = 28   $ IP Non-Tech
 "CDD_DBRange8" = 28   $ IP Non-Tech
 "CDD_DBRange9" = 30   $ IP Non-Tech
 "CDD_Day10" = 15   $ IP Non-Tech
 "CDD_Day7" = 16   $ IP Non-Tech
 "CDD_Day8" = 20   $ IP Non-Tech
 "CDD_Day9" = 17   $ IP Non-Tech
 "CDD_HrHi10" = 16   $ IP Non-Tech
 "CDD_HrHi7" = 18   $ IP Non-Tech
 "CDD_HrHi8" = 18   $ IP Non-Tech
 "CDD_HrHi9" = 15   $ IP Non-Tech
 "CDD_HrLo10" = 5   $ IP Non-Tech
 "CDD_HrLo7" = 6   $ IP Non-Tech
 "CDD_HrLo8" = 7   $ IP Non-Tech
 "CDD_HrLo9" = 3   $ IP Non-Tech
 "CDD_WB10" = 62.19377518   $ IP Non-Tech
 "CDD_WB7" = 72.76699829   $ IP Non-Tech
 "CDD_WB8" = 69.69030762   $ IP Non-Tech
 "CDD_WB9" = 71.78777313   $ IP Non-Tech
 "CEIR_fPLR_Hot" = SpltAC1Sp_CEIR_fPLR_Hot   $ Msr (Var)TechID: PreNResSplitAC-45to-PENo
 "CEIR_fPLR_Mod" = SpltAC1Sp_CEIR_fPLR_Mod   $ Msr (Var)TechID: PreNResSplitAC-45to-PENo
 "CEIR_fPLR_Tem" = SpltAC1Sp_CEIR_fPLR_Tem   $ Msr (Var)TechID: PreNResSplitAC-45to-PENo
 "CLoss_fPLR_Hot" = SpltAC1Sp_CLoss_fPLR_Hot   $ Msr (Var)TechID: PreNResSplitAC-45to-PENo
 "CLoss_fPLR_Mod" = SpltAC1Sp_CLoss_fPLR_Mod   $ Msr (Var)TechID: PreNResSplitAC-45to-PENo
 "CLoss_fPLR_Tem" = SpltAC1Sp_CLoss_fPLR_Tem   $ Msr (Var)TechID: PreNResSplitAC-45to-PENo
 "COP47" = 0   $ Msr (Var)TechID: PreNResSplitAC-45to-PENo
 "CZ_Category" = Mod   $ IP Non-Tech
 "CapRange" = Any   $ Msr (Var)TechID: PreNResSplitAC-45to-PENo
 "CfmPerBtuh" = 0.0321   $ Msr (Var)TechID: PreNResSplitAC-45to-PENo
 "ChwVintEconoFlag" = 1   $ IP Non-Tech
 "ClCap_fT" = SpltAC1Sp_ClCap_fT   $ Msr (Var)TechID: PreNResSplitAC-45to-PENo
 "ClSH_fT" = SpltAC1Sp_ClSH_fT   $ Msr (Var)TechID: PreNResSplitAC-45to-PENo
 "CoilBF" = 0.12   $ Msr (Var)TechID: PreNResSplitAC-45to-PENo
 "CondWPerBtuh" = 0   $ Msr (Var)TechID: PreNResSplitAC-45to-PENo
 "Conference_EWSF" = 1   $ IP Non-Tech
 "Conference_LWSF" = 1.4   $ IP Non-Tech
 "CoolSensCap" = 0.744   $ Msr (Var)TechID: PreNResSplitAC-45to-PENo
 "CoolSetT" = 45   $ IP Non-Tech
 "CoolType" = DX   $ IP Non-Tech
 "CoolingEIR" = 0.29437   $ Msr (Var)TechID: PreNResSplitAC-45to-PENo
 "CopyRoom_EWSF" = 1.5   $ IP Non-Tech
 "CopyRoom_LWSF" = 1.3   $ IP Non-Tech
 "CorridorStairway_EWSF" = 0.2   $ IP Non-Tech
 "CorridorStairway_LWSF" = 0.6   $ IP Non-Tech
 "CrnkEIR" = 0.0029437   $ Msr (Var)TechID: PreNResSplitAC-45to-PENo
 "CrnkMaxT" = 50   $ Msr (Var)TechID: PreNResSplitAC-45to-PENo
 "DXType" = SplitSEER   $ Msr (Var)TechID: PreNResSplitAC-45to-PENo
 "DesCoolT" = 75   $ IP Non-Tech
 "DesHeatT" = 73   $ IP Non-Tech
 "EER" = 9.799295775   $ Msr (Var)TechID: PreNResSplitAC-45to-PENo
 "EIR_fT" = SpltAC1Sp_EIR_fT   $ Msr (Var)TechID: PreNResSplitAC-45to-PENo
 "EconoCtrl" = FIXED   $ Msr (Multi)TechID: PreNResSplitAC-45to-PENo
 "EconoEnthLimit" = 28   $ IP Non-Tech
 "EconoTempLimit" = 75   $ IP Non-Tech
 "Elevation" = 335   $ IP Non-Tech
 "FanEirPlr" = TwoSpeedFan   $ Msr (Var)TechID: PreNResSplitAC-45to-PENo
 "FanWPerCfm" = 0.365   $ Msr (Var)TechID: PreNResSplitAC-45to-PENo
 "HDD_CloudAmt1" = 0   $ IP Non-Tech
 "HDD_DBHi1" = 40.29372406   $ IP Non-Tech
 "HDD_DBRange1" = 8   $ IP Non-Tech
 "HDD_Day1" = 15   $ IP Non-Tech
 "HDD_HrHi1" = 22   $ IP Non-Tech
 "HDD_HrLo1" = 7   $ IP Non-Tech
 "HDD_WB1" = 38.2   $ IP Non-Tech
 "HDD_WindSpd1" = 10.4   $ IP Non-Tech
 "HIR_fT" = 0   $ Msr (Var)TechID: PreNResSplitAC-45to-PENo
 "HSPF" = 0   $ Msr (Var)TechID: PreNResSplitAC-45to-PENo
 "HeatSrc" = FURNACE   $ IP Non-Tech
 "HeatSrcTU" = HEAT-PUMP   $ IP Non-Tech
 "HeatType" = GasFurn   $ IP Non-Tech
 "HeatTypeTU" = HEAT-PUMP   $ IP Non-Tech
 "HtCap_fT" = 0   $ Msr (Var)TechID: PreNResSplitAC-45to-PENo
 "HtCoolCapRatio" = 0   $ Msr (Var)TechID: PreNResSplitAC-45to-PENo
 "HtgEIR" = 0   $ Msr (Var)TechID: PreNResSplitAC-45to-PENo
 "IndoorFanMode" = CONTINUOUS   $ IP Non-Tech
 "KT_TransferAir" = No   $ IP Non-Tech
 "Latitude" = 36.8   $ IP Non-Tech
 "LobbyWaiting_EWSF" = 0.5   $ IP Non-Tech
 "LobbyWaiting_LWSF" = 1.3   $ IP Non-Tech
 "Longitude" = 119.7   $ IP Non-Tech
 "LowSpdCapRatio" = 1   $ Msr (Var)TechID: PreNResSplitAC-45to-PENo
 "LowSpdCfmRatio" = 1   $ Msr (Var)TechID: PreNResSplitAC-45to-PENo
 "MZFanMechEff" = 0.58   $ IP Non-Tech
 "MZHasRetFan" = FALSE   $ IP Non-Tech
 "MZ_RFanWPerCfm" = 0.37   $ IP Non-Tech
 "MZ_SFanWPerCfm" = 0.71   $ IP Non-Tech
 "MZ_SupFanStatic" = 2.25   $ IP Non-Tech
 "MaxOAFrac" = 1   $ Msr (Multi)TechID: PreNResSplitAC-45to-PENo
 "MaxSupT_MZ" = 100   $ IP Non-Tech
 "MaxSupT_SZ" = 100   $ IP Non-Tech
 "MaxSupT_TU" = 90   $ IP Non-Tech
 "MechElecRoom_EWSF" = 0.2   $ IP Non-Tech
 "MechElecRoom_LWSF" = 0.7   $ IP Non-Tech
 "MinCfmPerSF" = 0.4   $ IP Non-Tech
 "MinSupT" = 55   $ IP Non-Tech
 "NumStages" = 1   $ Msr (Var)TechID: PreNResSplitAC-45to-PENo
 "OccCoolT" = 76   $ IP Non-Tech
 "OccHeatT" = 72   $ IP Non-Tech
 "OfficeOpen_EWSF" = 1.5   $ IP Non-Tech
 "OfficeOpen_LWSF" = 1.2   $ IP Non-Tech
 "OfficeSmall_EWSF" = 1.5   $ IP Non-Tech
 "OfficeSmall_LWSF" = 1.3   $ IP Non-Tech
 "PkgDxVintEconoFlag" = 0   $ IP Non-Tech
 "Restroom_EWSF" = 0.2   $ IP Non-Tech
 "Restroom_LWSF" = 0.6   $ IP Non-Tech
 "SEER" = 11.5   $ Msr (Var)TechID: PreNResSplitAC-45to-PENo
 "SZFanMechEff" = 0.58   $ IP Non-Tech
 "SZHasRetFan" = FALSE   $ IP Non-Tech
 "SZ_Is_2Spd" = FALSE   $ IP Non-Tech
 "SZ_SFanWPerCfm" = 0.46   $ IP Non-Tech
 "SZ_SupFanStatic" = 0.75   $ IP Non-Tech
 "Sector" = Any   $ Msr (Var)TechID: PreNResSplitAC-45to-PENo
 "StorageSmlCond_EWSF" = 0.2   $ IP Non-Tech
 "StorageSmlCond_LWSF" = 0.6   $ IP Non-Tech
 "SubType" = AC   $ Msr (Var)TechID: PreNResSplitAC-45to-PENo
 "T24GlzTbl" = CZTbl   $ IP Non-Tech
 "TermUnitFanMechEff" = 1   $ IP Non-Tech
 "TermUnitFanMode" = INTERMITTENT   $ IP Non-Tech
 "TotCoolCap" = 34895   $ Msr (Var)TechID: PreNResSplitAC-45to-PENo
 "TwrSetpt" = 82.7   $ IP Non-Tech
 "UnocCoolT" = 86   $ IP Non-Tech
 "UnocHeatT" = 62   $ IP Non-Tech
 "UseEconoVintApplic" = FALSE   $ Msr (Multi)TechID: PreNResSplitAC-45to-PENo
 "WlhpVintEconoFlag" = 0   $ IP Non-Tech
 "DuctDT" = 1   $ IP Tech: ComDuctInsul-1
 "DuctAirLoss" = 0   $ IP Tech: ComDuctLeak-0
 "DuctLossOAFrac" = 0   $ IP Tech: ComDuctLeak-0
 "ComRoofInsCalc" = FromUo   $ IP Tech: ComRoofIns-Hvy-0.06
 "ComRoofInsR" = -999   $ IP Tech: ComRoofIns-Hvy-0.06
 "ComRoofUo" = 0.06   $ IP Tech: ComRoofIns-Hvy-0.06
 "ComEWInsCalc" = FromUo   $ IP Tech: ComWallIns-MFrm-0.13
 "ComEWInsR" = -999   $ IP Tech: ComWallIns-MFrm-0.13
 "ComEWUo" = 0.13   $ IP Tech: ComWallIns-MFrm-0.13
 "ComN_SHGC" = 0.47   $ IP Tech: NResWin-ComN-0.47-0.47
 "ComN_UFactor" = 0.47   $ IP Tech: NResWin-ComN-0.47-0.47
 "ComN_VisTrans" = 0.75   $ IP Tech: NResWin-ComN-0.47-0.47
 "ComN_WinCode" = G2633   $ IP Tech: NResWin-ComN-0.47-0.47
 "ComN_WinFrmFrac" = 0.17   $ IP Tech: NResWin-ComN-0.47-0.47
 "ComN_WinFrmU" = 0.3   $ IP Tech: NResWin-ComN-0.47-0.47
 "ComO_SHGC" = 0.31   $ IP Tech: NResWin-ComO-0.47-0.31
 "ComO_UFactor" = 0.47   $ IP Tech: NResWin-ComO-0.47-0.31
 "ComO_VisTrans" = 0.44   $ IP Tech: NResWin-ComO-0.47-0.31
 "ComO_WinCode" = G2637   $ IP Tech: NResWin-ComO-0.47-0.31
 "ComO_WinFrmFrac" = 0.17   $ IP Tech: NResWin-ComO-0.47-0.31
 "ComO_WinFrmU" = 0.3   $ IP Tech: NResWin-ComO-0.47-0.31
 "LtgMsrApplic" = ALL   $ IP Tech: NonResLtgRefPre
 "LtgSav_CFL" = 0   $ IP Tech: NonResLtgRefPre
 "LtgSav_EX" = 0   $ IP Tech: NonResLtgRefPre
 "LtgSav_HB" = 0   $ IP Tech: NonResLtgRefPre
 "LtgSav_LF" = 0   $ IP Tech: NonResLtgRefPre
 "LtgSav_SP" = 0   $ IP Tech: NonResLtgRefPre
 "CEIR_fPLR" = PSZ65to135_CEIR_fPLR   $ IP Tech: PkgAC1SpH-65to135-E10
 "CLoss_fPLR" = PSZ65to135_CLoss_fPLR   $ IP Tech: PkgAC1SpH-65to135-E10
 "COP" = -1   $ IP Tech: PkgAC1SpH-65to135-E10
 "HtgFuel" = Gas   $ IP Tech: PkgAC1SpH-65to135-E10
 "IEER" = 11.87   $ IP Tech: PkgAC1SpH-65to135-E10
 "NominalCap" = 15   $ IP Tech: PkgAC1SpH-65to135-E10
 "RatedEER" = 10   $ IP Tech: PkgAC1SpH-65to135-E10
 "RatedSupMtrClass" = HiEff   $ IP Tech: PkgAC1SpH-65to135-E10
 "SizeRange" = 65to135   $ IP Tech: PkgAC1SpH-65to135-E10
 "SupMotEff" = 0.84   $ IP Tech: PkgAC1SpH-65to135-E10
 "Tier" = 0   $ IP Tech: PkgAC1SpH-65to135-E10
 "FanPwrMult" = 1   $ IP Tech: PkgFurn-0.80AFUE
 "FurnAFUE" = 0.8   $ IP Tech: PkgFurn-0.80AFUE
 "FurnEt" = 0.82   $ IP Tech: PkgFurn-0.80AFUE
 "FurnaceAuxKW" = 0.1   $ IP Tech: PkgFurn-0.80AFUE
 "HIR_fPLR" = Furnace-HIR-fPLR   $ IP Tech: PkgFurn-0.80AFUE
 "VSM" = FALSE   $ IP Tech: PkgFurn-0.80AFUE
 "BFMult" = 1   $ IP Tech: RefgChg-NRes-Std
 "CoolEirMult" = 1   $ IP Tech: RefgChg-NRes-Std
 "SensCoolCapMult" = 1   $ IP Tech: RefgChg-NRes-Std
 "TotCoolCapMult" = 1   $ IP Tech: RefgChg-NRes-Std
 "AltAdjFactor" = 1.012438   $ Sizing
 "CAssFlo_L_Break_CZn" = 593.9263   $ Sizing
 "CAssFlo_L_Conf_CZn" = 578.2432   $ Sizing
 "CAssFlo_L_CopyRm_CZn" = 188.5071   $ Sizing
 "CAssFlo_L_Cordr_CZn" = 709.46   $ Sizing
 "CAssFlo_L_Cordr_EZn" = 245.0449   $ Sizing
 "CAssFlo_L_Cordr_NZn" = 186.96   $ Sizing
 "CAssFlo_L_Cordr_SZn" = 247.7251   $ Sizing
 "CAssFlo_L_Cordr_WZn" = 276.9265   $ Sizing
 "CAssFlo_L_LobWait_CZn" = 600.1467   $ Sizing
 "CAssFlo_L_MechElec_CZn" = 131.4436   $ Sizing
 "CAssFlo_L_OfficeOpn_CZn" = 1964.137   $ Sizing
 "CAssFlo_L_OfficeOpn_EZn" = 1706.244   $ Sizing
 "CAssFlo_L_OfficeOpn_NZn" = 1339.028   $ Sizing
 "CAssFlo_L_OfficeOpn_SZn" = 1728.294   $ Sizing
 "CAssFlo_L_OfficeOpn_WZn" = 1969.051   $ Sizing
 "CAssFlo_L_OfficeSm_CZn" = 249.6808   $ Sizing
 "CAssFlo_L_OfficeSm_EZn" = 1211.291   $ Sizing
 "CAssFlo_L_OfficeSm_NZn" = 879.7847   $ Sizing
 "CAssFlo_L_OfficeSm_SZn" = 1217.94   $ Sizing
 "CAssFlo_L_OfficeSm_WZn" = 1373.64   $ Sizing
 "CAssFlo_L_Restrm_CZn" = 98.26723   $ Sizing
 "CAssFlo_L_StorSm_CZn" = 404.9767   $ Sizing
 "CAssFlo_M_Break_CZn" = 602.1227   $ Sizing
 "CAssFlo_M_Conf_CZn" = 579.4869   $ Sizing
 "CAssFlo_M_CopyRm_CZn" = 182.1299   $ Sizing
 "CAssFlo_M_Cordr_CZn" = 933.2457   $ Sizing
 "CAssFlo_M_Cordr_EZn" = 280.637   $ Sizing
 "CAssFlo_M_Cordr_NZn" = 202.7166   $ Sizing
 "CAssFlo_M_Cordr_SZn" = 271.182   $ Sizing
 "CAssFlo_M_Cordr_WZn" = 291.2472   $ Sizing
 "CAssFlo_M_LobWait_CZn" = 619.5102   $ Sizing
 "CAssFlo_M_MechElec_CZn" = 169.7402   $ Sizing
 "CAssFlo_M_OfficeOpn_CZn" = 1989.599   $ Sizing
 "CAssFlo_M_OfficeOpn_EZn" = 1842.252   $ Sizing
 "CAssFlo_M_OfficeOpn_NZn" = 1409.515   $ Sizing
 "CAssFlo_M_OfficeOpn_SZn" = 1828.947   $ Sizing
 "CAssFlo_M_OfficeOpn_WZn" = 2023.945   $ Sizing
 "CAssFlo_M_OfficeSm_CZn" = 287.3019   $ Sizing
 "CAssFlo_M_OfficeSm_EZn" = 1290.171   $ Sizing
 "CAssFlo_M_OfficeSm_NZn" = 919.5682   $ Sizing
 "CAssFlo_M_OfficeSm_SZn" = 1276.846   $ Sizing
 "CAssFlo_M_OfficeSm_WZn" = 1399.108   $ Sizing
 "CAssFlo_M_Restrm_CZn" = 105.1302   $ Sizing
 "CAssFlo_M_StorSm_CZn" = 442.6435   $ Sizing
 "CAssFlo_T_Break_CZn" = 594.9263   $ Sizing
 "CAssFlo_T_Conf_CZn" = 573.1638   $ Sizing
 "CAssFlo_T_CopyRm_CZn" = 181.5757   $ Sizing
 "CAssFlo_T_Cordr_CZn" = 890.4633   $ Sizing
 "CAssFlo_T_Cordr_EZn" = 279.3861   $ Sizing
 "CAssFlo_T_Cordr_NZn" = 209.1112   $ Sizing
 "CAssFlo_T_Cordr_SZn" = 272.174   $ Sizing
 "CAssFlo_T_Cordr_WZn" = 297.0267   $ Sizing
 "CAssFlo_T_LobWait_CZn" = 616.4059   $ Sizing
 "CAssFlo_T_MechElec_CZn" = 201.3491   $ Sizing
 "CAssFlo_T_OfficeOpn_CZn" = 2061.263   $ Sizing
 "CAssFlo_T_OfficeOpn_EZn" = 1832.06   $ Sizing
 "CAssFlo_T_OfficeOpn_NZn" = 1457.546   $ Sizing
 "CAssFlo_T_OfficeOpn_SZn" = 1857.54   $ Sizing
 "CAssFlo_T_OfficeOpn_WZn" = 2043.221   $ Sizing
 "CAssFlo_T_OfficeSm_CZn" = 267.8124   $ Sizing
 "CAssFlo_T_OfficeSm_EZn" = 1319.431   $ Sizing
 "CAssFlo_T_OfficeSm_NZn" = 957.7838   $ Sizing
 "CAssFlo_T_OfficeSm_SZn" = 1310.518   $ Sizing
 "CAssFlo_T_OfficeSm_WZn" = 1439.64   $ Sizing
 "CAssFlo_T_Restrm_CZn" = 164.8691   $ Sizing
 "CAssFlo_T_StorSm_CZn" = 323.9817   $ Sizing
 "CHRtFlo_Sys_L_Break_C" = 593.9263   $ Sizing
 "CHRtFlo_Sys_L_Conf_C" = 578.2432   $ Sizing
 "CHRtFlo_Sys_L_CopyRm_C" = 188.5071   $ Sizing
 "CHRtFlo_Sys_L_Cordr_C" = 709.46   $ Sizing
 "CHRtFlo_Sys_L_Cordr_E" = 269.3704   $ Sizing
 "CHRtFlo_Sys_L_Cordr_N" = 186.96   $ Sizing
 "CHRtFlo_Sys_L_Cordr_S" = 251.8513   $ Sizing
 "CHRtFlo_Sys_L_Cordr_W" = 276.9265   $ Sizing
 "CHRtFlo_Sys_L_LobWait_C" = 600.1467   $ Sizing
 "CHRtFlo_Sys_L_MechElec_C" = 150.3608   $ Sizing
 "CHRtFlo_Sys_L_OfficeOpn_C" = 1964.137   $ Sizing
 "CHRtFlo_Sys_L_OfficeOpn_E" = 1918.593   $ Sizing
 "CHRtFlo_Sys_L_OfficeOpn_N" = 1339.028   $ Sizing
 "CHRtFlo_Sys_L_OfficeOpn_S" = 1844.071   $ Sizing
 "CHRtFlo_Sys_L_OfficeOpn_W" = 1969.051   $ Sizing
 "CHRtFlo_Sys_L_OfficeSm_C" = 268.2419   $ Sizing
 "CHRtFlo_Sys_L_OfficeSm_E" = 1387.8   $ Sizing
 "CHRtFlo_Sys_L_OfficeSm_N" = 879.7847   $ Sizing
 "CHRtFlo_Sys_L_OfficeSm_S" = 1341.915   $ Sizing
 "CHRtFlo_Sys_L_OfficeSm_W" = 1373.64   $ Sizing
 "CHRtFlo_Sys_L_Restrm_C" = 212.8927   $ Sizing
 "CHRtFlo_Sys_L_StorSm_C" = 448.9964   $ Sizing
 "CHRtFlo_Sys_M_Break_C" = 4816.981   $ Sizing
 "CHRtFlo_Sys_M_Conf_C" = 4635.896   $ Sizing
 "CHRtFlo_Sys_M_CopyRm_C" = 1457.04   $ Sizing
 "CHRtFlo_Sys_M_Cordr_C" = 8416.758   $ Sizing
 "CHRtFlo_Sys_M_Cordr_E" = 2530.336   $ Sizing
 "CHRtFlo_Sys_M_Cordr_N" = 1621.733   $ Sizing
 "CHRtFlo_Sys_M_Cordr_S" = 2279.153   $ Sizing
 "CHRtFlo_Sys_M_Cordr_W" = 2329.977   $ Sizing
 "CHRtFlo_Sys_M_LobWait_C" = 4956.082   $ Sizing
 "CHRtFlo_Sys_M_MechElec_C" = 1617.734   $ Sizing
 "CHRtFlo_Sys_M_OfficeOpn_C" = 17192.25   $ Sizing
 "CHRtFlo_Sys_M_OfficeOpn_E" = 16809.14   $ Sizing
 "CHRtFlo_Sys_M_OfficeOpn_N" = 11276.12   $ Sizing
 "CHRtFlo_Sys_M_OfficeOpn_S" = 15903.12   $ Sizing
 "CHRtFlo_Sys_M_OfficeOpn_W" = 16191.56   $ Sizing
 "CHRtFlo_Sys_M_OfficeSm_C" = 2683.143   $ Sizing
 "CHRtFlo_Sys_M_OfficeSm_E" = 11985.06   $ Sizing
 "CHRtFlo_Sys_M_OfficeSm_N" = 7356.546   $ Sizing
 "CHRtFlo_Sys_M_OfficeSm_S" = 11429.73   $ Sizing
 "CHRtFlo_Sys_M_OfficeSm_W" = 11309.52   $ Sizing
 "CHRtFlo_Sys_M_Restrm_C" = 1703.142   $ Sizing
 "CHRtFlo_Sys_M_StorSm_C" = 4185.364   $ Sizing
 "CHRtFlo_Sys_T_Break_C" = 594.9263   $ Sizing
 "CHRtFlo_Sys_T_Conf_C" = 573.1638   $ Sizing
 "CHRtFlo_Sys_T_CopyRm_C" = 181.5757   $ Sizing
 "CHRtFlo_Sys_T_Cordr_C" = 890.4634   $ Sizing
 "CHRtFlo_Sys_T_Cordr_E" = 279.3861   $ Sizing
 "CHRtFlo_Sys_T_Cordr_N" = 209.1112   $ Sizing
 "CHRtFlo_Sys_T_Cordr_S" = 272.174   $ Sizing
 "CHRtFlo_Sys_T_Cordr_W" = 297.0267   $ Sizing
 "CHRtFlo_Sys_T_LobWait_C" = 616.4059   $ Sizing
 "CHRtFlo_Sys_T_MechElec_C" = 251.5826   $ Sizing
 "CHRtFlo_Sys_T_OfficeOpn_C" = 2061.263   $ Sizing
 "CHRtFlo_Sys_T_OfficeOpn_E" = 1891.456   $ Sizing
 "CHRtFlo_Sys_T_OfficeOpn_N" = 1457.546   $ Sizing
 "CHRtFlo_Sys_T_OfficeOpn_S" = 1857.54   $ Sizing
 "CHRtFlo_Sys_T_OfficeOpn_W" = 2043.221   $ Sizing
 "CHRtFlo_Sys_T_OfficeSm_C" = 292.9677   $ Sizing
 "CHRtFlo_Sys_T_OfficeSm_E" = 1398.129   $ Sizing
 "CHRtFlo_Sys_T_OfficeSm_N" = 957.7838   $ Sizing
 "CHRtFlo_Sys_T_OfficeSm_S" = 1359.283   $ Sizing
 "CHRtFlo_Sys_T_OfficeSm_W" = 1439.64   $ Sizing
 "CHRtFlo_Sys_T_Restrm_C" = 212.8927   $ Sizing
 "CHRtFlo_Sys_T_StorSm_C" = 335.7162   $ Sizing
 "CRtdFlo_Sys_L_Break_C" = 593.9263   $ Sizing
 "CRtdFlo_Sys_L_Conf_C" = 578.2432   $ Sizing
 "CRtdFlo_Sys_L_CopyRm_C" = 188.5071   $ Sizing
 "CRtdFlo_Sys_L_Cordr_C" = 709.46   $ Sizing
 "CRtdFlo_Sys_L_Cordr_E" = 245.0449   $ Sizing
 "CRtdFlo_Sys_L_Cordr_N" = 186.96   $ Sizing
 "CRtdFlo_Sys_L_Cordr_S" = 247.7251   $ Sizing
 "CRtdFlo_Sys_L_Cordr_W" = 276.9265   $ Sizing
 "CRtdFlo_Sys_L_LobWait_C" = 600.1467   $ Sizing
 "CRtdFlo_Sys_L_MechElec_C" = 131.4436   $ Sizing
 "CRtdFlo_Sys_L_OfficeOpn_C" = 1964.137   $ Sizing
 "CRtdFlo_Sys_L_OfficeOpn_E" = 1706.244   $ Sizing
 "CRtdFlo_Sys_L_OfficeOpn_N" = 1339.028   $ Sizing
 "CRtdFlo_Sys_L_OfficeOpn_S" = 1728.294   $ Sizing
 "CRtdFlo_Sys_L_OfficeOpn_W" = 1969.051   $ Sizing
 "CRtdFlo_Sys_L_OfficeSm_C" = 249.6808   $ Sizing
 "CRtdFlo_Sys_L_OfficeSm_E" = 1211.291   $ Sizing
 "CRtdFlo_Sys_L_OfficeSm_N" = 879.7847   $ Sizing
 "CRtdFlo_Sys_L_OfficeSm_S" = 1217.94   $ Sizing
 "CRtdFlo_Sys_L_OfficeSm_W" = 1373.64   $ Sizing
 "CRtdFlo_Sys_L_Restrm_C" = 98.26723   $ Sizing
 "CRtdFlo_Sys_L_StorSm_C" = 404.9767   $ Sizing
 "CRtdFlo_Sys_M_Break_C" = 4816.981   $ Sizing
 "CRtdFlo_Sys_M_Conf_C" = 4635.896   $ Sizing
 "CRtdFlo_Sys_M_CopyRm_C" = 1457.04   $ Sizing
 "CRtdFlo_Sys_M_Cordr_C" = 7465.965   $ Sizing
 "CRtdFlo_Sys_M_Cordr_E" = 2245.096   $ Sizing
 "CRtdFlo_Sys_M_Cordr_N" = 1621.733   $ Sizing
 "CRtdFlo_Sys_M_Cordr_S" = 2169.456   $ Sizing
 "CRtdFlo_Sys_M_Cordr_W" = 2329.977   $ Sizing
 "CRtdFlo_Sys_M_LobWait_C" = 4956.082   $ Sizing
 "CRtdFlo_Sys_M_MechElec_C" = 1357.922   $ Sizing
 "CRtdFlo_Sys_M_OfficeOpn_C" = 15916.79   $ Sizing
 "CRtdFlo_Sys_M_OfficeOpn_E" = 14738.01   $ Sizing
 "CRtdFlo_Sys_M_OfficeOpn_N" = 11276.12   $ Sizing
 "CRtdFlo_Sys_M_OfficeOpn_S" = 14631.57   $ Sizing
 "CRtdFlo_Sys_M_OfficeOpn_W" = 16191.56   $ Sizing
 "CRtdFlo_Sys_M_OfficeSm_C" = 2298.415   $ Sizing
 "CRtdFlo_Sys_M_OfficeSm_E" = 10321.37   $ Sizing
 "CRtdFlo_Sys_M_OfficeSm_N" = 7356.546   $ Sizing
 "CRtdFlo_Sys_M_OfficeSm_S" = 10214.76   $ Sizing
 "CRtdFlo_Sys_M_OfficeSm_W" = 11192.87   $ Sizing
 "CRtdFlo_Sys_M_Restrm_C" = 841.0413   $ Sizing
 "CRtdFlo_Sys_M_StorSm_C" = 3541.148   $ Sizing
 "CRtdFlo_Sys_T_Break_C" = 594.9263   $ Sizing
 "CRtdFlo_Sys_T_Conf_C" = 573.1638   $ Sizing
 "CRtdFlo_Sys_T_CopyRm_C" = 181.5757   $ Sizing
 "CRtdFlo_Sys_T_Cordr_C" = 890.4634   $ Sizing
 "CRtdFlo_Sys_T_Cordr_E" = 279.1239   $ Sizing
 "CRtdFlo_Sys_T_Cordr_N" = 209.1112   $ Sizing
 "CRtdFlo_Sys_T_Cordr_S" = 272.174   $ Sizing
 "CRtdFlo_Sys_T_Cordr_W" = 297.0267   $ Sizing
 "CRtdFlo_Sys_T_LobWait_C" = 616.4059   $ Sizing
 "CRtdFlo_Sys_T_MechElec_C" = 201.3491   $ Sizing
 "CRtdFlo_Sys_T_OfficeOpn_C" = 2061.263   $ Sizing
 "CRtdFlo_Sys_T_OfficeOpn_E" = 1832.06   $ Sizing
 "CRtdFlo_Sys_T_OfficeOpn_N" = 1457.546   $ Sizing
 "CRtdFlo_Sys_T_OfficeOpn_S" = 1857.54   $ Sizing
 "CRtdFlo_Sys_T_OfficeOpn_W" = 2043.221   $ Sizing
 "CRtdFlo_Sys_T_OfficeSm_C" = 267.8124   $ Sizing
 "CRtdFlo_Sys_T_OfficeSm_E" = 1319.431   $ Sizing
 "CRtdFlo_Sys_T_OfficeSm_N" = 957.7838   $ Sizing
 "CRtdFlo_Sys_T_OfficeSm_S" = 1310.518   $ Sizing
 "CRtdFlo_Sys_T_OfficeSm_W" = 1439.64   $ Sizing
 "CRtdFlo_Sys_T_Restrm_C" = 164.8691   $ Sizing
 "CRtdFlo_Sys_T_StorSm_C" = 323.9817   $ Sizing
 "CSupFlo_Sys_L_Break_C" = 593.9263   $ Sizing
 "CSupFlo_Sys_L_Conf_C" = 578.2432   $ Sizing
 "CSupFlo_Sys_L_CopyRm_C" = 188.5071   $ Sizing
 "CSupFlo_Sys_L_Cordr_C" = 709.46   $ Sizing
 "CSupFlo_Sys_L_Cordr_E" = 245.0449   $ Sizing
 "CSupFlo_Sys_L_Cordr_N" = 186.96   $ Sizing
 "CSupFlo_Sys_L_Cordr_S" = 247.7251   $ Sizing
 "CSupFlo_Sys_L_Cordr_W" = 276.9265   $ Sizing
 "CSupFlo_Sys_L_LobWait_C" = 600.1467   $ Sizing
 "CSupFlo_Sys_L_MechElec_C" = 131.4436   $ Sizing
 "CSupFlo_Sys_L_OfficeOpn_C" = 1964.137   $ Sizing
 "CSupFlo_Sys_L_OfficeOpn_E" = 1706.244   $ Sizing
 "CSupFlo_Sys_L_OfficeOpn_N" = 1339.028   $ Sizing
 "CSupFlo_Sys_L_OfficeOpn_S" = 1728.294   $ Sizing
 "CSupFlo_Sys_L_OfficeOpn_W" = 1969.051   $ Sizing
 "CSupFlo_Sys_L_OfficeSm_C" = 249.6808   $ Sizing
 "CSupFlo_Sys_L_OfficeSm_E" = 1211.291   $ Sizing
 "CSupFlo_Sys_L_OfficeSm_N" = 879.7847   $ Sizing
 "CSupFlo_Sys_L_OfficeSm_S" = 1217.94   $ Sizing
 "CSupFlo_Sys_L_OfficeSm_W" = 1373.64   $ Sizing
 "CSupFlo_Sys_L_Restrm_C" = 98.26723   $ Sizing
 "CSupFlo_Sys_L_StorSm_C" = 404.9767   $ Sizing
 "CSupFlo_Sys_M_Break_C" = 4816.981   $ Sizing
 "CSupFlo_Sys_M_Conf_C" = 4635.896   $ Sizing
 "CSupFlo_Sys_M_CopyRm_C" = 1457.04   $ Sizing
 "CSupFlo_Sys_M_Cordr_C" = 7465.965   $ Sizing
 "CSupFlo_Sys_M_Cordr_E" = 2245.096   $ Sizing
 "CSupFlo_Sys_M_Cordr_N" = 1621.733   $ Sizing
 "CSupFlo_Sys_M_Cordr_S" = 2169.456   $ Sizing
 "CSupFlo_Sys_M_Cordr_W" = 2329.977   $ Sizing
 "CSupFlo_Sys_M_LobWait_C" = 4956.082   $ Sizing
 "CSupFlo_Sys_M_MechElec_C" = 1357.922   $ Sizing
 "CSupFlo_Sys_M_OfficeOpn_C" = 15916.79   $ Sizing
 "CSupFlo_Sys_M_OfficeOpn_E" = 14738.01   $ Sizing
 "CSupFlo_Sys_M_OfficeOpn_N" = 11276.12   $ Sizing
 "CSupFlo_Sys_M_OfficeOpn_S" = 14631.57   $ Sizing
 "CSupFlo_Sys_M_OfficeOpn_W" = 16191.56   $ Sizing
 "CSupFlo_Sys_M_OfficeSm_C" = 2298.415   $ Sizing
 "CSupFlo_Sys_M_OfficeSm_E" = 10321.37   $ Sizing
 "CSupFlo_Sys_M_OfficeSm_N" = 7356.546   $ Sizing
 "CSupFlo_Sys_M_OfficeSm_S" = 10214.76   $ Sizing
 "CSupFlo_Sys_M_OfficeSm_W" = 11192.87   $ Sizing
 "CSupFlo_Sys_M_Restrm_C" = 841.0413   $ Sizing
 "CSupFlo_Sys_M_StorSm_C" = 3541.148   $ Sizing
 "CSupFlo_Sys_T_Break_C" = 594.9263   $ Sizing
 "CSupFlo_Sys_T_Conf_C" = 573.1638   $ Sizing
 "CSupFlo_Sys_T_CopyRm_C" = 181.5757   $ Sizing
 "CSupFlo_Sys_T_Cordr_C" = 890.4634   $ Sizing
 "CSupFlo_Sys_T_Cordr_E" = 279.1239   $ Sizing
 "CSupFlo_Sys_T_Cordr_N" = 209.1112   $ Sizing
 "CSupFlo_Sys_T_Cordr_S" = 272.174   $ Sizing
 "CSupFlo_Sys_T_Cordr_W" = 297.0267   $ Sizing
 "CSupFlo_Sys_T_LobWait_C" = 616.4059   $ Sizing
 "CSupFlo_Sys_T_MechElec_C" = 201.3491   $ Sizing
 "CSupFlo_Sys_T_OfficeOpn_C" = 2061.263   $ Sizing
 "CSupFlo_Sys_T_OfficeOpn_E" = 1832.06   $ Sizing
 "CSupFlo_Sys_T_OfficeOpn_N" = 1457.546   $ Sizing
 "CSupFlo_Sys_T_OfficeOpn_S" = 1857.54   $ Sizing
 "CSupFlo_Sys_T_OfficeOpn_W" = 2043.221   $ Sizing
 "CSupFlo_Sys_T_OfficeSm_C" = 267.8124   $ Sizing
 "CSupFlo_Sys_T_OfficeSm_E" = 1319.431   $ Sizing
 "CSupFlo_Sys_T_OfficeSm_N" = 957.7838   $ Sizing
 "CSupFlo_Sys_T_OfficeSm_S" = 1310.518   $ Sizing
 "CSupFlo_Sys_T_OfficeSm_W" = 1439.64   $ Sizing
 "CSupFlo_Sys_T_Restrm_C" = 164.8691   $ Sizing
 "CSupFlo_Sys_T_StorSm_C" = 323.9817   $ Sizing
 "ClCap_Sys_L_Break_C" = 20113.02   $ Sizing
 "ClCap_Sys_L_Conf_C" = 24922.44   $ Sizing
 "ClCap_Sys_L_CopyRm_C" = 6383.699   $ Sizing
 "ClCap_Sys_L_Cordr_C" = 24025.51   $ Sizing
 "ClCap_Sys_L_Cordr_E" = 8298.324   $ Sizing
 "ClCap_Sys_L_Cordr_N" = 6331.307   $ Sizing
 "ClCap_Sys_L_Cordr_S" = 8389.087   $ Sizing
 "ClCap_Sys_L_Cordr_W" = 9377.979   $ Sizing
 "ClCap_Sys_L_LobWait_C" = 20323.67   $ Sizing
 "ClCap_Sys_L_MechElec_C" = 4451.274   $ Sizing
 "ClCap_Sys_L_OfficeOpn_C" = 66514.52   $ Sizing
 "ClCap_Sys_L_OfficeOpn_E" = 57781.09   $ Sizing
 "ClCap_Sys_L_OfficeOpn_N" = 45345.53   $ Sizing
 "ClCap_Sys_L_OfficeOpn_S" = 58527.82   $ Sizing
 "ClCap_Sys_L_OfficeOpn_W" = 66680.94   $ Sizing
 "ClCap_Sys_L_OfficeSm_C" = 8455.315   $ Sizing
 "ClCap_Sys_L_OfficeSm_E" = 41019.76   $ Sizing
 "ClCap_Sys_L_OfficeSm_N" = 29793.47   $ Sizing
 "ClCap_Sys_L_OfficeSm_S" = 41244.92   $ Sizing
 "ClCap_Sys_L_OfficeSm_W" = 46517.65   $ Sizing
 "ClCap_Sys_L_Restrm_C" = 3327.771   $ Sizing
 "ClCap_Sys_L_StorSm_C" = 13714.33   $ Sizing
 "ClCap_Sys_M_Break_C" = 163124.7   $ Sizing
 "ClCap_Sys_M_Conf_C" = 199808.4   $ Sizing
 "ClCap_Sys_M_CopyRm_C" = 49341.92   $ Sizing
 "ClCap_Sys_M_Cordr_C" = 252831.2   $ Sizing
 "ClCap_Sys_M_Cordr_E" = 76029.06   $ Sizing
 "ClCap_Sys_M_Cordr_N" = 54919.17   $ Sizing
 "ClCap_Sys_M_Cordr_S" = 73467.55   $ Sizing
 "ClCap_Sys_M_Cordr_W" = 78903.52   $ Sizing
 "ClCap_Sys_M_LobWait_C" = 167835.2   $ Sizing
 "ClCap_Sys_M_MechElec_C" = 45985.34   $ Sizing
 "ClCap_Sys_M_OfficeOpn_C" = 539014.3   $ Sizing
 "ClCap_Sys_M_OfficeOpn_E" = 499095.5   $ Sizing
 "ClCap_Sys_M_OfficeOpn_N" = 381860.3   $ Sizing
 "ClCap_Sys_M_OfficeOpn_S" = 495491   $ Sizing
 "ClCap_Sys_M_OfficeOpn_W" = 548319   $ Sizing
 "ClCap_Sys_M_OfficeSm_C" = 77834.68   $ Sizing
 "ClCap_Sys_M_OfficeSm_E" = 349528   $ Sizing
 "ClCap_Sys_M_OfficeSm_N" = 249125.8   $ Sizing
 "ClCap_Sys_M_OfficeSm_S" = 345917.9   $ Sizing
 "ClCap_Sys_M_OfficeSm_W" = 379040.8   $ Sizing
 "ClCap_Sys_M_Restrm_C" = 28481.45   $ Sizing
 "ClCap_Sys_M_StorSm_C" = 119919.2   $ Sizing
 "ClCap_Sys_T_Break_C" = 20146.88   $ Sizing
 "ClCap_Sys_T_Conf_C" = 24703.52   $ Sizing
 "ClCap_Sys_T_CopyRm_C" = 6148.97   $ Sizing
 "ClCap_Sys_T_Cordr_C" = 30155.1   $ Sizing
 "ClCap_Sys_T_Cordr_E" = 9452.391   $ Sizing
 "ClCap_Sys_T_Cordr_N" = 7081.447   $ Sizing
 "ClCap_Sys_T_Cordr_S" = 9217.036   $ Sizing
 "ClCap_Sys_T_Cordr_W" = 10058.66   $ Sizing
 "ClCap_Sys_T_LobWait_C" = 20874.28   $ Sizing
 "ClCap_Sys_T_MechElec_C" = 6818.587   $ Sizing
 "ClCap_Sys_T_OfficeOpn_C" = 69803.63   $ Sizing
 "ClCap_Sys_T_OfficeOpn_E" = 62041.79   $ Sizing
 "ClCap_Sys_T_OfficeOpn_N" = 49359.07   $ Sizing
 "ClCap_Sys_T_OfficeOpn_S" = 62904.66   $ Sizing
 "ClCap_Sys_T_OfficeOpn_W" = 69192.65   $ Sizing
 "ClCap_Sys_T_OfficeSm_C" = 9069.333   $ Sizing
 "ClCap_Sys_T_OfficeSm_E" = 44681.88   $ Sizing
 "ClCap_Sys_T_OfficeSm_N" = 32434.87   $ Sizing
 "ClCap_Sys_T_OfficeSm_S" = 44380.03   $ Sizing
 "ClCap_Sys_T_OfficeSm_W" = 48752.69   $ Sizing
 "ClCap_Sys_T_Restrm_C" = 5583.208   $ Sizing
 "ClCap_Sys_T_StorSm_C" = 10971.48   $ Sizing
 "HtCap_Sys_L_Break_C" = -33212.43   $ Sizing
 "HtCap_Sys_L_Conf_C" = -33360.66   $ Sizing
 "HtCap_Sys_L_CopyRm_C" = -12302.41   $ Sizing
 "HtCap_Sys_L_Cordr_C" = -31189.87   $ Sizing
 "HtCap_Sys_L_Cordr_E" = -9643.883   $ Sizing
 "HtCap_Sys_L_Cordr_N" = -7558.126   $ Sizing
 "HtCap_Sys_L_Cordr_S" = -9006.971   $ Sizing
 "HtCap_Sys_L_Cordr_W" = -9996.077   $ Sizing
 "HtCap_Sys_L_LobWait_C" = -32020.73   $ Sizing
 "HtCap_Sys_L_MechElec_C" = -6667.386   $ Sizing
 "HtCap_Sys_L_OfficeOpn_C" = -95128.9   $ Sizing
 "HtCap_Sys_L_OfficeOpn_E" = -65865.77   $ Sizing
 "HtCap_Sys_L_OfficeOpn_N" = -50271.05   $ Sizing
 "HtCap_Sys_L_OfficeOpn_S" = -62617.2   $ Sizing
 "HtCap_Sys_L_OfficeOpn_W" = -67620.39   $ Sizing
 "HtCap_Sys_L_OfficeSm_C" = -10555.91   $ Sizing
 "HtCap_Sys_L_OfficeSm_E" = -46512.56   $ Sizing
 "HtCap_Sys_L_OfficeSm_N" = -32967.58   $ Sizing
 "HtCap_Sys_L_OfficeSm_S" = -45499.75   $ Sizing
 "HtCap_Sys_L_OfficeSm_W" = -47012.27   $ Sizing
 "HtCap_Sys_L_Restrm_C" = -7754.584   $ Sizing
 "HtCap_Sys_L_StorSm_C" = -19496.24   $ Sizing
 "HtCap_Sys_M_Break_C" = -255130.7   $ Sizing
 "HtCap_Sys_M_Conf_C" = -248591.4   $ Sizing
 "HtCap_Sys_M_CopyRm_C" = -82593.9   $ Sizing
 "HtCap_Sys_M_Cordr_C" = -324641.9   $ Sizing
 "HtCap_Sys_M_Cordr_E" = -87809.29   $ Sizing
 "HtCap_Sys_M_Cordr_N" = -61951   $ Sizing
 "HtCap_Sys_M_Cordr_S" = -79673.99   $ Sizing
 "HtCap_Sys_M_Cordr_W" = -82602.02   $ Sizing
 "HtCap_Sys_M_LobWait_C" = -233248.4   $ Sizing
 "HtCap_Sys_M_MechElec_C" = -64902.95   $ Sizing
 "HtCap_Sys_M_OfficeOpn_C" = -652113.6   $ Sizing
 "HtCap_Sys_M_OfficeOpn_E" = -567872.5   $ Sizing
 "HtCap_Sys_M_OfficeOpn_N" = -415921.9   $ Sizing
 "HtCap_Sys_M_OfficeOpn_S" = -532272.9   $ Sizing
 "HtCap_Sys_M_OfficeOpn_W" = -552067   $ Sizing
 "HtCap_Sys_M_OfficeSm_C" = -100020.1   $ Sizing
 "HtCap_Sys_M_OfficeSm_E" = -399726.4   $ Sizing
 "HtCap_Sys_M_OfficeSm_N" = -271464.8   $ Sizing
 "HtCap_Sys_M_OfficeSm_S" = -382923.7   $ Sizing
 "HtCap_Sys_M_OfficeSm_W" = -383784.9   $ Sizing
 "HtCap_Sys_M_Restrm_C" = -66885.58   $ Sizing
 "HtCap_Sys_M_StorSm_C" = -166097.9   $ Sizing
 "HtCap_Sys_T_Break_C" = -34693.11   $ Sizing
 "HtCap_Sys_T_Conf_C" = -33811.13   $ Sizing
 "HtCap_Sys_T_CopyRm_C" = -11518.58   $ Sizing
 "HtCap_Sys_T_Cordr_C" = -41851.72   $ Sizing
 "HtCap_Sys_T_Cordr_E" = -11763.37   $ Sizing
 "HtCap_Sys_T_Cordr_N" = -9687.146   $ Sizing
 "HtCap_Sys_T_Cordr_S" = -11626.59   $ Sizing
 "HtCap_Sys_T_Cordr_W" = -12722.33   $ Sizing
 "HtCap_Sys_T_LobWait_C" = -33739.18   $ Sizing
 "HtCap_Sys_T_MechElec_C" = -9491.536   $ Sizing
 "HtCap_Sys_T_OfficeOpn_C" = -94240.19   $ Sizing
 "HtCap_Sys_T_OfficeOpn_E" = -75316.22   $ Sizing
 "HtCap_Sys_T_OfficeOpn_N" = -64094.96   $ Sizing
 "HtCap_Sys_T_OfficeOpn_S" = -75753.38   $ Sizing
 "HtCap_Sys_T_OfficeOpn_W" = -81819.66   $ Sizing
 "HtCap_Sys_T_OfficeSm_C" = -13032.19   $ Sizing
 "HtCap_Sys_T_OfficeSm_E" = -55302.58   $ Sizing
 "HtCap_Sys_T_OfficeSm_N" = -41812.88   $ Sizing
 "HtCap_Sys_T_OfficeSm_S" = -54475.07   $ Sizing
 "HtCap_Sys_T_OfficeSm_W" = -57823.13   $ Sizing
 "HtCap_Sys_T_Restrm_C" = -9060.813   $ Sizing
 "HtCap_Sys_T_StorSm_C" = -17956.38   $ Sizing
..

##include Templates\OfL_DX_SZ.inp
END ..
COMPUTE ..
STOP ..
