INPUT ..

##fileprefix C:\Users\jglasskatz\MASControl3\
##set1 IsSizing FALSE
##set1 CoolType DX
##set1 HeatType ELECTRIC
##set1 EU_HrRepVar 1
##set1 BldgVint 2007
##set1 BldgLoc CZ01

 ##set1 mBFMult 1   $ IP Tech: RefgChg-NRes-Std

PARAMETER
 "AltFactor" = 1.00753   $ IP Non-Tech
 "BldgEconoFlag" = 1   $ IP Non-Tech
 "Break_EWSF" = 1   $ IP Non-Tech
 "Break_LWSF" = 1.1   $ IP Non-Tech
 "CDD_DBHi10" = 65   $ IP Non-Tech
 "CDD_DBHi7" = 68   $ IP Non-Tech
 "CDD_DBHi8" = 66   $ IP Non-Tech
 "CDD_DBHi9" = 77   $ IP Non-Tech
 "CDD_DBRange10" = 17   $ IP Non-Tech
 "CDD_DBRange7" = 11   $ IP Non-Tech
 "CDD_DBRange8" = 10   $ IP Non-Tech
 "CDD_DBRange9" = 29   $ IP Non-Tech
 "CDD_Day10" = 15   $ IP Non-Tech
 "CDD_Day7" = 16   $ IP Non-Tech
 "CDD_Day8" = 20   $ IP Non-Tech
 "CDD_Day9" = 17   $ IP Non-Tech
 "CDD_HrHi10" = 12   $ IP Non-Tech
 "CDD_HrHi7" = 12   $ IP Non-Tech
 "CDD_HrHi8" = 13   $ IP Non-Tech
 "CDD_HrHi9" = 17   $ IP Non-Tech
 "CDD_HrLo10" = 6   $ IP Non-Tech
 "CDD_HrLo7" = 3   $ IP Non-Tech
 "CDD_HrLo8" = 8   $ IP Non-Tech
 "CDD_HrLo9" = 4   $ IP Non-Tech
 "CDD_WB10" = 57.53039551   $ IP Non-Tech
 "CDD_WB7" = 59.29250717   $ IP Non-Tech
 "CDD_WB8" = 60.75350189   $ IP Non-Tech
 "CDD_WB9" = 61.08643341   $ IP Non-Tech
 "CZ_Category" = Tem   $ IP Non-Tech
 "ChwVintEconoFlag" = 1   $ IP Non-Tech
 "Conference_EWSF" = 1   $ IP Non-Tech
 "Conference_LWSF" = 1.4   $ IP Non-Tech
 "CoolSetT" = 45   $ IP Non-Tech
 "CoolType" = DX   $ IP Non-Tech
 "CopyRoom_EWSF" = 1.5   $ IP Non-Tech
 "CopyRoom_LWSF" = 1.3   $ IP Non-Tech
 "CorridorStairway_EWSF" = 0.2   $ IP Non-Tech
 "CorridorStairway_LWSF" = 0.6   $ IP Non-Tech
 "DesCoolT" = 75   $ IP Non-Tech
 "DesHeatT" = 73   $ IP Non-Tech
 "EconoEnthLimit" = 28   $ IP Non-Tech
 "EconoTempLimit" = 70   $ IP Non-Tech
 "Elevation" = 203   $ IP Non-Tech
 "HDD_CloudAmt1" = 0   $ IP Non-Tech
 "HDD_DBHi1" = 53   $ IP Non-Tech
 "HDD_DBRange1" = 20   $ IP Non-Tech
 "HDD_Day1" = 15   $ IP Non-Tech
 "HDD_HrHi1" = 14   $ IP Non-Tech
 "HDD_HrLo1" = 6   $ IP Non-Tech
 "HDD_WB1" = 42.3   $ IP Non-Tech
 "HDD_WindSpd1" = 12.7   $ IP Non-Tech
 "HeatSrc" = ELECTRIC   $ IP Non-Tech
 "HeatSrcTU" = HEAT-PUMP   $ IP Non-Tech
 "HeatType" = Elec   $ IP Non-Tech
 "HeatTypeTU" = HEAT-PUMP   $ IP Non-Tech
 "IndoorFanMode" = CONTINUOUS   $ IP Non-Tech
 "KT_TransferAir" = No   $ IP Non-Tech
 "Latitude" = 40.8   $ IP Non-Tech
 "LobbyWaiting_EWSF" = 0.5   $ IP Non-Tech
 "LobbyWaiting_LWSF" = 1.3   $ IP Non-Tech
 "Longitude" = 124.2   $ IP Non-Tech
 "MZFanMechEff" = 0.58   $ IP Non-Tech
 "MZHasRetFan" = FALSE   $ IP Non-Tech
 "MZ_RFanWPerCfm" = 0.37   $ IP Non-Tech
 "MZ_SFanWPerCfm" = 0.71   $ IP Non-Tech
 "MZ_SupFanStatic" = 4   $ IP Non-Tech
 "MaxSupT_MZ" = 95   $ IP Non-Tech
 "MaxSupT_SZ" = 100   $ IP Non-Tech
 "MaxSupT_TU" = 100   $ IP Non-Tech
 "MechElecRoom_EWSF" = 0.2   $ IP Non-Tech
 "MechElecRoom_LWSF" = 0.7   $ IP Non-Tech
 "MinCfmPerSF" = 0.4   $ IP Non-Tech
 "MinSupT" = 55   $ IP Non-Tech
 "NumBlrs" = 2   $ IP Non-Tech
 "OccCoolT" = 76   $ IP Non-Tech
 "OccHeatT" = 72   $ IP Non-Tech
 "OfficeOpen_EWSF" = 1.5   $ IP Non-Tech
 "OfficeOpen_LWSF" = 1.2   $ IP Non-Tech
 "OfficeSmall_EWSF" = 1.5   $ IP Non-Tech
 "OfficeSmall_LWSF" = 1.3   $ IP Non-Tech
 "PkgDxVintEconoFlag" = 0   $ IP Non-Tech
 "ReheatDeltaT" = 40   $ IP Non-Tech
 "Restroom_EWSF" = 0.2   $ IP Non-Tech
 "Restroom_LWSF" = 0.6   $ IP Non-Tech
 "SZFanMechEff" = 0.58   $ IP Non-Tech
 "SZHasRetFan" = FALSE   $ IP Non-Tech
 "SZ_Is_2Spd" = FALSE   $ IP Non-Tech
 "SZ_SFanWPerCfm" = 0.46   $ IP Non-Tech
 "StorageSmlCond_EWSF" = 0.2   $ IP Non-Tech
 "StorageSmlCond_LWSF" = 0.6   $ IP Non-Tech
 "T24GlzTbl" = CZTbl   $ IP Non-Tech
 "TermUnitFanMechEff" = 1   $ IP Non-Tech
 "TermUnitFanMode" = INTERMITTENT   $ IP Non-Tech
 "TwrSetpt" = 80   $ IP Non-Tech
 "UnocCoolT" = 86   $ IP Non-Tech
 "UnocHeatT" = 62   $ IP Non-Tech
 "VAVMinFlow" = 0.3   $ IP Non-Tech
 "WlhpVintEconoFlag" = 0   $ IP Non-Tech
 "EconoCtrl" = OA-TEMP   $ IP Tech: AirEcono-OATemp
 "MaxOAFrac" = 0.85   $ IP Tech: AirEcono-OATemp
 "UseEconoVintApplic" = FALSE   $ IP Tech: AirEcono-OATemp
 "DuctDT" = 1   $ IP Tech: ComDuctInsul-1
 "DuctAirLoss" = 0   $ IP Tech: ComDuctLeak-0
 "DuctLossOAFrac" = 0   $ IP Tech: ComDuctLeak-0
 "ComRoofInsCalc" = FromUo   $ IP Tech: ComRoofIns-Hvy-0.05
 "ComRoofInsR" = -999   $ IP Tech: ComRoofIns-Hvy-0.05
 "ComRoofUo" = 0.05   $ IP Tech: ComRoofIns-Hvy-0.05
 "ComEWInsCalc" = FromUo   $ IP Tech: ComWallIns-MFrm-0.13
 "ComEWInsR" = -999   $ IP Tech: ComWallIns-MFrm-0.13
 "ComEWUo" = 0.13   $ IP Tech: ComWallIns-MFrm-0.13
 "ComN_SHGC" = 0.47   $ IP Tech: NResWin-ComN-0.47-0.47
 "ComN_UFactor" = 0.47   $ IP Tech: NResWin-ComN-0.47-0.47
 "ComN_VisTrans" = 0.75   $ IP Tech: NResWin-ComN-0.47-0.47
 "ComN_WinCode" = G2633   $ IP Tech: NResWin-ComN-0.47-0.47
 "ComN_WinFrmFrac" = 0.17   $ IP Tech: NResWin-ComN-0.47-0.47
 "ComN_WinFrmU" = 0.3   $ IP Tech: NResWin-ComN-0.47-0.47
 "ComO_SHGC" = 0.43   $ IP Tech: NResWin-ComO-0.47-0.43
 "ComO_UFactor" = 0.47   $ IP Tech: NResWin-ComO-0.47-0.43
 "ComO_VisTrans" = 0.68   $ IP Tech: NResWin-ComO-0.47-0.43
 "ComO_WinCode" = G2663   $ IP Tech: NResWin-ComO-0.47-0.43
 "ComO_WinFrmFrac" = 0.17   $ IP Tech: NResWin-ComO-0.47-0.43
 "ComO_WinFrmU" = 0.3   $ IP Tech: NResWin-ComO-0.47-0.43
 "LtgMsrApplic" = ALL   $ IP Tech: NonResLtgRefPre
 "LtgSav_CFL" = 0   $ IP Tech: NonResLtgRefPre
 "LtgSav_EX" = 0   $ IP Tech: NonResLtgRefPre
 "LtgSav_HB" = 0   $ IP Tech: NonResLtgRefPre
 "LtgSav_LF" = 0   $ IP Tech: NonResLtgRefPre
 "LtgSav_SP" = 0   $ IP Tech: NonResLtgRefPre
 "PV_BF_fFlow" = PVV240to760_BF_fFlow   $ IP Tech: PVVAC-H-240to760-E10
 "PV_BF_fT" = PVV240to760_BF_fT   $ IP Tech: PVVAC-H-240to760-E10
 "PV_CEIR_fPLR" = PVV240to760_CEIR_fPLR   $ IP Tech: PVVAC-H-240to760-E10
 "PV_CLoss_fPLR" = PVV240to760_CLoss_fPLR   $ IP Tech: PVVAC-H-240to760-E10
 "PV_COP" = -1   $ IP Tech: PVVAC-H-240to760-E10
 "PV_COP47" = -1   $ IP Tech: PVVAC-H-240to760-E10
 "PV_CfmPerBtuh" = 0.02917   $ IP Tech: PVVAC-H-240to760-E10
 "PV_ClCap_fT" = PVV240to760_ClCap_fT   $ IP Tech: PVVAC-H-240to760-E10
 "PV_ClSH_fT" = PVV240to760_ClSH_fT   $ IP Tech: PVVAC-H-240to760-E10
 "PV_CoilBF" = 0.125   $ IP Tech: PVVAC-H-240to760-E10
 "PV_CondWPerBtuh" = 0   $ IP Tech: PVVAC-H-240to760-E10
 "PV_CoolSensCap" = 0.708   $ IP Tech: PVVAC-H-240to760-E10
 "PV_CoolingEIR" = 0.27165   $ IP Tech: PVVAC-H-240to760-E10
 "PV_CrnkEIR" = 0.0027   $ IP Tech: PVVAC-H-240to760-E10
 "PV_CrnkMaxT" = 50   $ IP Tech: PVVAC-H-240to760-E10
 "PV_DXType" = PVV   $ IP Tech: PVVAC-H-240to760-E10
 "PV_EER" = 9.17   $ IP Tech: PVVAC-H-240to760-E10
 "PV_EIR_fT" = PVV240to760_EIR_fT   $ IP Tech: PVVAC-H-240to760-E10
 "PV_FanEirPlr" = NA   $ IP Tech: PVVAC-H-240to760-E10
 "PV_FanWPerCfm" = 0.736   $ IP Tech: PVVAC-H-240to760-E10
 "PV_HIR_fT" = DEFAULT   $ IP Tech: PVVAC-H-240to760-E10
 "PV_HtCap_fT" = DEFAULT   $ IP Tech: PVVAC-H-240to760-E10
 "PV_HtCoolCapRatio" = -1   $ IP Tech: PVVAC-H-240to760-E10
 "PV_HtgEIR" = -1   $ IP Tech: PVVAC-H-240to760-E10
 "PV_HtgFuel" = HW   $ IP Tech: PVVAC-H-240to760-E10
 "PV_IEER" = 11.44   $ IP Tech: PVVAC-H-240to760-E10
 "PV_LowSpdCapRatio" = 0.17   $ IP Tech: PVVAC-H-240to760-E10
 "PV_LowSpdCfmRatio" = 0.24   $ IP Tech: PVVAC-H-240to760-E10
 "PV_NominalCap" = 40   $ IP Tech: PVVAC-H-240to760-E10
 "PV_NumStages" = 1   $ IP Tech: PVVAC-H-240to760-E10
 "PV_RatedEER" = 10   $ IP Tech: PVVAC-H-240to760-E10
 "PV_RatedSupMtrClass" = HiEff   $ IP Tech: PVVAC-H-240to760-E10
 "PV_SizeRange" = 240to760   $ IP Tech: PVVAC-H-240to760-E10
 "PV_SubType" = AC   $ IP Tech: PVVAC-H-240to760-E10
 "PV_SupMotEff" = 0.91   $ IP Tech: PVVAC-H-240to760-E10
 "PV_Tier" = 0   $ IP Tech: PVVAC-H-240to760-E10
 "PV_TotCoolCap" = 485760   $ IP Tech: PVVAC-H-240to760-E10
 "BF_fFlow" = PSZ65to135_BF_fFlow   $ IP Tech: PkgAC1SpH-65to135-E10.3
 "BF_fT" = PSZ65to135_BF_fT   $ IP Tech: PkgAC1SpH-65to135-E10.3
 "CEIR_fPLR" = PSZ65to135_CEIR_fPLR   $ IP Tech: PkgAC1SpH-65to135-E10.3
 "CLoss_fPLR" = PSZ65to135_CLoss_fPLR   $ IP Tech: PkgAC1SpH-65to135-E10.3
 "COP" = -1   $ IP Tech: PkgAC1SpH-65to135-E10.3
 "COP47" = -1   $ IP Tech: PkgAC1SpH-65to135-E10.3
 "CfmPerBtuh" = 0.02917   $ IP Tech: PkgAC1SpH-65to135-E10.3
 "ClCap_fT" = PSZ65to135_ClCap_fT   $ IP Tech: PkgAC1SpH-65to135-E10.3
 "ClSH_fT" = PSZ65to135_ClSH_fT   $ IP Tech: PkgAC1SpH-65to135-E10.3
 "CoilBF" = 0.114   $ IP Tech: PkgAC1SpH-65to135-E10.3
 "CondWPerBtuh" = 0   $ IP Tech: PkgAC1SpH-65to135-E10.3
 "CoolSensCap" = 0.663   $ IP Tech: PkgAC1SpH-65to135-E10.3
 "CoolingEIR" = 0.2876   $ IP Tech: PkgAC1SpH-65to135-E10.3
 "CrnkEIR" = 0.0029   $ IP Tech: PkgAC1SpH-65to135-E10.3
 "CrnkMaxT" = 50   $ IP Tech: PkgAC1SpH-65to135-E10.3
 "DXType" = Pkg   $ IP Tech: PkgAC1SpH-65to135-E10.3
 "EER" = 9.96   $ IP Tech: PkgAC1SpH-65to135-E10.3
 "EIR_fT" = PSZ65to135_EIR_fT   $ IP Tech: PkgAC1SpH-65to135-E10.3
 "FanEirPlr" = TwoSpeedFan   $ IP Tech: PkgAC1SpH-65to135-E10.3
 "FanWPerCfm" = 0.412   $ IP Tech: PkgAC1SpH-65to135-E10.3
 "HIR_fT" = DEFAULT   $ IP Tech: PkgAC1SpH-65to135-E10.3
 "HtCap_fT" = DEFAULT   $ IP Tech: PkgAC1SpH-65to135-E10.3
 "HtCoolCapRatio" = -1   $ IP Tech: PkgAC1SpH-65to135-E10.3
 "HtgEIR" = -1   $ IP Tech: PkgAC1SpH-65to135-E10.3
 "HtgFuel" = Gas   $ IP Tech: PkgAC1SpH-65to135-E10.3
 "IEER" = 12.32   $ IP Tech: PkgAC1SpH-65to135-E10.3
 "LowSpdCapRatio" = 0.5   $ IP Tech: PkgAC1SpH-65to135-E10.3
 "LowSpdCfmRatio" = 0.66   $ IP Tech: PkgAC1SpH-65to135-E10.3
 "NominalCap" = 15   $ IP Tech: PkgAC1SpH-65to135-E10.3
 "NumStages" = 1   $ IP Tech: PkgAC1SpH-65to135-E10.3
 "RatedEER" = 10.3   $ IP Tech: PkgAC1SpH-65to135-E10.3
 "RatedSupMtrClass" = HiEff   $ IP Tech: PkgAC1SpH-65to135-E10.3
 "SizeRange" = 65to135   $ IP Tech: PkgAC1SpH-65to135-E10.3
 "SubType" = AC   $ IP Tech: PkgAC1SpH-65to135-E10.3
 "SupMotEff" = 0.84   $ IP Tech: PkgAC1SpH-65to135-E10.3
 "Tier" = 0   $ IP Tech: PkgAC1SpH-65to135-E10.3
 "TotCoolCap" = 184140   $ IP Tech: PkgAC1SpH-65to135-E10.3
 "BFMult" = 1   $ IP Tech: RefgChg-NRes-Std
 "CoolEirMult" = 1   $ IP Tech: RefgChg-NRes-Std
 "SensCoolCapMult" = 1   $ IP Tech: RefgChg-NRes-Std
 "TotCoolCapMult" = 1   $ IP Tech: RefgChg-NRes-Std
 "SATempCtrl" = WARMEST   $ IP Tech: SATempCtrl-Warmest
 "FanEIR_fPLR" = "Variable Speed Drive FPLR"   $ IP Tech: VAVCtrl-VSD-AnyHP
 "Fan_Control" = VSD   $ IP Tech: VAVCtrl-VSD-AnyHP
 "Motor_Horsepower" = AnyHP   $ IP Tech: VAVCtrl-VSD-AnyHP
 "AltAdjFactor" = 1.007532   $ Sizing
 "CAssFlo_L_Break_CZn" = 313.682   $ Sizing
 "CAssFlo_L_Conf_CZn" = 369.3558   $ Sizing
 "CAssFlo_L_CopyRm_CZn" = 88.37569   $ Sizing
 "CAssFlo_L_Cordr_CZn" = 565.4379   $ Sizing
 "CAssFlo_L_Cordr_EZn" = 167.2929   $ Sizing
 "CAssFlo_L_Cordr_NZn" = 94.24052   $ Sizing
 "CAssFlo_L_Cordr_SZn" = 186.3143   $ Sizing
 "CAssFlo_L_Cordr_WZn" = 165.8697   $ Sizing
 "CAssFlo_L_LobWait_CZn" = 275.5261   $ Sizing
 "CAssFlo_L_MechElec_CZn" = 134.1697   $ Sizing
 "CAssFlo_L_OfficeOpn_CZn" = 1430.534   $ Sizing
 "CAssFlo_L_OfficeOpn_EZn" = 1536.762   $ Sizing
 "CAssFlo_L_OfficeOpn_NZn" = 715.8602   $ Sizing
 "CAssFlo_L_OfficeOpn_SZn" = 1610.762   $ Sizing
 "CAssFlo_L_OfficeOpn_WZn" = 1504.967   $ Sizing
 "CAssFlo_L_OfficeSm_CZn" = 176.7548   $ Sizing
 "CAssFlo_L_OfficeSm_EZn" = 1084.507   $ Sizing
 "CAssFlo_L_OfficeSm_NZn" = 430.2426   $ Sizing
 "CAssFlo_L_OfficeSm_SZn" = 1173.049   $ Sizing
 "CAssFlo_L_OfficeSm_WZn" = 1055.802   $ Sizing
 "CAssFlo_L_Restrm_CZn" = 211.8611   $ Sizing
 "CAssFlo_L_StorSm_CZn" = 334.0894   $ Sizing
 "CAssFlo_M_Break_CZn" = 336.0696   $ Sizing
 "CAssFlo_M_Conf_CZn" = 401.8309   $ Sizing
 "CAssFlo_M_CopyRm_CZn" = 96.59531   $ Sizing
 "CAssFlo_M_Cordr_CZn" = 565.4379   $ Sizing
 "CAssFlo_M_Cordr_EZn" = 213.3146   $ Sizing
 "CAssFlo_M_Cordr_NZn" = 94.24052   $ Sizing
 "CAssFlo_M_Cordr_SZn" = 230.3951   $ Sizing
 "CAssFlo_M_Cordr_WZn" = 200.8363   $ Sizing
 "CAssFlo_M_LobWait_CZn" = 326.3147   $ Sizing
 "CAssFlo_M_MechElec_CZn" = 134.1697   $ Sizing
 "CAssFlo_M_OfficeOpn_CZn" = 1583.237   $ Sizing
 "CAssFlo_M_OfficeOpn_EZn" = 1676.932   $ Sizing
 "CAssFlo_M_OfficeOpn_NZn" = 851.3704   $ Sizing
 "CAssFlo_M_OfficeOpn_SZn" = 1788.919   $ Sizing
 "CAssFlo_M_OfficeOpn_WZn" = 1612.162   $ Sizing
 "CAssFlo_M_OfficeSm_CZn" = 211.161   $ Sizing
 "CAssFlo_M_OfficeSm_EZn" = 1186.661   $ Sizing
 "CAssFlo_M_OfficeSm_NZn" = 528.4214   $ Sizing
 "CAssFlo_M_OfficeSm_SZn" = 1301.239   $ Sizing
 "CAssFlo_M_OfficeSm_WZn" = 1134.595   $ Sizing
 "CAssFlo_M_Restrm_CZn" = 211.8611   $ Sizing
 "CAssFlo_M_StorSm_CZn" = 334.0894   $ Sizing
 "CAssFlo_T_Break_CZn" = 321.9985   $ Sizing
 "CAssFlo_T_Conf_CZn" = 382.1125   $ Sizing
 "CAssFlo_T_CopyRm_CZn" = 89.19754   $ Sizing
 "CAssFlo_T_Cordr_CZn" = 565.4379   $ Sizing
 "CAssFlo_T_Cordr_EZn" = 187.7651   $ Sizing
 "CAssFlo_T_Cordr_NZn" = 94.24052   $ Sizing
 "CAssFlo_T_Cordr_SZn" = 212.5217   $ Sizing
 "CAssFlo_T_Cordr_WZn" = 180.8966   $ Sizing
 "CAssFlo_T_LobWait_CZn" = 275.5261   $ Sizing
 "CAssFlo_T_MechElec_CZn" = 134.1697   $ Sizing
 "CAssFlo_T_OfficeOpn_CZn" = 1473.283   $ Sizing
 "CAssFlo_T_OfficeOpn_EZn" = 1546.669   $ Sizing
 "CAssFlo_T_OfficeOpn_NZn" = 807.1025   $ Sizing
 "CAssFlo_T_OfficeOpn_SZn" = 1687.335   $ Sizing
 "CAssFlo_T_OfficeOpn_WZn" = 1493.7   $ Sizing
 "CAssFlo_T_OfficeSm_CZn" = 192.7781   $ Sizing
 "CAssFlo_T_OfficeSm_EZn" = 1115.732   $ Sizing
 "CAssFlo_T_OfficeSm_NZn" = 502.0669   $ Sizing
 "CAssFlo_T_OfficeSm_SZn" = 1246.632   $ Sizing
 "CAssFlo_T_OfficeSm_WZn" = 1076.792   $ Sizing
 "CAssFlo_T_Restrm_CZn" = 211.8611   $ Sizing
 "CAssFlo_T_StorSm_CZn" = 334.0894   $ Sizing
 "CHRtFlo_L_Break_CZn" = 216.6311   $ Sizing
 "CHRtFlo_L_Conf_CZn" = 281.7439   $ Sizing
 "CHRtFlo_L_CopyRm_CZn" = 88.37569   $ Sizing
 "CHRtFlo_L_Cordr_CZn" = 212.0392   $ Sizing
 "CHRtFlo_L_Cordr_EZn" = 79.22375   $ Sizing
 "CHRtFlo_L_Cordr_NZn" = 91.7412   $ Sizing
 "CHRtFlo_L_Cordr_SZn" = 55.89429   $ Sizing
 "CHRtFlo_L_Cordr_WZn" = 77.98763   $ Sizing
 "CHRtFlo_L_LobWait_CZn" = 223.8649   $ Sizing
 "CHRtFlo_L_MechElec_CZn" = 50.31363   $ Sizing
 "CHRtFlo_L_OfficeOpn_CZn" = 429.1603   $ Sizing
 "CHRtFlo_L_OfficeOpn_EZn" = 461.0287   $ Sizing
 "CHRtFlo_L_OfficeOpn_NZn" = 289.3643   $ Sizing
 "CHRtFlo_L_OfficeOpn_SZn" = 483.2287   $ Sizing
 "CHRtFlo_L_OfficeOpn_WZn" = 451.4902   $ Sizing
 "CHRtFlo_L_OfficeSm_CZn" = 53.97937   $ Sizing
 "CHRtFlo_L_OfficeSm_EZn" = 325.3521   $ Sizing
 "CHRtFlo_L_OfficeSm_NZn" = 329.2766   $ Sizing
 "CHRtFlo_L_OfficeSm_SZn" = 351.9147   $ Sizing
 "CHRtFlo_L_OfficeSm_WZn" = 316.7407   $ Sizing
 "CHRtFlo_L_Restrm_CZn" = 63.55833   $ Sizing
 "CHRtFlo_L_StorSm_CZn" = 125.2835   $ Sizing
 "CHRtFlo_M_Break_CZn" = 216.6311   $ Sizing
 "CHRtFlo_M_Conf_CZn" = 281.7439   $ Sizing
 "CHRtFlo_M_CopyRm_CZn" = 88.37569   $ Sizing
 "CHRtFlo_M_Cordr_CZn" = 212.0392   $ Sizing
 "CHRtFlo_M_Cordr_EZn" = 64.88718   $ Sizing
 "CHRtFlo_M_Cordr_NZn" = 74.66955   $ Sizing
 "CHRtFlo_M_Cordr_SZn" = 69.11854   $ Sizing
 "CHRtFlo_M_Cordr_WZn" = 61.08488   $ Sizing
 "CHRtFlo_M_LobWait_CZn" = 223.8649   $ Sizing
 "CHRtFlo_M_MechElec_CZn" = 50.31363   $ Sizing
 "CHRtFlo_M_OfficeOpn_CZn" = 474.971   $ Sizing
 "CHRtFlo_M_OfficeOpn_EZn" = 503.0796   $ Sizing
 "CHRtFlo_M_OfficeOpn_NZn" = 255.4111   $ Sizing
 "CHRtFlo_M_OfficeOpn_SZn" = 536.6757   $ Sizing
 "CHRtFlo_M_OfficeOpn_WZn" = 483.6488   $ Sizing
 "CHRtFlo_M_OfficeSm_CZn" = 63.34831   $ Sizing
 "CHRtFlo_M_OfficeSm_EZn" = 355.9983   $ Sizing
 "CHRtFlo_M_OfficeSm_NZn" = 260.5887   $ Sizing
 "CHRtFlo_M_OfficeSm_SZn" = 390.3716   $ Sizing
 "CHRtFlo_M_OfficeSm_WZn" = 340.3784   $ Sizing
 "CHRtFlo_M_Restrm_CZn" = 63.55833   $ Sizing
 "CHRtFlo_M_StorSm_CZn" = 125.2835   $ Sizing
 "CHRtFlo_T_Break_CZn" = 216.6311   $ Sizing
 "CHRtFlo_T_Conf_CZn" = 281.7439   $ Sizing
 "CHRtFlo_T_CopyRm_CZn" = 88.37569   $ Sizing
 "CHRtFlo_T_Cordr_CZn" = 212.0392   $ Sizing
 "CHRtFlo_T_Cordr_EZn" = 60.05602   $ Sizing
 "CHRtFlo_T_Cordr_NZn" = 71.02026   $ Sizing
 "CHRtFlo_T_Cordr_SZn" = 63.7565   $ Sizing
 "CHRtFlo_T_Cordr_WZn" = 56.1257   $ Sizing
 "CHRtFlo_T_LobWait_CZn" = 223.8649   $ Sizing
 "CHRtFlo_T_MechElec_CZn" = 60.78986   $ Sizing
 "CHRtFlo_T_OfficeOpn_CZn" = 441.9848   $ Sizing
 "CHRtFlo_T_OfficeOpn_EZn" = 464.0006   $ Sizing
 "CHRtFlo_T_OfficeOpn_NZn" = 242.1308   $ Sizing
 "CHRtFlo_T_OfficeOpn_SZn" = 506.2005   $ Sizing
 "CHRtFlo_T_OfficeOpn_WZn" = 448.1101   $ Sizing
 "CHRtFlo_T_OfficeSm_CZn" = 57.83343   $ Sizing
 "CHRtFlo_T_OfficeSm_EZn" = 334.7195   $ Sizing
 "CHRtFlo_T_OfficeSm_NZn" = 270.4601   $ Sizing
 "CHRtFlo_T_OfficeSm_SZn" = 373.9897   $ Sizing
 "CHRtFlo_T_OfficeSm_WZn" = 323.0375   $ Sizing
 "CHRtFlo_T_Restrm_CZn" = 63.55833   $ Sizing
 "CHRtFlo_T_StorSm_CZn" = 125.2835   $ Sizing
 "CRtdFlo_Sys_L" = 9915.398   $ Sizing
 "CRtdFlo_Sys_M" = 90892.84   $ Sizing
 "CRtdFlo_Sys_T" = 10883.71   $ Sizing
 "CSupFlo_Sys_L" = 9915.398   $ Sizing
 "CSupFlo_Sys_M" = 90892.84   $ Sizing
 "CSupFlo_Sys_T" = 10883.71   $ Sizing
 "ClCap_Sys_L" = 339354.2   $ Sizing
 "ClCap_Sys_M" = 3110805   $ Sizing
 "ClCap_Sys_T" = 372494.5   $ Sizing
 "HRtEDB_L_Break_CZn" = 49.43639   $ Sizing
 "HRtEDB_L_Conf_CZn" = 49.43639   $ Sizing
 "HRtEDB_L_CopyRm_CZn" = 49.43639   $ Sizing
 "HRtEDB_L_Cordr_CZn" = 49.43639   $ Sizing
 "HRtEDB_L_Cordr_EZn" = 49.5382   $ Sizing
 "HRtEDB_L_Cordr_NZn" = 49.5382   $ Sizing
 "HRtEDB_L_Cordr_SZn" = 49.5382   $ Sizing
 "HRtEDB_L_Cordr_WZn" = 49.5382   $ Sizing
 "HRtEDB_L_LobWait_CZn" = 49.43639   $ Sizing
 "HRtEDB_L_MechElec_CZn" = 49.43639   $ Sizing
 "HRtEDB_L_OfficeOpn_CZn" = 49.43639   $ Sizing
 "HRtEDB_L_OfficeOpn_EZn" = 49.43639   $ Sizing
 "HRtEDB_L_OfficeOpn_NZn" = 55.80967   $ Sizing
 "HRtEDB_L_OfficeOpn_SZn" = 49.5382   $ Sizing
 "HRtEDB_L_OfficeOpn_WZn" = 49.43639   $ Sizing
 "HRtEDB_L_OfficeSm_CZn" = 49.43639   $ Sizing
 "HRtEDB_L_OfficeSm_EZn" = 49.43639   $ Sizing
 "HRtEDB_L_OfficeSm_NZn" = 49.43639   $ Sizing
 "HRtEDB_L_OfficeSm_SZn" = 49.5382   $ Sizing
 "HRtEDB_L_OfficeSm_WZn" = 49.43639   $ Sizing
 "HRtEDB_L_Restrm_CZn" = 49.43639   $ Sizing
 "HRtEDB_L_StorSm_CZn" = 49.43639   $ Sizing
 "HRtEDB_M_Break_CZn" = 50.14481   $ Sizing
 "HRtEDB_M_Conf_CZn" = 50.14481   $ Sizing
 "HRtEDB_M_CopyRm_CZn" = 50.14481   $ Sizing
 "HRtEDB_M_Cordr_CZn" = 50.14481   $ Sizing
 "HRtEDB_M_Cordr_EZn" = 50.25676   $ Sizing
 "HRtEDB_M_Cordr_NZn" = 50.25676   $ Sizing
 "HRtEDB_M_Cordr_SZn" = 50.25676   $ Sizing
 "HRtEDB_M_Cordr_WZn" = 50.25676   $ Sizing
 "HRtEDB_M_LobWait_CZn" = 50.14481   $ Sizing
 "HRtEDB_M_MechElec_CZn" = 50.14481   $ Sizing
 "HRtEDB_M_OfficeOpn_CZn" = 50.14481   $ Sizing
 "HRtEDB_M_OfficeOpn_EZn" = 50.14481   $ Sizing
 "HRtEDB_M_OfficeOpn_NZn" = 50.14481   $ Sizing
 "HRtEDB_M_OfficeOpn_SZn" = 50.25676   $ Sizing
 "HRtEDB_M_OfficeOpn_WZn" = 50.14481   $ Sizing
 "HRtEDB_M_OfficeSm_CZn" = 50.14481   $ Sizing
 "HRtEDB_M_OfficeSm_EZn" = 50.14481   $ Sizing
 "HRtEDB_M_OfficeSm_NZn" = 50.14481   $ Sizing
 "HRtEDB_M_OfficeSm_SZn" = 50.25676   $ Sizing
 "HRtEDB_M_OfficeSm_WZn" = 50.14481   $ Sizing
 "HRtEDB_M_Restrm_CZn" = 50.14481   $ Sizing
 "HRtEDB_M_StorSm_CZn" = 50.14481   $ Sizing
 "HRtEDB_T_Break_CZn" = 46.03465   $ Sizing
 "HRtEDB_T_Conf_CZn" = 46.03465   $ Sizing
 "HRtEDB_T_CopyRm_CZn" = 46.03465   $ Sizing
 "HRtEDB_T_Cordr_CZn" = 46.03465   $ Sizing
 "HRtEDB_T_Cordr_EZn" = 46.81373   $ Sizing
 "HRtEDB_T_Cordr_NZn" = 48.10373   $ Sizing
 "HRtEDB_T_Cordr_SZn" = 46.03465   $ Sizing
 "HRtEDB_T_Cordr_WZn" = 48.10373   $ Sizing
 "HRtEDB_T_LobWait_CZn" = 46.03465   $ Sizing
 "HRtEDB_T_MechElec_CZn" = 48.10373   $ Sizing
 "HRtEDB_T_OfficeOpn_CZn" = 46.03465   $ Sizing
 "HRtEDB_T_OfficeOpn_EZn" = 46.03465   $ Sizing
 "HRtEDB_T_OfficeOpn_NZn" = 46.03465   $ Sizing
 "HRtEDB_T_OfficeOpn_SZn" = 46.03465   $ Sizing
 "HRtEDB_T_OfficeOpn_WZn" = 46.03465   $ Sizing
 "HRtEDB_T_OfficeSm_CZn" = 46.03465   $ Sizing
 "HRtEDB_T_OfficeSm_EZn" = 46.03465   $ Sizing
 "HRtEDB_T_OfficeSm_NZn" = 46.03465   $ Sizing
 "HRtEDB_T_OfficeSm_SZn" = 46.03465   $ Sizing
 "HRtEDB_T_OfficeSm_WZn" = 46.03465   $ Sizing
 "HRtEDB_T_Restrm_CZn" = 46.03465   $ Sizing
 "HRtEDB_T_StorSm_CZn" = 46.03465   $ Sizing
 "HtCap_L_Break_CZn" = -10635.25   $ Sizing
 "HtCap_L_Conf_CZn" = -13831.89   $ Sizing
 "HtCap_L_CopyRm_CZn" = -4338.702   $ Sizing
 "HtCap_L_Cordr_CZn" = -10409.82   $ Sizing
 "HtCap_L_Cordr_EZn" = -3881.461   $ Sizing
 "HtCap_L_Cordr_NZn" = -4494.737   $ Sizing
 "HtCap_L_Cordr_SZn" = -2738.466   $ Sizing
 "HtCap_L_Cordr_WZn" = -3820.899   $ Sizing
 "HtCap_L_LobWait_CZn" = -10990.39   $ Sizing
 "HtCap_L_MechElec_CZn" = -2470.089   $ Sizing
 "HtCap_L_OfficeOpn_CZn" = -21069.12   $ Sizing
 "HtCap_L_OfficeOpn_EZn" = -22633.67   $ Sizing
 "HtCap_L_OfficeOpn_NZn" = -12221.54   $ Sizing
 "HtCap_L_OfficeOpn_SZn" = -23675.14   $ Sizing
 "HtCap_L_OfficeOpn_WZn" = -22165.38   $ Sizing
 "HtCap_L_OfficeSm_CZn" = -2650.054   $ Sizing
 "HtCap_L_OfficeSm_EZn" = -15972.78   $ Sizing
 "HtCap_L_OfficeSm_NZn" = -16165.45   $ Sizing
 "HtCap_L_OfficeSm_SZn" = -17241.59   $ Sizing
 "HtCap_L_OfficeSm_WZn" = -15550.01   $ Sizing
 "HtCap_L_Restrm_CZn" = -3120.322   $ Sizing
 "HtCap_L_StorSm_CZn" = -6150.647   $ Sizing
 "HtCap_M_Break_CZn" = -10471.69   $ Sizing
 "HtCap_M_Conf_CZn" = -13619.16   $ Sizing
 "HtCap_M_CopyRm_CZn" = -4271.975   $ Sizing
 "HtCap_M_Cordr_CZn" = -10249.72   $ Sizing
 "HtCap_M_Cordr_EZn" = -3128.993   $ Sizing
 "HtCap_M_Cordr_NZn" = -3600.718   $ Sizing
 "HtCap_M_Cordr_SZn" = -3333.038   $ Sizing
 "HtCap_M_Cordr_WZn" = -2945.638   $ Sizing
 "HtCap_M_LobWait_CZn" = -10821.36   $ Sizing
 "HtCap_M_MechElec_CZn" = -2432.1   $ Sizing
 "HtCap_M_OfficeOpn_CZn" = -22959.53   $ Sizing
 "HtCap_M_OfficeOpn_EZn" = -24318.26   $ Sizing
 "HtCap_M_OfficeOpn_NZn" = -12346.27   $ Sizing
 "HtCap_M_OfficeOpn_SZn" = -25879.6   $ Sizing
 "HtCap_M_OfficeOpn_WZn" = -23379   $ Sizing
 "HtCap_M_OfficeSm_CZn" = -3062.181   $ Sizing
 "HtCap_M_OfficeSm_EZn" = -17208.53   $ Sizing
 "HtCap_M_OfficeSm_NZn" = -12596.54   $ Sizing
 "HtCap_M_OfficeSm_SZn" = -18824.52   $ Sizing
 "HtCap_M_OfficeSm_WZn" = -16453.48   $ Sizing
 "HtCap_M_Restrm_CZn" = -3072.333   $ Sizing
 "HtCap_M_StorSm_CZn" = -6056.054   $ Sizing
 "HtCap_T_Break_CZn" = -11429.01   $ Sizing
 "HtCap_T_Conf_CZn" = -14864.23   $ Sizing
 "HtCap_T_CopyRm_CZn" = -4662.52   $ Sizing
 "HtCap_T_Cordr_CZn" = -11186.75   $ Sizing
 "HtCap_T_Cordr_EZn" = -3118.759   $ Sizing
 "HtCap_T_Cordr_NZn" = -3589.717   $ Sizing
 "HtCap_T_Cordr_SZn" = -3363.662   $ Sizing
 "HtCap_T_Cordr_WZn" = -2836.872   $ Sizing
 "HtCap_T_LobWait_CZn" = -11810.65   $ Sizing
 "HtCap_T_MechElec_CZn" = -3072.622   $ Sizing
 "HtCap_T_OfficeOpn_CZn" = -23318.21   $ Sizing
 "HtCap_T_OfficeOpn_EZn" = -24479.72   $ Sizing
 "HtCap_T_OfficeOpn_NZn" = -12774.32   $ Sizing
 "HtCap_T_OfficeOpn_SZn" = -26706.1   $ Sizing
 "HtCap_T_OfficeOpn_WZn" = -23641.37   $ Sizing
 "HtCap_T_OfficeSm_CZn" = -3051.173   $ Sizing
 "HtCap_T_OfficeSm_EZn" = -17659.11   $ Sizing
 "HtCap_T_OfficeSm_NZn" = -14268.92   $ Sizing
 "HtCap_T_OfficeSm_SZn" = -19730.93   $ Sizing
 "HtCap_T_OfficeSm_WZn" = -17042.79   $ Sizing
 "HtCap_T_Restrm_CZn" = -3353.207   $ Sizing
 "HtCap_T_StorSm_CZn" = -6609.7   $ Sizing
..

##include Templates\OfL_DX_MZ.inp
END ..
COMPUTE ..
STOP ..
