INPUT ..

##fileprefix C:\Users\jglasskatz\MASControl3\
##set1 IsSizing FALSE
##set1 CoolType DX
##set1 HeatType FURNACE
##set1 EU_HrRepVar 0
##set1 BldgVint 2011
##set1 BldgLoc CZ09

 ##set1 mBFMult 1   $ IP Tech: RefgChg-NRes-Std

PARAMETER
 "AltFactor" = 1.02768   $ IP Non-Tech
 "BF_fFlow" = SpltAC1Sp_BF_fFlow   $ Msr (Var)TechID: PreNResSplitAC-lt45-PENo
 "BF_fT" = SpltAC1Sp_BF_fT   $ Msr (Var)TechID: PreNResSplitAC-lt45-PENo
 "BldgEconoFlag" = 1   $ IP Non-Tech
 "Break_EWSF" = 1   $ IP Non-Tech
 "Break_LWSF" = 1.1   $ IP Non-Tech
 "CDD_DBHi10" = 91   $ IP Non-Tech
 "CDD_DBHi7" = 91   $ IP Non-Tech
 "CDD_DBHi8" = 94   $ IP Non-Tech
 "CDD_DBHi9" = 100   $ IP Non-Tech
 "CDD_DBRange10" = 30   $ IP Non-Tech
 "CDD_DBRange7" = 19   $ IP Non-Tech
 "CDD_DBRange8" = 23   $ IP Non-Tech
 "CDD_DBRange9" = 24   $ IP Non-Tech
 "CDD_Day10" = 15   $ IP Non-Tech
 "CDD_Day7" = 16   $ IP Non-Tech
 "CDD_Day8" = 20   $ IP Non-Tech
 "CDD_Day9" = 17   $ IP Non-Tech
 "CDD_HrHi10" = 16   $ IP Non-Tech
 "CDD_HrHi7" = 16   $ IP Non-Tech
 "CDD_HrHi8" = 15   $ IP Non-Tech
 "CDD_HrHi9" = 13   $ IP Non-Tech
 "CDD_HrLo10" = 5   $ IP Non-Tech
 "CDD_HrLo7" = 6   $ IP Non-Tech
 "CDD_HrLo8" = 3   $ IP Non-Tech
 "CDD_HrLo9" = 7   $ IP Non-Tech
 "CDD_WB10" = 61.50949097   $ IP Non-Tech
 "CDD_WB7" = 74.70972443   $ IP Non-Tech
 "CDD_WB8" = 73.69755554   $ IP Non-Tech
 "CDD_WB9" = 73.82730103   $ IP Non-Tech
 "CEIR_fPLR_Hot" = SpltAC1Sp_CEIR_fPLR_Hot   $ Msr (Var)TechID: PreNResSplitAC-lt45-PENo
 "CEIR_fPLR_Mod" = SpltAC1Sp_CEIR_fPLR_Mod   $ Msr (Var)TechID: PreNResSplitAC-lt45-PENo
 "CEIR_fPLR_Tem" = SpltAC1Sp_CEIR_fPLR_Tem   $ Msr (Var)TechID: PreNResSplitAC-lt45-PENo
 "CLoss_fPLR_Hot" = SpltAC1Sp_CLoss_fPLR_Hot   $ Msr (Var)TechID: PreNResSplitAC-lt45-PENo
 "CLoss_fPLR_Mod" = SpltAC1Sp_CLoss_fPLR_Mod   $ Msr (Var)TechID: PreNResSplitAC-lt45-PENo
 "CLoss_fPLR_Tem" = SpltAC1Sp_CLoss_fPLR_Tem   $ Msr (Var)TechID: PreNResSplitAC-lt45-PENo
 "COP47" = 0   $ Msr (Var)TechID: PreNResSplitAC-lt45-PENo
 "CZ_Category" = Mod   $ IP Non-Tech
 "CapRange" = Any   $ Msr (Var)TechID: PreNResSplitAC-lt45-PENo
 "CfmPerBtuh" = 0.0321   $ Msr (Var)TechID: PreNResSplitAC-lt45-PENo
 "ChwVintEconoFlag" = 1   $ IP Non-Tech
 "ClCap_fT" = SpltAC1Sp_ClCap_fT   $ Msr (Var)TechID: PreNResSplitAC-lt45-PENo
 "ClSH_fT" = SpltAC1Sp_ClSH_fT   $ Msr (Var)TechID: PreNResSplitAC-lt45-PENo
 "CoilBF" = 0.12   $ Msr (Var)TechID: PreNResSplitAC-lt45-PENo
 "CondWPerBtuh" = 0   $ Msr (Var)TechID: PreNResSplitAC-lt45-PENo
 "Conference_EWSF" = 1   $ IP Non-Tech
 "Conference_LWSF" = 1.4   $ IP Non-Tech
 "CoolSensCap" = 0.744   $ Msr (Var)TechID: PreNResSplitAC-lt45-PENo
 "CoolSetT" = 45   $ IP Non-Tech
 "CoolType" = DX   $ IP Non-Tech
 "CoolingEIR" = 0.25823   $ Msr (Var)TechID: PreNResSplitAC-lt45-PENo
 "CopyRoom_EWSF" = 1.5   $ IP Non-Tech
 "CopyRoom_LWSF" = 1.3   $ IP Non-Tech
 "CorridorStairway_EWSF" = 0.2   $ IP Non-Tech
 "CorridorStairway_LWSF" = 0.6   $ IP Non-Tech
 "CrnkEIR" = 0.0025823   $ Msr (Var)TechID: PreNResSplitAC-lt45-PENo
 "CrnkMaxT" = 50   $ Msr (Var)TechID: PreNResSplitAC-lt45-PENo
 "DXType" = SplitSEER   $ Msr (Var)TechID: PreNResSplitAC-lt45-PENo
 "DesCoolT" = 75   $ IP Non-Tech
 "DesHeatT" = 73   $ IP Non-Tech
 "EER" = 11.07746479   $ Msr (Var)TechID: PreNResSplitAC-lt45-PENo
 "EIR_fT" = SpltAC1Sp_EIR_fT   $ Msr (Var)TechID: PreNResSplitAC-lt45-PENo
 "EconoCtrl" = FIXED   $ Msr (Multi)TechID: PreNResSplitAC-lt45-PENo
 "EconoEnthLimit" = 28   $ IP Non-Tech
 "EconoTempLimit" = 71   $ IP Non-Tech
 "Elevation" = 741   $ IP Non-Tech
 "FanEirPlr" = TwoSpeedFan   $ Msr (Var)TechID: PreNResSplitAC-lt45-PENo
 "FanWPerCfm" = 0.348   $ Msr (Var)TechID: PreNResSplitAC-lt45-PENo
 "HDD_CloudAmt1" = 0   $ IP Non-Tech
 "HDD_DBHi1" = 55   $ IP Non-Tech
 "HDD_DBRange1" = 18   $ IP Non-Tech
 "HDD_Day1" = 15   $ IP Non-Tech
 "HDD_HrHi1" = 15   $ IP Non-Tech
 "HDD_HrLo1" = 5   $ IP Non-Tech
 "HDD_WB1" = 48.4   $ IP Non-Tech
 "HDD_WindSpd1" = 10.4   $ IP Non-Tech
 "HIR_fT" = 0   $ Msr (Var)TechID: PreNResSplitAC-lt45-PENo
 "HSPF" = 0   $ Msr (Var)TechID: PreNResSplitAC-lt45-PENo
 "HeatSrc" = FURNACE   $ IP Non-Tech
 "HeatSrcTU" = HEAT-PUMP   $ IP Non-Tech
 "HeatType" = GasFurn   $ IP Non-Tech
 "HeatTypeTU" = HEAT-PUMP   $ IP Non-Tech
 "HtCap_fT" = 0   $ Msr (Var)TechID: PreNResSplitAC-lt45-PENo
 "HtCoolCapRatio" = 0   $ Msr (Var)TechID: PreNResSplitAC-lt45-PENo
 "HtgEIR" = 0   $ Msr (Var)TechID: PreNResSplitAC-lt45-PENo
 "IndoorFanMode" = CONTINUOUS   $ IP Non-Tech
 "KT_TransferAir" = No   $ IP Non-Tech
 "Latitude" = 34.1   $ IP Non-Tech
 "LobbyWaiting_EWSF" = 0.5   $ IP Non-Tech
 "LobbyWaiting_LWSF" = 1.3   $ IP Non-Tech
 "Longitude" = 117.8   $ IP Non-Tech
 "LowSpdCapRatio" = 1   $ Msr (Var)TechID: PreNResSplitAC-lt45-PENo
 "LowSpdCfmRatio" = 1   $ Msr (Var)TechID: PreNResSplitAC-lt45-PENo
 "MZFanMechEff" = 0.58   $ IP Non-Tech
 "MZHasRetFan" = FALSE   $ IP Non-Tech
 "MZ_RFanWPerCfm" = 0.37   $ IP Non-Tech
 "MZ_SFanWPerCfm" = 0.71   $ IP Non-Tech
 "MZ_SupFanStatic" = 2.25   $ IP Non-Tech
 "MaxOAFrac" = 1   $ Msr (Multi)TechID: PreNResSplitAC-lt45-PENo
 "MaxSupT_MZ" = 100   $ IP Non-Tech
 "MaxSupT_SZ" = 100   $ IP Non-Tech
 "MaxSupT_TU" = 90   $ IP Non-Tech
 "MechElecRoom_EWSF" = 0.2   $ IP Non-Tech
 "MechElecRoom_LWSF" = 0.7   $ IP Non-Tech
 "MinCfmPerSF" = 0.4   $ IP Non-Tech
 "MinSupT" = 55   $ IP Non-Tech
 "NumStages" = 1   $ Msr (Var)TechID: PreNResSplitAC-lt45-PENo
 "OccCoolT" = 76   $ IP Non-Tech
 "OccHeatT" = 72   $ IP Non-Tech
 "OfficeOpen_EWSF" = 1.5   $ IP Non-Tech
 "OfficeOpen_LWSF" = 1.1   $ IP Non-Tech
 "OfficeSmall_EWSF" = 1.5   $ IP Non-Tech
 "OfficeSmall_LWSF" = 1.3   $ IP Non-Tech
 "PkgDxVintEconoFlag" = 0   $ IP Non-Tech
 "Restroom_EWSF" = 0.2   $ IP Non-Tech
 "Restroom_LWSF" = 0.6   $ IP Non-Tech
 "SEER" = 13   $ Msr (Var)TechID: PreNResSplitAC-lt45-PENo
 "SZFanMechEff" = 0.58   $ IP Non-Tech
 "SZHasRetFan" = FALSE   $ IP Non-Tech
 "SZ_Is_2Spd" = FALSE   $ IP Non-Tech
 "SZ_SFanWPerCfm" = 0.46   $ IP Non-Tech
 "SZ_SupFanStatic" = 0.75   $ IP Non-Tech
 "Sector" = Any   $ Msr (Var)TechID: PreNResSplitAC-lt45-PENo
 "StorageSmlCond_EWSF" = 0.2   $ IP Non-Tech
 "StorageSmlCond_LWSF" = 0.6   $ IP Non-Tech
 "SubType" = AC   $ Msr (Var)TechID: PreNResSplitAC-lt45-PENo
 "T24GlzTbl" = CZTbl   $ IP Non-Tech
 "TermUnitFanMechEff" = 1   $ IP Non-Tech
 "TermUnitFanMode" = INTERMITTENT   $ IP Non-Tech
 "TotCoolCap" = 34895   $ Msr (Var)TechID: PreNResSplitAC-lt45-PENo
 "TwrSetpt" = 86.9   $ IP Non-Tech
 "UnocCoolT" = 86   $ IP Non-Tech
 "UnocHeatT" = 62   $ IP Non-Tech
 "UseEconoVintApplic" = FALSE   $ Msr (Multi)TechID: PreNResSplitAC-lt45-PENo
 "WlhpVintEconoFlag" = 0   $ IP Non-Tech
 "DuctDT" = 1   $ IP Tech: ComDuctInsul-1
 "DuctAirLoss" = 0   $ IP Tech: ComDuctLeak-0
 "DuctLossOAFrac" = 0   $ IP Tech: ComDuctLeak-0
 "ComRoofInsCalc" = FromUo   $ IP Tech: ComRoofIns-Hvy-0.04
 "ComRoofInsR" = -999   $ IP Tech: ComRoofIns-Hvy-0.04
 "ComRoofUo" = 0.04   $ IP Tech: ComRoofIns-Hvy-0.04
 "ComEWInsCalc" = FromUo   $ IP Tech: ComWallIns-MFrm-0.06
 "ComEWInsR" = -999   $ IP Tech: ComWallIns-MFrm-0.06
 "ComEWUo" = 0.06   $ IP Tech: ComWallIns-MFrm-0.06
 "ComN_SHGC" = 0.61   $ IP Tech: NResWin-ComN-0.77-0.61
 "ComN_UFactor" = 0.77   $ IP Tech: NResWin-ComN-0.77-0.61
 "ComN_VisTrans" = 0.77   $ IP Tech: NResWin-ComN-0.77-0.61
 "ComN_WinCode" = G2600   $ IP Tech: NResWin-ComN-0.77-0.61
 "ComN_WinFrmFrac" = 0.17   $ IP Tech: NResWin-ComN-0.77-0.61
 "ComN_WinFrmU" = 1   $ IP Tech: NResWin-ComN-0.77-0.61
 "ComO_SHGC" = 0.34   $ IP Tech: NResWin-ComO-0.77-0.34
 "ComO_UFactor" = 0.77   $ IP Tech: NResWin-ComO-0.77-0.34
 "ComO_VisTrans" = 0.44   $ IP Tech: NResWin-ComO-0.77-0.34
 "ComO_WinCode" = G2636   $ IP Tech: NResWin-ComO-0.77-0.34
 "ComO_WinFrmFrac" = 0.17   $ IP Tech: NResWin-ComO-0.77-0.34
 "ComO_WinFrmU" = 1   $ IP Tech: NResWin-ComO-0.77-0.34
 "LtgMsrApplic" = ALL   $ IP Tech: NonResLtgRefPre
 "LtgSav_CFL" = 0   $ IP Tech: NonResLtgRefPre
 "LtgSav_EX" = 0   $ IP Tech: NonResLtgRefPre
 "LtgSav_HB" = 0   $ IP Tech: NonResLtgRefPre
 "LtgSav_LF" = 0   $ IP Tech: NonResLtgRefPre
 "LtgSav_SP" = 0   $ IP Tech: NonResLtgRefPre
 "CEIR_fPLR" = PSZ65to135_CEIR_fPLR   $ IP Tech: PkgAC1SpH-65to135-E11
 "CLoss_fPLR" = PSZ65to135_CLoss_fPLR   $ IP Tech: PkgAC1SpH-65to135-E11
 "COP" = -1   $ IP Tech: PkgAC1SpH-65to135-E11
 "HtgFuel" = Gas   $ IP Tech: PkgAC1SpH-65to135-E11
 "IEER" = 13.35   $ IP Tech: PkgAC1SpH-65to135-E11
 "NominalCap" = 15   $ IP Tech: PkgAC1SpH-65to135-E11
 "RatedEER" = 11   $ IP Tech: PkgAC1SpH-65to135-E11
 "RatedSupMtrClass" = HiEff   $ IP Tech: PkgAC1SpH-65to135-E11
 "SizeRange" = 65to135   $ IP Tech: PkgAC1SpH-65to135-E11
 "SupMotEff" = 0.84   $ IP Tech: PkgAC1SpH-65to135-E11
 "Tier" = 0   $ IP Tech: PkgAC1SpH-65to135-E11
 "FanPwrMult" = 1   $ IP Tech: PkgFurn-0.80AFUE
 "FurnAFUE" = 0.8   $ IP Tech: PkgFurn-0.80AFUE
 "FurnEt" = 0.82   $ IP Tech: PkgFurn-0.80AFUE
 "FurnaceAuxKW" = 0.1   $ IP Tech: PkgFurn-0.80AFUE
 "HIR_fPLR" = Furnace-HIR-fPLR   $ IP Tech: PkgFurn-0.80AFUE
 "VSM" = FALSE   $ IP Tech: PkgFurn-0.80AFUE
 "BFMult" = 1   $ IP Tech: RefgChg-NRes-Std
 "CoolEirMult" = 1   $ IP Tech: RefgChg-NRes-Std
 "SensCoolCapMult" = 1   $ IP Tech: RefgChg-NRes-Std
 "TotCoolCapMult" = 1   $ IP Tech: RefgChg-NRes-Std
 "AltAdjFactor" = 1.027678   $ Sizing
 "CAssFlo_L_Break_CZn" = 600.338   $ Sizing
 "CAssFlo_L_Conf_CZn" = 579.6642   $ Sizing
 "CAssFlo_L_CopyRm_CZn" = 191.3875   $ Sizing
 "CAssFlo_L_Cordr_CZn" = 695.6032   $ Sizing
 "CAssFlo_L_Cordr_EZn" = 250.3721   $ Sizing
 "CAssFlo_L_Cordr_NZn" = 173.4943   $ Sizing
 "CAssFlo_L_Cordr_SZn" = 258.4459   $ Sizing
 "CAssFlo_L_Cordr_WZn" = 284.1268   $ Sizing
 "CAssFlo_L_LobWait_CZn" = 600.6239   $ Sizing
 "CAssFlo_L_MechElec_CZn" = 139.8403   $ Sizing
 "CAssFlo_L_OfficeOpn_CZn" = 1921.761   $ Sizing
 "CAssFlo_L_OfficeOpn_EZn" = 1747.883   $ Sizing
 "CAssFlo_L_OfficeOpn_NZn" = 1273.698   $ Sizing
 "CAssFlo_L_OfficeOpn_SZn" = 1780.616   $ Sizing
 "CAssFlo_L_OfficeOpn_WZn" = 2020.022   $ Sizing
 "CAssFlo_L_OfficeSm_CZn" = 252.5177   $ Sizing
 "CAssFlo_L_OfficeSm_EZn" = 1241.068   $ Sizing
 "CAssFlo_L_OfficeSm_NZn" = 838.9645   $ Sizing
 "CAssFlo_L_OfficeSm_SZn" = 1257.787   $ Sizing
 "CAssFlo_L_OfficeSm_WZn" = 1425.356   $ Sizing
 "CAssFlo_L_Restrm_CZn" = 99.60304   $ Sizing
 "CAssFlo_L_StorSm_CZn" = 433.6482   $ Sizing
 "CAssFlo_M_Break_CZn" = 605.3563   $ Sizing
 "CAssFlo_M_Conf_CZn" = 578.273   $ Sizing
 "CAssFlo_M_CopyRm_CZn" = 185.297   $ Sizing
 "CAssFlo_M_Cordr_CZn" = 960.3359   $ Sizing
 "CAssFlo_M_Cordr_EZn" = 284.3625   $ Sizing
 "CAssFlo_M_Cordr_NZn" = 191.5845   $ Sizing
 "CAssFlo_M_Cordr_SZn" = 282.7988   $ Sizing
 "CAssFlo_M_Cordr_WZn" = 300.3755   $ Sizing
 "CAssFlo_M_LobWait_CZn" = 620.645   $ Sizing
 "CAssFlo_M_MechElec_CZn" = 174.1229   $ Sizing
 "CAssFlo_M_OfficeOpn_CZn" = 2098.223   $ Sizing
 "CAssFlo_M_OfficeOpn_EZn" = 1864.358   $ Sizing
 "CAssFlo_M_OfficeOpn_NZn" = 1343.416   $ Sizing
 "CAssFlo_M_OfficeOpn_SZn" = 1885.713   $ Sizing
 "CAssFlo_M_OfficeOpn_WZn" = 2075.65   $ Sizing
 "CAssFlo_M_OfficeSm_CZn" = 308.8626   $ Sizing
 "CAssFlo_M_OfficeSm_EZn" = 1308.168   $ Sizing
 "CAssFlo_M_OfficeSm_NZn" = 879.1031   $ Sizing
 "CAssFlo_M_OfficeSm_SZn" = 1321.576   $ Sizing
 "CAssFlo_M_OfficeSm_WZn" = 1454.19   $ Sizing
 "CAssFlo_M_Restrm_CZn" = 121.0116   $ Sizing
 "CAssFlo_M_StorSm_CZn" = 455.2976   $ Sizing
 "CAssFlo_T_Break_CZn" = 594.8045   $ Sizing
 "CAssFlo_T_Conf_CZn" = 571.8956   $ Sizing
 "CAssFlo_T_CopyRm_CZn" = 183.9771   $ Sizing
 "CAssFlo_T_Cordr_CZn" = 899.5665   $ Sizing
 "CAssFlo_T_Cordr_EZn" = 276.2117   $ Sizing
 "CAssFlo_T_Cordr_NZn" = 191.7876   $ Sizing
 "CAssFlo_T_Cordr_SZn" = 285.4988   $ Sizing
 "CAssFlo_T_Cordr_WZn" = 298.185   $ Sizing
 "CAssFlo_T_LobWait_CZn" = 615.6594   $ Sizing
 "CAssFlo_T_MechElec_CZn" = 193.8104   $ Sizing
 "CAssFlo_T_OfficeOpn_CZn" = 1961.931   $ Sizing
 "CAssFlo_T_OfficeOpn_EZn" = 1836.621   $ Sizing
 "CAssFlo_T_OfficeOpn_NZn" = 1351.197   $ Sizing
 "CAssFlo_T_OfficeOpn_SZn" = 1919.415   $ Sizing
 "CAssFlo_T_OfficeOpn_WZn" = 2056.514   $ Sizing
 "CAssFlo_T_OfficeSm_CZn" = 300.743   $ Sizing
 "CAssFlo_T_OfficeSm_EZn" = 1320.601   $ Sizing
 "CAssFlo_T_OfficeSm_NZn" = 891.712   $ Sizing
 "CAssFlo_T_OfficeSm_SZn" = 1358.75   $ Sizing
 "CAssFlo_T_OfficeSm_WZn" = 1467.473   $ Sizing
 "CAssFlo_T_Restrm_CZn" = 139.8137   $ Sizing
 "CAssFlo_T_StorSm_CZn" = 307.4282   $ Sizing
 "CHRtFlo_Sys_L_Break_C" = 600.338   $ Sizing
 "CHRtFlo_Sys_L_Conf_C" = 579.6642   $ Sizing
 "CHRtFlo_Sys_L_CopyRm_C" = 191.3875   $ Sizing
 "CHRtFlo_Sys_L_Cordr_C" = 695.6031   $ Sizing
 "CHRtFlo_Sys_L_Cordr_E" = 272.7492   $ Sizing
 "CHRtFlo_Sys_L_Cordr_N" = 173.4943   $ Sizing
 "CHRtFlo_Sys_L_Cordr_S" = 269.6655   $ Sizing
 "CHRtFlo_Sys_L_Cordr_W" = 284.1268   $ Sizing
 "CHRtFlo_Sys_L_LobWait_C" = 600.6239   $ Sizing
 "CHRtFlo_Sys_L_MechElec_C" = 141.2045   $ Sizing
 "CHRtFlo_Sys_L_OfficeOpn_C" = 1921.761   $ Sizing
 "CHRtFlo_Sys_L_OfficeOpn_E" = 1965.803   $ Sizing
 "CHRtFlo_Sys_L_OfficeOpn_N" = 1273.698   $ Sizing
 "CHRtFlo_Sys_L_OfficeOpn_S" = 1941.752   $ Sizing
 "CHRtFlo_Sys_L_OfficeOpn_W" = 2032.949   $ Sizing
 "CHRtFlo_Sys_L_OfficeSm_C" = 265.5935   $ Sizing
 "CHRtFlo_Sys_L_OfficeSm_E" = 1434.404   $ Sizing
 "CHRtFlo_Sys_L_OfficeSm_N" = 838.9646   $ Sizing
 "CHRtFlo_Sys_L_OfficeSm_S" = 1432.391   $ Sizing
 "CHRtFlo_Sys_L_OfficeSm_W" = 1480.178   $ Sizing
 "CHRtFlo_Sys_L_Restrm_C" = 216.0974   $ Sizing
 "CHRtFlo_Sys_L_StorSm_C" = 433.6482   $ Sizing
 "CHRtFlo_Sys_M_Break_C" = 4842.85   $ Sizing
 "CHRtFlo_Sys_M_Conf_C" = 4626.184   $ Sizing
 "CHRtFlo_Sys_M_CopyRm_C" = 1482.376   $ Sizing
 "CHRtFlo_Sys_M_Cordr_C" = 8173.812   $ Sizing
 "CHRtFlo_Sys_M_Cordr_E" = 2556.092   $ Sizing
 "CHRtFlo_Sys_M_Cordr_N" = 1532.676   $ Sizing
 "CHRtFlo_Sys_M_Cordr_S" = 2451.287   $ Sizing
 "CHRtFlo_Sys_M_Cordr_W" = 2403.005   $ Sizing
 "CHRtFlo_Sys_M_LobWait_C" = 4965.16   $ Sizing
 "CHRtFlo_Sys_M_MechElec_C" = 1441.571   $ Sizing
 "CHRtFlo_Sys_M_OfficeOpn_C" = 17285.58   $ Sizing
 "CHRtFlo_Sys_M_OfficeOpn_E" = 17041.11   $ Sizing
 "CHRtFlo_Sys_M_OfficeOpn_N" = 10747.33   $ Sizing
 "CHRtFlo_Sys_M_OfficeOpn_S" = 16707.8   $ Sizing
 "CHRtFlo_Sys_M_OfficeOpn_W" = 16827.03   $ Sizing
 "CHRtFlo_Sys_M_OfficeSm_C" = 2693.093   $ Sizing
 "CHRtFlo_Sys_M_OfficeSm_E" = 12292.52   $ Sizing
 "CHRtFlo_Sys_M_OfficeSm_N" = 7032.824   $ Sizing
 "CHRtFlo_Sys_M_OfficeSm_S" = 12166.06   $ Sizing
 "CHRtFlo_Sys_M_OfficeSm_W" = 12146.44   $ Sizing
 "CHRtFlo_Sys_M_Restrm_C" = 1728.779   $ Sizing
 "CHRtFlo_Sys_M_StorSm_C" = 3642.381   $ Sizing
 "CHRtFlo_Sys_T_Break_C" = 594.8045   $ Sizing
 "CHRtFlo_Sys_T_Conf_C" = 571.8956   $ Sizing
 "CHRtFlo_Sys_T_CopyRm_C" = 183.9771   $ Sizing
 "CHRtFlo_Sys_T_Cordr_C" = 899.5665   $ Sizing
 "CHRtFlo_Sys_T_Cordr_E" = 283.0344   $ Sizing
 "CHRtFlo_Sys_T_Cordr_N" = 191.7876   $ Sizing
 "CHRtFlo_Sys_T_Cordr_S" = 285.4988   $ Sizing
 "CHRtFlo_Sys_T_Cordr_W" = 298.185   $ Sizing
 "CHRtFlo_Sys_T_LobWait_C" = 615.6594   $ Sizing
 "CHRtFlo_Sys_T_MechElec_C" = 208.2828   $ Sizing
 "CHRtFlo_Sys_T_OfficeOpn_C" = 1961.931   $ Sizing
 "CHRtFlo_Sys_T_OfficeOpn_E" = 1943.016   $ Sizing
 "CHRtFlo_Sys_T_OfficeOpn_N" = 1351.197   $ Sizing
 "CHRtFlo_Sys_T_OfficeOpn_S" = 1953.942   $ Sizing
 "CHRtFlo_Sys_T_OfficeOpn_W" = 2056.514   $ Sizing
 "CHRtFlo_Sys_T_OfficeSm_C" = 300.743   $ Sizing
 "CHRtFlo_Sys_T_OfficeSm_E" = 1440.251   $ Sizing
 "CHRtFlo_Sys_T_OfficeSm_N" = 891.712   $ Sizing
 "CHRtFlo_Sys_T_OfficeSm_S" = 1455.989   $ Sizing
 "CHRtFlo_Sys_T_OfficeSm_W" = 1467.473   $ Sizing
 "CHRtFlo_Sys_T_Restrm_C" = 216.0974   $ Sizing
 "CHRtFlo_Sys_T_StorSm_C" = 340.7697   $ Sizing
 "CRtdFlo_Sys_L_Break_C" = 600.338   $ Sizing
 "CRtdFlo_Sys_L_Conf_C" = 579.6642   $ Sizing
 "CRtdFlo_Sys_L_CopyRm_C" = 191.3875   $ Sizing
 "CRtdFlo_Sys_L_Cordr_C" = 695.6031   $ Sizing
 "CRtdFlo_Sys_L_Cordr_E" = 250.3721   $ Sizing
 "CRtdFlo_Sys_L_Cordr_N" = 173.4943   $ Sizing
 "CRtdFlo_Sys_L_Cordr_S" = 258.4459   $ Sizing
 "CRtdFlo_Sys_L_Cordr_W" = 284.1268   $ Sizing
 "CRtdFlo_Sys_L_LobWait_C" = 600.6239   $ Sizing
 "CRtdFlo_Sys_L_MechElec_C" = 139.8403   $ Sizing
 "CRtdFlo_Sys_L_OfficeOpn_C" = 1921.761   $ Sizing
 "CRtdFlo_Sys_L_OfficeOpn_E" = 1747.883   $ Sizing
 "CRtdFlo_Sys_L_OfficeOpn_N" = 1273.698   $ Sizing
 "CRtdFlo_Sys_L_OfficeOpn_S" = 1780.616   $ Sizing
 "CRtdFlo_Sys_L_OfficeOpn_W" = 2020.022   $ Sizing
 "CRtdFlo_Sys_L_OfficeSm_C" = 252.5177   $ Sizing
 "CRtdFlo_Sys_L_OfficeSm_E" = 1241.068   $ Sizing
 "CRtdFlo_Sys_L_OfficeSm_N" = 838.9646   $ Sizing
 "CRtdFlo_Sys_L_OfficeSm_S" = 1257.787   $ Sizing
 "CRtdFlo_Sys_L_OfficeSm_W" = 1425.356   $ Sizing
 "CRtdFlo_Sys_L_Restrm_C" = 99.60304   $ Sizing
 "CRtdFlo_Sys_L_StorSm_C" = 433.6482   $ Sizing
 "CRtdFlo_Sys_M_Break_C" = 4842.85   $ Sizing
 "CRtdFlo_Sys_M_Conf_C" = 4626.184   $ Sizing
 "CRtdFlo_Sys_M_CopyRm_C" = 1482.376   $ Sizing
 "CRtdFlo_Sys_M_Cordr_C" = 7682.688   $ Sizing
 "CRtdFlo_Sys_M_Cordr_E" = 2274.9   $ Sizing
 "CRtdFlo_Sys_M_Cordr_N" = 1532.525   $ Sizing
 "CRtdFlo_Sys_M_Cordr_S" = 2262.39   $ Sizing
 "CRtdFlo_Sys_M_Cordr_W" = 2403.005   $ Sizing
 "CRtdFlo_Sys_M_LobWait_C" = 4965.16   $ Sizing
 "CRtdFlo_Sys_M_MechElec_C" = 1392.984   $ Sizing
 "CRtdFlo_Sys_M_OfficeOpn_C" = 16785.78   $ Sizing
 "CRtdFlo_Sys_M_OfficeOpn_E" = 14914.87   $ Sizing
 "CRtdFlo_Sys_M_OfficeOpn_N" = 10747.33   $ Sizing
 "CRtdFlo_Sys_M_OfficeOpn_S" = 15085.7   $ Sizing
 "CRtdFlo_Sys_M_OfficeOpn_W" = 16605.2   $ Sizing
 "CRtdFlo_Sys_M_OfficeSm_C" = 2470.901   $ Sizing
 "CRtdFlo_Sys_M_OfficeSm_E" = 10465.35   $ Sizing
 "CRtdFlo_Sys_M_OfficeSm_N" = 7032.824   $ Sizing
 "CRtdFlo_Sys_M_OfficeSm_S" = 10572.6   $ Sizing
 "CRtdFlo_Sys_M_OfficeSm_W" = 11633.52   $ Sizing
 "CRtdFlo_Sys_M_Restrm_C" = 968.0924   $ Sizing
 "CRtdFlo_Sys_M_StorSm_C" = 3642.381   $ Sizing
 "CRtdFlo_Sys_T_Break_C" = 594.8045   $ Sizing
 "CRtdFlo_Sys_T_Conf_C" = 571.8956   $ Sizing
 "CRtdFlo_Sys_T_CopyRm_C" = 183.9771   $ Sizing
 "CRtdFlo_Sys_T_Cordr_C" = 899.5665   $ Sizing
 "CRtdFlo_Sys_T_Cordr_E" = 276.2117   $ Sizing
 "CRtdFlo_Sys_T_Cordr_N" = 191.7876   $ Sizing
 "CRtdFlo_Sys_T_Cordr_S" = 285.4988   $ Sizing
 "CRtdFlo_Sys_T_Cordr_W" = 298.185   $ Sizing
 "CRtdFlo_Sys_T_LobWait_C" = 615.6594   $ Sizing
 "CRtdFlo_Sys_T_MechElec_C" = 193.8104   $ Sizing
 "CRtdFlo_Sys_T_OfficeOpn_C" = 1961.931   $ Sizing
 "CRtdFlo_Sys_T_OfficeOpn_E" = 1836.621   $ Sizing
 "CRtdFlo_Sys_T_OfficeOpn_N" = 1351.197   $ Sizing
 "CRtdFlo_Sys_T_OfficeOpn_S" = 1919.415   $ Sizing
 "CRtdFlo_Sys_T_OfficeOpn_W" = 2056.514   $ Sizing
 "CRtdFlo_Sys_T_OfficeSm_C" = 300.743   $ Sizing
 "CRtdFlo_Sys_T_OfficeSm_E" = 1320.601   $ Sizing
 "CRtdFlo_Sys_T_OfficeSm_N" = 891.712   $ Sizing
 "CRtdFlo_Sys_T_OfficeSm_S" = 1358.75   $ Sizing
 "CRtdFlo_Sys_T_OfficeSm_W" = 1467.473   $ Sizing
 "CRtdFlo_Sys_T_Restrm_C" = 139.8137   $ Sizing
 "CRtdFlo_Sys_T_StorSm_C" = 307.4282   $ Sizing
 "CSupFlo_Sys_L_Break_C" = 600.338   $ Sizing
 "CSupFlo_Sys_L_Conf_C" = 579.6642   $ Sizing
 "CSupFlo_Sys_L_CopyRm_C" = 191.3875   $ Sizing
 "CSupFlo_Sys_L_Cordr_C" = 695.6031   $ Sizing
 "CSupFlo_Sys_L_Cordr_E" = 250.3721   $ Sizing
 "CSupFlo_Sys_L_Cordr_N" = 173.4943   $ Sizing
 "CSupFlo_Sys_L_Cordr_S" = 258.4459   $ Sizing
 "CSupFlo_Sys_L_Cordr_W" = 284.1268   $ Sizing
 "CSupFlo_Sys_L_LobWait_C" = 600.6239   $ Sizing
 "CSupFlo_Sys_L_MechElec_C" = 139.8403   $ Sizing
 "CSupFlo_Sys_L_OfficeOpn_C" = 1921.761   $ Sizing
 "CSupFlo_Sys_L_OfficeOpn_E" = 1747.883   $ Sizing
 "CSupFlo_Sys_L_OfficeOpn_N" = 1273.698   $ Sizing
 "CSupFlo_Sys_L_OfficeOpn_S" = 1780.616   $ Sizing
 "CSupFlo_Sys_L_OfficeOpn_W" = 2020.022   $ Sizing
 "CSupFlo_Sys_L_OfficeSm_C" = 252.5177   $ Sizing
 "CSupFlo_Sys_L_OfficeSm_E" = 1241.068   $ Sizing
 "CSupFlo_Sys_L_OfficeSm_N" = 838.9646   $ Sizing
 "CSupFlo_Sys_L_OfficeSm_S" = 1257.787   $ Sizing
 "CSupFlo_Sys_L_OfficeSm_W" = 1425.356   $ Sizing
 "CSupFlo_Sys_L_Restrm_C" = 99.60304   $ Sizing
 "CSupFlo_Sys_L_StorSm_C" = 433.6482   $ Sizing
 "CSupFlo_Sys_M_Break_C" = 4842.85   $ Sizing
 "CSupFlo_Sys_M_Conf_C" = 4626.184   $ Sizing
 "CSupFlo_Sys_M_CopyRm_C" = 1482.376   $ Sizing
 "CSupFlo_Sys_M_Cordr_C" = 7682.688   $ Sizing
 "CSupFlo_Sys_M_Cordr_E" = 2274.9   $ Sizing
 "CSupFlo_Sys_M_Cordr_N" = 1532.525   $ Sizing
 "CSupFlo_Sys_M_Cordr_S" = 2262.39   $ Sizing
 "CSupFlo_Sys_M_Cordr_W" = 2403.005   $ Sizing
 "CSupFlo_Sys_M_LobWait_C" = 4965.16   $ Sizing
 "CSupFlo_Sys_M_MechElec_C" = 1392.984   $ Sizing
 "CSupFlo_Sys_M_OfficeOpn_C" = 16785.78   $ Sizing
 "CSupFlo_Sys_M_OfficeOpn_E" = 14914.87   $ Sizing
 "CSupFlo_Sys_M_OfficeOpn_N" = 10747.33   $ Sizing
 "CSupFlo_Sys_M_OfficeOpn_S" = 15085.7   $ Sizing
 "CSupFlo_Sys_M_OfficeOpn_W" = 16605.2   $ Sizing
 "CSupFlo_Sys_M_OfficeSm_C" = 2470.901   $ Sizing
 "CSupFlo_Sys_M_OfficeSm_E" = 10465.35   $ Sizing
 "CSupFlo_Sys_M_OfficeSm_N" = 7032.824   $ Sizing
 "CSupFlo_Sys_M_OfficeSm_S" = 10572.6   $ Sizing
 "CSupFlo_Sys_M_OfficeSm_W" = 11633.52   $ Sizing
 "CSupFlo_Sys_M_Restrm_C" = 968.0924   $ Sizing
 "CSupFlo_Sys_M_StorSm_C" = 3642.381   $ Sizing
 "CSupFlo_Sys_T_Break_C" = 594.8045   $ Sizing
 "CSupFlo_Sys_T_Conf_C" = 571.8956   $ Sizing
 "CSupFlo_Sys_T_CopyRm_C" = 183.9771   $ Sizing
 "CSupFlo_Sys_T_Cordr_C" = 899.5665   $ Sizing
 "CSupFlo_Sys_T_Cordr_E" = 276.2117   $ Sizing
 "CSupFlo_Sys_T_Cordr_N" = 191.7876   $ Sizing
 "CSupFlo_Sys_T_Cordr_S" = 285.4988   $ Sizing
 "CSupFlo_Sys_T_Cordr_W" = 298.185   $ Sizing
 "CSupFlo_Sys_T_LobWait_C" = 615.6594   $ Sizing
 "CSupFlo_Sys_T_MechElec_C" = 193.8104   $ Sizing
 "CSupFlo_Sys_T_OfficeOpn_C" = 1961.931   $ Sizing
 "CSupFlo_Sys_T_OfficeOpn_E" = 1836.621   $ Sizing
 "CSupFlo_Sys_T_OfficeOpn_N" = 1351.197   $ Sizing
 "CSupFlo_Sys_T_OfficeOpn_S" = 1919.415   $ Sizing
 "CSupFlo_Sys_T_OfficeOpn_W" = 2056.514   $ Sizing
 "CSupFlo_Sys_T_OfficeSm_C" = 300.743   $ Sizing
 "CSupFlo_Sys_T_OfficeSm_E" = 1320.601   $ Sizing
 "CSupFlo_Sys_T_OfficeSm_N" = 891.712   $ Sizing
 "CSupFlo_Sys_T_OfficeSm_S" = 1358.75   $ Sizing
 "CSupFlo_Sys_T_OfficeSm_W" = 1467.473   $ Sizing
 "CSupFlo_Sys_T_Restrm_C" = 139.8137   $ Sizing
 "CSupFlo_Sys_T_StorSm_C" = 307.4282   $ Sizing
 "ClCap_Sys_L_Break_C" = 20028.65   $ Sizing
 "ClCap_Sys_L_Conf_C" = 24613.19   $ Sizing
 "ClCap_Sys_L_CopyRm_C" = 6385.127   $ Sizing
 "ClCap_Sys_L_Cordr_C" = 23206.92   $ Sizing
 "ClCap_Sys_L_Cordr_E" = 8352.99   $ Sizing
 "ClCap_Sys_L_Cordr_N" = 5788.169   $ Sizing
 "ClCap_Sys_L_Cordr_S" = 8622.348   $ Sizing
 "ClCap_Sys_L_Cordr_W" = 9479.123   $ Sizing
 "ClCap_Sys_L_LobWait_C" = 20038.19   $ Sizing
 "ClCap_Sys_L_MechElec_C" = 4665.394   $ Sizing
 "ClCap_Sys_L_OfficeOpn_C" = 64114.37   $ Sizing
 "ClCap_Sys_L_OfficeOpn_E" = 58313.38   $ Sizing
 "ClCap_Sys_L_OfficeOpn_N" = 42493.5   $ Sizing
 "ClCap_Sys_L_OfficeOpn_S" = 59405.44   $ Sizing
 "ClCap_Sys_L_OfficeOpn_W" = 67392.56   $ Sizing
 "ClCap_Sys_L_OfficeSm_C" = 8424.57   $ Sizing
 "ClCap_Sys_L_OfficeSm_E" = 41404.89   $ Sizing
 "ClCap_Sys_L_OfficeSm_N" = 27989.79   $ Sizing
 "ClCap_Sys_L_OfficeSm_S" = 41962.65   $ Sizing
 "ClCap_Sys_L_OfficeSm_W" = 47553.17   $ Sizing
 "ClCap_Sys_L_Restrm_C" = 3322.986   $ Sizing
 "ClCap_Sys_L_StorSm_C" = 14467.5   $ Sizing
 "ClCap_Sys_M_Break_C" = 161568.6   $ Sizing
 "ClCap_Sys_M_Conf_C" = 196432.9   $ Sizing
 "ClCap_Sys_M_CopyRm_C" = 49455.46   $ Sizing
 "ClCap_Sys_M_Cordr_C" = 256312.1   $ Sizing
 "ClCap_Sys_M_Cordr_E" = 75895.89   $ Sizing
 "ClCap_Sys_M_Cordr_N" = 51128.57   $ Sizing
 "ClCap_Sys_M_Cordr_S" = 75478.53   $ Sizing
 "ClCap_Sys_M_Cordr_W" = 80169.76   $ Sizing
 "ClCap_Sys_M_LobWait_C" = 165649.2   $ Sizing
 "ClCap_Sys_M_MechElec_C" = 46473.13   $ Sizing
 "ClCap_Sys_M_OfficeOpn_C" = 560012.3   $ Sizing
 "ClCap_Sys_M_OfficeOpn_E" = 497594.2   $ Sizing
 "ClCap_Sys_M_OfficeOpn_N" = 358555.6   $ Sizing
 "ClCap_Sys_M_OfficeOpn_S" = 503293.7   $ Sizing
 "ClCap_Sys_M_OfficeOpn_W" = 553987.6   $ Sizing
 "ClCap_Sys_M_OfficeSm_C" = 82434.94   $ Sizing
 "ClCap_Sys_M_OfficeSm_E" = 349148   $ Sizing
 "ClCap_Sys_M_OfficeSm_N" = 234631.2   $ Sizing
 "ClCap_Sys_M_OfficeSm_S" = 352726.4   $ Sizing
 "ClCap_Sys_M_OfficeSm_W" = 388120.9   $ Sizing
 "ClCap_Sys_M_Restrm_C" = 32297.79   $ Sizing
 "ClCap_Sys_M_StorSm_C" = 121518.2   $ Sizing
 "ClCap_Sys_T_Break_C" = 19844.04   $ Sizing
 "ClCap_Sys_T_Conf_C" = 24283.32   $ Sizing
 "ClCap_Sys_T_CopyRm_C" = 6137.899   $ Sizing
 "ClCap_Sys_T_Cordr_C" = 30011.61   $ Sizing
 "ClCap_Sys_T_Cordr_E" = 9215.057   $ Sizing
 "ClCap_Sys_T_Cordr_N" = 6398.475   $ Sizing
 "ClCap_Sys_T_Cordr_S" = 9524.897   $ Sizing
 "ClCap_Sys_T_Cordr_W" = 9948.138   $ Sizing
 "ClCap_Sys_T_LobWait_C" = 20539.81   $ Sizing
 "ClCap_Sys_T_MechElec_C" = 6465.959   $ Sizing
 "ClCap_Sys_T_OfficeOpn_C" = 65454.52   $ Sizing
 "ClCap_Sys_T_OfficeOpn_E" = 61273.91   $ Sizing
 "ClCap_Sys_T_OfficeOpn_N" = 45079.05   $ Sizing
 "ClCap_Sys_T_OfficeOpn_S" = 64036.08   $ Sizing
 "ClCap_Sys_T_OfficeOpn_W" = 68610.04   $ Sizing
 "ClCap_Sys_T_OfficeSm_C" = 10033.48   $ Sizing
 "ClCap_Sys_T_OfficeSm_E" = 44058.3   $ Sizing
 "ClCap_Sys_T_OfficeSm_N" = 29749.56   $ Sizing
 "ClCap_Sys_T_OfficeSm_S" = 45331.04   $ Sizing
 "ClCap_Sys_T_OfficeSm_W" = 48958.27   $ Sizing
 "ClCap_Sys_T_Restrm_C" = 4664.505   $ Sizing
 "ClCap_Sys_T_StorSm_C" = 10256.51   $ Sizing
 "HtCap_Sys_L_Break_C" = -30509.3   $ Sizing
 "HtCap_Sys_L_Conf_C" = -30552.85   $ Sizing
 "HtCap_Sys_L_CopyRm_C" = -11336.75   $ Sizing
 "HtCap_Sys_L_Cordr_C" = -28335.67   $ Sizing
 "HtCap_Sys_L_Cordr_E" = -9071.566   $ Sizing
 "HtCap_Sys_L_Cordr_N" = -6566.609   $ Sizing
 "HtCap_Sys_L_Cordr_S" = -8939.894   $ Sizing
 "HtCap_Sys_L_Cordr_W" = -9372.324   $ Sizing
 "HtCap_Sys_L_LobWait_C" = -29643.05   $ Sizing
 "HtCap_Sys_L_MechElec_C" = -6007.947   $ Sizing
 "HtCap_Sys_L_OfficeOpn_C" = -91738.1   $ Sizing
 "HtCap_Sys_L_OfficeOpn_E" = -62226.61   $ Sizing
 "HtCap_Sys_L_OfficeOpn_N" = -43970.45   $ Sizing
 "HtCap_Sys_L_OfficeOpn_S" = -61405.97   $ Sizing
 "HtCap_Sys_L_OfficeOpn_W" = -64033.79   $ Sizing
 "HtCap_Sys_L_OfficeSm_C" = -12633.04   $ Sizing
 "HtCap_Sys_L_OfficeSm_E" = -44117.64   $ Sizing
 "HtCap_Sys_L_OfficeSm_N" = -28894.92   $ Sizing
 "HtCap_Sys_L_OfficeSm_S" = -44900.32   $ Sizing
 "HtCap_Sys_L_OfficeSm_W" = -46308.38   $ Sizing
 "HtCap_Sys_L_Restrm_C" = -7763.284   $ Sizing
 "HtCap_Sys_L_StorSm_C" = -17351.55   $ Sizing
 "HtCap_Sys_M_Break_C" = -234106.6   $ Sizing
 "HtCap_Sys_M_Conf_C" = -227742.8   $ Sizing
 "HtCap_Sys_M_CopyRm_C" = -77910.2   $ Sizing
 "HtCap_Sys_M_Cordr_C" = -295777.3   $ Sizing
 "HtCap_Sys_M_Cordr_E" = -82777.23   $ Sizing
 "HtCap_Sys_M_Cordr_N" = -54179.52   $ Sizing
 "HtCap_Sys_M_Cordr_S" = -79401.69   $ Sizing
 "HtCap_Sys_M_Cordr_W" = -78691.08   $ Sizing
 "HtCap_Sys_M_LobWait_C" = -215996.3   $ Sizing
 "HtCap_Sys_M_MechElec_C" = -56661.38   $ Sizing
 "HtCap_Sys_M_OfficeOpn_C" = -823093.3   $ Sizing
 "HtCap_Sys_M_OfficeOpn_E" = -815101.2   $ Sizing
 "HtCap_Sys_M_OfficeOpn_N" = -366369.8   $ Sizing
 "HtCap_Sys_M_OfficeOpn_S" = -794893.1   $ Sizing
 "HtCap_Sys_M_OfficeOpn_W" = -526295.6   $ Sizing
 "HtCap_Sys_M_OfficeSm_C" = -127264.2   $ Sizing
 "HtCap_Sys_M_OfficeSm_E" = -375962   $ Sizing
 "HtCap_Sys_M_OfficeSm_N" = -238613.6   $ Sizing
 "HtCap_Sys_M_OfficeSm_S" = -377515.6   $ Sizing
 "HtCap_Sys_M_OfficeSm_W" = -377546.7   $ Sizing
 "HtCap_Sys_M_Restrm_C" = -66780.91   $ Sizing
 "HtCap_Sys_M_StorSm_C" = -142626.4   $ Sizing
 "HtCap_Sys_T_Break_C" = -30804.13   $ Sizing
 "HtCap_Sys_T_Conf_C" = -30093   $ Sizing
 "HtCap_Sys_T_CopyRm_C" = -10442.57   $ Sizing
 "HtCap_Sys_T_Cordr_C" = -35900.54   $ Sizing
 "HtCap_Sys_T_Cordr_E" = -10163.5   $ Sizing
 "HtCap_Sys_T_Cordr_N" = -7634.938   $ Sizing
 "HtCap_Sys_T_Cordr_S" = -10030.61   $ Sizing
 "HtCap_Sys_T_Cordr_W" = -10830.17   $ Sizing
 "HtCap_Sys_T_LobWait_C" = -29136.34   $ Sizing
 "HtCap_Sys_T_MechElec_C" = -7857.806   $ Sizing
 "HtCap_Sys_T_OfficeOpn_C" = -92996.67   $ Sizing
 "HtCap_Sys_T_OfficeOpn_E" = -66396.48   $ Sizing
 "HtCap_Sys_T_OfficeOpn_N" = -50936.56   $ Sizing
 "HtCap_Sys_T_OfficeOpn_S" = -65783.84   $ Sizing
 "HtCap_Sys_T_OfficeOpn_W" = -70120.61   $ Sizing
 "HtCap_Sys_T_OfficeSm_C" = -14283.13   $ Sizing
 "HtCap_Sys_T_OfficeSm_E" = -48497.2   $ Sizing
 "HtCap_Sys_T_OfficeSm_N" = -33155.93   $ Sizing
 "HtCap_Sys_T_OfficeSm_S" = -49067.57   $ Sizing
 "HtCap_Sys_T_OfficeSm_W" = -50024.56   $ Sizing
 "HtCap_Sys_T_Restrm_C" = -8229.116   $ Sizing
 "HtCap_Sys_T_StorSm_C" = -15663.23   $ Sizing
..

##include Templates\OfL_DX_SZ.inp
END ..
COMPUTE ..
STOP ..
