INPUT ..

##fileprefix C:\Users\jglasskatz\MASControl3\
##set1 IsSizing FALSE
##set1 CoolType DX
##set1 HeatType FURNACE
##set1 EU_HrRepVar 0
##set1 BldgVint 2003
##set1 BldgLoc CZ09

 ##set1 mBFMult 1   $ IP Tech: RefgChg-NRes-Std

PARAMETER
 "AltFactor" = 1.02768   $ IP Non-Tech
 "BF_fFlow" = SpltAC1Sp-ge45_BF_fFlow   $ Msr (Multi)TechID: StdNResSplitAC-45to55
 "BF_fT" = SpltAC1Sp-ge45_BF_fT   $ Msr (Multi)TechID: StdNResSplitAC-45to55
 "BldgEconoFlag" = 1   $ IP Non-Tech
 "Break_EWSF" = 1   $ IP Non-Tech
 "Break_LWSF" = 1.1   $ IP Non-Tech
 "CDD_DBHi10" = 91   $ IP Non-Tech
 "CDD_DBHi7" = 91   $ IP Non-Tech
 "CDD_DBHi8" = 94   $ IP Non-Tech
 "CDD_DBHi9" = 100   $ IP Non-Tech
 "CDD_DBRange10" = 30   $ IP Non-Tech
 "CDD_DBRange7" = 19   $ IP Non-Tech
 "CDD_DBRange8" = 23   $ IP Non-Tech
 "CDD_DBRange9" = 24   $ IP Non-Tech
 "CDD_Day10" = 15   $ IP Non-Tech
 "CDD_Day7" = 16   $ IP Non-Tech
 "CDD_Day8" = 20   $ IP Non-Tech
 "CDD_Day9" = 17   $ IP Non-Tech
 "CDD_HrHi10" = 16   $ IP Non-Tech
 "CDD_HrHi7" = 16   $ IP Non-Tech
 "CDD_HrHi8" = 15   $ IP Non-Tech
 "CDD_HrHi9" = 13   $ IP Non-Tech
 "CDD_HrLo10" = 5   $ IP Non-Tech
 "CDD_HrLo7" = 6   $ IP Non-Tech
 "CDD_HrLo8" = 3   $ IP Non-Tech
 "CDD_HrLo9" = 7   $ IP Non-Tech
 "CDD_WB10" = 61.50949097   $ IP Non-Tech
 "CDD_WB7" = 74.70972443   $ IP Non-Tech
 "CDD_WB8" = 73.69755554   $ IP Non-Tech
 "CDD_WB9" = 73.82730103   $ IP Non-Tech
 "CEIR_fPLR_Hot" = SpltAC1Sp-ge45_CEIR_fPLR_Hot   $ Msr (Multi)TechID: StdNResSplitAC-45to55
 "CEIR_fPLR_Mod" = SpltAC1Sp-ge45_CEIR_fPLR_Mod   $ Msr (Multi)TechID: StdNResSplitAC-45to55
 "CEIR_fPLR_Tem" = SpltAC1Sp-ge45_CEIR_fPLR_Tem   $ Msr (Multi)TechID: StdNResSplitAC-45to55
 "CLoss_fPLR_Hot" = SpltAC1Sp-ge45_CLoss_fPLR_Hot   $ Msr (Multi)TechID: StdNResSplitAC-45to55
 "CLoss_fPLR_Mod" = SpltAC1Sp-ge45_CLoss_fPLR_Mod   $ Msr (Multi)TechID: StdNResSplitAC-45to55
 "CLoss_fPLR_Tem" = SpltAC1Sp-ge45_CLoss_fPLR_Tem   $ Msr (Multi)TechID: StdNResSplitAC-45to55
 "COP47" = 0   $ Msr (Multi)TechID: StdNResSplitAC-45to55
 "CZ_Category" = Mod   $ IP Non-Tech
 "CapRange" = ge45   $ Msr (Multi)TechID: StdNResSplitAC-45to55
 "CfmPerBtuh" = 0.03263   $ Msr (Multi)TechID: StdNResSplitAC-45to55
 "ChwVintEconoFlag" = 1   $ IP Non-Tech
 "ClCap_fT" = SpltAC1Sp-ge45_ClCap_fT   $ Msr (Multi)TechID: StdNResSplitAC-45to55
 "ClSH_fT" = SpltAC1Sp-ge45_ClSH_fT   $ Msr (Multi)TechID: StdNResSplitAC-45to55
 "CoilBF" = 0.106518182   $ Msr (Multi)TechID: StdNResSplitAC-45to55
 "CondWPerBtuh" = 0   $ Msr (Multi)TechID: StdNResSplitAC-45to55
 "Conference_EWSF" = 1   $ IP Non-Tech
 "Conference_LWSF" = 1.4   $ IP Non-Tech
 "CoolSensCap" = 0.759218182   $ Msr (Multi)TechID: StdNResSplitAC-45to55
 "CoolSetT" = 45   $ IP Non-Tech
 "CoolType" = DX   $ IP Non-Tech
 "CoolingEIR" = 0.2466   $ Msr (Multi)TechID: StdNResSplitAC-45to55
 "CopyRoom_EWSF" = 1.5   $ IP Non-Tech
 "CopyRoom_LWSF" = 1.3   $ IP Non-Tech
 "CorridorStairway_EWSF" = 0.2   $ IP Non-Tech
 "CorridorStairway_LWSF" = 0.6   $ IP Non-Tech
 "CrnkEIR" = 0.002466   $ Msr (Multi)TechID: StdNResSplitAC-45to55
 "CrnkMaxT" = 50   $ Msr (Multi)TechID: StdNResSplitAC-45to55
 "DXType" = SplitSEER   $ Msr (Multi)TechID: StdNResSplitAC-45to55
 "DesCoolT" = 75   $ IP Non-Tech
 "DesHeatT" = 73   $ IP Non-Tech
 "EER" = 11.81793103   $ Msr (Multi)TechID: StdNResSplitAC-45to55
 "EIR_fT" = SpltAC1Sp-ge45_EIR_fT   $ Msr (Multi)TechID: StdNResSplitAC-45to55
 "EconoCtrl" = FIXED   $ Msr (Multi)TechID: StdNResSplitAC-45to55
 "EconoEnthLimit" = 28   $ IP Non-Tech
 "EconoTempLimit" = 71   $ IP Non-Tech
 "Elevation" = 741   $ IP Non-Tech
 "FanEirPlr" = TwoSpeedFan   $ Msr (Multi)TechID: StdNResSplitAC-45to55
 "FanWPerCfm" = 0.294   $ Msr (Multi)TechID: StdNResSplitAC-45to55
 "HDD_CloudAmt1" = 0   $ IP Non-Tech
 "HDD_DBHi1" = 55   $ IP Non-Tech
 "HDD_DBRange1" = 18   $ IP Non-Tech
 "HDD_Day1" = 15   $ IP Non-Tech
 "HDD_HrHi1" = 15   $ IP Non-Tech
 "HDD_HrLo1" = 5   $ IP Non-Tech
 "HDD_WB1" = 48.4   $ IP Non-Tech
 "HDD_WindSpd1" = 10.4   $ IP Non-Tech
 "HIR_fT" = 0   $ Msr (Multi)TechID: StdNResSplitAC-45to55
 "HSPF" = 0   $ Msr (Multi)TechID: StdNResSplitAC-45to55
 "HeatSrc" = FURNACE   $ IP Non-Tech
 "HeatSrcTU" = HEAT-PUMP   $ IP Non-Tech
 "HeatType" = GasFurn   $ IP Non-Tech
 "HeatTypeTU" = HEAT-PUMP   $ IP Non-Tech
 "HtCap_fT" = 0   $ Msr (Multi)TechID: StdNResSplitAC-45to55
 "HtCoolCapRatio" = 0   $ Msr (Multi)TechID: StdNResSplitAC-45to55
 "HtgEIR" = 0   $ Msr (Multi)TechID: StdNResSplitAC-45to55
 "IndoorFanMode" = CONTINUOUS   $ IP Non-Tech
 "KT_TransferAir" = No   $ IP Non-Tech
 "Latitude" = 34.1   $ IP Non-Tech
 "LobbyWaiting_EWSF" = 0.5   $ IP Non-Tech
 "LobbyWaiting_LWSF" = 1.3   $ IP Non-Tech
 "Longitude" = 117.8   $ IP Non-Tech
 "LowSpdCapRatio" = 1   $ Msr (Multi)TechID: StdNResSplitAC-45to55
 "LowSpdCfmRatio" = 1   $ Msr (Multi)TechID: StdNResSplitAC-45to55
 "MZFanMechEff" = 0.58   $ IP Non-Tech
 "MZHasRetFan" = FALSE   $ IP Non-Tech
 "MZ_RFanWPerCfm" = 0.37   $ IP Non-Tech
 "MZ_SFanWPerCfm" = 0.71   $ IP Non-Tech
 "MZ_SupFanStatic" = 2.25   $ IP Non-Tech
 "MaxOAFrac" = 1   $ Msr (Multi)TechID: StdNResSplitAC-45to55
 "MaxSupT_MZ" = 100   $ IP Non-Tech
 "MaxSupT_SZ" = 100   $ IP Non-Tech
 "MaxSupT_TU" = 90   $ IP Non-Tech
 "MechElecRoom_EWSF" = 0.2   $ IP Non-Tech
 "MechElecRoom_LWSF" = 0.7   $ IP Non-Tech
 "MinCfmPerSF" = 0.4   $ IP Non-Tech
 "MinSupT" = 55   $ IP Non-Tech
 "NumStages" = 1   $ Msr (Multi)TechID: StdNResSplitAC-45to55
 "OccCoolT" = 76   $ IP Non-Tech
 "OccHeatT" = 72   $ IP Non-Tech
 "OfficeOpen_EWSF" = 1.5   $ IP Non-Tech
 "OfficeOpen_LWSF" = 1.2   $ IP Non-Tech
 "OfficeSmall_EWSF" = 1.5   $ IP Non-Tech
 "OfficeSmall_LWSF" = 1.3   $ IP Non-Tech
 "PkgDxVintEconoFlag" = 0   $ IP Non-Tech
 "Restroom_EWSF" = 0.2   $ IP Non-Tech
 "Restroom_LWSF" = 0.6   $ IP Non-Tech
 "SEER" = 14   $ Msr (Multi)TechID: StdNResSplitAC-45to55
 "SZFanMechEff" = 0.58   $ IP Non-Tech
 "SZHasRetFan" = FALSE   $ IP Non-Tech
 "SZ_Is_2Spd" = FALSE   $ IP Non-Tech
 "SZ_SFanWPerCfm" = 0.46   $ IP Non-Tech
 "SZ_SupFanStatic" = 0.75   $ IP Non-Tech
 "Sector" = Any   $ Msr (Multi)TechID: StdNResSplitAC-45to55
 "StorageSmlCond_EWSF" = 0.2   $ IP Non-Tech
 "StorageSmlCond_LWSF" = 0.6   $ IP Non-Tech
 "SubType" = AC   $ Msr (Multi)TechID: StdNResSplitAC-45to55
 "T24GlzTbl" = CZTbl   $ IP Non-Tech
 "TermUnitFanMechEff" = 1   $ IP Non-Tech
 "TermUnitFanMode" = INTERMITTENT   $ IP Non-Tech
 "TotCoolCap" = 52519.36364   $ Msr (Multi)TechID: StdNResSplitAC-45to55
 "TwrSetpt" = 86.9   $ IP Non-Tech
 "UnocCoolT" = 86   $ IP Non-Tech
 "UnocHeatT" = 62   $ IP Non-Tech
 "UseEconoVintApplic" = FALSE   $ Msr (Multi)TechID: StdNResSplitAC-45to55
 "WlhpVintEconoFlag" = 0   $ IP Non-Tech
 "DuctDT" = 1   $ IP Tech: ComDuctInsul-1
 "DuctAirLoss" = 0   $ IP Tech: ComDuctLeak-0
 "DuctLossOAFrac" = 0   $ IP Tech: ComDuctLeak-0
 "ComRoofInsCalc" = FromUo   $ IP Tech: ComRoofIns-Hvy-0.08
 "ComRoofInsR" = -999   $ IP Tech: ComRoofIns-Hvy-0.08
 "ComRoofUo" = 0.08   $ IP Tech: ComRoofIns-Hvy-0.08
 "ComEWInsCalc" = FromUo   $ IP Tech: ComWallIns-MFrm-0.14
 "ComEWInsR" = -999   $ IP Tech: ComWallIns-MFrm-0.14
 "ComEWUo" = 0.14   $ IP Tech: ComWallIns-MFrm-0.14
 "ComN_SHGC" = 0.61   $ IP Tech: NResWin-ComN-0.77-0.61
 "ComN_UFactor" = 0.77   $ IP Tech: NResWin-ComN-0.77-0.61
 "ComN_VisTrans" = 0.77   $ IP Tech: NResWin-ComN-0.77-0.61
 "ComN_WinCode" = G2600   $ IP Tech: NResWin-ComN-0.77-0.61
 "ComN_WinFrmFrac" = 0.17   $ IP Tech: NResWin-ComN-0.77-0.61
 "ComN_WinFrmU" = 1   $ IP Tech: NResWin-ComN-0.77-0.61
 "ComO_SHGC" = 0.34   $ IP Tech: NResWin-ComO-0.77-0.34
 "ComO_UFactor" = 0.77   $ IP Tech: NResWin-ComO-0.77-0.34
 "ComO_VisTrans" = 0.44   $ IP Tech: NResWin-ComO-0.77-0.34
 "ComO_WinCode" = G2636   $ IP Tech: NResWin-ComO-0.77-0.34
 "ComO_WinFrmFrac" = 0.17   $ IP Tech: NResWin-ComO-0.77-0.34
 "ComO_WinFrmU" = 1   $ IP Tech: NResWin-ComO-0.77-0.34
 "LtgMsrApplic" = ALL   $ IP Tech: NonResLtgRefPre
 "LtgSav_CFL" = 0   $ IP Tech: NonResLtgRefPre
 "LtgSav_EX" = 0   $ IP Tech: NonResLtgRefPre
 "LtgSav_HB" = 0   $ IP Tech: NonResLtgRefPre
 "LtgSav_LF" = 0   $ IP Tech: NonResLtgRefPre
 "LtgSav_SP" = 0   $ IP Tech: NonResLtgRefPre
 "CEIR_fPLR" = PSZ65to135_CEIR_fPLR   $ IP Tech: PkgAC1SpH-65to135-E10
 "CLoss_fPLR" = PSZ65to135_CLoss_fPLR   $ IP Tech: PkgAC1SpH-65to135-E10
 "COP" = -1   $ IP Tech: PkgAC1SpH-65to135-E10
 "HtgFuel" = Gas   $ IP Tech: PkgAC1SpH-65to135-E10
 "IEER" = 11.87   $ IP Tech: PkgAC1SpH-65to135-E10
 "NominalCap" = 15   $ IP Tech: PkgAC1SpH-65to135-E10
 "RatedEER" = 10   $ IP Tech: PkgAC1SpH-65to135-E10
 "RatedSupMtrClass" = HiEff   $ IP Tech: PkgAC1SpH-65to135-E10
 "SizeRange" = 65to135   $ IP Tech: PkgAC1SpH-65to135-E10
 "SupMotEff" = 0.84   $ IP Tech: PkgAC1SpH-65to135-E10
 "Tier" = 0   $ IP Tech: PkgAC1SpH-65to135-E10
 "FanPwrMult" = 1   $ IP Tech: PkgFurn-0.80AFUE
 "FurnAFUE" = 0.8   $ IP Tech: PkgFurn-0.80AFUE
 "FurnEt" = 0.82   $ IP Tech: PkgFurn-0.80AFUE
 "FurnaceAuxKW" = 0.1   $ IP Tech: PkgFurn-0.80AFUE
 "HIR_fPLR" = Furnace-HIR-fPLR   $ IP Tech: PkgFurn-0.80AFUE
 "VSM" = FALSE   $ IP Tech: PkgFurn-0.80AFUE
 "BFMult" = 1   $ IP Tech: RefgChg-NRes-Std
 "CoolEirMult" = 1   $ IP Tech: RefgChg-NRes-Std
 "SensCoolCapMult" = 1   $ IP Tech: RefgChg-NRes-Std
 "TotCoolCapMult" = 1   $ IP Tech: RefgChg-NRes-Std
 "AltAdjFactor" = 1.027678   $ Sizing
 "CAssFlo_L_Break_CZn" = 601.5687   $ Sizing
 "CAssFlo_L_Conf_CZn" = 584.388   $ Sizing
 "CAssFlo_L_CopyRm_CZn" = 192.3896   $ Sizing
 "CAssFlo_L_Cordr_CZn" = 708.5593   $ Sizing
 "CAssFlo_L_Cordr_EZn" = 264.2104   $ Sizing
 "CAssFlo_L_Cordr_NZn" = 180.177   $ Sizing
 "CAssFlo_L_Cordr_SZn" = 275.6142   $ Sizing
 "CAssFlo_L_Cordr_WZn" = 302.5036   $ Sizing
 "CAssFlo_L_LobWait_CZn" = 606.5593   $ Sizing
 "CAssFlo_L_MechElec_CZn" = 146.7617   $ Sizing
 "CAssFlo_L_OfficeOpn_CZn" = 1968.206   $ Sizing
 "CAssFlo_L_OfficeOpn_EZn" = 1841.41   $ Sizing
 "CAssFlo_L_OfficeOpn_NZn" = 1322.838   $ Sizing
 "CAssFlo_L_OfficeOpn_SZn" = 1896.407   $ Sizing
 "CAssFlo_L_OfficeOpn_WZn" = 2145.365   $ Sizing
 "CAssFlo_L_OfficeSm_CZn" = 253.4923   $ Sizing
 "CAssFlo_L_OfficeSm_EZn" = 1308.513   $ Sizing
 "CAssFlo_L_OfficeSm_NZn" = 869.8497   $ Sizing
 "CAssFlo_L_OfficeSm_SZn" = 1343.698   $ Sizing
 "CAssFlo_L_OfficeSm_WZn" = 1519.029   $ Sizing
 "CAssFlo_L_Restrm_CZn" = 99.97378   $ Sizing
 "CAssFlo_L_StorSm_CZn" = 444.3232   $ Sizing
 "CAssFlo_M_Break_CZn" = 609.5446   $ Sizing
 "CAssFlo_M_Conf_CZn" = 585.7232   $ Sizing
 "CAssFlo_M_CopyRm_CZn" = 185.7343   $ Sizing
 "CAssFlo_M_Cordr_CZn" = 974.183   $ Sizing
 "CAssFlo_M_Cordr_EZn" = 299.6645   $ Sizing
 "CAssFlo_M_Cordr_NZn" = 200.7147   $ Sizing
 "CAssFlo_M_Cordr_SZn" = 303.4858   $ Sizing
 "CAssFlo_M_Cordr_WZn" = 321.8704   $ Sizing
 "CAssFlo_M_LobWait_CZn" = 629.0351   $ Sizing
 "CAssFlo_M_MechElec_CZn" = 188.1625   $ Sizing
 "CAssFlo_M_OfficeOpn_CZn" = 2117.267   $ Sizing
 "CAssFlo_M_OfficeOpn_EZn" = 1966.644   $ Sizing
 "CAssFlo_M_OfficeOpn_NZn" = 1400.862   $ Sizing
 "CAssFlo_M_OfficeOpn_SZn" = 2018.628   $ Sizing
 "CAssFlo_M_OfficeOpn_WZn" = 2216.42   $ Sizing
 "CAssFlo_M_OfficeSm_CZn" = 309.8413   $ Sizing
 "CAssFlo_M_OfficeSm_EZn" = 1381   $ Sizing
 "CAssFlo_M_OfficeSm_NZn" = 914.5776   $ Sizing
 "CAssFlo_M_OfficeSm_SZn" = 1417.867   $ Sizing
 "CAssFlo_M_OfficeSm_WZn" = 1557.975   $ Sizing
 "CAssFlo_M_Restrm_CZn" = 121.4608   $ Sizing
 "CAssFlo_M_StorSm_CZn" = 476.0276   $ Sizing
 "CAssFlo_T_Break_CZn" = 604.7026   $ Sizing
 "CAssFlo_T_Conf_CZn" = 581.271   $ Sizing
 "CAssFlo_T_CopyRm_CZn" = 185.3854   $ Sizing
 "CAssFlo_T_Cordr_CZn" = 934.6672   $ Sizing
 "CAssFlo_T_Cordr_EZn" = 296.2104   $ Sizing
 "CAssFlo_T_Cordr_NZn" = 203.6888   $ Sizing
 "CAssFlo_T_Cordr_SZn" = 311.9978   $ Sizing
 "CAssFlo_T_Cordr_WZn" = 326.1598   $ Sizing
 "CAssFlo_T_LobWait_CZn" = 628.5953   $ Sizing
 "CAssFlo_T_MechElec_CZn" = 222.9567   $ Sizing
 "CAssFlo_T_OfficeOpn_CZn" = 2053.594   $ Sizing
 "CAssFlo_T_OfficeOpn_EZn" = 1944.827   $ Sizing
 "CAssFlo_T_OfficeOpn_NZn" = 1431.186   $ Sizing
 "CAssFlo_T_OfficeOpn_SZn" = 2082.703   $ Sizing
 "CAssFlo_T_OfficeOpn_WZn" = 2230.257   $ Sizing
 "CAssFlo_T_OfficeSm_CZn" = 296.0333   $ Sizing
 "CAssFlo_T_OfficeSm_EZn" = 1405.455   $ Sizing
 "CAssFlo_T_OfficeSm_NZn" = 942.6625   $ Sizing
 "CAssFlo_T_OfficeSm_SZn" = 1480.322   $ Sizing
 "CAssFlo_T_OfficeSm_WZn" = 1598.052   $ Sizing
 "CAssFlo_T_Restrm_CZn" = 165.1379   $ Sizing
 "CAssFlo_T_StorSm_CZn" = 345.7639   $ Sizing
 "CHRtFlo_Sys_L_Break_C" = 601.5687   $ Sizing
 "CHRtFlo_Sys_L_Conf_C" = 584.388   $ Sizing
 "CHRtFlo_Sys_L_CopyRm_C" = 192.3896   $ Sizing
 "CHRtFlo_Sys_L_Cordr_C" = 708.5593   $ Sizing
 "CHRtFlo_Sys_L_Cordr_E" = 286.3342   $ Sizing
 "CHRtFlo_Sys_L_Cordr_N" = 180.177   $ Sizing
 "CHRtFlo_Sys_L_Cordr_S" = 283.0782   $ Sizing
 "CHRtFlo_Sys_L_Cordr_W" = 302.5036   $ Sizing
 "CHRtFlo_Sys_L_LobWait_C" = 606.5593   $ Sizing
 "CHRtFlo_Sys_L_MechElec_C" = 148.9244   $ Sizing
 "CHRtFlo_Sys_L_OfficeOpn_C" = 1968.206   $ Sizing
 "CHRtFlo_Sys_L_OfficeOpn_E" = 2055.209   $ Sizing
 "CHRtFlo_Sys_L_OfficeOpn_N" = 1322.838   $ Sizing
 "CHRtFlo_Sys_L_OfficeOpn_S" = 2036.893   $ Sizing
 "CHRtFlo_Sys_L_OfficeOpn_W" = 2145.365   $ Sizing
 "CHRtFlo_Sys_L_OfficeSm_C" = 268.9745   $ Sizing
 "CHRtFlo_Sys_L_OfficeSm_E" = 1496.804   $ Sizing
 "CHRtFlo_Sys_L_OfficeSm_N" = 869.8497   $ Sizing
 "CHRtFlo_Sys_L_OfficeSm_S" = 1500.079   $ Sizing
 "CHRtFlo_Sys_L_OfficeSm_W" = 1560.769   $ Sizing
 "CHRtFlo_Sys_L_Restrm_C" = 216.0974   $ Sizing
 "CHRtFlo_Sys_L_StorSm_C" = 444.3232   $ Sizing
 "CHRtFlo_Sys_M_Break_C" = 4876.357   $ Sizing
 "CHRtFlo_Sys_M_Conf_C" = 4685.786   $ Sizing
 "CHRtFlo_Sys_M_CopyRm_C" = 1485.875   $ Sizing
 "CHRtFlo_Sys_M_Cordr_C" = 8381.215   $ Sizing
 "CHRtFlo_Sys_M_Cordr_E" = 2673.235   $ Sizing
 "CHRtFlo_Sys_M_Cordr_N" = 1605.718   $ Sizing
 "CHRtFlo_Sys_M_Cordr_S" = 2578.924   $ Sizing
 "CHRtFlo_Sys_M_Cordr_W" = 2574.964   $ Sizing
 "CHRtFlo_Sys_M_LobWait_C" = 5032.281   $ Sizing
 "CHRtFlo_Sys_M_MechElec_C" = 1617.753   $ Sizing
 "CHRtFlo_Sys_M_OfficeOpn_C" = 17456.66   $ Sizing
 "CHRtFlo_Sys_M_OfficeOpn_E" = 17847.89   $ Sizing
 "CHRtFlo_Sys_M_OfficeOpn_N" = 11206.89   $ Sizing
 "CHRtFlo_Sys_M_OfficeOpn_S" = 17604.66   $ Sizing
 "CHRtFlo_Sys_M_OfficeOpn_W" = 17903.93   $ Sizing
 "CHRtFlo_Sys_M_OfficeSm_C" = 2715.453   $ Sizing
 "CHRtFlo_Sys_M_OfficeSm_E" = 12828.46   $ Sizing
 "CHRtFlo_Sys_M_OfficeSm_N" = 7316.621   $ Sizing
 "CHRtFlo_Sys_M_OfficeSm_S" = 12795.12   $ Sizing
 "CHRtFlo_Sys_M_OfficeSm_W" = 12896.96   $ Sizing
 "CHRtFlo_Sys_M_Restrm_C" = 1728.779   $ Sizing
 "CHRtFlo_Sys_M_StorSm_C" = 4051.195   $ Sizing
 "CHRtFlo_Sys_T_Break_C" = 604.7026   $ Sizing
 "CHRtFlo_Sys_T_Conf_C" = 581.271   $ Sizing
 "CHRtFlo_Sys_T_CopyRm_C" = 185.3854   $ Sizing
 "CHRtFlo_Sys_T_Cordr_C" = 934.6672   $ Sizing
 "CHRtFlo_Sys_T_Cordr_E" = 296.2104   $ Sizing
 "CHRtFlo_Sys_T_Cordr_N" = 203.6888   $ Sizing
 "CHRtFlo_Sys_T_Cordr_S" = 311.9978   $ Sizing
 "CHRtFlo_Sys_T_Cordr_W" = 326.1598   $ Sizing
 "CHRtFlo_Sys_T_LobWait_C" = 628.5953   $ Sizing
 "CHRtFlo_Sys_T_MechElec_C" = 258.4467   $ Sizing
 "CHRtFlo_Sys_T_OfficeOpn_C" = 2053.594   $ Sizing
 "CHRtFlo_Sys_T_OfficeOpn_E" = 2025.709   $ Sizing
 "CHRtFlo_Sys_T_OfficeOpn_N" = 1431.186   $ Sizing
 "CHRtFlo_Sys_T_OfficeOpn_S" = 2082.703   $ Sizing
 "CHRtFlo_Sys_T_OfficeOpn_W" = 2230.257   $ Sizing
 "CHRtFlo_Sys_T_OfficeSm_C" = 297.3265   $ Sizing
 "CHRtFlo_Sys_T_OfficeSm_E" = 1502.259   $ Sizing
 "CHRtFlo_Sys_T_OfficeSm_N" = 942.6624   $ Sizing
 "CHRtFlo_Sys_T_OfficeSm_S" = 1523.037   $ Sizing
 "CHRtFlo_Sys_T_OfficeSm_W" = 1598.052   $ Sizing
 "CHRtFlo_Sys_T_Restrm_C" = 216.0974   $ Sizing
 "CHRtFlo_Sys_T_StorSm_C" = 345.7639   $ Sizing
 "CRtdFlo_Sys_L_Break_C" = 601.5687   $ Sizing
 "CRtdFlo_Sys_L_Conf_C" = 584.388   $ Sizing
 "CRtdFlo_Sys_L_CopyRm_C" = 192.3896   $ Sizing
 "CRtdFlo_Sys_L_Cordr_C" = 708.5593   $ Sizing
 "CRtdFlo_Sys_L_Cordr_E" = 264.2104   $ Sizing
 "CRtdFlo_Sys_L_Cordr_N" = 180.177   $ Sizing
 "CRtdFlo_Sys_L_Cordr_S" = 275.6142   $ Sizing
 "CRtdFlo_Sys_L_Cordr_W" = 302.5036   $ Sizing
 "CRtdFlo_Sys_L_LobWait_C" = 606.5593   $ Sizing
 "CRtdFlo_Sys_L_MechElec_C" = 146.7617   $ Sizing
 "CRtdFlo_Sys_L_OfficeOpn_C" = 1968.206   $ Sizing
 "CRtdFlo_Sys_L_OfficeOpn_E" = 1841.41   $ Sizing
 "CRtdFlo_Sys_L_OfficeOpn_N" = 1322.838   $ Sizing
 "CRtdFlo_Sys_L_OfficeOpn_S" = 1896.407   $ Sizing
 "CRtdFlo_Sys_L_OfficeOpn_W" = 2143.437   $ Sizing
 "CRtdFlo_Sys_L_OfficeSm_C" = 253.4923   $ Sizing
 "CRtdFlo_Sys_L_OfficeSm_E" = 1308.513   $ Sizing
 "CRtdFlo_Sys_L_OfficeSm_N" = 869.8497   $ Sizing
 "CRtdFlo_Sys_L_OfficeSm_S" = 1343.698   $ Sizing
 "CRtdFlo_Sys_L_OfficeSm_W" = 1519.029   $ Sizing
 "CRtdFlo_Sys_L_Restrm_C" = 99.97378   $ Sizing
 "CRtdFlo_Sys_L_StorSm_C" = 444.3232   $ Sizing
 "CRtdFlo_Sys_M_Break_C" = 4876.357   $ Sizing
 "CRtdFlo_Sys_M_Conf_C" = 4685.786   $ Sizing
 "CRtdFlo_Sys_M_CopyRm_C" = 1485.875   $ Sizing
 "CRtdFlo_Sys_M_Cordr_C" = 7793.464   $ Sizing
 "CRtdFlo_Sys_M_Cordr_E" = 2397.316   $ Sizing
 "CRtdFlo_Sys_M_Cordr_N" = 1605.718   $ Sizing
 "CRtdFlo_Sys_M_Cordr_S" = 2427.886   $ Sizing
 "CRtdFlo_Sys_M_Cordr_W" = 2574.964   $ Sizing
 "CRtdFlo_Sys_M_LobWait_C" = 5032.281   $ Sizing
 "CRtdFlo_Sys_M_MechElec_C" = 1505.3   $ Sizing
 "CRtdFlo_Sys_M_OfficeOpn_C" = 16938.13   $ Sizing
 "CRtdFlo_Sys_M_OfficeOpn_E" = 15733.15   $ Sizing
 "CRtdFlo_Sys_M_OfficeOpn_N" = 11206.89   $ Sizing
 "CRtdFlo_Sys_M_OfficeOpn_S" = 16149.03   $ Sizing
 "CRtdFlo_Sys_M_OfficeOpn_W" = 17731.36   $ Sizing
 "CRtdFlo_Sys_M_OfficeSm_C" = 2478.731   $ Sizing
 "CRtdFlo_Sys_M_OfficeSm_E" = 11048   $ Sizing
 "CRtdFlo_Sys_M_OfficeSm_N" = 7316.621   $ Sizing
 "CRtdFlo_Sys_M_OfficeSm_S" = 11342.93   $ Sizing
 "CRtdFlo_Sys_M_OfficeSm_W" = 12463.8   $ Sizing
 "CRtdFlo_Sys_M_Restrm_C" = 971.6862   $ Sizing
 "CRtdFlo_Sys_M_StorSm_C" = 3808.221   $ Sizing
 "CRtdFlo_Sys_T_Break_C" = 604.7026   $ Sizing
 "CRtdFlo_Sys_T_Conf_C" = 581.271   $ Sizing
 "CRtdFlo_Sys_T_CopyRm_C" = 185.3854   $ Sizing
 "CRtdFlo_Sys_T_Cordr_C" = 934.6672   $ Sizing
 "CRtdFlo_Sys_T_Cordr_E" = 296.2104   $ Sizing
 "CRtdFlo_Sys_T_Cordr_N" = 203.6888   $ Sizing
 "CRtdFlo_Sys_T_Cordr_S" = 311.9978   $ Sizing
 "CRtdFlo_Sys_T_Cordr_W" = 326.1598   $ Sizing
 "CRtdFlo_Sys_T_LobWait_C" = 628.5953   $ Sizing
 "CRtdFlo_Sys_T_MechElec_C" = 222.9567   $ Sizing
 "CRtdFlo_Sys_T_OfficeOpn_C" = 2053.594   $ Sizing
 "CRtdFlo_Sys_T_OfficeOpn_E" = 1944.827   $ Sizing
 "CRtdFlo_Sys_T_OfficeOpn_N" = 1431.186   $ Sizing
 "CRtdFlo_Sys_T_OfficeOpn_S" = 2082.703   $ Sizing
 "CRtdFlo_Sys_T_OfficeOpn_W" = 2230.257   $ Sizing
 "CRtdFlo_Sys_T_OfficeSm_C" = 296.0333   $ Sizing
 "CRtdFlo_Sys_T_OfficeSm_E" = 1405.455   $ Sizing
 "CRtdFlo_Sys_T_OfficeSm_N" = 942.6624   $ Sizing
 "CRtdFlo_Sys_T_OfficeSm_S" = 1480.322   $ Sizing
 "CRtdFlo_Sys_T_OfficeSm_W" = 1598.052   $ Sizing
 "CRtdFlo_Sys_T_Restrm_C" = 165.1379   $ Sizing
 "CRtdFlo_Sys_T_StorSm_C" = 345.7639   $ Sizing
 "CSupFlo_Sys_L_Break_C" = 601.5687   $ Sizing
 "CSupFlo_Sys_L_Conf_C" = 584.388   $ Sizing
 "CSupFlo_Sys_L_CopyRm_C" = 192.3896   $ Sizing
 "CSupFlo_Sys_L_Cordr_C" = 708.5593   $ Sizing
 "CSupFlo_Sys_L_Cordr_E" = 264.2104   $ Sizing
 "CSupFlo_Sys_L_Cordr_N" = 180.177   $ Sizing
 "CSupFlo_Sys_L_Cordr_S" = 275.6142   $ Sizing
 "CSupFlo_Sys_L_Cordr_W" = 302.5036   $ Sizing
 "CSupFlo_Sys_L_LobWait_C" = 606.5593   $ Sizing
 "CSupFlo_Sys_L_MechElec_C" = 146.7617   $ Sizing
 "CSupFlo_Sys_L_OfficeOpn_C" = 1968.206   $ Sizing
 "CSupFlo_Sys_L_OfficeOpn_E" = 1841.41   $ Sizing
 "CSupFlo_Sys_L_OfficeOpn_N" = 1322.838   $ Sizing
 "CSupFlo_Sys_L_OfficeOpn_S" = 1896.407   $ Sizing
 "CSupFlo_Sys_L_OfficeOpn_W" = 2143.437   $ Sizing
 "CSupFlo_Sys_L_OfficeSm_C" = 253.4923   $ Sizing
 "CSupFlo_Sys_L_OfficeSm_E" = 1308.513   $ Sizing
 "CSupFlo_Sys_L_OfficeSm_N" = 869.8497   $ Sizing
 "CSupFlo_Sys_L_OfficeSm_S" = 1343.698   $ Sizing
 "CSupFlo_Sys_L_OfficeSm_W" = 1519.029   $ Sizing
 "CSupFlo_Sys_L_Restrm_C" = 99.97378   $ Sizing
 "CSupFlo_Sys_L_StorSm_C" = 444.3232   $ Sizing
 "CSupFlo_Sys_M_Break_C" = 4876.357   $ Sizing
 "CSupFlo_Sys_M_Conf_C" = 4685.786   $ Sizing
 "CSupFlo_Sys_M_CopyRm_C" = 1485.875   $ Sizing
 "CSupFlo_Sys_M_Cordr_C" = 7793.464   $ Sizing
 "CSupFlo_Sys_M_Cordr_E" = 2397.316   $ Sizing
 "CSupFlo_Sys_M_Cordr_N" = 1605.718   $ Sizing
 "CSupFlo_Sys_M_Cordr_S" = 2427.886   $ Sizing
 "CSupFlo_Sys_M_Cordr_W" = 2574.964   $ Sizing
 "CSupFlo_Sys_M_LobWait_C" = 5032.281   $ Sizing
 "CSupFlo_Sys_M_MechElec_C" = 1505.3   $ Sizing
 "CSupFlo_Sys_M_OfficeOpn_C" = 16938.13   $ Sizing
 "CSupFlo_Sys_M_OfficeOpn_E" = 15733.15   $ Sizing
 "CSupFlo_Sys_M_OfficeOpn_N" = 11206.89   $ Sizing
 "CSupFlo_Sys_M_OfficeOpn_S" = 16149.03   $ Sizing
 "CSupFlo_Sys_M_OfficeOpn_W" = 17731.36   $ Sizing
 "CSupFlo_Sys_M_OfficeSm_C" = 2478.731   $ Sizing
 "CSupFlo_Sys_M_OfficeSm_E" = 11048   $ Sizing
 "CSupFlo_Sys_M_OfficeSm_N" = 7316.621   $ Sizing
 "CSupFlo_Sys_M_OfficeSm_S" = 11342.93   $ Sizing
 "CSupFlo_Sys_M_OfficeSm_W" = 12463.8   $ Sizing
 "CSupFlo_Sys_M_Restrm_C" = 971.6862   $ Sizing
 "CSupFlo_Sys_M_StorSm_C" = 3808.221   $ Sizing
 "CSupFlo_Sys_T_Break_C" = 604.7026   $ Sizing
 "CSupFlo_Sys_T_Conf_C" = 581.271   $ Sizing
 "CSupFlo_Sys_T_CopyRm_C" = 185.3854   $ Sizing
 "CSupFlo_Sys_T_Cordr_C" = 934.6672   $ Sizing
 "CSupFlo_Sys_T_Cordr_E" = 296.2104   $ Sizing
 "CSupFlo_Sys_T_Cordr_N" = 203.6888   $ Sizing
 "CSupFlo_Sys_T_Cordr_S" = 311.9978   $ Sizing
 "CSupFlo_Sys_T_Cordr_W" = 326.1598   $ Sizing
 "CSupFlo_Sys_T_LobWait_C" = 628.5953   $ Sizing
 "CSupFlo_Sys_T_MechElec_C" = 222.9567   $ Sizing
 "CSupFlo_Sys_T_OfficeOpn_C" = 2053.594   $ Sizing
 "CSupFlo_Sys_T_OfficeOpn_E" = 1944.827   $ Sizing
 "CSupFlo_Sys_T_OfficeOpn_N" = 1431.186   $ Sizing
 "CSupFlo_Sys_T_OfficeOpn_S" = 2082.703   $ Sizing
 "CSupFlo_Sys_T_OfficeOpn_W" = 2230.257   $ Sizing
 "CSupFlo_Sys_T_OfficeSm_C" = 296.0333   $ Sizing
 "CSupFlo_Sys_T_OfficeSm_E" = 1405.455   $ Sizing
 "CSupFlo_Sys_T_OfficeSm_N" = 942.6624   $ Sizing
 "CSupFlo_Sys_T_OfficeSm_S" = 1480.322   $ Sizing
 "CSupFlo_Sys_T_OfficeSm_W" = 1598.052   $ Sizing
 "CSupFlo_Sys_T_Restrm_C" = 165.1379   $ Sizing
 "CSupFlo_Sys_T_StorSm_C" = 345.7639   $ Sizing
 "ClCap_Sys_L_Break_C" = 20069.71   $ Sizing
 "ClCap_Sys_L_Conf_C" = 24813.76   $ Sizing
 "ClCap_Sys_L_CopyRm_C" = 6418.561   $ Sizing
 "ClCap_Sys_L_Cordr_C" = 23639.17   $ Sizing
 "ClCap_Sys_L_Cordr_E" = 8814.667   $ Sizing
 "ClCap_Sys_L_Cordr_N" = 6011.118   $ Sizing
 "ClCap_Sys_L_Cordr_S" = 9195.124   $ Sizing
 "ClCap_Sys_L_Cordr_W" = 10092.21   $ Sizing
 "ClCap_Sys_L_LobWait_C" = 20236.21   $ Sizing
 "ClCap_Sys_L_MechElec_C" = 4896.306   $ Sizing
 "ClCap_Sys_L_OfficeOpn_C" = 65663.89   $ Sizing
 "ClCap_Sys_L_OfficeOpn_E" = 61433.68   $ Sizing
 "ClCap_Sys_L_OfficeOpn_N" = 44132.93   $ Sizing
 "ClCap_Sys_L_OfficeOpn_S" = 63268.49   $ Sizing
 "ClCap_Sys_L_OfficeOpn_W" = 71509.98   $ Sizing
 "ClCap_Sys_L_OfficeSm_C" = 8457.087   $ Sizing
 "ClCap_Sys_L_OfficeSm_E" = 43654.99   $ Sizing
 "ClCap_Sys_L_OfficeSm_N" = 29020.19   $ Sizing
 "ClCap_Sys_L_OfficeSm_S" = 44828.86   $ Sizing
 "ClCap_Sys_L_OfficeSm_W" = 50678.29   $ Sizing
 "ClCap_Sys_L_Restrm_C" = 3335.355   $ Sizing
 "ClCap_Sys_L_StorSm_C" = 14823.64   $ Sizing
 "ClCap_Sys_M_Break_C" = 162686.5   $ Sizing
 "ClCap_Sys_M_Conf_C" = 198963.7   $ Sizing
 "ClCap_Sys_M_CopyRm_C" = 49572.19   $ Sizing
 "ClCap_Sys_M_Cordr_C" = 260007.9   $ Sizing
 "ClCap_Sys_M_Cordr_E" = 79979.98   $ Sizing
 "ClCap_Sys_M_Cordr_N" = 53570.43   $ Sizing
 "ClCap_Sys_M_Cordr_S" = 80999.88   $ Sizing
 "ClCap_Sys_M_Cordr_W" = 85906.7   $ Sizing
 "ClCap_Sys_M_LobWait_C" = 167888.5   $ Sizing
 "ClCap_Sys_M_MechElec_C" = 50220.27   $ Sizing
 "ClCap_Sys_M_OfficeOpn_C" = 565095.1   $ Sizing
 "ClCap_Sys_M_OfficeOpn_E" = 524894.1   $ Sizing
 "ClCap_Sys_M_OfficeOpn_N" = 373887.7   $ Sizing
 "ClCap_Sys_M_OfficeOpn_S" = 538768.6   $ Sizing
 "ClCap_Sys_M_OfficeOpn_W" = 591558.9   $ Sizing
 "ClCap_Sys_M_OfficeSm_C" = 82696.16   $ Sizing
 "ClCap_Sys_M_OfficeSm_E" = 368586.7   $ Sizing
 "ClCap_Sys_M_OfficeSm_N" = 244099.3   $ Sizing
 "ClCap_Sys_M_OfficeSm_S" = 378426.3   $ Sizing
 "ClCap_Sys_M_OfficeSm_W" = 415820.9   $ Sizing
 "ClCap_Sys_M_Restrm_C" = 32417.68   $ Sizing
 "ClCap_Sys_M_StorSm_C" = 127051   $ Sizing
 "ClCap_Sys_T_Break_C" = 20174.27   $ Sizing
 "ClCap_Sys_T_Conf_C" = 24681.41   $ Sizing
 "ClCap_Sys_T_CopyRm_C" = 6184.883   $ Sizing
 "ClCap_Sys_T_Cordr_C" = 31182.65   $ Sizing
 "ClCap_Sys_T_Cordr_E" = 9882.262   $ Sizing
 "ClCap_Sys_T_Cordr_N" = 6795.528   $ Sizing
 "ClCap_Sys_T_Cordr_S" = 10408.96   $ Sizing
 "ClCap_Sys_T_Cordr_W" = 10881.44   $ Sizing
 "ClCap_Sys_T_LobWait_C" = 20971.38   $ Sizing
 "ClCap_Sys_T_MechElec_C" = 7438.348   $ Sizing
 "ClCap_Sys_T_OfficeOpn_C" = 68512.61   $ Sizing
 "ClCap_Sys_T_OfficeOpn_E" = 64883.9   $ Sizing
 "ClCap_Sys_T_OfficeOpn_N" = 47747.67   $ Sizing
 "ClCap_Sys_T_OfficeOpn_S" = 69483.77   $ Sizing
 "ClCap_Sys_T_OfficeOpn_W" = 74406.49   $ Sizing
 "ClCap_Sys_T_OfficeSm_C" = 9876.352   $ Sizing
 "ClCap_Sys_T_OfficeSm_E" = 46889.2   $ Sizing
 "ClCap_Sys_T_OfficeSm_N" = 31449.38   $ Sizing
 "ClCap_Sys_T_OfficeSm_S" = 49386.94   $ Sizing
 "ClCap_Sys_T_OfficeSm_W" = 53314.69   $ Sizing
 "ClCap_Sys_T_Restrm_C" = 5509.379   $ Sizing
 "ClCap_Sys_T_StorSm_C" = 11535.48   $ Sizing
 "HtCap_Sys_L_Break_C" = -30627.2   $ Sizing
 "HtCap_Sys_L_Conf_C" = -30788.55   $ Sizing
 "HtCap_Sys_L_CopyRm_C" = -11368.28   $ Sizing
 "HtCap_Sys_L_Cordr_C" = -29061.51   $ Sizing
 "HtCap_Sys_L_Cordr_E" = -9605.339   $ Sizing
 "HtCap_Sys_L_Cordr_N" = -6887.379   $ Sizing
 "HtCap_Sys_L_Cordr_S" = -9451.593   $ Sizing
 "HtCap_Sys_L_Cordr_W" = -10128.89   $ Sizing
 "HtCap_Sys_L_LobWait_C" = -29824.63   $ Sizing
 "HtCap_Sys_L_MechElec_C" = -6212.175   $ Sizing
 "HtCap_Sys_L_OfficeOpn_C" = -93981.81   $ Sizing
 "HtCap_Sys_L_OfficeOpn_E" = -64043.87   $ Sizing
 "HtCap_Sys_L_OfficeOpn_N" = -46535.82   $ Sizing
 "HtCap_Sys_L_OfficeOpn_S" = -65108.06   $ Sizing
 "HtCap_Sys_L_OfficeOpn_W" = -68576.7   $ Sizing
 "HtCap_Sys_L_OfficeSm_C" = -9909.562   $ Sizing
 "HtCap_Sys_L_OfficeSm_E" = -47797.26   $ Sizing
 "HtCap_Sys_L_OfficeSm_N" = -30617.59   $ Sizing
 "HtCap_Sys_L_OfficeSm_S" = -47263.54   $ Sizing
 "HtCap_Sys_L_OfficeSm_W" = -49914.89   $ Sizing
 "HtCap_Sys_L_Restrm_C" = -7763.665   $ Sizing
 "HtCap_Sys_L_StorSm_C" = -17992.87   $ Sizing
 "HtCap_Sys_M_Break_C" = -236711.1   $ Sizing
 "HtCap_Sys_M_Conf_C" = -230659   $ Sizing
 "HtCap_Sys_M_CopyRm_C" = -76651.7   $ Sizing
 "HtCap_Sys_M_Cordr_C" = -304130.2   $ Sizing
 "HtCap_Sys_M_Cordr_E" = -87436.7   $ Sizing
 "HtCap_Sys_M_Cordr_N" = -58107.59   $ Sizing
 "HtCap_Sys_M_Cordr_S" = -84190.5   $ Sizing
 "HtCap_Sys_M_Cordr_W" = -84947.58   $ Sizing
 "HtCap_Sys_M_LobWait_C" = -218379.8   $ Sizing
 "HtCap_Sys_M_MechElec_C" = -61430.35   $ Sizing
 "HtCap_Sys_M_OfficeOpn_C" = -831446.6   $ Sizing
 "HtCap_Sys_M_OfficeOpn_E" = -554929.9   $ Sizing
 "HtCap_Sys_M_OfficeOpn_N" = -388203   $ Sizing
 "HtCap_Sys_M_OfficeOpn_S" = -555949.9   $ Sizing
 "HtCap_Sys_M_OfficeOpn_W" = -568955   $ Sizing
 "HtCap_Sys_M_OfficeSm_C" = -95155.91   $ Sizing
 "HtCap_Sys_M_OfficeSm_E" = -408512.3   $ Sizing
 "HtCap_Sys_M_OfficeSm_N" = -253910.2   $ Sizing
 "HtCap_Sys_M_OfficeSm_S" = -401526.2   $ Sizing
 "HtCap_Sys_M_OfficeSm_W" = -409935.7   $ Sizing
 "HtCap_Sys_M_Restrm_C" = -66790.88   $ Sizing
 "HtCap_Sys_M_StorSm_C" = -152934.7   $ Sizing
 "HtCap_Sys_T_Break_C" = -31943.2   $ Sizing
 "HtCap_Sys_T_Conf_C" = -31140.65   $ Sizing
 "HtCap_Sys_T_CopyRm_C" = -10574.45   $ Sizing
 "HtCap_Sys_T_Cordr_C" = -40264.32   $ Sizing
 "HtCap_Sys_T_Cordr_E" = -11450.42   $ Sizing
 "HtCap_Sys_T_Cordr_N" = -8697.677   $ Sizing
 "HtCap_Sys_T_Cordr_S" = -12109.55   $ Sizing
 "HtCap_Sys_T_Cordr_W" = -12693.1   $ Sizing
 "HtCap_Sys_T_LobWait_C" = -31097.37   $ Sizing
 "HtCap_Sys_T_MechElec_C" = -9230.176   $ Sizing
 "HtCap_Sys_T_OfficeOpn_C" = -85920.67   $ Sizing
 "HtCap_Sys_T_OfficeOpn_E" = -72871.59   $ Sizing
 "HtCap_Sys_T_OfficeOpn_N" = -58014.09   $ Sizing
 "HtCap_Sys_T_OfficeOpn_S" = -76662.87   $ Sizing
 "HtCap_Sys_T_OfficeOpn_W" = -81388.02   $ Sizing
 "HtCap_Sys_T_OfficeSm_C" = -12114.31   $ Sizing
 "HtCap_Sys_T_OfficeSm_E" = -55358.27   $ Sizing
 "HtCap_Sys_T_OfficeSm_N" = -37827.27   $ Sizing
 "HtCap_Sys_T_OfficeSm_S" = -55711.02   $ Sizing
 "HtCap_Sys_T_OfficeSm_W" = -58540.94   $ Sizing
 "HtCap_Sys_T_Restrm_C" = -8650.309   $ Sizing
 "HtCap_Sys_T_StorSm_C" = -16479.59   $ Sizing
..

##include Templates\OfL_DX_SZ.inp
END ..
COMPUTE ..
STOP ..
