INPUT ..

##fileprefix C:\Users\jglasskatz\MASControl3\
##set1 IsSizing FALSE
##set1 CoolType DX
##set1 HeatType HEAT-PUMP
##set1 EU_HrRepVar 1
##set1 BldgVint 1975
##set1 BldgLoc CZ01

 ##set1 mBFMult 1   $ IP Tech: RefgChg-NRes-Std

PARAMETER
 "AltFactor" = 1.00753   $ IP Non-Tech
 "BldgEconoFlag" = 1   $ IP Non-Tech
 "Break_EWSF" = 1   $ IP Non-Tech
 "Break_LWSF" = 1.1   $ IP Non-Tech
 "CDD_DBHi10" = 65   $ IP Non-Tech
 "CDD_DBHi7" = 68   $ IP Non-Tech
 "CDD_DBHi8" = 66   $ IP Non-Tech
 "CDD_DBHi9" = 77   $ IP Non-Tech
 "CDD_DBRange10" = 17   $ IP Non-Tech
 "CDD_DBRange7" = 11   $ IP Non-Tech
 "CDD_DBRange8" = 10   $ IP Non-Tech
 "CDD_DBRange9" = 29   $ IP Non-Tech
 "CDD_Day10" = 15   $ IP Non-Tech
 "CDD_Day7" = 16   $ IP Non-Tech
 "CDD_Day8" = 20   $ IP Non-Tech
 "CDD_Day9" = 17   $ IP Non-Tech
 "CDD_HrHi10" = 12   $ IP Non-Tech
 "CDD_HrHi7" = 12   $ IP Non-Tech
 "CDD_HrHi8" = 13   $ IP Non-Tech
 "CDD_HrHi9" = 17   $ IP Non-Tech
 "CDD_HrLo10" = 6   $ IP Non-Tech
 "CDD_HrLo7" = 3   $ IP Non-Tech
 "CDD_HrLo8" = 8   $ IP Non-Tech
 "CDD_HrLo9" = 4   $ IP Non-Tech
 "CDD_WB10" = 57.53039551   $ IP Non-Tech
 "CDD_WB7" = 59.29250717   $ IP Non-Tech
 "CDD_WB8" = 60.75350189   $ IP Non-Tech
 "CDD_WB9" = 61.08643341   $ IP Non-Tech
 "CZ_Category" = Tem   $ IP Non-Tech
 "ChwVintEconoFlag" = 1   $ IP Non-Tech
 "Conference_EWSF" = 1.15   $ IP Non-Tech
 "Conference_LWSF" = 1.4   $ IP Non-Tech
 "CoolSetT" = 45   $ IP Non-Tech
 "CoolType" = DX   $ IP Non-Tech
 "CopyRoom_EWSF" = 1.725   $ IP Non-Tech
 "CopyRoom_LWSF" = 1.3   $ IP Non-Tech
 "CorridorStairway_EWSF" = 0.23   $ IP Non-Tech
 "CorridorStairway_LWSF" = 0.6   $ IP Non-Tech
 "DesCoolT" = 75   $ IP Non-Tech
 "DesHeatT" = 73   $ IP Non-Tech
 "EconoEnthLimit" = 28   $ IP Non-Tech
 "EconoTempLimit" = 70   $ IP Non-Tech
 "Elevation" = 203   $ IP Non-Tech
 "HDD_CloudAmt1" = 0   $ IP Non-Tech
 "HDD_DBHi1" = 53   $ IP Non-Tech
 "HDD_DBRange1" = 20   $ IP Non-Tech
 "HDD_Day1" = 15   $ IP Non-Tech
 "HDD_HrHi1" = 14   $ IP Non-Tech
 "HDD_HrLo1" = 6   $ IP Non-Tech
 "HDD_WB1" = 42.3   $ IP Non-Tech
 "HDD_WindSpd1" = 12.7   $ IP Non-Tech
 "HeatSrc" = HEAT-PUMP   $ IP Non-Tech
 "HeatSrcTU" = HEAT-PUMP   $ IP Non-Tech
 "HeatType" = HP   $ IP Non-Tech
 "HeatTypeTU" = HEAT-PUMP   $ IP Non-Tech
 "IndoorFanMode" = CONTINUOUS   $ IP Non-Tech
 "KT_TransferAir" = No   $ IP Non-Tech
 "Latitude" = 40.8   $ IP Non-Tech
 "LobbyWaiting_EWSF" = 0.5375   $ IP Non-Tech
 "LobbyWaiting_LWSF" = 1.3   $ IP Non-Tech
 "Longitude" = 124.2   $ IP Non-Tech
 "LtgMsrApplic" = ALL   $ Msr TechID: NonResLtgRefMsr-HB
 "LtgSav_CFL" = 0   $ Msr TechID: NonResLtgRefMsr-HB
 "LtgSav_EX" = 0   $ Msr TechID: NonResLtgRefMsr-HB
 "LtgSav_HB" = 0.3   $ Msr TechID: NonResLtgRefMsr-HB
 "LtgSav_LF" = 0   $ Msr TechID: NonResLtgRefMsr-HB
 "LtgSav_SP" = 0   $ Msr TechID: NonResLtgRefMsr-HB
 "MZFanMechEff" = 0.58   $ IP Non-Tech
 "MZHasRetFan" = FALSE   $ IP Non-Tech
 "MZ_RFanWPerCfm" = 0.37   $ IP Non-Tech
 "MZ_SFanWPerCfm" = 0.71   $ IP Non-Tech
 "MZ_SupFanStatic" = 2.25   $ IP Non-Tech
 "MaxSupT_MZ" = 90   $ IP Non-Tech
 "MaxSupT_SZ" = 90   $ IP Non-Tech
 "MaxSupT_TU" = 90   $ IP Non-Tech
 "MechElecRoom_EWSF" = 0.23   $ IP Non-Tech
 "MechElecRoom_LWSF" = 0.7   $ IP Non-Tech
 "MinCfmPerSF" = 0.4   $ IP Non-Tech
 "MinSupT" = 55   $ IP Non-Tech
 "OccCoolT" = 76   $ IP Non-Tech
 "OccHeatT" = 72   $ IP Non-Tech
 "OfficeOpen_EWSF" = 1.725   $ IP Non-Tech
 "OfficeOpen_LWSF" = 1.2   $ IP Non-Tech
 "OfficeSmall_EWSF" = 1.725   $ IP Non-Tech
 "OfficeSmall_LWSF" = 1.3   $ IP Non-Tech
 "PkgDxVintEconoFlag" = 0   $ IP Non-Tech
 "Restroom_EWSF" = 0.23   $ IP Non-Tech
 "Restroom_LWSF" = 0.6   $ IP Non-Tech
 "SZFanMechEff" = 0.58   $ IP Non-Tech
 "SZHasRetFan" = FALSE   $ IP Non-Tech
 "SZ_Is_2Spd" = FALSE   $ IP Non-Tech
 "SZ_SFanWPerCfm" = 0.46   $ IP Non-Tech
 "SZ_SupFanStatic" = 0.75   $ IP Non-Tech
 "StorageSmlCond_EWSF" = 0.23   $ IP Non-Tech
 "StorageSmlCond_LWSF" = 0.6   $ IP Non-Tech
 "T24GlzTbl" = CZTbl   $ IP Non-Tech
 "TermUnitFanMechEff" = 1   $ IP Non-Tech
 "TermUnitFanMode" = INTERMITTENT   $ IP Non-Tech
 "TwrSetpt" = 80   $ IP Non-Tech
 "UnocCoolT" = 86   $ IP Non-Tech
 "UnocHeatT" = 62   $ IP Non-Tech
 "WlhpVintEconoFlag" = 0   $ IP Non-Tech
 "EconoCtrl" = OA-TEMP   $ IP Tech: AirEcono-OATemp
 "MaxOAFrac" = 0.85   $ IP Tech: AirEcono-OATemp
 "UseEconoVintApplic" = FALSE   $ IP Tech: AirEcono-OATemp
 "DuctDT" = 1   $ IP Tech: ComDuctInsul-1
 "DuctAirLoss" = 0   $ IP Tech: ComDuctLeak-0
 "DuctLossOAFrac" = 0   $ IP Tech: ComDuctLeak-0
 "ComRoofInsCalc" = FromUo   $ IP Tech: ComRoofIns-Hvy-0.06
 "ComRoofInsR" = -999   $ IP Tech: ComRoofIns-Hvy-0.06
 "ComRoofUo" = 0.06   $ IP Tech: ComRoofIns-Hvy-0.06
 "ComEWInsCalc" = FromUo   $ IP Tech: ComWallIns-MFrm-0.18
 "ComEWInsR" = -999   $ IP Tech: ComWallIns-MFrm-0.18
 "ComEWUo" = 0.18   $ IP Tech: ComWallIns-MFrm-0.18
 "ComN_SHGC" = 0.82   $ IP Tech: NResWin-ComN-1.23-0.82
 "ComN_UFactor" = 1.23   $ IP Tech: NResWin-ComN-1.23-0.82
 "ComN_VisTrans" = 0.9   $ IP Tech: NResWin-ComN-1.23-0.82
 "ComN_WinCode" = G1000   $ IP Tech: NResWin-ComN-1.23-0.82
 "ComN_WinFrmFrac" = 0.17   $ IP Tech: NResWin-ComN-1.23-0.82
 "ComN_WinFrmU" = 1   $ IP Tech: NResWin-ComN-1.23-0.82
 "ComO_SHGC" = 0.82   $ IP Tech: NResWin-ComO-1.23-0.82
 "ComO_UFactor" = 1.23   $ IP Tech: NResWin-ComO-1.23-0.82
 "ComO_VisTrans" = 0.9   $ IP Tech: NResWin-ComO-1.23-0.82
 "ComO_WinCode" = G1000   $ IP Tech: NResWin-ComO-1.23-0.82
 "ComO_WinFrmFrac" = 0.17   $ IP Tech: NResWin-ComO-1.23-0.82
 "ComO_WinFrmU" = 1   $ IP Tech: NResWin-ComO-1.23-0.82
 "BF_fFlow" = PSZ65to135_BF_fFlow   $ IP Tech: PkgHP1SpH-65to135-E10.1-C3.2
 "BF_fT" = PSZ65to135_BF_fT   $ IP Tech: PkgHP1SpH-65to135-E10.1-C3.2
 "CEIR_fPLR" = PSZ65to135_CEIR_fPLR   $ IP Tech: PkgHP1SpH-65to135-E10.1-C3.2
 "CLoss_fPLR" = PSZ65to135_CLoss_fPLR   $ IP Tech: PkgHP1SpH-65to135-E10.1-C3.2
 "COP" = 3.2   $ IP Tech: PkgHP1SpH-65to135-E10.1-C3.2
 "COP47" = 3.52   $ IP Tech: PkgHP1SpH-65to135-E10.1-C3.2
 "CfmPerBtuh" = 0.02917   $ IP Tech: PkgHP1SpH-65to135-E10.1-C3.2
 "ClCap_fT" = PSZ65to135_ClCap_fT   $ IP Tech: PkgHP1SpH-65to135-E10.1-C3.2
 "ClSH_fT" = PSZ65to135_ClSH_fT   $ IP Tech: PkgHP1SpH-65to135-E10.1-C3.2
 "CoilBF" = 0.114   $ IP Tech: PkgHP1SpH-65to135-E10.1-C3.2
 "CondWPerBtuh" = 0   $ IP Tech: PkgHP1SpH-65to135-E10.1-C3.2
 "CoolSensCap" = 0.663   $ IP Tech: PkgHP1SpH-65to135-E10.1-C3.2
 "CoolingEIR" = 0.29399   $ IP Tech: PkgHP1SpH-65to135-E10.1-C3.2
 "CrnkEIR" = 0.0029   $ IP Tech: PkgHP1SpH-65to135-E10.1-C3.2
 "CrnkMaxT" = 50   $ IP Tech: PkgHP1SpH-65to135-E10.1-C3.2
 "DXType" = Pkg   $ IP Tech: PkgHP1SpH-65to135-E10.1-C3.2
 "EER" = 9.77   $ IP Tech: PkgHP1SpH-65to135-E10.1-C3.2
 "EIR_fT" = PSZ65to135_EIR_fT   $ IP Tech: PkgHP1SpH-65to135-E10.1-C3.2
 "FanEirPlr" = TwoSpeedFan   $ IP Tech: PkgHP1SpH-65to135-E10.1-C3.2
 "FanWPerCfm" = 0.412   $ IP Tech: PkgHP1SpH-65to135-E10.1-C3.2
 "HIR_fT" = DEFAULT   $ IP Tech: PkgHP1SpH-65to135-E10.1-C3.2
 "HtCap_fT" = DEFAULT   $ IP Tech: PkgHP1SpH-65to135-E10.1-C3.2
 "HtCoolCapRatio" = 0.88   $ IP Tech: PkgHP1SpH-65to135-E10.1-C3.2
 "HtgEIR" = 0.2843   $ IP Tech: PkgHP1SpH-65to135-E10.1-C3.2
 "HtgFuel" = HP   $ IP Tech: PkgHP1SpH-65to135-E10.1-C3.2
 "IEER" = 12.02   $ IP Tech: PkgHP1SpH-65to135-E10.1-C3.2
 "LowSpdCapRatio" = 0.5   $ IP Tech: PkgHP1SpH-65to135-E10.1-C3.2
 "LowSpdCfmRatio" = 0.66   $ IP Tech: PkgHP1SpH-65to135-E10.1-C3.2
 "NominalCap" = 15   $ IP Tech: PkgHP1SpH-65to135-E10.1-C3.2
 "NumStages" = 1   $ IP Tech: PkgHP1SpH-65to135-E10.1-C3.2
 "RatedEER" = 10.1   $ IP Tech: PkgHP1SpH-65to135-E10.1-C3.2
 "RatedSupMtrClass" = HiEff   $ IP Tech: PkgHP1SpH-65to135-E10.1-C3.2
 "SizeRange" = 65to135   $ IP Tech: PkgHP1SpH-65to135-E10.1-C3.2
 "SubType" = HP   $ IP Tech: PkgHP1SpH-65to135-E10.1-C3.2
 "SupMotEff" = 0.84   $ IP Tech: PkgHP1SpH-65to135-E10.1-C3.2
 "Tier" = 0   $ IP Tech: PkgHP1SpH-65to135-E10.1-C3.2
 "TotCoolCap" = 184140   $ IP Tech: PkgHP1SpH-65to135-E10.1-C3.2
 "BFMult" = 1   $ IP Tech: RefgChg-NRes-Std
 "CoolEirMult" = 1   $ IP Tech: RefgChg-NRes-Std
 "SensCoolCapMult" = 1   $ IP Tech: RefgChg-NRes-Std
 "TotCoolCapMult" = 1   $ IP Tech: RefgChg-NRes-Std
 "AltAdjFactor" = 1.007532   $ Sizing
 "CAssFlo_L_Break_CZn" = 365.1976   $ Sizing
 "CAssFlo_L_Conf_CZn" = 438.8842   $ Sizing
 "CAssFlo_L_CopyRm_CZn" = 114.7163   $ Sizing
 "CAssFlo_L_Cordr_CZn" = 565.4379   $ Sizing
 "CAssFlo_L_Cordr_EZn" = 292.4491   $ Sizing
 "CAssFlo_L_Cordr_NZn" = 202.8099   $ Sizing
 "CAssFlo_L_Cordr_SZn" = 321.2914   $ Sizing
 "CAssFlo_L_Cordr_WZn" = 285.7088   $ Sizing
 "CAssFlo_L_LobWait_CZn" = 357.7963   $ Sizing
 "CAssFlo_L_MechElec_CZn" = 134.1697   $ Sizing
 "CAssFlo_L_OfficeOpn_CZn" = 1788.145   $ Sizing
 "CAssFlo_L_OfficeOpn_EZn" = 2372.641   $ Sizing
 "CAssFlo_L_OfficeOpn_NZn" = 885.0627   $ Sizing
 "CAssFlo_L_OfficeOpn_SZn" = 2506.84   $ Sizing
 "CAssFlo_L_OfficeOpn_WZn" = 2298.681   $ Sizing
 "CAssFlo_L_OfficeSm_CZn" = 225.1626   $ Sizing
 "CAssFlo_L_OfficeSm_EZn" = 1740.206   $ Sizing
 "CAssFlo_L_OfficeSm_NZn" = 713.1463   $ Sizing
 "CAssFlo_L_OfficeSm_SZn" = 1882.566   $ Sizing
 "CAssFlo_L_OfficeSm_WZn" = 1712.778   $ Sizing
 "CAssFlo_L_Restrm_CZn" = 211.8611   $ Sizing
 "CAssFlo_L_StorSm_CZn" = 346.7035   $ Sizing
 "CAssFlo_M_Break_CZn" = 400.9765   $ Sizing
 "CAssFlo_M_Conf_CZn" = 482.8487   $ Sizing
 "CAssFlo_M_CopyRm_CZn" = 140.6564   $ Sizing
 "CAssFlo_M_Cordr_CZn" = 788.6958   $ Sizing
 "CAssFlo_M_Cordr_EZn" = 348.8041   $ Sizing
 "CAssFlo_M_Cordr_NZn" = 234.2685   $ Sizing
 "CAssFlo_M_Cordr_SZn" = 383.6126   $ Sizing
 "CAssFlo_M_Cordr_WZn" = 327.9316   $ Sizing
 "CAssFlo_M_LobWait_CZn" = 457.2172   $ Sizing
 "CAssFlo_M_MechElec_CZn" = 144.3275   $ Sizing
 "CAssFlo_M_OfficeOpn_CZn" = 2063.518   $ Sizing
 "CAssFlo_M_OfficeOpn_EZn" = 2551.19   $ Sizing
 "CAssFlo_M_OfficeOpn_NZn" = 1027.236   $ Sizing
 "CAssFlo_M_OfficeOpn_SZn" = 2799.014   $ Sizing
 "CAssFlo_M_OfficeOpn_WZn" = 2463.066   $ Sizing
 "CAssFlo_M_OfficeSm_CZn" = 280.9341   $ Sizing
 "CAssFlo_M_OfficeSm_EZn" = 1862.338   $ Sizing
 "CAssFlo_M_OfficeSm_NZn" = 809.4507   $ Sizing
 "CAssFlo_M_OfficeSm_SZn" = 2084.892   $ Sizing
 "CAssFlo_M_OfficeSm_WZn" = 1826.713   $ Sizing
 "CAssFlo_M_Restrm_CZn" = 211.8611   $ Sizing
 "CAssFlo_M_StorSm_CZn" = 376.7486   $ Sizing
 "CAssFlo_T_Break_CZn" = 375.37   $ Sizing
 "CAssFlo_T_Conf_CZn" = 461.6578   $ Sizing
 "CAssFlo_T_CopyRm_CZn" = 133.0138   $ Sizing
 "CAssFlo_T_Cordr_CZn" = 693.882   $ Sizing
 "CAssFlo_T_Cordr_EZn" = 308.0013   $ Sizing
 "CAssFlo_T_Cordr_NZn" = 207.1557   $ Sizing
 "CAssFlo_T_Cordr_SZn" = 343.5652   $ Sizing
 "CAssFlo_T_Cordr_WZn" = 290.8564   $ Sizing
 "CAssFlo_T_LobWait_CZn" = 420.2781   $ Sizing
 "CAssFlo_T_MechElec_CZn" = 157.0875   $ Sizing
 "CAssFlo_T_OfficeOpn_CZn" = 1905.809   $ Sizing
 "CAssFlo_T_OfficeOpn_EZn" = 2322.096   $ Sizing
 "CAssFlo_T_OfficeOpn_NZn" = 957.5065   $ Sizing
 "CAssFlo_T_OfficeOpn_SZn" = 2579.087   $ Sizing
 "CAssFlo_T_OfficeOpn_WZn" = 2242.678   $ Sizing
 "CAssFlo_T_OfficeSm_CZn" = 266.3221   $ Sizing
 "CAssFlo_T_OfficeSm_EZn" = 1745.057   $ Sizing
 "CAssFlo_T_OfficeSm_NZn" = 733.0666   $ Sizing
 "CAssFlo_T_OfficeSm_SZn" = 1972.56   $ Sizing
 "CAssFlo_T_OfficeSm_WZn" = 1708.246   $ Sizing
 "CAssFlo_T_Restrm_CZn" = 211.8611   $ Sizing
 "CAssFlo_T_StorSm_CZn" = 334.0894   $ Sizing
 "CHRtFlo_Sys_L_Break_C" = 365.1976   $ Sizing
 "CHRtFlo_Sys_L_Conf_C" = 438.8843   $ Sizing
 "CHRtFlo_Sys_L_CopyRm_C" = 114.7163   $ Sizing
 "CHRtFlo_Sys_L_Cordr_C" = 565.4378   $ Sizing
 "CHRtFlo_Sys_L_Cordr_E" = 292.4491   $ Sizing
 "CHRtFlo_Sys_L_Cordr_N" = 202.8099   $ Sizing
 "CHRtFlo_Sys_L_Cordr_S" = 321.2914   $ Sizing
 "CHRtFlo_Sys_L_Cordr_W" = 285.7088   $ Sizing
 "CHRtFlo_Sys_L_LobWait_C" = 357.7963   $ Sizing
 "CHRtFlo_Sys_L_MechElec_C" = 134.1697   $ Sizing
 "CHRtFlo_Sys_L_OfficeOpn_C" = 1788.145   $ Sizing
 "CHRtFlo_Sys_L_OfficeOpn_E" = 2372.641   $ Sizing
 "CHRtFlo_Sys_L_OfficeOpn_N" = 885.0627   $ Sizing
 "CHRtFlo_Sys_L_OfficeOpn_S" = 2506.84   $ Sizing
 "CHRtFlo_Sys_L_OfficeOpn_W" = 2298.682   $ Sizing
 "CHRtFlo_Sys_L_OfficeSm_C" = 225.1626   $ Sizing
 "CHRtFlo_Sys_L_OfficeSm_E" = 1740.206   $ Sizing
 "CHRtFlo_Sys_L_OfficeSm_N" = 713.1463   $ Sizing
 "CHRtFlo_Sys_L_OfficeSm_S" = 1882.566   $ Sizing
 "CHRtFlo_Sys_L_OfficeSm_W" = 1712.778   $ Sizing
 "CHRtFlo_Sys_L_Restrm_C" = 211.8611   $ Sizing
 "CHRtFlo_Sys_L_StorSm_C" = 346.7035   $ Sizing
 "CHRtFlo_Sys_M_Break_C" = 3207.812   $ Sizing
 "CHRtFlo_Sys_M_Conf_C" = 3862.79   $ Sizing
 "CHRtFlo_Sys_M_CopyRm_C" = 1125.251   $ Sizing
 "CHRtFlo_Sys_M_Cordr_C" = 6309.566   $ Sizing
 "CHRtFlo_Sys_M_Cordr_E" = 2790.433   $ Sizing
 "CHRtFlo_Sys_M_Cordr_N" = 1874.148   $ Sizing
 "CHRtFlo_Sys_M_Cordr_S" = 3068.901   $ Sizing
 "CHRtFlo_Sys_M_Cordr_W" = 2623.453   $ Sizing
 "CHRtFlo_Sys_M_LobWait_C" = 3657.738   $ Sizing
 "CHRtFlo_Sys_M_MechElec_C" = 1154.62   $ Sizing
 "CHRtFlo_Sys_M_OfficeOpn_C" = 16508.14   $ Sizing
 "CHRtFlo_Sys_M_OfficeOpn_E" = 20409.52   $ Sizing
 "CHRtFlo_Sys_M_OfficeOpn_N" = 8217.886   $ Sizing
 "CHRtFlo_Sys_M_OfficeOpn_S" = 22392.11   $ Sizing
 "CHRtFlo_Sys_M_OfficeOpn_W" = 19704.53   $ Sizing
 "CHRtFlo_Sys_M_OfficeSm_C" = 2247.473   $ Sizing
 "CHRtFlo_Sys_M_OfficeSm_E" = 14898.71   $ Sizing
 "CHRtFlo_Sys_M_OfficeSm_N" = 6475.605   $ Sizing
 "CHRtFlo_Sys_M_OfficeSm_S" = 16679.13   $ Sizing
 "CHRtFlo_Sys_M_OfficeSm_W" = 14613.71   $ Sizing
 "CHRtFlo_Sys_M_Restrm_C" = 1694.889   $ Sizing
 "CHRtFlo_Sys_M_StorSm_C" = 3013.989   $ Sizing
 "CHRtFlo_Sys_T_Break_C" = 375.37   $ Sizing
 "CHRtFlo_Sys_T_Conf_C" = 461.6578   $ Sizing
 "CHRtFlo_Sys_T_CopyRm_C" = 133.0138   $ Sizing
 "CHRtFlo_Sys_T_Cordr_C" = 693.882   $ Sizing
 "CHRtFlo_Sys_T_Cordr_E" = 308.0013   $ Sizing
 "CHRtFlo_Sys_T_Cordr_N" = 207.1557   $ Sizing
 "CHRtFlo_Sys_T_Cordr_S" = 343.5652   $ Sizing
 "CHRtFlo_Sys_T_Cordr_W" = 290.8564   $ Sizing
 "CHRtFlo_Sys_T_LobWait_C" = 420.2781   $ Sizing
 "CHRtFlo_Sys_T_MechElec_C" = 157.0875   $ Sizing
 "CHRtFlo_Sys_T_OfficeOpn_C" = 1905.809   $ Sizing
 "CHRtFlo_Sys_T_OfficeOpn_E" = 2322.096   $ Sizing
 "CHRtFlo_Sys_T_OfficeOpn_N" = 957.5064   $ Sizing
 "CHRtFlo_Sys_T_OfficeOpn_S" = 2579.087   $ Sizing
 "CHRtFlo_Sys_T_OfficeOpn_W" = 2242.678   $ Sizing
 "CHRtFlo_Sys_T_OfficeSm_C" = 266.3221   $ Sizing
 "CHRtFlo_Sys_T_OfficeSm_E" = 1745.057   $ Sizing
 "CHRtFlo_Sys_T_OfficeSm_N" = 733.0666   $ Sizing
 "CHRtFlo_Sys_T_OfficeSm_S" = 1972.56   $ Sizing
 "CHRtFlo_Sys_T_OfficeSm_W" = 1708.246   $ Sizing
 "CHRtFlo_Sys_T_Restrm_C" = 211.8611   $ Sizing
 "CHRtFlo_Sys_T_StorSm_C" = 334.0894   $ Sizing
 "CRtdFlo_Sys_L_Break_C" = 365.1976   $ Sizing
 "CRtdFlo_Sys_L_Conf_C" = 438.8843   $ Sizing
 "CRtdFlo_Sys_L_CopyRm_C" = 114.7163   $ Sizing
 "CRtdFlo_Sys_L_Cordr_C" = 565.4379   $ Sizing
 "CRtdFlo_Sys_L_Cordr_E" = 292.4491   $ Sizing
 "CRtdFlo_Sys_L_Cordr_N" = 202.8099   $ Sizing
 "CRtdFlo_Sys_L_Cordr_S" = 321.2914   $ Sizing
 "CRtdFlo_Sys_L_Cordr_W" = 285.7088   $ Sizing
 "CRtdFlo_Sys_L_LobWait_C" = 357.7963   $ Sizing
 "CRtdFlo_Sys_L_MechElec_C" = 134.1697   $ Sizing
 "CRtdFlo_Sys_L_OfficeOpn_C" = 1788.145   $ Sizing
 "CRtdFlo_Sys_L_OfficeOpn_E" = 2372.641   $ Sizing
 "CRtdFlo_Sys_L_OfficeOpn_N" = 885.0627   $ Sizing
 "CRtdFlo_Sys_L_OfficeOpn_S" = 2506.84   $ Sizing
 "CRtdFlo_Sys_L_OfficeOpn_W" = 2298.681   $ Sizing
 "CRtdFlo_Sys_L_OfficeSm_C" = 225.1626   $ Sizing
 "CRtdFlo_Sys_L_OfficeSm_E" = 1740.206   $ Sizing
 "CRtdFlo_Sys_L_OfficeSm_N" = 713.1463   $ Sizing
 "CRtdFlo_Sys_L_OfficeSm_S" = 1882.566   $ Sizing
 "CRtdFlo_Sys_L_OfficeSm_W" = 1712.778   $ Sizing
 "CRtdFlo_Sys_L_Restrm_C" = 211.8611   $ Sizing
 "CRtdFlo_Sys_L_StorSm_C" = 346.7035   $ Sizing
 "CRtdFlo_Sys_M_Break_C" = 3207.812   $ Sizing
 "CRtdFlo_Sys_M_Conf_C" = 3862.79   $ Sizing
 "CRtdFlo_Sys_M_CopyRm_C" = 1125.251   $ Sizing
 "CRtdFlo_Sys_M_Cordr_C" = 6309.566   $ Sizing
 "CRtdFlo_Sys_M_Cordr_E" = 2790.433   $ Sizing
 "CRtdFlo_Sys_M_Cordr_N" = 1874.148   $ Sizing
 "CRtdFlo_Sys_M_Cordr_S" = 3068.901   $ Sizing
 "CRtdFlo_Sys_M_Cordr_W" = 2623.453   $ Sizing
 "CRtdFlo_Sys_M_LobWait_C" = 3657.738   $ Sizing
 "CRtdFlo_Sys_M_MechElec_C" = 1154.62   $ Sizing
 "CRtdFlo_Sys_M_OfficeOpn_C" = 16508.14   $ Sizing
 "CRtdFlo_Sys_M_OfficeOpn_E" = 20409.52   $ Sizing
 "CRtdFlo_Sys_M_OfficeOpn_N" = 8217.886   $ Sizing
 "CRtdFlo_Sys_M_OfficeOpn_S" = 22392.11   $ Sizing
 "CRtdFlo_Sys_M_OfficeOpn_W" = 19704.53   $ Sizing
 "CRtdFlo_Sys_M_OfficeSm_C" = 2247.473   $ Sizing
 "CRtdFlo_Sys_M_OfficeSm_E" = 14898.71   $ Sizing
 "CRtdFlo_Sys_M_OfficeSm_N" = 6475.605   $ Sizing
 "CRtdFlo_Sys_M_OfficeSm_S" = 16679.13   $ Sizing
 "CRtdFlo_Sys_M_OfficeSm_W" = 14613.71   $ Sizing
 "CRtdFlo_Sys_M_Restrm_C" = 1694.889   $ Sizing
 "CRtdFlo_Sys_M_StorSm_C" = 3013.989   $ Sizing
 "CRtdFlo_Sys_T_Break_C" = 375.37   $ Sizing
 "CRtdFlo_Sys_T_Conf_C" = 461.6578   $ Sizing
 "CRtdFlo_Sys_T_CopyRm_C" = 133.0138   $ Sizing
 "CRtdFlo_Sys_T_Cordr_C" = 693.882   $ Sizing
 "CRtdFlo_Sys_T_Cordr_E" = 308.0013   $ Sizing
 "CRtdFlo_Sys_T_Cordr_N" = 207.1557   $ Sizing
 "CRtdFlo_Sys_T_Cordr_S" = 343.5652   $ Sizing
 "CRtdFlo_Sys_T_Cordr_W" = 290.8564   $ Sizing
 "CRtdFlo_Sys_T_LobWait_C" = 420.2781   $ Sizing
 "CRtdFlo_Sys_T_MechElec_C" = 157.0875   $ Sizing
 "CRtdFlo_Sys_T_OfficeOpn_C" = 1905.809   $ Sizing
 "CRtdFlo_Sys_T_OfficeOpn_E" = 2322.096   $ Sizing
 "CRtdFlo_Sys_T_OfficeOpn_N" = 957.5065   $ Sizing
 "CRtdFlo_Sys_T_OfficeOpn_S" = 2579.087   $ Sizing
 "CRtdFlo_Sys_T_OfficeOpn_W" = 2242.678   $ Sizing
 "CRtdFlo_Sys_T_OfficeSm_C" = 266.3221   $ Sizing
 "CRtdFlo_Sys_T_OfficeSm_E" = 1745.057   $ Sizing
 "CRtdFlo_Sys_T_OfficeSm_N" = 733.0666   $ Sizing
 "CRtdFlo_Sys_T_OfficeSm_S" = 1972.56   $ Sizing
 "CRtdFlo_Sys_T_OfficeSm_W" = 1708.246   $ Sizing
 "CRtdFlo_Sys_T_Restrm_C" = 211.8611   $ Sizing
 "CRtdFlo_Sys_T_StorSm_C" = 334.0894   $ Sizing
 "CSupFlo_Sys_L_Break_C" = 365.1976   $ Sizing
 "CSupFlo_Sys_L_Conf_C" = 438.8842   $ Sizing
 "CSupFlo_Sys_L_CopyRm_C" = 114.7163   $ Sizing
 "CSupFlo_Sys_L_Cordr_C" = 565.4379   $ Sizing
 "CSupFlo_Sys_L_Cordr_E" = 292.4491   $ Sizing
 "CSupFlo_Sys_L_Cordr_N" = 202.8099   $ Sizing
 "CSupFlo_Sys_L_Cordr_S" = 321.2914   $ Sizing
 "CSupFlo_Sys_L_Cordr_W" = 285.7088   $ Sizing
 "CSupFlo_Sys_L_LobWait_C" = 357.7963   $ Sizing
 "CSupFlo_Sys_L_MechElec_C" = 134.1697   $ Sizing
 "CSupFlo_Sys_L_OfficeOpn_C" = 1788.145   $ Sizing
 "CSupFlo_Sys_L_OfficeOpn_E" = 2372.641   $ Sizing
 "CSupFlo_Sys_L_OfficeOpn_N" = 885.0627   $ Sizing
 "CSupFlo_Sys_L_OfficeOpn_S" = 2506.84   $ Sizing
 "CSupFlo_Sys_L_OfficeOpn_W" = 2298.681   $ Sizing
 "CSupFlo_Sys_L_OfficeSm_C" = 225.1626   $ Sizing
 "CSupFlo_Sys_L_OfficeSm_E" = 1740.206   $ Sizing
 "CSupFlo_Sys_L_OfficeSm_N" = 713.1463   $ Sizing
 "CSupFlo_Sys_L_OfficeSm_S" = 1882.566   $ Sizing
 "CSupFlo_Sys_L_OfficeSm_W" = 1712.778   $ Sizing
 "CSupFlo_Sys_L_Restrm_C" = 211.8611   $ Sizing
 "CSupFlo_Sys_L_StorSm_C" = 346.7035   $ Sizing
 "CSupFlo_Sys_M_Break_C" = 3207.812   $ Sizing
 "CSupFlo_Sys_M_Conf_C" = 3862.79   $ Sizing
 "CSupFlo_Sys_M_CopyRm_C" = 1125.251   $ Sizing
 "CSupFlo_Sys_M_Cordr_C" = 6309.566   $ Sizing
 "CSupFlo_Sys_M_Cordr_E" = 2790.433   $ Sizing
 "CSupFlo_Sys_M_Cordr_N" = 1874.148   $ Sizing
 "CSupFlo_Sys_M_Cordr_S" = 3068.901   $ Sizing
 "CSupFlo_Sys_M_Cordr_W" = 2623.453   $ Sizing
 "CSupFlo_Sys_M_LobWait_C" = 3657.738   $ Sizing
 "CSupFlo_Sys_M_MechElec_C" = 1154.62   $ Sizing
 "CSupFlo_Sys_M_OfficeOpn_C" = 16508.14   $ Sizing
 "CSupFlo_Sys_M_OfficeOpn_E" = 20409.52   $ Sizing
 "CSupFlo_Sys_M_OfficeOpn_N" = 8217.886   $ Sizing
 "CSupFlo_Sys_M_OfficeOpn_S" = 22392.11   $ Sizing
 "CSupFlo_Sys_M_OfficeOpn_W" = 19704.53   $ Sizing
 "CSupFlo_Sys_M_OfficeSm_C" = 2247.473   $ Sizing
 "CSupFlo_Sys_M_OfficeSm_E" = 14898.71   $ Sizing
 "CSupFlo_Sys_M_OfficeSm_N" = 6475.605   $ Sizing
 "CSupFlo_Sys_M_OfficeSm_S" = 16679.13   $ Sizing
 "CSupFlo_Sys_M_OfficeSm_W" = 14613.71   $ Sizing
 "CSupFlo_Sys_M_Restrm_C" = 1694.889   $ Sizing
 "CSupFlo_Sys_M_StorSm_C" = 3013.989   $ Sizing
 "CSupFlo_Sys_T_Break_C" = 375.37   $ Sizing
 "CSupFlo_Sys_T_Conf_C" = 461.6578   $ Sizing
 "CSupFlo_Sys_T_CopyRm_C" = 133.0138   $ Sizing
 "CSupFlo_Sys_T_Cordr_C" = 693.882   $ Sizing
 "CSupFlo_Sys_T_Cordr_E" = 308.0013   $ Sizing
 "CSupFlo_Sys_T_Cordr_N" = 207.1557   $ Sizing
 "CSupFlo_Sys_T_Cordr_S" = 343.5652   $ Sizing
 "CSupFlo_Sys_T_Cordr_W" = 290.8564   $ Sizing
 "CSupFlo_Sys_T_LobWait_C" = 420.2781   $ Sizing
 "CSupFlo_Sys_T_MechElec_C" = 157.0875   $ Sizing
 "CSupFlo_Sys_T_OfficeOpn_C" = 1905.809   $ Sizing
 "CSupFlo_Sys_T_OfficeOpn_E" = 2322.096   $ Sizing
 "CSupFlo_Sys_T_OfficeOpn_N" = 957.5065   $ Sizing
 "CSupFlo_Sys_T_OfficeOpn_S" = 2579.087   $ Sizing
 "CSupFlo_Sys_T_OfficeOpn_W" = 2242.678   $ Sizing
 "CSupFlo_Sys_T_OfficeSm_C" = 266.3221   $ Sizing
 "CSupFlo_Sys_T_OfficeSm_E" = 1745.057   $ Sizing
 "CSupFlo_Sys_T_OfficeSm_N" = 733.0666   $ Sizing
 "CSupFlo_Sys_T_OfficeSm_S" = 1972.56   $ Sizing
 "CSupFlo_Sys_T_OfficeSm_W" = 1708.246   $ Sizing
 "CSupFlo_Sys_T_Restrm_C" = 211.8611   $ Sizing
 "CSupFlo_Sys_T_StorSm_C" = 334.0894   $ Sizing
 "ClCap_Sys_L_Break_C" = 12427.46   $ Sizing
 "ClCap_Sys_L_Conf_C" = 19008.14   $ Sizing
 "ClCap_Sys_L_CopyRm_C" = 3903.727   $ Sizing
 "ClCap_Sys_L_Cordr_C" = 19241.51   $ Sizing
 "ClCap_Sys_L_Cordr_E" = 9951.869   $ Sizing
 "ClCap_Sys_L_Cordr_N" = 6901.499   $ Sizing
 "ClCap_Sys_L_Cordr_S" = 10933.36   $ Sizing
 "ClCap_Sys_L_Cordr_W" = 9722.5   $ Sizing
 "ClCap_Sys_L_LobWait_C" = 12175.59   $ Sizing
 "ClCap_Sys_L_MechElec_C" = 4565.713   $ Sizing
 "ClCap_Sys_L_OfficeOpn_C" = 60849.51   $ Sizing
 "ClCap_Sys_L_OfficeOpn_E" = 80739.55   $ Sizing
 "ClCap_Sys_L_OfficeOpn_N" = 30118.15   $ Sizing
 "ClCap_Sys_L_OfficeOpn_S" = 85306.27   $ Sizing
 "ClCap_Sys_L_OfficeOpn_W" = 78222.75   $ Sizing
 "ClCap_Sys_L_OfficeSm_C" = 7662.147   $ Sizing
 "ClCap_Sys_L_OfficeSm_E" = 59218.17   $ Sizing
 "ClCap_Sys_L_OfficeSm_N" = 24267.94   $ Sizing
 "ClCap_Sys_L_OfficeSm_S" = 64062.6   $ Sizing
 "ClCap_Sys_L_OfficeSm_W" = 58284.81   $ Sizing
 "ClCap_Sys_L_Restrm_C" = 7209.506   $ Sizing
 "ClCap_Sys_L_StorSm_C" = 11798.11   $ Sizing
 "ClCap_Sys_M_Break_C" = 109159.9   $ Sizing
 "ClCap_Sys_M_Conf_C" = 167298   $ Sizing
 "ClCap_Sys_M_CopyRm_C" = 38291.63   $ Sizing
 "ClCap_Sys_M_Cordr_C" = 214710.8   $ Sizing
 "ClCap_Sys_M_Cordr_E" = 94956.77   $ Sizing
 "ClCap_Sys_M_Cordr_N" = 63776.13   $ Sizing
 "ClCap_Sys_M_Cordr_S" = 104432.9   $ Sizing
 "ClCap_Sys_M_Cordr_W" = 89274.53   $ Sizing
 "ClCap_Sys_M_LobWait_C" = 124470.6   $ Sizing
 "ClCap_Sys_M_MechElec_C" = 39291.03   $ Sizing
 "ClCap_Sys_M_OfficeOpn_C" = 561762.3   $ Sizing
 "ClCap_Sys_M_OfficeOpn_E" = 694523.9   $ Sizing
 "ClCap_Sys_M_OfficeOpn_N" = 279649.8   $ Sizing
 "ClCap_Sys_M_OfficeOpn_S" = 761990.2   $ Sizing
 "ClCap_Sys_M_OfficeOpn_W" = 670533.2   $ Sizing
 "ClCap_Sys_M_OfficeSm_C" = 76480.15   $ Sizing
 "ClCap_Sys_M_OfficeSm_E" = 506994   $ Sizing
 "ClCap_Sys_M_OfficeSm_N" = 220361   $ Sizing
 "ClCap_Sys_M_OfficeSm_S" = 567580.9   $ Sizing
 "ClCap_Sys_M_OfficeSm_W" = 497295.7   $ Sizing
 "ClCap_Sys_M_Restrm_C" = 57676.05   $ Sizing
 "ClCap_Sys_M_StorSm_C" = 102564.2   $ Sizing
 "ClCap_Sys_T_Break_C" = 12773.62   $ Sizing
 "ClCap_Sys_T_Conf_C" = 19994.47   $ Sizing
 "ClCap_Sys_T_CopyRm_C" = 4526.379   $ Sizing
 "ClCap_Sys_T_Cordr_C" = 23612.39   $ Sizing
 "ClCap_Sys_T_Cordr_E" = 10481.1   $ Sizing
 "ClCap_Sys_T_Cordr_N" = 7049.383   $ Sizing
 "ClCap_Sys_T_Cordr_S" = 11691.32   $ Sizing
 "ClCap_Sys_T_Cordr_W" = 9897.67   $ Sizing
 "ClCap_Sys_T_LobWait_C" = 14301.81   $ Sizing
 "ClCap_Sys_T_MechElec_C" = 5345.593   $ Sizing
 "ClCap_Sys_T_OfficeOpn_C" = 64853.53   $ Sizing
 "ClCap_Sys_T_OfficeOpn_E" = 79019.55   $ Sizing
 "ClCap_Sys_T_OfficeOpn_N" = 32583.37   $ Sizing
 "ClCap_Sys_T_OfficeOpn_S" = 87764.77   $ Sizing
 "ClCap_Sys_T_OfficeOpn_W" = 76316.99   $ Sizing
 "ClCap_Sys_T_OfficeSm_C" = 9062.782   $ Sizing
 "ClCap_Sys_T_OfficeSm_E" = 59383.25   $ Sizing
 "ClCap_Sys_T_OfficeSm_N" = 24945.82   $ Sizing
 "ClCap_Sys_T_OfficeSm_S" = 67125.03   $ Sizing
 "ClCap_Sys_T_OfficeSm_W" = 58130.59   $ Sizing
 "ClCap_Sys_T_Restrm_C" = 7209.506   $ Sizing
 "ClCap_Sys_T_StorSm_C" = 11368.86   $ Sizing
 "HRtECT_Sys_L_Break_C" = 47   $ Sizing
 "HRtECT_Sys_L_Conf_C" = 47   $ Sizing
 "HRtECT_Sys_L_CopyRm_C" = 47   $ Sizing
 "HRtECT_Sys_L_Cordr_C" = 47   $ Sizing
 "HRtECT_Sys_L_Cordr_E" = 47   $ Sizing
 "HRtECT_Sys_L_Cordr_N" = 47   $ Sizing
 "HRtECT_Sys_L_Cordr_S" = 47   $ Sizing
 "HRtECT_Sys_L_Cordr_W" = 47   $ Sizing
 "HRtECT_Sys_L_LobWait_C" = 47   $ Sizing
 "HRtECT_Sys_L_MechElec_C" = 47   $ Sizing
 "HRtECT_Sys_L_OfficeOpn_C" = 47   $ Sizing
 "HRtECT_Sys_L_OfficeOpn_E" = 47   $ Sizing
 "HRtECT_Sys_L_OfficeOpn_N" = 47   $ Sizing
 "HRtECT_Sys_L_OfficeOpn_S" = 47   $ Sizing
 "HRtECT_Sys_L_OfficeOpn_W" = 47   $ Sizing
 "HRtECT_Sys_L_OfficeSm_C" = 47   $ Sizing
 "HRtECT_Sys_L_OfficeSm_E" = 47   $ Sizing
 "HRtECT_Sys_L_OfficeSm_N" = 47   $ Sizing
 "HRtECT_Sys_L_OfficeSm_S" = 47   $ Sizing
 "HRtECT_Sys_L_OfficeSm_W" = 47   $ Sizing
 "HRtECT_Sys_L_Restrm_C" = 47   $ Sizing
 "HRtECT_Sys_L_StorSm_C" = 47   $ Sizing
 "HRtECT_Sys_M_Break_C" = 47   $ Sizing
 "HRtECT_Sys_M_Conf_C" = 47   $ Sizing
 "HRtECT_Sys_M_CopyRm_C" = 47   $ Sizing
 "HRtECT_Sys_M_Cordr_C" = 47   $ Sizing
 "HRtECT_Sys_M_Cordr_E" = 47   $ Sizing
 "HRtECT_Sys_M_Cordr_N" = 47   $ Sizing
 "HRtECT_Sys_M_Cordr_S" = 47   $ Sizing
 "HRtECT_Sys_M_Cordr_W" = 47   $ Sizing
 "HRtECT_Sys_M_LobWait_C" = 47   $ Sizing
 "HRtECT_Sys_M_MechElec_C" = 47   $ Sizing
 "HRtECT_Sys_M_OfficeOpn_C" = 47   $ Sizing
 "HRtECT_Sys_M_OfficeOpn_E" = 47   $ Sizing
 "HRtECT_Sys_M_OfficeOpn_N" = 47   $ Sizing
 "HRtECT_Sys_M_OfficeOpn_S" = 47   $ Sizing
 "HRtECT_Sys_M_OfficeOpn_W" = 47   $ Sizing
 "HRtECT_Sys_M_OfficeSm_C" = 47   $ Sizing
 "HRtECT_Sys_M_OfficeSm_E" = 47   $ Sizing
 "HRtECT_Sys_M_OfficeSm_N" = 47   $ Sizing
 "HRtECT_Sys_M_OfficeSm_S" = 47   $ Sizing
 "HRtECT_Sys_M_OfficeSm_W" = 47   $ Sizing
 "HRtECT_Sys_M_Restrm_C" = 47   $ Sizing
 "HRtECT_Sys_M_StorSm_C" = 47   $ Sizing
 "HRtECT_Sys_T_Break_C" = 47   $ Sizing
 "HRtECT_Sys_T_Conf_C" = 47   $ Sizing
 "HRtECT_Sys_T_CopyRm_C" = 47   $ Sizing
 "HRtECT_Sys_T_Cordr_C" = 47   $ Sizing
 "HRtECT_Sys_T_Cordr_E" = 47   $ Sizing
 "HRtECT_Sys_T_Cordr_N" = 47   $ Sizing
 "HRtECT_Sys_T_Cordr_S" = 47   $ Sizing
 "HRtECT_Sys_T_Cordr_W" = 47   $ Sizing
 "HRtECT_Sys_T_LobWait_C" = 47   $ Sizing
 "HRtECT_Sys_T_MechElec_C" = 47   $ Sizing
 "HRtECT_Sys_T_OfficeOpn_C" = 47   $ Sizing
 "HRtECT_Sys_T_OfficeOpn_E" = 47   $ Sizing
 "HRtECT_Sys_T_OfficeOpn_N" = 47   $ Sizing
 "HRtECT_Sys_T_OfficeOpn_S" = 47   $ Sizing
 "HRtECT_Sys_T_OfficeOpn_W" = 47   $ Sizing
 "HRtECT_Sys_T_OfficeSm_C" = 47   $ Sizing
 "HRtECT_Sys_T_OfficeSm_E" = 47   $ Sizing
 "HRtECT_Sys_T_OfficeSm_N" = 47   $ Sizing
 "HRtECT_Sys_T_OfficeSm_S" = 47   $ Sizing
 "HRtECT_Sys_T_OfficeSm_W" = 47   $ Sizing
 "HRtECT_Sys_T_Restrm_C" = 47   $ Sizing
 "HRtECT_Sys_T_StorSm_C" = 47   $ Sizing
 "HSpCap_Sys_L_Break_C" = -8110.667   $ Sizing
 "HSpCap_Sys_L_Conf_C" = -12142.74   $ Sizing
 "HSpCap_Sys_L_CopyRm_C" = -3006.843   $ Sizing
 "HSpCap_Sys_L_Cordr_C" = -10195.76   $ Sizing
 "HSpCap_Sys_L_Cordr_E" = -5039.564   $ Sizing
 "HSpCap_Sys_L_Cordr_N" = -5642.68   $ Sizing
 "HSpCap_Sys_L_Cordr_S" = -4810.676   $ Sizing
 "HSpCap_Sys_L_Cordr_W" = -4885.442   $ Sizing
 "HSpCap_Sys_L_LobWait_C" = -8324.66   $ Sizing
 "HSpCap_Sys_L_MechElec_C" = -2217.545   $ Sizing
 "HSpCap_Sys_L_OfficeOpn_C" = -26773.78   $ Sizing
 "HSpCap_Sys_L_OfficeOpn_E" = -35525.4   $ Sizing
 "HSpCap_Sys_L_OfficeOpn_N" = -21460.14   $ Sizing
 "HSpCap_Sys_L_OfficeOpn_S" = -37534.76   $ Sizing
 "HSpCap_Sys_L_OfficeOpn_W" = -34418.01   $ Sizing
 "HSpCap_Sys_L_OfficeSm_C" = -3371.345   $ Sizing
 "HSpCap_Sys_L_OfficeSm_E" = -26056   $ Sizing
 "HSpCap_Sys_L_OfficeSm_N" = -18544.06   $ Sizing
 "HSpCap_Sys_L_OfficeSm_S" = -28187.54   $ Sizing
 "HSpCap_Sys_L_OfficeSm_W" = -25645.32   $ Sizing
 "HSpCap_Sys_L_Restrm_C" = -3172.183   $ Sizing
 "HSpCap_Sys_L_StorSm_C" = -9237.774   $ Sizing
 "HSpCap_Sys_M_Break_C" = -75426.13   $ Sizing
 "HSpCap_Sys_M_Conf_C" = -108171.8   $ Sizing
 "HSpCap_Sys_M_CopyRm_C" = -28059.61   $ Sizing
 "HSpCap_Sys_M_Cordr_C" = -103140.6   $ Sizing
 "HSpCap_Sys_M_Cordr_E" = -44005.41   $ Sizing
 "HSpCap_Sys_M_Cordr_N" = -49464.22   $ Sizing
 "HSpCap_Sys_M_Cordr_S" = -45950.45   $ Sizing
 "HSpCap_Sys_M_Cordr_W" = -41743.46   $ Sizing
 "HSpCap_Sys_M_LobWait_C" = -83163.17   $ Sizing
 "HSpCap_Sys_M_MechElec_C" = -21423.28   $ Sizing
 "HSpCap_Sys_M_OfficeOpn_C" = -247175.4   $ Sizing
 "HSpCap_Sys_M_OfficeOpn_E" = -305590.5   $ Sizing
 "HSpCap_Sys_M_OfficeOpn_N" = -193986.1   $ Sizing
 "HSpCap_Sys_M_OfficeOpn_S" = -335275.7   $ Sizing
 "HSpCap_Sys_M_OfficeOpn_W" = -295034.6   $ Sizing
 "HSpCap_Sys_M_OfficeSm_C" = -33651.27   $ Sizing
 "HSpCap_Sys_M_OfficeSm_E" = -223077.4   $ Sizing
 "HSpCap_Sys_M_OfficeSm_N" = -164459.9   $ Sizing
 "HSpCap_Sys_M_OfficeSm_S" = -249735.6   $ Sizing
 "HSpCap_Sys_M_OfficeSm_W" = -218810.1   $ Sizing
 "HSpCap_Sys_M_Restrm_C" = -25377.46   $ Sizing
 "HSpCap_Sys_M_StorSm_C" = -68666.59   $ Sizing
 "HSpCap_Sys_T_Break_C" = -9426.582   $ Sizing
 "HSpCap_Sys_T_Conf_C" = -13398.86   $ Sizing
 "HSpCap_Sys_T_CopyRm_C" = -3320.857   $ Sizing
 "HSpCap_Sys_T_Cordr_C" = -14309.55   $ Sizing
 "HSpCap_Sys_T_Cordr_E" = -6695.327   $ Sizing
 "HSpCap_Sys_T_Cordr_N" = -6790.918   $ Sizing
 "HSpCap_Sys_T_Cordr_S" = -5144.181   $ Sizing
 "HSpCap_Sys_T_Cordr_W" = -6358.335   $ Sizing
 "HSpCap_Sys_T_LobWait_C" = -10235.25   $ Sizing
 "HSpCap_Sys_T_MechElec_C" = -4676.77   $ Sizing
 "HSpCap_Sys_T_OfficeOpn_C" = -28535.55   $ Sizing
 "HSpCap_Sys_T_OfficeOpn_E" = -34768.61   $ Sizing
 "HSpCap_Sys_T_OfficeOpn_N" = -27371.24   $ Sizing
 "HSpCap_Sys_T_OfficeOpn_S" = -38616.5   $ Sizing
 "HSpCap_Sys_T_OfficeOpn_W" = -33579.48   $ Sizing
 "HSpCap_Sys_T_OfficeSm_C" = -3987.624   $ Sizing
 "HSpCap_Sys_T_OfficeSm_E" = -26217.53   $ Sizing
 "HSpCap_Sys_T_OfficeSm_N" = -21312.78   $ Sizing
 "HSpCap_Sys_T_OfficeSm_S" = -29535.01   $ Sizing
 "HSpCap_Sys_T_OfficeSm_W" = -25577.46   $ Sizing
 "HSpCap_Sys_T_Restrm_C" = -3172.183   $ Sizing
 "HSpCap_Sys_T_StorSm_C" = -6692.167   $ Sizing
 "HtCap_Sys_L_Break_C" = -10936.16   $ Sizing
 "HtCap_Sys_L_Conf_C" = -16727.17   $ Sizing
 "HtCap_Sys_L_CopyRm_C" = -3435.279   $ Sizing
 "HtCap_Sys_L_Cordr_C" = -16932.53   $ Sizing
 "HtCap_Sys_L_Cordr_E" = -8757.645   $ Sizing
 "HtCap_Sys_L_Cordr_N" = -6073.319   $ Sizing
 "HtCap_Sys_L_Cordr_S" = -9621.353   $ Sizing
 "HtCap_Sys_L_Cordr_W" = -8555.8   $ Sizing
 "HtCap_Sys_L_LobWait_C" = -10714.52   $ Sizing
 "HtCap_Sys_L_MechElec_C" = -4017.828   $ Sizing
 "HtCap_Sys_L_OfficeOpn_C" = -53547.57   $ Sizing
 "HtCap_Sys_L_OfficeOpn_E" = -71050.8   $ Sizing
 "HtCap_Sys_L_OfficeOpn_N" = -26503.98   $ Sizing
 "HtCap_Sys_L_OfficeOpn_S" = -75069.52   $ Sizing
 "HtCap_Sys_L_OfficeOpn_W" = -68836.02   $ Sizing
 "HtCap_Sys_L_OfficeSm_C" = -6742.689   $ Sizing
 "HtCap_Sys_L_OfficeSm_E" = -52111.99   $ Sizing
 "HtCap_Sys_L_OfficeSm_N" = -21355.79   $ Sizing
 "HtCap_Sys_L_OfficeSm_S" = -56375.09   $ Sizing
 "HtCap_Sys_L_OfficeSm_W" = -51290.63   $ Sizing
 "HtCap_Sys_L_Restrm_C" = -6344.366   $ Sizing
 "HtCap_Sys_L_StorSm_C" = -10382.34   $ Sizing
 "HtCap_Sys_M_Break_C" = -96060.73   $ Sizing
 "HtCap_Sys_M_Conf_C" = -147222.2   $ Sizing
 "HtCap_Sys_M_CopyRm_C" = -33696.64   $ Sizing
 "HtCap_Sys_M_Cordr_C" = -188945.5   $ Sizing
 "HtCap_Sys_M_Cordr_E" = -83561.95   $ Sizing
 "HtCap_Sys_M_Cordr_N" = -56122.99   $ Sizing
 "HtCap_Sys_M_Cordr_S" = -91900.91   $ Sizing
 "HtCap_Sys_M_Cordr_W" = -78561.59   $ Sizing
 "HtCap_Sys_M_LobWait_C" = -109534.1   $ Sizing
 "HtCap_Sys_M_MechElec_C" = -34576.11   $ Sizing
 "HtCap_Sys_M_OfficeOpn_C" = -494350.8   $ Sizing
 "HtCap_Sys_M_OfficeOpn_E" = -611181   $ Sizing
 "HtCap_Sys_M_OfficeOpn_N" = -246091.8   $ Sizing
 "HtCap_Sys_M_OfficeOpn_S" = -670551.4   $ Sizing
 "HtCap_Sys_M_OfficeOpn_W" = -590069.2   $ Sizing
 "HtCap_Sys_M_OfficeSm_C" = -67302.53   $ Sizing
 "HtCap_Sys_M_OfficeSm_E" = -446154.8   $ Sizing
 "HtCap_Sys_M_OfficeSm_N" = -193917.7   $ Sizing
 "HtCap_Sys_M_OfficeSm_S" = -499471.2   $ Sizing
 "HtCap_Sys_M_OfficeSm_W" = -437620.2   $ Sizing
 "HtCap_Sys_M_Restrm_C" = -50754.93   $ Sizing
 "HtCap_Sys_M_StorSm_C" = -90256.52   $ Sizing
 "HtCap_Sys_T_Break_C" = -11240.78   $ Sizing
 "HtCap_Sys_T_Conf_C" = -17595.13   $ Sizing
 "HtCap_Sys_T_CopyRm_C" = -3983.213   $ Sizing
 "HtCap_Sys_T_Cordr_C" = -20778.9   $ Sizing
 "HtCap_Sys_T_Cordr_E" = -9223.367   $ Sizing
 "HtCap_Sys_T_Cordr_N" = -6203.457   $ Sizing
 "HtCap_Sys_T_Cordr_S" = -10288.36   $ Sizing
 "HtCap_Sys_T_Cordr_W" = -8709.949   $ Sizing
 "HtCap_Sys_T_LobWait_C" = -12585.59   $ Sizing
 "HtCap_Sys_T_MechElec_C" = -4704.122   $ Sizing
 "HtCap_Sys_T_OfficeOpn_C" = -57071.11   $ Sizing
 "HtCap_Sys_T_OfficeOpn_E" = -69537.21   $ Sizing
 "HtCap_Sys_T_OfficeOpn_N" = -28673.37   $ Sizing
 "HtCap_Sys_T_OfficeOpn_S" = -77233   $ Sizing
 "HtCap_Sys_T_OfficeOpn_W" = -67158.95   $ Sizing
 "HtCap_Sys_T_OfficeSm_C" = -7975.249   $ Sizing
 "HtCap_Sys_T_OfficeSm_E" = -52257.26   $ Sizing
 "HtCap_Sys_T_OfficeSm_N" = -21952.32   $ Sizing
 "HtCap_Sys_T_OfficeSm_S" = -59070.03   $ Sizing
 "HtCap_Sys_T_OfficeSm_W" = -51154.92   $ Sizing
 "HtCap_Sys_T_Restrm_C" = -6344.366   $ Sizing
 "HtCap_Sys_T_StorSm_C" = -10004.6   $ Sizing
..

##include Templates\OfL_DX_SZ.inp
END ..
COMPUTE ..
STOP ..
