
Start DOESIM : Storage capacity =  75000000
Starting LOADS   : SAVE-FILES is On , weather is CZ01ARCATA-AP       
Finished LOADS    BDL  1 : Memory (wds) =    170833, Time (sec) =    1.18
Starting REPORT  
Finished REPORT   BDL  1 : Memory (wds) =    329707, Time (sec) =    0.34
Starting HVAC    : SAVE-FILES is On , weather is CZ01ARCATA-AP       
*** ERRORS or WARNINGS from HVAC     program. Examine output file for details.
Finished HVAC     BDL  1 : Memory (wds) =    239752, Time (sec) =    1.88
Starting REPORT  
Finished REPORT   BDL  1 : Memory (wds) =    318363, Time (sec) =    0.13
Starting HOURLY-R
Finished HOURLY-R BDL  1 : Memory (wds) =    511939, Time (sec) =    0.13
Starting ECONOMIC
Finished ECONOMIC BDL  1 : Memory (wds) =      1034, Time (sec) =    0.03
End   DOESIM : Total elapsed time of      3.7 seconds
RUN COMPLETE
