INPUT ..

##fileprefix C:\Users\jglasskatz\MASControl3\
##set1 IsSizing FALSE
##set1 CoolType DX
##set1 HeatType FURNACE
##set1 EU_HrRepVar 0
##set1 BldgVint 1985
##set1 BldgLoc CZ01

 ##set1 mBFMult 1   $ IP Tech: RefgChg-NRes-Std

PARAMETER
 "AltFactor" = 1.00753   $ IP Non-Tech
 "BF_fFlow" = SpltAC2SpHiSEER_BF_fFlow   $ Msr (Multi)TechID: MsrNResSplitAC-45to55-S17
 "BF_fT" = SpltAC2SpHiSEER_BF_fT   $ Msr (Multi)TechID: MsrNResSplitAC-45to55-S17
 "BldgEconoFlag" = 1   $ IP Non-Tech
 "Break_EWSF" = 1   $ IP Non-Tech
 "Break_LWSF" = 1.1   $ IP Non-Tech
 "CDD_DBHi10" = 65   $ IP Non-Tech
 "CDD_DBHi7" = 68   $ IP Non-Tech
 "CDD_DBHi8" = 66   $ IP Non-Tech
 "CDD_DBHi9" = 77   $ IP Non-Tech
 "CDD_DBRange10" = 17   $ IP Non-Tech
 "CDD_DBRange7" = 11   $ IP Non-Tech
 "CDD_DBRange8" = 10   $ IP Non-Tech
 "CDD_DBRange9" = 29   $ IP Non-Tech
 "CDD_Day10" = 15   $ IP Non-Tech
 "CDD_Day7" = 16   $ IP Non-Tech
 "CDD_Day8" = 20   $ IP Non-Tech
 "CDD_Day9" = 17   $ IP Non-Tech
 "CDD_HrHi10" = 12   $ IP Non-Tech
 "CDD_HrHi7" = 12   $ IP Non-Tech
 "CDD_HrHi8" = 13   $ IP Non-Tech
 "CDD_HrHi9" = 17   $ IP Non-Tech
 "CDD_HrLo10" = 6   $ IP Non-Tech
 "CDD_HrLo7" = 3   $ IP Non-Tech
 "CDD_HrLo8" = 8   $ IP Non-Tech
 "CDD_HrLo9" = 4   $ IP Non-Tech
 "CDD_WB10" = 57.53039551   $ IP Non-Tech
 "CDD_WB7" = 59.29250717   $ IP Non-Tech
 "CDD_WB8" = 60.75350189   $ IP Non-Tech
 "CDD_WB9" = 61.08643341   $ IP Non-Tech
 "CEIR_fPLR_Hot" = SpltAC2SpHiSEER_CEIR_fPLR_Hot   $ Msr (Multi)TechID: MsrNResSplitAC-45to55-S17
 "CEIR_fPLR_Mod" = SpltAC2SpHiSEER_CEIR_fPLR_Mod   $ Msr (Multi)TechID: MsrNResSplitAC-45to55-S17
 "CEIR_fPLR_Tem" = SpltAC2SpHiSEER_CEIR_fPLR_Tem   $ Msr (Multi)TechID: MsrNResSplitAC-45to55-S17
 "CLoss_fPLR_Hot" = SpltAC2SpHiSEER_CLoss_fPLR_Hot   $ Msr (Multi)TechID: MsrNResSplitAC-45to55-S17
 "CLoss_fPLR_Mod" = SpltAC2SpHiSEER_CLoss_fPLR_Mod   $ Msr (Multi)TechID: MsrNResSplitAC-45to55-S17
 "CLoss_fPLR_Tem" = SpltAC2SpHiSEER_CLoss_fPLR_Tem   $ Msr (Multi)TechID: MsrNResSplitAC-45to55-S17
 "COP47" = 0   $ Msr (Multi)TechID: MsrNResSplitAC-45to55-S17
 "CZ_Category" = Tem   $ IP Non-Tech
 "CapRange" = Any   $ Msr (Multi)TechID: MsrNResSplitAC-45to55-S17
 "CfmPerBtuh" = 0.03   $ Msr (Multi)TechID: MsrNResSplitAC-45to55-S17
 "ChwVintEconoFlag" = 1   $ IP Non-Tech
 "ClCap_fT" = SpltAC2SpHiSEER_ClCap_fT   $ Msr (Multi)TechID: MsrNResSplitAC-45to55-S17
 "ClSH_fT" = SpltAC2SpHiSEER_ClSH_fT   $ Msr (Multi)TechID: MsrNResSplitAC-45to55-S17
 "CoilBF" = 0.102   $ Msr (Multi)TechID: MsrNResSplitAC-45to55-S17
 "CompRoomData_EWSF" = 5.5   $ IP Non-Tech
 "CompRoomData_LWSF" = 1.2   $ IP Non-Tech
 "CondWPerBtuh" = 0   $ Msr (Multi)TechID: MsrNResSplitAC-45to55-S17
 "Conference_EWSF" = 1.1   $ IP Non-Tech
 "Conference_LWSF" = 1.4   $ IP Non-Tech
 "CoolSensCap" = 0.724   $ Msr (Multi)TechID: MsrNResSplitAC-45to55-S17
 "CoolSetT" = 45   $ IP Non-Tech
 "CoolType" = DX   $ IP Non-Tech
 "CoolingEIR" = 0.2225   $ Msr (Multi)TechID: MsrNResSplitAC-45to55-S17
 "CopyRoom_EWSF" = 1.65   $ IP Non-Tech
 "CopyRoom_LWSF" = 1.3   $ IP Non-Tech
 "CrnkEIR" = 0.002225   $ Msr (Multi)TechID: MsrNResSplitAC-45to55-S17
 "CrnkMaxT" = 50   $ Msr (Multi)TechID: MsrNResSplitAC-45to55-S17
 "DXType" = SplitSEER   $ Msr (Multi)TechID: MsrNResSplitAC-45to55-S17
 "DesCoolT" = 75   $ IP Non-Tech
 "DesHeatT" = 73   $ IP Non-Tech
 "EER" = 13.26   $ Msr (Multi)TechID: MsrNResSplitAC-45to55-S17
 "EIR_fT" = SpltAC2SpHiSEER_EIR_fT   $ Msr (Multi)TechID: MsrNResSplitAC-45to55-S17
 "EconoCtrl" = FIXED   $ Msr (Multi)TechID: MsrNResSplitAC-45to55-S17
 "EconoEnthLimit" = 28   $ IP Non-Tech
 "EconoTempLimit" = 70   $ IP Non-Tech
 "Elevation" = 203   $ IP Non-Tech
 "FanEirPlr" = TwoSpeedFan   $ Msr (Multi)TechID: MsrNResSplitAC-45to55-S17
 "FanWPerCfm" = 0.271   $ Msr (Multi)TechID: MsrNResSplitAC-45to55-S17
 "HDD_CloudAmt1" = 0   $ IP Non-Tech
 "HDD_DBHi1" = 53   $ IP Non-Tech
 "HDD_DBRange1" = 20   $ IP Non-Tech
 "HDD_Day1" = 15   $ IP Non-Tech
 "HDD_HrHi1" = 14   $ IP Non-Tech
 "HDD_HrLo1" = 6   $ IP Non-Tech
 "HDD_WB1" = 42.3   $ IP Non-Tech
 "HDD_WindSpd1" = 12.7   $ IP Non-Tech
 "HIR_fT" = 0   $ Msr (Multi)TechID: MsrNResSplitAC-45to55-S17
 "HSPF" = 0   $ Msr (Multi)TechID: MsrNResSplitAC-45to55-S17
 "Hall_EWSF" = 0.22   $ IP Non-Tech
 "Hall_LWSF" = 0.6   $ IP Non-Tech
 "HeatSrc" = FURNACE   $ IP Non-Tech
 "HeatSrcTU" = HEAT-PUMP   $ IP Non-Tech
 "HeatType" = GasFurn   $ IP Non-Tech
 "HeatTypeTU" = HEAT-PUMP   $ IP Non-Tech
 "HtCap_fT" = 0   $ Msr (Multi)TechID: MsrNResSplitAC-45to55-S17
 "HtCoolCapRatio" = 0   $ Msr (Multi)TechID: MsrNResSplitAC-45to55-S17
 "HtgEIR" = 0   $ Msr (Multi)TechID: MsrNResSplitAC-45to55-S17
 "IndoorFanMode" = CONTINUOUS   $ IP Non-Tech
 "KT_TransferAir" = No   $ IP Non-Tech
 "Latitude" = 40.8   $ IP Non-Tech
 "LobbyWaiting_EWSF" = 0.525   $ IP Non-Tech
 "LobbyWaiting_LWSF" = 1.3   $ IP Non-Tech
 "Longitude" = 124.2   $ IP Non-Tech
 "LowSpdCapRatio" = 0.686   $ Msr (Multi)TechID: MsrNResSplitAC-45to55-S17
 "LowSpdCfmRatio" = 0.739   $ Msr (Multi)TechID: MsrNResSplitAC-45to55-S17
 "MZFanMechEff" = 0.58   $ IP Non-Tech
 "MZHasRetFan" = FALSE   $ IP Non-Tech
 "MZ_RFanWPerCfm" = 0.33   $ IP Non-Tech
 "MZ_SFanWPerCfm" = 0.75   $ IP Non-Tech
 "MZ_SupFanStatic" = 2.25   $ IP Non-Tech
 "MaxOAFrac" = 1   $ Msr (Multi)TechID: MsrNResSplitAC-45to55-S17
 "MaxSupT_MZ" = 100   $ IP Non-Tech
 "MaxSupT_SZ" = 100   $ IP Non-Tech
 "MaxSupT_TU" = 90   $ IP Non-Tech
 "MechElecRoom_EWSF" = 0.22   $ IP Non-Tech
 "MechElecRoom_LWSF" = 0.7   $ IP Non-Tech
 "MinCfmPerSF" = 0.4   $ IP Non-Tech
 "MinSupT" = 55   $ IP Non-Tech
 "NumStages" = 2   $ Msr (Multi)TechID: MsrNResSplitAC-45to55-S17
 "OccCoolT" = 76   $ IP Non-Tech
 "OccHeatT" = 72   $ IP Non-Tech
 "OfficeOpen_EWSF" = 1.65   $ IP Non-Tech
 "OfficeOpen_LWSF" = 1.2   $ IP Non-Tech
 "OfficeSmall_EWSF" = 1.65   $ IP Non-Tech
 "OfficeSmall_LWSF" = 1.3   $ IP Non-Tech
 "PkgDxVintEconoFlag" = 0   $ IP Non-Tech
 "Restroom_EWSF" = 0.22   $ IP Non-Tech
 "Restroom_LWSF" = 0.6   $ IP Non-Tech
 "SEER" = 17   $ Msr (Multi)TechID: MsrNResSplitAC-45to55-S17
 "SZFanMechEff" = 0.58   $ IP Non-Tech
 "SZHasRetFan" = FALSE   $ IP Non-Tech
 "SZ_Is_2Spd" = FALSE   $ IP Non-Tech
 "SZ_SFanWPerCfm" = 0.46   $ IP Non-Tech
 "SZ_SupFanStatic" = 0.75   $ IP Non-Tech
 "Sector" = Any   $ Msr (Multi)TechID: MsrNResSplitAC-45to55-S17
 "StorageSmlCond_EWSF" = 0.22   $ IP Non-Tech
 "StorageSmlCond_LWSF" = 0.6   $ IP Non-Tech
 "SubType" = AC   $ Msr (Multi)TechID: MsrNResSplitAC-45to55-S17
 "T24GlzTbl" = CZTbl   $ IP Non-Tech
 "TermUnitFanMechEff" = 1   $ IP Non-Tech
 "TermUnitFanMode" = INTERMITTENT   $ IP Non-Tech
 "TotCoolCap" = 58805   $ Msr (Multi)TechID: MsrNResSplitAC-45to55-S17
 "TwrSetpt" = 80   $ IP Non-Tech
 "UnocCoolT" = 86   $ IP Non-Tech
 "UnocHeatT" = 62   $ IP Non-Tech
 "UseEconoVintApplic" = FALSE   $ Msr (Multi)TechID: MsrNResSplitAC-45to55-S17
 "WlhpVintEconoFlag" = 0   $ IP Non-Tech
 "DuctDT" = 1   $ IP Tech: ComDuctInsul-1
 "DuctAirLoss" = 0   $ IP Tech: ComDuctLeak-0
 "DuctLossOAFrac" = 0   $ IP Tech: ComDuctLeak-0
 "ComRoofInsCalc" = FromUo   $ IP Tech: ComRoofIns-WFrm-0.07
 "ComRoofInsR" = -999   $ IP Tech: ComRoofIns-WFrm-0.07
 "ComRoofUo" = 0.07   $ IP Tech: ComRoofIns-WFrm-0.07
 "ComEWInsCalc" = FromUo   $ IP Tech: ComWallIns-WFrm-0.09
 "ComEWInsR" = -999   $ IP Tech: ComWallIns-WFrm-0.09
 "ComEWUo" = 0.09   $ IP Tech: ComWallIns-WFrm-0.09
 "ComN_SHGC" = 0.82   $ IP Tech: NResWin-ComN-1.23-0.82
 "ComN_UFactor" = 1.23   $ IP Tech: NResWin-ComN-1.23-0.82
 "ComN_VisTrans" = 0.9   $ IP Tech: NResWin-ComN-1.23-0.82
 "ComN_WinCode" = G1000   $ IP Tech: NResWin-ComN-1.23-0.82
 "ComN_WinFrmFrac" = 0.17   $ IP Tech: NResWin-ComN-1.23-0.82
 "ComN_WinFrmU" = 1   $ IP Tech: NResWin-ComN-1.23-0.82
 "ComO_SHGC" = 0.82   $ IP Tech: NResWin-ComO-1.23-0.82
 "ComO_UFactor" = 1.23   $ IP Tech: NResWin-ComO-1.23-0.82
 "ComO_VisTrans" = 0.9   $ IP Tech: NResWin-ComO-1.23-0.82
 "ComO_WinCode" = G1000   $ IP Tech: NResWin-ComO-1.23-0.82
 "ComO_WinFrmFrac" = 0.17   $ IP Tech: NResWin-ComO-1.23-0.82
 "ComO_WinFrmU" = 1   $ IP Tech: NResWin-ComO-1.23-0.82
 "LtgMsrApplic" = ALL   $ IP Tech: NonResLtgRefPre
 "LtgSav_CFL" = 0   $ IP Tech: NonResLtgRefPre
 "LtgSav_EX" = 0   $ IP Tech: NonResLtgRefPre
 "LtgSav_HB" = 0   $ IP Tech: NonResLtgRefPre
 "LtgSav_LF" = 0   $ IP Tech: NonResLtgRefPre
 "LtgSav_SP" = 0   $ IP Tech: NonResLtgRefPre
 "CEIR_fPLR" = PSZ65to135_CEIR_fPLR   $ IP Tech: PkgAC1SpH-65to135-E10
 "CLoss_fPLR" = PSZ65to135_CLoss_fPLR   $ IP Tech: PkgAC1SpH-65to135-E10
 "COP" = -1   $ IP Tech: PkgAC1SpH-65to135-E10
 "HtgFuel" = Gas   $ IP Tech: PkgAC1SpH-65to135-E10
 "IEER" = 11.87   $ IP Tech: PkgAC1SpH-65to135-E10
 "NominalCap" = 15   $ IP Tech: PkgAC1SpH-65to135-E10
 "RatedEER" = 10   $ IP Tech: PkgAC1SpH-65to135-E10
 "RatedSupMtrClass" = HiEff   $ IP Tech: PkgAC1SpH-65to135-E10
 "SizeRange" = 65to135   $ IP Tech: PkgAC1SpH-65to135-E10
 "SupMotEff" = 0.84   $ IP Tech: PkgAC1SpH-65to135-E10
 "Tier" = 0   $ IP Tech: PkgAC1SpH-65to135-E10
 "FanPwrMult" = 1   $ IP Tech: PkgFurn-0.80AFUE
 "FurnAFUE" = 0.8   $ IP Tech: PkgFurn-0.80AFUE
 "FurnEt" = 0.82   $ IP Tech: PkgFurn-0.80AFUE
 "FurnaceAuxKW" = 0.1   $ IP Tech: PkgFurn-0.80AFUE
 "HIR_fPLR" = Furnace-HIR-fPLR   $ IP Tech: PkgFurn-0.80AFUE
 "VSM" = FALSE   $ IP Tech: PkgFurn-0.80AFUE
 "BFMult" = 1   $ IP Tech: RefgChg-NRes-Std
 "CoolEirMult" = 1   $ IP Tech: RefgChg-NRes-Std
 "SensCoolCapMult" = 1   $ IP Tech: RefgChg-NRes-Std
 "TotCoolCapMult" = 1   $ IP Tech: RefgChg-NRes-Std
 "AltAdjFactor" = 1.007532   $ Sizing
 "CAssFlo_L_Break_CZn" = 287.008   $ Sizing
 "CAssFlo_L_CompDC_CZn" = 178.7387   $ Sizing
 "CAssFlo_L_Conf_CZn" = 217.9541   $ Sizing
 "CAssFlo_L_CopyRm_CZn" = 71.35481   $ Sizing
 "CAssFlo_L_Hall_EZn" = 162.5538   $ Sizing
 "CAssFlo_L_Hall_NZn" = 72.23978   $ Sizing
 "CAssFlo_L_Hall_SZn" = 189.6609   $ Sizing
 "CAssFlo_L_Hall_WZn" = 166.2547   $ Sizing
 "CAssFlo_L_LobWait_EZn" = 384.1855   $ Sizing
 "CAssFlo_L_LobWait_NZn" = 152.3707   $ Sizing
 "CAssFlo_L_LobWait_SZn" = 439.5698   $ Sizing
 "CAssFlo_L_LobWait_WZn" = 382.5185   $ Sizing
 "CAssFlo_L_MechElec_CZn" = 65.93681   $ Sizing
 "CAssFlo_L_OfficeOpn_CZn" = 73.59215   $ Sizing
 "CAssFlo_L_OfficeOpn_EZn" = 742.1597   $ Sizing
 "CAssFlo_L_OfficeOpn_NZn" = 267.3839   $ Sizing
 "CAssFlo_L_OfficeOpn_SZn" = 778.0687   $ Sizing
 "CAssFlo_L_OfficeOpn_WZn" = 699.5883   $ Sizing
 "CAssFlo_L_OfficeSm_EZn" = 643.4695   $ Sizing
 "CAssFlo_L_OfficeSm_NZn" = 206.9733   $ Sizing
 "CAssFlo_L_OfficeSm_SZn" = 698.8243   $ Sizing
 "CAssFlo_L_OfficeSm_WZn" = 629.3492   $ Sizing
 "CAssFlo_L_Restrm_CZn" = 86.07105   $ Sizing
 "CAssFlo_L_StorSm_CZn" = 31.77296   $ Sizing
 "CAssFlo_L_StorSm_EZn" = 158.0757   $ Sizing
 "CAssFlo_L_StorSm_NZn" = 79.53967   $ Sizing
 "CAssFlo_L_StorSm_SZn" = 178.3544   $ Sizing
 "CAssFlo_L_StorSm_WZn" = 153.1091   $ Sizing
 "CAssFlo_T_Conf_CZn" = 216.4804   $ Sizing
 "CAssFlo_T_Hall_EZn" = 184.2713   $ Sizing
 "CAssFlo_T_Hall_NZn" = 69.63482   $ Sizing
 "CAssFlo_T_Hall_SZn" = 220.6296   $ Sizing
 "CAssFlo_T_Hall_WZn" = 182.5102   $ Sizing
 "CAssFlo_T_OfficeOpn_CZn" = 61.53611   $ Sizing
 "CAssFlo_T_OfficeOpn_EZn" = 749.5038   $ Sizing
 "CAssFlo_T_OfficeOpn_NZn" = 291.5741   $ Sizing
 "CAssFlo_T_OfficeOpn_SZn" = 840.1091   $ Sizing
 "CAssFlo_T_OfficeOpn_WZn" = 711.0012   $ Sizing
 "CAssFlo_T_OfficeSm_EZn" = 660.6745   $ Sizing
 "CAssFlo_T_OfficeSm_NZn" = 229.4129   $ Sizing
 "CAssFlo_T_OfficeSm_SZn" = 759.5347   $ Sizing
 "CAssFlo_T_OfficeSm_WZn" = 647.1183   $ Sizing
 "CAssFlo_T_Restrm_CZn" = 88.3075   $ Sizing
 "CAssFlo_T_StorSm_EZn" = 178.4189   $ Sizing
 "CAssFlo_T_StorSm_NZn" = 78.84498   $ Sizing
 "CAssFlo_T_StorSm_SZn" = 211.3204   $ Sizing
 "CAssFlo_T_StorSm_WZn" = 178.2803   $ Sizing
 "CHRtFlo_Sys_L_Break_C" = 287.008   $ Sizing
 "CHRtFlo_Sys_L_CompDC_C" = 178.7387   $ Sizing
 "CHRtFlo_Sys_L_Conf_C" = 217.9541   $ Sizing
 "CHRtFlo_Sys_L_CopyRm_C" = 71.35481   $ Sizing
 "CHRtFlo_Sys_L_Hall_E" = 162.5538   $ Sizing
 "CHRtFlo_Sys_L_Hall_N" = 72.23978   $ Sizing
 "CHRtFlo_Sys_L_Hall_S" = 189.6609   $ Sizing
 "CHRtFlo_Sys_L_Hall_W" = 166.2547   $ Sizing
 "CHRtFlo_Sys_L_LobWait_E" = 384.1855   $ Sizing
 "CHRtFlo_Sys_L_LobWait_N" = 152.3707   $ Sizing
 "CHRtFlo_Sys_L_LobWait_S" = 439.5698   $ Sizing
 "CHRtFlo_Sys_L_LobWait_W" = 382.5185   $ Sizing
 "CHRtFlo_Sys_L_MechElec_C" = 65.93681   $ Sizing
 "CHRtFlo_Sys_L_OfficeOpn_C" = 73.59215   $ Sizing
 "CHRtFlo_Sys_L_OfficeOpn_E" = 742.1597   $ Sizing
 "CHRtFlo_Sys_L_OfficeOpn_N" = 267.3839   $ Sizing
 "CHRtFlo_Sys_L_OfficeOpn_S" = 778.0687   $ Sizing
 "CHRtFlo_Sys_L_OfficeOpn_W" = 699.5883   $ Sizing
 "CHRtFlo_Sys_L_OfficeSm_E" = 643.4695   $ Sizing
 "CHRtFlo_Sys_L_OfficeSm_N" = 206.9733   $ Sizing
 "CHRtFlo_Sys_L_OfficeSm_S" = 698.8243   $ Sizing
 "CHRtFlo_Sys_L_OfficeSm_W" = 629.3492   $ Sizing
 "CHRtFlo_Sys_L_Restrm_C" = 86.07105   $ Sizing
 "CHRtFlo_Sys_L_StorSm_C" = 31.77296   $ Sizing
 "CHRtFlo_Sys_L_StorSm_E" = 158.0757   $ Sizing
 "CHRtFlo_Sys_L_StorSm_N" = 79.53967   $ Sizing
 "CHRtFlo_Sys_L_StorSm_S" = 178.3544   $ Sizing
 "CHRtFlo_Sys_L_StorSm_W" = 153.1091   $ Sizing
 "CHRtFlo_Sys_T_Conf_C" = 216.4804   $ Sizing
 "CHRtFlo_Sys_T_Hall_E" = 184.2713   $ Sizing
 "CHRtFlo_Sys_T_Hall_N" = 69.63482   $ Sizing
 "CHRtFlo_Sys_T_Hall_S" = 220.6296   $ Sizing
 "CHRtFlo_Sys_T_Hall_W" = 182.5102   $ Sizing
 "CHRtFlo_Sys_T_OfficeOpn_C" = 61.53611   $ Sizing
 "CHRtFlo_Sys_T_OfficeOpn_E" = 749.5038   $ Sizing
 "CHRtFlo_Sys_T_OfficeOpn_N" = 291.5741   $ Sizing
 "CHRtFlo_Sys_T_OfficeOpn_S" = 840.1091   $ Sizing
 "CHRtFlo_Sys_T_OfficeOpn_W" = 711.0012   $ Sizing
 "CHRtFlo_Sys_T_OfficeSm_E" = 660.6745   $ Sizing
 "CHRtFlo_Sys_T_OfficeSm_N" = 229.4129   $ Sizing
 "CHRtFlo_Sys_T_OfficeSm_S" = 759.5347   $ Sizing
 "CHRtFlo_Sys_T_OfficeSm_W" = 647.1183   $ Sizing
 "CHRtFlo_Sys_T_Restrm_C" = 88.3075   $ Sizing
 "CHRtFlo_Sys_T_StorSm_E" = 178.4189   $ Sizing
 "CHRtFlo_Sys_T_StorSm_N" = 78.84498   $ Sizing
 "CHRtFlo_Sys_T_StorSm_S" = 211.3204   $ Sizing
 "CHRtFlo_Sys_T_StorSm_W" = 178.2803   $ Sizing
 "CRtdFlo_Sys_L_Break_C" = 287.008   $ Sizing
 "CRtdFlo_Sys_L_CompDC_C" = 178.7387   $ Sizing
 "CRtdFlo_Sys_L_Conf_C" = 217.954   $ Sizing
 "CRtdFlo_Sys_L_CopyRm_C" = 71.35481   $ Sizing
 "CRtdFlo_Sys_L_Hall_E" = 162.5538   $ Sizing
 "CRtdFlo_Sys_L_Hall_N" = 72.23978   $ Sizing
 "CRtdFlo_Sys_L_Hall_S" = 189.6609   $ Sizing
 "CRtdFlo_Sys_L_Hall_W" = 166.2547   $ Sizing
 "CRtdFlo_Sys_L_LobWait_E" = 384.1855   $ Sizing
 "CRtdFlo_Sys_L_LobWait_N" = 152.3707   $ Sizing
 "CRtdFlo_Sys_L_LobWait_S" = 439.5698   $ Sizing
 "CRtdFlo_Sys_L_LobWait_W" = 382.5185   $ Sizing
 "CRtdFlo_Sys_L_MechElec_C" = 65.93681   $ Sizing
 "CRtdFlo_Sys_L_OfficeOpn_C" = 73.59215   $ Sizing
 "CRtdFlo_Sys_L_OfficeOpn_E" = 742.1597   $ Sizing
 "CRtdFlo_Sys_L_OfficeOpn_N" = 267.3839   $ Sizing
 "CRtdFlo_Sys_L_OfficeOpn_S" = 778.0687   $ Sizing
 "CRtdFlo_Sys_L_OfficeOpn_W" = 699.5883   $ Sizing
 "CRtdFlo_Sys_L_OfficeSm_E" = 643.4695   $ Sizing
 "CRtdFlo_Sys_L_OfficeSm_N" = 206.9733   $ Sizing
 "CRtdFlo_Sys_L_OfficeSm_S" = 698.8243   $ Sizing
 "CRtdFlo_Sys_L_OfficeSm_W" = 629.3492   $ Sizing
 "CRtdFlo_Sys_L_Restrm_C" = 86.07105   $ Sizing
 "CRtdFlo_Sys_L_StorSm_C" = 31.77296   $ Sizing
 "CRtdFlo_Sys_L_StorSm_E" = 158.0757   $ Sizing
 "CRtdFlo_Sys_L_StorSm_N" = 79.53967   $ Sizing
 "CRtdFlo_Sys_L_StorSm_S" = 178.3544   $ Sizing
 "CRtdFlo_Sys_L_StorSm_W" = 153.1091   $ Sizing
 "CRtdFlo_Sys_T_Conf_C" = 216.4804   $ Sizing
 "CRtdFlo_Sys_T_Hall_E" = 184.2713   $ Sizing
 "CRtdFlo_Sys_T_Hall_N" = 69.63482   $ Sizing
 "CRtdFlo_Sys_T_Hall_S" = 220.6296   $ Sizing
 "CRtdFlo_Sys_T_Hall_W" = 182.5102   $ Sizing
 "CRtdFlo_Sys_T_OfficeOpn_C" = 61.53611   $ Sizing
 "CRtdFlo_Sys_T_OfficeOpn_E" = 749.5038   $ Sizing
 "CRtdFlo_Sys_T_OfficeOpn_N" = 291.5741   $ Sizing
 "CRtdFlo_Sys_T_OfficeOpn_S" = 840.1091   $ Sizing
 "CRtdFlo_Sys_T_OfficeOpn_W" = 711.0012   $ Sizing
 "CRtdFlo_Sys_T_OfficeSm_E" = 660.6745   $ Sizing
 "CRtdFlo_Sys_T_OfficeSm_N" = 229.4129   $ Sizing
 "CRtdFlo_Sys_T_OfficeSm_S" = 759.5347   $ Sizing
 "CRtdFlo_Sys_T_OfficeSm_W" = 647.1183   $ Sizing
 "CRtdFlo_Sys_T_Restrm_C" = 88.3075   $ Sizing
 "CRtdFlo_Sys_T_StorSm_E" = 178.4189   $ Sizing
 "CRtdFlo_Sys_T_StorSm_N" = 78.84498   $ Sizing
 "CRtdFlo_Sys_T_StorSm_S" = 211.3204   $ Sizing
 "CRtdFlo_Sys_T_StorSm_W" = 178.2803   $ Sizing
 "CSupFlo_Sys_L_Break_C" = 287.008   $ Sizing
 "CSupFlo_Sys_L_CompDC_C" = 178.7387   $ Sizing
 "CSupFlo_Sys_L_Conf_C" = 217.9541   $ Sizing
 "CSupFlo_Sys_L_CopyRm_C" = 71.35481   $ Sizing
 "CSupFlo_Sys_L_Hall_E" = 162.5538   $ Sizing
 "CSupFlo_Sys_L_Hall_N" = 72.23978   $ Sizing
 "CSupFlo_Sys_L_Hall_S" = 189.6609   $ Sizing
 "CSupFlo_Sys_L_Hall_W" = 166.2547   $ Sizing
 "CSupFlo_Sys_L_LobWait_E" = 384.1855   $ Sizing
 "CSupFlo_Sys_L_LobWait_N" = 152.3707   $ Sizing
 "CSupFlo_Sys_L_LobWait_S" = 439.5698   $ Sizing
 "CSupFlo_Sys_L_LobWait_W" = 382.5185   $ Sizing
 "CSupFlo_Sys_L_MechElec_C" = 65.93681   $ Sizing
 "CSupFlo_Sys_L_OfficeOpn_C" = 73.59215   $ Sizing
 "CSupFlo_Sys_L_OfficeOpn_E" = 742.1597   $ Sizing
 "CSupFlo_Sys_L_OfficeOpn_N" = 267.3839   $ Sizing
 "CSupFlo_Sys_L_OfficeOpn_S" = 778.0687   $ Sizing
 "CSupFlo_Sys_L_OfficeOpn_W" = 699.5883   $ Sizing
 "CSupFlo_Sys_L_OfficeSm_E" = 643.4695   $ Sizing
 "CSupFlo_Sys_L_OfficeSm_N" = 206.9733   $ Sizing
 "CSupFlo_Sys_L_OfficeSm_S" = 698.8243   $ Sizing
 "CSupFlo_Sys_L_OfficeSm_W" = 629.3492   $ Sizing
 "CSupFlo_Sys_L_Restrm_C" = 86.07105   $ Sizing
 "CSupFlo_Sys_L_StorSm_C" = 31.77296   $ Sizing
 "CSupFlo_Sys_L_StorSm_E" = 158.0757   $ Sizing
 "CSupFlo_Sys_L_StorSm_N" = 79.53967   $ Sizing
 "CSupFlo_Sys_L_StorSm_S" = 178.3544   $ Sizing
 "CSupFlo_Sys_L_StorSm_W" = 153.1091   $ Sizing
 "CSupFlo_Sys_T_Conf_C" = 216.4804   $ Sizing
 "CSupFlo_Sys_T_Hall_E" = 184.2713   $ Sizing
 "CSupFlo_Sys_T_Hall_N" = 69.63482   $ Sizing
 "CSupFlo_Sys_T_Hall_S" = 220.6296   $ Sizing
 "CSupFlo_Sys_T_Hall_W" = 182.5102   $ Sizing
 "CSupFlo_Sys_T_OfficeOpn_C" = 61.53611   $ Sizing
 "CSupFlo_Sys_T_OfficeOpn_E" = 749.5038   $ Sizing
 "CSupFlo_Sys_T_OfficeOpn_N" = 291.5741   $ Sizing
 "CSupFlo_Sys_T_OfficeOpn_S" = 840.1091   $ Sizing
 "CSupFlo_Sys_T_OfficeOpn_W" = 711.0012   $ Sizing
 "CSupFlo_Sys_T_OfficeSm_E" = 660.6745   $ Sizing
 "CSupFlo_Sys_T_OfficeSm_N" = 229.4129   $ Sizing
 "CSupFlo_Sys_T_OfficeSm_S" = 759.5347   $ Sizing
 "CSupFlo_Sys_T_OfficeSm_W" = 647.1183   $ Sizing
 "CSupFlo_Sys_T_Restrm_C" = 88.3075   $ Sizing
 "CSupFlo_Sys_T_StorSm_E" = 178.4189   $ Sizing
 "CSupFlo_Sys_T_StorSm_N" = 78.84498   $ Sizing
 "CSupFlo_Sys_T_StorSm_S" = 211.3204   $ Sizing
 "CSupFlo_Sys_T_StorSm_W" = 178.2803   $ Sizing
 "ClCap_Sys_L_Break_C" = 9766.71   $ Sizing
 "ClCap_Sys_L_CompDC_C" = 6082.373   $ Sizing
 "ClCap_Sys_L_Conf_C" = 9439.622   $ Sizing
 "ClCap_Sys_L_CopyRm_C" = 2428.162   $ Sizing
 "ClCap_Sys_L_Hall_E" = 5531.61   $ Sizing
 "ClCap_Sys_L_Hall_N" = 2458.276   $ Sizing
 "ClCap_Sys_L_Hall_S" = 6454.047   $ Sizing
 "ClCap_Sys_L_Hall_W" = 5657.547   $ Sizing
 "ClCap_Sys_L_LobWait_E" = 13073.6   $ Sizing
 "ClCap_Sys_L_LobWait_N" = 5185.083   $ Sizing
 "ClCap_Sys_L_LobWait_S" = 14958.3   $ Sizing
 "ClCap_Sys_L_LobWait_W" = 13016.88   $ Sizing
 "ClCap_Sys_L_MechElec_C" = 2243.79   $ Sizing
 "ClCap_Sys_L_OfficeOpn_C" = 2504.297   $ Sizing
 "ClCap_Sys_L_OfficeOpn_E" = 25255.25   $ Sizing
 "ClCap_Sys_L_OfficeOpn_N" = 9098.913   $ Sizing
 "ClCap_Sys_L_OfficeOpn_S" = 26477.21   $ Sizing
 "ClCap_Sys_L_OfficeOpn_W" = 23806.57   $ Sizing
 "ClCap_Sys_L_OfficeSm_E" = 21896.88   $ Sizing
 "ClCap_Sys_L_OfficeSm_N" = 7043.179   $ Sizing
 "ClCap_Sys_L_OfficeSm_S" = 23780.57   $ Sizing
 "ClCap_Sys_L_OfficeSm_W" = 21416.38   $ Sizing
 "ClCap_Sys_L_Restrm_C" = 2928.947   $ Sizing
 "ClCap_Sys_L_StorSm_C" = 1081.215   $ Sizing
 "ClCap_Sys_L_StorSm_E" = 5379.223   $ Sizing
 "ClCap_Sys_L_StorSm_N" = 2706.688   $ Sizing
 "ClCap_Sys_L_StorSm_S" = 6069.294   $ Sizing
 "ClCap_Sys_L_StorSm_W" = 5210.212   $ Sizing
 "ClCap_Sys_T_Conf_C" = 9375.8   $ Sizing
 "ClCap_Sys_T_Hall_E" = 6270.644   $ Sizing
 "ClCap_Sys_T_Hall_N" = 2369.631   $ Sizing
 "ClCap_Sys_T_Hall_S" = 7507.893   $ Sizing
 "ClCap_Sys_T_Hall_W" = 6210.712   $ Sizing
 "ClCap_Sys_T_OfficeOpn_C" = 2094.037   $ Sizing
 "ClCap_Sys_T_OfficeOpn_E" = 25505.17   $ Sizing
 "ClCap_Sys_T_OfficeOpn_N" = 9922.091   $ Sizing
 "ClCap_Sys_T_OfficeOpn_S" = 28588.41   $ Sizing
 "ClCap_Sys_T_OfficeOpn_W" = 24194.94   $ Sizing
 "ClCap_Sys_T_OfficeSm_E" = 22482.36   $ Sizing
 "ClCap_Sys_T_OfficeSm_N" = 7806.784   $ Sizing
 "ClCap_Sys_T_OfficeSm_S" = 25846.51   $ Sizing
 "ClCap_Sys_T_OfficeSm_W" = 22021.05   $ Sizing
 "ClCap_Sys_T_Restrm_C" = 3005.051   $ Sizing
 "ClCap_Sys_T_StorSm_E" = 6071.488   $ Sizing
 "ClCap_Sys_T_StorSm_N" = 2683.047   $ Sizing
 "ClCap_Sys_T_StorSm_S" = 7191.105   $ Sizing
 "ClCap_Sys_T_StorSm_W" = 6066.773   $ Sizing
 "HtCap_Sys_L_Break_C" = -16728.75   $ Sizing
 "HtCap_Sys_L_CompDC_C" = -8700.269   $ Sizing
 "HtCap_Sys_L_Conf_C" = -12939.85   $ Sizing
 "HtCap_Sys_L_CopyRm_C" = -4390.839   $ Sizing
 "HtCap_Sys_L_Hall_E" = -5630.876   $ Sizing
 "HtCap_Sys_L_Hall_N" = -2679.366   $ Sizing
 "HtCap_Sys_L_Hall_S" = -6220.766   $ Sizing
 "HtCap_Sys_L_Hall_W" = -5591.074   $ Sizing
 "HtCap_Sys_L_LobWait_E" = -13614.31   $ Sizing
 "HtCap_Sys_L_LobWait_N" = -6684.876   $ Sizing
 "HtCap_Sys_L_LobWait_S" = -15198.51   $ Sizing
 "HtCap_Sys_L_LobWait_W" = -13621.69   $ Sizing
 "HtCap_Sys_L_MechElec_C" = -2995.632   $ Sizing
 "HtCap_Sys_L_OfficeOpn_C" = -2821.787   $ Sizing
 "HtCap_Sys_L_OfficeOpn_E" = -25180.2   $ Sizing
 "HtCap_Sys_L_OfficeOpn_N" = -11328.53   $ Sizing
 "HtCap_Sys_L_OfficeOpn_S" = -25590.33   $ Sizing
 "HtCap_Sys_L_OfficeOpn_W" = -24094.35   $ Sizing
 "HtCap_Sys_L_OfficeSm_E" = -21577.17   $ Sizing
 "HtCap_Sys_L_OfficeSm_N" = -8534.9   $ Sizing
 "HtCap_Sys_L_OfficeSm_S" = -22406.4   $ Sizing
 "HtCap_Sys_L_OfficeSm_W" = -21004.87   $ Sizing
 "HtCap_Sys_L_Restrm_C" = -3024.831   $ Sizing
 "HtCap_Sys_L_StorSm_C" = -1339.342   $ Sizing
 "HtCap_Sys_L_StorSm_E" = -5609.532   $ Sizing
 "HtCap_Sys_L_StorSm_N" = -3244.464   $ Sizing
 "HtCap_Sys_L_StorSm_S" = -6049.224   $ Sizing
 "HtCap_Sys_L_StorSm_W" = -5463.907   $ Sizing
 "HtCap_Sys_T_Conf_C" = -13104.14   $ Sizing
 "HtCap_Sys_T_Hall_E" = -6802.023   $ Sizing
 "HtCap_Sys_T_Hall_N" = -2973.901   $ Sizing
 "HtCap_Sys_T_Hall_S" = -7908.957   $ Sizing
 "HtCap_Sys_T_Hall_W" = -6748.643   $ Sizing
 "HtCap_Sys_T_OfficeOpn_C" = -2679.582   $ Sizing
 "HtCap_Sys_T_OfficeOpn_E" = -28391.04   $ Sizing
 "HtCap_Sys_T_OfficeOpn_N" = -13085.29   $ Sizing
 "HtCap_Sys_T_OfficeOpn_S" = -30407.35   $ Sizing
 "HtCap_Sys_T_OfficeOpn_W" = -27151.26   $ Sizing
 "HtCap_Sys_T_OfficeSm_E" = -24368.33   $ Sizing
 "HtCap_Sys_T_OfficeSm_N" = -10118.5   $ Sizing
 "HtCap_Sys_T_OfficeSm_S" = -26748.32   $ Sizing
 "HtCap_Sys_T_OfficeSm_W" = -23939.15   $ Sizing
 "HtCap_Sys_T_Restrm_C" = -3529.434   $ Sizing
 "HtCap_Sys_T_StorSm_E" = -7123.229   $ Sizing
 "HtCap_Sys_T_StorSm_N" = -3728.379   $ Sizing
 "HtCap_Sys_T_StorSm_S" = -7505.25   $ Sizing
 "HtCap_Sys_T_StorSm_W" = -7103.237   $ Sizing
..

##include Templates\OfS_DX_SZ.inp
END ..
COMPUTE ..
STOP ..
