INPUT ..

##fileprefix C:\Users\jglasskatz\MASControl3\
##set1 IsSizing FALSE
##set1 CoolType DX
##set1 HeatType ELECTRIC
##set1 EU_HrRepVar 1
##set1 BldgVint 2011
##set1 BldgLoc CZ01

 ##set1 mBFMult 1   $ IP Tech: RefgChg-NRes-Std

PARAMETER
 "AltFactor" = 1.00753   $ IP Non-Tech
 "BldgEconoFlag" = 1   $ IP Non-Tech
 "Break_EWSF" = 1   $ IP Non-Tech
 "Break_LWSF" = 1.1   $ IP Non-Tech
 "CDD_DBHi10" = 65   $ IP Non-Tech
 "CDD_DBHi7" = 68   $ IP Non-Tech
 "CDD_DBHi8" = 66   $ IP Non-Tech
 "CDD_DBHi9" = 77   $ IP Non-Tech
 "CDD_DBRange10" = 17   $ IP Non-Tech
 "CDD_DBRange7" = 11   $ IP Non-Tech
 "CDD_DBRange8" = 10   $ IP Non-Tech
 "CDD_DBRange9" = 29   $ IP Non-Tech
 "CDD_Day10" = 15   $ IP Non-Tech
 "CDD_Day7" = 16   $ IP Non-Tech
 "CDD_Day8" = 20   $ IP Non-Tech
 "CDD_Day9" = 17   $ IP Non-Tech
 "CDD_HrHi10" = 12   $ IP Non-Tech
 "CDD_HrHi7" = 12   $ IP Non-Tech
 "CDD_HrHi8" = 13   $ IP Non-Tech
 "CDD_HrHi9" = 17   $ IP Non-Tech
 "CDD_HrLo10" = 6   $ IP Non-Tech
 "CDD_HrLo7" = 3   $ IP Non-Tech
 "CDD_HrLo8" = 8   $ IP Non-Tech
 "CDD_HrLo9" = 4   $ IP Non-Tech
 "CDD_WB10" = 57.53039551   $ IP Non-Tech
 "CDD_WB7" = 59.29250717   $ IP Non-Tech
 "CDD_WB8" = 60.75350189   $ IP Non-Tech
 "CDD_WB9" = 61.08643341   $ IP Non-Tech
 "CZ_Category" = Tem   $ IP Non-Tech
 "ChwVintEconoFlag" = 1   $ IP Non-Tech
 "CompRoomData_EWSF" = 5   $ IP Non-Tech
 "CompRoomData_LWSF" = 1.1   $ IP Non-Tech
 "Conference_EWSF" = 1   $ IP Non-Tech
 "Conference_LWSF" = 1.4   $ IP Non-Tech
 "CoolSetT" = 45   $ IP Non-Tech
 "CoolType" = DX   $ IP Non-Tech
 "CopyRoom_EWSF" = 1.5   $ IP Non-Tech
 "CopyRoom_LWSF" = 1.3   $ IP Non-Tech
 "DesCoolT" = 75   $ IP Non-Tech
 "DesHeatT" = 73   $ IP Non-Tech
 "EconoEnthLimit" = 28   $ IP Non-Tech
 "EconoTempLimit" = 70   $ IP Non-Tech
 "Elevation" = 203   $ IP Non-Tech
 "HDD_CloudAmt1" = 0   $ IP Non-Tech
 "HDD_DBHi1" = 53   $ IP Non-Tech
 "HDD_DBRange1" = 20   $ IP Non-Tech
 "HDD_Day1" = 15   $ IP Non-Tech
 "HDD_HrHi1" = 14   $ IP Non-Tech
 "HDD_HrLo1" = 6   $ IP Non-Tech
 "HDD_WB1" = 42.3   $ IP Non-Tech
 "HDD_WindSpd1" = 12.7   $ IP Non-Tech
 "Hall_EWSF" = 0.2   $ IP Non-Tech
 "Hall_LWSF" = 0.6   $ IP Non-Tech
 "HeatSrc" = ELECTRIC   $ IP Non-Tech
 "HeatSrcTU" = HEAT-PUMP   $ IP Non-Tech
 "HeatType" = Elec   $ IP Non-Tech
 "HeatTypeTU" = HEAT-PUMP   $ IP Non-Tech
 "IndoorFanMode" = CONTINUOUS   $ IP Non-Tech
 "KT_TransferAir" = No   $ IP Non-Tech
 "Latitude" = 40.8   $ IP Non-Tech
 "LobbyWaiting_EWSF" = 0.5   $ IP Non-Tech
 "LobbyWaiting_LWSF" = 1.3   $ IP Non-Tech
 "Longitude" = 124.2   $ IP Non-Tech
 "LtgMsrApplic" = ALL   $ Msr TechID: NonResLtgRefMsr-EX
 "LtgSav_CFL" = 0   $ Msr TechID: NonResLtgRefMsr-EX
 "LtgSav_EX" = 0.3   $ Msr TechID: NonResLtgRefMsr-EX
 "LtgSav_HB" = 0   $ Msr TechID: NonResLtgRefMsr-EX
 "LtgSav_LF" = 0   $ Msr TechID: NonResLtgRefMsr-EX
 "LtgSav_SP" = 0   $ Msr TechID: NonResLtgRefMsr-EX
 "MZFanMechEff" = 0.58   $ IP Non-Tech
 "MZHasRetFan" = FALSE   $ IP Non-Tech
 "MZ_RFanWPerCfm" = 0.33   $ IP Non-Tech
 "MZ_SFanWPerCfm" = 0.75   $ IP Non-Tech
 "MZ_SupFanStatic" = 2.25   $ IP Non-Tech
 "MaxSupT_MZ" = 100   $ IP Non-Tech
 "MaxSupT_SZ" = 100   $ IP Non-Tech
 "MaxSupT_TU" = 90   $ IP Non-Tech
 "MechElecRoom_EWSF" = 0.2   $ IP Non-Tech
 "MechElecRoom_LWSF" = 0.7   $ IP Non-Tech
 "MinCfmPerSF" = 0.4   $ IP Non-Tech
 "MinSupT" = 55   $ IP Non-Tech
 "OccCoolT" = 76   $ IP Non-Tech
 "OccHeatT" = 72   $ IP Non-Tech
 "OfficeOpen_EWSF" = 1.5   $ IP Non-Tech
 "OfficeOpen_LWSF" = 1.1   $ IP Non-Tech
 "OfficeSmall_EWSF" = 1.5   $ IP Non-Tech
 "OfficeSmall_LWSF" = 1.3   $ IP Non-Tech
 "PkgDxVintEconoFlag" = 0   $ IP Non-Tech
 "Restroom_EWSF" = 0.2   $ IP Non-Tech
 "Restroom_LWSF" = 0.6   $ IP Non-Tech
 "SZFanMechEff" = 0.58   $ IP Non-Tech
 "SZHasRetFan" = FALSE   $ IP Non-Tech
 "SZ_Is_2Spd" = FALSE   $ IP Non-Tech
 "SZ_SFanWPerCfm" = 0.46   $ IP Non-Tech
 "SZ_SupFanStatic" = 0.75   $ IP Non-Tech
 "StorageSmlCond_EWSF" = 0.2   $ IP Non-Tech
 "StorageSmlCond_LWSF" = 0.6   $ IP Non-Tech
 "T24GlzTbl" = CZTbl   $ IP Non-Tech
 "TermUnitFanMechEff" = 1   $ IP Non-Tech
 "TermUnitFanMode" = INTERMITTENT   $ IP Non-Tech
 "TwrSetpt" = 80   $ IP Non-Tech
 "UnocCoolT" = 86   $ IP Non-Tech
 "UnocHeatT" = 62   $ IP Non-Tech
 "WlhpVintEconoFlag" = 0   $ IP Non-Tech
 "EconoCtrl" = OA-TEMP   $ IP Tech: AirEcono-OATemp
 "MaxOAFrac" = 0.85   $ IP Tech: AirEcono-OATemp
 "UseEconoVintApplic" = FALSE   $ IP Tech: AirEcono-OATemp
 "DuctDT" = 1   $ IP Tech: ComDuctInsul-1
 "DuctAirLoss" = 0   $ IP Tech: ComDuctLeak-0
 "DuctLossOAFrac" = 0   $ IP Tech: ComDuctLeak-0
 "ComRoofInsCalc" = FromUo   $ IP Tech: ComRoofIns-WFrm-0.05
 "ComRoofInsR" = -999   $ IP Tech: ComRoofIns-WFrm-0.05
 "ComRoofUo" = 0.05   $ IP Tech: ComRoofIns-WFrm-0.05
 "ComEWInsCalc" = FromUo   $ IP Tech: ComWallIns-WFrm-0.08
 "ComEWInsR" = -999   $ IP Tech: ComWallIns-WFrm-0.08
 "ComEWUo" = 0.08   $ IP Tech: ComWallIns-WFrm-0.08
 "ComN_SHGC" = 0.47   $ IP Tech: NResWin-ComN-0.47-0.47
 "ComN_UFactor" = 0.47   $ IP Tech: NResWin-ComN-0.47-0.47
 "ComN_VisTrans" = 0.75   $ IP Tech: NResWin-ComN-0.47-0.47
 "ComN_WinCode" = G2633   $ IP Tech: NResWin-ComN-0.47-0.47
 "ComN_WinFrmFrac" = 0.17   $ IP Tech: NResWin-ComN-0.47-0.47
 "ComN_WinFrmU" = 0.3   $ IP Tech: NResWin-ComN-0.47-0.47
 "ComO_SHGC" = 0.43   $ IP Tech: NResWin-ComO-0.47-0.43
 "ComO_UFactor" = 0.47   $ IP Tech: NResWin-ComO-0.47-0.43
 "ComO_VisTrans" = 0.68   $ IP Tech: NResWin-ComO-0.47-0.43
 "ComO_WinCode" = G2663   $ IP Tech: NResWin-ComO-0.47-0.43
 "ComO_WinFrmFrac" = 0.17   $ IP Tech: NResWin-ComO-0.47-0.43
 "ComO_WinFrmU" = 0.3   $ IP Tech: NResWin-ComO-0.47-0.43
 "BF_fFlow" = PSZ65to135_BF_fFlow   $ IP Tech: PkgAC1SpH-65to135-E11.2
 "BF_fT" = PSZ65to135_BF_fT   $ IP Tech: PkgAC1SpH-65to135-E11.2
 "CEIR_fPLR" = PSZ65to135_CEIR_fPLR   $ IP Tech: PkgAC1SpH-65to135-E11.2
 "CLoss_fPLR" = PSZ65to135_CLoss_fPLR   $ IP Tech: PkgAC1SpH-65to135-E11.2
 "COP" = -1   $ IP Tech: PkgAC1SpH-65to135-E11.2
 "COP47" = -1   $ IP Tech: PkgAC1SpH-65to135-E11.2
 "CfmPerBtuh" = 0.02917   $ IP Tech: PkgAC1SpH-65to135-E11.2
 "ClCap_fT" = PSZ65to135_ClCap_fT   $ IP Tech: PkgAC1SpH-65to135-E11.2
 "ClSH_fT" = PSZ65to135_ClSH_fT   $ IP Tech: PkgAC1SpH-65to135-E11.2
 "CoilBF" = 0.114   $ IP Tech: PkgAC1SpH-65to135-E11.2
 "CondWPerBtuh" = 0   $ IP Tech: PkgAC1SpH-65to135-E11.2
 "CoolSensCap" = 0.663   $ IP Tech: PkgAC1SpH-65to135-E11.2
 "CoolingEIR" = 0.2612   $ IP Tech: PkgAC1SpH-65to135-E11.2
 "CrnkEIR" = 0.0026   $ IP Tech: PkgAC1SpH-65to135-E11.2
 "CrnkMaxT" = 50   $ IP Tech: PkgAC1SpH-65to135-E11.2
 "DXType" = Pkg   $ IP Tech: PkgAC1SpH-65to135-E11.2
 "EER" = 10.83   $ IP Tech: PkgAC1SpH-65to135-E11.2
 "EIR_fT" = PSZ65to135_EIR_fT   $ IP Tech: PkgAC1SpH-65to135-E11.2
 "FanEirPlr" = TwoSpeedFan   $ IP Tech: PkgAC1SpH-65to135-E11.2
 "FanWPerCfm" = 0.412   $ IP Tech: PkgAC1SpH-65to135-E11.2
 "HIR_fT" = DEFAULT   $ IP Tech: PkgAC1SpH-65to135-E11.2
 "HtCap_fT" = DEFAULT   $ IP Tech: PkgAC1SpH-65to135-E11.2
 "HtCoolCapRatio" = -1   $ IP Tech: PkgAC1SpH-65to135-E11.2
 "HtgEIR" = -1   $ IP Tech: PkgAC1SpH-65to135-E11.2
 "HtgFuel" = Gas   $ IP Tech: PkgAC1SpH-65to135-E11.2
 "IEER" = 13.65   $ IP Tech: PkgAC1SpH-65to135-E11.2
 "LowSpdCapRatio" = 0.5   $ IP Tech: PkgAC1SpH-65to135-E11.2
 "LowSpdCfmRatio" = 0.66   $ IP Tech: PkgAC1SpH-65to135-E11.2
 "NominalCap" = 15   $ IP Tech: PkgAC1SpH-65to135-E11.2
 "NumStages" = 1   $ IP Tech: PkgAC1SpH-65to135-E11.2
 "RatedEER" = 11.2   $ IP Tech: PkgAC1SpH-65to135-E11.2
 "RatedSupMtrClass" = HiEff   $ IP Tech: PkgAC1SpH-65to135-E11.2
 "SizeRange" = 65to135   $ IP Tech: PkgAC1SpH-65to135-E11.2
 "SubType" = AC   $ IP Tech: PkgAC1SpH-65to135-E11.2
 "SupMotEff" = 0.84   $ IP Tech: PkgAC1SpH-65to135-E11.2
 "Tier" = 0   $ IP Tech: PkgAC1SpH-65to135-E11.2
 "TotCoolCap" = 184140   $ IP Tech: PkgAC1SpH-65to135-E11.2
 "BFMult" = 1   $ IP Tech: RefgChg-NRes-Std
 "CoolEirMult" = 1   $ IP Tech: RefgChg-NRes-Std
 "SensCoolCapMult" = 1   $ IP Tech: RefgChg-NRes-Std
 "TotCoolCapMult" = 1   $ IP Tech: RefgChg-NRes-Std
 "AltAdjFactor" = 1.007532   $ Sizing
 "CAssFlo_L_Break_CZn" = 279.9954   $ Sizing
 "CAssFlo_L_CompDC_CZn" = 161.0644   $ Sizing
 "CAssFlo_L_Conf_CZn" = 207.8147   $ Sizing
 "CAssFlo_L_CopyRm_CZn" = 59.23148   $ Sizing
 "CAssFlo_L_Hall_EZn" = 97.56175   $ Sizing
 "CAssFlo_L_Hall_NZn" = 54.52306   $ Sizing
 "CAssFlo_L_Hall_SZn" = 112.4981   $ Sizing
 "CAssFlo_L_Hall_WZn" = 100.3632   $ Sizing
 "CAssFlo_L_LobWait_EZn" = 239.975   $ Sizing
 "CAssFlo_L_LobWait_NZn" = 114.6226   $ Sizing
 "CAssFlo_L_LobWait_SZn" = 264.9255   $ Sizing
 "CAssFlo_L_LobWait_WZn" = 234.8507   $ Sizing
 "CAssFlo_L_MechElec_CZn" = 65.93681   $ Sizing
 "CAssFlo_L_OfficeOpn_CZn" = 60.19061   $ Sizing
 "CAssFlo_L_OfficeOpn_EZn" = 498.2088   $ Sizing
 "CAssFlo_L_OfficeOpn_NZn" = 228.2866   $ Sizing
 "CAssFlo_L_OfficeOpn_SZn" = 503.1408   $ Sizing
 "CAssFlo_L_OfficeOpn_WZn" = 463.9756   $ Sizing
 "CAssFlo_L_OfficeSm_EZn" = 416.819   $ Sizing
 "CAssFlo_L_OfficeSm_NZn" = 177.9224   $ Sizing
 "CAssFlo_L_OfficeSm_SZn" = 444.0829   $ Sizing
 "CAssFlo_L_OfficeSm_WZn" = 406.0244   $ Sizing
 "CAssFlo_L_Restrm_CZn" = 86.07105   $ Sizing
 "CAssFlo_L_StorSm_CZn" = 30.80354   $ Sizing
 "CAssFlo_L_StorSm_EZn" = 94.4805   $ Sizing
 "CAssFlo_L_StorSm_NZn" = 64.41483   $ Sizing
 "CAssFlo_L_StorSm_SZn" = 101.8818   $ Sizing
 "CAssFlo_L_StorSm_WZn" = 91.75037   $ Sizing
 "CAssFlo_T_Conf_CZn" = 211.5831   $ Sizing
 "CAssFlo_T_Hall_EZn" = 116.8403   $ Sizing
 "CAssFlo_T_Hall_NZn" = 51.13231   $ Sizing
 "CAssFlo_T_Hall_SZn" = 132.2108   $ Sizing
 "CAssFlo_T_Hall_WZn" = 113.0419   $ Sizing
 "CAssFlo_T_OfficeOpn_CZn" = 58.9491   $ Sizing
 "CAssFlo_T_OfficeOpn_EZn" = 506.1294   $ Sizing
 "CAssFlo_T_OfficeOpn_NZn" = 253.796   $ Sizing
 "CAssFlo_T_OfficeOpn_SZn" = 540.5074   $ Sizing
 "CAssFlo_T_OfficeOpn_WZn" = 468.0353   $ Sizing
 "CAssFlo_T_OfficeSm_EZn" = 432.6011   $ Sizing
 "CAssFlo_T_OfficeSm_NZn" = 200.6672   $ Sizing
 "CAssFlo_T_OfficeSm_SZn" = 480.8697   $ Sizing
 "CAssFlo_T_OfficeSm_WZn" = 411.7025   $ Sizing
 "CAssFlo_T_Restrm_CZn" = 86.07105   $ Sizing
 "CAssFlo_T_StorSm_EZn" = 113.475   $ Sizing
 "CAssFlo_T_StorSm_NZn" = 63.61142   $ Sizing
 "CAssFlo_T_StorSm_SZn" = 124.6105   $ Sizing
 "CAssFlo_T_StorSm_WZn" = 110.6587   $ Sizing
 "CHRtFlo_Sys_L_Break_C" = 279.9954   $ Sizing
 "CHRtFlo_Sys_L_CompDC_C" = 161.0644   $ Sizing
 "CHRtFlo_Sys_L_Conf_C" = 207.8147   $ Sizing
 "CHRtFlo_Sys_L_CopyRm_C" = 59.23148   $ Sizing
 "CHRtFlo_Sys_L_Hall_E" = 97.56175   $ Sizing
 "CHRtFlo_Sys_L_Hall_N" = 54.52306   $ Sizing
 "CHRtFlo_Sys_L_Hall_S" = 112.4981   $ Sizing
 "CHRtFlo_Sys_L_Hall_W" = 100.3632   $ Sizing
 "CHRtFlo_Sys_L_LobWait_E" = 239.975   $ Sizing
 "CHRtFlo_Sys_L_LobWait_N" = 114.6226   $ Sizing
 "CHRtFlo_Sys_L_LobWait_S" = 264.9255   $ Sizing
 "CHRtFlo_Sys_L_LobWait_W" = 234.8507   $ Sizing
 "CHRtFlo_Sys_L_MechElec_C" = 65.93681   $ Sizing
 "CHRtFlo_Sys_L_OfficeOpn_C" = 60.19061   $ Sizing
 "CHRtFlo_Sys_L_OfficeOpn_E" = 498.2088   $ Sizing
 "CHRtFlo_Sys_L_OfficeOpn_N" = 228.2866   $ Sizing
 "CHRtFlo_Sys_L_OfficeOpn_S" = 503.1408   $ Sizing
 "CHRtFlo_Sys_L_OfficeOpn_W" = 463.9756   $ Sizing
 "CHRtFlo_Sys_L_OfficeSm_E" = 416.819   $ Sizing
 "CHRtFlo_Sys_L_OfficeSm_N" = 177.9224   $ Sizing
 "CHRtFlo_Sys_L_OfficeSm_S" = 444.0829   $ Sizing
 "CHRtFlo_Sys_L_OfficeSm_W" = 406.0244   $ Sizing
 "CHRtFlo_Sys_L_Restrm_C" = 86.07105   $ Sizing
 "CHRtFlo_Sys_L_StorSm_C" = 30.80354   $ Sizing
 "CHRtFlo_Sys_L_StorSm_E" = 94.4805   $ Sizing
 "CHRtFlo_Sys_L_StorSm_N" = 64.41483   $ Sizing
 "CHRtFlo_Sys_L_StorSm_S" = 101.8818   $ Sizing
 "CHRtFlo_Sys_L_StorSm_W" = 91.75037   $ Sizing
 "CHRtFlo_Sys_T_Conf_C" = 211.5831   $ Sizing
 "CHRtFlo_Sys_T_Hall_E" = 116.8403   $ Sizing
 "CHRtFlo_Sys_T_Hall_N" = 51.13231   $ Sizing
 "CHRtFlo_Sys_T_Hall_S" = 132.2108   $ Sizing
 "CHRtFlo_Sys_T_Hall_W" = 113.0419   $ Sizing
 "CHRtFlo_Sys_T_OfficeOpn_C" = 58.9491   $ Sizing
 "CHRtFlo_Sys_T_OfficeOpn_E" = 506.1294   $ Sizing
 "CHRtFlo_Sys_T_OfficeOpn_N" = 253.796   $ Sizing
 "CHRtFlo_Sys_T_OfficeOpn_S" = 540.5074   $ Sizing
 "CHRtFlo_Sys_T_OfficeOpn_W" = 468.0353   $ Sizing
 "CHRtFlo_Sys_T_OfficeSm_E" = 432.6011   $ Sizing
 "CHRtFlo_Sys_T_OfficeSm_N" = 200.6672   $ Sizing
 "CHRtFlo_Sys_T_OfficeSm_S" = 480.8697   $ Sizing
 "CHRtFlo_Sys_T_OfficeSm_W" = 411.7025   $ Sizing
 "CHRtFlo_Sys_T_Restrm_C" = 86.07105   $ Sizing
 "CHRtFlo_Sys_T_StorSm_E" = 113.475   $ Sizing
 "CHRtFlo_Sys_T_StorSm_N" = 63.61142   $ Sizing
 "CHRtFlo_Sys_T_StorSm_S" = 124.6105   $ Sizing
 "CHRtFlo_Sys_T_StorSm_W" = 110.6587   $ Sizing
 "CRtdFlo_Sys_L_Break_C" = 279.9954   $ Sizing
 "CRtdFlo_Sys_L_CompDC_C" = 161.0644   $ Sizing
 "CRtdFlo_Sys_L_Conf_C" = 207.8147   $ Sizing
 "CRtdFlo_Sys_L_CopyRm_C" = 59.23148   $ Sizing
 "CRtdFlo_Sys_L_Hall_E" = 97.56175   $ Sizing
 "CRtdFlo_Sys_L_Hall_N" = 54.52306   $ Sizing
 "CRtdFlo_Sys_L_Hall_S" = 112.4981   $ Sizing
 "CRtdFlo_Sys_L_Hall_W" = 100.3632   $ Sizing
 "CRtdFlo_Sys_L_LobWait_E" = 239.975   $ Sizing
 "CRtdFlo_Sys_L_LobWait_N" = 114.6226   $ Sizing
 "CRtdFlo_Sys_L_LobWait_S" = 264.9255   $ Sizing
 "CRtdFlo_Sys_L_LobWait_W" = 234.8507   $ Sizing
 "CRtdFlo_Sys_L_MechElec_C" = 65.93681   $ Sizing
 "CRtdFlo_Sys_L_OfficeOpn_C" = 60.19061   $ Sizing
 "CRtdFlo_Sys_L_OfficeOpn_E" = 498.2088   $ Sizing
 "CRtdFlo_Sys_L_OfficeOpn_N" = 228.2866   $ Sizing
 "CRtdFlo_Sys_L_OfficeOpn_S" = 503.1408   $ Sizing
 "CRtdFlo_Sys_L_OfficeOpn_W" = 463.9756   $ Sizing
 "CRtdFlo_Sys_L_OfficeSm_E" = 416.819   $ Sizing
 "CRtdFlo_Sys_L_OfficeSm_N" = 177.9224   $ Sizing
 "CRtdFlo_Sys_L_OfficeSm_S" = 444.0829   $ Sizing
 "CRtdFlo_Sys_L_OfficeSm_W" = 406.0244   $ Sizing
 "CRtdFlo_Sys_L_Restrm_C" = 86.07105   $ Sizing
 "CRtdFlo_Sys_L_StorSm_C" = 30.80354   $ Sizing
 "CRtdFlo_Sys_L_StorSm_E" = 94.4805   $ Sizing
 "CRtdFlo_Sys_L_StorSm_N" = 64.41483   $ Sizing
 "CRtdFlo_Sys_L_StorSm_S" = 101.8818   $ Sizing
 "CRtdFlo_Sys_L_StorSm_W" = 91.75037   $ Sizing
 "CRtdFlo_Sys_T_Conf_C" = 211.5831   $ Sizing
 "CRtdFlo_Sys_T_Hall_E" = 116.8403   $ Sizing
 "CRtdFlo_Sys_T_Hall_N" = 51.13231   $ Sizing
 "CRtdFlo_Sys_T_Hall_S" = 132.2108   $ Sizing
 "CRtdFlo_Sys_T_Hall_W" = 113.0419   $ Sizing
 "CRtdFlo_Sys_T_OfficeOpn_C" = 58.9491   $ Sizing
 "CRtdFlo_Sys_T_OfficeOpn_E" = 506.1294   $ Sizing
 "CRtdFlo_Sys_T_OfficeOpn_N" = 253.796   $ Sizing
 "CRtdFlo_Sys_T_OfficeOpn_S" = 540.5074   $ Sizing
 "CRtdFlo_Sys_T_OfficeOpn_W" = 468.0353   $ Sizing
 "CRtdFlo_Sys_T_OfficeSm_E" = 432.6011   $ Sizing
 "CRtdFlo_Sys_T_OfficeSm_N" = 200.6672   $ Sizing
 "CRtdFlo_Sys_T_OfficeSm_S" = 480.8697   $ Sizing
 "CRtdFlo_Sys_T_OfficeSm_W" = 411.7025   $ Sizing
 "CRtdFlo_Sys_T_Restrm_C" = 86.07105   $ Sizing
 "CRtdFlo_Sys_T_StorSm_E" = 113.475   $ Sizing
 "CRtdFlo_Sys_T_StorSm_N" = 63.61142   $ Sizing
 "CRtdFlo_Sys_T_StorSm_S" = 124.6105   $ Sizing
 "CRtdFlo_Sys_T_StorSm_W" = 110.6587   $ Sizing
 "CSupFlo_Sys_L_Break_C" = 279.9954   $ Sizing
 "CSupFlo_Sys_L_CompDC_C" = 161.0644   $ Sizing
 "CSupFlo_Sys_L_Conf_C" = 207.8147   $ Sizing
 "CSupFlo_Sys_L_CopyRm_C" = 59.23148   $ Sizing
 "CSupFlo_Sys_L_Hall_E" = 97.56175   $ Sizing
 "CSupFlo_Sys_L_Hall_N" = 54.52306   $ Sizing
 "CSupFlo_Sys_L_Hall_S" = 112.4981   $ Sizing
 "CSupFlo_Sys_L_Hall_W" = 100.3632   $ Sizing
 "CSupFlo_Sys_L_LobWait_E" = 239.975   $ Sizing
 "CSupFlo_Sys_L_LobWait_N" = 114.6226   $ Sizing
 "CSupFlo_Sys_L_LobWait_S" = 264.9255   $ Sizing
 "CSupFlo_Sys_L_LobWait_W" = 234.8507   $ Sizing
 "CSupFlo_Sys_L_MechElec_C" = 65.93681   $ Sizing
 "CSupFlo_Sys_L_OfficeOpn_C" = 60.19061   $ Sizing
 "CSupFlo_Sys_L_OfficeOpn_E" = 498.2088   $ Sizing
 "CSupFlo_Sys_L_OfficeOpn_N" = 228.2866   $ Sizing
 "CSupFlo_Sys_L_OfficeOpn_S" = 503.1408   $ Sizing
 "CSupFlo_Sys_L_OfficeOpn_W" = 463.9756   $ Sizing
 "CSupFlo_Sys_L_OfficeSm_E" = 416.819   $ Sizing
 "CSupFlo_Sys_L_OfficeSm_N" = 177.9224   $ Sizing
 "CSupFlo_Sys_L_OfficeSm_S" = 444.0829   $ Sizing
 "CSupFlo_Sys_L_OfficeSm_W" = 406.0244   $ Sizing
 "CSupFlo_Sys_L_Restrm_C" = 86.07105   $ Sizing
 "CSupFlo_Sys_L_StorSm_C" = 30.80354   $ Sizing
 "CSupFlo_Sys_L_StorSm_E" = 94.4805   $ Sizing
 "CSupFlo_Sys_L_StorSm_N" = 64.41483   $ Sizing
 "CSupFlo_Sys_L_StorSm_S" = 101.8818   $ Sizing
 "CSupFlo_Sys_L_StorSm_W" = 91.75037   $ Sizing
 "CSupFlo_Sys_T_Conf_C" = 211.5831   $ Sizing
 "CSupFlo_Sys_T_Hall_E" = 116.8403   $ Sizing
 "CSupFlo_Sys_T_Hall_N" = 51.13231   $ Sizing
 "CSupFlo_Sys_T_Hall_S" = 132.2108   $ Sizing
 "CSupFlo_Sys_T_Hall_W" = 113.0419   $ Sizing
 "CSupFlo_Sys_T_OfficeOpn_C" = 58.9491   $ Sizing
 "CSupFlo_Sys_T_OfficeOpn_E" = 506.1294   $ Sizing
 "CSupFlo_Sys_T_OfficeOpn_N" = 253.796   $ Sizing
 "CSupFlo_Sys_T_OfficeOpn_S" = 540.5074   $ Sizing
 "CSupFlo_Sys_T_OfficeOpn_W" = 468.0353   $ Sizing
 "CSupFlo_Sys_T_OfficeSm_E" = 432.6011   $ Sizing
 "CSupFlo_Sys_T_OfficeSm_N" = 200.6672   $ Sizing
 "CSupFlo_Sys_T_OfficeSm_S" = 480.8697   $ Sizing
 "CSupFlo_Sys_T_OfficeSm_W" = 411.7025   $ Sizing
 "CSupFlo_Sys_T_Restrm_C" = 86.07105   $ Sizing
 "CSupFlo_Sys_T_StorSm_E" = 113.475   $ Sizing
 "CSupFlo_Sys_T_StorSm_N" = 63.61142   $ Sizing
 "CSupFlo_Sys_T_StorSm_S" = 124.6105   $ Sizing
 "CSupFlo_Sys_T_StorSm_W" = 110.6587   $ Sizing
 "ClCap_Sys_L_Break_C" = 9528.074   $ Sizing
 "ClCap_Sys_L_CompDC_C" = 5480.925   $ Sizing
 "ClCap_Sys_L_Conf_C" = 9000.483   $ Sizing
 "ClCap_Sys_L_CopyRm_C" = 2015.612   $ Sizing
 "ClCap_Sys_L_Hall_E" = 3319.968   $ Sizing
 "ClCap_Sys_L_Hall_N" = 1855.387   $ Sizing
 "ClCap_Sys_L_Hall_S" = 3828.245   $ Sizing
 "ClCap_Sys_L_Hall_W" = 3415.3   $ Sizing
 "ClCap_Sys_L_LobWait_E" = 8166.206   $ Sizing
 "ClCap_Sys_L_LobWait_N" = 3900.538   $ Sizing
 "ClCap_Sys_L_LobWait_S" = 9015.258   $ Sizing
 "ClCap_Sys_L_LobWait_W" = 7991.828   $ Sizing
 "ClCap_Sys_L_MechElec_C" = 2243.79   $ Sizing
 "ClCap_Sys_L_OfficeOpn_C" = 2048.25   $ Sizing
 "ClCap_Sys_L_OfficeOpn_E" = 16953.75   $ Sizing
 "ClCap_Sys_L_OfficeOpn_N" = 7768.458   $ Sizing
 "ClCap_Sys_L_OfficeOpn_S" = 17121.58   $ Sizing
 "ClCap_Sys_L_OfficeOpn_W" = 15788.81   $ Sizing
 "ClCap_Sys_L_OfficeSm_E" = 14184.1   $ Sizing
 "ClCap_Sys_L_OfficeSm_N" = 6054.593   $ Sizing
 "ClCap_Sys_L_OfficeSm_S" = 15111.87   $ Sizing
 "ClCap_Sys_L_OfficeSm_W" = 13816.77   $ Sizing
 "ClCap_Sys_L_Restrm_C" = 2928.947   $ Sizing
 "ClCap_Sys_L_StorSm_C" = 1048.226   $ Sizing
 "ClCap_Sys_L_StorSm_E" = 3215.115   $ Sizing
 "ClCap_Sys_L_StorSm_N" = 2191.998   $ Sizing
 "ClCap_Sys_L_StorSm_S" = 3466.976   $ Sizing
 "ClCap_Sys_L_StorSm_W" = 3122.21   $ Sizing
 "ClCap_Sys_T_Conf_C" = 9163.693   $ Sizing
 "ClCap_Sys_T_Hall_E" = 3976.004   $ Sizing
 "ClCap_Sys_T_Hall_N" = 1740.002   $ Sizing
 "ClCap_Sys_T_Hall_S" = 4499.054   $ Sizing
 "ClCap_Sys_T_Hall_W" = 3846.75   $ Sizing
 "ClCap_Sys_T_OfficeOpn_C" = 2006.002   $ Sizing
 "ClCap_Sys_T_OfficeOpn_E" = 17223.28   $ Sizing
 "ClCap_Sys_T_OfficeOpn_N" = 8636.524   $ Sizing
 "ClCap_Sys_T_OfficeOpn_S" = 18393.14   $ Sizing
 "ClCap_Sys_T_OfficeOpn_W" = 15926.96   $ Sizing
 "ClCap_Sys_T_OfficeSm_E" = 14721.16   $ Sizing
 "ClCap_Sys_T_OfficeSm_N" = 6828.583   $ Sizing
 "ClCap_Sys_T_OfficeSm_S" = 16363.71   $ Sizing
 "ClCap_Sys_T_OfficeSm_W" = 14009.99   $ Sizing
 "ClCap_Sys_T_Restrm_C" = 2928.947   $ Sizing
 "ClCap_Sys_T_StorSm_E" = 3861.486   $ Sizing
 "ClCap_Sys_T_StorSm_N" = 2164.658   $ Sizing
 "ClCap_Sys_T_StorSm_S" = 4240.42   $ Sizing
 "ClCap_Sys_T_StorSm_W" = 3765.649   $ Sizing
 "HtCap_L_Break_CZn" = 0   $ Sizing
 "HtCap_L_CompDC_CZn" = 0   $ Sizing
 "HtCap_L_Conf_CZn" = 0   $ Sizing
 "HtCap_L_CopyRm_CZn" = 0   $ Sizing
 "HtCap_L_Hall_EZn" = 0   $ Sizing
 "HtCap_L_Hall_NZn" = 0   $ Sizing
 "HtCap_L_Hall_SZn" = 0   $ Sizing
 "HtCap_L_Hall_WZn" = 0   $ Sizing
 "HtCap_L_LobWait_EZn" = 0   $ Sizing
 "HtCap_L_LobWait_NZn" = 0   $ Sizing
 "HtCap_L_LobWait_SZn" = 0   $ Sizing
 "HtCap_L_LobWait_WZn" = 0   $ Sizing
 "HtCap_L_MechElec_CZn" = 0   $ Sizing
 "HtCap_L_OfficeOpn_CZn" = 0   $ Sizing
 "HtCap_L_OfficeOpn_EZn" = 0   $ Sizing
 "HtCap_L_OfficeOpn_NZn" = 0   $ Sizing
 "HtCap_L_OfficeOpn_SZn" = 0   $ Sizing
 "HtCap_L_OfficeOpn_WZn" = 0   $ Sizing
 "HtCap_L_OfficeSm_EZn" = 0   $ Sizing
 "HtCap_L_OfficeSm_NZn" = 0   $ Sizing
 "HtCap_L_OfficeSm_SZn" = 0   $ Sizing
 "HtCap_L_OfficeSm_WZn" = 0   $ Sizing
 "HtCap_L_Restrm_CZn" = 0   $ Sizing
 "HtCap_L_StorSm_CZn" = 0   $ Sizing
 "HtCap_L_StorSm_EZn" = 0   $ Sizing
 "HtCap_L_StorSm_NZn" = 0   $ Sizing
 "HtCap_L_StorSm_SZn" = 0   $ Sizing
 "HtCap_L_StorSm_WZn" = 0   $ Sizing
 "HtCap_Sys_L_Break_C" = -16888.55   $ Sizing
 "HtCap_Sys_L_CompDC_C" = -5986.956   $ Sizing
 "HtCap_Sys_L_Conf_C" = -12874.36   $ Sizing
 "HtCap_Sys_L_CopyRm_C" = -4092.838   $ Sizing
 "HtCap_Sys_L_Hall_E" = -3752.16   $ Sizing
 "HtCap_Sys_L_Hall_N" = -2226.39   $ Sizing
 "HtCap_Sys_L_Hall_S" = -4090.845   $ Sizing
 "HtCap_Sys_L_Hall_W" = -3764.262   $ Sizing
 "HtCap_Sys_L_LobWait_E" = -9725.33   $ Sizing
 "HtCap_Sys_L_LobWait_N" = -5718.727   $ Sizing
 "HtCap_Sys_L_LobWait_S" = -10487.5   $ Sizing
 "HtCap_Sys_L_LobWait_W" = -9613.57   $ Sizing
 "HtCap_Sys_L_MechElec_C" = -3077.628   $ Sizing
 "HtCap_Sys_L_OfficeOpn_C" = -2514.651   $ Sizing
 "HtCap_Sys_L_OfficeOpn_E" = -18561.63   $ Sizing
 "HtCap_Sys_L_OfficeOpn_N" = -10346.32   $ Sizing
 "HtCap_Sys_L_OfficeOpn_S" = -18315.68   $ Sizing
 "HtCap_Sys_L_OfficeOpn_W" = -17709.53   $ Sizing
 "HtCap_Sys_L_OfficeSm_E" = -15449.8   $ Sizing
 "HtCap_Sys_L_OfficeSm_N" = -7812.799   $ Sizing
 "HtCap_Sys_L_OfficeSm_S" = -15549.74   $ Sizing
 "HtCap_Sys_L_OfficeSm_W" = -14904.39   $ Sizing
 "HtCap_Sys_L_Restrm_C" = -3154.371   $ Sizing
 "HtCap_Sys_L_StorSm_C" = -1348.5   $ Sizing
 "HtCap_Sys_L_StorSm_E" = -3776.358   $ Sizing
 "HtCap_Sys_L_StorSm_N" = -2850.3   $ Sizing
 "HtCap_Sys_L_StorSm_S" = -3990.812   $ Sizing
 "HtCap_Sys_L_StorSm_W" = -3734.387   $ Sizing
 "HtCap_Sys_T_Conf_C" = -13218.76   $ Sizing
 "HtCap_Sys_T_Hall_E" = -4818.031   $ Sizing
 "HtCap_Sys_T_Hall_N" = -2420.008   $ Sizing
 "HtCap_Sys_T_Hall_S" = -5373.078   $ Sizing
 "HtCap_Sys_T_Hall_W" = -4685.973   $ Sizing
 "HtCap_Sys_T_OfficeOpn_C" = -2732.326   $ Sizing
 "HtCap_Sys_T_OfficeOpn_E" = -20969.53   $ Sizing
 "HtCap_Sys_T_OfficeOpn_N" = -12003.27   $ Sizing
 "HtCap_Sys_T_OfficeOpn_S" = -21993.26   $ Sizing
 "HtCap_Sys_T_OfficeOpn_W" = -19643.49   $ Sizing
 "HtCap_Sys_T_OfficeSm_E" = -17514.43   $ Sizing
 "HtCap_Sys_T_OfficeSm_N" = -9329.643   $ Sizing
 "HtCap_Sys_T_OfficeSm_S" = -18932.65   $ Sizing
 "HtCap_Sys_T_OfficeSm_W" = -16798.74   $ Sizing
 "HtCap_Sys_T_Restrm_C" = -3608.211   $ Sizing
 "HtCap_Sys_T_StorSm_E" = -5036.683   $ Sizing
 "HtCap_Sys_T_StorSm_N" = -3220.742   $ Sizing
 "HtCap_Sys_T_StorSm_S" = -5340.288   $ Sizing
 "HtCap_Sys_T_StorSm_W" = -4918.044   $ Sizing
 "HtCap_T_Conf_CZn" = 0   $ Sizing
 "HtCap_T_Hall_EZn" = 0   $ Sizing
 "HtCap_T_Hall_NZn" = 0   $ Sizing
 "HtCap_T_Hall_SZn" = 0   $ Sizing
 "HtCap_T_Hall_WZn" = 0   $ Sizing
 "HtCap_T_OfficeOpn_CZn" = 0   $ Sizing
 "HtCap_T_OfficeOpn_EZn" = 0   $ Sizing
 "HtCap_T_OfficeOpn_NZn" = 0   $ Sizing
 "HtCap_T_OfficeOpn_SZn" = 0   $ Sizing
 "HtCap_T_OfficeOpn_WZn" = 0   $ Sizing
 "HtCap_T_OfficeSm_EZn" = 0   $ Sizing
 "HtCap_T_OfficeSm_NZn" = 0   $ Sizing
 "HtCap_T_OfficeSm_SZn" = 0   $ Sizing
 "HtCap_T_OfficeSm_WZn" = 0   $ Sizing
 "HtCap_T_Restrm_CZn" = 0   $ Sizing
 "HtCap_T_StorSm_EZn" = 0   $ Sizing
 "HtCap_T_StorSm_NZn" = 0   $ Sizing
 "HtCap_T_StorSm_SZn" = 0   $ Sizing
 "HtCap_T_StorSm_WZn" = 0   $ Sizing
..

##include Templates\OfS_DX_SZ.inp
END ..
COMPUTE ..
STOP ..
