INPUT ..

##fileprefix C:\Users\jglasskatz\MASControl3\
##set1 IsSizing FALSE
##set1 CoolType DX
##set1 HeatType FURNACE
##set1 EU_HrRepVar 0
##set1 BldgVint 1985
##set1 BldgLoc CZ09

 ##set1 mBFMult 1   $ IP Tech: RefgChg-NRes-Std

PARAMETER
 "AltFactor" = 1.02768   $ IP Non-Tech
 "BF_fFlow" = SpltAC1Sp_BF_fFlow   $ Msr (Var)TechID: PreNResSplitAC-45to-PENo
 "BF_fT" = SpltAC1Sp_BF_fT   $ Msr (Var)TechID: PreNResSplitAC-45to-PENo
 "BldgEconoFlag" = 1   $ IP Non-Tech
 "Break_EWSF" = 1   $ IP Non-Tech
 "Break_LWSF" = 1.1   $ IP Non-Tech
 "CDD_DBHi10" = 91   $ IP Non-Tech
 "CDD_DBHi7" = 91   $ IP Non-Tech
 "CDD_DBHi8" = 94   $ IP Non-Tech
 "CDD_DBHi9" = 100   $ IP Non-Tech
 "CDD_DBRange10" = 30   $ IP Non-Tech
 "CDD_DBRange7" = 19   $ IP Non-Tech
 "CDD_DBRange8" = 23   $ IP Non-Tech
 "CDD_DBRange9" = 24   $ IP Non-Tech
 "CDD_Day10" = 15   $ IP Non-Tech
 "CDD_Day7" = 16   $ IP Non-Tech
 "CDD_Day8" = 20   $ IP Non-Tech
 "CDD_Day9" = 17   $ IP Non-Tech
 "CDD_HrHi10" = 16   $ IP Non-Tech
 "CDD_HrHi7" = 16   $ IP Non-Tech
 "CDD_HrHi8" = 15   $ IP Non-Tech
 "CDD_HrHi9" = 13   $ IP Non-Tech
 "CDD_HrLo10" = 5   $ IP Non-Tech
 "CDD_HrLo7" = 6   $ IP Non-Tech
 "CDD_HrLo8" = 3   $ IP Non-Tech
 "CDD_HrLo9" = 7   $ IP Non-Tech
 "CDD_WB10" = 61.50949097   $ IP Non-Tech
 "CDD_WB7" = 74.70972443   $ IP Non-Tech
 "CDD_WB8" = 73.69755554   $ IP Non-Tech
 "CDD_WB9" = 73.82730103   $ IP Non-Tech
 "CEIR_fPLR_Hot" = SpltAC1Sp_CEIR_fPLR_Hot   $ Msr (Var)TechID: PreNResSplitAC-45to-PENo
 "CEIR_fPLR_Mod" = SpltAC1Sp_CEIR_fPLR_Mod   $ Msr (Var)TechID: PreNResSplitAC-45to-PENo
 "CEIR_fPLR_Tem" = SpltAC1Sp_CEIR_fPLR_Tem   $ Msr (Var)TechID: PreNResSplitAC-45to-PENo
 "CLoss_fPLR_Hot" = SpltAC1Sp_CLoss_fPLR_Hot   $ Msr (Var)TechID: PreNResSplitAC-45to-PENo
 "CLoss_fPLR_Mod" = SpltAC1Sp_CLoss_fPLR_Mod   $ Msr (Var)TechID: PreNResSplitAC-45to-PENo
 "CLoss_fPLR_Tem" = SpltAC1Sp_CLoss_fPLR_Tem   $ Msr (Var)TechID: PreNResSplitAC-45to-PENo
 "COP47" = 0   $ Msr (Var)TechID: PreNResSplitAC-45to-PENo
 "CZ_Category" = Mod   $ IP Non-Tech
 "CapRange" = Any   $ Msr (Var)TechID: PreNResSplitAC-45to-PENo
 "CfmPerBtuh" = 0.0321   $ Msr (Var)TechID: PreNResSplitAC-45to-PENo
 "ChwVintEconoFlag" = 1   $ IP Non-Tech
 "ClCap_fT" = SpltAC1Sp_ClCap_fT   $ Msr (Var)TechID: PreNResSplitAC-45to-PENo
 "ClSH_fT" = SpltAC1Sp_ClSH_fT   $ Msr (Var)TechID: PreNResSplitAC-45to-PENo
 "CoilBF" = 0.12   $ Msr (Var)TechID: PreNResSplitAC-45to-PENo
 "CompRoomData_EWSF" = 5.5   $ IP Non-Tech
 "CompRoomData_LWSF" = 1.2   $ IP Non-Tech
 "CondWPerBtuh" = 0   $ Msr (Var)TechID: PreNResSplitAC-45to-PENo
 "Conference_EWSF" = 1.1   $ IP Non-Tech
 "Conference_LWSF" = 1.4   $ IP Non-Tech
 "CoolSensCap" = 0.744   $ Msr (Var)TechID: PreNResSplitAC-45to-PENo
 "CoolSetT" = 45   $ IP Non-Tech
 "CoolType" = DX   $ IP Non-Tech
 "CoolingEIR" = 0.29437   $ Msr (Var)TechID: PreNResSplitAC-45to-PENo
 "CopyRoom_EWSF" = 1.65   $ IP Non-Tech
 "CopyRoom_LWSF" = 1.3   $ IP Non-Tech
 "CrnkEIR" = 0.0029437   $ Msr (Var)TechID: PreNResSplitAC-45to-PENo
 "CrnkMaxT" = 50   $ Msr (Var)TechID: PreNResSplitAC-45to-PENo
 "DXType" = SplitSEER   $ Msr (Var)TechID: PreNResSplitAC-45to-PENo
 "DesCoolT" = 75   $ IP Non-Tech
 "DesHeatT" = 73   $ IP Non-Tech
 "EER" = 9.799295775   $ Msr (Var)TechID: PreNResSplitAC-45to-PENo
 "EIR_fT" = SpltAC1Sp_EIR_fT   $ Msr (Var)TechID: PreNResSplitAC-45to-PENo
 "EconoCtrl" = FIXED   $ Msr (Multi)TechID: PreNResSplitAC-45to-PENo
 "EconoEnthLimit" = 28   $ IP Non-Tech
 "EconoTempLimit" = 71   $ IP Non-Tech
 "Elevation" = 741   $ IP Non-Tech
 "FanEirPlr" = TwoSpeedFan   $ Msr (Var)TechID: PreNResSplitAC-45to-PENo
 "FanWPerCfm" = 0.365   $ Msr (Var)TechID: PreNResSplitAC-45to-PENo
 "HDD_CloudAmt1" = 0   $ IP Non-Tech
 "HDD_DBHi1" = 55   $ IP Non-Tech
 "HDD_DBRange1" = 18   $ IP Non-Tech
 "HDD_Day1" = 15   $ IP Non-Tech
 "HDD_HrHi1" = 15   $ IP Non-Tech
 "HDD_HrLo1" = 5   $ IP Non-Tech
 "HDD_WB1" = 48.4   $ IP Non-Tech
 "HDD_WindSpd1" = 10.4   $ IP Non-Tech
 "HIR_fT" = 0   $ Msr (Var)TechID: PreNResSplitAC-45to-PENo
 "HSPF" = 0   $ Msr (Var)TechID: PreNResSplitAC-45to-PENo
 "Hall_EWSF" = 0.22   $ IP Non-Tech
 "Hall_LWSF" = 0.6   $ IP Non-Tech
 "HeatSrc" = FURNACE   $ IP Non-Tech
 "HeatSrcTU" = HEAT-PUMP   $ IP Non-Tech
 "HeatType" = GasFurn   $ IP Non-Tech
 "HeatTypeTU" = HEAT-PUMP   $ IP Non-Tech
 "HtCap_fT" = 0   $ Msr (Var)TechID: PreNResSplitAC-45to-PENo
 "HtCoolCapRatio" = 0   $ Msr (Var)TechID: PreNResSplitAC-45to-PENo
 "HtgEIR" = 0   $ Msr (Var)TechID: PreNResSplitAC-45to-PENo
 "IndoorFanMode" = CONTINUOUS   $ IP Non-Tech
 "KT_TransferAir" = No   $ IP Non-Tech
 "Latitude" = 34.1   $ IP Non-Tech
 "LobbyWaiting_EWSF" = 0.525   $ IP Non-Tech
 "LobbyWaiting_LWSF" = 1.3   $ IP Non-Tech
 "Longitude" = 117.8   $ IP Non-Tech
 "LowSpdCapRatio" = 1   $ Msr (Var)TechID: PreNResSplitAC-45to-PENo
 "LowSpdCfmRatio" = 1   $ Msr (Var)TechID: PreNResSplitAC-45to-PENo
 "MZFanMechEff" = 0.58   $ IP Non-Tech
 "MZHasRetFan" = FALSE   $ IP Non-Tech
 "MZ_RFanWPerCfm" = 0.33   $ IP Non-Tech
 "MZ_SFanWPerCfm" = 0.75   $ IP Non-Tech
 "MZ_SupFanStatic" = 2.25   $ IP Non-Tech
 "MaxOAFrac" = 1   $ Msr (Multi)TechID: PreNResSplitAC-45to-PENo
 "MaxSupT_MZ" = 100   $ IP Non-Tech
 "MaxSupT_SZ" = 100   $ IP Non-Tech
 "MaxSupT_TU" = 90   $ IP Non-Tech
 "MechElecRoom_EWSF" = 0.22   $ IP Non-Tech
 "MechElecRoom_LWSF" = 0.7   $ IP Non-Tech
 "MinCfmPerSF" = 0.4   $ IP Non-Tech
 "MinSupT" = 55   $ IP Non-Tech
 "NumStages" = 1   $ Msr (Var)TechID: PreNResSplitAC-45to-PENo
 "OccCoolT" = 76   $ IP Non-Tech
 "OccHeatT" = 72   $ IP Non-Tech
 "OfficeOpen_EWSF" = 1.65   $ IP Non-Tech
 "OfficeOpen_LWSF" = 1.2   $ IP Non-Tech
 "OfficeSmall_EWSF" = 1.65   $ IP Non-Tech
 "OfficeSmall_LWSF" = 1.3   $ IP Non-Tech
 "PkgDxVintEconoFlag" = 0   $ IP Non-Tech
 "Restroom_EWSF" = 0.22   $ IP Non-Tech
 "Restroom_LWSF" = 0.6   $ IP Non-Tech
 "SEER" = 11.5   $ Msr (Var)TechID: PreNResSplitAC-45to-PENo
 "SZFanMechEff" = 0.58   $ IP Non-Tech
 "SZHasRetFan" = FALSE   $ IP Non-Tech
 "SZ_Is_2Spd" = FALSE   $ IP Non-Tech
 "SZ_SFanWPerCfm" = 0.46   $ IP Non-Tech
 "SZ_SupFanStatic" = 0.75   $ IP Non-Tech
 "Sector" = Any   $ Msr (Var)TechID: PreNResSplitAC-45to-PENo
 "StorageSmlCond_EWSF" = 0.22   $ IP Non-Tech
 "StorageSmlCond_LWSF" = 0.6   $ IP Non-Tech
 "SubType" = AC   $ Msr (Var)TechID: PreNResSplitAC-45to-PENo
 "T24GlzTbl" = CZTbl   $ IP Non-Tech
 "TermUnitFanMechEff" = 1   $ IP Non-Tech
 "TermUnitFanMode" = INTERMITTENT   $ IP Non-Tech
 "TotCoolCap" = 34895   $ Msr (Var)TechID: PreNResSplitAC-45to-PENo
 "TwrSetpt" = 86.9   $ IP Non-Tech
 "UnocCoolT" = 86   $ IP Non-Tech
 "UnocHeatT" = 62   $ IP Non-Tech
 "UseEconoVintApplic" = FALSE   $ Msr (Multi)TechID: PreNResSplitAC-45to-PENo
 "WlhpVintEconoFlag" = 0   $ IP Non-Tech
 "DuctDT" = 1   $ IP Tech: ComDuctInsul-1
 "DuctAirLoss" = 0   $ IP Tech: ComDuctLeak-0
 "DuctLossOAFrac" = 0   $ IP Tech: ComDuctLeak-0
 "ComRoofInsCalc" = FromUo   $ IP Tech: ComRoofIns-WFrm-0.07
 "ComRoofInsR" = -999   $ IP Tech: ComRoofIns-WFrm-0.07
 "ComRoofUo" = 0.07   $ IP Tech: ComRoofIns-WFrm-0.07
 "ComEWInsCalc" = FromUo   $ IP Tech: ComWallIns-WFrm-0.09
 "ComEWInsR" = -999   $ IP Tech: ComWallIns-WFrm-0.09
 "ComEWUo" = 0.09   $ IP Tech: ComWallIns-WFrm-0.09
 "ComN_SHGC" = 0.82   $ IP Tech: NResWin-ComN-1.23-0.82
 "ComN_UFactor" = 1.23   $ IP Tech: NResWin-ComN-1.23-0.82
 "ComN_VisTrans" = 0.9   $ IP Tech: NResWin-ComN-1.23-0.82
 "ComN_WinCode" = G1000   $ IP Tech: NResWin-ComN-1.23-0.82
 "ComN_WinFrmFrac" = 0.17   $ IP Tech: NResWin-ComN-1.23-0.82
 "ComN_WinFrmU" = 1   $ IP Tech: NResWin-ComN-1.23-0.82
 "ComO_SHGC" = 0.82   $ IP Tech: NResWin-ComO-1.23-0.82
 "ComO_UFactor" = 1.23   $ IP Tech: NResWin-ComO-1.23-0.82
 "ComO_VisTrans" = 0.9   $ IP Tech: NResWin-ComO-1.23-0.82
 "ComO_WinCode" = G1000   $ IP Tech: NResWin-ComO-1.23-0.82
 "ComO_WinFrmFrac" = 0.17   $ IP Tech: NResWin-ComO-1.23-0.82
 "ComO_WinFrmU" = 1   $ IP Tech: NResWin-ComO-1.23-0.82
 "LtgMsrApplic" = ALL   $ IP Tech: NonResLtgRefPre
 "LtgSav_CFL" = 0   $ IP Tech: NonResLtgRefPre
 "LtgSav_EX" = 0   $ IP Tech: NonResLtgRefPre
 "LtgSav_HB" = 0   $ IP Tech: NonResLtgRefPre
 "LtgSav_LF" = 0   $ IP Tech: NonResLtgRefPre
 "LtgSav_SP" = 0   $ IP Tech: NonResLtgRefPre
 "CEIR_fPLR" = PSZ65to135_CEIR_fPLR   $ IP Tech: PkgAC1SpH-65to135-E10
 "CLoss_fPLR" = PSZ65to135_CLoss_fPLR   $ IP Tech: PkgAC1SpH-65to135-E10
 "COP" = -1   $ IP Tech: PkgAC1SpH-65to135-E10
 "HtgFuel" = Gas   $ IP Tech: PkgAC1SpH-65to135-E10
 "IEER" = 11.87   $ IP Tech: PkgAC1SpH-65to135-E10
 "NominalCap" = 15   $ IP Tech: PkgAC1SpH-65to135-E10
 "RatedEER" = 10   $ IP Tech: PkgAC1SpH-65to135-E10
 "RatedSupMtrClass" = HiEff   $ IP Tech: PkgAC1SpH-65to135-E10
 "SizeRange" = 65to135   $ IP Tech: PkgAC1SpH-65to135-E10
 "SupMotEff" = 0.84   $ IP Tech: PkgAC1SpH-65to135-E10
 "Tier" = 0   $ IP Tech: PkgAC1SpH-65to135-E10
 "FanPwrMult" = 1   $ IP Tech: PkgFurn-0.80AFUE
 "FurnAFUE" = 0.8   $ IP Tech: PkgFurn-0.80AFUE
 "FurnEt" = 0.82   $ IP Tech: PkgFurn-0.80AFUE
 "FurnaceAuxKW" = 0.1   $ IP Tech: PkgFurn-0.80AFUE
 "HIR_fPLR" = Furnace-HIR-fPLR   $ IP Tech: PkgFurn-0.80AFUE
 "VSM" = FALSE   $ IP Tech: PkgFurn-0.80AFUE
 "BFMult" = 1   $ IP Tech: RefgChg-NRes-Std
 "CoolEirMult" = 1   $ IP Tech: RefgChg-NRes-Std
 "SensCoolCapMult" = 1   $ IP Tech: RefgChg-NRes-Std
 "TotCoolCapMult" = 1   $ IP Tech: RefgChg-NRes-Std
 "AltAdjFactor" = 1.027678   $ Sizing
 "CAssFlo_L_Break_CZn" = 523.3905   $ Sizing
 "CAssFlo_L_CompDC_CZn" = 166.7008   $ Sizing
 "CAssFlo_L_Conf_CZn" = 301.382   $ Sizing
 "CAssFlo_L_CopyRm_CZn" = 111.1151   $ Sizing
 "CAssFlo_L_Hall_EZn" = 169.8768   $ Sizing
 "CAssFlo_L_Hall_NZn" = 85.83553   $ Sizing
 "CAssFlo_L_Hall_SZn" = 181.6592   $ Sizing
 "CAssFlo_L_Hall_WZn" = 196.538   $ Sizing
 "CAssFlo_L_LobWait_EZn" = 398.1834   $ Sizing
 "CAssFlo_L_LobWait_NZn" = 225.3151   $ Sizing
 "CAssFlo_L_LobWait_SZn" = 442.8033   $ Sizing
 "CAssFlo_L_LobWait_WZn" = 487.1164   $ Sizing
 "CAssFlo_L_MechElec_CZn" = 97.42889   $ Sizing
 "CAssFlo_L_OfficeOpn_CZn" = 79.31476   $ Sizing
 "CAssFlo_L_OfficeOpn_EZn" = 721.8109   $ Sizing
 "CAssFlo_L_OfficeOpn_NZn" = 441.0508   $ Sizing
 "CAssFlo_L_OfficeOpn_SZn" = 740.113   $ Sizing
 "CAssFlo_L_OfficeOpn_WZn" = 828.1577   $ Sizing
 "CAssFlo_L_OfficeSm_EZn" = 618.9539   $ Sizing
 "CAssFlo_L_OfficeSm_NZn" = 349.653   $ Sizing
 "CAssFlo_L_OfficeSm_SZn" = 645.6709   $ Sizing
 "CAssFlo_L_OfficeSm_WZn" = 721.9791   $ Sizing
 "CAssFlo_L_Restrm_CZn" = 100.372   $ Sizing
 "CAssFlo_L_StorSm_CZn" = 41.88366   $ Sizing
 "CAssFlo_L_StorSm_EZn" = 169.4339   $ Sizing
 "CAssFlo_L_StorSm_NZn" = 88.70563   $ Sizing
 "CAssFlo_L_StorSm_SZn" = 180.8415   $ Sizing
 "CAssFlo_L_StorSm_WZn" = 188.6397   $ Sizing
 "CAssFlo_T_Conf_CZn" = 290.5912   $ Sizing
 "CAssFlo_T_Hall_EZn" = 191.7956   $ Sizing
 "CAssFlo_T_Hall_NZn" = 95.24094   $ Sizing
 "CAssFlo_T_Hall_SZn" = 214.7532   $ Sizing
 "CAssFlo_T_Hall_WZn" = 217.7273   $ Sizing
 "CAssFlo_T_OfficeOpn_CZn" = 72.8707   $ Sizing
 "CAssFlo_T_OfficeOpn_EZn" = 758.1514   $ Sizing
 "CAssFlo_T_OfficeOpn_NZn" = 464.4981   $ Sizing
 "CAssFlo_T_OfficeOpn_SZn" = 833.7051   $ Sizing
 "CAssFlo_T_OfficeOpn_WZn" = 879.6107   $ Sizing
 "CAssFlo_T_OfficeSm_EZn" = 655.1415   $ Sizing
 "CAssFlo_T_OfficeSm_NZn" = 371.3691   $ Sizing
 "CAssFlo_T_OfficeSm_SZn" = 721.5535   $ Sizing
 "CAssFlo_T_OfficeSm_WZn" = 766.7443   $ Sizing
 "CAssFlo_T_Restrm_CZn" = 136.4827   $ Sizing
 "CAssFlo_T_StorSm_EZn" = 196.2131   $ Sizing
 "CAssFlo_T_StorSm_NZn" = 103.5729   $ Sizing
 "CAssFlo_T_StorSm_SZn" = 220.9056   $ Sizing
 "CAssFlo_T_StorSm_WZn" = 224.2755   $ Sizing
 "CHRtFlo_Sys_L_Break_C" = 523.3905   $ Sizing
 "CHRtFlo_Sys_L_CompDC_C" = 188.2066   $ Sizing
 "CHRtFlo_Sys_L_Conf_C" = 301.382   $ Sizing
 "CHRtFlo_Sys_L_CopyRm_C" = 111.1151   $ Sizing
 "CHRtFlo_Sys_L_Hall_E" = 203.4532   $ Sizing
 "CHRtFlo_Sys_L_Hall_N" = 85.83553   $ Sizing
 "CHRtFlo_Sys_L_Hall_S" = 223.5419   $ Sizing
 "CHRtFlo_Sys_L_Hall_W" = 216.0881   $ Sizing
 "CHRtFlo_Sys_L_LobWait_E" = 465.563   $ Sizing
 "CHRtFlo_Sys_L_LobWait_N" = 225.3151   $ Sizing
 "CHRtFlo_Sys_L_LobWait_S" = 511.7169   $ Sizing
 "CHRtFlo_Sys_L_LobWait_W" = 502.4381   $ Sizing
 "CHRtFlo_Sys_L_MechElec_C" = 116.0431   $ Sizing
 "CHRtFlo_Sys_L_OfficeOpn_C" = 91.36221   $ Sizing
 "CHRtFlo_Sys_L_OfficeOpn_E" = 845.7796   $ Sizing
 "CHRtFlo_Sys_L_OfficeOpn_N" = 441.0508   $ Sizing
 "CHRtFlo_Sys_L_OfficeOpn_S" = 870.4286   $ Sizing
 "CHRtFlo_Sys_L_OfficeOpn_W" = 886.5532   $ Sizing
 "CHRtFlo_Sys_L_OfficeSm_E" = 741.7131   $ Sizing
 "CHRtFlo_Sys_L_OfficeSm_N" = 349.653   $ Sizing
 "CHRtFlo_Sys_L_OfficeSm_S" = 779.7819   $ Sizing
 "CHRtFlo_Sys_L_OfficeSm_W" = 790.6031   $ Sizing
 "CHRtFlo_Sys_L_Restrm_C" = 112.0214   $ Sizing
 "CHRtFlo_Sys_L_StorSm_C" = 46.37345   $ Sizing
 "CHRtFlo_Sys_L_StorSm_E" = 198.7884   $ Sizing
 "CHRtFlo_Sys_L_StorSm_N" = 88.70564   $ Sizing
 "CHRtFlo_Sys_L_StorSm_S" = 215.6335   $ Sizing
 "CHRtFlo_Sys_L_StorSm_W" = 198.5466   $ Sizing
 "CHRtFlo_Sys_T_Conf_C" = 290.5912   $ Sizing
 "CHRtFlo_Sys_T_Hall_E" = 215.8736   $ Sizing
 "CHRtFlo_Sys_T_Hall_N" = 95.24095   $ Sizing
 "CHRtFlo_Sys_T_Hall_S" = 248.2069   $ Sizing
 "CHRtFlo_Sys_T_Hall_W" = 230.7612   $ Sizing
 "CHRtFlo_Sys_T_OfficeOpn_C" = 77.77269   $ Sizing
 "CHRtFlo_Sys_T_OfficeOpn_E" = 825.967   $ Sizing
 "CHRtFlo_Sys_T_OfficeOpn_N" = 464.4981   $ Sizing
 "CHRtFlo_Sys_T_OfficeOpn_S" = 906.6225   $ Sizing
 "CHRtFlo_Sys_T_OfficeOpn_W" = 879.6107   $ Sizing
 "CHRtFlo_Sys_T_OfficeSm_E" = 733.9647   $ Sizing
 "CHRtFlo_Sys_T_OfficeSm_N" = 371.3692   $ Sizing
 "CHRtFlo_Sys_T_OfficeSm_S" = 818.3363   $ Sizing
 "CHRtFlo_Sys_T_OfficeSm_W" = 781.2827   $ Sizing
 "CHRtFlo_Sys_T_Restrm_C" = 150.8996   $ Sizing
 "CHRtFlo_Sys_T_StorSm_E" = 210.0169   $ Sizing
 "CHRtFlo_Sys_T_StorSm_N" = 103.5729   $ Sizing
 "CHRtFlo_Sys_T_StorSm_S" = 240.5589   $ Sizing
 "CHRtFlo_Sys_T_StorSm_W" = 224.2755   $ Sizing
 "CRtdFlo_Sys_L_Break_C" = 523.3905   $ Sizing
 "CRtdFlo_Sys_L_CompDC_C" = 166.7008   $ Sizing
 "CRtdFlo_Sys_L_Conf_C" = 301.382   $ Sizing
 "CRtdFlo_Sys_L_CopyRm_C" = 111.1151   $ Sizing
 "CRtdFlo_Sys_L_Hall_E" = 169.8768   $ Sizing
 "CRtdFlo_Sys_L_Hall_N" = 85.83553   $ Sizing
 "CRtdFlo_Sys_L_Hall_S" = 181.6592   $ Sizing
 "CRtdFlo_Sys_L_Hall_W" = 196.538   $ Sizing
 "CRtdFlo_Sys_L_LobWait_E" = 398.1834   $ Sizing
 "CRtdFlo_Sys_L_LobWait_N" = 225.3151   $ Sizing
 "CRtdFlo_Sys_L_LobWait_S" = 442.8033   $ Sizing
 "CRtdFlo_Sys_L_LobWait_W" = 487.1164   $ Sizing
 "CRtdFlo_Sys_L_MechElec_C" = 97.42889   $ Sizing
 "CRtdFlo_Sys_L_OfficeOpn_C" = 79.31476   $ Sizing
 "CRtdFlo_Sys_L_OfficeOpn_E" = 721.8109   $ Sizing
 "CRtdFlo_Sys_L_OfficeOpn_N" = 441.0508   $ Sizing
 "CRtdFlo_Sys_L_OfficeOpn_S" = 740.113   $ Sizing
 "CRtdFlo_Sys_L_OfficeOpn_W" = 828.1578   $ Sizing
 "CRtdFlo_Sys_L_OfficeSm_E" = 618.9539   $ Sizing
 "CRtdFlo_Sys_L_OfficeSm_N" = 349.653   $ Sizing
 "CRtdFlo_Sys_L_OfficeSm_S" = 645.671   $ Sizing
 "CRtdFlo_Sys_L_OfficeSm_W" = 721.9792   $ Sizing
 "CRtdFlo_Sys_L_Restrm_C" = 100.372   $ Sizing
 "CRtdFlo_Sys_L_StorSm_C" = 41.88366   $ Sizing
 "CRtdFlo_Sys_L_StorSm_E" = 169.4339   $ Sizing
 "CRtdFlo_Sys_L_StorSm_N" = 88.70564   $ Sizing
 "CRtdFlo_Sys_L_StorSm_S" = 180.8415   $ Sizing
 "CRtdFlo_Sys_L_StorSm_W" = 188.6397   $ Sizing
 "CRtdFlo_Sys_T_Conf_C" = 290.5912   $ Sizing
 "CRtdFlo_Sys_T_Hall_E" = 191.7956   $ Sizing
 "CRtdFlo_Sys_T_Hall_N" = 95.24095   $ Sizing
 "CRtdFlo_Sys_T_Hall_S" = 214.7532   $ Sizing
 "CRtdFlo_Sys_T_Hall_W" = 217.7273   $ Sizing
 "CRtdFlo_Sys_T_OfficeOpn_C" = 72.8707   $ Sizing
 "CRtdFlo_Sys_T_OfficeOpn_E" = 758.1514   $ Sizing
 "CRtdFlo_Sys_T_OfficeOpn_N" = 464.4981   $ Sizing
 "CRtdFlo_Sys_T_OfficeOpn_S" = 833.7051   $ Sizing
 "CRtdFlo_Sys_T_OfficeOpn_W" = 879.6107   $ Sizing
 "CRtdFlo_Sys_T_OfficeSm_E" = 655.1415   $ Sizing
 "CRtdFlo_Sys_T_OfficeSm_N" = 371.3692   $ Sizing
 "CRtdFlo_Sys_T_OfficeSm_S" = 721.5535   $ Sizing
 "CRtdFlo_Sys_T_OfficeSm_W" = 766.7443   $ Sizing
 "CRtdFlo_Sys_T_Restrm_C" = 136.4827   $ Sizing
 "CRtdFlo_Sys_T_StorSm_E" = 196.2131   $ Sizing
 "CRtdFlo_Sys_T_StorSm_N" = 103.5729   $ Sizing
 "CRtdFlo_Sys_T_StorSm_S" = 220.9056   $ Sizing
 "CRtdFlo_Sys_T_StorSm_W" = 224.1652   $ Sizing
 "CSupFlo_Sys_L_Break_C" = 523.3905   $ Sizing
 "CSupFlo_Sys_L_CompDC_C" = 166.7008   $ Sizing
 "CSupFlo_Sys_L_Conf_C" = 301.382   $ Sizing
 "CSupFlo_Sys_L_CopyRm_C" = 111.1151   $ Sizing
 "CSupFlo_Sys_L_Hall_E" = 169.8768   $ Sizing
 "CSupFlo_Sys_L_Hall_N" = 85.83553   $ Sizing
 "CSupFlo_Sys_L_Hall_S" = 181.6592   $ Sizing
 "CSupFlo_Sys_L_Hall_W" = 196.538   $ Sizing
 "CSupFlo_Sys_L_LobWait_E" = 398.1834   $ Sizing
 "CSupFlo_Sys_L_LobWait_N" = 225.3151   $ Sizing
 "CSupFlo_Sys_L_LobWait_S" = 442.8033   $ Sizing
 "CSupFlo_Sys_L_LobWait_W" = 487.1164   $ Sizing
 "CSupFlo_Sys_L_MechElec_C" = 97.42889   $ Sizing
 "CSupFlo_Sys_L_OfficeOpn_C" = 79.31476   $ Sizing
 "CSupFlo_Sys_L_OfficeOpn_E" = 721.8109   $ Sizing
 "CSupFlo_Sys_L_OfficeOpn_N" = 441.0508   $ Sizing
 "CSupFlo_Sys_L_OfficeOpn_S" = 740.113   $ Sizing
 "CSupFlo_Sys_L_OfficeOpn_W" = 828.1578   $ Sizing
 "CSupFlo_Sys_L_OfficeSm_E" = 618.9539   $ Sizing
 "CSupFlo_Sys_L_OfficeSm_N" = 349.653   $ Sizing
 "CSupFlo_Sys_L_OfficeSm_S" = 645.671   $ Sizing
 "CSupFlo_Sys_L_OfficeSm_W" = 721.9792   $ Sizing
 "CSupFlo_Sys_L_Restrm_C" = 100.372   $ Sizing
 "CSupFlo_Sys_L_StorSm_C" = 41.88366   $ Sizing
 "CSupFlo_Sys_L_StorSm_E" = 169.4339   $ Sizing
 "CSupFlo_Sys_L_StorSm_N" = 88.70564   $ Sizing
 "CSupFlo_Sys_L_StorSm_S" = 180.8415   $ Sizing
 "CSupFlo_Sys_L_StorSm_W" = 188.6397   $ Sizing
 "CSupFlo_Sys_T_Conf_C" = 290.5912   $ Sizing
 "CSupFlo_Sys_T_Hall_E" = 191.7956   $ Sizing
 "CSupFlo_Sys_T_Hall_N" = 95.24095   $ Sizing
 "CSupFlo_Sys_T_Hall_S" = 214.7532   $ Sizing
 "CSupFlo_Sys_T_Hall_W" = 217.7273   $ Sizing
 "CSupFlo_Sys_T_OfficeOpn_C" = 72.8707   $ Sizing
 "CSupFlo_Sys_T_OfficeOpn_E" = 758.1514   $ Sizing
 "CSupFlo_Sys_T_OfficeOpn_N" = 464.4981   $ Sizing
 "CSupFlo_Sys_T_OfficeOpn_S" = 833.7051   $ Sizing
 "CSupFlo_Sys_T_OfficeOpn_W" = 879.6107   $ Sizing
 "CSupFlo_Sys_T_OfficeSm_E" = 655.1415   $ Sizing
 "CSupFlo_Sys_T_OfficeSm_N" = 371.3692   $ Sizing
 "CSupFlo_Sys_T_OfficeSm_S" = 721.5535   $ Sizing
 "CSupFlo_Sys_T_OfficeSm_W" = 766.7443   $ Sizing
 "CSupFlo_Sys_T_Restrm_C" = 136.4827   $ Sizing
 "CSupFlo_Sys_T_StorSm_E" = 196.2131   $ Sizing
 "CSupFlo_Sys_T_StorSm_N" = 103.5729   $ Sizing
 "CSupFlo_Sys_T_StorSm_S" = 220.9056   $ Sizing
 "CSupFlo_Sys_T_StorSm_W" = 224.1652   $ Sizing
 "ClCap_Sys_L_Break_C" = 17461.51   $ Sizing
 "ClCap_Sys_L_CompDC_C" = 5561.522   $ Sizing
 "ClCap_Sys_L_Conf_C" = 12797.02   $ Sizing
 "ClCap_Sys_L_CopyRm_C" = 3707.053   $ Sizing
 "ClCap_Sys_L_Hall_E" = 5667.48   $ Sizing
 "ClCap_Sys_L_Hall_N" = 2863.67   $ Sizing
 "ClCap_Sys_L_Hall_S" = 6060.569   $ Sizing
 "ClCap_Sys_L_Hall_W" = 6556.958   $ Sizing
 "ClCap_Sys_L_LobWait_E" = 13284.31   $ Sizing
 "ClCap_Sys_L_LobWait_N" = 7517.03   $ Sizing
 "ClCap_Sys_L_LobWait_S" = 14772.94   $ Sizing
 "ClCap_Sys_L_LobWait_W" = 16251.32   $ Sizing
 "ClCap_Sys_L_MechElec_C" = 3250.452   $ Sizing
 "ClCap_Sys_L_OfficeOpn_C" = 2646.123   $ Sizing
 "ClCap_Sys_L_OfficeOpn_E" = 24081.27   $ Sizing
 "ClCap_Sys_L_OfficeOpn_N" = 14714.47   $ Sizing
 "ClCap_Sys_L_OfficeOpn_S" = 24691.87   $ Sizing
 "ClCap_Sys_L_OfficeOpn_W" = 27629.25   $ Sizing
 "ClCap_Sys_L_OfficeSm_E" = 20649.72   $ Sizing
 "ClCap_Sys_L_OfficeSm_N" = 11665.23   $ Sizing
 "ClCap_Sys_L_OfficeSm_S" = 21541.07   $ Sizing
 "ClCap_Sys_L_OfficeSm_W" = 24086.88   $ Sizing
 "ClCap_Sys_L_Restrm_C" = 3348.64   $ Sizing
 "ClCap_Sys_L_StorSm_C" = 1397.335   $ Sizing
 "ClCap_Sys_L_StorSm_E" = 5652.703   $ Sizing
 "ClCap_Sys_L_StorSm_N" = 2959.424   $ Sizing
 "ClCap_Sys_L_StorSm_S" = 6033.287   $ Sizing
 "ClCap_Sys_L_StorSm_W" = 6293.453   $ Sizing
 "ClCap_Sys_T_Conf_C" = 12338.83   $ Sizing
 "ClCap_Sys_T_Hall_E" = 6398.743   $ Sizing
 "ClCap_Sys_T_Hall_N" = 3177.457   $ Sizing
 "ClCap_Sys_T_Hall_S" = 7164.661   $ Sizing
 "ClCap_Sys_T_Hall_W" = 7263.883   $ Sizing
 "ClCap_Sys_T_OfficeOpn_C" = 2431.134   $ Sizing
 "ClCap_Sys_T_OfficeOpn_E" = 25293.67   $ Sizing
 "ClCap_Sys_T_OfficeOpn_N" = 15496.72   $ Sizing
 "ClCap_Sys_T_OfficeOpn_S" = 27814.32   $ Sizing
 "ClCap_Sys_T_OfficeOpn_W" = 29345.83   $ Sizing
 "ClCap_Sys_T_OfficeSm_E" = 21857.03   $ Sizing
 "ClCap_Sys_T_OfficeSm_N" = 12389.73   $ Sizing
 "ClCap_Sys_T_OfficeSm_S" = 24072.68   $ Sizing
 "ClCap_Sys_T_OfficeSm_W" = 25580.35   $ Sizing
 "ClCap_Sys_T_Restrm_C" = 4553.375   $ Sizing
 "ClCap_Sys_T_StorSm_E" = 6546.119   $ Sizing
 "ClCap_Sys_T_StorSm_N" = 3455.429   $ Sizing
 "ClCap_Sys_T_StorSm_S" = 7369.917   $ Sizing
 "ClCap_Sys_T_StorSm_W" = 7478.665   $ Sizing
 "HtCap_Sys_L_Break_C" = -26494.56   $ Sizing
 "HtCap_Sys_L_CompDC_C" = -8952.628   $ Sizing
 "HtCap_Sys_L_Conf_C" = -15790.54   $ Sizing
 "HtCap_Sys_L_CopyRm_C" = -5472.613   $ Sizing
 "HtCap_Sys_L_Hall_E" = -6834.04   $ Sizing
 "HtCap_Sys_L_Hall_N" = -2957.624   $ Sizing
 "HtCap_Sys_L_Hall_S" = -7128.631   $ Sizing
 "HtCap_Sys_L_Hall_W" = -6784.862   $ Sizing
 "HtCap_Sys_L_LobWait_E" = -15093.51   $ Sizing
 "HtCap_Sys_L_LobWait_N" = -8807.252   $ Sizing
 "HtCap_Sys_L_LobWait_S" = -16743.8   $ Sizing
 "HtCap_Sys_L_LobWait_W" = -16407.24   $ Sizing
 "HtCap_Sys_L_MechElec_C" = -4232.839   $ Sizing
 "HtCap_Sys_L_OfficeOpn_C" = -3197.625   $ Sizing
 "HtCap_Sys_L_OfficeOpn_E" = -27010.65   $ Sizing
 "HtCap_Sys_L_OfficeOpn_N" = -16273.59   $ Sizing
 "HtCap_Sys_L_OfficeOpn_S" = -27578.08   $ Sizing
 "HtCap_Sys_L_OfficeOpn_W" = -28329.71   $ Sizing
 "HtCap_Sys_L_OfficeSm_E" = -23900.93   $ Sizing
 "HtCap_Sys_L_OfficeSm_N" = -12472.83   $ Sizing
 "HtCap_Sys_L_OfficeSm_S" = -24414.14   $ Sizing
 "HtCap_Sys_L_OfficeSm_W" = -25229.5   $ Sizing
 "HtCap_Sys_L_Restrm_C" = -3665.402   $ Sizing
 "HtCap_Sys_L_StorSm_C" = -1724.346   $ Sizing
 "HtCap_Sys_L_StorSm_E" = -6562.174   $ Sizing
 "HtCap_Sys_L_StorSm_N" = -3479.311   $ Sizing
 "HtCap_Sys_L_StorSm_S" = -6874.479   $ Sizing
 "HtCap_Sys_L_StorSm_W" = -6543.502   $ Sizing
 "HtCap_Sys_T_Conf_C" = -15705.31   $ Sizing
 "HtCap_Sys_T_Hall_E" = -7547.101   $ Sizing
 "HtCap_Sys_T_Hall_N" = -3678.84   $ Sizing
 "HtCap_Sys_T_Hall_S" = -8519.661   $ Sizing
 "HtCap_Sys_T_Hall_W" = -7819.158   $ Sizing
 "HtCap_Sys_T_OfficeOpn_C" = -3025.268   $ Sizing
 "HtCap_Sys_T_OfficeOpn_E" = -28913.17   $ Sizing
 "HtCap_Sys_T_OfficeOpn_N" = -18337.56   $ Sizing
 "HtCap_Sys_T_OfficeOpn_S" = -30466.69   $ Sizing
 "HtCap_Sys_T_OfficeOpn_W" = -30671.83   $ Sizing
 "HtCap_Sys_T_OfficeSm_E" = -25430.04   $ Sizing
 "HtCap_Sys_T_OfficeSm_N" = -14289.09   $ Sizing
 "HtCap_Sys_T_OfficeSm_S" = -27078.79   $ Sizing
 "HtCap_Sys_T_OfficeSm_W" = -26315.86   $ Sizing
 "HtCap_Sys_T_Restrm_C" = -5283.58   $ Sizing
 "HtCap_Sys_T_StorSm_E" = -7738.527   $ Sizing
 "HtCap_Sys_T_StorSm_N" = -4613.326   $ Sizing
 "HtCap_Sys_T_StorSm_S" = -8018.973   $ Sizing
 "HtCap_Sys_T_StorSm_W" = -8215.298   $ Sizing
..

##include Templates\OfS_DX_SZ.inp
END ..
COMPUTE ..
STOP ..
