INPUT ..

##fileprefix C:\Users\jglasskatz\MASControl3\
##set1 IsSizing FALSE
##set1 CoolType ACH
##set1 HeatType ELECTRIC
##set1 EU_HrRepVar 1
##set1 BldgVint 2017
##set1 BldgLoc CZ01

 ##set1 mChlrCap_fT DEFAULT   $ IP Tech: ChlrScrA-lt150-10.1EER
 ##set1 mChlrEIR_fPLR DEFAULT   $ IP Tech: ChlrScrA-lt150-10.1EER
 ##set1 mChlrEIR_fT DEFAULT   $ IP Tech: ChlrScrA-lt150-10.1EER
 ##set1 mChlrType Screw   $ IP Tech: ChlrScrA-lt150-10.1EER
 ##set1 mCondType Air   $ IP Tech: ChlrScrA-lt150-10.1EER
 ##set1 mSetupLdChlr FALSE   $ IP Tech: ChlrScrA-lt150-10.1EER
 ##set1 mCHW_FlowCtrl VarSec   $ IP Tech: ChwFlowCtrlVarSec

PARAMETER
 "AltFactor" = 1.00753   $ IP Non-Tech
 "BldgEconoFlag" = 1   $ IP Non-Tech
 "BlrPrimLp" = BlrPrimLoop   $ IP Non-Tech
 "Break_EWSF" = 1   $ IP Non-Tech
 "Break_LWSF" = 0.9   $ IP Non-Tech
 "CDD_DBHi10" = 65   $ IP Non-Tech
 "CDD_DBHi7" = 68   $ IP Non-Tech
 "CDD_DBHi8" = 66   $ IP Non-Tech
 "CDD_DBHi9" = 77   $ IP Non-Tech
 "CDD_DBRange10" = 17   $ IP Non-Tech
 "CDD_DBRange7" = 11   $ IP Non-Tech
 "CDD_DBRange8" = 10   $ IP Non-Tech
 "CDD_DBRange9" = 29   $ IP Non-Tech
 "CDD_Day10" = 15   $ IP Non-Tech
 "CDD_Day7" = 16   $ IP Non-Tech
 "CDD_Day8" = 20   $ IP Non-Tech
 "CDD_Day9" = 17   $ IP Non-Tech
 "CDD_HrHi10" = 12   $ IP Non-Tech
 "CDD_HrHi7" = 12   $ IP Non-Tech
 "CDD_HrHi8" = 13   $ IP Non-Tech
 "CDD_HrHi9" = 17   $ IP Non-Tech
 "CDD_HrLo10" = 6   $ IP Non-Tech
 "CDD_HrLo7" = 3   $ IP Non-Tech
 "CDD_HrLo8" = 8   $ IP Non-Tech
 "CDD_HrLo9" = 4   $ IP Non-Tech
 "CDD_WB10" = 57.53039551   $ IP Non-Tech
 "CDD_WB7" = 59.29250717   $ IP Non-Tech
 "CDD_WB8" = 60.75350189   $ IP Non-Tech
 "CDD_WB9" = 61.08643341   $ IP Non-Tech
 "CZ_Category" = Tem   $ IP Non-Tech
 "ChwDesignDT" = 12   $ IP Non-Tech
 "ChwPipeHead" = 62   $ IP Non-Tech
 "ChwRetDT" = 0.03   $ IP Non-Tech
 "ChwSupDT" = 0.05   $ IP Non-Tech
 "ChwT" = 44   $ IP Non-Tech
 "ChwVintEconoFlag" = 1   $ IP Non-Tech
 "CompRoomData_EWSF" = 5   $ IP Non-Tech
 "CompRoomData_LWSF" = 1.05   $ IP Non-Tech
 "Conference_EWSF" = 1   $ IP Non-Tech
 "Conference_LWSF" = 1.2   $ IP Non-Tech
 "CoolSetT" = 55   $ IP Non-Tech
 "CoolType" = ACH   $ IP Non-Tech
 "CopyRoom_EWSF" = 1.5   $ IP Non-Tech
 "CopyRoom_LWSF" = 1.3   $ IP Non-Tech
 "DesCoolT" = 75   $ IP Non-Tech
 "DesHeatT" = 73   $ IP Non-Tech
 "EconoEnthLimit" = 28   $ IP Non-Tech
 "EconoTempLimit" = 70   $ IP Non-Tech
 "Elevation" = 203   $ IP Non-Tech
 "HDD_CloudAmt1" = 0   $ IP Non-Tech
 "HDD_DBHi1" = 53   $ IP Non-Tech
 "HDD_DBRange1" = 20   $ IP Non-Tech
 "HDD_Day1" = 15   $ IP Non-Tech
 "HDD_HrHi1" = 14   $ IP Non-Tech
 "HDD_HrLo1" = 6   $ IP Non-Tech
 "HDD_WB1" = 42.3   $ IP Non-Tech
 "HDD_WindSpd1" = 12.7   $ IP Non-Tech
 "Hall_EWSF" = 0.2   $ IP Non-Tech
 "Hall_LWSF" = 0.6   $ IP Non-Tech
 "HeatSrc" = ELECTRIC   $ IP Non-Tech
 "HeatSrcTU" = ELECTRIC   $ IP Non-Tech
 "HeatType" = Elec   $ IP Non-Tech
 "HeatTypeTU" = ELECTRIC   $ IP Non-Tech
 "HwDesignDT" = 30   $ IP Non-Tech
 "HwPipeHead" = 40   $ IP Non-Tech
 "IndoorFanMode" = CONTINUOUS   $ IP Non-Tech
 "KT_TransferAir" = Yes   $ IP Non-Tech
 "Latitude" = 40.8   $ IP Non-Tech
 "LobbyWaiting_EWSF" = 0.5   $ IP Non-Tech
 "LobbyWaiting_LWSF" = 0.875   $ IP Non-Tech
 "Longitude" = 124.2   $ IP Non-Tech
 "LtgMsrApplic" = ALL   $ Msr TechID: NonResLtgRefMsr-EX
 "LtgSav_CFL" = 0   $ Msr TechID: NonResLtgRefMsr-EX
 "LtgSav_EX" = 0.3   $ Msr TechID: NonResLtgRefMsr-EX
 "LtgSav_HB" = 0   $ Msr TechID: NonResLtgRefMsr-EX
 "LtgSav_LF" = 0   $ Msr TechID: NonResLtgRefMsr-EX
 "LtgSav_SP" = 0   $ Msr TechID: NonResLtgRefMsr-EX
 "MZFanMechEff" = 0.68   $ IP Non-Tech
 "MZHasRetFan" = TRUE   $ IP Non-Tech
 "MZ_RFanWPerCfm" = 0.33   $ IP Non-Tech
 "MZ_SFanWPerCfm" = 0.75   $ IP Non-Tech
 "MaxSupT_MZ" = 95   $ IP Non-Tech
 "MaxSupT_SZ" = 105   $ IP Non-Tech
 "MaxSupT_TU" = 105   $ IP Non-Tech
 "MechElecRoom_EWSF" = 0.2   $ IP Non-Tech
 "MechElecRoom_LWSF" = 0.55   $ IP Non-Tech
 "MinCfmPerSF" = 0.4   $ IP Non-Tech
 "MinSupT" = 55   $ IP Non-Tech
 "OccCoolT" = 76   $ IP Non-Tech
 "OccHeatT" = 72   $ IP Non-Tech
 "OfficeOpen_EWSF" = 1.5   $ IP Non-Tech
 "OfficeOpen_LWSF" = 1.05   $ IP Non-Tech
 "OfficeSmall_EWSF" = 1.5   $ IP Non-Tech
 "OfficeSmall_LWSF" = 1.3   $ IP Non-Tech
 "PkgDxVintEconoFlag" = 1   $ IP Non-Tech
 "ReheatDeltaT" = 40   $ IP Non-Tech
 "Restroom_EWSF" = 0.2   $ IP Non-Tech
 "Restroom_LWSF" = 0.6   $ IP Non-Tech
 "SZFanMechEff" = 0.54   $ IP Non-Tech
 "SZHasRetFan" = TRUE   $ IP Non-Tech
 "SZ_Is_2Spd" = TRUE   $ IP Non-Tech
 "SZ_SFanWPerCfm" = 0.46   $ IP Non-Tech
 "StorageSmlCond_EWSF" = 0.2   $ IP Non-Tech
 "StorageSmlCond_LWSF" = 0.6   $ IP Non-Tech
 "TermUnitFanMechEff" = 1   $ IP Non-Tech
 "TermUnitFanMode" = INTERMITTENT   $ IP Non-Tech
 "TermUnitFanWPerCfm" = 0.175   $ IP Non-Tech
 "TwrSetpt" = 80   $ IP Non-Tech
 "UnocCoolT" = 86   $ IP Non-Tech
 "UnocHeatT" = 62   $ IP Non-Tech
 "VAVMinFlow" = 0.3   $ IP Non-Tech
 "WlhpVintEconoFlag" = 1   $ IP Non-Tech
 "EconoCtrl" = OA-TEMP   $ IP Tech: AirEcono-OATemp
 "MaxOAFrac" = 0.85   $ IP Tech: AirEcono-OATemp
 "UseEconoVintApplic" = FALSE   $ IP Tech: AirEcono-OATemp
 "ChlrCapRange" = lt150   $ IP Tech: ChlrScrA-lt150-10.1EER
 "ChlrEff" = 10.1   $ IP Tech: ChlrScrA-lt150-10.1EER
 "ChlrType" = Screw   $ IP Tech: ChlrScrA-lt150-10.1EER
 "ChlrVSD" = NO   $ IP Tech: ChlrScrA-lt150-10.1EER
 "CmpPerCkt" = NA   $ IP Tech: ChlrScrA-lt150-10.1EER
 "CondRelief" = FALSE   $ IP Tech: ChlrScrA-lt150-10.1EER
 "CondType" = Air   $ IP Tech: ChlrScrA-lt150-10.1EER
 "EffUnits" = EER   $ IP Tech: ChlrScrA-lt150-10.1EER
 "IPLV" = -99   $ IP Tech: ChlrScrA-lt150-10.1EER
 "CHW_FlowCtrl" = VarSec   $ IP Tech: ChwFlowCtrlVarSec
 "CHW_HdSensLoc" = AT-COILS   $ IP Tech: ChwFlowCtrlVarSec
 "CHW_HdSptCtrl" = FIXED   $ IP Tech: ChwFlowCtrlVarSec
 "CHWP_Encl" = Any   $ IP Tech: ChwPumpMtrEff-PR
 "CHWP_MotClass" = PREMIUM   $ IP Tech: ChwPumpMtrEff-PR
 "CHWP_MotHP" = Any   $ IP Tech: ChwPumpMtrEff-PR
 "CHWP_NEMA_DC" =    $ IP Tech: ChwPumpMtrEff-PR
 "CHWP_RPM" = Any   $ IP Tech: ChwPumpMtrEff-PR
 "CHWP_Volt" =    $ IP Tech: ChwPumpMtrEff-PR
 "CHW_MaxT" = 54   $ IP Tech: ChwTempCtrlReset
 "CHW_TempCtrl" = LOAD-RESET   $ IP Tech: ChwTempCtrlReset
 "DuctDT" = 1   $ IP Tech: ComDuctInsul-1
 "DuctAirLoss" = 0   $ IP Tech: ComDuctLeak-0
 "DuctLossOAFrac" = 0   $ IP Tech: ComDuctLeak-0
 "ComRoofInsCalc" = FromUo   $ IP Tech: ComRoofIns-WFrm-0.03
 "ComRoofInsR" = -999   $ IP Tech: ComRoofIns-WFrm-0.03
 "ComRoofUo" = 0.03   $ IP Tech: ComRoofIns-WFrm-0.03
 "ComEWInsCalc" = FromUo   $ IP Tech: ComWallIns-WFrm-0.08
 "ComEWInsR" = -999   $ IP Tech: ComWallIns-WFrm-0.08
 "ComEWUo" = 0.08   $ IP Tech: ComWallIns-WFrm-0.08
 "MotorClass" = PREMIUM   $ IP Tech: ExhFanMtr-Prem
 "ComN_SHGC" = 0.25   $ IP Tech: NResWin-ComN-0.36-0.25
 "ComN_UFactor" = 0.36   $ IP Tech: NResWin-ComN-0.36-0.25
 "ComN_VisTrans" = 0.41   $ IP Tech: NResWin-ComN-0.36-0.25
 "ComN_WinCode" = G2668   $ IP Tech: NResWin-ComN-0.36-0.25
 "ComN_WinFrmFrac" = 0.17   $ IP Tech: NResWin-ComN-0.36-0.25
 "ComN_WinFrmU" = 0.3   $ IP Tech: NResWin-ComN-0.36-0.25
 "ComO_SHGC" = 0.25   $ IP Tech: NResWin-ComO-0.36-0.25
 "ComO_UFactor" = 0.36   $ IP Tech: NResWin-ComO-0.36-0.25
 "ComO_VisTrans" = 0.41   $ IP Tech: NResWin-ComO-0.36-0.25
 "ComO_WinCode" = G2668   $ IP Tech: NResWin-ComO-0.36-0.25
 "ComO_WinFrmFrac" = 0.17   $ IP Tech: NResWin-ComO-0.36-0.25
 "ComO_WinFrmU" = 0.3   $ IP Tech: NResWin-ComO-0.36-0.25
 "SATempCtrl" = WARMEST   $ IP Tech: SATempCtrl-Warmest
 "FanEIR_fPLR" = "Variable Speed Drive FPLR"   $ IP Tech: VAVCtrl-VSD-AnyHP
 "Fan_Control" = VSD   $ IP Tech: VAVCtrl-VSD-AnyHP
 "Motor_Horsepower" = AnyHP   $ IP Tech: VAVCtrl-VSD-AnyHP
 "AltAdjFactor" = 1.007532   $ Sizing
 "CAssFlo_L_Break_CZn" = 249.244   $ Sizing
 "CAssFlo_L_CompDC_CZn" = 143.9994   $ Sizing
 "CAssFlo_L_Conf_CZn" = 174.2471   $ Sizing
 "CAssFlo_L_CopyRm_CZn" = 50.72986   $ Sizing
 "CAssFlo_L_Hall_EZn" = 73.05411   $ Sizing
 "CAssFlo_L_Hall_NZn" = 58.46949   $ Sizing
 "CAssFlo_L_Hall_SZn" = 88.12878   $ Sizing
 "CAssFlo_L_Hall_WZn" = 79.1824   $ Sizing
 "CAssFlo_L_LobWait_EZn" = 178.985   $ Sizing
 "CAssFlo_L_LobWait_NZn" = 123.3691   $ Sizing
 "CAssFlo_L_LobWait_SZn" = 203.0315   $ Sizing
 "CAssFlo_L_LobWait_WZn" = 180.5929   $ Sizing
 "CAssFlo_L_MechElec_CZn" = 65.93681   $ Sizing
 "CAssFlo_L_OfficeOpn_CZn" = 42.63466   $ Sizing
 "CAssFlo_L_OfficeOpn_EZn" = 396.9816   $ Sizing
 "CAssFlo_L_OfficeOpn_NZn" = 180.9765   $ Sizing
 "CAssFlo_L_OfficeOpn_SZn" = 410.8798   $ Sizing
 "CAssFlo_L_OfficeOpn_WZn" = 383.6019   $ Sizing
 "CAssFlo_L_OfficeSm_EZn" = 332.7768   $ Sizing
 "CAssFlo_L_OfficeSm_NZn" = 138.3664   $ Sizing
 "CAssFlo_L_OfficeSm_SZn" = 365.2879   $ Sizing
 "CAssFlo_L_OfficeSm_WZn" = 337.0305   $ Sizing
 "CAssFlo_L_Restrm_CZn" = 86.07105   $ Sizing
 "CAssFlo_L_StorSm_CZn" = 30.27234   $ Sizing
 "CAssFlo_L_StorSm_EZn" = 64.44923   $ Sizing
 "CAssFlo_L_StorSm_NZn" = 63.25608   $ Sizing
 "CAssFlo_L_StorSm_SZn" = 73.45161   $ Sizing
 "CAssFlo_L_StorSm_WZn" = 67.20235   $ Sizing
 "CAssFlo_T_Conf_CZn" = 185.615   $ Sizing
 "CAssFlo_T_Hall_EZn" = 91.21358   $ Sizing
 "CAssFlo_T_Hall_NZn" = 53.94063   $ Sizing
 "CAssFlo_T_Hall_SZn" = 104.124   $ Sizing
 "CAssFlo_T_Hall_WZn" = 92.46344   $ Sizing
 "CAssFlo_T_OfficeOpn_CZn" = 43.333   $ Sizing
 "CAssFlo_T_OfficeOpn_EZn" = 411.9706   $ Sizing
 "CAssFlo_T_OfficeOpn_NZn" = 215.7731   $ Sizing
 "CAssFlo_T_OfficeOpn_SZn" = 446.8023   $ Sizing
 "CAssFlo_T_OfficeOpn_WZn" = 399.4322   $ Sizing
 "CAssFlo_T_OfficeSm_EZn" = 358.717   $ Sizing
 "CAssFlo_T_OfficeSm_NZn" = 169.2944   $ Sizing
 "CAssFlo_T_OfficeSm_SZn" = 397.3076   $ Sizing
 "CAssFlo_T_OfficeSm_WZn" = 349.7264   $ Sizing
 "CAssFlo_T_Restrm_CZn" = 86.07105   $ Sizing
 "CAssFlo_T_StorSm_EZn" = 83.81192   $ Sizing
 "CAssFlo_T_StorSm_NZn" = 59.5118   $ Sizing
 "CAssFlo_T_StorSm_SZn" = 94.51497   $ Sizing
 "CAssFlo_T_StorSm_WZn" = 86.73179   $ Sizing
 "CBF_Sys_L" = 0.04390075   $ Sizing
 "CBF_Sys_T" = 0.04283993   $ Sizing
 "CHRtFlo_L_Break_CZn" = 185.4956   $ Sizing
 "CHRtFlo_L_CompDC_CZn" = 43.19982   $ Sizing
 "CHRtFlo_L_Conf_CZn" = 143.3872   $ Sizing
 "CHRtFlo_L_CopyRm_CZn" = 50.72986   $ Sizing
 "CHRtFlo_L_Hall_EZn" = 55.52194   $ Sizing
 "CHRtFlo_L_Hall_NZn" = 58.46949   $ Sizing
 "CHRtFlo_L_Hall_SZn" = 38.73157   $ Sizing
 "CHRtFlo_L_Hall_WZn" = 55.18176   $ Sizing
 "CHRtFlo_L_LobWait_EZn" = 115.8797   $ Sizing
 "CHRtFlo_L_LobWait_NZn" = 123.3691   $ Sizing
 "CHRtFlo_L_LobWait_SZn" = 87.61664   $ Sizing
 "CHRtFlo_L_LobWait_WZn" = 115.2418   $ Sizing
 "CHRtFlo_L_MechElec_CZn" = 38.30642   $ Sizing
 "CHRtFlo_L_OfficeOpn_CZn" = 34.46059   $ Sizing
 "CHRtFlo_L_OfficeOpn_EZn" = 119.0945   $ Sizing
 "CHRtFlo_L_OfficeOpn_NZn" = 127.6345   $ Sizing
 "CHRtFlo_L_OfficeOpn_SZn" = 123.2639   $ Sizing
 "CHRtFlo_L_OfficeOpn_WZn" = 115.8774   $ Sizing
 "CHRtFlo_L_OfficeSm_EZn" = 113.8054   $ Sizing
 "CHRtFlo_L_OfficeSm_NZn" = 120.3965   $ Sizing
 "CHRtFlo_L_OfficeSm_SZn" = 109.5864   $ Sizing
 "CHRtFlo_L_OfficeSm_WZn" = 108.6129   $ Sizing
 "CHRtFlo_L_Restrm_CZn" = 51.06208   $ Sizing
 "CHRtFlo_L_StorSm_CZn" = 30.27234   $ Sizing
 "CHRtFlo_L_StorSm_EZn" = 58.76157   $ Sizing
 "CHRtFlo_L_StorSm_NZn" = 63.25608   $ Sizing
 "CHRtFlo_L_StorSm_SZn" = 43.16545   $ Sizing
 "CHRtFlo_L_StorSm_WZn" = 53.89141   $ Sizing
 "CHRtFlo_T_Conf_CZn" = 143.3872   $ Sizing
 "CHRtFlo_T_Hall_EZn" = 51.10187   $ Sizing
 "CHRtFlo_T_Hall_NZn" = 53.94063   $ Sizing
 "CHRtFlo_T_Hall_SZn" = 41.13351   $ Sizing
 "CHRtFlo_T_Hall_WZn" = 49.94297   $ Sizing
 "CHRtFlo_T_OfficeOpn_CZn" = 22.49578   $ Sizing
 "CHRtFlo_T_OfficeOpn_EZn" = 123.5912   $ Sizing
 "CHRtFlo_T_OfficeOpn_NZn" = 117.0343   $ Sizing
 "CHRtFlo_T_OfficeOpn_SZn" = 134.0407   $ Sizing
 "CHRtFlo_T_OfficeOpn_WZn" = 119.8297   $ Sizing
 "CHRtFlo_T_OfficeSm_EZn" = 107.6151   $ Sizing
 "CHRtFlo_T_OfficeSm_NZn" = 110.4663   $ Sizing
 "CHRtFlo_T_OfficeSm_SZn" = 119.1923   $ Sizing
 "CHRtFlo_T_OfficeSm_WZn" = 104.9179   $ Sizing
 "CHRtFlo_T_Restrm_CZn" = 76.63995   $ Sizing
 "CHRtFlo_T_StorSm_EZn" = 55.69868   $ Sizing
 "CHRtFlo_T_StorSm_NZn" = 59.5118   $ Sizing
 "CHRtFlo_T_StorSm_SZn" = 42.09922   $ Sizing
 "CHRtFlo_T_StorSm_WZn" = 54.26222   $ Sizing
 "CRtdFlo_Sys_L" = 3363.068   $ Sizing
 "CRtdFlo_Sys_T" = 2829.352   $ Sizing
 "CSupFlo_Sys_L" = 3363.068   $ Sizing
 "CSupFlo_Sys_T" = 2829.352   $ Sizing
 "Cap_Chiller1" = 0.1676393   $ Sizing
 "ClCap_Sys_L" = 89668.84   $ Sizing
 "ClCap_Sys_T" = 76684.2   $ Sizing
 "HRtEDB_L_Break_CZn" = 55.67064   $ Sizing
 "HRtEDB_L_CompDC_CZn" = 55.67064   $ Sizing
 "HRtEDB_L_Conf_CZn" = 55.67064   $ Sizing
 "HRtEDB_L_CopyRm_CZn" = 53.24197   $ Sizing
 "HRtEDB_L_Hall_EZn" = 53.24197   $ Sizing
 "HRtEDB_L_Hall_NZn" = 53.24197   $ Sizing
 "HRtEDB_L_Hall_SZn" = 53.24197   $ Sizing
 "HRtEDB_L_Hall_WZn" = 53.24197   $ Sizing
 "HRtEDB_L_LobWait_EZn" = 53.24197   $ Sizing
 "HRtEDB_L_LobWait_NZn" = 53.24197   $ Sizing
 "HRtEDB_L_LobWait_SZn" = 53.24197   $ Sizing
 "HRtEDB_L_LobWait_WZn" = 53.24197   $ Sizing
 "HRtEDB_L_MechElec_CZn" = 53.24197   $ Sizing
 "HRtEDB_L_OfficeOpn_CZn" = 53.24197   $ Sizing
 "HRtEDB_L_OfficeOpn_EZn" = 55.67064   $ Sizing
 "HRtEDB_L_OfficeOpn_NZn" = 55.67064   $ Sizing
 "HRtEDB_L_OfficeOpn_SZn" = 55.67064   $ Sizing
 "HRtEDB_L_OfficeOpn_WZn" = 55.67064   $ Sizing
 "HRtEDB_L_OfficeSm_EZn" = 55.67064   $ Sizing
 "HRtEDB_L_OfficeSm_NZn" = 55.67064   $ Sizing
 "HRtEDB_L_OfficeSm_SZn" = 55.67064   $ Sizing
 "HRtEDB_L_OfficeSm_WZn" = 55.67064   $ Sizing
 "HRtEDB_L_Restrm_CZn" = 53.24197   $ Sizing
 "HRtEDB_L_StorSm_CZn" = 53.24197   $ Sizing
 "HRtEDB_L_StorSm_EZn" = 53.24197   $ Sizing
 "HRtEDB_L_StorSm_NZn" = 53.24197   $ Sizing
 "HRtEDB_L_StorSm_SZn" = 53.24197   $ Sizing
 "HRtEDB_L_StorSm_WZn" = 53.24197   $ Sizing
 "HRtEDB_T_Conf_CZn" = 52.25004   $ Sizing
 "HRtEDB_T_Hall_EZn" = 52.25004   $ Sizing
 "HRtEDB_T_Hall_NZn" = 52.25004   $ Sizing
 "HRtEDB_T_Hall_SZn" = 52.25004   $ Sizing
 "HRtEDB_T_Hall_WZn" = 52.25004   $ Sizing
 "HRtEDB_T_OfficeOpn_CZn" = 52.25004   $ Sizing
 "HRtEDB_T_OfficeOpn_EZn" = 55.43378   $ Sizing
 "HRtEDB_T_OfficeOpn_NZn" = 55.43378   $ Sizing
 "HRtEDB_T_OfficeOpn_SZn" = 55.43378   $ Sizing
 "HRtEDB_T_OfficeOpn_WZn" = 55.43378   $ Sizing
 "HRtEDB_T_OfficeSm_EZn" = 55.43378   $ Sizing
 "HRtEDB_T_OfficeSm_NZn" = 55.43378   $ Sizing
 "HRtEDB_T_OfficeSm_SZn" = 55.43378   $ Sizing
 "HRtEDB_T_OfficeSm_WZn" = 55.43378   $ Sizing
 "HRtEDB_T_Restrm_CZn" = 52.25004   $ Sizing
 "HRtEDB_T_StorSm_EZn" = 52.25004   $ Sizing
 "HRtEDB_T_StorSm_NZn" = 52.25004   $ Sizing
 "HRtEDB_T_StorSm_SZn" = 52.25004   $ Sizing
 "HRtEDB_T_StorSm_WZn" = 52.25004   $ Sizing
 "HtCap_L_Break_CZn" = -7859.35   $ Sizing
 "HtCap_L_CompDC_CZn" = -1830.353   $ Sizing
 "HtCap_L_Conf_CZn" = -6075.24   $ Sizing
 "HtCap_L_CopyRm_CZn" = -2282.577   $ Sizing
 "HtCap_L_Hall_EZn" = -2498.195   $ Sizing
 "HtCap_L_Hall_NZn" = -2630.819   $ Sizing
 "HtCap_L_Hall_SZn" = -1742.717   $ Sizing
 "HtCap_L_Hall_WZn" = -2482.889   $ Sizing
 "HtCap_L_LobWait_EZn" = -5213.977   $ Sizing
 "HtCap_L_LobWait_NZn" = -5550.96   $ Sizing
 "HtCap_L_LobWait_SZn" = -3942.287   $ Sizing
 "HtCap_L_LobWait_WZn" = -5185.273   $ Sizing
 "HtCap_L_MechElec_CZn" = -1723.587   $ Sizing
 "HtCap_L_OfficeOpn_CZn" = -1550.545   $ Sizing
 "HtCap_L_OfficeOpn_EZn" = -5045.97   $ Sizing
 "HtCap_L_OfficeOpn_NZn" = -5407.806   $ Sizing
 "HtCap_L_OfficeOpn_SZn" = -5222.627   $ Sizing
 "HtCap_L_OfficeOpn_WZn" = -4909.662   $ Sizing
 "HtCap_L_OfficeSm_EZn" = -4821.875   $ Sizing
 "HtCap_L_OfficeSm_NZn" = -5101.134   $ Sizing
 "HtCap_L_OfficeSm_SZn" = -4643.116   $ Sizing
 "HtCap_L_OfficeSm_WZn" = -4601.871   $ Sizing
 "HtCap_L_Restrm_CZn" = -2297.525   $ Sizing
 "HtCap_L_StorSm_CZn" = -1362.096   $ Sizing
 "HtCap_L_StorSm_EZn" = -2643.961   $ Sizing
 "HtCap_L_StorSm_NZn" = -2846.191   $ Sizing
 "HtCap_L_StorSm_SZn" = -1942.218   $ Sizing
 "HtCap_L_StorSm_WZn" = -2424.83   $ Sizing
 "HtCap_T_Conf_CZn" = -6605.158   $ Sizing
 "HtCap_T_Hall_EZn" = -2354.017   $ Sizing
 "HtCap_T_Hall_NZn" = -2484.785   $ Sizing
 "HtCap_T_Hall_SZn" = -1894.822   $ Sizing
 "HtCap_T_Hall_WZn" = -2300.632   $ Sizing
 "HtCap_T_OfficeOpn_CZn" = -1036.272   $ Sizing
 "HtCap_T_OfficeOpn_EZn" = -5269.426   $ Sizing
 "HtCap_T_OfficeOpn_NZn" = -4989.867   $ Sizing
 "HtCap_T_OfficeOpn_SZn" = -5714.95   $ Sizing
 "HtCap_T_OfficeOpn_WZn" = -5109.049   $ Sizing
 "HtCap_T_OfficeSm_EZn" = -4588.271   $ Sizing
 "HtCap_T_OfficeSm_NZn" = -4709.832   $ Sizing
 "HtCap_T_OfficeSm_SZn" = -5081.875   $ Sizing
 "HtCap_T_OfficeSm_WZn" = -4473.273   $ Sizing
 "HtCap_T_Restrm_CZn" = -3530.433   $ Sizing
 "HtCap_T_StorSm_EZn" = -2565.77   $ Sizing
 "HtCap_T_StorSm_NZn" = -2741.422   $ Sizing
 "HtCap_T_StorSm_SZn" = -1939.308   $ Sizing
 "HtCap_T_StorSm_WZn" = -2499.599   $ Sizing
 "LpFlo_BlrPrimLoop" = 0   $ Sizing
 "LpFlo_ChlrPrimLoop" = 22.81416   $ Sizing
 "LpFlo_CircLp_Chw_All" = 22.81416   $ Sizing
 "LpFlo_CircLp_Hw_All" = 0   $ Sizing
 "RtChwFlo_Chiller1" = 1.85945   $ Sizing
 "RtdEDB_Sys_L" = 71.47339   $ Sizing
 "RtdEDB_Sys_T" = 73.24084   $ Sizing
 "RtdEWB_Sys_L" = 61.72974   $ Sizing
 "RtdEWB_Sys_T" = 61.80841   $ Sizing
..

##include Templates\OfS_CH_MZ.inp
END ..
COMPUTE ..
STOP ..
