
Start DOESIM : Storage capacity =  75000000
Starting LOADS   : SAVE-FILES is On , weather is CZ01ARCATA-AP       
Finished LOADS    BDL  1 : Memory (wds) =    170880, Time (sec) =    1.21
Starting REPORT  
Finished REPORT   BDL  1 : Memory (wds) =    329754, Time (sec) =    0.34
Starting HVAC    : SAVE-FILES is On , weather is CZ01ARCATA-AP       
*** ERRORS or WARNINGS from HVAC     program. Examine output file for details.
Finished HVAC     BDL  1 : Memory (wds) =    239799, Time (sec) =    1.88
Starting REPORT  
Finished REPORT   BDL  1 : Memory (wds) =    318410, Time (sec) =    0.13
Starting HOURLY-R
Finished HOURLY-R BDL  1 : Memory (wds) =    512033, Time (sec) =    0.14
Starting ECONOMIC
Finished ECONOMIC BDL  1 : Memory (wds) =      1034, Time (sec) =    0.03
End   DOESIM : Total elapsed time of      3.7 seconds
RUN COMPLETE
