
Start DOESIM : Storage capacity =  75000000
Starting LOADS   : SAVE-FILES is On , weather is CZ01ARCATA-AP       
Finished LOADS    BDL  1 : Memory (wds) =    170828, Time (sec) =    1.70
Starting REPORT  
Finished REPORT   BDL  1 : Memory (wds) =    329644, Time (sec) =    0.34
Starting HVAC    : SAVE-FILES is On , weather is CZ01ARCATA-AP       
*** ERRORS or WARNINGS from HVAC     program. Examine output file for details.
Finished HVAC     BDL  1 : Memory (wds) =    239747, Time (sec) =    1.81
Starting REPORT  
Finished REPORT   BDL  1 : Memory (wds) =    318358, Time (sec) =    0.14
Starting HOURLY-R
Finished HOURLY-R BDL  1 : Memory (wds) =    511929, Time (sec) =    0.14
Starting ECONOMIC
Finished ECONOMIC BDL  1 : Memory (wds) =      1034, Time (sec) =    0.03
End   DOESIM : Total elapsed time of      4.2 seconds
RUN COMPLETE
