INPUT ..

##fileprefix C:\Users\jglasskatz\MASControl3\
##set1 IsSizing FALSE
##set1 CoolType DX
##set1 HeatType FURNACE
##set1 EU_HrRepVar 0
##set1 BldgVint 1996
##set1 BldgLoc CZ02

 ##set1 mBFMult 1   $ IP Tech: RefgChg-NRes-Std

PARAMETER
 "AltFactor" = 1.00464   $ IP Non-Tech
 "BF_fFlow" = SpltAC1Sp-ge45_BF_fFlow   $ Msr (Multi)TechID: StdNResSplitAC-45to55
 "BF_fT" = SpltAC1Sp-ge45_BF_fT   $ Msr (Multi)TechID: StdNResSplitAC-45to55
 "BldgEconoFlag" = 1   $ IP Non-Tech
 "Break_EWSF" = 1   $ IP Non-Tech
 "Break_LWSF" = 1.1   $ IP Non-Tech
 "CDD_DBHi10" = 83   $ IP Non-Tech
 "CDD_DBHi7" = 96   $ IP Non-Tech
 "CDD_DBHi8" = 92   $ IP Non-Tech
 "CDD_DBHi9" = 96   $ IP Non-Tech
 "CDD_DBRange10" = 35   $ IP Non-Tech
 "CDD_DBRange7" = 44   $ IP Non-Tech
 "CDD_DBRange8" = 38   $ IP Non-Tech
 "CDD_DBRange9" = 43   $ IP Non-Tech
 "CDD_Day10" = 15   $ IP Non-Tech
 "CDD_Day7" = 16   $ IP Non-Tech
 "CDD_Day8" = 20   $ IP Non-Tech
 "CDD_Day9" = 17   $ IP Non-Tech
 "CDD_HrHi10" = 15   $ IP Non-Tech
 "CDD_HrHi7" = 15   $ IP Non-Tech
 "CDD_HrHi8" = 16   $ IP Non-Tech
 "CDD_HrHi9" = 14   $ IP Non-Tech
 "CDD_HrLo10" = 7   $ IP Non-Tech
 "CDD_HrLo7" = 7   $ IP Non-Tech
 "CDD_HrLo8" = 6   $ IP Non-Tech
 "CDD_HrLo9" = 6   $ IP Non-Tech
 "CDD_WB10" = 61.02124405   $ IP Non-Tech
 "CDD_WB7" = 68.3706665   $ IP Non-Tech
 "CDD_WB8" = 69.14488983   $ IP Non-Tech
 "CDD_WB9" = 65.15551758   $ IP Non-Tech
 "CEIR_fPLR_Hot" = SpltAC1Sp-ge45_CEIR_fPLR_Hot   $ Msr (Multi)TechID: StdNResSplitAC-45to55
 "CEIR_fPLR_Mod" = SpltAC1Sp-ge45_CEIR_fPLR_Mod   $ Msr (Multi)TechID: StdNResSplitAC-45to55
 "CEIR_fPLR_Tem" = SpltAC1Sp-ge45_CEIR_fPLR_Tem   $ Msr (Multi)TechID: StdNResSplitAC-45to55
 "CLoss_fPLR_Hot" = SpltAC1Sp-ge45_CLoss_fPLR_Hot   $ Msr (Multi)TechID: StdNResSplitAC-45to55
 "CLoss_fPLR_Mod" = SpltAC1Sp-ge45_CLoss_fPLR_Mod   $ Msr (Multi)TechID: StdNResSplitAC-45to55
 "CLoss_fPLR_Tem" = SpltAC1Sp-ge45_CLoss_fPLR_Tem   $ Msr (Multi)TechID: StdNResSplitAC-45to55
 "COP47" = 0   $ Msr (Multi)TechID: StdNResSplitAC-45to55
 "CZ_Category" = Mod   $ IP Non-Tech
 "CapRange" = ge45   $ Msr (Multi)TechID: StdNResSplitAC-45to55
 "CfmPerBtuh" = 0.03263   $ Msr (Multi)TechID: StdNResSplitAC-45to55
 "ChwVintEconoFlag" = 1   $ IP Non-Tech
 "ClCap_fT" = SpltAC1Sp-ge45_ClCap_fT   $ Msr (Multi)TechID: StdNResSplitAC-45to55
 "ClSH_fT" = SpltAC1Sp-ge45_ClSH_fT   $ Msr (Multi)TechID: StdNResSplitAC-45to55
 "CoilBF" = 0.106518182   $ Msr (Multi)TechID: StdNResSplitAC-45to55
 "CompRoomData_EWSF" = 5.25   $ IP Non-Tech
 "CompRoomData_LWSF" = 1.2   $ IP Non-Tech
 "CondWPerBtuh" = 0   $ Msr (Multi)TechID: StdNResSplitAC-45to55
 "Conference_EWSF" = 1.05   $ IP Non-Tech
 "Conference_LWSF" = 1.4   $ IP Non-Tech
 "CoolSensCap" = 0.759218182   $ Msr (Multi)TechID: StdNResSplitAC-45to55
 "CoolSetT" = 45   $ IP Non-Tech
 "CoolType" = DX   $ IP Non-Tech
 "CoolingEIR" = 0.2466   $ Msr (Multi)TechID: StdNResSplitAC-45to55
 "CopyRoom_EWSF" = 1.575   $ IP Non-Tech
 "CopyRoom_LWSF" = 1.3   $ IP Non-Tech
 "CrnkEIR" = 0.002466   $ Msr (Multi)TechID: StdNResSplitAC-45to55
 "CrnkMaxT" = 50   $ Msr (Multi)TechID: StdNResSplitAC-45to55
 "DXType" = SplitSEER   $ Msr (Multi)TechID: StdNResSplitAC-45to55
 "DesCoolT" = 75   $ IP Non-Tech
 "DesHeatT" = 73   $ IP Non-Tech
 "EER" = 11.81793103   $ Msr (Multi)TechID: StdNResSplitAC-45to55
 "EIR_fT" = SpltAC1Sp-ge45_EIR_fT   $ Msr (Multi)TechID: StdNResSplitAC-45to55
 "EconoCtrl" = FIXED   $ Msr (Multi)TechID: StdNResSplitAC-45to55
 "EconoEnthLimit" = 28   $ IP Non-Tech
 "EconoTempLimit" = 73   $ IP Non-Tech
 "Elevation" = 125   $ IP Non-Tech
 "FanEirPlr" = TwoSpeedFan   $ Msr (Multi)TechID: StdNResSplitAC-45to55
 "FanWPerCfm" = 0.294   $ Msr (Multi)TechID: StdNResSplitAC-45to55
 "HDD_CloudAmt1" = 0   $ IP Non-Tech
 "HDD_DBHi1" = 51   $ IP Non-Tech
 "HDD_DBRange1" = 22   $ IP Non-Tech
 "HDD_Day1" = 15   $ IP Non-Tech
 "HDD_HrHi1" = 15   $ IP Non-Tech
 "HDD_HrLo1" = 8   $ IP Non-Tech
 "HDD_WB1" = 45.9   $ IP Non-Tech
 "HDD_WindSpd1" = 10.4   $ IP Non-Tech
 "HIR_fT" = 0   $ Msr (Multi)TechID: StdNResSplitAC-45to55
 "HSPF" = 0   $ Msr (Multi)TechID: StdNResSplitAC-45to55
 "Hall_EWSF" = 0.21   $ IP Non-Tech
 "Hall_LWSF" = 0.6   $ IP Non-Tech
 "HeatSrc" = FURNACE   $ IP Non-Tech
 "HeatSrcTU" = HEAT-PUMP   $ IP Non-Tech
 "HeatType" = GasFurn   $ IP Non-Tech
 "HeatTypeTU" = HEAT-PUMP   $ IP Non-Tech
 "HtCap_fT" = 0   $ Msr (Multi)TechID: StdNResSplitAC-45to55
 "HtCoolCapRatio" = 0   $ Msr (Multi)TechID: StdNResSplitAC-45to55
 "HtgEIR" = 0   $ Msr (Multi)TechID: StdNResSplitAC-45to55
 "IndoorFanMode" = CONTINUOUS   $ IP Non-Tech
 "KT_TransferAir" = No   $ IP Non-Tech
 "Latitude" = 38.5   $ IP Non-Tech
 "LobbyWaiting_EWSF" = 0.5125   $ IP Non-Tech
 "LobbyWaiting_LWSF" = 1.3   $ IP Non-Tech
 "Longitude" = 122.7   $ IP Non-Tech
 "LowSpdCapRatio" = 1   $ Msr (Multi)TechID: StdNResSplitAC-45to55
 "LowSpdCfmRatio" = 1   $ Msr (Multi)TechID: StdNResSplitAC-45to55
 "MZFanMechEff" = 0.58   $ IP Non-Tech
 "MZHasRetFan" = FALSE   $ IP Non-Tech
 "MZ_RFanWPerCfm" = 0.33   $ IP Non-Tech
 "MZ_SFanWPerCfm" = 0.75   $ IP Non-Tech
 "MZ_SupFanStatic" = 2.25   $ IP Non-Tech
 "MaxOAFrac" = 1   $ Msr (Multi)TechID: StdNResSplitAC-45to55
 "MaxSupT_MZ" = 100   $ IP Non-Tech
 "MaxSupT_SZ" = 100   $ IP Non-Tech
 "MaxSupT_TU" = 90   $ IP Non-Tech
 "MechElecRoom_EWSF" = 0.21   $ IP Non-Tech
 "MechElecRoom_LWSF" = 0.7   $ IP Non-Tech
 "MinCfmPerSF" = 0.4   $ IP Non-Tech
 "MinSupT" = 55   $ IP Non-Tech
 "NumStages" = 1   $ Msr (Multi)TechID: StdNResSplitAC-45to55
 "OccCoolT" = 76   $ IP Non-Tech
 "OccHeatT" = 72   $ IP Non-Tech
 "OfficeOpen_EWSF" = 1.575   $ IP Non-Tech
 "OfficeOpen_LWSF" = 1.2   $ IP Non-Tech
 "OfficeSmall_EWSF" = 1.575   $ IP Non-Tech
 "OfficeSmall_LWSF" = 1.3   $ IP Non-Tech
 "PkgDxVintEconoFlag" = 0   $ IP Non-Tech
 "Restroom_EWSF" = 0.21   $ IP Non-Tech
 "Restroom_LWSF" = 0.6   $ IP Non-Tech
 "SEER" = 14   $ Msr (Multi)TechID: StdNResSplitAC-45to55
 "SZFanMechEff" = 0.58   $ IP Non-Tech
 "SZHasRetFan" = FALSE   $ IP Non-Tech
 "SZ_Is_2Spd" = FALSE   $ IP Non-Tech
 "SZ_SFanWPerCfm" = 0.46   $ IP Non-Tech
 "SZ_SupFanStatic" = 0.75   $ IP Non-Tech
 "Sector" = Any   $ Msr (Multi)TechID: StdNResSplitAC-45to55
 "StorageSmlCond_EWSF" = 0.21   $ IP Non-Tech
 "StorageSmlCond_LWSF" = 0.6   $ IP Non-Tech
 "SubType" = AC   $ Msr (Multi)TechID: StdNResSplitAC-45to55
 "T24GlzTbl" = CZTbl   $ IP Non-Tech
 "TermUnitFanMechEff" = 1   $ IP Non-Tech
 "TermUnitFanMode" = INTERMITTENT   $ IP Non-Tech
 "TotCoolCap" = 52519.36364   $ Msr (Multi)TechID: StdNResSplitAC-45to55
 "TwrSetpt" = 84   $ IP Non-Tech
 "UnocCoolT" = 86   $ IP Non-Tech
 "UnocHeatT" = 62   $ IP Non-Tech
 "UseEconoVintApplic" = FALSE   $ Msr (Multi)TechID: StdNResSplitAC-45to55
 "WlhpVintEconoFlag" = 0   $ IP Non-Tech
 "DuctDT" = 1   $ IP Tech: ComDuctInsul-1
 "DuctAirLoss" = 0   $ IP Tech: ComDuctLeak-0
 "DuctLossOAFrac" = 0   $ IP Tech: ComDuctLeak-0
 "ComRoofInsCalc" = FromUo   $ IP Tech: ComRoofIns-WFrm-0.06
 "ComRoofInsR" = -999   $ IP Tech: ComRoofIns-WFrm-0.06
 "ComRoofUo" = 0.06   $ IP Tech: ComRoofIns-WFrm-0.06
 "ComEWInsCalc" = FromUo   $ IP Tech: ComWallIns-WFrm-0.08
 "ComEWInsR" = -999   $ IP Tech: ComWallIns-WFrm-0.08
 "ComEWUo" = 0.08   $ IP Tech: ComWallIns-WFrm-0.08
 "ComN_SHGC" = 0.82   $ IP Tech: NResWin-ComN-1.23-0.82
 "ComN_UFactor" = 1.23   $ IP Tech: NResWin-ComN-1.23-0.82
 "ComN_VisTrans" = 0.9   $ IP Tech: NResWin-ComN-1.23-0.82
 "ComN_WinCode" = G1000   $ IP Tech: NResWin-ComN-1.23-0.82
 "ComN_WinFrmFrac" = 0.17   $ IP Tech: NResWin-ComN-1.23-0.82
 "ComN_WinFrmU" = 1   $ IP Tech: NResWin-ComN-1.23-0.82
 "ComO_SHGC" = 0.62   $ IP Tech: NResWin-ComO-1.23-0.62
 "ComO_UFactor" = 1.23   $ IP Tech: NResWin-ComO-1.23-0.62
 "ComO_VisTrans" = 0.69   $ IP Tech: NResWin-ComO-1.23-0.62
 "ComO_WinCode" = G1200   $ IP Tech: NResWin-ComO-1.23-0.62
 "ComO_WinFrmFrac" = 0.17   $ IP Tech: NResWin-ComO-1.23-0.62
 "ComO_WinFrmU" = 1   $ IP Tech: NResWin-ComO-1.23-0.62
 "LtgMsrApplic" = ALL   $ IP Tech: NonResLtgRefPre
 "LtgSav_CFL" = 0   $ IP Tech: NonResLtgRefPre
 "LtgSav_EX" = 0   $ IP Tech: NonResLtgRefPre
 "LtgSav_HB" = 0   $ IP Tech: NonResLtgRefPre
 "LtgSav_LF" = 0   $ IP Tech: NonResLtgRefPre
 "LtgSav_SP" = 0   $ IP Tech: NonResLtgRefPre
 "CEIR_fPLR" = PSZ65to135_CEIR_fPLR   $ IP Tech: PkgAC1SpH-65to135-E10
 "CLoss_fPLR" = PSZ65to135_CLoss_fPLR   $ IP Tech: PkgAC1SpH-65to135-E10
 "COP" = -1   $ IP Tech: PkgAC1SpH-65to135-E10
 "HtgFuel" = Gas   $ IP Tech: PkgAC1SpH-65to135-E10
 "IEER" = 11.87   $ IP Tech: PkgAC1SpH-65to135-E10
 "NominalCap" = 15   $ IP Tech: PkgAC1SpH-65to135-E10
 "RatedEER" = 10   $ IP Tech: PkgAC1SpH-65to135-E10
 "RatedSupMtrClass" = HiEff   $ IP Tech: PkgAC1SpH-65to135-E10
 "SizeRange" = 65to135   $ IP Tech: PkgAC1SpH-65to135-E10
 "SupMotEff" = 0.84   $ IP Tech: PkgAC1SpH-65to135-E10
 "Tier" = 0   $ IP Tech: PkgAC1SpH-65to135-E10
 "FanPwrMult" = 1   $ IP Tech: PkgFurn-0.80AFUE
 "FurnAFUE" = 0.8   $ IP Tech: PkgFurn-0.80AFUE
 "FurnEt" = 0.82   $ IP Tech: PkgFurn-0.80AFUE
 "FurnaceAuxKW" = 0.1   $ IP Tech: PkgFurn-0.80AFUE
 "HIR_fPLR" = Furnace-HIR-fPLR   $ IP Tech: PkgFurn-0.80AFUE
 "VSM" = FALSE   $ IP Tech: PkgFurn-0.80AFUE
 "BFMult" = 1   $ IP Tech: RefgChg-NRes-Std
 "CoolEirMult" = 1   $ IP Tech: RefgChg-NRes-Std
 "SensCoolCapMult" = 1   $ IP Tech: RefgChg-NRes-Std
 "TotCoolCapMult" = 1   $ IP Tech: RefgChg-NRes-Std
 "AltAdjFactor" = 1.004644   $ Sizing
 "CAssFlo_L_Break_CZn" = 385.6896   $ Sizing
 "CAssFlo_L_CompDC_CZn" = 140.341   $ Sizing
 "CAssFlo_L_Conf_CZn" = 224.9755   $ Sizing
 "CAssFlo_L_CopyRm_CZn" = 81.71046   $ Sizing
 "CAssFlo_L_Hall_EZn" = 127.8716   $ Sizing
 "CAssFlo_L_Hall_NZn" = 64.94096   $ Sizing
 "CAssFlo_L_Hall_SZn" = 151.8362   $ Sizing
 "CAssFlo_L_Hall_WZn" = 158.768   $ Sizing
 "CAssFlo_L_LobWait_EZn" = 297.0049   $ Sizing
 "CAssFlo_L_LobWait_NZn" = 172.0518   $ Sizing
 "CAssFlo_L_LobWait_SZn" = 360.5445   $ Sizing
 "CAssFlo_L_LobWait_WZn" = 381.565   $ Sizing
 "CAssFlo_L_MechElec_CZn" = 47.48756   $ Sizing
 "CAssFlo_L_OfficeOpn_CZn" = 52.04203   $ Sizing
 "CAssFlo_L_OfficeOpn_EZn" = 544.9489   $ Sizing
 "CAssFlo_L_OfficeOpn_NZn" = 357.4207   $ Sizing
 "CAssFlo_L_OfficeOpn_SZn" = 610.8495   $ Sizing
 "CAssFlo_L_OfficeOpn_WZn" = 643.4866   $ Sizing
 "CAssFlo_L_OfficeSm_EZn" = 468.4718   $ Sizing
 "CAssFlo_L_OfficeSm_NZn" = 284.9514   $ Sizing
 "CAssFlo_L_OfficeSm_SZn" = 539.72   $ Sizing
 "CAssFlo_L_OfficeSm_WZn" = 559.3784   $ Sizing
 "CAssFlo_L_Restrm_CZn" = 58.04584   $ Sizing
 "CAssFlo_L_StorSm_CZn" = 23.94947   $ Sizing
 "CAssFlo_L_StorSm_EZn" = 122.9506   $ Sizing
 "CAssFlo_L_StorSm_NZn" = 61.14011   $ Sizing
 "CAssFlo_L_StorSm_SZn" = 147.8076   $ Sizing
 "CAssFlo_L_StorSm_WZn" = 149.3665   $ Sizing
 "CAssFlo_T_Conf_CZn" = 218.4936   $ Sizing
 "CAssFlo_T_Hall_EZn" = 146.7828   $ Sizing
 "CAssFlo_T_Hall_NZn" = 79.24866   $ Sizing
 "CAssFlo_T_Hall_SZn" = 176.0588   $ Sizing
 "CAssFlo_T_Hall_WZn" = 180.9091   $ Sizing
 "CAssFlo_T_OfficeOpn_CZn" = 49.99685   $ Sizing
 "CAssFlo_T_OfficeOpn_EZn" = 583.1788   $ Sizing
 "CAssFlo_T_OfficeOpn_NZn" = 391.4891   $ Sizing
 "CAssFlo_T_OfficeOpn_SZn" = 676.6   $ Sizing
 "CAssFlo_T_OfficeOpn_WZn" = 683.5244   $ Sizing
 "CAssFlo_T_OfficeSm_EZn" = 507.6847   $ Sizing
 "CAssFlo_T_OfficeSm_NZn" = 316.6602   $ Sizing
 "CAssFlo_T_OfficeSm_SZn" = 596.1316   $ Sizing
 "CAssFlo_T_OfficeSm_WZn" = 611.0652   $ Sizing
 "CAssFlo_T_Restrm_CZn" = 95.64457   $ Sizing
 "CAssFlo_T_StorSm_EZn" = 145.671   $ Sizing
 "CAssFlo_T_StorSm_NZn" = 80.6591   $ Sizing
 "CAssFlo_T_StorSm_SZn" = 177.6327   $ Sizing
 "CAssFlo_T_StorSm_WZn" = 183.1512   $ Sizing
 "CHRtFlo_Sys_L_Break_C" = 385.6896   $ Sizing
 "CHRtFlo_Sys_L_CompDC_C" = 175.2292   $ Sizing
 "CHRtFlo_Sys_L_Conf_C" = 229.2115   $ Sizing
 "CHRtFlo_Sys_L_CopyRm_C" = 81.71046   $ Sizing
 "CHRtFlo_Sys_L_Hall_E" = 170.7721   $ Sizing
 "CHRtFlo_Sys_L_Hall_N" = 73.36038   $ Sizing
 "CHRtFlo_Sys_L_Hall_S" = 196.1754   $ Sizing
 "CHRtFlo_Sys_L_Hall_W" = 191.4169   $ Sizing
 "CHRtFlo_Sys_L_LobWait_E" = 398.493   $ Sizing
 "CHRtFlo_Sys_L_LobWait_N" = 172.0519   $ Sizing
 "CHRtFlo_Sys_L_LobWait_S" = 455.2479   $ Sizing
 "CHRtFlo_Sys_L_LobWait_W" = 441.8979   $ Sizing
 "CHRtFlo_Sys_L_MechElec_C" = 65.74781   $ Sizing
 "CHRtFlo_Sys_L_OfficeOpn_C" = 74.32084   $ Sizing
 "CHRtFlo_Sys_L_OfficeOpn_E" = 728.7184   $ Sizing
 "CHRtFlo_Sys_L_OfficeOpn_N" = 373.7595   $ Sizing
 "CHRtFlo_Sys_L_OfficeOpn_S" = 768.7086   $ Sizing
 "CHRtFlo_Sys_L_OfficeOpn_W" = 746.4958   $ Sizing
 "CHRtFlo_Sys_L_OfficeSm_E" = 633.1476   $ Sizing
 "CHRtFlo_Sys_L_OfficeSm_N" = 303.366   $ Sizing
 "CHRtFlo_Sys_L_OfficeSm_S" = 689.4183   $ Sizing
 "CHRtFlo_Sys_L_OfficeSm_W" = 670.912   $ Sizing
 "CHRtFlo_Sys_L_Restrm_C" = 85.82434   $ Sizing
 "CHRtFlo_Sys_L_StorSm_C" = 35.93485   $ Sizing
 "CHRtFlo_Sys_L_StorSm_E" = 166.1473   $ Sizing
 "CHRtFlo_Sys_L_StorSm_N" = 80.24634   $ Sizing
 "CHRtFlo_Sys_L_StorSm_S" = 185.6318   $ Sizing
 "CHRtFlo_Sys_L_StorSm_W" = 174.4962   $ Sizing
 "CHRtFlo_Sys_T_Conf_C" = 223.0326   $ Sizing
 "CHRtFlo_Sys_T_Hall_E" = 184.3015   $ Sizing
 "CHRtFlo_Sys_T_Hall_N" = 79.24866   $ Sizing
 "CHRtFlo_Sys_T_Hall_S" = 217.9301   $ Sizing
 "CHRtFlo_Sys_T_Hall_W" = 202.8195   $ Sizing
 "CHRtFlo_Sys_T_OfficeOpn_C" = 65.55637   $ Sizing
 "CHRtFlo_Sys_T_OfficeOpn_E" = 721.8329   $ Sizing
 "CHRtFlo_Sys_T_OfficeOpn_N" = 391.489   $ Sizing
 "CHRtFlo_Sys_T_OfficeOpn_S" = 808.4439   $ Sizing
 "CHRtFlo_Sys_T_OfficeOpn_W" = 744.876   $ Sizing
 "CHRtFlo_Sys_T_OfficeSm_E" = 636.2568   $ Sizing
 "CHRtFlo_Sys_T_OfficeSm_N" = 316.6602   $ Sizing
 "CHRtFlo_Sys_T_OfficeSm_S" = 729.2291   $ Sizing
 "CHRtFlo_Sys_T_OfficeSm_W" = 681.2314   $ Sizing
 "CHRtFlo_Sys_T_Restrm_C" = 119.178   $ Sizing
 "CHRtFlo_Sys_T_StorSm_E" = 178.9977   $ Sizing
 "CHRtFlo_Sys_T_StorSm_N" = 81.09724   $ Sizing
 "CHRtFlo_Sys_T_StorSm_S" = 209.509   $ Sizing
 "CHRtFlo_Sys_T_StorSm_W" = 196.7467   $ Sizing
 "CRtdFlo_Sys_L_Break_C" = 385.6896   $ Sizing
 "CRtdFlo_Sys_L_CompDC_C" = 140.341   $ Sizing
 "CRtdFlo_Sys_L_Conf_C" = 224.9755   $ Sizing
 "CRtdFlo_Sys_L_CopyRm_C" = 81.71046   $ Sizing
 "CRtdFlo_Sys_L_Hall_E" = 127.8716   $ Sizing
 "CRtdFlo_Sys_L_Hall_N" = 64.94096   $ Sizing
 "CRtdFlo_Sys_L_Hall_S" = 151.8362   $ Sizing
 "CRtdFlo_Sys_L_Hall_W" = 158.768   $ Sizing
 "CRtdFlo_Sys_L_LobWait_E" = 297.0049   $ Sizing
 "CRtdFlo_Sys_L_LobWait_N" = 172.0519   $ Sizing
 "CRtdFlo_Sys_L_LobWait_S" = 360.5445   $ Sizing
 "CRtdFlo_Sys_L_LobWait_W" = 381.565   $ Sizing
 "CRtdFlo_Sys_L_MechElec_C" = 47.48756   $ Sizing
 "CRtdFlo_Sys_L_OfficeOpn_C" = 52.04203   $ Sizing
 "CRtdFlo_Sys_L_OfficeOpn_E" = 544.9489   $ Sizing
 "CRtdFlo_Sys_L_OfficeOpn_N" = 357.4207   $ Sizing
 "CRtdFlo_Sys_L_OfficeOpn_S" = 610.8495   $ Sizing
 "CRtdFlo_Sys_L_OfficeOpn_W" = 643.4866   $ Sizing
 "CRtdFlo_Sys_L_OfficeSm_E" = 468.4718   $ Sizing
 "CRtdFlo_Sys_L_OfficeSm_N" = 284.9514   $ Sizing
 "CRtdFlo_Sys_L_OfficeSm_S" = 539.72   $ Sizing
 "CRtdFlo_Sys_L_OfficeSm_W" = 559.3784   $ Sizing
 "CRtdFlo_Sys_L_Restrm_C" = 58.04584   $ Sizing
 "CRtdFlo_Sys_L_StorSm_C" = 23.94948   $ Sizing
 "CRtdFlo_Sys_L_StorSm_E" = 122.9506   $ Sizing
 "CRtdFlo_Sys_L_StorSm_N" = 61.14011   $ Sizing
 "CRtdFlo_Sys_L_StorSm_S" = 147.8075   $ Sizing
 "CRtdFlo_Sys_L_StorSm_W" = 149.3665   $ Sizing
 "CRtdFlo_Sys_T_Conf_C" = 218.4936   $ Sizing
 "CRtdFlo_Sys_T_Hall_E" = 146.7828   $ Sizing
 "CRtdFlo_Sys_T_Hall_N" = 79.24866   $ Sizing
 "CRtdFlo_Sys_T_Hall_S" = 176.0588   $ Sizing
 "CRtdFlo_Sys_T_Hall_W" = 180.9091   $ Sizing
 "CRtdFlo_Sys_T_OfficeOpn_C" = 49.99685   $ Sizing
 "CRtdFlo_Sys_T_OfficeOpn_E" = 583.1788   $ Sizing
 "CRtdFlo_Sys_T_OfficeOpn_N" = 391.489   $ Sizing
 "CRtdFlo_Sys_T_OfficeOpn_S" = 676.6   $ Sizing
 "CRtdFlo_Sys_T_OfficeOpn_W" = 683.5244   $ Sizing
 "CRtdFlo_Sys_T_OfficeSm_E" = 507.6847   $ Sizing
 "CRtdFlo_Sys_T_OfficeSm_N" = 316.6602   $ Sizing
 "CRtdFlo_Sys_T_OfficeSm_S" = 596.1316   $ Sizing
 "CRtdFlo_Sys_T_OfficeSm_W" = 611.0652   $ Sizing
 "CRtdFlo_Sys_T_Restrm_C" = 95.64457   $ Sizing
 "CRtdFlo_Sys_T_StorSm_E" = 145.671   $ Sizing
 "CRtdFlo_Sys_T_StorSm_N" = 80.6591   $ Sizing
 "CRtdFlo_Sys_T_StorSm_S" = 177.6327   $ Sizing
 "CRtdFlo_Sys_T_StorSm_W" = 183.1512   $ Sizing
 "CSupFlo_Sys_L_Break_C" = 385.6896   $ Sizing
 "CSupFlo_Sys_L_CompDC_C" = 140.341   $ Sizing
 "CSupFlo_Sys_L_Conf_C" = 224.9755   $ Sizing
 "CSupFlo_Sys_L_CopyRm_C" = 81.71046   $ Sizing
 "CSupFlo_Sys_L_Hall_E" = 127.8716   $ Sizing
 "CSupFlo_Sys_L_Hall_N" = 64.94096   $ Sizing
 "CSupFlo_Sys_L_Hall_S" = 151.8362   $ Sizing
 "CSupFlo_Sys_L_Hall_W" = 158.768   $ Sizing
 "CSupFlo_Sys_L_LobWait_E" = 297.0049   $ Sizing
 "CSupFlo_Sys_L_LobWait_N" = 172.0519   $ Sizing
 "CSupFlo_Sys_L_LobWait_S" = 360.5445   $ Sizing
 "CSupFlo_Sys_L_LobWait_W" = 381.565   $ Sizing
 "CSupFlo_Sys_L_MechElec_C" = 47.48756   $ Sizing
 "CSupFlo_Sys_L_OfficeOpn_C" = 52.04203   $ Sizing
 "CSupFlo_Sys_L_OfficeOpn_E" = 544.9489   $ Sizing
 "CSupFlo_Sys_L_OfficeOpn_N" = 357.4207   $ Sizing
 "CSupFlo_Sys_L_OfficeOpn_S" = 610.8495   $ Sizing
 "CSupFlo_Sys_L_OfficeOpn_W" = 643.4866   $ Sizing
 "CSupFlo_Sys_L_OfficeSm_E" = 468.4718   $ Sizing
 "CSupFlo_Sys_L_OfficeSm_N" = 284.9514   $ Sizing
 "CSupFlo_Sys_L_OfficeSm_S" = 539.72   $ Sizing
 "CSupFlo_Sys_L_OfficeSm_W" = 559.3784   $ Sizing
 "CSupFlo_Sys_L_Restrm_C" = 58.04584   $ Sizing
 "CSupFlo_Sys_L_StorSm_C" = 23.94948   $ Sizing
 "CSupFlo_Sys_L_StorSm_E" = 122.9506   $ Sizing
 "CSupFlo_Sys_L_StorSm_N" = 61.14011   $ Sizing
 "CSupFlo_Sys_L_StorSm_S" = 147.8075   $ Sizing
 "CSupFlo_Sys_L_StorSm_W" = 149.3665   $ Sizing
 "CSupFlo_Sys_T_Conf_C" = 218.4936   $ Sizing
 "CSupFlo_Sys_T_Hall_E" = 146.7828   $ Sizing
 "CSupFlo_Sys_T_Hall_N" = 79.24866   $ Sizing
 "CSupFlo_Sys_T_Hall_S" = 176.0588   $ Sizing
 "CSupFlo_Sys_T_Hall_W" = 180.9091   $ Sizing
 "CSupFlo_Sys_T_OfficeOpn_C" = 49.99685   $ Sizing
 "CSupFlo_Sys_T_OfficeOpn_E" = 583.1788   $ Sizing
 "CSupFlo_Sys_T_OfficeOpn_N" = 391.489   $ Sizing
 "CSupFlo_Sys_T_OfficeOpn_S" = 676.6   $ Sizing
 "CSupFlo_Sys_T_OfficeOpn_W" = 683.5244   $ Sizing
 "CSupFlo_Sys_T_OfficeSm_E" = 507.6847   $ Sizing
 "CSupFlo_Sys_T_OfficeSm_N" = 316.6602   $ Sizing
 "CSupFlo_Sys_T_OfficeSm_S" = 596.1316   $ Sizing
 "CSupFlo_Sys_T_OfficeSm_W" = 611.0652   $ Sizing
 "CSupFlo_Sys_T_Restrm_C" = 95.64457   $ Sizing
 "CSupFlo_Sys_T_StorSm_E" = 145.671   $ Sizing
 "CSupFlo_Sys_T_StorSm_N" = 80.6591   $ Sizing
 "CSupFlo_Sys_T_StorSm_S" = 177.6327   $ Sizing
 "CSupFlo_Sys_T_StorSm_W" = 183.1512   $ Sizing
 "ClCap_Sys_L_Break_C" = 13162.52   $ Sizing
 "ClCap_Sys_L_CompDC_C" = 4789.45   $ Sizing
 "ClCap_Sys_L_Conf_C" = 9771.732   $ Sizing
 "ClCap_Sys_L_CopyRm_C" = 2788.551   $ Sizing
 "ClCap_Sys_L_Hall_E" = 4363.901   $ Sizing
 "ClCap_Sys_L_Hall_N" = 2216.255   $ Sizing
 "ClCap_Sys_L_Hall_S" = 5181.749   $ Sizing
 "ClCap_Sys_L_Hall_W" = 5418.311   $ Sizing
 "ClCap_Sys_L_LobWait_E" = 10135.95   $ Sizing
 "ClCap_Sys_L_LobWait_N" = 5871.652   $ Sizing
 "ClCap_Sys_L_LobWait_S" = 12304.38   $ Sizing
 "ClCap_Sys_L_LobWait_W" = 13021.75   $ Sizing
 "ClCap_Sys_L_MechElec_C" = 1620.618   $ Sizing
 "ClCap_Sys_L_OfficeOpn_C" = 1776.05   $ Sizing
 "ClCap_Sys_L_OfficeOpn_E" = 18597.59   $ Sizing
 "ClCap_Sys_L_OfficeOpn_N" = 12197.78   $ Sizing
 "ClCap_Sys_L_OfficeOpn_S" = 20846.6   $ Sizing
 "ClCap_Sys_L_OfficeOpn_W" = 21960.41   $ Sizing
 "ClCap_Sys_L_OfficeSm_E" = 15987.64   $ Sizing
 "ClCap_Sys_L_OfficeSm_N" = 9724.601   $ Sizing
 "ClCap_Sys_L_OfficeSm_S" = 18419.14   $ Sizing
 "ClCap_Sys_L_OfficeSm_W" = 19090.03   $ Sizing
 "ClCap_Sys_L_Restrm_C" = 1980.943   $ Sizing
 "ClCap_Sys_L_StorSm_C" = 817.329   $ Sizing
 "ClCap_Sys_L_StorSm_E" = 4195.962   $ Sizing
 "ClCap_Sys_L_StorSm_N" = 2086.542   $ Sizing
 "ClCap_Sys_L_StorSm_S" = 5044.261   $ Sizing
 "ClCap_Sys_L_StorSm_W" = 5097.463   $ Sizing
 "ClCap_Sys_T_Conf_C" = 9490.191   $ Sizing
 "ClCap_Sys_T_Hall_E" = 5009.289   $ Sizing
 "ClCap_Sys_T_Hall_N" = 2704.536   $ Sizing
 "ClCap_Sys_T_Hall_S" = 6008.398   $ Sizing
 "ClCap_Sys_T_Hall_W" = 6173.925   $ Sizing
 "ClCap_Sys_T_OfficeOpn_C" = 1706.253   $ Sizing
 "ClCap_Sys_T_OfficeOpn_E" = 19902.27   $ Sizing
 "ClCap_Sys_T_OfficeOpn_N" = 13360.43   $ Sizing
 "ClCap_Sys_T_OfficeOpn_S" = 23090.48   $ Sizing
 "ClCap_Sys_T_OfficeOpn_W" = 23326.79   $ Sizing
 "ClCap_Sys_T_OfficeSm_E" = 17325.87   $ Sizing
 "ClCap_Sys_T_OfficeSm_N" = 10806.73   $ Sizing
 "ClCap_Sys_T_OfficeSm_S" = 20344.31   $ Sizing
 "ClCap_Sys_T_OfficeSm_W" = 20853.96   $ Sizing
 "ClCap_Sys_T_Restrm_C" = 3264.083   $ Sizing
 "ClCap_Sys_T_StorSm_E" = 4971.346   $ Sizing
 "ClCap_Sys_T_StorSm_N" = 2752.671   $ Sizing
 "ClCap_Sys_T_StorSm_S" = 6062.11   $ Sizing
 "ClCap_Sys_T_StorSm_W" = 6250.44   $ Sizing
 "HtCap_Sys_L_Break_C" = -22827.64   $ Sizing
 "HtCap_Sys_L_CompDC_C" = -6055.789   $ Sizing
 "HtCap_Sys_L_Conf_C" = -13990.57   $ Sizing
 "HtCap_Sys_L_CopyRm_C" = -5054.9   $ Sizing
 "HtCap_Sys_L_Hall_E" = -5937.365   $ Sizing
 "HtCap_Sys_L_Hall_N" = -2797.558   $ Sizing
 "HtCap_Sys_L_Hall_S" = -6530.812   $ Sizing
 "HtCap_Sys_L_Hall_W" = -6416.216   $ Sizing
 "HtCap_Sys_L_LobWait_E" = -14296.63   $ Sizing
 "HtCap_Sys_L_LobWait_N" = -7627.307   $ Sizing
 "HtCap_Sys_L_LobWait_S" = -15918.11   $ Sizing
 "HtCap_Sys_L_LobWait_W" = -15645.47   $ Sizing
 "HtCap_Sys_L_MechElec_C" = -3116.064   $ Sizing
 "HtCap_Sys_L_OfficeOpn_C" = -2917.975   $ Sizing
 "HtCap_Sys_L_OfficeOpn_E" = -25327.72   $ Sizing
 "HtCap_Sys_L_OfficeOpn_N" = -15003.96   $ Sizing
 "HtCap_Sys_L_OfficeOpn_S" = -25789.4   $ Sizing
 "HtCap_Sys_L_OfficeOpn_W" = -25911.28   $ Sizing
 "HtCap_Sys_L_OfficeSm_E" = -21788.07   $ Sizing
 "HtCap_Sys_L_OfficeSm_N" = -11782.74   $ Sizing
 "HtCap_Sys_L_OfficeSm_S" = -22527.45   $ Sizing
 "HtCap_Sys_L_OfficeSm_W" = -22645.46   $ Sizing
 "HtCap_Sys_L_Restrm_C" = -3106.183   $ Sizing
 "HtCap_Sys_L_StorSm_C" = -1506.517   $ Sizing
 "HtCap_Sys_L_StorSm_E" = -5952.732   $ Sizing
 "HtCap_Sys_L_StorSm_N" = -3355.381   $ Sizing
 "HtCap_Sys_L_StorSm_S" = -6378.396   $ Sizing
 "HtCap_Sys_L_StorSm_W" = -6201.541   $ Sizing
 "HtCap_Sys_T_Conf_C" = -14027.07   $ Sizing
 "HtCap_Sys_T_Hall_E" = -6858.598   $ Sizing
 "HtCap_Sys_T_Hall_N" = -3375.822   $ Sizing
 "HtCap_Sys_T_Hall_S" = -7898.699   $ Sizing
 "HtCap_Sys_T_Hall_W" = -7452.026   $ Sizing
 "HtCap_Sys_T_OfficeOpn_C" = -2884.206   $ Sizing
 "HtCap_Sys_T_OfficeOpn_E" = -27785.14   $ Sizing
 "HtCap_Sys_T_OfficeOpn_N" = -16989.79   $ Sizing
 "HtCap_Sys_T_OfficeOpn_S" = -29834.83   $ Sizing
 "HtCap_Sys_T_OfficeOpn_W" = -28516.1   $ Sizing
 "HtCap_Sys_T_OfficeSm_E" = -23797.91   $ Sizing
 "HtCap_Sys_T_OfficeSm_N" = -13401.83   $ Sizing
 "HtCap_Sys_T_OfficeSm_S" = -26158.86   $ Sizing
 "HtCap_Sys_T_OfficeSm_W" = -25214.77   $ Sizing
 "HtCap_Sys_T_Restrm_C" = -4655.553   $ Sizing
 "HtCap_Sys_T_StorSm_E" = -7198.339   $ Sizing
 "HtCap_Sys_T_StorSm_N" = -3889.33   $ Sizing
 "HtCap_Sys_T_StorSm_S" = -7752.928   $ Sizing
 "HtCap_Sys_T_StorSm_W" = -7750.936   $ Sizing
..

##include Templates\OfS_DX_SZ.inp
END ..
COMPUTE ..
STOP ..
