INPUT ..

##fileprefix C:\Users\jglasskatz\MASControl3\
##set1 IsSizing FALSE
##set1 CoolType ACH
##set1 HeatType HOT-WATER
##set1 EU_HrRepVar 1
##set1 BldgVint 2007
##set1 BldgLoc CZ01

 ##set1 mChlrCap_fT DEFAULT   $ IP Tech: ChlrScrA-lt150-9.5EER
 ##set1 mChlrEIR_fPLR DEFAULT   $ IP Tech: ChlrScrA-lt150-9.5EER
 ##set1 mChlrEIR_fT DEFAULT   $ IP Tech: ChlrScrA-lt150-9.5EER
 ##set1 mChlrType Screw   $ IP Tech: ChlrScrA-lt150-9.5EER
 ##set1 mCondType Air   $ IP Tech: ChlrScrA-lt150-9.5EER
 ##set1 mSetupLdChlr FALSE   $ IP Tech: ChlrScrA-lt150-9.5EER
 ##set1 mCHW_FlowCtrl VarSec   $ IP Tech: ChwFlowCtrlVarSec
 ##set1 mHW_FlowCtrl VarSec   $ IP Tech: HwFlowCtrlVarSec
 ##set1 mBlrIsCond FALSE   $ IP Tech: WBlr-lt300-80p0AF

PARAMETER
 "AltFactor" = 1.00753   $ IP Non-Tech
 "BldgEconoFlag" = 1   $ IP Non-Tech
 "BlrPrimLp" = BlrPrimLoop   $ IP Non-Tech
 "Break_EWSF" = 1   $ IP Non-Tech
 "Break_LWSF" = 1.1   $ IP Non-Tech
 "CDD_DBHi10" = 65   $ IP Non-Tech
 "CDD_DBHi7" = 68   $ IP Non-Tech
 "CDD_DBHi8" = 66   $ IP Non-Tech
 "CDD_DBHi9" = 77   $ IP Non-Tech
 "CDD_DBRange10" = 17   $ IP Non-Tech
 "CDD_DBRange7" = 11   $ IP Non-Tech
 "CDD_DBRange8" = 10   $ IP Non-Tech
 "CDD_DBRange9" = 29   $ IP Non-Tech
 "CDD_Day10" = 15   $ IP Non-Tech
 "CDD_Day7" = 16   $ IP Non-Tech
 "CDD_Day8" = 20   $ IP Non-Tech
 "CDD_Day9" = 17   $ IP Non-Tech
 "CDD_HrHi10" = 12   $ IP Non-Tech
 "CDD_HrHi7" = 12   $ IP Non-Tech
 "CDD_HrHi8" = 13   $ IP Non-Tech
 "CDD_HrHi9" = 17   $ IP Non-Tech
 "CDD_HrLo10" = 6   $ IP Non-Tech
 "CDD_HrLo7" = 3   $ IP Non-Tech
 "CDD_HrLo8" = 8   $ IP Non-Tech
 "CDD_HrLo9" = 4   $ IP Non-Tech
 "CDD_WB10" = 57.53039551   $ IP Non-Tech
 "CDD_WB7" = 59.29250717   $ IP Non-Tech
 "CDD_WB8" = 60.75350189   $ IP Non-Tech
 "CDD_WB9" = 61.08643341   $ IP Non-Tech
 "CZ_Category" = Tem   $ IP Non-Tech
 "ChwDesignDT" = 12   $ IP Non-Tech
 "ChwPipeHead" = 62   $ IP Non-Tech
 "ChwRetDT" = 0.03   $ IP Non-Tech
 "ChwSupDT" = 0.05   $ IP Non-Tech
 "ChwT" = 44   $ IP Non-Tech
 "ChwVintEconoFlag" = 1   $ IP Non-Tech
 "CompRoomData_EWSF" = 5   $ IP Non-Tech
 "CompRoomData_LWSF" = 1.2   $ IP Non-Tech
 "Conference_EWSF" = 1   $ IP Non-Tech
 "Conference_LWSF" = 1.4   $ IP Non-Tech
 "CoolSetT" = 55   $ IP Non-Tech
 "CoolType" = ACH   $ IP Non-Tech
 "CopyRoom_EWSF" = 1.5   $ IP Non-Tech
 "CopyRoom_LWSF" = 1.3   $ IP Non-Tech
 "DesCoolT" = 75   $ IP Non-Tech
 "DesHeatT" = 73   $ IP Non-Tech
 "EconoEnthLimit" = 28   $ IP Non-Tech
 "EconoTempLimit" = 70   $ IP Non-Tech
 "Elevation" = 203   $ IP Non-Tech
 "HDD_CloudAmt1" = 0   $ IP Non-Tech
 "HDD_DBHi1" = 53   $ IP Non-Tech
 "HDD_DBRange1" = 20   $ IP Non-Tech
 "HDD_Day1" = 15   $ IP Non-Tech
 "HDD_HrHi1" = 14   $ IP Non-Tech
 "HDD_HrLo1" = 6   $ IP Non-Tech
 "HDD_WB1" = 42.3   $ IP Non-Tech
 "HDD_WindSpd1" = 12.7   $ IP Non-Tech
 "Hall_EWSF" = 0.2   $ IP Non-Tech
 "Hall_LWSF" = 0.6   $ IP Non-Tech
 "HeatSrc" = HOT-WATER   $ IP Non-Tech
 "HeatSrcTU" = HOT-WATER   $ IP Non-Tech
 "HeatType" = GasBlr   $ IP Non-Tech
 "HeatTypeTU" = HOT-WATER   $ IP Non-Tech
 "HwDesignDT" = 30   $ IP Non-Tech
 "HwPipeHead" = 40   $ IP Non-Tech
 "HwRetDT" = 0.3   $ IP Non-Tech
 "HwSupDT" = 0.5   $ IP Non-Tech
 "IndoorFanMode" = CONTINUOUS   $ IP Non-Tech
 "KT_TransferAir" = No   $ IP Non-Tech
 "Latitude" = 40.8   $ IP Non-Tech
 "LobbyWaiting_EWSF" = 0.5   $ IP Non-Tech
 "LobbyWaiting_LWSF" = 1.3   $ IP Non-Tech
 "Longitude" = 124.2   $ IP Non-Tech
 "MZFanMechEff" = 0.68   $ IP Non-Tech
 "MZHasRetFan" = TRUE   $ IP Non-Tech
 "MZ_RFanWPerCfm" = 0.33   $ IP Non-Tech
 "MZ_SFanWPerCfm" = 0.75   $ IP Non-Tech
 "MaxSupT_MZ" = 95   $ IP Non-Tech
 "MaxSupT_SZ" = 105   $ IP Non-Tech
 "MaxSupT_TU" = 105   $ IP Non-Tech
 "MechElecRoom_EWSF" = 0.2   $ IP Non-Tech
 "MechElecRoom_LWSF" = 0.7   $ IP Non-Tech
 "MinCfmPerSF" = 0.4   $ IP Non-Tech
 "MinSupT" = 55   $ IP Non-Tech
 "OccCoolT" = 76   $ IP Non-Tech
 "OccHeatT" = 72   $ IP Non-Tech
 "OfficeOpen_EWSF" = 1.5   $ IP Non-Tech
 "OfficeOpen_LWSF" = 1.2   $ IP Non-Tech
 "OfficeSmall_EWSF" = 1.5   $ IP Non-Tech
 "OfficeSmall_LWSF" = 1.3   $ IP Non-Tech
 "PkgDxVintEconoFlag" = 0   $ IP Non-Tech
 "ReheatDeltaT" = 40   $ IP Non-Tech
 "Restroom_EWSF" = 0.2   $ IP Non-Tech
 "Restroom_LWSF" = 0.6   $ IP Non-Tech
 "SZFanMechEff" = 0.54   $ IP Non-Tech
 "SZHasRetFan" = TRUE   $ IP Non-Tech
 "SZ_Is_2Spd" = FALSE   $ IP Non-Tech
 "SZ_SFanWPerCfm" = 0.46   $ IP Non-Tech
 "StorageSmlCond_EWSF" = 0.2   $ IP Non-Tech
 "StorageSmlCond_LWSF" = 0.6   $ IP Non-Tech
 "T24GlzTbl" = CZTbl   $ IP Non-Tech
 "TermUnitFanMechEff" = 1   $ IP Non-Tech
 "TermUnitFanMode" = INTERMITTENT   $ IP Non-Tech
 "TermUnitFanWPerCfm" = 0.175   $ IP Non-Tech
 "TwrSetpt" = 80   $ IP Non-Tech
 "UnocCoolT" = 86   $ IP Non-Tech
 "UnocHeatT" = 62   $ IP Non-Tech
 "VAVMinFlow" = 0.3   $ IP Non-Tech
 "WlhpVintEconoFlag" = 0   $ IP Non-Tech
 "EconoCtrl" = OA-TEMP   $ IP Tech: AirEcono-OATemp
 "MaxOAFrac" = 0.85   $ IP Tech: AirEcono-OATemp
 "UseEconoVintApplic" = FALSE   $ IP Tech: AirEcono-OATemp
 "ChlrCapRange" = lt150   $ IP Tech: ChlrScrA-lt150-9.5EER
 "ChlrEff" = 9.52   $ IP Tech: ChlrScrA-lt150-9.5EER
 "ChlrType" = Screw   $ IP Tech: ChlrScrA-lt150-9.5EER
 "ChlrVSD" = NO   $ IP Tech: ChlrScrA-lt150-9.5EER
 "CmpPerCkt" = NA   $ IP Tech: ChlrScrA-lt150-9.5EER
 "CondRelief" = FALSE   $ IP Tech: ChlrScrA-lt150-9.5EER
 "CondType" = Air   $ IP Tech: ChlrScrA-lt150-9.5EER
 "EffUnits" = EER   $ IP Tech: ChlrScrA-lt150-9.5EER
 "IPLV" = -99   $ IP Tech: ChlrScrA-lt150-9.5EER
 "CHW_FlowCtrl" = VarSec   $ IP Tech: ChwFlowCtrlVarSec
 "CHW_HdSensLoc" = AT-COILS   $ IP Tech: ChwFlowCtrlVarSec
 "CHW_HdSptCtrl" = FIXED   $ IP Tech: ChwFlowCtrlVarSec
 "CHWP_Encl" = Any   $ IP Tech: ChwPumpMtrEff-HI
 "CHWP_MotClass" = HI-EFF   $ IP Tech: ChwPumpMtrEff-HI
 "CHWP_MotHP" = Any   $ IP Tech: ChwPumpMtrEff-HI
 "CHWP_NEMA_DC" =    $ IP Tech: ChwPumpMtrEff-HI
 "CHWP_RPM" = Any   $ IP Tech: ChwPumpMtrEff-HI
 "CHWP_Volt" =    $ IP Tech: ChwPumpMtrEff-HI
 "CHW_MaxT" = 54   $ IP Tech: ChwTempCtrlReset
 "CHW_TempCtrl" = LOAD-RESET   $ IP Tech: ChwTempCtrlReset
 "DuctDT" = 1   $ IP Tech: ComDuctInsul-1
 "DuctAirLoss" = 0   $ IP Tech: ComDuctLeak-0
 "DuctLossOAFrac" = 0   $ IP Tech: ComDuctLeak-0
 "ComRoofInsCalc" = FromUo   $ IP Tech: ComRoofIns-WFrm-0.05
 "ComRoofInsR" = -999   $ IP Tech: ComRoofIns-WFrm-0.05
 "ComRoofUo" = 0.05   $ IP Tech: ComRoofIns-WFrm-0.05
 "ComEWInsCalc" = FromUo   $ IP Tech: ComWallIns-WFrm-0.08
 "ComEWInsR" = -999   $ IP Tech: ComWallIns-WFrm-0.08
 "ComEWUo" = 0.08   $ IP Tech: ComWallIns-WFrm-0.08
 "MotorClass" = HI-EFF   $ IP Tech: ExhFanMtr-High
 "HW_FlowCtrl" = VarSec   $ IP Tech: HwFlowCtrlVarSec
 "HW_HdSensLoc" = AT-COILS   $ IP Tech: HwFlowCtrlVarSec
 "HW_HdSptCtrl" = FIXED   $ IP Tech: HwFlowCtrlVarSec
 "HWP_Encl" = Any   $ IP Tech: HwPumpMtrEff-HI
 "HWP_MotClass" = HI-EFF   $ IP Tech: HwPumpMtrEff-HI
 "HWP_MotHP" = Any   $ IP Tech: HwPumpMtrEff-HI
 "HWP_NEMA_DC" = Any   $ IP Tech: HwPumpMtrEff-HI
 "HWP_RPM" = Any   $ IP Tech: HwPumpMtrEff-HI
 "HWP_Volt" = Any   $ IP Tech: HwPumpMtrEff-HI
 "HWResetOutsideHi" = 60   $ IP Tech: HwTempCtrlOAReset
 "HWResetOutsideLo" = 30   $ IP Tech: HwTempCtrlOAReset
 "HW_TempCtrl" = OA-RESET   $ IP Tech: HwTempCtrlOAReset
 "ComN_SHGC" = 0.47   $ IP Tech: NResWin-ComN-0.47-0.47
 "ComN_UFactor" = 0.47   $ IP Tech: NResWin-ComN-0.47-0.47
 "ComN_VisTrans" = 0.75   $ IP Tech: NResWin-ComN-0.47-0.47
 "ComN_WinCode" = G2633   $ IP Tech: NResWin-ComN-0.47-0.47
 "ComN_WinFrmFrac" = 0.17   $ IP Tech: NResWin-ComN-0.47-0.47
 "ComN_WinFrmU" = 0.3   $ IP Tech: NResWin-ComN-0.47-0.47
 "ComO_SHGC" = 0.43   $ IP Tech: NResWin-ComO-0.47-0.43
 "ComO_UFactor" = 0.47   $ IP Tech: NResWin-ComO-0.47-0.43
 "ComO_VisTrans" = 0.68   $ IP Tech: NResWin-ComO-0.47-0.43
 "ComO_WinCode" = G2663   $ IP Tech: NResWin-ComO-0.47-0.43
 "ComO_WinFrmFrac" = 0.17   $ IP Tech: NResWin-ComO-0.47-0.43
 "ComO_WinFrmU" = 0.3   $ IP Tech: NResWin-ComO-0.47-0.43
 "LtgMsrApplic" = ALL   $ IP Tech: NonResLtgRefPre
 "LtgSav_CFL" = 0   $ IP Tech: NonResLtgRefPre
 "LtgSav_EX" = 0   $ IP Tech: NonResLtgRefPre
 "LtgSav_HB" = 0   $ IP Tech: NonResLtgRefPre
 "LtgSav_LF" = 0   $ IP Tech: NonResLtgRefPre
 "LtgSav_SP" = 0   $ IP Tech: NonResLtgRefPre
 "SATempCtrl" = WARMEST   $ IP Tech: SATempCtrl-Warmest
 "FanEIR_fPLR" = "Variable Speed Drive FPLR"   $ IP Tech: VAVCtrl-VSD-AnyHP
 "Fan_Control" = VSD   $ IP Tech: VAVCtrl-VSD-AnyHP
 "Motor_Horsepower" = AnyHP   $ IP Tech: VAVCtrl-VSD-AnyHP
 "BlrCapRange" = lt300   $ IP Tech: WBlr-lt300-80p0AF
 "BlrDraftType" = FDr   $ IP Tech: WBlr-lt300-80p0AF
 "BlrEff" = 0.8   $ IP Tech: WBlr-lt300-80p0AF
 "BlrEffUnits" = AFUE   $ IP Tech: WBlr-lt300-80p0AF
 "BlrEt" = 0.805   $ IP Tech: WBlr-lt300-80p0AF
 "BlrFluid" = Wtr   $ IP Tech: WBlr-lt300-80p0AF
 "BlrIsCond" = FALSE   $ IP Tech: WBlr-lt300-80p0AF
 "BlrT" = 165   $ IP Tech: WBlr-lt300-80p0AF
 "AltAdjFactor" = 1.007532   $ Sizing
 "CAssFlo_L_Break_CZn" = 251.8955   $ Sizing
 "CAssFlo_L_CompDC_CZn" = 145.6358   $ Sizing
 "CAssFlo_L_Conf_CZn" = 175.3985   $ Sizing
 "CAssFlo_L_CopyRm_CZn" = 50.72986   $ Sizing
 "CAssFlo_L_Hall_EZn" = 89.03829   $ Sizing
 "CAssFlo_L_Hall_NZn" = 65.41669   $ Sizing
 "CAssFlo_L_Hall_SZn" = 107.6395   $ Sizing
 "CAssFlo_L_Hall_WZn" = 94.86587   $ Sizing
 "CAssFlo_L_LobWait_EZn" = 220.9168   $ Sizing
 "CAssFlo_L_LobWait_NZn" = 135.3474   $ Sizing
 "CAssFlo_L_LobWait_SZn" = 253.7409   $ Sizing
 "CAssFlo_L_LobWait_WZn" = 220.612   $ Sizing
 "CAssFlo_L_MechElec_CZn" = 65.93681   $ Sizing
 "CAssFlo_L_OfficeOpn_CZn" = 44.28072   $ Sizing
 "CAssFlo_L_OfficeOpn_EZn" = 460.2916   $ Sizing
 "CAssFlo_L_OfficeOpn_NZn" = 209.0631   $ Sizing
 "CAssFlo_L_OfficeOpn_SZn" = 484.2814   $ Sizing
 "CAssFlo_L_OfficeOpn_WZn" = 444.6718   $ Sizing
 "CAssFlo_L_OfficeSm_EZn" = 388.3354   $ Sizing
 "CAssFlo_L_OfficeSm_NZn" = 159.0962   $ Sizing
 "CAssFlo_L_OfficeSm_SZn" = 427.6518   $ Sizing
 "CAssFlo_L_OfficeSm_WZn" = 388.8408   $ Sizing
 "CAssFlo_L_Restrm_CZn" = 86.07105   $ Sizing
 "CAssFlo_L_StorSm_CZn" = 32.26278   $ Sizing
 "CAssFlo_L_StorSm_EZn" = 79.01006   $ Sizing
 "CAssFlo_L_StorSm_NZn" = 70.23548   $ Sizing
 "CAssFlo_L_StorSm_SZn" = 92.43391   $ Sizing
 "CAssFlo_L_StorSm_WZn" = 82.43145   $ Sizing
 "CAssFlo_T_Conf_CZn" = 187.6439   $ Sizing
 "CAssFlo_T_Hall_EZn" = 108.2299   $ Sizing
 "CAssFlo_T_Hall_NZn" = 61.37119   $ Sizing
 "CAssFlo_T_Hall_SZn" = 126.69   $ Sizing
 "CAssFlo_T_Hall_WZn" = 108.711   $ Sizing
 "CAssFlo_T_OfficeOpn_CZn" = 44.21901   $ Sizing
 "CAssFlo_T_OfficeOpn_EZn" = 475.74   $ Sizing
 "CAssFlo_T_OfficeOpn_NZn" = 246.2353   $ Sizing
 "CAssFlo_T_OfficeOpn_SZn" = 527.4771   $ Sizing
 "CAssFlo_T_OfficeOpn_WZn" = 459.4467   $ Sizing
 "CAssFlo_T_OfficeSm_EZn" = 414.4587   $ Sizing
 "CAssFlo_T_OfficeSm_NZn" = 192.3031   $ Sizing
 "CAssFlo_T_OfficeSm_SZn" = 468.0862   $ Sizing
 "CAssFlo_T_OfficeSm_WZn" = 401.9671   $ Sizing
 "CAssFlo_T_Restrm_CZn" = 86.07105   $ Sizing
 "CAssFlo_T_StorSm_EZn" = 99.72317   $ Sizing
 "CAssFlo_T_StorSm_NZn" = 66.86236   $ Sizing
 "CAssFlo_T_StorSm_SZn" = 116.5106   $ Sizing
 "CAssFlo_T_StorSm_WZn" = 102.6188   $ Sizing
 "CBF_Sys_L" = 0.04409632   $ Sizing
 "CBF_Sys_T" = 0.04347955   $ Sizing
 "CHRtFlo_L_Break_CZn" = 185.4956   $ Sizing
 "CHRtFlo_L_CompDC_CZn" = 43.69074   $ Sizing
 "CHRtFlo_L_Conf_CZn" = 143.3872   $ Sizing
 "CHRtFlo_L_CopyRm_CZn" = 50.72986   $ Sizing
 "CHRtFlo_L_Hall_EZn" = 61.00457   $ Sizing
 "CHRtFlo_L_Hall_NZn" = 65.41669   $ Sizing
 "CHRtFlo_L_Hall_SZn" = 39.94796   $ Sizing
 "CHRtFlo_L_Hall_WZn" = 60.3188   $ Sizing
 "CHRtFlo_L_LobWait_EZn" = 125.4478   $ Sizing
 "CHRtFlo_L_LobWait_NZn" = 135.3474   $ Sizing
 "CHRtFlo_L_LobWait_SZn" = 87.6974   $ Sizing
 "CHRtFlo_L_LobWait_WZn" = 124.0352   $ Sizing
 "CHRtFlo_L_MechElec_CZn" = 38.98483   $ Sizing
 "CHRtFlo_L_OfficeOpn_CZn" = 36.47734   $ Sizing
 "CHRtFlo_L_OfficeOpn_EZn" = 138.0875   $ Sizing
 "CHRtFlo_L_OfficeOpn_NZn" = 150.1607   $ Sizing
 "CHRtFlo_L_OfficeOpn_SZn" = 145.2844   $ Sizing
 "CHRtFlo_L_OfficeOpn_WZn" = 135.4515   $ Sizing
 "CHRtFlo_L_OfficeSm_EZn" = 131.2594   $ Sizing
 "CHRtFlo_L_OfficeSm_NZn" = 140.7029   $ Sizing
 "CHRtFlo_L_OfficeSm_SZn" = 128.2955   $ Sizing
 "CHRtFlo_L_OfficeSm_WZn" = 126.5627   $ Sizing
 "CHRtFlo_L_Restrm_CZn" = 53.87568   $ Sizing
 "CHRtFlo_L_StorSm_CZn" = 32.26278   $ Sizing
 "CHRtFlo_L_StorSm_EZn" = 64.99821   $ Sizing
 "CHRtFlo_L_StorSm_NZn" = 70.23548   $ Sizing
 "CHRtFlo_L_StorSm_SZn" = 43.48347   $ Sizing
 "CHRtFlo_L_StorSm_WZn" = 58.58107   $ Sizing
 "CHRtFlo_T_Conf_CZn" = 143.3872   $ Sizing
 "CHRtFlo_T_Hall_EZn" = 58.37804   $ Sizing
 "CHRtFlo_T_Hall_NZn" = 61.37119   $ Sizing
 "CHRtFlo_T_Hall_SZn" = 46.8997   $ Sizing
 "CHRtFlo_T_Hall_WZn" = 57.09878   $ Sizing
 "CHRtFlo_T_OfficeOpn_CZn" = 26.2284   $ Sizing
 "CHRtFlo_T_OfficeOpn_EZn" = 142.722   $ Sizing
 "CHRtFlo_T_OfficeOpn_NZn" = 142.8877   $ Sizing
 "CHRtFlo_T_OfficeOpn_SZn" = 158.2431   $ Sizing
 "CHRtFlo_T_OfficeOpn_WZn" = 137.834   $ Sizing
 "CHRtFlo_T_OfficeSm_EZn" = 127.7564   $ Sizing
 "CHRtFlo_T_OfficeSm_NZn" = 130.9805   $ Sizing
 "CHRtFlo_T_OfficeSm_SZn" = 140.4259   $ Sizing
 "CHRtFlo_T_OfficeSm_WZn" = 123.7652   $ Sizing
 "CHRtFlo_T_Restrm_CZn" = 83.92558   $ Sizing
 "CHRtFlo_T_StorSm_EZn" = 63.00893   $ Sizing
 "CHRtFlo_T_StorSm_NZn" = 66.86236   $ Sizing
 "CHRtFlo_T_StorSm_SZn" = 47.21378   $ Sizing
 "CHRtFlo_T_StorSm_WZn" = 61.39955   $ Sizing
 "CRtdFlo_Sys_L" = 3711.128   $ Sizing
 "CRtdFlo_Sys_T" = 3200.792   $ Sizing
 "CSupFlo_Sys_L" = 3711.128   $ Sizing
 "CSupFlo_Sys_T" = 3200.792   $ Sizing
 "Cap_Boiler1" = -0.1767165   $ Sizing
 "Cap_Chiller1" = 0.1883753   $ Sizing
 "ClCap_Sys_L" = 98668.3   $ Sizing
 "ClCap_Sys_T" = 86023.47   $ Sizing
 "HRtEDB_L_Break_CZn" = 55.67641   $ Sizing
 "HRtEDB_L_CompDC_CZn" = 55.67641   $ Sizing
 "HRtEDB_L_Conf_CZn" = 55.67641   $ Sizing
 "HRtEDB_L_CopyRm_CZn" = 55.67641   $ Sizing
 "HRtEDB_L_Hall_EZn" = 55.22078   $ Sizing
 "HRtEDB_L_Hall_NZn" = 55.22078   $ Sizing
 "HRtEDB_L_Hall_SZn" = 55.22078   $ Sizing
 "HRtEDB_L_Hall_WZn" = 55.22078   $ Sizing
 "HRtEDB_L_LobWait_EZn" = 55.22078   $ Sizing
 "HRtEDB_L_LobWait_NZn" = 55.22078   $ Sizing
 "HRtEDB_L_LobWait_SZn" = 55.22078   $ Sizing
 "HRtEDB_L_LobWait_WZn" = 55.22078   $ Sizing
 "HRtEDB_L_MechElec_CZn" = 55.22078   $ Sizing
 "HRtEDB_L_OfficeOpn_CZn" = 55.67641   $ Sizing
 "HRtEDB_L_OfficeOpn_EZn" = 55.67641   $ Sizing
 "HRtEDB_L_OfficeOpn_NZn" = 55.67641   $ Sizing
 "HRtEDB_L_OfficeOpn_SZn" = 55.67641   $ Sizing
 "HRtEDB_L_OfficeOpn_WZn" = 55.67641   $ Sizing
 "HRtEDB_L_OfficeSm_EZn" = 55.67641   $ Sizing
 "HRtEDB_L_OfficeSm_NZn" = 55.67641   $ Sizing
 "HRtEDB_L_OfficeSm_SZn" = 55.67641   $ Sizing
 "HRtEDB_L_OfficeSm_WZn" = 55.67641   $ Sizing
 "HRtEDB_L_Restrm_CZn" = 55.22078   $ Sizing
 "HRtEDB_L_StorSm_CZn" = 55.22078   $ Sizing
 "HRtEDB_L_StorSm_EZn" = 55.22078   $ Sizing
 "HRtEDB_L_StorSm_NZn" = 55.22078   $ Sizing
 "HRtEDB_L_StorSm_SZn" = 55.22078   $ Sizing
 "HRtEDB_L_StorSm_WZn" = 55.22078   $ Sizing
 "HRtEDB_T_Conf_CZn" = 55.3622   $ Sizing
 "HRtEDB_T_Hall_EZn" = 53.41007   $ Sizing
 "HRtEDB_T_Hall_NZn" = 53.41007   $ Sizing
 "HRtEDB_T_Hall_SZn" = 55.3622   $ Sizing
 "HRtEDB_T_Hall_WZn" = 53.41007   $ Sizing
 "HRtEDB_T_OfficeOpn_CZn" = 55.3622   $ Sizing
 "HRtEDB_T_OfficeOpn_EZn" = 55.3622   $ Sizing
 "HRtEDB_T_OfficeOpn_NZn" = 55.3622   $ Sizing
 "HRtEDB_T_OfficeOpn_SZn" = 55.3622   $ Sizing
 "HRtEDB_T_OfficeOpn_WZn" = 55.3622   $ Sizing
 "HRtEDB_T_OfficeSm_EZn" = 55.3622   $ Sizing
 "HRtEDB_T_OfficeSm_NZn" = 55.3622   $ Sizing
 "HRtEDB_T_OfficeSm_SZn" = 55.3622   $ Sizing
 "HRtEDB_T_OfficeSm_WZn" = 55.3622   $ Sizing
 "HRtEDB_T_Restrm_CZn" = 53.41007   $ Sizing
 "HRtEDB_T_StorSm_EZn" = 53.41007   $ Sizing
 "HRtEDB_T_StorSm_NZn" = 53.41007   $ Sizing
 "HRtEDB_T_StorSm_SZn" = 53.41007   $ Sizing
 "HRtEDB_T_StorSm_WZn" = 53.41007   $ Sizing
 "HWDT_Boiler1" = 34.17945   $ Sizing
 "HtCap_L_Break_CZn" = -7858.09   $ Sizing
 "HtCap_L_CompDC_CZn" = -1850.857   $ Sizing
 "HtCap_L_Conf_CZn" = -6074.266   $ Sizing
 "HtCap_L_CopyRm_CZn" = -2149.052   $ Sizing
 "HtCap_L_Hall_EZn" = -2614.869   $ Sizing
 "HtCap_L_Hall_NZn" = -2803.988   $ Sizing
 "HtCap_L_Hall_SZn" = -1712.309   $ Sizing
 "HtCap_L_Hall_WZn" = -2585.474   $ Sizing
 "HtCap_L_LobWait_EZn" = -5377.132   $ Sizing
 "HtCap_L_LobWait_NZn" = -5801.464   $ Sizing
 "HtCap_L_LobWait_SZn" = -3759.017   $ Sizing
 "HtCap_L_LobWait_WZn" = -5316.583   $ Sizing
 "HtCap_L_MechElec_CZn" = -1671.026   $ Sizing
 "HtCap_L_OfficeOpn_CZn" = -1545.278   $ Sizing
 "HtCap_L_OfficeOpn_EZn" = -5849.755   $ Sizing
 "HtCap_L_OfficeOpn_NZn" = -6361.209   $ Sizing
 "HtCap_L_OfficeOpn_SZn" = -6154.636   $ Sizing
 "HtCap_L_OfficeOpn_WZn" = -5738.088   $ Sizing
 "HtCap_L_OfficeSm_EZn" = -5560.5   $ Sizing
 "HtCap_L_OfficeSm_NZn" = -5960.55   $ Sizing
 "HtCap_L_OfficeSm_SZn" = -5434.942   $ Sizing
 "HtCap_L_OfficeSm_WZn" = -5361.534   $ Sizing
 "HtCap_L_Restrm_CZn" = -2309.3   $ Sizing
 "HtCap_L_StorSm_CZn" = -1382.896   $ Sizing
 "HtCap_L_StorSm_EZn" = -2786.051   $ Sizing
 "HtCap_L_StorSm_NZn" = -3010.538   $ Sizing
 "HtCap_L_StorSm_SZn" = -1863.854   $ Sizing
 "HtCap_L_StorSm_WZn" = -2510.99   $ Sizing
 "HtCap_T_Conf_CZn" = -6122.809   $ Sizing
 "HtCap_T_Hall_EZn" = -2616.101   $ Sizing
 "HtCap_T_Hall_NZn" = -2750.234   $ Sizing
 "HtCap_T_Hall_SZn" = -2002.674   $ Sizing
 "HtCap_T_Hall_WZn" = -2558.774   $ Sizing
 "HtCap_T_OfficeOpn_CZn" = -1119.985   $ Sizing
 "HtCap_T_OfficeOpn_EZn" = -6094.402   $ Sizing
 "HtCap_T_OfficeOpn_NZn" = -6101.479   $ Sizing
 "HtCap_T_OfficeOpn_SZn" = -6757.173   $ Sizing
 "HtCap_T_OfficeOpn_WZn" = -5885.679   $ Sizing
 "HtCap_T_OfficeSm_EZn" = -5455.351   $ Sizing
 "HtCap_T_OfficeSm_NZn" = -5593.023   $ Sizing
 "HtCap_T_OfficeSm_SZn" = -5996.354   $ Sizing
 "HtCap_T_OfficeSm_WZn" = -5284.922   $ Sizing
 "HtCap_T_Restrm_CZn" = -3760.966   $ Sizing
 "HtCap_T_StorSm_EZn" = -2823.625   $ Sizing
 "HtCap_T_StorSm_NZn" = -2996.31   $ Sizing
 "HtCap_T_StorSm_SZn" = -2115.796   $ Sizing
 "HtCap_T_StorSm_WZn" = -2751.505   $ Sizing
 "LpFlo_BlrPrimLoop" = 10.33225   $ Sizing
 "LpFlo_BlrPrimLoop" = 10.33225   $ Sizing
 "LpFlo_ChlrPrimLoop" = 27.92979   $ Sizing
 "LpFlo_ChlrPrimLoop" = 27.92979   $ Sizing
 "LpFlo_CircLp_Chw_All" = 27.92979   $ Sizing
 "LpFlo_CircLp_Chw_All" = 27.92979   $ Sizing
 "LpFlo_CircLp_Hw_All" = 10.33225   $ Sizing
 "LpFlo_CircLp_Hw_All" = 10.33225   $ Sizing
 "RtChwFlo_Chiller1" = 1.85945   $ Sizing
 "RtdEDB_Sys_L" = 71.71571   $ Sizing
 "RtdEDB_Sys_T" = 76.41135   $ Sizing
 "RtdEWB_Sys_L" = 61.69432   $ Sizing
 "RtdEWB_Sys_T" = 61.60112   $ Sizing
 "SUtime_Boiler1" = 0.083   $ Sizing
..

##include Templates\OfS_CH_MZ.inp
END ..
COMPUTE ..
STOP ..
