INPUT ..

##fileprefix C:\Users\jglasskatz\MASControl3\
##set1 IsSizing FALSE
##set1 CoolType DX
##set1 HeatType FURNACE
##set1 EU_HrRepVar 0
##set1 BldgVint 1985
##set1 BldgLoc CZ07

 ##set1 mBFMult 1   $ IP Tech: RefgChg-NRes-Std

PARAMETER
 "AltFactor" = 1.00051   $ IP Non-Tech
 "BF_fFlow" = SpltAC1Sp_BF_fFlow   $ Msr (Var)TechID: PreNResSplitAC-lt45-PENo
 "BF_fT" = SpltAC1Sp_BF_fT   $ Msr (Var)TechID: PreNResSplitAC-lt45-PENo
 "BldgEconoFlag" = 1   $ IP Non-Tech
 "Break_EWSF" = 1   $ IP Non-Tech
 "Break_LWSF" = 1.1   $ IP Non-Tech
 "CDD_DBHi10" = 80   $ IP Non-Tech
 "CDD_DBHi7" = 75   $ IP Non-Tech
 "CDD_DBHi8" = 75   $ IP Non-Tech
 "CDD_DBHi9" = 80   $ IP Non-Tech
 "CDD_DBRange10" = 20   $ IP Non-Tech
 "CDD_DBRange7" = 8   $ IP Non-Tech
 "CDD_DBRange8" = 6   $ IP Non-Tech
 "CDD_DBRange9" = 12   $ IP Non-Tech
 "CDD_Day10" = 15   $ IP Non-Tech
 "CDD_Day7" = 16   $ IP Non-Tech
 "CDD_Day8" = 20   $ IP Non-Tech
 "CDD_Day9" = 17   $ IP Non-Tech
 "CDD_HrHi10" = 11   $ IP Non-Tech
 "CDD_HrHi7" = 14   $ IP Non-Tech
 "CDD_HrHi8" = 11   $ IP Non-Tech
 "CDD_HrHi9" = 11   $ IP Non-Tech
 "CDD_HrLo10" = 4   $ IP Non-Tech
 "CDD_HrLo7" = 6   $ IP Non-Tech
 "CDD_HrLo8" = 1   $ IP Non-Tech
 "CDD_HrLo9" = 5   $ IP Non-Tech
 "CDD_WB10" = 64.57550049   $ IP Non-Tech
 "CDD_WB7" = 66.79747772   $ IP Non-Tech
 "CDD_WB8" = 69.55462646   $ IP Non-Tech
 "CDD_WB9" = 68.8309021   $ IP Non-Tech
 "CEIR_fPLR_Hot" = SpltAC1Sp_CEIR_fPLR_Hot   $ Msr (Var)TechID: PreNResSplitAC-lt45-PENo
 "CEIR_fPLR_Mod" = SpltAC1Sp_CEIR_fPLR_Mod   $ Msr (Var)TechID: PreNResSplitAC-lt45-PENo
 "CEIR_fPLR_Tem" = SpltAC1Sp_CEIR_fPLR_Tem   $ Msr (Var)TechID: PreNResSplitAC-lt45-PENo
 "CLoss_fPLR_Hot" = SpltAC1Sp_CLoss_fPLR_Hot   $ Msr (Var)TechID: PreNResSplitAC-lt45-PENo
 "CLoss_fPLR_Mod" = SpltAC1Sp_CLoss_fPLR_Mod   $ Msr (Var)TechID: PreNResSplitAC-lt45-PENo
 "CLoss_fPLR_Tem" = SpltAC1Sp_CLoss_fPLR_Tem   $ Msr (Var)TechID: PreNResSplitAC-lt45-PENo
 "COP47" = 0   $ Msr (Var)TechID: PreNResSplitAC-lt45-PENo
 "CZ_Category" = Tem   $ IP Non-Tech
 "CapRange" = Any   $ Msr (Var)TechID: PreNResSplitAC-lt45-PENo
 "CfmPerBtuh" = 0.0321   $ Msr (Var)TechID: PreNResSplitAC-lt45-PENo
 "ChwVintEconoFlag" = 1   $ IP Non-Tech
 "ClCap_fT" = SpltAC1Sp_ClCap_fT   $ Msr (Var)TechID: PreNResSplitAC-lt45-PENo
 "ClSH_fT" = SpltAC1Sp_ClSH_fT   $ Msr (Var)TechID: PreNResSplitAC-lt45-PENo
 "CoilBF" = 0.12   $ Msr (Var)TechID: PreNResSplitAC-lt45-PENo
 "CompRoomData_EWSF" = 5.5   $ IP Non-Tech
 "CompRoomData_LWSF" = 1.2   $ IP Non-Tech
 "CondWPerBtuh" = 0   $ Msr (Var)TechID: PreNResSplitAC-lt45-PENo
 "Conference_EWSF" = 1.1   $ IP Non-Tech
 "Conference_LWSF" = 1.4   $ IP Non-Tech
 "CoolSensCap" = 0.744   $ Msr (Var)TechID: PreNResSplitAC-lt45-PENo
 "CoolSetT" = 45   $ IP Non-Tech
 "CoolType" = DX   $ IP Non-Tech
 "CoolingEIR" = 0.29437   $ Msr (Var)TechID: PreNResSplitAC-lt45-PENo
 "CopyRoom_EWSF" = 1.65   $ IP Non-Tech
 "CopyRoom_LWSF" = 1.3   $ IP Non-Tech
 "CrnkEIR" = 0.0029437   $ Msr (Var)TechID: PreNResSplitAC-lt45-PENo
 "CrnkMaxT" = 50   $ Msr (Var)TechID: PreNResSplitAC-lt45-PENo
 "DXType" = SplitSEER   $ Msr (Var)TechID: PreNResSplitAC-lt45-PENo
 "DesCoolT" = 75   $ IP Non-Tech
 "DesHeatT" = 73   $ IP Non-Tech
 "EER" = 9.799295775   $ Msr (Var)TechID: PreNResSplitAC-lt45-PENo
 "EIR_fT" = SpltAC1Sp_EIR_fT   $ Msr (Var)TechID: PreNResSplitAC-lt45-PENo
 "EconoCtrl" = FIXED   $ Msr (Multi)TechID: PreNResSplitAC-lt45-PENo
 "EconoEnthLimit" = 28   $ IP Non-Tech
 "EconoTempLimit" = 69   $ IP Non-Tech
 "Elevation" = 13   $ IP Non-Tech
 "FanEirPlr" = TwoSpeedFan   $ Msr (Var)TechID: PreNResSplitAC-lt45-PENo
 "FanWPerCfm" = 0.365   $ Msr (Var)TechID: PreNResSplitAC-lt45-PENo
 "HDD_CloudAmt1" = 0   $ IP Non-Tech
 "HDD_DBHi1" = 57   $ IP Non-Tech
 "HDD_DBRange1" = 13   $ IP Non-Tech
 "HDD_Day1" = 15   $ IP Non-Tech
 "HDD_HrHi1" = 13   $ IP Non-Tech
 "HDD_HrLo1" = 5   $ IP Non-Tech
 "HDD_WB1" = 43.6   $ IP Non-Tech
 "HDD_WindSpd1" = 11.5   $ IP Non-Tech
 "HIR_fT" = 0   $ Msr (Var)TechID: PreNResSplitAC-lt45-PENo
 "HSPF" = 0   $ Msr (Var)TechID: PreNResSplitAC-lt45-PENo
 "Hall_EWSF" = 0.22   $ IP Non-Tech
 "Hall_LWSF" = 0.6   $ IP Non-Tech
 "HeatSrc" = FURNACE   $ IP Non-Tech
 "HeatSrcTU" = HEAT-PUMP   $ IP Non-Tech
 "HeatType" = GasFurn   $ IP Non-Tech
 "HeatTypeTU" = HEAT-PUMP   $ IP Non-Tech
 "HtCap_fT" = 0   $ Msr (Var)TechID: PreNResSplitAC-lt45-PENo
 "HtCoolCapRatio" = 0   $ Msr (Var)TechID: PreNResSplitAC-lt45-PENo
 "HtgEIR" = 0   $ Msr (Var)TechID: PreNResSplitAC-lt45-PENo
 "IndoorFanMode" = CONTINUOUS   $ IP Non-Tech
 "KT_TransferAir" = No   $ IP Non-Tech
 "Latitude" = 32.7   $ IP Non-Tech
 "LobbyWaiting_EWSF" = 0.525   $ IP Non-Tech
 "LobbyWaiting_LWSF" = 1.3   $ IP Non-Tech
 "Longitude" = 117.2   $ IP Non-Tech
 "LowSpdCapRatio" = 1   $ Msr (Var)TechID: PreNResSplitAC-lt45-PENo
 "LowSpdCfmRatio" = 1   $ Msr (Var)TechID: PreNResSplitAC-lt45-PENo
 "MZFanMechEff" = 0.58   $ IP Non-Tech
 "MZHasRetFan" = FALSE   $ IP Non-Tech
 "MZ_RFanWPerCfm" = 0.33   $ IP Non-Tech
 "MZ_SFanWPerCfm" = 0.75   $ IP Non-Tech
 "MZ_SupFanStatic" = 2.25   $ IP Non-Tech
 "MaxOAFrac" = 1   $ Msr (Multi)TechID: PreNResSplitAC-lt45-PENo
 "MaxSupT_MZ" = 100   $ IP Non-Tech
 "MaxSupT_SZ" = 100   $ IP Non-Tech
 "MaxSupT_TU" = 90   $ IP Non-Tech
 "MechElecRoom_EWSF" = 0.22   $ IP Non-Tech
 "MechElecRoom_LWSF" = 0.7   $ IP Non-Tech
 "MinCfmPerSF" = 0.4   $ IP Non-Tech
 "MinSupT" = 55   $ IP Non-Tech
 "NumStages" = 1   $ Msr (Var)TechID: PreNResSplitAC-lt45-PENo
 "OccCoolT" = 76   $ IP Non-Tech
 "OccHeatT" = 72   $ IP Non-Tech
 "OfficeOpen_EWSF" = 1.65   $ IP Non-Tech
 "OfficeOpen_LWSF" = 1.2   $ IP Non-Tech
 "OfficeSmall_EWSF" = 1.65   $ IP Non-Tech
 "OfficeSmall_LWSF" = 1.3   $ IP Non-Tech
 "PkgDxVintEconoFlag" = 0   $ IP Non-Tech
 "Restroom_EWSF" = 0.22   $ IP Non-Tech
 "Restroom_LWSF" = 0.6   $ IP Non-Tech
 "SEER" = 11.5   $ Msr (Var)TechID: PreNResSplitAC-lt45-PENo
 "SZFanMechEff" = 0.58   $ IP Non-Tech
 "SZHasRetFan" = FALSE   $ IP Non-Tech
 "SZ_Is_2Spd" = FALSE   $ IP Non-Tech
 "SZ_SFanWPerCfm" = 0.46   $ IP Non-Tech
 "SZ_SupFanStatic" = 0.75   $ IP Non-Tech
 "Sector" = Any   $ Msr (Var)TechID: PreNResSplitAC-lt45-PENo
 "StorageSmlCond_EWSF" = 0.22   $ IP Non-Tech
 "StorageSmlCond_LWSF" = 0.6   $ IP Non-Tech
 "SubType" = AC   $ Msr (Var)TechID: PreNResSplitAC-lt45-PENo
 "T24GlzTbl" = CZTbl   $ IP Non-Tech
 "TermUnitFanMechEff" = 1   $ IP Non-Tech
 "TermUnitFanMode" = INTERMITTENT   $ IP Non-Tech
 "TotCoolCap" = 34895   $ Msr (Var)TechID: PreNResSplitAC-lt45-PENo
 "TwrSetpt" = 80   $ IP Non-Tech
 "UnocCoolT" = 86   $ IP Non-Tech
 "UnocHeatT" = 62   $ IP Non-Tech
 "UseEconoVintApplic" = FALSE   $ Msr (Multi)TechID: PreNResSplitAC-lt45-PENo
 "WlhpVintEconoFlag" = 0   $ IP Non-Tech
 "DuctDT" = 1   $ IP Tech: ComDuctInsul-1
 "DuctAirLoss" = 0   $ IP Tech: ComDuctLeak-0
 "DuctLossOAFrac" = 0   $ IP Tech: ComDuctLeak-0
 "ComRoofInsCalc" = FromUo   $ IP Tech: ComRoofIns-WFrm-0.07
 "ComRoofInsR" = -999   $ IP Tech: ComRoofIns-WFrm-0.07
 "ComRoofUo" = 0.07   $ IP Tech: ComRoofIns-WFrm-0.07
 "ComEWInsCalc" = FromUo   $ IP Tech: ComWallIns-WFrm-0.09
 "ComEWInsR" = -999   $ IP Tech: ComWallIns-WFrm-0.09
 "ComEWUo" = 0.09   $ IP Tech: ComWallIns-WFrm-0.09
 "ComN_SHGC" = 0.82   $ IP Tech: NResWin-ComN-1.23-0.82
 "ComN_UFactor" = 1.23   $ IP Tech: NResWin-ComN-1.23-0.82
 "ComN_VisTrans" = 0.9   $ IP Tech: NResWin-ComN-1.23-0.82
 "ComN_WinCode" = G1000   $ IP Tech: NResWin-ComN-1.23-0.82
 "ComN_WinFrmFrac" = 0.17   $ IP Tech: NResWin-ComN-1.23-0.82
 "ComN_WinFrmU" = 1   $ IP Tech: NResWin-ComN-1.23-0.82
 "ComO_SHGC" = 0.82   $ IP Tech: NResWin-ComO-1.23-0.82
 "ComO_UFactor" = 1.23   $ IP Tech: NResWin-ComO-1.23-0.82
 "ComO_VisTrans" = 0.9   $ IP Tech: NResWin-ComO-1.23-0.82
 "ComO_WinCode" = G1000   $ IP Tech: NResWin-ComO-1.23-0.82
 "ComO_WinFrmFrac" = 0.17   $ IP Tech: NResWin-ComO-1.23-0.82
 "ComO_WinFrmU" = 1   $ IP Tech: NResWin-ComO-1.23-0.82
 "LtgMsrApplic" = ALL   $ IP Tech: NonResLtgRefPre
 "LtgSav_CFL" = 0   $ IP Tech: NonResLtgRefPre
 "LtgSav_EX" = 0   $ IP Tech: NonResLtgRefPre
 "LtgSav_HB" = 0   $ IP Tech: NonResLtgRefPre
 "LtgSav_LF" = 0   $ IP Tech: NonResLtgRefPre
 "LtgSav_SP" = 0   $ IP Tech: NonResLtgRefPre
 "CEIR_fPLR" = PSZ65to135_CEIR_fPLR   $ IP Tech: PkgAC1SpH-65to135-E10
 "CLoss_fPLR" = PSZ65to135_CLoss_fPLR   $ IP Tech: PkgAC1SpH-65to135-E10
 "COP" = -1   $ IP Tech: PkgAC1SpH-65to135-E10
 "HtgFuel" = Gas   $ IP Tech: PkgAC1SpH-65to135-E10
 "IEER" = 11.87   $ IP Tech: PkgAC1SpH-65to135-E10
 "NominalCap" = 15   $ IP Tech: PkgAC1SpH-65to135-E10
 "RatedEER" = 10   $ IP Tech: PkgAC1SpH-65to135-E10
 "RatedSupMtrClass" = HiEff   $ IP Tech: PkgAC1SpH-65to135-E10
 "SizeRange" = 65to135   $ IP Tech: PkgAC1SpH-65to135-E10
 "SupMotEff" = 0.84   $ IP Tech: PkgAC1SpH-65to135-E10
 "Tier" = 0   $ IP Tech: PkgAC1SpH-65to135-E10
 "FanPwrMult" = 1   $ IP Tech: PkgFurn-0.80AFUE
 "FurnAFUE" = 0.8   $ IP Tech: PkgFurn-0.80AFUE
 "FurnEt" = 0.82   $ IP Tech: PkgFurn-0.80AFUE
 "FurnaceAuxKW" = 0.1   $ IP Tech: PkgFurn-0.80AFUE
 "HIR_fPLR" = Furnace-HIR-fPLR   $ IP Tech: PkgFurn-0.80AFUE
 "VSM" = FALSE   $ IP Tech: PkgFurn-0.80AFUE
 "BFMult" = 1   $ IP Tech: RefgChg-NRes-Std
 "CoolEirMult" = 1   $ IP Tech: RefgChg-NRes-Std
 "SensCoolCapMult" = 1   $ IP Tech: RefgChg-NRes-Std
 "TotCoolCapMult" = 1   $ IP Tech: RefgChg-NRes-Std
 "AltAdjFactor" = 1.000512   $ Sizing
 "CAssFlo_L_Break_CZn" = 314.6584   $ Sizing
 "CAssFlo_L_CompDC_CZn" = 184.7551   $ Sizing
 "CAssFlo_L_Conf_CZn" = 233.7554   $ Sizing
 "CAssFlo_L_CopyRm_CZn" = 87.25253   $ Sizing
 "CAssFlo_L_Hall_EZn" = 183.4331   $ Sizing
 "CAssFlo_L_Hall_NZn" = 49.93853   $ Sizing
 "CAssFlo_L_Hall_SZn" = 201.5877   $ Sizing
 "CAssFlo_L_Hall_WZn" = 186.4336   $ Sizing
 "CAssFlo_L_LobWait_EZn" = 424.1498   $ Sizing
 "CAssFlo_L_LobWait_NZn" = 124.5666   $ Sizing
 "CAssFlo_L_LobWait_SZn" = 461.341   $ Sizing
 "CAssFlo_L_LobWait_WZn" = 432.0163   $ Sizing
 "CAssFlo_L_MechElec_CZn" = 88.23897   $ Sizing
 "CAssFlo_L_OfficeOpn_CZn" = 80.11961   $ Sizing
 "CAssFlo_L_OfficeOpn_EZn" = 792.3516   $ Sizing
 "CAssFlo_L_OfficeOpn_NZn" = 332.182   $ Sizing
 "CAssFlo_L_OfficeOpn_SZn" = 797.1937   $ Sizing
 "CAssFlo_L_OfficeOpn_WZn" = 793.8923   $ Sizing
 "CAssFlo_L_OfficeSm_EZn" = 690.9926   $ Sizing
 "CAssFlo_L_OfficeSm_NZn" = 258.0968   $ Sizing
 "CAssFlo_L_OfficeSm_SZn" = 712.5474   $ Sizing
 "CAssFlo_L_OfficeSm_WZn" = 704.3434   $ Sizing
 "CAssFlo_L_Restrm_CZn" = 87.59482   $ Sizing
 "CAssFlo_L_StorSm_CZn" = 38.65169   $ Sizing
 "CAssFlo_L_StorSm_EZn" = 178.9419   $ Sizing
 "CAssFlo_L_StorSm_NZn" = 58.81949   $ Sizing
 "CAssFlo_L_StorSm_SZn" = 193.7869   $ Sizing
 "CAssFlo_L_StorSm_WZn" = 170.7453   $ Sizing
 "CAssFlo_T_Conf_CZn" = 226.0697   $ Sizing
 "CAssFlo_T_Hall_EZn" = 194.5057   $ Sizing
 "CAssFlo_T_Hall_NZn" = 58.71428   $ Sizing
 "CAssFlo_T_Hall_SZn" = 225.4466   $ Sizing
 "CAssFlo_T_Hall_WZn" = 203.4554   $ Sizing
 "CAssFlo_T_OfficeOpn_CZn" = 67.97688   $ Sizing
 "CAssFlo_T_OfficeOpn_EZn" = 769.5506   $ Sizing
 "CAssFlo_T_OfficeOpn_NZn" = 326.9545   $ Sizing
 "CAssFlo_T_OfficeOpn_SZn" = 834.1118   $ Sizing
 "CAssFlo_T_OfficeOpn_WZn" = 780.4819   $ Sizing
 "CAssFlo_T_OfficeSm_EZn" = 679.856   $ Sizing
 "CAssFlo_T_OfficeSm_NZn" = 260.5446   $ Sizing
 "CAssFlo_T_OfficeSm_SZn" = 750.338   $ Sizing
 "CAssFlo_T_OfficeSm_WZn" = 701.0737   $ Sizing
 "CAssFlo_T_Restrm_CZn" = 127.9632   $ Sizing
 "CAssFlo_T_StorSm_EZn" = 189.1368   $ Sizing
 "CAssFlo_T_StorSm_NZn" = 62.40965   $ Sizing
 "CAssFlo_T_StorSm_SZn" = 218.2751   $ Sizing
 "CAssFlo_T_StorSm_WZn" = 197.8198   $ Sizing
 "CHRtFlo_Sys_L_Break_C" = 314.6584   $ Sizing
 "CHRtFlo_Sys_L_CompDC_C" = 184.7551   $ Sizing
 "CHRtFlo_Sys_L_Conf_C" = 233.7554   $ Sizing
 "CHRtFlo_Sys_L_CopyRm_C" = 87.25253   $ Sizing
 "CHRtFlo_Sys_L_Hall_E" = 183.4331   $ Sizing
 "CHRtFlo_Sys_L_Hall_N" = 49.93853   $ Sizing
 "CHRtFlo_Sys_L_Hall_S" = 201.5877   $ Sizing
 "CHRtFlo_Sys_L_Hall_W" = 186.4336   $ Sizing
 "CHRtFlo_Sys_L_LobWait_E" = 424.1498   $ Sizing
 "CHRtFlo_Sys_L_LobWait_N" = 124.5666   $ Sizing
 "CHRtFlo_Sys_L_LobWait_S" = 461.341   $ Sizing
 "CHRtFlo_Sys_L_LobWait_W" = 432.0163   $ Sizing
 "CHRtFlo_Sys_L_MechElec_C" = 88.23897   $ Sizing
 "CHRtFlo_Sys_L_OfficeOpn_C" = 80.11961   $ Sizing
 "CHRtFlo_Sys_L_OfficeOpn_E" = 792.3516   $ Sizing
 "CHRtFlo_Sys_L_OfficeOpn_N" = 332.182   $ Sizing
 "CHRtFlo_Sys_L_OfficeOpn_S" = 797.1937   $ Sizing
 "CHRtFlo_Sys_L_OfficeOpn_W" = 793.8923   $ Sizing
 "CHRtFlo_Sys_L_OfficeSm_E" = 690.9926   $ Sizing
 "CHRtFlo_Sys_L_OfficeSm_N" = 258.0968   $ Sizing
 "CHRtFlo_Sys_L_OfficeSm_S" = 712.5474   $ Sizing
 "CHRtFlo_Sys_L_OfficeSm_W" = 704.3434   $ Sizing
 "CHRtFlo_Sys_L_Restrm_C" = 87.59482   $ Sizing
 "CHRtFlo_Sys_L_StorSm_C" = 38.65169   $ Sizing
 "CHRtFlo_Sys_L_StorSm_E" = 178.9419   $ Sizing
 "CHRtFlo_Sys_L_StorSm_N" = 58.81949   $ Sizing
 "CHRtFlo_Sys_L_StorSm_S" = 193.7869   $ Sizing
 "CHRtFlo_Sys_L_StorSm_W" = 170.7453   $ Sizing
 "CHRtFlo_Sys_T_Conf_C" = 226.0697   $ Sizing
 "CHRtFlo_Sys_T_Hall_E" = 194.5057   $ Sizing
 "CHRtFlo_Sys_T_Hall_N" = 58.71428   $ Sizing
 "CHRtFlo_Sys_T_Hall_S" = 225.4466   $ Sizing
 "CHRtFlo_Sys_T_Hall_W" = 203.4554   $ Sizing
 "CHRtFlo_Sys_T_OfficeOpn_C" = 67.97688   $ Sizing
 "CHRtFlo_Sys_T_OfficeOpn_E" = 769.5506   $ Sizing
 "CHRtFlo_Sys_T_OfficeOpn_N" = 326.9545   $ Sizing
 "CHRtFlo_Sys_T_OfficeOpn_S" = 834.1118   $ Sizing
 "CHRtFlo_Sys_T_OfficeOpn_W" = 780.4819   $ Sizing
 "CHRtFlo_Sys_T_OfficeSm_E" = 679.856   $ Sizing
 "CHRtFlo_Sys_T_OfficeSm_N" = 260.5446   $ Sizing
 "CHRtFlo_Sys_T_OfficeSm_S" = 750.338   $ Sizing
 "CHRtFlo_Sys_T_OfficeSm_W" = 701.0737   $ Sizing
 "CHRtFlo_Sys_T_Restrm_C" = 127.9632   $ Sizing
 "CHRtFlo_Sys_T_StorSm_E" = 189.1368   $ Sizing
 "CHRtFlo_Sys_T_StorSm_N" = 62.40965   $ Sizing
 "CHRtFlo_Sys_T_StorSm_S" = 218.2751   $ Sizing
 "CHRtFlo_Sys_T_StorSm_W" = 197.8198   $ Sizing
 "CRtdFlo_Sys_L_Break_C" = 314.6584   $ Sizing
 "CRtdFlo_Sys_L_CompDC_C" = 184.7551   $ Sizing
 "CRtdFlo_Sys_L_Conf_C" = 233.7554   $ Sizing
 "CRtdFlo_Sys_L_CopyRm_C" = 87.25253   $ Sizing
 "CRtdFlo_Sys_L_Hall_E" = 183.4331   $ Sizing
 "CRtdFlo_Sys_L_Hall_N" = 49.93853   $ Sizing
 "CRtdFlo_Sys_L_Hall_S" = 201.5877   $ Sizing
 "CRtdFlo_Sys_L_Hall_W" = 186.4336   $ Sizing
 "CRtdFlo_Sys_L_LobWait_E" = 424.1498   $ Sizing
 "CRtdFlo_Sys_L_LobWait_N" = 124.5666   $ Sizing
 "CRtdFlo_Sys_L_LobWait_S" = 461.341   $ Sizing
 "CRtdFlo_Sys_L_LobWait_W" = 432.0163   $ Sizing
 "CRtdFlo_Sys_L_MechElec_C" = 88.23897   $ Sizing
 "CRtdFlo_Sys_L_OfficeOpn_C" = 80.11961   $ Sizing
 "CRtdFlo_Sys_L_OfficeOpn_E" = 792.3516   $ Sizing
 "CRtdFlo_Sys_L_OfficeOpn_N" = 332.182   $ Sizing
 "CRtdFlo_Sys_L_OfficeOpn_S" = 797.1937   $ Sizing
 "CRtdFlo_Sys_L_OfficeOpn_W" = 793.8923   $ Sizing
 "CRtdFlo_Sys_L_OfficeSm_E" = 690.9926   $ Sizing
 "CRtdFlo_Sys_L_OfficeSm_N" = 258.0968   $ Sizing
 "CRtdFlo_Sys_L_OfficeSm_S" = 712.5474   $ Sizing
 "CRtdFlo_Sys_L_OfficeSm_W" = 704.3434   $ Sizing
 "CRtdFlo_Sys_L_Restrm_C" = 87.59482   $ Sizing
 "CRtdFlo_Sys_L_StorSm_C" = 38.65169   $ Sizing
 "CRtdFlo_Sys_L_StorSm_E" = 178.9419   $ Sizing
 "CRtdFlo_Sys_L_StorSm_N" = 58.81949   $ Sizing
 "CRtdFlo_Sys_L_StorSm_S" = 193.7869   $ Sizing
 "CRtdFlo_Sys_L_StorSm_W" = 170.7453   $ Sizing
 "CRtdFlo_Sys_T_Conf_C" = 226.0697   $ Sizing
 "CRtdFlo_Sys_T_Hall_E" = 194.5057   $ Sizing
 "CRtdFlo_Sys_T_Hall_N" = 58.71428   $ Sizing
 "CRtdFlo_Sys_T_Hall_S" = 225.4466   $ Sizing
 "CRtdFlo_Sys_T_Hall_W" = 203.4554   $ Sizing
 "CRtdFlo_Sys_T_OfficeOpn_C" = 67.97688   $ Sizing
 "CRtdFlo_Sys_T_OfficeOpn_E" = 769.5506   $ Sizing
 "CRtdFlo_Sys_T_OfficeOpn_N" = 326.9545   $ Sizing
 "CRtdFlo_Sys_T_OfficeOpn_S" = 834.1118   $ Sizing
 "CRtdFlo_Sys_T_OfficeOpn_W" = 780.4819   $ Sizing
 "CRtdFlo_Sys_T_OfficeSm_E" = 679.856   $ Sizing
 "CRtdFlo_Sys_T_OfficeSm_N" = 260.5446   $ Sizing
 "CRtdFlo_Sys_T_OfficeSm_S" = 750.338   $ Sizing
 "CRtdFlo_Sys_T_OfficeSm_W" = 701.0737   $ Sizing
 "CRtdFlo_Sys_T_Restrm_C" = 127.9632   $ Sizing
 "CRtdFlo_Sys_T_StorSm_E" = 189.1368   $ Sizing
 "CRtdFlo_Sys_T_StorSm_N" = 62.40966   $ Sizing
 "CRtdFlo_Sys_T_StorSm_S" = 218.2751   $ Sizing
 "CRtdFlo_Sys_T_StorSm_W" = 197.8198   $ Sizing
 "CSupFlo_Sys_L_Break_C" = 314.6584   $ Sizing
 "CSupFlo_Sys_L_CompDC_C" = 184.7551   $ Sizing
 "CSupFlo_Sys_L_Conf_C" = 233.7554   $ Sizing
 "CSupFlo_Sys_L_CopyRm_C" = 87.25253   $ Sizing
 "CSupFlo_Sys_L_Hall_E" = 183.4331   $ Sizing
 "CSupFlo_Sys_L_Hall_N" = 49.93853   $ Sizing
 "CSupFlo_Sys_L_Hall_S" = 201.5877   $ Sizing
 "CSupFlo_Sys_L_Hall_W" = 186.4336   $ Sizing
 "CSupFlo_Sys_L_LobWait_E" = 424.1498   $ Sizing
 "CSupFlo_Sys_L_LobWait_N" = 124.5666   $ Sizing
 "CSupFlo_Sys_L_LobWait_S" = 461.341   $ Sizing
 "CSupFlo_Sys_L_LobWait_W" = 432.0163   $ Sizing
 "CSupFlo_Sys_L_MechElec_C" = 88.23897   $ Sizing
 "CSupFlo_Sys_L_OfficeOpn_C" = 80.11961   $ Sizing
 "CSupFlo_Sys_L_OfficeOpn_E" = 792.3516   $ Sizing
 "CSupFlo_Sys_L_OfficeOpn_N" = 332.182   $ Sizing
 "CSupFlo_Sys_L_OfficeOpn_S" = 797.1937   $ Sizing
 "CSupFlo_Sys_L_OfficeOpn_W" = 793.8923   $ Sizing
 "CSupFlo_Sys_L_OfficeSm_E" = 690.9926   $ Sizing
 "CSupFlo_Sys_L_OfficeSm_N" = 258.0968   $ Sizing
 "CSupFlo_Sys_L_OfficeSm_S" = 712.5474   $ Sizing
 "CSupFlo_Sys_L_OfficeSm_W" = 704.3434   $ Sizing
 "CSupFlo_Sys_L_Restrm_C" = 87.59482   $ Sizing
 "CSupFlo_Sys_L_StorSm_C" = 38.65169   $ Sizing
 "CSupFlo_Sys_L_StorSm_E" = 178.9419   $ Sizing
 "CSupFlo_Sys_L_StorSm_N" = 58.81949   $ Sizing
 "CSupFlo_Sys_L_StorSm_S" = 193.7869   $ Sizing
 "CSupFlo_Sys_L_StorSm_W" = 170.7453   $ Sizing
 "CSupFlo_Sys_T_Conf_C" = 226.0697   $ Sizing
 "CSupFlo_Sys_T_Hall_E" = 194.5057   $ Sizing
 "CSupFlo_Sys_T_Hall_N" = 58.71428   $ Sizing
 "CSupFlo_Sys_T_Hall_S" = 225.4466   $ Sizing
 "CSupFlo_Sys_T_Hall_W" = 203.4554   $ Sizing
 "CSupFlo_Sys_T_OfficeOpn_C" = 67.97688   $ Sizing
 "CSupFlo_Sys_T_OfficeOpn_E" = 769.5506   $ Sizing
 "CSupFlo_Sys_T_OfficeOpn_N" = 326.9545   $ Sizing
 "CSupFlo_Sys_T_OfficeOpn_S" = 834.1118   $ Sizing
 "CSupFlo_Sys_T_OfficeOpn_W" = 780.4819   $ Sizing
 "CSupFlo_Sys_T_OfficeSm_E" = 679.856   $ Sizing
 "CSupFlo_Sys_T_OfficeSm_N" = 260.5446   $ Sizing
 "CSupFlo_Sys_T_OfficeSm_S" = 750.338   $ Sizing
 "CSupFlo_Sys_T_OfficeSm_W" = 701.0737   $ Sizing
 "CSupFlo_Sys_T_Restrm_C" = 127.9632   $ Sizing
 "CSupFlo_Sys_T_StorSm_E" = 189.1368   $ Sizing
 "CSupFlo_Sys_T_StorSm_N" = 62.40965   $ Sizing
 "CSupFlo_Sys_T_StorSm_S" = 218.2751   $ Sizing
 "CSupFlo_Sys_T_StorSm_W" = 197.8198   $ Sizing
 "ClCap_Sys_L_Break_C" = 10782.77   $ Sizing
 "ClCap_Sys_L_CompDC_C" = 6331.22   $ Sizing
 "ClCap_Sys_L_Conf_C" = 10195.02   $ Sizing
 "ClCap_Sys_L_CopyRm_C" = 2989.985   $ Sizing
 "ClCap_Sys_L_Hall_E" = 6285.917   $ Sizing
 "ClCap_Sys_L_Hall_N" = 1711.302   $ Sizing
 "ClCap_Sys_L_Hall_S" = 6908.042   $ Sizing
 "ClCap_Sys_L_Hall_W" = 6388.737   $ Sizing
 "ClCap_Sys_L_LobWait_E" = 14534.84   $ Sizing
 "ClCap_Sys_L_LobWait_N" = 4268.669   $ Sizing
 "ClCap_Sys_L_LobWait_S" = 15809.31   $ Sizing
 "ClCap_Sys_L_LobWait_W" = 14804.41   $ Sizing
 "ClCap_Sys_L_MechElec_C" = 3023.788   $ Sizing
 "ClCap_Sys_L_OfficeOpn_C" = 2745.553   $ Sizing
 "ClCap_Sys_L_OfficeOpn_E" = 27152.44   $ Sizing
 "ClCap_Sys_L_OfficeOpn_N" = 11383.27   $ Sizing
 "ClCap_Sys_L_OfficeOpn_S" = 27318.37   $ Sizing
 "ClCap_Sys_L_OfficeOpn_W" = 27205.24   $ Sizing
 "ClCap_Sys_L_OfficeSm_E" = 23679.05   $ Sizing
 "ClCap_Sys_L_OfficeSm_N" = 8844.507   $ Sizing
 "ClCap_Sys_L_OfficeSm_S" = 24417.7   $ Sizing
 "ClCap_Sys_L_OfficeSm_W" = 24136.56   $ Sizing
 "ClCap_Sys_L_Restrm_C" = 3001.714   $ Sizing
 "ClCap_Sys_L_StorSm_C" = 1324.523   $ Sizing
 "ClCap_Sys_L_StorSm_E" = 6132.011   $ Sizing
 "ClCap_Sys_L_StorSm_N" = 2015.636   $ Sizing
 "ClCap_Sys_L_StorSm_S" = 6640.724   $ Sizing
 "ClCap_Sys_L_StorSm_W" = 5851.128   $ Sizing
 "ClCap_Sys_T_Conf_C" = 9859.811   $ Sizing
 "ClCap_Sys_T_Hall_E" = 6665.355   $ Sizing
 "ClCap_Sys_T_Hall_N" = 2012.031   $ Sizing
 "ClCap_Sys_T_Hall_S" = 7725.644   $ Sizing
 "ClCap_Sys_T_Hall_W" = 6972.046   $ Sizing
 "ClCap_Sys_T_OfficeOpn_C" = 2329.443   $ Sizing
 "ClCap_Sys_T_OfficeOpn_E" = 26371.09   $ Sizing
 "ClCap_Sys_T_OfficeOpn_N" = 11204.13   $ Sizing
 "ClCap_Sys_T_OfficeOpn_S" = 28583.48   $ Sizing
 "ClCap_Sys_T_OfficeOpn_W" = 26745.69   $ Sizing
 "ClCap_Sys_T_OfficeSm_E" = 23297.42   $ Sizing
 "ClCap_Sys_T_OfficeSm_N" = 8928.389   $ Sizing
 "ClCap_Sys_T_OfficeSm_S" = 25712.71   $ Sizing
 "ClCap_Sys_T_OfficeSm_W" = 24024.52   $ Sizing
 "ClCap_Sys_T_Restrm_C" = 4385.066   $ Sizing
 "ClCap_Sys_T_StorSm_E" = 6481.372   $ Sizing
 "ClCap_Sys_T_StorSm_N" = 2138.665   $ Sizing
 "ClCap_Sys_T_StorSm_S" = 7479.89   $ Sizing
 "ClCap_Sys_T_StorSm_W" = 6778.924   $ Sizing
 "HtCap_Sys_L_Break_C" = -15178.3   $ Sizing
 "HtCap_Sys_L_CompDC_C" = -9044.866   $ Sizing
 "HtCap_Sys_L_Conf_C" = -11574.88   $ Sizing
 "HtCap_Sys_L_CopyRm_C" = -4207.384   $ Sizing
 "HtCap_Sys_L_Hall_E" = -6172.488   $ Sizing
 "HtCap_Sys_L_Hall_N" = -1810.308   $ Sizing
 "HtCap_Sys_L_Hall_S" = -6431.317   $ Sizing
 "HtCap_Sys_L_Hall_W" = -5873.212   $ Sizing
 "HtCap_Sys_L_LobWait_E" = -13772.8   $ Sizing
 "HtCap_Sys_L_LobWait_N" = -5167.198   $ Sizing
 "HtCap_Sys_L_LobWait_S" = -15125.47   $ Sizing
 "HtCap_Sys_L_LobWait_W" = -14192.62   $ Sizing
 "HtCap_Sys_L_MechElec_C" = -3321.083   $ Sizing
 "HtCap_Sys_L_OfficeOpn_C" = -2783.589   $ Sizing
 "HtCap_Sys_L_OfficeOpn_E" = -25173.01   $ Sizing
 "HtCap_Sys_L_OfficeOpn_N" = -12357.44   $ Sizing
 "HtCap_Sys_L_OfficeOpn_S" = -25270.78   $ Sizing
 "HtCap_Sys_L_OfficeOpn_W" = -25263.39   $ Sizing
 "HtCap_Sys_L_OfficeSm_E" = -22235.32   $ Sizing
 "HtCap_Sys_L_OfficeSm_N" = -9320.932   $ Sizing
 "HtCap_Sys_L_OfficeSm_S" = -22267.79   $ Sizing
 "HtCap_Sys_L_OfficeSm_W" = -21791.94   $ Sizing
 "HtCap_Sys_L_Restrm_C" = -2896.681   $ Sizing
 "HtCap_Sys_L_StorSm_C" = -1438.412   $ Sizing
 "HtCap_Sys_L_StorSm_E" = -5883.25   $ Sizing
 "HtCap_Sys_L_StorSm_N" = -2370.378   $ Sizing
 "HtCap_Sys_L_StorSm_S" = -6186.037   $ Sizing
 "HtCap_Sys_L_StorSm_W" = -5621.449   $ Sizing
 "HtCap_Sys_T_Conf_C" = -11483.59   $ Sizing
 "HtCap_Sys_T_Hall_E" = -6708.221   $ Sizing
 "HtCap_Sys_T_Hall_N" = -2297.866   $ Sizing
 "HtCap_Sys_T_Hall_S" = -7548.826   $ Sizing
 "HtCap_Sys_T_Hall_W" = -6855.152   $ Sizing
 "HtCap_Sys_T_OfficeOpn_C" = -2595.964   $ Sizing
 "HtCap_Sys_T_OfficeOpn_E" = -26575.68   $ Sizing
 "HtCap_Sys_T_OfficeOpn_N" = -12727.1   $ Sizing
 "HtCap_Sys_T_OfficeOpn_S" = -27734.04   $ Sizing
 "HtCap_Sys_T_OfficeOpn_W" = -26837.48   $ Sizing
 "HtCap_Sys_T_OfficeSm_E" = -23201.57   $ Sizing
 "HtCap_Sys_T_OfficeSm_N" = -9916.219   $ Sizing
 "HtCap_Sys_T_OfficeSm_S" = -24920.41   $ Sizing
 "HtCap_Sys_T_OfficeSm_W" = -23310.71   $ Sizing
 "HtCap_Sys_T_Restrm_C" = -4368.691   $ Sizing
 "HtCap_Sys_T_StorSm_E" = -6940.025   $ Sizing
 "HtCap_Sys_T_StorSm_N" = -2831.593   $ Sizing
 "HtCap_Sys_T_StorSm_S" = -7289.486   $ Sizing
 "HtCap_Sys_T_StorSm_W" = -7233.218   $ Sizing
..

##include Templates\OfS_DX_SZ.inp
END ..
COMPUTE ..
STOP ..
