INPUT ..

##fileprefix C:\Users\jglasskatz\MASControl3\
##set1 IsSizing FALSE
##set1 CoolType ACH
##set1 HeatType HOT-WATER
##set1 EU_HrRepVar 1
##set1 BldgVint 2020
##set1 BldgLoc CZ01

 ##set1 mChlrCap_fT DEFAULT   $ IP Tech: ChlrScrA-lt150-10.1EER
 ##set1 mChlrEIR_fPLR DEFAULT   $ IP Tech: ChlrScrA-lt150-10.1EER
 ##set1 mChlrEIR_fT DEFAULT   $ IP Tech: ChlrScrA-lt150-10.1EER
 ##set1 mChlrType Screw   $ IP Tech: ChlrScrA-lt150-10.1EER
 ##set1 mCondType Air   $ IP Tech: ChlrScrA-lt150-10.1EER
 ##set1 mSetupLdChlr FALSE   $ IP Tech: ChlrScrA-lt150-10.1EER
 ##set1 mCHW_FlowCtrl VarSec   $ IP Tech: ChwFlowCtrlVarSec
 ##set1 mHW_FlowCtrl VarSec   $ IP Tech: HwFlowCtrlVarSec
 ##set1 mBlrIsCond FALSE   $ IP Tech: WBlr-lt300-82p0AF

PARAMETER
 "AltFactor" = 1.00753   $ IP Non-Tech
 "BldgEconoFlag" = 1   $ IP Non-Tech
 "BlrPrimLp" = BlrPrimLoop   $ IP Non-Tech
 "Break_EWSF" = 1   $ IP Non-Tech
 "Break_LWSF" = 0.65   $ IP Non-Tech
 "CDD_DBHi10" = 65   $ IP Non-Tech
 "CDD_DBHi7" = 68   $ IP Non-Tech
 "CDD_DBHi8" = 66   $ IP Non-Tech
 "CDD_DBHi9" = 77   $ IP Non-Tech
 "CDD_DBRange10" = 17   $ IP Non-Tech
 "CDD_DBRange7" = 11   $ IP Non-Tech
 "CDD_DBRange8" = 10   $ IP Non-Tech
 "CDD_DBRange9" = 29   $ IP Non-Tech
 "CDD_Day10" = 15   $ IP Non-Tech
 "CDD_Day7" = 16   $ IP Non-Tech
 "CDD_Day8" = 20   $ IP Non-Tech
 "CDD_Day9" = 17   $ IP Non-Tech
 "CDD_HrHi10" = 12   $ IP Non-Tech
 "CDD_HrHi7" = 12   $ IP Non-Tech
 "CDD_HrHi8" = 13   $ IP Non-Tech
 "CDD_HrHi9" = 17   $ IP Non-Tech
 "CDD_HrLo10" = 6   $ IP Non-Tech
 "CDD_HrLo7" = 3   $ IP Non-Tech
 "CDD_HrLo8" = 8   $ IP Non-Tech
 "CDD_HrLo9" = 4   $ IP Non-Tech
 "CDD_WB10" = 57.53039551   $ IP Non-Tech
 "CDD_WB7" = 59.29250717   $ IP Non-Tech
 "CDD_WB8" = 60.75350189   $ IP Non-Tech
 "CDD_WB9" = 61.08643341   $ IP Non-Tech
 "CZ_Category" = Tem   $ IP Non-Tech
 "ChwDesignDT" = 12   $ IP Non-Tech
 "ChwPipeHead" = 62   $ IP Non-Tech
 "ChwRetDT" = 0.03   $ IP Non-Tech
 "ChwSupDT" = 0.05   $ IP Non-Tech
 "ChwT" = 44   $ IP Non-Tech
 "ChwVintEconoFlag" = 1   $ IP Non-Tech
 "CompRoomData_EWSF" = 5   $ IP Non-Tech
 "CompRoomData_LWSF" = 0.8   $ IP Non-Tech
 "Conference_EWSF" = 1   $ IP Non-Tech
 "Conference_LWSF" = 0.85   $ IP Non-Tech
 "CoolSetT" = 55   $ IP Non-Tech
 "CoolType" = ACH   $ IP Non-Tech
 "CopyRoom_EWSF" = 1.5   $ IP Non-Tech
 "CopyRoom_LWSF" = 0.5   $ IP Non-Tech
 "DesCoolT" = 75   $ IP Non-Tech
 "DesHeatT" = 73   $ IP Non-Tech
 "EconoEnthLimit" = 28   $ IP Non-Tech
 "EconoTempLimit" = 70   $ IP Non-Tech
 "Elevation" = 203   $ IP Non-Tech
 "HDD_CloudAmt1" = 0   $ IP Non-Tech
 "HDD_DBHi1" = 53   $ IP Non-Tech
 "HDD_DBRange1" = 20   $ IP Non-Tech
 "HDD_Day1" = 15   $ IP Non-Tech
 "HDD_HrHi1" = 14   $ IP Non-Tech
 "HDD_HrLo1" = 6   $ IP Non-Tech
 "HDD_WB1" = 42.3   $ IP Non-Tech
 "HDD_WindSpd1" = 12.7   $ IP Non-Tech
 "Hall_EWSF" = 0.2   $ IP Non-Tech
 "Hall_LWSF" = 0.55   $ IP Non-Tech
 "HeatSrc" = HOT-WATER   $ IP Non-Tech
 "HeatSrcTU" = HOT-WATER   $ IP Non-Tech
 "HeatType" = GasBlr   $ IP Non-Tech
 "HeatTypeTU" = HOT-WATER   $ IP Non-Tech
 "HwDesignDT" = 30   $ IP Non-Tech
 "HwPipeHead" = 40   $ IP Non-Tech
 "HwRetDT" = 0.3   $ IP Non-Tech
 "HwSupDT" = 0.5   $ IP Non-Tech
 "IndoorFanMode" = CONTINUOUS   $ IP Non-Tech
 "KT_TransferAir" = Yes   $ IP Non-Tech
 "Latitude" = 40.8   $ IP Non-Tech
 "LobbyWaiting_EWSF" = 0.5   $ IP Non-Tech
 "LobbyWaiting_LWSF" = 0.75   $ IP Non-Tech
 "Longitude" = 124.2   $ IP Non-Tech
 "LtgMsrApplic" = ALL   $ Msr TechID: NonResLtgRefMsr-LF
 "LtgSav_CFL" = 0   $ Msr TechID: NonResLtgRefMsr-LF
 "LtgSav_EX" = 0   $ Msr TechID: NonResLtgRefMsr-LF
 "LtgSav_HB" = 0   $ Msr TechID: NonResLtgRefMsr-LF
 "LtgSav_LF" = 0.3   $ Msr TechID: NonResLtgRefMsr-LF
 "LtgSav_SP" = 0   $ Msr TechID: NonResLtgRefMsr-LF
 "MZFanMechEff" = 0.68   $ IP Non-Tech
 "MZHasRetFan" = TRUE   $ IP Non-Tech
 "MZ_RFanWPerCfm" = 0.33   $ IP Non-Tech
 "MZ_SFanWPerCfm" = 0.75   $ IP Non-Tech
 "MaxSupT_MZ" = 95   $ IP Non-Tech
 "MaxSupT_SZ" = 105   $ IP Non-Tech
 "MaxSupT_TU" = 105   $ IP Non-Tech
 "MechElecRoom_EWSF" = 0.2   $ IP Non-Tech
 "MechElecRoom_LWSF" = 0.4   $ IP Non-Tech
 "MinCfmPerSF" = 0.4   $ IP Non-Tech
 "MinSupT" = 55   $ IP Non-Tech
 "OccCoolT" = 76   $ IP Non-Tech
 "OccHeatT" = 72   $ IP Non-Tech
 "OfficeOpen_EWSF" = 1.5   $ IP Non-Tech
 "OfficeOpen_LWSF" = 0.8   $ IP Non-Tech
 "OfficeSmall_EWSF" = 1.5   $ IP Non-Tech
 "OfficeSmall_LWSF" = 0.9   $ IP Non-Tech
 "PkgDxVintEconoFlag" = 1   $ IP Non-Tech
 "ReheatDeltaT" = 40   $ IP Non-Tech
 "Restroom_EWSF" = 0.2   $ IP Non-Tech
 "Restroom_LWSF" = 0.65   $ IP Non-Tech
 "SZFanMechEff" = 0.54   $ IP Non-Tech
 "SZHasRetFan" = TRUE   $ IP Non-Tech
 "SZ_Is_2Spd" = TRUE   $ IP Non-Tech
 "SZ_SFanWPerCfm" = 0.46   $ IP Non-Tech
 "StorageSmlCond_EWSF" = 0.2   $ IP Non-Tech
 "StorageSmlCond_LWSF" = 0.45   $ IP Non-Tech
 "TermUnitFanMechEff" = 1   $ IP Non-Tech
 "TermUnitFanMode" = INTERMITTENT   $ IP Non-Tech
 "TermUnitFanWPerCfm" = 0.175   $ IP Non-Tech
 "TwrSetpt" = 80   $ IP Non-Tech
 "UnocCoolT" = 86   $ IP Non-Tech
 "UnocHeatT" = 62   $ IP Non-Tech
 "VAVMinFlow" = 0.3   $ IP Non-Tech
 "WlhpVintEconoFlag" = 1   $ IP Non-Tech
 "EconoCtrl" = OA-TEMP   $ IP Tech: AirEcono-OATemp
 "MaxOAFrac" = 0.85   $ IP Tech: AirEcono-OATemp
 "UseEconoVintApplic" = FALSE   $ IP Tech: AirEcono-OATemp
 "ChlrCapRange" = lt150   $ IP Tech: ChlrScrA-lt150-10.1EER
 "ChlrEff" = 10.1   $ IP Tech: ChlrScrA-lt150-10.1EER
 "ChlrType" = Screw   $ IP Tech: ChlrScrA-lt150-10.1EER
 "ChlrVSD" = NO   $ IP Tech: ChlrScrA-lt150-10.1EER
 "CmpPerCkt" = NA   $ IP Tech: ChlrScrA-lt150-10.1EER
 "CondRelief" = FALSE   $ IP Tech: ChlrScrA-lt150-10.1EER
 "CondType" = Air   $ IP Tech: ChlrScrA-lt150-10.1EER
 "EffUnits" = EER   $ IP Tech: ChlrScrA-lt150-10.1EER
 "IPLV" = -99   $ IP Tech: ChlrScrA-lt150-10.1EER
 "CHW_FlowCtrl" = VarSec   $ IP Tech: ChwFlowCtrlVarSec
 "CHW_HdSensLoc" = AT-COILS   $ IP Tech: ChwFlowCtrlVarSec
 "CHW_HdSptCtrl" = FIXED   $ IP Tech: ChwFlowCtrlVarSec
 "CHWP_Encl" = Any   $ IP Tech: ChwPumpMtrEff-PR
 "CHWP_MotClass" = PREMIUM   $ IP Tech: ChwPumpMtrEff-PR
 "CHWP_MotHP" = Any   $ IP Tech: ChwPumpMtrEff-PR
 "CHWP_NEMA_DC" =    $ IP Tech: ChwPumpMtrEff-PR
 "CHWP_RPM" = Any   $ IP Tech: ChwPumpMtrEff-PR
 "CHWP_Volt" =    $ IP Tech: ChwPumpMtrEff-PR
 "CHW_MaxT" = 54   $ IP Tech: ChwTempCtrlReset
 "CHW_TempCtrl" = LOAD-RESET   $ IP Tech: ChwTempCtrlReset
 "DuctDT" = 1   $ IP Tech: ComDuctInsul-1
 "DuctAirLoss" = 0   $ IP Tech: ComDuctLeak-0
 "DuctLossOAFrac" = 0   $ IP Tech: ComDuctLeak-0
 "ComRoofInsCalc" = FromUo   $ IP Tech: ComRoofIns-WFrm-0.03
 "ComRoofInsR" = -999   $ IP Tech: ComRoofIns-WFrm-0.03
 "ComRoofUo" = 0.03   $ IP Tech: ComRoofIns-WFrm-0.03
 "ComEWInsCalc" = FromUo   $ IP Tech: ComWallIns-WFrm-0.08
 "ComEWInsR" = -999   $ IP Tech: ComWallIns-WFrm-0.08
 "ComEWUo" = 0.08   $ IP Tech: ComWallIns-WFrm-0.08
 "MotorClass" = PREMIUM   $ IP Tech: ExhFanMtr-Prem
 "HW_FlowCtrl" = VarSec   $ IP Tech: HwFlowCtrlVarSec
 "HW_HdSensLoc" = AT-COILS   $ IP Tech: HwFlowCtrlVarSec
 "HW_HdSptCtrl" = FIXED   $ IP Tech: HwFlowCtrlVarSec
 "HWP_Encl" = Any   $ IP Tech: HwPumpMtrEff-PR
 "HWP_MotClass" = PREMIUM   $ IP Tech: HwPumpMtrEff-PR
 "HWP_MotHP" = Any   $ IP Tech: HwPumpMtrEff-PR
 "HWP_NEMA_DC" = Any   $ IP Tech: HwPumpMtrEff-PR
 "HWP_RPM" = Any   $ IP Tech: HwPumpMtrEff-PR
 "HWP_Volt" = Any   $ IP Tech: HwPumpMtrEff-PR
 "HWResetOutsideHi" = 60   $ IP Tech: HwTempCtrlOAReset
 "HWResetOutsideLo" = 30   $ IP Tech: HwTempCtrlOAReset
 "HW_TempCtrl" = OA-RESET   $ IP Tech: HwTempCtrlOAReset
 "ComN_SHGC" = 0.25   $ IP Tech: NResWin-ComN-0.36-0.25
 "ComN_UFactor" = 0.36   $ IP Tech: NResWin-ComN-0.36-0.25
 "ComN_VisTrans" = 0.41   $ IP Tech: NResWin-ComN-0.36-0.25
 "ComN_WinCode" = G2668   $ IP Tech: NResWin-ComN-0.36-0.25
 "ComN_WinFrmFrac" = 0.17   $ IP Tech: NResWin-ComN-0.36-0.25
 "ComN_WinFrmU" = 0.3   $ IP Tech: NResWin-ComN-0.36-0.25
 "ComO_SHGC" = 0.25   $ IP Tech: NResWin-ComO-0.36-0.25
 "ComO_UFactor" = 0.36   $ IP Tech: NResWin-ComO-0.36-0.25
 "ComO_VisTrans" = 0.41   $ IP Tech: NResWin-ComO-0.36-0.25
 "ComO_WinCode" = G2668   $ IP Tech: NResWin-ComO-0.36-0.25
 "ComO_WinFrmFrac" = 0.17   $ IP Tech: NResWin-ComO-0.36-0.25
 "ComO_WinFrmU" = 0.3   $ IP Tech: NResWin-ComO-0.36-0.25
 "SATempCtrl" = WARMEST   $ IP Tech: SATempCtrl-Warmest
 "FanEIR_fPLR" = "Variable Speed Drive FPLR"   $ IP Tech: VAVCtrl-VSD-AnyHP
 "Fan_Control" = VSD   $ IP Tech: VAVCtrl-VSD-AnyHP
 "Motor_Horsepower" = AnyHP   $ IP Tech: VAVCtrl-VSD-AnyHP
 "BlrCapRange" = lt300   $ IP Tech: WBlr-lt300-82p0AF
 "BlrDraftType" = FDr   $ IP Tech: WBlr-lt300-82p0AF
 "BlrEff" = 0.82   $ IP Tech: WBlr-lt300-82p0AF
 "BlrEffUnits" = AFUE   $ IP Tech: WBlr-lt300-82p0AF
 "BlrEt" = 0.823   $ IP Tech: WBlr-lt300-82p0AF
 "BlrFluid" = Wtr   $ IP Tech: WBlr-lt300-82p0AF
 "BlrIsCond" = FALSE   $ IP Tech: WBlr-lt300-82p0AF
 "BlrT" = 165   $ IP Tech: WBlr-lt300-82p0AF
 "AltAdjFactor" = 1.007532   $ Sizing
 "CAssFlo_L_Break_CZn" = 241.1501   $ Sizing
 "CAssFlo_L_CompDC_CZn" = 139.2397   $ Sizing
 "CAssFlo_L_Conf_CZn" = 168.1766   $ Sizing
 "CAssFlo_L_CopyRm_CZn" = 50.72986   $ Sizing
 "CAssFlo_L_Hall_EZn" = 72.17222   $ Sizing
 "CAssFlo_L_Hall_NZn" = 58.25273   $ Sizing
 "CAssFlo_L_Hall_SZn" = 87.35873   $ Sizing
 "CAssFlo_L_Hall_WZn" = 78.58411   $ Sizing
 "CAssFlo_L_LobWait_EZn" = 176.5759   $ Sizing
 "CAssFlo_L_LobWait_NZn" = 123.1592   $ Sizing
 "CAssFlo_L_LobWait_SZn" = 200.7067   $ Sizing
 "CAssFlo_L_LobWait_WZn" = 177.0393   $ Sizing
 "CAssFlo_L_MechElec_CZn" = 65.93681   $ Sizing
 "CAssFlo_L_OfficeOpn_CZn" = 39.66381   $ Sizing
 "CAssFlo_L_OfficeOpn_EZn" = 385.1977   $ Sizing
 "CAssFlo_L_OfficeOpn_NZn" = 170.6679   $ Sizing
 "CAssFlo_L_OfficeOpn_SZn" = 398.5853   $ Sizing
 "CAssFlo_L_OfficeOpn_WZn" = 372.4494   $ Sizing
 "CAssFlo_L_OfficeSm_EZn" = 320.0897   $ Sizing
 "CAssFlo_L_OfficeSm_NZn" = 125.817   $ Sizing
 "CAssFlo_L_OfficeSm_SZn" = 352.4888   $ Sizing
 "CAssFlo_L_OfficeSm_WZn" = 325.3531   $ Sizing
 "CAssFlo_L_Restrm_CZn" = 86.07105   $ Sizing
 "CAssFlo_L_StorSm_CZn" = 30.43636   $ Sizing
 "CAssFlo_L_StorSm_EZn" = 62.90329   $ Sizing
 "CAssFlo_L_StorSm_NZn" = 63.10582   $ Sizing
 "CAssFlo_L_StorSm_SZn" = 71.37866   $ Sizing
 "CAssFlo_L_StorSm_WZn" = 66.12376   $ Sizing
 "CAssFlo_T_Conf_CZn" = 180.0541   $ Sizing
 "CAssFlo_T_Hall_EZn" = 90.34596   $ Sizing
 "CAssFlo_T_Hall_NZn" = 53.39254   $ Sizing
 "CAssFlo_T_Hall_SZn" = 103.3302   $ Sizing
 "CAssFlo_T_Hall_WZn" = 91.8967   $ Sizing
 "CAssFlo_T_OfficeOpn_CZn" = 40.48843   $ Sizing
 "CAssFlo_T_OfficeOpn_EZn" = 399.8018   $ Sizing
 "CAssFlo_T_OfficeOpn_NZn" = 203.4603   $ Sizing
 "CAssFlo_T_OfficeOpn_SZn" = 434.318   $ Sizing
 "CAssFlo_T_OfficeOpn_WZn" = 387.8226   $ Sizing
 "CAssFlo_T_OfficeSm_EZn" = 346.7798   $ Sizing
 "CAssFlo_T_OfficeSm_NZn" = 156.6214   $ Sizing
 "CAssFlo_T_OfficeSm_SZn" = 384.5428   $ Sizing
 "CAssFlo_T_OfficeSm_WZn" = 337.8889   $ Sizing
 "CAssFlo_T_Restrm_CZn" = 86.07105   $ Sizing
 "CAssFlo_T_StorSm_EZn" = 82.28444   $ Sizing
 "CAssFlo_T_StorSm_NZn" = 58.79333   $ Sizing
 "CAssFlo_T_StorSm_SZn" = 92.98988   $ Sizing
 "CAssFlo_T_StorSm_WZn" = 85.60133   $ Sizing
 "CBF_Sys_L" = 0.04400678   $ Sizing
 "CBF_Sys_T" = 0.04291743   $ Sizing
 "CHRtFlo_L_Break_CZn" = 185.4956   $ Sizing
 "CHRtFlo_L_CompDC_CZn" = 41.77193   $ Sizing
 "CHRtFlo_L_Conf_CZn" = 143.3872   $ Sizing
 "CHRtFlo_L_CopyRm_CZn" = 50.72986   $ Sizing
 "CHRtFlo_L_Hall_EZn" = 55.28455   $ Sizing
 "CHRtFlo_L_Hall_NZn" = 58.25273   $ Sizing
 "CHRtFlo_L_Hall_SZn" = 38.75425   $ Sizing
 "CHRtFlo_L_Hall_WZn" = 54.9415   $ Sizing
 "CHRtFlo_L_LobWait_EZn" = 115.7062   $ Sizing
 "CHRtFlo_L_LobWait_NZn" = 123.1592   $ Sizing
 "CHRtFlo_L_LobWait_SZn" = 87.52033   $ Sizing
 "CHRtFlo_L_LobWait_WZn" = 115.1136   $ Sizing
 "CHRtFlo_L_MechElec_CZn" = 39.92091   $ Sizing
 "CHRtFlo_L_OfficeOpn_CZn" = 34.87054   $ Sizing
 "CHRtFlo_L_OfficeOpn_EZn" = 115.5593   $ Sizing
 "CHRtFlo_L_OfficeOpn_NZn" = 128.7265   $ Sizing
 "CHRtFlo_L_OfficeOpn_SZn" = 119.5756   $ Sizing
 "CHRtFlo_L_OfficeOpn_WZn" = 116.9576   $ Sizing
 "CHRtFlo_L_OfficeSm_EZn" = 114.7807   $ Sizing
 "CHRtFlo_L_OfficeSm_NZn" = 121.3185   $ Sizing
 "CHRtFlo_L_OfficeSm_SZn" = 105.7466   $ Sizing
 "CHRtFlo_L_OfficeSm_WZn" = 109.8123   $ Sizing
 "CHRtFlo_L_Restrm_CZn" = 50.2259   $ Sizing
 "CHRtFlo_L_StorSm_CZn" = 30.43636   $ Sizing
 "CHRtFlo_L_StorSm_EZn" = 58.68046   $ Sizing
 "CHRtFlo_L_StorSm_NZn" = 63.10582   $ Sizing
 "CHRtFlo_L_StorSm_SZn" = 43.20135   $ Sizing
 "CHRtFlo_L_StorSm_WZn" = 53.71766   $ Sizing
 "CHRtFlo_T_Conf_CZn" = 143.3872   $ Sizing
 "CHRtFlo_T_Hall_EZn" = 50.55398   $ Sizing
 "CHRtFlo_T_Hall_NZn" = 53.39254   $ Sizing
 "CHRtFlo_T_Hall_SZn" = 40.58603   $ Sizing
 "CHRtFlo_T_Hall_WZn" = 49.39557   $ Sizing
 "CHRtFlo_T_OfficeOpn_CZn" = 22.90652   $ Sizing
 "CHRtFlo_T_OfficeOpn_EZn" = 119.9406   $ Sizing
 "CHRtFlo_T_OfficeOpn_NZn" = 117.2817   $ Sizing
 "CHRtFlo_T_OfficeOpn_SZn" = 130.2954   $ Sizing
 "CHRtFlo_T_OfficeOpn_WZn" = 116.3468   $ Sizing
 "CHRtFlo_T_OfficeSm_EZn" = 107.6756   $ Sizing
 "CHRtFlo_T_OfficeSm_NZn" = 110.8573   $ Sizing
 "CHRtFlo_T_OfficeSm_SZn" = 115.3628   $ Sizing
 "CHRtFlo_T_OfficeSm_WZn" = 103.9128   $ Sizing
 "CHRtFlo_T_Restrm_CZn" = 75.25826   $ Sizing
 "CHRtFlo_T_StorSm_EZn" = 54.98018   $ Sizing
 "CHRtFlo_T_StorSm_NZn" = 58.79333   $ Sizing
 "CHRtFlo_T_StorSm_SZn" = 41.38198   $ Sizing
 "CHRtFlo_T_StorSm_WZn" = 53.5452   $ Sizing
 "CRtdFlo_Sys_L" = 3257.596   $ Sizing
 "CRtdFlo_Sys_T" = 2723.416   $ Sizing
 "CSupFlo_Sys_L" = 3257.596   $ Sizing
 "CSupFlo_Sys_T" = 2723.416   $ Sizing
 "Cap_Boiler1" = -0.1605528   $ Sizing
 "Cap_Chiller1" = 0.1610626   $ Sizing
 "ClCap_Sys_L" = 86715.9   $ Sizing
 "ClCap_Sys_T" = 73723.13   $ Sizing
 "HRtEDB_L_Break_CZn" = 55.68904   $ Sizing
 "HRtEDB_L_CompDC_CZn" = 55.68904   $ Sizing
 "HRtEDB_L_Conf_CZn" = 55.68904   $ Sizing
 "HRtEDB_L_CopyRm_CZn" = 53.3768   $ Sizing
 "HRtEDB_L_Hall_EZn" = 53.3768   $ Sizing
 "HRtEDB_L_Hall_NZn" = 53.3768   $ Sizing
 "HRtEDB_L_Hall_SZn" = 55.68904   $ Sizing
 "HRtEDB_L_Hall_WZn" = 53.3768   $ Sizing
 "HRtEDB_L_LobWait_EZn" = 55.68904   $ Sizing
 "HRtEDB_L_LobWait_NZn" = 53.3768   $ Sizing
 "HRtEDB_L_LobWait_SZn" = 55.68904   $ Sizing
 "HRtEDB_L_LobWait_WZn" = 53.3768   $ Sizing
 "HRtEDB_L_MechElec_CZn" = 53.3768   $ Sizing
 "HRtEDB_L_OfficeOpn_CZn" = 55.68904   $ Sizing
 "HRtEDB_L_OfficeOpn_EZn" = 55.68904   $ Sizing
 "HRtEDB_L_OfficeOpn_NZn" = 55.68904   $ Sizing
 "HRtEDB_L_OfficeOpn_SZn" = 55.68904   $ Sizing
 "HRtEDB_L_OfficeOpn_WZn" = 55.68904   $ Sizing
 "HRtEDB_L_OfficeSm_EZn" = 55.68904   $ Sizing
 "HRtEDB_L_OfficeSm_NZn" = 55.68904   $ Sizing
 "HRtEDB_L_OfficeSm_SZn" = 55.68904   $ Sizing
 "HRtEDB_L_OfficeSm_WZn" = 55.68904   $ Sizing
 "HRtEDB_L_Restrm_CZn" = 53.3768   $ Sizing
 "HRtEDB_L_StorSm_CZn" = 53.3768   $ Sizing
 "HRtEDB_L_StorSm_EZn" = 53.3768   $ Sizing
 "HRtEDB_L_StorSm_NZn" = 53.3768   $ Sizing
 "HRtEDB_L_StorSm_SZn" = 53.3768   $ Sizing
 "HRtEDB_L_StorSm_WZn" = 53.3768   $ Sizing
 "HRtEDB_T_Conf_CZn" = 51.94503   $ Sizing
 "HRtEDB_T_Hall_EZn" = 55.42372   $ Sizing
 "HRtEDB_T_Hall_NZn" = 55.42372   $ Sizing
 "HRtEDB_T_Hall_SZn" = 51.94503   $ Sizing
 "HRtEDB_T_Hall_WZn" = 55.42372   $ Sizing
 "HRtEDB_T_OfficeOpn_CZn" = 55.42372   $ Sizing
 "HRtEDB_T_OfficeOpn_EZn" = 55.42372   $ Sizing
 "HRtEDB_T_OfficeOpn_NZn" = 55.42372   $ Sizing
 "HRtEDB_T_OfficeOpn_SZn" = 55.42372   $ Sizing
 "HRtEDB_T_OfficeOpn_WZn" = 55.42372   $ Sizing
 "HRtEDB_T_OfficeSm_EZn" = 55.42372   $ Sizing
 "HRtEDB_T_OfficeSm_NZn" = 55.42372   $ Sizing
 "HRtEDB_T_OfficeSm_SZn" = 55.42372   $ Sizing
 "HRtEDB_T_OfficeSm_WZn" = 55.42372   $ Sizing
 "HRtEDB_T_Restrm_CZn" = 51.94503   $ Sizing
 "HRtEDB_T_StorSm_EZn" = 51.94503   $ Sizing
 "HRtEDB_T_StorSm_NZn" = 51.94503   $ Sizing
 "HRtEDB_T_StorSm_SZn" = 51.94503   $ Sizing
 "HRtEDB_T_StorSm_WZn" = 51.94503   $ Sizing
 "HWDT_Boiler1" = 35.48298   $ Sizing
 "HtCap_L_Break_CZn" = -7855.673   $ Sizing
 "HtCap_L_CompDC_CZn" = -1769.026   $ Sizing
 "HtCap_L_Conf_CZn" = -6072.398   $ Sizing
 "HtCap_L_CopyRm_CZn" = -2275.205   $ Sizing
 "HtCap_L_Hall_EZn" = -2479.48   $ Sizing
 "HtCap_L_Hall_NZn" = -2612.601   $ Sizing
 "HtCap_L_Hall_SZn" = -1641.229   $ Sizing
 "HtCap_L_Hall_WZn" = -2464.094   $ Sizing
 "HtCap_L_LobWait_EZn" = -4900.117   $ Sizing
 "HtCap_L_LobWait_NZn" = -5523.617   $ Sizing
 "HtCap_L_LobWait_SZn" = -3706.455   $ Sizing
 "HtCap_L_LobWait_WZn" = -5162.778   $ Sizing
 "HtCap_L_MechElec_CZn" = -1790.43   $ Sizing
 "HtCap_L_OfficeOpn_CZn" = -1476.755   $ Sizing
 "HtCap_L_OfficeOpn_EZn" = -4893.896   $ Sizing
 "HtCap_L_OfficeOpn_NZn" = -5451.523   $ Sizing
 "HtCap_L_OfficeOpn_SZn" = -5063.983   $ Sizing
 "HtCap_L_OfficeOpn_WZn" = -4953.113   $ Sizing
 "HtCap_L_OfficeSm_EZn" = -4860.919   $ Sizing
 "HtCap_L_OfficeSm_NZn" = -5137.796   $ Sizing
 "HtCap_L_OfficeSm_SZn" = -4478.332   $ Sizing
 "HtCap_L_OfficeSm_WZn" = -4650.513   $ Sizing
 "HtCap_L_Restrm_CZn" = -2252.602   $ Sizing
 "HtCap_L_StorSm_CZn" = -1365.053   $ Sizing
 "HtCap_L_StorSm_EZn" = -2631.785   $ Sizing
 "HtCap_L_StorSm_NZn" = -2830.26   $ Sizing
 "HtCap_L_StorSm_SZn" = -1937.556   $ Sizing
 "HtCap_L_StorSm_WZn" = -2409.206   $ Sizing
 "HtCap_T_Conf_CZn" = -6652.258   $ Sizing
 "HtCap_T_Hall_EZn" = -2155.965   $ Sizing
 "HtCap_T_Hall_NZn" = -2277.02   $ Sizing
 "HtCap_T_Hall_SZn" = -1882.934   $ Sizing
 "HtCap_T_Hall_WZn" = -2106.562   $ Sizing
 "HtCap_T_OfficeOpn_CZn" = -976.8892   $ Sizing
 "HtCap_T_OfficeOpn_EZn" = -5115.079   $ Sizing
 "HtCap_T_OfficeOpn_NZn" = -5001.686   $ Sizing
 "HtCap_T_OfficeOpn_SZn" = -5556.68   $ Sizing
 "HtCap_T_OfficeOpn_WZn" = -4961.816   $ Sizing
 "HtCap_T_OfficeSm_EZn" = -4592.02   $ Sizing
 "HtCap_T_OfficeSm_NZn" = -4727.708   $ Sizing
 "HtCap_T_OfficeSm_SZn" = -4919.854   $ Sizing
 "HtCap_T_OfficeSm_WZn" = -4431.546   $ Sizing
 "HtCap_T_Restrm_CZn" = -3491.506   $ Sizing
 "HtCap_T_StorSm_EZn" = -2550.732   $ Sizing
 "HtCap_T_StorSm_NZn" = -2727.638   $ Sizing
 "HtCap_T_StorSm_SZn" = -1919.862   $ Sizing
 "HtCap_T_StorSm_WZn" = -2484.157   $ Sizing
 "LpFlo_BlrPrimLoop" = 9.042335   $ Sizing
 "LpFlo_BlrPrimLoop" = 9.042335   $ Sizing
 "LpFlo_ChlrPrimLoop" = 21.91697   $ Sizing
 "LpFlo_ChlrPrimLoop" = 21.91697   $ Sizing
 "LpFlo_CircLp_Chw_All" = 21.91697   $ Sizing
 "LpFlo_CircLp_Chw_All" = 21.91697   $ Sizing
 "LpFlo_CircLp_Hw_All" = 9.042335   $ Sizing
 "LpFlo_CircLp_Hw_All" = 9.042335   $ Sizing
 "RtChwFlo_Chiller1" = 1.857239   $ Sizing
 "RtdEDB_Sys_L" = 71.29889   $ Sizing
 "RtdEDB_Sys_T" = 73.06594   $ Sizing
 "RtdEWB_Sys_L" = 61.72205   $ Sizing
 "RtdEWB_Sys_T" = 61.80424   $ Sizing
 "SUtime_Boiler1" = 0.083   $ Sizing
..

##include Templates\OfS_CH_MZ.inp
END ..
COMPUTE ..
STOP ..
