INPUT ..

##fileprefix C:\Users\jglasskatz\MASControl3\
##set1 IsSizing FALSE
##set1 CoolType DX
##set1 HeatType FURNACE
##set1 EU_HrRepVar 0
##set1 BldgVint 2003
##set1 BldgLoc CZ13

 ##set1 mBFMult 1   $ IP Tech: RefgChg-NRes-Std

PARAMETER
 "AltFactor" = 1.01244   $ IP Non-Tech
 "BF_fFlow" = SpltAC1Sp_BF_fFlow   $ Msr (Var)TechID: PreNResSplitAC-45to-PENo
 "BF_fT" = SpltAC1Sp_BF_fT   $ Msr (Var)TechID: PreNResSplitAC-45to-PENo
 "BldgEconoFlag" = 1   $ IP Non-Tech
 "Break_EWSF" = 1   $ IP Non-Tech
 "Break_LWSF" = 1.1   $ IP Non-Tech
 "CDD_DBHi10" = 86   $ IP Non-Tech
 "CDD_DBHi7" = 105   $ IP Non-Tech
 "CDD_DBHi8" = 102   $ IP Non-Tech
 "CDD_DBHi9" = 100   $ IP Non-Tech
 "CDD_DBRange10" = 28   $ IP Non-Tech
 "CDD_DBRange7" = 28   $ IP Non-Tech
 "CDD_DBRange8" = 28   $ IP Non-Tech
 "CDD_DBRange9" = 30   $ IP Non-Tech
 "CDD_Day10" = 15   $ IP Non-Tech
 "CDD_Day7" = 16   $ IP Non-Tech
 "CDD_Day8" = 20   $ IP Non-Tech
 "CDD_Day9" = 17   $ IP Non-Tech
 "CDD_HrHi10" = 16   $ IP Non-Tech
 "CDD_HrHi7" = 18   $ IP Non-Tech
 "CDD_HrHi8" = 18   $ IP Non-Tech
 "CDD_HrHi9" = 15   $ IP Non-Tech
 "CDD_HrLo10" = 5   $ IP Non-Tech
 "CDD_HrLo7" = 6   $ IP Non-Tech
 "CDD_HrLo8" = 7   $ IP Non-Tech
 "CDD_HrLo9" = 3   $ IP Non-Tech
 "CDD_WB10" = 62.19377518   $ IP Non-Tech
 "CDD_WB7" = 72.76699829   $ IP Non-Tech
 "CDD_WB8" = 69.69030762   $ IP Non-Tech
 "CDD_WB9" = 71.78777313   $ IP Non-Tech
 "CEIR_fPLR_Hot" = SpltAC1Sp_CEIR_fPLR_Hot   $ Msr (Var)TechID: PreNResSplitAC-45to-PENo
 "CEIR_fPLR_Mod" = SpltAC1Sp_CEIR_fPLR_Mod   $ Msr (Var)TechID: PreNResSplitAC-45to-PENo
 "CEIR_fPLR_Tem" = SpltAC1Sp_CEIR_fPLR_Tem   $ Msr (Var)TechID: PreNResSplitAC-45to-PENo
 "CLoss_fPLR_Hot" = SpltAC1Sp_CLoss_fPLR_Hot   $ Msr (Var)TechID: PreNResSplitAC-45to-PENo
 "CLoss_fPLR_Mod" = SpltAC1Sp_CLoss_fPLR_Mod   $ Msr (Var)TechID: PreNResSplitAC-45to-PENo
 "CLoss_fPLR_Tem" = SpltAC1Sp_CLoss_fPLR_Tem   $ Msr (Var)TechID: PreNResSplitAC-45to-PENo
 "COP47" = 0   $ Msr (Var)TechID: PreNResSplitAC-45to-PENo
 "CZ_Category" = Mod   $ IP Non-Tech
 "CapRange" = Any   $ Msr (Var)TechID: PreNResSplitAC-45to-PENo
 "CfmPerBtuh" = 0.0321   $ Msr (Var)TechID: PreNResSplitAC-45to-PENo
 "ChwVintEconoFlag" = 1   $ IP Non-Tech
 "ClCap_fT" = SpltAC1Sp_ClCap_fT   $ Msr (Var)TechID: PreNResSplitAC-45to-PENo
 "ClSH_fT" = SpltAC1Sp_ClSH_fT   $ Msr (Var)TechID: PreNResSplitAC-45to-PENo
 "CoilBF" = 0.12   $ Msr (Var)TechID: PreNResSplitAC-45to-PENo
 "CompRoomData_EWSF" = 5   $ IP Non-Tech
 "CompRoomData_LWSF" = 1.2   $ IP Non-Tech
 "CondWPerBtuh" = 0   $ Msr (Var)TechID: PreNResSplitAC-45to-PENo
 "Conference_EWSF" = 1   $ IP Non-Tech
 "Conference_LWSF" = 1.4   $ IP Non-Tech
 "CoolSensCap" = 0.744   $ Msr (Var)TechID: PreNResSplitAC-45to-PENo
 "CoolSetT" = 45   $ IP Non-Tech
 "CoolType" = DX   $ IP Non-Tech
 "CoolingEIR" = 0.29437   $ Msr (Var)TechID: PreNResSplitAC-45to-PENo
 "CopyRoom_EWSF" = 1.5   $ IP Non-Tech
 "CopyRoom_LWSF" = 1.3   $ IP Non-Tech
 "CrnkEIR" = 0.0029437   $ Msr (Var)TechID: PreNResSplitAC-45to-PENo
 "CrnkMaxT" = 50   $ Msr (Var)TechID: PreNResSplitAC-45to-PENo
 "DXType" = SplitSEER   $ Msr (Var)TechID: PreNResSplitAC-45to-PENo
 "DesCoolT" = 75   $ IP Non-Tech
 "DesHeatT" = 73   $ IP Non-Tech
 "EER" = 9.799295775   $ Msr (Var)TechID: PreNResSplitAC-45to-PENo
 "EIR_fT" = SpltAC1Sp_EIR_fT   $ Msr (Var)TechID: PreNResSplitAC-45to-PENo
 "EconoCtrl" = FIXED   $ Msr (Multi)TechID: PreNResSplitAC-45to-PENo
 "EconoEnthLimit" = 28   $ IP Non-Tech
 "EconoTempLimit" = 75   $ IP Non-Tech
 "Elevation" = 335   $ IP Non-Tech
 "FanEirPlr" = TwoSpeedFan   $ Msr (Var)TechID: PreNResSplitAC-45to-PENo
 "FanWPerCfm" = 0.365   $ Msr (Var)TechID: PreNResSplitAC-45to-PENo
 "HDD_CloudAmt1" = 0   $ IP Non-Tech
 "HDD_DBHi1" = 40.29372406   $ IP Non-Tech
 "HDD_DBRange1" = 8   $ IP Non-Tech
 "HDD_Day1" = 15   $ IP Non-Tech
 "HDD_HrHi1" = 22   $ IP Non-Tech
 "HDD_HrLo1" = 7   $ IP Non-Tech
 "HDD_WB1" = 38.2   $ IP Non-Tech
 "HDD_WindSpd1" = 10.4   $ IP Non-Tech
 "HIR_fT" = 0   $ Msr (Var)TechID: PreNResSplitAC-45to-PENo
 "HSPF" = 0   $ Msr (Var)TechID: PreNResSplitAC-45to-PENo
 "Hall_EWSF" = 0.2   $ IP Non-Tech
 "Hall_LWSF" = 0.6   $ IP Non-Tech
 "HeatSrc" = FURNACE   $ IP Non-Tech
 "HeatSrcTU" = HEAT-PUMP   $ IP Non-Tech
 "HeatType" = GasFurn   $ IP Non-Tech
 "HeatTypeTU" = HEAT-PUMP   $ IP Non-Tech
 "HtCap_fT" = 0   $ Msr (Var)TechID: PreNResSplitAC-45to-PENo
 "HtCoolCapRatio" = 0   $ Msr (Var)TechID: PreNResSplitAC-45to-PENo
 "HtgEIR" = 0   $ Msr (Var)TechID: PreNResSplitAC-45to-PENo
 "IndoorFanMode" = CONTINUOUS   $ IP Non-Tech
 "KT_TransferAir" = No   $ IP Non-Tech
 "Latitude" = 36.8   $ IP Non-Tech
 "LobbyWaiting_EWSF" = 0.5   $ IP Non-Tech
 "LobbyWaiting_LWSF" = 1.3   $ IP Non-Tech
 "Longitude" = 119.7   $ IP Non-Tech
 "LowSpdCapRatio" = 1   $ Msr (Var)TechID: PreNResSplitAC-45to-PENo
 "LowSpdCfmRatio" = 1   $ Msr (Var)TechID: PreNResSplitAC-45to-PENo
 "MZFanMechEff" = 0.58   $ IP Non-Tech
 "MZHasRetFan" = FALSE   $ IP Non-Tech
 "MZ_RFanWPerCfm" = 0.33   $ IP Non-Tech
 "MZ_SFanWPerCfm" = 0.75   $ IP Non-Tech
 "MZ_SupFanStatic" = 2.25   $ IP Non-Tech
 "MaxOAFrac" = 1   $ Msr (Multi)TechID: PreNResSplitAC-45to-PENo
 "MaxSupT_MZ" = 100   $ IP Non-Tech
 "MaxSupT_SZ" = 100   $ IP Non-Tech
 "MaxSupT_TU" = 90   $ IP Non-Tech
 "MechElecRoom_EWSF" = 0.2   $ IP Non-Tech
 "MechElecRoom_LWSF" = 0.7   $ IP Non-Tech
 "MinCfmPerSF" = 0.4   $ IP Non-Tech
 "MinSupT" = 55   $ IP Non-Tech
 "NumStages" = 1   $ Msr (Var)TechID: PreNResSplitAC-45to-PENo
 "OccCoolT" = 76   $ IP Non-Tech
 "OccHeatT" = 72   $ IP Non-Tech
 "OfficeOpen_EWSF" = 1.5   $ IP Non-Tech
 "OfficeOpen_LWSF" = 1.2   $ IP Non-Tech
 "OfficeSmall_EWSF" = 1.5   $ IP Non-Tech
 "OfficeSmall_LWSF" = 1.3   $ IP Non-Tech
 "PkgDxVintEconoFlag" = 0   $ IP Non-Tech
 "Restroom_EWSF" = 0.2   $ IP Non-Tech
 "Restroom_LWSF" = 0.6   $ IP Non-Tech
 "SEER" = 11.5   $ Msr (Var)TechID: PreNResSplitAC-45to-PENo
 "SZFanMechEff" = 0.58   $ IP Non-Tech
 "SZHasRetFan" = FALSE   $ IP Non-Tech
 "SZ_Is_2Spd" = FALSE   $ IP Non-Tech
 "SZ_SFanWPerCfm" = 0.46   $ IP Non-Tech
 "SZ_SupFanStatic" = 0.75   $ IP Non-Tech
 "Sector" = Any   $ Msr (Var)TechID: PreNResSplitAC-45to-PENo
 "StorageSmlCond_EWSF" = 0.2   $ IP Non-Tech
 "StorageSmlCond_LWSF" = 0.6   $ IP Non-Tech
 "SubType" = AC   $ Msr (Var)TechID: PreNResSplitAC-45to-PENo
 "T24GlzTbl" = CZTbl   $ IP Non-Tech
 "TermUnitFanMechEff" = 1   $ IP Non-Tech
 "TermUnitFanMode" = INTERMITTENT   $ IP Non-Tech
 "TotCoolCap" = 34895   $ Msr (Var)TechID: PreNResSplitAC-45to-PENo
 "TwrSetpt" = 82.7   $ IP Non-Tech
 "UnocCoolT" = 86   $ IP Non-Tech
 "UnocHeatT" = 62   $ IP Non-Tech
 "UseEconoVintApplic" = FALSE   $ Msr (Multi)TechID: PreNResSplitAC-45to-PENo
 "WlhpVintEconoFlag" = 0   $ IP Non-Tech
 "DuctDT" = 1   $ IP Tech: ComDuctInsul-1
 "DuctAirLoss" = 0   $ IP Tech: ComDuctLeak-0
 "DuctLossOAFrac" = 0   $ IP Tech: ComDuctLeak-0
 "ComRoofInsCalc" = FromUo   $ IP Tech: ComRoofIns-WFrm-0.06
 "ComRoofInsR" = -999   $ IP Tech: ComRoofIns-WFrm-0.06
 "ComRoofUo" = 0.06   $ IP Tech: ComRoofIns-WFrm-0.06
 "ComEWInsCalc" = FromUo   $ IP Tech: ComWallIns-WFrm-0.08
 "ComEWInsR" = -999   $ IP Tech: ComWallIns-WFrm-0.08
 "ComEWUo" = 0.08   $ IP Tech: ComWallIns-WFrm-0.08
 "ComN_SHGC" = 0.47   $ IP Tech: NResWin-ComN-0.47-0.47
 "ComN_UFactor" = 0.47   $ IP Tech: NResWin-ComN-0.47-0.47
 "ComN_VisTrans" = 0.75   $ IP Tech: NResWin-ComN-0.47-0.47
 "ComN_WinCode" = G2633   $ IP Tech: NResWin-ComN-0.47-0.47
 "ComN_WinFrmFrac" = 0.17   $ IP Tech: NResWin-ComN-0.47-0.47
 "ComN_WinFrmU" = 0.3   $ IP Tech: NResWin-ComN-0.47-0.47
 "ComO_SHGC" = 0.31   $ IP Tech: NResWin-ComO-0.47-0.31
 "ComO_UFactor" = 0.47   $ IP Tech: NResWin-ComO-0.47-0.31
 "ComO_VisTrans" = 0.44   $ IP Tech: NResWin-ComO-0.47-0.31
 "ComO_WinCode" = G2637   $ IP Tech: NResWin-ComO-0.47-0.31
 "ComO_WinFrmFrac" = 0.17   $ IP Tech: NResWin-ComO-0.47-0.31
 "ComO_WinFrmU" = 0.3   $ IP Tech: NResWin-ComO-0.47-0.31
 "LtgMsrApplic" = ALL   $ IP Tech: NonResLtgRefPre
 "LtgSav_CFL" = 0   $ IP Tech: NonResLtgRefPre
 "LtgSav_EX" = 0   $ IP Tech: NonResLtgRefPre
 "LtgSav_HB" = 0   $ IP Tech: NonResLtgRefPre
 "LtgSav_LF" = 0   $ IP Tech: NonResLtgRefPre
 "LtgSav_SP" = 0   $ IP Tech: NonResLtgRefPre
 "CEIR_fPLR" = PSZ65to135_CEIR_fPLR   $ IP Tech: PkgAC1SpH-65to135-E10
 "CLoss_fPLR" = PSZ65to135_CLoss_fPLR   $ IP Tech: PkgAC1SpH-65to135-E10
 "COP" = -1   $ IP Tech: PkgAC1SpH-65to135-E10
 "HtgFuel" = Gas   $ IP Tech: PkgAC1SpH-65to135-E10
 "IEER" = 11.87   $ IP Tech: PkgAC1SpH-65to135-E10
 "NominalCap" = 15   $ IP Tech: PkgAC1SpH-65to135-E10
 "RatedEER" = 10   $ IP Tech: PkgAC1SpH-65to135-E10
 "RatedSupMtrClass" = HiEff   $ IP Tech: PkgAC1SpH-65to135-E10
 "SizeRange" = 65to135   $ IP Tech: PkgAC1SpH-65to135-E10
 "SupMotEff" = 0.84   $ IP Tech: PkgAC1SpH-65to135-E10
 "Tier" = 0   $ IP Tech: PkgAC1SpH-65to135-E10
 "FanPwrMult" = 1   $ IP Tech: PkgFurn-0.80AFUE
 "FurnAFUE" = 0.8   $ IP Tech: PkgFurn-0.80AFUE
 "FurnEt" = 0.82   $ IP Tech: PkgFurn-0.80AFUE
 "FurnaceAuxKW" = 0.1   $ IP Tech: PkgFurn-0.80AFUE
 "HIR_fPLR" = Furnace-HIR-fPLR   $ IP Tech: PkgFurn-0.80AFUE
 "VSM" = FALSE   $ IP Tech: PkgFurn-0.80AFUE
 "BFMult" = 1   $ IP Tech: RefgChg-NRes-Std
 "CoolEirMult" = 1   $ IP Tech: RefgChg-NRes-Std
 "SensCoolCapMult" = 1   $ IP Tech: RefgChg-NRes-Std
 "TotCoolCapMult" = 1   $ IP Tech: RefgChg-NRes-Std
 "AltAdjFactor" = 1.012438   $ Sizing
 "CAssFlo_L_Break_CZn" = 514.5579   $ Sizing
 "CAssFlo_L_CompDC_CZn" = 160.6527   $ Sizing
 "CAssFlo_L_Conf_CZn" = 295.1456   $ Sizing
 "CAssFlo_L_CopyRm_CZn" = 106.9689   $ Sizing
 "CAssFlo_L_Hall_EZn" = 125.6008   $ Sizing
 "CAssFlo_L_Hall_NZn" = 83.15191   $ Sizing
 "CAssFlo_L_Hall_SZn" = 124.5157   $ Sizing
 "CAssFlo_L_Hall_WZn" = 138.217   $ Sizing
 "CAssFlo_L_LobWait_EZn" = 296.8305   $ Sizing
 "CAssFlo_L_LobWait_NZn" = 220.004   $ Sizing
 "CAssFlo_L_LobWait_SZn" = 310.8855   $ Sizing
 "CAssFlo_L_LobWait_WZn" = 350.5569   $ Sizing
 "CAssFlo_L_MechElec_CZn" = 92.71536   $ Sizing
 "CAssFlo_L_OfficeOpn_CZn" = 74.93173   $ Sizing
 "CAssFlo_L_OfficeOpn_EZn" = 530.8243   $ Sizing
 "CAssFlo_L_OfficeOpn_NZn" = 422.8398   $ Sizing
 "CAssFlo_L_OfficeOpn_SZn" = 531.1362   $ Sizing
 "CAssFlo_L_OfficeOpn_WZn" = 596.4559   $ Sizing
 "CAssFlo_L_OfficeSm_EZn" = 445.5643   $ Sizing
 "CAssFlo_L_OfficeSm_NZn" = 332.7402   $ Sizing
 "CAssFlo_L_OfficeSm_SZn" = 451.1855   $ Sizing
 "CAssFlo_L_OfficeSm_WZn" = 505.5047   $ Sizing
 "CAssFlo_L_Restrm_CZn" = 97.80637   $ Sizing
 "CAssFlo_L_StorSm_CZn" = 40.75582   $ Sizing
 "CAssFlo_L_StorSm_EZn" = 124.4113   $ Sizing
 "CAssFlo_L_StorSm_NZn" = 86.53393   $ Sizing
 "CAssFlo_L_StorSm_SZn" = 123.937   $ Sizing
 "CAssFlo_L_StorSm_WZn" = 135.7169   $ Sizing
 "CAssFlo_T_Conf_CZn" = 285.4804   $ Sizing
 "CAssFlo_T_Hall_EZn" = 140.1241   $ Sizing
 "CAssFlo_T_Hall_NZn" = 90.92408   $ Sizing
 "CAssFlo_T_Hall_SZn" = 139.1499   $ Sizing
 "CAssFlo_T_Hall_WZn" = 153.9792   $ Sizing
 "CAssFlo_T_OfficeOpn_CZn" = 71.18307   $ Sizing
 "CAssFlo_T_OfficeOpn_EZn" = 569.5022   $ Sizing
 "CAssFlo_T_OfficeOpn_NZn" = 446.1981   $ Sizing
 "CAssFlo_T_OfficeOpn_SZn" = 574.1513   $ Sizing
 "CAssFlo_T_OfficeOpn_WZn" = 628.0868   $ Sizing
 "CAssFlo_T_OfficeSm_EZn" = 479.9037   $ Sizing
 "CAssFlo_T_OfficeSm_NZn" = 354.6343   $ Sizing
 "CAssFlo_T_OfficeSm_SZn" = 487.7812   $ Sizing
 "CAssFlo_T_OfficeSm_WZn" = 533.3322   $ Sizing
 "CAssFlo_T_Restrm_CZn" = 139.7122   $ Sizing
 "CAssFlo_T_StorSm_EZn" = 145.6397   $ Sizing
 "CAssFlo_T_StorSm_NZn" = 100.6475   $ Sizing
 "CAssFlo_T_StorSm_SZn" = 145.3717   $ Sizing
 "CAssFlo_T_StorSm_WZn" = 162.4802   $ Sizing
 "CHRtFlo_Sys_L_Break_C" = 514.5579   $ Sizing
 "CHRtFlo_Sys_L_CompDC_C" = 179.3869   $ Sizing
 "CHRtFlo_Sys_L_Conf_C" = 295.1456   $ Sizing
 "CHRtFlo_Sys_L_CopyRm_C" = 106.9689   $ Sizing
 "CHRtFlo_Sys_L_Hall_E" = 144.7838   $ Sizing
 "CHRtFlo_Sys_L_Hall_N" = 83.15191   $ Sizing
 "CHRtFlo_Sys_L_Hall_S" = 142.4205   $ Sizing
 "CHRtFlo_Sys_L_Hall_W" = 144.5076   $ Sizing
 "CHRtFlo_Sys_L_LobWait_E" = 334.8765   $ Sizing
 "CHRtFlo_Sys_L_LobWait_N" = 220.004   $ Sizing
 "CHRtFlo_Sys_L_LobWait_S" = 328.761   $ Sizing
 "CHRtFlo_Sys_L_LobWait_W" = 350.5569   $ Sizing
 "CHRtFlo_Sys_L_MechElec_C" = 116.3129   $ Sizing
 "CHRtFlo_Sys_L_OfficeOpn_C" = 88.21664   $ Sizing
 "CHRtFlo_Sys_L_OfficeOpn_E" = 603.4734   $ Sizing
 "CHRtFlo_Sys_L_OfficeOpn_N" = 422.8398   $ Sizing
 "CHRtFlo_Sys_L_OfficeOpn_S" = 571.2368   $ Sizing
 "CHRtFlo_Sys_L_OfficeOpn_W" = 596.4559   $ Sizing
 "CHRtFlo_Sys_L_OfficeSm_E" = 515.509   $ Sizing
 "CHRtFlo_Sys_L_OfficeSm_N" = 332.7402   $ Sizing
 "CHRtFlo_Sys_L_OfficeSm_S" = 500.3597   $ Sizing
 "CHRtFlo_Sys_L_OfficeSm_W" = 510.3421   $ Sizing
 "CHRtFlo_Sys_L_Restrm_C" = 110.6846   $ Sizing
 "CHRtFlo_Sys_L_StorSm_C" = 46.87918   $ Sizing
 "CHRtFlo_Sys_L_StorSm_E" = 141.9773   $ Sizing
 "CHRtFlo_Sys_L_StorSm_N" = 86.53393   $ Sizing
 "CHRtFlo_Sys_L_StorSm_S" = 135.6584   $ Sizing
 "CHRtFlo_Sys_L_StorSm_W" = 135.7169   $ Sizing
 "CHRtFlo_Sys_T_Conf_C" = 285.4804   $ Sizing
 "CHRtFlo_Sys_T_Hall_E" = 148.5016   $ Sizing
 "CHRtFlo_Sys_T_Hall_N" = 90.92407   $ Sizing
 "CHRtFlo_Sys_T_Hall_S" = 148.6479   $ Sizing
 "CHRtFlo_Sys_T_Hall_W" = 153.9792   $ Sizing
 "CHRtFlo_Sys_T_OfficeOpn_C" = 76.57701   $ Sizing
 "CHRtFlo_Sys_T_OfficeOpn_E" = 583.9835   $ Sizing
 "CHRtFlo_Sys_T_OfficeOpn_N" = 446.1981   $ Sizing
 "CHRtFlo_Sys_T_OfficeOpn_S" = 578.642   $ Sizing
 "CHRtFlo_Sys_T_OfficeOpn_W" = 628.0868   $ Sizing
 "CHRtFlo_Sys_T_OfficeSm_E" = 503.6269   $ Sizing
 "CHRtFlo_Sys_T_OfficeSm_N" = 354.6343   $ Sizing
 "CHRtFlo_Sys_T_OfficeSm_S" = 510.0694   $ Sizing
 "CHRtFlo_Sys_T_OfficeSm_W" = 533.3322   $ Sizing
 "CHRtFlo_Sys_T_Restrm_C" = 150.3489   $ Sizing
 "CHRtFlo_Sys_T_StorSm_E" = 148.8361   $ Sizing
 "CHRtFlo_Sys_T_StorSm_N" = 100.6475   $ Sizing
 "CHRtFlo_Sys_T_StorSm_S" = 145.3717   $ Sizing
 "CHRtFlo_Sys_T_StorSm_W" = 162.4802   $ Sizing
 "CRtdFlo_Sys_L_Break_C" = 514.5579   $ Sizing
 "CRtdFlo_Sys_L_CompDC_C" = 160.6527   $ Sizing
 "CRtdFlo_Sys_L_Conf_C" = 295.1456   $ Sizing
 "CRtdFlo_Sys_L_CopyRm_C" = 106.9689   $ Sizing
 "CRtdFlo_Sys_L_Hall_E" = 125.6008   $ Sizing
 "CRtdFlo_Sys_L_Hall_N" = 83.15191   $ Sizing
 "CRtdFlo_Sys_L_Hall_S" = 124.5157   $ Sizing
 "CRtdFlo_Sys_L_Hall_W" = 138.217   $ Sizing
 "CRtdFlo_Sys_L_LobWait_E" = 296.8305   $ Sizing
 "CRtdFlo_Sys_L_LobWait_N" = 220.004   $ Sizing
 "CRtdFlo_Sys_L_LobWait_S" = 310.8855   $ Sizing
 "CRtdFlo_Sys_L_LobWait_W" = 350.5569   $ Sizing
 "CRtdFlo_Sys_L_MechElec_C" = 92.71536   $ Sizing
 "CRtdFlo_Sys_L_OfficeOpn_C" = 74.93173   $ Sizing
 "CRtdFlo_Sys_L_OfficeOpn_E" = 530.8243   $ Sizing
 "CRtdFlo_Sys_L_OfficeOpn_N" = 422.8398   $ Sizing
 "CRtdFlo_Sys_L_OfficeOpn_S" = 531.1362   $ Sizing
 "CRtdFlo_Sys_L_OfficeOpn_W" = 596.4559   $ Sizing
 "CRtdFlo_Sys_L_OfficeSm_E" = 445.5643   $ Sizing
 "CRtdFlo_Sys_L_OfficeSm_N" = 332.7402   $ Sizing
 "CRtdFlo_Sys_L_OfficeSm_S" = 451.1855   $ Sizing
 "CRtdFlo_Sys_L_OfficeSm_W" = 505.5047   $ Sizing
 "CRtdFlo_Sys_L_Restrm_C" = 97.80637   $ Sizing
 "CRtdFlo_Sys_L_StorSm_C" = 40.75582   $ Sizing
 "CRtdFlo_Sys_L_StorSm_E" = 124.4113   $ Sizing
 "CRtdFlo_Sys_L_StorSm_N" = 86.53393   $ Sizing
 "CRtdFlo_Sys_L_StorSm_S" = 123.937   $ Sizing
 "CRtdFlo_Sys_L_StorSm_W" = 135.7169   $ Sizing
 "CRtdFlo_Sys_T_Conf_C" = 285.4804   $ Sizing
 "CRtdFlo_Sys_T_Hall_E" = 140.1241   $ Sizing
 "CRtdFlo_Sys_T_Hall_N" = 90.92407   $ Sizing
 "CRtdFlo_Sys_T_Hall_S" = 139.1499   $ Sizing
 "CRtdFlo_Sys_T_Hall_W" = 153.9792   $ Sizing
 "CRtdFlo_Sys_T_OfficeOpn_C" = 71.18307   $ Sizing
 "CRtdFlo_Sys_T_OfficeOpn_E" = 569.5022   $ Sizing
 "CRtdFlo_Sys_T_OfficeOpn_N" = 446.1981   $ Sizing
 "CRtdFlo_Sys_T_OfficeOpn_S" = 574.1513   $ Sizing
 "CRtdFlo_Sys_T_OfficeOpn_W" = 628.0868   $ Sizing
 "CRtdFlo_Sys_T_OfficeSm_E" = 479.9037   $ Sizing
 "CRtdFlo_Sys_T_OfficeSm_N" = 354.6343   $ Sizing
 "CRtdFlo_Sys_T_OfficeSm_S" = 487.7812   $ Sizing
 "CRtdFlo_Sys_T_OfficeSm_W" = 533.3322   $ Sizing
 "CRtdFlo_Sys_T_Restrm_C" = 139.7122   $ Sizing
 "CRtdFlo_Sys_T_StorSm_E" = 145.6397   $ Sizing
 "CRtdFlo_Sys_T_StorSm_N" = 100.6475   $ Sizing
 "CRtdFlo_Sys_T_StorSm_S" = 145.3717   $ Sizing
 "CRtdFlo_Sys_T_StorSm_W" = 162.4802   $ Sizing
 "CSupFlo_Sys_L_Break_C" = 514.5579   $ Sizing
 "CSupFlo_Sys_L_CompDC_C" = 160.6527   $ Sizing
 "CSupFlo_Sys_L_Conf_C" = 295.1456   $ Sizing
 "CSupFlo_Sys_L_CopyRm_C" = 106.9689   $ Sizing
 "CSupFlo_Sys_L_Hall_E" = 125.6008   $ Sizing
 "CSupFlo_Sys_L_Hall_N" = 83.15191   $ Sizing
 "CSupFlo_Sys_L_Hall_S" = 124.5157   $ Sizing
 "CSupFlo_Sys_L_Hall_W" = 138.217   $ Sizing
 "CSupFlo_Sys_L_LobWait_E" = 296.8305   $ Sizing
 "CSupFlo_Sys_L_LobWait_N" = 220.004   $ Sizing
 "CSupFlo_Sys_L_LobWait_S" = 310.8855   $ Sizing
 "CSupFlo_Sys_L_LobWait_W" = 350.5569   $ Sizing
 "CSupFlo_Sys_L_MechElec_C" = 92.71536   $ Sizing
 "CSupFlo_Sys_L_OfficeOpn_C" = 74.93173   $ Sizing
 "CSupFlo_Sys_L_OfficeOpn_E" = 530.8243   $ Sizing
 "CSupFlo_Sys_L_OfficeOpn_N" = 422.8398   $ Sizing
 "CSupFlo_Sys_L_OfficeOpn_S" = 531.1362   $ Sizing
 "CSupFlo_Sys_L_OfficeOpn_W" = 596.4559   $ Sizing
 "CSupFlo_Sys_L_OfficeSm_E" = 445.5643   $ Sizing
 "CSupFlo_Sys_L_OfficeSm_N" = 332.7402   $ Sizing
 "CSupFlo_Sys_L_OfficeSm_S" = 451.1855   $ Sizing
 "CSupFlo_Sys_L_OfficeSm_W" = 505.5047   $ Sizing
 "CSupFlo_Sys_L_Restrm_C" = 97.80637   $ Sizing
 "CSupFlo_Sys_L_StorSm_C" = 40.75582   $ Sizing
 "CSupFlo_Sys_L_StorSm_E" = 124.4113   $ Sizing
 "CSupFlo_Sys_L_StorSm_N" = 86.53393   $ Sizing
 "CSupFlo_Sys_L_StorSm_S" = 123.937   $ Sizing
 "CSupFlo_Sys_L_StorSm_W" = 135.7169   $ Sizing
 "CSupFlo_Sys_T_Conf_C" = 285.4804   $ Sizing
 "CSupFlo_Sys_T_Hall_E" = 140.1241   $ Sizing
 "CSupFlo_Sys_T_Hall_N" = 90.92407   $ Sizing
 "CSupFlo_Sys_T_Hall_S" = 139.1499   $ Sizing
 "CSupFlo_Sys_T_Hall_W" = 153.9792   $ Sizing
 "CSupFlo_Sys_T_OfficeOpn_C" = 71.18307   $ Sizing
 "CSupFlo_Sys_T_OfficeOpn_E" = 569.5022   $ Sizing
 "CSupFlo_Sys_T_OfficeOpn_N" = 446.1981   $ Sizing
 "CSupFlo_Sys_T_OfficeOpn_S" = 574.1513   $ Sizing
 "CSupFlo_Sys_T_OfficeOpn_W" = 628.0868   $ Sizing
 "CSupFlo_Sys_T_OfficeSm_E" = 479.9037   $ Sizing
 "CSupFlo_Sys_T_OfficeSm_N" = 354.6343   $ Sizing
 "CSupFlo_Sys_T_OfficeSm_S" = 487.7812   $ Sizing
 "CSupFlo_Sys_T_OfficeSm_W" = 533.3322   $ Sizing
 "CSupFlo_Sys_T_Restrm_C" = 139.7122   $ Sizing
 "CSupFlo_Sys_T_StorSm_E" = 145.6397   $ Sizing
 "CSupFlo_Sys_T_StorSm_N" = 100.6475   $ Sizing
 "CSupFlo_Sys_T_StorSm_S" = 145.3717   $ Sizing
 "CSupFlo_Sys_T_StorSm_W" = 162.4802   $ Sizing
 "ClCap_Sys_L_Break_C" = 17425.25   $ Sizing
 "ClCap_Sys_L_CompDC_C" = 5440.423   $ Sizing
 "ClCap_Sys_L_Conf_C" = 12720.86   $ Sizing
 "ClCap_Sys_L_CopyRm_C" = 3622.448   $ Sizing
 "ClCap_Sys_L_Hall_E" = 4253.409   $ Sizing
 "ClCap_Sys_L_Hall_N" = 2815.898   $ Sizing
 "ClCap_Sys_L_Hall_S" = 4216.661   $ Sizing
 "ClCap_Sys_L_Hall_W" = 4680.65   $ Sizing
 "ClCap_Sys_L_LobWait_E" = 10052.02   $ Sizing
 "ClCap_Sys_L_LobWait_N" = 7450.325   $ Sizing
 "ClCap_Sys_L_LobWait_S" = 10527.98   $ Sizing
 "ClCap_Sys_L_LobWait_W" = 11871.44   $ Sizing
 "ClCap_Sys_L_MechElec_C" = 3139.76   $ Sizing
 "ClCap_Sys_L_OfficeOpn_C" = 2537.526   $ Sizing
 "ClCap_Sys_L_OfficeOpn_E" = 17976.1   $ Sizing
 "ClCap_Sys_L_OfficeOpn_N" = 14319.26   $ Sizing
 "ClCap_Sys_L_OfficeOpn_S" = 17986.66   $ Sizing
 "ClCap_Sys_L_OfficeOpn_W" = 20198.68   $ Sizing
 "ClCap_Sys_L_OfficeSm_E" = 15088.81   $ Sizing
 "ClCap_Sys_L_OfficeSm_N" = 11268.08   $ Sizing
 "ClCap_Sys_L_OfficeSm_S" = 15279.17   $ Sizing
 "ClCap_Sys_L_OfficeSm_W" = 17118.66   $ Sizing
 "ClCap_Sys_L_Restrm_C" = 3312.164   $ Sizing
 "ClCap_Sys_L_StorSm_C" = 1380.176   $ Sizing
 "ClCap_Sys_L_StorSm_E" = 4213.127   $ Sizing
 "ClCap_Sys_L_StorSm_N" = 2930.428   $ Sizing
 "ClCap_Sys_L_StorSm_S" = 4197.065   $ Sizing
 "ClCap_Sys_L_StorSm_W" = 4595.984   $ Sizing
 "ClCap_Sys_T_Conf_C" = 12304.28   $ Sizing
 "ClCap_Sys_T_Hall_E" = 4745.231   $ Sizing
 "ClCap_Sys_T_Hall_N" = 3079.098   $ Sizing
 "ClCap_Sys_T_Hall_S" = 4712.241   $ Sizing
 "ClCap_Sys_T_Hall_W" = 5214.428   $ Sizing
 "ClCap_Sys_T_OfficeOpn_C" = 2410.579   $ Sizing
 "ClCap_Sys_T_OfficeOpn_E" = 19285.91   $ Sizing
 "ClCap_Sys_T_OfficeOpn_N" = 15110.28   $ Sizing
 "ClCap_Sys_T_OfficeOpn_S" = 19443.35   $ Sizing
 "ClCap_Sys_T_OfficeOpn_W" = 21269.85   $ Sizing
 "ClCap_Sys_T_OfficeSm_E" = 16251.7   $ Sizing
 "ClCap_Sys_T_OfficeSm_N" = 12009.51   $ Sizing
 "ClCap_Sys_T_OfficeSm_S" = 16518.47   $ Sizing
 "ClCap_Sys_T_OfficeSm_W" = 18061.03   $ Sizing
 "ClCap_Sys_T_Restrm_C" = 4731.283   $ Sizing
 "ClCap_Sys_T_StorSm_E" = 4932.015   $ Sizing
 "ClCap_Sys_T_StorSm_N" = 3408.378   $ Sizing
 "ClCap_Sys_T_StorSm_S" = 4922.942   $ Sizing
 "ClCap_Sys_T_StorSm_W" = 5502.311   $ Sizing
 "HtCap_Sys_L_Break_C" = -28620.27   $ Sizing
 "HtCap_Sys_L_CompDC_C" = -6414.044   $ Sizing
 "HtCap_Sys_L_Conf_C" = -17048.1   $ Sizing
 "HtCap_Sys_L_CopyRm_C" = -5897.723   $ Sizing
 "HtCap_Sys_L_Hall_E" = -5101.337   $ Sizing
 "HtCap_Sys_L_Hall_N" = -3124.25   $ Sizing
 "HtCap_Sys_L_Hall_S" = -4893.131   $ Sizing
 "HtCap_Sys_L_Hall_W" = -4995.376   $ Sizing
 "HtCap_Sys_L_LobWait_E" = -12322.56   $ Sizing
 "HtCap_Sys_L_LobWait_N" = -9334.375   $ Sizing
 "HtCap_Sys_L_LobWait_S" = -12139.51   $ Sizing
 "HtCap_Sys_L_LobWait_W" = -12975.77   $ Sizing
 "HtCap_Sys_L_MechElec_C" = -4460.136   $ Sizing
 "HtCap_Sys_L_OfficeOpn_C" = -3317.118   $ Sizing
 "HtCap_Sys_L_OfficeOpn_E" = -21328.54   $ Sizing
 "HtCap_Sys_L_OfficeOpn_N" = -16660.19   $ Sizing
 "HtCap_Sys_L_OfficeOpn_S" = -19926.04   $ Sizing
 "HtCap_Sys_L_OfficeOpn_W" = -21341.48   $ Sizing
 "HtCap_Sys_L_OfficeSm_E" = -17750.61   $ Sizing
 "HtCap_Sys_L_OfficeSm_N" = -12704.55   $ Sizing
 "HtCap_Sys_L_OfficeSm_S" = -16789.88   $ Sizing
 "HtCap_Sys_L_OfficeSm_W" = -17691.25   $ Sizing
 "HtCap_Sys_L_Restrm_C" = -3817.08   $ Sizing
 "HtCap_Sys_L_StorSm_C" = -1835.644   $ Sizing
 "HtCap_Sys_L_StorSm_E" = -5157.524   $ Sizing
 "HtCap_Sys_L_StorSm_N" = -3619.737   $ Sizing
 "HtCap_Sys_L_StorSm_S" = -4939.404   $ Sizing
 "HtCap_Sys_L_StorSm_W" = -5013.494   $ Sizing
 "HtCap_Sys_T_Conf_C" = -17234.08   $ Sizing
 "HtCap_Sys_T_Hall_E" = -5800.496   $ Sizing
 "HtCap_Sys_T_Hall_N" = -3952.4   $ Sizing
 "HtCap_Sys_T_Hall_S" = -5830.979   $ Sizing
 "HtCap_Sys_T_Hall_W" = -6036.425   $ Sizing
 "HtCap_Sys_T_OfficeOpn_C" = -3330.347   $ Sizing
 "HtCap_Sys_T_OfficeOpn_E" = -23759.44   $ Sizing
 "HtCap_Sys_T_OfficeOpn_N" = -19683.14   $ Sizing
 "HtCap_Sys_T_OfficeOpn_S" = -23555.35   $ Sizing
 "HtCap_Sys_T_OfficeOpn_W" = -25753.73   $ Sizing
 "HtCap_Sys_T_OfficeSm_E" = -19393.77   $ Sizing
 "HtCap_Sys_T_OfficeSm_N" = -15286.01   $ Sizing
 "HtCap_Sys_T_OfficeSm_S" = -19944.09   $ Sizing
 "HtCap_Sys_T_OfficeSm_W" = -21118.3   $ Sizing
 "HtCap_Sys_T_Restrm_C" = -5921.732   $ Sizing
 "HtCap_Sys_T_StorSm_E" = -6202.985   $ Sizing
 "HtCap_Sys_T_StorSm_N" = -4841.689   $ Sizing
 "HtCap_Sys_T_StorSm_S" = -6098.699   $ Sizing
 "HtCap_Sys_T_StorSm_W" = -6785.827   $ Sizing
..

##include Templates\OfS_DX_SZ.inp
END ..
COMPUTE ..
STOP ..
