INPUT ..

##fileprefix C:\Users\jglasskatz\MASControl3\
##set1 IsSizing FALSE
##set1 CoolType DX
##set1 HeatType HEAT-PUMP
##set1 EU_HrRepVar 1
##set1 BldgVint 2015
##set1 BldgLoc CZ01

 ##set1 mBFMult 1   $ IP Tech: RefgChg-NRes-Std

PARAMETER
 "AltFactor" = 1.00753   $ IP Non-Tech
 "BldgEconoFlag" = 1   $ IP Non-Tech
 "Break_EWSF" = 1   $ IP Non-Tech
 "Break_LWSF" = 1.1   $ IP Non-Tech
 "CDD_DBHi10" = 65   $ IP Non-Tech
 "CDD_DBHi7" = 68   $ IP Non-Tech
 "CDD_DBHi8" = 66   $ IP Non-Tech
 "CDD_DBHi9" = 77   $ IP Non-Tech
 "CDD_DBRange10" = 17   $ IP Non-Tech
 "CDD_DBRange7" = 11   $ IP Non-Tech
 "CDD_DBRange8" = 10   $ IP Non-Tech
 "CDD_DBRange9" = 29   $ IP Non-Tech
 "CDD_Day10" = 15   $ IP Non-Tech
 "CDD_Day7" = 16   $ IP Non-Tech
 "CDD_Day8" = 20   $ IP Non-Tech
 "CDD_Day9" = 17   $ IP Non-Tech
 "CDD_HrHi10" = 12   $ IP Non-Tech
 "CDD_HrHi7" = 12   $ IP Non-Tech
 "CDD_HrHi8" = 13   $ IP Non-Tech
 "CDD_HrHi9" = 17   $ IP Non-Tech
 "CDD_HrLo10" = 6   $ IP Non-Tech
 "CDD_HrLo7" = 3   $ IP Non-Tech
 "CDD_HrLo8" = 8   $ IP Non-Tech
 "CDD_HrLo9" = 4   $ IP Non-Tech
 "CDD_WB10" = 57.53039551   $ IP Non-Tech
 "CDD_WB7" = 59.29250717   $ IP Non-Tech
 "CDD_WB8" = 60.75350189   $ IP Non-Tech
 "CDD_WB9" = 61.08643341   $ IP Non-Tech
 "CZ_Category" = Tem   $ IP Non-Tech
 "ChwVintEconoFlag" = 1   $ IP Non-Tech
 "CompRoomData_EWSF" = 5   $ IP Non-Tech
 "CompRoomData_LWSF" = 1.05   $ IP Non-Tech
 "Conference_EWSF" = 1   $ IP Non-Tech
 "Conference_LWSF" = 1.4   $ IP Non-Tech
 "CoolSetT" = 45   $ IP Non-Tech
 "CoolType" = DX   $ IP Non-Tech
 "CopyRoom_EWSF" = 1.5   $ IP Non-Tech
 "CopyRoom_LWSF" = 1.3   $ IP Non-Tech
 "DesCoolT" = 75   $ IP Non-Tech
 "DesHeatT" = 73   $ IP Non-Tech
 "EconoEnthLimit" = 28   $ IP Non-Tech
 "EconoTempLimit" = 70   $ IP Non-Tech
 "Elevation" = 203   $ IP Non-Tech
 "HDD_CloudAmt1" = 0   $ IP Non-Tech
 "HDD_DBHi1" = 53   $ IP Non-Tech
 "HDD_DBRange1" = 20   $ IP Non-Tech
 "HDD_Day1" = 15   $ IP Non-Tech
 "HDD_HrHi1" = 14   $ IP Non-Tech
 "HDD_HrLo1" = 6   $ IP Non-Tech
 "HDD_WB1" = 42.3   $ IP Non-Tech
 "HDD_WindSpd1" = 12.7   $ IP Non-Tech
 "Hall_EWSF" = 0.2   $ IP Non-Tech
 "Hall_LWSF" = 0.6   $ IP Non-Tech
 "HeatSrc" = HEAT-PUMP   $ IP Non-Tech
 "HeatSrcTU" = HEAT-PUMP   $ IP Non-Tech
 "HeatType" = HP   $ IP Non-Tech
 "HeatTypeTU" = HEAT-PUMP   $ IP Non-Tech
 "IndoorFanMode" = CONTINUOUS   $ IP Non-Tech
 "KT_TransferAir" = Yes   $ IP Non-Tech
 "Latitude" = 40.8   $ IP Non-Tech
 "LobbyWaiting_EWSF" = 0.5   $ IP Non-Tech
 "LobbyWaiting_LWSF" = 1.3   $ IP Non-Tech
 "Longitude" = 124.2   $ IP Non-Tech
 "LtgMsrApplic" = ALL   $ Msr TechID: NonResLtgRefMsr-EX
 "LtgSav_CFL" = 0   $ Msr TechID: NonResLtgRefMsr-EX
 "LtgSav_EX" = 0.3   $ Msr TechID: NonResLtgRefMsr-EX
 "LtgSav_HB" = 0   $ Msr TechID: NonResLtgRefMsr-EX
 "LtgSav_LF" = 0   $ Msr TechID: NonResLtgRefMsr-EX
 "LtgSav_SP" = 0   $ Msr TechID: NonResLtgRefMsr-EX
 "MZFanMechEff" = 0.58   $ IP Non-Tech
 "MZHasRetFan" = FALSE   $ IP Non-Tech
 "MZ_RFanWPerCfm" = 0.33   $ IP Non-Tech
 "MZ_SFanWPerCfm" = 0.75   $ IP Non-Tech
 "MZ_SupFanStatic" = 2.25   $ IP Non-Tech
 "MaxSupT_MZ" = 90   $ IP Non-Tech
 "MaxSupT_SZ" = 90   $ IP Non-Tech
 "MaxSupT_TU" = 90   $ IP Non-Tech
 "MechElecRoom_EWSF" = 0.2   $ IP Non-Tech
 "MechElecRoom_LWSF" = 0.7   $ IP Non-Tech
 "MinCfmPerSF" = 0.4   $ IP Non-Tech
 "MinSupT" = 55   $ IP Non-Tech
 "OccCoolT" = 76   $ IP Non-Tech
 "OccHeatT" = 72   $ IP Non-Tech
 "OfficeOpen_EWSF" = 1.5   $ IP Non-Tech
 "OfficeOpen_LWSF" = 1.05   $ IP Non-Tech
 "OfficeSmall_EWSF" = 1.5   $ IP Non-Tech
 "OfficeSmall_LWSF" = 1.3   $ IP Non-Tech
 "PkgDxVintEconoFlag" = 1   $ IP Non-Tech
 "Restroom_EWSF" = 0.2   $ IP Non-Tech
 "Restroom_LWSF" = 0.6   $ IP Non-Tech
 "SZFanMechEff" = 0.58   $ IP Non-Tech
 "SZHasRetFan" = FALSE   $ IP Non-Tech
 "SZ_Is_2Spd" = TRUE   $ IP Non-Tech
 "SZ_SFanWPerCfm" = 0.46   $ IP Non-Tech
 "SZ_SupFanStatic" = 0.75   $ IP Non-Tech
 "StorageSmlCond_EWSF" = 0.2   $ IP Non-Tech
 "StorageSmlCond_LWSF" = 0.6   $ IP Non-Tech
 "T24GlzTbl" = TypeTbl   $ IP Non-Tech
 "TermUnitFanMechEff" = 1   $ IP Non-Tech
 "TermUnitFanMode" = INTERMITTENT   $ IP Non-Tech
 "TwrSetpt" = 80   $ IP Non-Tech
 "UnocCoolT" = 86   $ IP Non-Tech
 "UnocHeatT" = 62   $ IP Non-Tech
 "WlhpVintEconoFlag" = 1   $ IP Non-Tech
 "EconoCtrl" = OA-TEMP   $ IP Tech: AirEcono-OATemp
 "MaxOAFrac" = 0.85   $ IP Tech: AirEcono-OATemp
 "UseEconoVintApplic" = FALSE   $ IP Tech: AirEcono-OATemp
 "DuctDT" = 1   $ IP Tech: ComDuctInsul-1
 "DuctAirLoss" = 0   $ IP Tech: ComDuctLeak-0
 "DuctLossOAFrac" = 0   $ IP Tech: ComDuctLeak-0
 "ComRoofInsCalc" = FromUo   $ IP Tech: ComRoofIns-WFrm-0.05
 "ComRoofInsR" = -999   $ IP Tech: ComRoofIns-WFrm-0.05
 "ComRoofUo" = 0.05   $ IP Tech: ComRoofIns-WFrm-0.05
 "ComEWInsCalc" = FromUo   $ IP Tech: ComWallIns-WFrm-0.08
 "ComEWInsR" = -999   $ IP Tech: ComWallIns-WFrm-0.08
 "ComEWUo" = 0.08   $ IP Tech: ComWallIns-WFrm-0.08
 "ComN_SHGC" = 0.25   $ IP Tech: NResWin-ComN-0.36-0.25
 "ComN_UFactor" = 0.36   $ IP Tech: NResWin-ComN-0.36-0.25
 "ComN_VisTrans" = 0.41   $ IP Tech: NResWin-ComN-0.36-0.25
 "ComN_WinCode" = G2668   $ IP Tech: NResWin-ComN-0.36-0.25
 "ComN_WinFrmFrac" = 0.17   $ IP Tech: NResWin-ComN-0.36-0.25
 "ComN_WinFrmU" = 0.3   $ IP Tech: NResWin-ComN-0.36-0.25
 "ComO_SHGC" = 0.25   $ IP Tech: NResWin-ComO-0.36-0.25
 "ComO_UFactor" = 0.36   $ IP Tech: NResWin-ComO-0.36-0.25
 "ComO_VisTrans" = 0.41   $ IP Tech: NResWin-ComO-0.36-0.25
 "ComO_WinCode" = G2668   $ IP Tech: NResWin-ComO-0.36-0.25
 "ComO_WinFrmFrac" = 0.17   $ IP Tech: NResWin-ComO-0.36-0.25
 "ComO_WinFrmU" = 0.3   $ IP Tech: NResWin-ComO-0.36-0.25
 "BF_fFlow" = PSZ65to135_BF_fFlow   $ IP Tech: PkgHP2SpP-65to135-E10.8-C3.3
 "BF_fT" = PSZ65to135_BF_fT   $ IP Tech: PkgHP2SpP-65to135-E10.8-C3.3
 "CEIR_fPLR" = PSZ65to135_CEIR_fPLR   $ IP Tech: PkgHP2SpP-65to135-E10.8-C3.3
 "CLoss_fPLR" = PSZ65to135_CLoss_fPLR   $ IP Tech: PkgHP2SpP-65to135-E10.8-C3.3
 "COP" = 3.3   $ IP Tech: PkgHP2SpP-65to135-E10.8-C3.3
 "COP47" = 3.63   $ IP Tech: PkgHP2SpP-65to135-E10.8-C3.3
 "CfmPerBtuh" = 0.02917   $ IP Tech: PkgHP2SpP-65to135-E10.8-C3.3
 "ClCap_fT" = PSZ65to135_ClCap_fT   $ IP Tech: PkgHP2SpP-65to135-E10.8-C3.3
 "ClSH_fT" = PSZ65to135_ClSH_fT   $ IP Tech: PkgHP2SpP-65to135-E10.8-C3.3
 "CoilBF" = 0.114   $ IP Tech: PkgHP2SpP-65to135-E10.8-C3.3
 "CondWPerBtuh" = 0   $ IP Tech: PkgHP2SpP-65to135-E10.8-C3.3
 "CoolSensCap" = 0.663   $ IP Tech: PkgHP2SpP-65to135-E10.8-C3.3
 "CoolingEIR" = 0.27377   $ IP Tech: PkgHP2SpP-65to135-E10.8-C3.3
 "CrnkEIR" = 0.0027   $ IP Tech: PkgHP2SpP-65to135-E10.8-C3.3
 "CrnkMaxT" = 50   $ IP Tech: PkgHP2SpP-65to135-E10.8-C3.3
 "DXType" = Pkg   $ IP Tech: PkgHP2SpP-65to135-E10.8-C3.3
 "EER" = 10.45   $ IP Tech: PkgHP2SpP-65to135-E10.8-C3.3
 "EIR_fT" = PSZ65to135_EIR_fT   $ IP Tech: PkgHP2SpP-65to135-E10.8-C3.3
 "FanEirPlr" = TwoSpeedFan   $ IP Tech: PkgHP2SpP-65to135-E10.8-C3.3
 "FanWPerCfm" = 0.4   $ IP Tech: PkgHP2SpP-65to135-E10.8-C3.3
 "HIR_fT" = DEFAULT   $ IP Tech: PkgHP2SpP-65to135-E10.8-C3.3
 "HtCap_fT" = DEFAULT   $ IP Tech: PkgHP2SpP-65to135-E10.8-C3.3
 "HtCoolCapRatio" = 0.88   $ IP Tech: PkgHP2SpP-65to135-E10.8-C3.3
 "HtgEIR" = 0.27527   $ IP Tech: PkgHP2SpP-65to135-E10.8-C3.3
 "HtgFuel" = HP   $ IP Tech: PkgHP2SpP-65to135-E10.8-C3.3
 "IEER" = 13.06   $ IP Tech: PkgHP2SpP-65to135-E10.8-C3.3
 "LowSpdCapRatio" = 0.5   $ IP Tech: PkgHP2SpP-65to135-E10.8-C3.3
 "LowSpdCfmRatio" = 0.66   $ IP Tech: PkgHP2SpP-65to135-E10.8-C3.3
 "NominalCap" = 15   $ IP Tech: PkgHP2SpP-65to135-E10.8-C3.3
 "NumStages" = 2   $ IP Tech: PkgHP2SpP-65to135-E10.8-C3.3
 "RatedEER" = 10.8   $ IP Tech: PkgHP2SpP-65to135-E10.8-C3.3
 "RatedSupMtrClass" = Premium   $ IP Tech: PkgHP2SpP-65to135-E10.8-C3.3
 "SizeRange" = 65to135   $ IP Tech: PkgHP2SpP-65to135-E10.8-C3.3
 "SubType" = HP   $ IP Tech: PkgHP2SpP-65to135-E10.8-C3.3
 "SupMotEff" = 0.865   $ IP Tech: PkgHP2SpP-65to135-E10.8-C3.3
 "Tier" = 0   $ IP Tech: PkgHP2SpP-65to135-E10.8-C3.3
 "TotCoolCap" = 184140   $ IP Tech: PkgHP2SpP-65to135-E10.8-C3.3
 "BFMult" = 1   $ IP Tech: RefgChg-NRes-Std
 "CoolEirMult" = 1   $ IP Tech: RefgChg-NRes-Std
 "SensCoolCapMult" = 1   $ IP Tech: RefgChg-NRes-Std
 "TotCoolCapMult" = 1   $ IP Tech: RefgChg-NRes-Std
 "AltAdjFactor" = 1.007532   $ Sizing
 "CAssFlo_L_Break_CZn" = 279.1205   $ Sizing
 "CAssFlo_L_CompDC_CZn" = 160.0801   $ Sizing
 "CAssFlo_L_Conf_CZn" = 202.9486   $ Sizing
 "CAssFlo_L_CopyRm_CZn" = 58.23906   $ Sizing
 "CAssFlo_L_Hall_EZn" = 80.12267   $ Sizing
 "CAssFlo_L_Hall_NZn" = 75.45387   $ Sizing
 "CAssFlo_L_Hall_SZn" = 93.43124   $ Sizing
 "CAssFlo_L_Hall_WZn" = 85.10896   $ Sizing
 "CAssFlo_L_LobWait_EZn" = 204.1366   $ Sizing
 "CAssFlo_L_LobWait_NZn" = 162.5746   $ Sizing
 "CAssFlo_L_LobWait_SZn" = 221.0261   $ Sizing
 "CAssFlo_L_LobWait_WZn" = 200.5114   $ Sizing
 "CAssFlo_L_MechElec_CZn" = 92.79107   $ Sizing
 "CAssFlo_L_OfficeOpn_CZn" = 58.32733   $ Sizing
 "CAssFlo_L_OfficeOpn_EZn" = 438.2426   $ Sizing
 "CAssFlo_L_OfficeOpn_NZn" = 197.4506   $ Sizing
 "CAssFlo_L_OfficeOpn_SZn" = 435.8611   $ Sizing
 "CAssFlo_L_OfficeOpn_WZn" = 406.8055   $ Sizing
 "CAssFlo_L_OfficeSm_EZn" = 360.3151   $ Sizing
 "CAssFlo_L_OfficeSm_NZn" = 164.505   $ Sizing
 "CAssFlo_L_OfficeSm_SZn" = 381.9925   $ Sizing
 "CAssFlo_L_OfficeSm_WZn" = 354.3114   $ Sizing
 "CAssFlo_L_Restrm_CZn" = 86.07105   $ Sizing
 "CAssFlo_L_StorSm_CZn" = 46.54008   $ Sizing
 "CAssFlo_L_StorSm_EZn" = 81.54189   $ Sizing
 "CAssFlo_L_StorSm_NZn" = 93.80308   $ Sizing
 "CAssFlo_L_StorSm_SZn" = 81.88831   $ Sizing
 "CAssFlo_L_StorSm_WZn" = 80.43034   $ Sizing
 "CAssFlo_T_Conf_CZn" = 208.4287   $ Sizing
 "CAssFlo_T_Hall_EZn" = 98.81534   $ Sizing
 "CAssFlo_T_Hall_NZn" = 69.42525   $ Sizing
 "CAssFlo_T_Hall_SZn" = 110.0633   $ Sizing
 "CAssFlo_T_Hall_WZn" = 97.23548   $ Sizing
 "CAssFlo_T_OfficeOpn_CZn" = 57.14688   $ Sizing
 "CAssFlo_T_OfficeOpn_EZn" = 447.2086   $ Sizing
 "CAssFlo_T_OfficeOpn_NZn" = 225.4173   $ Sizing
 "CAssFlo_T_OfficeOpn_SZn" = 465.424   $ Sizing
 "CAssFlo_T_OfficeOpn_WZn" = 413.5669   $ Sizing
 "CAssFlo_T_OfficeSm_EZn" = 376.4888   $ Sizing
 "CAssFlo_T_OfficeSm_NZn" = 176.4502   $ Sizing
 "CAssFlo_T_OfficeSm_SZn" = 411.1094   $ Sizing
 "CAssFlo_T_OfficeSm_WZn" = 361.5153   $ Sizing
 "CAssFlo_T_Restrm_CZn" = 86.07105   $ Sizing
 "CAssFlo_T_StorSm_EZn" = 96.24109   $ Sizing
 "CAssFlo_T_StorSm_NZn" = 91.88896   $ Sizing
 "CAssFlo_T_StorSm_SZn" = 102.8767   $ Sizing
 "CAssFlo_T_StorSm_WZn" = 95.28135   $ Sizing
 "CHRtFlo_Sys_L_Break_C" = 279.1205   $ Sizing
 "CHRtFlo_Sys_L_CompDC_C" = 160.0801   $ Sizing
 "CHRtFlo_Sys_L_Conf_C" = 202.9486   $ Sizing
 "CHRtFlo_Sys_L_CopyRm_C" = 58.23906   $ Sizing
 "CHRtFlo_Sys_L_Hall_E" = 80.12267   $ Sizing
 "CHRtFlo_Sys_L_Hall_N" = 75.45388   $ Sizing
 "CHRtFlo_Sys_L_Hall_S" = 93.43124   $ Sizing
 "CHRtFlo_Sys_L_Hall_W" = 85.10896   $ Sizing
 "CHRtFlo_Sys_L_LobWait_E" = 204.1366   $ Sizing
 "CHRtFlo_Sys_L_LobWait_N" = 162.5746   $ Sizing
 "CHRtFlo_Sys_L_LobWait_S" = 221.0261   $ Sizing
 "CHRtFlo_Sys_L_LobWait_W" = 200.5114   $ Sizing
 "CHRtFlo_Sys_L_MechElec_C" = 92.79107   $ Sizing
 "CHRtFlo_Sys_L_OfficeOpn_C" = 58.32733   $ Sizing
 "CHRtFlo_Sys_L_OfficeOpn_E" = 438.2426   $ Sizing
 "CHRtFlo_Sys_L_OfficeOpn_N" = 197.4506   $ Sizing
 "CHRtFlo_Sys_L_OfficeOpn_S" = 435.8611   $ Sizing
 "CHRtFlo_Sys_L_OfficeOpn_W" = 406.8055   $ Sizing
 "CHRtFlo_Sys_L_OfficeSm_E" = 360.3151   $ Sizing
 "CHRtFlo_Sys_L_OfficeSm_N" = 164.505   $ Sizing
 "CHRtFlo_Sys_L_OfficeSm_S" = 381.9925   $ Sizing
 "CHRtFlo_Sys_L_OfficeSm_W" = 354.3114   $ Sizing
 "CHRtFlo_Sys_L_Restrm_C" = 86.07105   $ Sizing
 "CHRtFlo_Sys_L_StorSm_C" = 46.54008   $ Sizing
 "CHRtFlo_Sys_L_StorSm_E" = 81.54189   $ Sizing
 "CHRtFlo_Sys_L_StorSm_N" = 93.80308   $ Sizing
 "CHRtFlo_Sys_L_StorSm_S" = 81.88831   $ Sizing
 "CHRtFlo_Sys_L_StorSm_W" = 80.43034   $ Sizing
 "CHRtFlo_Sys_T_Conf_C" = 208.4287   $ Sizing
 "CHRtFlo_Sys_T_Hall_E" = 98.81534   $ Sizing
 "CHRtFlo_Sys_T_Hall_N" = 69.42525   $ Sizing
 "CHRtFlo_Sys_T_Hall_S" = 110.0632   $ Sizing
 "CHRtFlo_Sys_T_Hall_W" = 97.23547   $ Sizing
 "CHRtFlo_Sys_T_OfficeOpn_C" = 57.14688   $ Sizing
 "CHRtFlo_Sys_T_OfficeOpn_E" = 447.2086   $ Sizing
 "CHRtFlo_Sys_T_OfficeOpn_N" = 225.4173   $ Sizing
 "CHRtFlo_Sys_T_OfficeOpn_S" = 465.424   $ Sizing
 "CHRtFlo_Sys_T_OfficeOpn_W" = 413.5669   $ Sizing
 "CHRtFlo_Sys_T_OfficeSm_E" = 376.4888   $ Sizing
 "CHRtFlo_Sys_T_OfficeSm_N" = 176.4502   $ Sizing
 "CHRtFlo_Sys_T_OfficeSm_S" = 411.1094   $ Sizing
 "CHRtFlo_Sys_T_OfficeSm_W" = 361.5153   $ Sizing
 "CHRtFlo_Sys_T_Restrm_C" = 86.07105   $ Sizing
 "CHRtFlo_Sys_T_StorSm_E" = 96.24109   $ Sizing
 "CHRtFlo_Sys_T_StorSm_N" = 91.88896   $ Sizing
 "CHRtFlo_Sys_T_StorSm_S" = 102.8767   $ Sizing
 "CHRtFlo_Sys_T_StorSm_W" = 95.28135   $ Sizing
 "CRtdFlo_Sys_L_Break_C" = 279.1205   $ Sizing
 "CRtdFlo_Sys_L_CompDC_C" = 160.0801   $ Sizing
 "CRtdFlo_Sys_L_Conf_C" = 202.9486   $ Sizing
 "CRtdFlo_Sys_L_CopyRm_C" = 58.23906   $ Sizing
 "CRtdFlo_Sys_L_Hall_E" = 80.12267   $ Sizing
 "CRtdFlo_Sys_L_Hall_N" = 75.45387   $ Sizing
 "CRtdFlo_Sys_L_Hall_S" = 93.43124   $ Sizing
 "CRtdFlo_Sys_L_Hall_W" = 85.10896   $ Sizing
 "CRtdFlo_Sys_L_LobWait_E" = 204.1366   $ Sizing
 "CRtdFlo_Sys_L_LobWait_N" = 162.5746   $ Sizing
 "CRtdFlo_Sys_L_LobWait_S" = 221.0261   $ Sizing
 "CRtdFlo_Sys_L_LobWait_W" = 200.5114   $ Sizing
 "CRtdFlo_Sys_L_MechElec_C" = 92.79107   $ Sizing
 "CRtdFlo_Sys_L_OfficeOpn_C" = 58.32733   $ Sizing
 "CRtdFlo_Sys_L_OfficeOpn_E" = 438.2426   $ Sizing
 "CRtdFlo_Sys_L_OfficeOpn_N" = 197.4506   $ Sizing
 "CRtdFlo_Sys_L_OfficeOpn_S" = 435.8611   $ Sizing
 "CRtdFlo_Sys_L_OfficeOpn_W" = 406.8055   $ Sizing
 "CRtdFlo_Sys_L_OfficeSm_E" = 360.3151   $ Sizing
 "CRtdFlo_Sys_L_OfficeSm_N" = 164.505   $ Sizing
 "CRtdFlo_Sys_L_OfficeSm_S" = 381.9925   $ Sizing
 "CRtdFlo_Sys_L_OfficeSm_W" = 354.3114   $ Sizing
 "CRtdFlo_Sys_L_Restrm_C" = 86.07105   $ Sizing
 "CRtdFlo_Sys_L_StorSm_C" = 46.54008   $ Sizing
 "CRtdFlo_Sys_L_StorSm_E" = 81.54189   $ Sizing
 "CRtdFlo_Sys_L_StorSm_N" = 93.80308   $ Sizing
 "CRtdFlo_Sys_L_StorSm_S" = 81.88831   $ Sizing
 "CRtdFlo_Sys_L_StorSm_W" = 80.43034   $ Sizing
 "CRtdFlo_Sys_T_Conf_C" = 208.4287   $ Sizing
 "CRtdFlo_Sys_T_Hall_E" = 98.81534   $ Sizing
 "CRtdFlo_Sys_T_Hall_N" = 69.42525   $ Sizing
 "CRtdFlo_Sys_T_Hall_S" = 110.0633   $ Sizing
 "CRtdFlo_Sys_T_Hall_W" = 97.23548   $ Sizing
 "CRtdFlo_Sys_T_OfficeOpn_C" = 57.14688   $ Sizing
 "CRtdFlo_Sys_T_OfficeOpn_E" = 447.2086   $ Sizing
 "CRtdFlo_Sys_T_OfficeOpn_N" = 225.4173   $ Sizing
 "CRtdFlo_Sys_T_OfficeOpn_S" = 465.424   $ Sizing
 "CRtdFlo_Sys_T_OfficeOpn_W" = 413.5669   $ Sizing
 "CRtdFlo_Sys_T_OfficeSm_E" = 376.4888   $ Sizing
 "CRtdFlo_Sys_T_OfficeSm_N" = 176.4502   $ Sizing
 "CRtdFlo_Sys_T_OfficeSm_S" = 411.1094   $ Sizing
 "CRtdFlo_Sys_T_OfficeSm_W" = 361.5153   $ Sizing
 "CRtdFlo_Sys_T_Restrm_C" = 86.07105   $ Sizing
 "CRtdFlo_Sys_T_StorSm_E" = 96.24109   $ Sizing
 "CRtdFlo_Sys_T_StorSm_N" = 91.88896   $ Sizing
 "CRtdFlo_Sys_T_StorSm_S" = 102.8767   $ Sizing
 "CRtdFlo_Sys_T_StorSm_W" = 95.28135   $ Sizing
 "CSupFlo_Sys_L_Break_C" = 279.1205   $ Sizing
 "CSupFlo_Sys_L_CompDC_C" = 160.0801   $ Sizing
 "CSupFlo_Sys_L_Conf_C" = 202.9486   $ Sizing
 "CSupFlo_Sys_L_CopyRm_C" = 58.23906   $ Sizing
 "CSupFlo_Sys_L_Hall_E" = 80.12267   $ Sizing
 "CSupFlo_Sys_L_Hall_N" = 75.45387   $ Sizing
 "CSupFlo_Sys_L_Hall_S" = 93.43124   $ Sizing
 "CSupFlo_Sys_L_Hall_W" = 85.10896   $ Sizing
 "CSupFlo_Sys_L_LobWait_E" = 204.1366   $ Sizing
 "CSupFlo_Sys_L_LobWait_N" = 162.5746   $ Sizing
 "CSupFlo_Sys_L_LobWait_S" = 221.0261   $ Sizing
 "CSupFlo_Sys_L_LobWait_W" = 200.5114   $ Sizing
 "CSupFlo_Sys_L_MechElec_C" = 92.79107   $ Sizing
 "CSupFlo_Sys_L_OfficeOpn_C" = 58.32733   $ Sizing
 "CSupFlo_Sys_L_OfficeOpn_E" = 438.2426   $ Sizing
 "CSupFlo_Sys_L_OfficeOpn_N" = 197.4506   $ Sizing
 "CSupFlo_Sys_L_OfficeOpn_S" = 435.8611   $ Sizing
 "CSupFlo_Sys_L_OfficeOpn_W" = 406.8055   $ Sizing
 "CSupFlo_Sys_L_OfficeSm_E" = 360.3151   $ Sizing
 "CSupFlo_Sys_L_OfficeSm_N" = 164.505   $ Sizing
 "CSupFlo_Sys_L_OfficeSm_S" = 381.9925   $ Sizing
 "CSupFlo_Sys_L_OfficeSm_W" = 354.3114   $ Sizing
 "CSupFlo_Sys_L_Restrm_C" = 86.07105   $ Sizing
 "CSupFlo_Sys_L_StorSm_C" = 46.54008   $ Sizing
 "CSupFlo_Sys_L_StorSm_E" = 81.54189   $ Sizing
 "CSupFlo_Sys_L_StorSm_N" = 93.80308   $ Sizing
 "CSupFlo_Sys_L_StorSm_S" = 81.88831   $ Sizing
 "CSupFlo_Sys_L_StorSm_W" = 80.43034   $ Sizing
 "CSupFlo_Sys_T_Conf_C" = 208.4287   $ Sizing
 "CSupFlo_Sys_T_Hall_E" = 98.81534   $ Sizing
 "CSupFlo_Sys_T_Hall_N" = 69.42525   $ Sizing
 "CSupFlo_Sys_T_Hall_S" = 110.0633   $ Sizing
 "CSupFlo_Sys_T_Hall_W" = 97.23548   $ Sizing
 "CSupFlo_Sys_T_OfficeOpn_C" = 57.14688   $ Sizing
 "CSupFlo_Sys_T_OfficeOpn_E" = 447.2086   $ Sizing
 "CSupFlo_Sys_T_OfficeOpn_N" = 225.4173   $ Sizing
 "CSupFlo_Sys_T_OfficeOpn_S" = 465.424   $ Sizing
 "CSupFlo_Sys_T_OfficeOpn_W" = 413.5669   $ Sizing
 "CSupFlo_Sys_T_OfficeSm_E" = 376.4888   $ Sizing
 "CSupFlo_Sys_T_OfficeSm_N" = 176.4502   $ Sizing
 "CSupFlo_Sys_T_OfficeSm_S" = 411.1094   $ Sizing
 "CSupFlo_Sys_T_OfficeSm_W" = 361.5153   $ Sizing
 "CSupFlo_Sys_T_Restrm_C" = 86.07105   $ Sizing
 "CSupFlo_Sys_T_StorSm_E" = 96.24109   $ Sizing
 "CSupFlo_Sys_T_StorSm_N" = 91.88896   $ Sizing
 "CSupFlo_Sys_T_StorSm_S" = 102.8767   $ Sizing
 "CSupFlo_Sys_T_StorSm_W" = 95.28135   $ Sizing
 "ClCap_Sys_L_Break_C" = 9498.303   $ Sizing
 "ClCap_Sys_L_CompDC_C" = 5447.429   $ Sizing
 "ClCap_Sys_L_Conf_C" = 8789.735   $ Sizing
 "ClCap_Sys_L_CopyRm_C" = 1981.84   $ Sizing
 "ClCap_Sys_L_Hall_E" = 2726.526   $ Sizing
 "ClCap_Sys_L_Hall_N" = 2567.65   $ Sizing
 "ClCap_Sys_L_Hall_S" = 3179.409   $ Sizing
 "ClCap_Sys_L_Hall_W" = 2896.207   $ Sizing
 "ClCap_Sys_L_LobWait_E" = 6946.647   $ Sizing
 "ClCap_Sys_L_LobWait_N" = 5532.316   $ Sizing
 "ClCap_Sys_L_LobWait_S" = 7521.387   $ Sizing
 "ClCap_Sys_L_LobWait_W" = 6823.283   $ Sizing
 "ClCap_Sys_L_MechElec_C" = 3157.625   $ Sizing
 "ClCap_Sys_L_OfficeOpn_C" = 1984.844   $ Sizing
 "ClCap_Sys_L_OfficeOpn_E" = 14913.13   $ Sizing
 "ClCap_Sys_L_OfficeOpn_N" = 6719.127   $ Sizing
 "ClCap_Sys_L_OfficeOpn_S" = 14832.09   $ Sizing
 "ClCap_Sys_L_OfficeOpn_W" = 13843.35   $ Sizing
 "ClCap_Sys_L_OfficeSm_E" = 12261.31   $ Sizing
 "ClCap_Sys_L_OfficeSm_N" = 5598.006   $ Sizing
 "ClCap_Sys_L_OfficeSm_S" = 12998.98   $ Sizing
 "ClCap_Sys_L_OfficeSm_W" = 12057   $ Sizing
 "ClCap_Sys_L_Restrm_C" = 2928.947   $ Sizing
 "ClCap_Sys_L_StorSm_C" = 1583.731   $ Sizing
 "ClCap_Sys_L_StorSm_E" = 2774.822   $ Sizing
 "ClCap_Sys_L_StorSm_N" = 3192.063   $ Sizing
 "ClCap_Sys_L_StorSm_S" = 2786.61   $ Sizing
 "ClCap_Sys_L_StorSm_W" = 2736.996   $ Sizing
 "ClCap_Sys_T_Conf_C" = 9027.076   $ Sizing
 "ClCap_Sys_T_Hall_E" = 3362.627   $ Sizing
 "ClCap_Sys_T_Hall_N" = 2362.5   $ Sizing
 "ClCap_Sys_T_Hall_S" = 3745.387   $ Sizing
 "ClCap_Sys_T_Hall_W" = 3308.865   $ Sizing
 "ClCap_Sys_T_OfficeOpn_C" = 1944.674   $ Sizing
 "ClCap_Sys_T_OfficeOpn_E" = 15218.24   $ Sizing
 "ClCap_Sys_T_OfficeOpn_N" = 7670.817   $ Sizing
 "ClCap_Sys_T_OfficeOpn_S" = 15838.1   $ Sizing
 "ClCap_Sys_T_OfficeOpn_W" = 14073.43   $ Sizing
 "ClCap_Sys_T_OfficeSm_E" = 12811.69   $ Sizing
 "ClCap_Sys_T_OfficeSm_N" = 6004.495   $ Sizing
 "ClCap_Sys_T_OfficeSm_S" = 13989.81   $ Sizing
 "ClCap_Sys_T_OfficeSm_W" = 12302.15   $ Sizing
 "ClCap_Sys_T_Restrm_C" = 2928.947   $ Sizing
 "ClCap_Sys_T_StorSm_E" = 3275.027   $ Sizing
 "ClCap_Sys_T_StorSm_N" = 3126.926   $ Sizing
 "ClCap_Sys_T_StorSm_S" = 3500.832   $ Sizing
 "ClCap_Sys_T_StorSm_W" = 3242.367   $ Sizing
 "HRtECT_Sys_L_Break_C" = 47   $ Sizing
 "HRtECT_Sys_L_CompDC_C" = 47   $ Sizing
 "HRtECT_Sys_L_Conf_C" = 47   $ Sizing
 "HRtECT_Sys_L_CopyRm_C" = 47   $ Sizing
 "HRtECT_Sys_L_Hall_E" = 47   $ Sizing
 "HRtECT_Sys_L_Hall_N" = 47   $ Sizing
 "HRtECT_Sys_L_Hall_S" = 47   $ Sizing
 "HRtECT_Sys_L_Hall_W" = 47   $ Sizing
 "HRtECT_Sys_L_LobWait_E" = 47   $ Sizing
 "HRtECT_Sys_L_LobWait_N" = 47   $ Sizing
 "HRtECT_Sys_L_LobWait_S" = 47   $ Sizing
 "HRtECT_Sys_L_LobWait_W" = 47   $ Sizing
 "HRtECT_Sys_L_MechElec_C" = 47   $ Sizing
 "HRtECT_Sys_L_OfficeOpn_C" = 47   $ Sizing
 "HRtECT_Sys_L_OfficeOpn_E" = 47   $ Sizing
 "HRtECT_Sys_L_OfficeOpn_N" = 47   $ Sizing
 "HRtECT_Sys_L_OfficeOpn_S" = 47   $ Sizing
 "HRtECT_Sys_L_OfficeOpn_W" = 47   $ Sizing
 "HRtECT_Sys_L_OfficeSm_E" = 47   $ Sizing
 "HRtECT_Sys_L_OfficeSm_N" = 47   $ Sizing
 "HRtECT_Sys_L_OfficeSm_S" = 47   $ Sizing
 "HRtECT_Sys_L_OfficeSm_W" = 47   $ Sizing
 "HRtECT_Sys_L_Restrm_C" = 47   $ Sizing
 "HRtECT_Sys_L_StorSm_C" = 47   $ Sizing
 "HRtECT_Sys_L_StorSm_E" = 47   $ Sizing
 "HRtECT_Sys_L_StorSm_N" = 47   $ Sizing
 "HRtECT_Sys_L_StorSm_S" = 47   $ Sizing
 "HRtECT_Sys_L_StorSm_W" = 47   $ Sizing
 "HRtECT_Sys_T_Conf_C" = 47   $ Sizing
 "HRtECT_Sys_T_Hall_E" = 47   $ Sizing
 "HRtECT_Sys_T_Hall_N" = 47   $ Sizing
 "HRtECT_Sys_T_Hall_S" = 47   $ Sizing
 "HRtECT_Sys_T_Hall_W" = 47   $ Sizing
 "HRtECT_Sys_T_OfficeOpn_C" = 47   $ Sizing
 "HRtECT_Sys_T_OfficeOpn_E" = 47   $ Sizing
 "HRtECT_Sys_T_OfficeOpn_N" = 47   $ Sizing
 "HRtECT_Sys_T_OfficeOpn_S" = 47   $ Sizing
 "HRtECT_Sys_T_OfficeOpn_W" = 47   $ Sizing
 "HRtECT_Sys_T_OfficeSm_E" = 47   $ Sizing
 "HRtECT_Sys_T_OfficeSm_N" = 47   $ Sizing
 "HRtECT_Sys_T_OfficeSm_S" = 47   $ Sizing
 "HRtECT_Sys_T_OfficeSm_W" = 47   $ Sizing
 "HRtECT_Sys_T_Restrm_C" = 47   $ Sizing
 "HRtECT_Sys_T_StorSm_E" = 47   $ Sizing
 "HRtECT_Sys_T_StorSm_N" = 47   $ Sizing
 "HRtECT_Sys_T_StorSm_S" = 47   $ Sizing
 "HRtECT_Sys_T_StorSm_W" = 47   $ Sizing
 "HSpCap_Sys_L_Break_C" = -6571.72   $ Sizing
 "HSpCap_Sys_L_CompDC_C" = -2396.869   $ Sizing
 "HSpCap_Sys_L_Conf_C" = -7106.279   $ Sizing
 "HSpCap_Sys_L_CopyRm_C" = -3039.615   $ Sizing
 "HSpCap_Sys_L_Hall_E" = -2262.238   $ Sizing
 "HSpCap_Sys_L_Hall_N" = -1990.324   $ Sizing
 "HSpCap_Sys_L_Hall_S" = -1626.666   $ Sizing
 "HSpCap_Sys_L_Hall_W" = -2181.139   $ Sizing
 "HSpCap_Sys_L_LobWait_E" = -5456.208   $ Sizing
 "HSpCap_Sys_L_LobWait_N" = -5376.243   $ Sizing
 "HSpCap_Sys_L_LobWait_S" = -4711.594   $ Sizing
 "HSpCap_Sys_L_LobWait_W" = -5507.39   $ Sizing
 "HSpCap_Sys_L_MechElec_C" = -2731.777   $ Sizing
 "HSpCap_Sys_L_OfficeOpn_C" = -1508.621   $ Sizing
 "HSpCap_Sys_L_OfficeOpn_E" = -6561.779   $ Sizing
 "HSpCap_Sys_L_OfficeOpn_N" = -6268.826   $ Sizing
 "HSpCap_Sys_L_OfficeOpn_S" = -6526.121   $ Sizing
 "HSpCap_Sys_L_OfficeOpn_W" = -6091.072   $ Sizing
 "HSpCap_Sys_L_OfficeSm_E" = -5394.975   $ Sizing
 "HSpCap_Sys_L_OfficeSm_N" = -4965.822   $ Sizing
 "HSpCap_Sys_L_OfficeSm_S" = -5719.549   $ Sizing
 "HSpCap_Sys_L_OfficeSm_W" = -5305.082   $ Sizing
 "HSpCap_Sys_L_Restrm_C" = -1427.161   $ Sizing
 "HSpCap_Sys_L_StorSm_C" = -1338.905   $ Sizing
 "HSpCap_Sys_L_StorSm_E" = -2410.546   $ Sizing
 "HSpCap_Sys_L_StorSm_N" = -2744.324   $ Sizing
 "HSpCap_Sys_L_StorSm_S" = -2018.228   $ Sizing
 "HSpCap_Sys_L_StorSm_W" = -2463.25   $ Sizing
 "HSpCap_Sys_T_Conf_C" = -7891.874   $ Sizing
 "HSpCap_Sys_T_Hall_E" = -2723.217   $ Sizing
 "HSpCap_Sys_T_Hall_N" = -2341.438   $ Sizing
 "HSpCap_Sys_T_Hall_S" = -2380.4   $ Sizing
 "HSpCap_Sys_T_Hall_W" = -2652.986   $ Sizing
 "HSpCap_Sys_T_OfficeOpn_C" = -1542.5   $ Sizing
 "HSpCap_Sys_T_OfficeOpn_E" = -8042.296   $ Sizing
 "HSpCap_Sys_T_OfficeOpn_N" = -7209.511   $ Sizing
 "HSpCap_Sys_T_OfficeOpn_S" = -7269.511   $ Sizing
 "HSpCap_Sys_T_OfficeOpn_W" = -8053.627   $ Sizing
 "HSpCap_Sys_T_OfficeSm_E" = -7034.455   $ Sizing
 "HSpCap_Sys_T_OfficeSm_N" = -5719.767   $ Sizing
 "HSpCap_Sys_T_OfficeSm_S" = -6155.515   $ Sizing
 "HSpCap_Sys_T_OfficeSm_W" = -6683.594   $ Sizing
 "HSpCap_Sys_T_Restrm_C" = -2626.245   $ Sizing
 "HSpCap_Sys_T_StorSm_E" = -3131.264   $ Sizing
 "HSpCap_Sys_T_StorSm_N" = -3221.617   $ Sizing
 "HSpCap_Sys_T_StorSm_S" = -2730.25   $ Sizing
 "HSpCap_Sys_T_StorSm_W" = -3194.242   $ Sizing
 "HtCap_Sys_L_Break_C" = -8358.507   $ Sizing
 "HtCap_Sys_L_CompDC_C" = -4793.738   $ Sizing
 "HtCap_Sys_L_Conf_C" = -7734.967   $ Sizing
 "HtCap_Sys_L_CopyRm_C" = -1744.02   $ Sizing
 "HtCap_Sys_L_Hall_E" = -2399.343   $ Sizing
 "HtCap_Sys_L_Hall_N" = -2259.532   $ Sizing
 "HtCap_Sys_L_Hall_S" = -2797.88   $ Sizing
 "HtCap_Sys_L_Hall_W" = -2548.662   $ Sizing
 "HtCap_Sys_L_LobWait_E" = -6113.049   $ Sizing
 "HtCap_Sys_L_LobWait_N" = -4868.438   $ Sizing
 "HtCap_Sys_L_LobWait_S" = -6618.82   $ Sizing
 "HtCap_Sys_L_LobWait_W" = -6004.489   $ Sizing
 "HtCap_Sys_L_MechElec_C" = -2778.709   $ Sizing
 "HtCap_Sys_L_OfficeOpn_C" = -1746.663   $ Sizing
 "HtCap_Sys_L_OfficeOpn_E" = -13123.56   $ Sizing
 "HtCap_Sys_L_OfficeOpn_N" = -5912.832   $ Sizing
 "HtCap_Sys_L_OfficeOpn_S" = -13052.24   $ Sizing
 "HtCap_Sys_L_OfficeOpn_W" = -12182.14   $ Sizing
 "HtCap_Sys_L_OfficeSm_E" = -10789.95   $ Sizing
 "HtCap_Sys_L_OfficeSm_N" = -4926.246   $ Sizing
 "HtCap_Sys_L_OfficeSm_S" = -11439.1   $ Sizing
 "HtCap_Sys_L_OfficeSm_W" = -10610.16   $ Sizing
 "HtCap_Sys_L_Restrm_C" = -2577.473   $ Sizing
 "HtCap_Sys_L_StorSm_C" = -1393.683   $ Sizing
 "HtCap_Sys_L_StorSm_E" = -2441.843   $ Sizing
 "HtCap_Sys_L_StorSm_N" = -2809.015   $ Sizing
 "HtCap_Sys_L_StorSm_S" = -2452.217   $ Sizing
 "HtCap_Sys_L_StorSm_W" = -2408.557   $ Sizing
 "HtCap_Sys_T_Conf_C" = -7943.827   $ Sizing
 "HtCap_Sys_T_Hall_E" = -2959.112   $ Sizing
 "HtCap_Sys_T_Hall_N" = -2079   $ Sizing
 "HtCap_Sys_T_Hall_S" = -3295.94   $ Sizing
 "HtCap_Sys_T_Hall_W" = -2911.801   $ Sizing
 "HtCap_Sys_T_OfficeOpn_C" = -1711.313   $ Sizing
 "HtCap_Sys_T_OfficeOpn_E" = -13392.05   $ Sizing
 "HtCap_Sys_T_OfficeOpn_N" = -6750.319   $ Sizing
 "HtCap_Sys_T_OfficeOpn_S" = -13937.53   $ Sizing
 "HtCap_Sys_T_OfficeOpn_W" = -12384.62   $ Sizing
 "HtCap_Sys_T_OfficeSm_E" = -11274.29   $ Sizing
 "HtCap_Sys_T_OfficeSm_N" = -5283.955   $ Sizing
 "HtCap_Sys_T_OfficeSm_S" = -12311.03   $ Sizing
 "HtCap_Sys_T_OfficeSm_W" = -10825.89   $ Sizing
 "HtCap_Sys_T_Restrm_C" = -2577.473   $ Sizing
 "HtCap_Sys_T_StorSm_E" = -2882.023   $ Sizing
 "HtCap_Sys_T_StorSm_N" = -2751.695   $ Sizing
 "HtCap_Sys_T_StorSm_S" = -3080.732   $ Sizing
 "HtCap_Sys_T_StorSm_W" = -2853.283   $ Sizing
..

##include Templates\OfS_DX_SZ.inp
END ..
COMPUTE ..
STOP ..
