INPUT ..

##fileprefix C:\Users\jglasskatz\MASControl3\
##set1 IsSizing FALSE
##set1 CoolType DX
##set1 HeatType FURNACE
##set1 EU_HrRepVar 0
##set1 BldgVint 2020
##set1 BldgLoc CZ15

 ##set1 mBFMult 1   $ IP Tech: RefgChg-NRes-Std

PARAMETER
 "AltFactor" = 1.01767   $ IP Non-Tech
 "BF_fFlow" = SpltAC2SpHiSEER_BF_fFlow   $ Msr (Multi)TechID: MsrNResSplitAC-lt45-S17
 "BF_fT" = SpltAC2SpHiSEER_BF_fT   $ Msr (Multi)TechID: MsrNResSplitAC-lt45-S17
 "BldgEconoFlag" = 1   $ IP Non-Tech
 "Break_EWSF" = 1   $ IP Non-Tech
 "Break_LWSF" = 0.65   $ IP Non-Tech
 "CDD_DBHi10" = 97   $ IP Non-Tech
 "CDD_DBHi7" = 110   $ IP Non-Tech
 "CDD_DBHi8" = 111   $ IP Non-Tech
 "CDD_DBHi9" = 109   $ IP Non-Tech
 "CDD_DBRange10" = 25   $ IP Non-Tech
 "CDD_DBRange7" = 18   $ IP Non-Tech
 "CDD_DBRange8" = 23   $ IP Non-Tech
 "CDD_DBRange9" = 21   $ IP Non-Tech
 "CDD_Day10" = 15   $ IP Non-Tech
 "CDD_Day7" = 16   $ IP Non-Tech
 "CDD_Day8" = 20   $ IP Non-Tech
 "CDD_Day9" = 17   $ IP Non-Tech
 "CDD_HrHi10" = 14   $ IP Non-Tech
 "CDD_HrHi7" = 15   $ IP Non-Tech
 "CDD_HrHi8" = 18   $ IP Non-Tech
 "CDD_HrHi9" = 12   $ IP Non-Tech
 "CDD_HrLo10" = 5   $ IP Non-Tech
 "CDD_HrLo7" = 3   $ IP Non-Tech
 "CDD_HrLo8" = 4   $ IP Non-Tech
 "CDD_HrLo9" = 7   $ IP Non-Tech
 "CDD_WB10" = 64.62915039   $ IP Non-Tech
 "CDD_WB7" = 77.7762146   $ IP Non-Tech
 "CDD_WB8" = 78.616539   $ IP Non-Tech
 "CDD_WB9" = 73.63479614   $ IP Non-Tech
 "CEIR_fPLR_Hot" = SpltAC2SpHiSEER_CEIR_fPLR_Hot   $ Msr (Multi)TechID: MsrNResSplitAC-lt45-S17
 "CEIR_fPLR_Mod" = SpltAC2SpHiSEER_CEIR_fPLR_Mod   $ Msr (Multi)TechID: MsrNResSplitAC-lt45-S17
 "CEIR_fPLR_Tem" = SpltAC2SpHiSEER_CEIR_fPLR_Tem   $ Msr (Multi)TechID: MsrNResSplitAC-lt45-S17
 "CLoss_fPLR_Hot" = SpltAC2SpHiSEER_CLoss_fPLR_Hot   $ Msr (Multi)TechID: MsrNResSplitAC-lt45-S17
 "CLoss_fPLR_Mod" = SpltAC2SpHiSEER_CLoss_fPLR_Mod   $ Msr (Multi)TechID: MsrNResSplitAC-lt45-S17
 "CLoss_fPLR_Tem" = SpltAC2SpHiSEER_CLoss_fPLR_Tem   $ Msr (Multi)TechID: MsrNResSplitAC-lt45-S17
 "COP47" = 0   $ Msr (Multi)TechID: MsrNResSplitAC-lt45-S17
 "CZ_Category" = Hot   $ IP Non-Tech
 "CapRange" = Any   $ Msr (Multi)TechID: MsrNResSplitAC-lt45-S17
 "CfmPerBtuh" = 0.03   $ Msr (Multi)TechID: MsrNResSplitAC-lt45-S17
 "ChwVintEconoFlag" = 1   $ IP Non-Tech
 "ClCap_fT" = SpltAC2SpHiSEER_ClCap_fT   $ Msr (Multi)TechID: MsrNResSplitAC-lt45-S17
 "ClSH_fT" = SpltAC2SpHiSEER_ClSH_fT   $ Msr (Multi)TechID: MsrNResSplitAC-lt45-S17
 "CoilBF" = 0.102   $ Msr (Multi)TechID: MsrNResSplitAC-lt45-S17
 "CompRoomData_EWSF" = 5   $ IP Non-Tech
 "CompRoomData_LWSF" = 0.8   $ IP Non-Tech
 "CondWPerBtuh" = 0   $ Msr (Multi)TechID: MsrNResSplitAC-lt45-S17
 "Conference_EWSF" = 1   $ IP Non-Tech
 "Conference_LWSF" = 0.85   $ IP Non-Tech
 "CoolSensCap" = 0.724   $ Msr (Multi)TechID: MsrNResSplitAC-lt45-S17
 "CoolSetT" = 45   $ IP Non-Tech
 "CoolType" = DX   $ IP Non-Tech
 "CoolingEIR" = 0.2225   $ Msr (Multi)TechID: MsrNResSplitAC-lt45-S17
 "CopyRoom_EWSF" = 1.5   $ IP Non-Tech
 "CopyRoom_LWSF" = 0.5   $ IP Non-Tech
 "CrnkEIR" = 0.002225   $ Msr (Multi)TechID: MsrNResSplitAC-lt45-S17
 "CrnkMaxT" = 50   $ Msr (Multi)TechID: MsrNResSplitAC-lt45-S17
 "DXType" = SplitSEER   $ Msr (Multi)TechID: MsrNResSplitAC-lt45-S17
 "DesCoolT" = 75   $ IP Non-Tech
 "DesHeatT" = 73   $ IP Non-Tech
 "EER" = 13.26   $ Msr (Multi)TechID: MsrNResSplitAC-lt45-S17
 "EIR_fT" = SpltAC2SpHiSEER_EIR_fT   $ Msr (Multi)TechID: MsrNResSplitAC-lt45-S17
 "EconoCtrl" = FIXED   $ Msr (Multi)TechID: MsrNResSplitAC-lt45-S17
 "EconoEnthLimit" = 28   $ IP Non-Tech
 "EconoTempLimit" = 75   $ IP Non-Tech
 "Elevation" = 475   $ IP Non-Tech
 "FanEirPlr" = TwoSpeedFan   $ Msr (Multi)TechID: MsrNResSplitAC-lt45-S17
 "FanWPerCfm" = 0.271   $ Msr (Multi)TechID: MsrNResSplitAC-lt45-S17
 "HDD_CloudAmt1" = 0   $ IP Non-Tech
 "HDD_DBHi1" = 58   $ IP Non-Tech
 "HDD_DBRange1" = 21   $ IP Non-Tech
 "HDD_Day1" = 15   $ IP Non-Tech
 "HDD_HrHi1" = 13   $ IP Non-Tech
 "HDD_HrLo1" = 7   $ IP Non-Tech
 "HDD_WB1" = 39.7   $ IP Non-Tech
 "HDD_WindSpd1" = 10.4   $ IP Non-Tech
 "HIR_fT" = 0   $ Msr (Multi)TechID: MsrNResSplitAC-lt45-S17
 "HSPF" = 0   $ Msr (Multi)TechID: MsrNResSplitAC-lt45-S17
 "Hall_EWSF" = 0.2   $ IP Non-Tech
 "Hall_LWSF" = 0.55   $ IP Non-Tech
 "HeatSrc" = FURNACE   $ IP Non-Tech
 "HeatSrcTU" = HEAT-PUMP   $ IP Non-Tech
 "HeatType" = GasFurn   $ IP Non-Tech
 "HeatTypeTU" = HEAT-PUMP   $ IP Non-Tech
 "HtCap_fT" = 0   $ Msr (Multi)TechID: MsrNResSplitAC-lt45-S17
 "HtCoolCapRatio" = 0   $ Msr (Multi)TechID: MsrNResSplitAC-lt45-S17
 "HtgEIR" = 0   $ Msr (Multi)TechID: MsrNResSplitAC-lt45-S17
 "IndoorFanMode" = CONTINUOUS   $ IP Non-Tech
 "KT_TransferAir" = Yes   $ IP Non-Tech
 "Latitude" = 33.8   $ IP Non-Tech
 "LobbyWaiting_EWSF" = 0.5   $ IP Non-Tech
 "LobbyWaiting_LWSF" = 0.75   $ IP Non-Tech
 "Longitude" = 116.5   $ IP Non-Tech
 "LowSpdCapRatio" = 0.686   $ Msr (Multi)TechID: MsrNResSplitAC-lt45-S17
 "LowSpdCfmRatio" = 0.739   $ Msr (Multi)TechID: MsrNResSplitAC-lt45-S17
 "MZFanMechEff" = 0.58   $ IP Non-Tech
 "MZHasRetFan" = FALSE   $ IP Non-Tech
 "MZ_RFanWPerCfm" = 0.33   $ IP Non-Tech
 "MZ_SFanWPerCfm" = 0.75   $ IP Non-Tech
 "MZ_SupFanStatic" = 2.25   $ IP Non-Tech
 "MaxOAFrac" = 1   $ Msr (Multi)TechID: MsrNResSplitAC-lt45-S17
 "MaxSupT_MZ" = 100   $ IP Non-Tech
 "MaxSupT_SZ" = 100   $ IP Non-Tech
 "MaxSupT_TU" = 90   $ IP Non-Tech
 "MechElecRoom_EWSF" = 0.2   $ IP Non-Tech
 "MechElecRoom_LWSF" = 0.4   $ IP Non-Tech
 "MinCfmPerSF" = 0.4   $ IP Non-Tech
 "MinSupT" = 55   $ IP Non-Tech
 "NumStages" = 2   $ Msr (Multi)TechID: MsrNResSplitAC-lt45-S17
 "OccCoolT" = 76   $ IP Non-Tech
 "OccHeatT" = 72   $ IP Non-Tech
 "OfficeOpen_EWSF" = 1.5   $ IP Non-Tech
 "OfficeOpen_LWSF" = 0.8   $ IP Non-Tech
 "OfficeSmall_EWSF" = 1.5   $ IP Non-Tech
 "OfficeSmall_LWSF" = 0.9   $ IP Non-Tech
 "PkgDxVintEconoFlag" = 1   $ IP Non-Tech
 "Restroom_EWSF" = 0.2   $ IP Non-Tech
 "Restroom_LWSF" = 0.65   $ IP Non-Tech
 "SEER" = 17   $ Msr (Multi)TechID: MsrNResSplitAC-lt45-S17
 "SZFanMechEff" = 0.58   $ IP Non-Tech
 "SZHasRetFan" = FALSE   $ IP Non-Tech
 "SZ_Is_2Spd" = TRUE   $ IP Non-Tech
 "SZ_SFanWPerCfm" = 0.46   $ IP Non-Tech
 "SZ_SupFanStatic" = 0.75   $ IP Non-Tech
 "Sector" = Any   $ Msr (Multi)TechID: MsrNResSplitAC-lt45-S17
 "StorageSmlCond_EWSF" = 0.2   $ IP Non-Tech
 "StorageSmlCond_LWSF" = 0.45   $ IP Non-Tech
 "SubType" = AC   $ Msr (Multi)TechID: MsrNResSplitAC-lt45-S17
 "TermUnitFanMechEff" = 1   $ IP Non-Tech
 "TermUnitFanMode" = INTERMITTENT   $ IP Non-Tech
 "TotCoolCap" = 58805   $ Msr (Multi)TechID: MsrNResSplitAC-lt45-S17
 "TwrSetpt" = 89.1   $ IP Non-Tech
 "UnocCoolT" = 86   $ IP Non-Tech
 "UnocHeatT" = 62   $ IP Non-Tech
 "UseEconoVintApplic" = FALSE   $ Msr (Multi)TechID: MsrNResSplitAC-lt45-S17
 "WlhpVintEconoFlag" = 1   $ IP Non-Tech
 "DuctDT" = 1   $ IP Tech: ComDuctInsul-1
 "DuctAirLoss" = 0   $ IP Tech: ComDuctLeak-0
 "DuctLossOAFrac" = 0   $ IP Tech: ComDuctLeak-0
 "ComRoofInsCalc" = FromUo   $ IP Tech: ComRoofIns-WFrm-0.03
 "ComRoofInsR" = -999   $ IP Tech: ComRoofIns-WFrm-0.03
 "ComRoofUo" = 0.03   $ IP Tech: ComRoofIns-WFrm-0.03
 "ComEWInsCalc" = FromUo   $ IP Tech: ComWallIns-WFrm-0.04
 "ComEWInsR" = -999   $ IP Tech: ComWallIns-WFrm-0.04
 "ComEWUo" = 0.04   $ IP Tech: ComWallIns-WFrm-0.04
 "ComN_SHGC" = 0.25   $ IP Tech: NResWin-ComN-0.36-0.25
 "ComN_UFactor" = 0.36   $ IP Tech: NResWin-ComN-0.36-0.25
 "ComN_VisTrans" = 0.41   $ IP Tech: NResWin-ComN-0.36-0.25
 "ComN_WinCode" = G2668   $ IP Tech: NResWin-ComN-0.36-0.25
 "ComN_WinFrmFrac" = 0.17   $ IP Tech: NResWin-ComN-0.36-0.25
 "ComN_WinFrmU" = 0.3   $ IP Tech: NResWin-ComN-0.36-0.25
 "ComO_SHGC" = 0.25   $ IP Tech: NResWin-ComO-0.36-0.25
 "ComO_UFactor" = 0.36   $ IP Tech: NResWin-ComO-0.36-0.25
 "ComO_VisTrans" = 0.41   $ IP Tech: NResWin-ComO-0.36-0.25
 "ComO_WinCode" = G2668   $ IP Tech: NResWin-ComO-0.36-0.25
 "ComO_WinFrmFrac" = 0.17   $ IP Tech: NResWin-ComO-0.36-0.25
 "ComO_WinFrmU" = 0.3   $ IP Tech: NResWin-ComO-0.36-0.25
 "LtgMsrApplic" = ALL   $ IP Tech: NonResLtgRefPre
 "LtgSav_CFL" = 0   $ IP Tech: NonResLtgRefPre
 "LtgSav_EX" = 0   $ IP Tech: NonResLtgRefPre
 "LtgSav_HB" = 0   $ IP Tech: NonResLtgRefPre
 "LtgSav_LF" = 0   $ IP Tech: NonResLtgRefPre
 "LtgSav_SP" = 0   $ IP Tech: NonResLtgRefPre
 "CEIR_fPLR" = PSZ65to135_CEIR_fPLR   $ IP Tech: PkgAC2SpP-65to135-E11
 "CLoss_fPLR" = PSZ65to135_CLoss_fPLR   $ IP Tech: PkgAC2SpP-65to135-E11
 "COP" = -1   $ IP Tech: PkgAC2SpP-65to135-E11
 "HtgFuel" = Gas   $ IP Tech: PkgAC2SpP-65to135-E11
 "IEER" = 13.35   $ IP Tech: PkgAC2SpP-65to135-E11
 "NominalCap" = 15   $ IP Tech: PkgAC2SpP-65to135-E11
 "RatedEER" = 11   $ IP Tech: PkgAC2SpP-65to135-E11
 "RatedSupMtrClass" = Premium   $ IP Tech: PkgAC2SpP-65to135-E11
 "SizeRange" = 65to135   $ IP Tech: PkgAC2SpP-65to135-E11
 "SupMotEff" = 0.865   $ IP Tech: PkgAC2SpP-65to135-E11
 "Tier" = 0   $ IP Tech: PkgAC2SpP-65to135-E11
 "FanPwrMult" = 1   $ IP Tech: PkgFurn-0.80AFUE
 "FurnAFUE" = 0.8   $ IP Tech: PkgFurn-0.80AFUE
 "FurnEt" = 0.82   $ IP Tech: PkgFurn-0.80AFUE
 "FurnaceAuxKW" = 0.1   $ IP Tech: PkgFurn-0.80AFUE
 "HIR_fPLR" = Furnace-HIR-fPLR   $ IP Tech: PkgFurn-0.80AFUE
 "VSM" = FALSE   $ IP Tech: PkgFurn-0.80AFUE
 "BFMult" = 1   $ IP Tech: RefgChg-NRes-Std
 "CoolEirMult" = 1   $ IP Tech: RefgChg-NRes-Std
 "SensCoolCapMult" = 1   $ IP Tech: RefgChg-NRes-Std
 "TotCoolCapMult" = 1   $ IP Tech: RefgChg-NRes-Std
 "AltAdjFactor" = 1.017668   $ Sizing
 "CAssFlo_L_Break_CZn" = 645.0803   $ Sizing
 "CAssFlo_L_CompDC_CZn" = 175.1667   $ Sizing
 "CAssFlo_L_Conf_CZn" = 374.8394   $ Sizing
 "CAssFlo_L_CopyRm_CZn" = 136.9308   $ Sizing
 "CAssFlo_L_Hall_EZn" = 132.1954   $ Sizing
 "CAssFlo_L_Hall_NZn" = 89.52052   $ Sizing
 "CAssFlo_L_Hall_SZn" = 120.6485   $ Sizing
 "CAssFlo_L_Hall_WZn" = 141.9346   $ Sizing
 "CAssFlo_L_LobWait_EZn" = 319.9888   $ Sizing
 "CAssFlo_L_LobWait_NZn" = 240.1612   $ Sizing
 "CAssFlo_L_LobWait_SZn" = 295.9333   $ Sizing
 "CAssFlo_L_LobWait_WZn" = 368.7492   $ Sizing
 "CAssFlo_L_MechElec_CZn" = 120.837   $ Sizing
 "CAssFlo_L_OfficeOpn_CZn" = 91.24381   $ Sizing
 "CAssFlo_L_OfficeOpn_EZn" = 556.6978   $ Sizing
 "CAssFlo_L_OfficeOpn_NZn" = 444.7965   $ Sizing
 "CAssFlo_L_OfficeOpn_SZn" = 512.0891   $ Sizing
 "CAssFlo_L_OfficeOpn_WZn" = 611.6625   $ Sizing
 "CAssFlo_L_OfficeSm_EZn" = 461.1529   $ Sizing
 "CAssFlo_L_OfficeSm_NZn" = 346.8668   $ Sizing
 "CAssFlo_L_OfficeSm_SZn" = 431.4396   $ Sizing
 "CAssFlo_L_OfficeSm_WZn" = 513.6102   $ Sizing
 "CAssFlo_L_Restrm_CZn" = 120.5511   $ Sizing
 "CAssFlo_L_StorSm_CZn" = 50.82542   $ Sizing
 "CAssFlo_L_StorSm_EZn" = 135.9978   $ Sizing
 "CAssFlo_L_StorSm_NZn" = 94.52199   $ Sizing
 "CAssFlo_L_StorSm_SZn" = 123.6305   $ Sizing
 "CAssFlo_L_StorSm_WZn" = 142.2791   $ Sizing
 "CAssFlo_T_Conf_CZn" = 363.4355   $ Sizing
 "CAssFlo_T_Hall_EZn" = 140.2291   $ Sizing
 "CAssFlo_T_Hall_NZn" = 87.96238   $ Sizing
 "CAssFlo_T_Hall_SZn" = 125.8597   $ Sizing
 "CAssFlo_T_Hall_WZn" = 143.3804   $ Sizing
 "CAssFlo_T_OfficeOpn_CZn" = 85.30967   $ Sizing
 "CAssFlo_T_OfficeOpn_EZn" = 572.754   $ Sizing
 "CAssFlo_T_OfficeOpn_NZn" = 433.9963   $ Sizing
 "CAssFlo_T_OfficeOpn_SZn" = 530.9877   $ Sizing
 "CAssFlo_T_OfficeOpn_WZn" = 616.6793   $ Sizing
 "CAssFlo_T_OfficeSm_EZn" = 477.8024   $ Sizing
 "CAssFlo_T_OfficeSm_NZn" = 339.4525   $ Sizing
 "CAssFlo_T_OfficeSm_SZn" = 446.1061   $ Sizing
 "CAssFlo_T_OfficeSm_WZn" = 518.8251   $ Sizing
 "CAssFlo_T_Restrm_CZn" = 164.2872   $ Sizing
 "CAssFlo_T_StorSm_EZn" = 150.9598   $ Sizing
 "CAssFlo_T_StorSm_NZn" = 101.7888   $ Sizing
 "CAssFlo_T_StorSm_SZn" = 133.9784   $ Sizing
 "CAssFlo_T_StorSm_WZn" = 155.121   $ Sizing
 "CHRtFlo_Sys_L_Break_C" = 645.0803   $ Sizing
 "CHRtFlo_Sys_L_CompDC_C" = 175.8884   $ Sizing
 "CHRtFlo_Sys_L_Conf_C" = 374.8394   $ Sizing
 "CHRtFlo_Sys_L_CopyRm_C" = 136.9308   $ Sizing
 "CHRtFlo_Sys_L_Hall_E" = 132.5111   $ Sizing
 "CHRtFlo_Sys_L_Hall_N" = 89.52052   $ Sizing
 "CHRtFlo_Sys_L_Hall_S" = 127.1704   $ Sizing
 "CHRtFlo_Sys_L_Hall_W" = 141.9346   $ Sizing
 "CHRtFlo_Sys_L_LobWait_E" = 319.9888   $ Sizing
 "CHRtFlo_Sys_L_LobWait_N" = 240.1612   $ Sizing
 "CHRtFlo_Sys_L_LobWait_S" = 295.9333   $ Sizing
 "CHRtFlo_Sys_L_LobWait_W" = 368.7492   $ Sizing
 "CHRtFlo_Sys_L_MechElec_C" = 120.837   $ Sizing
 "CHRtFlo_Sys_L_OfficeOpn_C" = 91.24381   $ Sizing
 "CHRtFlo_Sys_L_OfficeOpn_E" = 556.6978   $ Sizing
 "CHRtFlo_Sys_L_OfficeOpn_N" = 444.7965   $ Sizing
 "CHRtFlo_Sys_L_OfficeOpn_S" = 512.0891   $ Sizing
 "CHRtFlo_Sys_L_OfficeOpn_W" = 611.6625   $ Sizing
 "CHRtFlo_Sys_L_OfficeSm_E" = 461.1529   $ Sizing
 "CHRtFlo_Sys_L_OfficeSm_N" = 346.8668   $ Sizing
 "CHRtFlo_Sys_L_OfficeSm_S" = 436.1216   $ Sizing
 "CHRtFlo_Sys_L_OfficeSm_W" = 513.6102   $ Sizing
 "CHRtFlo_Sys_L_Restrm_C" = 120.5511   $ Sizing
 "CHRtFlo_Sys_L_StorSm_C" = 50.82542   $ Sizing
 "CHRtFlo_Sys_L_StorSm_E" = 135.9978   $ Sizing
 "CHRtFlo_Sys_L_StorSm_N" = 94.52199   $ Sizing
 "CHRtFlo_Sys_L_StorSm_S" = 123.6305   $ Sizing
 "CHRtFlo_Sys_L_StorSm_W" = 142.2791   $ Sizing
 "CHRtFlo_Sys_T_Conf_C" = 363.4355   $ Sizing
 "CHRtFlo_Sys_T_Hall_E" = 140.2291   $ Sizing
 "CHRtFlo_Sys_T_Hall_N" = 87.96238   $ Sizing
 "CHRtFlo_Sys_T_Hall_S" = 125.8597   $ Sizing
 "CHRtFlo_Sys_T_Hall_W" = 143.3804   $ Sizing
 "CHRtFlo_Sys_T_OfficeOpn_C" = 85.30967   $ Sizing
 "CHRtFlo_Sys_T_OfficeOpn_E" = 572.754   $ Sizing
 "CHRtFlo_Sys_T_OfficeOpn_N" = 433.9963   $ Sizing
 "CHRtFlo_Sys_T_OfficeOpn_S" = 530.9877   $ Sizing
 "CHRtFlo_Sys_T_OfficeOpn_W" = 616.6793   $ Sizing
 "CHRtFlo_Sys_T_OfficeSm_E" = 477.8024   $ Sizing
 "CHRtFlo_Sys_T_OfficeSm_N" = 339.4525   $ Sizing
 "CHRtFlo_Sys_T_OfficeSm_S" = 446.1061   $ Sizing
 "CHRtFlo_Sys_T_OfficeSm_W" = 518.8251   $ Sizing
 "CHRtFlo_Sys_T_Restrm_C" = 164.2872   $ Sizing
 "CHRtFlo_Sys_T_StorSm_E" = 150.9598   $ Sizing
 "CHRtFlo_Sys_T_StorSm_N" = 101.7888   $ Sizing
 "CHRtFlo_Sys_T_StorSm_S" = 133.9784   $ Sizing
 "CHRtFlo_Sys_T_StorSm_W" = 155.121   $ Sizing
 "CRtdFlo_Sys_L_Break_C" = 645.0803   $ Sizing
 "CRtdFlo_Sys_L_CompDC_C" = 175.1667   $ Sizing
 "CRtdFlo_Sys_L_Conf_C" = 374.8394   $ Sizing
 "CRtdFlo_Sys_L_CopyRm_C" = 136.9308   $ Sizing
 "CRtdFlo_Sys_L_Hall_E" = 132.1954   $ Sizing
 "CRtdFlo_Sys_L_Hall_N" = 89.52052   $ Sizing
 "CRtdFlo_Sys_L_Hall_S" = 120.6485   $ Sizing
 "CRtdFlo_Sys_L_Hall_W" = 141.9346   $ Sizing
 "CRtdFlo_Sys_L_LobWait_E" = 319.9888   $ Sizing
 "CRtdFlo_Sys_L_LobWait_N" = 240.1612   $ Sizing
 "CRtdFlo_Sys_L_LobWait_S" = 295.9333   $ Sizing
 "CRtdFlo_Sys_L_LobWait_W" = 368.7492   $ Sizing
 "CRtdFlo_Sys_L_MechElec_C" = 120.837   $ Sizing
 "CRtdFlo_Sys_L_OfficeOpn_C" = 91.24381   $ Sizing
 "CRtdFlo_Sys_L_OfficeOpn_E" = 556.6978   $ Sizing
 "CRtdFlo_Sys_L_OfficeOpn_N" = 444.7965   $ Sizing
 "CRtdFlo_Sys_L_OfficeOpn_S" = 512.0891   $ Sizing
 "CRtdFlo_Sys_L_OfficeOpn_W" = 611.6625   $ Sizing
 "CRtdFlo_Sys_L_OfficeSm_E" = 461.1529   $ Sizing
 "CRtdFlo_Sys_L_OfficeSm_N" = 346.8668   $ Sizing
 "CRtdFlo_Sys_L_OfficeSm_S" = 431.4396   $ Sizing
 "CRtdFlo_Sys_L_OfficeSm_W" = 513.6102   $ Sizing
 "CRtdFlo_Sys_L_Restrm_C" = 120.5511   $ Sizing
 "CRtdFlo_Sys_L_StorSm_C" = 50.82542   $ Sizing
 "CRtdFlo_Sys_L_StorSm_E" = 135.9978   $ Sizing
 "CRtdFlo_Sys_L_StorSm_N" = 94.52199   $ Sizing
 "CRtdFlo_Sys_L_StorSm_S" = 123.6305   $ Sizing
 "CRtdFlo_Sys_L_StorSm_W" = 142.2791   $ Sizing
 "CRtdFlo_Sys_T_Conf_C" = 363.4355   $ Sizing
 "CRtdFlo_Sys_T_Hall_E" = 140.2291   $ Sizing
 "CRtdFlo_Sys_T_Hall_N" = 87.96238   $ Sizing
 "CRtdFlo_Sys_T_Hall_S" = 125.8597   $ Sizing
 "CRtdFlo_Sys_T_Hall_W" = 143.3804   $ Sizing
 "CRtdFlo_Sys_T_OfficeOpn_C" = 85.30967   $ Sizing
 "CRtdFlo_Sys_T_OfficeOpn_E" = 572.754   $ Sizing
 "CRtdFlo_Sys_T_OfficeOpn_N" = 433.9963   $ Sizing
 "CRtdFlo_Sys_T_OfficeOpn_S" = 530.9877   $ Sizing
 "CRtdFlo_Sys_T_OfficeOpn_W" = 616.6793   $ Sizing
 "CRtdFlo_Sys_T_OfficeSm_E" = 477.8024   $ Sizing
 "CRtdFlo_Sys_T_OfficeSm_N" = 339.4525   $ Sizing
 "CRtdFlo_Sys_T_OfficeSm_S" = 446.1061   $ Sizing
 "CRtdFlo_Sys_T_OfficeSm_W" = 518.8251   $ Sizing
 "CRtdFlo_Sys_T_Restrm_C" = 164.2872   $ Sizing
 "CRtdFlo_Sys_T_StorSm_E" = 150.9598   $ Sizing
 "CRtdFlo_Sys_T_StorSm_N" = 101.7888   $ Sizing
 "CRtdFlo_Sys_T_StorSm_S" = 133.9784   $ Sizing
 "CRtdFlo_Sys_T_StorSm_W" = 155.121   $ Sizing
 "CSupFlo_Sys_L_Break_C" = 645.0803   $ Sizing
 "CSupFlo_Sys_L_CompDC_C" = 175.1667   $ Sizing
 "CSupFlo_Sys_L_Conf_C" = 374.8394   $ Sizing
 "CSupFlo_Sys_L_CopyRm_C" = 136.9308   $ Sizing
 "CSupFlo_Sys_L_Hall_E" = 132.1954   $ Sizing
 "CSupFlo_Sys_L_Hall_N" = 89.52052   $ Sizing
 "CSupFlo_Sys_L_Hall_S" = 120.6485   $ Sizing
 "CSupFlo_Sys_L_Hall_W" = 141.9346   $ Sizing
 "CSupFlo_Sys_L_LobWait_E" = 319.9888   $ Sizing
 "CSupFlo_Sys_L_LobWait_N" = 240.1612   $ Sizing
 "CSupFlo_Sys_L_LobWait_S" = 295.9333   $ Sizing
 "CSupFlo_Sys_L_LobWait_W" = 368.7492   $ Sizing
 "CSupFlo_Sys_L_MechElec_C" = 120.837   $ Sizing
 "CSupFlo_Sys_L_OfficeOpn_C" = 91.24381   $ Sizing
 "CSupFlo_Sys_L_OfficeOpn_E" = 556.6978   $ Sizing
 "CSupFlo_Sys_L_OfficeOpn_N" = 444.7965   $ Sizing
 "CSupFlo_Sys_L_OfficeOpn_S" = 512.0891   $ Sizing
 "CSupFlo_Sys_L_OfficeOpn_W" = 611.6625   $ Sizing
 "CSupFlo_Sys_L_OfficeSm_E" = 461.1529   $ Sizing
 "CSupFlo_Sys_L_OfficeSm_N" = 346.8668   $ Sizing
 "CSupFlo_Sys_L_OfficeSm_S" = 431.4396   $ Sizing
 "CSupFlo_Sys_L_OfficeSm_W" = 513.6102   $ Sizing
 "CSupFlo_Sys_L_Restrm_C" = 120.5511   $ Sizing
 "CSupFlo_Sys_L_StorSm_C" = 50.82542   $ Sizing
 "CSupFlo_Sys_L_StorSm_E" = 135.9978   $ Sizing
 "CSupFlo_Sys_L_StorSm_N" = 94.52199   $ Sizing
 "CSupFlo_Sys_L_StorSm_S" = 123.6305   $ Sizing
 "CSupFlo_Sys_L_StorSm_W" = 142.2791   $ Sizing
 "CSupFlo_Sys_T_Conf_C" = 363.4355   $ Sizing
 "CSupFlo_Sys_T_Hall_E" = 140.2291   $ Sizing
 "CSupFlo_Sys_T_Hall_N" = 87.96238   $ Sizing
 "CSupFlo_Sys_T_Hall_S" = 125.8597   $ Sizing
 "CSupFlo_Sys_T_Hall_W" = 143.3804   $ Sizing
 "CSupFlo_Sys_T_OfficeOpn_C" = 85.30967   $ Sizing
 "CSupFlo_Sys_T_OfficeOpn_E" = 572.754   $ Sizing
 "CSupFlo_Sys_T_OfficeOpn_N" = 433.9963   $ Sizing
 "CSupFlo_Sys_T_OfficeOpn_S" = 530.9877   $ Sizing
 "CSupFlo_Sys_T_OfficeOpn_W" = 616.6793   $ Sizing
 "CSupFlo_Sys_T_OfficeSm_E" = 477.8024   $ Sizing
 "CSupFlo_Sys_T_OfficeSm_N" = 339.4525   $ Sizing
 "CSupFlo_Sys_T_OfficeSm_S" = 446.1061   $ Sizing
 "CSupFlo_Sys_T_OfficeSm_W" = 518.8251   $ Sizing
 "CSupFlo_Sys_T_Restrm_C" = 164.2872   $ Sizing
 "CSupFlo_Sys_T_StorSm_E" = 150.9598   $ Sizing
 "CSupFlo_Sys_T_StorSm_N" = 101.7888   $ Sizing
 "CSupFlo_Sys_T_StorSm_S" = 133.9784   $ Sizing
 "CSupFlo_Sys_T_StorSm_W" = 155.121   $ Sizing
 "ClCap_Sys_L_Break_C" = 21733.07   $ Sizing
 "ClCap_Sys_L_CompDC_C" = 5901.452   $ Sizing
 "ClCap_Sys_L_Conf_C" = 16072.66   $ Sizing
 "ClCap_Sys_L_CopyRm_C" = 4613.264   $ Sizing
 "ClCap_Sys_L_Hall_E" = 4453.728   $ Sizing
 "ClCap_Sys_L_Hall_N" = 3015.99   $ Sizing
 "ClCap_Sys_L_Hall_S" = 4064.706   $ Sizing
 "ClCap_Sys_L_Hall_W" = 4781.845   $ Sizing
 "ClCap_Sys_L_LobWait_E" = 10780.58   $ Sizing
 "ClCap_Sys_L_LobWait_N" = 8091.147   $ Sizing
 "ClCap_Sys_L_LobWait_S" = 9970.136   $ Sizing
 "ClCap_Sys_L_LobWait_W" = 12423.34   $ Sizing
 "ClCap_Sys_L_MechElec_C" = 4071.057   $ Sizing
 "ClCap_Sys_L_OfficeOpn_C" = 3074.048   $ Sizing
 "ClCap_Sys_L_OfficeOpn_E" = 18755.42   $ Sizing
 "ClCap_Sys_L_OfficeOpn_N" = 14985.41   $ Sizing
 "ClCap_Sys_L_OfficeOpn_S" = 17252.53   $ Sizing
 "ClCap_Sys_L_OfficeOpn_W" = 20607.21   $ Sizing
 "ClCap_Sys_L_OfficeSm_E" = 15536.46   $ Sizing
 "ClCap_Sys_L_OfficeSm_N" = 11686.11   $ Sizing
 "ClCap_Sys_L_OfficeSm_S" = 14535.41   $ Sizing
 "ClCap_Sys_L_OfficeSm_W" = 17303.78   $ Sizing
 "ClCap_Sys_L_Restrm_C" = 4061.424   $ Sizing
 "ClCap_Sys_L_StorSm_C" = 1712.333   $ Sizing
 "ClCap_Sys_L_StorSm_E" = 4581.83   $ Sizing
 "ClCap_Sys_L_StorSm_N" = 3184.491   $ Sizing
 "ClCap_Sys_L_StorSm_S" = 4165.171   $ Sizing
 "ClCap_Sys_L_StorSm_W" = 4793.453   $ Sizing
 "ClCap_Sys_T_Conf_C" = 15583.68   $ Sizing
 "ClCap_Sys_T_Hall_E" = 4724.385   $ Sizing
 "ClCap_Sys_T_Hall_N" = 2963.495   $ Sizing
 "ClCap_Sys_T_Hall_S" = 4240.275   $ Sizing
 "ClCap_Sys_T_Hall_W" = 4830.555   $ Sizing
 "ClCap_Sys_T_OfficeOpn_C" = 2874.124   $ Sizing
 "ClCap_Sys_T_OfficeOpn_E" = 19296.36   $ Sizing
 "ClCap_Sys_T_OfficeOpn_N" = 14621.54   $ Sizing
 "ClCap_Sys_T_OfficeOpn_S" = 17889.23   $ Sizing
 "ClCap_Sys_T_OfficeOpn_W" = 20776.22   $ Sizing
 "ClCap_Sys_T_OfficeSm_E" = 16097.39   $ Sizing
 "ClCap_Sys_T_OfficeSm_N" = 11436.32   $ Sizing
 "ClCap_Sys_T_OfficeSm_S" = 15029.53   $ Sizing
 "ClCap_Sys_T_OfficeSm_W" = 17479.47   $ Sizing
 "ClCap_Sys_T_Restrm_C" = 5534.914   $ Sizing
 "ClCap_Sys_T_StorSm_E" = 5085.908   $ Sizing
 "ClCap_Sys_T_StorSm_N" = 3429.313   $ Sizing
 "ClCap_Sys_T_StorSm_S" = 4513.796   $ Sizing
 "ClCap_Sys_T_StorSm_W" = 5226.102   $ Sizing
 "HtCap_Sys_L_Break_C" = -32952.69   $ Sizing
 "HtCap_Sys_L_CompDC_C" = -8391.661   $ Sizing
 "HtCap_Sys_L_Conf_C" = -19834   $ Sizing
 "HtCap_Sys_L_CopyRm_C" = -6951.745   $ Sizing
 "HtCap_Sys_L_Hall_E" = -4324.688   $ Sizing
 "HtCap_Sys_L_Hall_N" = -3064.26   $ Sizing
 "HtCap_Sys_L_Hall_S" = -4055.047   $ Sizing
 "HtCap_Sys_L_Hall_W" = -4627.526   $ Sizing
 "HtCap_Sys_L_LobWait_E" = -11267.48   $ Sizing
 "HtCap_Sys_L_LobWait_N" = -9647.292   $ Sizing
 "HtCap_Sys_L_LobWait_S" = -10580.44   $ Sizing
 "HtCap_Sys_L_LobWait_W" = -12965.63   $ Sizing
 "HtCap_Sys_L_MechElec_C" = -4414.048   $ Sizing
 "HtCap_Sys_L_OfficeOpn_C" = -3189.618   $ Sizing
 "HtCap_Sys_L_OfficeOpn_E" = -26843.29   $ Sizing
 "HtCap_Sys_L_OfficeOpn_N" = -16312.49   $ Sizing
 "HtCap_Sys_L_OfficeOpn_S" = -17006.08   $ Sizing
 "HtCap_Sys_L_OfficeOpn_W" = -20514.44   $ Sizing
 "HtCap_Sys_L_OfficeSm_E" = -14644.36   $ Sizing
 "HtCap_Sys_L_OfficeSm_N" = -12372.4   $ Sizing
 "HtCap_Sys_L_OfficeSm_S" = -14074.47   $ Sizing
 "HtCap_Sys_L_OfficeSm_W" = -16493.72   $ Sizing
 "HtCap_Sys_L_Restrm_C" = -3863.423   $ Sizing
 "HtCap_Sys_L_StorSm_C" = -1815.925   $ Sizing
 "HtCap_Sys_L_StorSm_E" = -4620.771   $ Sizing
 "HtCap_Sys_L_StorSm_N" = -3626.588   $ Sizing
 "HtCap_Sys_L_StorSm_S" = -4197.7   $ Sizing
 "HtCap_Sys_L_StorSm_W" = -5015.402   $ Sizing
 "HtCap_Sys_T_Conf_C" = -19755.98   $ Sizing
 "HtCap_Sys_T_Hall_E" = -4881.006   $ Sizing
 "HtCap_Sys_T_Hall_N" = -3376.191   $ Sizing
 "HtCap_Sys_T_Hall_S" = -4490.493   $ Sizing
 "HtCap_Sys_T_Hall_W" = -5124.625   $ Sizing
 "HtCap_Sys_T_OfficeOpn_C" = -3307.269   $ Sizing
 "HtCap_Sys_T_OfficeOpn_E" = -20720.78   $ Sizing
 "HtCap_Sys_T_OfficeOpn_N" = -17071.72   $ Sizing
 "HtCap_Sys_T_OfficeOpn_S" = -19207.18   $ Sizing
 "HtCap_Sys_T_OfficeOpn_W" = -22450.55   $ Sizing
 "HtCap_Sys_T_OfficeSm_E" = -16151.43   $ Sizing
 "HtCap_Sys_T_OfficeSm_N" = -13093.42   $ Sizing
 "HtCap_Sys_T_OfficeSm_S" = -15236.47   $ Sizing
 "HtCap_Sys_T_OfficeSm_W" = -18296.89   $ Sizing
 "HtCap_Sys_T_Restrm_C" = -5416.104   $ Sizing
 "HtCap_Sys_T_StorSm_E" = -5711.518   $ Sizing
 "HtCap_Sys_T_StorSm_N" = -4296.504   $ Sizing
 "HtCap_Sys_T_StorSm_S" = -5039.516   $ Sizing
 "HtCap_Sys_T_StorSm_W" = -5953.774   $ Sizing
..

##include Templates\OfS_DX_SZ.inp
END ..
COMPUTE ..
STOP ..
