INPUT ..

##fileprefix C:\Users\jglasskatz\MASControl3\
##set1 IsSizing FALSE
##set1 CoolType DX
##set1 HeatType ELECTRIC
##set1 EU_HrRepVar 1
##set1 BldgVint 2003
##set1 BldgLoc CZ01

 ##set1 mBFMult 1   $ IP Tech: RefgChg-NRes-Std

PARAMETER
 "AltFactor" = 1.00753   $ IP Non-Tech
 "BldgEconoFlag" = 1   $ IP Non-Tech
 "Break_EWSF" = 1   $ IP Non-Tech
 "Break_LWSF" = 1.1   $ IP Non-Tech
 "CDD_DBHi10" = 65   $ IP Non-Tech
 "CDD_DBHi7" = 68   $ IP Non-Tech
 "CDD_DBHi8" = 66   $ IP Non-Tech
 "CDD_DBHi9" = 77   $ IP Non-Tech
 "CDD_DBRange10" = 17   $ IP Non-Tech
 "CDD_DBRange7" = 11   $ IP Non-Tech
 "CDD_DBRange8" = 10   $ IP Non-Tech
 "CDD_DBRange9" = 29   $ IP Non-Tech
 "CDD_Day10" = 15   $ IP Non-Tech
 "CDD_Day7" = 16   $ IP Non-Tech
 "CDD_Day8" = 20   $ IP Non-Tech
 "CDD_Day9" = 17   $ IP Non-Tech
 "CDD_HrHi10" = 12   $ IP Non-Tech
 "CDD_HrHi7" = 12   $ IP Non-Tech
 "CDD_HrHi8" = 13   $ IP Non-Tech
 "CDD_HrHi9" = 17   $ IP Non-Tech
 "CDD_HrLo10" = 6   $ IP Non-Tech
 "CDD_HrLo7" = 3   $ IP Non-Tech
 "CDD_HrLo8" = 8   $ IP Non-Tech
 "CDD_HrLo9" = 4   $ IP Non-Tech
 "CDD_WB10" = 57.53039551   $ IP Non-Tech
 "CDD_WB7" = 59.29250717   $ IP Non-Tech
 "CDD_WB8" = 60.75350189   $ IP Non-Tech
 "CDD_WB9" = 61.08643341   $ IP Non-Tech
 "CZ_Category" = Tem   $ IP Non-Tech
 "ChwVintEconoFlag" = 1   $ IP Non-Tech
 "CompRoomData_EWSF" = 5   $ IP Non-Tech
 "CompRoomData_LWSF" = 1.2   $ IP Non-Tech
 "Conference_EWSF" = 1   $ IP Non-Tech
 "Conference_LWSF" = 1.4   $ IP Non-Tech
 "CoolSetT" = 45   $ IP Non-Tech
 "CoolType" = DX   $ IP Non-Tech
 "CopyRoom_EWSF" = 1.5   $ IP Non-Tech
 "CopyRoom_LWSF" = 1.3   $ IP Non-Tech
 "DesCoolT" = 75   $ IP Non-Tech
 "DesHeatT" = 73   $ IP Non-Tech
 "EconoEnthLimit" = 28   $ IP Non-Tech
 "EconoTempLimit" = 70   $ IP Non-Tech
 "Elevation" = 203   $ IP Non-Tech
 "HDD_CloudAmt1" = 0   $ IP Non-Tech
 "HDD_DBHi1" = 53   $ IP Non-Tech
 "HDD_DBRange1" = 20   $ IP Non-Tech
 "HDD_Day1" = 15   $ IP Non-Tech
 "HDD_HrHi1" = 14   $ IP Non-Tech
 "HDD_HrLo1" = 6   $ IP Non-Tech
 "HDD_WB1" = 42.3   $ IP Non-Tech
 "HDD_WindSpd1" = 12.7   $ IP Non-Tech
 "Hall_EWSF" = 0.2   $ IP Non-Tech
 "Hall_LWSF" = 0.6   $ IP Non-Tech
 "HeatSrc" = ELECTRIC   $ IP Non-Tech
 "HeatSrcTU" = HEAT-PUMP   $ IP Non-Tech
 "HeatType" = Elec   $ IP Non-Tech
 "HeatTypeTU" = HEAT-PUMP   $ IP Non-Tech
 "IndoorFanMode" = CONTINUOUS   $ IP Non-Tech
 "KT_TransferAir" = No   $ IP Non-Tech
 "Latitude" = 40.8   $ IP Non-Tech
 "LobbyWaiting_EWSF" = 0.5   $ IP Non-Tech
 "LobbyWaiting_LWSF" = 1.3   $ IP Non-Tech
 "Longitude" = 124.2   $ IP Non-Tech
 "LtgMsrApplic" = ALL   $ Msr TechID: NonResLtgRefMsr-EX
 "LtgSav_CFL" = 0   $ Msr TechID: NonResLtgRefMsr-EX
 "LtgSav_EX" = 0.3   $ Msr TechID: NonResLtgRefMsr-EX
 "LtgSav_HB" = 0   $ Msr TechID: NonResLtgRefMsr-EX
 "LtgSav_LF" = 0   $ Msr TechID: NonResLtgRefMsr-EX
 "LtgSav_SP" = 0   $ Msr TechID: NonResLtgRefMsr-EX
 "MZFanMechEff" = 0.58   $ IP Non-Tech
 "MZHasRetFan" = FALSE   $ IP Non-Tech
 "MZ_RFanWPerCfm" = 0.33   $ IP Non-Tech
 "MZ_SFanWPerCfm" = 0.75   $ IP Non-Tech
 "MZ_SupFanStatic" = 2.25   $ IP Non-Tech
 "MaxSupT_MZ" = 100   $ IP Non-Tech
 "MaxSupT_SZ" = 100   $ IP Non-Tech
 "MaxSupT_TU" = 90   $ IP Non-Tech
 "MechElecRoom_EWSF" = 0.2   $ IP Non-Tech
 "MechElecRoom_LWSF" = 0.7   $ IP Non-Tech
 "MinCfmPerSF" = 0.4   $ IP Non-Tech
 "MinSupT" = 55   $ IP Non-Tech
 "OccCoolT" = 76   $ IP Non-Tech
 "OccHeatT" = 72   $ IP Non-Tech
 "OfficeOpen_EWSF" = 1.5   $ IP Non-Tech
 "OfficeOpen_LWSF" = 1.2   $ IP Non-Tech
 "OfficeSmall_EWSF" = 1.5   $ IP Non-Tech
 "OfficeSmall_LWSF" = 1.3   $ IP Non-Tech
 "PkgDxVintEconoFlag" = 0   $ IP Non-Tech
 "Restroom_EWSF" = 0.2   $ IP Non-Tech
 "Restroom_LWSF" = 0.6   $ IP Non-Tech
 "SZFanMechEff" = 0.58   $ IP Non-Tech
 "SZHasRetFan" = FALSE   $ IP Non-Tech
 "SZ_Is_2Spd" = FALSE   $ IP Non-Tech
 "SZ_SFanWPerCfm" = 0.46   $ IP Non-Tech
 "SZ_SupFanStatic" = 0.75   $ IP Non-Tech
 "StorageSmlCond_EWSF" = 0.2   $ IP Non-Tech
 "StorageSmlCond_LWSF" = 0.6   $ IP Non-Tech
 "T24GlzTbl" = CZTbl   $ IP Non-Tech
 "TermUnitFanMechEff" = 1   $ IP Non-Tech
 "TermUnitFanMode" = INTERMITTENT   $ IP Non-Tech
 "TwrSetpt" = 80   $ IP Non-Tech
 "UnocCoolT" = 86   $ IP Non-Tech
 "UnocHeatT" = 62   $ IP Non-Tech
 "WlhpVintEconoFlag" = 0   $ IP Non-Tech
 "EconoCtrl" = OA-TEMP   $ IP Tech: AirEcono-OATemp
 "MaxOAFrac" = 0.85   $ IP Tech: AirEcono-OATemp
 "UseEconoVintApplic" = FALSE   $ IP Tech: AirEcono-OATemp
 "DuctDT" = 1   $ IP Tech: ComDuctInsul-1
 "DuctAirLoss" = 0   $ IP Tech: ComDuctLeak-0
 "DuctLossOAFrac" = 0   $ IP Tech: ComDuctLeak-0
 "ComRoofInsCalc" = FromUo   $ IP Tech: ComRoofIns-WFrm-0.06
 "ComRoofInsR" = -999   $ IP Tech: ComRoofIns-WFrm-0.06
 "ComRoofUo" = 0.06   $ IP Tech: ComRoofIns-WFrm-0.06
 "ComEWInsCalc" = FromUo   $ IP Tech: ComWallIns-WFrm-0.08
 "ComEWInsR" = -999   $ IP Tech: ComWallIns-WFrm-0.08
 "ComEWUo" = 0.08   $ IP Tech: ComWallIns-WFrm-0.08
 "ComN_SHGC" = 0.47   $ IP Tech: NResWin-ComN-0.47-0.47
 "ComN_UFactor" = 0.47   $ IP Tech: NResWin-ComN-0.47-0.47
 "ComN_VisTrans" = 0.75   $ IP Tech: NResWin-ComN-0.47-0.47
 "ComN_WinCode" = G2633   $ IP Tech: NResWin-ComN-0.47-0.47
 "ComN_WinFrmFrac" = 0.17   $ IP Tech: NResWin-ComN-0.47-0.47
 "ComN_WinFrmU" = 0.3   $ IP Tech: NResWin-ComN-0.47-0.47
 "ComO_SHGC" = 0.43   $ IP Tech: NResWin-ComO-0.47-0.43
 "ComO_UFactor" = 0.47   $ IP Tech: NResWin-ComO-0.47-0.43
 "ComO_VisTrans" = 0.68   $ IP Tech: NResWin-ComO-0.47-0.43
 "ComO_WinCode" = G2663   $ IP Tech: NResWin-ComO-0.47-0.43
 "ComO_WinFrmFrac" = 0.17   $ IP Tech: NResWin-ComO-0.47-0.43
 "ComO_WinFrmU" = 0.3   $ IP Tech: NResWin-ComO-0.47-0.43
 "BF_fFlow" = PSZ65to135_BF_fFlow   $ IP Tech: PkgAC1SpH-65to135-E10
 "BF_fT" = PSZ65to135_BF_fT   $ IP Tech: PkgAC1SpH-65to135-E10
 "CEIR_fPLR" = PSZ65to135_CEIR_fPLR   $ IP Tech: PkgAC1SpH-65to135-E10
 "CLoss_fPLR" = PSZ65to135_CLoss_fPLR   $ IP Tech: PkgAC1SpH-65to135-E10
 "COP" = -1   $ IP Tech: PkgAC1SpH-65to135-E10
 "COP47" = -1   $ IP Tech: PkgAC1SpH-65to135-E10
 "CfmPerBtuh" = 0.02917   $ IP Tech: PkgAC1SpH-65to135-E10
 "ClCap_fT" = PSZ65to135_ClCap_fT   $ IP Tech: PkgAC1SpH-65to135-E10
 "ClSH_fT" = PSZ65to135_ClSH_fT   $ IP Tech: PkgAC1SpH-65to135-E10
 "CoilBF" = 0.114   $ IP Tech: PkgAC1SpH-65to135-E10
 "CondWPerBtuh" = 0   $ IP Tech: PkgAC1SpH-65to135-E10
 "CoolSensCap" = 0.663   $ IP Tech: PkgAC1SpH-65to135-E10
 "CoolingEIR" = 0.29745   $ IP Tech: PkgAC1SpH-65to135-E10
 "CrnkEIR" = 0.01   $ IP Tech: PkgAC1SpH-65to135-E10
 "CrnkMaxT" = 50   $ IP Tech: PkgAC1SpH-65to135-E10
 "DXType" = Pkg   $ IP Tech: PkgAC1SpH-65to135-E10
 "EER" = 9.67   $ IP Tech: PkgAC1SpH-65to135-E10
 "EIR_fT" = PSZ65to135_EIR_fT   $ IP Tech: PkgAC1SpH-65to135-E10
 "FanEirPlr" = TwoSpeedFan   $ IP Tech: PkgAC1SpH-65to135-E10
 "FanWPerCfm" = 0.412   $ IP Tech: PkgAC1SpH-65to135-E10
 "HIR_fT" = DEFAULT   $ IP Tech: PkgAC1SpH-65to135-E10
 "HtCap_fT" = DEFAULT   $ IP Tech: PkgAC1SpH-65to135-E10
 "HtCoolCapRatio" = -1   $ IP Tech: PkgAC1SpH-65to135-E10
 "HtgEIR" = -1   $ IP Tech: PkgAC1SpH-65to135-E10
 "HtgFuel" = Gas   $ IP Tech: PkgAC1SpH-65to135-E10
 "IEER" = 11.87   $ IP Tech: PkgAC1SpH-65to135-E10
 "LowSpdCapRatio" = 0.5   $ IP Tech: PkgAC1SpH-65to135-E10
 "LowSpdCfmRatio" = 0.66   $ IP Tech: PkgAC1SpH-65to135-E10
 "NominalCap" = 15   $ IP Tech: PkgAC1SpH-65to135-E10
 "NumStages" = 1   $ IP Tech: PkgAC1SpH-65to135-E10
 "RatedEER" = 10   $ IP Tech: PkgAC1SpH-65to135-E10
 "RatedSupMtrClass" = HiEff   $ IP Tech: PkgAC1SpH-65to135-E10
 "SizeRange" = 65to135   $ IP Tech: PkgAC1SpH-65to135-E10
 "SubType" = AC   $ IP Tech: PkgAC1SpH-65to135-E10
 "SupMotEff" = 0.84   $ IP Tech: PkgAC1SpH-65to135-E10
 "Tier" = 0   $ IP Tech: PkgAC1SpH-65to135-E10
 "TotCoolCap" = 184140   $ IP Tech: PkgAC1SpH-65to135-E10
 "BFMult" = 1   $ IP Tech: RefgChg-NRes-Std
 "CoolEirMult" = 1   $ IP Tech: RefgChg-NRes-Std
 "SensCoolCapMult" = 1   $ IP Tech: RefgChg-NRes-Std
 "TotCoolCapMult" = 1   $ IP Tech: RefgChg-NRes-Std
 "AltAdjFactor" = 1.007532   $ Sizing
 "CAssFlo_L_Break_CZn" = 280.0074   $ Sizing
 "CAssFlo_L_CompDC_CZn" = 162.5375   $ Sizing
 "CAssFlo_L_Conf_CZn" = 207.8572   $ Sizing
 "CAssFlo_L_CopyRm_CZn" = 59.23042   $ Sizing
 "CAssFlo_L_Hall_EZn" = 97.61909   $ Sizing
 "CAssFlo_L_Hall_NZn" = 54.52041   $ Sizing
 "CAssFlo_L_Hall_SZn" = 112.5412   $ Sizing
 "CAssFlo_L_Hall_WZn" = 100.3768   $ Sizing
 "CAssFlo_L_LobWait_EZn" = 240.0117   $ Sizing
 "CAssFlo_L_LobWait_NZn" = 114.5909   $ Sizing
 "CAssFlo_L_LobWait_SZn" = 264.9255   $ Sizing
 "CAssFlo_L_LobWait_WZn" = 234.8508   $ Sizing
 "CAssFlo_L_MechElec_CZn" = 65.93681   $ Sizing
 "CAssFlo_L_OfficeOpn_CZn" = 60.68892   $ Sizing
 "CAssFlo_L_OfficeOpn_EZn" = 502.3829   $ Sizing
 "CAssFlo_L_OfficeOpn_NZn" = 232.8571   $ Sizing
 "CAssFlo_L_OfficeOpn_SZn" = 507.6285   $ Sizing
 "CAssFlo_L_OfficeOpn_WZn" = 468.0978   $ Sizing
 "CAssFlo_L_OfficeSm_EZn" = 416.8181   $ Sizing
 "CAssFlo_L_OfficeSm_NZn" = 177.9467   $ Sizing
 "CAssFlo_L_OfficeSm_SZn" = 444.0867   $ Sizing
 "CAssFlo_L_OfficeSm_WZn" = 406.0485   $ Sizing
 "CAssFlo_L_Restrm_CZn" = 86.07105   $ Sizing
 "CAssFlo_L_StorSm_CZn" = 30.72709   $ Sizing
 "CAssFlo_L_StorSm_EZn" = 94.49516   $ Sizing
 "CAssFlo_L_StorSm_NZn" = 64.41486   $ Sizing
 "CAssFlo_L_StorSm_SZn" = 101.8823   $ Sizing
 "CAssFlo_L_StorSm_WZn" = 91.75037   $ Sizing
 "CAssFlo_T_Conf_CZn" = 211.8367   $ Sizing
 "CAssFlo_T_Hall_EZn" = 116.9498   $ Sizing
 "CAssFlo_T_Hall_NZn" = 51.19543   $ Sizing
 "CAssFlo_T_Hall_SZn" = 132.2339   $ Sizing
 "CAssFlo_T_Hall_WZn" = 113.1417   $ Sizing
 "CAssFlo_T_OfficeOpn_CZn" = 59.47459   $ Sizing
 "CAssFlo_T_OfficeOpn_EZn" = 510.71   $ Sizing
 "CAssFlo_T_OfficeOpn_NZn" = 258.763   $ Sizing
 "CAssFlo_T_OfficeOpn_SZn" = 545.1205   $ Sizing
 "CAssFlo_T_OfficeOpn_WZn" = 472.5765   $ Sizing
 "CAssFlo_T_OfficeSm_EZn" = 432.8053   $ Sizing
 "CAssFlo_T_OfficeSm_NZn" = 200.8806   $ Sizing
 "CAssFlo_T_OfficeSm_SZn" = 480.8005   $ Sizing
 "CAssFlo_T_OfficeSm_WZn" = 411.8976   $ Sizing
 "CAssFlo_T_Restrm_CZn" = 86.07105   $ Sizing
 "CAssFlo_T_StorSm_EZn" = 113.5489   $ Sizing
 "CAssFlo_T_StorSm_NZn" = 63.69838   $ Sizing
 "CAssFlo_T_StorSm_SZn" = 124.5714   $ Sizing
 "CAssFlo_T_StorSm_WZn" = 110.7456   $ Sizing
 "CHRtFlo_Sys_L_Break_C" = 280.0074   $ Sizing
 "CHRtFlo_Sys_L_CompDC_C" = 162.5375   $ Sizing
 "CHRtFlo_Sys_L_Conf_C" = 207.8572   $ Sizing
 "CHRtFlo_Sys_L_CopyRm_C" = 59.23042   $ Sizing
 "CHRtFlo_Sys_L_Hall_E" = 97.61909   $ Sizing
 "CHRtFlo_Sys_L_Hall_N" = 54.52041   $ Sizing
 "CHRtFlo_Sys_L_Hall_S" = 112.5412   $ Sizing
 "CHRtFlo_Sys_L_Hall_W" = 100.3768   $ Sizing
 "CHRtFlo_Sys_L_LobWait_E" = 240.0117   $ Sizing
 "CHRtFlo_Sys_L_LobWait_N" = 114.5909   $ Sizing
 "CHRtFlo_Sys_L_LobWait_S" = 264.9255   $ Sizing
 "CHRtFlo_Sys_L_LobWait_W" = 234.8508   $ Sizing
 "CHRtFlo_Sys_L_MechElec_C" = 65.93681   $ Sizing
 "CHRtFlo_Sys_L_OfficeOpn_C" = 60.68892   $ Sizing
 "CHRtFlo_Sys_L_OfficeOpn_E" = 502.3829   $ Sizing
 "CHRtFlo_Sys_L_OfficeOpn_N" = 232.8571   $ Sizing
 "CHRtFlo_Sys_L_OfficeOpn_S" = 507.6285   $ Sizing
 "CHRtFlo_Sys_L_OfficeOpn_W" = 468.0978   $ Sizing
 "CHRtFlo_Sys_L_OfficeSm_E" = 416.8181   $ Sizing
 "CHRtFlo_Sys_L_OfficeSm_N" = 177.9467   $ Sizing
 "CHRtFlo_Sys_L_OfficeSm_S" = 444.0867   $ Sizing
 "CHRtFlo_Sys_L_OfficeSm_W" = 406.0485   $ Sizing
 "CHRtFlo_Sys_L_Restrm_C" = 86.07105   $ Sizing
 "CHRtFlo_Sys_L_StorSm_C" = 30.72709   $ Sizing
 "CHRtFlo_Sys_L_StorSm_E" = 94.49516   $ Sizing
 "CHRtFlo_Sys_L_StorSm_N" = 64.41486   $ Sizing
 "CHRtFlo_Sys_L_StorSm_S" = 101.8823   $ Sizing
 "CHRtFlo_Sys_L_StorSm_W" = 91.75037   $ Sizing
 "CHRtFlo_Sys_T_Conf_C" = 211.8367   $ Sizing
 "CHRtFlo_Sys_T_Hall_E" = 116.9498   $ Sizing
 "CHRtFlo_Sys_T_Hall_N" = 51.19543   $ Sizing
 "CHRtFlo_Sys_T_Hall_S" = 132.2339   $ Sizing
 "CHRtFlo_Sys_T_Hall_W" = 113.1417   $ Sizing
 "CHRtFlo_Sys_T_OfficeOpn_C" = 59.47459   $ Sizing
 "CHRtFlo_Sys_T_OfficeOpn_E" = 510.71   $ Sizing
 "CHRtFlo_Sys_T_OfficeOpn_N" = 258.763   $ Sizing
 "CHRtFlo_Sys_T_OfficeOpn_S" = 545.1205   $ Sizing
 "CHRtFlo_Sys_T_OfficeOpn_W" = 472.5765   $ Sizing
 "CHRtFlo_Sys_T_OfficeSm_E" = 432.8053   $ Sizing
 "CHRtFlo_Sys_T_OfficeSm_N" = 200.8806   $ Sizing
 "CHRtFlo_Sys_T_OfficeSm_S" = 480.8005   $ Sizing
 "CHRtFlo_Sys_T_OfficeSm_W" = 411.8976   $ Sizing
 "CHRtFlo_Sys_T_Restrm_C" = 86.07105   $ Sizing
 "CHRtFlo_Sys_T_StorSm_E" = 113.5489   $ Sizing
 "CHRtFlo_Sys_T_StorSm_N" = 63.69838   $ Sizing
 "CHRtFlo_Sys_T_StorSm_S" = 124.5714   $ Sizing
 "CHRtFlo_Sys_T_StorSm_W" = 110.7456   $ Sizing
 "CRtdFlo_Sys_L_Break_C" = 280.0074   $ Sizing
 "CRtdFlo_Sys_L_CompDC_C" = 162.5375   $ Sizing
 "CRtdFlo_Sys_L_Conf_C" = 207.8572   $ Sizing
 "CRtdFlo_Sys_L_CopyRm_C" = 59.23042   $ Sizing
 "CRtdFlo_Sys_L_Hall_E" = 97.61909   $ Sizing
 "CRtdFlo_Sys_L_Hall_N" = 54.52041   $ Sizing
 "CRtdFlo_Sys_L_Hall_S" = 112.5412   $ Sizing
 "CRtdFlo_Sys_L_Hall_W" = 100.3768   $ Sizing
 "CRtdFlo_Sys_L_LobWait_E" = 240.0117   $ Sizing
 "CRtdFlo_Sys_L_LobWait_N" = 114.5909   $ Sizing
 "CRtdFlo_Sys_L_LobWait_S" = 264.9255   $ Sizing
 "CRtdFlo_Sys_L_LobWait_W" = 234.8508   $ Sizing
 "CRtdFlo_Sys_L_MechElec_C" = 65.93681   $ Sizing
 "CRtdFlo_Sys_L_OfficeOpn_C" = 60.68892   $ Sizing
 "CRtdFlo_Sys_L_OfficeOpn_E" = 502.3829   $ Sizing
 "CRtdFlo_Sys_L_OfficeOpn_N" = 232.8571   $ Sizing
 "CRtdFlo_Sys_L_OfficeOpn_S" = 507.6285   $ Sizing
 "CRtdFlo_Sys_L_OfficeOpn_W" = 468.0978   $ Sizing
 "CRtdFlo_Sys_L_OfficeSm_E" = 416.8181   $ Sizing
 "CRtdFlo_Sys_L_OfficeSm_N" = 177.9467   $ Sizing
 "CRtdFlo_Sys_L_OfficeSm_S" = 444.0867   $ Sizing
 "CRtdFlo_Sys_L_OfficeSm_W" = 406.0485   $ Sizing
 "CRtdFlo_Sys_L_Restrm_C" = 86.07105   $ Sizing
 "CRtdFlo_Sys_L_StorSm_C" = 30.72709   $ Sizing
 "CRtdFlo_Sys_L_StorSm_E" = 94.49516   $ Sizing
 "CRtdFlo_Sys_L_StorSm_N" = 64.41486   $ Sizing
 "CRtdFlo_Sys_L_StorSm_S" = 101.8823   $ Sizing
 "CRtdFlo_Sys_L_StorSm_W" = 91.75037   $ Sizing
 "CRtdFlo_Sys_T_Conf_C" = 211.8367   $ Sizing
 "CRtdFlo_Sys_T_Hall_E" = 116.9498   $ Sizing
 "CRtdFlo_Sys_T_Hall_N" = 51.19543   $ Sizing
 "CRtdFlo_Sys_T_Hall_S" = 132.2339   $ Sizing
 "CRtdFlo_Sys_T_Hall_W" = 113.1417   $ Sizing
 "CRtdFlo_Sys_T_OfficeOpn_C" = 59.47459   $ Sizing
 "CRtdFlo_Sys_T_OfficeOpn_E" = 510.71   $ Sizing
 "CRtdFlo_Sys_T_OfficeOpn_N" = 258.763   $ Sizing
 "CRtdFlo_Sys_T_OfficeOpn_S" = 545.1205   $ Sizing
 "CRtdFlo_Sys_T_OfficeOpn_W" = 472.5765   $ Sizing
 "CRtdFlo_Sys_T_OfficeSm_E" = 432.8053   $ Sizing
 "CRtdFlo_Sys_T_OfficeSm_N" = 200.8806   $ Sizing
 "CRtdFlo_Sys_T_OfficeSm_S" = 480.8005   $ Sizing
 "CRtdFlo_Sys_T_OfficeSm_W" = 411.8976   $ Sizing
 "CRtdFlo_Sys_T_Restrm_C" = 86.07105   $ Sizing
 "CRtdFlo_Sys_T_StorSm_E" = 113.5489   $ Sizing
 "CRtdFlo_Sys_T_StorSm_N" = 63.69838   $ Sizing
 "CRtdFlo_Sys_T_StorSm_S" = 124.5714   $ Sizing
 "CRtdFlo_Sys_T_StorSm_W" = 110.7456   $ Sizing
 "CSupFlo_Sys_L_Break_C" = 280.0074   $ Sizing
 "CSupFlo_Sys_L_CompDC_C" = 162.5375   $ Sizing
 "CSupFlo_Sys_L_Conf_C" = 207.8572   $ Sizing
 "CSupFlo_Sys_L_CopyRm_C" = 59.23042   $ Sizing
 "CSupFlo_Sys_L_Hall_E" = 97.61909   $ Sizing
 "CSupFlo_Sys_L_Hall_N" = 54.52041   $ Sizing
 "CSupFlo_Sys_L_Hall_S" = 112.5412   $ Sizing
 "CSupFlo_Sys_L_Hall_W" = 100.3768   $ Sizing
 "CSupFlo_Sys_L_LobWait_E" = 240.0117   $ Sizing
 "CSupFlo_Sys_L_LobWait_N" = 114.5909   $ Sizing
 "CSupFlo_Sys_L_LobWait_S" = 264.9255   $ Sizing
 "CSupFlo_Sys_L_LobWait_W" = 234.8508   $ Sizing
 "CSupFlo_Sys_L_MechElec_C" = 65.93681   $ Sizing
 "CSupFlo_Sys_L_OfficeOpn_C" = 60.68892   $ Sizing
 "CSupFlo_Sys_L_OfficeOpn_E" = 502.3829   $ Sizing
 "CSupFlo_Sys_L_OfficeOpn_N" = 232.8571   $ Sizing
 "CSupFlo_Sys_L_OfficeOpn_S" = 507.6285   $ Sizing
 "CSupFlo_Sys_L_OfficeOpn_W" = 468.0978   $ Sizing
 "CSupFlo_Sys_L_OfficeSm_E" = 416.8181   $ Sizing
 "CSupFlo_Sys_L_OfficeSm_N" = 177.9467   $ Sizing
 "CSupFlo_Sys_L_OfficeSm_S" = 444.0867   $ Sizing
 "CSupFlo_Sys_L_OfficeSm_W" = 406.0485   $ Sizing
 "CSupFlo_Sys_L_Restrm_C" = 86.07105   $ Sizing
 "CSupFlo_Sys_L_StorSm_C" = 30.72709   $ Sizing
 "CSupFlo_Sys_L_StorSm_E" = 94.49516   $ Sizing
 "CSupFlo_Sys_L_StorSm_N" = 64.41486   $ Sizing
 "CSupFlo_Sys_L_StorSm_S" = 101.8823   $ Sizing
 "CSupFlo_Sys_L_StorSm_W" = 91.75037   $ Sizing
 "CSupFlo_Sys_T_Conf_C" = 211.8367   $ Sizing
 "CSupFlo_Sys_T_Hall_E" = 116.9498   $ Sizing
 "CSupFlo_Sys_T_Hall_N" = 51.19543   $ Sizing
 "CSupFlo_Sys_T_Hall_S" = 132.2339   $ Sizing
 "CSupFlo_Sys_T_Hall_W" = 113.1417   $ Sizing
 "CSupFlo_Sys_T_OfficeOpn_C" = 59.47459   $ Sizing
 "CSupFlo_Sys_T_OfficeOpn_E" = 510.71   $ Sizing
 "CSupFlo_Sys_T_OfficeOpn_N" = 258.763   $ Sizing
 "CSupFlo_Sys_T_OfficeOpn_S" = 545.1205   $ Sizing
 "CSupFlo_Sys_T_OfficeOpn_W" = 472.5765   $ Sizing
 "CSupFlo_Sys_T_OfficeSm_E" = 432.8053   $ Sizing
 "CSupFlo_Sys_T_OfficeSm_N" = 200.8806   $ Sizing
 "CSupFlo_Sys_T_OfficeSm_S" = 480.8005   $ Sizing
 "CSupFlo_Sys_T_OfficeSm_W" = 411.8976   $ Sizing
 "CSupFlo_Sys_T_Restrm_C" = 86.07105   $ Sizing
 "CSupFlo_Sys_T_StorSm_E" = 113.5489   $ Sizing
 "CSupFlo_Sys_T_StorSm_N" = 63.69838   $ Sizing
 "CSupFlo_Sys_T_StorSm_S" = 124.5714   $ Sizing
 "CSupFlo_Sys_T_StorSm_W" = 110.7456   $ Sizing
 "ClCap_Sys_L_Break_C" = 9528.483   $ Sizing
 "ClCap_Sys_L_CompDC_C" = 5531.053   $ Sizing
 "ClCap_Sys_L_Conf_C" = 9002.328   $ Sizing
 "ClCap_Sys_L_CopyRm_C" = 2015.576   $ Sizing
 "ClCap_Sys_L_Hall_E" = 3321.919   $ Sizing
 "ClCap_Sys_L_Hall_N" = 1855.297   $ Sizing
 "ClCap_Sys_L_Hall_S" = 3829.71   $ Sizing
 "ClCap_Sys_L_Hall_W" = 3415.763   $ Sizing
 "ClCap_Sys_L_LobWait_E" = 8167.453   $ Sizing
 "ClCap_Sys_L_LobWait_N" = 3899.458   $ Sizing
 "ClCap_Sys_L_LobWait_S" = 9015.258   $ Sizing
 "ClCap_Sys_L_LobWait_W" = 7991.831   $ Sizing
 "ClCap_Sys_L_MechElec_C" = 2243.79   $ Sizing
 "ClCap_Sys_L_OfficeOpn_C" = 2065.208   $ Sizing
 "ClCap_Sys_L_OfficeOpn_E" = 17095.79   $ Sizing
 "ClCap_Sys_L_OfficeOpn_N" = 7923.988   $ Sizing
 "ClCap_Sys_L_OfficeOpn_S" = 17274.29   $ Sizing
 "ClCap_Sys_L_OfficeOpn_W" = 15929.09   $ Sizing
 "ClCap_Sys_L_OfficeSm_E" = 14184.07   $ Sizing
 "ClCap_Sys_L_OfficeSm_N" = 6055.421   $ Sizing
 "ClCap_Sys_L_OfficeSm_S" = 15112   $ Sizing
 "ClCap_Sys_L_OfficeSm_W" = 13817.59   $ Sizing
 "ClCap_Sys_L_Restrm_C" = 2928.947   $ Sizing
 "ClCap_Sys_L_StorSm_C" = 1045.624   $ Sizing
 "ClCap_Sys_L_StorSm_E" = 3215.614   $ Sizing
 "ClCap_Sys_L_StorSm_N" = 2191.999   $ Sizing
 "ClCap_Sys_L_StorSm_S" = 3466.995   $ Sizing
 "ClCap_Sys_L_StorSm_W" = 3122.21   $ Sizing
 "ClCap_Sys_T_Conf_C" = 9174.678   $ Sizing
 "ClCap_Sys_T_Hall_E" = 3979.733   $ Sizing
 "ClCap_Sys_T_Hall_N" = 1742.15   $ Sizing
 "ClCap_Sys_T_Hall_S" = 4499.839   $ Sizing
 "ClCap_Sys_T_Hall_W" = 3850.144   $ Sizing
 "ClCap_Sys_T_OfficeOpn_C" = 2023.885   $ Sizing
 "ClCap_Sys_T_OfficeOpn_E" = 17379.15   $ Sizing
 "ClCap_Sys_T_OfficeOpn_N" = 8805.551   $ Sizing
 "ClCap_Sys_T_OfficeOpn_S" = 18550.12   $ Sizing
 "ClCap_Sys_T_OfficeOpn_W" = 16081.5   $ Sizing
 "ClCap_Sys_T_OfficeSm_E" = 14728.11   $ Sizing
 "ClCap_Sys_T_OfficeSm_N" = 6835.848   $ Sizing
 "ClCap_Sys_T_OfficeSm_S" = 16361.35   $ Sizing
 "ClCap_Sys_T_OfficeSm_W" = 14016.63   $ Sizing
 "ClCap_Sys_T_Restrm_C" = 2928.947   $ Sizing
 "ClCap_Sys_T_StorSm_E" = 3864.001   $ Sizing
 "ClCap_Sys_T_StorSm_N" = 2167.618   $ Sizing
 "ClCap_Sys_T_StorSm_S" = 4239.092   $ Sizing
 "ClCap_Sys_T_StorSm_W" = 3768.607   $ Sizing
 "HtCap_L_Break_CZn" = 0   $ Sizing
 "HtCap_L_CompDC_CZn" = 0   $ Sizing
 "HtCap_L_Conf_CZn" = 0   $ Sizing
 "HtCap_L_CopyRm_CZn" = 0   $ Sizing
 "HtCap_L_Hall_EZn" = 0   $ Sizing
 "HtCap_L_Hall_NZn" = 0   $ Sizing
 "HtCap_L_Hall_SZn" = 0   $ Sizing
 "HtCap_L_Hall_WZn" = 0   $ Sizing
 "HtCap_L_LobWait_EZn" = 0   $ Sizing
 "HtCap_L_LobWait_NZn" = 0   $ Sizing
 "HtCap_L_LobWait_SZn" = 0   $ Sizing
 "HtCap_L_LobWait_WZn" = 0   $ Sizing
 "HtCap_L_MechElec_CZn" = 0   $ Sizing
 "HtCap_L_OfficeOpn_CZn" = 0   $ Sizing
 "HtCap_L_OfficeOpn_EZn" = 0   $ Sizing
 "HtCap_L_OfficeOpn_NZn" = 0   $ Sizing
 "HtCap_L_OfficeOpn_SZn" = 0   $ Sizing
 "HtCap_L_OfficeOpn_WZn" = 0   $ Sizing
 "HtCap_L_OfficeSm_EZn" = 0   $ Sizing
 "HtCap_L_OfficeSm_NZn" = 0   $ Sizing
 "HtCap_L_OfficeSm_SZn" = 0   $ Sizing
 "HtCap_L_OfficeSm_WZn" = 0   $ Sizing
 "HtCap_L_Restrm_CZn" = 0   $ Sizing
 "HtCap_L_StorSm_CZn" = 0   $ Sizing
 "HtCap_L_StorSm_EZn" = 0   $ Sizing
 "HtCap_L_StorSm_NZn" = 0   $ Sizing
 "HtCap_L_StorSm_SZn" = 0   $ Sizing
 "HtCap_L_StorSm_WZn" = 0   $ Sizing
 "HtCap_Sys_L_Break_C" = -16889.89   $ Sizing
 "HtCap_Sys_L_CompDC_C" = -6031.341   $ Sizing
 "HtCap_Sys_L_Conf_C" = -12875.71   $ Sizing
 "HtCap_Sys_L_CopyRm_C" = -4092.805   $ Sizing
 "HtCap_Sys_L_Hall_E" = -3753.094   $ Sizing
 "HtCap_Sys_L_Hall_N" = -2226.745   $ Sizing
 "HtCap_Sys_L_Hall_S" = -4091.022   $ Sizing
 "HtCap_Sys_L_Hall_W" = -3764.001   $ Sizing
 "HtCap_Sys_L_LobWait_E" = -9724.954   $ Sizing
 "HtCap_Sys_L_LobWait_N" = -5717.683   $ Sizing
 "HtCap_Sys_L_LobWait_S" = -10487.5   $ Sizing
 "HtCap_Sys_L_LobWait_W" = -9613.747   $ Sizing
 "HtCap_Sys_L_MechElec_C" = -3077.628   $ Sizing
 "HtCap_Sys_L_OfficeOpn_C" = -2530.015   $ Sizing
 "HtCap_Sys_L_OfficeOpn_E" = -18684.86   $ Sizing
 "HtCap_Sys_L_OfficeOpn_N" = -10495.93   $ Sizing
 "HtCap_Sys_L_OfficeOpn_S" = -18451.19   $ Sizing
 "HtCap_Sys_L_OfficeOpn_W" = -17834.75   $ Sizing
 "HtCap_Sys_L_OfficeSm_E" = -15450.39   $ Sizing
 "HtCap_Sys_L_OfficeSm_N" = -7813.549   $ Sizing
 "HtCap_Sys_L_OfficeSm_S" = -15550.24   $ Sizing
 "HtCap_Sys_L_OfficeSm_W" = -14901.16   $ Sizing
 "HtCap_Sys_L_Restrm_C" = -3154.256   $ Sizing
 "HtCap_Sys_L_StorSm_C" = -1345.428   $ Sizing
 "HtCap_Sys_L_StorSm_E" = -3776.803   $ Sizing
 "HtCap_Sys_L_StorSm_N" = -2850.306   $ Sizing
 "HtCap_Sys_L_StorSm_S" = -3990.964   $ Sizing
 "HtCap_Sys_L_StorSm_W" = -3734.4   $ Sizing
 "HtCap_Sys_T_Conf_C" = -13261.31   $ Sizing
 "HtCap_Sys_T_Hall_E" = -4869.516   $ Sizing
 "HtCap_Sys_T_Hall_N" = -2443.751   $ Sizing
 "HtCap_Sys_T_Hall_S" = -5430.315   $ Sizing
 "HtCap_Sys_T_Hall_W" = -4736.568   $ Sizing
 "HtCap_Sys_T_OfficeOpn_C" = -2775.074   $ Sizing
 "HtCap_Sys_T_OfficeOpn_E" = -21418.26   $ Sizing
 "HtCap_Sys_T_OfficeOpn_N" = -12325.78   $ Sizing
 "HtCap_Sys_T_OfficeOpn_S" = -22461.29   $ Sizing
 "HtCap_Sys_T_OfficeOpn_W" = -20073.75   $ Sizing
 "HtCap_Sys_T_OfficeSm_E" = -17734.65   $ Sizing
 "HtCap_Sys_T_OfficeSm_N" = -9441.434   $ Sizing
 "HtCap_Sys_T_OfficeSm_S" = -19179.74   $ Sizing
 "HtCap_Sys_T_OfficeSm_W" = -17024.77   $ Sizing
 "HtCap_Sys_T_Restrm_C" = -3658.166   $ Sizing
 "HtCap_Sys_T_StorSm_E" = -5088.861   $ Sizing
 "HtCap_Sys_T_StorSm_N" = -3246.324   $ Sizing
 "HtCap_Sys_T_StorSm_S" = -5414.636   $ Sizing
 "HtCap_Sys_T_StorSm_W" = -4960.712   $ Sizing
 "HtCap_T_Conf_CZn" = 0   $ Sizing
 "HtCap_T_Hall_EZn" = 0   $ Sizing
 "HtCap_T_Hall_NZn" = 0   $ Sizing
 "HtCap_T_Hall_SZn" = 0   $ Sizing
 "HtCap_T_Hall_WZn" = 0   $ Sizing
 "HtCap_T_OfficeOpn_CZn" = 0   $ Sizing
 "HtCap_T_OfficeOpn_EZn" = 0   $ Sizing
 "HtCap_T_OfficeOpn_NZn" = 0   $ Sizing
 "HtCap_T_OfficeOpn_SZn" = 0   $ Sizing
 "HtCap_T_OfficeOpn_WZn" = 0   $ Sizing
 "HtCap_T_OfficeSm_EZn" = 0   $ Sizing
 "HtCap_T_OfficeSm_NZn" = 0   $ Sizing
 "HtCap_T_OfficeSm_SZn" = 0   $ Sizing
 "HtCap_T_OfficeSm_WZn" = 0   $ Sizing
 "HtCap_T_Restrm_CZn" = 0   $ Sizing
 "HtCap_T_StorSm_EZn" = 0   $ Sizing
 "HtCap_T_StorSm_NZn" = 0   $ Sizing
 "HtCap_T_StorSm_SZn" = 0   $ Sizing
 "HtCap_T_StorSm_WZn" = 0   $ Sizing
..

##include Templates\OfS_DX_SZ.inp
END ..
COMPUTE ..
STOP ..
