INPUT ..

##fileprefix C:\Users\jglasskatz\MASControl3\
##set1 IsSizing FALSE
##set1 CoolType DX
##set1 HeatType HEAT-PUMP
##set1 EU_HrRepVar 1
##set1 BldgVint 1975
##set1 BldgLoc CZ01

 ##set1 mBFMult 1   $ IP Tech: RefgChg-NRes-Std

PARAMETER
 "AltFactor" = 1.00753   $ IP Non-Tech
 "BldgEconoFlag" = 1   $ IP Non-Tech
 "Break_EWSF" = 1   $ IP Non-Tech
 "Break_LWSF" = 1.1   $ IP Non-Tech
 "CDD_DBHi10" = 65   $ IP Non-Tech
 "CDD_DBHi7" = 68   $ IP Non-Tech
 "CDD_DBHi8" = 66   $ IP Non-Tech
 "CDD_DBHi9" = 77   $ IP Non-Tech
 "CDD_DBRange10" = 17   $ IP Non-Tech
 "CDD_DBRange7" = 11   $ IP Non-Tech
 "CDD_DBRange8" = 10   $ IP Non-Tech
 "CDD_DBRange9" = 29   $ IP Non-Tech
 "CDD_Day10" = 15   $ IP Non-Tech
 "CDD_Day7" = 16   $ IP Non-Tech
 "CDD_Day8" = 20   $ IP Non-Tech
 "CDD_Day9" = 17   $ IP Non-Tech
 "CDD_HrHi10" = 12   $ IP Non-Tech
 "CDD_HrHi7" = 12   $ IP Non-Tech
 "CDD_HrHi8" = 13   $ IP Non-Tech
 "CDD_HrHi9" = 17   $ IP Non-Tech
 "CDD_HrLo10" = 6   $ IP Non-Tech
 "CDD_HrLo7" = 3   $ IP Non-Tech
 "CDD_HrLo8" = 8   $ IP Non-Tech
 "CDD_HrLo9" = 4   $ IP Non-Tech
 "CDD_WB10" = 57.53039551   $ IP Non-Tech
 "CDD_WB7" = 59.29250717   $ IP Non-Tech
 "CDD_WB8" = 60.75350189   $ IP Non-Tech
 "CDD_WB9" = 61.08643341   $ IP Non-Tech
 "CZ_Category" = Tem   $ IP Non-Tech
 "ChwVintEconoFlag" = 1   $ IP Non-Tech
 "CompRoomData_EWSF" = 5.75   $ IP Non-Tech
 "CompRoomData_LWSF" = 1.2   $ IP Non-Tech
 "Conference_EWSF" = 1.15   $ IP Non-Tech
 "Conference_LWSF" = 1.4   $ IP Non-Tech
 "CoolSetT" = 45   $ IP Non-Tech
 "CoolType" = DX   $ IP Non-Tech
 "CopyRoom_EWSF" = 1.725   $ IP Non-Tech
 "CopyRoom_LWSF" = 1.3   $ IP Non-Tech
 "DesCoolT" = 75   $ IP Non-Tech
 "DesHeatT" = 73   $ IP Non-Tech
 "EconoEnthLimit" = 28   $ IP Non-Tech
 "EconoTempLimit" = 70   $ IP Non-Tech
 "Elevation" = 203   $ IP Non-Tech
 "HDD_CloudAmt1" = 0   $ IP Non-Tech
 "HDD_DBHi1" = 53   $ IP Non-Tech
 "HDD_DBRange1" = 20   $ IP Non-Tech
 "HDD_Day1" = 15   $ IP Non-Tech
 "HDD_HrHi1" = 14   $ IP Non-Tech
 "HDD_HrLo1" = 6   $ IP Non-Tech
 "HDD_WB1" = 42.3   $ IP Non-Tech
 "HDD_WindSpd1" = 12.7   $ IP Non-Tech
 "Hall_EWSF" = 0.23   $ IP Non-Tech
 "Hall_LWSF" = 0.6   $ IP Non-Tech
 "HeatSrc" = HEAT-PUMP   $ IP Non-Tech
 "HeatSrcTU" = HEAT-PUMP   $ IP Non-Tech
 "HeatType" = HP   $ IP Non-Tech
 "HeatTypeTU" = HEAT-PUMP   $ IP Non-Tech
 "IndoorFanMode" = CONTINUOUS   $ IP Non-Tech
 "KT_TransferAir" = No   $ IP Non-Tech
 "Latitude" = 40.8   $ IP Non-Tech
 "LobbyWaiting_EWSF" = 0.5375   $ IP Non-Tech
 "LobbyWaiting_LWSF" = 1.3   $ IP Non-Tech
 "Longitude" = 124.2   $ IP Non-Tech
 "MZFanMechEff" = 0.58   $ IP Non-Tech
 "MZHasRetFan" = FALSE   $ IP Non-Tech
 "MZ_RFanWPerCfm" = 0.33   $ IP Non-Tech
 "MZ_SFanWPerCfm" = 0.75   $ IP Non-Tech
 "MZ_SupFanStatic" = 2.25   $ IP Non-Tech
 "MaxSupT_MZ" = 90   $ IP Non-Tech
 "MaxSupT_SZ" = 90   $ IP Non-Tech
 "MaxSupT_TU" = 90   $ IP Non-Tech
 "MechElecRoom_EWSF" = 0.23   $ IP Non-Tech
 "MechElecRoom_LWSF" = 0.7   $ IP Non-Tech
 "MinCfmPerSF" = 0.4   $ IP Non-Tech
 "MinSupT" = 55   $ IP Non-Tech
 "OccCoolT" = 76   $ IP Non-Tech
 "OccHeatT" = 72   $ IP Non-Tech
 "OfficeOpen_EWSF" = 1.725   $ IP Non-Tech
 "OfficeOpen_LWSF" = 1.2   $ IP Non-Tech
 "OfficeSmall_EWSF" = 1.725   $ IP Non-Tech
 "OfficeSmall_LWSF" = 1.3   $ IP Non-Tech
 "PkgDxVintEconoFlag" = 0   $ IP Non-Tech
 "Restroom_EWSF" = 0.23   $ IP Non-Tech
 "Restroom_LWSF" = 0.6   $ IP Non-Tech
 "SZFanMechEff" = 0.58   $ IP Non-Tech
 "SZHasRetFan" = FALSE   $ IP Non-Tech
 "SZ_Is_2Spd" = FALSE   $ IP Non-Tech
 "SZ_SFanWPerCfm" = 0.46   $ IP Non-Tech
 "SZ_SupFanStatic" = 0.75   $ IP Non-Tech
 "StorageSmlCond_EWSF" = 0.23   $ IP Non-Tech
 "StorageSmlCond_LWSF" = 0.6   $ IP Non-Tech
 "T24GlzTbl" = CZTbl   $ IP Non-Tech
 "TermUnitFanMechEff" = 1   $ IP Non-Tech
 "TermUnitFanMode" = INTERMITTENT   $ IP Non-Tech
 "TwrSetpt" = 80   $ IP Non-Tech
 "UnocCoolT" = 86   $ IP Non-Tech
 "UnocHeatT" = 62   $ IP Non-Tech
 "WlhpVintEconoFlag" = 0   $ IP Non-Tech
 "EconoCtrl" = OA-TEMP   $ IP Tech: AirEcono-OATemp
 "MaxOAFrac" = 0.85   $ IP Tech: AirEcono-OATemp
 "UseEconoVintApplic" = FALSE   $ IP Tech: AirEcono-OATemp
 "DuctDT" = 1   $ IP Tech: ComDuctInsul-1
 "DuctAirLoss" = 0   $ IP Tech: ComDuctLeak-0
 "DuctLossOAFrac" = 0   $ IP Tech: ComDuctLeak-0
 "ComRoofInsCalc" = FromUo   $ IP Tech: ComRoofIns-WFrm-0.07
 "ComRoofInsR" = -999   $ IP Tech: ComRoofIns-WFrm-0.07
 "ComRoofUo" = 0.07   $ IP Tech: ComRoofIns-WFrm-0.07
 "ComEWInsCalc" = FromUo   $ IP Tech: ComWallIns-WFrm-0.12
 "ComEWInsR" = -999   $ IP Tech: ComWallIns-WFrm-0.12
 "ComEWUo" = 0.12   $ IP Tech: ComWallIns-WFrm-0.12
 "ComN_SHGC" = 0.82   $ IP Tech: NResWin-ComN-1.23-0.82
 "ComN_UFactor" = 1.23   $ IP Tech: NResWin-ComN-1.23-0.82
 "ComN_VisTrans" = 0.9   $ IP Tech: NResWin-ComN-1.23-0.82
 "ComN_WinCode" = G1000   $ IP Tech: NResWin-ComN-1.23-0.82
 "ComN_WinFrmFrac" = 0.17   $ IP Tech: NResWin-ComN-1.23-0.82
 "ComN_WinFrmU" = 1   $ IP Tech: NResWin-ComN-1.23-0.82
 "ComO_SHGC" = 0.82   $ IP Tech: NResWin-ComO-1.23-0.82
 "ComO_UFactor" = 1.23   $ IP Tech: NResWin-ComO-1.23-0.82
 "ComO_VisTrans" = 0.9   $ IP Tech: NResWin-ComO-1.23-0.82
 "ComO_WinCode" = G1000   $ IP Tech: NResWin-ComO-1.23-0.82
 "ComO_WinFrmFrac" = 0.17   $ IP Tech: NResWin-ComO-1.23-0.82
 "ComO_WinFrmU" = 1   $ IP Tech: NResWin-ComO-1.23-0.82
 "LtgMsrApplic" = ALL   $ IP Tech: NonResLtgRefPre
 "LtgSav_CFL" = 0   $ IP Tech: NonResLtgRefPre
 "LtgSav_EX" = 0   $ IP Tech: NonResLtgRefPre
 "LtgSav_HB" = 0   $ IP Tech: NonResLtgRefPre
 "LtgSav_LF" = 0   $ IP Tech: NonResLtgRefPre
 "LtgSav_SP" = 0   $ IP Tech: NonResLtgRefPre
 "BF_fFlow" = PSZ65to135_BF_fFlow   $ IP Tech: PkgHP1SpH-65to135-E10.1-C3.2
 "BF_fT" = PSZ65to135_BF_fT   $ IP Tech: PkgHP1SpH-65to135-E10.1-C3.2
 "CEIR_fPLR" = PSZ65to135_CEIR_fPLR   $ IP Tech: PkgHP1SpH-65to135-E10.1-C3.2
 "CLoss_fPLR" = PSZ65to135_CLoss_fPLR   $ IP Tech: PkgHP1SpH-65to135-E10.1-C3.2
 "COP" = 3.2   $ IP Tech: PkgHP1SpH-65to135-E10.1-C3.2
 "COP47" = 3.52   $ IP Tech: PkgHP1SpH-65to135-E10.1-C3.2
 "CfmPerBtuh" = 0.02917   $ IP Tech: PkgHP1SpH-65to135-E10.1-C3.2
 "ClCap_fT" = PSZ65to135_ClCap_fT   $ IP Tech: PkgHP1SpH-65to135-E10.1-C3.2
 "ClSH_fT" = PSZ65to135_ClSH_fT   $ IP Tech: PkgHP1SpH-65to135-E10.1-C3.2
 "CoilBF" = 0.114   $ IP Tech: PkgHP1SpH-65to135-E10.1-C3.2
 "CondWPerBtuh" = 0   $ IP Tech: PkgHP1SpH-65to135-E10.1-C3.2
 "CoolSensCap" = 0.663   $ IP Tech: PkgHP1SpH-65to135-E10.1-C3.2
 "CoolingEIR" = 0.29399   $ IP Tech: PkgHP1SpH-65to135-E10.1-C3.2
 "CrnkEIR" = 0.0029   $ IP Tech: PkgHP1SpH-65to135-E10.1-C3.2
 "CrnkMaxT" = 50   $ IP Tech: PkgHP1SpH-65to135-E10.1-C3.2
 "DXType" = Pkg   $ IP Tech: PkgHP1SpH-65to135-E10.1-C3.2
 "EER" = 9.77   $ IP Tech: PkgHP1SpH-65to135-E10.1-C3.2
 "EIR_fT" = PSZ65to135_EIR_fT   $ IP Tech: PkgHP1SpH-65to135-E10.1-C3.2
 "FanEirPlr" = TwoSpeedFan   $ IP Tech: PkgHP1SpH-65to135-E10.1-C3.2
 "FanWPerCfm" = 0.412   $ IP Tech: PkgHP1SpH-65to135-E10.1-C3.2
 "HIR_fT" = DEFAULT   $ IP Tech: PkgHP1SpH-65to135-E10.1-C3.2
 "HtCap_fT" = DEFAULT   $ IP Tech: PkgHP1SpH-65to135-E10.1-C3.2
 "HtCoolCapRatio" = 0.88   $ IP Tech: PkgHP1SpH-65to135-E10.1-C3.2
 "HtgEIR" = 0.2843   $ IP Tech: PkgHP1SpH-65to135-E10.1-C3.2
 "HtgFuel" = HP   $ IP Tech: PkgHP1SpH-65to135-E10.1-C3.2
 "IEER" = 12.02   $ IP Tech: PkgHP1SpH-65to135-E10.1-C3.2
 "LowSpdCapRatio" = 0.5   $ IP Tech: PkgHP1SpH-65to135-E10.1-C3.2
 "LowSpdCfmRatio" = 0.66   $ IP Tech: PkgHP1SpH-65to135-E10.1-C3.2
 "NominalCap" = 15   $ IP Tech: PkgHP1SpH-65to135-E10.1-C3.2
 "NumStages" = 1   $ IP Tech: PkgHP1SpH-65to135-E10.1-C3.2
 "RatedEER" = 10.1   $ IP Tech: PkgHP1SpH-65to135-E10.1-C3.2
 "RatedSupMtrClass" = HiEff   $ IP Tech: PkgHP1SpH-65to135-E10.1-C3.2
 "SizeRange" = 65to135   $ IP Tech: PkgHP1SpH-65to135-E10.1-C3.2
 "SubType" = HP   $ IP Tech: PkgHP1SpH-65to135-E10.1-C3.2
 "SupMotEff" = 0.84   $ IP Tech: PkgHP1SpH-65to135-E10.1-C3.2
 "Tier" = 0   $ IP Tech: PkgHP1SpH-65to135-E10.1-C3.2
 "TotCoolCap" = 184140   $ IP Tech: PkgHP1SpH-65to135-E10.1-C3.2
 "BFMult" = 1   $ IP Tech: RefgChg-NRes-Std
 "CoolEirMult" = 1   $ IP Tech: RefgChg-NRes-Std
 "SensCoolCapMult" = 1   $ IP Tech: RefgChg-NRes-Std
 "TotCoolCapMult" = 1   $ IP Tech: RefgChg-NRes-Std
 "AltAdjFactor" = 1.007532   $ Sizing
 "CAssFlo_L_Break_CZn" = 285.0889   $ Sizing
 "CAssFlo_L_CompDC_CZn" = 182.8512   $ Sizing
 "CAssFlo_L_Conf_CZn" = 219.4673   $ Sizing
 "CAssFlo_L_CopyRm_CZn" = 70.55626   $ Sizing
 "CAssFlo_L_Hall_EZn" = 163.6482   $ Sizing
 "CAssFlo_L_Hall_NZn" = 117.297   $ Sizing
 "CAssFlo_L_Hall_SZn" = 190.8275   $ Sizing
 "CAssFlo_L_Hall_WZn" = 167.5534   $ Sizing
 "CAssFlo_L_LobWait_EZn" = 386.8282   $ Sizing
 "CAssFlo_L_LobWait_NZn" = 247.2903   $ Sizing
 "CAssFlo_L_LobWait_SZn" = 442.8028   $ Sizing
 "CAssFlo_L_LobWait_WZn" = 385.7365   $ Sizing
 "CAssFlo_L_MechElec_CZn" = 82.09388   $ Sizing
 "CAssFlo_L_OfficeOpn_CZn" = 71.5397   $ Sizing
 "CAssFlo_L_OfficeOpn_EZn" = 748.7075   $ Sizing
 "CAssFlo_L_OfficeOpn_NZn" = 298.1654   $ Sizing
 "CAssFlo_L_OfficeOpn_SZn" = 786.4266   $ Sizing
 "CAssFlo_L_OfficeOpn_WZn" = 707.7198   $ Sizing
 "CAssFlo_L_OfficeSm_EZn" = 648.4591   $ Sizing
 "CAssFlo_L_OfficeSm_NZn" = 268.2087   $ Sizing
 "CAssFlo_L_OfficeSm_SZn" = 705.0452   $ Sizing
 "CAssFlo_L_OfficeSm_WZn" = 635.7931   $ Sizing
 "CAssFlo_L_Restrm_CZn" = 86.07105   $ Sizing
 "CAssFlo_L_StorSm_CZn" = 50.62005   $ Sizing
 "CAssFlo_L_StorSm_EZn" = 158.6139   $ Sizing
 "CAssFlo_L_StorSm_NZn" = 128.0653   $ Sizing
 "CAssFlo_L_StorSm_SZn" = 179.3363   $ Sizing
 "CAssFlo_L_StorSm_WZn" = 154.1461   $ Sizing
 "CAssFlo_T_Conf_CZn" = 219.5768   $ Sizing
 "CAssFlo_T_Hall_EZn" = 184.381   $ Sizing
 "CAssFlo_T_Hall_NZn" = 114.0957   $ Sizing
 "CAssFlo_T_Hall_SZn" = 221.1891   $ Sizing
 "CAssFlo_T_Hall_WZn" = 183.6234   $ Sizing
 "CAssFlo_T_OfficeOpn_CZn" = 63.28432   $ Sizing
 "CAssFlo_T_OfficeOpn_EZn" = 754.6556   $ Sizing
 "CAssFlo_T_OfficeOpn_NZn" = 294.3562   $ Sizing
 "CAssFlo_T_OfficeOpn_SZn" = 846.1287   $ Sizing
 "CAssFlo_T_OfficeOpn_WZn" = 717.2475   $ Sizing
 "CAssFlo_T_OfficeSm_EZn" = 664.8527   $ Sizing
 "CAssFlo_T_OfficeSm_NZn" = 256.386   $ Sizing
 "CAssFlo_T_OfficeSm_SZn" = 764.1224   $ Sizing
 "CAssFlo_T_OfficeSm_WZn" = 652.2052   $ Sizing
 "CAssFlo_T_Restrm_CZn" = 88.96587   $ Sizing
 "CAssFlo_T_StorSm_EZn" = 177.3912   $ Sizing
 "CAssFlo_T_StorSm_NZn" = 126.7355   $ Sizing
 "CAssFlo_T_StorSm_SZn" = 210.3689   $ Sizing
 "CAssFlo_T_StorSm_WZn" = 178.3202   $ Sizing
 "CHRtFlo_Sys_L_Break_C" = 285.0889   $ Sizing
 "CHRtFlo_Sys_L_CompDC_C" = 182.8512   $ Sizing
 "CHRtFlo_Sys_L_Conf_C" = 219.4673   $ Sizing
 "CHRtFlo_Sys_L_CopyRm_C" = 70.55626   $ Sizing
 "CHRtFlo_Sys_L_Hall_E" = 163.6482   $ Sizing
 "CHRtFlo_Sys_L_Hall_N" = 117.297   $ Sizing
 "CHRtFlo_Sys_L_Hall_S" = 190.8275   $ Sizing
 "CHRtFlo_Sys_L_Hall_W" = 167.5534   $ Sizing
 "CHRtFlo_Sys_L_LobWait_E" = 386.8282   $ Sizing
 "CHRtFlo_Sys_L_LobWait_N" = 247.2903   $ Sizing
 "CHRtFlo_Sys_L_LobWait_S" = 442.8028   $ Sizing
 "CHRtFlo_Sys_L_LobWait_W" = 385.7365   $ Sizing
 "CHRtFlo_Sys_L_MechElec_C" = 82.09388   $ Sizing
 "CHRtFlo_Sys_L_OfficeOpn_C" = 71.5397   $ Sizing
 "CHRtFlo_Sys_L_OfficeOpn_E" = 748.7075   $ Sizing
 "CHRtFlo_Sys_L_OfficeOpn_N" = 298.1654   $ Sizing
 "CHRtFlo_Sys_L_OfficeOpn_S" = 786.4266   $ Sizing
 "CHRtFlo_Sys_L_OfficeOpn_W" = 707.7198   $ Sizing
 "CHRtFlo_Sys_L_OfficeSm_E" = 648.4591   $ Sizing
 "CHRtFlo_Sys_L_OfficeSm_N" = 268.2087   $ Sizing
 "CHRtFlo_Sys_L_OfficeSm_S" = 705.0452   $ Sizing
 "CHRtFlo_Sys_L_OfficeSm_W" = 635.7931   $ Sizing
 "CHRtFlo_Sys_L_Restrm_C" = 86.07105   $ Sizing
 "CHRtFlo_Sys_L_StorSm_C" = 50.62005   $ Sizing
 "CHRtFlo_Sys_L_StorSm_E" = 158.6139   $ Sizing
 "CHRtFlo_Sys_L_StorSm_N" = 128.0653   $ Sizing
 "CHRtFlo_Sys_L_StorSm_S" = 179.3363   $ Sizing
 "CHRtFlo_Sys_L_StorSm_W" = 154.1461   $ Sizing
 "CHRtFlo_Sys_T_Conf_C" = 219.5768   $ Sizing
 "CHRtFlo_Sys_T_Hall_E" = 184.381   $ Sizing
 "CHRtFlo_Sys_T_Hall_N" = 114.0957   $ Sizing
 "CHRtFlo_Sys_T_Hall_S" = 221.1891   $ Sizing
 "CHRtFlo_Sys_T_Hall_W" = 183.6234   $ Sizing
 "CHRtFlo_Sys_T_OfficeOpn_C" = 63.28432   $ Sizing
 "CHRtFlo_Sys_T_OfficeOpn_E" = 754.6556   $ Sizing
 "CHRtFlo_Sys_T_OfficeOpn_N" = 294.3562   $ Sizing
 "CHRtFlo_Sys_T_OfficeOpn_S" = 846.1287   $ Sizing
 "CHRtFlo_Sys_T_OfficeOpn_W" = 717.2475   $ Sizing
 "CHRtFlo_Sys_T_OfficeSm_E" = 664.8527   $ Sizing
 "CHRtFlo_Sys_T_OfficeSm_N" = 256.386   $ Sizing
 "CHRtFlo_Sys_T_OfficeSm_S" = 764.1224   $ Sizing
 "CHRtFlo_Sys_T_OfficeSm_W" = 652.2052   $ Sizing
 "CHRtFlo_Sys_T_Restrm_C" = 88.96587   $ Sizing
 "CHRtFlo_Sys_T_StorSm_E" = 177.3912   $ Sizing
 "CHRtFlo_Sys_T_StorSm_N" = 126.7355   $ Sizing
 "CHRtFlo_Sys_T_StorSm_S" = 210.3689   $ Sizing
 "CHRtFlo_Sys_T_StorSm_W" = 178.3202   $ Sizing
 "CRtdFlo_Sys_L_Break_C" = 285.0889   $ Sizing
 "CRtdFlo_Sys_L_CompDC_C" = 182.8512   $ Sizing
 "CRtdFlo_Sys_L_Conf_C" = 219.4673   $ Sizing
 "CRtdFlo_Sys_L_CopyRm_C" = 70.55626   $ Sizing
 "CRtdFlo_Sys_L_Hall_E" = 163.6482   $ Sizing
 "CRtdFlo_Sys_L_Hall_N" = 117.297   $ Sizing
 "CRtdFlo_Sys_L_Hall_S" = 190.8275   $ Sizing
 "CRtdFlo_Sys_L_Hall_W" = 167.5534   $ Sizing
 "CRtdFlo_Sys_L_LobWait_E" = 386.8282   $ Sizing
 "CRtdFlo_Sys_L_LobWait_N" = 247.2903   $ Sizing
 "CRtdFlo_Sys_L_LobWait_S" = 442.8028   $ Sizing
 "CRtdFlo_Sys_L_LobWait_W" = 385.7365   $ Sizing
 "CRtdFlo_Sys_L_MechElec_C" = 82.09388   $ Sizing
 "CRtdFlo_Sys_L_OfficeOpn_C" = 71.5397   $ Sizing
 "CRtdFlo_Sys_L_OfficeOpn_E" = 748.7075   $ Sizing
 "CRtdFlo_Sys_L_OfficeOpn_N" = 298.1654   $ Sizing
 "CRtdFlo_Sys_L_OfficeOpn_S" = 786.4266   $ Sizing
 "CRtdFlo_Sys_L_OfficeOpn_W" = 707.7198   $ Sizing
 "CRtdFlo_Sys_L_OfficeSm_E" = 648.4591   $ Sizing
 "CRtdFlo_Sys_L_OfficeSm_N" = 268.2087   $ Sizing
 "CRtdFlo_Sys_L_OfficeSm_S" = 705.0452   $ Sizing
 "CRtdFlo_Sys_L_OfficeSm_W" = 635.7931   $ Sizing
 "CRtdFlo_Sys_L_Restrm_C" = 86.07105   $ Sizing
 "CRtdFlo_Sys_L_StorSm_C" = 50.62005   $ Sizing
 "CRtdFlo_Sys_L_StorSm_E" = 158.6139   $ Sizing
 "CRtdFlo_Sys_L_StorSm_N" = 128.0653   $ Sizing
 "CRtdFlo_Sys_L_StorSm_S" = 179.3363   $ Sizing
 "CRtdFlo_Sys_L_StorSm_W" = 154.1461   $ Sizing
 "CRtdFlo_Sys_T_Conf_C" = 219.5768   $ Sizing
 "CRtdFlo_Sys_T_Hall_E" = 184.381   $ Sizing
 "CRtdFlo_Sys_T_Hall_N" = 114.0957   $ Sizing
 "CRtdFlo_Sys_T_Hall_S" = 221.1891   $ Sizing
 "CRtdFlo_Sys_T_Hall_W" = 183.6234   $ Sizing
 "CRtdFlo_Sys_T_OfficeOpn_C" = 63.28432   $ Sizing
 "CRtdFlo_Sys_T_OfficeOpn_E" = 754.6556   $ Sizing
 "CRtdFlo_Sys_T_OfficeOpn_N" = 294.3562   $ Sizing
 "CRtdFlo_Sys_T_OfficeOpn_S" = 846.1287   $ Sizing
 "CRtdFlo_Sys_T_OfficeOpn_W" = 717.2475   $ Sizing
 "CRtdFlo_Sys_T_OfficeSm_E" = 664.8527   $ Sizing
 "CRtdFlo_Sys_T_OfficeSm_N" = 256.386   $ Sizing
 "CRtdFlo_Sys_T_OfficeSm_S" = 764.1224   $ Sizing
 "CRtdFlo_Sys_T_OfficeSm_W" = 652.2052   $ Sizing
 "CRtdFlo_Sys_T_Restrm_C" = 88.96587   $ Sizing
 "CRtdFlo_Sys_T_StorSm_E" = 177.3912   $ Sizing
 "CRtdFlo_Sys_T_StorSm_N" = 126.7355   $ Sizing
 "CRtdFlo_Sys_T_StorSm_S" = 210.3689   $ Sizing
 "CRtdFlo_Sys_T_StorSm_W" = 178.3202   $ Sizing
 "CSupFlo_Sys_L_Break_C" = 285.0889   $ Sizing
 "CSupFlo_Sys_L_CompDC_C" = 182.8512   $ Sizing
 "CSupFlo_Sys_L_Conf_C" = 219.4673   $ Sizing
 "CSupFlo_Sys_L_CopyRm_C" = 70.55626   $ Sizing
 "CSupFlo_Sys_L_Hall_E" = 163.6482   $ Sizing
 "CSupFlo_Sys_L_Hall_N" = 117.297   $ Sizing
 "CSupFlo_Sys_L_Hall_S" = 190.8275   $ Sizing
 "CSupFlo_Sys_L_Hall_W" = 167.5534   $ Sizing
 "CSupFlo_Sys_L_LobWait_E" = 386.8282   $ Sizing
 "CSupFlo_Sys_L_LobWait_N" = 247.2903   $ Sizing
 "CSupFlo_Sys_L_LobWait_S" = 442.8028   $ Sizing
 "CSupFlo_Sys_L_LobWait_W" = 385.7365   $ Sizing
 "CSupFlo_Sys_L_MechElec_C" = 82.09388   $ Sizing
 "CSupFlo_Sys_L_OfficeOpn_C" = 71.5397   $ Sizing
 "CSupFlo_Sys_L_OfficeOpn_E" = 748.7075   $ Sizing
 "CSupFlo_Sys_L_OfficeOpn_N" = 298.1654   $ Sizing
 "CSupFlo_Sys_L_OfficeOpn_S" = 786.4266   $ Sizing
 "CSupFlo_Sys_L_OfficeOpn_W" = 707.7198   $ Sizing
 "CSupFlo_Sys_L_OfficeSm_E" = 648.4591   $ Sizing
 "CSupFlo_Sys_L_OfficeSm_N" = 268.2087   $ Sizing
 "CSupFlo_Sys_L_OfficeSm_S" = 705.0452   $ Sizing
 "CSupFlo_Sys_L_OfficeSm_W" = 635.7931   $ Sizing
 "CSupFlo_Sys_L_Restrm_C" = 86.07105   $ Sizing
 "CSupFlo_Sys_L_StorSm_C" = 50.62005   $ Sizing
 "CSupFlo_Sys_L_StorSm_E" = 158.6139   $ Sizing
 "CSupFlo_Sys_L_StorSm_N" = 128.0653   $ Sizing
 "CSupFlo_Sys_L_StorSm_S" = 179.3363   $ Sizing
 "CSupFlo_Sys_L_StorSm_W" = 154.1461   $ Sizing
 "CSupFlo_Sys_T_Conf_C" = 219.5768   $ Sizing
 "CSupFlo_Sys_T_Hall_E" = 184.381   $ Sizing
 "CSupFlo_Sys_T_Hall_N" = 114.0957   $ Sizing
 "CSupFlo_Sys_T_Hall_S" = 221.1891   $ Sizing
 "CSupFlo_Sys_T_Hall_W" = 183.6234   $ Sizing
 "CSupFlo_Sys_T_OfficeOpn_C" = 63.28432   $ Sizing
 "CSupFlo_Sys_T_OfficeOpn_E" = 754.6556   $ Sizing
 "CSupFlo_Sys_T_OfficeOpn_N" = 294.3562   $ Sizing
 "CSupFlo_Sys_T_OfficeOpn_S" = 846.1287   $ Sizing
 "CSupFlo_Sys_T_OfficeOpn_W" = 717.2475   $ Sizing
 "CSupFlo_Sys_T_OfficeSm_E" = 664.8527   $ Sizing
 "CSupFlo_Sys_T_OfficeSm_N" = 256.386   $ Sizing
 "CSupFlo_Sys_T_OfficeSm_S" = 764.1224   $ Sizing
 "CSupFlo_Sys_T_OfficeSm_W" = 652.2052   $ Sizing
 "CSupFlo_Sys_T_Restrm_C" = 88.96587   $ Sizing
 "CSupFlo_Sys_T_StorSm_E" = 177.3912   $ Sizing
 "CSupFlo_Sys_T_StorSm_N" = 126.7355   $ Sizing
 "CSupFlo_Sys_T_StorSm_S" = 210.3689   $ Sizing
 "CSupFlo_Sys_T_StorSm_W" = 178.3202   $ Sizing
 "ClCap_Sys_L_Break_C" = 9701.404   $ Sizing
 "ClCap_Sys_L_CompDC_C" = 6222.318   $ Sizing
 "ClCap_Sys_L_Conf_C" = 9505.162   $ Sizing
 "ClCap_Sys_L_CopyRm_C" = 2400.987   $ Sizing
 "ClCap_Sys_L_Hall_E" = 5568.849   $ Sizing
 "ClCap_Sys_L_Hall_N" = 3991.547   $ Sizing
 "ClCap_Sys_L_Hall_S" = 6493.746   $ Sizing
 "ClCap_Sys_L_Hall_W" = 5701.741   $ Sizing
 "ClCap_Sys_L_LobWait_E" = 13163.53   $ Sizing
 "ClCap_Sys_L_LobWait_N" = 8415.143   $ Sizing
 "ClCap_Sys_L_LobWait_S" = 15068.31   $ Sizing
 "ClCap_Sys_L_LobWait_W" = 13126.38   $ Sizing
 "ClCap_Sys_L_MechElec_C" = 2793.606   $ Sizing
 "ClCap_Sys_L_OfficeOpn_C" = 2434.453   $ Sizing
 "ClCap_Sys_L_OfficeOpn_E" = 25478.07   $ Sizing
 "ClCap_Sys_L_OfficeOpn_N" = 10146.39   $ Sizing
 "ClCap_Sys_L_OfficeOpn_S" = 26761.63   $ Sizing
 "ClCap_Sys_L_OfficeOpn_W" = 24083.28   $ Sizing
 "ClCap_Sys_L_OfficeSm_E" = 22066.68   $ Sizing
 "ClCap_Sys_L_OfficeSm_N" = 9126.983   $ Sizing
 "ClCap_Sys_L_OfficeSm_S" = 23992.27   $ Sizing
 "ClCap_Sys_L_OfficeSm_W" = 21635.66   $ Sizing
 "ClCap_Sys_L_Restrm_C" = 2928.947   $ Sizing
 "ClCap_Sys_L_StorSm_C" = 1722.57   $ Sizing
 "ClCap_Sys_L_StorSm_E" = 5397.535   $ Sizing
 "ClCap_Sys_L_StorSm_N" = 4357.987   $ Sizing
 "ClCap_Sys_L_StorSm_S" = 6102.708   $ Sizing
 "ClCap_Sys_L_StorSm_W" = 5245.501   $ Sizing
 "ClCap_Sys_T_Conf_C" = 9509.902   $ Sizing
 "ClCap_Sys_T_Hall_E" = 6274.374   $ Sizing
 "ClCap_Sys_T_Hall_N" = 3882.608   $ Sizing
 "ClCap_Sys_T_Hall_S" = 7526.934   $ Sizing
 "ClCap_Sys_T_Hall_W" = 6248.594   $ Sizing
 "ClCap_Sys_T_OfficeOpn_C" = 2153.528   $ Sizing
 "ClCap_Sys_T_OfficeOpn_E" = 25680.48   $ Sizing
 "ClCap_Sys_T_OfficeOpn_N" = 10016.76   $ Sizing
 "ClCap_Sys_T_OfficeOpn_S" = 28793.25   $ Sizing
 "ClCap_Sys_T_OfficeOpn_W" = 24407.5   $ Sizing
 "ClCap_Sys_T_OfficeSm_E" = 22624.54   $ Sizing
 "ClCap_Sys_T_OfficeSm_N" = 8724.664   $ Sizing
 "ClCap_Sys_T_OfficeSm_S" = 26002.63   $ Sizing
 "ClCap_Sys_T_OfficeSm_W" = 22194.15   $ Sizing
 "ClCap_Sys_T_Restrm_C" = 3027.455   $ Sizing
 "ClCap_Sys_T_StorSm_E" = 6036.517   $ Sizing
 "ClCap_Sys_T_StorSm_N" = 4312.733   $ Sizing
 "ClCap_Sys_T_StorSm_S" = 7158.727   $ Sizing
 "ClCap_Sys_T_StorSm_W" = 6068.128   $ Sizing
 "HRtECT_Sys_L_Break_C" = 47   $ Sizing
 "HRtECT_Sys_L_CompDC_C" = 47   $ Sizing
 "HRtECT_Sys_L_Conf_C" = 47   $ Sizing
 "HRtECT_Sys_L_CopyRm_C" = 47   $ Sizing
 "HRtECT_Sys_L_Hall_E" = 47   $ Sizing
 "HRtECT_Sys_L_Hall_N" = 47   $ Sizing
 "HRtECT_Sys_L_Hall_S" = 47   $ Sizing
 "HRtECT_Sys_L_Hall_W" = 47   $ Sizing
 "HRtECT_Sys_L_LobWait_E" = 47   $ Sizing
 "HRtECT_Sys_L_LobWait_N" = 47   $ Sizing
 "HRtECT_Sys_L_LobWait_S" = 47   $ Sizing
 "HRtECT_Sys_L_LobWait_W" = 47   $ Sizing
 "HRtECT_Sys_L_MechElec_C" = 47   $ Sizing
 "HRtECT_Sys_L_OfficeOpn_C" = 47   $ Sizing
 "HRtECT_Sys_L_OfficeOpn_E" = 47   $ Sizing
 "HRtECT_Sys_L_OfficeOpn_N" = 47   $ Sizing
 "HRtECT_Sys_L_OfficeOpn_S" = 47   $ Sizing
 "HRtECT_Sys_L_OfficeOpn_W" = 47   $ Sizing
 "HRtECT_Sys_L_OfficeSm_E" = 47   $ Sizing
 "HRtECT_Sys_L_OfficeSm_N" = 47   $ Sizing
 "HRtECT_Sys_L_OfficeSm_S" = 47   $ Sizing
 "HRtECT_Sys_L_OfficeSm_W" = 47   $ Sizing
 "HRtECT_Sys_L_Restrm_C" = 47   $ Sizing
 "HRtECT_Sys_L_StorSm_C" = 47   $ Sizing
 "HRtECT_Sys_L_StorSm_E" = 47   $ Sizing
 "HRtECT_Sys_L_StorSm_N" = 47   $ Sizing
 "HRtECT_Sys_L_StorSm_S" = 47   $ Sizing
 "HRtECT_Sys_L_StorSm_W" = 47   $ Sizing
 "HRtECT_Sys_T_Conf_C" = 47   $ Sizing
 "HRtECT_Sys_T_Hall_E" = 47   $ Sizing
 "HRtECT_Sys_T_Hall_N" = 47   $ Sizing
 "HRtECT_Sys_T_Hall_S" = 47   $ Sizing
 "HRtECT_Sys_T_Hall_W" = 47   $ Sizing
 "HRtECT_Sys_T_OfficeOpn_C" = 47   $ Sizing
 "HRtECT_Sys_T_OfficeOpn_E" = 47   $ Sizing
 "HRtECT_Sys_T_OfficeOpn_N" = 47   $ Sizing
 "HRtECT_Sys_T_OfficeOpn_S" = 47   $ Sizing
 "HRtECT_Sys_T_OfficeOpn_W" = 47   $ Sizing
 "HRtECT_Sys_T_OfficeSm_E" = 47   $ Sizing
 "HRtECT_Sys_T_OfficeSm_N" = 47   $ Sizing
 "HRtECT_Sys_T_OfficeSm_S" = 47   $ Sizing
 "HRtECT_Sys_T_OfficeSm_W" = 47   $ Sizing
 "HRtECT_Sys_T_Restrm_C" = 47   $ Sizing
 "HRtECT_Sys_T_StorSm_E" = 47   $ Sizing
 "HRtECT_Sys_T_StorSm_N" = 47   $ Sizing
 "HRtECT_Sys_T_StorSm_S" = 47   $ Sizing
 "HRtECT_Sys_T_StorSm_W" = 47   $ Sizing
 "HSpCap_Sys_L_Break_C" = -6966.973   $ Sizing
 "HSpCap_Sys_L_CompDC_C" = -2737.82   $ Sizing
 "HSpCap_Sys_L_Conf_C" = -7505.598   $ Sizing
 "HSpCap_Sys_L_CopyRm_C" = -2942.784   $ Sizing
 "HSpCap_Sys_L_Hall_E" = -2987.059   $ Sizing
 "HSpCap_Sys_L_Hall_N" = -2819.48   $ Sizing
 "HSpCap_Sys_L_Hall_S" = -2857.248   $ Sizing
 "HSpCap_Sys_L_Hall_W" = -2745.51   $ Sizing
 "HSpCap_Sys_L_LobWait_E" = -6757.765   $ Sizing
 "HSpCap_Sys_L_LobWait_N" = -7011.802   $ Sizing
 "HSpCap_Sys_L_LobWait_S" = -6630.058   $ Sizing
 "HSpCap_Sys_L_LobWait_W" = -6678.346   $ Sizing
 "HSpCap_Sys_L_MechElec_C" = -2367.655   $ Sizing
 "HSpCap_Sys_L_OfficeOpn_C" = -1454.278   $ Sizing
 "HSpCap_Sys_L_OfficeOpn_E" = -11210.35   $ Sizing
 "HSpCap_Sys_L_OfficeOpn_N" = -8693.328   $ Sizing
 "HSpCap_Sys_L_OfficeOpn_S" = -11775.12   $ Sizing
 "HSpCap_Sys_L_OfficeOpn_W" = -10596.64   $ Sizing
 "HSpCap_Sys_L_OfficeSm_E" = -9709.337   $ Sizing
 "HSpCap_Sys_L_OfficeSm_N" = -7407.967   $ Sizing
 "HSpCap_Sys_L_OfficeSm_S" = -10556.6   $ Sizing
 "HSpCap_Sys_L_OfficeSm_W" = -9519.689   $ Sizing
 "HSpCap_Sys_L_Restrm_C" = -1473.71   $ Sizing
 "HSpCap_Sys_L_StorSm_C" = -1428.157   $ Sizing
 "HSpCap_Sys_L_StorSm_E" = -3165.347   $ Sizing
 "HSpCap_Sys_L_StorSm_N" = -3456.668   $ Sizing
 "HSpCap_Sys_L_StorSm_S" = -2685.192   $ Sizing
 "HSpCap_Sys_L_StorSm_W" = -2926.872   $ Sizing
 "HSpCap_Sys_T_Conf_C" = -8067.889   $ Sizing
 "HSpCap_Sys_T_Hall_E" = -3651.204   $ Sizing
 "HSpCap_Sys_T_Hall_N" = -3352.849   $ Sizing
 "HSpCap_Sys_T_Hall_S" = -3311.851   $ Sizing
 "HSpCap_Sys_T_Hall_W" = -3504.745   $ Sizing
 "HSpCap_Sys_T_OfficeOpn_C" = -1407.167   $ Sizing
 "HSpCap_Sys_T_OfficeOpn_E" = -11299.41   $ Sizing
 "HSpCap_Sys_T_OfficeOpn_N" = -9474.896   $ Sizing
 "HSpCap_Sys_T_OfficeOpn_S" = -12669.03   $ Sizing
 "HSpCap_Sys_T_OfficeOpn_W" = -10847.54   $ Sizing
 "HSpCap_Sys_T_OfficeSm_E" = -9954.798   $ Sizing
 "HSpCap_Sys_T_OfficeSm_N" = -8121.4   $ Sizing
 "HSpCap_Sys_T_OfficeSm_S" = -11441.16   $ Sizing
 "HSpCap_Sys_T_OfficeSm_W" = -9765.427   $ Sizing
 "HSpCap_Sys_T_Restrm_C" = -2612.049   $ Sizing
 "HSpCap_Sys_T_StorSm_E" = -4248.107   $ Sizing
 "HSpCap_Sys_T_StorSm_N" = -4148.056   $ Sizing
 "HSpCap_Sys_T_StorSm_S" = -3149.84   $ Sizing
 "HSpCap_Sys_T_StorSm_W" = -4136.225   $ Sizing
 "HtCap_Sys_L_Break_C" = -8537.235   $ Sizing
 "HtCap_Sys_L_CompDC_C" = -5475.64   $ Sizing
 "HtCap_Sys_L_Conf_C" = -8364.543   $ Sizing
 "HtCap_Sys_L_CopyRm_C" = -2112.869   $ Sizing
 "HtCap_Sys_L_Hall_E" = -4900.587   $ Sizing
 "HtCap_Sys_L_Hall_N" = -3512.561   $ Sizing
 "HtCap_Sys_L_Hall_S" = -5714.496   $ Sizing
 "HtCap_Sys_L_Hall_W" = -5017.532   $ Sizing
 "HtCap_Sys_L_LobWait_E" = -11583.91   $ Sizing
 "HtCap_Sys_L_LobWait_N" = -7405.325   $ Sizing
 "HtCap_Sys_L_LobWait_S" = -13260.12   $ Sizing
 "HtCap_Sys_L_LobWait_W" = -11551.22   $ Sizing
 "HtCap_Sys_L_MechElec_C" = -2458.373   $ Sizing
 "HtCap_Sys_L_OfficeOpn_C" = -2142.319   $ Sizing
 "HtCap_Sys_L_OfficeOpn_E" = -22420.7   $ Sizing
 "HtCap_Sys_L_OfficeOpn_N" = -8928.824   $ Sizing
 "HtCap_Sys_L_OfficeOpn_S" = -23550.23   $ Sizing
 "HtCap_Sys_L_OfficeOpn_W" = -21193.29   $ Sizing
 "HtCap_Sys_L_OfficeSm_E" = -19418.67   $ Sizing
 "HtCap_Sys_L_OfficeSm_N" = -8031.745   $ Sizing
 "HtCap_Sys_L_OfficeSm_S" = -21113.2   $ Sizing
 "HtCap_Sys_L_OfficeSm_W" = -19039.38   $ Sizing
 "HtCap_Sys_L_Restrm_C" = -2577.473   $ Sizing
 "HtCap_Sys_L_StorSm_C" = -1515.862   $ Sizing
 "HtCap_Sys_L_StorSm_E" = -4749.831   $ Sizing
 "HtCap_Sys_L_StorSm_N" = -3835.028   $ Sizing
 "HtCap_Sys_L_StorSm_S" = -5370.383   $ Sizing
 "HtCap_Sys_L_StorSm_W" = -4616.041   $ Sizing
 "HtCap_Sys_T_Conf_C" = -8368.714   $ Sizing
 "HtCap_Sys_T_Hall_E" = -5521.449   $ Sizing
 "HtCap_Sys_T_Hall_N" = -3416.695   $ Sizing
 "HtCap_Sys_T_Hall_S" = -6623.702   $ Sizing
 "HtCap_Sys_T_Hall_W" = -5498.763   $ Sizing
 "HtCap_Sys_T_OfficeOpn_C" = -1895.104   $ Sizing
 "HtCap_Sys_T_OfficeOpn_E" = -22598.82   $ Sizing
 "HtCap_Sys_T_OfficeOpn_N" = -8814.753   $ Sizing
 "HtCap_Sys_T_OfficeOpn_S" = -25338.06   $ Sizing
 "HtCap_Sys_T_OfficeOpn_W" = -21478.6   $ Sizing
 "HtCap_Sys_T_OfficeSm_E" = -19909.6   $ Sizing
 "HtCap_Sys_T_OfficeSm_N" = -7677.704   $ Sizing
 "HtCap_Sys_T_OfficeSm_S" = -22882.31   $ Sizing
 "HtCap_Sys_T_OfficeSm_W" = -19530.85   $ Sizing
 "HtCap_Sys_T_Restrm_C" = -2664.16   $ Sizing
 "HtCap_Sys_T_StorSm_E" = -5312.135   $ Sizing
 "HtCap_Sys_T_StorSm_N" = -3795.205   $ Sizing
 "HtCap_Sys_T_StorSm_S" = -6299.68   $ Sizing
 "HtCap_Sys_T_StorSm_W" = -5339.953   $ Sizing
..

##include Templates\OfS_DX_SZ.inp
END ..
COMPUTE ..
STOP ..
