INPUT ..

##fileprefix C:\Users\jglasskatz\MASControl3\
##set1 IsSizing FALSE
##set1 CoolType WLHP
##set1 HeatType HEAT-PUMP
##set1 EU_HrRepVar 1
##set1 BldgVint 2015
##set1 BldgLoc CZ01

 ##set1 mHW_FlowCtrl Const   $ IP Tech: HwFlowCtrlCst
 ##set1 mBlrIsCond FALSE   $ IP Tech: WBlr-lt300-82p0AF
 ##set1 mWLHP_FlowCtrl VSD   $ IP Tech: WlhpFlowCtrlVar

PARAMETER
 "AltFactor" = 1.00753   $ IP Non-Tech
 "BldgEconoFlag" = 1   $ IP Non-Tech
 "BlrPrimLp" = WLHPCircLoop   $ IP Non-Tech
 "Break_EWSF" = 1   $ IP Non-Tech
 "Break_LWSF" = 1.1   $ IP Non-Tech
 "CDD_DBHi10" = 65   $ IP Non-Tech
 "CDD_DBHi7" = 68   $ IP Non-Tech
 "CDD_DBHi8" = 66   $ IP Non-Tech
 "CDD_DBHi9" = 77   $ IP Non-Tech
 "CDD_DBRange10" = 17   $ IP Non-Tech
 "CDD_DBRange7" = 11   $ IP Non-Tech
 "CDD_DBRange8" = 10   $ IP Non-Tech
 "CDD_DBRange9" = 29   $ IP Non-Tech
 "CDD_Day10" = 15   $ IP Non-Tech
 "CDD_Day7" = 16   $ IP Non-Tech
 "CDD_Day8" = 20   $ IP Non-Tech
 "CDD_Day9" = 17   $ IP Non-Tech
 "CDD_HrHi10" = 12   $ IP Non-Tech
 "CDD_HrHi7" = 12   $ IP Non-Tech
 "CDD_HrHi8" = 13   $ IP Non-Tech
 "CDD_HrHi9" = 17   $ IP Non-Tech
 "CDD_HrLo10" = 6   $ IP Non-Tech
 "CDD_HrLo7" = 3   $ IP Non-Tech
 "CDD_HrLo8" = 8   $ IP Non-Tech
 "CDD_HrLo9" = 4   $ IP Non-Tech
 "CDD_WB10" = 57.53039551   $ IP Non-Tech
 "CDD_WB7" = 59.29250717   $ IP Non-Tech
 "CDD_WB8" = 60.75350189   $ IP Non-Tech
 "CDD_WB9" = 61.08643341   $ IP Non-Tech
 "CZ_Category" = Tem   $ IP Non-Tech
 "ChwVintEconoFlag" = 1   $ IP Non-Tech
 "CompRoomData_EWSF" = 5   $ IP Non-Tech
 "CompRoomData_LWSF" = 1.05   $ IP Non-Tech
 "Conference_EWSF" = 1   $ IP Non-Tech
 "Conference_LWSF" = 1.4   $ IP Non-Tech
 "CoolSetT" = 45   $ IP Non-Tech
 "CoolType" = WLHP   $ IP Non-Tech
 "CopyRoom_EWSF" = 1.5   $ IP Non-Tech
 "CopyRoom_LWSF" = 1.3   $ IP Non-Tech
 "CwPipeHead" = 40   $ IP Non-Tech
 "DesCoolT" = 75   $ IP Non-Tech
 "DesHeatT" = 73   $ IP Non-Tech
 "EconoEnthLimit" = 28   $ IP Non-Tech
 "EconoTempLimit" = 70   $ IP Non-Tech
 "Elevation" = 203   $ IP Non-Tech
 "HDD_CloudAmt1" = 0   $ IP Non-Tech
 "HDD_DBHi1" = 53   $ IP Non-Tech
 "HDD_DBRange1" = 20   $ IP Non-Tech
 "HDD_Day1" = 15   $ IP Non-Tech
 "HDD_HrHi1" = 14   $ IP Non-Tech
 "HDD_HrLo1" = 6   $ IP Non-Tech
 "HDD_WB1" = 42.3   $ IP Non-Tech
 "HDD_WindSpd1" = 12.7   $ IP Non-Tech
 "Hall_EWSF" = 0.2   $ IP Non-Tech
 "Hall_LWSF" = 0.6   $ IP Non-Tech
 "HeatSrc" = HEAT-PUMP   $ IP Non-Tech
 "HeatSrcTU" = HEAT-PUMP   $ IP Non-Tech
 "HeatType" = WLHP   $ IP Non-Tech
 "HeatTypeTU" = HEAT-PUMP   $ IP Non-Tech
 "IndoorFanMode" = CONTINUOUS   $ IP Non-Tech
 "KT_TransferAir" = Yes   $ IP Non-Tech
 "Latitude" = 40.8   $ IP Non-Tech
 "LobbyWaiting_EWSF" = 0.5   $ IP Non-Tech
 "LobbyWaiting_LWSF" = 1.3   $ IP Non-Tech
 "Longitude" = 124.2   $ IP Non-Tech
 "LtgMsrApplic" = ALL   $ Msr TechID: NonResLtgRefMsr-EX
 "LtgSav_CFL" = 0   $ Msr TechID: NonResLtgRefMsr-EX
 "LtgSav_EX" = 0.3   $ Msr TechID: NonResLtgRefMsr-EX
 "LtgSav_HB" = 0   $ Msr TechID: NonResLtgRefMsr-EX
 "LtgSav_LF" = 0   $ Msr TechID: NonResLtgRefMsr-EX
 "LtgSav_SP" = 0   $ Msr TechID: NonResLtgRefMsr-EX
 "MZFanMechEff" = 0.54   $ IP Non-Tech
 "MZHasRetFan" = FALSE   $ IP Non-Tech
 "MZ_RFanWPerCfm" = 0.33   $ IP Non-Tech
 "MZ_SFanWPerCfm" = 0.75   $ IP Non-Tech
 "MZ_SupFanStatic" = 0.75   $ IP Non-Tech
 "MaxSupT_MZ" = 90   $ IP Non-Tech
 "MaxSupT_SZ" = 90   $ IP Non-Tech
 "MaxSupT_TU" = 90   $ IP Non-Tech
 "MechElecRoom_EWSF" = 0.2   $ IP Non-Tech
 "MechElecRoom_LWSF" = 0.7   $ IP Non-Tech
 "MinCfmPerSF" = 0.4   $ IP Non-Tech
 "MinSupT" = 55   $ IP Non-Tech
 "NumBlrs" = 1   $ IP Non-Tech
 "OccCoolT" = 76   $ IP Non-Tech
 "OccHeatT" = 72   $ IP Non-Tech
 "OfficeOpen_EWSF" = 1.5   $ IP Non-Tech
 "OfficeOpen_LWSF" = 1.05   $ IP Non-Tech
 "OfficeSmall_EWSF" = 1.5   $ IP Non-Tech
 "OfficeSmall_LWSF" = 1.3   $ IP Non-Tech
 "PkgDxVintEconoFlag" = 1   $ IP Non-Tech
 "Restroom_EWSF" = 0.2   $ IP Non-Tech
 "Restroom_LWSF" = 0.6   $ IP Non-Tech
 "SZFanMechEff" = 0.54   $ IP Non-Tech
 "SZHasRetFan" = FALSE   $ IP Non-Tech
 "SZ_Is_2Spd" = TRUE   $ IP Non-Tech
 "SZ_SFanWPerCfm" = 0.46   $ IP Non-Tech
 "SZ_SupFanStatic" = 0.75   $ IP Non-Tech
 "StorageSmlCond_EWSF" = 0.2   $ IP Non-Tech
 "StorageSmlCond_LWSF" = 0.6   $ IP Non-Tech
 "T24GlzTbl" = TypeTbl   $ IP Non-Tech
 "TermUnitFanMechEff" = 1   $ IP Non-Tech
 "TermUnitFanMode" = INTERMITTENT   $ IP Non-Tech
 "TermUnitFanWPerCfm" = 0.175   $ IP Non-Tech
 "TwrEIR" = 0.0329   $ IP Non-Tech
 "TwrPipeHead" = 15   $ IP Non-Tech
 "TwrSetpt" = 80   $ IP Non-Tech
 "TwrStaticHead" = 0   $ IP Non-Tech
 "UnocCoolT" = 86   $ IP Non-Tech
 "UnocHeatT" = 62   $ IP Non-Tech
 "WLHPLoopHeatSetpt" = 65   $ IP Non-Tech
 "WlhpVintEconoFlag" = 1   $ IP Non-Tech
 "EconoCtrl" = OA-TEMP   $ IP Tech: AirEcono-OAT-ByVint
 "MaxOAFrac" = 0.85   $ IP Tech: AirEcono-OAT-ByVint
 "UseEconoVintApplic" = TRUE   $ IP Tech: AirEcono-OAT-ByVint
 "DuctDT" = 1   $ IP Tech: ComDuctInsul-1
 "DuctAirLoss" = 0   $ IP Tech: ComDuctLeak-0
 "DuctLossOAFrac" = 0   $ IP Tech: ComDuctLeak-0
 "ComRoofInsCalc" = FromUo   $ IP Tech: ComRoofIns-WFrm-0.05
 "ComRoofInsR" = -999   $ IP Tech: ComRoofIns-WFrm-0.05
 "ComRoofUo" = 0.05   $ IP Tech: ComRoofIns-WFrm-0.05
 "ComEWInsCalc" = FromUo   $ IP Tech: ComWallIns-WFrm-0.08
 "ComEWInsR" = -999   $ IP Tech: ComWallIns-WFrm-0.08
 "ComEWUo" = 0.08   $ IP Tech: ComWallIns-WFrm-0.08
 "HW_FlowCtrl" = Const   $ IP Tech: HwFlowCtrlCst
 "HW_HdSensLoc" = AT-COILS   $ IP Tech: HwFlowCtrlCst
 "HW_HdSptCtrl" = FIXED   $ IP Tech: HwFlowCtrlCst
 "HWP_Encl" = Any   $ IP Tech: HwPumpMtrEff-PR
 "HWP_MotClass" = PREMIUM   $ IP Tech: HwPumpMtrEff-PR
 "HWP_MotHP" = Any   $ IP Tech: HwPumpMtrEff-PR
 "HWP_NEMA_DC" = Any   $ IP Tech: HwPumpMtrEff-PR
 "HWP_RPM" = Any   $ IP Tech: HwPumpMtrEff-PR
 "HWP_Volt" = Any   $ IP Tech: HwPumpMtrEff-PR
 "ComN_SHGC" = 0.25   $ IP Tech: NResWin-ComN-0.36-0.25
 "ComN_UFactor" = 0.36   $ IP Tech: NResWin-ComN-0.36-0.25
 "ComN_VisTrans" = 0.41   $ IP Tech: NResWin-ComN-0.36-0.25
 "ComN_WinCode" = G2668   $ IP Tech: NResWin-ComN-0.36-0.25
 "ComN_WinFrmFrac" = 0.17   $ IP Tech: NResWin-ComN-0.36-0.25
 "ComN_WinFrmU" = 0.3   $ IP Tech: NResWin-ComN-0.36-0.25
 "ComO_SHGC" = 0.25   $ IP Tech: NResWin-ComO-0.36-0.25
 "ComO_UFactor" = 0.36   $ IP Tech: NResWin-ComO-0.36-0.25
 "ComO_VisTrans" = 0.41   $ IP Tech: NResWin-ComO-0.36-0.25
 "ComO_WinCode" = G2668   $ IP Tech: NResWin-ComO-0.36-0.25
 "ComO_WinFrmFrac" = 0.17   $ IP Tech: NResWin-ComO-0.36-0.25
 "ComO_WinFrmU" = 0.3   $ IP Tech: NResWin-ComO-0.36-0.25
 "TwrFanCtrl" = TWO-SPEED-FAN   $ IP Tech: TwrFanCtrl-2sp
 "TFan_Encl" = Any   $ IP Tech: TwrFanMtrEff-PR
 "TFan_MotClass" = PREMIUM   $ IP Tech: TwrFanMtrEff-PR
 "TFan_MotHP" = Any   $ IP Tech: TwrFanMtrEff-PR
 "TFan_NEMA_DC" = Any   $ IP Tech: TwrFanMtrEff-PR
 "TFan_RPM" = Any   $ IP Tech: TwrFanMtrEff-PR
 "TFan_Volt" = Any   $ IP Tech: TwrFanMtrEff-PR
 "BlrCapRange" = lt300   $ IP Tech: WBlr-lt300-82p0AF
 "BlrDraftType" = FDr   $ IP Tech: WBlr-lt300-82p0AF
 "BlrEff" = 0.82   $ IP Tech: WBlr-lt300-82p0AF
 "BlrEffUnits" = AFUE   $ IP Tech: WBlr-lt300-82p0AF
 "BlrEt" = 0.823   $ IP Tech: WBlr-lt300-82p0AF
 "BlrFluid" = Wtr   $ IP Tech: WBlr-lt300-82p0AF
 "BlrIsCond" = FALSE   $ IP Tech: WBlr-lt300-82p0AF
 "BlrT" = 165   $ IP Tech: WBlr-lt300-82p0AF
 "COP47" = 4.813   $ IP Tech: WLHP2SpP-ge17-E12-C4.2
 "CfmPerBtuh" = 0.033333333   $ IP Tech: WLHP2SpP-ge17-E12-C4.2
 "CoilBF" = 0.15   $ IP Tech: WLHP2SpP-ge17-E12-C4.2
 "CoolingEIR" = 0.23327   $ IP Tech: WLHP2SpP-ge17-E12-C4.2
 "DXType" = WLHP   $ IP Tech: WLHP2SpP-ge17-E12-C4.2
 "EER" = 12   $ IP Tech: WLHP2SpP-ge17-E12-C4.2
 "FanWPerCfm" = 0.35   $ IP Tech: WLHP2SpP-ge17-E12-C4.2
 "HtCoolCapRatio" = 0.88   $ IP Tech: WLHP2SpP-ge17-E12-C4.2
 "HtgEIR" = 0.20776   $ IP Tech: WLHP2SpP-ge17-E12-C4.2
 "NumStages" = 2   $ IP Tech: WLHP2SpP-ge17-E12-C4.2
 "RatedSupMtrClass" = Premium   $ IP Tech: WLHP2SpP-ge17-E12-C4.2
 "SubType" = 2SpP   $ IP Tech: WLHP2SpP-ge17-E12-C4.2
 "UnitCOP" = 4.2   $ IP Tech: WLHP2SpP-ge17-E12-C4.2
 "WLHP_FlowCtrl" = VSD   $ IP Tech: WlhpFlowCtrlVar
 "WLHP_HdSensLoc" = AT-COILS   $ IP Tech: WlhpFlowCtrlVar
 "WLHP_HdSptCtrl" = FIXED   $ IP Tech: WlhpFlowCtrlVar
 "WLHP_Encl" = Any   $ IP Tech: WlhpPumpMtrEff-PR
 "WLHP_MotClass" = PREMIUM   $ IP Tech: WlhpPumpMtrEff-PR
 "WLHP_MotHP" = Any   $ IP Tech: WlhpPumpMtrEff-PR
 "WLHP_NEMA_DC" = Any   $ IP Tech: WlhpPumpMtrEff-PR
 "WLHP_RPM" = Any   $ IP Tech: WlhpPumpMtrEff-PR
 "WLHP_Volt" = Any   $ IP Tech: WlhpPumpMtrEff-PR
 "AltAdjFactor" = 1.007532   $ Sizing
 "CAssFlo_L_Break_CZn" = 279.1041   $ Sizing
 "CAssFlo_L_CompDC_CZn" = 160.0203   $ Sizing
 "CAssFlo_L_Conf_CZn" = 202.9185   $ Sizing
 "CAssFlo_L_CopyRm_CZn" = 58.229   $ Sizing
 "CAssFlo_L_Hall_EZn" = 80.12637   $ Sizing
 "CAssFlo_L_Hall_NZn" = 75.46253   $ Sizing
 "CAssFlo_L_Hall_SZn" = 93.40527   $ Sizing
 "CAssFlo_L_Hall_WZn" = 85.08797   $ Sizing
 "CAssFlo_L_LobWait_EZn" = 204.1042   $ Sizing
 "CAssFlo_L_LobWait_NZn" = 162.5791   $ Sizing
 "CAssFlo_L_LobWait_SZn" = 220.9383   $ Sizing
 "CAssFlo_L_LobWait_WZn" = 200.4582   $ Sizing
 "CAssFlo_L_MechElec_CZn" = 92.79383   $ Sizing
 "CAssFlo_L_OfficeOpn_CZn" = 58.31862   $ Sizing
 "CAssFlo_L_OfficeOpn_EZn" = 438.136   $ Sizing
 "CAssFlo_L_OfficeOpn_NZn" = 197.418   $ Sizing
 "CAssFlo_L_OfficeOpn_SZn" = 435.7571   $ Sizing
 "CAssFlo_L_OfficeOpn_WZn" = 406.7772   $ Sizing
 "CAssFlo_L_OfficeSm_EZn" = 360.2211   $ Sizing
 "CAssFlo_L_OfficeSm_NZn" = 164.5554   $ Sizing
 "CAssFlo_L_OfficeSm_SZn" = 381.8893   $ Sizing
 "CAssFlo_L_OfficeSm_WZn" = 354.2859   $ Sizing
 "CAssFlo_L_Restrm_CZn" = 86.07105   $ Sizing
 "CAssFlo_L_StorSm_CZn" = 46.5496   $ Sizing
 "CAssFlo_L_StorSm_EZn" = 81.56043   $ Sizing
 "CAssFlo_L_StorSm_NZn" = 93.80325   $ Sizing
 "CAssFlo_L_StorSm_SZn" = 81.87132   $ Sizing
 "CAssFlo_L_StorSm_WZn" = 80.43073   $ Sizing
 "CAssFlo_T_Conf_CZn" = 208.4011   $ Sizing
 "CAssFlo_T_Hall_EZn" = 98.79261   $ Sizing
 "CAssFlo_T_Hall_NZn" = 69.43481   $ Sizing
 "CAssFlo_T_Hall_SZn" = 110.0445   $ Sizing
 "CAssFlo_T_Hall_WZn" = 97.22218   $ Sizing
 "CAssFlo_T_OfficeOpn_CZn" = 57.13857   $ Sizing
 "CAssFlo_T_OfficeOpn_EZn" = 447.0973   $ Sizing
 "CAssFlo_T_OfficeOpn_NZn" = 225.395   $ Sizing
 "CAssFlo_T_OfficeOpn_SZn" = 465.3438   $ Sizing
 "CAssFlo_T_OfficeOpn_WZn" = 413.5357   $ Sizing
 "CAssFlo_T_OfficeSm_EZn" = 376.3921   $ Sizing
 "CAssFlo_T_OfficeSm_NZn" = 176.433   $ Sizing
 "CAssFlo_T_OfficeSm_SZn" = 411.0432   $ Sizing
 "CAssFlo_T_OfficeSm_WZn" = 361.4827   $ Sizing
 "CAssFlo_T_Restrm_CZn" = 86.07105   $ Sizing
 "CAssFlo_T_StorSm_EZn" = 96.21731   $ Sizing
 "CAssFlo_T_StorSm_NZn" = 91.88914   $ Sizing
 "CAssFlo_T_StorSm_SZn" = 102.8507   $ Sizing
 "CAssFlo_T_StorSm_WZn" = 95.27089   $ Sizing
 "CHRtFlo_Sys_L_Break_C" = 279.1041   $ Sizing
 "CHRtFlo_Sys_L_CompDC_C" = 160.0203   $ Sizing
 "CHRtFlo_Sys_L_Conf_C" = 202.9185   $ Sizing
 "CHRtFlo_Sys_L_CopyRm_C" = 58.229   $ Sizing
 "CHRtFlo_Sys_L_Hall_E" = 80.12637   $ Sizing
 "CHRtFlo_Sys_L_Hall_N" = 75.46253   $ Sizing
 "CHRtFlo_Sys_L_Hall_S" = 93.40527   $ Sizing
 "CHRtFlo_Sys_L_Hall_W" = 85.08797   $ Sizing
 "CHRtFlo_Sys_L_LobWait_E" = 204.1042   $ Sizing
 "CHRtFlo_Sys_L_LobWait_N" = 162.5791   $ Sizing
 "CHRtFlo_Sys_L_LobWait_S" = 220.9383   $ Sizing
 "CHRtFlo_Sys_L_LobWait_W" = 200.4582   $ Sizing
 "CHRtFlo_Sys_L_MechElec_C" = 92.79383   $ Sizing
 "CHRtFlo_Sys_L_OfficeOpn_C" = 58.31862   $ Sizing
 "CHRtFlo_Sys_L_OfficeOpn_E" = 438.136   $ Sizing
 "CHRtFlo_Sys_L_OfficeOpn_N" = 197.418   $ Sizing
 "CHRtFlo_Sys_L_OfficeOpn_S" = 435.7571   $ Sizing
 "CHRtFlo_Sys_L_OfficeOpn_W" = 406.7772   $ Sizing
 "CHRtFlo_Sys_L_OfficeSm_E" = 360.2211   $ Sizing
 "CHRtFlo_Sys_L_OfficeSm_N" = 164.5554   $ Sizing
 "CHRtFlo_Sys_L_OfficeSm_S" = 381.8893   $ Sizing
 "CHRtFlo_Sys_L_OfficeSm_W" = 354.2859   $ Sizing
 "CHRtFlo_Sys_L_Restrm_C" = 86.07105   $ Sizing
 "CHRtFlo_Sys_L_StorSm_C" = 46.5496   $ Sizing
 "CHRtFlo_Sys_L_StorSm_E" = 81.56042   $ Sizing
 "CHRtFlo_Sys_L_StorSm_N" = 93.80325   $ Sizing
 "CHRtFlo_Sys_L_StorSm_S" = 81.87132   $ Sizing
 "CHRtFlo_Sys_L_StorSm_W" = 80.43073   $ Sizing
 "CHRtFlo_Sys_T_Conf_C" = 208.4011   $ Sizing
 "CHRtFlo_Sys_T_Hall_E" = 98.79261   $ Sizing
 "CHRtFlo_Sys_T_Hall_N" = 69.43481   $ Sizing
 "CHRtFlo_Sys_T_Hall_S" = 110.0445   $ Sizing
 "CHRtFlo_Sys_T_Hall_W" = 97.22218   $ Sizing
 "CHRtFlo_Sys_T_OfficeOpn_C" = 57.13857   $ Sizing
 "CHRtFlo_Sys_T_OfficeOpn_E" = 447.0973   $ Sizing
 "CHRtFlo_Sys_T_OfficeOpn_N" = 225.395   $ Sizing
 "CHRtFlo_Sys_T_OfficeOpn_S" = 465.3438   $ Sizing
 "CHRtFlo_Sys_T_OfficeOpn_W" = 413.5357   $ Sizing
 "CHRtFlo_Sys_T_OfficeSm_E" = 376.3921   $ Sizing
 "CHRtFlo_Sys_T_OfficeSm_N" = 176.433   $ Sizing
 "CHRtFlo_Sys_T_OfficeSm_S" = 411.0431   $ Sizing
 "CHRtFlo_Sys_T_OfficeSm_W" = 361.4827   $ Sizing
 "CHRtFlo_Sys_T_Restrm_C" = 86.07105   $ Sizing
 "CHRtFlo_Sys_T_StorSm_E" = 96.21732   $ Sizing
 "CHRtFlo_Sys_T_StorSm_N" = 91.88914   $ Sizing
 "CHRtFlo_Sys_T_StorSm_S" = 102.8507   $ Sizing
 "CHRtFlo_Sys_T_StorSm_W" = 95.27089   $ Sizing
 "CRtdFlo_Sys_L_Break_C" = 279.1041   $ Sizing
 "CRtdFlo_Sys_L_CompDC_C" = 160.0203   $ Sizing
 "CRtdFlo_Sys_L_Conf_C" = 202.9185   $ Sizing
 "CRtdFlo_Sys_L_CopyRm_C" = 58.229   $ Sizing
 "CRtdFlo_Sys_L_Hall_E" = 80.12637   $ Sizing
 "CRtdFlo_Sys_L_Hall_N" = 75.46253   $ Sizing
 "CRtdFlo_Sys_L_Hall_S" = 93.40527   $ Sizing
 "CRtdFlo_Sys_L_Hall_W" = 85.08797   $ Sizing
 "CRtdFlo_Sys_L_LobWait_E" = 204.1042   $ Sizing
 "CRtdFlo_Sys_L_LobWait_N" = 162.5791   $ Sizing
 "CRtdFlo_Sys_L_LobWait_S" = 220.9383   $ Sizing
 "CRtdFlo_Sys_L_LobWait_W" = 200.4582   $ Sizing
 "CRtdFlo_Sys_L_MechElec_C" = 92.79383   $ Sizing
 "CRtdFlo_Sys_L_OfficeOpn_C" = 58.31862   $ Sizing
 "CRtdFlo_Sys_L_OfficeOpn_E" = 438.136   $ Sizing
 "CRtdFlo_Sys_L_OfficeOpn_N" = 197.418   $ Sizing
 "CRtdFlo_Sys_L_OfficeOpn_S" = 435.7571   $ Sizing
 "CRtdFlo_Sys_L_OfficeOpn_W" = 406.7772   $ Sizing
 "CRtdFlo_Sys_L_OfficeSm_E" = 360.2211   $ Sizing
 "CRtdFlo_Sys_L_OfficeSm_N" = 164.5554   $ Sizing
 "CRtdFlo_Sys_L_OfficeSm_S" = 381.8893   $ Sizing
 "CRtdFlo_Sys_L_OfficeSm_W" = 354.2859   $ Sizing
 "CRtdFlo_Sys_L_Restrm_C" = 86.07105   $ Sizing
 "CRtdFlo_Sys_L_StorSm_C" = 46.5496   $ Sizing
 "CRtdFlo_Sys_L_StorSm_E" = 81.56043   $ Sizing
 "CRtdFlo_Sys_L_StorSm_N" = 93.80325   $ Sizing
 "CRtdFlo_Sys_L_StorSm_S" = 81.87132   $ Sizing
 "CRtdFlo_Sys_L_StorSm_W" = 80.43073   $ Sizing
 "CRtdFlo_Sys_T_Conf_C" = 208.4011   $ Sizing
 "CRtdFlo_Sys_T_Hall_E" = 98.79261   $ Sizing
 "CRtdFlo_Sys_T_Hall_N" = 69.43481   $ Sizing
 "CRtdFlo_Sys_T_Hall_S" = 110.0445   $ Sizing
 "CRtdFlo_Sys_T_Hall_W" = 97.22218   $ Sizing
 "CRtdFlo_Sys_T_OfficeOpn_C" = 57.13857   $ Sizing
 "CRtdFlo_Sys_T_OfficeOpn_E" = 447.0973   $ Sizing
 "CRtdFlo_Sys_T_OfficeOpn_N" = 225.395   $ Sizing
 "CRtdFlo_Sys_T_OfficeOpn_S" = 465.3438   $ Sizing
 "CRtdFlo_Sys_T_OfficeOpn_W" = 413.5357   $ Sizing
 "CRtdFlo_Sys_T_OfficeSm_E" = 376.3921   $ Sizing
 "CRtdFlo_Sys_T_OfficeSm_N" = 176.433   $ Sizing
 "CRtdFlo_Sys_T_OfficeSm_S" = 411.0432   $ Sizing
 "CRtdFlo_Sys_T_OfficeSm_W" = 361.4827   $ Sizing
 "CRtdFlo_Sys_T_Restrm_C" = 86.07105   $ Sizing
 "CRtdFlo_Sys_T_StorSm_E" = 96.21731   $ Sizing
 "CRtdFlo_Sys_T_StorSm_N" = 91.88914   $ Sizing
 "CRtdFlo_Sys_T_StorSm_S" = 102.8507   $ Sizing
 "CRtdFlo_Sys_T_StorSm_W" = 95.27089   $ Sizing
 "CSupFlo_Sys_L_Break_C" = 279.1041   $ Sizing
 "CSupFlo_Sys_L_CompDC_C" = 160.0203   $ Sizing
 "CSupFlo_Sys_L_Conf_C" = 202.9185   $ Sizing
 "CSupFlo_Sys_L_CopyRm_C" = 58.229   $ Sizing
 "CSupFlo_Sys_L_Hall_E" = 80.12637   $ Sizing
 "CSupFlo_Sys_L_Hall_N" = 75.46253   $ Sizing
 "CSupFlo_Sys_L_Hall_S" = 93.40527   $ Sizing
 "CSupFlo_Sys_L_Hall_W" = 85.08797   $ Sizing
 "CSupFlo_Sys_L_LobWait_E" = 204.1042   $ Sizing
 "CSupFlo_Sys_L_LobWait_N" = 162.5791   $ Sizing
 "CSupFlo_Sys_L_LobWait_S" = 220.9383   $ Sizing
 "CSupFlo_Sys_L_LobWait_W" = 200.4582   $ Sizing
 "CSupFlo_Sys_L_MechElec_C" = 92.79383   $ Sizing
 "CSupFlo_Sys_L_OfficeOpn_C" = 58.31862   $ Sizing
 "CSupFlo_Sys_L_OfficeOpn_E" = 438.136   $ Sizing
 "CSupFlo_Sys_L_OfficeOpn_N" = 197.418   $ Sizing
 "CSupFlo_Sys_L_OfficeOpn_S" = 435.7571   $ Sizing
 "CSupFlo_Sys_L_OfficeOpn_W" = 406.7772   $ Sizing
 "CSupFlo_Sys_L_OfficeSm_E" = 360.2211   $ Sizing
 "CSupFlo_Sys_L_OfficeSm_N" = 164.5554   $ Sizing
 "CSupFlo_Sys_L_OfficeSm_S" = 381.8893   $ Sizing
 "CSupFlo_Sys_L_OfficeSm_W" = 354.2859   $ Sizing
 "CSupFlo_Sys_L_Restrm_C" = 86.07105   $ Sizing
 "CSupFlo_Sys_L_StorSm_C" = 46.5496   $ Sizing
 "CSupFlo_Sys_L_StorSm_E" = 81.56043   $ Sizing
 "CSupFlo_Sys_L_StorSm_N" = 93.80325   $ Sizing
 "CSupFlo_Sys_L_StorSm_S" = 81.87132   $ Sizing
 "CSupFlo_Sys_L_StorSm_W" = 80.43073   $ Sizing
 "CSupFlo_Sys_T_Conf_C" = 208.4011   $ Sizing
 "CSupFlo_Sys_T_Hall_E" = 98.79261   $ Sizing
 "CSupFlo_Sys_T_Hall_N" = 69.43481   $ Sizing
 "CSupFlo_Sys_T_Hall_S" = 110.0445   $ Sizing
 "CSupFlo_Sys_T_Hall_W" = 97.22218   $ Sizing
 "CSupFlo_Sys_T_OfficeOpn_C" = 57.13857   $ Sizing
 "CSupFlo_Sys_T_OfficeOpn_E" = 447.0973   $ Sizing
 "CSupFlo_Sys_T_OfficeOpn_N" = 225.395   $ Sizing
 "CSupFlo_Sys_T_OfficeOpn_S" = 465.3438   $ Sizing
 "CSupFlo_Sys_T_OfficeOpn_W" = 413.5357   $ Sizing
 "CSupFlo_Sys_T_OfficeSm_E" = 376.3921   $ Sizing
 "CSupFlo_Sys_T_OfficeSm_N" = 176.433   $ Sizing
 "CSupFlo_Sys_T_OfficeSm_S" = 411.0432   $ Sizing
 "CSupFlo_Sys_T_OfficeSm_W" = 361.4827   $ Sizing
 "CSupFlo_Sys_T_Restrm_C" = 86.07105   $ Sizing
 "CSupFlo_Sys_T_StorSm_E" = 96.21731   $ Sizing
 "CSupFlo_Sys_T_StorSm_N" = 91.88914   $ Sizing
 "CSupFlo_Sys_T_StorSm_S" = 102.8507   $ Sizing
 "CSupFlo_Sys_T_StorSm_W" = 95.27089   $ Sizing
 "Cap_Boiler1" = -0.1309945   $ Sizing
 "ClCap_Sys_L_Break_C" = 9497.746   $ Sizing
 "ClCap_Sys_L_CompDC_C" = 5445.394   $ Sizing
 "ClCap_Sys_L_Conf_C" = 8788.43   $ Sizing
 "ClCap_Sys_L_CopyRm_C" = 1981.498   $ Sizing
 "ClCap_Sys_L_Hall_E" = 2726.653   $ Sizing
 "ClCap_Sys_L_Hall_N" = 2567.945   $ Sizing
 "ClCap_Sys_L_Hall_S" = 3178.526   $ Sizing
 "ClCap_Sys_L_Hall_W" = 2895.493   $ Sizing
 "ClCap_Sys_L_LobWait_E" = 6945.544   $ Sizing
 "ClCap_Sys_L_LobWait_N" = 5532.471   $ Sizing
 "ClCap_Sys_L_LobWait_S" = 7518.398   $ Sizing
 "ClCap_Sys_L_LobWait_W" = 6821.474   $ Sizing
 "ClCap_Sys_L_MechElec_C" = 3157.719   $ Sizing
 "ClCap_Sys_L_OfficeOpn_C" = 1984.548   $ Sizing
 "ClCap_Sys_L_OfficeOpn_E" = 14909.51   $ Sizing
 "ClCap_Sys_L_OfficeOpn_N" = 6718.018   $ Sizing
 "ClCap_Sys_L_OfficeOpn_S" = 14828.55   $ Sizing
 "ClCap_Sys_L_OfficeOpn_W" = 13842.39   $ Sizing
 "ClCap_Sys_L_OfficeSm_E" = 12258.11   $ Sizing
 "ClCap_Sys_L_OfficeSm_N" = 5599.72   $ Sizing
 "ClCap_Sys_L_OfficeSm_S" = 12995.46   $ Sizing
 "ClCap_Sys_L_OfficeSm_W" = 12056.14   $ Sizing
 "ClCap_Sys_L_Restrm_C" = 2928.947   $ Sizing
 "ClCap_Sys_L_StorSm_C" = 1584.055   $ Sizing
 "ClCap_Sys_L_StorSm_E" = 2775.453   $ Sizing
 "ClCap_Sys_L_StorSm_N" = 3192.069   $ Sizing
 "ClCap_Sys_L_StorSm_S" = 2786.032   $ Sizing
 "ClCap_Sys_L_StorSm_W" = 2737.01   $ Sizing
 "ClCap_Sys_T_Conf_C" = 9025.881   $ Sizing
 "ClCap_Sys_T_Hall_E" = 3361.854   $ Sizing
 "ClCap_Sys_T_Hall_N" = 2362.825   $ Sizing
 "ClCap_Sys_T_Hall_S" = 3744.749   $ Sizing
 "ClCap_Sys_T_Hall_W" = 3308.413   $ Sizing
 "ClCap_Sys_T_OfficeOpn_C" = 1944.391   $ Sizing
 "ClCap_Sys_T_OfficeOpn_E" = 15214.45   $ Sizing
 "ClCap_Sys_T_OfficeOpn_N" = 7670.056   $ Sizing
 "ClCap_Sys_T_OfficeOpn_S" = 15835.37   $ Sizing
 "ClCap_Sys_T_OfficeOpn_W" = 14072.37   $ Sizing
 "ClCap_Sys_T_OfficeSm_E" = 12808.4   $ Sizing
 "ClCap_Sys_T_OfficeSm_N" = 6003.91   $ Sizing
 "ClCap_Sys_T_OfficeSm_S" = 13987.55   $ Sizing
 "ClCap_Sys_T_OfficeSm_W" = 12301.04   $ Sizing
 "ClCap_Sys_T_Restrm_C" = 2928.947   $ Sizing
 "ClCap_Sys_T_StorSm_E" = 3274.218   $ Sizing
 "ClCap_Sys_T_StorSm_N" = 3126.932   $ Sizing
 "ClCap_Sys_T_StorSm_S" = 3499.948   $ Sizing
 "ClCap_Sys_T_StorSm_W" = 3242.011   $ Sizing
 "HtCap_Sys_L_Break_C" = -8358.017   $ Sizing
 "HtCap_Sys_L_CompDC_C" = -4791.947   $ Sizing
 "HtCap_Sys_L_Conf_C" = -7733.818   $ Sizing
 "HtCap_Sys_L_CopyRm_C" = -1743.718   $ Sizing
 "HtCap_Sys_L_Hall_E" = -2399.454   $ Sizing
 "HtCap_Sys_L_Hall_N" = -2259.792   $ Sizing
 "HtCap_Sys_L_Hall_S" = -2797.103   $ Sizing
 "HtCap_Sys_L_Hall_W" = -2548.034   $ Sizing
 "HtCap_Sys_L_LobWait_E" = -6112.079   $ Sizing
 "HtCap_Sys_L_LobWait_N" = -4868.574   $ Sizing
 "HtCap_Sys_L_LobWait_S" = -6616.19   $ Sizing
 "HtCap_Sys_L_LobWait_W" = -6002.897   $ Sizing
 "HtCap_Sys_L_MechElec_C" = -2778.792   $ Sizing
 "HtCap_Sys_L_OfficeOpn_C" = -1746.402   $ Sizing
 "HtCap_Sys_L_OfficeOpn_E" = -13120.37   $ Sizing
 "HtCap_Sys_L_OfficeOpn_N" = -5911.855   $ Sizing
 "HtCap_Sys_L_OfficeOpn_S" = -13049.13   $ Sizing
 "HtCap_Sys_L_OfficeOpn_W" = -12181.3   $ Sizing
 "HtCap_Sys_L_OfficeSm_E" = -10787.13   $ Sizing
 "HtCap_Sys_L_OfficeSm_N" = -4927.754   $ Sizing
 "HtCap_Sys_L_OfficeSm_S" = -11436.01   $ Sizing
 "HtCap_Sys_L_OfficeSm_W" = -10609.4   $ Sizing
 "HtCap_Sys_L_Restrm_C" = -2577.473   $ Sizing
 "HtCap_Sys_L_StorSm_C" = -1393.968   $ Sizing
 "HtCap_Sys_L_StorSm_E" = -2442.398   $ Sizing
 "HtCap_Sys_L_StorSm_N" = -2809.02   $ Sizing
 "HtCap_Sys_L_StorSm_S" = -2451.708   $ Sizing
 "HtCap_Sys_L_StorSm_W" = -2408.569   $ Sizing
 "HtCap_Sys_T_Conf_C" = -7942.775   $ Sizing
 "HtCap_Sys_T_Hall_E" = -2958.431   $ Sizing
 "HtCap_Sys_T_Hall_N" = -2079.286   $ Sizing
 "HtCap_Sys_T_Hall_S" = -3295.379   $ Sizing
 "HtCap_Sys_T_Hall_W" = -2911.403   $ Sizing
 "HtCap_Sys_T_OfficeOpn_C" = -1711.064   $ Sizing
 "HtCap_Sys_T_OfficeOpn_E" = -13388.72   $ Sizing
 "HtCap_Sys_T_OfficeOpn_N" = -6749.649   $ Sizing
 "HtCap_Sys_T_OfficeOpn_S" = -13935.13   $ Sizing
 "HtCap_Sys_T_OfficeOpn_W" = -12383.69   $ Sizing
 "HtCap_Sys_T_OfficeSm_E" = -11271.39   $ Sizing
 "HtCap_Sys_T_OfficeSm_N" = -5283.44   $ Sizing
 "HtCap_Sys_T_OfficeSm_S" = -12309.05   $ Sizing
 "HtCap_Sys_T_OfficeSm_W" = -10824.91   $ Sizing
 "HtCap_Sys_T_Restrm_C" = -2577.473   $ Sizing
 "HtCap_Sys_T_StorSm_E" = -2881.312   $ Sizing
 "HtCap_Sys_T_StorSm_N" = -2751.7   $ Sizing
 "HtCap_Sys_T_StorSm_S" = -3079.955   $ Sizing
 "HtCap_Sys_T_StorSm_W" = -2852.97   $ Sizing
 "LpFlo_WLHPCircLoop" = 77.87215   $ Sizing
 "SUtime_Boiler1" = 0.083   $ Sizing
..

##include Templates\OfS_WLHP.inp
END ..
COMPUTE ..
STOP ..
