INPUT ..

##fileprefix C:\Users\jglasskatz\MASControl3\
##set1 IsSizing FALSE
##set1 CoolType DX
##set1 HeatType FURNACE
##set1 EU_HrRepVar 0
##set1 BldgVint 2020
##set1 BldgLoc CZ12

 ##set1 mBFMult 1   $ IP Tech: RefgChg-NRes-Std

PARAMETER
 "AltFactor" = 1.00062   $ IP Non-Tech
 "BF_fFlow" = SpltAC2SpHiSEER_BF_fFlow   $ Msr (Multi)TechID: MsrNResSplitAC-lt45-S17
 "BF_fT" = SpltAC2SpHiSEER_BF_fT   $ Msr (Multi)TechID: MsrNResSplitAC-lt45-S17
 "BldgEconoFlag" = 1   $ IP Non-Tech
 "Break_EWSF" = 1   $ IP Non-Tech
 "Break_LWSF" = 0.65   $ IP Non-Tech
 "CDD_DBHi10" = 83   $ IP Non-Tech
 "CDD_DBHi7" = 101   $ IP Non-Tech
 "CDD_DBHi8" = 99   $ IP Non-Tech
 "CDD_DBHi9" = 98   $ IP Non-Tech
 "CDD_DBRange10" = 23   $ IP Non-Tech
 "CDD_DBRange7" = 30   $ IP Non-Tech
 "CDD_DBRange8" = 34   $ IP Non-Tech
 "CDD_DBRange9" = 34   $ IP Non-Tech
 "CDD_Day10" = 15   $ IP Non-Tech
 "CDD_Day7" = 16   $ IP Non-Tech
 "CDD_Day8" = 20   $ IP Non-Tech
 "CDD_Day9" = 17   $ IP Non-Tech
 "CDD_HrHi10" = 14   $ IP Non-Tech
 "CDD_HrHi7" = 16   $ IP Non-Tech
 "CDD_HrHi8" = 16   $ IP Non-Tech
 "CDD_HrHi9" = 16   $ IP Non-Tech
 "CDD_HrLo10" = 3   $ IP Non-Tech
 "CDD_HrLo7" = 4   $ IP Non-Tech
 "CDD_HrLo8" = 8   $ IP Non-Tech
 "CDD_HrLo9" = 7   $ IP Non-Tech
 "CDD_WB10" = 61.40390396   $ IP Non-Tech
 "CDD_WB7" = 71.25247955   $ IP Non-Tech
 "CDD_WB8" = 68.94035339   $ IP Non-Tech
 "CDD_WB9" = 66.54764557   $ IP Non-Tech
 "CEIR_fPLR_Hot" = SpltAC2SpHiSEER_CEIR_fPLR_Hot   $ Msr (Multi)TechID: MsrNResSplitAC-lt45-S17
 "CEIR_fPLR_Mod" = SpltAC2SpHiSEER_CEIR_fPLR_Mod   $ Msr (Multi)TechID: MsrNResSplitAC-lt45-S17
 "CEIR_fPLR_Tem" = SpltAC2SpHiSEER_CEIR_fPLR_Tem   $ Msr (Multi)TechID: MsrNResSplitAC-lt45-S17
 "CLoss_fPLR_Hot" = SpltAC2SpHiSEER_CLoss_fPLR_Hot   $ Msr (Multi)TechID: MsrNResSplitAC-lt45-S17
 "CLoss_fPLR_Mod" = SpltAC2SpHiSEER_CLoss_fPLR_Mod   $ Msr (Multi)TechID: MsrNResSplitAC-lt45-S17
 "CLoss_fPLR_Tem" = SpltAC2SpHiSEER_CLoss_fPLR_Tem   $ Msr (Multi)TechID: MsrNResSplitAC-lt45-S17
 "COP47" = 0   $ Msr (Multi)TechID: MsrNResSplitAC-lt45-S17
 "CZ_Category" = Mod   $ IP Non-Tech
 "CapRange" = Any   $ Msr (Multi)TechID: MsrNResSplitAC-lt45-S17
 "CfmPerBtuh" = 0.03   $ Msr (Multi)TechID: MsrNResSplitAC-lt45-S17
 "ChwVintEconoFlag" = 1   $ IP Non-Tech
 "ClCap_fT" = SpltAC2SpHiSEER_ClCap_fT   $ Msr (Multi)TechID: MsrNResSplitAC-lt45-S17
 "ClSH_fT" = SpltAC2SpHiSEER_ClSH_fT   $ Msr (Multi)TechID: MsrNResSplitAC-lt45-S17
 "CoilBF" = 0.102   $ Msr (Multi)TechID: MsrNResSplitAC-lt45-S17
 "CompRoomData_EWSF" = 5   $ IP Non-Tech
 "CompRoomData_LWSF" = 0.8   $ IP Non-Tech
 "CondWPerBtuh" = 0   $ Msr (Multi)TechID: MsrNResSplitAC-lt45-S17
 "Conference_EWSF" = 1   $ IP Non-Tech
 "Conference_LWSF" = 0.85   $ IP Non-Tech
 "CoolSensCap" = 0.724   $ Msr (Multi)TechID: MsrNResSplitAC-lt45-S17
 "CoolSetT" = 45   $ IP Non-Tech
 "CoolType" = DX   $ IP Non-Tech
 "CoolingEIR" = 0.2225   $ Msr (Multi)TechID: MsrNResSplitAC-lt45-S17
 "CopyRoom_EWSF" = 1.5   $ IP Non-Tech
 "CopyRoom_LWSF" = 0.5   $ IP Non-Tech
 "CrnkEIR" = 0.002225   $ Msr (Multi)TechID: MsrNResSplitAC-lt45-S17
 "CrnkMaxT" = 50   $ Msr (Multi)TechID: MsrNResSplitAC-lt45-S17
 "DXType" = SplitSEER   $ Msr (Multi)TechID: MsrNResSplitAC-lt45-S17
 "DesCoolT" = 75   $ IP Non-Tech
 "DesHeatT" = 73   $ IP Non-Tech
 "EER" = 13.26   $ Msr (Multi)TechID: MsrNResSplitAC-lt45-S17
 "EIR_fT" = SpltAC2SpHiSEER_EIR_fT   $ Msr (Multi)TechID: MsrNResSplitAC-lt45-S17
 "EconoCtrl" = FIXED   $ Msr (Multi)TechID: MsrNResSplitAC-lt45-S17
 "EconoEnthLimit" = 28   $ IP Non-Tech
 "EconoTempLimit" = 75   $ IP Non-Tech
 "Elevation" = 16   $ IP Non-Tech
 "FanEirPlr" = TwoSpeedFan   $ Msr (Multi)TechID: MsrNResSplitAC-lt45-S17
 "FanWPerCfm" = 0.271   $ Msr (Multi)TechID: MsrNResSplitAC-lt45-S17
 "HDD_CloudAmt1" = 0   $ IP Non-Tech
 "HDD_DBHi1" = 50   $ IP Non-Tech
 "HDD_DBRange1" = 21   $ IP Non-Tech
 "HDD_Day1" = 15   $ IP Non-Tech
 "HDD_HrHi1" = 16   $ IP Non-Tech
 "HDD_HrLo1" = 8   $ IP Non-Tech
 "HDD_WB1" = 43.9   $ IP Non-Tech
 "HDD_WindSpd1" = 13.8   $ IP Non-Tech
 "HIR_fT" = 0   $ Msr (Multi)TechID: MsrNResSplitAC-lt45-S17
 "HSPF" = 0   $ Msr (Multi)TechID: MsrNResSplitAC-lt45-S17
 "Hall_EWSF" = 0.2   $ IP Non-Tech
 "Hall_LWSF" = 0.55   $ IP Non-Tech
 "HeatSrc" = FURNACE   $ IP Non-Tech
 "HeatSrcTU" = HEAT-PUMP   $ IP Non-Tech
 "HeatType" = GasFurn   $ IP Non-Tech
 "HeatTypeTU" = HEAT-PUMP   $ IP Non-Tech
 "HtCap_fT" = 0   $ Msr (Multi)TechID: MsrNResSplitAC-lt45-S17
 "HtCoolCapRatio" = 0   $ Msr (Multi)TechID: MsrNResSplitAC-lt45-S17
 "HtgEIR" = 0   $ Msr (Multi)TechID: MsrNResSplitAC-lt45-S17
 "IndoorFanMode" = CONTINUOUS   $ IP Non-Tech
 "KT_TransferAir" = Yes   $ IP Non-Tech
 "Latitude" = 38.5   $ IP Non-Tech
 "LobbyWaiting_EWSF" = 0.5   $ IP Non-Tech
 "LobbyWaiting_LWSF" = 0.75   $ IP Non-Tech
 "Longitude" = 121.5   $ IP Non-Tech
 "LowSpdCapRatio" = 0.686   $ Msr (Multi)TechID: MsrNResSplitAC-lt45-S17
 "LowSpdCfmRatio" = 0.739   $ Msr (Multi)TechID: MsrNResSplitAC-lt45-S17
 "MZFanMechEff" = 0.58   $ IP Non-Tech
 "MZHasRetFan" = FALSE   $ IP Non-Tech
 "MZ_RFanWPerCfm" = 0.33   $ IP Non-Tech
 "MZ_SFanWPerCfm" = 0.75   $ IP Non-Tech
 "MZ_SupFanStatic" = 2.25   $ IP Non-Tech
 "MaxOAFrac" = 1   $ Msr (Multi)TechID: MsrNResSplitAC-lt45-S17
 "MaxSupT_MZ" = 100   $ IP Non-Tech
 "MaxSupT_SZ" = 100   $ IP Non-Tech
 "MaxSupT_TU" = 90   $ IP Non-Tech
 "MechElecRoom_EWSF" = 0.2   $ IP Non-Tech
 "MechElecRoom_LWSF" = 0.4   $ IP Non-Tech
 "MinCfmPerSF" = 0.4   $ IP Non-Tech
 "MinSupT" = 55   $ IP Non-Tech
 "NumStages" = 2   $ Msr (Multi)TechID: MsrNResSplitAC-lt45-S17
 "OccCoolT" = 76   $ IP Non-Tech
 "OccHeatT" = 72   $ IP Non-Tech
 "OfficeOpen_EWSF" = 1.5   $ IP Non-Tech
 "OfficeOpen_LWSF" = 0.8   $ IP Non-Tech
 "OfficeSmall_EWSF" = 1.5   $ IP Non-Tech
 "OfficeSmall_LWSF" = 0.9   $ IP Non-Tech
 "PkgDxVintEconoFlag" = 1   $ IP Non-Tech
 "Restroom_EWSF" = 0.2   $ IP Non-Tech
 "Restroom_LWSF" = 0.65   $ IP Non-Tech
 "SEER" = 17   $ Msr (Multi)TechID: MsrNResSplitAC-lt45-S17
 "SZFanMechEff" = 0.58   $ IP Non-Tech
 "SZHasRetFan" = FALSE   $ IP Non-Tech
 "SZ_Is_2Spd" = TRUE   $ IP Non-Tech
 "SZ_SFanWPerCfm" = 0.46   $ IP Non-Tech
 "SZ_SupFanStatic" = 0.75   $ IP Non-Tech
 "Sector" = Any   $ Msr (Multi)TechID: MsrNResSplitAC-lt45-S17
 "StorageSmlCond_EWSF" = 0.2   $ IP Non-Tech
 "StorageSmlCond_LWSF" = 0.45   $ IP Non-Tech
 "SubType" = AC   $ Msr (Multi)TechID: MsrNResSplitAC-lt45-S17
 "TermUnitFanMechEff" = 1   $ IP Non-Tech
 "TermUnitFanMode" = INTERMITTENT   $ IP Non-Tech
 "TotCoolCap" = 58805   $ Msr (Multi)TechID: MsrNResSplitAC-lt45-S17
 "TwrSetpt" = 82.3   $ IP Non-Tech
 "UnocCoolT" = 86   $ IP Non-Tech
 "UnocHeatT" = 62   $ IP Non-Tech
 "UseEconoVintApplic" = FALSE   $ Msr (Multi)TechID: MsrNResSplitAC-lt45-S17
 "WlhpVintEconoFlag" = 1   $ IP Non-Tech
 "DuctDT" = 1   $ IP Tech: ComDuctInsul-1
 "DuctAirLoss" = 0   $ IP Tech: ComDuctLeak-0
 "DuctLossOAFrac" = 0   $ IP Tech: ComDuctLeak-0
 "ComRoofInsCalc" = FromUo   $ IP Tech: ComRoofIns-WFrm-0.03
 "ComRoofInsR" = -999   $ IP Tech: ComRoofIns-WFrm-0.03
 "ComRoofUo" = 0.03   $ IP Tech: ComRoofIns-WFrm-0.03
 "ComEWInsCalc" = FromUo   $ IP Tech: ComWallIns-WFrm-0.06
 "ComEWInsR" = -999   $ IP Tech: ComWallIns-WFrm-0.06
 "ComEWUo" = 0.06   $ IP Tech: ComWallIns-WFrm-0.06
 "ComN_SHGC" = 0.25   $ IP Tech: NResWin-ComN-0.36-0.25
 "ComN_UFactor" = 0.36   $ IP Tech: NResWin-ComN-0.36-0.25
 "ComN_VisTrans" = 0.41   $ IP Tech: NResWin-ComN-0.36-0.25
 "ComN_WinCode" = G2668   $ IP Tech: NResWin-ComN-0.36-0.25
 "ComN_WinFrmFrac" = 0.17   $ IP Tech: NResWin-ComN-0.36-0.25
 "ComN_WinFrmU" = 0.3   $ IP Tech: NResWin-ComN-0.36-0.25
 "ComO_SHGC" = 0.25   $ IP Tech: NResWin-ComO-0.36-0.25
 "ComO_UFactor" = 0.36   $ IP Tech: NResWin-ComO-0.36-0.25
 "ComO_VisTrans" = 0.41   $ IP Tech: NResWin-ComO-0.36-0.25
 "ComO_WinCode" = G2668   $ IP Tech: NResWin-ComO-0.36-0.25
 "ComO_WinFrmFrac" = 0.17   $ IP Tech: NResWin-ComO-0.36-0.25
 "ComO_WinFrmU" = 0.3   $ IP Tech: NResWin-ComO-0.36-0.25
 "LtgMsrApplic" = ALL   $ IP Tech: NonResLtgRefPre
 "LtgSav_CFL" = 0   $ IP Tech: NonResLtgRefPre
 "LtgSav_EX" = 0   $ IP Tech: NonResLtgRefPre
 "LtgSav_HB" = 0   $ IP Tech: NonResLtgRefPre
 "LtgSav_LF" = 0   $ IP Tech: NonResLtgRefPre
 "LtgSav_SP" = 0   $ IP Tech: NonResLtgRefPre
 "CEIR_fPLR" = PSZ65to135_CEIR_fPLR   $ IP Tech: PkgAC2SpP-65to135-E11
 "CLoss_fPLR" = PSZ65to135_CLoss_fPLR   $ IP Tech: PkgAC2SpP-65to135-E11
 "COP" = -1   $ IP Tech: PkgAC2SpP-65to135-E11
 "HtgFuel" = Gas   $ IP Tech: PkgAC2SpP-65to135-E11
 "IEER" = 13.35   $ IP Tech: PkgAC2SpP-65to135-E11
 "NominalCap" = 15   $ IP Tech: PkgAC2SpP-65to135-E11
 "RatedEER" = 11   $ IP Tech: PkgAC2SpP-65to135-E11
 "RatedSupMtrClass" = Premium   $ IP Tech: PkgAC2SpP-65to135-E11
 "SizeRange" = 65to135   $ IP Tech: PkgAC2SpP-65to135-E11
 "SupMotEff" = 0.865   $ IP Tech: PkgAC2SpP-65to135-E11
 "Tier" = 0   $ IP Tech: PkgAC2SpP-65to135-E11
 "FanPwrMult" = 1   $ IP Tech: PkgFurn-0.80AFUE
 "FurnAFUE" = 0.8   $ IP Tech: PkgFurn-0.80AFUE
 "FurnEt" = 0.82   $ IP Tech: PkgFurn-0.80AFUE
 "FurnaceAuxKW" = 0.1   $ IP Tech: PkgFurn-0.80AFUE
 "HIR_fPLR" = Furnace-HIR-fPLR   $ IP Tech: PkgFurn-0.80AFUE
 "VSM" = FALSE   $ IP Tech: PkgFurn-0.80AFUE
 "BFMult" = 1   $ IP Tech: RefgChg-NRes-Std
 "CoolEirMult" = 1   $ IP Tech: RefgChg-NRes-Std
 "SensCoolCapMult" = 1   $ IP Tech: RefgChg-NRes-Std
 "TotCoolCapMult" = 1   $ IP Tech: RefgChg-NRes-Std
 "AltAdjFactor" = 1.000622   $ Sizing
 "CAssFlo_L_Break_CZn" = 441.9605   $ Sizing
 "CAssFlo_L_CompDC_CZn" = 146.097   $ Sizing
 "CAssFlo_L_Conf_CZn" = 255.5886   $ Sizing
 "CAssFlo_L_CopyRm_CZn" = 86.69279   $ Sizing
 "CAssFlo_L_Hall_EZn" = 96.88846   $ Sizing
 "CAssFlo_L_Hall_NZn" = 56.9747   $ Sizing
 "CAssFlo_L_Hall_SZn" = 97.00354   $ Sizing
 "CAssFlo_L_Hall_WZn" = 106.5794   $ Sizing
 "CAssFlo_L_LobWait_EZn" = 225.7366   $ Sizing
 "CAssFlo_L_LobWait_NZn" = 151.4124   $ Sizing
 "CAssFlo_L_LobWait_SZn" = 230.2391   $ Sizing
 "CAssFlo_L_LobWait_WZn" = 264.7392   $ Sizing
 "CAssFlo_L_MechElec_CZn" = 67.21647   $ Sizing
 "CAssFlo_L_OfficeOpn_CZn" = 63.79117   $ Sizing
 "CAssFlo_L_OfficeOpn_EZn" = 425.596   $ Sizing
 "CAssFlo_L_OfficeOpn_NZn" = 328.9048   $ Sizing
 "CAssFlo_L_OfficeOpn_SZn" = 422.3951   $ Sizing
 "CAssFlo_L_OfficeOpn_WZn" = 477.1784   $ Sizing
 "CAssFlo_L_OfficeSm_EZn" = 354.2495   $ Sizing
 "CAssFlo_L_OfficeSm_NZn" = 253.63   $ Sizing
 "CAssFlo_L_OfficeSm_SZn" = 358.2944   $ Sizing
 "CAssFlo_L_OfficeSm_WZn" = 401.4271   $ Sizing
 "CAssFlo_L_Restrm_CZn" = 84.03848   $ Sizing
 "CAssFlo_L_StorSm_CZn" = 38.29998   $ Sizing
 "CAssFlo_L_StorSm_EZn" = 95.41734   $ Sizing
 "CAssFlo_L_StorSm_NZn" = 55.01669   $ Sizing
 "CAssFlo_L_StorSm_SZn" = 94.80714   $ Sizing
 "CAssFlo_L_StorSm_WZn" = 104.8794   $ Sizing
 "CAssFlo_T_Conf_CZn" = 246.0319   $ Sizing
 "CAssFlo_T_Hall_EZn" = 109.6852   $ Sizing
 "CAssFlo_T_Hall_NZn" = 63.68808   $ Sizing
 "CAssFlo_T_Hall_SZn" = 106.7574   $ Sizing
 "CAssFlo_T_Hall_WZn" = 116.126   $ Sizing
 "CAssFlo_T_OfficeOpn_CZn" = 61.68216   $ Sizing
 "CAssFlo_T_OfficeOpn_EZn" = 449.7358   $ Sizing
 "CAssFlo_T_OfficeOpn_NZn" = 334.4255   $ Sizing
 "CAssFlo_T_OfficeOpn_SZn" = 440.4915   $ Sizing
 "CAssFlo_T_OfficeOpn_WZn" = 485.3194   $ Sizing
 "CAssFlo_T_OfficeSm_EZn" = 378.9624   $ Sizing
 "CAssFlo_T_OfficeSm_NZn" = 262.086   $ Sizing
 "CAssFlo_T_OfficeSm_SZn" = 377.1163   $ Sizing
 "CAssFlo_T_OfficeSm_WZn" = 410.6274   $ Sizing
 "CAssFlo_T_Restrm_CZn" = 126.2529   $ Sizing
 "CAssFlo_T_StorSm_EZn" = 113.2799   $ Sizing
 "CAssFlo_T_StorSm_NZn" = 68.05846   $ Sizing
 "CAssFlo_T_StorSm_SZn" = 110.4649   $ Sizing
 "CAssFlo_T_StorSm_WZn" = 123.0981   $ Sizing
 "CHRtFlo_Sys_L_Break_C" = 441.9605   $ Sizing
 "CHRtFlo_Sys_L_CompDC_C" = 172.4555   $ Sizing
 "CHRtFlo_Sys_L_Conf_C" = 255.5886   $ Sizing
 "CHRtFlo_Sys_L_CopyRm_C" = 86.69279   $ Sizing
 "CHRtFlo_Sys_L_Hall_E" = 114.1654   $ Sizing
 "CHRtFlo_Sys_L_Hall_N" = 56.9747   $ Sizing
 "CHRtFlo_Sys_L_Hall_S" = 113.6711   $ Sizing
 "CHRtFlo_Sys_L_Hall_W" = 111.7185   $ Sizing
 "CHRtFlo_Sys_L_LobWait_E" = 259.7772   $ Sizing
 "CHRtFlo_Sys_L_LobWait_N" = 151.4124   $ Sizing
 "CHRtFlo_Sys_L_LobWait_S" = 255.5226   $ Sizing
 "CHRtFlo_Sys_L_LobWait_W" = 264.7392   $ Sizing
 "CHRtFlo_Sys_L_MechElec_C" = 90.39568   $ Sizing
 "CHRtFlo_Sys_L_OfficeOpn_C" = 79.80682   $ Sizing
 "CHRtFlo_Sys_L_OfficeOpn_E" = 496.9503   $ Sizing
 "CHRtFlo_Sys_L_OfficeOpn_N" = 328.9048   $ Sizing
 "CHRtFlo_Sys_L_OfficeOpn_S" = 471.7713   $ Sizing
 "CHRtFlo_Sys_L_OfficeOpn_W" = 477.1784   $ Sizing
 "CHRtFlo_Sys_L_OfficeSm_E" = 420.5854   $ Sizing
 "CHRtFlo_Sys_L_OfficeSm_N" = 253.63   $ Sizing
 "CHRtFlo_Sys_L_OfficeSm_S" = 408.0903   $ Sizing
 "CHRtFlo_Sys_L_OfficeSm_W" = 407.5104   $ Sizing
 "CHRtFlo_Sys_L_Restrm_C" = 97.96738   $ Sizing
 "CHRtFlo_Sys_L_StorSm_C" = 45.98828   $ Sizing
 "CHRtFlo_Sys_L_StorSm_E" = 112.273   $ Sizing
 "CHRtFlo_Sys_L_StorSm_N" = 57.73327   $ Sizing
 "CHRtFlo_Sys_L_StorSm_S" = 107.5596   $ Sizing
 "CHRtFlo_Sys_L_StorSm_W" = 104.8794   $ Sizing
 "CHRtFlo_Sys_T_Conf_C" = 246.0319   $ Sizing
 "CHRtFlo_Sys_T_Hall_E" = 120.5316   $ Sizing
 "CHRtFlo_Sys_T_Hall_N" = 63.68808   $ Sizing
 "CHRtFlo_Sys_T_Hall_S" = 121.0967   $ Sizing
 "CHRtFlo_Sys_T_Hall_W" = 116.126   $ Sizing
 "CHRtFlo_Sys_T_OfficeOpn_C" = 71.25468   $ Sizing
 "CHRtFlo_Sys_T_OfficeOpn_E" = 480.533   $ Sizing
 "CHRtFlo_Sys_T_OfficeOpn_N" = 334.4255   $ Sizing
 "CHRtFlo_Sys_T_OfficeOpn_S" = 478.9383   $ Sizing
 "CHRtFlo_Sys_T_OfficeOpn_W" = 485.3194   $ Sizing
 "CHRtFlo_Sys_T_OfficeSm_E" = 410.5815   $ Sizing
 "CHRtFlo_Sys_T_OfficeSm_N" = 262.086   $ Sizing
 "CHRtFlo_Sys_T_OfficeSm_S" = 420.4369   $ Sizing
 "CHRtFlo_Sys_T_OfficeSm_W" = 410.6274   $ Sizing
 "CHRtFlo_Sys_T_Restrm_C" = 142.0233   $ Sizing
 "CHRtFlo_Sys_T_StorSm_E" = 121.2346   $ Sizing
 "CHRtFlo_Sys_T_StorSm_N" = 68.05846   $ Sizing
 "CHRtFlo_Sys_T_StorSm_S" = 118.1083   $ Sizing
 "CHRtFlo_Sys_T_StorSm_W" = 123.0981   $ Sizing
 "CRtdFlo_Sys_L_Break_C" = 441.9605   $ Sizing
 "CRtdFlo_Sys_L_CompDC_C" = 146.097   $ Sizing
 "CRtdFlo_Sys_L_Conf_C" = 255.5886   $ Sizing
 "CRtdFlo_Sys_L_CopyRm_C" = 86.69279   $ Sizing
 "CRtdFlo_Sys_L_Hall_E" = 96.88846   $ Sizing
 "CRtdFlo_Sys_L_Hall_N" = 56.9747   $ Sizing
 "CRtdFlo_Sys_L_Hall_S" = 97.00355   $ Sizing
 "CRtdFlo_Sys_L_Hall_W" = 106.5794   $ Sizing
 "CRtdFlo_Sys_L_LobWait_E" = 225.7366   $ Sizing
 "CRtdFlo_Sys_L_LobWait_N" = 151.4124   $ Sizing
 "CRtdFlo_Sys_L_LobWait_S" = 230.2391   $ Sizing
 "CRtdFlo_Sys_L_LobWait_W" = 264.7392   $ Sizing
 "CRtdFlo_Sys_L_MechElec_C" = 67.21647   $ Sizing
 "CRtdFlo_Sys_L_OfficeOpn_C" = 63.79117   $ Sizing
 "CRtdFlo_Sys_L_OfficeOpn_E" = 425.596   $ Sizing
 "CRtdFlo_Sys_L_OfficeOpn_N" = 328.9048   $ Sizing
 "CRtdFlo_Sys_L_OfficeOpn_S" = 422.3951   $ Sizing
 "CRtdFlo_Sys_L_OfficeOpn_W" = 477.1784   $ Sizing
 "CRtdFlo_Sys_L_OfficeSm_E" = 354.2495   $ Sizing
 "CRtdFlo_Sys_L_OfficeSm_N" = 253.63   $ Sizing
 "CRtdFlo_Sys_L_OfficeSm_S" = 358.2944   $ Sizing
 "CRtdFlo_Sys_L_OfficeSm_W" = 401.4271   $ Sizing
 "CRtdFlo_Sys_L_Restrm_C" = 84.03848   $ Sizing
 "CRtdFlo_Sys_L_StorSm_C" = 38.29998   $ Sizing
 "CRtdFlo_Sys_L_StorSm_E" = 95.41734   $ Sizing
 "CRtdFlo_Sys_L_StorSm_N" = 55.01669   $ Sizing
 "CRtdFlo_Sys_L_StorSm_S" = 94.80714   $ Sizing
 "CRtdFlo_Sys_L_StorSm_W" = 104.8794   $ Sizing
 "CRtdFlo_Sys_T_Conf_C" = 246.0319   $ Sizing
 "CRtdFlo_Sys_T_Hall_E" = 109.6852   $ Sizing
 "CRtdFlo_Sys_T_Hall_N" = 63.68808   $ Sizing
 "CRtdFlo_Sys_T_Hall_S" = 106.7574   $ Sizing
 "CRtdFlo_Sys_T_Hall_W" = 116.126   $ Sizing
 "CRtdFlo_Sys_T_OfficeOpn_C" = 61.68216   $ Sizing
 "CRtdFlo_Sys_T_OfficeOpn_E" = 449.7358   $ Sizing
 "CRtdFlo_Sys_T_OfficeOpn_N" = 334.4255   $ Sizing
 "CRtdFlo_Sys_T_OfficeOpn_S" = 440.4915   $ Sizing
 "CRtdFlo_Sys_T_OfficeOpn_W" = 485.3194   $ Sizing
 "CRtdFlo_Sys_T_OfficeSm_E" = 378.9624   $ Sizing
 "CRtdFlo_Sys_T_OfficeSm_N" = 262.086   $ Sizing
 "CRtdFlo_Sys_T_OfficeSm_S" = 377.1163   $ Sizing
 "CRtdFlo_Sys_T_OfficeSm_W" = 410.6274   $ Sizing
 "CRtdFlo_Sys_T_Restrm_C" = 126.2529   $ Sizing
 "CRtdFlo_Sys_T_StorSm_E" = 113.2799   $ Sizing
 "CRtdFlo_Sys_T_StorSm_N" = 68.05846   $ Sizing
 "CRtdFlo_Sys_T_StorSm_S" = 110.4649   $ Sizing
 "CRtdFlo_Sys_T_StorSm_W" = 123.0981   $ Sizing
 "CSupFlo_Sys_L_Break_C" = 441.9605   $ Sizing
 "CSupFlo_Sys_L_CompDC_C" = 146.097   $ Sizing
 "CSupFlo_Sys_L_Conf_C" = 255.5886   $ Sizing
 "CSupFlo_Sys_L_CopyRm_C" = 86.69279   $ Sizing
 "CSupFlo_Sys_L_Hall_E" = 96.88846   $ Sizing
 "CSupFlo_Sys_L_Hall_N" = 56.9747   $ Sizing
 "CSupFlo_Sys_L_Hall_S" = 97.00355   $ Sizing
 "CSupFlo_Sys_L_Hall_W" = 106.5794   $ Sizing
 "CSupFlo_Sys_L_LobWait_E" = 225.7366   $ Sizing
 "CSupFlo_Sys_L_LobWait_N" = 151.4124   $ Sizing
 "CSupFlo_Sys_L_LobWait_S" = 230.2391   $ Sizing
 "CSupFlo_Sys_L_LobWait_W" = 264.7392   $ Sizing
 "CSupFlo_Sys_L_MechElec_C" = 67.21647   $ Sizing
 "CSupFlo_Sys_L_OfficeOpn_C" = 63.79117   $ Sizing
 "CSupFlo_Sys_L_OfficeOpn_E" = 425.596   $ Sizing
 "CSupFlo_Sys_L_OfficeOpn_N" = 328.9048   $ Sizing
 "CSupFlo_Sys_L_OfficeOpn_S" = 422.3951   $ Sizing
 "CSupFlo_Sys_L_OfficeOpn_W" = 477.1784   $ Sizing
 "CSupFlo_Sys_L_OfficeSm_E" = 354.2495   $ Sizing
 "CSupFlo_Sys_L_OfficeSm_N" = 253.63   $ Sizing
 "CSupFlo_Sys_L_OfficeSm_S" = 358.2944   $ Sizing
 "CSupFlo_Sys_L_OfficeSm_W" = 401.4271   $ Sizing
 "CSupFlo_Sys_L_Restrm_C" = 84.03848   $ Sizing
 "CSupFlo_Sys_L_StorSm_C" = 38.29998   $ Sizing
 "CSupFlo_Sys_L_StorSm_E" = 95.41734   $ Sizing
 "CSupFlo_Sys_L_StorSm_N" = 55.01669   $ Sizing
 "CSupFlo_Sys_L_StorSm_S" = 94.80714   $ Sizing
 "CSupFlo_Sys_L_StorSm_W" = 104.8794   $ Sizing
 "CSupFlo_Sys_T_Conf_C" = 246.0319   $ Sizing
 "CSupFlo_Sys_T_Hall_E" = 109.6852   $ Sizing
 "CSupFlo_Sys_T_Hall_N" = 63.68808   $ Sizing
 "CSupFlo_Sys_T_Hall_S" = 106.7574   $ Sizing
 "CSupFlo_Sys_T_Hall_W" = 116.126   $ Sizing
 "CSupFlo_Sys_T_OfficeOpn_C" = 61.68216   $ Sizing
 "CSupFlo_Sys_T_OfficeOpn_E" = 449.7358   $ Sizing
 "CSupFlo_Sys_T_OfficeOpn_N" = 334.4255   $ Sizing
 "CSupFlo_Sys_T_OfficeOpn_S" = 440.4915   $ Sizing
 "CSupFlo_Sys_T_OfficeOpn_W" = 485.3194   $ Sizing
 "CSupFlo_Sys_T_OfficeSm_E" = 378.9624   $ Sizing
 "CSupFlo_Sys_T_OfficeSm_N" = 262.086   $ Sizing
 "CSupFlo_Sys_T_OfficeSm_S" = 377.1163   $ Sizing
 "CSupFlo_Sys_T_OfficeSm_W" = 410.6274   $ Sizing
 "CSupFlo_Sys_T_Restrm_C" = 126.2529   $ Sizing
 "CSupFlo_Sys_T_StorSm_E" = 113.2799   $ Sizing
 "CSupFlo_Sys_T_StorSm_N" = 68.05846   $ Sizing
 "CSupFlo_Sys_T_StorSm_S" = 110.4649   $ Sizing
 "CSupFlo_Sys_T_StorSm_W" = 123.0981   $ Sizing
 "ClCap_Sys_L_Break_C" = 15143.51   $ Sizing
 "ClCap_Sys_L_CompDC_C" = 5005.924   $ Sizing
 "ClCap_Sys_L_Conf_C" = 11146.02   $ Sizing
 "ClCap_Sys_L_CopyRm_C" = 2970.476   $ Sizing
 "ClCap_Sys_L_Hall_E" = 3319.824   $ Sizing
 "ClCap_Sys_L_Hall_N" = 1952.203   $ Sizing
 "ClCap_Sys_L_Hall_S" = 3323.767   $ Sizing
 "ClCap_Sys_L_Hall_W" = 3651.877   $ Sizing
 "ClCap_Sys_L_LobWait_E" = 7734.726   $ Sizing
 "ClCap_Sys_L_LobWait_N" = 5188.054   $ Sizing
 "ClCap_Sys_L_LobWait_S" = 7889.001   $ Sizing
 "ClCap_Sys_L_LobWait_W" = 9071.126   $ Sizing
 "ClCap_Sys_L_MechElec_C" = 2303.131   $ Sizing
 "ClCap_Sys_L_OfficeOpn_C" = 2185.765   $ Sizing
 "ClCap_Sys_L_OfficeOpn_E" = 14582.79   $ Sizing
 "ClCap_Sys_L_OfficeOpn_N" = 11269.72   $ Sizing
 "ClCap_Sys_L_OfficeOpn_S" = 14473.11   $ Sizing
 "ClCap_Sys_L_OfficeOpn_W" = 16350.23   $ Sizing
 "ClCap_Sys_L_OfficeSm_E" = 12138.14   $ Sizing
 "ClCap_Sys_L_OfficeSm_N" = 8690.478   $ Sizing
 "ClCap_Sys_L_OfficeSm_S" = 12276.74   $ Sizing
 "ClCap_Sys_L_OfficeSm_W" = 13754.65   $ Sizing
 "ClCap_Sys_L_Restrm_C" = 2879.527   $ Sizing
 "ClCap_Sys_L_StorSm_C" = 1312.325   $ Sizing
 "ClCap_Sys_L_StorSm_E" = 3269.417   $ Sizing
 "ClCap_Sys_L_StorSm_N" = 1885.113   $ Sizing
 "ClCap_Sys_L_StorSm_S" = 3248.509   $ Sizing
 "ClCap_Sys_L_StorSm_W" = 3593.628   $ Sizing
 "ClCap_Sys_T_Conf_C" = 10729.26   $ Sizing
 "ClCap_Sys_T_Hall_E" = 3758.297   $ Sizing
 "ClCap_Sys_T_Hall_N" = 2182.233   $ Sizing
 "ClCap_Sys_T_Hall_S" = 3657.978   $ Sizing
 "ClCap_Sys_T_Hall_W" = 3978.985   $ Sizing
 "ClCap_Sys_T_OfficeOpn_C" = 2113.501   $ Sizing
 "ClCap_Sys_T_OfficeOpn_E" = 15409.92   $ Sizing
 "ClCap_Sys_T_OfficeOpn_N" = 11458.89   $ Sizing
 "ClCap_Sys_T_OfficeOpn_S" = 15093.17   $ Sizing
 "ClCap_Sys_T_OfficeOpn_W" = 16629.17   $ Sizing
 "ClCap_Sys_T_OfficeSm_E" = 12984.91   $ Sizing
 "ClCap_Sys_T_OfficeSm_N" = 8980.218   $ Sizing
 "ClCap_Sys_T_OfficeSm_S" = 12921.66   $ Sizing
 "ClCap_Sys_T_OfficeSm_W" = 14069.9   $ Sizing
 "ClCap_Sys_T_Restrm_C" = 4325.979   $ Sizing
 "ClCap_Sys_T_StorSm_E" = 3881.467   $ Sizing
 "ClCap_Sys_T_StorSm_N" = 2331.982   $ Sizing
 "ClCap_Sys_T_StorSm_S" = 3785.011   $ Sizing
 "ClCap_Sys_T_StorSm_W" = 4217.881   $ Sizing
 "HtCap_Sys_L_Break_C" = -26342.19   $ Sizing
 "HtCap_Sys_L_CompDC_C" = -6285.432   $ Sizing
 "HtCap_Sys_L_Conf_C" = -15742.83   $ Sizing
 "HtCap_Sys_L_CopyRm_C" = -5265.763   $ Sizing
 "HtCap_Sys_L_Hall_E" = -4221.645   $ Sizing
 "HtCap_Sys_L_Hall_N" = -2387.239   $ Sizing
 "HtCap_Sys_L_Hall_S" = -4081.508   $ Sizing
 "HtCap_Sys_L_Hall_W" = -4072.728   $ Sizing
 "HtCap_Sys_L_LobWait_E" = -10322.8   $ Sizing
 "HtCap_Sys_L_LobWait_N" = -7562.964   $ Sizing
 "HtCap_Sys_L_LobWait_S" = -10209.31   $ Sizing
 "HtCap_Sys_L_LobWait_W" = -10626.29   $ Sizing
 "HtCap_Sys_L_MechElec_C" = -3842.962   $ Sizing
 "HtCap_Sys_L_OfficeOpn_C" = -3130.822   $ Sizing
 "HtCap_Sys_L_OfficeOpn_E" = -18368.04   $ Sizing
 "HtCap_Sys_L_OfficeOpn_N" = -13904.92   $ Sizing
 "HtCap_Sys_L_OfficeOpn_S" = -17275.34   $ Sizing
 "HtCap_Sys_L_OfficeOpn_W" = -17997.81   $ Sizing
 "HtCap_Sys_L_OfficeSm_E" = -15434.32   $ Sizing
 "HtCap_Sys_L_OfficeSm_N" = -10384.9   $ Sizing
 "HtCap_Sys_L_OfficeSm_S" = -14349.47   $ Sizing
 "HtCap_Sys_L_OfficeSm_W" = -14790.11   $ Sizing
 "HtCap_Sys_L_Restrm_C" = -3492.616   $ Sizing
 "HtCap_Sys_L_StorSm_C" = -1840.846   $ Sizing
 "HtCap_Sys_L_StorSm_E" = -4311.384   $ Sizing
 "HtCap_Sys_L_StorSm_N" = -2664.588   $ Sizing
 "HtCap_Sys_L_StorSm_S" = -4168.664   $ Sizing
 "HtCap_Sys_L_StorSm_W" = -4153.854   $ Sizing
 "HtCap_Sys_T_Conf_C" = -15571.46   $ Sizing
 "HtCap_Sys_T_Hall_E" = -4773.357   $ Sizing
 "HtCap_Sys_T_Hall_N" = -2891.053   $ Sizing
 "HtCap_Sys_T_Hall_S" = -4797.331   $ Sizing
 "HtCap_Sys_T_Hall_W" = -4638.718   $ Sizing
 "HtCap_Sys_T_OfficeOpn_C" = -3126.411   $ Sizing
 "HtCap_Sys_T_OfficeOpn_E" = -19494.81   $ Sizing
 "HtCap_Sys_T_OfficeOpn_N" = -15143.33   $ Sizing
 "HtCap_Sys_T_OfficeOpn_S" = -19421.71   $ Sizing
 "HtCap_Sys_T_OfficeOpn_W" = -19952.3   $ Sizing
 "HtCap_Sys_T_OfficeSm_E" = -16285.44   $ Sizing
 "HtCap_Sys_T_OfficeSm_N" = -11677.88   $ Sizing
 "HtCap_Sys_T_OfficeSm_S" = -16555.74   $ Sizing
 "HtCap_Sys_T_OfficeSm_W" = -16419.86   $ Sizing
 "HtCap_Sys_T_Restrm_C" = -5479.233   $ Sizing
 "HtCap_Sys_T_StorSm_E" = -5160.463   $ Sizing
 "HtCap_Sys_T_StorSm_N" = -3432.438   $ Sizing
 "HtCap_Sys_T_StorSm_S" = -4969.801   $ Sizing
 "HtCap_Sys_T_StorSm_W" = -5336.03   $ Sizing
..

##include Templates\OfS_DX_SZ.inp
END ..
COMPUTE ..
STOP ..
