INPUT ..

##fileprefix C:\Users\jglasskatz\MASControl3\
##set1 IsSizing FALSE
##set1 CoolType ACH
##set1 HeatType HOT-WATER
##set1 EU_HrRepVar 1
##set1 BldgVint 1985
##set1 BldgLoc CZ01

 ##set1 mChlrCap_fT DEFAULT   $ IP Tech: ChlrScrA-lt150-9.2EER
 ##set1 mChlrEIR_fPLR DEFAULT   $ IP Tech: ChlrScrA-lt150-9.2EER
 ##set1 mChlrEIR_fT DEFAULT   $ IP Tech: ChlrScrA-lt150-9.2EER
 ##set1 mChlrType Screw   $ IP Tech: ChlrScrA-lt150-9.2EER
 ##set1 mCondType Air   $ IP Tech: ChlrScrA-lt150-9.2EER
 ##set1 mSetupLdChlr FALSE   $ IP Tech: ChlrScrA-lt150-9.2EER
 ##set1 mCHW_FlowCtrl Const   $ IP Tech: ChwFlowCtrlCst
 ##set1 mHW_FlowCtrl Const   $ IP Tech: HwFlowCtrlCst
 ##set1 mBlrIsCond FALSE   $ IP Tech: WBlr-lt300-80p0AF

PARAMETER
 "AltFactor" = 1.00753   $ IP Non-Tech
 "BldgEconoFlag" = 1   $ IP Non-Tech
 "BlrPrimLp" = BlrPrimLoop   $ IP Non-Tech
 "Break_EWSF" = 1   $ IP Non-Tech
 "Break_LWSF" = 1.1   $ IP Non-Tech
 "CDD_DBHi10" = 65   $ IP Non-Tech
 "CDD_DBHi7" = 68   $ IP Non-Tech
 "CDD_DBHi8" = 66   $ IP Non-Tech
 "CDD_DBHi9" = 77   $ IP Non-Tech
 "CDD_DBRange10" = 17   $ IP Non-Tech
 "CDD_DBRange7" = 11   $ IP Non-Tech
 "CDD_DBRange8" = 10   $ IP Non-Tech
 "CDD_DBRange9" = 29   $ IP Non-Tech
 "CDD_Day10" = 15   $ IP Non-Tech
 "CDD_Day7" = 16   $ IP Non-Tech
 "CDD_Day8" = 20   $ IP Non-Tech
 "CDD_Day9" = 17   $ IP Non-Tech
 "CDD_HrHi10" = 12   $ IP Non-Tech
 "CDD_HrHi7" = 12   $ IP Non-Tech
 "CDD_HrHi8" = 13   $ IP Non-Tech
 "CDD_HrHi9" = 17   $ IP Non-Tech
 "CDD_HrLo10" = 6   $ IP Non-Tech
 "CDD_HrLo7" = 3   $ IP Non-Tech
 "CDD_HrLo8" = 8   $ IP Non-Tech
 "CDD_HrLo9" = 4   $ IP Non-Tech
 "CDD_WB10" = 57.53039551   $ IP Non-Tech
 "CDD_WB7" = 59.29250717   $ IP Non-Tech
 "CDD_WB8" = 60.75350189   $ IP Non-Tech
 "CDD_WB9" = 61.08643341   $ IP Non-Tech
 "CZ_Category" = Tem   $ IP Non-Tech
 "ChwDesignDT" = 12   $ IP Non-Tech
 "ChwPipeHead" = 62   $ IP Non-Tech
 "ChwRetDT" = 0.038   $ IP Non-Tech
 "ChwSupDT" = 0.063   $ IP Non-Tech
 "ChwT" = 44   $ IP Non-Tech
 "ChwVintEconoFlag" = 1   $ IP Non-Tech
 "CompRoomData_EWSF" = 5.5   $ IP Non-Tech
 "CompRoomData_LWSF" = 1.2   $ IP Non-Tech
 "Conference_EWSF" = 1.1   $ IP Non-Tech
 "Conference_LWSF" = 1.4   $ IP Non-Tech
 "CoolSetT" = 55   $ IP Non-Tech
 "CoolType" = ACH   $ IP Non-Tech
 "CopyRoom_EWSF" = 1.65   $ IP Non-Tech
 "CopyRoom_LWSF" = 1.3   $ IP Non-Tech
 "DesCoolT" = 75   $ IP Non-Tech
 "DesHeatT" = 73   $ IP Non-Tech
 "EconoEnthLimit" = 28   $ IP Non-Tech
 "EconoTempLimit" = 70   $ IP Non-Tech
 "Elevation" = 203   $ IP Non-Tech
 "HDD_CloudAmt1" = 0   $ IP Non-Tech
 "HDD_DBHi1" = 53   $ IP Non-Tech
 "HDD_DBRange1" = 20   $ IP Non-Tech
 "HDD_Day1" = 15   $ IP Non-Tech
 "HDD_HrHi1" = 14   $ IP Non-Tech
 "HDD_HrLo1" = 6   $ IP Non-Tech
 "HDD_WB1" = 42.3   $ IP Non-Tech
 "HDD_WindSpd1" = 12.7   $ IP Non-Tech
 "Hall_EWSF" = 0.22   $ IP Non-Tech
 "Hall_LWSF" = 0.6   $ IP Non-Tech
 "HeatSrc" = HOT-WATER   $ IP Non-Tech
 "HeatSrcTU" = HOT-WATER   $ IP Non-Tech
 "HeatType" = GasBlr   $ IP Non-Tech
 "HeatTypeTU" = HOT-WATER   $ IP Non-Tech
 "HwDesignDT" = 30   $ IP Non-Tech
 "HwPipeHead" = 40   $ IP Non-Tech
 "HwRetDT" = 0.3   $ IP Non-Tech
 "HwSupDT" = 0.5   $ IP Non-Tech
 "IndoorFanMode" = CONTINUOUS   $ IP Non-Tech
 "KT_TransferAir" = No   $ IP Non-Tech
 "Latitude" = 40.8   $ IP Non-Tech
 "LobbyWaiting_EWSF" = 0.525   $ IP Non-Tech
 "LobbyWaiting_LWSF" = 1.3   $ IP Non-Tech
 "Longitude" = 124.2   $ IP Non-Tech
 "LtgMsrApplic" = ALL   $ Msr TechID: NonResLtgRefMsr-HB
 "LtgSav_CFL" = 0   $ Msr TechID: NonResLtgRefMsr-HB
 "LtgSav_EX" = 0   $ Msr TechID: NonResLtgRefMsr-HB
 "LtgSav_HB" = 0.3   $ Msr TechID: NonResLtgRefMsr-HB
 "LtgSav_LF" = 0   $ Msr TechID: NonResLtgRefMsr-HB
 "LtgSav_SP" = 0   $ Msr TechID: NonResLtgRefMsr-HB
 "MZFanMechEff" = 0.68   $ IP Non-Tech
 "MZHasRetFan" = TRUE   $ IP Non-Tech
 "MZ_RFanWPerCfm" = 0.33   $ IP Non-Tech
 "MZ_SFanWPerCfm" = 0.75   $ IP Non-Tech
 "MaxSupT_MZ" = 95   $ IP Non-Tech
 "MaxSupT_SZ" = 105   $ IP Non-Tech
 "MaxSupT_TU" = 105   $ IP Non-Tech
 "MechElecRoom_EWSF" = 0.22   $ IP Non-Tech
 "MechElecRoom_LWSF" = 0.7   $ IP Non-Tech
 "MinCfmPerSF" = 0.4   $ IP Non-Tech
 "MinSupT" = 55   $ IP Non-Tech
 "OccCoolT" = 76   $ IP Non-Tech
 "OccHeatT" = 72   $ IP Non-Tech
 "OfficeOpen_EWSF" = 1.65   $ IP Non-Tech
 "OfficeOpen_LWSF" = 1.2   $ IP Non-Tech
 "OfficeSmall_EWSF" = 1.65   $ IP Non-Tech
 "OfficeSmall_LWSF" = 1.3   $ IP Non-Tech
 "PkgDxVintEconoFlag" = 0   $ IP Non-Tech
 "ReheatDeltaT" = 39   $ IP Non-Tech
 "Restroom_EWSF" = 0.22   $ IP Non-Tech
 "Restroom_LWSF" = 0.6   $ IP Non-Tech
 "SZFanMechEff" = 0.54   $ IP Non-Tech
 "SZHasRetFan" = TRUE   $ IP Non-Tech
 "SZ_Is_2Spd" = FALSE   $ IP Non-Tech
 "SZ_SFanWPerCfm" = 0.46   $ IP Non-Tech
 "StorageSmlCond_EWSF" = 0.22   $ IP Non-Tech
 "StorageSmlCond_LWSF" = 0.6   $ IP Non-Tech
 "T24GlzTbl" = CZTbl   $ IP Non-Tech
 "TermUnitFanMechEff" = 1   $ IP Non-Tech
 "TermUnitFanMode" = INTERMITTENT   $ IP Non-Tech
 "TermUnitFanWPerCfm" = 0.175   $ IP Non-Tech
 "TwrSetpt" = 80   $ IP Non-Tech
 "UnocCoolT" = 86   $ IP Non-Tech
 "UnocHeatT" = 62   $ IP Non-Tech
 "VAVMinFlow" = 0.3   $ IP Non-Tech
 "WlhpVintEconoFlag" = 0   $ IP Non-Tech
 "EconoCtrl" = OA-TEMP   $ IP Tech: AirEcono-OATemp
 "MaxOAFrac" = 0.85   $ IP Tech: AirEcono-OATemp
 "UseEconoVintApplic" = FALSE   $ IP Tech: AirEcono-OATemp
 "ChlrCapRange" = lt150   $ IP Tech: ChlrScrA-lt150-9.2EER
 "ChlrEff" = 9.23   $ IP Tech: ChlrScrA-lt150-9.2EER
 "ChlrType" = Screw   $ IP Tech: ChlrScrA-lt150-9.2EER
 "ChlrVSD" = NO   $ IP Tech: ChlrScrA-lt150-9.2EER
 "CmpPerCkt" = NA   $ IP Tech: ChlrScrA-lt150-9.2EER
 "CondRelief" = FALSE   $ IP Tech: ChlrScrA-lt150-9.2EER
 "CondType" = Air   $ IP Tech: ChlrScrA-lt150-9.2EER
 "EffUnits" = EER   $ IP Tech: ChlrScrA-lt150-9.2EER
 "IPLV" = -99   $ IP Tech: ChlrScrA-lt150-9.2EER
 "CHW_FlowCtrl" = Const   $ IP Tech: ChwFlowCtrlCst
 "CHW_HdSensLoc" = AT-COILS   $ IP Tech: ChwFlowCtrlCst
 "CHW_HdSptCtrl" = FIXED   $ IP Tech: ChwFlowCtrlCst
 "CHWP_Encl" = Any   $ IP Tech: ChwPumpMtrEff-HI
 "CHWP_MotClass" = HI-EFF   $ IP Tech: ChwPumpMtrEff-HI
 "CHWP_MotHP" = Any   $ IP Tech: ChwPumpMtrEff-HI
 "CHWP_NEMA_DC" =    $ IP Tech: ChwPumpMtrEff-HI
 "CHWP_RPM" = Any   $ IP Tech: ChwPumpMtrEff-HI
 "CHWP_Volt" =    $ IP Tech: ChwPumpMtrEff-HI
 "CHW_MaxT" = 54   $ IP Tech: ChwTempCtrlReset
 "CHW_TempCtrl" = LOAD-RESET   $ IP Tech: ChwTempCtrlReset
 "DuctDT" = 2   $ IP Tech: ComDuctInsul-2
 "DuctAirLoss" = 0   $ IP Tech: ComDuctLeak-0
 "DuctLossOAFrac" = 0   $ IP Tech: ComDuctLeak-0
 "ComRoofInsCalc" = FromUo   $ IP Tech: ComRoofIns-WFrm-0.07
 "ComRoofInsR" = -999   $ IP Tech: ComRoofIns-WFrm-0.07
 "ComRoofUo" = 0.07   $ IP Tech: ComRoofIns-WFrm-0.07
 "ComEWInsCalc" = FromUo   $ IP Tech: ComWallIns-WFrm-0.09
 "ComEWInsR" = -999   $ IP Tech: ComWallIns-WFrm-0.09
 "ComEWUo" = 0.09   $ IP Tech: ComWallIns-WFrm-0.09
 "MotorClass" = HI-EFF   $ IP Tech: ExhFanMtr-High
 "HW_FlowCtrl" = Const   $ IP Tech: HwFlowCtrlCst
 "HW_HdSensLoc" = AT-COILS   $ IP Tech: HwFlowCtrlCst
 "HW_HdSptCtrl" = FIXED   $ IP Tech: HwFlowCtrlCst
 "HWP_Encl" = Any   $ IP Tech: HwPumpMtrEff-HI
 "HWP_MotClass" = HI-EFF   $ IP Tech: HwPumpMtrEff-HI
 "HWP_MotHP" = Any   $ IP Tech: HwPumpMtrEff-HI
 "HWP_NEMA_DC" = Any   $ IP Tech: HwPumpMtrEff-HI
 "HWP_RPM" = Any   $ IP Tech: HwPumpMtrEff-HI
 "HWP_Volt" = Any   $ IP Tech: HwPumpMtrEff-HI
 "HWResetOutsideHi" = -1   $ IP Tech: HwTempCtrlFixed
 "HWResetOutsideLo" = -1   $ IP Tech: HwTempCtrlFixed
 "HW_TempCtrl" = FIXED   $ IP Tech: HwTempCtrlFixed
 "ComN_SHGC" = 0.82   $ IP Tech: NResWin-ComN-1.23-0.82
 "ComN_UFactor" = 1.23   $ IP Tech: NResWin-ComN-1.23-0.82
 "ComN_VisTrans" = 0.9   $ IP Tech: NResWin-ComN-1.23-0.82
 "ComN_WinCode" = G1000   $ IP Tech: NResWin-ComN-1.23-0.82
 "ComN_WinFrmFrac" = 0.17   $ IP Tech: NResWin-ComN-1.23-0.82
 "ComN_WinFrmU" = 1   $ IP Tech: NResWin-ComN-1.23-0.82
 "ComO_SHGC" = 0.82   $ IP Tech: NResWin-ComO-1.23-0.82
 "ComO_UFactor" = 1.23   $ IP Tech: NResWin-ComO-1.23-0.82
 "ComO_VisTrans" = 0.9   $ IP Tech: NResWin-ComO-1.23-0.82
 "ComO_WinCode" = G1000   $ IP Tech: NResWin-ComO-1.23-0.82
 "ComO_WinFrmFrac" = 0.17   $ IP Tech: NResWin-ComO-1.23-0.82
 "ComO_WinFrmU" = 1   $ IP Tech: NResWin-ComO-1.23-0.82
 "SATempCtrl" = RESET   $ IP Tech: SATempCtrl-Reset
 "FanEIR_fPLR" = "ForCurve w Inlet Vanes FPLR"   $ IP Tech: VAVCtrl-Inlet-AnyHP
 "Fan_Control" = Inlet   $ IP Tech: VAVCtrl-Inlet-AnyHP
 "Motor_Horsepower" = AnyHP   $ IP Tech: VAVCtrl-Inlet-AnyHP
 "BlrCapRange" = lt300   $ IP Tech: WBlr-lt300-80p0AF
 "BlrDraftType" = FDr   $ IP Tech: WBlr-lt300-80p0AF
 "BlrEff" = 0.8   $ IP Tech: WBlr-lt300-80p0AF
 "BlrEffUnits" = AFUE   $ IP Tech: WBlr-lt300-80p0AF
 "BlrEt" = 0.805   $ IP Tech: WBlr-lt300-80p0AF
 "BlrFluid" = Wtr   $ IP Tech: WBlr-lt300-80p0AF
 "BlrIsCond" = FALSE   $ IP Tech: WBlr-lt300-80p0AF
 "BlrT" = 165   $ IP Tech: WBlr-lt300-80p0AF
 "AltAdjFactor" = 1.007532   $ Sizing
 "CAssFlo_L_Break_CZn" = 259.6324   $ Sizing
 "CAssFlo_L_CompDC_CZn" = 166.6323   $ Sizing
 "CAssFlo_L_Conf_CZn" = 184.9358   $ Sizing
 "CAssFlo_L_CopyRm_CZn" = 50.72986   $ Sizing
 "CAssFlo_L_Hall_EZn" = 163.3719   $ Sizing
 "CAssFlo_L_Hall_NZn" = 85.87875   $ Sizing
 "CAssFlo_L_Hall_SZn" = 194.2338   $ Sizing
 "CAssFlo_L_Hall_WZn" = 169.2769   $ Sizing
 "CAssFlo_L_LobWait_EZn" = 386.4724   $ Sizing
 "CAssFlo_L_LobWait_NZn" = 179.8992   $ Sizing
 "CAssFlo_L_LobWait_SZn" = 450.9206   $ Sizing
 "CAssFlo_L_LobWait_WZn" = 388.7427   $ Sizing
 "CAssFlo_L_MechElec_CZn" = 65.93681   $ Sizing
 "CAssFlo_L_OfficeOpn_CZn" = 52.08847   $ Sizing
 "CAssFlo_L_OfficeOpn_EZn" = 740.3251   $ Sizing
 "CAssFlo_L_OfficeOpn_NZn" = 249.1532   $ Sizing
 "CAssFlo_L_OfficeOpn_SZn" = 794.0613   $ Sizing
 "CAssFlo_L_OfficeOpn_WZn" = 711.5482   $ Sizing
 "CAssFlo_L_OfficeSm_EZn" = 649.3966   $ Sizing
 "CAssFlo_L_OfficeSm_NZn" = 194.4608   $ Sizing
 "CAssFlo_L_OfficeSm_SZn" = 716.0463   $ Sizing
 "CAssFlo_L_OfficeSm_WZn" = 642.4689   $ Sizing
 "CAssFlo_L_Restrm_CZn" = 86.07105   $ Sizing
 "CAssFlo_L_StorSm_CZn" = 35.00126   $ Sizing
 "CAssFlo_L_StorSm_EZn" = 151.814   $ Sizing
 "CAssFlo_L_StorSm_NZn" = 90.28634   $ Sizing
 "CAssFlo_L_StorSm_SZn" = 179.4959   $ Sizing
 "CAssFlo_L_StorSm_WZn" = 152.162   $ Sizing
 "CAssFlo_T_Conf_CZn" = 200.1273   $ Sizing
 "CAssFlo_T_Hall_EZn" = 186.9359   $ Sizing
 "CAssFlo_T_Hall_NZn" = 82.07278   $ Sizing
 "CAssFlo_T_Hall_SZn" = 225.405   $ Sizing
 "CAssFlo_T_Hall_WZn" = 188.649   $ Sizing
 "CAssFlo_T_OfficeOpn_CZn" = 49.50595   $ Sizing
 "CAssFlo_T_OfficeOpn_EZn" = 758.0887   $ Sizing
 "CAssFlo_T_OfficeOpn_NZn" = 290.3802   $ Sizing
 "CAssFlo_T_OfficeOpn_SZn" = 861.2903   $ Sizing
 "CAssFlo_T_OfficeOpn_WZn" = 734.1979   $ Sizing
 "CAssFlo_T_OfficeSm_EZn" = 679.1956   $ Sizing
 "CAssFlo_T_OfficeSm_NZn" = 230.9827   $ Sizing
 "CAssFlo_T_OfficeSm_SZn" = 781.713   $ Sizing
 "CAssFlo_T_OfficeSm_WZn" = 672.881   $ Sizing
 "CAssFlo_T_Restrm_CZn" = 89.79707   $ Sizing
 "CAssFlo_T_StorSm_EZn" = 176.6755   $ Sizing
 "CAssFlo_T_StorSm_NZn" = 86.82125   $ Sizing
 "CAssFlo_T_StorSm_SZn" = 212.0722   $ Sizing
 "CAssFlo_T_StorSm_WZn" = 180.7127   $ Sizing
 "CBF_Sys_L" = 0.04588658   $ Sizing
 "CBF_Sys_T" = 0.04556037   $ Sizing
 "CHRtFlo_L_Break_CZn" = 185.4956   $ Sizing
 "CHRtFlo_L_CompDC_CZn" = 49.98969   $ Sizing
 "CHRtFlo_L_Conf_CZn" = 143.3872   $ Sizing
 "CHRtFlo_L_CopyRm_CZn" = 50.72986   $ Sizing
 "CHRtFlo_L_Hall_EZn" = 76.89761   $ Sizing
 "CHRtFlo_L_Hall_NZn" = 85.87875   $ Sizing
 "CHRtFlo_L_Hall_SZn" = 58.27015   $ Sizing
 "CHRtFlo_L_Hall_WZn" = 74.38235   $ Sizing
 "CHRtFlo_L_LobWait_EZn" = 161.7053   $ Sizing
 "CHRtFlo_L_LobWait_NZn" = 179.8992   $ Sizing
 "CHRtFlo_L_LobWait_SZn" = 135.2762   $ Sizing
 "CHRtFlo_L_LobWait_WZn" = 156.4946   $ Sizing
 "CHRtFlo_L_MechElec_CZn" = 44.78099   $ Sizing
 "CHRtFlo_L_OfficeOpn_CZn" = 38.31623   $ Sizing
 "CHRtFlo_L_OfficeOpn_EZn" = 222.0975   $ Sizing
 "CHRtFlo_L_OfficeOpn_NZn" = 209.4394   $ Sizing
 "CHRtFlo_L_OfficeOpn_SZn" = 238.2184   $ Sizing
 "CHRtFlo_L_OfficeOpn_WZn" = 213.4645   $ Sizing
 "CHRtFlo_L_OfficeSm_EZn" = 194.819   $ Sizing
 "CHRtFlo_L_OfficeSm_NZn" = 194.4608   $ Sizing
 "CHRtFlo_L_OfficeSm_SZn" = 214.8139   $ Sizing
 "CHRtFlo_L_OfficeSm_WZn" = 192.7407   $ Sizing
 "CHRtFlo_L_Restrm_CZn" = 59.7184   $ Sizing
 "CHRtFlo_L_StorSm_CZn" = 35.00126   $ Sizing
 "CHRtFlo_L_StorSm_EZn" = 80.80019   $ Sizing
 "CHRtFlo_L_StorSm_NZn" = 90.28634   $ Sizing
 "CHRtFlo_L_StorSm_SZn" = 53.84879   $ Sizing
 "CHRtFlo_L_StorSm_WZn" = 70.64645   $ Sizing
 "CHRtFlo_T_Conf_CZn" = 143.3872   $ Sizing
 "CHRtFlo_T_Hall_EZn" = 78.3729   $ Sizing
 "CHRtFlo_T_Hall_NZn" = 82.07278   $ Sizing
 "CHRtFlo_T_Hall_SZn" = 67.6215   $ Sizing
 "CHRtFlo_T_Hall_WZn" = 74.73353   $ Sizing
 "CHRtFlo_T_OfficeOpn_CZn" = 27.22038   $ Sizing
 "CHRtFlo_T_OfficeOpn_EZn" = 227.4266   $ Sizing
 "CHRtFlo_T_OfficeOpn_NZn" = 197.1755   $ Sizing
 "CHRtFlo_T_OfficeOpn_SZn" = 258.3871   $ Sizing
 "CHRtFlo_T_OfficeOpn_WZn" = 220.2594   $ Sizing
 "CHRtFlo_T_OfficeSm_EZn" = 203.7587   $ Sizing
 "CHRtFlo_T_OfficeSm_NZn" = 181.1316   $ Sizing
 "CHRtFlo_T_OfficeSm_SZn" = 234.5139   $ Sizing
 "CHRtFlo_T_OfficeSm_WZn" = 201.8643   $ Sizing
 "CHRtFlo_T_Restrm_CZn" = 89.79707   $ Sizing
 "CHRtFlo_T_StorSm_EZn" = 81.96554   $ Sizing
 "CHRtFlo_T_StorSm_NZn" = 86.82125   $ Sizing
 "CHRtFlo_T_StorSm_SZn" = 63.62167   $ Sizing
 "CHRtFlo_T_StorSm_WZn" = 77.81548   $ Sizing
 "CRtdFlo_Sys_L" = 5446.13   $ Sizing
 "CRtdFlo_Sys_T" = 4769.605   $ Sizing
 "CSupFlo_Sys_L" = 5445.881   $ Sizing
 "CSupFlo_Sys_T" = 4769.605   $ Sizing
 "Cap_Boiler1" = -0.207618   $ Sizing
 "Cap_Chiller1" = 0.268037   $ Sizing
 "ClCap_Sys_L" = 141272   $ Sizing
 "ClCap_Sys_T" = 124191.9   $ Sizing
 "HRtEDB_L_Break_CZn" = 56.30671   $ Sizing
 "HRtEDB_L_CompDC_CZn" = 56.30671   $ Sizing
 "HRtEDB_L_Conf_CZn" = 56.30671   $ Sizing
 "HRtEDB_L_CopyRm_CZn" = 56.30671   $ Sizing
 "HRtEDB_L_Hall_EZn" = 56.45393   $ Sizing
 "HRtEDB_L_Hall_NZn" = 56.45393   $ Sizing
 "HRtEDB_L_Hall_SZn" = 56.45393   $ Sizing
 "HRtEDB_L_Hall_WZn" = 56.45393   $ Sizing
 "HRtEDB_L_LobWait_EZn" = 56.45393   $ Sizing
 "HRtEDB_L_LobWait_NZn" = 56.45393   $ Sizing
 "HRtEDB_L_LobWait_SZn" = 56.45393   $ Sizing
 "HRtEDB_L_LobWait_WZn" = 56.45393   $ Sizing
 "HRtEDB_L_MechElec_CZn" = 56.45393   $ Sizing
 "HRtEDB_L_OfficeOpn_CZn" = 56.30671   $ Sizing
 "HRtEDB_L_OfficeOpn_EZn" = 56.30671   $ Sizing
 "HRtEDB_L_OfficeOpn_NZn" = 56.30671   $ Sizing
 "HRtEDB_L_OfficeOpn_SZn" = 56.30671   $ Sizing
 "HRtEDB_L_OfficeOpn_WZn" = 56.30671   $ Sizing
 "HRtEDB_L_OfficeSm_EZn" = 56.30671   $ Sizing
 "HRtEDB_L_OfficeSm_NZn" = 56.30671   $ Sizing
 "HRtEDB_L_OfficeSm_SZn" = 56.30671   $ Sizing
 "HRtEDB_L_OfficeSm_WZn" = 56.30671   $ Sizing
 "HRtEDB_L_Restrm_CZn" = 56.30671   $ Sizing
 "HRtEDB_L_StorSm_CZn" = 56.45393   $ Sizing
 "HRtEDB_L_StorSm_EZn" = 56.45393   $ Sizing
 "HRtEDB_L_StorSm_NZn" = 56.45393   $ Sizing
 "HRtEDB_L_StorSm_SZn" = 56.45393   $ Sizing
 "HRtEDB_L_StorSm_WZn" = 56.45393   $ Sizing
 "HRtEDB_T_Conf_CZn" = 55.73067   $ Sizing
 "HRtEDB_T_Hall_EZn" = 55.787   $ Sizing
 "HRtEDB_T_Hall_NZn" = 55.787   $ Sizing
 "HRtEDB_T_Hall_SZn" = 55.787   $ Sizing
 "HRtEDB_T_Hall_WZn" = 55.787   $ Sizing
 "HRtEDB_T_OfficeOpn_CZn" = 55.73067   $ Sizing
 "HRtEDB_T_OfficeOpn_EZn" = 55.73067   $ Sizing
 "HRtEDB_T_OfficeOpn_NZn" = 55.73067   $ Sizing
 "HRtEDB_T_OfficeOpn_SZn" = 55.73067   $ Sizing
 "HRtEDB_T_OfficeOpn_WZn" = 55.73067   $ Sizing
 "HRtEDB_T_OfficeSm_EZn" = 55.73067   $ Sizing
 "HRtEDB_T_OfficeSm_NZn" = 55.73067   $ Sizing
 "HRtEDB_T_OfficeSm_SZn" = 55.73067   $ Sizing
 "HRtEDB_T_OfficeSm_WZn" = 55.73067   $ Sizing
 "HRtEDB_T_Restrm_CZn" = 55.73067   $ Sizing
 "HRtEDB_T_StorSm_EZn" = 55.787   $ Sizing
 "HRtEDB_T_StorSm_NZn" = 55.787   $ Sizing
 "HRtEDB_T_StorSm_SZn" = 55.787   $ Sizing
 "HRtEDB_T_StorSm_WZn" = 55.787   $ Sizing
 "HWDT_Boiler1" = 24.32364   $ Sizing
 "HtCap_L_Break_CZn" = -7732.129   $ Sizing
 "HtCap_L_CompDC_CZn" = -2083.751   $ Sizing
 "HtCap_L_Conf_CZn" = -5976.898   $ Sizing
 "HtCap_L_CopyRm_CZn" = -2114.604   $ Sizing
 "HtCap_L_Hall_EZn" = -3194.12   $ Sizing
 "HtCap_L_Hall_NZn" = -3567.172   $ Sizing
 "HtCap_L_Hall_SZn" = -2420.385   $ Sizing
 "HtCap_L_Hall_WZn" = -3089.643   $ Sizing
 "HtCap_L_LobWait_EZn" = -6716.801   $ Sizing
 "HtCap_L_LobWait_NZn" = -7472.527   $ Sizing
 "HtCap_L_LobWait_SZn" = -5619.008   $ Sizing
 "HtCap_L_LobWait_WZn" = -6500.363   $ Sizing
 "HtCap_L_MechElec_CZn" = -1860.082   $ Sizing
 "HtCap_L_OfficeOpn_CZn" = -1597.159   $ Sizing
 "HtCap_L_OfficeOpn_EZn" = -9257.829   $ Sizing
 "HtCap_L_OfficeOpn_NZn" = -8730.192   $ Sizing
 "HtCap_L_OfficeOpn_SZn" = -9929.805   $ Sizing
 "HtCap_L_OfficeOpn_WZn" = -8897.972   $ Sizing
 "HtCap_L_OfficeSm_EZn" = -8120.76   $ Sizing
 "HtCap_L_OfficeSm_NZn" = -8105.829   $ Sizing
 "HtCap_L_OfficeSm_SZn" = -8954.221   $ Sizing
 "HtCap_L_OfficeSm_WZn" = -8034.13   $ Sizing
 "HtCap_L_Restrm_CZn" = -2489.279   $ Sizing
 "HtCap_L_StorSm_CZn" = -1453.858   $ Sizing
 "HtCap_L_StorSm_EZn" = -3356.222   $ Sizing
 "HtCap_L_StorSm_NZn" = -3750.251   $ Sizing
 "HtCap_L_StorSm_SZn" = -2236.734   $ Sizing
 "HtCap_L_StorSm_WZn" = -2934.463   $ Sizing
 "HtCap_T_Conf_CZn" = -6065.878   $ Sizing
 "HtCap_T_Hall_EZn" = -3311.577   $ Sizing
 "HtCap_T_Hall_NZn" = -3467.912   $ Sizing
 "HtCap_T_Hall_SZn" = -2857.286   $ Sizing
 "HtCap_T_Hall_WZn" = -3157.798   $ Sizing
 "HtCap_T_OfficeOpn_CZn" = -1151.536   $ Sizing
 "HtCap_T_OfficeOpn_EZn" = -9621.096   $ Sizing
 "HtCap_T_OfficeOpn_NZn" = -8341.349   $ Sizing
 "HtCap_T_OfficeOpn_SZn" = -10930.85   $ Sizing
 "HtCap_T_OfficeOpn_WZn" = -9317.892   $ Sizing
 "HtCap_T_OfficeSm_EZn" = -8619.844   $ Sizing
 "HtCap_T_OfficeSm_NZn" = -7662.624   $ Sizing
 "HtCap_T_OfficeSm_SZn" = -9920.917   $ Sizing
 "HtCap_T_OfficeSm_WZn" = -8539.702   $ Sizing
 "HtCap_T_Restrm_CZn" = -3798.791   $ Sizing
 "HtCap_T_StorSm_EZn" = -3463.38   $ Sizing
 "HtCap_T_StorSm_NZn" = -3668.554   $ Sizing
 "HtCap_T_StorSm_SZn" = -2688.277   $ Sizing
 "HtCap_T_StorSm_WZn" = -3288.023   $ Sizing
 "LpFlo_BlrPrimLoop" = 16.88876   $ Sizing
 "LpFlo_BlrPrimLoop" = 16.88876   $ Sizing
 "LpFlo_ChlrPrimLoop" = 44.10831   $ Sizing
 "LpFlo_ChlrPrimLoop" = 44.10831   $ Sizing
 "LpFlo_CircLp_Chw_All" = 44.10831   $ Sizing
 "LpFlo_CircLp_Chw_All" = 44.10831   $ Sizing
 "LpFlo_CircLp_Hw_All" = 16.88876   $ Sizing
 "LpFlo_CircLp_Hw_All" = 16.88876   $ Sizing
 "RtChwFlo_Chiller1" = 3.718899   $ Sizing
 "RtdEDB_Sys_L" = 75.37959   $ Sizing
 "RtdEDB_Sys_T" = 75.88545   $ Sizing
 "RtdEWB_Sys_L" = 61.34222   $ Sizing
 "RtdEWB_Sys_T" = 61.36503   $ Sizing
 "SUtime_Boiler1" = 0.083   $ Sizing
..

##include Templates\OfS_CH_MZ.inp
END ..
COMPUTE ..
STOP ..
