
Start DOESIM : Storage capacity =  75000000
Starting LOADS   : SAVE-FILES is On , weather is CZ01ARCATA-AP       
Finished LOADS    BDL  1 : Memory (wds) =    170905, Time (sec) =    1.20
Starting REPORT  
Finished REPORT   BDL  1 : Memory (wds) =    329779, Time (sec) =    0.34
Starting HVAC    : SAVE-FILES is On , weather is CZ01ARCATA-AP       
*** ERRORS or WARNINGS from HVAC     program. Examine output file for details.
Finished HVAC     BDL  1 : Memory (wds) =    241699, Time (sec) =    2.66
Starting REPORT  
Finished REPORT   BDL  1 : Memory (wds) =    327079, Time (sec) =    0.14
Starting HOURLY-R
Finished HOURLY-R BDL  1 : Memory (wds) =    522301, Time (sec) =    0.14
Starting ECONOMIC
Finished ECONOMIC BDL  1 : Memory (wds) =      1034, Time (sec) =    0.04
End   DOESIM : Total elapsed time of      4.5 seconds
RUN COMPLETE
