INPUT ..

##fileprefix C:\Users\jglasskatz\MASControl3\
##set1 IsSizing FALSE
##set1 CoolType DX
##set1 HeatType FURNACE
##set1 EU_HrRepVar 0
##set1 BldgVint 2011
##set1 BldgLoc CZ13

 ##set1 mBFMult 1   $ IP Tech: RefgChg-NRes-Std

PARAMETER
 "AltFactor" = 1.01244   $ IP Non-Tech
 "BF_fFlow" = SpltAC1Sp-ge45_BF_fFlow   $ Msr (Multi)TechID: StdNResSplitAC-45to55
 "BF_fT" = SpltAC1Sp-ge45_BF_fT   $ Msr (Multi)TechID: StdNResSplitAC-45to55
 "BldgEconoFlag" = 1   $ IP Non-Tech
 "Break_EWSF" = 1   $ IP Non-Tech
 "Break_LWSF" = 1.1   $ IP Non-Tech
 "CDD_DBHi10" = 86   $ IP Non-Tech
 "CDD_DBHi7" = 105   $ IP Non-Tech
 "CDD_DBHi8" = 102   $ IP Non-Tech
 "CDD_DBHi9" = 100   $ IP Non-Tech
 "CDD_DBRange10" = 28   $ IP Non-Tech
 "CDD_DBRange7" = 28   $ IP Non-Tech
 "CDD_DBRange8" = 28   $ IP Non-Tech
 "CDD_DBRange9" = 30   $ IP Non-Tech
 "CDD_Day10" = 15   $ IP Non-Tech
 "CDD_Day7" = 16   $ IP Non-Tech
 "CDD_Day8" = 20   $ IP Non-Tech
 "CDD_Day9" = 17   $ IP Non-Tech
 "CDD_HrHi10" = 16   $ IP Non-Tech
 "CDD_HrHi7" = 18   $ IP Non-Tech
 "CDD_HrHi8" = 18   $ IP Non-Tech
 "CDD_HrHi9" = 15   $ IP Non-Tech
 "CDD_HrLo10" = 5   $ IP Non-Tech
 "CDD_HrLo7" = 6   $ IP Non-Tech
 "CDD_HrLo8" = 7   $ IP Non-Tech
 "CDD_HrLo9" = 3   $ IP Non-Tech
 "CDD_WB10" = 62.19377518   $ IP Non-Tech
 "CDD_WB7" = 72.76699829   $ IP Non-Tech
 "CDD_WB8" = 69.69030762   $ IP Non-Tech
 "CDD_WB9" = 71.78777313   $ IP Non-Tech
 "CEIR_fPLR_Hot" = SpltAC1Sp-ge45_CEIR_fPLR_Hot   $ Msr (Multi)TechID: StdNResSplitAC-45to55
 "CEIR_fPLR_Mod" = SpltAC1Sp-ge45_CEIR_fPLR_Mod   $ Msr (Multi)TechID: StdNResSplitAC-45to55
 "CEIR_fPLR_Tem" = SpltAC1Sp-ge45_CEIR_fPLR_Tem   $ Msr (Multi)TechID: StdNResSplitAC-45to55
 "CLoss_fPLR_Hot" = SpltAC1Sp-ge45_CLoss_fPLR_Hot   $ Msr (Multi)TechID: StdNResSplitAC-45to55
 "CLoss_fPLR_Mod" = SpltAC1Sp-ge45_CLoss_fPLR_Mod   $ Msr (Multi)TechID: StdNResSplitAC-45to55
 "CLoss_fPLR_Tem" = SpltAC1Sp-ge45_CLoss_fPLR_Tem   $ Msr (Multi)TechID: StdNResSplitAC-45to55
 "COP47" = 0   $ Msr (Multi)TechID: StdNResSplitAC-45to55
 "CZ_Category" = Mod   $ IP Non-Tech
 "CapRange" = ge45   $ Msr (Multi)TechID: StdNResSplitAC-45to55
 "CfmPerBtuh" = 0.03263   $ Msr (Multi)TechID: StdNResSplitAC-45to55
 "ChwVintEconoFlag" = 1   $ IP Non-Tech
 "ClCap_fT" = SpltAC1Sp-ge45_ClCap_fT   $ Msr (Multi)TechID: StdNResSplitAC-45to55
 "ClSH_fT" = SpltAC1Sp-ge45_ClSH_fT   $ Msr (Multi)TechID: StdNResSplitAC-45to55
 "CoilBF" = 0.106518182   $ Msr (Multi)TechID: StdNResSplitAC-45to55
 "CompRoomData_EWSF" = 5   $ IP Non-Tech
 "CompRoomData_LWSF" = 1.1   $ IP Non-Tech
 "CondWPerBtuh" = 0   $ Msr (Multi)TechID: StdNResSplitAC-45to55
 "Conference_EWSF" = 1   $ IP Non-Tech
 "Conference_LWSF" = 1.4   $ IP Non-Tech
 "CoolSensCap" = 0.759218182   $ Msr (Multi)TechID: StdNResSplitAC-45to55
 "CoolSetT" = 45   $ IP Non-Tech
 "CoolType" = DX   $ IP Non-Tech
 "CoolingEIR" = 0.2466   $ Msr (Multi)TechID: StdNResSplitAC-45to55
 "CopyRoom_EWSF" = 1.5   $ IP Non-Tech
 "CopyRoom_LWSF" = 1.3   $ IP Non-Tech
 "CrnkEIR" = 0.002466   $ Msr (Multi)TechID: StdNResSplitAC-45to55
 "CrnkMaxT" = 50   $ Msr (Multi)TechID: StdNResSplitAC-45to55
 "DXType" = SplitSEER   $ Msr (Multi)TechID: StdNResSplitAC-45to55
 "DesCoolT" = 75   $ IP Non-Tech
 "DesHeatT" = 73   $ IP Non-Tech
 "EER" = 11.81793103   $ Msr (Multi)TechID: StdNResSplitAC-45to55
 "EIR_fT" = SpltAC1Sp-ge45_EIR_fT   $ Msr (Multi)TechID: StdNResSplitAC-45to55
 "EconoCtrl" = FIXED   $ Msr (Multi)TechID: StdNResSplitAC-45to55
 "EconoEnthLimit" = 28   $ IP Non-Tech
 "EconoTempLimit" = 75   $ IP Non-Tech
 "Elevation" = 335   $ IP Non-Tech
 "FanEirPlr" = TwoSpeedFan   $ Msr (Multi)TechID: StdNResSplitAC-45to55
 "FanWPerCfm" = 0.294   $ Msr (Multi)TechID: StdNResSplitAC-45to55
 "HDD_CloudAmt1" = 0   $ IP Non-Tech
 "HDD_DBHi1" = 40.29372406   $ IP Non-Tech
 "HDD_DBRange1" = 8   $ IP Non-Tech
 "HDD_Day1" = 15   $ IP Non-Tech
 "HDD_HrHi1" = 22   $ IP Non-Tech
 "HDD_HrLo1" = 7   $ IP Non-Tech
 "HDD_WB1" = 38.2   $ IP Non-Tech
 "HDD_WindSpd1" = 10.4   $ IP Non-Tech
 "HIR_fT" = 0   $ Msr (Multi)TechID: StdNResSplitAC-45to55
 "HSPF" = 0   $ Msr (Multi)TechID: StdNResSplitAC-45to55
 "Hall_EWSF" = 0.2   $ IP Non-Tech
 "Hall_LWSF" = 0.6   $ IP Non-Tech
 "HeatSrc" = FURNACE   $ IP Non-Tech
 "HeatSrcTU" = HEAT-PUMP   $ IP Non-Tech
 "HeatType" = GasFurn   $ IP Non-Tech
 "HeatTypeTU" = HEAT-PUMP   $ IP Non-Tech
 "HtCap_fT" = 0   $ Msr (Multi)TechID: StdNResSplitAC-45to55
 "HtCoolCapRatio" = 0   $ Msr (Multi)TechID: StdNResSplitAC-45to55
 "HtgEIR" = 0   $ Msr (Multi)TechID: StdNResSplitAC-45to55
 "IndoorFanMode" = CONTINUOUS   $ IP Non-Tech
 "KT_TransferAir" = No   $ IP Non-Tech
 "Latitude" = 36.8   $ IP Non-Tech
 "LobbyWaiting_EWSF" = 0.5   $ IP Non-Tech
 "LobbyWaiting_LWSF" = 1.3   $ IP Non-Tech
 "Longitude" = 119.7   $ IP Non-Tech
 "LowSpdCapRatio" = 1   $ Msr (Multi)TechID: StdNResSplitAC-45to55
 "LowSpdCfmRatio" = 1   $ Msr (Multi)TechID: StdNResSplitAC-45to55
 "MZFanMechEff" = 0.58   $ IP Non-Tech
 "MZHasRetFan" = FALSE   $ IP Non-Tech
 "MZ_RFanWPerCfm" = 0.33   $ IP Non-Tech
 "MZ_SFanWPerCfm" = 0.75   $ IP Non-Tech
 "MZ_SupFanStatic" = 2.25   $ IP Non-Tech
 "MaxOAFrac" = 1   $ Msr (Multi)TechID: StdNResSplitAC-45to55
 "MaxSupT_MZ" = 100   $ IP Non-Tech
 "MaxSupT_SZ" = 100   $ IP Non-Tech
 "MaxSupT_TU" = 90   $ IP Non-Tech
 "MechElecRoom_EWSF" = 0.2   $ IP Non-Tech
 "MechElecRoom_LWSF" = 0.7   $ IP Non-Tech
 "MinCfmPerSF" = 0.4   $ IP Non-Tech
 "MinSupT" = 55   $ IP Non-Tech
 "NumStages" = 1   $ Msr (Multi)TechID: StdNResSplitAC-45to55
 "OccCoolT" = 76   $ IP Non-Tech
 "OccHeatT" = 72   $ IP Non-Tech
 "OfficeOpen_EWSF" = 1.5   $ IP Non-Tech
 "OfficeOpen_LWSF" = 1.1   $ IP Non-Tech
 "OfficeSmall_EWSF" = 1.5   $ IP Non-Tech
 "OfficeSmall_LWSF" = 1.3   $ IP Non-Tech
 "PkgDxVintEconoFlag" = 0   $ IP Non-Tech
 "Restroom_EWSF" = 0.2   $ IP Non-Tech
 "Restroom_LWSF" = 0.6   $ IP Non-Tech
 "SEER" = 14   $ Msr (Multi)TechID: StdNResSplitAC-45to55
 "SZFanMechEff" = 0.58   $ IP Non-Tech
 "SZHasRetFan" = FALSE   $ IP Non-Tech
 "SZ_Is_2Spd" = FALSE   $ IP Non-Tech
 "SZ_SFanWPerCfm" = 0.46   $ IP Non-Tech
 "SZ_SupFanStatic" = 0.75   $ IP Non-Tech
 "Sector" = Any   $ Msr (Multi)TechID: StdNResSplitAC-45to55
 "StorageSmlCond_EWSF" = 0.2   $ IP Non-Tech
 "StorageSmlCond_LWSF" = 0.6   $ IP Non-Tech
 "SubType" = AC   $ Msr (Multi)TechID: StdNResSplitAC-45to55
 "T24GlzTbl" = CZTbl   $ IP Non-Tech
 "TermUnitFanMechEff" = 1   $ IP Non-Tech
 "TermUnitFanMode" = INTERMITTENT   $ IP Non-Tech
 "TotCoolCap" = 52519.36364   $ Msr (Multi)TechID: StdNResSplitAC-45to55
 "TwrSetpt" = 82.7   $ IP Non-Tech
 "UnocCoolT" = 86   $ IP Non-Tech
 "UnocHeatT" = 62   $ IP Non-Tech
 "UseEconoVintApplic" = FALSE   $ Msr (Multi)TechID: StdNResSplitAC-45to55
 "WlhpVintEconoFlag" = 0   $ IP Non-Tech
 "DuctDT" = 1   $ IP Tech: ComDuctInsul-1
 "DuctAirLoss" = 0   $ IP Tech: ComDuctLeak-0
 "DuctLossOAFrac" = 0   $ IP Tech: ComDuctLeak-0
 "ComRoofInsCalc" = FromUo   $ IP Tech: ComRoofIns-WFrm-0.04
 "ComRoofInsR" = -999   $ IP Tech: ComRoofIns-WFrm-0.04
 "ComRoofUo" = 0.04   $ IP Tech: ComRoofIns-WFrm-0.04
 "ComEWInsCalc" = FromUo   $ IP Tech: ComWallIns-WFrm-0.06
 "ComEWInsR" = -999   $ IP Tech: ComWallIns-WFrm-0.06
 "ComEWUo" = 0.06   $ IP Tech: ComWallIns-WFrm-0.06
 "ComN_SHGC" = 0.47   $ IP Tech: NResWin-ComN-0.47-0.47
 "ComN_UFactor" = 0.47   $ IP Tech: NResWin-ComN-0.47-0.47
 "ComN_VisTrans" = 0.75   $ IP Tech: NResWin-ComN-0.47-0.47
 "ComN_WinCode" = G2633   $ IP Tech: NResWin-ComN-0.47-0.47
 "ComN_WinFrmFrac" = 0.17   $ IP Tech: NResWin-ComN-0.47-0.47
 "ComN_WinFrmU" = 0.3   $ IP Tech: NResWin-ComN-0.47-0.47
 "ComO_SHGC" = 0.31   $ IP Tech: NResWin-ComO-0.47-0.31
 "ComO_UFactor" = 0.47   $ IP Tech: NResWin-ComO-0.47-0.31
 "ComO_VisTrans" = 0.44   $ IP Tech: NResWin-ComO-0.47-0.31
 "ComO_WinCode" = G2637   $ IP Tech: NResWin-ComO-0.47-0.31
 "ComO_WinFrmFrac" = 0.17   $ IP Tech: NResWin-ComO-0.47-0.31
 "ComO_WinFrmU" = 0.3   $ IP Tech: NResWin-ComO-0.47-0.31
 "LtgMsrApplic" = ALL   $ IP Tech: NonResLtgRefPre
 "LtgSav_CFL" = 0   $ IP Tech: NonResLtgRefPre
 "LtgSav_EX" = 0   $ IP Tech: NonResLtgRefPre
 "LtgSav_HB" = 0   $ IP Tech: NonResLtgRefPre
 "LtgSav_LF" = 0   $ IP Tech: NonResLtgRefPre
 "LtgSav_SP" = 0   $ IP Tech: NonResLtgRefPre
 "CEIR_fPLR" = PSZ65to135_CEIR_fPLR   $ IP Tech: PkgAC1SpH-65to135-E11
 "CLoss_fPLR" = PSZ65to135_CLoss_fPLR   $ IP Tech: PkgAC1SpH-65to135-E11
 "COP" = -1   $ IP Tech: PkgAC1SpH-65to135-E11
 "HtgFuel" = Gas   $ IP Tech: PkgAC1SpH-65to135-E11
 "IEER" = 13.35   $ IP Tech: PkgAC1SpH-65to135-E11
 "NominalCap" = 15   $ IP Tech: PkgAC1SpH-65to135-E11
 "RatedEER" = 11   $ IP Tech: PkgAC1SpH-65to135-E11
 "RatedSupMtrClass" = HiEff   $ IP Tech: PkgAC1SpH-65to135-E11
 "SizeRange" = 65to135   $ IP Tech: PkgAC1SpH-65to135-E11
 "SupMotEff" = 0.84   $ IP Tech: PkgAC1SpH-65to135-E11
 "Tier" = 0   $ IP Tech: PkgAC1SpH-65to135-E11
 "FanPwrMult" = 1   $ IP Tech: PkgFurn-0.80AFUE
 "FurnAFUE" = 0.8   $ IP Tech: PkgFurn-0.80AFUE
 "FurnEt" = 0.82   $ IP Tech: PkgFurn-0.80AFUE
 "FurnaceAuxKW" = 0.1   $ IP Tech: PkgFurn-0.80AFUE
 "HIR_fPLR" = Furnace-HIR-fPLR   $ IP Tech: PkgFurn-0.80AFUE
 "VSM" = FALSE   $ IP Tech: PkgFurn-0.80AFUE
 "BFMult" = 1   $ IP Tech: RefgChg-NRes-Std
 "CoolEirMult" = 1   $ IP Tech: RefgChg-NRes-Std
 "SensCoolCapMult" = 1   $ IP Tech: RefgChg-NRes-Std
 "TotCoolCapMult" = 1   $ IP Tech: RefgChg-NRes-Std
 "AltAdjFactor" = 1.012438   $ Sizing
 "CAssFlo_L_Break_CZn" = 512.5272   $ Sizing
 "CAssFlo_L_CompDC_CZn" = 158.3258   $ Sizing
 "CAssFlo_L_Conf_CZn" = 294.2572   $ Sizing
 "CAssFlo_L_CopyRm_CZn" = 106.3953   $ Sizing
 "CAssFlo_L_Hall_EZn" = 123.225   $ Sizing
 "CAssFlo_L_Hall_NZn" = 81.58449   $ Sizing
 "CAssFlo_L_Hall_SZn" = 121.4384   $ Sizing
 "CAssFlo_L_Hall_WZn" = 134.5167   $ Sizing
 "CAssFlo_L_LobWait_EZn" = 289.8997   $ Sizing
 "CAssFlo_L_LobWait_NZn" = 216.3176   $ Sizing
 "CAssFlo_L_LobWait_SZn" = 301.5123   $ Sizing
 "CAssFlo_L_LobWait_WZn" = 342.3109   $ Sizing
 "CAssFlo_L_MechElec_CZn" = 90.91489   $ Sizing
 "CAssFlo_L_OfficeOpn_CZn" = 74.07016   $ Sizing
 "CAssFlo_L_OfficeOpn_EZn" = 520.7916   $ Sizing
 "CAssFlo_L_OfficeOpn_NZn" = 414.1342   $ Sizing
 "CAssFlo_L_OfficeOpn_SZn" = 518.2426   $ Sizing
 "CAssFlo_L_OfficeOpn_WZn" = 582.9722   $ Sizing
 "CAssFlo_L_OfficeSm_EZn" = 438.7118   $ Sizing
 "CAssFlo_L_OfficeSm_NZn" = 328.4054   $ Sizing
 "CAssFlo_L_OfficeSm_SZn" = 442.2635   $ Sizing
 "CAssFlo_L_OfficeSm_WZn" = 496.3376   $ Sizing
 "CAssFlo_L_Restrm_CZn" = 97.08891   $ Sizing
 "CAssFlo_L_StorSm_CZn" = 40.53861   $ Sizing
 "CAssFlo_L_StorSm_EZn" = 122.2524   $ Sizing
 "CAssFlo_L_StorSm_NZn" = 84.98122   $ Sizing
 "CAssFlo_L_StorSm_SZn" = 121.1812   $ Sizing
 "CAssFlo_L_StorSm_WZn" = 132.3691   $ Sizing
 "CAssFlo_T_Conf_CZn" = 283.0169   $ Sizing
 "CAssFlo_T_Hall_EZn" = 136.0474   $ Sizing
 "CAssFlo_T_Hall_NZn" = 87.70467   $ Sizing
 "CAssFlo_T_Hall_SZn" = 133.9433   $ Sizing
 "CAssFlo_T_Hall_WZn" = 147.3699   $ Sizing
 "CAssFlo_T_OfficeOpn_CZn" = 70.28455   $ Sizing
 "CAssFlo_T_OfficeOpn_EZn" = 551.558   $ Sizing
 "CAssFlo_T_OfficeOpn_NZn" = 428.8149   $ Sizing
 "CAssFlo_T_OfficeOpn_SZn" = 552.6293   $ Sizing
 "CAssFlo_T_OfficeOpn_WZn" = 603.38   $ Sizing
 "CAssFlo_T_OfficeSm_EZn" = 467.4715   $ Sizing
 "CAssFlo_T_OfficeSm_NZn" = 344.0374   $ Sizing
 "CAssFlo_T_OfficeSm_SZn" = 472.3203   $ Sizing
 "CAssFlo_T_OfficeSm_WZn" = 515.0419   $ Sizing
 "CAssFlo_T_Restrm_CZn" = 137.6473   $ Sizing
 "CAssFlo_T_StorSm_EZn" = 141.2752   $ Sizing
 "CAssFlo_T_StorSm_NZn" = 96.90195   $ Sizing
 "CAssFlo_T_StorSm_SZn" = 140.2731   $ Sizing
 "CAssFlo_T_StorSm_WZn" = 155.9632   $ Sizing
 "CHRtFlo_Sys_L_Break_C" = 512.5272   $ Sizing
 "CHRtFlo_Sys_L_CompDC_C" = 177.9506   $ Sizing
 "CHRtFlo_Sys_L_Conf_C" = 294.2572   $ Sizing
 "CHRtFlo_Sys_L_CopyRm_C" = 106.3953   $ Sizing
 "CHRtFlo_Sys_L_Hall_E" = 142.7699   $ Sizing
 "CHRtFlo_Sys_L_Hall_N" = 81.58449   $ Sizing
 "CHRtFlo_Sys_L_Hall_S" = 140.5493   $ Sizing
 "CHRtFlo_Sys_L_Hall_W" = 141.5706   $ Sizing
 "CHRtFlo_Sys_L_LobWait_E" = 330.2563   $ Sizing
 "CHRtFlo_Sys_L_LobWait_N" = 216.3176   $ Sizing
 "CHRtFlo_Sys_L_LobWait_S" = 323.6601   $ Sizing
 "CHRtFlo_Sys_L_LobWait_W" = 342.3109   $ Sizing
 "CHRtFlo_Sys_L_MechElec_C" = 113.8317   $ Sizing
 "CHRtFlo_Sys_L_OfficeOpn_C" = 87.12777   $ Sizing
 "CHRtFlo_Sys_L_OfficeOpn_E" = 593.5457   $ Sizing
 "CHRtFlo_Sys_L_OfficeOpn_N" = 414.1342   $ Sizing
 "CHRtFlo_Sys_L_OfficeOpn_S" = 561.0504   $ Sizing
 "CHRtFlo_Sys_L_OfficeOpn_W" = 582.9722   $ Sizing
 "CHRtFlo_Sys_L_OfficeSm_E" = 509.5673   $ Sizing
 "CHRtFlo_Sys_L_OfficeSm_N" = 328.4054   $ Sizing
 "CHRtFlo_Sys_L_OfficeSm_S" = 494.7491   $ Sizing
 "CHRtFlo_Sys_L_OfficeSm_W" = 503.4442   $ Sizing
 "CHRtFlo_Sys_L_Restrm_C" = 109.6855   $ Sizing
 "CHRtFlo_Sys_L_StorSm_C" = 46.66732   $ Sizing
 "CHRtFlo_Sys_L_StorSm_E" = 140.0119   $ Sizing
 "CHRtFlo_Sys_L_StorSm_N" = 84.98122   $ Sizing
 "CHRtFlo_Sys_L_StorSm_S" = 133.821   $ Sizing
 "CHRtFlo_Sys_L_StorSm_W" = 132.3691   $ Sizing
 "CHRtFlo_Sys_T_Conf_C" = 283.0169   $ Sizing
 "CHRtFlo_Sys_T_Hall_E" = 146.4978   $ Sizing
 "CHRtFlo_Sys_T_Hall_N" = 87.70467   $ Sizing
 "CHRtFlo_Sys_T_Hall_S" = 146.2112   $ Sizing
 "CHRtFlo_Sys_T_Hall_W" = 147.3699   $ Sizing
 "CHRtFlo_Sys_T_OfficeOpn_C" = 75.99194   $ Sizing
 "CHRtFlo_Sys_T_OfficeOpn_E" = 573.1299   $ Sizing
 "CHRtFlo_Sys_T_OfficeOpn_N" = 428.8149   $ Sizing
 "CHRtFlo_Sys_T_OfficeOpn_S" = 567.6688   $ Sizing
 "CHRtFlo_Sys_T_OfficeOpn_W" = 603.3799   $ Sizing
 "CHRtFlo_Sys_T_OfficeSm_E" = 497.2003   $ Sizing
 "CHRtFlo_Sys_T_OfficeSm_N" = 344.0374   $ Sizing
 "CHRtFlo_Sys_T_OfficeSm_S" = 504.2386   $ Sizing
 "CHRtFlo_Sys_T_OfficeSm_W" = 515.0419   $ Sizing
 "CHRtFlo_Sys_T_Restrm_C" = 148.8878   $ Sizing
 "CHRtFlo_Sys_T_StorSm_E" = 146.8015   $ Sizing
 "CHRtFlo_Sys_T_StorSm_N" = 96.90195   $ Sizing
 "CHRtFlo_Sys_T_StorSm_S" = 142.8366   $ Sizing
 "CHRtFlo_Sys_T_StorSm_W" = 155.9632   $ Sizing
 "CRtdFlo_Sys_L_Break_C" = 512.5272   $ Sizing
 "CRtdFlo_Sys_L_CompDC_C" = 158.3258   $ Sizing
 "CRtdFlo_Sys_L_Conf_C" = 294.2572   $ Sizing
 "CRtdFlo_Sys_L_CopyRm_C" = 106.3953   $ Sizing
 "CRtdFlo_Sys_L_Hall_E" = 123.225   $ Sizing
 "CRtdFlo_Sys_L_Hall_N" = 81.58449   $ Sizing
 "CRtdFlo_Sys_L_Hall_S" = 121.4384   $ Sizing
 "CRtdFlo_Sys_L_Hall_W" = 134.5167   $ Sizing
 "CRtdFlo_Sys_L_LobWait_E" = 289.8997   $ Sizing
 "CRtdFlo_Sys_L_LobWait_N" = 216.3176   $ Sizing
 "CRtdFlo_Sys_L_LobWait_S" = 301.5123   $ Sizing
 "CRtdFlo_Sys_L_LobWait_W" = 342.3109   $ Sizing
 "CRtdFlo_Sys_L_MechElec_C" = 90.91489   $ Sizing
 "CRtdFlo_Sys_L_OfficeOpn_C" = 74.07016   $ Sizing
 "CRtdFlo_Sys_L_OfficeOpn_E" = 520.7916   $ Sizing
 "CRtdFlo_Sys_L_OfficeOpn_N" = 414.1342   $ Sizing
 "CRtdFlo_Sys_L_OfficeOpn_S" = 518.2426   $ Sizing
 "CRtdFlo_Sys_L_OfficeOpn_W" = 582.9722   $ Sizing
 "CRtdFlo_Sys_L_OfficeSm_E" = 438.7118   $ Sizing
 "CRtdFlo_Sys_L_OfficeSm_N" = 328.4054   $ Sizing
 "CRtdFlo_Sys_L_OfficeSm_S" = 442.2635   $ Sizing
 "CRtdFlo_Sys_L_OfficeSm_W" = 496.3376   $ Sizing
 "CRtdFlo_Sys_L_Restrm_C" = 97.08891   $ Sizing
 "CRtdFlo_Sys_L_StorSm_C" = 40.53861   $ Sizing
 "CRtdFlo_Sys_L_StorSm_E" = 122.2524   $ Sizing
 "CRtdFlo_Sys_L_StorSm_N" = 84.98122   $ Sizing
 "CRtdFlo_Sys_L_StorSm_S" = 121.1812   $ Sizing
 "CRtdFlo_Sys_L_StorSm_W" = 132.3691   $ Sizing
 "CRtdFlo_Sys_T_Conf_C" = 283.0169   $ Sizing
 "CRtdFlo_Sys_T_Hall_E" = 136.0474   $ Sizing
 "CRtdFlo_Sys_T_Hall_N" = 87.70467   $ Sizing
 "CRtdFlo_Sys_T_Hall_S" = 133.9433   $ Sizing
 "CRtdFlo_Sys_T_Hall_W" = 147.3699   $ Sizing
 "CRtdFlo_Sys_T_OfficeOpn_C" = 70.28455   $ Sizing
 "CRtdFlo_Sys_T_OfficeOpn_E" = 551.558   $ Sizing
 "CRtdFlo_Sys_T_OfficeOpn_N" = 428.8149   $ Sizing
 "CRtdFlo_Sys_T_OfficeOpn_S" = 552.6293   $ Sizing
 "CRtdFlo_Sys_T_OfficeOpn_W" = 603.3799   $ Sizing
 "CRtdFlo_Sys_T_OfficeSm_E" = 467.4715   $ Sizing
 "CRtdFlo_Sys_T_OfficeSm_N" = 344.0374   $ Sizing
 "CRtdFlo_Sys_T_OfficeSm_S" = 472.3203   $ Sizing
 "CRtdFlo_Sys_T_OfficeSm_W" = 515.0419   $ Sizing
 "CRtdFlo_Sys_T_Restrm_C" = 137.6473   $ Sizing
 "CRtdFlo_Sys_T_StorSm_E" = 141.2752   $ Sizing
 "CRtdFlo_Sys_T_StorSm_N" = 96.90195   $ Sizing
 "CRtdFlo_Sys_T_StorSm_S" = 140.2731   $ Sizing
 "CRtdFlo_Sys_T_StorSm_W" = 155.9632   $ Sizing
 "CSupFlo_Sys_L_Break_C" = 512.5272   $ Sizing
 "CSupFlo_Sys_L_CompDC_C" = 158.3258   $ Sizing
 "CSupFlo_Sys_L_Conf_C" = 294.2572   $ Sizing
 "CSupFlo_Sys_L_CopyRm_C" = 106.3953   $ Sizing
 "CSupFlo_Sys_L_Hall_E" = 123.225   $ Sizing
 "CSupFlo_Sys_L_Hall_N" = 81.58449   $ Sizing
 "CSupFlo_Sys_L_Hall_S" = 121.4384   $ Sizing
 "CSupFlo_Sys_L_Hall_W" = 134.5167   $ Sizing
 "CSupFlo_Sys_L_LobWait_E" = 289.8997   $ Sizing
 "CSupFlo_Sys_L_LobWait_N" = 216.3176   $ Sizing
 "CSupFlo_Sys_L_LobWait_S" = 301.5123   $ Sizing
 "CSupFlo_Sys_L_LobWait_W" = 342.3109   $ Sizing
 "CSupFlo_Sys_L_MechElec_C" = 90.91489   $ Sizing
 "CSupFlo_Sys_L_OfficeOpn_C" = 74.07016   $ Sizing
 "CSupFlo_Sys_L_OfficeOpn_E" = 520.7916   $ Sizing
 "CSupFlo_Sys_L_OfficeOpn_N" = 414.1342   $ Sizing
 "CSupFlo_Sys_L_OfficeOpn_S" = 518.2426   $ Sizing
 "CSupFlo_Sys_L_OfficeOpn_W" = 582.9722   $ Sizing
 "CSupFlo_Sys_L_OfficeSm_E" = 438.7118   $ Sizing
 "CSupFlo_Sys_L_OfficeSm_N" = 328.4054   $ Sizing
 "CSupFlo_Sys_L_OfficeSm_S" = 442.2635   $ Sizing
 "CSupFlo_Sys_L_OfficeSm_W" = 496.3376   $ Sizing
 "CSupFlo_Sys_L_Restrm_C" = 97.08891   $ Sizing
 "CSupFlo_Sys_L_StorSm_C" = 40.53861   $ Sizing
 "CSupFlo_Sys_L_StorSm_E" = 122.2524   $ Sizing
 "CSupFlo_Sys_L_StorSm_N" = 84.98122   $ Sizing
 "CSupFlo_Sys_L_StorSm_S" = 121.1812   $ Sizing
 "CSupFlo_Sys_L_StorSm_W" = 132.3691   $ Sizing
 "CSupFlo_Sys_T_Conf_C" = 283.0169   $ Sizing
 "CSupFlo_Sys_T_Hall_E" = 136.0474   $ Sizing
 "CSupFlo_Sys_T_Hall_N" = 87.70467   $ Sizing
 "CSupFlo_Sys_T_Hall_S" = 133.9433   $ Sizing
 "CSupFlo_Sys_T_Hall_W" = 147.3699   $ Sizing
 "CSupFlo_Sys_T_OfficeOpn_C" = 70.28455   $ Sizing
 "CSupFlo_Sys_T_OfficeOpn_E" = 551.558   $ Sizing
 "CSupFlo_Sys_T_OfficeOpn_N" = 428.8149   $ Sizing
 "CSupFlo_Sys_T_OfficeOpn_S" = 552.6293   $ Sizing
 "CSupFlo_Sys_T_OfficeOpn_W" = 603.3799   $ Sizing
 "CSupFlo_Sys_T_OfficeSm_E" = 467.4715   $ Sizing
 "CSupFlo_Sys_T_OfficeSm_N" = 344.0374   $ Sizing
 "CSupFlo_Sys_T_OfficeSm_S" = 472.3203   $ Sizing
 "CSupFlo_Sys_T_OfficeSm_W" = 515.0419   $ Sizing
 "CSupFlo_Sys_T_Restrm_C" = 137.6473   $ Sizing
 "CSupFlo_Sys_T_StorSm_E" = 141.2752   $ Sizing
 "CSupFlo_Sys_T_StorSm_N" = 96.90195   $ Sizing
 "CSupFlo_Sys_T_StorSm_S" = 140.2731   $ Sizing
 "CSupFlo_Sys_T_StorSm_W" = 155.9632   $ Sizing
 "ClCap_Sys_L_Break_C" = 17356.48   $ Sizing
 "ClCap_Sys_L_CompDC_C" = 5361.624   $ Sizing
 "ClCap_Sys_L_Conf_C" = 12682.57   $ Sizing
 "ClCap_Sys_L_CopyRm_C" = 3603.024   $ Sizing
 "ClCap_Sys_L_Hall_E" = 4172.954   $ Sizing
 "ClCap_Sys_L_Hall_N" = 2762.818   $ Sizing
 "ClCap_Sys_L_Hall_S" = 4112.451   $ Sizing
 "ClCap_Sys_L_Hall_W" = 4555.342   $ Sizing
 "ClCap_Sys_L_LobWait_E" = 9817.31   $ Sizing
 "ClCap_Sys_L_LobWait_N" = 7325.487   $ Sizing
 "ClCap_Sys_L_LobWait_S" = 10210.56   $ Sizing
 "ClCap_Sys_L_LobWait_W" = 11592.19   $ Sizing
 "ClCap_Sys_L_MechElec_C" = 3078.787   $ Sizing
 "ClCap_Sys_L_OfficeOpn_C" = 2508.349   $ Sizing
 "ClCap_Sys_L_OfficeOpn_E" = 17636.35   $ Sizing
 "ClCap_Sys_L_OfficeOpn_N" = 14024.45   $ Sizing
 "ClCap_Sys_L_OfficeOpn_S" = 17550.03   $ Sizing
 "ClCap_Sys_L_OfficeOpn_W" = 19742.06   $ Sizing
 "ClCap_Sys_L_OfficeSm_E" = 14856.76   $ Sizing
 "ClCap_Sys_L_OfficeSm_N" = 11121.29   $ Sizing
 "ClCap_Sys_L_OfficeSm_S" = 14977.03   $ Sizing
 "ClCap_Sys_L_OfficeSm_W" = 16808.23   $ Sizing
 "ClCap_Sys_L_Restrm_C" = 3287.868   $ Sizing
 "ClCap_Sys_L_StorSm_C" = 1372.82   $ Sizing
 "ClCap_Sys_L_StorSm_E" = 4140.016   $ Sizing
 "ClCap_Sys_L_StorSm_N" = 2877.847   $ Sizing
 "ClCap_Sys_L_StorSm_S" = 4103.74   $ Sizing
 "ClCap_Sys_L_StorSm_W" = 4482.615   $ Sizing
 "ClCap_Sys_T_Conf_C" = 12198.11   $ Sizing
 "ClCap_Sys_T_Hall_E" = 4607.177   $ Sizing
 "ClCap_Sys_T_Hall_N" = 2970.075   $ Sizing
 "ClCap_Sys_T_Hall_S" = 4535.922   $ Sizing
 "ClCap_Sys_T_Hall_W" = 4990.61   $ Sizing
 "ClCap_Sys_T_OfficeOpn_C" = 2380.151   $ Sizing
 "ClCap_Sys_T_OfficeOpn_E" = 18678.24   $ Sizing
 "ClCap_Sys_T_OfficeOpn_N" = 14521.6   $ Sizing
 "ClCap_Sys_T_OfficeOpn_S" = 18714.52   $ Sizing
 "ClCap_Sys_T_OfficeOpn_W" = 20433.16   $ Sizing
 "ClCap_Sys_T_OfficeSm_E" = 15830.69   $ Sizing
 "ClCap_Sys_T_OfficeSm_N" = 11650.65   $ Sizing
 "ClCap_Sys_T_OfficeSm_S" = 15994.89   $ Sizing
 "ClCap_Sys_T_OfficeSm_W" = 17441.64   $ Sizing
 "ClCap_Sys_T_Restrm_C" = 4661.357   $ Sizing
 "ClCap_Sys_T_StorSm_E" = 4784.213   $ Sizing
 "ClCap_Sys_T_StorSm_N" = 3281.536   $ Sizing
 "ClCap_Sys_T_StorSm_S" = 4750.28   $ Sizing
 "ClCap_Sys_T_StorSm_W" = 5281.616   $ Sizing
 "HtCap_Sys_L_Break_C" = -28499.97   $ Sizing
 "HtCap_Sys_L_CompDC_C" = -6315.729   $ Sizing
 "HtCap_Sys_L_Conf_C" = -17018.3   $ Sizing
 "HtCap_Sys_L_CopyRm_C" = -5885.911   $ Sizing
 "HtCap_Sys_L_Hall_E" = -5020.144   $ Sizing
 "HtCap_Sys_L_Hall_N" = -3044.651   $ Sizing
 "HtCap_Sys_L_Hall_S" = -4792.946   $ Sizing
 "HtCap_Sys_L_Hall_W" = -4880.062   $ Sizing
 "HtCap_Sys_L_LobWait_E" = -12130.97   $ Sizing
 "HtCap_Sys_L_LobWait_N" = -9178.302   $ Sizing
 "HtCap_Sys_L_LobWait_S" = -11897.98   $ Sizing
 "HtCap_Sys_L_LobWait_W" = -12648.07   $ Sizing
 "HtCap_Sys_L_MechElec_C" = -4397.622   $ Sizing
 "HtCap_Sys_L_OfficeOpn_C" = -3270.563   $ Sizing
 "HtCap_Sys_L_OfficeOpn_E" = -20866.41   $ Sizing
 "HtCap_Sys_L_OfficeOpn_N" = -16338.22   $ Sizing
 "HtCap_Sys_L_OfficeOpn_S" = -19506.62   $ Sizing
 "HtCap_Sys_L_OfficeOpn_W" = -20807.67   $ Sizing
 "HtCap_Sys_L_OfficeSm_E" = -17404.93   $ Sizing
 "HtCap_Sys_L_OfficeSm_N" = -12504.86   $ Sizing
 "HtCap_Sys_L_OfficeSm_S" = -16542.47   $ Sizing
 "HtCap_Sys_L_OfficeSm_W" = -17334.38   $ Sizing
 "HtCap_Sys_L_Restrm_C" = -3762.954   $ Sizing
 "HtCap_Sys_L_StorSm_C" = -1823.927   $ Sizing
 "HtCap_Sys_L_StorSm_E" = -5074.585   $ Sizing
 "HtCap_Sys_L_StorSm_N" = -3561.77   $ Sizing
 "HtCap_Sys_L_StorSm_S" = -4848.644   $ Sizing
 "HtCap_Sys_L_StorSm_W" = -4893.461   $ Sizing
 "HtCap_Sys_T_Conf_C" = -16979.71   $ Sizing
 "HtCap_Sys_T_Hall_E" = -5584.992   $ Sizing
 "HtCap_Sys_T_Hall_N" = -3726.23   $ Sizing
 "HtCap_Sys_T_Hall_S" = -5590.343   $ Sizing
 "HtCap_Sys_T_Hall_W" = -5642.489   $ Sizing
 "HtCap_Sys_T_OfficeOpn_C" = -3235.599   $ Sizing
 "HtCap_Sys_T_OfficeOpn_E" = -22468.42   $ Sizing
 "HtCap_Sys_T_OfficeOpn_N" = -18404.92   $ Sizing
 "HtCap_Sys_T_OfficeOpn_S" = -22199.72   $ Sizing
 "HtCap_Sys_T_OfficeOpn_W" = -23864.67   $ Sizing
 "HtCap_Sys_T_OfficeSm_E" = -18454.24   $ Sizing
 "HtCap_Sys_T_OfficeSm_N" = -14397.92   $ Sizing
 "HtCap_Sys_T_OfficeSm_S" = -19021.15   $ Sizing
 "HtCap_Sys_T_OfficeSm_W" = -19709.13   $ Sizing
 "HtCap_Sys_T_Restrm_C" = -5639.841   $ Sizing
 "HtCap_Sys_T_StorSm_E" = -5973.279   $ Sizing
 "HtCap_Sys_T_StorSm_N" = -4578.227   $ Sizing
 "HtCap_Sys_T_StorSm_S" = -5771.67   $ Sizing
 "HtCap_Sys_T_StorSm_W" = -6400.206   $ Sizing
..

##include Templates\OfS_DX_SZ.inp
END ..
COMPUTE ..
STOP ..
