INPUT ..

##fileprefix C:\Users\jglasskatz\MASControl3\
##set1 IsSizing FALSE
##set1 CoolType WLHP
##set1 HeatType HEAT-PUMP
##set1 EU_HrRepVar 1
##set1 BldgVint 1996
##set1 BldgLoc CZ01

 ##set1 mHW_FlowCtrl Const   $ IP Tech: HwFlowCtrlCst
 ##set1 mBlrIsCond FALSE   $ IP Tech: WBlr-lt300-80p0AF
 ##set1 mWLHP_FlowCtrl Const   $ IP Tech: WlhpFlowCtrlCst

PARAMETER
 "AltFactor" = 1.00753   $ IP Non-Tech
 "BldgEconoFlag" = 1   $ IP Non-Tech
 "BlrPrimLp" = WLHPCircLoop   $ IP Non-Tech
 "Break_EWSF" = 1   $ IP Non-Tech
 "Break_LWSF" = 1.1   $ IP Non-Tech
 "CDD_DBHi10" = 65   $ IP Non-Tech
 "CDD_DBHi7" = 68   $ IP Non-Tech
 "CDD_DBHi8" = 66   $ IP Non-Tech
 "CDD_DBHi9" = 77   $ IP Non-Tech
 "CDD_DBRange10" = 17   $ IP Non-Tech
 "CDD_DBRange7" = 11   $ IP Non-Tech
 "CDD_DBRange8" = 10   $ IP Non-Tech
 "CDD_DBRange9" = 29   $ IP Non-Tech
 "CDD_Day10" = 15   $ IP Non-Tech
 "CDD_Day7" = 16   $ IP Non-Tech
 "CDD_Day8" = 20   $ IP Non-Tech
 "CDD_Day9" = 17   $ IP Non-Tech
 "CDD_HrHi10" = 12   $ IP Non-Tech
 "CDD_HrHi7" = 12   $ IP Non-Tech
 "CDD_HrHi8" = 13   $ IP Non-Tech
 "CDD_HrHi9" = 17   $ IP Non-Tech
 "CDD_HrLo10" = 6   $ IP Non-Tech
 "CDD_HrLo7" = 3   $ IP Non-Tech
 "CDD_HrLo8" = 8   $ IP Non-Tech
 "CDD_HrLo9" = 4   $ IP Non-Tech
 "CDD_WB10" = 57.53039551   $ IP Non-Tech
 "CDD_WB7" = 59.29250717   $ IP Non-Tech
 "CDD_WB8" = 60.75350189   $ IP Non-Tech
 "CDD_WB9" = 61.08643341   $ IP Non-Tech
 "CZ_Category" = Tem   $ IP Non-Tech
 "ChwVintEconoFlag" = 1   $ IP Non-Tech
 "CompRoomData_EWSF" = 5.25   $ IP Non-Tech
 "CompRoomData_LWSF" = 1.2   $ IP Non-Tech
 "Conference_EWSF" = 1.05   $ IP Non-Tech
 "Conference_LWSF" = 1.4   $ IP Non-Tech
 "CoolSetT" = 45   $ IP Non-Tech
 "CoolType" = WLHP   $ IP Non-Tech
 "CopyRoom_EWSF" = 1.575   $ IP Non-Tech
 "CopyRoom_LWSF" = 1.3   $ IP Non-Tech
 "CwPipeHead" = 40   $ IP Non-Tech
 "DesCoolT" = 75   $ IP Non-Tech
 "DesHeatT" = 73   $ IP Non-Tech
 "EconoEnthLimit" = 28   $ IP Non-Tech
 "EconoTempLimit" = 70   $ IP Non-Tech
 "Elevation" = 203   $ IP Non-Tech
 "HDD_CloudAmt1" = 0   $ IP Non-Tech
 "HDD_DBHi1" = 53   $ IP Non-Tech
 "HDD_DBRange1" = 20   $ IP Non-Tech
 "HDD_Day1" = 15   $ IP Non-Tech
 "HDD_HrHi1" = 14   $ IP Non-Tech
 "HDD_HrLo1" = 6   $ IP Non-Tech
 "HDD_WB1" = 42.3   $ IP Non-Tech
 "HDD_WindSpd1" = 12.7   $ IP Non-Tech
 "Hall_EWSF" = 0.21   $ IP Non-Tech
 "Hall_LWSF" = 0.6   $ IP Non-Tech
 "HeatSrc" = HEAT-PUMP   $ IP Non-Tech
 "HeatSrcTU" = HEAT-PUMP   $ IP Non-Tech
 "HeatType" = WLHP   $ IP Non-Tech
 "HeatTypeTU" = HEAT-PUMP   $ IP Non-Tech
 "IndoorFanMode" = CONTINUOUS   $ IP Non-Tech
 "KT_TransferAir" = No   $ IP Non-Tech
 "Latitude" = 40.8   $ IP Non-Tech
 "LobbyWaiting_EWSF" = 0.5125   $ IP Non-Tech
 "LobbyWaiting_LWSF" = 1.3   $ IP Non-Tech
 "Longitude" = 124.2   $ IP Non-Tech
 "LtgMsrApplic" = ALL   $ Msr TechID: NonResLtgRefMsr-LF
 "LtgSav_CFL" = 0   $ Msr TechID: NonResLtgRefMsr-LF
 "LtgSav_EX" = 0   $ Msr TechID: NonResLtgRefMsr-LF
 "LtgSav_HB" = 0   $ Msr TechID: NonResLtgRefMsr-LF
 "LtgSav_LF" = 0.3   $ Msr TechID: NonResLtgRefMsr-LF
 "LtgSav_SP" = 0   $ Msr TechID: NonResLtgRefMsr-LF
 "MZFanMechEff" = 0.54   $ IP Non-Tech
 "MZHasRetFan" = FALSE   $ IP Non-Tech
 "MZ_RFanWPerCfm" = 0.33   $ IP Non-Tech
 "MZ_SFanWPerCfm" = 0.75   $ IP Non-Tech
 "MZ_SupFanStatic" = 0.75   $ IP Non-Tech
 "MaxSupT_MZ" = 90   $ IP Non-Tech
 "MaxSupT_SZ" = 90   $ IP Non-Tech
 "MaxSupT_TU" = 90   $ IP Non-Tech
 "MechElecRoom_EWSF" = 0.21   $ IP Non-Tech
 "MechElecRoom_LWSF" = 0.7   $ IP Non-Tech
 "MinCfmPerSF" = 0.4   $ IP Non-Tech
 "MinSupT" = 55   $ IP Non-Tech
 "NumBlrs" = 1   $ IP Non-Tech
 "OccCoolT" = 76   $ IP Non-Tech
 "OccHeatT" = 72   $ IP Non-Tech
 "OfficeOpen_EWSF" = 1.575   $ IP Non-Tech
 "OfficeOpen_LWSF" = 1.2   $ IP Non-Tech
 "OfficeSmall_EWSF" = 1.575   $ IP Non-Tech
 "OfficeSmall_LWSF" = 1.3   $ IP Non-Tech
 "PkgDxVintEconoFlag" = 0   $ IP Non-Tech
 "Restroom_EWSF" = 0.21   $ IP Non-Tech
 "Restroom_LWSF" = 0.6   $ IP Non-Tech
 "SZFanMechEff" = 0.54   $ IP Non-Tech
 "SZHasRetFan" = FALSE   $ IP Non-Tech
 "SZ_Is_2Spd" = FALSE   $ IP Non-Tech
 "SZ_SFanWPerCfm" = 0.46   $ IP Non-Tech
 "SZ_SupFanStatic" = 0.75   $ IP Non-Tech
 "StorageSmlCond_EWSF" = 0.21   $ IP Non-Tech
 "StorageSmlCond_LWSF" = 0.6   $ IP Non-Tech
 "T24GlzTbl" = CZTbl   $ IP Non-Tech
 "TermUnitFanMechEff" = 1   $ IP Non-Tech
 "TermUnitFanMode" = INTERMITTENT   $ IP Non-Tech
 "TermUnitFanWPerCfm" = 0.175   $ IP Non-Tech
 "TwrEIR" = 0.0329   $ IP Non-Tech
 "TwrPipeHead" = 15   $ IP Non-Tech
 "TwrSetpt" = 80   $ IP Non-Tech
 "TwrStaticHead" = 0   $ IP Non-Tech
 "UnocCoolT" = 86   $ IP Non-Tech
 "UnocHeatT" = 62   $ IP Non-Tech
 "WLHPLoopHeatSetpt" = 65   $ IP Non-Tech
 "WlhpVintEconoFlag" = 0   $ IP Non-Tech
 "EconoCtrl" = OA-TEMP   $ IP Tech: AirEcono-OAT-ByVint
 "MaxOAFrac" = 0.85   $ IP Tech: AirEcono-OAT-ByVint
 "UseEconoVintApplic" = TRUE   $ IP Tech: AirEcono-OAT-ByVint
 "DuctDT" = 1   $ IP Tech: ComDuctInsul-1
 "DuctAirLoss" = 0   $ IP Tech: ComDuctLeak-0
 "DuctLossOAFrac" = 0   $ IP Tech: ComDuctLeak-0
 "ComRoofInsCalc" = FromUo   $ IP Tech: ComRoofIns-WFrm-0.06
 "ComRoofInsR" = -999   $ IP Tech: ComRoofIns-WFrm-0.06
 "ComRoofUo" = 0.06   $ IP Tech: ComRoofIns-WFrm-0.06
 "ComEWInsCalc" = FromUo   $ IP Tech: ComWallIns-WFrm-0.08
 "ComEWInsR" = -999   $ IP Tech: ComWallIns-WFrm-0.08
 "ComEWUo" = 0.08   $ IP Tech: ComWallIns-WFrm-0.08
 "HW_FlowCtrl" = Const   $ IP Tech: HwFlowCtrlCst
 "HW_HdSensLoc" = AT-COILS   $ IP Tech: HwFlowCtrlCst
 "HW_HdSptCtrl" = FIXED   $ IP Tech: HwFlowCtrlCst
 "HWP_Encl" = Any   $ IP Tech: HwPumpMtrEff-HI
 "HWP_MotClass" = HI-EFF   $ IP Tech: HwPumpMtrEff-HI
 "HWP_MotHP" = Any   $ IP Tech: HwPumpMtrEff-HI
 "HWP_NEMA_DC" = Any   $ IP Tech: HwPumpMtrEff-HI
 "HWP_RPM" = Any   $ IP Tech: HwPumpMtrEff-HI
 "HWP_Volt" = Any   $ IP Tech: HwPumpMtrEff-HI
 "ComN_SHGC" = 0.77   $ IP Tech: NResWin-ComN-0.77-0.77
 "ComN_UFactor" = 0.77   $ IP Tech: NResWin-ComN-0.77-0.77
 "ComN_VisTrans" = 0.81   $ IP Tech: NResWin-ComN-0.77-0.77
 "ComN_WinCode" = G2000   $ IP Tech: NResWin-ComN-0.77-0.77
 "ComN_WinFrmFrac" = 0.17   $ IP Tech: NResWin-ComN-0.77-0.77
 "ComN_WinFrmU" = 1   $ IP Tech: NResWin-ComN-0.77-0.77
 "ComO_SHGC" = 0.5   $ IP Tech: NResWin-ComO-0.77-0.5
 "ComO_UFactor" = 0.77   $ IP Tech: NResWin-ComO-0.77-0.5
 "ComO_VisTrans" = 0.77   $ IP Tech: NResWin-ComO-0.77-0.5
 "ComO_WinCode" = G2630   $ IP Tech: NResWin-ComO-0.77-0.5
 "ComO_WinFrmFrac" = 0.17   $ IP Tech: NResWin-ComO-0.77-0.5
 "ComO_WinFrmU" = 1   $ IP Tech: NResWin-ComO-0.77-0.5
 "TwrFanCtrl" = TWO-SPEED-FAN   $ IP Tech: TwrFanCtrl-2sp
 "TFan_Encl" = Any   $ IP Tech: TwrFanMtrEff-HI
 "TFan_MotClass" = HI-EFF   $ IP Tech: TwrFanMtrEff-HI
 "TFan_MotHP" = Any   $ IP Tech: TwrFanMtrEff-HI
 "TFan_NEMA_DC" = Any   $ IP Tech: TwrFanMtrEff-HI
 "TFan_RPM" = Any   $ IP Tech: TwrFanMtrEff-HI
 "TFan_Volt" = Any   $ IP Tech: TwrFanMtrEff-HI
 "BlrCapRange" = lt300   $ IP Tech: WBlr-lt300-80p0AF
 "BlrDraftType" = FDr   $ IP Tech: WBlr-lt300-80p0AF
 "BlrEff" = 0.8   $ IP Tech: WBlr-lt300-80p0AF
 "BlrEffUnits" = AFUE   $ IP Tech: WBlr-lt300-80p0AF
 "BlrEt" = 0.805   $ IP Tech: WBlr-lt300-80p0AF
 "BlrFluid" = Wtr   $ IP Tech: WBlr-lt300-80p0AF
 "BlrIsCond" = FALSE   $ IP Tech: WBlr-lt300-80p0AF
 "BlrT" = 165   $ IP Tech: WBlr-lt300-80p0AF
 "COP47" = 4.813   $ IP Tech: WLHP1SpH-ge17-E12-C4.2
 "CfmPerBtuh" = 0.033333333   $ IP Tech: WLHP1SpH-ge17-E12-C4.2
 "CoilBF" = 0.15   $ IP Tech: WLHP1SpH-ge17-E12-C4.2
 "CoolingEIR" = 0.23327   $ IP Tech: WLHP1SpH-ge17-E12-C4.2
 "DXType" = WLHP   $ IP Tech: WLHP1SpH-ge17-E12-C4.2
 "EER" = 12   $ IP Tech: WLHP1SpH-ge17-E12-C4.2
 "FanWPerCfm" = 0.35   $ IP Tech: WLHP1SpH-ge17-E12-C4.2
 "HtCoolCapRatio" = 0.88   $ IP Tech: WLHP1SpH-ge17-E12-C4.2
 "HtgEIR" = 0.20776   $ IP Tech: WLHP1SpH-ge17-E12-C4.2
 "NumStages" = 1   $ IP Tech: WLHP1SpH-ge17-E12-C4.2
 "RatedSupMtrClass" = HiEff   $ IP Tech: WLHP1SpH-ge17-E12-C4.2
 "SubType" = 1SpH   $ IP Tech: WLHP1SpH-ge17-E12-C4.2
 "UnitCOP" = 4.2   $ IP Tech: WLHP1SpH-ge17-E12-C4.2
 "WLHP_FlowCtrl" = Const   $ IP Tech: WlhpFlowCtrlCst
 "WLHP_HdSensLoc" = AT-COILS   $ IP Tech: WlhpFlowCtrlCst
 "WLHP_HdSptCtrl" = FIXED   $ IP Tech: WlhpFlowCtrlCst
 "WLHP_Encl" = Any   $ IP Tech: WlhpPumpMtrEff-HI
 "WLHP_MotClass" = HI-EFF   $ IP Tech: WlhpPumpMtrEff-HI
 "WLHP_MotHP" = Any   $ IP Tech: WlhpPumpMtrEff-HI
 "WLHP_NEMA_DC" = Any   $ IP Tech: WlhpPumpMtrEff-HI
 "WLHP_RPM" = Any   $ IP Tech: WlhpPumpMtrEff-HI
 "WLHP_Volt" = Any   $ IP Tech: WlhpPumpMtrEff-HI
 "AltAdjFactor" = 1.007532   $ Sizing
 "CAssFlo_L_Break_CZn" = 286.2446   $ Sizing
 "CAssFlo_L_CompDC_CZn" = 172.7428   $ Sizing
 "CAssFlo_L_Conf_CZn" = 214.7375   $ Sizing
 "CAssFlo_L_CopyRm_CZn" = 67.28038   $ Sizing
 "CAssFlo_L_Hall_EZn" = 134.3239   $ Sizing
 "CAssFlo_L_Hall_NZn" = 99.3725   $ Sizing
 "CAssFlo_L_Hall_SZn" = 153.3927   $ Sizing
 "CAssFlo_L_Hall_WZn" = 136.0247   $ Sizing
 "CAssFlo_L_LobWait_EZn" = 321.2843   $ Sizing
 "CAssFlo_L_LobWait_NZn" = 209.1931   $ Sizing
 "CAssFlo_L_LobWait_SZn" = 357.5594   $ Sizing
 "CAssFlo_L_LobWait_WZn" = 315.6176   $ Sizing
 "CAssFlo_L_MechElec_CZn" = 72.94225   $ Sizing
 "CAssFlo_L_OfficeOpn_CZn" = 69.61613   $ Sizing
 "CAssFlo_L_OfficeOpn_EZn" = 626.3626   $ Sizing
 "CAssFlo_L_OfficeOpn_NZn" = 259.5616   $ Sizing
 "CAssFlo_L_OfficeOpn_SZn" = 641.1321   $ Sizing
 "CAssFlo_L_OfficeOpn_WZn" = 583.5922   $ Sizing
 "CAssFlo_L_OfficeSm_EZn" = 535.444   $ Sizing
 "CAssFlo_L_OfficeSm_NZn" = 225.4878   $ Sizing
 "CAssFlo_L_OfficeSm_SZn" = 570.296   $ Sizing
 "CAssFlo_L_OfficeSm_WZn" = 515.0889   $ Sizing
 "CAssFlo_L_Restrm_CZn" = 86.07105   $ Sizing
 "CAssFlo_L_StorSm_CZn" = 49.14645   $ Sizing
 "CAssFlo_L_StorSm_EZn" = 129.4684   $ Sizing
 "CAssFlo_L_StorSm_NZn" = 112.7862   $ Sizing
 "CAssFlo_L_StorSm_SZn" = 142.095   $ Sizing
 "CAssFlo_L_StorSm_WZn" = 124.758   $ Sizing
 "CAssFlo_T_Conf_CZn" = 214.569   $ Sizing
 "CAssFlo_T_Hall_EZn" = 153.2   $ Sizing
 "CAssFlo_T_Hall_NZn" = 95.14383   $ Sizing
 "CAssFlo_T_Hall_SZn" = 177.809   $ Sizing
 "CAssFlo_T_Hall_WZn" = 149.2142   $ Sizing
 "CAssFlo_T_OfficeOpn_CZn" = 60.6637   $ Sizing
 "CAssFlo_T_OfficeOpn_EZn" = 630.8364   $ Sizing
 "CAssFlo_T_OfficeOpn_NZn" = 284.5405   $ Sizing
 "CAssFlo_T_OfficeOpn_SZn" = 689.8645   $ Sizing
 "CAssFlo_T_OfficeOpn_WZn" = 584.0118   $ Sizing
 "CAssFlo_T_OfficeSm_EZn" = 548.4136   $ Sizing
 "CAssFlo_T_OfficeSm_NZn" = 223.6774   $ Sizing
 "CAssFlo_T_OfficeSm_SZn" = 618.9435   $ Sizing
 "CAssFlo_T_OfficeSm_WZn" = 528.5596   $ Sizing
 "CAssFlo_T_Restrm_CZn" = 91.14016   $ Sizing
 "CAssFlo_T_StorSm_EZn" = 148.4003   $ Sizing
 "CAssFlo_T_StorSm_NZn" = 111.6168   $ Sizing
 "CAssFlo_T_StorSm_SZn" = 169.2443   $ Sizing
 "CAssFlo_T_StorSm_WZn" = 145.204   $ Sizing
 "CHRtFlo_Sys_L_Break_C" = 286.2446   $ Sizing
 "CHRtFlo_Sys_L_CompDC_C" = 172.7428   $ Sizing
 "CHRtFlo_Sys_L_Conf_C" = 214.7375   $ Sizing
 "CHRtFlo_Sys_L_CopyRm_C" = 67.28038   $ Sizing
 "CHRtFlo_Sys_L_Hall_E" = 134.3239   $ Sizing
 "CHRtFlo_Sys_L_Hall_N" = 99.37249   $ Sizing
 "CHRtFlo_Sys_L_Hall_S" = 153.3927   $ Sizing
 "CHRtFlo_Sys_L_Hall_W" = 136.0247   $ Sizing
 "CHRtFlo_Sys_L_LobWait_E" = 321.2843   $ Sizing
 "CHRtFlo_Sys_L_LobWait_N" = 209.1931   $ Sizing
 "CHRtFlo_Sys_L_LobWait_S" = 357.5594   $ Sizing
 "CHRtFlo_Sys_L_LobWait_W" = 315.6176   $ Sizing
 "CHRtFlo_Sys_L_MechElec_C" = 72.94225   $ Sizing
 "CHRtFlo_Sys_L_OfficeOpn_C" = 69.61612   $ Sizing
 "CHRtFlo_Sys_L_OfficeOpn_E" = 626.3626   $ Sizing
 "CHRtFlo_Sys_L_OfficeOpn_N" = 259.5616   $ Sizing
 "CHRtFlo_Sys_L_OfficeOpn_S" = 641.132   $ Sizing
 "CHRtFlo_Sys_L_OfficeOpn_W" = 583.5922   $ Sizing
 "CHRtFlo_Sys_L_OfficeSm_E" = 535.444   $ Sizing
 "CHRtFlo_Sys_L_OfficeSm_N" = 225.4878   $ Sizing
 "CHRtFlo_Sys_L_OfficeSm_S" = 570.296   $ Sizing
 "CHRtFlo_Sys_L_OfficeSm_W" = 515.0889   $ Sizing
 "CHRtFlo_Sys_L_Restrm_C" = 86.07105   $ Sizing
 "CHRtFlo_Sys_L_StorSm_C" = 49.14645   $ Sizing
 "CHRtFlo_Sys_L_StorSm_E" = 129.4684   $ Sizing
 "CHRtFlo_Sys_L_StorSm_N" = 112.7862   $ Sizing
 "CHRtFlo_Sys_L_StorSm_S" = 142.095   $ Sizing
 "CHRtFlo_Sys_L_StorSm_W" = 124.758   $ Sizing
 "CHRtFlo_Sys_T_Conf_C" = 214.569   $ Sizing
 "CHRtFlo_Sys_T_Hall_E" = 153.2   $ Sizing
 "CHRtFlo_Sys_T_Hall_N" = 95.14383   $ Sizing
 "CHRtFlo_Sys_T_Hall_S" = 177.809   $ Sizing
 "CHRtFlo_Sys_T_Hall_W" = 149.2142   $ Sizing
 "CHRtFlo_Sys_T_OfficeOpn_C" = 60.6637   $ Sizing
 "CHRtFlo_Sys_T_OfficeOpn_E" = 630.8364   $ Sizing
 "CHRtFlo_Sys_T_OfficeOpn_N" = 284.5405   $ Sizing
 "CHRtFlo_Sys_T_OfficeOpn_S" = 689.8645   $ Sizing
 "CHRtFlo_Sys_T_OfficeOpn_W" = 584.0119   $ Sizing
 "CHRtFlo_Sys_T_OfficeSm_E" = 548.4136   $ Sizing
 "CHRtFlo_Sys_T_OfficeSm_N" = 223.6774   $ Sizing
 "CHRtFlo_Sys_T_OfficeSm_S" = 618.9436   $ Sizing
 "CHRtFlo_Sys_T_OfficeSm_W" = 528.5596   $ Sizing
 "CHRtFlo_Sys_T_Restrm_C" = 91.14016   $ Sizing
 "CHRtFlo_Sys_T_StorSm_E" = 148.4003   $ Sizing
 "CHRtFlo_Sys_T_StorSm_N" = 111.6168   $ Sizing
 "CHRtFlo_Sys_T_StorSm_S" = 169.2443   $ Sizing
 "CHRtFlo_Sys_T_StorSm_W" = 145.204   $ Sizing
 "CRtdFlo_Sys_L_Break_C" = 286.2446   $ Sizing
 "CRtdFlo_Sys_L_CompDC_C" = 172.7428   $ Sizing
 "CRtdFlo_Sys_L_Conf_C" = 214.7375   $ Sizing
 "CRtdFlo_Sys_L_CopyRm_C" = 67.28038   $ Sizing
 "CRtdFlo_Sys_L_Hall_E" = 134.3239   $ Sizing
 "CRtdFlo_Sys_L_Hall_N" = 99.3725   $ Sizing
 "CRtdFlo_Sys_L_Hall_S" = 153.3927   $ Sizing
 "CRtdFlo_Sys_L_Hall_W" = 136.0247   $ Sizing
 "CRtdFlo_Sys_L_LobWait_E" = 321.2843   $ Sizing
 "CRtdFlo_Sys_L_LobWait_N" = 209.1931   $ Sizing
 "CRtdFlo_Sys_L_LobWait_S" = 357.5594   $ Sizing
 "CRtdFlo_Sys_L_LobWait_W" = 315.6176   $ Sizing
 "CRtdFlo_Sys_L_MechElec_C" = 72.94225   $ Sizing
 "CRtdFlo_Sys_L_OfficeOpn_C" = 69.61613   $ Sizing
 "CRtdFlo_Sys_L_OfficeOpn_E" = 626.3626   $ Sizing
 "CRtdFlo_Sys_L_OfficeOpn_N" = 259.5616   $ Sizing
 "CRtdFlo_Sys_L_OfficeOpn_S" = 641.1321   $ Sizing
 "CRtdFlo_Sys_L_OfficeOpn_W" = 583.5922   $ Sizing
 "CRtdFlo_Sys_L_OfficeSm_E" = 535.444   $ Sizing
 "CRtdFlo_Sys_L_OfficeSm_N" = 225.4878   $ Sizing
 "CRtdFlo_Sys_L_OfficeSm_S" = 570.296   $ Sizing
 "CRtdFlo_Sys_L_OfficeSm_W" = 515.0889   $ Sizing
 "CRtdFlo_Sys_L_Restrm_C" = 86.07105   $ Sizing
 "CRtdFlo_Sys_L_StorSm_C" = 49.14645   $ Sizing
 "CRtdFlo_Sys_L_StorSm_E" = 129.4684   $ Sizing
 "CRtdFlo_Sys_L_StorSm_N" = 112.7862   $ Sizing
 "CRtdFlo_Sys_L_StorSm_S" = 142.095   $ Sizing
 "CRtdFlo_Sys_L_StorSm_W" = 124.758   $ Sizing
 "CRtdFlo_Sys_T_Conf_C" = 214.569   $ Sizing
 "CRtdFlo_Sys_T_Hall_E" = 153.2   $ Sizing
 "CRtdFlo_Sys_T_Hall_N" = 95.14383   $ Sizing
 "CRtdFlo_Sys_T_Hall_S" = 177.809   $ Sizing
 "CRtdFlo_Sys_T_Hall_W" = 149.2142   $ Sizing
 "CRtdFlo_Sys_T_OfficeOpn_C" = 60.6637   $ Sizing
 "CRtdFlo_Sys_T_OfficeOpn_E" = 630.8364   $ Sizing
 "CRtdFlo_Sys_T_OfficeOpn_N" = 284.5405   $ Sizing
 "CRtdFlo_Sys_T_OfficeOpn_S" = 689.8645   $ Sizing
 "CRtdFlo_Sys_T_OfficeOpn_W" = 584.0118   $ Sizing
 "CRtdFlo_Sys_T_OfficeSm_E" = 548.4136   $ Sizing
 "CRtdFlo_Sys_T_OfficeSm_N" = 223.6774   $ Sizing
 "CRtdFlo_Sys_T_OfficeSm_S" = 618.9435   $ Sizing
 "CRtdFlo_Sys_T_OfficeSm_W" = 528.5596   $ Sizing
 "CRtdFlo_Sys_T_Restrm_C" = 91.14016   $ Sizing
 "CRtdFlo_Sys_T_StorSm_E" = 148.4003   $ Sizing
 "CRtdFlo_Sys_T_StorSm_N" = 111.6168   $ Sizing
 "CRtdFlo_Sys_T_StorSm_S" = 169.2443   $ Sizing
 "CRtdFlo_Sys_T_StorSm_W" = 145.204   $ Sizing
 "CSupFlo_Sys_L_Break_C" = 286.2446   $ Sizing
 "CSupFlo_Sys_L_CompDC_C" = 172.7428   $ Sizing
 "CSupFlo_Sys_L_Conf_C" = 214.7375   $ Sizing
 "CSupFlo_Sys_L_CopyRm_C" = 67.28038   $ Sizing
 "CSupFlo_Sys_L_Hall_E" = 134.3239   $ Sizing
 "CSupFlo_Sys_L_Hall_N" = 99.3725   $ Sizing
 "CSupFlo_Sys_L_Hall_S" = 153.3927   $ Sizing
 "CSupFlo_Sys_L_Hall_W" = 136.0247   $ Sizing
 "CSupFlo_Sys_L_LobWait_E" = 321.2843   $ Sizing
 "CSupFlo_Sys_L_LobWait_N" = 209.1931   $ Sizing
 "CSupFlo_Sys_L_LobWait_S" = 357.5594   $ Sizing
 "CSupFlo_Sys_L_LobWait_W" = 315.6176   $ Sizing
 "CSupFlo_Sys_L_MechElec_C" = 72.94225   $ Sizing
 "CSupFlo_Sys_L_OfficeOpn_C" = 69.61613   $ Sizing
 "CSupFlo_Sys_L_OfficeOpn_E" = 626.3626   $ Sizing
 "CSupFlo_Sys_L_OfficeOpn_N" = 259.5616   $ Sizing
 "CSupFlo_Sys_L_OfficeOpn_S" = 641.1321   $ Sizing
 "CSupFlo_Sys_L_OfficeOpn_W" = 583.5922   $ Sizing
 "CSupFlo_Sys_L_OfficeSm_E" = 535.444   $ Sizing
 "CSupFlo_Sys_L_OfficeSm_N" = 225.4878   $ Sizing
 "CSupFlo_Sys_L_OfficeSm_S" = 570.296   $ Sizing
 "CSupFlo_Sys_L_OfficeSm_W" = 515.0889   $ Sizing
 "CSupFlo_Sys_L_Restrm_C" = 86.07105   $ Sizing
 "CSupFlo_Sys_L_StorSm_C" = 49.14645   $ Sizing
 "CSupFlo_Sys_L_StorSm_E" = 129.4684   $ Sizing
 "CSupFlo_Sys_L_StorSm_N" = 112.7862   $ Sizing
 "CSupFlo_Sys_L_StorSm_S" = 142.095   $ Sizing
 "CSupFlo_Sys_L_StorSm_W" = 124.758   $ Sizing
 "CSupFlo_Sys_T_Conf_C" = 214.569   $ Sizing
 "CSupFlo_Sys_T_Hall_E" = 153.2   $ Sizing
 "CSupFlo_Sys_T_Hall_N" = 95.14383   $ Sizing
 "CSupFlo_Sys_T_Hall_S" = 177.809   $ Sizing
 "CSupFlo_Sys_T_Hall_W" = 149.2142   $ Sizing
 "CSupFlo_Sys_T_OfficeOpn_C" = 60.6637   $ Sizing
 "CSupFlo_Sys_T_OfficeOpn_E" = 630.8364   $ Sizing
 "CSupFlo_Sys_T_OfficeOpn_N" = 284.5405   $ Sizing
 "CSupFlo_Sys_T_OfficeOpn_S" = 689.8645   $ Sizing
 "CSupFlo_Sys_T_OfficeOpn_W" = 584.0118   $ Sizing
 "CSupFlo_Sys_T_OfficeSm_E" = 548.4136   $ Sizing
 "CSupFlo_Sys_T_OfficeSm_N" = 223.6774   $ Sizing
 "CSupFlo_Sys_T_OfficeSm_S" = 618.9435   $ Sizing
 "CSupFlo_Sys_T_OfficeSm_W" = 528.5596   $ Sizing
 "CSupFlo_Sys_T_Restrm_C" = 91.14016   $ Sizing
 "CSupFlo_Sys_T_StorSm_E" = 148.4003   $ Sizing
 "CSupFlo_Sys_T_StorSm_N" = 111.6168   $ Sizing
 "CSupFlo_Sys_T_StorSm_S" = 169.2443   $ Sizing
 "CSupFlo_Sys_T_StorSm_W" = 145.204   $ Sizing
 "Cap_Boiler1" = -0.1632168   $ Sizing
 "ClCap_Sys_L_Break_C" = 9740.732   $ Sizing
 "ClCap_Sys_L_CompDC_C" = 5878.333   $ Sizing
 "ClCap_Sys_L_Conf_C" = 9300.313   $ Sizing
 "ClCap_Sys_L_CopyRm_C" = 2289.511   $ Sizing
 "ClCap_Sys_L_Hall_E" = 4570.962   $ Sizing
 "ClCap_Sys_L_Hall_N" = 3381.587   $ Sizing
 "ClCap_Sys_L_Hall_S" = 5219.862   $ Sizing
 "ClCap_Sys_L_Hall_W" = 4628.841   $ Sizing
 "ClCap_Sys_L_LobWait_E" = 10933.11   $ Sizing
 "ClCap_Sys_L_LobWait_N" = 7118.715   $ Sizing
 "ClCap_Sys_L_LobWait_S" = 12167.53   $ Sizing
 "ClCap_Sys_L_LobWait_W" = 10740.28   $ Sizing
 "ClCap_Sys_L_MechElec_C" = 2482.181   $ Sizing
 "ClCap_Sys_L_OfficeOpn_C" = 2368.995   $ Sizing
 "ClCap_Sys_L_OfficeOpn_E" = 21314.74   $ Sizing
 "ClCap_Sys_L_OfficeOpn_N" = 8832.728   $ Sizing
 "ClCap_Sys_L_OfficeOpn_S" = 21817.34   $ Sizing
 "ClCap_Sys_L_OfficeOpn_W" = 19859.29   $ Sizing
 "ClCap_Sys_L_OfficeSm_E" = 18220.84   $ Sizing
 "ClCap_Sys_L_OfficeSm_N" = 7673.216   $ Sizing
 "ClCap_Sys_L_OfficeSm_S" = 19406.83   $ Sizing
 "ClCap_Sys_L_OfficeSm_W" = 17528.17   $ Sizing
 "ClCap_Sys_L_Restrm_C" = 2928.947   $ Sizing
 "ClCap_Sys_L_StorSm_C" = 1672.424   $ Sizing
 "ClCap_Sys_L_StorSm_E" = 4405.733   $ Sizing
 "ClCap_Sys_L_StorSm_N" = 3838.046   $ Sizing
 "ClCap_Sys_L_StorSm_S" = 4835.409   $ Sizing
 "ClCap_Sys_L_StorSm_W" = 4245.441   $ Sizing
 "ClCap_Sys_T_Conf_C" = 9293.016   $ Sizing
 "ClCap_Sys_T_Hall_E" = 5213.305   $ Sizing
 "ClCap_Sys_T_Hall_N" = 3237.688   $ Sizing
 "ClCap_Sys_T_Hall_S" = 6050.735   $ Sizing
 "ClCap_Sys_T_Hall_W" = 5077.669   $ Sizing
 "ClCap_Sys_T_OfficeOpn_C" = 2064.35   $ Sizing
 "ClCap_Sys_T_OfficeOpn_E" = 21466.99   $ Sizing
 "ClCap_Sys_T_OfficeOpn_N" = 9682.742   $ Sizing
 "ClCap_Sys_T_OfficeOpn_S" = 23475.68   $ Sizing
 "ClCap_Sys_T_OfficeOpn_W" = 19873.57   $ Sizing
 "ClCap_Sys_T_OfficeSm_E" = 18662.19   $ Sizing
 "ClCap_Sys_T_OfficeSm_N" = 7611.607   $ Sizing
 "ClCap_Sys_T_OfficeSm_S" = 21062.28   $ Sizing
 "ClCap_Sys_T_OfficeSm_W" = 17986.57   $ Sizing
 "ClCap_Sys_T_Restrm_C" = 3101.445   $ Sizing
 "ClCap_Sys_T_StorSm_E" = 5049.973   $ Sizing
 "ClCap_Sys_T_StorSm_N" = 3798.253   $ Sizing
 "ClCap_Sys_T_StorSm_S" = 5759.282   $ Sizing
 "ClCap_Sys_T_StorSm_W" = 4941.207   $ Sizing
 "HtCap_Sys_L_Break_C" = -8571.845   $ Sizing
 "HtCap_Sys_L_CompDC_C" = -5172.934   $ Sizing
 "HtCap_Sys_L_Conf_C" = -8184.275   $ Sizing
 "HtCap_Sys_L_CopyRm_C" = -2014.77   $ Sizing
 "HtCap_Sys_L_Hall_E" = -4022.447   $ Sizing
 "HtCap_Sys_L_Hall_N" = -2975.796   $ Sizing
 "HtCap_Sys_L_Hall_S" = -4593.479   $ Sizing
 "HtCap_Sys_L_Hall_W" = -4073.38   $ Sizing
 "HtCap_Sys_L_LobWait_E" = -9621.138   $ Sizing
 "HtCap_Sys_L_LobWait_N" = -6264.469   $ Sizing
 "HtCap_Sys_L_LobWait_S" = -10707.43   $ Sizing
 "HtCap_Sys_L_LobWait_W" = -9451.445   $ Sizing
 "HtCap_Sys_L_MechElec_C" = -2184.319   $ Sizing
 "HtCap_Sys_L_OfficeOpn_C" = -2084.716   $ Sizing
 "HtCap_Sys_L_OfficeOpn_E" = -18756.97   $ Sizing
 "HtCap_Sys_L_OfficeOpn_N" = -7772.8   $ Sizing
 "HtCap_Sys_L_OfficeOpn_S" = -19199.26   $ Sizing
 "HtCap_Sys_L_OfficeOpn_W" = -17476.18   $ Sizing
 "HtCap_Sys_L_OfficeSm_E" = -16034.34   $ Sizing
 "HtCap_Sys_L_OfficeSm_N" = -6752.43   $ Sizing
 "HtCap_Sys_L_OfficeSm_S" = -17078.01   $ Sizing
 "HtCap_Sys_L_OfficeSm_W" = -15424.79   $ Sizing
 "HtCap_Sys_L_Restrm_C" = -2577.473   $ Sizing
 "HtCap_Sys_L_StorSm_C" = -1471.733   $ Sizing
 "HtCap_Sys_L_StorSm_E" = -3877.045   $ Sizing
 "HtCap_Sys_L_StorSm_N" = -3377.481   $ Sizing
 "HtCap_Sys_L_StorSm_S" = -4255.16   $ Sizing
 "HtCap_Sys_L_StorSm_W" = -3735.988   $ Sizing
 "HtCap_Sys_T_Conf_C" = -8177.854   $ Sizing
 "HtCap_Sys_T_Hall_E" = -4587.708   $ Sizing
 "HtCap_Sys_T_Hall_N" = -2849.165   $ Sizing
 "HtCap_Sys_T_Hall_S" = -5324.647   $ Sizing
 "HtCap_Sys_T_Hall_W" = -4468.349   $ Sizing
 "HtCap_Sys_T_OfficeOpn_C" = -1816.628   $ Sizing
 "HtCap_Sys_T_OfficeOpn_E" = -18890.95   $ Sizing
 "HtCap_Sys_T_OfficeOpn_N" = -8520.813   $ Sizing
 "HtCap_Sys_T_OfficeOpn_S" = -20658.59   $ Sizing
 "HtCap_Sys_T_OfficeOpn_W" = -17488.75   $ Sizing
 "HtCap_Sys_T_OfficeSm_E" = -16422.72   $ Sizing
 "HtCap_Sys_T_OfficeSm_N" = -6698.214   $ Sizing
 "HtCap_Sys_T_OfficeSm_S" = -18534.81   $ Sizing
 "HtCap_Sys_T_OfficeSm_W" = -15828.18   $ Sizing
 "HtCap_Sys_T_Restrm_C" = -2729.272   $ Sizing
 "HtCap_Sys_T_StorSm_E" = -4443.976   $ Sizing
 "HtCap_Sys_T_StorSm_N" = -3342.462   $ Sizing
 "HtCap_Sys_T_StorSm_S" = -5068.168   $ Sizing
 "HtCap_Sys_T_StorSm_W" = -4348.262   $ Sizing
 "LpFlo_WLHPCircLoop" = 108.6403   $ Sizing
 "SUtime_Boiler1" = 0.083   $ Sizing
..

##include Templates\OfS_WLHP.inp
END ..
COMPUTE ..
STOP ..
