INPUT ..

##fileprefix C:\Users\jglasskatz\MASControl3\
##set1 IsSizing FALSE
##set1 CoolType DX
##set1 HeatType HEAT-PUMP
##set1 EU_HrRepVar 1
##set1 BldgVint 2011
##set1 BldgLoc CZ01

 ##set1 mBFMult 1   $ IP Tech: RefgChg-NRes-Std

PARAMETER
 "AltFactor" = 1.00753   $ IP Non-Tech
 "BldgEconoFlag" = 1   $ IP Non-Tech
 "Break_EWSF" = 1   $ IP Non-Tech
 "Break_LWSF" = 1.1   $ IP Non-Tech
 "CDD_DBHi10" = 65   $ IP Non-Tech
 "CDD_DBHi7" = 68   $ IP Non-Tech
 "CDD_DBHi8" = 66   $ IP Non-Tech
 "CDD_DBHi9" = 77   $ IP Non-Tech
 "CDD_DBRange10" = 17   $ IP Non-Tech
 "CDD_DBRange7" = 11   $ IP Non-Tech
 "CDD_DBRange8" = 10   $ IP Non-Tech
 "CDD_DBRange9" = 29   $ IP Non-Tech
 "CDD_Day10" = 15   $ IP Non-Tech
 "CDD_Day7" = 16   $ IP Non-Tech
 "CDD_Day8" = 20   $ IP Non-Tech
 "CDD_Day9" = 17   $ IP Non-Tech
 "CDD_HrHi10" = 12   $ IP Non-Tech
 "CDD_HrHi7" = 12   $ IP Non-Tech
 "CDD_HrHi8" = 13   $ IP Non-Tech
 "CDD_HrHi9" = 17   $ IP Non-Tech
 "CDD_HrLo10" = 6   $ IP Non-Tech
 "CDD_HrLo7" = 3   $ IP Non-Tech
 "CDD_HrLo8" = 8   $ IP Non-Tech
 "CDD_HrLo9" = 4   $ IP Non-Tech
 "CDD_WB10" = 57.53039551   $ IP Non-Tech
 "CDD_WB7" = 59.29250717   $ IP Non-Tech
 "CDD_WB8" = 60.75350189   $ IP Non-Tech
 "CDD_WB9" = 61.08643341   $ IP Non-Tech
 "CZ_Category" = Tem   $ IP Non-Tech
 "ChwVintEconoFlag" = 1   $ IP Non-Tech
 "CompRoomData_EWSF" = 5   $ IP Non-Tech
 "CompRoomData_LWSF" = 1.1   $ IP Non-Tech
 "Conference_EWSF" = 1   $ IP Non-Tech
 "Conference_LWSF" = 1.4   $ IP Non-Tech
 "CoolSetT" = 45   $ IP Non-Tech
 "CoolType" = DX   $ IP Non-Tech
 "CopyRoom_EWSF" = 1.5   $ IP Non-Tech
 "CopyRoom_LWSF" = 1.3   $ IP Non-Tech
 "DesCoolT" = 75   $ IP Non-Tech
 "DesHeatT" = 73   $ IP Non-Tech
 "EconoEnthLimit" = 28   $ IP Non-Tech
 "EconoTempLimit" = 70   $ IP Non-Tech
 "Elevation" = 203   $ IP Non-Tech
 "HDD_CloudAmt1" = 0   $ IP Non-Tech
 "HDD_DBHi1" = 53   $ IP Non-Tech
 "HDD_DBRange1" = 20   $ IP Non-Tech
 "HDD_Day1" = 15   $ IP Non-Tech
 "HDD_HrHi1" = 14   $ IP Non-Tech
 "HDD_HrLo1" = 6   $ IP Non-Tech
 "HDD_WB1" = 42.3   $ IP Non-Tech
 "HDD_WindSpd1" = 12.7   $ IP Non-Tech
 "Hall_EWSF" = 0.2   $ IP Non-Tech
 "Hall_LWSF" = 0.6   $ IP Non-Tech
 "HeatSrc" = HEAT-PUMP   $ IP Non-Tech
 "HeatSrcTU" = HEAT-PUMP   $ IP Non-Tech
 "HeatType" = HP   $ IP Non-Tech
 "HeatTypeTU" = HEAT-PUMP   $ IP Non-Tech
 "IndoorFanMode" = CONTINUOUS   $ IP Non-Tech
 "KT_TransferAir" = No   $ IP Non-Tech
 "Latitude" = 40.8   $ IP Non-Tech
 "LobbyWaiting_EWSF" = 0.5   $ IP Non-Tech
 "LobbyWaiting_LWSF" = 1.3   $ IP Non-Tech
 "Longitude" = 124.2   $ IP Non-Tech
 "MZFanMechEff" = 0.58   $ IP Non-Tech
 "MZHasRetFan" = FALSE   $ IP Non-Tech
 "MZ_RFanWPerCfm" = 0.33   $ IP Non-Tech
 "MZ_SFanWPerCfm" = 0.75   $ IP Non-Tech
 "MZ_SupFanStatic" = 2.25   $ IP Non-Tech
 "MaxSupT_MZ" = 90   $ IP Non-Tech
 "MaxSupT_SZ" = 90   $ IP Non-Tech
 "MaxSupT_TU" = 90   $ IP Non-Tech
 "MechElecRoom_EWSF" = 0.2   $ IP Non-Tech
 "MechElecRoom_LWSF" = 0.7   $ IP Non-Tech
 "MinCfmPerSF" = 0.4   $ IP Non-Tech
 "MinSupT" = 55   $ IP Non-Tech
 "OccCoolT" = 76   $ IP Non-Tech
 "OccHeatT" = 72   $ IP Non-Tech
 "OfficeOpen_EWSF" = 1.5   $ IP Non-Tech
 "OfficeOpen_LWSF" = 1.1   $ IP Non-Tech
 "OfficeSmall_EWSF" = 1.5   $ IP Non-Tech
 "OfficeSmall_LWSF" = 1.3   $ IP Non-Tech
 "PkgDxVintEconoFlag" = 0   $ IP Non-Tech
 "Restroom_EWSF" = 0.2   $ IP Non-Tech
 "Restroom_LWSF" = 0.6   $ IP Non-Tech
 "SZFanMechEff" = 0.58   $ IP Non-Tech
 "SZHasRetFan" = FALSE   $ IP Non-Tech
 "SZ_Is_2Spd" = FALSE   $ IP Non-Tech
 "SZ_SFanWPerCfm" = 0.46   $ IP Non-Tech
 "SZ_SupFanStatic" = 0.75   $ IP Non-Tech
 "StorageSmlCond_EWSF" = 0.2   $ IP Non-Tech
 "StorageSmlCond_LWSF" = 0.6   $ IP Non-Tech
 "T24GlzTbl" = CZTbl   $ IP Non-Tech
 "TermUnitFanMechEff" = 1   $ IP Non-Tech
 "TermUnitFanMode" = INTERMITTENT   $ IP Non-Tech
 "TwrSetpt" = 80   $ IP Non-Tech
 "UnocCoolT" = 86   $ IP Non-Tech
 "UnocHeatT" = 62   $ IP Non-Tech
 "WlhpVintEconoFlag" = 0   $ IP Non-Tech
 "EconoCtrl" = OA-TEMP   $ IP Tech: AirEcono-OATemp
 "MaxOAFrac" = 0.85   $ IP Tech: AirEcono-OATemp
 "UseEconoVintApplic" = FALSE   $ IP Tech: AirEcono-OATemp
 "DuctDT" = 1   $ IP Tech: ComDuctInsul-1
 "DuctAirLoss" = 0   $ IP Tech: ComDuctLeak-0
 "DuctLossOAFrac" = 0   $ IP Tech: ComDuctLeak-0
 "ComRoofInsCalc" = FromUo   $ IP Tech: ComRoofIns-WFrm-0.05
 "ComRoofInsR" = -999   $ IP Tech: ComRoofIns-WFrm-0.05
 "ComRoofUo" = 0.05   $ IP Tech: ComRoofIns-WFrm-0.05
 "ComEWInsCalc" = FromUo   $ IP Tech: ComWallIns-WFrm-0.08
 "ComEWInsR" = -999   $ IP Tech: ComWallIns-WFrm-0.08
 "ComEWUo" = 0.08   $ IP Tech: ComWallIns-WFrm-0.08
 "ComN_SHGC" = 0.47   $ IP Tech: NResWin-ComN-0.47-0.47
 "ComN_UFactor" = 0.47   $ IP Tech: NResWin-ComN-0.47-0.47
 "ComN_VisTrans" = 0.75   $ IP Tech: NResWin-ComN-0.47-0.47
 "ComN_WinCode" = G2633   $ IP Tech: NResWin-ComN-0.47-0.47
 "ComN_WinFrmFrac" = 0.17   $ IP Tech: NResWin-ComN-0.47-0.47
 "ComN_WinFrmU" = 0.3   $ IP Tech: NResWin-ComN-0.47-0.47
 "ComO_SHGC" = 0.43   $ IP Tech: NResWin-ComO-0.47-0.43
 "ComO_UFactor" = 0.47   $ IP Tech: NResWin-ComO-0.47-0.43
 "ComO_VisTrans" = 0.68   $ IP Tech: NResWin-ComO-0.47-0.43
 "ComO_WinCode" = G2663   $ IP Tech: NResWin-ComO-0.47-0.43
 "ComO_WinFrmFrac" = 0.17   $ IP Tech: NResWin-ComO-0.47-0.43
 "ComO_WinFrmU" = 0.3   $ IP Tech: NResWin-ComO-0.47-0.43
 "LtgMsrApplic" = ALL   $ IP Tech: NonResLtgRefPre
 "LtgSav_CFL" = 0   $ IP Tech: NonResLtgRefPre
 "LtgSav_EX" = 0   $ IP Tech: NonResLtgRefPre
 "LtgSav_HB" = 0   $ IP Tech: NonResLtgRefPre
 "LtgSav_LF" = 0   $ IP Tech: NonResLtgRefPre
 "LtgSav_SP" = 0   $ IP Tech: NonResLtgRefPre
 "BF_fFlow" = PSZ65to135_BF_fFlow   $ IP Tech: PkgHP1SpH-65to135-E11-C3.3
 "BF_fT" = PSZ65to135_BF_fT   $ IP Tech: PkgHP1SpH-65to135-E11-C3.3
 "CEIR_fPLR" = PSZ65to135_CEIR_fPLR   $ IP Tech: PkgHP1SpH-65to135-E11-C3.3
 "CLoss_fPLR" = PSZ65to135_CLoss_fPLR   $ IP Tech: PkgHP1SpH-65to135-E11-C3.3
 "COP" = 3.3   $ IP Tech: PkgHP1SpH-65to135-E11-C3.3
 "COP47" = 3.64   $ IP Tech: PkgHP1SpH-65to135-E11-C3.3
 "CfmPerBtuh" = 0.02917   $ IP Tech: PkgHP1SpH-65to135-E11-C3.3
 "ClCap_fT" = PSZ65to135_ClCap_fT   $ IP Tech: PkgHP1SpH-65to135-E11-C3.3
 "ClSH_fT" = PSZ65to135_ClSH_fT   $ IP Tech: PkgHP1SpH-65to135-E11-C3.3
 "CoilBF" = 0.114   $ IP Tech: PkgHP1SpH-65to135-E11-C3.3
 "CondWPerBtuh" = 0   $ IP Tech: PkgHP1SpH-65to135-E11-C3.3
 "CoolSensCap" = 0.663   $ IP Tech: PkgHP1SpH-65to135-E11-C3.3
 "CoolingEIR" = 0.2666   $ IP Tech: PkgHP1SpH-65to135-E11-C3.3
 "CrnkEIR" = 0.0027   $ IP Tech: PkgHP1SpH-65to135-E11-C3.3
 "CrnkMaxT" = 50   $ IP Tech: PkgHP1SpH-65to135-E11-C3.3
 "DXType" = Pkg   $ IP Tech: PkgHP1SpH-65to135-E11-C3.3
 "EER" = 10.64   $ IP Tech: PkgHP1SpH-65to135-E11-C3.3
 "EIR_fT" = PSZ65to135_EIR_fT   $ IP Tech: PkgHP1SpH-65to135-E11-C3.3
 "FanEirPlr" = TwoSpeedFan   $ IP Tech: PkgHP1SpH-65to135-E11-C3.3
 "FanWPerCfm" = 0.412   $ IP Tech: PkgHP1SpH-65to135-E11-C3.3
 "HIR_fT" = DEFAULT   $ IP Tech: PkgHP1SpH-65to135-E11-C3.3
 "HtCap_fT" = DEFAULT   $ IP Tech: PkgHP1SpH-65to135-E11-C3.3
 "HtCoolCapRatio" = 0.88   $ IP Tech: PkgHP1SpH-65to135-E11-C3.3
 "HtgEIR" = 0.27444   $ IP Tech: PkgHP1SpH-65to135-E11-C3.3
 "HtgFuel" = HP   $ IP Tech: PkgHP1SpH-65to135-E11-C3.3
 "IEER" = 13.35   $ IP Tech: PkgHP1SpH-65to135-E11-C3.3
 "LowSpdCapRatio" = 0.5   $ IP Tech: PkgHP1SpH-65to135-E11-C3.3
 "LowSpdCfmRatio" = 0.66   $ IP Tech: PkgHP1SpH-65to135-E11-C3.3
 "NominalCap" = 15   $ IP Tech: PkgHP1SpH-65to135-E11-C3.3
 "NumStages" = 1   $ IP Tech: PkgHP1SpH-65to135-E11-C3.3
 "RatedEER" = 11   $ IP Tech: PkgHP1SpH-65to135-E11-C3.3
 "RatedSupMtrClass" = HiEff   $ IP Tech: PkgHP1SpH-65to135-E11-C3.3
 "SizeRange" = 65to135   $ IP Tech: PkgHP1SpH-65to135-E11-C3.3
 "SubType" = HP   $ IP Tech: PkgHP1SpH-65to135-E11-C3.3
 "SupMotEff" = 0.84   $ IP Tech: PkgHP1SpH-65to135-E11-C3.3
 "Tier" = 0   $ IP Tech: PkgHP1SpH-65to135-E11-C3.3
 "TotCoolCap" = 184140   $ IP Tech: PkgHP1SpH-65to135-E11-C3.3
 "BFMult" = 1   $ IP Tech: RefgChg-NRes-Std
 "CoolEirMult" = 1   $ IP Tech: RefgChg-NRes-Std
 "SensCoolCapMult" = 1   $ IP Tech: RefgChg-NRes-Std
 "TotCoolCapMult" = 1   $ IP Tech: RefgChg-NRes-Std
 "AltAdjFactor" = 1.007532   $ Sizing
 "CAssFlo_L_Break_CZn" = 279.9954   $ Sizing
 "CAssFlo_L_CompDC_CZn" = 161.0648   $ Sizing
 "CAssFlo_L_Conf_CZn" = 207.8148   $ Sizing
 "CAssFlo_L_CopyRm_CZn" = 59.2313   $ Sizing
 "CAssFlo_L_Hall_EZn" = 97.56175   $ Sizing
 "CAssFlo_L_Hall_NZn" = 86.42561   $ Sizing
 "CAssFlo_L_Hall_SZn" = 112.4981   $ Sizing
 "CAssFlo_L_Hall_WZn" = 100.3632   $ Sizing
 "CAssFlo_L_LobWait_EZn" = 239.9749   $ Sizing
 "CAssFlo_L_LobWait_NZn" = 181.3994   $ Sizing
 "CAssFlo_L_LobWait_SZn" = 264.9359   $ Sizing
 "CAssFlo_L_LobWait_WZn" = 234.8508   $ Sizing
 "CAssFlo_L_MechElec_CZn" = 85.06516   $ Sizing
 "CAssFlo_L_OfficeOpn_CZn" = 60.19052   $ Sizing
 "CAssFlo_L_OfficeOpn_EZn" = 498.2088   $ Sizing
 "CAssFlo_L_OfficeOpn_NZn" = 228.2865   $ Sizing
 "CAssFlo_L_OfficeOpn_SZn" = 503.1133   $ Sizing
 "CAssFlo_L_OfficeOpn_WZn" = 463.9749   $ Sizing
 "CAssFlo_L_OfficeSm_EZn" = 416.819   $ Sizing
 "CAssFlo_L_OfficeSm_NZn" = 193.3452   $ Sizing
 "CAssFlo_L_OfficeSm_SZn" = 444.0743   $ Sizing
 "CAssFlo_L_OfficeSm_WZn" = 406.0244   $ Sizing
 "CAssFlo_L_Restrm_CZn" = 86.07105   $ Sizing
 "CAssFlo_L_StorSm_CZn" = 48.54525   $ Sizing
 "CAssFlo_L_StorSm_EZn" = 94.48041   $ Sizing
 "CAssFlo_L_StorSm_NZn" = 101.5475   $ Sizing
 "CAssFlo_L_StorSm_SZn" = 101.8803   $ Sizing
 "CAssFlo_L_StorSm_WZn" = 91.75042   $ Sizing
 "CAssFlo_T_Conf_CZn" = 211.5831   $ Sizing
 "CAssFlo_T_Hall_EZn" = 116.8403   $ Sizing
 "CAssFlo_T_Hall_NZn" = 81.45348   $ Sizing
 "CAssFlo_T_Hall_SZn" = 132.2155   $ Sizing
 "CAssFlo_T_Hall_WZn" = 113.042   $ Sizing
 "CAssFlo_T_OfficeOpn_CZn" = 58.94897   $ Sizing
 "CAssFlo_T_OfficeOpn_EZn" = 506.1295   $ Sizing
 "CAssFlo_T_OfficeOpn_NZn" = 253.7962   $ Sizing
 "CAssFlo_T_OfficeOpn_SZn" = 540.4759   $ Sizing
 "CAssFlo_T_OfficeOpn_WZn" = 468.0352   $ Sizing
 "CAssFlo_T_OfficeSm_EZn" = 432.601   $ Sizing
 "CAssFlo_T_OfficeSm_NZn" = 200.6672   $ Sizing
 "CAssFlo_T_OfficeSm_SZn" = 480.8614   $ Sizing
 "CAssFlo_T_OfficeSm_WZn" = 411.7023   $ Sizing
 "CAssFlo_T_Restrm_CZn" = 86.07105   $ Sizing
 "CAssFlo_T_StorSm_EZn" = 113.475   $ Sizing
 "CAssFlo_T_StorSm_NZn" = 99.77911   $ Sizing
 "CAssFlo_T_StorSm_SZn" = 124.6072   $ Sizing
 "CAssFlo_T_StorSm_WZn" = 110.6588   $ Sizing
 "CHRtFlo_Sys_L_Break_C" = 279.9954   $ Sizing
 "CHRtFlo_Sys_L_CompDC_C" = 161.0648   $ Sizing
 "CHRtFlo_Sys_L_Conf_C" = 207.8148   $ Sizing
 "CHRtFlo_Sys_L_CopyRm_C" = 59.2313   $ Sizing
 "CHRtFlo_Sys_L_Hall_E" = 97.56175   $ Sizing
 "CHRtFlo_Sys_L_Hall_N" = 86.42561   $ Sizing
 "CHRtFlo_Sys_L_Hall_S" = 112.4981   $ Sizing
 "CHRtFlo_Sys_L_Hall_W" = 100.3632   $ Sizing
 "CHRtFlo_Sys_L_LobWait_E" = 239.9749   $ Sizing
 "CHRtFlo_Sys_L_LobWait_N" = 181.3994   $ Sizing
 "CHRtFlo_Sys_L_LobWait_S" = 264.9359   $ Sizing
 "CHRtFlo_Sys_L_LobWait_W" = 234.8508   $ Sizing
 "CHRtFlo_Sys_L_MechElec_C" = 85.06516   $ Sizing
 "CHRtFlo_Sys_L_OfficeOpn_C" = 60.19052   $ Sizing
 "CHRtFlo_Sys_L_OfficeOpn_E" = 498.2088   $ Sizing
 "CHRtFlo_Sys_L_OfficeOpn_N" = 228.2865   $ Sizing
 "CHRtFlo_Sys_L_OfficeOpn_S" = 503.1133   $ Sizing
 "CHRtFlo_Sys_L_OfficeOpn_W" = 463.9749   $ Sizing
 "CHRtFlo_Sys_L_OfficeSm_E" = 416.819   $ Sizing
 "CHRtFlo_Sys_L_OfficeSm_N" = 193.3452   $ Sizing
 "CHRtFlo_Sys_L_OfficeSm_S" = 444.0743   $ Sizing
 "CHRtFlo_Sys_L_OfficeSm_W" = 406.0244   $ Sizing
 "CHRtFlo_Sys_L_Restrm_C" = 86.07105   $ Sizing
 "CHRtFlo_Sys_L_StorSm_C" = 48.54525   $ Sizing
 "CHRtFlo_Sys_L_StorSm_E" = 94.48041   $ Sizing
 "CHRtFlo_Sys_L_StorSm_N" = 101.5475   $ Sizing
 "CHRtFlo_Sys_L_StorSm_S" = 101.8803   $ Sizing
 "CHRtFlo_Sys_L_StorSm_W" = 91.75042   $ Sizing
 "CHRtFlo_Sys_T_Conf_C" = 211.5831   $ Sizing
 "CHRtFlo_Sys_T_Hall_E" = 116.8403   $ Sizing
 "CHRtFlo_Sys_T_Hall_N" = 81.45348   $ Sizing
 "CHRtFlo_Sys_T_Hall_S" = 132.2155   $ Sizing
 "CHRtFlo_Sys_T_Hall_W" = 113.042   $ Sizing
 "CHRtFlo_Sys_T_OfficeOpn_C" = 58.94897   $ Sizing
 "CHRtFlo_Sys_T_OfficeOpn_E" = 506.1295   $ Sizing
 "CHRtFlo_Sys_T_OfficeOpn_N" = 253.7962   $ Sizing
 "CHRtFlo_Sys_T_OfficeOpn_S" = 540.4759   $ Sizing
 "CHRtFlo_Sys_T_OfficeOpn_W" = 468.0352   $ Sizing
 "CHRtFlo_Sys_T_OfficeSm_E" = 432.601   $ Sizing
 "CHRtFlo_Sys_T_OfficeSm_N" = 200.6672   $ Sizing
 "CHRtFlo_Sys_T_OfficeSm_S" = 480.8614   $ Sizing
 "CHRtFlo_Sys_T_OfficeSm_W" = 411.7023   $ Sizing
 "CHRtFlo_Sys_T_Restrm_C" = 86.07105   $ Sizing
 "CHRtFlo_Sys_T_StorSm_E" = 113.475   $ Sizing
 "CHRtFlo_Sys_T_StorSm_N" = 99.77911   $ Sizing
 "CHRtFlo_Sys_T_StorSm_S" = 124.6072   $ Sizing
 "CHRtFlo_Sys_T_StorSm_W" = 110.6589   $ Sizing
 "CRtdFlo_Sys_L_Break_C" = 279.9954   $ Sizing
 "CRtdFlo_Sys_L_CompDC_C" = 161.0648   $ Sizing
 "CRtdFlo_Sys_L_Conf_C" = 207.8148   $ Sizing
 "CRtdFlo_Sys_L_CopyRm_C" = 59.2313   $ Sizing
 "CRtdFlo_Sys_L_Hall_E" = 97.56175   $ Sizing
 "CRtdFlo_Sys_L_Hall_N" = 86.42561   $ Sizing
 "CRtdFlo_Sys_L_Hall_S" = 112.4981   $ Sizing
 "CRtdFlo_Sys_L_Hall_W" = 100.3632   $ Sizing
 "CRtdFlo_Sys_L_LobWait_E" = 239.9749   $ Sizing
 "CRtdFlo_Sys_L_LobWait_N" = 181.3994   $ Sizing
 "CRtdFlo_Sys_L_LobWait_S" = 264.9359   $ Sizing
 "CRtdFlo_Sys_L_LobWait_W" = 234.8508   $ Sizing
 "CRtdFlo_Sys_L_MechElec_C" = 85.06516   $ Sizing
 "CRtdFlo_Sys_L_OfficeOpn_C" = 60.19052   $ Sizing
 "CRtdFlo_Sys_L_OfficeOpn_E" = 498.2088   $ Sizing
 "CRtdFlo_Sys_L_OfficeOpn_N" = 228.2865   $ Sizing
 "CRtdFlo_Sys_L_OfficeOpn_S" = 503.1133   $ Sizing
 "CRtdFlo_Sys_L_OfficeOpn_W" = 463.9749   $ Sizing
 "CRtdFlo_Sys_L_OfficeSm_E" = 416.819   $ Sizing
 "CRtdFlo_Sys_L_OfficeSm_N" = 193.3452   $ Sizing
 "CRtdFlo_Sys_L_OfficeSm_S" = 444.0743   $ Sizing
 "CRtdFlo_Sys_L_OfficeSm_W" = 406.0244   $ Sizing
 "CRtdFlo_Sys_L_Restrm_C" = 86.07105   $ Sizing
 "CRtdFlo_Sys_L_StorSm_C" = 48.54525   $ Sizing
 "CRtdFlo_Sys_L_StorSm_E" = 94.48041   $ Sizing
 "CRtdFlo_Sys_L_StorSm_N" = 101.5475   $ Sizing
 "CRtdFlo_Sys_L_StorSm_S" = 101.8803   $ Sizing
 "CRtdFlo_Sys_L_StorSm_W" = 91.75042   $ Sizing
 "CRtdFlo_Sys_T_Conf_C" = 211.5831   $ Sizing
 "CRtdFlo_Sys_T_Hall_E" = 116.8403   $ Sizing
 "CRtdFlo_Sys_T_Hall_N" = 81.45348   $ Sizing
 "CRtdFlo_Sys_T_Hall_S" = 132.2155   $ Sizing
 "CRtdFlo_Sys_T_Hall_W" = 113.042   $ Sizing
 "CRtdFlo_Sys_T_OfficeOpn_C" = 58.94897   $ Sizing
 "CRtdFlo_Sys_T_OfficeOpn_E" = 506.1295   $ Sizing
 "CRtdFlo_Sys_T_OfficeOpn_N" = 253.7962   $ Sizing
 "CRtdFlo_Sys_T_OfficeOpn_S" = 540.4759   $ Sizing
 "CRtdFlo_Sys_T_OfficeOpn_W" = 468.0352   $ Sizing
 "CRtdFlo_Sys_T_OfficeSm_E" = 432.601   $ Sizing
 "CRtdFlo_Sys_T_OfficeSm_N" = 200.6672   $ Sizing
 "CRtdFlo_Sys_T_OfficeSm_S" = 480.8614   $ Sizing
 "CRtdFlo_Sys_T_OfficeSm_W" = 411.7023   $ Sizing
 "CRtdFlo_Sys_T_Restrm_C" = 86.07105   $ Sizing
 "CRtdFlo_Sys_T_StorSm_E" = 113.475   $ Sizing
 "CRtdFlo_Sys_T_StorSm_N" = 99.77911   $ Sizing
 "CRtdFlo_Sys_T_StorSm_S" = 124.6072   $ Sizing
 "CRtdFlo_Sys_T_StorSm_W" = 110.6588   $ Sizing
 "CSupFlo_Sys_L_Break_C" = 279.9954   $ Sizing
 "CSupFlo_Sys_L_CompDC_C" = 161.0648   $ Sizing
 "CSupFlo_Sys_L_Conf_C" = 207.8148   $ Sizing
 "CSupFlo_Sys_L_CopyRm_C" = 59.2313   $ Sizing
 "CSupFlo_Sys_L_Hall_E" = 97.56175   $ Sizing
 "CSupFlo_Sys_L_Hall_N" = 86.42561   $ Sizing
 "CSupFlo_Sys_L_Hall_S" = 112.4981   $ Sizing
 "CSupFlo_Sys_L_Hall_W" = 100.3632   $ Sizing
 "CSupFlo_Sys_L_LobWait_E" = 239.9749   $ Sizing
 "CSupFlo_Sys_L_LobWait_N" = 181.3994   $ Sizing
 "CSupFlo_Sys_L_LobWait_S" = 264.9359   $ Sizing
 "CSupFlo_Sys_L_LobWait_W" = 234.8508   $ Sizing
 "CSupFlo_Sys_L_MechElec_C" = 85.06516   $ Sizing
 "CSupFlo_Sys_L_OfficeOpn_C" = 60.19052   $ Sizing
 "CSupFlo_Sys_L_OfficeOpn_E" = 498.2088   $ Sizing
 "CSupFlo_Sys_L_OfficeOpn_N" = 228.2865   $ Sizing
 "CSupFlo_Sys_L_OfficeOpn_S" = 503.1133   $ Sizing
 "CSupFlo_Sys_L_OfficeOpn_W" = 463.9749   $ Sizing
 "CSupFlo_Sys_L_OfficeSm_E" = 416.819   $ Sizing
 "CSupFlo_Sys_L_OfficeSm_N" = 193.3452   $ Sizing
 "CSupFlo_Sys_L_OfficeSm_S" = 444.0743   $ Sizing
 "CSupFlo_Sys_L_OfficeSm_W" = 406.0244   $ Sizing
 "CSupFlo_Sys_L_Restrm_C" = 86.07105   $ Sizing
 "CSupFlo_Sys_L_StorSm_C" = 48.54525   $ Sizing
 "CSupFlo_Sys_L_StorSm_E" = 94.48041   $ Sizing
 "CSupFlo_Sys_L_StorSm_N" = 101.5475   $ Sizing
 "CSupFlo_Sys_L_StorSm_S" = 101.8803   $ Sizing
 "CSupFlo_Sys_L_StorSm_W" = 91.75042   $ Sizing
 "CSupFlo_Sys_T_Conf_C" = 211.5831   $ Sizing
 "CSupFlo_Sys_T_Hall_E" = 116.8403   $ Sizing
 "CSupFlo_Sys_T_Hall_N" = 81.45348   $ Sizing
 "CSupFlo_Sys_T_Hall_S" = 132.2155   $ Sizing
 "CSupFlo_Sys_T_Hall_W" = 113.042   $ Sizing
 "CSupFlo_Sys_T_OfficeOpn_C" = 58.94897   $ Sizing
 "CSupFlo_Sys_T_OfficeOpn_E" = 506.1295   $ Sizing
 "CSupFlo_Sys_T_OfficeOpn_N" = 253.7962   $ Sizing
 "CSupFlo_Sys_T_OfficeOpn_S" = 540.4759   $ Sizing
 "CSupFlo_Sys_T_OfficeOpn_W" = 468.0352   $ Sizing
 "CSupFlo_Sys_T_OfficeSm_E" = 432.601   $ Sizing
 "CSupFlo_Sys_T_OfficeSm_N" = 200.6672   $ Sizing
 "CSupFlo_Sys_T_OfficeSm_S" = 480.8614   $ Sizing
 "CSupFlo_Sys_T_OfficeSm_W" = 411.7023   $ Sizing
 "CSupFlo_Sys_T_Restrm_C" = 86.07105   $ Sizing
 "CSupFlo_Sys_T_StorSm_E" = 113.475   $ Sizing
 "CSupFlo_Sys_T_StorSm_N" = 99.77911   $ Sizing
 "CSupFlo_Sys_T_StorSm_S" = 124.6072   $ Sizing
 "CSupFlo_Sys_T_StorSm_W" = 110.6588   $ Sizing
 "ClCap_Sys_L_Break_C" = 9528.074   $ Sizing
 "ClCap_Sys_L_CompDC_C" = 5480.938   $ Sizing
 "ClCap_Sys_L_Conf_C" = 9000.491   $ Sizing
 "ClCap_Sys_L_CopyRm_C" = 2015.606   $ Sizing
 "ClCap_Sys_L_Hall_E" = 3319.968   $ Sizing
 "ClCap_Sys_L_Hall_N" = 2941.012   $ Sizing
 "ClCap_Sys_L_Hall_S" = 3828.245   $ Sizing
 "ClCap_Sys_L_Hall_W" = 3415.3   $ Sizing
 "ClCap_Sys_L_LobWait_E" = 8166.203   $ Sizing
 "ClCap_Sys_L_LobWait_N" = 6172.915   $ Sizing
 "ClCap_Sys_L_LobWait_S" = 9015.609   $ Sizing
 "ClCap_Sys_L_LobWait_W" = 7991.831   $ Sizing
 "ClCap_Sys_L_MechElec_C" = 2894.717   $ Sizing
 "ClCap_Sys_L_OfficeOpn_C" = 2048.247   $ Sizing
 "ClCap_Sys_L_OfficeOpn_E" = 16953.75   $ Sizing
 "ClCap_Sys_L_OfficeOpn_N" = 7768.451   $ Sizing
 "ClCap_Sys_L_OfficeOpn_S" = 17120.64   $ Sizing
 "ClCap_Sys_L_OfficeOpn_W" = 15788.79   $ Sizing
 "ClCap_Sys_L_OfficeSm_E" = 14184.1   $ Sizing
 "ClCap_Sys_L_OfficeSm_N" = 6579.42   $ Sizing
 "ClCap_Sys_L_OfficeSm_S" = 15111.58   $ Sizing
 "ClCap_Sys_L_OfficeSm_W" = 13816.77   $ Sizing
 "ClCap_Sys_L_Restrm_C" = 2928.947   $ Sizing
 "ClCap_Sys_L_StorSm_C" = 1651.966   $ Sizing
 "ClCap_Sys_L_StorSm_E" = 3215.112   $ Sizing
 "ClCap_Sys_L_StorSm_N" = 3455.599   $ Sizing
 "ClCap_Sys_L_StorSm_S" = 3466.925   $ Sizing
 "ClCap_Sys_L_StorSm_W" = 3122.212   $ Sizing
 "ClCap_Sys_T_Conf_C" = 9163.695   $ Sizing
 "ClCap_Sys_T_Hall_E" = 3976.006   $ Sizing
 "ClCap_Sys_T_Hall_N" = 2771.813   $ Sizing
 "ClCap_Sys_T_Hall_S" = 4499.213   $ Sizing
 "ClCap_Sys_T_Hall_W" = 3846.751   $ Sizing
 "ClCap_Sys_T_OfficeOpn_C" = 2005.998   $ Sizing
 "ClCap_Sys_T_OfficeOpn_E" = 17223.29   $ Sizing
 "ClCap_Sys_T_OfficeOpn_N" = 8636.531   $ Sizing
 "ClCap_Sys_T_OfficeOpn_S" = 18392.07   $ Sizing
 "ClCap_Sys_T_OfficeOpn_W" = 15926.96   $ Sizing
 "ClCap_Sys_T_OfficeSm_E" = 14721.15   $ Sizing
 "ClCap_Sys_T_OfficeSm_N" = 6828.584   $ Sizing
 "ClCap_Sys_T_OfficeSm_S" = 16363.43   $ Sizing
 "ClCap_Sys_T_OfficeSm_W" = 14009.98   $ Sizing
 "ClCap_Sys_T_Restrm_C" = 2928.947   $ Sizing
 "ClCap_Sys_T_StorSm_E" = 3861.487   $ Sizing
 "ClCap_Sys_T_StorSm_N" = 3395.424   $ Sizing
 "ClCap_Sys_T_StorSm_S" = 4240.31   $ Sizing
 "ClCap_Sys_T_StorSm_W" = 3765.654   $ Sizing
 "HRtECT_Sys_L_Break_C" = 47   $ Sizing
 "HRtECT_Sys_L_CompDC_C" = 47   $ Sizing
 "HRtECT_Sys_L_Conf_C" = 47   $ Sizing
 "HRtECT_Sys_L_CopyRm_C" = 47   $ Sizing
 "HRtECT_Sys_L_Hall_E" = 47   $ Sizing
 "HRtECT_Sys_L_Hall_N" = 47   $ Sizing
 "HRtECT_Sys_L_Hall_S" = 47   $ Sizing
 "HRtECT_Sys_L_Hall_W" = 47   $ Sizing
 "HRtECT_Sys_L_LobWait_E" = 47   $ Sizing
 "HRtECT_Sys_L_LobWait_N" = 47   $ Sizing
 "HRtECT_Sys_L_LobWait_S" = 47   $ Sizing
 "HRtECT_Sys_L_LobWait_W" = 47   $ Sizing
 "HRtECT_Sys_L_MechElec_C" = 47   $ Sizing
 "HRtECT_Sys_L_OfficeOpn_C" = 47   $ Sizing
 "HRtECT_Sys_L_OfficeOpn_E" = 47   $ Sizing
 "HRtECT_Sys_L_OfficeOpn_N" = 47   $ Sizing
 "HRtECT_Sys_L_OfficeOpn_S" = 47   $ Sizing
 "HRtECT_Sys_L_OfficeOpn_W" = 47   $ Sizing
 "HRtECT_Sys_L_OfficeSm_E" = 47   $ Sizing
 "HRtECT_Sys_L_OfficeSm_N" = 47   $ Sizing
 "HRtECT_Sys_L_OfficeSm_S" = 47   $ Sizing
 "HRtECT_Sys_L_OfficeSm_W" = 47   $ Sizing
 "HRtECT_Sys_L_Restrm_C" = 47   $ Sizing
 "HRtECT_Sys_L_StorSm_C" = 47   $ Sizing
 "HRtECT_Sys_L_StorSm_E" = 47   $ Sizing
 "HRtECT_Sys_L_StorSm_N" = 47   $ Sizing
 "HRtECT_Sys_L_StorSm_S" = 47   $ Sizing
 "HRtECT_Sys_L_StorSm_W" = 47   $ Sizing
 "HRtECT_Sys_T_Conf_C" = 47   $ Sizing
 "HRtECT_Sys_T_Hall_E" = 47   $ Sizing
 "HRtECT_Sys_T_Hall_N" = 47   $ Sizing
 "HRtECT_Sys_T_Hall_S" = 47   $ Sizing
 "HRtECT_Sys_T_Hall_W" = 47   $ Sizing
 "HRtECT_Sys_T_OfficeOpn_C" = 47   $ Sizing
 "HRtECT_Sys_T_OfficeOpn_E" = 47   $ Sizing
 "HRtECT_Sys_T_OfficeOpn_N" = 47   $ Sizing
 "HRtECT_Sys_T_OfficeOpn_S" = 47   $ Sizing
 "HRtECT_Sys_T_OfficeOpn_W" = 47   $ Sizing
 "HRtECT_Sys_T_OfficeSm_E" = 47   $ Sizing
 "HRtECT_Sys_T_OfficeSm_N" = 47   $ Sizing
 "HRtECT_Sys_T_OfficeSm_S" = 47   $ Sizing
 "HRtECT_Sys_T_OfficeSm_W" = 47   $ Sizing
 "HRtECT_Sys_T_Restrm_C" = 47   $ Sizing
 "HRtECT_Sys_T_StorSm_E" = 47   $ Sizing
 "HRtECT_Sys_T_StorSm_N" = 47   $ Sizing
 "HRtECT_Sys_T_StorSm_S" = 47   $ Sizing
 "HRtECT_Sys_T_StorSm_W" = 47   $ Sizing
 "HSpCap_Sys_L_Break_C" = -6747.9   $ Sizing
 "HSpCap_Sys_L_CompDC_C" = -2411.613   $ Sizing
 "HSpCap_Sys_L_Conf_C" = -7376.939   $ Sizing
 "HSpCap_Sys_L_CopyRm_C" = -3026.096   $ Sizing
 "HSpCap_Sys_L_Hall_E" = -2434.121   $ Sizing
 "HSpCap_Sys_L_Hall_N" = -2205.676   $ Sizing
 "HSpCap_Sys_L_Hall_S" = -1684.428   $ Sizing
 "HSpCap_Sys_L_Hall_W" = -2316.592   $ Sizing
 "HSpCap_Sys_L_LobWait_E" = -5742.754   $ Sizing
 "HSpCap_Sys_L_LobWait_N" = -5731.261   $ Sizing
 "HSpCap_Sys_L_LobWait_S" = -4630.799   $ Sizing
 "HSpCap_Sys_L_LobWait_W" = -5759.191   $ Sizing
 "HSpCap_Sys_L_MechElec_C" = -2591.146   $ Sizing
 "HSpCap_Sys_L_OfficeOpn_C" = -1518.068   $ Sizing
 "HSpCap_Sys_L_OfficeOpn_E" = -7459.649   $ Sizing
 "HSpCap_Sys_L_OfficeOpn_N" = -6972.579   $ Sizing
 "HSpCap_Sys_L_OfficeOpn_S" = -7533.083   $ Sizing
 "HSpCap_Sys_L_OfficeOpn_W" = -6947.067   $ Sizing
 "HSpCap_Sys_L_OfficeSm_E" = -6241.004   $ Sizing
 "HSpCap_Sys_L_OfficeSm_N" = -5679.128   $ Sizing
 "HSpCap_Sys_L_OfficeSm_S" = -6649.097   $ Sizing
 "HSpCap_Sys_L_OfficeSm_W" = -6079.377   $ Sizing
 "HSpCap_Sys_L_Restrm_C" = -1421.613   $ Sizing
 "HSpCap_Sys_L_StorSm_C" = -1382.913   $ Sizing
 "HSpCap_Sys_L_StorSm_E" = -2624.392   $ Sizing
 "HSpCap_Sys_L_StorSm_N" = -2895.692   $ Sizing
 "HSpCap_Sys_L_StorSm_S" = -1958.633   $ Sizing
 "HSpCap_Sys_L_StorSm_W" = -2573.148   $ Sizing
 "HSpCap_Sys_T_Conf_C" = -7963.381   $ Sizing
 "HSpCap_Sys_T_Hall_E" = -2911.208   $ Sizing
 "HSpCap_Sys_T_Hall_N" = -2608.568   $ Sizing
 "HSpCap_Sys_T_Hall_S" = -2511.851   $ Sizing
 "HSpCap_Sys_T_Hall_W" = -2813.014   $ Sizing
 "HSpCap_Sys_T_OfficeOpn_C" = -1502.739   $ Sizing
 "HSpCap_Sys_T_OfficeOpn_E" = -8294.459   $ Sizing
 "HSpCap_Sys_T_OfficeOpn_N" = -7676.105   $ Sizing
 "HSpCap_Sys_T_OfficeOpn_S" = -8092.511   $ Sizing
 "HSpCap_Sys_T_OfficeOpn_W" = -8342.725   $ Sizing
 "HSpCap_Sys_T_OfficeSm_E" = -7212.106   $ Sizing
 "HSpCap_Sys_T_OfficeSm_N" = -6223.311   $ Sizing
 "HSpCap_Sys_T_OfficeSm_S" = -7199.908   $ Sizing
 "HSpCap_Sys_T_OfficeSm_W" = -6943.689   $ Sizing
 "HSpCap_Sys_T_Restrm_C" = -2600.931   $ Sizing
 "HSpCap_Sys_T_StorSm_E" = -3353.481   $ Sizing
 "HSpCap_Sys_T_StorSm_N" = -3408.864   $ Sizing
 "HSpCap_Sys_T_StorSm_S" = -2737.177   $ Sizing
 "HSpCap_Sys_T_StorSm_W" = -3360.494   $ Sizing
 "HtCap_Sys_L_Break_C" = -8384.705   $ Sizing
 "HtCap_Sys_L_CompDC_C" = -4823.226   $ Sizing
 "HtCap_Sys_L_Conf_C" = -7920.432   $ Sizing
 "HtCap_Sys_L_CopyRm_C" = -1773.733   $ Sizing
 "HtCap_Sys_L_Hall_E" = -2921.572   $ Sizing
 "HtCap_Sys_L_Hall_N" = -2588.091   $ Sizing
 "HtCap_Sys_L_Hall_S" = -3368.855   $ Sizing
 "HtCap_Sys_L_Hall_W" = -3005.464   $ Sizing
 "HtCap_Sys_L_LobWait_E" = -7186.258   $ Sizing
 "HtCap_Sys_L_LobWait_N" = -5432.165   $ Sizing
 "HtCap_Sys_L_LobWait_S" = -7933.736   $ Sizing
 "HtCap_Sys_L_LobWait_W" = -7032.812   $ Sizing
 "HtCap_Sys_L_MechElec_C" = -2547.351   $ Sizing
 "HtCap_Sys_L_OfficeOpn_C" = -1802.458   $ Sizing
 "HtCap_Sys_L_OfficeOpn_E" = -14919.3   $ Sizing
 "HtCap_Sys_L_OfficeOpn_N" = -6836.237   $ Sizing
 "HtCap_Sys_L_OfficeOpn_S" = -15066.17   $ Sizing
 "HtCap_Sys_L_OfficeOpn_W" = -13894.13   $ Sizing
 "HtCap_Sys_L_OfficeSm_E" = -12482.01   $ Sizing
 "HtCap_Sys_L_OfficeSm_N" = -5789.89   $ Sizing
 "HtCap_Sys_L_OfficeSm_S" = -13298.19   $ Sizing
 "HtCap_Sys_L_OfficeSm_W" = -12158.75   $ Sizing
 "HtCap_Sys_L_Restrm_C" = -2577.473   $ Sizing
 "HtCap_Sys_L_StorSm_C" = -1453.73   $ Sizing
 "HtCap_Sys_L_StorSm_E" = -2829.298   $ Sizing
 "HtCap_Sys_L_StorSm_N" = -3040.927   $ Sizing
 "HtCap_Sys_L_StorSm_S" = -3050.894   $ Sizing
 "HtCap_Sys_L_StorSm_W" = -2747.546   $ Sizing
 "HtCap_Sys_T_Conf_C" = -8064.052   $ Sizing
 "HtCap_Sys_T_Hall_E" = -3498.885   $ Sizing
 "HtCap_Sys_T_Hall_N" = -2439.195   $ Sizing
 "HtCap_Sys_T_Hall_S" = -3959.307   $ Sizing
 "HtCap_Sys_T_Hall_W" = -3385.141   $ Sizing
 "HtCap_Sys_T_OfficeOpn_C" = -1765.278   $ Sizing
 "HtCap_Sys_T_OfficeOpn_E" = -15156.49   $ Sizing
 "HtCap_Sys_T_OfficeOpn_N" = -7600.147   $ Sizing
 "HtCap_Sys_T_OfficeOpn_S" = -16185.02   $ Sizing
 "HtCap_Sys_T_OfficeOpn_W" = -14015.72   $ Sizing
 "HtCap_Sys_T_OfficeSm_E" = -12954.61   $ Sizing
 "HtCap_Sys_T_OfficeSm_N" = -6009.154   $ Sizing
 "HtCap_Sys_T_OfficeSm_S" = -14399.82   $ Sizing
 "HtCap_Sys_T_OfficeSm_W" = -12328.79   $ Sizing
 "HtCap_Sys_T_Restrm_C" = -2577.473   $ Sizing
 "HtCap_Sys_T_StorSm_E" = -3398.108   $ Sizing
 "HtCap_Sys_T_StorSm_N" = -2987.973   $ Sizing
 "HtCap_Sys_T_StorSm_S" = -3731.472   $ Sizing
 "HtCap_Sys_T_StorSm_W" = -3313.776   $ Sizing
..

##include Templates\OfS_DX_SZ.inp
END ..
COMPUTE ..
STOP ..
