
Start DOESIM : Storage capacity =  75000000
Starting LOADS   : SAVE-FILES is On , weather is CZ01ARCATA-AP       
Finished LOADS    BDL  1 : Memory (wds) =    279104, Time (sec) =    1.54
Starting REPORT  
Finished REPORT   BDL  1 : Memory (wds) =    548583, Time (sec) =    0.62
Starting HVAC    : SAVE-FILES is On , weather is CZ01ARCATA-AP       
*** ERRORS or WARNINGS from HVAC     program. Examine output file for details.
Finished HVAC     BDL  1 : Memory (wds) =    483220, Time (sec) =    7.94
Starting REPORT  
Finished REPORT   BDL  1 : Memory (wds) =    860636, Time (sec) =    0.63
Starting HOURLY-R
Finished HOURLY-R BDL  1 : Memory (wds) =   1100255, Time (sec) =    0.15
Starting ECONOMIC
Finished ECONOMIC BDL  1 : Memory (wds) =      1034, Time (sec) =    0.03
End   DOESIM : Total elapsed time of     10.9 seconds
RUN COMPLETE
