INPUT ..

##fileprefix C:\Users\jglasskatz\MASControl3\
##set1 IsSizing FALSE
##set1 CoolType DX
##set1 HeatType FURNACE
##set1 EU_HrRepVar 0
##set1 BldgVint 1975
##set1 BldgLoc CZ06

 ##set1 mBFMult 1   $ IP Tech: RefgChg-NRes-Std

PARAMETER
 "AltFactor" = 1.00328   $ IP Non-Tech
 "BF_fFlow" = SpltAC1Sp_BF_fFlow   $ Msr (Var)TechID: PreNResSplitAC-45to-PENo
 "BF_fT" = SpltAC1Sp_BF_fT   $ Msr (Var)TechID: PreNResSplitAC-45to-PENo
 "BldgEconoFlag" = 1   $ IP Non-Tech
 "Break_EWSF" = 1   $ IP Non-Tech
 "Break_LWSF" = 1.1   $ IP Non-Tech
 "CDD_DBHi10" = 87   $ IP Non-Tech
 "CDD_DBHi7" = 80   $ IP Non-Tech
 "CDD_DBHi8" = 78   $ IP Non-Tech
 "CDD_DBHi9" = 84   $ IP Non-Tech
 "CDD_DBRange10" = 30   $ IP Non-Tech
 "CDD_DBRange7" = 11   $ IP Non-Tech
 "CDD_DBRange8" = 11   $ IP Non-Tech
 "CDD_DBRange9" = 16   $ IP Non-Tech
 "CDD_Day10" = 15   $ IP Non-Tech
 "CDD_Day7" = 16   $ IP Non-Tech
 "CDD_Day8" = 20   $ IP Non-Tech
 "CDD_Day9" = 17   $ IP Non-Tech
 "CDD_HrHi10" = 12   $ IP Non-Tech
 "CDD_HrHi7" = 13   $ IP Non-Tech
 "CDD_HrHi8" = 13   $ IP Non-Tech
 "CDD_HrHi9" = 17   $ IP Non-Tech
 "CDD_HrLo10" = 3   $ IP Non-Tech
 "CDD_HrLo7" = 3   $ IP Non-Tech
 "CDD_HrLo8" = 3   $ IP Non-Tech
 "CDD_HrLo9" = 3   $ IP Non-Tech
 "CDD_WB10" = 65.31027985   $ IP Non-Tech
 "CDD_WB7" = 69.10741425   $ IP Non-Tech
 "CDD_WB8" = 67.58412933   $ IP Non-Tech
 "CDD_WB9" = 69.6863327   $ IP Non-Tech
 "CEIR_fPLR_Hot" = SpltAC1Sp_CEIR_fPLR_Hot   $ Msr (Var)TechID: PreNResSplitAC-45to-PENo
 "CEIR_fPLR_Mod" = SpltAC1Sp_CEIR_fPLR_Mod   $ Msr (Var)TechID: PreNResSplitAC-45to-PENo
 "CEIR_fPLR_Tem" = SpltAC1Sp_CEIR_fPLR_Tem   $ Msr (Var)TechID: PreNResSplitAC-45to-PENo
 "CLoss_fPLR_Hot" = SpltAC1Sp_CLoss_fPLR_Hot   $ Msr (Var)TechID: PreNResSplitAC-45to-PENo
 "CLoss_fPLR_Mod" = SpltAC1Sp_CLoss_fPLR_Mod   $ Msr (Var)TechID: PreNResSplitAC-45to-PENo
 "CLoss_fPLR_Tem" = SpltAC1Sp_CLoss_fPLR_Tem   $ Msr (Var)TechID: PreNResSplitAC-45to-PENo
 "COP47" = 0   $ Msr (Var)TechID: PreNResSplitAC-45to-PENo
 "CZ_Category" = Tem   $ IP Non-Tech
 "CapRange" = Any   $ Msr (Var)TechID: PreNResSplitAC-45to-PENo
 "CfmPerBtuh" = 0.0321   $ Msr (Var)TechID: PreNResSplitAC-45to-PENo
 "ChwVintEconoFlag" = 1   $ IP Non-Tech
 "ClCap_fT" = SpltAC1Sp_ClCap_fT   $ Msr (Var)TechID: PreNResSplitAC-45to-PENo
 "ClSH_fT" = SpltAC1Sp_ClSH_fT   $ Msr (Var)TechID: PreNResSplitAC-45to-PENo
 "CoilBF" = 0.12   $ Msr (Var)TechID: PreNResSplitAC-45to-PENo
 "CompRoomData_EWSF" = 5.75   $ IP Non-Tech
 "CompRoomData_LWSF" = 1.2   $ IP Non-Tech
 "CondWPerBtuh" = 0   $ Msr (Var)TechID: PreNResSplitAC-45to-PENo
 "Conference_EWSF" = 1.15   $ IP Non-Tech
 "Conference_LWSF" = 1.4   $ IP Non-Tech
 "CoolSensCap" = 0.744   $ Msr (Var)TechID: PreNResSplitAC-45to-PENo
 "CoolSetT" = 45   $ IP Non-Tech
 "CoolType" = DX   $ IP Non-Tech
 "CoolingEIR" = 0.29437   $ Msr (Var)TechID: PreNResSplitAC-45to-PENo
 "CopyRoom_EWSF" = 1.725   $ IP Non-Tech
 "CopyRoom_LWSF" = 1.3   $ IP Non-Tech
 "CrnkEIR" = 0.0029437   $ Msr (Var)TechID: PreNResSplitAC-45to-PENo
 "CrnkMaxT" = 50   $ Msr (Var)TechID: PreNResSplitAC-45to-PENo
 "DXType" = SplitSEER   $ Msr (Var)TechID: PreNResSplitAC-45to-PENo
 "DesCoolT" = 75   $ IP Non-Tech
 "DesHeatT" = 73   $ IP Non-Tech
 "EER" = 9.799295775   $ Msr (Var)TechID: PreNResSplitAC-45to-PENo
 "EIR_fT" = SpltAC1Sp_EIR_fT   $ Msr (Var)TechID: PreNResSplitAC-45to-PENo
 "EconoCtrl" = FIXED   $ Msr (Multi)TechID: PreNResSplitAC-45to-PENo
 "EconoEnthLimit" = 28   $ IP Non-Tech
 "EconoTempLimit" = 71   $ IP Non-Tech
 "Elevation" = 88   $ IP Non-Tech
 "FanEirPlr" = TwoSpeedFan   $ Msr (Var)TechID: PreNResSplitAC-45to-PENo
 "FanWPerCfm" = 0.365   $ Msr (Var)TechID: PreNResSplitAC-45to-PENo
 "HDD_CloudAmt1" = 0   $ IP Non-Tech
 "HDD_DBHi1" = 58   $ IP Non-Tech
 "HDD_DBRange1" = 21   $ IP Non-Tech
 "HDD_Day1" = 15   $ IP Non-Tech
 "HDD_HrHi1" = 13   $ IP Non-Tech
 "HDD_HrLo1" = 4   $ IP Non-Tech
 "HDD_WB1" = 52.8   $ IP Non-Tech
 "HDD_WindSpd1" = 10.4   $ IP Non-Tech
 "HIR_fT" = 0   $ Msr (Var)TechID: PreNResSplitAC-45to-PENo
 "HSPF" = 0   $ Msr (Var)TechID: PreNResSplitAC-45to-PENo
 "Hall_EWSF" = 0.23   $ IP Non-Tech
 "Hall_LWSF" = 0.6   $ IP Non-Tech
 "HeatSrc" = FURNACE   $ IP Non-Tech
 "HeatSrcTU" = HEAT-PUMP   $ IP Non-Tech
 "HeatType" = GasFurn   $ IP Non-Tech
 "HeatTypeTU" = HEAT-PUMP   $ IP Non-Tech
 "HtCap_fT" = 0   $ Msr (Var)TechID: PreNResSplitAC-45to-PENo
 "HtCoolCapRatio" = 0   $ Msr (Var)TechID: PreNResSplitAC-45to-PENo
 "HtgEIR" = 0   $ Msr (Var)TechID: PreNResSplitAC-45to-PENo
 "IndoorFanMode" = CONTINUOUS   $ IP Non-Tech
 "KT_TransferAir" = No   $ IP Non-Tech
 "Latitude" = 33.9   $ IP Non-Tech
 "LobbyWaiting_EWSF" = 0.5375   $ IP Non-Tech
 "LobbyWaiting_LWSF" = 1.3   $ IP Non-Tech
 "Longitude" = 118.4   $ IP Non-Tech
 "LowSpdCapRatio" = 1   $ Msr (Var)TechID: PreNResSplitAC-45to-PENo
 "LowSpdCfmRatio" = 1   $ Msr (Var)TechID: PreNResSplitAC-45to-PENo
 "MZFanMechEff" = 0.58   $ IP Non-Tech
 "MZHasRetFan" = FALSE   $ IP Non-Tech
 "MZ_RFanWPerCfm" = 0.33   $ IP Non-Tech
 "MZ_SFanWPerCfm" = 0.75   $ IP Non-Tech
 "MZ_SupFanStatic" = 2.25   $ IP Non-Tech
 "MaxOAFrac" = 1   $ Msr (Multi)TechID: PreNResSplitAC-45to-PENo
 "MaxSupT_MZ" = 100   $ IP Non-Tech
 "MaxSupT_SZ" = 100   $ IP Non-Tech
 "MaxSupT_TU" = 90   $ IP Non-Tech
 "MechElecRoom_EWSF" = 0.23   $ IP Non-Tech
 "MechElecRoom_LWSF" = 0.7   $ IP Non-Tech
 "MinCfmPerSF" = 0.4   $ IP Non-Tech
 "MinSupT" = 55   $ IP Non-Tech
 "NumStages" = 1   $ Msr (Var)TechID: PreNResSplitAC-45to-PENo
 "OccCoolT" = 76   $ IP Non-Tech
 "OccHeatT" = 72   $ IP Non-Tech
 "OfficeOpen_EWSF" = 1.725   $ IP Non-Tech
 "OfficeOpen_LWSF" = 1.2   $ IP Non-Tech
 "OfficeSmall_EWSF" = 1.725   $ IP Non-Tech
 "OfficeSmall_LWSF" = 1.3   $ IP Non-Tech
 "PkgDxVintEconoFlag" = 0   $ IP Non-Tech
 "Restroom_EWSF" = 0.23   $ IP Non-Tech
 "Restroom_LWSF" = 0.6   $ IP Non-Tech
 "SEER" = 11.5   $ Msr (Var)TechID: PreNResSplitAC-45to-PENo
 "SZFanMechEff" = 0.58   $ IP Non-Tech
 "SZHasRetFan" = FALSE   $ IP Non-Tech
 "SZ_Is_2Spd" = FALSE   $ IP Non-Tech
 "SZ_SFanWPerCfm" = 0.46   $ IP Non-Tech
 "SZ_SupFanStatic" = 0.75   $ IP Non-Tech
 "Sector" = Any   $ Msr (Var)TechID: PreNResSplitAC-45to-PENo
 "StorageSmlCond_EWSF" = 0.23   $ IP Non-Tech
 "StorageSmlCond_LWSF" = 0.6   $ IP Non-Tech
 "SubType" = AC   $ Msr (Var)TechID: PreNResSplitAC-45to-PENo
 "T24GlzTbl" = CZTbl   $ IP Non-Tech
 "TermUnitFanMechEff" = 1   $ IP Non-Tech
 "TermUnitFanMode" = INTERMITTENT   $ IP Non-Tech
 "TotCoolCap" = 34895   $ Msr (Var)TechID: PreNResSplitAC-45to-PENo
 "TwrSetpt" = 80   $ IP Non-Tech
 "UnocCoolT" = 86   $ IP Non-Tech
 "UnocHeatT" = 62   $ IP Non-Tech
 "UseEconoVintApplic" = FALSE   $ Msr (Multi)TechID: PreNResSplitAC-45to-PENo
 "WlhpVintEconoFlag" = 0   $ IP Non-Tech
 "DuctDT" = 1   $ IP Tech: ComDuctInsul-1
 "DuctAirLoss" = 0   $ IP Tech: ComDuctLeak-0
 "DuctLossOAFrac" = 0   $ IP Tech: ComDuctLeak-0
 "ComRoofInsCalc" = FromUo   $ IP Tech: ComRoofIns-WFrm-0.07
 "ComRoofInsR" = -999   $ IP Tech: ComRoofIns-WFrm-0.07
 "ComRoofUo" = 0.07   $ IP Tech: ComRoofIns-WFrm-0.07
 "ComEWInsCalc" = FromUo   $ IP Tech: ComWallIns-WFrm-0.12
 "ComEWInsR" = -999   $ IP Tech: ComWallIns-WFrm-0.12
 "ComEWUo" = 0.12   $ IP Tech: ComWallIns-WFrm-0.12
 "ComN_SHGC" = 0.82   $ IP Tech: NResWin-ComN-1.23-0.82
 "ComN_UFactor" = 1.23   $ IP Tech: NResWin-ComN-1.23-0.82
 "ComN_VisTrans" = 0.9   $ IP Tech: NResWin-ComN-1.23-0.82
 "ComN_WinCode" = G1000   $ IP Tech: NResWin-ComN-1.23-0.82
 "ComN_WinFrmFrac" = 0.17   $ IP Tech: NResWin-ComN-1.23-0.82
 "ComN_WinFrmU" = 1   $ IP Tech: NResWin-ComN-1.23-0.82
 "ComO_SHGC" = 0.82   $ IP Tech: NResWin-ComO-1.23-0.82
 "ComO_UFactor" = 1.23   $ IP Tech: NResWin-ComO-1.23-0.82
 "ComO_VisTrans" = 0.9   $ IP Tech: NResWin-ComO-1.23-0.82
 "ComO_WinCode" = G1000   $ IP Tech: NResWin-ComO-1.23-0.82
 "ComO_WinFrmFrac" = 0.17   $ IP Tech: NResWin-ComO-1.23-0.82
 "ComO_WinFrmU" = 1   $ IP Tech: NResWin-ComO-1.23-0.82
 "LtgMsrApplic" = ALL   $ IP Tech: NonResLtgRefPre
 "LtgSav_CFL" = 0   $ IP Tech: NonResLtgRefPre
 "LtgSav_EX" = 0   $ IP Tech: NonResLtgRefPre
 "LtgSav_HB" = 0   $ IP Tech: NonResLtgRefPre
 "LtgSav_LF" = 0   $ IP Tech: NonResLtgRefPre
 "LtgSav_SP" = 0   $ IP Tech: NonResLtgRefPre
 "CEIR_fPLR" = PSZ65to135_CEIR_fPLR   $ IP Tech: PkgAC1SpH-65to135-E10
 "CLoss_fPLR" = PSZ65to135_CLoss_fPLR   $ IP Tech: PkgAC1SpH-65to135-E10
 "COP" = -1   $ IP Tech: PkgAC1SpH-65to135-E10
 "HtgFuel" = Gas   $ IP Tech: PkgAC1SpH-65to135-E10
 "IEER" = 11.87   $ IP Tech: PkgAC1SpH-65to135-E10
 "NominalCap" = 15   $ IP Tech: PkgAC1SpH-65to135-E10
 "RatedEER" = 10   $ IP Tech: PkgAC1SpH-65to135-E10
 "RatedSupMtrClass" = HiEff   $ IP Tech: PkgAC1SpH-65to135-E10
 "SizeRange" = 65to135   $ IP Tech: PkgAC1SpH-65to135-E10
 "SupMotEff" = 0.84   $ IP Tech: PkgAC1SpH-65to135-E10
 "Tier" = 0   $ IP Tech: PkgAC1SpH-65to135-E10
 "FanPwrMult" = 1   $ IP Tech: PkgFurn-0.80AFUE
 "FurnAFUE" = 0.8   $ IP Tech: PkgFurn-0.80AFUE
 "FurnEt" = 0.82   $ IP Tech: PkgFurn-0.80AFUE
 "FurnaceAuxKW" = 0.1   $ IP Tech: PkgFurn-0.80AFUE
 "HIR_fPLR" = Furnace-HIR-fPLR   $ IP Tech: PkgFurn-0.80AFUE
 "VSM" = FALSE   $ IP Tech: PkgFurn-0.80AFUE
 "BFMult" = 1   $ IP Tech: RefgChg-NRes-Std
 "CoolEirMult" = 1   $ IP Tech: RefgChg-NRes-Std
 "SensCoolCapMult" = 1   $ IP Tech: RefgChg-NRes-Std
 "TotCoolCapMult" = 1   $ IP Tech: RefgChg-NRes-Std
 "AltAdjFactor" = 1.003277   $ Sizing
 "CAssFlo_L_Break_CZn" = 319.802   $ Sizing
 "CAssFlo_L_CompDC_CZn" = 191.3364   $ Sizing
 "CAssFlo_L_Conf_CZn" = 241.9848   $ Sizing
 "CAssFlo_L_CopyRm_CZn" = 90.71803   $ Sizing
 "CAssFlo_L_Hall_EZn" = 190.0388   $ Sizing
 "CAssFlo_L_Hall_NZn" = 58.9593   $ Sizing
 "CAssFlo_L_Hall_SZn" = 212.492   $ Sizing
 "CAssFlo_L_Hall_WZn" = 194.4965   $ Sizing
 "CAssFlo_L_LobWait_EZn" = 437.2487   $ Sizing
 "CAssFlo_L_LobWait_NZn" = 142.2219   $ Sizing
 "CAssFlo_L_LobWait_SZn" = 486.453   $ Sizing
 "CAssFlo_L_LobWait_WZn" = 446.3384   $ Sizing
 "CAssFlo_L_MechElec_CZn" = 95.17142   $ Sizing
 "CAssFlo_L_OfficeOpn_CZn" = 82.51202   $ Sizing
 "CAssFlo_L_OfficeOpn_EZn" = 809.1124   $ Sizing
 "CAssFlo_L_OfficeOpn_NZn" = 355.4644   $ Sizing
 "CAssFlo_L_OfficeOpn_SZn" = 836.7217   $ Sizing
 "CAssFlo_L_OfficeOpn_WZn" = 815.3008   $ Sizing
 "CAssFlo_L_OfficeSm_EZn" = 707.1511   $ Sizing
 "CAssFlo_L_OfficeSm_NZn" = 280.9383   $ Sizing
 "CAssFlo_L_OfficeSm_SZn" = 748.533   $ Sizing
 "CAssFlo_L_OfficeSm_WZn" = 722.9004   $ Sizing
 "CAssFlo_L_Restrm_CZn" = 90.21307   $ Sizing
 "CAssFlo_L_StorSm_CZn" = 41.3012   $ Sizing
 "CAssFlo_L_StorSm_EZn" = 186.0109   $ Sizing
 "CAssFlo_L_StorSm_NZn" = 67.80505   $ Sizing
 "CAssFlo_L_StorSm_SZn" = 204.0282   $ Sizing
 "CAssFlo_L_StorSm_WZn" = 178.7809   $ Sizing
 "CAssFlo_T_Conf_CZn" = 231.8229   $ Sizing
 "CAssFlo_T_Hall_EZn" = 202.0578   $ Sizing
 "CAssFlo_T_Hall_NZn" = 65.96351   $ Sizing
 "CAssFlo_T_Hall_SZn" = 237.525   $ Sizing
 "CAssFlo_T_Hall_WZn" = 208.7377   $ Sizing
 "CAssFlo_T_OfficeOpn_CZn" = 70.04325   $ Sizing
 "CAssFlo_T_OfficeOpn_EZn" = 791.3313   $ Sizing
 "CAssFlo_T_OfficeOpn_NZn" = 351.028   $ Sizing
 "CAssFlo_T_OfficeOpn_SZn" = 875.9938   $ Sizing
 "CAssFlo_T_OfficeOpn_WZn" = 796.9326   $ Sizing
 "CAssFlo_T_OfficeSm_EZn" = 698.2547   $ Sizing
 "CAssFlo_T_OfficeSm_NZn" = 282.1091   $ Sizing
 "CAssFlo_T_OfficeSm_SZn" = 788.7246   $ Sizing
 "CAssFlo_T_OfficeSm_WZn" = 715.8868   $ Sizing
 "CAssFlo_T_Restrm_CZn" = 134.0008   $ Sizing
 "CAssFlo_T_StorSm_EZn" = 195.722   $ Sizing
 "CAssFlo_T_StorSm_NZn" = 71.0206   $ Sizing
 "CAssFlo_T_StorSm_SZn" = 228.7737   $ Sizing
 "CAssFlo_T_StorSm_WZn" = 202.7446   $ Sizing
 "CHRtFlo_Sys_L_Break_C" = 319.802   $ Sizing
 "CHRtFlo_Sys_L_CompDC_C" = 191.3364   $ Sizing
 "CHRtFlo_Sys_L_Conf_C" = 241.9848   $ Sizing
 "CHRtFlo_Sys_L_CopyRm_C" = 90.71803   $ Sizing
 "CHRtFlo_Sys_L_Hall_E" = 190.0388   $ Sizing
 "CHRtFlo_Sys_L_Hall_N" = 58.9593   $ Sizing
 "CHRtFlo_Sys_L_Hall_S" = 212.492   $ Sizing
 "CHRtFlo_Sys_L_Hall_W" = 194.4965   $ Sizing
 "CHRtFlo_Sys_L_LobWait_E" = 437.2487   $ Sizing
 "CHRtFlo_Sys_L_LobWait_N" = 142.2219   $ Sizing
 "CHRtFlo_Sys_L_LobWait_S" = 486.453   $ Sizing
 "CHRtFlo_Sys_L_LobWait_W" = 446.3384   $ Sizing
 "CHRtFlo_Sys_L_MechElec_C" = 95.17142   $ Sizing
 "CHRtFlo_Sys_L_OfficeOpn_C" = 82.51202   $ Sizing
 "CHRtFlo_Sys_L_OfficeOpn_E" = 809.1124   $ Sizing
 "CHRtFlo_Sys_L_OfficeOpn_N" = 355.4644   $ Sizing
 "CHRtFlo_Sys_L_OfficeOpn_S" = 836.7217   $ Sizing
 "CHRtFlo_Sys_L_OfficeOpn_W" = 815.3008   $ Sizing
 "CHRtFlo_Sys_L_OfficeSm_E" = 707.1511   $ Sizing
 "CHRtFlo_Sys_L_OfficeSm_N" = 280.9383   $ Sizing
 "CHRtFlo_Sys_L_OfficeSm_S" = 748.533   $ Sizing
 "CHRtFlo_Sys_L_OfficeSm_W" = 722.9004   $ Sizing
 "CHRtFlo_Sys_L_Restrm_C" = 90.21307   $ Sizing
 "CHRtFlo_Sys_L_StorSm_C" = 41.3012   $ Sizing
 "CHRtFlo_Sys_L_StorSm_E" = 186.0109   $ Sizing
 "CHRtFlo_Sys_L_StorSm_N" = 67.80505   $ Sizing
 "CHRtFlo_Sys_L_StorSm_S" = 204.0282   $ Sizing
 "CHRtFlo_Sys_L_StorSm_W" = 178.7809   $ Sizing
 "CHRtFlo_Sys_T_Conf_C" = 231.8229   $ Sizing
 "CHRtFlo_Sys_T_Hall_E" = 202.0578   $ Sizing
 "CHRtFlo_Sys_T_Hall_N" = 65.96351   $ Sizing
 "CHRtFlo_Sys_T_Hall_S" = 237.525   $ Sizing
 "CHRtFlo_Sys_T_Hall_W" = 208.7377   $ Sizing
 "CHRtFlo_Sys_T_OfficeOpn_C" = 70.04325   $ Sizing
 "CHRtFlo_Sys_T_OfficeOpn_E" = 791.3313   $ Sizing
 "CHRtFlo_Sys_T_OfficeOpn_N" = 351.028   $ Sizing
 "CHRtFlo_Sys_T_OfficeOpn_S" = 875.9938   $ Sizing
 "CHRtFlo_Sys_T_OfficeOpn_W" = 796.9326   $ Sizing
 "CHRtFlo_Sys_T_OfficeSm_E" = 698.2547   $ Sizing
 "CHRtFlo_Sys_T_OfficeSm_N" = 282.1091   $ Sizing
 "CHRtFlo_Sys_T_OfficeSm_S" = 788.7246   $ Sizing
 "CHRtFlo_Sys_T_OfficeSm_W" = 715.8868   $ Sizing
 "CHRtFlo_Sys_T_Restrm_C" = 134.0008   $ Sizing
 "CHRtFlo_Sys_T_StorSm_E" = 195.722   $ Sizing
 "CHRtFlo_Sys_T_StorSm_N" = 71.0206   $ Sizing
 "CHRtFlo_Sys_T_StorSm_S" = 228.7737   $ Sizing
 "CHRtFlo_Sys_T_StorSm_W" = 202.7446   $ Sizing
 "CRtdFlo_Sys_L_Break_C" = 319.802   $ Sizing
 "CRtdFlo_Sys_L_CompDC_C" = 191.3364   $ Sizing
 "CRtdFlo_Sys_L_Conf_C" = 241.9848   $ Sizing
 "CRtdFlo_Sys_L_CopyRm_C" = 90.71803   $ Sizing
 "CRtdFlo_Sys_L_Hall_E" = 190.0388   $ Sizing
 "CRtdFlo_Sys_L_Hall_N" = 58.9593   $ Sizing
 "CRtdFlo_Sys_L_Hall_S" = 212.492   $ Sizing
 "CRtdFlo_Sys_L_Hall_W" = 194.4965   $ Sizing
 "CRtdFlo_Sys_L_LobWait_E" = 437.2487   $ Sizing
 "CRtdFlo_Sys_L_LobWait_N" = 142.2219   $ Sizing
 "CRtdFlo_Sys_L_LobWait_S" = 486.453   $ Sizing
 "CRtdFlo_Sys_L_LobWait_W" = 446.3384   $ Sizing
 "CRtdFlo_Sys_L_MechElec_C" = 95.17142   $ Sizing
 "CRtdFlo_Sys_L_OfficeOpn_C" = 82.51202   $ Sizing
 "CRtdFlo_Sys_L_OfficeOpn_E" = 809.1124   $ Sizing
 "CRtdFlo_Sys_L_OfficeOpn_N" = 355.4644   $ Sizing
 "CRtdFlo_Sys_L_OfficeOpn_S" = 836.7217   $ Sizing
 "CRtdFlo_Sys_L_OfficeOpn_W" = 815.3008   $ Sizing
 "CRtdFlo_Sys_L_OfficeSm_E" = 707.1511   $ Sizing
 "CRtdFlo_Sys_L_OfficeSm_N" = 280.9383   $ Sizing
 "CRtdFlo_Sys_L_OfficeSm_S" = 748.533   $ Sizing
 "CRtdFlo_Sys_L_OfficeSm_W" = 722.9004   $ Sizing
 "CRtdFlo_Sys_L_Restrm_C" = 90.21307   $ Sizing
 "CRtdFlo_Sys_L_StorSm_C" = 41.3012   $ Sizing
 "CRtdFlo_Sys_L_StorSm_E" = 186.0109   $ Sizing
 "CRtdFlo_Sys_L_StorSm_N" = 67.80505   $ Sizing
 "CRtdFlo_Sys_L_StorSm_S" = 204.0282   $ Sizing
 "CRtdFlo_Sys_L_StorSm_W" = 178.7809   $ Sizing
 "CRtdFlo_Sys_T_Conf_C" = 231.8229   $ Sizing
 "CRtdFlo_Sys_T_Hall_E" = 202.0578   $ Sizing
 "CRtdFlo_Sys_T_Hall_N" = 65.96351   $ Sizing
 "CRtdFlo_Sys_T_Hall_S" = 237.525   $ Sizing
 "CRtdFlo_Sys_T_Hall_W" = 208.7377   $ Sizing
 "CRtdFlo_Sys_T_OfficeOpn_C" = 70.04325   $ Sizing
 "CRtdFlo_Sys_T_OfficeOpn_E" = 791.3313   $ Sizing
 "CRtdFlo_Sys_T_OfficeOpn_N" = 351.028   $ Sizing
 "CRtdFlo_Sys_T_OfficeOpn_S" = 875.9938   $ Sizing
 "CRtdFlo_Sys_T_OfficeOpn_W" = 796.9326   $ Sizing
 "CRtdFlo_Sys_T_OfficeSm_E" = 698.2547   $ Sizing
 "CRtdFlo_Sys_T_OfficeSm_N" = 282.1091   $ Sizing
 "CRtdFlo_Sys_T_OfficeSm_S" = 788.7246   $ Sizing
 "CRtdFlo_Sys_T_OfficeSm_W" = 715.8868   $ Sizing
 "CRtdFlo_Sys_T_Restrm_C" = 134.0008   $ Sizing
 "CRtdFlo_Sys_T_StorSm_E" = 195.722   $ Sizing
 "CRtdFlo_Sys_T_StorSm_N" = 71.0206   $ Sizing
 "CRtdFlo_Sys_T_StorSm_S" = 228.7737   $ Sizing
 "CRtdFlo_Sys_T_StorSm_W" = 202.7446   $ Sizing
 "CSupFlo_Sys_L_Break_C" = 319.802   $ Sizing
 "CSupFlo_Sys_L_CompDC_C" = 191.3364   $ Sizing
 "CSupFlo_Sys_L_Conf_C" = 241.9848   $ Sizing
 "CSupFlo_Sys_L_CopyRm_C" = 90.71803   $ Sizing
 "CSupFlo_Sys_L_Hall_E" = 190.0388   $ Sizing
 "CSupFlo_Sys_L_Hall_N" = 58.9593   $ Sizing
 "CSupFlo_Sys_L_Hall_S" = 212.492   $ Sizing
 "CSupFlo_Sys_L_Hall_W" = 194.4965   $ Sizing
 "CSupFlo_Sys_L_LobWait_E" = 437.2487   $ Sizing
 "CSupFlo_Sys_L_LobWait_N" = 142.2219   $ Sizing
 "CSupFlo_Sys_L_LobWait_S" = 486.453   $ Sizing
 "CSupFlo_Sys_L_LobWait_W" = 446.3384   $ Sizing
 "CSupFlo_Sys_L_MechElec_C" = 95.17142   $ Sizing
 "CSupFlo_Sys_L_OfficeOpn_C" = 82.51202   $ Sizing
 "CSupFlo_Sys_L_OfficeOpn_E" = 809.1124   $ Sizing
 "CSupFlo_Sys_L_OfficeOpn_N" = 355.4644   $ Sizing
 "CSupFlo_Sys_L_OfficeOpn_S" = 836.7217   $ Sizing
 "CSupFlo_Sys_L_OfficeOpn_W" = 815.3008   $ Sizing
 "CSupFlo_Sys_L_OfficeSm_E" = 707.1511   $ Sizing
 "CSupFlo_Sys_L_OfficeSm_N" = 280.9383   $ Sizing
 "CSupFlo_Sys_L_OfficeSm_S" = 748.533   $ Sizing
 "CSupFlo_Sys_L_OfficeSm_W" = 722.9004   $ Sizing
 "CSupFlo_Sys_L_Restrm_C" = 90.21307   $ Sizing
 "CSupFlo_Sys_L_StorSm_C" = 41.3012   $ Sizing
 "CSupFlo_Sys_L_StorSm_E" = 186.0109   $ Sizing
 "CSupFlo_Sys_L_StorSm_N" = 67.80505   $ Sizing
 "CSupFlo_Sys_L_StorSm_S" = 204.0282   $ Sizing
 "CSupFlo_Sys_L_StorSm_W" = 178.7809   $ Sizing
 "CSupFlo_Sys_T_Conf_C" = 231.8229   $ Sizing
 "CSupFlo_Sys_T_Hall_E" = 202.0578   $ Sizing
 "CSupFlo_Sys_T_Hall_N" = 65.96351   $ Sizing
 "CSupFlo_Sys_T_Hall_S" = 237.525   $ Sizing
 "CSupFlo_Sys_T_Hall_W" = 208.7377   $ Sizing
 "CSupFlo_Sys_T_OfficeOpn_C" = 70.04325   $ Sizing
 "CSupFlo_Sys_T_OfficeOpn_E" = 791.3313   $ Sizing
 "CSupFlo_Sys_T_OfficeOpn_N" = 351.028   $ Sizing
 "CSupFlo_Sys_T_OfficeOpn_S" = 875.9938   $ Sizing
 "CSupFlo_Sys_T_OfficeOpn_W" = 796.9326   $ Sizing
 "CSupFlo_Sys_T_OfficeSm_E" = 698.2547   $ Sizing
 "CSupFlo_Sys_T_OfficeSm_N" = 282.1091   $ Sizing
 "CSupFlo_Sys_T_OfficeSm_S" = 788.7246   $ Sizing
 "CSupFlo_Sys_T_OfficeSm_W" = 715.8868   $ Sizing
 "CSupFlo_Sys_T_Restrm_C" = 134.0008   $ Sizing
 "CSupFlo_Sys_T_StorSm_E" = 195.722   $ Sizing
 "CSupFlo_Sys_T_StorSm_N" = 71.0206   $ Sizing
 "CSupFlo_Sys_T_StorSm_S" = 228.7737   $ Sizing
 "CSupFlo_Sys_T_StorSm_W" = 202.7446   $ Sizing
 "ClCap_Sys_L_Break_C" = 10928.82   $ Sizing
 "ClCap_Sys_L_CompDC_C" = 6538.678   $ Sizing
 "ClCap_Sys_L_Conf_C" = 10524.84   $ Sizing
 "ClCap_Sys_L_CopyRm_C" = 3100.173   $ Sizing
 "ClCap_Sys_L_Hall_E" = 6494.332   $ Sizing
 "ClCap_Sys_L_Hall_N" = 2014.859   $ Sizing
 "ClCap_Sys_L_Hall_S" = 7261.643   $ Sizing
 "ClCap_Sys_L_Hall_W" = 6646.67   $ Sizing
 "ClCap_Sys_L_LobWait_E" = 14942.42   $ Sizing
 "ClCap_Sys_L_LobWait_N" = 4860.25   $ Sizing
 "ClCap_Sys_L_LobWait_S" = 16623.91   $ Sizing
 "ClCap_Sys_L_LobWait_W" = 15253.05   $ Sizing
 "ClCap_Sys_L_MechElec_C" = 3252.362   $ Sizing
 "ClCap_Sys_L_OfficeOpn_C" = 2819.743   $ Sizing
 "ClCap_Sys_L_OfficeOpn_E" = 27650.38   $ Sizing
 "ClCap_Sys_L_OfficeOpn_N" = 12147.54   $ Sizing
 "ClCap_Sys_L_OfficeOpn_S" = 28593.9   $ Sizing
 "ClCap_Sys_L_OfficeOpn_W" = 27861.86   $ Sizing
 "ClCap_Sys_L_OfficeSm_E" = 24165.99   $ Sizing
 "ClCap_Sys_L_OfficeSm_N" = 9600.707   $ Sizing
 "ClCap_Sys_L_OfficeSm_S" = 25580.16   $ Sizing
 "ClCap_Sys_L_OfficeSm_W" = 24704.2   $ Sizing
 "ClCap_Sys_L_Restrm_C" = 3082.917   $ Sizing
 "ClCap_Sys_L_StorSm_C" = 1411.416   $ Sizing
 "ClCap_Sys_L_StorSm_E" = 6356.684   $ Sizing
 "ClCap_Sys_L_StorSm_N" = 2317.151   $ Sizing
 "ClCap_Sys_L_StorSm_S" = 6972.401   $ Sizing
 "ClCap_Sys_L_StorSm_W" = 6109.609   $ Sizing
 "ClCap_Sys_T_Conf_C" = 10082.86   $ Sizing
 "ClCap_Sys_T_Hall_E" = 6905.067   $ Sizing
 "ClCap_Sys_T_Hall_N" = 2254.219   $ Sizing
 "ClCap_Sys_T_Hall_S" = 8117.112   $ Sizing
 "ClCap_Sys_T_Hall_W" = 7133.343   $ Sizing
 "ClCap_Sys_T_OfficeOpn_C" = 2393.639   $ Sizing
 "ClCap_Sys_T_OfficeOpn_E" = 27042.74   $ Sizing
 "ClCap_Sys_T_OfficeOpn_N" = 11995.93   $ Sizing
 "ClCap_Sys_T_OfficeOpn_S" = 29935.97   $ Sizing
 "ClCap_Sys_T_OfficeOpn_W" = 27234.15   $ Sizing
 "ClCap_Sys_T_OfficeSm_E" = 23861.96   $ Sizing
 "ClCap_Sys_T_OfficeSm_N" = 9640.719   $ Sizing
 "ClCap_Sys_T_OfficeSm_S" = 26953.66   $ Sizing
 "ClCap_Sys_T_OfficeSm_W" = 24464.52   $ Sizing
 "ClCap_Sys_T_Restrm_C" = 4579.308   $ Sizing
 "ClCap_Sys_T_StorSm_E" = 6688.549   $ Sizing
 "ClCap_Sys_T_StorSm_N" = 2427.038   $ Sizing
 "ClCap_Sys_T_StorSm_S" = 7818.05   $ Sizing
 "ClCap_Sys_T_StorSm_W" = 6928.539   $ Sizing
 "HtCap_Sys_L_Break_C" = -16835.05   $ Sizing
 "HtCap_Sys_L_CompDC_C" = -9318.158   $ Sizing
 "HtCap_Sys_L_Conf_C" = -12984.1   $ Sizing
 "HtCap_Sys_L_CopyRm_C" = -4724.905   $ Sizing
 "HtCap_Sys_L_Hall_E" = -6572.956   $ Sizing
 "HtCap_Sys_L_Hall_N" = -2209.429   $ Sizing
 "HtCap_Sys_L_Hall_S" = -6981.805   $ Sizing
 "HtCap_Sys_L_Hall_W" = -6329.93   $ Sizing
 "HtCap_Sys_L_LobWait_E" = -14618.9   $ Sizing
 "HtCap_Sys_L_LobWait_N" = -6159.409   $ Sizing
 "HtCap_Sys_L_LobWait_S" = -16472.22   $ Sizing
 "HtCap_Sys_L_LobWait_W" = -15205.44   $ Sizing
 "HtCap_Sys_L_MechElec_C" = -3714.903   $ Sizing
 "HtCap_Sys_L_OfficeOpn_C" = -3007.827   $ Sizing
 "HtCap_Sys_L_OfficeOpn_E" = -26562.04   $ Sizing
 "HtCap_Sys_L_OfficeOpn_N" = -13771.24   $ Sizing
 "HtCap_Sys_L_OfficeOpn_S" = -27296.01   $ Sizing
 "HtCap_Sys_L_OfficeOpn_W" = -26934.2   $ Sizing
 "HtCap_Sys_L_OfficeSm_E" = -23457.48   $ Sizing
 "HtCap_Sys_L_OfficeSm_N" = -10551.19   $ Sizing
 "HtCap_Sys_L_OfficeSm_S" = -24100.87   $ Sizing
 "HtCap_Sys_L_OfficeSm_W" = -23721.41   $ Sizing
 "HtCap_Sys_L_Restrm_C" = -3119.06   $ Sizing
 "HtCap_Sys_L_StorSm_C" = -1602.906   $ Sizing
 "HtCap_Sys_L_StorSm_E" = -6311.395   $ Sizing
 "HtCap_Sys_L_StorSm_N" = -2809.471   $ Sizing
 "HtCap_Sys_L_StorSm_S" = -6717.827   $ Sizing
 "HtCap_Sys_L_StorSm_W" = -6111.876   $ Sizing
 "HtCap_Sys_T_Conf_C" = -12860.93   $ Sizing
 "HtCap_Sys_T_Hall_E" = -7297.882   $ Sizing
 "HtCap_Sys_T_Hall_N" = -2719.389   $ Sizing
 "HtCap_Sys_T_Hall_S" = -8414.224   $ Sizing
 "HtCap_Sys_T_Hall_W" = -7356.244   $ Sizing
 "HtCap_Sys_T_OfficeOpn_C" = -2847.513   $ Sizing
 "HtCap_Sys_T_OfficeOpn_E" = -28435.75   $ Sizing
 "HtCap_Sys_T_OfficeOpn_N" = -14439.8   $ Sizing
 "HtCap_Sys_T_OfficeOpn_S" = -29897.42   $ Sizing
 "HtCap_Sys_T_OfficeOpn_W" = -28683.84   $ Sizing
 "HtCap_Sys_T_OfficeSm_E" = -24904.16   $ Sizing
 "HtCap_Sys_T_OfficeSm_N" = -11376.21   $ Sizing
 "HtCap_Sys_T_OfficeSm_S" = -26882.29   $ Sizing
 "HtCap_Sys_T_OfficeSm_W" = -24982.21   $ Sizing
 "HtCap_Sys_T_Restrm_C" = -4872.266   $ Sizing
 "HtCap_Sys_T_StorSm_E" = -7450.87   $ Sizing
 "HtCap_Sys_T_StorSm_N" = -3342.301   $ Sizing
 "HtCap_Sys_T_StorSm_S" = -7866.484   $ Sizing
 "HtCap_Sys_T_StorSm_W" = -7723.758   $ Sizing
..

##include Templates\OfS_DX_SZ.inp
END ..
COMPUTE ..
STOP ..
