INPUT ..

##fileprefix C:\Users\jglasskatz\MASControl3\
##set1 IsSizing FALSE
##set1 CoolType DX
##set1 HeatType FURNACE
##set1 EU_HrRepVar 0
##set1 BldgVint 1975
##set1 BldgLoc CZ16

 ##set1 mBFMult 1   $ IP Tech: RefgChg-NRes-Std

PARAMETER
 "AltFactor" = 1.21446   $ IP Non-Tech
 "BF_fFlow" = SpltAC1Sp_BF_fFlow   $ Msr (Var)TechID: PreNResSplitAC-45to-PENo
 "BF_fT" = SpltAC1Sp_BF_fT   $ Msr (Var)TechID: PreNResSplitAC-45to-PENo
 "BldgEconoFlag" = 1   $ IP Non-Tech
 "Break_EWSF" = 1   $ IP Non-Tech
 "Break_LWSF" = 1.1   $ IP Non-Tech
 "CDD_DBHi10" = 66   $ IP Non-Tech
 "CDD_DBHi7" = 83   $ IP Non-Tech
 "CDD_DBHi8" = 83   $ IP Non-Tech
 "CDD_DBHi9" = 78   $ IP Non-Tech
 "CDD_DBRange10" = 10   $ IP Non-Tech
 "CDD_DBRange7" = 7   $ IP Non-Tech
 "CDD_DBRange8" = 11   $ IP Non-Tech
 "CDD_DBRange9" = 10   $ IP Non-Tech
 "CDD_Day10" = 15   $ IP Non-Tech
 "CDD_Day7" = 16   $ IP Non-Tech
 "CDD_Day8" = 20   $ IP Non-Tech
 "CDD_Day9" = 17   $ IP Non-Tech
 "CDD_HrHi10" = 15   $ IP Non-Tech
 "CDD_HrHi7" = 15   $ IP Non-Tech
 "CDD_HrHi8" = 13   $ IP Non-Tech
 "CDD_HrHi9" = 14   $ IP Non-Tech
 "CDD_HrLo10" = 7   $ IP Non-Tech
 "CDD_HrLo7" = 22   $ IP Non-Tech
 "CDD_HrLo8" = 2   $ IP Non-Tech
 "CDD_HrLo9" = 7   $ IP Non-Tech
 "CDD_WB10" = 49.76695633   $ IP Non-Tech
 "CDD_WB7" = 62.86373901   $ IP Non-Tech
 "CDD_WB8" = 57.26689529   $ IP Non-Tech
 "CDD_WB9" = 55.95214462   $ IP Non-Tech
 "CEIR_fPLR_Hot" = SpltAC1Sp_CEIR_fPLR_Hot   $ Msr (Var)TechID: PreNResSplitAC-45to-PENo
 "CEIR_fPLR_Mod" = SpltAC1Sp_CEIR_fPLR_Mod   $ Msr (Var)TechID: PreNResSplitAC-45to-PENo
 "CEIR_fPLR_Tem" = SpltAC1Sp_CEIR_fPLR_Tem   $ Msr (Var)TechID: PreNResSplitAC-45to-PENo
 "CLoss_fPLR_Hot" = SpltAC1Sp_CLoss_fPLR_Hot   $ Msr (Var)TechID: PreNResSplitAC-45to-PENo
 "CLoss_fPLR_Mod" = SpltAC1Sp_CLoss_fPLR_Mod   $ Msr (Var)TechID: PreNResSplitAC-45to-PENo
 "CLoss_fPLR_Tem" = SpltAC1Sp_CLoss_fPLR_Tem   $ Msr (Var)TechID: PreNResSplitAC-45to-PENo
 "COP47" = 0   $ Msr (Var)TechID: PreNResSplitAC-45to-PENo
 "CZ_Category" = Tem   $ IP Non-Tech
 "CapRange" = Any   $ Msr (Var)TechID: PreNResSplitAC-45to-PENo
 "CfmPerBtuh" = 0.0321   $ Msr (Var)TechID: PreNResSplitAC-45to-PENo
 "ChwVintEconoFlag" = 1   $ IP Non-Tech
 "ClCap_fT" = SpltAC1Sp_ClCap_fT   $ Msr (Var)TechID: PreNResSplitAC-45to-PENo
 "ClSH_fT" = SpltAC1Sp_ClSH_fT   $ Msr (Var)TechID: PreNResSplitAC-45to-PENo
 "CoilBF" = 0.12   $ Msr (Var)TechID: PreNResSplitAC-45to-PENo
 "CompRoomData_EWSF" = 5.75   $ IP Non-Tech
 "CompRoomData_LWSF" = 1.2   $ IP Non-Tech
 "CondWPerBtuh" = 0   $ Msr (Var)TechID: PreNResSplitAC-45to-PENo
 "Conference_EWSF" = 1.15   $ IP Non-Tech
 "Conference_LWSF" = 1.4   $ IP Non-Tech
 "CoolSensCap" = 0.744   $ Msr (Var)TechID: PreNResSplitAC-45to-PENo
 "CoolSetT" = 45   $ IP Non-Tech
 "CoolType" = DX   $ IP Non-Tech
 "CoolingEIR" = 0.29437   $ Msr (Var)TechID: PreNResSplitAC-45to-PENo
 "CopyRoom_EWSF" = 1.725   $ IP Non-Tech
 "CopyRoom_LWSF" = 1.3   $ IP Non-Tech
 "CrnkEIR" = 0.0029437   $ Msr (Var)TechID: PreNResSplitAC-45to-PENo
 "CrnkMaxT" = 50   $ Msr (Var)TechID: PreNResSplitAC-45to-PENo
 "DXType" = SplitSEER   $ Msr (Var)TechID: PreNResSplitAC-45to-PENo
 "DesCoolT" = 75   $ IP Non-Tech
 "DesHeatT" = 73   $ IP Non-Tech
 "EER" = 9.799295775   $ Msr (Var)TechID: PreNResSplitAC-45to-PENo
 "EIR_fT" = SpltAC1Sp_EIR_fT   $ Msr (Var)TechID: PreNResSplitAC-45to-PENo
 "EconoCtrl" = FIXED   $ Msr (Multi)TechID: PreNResSplitAC-45to-PENo
 "EconoEnthLimit" = 28   $ IP Non-Tech
 "EconoTempLimit" = 75   $ IP Non-Tech
 "Elevation" = 5279   $ IP Non-Tech
 "FanEirPlr" = TwoSpeedFan   $ Msr (Var)TechID: PreNResSplitAC-45to-PENo
 "FanWPerCfm" = 0.365   $ Msr (Var)TechID: PreNResSplitAC-45to-PENo
 "HDD_CloudAmt1" = 0   $ IP Non-Tech
 "HDD_DBHi1" = 30   $ IP Non-Tech
 "HDD_DBRange1" = 8   $ IP Non-Tech
 "HDD_Day1" = 15   $ IP Non-Tech
 "HDD_HrHi1" = 15   $ IP Non-Tech
 "HDD_HrLo1" = 2   $ IP Non-Tech
 "HDD_WB1" = 22.9   $ IP Non-Tech
 "HDD_WindSpd1" = 16.1   $ IP Non-Tech
 "HIR_fT" = 0   $ Msr (Var)TechID: PreNResSplitAC-45to-PENo
 "HSPF" = 0   $ Msr (Var)TechID: PreNResSplitAC-45to-PENo
 "Hall_EWSF" = 0.23   $ IP Non-Tech
 "Hall_LWSF" = 0.6   $ IP Non-Tech
 "HeatSrc" = FURNACE   $ IP Non-Tech
 "HeatSrcTU" = HEAT-PUMP   $ IP Non-Tech
 "HeatType" = GasFurn   $ IP Non-Tech
 "HeatTypeTU" = HEAT-PUMP   $ IP Non-Tech
 "HtCap_fT" = 0   $ Msr (Var)TechID: PreNResSplitAC-45to-PENo
 "HtCoolCapRatio" = 0   $ Msr (Var)TechID: PreNResSplitAC-45to-PENo
 "HtgEIR" = 0   $ Msr (Var)TechID: PreNResSplitAC-45to-PENo
 "IndoorFanMode" = CONTINUOUS   $ IP Non-Tech
 "KT_TransferAir" = No   $ IP Non-Tech
 "Latitude" = 41.3   $ IP Non-Tech
 "LobbyWaiting_EWSF" = 0.5375   $ IP Non-Tech
 "LobbyWaiting_LWSF" = 1.3   $ IP Non-Tech
 "Longitude" = 122.3   $ IP Non-Tech
 "LowSpdCapRatio" = 1   $ Msr (Var)TechID: PreNResSplitAC-45to-PENo
 "LowSpdCfmRatio" = 1   $ Msr (Var)TechID: PreNResSplitAC-45to-PENo
 "MZFanMechEff" = 0.58   $ IP Non-Tech
 "MZHasRetFan" = FALSE   $ IP Non-Tech
 "MZ_RFanWPerCfm" = 0.33   $ IP Non-Tech
 "MZ_SFanWPerCfm" = 0.75   $ IP Non-Tech
 "MZ_SupFanStatic" = 2.25   $ IP Non-Tech
 "MaxOAFrac" = 1   $ Msr (Multi)TechID: PreNResSplitAC-45to-PENo
 "MaxSupT_MZ" = 100   $ IP Non-Tech
 "MaxSupT_SZ" = 100   $ IP Non-Tech
 "MaxSupT_TU" = 90   $ IP Non-Tech
 "MechElecRoom_EWSF" = 0.23   $ IP Non-Tech
 "MechElecRoom_LWSF" = 0.7   $ IP Non-Tech
 "MinCfmPerSF" = 0.4   $ IP Non-Tech
 "MinSupT" = 55   $ IP Non-Tech
 "NumStages" = 1   $ Msr (Var)TechID: PreNResSplitAC-45to-PENo
 "OccCoolT" = 76   $ IP Non-Tech
 "OccHeatT" = 72   $ IP Non-Tech
 "OfficeOpen_EWSF" = 1.725   $ IP Non-Tech
 "OfficeOpen_LWSF" = 1.2   $ IP Non-Tech
 "OfficeSmall_EWSF" = 1.725   $ IP Non-Tech
 "OfficeSmall_LWSF" = 1.3   $ IP Non-Tech
 "PkgDxVintEconoFlag" = 0   $ IP Non-Tech
 "Restroom_EWSF" = 0.23   $ IP Non-Tech
 "Restroom_LWSF" = 0.6   $ IP Non-Tech
 "SEER" = 11.5   $ Msr (Var)TechID: PreNResSplitAC-45to-PENo
 "SZFanMechEff" = 0.58   $ IP Non-Tech
 "SZHasRetFan" = FALSE   $ IP Non-Tech
 "SZ_Is_2Spd" = FALSE   $ IP Non-Tech
 "SZ_SFanWPerCfm" = 0.46   $ IP Non-Tech
 "SZ_SupFanStatic" = 0.75   $ IP Non-Tech
 "Sector" = Any   $ Msr (Var)TechID: PreNResSplitAC-45to-PENo
 "StorageSmlCond_EWSF" = 0.23   $ IP Non-Tech
 "StorageSmlCond_LWSF" = 0.6   $ IP Non-Tech
 "SubType" = AC   $ Msr (Var)TechID: PreNResSplitAC-45to-PENo
 "T24GlzTbl" = CZTbl   $ IP Non-Tech
 "TermUnitFanMechEff" = 1   $ IP Non-Tech
 "TermUnitFanMode" = INTERMITTENT   $ IP Non-Tech
 "TotCoolCap" = 34895   $ Msr (Var)TechID: PreNResSplitAC-45to-PENo
 "TwrSetpt" = 80   $ IP Non-Tech
 "UnocCoolT" = 86   $ IP Non-Tech
 "UnocHeatT" = 62   $ IP Non-Tech
 "UseEconoVintApplic" = FALSE   $ Msr (Multi)TechID: PreNResSplitAC-45to-PENo
 "WlhpVintEconoFlag" = 0   $ IP Non-Tech
 "DuctDT" = 1   $ IP Tech: ComDuctInsul-1
 "DuctAirLoss" = 0   $ IP Tech: ComDuctLeak-0
 "DuctLossOAFrac" = 0   $ IP Tech: ComDuctLeak-0
 "ComRoofInsCalc" = FromUo   $ IP Tech: ComRoofIns-WFrm-0.07
 "ComRoofInsR" = -999   $ IP Tech: ComRoofIns-WFrm-0.07
 "ComRoofUo" = 0.07   $ IP Tech: ComRoofIns-WFrm-0.07
 "ComEWInsCalc" = FromUo   $ IP Tech: ComWallIns-WFrm-0.12
 "ComEWInsR" = -999   $ IP Tech: ComWallIns-WFrm-0.12
 "ComEWUo" = 0.12   $ IP Tech: ComWallIns-WFrm-0.12
 "ComN_SHGC" = 0.82   $ IP Tech: NResWin-ComN-1.23-0.82
 "ComN_UFactor" = 1.23   $ IP Tech: NResWin-ComN-1.23-0.82
 "ComN_VisTrans" = 0.9   $ IP Tech: NResWin-ComN-1.23-0.82
 "ComN_WinCode" = G1000   $ IP Tech: NResWin-ComN-1.23-0.82
 "ComN_WinFrmFrac" = 0.17   $ IP Tech: NResWin-ComN-1.23-0.82
 "ComN_WinFrmU" = 1   $ IP Tech: NResWin-ComN-1.23-0.82
 "ComO_SHGC" = 0.82   $ IP Tech: NResWin-ComO-1.23-0.82
 "ComO_UFactor" = 1.23   $ IP Tech: NResWin-ComO-1.23-0.82
 "ComO_VisTrans" = 0.9   $ IP Tech: NResWin-ComO-1.23-0.82
 "ComO_WinCode" = G1000   $ IP Tech: NResWin-ComO-1.23-0.82
 "ComO_WinFrmFrac" = 0.17   $ IP Tech: NResWin-ComO-1.23-0.82
 "ComO_WinFrmU" = 1   $ IP Tech: NResWin-ComO-1.23-0.82
 "LtgMsrApplic" = ALL   $ IP Tech: NonResLtgRefPre
 "LtgSav_CFL" = 0   $ IP Tech: NonResLtgRefPre
 "LtgSav_EX" = 0   $ IP Tech: NonResLtgRefPre
 "LtgSav_HB" = 0   $ IP Tech: NonResLtgRefPre
 "LtgSav_LF" = 0   $ IP Tech: NonResLtgRefPre
 "LtgSav_SP" = 0   $ IP Tech: NonResLtgRefPre
 "CEIR_fPLR" = PSZ65to135_CEIR_fPLR   $ IP Tech: PkgAC1SpH-65to135-E10
 "CLoss_fPLR" = PSZ65to135_CLoss_fPLR   $ IP Tech: PkgAC1SpH-65to135-E10
 "COP" = -1   $ IP Tech: PkgAC1SpH-65to135-E10
 "HtgFuel" = Gas   $ IP Tech: PkgAC1SpH-65to135-E10
 "IEER" = 11.87   $ IP Tech: PkgAC1SpH-65to135-E10
 "NominalCap" = 15   $ IP Tech: PkgAC1SpH-65to135-E10
 "RatedEER" = 10   $ IP Tech: PkgAC1SpH-65to135-E10
 "RatedSupMtrClass" = HiEff   $ IP Tech: PkgAC1SpH-65to135-E10
 "SizeRange" = 65to135   $ IP Tech: PkgAC1SpH-65to135-E10
 "SupMotEff" = 0.84   $ IP Tech: PkgAC1SpH-65to135-E10
 "Tier" = 0   $ IP Tech: PkgAC1SpH-65to135-E10
 "FanPwrMult" = 1   $ IP Tech: PkgFurn-0.80AFUE
 "FurnAFUE" = 0.8   $ IP Tech: PkgFurn-0.80AFUE
 "FurnEt" = 0.82   $ IP Tech: PkgFurn-0.80AFUE
 "FurnaceAuxKW" = 0.1   $ IP Tech: PkgFurn-0.80AFUE
 "HIR_fPLR" = Furnace-HIR-fPLR   $ IP Tech: PkgFurn-0.80AFUE
 "VSM" = FALSE   $ IP Tech: PkgFurn-0.80AFUE
 "BFMult" = 1   $ IP Tech: RefgChg-NRes-Std
 "CoolEirMult" = 1   $ IP Tech: RefgChg-NRes-Std
 "SensCoolCapMult" = 1   $ IP Tech: RefgChg-NRes-Std
 "TotCoolCapMult" = 1   $ IP Tech: RefgChg-NRes-Std
 "AltAdjFactor" = 1.214461   $ Sizing
 "CAssFlo_L_Break_CZn" = 394.8037   $ Sizing
 "CAssFlo_L_CompDC_CZn" = 232.0695   $ Sizing
 "CAssFlo_L_Conf_CZn" = 296.1789   $ Sizing
 "CAssFlo_L_CopyRm_CZn" = 110.1603   $ Sizing
 "CAssFlo_L_Hall_EZn" = 239.5142   $ Sizing
 "CAssFlo_L_Hall_NZn" = 114.2059   $ Sizing
 "CAssFlo_L_Hall_SZn" = 238.5279   $ Sizing
 "CAssFlo_L_Hall_WZn" = 236.9329   $ Sizing
 "CAssFlo_L_LobWait_EZn" = 548.932   $ Sizing
 "CAssFlo_L_LobWait_NZn" = 242.0627   $ Sizing
 "CAssFlo_L_LobWait_SZn" = 547.735   $ Sizing
 "CAssFlo_L_LobWait_WZn" = 543.3712   $ Sizing
 "CAssFlo_L_MechElec_CZn" = 116.6402   $ Sizing
 "CAssFlo_L_OfficeOpn_CZn" = 103.386   $ Sizing
 "CAssFlo_L_OfficeOpn_EZn" = 1008.219   $ Sizing
 "CAssFlo_L_OfficeOpn_NZn" = 447.0857   $ Sizing
 "CAssFlo_L_OfficeOpn_SZn" = 968.2294   $ Sizing
 "CAssFlo_L_OfficeOpn_WZn" = 954.0497   $ Sizing
 "CAssFlo_L_OfficeSm_EZn" = 883.5363   $ Sizing
 "CAssFlo_L_OfficeSm_NZn" = 350.4864   $ Sizing
 "CAssFlo_L_OfficeSm_SZn" = 867.6922   $ Sizing
 "CAssFlo_L_OfficeSm_WZn" = 855.4097   $ Sizing
 "CAssFlo_L_Restrm_CZn" = 121.3689   $ Sizing
 "CAssFlo_L_StorSm_CZn" = 52.92262   $ Sizing
 "CAssFlo_L_StorSm_EZn" = 233.5373   $ Sizing
 "CAssFlo_L_StorSm_NZn" = 119.7888   $ Sizing
 "CAssFlo_L_StorSm_SZn" = 227.4595   $ Sizing
 "CAssFlo_L_StorSm_WZn" = 218.9873   $ Sizing
 "CAssFlo_T_Conf_CZn" = 285.1971   $ Sizing
 "CAssFlo_T_Hall_EZn" = 259.4889   $ Sizing
 "CAssFlo_T_Hall_NZn" = 111.7891   $ Sizing
 "CAssFlo_T_Hall_SZn" = 271.4157   $ Sizing
 "CAssFlo_T_Hall_WZn" = 254.6073   $ Sizing
 "CAssFlo_T_OfficeOpn_CZn" = 89.03896   $ Sizing
 "CAssFlo_T_OfficeOpn_EZn" = 995.6002   $ Sizing
 "CAssFlo_T_OfficeOpn_NZn" = 439.5531   $ Sizing
 "CAssFlo_T_OfficeOpn_SZn" = 1024.461   $ Sizing
 "CAssFlo_T_OfficeOpn_WZn" = 956.6962   $ Sizing
 "CAssFlo_T_OfficeSm_EZn" = 883.2533   $ Sizing
 "CAssFlo_T_OfficeSm_NZn" = 354.6572   $ Sizing
 "CAssFlo_T_OfficeSm_SZn" = 922.6811   $ Sizing
 "CAssFlo_T_OfficeSm_WZn" = 872.6672   $ Sizing
 "CAssFlo_T_Restrm_CZn" = 170.1614   $ Sizing
 "CAssFlo_T_StorSm_EZn" = 250.8484   $ Sizing
 "CAssFlo_T_StorSm_NZn" = 119.941   $ Sizing
 "CAssFlo_T_StorSm_SZn" = 260.4675   $ Sizing
 "CAssFlo_T_StorSm_WZn" = 247.6359   $ Sizing
 "CHRtFlo_Sys_L_Break_C" = 394.8037   $ Sizing
 "CHRtFlo_Sys_L_CompDC_C" = 232.0695   $ Sizing
 "CHRtFlo_Sys_L_Conf_C" = 296.1789   $ Sizing
 "CHRtFlo_Sys_L_CopyRm_C" = 110.1603   $ Sizing
 "CHRtFlo_Sys_L_Hall_E" = 239.5142   $ Sizing
 "CHRtFlo_Sys_L_Hall_N" = 114.2059   $ Sizing
 "CHRtFlo_Sys_L_Hall_S" = 238.5279   $ Sizing
 "CHRtFlo_Sys_L_Hall_W" = 236.9329   $ Sizing
 "CHRtFlo_Sys_L_LobWait_E" = 548.932   $ Sizing
 "CHRtFlo_Sys_L_LobWait_N" = 242.0627   $ Sizing
 "CHRtFlo_Sys_L_LobWait_S" = 547.735   $ Sizing
 "CHRtFlo_Sys_L_LobWait_W" = 543.3712   $ Sizing
 "CHRtFlo_Sys_L_MechElec_C" = 116.6402   $ Sizing
 "CHRtFlo_Sys_L_OfficeOpn_C" = 103.386   $ Sizing
 "CHRtFlo_Sys_L_OfficeOpn_E" = 1008.219   $ Sizing
 "CHRtFlo_Sys_L_OfficeOpn_N" = 447.0857   $ Sizing
 "CHRtFlo_Sys_L_OfficeOpn_S" = 968.2294   $ Sizing
 "CHRtFlo_Sys_L_OfficeOpn_W" = 954.0497   $ Sizing
 "CHRtFlo_Sys_L_OfficeSm_E" = 883.5363   $ Sizing
 "CHRtFlo_Sys_L_OfficeSm_N" = 350.4864   $ Sizing
 "CHRtFlo_Sys_L_OfficeSm_S" = 867.6922   $ Sizing
 "CHRtFlo_Sys_L_OfficeSm_W" = 855.4097   $ Sizing
 "CHRtFlo_Sys_L_Restrm_C" = 121.3689   $ Sizing
 "CHRtFlo_Sys_L_StorSm_C" = 52.92262   $ Sizing
 "CHRtFlo_Sys_L_StorSm_E" = 233.5373   $ Sizing
 "CHRtFlo_Sys_L_StorSm_N" = 119.7888   $ Sizing
 "CHRtFlo_Sys_L_StorSm_S" = 227.4595   $ Sizing
 "CHRtFlo_Sys_L_StorSm_W" = 218.9873   $ Sizing
 "CHRtFlo_Sys_T_Conf_C" = 285.1971   $ Sizing
 "CHRtFlo_Sys_T_Hall_E" = 259.4889   $ Sizing
 "CHRtFlo_Sys_T_Hall_N" = 111.7891   $ Sizing
 "CHRtFlo_Sys_T_Hall_S" = 271.4157   $ Sizing
 "CHRtFlo_Sys_T_Hall_W" = 254.6073   $ Sizing
 "CHRtFlo_Sys_T_OfficeOpn_C" = 89.03896   $ Sizing
 "CHRtFlo_Sys_T_OfficeOpn_E" = 995.6002   $ Sizing
 "CHRtFlo_Sys_T_OfficeOpn_N" = 439.5531   $ Sizing
 "CHRtFlo_Sys_T_OfficeOpn_S" = 1024.461   $ Sizing
 "CHRtFlo_Sys_T_OfficeOpn_W" = 956.6962   $ Sizing
 "CHRtFlo_Sys_T_OfficeSm_E" = 883.2533   $ Sizing
 "CHRtFlo_Sys_T_OfficeSm_N" = 354.6572   $ Sizing
 "CHRtFlo_Sys_T_OfficeSm_S" = 922.6811   $ Sizing
 "CHRtFlo_Sys_T_OfficeSm_W" = 872.6672   $ Sizing
 "CHRtFlo_Sys_T_Restrm_C" = 170.1614   $ Sizing
 "CHRtFlo_Sys_T_StorSm_E" = 250.8484   $ Sizing
 "CHRtFlo_Sys_T_StorSm_N" = 119.941   $ Sizing
 "CHRtFlo_Sys_T_StorSm_S" = 260.4675   $ Sizing
 "CHRtFlo_Sys_T_StorSm_W" = 247.6359   $ Sizing
 "CRtdFlo_Sys_L_Break_C" = 394.8037   $ Sizing
 "CRtdFlo_Sys_L_CompDC_C" = 232.0695   $ Sizing
 "CRtdFlo_Sys_L_Conf_C" = 296.1789   $ Sizing
 "CRtdFlo_Sys_L_CopyRm_C" = 110.1603   $ Sizing
 "CRtdFlo_Sys_L_Hall_E" = 239.5142   $ Sizing
 "CRtdFlo_Sys_L_Hall_N" = 114.2059   $ Sizing
 "CRtdFlo_Sys_L_Hall_S" = 238.5279   $ Sizing
 "CRtdFlo_Sys_L_Hall_W" = 236.9329   $ Sizing
 "CRtdFlo_Sys_L_LobWait_E" = 548.932   $ Sizing
 "CRtdFlo_Sys_L_LobWait_N" = 242.0627   $ Sizing
 "CRtdFlo_Sys_L_LobWait_S" = 547.735   $ Sizing
 "CRtdFlo_Sys_L_LobWait_W" = 543.3712   $ Sizing
 "CRtdFlo_Sys_L_MechElec_C" = 116.6402   $ Sizing
 "CRtdFlo_Sys_L_OfficeOpn_C" = 103.386   $ Sizing
 "CRtdFlo_Sys_L_OfficeOpn_E" = 1008.219   $ Sizing
 "CRtdFlo_Sys_L_OfficeOpn_N" = 447.0857   $ Sizing
 "CRtdFlo_Sys_L_OfficeOpn_S" = 968.2294   $ Sizing
 "CRtdFlo_Sys_L_OfficeOpn_W" = 954.0497   $ Sizing
 "CRtdFlo_Sys_L_OfficeSm_E" = 883.5363   $ Sizing
 "CRtdFlo_Sys_L_OfficeSm_N" = 350.4864   $ Sizing
 "CRtdFlo_Sys_L_OfficeSm_S" = 867.6922   $ Sizing
 "CRtdFlo_Sys_L_OfficeSm_W" = 855.4097   $ Sizing
 "CRtdFlo_Sys_L_Restrm_C" = 121.3689   $ Sizing
 "CRtdFlo_Sys_L_StorSm_C" = 52.92262   $ Sizing
 "CRtdFlo_Sys_L_StorSm_E" = 233.5373   $ Sizing
 "CRtdFlo_Sys_L_StorSm_N" = 119.7888   $ Sizing
 "CRtdFlo_Sys_L_StorSm_S" = 227.4595   $ Sizing
 "CRtdFlo_Sys_L_StorSm_W" = 218.9873   $ Sizing
 "CRtdFlo_Sys_T_Conf_C" = 285.1971   $ Sizing
 "CRtdFlo_Sys_T_Hall_E" = 259.4889   $ Sizing
 "CRtdFlo_Sys_T_Hall_N" = 111.7891   $ Sizing
 "CRtdFlo_Sys_T_Hall_S" = 271.4157   $ Sizing
 "CRtdFlo_Sys_T_Hall_W" = 254.6073   $ Sizing
 "CRtdFlo_Sys_T_OfficeOpn_C" = 89.03896   $ Sizing
 "CRtdFlo_Sys_T_OfficeOpn_E" = 995.6002   $ Sizing
 "CRtdFlo_Sys_T_OfficeOpn_N" = 439.5531   $ Sizing
 "CRtdFlo_Sys_T_OfficeOpn_S" = 1024.461   $ Sizing
 "CRtdFlo_Sys_T_OfficeOpn_W" = 956.6962   $ Sizing
 "CRtdFlo_Sys_T_OfficeSm_E" = 883.2533   $ Sizing
 "CRtdFlo_Sys_T_OfficeSm_N" = 354.6572   $ Sizing
 "CRtdFlo_Sys_T_OfficeSm_S" = 922.6811   $ Sizing
 "CRtdFlo_Sys_T_OfficeSm_W" = 872.6672   $ Sizing
 "CRtdFlo_Sys_T_Restrm_C" = 170.1614   $ Sizing
 "CRtdFlo_Sys_T_StorSm_E" = 250.8484   $ Sizing
 "CRtdFlo_Sys_T_StorSm_N" = 119.941   $ Sizing
 "CRtdFlo_Sys_T_StorSm_S" = 260.4675   $ Sizing
 "CRtdFlo_Sys_T_StorSm_W" = 247.6359   $ Sizing
 "CSupFlo_Sys_L_Break_C" = 394.8037   $ Sizing
 "CSupFlo_Sys_L_CompDC_C" = 232.0695   $ Sizing
 "CSupFlo_Sys_L_Conf_C" = 296.1789   $ Sizing
 "CSupFlo_Sys_L_CopyRm_C" = 110.1603   $ Sizing
 "CSupFlo_Sys_L_Hall_E" = 239.5142   $ Sizing
 "CSupFlo_Sys_L_Hall_N" = 114.2059   $ Sizing
 "CSupFlo_Sys_L_Hall_S" = 238.5279   $ Sizing
 "CSupFlo_Sys_L_Hall_W" = 236.9329   $ Sizing
 "CSupFlo_Sys_L_LobWait_E" = 548.932   $ Sizing
 "CSupFlo_Sys_L_LobWait_N" = 242.0627   $ Sizing
 "CSupFlo_Sys_L_LobWait_S" = 547.735   $ Sizing
 "CSupFlo_Sys_L_LobWait_W" = 543.3712   $ Sizing
 "CSupFlo_Sys_L_MechElec_C" = 116.6402   $ Sizing
 "CSupFlo_Sys_L_OfficeOpn_C" = 103.386   $ Sizing
 "CSupFlo_Sys_L_OfficeOpn_E" = 1008.219   $ Sizing
 "CSupFlo_Sys_L_OfficeOpn_N" = 447.0857   $ Sizing
 "CSupFlo_Sys_L_OfficeOpn_S" = 968.2294   $ Sizing
 "CSupFlo_Sys_L_OfficeOpn_W" = 954.0497   $ Sizing
 "CSupFlo_Sys_L_OfficeSm_E" = 883.5363   $ Sizing
 "CSupFlo_Sys_L_OfficeSm_N" = 350.4864   $ Sizing
 "CSupFlo_Sys_L_OfficeSm_S" = 867.6922   $ Sizing
 "CSupFlo_Sys_L_OfficeSm_W" = 855.4097   $ Sizing
 "CSupFlo_Sys_L_Restrm_C" = 121.3689   $ Sizing
 "CSupFlo_Sys_L_StorSm_C" = 52.92262   $ Sizing
 "CSupFlo_Sys_L_StorSm_E" = 233.5373   $ Sizing
 "CSupFlo_Sys_L_StorSm_N" = 119.7888   $ Sizing
 "CSupFlo_Sys_L_StorSm_S" = 227.4595   $ Sizing
 "CSupFlo_Sys_L_StorSm_W" = 218.9873   $ Sizing
 "CSupFlo_Sys_T_Conf_C" = 285.1971   $ Sizing
 "CSupFlo_Sys_T_Hall_E" = 259.4889   $ Sizing
 "CSupFlo_Sys_T_Hall_N" = 111.7891   $ Sizing
 "CSupFlo_Sys_T_Hall_S" = 271.4157   $ Sizing
 "CSupFlo_Sys_T_Hall_W" = 254.6073   $ Sizing
 "CSupFlo_Sys_T_OfficeOpn_C" = 89.03896   $ Sizing
 "CSupFlo_Sys_T_OfficeOpn_E" = 995.6002   $ Sizing
 "CSupFlo_Sys_T_OfficeOpn_N" = 439.5531   $ Sizing
 "CSupFlo_Sys_T_OfficeOpn_S" = 1024.461   $ Sizing
 "CSupFlo_Sys_T_OfficeOpn_W" = 956.6962   $ Sizing
 "CSupFlo_Sys_T_OfficeSm_E" = 883.2533   $ Sizing
 "CSupFlo_Sys_T_OfficeSm_N" = 354.6572   $ Sizing
 "CSupFlo_Sys_T_OfficeSm_S" = 922.6811   $ Sizing
 "CSupFlo_Sys_T_OfficeSm_W" = 872.6672   $ Sizing
 "CSupFlo_Sys_T_Restrm_C" = 170.1614   $ Sizing
 "CSupFlo_Sys_T_StorSm_E" = 250.8484   $ Sizing
 "CSupFlo_Sys_T_StorSm_N" = 119.941   $ Sizing
 "CSupFlo_Sys_T_StorSm_S" = 260.4675   $ Sizing
 "CSupFlo_Sys_T_StorSm_W" = 247.6359   $ Sizing
 "ClCap_Sys_L_Break_C" = 11145.79   $ Sizing
 "ClCap_Sys_L_CompDC_C" = 6551.604   $ Sizing
 "ClCap_Sys_L_Conf_C" = 10641.89   $ Sizing
 "ClCap_Sys_L_CopyRm_C" = 3109.958   $ Sizing
 "ClCap_Sys_L_Hall_E" = 6761.775   $ Sizing
 "ClCap_Sys_L_Hall_N" = 3224.171   $ Sizing
 "ClCap_Sys_L_Hall_S" = 6733.932   $ Sizing
 "ClCap_Sys_L_Hall_W" = 6688.902   $ Sizing
 "ClCap_Sys_L_LobWait_E" = 15497.02   $ Sizing
 "ClCap_Sys_L_LobWait_N" = 6833.724   $ Sizing
 "ClCap_Sys_L_LobWait_S" = 15463.22   $ Sizing
 "ClCap_Sys_L_LobWait_W" = 15340.03   $ Sizing
 "ClCap_Sys_L_MechElec_C" = 3292.893   $ Sizing
 "ClCap_Sys_L_OfficeOpn_C" = 2918.711   $ Sizing
 "ClCap_Sys_L_OfficeOpn_E" = 28463.24   $ Sizing
 "ClCap_Sys_L_OfficeOpn_N" = 12621.77   $ Sizing
 "ClCap_Sys_L_OfficeOpn_S" = 27334.29   $ Sizing
 "ClCap_Sys_L_OfficeOpn_W" = 26933.98   $ Sizing
 "ClCap_Sys_L_OfficeSm_E" = 24943.3   $ Sizing
 "ClCap_Sys_L_OfficeSm_N" = 9894.656   $ Sizing
 "ClCap_Sys_L_OfficeSm_S" = 24496   $ Sizing
 "ClCap_Sys_L_OfficeSm_W" = 24149.25   $ Sizing
 "ClCap_Sys_L_Restrm_C" = 3426.39   $ Sizing
 "ClCap_Sys_L_StorSm_C" = 1494.07   $ Sizing
 "ClCap_Sys_L_StorSm_E" = 6593.04   $ Sizing
 "ClCap_Sys_L_StorSm_N" = 3381.783   $ Sizing
 "ClCap_Sys_L_StorSm_S" = 6421.458   $ Sizing
 "ClCap_Sys_L_StorSm_W" = 6182.275   $ Sizing
 "ClCap_Sys_T_Conf_C" = 10247.31   $ Sizing
 "ClCap_Sys_T_Hall_E" = 7325.686   $ Sizing
 "ClCap_Sys_T_Hall_N" = 3155.941   $ Sizing
 "ClCap_Sys_T_Hall_S" = 7662.394   $ Sizing
 "ClCap_Sys_T_Hall_W" = 7187.874   $ Sizing
 "ClCap_Sys_T_OfficeOpn_C" = 2513.678   $ Sizing
 "ClCap_Sys_T_OfficeOpn_E" = 28107   $ Sizing
 "ClCap_Sys_T_OfficeOpn_N" = 12409.12   $ Sizing
 "ClCap_Sys_T_OfficeOpn_S" = 28921.77   $ Sizing
 "ClCap_Sys_T_OfficeOpn_W" = 27008.69   $ Sizing
 "ClCap_Sys_T_OfficeSm_E" = 24935.31   $ Sizing
 "ClCap_Sys_T_OfficeSm_N" = 10012.4   $ Sizing
 "ClCap_Sys_T_OfficeSm_S" = 26048.4   $ Sizing
 "ClCap_Sys_T_OfficeSm_W" = 24636.45   $ Sizing
 "ClCap_Sys_T_Restrm_C" = 4803.862   $ Sizing
 "ClCap_Sys_T_StorSm_E" = 7081.755   $ Sizing
 "ClCap_Sys_T_StorSm_N" = 3386.08   $ Sizing
 "ClCap_Sys_T_StorSm_S" = 7353.313   $ Sizing
 "ClCap_Sys_T_StorSm_W" = 6991.061   $ Sizing
 "HtCap_Sys_L_Break_C" = -20994.49   $ Sizing
 "HtCap_Sys_L_CompDC_C" = -6861.098   $ Sizing
 "HtCap_Sys_L_Conf_C" = -15995.89   $ Sizing
 "HtCap_Sys_L_CopyRm_C" = -5795.743   $ Sizing
 "HtCap_Sys_L_Hall_E" = -6976.113   $ Sizing
 "HtCap_Sys_L_Hall_N" = -3696.056   $ Sizing
 "HtCap_Sys_L_Hall_S" = -6860.152   $ Sizing
 "HtCap_Sys_L_Hall_W" = -6779.542   $ Sizing
 "HtCap_Sys_L_LobWait_E" = -16620.98   $ Sizing
 "HtCap_Sys_L_LobWait_N" = -9045.345   $ Sizing
 "HtCap_Sys_L_LobWait_S" = -16609.57   $ Sizing
 "HtCap_Sys_L_LobWait_W" = -16619.91   $ Sizing
 "HtCap_Sys_L_MechElec_C" = -4223.674   $ Sizing
 "HtCap_Sys_L_OfficeOpn_C" = -3425.651   $ Sizing
 "HtCap_Sys_L_OfficeOpn_E" = -29478.53   $ Sizing
 "HtCap_Sys_L_OfficeOpn_N" = -15695.95   $ Sizing
 "HtCap_Sys_L_OfficeOpn_S" = -28289.01   $ Sizing
 "HtCap_Sys_L_OfficeOpn_W" = -28234.64   $ Sizing
 "HtCap_Sys_L_OfficeSm_E" = -25836.21   $ Sizing
 "HtCap_Sys_L_OfficeSm_N" = -12012.98   $ Sizing
 "HtCap_Sys_L_OfficeSm_S" = -24727.27   $ Sizing
 "HtCap_Sys_L_OfficeSm_W" = -24750.95   $ Sizing
 "HtCap_Sys_L_Restrm_C" = -3746.34   $ Sizing
 "HtCap_Sys_L_StorSm_C" = -1849.589   $ Sizing
 "HtCap_Sys_L_StorSm_E" = -7027.266   $ Sizing
 "HtCap_Sys_L_StorSm_N" = -4160.904   $ Sizing
 "HtCap_Sys_L_StorSm_S" = -6848.632   $ Sizing
 "HtCap_Sys_L_StorSm_W" = -6661.434   $ Sizing
 "HtCap_Sys_T_Conf_C" = -16118.53   $ Sizing
 "HtCap_Sys_T_Hall_E" = -8272.551   $ Sizing
 "HtCap_Sys_T_Hall_N" = -4123.624   $ Sizing
 "HtCap_Sys_T_Hall_S" = -8617.327   $ Sizing
 "HtCap_Sys_T_Hall_W" = -8149.075   $ Sizing
 "HtCap_Sys_T_OfficeOpn_C" = -3404.704   $ Sizing
 "HtCap_Sys_T_OfficeOpn_E" = -33059.84   $ Sizing
 "HtCap_Sys_T_OfficeOpn_N" = -17353.43   $ Sizing
 "HtCap_Sys_T_OfficeOpn_S" = -33666.68   $ Sizing
 "HtCap_Sys_T_OfficeOpn_W" = -32037.36   $ Sizing
 "HtCap_Sys_T_OfficeSm_E" = -28527.17   $ Sizing
 "HtCap_Sys_T_OfficeSm_N" = -13650.78   $ Sizing
 "HtCap_Sys_T_OfficeSm_S" = -29153.25   $ Sizing
 "HtCap_Sys_T_OfficeSm_W" = -28085.82   $ Sizing
 "HtCap_Sys_T_Restrm_C" = -5766.396   $ Sizing
 "HtCap_Sys_T_StorSm_E" = -8551.889   $ Sizing
 "HtCap_Sys_T_StorSm_N" = -4925.063   $ Sizing
 "HtCap_Sys_T_StorSm_S" = -8992.727   $ Sizing
 "HtCap_Sys_T_StorSm_W" = -8473.771   $ Sizing
..

##include Templates\OfS_DX_SZ.inp
END ..
COMPUTE ..
STOP ..
