INPUT ..

##fileprefix C:\Users\jglasskatz\MASControl3\
##set1 IsSizing FALSE
##set1 CoolType DX
##set1 HeatType HEAT-PUMP
##set1 EU_HrRepVar 1
##set1 BldgVint 1996
##set1 BldgLoc CZ01

 ##set1 mBFMult 1   $ IP Tech: RefgChg-NRes-Std

PARAMETER
 "AltFactor" = 1.00753   $ IP Non-Tech
 "BldgEconoFlag" = 1   $ IP Non-Tech
 "Break_EWSF" = 1   $ IP Non-Tech
 "Break_LWSF" = 1.1   $ IP Non-Tech
 "CDD_DBHi10" = 65   $ IP Non-Tech
 "CDD_DBHi7" = 68   $ IP Non-Tech
 "CDD_DBHi8" = 66   $ IP Non-Tech
 "CDD_DBHi9" = 77   $ IP Non-Tech
 "CDD_DBRange10" = 17   $ IP Non-Tech
 "CDD_DBRange7" = 11   $ IP Non-Tech
 "CDD_DBRange8" = 10   $ IP Non-Tech
 "CDD_DBRange9" = 29   $ IP Non-Tech
 "CDD_Day10" = 15   $ IP Non-Tech
 "CDD_Day7" = 16   $ IP Non-Tech
 "CDD_Day8" = 20   $ IP Non-Tech
 "CDD_Day9" = 17   $ IP Non-Tech
 "CDD_HrHi10" = 12   $ IP Non-Tech
 "CDD_HrHi7" = 12   $ IP Non-Tech
 "CDD_HrHi8" = 13   $ IP Non-Tech
 "CDD_HrHi9" = 17   $ IP Non-Tech
 "CDD_HrLo10" = 6   $ IP Non-Tech
 "CDD_HrLo7" = 3   $ IP Non-Tech
 "CDD_HrLo8" = 8   $ IP Non-Tech
 "CDD_HrLo9" = 4   $ IP Non-Tech
 "CDD_WB10" = 57.53039551   $ IP Non-Tech
 "CDD_WB7" = 59.29250717   $ IP Non-Tech
 "CDD_WB8" = 60.75350189   $ IP Non-Tech
 "CDD_WB9" = 61.08643341   $ IP Non-Tech
 "CZ_Category" = Tem   $ IP Non-Tech
 "ChwVintEconoFlag" = 1   $ IP Non-Tech
 "CompRoomData_EWSF" = 5.25   $ IP Non-Tech
 "CompRoomData_LWSF" = 1.2   $ IP Non-Tech
 "Conference_EWSF" = 1.05   $ IP Non-Tech
 "Conference_LWSF" = 1.4   $ IP Non-Tech
 "CoolSetT" = 45   $ IP Non-Tech
 "CoolType" = DX   $ IP Non-Tech
 "CopyRoom_EWSF" = 1.575   $ IP Non-Tech
 "CopyRoom_LWSF" = 1.3   $ IP Non-Tech
 "DesCoolT" = 75   $ IP Non-Tech
 "DesHeatT" = 73   $ IP Non-Tech
 "EconoEnthLimit" = 28   $ IP Non-Tech
 "EconoTempLimit" = 70   $ IP Non-Tech
 "Elevation" = 203   $ IP Non-Tech
 "HDD_CloudAmt1" = 0   $ IP Non-Tech
 "HDD_DBHi1" = 53   $ IP Non-Tech
 "HDD_DBRange1" = 20   $ IP Non-Tech
 "HDD_Day1" = 15   $ IP Non-Tech
 "HDD_HrHi1" = 14   $ IP Non-Tech
 "HDD_HrLo1" = 6   $ IP Non-Tech
 "HDD_WB1" = 42.3   $ IP Non-Tech
 "HDD_WindSpd1" = 12.7   $ IP Non-Tech
 "Hall_EWSF" = 0.21   $ IP Non-Tech
 "Hall_LWSF" = 0.6   $ IP Non-Tech
 "HeatSrc" = HEAT-PUMP   $ IP Non-Tech
 "HeatSrcTU" = HEAT-PUMP   $ IP Non-Tech
 "HeatType" = HP   $ IP Non-Tech
 "HeatTypeTU" = HEAT-PUMP   $ IP Non-Tech
 "IndoorFanMode" = CONTINUOUS   $ IP Non-Tech
 "KT_TransferAir" = No   $ IP Non-Tech
 "Latitude" = 40.8   $ IP Non-Tech
 "LobbyWaiting_EWSF" = 0.5125   $ IP Non-Tech
 "LobbyWaiting_LWSF" = 1.3   $ IP Non-Tech
 "Longitude" = 124.2   $ IP Non-Tech
 "LtgMsrApplic" = ALL   $ Msr TechID: NonResLtgRefMsr-EX
 "LtgSav_CFL" = 0   $ Msr TechID: NonResLtgRefMsr-EX
 "LtgSav_EX" = 0.3   $ Msr TechID: NonResLtgRefMsr-EX
 "LtgSav_HB" = 0   $ Msr TechID: NonResLtgRefMsr-EX
 "LtgSav_LF" = 0   $ Msr TechID: NonResLtgRefMsr-EX
 "LtgSav_SP" = 0   $ Msr TechID: NonResLtgRefMsr-EX
 "MZFanMechEff" = 0.58   $ IP Non-Tech
 "MZHasRetFan" = FALSE   $ IP Non-Tech
 "MZ_RFanWPerCfm" = 0.33   $ IP Non-Tech
 "MZ_SFanWPerCfm" = 0.75   $ IP Non-Tech
 "MZ_SupFanStatic" = 2.25   $ IP Non-Tech
 "MaxSupT_MZ" = 90   $ IP Non-Tech
 "MaxSupT_SZ" = 90   $ IP Non-Tech
 "MaxSupT_TU" = 90   $ IP Non-Tech
 "MechElecRoom_EWSF" = 0.21   $ IP Non-Tech
 "MechElecRoom_LWSF" = 0.7   $ IP Non-Tech
 "MinCfmPerSF" = 0.4   $ IP Non-Tech
 "MinSupT" = 55   $ IP Non-Tech
 "OccCoolT" = 76   $ IP Non-Tech
 "OccHeatT" = 72   $ IP Non-Tech
 "OfficeOpen_EWSF" = 1.575   $ IP Non-Tech
 "OfficeOpen_LWSF" = 1.2   $ IP Non-Tech
 "OfficeSmall_EWSF" = 1.575   $ IP Non-Tech
 "OfficeSmall_LWSF" = 1.3   $ IP Non-Tech
 "PkgDxVintEconoFlag" = 0   $ IP Non-Tech
 "Restroom_EWSF" = 0.21   $ IP Non-Tech
 "Restroom_LWSF" = 0.6   $ IP Non-Tech
 "SZFanMechEff" = 0.58   $ IP Non-Tech
 "SZHasRetFan" = FALSE   $ IP Non-Tech
 "SZ_Is_2Spd" = FALSE   $ IP Non-Tech
 "SZ_SFanWPerCfm" = 0.46   $ IP Non-Tech
 "SZ_SupFanStatic" = 0.75   $ IP Non-Tech
 "StorageSmlCond_EWSF" = 0.21   $ IP Non-Tech
 "StorageSmlCond_LWSF" = 0.6   $ IP Non-Tech
 "T24GlzTbl" = CZTbl   $ IP Non-Tech
 "TermUnitFanMechEff" = 1   $ IP Non-Tech
 "TermUnitFanMode" = INTERMITTENT   $ IP Non-Tech
 "TwrSetpt" = 80   $ IP Non-Tech
 "UnocCoolT" = 86   $ IP Non-Tech
 "UnocHeatT" = 62   $ IP Non-Tech
 "WlhpVintEconoFlag" = 0   $ IP Non-Tech
 "EconoCtrl" = OA-TEMP   $ IP Tech: AirEcono-OATemp
 "MaxOAFrac" = 0.85   $ IP Tech: AirEcono-OATemp
 "UseEconoVintApplic" = FALSE   $ IP Tech: AirEcono-OATemp
 "DuctDT" = 1   $ IP Tech: ComDuctInsul-1
 "DuctAirLoss" = 0   $ IP Tech: ComDuctLeak-0
 "DuctLossOAFrac" = 0   $ IP Tech: ComDuctLeak-0
 "ComRoofInsCalc" = FromUo   $ IP Tech: ComRoofIns-WFrm-0.06
 "ComRoofInsR" = -999   $ IP Tech: ComRoofIns-WFrm-0.06
 "ComRoofUo" = 0.06   $ IP Tech: ComRoofIns-WFrm-0.06
 "ComEWInsCalc" = FromUo   $ IP Tech: ComWallIns-WFrm-0.08
 "ComEWInsR" = -999   $ IP Tech: ComWallIns-WFrm-0.08
 "ComEWUo" = 0.08   $ IP Tech: ComWallIns-WFrm-0.08
 "ComN_SHGC" = 0.77   $ IP Tech: NResWin-ComN-0.77-0.77
 "ComN_UFactor" = 0.77   $ IP Tech: NResWin-ComN-0.77-0.77
 "ComN_VisTrans" = 0.81   $ IP Tech: NResWin-ComN-0.77-0.77
 "ComN_WinCode" = G2000   $ IP Tech: NResWin-ComN-0.77-0.77
 "ComN_WinFrmFrac" = 0.17   $ IP Tech: NResWin-ComN-0.77-0.77
 "ComN_WinFrmU" = 1   $ IP Tech: NResWin-ComN-0.77-0.77
 "ComO_SHGC" = 0.5   $ IP Tech: NResWin-ComO-0.77-0.5
 "ComO_UFactor" = 0.77   $ IP Tech: NResWin-ComO-0.77-0.5
 "ComO_VisTrans" = 0.77   $ IP Tech: NResWin-ComO-0.77-0.5
 "ComO_WinCode" = G2630   $ IP Tech: NResWin-ComO-0.77-0.5
 "ComO_WinFrmFrac" = 0.17   $ IP Tech: NResWin-ComO-0.77-0.5
 "ComO_WinFrmU" = 1   $ IP Tech: NResWin-ComO-0.77-0.5
 "BF_fFlow" = PSZ65to135_BF_fFlow   $ IP Tech: PkgHP1SpH-65to135-E10.1-C3.2
 "BF_fT" = PSZ65to135_BF_fT   $ IP Tech: PkgHP1SpH-65to135-E10.1-C3.2
 "CEIR_fPLR" = PSZ65to135_CEIR_fPLR   $ IP Tech: PkgHP1SpH-65to135-E10.1-C3.2
 "CLoss_fPLR" = PSZ65to135_CLoss_fPLR   $ IP Tech: PkgHP1SpH-65to135-E10.1-C3.2
 "COP" = 3.2   $ IP Tech: PkgHP1SpH-65to135-E10.1-C3.2
 "COP47" = 3.52   $ IP Tech: PkgHP1SpH-65to135-E10.1-C3.2
 "CfmPerBtuh" = 0.02917   $ IP Tech: PkgHP1SpH-65to135-E10.1-C3.2
 "ClCap_fT" = PSZ65to135_ClCap_fT   $ IP Tech: PkgHP1SpH-65to135-E10.1-C3.2
 "ClSH_fT" = PSZ65to135_ClSH_fT   $ IP Tech: PkgHP1SpH-65to135-E10.1-C3.2
 "CoilBF" = 0.114   $ IP Tech: PkgHP1SpH-65to135-E10.1-C3.2
 "CondWPerBtuh" = 0   $ IP Tech: PkgHP1SpH-65to135-E10.1-C3.2
 "CoolSensCap" = 0.663   $ IP Tech: PkgHP1SpH-65to135-E10.1-C3.2
 "CoolingEIR" = 0.29399   $ IP Tech: PkgHP1SpH-65to135-E10.1-C3.2
 "CrnkEIR" = 0.0029   $ IP Tech: PkgHP1SpH-65to135-E10.1-C3.2
 "CrnkMaxT" = 50   $ IP Tech: PkgHP1SpH-65to135-E10.1-C3.2
 "DXType" = Pkg   $ IP Tech: PkgHP1SpH-65to135-E10.1-C3.2
 "EER" = 9.77   $ IP Tech: PkgHP1SpH-65to135-E10.1-C3.2
 "EIR_fT" = PSZ65to135_EIR_fT   $ IP Tech: PkgHP1SpH-65to135-E10.1-C3.2
 "FanEirPlr" = TwoSpeedFan   $ IP Tech: PkgHP1SpH-65to135-E10.1-C3.2
 "FanWPerCfm" = 0.412   $ IP Tech: PkgHP1SpH-65to135-E10.1-C3.2
 "HIR_fT" = DEFAULT   $ IP Tech: PkgHP1SpH-65to135-E10.1-C3.2
 "HtCap_fT" = DEFAULT   $ IP Tech: PkgHP1SpH-65to135-E10.1-C3.2
 "HtCoolCapRatio" = 0.88   $ IP Tech: PkgHP1SpH-65to135-E10.1-C3.2
 "HtgEIR" = 0.2843   $ IP Tech: PkgHP1SpH-65to135-E10.1-C3.2
 "HtgFuel" = HP   $ IP Tech: PkgHP1SpH-65to135-E10.1-C3.2
 "IEER" = 12.02   $ IP Tech: PkgHP1SpH-65to135-E10.1-C3.2
 "LowSpdCapRatio" = 0.5   $ IP Tech: PkgHP1SpH-65to135-E10.1-C3.2
 "LowSpdCfmRatio" = 0.66   $ IP Tech: PkgHP1SpH-65to135-E10.1-C3.2
 "NominalCap" = 15   $ IP Tech: PkgHP1SpH-65to135-E10.1-C3.2
 "NumStages" = 1   $ IP Tech: PkgHP1SpH-65to135-E10.1-C3.2
 "RatedEER" = 10.1   $ IP Tech: PkgHP1SpH-65to135-E10.1-C3.2
 "RatedSupMtrClass" = HiEff   $ IP Tech: PkgHP1SpH-65to135-E10.1-C3.2
 "SizeRange" = 65to135   $ IP Tech: PkgHP1SpH-65to135-E10.1-C3.2
 "SubType" = HP   $ IP Tech: PkgHP1SpH-65to135-E10.1-C3.2
 "SupMotEff" = 0.84   $ IP Tech: PkgHP1SpH-65to135-E10.1-C3.2
 "Tier" = 0   $ IP Tech: PkgHP1SpH-65to135-E10.1-C3.2
 "TotCoolCap" = 184140   $ IP Tech: PkgHP1SpH-65to135-E10.1-C3.2
 "BFMult" = 1   $ IP Tech: RefgChg-NRes-Std
 "CoolEirMult" = 1   $ IP Tech: RefgChg-NRes-Std
 "SensCoolCapMult" = 1   $ IP Tech: RefgChg-NRes-Std
 "TotCoolCapMult" = 1   $ IP Tech: RefgChg-NRes-Std
 "AltAdjFactor" = 1.007532   $ Sizing
 "CAssFlo_L_Break_CZn" = 286.2926   $ Sizing
 "CAssFlo_L_CompDC_CZn" = 172.7943   $ Sizing
 "CAssFlo_L_Conf_CZn" = 214.7733   $ Sizing
 "CAssFlo_L_CopyRm_CZn" = 67.29394   $ Sizing
 "CAssFlo_L_Hall_EZn" = 134.365   $ Sizing
 "CAssFlo_L_Hall_NZn" = 99.36846   $ Sizing
 "CAssFlo_L_Hall_SZn" = 153.4408   $ Sizing
 "CAssFlo_L_Hall_WZn" = 136.0676   $ Sizing
 "CAssFlo_L_LobWait_EZn" = 321.3632   $ Sizing
 "CAssFlo_L_LobWait_NZn" = 209.1916   $ Sizing
 "CAssFlo_L_LobWait_SZn" = 357.7129   $ Sizing
 "CAssFlo_L_LobWait_WZn" = 315.7156   $ Sizing
 "CAssFlo_L_MechElec_CZn" = 72.93609   $ Sizing
 "CAssFlo_L_OfficeOpn_CZn" = 69.62558   $ Sizing
 "CAssFlo_L_OfficeOpn_EZn" = 626.5443   $ Sizing
 "CAssFlo_L_OfficeOpn_NZn" = 259.6116   $ Sizing
 "CAssFlo_L_OfficeOpn_SZn" = 641.316   $ Sizing
 "CAssFlo_L_OfficeOpn_WZn" = 583.6755   $ Sizing
 "CAssFlo_L_OfficeSm_EZn" = 535.6144   $ Sizing
 "CAssFlo_L_OfficeSm_NZn" = 225.4677   $ Sizing
 "CAssFlo_L_OfficeSm_SZn" = 570.4603   $ Sizing
 "CAssFlo_L_OfficeSm_WZn" = 515.2529   $ Sizing
 "CAssFlo_L_Restrm_CZn" = 86.07105   $ Sizing
 "CAssFlo_L_StorSm_CZn" = 49.14243   $ Sizing
 "CAssFlo_L_StorSm_EZn" = 129.5023   $ Sizing
 "CAssFlo_L_StorSm_NZn" = 112.7859   $ Sizing
 "CAssFlo_L_StorSm_SZn" = 142.13   $ Sizing
 "CAssFlo_L_StorSm_WZn" = 124.7963   $ Sizing
 "CAssFlo_T_Conf_CZn" = 214.6002   $ Sizing
 "CAssFlo_T_Hall_EZn" = 153.2394   $ Sizing
 "CAssFlo_T_Hall_NZn" = 95.13961   $ Sizing
 "CAssFlo_T_Hall_SZn" = 177.841   $ Sizing
 "CAssFlo_T_Hall_WZn" = 149.242   $ Sizing
 "CAssFlo_T_OfficeOpn_CZn" = 60.67278   $ Sizing
 "CAssFlo_T_OfficeOpn_EZn" = 631.0057   $ Sizing
 "CAssFlo_T_OfficeOpn_NZn" = 284.5694   $ Sizing
 "CAssFlo_T_OfficeOpn_SZn" = 689.995   $ Sizing
 "CAssFlo_T_OfficeOpn_WZn" = 584.1212   $ Sizing
 "CAssFlo_T_OfficeSm_EZn" = 548.5653   $ Sizing
 "CAssFlo_T_OfficeSm_NZn" = 223.7002   $ Sizing
 "CAssFlo_T_OfficeSm_SZn" = 619.0562   $ Sizing
 "CAssFlo_T_OfficeSm_WZn" = 528.6668   $ Sizing
 "CAssFlo_T_Restrm_CZn" = 91.16885   $ Sizing
 "CAssFlo_T_StorSm_EZn" = 148.4413   $ Sizing
 "CAssFlo_T_StorSm_NZn" = 111.6168   $ Sizing
 "CAssFlo_T_StorSm_SZn" = 169.2923   $ Sizing
 "CAssFlo_T_StorSm_WZn" = 145.2236   $ Sizing
 "CHRtFlo_Sys_L_Break_C" = 286.2926   $ Sizing
 "CHRtFlo_Sys_L_CompDC_C" = 172.7943   $ Sizing
 "CHRtFlo_Sys_L_Conf_C" = 214.7733   $ Sizing
 "CHRtFlo_Sys_L_CopyRm_C" = 67.29394   $ Sizing
 "CHRtFlo_Sys_L_Hall_E" = 134.365   $ Sizing
 "CHRtFlo_Sys_L_Hall_N" = 99.36846   $ Sizing
 "CHRtFlo_Sys_L_Hall_S" = 153.4408   $ Sizing
 "CHRtFlo_Sys_L_Hall_W" = 136.0676   $ Sizing
 "CHRtFlo_Sys_L_LobWait_E" = 321.3632   $ Sizing
 "CHRtFlo_Sys_L_LobWait_N" = 209.1916   $ Sizing
 "CHRtFlo_Sys_L_LobWait_S" = 357.7129   $ Sizing
 "CHRtFlo_Sys_L_LobWait_W" = 315.7156   $ Sizing
 "CHRtFlo_Sys_L_MechElec_C" = 72.93609   $ Sizing
 "CHRtFlo_Sys_L_OfficeOpn_C" = 69.62558   $ Sizing
 "CHRtFlo_Sys_L_OfficeOpn_E" = 626.5443   $ Sizing
 "CHRtFlo_Sys_L_OfficeOpn_N" = 259.6116   $ Sizing
 "CHRtFlo_Sys_L_OfficeOpn_S" = 641.316   $ Sizing
 "CHRtFlo_Sys_L_OfficeOpn_W" = 583.6755   $ Sizing
 "CHRtFlo_Sys_L_OfficeSm_E" = 535.6144   $ Sizing
 "CHRtFlo_Sys_L_OfficeSm_N" = 225.4677   $ Sizing
 "CHRtFlo_Sys_L_OfficeSm_S" = 570.4603   $ Sizing
 "CHRtFlo_Sys_L_OfficeSm_W" = 515.2529   $ Sizing
 "CHRtFlo_Sys_L_Restrm_C" = 86.07105   $ Sizing
 "CHRtFlo_Sys_L_StorSm_C" = 49.14243   $ Sizing
 "CHRtFlo_Sys_L_StorSm_E" = 129.5023   $ Sizing
 "CHRtFlo_Sys_L_StorSm_N" = 112.7859   $ Sizing
 "CHRtFlo_Sys_L_StorSm_S" = 142.13   $ Sizing
 "CHRtFlo_Sys_L_StorSm_W" = 124.7963   $ Sizing
 "CHRtFlo_Sys_T_Conf_C" = 214.6002   $ Sizing
 "CHRtFlo_Sys_T_Hall_E" = 153.2394   $ Sizing
 "CHRtFlo_Sys_T_Hall_N" = 95.13961   $ Sizing
 "CHRtFlo_Sys_T_Hall_S" = 177.841   $ Sizing
 "CHRtFlo_Sys_T_Hall_W" = 149.242   $ Sizing
 "CHRtFlo_Sys_T_OfficeOpn_C" = 60.67278   $ Sizing
 "CHRtFlo_Sys_T_OfficeOpn_E" = 631.0057   $ Sizing
 "CHRtFlo_Sys_T_OfficeOpn_N" = 284.5694   $ Sizing
 "CHRtFlo_Sys_T_OfficeOpn_S" = 689.9951   $ Sizing
 "CHRtFlo_Sys_T_OfficeOpn_W" = 584.1212   $ Sizing
 "CHRtFlo_Sys_T_OfficeSm_E" = 548.5653   $ Sizing
 "CHRtFlo_Sys_T_OfficeSm_N" = 223.7002   $ Sizing
 "CHRtFlo_Sys_T_OfficeSm_S" = 619.0562   $ Sizing
 "CHRtFlo_Sys_T_OfficeSm_W" = 528.6668   $ Sizing
 "CHRtFlo_Sys_T_Restrm_C" = 91.16885   $ Sizing
 "CHRtFlo_Sys_T_StorSm_E" = 148.4413   $ Sizing
 "CHRtFlo_Sys_T_StorSm_N" = 111.6168   $ Sizing
 "CHRtFlo_Sys_T_StorSm_S" = 169.2923   $ Sizing
 "CHRtFlo_Sys_T_StorSm_W" = 145.2236   $ Sizing
 "CRtdFlo_Sys_L_Break_C" = 286.2926   $ Sizing
 "CRtdFlo_Sys_L_CompDC_C" = 172.7943   $ Sizing
 "CRtdFlo_Sys_L_Conf_C" = 214.7733   $ Sizing
 "CRtdFlo_Sys_L_CopyRm_C" = 67.29394   $ Sizing
 "CRtdFlo_Sys_L_Hall_E" = 134.365   $ Sizing
 "CRtdFlo_Sys_L_Hall_N" = 99.36846   $ Sizing
 "CRtdFlo_Sys_L_Hall_S" = 153.4408   $ Sizing
 "CRtdFlo_Sys_L_Hall_W" = 136.0676   $ Sizing
 "CRtdFlo_Sys_L_LobWait_E" = 321.3632   $ Sizing
 "CRtdFlo_Sys_L_LobWait_N" = 209.1916   $ Sizing
 "CRtdFlo_Sys_L_LobWait_S" = 357.7129   $ Sizing
 "CRtdFlo_Sys_L_LobWait_W" = 315.7156   $ Sizing
 "CRtdFlo_Sys_L_MechElec_C" = 72.93609   $ Sizing
 "CRtdFlo_Sys_L_OfficeOpn_C" = 69.62558   $ Sizing
 "CRtdFlo_Sys_L_OfficeOpn_E" = 626.5443   $ Sizing
 "CRtdFlo_Sys_L_OfficeOpn_N" = 259.6116   $ Sizing
 "CRtdFlo_Sys_L_OfficeOpn_S" = 641.316   $ Sizing
 "CRtdFlo_Sys_L_OfficeOpn_W" = 583.6755   $ Sizing
 "CRtdFlo_Sys_L_OfficeSm_E" = 535.6144   $ Sizing
 "CRtdFlo_Sys_L_OfficeSm_N" = 225.4677   $ Sizing
 "CRtdFlo_Sys_L_OfficeSm_S" = 570.4603   $ Sizing
 "CRtdFlo_Sys_L_OfficeSm_W" = 515.2529   $ Sizing
 "CRtdFlo_Sys_L_Restrm_C" = 86.07105   $ Sizing
 "CRtdFlo_Sys_L_StorSm_C" = 49.14243   $ Sizing
 "CRtdFlo_Sys_L_StorSm_E" = 129.5023   $ Sizing
 "CRtdFlo_Sys_L_StorSm_N" = 112.7859   $ Sizing
 "CRtdFlo_Sys_L_StorSm_S" = 142.13   $ Sizing
 "CRtdFlo_Sys_L_StorSm_W" = 124.7963   $ Sizing
 "CRtdFlo_Sys_T_Conf_C" = 214.6002   $ Sizing
 "CRtdFlo_Sys_T_Hall_E" = 153.2394   $ Sizing
 "CRtdFlo_Sys_T_Hall_N" = 95.13961   $ Sizing
 "CRtdFlo_Sys_T_Hall_S" = 177.841   $ Sizing
 "CRtdFlo_Sys_T_Hall_W" = 149.242   $ Sizing
 "CRtdFlo_Sys_T_OfficeOpn_C" = 60.67278   $ Sizing
 "CRtdFlo_Sys_T_OfficeOpn_E" = 631.0057   $ Sizing
 "CRtdFlo_Sys_T_OfficeOpn_N" = 284.5694   $ Sizing
 "CRtdFlo_Sys_T_OfficeOpn_S" = 689.995   $ Sizing
 "CRtdFlo_Sys_T_OfficeOpn_W" = 584.1212   $ Sizing
 "CRtdFlo_Sys_T_OfficeSm_E" = 548.5653   $ Sizing
 "CRtdFlo_Sys_T_OfficeSm_N" = 223.7002   $ Sizing
 "CRtdFlo_Sys_T_OfficeSm_S" = 619.0562   $ Sizing
 "CRtdFlo_Sys_T_OfficeSm_W" = 528.6668   $ Sizing
 "CRtdFlo_Sys_T_Restrm_C" = 91.16885   $ Sizing
 "CRtdFlo_Sys_T_StorSm_E" = 148.4413   $ Sizing
 "CRtdFlo_Sys_T_StorSm_N" = 111.6168   $ Sizing
 "CRtdFlo_Sys_T_StorSm_S" = 169.2923   $ Sizing
 "CRtdFlo_Sys_T_StorSm_W" = 145.2236   $ Sizing
 "CSupFlo_Sys_L_Break_C" = 286.2926   $ Sizing
 "CSupFlo_Sys_L_CompDC_C" = 172.7943   $ Sizing
 "CSupFlo_Sys_L_Conf_C" = 214.7733   $ Sizing
 "CSupFlo_Sys_L_CopyRm_C" = 67.29394   $ Sizing
 "CSupFlo_Sys_L_Hall_E" = 134.365   $ Sizing
 "CSupFlo_Sys_L_Hall_N" = 99.36846   $ Sizing
 "CSupFlo_Sys_L_Hall_S" = 153.4408   $ Sizing
 "CSupFlo_Sys_L_Hall_W" = 136.0676   $ Sizing
 "CSupFlo_Sys_L_LobWait_E" = 321.3632   $ Sizing
 "CSupFlo_Sys_L_LobWait_N" = 209.1916   $ Sizing
 "CSupFlo_Sys_L_LobWait_S" = 357.7129   $ Sizing
 "CSupFlo_Sys_L_LobWait_W" = 315.7156   $ Sizing
 "CSupFlo_Sys_L_MechElec_C" = 72.93609   $ Sizing
 "CSupFlo_Sys_L_OfficeOpn_C" = 69.62558   $ Sizing
 "CSupFlo_Sys_L_OfficeOpn_E" = 626.5443   $ Sizing
 "CSupFlo_Sys_L_OfficeOpn_N" = 259.6116   $ Sizing
 "CSupFlo_Sys_L_OfficeOpn_S" = 641.316   $ Sizing
 "CSupFlo_Sys_L_OfficeOpn_W" = 583.6755   $ Sizing
 "CSupFlo_Sys_L_OfficeSm_E" = 535.6144   $ Sizing
 "CSupFlo_Sys_L_OfficeSm_N" = 225.4677   $ Sizing
 "CSupFlo_Sys_L_OfficeSm_S" = 570.4603   $ Sizing
 "CSupFlo_Sys_L_OfficeSm_W" = 515.2529   $ Sizing
 "CSupFlo_Sys_L_Restrm_C" = 86.07105   $ Sizing
 "CSupFlo_Sys_L_StorSm_C" = 49.14243   $ Sizing
 "CSupFlo_Sys_L_StorSm_E" = 129.5023   $ Sizing
 "CSupFlo_Sys_L_StorSm_N" = 112.7859   $ Sizing
 "CSupFlo_Sys_L_StorSm_S" = 142.13   $ Sizing
 "CSupFlo_Sys_L_StorSm_W" = 124.7963   $ Sizing
 "CSupFlo_Sys_T_Conf_C" = 214.6002   $ Sizing
 "CSupFlo_Sys_T_Hall_E" = 153.2394   $ Sizing
 "CSupFlo_Sys_T_Hall_N" = 95.13961   $ Sizing
 "CSupFlo_Sys_T_Hall_S" = 177.841   $ Sizing
 "CSupFlo_Sys_T_Hall_W" = 149.242   $ Sizing
 "CSupFlo_Sys_T_OfficeOpn_C" = 60.67278   $ Sizing
 "CSupFlo_Sys_T_OfficeOpn_E" = 631.0057   $ Sizing
 "CSupFlo_Sys_T_OfficeOpn_N" = 284.5694   $ Sizing
 "CSupFlo_Sys_T_OfficeOpn_S" = 689.995   $ Sizing
 "CSupFlo_Sys_T_OfficeOpn_W" = 584.1212   $ Sizing
 "CSupFlo_Sys_T_OfficeSm_E" = 548.5653   $ Sizing
 "CSupFlo_Sys_T_OfficeSm_N" = 223.7002   $ Sizing
 "CSupFlo_Sys_T_OfficeSm_S" = 619.0562   $ Sizing
 "CSupFlo_Sys_T_OfficeSm_W" = 528.6668   $ Sizing
 "CSupFlo_Sys_T_Restrm_C" = 91.16885   $ Sizing
 "CSupFlo_Sys_T_StorSm_E" = 148.4413   $ Sizing
 "CSupFlo_Sys_T_StorSm_N" = 111.6168   $ Sizing
 "CSupFlo_Sys_T_StorSm_S" = 169.2923   $ Sizing
 "CSupFlo_Sys_T_StorSm_W" = 145.2236   $ Sizing
 "ClCap_Sys_L_Break_C" = 9742.366   $ Sizing
 "ClCap_Sys_L_CompDC_C" = 5880.087   $ Sizing
 "ClCap_Sys_L_Conf_C" = 9301.861   $ Sizing
 "ClCap_Sys_L_CopyRm_C" = 2289.972   $ Sizing
 "ClCap_Sys_L_Hall_E" = 4572.362   $ Sizing
 "ClCap_Sys_L_Hall_N" = 3381.449   $ Sizing
 "ClCap_Sys_L_Hall_S" = 5221.499   $ Sizing
 "ClCap_Sys_L_Hall_W" = 4630.3   $ Sizing
 "ClCap_Sys_L_LobWait_E" = 10935.8   $ Sizing
 "ClCap_Sys_L_LobWait_N" = 7118.665   $ Sizing
 "ClCap_Sys_L_LobWait_S" = 12172.76   $ Sizing
 "ClCap_Sys_L_LobWait_W" = 10743.61   $ Sizing
 "ClCap_Sys_L_MechElec_C" = 2481.971   $ Sizing
 "ClCap_Sys_L_OfficeOpn_C" = 2369.317   $ Sizing
 "ClCap_Sys_L_OfficeOpn_E" = 21320.93   $ Sizing
 "ClCap_Sys_L_OfficeOpn_N" = 8834.427   $ Sizing
 "ClCap_Sys_L_OfficeOpn_S" = 21823.6   $ Sizing
 "ClCap_Sys_L_OfficeOpn_W" = 19862.13   $ Sizing
 "ClCap_Sys_L_OfficeSm_E" = 18226.64   $ Sizing
 "ClCap_Sys_L_OfficeSm_N" = 7672.531   $ Sizing
 "ClCap_Sys_L_OfficeSm_S" = 19412.42   $ Sizing
 "ClCap_Sys_L_OfficeSm_W" = 17533.75   $ Sizing
 "ClCap_Sys_L_Restrm_C" = 2928.947   $ Sizing
 "ClCap_Sys_L_StorSm_C" = 1672.288   $ Sizing
 "ClCap_Sys_L_StorSm_E" = 4406.888   $ Sizing
 "ClCap_Sys_L_StorSm_N" = 3838.037   $ Sizing
 "ClCap_Sys_L_StorSm_S" = 4836.598   $ Sizing
 "ClCap_Sys_L_StorSm_W" = 4246.743   $ Sizing
 "ClCap_Sys_T_Conf_C" = 9294.367   $ Sizing
 "ClCap_Sys_T_Hall_E" = 5214.646   $ Sizing
 "ClCap_Sys_T_Hall_N" = 3237.544   $ Sizing
 "ClCap_Sys_T_Hall_S" = 6051.823   $ Sizing
 "ClCap_Sys_T_Hall_W" = 5078.616   $ Sizing
 "ClCap_Sys_T_OfficeOpn_C" = 2064.658   $ Sizing
 "ClCap_Sys_T_OfficeOpn_E" = 21472.75   $ Sizing
 "ClCap_Sys_T_OfficeOpn_N" = 9683.727   $ Sizing
 "ClCap_Sys_T_OfficeOpn_S" = 23480.12   $ Sizing
 "ClCap_Sys_T_OfficeOpn_W" = 19877.29   $ Sizing
 "ClCap_Sys_T_OfficeSm_E" = 18667.35   $ Sizing
 "ClCap_Sys_T_OfficeSm_N" = 7612.385   $ Sizing
 "ClCap_Sys_T_OfficeSm_S" = 21066.11   $ Sizing
 "ClCap_Sys_T_OfficeSm_W" = 17990.21   $ Sizing
 "ClCap_Sys_T_Restrm_C" = 3102.421   $ Sizing
 "ClCap_Sys_T_StorSm_E" = 5051.37   $ Sizing
 "ClCap_Sys_T_StorSm_N" = 3798.253   $ Sizing
 "ClCap_Sys_T_StorSm_S" = 5760.915   $ Sizing
 "ClCap_Sys_T_StorSm_W" = 4941.871   $ Sizing
 "HRtECT_Sys_L_Break_C" = 47   $ Sizing
 "HRtECT_Sys_L_CompDC_C" = 47   $ Sizing
 "HRtECT_Sys_L_Conf_C" = 47   $ Sizing
 "HRtECT_Sys_L_CopyRm_C" = 47   $ Sizing
 "HRtECT_Sys_L_Hall_E" = 47   $ Sizing
 "HRtECT_Sys_L_Hall_N" = 47   $ Sizing
 "HRtECT_Sys_L_Hall_S" = 47   $ Sizing
 "HRtECT_Sys_L_Hall_W" = 47   $ Sizing
 "HRtECT_Sys_L_LobWait_E" = 47   $ Sizing
 "HRtECT_Sys_L_LobWait_N" = 47   $ Sizing
 "HRtECT_Sys_L_LobWait_S" = 47   $ Sizing
 "HRtECT_Sys_L_LobWait_W" = 47   $ Sizing
 "HRtECT_Sys_L_MechElec_C" = 47   $ Sizing
 "HRtECT_Sys_L_OfficeOpn_C" = 47   $ Sizing
 "HRtECT_Sys_L_OfficeOpn_E" = 47   $ Sizing
 "HRtECT_Sys_L_OfficeOpn_N" = 47   $ Sizing
 "HRtECT_Sys_L_OfficeOpn_S" = 47   $ Sizing
 "HRtECT_Sys_L_OfficeOpn_W" = 47   $ Sizing
 "HRtECT_Sys_L_OfficeSm_E" = 47   $ Sizing
 "HRtECT_Sys_L_OfficeSm_N" = 47   $ Sizing
 "HRtECT_Sys_L_OfficeSm_S" = 47   $ Sizing
 "HRtECT_Sys_L_OfficeSm_W" = 47   $ Sizing
 "HRtECT_Sys_L_Restrm_C" = 47   $ Sizing
 "HRtECT_Sys_L_StorSm_C" = 47   $ Sizing
 "HRtECT_Sys_L_StorSm_E" = 47   $ Sizing
 "HRtECT_Sys_L_StorSm_N" = 47   $ Sizing
 "HRtECT_Sys_L_StorSm_S" = 47   $ Sizing
 "HRtECT_Sys_L_StorSm_W" = 47   $ Sizing
 "HRtECT_Sys_T_Conf_C" = 47   $ Sizing
 "HRtECT_Sys_T_Hall_E" = 47   $ Sizing
 "HRtECT_Sys_T_Hall_N" = 47   $ Sizing
 "HRtECT_Sys_T_Hall_S" = 47   $ Sizing
 "HRtECT_Sys_T_Hall_W" = 47   $ Sizing
 "HRtECT_Sys_T_OfficeOpn_C" = 47   $ Sizing
 "HRtECT_Sys_T_OfficeOpn_E" = 47   $ Sizing
 "HRtECT_Sys_T_OfficeOpn_N" = 47   $ Sizing
 "HRtECT_Sys_T_OfficeOpn_S" = 47   $ Sizing
 "HRtECT_Sys_T_OfficeOpn_W" = 47   $ Sizing
 "HRtECT_Sys_T_OfficeSm_E" = 47   $ Sizing
 "HRtECT_Sys_T_OfficeSm_N" = 47   $ Sizing
 "HRtECT_Sys_T_OfficeSm_S" = 47   $ Sizing
 "HRtECT_Sys_T_OfficeSm_W" = 47   $ Sizing
 "HRtECT_Sys_T_Restrm_C" = 47   $ Sizing
 "HRtECT_Sys_T_StorSm_E" = 47   $ Sizing
 "HRtECT_Sys_T_StorSm_N" = 47   $ Sizing
 "HRtECT_Sys_T_StorSm_S" = 47   $ Sizing
 "HRtECT_Sys_T_StorSm_W" = 47   $ Sizing
 "HSpCap_Sys_L_Break_C" = -6394.613   $ Sizing
 "HSpCap_Sys_L_CompDC_C" = -2587.239   $ Sizing
 "HSpCap_Sys_L_Conf_C" = -7391.392   $ Sizing
 "HSpCap_Sys_L_CopyRm_C" = -2928.653   $ Sizing
 "HSpCap_Sys_L_Hall_E" = -2581.976   $ Sizing
 "HSpCap_Sys_L_Hall_N" = -2406.356   $ Sizing
 "HSpCap_Sys_L_Hall_S" = -2297.459   $ Sizing
 "HSpCap_Sys_L_Hall_W" = -2391.524   $ Sizing
 "HSpCap_Sys_L_LobWait_E" = -5911.226   $ Sizing
 "HSpCap_Sys_L_LobWait_N" = -6209.938   $ Sizing
 "HSpCap_Sys_L_LobWait_S" = -5356.013   $ Sizing
 "HSpCap_Sys_L_LobWait_W" = -5886.453   $ Sizing
 "HSpCap_Sys_L_MechElec_C" = -2238.826   $ Sizing
 "HSpCap_Sys_L_OfficeOpn_C" = -1444.612   $ Sizing
 "HSpCap_Sys_L_OfficeOpn_E" = -9381.207   $ Sizing
 "HSpCap_Sys_L_OfficeOpn_N" = -7666.298   $ Sizing
 "HSpCap_Sys_L_OfficeOpn_S" = -9602.385   $ Sizing
 "HSpCap_Sys_L_OfficeOpn_W" = -8739.336   $ Sizing
 "HSpCap_Sys_L_OfficeSm_E" = -8019.72   $ Sizing
 "HSpCap_Sys_L_OfficeSm_N" = -6392.967   $ Sizing
 "HSpCap_Sys_L_OfficeSm_S" = -8541.466   $ Sizing
 "HSpCap_Sys_L_OfficeSm_W" = -7714.848   $ Sizing
 "HSpCap_Sys_L_Restrm_C" = -1289.475   $ Sizing
 "HSpCap_Sys_L_StorSm_C" = -1388.853   $ Sizing
 "HSpCap_Sys_L_StorSm_E" = -2757.405   $ Sizing
 "HSpCap_Sys_L_StorSm_N" = -3114.476   $ Sizing
 "HSpCap_Sys_L_StorSm_S" = -2128.103   $ Sizing
 "HSpCap_Sys_L_StorSm_W" = -2644.304   $ Sizing
 "HSpCap_Sys_T_Conf_C" = -7891.121   $ Sizing
 "HSpCap_Sys_T_Hall_E" = -3107.917   $ Sizing
 "HSpCap_Sys_T_Hall_N" = -2865.635   $ Sizing
 "HSpCap_Sys_T_Hall_S" = -2662.802   $ Sizing
 "HSpCap_Sys_T_Hall_W" = -2978.247   $ Sizing
 "HSpCap_Sys_T_OfficeOpn_C" = -1388.78   $ Sizing
 "HSpCap_Sys_T_OfficeOpn_E" = -9448.008   $ Sizing
 "HSpCap_Sys_T_OfficeOpn_N" = -8407.343   $ Sizing
 "HSpCap_Sys_T_OfficeOpn_S" = -10331.25   $ Sizing
 "HSpCap_Sys_T_OfficeOpn_W" = -8899.564   $ Sizing
 "HSpCap_Sys_T_OfficeSm_E" = -8213.634   $ Sizing
 "HSpCap_Sys_T_OfficeSm_N" = -6959.615   $ Sizing
 "HSpCap_Sys_T_OfficeSm_S" = -9269.09   $ Sizing
 "HSpCap_Sys_T_OfficeSm_W" = -7915.694   $ Sizing
 "HSpCap_Sys_T_Restrm_C" = -2367.859   $ Sizing
 "HSpCap_Sys_T_StorSm_E" = -3662.505   $ Sizing
 "HSpCap_Sys_T_StorSm_N" = -3715.283   $ Sizing
 "HSpCap_Sys_T_StorSm_S" = -2563.721   $ Sizing
 "HSpCap_Sys_T_StorSm_W" = -3621.454   $ Sizing
 "HtCap_Sys_L_Break_C" = -8573.282   $ Sizing
 "HtCap_Sys_L_CompDC_C" = -5174.477   $ Sizing
 "HtCap_Sys_L_Conf_C" = -8185.638   $ Sizing
 "HtCap_Sys_L_CopyRm_C" = -2015.176   $ Sizing
 "HtCap_Sys_L_Hall_E" = -4023.678   $ Sizing
 "HtCap_Sys_L_Hall_N" = -2975.675   $ Sizing
 "HtCap_Sys_L_Hall_S" = -4594.918   $ Sizing
 "HtCap_Sys_L_Hall_W" = -4074.664   $ Sizing
 "HtCap_Sys_L_LobWait_E" = -9623.501   $ Sizing
 "HtCap_Sys_L_LobWait_N" = -6264.425   $ Sizing
 "HtCap_Sys_L_LobWait_S" = -10712.03   $ Sizing
 "HtCap_Sys_L_LobWait_W" = -9454.379   $ Sizing
 "HtCap_Sys_L_MechElec_C" = -2184.135   $ Sizing
 "HtCap_Sys_L_OfficeOpn_C" = -2084.999   $ Sizing
 "HtCap_Sys_L_OfficeOpn_E" = -18762.41   $ Sizing
 "HtCap_Sys_L_OfficeOpn_N" = -7774.295   $ Sizing
 "HtCap_Sys_L_OfficeOpn_S" = -19204.77   $ Sizing
 "HtCap_Sys_L_OfficeOpn_W" = -17478.67   $ Sizing
 "HtCap_Sys_L_OfficeSm_E" = -16039.44   $ Sizing
 "HtCap_Sys_L_OfficeSm_N" = -6751.827   $ Sizing
 "HtCap_Sys_L_OfficeSm_S" = -17082.93   $ Sizing
 "HtCap_Sys_L_OfficeSm_W" = -15429.7   $ Sizing
 "HtCap_Sys_L_Restrm_C" = -2577.473   $ Sizing
 "HtCap_Sys_L_StorSm_C" = -1471.613   $ Sizing
 "HtCap_Sys_L_StorSm_E" = -3878.061   $ Sizing
 "HtCap_Sys_L_StorSm_N" = -3377.472   $ Sizing
 "HtCap_Sys_L_StorSm_S" = -4256.206   $ Sizing
 "HtCap_Sys_L_StorSm_W" = -3737.134   $ Sizing
 "HtCap_Sys_T_Conf_C" = -8179.043   $ Sizing
 "HtCap_Sys_T_Hall_E" = -4588.889   $ Sizing
 "HtCap_Sys_T_Hall_N" = -2849.039   $ Sizing
 "HtCap_Sys_T_Hall_S" = -5325.604   $ Sizing
 "HtCap_Sys_T_Hall_W" = -4469.182   $ Sizing
 "HtCap_Sys_T_OfficeOpn_C" = -1816.899   $ Sizing
 "HtCap_Sys_T_OfficeOpn_E" = -18896.02   $ Sizing
 "HtCap_Sys_T_OfficeOpn_N" = -8521.68   $ Sizing
 "HtCap_Sys_T_OfficeOpn_S" = -20662.5   $ Sizing
 "HtCap_Sys_T_OfficeOpn_W" = -17492.02   $ Sizing
 "HtCap_Sys_T_OfficeSm_E" = -16427.27   $ Sizing
 "HtCap_Sys_T_OfficeSm_N" = -6698.898   $ Sizing
 "HtCap_Sys_T_OfficeSm_S" = -18538.18   $ Sizing
 "HtCap_Sys_T_OfficeSm_W" = -15831.39   $ Sizing
 "HtCap_Sys_T_Restrm_C" = -2730.131   $ Sizing
 "HtCap_Sys_T_StorSm_E" = -4445.205   $ Sizing
 "HtCap_Sys_T_StorSm_N" = -3342.462   $ Sizing
 "HtCap_Sys_T_StorSm_S" = -5069.605   $ Sizing
 "HtCap_Sys_T_StorSm_W" = -4348.846   $ Sizing
..

##include Templates\OfS_DX_SZ.inp
END ..
COMPUTE ..
STOP ..
