INPUT ..

##fileprefix C:\Users\jglasskatz\MASControl3\
##set1 IsSizing FALSE
##set1 CoolType DX
##set1 HeatType FURNACE
##set1 EU_HrRepVar 0
##set1 BldgVint 2020
##set1 BldgLoc CZ03

 ##set1 mBFMult 1   $ IP Tech: RefgChg-NRes-Std

PARAMETER
 "AltFactor" = 1.00025   $ IP Non-Tech
 "BF_fFlow" = SpltAC2SpHiSEER_BF_fFlow   $ Msr (Multi)TechID: MsrNResSplitAC-lt45-S17
 "BF_fT" = SpltAC2SpHiSEER_BF_fT   $ Msr (Multi)TechID: MsrNResSplitAC-lt45-S17
 "BldgEconoFlag" = 1   $ IP Non-Tech
 "Break_EWSF" = 1   $ IP Non-Tech
 "Break_LWSF" = 0.65   $ IP Non-Tech
 "CDD_DBHi10" = 74   $ IP Non-Tech
 "CDD_DBHi7" = 78   $ IP Non-Tech
 "CDD_DBHi8" = 73   $ IP Non-Tech
 "CDD_DBHi9" = 83   $ IP Non-Tech
 "CDD_DBRange10" = 25   $ IP Non-Tech
 "CDD_DBRange7" = 24   $ IP Non-Tech
 "CDD_DBRange8" = 10   $ IP Non-Tech
 "CDD_DBRange9" = 25   $ IP Non-Tech
 "CDD_Day10" = 15   $ IP Non-Tech
 "CDD_Day7" = 16   $ IP Non-Tech
 "CDD_Day8" = 20   $ IP Non-Tech
 "CDD_Day9" = 17   $ IP Non-Tech
 "CDD_HrHi10" = 16   $ IP Non-Tech
 "CDD_HrHi7" = 13   $ IP Non-Tech
 "CDD_HrHi8" = 17   $ IP Non-Tech
 "CDD_HrHi9" = 15   $ IP Non-Tech
 "CDD_HrLo10" = 8   $ IP Non-Tech
 "CDD_HrLo7" = 5   $ IP Non-Tech
 "CDD_HrLo8" = 7   $ IP Non-Tech
 "CDD_HrLo9" = 7   $ IP Non-Tech
 "CDD_WB10" = 60.13755417   $ IP Non-Tech
 "CDD_WB7" = 64.09266663   $ IP Non-Tech
 "CDD_WB8" = 62.55457306   $ IP Non-Tech
 "CDD_WB9" = 64.6887207   $ IP Non-Tech
 "CEIR_fPLR_Hot" = SpltAC2SpHiSEER_CEIR_fPLR_Hot   $ Msr (Multi)TechID: MsrNResSplitAC-lt45-S17
 "CEIR_fPLR_Mod" = SpltAC2SpHiSEER_CEIR_fPLR_Mod   $ Msr (Multi)TechID: MsrNResSplitAC-lt45-S17
 "CEIR_fPLR_Tem" = SpltAC2SpHiSEER_CEIR_fPLR_Tem   $ Msr (Multi)TechID: MsrNResSplitAC-lt45-S17
 "CLoss_fPLR_Hot" = SpltAC2SpHiSEER_CLoss_fPLR_Hot   $ Msr (Multi)TechID: MsrNResSplitAC-lt45-S17
 "CLoss_fPLR_Mod" = SpltAC2SpHiSEER_CLoss_fPLR_Mod   $ Msr (Multi)TechID: MsrNResSplitAC-lt45-S17
 "CLoss_fPLR_Tem" = SpltAC2SpHiSEER_CLoss_fPLR_Tem   $ Msr (Multi)TechID: MsrNResSplitAC-lt45-S17
 "COP47" = 0   $ Msr (Multi)TechID: MsrNResSplitAC-lt45-S17
 "CZ_Category" = Tem   $ IP Non-Tech
 "CapRange" = Any   $ Msr (Multi)TechID: MsrNResSplitAC-lt45-S17
 "CfmPerBtuh" = 0.03   $ Msr (Multi)TechID: MsrNResSplitAC-lt45-S17
 "ChwVintEconoFlag" = 1   $ IP Non-Tech
 "ClCap_fT" = SpltAC2SpHiSEER_ClCap_fT   $ Msr (Multi)TechID: MsrNResSplitAC-lt45-S17
 "ClSH_fT" = SpltAC2SpHiSEER_ClSH_fT   $ Msr (Multi)TechID: MsrNResSplitAC-lt45-S17
 "CoilBF" = 0.102   $ Msr (Multi)TechID: MsrNResSplitAC-lt45-S17
 "CompRoomData_EWSF" = 5   $ IP Non-Tech
 "CompRoomData_LWSF" = 0.8   $ IP Non-Tech
 "CondWPerBtuh" = 0   $ Msr (Multi)TechID: MsrNResSplitAC-lt45-S17
 "Conference_EWSF" = 1   $ IP Non-Tech
 "Conference_LWSF" = 0.85   $ IP Non-Tech
 "CoolSensCap" = 0.724   $ Msr (Multi)TechID: MsrNResSplitAC-lt45-S17
 "CoolSetT" = 45   $ IP Non-Tech
 "CoolType" = DX   $ IP Non-Tech
 "CoolingEIR" = 0.2225   $ Msr (Multi)TechID: MsrNResSplitAC-lt45-S17
 "CopyRoom_EWSF" = 1.5   $ IP Non-Tech
 "CopyRoom_LWSF" = 0.5   $ IP Non-Tech
 "CrnkEIR" = 0.002225   $ Msr (Multi)TechID: MsrNResSplitAC-lt45-S17
 "CrnkMaxT" = 50   $ Msr (Multi)TechID: MsrNResSplitAC-lt45-S17
 "DXType" = SplitSEER   $ Msr (Multi)TechID: MsrNResSplitAC-lt45-S17
 "DesCoolT" = 75   $ IP Non-Tech
 "DesHeatT" = 73   $ IP Non-Tech
 "EER" = 13.26   $ Msr (Multi)TechID: MsrNResSplitAC-lt45-S17
 "EIR_fT" = SpltAC2SpHiSEER_EIR_fT   $ Msr (Multi)TechID: MsrNResSplitAC-lt45-S17
 "EconoCtrl" = FIXED   $ Msr (Multi)TechID: MsrNResSplitAC-lt45-S17
 "EconoEnthLimit" = 28   $ IP Non-Tech
 "EconoTempLimit" = 70   $ IP Non-Tech
 "Elevation" = 6   $ IP Non-Tech
 "FanEirPlr" = TwoSpeedFan   $ Msr (Multi)TechID: MsrNResSplitAC-lt45-S17
 "FanWPerCfm" = 0.271   $ Msr (Multi)TechID: MsrNResSplitAC-lt45-S17
 "HDD_CloudAmt1" = 0   $ IP Non-Tech
 "HDD_DBHi1" = 51   $ IP Non-Tech
 "HDD_DBRange1" = 17   $ IP Non-Tech
 "HDD_Day1" = 15   $ IP Non-Tech
 "HDD_HrHi1" = 16   $ IP Non-Tech
 "HDD_HrLo1" = 9   $ IP Non-Tech
 "HDD_WB1" = 42.6   $ IP Non-Tech
 "HDD_WindSpd1" = 15   $ IP Non-Tech
 "HIR_fT" = 0   $ Msr (Multi)TechID: MsrNResSplitAC-lt45-S17
 "HSPF" = 0   $ Msr (Multi)TechID: MsrNResSplitAC-lt45-S17
 "Hall_EWSF" = 0.2   $ IP Non-Tech
 "Hall_LWSF" = 0.55   $ IP Non-Tech
 "HeatSrc" = FURNACE   $ IP Non-Tech
 "HeatSrcTU" = HEAT-PUMP   $ IP Non-Tech
 "HeatType" = GasFurn   $ IP Non-Tech
 "HeatTypeTU" = HEAT-PUMP   $ IP Non-Tech
 "HtCap_fT" = 0   $ Msr (Multi)TechID: MsrNResSplitAC-lt45-S17
 "HtCoolCapRatio" = 0   $ Msr (Multi)TechID: MsrNResSplitAC-lt45-S17
 "HtgEIR" = 0   $ Msr (Multi)TechID: MsrNResSplitAC-lt45-S17
 "IndoorFanMode" = CONTINUOUS   $ IP Non-Tech
 "KT_TransferAir" = Yes   $ IP Non-Tech
 "Latitude" = 37.7   $ IP Non-Tech
 "LobbyWaiting_EWSF" = 0.5   $ IP Non-Tech
 "LobbyWaiting_LWSF" = 0.75   $ IP Non-Tech
 "Longitude" = 122.2   $ IP Non-Tech
 "LowSpdCapRatio" = 0.686   $ Msr (Multi)TechID: MsrNResSplitAC-lt45-S17
 "LowSpdCfmRatio" = 0.739   $ Msr (Multi)TechID: MsrNResSplitAC-lt45-S17
 "MZFanMechEff" = 0.58   $ IP Non-Tech
 "MZHasRetFan" = FALSE   $ IP Non-Tech
 "MZ_RFanWPerCfm" = 0.33   $ IP Non-Tech
 "MZ_SFanWPerCfm" = 0.75   $ IP Non-Tech
 "MZ_SupFanStatic" = 2.25   $ IP Non-Tech
 "MaxOAFrac" = 1   $ Msr (Multi)TechID: MsrNResSplitAC-lt45-S17
 "MaxSupT_MZ" = 100   $ IP Non-Tech
 "MaxSupT_SZ" = 100   $ IP Non-Tech
 "MaxSupT_TU" = 90   $ IP Non-Tech
 "MechElecRoom_EWSF" = 0.2   $ IP Non-Tech
 "MechElecRoom_LWSF" = 0.4   $ IP Non-Tech
 "MinCfmPerSF" = 0.4   $ IP Non-Tech
 "MinSupT" = 55   $ IP Non-Tech
 "NumStages" = 2   $ Msr (Multi)TechID: MsrNResSplitAC-lt45-S17
 "OccCoolT" = 76   $ IP Non-Tech
 "OccHeatT" = 72   $ IP Non-Tech
 "OfficeOpen_EWSF" = 1.5   $ IP Non-Tech
 "OfficeOpen_LWSF" = 0.8   $ IP Non-Tech
 "OfficeSmall_EWSF" = 1.5   $ IP Non-Tech
 "OfficeSmall_LWSF" = 0.9   $ IP Non-Tech
 "PkgDxVintEconoFlag" = 1   $ IP Non-Tech
 "Restroom_EWSF" = 0.2   $ IP Non-Tech
 "Restroom_LWSF" = 0.65   $ IP Non-Tech
 "SEER" = 17   $ Msr (Multi)TechID: MsrNResSplitAC-lt45-S17
 "SZFanMechEff" = 0.58   $ IP Non-Tech
 "SZHasRetFan" = FALSE   $ IP Non-Tech
 "SZ_Is_2Spd" = TRUE   $ IP Non-Tech
 "SZ_SFanWPerCfm" = 0.46   $ IP Non-Tech
 "SZ_SupFanStatic" = 0.75   $ IP Non-Tech
 "Sector" = Any   $ Msr (Multi)TechID: MsrNResSplitAC-lt45-S17
 "StorageSmlCond_EWSF" = 0.2   $ IP Non-Tech
 "StorageSmlCond_LWSF" = 0.45   $ IP Non-Tech
 "SubType" = AC   $ Msr (Multi)TechID: MsrNResSplitAC-lt45-S17
 "TermUnitFanMechEff" = 1   $ IP Non-Tech
 "TermUnitFanMode" = INTERMITTENT   $ IP Non-Tech
 "TotCoolCap" = 58805   $ Msr (Multi)TechID: MsrNResSplitAC-lt45-S17
 "TwrSetpt" = 80   $ IP Non-Tech
 "UnocCoolT" = 86   $ IP Non-Tech
 "UnocHeatT" = 62   $ IP Non-Tech
 "UseEconoVintApplic" = FALSE   $ Msr (Multi)TechID: MsrNResSplitAC-lt45-S17
 "WlhpVintEconoFlag" = 1   $ IP Non-Tech
 "DuctDT" = 1   $ IP Tech: ComDuctInsul-1
 "DuctAirLoss" = 0   $ IP Tech: ComDuctLeak-0
 "DuctLossOAFrac" = 0   $ IP Tech: ComDuctLeak-0
 "ComRoofInsCalc" = FromUo   $ IP Tech: ComRoofIns-WFrm-0.03
 "ComRoofInsR" = -999   $ IP Tech: ComRoofIns-WFrm-0.03
 "ComRoofUo" = 0.03   $ IP Tech: ComRoofIns-WFrm-0.03
 "ComEWInsCalc" = FromUo   $ IP Tech: ComWallIns-WFrm-0.09
 "ComEWInsR" = -999   $ IP Tech: ComWallIns-WFrm-0.09
 "ComEWUo" = 0.09   $ IP Tech: ComWallIns-WFrm-0.09
 "ComN_SHGC" = 0.25   $ IP Tech: NResWin-ComN-0.36-0.25
 "ComN_UFactor" = 0.36   $ IP Tech: NResWin-ComN-0.36-0.25
 "ComN_VisTrans" = 0.41   $ IP Tech: NResWin-ComN-0.36-0.25
 "ComN_WinCode" = G2668   $ IP Tech: NResWin-ComN-0.36-0.25
 "ComN_WinFrmFrac" = 0.17   $ IP Tech: NResWin-ComN-0.36-0.25
 "ComN_WinFrmU" = 0.3   $ IP Tech: NResWin-ComN-0.36-0.25
 "ComO_SHGC" = 0.25   $ IP Tech: NResWin-ComO-0.36-0.25
 "ComO_UFactor" = 0.36   $ IP Tech: NResWin-ComO-0.36-0.25
 "ComO_VisTrans" = 0.41   $ IP Tech: NResWin-ComO-0.36-0.25
 "ComO_WinCode" = G2668   $ IP Tech: NResWin-ComO-0.36-0.25
 "ComO_WinFrmFrac" = 0.17   $ IP Tech: NResWin-ComO-0.36-0.25
 "ComO_WinFrmU" = 0.3   $ IP Tech: NResWin-ComO-0.36-0.25
 "LtgMsrApplic" = ALL   $ IP Tech: NonResLtgRefPre
 "LtgSav_CFL" = 0   $ IP Tech: NonResLtgRefPre
 "LtgSav_EX" = 0   $ IP Tech: NonResLtgRefPre
 "LtgSav_HB" = 0   $ IP Tech: NonResLtgRefPre
 "LtgSav_LF" = 0   $ IP Tech: NonResLtgRefPre
 "LtgSav_SP" = 0   $ IP Tech: NonResLtgRefPre
 "CEIR_fPLR" = PSZ65to135_CEIR_fPLR   $ IP Tech: PkgAC2SpP-65to135-E11
 "CLoss_fPLR" = PSZ65to135_CLoss_fPLR   $ IP Tech: PkgAC2SpP-65to135-E11
 "COP" = -1   $ IP Tech: PkgAC2SpP-65to135-E11
 "HtgFuel" = Gas   $ IP Tech: PkgAC2SpP-65to135-E11
 "IEER" = 13.35   $ IP Tech: PkgAC2SpP-65to135-E11
 "NominalCap" = 15   $ IP Tech: PkgAC2SpP-65to135-E11
 "RatedEER" = 11   $ IP Tech: PkgAC2SpP-65to135-E11
 "RatedSupMtrClass" = Premium   $ IP Tech: PkgAC2SpP-65to135-E11
 "SizeRange" = 65to135   $ IP Tech: PkgAC2SpP-65to135-E11
 "SupMotEff" = 0.865   $ IP Tech: PkgAC2SpP-65to135-E11
 "Tier" = 0   $ IP Tech: PkgAC2SpP-65to135-E11
 "FanPwrMult" = 1   $ IP Tech: PkgFurn-0.80AFUE
 "FurnAFUE" = 0.8   $ IP Tech: PkgFurn-0.80AFUE
 "FurnEt" = 0.82   $ IP Tech: PkgFurn-0.80AFUE
 "FurnaceAuxKW" = 0.1   $ IP Tech: PkgFurn-0.80AFUE
 "HIR_fPLR" = Furnace-HIR-fPLR   $ IP Tech: PkgFurn-0.80AFUE
 "VSM" = FALSE   $ IP Tech: PkgFurn-0.80AFUE
 "BFMult" = 1   $ IP Tech: RefgChg-NRes-Std
 "CoolEirMult" = 1   $ IP Tech: RefgChg-NRes-Std
 "SensCoolCapMult" = 1   $ IP Tech: RefgChg-NRes-Std
 "TotCoolCapMult" = 1   $ IP Tech: RefgChg-NRes-Std
 "AltAdjFactor" = 1.000254   $ Sizing
 "CAssFlo_L_Break_CZn" = 286.4822   $ Sizing
 "CAssFlo_L_CompDC_CZn" = 161.9193   $ Sizing
 "CAssFlo_L_Conf_CZn" = 200.3857   $ Sizing
 "CAssFlo_L_CopyRm_CZn" = 65.31951   $ Sizing
 "CAssFlo_L_Hall_EZn" = 89.88043   $ Sizing
 "CAssFlo_L_Hall_NZn" = 45.82092   $ Sizing
 "CAssFlo_L_Hall_SZn" = 102.9291   $ Sizing
 "CAssFlo_L_Hall_WZn" = 94.76598   $ Sizing
 "CAssFlo_L_LobWait_EZn" = 218.5012   $ Sizing
 "CAssFlo_L_LobWait_NZn" = 100.4621   $ Sizing
 "CAssFlo_L_LobWait_SZn" = 234.3992   $ Sizing
 "CAssFlo_L_LobWait_WZn" = 219.6246   $ Sizing
 "CAssFlo_L_MechElec_CZn" = 65.46051   $ Sizing
 "CAssFlo_L_OfficeOpn_CZn" = 68.00732   $ Sizing
 "CAssFlo_L_OfficeOpn_EZn" = 453.1632   $ Sizing
 "CAssFlo_L_OfficeOpn_NZn" = 218.742   $ Sizing
 "CAssFlo_L_OfficeOpn_SZn" = 445.0778   $ Sizing
 "CAssFlo_L_OfficeOpn_WZn" = 436.9714   $ Sizing
 "CAssFlo_L_OfficeSm_EZn" = 375.1894   $ Sizing
 "CAssFlo_L_OfficeSm_NZn" = 168.2153   $ Sizing
 "CAssFlo_L_OfficeSm_SZn" = 386.6507   $ Sizing
 "CAssFlo_L_OfficeSm_WZn" = 377.4138   $ Sizing
 "CAssFlo_L_Restrm_CZn" = 85.44932   $ Sizing
 "CAssFlo_L_StorSm_CZn" = 29.92386   $ Sizing
 "CAssFlo_L_StorSm_EZn" = 86.46207   $ Sizing
 "CAssFlo_L_StorSm_NZn" = 57.89646   $ Sizing
 "CAssFlo_L_StorSm_SZn" = 93.94054   $ Sizing
 "CAssFlo_L_StorSm_WZn" = 85.649   $ Sizing
 "CAssFlo_T_Conf_CZn" = 202.2477   $ Sizing
 "CAssFlo_T_Hall_EZn" = 102.886   $ Sizing
 "CAssFlo_T_Hall_NZn" = 44.64445   $ Sizing
 "CAssFlo_T_Hall_SZn" = 115.2759   $ Sizing
 "CAssFlo_T_Hall_WZn" = 103.2782   $ Sizing
 "CAssFlo_T_OfficeOpn_CZn" = 58.39196   $ Sizing
 "CAssFlo_T_OfficeOpn_EZn" = 447.1312   $ Sizing
 "CAssFlo_T_OfficeOpn_NZn" = 232.7933   $ Sizing
 "CAssFlo_T_OfficeOpn_SZn" = 465.3192   $ Sizing
 "CAssFlo_T_OfficeOpn_WZn" = 427.7574   $ Sizing
 "CAssFlo_T_OfficeSm_EZn" = 379.0179   $ Sizing
 "CAssFlo_T_OfficeSm_NZn" = 181.2133   $ Sizing
 "CAssFlo_T_OfficeSm_SZn" = 408.397   $ Sizing
 "CAssFlo_T_OfficeSm_WZn" = 372.8343   $ Sizing
 "CAssFlo_T_Restrm_CZn" = 106.2398   $ Sizing
 "CAssFlo_T_StorSm_EZn" = 100.1644   $ Sizing
 "CAssFlo_T_StorSm_NZn" = 58.66431   $ Sizing
 "CAssFlo_T_StorSm_SZn" = 109.6673   $ Sizing
 "CAssFlo_T_StorSm_WZn" = 100.4437   $ Sizing
 "CHRtFlo_Sys_L_Break_C" = 286.4822   $ Sizing
 "CHRtFlo_Sys_L_CompDC_C" = 161.9193   $ Sizing
 "CHRtFlo_Sys_L_Conf_C" = 200.3857   $ Sizing
 "CHRtFlo_Sys_L_CopyRm_C" = 65.31951   $ Sizing
 "CHRtFlo_Sys_L_Hall_E" = 89.88043   $ Sizing
 "CHRtFlo_Sys_L_Hall_N" = 45.82092   $ Sizing
 "CHRtFlo_Sys_L_Hall_S" = 102.9291   $ Sizing
 "CHRtFlo_Sys_L_Hall_W" = 94.76598   $ Sizing
 "CHRtFlo_Sys_L_LobWait_E" = 218.5012   $ Sizing
 "CHRtFlo_Sys_L_LobWait_N" = 100.4621   $ Sizing
 "CHRtFlo_Sys_L_LobWait_S" = 234.3992   $ Sizing
 "CHRtFlo_Sys_L_LobWait_W" = 219.6246   $ Sizing
 "CHRtFlo_Sys_L_MechElec_C" = 65.46051   $ Sizing
 "CHRtFlo_Sys_L_OfficeOpn_C" = 68.00732   $ Sizing
 "CHRtFlo_Sys_L_OfficeOpn_E" = 453.1632   $ Sizing
 "CHRtFlo_Sys_L_OfficeOpn_N" = 218.742   $ Sizing
 "CHRtFlo_Sys_L_OfficeOpn_S" = 445.0778   $ Sizing
 "CHRtFlo_Sys_L_OfficeOpn_W" = 436.9714   $ Sizing
 "CHRtFlo_Sys_L_OfficeSm_E" = 375.1894   $ Sizing
 "CHRtFlo_Sys_L_OfficeSm_N" = 168.2153   $ Sizing
 "CHRtFlo_Sys_L_OfficeSm_S" = 386.6507   $ Sizing
 "CHRtFlo_Sys_L_OfficeSm_W" = 377.4138   $ Sizing
 "CHRtFlo_Sys_L_Restrm_C" = 85.44932   $ Sizing
 "CHRtFlo_Sys_L_StorSm_C" = 29.92386   $ Sizing
 "CHRtFlo_Sys_L_StorSm_E" = 86.46207   $ Sizing
 "CHRtFlo_Sys_L_StorSm_N" = 57.89646   $ Sizing
 "CHRtFlo_Sys_L_StorSm_S" = 93.94054   $ Sizing
 "CHRtFlo_Sys_L_StorSm_W" = 85.649   $ Sizing
 "CHRtFlo_Sys_T_Conf_C" = 202.2477   $ Sizing
 "CHRtFlo_Sys_T_Hall_E" = 102.886   $ Sizing
 "CHRtFlo_Sys_T_Hall_N" = 44.64445   $ Sizing
 "CHRtFlo_Sys_T_Hall_S" = 115.2759   $ Sizing
 "CHRtFlo_Sys_T_Hall_W" = 103.2782   $ Sizing
 "CHRtFlo_Sys_T_OfficeOpn_C" = 58.39196   $ Sizing
 "CHRtFlo_Sys_T_OfficeOpn_E" = 447.1312   $ Sizing
 "CHRtFlo_Sys_T_OfficeOpn_N" = 232.7933   $ Sizing
 "CHRtFlo_Sys_T_OfficeOpn_S" = 465.3192   $ Sizing
 "CHRtFlo_Sys_T_OfficeOpn_W" = 427.7574   $ Sizing
 "CHRtFlo_Sys_T_OfficeSm_E" = 379.0179   $ Sizing
 "CHRtFlo_Sys_T_OfficeSm_N" = 181.2133   $ Sizing
 "CHRtFlo_Sys_T_OfficeSm_S" = 408.397   $ Sizing
 "CHRtFlo_Sys_T_OfficeSm_W" = 372.8343   $ Sizing
 "CHRtFlo_Sys_T_Restrm_C" = 106.2398   $ Sizing
 "CHRtFlo_Sys_T_StorSm_E" = 100.1644   $ Sizing
 "CHRtFlo_Sys_T_StorSm_N" = 58.66431   $ Sizing
 "CHRtFlo_Sys_T_StorSm_S" = 109.6673   $ Sizing
 "CHRtFlo_Sys_T_StorSm_W" = 100.4437   $ Sizing
 "CRtdFlo_Sys_L_Break_C" = 286.4822   $ Sizing
 "CRtdFlo_Sys_L_CompDC_C" = 161.9193   $ Sizing
 "CRtdFlo_Sys_L_Conf_C" = 200.3857   $ Sizing
 "CRtdFlo_Sys_L_CopyRm_C" = 65.31951   $ Sizing
 "CRtdFlo_Sys_L_Hall_E" = 89.88043   $ Sizing
 "CRtdFlo_Sys_L_Hall_N" = 45.82092   $ Sizing
 "CRtdFlo_Sys_L_Hall_S" = 102.9291   $ Sizing
 "CRtdFlo_Sys_L_Hall_W" = 94.76598   $ Sizing
 "CRtdFlo_Sys_L_LobWait_E" = 218.5012   $ Sizing
 "CRtdFlo_Sys_L_LobWait_N" = 100.4621   $ Sizing
 "CRtdFlo_Sys_L_LobWait_S" = 234.3992   $ Sizing
 "CRtdFlo_Sys_L_LobWait_W" = 219.6246   $ Sizing
 "CRtdFlo_Sys_L_MechElec_C" = 65.46051   $ Sizing
 "CRtdFlo_Sys_L_OfficeOpn_C" = 68.00732   $ Sizing
 "CRtdFlo_Sys_L_OfficeOpn_E" = 453.1632   $ Sizing
 "CRtdFlo_Sys_L_OfficeOpn_N" = 218.742   $ Sizing
 "CRtdFlo_Sys_L_OfficeOpn_S" = 445.0778   $ Sizing
 "CRtdFlo_Sys_L_OfficeOpn_W" = 436.9714   $ Sizing
 "CRtdFlo_Sys_L_OfficeSm_E" = 375.1894   $ Sizing
 "CRtdFlo_Sys_L_OfficeSm_N" = 168.2153   $ Sizing
 "CRtdFlo_Sys_L_OfficeSm_S" = 386.6507   $ Sizing
 "CRtdFlo_Sys_L_OfficeSm_W" = 377.4138   $ Sizing
 "CRtdFlo_Sys_L_Restrm_C" = 85.44932   $ Sizing
 "CRtdFlo_Sys_L_StorSm_C" = 29.92386   $ Sizing
 "CRtdFlo_Sys_L_StorSm_E" = 86.46207   $ Sizing
 "CRtdFlo_Sys_L_StorSm_N" = 57.89646   $ Sizing
 "CRtdFlo_Sys_L_StorSm_S" = 93.94054   $ Sizing
 "CRtdFlo_Sys_L_StorSm_W" = 85.649   $ Sizing
 "CRtdFlo_Sys_T_Conf_C" = 202.2477   $ Sizing
 "CRtdFlo_Sys_T_Hall_E" = 102.886   $ Sizing
 "CRtdFlo_Sys_T_Hall_N" = 44.64445   $ Sizing
 "CRtdFlo_Sys_T_Hall_S" = 115.2759   $ Sizing
 "CRtdFlo_Sys_T_Hall_W" = 103.2782   $ Sizing
 "CRtdFlo_Sys_T_OfficeOpn_C" = 58.39196   $ Sizing
 "CRtdFlo_Sys_T_OfficeOpn_E" = 447.1312   $ Sizing
 "CRtdFlo_Sys_T_OfficeOpn_N" = 232.7933   $ Sizing
 "CRtdFlo_Sys_T_OfficeOpn_S" = 465.3192   $ Sizing
 "CRtdFlo_Sys_T_OfficeOpn_W" = 427.7574   $ Sizing
 "CRtdFlo_Sys_T_OfficeSm_E" = 379.0179   $ Sizing
 "CRtdFlo_Sys_T_OfficeSm_N" = 181.2133   $ Sizing
 "CRtdFlo_Sys_T_OfficeSm_S" = 408.397   $ Sizing
 "CRtdFlo_Sys_T_OfficeSm_W" = 372.8343   $ Sizing
 "CRtdFlo_Sys_T_Restrm_C" = 106.2398   $ Sizing
 "CRtdFlo_Sys_T_StorSm_E" = 100.1644   $ Sizing
 "CRtdFlo_Sys_T_StorSm_N" = 58.66431   $ Sizing
 "CRtdFlo_Sys_T_StorSm_S" = 109.6673   $ Sizing
 "CRtdFlo_Sys_T_StorSm_W" = 100.4437   $ Sizing
 "CSupFlo_Sys_L_Break_C" = 286.4822   $ Sizing
 "CSupFlo_Sys_L_CompDC_C" = 161.9193   $ Sizing
 "CSupFlo_Sys_L_Conf_C" = 200.3857   $ Sizing
 "CSupFlo_Sys_L_CopyRm_C" = 65.31951   $ Sizing
 "CSupFlo_Sys_L_Hall_E" = 89.88043   $ Sizing
 "CSupFlo_Sys_L_Hall_N" = 45.82092   $ Sizing
 "CSupFlo_Sys_L_Hall_S" = 102.9291   $ Sizing
 "CSupFlo_Sys_L_Hall_W" = 94.76598   $ Sizing
 "CSupFlo_Sys_L_LobWait_E" = 218.5012   $ Sizing
 "CSupFlo_Sys_L_LobWait_N" = 100.4621   $ Sizing
 "CSupFlo_Sys_L_LobWait_S" = 234.3992   $ Sizing
 "CSupFlo_Sys_L_LobWait_W" = 219.6246   $ Sizing
 "CSupFlo_Sys_L_MechElec_C" = 65.46051   $ Sizing
 "CSupFlo_Sys_L_OfficeOpn_C" = 68.00732   $ Sizing
 "CSupFlo_Sys_L_OfficeOpn_E" = 453.1632   $ Sizing
 "CSupFlo_Sys_L_OfficeOpn_N" = 218.742   $ Sizing
 "CSupFlo_Sys_L_OfficeOpn_S" = 445.0778   $ Sizing
 "CSupFlo_Sys_L_OfficeOpn_W" = 436.9714   $ Sizing
 "CSupFlo_Sys_L_OfficeSm_E" = 375.1894   $ Sizing
 "CSupFlo_Sys_L_OfficeSm_N" = 168.2153   $ Sizing
 "CSupFlo_Sys_L_OfficeSm_S" = 386.6507   $ Sizing
 "CSupFlo_Sys_L_OfficeSm_W" = 377.4138   $ Sizing
 "CSupFlo_Sys_L_Restrm_C" = 85.44932   $ Sizing
 "CSupFlo_Sys_L_StorSm_C" = 29.92386   $ Sizing
 "CSupFlo_Sys_L_StorSm_E" = 86.46207   $ Sizing
 "CSupFlo_Sys_L_StorSm_N" = 57.89646   $ Sizing
 "CSupFlo_Sys_L_StorSm_S" = 93.94054   $ Sizing
 "CSupFlo_Sys_L_StorSm_W" = 85.649   $ Sizing
 "CSupFlo_Sys_T_Conf_C" = 202.2477   $ Sizing
 "CSupFlo_Sys_T_Hall_E" = 102.886   $ Sizing
 "CSupFlo_Sys_T_Hall_N" = 44.64445   $ Sizing
 "CSupFlo_Sys_T_Hall_S" = 115.2759   $ Sizing
 "CSupFlo_Sys_T_Hall_W" = 103.2782   $ Sizing
 "CSupFlo_Sys_T_OfficeOpn_C" = 58.39196   $ Sizing
 "CSupFlo_Sys_T_OfficeOpn_E" = 447.1312   $ Sizing
 "CSupFlo_Sys_T_OfficeOpn_N" = 232.7933   $ Sizing
 "CSupFlo_Sys_T_OfficeOpn_S" = 465.3192   $ Sizing
 "CSupFlo_Sys_T_OfficeOpn_W" = 427.7574   $ Sizing
 "CSupFlo_Sys_T_OfficeSm_E" = 379.0179   $ Sizing
 "CSupFlo_Sys_T_OfficeSm_N" = 181.2133   $ Sizing
 "CSupFlo_Sys_T_OfficeSm_S" = 408.397   $ Sizing
 "CSupFlo_Sys_T_OfficeSm_W" = 372.8343   $ Sizing
 "CSupFlo_Sys_T_Restrm_C" = 106.2398   $ Sizing
 "CSupFlo_Sys_T_StorSm_E" = 100.1644   $ Sizing
 "CSupFlo_Sys_T_StorSm_N" = 58.66431   $ Sizing
 "CSupFlo_Sys_T_StorSm_S" = 109.6673   $ Sizing
 "CSupFlo_Sys_T_StorSm_W" = 100.4437   $ Sizing
 "ClCap_Sys_L_Break_C" = 9819.751   $ Sizing
 "ClCap_Sys_L_CompDC_C" = 5550.107   $ Sizing
 "ClCap_Sys_L_Conf_C" = 8741.881   $ Sizing
 "ClCap_Sys_L_CopyRm_C" = 2238.957   $ Sizing
 "ClCap_Sys_L_Hall_E" = 3080.832   $ Sizing
 "ClCap_Sys_L_Hall_N" = 1570.604   $ Sizing
 "ClCap_Sys_L_Hall_S" = 3528.103   $ Sizing
 "ClCap_Sys_L_Hall_W" = 3248.293   $ Sizing
 "ClCap_Sys_L_LobWait_E" = 7489.566   $ Sizing
 "ClCap_Sys_L_LobWait_N" = 3443.541   $ Sizing
 "ClCap_Sys_L_LobWait_S" = 8034.5   $ Sizing
 "ClCap_Sys_L_LobWait_W" = 7528.071   $ Sizing
 "ClCap_Sys_L_MechElec_C" = 2243.79   $ Sizing
 "ClCap_Sys_L_OfficeOpn_C" = 2331.087   $ Sizing
 "ClCap_Sys_L_OfficeOpn_E" = 15533.08   $ Sizing
 "ClCap_Sys_L_OfficeOpn_N" = 7497.821   $ Sizing
 "ClCap_Sys_L_OfficeOpn_S" = 15255.93   $ Sizing
 "ClCap_Sys_L_OfficeOpn_W" = 14978.07   $ Sizing
 "ClCap_Sys_L_OfficeSm_E" = 12860.37   $ Sizing
 "ClCap_Sys_L_OfficeSm_N" = 5765.916   $ Sizing
 "ClCap_Sys_L_OfficeSm_S" = 13253.23   $ Sizing
 "ClCap_Sys_L_OfficeSm_W" = 12936.61   $ Sizing
 "ClCap_Sys_L_Restrm_C" = 2928.947   $ Sizing
 "ClCap_Sys_L_StorSm_C" = 1025.7   $ Sizing
 "ClCap_Sys_L_StorSm_E" = 2963.661   $ Sizing
 "ClCap_Sys_L_StorSm_N" = 1984.517   $ Sizing
 "ClCap_Sys_L_StorSm_S" = 3220   $ Sizing
 "ClCap_Sys_L_StorSm_W" = 2935.791   $ Sizing
 "ClCap_Sys_T_Conf_C" = 8823.11   $ Sizing
 "ClCap_Sys_T_Hall_E" = 3526.625   $ Sizing
 "ClCap_Sys_T_Hall_N" = 1530.278   $ Sizing
 "ClCap_Sys_T_Hall_S" = 3951.311   $ Sizing
 "ClCap_Sys_T_Hall_W" = 3540.067   $ Sizing
 "ClCap_Sys_T_OfficeOpn_C" = 2001.501   $ Sizing
 "ClCap_Sys_T_OfficeOpn_E" = 15326.32   $ Sizing
 "ClCap_Sys_T_OfficeOpn_N" = 7979.455   $ Sizing
 "ClCap_Sys_T_OfficeOpn_S" = 15949.75   $ Sizing
 "ClCap_Sys_T_OfficeOpn_W" = 14662.24   $ Sizing
 "ClCap_Sys_T_OfficeSm_E" = 12991.6   $ Sizing
 "ClCap_Sys_T_OfficeSm_N" = 6211.447   $ Sizing
 "ClCap_Sys_T_OfficeSm_S" = 13998.63   $ Sizing
 "ClCap_Sys_T_OfficeSm_W" = 12779.64   $ Sizing
 "ClCap_Sys_T_Restrm_C" = 3641.581   $ Sizing
 "ClCap_Sys_T_StorSm_E" = 3433.336   $ Sizing
 "ClCap_Sys_T_StorSm_N" = 2010.837   $ Sizing
 "ClCap_Sys_T_StorSm_S" = 3759.067   $ Sizing
 "ClCap_Sys_T_StorSm_W" = 3442.908   $ Sizing
 "HtCap_Sys_L_Break_C" = -16749.86   $ Sizing
 "HtCap_Sys_L_CompDC_C" = -5892.979   $ Sizing
 "HtCap_Sys_L_Conf_C" = -12377.22   $ Sizing
 "HtCap_Sys_L_CopyRm_C" = -4206.916   $ Sizing
 "HtCap_Sys_L_Hall_E" = -3433.578   $ Sizing
 "HtCap_Sys_L_Hall_N" = -1923.19   $ Sizing
 "HtCap_Sys_L_Hall_S" = -3719.791   $ Sizing
 "HtCap_Sys_L_Hall_W" = -3516.467   $ Sizing
 "HtCap_Sys_L_LobWait_E" = -8880.958   $ Sizing
 "HtCap_Sys_L_LobWait_N" = -5176.794   $ Sizing
 "HtCap_Sys_L_LobWait_S" = -9389.447   $ Sizing
 "HtCap_Sys_L_LobWait_W" = -8982.258   $ Sizing
 "HtCap_Sys_L_MechElec_C" = -2995.369   $ Sizing
 "HtCap_Sys_L_OfficeOpn_C" = -2711.06   $ Sizing
 "HtCap_Sys_L_OfficeOpn_E" = -16798.88   $ Sizing
 "HtCap_Sys_L_OfficeOpn_N" = -9827.216   $ Sizing
 "HtCap_Sys_L_OfficeOpn_S" = -16234.94   $ Sizing
 "HtCap_Sys_L_OfficeOpn_W" = -16501.96   $ Sizing
 "HtCap_Sys_L_OfficeSm_E" = -13901.9   $ Sizing
 "HtCap_Sys_L_OfficeSm_N" = -7340.4   $ Sizing
 "HtCap_Sys_L_OfficeSm_S" = -13543   $ Sizing
 "HtCap_Sys_L_OfficeSm_W" = -13723.45   $ Sizing
 "HtCap_Sys_L_Restrm_C" = -3077.499   $ Sizing
 "HtCap_Sys_L_StorSm_C" = -1292.749   $ Sizing
 "HtCap_Sys_L_StorSm_E" = -3444.637   $ Sizing
 "HtCap_Sys_L_StorSm_N" = -2587.574   $ Sizing
 "HtCap_Sys_L_StorSm_S" = -3683.327   $ Sizing
 "HtCap_Sys_L_StorSm_W" = -3472.638   $ Sizing
 "HtCap_Sys_T_Conf_C" = -12597.65   $ Sizing
 "HtCap_Sys_T_Hall_E" = -4198.181   $ Sizing
 "HtCap_Sys_T_Hall_N" = -2115.728   $ Sizing
 "HtCap_Sys_T_Hall_S" = -4633.392   $ Sizing
 "HtCap_Sys_T_Hall_W" = -4214.21   $ Sizing
 "HtCap_Sys_T_OfficeOpn_C" = -2643.977   $ Sizing
 "HtCap_Sys_T_OfficeOpn_E" = -18265.15   $ Sizing
 "HtCap_Sys_T_OfficeOpn_N" = -10870.58   $ Sizing
 "HtCap_Sys_T_OfficeOpn_S" = -18842.28   $ Sizing
 "HtCap_Sys_T_OfficeOpn_W" = -17600.54   $ Sizing
 "HtCap_Sys_T_OfficeSm_E" = -15269.37   $ Sizing
 "HtCap_Sys_T_OfficeSm_N" = -8406.777   $ Sizing
 "HtCap_Sys_T_OfficeSm_S" = -16228.51   $ Sizing
 "HtCap_Sys_T_OfficeSm_W" = -15057.26   $ Sizing
 "HtCap_Sys_T_Restrm_C" = -4264.051   $ Sizing
 "HtCap_Sys_T_StorSm_E" = -4426.051   $ Sizing
 "HtCap_Sys_T_StorSm_N" = -2947.21   $ Sizing
 "HtCap_Sys_T_StorSm_S" = -4637.354   $ Sizing
 "HtCap_Sys_T_StorSm_W" = -4412.992   $ Sizing
..

##include Templates\OfS_DX_SZ.inp
END ..
COMPUTE ..
STOP ..
