INPUT ..

##fileprefix C:\Users\jglasskatz\MASControl3\
##set1 IsSizing FALSE
##set1 CoolType DX
##set1 HeatType FURNACE
##set1 EU_HrRepVar 0
##set1 BldgVint 1975
##set1 BldgLoc CZ13

 ##set1 mBFMult 1   $ IP Tech: RefgChg-NRes-Std

PARAMETER
 "AltFactor" = 1.01244   $ IP Non-Tech
 "BF_fFlow" = SpltAC1Sp-ge45_BF_fFlow   $ Msr (Multi)TechID: StdNResSplitAC-45to55
 "BF_fT" = SpltAC1Sp-ge45_BF_fT   $ Msr (Multi)TechID: StdNResSplitAC-45to55
 "BldgEconoFlag" = 1   $ IP Non-Tech
 "Break_EWSF" = 1   $ IP Non-Tech
 "Break_LWSF" = 1.1   $ IP Non-Tech
 "CDD_DBHi10" = 86   $ IP Non-Tech
 "CDD_DBHi7" = 105   $ IP Non-Tech
 "CDD_DBHi8" = 102   $ IP Non-Tech
 "CDD_DBHi9" = 100   $ IP Non-Tech
 "CDD_DBRange10" = 28   $ IP Non-Tech
 "CDD_DBRange7" = 28   $ IP Non-Tech
 "CDD_DBRange8" = 28   $ IP Non-Tech
 "CDD_DBRange9" = 30   $ IP Non-Tech
 "CDD_Day10" = 15   $ IP Non-Tech
 "CDD_Day7" = 16   $ IP Non-Tech
 "CDD_Day8" = 20   $ IP Non-Tech
 "CDD_Day9" = 17   $ IP Non-Tech
 "CDD_HrHi10" = 16   $ IP Non-Tech
 "CDD_HrHi7" = 18   $ IP Non-Tech
 "CDD_HrHi8" = 18   $ IP Non-Tech
 "CDD_HrHi9" = 15   $ IP Non-Tech
 "CDD_HrLo10" = 5   $ IP Non-Tech
 "CDD_HrLo7" = 6   $ IP Non-Tech
 "CDD_HrLo8" = 7   $ IP Non-Tech
 "CDD_HrLo9" = 3   $ IP Non-Tech
 "CDD_WB10" = 62.19377518   $ IP Non-Tech
 "CDD_WB7" = 72.76699829   $ IP Non-Tech
 "CDD_WB8" = 69.69030762   $ IP Non-Tech
 "CDD_WB9" = 71.78777313   $ IP Non-Tech
 "CEIR_fPLR_Hot" = SpltAC1Sp-ge45_CEIR_fPLR_Hot   $ Msr (Multi)TechID: StdNResSplitAC-45to55
 "CEIR_fPLR_Mod" = SpltAC1Sp-ge45_CEIR_fPLR_Mod   $ Msr (Multi)TechID: StdNResSplitAC-45to55
 "CEIR_fPLR_Tem" = SpltAC1Sp-ge45_CEIR_fPLR_Tem   $ Msr (Multi)TechID: StdNResSplitAC-45to55
 "CLoss_fPLR_Hot" = SpltAC1Sp-ge45_CLoss_fPLR_Hot   $ Msr (Multi)TechID: StdNResSplitAC-45to55
 "CLoss_fPLR_Mod" = SpltAC1Sp-ge45_CLoss_fPLR_Mod   $ Msr (Multi)TechID: StdNResSplitAC-45to55
 "CLoss_fPLR_Tem" = SpltAC1Sp-ge45_CLoss_fPLR_Tem   $ Msr (Multi)TechID: StdNResSplitAC-45to55
 "COP47" = 0   $ Msr (Multi)TechID: StdNResSplitAC-45to55
 "CZ_Category" = Mod   $ IP Non-Tech
 "CapRange" = ge45   $ Msr (Multi)TechID: StdNResSplitAC-45to55
 "CfmPerBtuh" = 0.03263   $ Msr (Multi)TechID: StdNResSplitAC-45to55
 "ChwVintEconoFlag" = 1   $ IP Non-Tech
 "ClCap_fT" = SpltAC1Sp-ge45_ClCap_fT   $ Msr (Multi)TechID: StdNResSplitAC-45to55
 "ClSH_fT" = SpltAC1Sp-ge45_ClSH_fT   $ Msr (Multi)TechID: StdNResSplitAC-45to55
 "CoilBF" = 0.106518182   $ Msr (Multi)TechID: StdNResSplitAC-45to55
 "CompRoomData_EWSF" = 5.75   $ IP Non-Tech
 "CompRoomData_LWSF" = 1.2   $ IP Non-Tech
 "CondWPerBtuh" = 0   $ Msr (Multi)TechID: StdNResSplitAC-45to55
 "Conference_EWSF" = 1.15   $ IP Non-Tech
 "Conference_LWSF" = 1.4   $ IP Non-Tech
 "CoolSensCap" = 0.759218182   $ Msr (Multi)TechID: StdNResSplitAC-45to55
 "CoolSetT" = 45   $ IP Non-Tech
 "CoolType" = DX   $ IP Non-Tech
 "CoolingEIR" = 0.2466   $ Msr (Multi)TechID: StdNResSplitAC-45to55
 "CopyRoom_EWSF" = 1.725   $ IP Non-Tech
 "CopyRoom_LWSF" = 1.3   $ IP Non-Tech
 "CrnkEIR" = 0.002466   $ Msr (Multi)TechID: StdNResSplitAC-45to55
 "CrnkMaxT" = 50   $ Msr (Multi)TechID: StdNResSplitAC-45to55
 "DXType" = SplitSEER   $ Msr (Multi)TechID: StdNResSplitAC-45to55
 "DesCoolT" = 75   $ IP Non-Tech
 "DesHeatT" = 73   $ IP Non-Tech
 "EER" = 11.81793103   $ Msr (Multi)TechID: StdNResSplitAC-45to55
 "EIR_fT" = SpltAC1Sp-ge45_EIR_fT   $ Msr (Multi)TechID: StdNResSplitAC-45to55
 "EconoCtrl" = FIXED   $ Msr (Multi)TechID: StdNResSplitAC-45to55
 "EconoEnthLimit" = 28   $ IP Non-Tech
 "EconoTempLimit" = 75   $ IP Non-Tech
 "Elevation" = 335   $ IP Non-Tech
 "FanEirPlr" = TwoSpeedFan   $ Msr (Multi)TechID: StdNResSplitAC-45to55
 "FanWPerCfm" = 0.294   $ Msr (Multi)TechID: StdNResSplitAC-45to55
 "HDD_CloudAmt1" = 0   $ IP Non-Tech
 "HDD_DBHi1" = 40.29372406   $ IP Non-Tech
 "HDD_DBRange1" = 8   $ IP Non-Tech
 "HDD_Day1" = 15   $ IP Non-Tech
 "HDD_HrHi1" = 22   $ IP Non-Tech
 "HDD_HrLo1" = 7   $ IP Non-Tech
 "HDD_WB1" = 38.2   $ IP Non-Tech
 "HDD_WindSpd1" = 10.4   $ IP Non-Tech
 "HIR_fT" = 0   $ Msr (Multi)TechID: StdNResSplitAC-45to55
 "HSPF" = 0   $ Msr (Multi)TechID: StdNResSplitAC-45to55
 "Hall_EWSF" = 0.23   $ IP Non-Tech
 "Hall_LWSF" = 0.6   $ IP Non-Tech
 "HeatSrc" = FURNACE   $ IP Non-Tech
 "HeatSrcTU" = HEAT-PUMP   $ IP Non-Tech
 "HeatType" = GasFurn   $ IP Non-Tech
 "HeatTypeTU" = HEAT-PUMP   $ IP Non-Tech
 "HtCap_fT" = 0   $ Msr (Multi)TechID: StdNResSplitAC-45to55
 "HtCoolCapRatio" = 0   $ Msr (Multi)TechID: StdNResSplitAC-45to55
 "HtgEIR" = 0   $ Msr (Multi)TechID: StdNResSplitAC-45to55
 "IndoorFanMode" = CONTINUOUS   $ IP Non-Tech
 "KT_TransferAir" = No   $ IP Non-Tech
 "Latitude" = 36.8   $ IP Non-Tech
 "LobbyWaiting_EWSF" = 0.5375   $ IP Non-Tech
 "LobbyWaiting_LWSF" = 1.3   $ IP Non-Tech
 "Longitude" = 119.7   $ IP Non-Tech
 "LowSpdCapRatio" = 1   $ Msr (Multi)TechID: StdNResSplitAC-45to55
 "LowSpdCfmRatio" = 1   $ Msr (Multi)TechID: StdNResSplitAC-45to55
 "MZFanMechEff" = 0.58   $ IP Non-Tech
 "MZHasRetFan" = FALSE   $ IP Non-Tech
 "MZ_RFanWPerCfm" = 0.33   $ IP Non-Tech
 "MZ_SFanWPerCfm" = 0.75   $ IP Non-Tech
 "MZ_SupFanStatic" = 2.25   $ IP Non-Tech
 "MaxOAFrac" = 1   $ Msr (Multi)TechID: StdNResSplitAC-45to55
 "MaxSupT_MZ" = 100   $ IP Non-Tech
 "MaxSupT_SZ" = 100   $ IP Non-Tech
 "MaxSupT_TU" = 90   $ IP Non-Tech
 "MechElecRoom_EWSF" = 0.23   $ IP Non-Tech
 "MechElecRoom_LWSF" = 0.7   $ IP Non-Tech
 "MinCfmPerSF" = 0.4   $ IP Non-Tech
 "MinSupT" = 55   $ IP Non-Tech
 "NumStages" = 1   $ Msr (Multi)TechID: StdNResSplitAC-45to55
 "OccCoolT" = 76   $ IP Non-Tech
 "OccHeatT" = 72   $ IP Non-Tech
 "OfficeOpen_EWSF" = 1.725   $ IP Non-Tech
 "OfficeOpen_LWSF" = 1.2   $ IP Non-Tech
 "OfficeSmall_EWSF" = 1.725   $ IP Non-Tech
 "OfficeSmall_LWSF" = 1.3   $ IP Non-Tech
 "PkgDxVintEconoFlag" = 0   $ IP Non-Tech
 "Restroom_EWSF" = 0.23   $ IP Non-Tech
 "Restroom_LWSF" = 0.6   $ IP Non-Tech
 "SEER" = 14   $ Msr (Multi)TechID: StdNResSplitAC-45to55
 "SZFanMechEff" = 0.58   $ IP Non-Tech
 "SZHasRetFan" = FALSE   $ IP Non-Tech
 "SZ_Is_2Spd" = FALSE   $ IP Non-Tech
 "SZ_SFanWPerCfm" = 0.46   $ IP Non-Tech
 "SZ_SupFanStatic" = 0.75   $ IP Non-Tech
 "Sector" = Any   $ Msr (Multi)TechID: StdNResSplitAC-45to55
 "StorageSmlCond_EWSF" = 0.23   $ IP Non-Tech
 "StorageSmlCond_LWSF" = 0.6   $ IP Non-Tech
 "SubType" = AC   $ Msr (Multi)TechID: StdNResSplitAC-45to55
 "T24GlzTbl" = CZTbl   $ IP Non-Tech
 "TermUnitFanMechEff" = 1   $ IP Non-Tech
 "TermUnitFanMode" = INTERMITTENT   $ IP Non-Tech
 "TotCoolCap" = 52519.36364   $ Msr (Multi)TechID: StdNResSplitAC-45to55
 "TwrSetpt" = 82.7   $ IP Non-Tech
 "UnocCoolT" = 86   $ IP Non-Tech
 "UnocHeatT" = 62   $ IP Non-Tech
 "UseEconoVintApplic" = FALSE   $ Msr (Multi)TechID: StdNResSplitAC-45to55
 "WlhpVintEconoFlag" = 0   $ IP Non-Tech
 "DuctDT" = 1   $ IP Tech: ComDuctInsul-1
 "DuctAirLoss" = 0   $ IP Tech: ComDuctLeak-0
 "DuctLossOAFrac" = 0   $ IP Tech: ComDuctLeak-0
 "ComRoofInsCalc" = FromUo   $ IP Tech: ComRoofIns-WFrm-0.07
 "ComRoofInsR" = -999   $ IP Tech: ComRoofIns-WFrm-0.07
 "ComRoofUo" = 0.07   $ IP Tech: ComRoofIns-WFrm-0.07
 "ComEWInsCalc" = FromUo   $ IP Tech: ComWallIns-WFrm-0.12
 "ComEWInsR" = -999   $ IP Tech: ComWallIns-WFrm-0.12
 "ComEWUo" = 0.12   $ IP Tech: ComWallIns-WFrm-0.12
 "ComN_SHGC" = 0.82   $ IP Tech: NResWin-ComN-1.23-0.82
 "ComN_UFactor" = 1.23   $ IP Tech: NResWin-ComN-1.23-0.82
 "ComN_VisTrans" = 0.9   $ IP Tech: NResWin-ComN-1.23-0.82
 "ComN_WinCode" = G1000   $ IP Tech: NResWin-ComN-1.23-0.82
 "ComN_WinFrmFrac" = 0.17   $ IP Tech: NResWin-ComN-1.23-0.82
 "ComN_WinFrmU" = 1   $ IP Tech: NResWin-ComN-1.23-0.82
 "ComO_SHGC" = 0.82   $ IP Tech: NResWin-ComO-1.23-0.82
 "ComO_UFactor" = 1.23   $ IP Tech: NResWin-ComO-1.23-0.82
 "ComO_VisTrans" = 0.9   $ IP Tech: NResWin-ComO-1.23-0.82
 "ComO_WinCode" = G1000   $ IP Tech: NResWin-ComO-1.23-0.82
 "ComO_WinFrmFrac" = 0.17   $ IP Tech: NResWin-ComO-1.23-0.82
 "ComO_WinFrmU" = 1   $ IP Tech: NResWin-ComO-1.23-0.82
 "LtgMsrApplic" = ALL   $ IP Tech: NonResLtgRefPre
 "LtgSav_CFL" = 0   $ IP Tech: NonResLtgRefPre
 "LtgSav_EX" = 0   $ IP Tech: NonResLtgRefPre
 "LtgSav_HB" = 0   $ IP Tech: NonResLtgRefPre
 "LtgSav_LF" = 0   $ IP Tech: NonResLtgRefPre
 "LtgSav_SP" = 0   $ IP Tech: NonResLtgRefPre
 "CEIR_fPLR" = PSZ65to135_CEIR_fPLR   $ IP Tech: PkgAC1SpH-65to135-E10
 "CLoss_fPLR" = PSZ65to135_CLoss_fPLR   $ IP Tech: PkgAC1SpH-65to135-E10
 "COP" = -1   $ IP Tech: PkgAC1SpH-65to135-E10
 "HtgFuel" = Gas   $ IP Tech: PkgAC1SpH-65to135-E10
 "IEER" = 11.87   $ IP Tech: PkgAC1SpH-65to135-E10
 "NominalCap" = 15   $ IP Tech: PkgAC1SpH-65to135-E10
 "RatedEER" = 10   $ IP Tech: PkgAC1SpH-65to135-E10
 "RatedSupMtrClass" = HiEff   $ IP Tech: PkgAC1SpH-65to135-E10
 "SizeRange" = 65to135   $ IP Tech: PkgAC1SpH-65to135-E10
 "SupMotEff" = 0.84   $ IP Tech: PkgAC1SpH-65to135-E10
 "Tier" = 0   $ IP Tech: PkgAC1SpH-65to135-E10
 "FanPwrMult" = 1   $ IP Tech: PkgFurn-0.80AFUE
 "FurnAFUE" = 0.8   $ IP Tech: PkgFurn-0.80AFUE
 "FurnEt" = 0.82   $ IP Tech: PkgFurn-0.80AFUE
 "FurnaceAuxKW" = 0.1   $ IP Tech: PkgFurn-0.80AFUE
 "HIR_fPLR" = Furnace-HIR-fPLR   $ IP Tech: PkgFurn-0.80AFUE
 "VSM" = FALSE   $ IP Tech: PkgFurn-0.80AFUE
 "BFMult" = 1   $ IP Tech: RefgChg-NRes-Std
 "CoolEirMult" = 1   $ IP Tech: RefgChg-NRes-Std
 "SensCoolCapMult" = 1   $ IP Tech: RefgChg-NRes-Std
 "TotCoolCapMult" = 1   $ IP Tech: RefgChg-NRes-Std
 "AltAdjFactor" = 1.012438   $ Sizing
 "CAssFlo_L_Break_CZn" = 517.7609   $ Sizing
 "CAssFlo_L_CompDC_CZn" = 172.765   $ Sizing
 "CAssFlo_L_Conf_CZn" = 302.5097   $ Sizing
 "CAssFlo_L_CopyRm_CZn" = 110.6097   $ Sizing
 "CAssFlo_L_Hall_EZn" = 181.9579   $ Sizing
 "CAssFlo_L_Hall_NZn" = 103.1596   $ Sizing
 "CAssFlo_L_Hall_SZn" = 187.4489   $ Sizing
 "CAssFlo_L_Hall_WZn" = 209.7061   $ Sizing
 "CAssFlo_L_LobWait_EZn" = 427.1641   $ Sizing
 "CAssFlo_L_LobWait_NZn" = 263.8078   $ Sizing
 "CAssFlo_L_LobWait_SZn" = 455.4688   $ Sizing
 "CAssFlo_L_LobWait_WZn" = 509.7932   $ Sizing
 "CAssFlo_L_MechElec_CZn" = 91.77235   $ Sizing
 "CAssFlo_L_OfficeOpn_CZn" = 76.69365   $ Sizing
 "CAssFlo_L_OfficeOpn_EZn" = 744.2453   $ Sizing
 "CAssFlo_L_OfficeOpn_NZn" = 491.7448   $ Sizing
 "CAssFlo_L_OfficeOpn_SZn" = 752.3506   $ Sizing
 "CAssFlo_L_OfficeOpn_WZn" = 844.9352   $ Sizing
 "CAssFlo_L_OfficeSm_EZn" = 643.528   $ Sizing
 "CAssFlo_L_OfficeSm_NZn" = 395.586   $ Sizing
 "CAssFlo_L_OfficeSm_SZn" = 660.7324   $ Sizing
 "CAssFlo_L_OfficeSm_WZn" = 736.0463   $ Sizing
 "CAssFlo_L_Restrm_CZn" = 99.54071   $ Sizing
 "CAssFlo_L_StorSm_CZn" = 40.92824   $ Sizing
 "CAssFlo_L_StorSm_EZn" = 178.9135   $ Sizing
 "CAssFlo_L_StorSm_NZn" = 105.9526   $ Sizing
 "CAssFlo_L_StorSm_SZn" = 184.7581   $ Sizing
 "CAssFlo_L_StorSm_WZn" = 200.3087   $ Sizing
 "CAssFlo_T_Conf_CZn" = 290.6525   $ Sizing
 "CAssFlo_T_Hall_EZn" = 207.5222   $ Sizing
 "CAssFlo_T_Hall_NZn" = 113.9332   $ Sizing
 "CAssFlo_T_Hall_SZn" = 217.0139   $ Sizing
 "CAssFlo_T_Hall_WZn" = 238.1437   $ Sizing
 "CAssFlo_T_OfficeOpn_CZn" = 70.14632   $ Sizing
 "CAssFlo_T_OfficeOpn_EZn" = 808.7047   $ Sizing
 "CAssFlo_T_OfficeOpn_NZn" = 526.1453   $ Sizing
 "CAssFlo_T_OfficeOpn_SZn" = 836.108   $ Sizing
 "CAssFlo_T_OfficeOpn_WZn" = 896.9395   $ Sizing
 "CAssFlo_T_OfficeSm_EZn" = 700.944   $ Sizing
 "CAssFlo_T_OfficeSm_NZn" = 426.3433   $ Sizing
 "CAssFlo_T_OfficeSm_SZn" = 729.7043   $ Sizing
 "CAssFlo_T_OfficeSm_WZn" = 796.0714   $ Sizing
 "CAssFlo_T_Restrm_CZn" = 136.949   $ Sizing
 "CAssFlo_T_StorSm_EZn" = 210.9039   $ Sizing
 "CAssFlo_T_StorSm_NZn" = 124.8543   $ Sizing
 "CAssFlo_T_StorSm_SZn" = 220.7223   $ Sizing
 "CAssFlo_T_StorSm_WZn" = 244.6289   $ Sizing
 "CHRtFlo_Sys_L_Break_C" = 517.7609   $ Sizing
 "CHRtFlo_Sys_L_CompDC_C" = 190.8588   $ Sizing
 "CHRtFlo_Sys_L_Conf_C" = 302.5097   $ Sizing
 "CHRtFlo_Sys_L_CopyRm_C" = 110.6097   $ Sizing
 "CHRtFlo_Sys_L_Hall_E" = 215.9335   $ Sizing
 "CHRtFlo_Sys_L_Hall_N" = 103.1596   $ Sizing
 "CHRtFlo_Sys_L_Hall_S" = 223.0832   $ Sizing
 "CHRtFlo_Sys_L_Hall_W" = 230.7932   $ Sizing
 "CHRtFlo_Sys_L_LobWait_E" = 492.733   $ Sizing
 "CHRtFlo_Sys_L_LobWait_N" = 263.8078   $ Sizing
 "CHRtFlo_Sys_L_LobWait_S" = 511.7711   $ Sizing
 "CHRtFlo_Sys_L_LobWait_W" = 529.4231   $ Sizing
 "CHRtFlo_Sys_L_MechElec_C" = 120.6297   $ Sizing
 "CHRtFlo_Sys_L_OfficeOpn_C" = 91.95241   $ Sizing
 "CHRtFlo_Sys_L_OfficeOpn_E" = 880.8829   $ Sizing
 "CHRtFlo_Sys_L_OfficeOpn_N" = 491.7448   $ Sizing
 "CHRtFlo_Sys_L_OfficeOpn_S" = 871.677   $ Sizing
 "CHRtFlo_Sys_L_OfficeOpn_W" = 884.4999   $ Sizing
 "CHRtFlo_Sys_L_OfficeSm_E" = 774.8529   $ Sizing
 "CHRtFlo_Sys_L_OfficeSm_N" = 395.586   $ Sizing
 "CHRtFlo_Sys_L_OfficeSm_S" = 781.3813   $ Sizing
 "CHRtFlo_Sys_L_OfficeSm_W" = 798.6276   $ Sizing
 "CHRtFlo_Sys_L_Restrm_C" = 114.8898   $ Sizing
 "CHRtFlo_Sys_L_StorSm_C" = 47.63881   $ Sizing
 "CHRtFlo_Sys_L_StorSm_E" = 211.2174   $ Sizing
 "CHRtFlo_Sys_L_StorSm_N" = 105.9526   $ Sizing
 "CHRtFlo_Sys_L_StorSm_S" = 214.5928   $ Sizing
 "CHRtFlo_Sys_L_StorSm_W" = 211.8029   $ Sizing
 "CHRtFlo_Sys_T_Conf_C" = 290.6525   $ Sizing
 "CHRtFlo_Sys_T_Hall_E" = 227.9074   $ Sizing
 "CHRtFlo_Sys_T_Hall_N" = 113.9332   $ Sizing
 "CHRtFlo_Sys_T_Hall_S" = 245.3561   $ Sizing
 "CHRtFlo_Sys_T_Hall_W" = 241.8262   $ Sizing
 "CHRtFlo_Sys_T_OfficeOpn_C" = 77.60548   $ Sizing
 "CHRtFlo_Sys_T_OfficeOpn_E" = 864.4171   $ Sizing
 "CHRtFlo_Sys_T_OfficeOpn_N" = 526.1453   $ Sizing
 "CHRtFlo_Sys_T_OfficeOpn_S" = 904.1881   $ Sizing
 "CHRtFlo_Sys_T_OfficeOpn_W" = 896.9395   $ Sizing
 "CHRtFlo_Sys_T_OfficeSm_E" = 767.5836   $ Sizing
 "CHRtFlo_Sys_T_OfficeSm_N" = 426.3433   $ Sizing
 "CHRtFlo_Sys_T_OfficeSm_S" = 815.5829   $ Sizing
 "CHRtFlo_Sys_T_OfficeSm_W" = 806.0875   $ Sizing
 "CHRtFlo_Sys_T_Restrm_C" = 151.8395   $ Sizing
 "CHRtFlo_Sys_T_StorSm_E" = 221.9441   $ Sizing
 "CHRtFlo_Sys_T_StorSm_N" = 124.8543   $ Sizing
 "CHRtFlo_Sys_T_StorSm_S" = 236.537   $ Sizing
 "CHRtFlo_Sys_T_StorSm_W" = 244.6289   $ Sizing
 "CRtdFlo_Sys_L_Break_C" = 517.7609   $ Sizing
 "CRtdFlo_Sys_L_CompDC_C" = 172.765   $ Sizing
 "CRtdFlo_Sys_L_Conf_C" = 302.5097   $ Sizing
 "CRtdFlo_Sys_L_CopyRm_C" = 110.6097   $ Sizing
 "CRtdFlo_Sys_L_Hall_E" = 181.9579   $ Sizing
 "CRtdFlo_Sys_L_Hall_N" = 103.1596   $ Sizing
 "CRtdFlo_Sys_L_Hall_S" = 187.4489   $ Sizing
 "CRtdFlo_Sys_L_Hall_W" = 209.7061   $ Sizing
 "CRtdFlo_Sys_L_LobWait_E" = 427.1641   $ Sizing
 "CRtdFlo_Sys_L_LobWait_N" = 263.8078   $ Sizing
 "CRtdFlo_Sys_L_LobWait_S" = 455.4688   $ Sizing
 "CRtdFlo_Sys_L_LobWait_W" = 509.7932   $ Sizing
 "CRtdFlo_Sys_L_MechElec_C" = 91.77235   $ Sizing
 "CRtdFlo_Sys_L_OfficeOpn_C" = 76.69365   $ Sizing
 "CRtdFlo_Sys_L_OfficeOpn_E" = 744.2453   $ Sizing
 "CRtdFlo_Sys_L_OfficeOpn_N" = 491.7448   $ Sizing
 "CRtdFlo_Sys_L_OfficeOpn_S" = 752.3506   $ Sizing
 "CRtdFlo_Sys_L_OfficeOpn_W" = 844.9352   $ Sizing
 "CRtdFlo_Sys_L_OfficeSm_E" = 643.528   $ Sizing
 "CRtdFlo_Sys_L_OfficeSm_N" = 395.586   $ Sizing
 "CRtdFlo_Sys_L_OfficeSm_S" = 660.7324   $ Sizing
 "CRtdFlo_Sys_L_OfficeSm_W" = 736.0463   $ Sizing
 "CRtdFlo_Sys_L_Restrm_C" = 99.54071   $ Sizing
 "CRtdFlo_Sys_L_StorSm_C" = 40.92824   $ Sizing
 "CRtdFlo_Sys_L_StorSm_E" = 178.9135   $ Sizing
 "CRtdFlo_Sys_L_StorSm_N" = 105.9526   $ Sizing
 "CRtdFlo_Sys_L_StorSm_S" = 184.7581   $ Sizing
 "CRtdFlo_Sys_L_StorSm_W" = 200.3087   $ Sizing
 "CRtdFlo_Sys_T_Conf_C" = 290.6525   $ Sizing
 "CRtdFlo_Sys_T_Hall_E" = 207.5222   $ Sizing
 "CRtdFlo_Sys_T_Hall_N" = 113.9332   $ Sizing
 "CRtdFlo_Sys_T_Hall_S" = 217.0139   $ Sizing
 "CRtdFlo_Sys_T_Hall_W" = 238.1437   $ Sizing
 "CRtdFlo_Sys_T_OfficeOpn_C" = 70.14632   $ Sizing
 "CRtdFlo_Sys_T_OfficeOpn_E" = 808.7047   $ Sizing
 "CRtdFlo_Sys_T_OfficeOpn_N" = 526.1453   $ Sizing
 "CRtdFlo_Sys_T_OfficeOpn_S" = 836.108   $ Sizing
 "CRtdFlo_Sys_T_OfficeOpn_W" = 896.9395   $ Sizing
 "CRtdFlo_Sys_T_OfficeSm_E" = 700.944   $ Sizing
 "CRtdFlo_Sys_T_OfficeSm_N" = 426.3433   $ Sizing
 "CRtdFlo_Sys_T_OfficeSm_S" = 729.7043   $ Sizing
 "CRtdFlo_Sys_T_OfficeSm_W" = 796.0714   $ Sizing
 "CRtdFlo_Sys_T_Restrm_C" = 136.949   $ Sizing
 "CRtdFlo_Sys_T_StorSm_E" = 210.9039   $ Sizing
 "CRtdFlo_Sys_T_StorSm_N" = 124.8543   $ Sizing
 "CRtdFlo_Sys_T_StorSm_S" = 220.7223   $ Sizing
 "CRtdFlo_Sys_T_StorSm_W" = 244.6289   $ Sizing
 "CSupFlo_Sys_L_Break_C" = 517.7609   $ Sizing
 "CSupFlo_Sys_L_CompDC_C" = 172.765   $ Sizing
 "CSupFlo_Sys_L_Conf_C" = 302.5097   $ Sizing
 "CSupFlo_Sys_L_CopyRm_C" = 110.6097   $ Sizing
 "CSupFlo_Sys_L_Hall_E" = 181.9579   $ Sizing
 "CSupFlo_Sys_L_Hall_N" = 103.1596   $ Sizing
 "CSupFlo_Sys_L_Hall_S" = 187.4489   $ Sizing
 "CSupFlo_Sys_L_Hall_W" = 209.7061   $ Sizing
 "CSupFlo_Sys_L_LobWait_E" = 427.1641   $ Sizing
 "CSupFlo_Sys_L_LobWait_N" = 263.8078   $ Sizing
 "CSupFlo_Sys_L_LobWait_S" = 455.4688   $ Sizing
 "CSupFlo_Sys_L_LobWait_W" = 509.7932   $ Sizing
 "CSupFlo_Sys_L_MechElec_C" = 91.77235   $ Sizing
 "CSupFlo_Sys_L_OfficeOpn_C" = 76.69365   $ Sizing
 "CSupFlo_Sys_L_OfficeOpn_E" = 744.2453   $ Sizing
 "CSupFlo_Sys_L_OfficeOpn_N" = 491.7448   $ Sizing
 "CSupFlo_Sys_L_OfficeOpn_S" = 752.3506   $ Sizing
 "CSupFlo_Sys_L_OfficeOpn_W" = 844.9352   $ Sizing
 "CSupFlo_Sys_L_OfficeSm_E" = 643.528   $ Sizing
 "CSupFlo_Sys_L_OfficeSm_N" = 395.586   $ Sizing
 "CSupFlo_Sys_L_OfficeSm_S" = 660.7324   $ Sizing
 "CSupFlo_Sys_L_OfficeSm_W" = 736.0463   $ Sizing
 "CSupFlo_Sys_L_Restrm_C" = 99.54071   $ Sizing
 "CSupFlo_Sys_L_StorSm_C" = 40.92824   $ Sizing
 "CSupFlo_Sys_L_StorSm_E" = 178.9135   $ Sizing
 "CSupFlo_Sys_L_StorSm_N" = 105.9526   $ Sizing
 "CSupFlo_Sys_L_StorSm_S" = 184.7581   $ Sizing
 "CSupFlo_Sys_L_StorSm_W" = 200.3087   $ Sizing
 "CSupFlo_Sys_T_Conf_C" = 290.6525   $ Sizing
 "CSupFlo_Sys_T_Hall_E" = 207.5222   $ Sizing
 "CSupFlo_Sys_T_Hall_N" = 113.9332   $ Sizing
 "CSupFlo_Sys_T_Hall_S" = 217.0139   $ Sizing
 "CSupFlo_Sys_T_Hall_W" = 238.1437   $ Sizing
 "CSupFlo_Sys_T_OfficeOpn_C" = 70.14632   $ Sizing
 "CSupFlo_Sys_T_OfficeOpn_E" = 808.7047   $ Sizing
 "CSupFlo_Sys_T_OfficeOpn_N" = 526.1453   $ Sizing
 "CSupFlo_Sys_T_OfficeOpn_S" = 836.108   $ Sizing
 "CSupFlo_Sys_T_OfficeOpn_W" = 896.9395   $ Sizing
 "CSupFlo_Sys_T_OfficeSm_E" = 700.944   $ Sizing
 "CSupFlo_Sys_T_OfficeSm_N" = 426.3433   $ Sizing
 "CSupFlo_Sys_T_OfficeSm_S" = 729.7043   $ Sizing
 "CSupFlo_Sys_T_OfficeSm_W" = 796.0714   $ Sizing
 "CSupFlo_Sys_T_Restrm_C" = 136.949   $ Sizing
 "CSupFlo_Sys_T_StorSm_E" = 210.9039   $ Sizing
 "CSupFlo_Sys_T_StorSm_N" = 124.8543   $ Sizing
 "CSupFlo_Sys_T_StorSm_S" = 220.7223   $ Sizing
 "CSupFlo_Sys_T_StorSm_W" = 244.6289   $ Sizing
 "ClCap_Sys_L_Break_C" = 17533.71   $ Sizing
 "ClCap_Sys_L_CompDC_C" = 5850.601   $ Sizing
 "ClCap_Sys_L_Conf_C" = 13038.25   $ Sizing
 "ClCap_Sys_L_CopyRm_C" = 3745.741   $ Sizing
 "ClCap_Sys_L_Hall_E" = 6161.914   $ Sizing
 "ClCap_Sys_L_Hall_N" = 3493.448   $ Sizing
 "ClCap_Sys_L_Hall_S" = 6347.864   $ Sizing
 "ClCap_Sys_L_Hall_W" = 7101.593   $ Sizing
 "ClCap_Sys_L_LobWait_E" = 14465.7   $ Sizing
 "ClCap_Sys_L_LobWait_N" = 8933.721   $ Sizing
 "ClCap_Sys_L_LobWait_S" = 15424.22   $ Sizing
 "ClCap_Sys_L_LobWait_W" = 17263.89   $ Sizing
 "ClCap_Sys_L_MechElec_C" = 3107.825   $ Sizing
 "ClCap_Sys_L_OfficeOpn_C" = 2597.192   $ Sizing
 "ClCap_Sys_L_OfficeOpn_E" = 25203.5   $ Sizing
 "ClCap_Sys_L_OfficeOpn_N" = 16652.69   $ Sizing
 "ClCap_Sys_L_OfficeOpn_S" = 25477.98   $ Sizing
 "ClCap_Sys_L_OfficeOpn_W" = 28613.31   $ Sizing
 "ClCap_Sys_L_OfficeSm_E" = 21792.76   $ Sizing
 "ClCap_Sys_L_OfficeSm_N" = 13396.32   $ Sizing
 "ClCap_Sys_L_OfficeSm_S" = 22375.37   $ Sizing
 "ClCap_Sys_L_OfficeSm_W" = 24925.84   $ Sizing
 "ClCap_Sys_L_Restrm_C" = 3370.896   $ Sizing
 "ClCap_Sys_L_StorSm_C" = 1386.015   $ Sizing
 "ClCap_Sys_L_StorSm_E" = 6058.815   $ Sizing
 "ClCap_Sys_L_StorSm_N" = 3588.032   $ Sizing
 "ClCap_Sys_L_StorSm_S" = 6256.743   $ Sizing
 "ClCap_Sys_L_StorSm_W" = 6783.355   $ Sizing
 "ClCap_Sys_T_Conf_C" = 12527.2   $ Sizing
 "ClCap_Sys_T_Hall_E" = 7027.635   $ Sizing
 "ClCap_Sys_T_Hall_N" = 3858.292   $ Sizing
 "ClCap_Sys_T_Hall_S" = 7349.067   $ Sizing
 "ClCap_Sys_T_Hall_W" = 8064.617   $ Sizing
 "ClCap_Sys_T_OfficeOpn_C" = 2375.47   $ Sizing
 "ClCap_Sys_T_OfficeOpn_E" = 27386.38   $ Sizing
 "ClCap_Sys_T_OfficeOpn_N" = 17817.65   $ Sizing
 "ClCap_Sys_T_OfficeOpn_S" = 28314.38   $ Sizing
 "ClCap_Sys_T_OfficeOpn_W" = 30374.41   $ Sizing
 "ClCap_Sys_T_OfficeSm_E" = 23737.12   $ Sizing
 "ClCap_Sys_T_OfficeSm_N" = 14437.9   $ Sizing
 "ClCap_Sys_T_OfficeSm_S" = 24711.07   $ Sizing
 "ClCap_Sys_T_OfficeSm_W" = 26958.56   $ Sizing
 "ClCap_Sys_T_Restrm_C" = 4637.71   $ Sizing
 "ClCap_Sys_T_StorSm_E" = 7142.154   $ Sizing
 "ClCap_Sys_T_StorSm_N" = 4228.129   $ Sizing
 "ClCap_Sys_T_StorSm_S" = 7474.65   $ Sizing
 "ClCap_Sys_T_StorSm_W" = 8284.235   $ Sizing
 "HtCap_Sys_L_Break_C" = -28679.36   $ Sizing
 "HtCap_Sys_L_CompDC_C" = -6566.076   $ Sizing
 "HtCap_Sys_L_Conf_C" = -17177.21   $ Sizing
 "HtCap_Sys_L_CopyRm_C" = -5950.342   $ Sizing
 "HtCap_Sys_L_Hall_E" = -7510.88   $ Sizing
 "HtCap_Sys_L_Hall_N" = -3726.557   $ Sizing
 "HtCap_Sys_L_Hall_S" = -7587.349   $ Sizing
 "HtCap_Sys_L_Hall_W" = -7564.961   $ Sizing
 "HtCap_Sys_L_LobWait_E" = -16951.08   $ Sizing
 "HtCap_Sys_L_LobWait_N" = -10531.21   $ Sizing
 "HtCap_Sys_L_LobWait_S" = -17523.68   $ Sizing
 "HtCap_Sys_L_LobWait_W" = -18120.34   $ Sizing
 "HtCap_Sys_L_MechElec_C" = -4580.009   $ Sizing
 "HtCap_Sys_L_OfficeOpn_C" = -3412.324   $ Sizing
 "HtCap_Sys_L_OfficeOpn_E" = -30030.96   $ Sizing
 "HtCap_Sys_L_OfficeOpn_N" = -18750.13   $ Sizing
 "HtCap_Sys_L_OfficeOpn_S" = -28853.96   $ Sizing
 "HtCap_Sys_L_OfficeOpn_W" = -29901.36   $ Sizing
 "HtCap_Sys_L_OfficeSm_E" = -26482.18   $ Sizing
 "HtCap_Sys_L_OfficeSm_N" = -14656.68   $ Sizing
 "HtCap_Sys_L_OfficeSm_S" = -25736.15   $ Sizing
 "HtCap_Sys_L_OfficeSm_W" = -27159.4   $ Sizing
 "HtCap_Sys_L_Restrm_C" = -3953.066   $ Sizing
 "HtCap_Sys_L_StorSm_C" = -1858.051   $ Sizing
 "HtCap_Sys_L_StorSm_E" = -7284.856   $ Sizing
 "HtCap_Sys_L_StorSm_N" = -4203.873   $ Sizing
 "HtCap_Sys_L_StorSm_S" = -7219.675   $ Sizing
 "HtCap_Sys_L_StorSm_W" = -7287.368   $ Sizing
 "HtCap_Sys_T_Conf_C" = -17250.22   $ Sizing
 "HtCap_Sys_T_Hall_E" = -8516.114   $ Sizing
 "HtCap_Sys_T_Hall_N" = -4666.49   $ Sizing
 "HtCap_Sys_T_Hall_S" = -8830.596   $ Sizing
 "HtCap_Sys_T_Hall_W" = -8741.273   $ Sizing
 "HtCap_Sys_T_OfficeOpn_C" = -3278.36   $ Sizing
 "HtCap_Sys_T_OfficeOpn_E" = -32630.85   $ Sizing
 "HtCap_Sys_T_OfficeOpn_N" = -22251.85   $ Sizing
 "HtCap_Sys_T_OfficeOpn_S" = -33408.19   $ Sizing
 "HtCap_Sys_T_OfficeOpn_W" = -33768.86   $ Sizing
 "HtCap_Sys_T_OfficeSm_E" = -28563.11   $ Sizing
 "HtCap_Sys_T_OfficeSm_N" = -17552.37   $ Sizing
 "HtCap_Sys_T_OfficeSm_S" = -29588.5   $ Sizing
 "HtCap_Sys_T_OfficeSm_W" = -29319.08   $ Sizing
 "HtCap_Sys_T_Restrm_C" = -5785.384   $ Sizing
 "HtCap_Sys_T_StorSm_E" = -8610.998   $ Sizing
 "HtCap_Sys_T_StorSm_N" = -5716.992   $ Sizing
 "HtCap_Sys_T_StorSm_S" = -8724.484   $ Sizing
 "HtCap_Sys_T_StorSm_W" = -9393.418   $ Sizing
..

##include Templates\OfS_DX_SZ.inp
END ..
COMPUTE ..
STOP ..
