INPUT ..

##fileprefix C:\Users\jglasskatz\MASControl3\
##set1 IsSizing FALSE
##set1 CoolType DX
##set1 HeatType FURNACE
##set1 EU_HrRepVar 0
##set1 BldgVint 2011
##set1 BldgLoc CZ11

 ##set1 mBFMult 1   $ IP Tech: RefgChg-NRes-Std

PARAMETER
 "AltFactor" = 1.01292   $ IP Non-Tech
 "BF_fFlow" = SpltAC1Sp_BF_fFlow   $ Msr (Var)TechID: PreNResSplitAC-lt45-PENo
 "BF_fT" = SpltAC1Sp_BF_fT   $ Msr (Var)TechID: PreNResSplitAC-lt45-PENo
 "BldgEconoFlag" = 1   $ IP Non-Tech
 "Break_EWSF" = 1   $ IP Non-Tech
 "Break_LWSF" = 1.1   $ IP Non-Tech
 "CDD_DBHi10" = 85   $ IP Non-Tech
 "CDD_DBHi7" = 106   $ IP Non-Tech
 "CDD_DBHi8" = 106   $ IP Non-Tech
 "CDD_DBHi9" = 99   $ IP Non-Tech
 "CDD_DBRange10" = 23   $ IP Non-Tech
 "CDD_DBRange7" = 30   $ IP Non-Tech
 "CDD_DBRange8" = 33   $ IP Non-Tech
 "CDD_DBRange9" = 33   $ IP Non-Tech
 "CDD_Day10" = 15   $ IP Non-Tech
 "CDD_Day7" = 16   $ IP Non-Tech
 "CDD_Day8" = 20   $ IP Non-Tech
 "CDD_Day9" = 17   $ IP Non-Tech
 "CDD_HrHi10" = 16   $ IP Non-Tech
 "CDD_HrHi7" = 16   $ IP Non-Tech
 "CDD_HrHi8" = 16   $ IP Non-Tech
 "CDD_HrHi9" = 16   $ IP Non-Tech
 "CDD_HrLo10" = 6   $ IP Non-Tech
 "CDD_HrLo7" = 7   $ IP Non-Tech
 "CDD_HrLo8" = 7   $ IP Non-Tech
 "CDD_HrLo9" = 7   $ IP Non-Tech
 "CDD_WB10" = 59.3704567   $ IP Non-Tech
 "CDD_WB7" = 72.37876129   $ IP Non-Tech
 "CDD_WB8" = 69.41531372   $ IP Non-Tech
 "CDD_WB9" = 65.60124207   $ IP Non-Tech
 "CEIR_fPLR_Hot" = SpltAC1Sp_CEIR_fPLR_Hot   $ Msr (Var)TechID: PreNResSplitAC-lt45-PENo
 "CEIR_fPLR_Mod" = SpltAC1Sp_CEIR_fPLR_Mod   $ Msr (Var)TechID: PreNResSplitAC-lt45-PENo
 "CEIR_fPLR_Tem" = SpltAC1Sp_CEIR_fPLR_Tem   $ Msr (Var)TechID: PreNResSplitAC-lt45-PENo
 "CLoss_fPLR_Hot" = SpltAC1Sp_CLoss_fPLR_Hot   $ Msr (Var)TechID: PreNResSplitAC-lt45-PENo
 "CLoss_fPLR_Mod" = SpltAC1Sp_CLoss_fPLR_Mod   $ Msr (Var)TechID: PreNResSplitAC-lt45-PENo
 "CLoss_fPLR_Tem" = SpltAC1Sp_CLoss_fPLR_Tem   $ Msr (Var)TechID: PreNResSplitAC-lt45-PENo
 "COP47" = 0   $ Msr (Var)TechID: PreNResSplitAC-lt45-PENo
 "CZ_Category" = Hot   $ IP Non-Tech
 "CapRange" = Any   $ Msr (Var)TechID: PreNResSplitAC-lt45-PENo
 "CfmPerBtuh" = 0.0321   $ Msr (Var)TechID: PreNResSplitAC-lt45-PENo
 "ChwVintEconoFlag" = 1   $ IP Non-Tech
 "ClCap_fT" = SpltAC1Sp_ClCap_fT   $ Msr (Var)TechID: PreNResSplitAC-lt45-PENo
 "ClSH_fT" = SpltAC1Sp_ClSH_fT   $ Msr (Var)TechID: PreNResSplitAC-lt45-PENo
 "CoilBF" = 0.12   $ Msr (Var)TechID: PreNResSplitAC-lt45-PENo
 "CompRoomData_EWSF" = 5   $ IP Non-Tech
 "CompRoomData_LWSF" = 1.1   $ IP Non-Tech
 "CondWPerBtuh" = 0   $ Msr (Var)TechID: PreNResSplitAC-lt45-PENo
 "Conference_EWSF" = 1   $ IP Non-Tech
 "Conference_LWSF" = 1.4   $ IP Non-Tech
 "CoolSensCap" = 0.744   $ Msr (Var)TechID: PreNResSplitAC-lt45-PENo
 "CoolSetT" = 45   $ IP Non-Tech
 "CoolType" = DX   $ IP Non-Tech
 "CoolingEIR" = 0.25823   $ Msr (Var)TechID: PreNResSplitAC-lt45-PENo
 "CopyRoom_EWSF" = 1.5   $ IP Non-Tech
 "CopyRoom_LWSF" = 1.3   $ IP Non-Tech
 "CrnkEIR" = 0.0025823   $ Msr (Var)TechID: PreNResSplitAC-lt45-PENo
 "CrnkMaxT" = 50   $ Msr (Var)TechID: PreNResSplitAC-lt45-PENo
 "DXType" = SplitSEER   $ Msr (Var)TechID: PreNResSplitAC-lt45-PENo
 "DesCoolT" = 75   $ IP Non-Tech
 "DesHeatT" = 73   $ IP Non-Tech
 "EER" = 11.07746479   $ Msr (Var)TechID: PreNResSplitAC-lt45-PENo
 "EIR_fT" = SpltAC1Sp_EIR_fT   $ Msr (Var)TechID: PreNResSplitAC-lt45-PENo
 "EconoCtrl" = FIXED   $ Msr (Multi)TechID: PreNResSplitAC-lt45-PENo
 "EconoEnthLimit" = 28   $ IP Non-Tech
 "EconoTempLimit" = 75   $ IP Non-Tech
 "Elevation" = 348   $ IP Non-Tech
 "FanEirPlr" = TwoSpeedFan   $ Msr (Var)TechID: PreNResSplitAC-lt45-PENo
 "FanWPerCfm" = 0.348   $ Msr (Var)TechID: PreNResSplitAC-lt45-PENo
 "HDD_CloudAmt1" = 0   $ IP Non-Tech
 "HDD_DBHi1" = 46   $ IP Non-Tech
 "HDD_DBRange1" = 14   $ IP Non-Tech
 "HDD_Day1" = 15   $ IP Non-Tech
 "HDD_HrHi1" = 16   $ IP Non-Tech
 "HDD_HrLo1" = 7   $ IP Non-Tech
 "HDD_WB1" = 39.9   $ IP Non-Tech
 "HDD_WindSpd1" = 19.6   $ IP Non-Tech
 "HIR_fT" = 0   $ Msr (Var)TechID: PreNResSplitAC-lt45-PENo
 "HSPF" = 0   $ Msr (Var)TechID: PreNResSplitAC-lt45-PENo
 "Hall_EWSF" = 0.2   $ IP Non-Tech
 "Hall_LWSF" = 0.6   $ IP Non-Tech
 "HeatSrc" = FURNACE   $ IP Non-Tech
 "HeatSrcTU" = HEAT-PUMP   $ IP Non-Tech
 "HeatType" = GasFurn   $ IP Non-Tech
 "HeatTypeTU" = HEAT-PUMP   $ IP Non-Tech
 "HtCap_fT" = 0   $ Msr (Var)TechID: PreNResSplitAC-lt45-PENo
 "HtCoolCapRatio" = 0   $ Msr (Var)TechID: PreNResSplitAC-lt45-PENo
 "HtgEIR" = 0   $ Msr (Var)TechID: PreNResSplitAC-lt45-PENo
 "IndoorFanMode" = CONTINUOUS   $ IP Non-Tech
 "KT_TransferAir" = No   $ IP Non-Tech
 "Latitude" = 40.2   $ IP Non-Tech
 "LobbyWaiting_EWSF" = 0.5   $ IP Non-Tech
 "LobbyWaiting_LWSF" = 1.3   $ IP Non-Tech
 "Longitude" = 122.3   $ IP Non-Tech
 "LowSpdCapRatio" = 1   $ Msr (Var)TechID: PreNResSplitAC-lt45-PENo
 "LowSpdCfmRatio" = 1   $ Msr (Var)TechID: PreNResSplitAC-lt45-PENo
 "MZFanMechEff" = 0.58   $ IP Non-Tech
 "MZHasRetFan" = FALSE   $ IP Non-Tech
 "MZ_RFanWPerCfm" = 0.33   $ IP Non-Tech
 "MZ_SFanWPerCfm" = 0.75   $ IP Non-Tech
 "MZ_SupFanStatic" = 2.25   $ IP Non-Tech
 "MaxOAFrac" = 1   $ Msr (Multi)TechID: PreNResSplitAC-lt45-PENo
 "MaxSupT_MZ" = 100   $ IP Non-Tech
 "MaxSupT_SZ" = 100   $ IP Non-Tech
 "MaxSupT_TU" = 90   $ IP Non-Tech
 "MechElecRoom_EWSF" = 0.2   $ IP Non-Tech
 "MechElecRoom_LWSF" = 0.7   $ IP Non-Tech
 "MinCfmPerSF" = 0.4   $ IP Non-Tech
 "MinSupT" = 55   $ IP Non-Tech
 "NumStages" = 1   $ Msr (Var)TechID: PreNResSplitAC-lt45-PENo
 "OccCoolT" = 76   $ IP Non-Tech
 "OccHeatT" = 72   $ IP Non-Tech
 "OfficeOpen_EWSF" = 1.5   $ IP Non-Tech
 "OfficeOpen_LWSF" = 1.1   $ IP Non-Tech
 "OfficeSmall_EWSF" = 1.5   $ IP Non-Tech
 "OfficeSmall_LWSF" = 1.3   $ IP Non-Tech
 "PkgDxVintEconoFlag" = 0   $ IP Non-Tech
 "Restroom_EWSF" = 0.2   $ IP Non-Tech
 "Restroom_LWSF" = 0.6   $ IP Non-Tech
 "SEER" = 13   $ Msr (Var)TechID: PreNResSplitAC-lt45-PENo
 "SZFanMechEff" = 0.58   $ IP Non-Tech
 "SZHasRetFan" = FALSE   $ IP Non-Tech
 "SZ_Is_2Spd" = FALSE   $ IP Non-Tech
 "SZ_SFanWPerCfm" = 0.46   $ IP Non-Tech
 "SZ_SupFanStatic" = 0.75   $ IP Non-Tech
 "Sector" = Any   $ Msr (Var)TechID: PreNResSplitAC-lt45-PENo
 "StorageSmlCond_EWSF" = 0.2   $ IP Non-Tech
 "StorageSmlCond_LWSF" = 0.6   $ IP Non-Tech
 "SubType" = AC   $ Msr (Var)TechID: PreNResSplitAC-lt45-PENo
 "T24GlzTbl" = CZTbl   $ IP Non-Tech
 "TermUnitFanMechEff" = 1   $ IP Non-Tech
 "TermUnitFanMode" = INTERMITTENT   $ IP Non-Tech
 "TotCoolCap" = 34895   $ Msr (Var)TechID: PreNResSplitAC-lt45-PENo
 "TwrSetpt" = 85.8   $ IP Non-Tech
 "UnocCoolT" = 86   $ IP Non-Tech
 "UnocHeatT" = 62   $ IP Non-Tech
 "UseEconoVintApplic" = FALSE   $ Msr (Multi)TechID: PreNResSplitAC-lt45-PENo
 "WlhpVintEconoFlag" = 0   $ IP Non-Tech
 "DuctDT" = 1   $ IP Tech: ComDuctInsul-1
 "DuctAirLoss" = 0   $ IP Tech: ComDuctLeak-0
 "DuctLossOAFrac" = 0   $ IP Tech: ComDuctLeak-0
 "ComRoofInsCalc" = FromUo   $ IP Tech: ComRoofIns-WFrm-0.04
 "ComRoofInsR" = -999   $ IP Tech: ComRoofIns-WFrm-0.04
 "ComRoofUo" = 0.04   $ IP Tech: ComRoofIns-WFrm-0.04
 "ComEWInsCalc" = FromUo   $ IP Tech: ComWallIns-WFrm-0.06
 "ComEWInsR" = -999   $ IP Tech: ComWallIns-WFrm-0.06
 "ComEWUo" = 0.06   $ IP Tech: ComWallIns-WFrm-0.06
 "ComN_SHGC" = 0.47   $ IP Tech: NResWin-ComN-0.47-0.47
 "ComN_UFactor" = 0.47   $ IP Tech: NResWin-ComN-0.47-0.47
 "ComN_VisTrans" = 0.75   $ IP Tech: NResWin-ComN-0.47-0.47
 "ComN_WinCode" = G2633   $ IP Tech: NResWin-ComN-0.47-0.47
 "ComN_WinFrmFrac" = 0.17   $ IP Tech: NResWin-ComN-0.47-0.47
 "ComN_WinFrmU" = 0.3   $ IP Tech: NResWin-ComN-0.47-0.47
 "ComO_SHGC" = 0.31   $ IP Tech: NResWin-ComO-0.47-0.31
 "ComO_UFactor" = 0.47   $ IP Tech: NResWin-ComO-0.47-0.31
 "ComO_VisTrans" = 0.44   $ IP Tech: NResWin-ComO-0.47-0.31
 "ComO_WinCode" = G2637   $ IP Tech: NResWin-ComO-0.47-0.31
 "ComO_WinFrmFrac" = 0.17   $ IP Tech: NResWin-ComO-0.47-0.31
 "ComO_WinFrmU" = 0.3   $ IP Tech: NResWin-ComO-0.47-0.31
 "LtgMsrApplic" = ALL   $ IP Tech: NonResLtgRefPre
 "LtgSav_CFL" = 0   $ IP Tech: NonResLtgRefPre
 "LtgSav_EX" = 0   $ IP Tech: NonResLtgRefPre
 "LtgSav_HB" = 0   $ IP Tech: NonResLtgRefPre
 "LtgSav_LF" = 0   $ IP Tech: NonResLtgRefPre
 "LtgSav_SP" = 0   $ IP Tech: NonResLtgRefPre
 "CEIR_fPLR" = PSZ65to135_CEIR_fPLR   $ IP Tech: PkgAC1SpH-65to135-E11
 "CLoss_fPLR" = PSZ65to135_CLoss_fPLR   $ IP Tech: PkgAC1SpH-65to135-E11
 "COP" = -1   $ IP Tech: PkgAC1SpH-65to135-E11
 "HtgFuel" = Gas   $ IP Tech: PkgAC1SpH-65to135-E11
 "IEER" = 13.35   $ IP Tech: PkgAC1SpH-65to135-E11
 "NominalCap" = 15   $ IP Tech: PkgAC1SpH-65to135-E11
 "RatedEER" = 11   $ IP Tech: PkgAC1SpH-65to135-E11
 "RatedSupMtrClass" = HiEff   $ IP Tech: PkgAC1SpH-65to135-E11
 "SizeRange" = 65to135   $ IP Tech: PkgAC1SpH-65to135-E11
 "SupMotEff" = 0.84   $ IP Tech: PkgAC1SpH-65to135-E11
 "Tier" = 0   $ IP Tech: PkgAC1SpH-65to135-E11
 "FanPwrMult" = 1   $ IP Tech: PkgFurn-0.80AFUE
 "FurnAFUE" = 0.8   $ IP Tech: PkgFurn-0.80AFUE
 "FurnEt" = 0.82   $ IP Tech: PkgFurn-0.80AFUE
 "FurnaceAuxKW" = 0.1   $ IP Tech: PkgFurn-0.80AFUE
 "HIR_fPLR" = Furnace-HIR-fPLR   $ IP Tech: PkgFurn-0.80AFUE
 "VSM" = FALSE   $ IP Tech: PkgFurn-0.80AFUE
 "BFMult" = 1   $ IP Tech: RefgChg-NRes-Std
 "CoolEirMult" = 1   $ IP Tech: RefgChg-NRes-Std
 "SensCoolCapMult" = 1   $ IP Tech: RefgChg-NRes-Std
 "TotCoolCapMult" = 1   $ IP Tech: RefgChg-NRes-Std
 "AltAdjFactor" = 1.012923   $ Sizing
 "CAssFlo_L_Break_CZn" = 510.4503   $ Sizing
 "CAssFlo_L_CompDC_CZn" = 158.6422   $ Sizing
 "CAssFlo_L_Conf_CZn" = 292.9856   $ Sizing
 "CAssFlo_L_CopyRm_CZn" = 108.2484   $ Sizing
 "CAssFlo_L_Hall_EZn" = 122.1498   $ Sizing
 "CAssFlo_L_Hall_NZn" = 81.63915   $ Sizing
 "CAssFlo_L_Hall_SZn" = 118.0353   $ Sizing
 "CAssFlo_L_Hall_WZn" = 134.04   $ Sizing
 "CAssFlo_L_LobWait_EZn" = 290.8941   $ Sizing
 "CAssFlo_L_LobWait_NZn" = 215.8773   $ Sizing
 "CAssFlo_L_LobWait_SZn" = 285.543   $ Sizing
 "CAssFlo_L_LobWait_WZn" = 335.9571   $ Sizing
 "CAssFlo_L_MechElec_CZn" = 87.56194   $ Sizing
 "CAssFlo_L_OfficeOpn_CZn" = 71.84451   $ Sizing
 "CAssFlo_L_OfficeOpn_EZn" = 516.4756   $ Sizing
 "CAssFlo_L_OfficeOpn_NZn" = 414.6956   $ Sizing
 "CAssFlo_L_OfficeOpn_SZn" = 494.4017   $ Sizing
 "CAssFlo_L_OfficeOpn_WZn" = 576.5731   $ Sizing
 "CAssFlo_L_OfficeSm_EZn" = 435.9838   $ Sizing
 "CAssFlo_L_OfficeSm_NZn" = 328.997   $ Sizing
 "CAssFlo_L_OfficeSm_SZn" = 428.0958   $ Sizing
 "CAssFlo_L_OfficeSm_WZn" = 490.0829   $ Sizing
 "CAssFlo_L_Restrm_CZn" = 95.54605   $ Sizing
 "CAssFlo_L_StorSm_CZn" = 39.5996   $ Sizing
 "CAssFlo_L_StorSm_EZn" = 120.9018   $ Sizing
 "CAssFlo_L_StorSm_NZn" = 84.63477   $ Sizing
 "CAssFlo_L_StorSm_SZn" = 117.313   $ Sizing
 "CAssFlo_L_StorSm_WZn" = 132.0504   $ Sizing
 "CAssFlo_T_Conf_CZn" = 281.6996   $ Sizing
 "CAssFlo_T_Hall_EZn" = 136.4332   $ Sizing
 "CAssFlo_T_Hall_NZn" = 87.95331   $ Sizing
 "CAssFlo_T_Hall_SZn" = 129.7592   $ Sizing
 "CAssFlo_T_Hall_WZn" = 146.3725   $ Sizing
 "CAssFlo_T_OfficeOpn_CZn" = 68.08259   $ Sizing
 "CAssFlo_T_OfficeOpn_EZn" = 552.5414   $ Sizing
 "CAssFlo_T_OfficeOpn_NZn" = 429.8311   $ Sizing
 "CAssFlo_T_OfficeOpn_SZn" = 526.6366   $ Sizing
 "CAssFlo_T_OfficeOpn_WZn" = 595.0757   $ Sizing
 "CAssFlo_T_OfficeSm_EZn" = 469.3722   $ Sizing
 "CAssFlo_T_OfficeSm_NZn" = 344.9482   $ Sizing
 "CAssFlo_T_OfficeSm_SZn" = 455.8953   $ Sizing
 "CAssFlo_T_OfficeSm_WZn" = 507.1857   $ Sizing
 "CAssFlo_T_Restrm_CZn" = 135.3581   $ Sizing
 "CAssFlo_T_StorSm_EZn" = 141.4237   $ Sizing
 "CAssFlo_T_StorSm_NZn" = 96.83315   $ Sizing
 "CAssFlo_T_StorSm_SZn" = 135.1669   $ Sizing
 "CAssFlo_T_StorSm_WZn" = 154.8883   $ Sizing
 "CHRtFlo_Sys_L_Break_C" = 510.4504   $ Sizing
 "CHRtFlo_Sys_L_CompDC_C" = 178.0036   $ Sizing
 "CHRtFlo_Sys_L_Conf_C" = 292.9856   $ Sizing
 "CHRtFlo_Sys_L_CopyRm_C" = 108.2484   $ Sizing
 "CHRtFlo_Sys_L_Hall_E" = 142.804   $ Sizing
 "CHRtFlo_Sys_L_Hall_N" = 81.63915   $ Sizing
 "CHRtFlo_Sys_L_Hall_S" = 144.8155   $ Sizing
 "CHRtFlo_Sys_L_Hall_W" = 141.3449   $ Sizing
 "CHRtFlo_Sys_L_LobWait_E" = 330.2482   $ Sizing
 "CHRtFlo_Sys_L_LobWait_N" = 215.8773   $ Sizing
 "CHRtFlo_Sys_L_LobWait_S" = 333.8495   $ Sizing
 "CHRtFlo_Sys_L_LobWait_W" = 335.9571   $ Sizing
 "CHRtFlo_Sys_L_MechElec_C" = 114.255   $ Sizing
 "CHRtFlo_Sys_L_OfficeOpn_C" = 86.66077   $ Sizing
 "CHRtFlo_Sys_L_OfficeOpn_E" = 595.0562   $ Sizing
 "CHRtFlo_Sys_L_OfficeOpn_N" = 414.6956   $ Sizing
 "CHRtFlo_Sys_L_OfficeOpn_S" = 577.1535   $ Sizing
 "CHRtFlo_Sys_L_OfficeOpn_W" = 576.5731   $ Sizing
 "CHRtFlo_Sys_L_OfficeSm_E" = 510.9922   $ Sizing
 "CHRtFlo_Sys_L_OfficeSm_N" = 328.997   $ Sizing
 "CHRtFlo_Sys_L_OfficeSm_S" = 509.4685   $ Sizing
 "CHRtFlo_Sys_L_OfficeSm_W" = 498.4667   $ Sizing
 "CHRtFlo_Sys_L_Restrm_C" = 109.7362   $ Sizing
 "CHRtFlo_Sys_L_StorSm_C" = 46.59289   $ Sizing
 "CHRtFlo_Sys_L_StorSm_E" = 140.1574   $ Sizing
 "CHRtFlo_Sys_L_StorSm_N" = 84.63477   $ Sizing
 "CHRtFlo_Sys_L_StorSm_S" = 138.2453   $ Sizing
 "CHRtFlo_Sys_L_StorSm_W" = 132.0504   $ Sizing
 "CHRtFlo_Sys_T_Conf_C" = 281.6996   $ Sizing
 "CHRtFlo_Sys_T_Hall_E" = 146.1577   $ Sizing
 "CHRtFlo_Sys_T_Hall_N" = 87.95331   $ Sizing
 "CHRtFlo_Sys_T_Hall_S" = 151.0436   $ Sizing
 "CHRtFlo_Sys_T_Hall_W" = 146.3725   $ Sizing
 "CHRtFlo_Sys_T_OfficeOpn_C" = 75.98538   $ Sizing
 "CHRtFlo_Sys_T_OfficeOpn_E" = 572.7162   $ Sizing
 "CHRtFlo_Sys_T_OfficeOpn_N" = 429.8311   $ Sizing
 "CHRtFlo_Sys_T_OfficeOpn_S" = 583.7928   $ Sizing
 "CHRtFlo_Sys_T_OfficeOpn_W" = 595.0757   $ Sizing
 "CHRtFlo_Sys_T_OfficeSm_E" = 497.9935   $ Sizing
 "CHRtFlo_Sys_T_OfficeSm_N" = 344.9482   $ Sizing
 "CHRtFlo_Sys_T_OfficeSm_S" = 519.6293   $ Sizing
 "CHRtFlo_Sys_T_OfficeSm_W" = 507.1857   $ Sizing
 "CHRtFlo_Sys_T_Restrm_C" = 148.9768   $ Sizing
 "CHRtFlo_Sys_T_StorSm_E" = 146.548   $ Sizing
 "CHRtFlo_Sys_T_StorSm_N" = 96.83315   $ Sizing
 "CHRtFlo_Sys_T_StorSm_S" = 147.7693   $ Sizing
 "CHRtFlo_Sys_T_StorSm_W" = 154.8883   $ Sizing
 "CRtdFlo_Sys_L_Break_C" = 510.4504   $ Sizing
 "CRtdFlo_Sys_L_CompDC_C" = 158.6422   $ Sizing
 "CRtdFlo_Sys_L_Conf_C" = 292.9856   $ Sizing
 "CRtdFlo_Sys_L_CopyRm_C" = 108.2484   $ Sizing
 "CRtdFlo_Sys_L_Hall_E" = 122.1498   $ Sizing
 "CRtdFlo_Sys_L_Hall_N" = 81.63915   $ Sizing
 "CRtdFlo_Sys_L_Hall_S" = 118.0353   $ Sizing
 "CRtdFlo_Sys_L_Hall_W" = 134.04   $ Sizing
 "CRtdFlo_Sys_L_LobWait_E" = 290.8941   $ Sizing
 "CRtdFlo_Sys_L_LobWait_N" = 215.8773   $ Sizing
 "CRtdFlo_Sys_L_LobWait_S" = 285.543   $ Sizing
 "CRtdFlo_Sys_L_LobWait_W" = 335.9571   $ Sizing
 "CRtdFlo_Sys_L_MechElec_C" = 87.56194   $ Sizing
 "CRtdFlo_Sys_L_OfficeOpn_C" = 71.84451   $ Sizing
 "CRtdFlo_Sys_L_OfficeOpn_E" = 516.4756   $ Sizing
 "CRtdFlo_Sys_L_OfficeOpn_N" = 414.6956   $ Sizing
 "CRtdFlo_Sys_L_OfficeOpn_S" = 494.4017   $ Sizing
 "CRtdFlo_Sys_L_OfficeOpn_W" = 576.5731   $ Sizing
 "CRtdFlo_Sys_L_OfficeSm_E" = 435.9838   $ Sizing
 "CRtdFlo_Sys_L_OfficeSm_N" = 328.997   $ Sizing
 "CRtdFlo_Sys_L_OfficeSm_S" = 428.0958   $ Sizing
 "CRtdFlo_Sys_L_OfficeSm_W" = 490.0829   $ Sizing
 "CRtdFlo_Sys_L_Restrm_C" = 95.54605   $ Sizing
 "CRtdFlo_Sys_L_StorSm_C" = 39.5996   $ Sizing
 "CRtdFlo_Sys_L_StorSm_E" = 120.9018   $ Sizing
 "CRtdFlo_Sys_L_StorSm_N" = 84.63477   $ Sizing
 "CRtdFlo_Sys_L_StorSm_S" = 117.313   $ Sizing
 "CRtdFlo_Sys_L_StorSm_W" = 132.0504   $ Sizing
 "CRtdFlo_Sys_T_Conf_C" = 281.6996   $ Sizing
 "CRtdFlo_Sys_T_Hall_E" = 136.4332   $ Sizing
 "CRtdFlo_Sys_T_Hall_N" = 87.95331   $ Sizing
 "CRtdFlo_Sys_T_Hall_S" = 129.7592   $ Sizing
 "CRtdFlo_Sys_T_Hall_W" = 146.3725   $ Sizing
 "CRtdFlo_Sys_T_OfficeOpn_C" = 68.08259   $ Sizing
 "CRtdFlo_Sys_T_OfficeOpn_E" = 552.5414   $ Sizing
 "CRtdFlo_Sys_T_OfficeOpn_N" = 429.8311   $ Sizing
 "CRtdFlo_Sys_T_OfficeOpn_S" = 526.6366   $ Sizing
 "CRtdFlo_Sys_T_OfficeOpn_W" = 595.0757   $ Sizing
 "CRtdFlo_Sys_T_OfficeSm_E" = 469.3722   $ Sizing
 "CRtdFlo_Sys_T_OfficeSm_N" = 344.9482   $ Sizing
 "CRtdFlo_Sys_T_OfficeSm_S" = 455.8953   $ Sizing
 "CRtdFlo_Sys_T_OfficeSm_W" = 507.1857   $ Sizing
 "CRtdFlo_Sys_T_Restrm_C" = 135.3581   $ Sizing
 "CRtdFlo_Sys_T_StorSm_E" = 141.4237   $ Sizing
 "CRtdFlo_Sys_T_StorSm_N" = 96.83315   $ Sizing
 "CRtdFlo_Sys_T_StorSm_S" = 135.1669   $ Sizing
 "CRtdFlo_Sys_T_StorSm_W" = 154.8883   $ Sizing
 "CSupFlo_Sys_L_Break_C" = 510.4504   $ Sizing
 "CSupFlo_Sys_L_CompDC_C" = 158.6422   $ Sizing
 "CSupFlo_Sys_L_Conf_C" = 292.9856   $ Sizing
 "CSupFlo_Sys_L_CopyRm_C" = 108.2484   $ Sizing
 "CSupFlo_Sys_L_Hall_E" = 122.1498   $ Sizing
 "CSupFlo_Sys_L_Hall_N" = 81.63915   $ Sizing
 "CSupFlo_Sys_L_Hall_S" = 118.0353   $ Sizing
 "CSupFlo_Sys_L_Hall_W" = 134.04   $ Sizing
 "CSupFlo_Sys_L_LobWait_E" = 290.8941   $ Sizing
 "CSupFlo_Sys_L_LobWait_N" = 215.8773   $ Sizing
 "CSupFlo_Sys_L_LobWait_S" = 285.543   $ Sizing
 "CSupFlo_Sys_L_LobWait_W" = 335.9571   $ Sizing
 "CSupFlo_Sys_L_MechElec_C" = 87.56194   $ Sizing
 "CSupFlo_Sys_L_OfficeOpn_C" = 71.84451   $ Sizing
 "CSupFlo_Sys_L_OfficeOpn_E" = 516.4756   $ Sizing
 "CSupFlo_Sys_L_OfficeOpn_N" = 414.6956   $ Sizing
 "CSupFlo_Sys_L_OfficeOpn_S" = 494.4017   $ Sizing
 "CSupFlo_Sys_L_OfficeOpn_W" = 576.5731   $ Sizing
 "CSupFlo_Sys_L_OfficeSm_E" = 435.9838   $ Sizing
 "CSupFlo_Sys_L_OfficeSm_N" = 328.997   $ Sizing
 "CSupFlo_Sys_L_OfficeSm_S" = 428.0958   $ Sizing
 "CSupFlo_Sys_L_OfficeSm_W" = 490.0829   $ Sizing
 "CSupFlo_Sys_L_Restrm_C" = 95.54605   $ Sizing
 "CSupFlo_Sys_L_StorSm_C" = 39.5996   $ Sizing
 "CSupFlo_Sys_L_StorSm_E" = 120.9018   $ Sizing
 "CSupFlo_Sys_L_StorSm_N" = 84.63477   $ Sizing
 "CSupFlo_Sys_L_StorSm_S" = 117.313   $ Sizing
 "CSupFlo_Sys_L_StorSm_W" = 132.0504   $ Sizing
 "CSupFlo_Sys_T_Conf_C" = 281.6996   $ Sizing
 "CSupFlo_Sys_T_Hall_E" = 136.4332   $ Sizing
 "CSupFlo_Sys_T_Hall_N" = 87.95331   $ Sizing
 "CSupFlo_Sys_T_Hall_S" = 129.7592   $ Sizing
 "CSupFlo_Sys_T_Hall_W" = 146.3725   $ Sizing
 "CSupFlo_Sys_T_OfficeOpn_C" = 68.08259   $ Sizing
 "CSupFlo_Sys_T_OfficeOpn_E" = 552.5414   $ Sizing
 "CSupFlo_Sys_T_OfficeOpn_N" = 429.8311   $ Sizing
 "CSupFlo_Sys_T_OfficeOpn_S" = 526.6366   $ Sizing
 "CSupFlo_Sys_T_OfficeOpn_W" = 595.0757   $ Sizing
 "CSupFlo_Sys_T_OfficeSm_E" = 469.3722   $ Sizing
 "CSupFlo_Sys_T_OfficeSm_N" = 344.9482   $ Sizing
 "CSupFlo_Sys_T_OfficeSm_S" = 455.8953   $ Sizing
 "CSupFlo_Sys_T_OfficeSm_W" = 507.1857   $ Sizing
 "CSupFlo_Sys_T_Restrm_C" = 135.3581   $ Sizing
 "CSupFlo_Sys_T_StorSm_E" = 141.4237   $ Sizing
 "CSupFlo_Sys_T_StorSm_N" = 96.83315   $ Sizing
 "CSupFlo_Sys_T_StorSm_S" = 135.1669   $ Sizing
 "CSupFlo_Sys_T_StorSm_W" = 154.8883   $ Sizing
 "ClCap_Sys_L_Break_C" = 17277.88   $ Sizing
 "ClCap_Sys_L_CompDC_C" = 5369.77   $ Sizing
 "ClCap_Sys_L_Conf_C" = 12621.72   $ Sizing
 "ClCap_Sys_L_CopyRm_C" = 3664.025   $ Sizing
 "ClCap_Sys_L_Hall_E" = 4134.563   $ Sizing
 "ClCap_Sys_L_Hall_N" = 2763.347   $ Sizing
 "ClCap_Sys_L_Hall_S" = 3995.296   $ Sizing
 "ClCap_Sys_L_Hall_W" = 4537.026   $ Sizing
 "ClCap_Sys_L_LobWait_E" = 9846.271   $ Sizing
 "ClCap_Sys_L_LobWait_N" = 7307.083   $ Sizing
 "ClCap_Sys_L_LobWait_S" = 9665.147   $ Sizing
 "ClCap_Sys_L_LobWait_W" = 11371.58   $ Sizing
 "ClCap_Sys_L_MechElec_C" = 2963.823   $ Sizing
 "ClCap_Sys_L_OfficeOpn_C" = 2431.815   $ Sizing
 "ClCap_Sys_L_OfficeOpn_E" = 17481.83   $ Sizing
 "ClCap_Sys_L_OfficeOpn_N" = 14036.75   $ Sizing
 "ClCap_Sys_L_OfficeOpn_S" = 16734.66   $ Sizing
 "ClCap_Sys_L_OfficeOpn_W" = 19516.02   $ Sizing
 "ClCap_Sys_L_OfficeSm_E" = 14757.31   $ Sizing
 "ClCap_Sys_L_OfficeSm_N" = 11135.99   $ Sizing
 "ClCap_Sys_L_OfficeSm_S" = 14490.32   $ Sizing
 "ClCap_Sys_L_OfficeSm_W" = 16588.48   $ Sizing
 "ClCap_Sys_L_Restrm_C" = 3234.072   $ Sizing
 "ClCap_Sys_L_StorSm_C" = 1340.379   $ Sizing
 "ClCap_Sys_L_StorSm_E" = 4092.32   $ Sizing
 "ClCap_Sys_L_StorSm_N" = 2864.744   $ Sizing
 "ClCap_Sys_L_StorSm_S" = 3970.845   $ Sizing
 "ClCap_Sys_L_StorSm_W" = 4469.682   $ Sizing
 "ClCap_Sys_T_Conf_C" = 12135.52   $ Sizing
 "ClCap_Sys_T_Hall_E" = 4618.034   $ Sizing
 "ClCap_Sys_T_Hall_N" = 2977.071   $ Sizing
 "ClCap_Sys_T_Hall_S" = 4392.13   $ Sizing
 "ClCap_Sys_T_Hall_W" = 4954.46   $ Sizing
 "ClCap_Sys_T_OfficeOpn_C" = 2304.48   $ Sizing
 "ClCap_Sys_T_OfficeOpn_E" = 18702.59   $ Sizing
 "ClCap_Sys_T_OfficeOpn_N" = 14549.05   $ Sizing
 "ClCap_Sys_T_OfficeOpn_S" = 17825.76   $ Sizing
 "ClCap_Sys_T_OfficeOpn_W" = 20142.31   $ Sizing
 "ClCap_Sys_T_OfficeSm_E" = 15887.45   $ Sizing
 "ClCap_Sys_T_OfficeSm_N" = 11675.91   $ Sizing
 "ClCap_Sys_T_OfficeSm_S" = 15431.28   $ Sizing
 "ClCap_Sys_T_OfficeSm_W" = 17167.38   $ Sizing
 "ClCap_Sys_T_Restrm_C" = 4581.644   $ Sizing
 "ClCap_Sys_T_StorSm_E" = 4786.952   $ Sizing
 "ClCap_Sys_T_StorSm_N" = 3277.638   $ Sizing
 "ClCap_Sys_T_StorSm_S" = 4575.172   $ Sizing
 "ClCap_Sys_T_StorSm_W" = 5242.707   $ Sizing
 "HtCap_Sys_L_Break_C" = -28213.23   $ Sizing
 "HtCap_Sys_L_CompDC_C" = -6294.541   $ Sizing
 "HtCap_Sys_L_Conf_C" = -16835.69   $ Sizing
 "HtCap_Sys_L_CopyRm_C" = -5956.602   $ Sizing
 "HtCap_Sys_L_Hall_E" = -5003.524   $ Sizing
 "HtCap_Sys_L_Hall_N" = -3038.801   $ Sizing
 "HtCap_Sys_L_Hall_S" = -4905.509   $ Sizing
 "HtCap_Sys_L_Hall_W" = -4860.382   $ Sizing
 "HtCap_Sys_L_LobWait_E" = -12091.83   $ Sizing
 "HtCap_Sys_L_LobWait_N" = -9113.73   $ Sizing
 "HtCap_Sys_L_LobWait_S" = -12178.59   $ Sizing
 "HtCap_Sys_L_LobWait_W" = -12378.34   $ Sizing
 "HtCap_Sys_L_MechElec_C" = -4393.02   $ Sizing
 "HtCap_Sys_L_OfficeOpn_C" = -3244.826   $ Sizing
 "HtCap_Sys_L_OfficeOpn_E" = -20837.06   $ Sizing
 "HtCap_Sys_L_OfficeOpn_N" = -16283.07   $ Sizing
 "HtCap_Sys_L_OfficeOpn_S" = -19880.23   $ Sizing
 "HtCap_Sys_L_OfficeOpn_W" = -20542.99   $ Sizing
 "HtCap_Sys_L_OfficeSm_E" = -17741.79   $ Sizing
 "HtCap_Sys_L_OfficeSm_N" = -12458.34   $ Sizing
 "HtCap_Sys_L_OfficeSm_S" = -16897.33   $ Sizing
 "HtCap_Sys_L_OfficeSm_W" = -17138.15   $ Sizing
 "HtCap_Sys_L_Restrm_C" = -3745.911   $ Sizing
 "HtCap_Sys_L_StorSm_C" = -1813.014   $ Sizing
 "HtCap_Sys_L_StorSm_E" = -5056.377   $ Sizing
 "HtCap_Sys_L_StorSm_N" = -3534.523   $ Sizing
 "HtCap_Sys_L_StorSm_S" = -4969.385   $ Sizing
 "HtCap_Sys_L_StorSm_W" = -4873.168   $ Sizing
 "HtCap_Sys_T_Conf_C" = -16800.52   $ Sizing
 "HtCap_Sys_T_Hall_E" = -5551.111   $ Sizing
 "HtCap_Sys_T_Hall_N" = -3715.58   $ Sizing
 "HtCap_Sys_T_Hall_S" = -5724.979   $ Sizing
 "HtCap_Sys_T_Hall_W" = -5588.815   $ Sizing
 "HtCap_Sys_T_OfficeOpn_C" = -3218.345   $ Sizing
 "HtCap_Sys_T_OfficeOpn_E" = -22365.34   $ Sizing
 "HtCap_Sys_T_OfficeOpn_N" = -18351.7   $ Sizing
 "HtCap_Sys_T_OfficeOpn_S" = -22700.82   $ Sizing
 "HtCap_Sys_T_OfficeOpn_W" = -23493.25   $ Sizing
 "HtCap_Sys_T_OfficeSm_E" = -18893.65   $ Sizing
 "HtCap_Sys_T_OfficeSm_N" = -14348.75   $ Sizing
 "HtCap_Sys_T_OfficeSm_S" = -19431.27   $ Sizing
 "HtCap_Sys_T_OfficeSm_W" = -19335.76   $ Sizing
 "HtCap_Sys_T_Restrm_C" = -5613.095   $ Sizing
 "HtCap_Sys_T_StorSm_E" = -5941.066   $ Sizing
 "HtCap_Sys_T_StorSm_N" = -4567.345   $ Sizing
 "HtCap_Sys_T_StorSm_S" = -5917.55   $ Sizing
 "HtCap_Sys_T_StorSm_W" = -6344.136   $ Sizing
..

##include Templates\OfS_DX_SZ.inp
END ..
COMPUTE ..
STOP ..
