INPUT ..

##fileprefix C:\Users\jglasskatz\MASControl3\
##set1 IsSizing FALSE
##set1 CoolType DX
##set1 HeatType FURNACE
##set1 EU_HrRepVar 0
##set1 BldgVint 1975
##set1 BldgLoc CZ08

 ##set1 mBFMult 1   $ IP Tech: RefgChg-NRes-Std

PARAMETER
 "AltFactor" = 1.01468   $ IP Non-Tech
 "BF_fFlow" = SpltAC2SpHiSEER_BF_fFlow   $ Msr (Multi)TechID: MsrNResSplitAC-45to55-S17
 "BF_fT" = SpltAC2SpHiSEER_BF_fT   $ Msr (Multi)TechID: MsrNResSplitAC-45to55-S17
 "BldgEconoFlag" = 1   $ IP Non-Tech
 "Break_EWSF" = 1   $ IP Non-Tech
 "Break_LWSF" = 1.1   $ IP Non-Tech
 "CDD_DBHi10" = 92   $ IP Non-Tech
 "CDD_DBHi7" = 84   $ IP Non-Tech
 "CDD_DBHi8" = 87   $ IP Non-Tech
 "CDD_DBHi9" = 91   $ IP Non-Tech
 "CDD_DBRange10" = 31   $ IP Non-Tech
 "CDD_DBRange7" = 16   $ IP Non-Tech
 "CDD_DBRange8" = 20   $ IP Non-Tech
 "CDD_DBRange9" = 23   $ IP Non-Tech
 "CDD_Day10" = 15   $ IP Non-Tech
 "CDD_Day7" = 16   $ IP Non-Tech
 "CDD_Day8" = 20   $ IP Non-Tech
 "CDD_Day9" = 17   $ IP Non-Tech
 "CDD_HrHi10" = 16   $ IP Non-Tech
 "CDD_HrHi7" = 14   $ IP Non-Tech
 "CDD_HrHi8" = 15   $ IP Non-Tech
 "CDD_HrHi9" = 13   $ IP Non-Tech
 "CDD_HrLo10" = 3   $ IP Non-Tech
 "CDD_HrLo7" = 4   $ IP Non-Tech
 "CDD_HrLo8" = 7   $ IP Non-Tech
 "CDD_HrLo9" = 7   $ IP Non-Tech
 "CDD_WB10" = 63.44163513   $ IP Non-Tech
 "CDD_WB7" = 69.12194824   $ IP Non-Tech
 "CDD_WB8" = 71.41388702   $ IP Non-Tech
 "CDD_WB9" = 69.41378784   $ IP Non-Tech
 "CEIR_fPLR_Hot" = SpltAC2SpHiSEER_CEIR_fPLR_Hot   $ Msr (Multi)TechID: MsrNResSplitAC-45to55-S17
 "CEIR_fPLR_Mod" = SpltAC2SpHiSEER_CEIR_fPLR_Mod   $ Msr (Multi)TechID: MsrNResSplitAC-45to55-S17
 "CEIR_fPLR_Tem" = SpltAC2SpHiSEER_CEIR_fPLR_Tem   $ Msr (Multi)TechID: MsrNResSplitAC-45to55-S17
 "CLoss_fPLR_Hot" = SpltAC2SpHiSEER_CLoss_fPLR_Hot   $ Msr (Multi)TechID: MsrNResSplitAC-45to55-S17
 "CLoss_fPLR_Mod" = SpltAC2SpHiSEER_CLoss_fPLR_Mod   $ Msr (Multi)TechID: MsrNResSplitAC-45to55-S17
 "CLoss_fPLR_Tem" = SpltAC2SpHiSEER_CLoss_fPLR_Tem   $ Msr (Multi)TechID: MsrNResSplitAC-45to55-S17
 "COP47" = 0   $ Msr (Multi)TechID: MsrNResSplitAC-45to55-S17
 "CZ_Category" = Mod   $ IP Non-Tech
 "CapRange" = Any   $ Msr (Multi)TechID: MsrNResSplitAC-45to55-S17
 "CfmPerBtuh" = 0.03   $ Msr (Multi)TechID: MsrNResSplitAC-45to55-S17
 "ChwVintEconoFlag" = 1   $ IP Non-Tech
 "ClCap_fT" = SpltAC2SpHiSEER_ClCap_fT   $ Msr (Multi)TechID: MsrNResSplitAC-45to55-S17
 "ClSH_fT" = SpltAC2SpHiSEER_ClSH_fT   $ Msr (Multi)TechID: MsrNResSplitAC-45to55-S17
 "CoilBF" = 0.102   $ Msr (Multi)TechID: MsrNResSplitAC-45to55-S17
 "CompRoomData_EWSF" = 5.75   $ IP Non-Tech
 "CompRoomData_LWSF" = 1.2   $ IP Non-Tech
 "CondWPerBtuh" = 0   $ Msr (Multi)TechID: MsrNResSplitAC-45to55-S17
 "Conference_EWSF" = 1.15   $ IP Non-Tech
 "Conference_LWSF" = 1.4   $ IP Non-Tech
 "CoolSensCap" = 0.724   $ Msr (Multi)TechID: MsrNResSplitAC-45to55-S17
 "CoolSetT" = 45   $ IP Non-Tech
 "CoolType" = DX   $ IP Non-Tech
 "CoolingEIR" = 0.2225   $ Msr (Multi)TechID: MsrNResSplitAC-45to55-S17
 "CopyRoom_EWSF" = 1.725   $ IP Non-Tech
 "CopyRoom_LWSF" = 1.3   $ IP Non-Tech
 "CrnkEIR" = 0.002225   $ Msr (Multi)TechID: MsrNResSplitAC-45to55-S17
 "CrnkMaxT" = 50   $ Msr (Multi)TechID: MsrNResSplitAC-45to55-S17
 "DXType" = SplitSEER   $ Msr (Multi)TechID: MsrNResSplitAC-45to55-S17
 "DesCoolT" = 75   $ IP Non-Tech
 "DesHeatT" = 73   $ IP Non-Tech
 "EER" = 13.26   $ Msr (Multi)TechID: MsrNResSplitAC-45to55-S17
 "EIR_fT" = SpltAC2SpHiSEER_EIR_fT   $ Msr (Multi)TechID: MsrNResSplitAC-45to55-S17
 "EconoCtrl" = FIXED   $ Msr (Multi)TechID: MsrNResSplitAC-45to55-S17
 "EconoEnthLimit" = 28   $ IP Non-Tech
 "EconoTempLimit" = 71   $ IP Non-Tech
 "Elevation" = 395   $ IP Non-Tech
 "FanEirPlr" = TwoSpeedFan   $ Msr (Multi)TechID: MsrNResSplitAC-45to55-S17
 "FanWPerCfm" = 0.271   $ Msr (Multi)TechID: MsrNResSplitAC-45to55-S17
 "HDD_CloudAmt1" = 0   $ IP Non-Tech
 "HDD_DBHi1" = 55   $ IP Non-Tech
 "HDD_DBRange1" = 18   $ IP Non-Tech
 "HDD_Day1" = 15   $ IP Non-Tech
 "HDD_HrHi1" = 11   $ IP Non-Tech
 "HDD_HrLo1" = 6   $ IP Non-Tech
 "HDD_WB1" = 49.4   $ IP Non-Tech
 "HDD_WindSpd1" = 9.2   $ IP Non-Tech
 "HIR_fT" = 0   $ Msr (Multi)TechID: MsrNResSplitAC-45to55-S17
 "HSPF" = 0   $ Msr (Multi)TechID: MsrNResSplitAC-45to55-S17
 "Hall_EWSF" = 0.23   $ IP Non-Tech
 "Hall_LWSF" = 0.6   $ IP Non-Tech
 "HeatSrc" = FURNACE   $ IP Non-Tech
 "HeatSrcTU" = HEAT-PUMP   $ IP Non-Tech
 "HeatType" = GasFurn   $ IP Non-Tech
 "HeatTypeTU" = HEAT-PUMP   $ IP Non-Tech
 "HtCap_fT" = 0   $ Msr (Multi)TechID: MsrNResSplitAC-45to55-S17
 "HtCoolCapRatio" = 0   $ Msr (Multi)TechID: MsrNResSplitAC-45to55-S17
 "HtgEIR" = 0   $ Msr (Multi)TechID: MsrNResSplitAC-45to55-S17
 "IndoorFanMode" = CONTINUOUS   $ IP Non-Tech
 "KT_TransferAir" = No   $ IP Non-Tech
 "Latitude" = 33.8   $ IP Non-Tech
 "LobbyWaiting_EWSF" = 0.5375   $ IP Non-Tech
 "LobbyWaiting_LWSF" = 1.3   $ IP Non-Tech
 "Longitude" = 118.2   $ IP Non-Tech
 "LowSpdCapRatio" = 0.686   $ Msr (Multi)TechID: MsrNResSplitAC-45to55-S17
 "LowSpdCfmRatio" = 0.739   $ Msr (Multi)TechID: MsrNResSplitAC-45to55-S17
 "MZFanMechEff" = 0.58   $ IP Non-Tech
 "MZHasRetFan" = FALSE   $ IP Non-Tech
 "MZ_RFanWPerCfm" = 0.33   $ IP Non-Tech
 "MZ_SFanWPerCfm" = 0.75   $ IP Non-Tech
 "MZ_SupFanStatic" = 2.25   $ IP Non-Tech
 "MaxOAFrac" = 1   $ Msr (Multi)TechID: MsrNResSplitAC-45to55-S17
 "MaxSupT_MZ" = 100   $ IP Non-Tech
 "MaxSupT_SZ" = 100   $ IP Non-Tech
 "MaxSupT_TU" = 90   $ IP Non-Tech
 "MechElecRoom_EWSF" = 0.23   $ IP Non-Tech
 "MechElecRoom_LWSF" = 0.7   $ IP Non-Tech
 "MinCfmPerSF" = 0.4   $ IP Non-Tech
 "MinSupT" = 55   $ IP Non-Tech
 "NumStages" = 2   $ Msr (Multi)TechID: MsrNResSplitAC-45to55-S17
 "OccCoolT" = 76   $ IP Non-Tech
 "OccHeatT" = 72   $ IP Non-Tech
 "OfficeOpen_EWSF" = 1.725   $ IP Non-Tech
 "OfficeOpen_LWSF" = 1.2   $ IP Non-Tech
 "OfficeSmall_EWSF" = 1.725   $ IP Non-Tech
 "OfficeSmall_LWSF" = 1.3   $ IP Non-Tech
 "PkgDxVintEconoFlag" = 0   $ IP Non-Tech
 "Restroom_EWSF" = 0.23   $ IP Non-Tech
 "Restroom_LWSF" = 0.6   $ IP Non-Tech
 "SEER" = 17   $ Msr (Multi)TechID: MsrNResSplitAC-45to55-S17
 "SZFanMechEff" = 0.58   $ IP Non-Tech
 "SZHasRetFan" = FALSE   $ IP Non-Tech
 "SZ_Is_2Spd" = FALSE   $ IP Non-Tech
 "SZ_SFanWPerCfm" = 0.46   $ IP Non-Tech
 "SZ_SupFanStatic" = 0.75   $ IP Non-Tech
 "Sector" = Any   $ Msr (Multi)TechID: MsrNResSplitAC-45to55-S17
 "StorageSmlCond_EWSF" = 0.23   $ IP Non-Tech
 "StorageSmlCond_LWSF" = 0.6   $ IP Non-Tech
 "SubType" = AC   $ Msr (Multi)TechID: MsrNResSplitAC-45to55-S17
 "T24GlzTbl" = CZTbl   $ IP Non-Tech
 "TermUnitFanMechEff" = 1   $ IP Non-Tech
 "TermUnitFanMode" = INTERMITTENT   $ IP Non-Tech
 "TotCoolCap" = 58805   $ Msr (Multi)TechID: MsrNResSplitAC-45to55-S17
 "TwrSetpt" = 80.5   $ IP Non-Tech
 "UnocCoolT" = 86   $ IP Non-Tech
 "UnocHeatT" = 62   $ IP Non-Tech
 "UseEconoVintApplic" = FALSE   $ Msr (Multi)TechID: MsrNResSplitAC-45to55-S17
 "WlhpVintEconoFlag" = 0   $ IP Non-Tech
 "DuctDT" = 1   $ IP Tech: ComDuctInsul-1
 "DuctAirLoss" = 0   $ IP Tech: ComDuctLeak-0
 "DuctLossOAFrac" = 0   $ IP Tech: ComDuctLeak-0
 "ComRoofInsCalc" = FromUo   $ IP Tech: ComRoofIns-WFrm-0.07
 "ComRoofInsR" = -999   $ IP Tech: ComRoofIns-WFrm-0.07
 "ComRoofUo" = 0.07   $ IP Tech: ComRoofIns-WFrm-0.07
 "ComEWInsCalc" = FromUo   $ IP Tech: ComWallIns-WFrm-0.12
 "ComEWInsR" = -999   $ IP Tech: ComWallIns-WFrm-0.12
 "ComEWUo" = 0.12   $ IP Tech: ComWallIns-WFrm-0.12
 "ComN_SHGC" = 0.82   $ IP Tech: NResWin-ComN-1.23-0.82
 "ComN_UFactor" = 1.23   $ IP Tech: NResWin-ComN-1.23-0.82
 "ComN_VisTrans" = 0.9   $ IP Tech: NResWin-ComN-1.23-0.82
 "ComN_WinCode" = G1000   $ IP Tech: NResWin-ComN-1.23-0.82
 "ComN_WinFrmFrac" = 0.17   $ IP Tech: NResWin-ComN-1.23-0.82
 "ComN_WinFrmU" = 1   $ IP Tech: NResWin-ComN-1.23-0.82
 "ComO_SHGC" = 0.82   $ IP Tech: NResWin-ComO-1.23-0.82
 "ComO_UFactor" = 1.23   $ IP Tech: NResWin-ComO-1.23-0.82
 "ComO_VisTrans" = 0.9   $ IP Tech: NResWin-ComO-1.23-0.82
 "ComO_WinCode" = G1000   $ IP Tech: NResWin-ComO-1.23-0.82
 "ComO_WinFrmFrac" = 0.17   $ IP Tech: NResWin-ComO-1.23-0.82
 "ComO_WinFrmU" = 1   $ IP Tech: NResWin-ComO-1.23-0.82
 "LtgMsrApplic" = ALL   $ IP Tech: NonResLtgRefPre
 "LtgSav_CFL" = 0   $ IP Tech: NonResLtgRefPre
 "LtgSav_EX" = 0   $ IP Tech: NonResLtgRefPre
 "LtgSav_HB" = 0   $ IP Tech: NonResLtgRefPre
 "LtgSav_LF" = 0   $ IP Tech: NonResLtgRefPre
 "LtgSav_SP" = 0   $ IP Tech: NonResLtgRefPre
 "CEIR_fPLR" = PSZ65to135_CEIR_fPLR   $ IP Tech: PkgAC1SpH-65to135-E10
 "CLoss_fPLR" = PSZ65to135_CLoss_fPLR   $ IP Tech: PkgAC1SpH-65to135-E10
 "COP" = -1   $ IP Tech: PkgAC1SpH-65to135-E10
 "HtgFuel" = Gas   $ IP Tech: PkgAC1SpH-65to135-E10
 "IEER" = 11.87   $ IP Tech: PkgAC1SpH-65to135-E10
 "NominalCap" = 15   $ IP Tech: PkgAC1SpH-65to135-E10
 "RatedEER" = 10   $ IP Tech: PkgAC1SpH-65to135-E10
 "RatedSupMtrClass" = HiEff   $ IP Tech: PkgAC1SpH-65to135-E10
 "SizeRange" = 65to135   $ IP Tech: PkgAC1SpH-65to135-E10
 "SupMotEff" = 0.84   $ IP Tech: PkgAC1SpH-65to135-E10
 "Tier" = 0   $ IP Tech: PkgAC1SpH-65to135-E10
 "FanPwrMult" = 1   $ IP Tech: PkgFurn-0.80AFUE
 "FurnAFUE" = 0.8   $ IP Tech: PkgFurn-0.80AFUE
 "FurnEt" = 0.82   $ IP Tech: PkgFurn-0.80AFUE
 "FurnaceAuxKW" = 0.1   $ IP Tech: PkgFurn-0.80AFUE
 "HIR_fPLR" = Furnace-HIR-fPLR   $ IP Tech: PkgFurn-0.80AFUE
 "VSM" = FALSE   $ IP Tech: PkgFurn-0.80AFUE
 "BFMult" = 1   $ IP Tech: RefgChg-NRes-Std
 "CoolEirMult" = 1   $ IP Tech: RefgChg-NRes-Std
 "SensCoolCapMult" = 1   $ IP Tech: RefgChg-NRes-Std
 "TotCoolCapMult" = 1   $ IP Tech: RefgChg-NRes-Std
 "AltAdjFactor" = 1.014676   $ Sizing
 "CAssFlo_L_Break_CZn" = 418.5877   $ Sizing
 "CAssFlo_L_CompDC_CZn" = 156.9933   $ Sizing
 "CAssFlo_L_Conf_CZn" = 243.3825   $ Sizing
 "CAssFlo_L_CopyRm_CZn" = 89.22868   $ Sizing
 "CAssFlo_L_Hall_EZn" = 153.6271   $ Sizing
 "CAssFlo_L_Hall_NZn" = 62.12872   $ Sizing
 "CAssFlo_L_Hall_SZn" = 177.1155   $ Sizing
 "CAssFlo_L_Hall_WZn" = 171.3487   $ Sizing
 "CAssFlo_L_LobWait_EZn" = 358.5273   $ Sizing
 "CAssFlo_L_LobWait_NZn" = 166.18   $ Sizing
 "CAssFlo_L_LobWait_SZn" = 419.0509   $ Sizing
 "CAssFlo_L_LobWait_WZn" = 419.3082   $ Sizing
 "CAssFlo_L_MechElec_CZn" = 78.35717   $ Sizing
 "CAssFlo_L_OfficeOpn_CZn" = 67.90524   $ Sizing
 "CAssFlo_L_OfficeOpn_EZn" = 665.7772   $ Sizing
 "CAssFlo_L_OfficeOpn_NZn" = 355.9117   $ Sizing
 "CAssFlo_L_OfficeOpn_SZn" = 698.5797   $ Sizing
 "CAssFlo_L_OfficeOpn_WZn" = 730.5997   $ Sizing
 "CAssFlo_L_OfficeSm_EZn" = 571.2318   $ Sizing
 "CAssFlo_L_OfficeSm_NZn" = 279.5286   $ Sizing
 "CAssFlo_L_OfficeSm_SZn" = 622.5137   $ Sizing
 "CAssFlo_L_OfficeSm_WZn" = 640.0994   $ Sizing
 "CAssFlo_L_Restrm_CZn" = 82.35967   $ Sizing
 "CAssFlo_L_StorSm_CZn" = 36.1963   $ Sizing
 "CAssFlo_L_StorSm_EZn" = 152.4494   $ Sizing
 "CAssFlo_L_StorSm_NZn" = 60.5396   $ Sizing
 "CAssFlo_L_StorSm_SZn" = 172.634   $ Sizing
 "CAssFlo_L_StorSm_WZn" = 161.9612   $ Sizing
 "CAssFlo_T_Conf_CZn" = 235.8528   $ Sizing
 "CAssFlo_T_Hall_EZn" = 173.1535   $ Sizing
 "CAssFlo_T_Hall_NZn" = 72.45343   $ Sizing
 "CAssFlo_T_Hall_SZn" = 208.6443   $ Sizing
 "CAssFlo_T_Hall_WZn" = 194.6494   $ Sizing
 "CAssFlo_T_OfficeOpn_CZn" = 61.48461   $ Sizing
 "CAssFlo_T_OfficeOpn_EZn" = 694.2767   $ Sizing
 "CAssFlo_T_OfficeOpn_NZn" = 380.9242   $ Sizing
 "CAssFlo_T_OfficeOpn_SZn" = 778.4423   $ Sizing
 "CAssFlo_T_OfficeOpn_WZn" = 770.4502   $ Sizing
 "CAssFlo_T_OfficeSm_EZn" = 602.3735   $ Sizing
 "CAssFlo_T_OfficeSm_NZn" = 302.3357   $ Sizing
 "CAssFlo_T_OfficeSm_SZn" = 690.7527   $ Sizing
 "CAssFlo_T_OfficeSm_WZn" = 675.4663   $ Sizing
 "CAssFlo_T_Restrm_CZn" = 126.4482   $ Sizing
 "CAssFlo_T_StorSm_EZn" = 174.4158   $ Sizing
 "CAssFlo_T_StorSm_NZn" = 75.27858   $ Sizing
 "CAssFlo_T_StorSm_SZn" = 209.5825   $ Sizing
 "CAssFlo_T_StorSm_WZn" = 198.7666   $ Sizing
 "CHRtFlo_Sys_L_Break_C" = 418.5877   $ Sizing
 "CHRtFlo_Sys_L_CompDC_C" = 193.7295   $ Sizing
 "CHRtFlo_Sys_L_Conf_C" = 244.4864   $ Sizing
 "CHRtFlo_Sys_L_CopyRm_C" = 91.01323   $ Sizing
 "CHRtFlo_Sys_L_Hall_E" = 194.4376   $ Sizing
 "CHRtFlo_Sys_L_Hall_N" = 65.03288   $ Sizing
 "CHRtFlo_Sys_L_Hall_S" = 222.9801   $ Sizing
 "CHRtFlo_Sys_L_Hall_W" = 205.5604   $ Sizing
 "CHRtFlo_Sys_L_LobWait_E" = 446.7216   $ Sizing
 "CHRtFlo_Sys_L_LobWait_N" = 166.18   $ Sizing
 "CHRtFlo_Sys_L_LobWait_S" = 511.28   $ Sizing
 "CHRtFlo_Sys_L_LobWait_W" = 472.4484   $ Sizing
 "CHRtFlo_Sys_L_MechElec_C" = 99.50025   $ Sizing
 "CHRtFlo_Sys_L_OfficeOpn_C" = 83.99556   $ Sizing
 "CHRtFlo_Sys_L_OfficeOpn_E" = 824.5739   $ Sizing
 "CHRtFlo_Sys_L_OfficeOpn_N" = 374.6182   $ Sizing
 "CHRtFlo_Sys_L_OfficeOpn_S" = 870.7773   $ Sizing
 "CHRtFlo_Sys_L_OfficeOpn_W" = 851.4187   $ Sizing
 "CHRtFlo_Sys_L_OfficeSm_E" = 720.712   $ Sizing
 "CHRtFlo_Sys_L_OfficeSm_N" = 298.3396   $ Sizing
 "CHRtFlo_Sys_L_OfficeSm_S" = 779.3896   $ Sizing
 "CHRtFlo_Sys_L_OfficeSm_W" = 757.235   $ Sizing
 "CHRtFlo_Sys_L_Restrm_C" = 98.4469   $ Sizing
 "CHRtFlo_Sys_L_StorSm_C" = 42.89348   $ Sizing
 "CHRtFlo_Sys_L_StorSm_E" = 190.3398   $ Sizing
 "CHRtFlo_Sys_L_StorSm_N" = 68.6842   $ Sizing
 "CHRtFlo_Sys_L_StorSm_S" = 215.271   $ Sizing
 "CHRtFlo_Sys_L_StorSm_W" = 187.872   $ Sizing
 "CHRtFlo_Sys_T_Conf_C" = 235.8528   $ Sizing
 "CHRtFlo_Sys_T_Hall_E" = 205.7314   $ Sizing
 "CHRtFlo_Sys_T_Hall_N" = 72.45342   $ Sizing
 "CHRtFlo_Sys_T_Hall_S" = 247.5612   $ Sizing
 "CHRtFlo_Sys_T_Hall_W" = 221.2954   $ Sizing
 "CHRtFlo_Sys_T_OfficeOpn_C" = 71.39878   $ Sizing
 "CHRtFlo_Sys_T_OfficeOpn_E" = 802.6687   $ Sizing
 "CHRtFlo_Sys_T_OfficeOpn_N" = 380.9242   $ Sizing
 "CHRtFlo_Sys_T_OfficeOpn_S" = 905.8127   $ Sizing
 "CHRtFlo_Sys_T_OfficeOpn_W" = 831.3777   $ Sizing
 "CHRtFlo_Sys_T_OfficeSm_E" = 708.6621   $ Sizing
 "CHRtFlo_Sys_T_OfficeSm_N" = 302.3357   $ Sizing
 "CHRtFlo_Sys_T_OfficeSm_S" = 816.4061   $ Sizing
 "CHRtFlo_Sys_T_OfficeSm_W" = 750.7893   $ Sizing
 "CHRtFlo_Sys_T_Restrm_C" = 138.512   $ Sizing
 "CHRtFlo_Sys_T_StorSm_E" = 199.1985   $ Sizing
 "CHRtFlo_Sys_T_StorSm_N" = 75.27858   $ Sizing
 "CHRtFlo_Sys_T_StorSm_S" = 238.8282   $ Sizing
 "CHRtFlo_Sys_T_StorSm_W" = 214.0076   $ Sizing
 "CRtdFlo_Sys_L_Break_C" = 418.5877   $ Sizing
 "CRtdFlo_Sys_L_CompDC_C" = 156.9933   $ Sizing
 "CRtdFlo_Sys_L_Conf_C" = 243.3825   $ Sizing
 "CRtdFlo_Sys_L_CopyRm_C" = 89.22868   $ Sizing
 "CRtdFlo_Sys_L_Hall_E" = 153.6271   $ Sizing
 "CRtdFlo_Sys_L_Hall_N" = 62.12872   $ Sizing
 "CRtdFlo_Sys_L_Hall_S" = 177.1155   $ Sizing
 "CRtdFlo_Sys_L_Hall_W" = 171.3487   $ Sizing
 "CRtdFlo_Sys_L_LobWait_E" = 358.5273   $ Sizing
 "CRtdFlo_Sys_L_LobWait_N" = 166.18   $ Sizing
 "CRtdFlo_Sys_L_LobWait_S" = 419.0509   $ Sizing
 "CRtdFlo_Sys_L_LobWait_W" = 419.3082   $ Sizing
 "CRtdFlo_Sys_L_MechElec_C" = 78.35717   $ Sizing
 "CRtdFlo_Sys_L_OfficeOpn_C" = 67.90524   $ Sizing
 "CRtdFlo_Sys_L_OfficeOpn_E" = 665.7773   $ Sizing
 "CRtdFlo_Sys_L_OfficeOpn_N" = 355.9117   $ Sizing
 "CRtdFlo_Sys_L_OfficeOpn_S" = 698.5798   $ Sizing
 "CRtdFlo_Sys_L_OfficeOpn_W" = 730.5997   $ Sizing
 "CRtdFlo_Sys_L_OfficeSm_E" = 571.2318   $ Sizing
 "CRtdFlo_Sys_L_OfficeSm_N" = 279.5286   $ Sizing
 "CRtdFlo_Sys_L_OfficeSm_S" = 622.5137   $ Sizing
 "CRtdFlo_Sys_L_OfficeSm_W" = 640.0994   $ Sizing
 "CRtdFlo_Sys_L_Restrm_C" = 82.35967   $ Sizing
 "CRtdFlo_Sys_L_StorSm_C" = 36.1963   $ Sizing
 "CRtdFlo_Sys_L_StorSm_E" = 152.4494   $ Sizing
 "CRtdFlo_Sys_L_StorSm_N" = 60.5396   $ Sizing
 "CRtdFlo_Sys_L_StorSm_S" = 172.634   $ Sizing
 "CRtdFlo_Sys_L_StorSm_W" = 161.9612   $ Sizing
 "CRtdFlo_Sys_T_Conf_C" = 235.8528   $ Sizing
 "CRtdFlo_Sys_T_Hall_E" = 173.1535   $ Sizing
 "CRtdFlo_Sys_T_Hall_N" = 72.45342   $ Sizing
 "CRtdFlo_Sys_T_Hall_S" = 208.6443   $ Sizing
 "CRtdFlo_Sys_T_Hall_W" = 194.6494   $ Sizing
 "CRtdFlo_Sys_T_OfficeOpn_C" = 61.48461   $ Sizing
 "CRtdFlo_Sys_T_OfficeOpn_E" = 694.2768   $ Sizing
 "CRtdFlo_Sys_T_OfficeOpn_N" = 380.9242   $ Sizing
 "CRtdFlo_Sys_T_OfficeOpn_S" = 778.4423   $ Sizing
 "CRtdFlo_Sys_T_OfficeOpn_W" = 770.4503   $ Sizing
 "CRtdFlo_Sys_T_OfficeSm_E" = 602.3735   $ Sizing
 "CRtdFlo_Sys_T_OfficeSm_N" = 302.3357   $ Sizing
 "CRtdFlo_Sys_T_OfficeSm_S" = 690.7527   $ Sizing
 "CRtdFlo_Sys_T_OfficeSm_W" = 675.4663   $ Sizing
 "CRtdFlo_Sys_T_Restrm_C" = 126.4482   $ Sizing
 "CRtdFlo_Sys_T_StorSm_E" = 174.4158   $ Sizing
 "CRtdFlo_Sys_T_StorSm_N" = 75.27858   $ Sizing
 "CRtdFlo_Sys_T_StorSm_S" = 209.5825   $ Sizing
 "CRtdFlo_Sys_T_StorSm_W" = 198.7666   $ Sizing
 "CSupFlo_Sys_L_Break_C" = 418.5877   $ Sizing
 "CSupFlo_Sys_L_CompDC_C" = 156.9933   $ Sizing
 "CSupFlo_Sys_L_Conf_C" = 243.3825   $ Sizing
 "CSupFlo_Sys_L_CopyRm_C" = 89.22868   $ Sizing
 "CSupFlo_Sys_L_Hall_E" = 153.6271   $ Sizing
 "CSupFlo_Sys_L_Hall_N" = 62.12872   $ Sizing
 "CSupFlo_Sys_L_Hall_S" = 177.1155   $ Sizing
 "CSupFlo_Sys_L_Hall_W" = 171.3487   $ Sizing
 "CSupFlo_Sys_L_LobWait_E" = 358.5273   $ Sizing
 "CSupFlo_Sys_L_LobWait_N" = 166.18   $ Sizing
 "CSupFlo_Sys_L_LobWait_S" = 419.0509   $ Sizing
 "CSupFlo_Sys_L_LobWait_W" = 419.3082   $ Sizing
 "CSupFlo_Sys_L_MechElec_C" = 78.35717   $ Sizing
 "CSupFlo_Sys_L_OfficeOpn_C" = 67.90524   $ Sizing
 "CSupFlo_Sys_L_OfficeOpn_E" = 665.7773   $ Sizing
 "CSupFlo_Sys_L_OfficeOpn_N" = 355.9117   $ Sizing
 "CSupFlo_Sys_L_OfficeOpn_S" = 698.5798   $ Sizing
 "CSupFlo_Sys_L_OfficeOpn_W" = 730.5997   $ Sizing
 "CSupFlo_Sys_L_OfficeSm_E" = 571.2318   $ Sizing
 "CSupFlo_Sys_L_OfficeSm_N" = 279.5286   $ Sizing
 "CSupFlo_Sys_L_OfficeSm_S" = 622.5137   $ Sizing
 "CSupFlo_Sys_L_OfficeSm_W" = 640.0994   $ Sizing
 "CSupFlo_Sys_L_Restrm_C" = 82.35967   $ Sizing
 "CSupFlo_Sys_L_StorSm_C" = 36.1963   $ Sizing
 "CSupFlo_Sys_L_StorSm_E" = 152.4494   $ Sizing
 "CSupFlo_Sys_L_StorSm_N" = 60.5396   $ Sizing
 "CSupFlo_Sys_L_StorSm_S" = 172.634   $ Sizing
 "CSupFlo_Sys_L_StorSm_W" = 161.9612   $ Sizing
 "CSupFlo_Sys_T_Conf_C" = 235.8528   $ Sizing
 "CSupFlo_Sys_T_Hall_E" = 173.1535   $ Sizing
 "CSupFlo_Sys_T_Hall_N" = 72.45342   $ Sizing
 "CSupFlo_Sys_T_Hall_S" = 208.6443   $ Sizing
 "CSupFlo_Sys_T_Hall_W" = 194.6494   $ Sizing
 "CSupFlo_Sys_T_OfficeOpn_C" = 61.48461   $ Sizing
 "CSupFlo_Sys_T_OfficeOpn_E" = 694.2768   $ Sizing
 "CSupFlo_Sys_T_OfficeOpn_N" = 380.9242   $ Sizing
 "CSupFlo_Sys_T_OfficeOpn_S" = 778.4423   $ Sizing
 "CSupFlo_Sys_T_OfficeOpn_W" = 770.4503   $ Sizing
 "CSupFlo_Sys_T_OfficeSm_E" = 602.3735   $ Sizing
 "CSupFlo_Sys_T_OfficeSm_N" = 302.3357   $ Sizing
 "CSupFlo_Sys_T_OfficeSm_S" = 690.7527   $ Sizing
 "CSupFlo_Sys_T_OfficeSm_W" = 675.4663   $ Sizing
 "CSupFlo_Sys_T_Restrm_C" = 126.4482   $ Sizing
 "CSupFlo_Sys_T_StorSm_E" = 174.4158   $ Sizing
 "CSupFlo_Sys_T_StorSm_N" = 75.27858   $ Sizing
 "CSupFlo_Sys_T_StorSm_S" = 209.5825   $ Sizing
 "CSupFlo_Sys_T_StorSm_W" = 198.7666   $ Sizing
 "ClCap_Sys_L_Break_C" = 14144   $ Sizing
 "ClCap_Sys_L_CompDC_C" = 5304.772   $ Sizing
 "ClCap_Sys_L_Conf_C" = 10466.72   $ Sizing
 "ClCap_Sys_L_CopyRm_C" = 3015.02   $ Sizing
 "ClCap_Sys_L_Hall_E" = 5191.03   $ Sizing
 "ClCap_Sys_L_Hall_N" = 2099.318   $ Sizing
 "ClCap_Sys_L_Hall_S" = 5984.7   $ Sizing
 "ClCap_Sys_L_Hall_W" = 5789.84   $ Sizing
 "ClCap_Sys_L_LobWait_E" = 12114.57   $ Sizing
 "ClCap_Sys_L_LobWait_N" = 5615.19   $ Sizing
 "ClCap_Sys_L_LobWait_S" = 14159.65   $ Sizing
 "ClCap_Sys_L_LobWait_W" = 14168.35   $ Sizing
 "ClCap_Sys_L_MechElec_C" = 2647.674   $ Sizing
 "ClCap_Sys_L_OfficeOpn_C" = 2294.505   $ Sizing
 "ClCap_Sys_L_OfficeOpn_E" = 22496.49   $ Sizing
 "ClCap_Sys_L_OfficeOpn_N" = 12026.19   $ Sizing
 "ClCap_Sys_L_OfficeOpn_S" = 23604.88   $ Sizing
 "ClCap_Sys_L_OfficeOpn_W" = 24686.83   $ Sizing
 "ClCap_Sys_L_OfficeSm_E" = 19301.81   $ Sizing
 "ClCap_Sys_L_OfficeSm_N" = 9445.218   $ Sizing
 "ClCap_Sys_L_OfficeSm_S" = 21034.62   $ Sizing
 "ClCap_Sys_L_OfficeSm_W" = 21628.84   $ Sizing
 "ClCap_Sys_L_Restrm_C" = 2782.918   $ Sizing
 "ClCap_Sys_L_StorSm_C" = 1223.066   $ Sizing
 "ClCap_Sys_L_StorSm_E" = 5151.237   $ Sizing
 "ClCap_Sys_L_StorSm_N" = 2045.622   $ Sizing
 "ClCap_Sys_L_StorSm_S" = 5833.27   $ Sizing
 "ClCap_Sys_L_StorSm_W" = 5472.638   $ Sizing
 "ClCap_Sys_T_Conf_C" = 10142.9   $ Sizing
 "ClCap_Sys_T_Hall_E" = 5850.823   $ Sizing
 "ClCap_Sys_T_Hall_N" = 2448.188   $ Sizing
 "ClCap_Sys_T_Hall_S" = 7050.053   $ Sizing
 "ClCap_Sys_T_Hall_W" = 6577.167   $ Sizing
 "ClCap_Sys_T_OfficeOpn_C" = 2077.553   $ Sizing
 "ClCap_Sys_T_OfficeOpn_E" = 23459.48   $ Sizing
 "ClCap_Sys_T_OfficeOpn_N" = 12871.36   $ Sizing
 "ClCap_Sys_T_OfficeOpn_S" = 26303.42   $ Sizing
 "ClCap_Sys_T_OfficeOpn_W" = 26033.37   $ Sizing
 "ClCap_Sys_T_OfficeSm_E" = 20354.09   $ Sizing
 "ClCap_Sys_T_OfficeSm_N" = 10215.87   $ Sizing
 "ClCap_Sys_T_OfficeSm_S" = 23340.41   $ Sizing
 "ClCap_Sys_T_OfficeSm_W" = 22823.88   $ Sizing
 "ClCap_Sys_T_Restrm_C" = 4272.659   $ Sizing
 "ClCap_Sys_T_StorSm_E" = 5893.478   $ Sizing
 "ClCap_Sys_T_StorSm_N" = 2543.649   $ Sizing
 "ClCap_Sys_T_StorSm_S" = 7081.754   $ Sizing
 "ClCap_Sys_T_StorSm_W" = 6716.287   $ Sizing
 "HtCap_Sys_L_Break_C" = -21699.19   $ Sizing
 "HtCap_Sys_L_CompDC_C" = -9326.858   $ Sizing
 "HtCap_Sys_L_Conf_C" = -13048.77   $ Sizing
 "HtCap_Sys_L_CopyRm_C" = -4728.79   $ Sizing
 "HtCap_Sys_L_Hall_E" = -6668.263   $ Sizing
 "HtCap_Sys_L_Hall_N" = -2379.328   $ Sizing
 "HtCap_Sys_L_Hall_S" = -7256.482   $ Sizing
 "HtCap_Sys_L_Hall_W" = -6611.103   $ Sizing
 "HtCap_Sys_L_LobWait_E" = -14790.66   $ Sizing
 "HtCap_Sys_L_LobWait_N" = -6956.983   $ Sizing
 "HtCap_Sys_L_LobWait_S" = -17019.23   $ Sizing
 "HtCap_Sys_L_LobWait_W" = -15864.12   $ Sizing
 "HtCap_Sys_L_MechElec_C" = -3813.871   $ Sizing
 "HtCap_Sys_L_OfficeOpn_C" = -3032.982   $ Sizing
 "HtCap_Sys_L_OfficeOpn_E" = -26877.38   $ Sizing
 "HtCap_Sys_L_OfficeOpn_N" = -14308.13   $ Sizing
 "HtCap_Sys_L_OfficeOpn_S" = -28125.99   $ Sizing
 "HtCap_Sys_L_OfficeOpn_W" = -27816.13   $ Sizing
 "HtCap_Sys_L_OfficeSm_E" = -23733.19   $ Sizing
 "HtCap_Sys_L_OfficeSm_N" = -11044.18   $ Sizing
 "HtCap_Sys_L_OfficeSm_S" = -24873.51   $ Sizing
 "HtCap_Sys_L_OfficeSm_W" = -24667.18   $ Sizing
 "HtCap_Sys_L_Restrm_C" = -3336.585   $ Sizing
 "HtCap_Sys_L_StorSm_C" = -1644.753   $ Sizing
 "HtCap_Sys_L_StorSm_E" = -6410.223   $ Sizing
 "HtCap_Sys_L_StorSm_N" = -2824.318   $ Sizing
 "HtCap_Sys_L_StorSm_S" = -6992.689   $ Sizing
 "HtCap_Sys_L_StorSm_W" = -6348.576   $ Sizing
 "HtCap_Sys_T_Conf_C" = -13008.74   $ Sizing
 "HtCap_Sys_T_Hall_E" = -7405.054   $ Sizing
 "HtCap_Sys_T_Hall_N" = -2948.756   $ Sizing
 "HtCap_Sys_T_Hall_S" = -8742.966   $ Sizing
 "HtCap_Sys_T_Hall_W" = -7735.455   $ Sizing
 "HtCap_Sys_T_OfficeOpn_C" = -2886.641   $ Sizing
 "HtCap_Sys_T_OfficeOpn_E" = -28773.39   $ Sizing
 "HtCap_Sys_T_OfficeOpn_N" = -15558   $ Sizing
 "HtCap_Sys_T_OfficeOpn_S" = -31109.95   $ Sizing
 "HtCap_Sys_T_OfficeOpn_W" = -29758.29   $ Sizing
 "HtCap_Sys_T_OfficeSm_E" = -25190.01   $ Sizing
 "HtCap_Sys_T_OfficeSm_N" = -12083.18   $ Sizing
 "HtCap_Sys_T_OfficeSm_S" = -27619.79   $ Sizing
 "HtCap_Sys_T_OfficeSm_W" = -25998.16   $ Sizing
 "HtCap_Sys_T_Restrm_C" = -5007.409   $ Sizing
 "HtCap_Sys_T_StorSm_E" = -7532.456   $ Sizing
 "HtCap_Sys_T_StorSm_N" = -3519.478   $ Sizing
 "HtCap_Sys_T_StorSm_S" = -8117.079   $ Sizing
 "HtCap_Sys_T_StorSm_W" = -8064.423   $ Sizing
..

##include Templates\OfS_DX_SZ.inp
END ..
COMPUTE ..
STOP ..
