INPUT ..

##fileprefix C:\Users\jglasskatz\MASControl3\
##set1 IsSizing FALSE
##set1 CoolType DX
##set1 HeatType FURNACE
##set1 EU_HrRepVar 0
##set1 BldgVint 1975
##set1 BldgLoc CZ09

 ##set1 mBFMult 1   $ IP Tech: RefgChg-NRes-Std

PARAMETER
 "AltFactor" = 1.02768   $ IP Non-Tech
 "BF_fFlow" = SpltAC1Sp-ge45_BF_fFlow   $ Msr (Multi)TechID: StdNResSplitAC-45to55
 "BF_fT" = SpltAC1Sp-ge45_BF_fT   $ Msr (Multi)TechID: StdNResSplitAC-45to55
 "BldgEconoFlag" = 1   $ IP Non-Tech
 "Break_EWSF" = 1   $ IP Non-Tech
 "Break_LWSF" = 1.1   $ IP Non-Tech
 "CDD_DBHi10" = 91   $ IP Non-Tech
 "CDD_DBHi7" = 91   $ IP Non-Tech
 "CDD_DBHi8" = 94   $ IP Non-Tech
 "CDD_DBHi9" = 100   $ IP Non-Tech
 "CDD_DBRange10" = 30   $ IP Non-Tech
 "CDD_DBRange7" = 19   $ IP Non-Tech
 "CDD_DBRange8" = 23   $ IP Non-Tech
 "CDD_DBRange9" = 24   $ IP Non-Tech
 "CDD_Day10" = 15   $ IP Non-Tech
 "CDD_Day7" = 16   $ IP Non-Tech
 "CDD_Day8" = 20   $ IP Non-Tech
 "CDD_Day9" = 17   $ IP Non-Tech
 "CDD_HrHi10" = 16   $ IP Non-Tech
 "CDD_HrHi7" = 16   $ IP Non-Tech
 "CDD_HrHi8" = 15   $ IP Non-Tech
 "CDD_HrHi9" = 13   $ IP Non-Tech
 "CDD_HrLo10" = 5   $ IP Non-Tech
 "CDD_HrLo7" = 6   $ IP Non-Tech
 "CDD_HrLo8" = 3   $ IP Non-Tech
 "CDD_HrLo9" = 7   $ IP Non-Tech
 "CDD_WB10" = 61.50949097   $ IP Non-Tech
 "CDD_WB7" = 74.70972443   $ IP Non-Tech
 "CDD_WB8" = 73.69755554   $ IP Non-Tech
 "CDD_WB9" = 73.82730103   $ IP Non-Tech
 "CEIR_fPLR_Hot" = SpltAC1Sp-ge45_CEIR_fPLR_Hot   $ Msr (Multi)TechID: StdNResSplitAC-45to55
 "CEIR_fPLR_Mod" = SpltAC1Sp-ge45_CEIR_fPLR_Mod   $ Msr (Multi)TechID: StdNResSplitAC-45to55
 "CEIR_fPLR_Tem" = SpltAC1Sp-ge45_CEIR_fPLR_Tem   $ Msr (Multi)TechID: StdNResSplitAC-45to55
 "CLoss_fPLR_Hot" = SpltAC1Sp-ge45_CLoss_fPLR_Hot   $ Msr (Multi)TechID: StdNResSplitAC-45to55
 "CLoss_fPLR_Mod" = SpltAC1Sp-ge45_CLoss_fPLR_Mod   $ Msr (Multi)TechID: StdNResSplitAC-45to55
 "CLoss_fPLR_Tem" = SpltAC1Sp-ge45_CLoss_fPLR_Tem   $ Msr (Multi)TechID: StdNResSplitAC-45to55
 "COP47" = 0   $ Msr (Multi)TechID: StdNResSplitAC-45to55
 "CZ_Category" = Mod   $ IP Non-Tech
 "CapRange" = ge45   $ Msr (Multi)TechID: StdNResSplitAC-45to55
 "CfmPerBtuh" = 0.03263   $ Msr (Multi)TechID: StdNResSplitAC-45to55
 "ChwVintEconoFlag" = 1   $ IP Non-Tech
 "ClCap_fT" = SpltAC1Sp-ge45_ClCap_fT   $ Msr (Multi)TechID: StdNResSplitAC-45to55
 "ClSH_fT" = SpltAC1Sp-ge45_ClSH_fT   $ Msr (Multi)TechID: StdNResSplitAC-45to55
 "CoilBF" = 0.106518182   $ Msr (Multi)TechID: StdNResSplitAC-45to55
 "CompRoomData_EWSF" = 5.75   $ IP Non-Tech
 "CompRoomData_LWSF" = 1.2   $ IP Non-Tech
 "CondWPerBtuh" = 0   $ Msr (Multi)TechID: StdNResSplitAC-45to55
 "Conference_EWSF" = 1.15   $ IP Non-Tech
 "Conference_LWSF" = 1.4   $ IP Non-Tech
 "CoolSensCap" = 0.759218182   $ Msr (Multi)TechID: StdNResSplitAC-45to55
 "CoolSetT" = 45   $ IP Non-Tech
 "CoolType" = DX   $ IP Non-Tech
 "CoolingEIR" = 0.2466   $ Msr (Multi)TechID: StdNResSplitAC-45to55
 "CopyRoom_EWSF" = 1.725   $ IP Non-Tech
 "CopyRoom_LWSF" = 1.3   $ IP Non-Tech
 "CrnkEIR" = 0.002466   $ Msr (Multi)TechID: StdNResSplitAC-45to55
 "CrnkMaxT" = 50   $ Msr (Multi)TechID: StdNResSplitAC-45to55
 "DXType" = SplitSEER   $ Msr (Multi)TechID: StdNResSplitAC-45to55
 "DesCoolT" = 75   $ IP Non-Tech
 "DesHeatT" = 73   $ IP Non-Tech
 "EER" = 11.81793103   $ Msr (Multi)TechID: StdNResSplitAC-45to55
 "EIR_fT" = SpltAC1Sp-ge45_EIR_fT   $ Msr (Multi)TechID: StdNResSplitAC-45to55
 "EconoCtrl" = FIXED   $ Msr (Multi)TechID: StdNResSplitAC-45to55
 "EconoEnthLimit" = 28   $ IP Non-Tech
 "EconoTempLimit" = 71   $ IP Non-Tech
 "Elevation" = 741   $ IP Non-Tech
 "FanEirPlr" = TwoSpeedFan   $ Msr (Multi)TechID: StdNResSplitAC-45to55
 "FanWPerCfm" = 0.294   $ Msr (Multi)TechID: StdNResSplitAC-45to55
 "HDD_CloudAmt1" = 0   $ IP Non-Tech
 "HDD_DBHi1" = 55   $ IP Non-Tech
 "HDD_DBRange1" = 18   $ IP Non-Tech
 "HDD_Day1" = 15   $ IP Non-Tech
 "HDD_HrHi1" = 15   $ IP Non-Tech
 "HDD_HrLo1" = 5   $ IP Non-Tech
 "HDD_WB1" = 48.4   $ IP Non-Tech
 "HDD_WindSpd1" = 10.4   $ IP Non-Tech
 "HIR_fT" = 0   $ Msr (Multi)TechID: StdNResSplitAC-45to55
 "HSPF" = 0   $ Msr (Multi)TechID: StdNResSplitAC-45to55
 "Hall_EWSF" = 0.23   $ IP Non-Tech
 "Hall_LWSF" = 0.6   $ IP Non-Tech
 "HeatSrc" = FURNACE   $ IP Non-Tech
 "HeatSrcTU" = HEAT-PUMP   $ IP Non-Tech
 "HeatType" = GasFurn   $ IP Non-Tech
 "HeatTypeTU" = HEAT-PUMP   $ IP Non-Tech
 "HtCap_fT" = 0   $ Msr (Multi)TechID: StdNResSplitAC-45to55
 "HtCoolCapRatio" = 0   $ Msr (Multi)TechID: StdNResSplitAC-45to55
 "HtgEIR" = 0   $ Msr (Multi)TechID: StdNResSplitAC-45to55
 "IndoorFanMode" = CONTINUOUS   $ IP Non-Tech
 "KT_TransferAir" = No   $ IP Non-Tech
 "Latitude" = 34.1   $ IP Non-Tech
 "LobbyWaiting_EWSF" = 0.5375   $ IP Non-Tech
 "LobbyWaiting_LWSF" = 1.3   $ IP Non-Tech
 "Longitude" = 117.8   $ IP Non-Tech
 "LowSpdCapRatio" = 1   $ Msr (Multi)TechID: StdNResSplitAC-45to55
 "LowSpdCfmRatio" = 1   $ Msr (Multi)TechID: StdNResSplitAC-45to55
 "MZFanMechEff" = 0.58   $ IP Non-Tech
 "MZHasRetFan" = FALSE   $ IP Non-Tech
 "MZ_RFanWPerCfm" = 0.33   $ IP Non-Tech
 "MZ_SFanWPerCfm" = 0.75   $ IP Non-Tech
 "MZ_SupFanStatic" = 2.25   $ IP Non-Tech
 "MaxOAFrac" = 1   $ Msr (Multi)TechID: StdNResSplitAC-45to55
 "MaxSupT_MZ" = 100   $ IP Non-Tech
 "MaxSupT_SZ" = 100   $ IP Non-Tech
 "MaxSupT_TU" = 90   $ IP Non-Tech
 "MechElecRoom_EWSF" = 0.23   $ IP Non-Tech
 "MechElecRoom_LWSF" = 0.7   $ IP Non-Tech
 "MinCfmPerSF" = 0.4   $ IP Non-Tech
 "MinSupT" = 55   $ IP Non-Tech
 "NumStages" = 1   $ Msr (Multi)TechID: StdNResSplitAC-45to55
 "OccCoolT" = 76   $ IP Non-Tech
 "OccHeatT" = 72   $ IP Non-Tech
 "OfficeOpen_EWSF" = 1.725   $ IP Non-Tech
 "OfficeOpen_LWSF" = 1.2   $ IP Non-Tech
 "OfficeSmall_EWSF" = 1.725   $ IP Non-Tech
 "OfficeSmall_LWSF" = 1.3   $ IP Non-Tech
 "PkgDxVintEconoFlag" = 0   $ IP Non-Tech
 "Restroom_EWSF" = 0.23   $ IP Non-Tech
 "Restroom_LWSF" = 0.6   $ IP Non-Tech
 "SEER" = 14   $ Msr (Multi)TechID: StdNResSplitAC-45to55
 "SZFanMechEff" = 0.58   $ IP Non-Tech
 "SZHasRetFan" = FALSE   $ IP Non-Tech
 "SZ_Is_2Spd" = FALSE   $ IP Non-Tech
 "SZ_SFanWPerCfm" = 0.46   $ IP Non-Tech
 "SZ_SupFanStatic" = 0.75   $ IP Non-Tech
 "Sector" = Any   $ Msr (Multi)TechID: StdNResSplitAC-45to55
 "StorageSmlCond_EWSF" = 0.23   $ IP Non-Tech
 "StorageSmlCond_LWSF" = 0.6   $ IP Non-Tech
 "SubType" = AC   $ Msr (Multi)TechID: StdNResSplitAC-45to55
 "T24GlzTbl" = CZTbl   $ IP Non-Tech
 "TermUnitFanMechEff" = 1   $ IP Non-Tech
 "TermUnitFanMode" = INTERMITTENT   $ IP Non-Tech
 "TotCoolCap" = 52519.36364   $ Msr (Multi)TechID: StdNResSplitAC-45to55
 "TwrSetpt" = 86.9   $ IP Non-Tech
 "UnocCoolT" = 86   $ IP Non-Tech
 "UnocHeatT" = 62   $ IP Non-Tech
 "UseEconoVintApplic" = FALSE   $ Msr (Multi)TechID: StdNResSplitAC-45to55
 "WlhpVintEconoFlag" = 0   $ IP Non-Tech
 "DuctDT" = 1   $ IP Tech: ComDuctInsul-1
 "DuctAirLoss" = 0   $ IP Tech: ComDuctLeak-0
 "DuctLossOAFrac" = 0   $ IP Tech: ComDuctLeak-0
 "ComRoofInsCalc" = FromUo   $ IP Tech: ComRoofIns-WFrm-0.07
 "ComRoofInsR" = -999   $ IP Tech: ComRoofIns-WFrm-0.07
 "ComRoofUo" = 0.07   $ IP Tech: ComRoofIns-WFrm-0.07
 "ComEWInsCalc" = FromUo   $ IP Tech: ComWallIns-WFrm-0.12
 "ComEWInsR" = -999   $ IP Tech: ComWallIns-WFrm-0.12
 "ComEWUo" = 0.12   $ IP Tech: ComWallIns-WFrm-0.12
 "ComN_SHGC" = 0.82   $ IP Tech: NResWin-ComN-1.23-0.82
 "ComN_UFactor" = 1.23   $ IP Tech: NResWin-ComN-1.23-0.82
 "ComN_VisTrans" = 0.9   $ IP Tech: NResWin-ComN-1.23-0.82
 "ComN_WinCode" = G1000   $ IP Tech: NResWin-ComN-1.23-0.82
 "ComN_WinFrmFrac" = 0.17   $ IP Tech: NResWin-ComN-1.23-0.82
 "ComN_WinFrmU" = 1   $ IP Tech: NResWin-ComN-1.23-0.82
 "ComO_SHGC" = 0.82   $ IP Tech: NResWin-ComO-1.23-0.82
 "ComO_UFactor" = 1.23   $ IP Tech: NResWin-ComO-1.23-0.82
 "ComO_VisTrans" = 0.9   $ IP Tech: NResWin-ComO-1.23-0.82
 "ComO_WinCode" = G1000   $ IP Tech: NResWin-ComO-1.23-0.82
 "ComO_WinFrmFrac" = 0.17   $ IP Tech: NResWin-ComO-1.23-0.82
 "ComO_WinFrmU" = 1   $ IP Tech: NResWin-ComO-1.23-0.82
 "LtgMsrApplic" = ALL   $ IP Tech: NonResLtgRefPre
 "LtgSav_CFL" = 0   $ IP Tech: NonResLtgRefPre
 "LtgSav_EX" = 0   $ IP Tech: NonResLtgRefPre
 "LtgSav_HB" = 0   $ IP Tech: NonResLtgRefPre
 "LtgSav_LF" = 0   $ IP Tech: NonResLtgRefPre
 "LtgSav_SP" = 0   $ IP Tech: NonResLtgRefPre
 "CEIR_fPLR" = PSZ65to135_CEIR_fPLR   $ IP Tech: PkgAC1SpH-65to135-E10
 "CLoss_fPLR" = PSZ65to135_CLoss_fPLR   $ IP Tech: PkgAC1SpH-65to135-E10
 "COP" = -1   $ IP Tech: PkgAC1SpH-65to135-E10
 "HtgFuel" = Gas   $ IP Tech: PkgAC1SpH-65to135-E10
 "IEER" = 11.87   $ IP Tech: PkgAC1SpH-65to135-E10
 "NominalCap" = 15   $ IP Tech: PkgAC1SpH-65to135-E10
 "RatedEER" = 10   $ IP Tech: PkgAC1SpH-65to135-E10
 "RatedSupMtrClass" = HiEff   $ IP Tech: PkgAC1SpH-65to135-E10
 "SizeRange" = 65to135   $ IP Tech: PkgAC1SpH-65to135-E10
 "SupMotEff" = 0.84   $ IP Tech: PkgAC1SpH-65to135-E10
 "Tier" = 0   $ IP Tech: PkgAC1SpH-65to135-E10
 "FanPwrMult" = 1   $ IP Tech: PkgFurn-0.80AFUE
 "FurnAFUE" = 0.8   $ IP Tech: PkgFurn-0.80AFUE
 "FurnEt" = 0.82   $ IP Tech: PkgFurn-0.80AFUE
 "FurnaceAuxKW" = 0.1   $ IP Tech: PkgFurn-0.80AFUE
 "HIR_fPLR" = Furnace-HIR-fPLR   $ IP Tech: PkgFurn-0.80AFUE
 "VSM" = FALSE   $ IP Tech: PkgFurn-0.80AFUE
 "BFMult" = 1   $ IP Tech: RefgChg-NRes-Std
 "CoolEirMult" = 1   $ IP Tech: RefgChg-NRes-Std
 "SensCoolCapMult" = 1   $ IP Tech: RefgChg-NRes-Std
 "TotCoolCapMult" = 1   $ IP Tech: RefgChg-NRes-Std
 "AltAdjFactor" = 1.027678   $ Sizing
 "CAssFlo_L_Break_CZn" = 524.8963   $ Sizing
 "CAssFlo_L_CompDC_CZn" = 171.9855   $ Sizing
 "CAssFlo_L_Conf_CZn" = 304.0034   $ Sizing
 "CAssFlo_L_CopyRm_CZn" = 112.9843   $ Sizing
 "CAssFlo_L_Hall_EZn" = 172.0973   $ Sizing
 "CAssFlo_L_Hall_NZn" = 87.20586   $ Sizing
 "CAssFlo_L_Hall_SZn" = 185.5684   $ Sizing
 "CAssFlo_L_Hall_WZn" = 200.6348   $ Sizing
 "CAssFlo_L_LobWait_EZn" = 405.9242   $ Sizing
 "CAssFlo_L_LobWait_NZn" = 229.0694   $ Sizing
 "CAssFlo_L_LobWait_SZn" = 454.9255   $ Sizing
 "CAssFlo_L_LobWait_WZn" = 497.8744   $ Sizing
 "CAssFlo_L_MechElec_CZn" = 97.62749   $ Sizing
 "CAssFlo_L_OfficeOpn_CZn" = 80.10971   $ Sizing
 "CAssFlo_L_OfficeOpn_EZn" = 732.4344   $ Sizing
 "CAssFlo_L_OfficeOpn_NZn" = 449.3795   $ Sizing
 "CAssFlo_L_OfficeOpn_SZn" = 756.1713   $ Sizing
 "CAssFlo_L_OfficeOpn_WZn" = 843.9547   $ Sizing
 "CAssFlo_L_OfficeSm_EZn" = 628.1011   $ Sizing
 "CAssFlo_L_OfficeSm_NZn" = 356.1913   $ Sizing
 "CAssFlo_L_OfficeSm_SZn" = 659.5319   $ Sizing
 "CAssFlo_L_OfficeSm_WZn" = 735.6211   $ Sizing
 "CAssFlo_L_Restrm_CZn" = 100.7301   $ Sizing
 "CAssFlo_L_StorSm_CZn" = 41.90656   $ Sizing
 "CAssFlo_L_StorSm_EZn" = 171.6009   $ Sizing
 "CAssFlo_L_StorSm_NZn" = 90.1806   $ Sizing
 "CAssFlo_L_StorSm_SZn" = 184.4704   $ Sizing
 "CAssFlo_L_StorSm_WZn" = 192.2313   $ Sizing
 "CAssFlo_T_Conf_CZn" = 293.3216   $ Sizing
 "CAssFlo_T_Hall_EZn" = 194.2281   $ Sizing
 "CAssFlo_T_Hall_NZn" = 96.92753   $ Sizing
 "CAssFlo_T_Hall_SZn" = 219.029   $ Sizing
 "CAssFlo_T_Hall_WZn" = 222.0706   $ Sizing
 "CAssFlo_T_OfficeOpn_CZn" = 73.729   $ Sizing
 "CAssFlo_T_OfficeOpn_EZn" = 768.6611   $ Sizing
 "CAssFlo_T_OfficeOpn_NZn" = 473.2986   $ Sizing
 "CAssFlo_T_OfficeOpn_SZn" = 848.9047   $ Sizing
 "CAssFlo_T_OfficeOpn_WZn" = 894.3348   $ Sizing
 "CAssFlo_T_OfficeSm_EZn" = 664.1028   $ Sizing
 "CAssFlo_T_OfficeSm_NZn" = 378.589   $ Sizing
 "CAssFlo_T_OfficeSm_SZn" = 735.1737   $ Sizing
 "CAssFlo_T_OfficeSm_WZn" = 779.9126   $ Sizing
 "CAssFlo_T_Restrm_CZn" = 136.8703   $ Sizing
 "CAssFlo_T_StorSm_EZn" = 198.2192   $ Sizing
 "CAssFlo_T_StorSm_NZn" = 105.6287   $ Sizing
 "CAssFlo_T_StorSm_SZn" = 224.5233   $ Sizing
 "CAssFlo_T_StorSm_WZn" = 227.6918   $ Sizing
 "CHRtFlo_Sys_L_Break_C" = 524.8963   $ Sizing
 "CHRtFlo_Sys_L_CompDC_C" = 193.3773   $ Sizing
 "CHRtFlo_Sys_L_Conf_C" = 304.0034   $ Sizing
 "CHRtFlo_Sys_L_CopyRm_C" = 112.9843   $ Sizing
 "CHRtFlo_Sys_L_Hall_E" = 205.3939   $ Sizing
 "CHRtFlo_Sys_L_Hall_N" = 87.20585   $ Sizing
 "CHRtFlo_Sys_L_Hall_S" = 225.9083   $ Sizing
 "CHRtFlo_Sys_L_Hall_W" = 219.1689   $ Sizing
 "CHRtFlo_Sys_L_LobWait_E" = 470.068   $ Sizing
 "CHRtFlo_Sys_L_LobWait_N" = 229.0694   $ Sizing
 "CHRtFlo_Sys_L_LobWait_S" = 518.024   $ Sizing
 "CHRtFlo_Sys_L_LobWait_W" = 509.415   $ Sizing
 "CHRtFlo_Sys_L_MechElec_C" = 116.9418   $ Sizing
 "CHRtFlo_Sys_L_OfficeOpn_C" = 92.6832   $ Sizing
 "CHRtFlo_Sys_L_OfficeOpn_E" = 856.5619   $ Sizing
 "CHRtFlo_Sys_L_OfficeOpn_N" = 449.3795   $ Sizing
 "CHRtFlo_Sys_L_OfficeOpn_S" = 882.6555   $ Sizing
 "CHRtFlo_Sys_L_OfficeOpn_W" = 901.0488   $ Sizing
 "CHRtFlo_Sys_L_OfficeSm_E" = 750.6486   $ Sizing
 "CHRtFlo_Sys_L_OfficeSm_N" = 356.1913   $ Sizing
 "CHRtFlo_Sys_L_OfficeSm_S" = 790.0772   $ Sizing
 "CHRtFlo_Sys_L_OfficeSm_W" = 802.6445   $ Sizing
 "CHRtFlo_Sys_L_Restrm_C" = 112.8961   $ Sizing
 "CHRtFlo_Sys_L_StorSm_C" = 46.61908   $ Sizing
 "CHRtFlo_Sys_L_StorSm_E" = 200.8265   $ Sizing
 "CHRtFlo_Sys_L_StorSm_N" = 90.1806   $ Sizing
 "CHRtFlo_Sys_L_StorSm_S" = 218.0454   $ Sizing
 "CHRtFlo_Sys_L_StorSm_W" = 201.3408   $ Sizing
 "CHRtFlo_Sys_T_Conf_C" = 293.3216   $ Sizing
 "CHRtFlo_Sys_T_Hall_E" = 217.6399   $ Sizing
 "CHRtFlo_Sys_T_Hall_N" = 96.92753   $ Sizing
 "CHRtFlo_Sys_T_Hall_S" = 250.4579   $ Sizing
 "CHRtFlo_Sys_T_Hall_W" = 233.6918   $ Sizing
 "CHRtFlo_Sys_T_OfficeOpn_C" = 78.56081   $ Sizing
 "CHRtFlo_Sys_T_OfficeOpn_E" = 835.7942   $ Sizing
 "CHRtFlo_Sys_T_OfficeOpn_N" = 473.2986   $ Sizing
 "CHRtFlo_Sys_T_OfficeOpn_S" = 917.7412   $ Sizing
 "CHRtFlo_Sys_T_OfficeOpn_W" = 894.3348   $ Sizing
 "CHRtFlo_Sys_T_OfficeSm_E" = 741.4753   $ Sizing
 "CHRtFlo_Sys_T_OfficeSm_N" = 378.589   $ Sizing
 "CHRtFlo_Sys_T_OfficeSm_S" = 827.1997   $ Sizing
 "CHRtFlo_Sys_T_OfficeSm_W" = 791.6199   $ Sizing
 "CHRtFlo_Sys_T_Restrm_C" = 151.8586   $ Sizing
 "CHRtFlo_Sys_T_StorSm_E" = 210.7736   $ Sizing
 "CHRtFlo_Sys_T_StorSm_N" = 105.6287   $ Sizing
 "CHRtFlo_Sys_T_StorSm_S" = 241.5903   $ Sizing
 "CHRtFlo_Sys_T_StorSm_W" = 227.6918   $ Sizing
 "CRtdFlo_Sys_L_Break_C" = 524.8963   $ Sizing
 "CRtdFlo_Sys_L_CompDC_C" = 171.9855   $ Sizing
 "CRtdFlo_Sys_L_Conf_C" = 304.0034   $ Sizing
 "CRtdFlo_Sys_L_CopyRm_C" = 112.9843   $ Sizing
 "CRtdFlo_Sys_L_Hall_E" = 172.0973   $ Sizing
 "CRtdFlo_Sys_L_Hall_N" = 87.20585   $ Sizing
 "CRtdFlo_Sys_L_Hall_S" = 185.5684   $ Sizing
 "CRtdFlo_Sys_L_Hall_W" = 200.6348   $ Sizing
 "CRtdFlo_Sys_L_LobWait_E" = 405.9242   $ Sizing
 "CRtdFlo_Sys_L_LobWait_N" = 229.0694   $ Sizing
 "CRtdFlo_Sys_L_LobWait_S" = 454.9255   $ Sizing
 "CRtdFlo_Sys_L_LobWait_W" = 497.8744   $ Sizing
 "CRtdFlo_Sys_L_MechElec_C" = 97.62749   $ Sizing
 "CRtdFlo_Sys_L_OfficeOpn_C" = 80.10971   $ Sizing
 "CRtdFlo_Sys_L_OfficeOpn_E" = 732.4344   $ Sizing
 "CRtdFlo_Sys_L_OfficeOpn_N" = 449.3795   $ Sizing
 "CRtdFlo_Sys_L_OfficeOpn_S" = 756.1713   $ Sizing
 "CRtdFlo_Sys_L_OfficeOpn_W" = 843.9548   $ Sizing
 "CRtdFlo_Sys_L_OfficeSm_E" = 628.1011   $ Sizing
 "CRtdFlo_Sys_L_OfficeSm_N" = 356.1913   $ Sizing
 "CRtdFlo_Sys_L_OfficeSm_S" = 659.5319   $ Sizing
 "CRtdFlo_Sys_L_OfficeSm_W" = 735.6211   $ Sizing
 "CRtdFlo_Sys_L_Restrm_C" = 100.7301   $ Sizing
 "CRtdFlo_Sys_L_StorSm_C" = 41.90656   $ Sizing
 "CRtdFlo_Sys_L_StorSm_E" = 171.6009   $ Sizing
 "CRtdFlo_Sys_L_StorSm_N" = 90.1806   $ Sizing
 "CRtdFlo_Sys_L_StorSm_S" = 184.4704   $ Sizing
 "CRtdFlo_Sys_L_StorSm_W" = 192.2313   $ Sizing
 "CRtdFlo_Sys_T_Conf_C" = 293.3216   $ Sizing
 "CRtdFlo_Sys_T_Hall_E" = 194.2281   $ Sizing
 "CRtdFlo_Sys_T_Hall_N" = 96.92753   $ Sizing
 "CRtdFlo_Sys_T_Hall_S" = 219.029   $ Sizing
 "CRtdFlo_Sys_T_Hall_W" = 222.0706   $ Sizing
 "CRtdFlo_Sys_T_OfficeOpn_C" = 73.729   $ Sizing
 "CRtdFlo_Sys_T_OfficeOpn_E" = 768.6611   $ Sizing
 "CRtdFlo_Sys_T_OfficeOpn_N" = 473.2986   $ Sizing
 "CRtdFlo_Sys_T_OfficeOpn_S" = 848.9047   $ Sizing
 "CRtdFlo_Sys_T_OfficeOpn_W" = 894.3348   $ Sizing
 "CRtdFlo_Sys_T_OfficeSm_E" = 664.1028   $ Sizing
 "CRtdFlo_Sys_T_OfficeSm_N" = 378.589   $ Sizing
 "CRtdFlo_Sys_T_OfficeSm_S" = 735.1737   $ Sizing
 "CRtdFlo_Sys_T_OfficeSm_W" = 779.9127   $ Sizing
 "CRtdFlo_Sys_T_Restrm_C" = 136.8703   $ Sizing
 "CRtdFlo_Sys_T_StorSm_E" = 198.2192   $ Sizing
 "CRtdFlo_Sys_T_StorSm_N" = 105.6287   $ Sizing
 "CRtdFlo_Sys_T_StorSm_S" = 224.5233   $ Sizing
 "CRtdFlo_Sys_T_StorSm_W" = 227.6918   $ Sizing
 "CSupFlo_Sys_L_Break_C" = 524.8963   $ Sizing
 "CSupFlo_Sys_L_CompDC_C" = 171.9855   $ Sizing
 "CSupFlo_Sys_L_Conf_C" = 304.0034   $ Sizing
 "CSupFlo_Sys_L_CopyRm_C" = 112.9843   $ Sizing
 "CSupFlo_Sys_L_Hall_E" = 172.0973   $ Sizing
 "CSupFlo_Sys_L_Hall_N" = 87.20585   $ Sizing
 "CSupFlo_Sys_L_Hall_S" = 185.5684   $ Sizing
 "CSupFlo_Sys_L_Hall_W" = 200.6348   $ Sizing
 "CSupFlo_Sys_L_LobWait_E" = 405.9242   $ Sizing
 "CSupFlo_Sys_L_LobWait_N" = 229.0694   $ Sizing
 "CSupFlo_Sys_L_LobWait_S" = 454.9255   $ Sizing
 "CSupFlo_Sys_L_LobWait_W" = 497.8744   $ Sizing
 "CSupFlo_Sys_L_MechElec_C" = 97.62749   $ Sizing
 "CSupFlo_Sys_L_OfficeOpn_C" = 80.10971   $ Sizing
 "CSupFlo_Sys_L_OfficeOpn_E" = 732.4344   $ Sizing
 "CSupFlo_Sys_L_OfficeOpn_N" = 449.3795   $ Sizing
 "CSupFlo_Sys_L_OfficeOpn_S" = 756.1713   $ Sizing
 "CSupFlo_Sys_L_OfficeOpn_W" = 843.9548   $ Sizing
 "CSupFlo_Sys_L_OfficeSm_E" = 628.1011   $ Sizing
 "CSupFlo_Sys_L_OfficeSm_N" = 356.1913   $ Sizing
 "CSupFlo_Sys_L_OfficeSm_S" = 659.5319   $ Sizing
 "CSupFlo_Sys_L_OfficeSm_W" = 735.6211   $ Sizing
 "CSupFlo_Sys_L_Restrm_C" = 100.7301   $ Sizing
 "CSupFlo_Sys_L_StorSm_C" = 41.90656   $ Sizing
 "CSupFlo_Sys_L_StorSm_E" = 171.6009   $ Sizing
 "CSupFlo_Sys_L_StorSm_N" = 90.1806   $ Sizing
 "CSupFlo_Sys_L_StorSm_S" = 184.4704   $ Sizing
 "CSupFlo_Sys_L_StorSm_W" = 192.2313   $ Sizing
 "CSupFlo_Sys_T_Conf_C" = 293.3216   $ Sizing
 "CSupFlo_Sys_T_Hall_E" = 194.2281   $ Sizing
 "CSupFlo_Sys_T_Hall_N" = 96.92753   $ Sizing
 "CSupFlo_Sys_T_Hall_S" = 219.029   $ Sizing
 "CSupFlo_Sys_T_Hall_W" = 222.0706   $ Sizing
 "CSupFlo_Sys_T_OfficeOpn_C" = 73.729   $ Sizing
 "CSupFlo_Sys_T_OfficeOpn_E" = 768.6611   $ Sizing
 "CSupFlo_Sys_T_OfficeOpn_N" = 473.2986   $ Sizing
 "CSupFlo_Sys_T_OfficeOpn_S" = 848.9047   $ Sizing
 "CSupFlo_Sys_T_OfficeOpn_W" = 894.3348   $ Sizing
 "CSupFlo_Sys_T_OfficeSm_E" = 664.1028   $ Sizing
 "CSupFlo_Sys_T_OfficeSm_N" = 378.589   $ Sizing
 "CSupFlo_Sys_T_OfficeSm_S" = 735.1737   $ Sizing
 "CSupFlo_Sys_T_OfficeSm_W" = 779.9127   $ Sizing
 "CSupFlo_Sys_T_Restrm_C" = 136.8703   $ Sizing
 "CSupFlo_Sys_T_StorSm_E" = 198.2192   $ Sizing
 "CSupFlo_Sys_T_StorSm_N" = 105.6287   $ Sizing
 "CSupFlo_Sys_T_StorSm_S" = 224.5233   $ Sizing
 "CSupFlo_Sys_T_StorSm_W" = 227.6918   $ Sizing
 "ClCap_Sys_L_Break_C" = 17511.75   $ Sizing
 "ClCap_Sys_L_CompDC_C" = 5737.83   $ Sizing
 "ClCap_Sys_L_Conf_C" = 12908.32   $ Sizing
 "ClCap_Sys_L_CopyRm_C" = 3769.416   $ Sizing
 "ClCap_Sys_L_Hall_E" = 5741.562   $ Sizing
 "ClCap_Sys_L_Hall_N" = 2909.387   $ Sizing
 "ClCap_Sys_L_Hall_S" = 6190.987   $ Sizing
 "ClCap_Sys_L_Hall_W" = 6693.637   $ Sizing
 "ClCap_Sys_L_LobWait_E" = 13542.57   $ Sizing
 "ClCap_Sys_L_LobWait_N" = 7642.281   $ Sizing
 "ClCap_Sys_L_LobWait_S" = 15177.36   $ Sizing
 "ClCap_Sys_L_LobWait_W" = 16610.23   $ Sizing
 "ClCap_Sys_L_MechElec_C" = 3257.078   $ Sizing
 "ClCap_Sys_L_OfficeOpn_C" = 2672.644   $ Sizing
 "ClCap_Sys_L_OfficeOpn_E" = 24435.7   $ Sizing
 "ClCap_Sys_L_OfficeOpn_N" = 14992.33   $ Sizing
 "ClCap_Sys_L_OfficeOpn_S" = 25227.61   $ Sizing
 "ClCap_Sys_L_OfficeOpn_W" = 28156.27   $ Sizing
 "ClCap_Sys_L_OfficeSm_E" = 20954.89   $ Sizing
 "ClCap_Sys_L_OfficeSm_N" = 11883.36   $ Sizing
 "ClCap_Sys_L_OfficeSm_S" = 22003.5   $ Sizing
 "ClCap_Sys_L_OfficeSm_W" = 24542.01   $ Sizing
 "ClCap_Sys_L_Restrm_C" = 3360.588   $ Sizing
 "ClCap_Sys_L_StorSm_C" = 1398.099   $ Sizing
 "ClCap_Sys_L_StorSm_E" = 5725.001   $ Sizing
 "ClCap_Sys_L_StorSm_N" = 3008.632   $ Sizing
 "ClCap_Sys_L_StorSm_S" = 6154.357   $ Sizing
 "ClCap_Sys_L_StorSm_W" = 6413.279   $ Sizing
 "ClCap_Sys_T_Conf_C" = 12454.76   $ Sizing
 "ClCap_Sys_T_Hall_E" = 6479.895   $ Sizing
 "ClCap_Sys_T_Hall_N" = 3233.725   $ Sizing
 "ClCap_Sys_T_Hall_S" = 7307.312   $ Sizing
 "ClCap_Sys_T_Hall_W" = 7408.784   $ Sizing
 "ClCap_Sys_T_OfficeOpn_C" = 2459.769   $ Sizing
 "ClCap_Sys_T_OfficeOpn_E" = 25644.3   $ Sizing
 "ClCap_Sys_T_OfficeOpn_N" = 15790.33   $ Sizing
 "ClCap_Sys_T_OfficeOpn_S" = 28321.41   $ Sizing
 "ClCap_Sys_T_OfficeOpn_W" = 29837.06   $ Sizing
 "ClCap_Sys_T_OfficeSm_E" = 22156   $ Sizing
 "ClCap_Sys_T_OfficeSm_N" = 12630.6   $ Sizing
 "ClCap_Sys_T_OfficeSm_S" = 24527.08   $ Sizing
 "ClCap_Sys_T_OfficeSm_W" = 26019.68   $ Sizing
 "ClCap_Sys_T_Restrm_C" = 4566.309   $ Sizing
 "ClCap_Sys_T_StorSm_E" = 6613.047   $ Sizing
 "ClCap_Sys_T_StorSm_N" = 3524.018   $ Sizing
 "ClCap_Sys_T_StorSm_S" = 7490.614   $ Sizing
 "ClCap_Sys_T_StorSm_W" = 7596.323   $ Sizing
 "HtCap_Sys_L_Break_C" = -26563.62   $ Sizing
 "HtCap_Sys_L_CompDC_C" = -9198.879   $ Sizing
 "HtCap_Sys_L_Conf_C" = -15858.67   $ Sizing
 "HtCap_Sys_L_CopyRm_C" = -5547.26   $ Sizing
 "HtCap_Sys_L_Hall_E" = -6942.823   $ Sizing
 "HtCap_Sys_L_Hall_N" = -3028.383   $ Sizing
 "HtCap_Sys_L_Hall_S" = -7261.287   $ Sizing
 "HtCap_Sys_L_Hall_W" = -6929.27   $ Sizing
 "HtCap_Sys_L_LobWait_E" = -15354.93   $ Sizing
 "HtCap_Sys_L_LobWait_N" = -8985.978   $ Sizing
 "HtCap_Sys_L_LobWait_S" = -17058.22   $ Sizing
 "HtCap_Sys_L_LobWait_W" = -16746.58   $ Sizing
 "HtCap_Sys_L_MechElec_C" = -4257.769   $ Sizing
 "HtCap_Sys_L_OfficeOpn_C" = -3253.914   $ Sizing
 "HtCap_Sys_L_OfficeOpn_E" = -27605.22   $ Sizing
 "HtCap_Sys_L_OfficeOpn_N" = -16611.07   $ Sizing
 "HtCap_Sys_L_OfficeOpn_S" = -28148.92   $ Sizing
 "HtCap_Sys_L_OfficeOpn_W" = -28944.85   $ Sizing
 "HtCap_Sys_L_OfficeSm_E" = -24423.21   $ Sizing
 "HtCap_Sys_L_OfficeSm_N" = -12752.15   $ Sizing
 "HtCap_Sys_L_OfficeSm_S" = -24905.74   $ Sizing
 "HtCap_Sys_L_OfficeSm_W" = -25843.55   $ Sizing
 "HtCap_Sys_L_Restrm_C" = -3714.183   $ Sizing
 "HtCap_Sys_L_StorSm_C" = -1740.302   $ Sizing
 "HtCap_Sys_L_StorSm_E" = -6676.732   $ Sizing
 "HtCap_Sys_L_StorSm_N" = -3542.342   $ Sizing
 "HtCap_Sys_L_StorSm_S" = -6992.748   $ Sizing
 "HtCap_Sys_L_StorSm_W" = -6673.722   $ Sizing
 "HtCap_Sys_T_Conf_C" = -15807.36   $ Sizing
 "HtCap_Sys_T_Hall_E" = -7731.764   $ Sizing
 "HtCap_Sys_T_Hall_N" = -3800.325   $ Sizing
 "HtCap_Sys_T_Hall_S" = -8750.899   $ Sizing
 "HtCap_Sys_T_Hall_W" = -8038.172   $ Sizing
 "HtCap_Sys_T_OfficeOpn_C" = -3091.939   $ Sizing
 "HtCap_Sys_T_OfficeOpn_E" = -29597.14   $ Sizing
 "HtCap_Sys_T_OfficeOpn_N" = -18825.87   $ Sizing
 "HtCap_Sys_T_OfficeOpn_S" = -31184.83   $ Sizing
 "HtCap_Sys_T_OfficeOpn_W" = -31477.67   $ Sizing
 "HtCap_Sys_T_OfficeSm_E" = -26023.23   $ Sizing
 "HtCap_Sys_T_OfficeSm_N" = -14709.82   $ Sizing
 "HtCap_Sys_T_OfficeSm_S" = -27889.13   $ Sizing
 "HtCap_Sys_T_OfficeSm_W" = -26967.82   $ Sizing
 "HtCap_Sys_T_Restrm_C" = -5382.411   $ Sizing
 "HtCap_Sys_T_StorSm_E" = -7854.458   $ Sizing
 "HtCap_Sys_T_StorSm_N" = -4733.272   $ Sizing
 "HtCap_Sys_T_StorSm_S" = -8121.022   $ Sizing
 "HtCap_Sys_T_StorSm_W" = -8413.069   $ Sizing
..

##include Templates\OfS_DX_SZ.inp
END ..
COMPUTE ..
STOP ..
