INPUT ..

##fileprefix C:\Users\jglasskatz\MASControl3\
##set1 IsSizing FALSE
##set1 CoolType DX
##set1 HeatType FURNACE
##set1 EU_HrRepVar 0
##set1 BldgVint 1996
##set1 BldgLoc CZ01

 ##set1 mBFMult 1   $ IP Tech: RefgChg-NRes-Std

PARAMETER
 "AltFactor" = 1.00753   $ IP Non-Tech
 "BF_fFlow" = SpltAC1Sp-ge45_BF_fFlow   $ Msr (Multi)TechID: StdNResSplitAC-45to55
 "BF_fT" = SpltAC1Sp-ge45_BF_fT   $ Msr (Multi)TechID: StdNResSplitAC-45to55
 "BldgEconoFlag" = 1   $ IP Non-Tech
 "Break_EWSF" = 1   $ IP Non-Tech
 "Break_LWSF" = 1.1   $ IP Non-Tech
 "CDD_DBHi10" = 65   $ IP Non-Tech
 "CDD_DBHi7" = 68   $ IP Non-Tech
 "CDD_DBHi8" = 66   $ IP Non-Tech
 "CDD_DBHi9" = 77   $ IP Non-Tech
 "CDD_DBRange10" = 17   $ IP Non-Tech
 "CDD_DBRange7" = 11   $ IP Non-Tech
 "CDD_DBRange8" = 10   $ IP Non-Tech
 "CDD_DBRange9" = 29   $ IP Non-Tech
 "CDD_Day10" = 15   $ IP Non-Tech
 "CDD_Day7" = 16   $ IP Non-Tech
 "CDD_Day8" = 20   $ IP Non-Tech
 "CDD_Day9" = 17   $ IP Non-Tech
 "CDD_HrHi10" = 12   $ IP Non-Tech
 "CDD_HrHi7" = 12   $ IP Non-Tech
 "CDD_HrHi8" = 13   $ IP Non-Tech
 "CDD_HrHi9" = 17   $ IP Non-Tech
 "CDD_HrLo10" = 6   $ IP Non-Tech
 "CDD_HrLo7" = 3   $ IP Non-Tech
 "CDD_HrLo8" = 8   $ IP Non-Tech
 "CDD_HrLo9" = 4   $ IP Non-Tech
 "CDD_WB10" = 57.53039551   $ IP Non-Tech
 "CDD_WB7" = 59.29250717   $ IP Non-Tech
 "CDD_WB8" = 60.75350189   $ IP Non-Tech
 "CDD_WB9" = 61.08643341   $ IP Non-Tech
 "CEIR_fPLR_Hot" = SpltAC1Sp-ge45_CEIR_fPLR_Hot   $ Msr (Multi)TechID: StdNResSplitAC-45to55
 "CEIR_fPLR_Mod" = SpltAC1Sp-ge45_CEIR_fPLR_Mod   $ Msr (Multi)TechID: StdNResSplitAC-45to55
 "CEIR_fPLR_Tem" = SpltAC1Sp-ge45_CEIR_fPLR_Tem   $ Msr (Multi)TechID: StdNResSplitAC-45to55
 "CLoss_fPLR_Hot" = SpltAC1Sp-ge45_CLoss_fPLR_Hot   $ Msr (Multi)TechID: StdNResSplitAC-45to55
 "CLoss_fPLR_Mod" = SpltAC1Sp-ge45_CLoss_fPLR_Mod   $ Msr (Multi)TechID: StdNResSplitAC-45to55
 "CLoss_fPLR_Tem" = SpltAC1Sp-ge45_CLoss_fPLR_Tem   $ Msr (Multi)TechID: StdNResSplitAC-45to55
 "COP47" = 0   $ Msr (Multi)TechID: StdNResSplitAC-45to55
 "CZ_Category" = Tem   $ IP Non-Tech
 "CapRange" = ge45   $ Msr (Multi)TechID: StdNResSplitAC-45to55
 "CfmPerBtuh" = 0.03263   $ Msr (Multi)TechID: StdNResSplitAC-45to55
 "ChwVintEconoFlag" = 1   $ IP Non-Tech
 "ClCap_fT" = SpltAC1Sp-ge45_ClCap_fT   $ Msr (Multi)TechID: StdNResSplitAC-45to55
 "ClSH_fT" = SpltAC1Sp-ge45_ClSH_fT   $ Msr (Multi)TechID: StdNResSplitAC-45to55
 "CoilBF" = 0.106518182   $ Msr (Multi)TechID: StdNResSplitAC-45to55
 "CompRoomData_EWSF" = 5.25   $ IP Non-Tech
 "CompRoomData_LWSF" = 1.2   $ IP Non-Tech
 "CondWPerBtuh" = 0   $ Msr (Multi)TechID: StdNResSplitAC-45to55
 "Conference_EWSF" = 1.05   $ IP Non-Tech
 "Conference_LWSF" = 1.4   $ IP Non-Tech
 "CoolSensCap" = 0.759218182   $ Msr (Multi)TechID: StdNResSplitAC-45to55
 "CoolSetT" = 45   $ IP Non-Tech
 "CoolType" = DX   $ IP Non-Tech
 "CoolingEIR" = 0.2466   $ Msr (Multi)TechID: StdNResSplitAC-45to55
 "CopyRoom_EWSF" = 1.575   $ IP Non-Tech
 "CopyRoom_LWSF" = 1.3   $ IP Non-Tech
 "CrnkEIR" = 0.002466   $ Msr (Multi)TechID: StdNResSplitAC-45to55
 "CrnkMaxT" = 50   $ Msr (Multi)TechID: StdNResSplitAC-45to55
 "DXType" = SplitSEER   $ Msr (Multi)TechID: StdNResSplitAC-45to55
 "DesCoolT" = 75   $ IP Non-Tech
 "DesHeatT" = 73   $ IP Non-Tech
 "EER" = 11.81793103   $ Msr (Multi)TechID: StdNResSplitAC-45to55
 "EIR_fT" = SpltAC1Sp-ge45_EIR_fT   $ Msr (Multi)TechID: StdNResSplitAC-45to55
 "EconoCtrl" = FIXED   $ Msr (Multi)TechID: StdNResSplitAC-45to55
 "EconoEnthLimit" = 28   $ IP Non-Tech
 "EconoTempLimit" = 70   $ IP Non-Tech
 "Elevation" = 203   $ IP Non-Tech
 "FanEirPlr" = TwoSpeedFan   $ Msr (Multi)TechID: StdNResSplitAC-45to55
 "FanWPerCfm" = 0.294   $ Msr (Multi)TechID: StdNResSplitAC-45to55
 "HDD_CloudAmt1" = 0   $ IP Non-Tech
 "HDD_DBHi1" = 53   $ IP Non-Tech
 "HDD_DBRange1" = 20   $ IP Non-Tech
 "HDD_Day1" = 15   $ IP Non-Tech
 "HDD_HrHi1" = 14   $ IP Non-Tech
 "HDD_HrLo1" = 6   $ IP Non-Tech
 "HDD_WB1" = 42.3   $ IP Non-Tech
 "HDD_WindSpd1" = 12.7   $ IP Non-Tech
 "HIR_fT" = 0   $ Msr (Multi)TechID: StdNResSplitAC-45to55
 "HSPF" = 0   $ Msr (Multi)TechID: StdNResSplitAC-45to55
 "Hall_EWSF" = 0.21   $ IP Non-Tech
 "Hall_LWSF" = 0.6   $ IP Non-Tech
 "HeatSrc" = FURNACE   $ IP Non-Tech
 "HeatSrcTU" = HEAT-PUMP   $ IP Non-Tech
 "HeatType" = GasFurn   $ IP Non-Tech
 "HeatTypeTU" = HEAT-PUMP   $ IP Non-Tech
 "HtCap_fT" = 0   $ Msr (Multi)TechID: StdNResSplitAC-45to55
 "HtCoolCapRatio" = 0   $ Msr (Multi)TechID: StdNResSplitAC-45to55
 "HtgEIR" = 0   $ Msr (Multi)TechID: StdNResSplitAC-45to55
 "IndoorFanMode" = CONTINUOUS   $ IP Non-Tech
 "KT_TransferAir" = No   $ IP Non-Tech
 "Latitude" = 40.8   $ IP Non-Tech
 "LobbyWaiting_EWSF" = 0.5125   $ IP Non-Tech
 "LobbyWaiting_LWSF" = 1.3   $ IP Non-Tech
 "Longitude" = 124.2   $ IP Non-Tech
 "LowSpdCapRatio" = 1   $ Msr (Multi)TechID: StdNResSplitAC-45to55
 "LowSpdCfmRatio" = 1   $ Msr (Multi)TechID: StdNResSplitAC-45to55
 "MZFanMechEff" = 0.58   $ IP Non-Tech
 "MZHasRetFan" = FALSE   $ IP Non-Tech
 "MZ_RFanWPerCfm" = 0.33   $ IP Non-Tech
 "MZ_SFanWPerCfm" = 0.75   $ IP Non-Tech
 "MZ_SupFanStatic" = 2.25   $ IP Non-Tech
 "MaxOAFrac" = 1   $ Msr (Multi)TechID: StdNResSplitAC-45to55
 "MaxSupT_MZ" = 100   $ IP Non-Tech
 "MaxSupT_SZ" = 100   $ IP Non-Tech
 "MaxSupT_TU" = 90   $ IP Non-Tech
 "MechElecRoom_EWSF" = 0.21   $ IP Non-Tech
 "MechElecRoom_LWSF" = 0.7   $ IP Non-Tech
 "MinCfmPerSF" = 0.4   $ IP Non-Tech
 "MinSupT" = 55   $ IP Non-Tech
 "NumStages" = 1   $ Msr (Multi)TechID: StdNResSplitAC-45to55
 "OccCoolT" = 76   $ IP Non-Tech
 "OccHeatT" = 72   $ IP Non-Tech
 "OfficeOpen_EWSF" = 1.575   $ IP Non-Tech
 "OfficeOpen_LWSF" = 1.2   $ IP Non-Tech
 "OfficeSmall_EWSF" = 1.575   $ IP Non-Tech
 "OfficeSmall_LWSF" = 1.3   $ IP Non-Tech
 "PkgDxVintEconoFlag" = 0   $ IP Non-Tech
 "Restroom_EWSF" = 0.21   $ IP Non-Tech
 "Restroom_LWSF" = 0.6   $ IP Non-Tech
 "SEER" = 14   $ Msr (Multi)TechID: StdNResSplitAC-45to55
 "SZFanMechEff" = 0.58   $ IP Non-Tech
 "SZHasRetFan" = FALSE   $ IP Non-Tech
 "SZ_Is_2Spd" = FALSE   $ IP Non-Tech
 "SZ_SFanWPerCfm" = 0.46   $ IP Non-Tech
 "SZ_SupFanStatic" = 0.75   $ IP Non-Tech
 "Sector" = Any   $ Msr (Multi)TechID: StdNResSplitAC-45to55
 "StorageSmlCond_EWSF" = 0.21   $ IP Non-Tech
 "StorageSmlCond_LWSF" = 0.6   $ IP Non-Tech
 "SubType" = AC   $ Msr (Multi)TechID: StdNResSplitAC-45to55
 "T24GlzTbl" = CZTbl   $ IP Non-Tech
 "TermUnitFanMechEff" = 1   $ IP Non-Tech
 "TermUnitFanMode" = INTERMITTENT   $ IP Non-Tech
 "TotCoolCap" = 52519.36364   $ Msr (Multi)TechID: StdNResSplitAC-45to55
 "TwrSetpt" = 80   $ IP Non-Tech
 "UnocCoolT" = 86   $ IP Non-Tech
 "UnocHeatT" = 62   $ IP Non-Tech
 "UseEconoVintApplic" = FALSE   $ Msr (Multi)TechID: StdNResSplitAC-45to55
 "WlhpVintEconoFlag" = 0   $ IP Non-Tech
 "DuctDT" = 1   $ IP Tech: ComDuctInsul-1
 "DuctAirLoss" = 0   $ IP Tech: ComDuctLeak-0
 "DuctLossOAFrac" = 0   $ IP Tech: ComDuctLeak-0
 "ComRoofInsCalc" = FromUo   $ IP Tech: ComRoofIns-WFrm-0.06
 "ComRoofInsR" = -999   $ IP Tech: ComRoofIns-WFrm-0.06
 "ComRoofUo" = 0.06   $ IP Tech: ComRoofIns-WFrm-0.06
 "ComEWInsCalc" = FromUo   $ IP Tech: ComWallIns-WFrm-0.08
 "ComEWInsR" = -999   $ IP Tech: ComWallIns-WFrm-0.08
 "ComEWUo" = 0.08   $ IP Tech: ComWallIns-WFrm-0.08
 "ComN_SHGC" = 0.77   $ IP Tech: NResWin-ComN-0.77-0.77
 "ComN_UFactor" = 0.77   $ IP Tech: NResWin-ComN-0.77-0.77
 "ComN_VisTrans" = 0.81   $ IP Tech: NResWin-ComN-0.77-0.77
 "ComN_WinCode" = G2000   $ IP Tech: NResWin-ComN-0.77-0.77
 "ComN_WinFrmFrac" = 0.17   $ IP Tech: NResWin-ComN-0.77-0.77
 "ComN_WinFrmU" = 1   $ IP Tech: NResWin-ComN-0.77-0.77
 "ComO_SHGC" = 0.5   $ IP Tech: NResWin-ComO-0.77-0.5
 "ComO_UFactor" = 0.77   $ IP Tech: NResWin-ComO-0.77-0.5
 "ComO_VisTrans" = 0.77   $ IP Tech: NResWin-ComO-0.77-0.5
 "ComO_WinCode" = G2630   $ IP Tech: NResWin-ComO-0.77-0.5
 "ComO_WinFrmFrac" = 0.17   $ IP Tech: NResWin-ComO-0.77-0.5
 "ComO_WinFrmU" = 1   $ IP Tech: NResWin-ComO-0.77-0.5
 "LtgMsrApplic" = ALL   $ IP Tech: NonResLtgRefPre
 "LtgSav_CFL" = 0   $ IP Tech: NonResLtgRefPre
 "LtgSav_EX" = 0   $ IP Tech: NonResLtgRefPre
 "LtgSav_HB" = 0   $ IP Tech: NonResLtgRefPre
 "LtgSav_LF" = 0   $ IP Tech: NonResLtgRefPre
 "LtgSav_SP" = 0   $ IP Tech: NonResLtgRefPre
 "CEIR_fPLR" = PSZ65to135_CEIR_fPLR   $ IP Tech: PkgAC1SpH-65to135-E10
 "CLoss_fPLR" = PSZ65to135_CLoss_fPLR   $ IP Tech: PkgAC1SpH-65to135-E10
 "COP" = -1   $ IP Tech: PkgAC1SpH-65to135-E10
 "HtgFuel" = Gas   $ IP Tech: PkgAC1SpH-65to135-E10
 "IEER" = 11.87   $ IP Tech: PkgAC1SpH-65to135-E10
 "NominalCap" = 15   $ IP Tech: PkgAC1SpH-65to135-E10
 "RatedEER" = 10   $ IP Tech: PkgAC1SpH-65to135-E10
 "RatedSupMtrClass" = HiEff   $ IP Tech: PkgAC1SpH-65to135-E10
 "SizeRange" = 65to135   $ IP Tech: PkgAC1SpH-65to135-E10
 "SupMotEff" = 0.84   $ IP Tech: PkgAC1SpH-65to135-E10
 "Tier" = 0   $ IP Tech: PkgAC1SpH-65to135-E10
 "FanPwrMult" = 1   $ IP Tech: PkgFurn-0.80AFUE
 "FurnAFUE" = 0.8   $ IP Tech: PkgFurn-0.80AFUE
 "FurnEt" = 0.82   $ IP Tech: PkgFurn-0.80AFUE
 "FurnaceAuxKW" = 0.1   $ IP Tech: PkgFurn-0.80AFUE
 "HIR_fPLR" = Furnace-HIR-fPLR   $ IP Tech: PkgFurn-0.80AFUE
 "VSM" = FALSE   $ IP Tech: PkgFurn-0.80AFUE
 "BFMult" = 1   $ IP Tech: RefgChg-NRes-Std
 "CoolEirMult" = 1   $ IP Tech: RefgChg-NRes-Std
 "SensCoolCapMult" = 1   $ IP Tech: RefgChg-NRes-Std
 "TotCoolCapMult" = 1   $ IP Tech: RefgChg-NRes-Std
 "AltAdjFactor" = 1.007532   $ Sizing
 "CAssFlo_L_Break_CZn" = 286.2588   $ Sizing
 "CAssFlo_L_CompDC_CZn" = 172.8801   $ Sizing
 "CAssFlo_L_Conf_CZn" = 214.7583   $ Sizing
 "CAssFlo_L_CopyRm_CZn" = 67.27909   $ Sizing
 "CAssFlo_L_Hall_EZn" = 134.428   $ Sizing
 "CAssFlo_L_Hall_NZn" = 62.66664   $ Sizing
 "CAssFlo_L_Hall_SZn" = 153.5215   $ Sizing
 "CAssFlo_L_Hall_WZn" = 136.138   $ Sizing
 "CAssFlo_L_LobWait_EZn" = 321.5027   $ Sizing
 "CAssFlo_L_LobWait_NZn" = 132.0883   $ Sizing
 "CAssFlo_L_LobWait_SZn" = 357.834   $ Sizing
 "CAssFlo_L_LobWait_WZn" = 315.8538   $ Sizing
 "CAssFlo_L_MechElec_CZn" = 65.93681   $ Sizing
 "CAssFlo_L_OfficeOpn_CZn" = 69.66267   $ Sizing
 "CAssFlo_L_OfficeOpn_EZn" = 626.8414   $ Sizing
 "CAssFlo_L_OfficeOpn_NZn" = 259.6965   $ Sizing
 "CAssFlo_L_OfficeOpn_SZn" = 641.6945   $ Sizing
 "CAssFlo_L_OfficeOpn_WZn" = 583.8695   $ Sizing
 "CAssFlo_L_OfficeSm_EZn" = 535.8766   $ Sizing
 "CAssFlo_L_OfficeSm_NZn" = 200.8454   $ Sizing
 "CAssFlo_L_OfficeSm_SZn" = 570.8   $ Sizing
 "CAssFlo_L_OfficeSm_WZn" = 515.525   $ Sizing
 "CAssFlo_L_Restrm_CZn" = 86.07105   $ Sizing
 "CAssFlo_L_StorSm_CZn" = 31.19705   $ Sizing
 "CAssFlo_L_StorSm_EZn" = 129.5694   $ Sizing
 "CAssFlo_L_StorSm_NZn" = 71.49674   $ Sizing
 "CAssFlo_L_StorSm_SZn" = 142.2147   $ Sizing
 "CAssFlo_L_StorSm_WZn" = 124.8552   $ Sizing
 "CAssFlo_T_Conf_CZn" = 214.5898   $ Sizing
 "CAssFlo_T_Hall_EZn" = 153.319   $ Sizing
 "CAssFlo_T_Hall_NZn" = 59.6981   $ Sizing
 "CAssFlo_T_Hall_SZn" = 177.9366   $ Sizing
 "CAssFlo_T_Hall_WZn" = 149.3304   $ Sizing
 "CAssFlo_T_OfficeOpn_CZn" = 60.69881   $ Sizing
 "CAssFlo_T_OfficeOpn_EZn" = 631.3135   $ Sizing
 "CAssFlo_T_OfficeOpn_NZn" = 284.6841   $ Sizing
 "CAssFlo_T_OfficeOpn_SZn" = 690.4081   $ Sizing
 "CAssFlo_T_OfficeOpn_WZn" = 584.4481   $ Sizing
 "CAssFlo_T_OfficeSm_EZn" = 548.8466   $ Sizing
 "CAssFlo_T_OfficeSm_NZn" = 223.7941   $ Sizing
 "CAssFlo_T_OfficeSm_SZn" = 619.4262   $ Sizing
 "CAssFlo_T_OfficeSm_WZn" = 528.9764   $ Sizing
 "CAssFlo_T_Restrm_CZn" = 91.19086   $ Sizing
 "CAssFlo_T_StorSm_EZn" = 148.5127   $ Sizing
 "CAssFlo_T_StorSm_NZn" = 71.0703   $ Sizing
 "CAssFlo_T_StorSm_SZn" = 169.3911   $ Sizing
 "CAssFlo_T_StorSm_WZn" = 145.3061   $ Sizing
 "CHRtFlo_Sys_L_Break_C" = 286.2588   $ Sizing
 "CHRtFlo_Sys_L_CompDC_C" = 172.8801   $ Sizing
 "CHRtFlo_Sys_L_Conf_C" = 214.7583   $ Sizing
 "CHRtFlo_Sys_L_CopyRm_C" = 67.27909   $ Sizing
 "CHRtFlo_Sys_L_Hall_E" = 134.428   $ Sizing
 "CHRtFlo_Sys_L_Hall_N" = 62.66664   $ Sizing
 "CHRtFlo_Sys_L_Hall_S" = 153.5215   $ Sizing
 "CHRtFlo_Sys_L_Hall_W" = 136.138   $ Sizing
 "CHRtFlo_Sys_L_LobWait_E" = 321.5027   $ Sizing
 "CHRtFlo_Sys_L_LobWait_N" = 132.0883   $ Sizing
 "CHRtFlo_Sys_L_LobWait_S" = 357.834   $ Sizing
 "CHRtFlo_Sys_L_LobWait_W" = 315.8538   $ Sizing
 "CHRtFlo_Sys_L_MechElec_C" = 65.93681   $ Sizing
 "CHRtFlo_Sys_L_OfficeOpn_C" = 69.66267   $ Sizing
 "CHRtFlo_Sys_L_OfficeOpn_E" = 626.8414   $ Sizing
 "CHRtFlo_Sys_L_OfficeOpn_N" = 259.6965   $ Sizing
 "CHRtFlo_Sys_L_OfficeOpn_S" = 641.6945   $ Sizing
 "CHRtFlo_Sys_L_OfficeOpn_W" = 583.8695   $ Sizing
 "CHRtFlo_Sys_L_OfficeSm_E" = 535.8766   $ Sizing
 "CHRtFlo_Sys_L_OfficeSm_N" = 200.8454   $ Sizing
 "CHRtFlo_Sys_L_OfficeSm_S" = 570.8   $ Sizing
 "CHRtFlo_Sys_L_OfficeSm_W" = 515.525   $ Sizing
 "CHRtFlo_Sys_L_Restrm_C" = 86.07105   $ Sizing
 "CHRtFlo_Sys_L_StorSm_C" = 31.19705   $ Sizing
 "CHRtFlo_Sys_L_StorSm_E" = 129.5694   $ Sizing
 "CHRtFlo_Sys_L_StorSm_N" = 71.49674   $ Sizing
 "CHRtFlo_Sys_L_StorSm_S" = 142.2147   $ Sizing
 "CHRtFlo_Sys_L_StorSm_W" = 124.8552   $ Sizing
 "CHRtFlo_Sys_T_Conf_C" = 214.5898   $ Sizing
 "CHRtFlo_Sys_T_Hall_E" = 153.319   $ Sizing
 "CHRtFlo_Sys_T_Hall_N" = 59.6981   $ Sizing
 "CHRtFlo_Sys_T_Hall_S" = 177.9366   $ Sizing
 "CHRtFlo_Sys_T_Hall_W" = 149.3304   $ Sizing
 "CHRtFlo_Sys_T_OfficeOpn_C" = 60.69881   $ Sizing
 "CHRtFlo_Sys_T_OfficeOpn_E" = 631.3135   $ Sizing
 "CHRtFlo_Sys_T_OfficeOpn_N" = 284.6841   $ Sizing
 "CHRtFlo_Sys_T_OfficeOpn_S" = 690.4081   $ Sizing
 "CHRtFlo_Sys_T_OfficeOpn_W" = 584.4481   $ Sizing
 "CHRtFlo_Sys_T_OfficeSm_E" = 548.8466   $ Sizing
 "CHRtFlo_Sys_T_OfficeSm_N" = 223.7941   $ Sizing
 "CHRtFlo_Sys_T_OfficeSm_S" = 619.4262   $ Sizing
 "CHRtFlo_Sys_T_OfficeSm_W" = 528.9764   $ Sizing
 "CHRtFlo_Sys_T_Restrm_C" = 91.19086   $ Sizing
 "CHRtFlo_Sys_T_StorSm_E" = 148.5127   $ Sizing
 "CHRtFlo_Sys_T_StorSm_N" = 71.0703   $ Sizing
 "CHRtFlo_Sys_T_StorSm_S" = 169.3911   $ Sizing
 "CHRtFlo_Sys_T_StorSm_W" = 145.3061   $ Sizing
 "CRtdFlo_Sys_L_Break_C" = 286.2588   $ Sizing
 "CRtdFlo_Sys_L_CompDC_C" = 172.8801   $ Sizing
 "CRtdFlo_Sys_L_Conf_C" = 214.7583   $ Sizing
 "CRtdFlo_Sys_L_CopyRm_C" = 67.27909   $ Sizing
 "CRtdFlo_Sys_L_Hall_E" = 134.428   $ Sizing
 "CRtdFlo_Sys_L_Hall_N" = 62.66664   $ Sizing
 "CRtdFlo_Sys_L_Hall_S" = 153.5215   $ Sizing
 "CRtdFlo_Sys_L_Hall_W" = 136.138   $ Sizing
 "CRtdFlo_Sys_L_LobWait_E" = 321.5027   $ Sizing
 "CRtdFlo_Sys_L_LobWait_N" = 132.0883   $ Sizing
 "CRtdFlo_Sys_L_LobWait_S" = 357.834   $ Sizing
 "CRtdFlo_Sys_L_LobWait_W" = 315.8538   $ Sizing
 "CRtdFlo_Sys_L_MechElec_C" = 65.93681   $ Sizing
 "CRtdFlo_Sys_L_OfficeOpn_C" = 69.66267   $ Sizing
 "CRtdFlo_Sys_L_OfficeOpn_E" = 626.8414   $ Sizing
 "CRtdFlo_Sys_L_OfficeOpn_N" = 259.6965   $ Sizing
 "CRtdFlo_Sys_L_OfficeOpn_S" = 641.6945   $ Sizing
 "CRtdFlo_Sys_L_OfficeOpn_W" = 583.8695   $ Sizing
 "CRtdFlo_Sys_L_OfficeSm_E" = 535.8766   $ Sizing
 "CRtdFlo_Sys_L_OfficeSm_N" = 200.8454   $ Sizing
 "CRtdFlo_Sys_L_OfficeSm_S" = 570.8   $ Sizing
 "CRtdFlo_Sys_L_OfficeSm_W" = 515.525   $ Sizing
 "CRtdFlo_Sys_L_Restrm_C" = 86.07105   $ Sizing
 "CRtdFlo_Sys_L_StorSm_C" = 31.19705   $ Sizing
 "CRtdFlo_Sys_L_StorSm_E" = 129.5694   $ Sizing
 "CRtdFlo_Sys_L_StorSm_N" = 71.49674   $ Sizing
 "CRtdFlo_Sys_L_StorSm_S" = 142.2147   $ Sizing
 "CRtdFlo_Sys_L_StorSm_W" = 124.8552   $ Sizing
 "CRtdFlo_Sys_T_Conf_C" = 214.5898   $ Sizing
 "CRtdFlo_Sys_T_Hall_E" = 153.319   $ Sizing
 "CRtdFlo_Sys_T_Hall_N" = 59.6981   $ Sizing
 "CRtdFlo_Sys_T_Hall_S" = 177.9366   $ Sizing
 "CRtdFlo_Sys_T_Hall_W" = 149.3304   $ Sizing
 "CRtdFlo_Sys_T_OfficeOpn_C" = 60.69881   $ Sizing
 "CRtdFlo_Sys_T_OfficeOpn_E" = 631.3135   $ Sizing
 "CRtdFlo_Sys_T_OfficeOpn_N" = 284.6841   $ Sizing
 "CRtdFlo_Sys_T_OfficeOpn_S" = 690.4081   $ Sizing
 "CRtdFlo_Sys_T_OfficeOpn_W" = 584.4481   $ Sizing
 "CRtdFlo_Sys_T_OfficeSm_E" = 548.8466   $ Sizing
 "CRtdFlo_Sys_T_OfficeSm_N" = 223.7941   $ Sizing
 "CRtdFlo_Sys_T_OfficeSm_S" = 619.4262   $ Sizing
 "CRtdFlo_Sys_T_OfficeSm_W" = 528.9764   $ Sizing
 "CRtdFlo_Sys_T_Restrm_C" = 91.19086   $ Sizing
 "CRtdFlo_Sys_T_StorSm_E" = 148.5127   $ Sizing
 "CRtdFlo_Sys_T_StorSm_N" = 71.0703   $ Sizing
 "CRtdFlo_Sys_T_StorSm_S" = 169.3911   $ Sizing
 "CRtdFlo_Sys_T_StorSm_W" = 145.3061   $ Sizing
 "CSupFlo_Sys_L_Break_C" = 286.2588   $ Sizing
 "CSupFlo_Sys_L_CompDC_C" = 172.8801   $ Sizing
 "CSupFlo_Sys_L_Conf_C" = 214.7583   $ Sizing
 "CSupFlo_Sys_L_CopyRm_C" = 67.27909   $ Sizing
 "CSupFlo_Sys_L_Hall_E" = 134.428   $ Sizing
 "CSupFlo_Sys_L_Hall_N" = 62.66664   $ Sizing
 "CSupFlo_Sys_L_Hall_S" = 153.5215   $ Sizing
 "CSupFlo_Sys_L_Hall_W" = 136.138   $ Sizing
 "CSupFlo_Sys_L_LobWait_E" = 321.5027   $ Sizing
 "CSupFlo_Sys_L_LobWait_N" = 132.0883   $ Sizing
 "CSupFlo_Sys_L_LobWait_S" = 357.834   $ Sizing
 "CSupFlo_Sys_L_LobWait_W" = 315.8538   $ Sizing
 "CSupFlo_Sys_L_MechElec_C" = 65.93681   $ Sizing
 "CSupFlo_Sys_L_OfficeOpn_C" = 69.66267   $ Sizing
 "CSupFlo_Sys_L_OfficeOpn_E" = 626.8414   $ Sizing
 "CSupFlo_Sys_L_OfficeOpn_N" = 259.6965   $ Sizing
 "CSupFlo_Sys_L_OfficeOpn_S" = 641.6945   $ Sizing
 "CSupFlo_Sys_L_OfficeOpn_W" = 583.8695   $ Sizing
 "CSupFlo_Sys_L_OfficeSm_E" = 535.8766   $ Sizing
 "CSupFlo_Sys_L_OfficeSm_N" = 200.8454   $ Sizing
 "CSupFlo_Sys_L_OfficeSm_S" = 570.8   $ Sizing
 "CSupFlo_Sys_L_OfficeSm_W" = 515.525   $ Sizing
 "CSupFlo_Sys_L_Restrm_C" = 86.07105   $ Sizing
 "CSupFlo_Sys_L_StorSm_C" = 31.19705   $ Sizing
 "CSupFlo_Sys_L_StorSm_E" = 129.5694   $ Sizing
 "CSupFlo_Sys_L_StorSm_N" = 71.49674   $ Sizing
 "CSupFlo_Sys_L_StorSm_S" = 142.2147   $ Sizing
 "CSupFlo_Sys_L_StorSm_W" = 124.8552   $ Sizing
 "CSupFlo_Sys_T_Conf_C" = 214.5898   $ Sizing
 "CSupFlo_Sys_T_Hall_E" = 153.319   $ Sizing
 "CSupFlo_Sys_T_Hall_N" = 59.6981   $ Sizing
 "CSupFlo_Sys_T_Hall_S" = 177.9366   $ Sizing
 "CSupFlo_Sys_T_Hall_W" = 149.3304   $ Sizing
 "CSupFlo_Sys_T_OfficeOpn_C" = 60.69881   $ Sizing
 "CSupFlo_Sys_T_OfficeOpn_E" = 631.3135   $ Sizing
 "CSupFlo_Sys_T_OfficeOpn_N" = 284.6841   $ Sizing
 "CSupFlo_Sys_T_OfficeOpn_S" = 690.4081   $ Sizing
 "CSupFlo_Sys_T_OfficeOpn_W" = 584.4481   $ Sizing
 "CSupFlo_Sys_T_OfficeSm_E" = 548.8466   $ Sizing
 "CSupFlo_Sys_T_OfficeSm_N" = 223.7941   $ Sizing
 "CSupFlo_Sys_T_OfficeSm_S" = 619.4262   $ Sizing
 "CSupFlo_Sys_T_OfficeSm_W" = 528.9764   $ Sizing
 "CSupFlo_Sys_T_Restrm_C" = 91.19086   $ Sizing
 "CSupFlo_Sys_T_StorSm_E" = 148.5127   $ Sizing
 "CSupFlo_Sys_T_StorSm_N" = 71.0703   $ Sizing
 "CSupFlo_Sys_T_StorSm_S" = 169.3911   $ Sizing
 "CSupFlo_Sys_T_StorSm_W" = 145.3061   $ Sizing
 "ClCap_Sys_L_Break_C" = 9741.215   $ Sizing
 "ClCap_Sys_L_CompDC_C" = 5883.005   $ Sizing
 "ClCap_Sys_L_Conf_C" = 9301.216   $ Sizing
 "ClCap_Sys_L_CopyRm_C" = 2289.467   $ Sizing
 "ClCap_Sys_L_Hall_E" = 4574.505   $ Sizing
 "ClCap_Sys_L_Hall_N" = 2132.508   $ Sizing
 "ClCap_Sys_L_Hall_S" = 5224.243   $ Sizing
 "ClCap_Sys_L_Hall_W" = 4632.694   $ Sizing
 "ClCap_Sys_L_LobWait_E" = 10940.55   $ Sizing
 "ClCap_Sys_L_LobWait_N" = 4494.886   $ Sizing
 "ClCap_Sys_L_LobWait_S" = 12176.88   $ Sizing
 "ClCap_Sys_L_LobWait_W" = 10748.31   $ Sizing
 "ClCap_Sys_L_MechElec_C" = 2243.79   $ Sizing
 "ClCap_Sys_L_OfficeOpn_C" = 2370.579   $ Sizing
 "ClCap_Sys_L_OfficeOpn_E" = 21331.04   $ Sizing
 "ClCap_Sys_L_OfficeOpn_N" = 8837.316   $ Sizing
 "ClCap_Sys_L_OfficeOpn_S" = 21836.48   $ Sizing
 "ClCap_Sys_L_OfficeOpn_W" = 19868.73   $ Sizing
 "ClCap_Sys_L_OfficeSm_E" = 18235.56   $ Sizing
 "ClCap_Sys_L_OfficeSm_N" = 6834.649   $ Sizing
 "ClCap_Sys_L_OfficeSm_S" = 19423.98   $ Sizing
 "ClCap_Sys_L_OfficeSm_W" = 17543.01   $ Sizing
 "ClCap_Sys_L_Restrm_C" = 2928.947   $ Sizing
 "ClCap_Sys_L_StorSm_C" = 1061.617   $ Sizing
 "ClCap_Sys_L_StorSm_E" = 4409.17   $ Sizing
 "ClCap_Sys_L_StorSm_N" = 2432.991   $ Sizing
 "ClCap_Sys_L_StorSm_S" = 4839.481   $ Sizing
 "ClCap_Sys_L_StorSm_W" = 4248.748   $ Sizing
 "ClCap_Sys_T_Conf_C" = 9293.915   $ Sizing
 "ClCap_Sys_T_Hall_E" = 5217.355   $ Sizing
 "ClCap_Sys_T_Hall_N" = 2031.491   $ Sizing
 "ClCap_Sys_T_Hall_S" = 6055.077   $ Sizing
 "ClCap_Sys_T_Hall_W" = 5081.624   $ Sizing
 "ClCap_Sys_T_OfficeOpn_C" = 2065.544   $ Sizing
 "ClCap_Sys_T_OfficeOpn_E" = 21483.22   $ Sizing
 "ClCap_Sys_T_OfficeOpn_N" = 9687.631   $ Sizing
 "ClCap_Sys_T_OfficeOpn_S" = 23494.17   $ Sizing
 "ClCap_Sys_T_OfficeOpn_W" = 19888.42   $ Sizing
 "ClCap_Sys_T_OfficeSm_E" = 18676.92   $ Sizing
 "ClCap_Sys_T_OfficeSm_N" = 7615.581   $ Sizing
 "ClCap_Sys_T_OfficeSm_S" = 21078.7   $ Sizing
 "ClCap_Sys_T_OfficeSm_W" = 18000.75   $ Sizing
 "ClCap_Sys_T_Restrm_C" = 3103.171   $ Sizing
 "ClCap_Sys_T_StorSm_E" = 5053.798   $ Sizing
 "ClCap_Sys_T_StorSm_N" = 2418.48   $ Sizing
 "ClCap_Sys_T_StorSm_S" = 5764.278   $ Sizing
 "ClCap_Sys_T_StorSm_W" = 4944.679   $ Sizing
 "HtCap_Sys_L_Break_C" = -16690.92   $ Sizing
 "HtCap_Sys_L_CompDC_C" = -8413.058   $ Sizing
 "HtCap_Sys_L_Conf_C" = -12832.47   $ Sizing
 "HtCap_Sys_L_CopyRm_C" = -4266.788   $ Sizing
 "HtCap_Sys_L_Hall_E" = -4764.434   $ Sizing
 "HtCap_Sys_L_Hall_N" = -2384.821   $ Sizing
 "HtCap_Sys_L_Hall_S" = -5130.252   $ Sizing
 "HtCap_Sys_L_Hall_W" = -4693.539   $ Sizing
 "HtCap_Sys_L_LobWait_E" = -11785.91   $ Sizing
 "HtCap_Sys_L_LobWait_N" = -6075.778   $ Sizing
 "HtCap_Sys_L_LobWait_S" = -12818.38   $ Sizing
 "HtCap_Sys_L_LobWait_W" = -11665.58   $ Sizing
 "HtCap_Sys_L_MechElec_C" = -2995.628   $ Sizing
 "HtCap_Sys_L_OfficeOpn_C" = -2708.838   $ Sizing
 "HtCap_Sys_L_OfficeOpn_E" = -21633.59   $ Sizing
 "HtCap_Sys_L_OfficeOpn_N" = -11061.99   $ Sizing
 "HtCap_Sys_L_OfficeOpn_S" = -21545.97   $ Sizing
 "HtCap_Sys_L_OfficeOpn_W" = -20631.85   $ Sizing
 "HtCap_Sys_L_OfficeSm_E" = -18371.09   $ Sizing
 "HtCap_Sys_L_OfficeSm_N" = -8312.604   $ Sizing
 "HtCap_Sys_L_OfficeSm_S" = -18620.07   $ Sizing
 "HtCap_Sys_L_OfficeSm_W" = -17534.46   $ Sizing
 "HtCap_Sys_L_Restrm_C" = -3020.552   $ Sizing
 "HtCap_Sys_L_StorSm_C" = -1319.698   $ Sizing
 "HtCap_Sys_L_StorSm_E" = -4729.399   $ Sizing
 "HtCap_Sys_L_StorSm_N" = -2988.52   $ Sizing
 "HtCap_Sys_L_StorSm_S" = -4963.226   $ Sizing
 "HtCap_Sys_L_StorSm_W" = -4618.823   $ Sizing
 "HtCap_Sys_T_Conf_C" = -13033.08   $ Sizing
 "HtCap_Sys_T_Hall_E" = -5810.563   $ Sizing
 "HtCap_Sys_T_Hall_N" = -2628.647   $ Sizing
 "HtCap_Sys_T_Hall_S" = -6592.117   $ Sizing
 "HtCap_Sys_T_Hall_W" = -5682.287   $ Sizing
 "HtCap_Sys_T_OfficeOpn_C" = -2669.081   $ Sizing
 "HtCap_Sys_T_OfficeOpn_E" = -24358.11   $ Sizing
 "HtCap_Sys_T_OfficeOpn_N" = -12741.59   $ Sizing
 "HtCap_Sys_T_OfficeOpn_S" = -25742.63   $ Sizing
 "HtCap_Sys_T_OfficeOpn_W" = -22833.41   $ Sizing
 "HtCap_Sys_T_OfficeSm_E" = -20685.19   $ Sizing
 "HtCap_Sys_T_OfficeSm_N" = -9863.121   $ Sizing
 "HtCap_Sys_T_OfficeSm_S" = -22446.77   $ Sizing
 "HtCap_Sys_T_OfficeSm_W" = -20041.76   $ Sizing
 "HtCap_Sys_T_Restrm_C" = -3634.146   $ Sizing
 "HtCap_Sys_T_StorSm_E" = -6096.797   $ Sizing
 "HtCap_Sys_T_StorSm_N" = -3425.918   $ Sizing
 "HtCap_Sys_T_StorSm_S" = -6409.422   $ Sizing
 "HtCap_Sys_T_StorSm_W" = -5980.858   $ Sizing
..

##include Templates\OfS_DX_SZ.inp
END ..
COMPUTE ..
STOP ..
