INPUT ..

##fileprefix C:\Users\jglasskatz\MASControl3\
##set1 IsSizing FALSE
##set1 CoolType DX
##set1 HeatType FURNACE
##set1 EU_HrRepVar 0
##set1 BldgVint 2011
##set1 BldgLoc CZ12

 ##set1 mBFMult 1   $ IP Tech: RefgChg-NRes-Std

PARAMETER
 "AltFactor" = 1.00062   $ IP Non-Tech
 "BF_fFlow" = SpltAC1Sp_BF_fFlow   $ Msr (Var)TechID: PreNResSplitAC-45to-PENo
 "BF_fT" = SpltAC1Sp_BF_fT   $ Msr (Var)TechID: PreNResSplitAC-45to-PENo
 "BldgEconoFlag" = 1   $ IP Non-Tech
 "Break_EWSF" = 1   $ IP Non-Tech
 "Break_LWSF" = 1.1   $ IP Non-Tech
 "CDD_DBHi10" = 83   $ IP Non-Tech
 "CDD_DBHi7" = 101   $ IP Non-Tech
 "CDD_DBHi8" = 99   $ IP Non-Tech
 "CDD_DBHi9" = 98   $ IP Non-Tech
 "CDD_DBRange10" = 23   $ IP Non-Tech
 "CDD_DBRange7" = 30   $ IP Non-Tech
 "CDD_DBRange8" = 34   $ IP Non-Tech
 "CDD_DBRange9" = 34   $ IP Non-Tech
 "CDD_Day10" = 15   $ IP Non-Tech
 "CDD_Day7" = 16   $ IP Non-Tech
 "CDD_Day8" = 20   $ IP Non-Tech
 "CDD_Day9" = 17   $ IP Non-Tech
 "CDD_HrHi10" = 14   $ IP Non-Tech
 "CDD_HrHi7" = 16   $ IP Non-Tech
 "CDD_HrHi8" = 16   $ IP Non-Tech
 "CDD_HrHi9" = 16   $ IP Non-Tech
 "CDD_HrLo10" = 3   $ IP Non-Tech
 "CDD_HrLo7" = 4   $ IP Non-Tech
 "CDD_HrLo8" = 8   $ IP Non-Tech
 "CDD_HrLo9" = 7   $ IP Non-Tech
 "CDD_WB10" = 61.40390396   $ IP Non-Tech
 "CDD_WB7" = 71.25247955   $ IP Non-Tech
 "CDD_WB8" = 68.94035339   $ IP Non-Tech
 "CDD_WB9" = 66.54764557   $ IP Non-Tech
 "CEIR_fPLR_Hot" = SpltAC1Sp_CEIR_fPLR_Hot   $ Msr (Var)TechID: PreNResSplitAC-45to-PENo
 "CEIR_fPLR_Mod" = SpltAC1Sp_CEIR_fPLR_Mod   $ Msr (Var)TechID: PreNResSplitAC-45to-PENo
 "CEIR_fPLR_Tem" = SpltAC1Sp_CEIR_fPLR_Tem   $ Msr (Var)TechID: PreNResSplitAC-45to-PENo
 "CLoss_fPLR_Hot" = SpltAC1Sp_CLoss_fPLR_Hot   $ Msr (Var)TechID: PreNResSplitAC-45to-PENo
 "CLoss_fPLR_Mod" = SpltAC1Sp_CLoss_fPLR_Mod   $ Msr (Var)TechID: PreNResSplitAC-45to-PENo
 "CLoss_fPLR_Tem" = SpltAC1Sp_CLoss_fPLR_Tem   $ Msr (Var)TechID: PreNResSplitAC-45to-PENo
 "COP47" = 0   $ Msr (Var)TechID: PreNResSplitAC-45to-PENo
 "CZ_Category" = Mod   $ IP Non-Tech
 "CapRange" = Any   $ Msr (Var)TechID: PreNResSplitAC-45to-PENo
 "CfmPerBtuh" = 0.0321   $ Msr (Var)TechID: PreNResSplitAC-45to-PENo
 "ChwVintEconoFlag" = 1   $ IP Non-Tech
 "ClCap_fT" = SpltAC1Sp_ClCap_fT   $ Msr (Var)TechID: PreNResSplitAC-45to-PENo
 "ClSH_fT" = SpltAC1Sp_ClSH_fT   $ Msr (Var)TechID: PreNResSplitAC-45to-PENo
 "CoilBF" = 0.12   $ Msr (Var)TechID: PreNResSplitAC-45to-PENo
 "CompRoomData_EWSF" = 5   $ IP Non-Tech
 "CompRoomData_LWSF" = 1.1   $ IP Non-Tech
 "CondWPerBtuh" = 0   $ Msr (Var)TechID: PreNResSplitAC-45to-PENo
 "Conference_EWSF" = 1   $ IP Non-Tech
 "Conference_LWSF" = 1.4   $ IP Non-Tech
 "CoolSensCap" = 0.744   $ Msr (Var)TechID: PreNResSplitAC-45to-PENo
 "CoolSetT" = 45   $ IP Non-Tech
 "CoolType" = DX   $ IP Non-Tech
 "CoolingEIR" = 0.25823   $ Msr (Var)TechID: PreNResSplitAC-45to-PENo
 "CopyRoom_EWSF" = 1.5   $ IP Non-Tech
 "CopyRoom_LWSF" = 1.3   $ IP Non-Tech
 "CrnkEIR" = 0.0025823   $ Msr (Var)TechID: PreNResSplitAC-45to-PENo
 "CrnkMaxT" = 50   $ Msr (Var)TechID: PreNResSplitAC-45to-PENo
 "DXType" = SplitSEER   $ Msr (Var)TechID: PreNResSplitAC-45to-PENo
 "DesCoolT" = 75   $ IP Non-Tech
 "DesHeatT" = 73   $ IP Non-Tech
 "EER" = 11.07746479   $ Msr (Var)TechID: PreNResSplitAC-45to-PENo
 "EIR_fT" = SpltAC1Sp_EIR_fT   $ Msr (Var)TechID: PreNResSplitAC-45to-PENo
 "EconoCtrl" = FIXED   $ Msr (Multi)TechID: PreNResSplitAC-45to-PENo
 "EconoEnthLimit" = 28   $ IP Non-Tech
 "EconoTempLimit" = 75   $ IP Non-Tech
 "Elevation" = 16   $ IP Non-Tech
 "FanEirPlr" = TwoSpeedFan   $ Msr (Var)TechID: PreNResSplitAC-45to-PENo
 "FanWPerCfm" = 0.348   $ Msr (Var)TechID: PreNResSplitAC-45to-PENo
 "HDD_CloudAmt1" = 0   $ IP Non-Tech
 "HDD_DBHi1" = 50   $ IP Non-Tech
 "HDD_DBRange1" = 21   $ IP Non-Tech
 "HDD_Day1" = 15   $ IP Non-Tech
 "HDD_HrHi1" = 16   $ IP Non-Tech
 "HDD_HrLo1" = 8   $ IP Non-Tech
 "HDD_WB1" = 43.9   $ IP Non-Tech
 "HDD_WindSpd1" = 13.8   $ IP Non-Tech
 "HIR_fT" = 0   $ Msr (Var)TechID: PreNResSplitAC-45to-PENo
 "HSPF" = 0   $ Msr (Var)TechID: PreNResSplitAC-45to-PENo
 "Hall_EWSF" = 0.2   $ IP Non-Tech
 "Hall_LWSF" = 0.6   $ IP Non-Tech
 "HeatSrc" = FURNACE   $ IP Non-Tech
 "HeatSrcTU" = HEAT-PUMP   $ IP Non-Tech
 "HeatType" = GasFurn   $ IP Non-Tech
 "HeatTypeTU" = HEAT-PUMP   $ IP Non-Tech
 "HtCap_fT" = 0   $ Msr (Var)TechID: PreNResSplitAC-45to-PENo
 "HtCoolCapRatio" = 0   $ Msr (Var)TechID: PreNResSplitAC-45to-PENo
 "HtgEIR" = 0   $ Msr (Var)TechID: PreNResSplitAC-45to-PENo
 "IndoorFanMode" = CONTINUOUS   $ IP Non-Tech
 "KT_TransferAir" = No   $ IP Non-Tech
 "Latitude" = 38.5   $ IP Non-Tech
 "LobbyWaiting_EWSF" = 0.5   $ IP Non-Tech
 "LobbyWaiting_LWSF" = 1.3   $ IP Non-Tech
 "Longitude" = 121.5   $ IP Non-Tech
 "LowSpdCapRatio" = 1   $ Msr (Var)TechID: PreNResSplitAC-45to-PENo
 "LowSpdCfmRatio" = 1   $ Msr (Var)TechID: PreNResSplitAC-45to-PENo
 "MZFanMechEff" = 0.58   $ IP Non-Tech
 "MZHasRetFan" = FALSE   $ IP Non-Tech
 "MZ_RFanWPerCfm" = 0.33   $ IP Non-Tech
 "MZ_SFanWPerCfm" = 0.75   $ IP Non-Tech
 "MZ_SupFanStatic" = 2.25   $ IP Non-Tech
 "MaxOAFrac" = 1   $ Msr (Multi)TechID: PreNResSplitAC-45to-PENo
 "MaxSupT_MZ" = 100   $ IP Non-Tech
 "MaxSupT_SZ" = 100   $ IP Non-Tech
 "MaxSupT_TU" = 90   $ IP Non-Tech
 "MechElecRoom_EWSF" = 0.2   $ IP Non-Tech
 "MechElecRoom_LWSF" = 0.7   $ IP Non-Tech
 "MinCfmPerSF" = 0.4   $ IP Non-Tech
 "MinSupT" = 55   $ IP Non-Tech
 "NumStages" = 1   $ Msr (Var)TechID: PreNResSplitAC-45to-PENo
 "OccCoolT" = 76   $ IP Non-Tech
 "OccHeatT" = 72   $ IP Non-Tech
 "OfficeOpen_EWSF" = 1.5   $ IP Non-Tech
 "OfficeOpen_LWSF" = 1.1   $ IP Non-Tech
 "OfficeSmall_EWSF" = 1.5   $ IP Non-Tech
 "OfficeSmall_LWSF" = 1.3   $ IP Non-Tech
 "PkgDxVintEconoFlag" = 0   $ IP Non-Tech
 "Restroom_EWSF" = 0.2   $ IP Non-Tech
 "Restroom_LWSF" = 0.6   $ IP Non-Tech
 "SEER" = 13   $ Msr (Var)TechID: PreNResSplitAC-45to-PENo
 "SZFanMechEff" = 0.58   $ IP Non-Tech
 "SZHasRetFan" = FALSE   $ IP Non-Tech
 "SZ_Is_2Spd" = FALSE   $ IP Non-Tech
 "SZ_SFanWPerCfm" = 0.46   $ IP Non-Tech
 "SZ_SupFanStatic" = 0.75   $ IP Non-Tech
 "Sector" = Any   $ Msr (Var)TechID: PreNResSplitAC-45to-PENo
 "StorageSmlCond_EWSF" = 0.2   $ IP Non-Tech
 "StorageSmlCond_LWSF" = 0.6   $ IP Non-Tech
 "SubType" = AC   $ Msr (Var)TechID: PreNResSplitAC-45to-PENo
 "T24GlzTbl" = CZTbl   $ IP Non-Tech
 "TermUnitFanMechEff" = 1   $ IP Non-Tech
 "TermUnitFanMode" = INTERMITTENT   $ IP Non-Tech
 "TotCoolCap" = 34895   $ Msr (Var)TechID: PreNResSplitAC-45to-PENo
 "TwrSetpt" = 82.3   $ IP Non-Tech
 "UnocCoolT" = 86   $ IP Non-Tech
 "UnocHeatT" = 62   $ IP Non-Tech
 "UseEconoVintApplic" = FALSE   $ Msr (Multi)TechID: PreNResSplitAC-45to-PENo
 "WlhpVintEconoFlag" = 0   $ IP Non-Tech
 "DuctDT" = 1   $ IP Tech: ComDuctInsul-1
 "DuctAirLoss" = 0   $ IP Tech: ComDuctLeak-0
 "DuctLossOAFrac" = 0   $ IP Tech: ComDuctLeak-0
 "ComRoofInsCalc" = FromUo   $ IP Tech: ComRoofIns-WFrm-0.04
 "ComRoofInsR" = -999   $ IP Tech: ComRoofIns-WFrm-0.04
 "ComRoofUo" = 0.04   $ IP Tech: ComRoofIns-WFrm-0.04
 "ComEWInsCalc" = FromUo   $ IP Tech: ComWallIns-WFrm-0.06
 "ComEWInsR" = -999   $ IP Tech: ComWallIns-WFrm-0.06
 "ComEWUo" = 0.06   $ IP Tech: ComWallIns-WFrm-0.06
 "ComN_SHGC" = 0.47   $ IP Tech: NResWin-ComN-0.47-0.47
 "ComN_UFactor" = 0.47   $ IP Tech: NResWin-ComN-0.47-0.47
 "ComN_VisTrans" = 0.75   $ IP Tech: NResWin-ComN-0.47-0.47
 "ComN_WinCode" = G2633   $ IP Tech: NResWin-ComN-0.47-0.47
 "ComN_WinFrmFrac" = 0.17   $ IP Tech: NResWin-ComN-0.47-0.47
 "ComN_WinFrmU" = 0.3   $ IP Tech: NResWin-ComN-0.47-0.47
 "ComO_SHGC" = 0.31   $ IP Tech: NResWin-ComO-0.47-0.31
 "ComO_UFactor" = 0.47   $ IP Tech: NResWin-ComO-0.47-0.31
 "ComO_VisTrans" = 0.44   $ IP Tech: NResWin-ComO-0.47-0.31
 "ComO_WinCode" = G2637   $ IP Tech: NResWin-ComO-0.47-0.31
 "ComO_WinFrmFrac" = 0.17   $ IP Tech: NResWin-ComO-0.47-0.31
 "ComO_WinFrmU" = 0.3   $ IP Tech: NResWin-ComO-0.47-0.31
 "LtgMsrApplic" = ALL   $ IP Tech: NonResLtgRefPre
 "LtgSav_CFL" = 0   $ IP Tech: NonResLtgRefPre
 "LtgSav_EX" = 0   $ IP Tech: NonResLtgRefPre
 "LtgSav_HB" = 0   $ IP Tech: NonResLtgRefPre
 "LtgSav_LF" = 0   $ IP Tech: NonResLtgRefPre
 "LtgSav_SP" = 0   $ IP Tech: NonResLtgRefPre
 "CEIR_fPLR" = PSZ65to135_CEIR_fPLR   $ IP Tech: PkgAC1SpH-65to135-E11
 "CLoss_fPLR" = PSZ65to135_CLoss_fPLR   $ IP Tech: PkgAC1SpH-65to135-E11
 "COP" = -1   $ IP Tech: PkgAC1SpH-65to135-E11
 "HtgFuel" = Gas   $ IP Tech: PkgAC1SpH-65to135-E11
 "IEER" = 13.35   $ IP Tech: PkgAC1SpH-65to135-E11
 "NominalCap" = 15   $ IP Tech: PkgAC1SpH-65to135-E11
 "RatedEER" = 11   $ IP Tech: PkgAC1SpH-65to135-E11
 "RatedSupMtrClass" = HiEff   $ IP Tech: PkgAC1SpH-65to135-E11
 "SizeRange" = 65to135   $ IP Tech: PkgAC1SpH-65to135-E11
 "SupMotEff" = 0.84   $ IP Tech: PkgAC1SpH-65to135-E11
 "Tier" = 0   $ IP Tech: PkgAC1SpH-65to135-E11
 "FanPwrMult" = 1   $ IP Tech: PkgFurn-0.80AFUE
 "FurnAFUE" = 0.8   $ IP Tech: PkgFurn-0.80AFUE
 "FurnEt" = 0.82   $ IP Tech: PkgFurn-0.80AFUE
 "FurnaceAuxKW" = 0.1   $ IP Tech: PkgFurn-0.80AFUE
 "HIR_fPLR" = Furnace-HIR-fPLR   $ IP Tech: PkgFurn-0.80AFUE
 "VSM" = FALSE   $ IP Tech: PkgFurn-0.80AFUE
 "BFMult" = 1   $ IP Tech: RefgChg-NRes-Std
 "CoolEirMult" = 1   $ IP Tech: RefgChg-NRes-Std
 "SensCoolCapMult" = 1   $ IP Tech: RefgChg-NRes-Std
 "TotCoolCapMult" = 1   $ IP Tech: RefgChg-NRes-Std
 "AltAdjFactor" = 1.000622   $ Sizing
 "CAssFlo_L_Break_CZn" = 459.2694   $ Sizing
 "CAssFlo_L_CompDC_CZn" = 148.8805   $ Sizing
 "CAssFlo_L_Conf_CZn" = 263.9205   $ Sizing
 "CAssFlo_L_CopyRm_CZn" = 94.42221   $ Sizing
 "CAssFlo_L_Hall_EZn" = 111.7482   $ Sizing
 "CAssFlo_L_Hall_NZn" = 69.59029   $ Sizing
 "CAssFlo_L_Hall_SZn" = 109.8031   $ Sizing
 "CAssFlo_L_Hall_WZn" = 122.5973   $ Sizing
 "CAssFlo_L_LobWait_EZn" = 262.7667   $ Sizing
 "CAssFlo_L_LobWait_NZn" = 185.4211   $ Sizing
 "CAssFlo_L_LobWait_SZn" = 266.0215   $ Sizing
 "CAssFlo_L_LobWait_WZn" = 306.1437   $ Sizing
 "CAssFlo_L_MechElec_CZn" = 73.30304   $ Sizing
 "CAssFlo_L_OfficeOpn_CZn" = 64.48082   $ Sizing
 "CAssFlo_L_OfficeOpn_EZn" = 479.9192   $ Sizing
 "CAssFlo_L_OfficeOpn_NZn" = 371.5734   $ Sizing
 "CAssFlo_L_OfficeOpn_SZn" = 468.0009   $ Sizing
 "CAssFlo_L_OfficeOpn_WZn" = 534.0506   $ Sizing
 "CAssFlo_L_OfficeSm_EZn" = 404.8618   $ Sizing
 "CAssFlo_L_OfficeSm_NZn" = 293.7658   $ Sizing
 "CAssFlo_L_OfficeSm_SZn" = 403.8812   $ Sizing
 "CAssFlo_L_OfficeSm_WZn" = 454.0989   $ Sizing
 "CAssFlo_L_Restrm_CZn" = 86.53407   $ Sizing
 "CAssFlo_L_StorSm_CZn" = 36.05761   $ Sizing
 "CAssFlo_L_StorSm_EZn" = 110.3008   $ Sizing
 "CAssFlo_L_StorSm_NZn" = 71.25315   $ Sizing
 "CAssFlo_L_StorSm_SZn" = 108.7773   $ Sizing
 "CAssFlo_L_StorSm_WZn" = 119.8078   $ Sizing
 "CAssFlo_T_Conf_CZn" = 253.9518   $ Sizing
 "CAssFlo_T_Hall_EZn" = 125.9314   $ Sizing
 "CAssFlo_T_Hall_NZn" = 77.8731   $ Sizing
 "CAssFlo_T_Hall_SZn" = 123.4507   $ Sizing
 "CAssFlo_T_Hall_WZn" = 135.4577   $ Sizing
 "CAssFlo_T_OfficeOpn_CZn" = 61.94986   $ Sizing
 "CAssFlo_T_OfficeOpn_EZn" = 510.7129   $ Sizing
 "CAssFlo_T_OfficeOpn_NZn" = 388.0079   $ Sizing
 "CAssFlo_T_OfficeOpn_SZn" = 503.4486   $ Sizing
 "CAssFlo_T_OfficeOpn_WZn" = 553.2232   $ Sizing
 "CAssFlo_T_OfficeSm_EZn" = 434.663   $ Sizing
 "CAssFlo_T_OfficeSm_NZn" = 311.1031   $ Sizing
 "CAssFlo_T_OfficeSm_SZn" = 435.0086   $ Sizing
 "CAssFlo_T_OfficeSm_WZn" = 471.5344   $ Sizing
 "CAssFlo_T_Restrm_CZn" = 126.3891   $ Sizing
 "CAssFlo_T_StorSm_EZn" = 129.4317   $ Sizing
 "CAssFlo_T_StorSm_NZn" = 84.48225   $ Sizing
 "CAssFlo_T_StorSm_SZn" = 128.49   $ Sizing
 "CAssFlo_T_StorSm_WZn" = 142.953   $ Sizing
 "CHRtFlo_Sys_L_Break_C" = 459.2693   $ Sizing
 "CHRtFlo_Sys_L_CompDC_C" = 175.1953   $ Sizing
 "CHRtFlo_Sys_L_Conf_C" = 263.9205   $ Sizing
 "CHRtFlo_Sys_L_CopyRm_C" = 94.42221   $ Sizing
 "CHRtFlo_Sys_L_Hall_E" = 134.7453   $ Sizing
 "CHRtFlo_Sys_L_Hall_N" = 69.59029   $ Sizing
 "CHRtFlo_Sys_L_Hall_S" = 137.0014   $ Sizing
 "CHRtFlo_Sys_L_Hall_W" = 133.6825   $ Sizing
 "CHRtFlo_Sys_L_LobWait_E" = 312.6258   $ Sizing
 "CHRtFlo_Sys_L_LobWait_N" = 185.4211   $ Sizing
 "CHRtFlo_Sys_L_LobWait_S" = 315.6704   $ Sizing
 "CHRtFlo_Sys_L_LobWait_W" = 310.7903   $ Sizing
 "CHRtFlo_Sys_L_MechElec_C" = 99.1113   $ Sizing
 "CHRtFlo_Sys_L_OfficeOpn_C" = 81.38911   $ Sizing
 "CHRtFlo_Sys_L_OfficeOpn_E" = 572.5497   $ Sizing
 "CHRtFlo_Sys_L_OfficeOpn_N" = 371.5734   $ Sizing
 "CHRtFlo_Sys_L_OfficeOpn_S" = 552.9188   $ Sizing
 "CHRtFlo_Sys_L_OfficeOpn_W" = 547.9258   $ Sizing
 "CHRtFlo_Sys_L_OfficeSm_E" = 490.6801   $ Sizing
 "CHRtFlo_Sys_L_OfficeSm_N" = 293.7658   $ Sizing
 "CHRtFlo_Sys_L_OfficeSm_S" = 487.7316   $ Sizing
 "CHRtFlo_Sys_L_OfficeSm_W" = 477.5759   $ Sizing
 "CHRtFlo_Sys_L_Restrm_C" = 101.6156   $ Sizing
 "CHRtFlo_Sys_L_StorSm_C" = 44.23797   $ Sizing
 "CHRtFlo_Sys_L_StorSm_E" = 132.4606   $ Sizing
 "CHRtFlo_Sys_L_StorSm_N" = 71.25315   $ Sizing
 "CHRtFlo_Sys_L_StorSm_S" = 130.3222   $ Sizing
 "CHRtFlo_Sys_L_StorSm_W" = 124.1601   $ Sizing
 "CHRtFlo_Sys_T_Conf_C" = 253.9518   $ Sizing
 "CHRtFlo_Sys_T_Hall_E" = 140.6615   $ Sizing
 "CHRtFlo_Sys_T_Hall_N" = 77.8731   $ Sizing
 "CHRtFlo_Sys_T_Hall_S" = 145.8402   $ Sizing
 "CHRtFlo_Sys_T_Hall_W" = 136.5124   $ Sizing
 "CHRtFlo_Sys_T_OfficeOpn_C" = 71.84183   $ Sizing
 "CHRtFlo_Sys_T_OfficeOpn_E" = 554.0903   $ Sizing
 "CHRtFlo_Sys_T_OfficeOpn_N" = 388.0079   $ Sizing
 "CHRtFlo_Sys_T_OfficeOpn_S" = 565.6974   $ Sizing
 "CHRtFlo_Sys_T_OfficeOpn_W" = 553.2232   $ Sizing
 "CHRtFlo_Sys_T_OfficeSm_E" = 480.4695   $ Sizing
 "CHRtFlo_Sys_T_OfficeSm_N" = 311.1031   $ Sizing
 "CHRtFlo_Sys_T_OfficeSm_S" = 503.1409   $ Sizing
 "CHRtFlo_Sys_T_OfficeSm_W" = 471.5344   $ Sizing
 "CHRtFlo_Sys_T_Restrm_C" = 142.8847   $ Sizing
 "CHRtFlo_Sys_T_StorSm_E" = 140.6105   $ Sizing
 "CHRtFlo_Sys_T_StorSm_N" = 84.48225   $ Sizing
 "CHRtFlo_Sys_T_StorSm_S" = 142.1665   $ Sizing
 "CHRtFlo_Sys_T_StorSm_W" = 142.953   $ Sizing
 "CRtdFlo_Sys_L_Break_C" = 459.2693   $ Sizing
 "CRtdFlo_Sys_L_CompDC_C" = 148.8805   $ Sizing
 "CRtdFlo_Sys_L_Conf_C" = 263.9205   $ Sizing
 "CRtdFlo_Sys_L_CopyRm_C" = 94.42221   $ Sizing
 "CRtdFlo_Sys_L_Hall_E" = 111.7482   $ Sizing
 "CRtdFlo_Sys_L_Hall_N" = 69.59029   $ Sizing
 "CRtdFlo_Sys_L_Hall_S" = 109.8031   $ Sizing
 "CRtdFlo_Sys_L_Hall_W" = 122.5973   $ Sizing
 "CRtdFlo_Sys_L_LobWait_E" = 262.7667   $ Sizing
 "CRtdFlo_Sys_L_LobWait_N" = 185.4211   $ Sizing
 "CRtdFlo_Sys_L_LobWait_S" = 266.0215   $ Sizing
 "CRtdFlo_Sys_L_LobWait_W" = 306.1437   $ Sizing
 "CRtdFlo_Sys_L_MechElec_C" = 73.30304   $ Sizing
 "CRtdFlo_Sys_L_OfficeOpn_C" = 64.48082   $ Sizing
 "CRtdFlo_Sys_L_OfficeOpn_E" = 479.9192   $ Sizing
 "CRtdFlo_Sys_L_OfficeOpn_N" = 371.5734   $ Sizing
 "CRtdFlo_Sys_L_OfficeOpn_S" = 468.0009   $ Sizing
 "CRtdFlo_Sys_L_OfficeOpn_W" = 534.0506   $ Sizing
 "CRtdFlo_Sys_L_OfficeSm_E" = 404.8618   $ Sizing
 "CRtdFlo_Sys_L_OfficeSm_N" = 293.7658   $ Sizing
 "CRtdFlo_Sys_L_OfficeSm_S" = 403.8812   $ Sizing
 "CRtdFlo_Sys_L_OfficeSm_W" = 454.0989   $ Sizing
 "CRtdFlo_Sys_L_Restrm_C" = 86.53407   $ Sizing
 "CRtdFlo_Sys_L_StorSm_C" = 36.05761   $ Sizing
 "CRtdFlo_Sys_L_StorSm_E" = 110.3008   $ Sizing
 "CRtdFlo_Sys_L_StorSm_N" = 71.25315   $ Sizing
 "CRtdFlo_Sys_L_StorSm_S" = 108.7773   $ Sizing
 "CRtdFlo_Sys_L_StorSm_W" = 119.8078   $ Sizing
 "CRtdFlo_Sys_T_Conf_C" = 253.9518   $ Sizing
 "CRtdFlo_Sys_T_Hall_E" = 125.9314   $ Sizing
 "CRtdFlo_Sys_T_Hall_N" = 77.8731   $ Sizing
 "CRtdFlo_Sys_T_Hall_S" = 123.4508   $ Sizing
 "CRtdFlo_Sys_T_Hall_W" = 135.4577   $ Sizing
 "CRtdFlo_Sys_T_OfficeOpn_C" = 61.94986   $ Sizing
 "CRtdFlo_Sys_T_OfficeOpn_E" = 510.7129   $ Sizing
 "CRtdFlo_Sys_T_OfficeOpn_N" = 388.0079   $ Sizing
 "CRtdFlo_Sys_T_OfficeOpn_S" = 503.4486   $ Sizing
 "CRtdFlo_Sys_T_OfficeOpn_W" = 553.2232   $ Sizing
 "CRtdFlo_Sys_T_OfficeSm_E" = 434.663   $ Sizing
 "CRtdFlo_Sys_T_OfficeSm_N" = 311.1031   $ Sizing
 "CRtdFlo_Sys_T_OfficeSm_S" = 435.0086   $ Sizing
 "CRtdFlo_Sys_T_OfficeSm_W" = 471.5344   $ Sizing
 "CRtdFlo_Sys_T_Restrm_C" = 126.3891   $ Sizing
 "CRtdFlo_Sys_T_StorSm_E" = 129.4317   $ Sizing
 "CRtdFlo_Sys_T_StorSm_N" = 84.48225   $ Sizing
 "CRtdFlo_Sys_T_StorSm_S" = 128.49   $ Sizing
 "CRtdFlo_Sys_T_StorSm_W" = 142.953   $ Sizing
 "CSupFlo_Sys_L_Break_C" = 459.2693   $ Sizing
 "CSupFlo_Sys_L_CompDC_C" = 148.8805   $ Sizing
 "CSupFlo_Sys_L_Conf_C" = 263.9205   $ Sizing
 "CSupFlo_Sys_L_CopyRm_C" = 94.42221   $ Sizing
 "CSupFlo_Sys_L_Hall_E" = 111.7482   $ Sizing
 "CSupFlo_Sys_L_Hall_N" = 69.59029   $ Sizing
 "CSupFlo_Sys_L_Hall_S" = 109.8031   $ Sizing
 "CSupFlo_Sys_L_Hall_W" = 122.5973   $ Sizing
 "CSupFlo_Sys_L_LobWait_E" = 262.7667   $ Sizing
 "CSupFlo_Sys_L_LobWait_N" = 185.4211   $ Sizing
 "CSupFlo_Sys_L_LobWait_S" = 266.0215   $ Sizing
 "CSupFlo_Sys_L_LobWait_W" = 306.1437   $ Sizing
 "CSupFlo_Sys_L_MechElec_C" = 73.30304   $ Sizing
 "CSupFlo_Sys_L_OfficeOpn_C" = 64.48082   $ Sizing
 "CSupFlo_Sys_L_OfficeOpn_E" = 479.9192   $ Sizing
 "CSupFlo_Sys_L_OfficeOpn_N" = 371.5734   $ Sizing
 "CSupFlo_Sys_L_OfficeOpn_S" = 468.0009   $ Sizing
 "CSupFlo_Sys_L_OfficeOpn_W" = 534.0506   $ Sizing
 "CSupFlo_Sys_L_OfficeSm_E" = 404.8618   $ Sizing
 "CSupFlo_Sys_L_OfficeSm_N" = 293.7658   $ Sizing
 "CSupFlo_Sys_L_OfficeSm_S" = 403.8812   $ Sizing
 "CSupFlo_Sys_L_OfficeSm_W" = 454.0989   $ Sizing
 "CSupFlo_Sys_L_Restrm_C" = 86.53407   $ Sizing
 "CSupFlo_Sys_L_StorSm_C" = 36.05761   $ Sizing
 "CSupFlo_Sys_L_StorSm_E" = 110.3008   $ Sizing
 "CSupFlo_Sys_L_StorSm_N" = 71.25315   $ Sizing
 "CSupFlo_Sys_L_StorSm_S" = 108.7773   $ Sizing
 "CSupFlo_Sys_L_StorSm_W" = 119.8078   $ Sizing
 "CSupFlo_Sys_T_Conf_C" = 253.9518   $ Sizing
 "CSupFlo_Sys_T_Hall_E" = 125.9314   $ Sizing
 "CSupFlo_Sys_T_Hall_N" = 77.8731   $ Sizing
 "CSupFlo_Sys_T_Hall_S" = 123.4508   $ Sizing
 "CSupFlo_Sys_T_Hall_W" = 135.4577   $ Sizing
 "CSupFlo_Sys_T_OfficeOpn_C" = 61.94986   $ Sizing
 "CSupFlo_Sys_T_OfficeOpn_E" = 510.7129   $ Sizing
 "CSupFlo_Sys_T_OfficeOpn_N" = 388.0079   $ Sizing
 "CSupFlo_Sys_T_OfficeOpn_S" = 503.4486   $ Sizing
 "CSupFlo_Sys_T_OfficeOpn_W" = 553.2232   $ Sizing
 "CSupFlo_Sys_T_OfficeSm_E" = 434.663   $ Sizing
 "CSupFlo_Sys_T_OfficeSm_N" = 311.1031   $ Sizing
 "CSupFlo_Sys_T_OfficeSm_S" = 435.0086   $ Sizing
 "CSupFlo_Sys_T_OfficeSm_W" = 471.5344   $ Sizing
 "CSupFlo_Sys_T_Restrm_C" = 126.3891   $ Sizing
 "CSupFlo_Sys_T_StorSm_E" = 129.4317   $ Sizing
 "CSupFlo_Sys_T_StorSm_N" = 84.48225   $ Sizing
 "CSupFlo_Sys_T_StorSm_S" = 128.49   $ Sizing
 "CSupFlo_Sys_T_StorSm_W" = 142.953   $ Sizing
 "ClCap_Sys_L_Break_C" = 15736.58   $ Sizing
 "ClCap_Sys_L_CompDC_C" = 5101.299   $ Sizing
 "ClCap_Sys_L_Conf_C" = 11509.37   $ Sizing
 "ClCap_Sys_L_CopyRm_C" = 3235.319   $ Sizing
 "ClCap_Sys_L_Hall_E" = 3828.985   $ Sizing
 "ClCap_Sys_L_Hall_N" = 2384.469   $ Sizing
 "ClCap_Sys_L_Hall_S" = 3762.334   $ Sizing
 "ClCap_Sys_L_Hall_W" = 4200.721   $ Sizing
 "ClCap_Sys_L_LobWait_E" = 9003.541   $ Sizing
 "ClCap_Sys_L_LobWait_N" = 6353.339   $ Sizing
 "ClCap_Sys_L_LobWait_S" = 9115.065   $ Sizing
 "ClCap_Sys_L_LobWait_W" = 10489.83   $ Sizing
 "ClCap_Sys_L_MechElec_C" = 2511.684   $ Sizing
 "ClCap_Sys_L_OfficeOpn_C" = 2209.396   $ Sizing
 "ClCap_Sys_L_OfficeOpn_E" = 16444.14   $ Sizing
 "ClCap_Sys_L_OfficeOpn_N" = 12731.73   $ Sizing
 "ClCap_Sys_L_OfficeOpn_S" = 16035.76   $ Sizing
 "ClCap_Sys_L_OfficeOpn_W" = 18298.92   $ Sizing
 "ClCap_Sys_L_OfficeSm_E" = 13872.34   $ Sizing
 "ClCap_Sys_L_OfficeSm_N" = 10065.71   $ Sizing
 "ClCap_Sys_L_OfficeSm_S" = 13838.74   $ Sizing
 "ClCap_Sys_L_OfficeSm_W" = 15559.42   $ Sizing
 "ClCap_Sys_L_Restrm_C" = 2965.037   $ Sizing
 "ClCap_Sys_L_StorSm_C" = 1235.492   $ Sizing
 "ClCap_Sys_L_StorSm_E" = 3779.39   $ Sizing
 "ClCap_Sys_L_StorSm_N" = 2441.446   $ Sizing
 "ClCap_Sys_L_StorSm_S" = 3727.189   $ Sizing
 "ClCap_Sys_L_StorSm_W" = 4105.141   $ Sizing
 "ClCap_Sys_T_Conf_C" = 11074.64   $ Sizing
 "ClCap_Sys_T_Hall_E" = 4314.963   $ Sizing
 "ClCap_Sys_T_Hall_N" = 2668.274   $ Sizing
 "ClCap_Sys_T_Hall_S" = 4229.964   $ Sizing
 "ClCap_Sys_T_Hall_W" = 4641.375   $ Sizing
 "ClCap_Sys_T_OfficeOpn_C" = 2122.674   $ Sizing
 "ClCap_Sys_T_OfficeOpn_E" = 17499.27   $ Sizing
 "ClCap_Sys_T_OfficeOpn_N" = 13294.85   $ Sizing
 "ClCap_Sys_T_OfficeOpn_S" = 17250.36   $ Sizing
 "ClCap_Sys_T_OfficeOpn_W" = 18955.86   $ Sizing
 "ClCap_Sys_T_OfficeSm_E" = 14893.46   $ Sizing
 "ClCap_Sys_T_OfficeSm_N" = 10659.76   $ Sizing
 "ClCap_Sys_T_OfficeSm_S" = 14905.3   $ Sizing
 "ClCap_Sys_T_OfficeSm_W" = 16156.84   $ Sizing
 "ClCap_Sys_T_Restrm_C" = 4330.646   $ Sizing
 "ClCap_Sys_T_StorSm_E" = 4434.898   $ Sizing
 "ClCap_Sys_T_StorSm_N" = 2894.733   $ Sizing
 "ClCap_Sys_T_StorSm_S" = 4402.63   $ Sizing
 "ClCap_Sys_T_StorSm_W" = 4898.198   $ Sizing
 "HtCap_Sys_L_Break_C" = -26495.4   $ Sizing
 "HtCap_Sys_L_CompDC_C" = -6298.462   $ Sizing
 "HtCap_Sys_L_Conf_C" = -15866.01   $ Sizing
 "HtCap_Sys_L_CopyRm_C" = -5545.373   $ Sizing
 "HtCap_Sys_L_Hall_E" = -4837.691   $ Sizing
 "HtCap_Sys_L_Hall_N" = -2710.307   $ Sizing
 "HtCap_Sys_L_Hall_S" = -4734.786   $ Sizing
 "HtCap_Sys_L_Hall_W" = -4703.005   $ Sizing
 "HtCap_Sys_L_LobWait_E" = -11814.14   $ Sizing
 "HtCap_Sys_L_LobWait_N" = -8329.567   $ Sizing
 "HtCap_Sys_L_LobWait_S" = -11879.65   $ Sizing
 "HtCap_Sys_L_LobWait_W" = -11811.67   $ Sizing
 "HtCap_Sys_L_MechElec_C" = -4072.461   $ Sizing
 "HtCap_Sys_L_OfficeOpn_C" = -3149.703   $ Sizing
 "HtCap_Sys_L_OfficeOpn_E" = -20456.86   $ Sizing
 "HtCap_Sys_L_OfficeOpn_N" = -15087.56   $ Sizing
 "HtCap_Sys_L_OfficeOpn_S" = -19383.58   $ Sizing
 "HtCap_Sys_L_OfficeOpn_W" = -19974.76   $ Sizing
 "HtCap_Sys_L_OfficeSm_E" = -17372.34   $ Sizing
 "HtCap_Sys_L_OfficeSm_N" = -11500.01   $ Sizing
 "HtCap_Sys_L_OfficeSm_S" = -16552.2   $ Sizing
 "HtCap_Sys_L_OfficeSm_W" = -16736.91   $ Sizing
 "HtCap_Sys_L_Restrm_C" = -3569.732   $ Sizing
 "HtCap_Sys_L_StorSm_C" = -1775.1   $ Sizing
 "HtCap_Sys_L_StorSm_E" = -4910.478   $ Sizing
 "HtCap_Sys_L_StorSm_N" = -3164.689   $ Sizing
 "HtCap_Sys_L_StorSm_S" = -4805.432   $ Sizing
 "HtCap_Sys_L_StorSm_W" = -4713.694   $ Sizing
 "HtCap_Sys_T_Conf_C" = -15820.01   $ Sizing
 "HtCap_Sys_T_Hall_E" = -5449.261   $ Sizing
 "HtCap_Sys_T_Hall_N" = -3397.851   $ Sizing
 "HtCap_Sys_T_Hall_S" = -5631.722   $ Sizing
 "HtCap_Sys_T_Hall_W" = -5312.881   $ Sizing
 "HtCap_Sys_T_OfficeOpn_C" = -3138.671   $ Sizing
 "HtCap_Sys_T_OfficeOpn_E" = -21989.69   $ Sizing
 "HtCap_Sys_T_OfficeOpn_N" = -16983.31   $ Sizing
 "HtCap_Sys_T_OfficeOpn_S" = -22263.27   $ Sizing
 "HtCap_Sys_T_OfficeOpn_W" = -22191.54   $ Sizing
 "HtCap_Sys_T_OfficeSm_E" = -18503.17   $ Sizing
 "HtCap_Sys_T_OfficeSm_N" = -13250.5   $ Sizing
 "HtCap_Sys_T_OfficeSm_S" = -19015.82   $ Sizing
 "HtCap_Sys_T_OfficeSm_W" = -18234.63   $ Sizing
 "HtCap_Sys_T_Restrm_C" = -5452.26   $ Sizing
 "HtCap_Sys_T_StorSm_E" = -5842.813   $ Sizing
 "HtCap_Sys_T_StorSm_N" = -4168.383   $ Sizing
 "HtCap_Sys_T_StorSm_S" = -5797.322   $ Sizing
 "HtCap_Sys_T_StorSm_W" = -5990.375   $ Sizing
..

##include Templates\OfS_DX_SZ.inp
END ..
COMPUTE ..
STOP ..
