INPUT ..

##fileprefix C:\Users\jglasskatz\MASControl3\
##set1 IsSizing FALSE
##set1 CoolType DX
##set1 HeatType FURNACE
##set1 EU_HrRepVar 0
##set1 BldgVint 2007
##set1 BldgLoc CZ14

 ##set1 mBFMult 1   $ IP Tech: RefgChg-NRes-Std

PARAMETER
 "AltFactor" = 1.09733   $ IP Non-Tech
 "BF_fFlow" = SpltAC1Sp-lt45_BF_fFlow   $ Msr (Multi)TechID: StdNResSplitAC-lt45
 "BF_fT" = SpltAC1Sp-lt45_BF_fT   $ Msr (Multi)TechID: StdNResSplitAC-lt45
 "BldgEconoFlag" = 1   $ IP Non-Tech
 "Break_EWSF" = 1   $ IP Non-Tech
 "Break_LWSF" = 1.1   $ IP Non-Tech
 "CDD_DBHi10" = 86   $ IP Non-Tech
 "CDD_DBHi7" = 102   $ IP Non-Tech
 "CDD_DBHi8" = 102   $ IP Non-Tech
 "CDD_DBHi9" = 99   $ IP Non-Tech
 "CDD_DBRange10" = 24   $ IP Non-Tech
 "CDD_DBRange7" = 25   $ IP Non-Tech
 "CDD_DBRange8" = 24   $ IP Non-Tech
 "CDD_DBRange9" = 26   $ IP Non-Tech
 "CDD_Day10" = 15   $ IP Non-Tech
 "CDD_Day7" = 16   $ IP Non-Tech
 "CDD_Day8" = 20   $ IP Non-Tech
 "CDD_Day9" = 17   $ IP Non-Tech
 "CDD_HrHi10" = 15   $ IP Non-Tech
 "CDD_HrHi7" = 14   $ IP Non-Tech
 "CDD_HrHi8" = 14   $ IP Non-Tech
 "CDD_HrHi9" = 13   $ IP Non-Tech
 "CDD_HrLo10" = 3   $ IP Non-Tech
 "CDD_HrLo7" = 4   $ IP Non-Tech
 "CDD_HrLo8" = 6   $ IP Non-Tech
 "CDD_HrLo9" = 6   $ IP Non-Tech
 "CDD_WB10" = 59.47153854   $ IP Non-Tech
 "CDD_WB7" = 72.7782135   $ IP Non-Tech
 "CDD_WB8" = 69.10041809   $ IP Non-Tech
 "CDD_WB9" = 72.65714264   $ IP Non-Tech
 "CEIR_fPLR_Hot" = SpltAC1Sp-lt45_CEIR_fPLR_Hot   $ Msr (Multi)TechID: StdNResSplitAC-lt45
 "CEIR_fPLR_Mod" = SpltAC1Sp-lt45_CEIR_fPLR_Mod   $ Msr (Multi)TechID: StdNResSplitAC-lt45
 "CEIR_fPLR_Tem" = SpltAC1Sp-lt45_CEIR_fPLR_Tem   $ Msr (Multi)TechID: StdNResSplitAC-lt45
 "CLoss_fPLR_Hot" = SpltAC1Sp-lt45_CLoss_fPLR_Hot   $ Msr (Multi)TechID: StdNResSplitAC-lt45
 "CLoss_fPLR_Mod" = SpltAC1Sp-lt45_CLoss_fPLR_Mod   $ Msr (Multi)TechID: StdNResSplitAC-lt45
 "CLoss_fPLR_Tem" = SpltAC1Sp-lt45_CLoss_fPLR_Tem   $ Msr (Multi)TechID: StdNResSplitAC-lt45
 "COP47" = 0   $ Msr (Multi)TechID: StdNResSplitAC-lt45
 "CZ_Category" = Hot   $ IP Non-Tech
 "CapRange" = lt45   $ Msr (Multi)TechID: StdNResSplitAC-lt45
 "CfmPerBtuh" = 0.032504286   $ Msr (Multi)TechID: StdNResSplitAC-lt45
 "ChwVintEconoFlag" = 1   $ IP Non-Tech
 "ClCap_fT" = SpltAC1Sp-lt45_ClCap_fT   $ Msr (Multi)TechID: StdNResSplitAC-lt45
 "ClSH_fT" = SpltAC1Sp-lt45_ClSH_fT   $ Msr (Multi)TechID: StdNResSplitAC-lt45
 "CoilBF" = 0.1212   $ Msr (Multi)TechID: StdNResSplitAC-lt45
 "CompRoomData_EWSF" = 5   $ IP Non-Tech
 "CompRoomData_LWSF" = 1.2   $ IP Non-Tech
 "CondWPerBtuh" = 0   $ Msr (Multi)TechID: StdNResSplitAC-lt45
 "Conference_EWSF" = 1   $ IP Non-Tech
 "Conference_LWSF" = 1.4   $ IP Non-Tech
 "CoolSensCap" = 0.754064286   $ Msr (Multi)TechID: StdNResSplitAC-lt45
 "CoolSetT" = 45   $ IP Non-Tech
 "CoolType" = DX   $ IP Non-Tech
 "CoolingEIR" = 0.23878   $ Msr (Multi)TechID: StdNResSplitAC-lt45
 "CopyRoom_EWSF" = 1.5   $ IP Non-Tech
 "CopyRoom_LWSF" = 1.3   $ IP Non-Tech
 "CrnkEIR" = 0.0023878   $ Msr (Multi)TechID: StdNResSplitAC-lt45
 "CrnkMaxT" = 50   $ Msr (Multi)TechID: StdNResSplitAC-lt45
 "DXType" = SplitSEER   $ Msr (Multi)TechID: StdNResSplitAC-lt45
 "DesCoolT" = 75   $ IP Non-Tech
 "DesHeatT" = 73   $ IP Non-Tech
 "EER" = 12.16551724   $ Msr (Multi)TechID: StdNResSplitAC-lt45
 "EIR_fT" = SpltAC1Sp-lt45_EIR_fT   $ Msr (Multi)TechID: StdNResSplitAC-lt45
 "EconoCtrl" = FIXED   $ Msr (Multi)TechID: StdNResSplitAC-lt45
 "EconoEnthLimit" = 28   $ IP Non-Tech
 "EconoTempLimit" = 75   $ IP Non-Tech
 "Elevation" = 2523   $ IP Non-Tech
 "FanEirPlr" = TwoSpeedFan   $ Msr (Multi)TechID: StdNResSplitAC-lt45
 "FanWPerCfm" = 0.294   $ Msr (Multi)TechID: StdNResSplitAC-lt45
 "HDD_CloudAmt1" = 0   $ IP Non-Tech
 "HDD_DBHi1" = 50   $ IP Non-Tech
 "HDD_DBRange1" = 24   $ IP Non-Tech
 "HDD_Day1" = 15   $ IP Non-Tech
 "HDD_HrHi1" = 14   $ IP Non-Tech
 "HDD_HrLo1" = 6   $ IP Non-Tech
 "HDD_WB1" = 36.9   $ IP Non-Tech
 "HDD_WindSpd1" = 17.3   $ IP Non-Tech
 "HIR_fT" = 0   $ Msr (Multi)TechID: StdNResSplitAC-lt45
 "HSPF" = 0   $ Msr (Multi)TechID: StdNResSplitAC-lt45
 "Hall_EWSF" = 0.2   $ IP Non-Tech
 "Hall_LWSF" = 0.6   $ IP Non-Tech
 "HeatSrc" = FURNACE   $ IP Non-Tech
 "HeatSrcTU" = HEAT-PUMP   $ IP Non-Tech
 "HeatType" = GasFurn   $ IP Non-Tech
 "HeatTypeTU" = HEAT-PUMP   $ IP Non-Tech
 "HtCap_fT" = 0   $ Msr (Multi)TechID: StdNResSplitAC-lt45
 "HtCoolCapRatio" = 0   $ Msr (Multi)TechID: StdNResSplitAC-lt45
 "HtgEIR" = 0   $ Msr (Multi)TechID: StdNResSplitAC-lt45
 "IndoorFanMode" = CONTINUOUS   $ IP Non-Tech
 "KT_TransferAir" = No   $ IP Non-Tech
 "Latitude" = 35.7   $ IP Non-Tech
 "LobbyWaiting_EWSF" = 0.5   $ IP Non-Tech
 "LobbyWaiting_LWSF" = 1.3   $ IP Non-Tech
 "Longitude" = 117.7   $ IP Non-Tech
 "LowSpdCapRatio" = 1   $ Msr (Multi)TechID: StdNResSplitAC-lt45
 "LowSpdCfmRatio" = 1   $ Msr (Multi)TechID: StdNResSplitAC-lt45
 "MZFanMechEff" = 0.58   $ IP Non-Tech
 "MZHasRetFan" = FALSE   $ IP Non-Tech
 "MZ_RFanWPerCfm" = 0.33   $ IP Non-Tech
 "MZ_SFanWPerCfm" = 0.75   $ IP Non-Tech
 "MZ_SupFanStatic" = 2.25   $ IP Non-Tech
 "MaxOAFrac" = 1   $ Msr (Multi)TechID: StdNResSplitAC-lt45
 "MaxSupT_MZ" = 100   $ IP Non-Tech
 "MaxSupT_SZ" = 100   $ IP Non-Tech
 "MaxSupT_TU" = 90   $ IP Non-Tech
 "MechElecRoom_EWSF" = 0.2   $ IP Non-Tech
 "MechElecRoom_LWSF" = 0.7   $ IP Non-Tech
 "MinCfmPerSF" = 0.4   $ IP Non-Tech
 "MinSupT" = 55   $ IP Non-Tech
 "NumStages" = 1   $ Msr (Multi)TechID: StdNResSplitAC-lt45
 "OccCoolT" = 76   $ IP Non-Tech
 "OccHeatT" = 72   $ IP Non-Tech
 "OfficeOpen_EWSF" = 1.5   $ IP Non-Tech
 "OfficeOpen_LWSF" = 1.2   $ IP Non-Tech
 "OfficeSmall_EWSF" = 1.5   $ IP Non-Tech
 "OfficeSmall_LWSF" = 1.3   $ IP Non-Tech
 "PkgDxVintEconoFlag" = 0   $ IP Non-Tech
 "Restroom_EWSF" = 0.2   $ IP Non-Tech
 "Restroom_LWSF" = 0.6   $ IP Non-Tech
 "SEER" = 14   $ Msr (Multi)TechID: StdNResSplitAC-lt45
 "SZFanMechEff" = 0.58   $ IP Non-Tech
 "SZHasRetFan" = FALSE   $ IP Non-Tech
 "SZ_Is_2Spd" = FALSE   $ IP Non-Tech
 "SZ_SFanWPerCfm" = 0.46   $ IP Non-Tech
 "SZ_SupFanStatic" = 0.75   $ IP Non-Tech
 "Sector" = Any   $ Msr (Multi)TechID: StdNResSplitAC-lt45
 "StorageSmlCond_EWSF" = 0.2   $ IP Non-Tech
 "StorageSmlCond_LWSF" = 0.6   $ IP Non-Tech
 "SubType" = AC   $ Msr (Multi)TechID: StdNResSplitAC-lt45
 "T24GlzTbl" = CZTbl   $ IP Non-Tech
 "TermUnitFanMechEff" = 1   $ IP Non-Tech
 "TermUnitFanMode" = INTERMITTENT   $ IP Non-Tech
 "TotCoolCap" = 30924.85714   $ Msr (Multi)TechID: StdNResSplitAC-lt45
 "TwrSetpt" = 90   $ IP Non-Tech
 "UnocCoolT" = 86   $ IP Non-Tech
 "UnocHeatT" = 62   $ IP Non-Tech
 "UseEconoVintApplic" = FALSE   $ Msr (Multi)TechID: StdNResSplitAC-lt45
 "WlhpVintEconoFlag" = 0   $ IP Non-Tech
 "DuctDT" = 1   $ IP Tech: ComDuctInsul-1
 "DuctAirLoss" = 0   $ IP Tech: ComDuctLeak-0
 "DuctLossOAFrac" = 0   $ IP Tech: ComDuctLeak-0
 "ComRoofInsCalc" = FromUo   $ IP Tech: ComRoofIns-WFrm-0.05
 "ComRoofInsR" = -999   $ IP Tech: ComRoofIns-WFrm-0.05
 "ComRoofUo" = 0.05   $ IP Tech: ComRoofIns-WFrm-0.05
 "ComEWInsCalc" = FromUo   $ IP Tech: ComWallIns-WFrm-0.08
 "ComEWInsR" = -999   $ IP Tech: ComWallIns-WFrm-0.08
 "ComEWUo" = 0.08   $ IP Tech: ComWallIns-WFrm-0.08
 "ComN_SHGC" = 0.4   $ IP Tech: NResWin-ComN-0.47-0.4
 "ComN_UFactor" = 0.47   $ IP Tech: NResWin-ComN-0.47-0.4
 "ComN_VisTrans" = 0.68   $ IP Tech: NResWin-ComN-0.47-0.4
 "ComN_WinCode" = G2663   $ IP Tech: NResWin-ComN-0.47-0.4
 "ComN_WinFrmFrac" = 0.17   $ IP Tech: NResWin-ComN-0.47-0.4
 "ComN_WinFrmU" = 0.3   $ IP Tech: NResWin-ComN-0.47-0.4
 "ComO_SHGC" = 0.31   $ IP Tech: NResWin-ComO-0.47-0.31
 "ComO_UFactor" = 0.47   $ IP Tech: NResWin-ComO-0.47-0.31
 "ComO_VisTrans" = 0.44   $ IP Tech: NResWin-ComO-0.47-0.31
 "ComO_WinCode" = G2637   $ IP Tech: NResWin-ComO-0.47-0.31
 "ComO_WinFrmFrac" = 0.17   $ IP Tech: NResWin-ComO-0.47-0.31
 "ComO_WinFrmU" = 0.3   $ IP Tech: NResWin-ComO-0.47-0.31
 "LtgMsrApplic" = ALL   $ IP Tech: NonResLtgRefPre
 "LtgSav_CFL" = 0   $ IP Tech: NonResLtgRefPre
 "LtgSav_EX" = 0   $ IP Tech: NonResLtgRefPre
 "LtgSav_HB" = 0   $ IP Tech: NonResLtgRefPre
 "LtgSav_LF" = 0   $ IP Tech: NonResLtgRefPre
 "LtgSav_SP" = 0   $ IP Tech: NonResLtgRefPre
 "CEIR_fPLR" = PSZ65to135_CEIR_fPLR   $ IP Tech: PkgAC1SpH-65to135-E10
 "CLoss_fPLR" = PSZ65to135_CLoss_fPLR   $ IP Tech: PkgAC1SpH-65to135-E10
 "COP" = -1   $ IP Tech: PkgAC1SpH-65to135-E10
 "HtgFuel" = Gas   $ IP Tech: PkgAC1SpH-65to135-E10
 "IEER" = 11.87   $ IP Tech: PkgAC1SpH-65to135-E10
 "NominalCap" = 15   $ IP Tech: PkgAC1SpH-65to135-E10
 "RatedEER" = 10   $ IP Tech: PkgAC1SpH-65to135-E10
 "RatedSupMtrClass" = HiEff   $ IP Tech: PkgAC1SpH-65to135-E10
 "SizeRange" = 65to135   $ IP Tech: PkgAC1SpH-65to135-E10
 "SupMotEff" = 0.84   $ IP Tech: PkgAC1SpH-65to135-E10
 "Tier" = 0   $ IP Tech: PkgAC1SpH-65to135-E10
 "FanPwrMult" = 1   $ IP Tech: PkgFurn-0.80AFUE
 "FurnAFUE" = 0.8   $ IP Tech: PkgFurn-0.80AFUE
 "FurnEt" = 0.82   $ IP Tech: PkgFurn-0.80AFUE
 "FurnaceAuxKW" = 0.1   $ IP Tech: PkgFurn-0.80AFUE
 "HIR_fPLR" = Furnace-HIR-fPLR   $ IP Tech: PkgFurn-0.80AFUE
 "VSM" = FALSE   $ IP Tech: PkgFurn-0.80AFUE
 "BFMult" = 1   $ IP Tech: RefgChg-NRes-Std
 "CoolEirMult" = 1   $ IP Tech: RefgChg-NRes-Std
 "SensCoolCapMult" = 1   $ IP Tech: RefgChg-NRes-Std
 "TotCoolCapMult" = 1   $ IP Tech: RefgChg-NRes-Std
 "AltAdjFactor" = 1.09733   $ Sizing
 "CAssFlo_L_Break_CZn" = 566.4633   $ Sizing
 "CAssFlo_L_CompDC_CZn" = 174.5248   $ Sizing
 "CAssFlo_L_Conf_CZn" = 325.7164   $ Sizing
 "CAssFlo_L_CopyRm_CZn" = 117.5807   $ Sizing
 "CAssFlo_L_Hall_EZn" = 137.8701   $ Sizing
 "CAssFlo_L_Hall_NZn" = 82.32068   $ Sizing
 "CAssFlo_L_Hall_SZn" = 133.6773   $ Sizing
 "CAssFlo_L_Hall_WZn" = 148.2756   $ Sizing
 "CAssFlo_L_LobWait_EZn" = 327.706   $ Sizing
 "CAssFlo_L_LobWait_NZn" = 222.6048   $ Sizing
 "CAssFlo_L_LobWait_SZn" = 337.5403   $ Sizing
 "CAssFlo_L_LobWait_WZn" = 380.5108   $ Sizing
 "CAssFlo_L_MechElec_CZn" = 97.97263   $ Sizing
 "CAssFlo_L_OfficeOpn_CZn" = 83.63084   $ Sizing
 "CAssFlo_L_OfficeOpn_EZn" = 585.574   $ Sizing
 "CAssFlo_L_OfficeOpn_NZn" = 439.2343   $ Sizing
 "CAssFlo_L_OfficeOpn_SZn" = 578.7397   $ Sizing
 "CAssFlo_L_OfficeOpn_WZn" = 646.8262   $ Sizing
 "CAssFlo_L_OfficeSm_EZn" = 489.8729   $ Sizing
 "CAssFlo_L_OfficeSm_NZn" = 341.7006   $ Sizing
 "CAssFlo_L_OfficeSm_SZn" = 487.9578   $ Sizing
 "CAssFlo_L_OfficeSm_WZn" = 546.6019   $ Sizing
 "CAssFlo_L_Restrm_CZn" = 112.5221   $ Sizing
 "CAssFlo_L_StorSm_CZn" = 45.81937   $ Sizing
 "CAssFlo_L_StorSm_EZn" = 137.2249   $ Sizing
 "CAssFlo_L_StorSm_NZn" = 86.15075   $ Sizing
 "CAssFlo_L_StorSm_SZn" = 135.2301   $ Sizing
 "CAssFlo_L_StorSm_WZn" = 146.0047   $ Sizing
 "CAssFlo_T_Conf_CZn" = 314.3176   $ Sizing
 "CAssFlo_T_Hall_EZn" = 152.2082   $ Sizing
 "CAssFlo_T_Hall_NZn" = 89.52795   $ Sizing
 "CAssFlo_T_Hall_SZn" = 149.5937   $ Sizing
 "CAssFlo_T_Hall_WZn" = 164.8889   $ Sizing
 "CAssFlo_T_OfficeOpn_CZn" = 81.24407   $ Sizing
 "CAssFlo_T_OfficeOpn_EZn" = 619.1915   $ Sizing
 "CAssFlo_T_OfficeOpn_NZn" = 457.3644   $ Sizing
 "CAssFlo_T_OfficeOpn_SZn" = 624.1013   $ Sizing
 "CAssFlo_T_OfficeOpn_WZn" = 676.9194   $ Sizing
 "CAssFlo_T_OfficeSm_EZn" = 520.1149   $ Sizing
 "CAssFlo_T_OfficeSm_NZn" = 359.4691   $ Sizing
 "CAssFlo_T_OfficeSm_SZn" = 526.6617   $ Sizing
 "CAssFlo_T_OfficeSm_WZn" = 574.8806   $ Sizing
 "CAssFlo_T_Restrm_CZn" = 153.3646   $ Sizing
 "CAssFlo_T_StorSm_EZn" = 158.7676   $ Sizing
 "CAssFlo_T_StorSm_NZn" = 99.98268   $ Sizing
 "CAssFlo_T_StorSm_SZn" = 157.7294   $ Sizing
 "CAssFlo_T_StorSm_WZn" = 174.5066   $ Sizing
 "CHRtFlo_Sys_L_Break_C" = 566.4633   $ Sizing
 "CHRtFlo_Sys_L_CompDC_C" = 191.0505   $ Sizing
 "CHRtFlo_Sys_L_Conf_C" = 325.7164   $ Sizing
 "CHRtFlo_Sys_L_CopyRm_C" = 117.5807   $ Sizing
 "CHRtFlo_Sys_L_Hall_E" = 155.487   $ Sizing
 "CHRtFlo_Sys_L_Hall_N" = 82.32068   $ Sizing
 "CHRtFlo_Sys_L_Hall_S" = 151.9166   $ Sizing
 "CHRtFlo_Sys_L_Hall_W" = 155.4662   $ Sizing
 "CHRtFlo_Sys_L_LobWait_E" = 360.3984   $ Sizing
 "CHRtFlo_Sys_L_LobWait_N" = 222.6048   $ Sizing
 "CHRtFlo_Sys_L_LobWait_S" = 350.647   $ Sizing
 "CHRtFlo_Sys_L_LobWait_W" = 380.5107   $ Sizing
 "CHRtFlo_Sys_L_MechElec_C" = 123.6539   $ Sizing
 "CHRtFlo_Sys_L_OfficeOpn_C" = 95.1733   $ Sizing
 "CHRtFlo_Sys_L_OfficeOpn_E" = 652.8121   $ Sizing
 "CHRtFlo_Sys_L_OfficeOpn_N" = 439.2343   $ Sizing
 "CHRtFlo_Sys_L_OfficeOpn_S" = 612.0638   $ Sizing
 "CHRtFlo_Sys_L_OfficeOpn_W" = 646.8262   $ Sizing
 "CHRtFlo_Sys_L_OfficeSm_E" = 557.2153   $ Sizing
 "CHRtFlo_Sys_L_OfficeSm_N" = 341.7005   $ Sizing
 "CHRtFlo_Sys_L_OfficeSm_S" = 534.5623   $ Sizing
 "CHRtFlo_Sys_L_OfficeSm_W" = 559.3809   $ Sizing
 "CHRtFlo_Sys_L_Restrm_C" = 120.2348   $ Sizing
 "CHRtFlo_Sys_L_StorSm_C" = 50.17118   $ Sizing
 "CHRtFlo_Sys_L_StorSm_E" = 152.3854   $ Sizing
 "CHRtFlo_Sys_L_StorSm_N" = 86.15075   $ Sizing
 "CHRtFlo_Sys_L_StorSm_S" = 145.2843   $ Sizing
 "CHRtFlo_Sys_L_StorSm_W" = 146.0047   $ Sizing
 "CHRtFlo_Sys_T_Conf_C" = 314.3176   $ Sizing
 "CHRtFlo_Sys_T_Hall_E" = 160.1927   $ Sizing
 "CHRtFlo_Sys_T_Hall_N" = 89.52795   $ Sizing
 "CHRtFlo_Sys_T_Hall_S" = 158.4834   $ Sizing
 "CHRtFlo_Sys_T_Hall_W" = 164.8889   $ Sizing
 "CHRtFlo_Sys_T_OfficeOpn_C" = 81.7618   $ Sizing
 "CHRtFlo_Sys_T_OfficeOpn_E" = 628.9036   $ Sizing
 "CHRtFlo_Sys_T_OfficeOpn_N" = 457.3643   $ Sizing
 "CHRtFlo_Sys_T_OfficeOpn_S" = 624.1013   $ Sizing
 "CHRtFlo_Sys_T_OfficeOpn_W" = 676.9194   $ Sizing
 "CHRtFlo_Sys_T_OfficeSm_E" = 542.0439   $ Sizing
 "CHRtFlo_Sys_T_OfficeSm_N" = 359.4691   $ Sizing
 "CHRtFlo_Sys_T_OfficeSm_S" = 544.5471   $ Sizing
 "CHRtFlo_Sys_T_OfficeSm_W" = 574.8806   $ Sizing
 "CHRtFlo_Sys_T_Restrm_C" = 161.5617   $ Sizing
 "CHRtFlo_Sys_T_StorSm_E" = 159.9327   $ Sizing
 "CHRtFlo_Sys_T_StorSm_N" = 99.98269   $ Sizing
 "CHRtFlo_Sys_T_StorSm_S" = 157.7294   $ Sizing
 "CHRtFlo_Sys_T_StorSm_W" = 174.5066   $ Sizing
 "CRtdFlo_Sys_L_Break_C" = 566.4633   $ Sizing
 "CRtdFlo_Sys_L_CompDC_C" = 174.5248   $ Sizing
 "CRtdFlo_Sys_L_Conf_C" = 325.7164   $ Sizing
 "CRtdFlo_Sys_L_CopyRm_C" = 117.5807   $ Sizing
 "CRtdFlo_Sys_L_Hall_E" = 137.8701   $ Sizing
 "CRtdFlo_Sys_L_Hall_N" = 82.32068   $ Sizing
 "CRtdFlo_Sys_L_Hall_S" = 133.6773   $ Sizing
 "CRtdFlo_Sys_L_Hall_W" = 148.2756   $ Sizing
 "CRtdFlo_Sys_L_LobWait_E" = 327.706   $ Sizing
 "CRtdFlo_Sys_L_LobWait_N" = 222.6048   $ Sizing
 "CRtdFlo_Sys_L_LobWait_S" = 337.5403   $ Sizing
 "CRtdFlo_Sys_L_LobWait_W" = 380.5107   $ Sizing
 "CRtdFlo_Sys_L_MechElec_C" = 97.97263   $ Sizing
 "CRtdFlo_Sys_L_OfficeOpn_C" = 83.63084   $ Sizing
 "CRtdFlo_Sys_L_OfficeOpn_E" = 585.574   $ Sizing
 "CRtdFlo_Sys_L_OfficeOpn_N" = 439.2343   $ Sizing
 "CRtdFlo_Sys_L_OfficeOpn_S" = 578.7397   $ Sizing
 "CRtdFlo_Sys_L_OfficeOpn_W" = 646.8262   $ Sizing
 "CRtdFlo_Sys_L_OfficeSm_E" = 489.8729   $ Sizing
 "CRtdFlo_Sys_L_OfficeSm_N" = 341.7005   $ Sizing
 "CRtdFlo_Sys_L_OfficeSm_S" = 487.9578   $ Sizing
 "CRtdFlo_Sys_L_OfficeSm_W" = 546.6019   $ Sizing
 "CRtdFlo_Sys_L_Restrm_C" = 112.5221   $ Sizing
 "CRtdFlo_Sys_L_StorSm_C" = 45.81937   $ Sizing
 "CRtdFlo_Sys_L_StorSm_E" = 137.2249   $ Sizing
 "CRtdFlo_Sys_L_StorSm_N" = 86.15075   $ Sizing
 "CRtdFlo_Sys_L_StorSm_S" = 135.2301   $ Sizing
 "CRtdFlo_Sys_L_StorSm_W" = 146.0047   $ Sizing
 "CRtdFlo_Sys_T_Conf_C" = 314.3176   $ Sizing
 "CRtdFlo_Sys_T_Hall_E" = 152.2082   $ Sizing
 "CRtdFlo_Sys_T_Hall_N" = 89.52795   $ Sizing
 "CRtdFlo_Sys_T_Hall_S" = 149.5937   $ Sizing
 "CRtdFlo_Sys_T_Hall_W" = 164.8889   $ Sizing
 "CRtdFlo_Sys_T_OfficeOpn_C" = 81.24407   $ Sizing
 "CRtdFlo_Sys_T_OfficeOpn_E" = 619.1915   $ Sizing
 "CRtdFlo_Sys_T_OfficeOpn_N" = 457.3643   $ Sizing
 "CRtdFlo_Sys_T_OfficeOpn_S" = 624.1013   $ Sizing
 "CRtdFlo_Sys_T_OfficeOpn_W" = 676.9194   $ Sizing
 "CRtdFlo_Sys_T_OfficeSm_E" = 520.1149   $ Sizing
 "CRtdFlo_Sys_T_OfficeSm_N" = 359.4691   $ Sizing
 "CRtdFlo_Sys_T_OfficeSm_S" = 526.6617   $ Sizing
 "CRtdFlo_Sys_T_OfficeSm_W" = 574.8806   $ Sizing
 "CRtdFlo_Sys_T_Restrm_C" = 153.3646   $ Sizing
 "CRtdFlo_Sys_T_StorSm_E" = 158.7676   $ Sizing
 "CRtdFlo_Sys_T_StorSm_N" = 99.98269   $ Sizing
 "CRtdFlo_Sys_T_StorSm_S" = 157.7294   $ Sizing
 "CRtdFlo_Sys_T_StorSm_W" = 174.5066   $ Sizing
 "CSupFlo_Sys_L_Break_C" = 566.4633   $ Sizing
 "CSupFlo_Sys_L_CompDC_C" = 174.5248   $ Sizing
 "CSupFlo_Sys_L_Conf_C" = 325.7164   $ Sizing
 "CSupFlo_Sys_L_CopyRm_C" = 117.5807   $ Sizing
 "CSupFlo_Sys_L_Hall_E" = 137.8701   $ Sizing
 "CSupFlo_Sys_L_Hall_N" = 82.32068   $ Sizing
 "CSupFlo_Sys_L_Hall_S" = 133.6773   $ Sizing
 "CSupFlo_Sys_L_Hall_W" = 148.2756   $ Sizing
 "CSupFlo_Sys_L_LobWait_E" = 327.706   $ Sizing
 "CSupFlo_Sys_L_LobWait_N" = 222.6048   $ Sizing
 "CSupFlo_Sys_L_LobWait_S" = 337.5403   $ Sizing
 "CSupFlo_Sys_L_LobWait_W" = 380.5107   $ Sizing
 "CSupFlo_Sys_L_MechElec_C" = 97.97263   $ Sizing
 "CSupFlo_Sys_L_OfficeOpn_C" = 83.63084   $ Sizing
 "CSupFlo_Sys_L_OfficeOpn_E" = 585.574   $ Sizing
 "CSupFlo_Sys_L_OfficeOpn_N" = 439.2343   $ Sizing
 "CSupFlo_Sys_L_OfficeOpn_S" = 578.7397   $ Sizing
 "CSupFlo_Sys_L_OfficeOpn_W" = 646.8262   $ Sizing
 "CSupFlo_Sys_L_OfficeSm_E" = 489.8729   $ Sizing
 "CSupFlo_Sys_L_OfficeSm_N" = 341.7005   $ Sizing
 "CSupFlo_Sys_L_OfficeSm_S" = 487.9578   $ Sizing
 "CSupFlo_Sys_L_OfficeSm_W" = 546.6019   $ Sizing
 "CSupFlo_Sys_L_Restrm_C" = 112.5221   $ Sizing
 "CSupFlo_Sys_L_StorSm_C" = 45.81937   $ Sizing
 "CSupFlo_Sys_L_StorSm_E" = 137.2249   $ Sizing
 "CSupFlo_Sys_L_StorSm_N" = 86.15075   $ Sizing
 "CSupFlo_Sys_L_StorSm_S" = 135.2301   $ Sizing
 "CSupFlo_Sys_L_StorSm_W" = 146.0047   $ Sizing
 "CSupFlo_Sys_T_Conf_C" = 314.3176   $ Sizing
 "CSupFlo_Sys_T_Hall_E" = 152.2082   $ Sizing
 "CSupFlo_Sys_T_Hall_N" = 89.52795   $ Sizing
 "CSupFlo_Sys_T_Hall_S" = 149.5937   $ Sizing
 "CSupFlo_Sys_T_Hall_W" = 164.8889   $ Sizing
 "CSupFlo_Sys_T_OfficeOpn_C" = 81.24407   $ Sizing
 "CSupFlo_Sys_T_OfficeOpn_E" = 619.1915   $ Sizing
 "CSupFlo_Sys_T_OfficeOpn_N" = 457.3643   $ Sizing
 "CSupFlo_Sys_T_OfficeOpn_S" = 624.1013   $ Sizing
 "CSupFlo_Sys_T_OfficeOpn_W" = 676.9194   $ Sizing
 "CSupFlo_Sys_T_OfficeSm_E" = 520.1149   $ Sizing
 "CSupFlo_Sys_T_OfficeSm_N" = 359.4691   $ Sizing
 "CSupFlo_Sys_T_OfficeSm_S" = 526.6617   $ Sizing
 "CSupFlo_Sys_T_OfficeSm_W" = 574.8806   $ Sizing
 "CSupFlo_Sys_T_Restrm_C" = 153.3646   $ Sizing
 "CSupFlo_Sys_T_StorSm_E" = 158.7676   $ Sizing
 "CSupFlo_Sys_T_StorSm_N" = 99.98269   $ Sizing
 "CSupFlo_Sys_T_StorSm_S" = 157.7294   $ Sizing
 "CSupFlo_Sys_T_StorSm_W" = 174.5066   $ Sizing
 "ClCap_Sys_L_Break_C" = 17698.96   $ Sizing
 "ClCap_Sys_L_CompDC_C" = 5452.97   $ Sizing
 "ClCap_Sys_L_Conf_C" = 12952.42   $ Sizing
 "ClCap_Sys_L_CopyRm_C" = 3673.771   $ Sizing
 "ClCap_Sys_L_Hall_E" = 4307.706   $ Sizing
 "ClCap_Sys_L_Hall_N" = 2572.083   $ Sizing
 "ClCap_Sys_L_Hall_S" = 4176.705   $ Sizing
 "ClCap_Sys_L_Hall_W" = 4632.823   $ Sizing
 "ClCap_Sys_L_LobWait_E" = 10239.07   $ Sizing
 "ClCap_Sys_L_LobWait_N" = 6955.214   $ Sizing
 "ClCap_Sys_L_LobWait_S" = 10546.34   $ Sizing
 "ClCap_Sys_L_LobWait_W" = 11888.93   $ Sizing
 "ClCap_Sys_L_MechElec_C" = 3061.123   $ Sizing
 "ClCap_Sys_L_OfficeOpn_C" = 2613.018   $ Sizing
 "ClCap_Sys_L_OfficeOpn_E" = 18296.07   $ Sizing
 "ClCap_Sys_L_OfficeOpn_N" = 13723.73   $ Sizing
 "ClCap_Sys_L_OfficeOpn_S" = 18082.54   $ Sizing
 "ClCap_Sys_L_OfficeOpn_W" = 20209.87   $ Sizing
 "ClCap_Sys_L_OfficeSm_E" = 15305.92   $ Sizing
 "ClCap_Sys_L_OfficeSm_N" = 10676.32   $ Sizing
 "ClCap_Sys_L_OfficeSm_S" = 15246.08   $ Sizing
 "ClCap_Sys_L_OfficeSm_W" = 17078.4   $ Sizing
 "ClCap_Sys_L_Restrm_C" = 3515.716   $ Sizing
 "ClCap_Sys_L_StorSm_C" = 1431.611   $ Sizing
 "ClCap_Sys_L_StorSm_E" = 4287.548   $ Sizing
 "ClCap_Sys_L_StorSm_N" = 2691.752   $ Sizing
 "ClCap_Sys_L_StorSm_S" = 4225.222   $ Sizing
 "ClCap_Sys_L_StorSm_W" = 4561.869   $ Sizing
 "ClCap_Sys_T_Conf_C" = 12499.14   $ Sizing
 "ClCap_Sys_T_Hall_E" = 4755.697   $ Sizing
 "ClCap_Sys_T_Hall_N" = 2797.272   $ Sizing
 "ClCap_Sys_T_Hall_S" = 4674.006   $ Sizing
 "ClCap_Sys_T_Hall_W" = 5151.9   $ Sizing
 "ClCap_Sys_T_OfficeOpn_C" = 2538.445   $ Sizing
 "ClCap_Sys_T_OfficeOpn_E" = 19346.44   $ Sizing
 "ClCap_Sys_T_OfficeOpn_N" = 14290.2   $ Sizing
 "ClCap_Sys_T_OfficeOpn_S" = 19499.84   $ Sizing
 "ClCap_Sys_T_OfficeOpn_W" = 21150.13   $ Sizing
 "ClCap_Sys_T_OfficeSm_E" = 16250.82   $ Sizing
 "ClCap_Sys_T_OfficeSm_N" = 11231.5   $ Sizing
 "ClCap_Sys_T_OfficeSm_S" = 16455.37   $ Sizing
 "ClCap_Sys_T_OfficeSm_W" = 17961.96   $ Sizing
 "ClCap_Sys_T_Restrm_C" = 4791.826   $ Sizing
 "ClCap_Sys_T_StorSm_E" = 4960.641   $ Sizing
 "ClCap_Sys_T_StorSm_N" = 3123.927   $ Sizing
 "ClCap_Sys_T_StorSm_S" = 4928.204   $ Sizing
 "ClCap_Sys_T_StorSm_W" = 5452.402   $ Sizing
 "HtCap_Sys_L_Break_C" = -30648.47   $ Sizing
 "HtCap_Sys_L_CompDC_C" = -6384.683   $ Sizing
 "HtCap_Sys_L_Conf_C" = -18319.18   $ Sizing
 "HtCap_Sys_L_CopyRm_C" = -6278.452   $ Sizing
 "HtCap_Sys_L_Hall_E" = -5067.991   $ Sizing
 "HtCap_Sys_L_Hall_N" = -3002.417   $ Sizing
 "HtCap_Sys_L_Hall_S" = -4872.223   $ Sizing
 "HtCap_Sys_L_Hall_W" = -5016.486   $ Sizing
 "HtCap_Sys_L_LobWait_E" = -12507.03   $ Sizing
 "HtCap_Sys_L_LobWait_N" = -9365.284   $ Sizing
 "HtCap_Sys_L_LobWait_S" = -12271.35   $ Sizing
 "HtCap_Sys_L_LobWait_W" = -13264.57   $ Sizing
 "HtCap_Sys_L_MechElec_C" = -4523.308   $ Sizing
 "HtCap_Sys_L_OfficeOpn_C" = -3367.034   $ Sizing
 "HtCap_Sys_L_OfficeOpn_E" = -20541.29   $ Sizing
 "HtCap_Sys_L_OfficeOpn_N" = -16552.74   $ Sizing
 "HtCap_Sys_L_OfficeOpn_S" = -20025.81   $ Sizing
 "HtCap_Sys_L_OfficeOpn_W" = -21570.84   $ Sizing
 "HtCap_Sys_L_OfficeSm_E" = -17790.1   $ Sizing
 "HtCap_Sys_L_OfficeSm_N" = -12468.41   $ Sizing
 "HtCap_Sys_L_OfficeSm_S" = -16812.77   $ Sizing
 "HtCap_Sys_L_OfficeSm_W" = -18022.69   $ Sizing
 "HtCap_Sys_L_Restrm_C" = -3872.942   $ Sizing
 "HtCap_Sys_L_StorSm_C" = -1854.562   $ Sizing
 "HtCap_Sys_L_StorSm_E" = -5191.642   $ Sizing
 "HtCap_Sys_L_StorSm_N" = -3540.719   $ Sizing
 "HtCap_Sys_L_StorSm_S" = -4967.136   $ Sizing
 "HtCap_Sys_L_StorSm_W" = -5067.836   $ Sizing
 "HtCap_Sys_T_Conf_C" = -18432.72   $ Sizing
 "HtCap_Sys_T_Hall_E" = -5757.062   $ Sizing
 "HtCap_Sys_T_Hall_N" = -3736.389   $ Sizing
 "HtCap_Sys_T_Hall_S" = -5793.886   $ Sizing
 "HtCap_Sys_T_Hall_W" = -6020.188   $ Sizing
 "HtCap_Sys_T_OfficeOpn_C" = -3352.829   $ Sizing
 "HtCap_Sys_T_OfficeOpn_E" = -22597.88   $ Sizing
 "HtCap_Sys_T_OfficeOpn_N" = -19136.72   $ Sizing
 "HtCap_Sys_T_OfficeOpn_S" = -23562.86   $ Sizing
 "HtCap_Sys_T_OfficeOpn_W" = -25623.87   $ Sizing
 "HtCap_Sys_T_OfficeSm_E" = -19259.92   $ Sizing
 "HtCap_Sys_T_OfficeSm_N" = -14728.51   $ Sizing
 "HtCap_Sys_T_OfficeSm_S" = -19773.28   $ Sizing
 "HtCap_Sys_T_OfficeSm_W" = -21076.06   $ Sizing
 "HtCap_Sys_T_Restrm_C" = -5880.716   $ Sizing
 "HtCap_Sys_T_StorSm_E" = -6243.328   $ Sizing
 "HtCap_Sys_T_StorSm_N" = -4619.283   $ Sizing
 "HtCap_Sys_T_StorSm_S" = -6162.818   $ Sizing
 "HtCap_Sys_T_StorSm_W" = -6832.497   $ Sizing
..

##include Templates\OfS_DX_SZ.inp
END ..
COMPUTE ..
STOP ..
