INPUT ..

##fileprefix C:\Users\jglasskatz\MASControl3\
##set1 IsSizing FALSE
##set1 CoolType ACH
##set1 HeatType HOT-WATER
##set1 EU_HrRepVar 1
##set1 BldgVint 1996
##set1 BldgLoc CZ01

 ##set1 mChlrCap_fT DEFAULT   $ IP Tech: ChlrScrA-lt150-9.2EER
 ##set1 mChlrEIR_fPLR DEFAULT   $ IP Tech: ChlrScrA-lt150-9.2EER
 ##set1 mChlrEIR_fT DEFAULT   $ IP Tech: ChlrScrA-lt150-9.2EER
 ##set1 mChlrType Screw   $ IP Tech: ChlrScrA-lt150-9.2EER
 ##set1 mCondType Air   $ IP Tech: ChlrScrA-lt150-9.2EER
 ##set1 mSetupLdChlr FALSE   $ IP Tech: ChlrScrA-lt150-9.2EER
 ##set1 mCHW_FlowCtrl Const   $ IP Tech: ChwFlowCtrlCst
 ##set1 mHW_FlowCtrl Const   $ IP Tech: HwFlowCtrlCst
 ##set1 mBlrIsCond FALSE   $ IP Tech: WBlr-lt300-80p0AF

PARAMETER
 "AltFactor" = 1.00753   $ IP Non-Tech
 "BldgEconoFlag" = 1   $ IP Non-Tech
 "BlrPrimLp" = BlrPrimLoop   $ IP Non-Tech
 "Break_EWSF" = 1   $ IP Non-Tech
 "Break_LWSF" = 1.1   $ IP Non-Tech
 "CDD_DBHi10" = 65   $ IP Non-Tech
 "CDD_DBHi7" = 68   $ IP Non-Tech
 "CDD_DBHi8" = 66   $ IP Non-Tech
 "CDD_DBHi9" = 77   $ IP Non-Tech
 "CDD_DBRange10" = 17   $ IP Non-Tech
 "CDD_DBRange7" = 11   $ IP Non-Tech
 "CDD_DBRange8" = 10   $ IP Non-Tech
 "CDD_DBRange9" = 29   $ IP Non-Tech
 "CDD_Day10" = 15   $ IP Non-Tech
 "CDD_Day7" = 16   $ IP Non-Tech
 "CDD_Day8" = 20   $ IP Non-Tech
 "CDD_Day9" = 17   $ IP Non-Tech
 "CDD_HrHi10" = 12   $ IP Non-Tech
 "CDD_HrHi7" = 12   $ IP Non-Tech
 "CDD_HrHi8" = 13   $ IP Non-Tech
 "CDD_HrHi9" = 17   $ IP Non-Tech
 "CDD_HrLo10" = 6   $ IP Non-Tech
 "CDD_HrLo7" = 3   $ IP Non-Tech
 "CDD_HrLo8" = 8   $ IP Non-Tech
 "CDD_HrLo9" = 4   $ IP Non-Tech
 "CDD_WB10" = 57.53039551   $ IP Non-Tech
 "CDD_WB7" = 59.29250717   $ IP Non-Tech
 "CDD_WB8" = 60.75350189   $ IP Non-Tech
 "CDD_WB9" = 61.08643341   $ IP Non-Tech
 "CZ_Category" = Tem   $ IP Non-Tech
 "ChwDesignDT" = 12   $ IP Non-Tech
 "ChwPipeHead" = 62   $ IP Non-Tech
 "ChwRetDT" = 0.03   $ IP Non-Tech
 "ChwSupDT" = 0.05   $ IP Non-Tech
 "ChwT" = 44   $ IP Non-Tech
 "ChwVintEconoFlag" = 1   $ IP Non-Tech
 "CompRoomData_EWSF" = 5.25   $ IP Non-Tech
 "CompRoomData_LWSF" = 1.2   $ IP Non-Tech
 "Conference_EWSF" = 1.05   $ IP Non-Tech
 "Conference_LWSF" = 1.4   $ IP Non-Tech
 "CoolSetT" = 55   $ IP Non-Tech
 "CoolType" = ACH   $ IP Non-Tech
 "CopyRoom_EWSF" = 1.575   $ IP Non-Tech
 "CopyRoom_LWSF" = 1.3   $ IP Non-Tech
 "DesCoolT" = 75   $ IP Non-Tech
 "DesHeatT" = 73   $ IP Non-Tech
 "EconoEnthLimit" = 28   $ IP Non-Tech
 "EconoTempLimit" = 70   $ IP Non-Tech
 "Elevation" = 203   $ IP Non-Tech
 "HDD_CloudAmt1" = 0   $ IP Non-Tech
 "HDD_DBHi1" = 53   $ IP Non-Tech
 "HDD_DBRange1" = 20   $ IP Non-Tech
 "HDD_Day1" = 15   $ IP Non-Tech
 "HDD_HrHi1" = 14   $ IP Non-Tech
 "HDD_HrLo1" = 6   $ IP Non-Tech
 "HDD_WB1" = 42.3   $ IP Non-Tech
 "HDD_WindSpd1" = 12.7   $ IP Non-Tech
 "Hall_EWSF" = 0.21   $ IP Non-Tech
 "Hall_LWSF" = 0.6   $ IP Non-Tech
 "HeatSrc" = HOT-WATER   $ IP Non-Tech
 "HeatSrcTU" = HOT-WATER   $ IP Non-Tech
 "HeatType" = GasBlr   $ IP Non-Tech
 "HeatTypeTU" = HOT-WATER   $ IP Non-Tech
 "HwDesignDT" = 30   $ IP Non-Tech
 "HwPipeHead" = 40   $ IP Non-Tech
 "HwRetDT" = 0.3   $ IP Non-Tech
 "HwSupDT" = 0.5   $ IP Non-Tech
 "IndoorFanMode" = CONTINUOUS   $ IP Non-Tech
 "KT_TransferAir" = No   $ IP Non-Tech
 "Latitude" = 40.8   $ IP Non-Tech
 "LobbyWaiting_EWSF" = 0.5125   $ IP Non-Tech
 "LobbyWaiting_LWSF" = 1.3   $ IP Non-Tech
 "Longitude" = 124.2   $ IP Non-Tech
 "LtgMsrApplic" = ALL   $ Msr TechID: NonResLtgRefMsr-LF
 "LtgSav_CFL" = 0   $ Msr TechID: NonResLtgRefMsr-LF
 "LtgSav_EX" = 0   $ Msr TechID: NonResLtgRefMsr-LF
 "LtgSav_HB" = 0   $ Msr TechID: NonResLtgRefMsr-LF
 "LtgSav_LF" = 0.3   $ Msr TechID: NonResLtgRefMsr-LF
 "LtgSav_SP" = 0   $ Msr TechID: NonResLtgRefMsr-LF
 "MZFanMechEff" = 0.68   $ IP Non-Tech
 "MZHasRetFan" = TRUE   $ IP Non-Tech
 "MZ_RFanWPerCfm" = 0.33   $ IP Non-Tech
 "MZ_SFanWPerCfm" = 0.75   $ IP Non-Tech
 "MaxSupT_MZ" = 95   $ IP Non-Tech
 "MaxSupT_SZ" = 105   $ IP Non-Tech
 "MaxSupT_TU" = 105   $ IP Non-Tech
 "MechElecRoom_EWSF" = 0.21   $ IP Non-Tech
 "MechElecRoom_LWSF" = 0.7   $ IP Non-Tech
 "MinCfmPerSF" = 0.4   $ IP Non-Tech
 "MinSupT" = 55   $ IP Non-Tech
 "OccCoolT" = 76   $ IP Non-Tech
 "OccHeatT" = 72   $ IP Non-Tech
 "OfficeOpen_EWSF" = 1.575   $ IP Non-Tech
 "OfficeOpen_LWSF" = 1.2   $ IP Non-Tech
 "OfficeSmall_EWSF" = 1.575   $ IP Non-Tech
 "OfficeSmall_LWSF" = 1.3   $ IP Non-Tech
 "PkgDxVintEconoFlag" = 0   $ IP Non-Tech
 "ReheatDeltaT" = 39   $ IP Non-Tech
 "Restroom_EWSF" = 0.21   $ IP Non-Tech
 "Restroom_LWSF" = 0.6   $ IP Non-Tech
 "SZFanMechEff" = 0.54   $ IP Non-Tech
 "SZHasRetFan" = TRUE   $ IP Non-Tech
 "SZ_Is_2Spd" = FALSE   $ IP Non-Tech
 "SZ_SFanWPerCfm" = 0.46   $ IP Non-Tech
 "StorageSmlCond_EWSF" = 0.21   $ IP Non-Tech
 "StorageSmlCond_LWSF" = 0.6   $ IP Non-Tech
 "T24GlzTbl" = CZTbl   $ IP Non-Tech
 "TermUnitFanMechEff" = 1   $ IP Non-Tech
 "TermUnitFanMode" = INTERMITTENT   $ IP Non-Tech
 "TermUnitFanWPerCfm" = 0.175   $ IP Non-Tech
 "TwrSetpt" = 80   $ IP Non-Tech
 "UnocCoolT" = 86   $ IP Non-Tech
 "UnocHeatT" = 62   $ IP Non-Tech
 "VAVMinFlow" = 0.3   $ IP Non-Tech
 "WlhpVintEconoFlag" = 0   $ IP Non-Tech
 "EconoCtrl" = OA-TEMP   $ IP Tech: AirEcono-OATemp
 "MaxOAFrac" = 0.85   $ IP Tech: AirEcono-OATemp
 "UseEconoVintApplic" = FALSE   $ IP Tech: AirEcono-OATemp
 "ChlrCapRange" = lt150   $ IP Tech: ChlrScrA-lt150-9.2EER
 "ChlrEff" = 9.23   $ IP Tech: ChlrScrA-lt150-9.2EER
 "ChlrType" = Screw   $ IP Tech: ChlrScrA-lt150-9.2EER
 "ChlrVSD" = NO   $ IP Tech: ChlrScrA-lt150-9.2EER
 "CmpPerCkt" = NA   $ IP Tech: ChlrScrA-lt150-9.2EER
 "CondRelief" = FALSE   $ IP Tech: ChlrScrA-lt150-9.2EER
 "CondType" = Air   $ IP Tech: ChlrScrA-lt150-9.2EER
 "EffUnits" = EER   $ IP Tech: ChlrScrA-lt150-9.2EER
 "IPLV" = -99   $ IP Tech: ChlrScrA-lt150-9.2EER
 "CHW_FlowCtrl" = Const   $ IP Tech: ChwFlowCtrlCst
 "CHW_HdSensLoc" = AT-COILS   $ IP Tech: ChwFlowCtrlCst
 "CHW_HdSptCtrl" = FIXED   $ IP Tech: ChwFlowCtrlCst
 "CHWP_Encl" = Any   $ IP Tech: ChwPumpMtrEff-HI
 "CHWP_MotClass" = HI-EFF   $ IP Tech: ChwPumpMtrEff-HI
 "CHWP_MotHP" = Any   $ IP Tech: ChwPumpMtrEff-HI
 "CHWP_NEMA_DC" =    $ IP Tech: ChwPumpMtrEff-HI
 "CHWP_RPM" = Any   $ IP Tech: ChwPumpMtrEff-HI
 "CHWP_Volt" =    $ IP Tech: ChwPumpMtrEff-HI
 "CHW_MaxT" = 54   $ IP Tech: ChwTempCtrlReset
 "CHW_TempCtrl" = LOAD-RESET   $ IP Tech: ChwTempCtrlReset
 "DuctDT" = 2   $ IP Tech: ComDuctInsul-2
 "DuctAirLoss" = 0   $ IP Tech: ComDuctLeak-0
 "DuctLossOAFrac" = 0   $ IP Tech: ComDuctLeak-0
 "ComRoofInsCalc" = FromUo   $ IP Tech: ComRoofIns-WFrm-0.06
 "ComRoofInsR" = -999   $ IP Tech: ComRoofIns-WFrm-0.06
 "ComRoofUo" = 0.06   $ IP Tech: ComRoofIns-WFrm-0.06
 "ComEWInsCalc" = FromUo   $ IP Tech: ComWallIns-WFrm-0.08
 "ComEWInsR" = -999   $ IP Tech: ComWallIns-WFrm-0.08
 "ComEWUo" = 0.08   $ IP Tech: ComWallIns-WFrm-0.08
 "MotorClass" = HI-EFF   $ IP Tech: ExhFanMtr-High
 "HW_FlowCtrl" = Const   $ IP Tech: HwFlowCtrlCst
 "HW_HdSensLoc" = AT-COILS   $ IP Tech: HwFlowCtrlCst
 "HW_HdSptCtrl" = FIXED   $ IP Tech: HwFlowCtrlCst
 "HWP_Encl" = Any   $ IP Tech: HwPumpMtrEff-HI
 "HWP_MotClass" = HI-EFF   $ IP Tech: HwPumpMtrEff-HI
 "HWP_MotHP" = Any   $ IP Tech: HwPumpMtrEff-HI
 "HWP_NEMA_DC" = Any   $ IP Tech: HwPumpMtrEff-HI
 "HWP_RPM" = Any   $ IP Tech: HwPumpMtrEff-HI
 "HWP_Volt" = Any   $ IP Tech: HwPumpMtrEff-HI
 "HWResetOutsideHi" = -1   $ IP Tech: HwTempCtrlFixed
 "HWResetOutsideLo" = -1   $ IP Tech: HwTempCtrlFixed
 "HW_TempCtrl" = FIXED   $ IP Tech: HwTempCtrlFixed
 "ComN_SHGC" = 0.77   $ IP Tech: NResWin-ComN-0.77-0.77
 "ComN_UFactor" = 0.77   $ IP Tech: NResWin-ComN-0.77-0.77
 "ComN_VisTrans" = 0.81   $ IP Tech: NResWin-ComN-0.77-0.77
 "ComN_WinCode" = G2000   $ IP Tech: NResWin-ComN-0.77-0.77
 "ComN_WinFrmFrac" = 0.17   $ IP Tech: NResWin-ComN-0.77-0.77
 "ComN_WinFrmU" = 1   $ IP Tech: NResWin-ComN-0.77-0.77
 "ComO_SHGC" = 0.5   $ IP Tech: NResWin-ComO-0.77-0.5
 "ComO_UFactor" = 0.77   $ IP Tech: NResWin-ComO-0.77-0.5
 "ComO_VisTrans" = 0.77   $ IP Tech: NResWin-ComO-0.77-0.5
 "ComO_WinCode" = G2630   $ IP Tech: NResWin-ComO-0.77-0.5
 "ComO_WinFrmFrac" = 0.17   $ IP Tech: NResWin-ComO-0.77-0.5
 "ComO_WinFrmU" = 1   $ IP Tech: NResWin-ComO-0.77-0.5
 "SATempCtrl" = RESET   $ IP Tech: SATempCtrl-Reset
 "FanEIR_fPLR" = "ForCurve w Inlet Vanes FPLR"   $ IP Tech: VAVCtrl-Inlet-AnyHP
 "Fan_Control" = Inlet   $ IP Tech: VAVCtrl-Inlet-AnyHP
 "Motor_Horsepower" = AnyHP   $ IP Tech: VAVCtrl-Inlet-AnyHP
 "BlrCapRange" = lt300   $ IP Tech: WBlr-lt300-80p0AF
 "BlrDraftType" = FDr   $ IP Tech: WBlr-lt300-80p0AF
 "BlrEff" = 0.8   $ IP Tech: WBlr-lt300-80p0AF
 "BlrEffUnits" = AFUE   $ IP Tech: WBlr-lt300-80p0AF
 "BlrEt" = 0.805   $ IP Tech: WBlr-lt300-80p0AF
 "BlrFluid" = Wtr   $ IP Tech: WBlr-lt300-80p0AF
 "BlrIsCond" = FALSE   $ IP Tech: WBlr-lt300-80p0AF
 "BlrT" = 165   $ IP Tech: WBlr-lt300-80p0AF
 "AltAdjFactor" = 1.007532   $ Sizing
 "CAssFlo_L_Break_CZn" = 263.083   $ Sizing
 "CAssFlo_L_CompDC_CZn" = 162.3201   $ Sizing
 "CAssFlo_L_Conf_CZn" = 185.8589   $ Sizing
 "CAssFlo_L_CopyRm_CZn" = 50.72986   $ Sizing
 "CAssFlo_L_Hall_EZn" = 133.7517   $ Sizing
 "CAssFlo_L_Hall_NZn" = 75.63498   $ Sizing
 "CAssFlo_L_Hall_SZn" = 155.6461   $ Sizing
 "CAssFlo_L_Hall_WZn" = 137.8779   $ Sizing
 "CAssFlo_L_LobWait_EZn" = 319.3529   $ Sizing
 "CAssFlo_L_LobWait_NZn" = 157.3749   $ Sizing
 "CAssFlo_L_LobWait_SZn" = 364.2758   $ Sizing
 "CAssFlo_L_LobWait_WZn" = 319.9626   $ Sizing
 "CAssFlo_L_MechElec_CZn" = 65.93681   $ Sizing
 "CAssFlo_L_OfficeOpn_CZn" = 51.70545   $ Sizing
 "CAssFlo_L_OfficeOpn_EZn" = 619.9973   $ Sizing
 "CAssFlo_L_OfficeOpn_NZn" = 245.2926   $ Sizing
 "CAssFlo_L_OfficeOpn_SZn" = 648.4258   $ Sizing
 "CAssFlo_L_OfficeOpn_WZn" = 589.4881   $ Sizing
 "CAssFlo_L_OfficeSm_EZn" = 537.6924   $ Sizing
 "CAssFlo_L_OfficeSm_NZn" = 189.4271   $ Sizing
 "CAssFlo_L_OfficeSm_SZn" = 580.247   $ Sizing
 "CAssFlo_L_OfficeSm_WZn" = 524.3413   $ Sizing
 "CAssFlo_L_Restrm_CZn" = 86.07105   $ Sizing
 "CAssFlo_L_StorSm_CZn" = 34.0588   $ Sizing
 "CAssFlo_L_StorSm_EZn" = 122.2206   $ Sizing
 "CAssFlo_L_StorSm_NZn" = 80.37676   $ Sizing
 "CAssFlo_L_StorSm_SZn" = 139.7731   $ Sizing
 "CAssFlo_L_StorSm_WZn" = 122.9944   $ Sizing
 "CAssFlo_T_Conf_CZn" = 199.1651   $ Sizing
 "CAssFlo_T_Hall_EZn" = 153.7525   $ Sizing
 "CAssFlo_T_Hall_NZn" = 71.75909   $ Sizing
 "CAssFlo_T_Hall_SZn" = 179.7197   $ Sizing
 "CAssFlo_T_Hall_WZn" = 153.1994   $ Sizing
 "CAssFlo_T_OfficeOpn_CZn" = 49.1974   $ Sizing
 "CAssFlo_T_OfficeOpn_EZn" = 630.5234   $ Sizing
 "CAssFlo_T_OfficeOpn_NZn" = 283.7282   $ Sizing
 "CAssFlo_T_OfficeOpn_SZn" = 701.2671   $ Sizing
 "CAssFlo_T_OfficeOpn_WZn" = 599.4931   $ Sizing
 "CAssFlo_T_OfficeSm_EZn" = 560.017   $ Sizing
 "CAssFlo_T_OfficeSm_NZn" = 225.1995   $ Sizing
 "CAssFlo_T_OfficeSm_SZn" = 632.9716   $ Sizing
 "CAssFlo_T_OfficeSm_WZn" = 547.1978   $ Sizing
 "CAssFlo_T_Restrm_CZn" = 88.0267   $ Sizing
 "CAssFlo_T_StorSm_EZn" = 143.66   $ Sizing
 "CAssFlo_T_StorSm_NZn" = 77.31343   $ Sizing
 "CAssFlo_T_StorSm_SZn" = 167.0551   $ Sizing
 "CAssFlo_T_StorSm_WZn" = 145.2837   $ Sizing
 "CBF_Sys_L" = 0.04525353   $ Sizing
 "CBF_Sys_T" = 0.04540808   $ Sizing
 "CHRtFlo_L_Break_CZn" = 185.4956   $ Sizing
 "CHRtFlo_L_CompDC_CZn" = 48.69604   $ Sizing
 "CHRtFlo_L_Conf_CZn" = 143.3872   $ Sizing
 "CHRtFlo_L_CopyRm_CZn" = 50.72986   $ Sizing
 "CHRtFlo_L_Hall_EZn" = 65.73784   $ Sizing
 "CHRtFlo_L_Hall_NZn" = 75.63498   $ Sizing
 "CHRtFlo_L_Hall_SZn" = 46.69383   $ Sizing
 "CHRtFlo_L_Hall_WZn" = 64.5455   $ Sizing
 "CHRtFlo_L_LobWait_EZn" = 136.4209   $ Sizing
 "CHRtFlo_L_LobWait_NZn" = 157.3749   $ Sizing
 "CHRtFlo_L_LobWait_SZn" = 109.2828   $ Sizing
 "CHRtFlo_L_LobWait_WZn" = 134.2256   $ Sizing
 "CHRtFlo_L_MechElec_CZn" = 42.27887   $ Sizing
 "CHRtFlo_L_OfficeOpn_CZn" = 37.68159   $ Sizing
 "CHRtFlo_L_OfficeOpn_EZn" = 185.9992   $ Sizing
 "CHRtFlo_L_OfficeOpn_NZn" = 179.8231   $ Sizing
 "CHRtFlo_L_OfficeOpn_SZn" = 194.5278   $ Sizing
 "CHRtFlo_L_OfficeOpn_WZn" = 176.8464   $ Sizing
 "CHRtFlo_L_OfficeSm_EZn" = 161.3077   $ Sizing
 "CHRtFlo_L_OfficeSm_NZn" = 167.4313   $ Sizing
 "CHRtFlo_L_OfficeSm_SZn" = 174.0741   $ Sizing
 "CHRtFlo_L_OfficeSm_WZn" = 157.3024   $ Sizing
 "CHRtFlo_L_Restrm_CZn" = 57.27329   $ Sizing
 "CHRtFlo_L_StorSm_CZn" = 34.0588   $ Sizing
 "CHRtFlo_L_StorSm_EZn" = 70.31357   $ Sizing
 "CHRtFlo_L_StorSm_NZn" = 80.37676   $ Sizing
 "CHRtFlo_L_StorSm_SZn" = 41.93194   $ Sizing
 "CHRtFlo_L_StorSm_WZn" = 62.46366   $ Sizing
 "CHRtFlo_T_Conf_CZn" = 143.3872   $ Sizing
 "CHRtFlo_T_Hall_EZn" = 64.90542   $ Sizing
 "CHRtFlo_T_Hall_NZn" = 71.75909   $ Sizing
 "CHRtFlo_T_Hall_SZn" = 53.91591   $ Sizing
 "CHRtFlo_T_Hall_WZn" = 62.95468   $ Sizing
 "CHRtFlo_T_OfficeOpn_CZn" = 26.91101   $ Sizing
 "CHRtFlo_T_OfficeOpn_EZn" = 189.157   $ Sizing
 "CHRtFlo_T_OfficeOpn_NZn" = 170.7041   $ Sizing
 "CHRtFlo_T_OfficeOpn_SZn" = 210.3801   $ Sizing
 "CHRtFlo_T_OfficeOpn_WZn" = 179.8479   $ Sizing
 "CHRtFlo_T_OfficeSm_EZn" = 168.0051   $ Sizing
 "CHRtFlo_T_OfficeSm_NZn" = 156.1333   $ Sizing
 "CHRtFlo_T_OfficeSm_SZn" = 189.8915   $ Sizing
 "CHRtFlo_T_OfficeSm_WZn" = 164.1593   $ Sizing
 "CHRtFlo_T_Restrm_CZn" = 88.0267   $ Sizing
 "CHRtFlo_T_StorSm_EZn" = 69.73165   $ Sizing
 "CHRtFlo_T_StorSm_NZn" = 77.31343   $ Sizing
 "CHRtFlo_T_StorSm_SZn" = 50.11652   $ Sizing
 "CHRtFlo_T_StorSm_WZn" = 67.40255   $ Sizing
 "CRtdFlo_Sys_L" = 4641.436   $ Sizing
 "CRtdFlo_Sys_T" = 4025.072   $ Sizing
 "CSupFlo_Sys_L" = 4641.436   $ Sizing
 "CSupFlo_Sys_T" = 4025.072   $ Sizing
 "Cap_Boiler1" = -0.1831338   $ Sizing
 "Cap_Chiller1" = 0.2275334   $ Sizing
 "ClCap_Sys_L" = 121336.4   $ Sizing
 "ClCap_Sys_T" = 105151.2   $ Sizing
 "HRtEDB_L_Break_CZn" = 56.31569   $ Sizing
 "HRtEDB_L_CompDC_CZn" = 56.31569   $ Sizing
 "HRtEDB_L_Conf_CZn" = 56.31569   $ Sizing
 "HRtEDB_L_CopyRm_CZn" = 56.31569   $ Sizing
 "HRtEDB_L_Hall_EZn" = 56.4598   $ Sizing
 "HRtEDB_L_Hall_NZn" = 56.4598   $ Sizing
 "HRtEDB_L_Hall_SZn" = 56.4598   $ Sizing
 "HRtEDB_L_Hall_WZn" = 56.4598   $ Sizing
 "HRtEDB_L_LobWait_EZn" = 56.31569   $ Sizing
 "HRtEDB_L_LobWait_NZn" = 56.4598   $ Sizing
 "HRtEDB_L_LobWait_SZn" = 56.4598   $ Sizing
 "HRtEDB_L_LobWait_WZn" = 56.4598   $ Sizing
 "HRtEDB_L_MechElec_CZn" = 56.4598   $ Sizing
 "HRtEDB_L_OfficeOpn_CZn" = 56.31569   $ Sizing
 "HRtEDB_L_OfficeOpn_EZn" = 56.31569   $ Sizing
 "HRtEDB_L_OfficeOpn_NZn" = 56.31569   $ Sizing
 "HRtEDB_L_OfficeOpn_SZn" = 56.31569   $ Sizing
 "HRtEDB_L_OfficeOpn_WZn" = 56.31569   $ Sizing
 "HRtEDB_L_OfficeSm_EZn" = 56.31569   $ Sizing
 "HRtEDB_L_OfficeSm_NZn" = 56.31569   $ Sizing
 "HRtEDB_L_OfficeSm_SZn" = 56.31569   $ Sizing
 "HRtEDB_L_OfficeSm_WZn" = 56.31569   $ Sizing
 "HRtEDB_L_Restrm_CZn" = 56.31569   $ Sizing
 "HRtEDB_L_StorSm_CZn" = 56.4598   $ Sizing
 "HRtEDB_L_StorSm_EZn" = 56.4598   $ Sizing
 "HRtEDB_L_StorSm_NZn" = 56.4598   $ Sizing
 "HRtEDB_L_StorSm_SZn" = 56.4598   $ Sizing
 "HRtEDB_L_StorSm_WZn" = 56.4598   $ Sizing
 "HRtEDB_T_Conf_CZn" = 55.71185   $ Sizing
 "HRtEDB_T_Hall_EZn" = 55.76244   $ Sizing
 "HRtEDB_T_Hall_NZn" = 55.76244   $ Sizing
 "HRtEDB_T_Hall_SZn" = 55.76244   $ Sizing
 "HRtEDB_T_Hall_WZn" = 55.76244   $ Sizing
 "HRtEDB_T_OfficeOpn_CZn" = 55.71185   $ Sizing
 "HRtEDB_T_OfficeOpn_EZn" = 55.71185   $ Sizing
 "HRtEDB_T_OfficeOpn_NZn" = 55.71185   $ Sizing
 "HRtEDB_T_OfficeOpn_SZn" = 55.71185   $ Sizing
 "HRtEDB_T_OfficeOpn_WZn" = 55.71185   $ Sizing
 "HRtEDB_T_OfficeSm_EZn" = 55.71185   $ Sizing
 "HRtEDB_T_OfficeSm_NZn" = 55.71185   $ Sizing
 "HRtEDB_T_OfficeSm_SZn" = 55.71185   $ Sizing
 "HRtEDB_T_OfficeSm_WZn" = 55.71185   $ Sizing
 "HRtEDB_T_Restrm_CZn" = 55.76244   $ Sizing
 "HRtEDB_T_StorSm_EZn" = 55.76244   $ Sizing
 "HRtEDB_T_StorSm_NZn" = 55.76244   $ Sizing
 "HRtEDB_T_StorSm_SZn" = 55.76244   $ Sizing
 "HRtEDB_T_StorSm_WZn" = 55.76244   $ Sizing
 "HWDT_Boiler1" = 24.98273   $ Sizing
 "HtCap_L_Break_CZn" = -7730.334   $ Sizing
 "HtCap_L_CompDC_CZn" = -2029.356   $ Sizing
 "HtCap_L_Conf_CZn" = -5975.512   $ Sizing
 "HtCap_L_CopyRm_CZn" = -2114.114   $ Sizing
 "HtCap_L_Hall_EZn" = -2730.082   $ Sizing
 "HtCap_L_Hall_NZn" = -3141.108   $ Sizing
 "HtCap_L_Hall_SZn" = -1939.187   $ Sizing
 "HtCap_L_Hall_WZn" = -2680.564   $ Sizing
 "HtCap_L_LobWait_EZn" = -5685.197   $ Sizing
 "HtCap_L_LobWait_NZn" = -6535.754   $ Sizing
 "HtCap_L_LobWait_SZn" = -4538.495   $ Sizing
 "HtCap_L_LobWait_WZn" = -5574.368   $ Sizing
 "HtCap_L_MechElec_CZn" = -1755.835   $ Sizing
 "HtCap_L_OfficeOpn_CZn" = -1570.341   $ Sizing
 "HtCap_L_OfficeOpn_EZn" = -7751.319   $ Sizing
 "HtCap_L_OfficeOpn_NZn" = -7493.938   $ Sizing
 "HtCap_L_OfficeOpn_SZn" = -8106.739   $ Sizing
 "HtCap_L_OfficeOpn_WZn" = -7369.889   $ Sizing
 "HtCap_L_OfficeSm_EZn" = -6722.33   $ Sizing
 "HtCap_L_OfficeSm_NZn" = -6977.524   $ Sizing
 "HtCap_L_OfficeSm_SZn" = -7254.355   $ Sizing
 "HtCap_L_OfficeSm_WZn" = -6555.412   $ Sizing
 "HtCap_L_Restrm_CZn" = -2386.804   $ Sizing
 "HtCap_L_StorSm_CZn" = -1414.456   $ Sizing
 "HtCap_L_StorSm_EZn" = -2920.111   $ Sizing
 "HtCap_L_StorSm_NZn" = -3338.034   $ Sizing
 "HtCap_L_StorSm_SZn" = -1741.427   $ Sizing
 "HtCap_L_StorSm_WZn" = -2594.106   $ Sizing
 "HtCap_T_Conf_CZn" = -6068.786   $ Sizing
 "HtCap_T_Hall_EZn" = -2744.18   $ Sizing
 "HtCap_T_Hall_NZn" = -3033.951   $ Sizing
 "HtCap_T_Hall_SZn" = -2279.548   $ Sizing
 "HtCap_T_Hall_WZn" = -2661.704   $ Sizing
 "HtCap_T_OfficeOpn_CZn" = -1138.994   $ Sizing
 "HtCap_T_OfficeOpn_EZn" = -8005.967   $ Sizing
 "HtCap_T_OfficeOpn_NZn" = -7224.956   $ Sizing
 "HtCap_T_OfficeOpn_SZn" = -8904.225   $ Sizing
 "HtCap_T_OfficeOpn_WZn" = -7611.965   $ Sizing
 "HtCap_T_OfficeSm_EZn" = -7110.724   $ Sizing
 "HtCap_T_OfficeSm_NZn" = -6608.257   $ Sizing
 "HtCap_T_OfficeSm_SZn" = -8037.054   $ Sizing
 "HtCap_T_OfficeSm_WZn" = -6947.955   $ Sizing
 "HtCap_T_Restrm_CZn" = -3721.741   $ Sizing
 "HtCap_T_StorSm_EZn" = -2948.232   $ Sizing
 "HtCap_T_StorSm_NZn" = -3268.787   $ Sizing
 "HtCap_T_StorSm_SZn" = -2118.91   $ Sizing
 "HtCap_T_StorSm_WZn" = -2849.758   $ Sizing
 "LpFlo_BlrPrimLoop" = 14.50407   $ Sizing
 "LpFlo_BlrPrimLoop" = 14.50407   $ Sizing
 "LpFlo_ChlrPrimLoop" = 37.64642   $ Sizing
 "LpFlo_ChlrPrimLoop" = 37.64642   $ Sizing
 "LpFlo_CircLp_Chw_All" = 37.64642   $ Sizing
 "LpFlo_CircLp_Chw_All" = 37.64642   $ Sizing
 "LpFlo_CircLp_Hw_All" = 14.50407   $ Sizing
 "LpFlo_CircLp_Hw_All" = 14.50407   $ Sizing
 "RtChwFlo_Chiller1" = 3.718899   $ Sizing
 "RtdEDB_Sys_L" = 72.10603   $ Sizing
 "RtdEDB_Sys_T" = 75.85461   $ Sizing
 "RtdEWB_Sys_L" = 61.54762   $ Sizing
 "RtdEWB_Sys_T" = 61.38592   $ Sizing
 "SUtime_Boiler1" = 0.083   $ Sizing
..

##include Templates\OfS_CH_MZ.inp
END ..
COMPUTE ..
STOP ..
