
Start DOESIM : Storage capacity =  75000000
Starting LOADS   : SAVE-FILES is On , weather is CZ01ARCATA-AP       
Finished LOADS    BDL  1 : Memory (wds) =    278809, Time (sec) =    1.56
Starting REPORT  
Finished REPORT   BDL  1 : Memory (wds) =    548062, Time (sec) =    0.63
Starting HVAC    : SAVE-FILES is On , weather is CZ01ARCATA-AP       
*** ERRORS or WARNINGS from HVAC     program. Examine output file for details.
Finished HVAC     BDL  1 : Memory (wds) =    482925, Time (sec) =    5.92
Starting REPORT  
Finished REPORT   BDL  1 : Memory (wds) =    782397, Time (sec) =    0.52
Starting HOURLY-R
Finished HOURLY-R BDL  1 : Memory (wds) =   1067607, Time (sec) =    0.16
Starting ECONOMIC
Finished ECONOMIC BDL  1 : Memory (wds) =      1034, Time (sec) =    0.04
End   DOESIM : Total elapsed time of      8.8 seconds
RUN COMPLETE
