INPUT ..

##fileprefix C:\Users\jglasskatz\MASControl3\
##set1 IsSizing FALSE
##set1 CoolType DX
##set1 HeatType FURNACE
##set1 EU_HrRepVar 1
##set1 BldgVint 1985
##set1 BldgLoc CZ01

 ##set1 mBFMult 1   $ IP Tech: RefgChg-NRes-Std

PARAMETER
 "AltFactor" = 1.00753   $ IP Non-Tech
 "BldgEconoFlag" = 1   $ IP Non-Tech
 "Break_EWSF" = 1   $ IP Non-Tech
 "Break_LWSF" = 1.1   $ IP Non-Tech
 "CDD_DBHi10" = 65   $ IP Non-Tech
 "CDD_DBHi7" = 68   $ IP Non-Tech
 "CDD_DBHi8" = 66   $ IP Non-Tech
 "CDD_DBHi9" = 77   $ IP Non-Tech
 "CDD_DBRange10" = 17   $ IP Non-Tech
 "CDD_DBRange7" = 11   $ IP Non-Tech
 "CDD_DBRange8" = 10   $ IP Non-Tech
 "CDD_DBRange9" = 29   $ IP Non-Tech
 "CDD_Day10" = 15   $ IP Non-Tech
 "CDD_Day7" = 16   $ IP Non-Tech
 "CDD_Day8" = 20   $ IP Non-Tech
 "CDD_Day9" = 17   $ IP Non-Tech
 "CDD_HrHi10" = 12   $ IP Non-Tech
 "CDD_HrHi7" = 12   $ IP Non-Tech
 "CDD_HrHi8" = 13   $ IP Non-Tech
 "CDD_HrHi9" = 17   $ IP Non-Tech
 "CDD_HrLo10" = 6   $ IP Non-Tech
 "CDD_HrLo7" = 3   $ IP Non-Tech
 "CDD_HrLo8" = 8   $ IP Non-Tech
 "CDD_HrLo9" = 4   $ IP Non-Tech
 "CDD_WB10" = 57.53039551   $ IP Non-Tech
 "CDD_WB7" = 59.29250717   $ IP Non-Tech
 "CDD_WB8" = 60.75350189   $ IP Non-Tech
 "CDD_WB9" = 61.08643341   $ IP Non-Tech
 "CZ_Category" = Tem   $ IP Non-Tech
 "ChwVintEconoFlag" = 1   $ IP Non-Tech
 "CompRoomData_EWSF" = 5.5   $ IP Non-Tech
 "CompRoomData_LWSF" = 1.2   $ IP Non-Tech
 "Conference_EWSF" = 1.1   $ IP Non-Tech
 "Conference_LWSF" = 1.4   $ IP Non-Tech
 "CoolSetT" = 45   $ IP Non-Tech
 "CoolType" = DX   $ IP Non-Tech
 "CopyRoom_EWSF" = 1.65   $ IP Non-Tech
 "CopyRoom_LWSF" = 1.3   $ IP Non-Tech
 "DesCoolT" = 75   $ IP Non-Tech
 "DesHeatT" = 73   $ IP Non-Tech
 "EconoEnthLimit" = 28   $ IP Non-Tech
 "EconoTempLimit" = 70   $ IP Non-Tech
 "Elevation" = 203   $ IP Non-Tech
 "HDD_CloudAmt1" = 0   $ IP Non-Tech
 "HDD_DBHi1" = 53   $ IP Non-Tech
 "HDD_DBRange1" = 20   $ IP Non-Tech
 "HDD_Day1" = 15   $ IP Non-Tech
 "HDD_HrHi1" = 14   $ IP Non-Tech
 "HDD_HrLo1" = 6   $ IP Non-Tech
 "HDD_WB1" = 42.3   $ IP Non-Tech
 "HDD_WindSpd1" = 12.7   $ IP Non-Tech
 "Hall_EWSF" = 0.22   $ IP Non-Tech
 "Hall_LWSF" = 0.6   $ IP Non-Tech
 "HeatSrc" = FURNACE   $ IP Non-Tech
 "HeatSrcTU" = HEAT-PUMP   $ IP Non-Tech
 "HeatType" = GasFurn   $ IP Non-Tech
 "HeatTypeTU" = HEAT-PUMP   $ IP Non-Tech
 "IndoorFanMode" = CONTINUOUS   $ IP Non-Tech
 "KT_TransferAir" = No   $ IP Non-Tech
 "Latitude" = 40.8   $ IP Non-Tech
 "LobbyWaiting_EWSF" = 0.525   $ IP Non-Tech
 "LobbyWaiting_LWSF" = 1.3   $ IP Non-Tech
 "Longitude" = 124.2   $ IP Non-Tech
 "LtgMsrApplic" = ALL   $ Msr TechID: NonResLtgRefMsr-EX
 "LtgSav_CFL" = 0   $ Msr TechID: NonResLtgRefMsr-EX
 "LtgSav_EX" = 0.3   $ Msr TechID: NonResLtgRefMsr-EX
 "LtgSav_HB" = 0   $ Msr TechID: NonResLtgRefMsr-EX
 "LtgSav_LF" = 0   $ Msr TechID: NonResLtgRefMsr-EX
 "LtgSav_SP" = 0   $ Msr TechID: NonResLtgRefMsr-EX
 "MZFanMechEff" = 0.58   $ IP Non-Tech
 "MZHasRetFan" = FALSE   $ IP Non-Tech
 "MZ_RFanWPerCfm" = 0.33   $ IP Non-Tech
 "MZ_SFanWPerCfm" = 0.75   $ IP Non-Tech
 "MZ_SupFanStatic" = 2.25   $ IP Non-Tech
 "MaxSupT_MZ" = 100   $ IP Non-Tech
 "MaxSupT_SZ" = 100   $ IP Non-Tech
 "MaxSupT_TU" = 90   $ IP Non-Tech
 "MechElecRoom_EWSF" = 0.22   $ IP Non-Tech
 "MechElecRoom_LWSF" = 0.7   $ IP Non-Tech
 "MinCfmPerSF" = 0.4   $ IP Non-Tech
 "MinSupT" = 55   $ IP Non-Tech
 "OccCoolT" = 76   $ IP Non-Tech
 "OccHeatT" = 72   $ IP Non-Tech
 "OfficeOpen_EWSF" = 1.65   $ IP Non-Tech
 "OfficeOpen_LWSF" = 1.2   $ IP Non-Tech
 "OfficeSmall_EWSF" = 1.65   $ IP Non-Tech
 "OfficeSmall_LWSF" = 1.3   $ IP Non-Tech
 "PkgDxVintEconoFlag" = 0   $ IP Non-Tech
 "Restroom_EWSF" = 0.22   $ IP Non-Tech
 "Restroom_LWSF" = 0.6   $ IP Non-Tech
 "SZFanMechEff" = 0.58   $ IP Non-Tech
 "SZHasRetFan" = FALSE   $ IP Non-Tech
 "SZ_Is_2Spd" = FALSE   $ IP Non-Tech
 "SZ_SFanWPerCfm" = 0.46   $ IP Non-Tech
 "SZ_SupFanStatic" = 0.75   $ IP Non-Tech
 "StorageSmlCond_EWSF" = 0.22   $ IP Non-Tech
 "StorageSmlCond_LWSF" = 0.6   $ IP Non-Tech
 "T24GlzTbl" = CZTbl   $ IP Non-Tech
 "TermUnitFanMechEff" = 1   $ IP Non-Tech
 "TermUnitFanMode" = INTERMITTENT   $ IP Non-Tech
 "TwrSetpt" = 80   $ IP Non-Tech
 "UnocCoolT" = 86   $ IP Non-Tech
 "UnocHeatT" = 62   $ IP Non-Tech
 "WlhpVintEconoFlag" = 0   $ IP Non-Tech
 "EconoCtrl" = OA-TEMP   $ IP Tech: AirEcono-OATemp
 "MaxOAFrac" = 0.85   $ IP Tech: AirEcono-OATemp
 "UseEconoVintApplic" = FALSE   $ IP Tech: AirEcono-OATemp
 "DuctDT" = 1   $ IP Tech: ComDuctInsul-1
 "DuctAirLoss" = 0   $ IP Tech: ComDuctLeak-0
 "DuctLossOAFrac" = 0   $ IP Tech: ComDuctLeak-0
 "ComRoofInsCalc" = FromUo   $ IP Tech: ComRoofIns-WFrm-0.07
 "ComRoofInsR" = -999   $ IP Tech: ComRoofIns-WFrm-0.07
 "ComRoofUo" = 0.07   $ IP Tech: ComRoofIns-WFrm-0.07
 "ComEWInsCalc" = FromUo   $ IP Tech: ComWallIns-WFrm-0.09
 "ComEWInsR" = -999   $ IP Tech: ComWallIns-WFrm-0.09
 "ComEWUo" = 0.09   $ IP Tech: ComWallIns-WFrm-0.09
 "ComN_SHGC" = 0.82   $ IP Tech: NResWin-ComN-1.23-0.82
 "ComN_UFactor" = 1.23   $ IP Tech: NResWin-ComN-1.23-0.82
 "ComN_VisTrans" = 0.9   $ IP Tech: NResWin-ComN-1.23-0.82
 "ComN_WinCode" = G1000   $ IP Tech: NResWin-ComN-1.23-0.82
 "ComN_WinFrmFrac" = 0.17   $ IP Tech: NResWin-ComN-1.23-0.82
 "ComN_WinFrmU" = 1   $ IP Tech: NResWin-ComN-1.23-0.82
 "ComO_SHGC" = 0.82   $ IP Tech: NResWin-ComO-1.23-0.82
 "ComO_UFactor" = 1.23   $ IP Tech: NResWin-ComO-1.23-0.82
 "ComO_VisTrans" = 0.9   $ IP Tech: NResWin-ComO-1.23-0.82
 "ComO_WinCode" = G1000   $ IP Tech: NResWin-ComO-1.23-0.82
 "ComO_WinFrmFrac" = 0.17   $ IP Tech: NResWin-ComO-1.23-0.82
 "ComO_WinFrmU" = 1   $ IP Tech: NResWin-ComO-1.23-0.82
 "BF_fFlow" = PSZ65to135_BF_fFlow   $ IP Tech: PkgAC1SpH-65to135-E10
 "BF_fT" = PSZ65to135_BF_fT   $ IP Tech: PkgAC1SpH-65to135-E10
 "CEIR_fPLR" = PSZ65to135_CEIR_fPLR   $ IP Tech: PkgAC1SpH-65to135-E10
 "CLoss_fPLR" = PSZ65to135_CLoss_fPLR   $ IP Tech: PkgAC1SpH-65to135-E10
 "COP" = -1   $ IP Tech: PkgAC1SpH-65to135-E10
 "COP47" = -1   $ IP Tech: PkgAC1SpH-65to135-E10
 "CfmPerBtuh" = 0.02917   $ IP Tech: PkgAC1SpH-65to135-E10
 "ClCap_fT" = PSZ65to135_ClCap_fT   $ IP Tech: PkgAC1SpH-65to135-E10
 "ClSH_fT" = PSZ65to135_ClSH_fT   $ IP Tech: PkgAC1SpH-65to135-E10
 "CoilBF" = 0.114   $ IP Tech: PkgAC1SpH-65to135-E10
 "CondWPerBtuh" = 0   $ IP Tech: PkgAC1SpH-65to135-E10
 "CoolSensCap" = 0.663   $ IP Tech: PkgAC1SpH-65to135-E10
 "CoolingEIR" = 0.29745   $ IP Tech: PkgAC1SpH-65to135-E10
 "CrnkEIR" = 0.01   $ IP Tech: PkgAC1SpH-65to135-E10
 "CrnkMaxT" = 50   $ IP Tech: PkgAC1SpH-65to135-E10
 "DXType" = Pkg   $ IP Tech: PkgAC1SpH-65to135-E10
 "EER" = 9.67   $ IP Tech: PkgAC1SpH-65to135-E10
 "EIR_fT" = PSZ65to135_EIR_fT   $ IP Tech: PkgAC1SpH-65to135-E10
 "FanEirPlr" = TwoSpeedFan   $ IP Tech: PkgAC1SpH-65to135-E10
 "FanWPerCfm" = 0.412   $ IP Tech: PkgAC1SpH-65to135-E10
 "HIR_fT" = DEFAULT   $ IP Tech: PkgAC1SpH-65to135-E10
 "HtCap_fT" = DEFAULT   $ IP Tech: PkgAC1SpH-65to135-E10
 "HtCoolCapRatio" = -1   $ IP Tech: PkgAC1SpH-65to135-E10
 "HtgEIR" = -1   $ IP Tech: PkgAC1SpH-65to135-E10
 "HtgFuel" = Gas   $ IP Tech: PkgAC1SpH-65to135-E10
 "IEER" = 11.87   $ IP Tech: PkgAC1SpH-65to135-E10
 "LowSpdCapRatio" = 0.5   $ IP Tech: PkgAC1SpH-65to135-E10
 "LowSpdCfmRatio" = 0.66   $ IP Tech: PkgAC1SpH-65to135-E10
 "NominalCap" = 15   $ IP Tech: PkgAC1SpH-65to135-E10
 "NumStages" = 1   $ IP Tech: PkgAC1SpH-65to135-E10
 "RatedEER" = 10   $ IP Tech: PkgAC1SpH-65to135-E10
 "RatedSupMtrClass" = HiEff   $ IP Tech: PkgAC1SpH-65to135-E10
 "SizeRange" = 65to135   $ IP Tech: PkgAC1SpH-65to135-E10
 "SubType" = AC   $ IP Tech: PkgAC1SpH-65to135-E10
 "SupMotEff" = 0.84   $ IP Tech: PkgAC1SpH-65to135-E10
 "Tier" = 0   $ IP Tech: PkgAC1SpH-65to135-E10
 "TotCoolCap" = 184140   $ IP Tech: PkgAC1SpH-65to135-E10
 "FanPwrMult" = 1   $ IP Tech: PkgFurn-0.80AFUE
 "FurnAFUE" = 0.8   $ IP Tech: PkgFurn-0.80AFUE
 "FurnEt" = 0.82   $ IP Tech: PkgFurn-0.80AFUE
 "FurnaceAuxKW" = 0.1   $ IP Tech: PkgFurn-0.80AFUE
 "HIR_fPLR" = Furnace-HIR-fPLR   $ IP Tech: PkgFurn-0.80AFUE
 "VSM" = FALSE   $ IP Tech: PkgFurn-0.80AFUE
 "BFMult" = 1   $ IP Tech: RefgChg-NRes-Std
 "CoolEirMult" = 1   $ IP Tech: RefgChg-NRes-Std
 "SensCoolCapMult" = 1   $ IP Tech: RefgChg-NRes-Std
 "TotCoolCapMult" = 1   $ IP Tech: RefgChg-NRes-Std
 "AltAdjFactor" = 1.007532   $ Sizing
 "CAssFlo_L_Break_CZn" = 286.8589   $ Sizing
 "CAssFlo_L_CompDC_CZn" = 178.4944   $ Sizing
 "CAssFlo_L_Conf_CZn" = 217.8315   $ Sizing
 "CAssFlo_L_CopyRm_CZn" = 71.33501   $ Sizing
 "CAssFlo_L_Hall_EZn" = 162.3326   $ Sizing
 "CAssFlo_L_Hall_NZn" = 72.23863   $ Sizing
 "CAssFlo_L_Hall_SZn" = 189.3946   $ Sizing
 "CAssFlo_L_Hall_WZn" = 166.0217   $ Sizing
 "CAssFlo_L_LobWait_EZn" = 383.6839   $ Sizing
 "CAssFlo_L_LobWait_NZn" = 152.3703   $ Sizing
 "CAssFlo_L_LobWait_SZn" = 439.0158   $ Sizing
 "CAssFlo_L_LobWait_WZn" = 382.0107   $ Sizing
 "CAssFlo_L_MechElec_CZn" = 65.93681   $ Sizing
 "CAssFlo_L_OfficeOpn_CZn" = 73.49564   $ Sizing
 "CAssFlo_L_OfficeOpn_EZn" = 741.1637   $ Sizing
 "CAssFlo_L_OfficeOpn_NZn" = 267.0926   $ Sizing
 "CAssFlo_L_OfficeOpn_SZn" = 776.9811   $ Sizing
 "CAssFlo_L_OfficeOpn_WZn" = 698.7644   $ Sizing
 "CAssFlo_L_OfficeSm_EZn" = 642.583   $ Sizing
 "CAssFlo_L_OfficeSm_NZn" = 206.7459   $ Sizing
 "CAssFlo_L_OfficeSm_SZn" = 697.8293   $ Sizing
 "CAssFlo_L_OfficeSm_WZn" = 628.4637   $ Sizing
 "CAssFlo_L_Restrm_CZn" = 86.07105   $ Sizing
 "CAssFlo_L_StorSm_CZn" = 31.77232   $ Sizing
 "CAssFlo_L_StorSm_EZn" = 157.8595   $ Sizing
 "CAssFlo_L_StorSm_NZn" = 79.53967   $ Sizing
 "CAssFlo_L_StorSm_SZn" = 178.1037   $ Sizing
 "CAssFlo_L_StorSm_WZn" = 152.9023   $ Sizing
 "CAssFlo_T_Conf_CZn" = 216.355   $ Sizing
 "CAssFlo_T_Hall_EZn" = 184.0138   $ Sizing
 "CAssFlo_T_Hall_NZn" = 69.63354   $ Sizing
 "CAssFlo_T_Hall_SZn" = 220.3243   $ Sizing
 "CAssFlo_T_Hall_WZn" = 182.2468   $ Sizing
 "CAssFlo_T_OfficeOpn_CZn" = 61.46117   $ Sizing
 "CAssFlo_T_OfficeOpn_EZn" = 748.489   $ Sizing
 "CAssFlo_T_OfficeOpn_NZn" = 291.2405   $ Sizing
 "CAssFlo_T_OfficeOpn_SZn" = 838.9655   $ Sizing
 "CAssFlo_T_OfficeOpn_WZn" = 710.0036   $ Sizing
 "CAssFlo_T_OfficeSm_EZn" = 659.7465   $ Sizing
 "CAssFlo_T_OfficeSm_NZn" = 229.1458   $ Sizing
 "CAssFlo_T_OfficeSm_SZn" = 758.4675   $ Sizing
 "CAssFlo_T_OfficeSm_WZn" = 646.1814   $ Sizing
 "CAssFlo_T_Restrm_CZn" = 88.21684   $ Sizing
 "CAssFlo_T_StorSm_EZn" = 178.1788   $ Sizing
 "CAssFlo_T_StorSm_NZn" = 78.84498   $ Sizing
 "CAssFlo_T_StorSm_SZn" = 211.0243   $ Sizing
 "CAssFlo_T_StorSm_WZn" = 178.032   $ Sizing
 "CHRtFlo_Sys_L_Break_C" = 286.8589   $ Sizing
 "CHRtFlo_Sys_L_CompDC_C" = 178.4944   $ Sizing
 "CHRtFlo_Sys_L_Conf_C" = 217.8315   $ Sizing
 "CHRtFlo_Sys_L_CopyRm_C" = 71.33501   $ Sizing
 "CHRtFlo_Sys_L_Hall_E" = 162.3326   $ Sizing
 "CHRtFlo_Sys_L_Hall_N" = 72.23863   $ Sizing
 "CHRtFlo_Sys_L_Hall_S" = 189.3946   $ Sizing
 "CHRtFlo_Sys_L_Hall_W" = 166.0217   $ Sizing
 "CHRtFlo_Sys_L_LobWait_E" = 383.6839   $ Sizing
 "CHRtFlo_Sys_L_LobWait_N" = 152.3703   $ Sizing
 "CHRtFlo_Sys_L_LobWait_S" = 439.0158   $ Sizing
 "CHRtFlo_Sys_L_LobWait_W" = 382.0107   $ Sizing
 "CHRtFlo_Sys_L_MechElec_C" = 65.93681   $ Sizing
 "CHRtFlo_Sys_L_OfficeOpn_C" = 73.49564   $ Sizing
 "CHRtFlo_Sys_L_OfficeOpn_E" = 741.1637   $ Sizing
 "CHRtFlo_Sys_L_OfficeOpn_N" = 267.0926   $ Sizing
 "CHRtFlo_Sys_L_OfficeOpn_S" = 776.9811   $ Sizing
 "CHRtFlo_Sys_L_OfficeOpn_W" = 698.7644   $ Sizing
 "CHRtFlo_Sys_L_OfficeSm_E" = 642.583   $ Sizing
 "CHRtFlo_Sys_L_OfficeSm_N" = 206.7459   $ Sizing
 "CHRtFlo_Sys_L_OfficeSm_S" = 697.8293   $ Sizing
 "CHRtFlo_Sys_L_OfficeSm_W" = 628.4637   $ Sizing
 "CHRtFlo_Sys_L_Restrm_C" = 86.07105   $ Sizing
 "CHRtFlo_Sys_L_StorSm_C" = 31.77232   $ Sizing
 "CHRtFlo_Sys_L_StorSm_E" = 157.8595   $ Sizing
 "CHRtFlo_Sys_L_StorSm_N" = 79.53967   $ Sizing
 "CHRtFlo_Sys_L_StorSm_S" = 178.1037   $ Sizing
 "CHRtFlo_Sys_L_StorSm_W" = 152.9023   $ Sizing
 "CHRtFlo_Sys_T_Conf_C" = 216.355   $ Sizing
 "CHRtFlo_Sys_T_Hall_E" = 184.0138   $ Sizing
 "CHRtFlo_Sys_T_Hall_N" = 69.63354   $ Sizing
 "CHRtFlo_Sys_T_Hall_S" = 220.3243   $ Sizing
 "CHRtFlo_Sys_T_Hall_W" = 182.2468   $ Sizing
 "CHRtFlo_Sys_T_OfficeOpn_C" = 61.46117   $ Sizing
 "CHRtFlo_Sys_T_OfficeOpn_E" = 748.489   $ Sizing
 "CHRtFlo_Sys_T_OfficeOpn_N" = 291.2405   $ Sizing
 "CHRtFlo_Sys_T_OfficeOpn_S" = 838.9655   $ Sizing
 "CHRtFlo_Sys_T_OfficeOpn_W" = 710.0036   $ Sizing
 "CHRtFlo_Sys_T_OfficeSm_E" = 659.7465   $ Sizing
 "CHRtFlo_Sys_T_OfficeSm_N" = 229.1458   $ Sizing
 "CHRtFlo_Sys_T_OfficeSm_S" = 758.4675   $ Sizing
 "CHRtFlo_Sys_T_OfficeSm_W" = 646.1814   $ Sizing
 "CHRtFlo_Sys_T_Restrm_C" = 88.21684   $ Sizing
 "CHRtFlo_Sys_T_StorSm_E" = 178.1788   $ Sizing
 "CHRtFlo_Sys_T_StorSm_N" = 78.84498   $ Sizing
 "CHRtFlo_Sys_T_StorSm_S" = 211.0243   $ Sizing
 "CHRtFlo_Sys_T_StorSm_W" = 178.032   $ Sizing
 "CRtdFlo_Sys_L_Break_C" = 286.8589   $ Sizing
 "CRtdFlo_Sys_L_CompDC_C" = 178.4944   $ Sizing
 "CRtdFlo_Sys_L_Conf_C" = 217.8315   $ Sizing
 "CRtdFlo_Sys_L_CopyRm_C" = 71.33501   $ Sizing
 "CRtdFlo_Sys_L_Hall_E" = 162.3326   $ Sizing
 "CRtdFlo_Sys_L_Hall_N" = 72.23863   $ Sizing
 "CRtdFlo_Sys_L_Hall_S" = 189.3946   $ Sizing
 "CRtdFlo_Sys_L_Hall_W" = 166.0217   $ Sizing
 "CRtdFlo_Sys_L_LobWait_E" = 383.6839   $ Sizing
 "CRtdFlo_Sys_L_LobWait_N" = 152.3703   $ Sizing
 "CRtdFlo_Sys_L_LobWait_S" = 439.0158   $ Sizing
 "CRtdFlo_Sys_L_LobWait_W" = 382.0107   $ Sizing
 "CRtdFlo_Sys_L_MechElec_C" = 65.93681   $ Sizing
 "CRtdFlo_Sys_L_OfficeOpn_C" = 73.49564   $ Sizing
 "CRtdFlo_Sys_L_OfficeOpn_E" = 741.1637   $ Sizing
 "CRtdFlo_Sys_L_OfficeOpn_N" = 267.0926   $ Sizing
 "CRtdFlo_Sys_L_OfficeOpn_S" = 776.9811   $ Sizing
 "CRtdFlo_Sys_L_OfficeOpn_W" = 698.7644   $ Sizing
 "CRtdFlo_Sys_L_OfficeSm_E" = 642.583   $ Sizing
 "CRtdFlo_Sys_L_OfficeSm_N" = 206.7459   $ Sizing
 "CRtdFlo_Sys_L_OfficeSm_S" = 697.8293   $ Sizing
 "CRtdFlo_Sys_L_OfficeSm_W" = 628.4637   $ Sizing
 "CRtdFlo_Sys_L_Restrm_C" = 86.07105   $ Sizing
 "CRtdFlo_Sys_L_StorSm_C" = 31.77232   $ Sizing
 "CRtdFlo_Sys_L_StorSm_E" = 157.8595   $ Sizing
 "CRtdFlo_Sys_L_StorSm_N" = 79.53967   $ Sizing
 "CRtdFlo_Sys_L_StorSm_S" = 178.1037   $ Sizing
 "CRtdFlo_Sys_L_StorSm_W" = 152.9023   $ Sizing
 "CRtdFlo_Sys_T_Conf_C" = 216.3549   $ Sizing
 "CRtdFlo_Sys_T_Hall_E" = 184.0138   $ Sizing
 "CRtdFlo_Sys_T_Hall_N" = 69.63354   $ Sizing
 "CRtdFlo_Sys_T_Hall_S" = 220.3243   $ Sizing
 "CRtdFlo_Sys_T_Hall_W" = 182.2468   $ Sizing
 "CRtdFlo_Sys_T_OfficeOpn_C" = 61.46117   $ Sizing
 "CRtdFlo_Sys_T_OfficeOpn_E" = 748.489   $ Sizing
 "CRtdFlo_Sys_T_OfficeOpn_N" = 291.2405   $ Sizing
 "CRtdFlo_Sys_T_OfficeOpn_S" = 838.9655   $ Sizing
 "CRtdFlo_Sys_T_OfficeOpn_W" = 710.0036   $ Sizing
 "CRtdFlo_Sys_T_OfficeSm_E" = 659.7465   $ Sizing
 "CRtdFlo_Sys_T_OfficeSm_N" = 229.1458   $ Sizing
 "CRtdFlo_Sys_T_OfficeSm_S" = 758.4675   $ Sizing
 "CRtdFlo_Sys_T_OfficeSm_W" = 646.1814   $ Sizing
 "CRtdFlo_Sys_T_Restrm_C" = 88.21684   $ Sizing
 "CRtdFlo_Sys_T_StorSm_E" = 178.1788   $ Sizing
 "CRtdFlo_Sys_T_StorSm_N" = 78.84498   $ Sizing
 "CRtdFlo_Sys_T_StorSm_S" = 211.0243   $ Sizing
 "CRtdFlo_Sys_T_StorSm_W" = 178.032   $ Sizing
 "CSupFlo_Sys_L_Break_C" = 286.8589   $ Sizing
 "CSupFlo_Sys_L_CompDC_C" = 178.4944   $ Sizing
 "CSupFlo_Sys_L_Conf_C" = 217.8315   $ Sizing
 "CSupFlo_Sys_L_CopyRm_C" = 71.33501   $ Sizing
 "CSupFlo_Sys_L_Hall_E" = 162.3326   $ Sizing
 "CSupFlo_Sys_L_Hall_N" = 72.23863   $ Sizing
 "CSupFlo_Sys_L_Hall_S" = 189.3946   $ Sizing
 "CSupFlo_Sys_L_Hall_W" = 166.0217   $ Sizing
 "CSupFlo_Sys_L_LobWait_E" = 383.6839   $ Sizing
 "CSupFlo_Sys_L_LobWait_N" = 152.3703   $ Sizing
 "CSupFlo_Sys_L_LobWait_S" = 439.0158   $ Sizing
 "CSupFlo_Sys_L_LobWait_W" = 382.0107   $ Sizing
 "CSupFlo_Sys_L_MechElec_C" = 65.93681   $ Sizing
 "CSupFlo_Sys_L_OfficeOpn_C" = 73.49564   $ Sizing
 "CSupFlo_Sys_L_OfficeOpn_E" = 741.1637   $ Sizing
 "CSupFlo_Sys_L_OfficeOpn_N" = 267.0926   $ Sizing
 "CSupFlo_Sys_L_OfficeOpn_S" = 776.9811   $ Sizing
 "CSupFlo_Sys_L_OfficeOpn_W" = 698.7644   $ Sizing
 "CSupFlo_Sys_L_OfficeSm_E" = 642.583   $ Sizing
 "CSupFlo_Sys_L_OfficeSm_N" = 206.7459   $ Sizing
 "CSupFlo_Sys_L_OfficeSm_S" = 697.8293   $ Sizing
 "CSupFlo_Sys_L_OfficeSm_W" = 628.4637   $ Sizing
 "CSupFlo_Sys_L_Restrm_C" = 86.07105   $ Sizing
 "CSupFlo_Sys_L_StorSm_C" = 31.77232   $ Sizing
 "CSupFlo_Sys_L_StorSm_E" = 157.8595   $ Sizing
 "CSupFlo_Sys_L_StorSm_N" = 79.53967   $ Sizing
 "CSupFlo_Sys_L_StorSm_S" = 178.1037   $ Sizing
 "CSupFlo_Sys_L_StorSm_W" = 152.9023   $ Sizing
 "CSupFlo_Sys_T_Conf_C" = 216.355   $ Sizing
 "CSupFlo_Sys_T_Hall_E" = 184.0138   $ Sizing
 "CSupFlo_Sys_T_Hall_N" = 69.63354   $ Sizing
 "CSupFlo_Sys_T_Hall_S" = 220.3243   $ Sizing
 "CSupFlo_Sys_T_Hall_W" = 182.2468   $ Sizing
 "CSupFlo_Sys_T_OfficeOpn_C" = 61.46117   $ Sizing
 "CSupFlo_Sys_T_OfficeOpn_E" = 748.489   $ Sizing
 "CSupFlo_Sys_T_OfficeOpn_N" = 291.2405   $ Sizing
 "CSupFlo_Sys_T_OfficeOpn_S" = 838.9655   $ Sizing
 "CSupFlo_Sys_T_OfficeOpn_W" = 710.0036   $ Sizing
 "CSupFlo_Sys_T_OfficeSm_E" = 659.7465   $ Sizing
 "CSupFlo_Sys_T_OfficeSm_N" = 229.1458   $ Sizing
 "CSupFlo_Sys_T_OfficeSm_S" = 758.4675   $ Sizing
 "CSupFlo_Sys_T_OfficeSm_W" = 646.1814   $ Sizing
 "CSupFlo_Sys_T_Restrm_C" = 88.21684   $ Sizing
 "CSupFlo_Sys_T_StorSm_E" = 178.1788   $ Sizing
 "CSupFlo_Sys_T_StorSm_N" = 78.84498   $ Sizing
 "CSupFlo_Sys_T_StorSm_S" = 211.0243   $ Sizing
 "CSupFlo_Sys_T_StorSm_W" = 178.032   $ Sizing
 "ClCap_Sys_L_Break_C" = 9761.635   $ Sizing
 "ClCap_Sys_L_CompDC_C" = 6074.057   $ Sizing
 "ClCap_Sys_L_Conf_C" = 9434.316   $ Sizing
 "ClCap_Sys_L_CopyRm_C" = 2427.488   $ Sizing
 "ClCap_Sys_L_Hall_E" = 5524.082   $ Sizing
 "ClCap_Sys_L_Hall_N" = 2458.238   $ Sizing
 "ClCap_Sys_L_Hall_S" = 6444.983   $ Sizing
 "ClCap_Sys_L_Hall_W" = 5649.619   $ Sizing
 "ClCap_Sys_L_LobWait_E" = 13056.53   $ Sizing
 "ClCap_Sys_L_LobWait_N" = 5185.069   $ Sizing
 "ClCap_Sys_L_LobWait_S" = 14939.45   $ Sizing
 "ClCap_Sys_L_LobWait_W" = 12999.59   $ Sizing
 "ClCap_Sys_L_MechElec_C" = 2243.79   $ Sizing
 "ClCap_Sys_L_OfficeOpn_C" = 2501.013   $ Sizing
 "ClCap_Sys_L_OfficeOpn_E" = 25221.36   $ Sizing
 "ClCap_Sys_L_OfficeOpn_N" = 9089.002   $ Sizing
 "ClCap_Sys_L_OfficeOpn_S" = 26440.2   $ Sizing
 "ClCap_Sys_L_OfficeOpn_W" = 23778.54   $ Sizing
 "ClCap_Sys_L_OfficeSm_E" = 21866.71   $ Sizing
 "ClCap_Sys_L_OfficeSm_N" = 7035.438   $ Sizing
 "ClCap_Sys_L_OfficeSm_S" = 23746.71   $ Sizing
 "ClCap_Sys_L_OfficeSm_W" = 21386.25   $ Sizing
 "ClCap_Sys_L_Restrm_C" = 2928.947   $ Sizing
 "ClCap_Sys_L_StorSm_C" = 1081.193   $ Sizing
 "ClCap_Sys_L_StorSm_E" = 5371.863   $ Sizing
 "ClCap_Sys_L_StorSm_N" = 2706.688   $ Sizing
 "ClCap_Sys_L_StorSm_S" = 6060.763   $ Sizing
 "ClCap_Sys_L_StorSm_W" = 5203.173   $ Sizing
 "ClCap_Sys_T_Conf_C" = 9370.365   $ Sizing
 "ClCap_Sys_T_Hall_E" = 6261.881   $ Sizing
 "ClCap_Sys_T_Hall_N" = 2369.588   $ Sizing
 "ClCap_Sys_T_Hall_S" = 7497.503   $ Sizing
 "ClCap_Sys_T_Hall_W" = 6201.75   $ Sizing
 "ClCap_Sys_T_OfficeOpn_C" = 2091.487   $ Sizing
 "ClCap_Sys_T_OfficeOpn_E" = 25470.63   $ Sizing
 "ClCap_Sys_T_OfficeOpn_N" = 9910.741   $ Sizing
 "ClCap_Sys_T_OfficeOpn_S" = 28549.49   $ Sizing
 "ClCap_Sys_T_OfficeOpn_W" = 24161   $ Sizing
 "ClCap_Sys_T_OfficeSm_E" = 22450.78   $ Sizing
 "ClCap_Sys_T_OfficeSm_N" = 7797.694   $ Sizing
 "ClCap_Sys_T_OfficeSm_S" = 25810.2   $ Sizing
 "ClCap_Sys_T_OfficeSm_W" = 21989.17   $ Sizing
 "ClCap_Sys_T_Restrm_C" = 3001.966   $ Sizing
 "ClCap_Sys_T_StorSm_E" = 6063.316   $ Sizing
 "ClCap_Sys_T_StorSm_N" = 2683.047   $ Sizing
 "ClCap_Sys_T_StorSm_S" = 7181.03   $ Sizing
 "ClCap_Sys_T_StorSm_W" = 6058.323   $ Sizing
 "HtCap_Sys_L_Break_C" = -16677.58   $ Sizing
 "HtCap_Sys_L_CompDC_C" = -8700.394   $ Sizing
 "HtCap_Sys_L_Conf_C" = -12901.09   $ Sizing
 "HtCap_Sys_L_CopyRm_C" = -4378.809   $ Sizing
 "HtCap_Sys_L_Hall_E" = -5598.312   $ Sizing
 "HtCap_Sys_L_Hall_N" = -2667.146   $ Sizing
 "HtCap_Sys_L_Hall_S" = -6179.735   $ Sizing
 "HtCap_Sys_L_Hall_W" = -5557.555   $ Sizing
 "HtCap_Sys_L_LobWait_E" = -13538.46   $ Sizing
 "HtCap_Sys_L_LobWait_N" = -6660.002   $ Sizing
 "HtCap_Sys_L_LobWait_S" = -15112.65   $ Sizing
 "HtCap_Sys_L_LobWait_W" = -13545.05   $ Sizing
 "HtCap_Sys_L_MechElec_C" = -2985.127   $ Sizing
 "HtCap_Sys_L_OfficeOpn_C" = -2807.135   $ Sizing
 "HtCap_Sys_L_OfficeOpn_E" = -25020.47   $ Sizing
 "HtCap_Sys_L_OfficeOpn_N" = -11276.71   $ Sizing
 "HtCap_Sys_L_OfficeOpn_S" = -25433.73   $ Sizing
 "HtCap_Sys_L_OfficeOpn_W" = -23957.48   $ Sizing
 "HtCap_Sys_L_OfficeSm_E" = -21445.85   $ Sizing
 "HtCap_Sys_L_OfficeSm_N" = -8493.882   $ Sizing
 "HtCap_Sys_L_OfficeSm_S" = -22264.38   $ Sizing
 "HtCap_Sys_L_OfficeSm_W" = -20868.5   $ Sizing
 "HtCap_Sys_L_Restrm_C" = -3010.5   $ Sizing
 "HtCap_Sys_L_StorSm_C" = -1334.281   $ Sizing
 "HtCap_Sys_L_StorSm_E" = -5577.42   $ Sizing
 "HtCap_Sys_L_StorSm_N" = -3231.766   $ Sizing
 "HtCap_Sys_L_StorSm_S" = -6012.473   $ Sizing
 "HtCap_Sys_L_StorSm_W" = -5433.308   $ Sizing
 "HtCap_Sys_T_Conf_C" = -13064.55   $ Sizing
 "HtCap_Sys_T_Hall_E" = -6763.635   $ Sizing
 "HtCap_Sys_T_Hall_N" = -2962.403   $ Sizing
 "HtCap_Sys_T_Hall_S" = -7862.785   $ Sizing
 "HtCap_Sys_T_Hall_W" = -6710.285   $ Sizing
 "HtCap_Sys_T_OfficeOpn_C" = -2666.956   $ Sizing
 "HtCap_Sys_T_OfficeOpn_E" = -28231.27   $ Sizing
 "HtCap_Sys_T_OfficeOpn_N" = -13023.93   $ Sizing
 "HtCap_Sys_T_OfficeOpn_S" = -30222.7   $ Sizing
 "HtCap_Sys_T_OfficeOpn_W" = -26998.6   $ Sizing
 "HtCap_Sys_T_OfficeSm_E" = -24227.35   $ Sizing
 "HtCap_Sys_T_OfficeSm_N" = -10069.85   $ Sizing
 "HtCap_Sys_T_OfficeSm_S" = -26581.85   $ Sizing
 "HtCap_Sys_T_OfficeSm_W" = -23799.96   $ Sizing
 "HtCap_Sys_T_Restrm_C" = -3511.14   $ Sizing
 "HtCap_Sys_T_StorSm_E" = -7087.153   $ Sizing
 "HtCap_Sys_T_StorSm_N" = -3715.818   $ Sizing
 "HtCap_Sys_T_StorSm_S" = -7462.8   $ Sizing
 "HtCap_Sys_T_StorSm_W" = -7066.555   $ Sizing
..

##include Templates\OfS_DX_SZ.inp
END ..
COMPUTE ..
STOP ..
