INPUT ..

##fileprefix C:\Users\jglasskatz\MASControl3\
##set1 IsSizing FALSE
##set1 CoolType DX
##set1 HeatType FURNACE
##set1 EU_HrRepVar 0
##set1 BldgVint 2011
##set1 BldgLoc CZ08

 ##set1 mBFMult 1   $ IP Tech: RefgChg-NRes-Std

PARAMETER
 "AltFactor" = 1.01468   $ IP Non-Tech
 "BF_fFlow" = SpltAC1Sp-ge45_BF_fFlow   $ Msr (Multi)TechID: StdNResSplitAC-45to55
 "BF_fT" = SpltAC1Sp-ge45_BF_fT   $ Msr (Multi)TechID: StdNResSplitAC-45to55
 "BldgEconoFlag" = 1   $ IP Non-Tech
 "Break_EWSF" = 1   $ IP Non-Tech
 "Break_LWSF" = 1.1   $ IP Non-Tech
 "CDD_DBHi10" = 92   $ IP Non-Tech
 "CDD_DBHi7" = 84   $ IP Non-Tech
 "CDD_DBHi8" = 87   $ IP Non-Tech
 "CDD_DBHi9" = 91   $ IP Non-Tech
 "CDD_DBRange10" = 31   $ IP Non-Tech
 "CDD_DBRange7" = 16   $ IP Non-Tech
 "CDD_DBRange8" = 20   $ IP Non-Tech
 "CDD_DBRange9" = 23   $ IP Non-Tech
 "CDD_Day10" = 15   $ IP Non-Tech
 "CDD_Day7" = 16   $ IP Non-Tech
 "CDD_Day8" = 20   $ IP Non-Tech
 "CDD_Day9" = 17   $ IP Non-Tech
 "CDD_HrHi10" = 16   $ IP Non-Tech
 "CDD_HrHi7" = 14   $ IP Non-Tech
 "CDD_HrHi8" = 15   $ IP Non-Tech
 "CDD_HrHi9" = 13   $ IP Non-Tech
 "CDD_HrLo10" = 3   $ IP Non-Tech
 "CDD_HrLo7" = 4   $ IP Non-Tech
 "CDD_HrLo8" = 7   $ IP Non-Tech
 "CDD_HrLo9" = 7   $ IP Non-Tech
 "CDD_WB10" = 63.44163513   $ IP Non-Tech
 "CDD_WB7" = 69.12194824   $ IP Non-Tech
 "CDD_WB8" = 71.41388702   $ IP Non-Tech
 "CDD_WB9" = 69.41378784   $ IP Non-Tech
 "CEIR_fPLR_Hot" = SpltAC1Sp-ge45_CEIR_fPLR_Hot   $ Msr (Multi)TechID: StdNResSplitAC-45to55
 "CEIR_fPLR_Mod" = SpltAC1Sp-ge45_CEIR_fPLR_Mod   $ Msr (Multi)TechID: StdNResSplitAC-45to55
 "CEIR_fPLR_Tem" = SpltAC1Sp-ge45_CEIR_fPLR_Tem   $ Msr (Multi)TechID: StdNResSplitAC-45to55
 "CLoss_fPLR_Hot" = SpltAC1Sp-ge45_CLoss_fPLR_Hot   $ Msr (Multi)TechID: StdNResSplitAC-45to55
 "CLoss_fPLR_Mod" = SpltAC1Sp-ge45_CLoss_fPLR_Mod   $ Msr (Multi)TechID: StdNResSplitAC-45to55
 "CLoss_fPLR_Tem" = SpltAC1Sp-ge45_CLoss_fPLR_Tem   $ Msr (Multi)TechID: StdNResSplitAC-45to55
 "COP47" = 0   $ Msr (Multi)TechID: StdNResSplitAC-45to55
 "CZ_Category" = Mod   $ IP Non-Tech
 "CapRange" = ge45   $ Msr (Multi)TechID: StdNResSplitAC-45to55
 "CfmPerBtuh" = 0.03263   $ Msr (Multi)TechID: StdNResSplitAC-45to55
 "ChwVintEconoFlag" = 1   $ IP Non-Tech
 "ClCap_fT" = SpltAC1Sp-ge45_ClCap_fT   $ Msr (Multi)TechID: StdNResSplitAC-45to55
 "ClSH_fT" = SpltAC1Sp-ge45_ClSH_fT   $ Msr (Multi)TechID: StdNResSplitAC-45to55
 "CoilBF" = 0.106518182   $ Msr (Multi)TechID: StdNResSplitAC-45to55
 "CompRoomData_EWSF" = 5   $ IP Non-Tech
 "CompRoomData_LWSF" = 1.1   $ IP Non-Tech
 "CondWPerBtuh" = 0   $ Msr (Multi)TechID: StdNResSplitAC-45to55
 "Conference_EWSF" = 1   $ IP Non-Tech
 "Conference_LWSF" = 1.4   $ IP Non-Tech
 "CoolSensCap" = 0.759218182   $ Msr (Multi)TechID: StdNResSplitAC-45to55
 "CoolSetT" = 45   $ IP Non-Tech
 "CoolType" = DX   $ IP Non-Tech
 "CoolingEIR" = 0.2466   $ Msr (Multi)TechID: StdNResSplitAC-45to55
 "CopyRoom_EWSF" = 1.5   $ IP Non-Tech
 "CopyRoom_LWSF" = 1.3   $ IP Non-Tech
 "CrnkEIR" = 0.002466   $ Msr (Multi)TechID: StdNResSplitAC-45to55
 "CrnkMaxT" = 50   $ Msr (Multi)TechID: StdNResSplitAC-45to55
 "DXType" = SplitSEER   $ Msr (Multi)TechID: StdNResSplitAC-45to55
 "DesCoolT" = 75   $ IP Non-Tech
 "DesHeatT" = 73   $ IP Non-Tech
 "EER" = 11.81793103   $ Msr (Multi)TechID: StdNResSplitAC-45to55
 "EIR_fT" = SpltAC1Sp-ge45_EIR_fT   $ Msr (Multi)TechID: StdNResSplitAC-45to55
 "EconoCtrl" = FIXED   $ Msr (Multi)TechID: StdNResSplitAC-45to55
 "EconoEnthLimit" = 28   $ IP Non-Tech
 "EconoTempLimit" = 71   $ IP Non-Tech
 "Elevation" = 395   $ IP Non-Tech
 "FanEirPlr" = TwoSpeedFan   $ Msr (Multi)TechID: StdNResSplitAC-45to55
 "FanWPerCfm" = 0.294   $ Msr (Multi)TechID: StdNResSplitAC-45to55
 "HDD_CloudAmt1" = 0   $ IP Non-Tech
 "HDD_DBHi1" = 55   $ IP Non-Tech
 "HDD_DBRange1" = 18   $ IP Non-Tech
 "HDD_Day1" = 15   $ IP Non-Tech
 "HDD_HrHi1" = 11   $ IP Non-Tech
 "HDD_HrLo1" = 6   $ IP Non-Tech
 "HDD_WB1" = 49.4   $ IP Non-Tech
 "HDD_WindSpd1" = 9.2   $ IP Non-Tech
 "HIR_fT" = 0   $ Msr (Multi)TechID: StdNResSplitAC-45to55
 "HSPF" = 0   $ Msr (Multi)TechID: StdNResSplitAC-45to55
 "Hall_EWSF" = 0.2   $ IP Non-Tech
 "Hall_LWSF" = 0.6   $ IP Non-Tech
 "HeatSrc" = FURNACE   $ IP Non-Tech
 "HeatSrcTU" = HEAT-PUMP   $ IP Non-Tech
 "HeatType" = GasFurn   $ IP Non-Tech
 "HeatTypeTU" = HEAT-PUMP   $ IP Non-Tech
 "HtCap_fT" = 0   $ Msr (Multi)TechID: StdNResSplitAC-45to55
 "HtCoolCapRatio" = 0   $ Msr (Multi)TechID: StdNResSplitAC-45to55
 "HtgEIR" = 0   $ Msr (Multi)TechID: StdNResSplitAC-45to55
 "IndoorFanMode" = CONTINUOUS   $ IP Non-Tech
 "KT_TransferAir" = No   $ IP Non-Tech
 "Latitude" = 33.8   $ IP Non-Tech
 "LobbyWaiting_EWSF" = 0.5   $ IP Non-Tech
 "LobbyWaiting_LWSF" = 1.3   $ IP Non-Tech
 "Longitude" = 118.2   $ IP Non-Tech
 "LowSpdCapRatio" = 1   $ Msr (Multi)TechID: StdNResSplitAC-45to55
 "LowSpdCfmRatio" = 1   $ Msr (Multi)TechID: StdNResSplitAC-45to55
 "MZFanMechEff" = 0.58   $ IP Non-Tech
 "MZHasRetFan" = FALSE   $ IP Non-Tech
 "MZ_RFanWPerCfm" = 0.33   $ IP Non-Tech
 "MZ_SFanWPerCfm" = 0.75   $ IP Non-Tech
 "MZ_SupFanStatic" = 2.25   $ IP Non-Tech
 "MaxOAFrac" = 1   $ Msr (Multi)TechID: StdNResSplitAC-45to55
 "MaxSupT_MZ" = 100   $ IP Non-Tech
 "MaxSupT_SZ" = 100   $ IP Non-Tech
 "MaxSupT_TU" = 90   $ IP Non-Tech
 "MechElecRoom_EWSF" = 0.2   $ IP Non-Tech
 "MechElecRoom_LWSF" = 0.7   $ IP Non-Tech
 "MinCfmPerSF" = 0.4   $ IP Non-Tech
 "MinSupT" = 55   $ IP Non-Tech
 "NumStages" = 1   $ Msr (Multi)TechID: StdNResSplitAC-45to55
 "OccCoolT" = 76   $ IP Non-Tech
 "OccHeatT" = 72   $ IP Non-Tech
 "OfficeOpen_EWSF" = 1.5   $ IP Non-Tech
 "OfficeOpen_LWSF" = 1.1   $ IP Non-Tech
 "OfficeSmall_EWSF" = 1.5   $ IP Non-Tech
 "OfficeSmall_LWSF" = 1.3   $ IP Non-Tech
 "PkgDxVintEconoFlag" = 0   $ IP Non-Tech
 "Restroom_EWSF" = 0.2   $ IP Non-Tech
 "Restroom_LWSF" = 0.6   $ IP Non-Tech
 "SEER" = 14   $ Msr (Multi)TechID: StdNResSplitAC-45to55
 "SZFanMechEff" = 0.58   $ IP Non-Tech
 "SZHasRetFan" = FALSE   $ IP Non-Tech
 "SZ_Is_2Spd" = FALSE   $ IP Non-Tech
 "SZ_SFanWPerCfm" = 0.46   $ IP Non-Tech
 "SZ_SupFanStatic" = 0.75   $ IP Non-Tech
 "Sector" = Any   $ Msr (Multi)TechID: StdNResSplitAC-45to55
 "StorageSmlCond_EWSF" = 0.2   $ IP Non-Tech
 "StorageSmlCond_LWSF" = 0.6   $ IP Non-Tech
 "SubType" = AC   $ Msr (Multi)TechID: StdNResSplitAC-45to55
 "T24GlzTbl" = CZTbl   $ IP Non-Tech
 "TermUnitFanMechEff" = 1   $ IP Non-Tech
 "TermUnitFanMode" = INTERMITTENT   $ IP Non-Tech
 "TotCoolCap" = 52519.36364   $ Msr (Multi)TechID: StdNResSplitAC-45to55
 "TwrSetpt" = 80.5   $ IP Non-Tech
 "UnocCoolT" = 86   $ IP Non-Tech
 "UnocHeatT" = 62   $ IP Non-Tech
 "UseEconoVintApplic" = FALSE   $ Msr (Multi)TechID: StdNResSplitAC-45to55
 "WlhpVintEconoFlag" = 0   $ IP Non-Tech
 "DuctDT" = 1   $ IP Tech: ComDuctInsul-1
 "DuctAirLoss" = 0   $ IP Tech: ComDuctLeak-0
 "DuctLossOAFrac" = 0   $ IP Tech: ComDuctLeak-0
 "ComRoofInsCalc" = FromUo   $ IP Tech: ComRoofIns-WFrm-0.07
 "ComRoofInsR" = -999   $ IP Tech: ComRoofIns-WFrm-0.07
 "ComRoofUo" = 0.07   $ IP Tech: ComRoofIns-WFrm-0.07
 "ComEWInsCalc" = FromUo   $ IP Tech: ComWallIns-WFrm-0.09
 "ComEWInsR" = -999   $ IP Tech: ComWallIns-WFrm-0.09
 "ComEWUo" = 0.09   $ IP Tech: ComWallIns-WFrm-0.09
 "ComN_SHGC" = 0.61   $ IP Tech: NResWin-ComN-0.77-0.61
 "ComN_UFactor" = 0.77   $ IP Tech: NResWin-ComN-0.77-0.61
 "ComN_VisTrans" = 0.77   $ IP Tech: NResWin-ComN-0.77-0.61
 "ComN_WinCode" = G2600   $ IP Tech: NResWin-ComN-0.77-0.61
 "ComN_WinFrmFrac" = 0.17   $ IP Tech: NResWin-ComN-0.77-0.61
 "ComN_WinFrmU" = 1   $ IP Tech: NResWin-ComN-0.77-0.61
 "ComO_SHGC" = 0.34   $ IP Tech: NResWin-ComO-0.77-0.34
 "ComO_UFactor" = 0.77   $ IP Tech: NResWin-ComO-0.77-0.34
 "ComO_VisTrans" = 0.44   $ IP Tech: NResWin-ComO-0.77-0.34
 "ComO_WinCode" = G2636   $ IP Tech: NResWin-ComO-0.77-0.34
 "ComO_WinFrmFrac" = 0.17   $ IP Tech: NResWin-ComO-0.77-0.34
 "ComO_WinFrmU" = 1   $ IP Tech: NResWin-ComO-0.77-0.34
 "LtgMsrApplic" = ALL   $ IP Tech: NonResLtgRefPre
 "LtgSav_CFL" = 0   $ IP Tech: NonResLtgRefPre
 "LtgSav_EX" = 0   $ IP Tech: NonResLtgRefPre
 "LtgSav_HB" = 0   $ IP Tech: NonResLtgRefPre
 "LtgSav_LF" = 0   $ IP Tech: NonResLtgRefPre
 "LtgSav_SP" = 0   $ IP Tech: NonResLtgRefPre
 "CEIR_fPLR" = PSZ65to135_CEIR_fPLR   $ IP Tech: PkgAC1SpH-65to135-E11
 "CLoss_fPLR" = PSZ65to135_CLoss_fPLR   $ IP Tech: PkgAC1SpH-65to135-E11
 "COP" = -1   $ IP Tech: PkgAC1SpH-65to135-E11
 "HtgFuel" = Gas   $ IP Tech: PkgAC1SpH-65to135-E11
 "IEER" = 13.35   $ IP Tech: PkgAC1SpH-65to135-E11
 "NominalCap" = 15   $ IP Tech: PkgAC1SpH-65to135-E11
 "RatedEER" = 11   $ IP Tech: PkgAC1SpH-65to135-E11
 "RatedSupMtrClass" = HiEff   $ IP Tech: PkgAC1SpH-65to135-E11
 "SizeRange" = 65to135   $ IP Tech: PkgAC1SpH-65to135-E11
 "SupMotEff" = 0.84   $ IP Tech: PkgAC1SpH-65to135-E11
 "Tier" = 0   $ IP Tech: PkgAC1SpH-65to135-E11
 "FanPwrMult" = 1   $ IP Tech: PkgFurn-0.80AFUE
 "FurnAFUE" = 0.8   $ IP Tech: PkgFurn-0.80AFUE
 "FurnEt" = 0.82   $ IP Tech: PkgFurn-0.80AFUE
 "FurnaceAuxKW" = 0.1   $ IP Tech: PkgFurn-0.80AFUE
 "HIR_fPLR" = Furnace-HIR-fPLR   $ IP Tech: PkgFurn-0.80AFUE
 "VSM" = FALSE   $ IP Tech: PkgFurn-0.80AFUE
 "BFMult" = 1   $ IP Tech: RefgChg-NRes-Std
 "CoolEirMult" = 1   $ IP Tech: RefgChg-NRes-Std
 "SensCoolCapMult" = 1   $ IP Tech: RefgChg-NRes-Std
 "TotCoolCapMult" = 1   $ IP Tech: RefgChg-NRes-Std
 "AltAdjFactor" = 1.014676   $ Sizing
 "CAssFlo_L_Break_CZn" = 414.9536   $ Sizing
 "CAssFlo_L_CompDC_CZn" = 142.4148   $ Sizing
 "CAssFlo_L_Conf_CZn" = 235.6673   $ Sizing
 "CAssFlo_L_CopyRm_CZn" = 83.42739   $ Sizing
 "CAssFlo_L_Hall_EZn" = 120.6885   $ Sizing
 "CAssFlo_L_Hall_NZn" = 58.0523   $ Sizing
 "CAssFlo_L_Hall_SZn" = 128.3282   $ Sizing
 "CAssFlo_L_Hall_WZn" = 131.9035   $ Sizing
 "CAssFlo_L_LobWait_EZn" = 287.6764   $ Sizing
 "CAssFlo_L_LobWait_NZn" = 157.8737   $ Sizing
 "CAssFlo_L_LobWait_SZn" = 307.5896   $ Sizing
 "CAssFlo_L_LobWait_WZn" = 330.7141   $ Sizing
 "CAssFlo_L_MechElec_CZn" = 71.29893   $ Sizing
 "CAssFlo_L_OfficeOpn_CZn" = 68.64526   $ Sizing
 "CAssFlo_L_OfficeOpn_EZn" = 512.8662   $ Sizing
 "CAssFlo_L_OfficeOpn_NZn" = 328.9367   $ Sizing
 "CAssFlo_L_OfficeOpn_SZn" = 509.6948   $ Sizing
 "CAssFlo_L_OfficeOpn_WZn" = 553.6111   $ Sizing
 "CAssFlo_L_OfficeSm_EZn" = 433.8833   $ Sizing
 "CAssFlo_L_OfficeSm_NZn" = 260.5017   $ Sizing
 "CAssFlo_L_OfficeSm_SZn" = 449.6681   $ Sizing
 "CAssFlo_L_OfficeSm_WZn" = 480.9327   $ Sizing
 "CAssFlo_L_Restrm_CZn" = 78.67935   $ Sizing
 "CAssFlo_L_StorSm_CZn" = 34.30614   $ Sizing
 "CAssFlo_L_StorSm_EZn" = 118.2309   $ Sizing
 "CAssFlo_L_StorSm_NZn" = 56.06499   $ Sizing
 "CAssFlo_L_StorSm_SZn" = 124.1063   $ Sizing
 "CAssFlo_L_StorSm_WZn" = 124.0295   $ Sizing
 "CAssFlo_T_Conf_CZn" = 230.0833   $ Sizing
 "CAssFlo_T_Hall_EZn" = 131.9118   $ Sizing
 "CAssFlo_T_Hall_NZn" = 68.07927   $ Sizing
 "CAssFlo_T_Hall_SZn" = 145.1691   $ Sizing
 "CAssFlo_T_Hall_WZn" = 143.9412   $ Sizing
 "CAssFlo_T_OfficeOpn_CZn" = 59.48595   $ Sizing
 "CAssFlo_T_OfficeOpn_EZn" = 528.0336   $ Sizing
 "CAssFlo_T_OfficeOpn_NZn" = 352.2247   $ Sizing
 "CAssFlo_T_OfficeOpn_SZn" = 554.0319   $ Sizing
 "CAssFlo_T_OfficeOpn_WZn" = 581.4691   $ Sizing
 "CAssFlo_T_OfficeSm_EZn" = 450.9651   $ Sizing
 "CAssFlo_T_OfficeSm_NZn" = 282.1341   $ Sizing
 "CAssFlo_T_OfficeSm_SZn" = 488.8581   $ Sizing
 "CAssFlo_T_OfficeSm_WZn" = 505.9006   $ Sizing
 "CAssFlo_T_Restrm_CZn" = 123.007   $ Sizing
 "CAssFlo_T_StorSm_EZn" = 134.6396   $ Sizing
 "CAssFlo_T_StorSm_NZn" = 70.78265   $ Sizing
 "CAssFlo_T_StorSm_SZn" = 148.2094   $ Sizing
 "CAssFlo_T_StorSm_WZn" = 148.2351   $ Sizing
 "CHRtFlo_Sys_L_Break_C" = 414.9536   $ Sizing
 "CHRtFlo_Sys_L_CompDC_C" = 174.9659   $ Sizing
 "CHRtFlo_Sys_L_Conf_C" = 235.6673   $ Sizing
 "CHRtFlo_Sys_L_CopyRm_C" = 89.78348   $ Sizing
 "CHRtFlo_Sys_L_Hall_E" = 148.6317   $ Sizing
 "CHRtFlo_Sys_L_Hall_N" = 59.93447   $ Sizing
 "CHRtFlo_Sys_L_Hall_S" = 160.2932   $ Sizing
 "CHRtFlo_Sys_L_Hall_W" = 151.7063   $ Sizing
 "CHRtFlo_Sys_L_LobWait_E" = 346.7594   $ Sizing
 "CHRtFlo_Sys_L_LobWait_N" = 157.8737   $ Sizing
 "CHRtFlo_Sys_L_LobWait_S" = 371.2039   $ Sizing
 "CHRtFlo_Sys_L_LobWait_W" = 360.5632   $ Sizing
 "CHRtFlo_Sys_L_MechElec_C" = 97.00605   $ Sizing
 "CHRtFlo_Sys_L_OfficeOpn_C" = 82.19165   $ Sizing
 "CHRtFlo_Sys_L_OfficeOpn_E" = 617.525   $ Sizing
 "CHRtFlo_Sys_L_OfficeOpn_N" = 342.479   $ Sizing
 "CHRtFlo_Sys_L_OfficeOpn_S" = 620.3558   $ Sizing
 "CHRtFlo_Sys_L_OfficeOpn_W" = 622.9296   $ Sizing
 "CHRtFlo_Sys_L_OfficeSm_E" = 533.1628   $ Sizing
 "CHRtFlo_Sys_L_OfficeSm_N" = 275.2194   $ Sizing
 "CHRtFlo_Sys_L_OfficeSm_S" = 551.2429   $ Sizing
 "CHRtFlo_Sys_L_OfficeSm_W" = 550.6398   $ Sizing
 "CHRtFlo_Sys_L_Restrm_C" = 92.71895   $ Sizing
 "CHRtFlo_Sys_L_StorSm_C" = 40.99921   $ Sizing
 "CHRtFlo_Sys_L_StorSm_E" = 143.4337   $ Sizing
 "CHRtFlo_Sys_L_StorSm_N" = 59.8404   $ Sizing
 "CHRtFlo_Sys_L_StorSm_S" = 152.735   $ Sizing
 "CHRtFlo_Sys_L_StorSm_W" = 137.4856   $ Sizing
 "CHRtFlo_Sys_T_Conf_C" = 230.0833   $ Sizing
 "CHRtFlo_Sys_T_Hall_E" = 154.6699   $ Sizing
 "CHRtFlo_Sys_T_Hall_N" = 68.07927   $ Sizing
 "CHRtFlo_Sys_T_Hall_S" = 168.9409   $ Sizing
 "CHRtFlo_Sys_T_Hall_W" = 156.822   $ Sizing
 "CHRtFlo_Sys_T_OfficeOpn_C" = 68.2099   $ Sizing
 "CHRtFlo_Sys_T_OfficeOpn_E" = 599.4315   $ Sizing
 "CHRtFlo_Sys_T_OfficeOpn_N" = 352.2247   $ Sizing
 "CHRtFlo_Sys_T_OfficeOpn_S" = 630.1849   $ Sizing
 "CHRtFlo_Sys_T_OfficeOpn_W" = 601.8178   $ Sizing
 "CHRtFlo_Sys_T_OfficeSm_E" = 521.5143   $ Sizing
 "CHRtFlo_Sys_T_OfficeSm_N" = 282.1341   $ Sizing
 "CHRtFlo_Sys_T_OfficeSm_S" = 563.8329   $ Sizing
 "CHRtFlo_Sys_T_OfficeSm_W" = 537.9624   $ Sizing
 "CHRtFlo_Sys_T_Restrm_C" = 141.5752   $ Sizing
 "CHRtFlo_Sys_T_StorSm_E" = 151.9834   $ Sizing
 "CHRtFlo_Sys_T_StorSm_N" = 70.78265   $ Sizing
 "CHRtFlo_Sys_T_StorSm_S" = 164.0191   $ Sizing
 "CHRtFlo_Sys_T_StorSm_W" = 151.9902   $ Sizing
 "CRtdFlo_Sys_L_Break_C" = 414.9536   $ Sizing
 "CRtdFlo_Sys_L_CompDC_C" = 142.4148   $ Sizing
 "CRtdFlo_Sys_L_Conf_C" = 235.6673   $ Sizing
 "CRtdFlo_Sys_L_CopyRm_C" = 83.42739   $ Sizing
 "CRtdFlo_Sys_L_Hall_E" = 120.6885   $ Sizing
 "CRtdFlo_Sys_L_Hall_N" = 58.0523   $ Sizing
 "CRtdFlo_Sys_L_Hall_S" = 128.3282   $ Sizing
 "CRtdFlo_Sys_L_Hall_W" = 131.9035   $ Sizing
 "CRtdFlo_Sys_L_LobWait_E" = 287.6764   $ Sizing
 "CRtdFlo_Sys_L_LobWait_N" = 157.8737   $ Sizing
 "CRtdFlo_Sys_L_LobWait_S" = 307.5896   $ Sizing
 "CRtdFlo_Sys_L_LobWait_W" = 330.7141   $ Sizing
 "CRtdFlo_Sys_L_MechElec_C" = 71.29893   $ Sizing
 "CRtdFlo_Sys_L_OfficeOpn_C" = 68.64526   $ Sizing
 "CRtdFlo_Sys_L_OfficeOpn_E" = 512.8662   $ Sizing
 "CRtdFlo_Sys_L_OfficeOpn_N" = 328.9367   $ Sizing
 "CRtdFlo_Sys_L_OfficeOpn_S" = 509.6948   $ Sizing
 "CRtdFlo_Sys_L_OfficeOpn_W" = 553.6111   $ Sizing
 "CRtdFlo_Sys_L_OfficeSm_E" = 433.8833   $ Sizing
 "CRtdFlo_Sys_L_OfficeSm_N" = 260.5017   $ Sizing
 "CRtdFlo_Sys_L_OfficeSm_S" = 449.6681   $ Sizing
 "CRtdFlo_Sys_L_OfficeSm_W" = 480.9327   $ Sizing
 "CRtdFlo_Sys_L_Restrm_C" = 78.67935   $ Sizing
 "CRtdFlo_Sys_L_StorSm_C" = 34.30614   $ Sizing
 "CRtdFlo_Sys_L_StorSm_E" = 118.2309   $ Sizing
 "CRtdFlo_Sys_L_StorSm_N" = 56.06499   $ Sizing
 "CRtdFlo_Sys_L_StorSm_S" = 124.1063   $ Sizing
 "CRtdFlo_Sys_L_StorSm_W" = 124.0295   $ Sizing
 "CRtdFlo_Sys_T_Conf_C" = 230.0833   $ Sizing
 "CRtdFlo_Sys_T_Hall_E" = 131.9118   $ Sizing
 "CRtdFlo_Sys_T_Hall_N" = 68.07927   $ Sizing
 "CRtdFlo_Sys_T_Hall_S" = 145.1691   $ Sizing
 "CRtdFlo_Sys_T_Hall_W" = 143.9412   $ Sizing
 "CRtdFlo_Sys_T_OfficeOpn_C" = 59.48594   $ Sizing
 "CRtdFlo_Sys_T_OfficeOpn_E" = 528.0336   $ Sizing
 "CRtdFlo_Sys_T_OfficeOpn_N" = 352.2247   $ Sizing
 "CRtdFlo_Sys_T_OfficeOpn_S" = 554.0319   $ Sizing
 "CRtdFlo_Sys_T_OfficeOpn_W" = 581.4691   $ Sizing
 "CRtdFlo_Sys_T_OfficeSm_E" = 450.9651   $ Sizing
 "CRtdFlo_Sys_T_OfficeSm_N" = 282.1341   $ Sizing
 "CRtdFlo_Sys_T_OfficeSm_S" = 488.8581   $ Sizing
 "CRtdFlo_Sys_T_OfficeSm_W" = 505.9006   $ Sizing
 "CRtdFlo_Sys_T_Restrm_C" = 123.007   $ Sizing
 "CRtdFlo_Sys_T_StorSm_E" = 134.6396   $ Sizing
 "CRtdFlo_Sys_T_StorSm_N" = 70.78265   $ Sizing
 "CRtdFlo_Sys_T_StorSm_S" = 148.2094   $ Sizing
 "CRtdFlo_Sys_T_StorSm_W" = 148.2351   $ Sizing
 "CSupFlo_Sys_L_Break_C" = 414.9536   $ Sizing
 "CSupFlo_Sys_L_CompDC_C" = 142.4148   $ Sizing
 "CSupFlo_Sys_L_Conf_C" = 235.6673   $ Sizing
 "CSupFlo_Sys_L_CopyRm_C" = 83.42739   $ Sizing
 "CSupFlo_Sys_L_Hall_E" = 120.6885   $ Sizing
 "CSupFlo_Sys_L_Hall_N" = 58.0523   $ Sizing
 "CSupFlo_Sys_L_Hall_S" = 128.3282   $ Sizing
 "CSupFlo_Sys_L_Hall_W" = 131.9035   $ Sizing
 "CSupFlo_Sys_L_LobWait_E" = 287.6764   $ Sizing
 "CSupFlo_Sys_L_LobWait_N" = 157.8737   $ Sizing
 "CSupFlo_Sys_L_LobWait_S" = 307.5896   $ Sizing
 "CSupFlo_Sys_L_LobWait_W" = 330.7141   $ Sizing
 "CSupFlo_Sys_L_MechElec_C" = 71.29893   $ Sizing
 "CSupFlo_Sys_L_OfficeOpn_C" = 68.64526   $ Sizing
 "CSupFlo_Sys_L_OfficeOpn_E" = 512.8662   $ Sizing
 "CSupFlo_Sys_L_OfficeOpn_N" = 328.9367   $ Sizing
 "CSupFlo_Sys_L_OfficeOpn_S" = 509.6948   $ Sizing
 "CSupFlo_Sys_L_OfficeOpn_W" = 553.6111   $ Sizing
 "CSupFlo_Sys_L_OfficeSm_E" = 433.8833   $ Sizing
 "CSupFlo_Sys_L_OfficeSm_N" = 260.5017   $ Sizing
 "CSupFlo_Sys_L_OfficeSm_S" = 449.6681   $ Sizing
 "CSupFlo_Sys_L_OfficeSm_W" = 480.9327   $ Sizing
 "CSupFlo_Sys_L_Restrm_C" = 78.67935   $ Sizing
 "CSupFlo_Sys_L_StorSm_C" = 34.30614   $ Sizing
 "CSupFlo_Sys_L_StorSm_E" = 118.2309   $ Sizing
 "CSupFlo_Sys_L_StorSm_N" = 56.06499   $ Sizing
 "CSupFlo_Sys_L_StorSm_S" = 124.1063   $ Sizing
 "CSupFlo_Sys_L_StorSm_W" = 124.0295   $ Sizing
 "CSupFlo_Sys_T_Conf_C" = 230.0833   $ Sizing
 "CSupFlo_Sys_T_Hall_E" = 131.9118   $ Sizing
 "CSupFlo_Sys_T_Hall_N" = 68.07927   $ Sizing
 "CSupFlo_Sys_T_Hall_S" = 145.1691   $ Sizing
 "CSupFlo_Sys_T_Hall_W" = 143.9412   $ Sizing
 "CSupFlo_Sys_T_OfficeOpn_C" = 59.48594   $ Sizing
 "CSupFlo_Sys_T_OfficeOpn_E" = 528.0336   $ Sizing
 "CSupFlo_Sys_T_OfficeOpn_N" = 352.2247   $ Sizing
 "CSupFlo_Sys_T_OfficeOpn_S" = 554.0319   $ Sizing
 "CSupFlo_Sys_T_OfficeOpn_W" = 581.4691   $ Sizing
 "CSupFlo_Sys_T_OfficeSm_E" = 450.9651   $ Sizing
 "CSupFlo_Sys_T_OfficeSm_N" = 282.1341   $ Sizing
 "CSupFlo_Sys_T_OfficeSm_S" = 488.8581   $ Sizing
 "CSupFlo_Sys_T_OfficeSm_W" = 505.9006   $ Sizing
 "CSupFlo_Sys_T_Restrm_C" = 123.007   $ Sizing
 "CSupFlo_Sys_T_StorSm_E" = 134.6396   $ Sizing
 "CSupFlo_Sys_T_StorSm_N" = 70.78265   $ Sizing
 "CSupFlo_Sys_T_StorSm_S" = 148.2094   $ Sizing
 "CSupFlo_Sys_T_StorSm_W" = 148.2351   $ Sizing
 "ClCap_Sys_L_Break_C" = 14021.2   $ Sizing
 "ClCap_Sys_L_CompDC_C" = 4812.169   $ Sizing
 "ClCap_Sys_L_Conf_C" = 10134.92   $ Sizing
 "ClCap_Sys_L_CopyRm_C" = 2818.996   $ Sizing
 "ClCap_Sys_L_Hall_E" = 4078.04   $ Sizing
 "ClCap_Sys_L_Hall_N" = 1961.576   $ Sizing
 "ClCap_Sys_L_Hall_S" = 4336.184   $ Sizing
 "ClCap_Sys_L_Hall_W" = 4456.995   $ Sizing
 "ClCap_Sys_L_LobWait_E" = 9720.532   $ Sizing
 "ClCap_Sys_L_LobWait_N" = 5334.522   $ Sizing
 "ClCap_Sys_L_LobWait_S" = 10393.39   $ Sizing
 "ClCap_Sys_L_LobWait_W" = 11174.77   $ Sizing
 "ClCap_Sys_L_MechElec_C" = 2409.177   $ Sizing
 "ClCap_Sys_L_OfficeOpn_C" = 2319.51   $ Sizing
 "ClCap_Sys_L_OfficeOpn_E" = 17329.65   $ Sizing
 "ClCap_Sys_L_OfficeOpn_N" = 11114.71   $ Sizing
 "ClCap_Sys_L_OfficeOpn_S" = 17222.49   $ Sizing
 "ClCap_Sys_L_OfficeOpn_W" = 18706.42   $ Sizing
 "ClCap_Sys_L_OfficeSm_E" = 14660.84   $ Sizing
 "ClCap_Sys_L_OfficeSm_N" = 8802.303   $ Sizing
 "ClCap_Sys_L_OfficeSm_S" = 15194.2   $ Sizing
 "ClCap_Sys_L_OfficeSm_W" = 16250.63   $ Sizing
 "ClCap_Sys_L_Restrm_C" = 2658.561   $ Sizing
 "ClCap_Sys_L_StorSm_C" = 1159.198   $ Sizing
 "ClCap_Sys_L_StorSm_E" = 3995   $ Sizing
 "ClCap_Sys_L_StorSm_N" = 1894.426   $ Sizing
 "ClCap_Sys_L_StorSm_S" = 4193.53   $ Sizing
 "ClCap_Sys_L_StorSm_W" = 4190.935   $ Sizing
 "ClCap_Sys_T_Conf_C" = 9894.781   $ Sizing
 "ClCap_Sys_T_Hall_E" = 4457.276   $ Sizing
 "ClCap_Sys_T_Hall_N" = 2300.386   $ Sizing
 "ClCap_Sys_T_Hall_S" = 4905.236   $ Sizing
 "ClCap_Sys_T_Hall_W" = 4863.746   $ Sizing
 "ClCap_Sys_T_OfficeOpn_C" = 2010.019   $ Sizing
 "ClCap_Sys_T_OfficeOpn_E" = 17842.15   $ Sizing
 "ClCap_Sys_T_OfficeOpn_N" = 11901.61   $ Sizing
 "ClCap_Sys_T_OfficeOpn_S" = 18720.63   $ Sizing
 "ClCap_Sys_T_OfficeOpn_W" = 19647.73   $ Sizing
 "ClCap_Sys_T_OfficeSm_E" = 15238.03   $ Sizing
 "ClCap_Sys_T_OfficeSm_N" = 9533.258   $ Sizing
 "ClCap_Sys_T_OfficeSm_S" = 16518.42   $ Sizing
 "ClCap_Sys_T_OfficeSm_W" = 17094.29   $ Sizing
 "ClCap_Sys_T_Restrm_C" = 4156.384   $ Sizing
 "ClCap_Sys_T_StorSm_E" = 4549.448   $ Sizing
 "ClCap_Sys_T_StorSm_N" = 2391.733   $ Sizing
 "ClCap_Sys_T_StorSm_S" = 5007.967   $ Sizing
 "ClCap_Sys_T_StorSm_W" = 5008.837   $ Sizing
 "HtCap_Sys_L_Break_C" = -21657.62   $ Sizing
 "HtCap_Sys_L_CompDC_C" = -8432.479   $ Sizing
 "HtCap_Sys_L_Conf_C" = -12793.91   $ Sizing
 "HtCap_Sys_L_CopyRm_C" = -4711.099   $ Sizing
 "HtCap_Sys_L_Hall_E" = -5109.736   $ Sizing
 "HtCap_Sys_L_Hall_N" = -2240.032   $ Sizing
 "HtCap_Sys_L_Hall_S" = -5160.398   $ Sizing
 "HtCap_Sys_L_Hall_W" = -5056.381   $ Sizing
 "HtCap_Sys_L_LobWait_E" = -11551.93   $ Sizing
 "HtCap_Sys_L_LobWait_N" = -6747.611   $ Sizing
 "HtCap_Sys_L_LobWait_S" = -12965.18   $ Sizing
 "HtCap_Sys_L_LobWait_W" = -12673.16   $ Sizing
 "HtCap_Sys_L_MechElec_C" = -3750.006   $ Sizing
 "HtCap_Sys_L_OfficeOpn_C" = -3002.792   $ Sizing
 "HtCap_Sys_L_OfficeOpn_E" = -20332.34   $ Sizing
 "HtCap_Sys_L_OfficeOpn_N" = -13248.57   $ Sizing
 "HtCap_Sys_L_OfficeOpn_S" = -19986.05   $ Sizing
 "HtCap_Sys_L_OfficeOpn_W" = -21286.81   $ Sizing
 "HtCap_Sys_L_OfficeSm_E" = -17799.62   $ Sizing
 "HtCap_Sys_L_OfficeSm_N" = -10283.29   $ Sizing
 "HtCap_Sys_L_OfficeSm_S" = -17507.6   $ Sizing
 "HtCap_Sys_L_OfficeSm_W" = -18167.03   $ Sizing
 "HtCap_Sys_L_Restrm_C" = -3160.616   $ Sizing
 "HtCap_Sys_L_StorSm_C" = -1580.899   $ Sizing
 "HtCap_Sys_L_StorSm_E" = -4836.764   $ Sizing
 "HtCap_Sys_L_StorSm_N" = -2538.787   $ Sizing
 "HtCap_Sys_L_StorSm_S" = -5173.763   $ Sizing
 "HtCap_Sys_L_StorSm_W" = -4897.344   $ Sizing
 "HtCap_Sys_T_Conf_C" = -12942.9   $ Sizing
 "HtCap_Sys_T_Hall_E" = -5761.523   $ Sizing
 "HtCap_Sys_T_Hall_N" = -2866.979   $ Sizing
 "HtCap_Sys_T_Hall_S" = -6223.493   $ Sizing
 "HtCap_Sys_T_Hall_W" = -5833.262   $ Sizing
 "HtCap_Sys_T_OfficeOpn_C" = -2858.012   $ Sizing
 "HtCap_Sys_T_OfficeOpn_E" = -22084.39   $ Sizing
 "HtCap_Sys_T_OfficeOpn_N" = -14760.15   $ Sizing
 "HtCap_Sys_T_OfficeOpn_S" = -23468.52   $ Sizing
 "HtCap_Sys_T_OfficeOpn_W" = -22827.82   $ Sizing
 "HtCap_Sys_T_OfficeSm_E" = -19052.68   $ Sizing
 "HtCap_Sys_T_OfficeSm_N" = -11565.86   $ Sizing
 "HtCap_Sys_T_OfficeSm_S" = -20162.08   $ Sizing
 "HtCap_Sys_T_OfficeSm_W" = -19822.28   $ Sizing
 "HtCap_Sys_T_Restrm_C" = -5266.666   $ Sizing
 "HtCap_Sys_T_StorSm_E" = -6047.998   $ Sizing
 "HtCap_Sys_T_StorSm_N" = -3367.435   $ Sizing
 "HtCap_Sys_T_StorSm_S" = -6287.066   $ Sizing
 "HtCap_Sys_T_StorSm_W" = -6021.77   $ Sizing
..

##include Templates\OfS_DX_SZ.inp
END ..
COMPUTE ..
STOP ..
