INPUT ..

##fileprefix C:\Users\jglasskatz\MASControl3\
##set1 IsSizing FALSE
##set1 CoolType None
##set1 HeatType FURNACE
##set1 EU_HrRepVar 1
##set1 BldgVint 2003
##set1 BldgLoc CZ01


PARAMETER
 "AltFactor" = 1.00753   $ IP Non-Tech
 "BldgEconoFlag" = 1   $ IP Non-Tech
 "Break_EWSF" = 1   $ IP Non-Tech
 "Break_LWSF" = 1.1   $ IP Non-Tech
 "CDD_DBHi10" = 65   $ IP Non-Tech
 "CDD_DBHi7" = 68   $ IP Non-Tech
 "CDD_DBHi8" = 66   $ IP Non-Tech
 "CDD_DBHi9" = 77   $ IP Non-Tech
 "CDD_DBRange10" = 17   $ IP Non-Tech
 "CDD_DBRange7" = 11   $ IP Non-Tech
 "CDD_DBRange8" = 10   $ IP Non-Tech
 "CDD_DBRange9" = 29   $ IP Non-Tech
 "CDD_Day10" = 15   $ IP Non-Tech
 "CDD_Day7" = 16   $ IP Non-Tech
 "CDD_Day8" = 20   $ IP Non-Tech
 "CDD_Day9" = 17   $ IP Non-Tech
 "CDD_HrHi10" = 12   $ IP Non-Tech
 "CDD_HrHi7" = 12   $ IP Non-Tech
 "CDD_HrHi8" = 13   $ IP Non-Tech
 "CDD_HrHi9" = 17   $ IP Non-Tech
 "CDD_HrLo10" = 6   $ IP Non-Tech
 "CDD_HrLo7" = 3   $ IP Non-Tech
 "CDD_HrLo8" = 8   $ IP Non-Tech
 "CDD_HrLo9" = 4   $ IP Non-Tech
 "CDD_WB10" = 57.53039551   $ IP Non-Tech
 "CDD_WB7" = 59.29250717   $ IP Non-Tech
 "CDD_WB8" = 60.75350189   $ IP Non-Tech
 "CDD_WB9" = 61.08643341   $ IP Non-Tech
 "CZ_Category" = Tem   $ IP Non-Tech
 "ChwVintEconoFlag" = 1   $ IP Non-Tech
 "CompRoomData_EWSF" = 5   $ IP Non-Tech
 "CompRoomData_LWSF" = 1.2   $ IP Non-Tech
 "Conference_EWSF" = 1   $ IP Non-Tech
 "Conference_LWSF" = 1.4   $ IP Non-Tech
 "CoolSetT" = 45   $ IP Non-Tech
 "CoolType" = None   $ IP Non-Tech
 "CopyRoom_EWSF" = 1.5   $ IP Non-Tech
 "CopyRoom_LWSF" = 1.3   $ IP Non-Tech
 "DesCoolT" = 75   $ IP Non-Tech
 "DesHeatT" = 73   $ IP Non-Tech
 "EconoEnthLimit" = 28   $ IP Non-Tech
 "EconoTempLimit" = 70   $ IP Non-Tech
 "Elevation" = 203   $ IP Non-Tech
 "HDD_CloudAmt1" = 0   $ IP Non-Tech
 "HDD_DBHi1" = 53   $ IP Non-Tech
 "HDD_DBRange1" = 20   $ IP Non-Tech
 "HDD_Day1" = 15   $ IP Non-Tech
 "HDD_HrHi1" = 14   $ IP Non-Tech
 "HDD_HrLo1" = 6   $ IP Non-Tech
 "HDD_WB1" = 42.3   $ IP Non-Tech
 "HDD_WindSpd1" = 12.7   $ IP Non-Tech
 "Hall_EWSF" = 0.2   $ IP Non-Tech
 "Hall_LWSF" = 0.6   $ IP Non-Tech
 "HeatSrc" = FURNACE   $ IP Non-Tech
 "HeatSrcTU" = FURNACE   $ IP Non-Tech
 "HeatType" = GasFurn   $ IP Non-Tech
 "HeatTypeTU" = FURNACE   $ IP Non-Tech
 "IndoorFanMode" = CONTINUOUS   $ IP Non-Tech
 "KT_TransferAir" = No   $ IP Non-Tech
 "Latitude" = 40.8   $ IP Non-Tech
 "LobbyWaiting_EWSF" = 0.5   $ IP Non-Tech
 "LobbyWaiting_LWSF" = 1.3   $ IP Non-Tech
 "Longitude" = 124.2   $ IP Non-Tech
 "LtgMsrApplic" = ALL   $ Msr TechID: NonResLtgRefMsr-HB
 "LtgSav_CFL" = 0   $ Msr TechID: NonResLtgRefMsr-HB
 "LtgSav_EX" = 0   $ Msr TechID: NonResLtgRefMsr-HB
 "LtgSav_HB" = 0.3   $ Msr TechID: NonResLtgRefMsr-HB
 "LtgSav_LF" = 0   $ Msr TechID: NonResLtgRefMsr-HB
 "LtgSav_SP" = 0   $ Msr TechID: NonResLtgRefMsr-HB
 "MZFanMechEff" = 1   $ IP Non-Tech
 "MZHasRetFan" = FALSE   $ IP Non-Tech
 "MZ_RFanWPerCfm" = 0.33   $ IP Non-Tech
 "MZ_SFanWPerCfm" = 0.75   $ IP Non-Tech
 "MaxSupT_MZ" = 100   $ IP Non-Tech
 "MaxSupT_SZ" = 100   $ IP Non-Tech
 "MaxSupT_TU" = 100   $ IP Non-Tech
 "MechElecRoom_EWSF" = 0.2   $ IP Non-Tech
 "MechElecRoom_LWSF" = 0.7   $ IP Non-Tech
 "MinCfmPerSF" = 0.4   $ IP Non-Tech
 "MinSupT" = 55   $ IP Non-Tech
 "OccCoolT" = 76   $ IP Non-Tech
 "OccHeatT" = 72   $ IP Non-Tech
 "OfficeOpen_EWSF" = 1.5   $ IP Non-Tech
 "OfficeOpen_LWSF" = 1.2   $ IP Non-Tech
 "OfficeSmall_EWSF" = 1.5   $ IP Non-Tech
 "OfficeSmall_LWSF" = 1.3   $ IP Non-Tech
 "PkgDxVintEconoFlag" = 0   $ IP Non-Tech
 "Restroom_EWSF" = 0.2   $ IP Non-Tech
 "Restroom_LWSF" = 0.6   $ IP Non-Tech
 "SZFanMechEff" = 1   $ IP Non-Tech
 "SZHasRetFan" = FALSE   $ IP Non-Tech
 "SZ_Is_2Spd" = FALSE   $ IP Non-Tech
 "SZ_SFanWPerCfm" = 0.46   $ IP Non-Tech
 "StorageSmlCond_EWSF" = 0.2   $ IP Non-Tech
 "StorageSmlCond_LWSF" = 0.6   $ IP Non-Tech
 "T24GlzTbl" = CZTbl   $ IP Non-Tech
 "TermUnitFanMechEff" = 1   $ IP Non-Tech
 "TermUnitFanMode" = INTERMITTENT   $ IP Non-Tech
 "TermUnitFanWPerCfm" = 0.175   $ IP Non-Tech
 "TwrSetpt" = 80   $ IP Non-Tech
 "UnocCoolT" = 86   $ IP Non-Tech
 "UnocHeatT" = 62   $ IP Non-Tech
 "WlhpVintEconoFlag" = 0   $ IP Non-Tech
 "EconoCtrl" = OA-TEMP   $ IP Tech: AirEcono-OATemp
 "MaxOAFrac" = 0.85   $ IP Tech: AirEcono-OATemp
 "UseEconoVintApplic" = FALSE   $ IP Tech: AirEcono-OATemp
 "DuctDT" = 1   $ IP Tech: ComDuctInsul-1
 "DuctAirLoss" = 0   $ IP Tech: ComDuctLeak-0
 "DuctLossOAFrac" = 0   $ IP Tech: ComDuctLeak-0
 "ComRoofInsCalc" = FromUo   $ IP Tech: ComRoofIns-WFrm-0.06
 "ComRoofInsR" = -999   $ IP Tech: ComRoofIns-WFrm-0.06
 "ComRoofUo" = 0.06   $ IP Tech: ComRoofIns-WFrm-0.06
 "ComEWInsCalc" = FromUo   $ IP Tech: ComWallIns-WFrm-0.08
 "ComEWInsR" = -999   $ IP Tech: ComWallIns-WFrm-0.08
 "ComEWUo" = 0.08   $ IP Tech: ComWallIns-WFrm-0.08
 "ComN_SHGC" = 0.47   $ IP Tech: NResWin-ComN-0.47-0.47
 "ComN_UFactor" = 0.47   $ IP Tech: NResWin-ComN-0.47-0.47
 "ComN_VisTrans" = 0.75   $ IP Tech: NResWin-ComN-0.47-0.47
 "ComN_WinCode" = G2633   $ IP Tech: NResWin-ComN-0.47-0.47
 "ComN_WinFrmFrac" = 0.17   $ IP Tech: NResWin-ComN-0.47-0.47
 "ComN_WinFrmU" = 0.3   $ IP Tech: NResWin-ComN-0.47-0.47
 "ComO_SHGC" = 0.43   $ IP Tech: NResWin-ComO-0.47-0.43
 "ComO_UFactor" = 0.47   $ IP Tech: NResWin-ComO-0.47-0.43
 "ComO_VisTrans" = 0.68   $ IP Tech: NResWin-ComO-0.47-0.43
 "ComO_WinCode" = G2663   $ IP Tech: NResWin-ComO-0.47-0.43
 "ComO_WinFrmFrac" = 0.17   $ IP Tech: NResWin-ComO-0.47-0.43
 "ComO_WinFrmU" = 0.3   $ IP Tech: NResWin-ComO-0.47-0.43
 "FanPwrMult" = 1   $ IP Tech: PkgFurn-0.80AFUE
 "FurnAFUE" = 0.8   $ IP Tech: PkgFurn-0.80AFUE
 "FurnEt" = 0.82   $ IP Tech: PkgFurn-0.80AFUE
 "FurnaceAuxKW" = 0.1   $ IP Tech: PkgFurn-0.80AFUE
 "HIR_fPLR" = Furnace-HIR-fPLR   $ IP Tech: PkgFurn-0.80AFUE
 "VSM" = FALSE   $ IP Tech: PkgFurn-0.80AFUE
 "AltAdjFactor" = 1.007532   $ Sizing
 "CAssFlo_L_Break_CZn" = 185.4956   $ Sizing
 "CAssFlo_L_CompDC_CZn" = 52.23781   $ Sizing
 "CAssFlo_L_Conf_CZn" = 143.3872   $ Sizing
 "CAssFlo_L_CopyRm_CZn" = 50.72986   $ Sizing
 "CAssFlo_L_Hall_EZn" = 54.02901   $ Sizing
 "CAssFlo_L_Hall_NZn" = 47.80348   $ Sizing
 "CAssFlo_L_Hall_SZn" = 32.25151   $ Sizing
 "CAssFlo_L_Hall_WZn" = 52.51711   $ Sizing
 "CAssFlo_L_LobWait_EZn" = 108.9367   $ Sizing
 "CAssFlo_L_LobWait_NZn" = 106.9909   $ Sizing
 "CAssFlo_L_LobWait_SZn" = 73.18243   $ Sizing
 "CAssFlo_L_LobWait_WZn" = 107.9641   $ Sizing
 "CAssFlo_L_MechElec_CZn" = 65.93681   $ Sizing
 "CAssFlo_L_OfficeOpn_CZn" = 35.9299   $ Sizing
 "CAssFlo_L_OfficeOpn_EZn" = 170.6679   $ Sizing
 "CAssFlo_L_OfficeOpn_NZn" = 170.6679   $ Sizing
 "CAssFlo_L_OfficeOpn_SZn" = 170.6679   $ Sizing
 "CAssFlo_L_OfficeOpn_WZn" = 170.6679   $ Sizing
 "CAssFlo_L_OfficeSm_EZn" = 124.2589   $ Sizing
 "CAssFlo_L_OfficeSm_NZn" = 124.2589   $ Sizing
 "CAssFlo_L_OfficeSm_SZn" = 124.2589   $ Sizing
 "CAssFlo_L_OfficeSm_WZn" = 124.2589   $ Sizing
 "CAssFlo_L_Restrm_CZn" = 86.07105   $ Sizing
 "CAssFlo_L_StorSm_CZn" = 29.91915   $ Sizing
 "CAssFlo_L_StorSm_EZn" = 55.23812   $ Sizing
 "CAssFlo_L_StorSm_NZn" = 62.64285   $ Sizing
 "CAssFlo_L_StorSm_SZn" = 44.41766   $ Sizing
 "CAssFlo_L_StorSm_WZn" = 53.27909   $ Sizing
 "CAssFlo_T_Conf_CZn" = 143.3872   $ Sizing
 "CAssFlo_T_Hall_EZn" = 54.82062   $ Sizing
 "CAssFlo_T_Hall_NZn" = 42.51586   $ Sizing
 "CAssFlo_T_Hall_SZn" = 35.78648   $ Sizing
 "CAssFlo_T_Hall_WZn" = 52.06961   $ Sizing
 "CAssFlo_T_OfficeOpn_CZn" = 35.9299   $ Sizing
 "CAssFlo_T_OfficeOpn_EZn" = 170.6679   $ Sizing
 "CAssFlo_T_OfficeOpn_NZn" = 170.6679   $ Sizing
 "CAssFlo_T_OfficeOpn_SZn" = 170.6679   $ Sizing
 "CAssFlo_T_OfficeOpn_WZn" = 170.6679   $ Sizing
 "CAssFlo_T_OfficeSm_EZn" = 124.2589   $ Sizing
 "CAssFlo_T_OfficeSm_NZn" = 124.2589   $ Sizing
 "CAssFlo_T_OfficeSm_SZn" = 124.2589   $ Sizing
 "CAssFlo_T_OfficeSm_WZn" = 124.2589   $ Sizing
 "CAssFlo_T_Restrm_CZn" = 86.07105   $ Sizing
 "CAssFlo_T_StorSm_EZn" = 56.65478   $ Sizing
 "CAssFlo_T_StorSm_NZn" = 62.7602   $ Sizing
 "CAssFlo_T_StorSm_SZn" = 49.35296   $ Sizing
 "CAssFlo_T_StorSm_WZn" = 60.02598   $ Sizing
 "CHRtFlo_Sys_L_Break_C" = 15   $ Sizing
 "CHRtFlo_Sys_L_CompDC_C" = 15   $ Sizing
 "CHRtFlo_Sys_L_Conf_C" = 15   $ Sizing
 "CHRtFlo_Sys_L_CopyRm_C" = 15   $ Sizing
 "CHRtFlo_Sys_L_Hall_E" = 15   $ Sizing
 "CHRtFlo_Sys_L_Hall_N" = 15   $ Sizing
 "CHRtFlo_Sys_L_Hall_S" = 15   $ Sizing
 "CHRtFlo_Sys_L_Hall_W" = 15   $ Sizing
 "CHRtFlo_Sys_L_LobWait_E" = 15   $ Sizing
 "CHRtFlo_Sys_L_LobWait_N" = 15   $ Sizing
 "CHRtFlo_Sys_L_LobWait_S" = 15   $ Sizing
 "CHRtFlo_Sys_L_LobWait_W" = 15   $ Sizing
 "CHRtFlo_Sys_L_MechElec_C" = 15   $ Sizing
 "CHRtFlo_Sys_L_OfficeOpn_C" = 15   $ Sizing
 "CHRtFlo_Sys_L_OfficeOpn_E" = 15   $ Sizing
 "CHRtFlo_Sys_L_OfficeOpn_N" = 15   $ Sizing
 "CHRtFlo_Sys_L_OfficeOpn_S" = 15   $ Sizing
 "CHRtFlo_Sys_L_OfficeOpn_W" = 15   $ Sizing
 "CHRtFlo_Sys_L_OfficeSm_E" = 15   $ Sizing
 "CHRtFlo_Sys_L_OfficeSm_N" = 15   $ Sizing
 "CHRtFlo_Sys_L_OfficeSm_S" = 15   $ Sizing
 "CHRtFlo_Sys_L_OfficeSm_W" = 15   $ Sizing
 "CHRtFlo_Sys_L_Restrm_C" = 15   $ Sizing
 "CHRtFlo_Sys_L_StorSm_C" = 15   $ Sizing
 "CHRtFlo_Sys_L_StorSm_E" = 15   $ Sizing
 "CHRtFlo_Sys_L_StorSm_N" = 15   $ Sizing
 "CHRtFlo_Sys_L_StorSm_S" = 15   $ Sizing
 "CHRtFlo_Sys_L_StorSm_W" = 15   $ Sizing
 "CHRtFlo_Sys_T_Conf_C" = 15   $ Sizing
 "CHRtFlo_Sys_T_Hall_E" = 15   $ Sizing
 "CHRtFlo_Sys_T_Hall_N" = 15   $ Sizing
 "CHRtFlo_Sys_T_Hall_S" = 15   $ Sizing
 "CHRtFlo_Sys_T_Hall_W" = 15   $ Sizing
 "CHRtFlo_Sys_T_OfficeOpn_C" = 15   $ Sizing
 "CHRtFlo_Sys_T_OfficeOpn_E" = 15   $ Sizing
 "CHRtFlo_Sys_T_OfficeOpn_N" = 15   $ Sizing
 "CHRtFlo_Sys_T_OfficeOpn_S" = 15   $ Sizing
 "CHRtFlo_Sys_T_OfficeOpn_W" = 15   $ Sizing
 "CHRtFlo_Sys_T_OfficeSm_E" = 15   $ Sizing
 "CHRtFlo_Sys_T_OfficeSm_N" = 15   $ Sizing
 "CHRtFlo_Sys_T_OfficeSm_S" = 15   $ Sizing
 "CHRtFlo_Sys_T_OfficeSm_W" = 15   $ Sizing
 "CHRtFlo_Sys_T_Restrm_C" = 15   $ Sizing
 "CHRtFlo_Sys_T_StorSm_E" = 15   $ Sizing
 "CHRtFlo_Sys_T_StorSm_N" = 15   $ Sizing
 "CHRtFlo_Sys_T_StorSm_S" = 15   $ Sizing
 "CHRtFlo_Sys_T_StorSm_W" = 15   $ Sizing
 "CRtdFlo_Sys_L_Break_C" = 15   $ Sizing
 "CRtdFlo_Sys_L_CompDC_C" = 15   $ Sizing
 "CRtdFlo_Sys_L_Conf_C" = 15   $ Sizing
 "CRtdFlo_Sys_L_CopyRm_C" = 15   $ Sizing
 "CRtdFlo_Sys_L_Hall_E" = 15   $ Sizing
 "CRtdFlo_Sys_L_Hall_N" = 15   $ Sizing
 "CRtdFlo_Sys_L_Hall_S" = 15   $ Sizing
 "CRtdFlo_Sys_L_Hall_W" = 15   $ Sizing
 "CRtdFlo_Sys_L_LobWait_E" = 15   $ Sizing
 "CRtdFlo_Sys_L_LobWait_N" = 15   $ Sizing
 "CRtdFlo_Sys_L_LobWait_S" = 15   $ Sizing
 "CRtdFlo_Sys_L_LobWait_W" = 15   $ Sizing
 "CRtdFlo_Sys_L_MechElec_C" = 15   $ Sizing
 "CRtdFlo_Sys_L_OfficeOpn_C" = 15   $ Sizing
 "CRtdFlo_Sys_L_OfficeOpn_E" = 15   $ Sizing
 "CRtdFlo_Sys_L_OfficeOpn_N" = 15   $ Sizing
 "CRtdFlo_Sys_L_OfficeOpn_S" = 15   $ Sizing
 "CRtdFlo_Sys_L_OfficeOpn_W" = 15   $ Sizing
 "CRtdFlo_Sys_L_OfficeSm_E" = 15   $ Sizing
 "CRtdFlo_Sys_L_OfficeSm_N" = 15   $ Sizing
 "CRtdFlo_Sys_L_OfficeSm_S" = 15   $ Sizing
 "CRtdFlo_Sys_L_OfficeSm_W" = 15   $ Sizing
 "CRtdFlo_Sys_L_Restrm_C" = 15   $ Sizing
 "CRtdFlo_Sys_L_StorSm_C" = 15   $ Sizing
 "CRtdFlo_Sys_L_StorSm_E" = 15   $ Sizing
 "CRtdFlo_Sys_L_StorSm_N" = 15   $ Sizing
 "CRtdFlo_Sys_L_StorSm_S" = 15   $ Sizing
 "CRtdFlo_Sys_L_StorSm_W" = 15   $ Sizing
 "CRtdFlo_Sys_T_Conf_C" = 15   $ Sizing
 "CRtdFlo_Sys_T_Hall_E" = 15   $ Sizing
 "CRtdFlo_Sys_T_Hall_N" = 15   $ Sizing
 "CRtdFlo_Sys_T_Hall_S" = 15   $ Sizing
 "CRtdFlo_Sys_T_Hall_W" = 15   $ Sizing
 "CRtdFlo_Sys_T_OfficeOpn_C" = 15   $ Sizing
 "CRtdFlo_Sys_T_OfficeOpn_E" = 15   $ Sizing
 "CRtdFlo_Sys_T_OfficeOpn_N" = 15   $ Sizing
 "CRtdFlo_Sys_T_OfficeOpn_S" = 15   $ Sizing
 "CRtdFlo_Sys_T_OfficeOpn_W" = 15   $ Sizing
 "CRtdFlo_Sys_T_OfficeSm_E" = 15   $ Sizing
 "CRtdFlo_Sys_T_OfficeSm_N" = 15   $ Sizing
 "CRtdFlo_Sys_T_OfficeSm_S" = 15   $ Sizing
 "CRtdFlo_Sys_T_OfficeSm_W" = 15   $ Sizing
 "CRtdFlo_Sys_T_Restrm_C" = 15   $ Sizing
 "CRtdFlo_Sys_T_StorSm_E" = 15   $ Sizing
 "CRtdFlo_Sys_T_StorSm_N" = 15   $ Sizing
 "CRtdFlo_Sys_T_StorSm_S" = 15   $ Sizing
 "CRtdFlo_Sys_T_StorSm_W" = 15   $ Sizing
 "CSupFlo_Sys_L_Break_C" = 185.4956   $ Sizing
 "CSupFlo_Sys_L_CompDC_C" = 52.23781   $ Sizing
 "CSupFlo_Sys_L_Conf_C" = 143.3872   $ Sizing
 "CSupFlo_Sys_L_CopyRm_C" = 50.72986   $ Sizing
 "CSupFlo_Sys_L_Hall_E" = 54.02901   $ Sizing
 "CSupFlo_Sys_L_Hall_N" = 47.80348   $ Sizing
 "CSupFlo_Sys_L_Hall_S" = 32.25151   $ Sizing
 "CSupFlo_Sys_L_Hall_W" = 52.51711   $ Sizing
 "CSupFlo_Sys_L_LobWait_E" = 108.9367   $ Sizing
 "CSupFlo_Sys_L_LobWait_N" = 106.9909   $ Sizing
 "CSupFlo_Sys_L_LobWait_S" = 73.18243   $ Sizing
 "CSupFlo_Sys_L_LobWait_W" = 107.9641   $ Sizing
 "CSupFlo_Sys_L_MechElec_C" = 65.93681   $ Sizing
 "CSupFlo_Sys_L_OfficeOpn_C" = 35.9299   $ Sizing
 "CSupFlo_Sys_L_OfficeOpn_E" = 170.6679   $ Sizing
 "CSupFlo_Sys_L_OfficeOpn_N" = 170.6679   $ Sizing
 "CSupFlo_Sys_L_OfficeOpn_S" = 170.6679   $ Sizing
 "CSupFlo_Sys_L_OfficeOpn_W" = 170.6679   $ Sizing
 "CSupFlo_Sys_L_OfficeSm_E" = 124.2589   $ Sizing
 "CSupFlo_Sys_L_OfficeSm_N" = 124.2589   $ Sizing
 "CSupFlo_Sys_L_OfficeSm_S" = 124.2589   $ Sizing
 "CSupFlo_Sys_L_OfficeSm_W" = 124.2589   $ Sizing
 "CSupFlo_Sys_L_Restrm_C" = 86.07105   $ Sizing
 "CSupFlo_Sys_L_StorSm_C" = 29.91915   $ Sizing
 "CSupFlo_Sys_L_StorSm_E" = 55.23812   $ Sizing
 "CSupFlo_Sys_L_StorSm_N" = 62.64285   $ Sizing
 "CSupFlo_Sys_L_StorSm_S" = 44.41766   $ Sizing
 "CSupFlo_Sys_L_StorSm_W" = 53.27909   $ Sizing
 "CSupFlo_Sys_T_Conf_C" = 143.3872   $ Sizing
 "CSupFlo_Sys_T_Hall_E" = 54.82062   $ Sizing
 "CSupFlo_Sys_T_Hall_N" = 42.51586   $ Sizing
 "CSupFlo_Sys_T_Hall_S" = 35.78648   $ Sizing
 "CSupFlo_Sys_T_Hall_W" = 52.06961   $ Sizing
 "CSupFlo_Sys_T_OfficeOpn_C" = 35.9299   $ Sizing
 "CSupFlo_Sys_T_OfficeOpn_E" = 170.6679   $ Sizing
 "CSupFlo_Sys_T_OfficeOpn_N" = 170.6679   $ Sizing
 "CSupFlo_Sys_T_OfficeOpn_S" = 170.6679   $ Sizing
 "CSupFlo_Sys_T_OfficeOpn_W" = 170.6679   $ Sizing
 "CSupFlo_Sys_T_OfficeSm_E" = 124.2589   $ Sizing
 "CSupFlo_Sys_T_OfficeSm_N" = 124.2589   $ Sizing
 "CSupFlo_Sys_T_OfficeSm_S" = 124.2589   $ Sizing
 "CSupFlo_Sys_T_OfficeSm_W" = 124.2589   $ Sizing
 "CSupFlo_Sys_T_Restrm_C" = 86.07105   $ Sizing
 "CSupFlo_Sys_T_StorSm_E" = 56.65478   $ Sizing
 "CSupFlo_Sys_T_StorSm_N" = 62.7602   $ Sizing
 "CSupFlo_Sys_T_StorSm_S" = 49.35296   $ Sizing
 "CSupFlo_Sys_T_StorSm_W" = 60.02598   $ Sizing
 "ClCap_Sys_L_Break_C" = 0   $ Sizing
 "ClCap_Sys_L_CompDC_C" = 0   $ Sizing
 "ClCap_Sys_L_Conf_C" = 0   $ Sizing
 "ClCap_Sys_L_CopyRm_C" = 0   $ Sizing
 "ClCap_Sys_L_Hall_E" = 0   $ Sizing
 "ClCap_Sys_L_Hall_N" = 0   $ Sizing
 "ClCap_Sys_L_Hall_S" = 0   $ Sizing
 "ClCap_Sys_L_Hall_W" = 0   $ Sizing
 "ClCap_Sys_L_LobWait_E" = 0   $ Sizing
 "ClCap_Sys_L_LobWait_N" = 0   $ Sizing
 "ClCap_Sys_L_LobWait_S" = 0   $ Sizing
 "ClCap_Sys_L_LobWait_W" = 0   $ Sizing
 "ClCap_Sys_L_MechElec_C" = 0   $ Sizing
 "ClCap_Sys_L_OfficeOpn_C" = 0   $ Sizing
 "ClCap_Sys_L_OfficeOpn_E" = 0   $ Sizing
 "ClCap_Sys_L_OfficeOpn_N" = 0   $ Sizing
 "ClCap_Sys_L_OfficeOpn_S" = 0   $ Sizing
 "ClCap_Sys_L_OfficeOpn_W" = 0   $ Sizing
 "ClCap_Sys_L_OfficeSm_E" = 0   $ Sizing
 "ClCap_Sys_L_OfficeSm_N" = 0   $ Sizing
 "ClCap_Sys_L_OfficeSm_S" = 0   $ Sizing
 "ClCap_Sys_L_OfficeSm_W" = 0   $ Sizing
 "ClCap_Sys_L_Restrm_C" = 0   $ Sizing
 "ClCap_Sys_L_StorSm_C" = 0   $ Sizing
 "ClCap_Sys_L_StorSm_E" = 0   $ Sizing
 "ClCap_Sys_L_StorSm_N" = 0   $ Sizing
 "ClCap_Sys_L_StorSm_S" = 0   $ Sizing
 "ClCap_Sys_L_StorSm_W" = 0   $ Sizing
 "ClCap_Sys_T_Conf_C" = 0   $ Sizing
 "ClCap_Sys_T_Hall_E" = 0   $ Sizing
 "ClCap_Sys_T_Hall_N" = 0   $ Sizing
 "ClCap_Sys_T_Hall_S" = 0   $ Sizing
 "ClCap_Sys_T_Hall_W" = 0   $ Sizing
 "ClCap_Sys_T_OfficeOpn_C" = 0   $ Sizing
 "ClCap_Sys_T_OfficeOpn_E" = 0   $ Sizing
 "ClCap_Sys_T_OfficeOpn_N" = 0   $ Sizing
 "ClCap_Sys_T_OfficeOpn_S" = 0   $ Sizing
 "ClCap_Sys_T_OfficeOpn_W" = 0   $ Sizing
 "ClCap_Sys_T_OfficeSm_E" = 0   $ Sizing
 "ClCap_Sys_T_OfficeSm_N" = 0   $ Sizing
 "ClCap_Sys_T_OfficeSm_S" = 0   $ Sizing
 "ClCap_Sys_T_OfficeSm_W" = 0   $ Sizing
 "ClCap_Sys_T_Restrm_C" = 0   $ Sizing
 "ClCap_Sys_T_StorSm_E" = 0   $ Sizing
 "ClCap_Sys_T_StorSm_N" = 0   $ Sizing
 "ClCap_Sys_T_StorSm_S" = 0   $ Sizing
 "ClCap_Sys_T_StorSm_W" = 0   $ Sizing
 "HtCap_L_Break_CZn" = -12691.64   $ Sizing
 "HtCap_L_CompDC_CZn" = -2349.336   $ Sizing
 "HtCap_L_Conf_CZn" = -9810.573   $ Sizing
 "HtCap_L_CopyRm_CZn" = -3470.944   $ Sizing
 "HtCap_L_Hall_EZn" = -2073.993   $ Sizing
 "HtCap_L_Hall_NZn" = -1899.861   $ Sizing
 "HtCap_L_Hall_SZn" = -1464.667   $ Sizing
 "HtCap_L_Hall_WZn" = -2031.704   $ Sizing
 "HtCap_L_LobWait_EZn" = -5290.144   $ Sizing
 "HtCap_L_LobWait_NZn" = -5235.704   $ Sizing
 "HtCap_L_LobWait_SZn" = -4289.756   $ Sizing
 "HtCap_L_LobWait_WZn" = -5262.934   $ Sizing
 "HtCap_L_MechElec_CZn" = -2994.273   $ Sizing
 "HtCap_L_OfficeOpn_CZn" = -1631.779   $ Sizing
 "HtCap_L_OfficeOpn_EZn" = -7747.267   $ Sizing
 "HtCap_L_OfficeOpn_NZn" = -7749.133   $ Sizing
 "HtCap_L_OfficeOpn_SZn" = -7744.272   $ Sizing
 "HtCap_L_OfficeOpn_WZn" = -7748.216   $ Sizing
 "HtCap_L_OfficeSm_EZn" = -5642.349   $ Sizing
 "HtCap_L_OfficeSm_NZn" = -5642.662   $ Sizing
 "HtCap_L_OfficeSm_SZn" = -5638.855   $ Sizing
 "HtCap_L_OfficeSm_WZn" = -5641.674   $ Sizing
 "HtCap_L_Restrm_CZn" = -2909.873   $ Sizing
 "HtCap_L_StorSm_CZn" = -1181.169   $ Sizing
 "HtCap_L_StorSm_EZn" = -2319.628   $ Sizing
 "HtCap_L_StorSm_NZn" = -2526.684   $ Sizing
 "HtCap_L_StorSm_SZn" = -2016.67   $ Sizing
 "HtCap_L_StorSm_WZn" = -2264.849   $ Sizing
 "HtCap_Sys_L_Break_C" = -12691.64   $ Sizing
 "HtCap_Sys_L_Break_C" = 0   $ Sizing
 "HtCap_Sys_L_CompDC_C" = -2349.336   $ Sizing
 "HtCap_Sys_L_CompDC_C" = 0   $ Sizing
 "HtCap_Sys_L_Conf_C" = -9810.573   $ Sizing
 "HtCap_Sys_L_Conf_C" = 0   $ Sizing
 "HtCap_Sys_L_CopyRm_C" = -3470.944   $ Sizing
 "HtCap_Sys_L_CopyRm_C" = 0   $ Sizing
 "HtCap_Sys_L_Hall_E" = -2073.993   $ Sizing
 "HtCap_Sys_L_Hall_E" = 0   $ Sizing
 "HtCap_Sys_L_Hall_N" = -1899.861   $ Sizing
 "HtCap_Sys_L_Hall_N" = 0   $ Sizing
 "HtCap_Sys_L_Hall_S" = -1464.667   $ Sizing
 "HtCap_Sys_L_Hall_S" = 0   $ Sizing
 "HtCap_Sys_L_Hall_W" = -2031.704   $ Sizing
 "HtCap_Sys_L_Hall_W" = 0   $ Sizing
 "HtCap_Sys_L_LobWait_E" = -5290.145   $ Sizing
 "HtCap_Sys_L_LobWait_E" = 0   $ Sizing
 "HtCap_Sys_L_LobWait_N" = -5235.704   $ Sizing
 "HtCap_Sys_L_LobWait_N" = 0   $ Sizing
 "HtCap_Sys_L_LobWait_S" = -4289.756   $ Sizing
 "HtCap_Sys_L_LobWait_S" = 0   $ Sizing
 "HtCap_Sys_L_LobWait_W" = -5262.934   $ Sizing
 "HtCap_Sys_L_LobWait_W" = 0   $ Sizing
 "HtCap_Sys_L_MechElec_C" = -2994.274   $ Sizing
 "HtCap_Sys_L_MechElec_C" = 0   $ Sizing
 "HtCap_Sys_L_OfficeOpn_C" = -1631.779   $ Sizing
 "HtCap_Sys_L_OfficeOpn_C" = 0   $ Sizing
 "HtCap_Sys_L_OfficeOpn_E" = -7747.267   $ Sizing
 "HtCap_Sys_L_OfficeOpn_E" = 0   $ Sizing
 "HtCap_Sys_L_OfficeOpn_N" = -7749.133   $ Sizing
 "HtCap_Sys_L_OfficeOpn_N" = 0   $ Sizing
 "HtCap_Sys_L_OfficeOpn_S" = -7744.273   $ Sizing
 "HtCap_Sys_L_OfficeOpn_S" = 0   $ Sizing
 "HtCap_Sys_L_OfficeOpn_W" = -7748.217   $ Sizing
 "HtCap_Sys_L_OfficeOpn_W" = 0   $ Sizing
 "HtCap_Sys_L_OfficeSm_E" = -5642.349   $ Sizing
 "HtCap_Sys_L_OfficeSm_E" = 0   $ Sizing
 "HtCap_Sys_L_OfficeSm_N" = -5642.663   $ Sizing
 "HtCap_Sys_L_OfficeSm_N" = 0   $ Sizing
 "HtCap_Sys_L_OfficeSm_S" = -5638.855   $ Sizing
 "HtCap_Sys_L_OfficeSm_S" = 0   $ Sizing
 "HtCap_Sys_L_OfficeSm_W" = -5641.674   $ Sizing
 "HtCap_Sys_L_OfficeSm_W" = 0   $ Sizing
 "HtCap_Sys_L_Restrm_C" = -2909.873   $ Sizing
 "HtCap_Sys_L_Restrm_C" = 0   $ Sizing
 "HtCap_Sys_L_StorSm_C" = -1181.169   $ Sizing
 "HtCap_Sys_L_StorSm_C" = 0   $ Sizing
 "HtCap_Sys_L_StorSm_E" = -2319.628   $ Sizing
 "HtCap_Sys_L_StorSm_E" = 0   $ Sizing
 "HtCap_Sys_L_StorSm_N" = -2526.684   $ Sizing
 "HtCap_Sys_L_StorSm_N" = 0   $ Sizing
 "HtCap_Sys_L_StorSm_S" = -2016.67   $ Sizing
 "HtCap_Sys_L_StorSm_S" = 0   $ Sizing
 "HtCap_Sys_L_StorSm_W" = -2264.849   $ Sizing
 "HtCap_Sys_L_StorSm_W" = 0   $ Sizing
 "HtCap_Sys_T_Conf_C" = -9810.573   $ Sizing
 "HtCap_Sys_T_Conf_C" = 0   $ Sizing
 "HtCap_Sys_T_Hall_E" = -2096.134   $ Sizing
 "HtCap_Sys_T_Hall_E" = 0   $ Sizing
 "HtCap_Sys_T_Hall_N" = -1751.958   $ Sizing
 "HtCap_Sys_T_Hall_N" = 0   $ Sizing
 "HtCap_Sys_T_Hall_S" = -1563.718   $ Sizing
 "HtCap_Sys_T_Hall_S" = 0   $ Sizing
 "HtCap_Sys_T_Hall_W" = -2019.186   $ Sizing
 "HtCap_Sys_T_Hall_W" = 0   $ Sizing
 "HtCap_Sys_T_OfficeOpn_C" = -1631.475   $ Sizing
 "HtCap_Sys_T_OfficeOpn_C" = 0   $ Sizing
 "HtCap_Sys_T_OfficeOpn_E" = -7747.692   $ Sizing
 "HtCap_Sys_T_OfficeOpn_E" = 0   $ Sizing
 "HtCap_Sys_T_OfficeOpn_N" = -7748.897   $ Sizing
 "HtCap_Sys_T_OfficeOpn_N" = 0   $ Sizing
 "HtCap_Sys_T_OfficeOpn_S" = -7745.595   $ Sizing
 "HtCap_Sys_T_OfficeOpn_S" = 0   $ Sizing
 "HtCap_Sys_T_OfficeOpn_W" = -7748.29   $ Sizing
 "HtCap_Sys_T_OfficeOpn_W" = 0   $ Sizing
 "HtCap_Sys_T_OfficeSm_E" = -5642.243   $ Sizing
 "HtCap_Sys_T_OfficeSm_E" = 0   $ Sizing
 "HtCap_Sys_T_OfficeSm_N" = -5642.305   $ Sizing
 "HtCap_Sys_T_OfficeSm_N" = 0   $ Sizing
 "HtCap_Sys_T_OfficeSm_S" = -5639.817   $ Sizing
 "HtCap_Sys_T_OfficeSm_S" = 0   $ Sizing
 "HtCap_Sys_T_OfficeSm_W" = -5641.732   $ Sizing
 "HtCap_Sys_T_OfficeSm_W" = 0   $ Sizing
 "HtCap_Sys_T_Restrm_C" = -2910.984   $ Sizing
 "HtCap_Sys_T_Restrm_C" = 0   $ Sizing
 "HtCap_Sys_T_StorSm_E" = -2445.358   $ Sizing
 "HtCap_Sys_T_StorSm_E" = 0   $ Sizing
 "HtCap_Sys_T_StorSm_N" = -2616.082   $ Sizing
 "HtCap_Sys_T_StorSm_N" = 0   $ Sizing
 "HtCap_Sys_T_StorSm_S" = -2240.784   $ Sizing
 "HtCap_Sys_T_StorSm_S" = 0   $ Sizing
 "HtCap_Sys_T_StorSm_W" = -2539.624   $ Sizing
 "HtCap_Sys_T_StorSm_W" = 0   $ Sizing
 "HtCap_T_Conf_CZn" = -9810.573   $ Sizing
 "HtCap_T_Hall_EZn" = -2096.134   $ Sizing
 "HtCap_T_Hall_NZn" = -1751.958   $ Sizing
 "HtCap_T_Hall_SZn" = -1563.718   $ Sizing
 "HtCap_T_Hall_WZn" = -2019.186   $ Sizing
 "HtCap_T_OfficeOpn_CZn" = -1631.474   $ Sizing
 "HtCap_T_OfficeOpn_EZn" = -7747.692   $ Sizing
 "HtCap_T_OfficeOpn_NZn" = -7748.897   $ Sizing
 "HtCap_T_OfficeOpn_SZn" = -7745.594   $ Sizing
 "HtCap_T_OfficeOpn_WZn" = -7748.29   $ Sizing
 "HtCap_T_OfficeSm_EZn" = -5642.243   $ Sizing
 "HtCap_T_OfficeSm_NZn" = -5642.305   $ Sizing
 "HtCap_T_OfficeSm_SZn" = -5639.816   $ Sizing
 "HtCap_T_OfficeSm_WZn" = -5641.732   $ Sizing
 "HtCap_T_Restrm_CZn" = -2910.984   $ Sizing
 "HtCap_T_StorSm_EZn" = -2445.358   $ Sizing
 "HtCap_T_StorSm_NZn" = -2616.081   $ Sizing
 "HtCap_T_StorSm_SZn" = -2240.784   $ Sizing
 "HtCap_T_StorSm_WZn" = -2539.624   $ Sizing
..

##include Templates\OfS_DX_SZ.inp
END ..
COMPUTE ..
STOP ..
