INPUT ..

##fileprefix C:\Users\jglasskatz\MASControl3\
##set1 IsSizing FALSE
##set1 CoolType DX
##set1 HeatType FURNACE
##set1 EU_HrRepVar 1
##set1 BldgVint 2003
##set1 BldgLoc CZ01

 ##set1 mBFMult 1   $ IP Tech: RefgChg-NRes-Std

PARAMETER
 "AltFactor" = 1.00753   $ IP Non-Tech
 "BldgEconoFlag" = 1   $ IP Non-Tech
 "Break_EWSF" = 1   $ IP Non-Tech
 "Break_LWSF" = 1.1   $ IP Non-Tech
 "CDD_DBHi10" = 65   $ IP Non-Tech
 "CDD_DBHi7" = 68   $ IP Non-Tech
 "CDD_DBHi8" = 66   $ IP Non-Tech
 "CDD_DBHi9" = 77   $ IP Non-Tech
 "CDD_DBRange10" = 17   $ IP Non-Tech
 "CDD_DBRange7" = 11   $ IP Non-Tech
 "CDD_DBRange8" = 10   $ IP Non-Tech
 "CDD_DBRange9" = 29   $ IP Non-Tech
 "CDD_Day10" = 15   $ IP Non-Tech
 "CDD_Day7" = 16   $ IP Non-Tech
 "CDD_Day8" = 20   $ IP Non-Tech
 "CDD_Day9" = 17   $ IP Non-Tech
 "CDD_HrHi10" = 12   $ IP Non-Tech
 "CDD_HrHi7" = 12   $ IP Non-Tech
 "CDD_HrHi8" = 13   $ IP Non-Tech
 "CDD_HrHi9" = 17   $ IP Non-Tech
 "CDD_HrLo10" = 6   $ IP Non-Tech
 "CDD_HrLo7" = 3   $ IP Non-Tech
 "CDD_HrLo8" = 8   $ IP Non-Tech
 "CDD_HrLo9" = 4   $ IP Non-Tech
 "CDD_WB10" = 57.53039551   $ IP Non-Tech
 "CDD_WB7" = 59.29250717   $ IP Non-Tech
 "CDD_WB8" = 60.75350189   $ IP Non-Tech
 "CDD_WB9" = 61.08643341   $ IP Non-Tech
 "CZ_Category" = Tem   $ IP Non-Tech
 "ChwVintEconoFlag" = 1   $ IP Non-Tech
 "CompRoomData_EWSF" = 5   $ IP Non-Tech
 "CompRoomData_LWSF" = 1.2   $ IP Non-Tech
 "Conference_EWSF" = 1   $ IP Non-Tech
 "Conference_LWSF" = 1.4   $ IP Non-Tech
 "CoolSetT" = 45   $ IP Non-Tech
 "CoolType" = DX   $ IP Non-Tech
 "CopyRoom_EWSF" = 1.5   $ IP Non-Tech
 "CopyRoom_LWSF" = 1.3   $ IP Non-Tech
 "DesCoolT" = 75   $ IP Non-Tech
 "DesHeatT" = 73   $ IP Non-Tech
 "EconoEnthLimit" = 28   $ IP Non-Tech
 "EconoTempLimit" = 70   $ IP Non-Tech
 "Elevation" = 203   $ IP Non-Tech
 "HDD_CloudAmt1" = 0   $ IP Non-Tech
 "HDD_DBHi1" = 53   $ IP Non-Tech
 "HDD_DBRange1" = 20   $ IP Non-Tech
 "HDD_Day1" = 15   $ IP Non-Tech
 "HDD_HrHi1" = 14   $ IP Non-Tech
 "HDD_HrLo1" = 6   $ IP Non-Tech
 "HDD_WB1" = 42.3   $ IP Non-Tech
 "HDD_WindSpd1" = 12.7   $ IP Non-Tech
 "Hall_EWSF" = 0.2   $ IP Non-Tech
 "Hall_LWSF" = 0.6   $ IP Non-Tech
 "HeatSrc" = FURNACE   $ IP Non-Tech
 "HeatSrcTU" = HEAT-PUMP   $ IP Non-Tech
 "HeatType" = GasFurn   $ IP Non-Tech
 "HeatTypeTU" = HEAT-PUMP   $ IP Non-Tech
 "IndoorFanMode" = CONTINUOUS   $ IP Non-Tech
 "KT_TransferAir" = No   $ IP Non-Tech
 "Latitude" = 40.8   $ IP Non-Tech
 "LobbyWaiting_EWSF" = 0.5   $ IP Non-Tech
 "LobbyWaiting_LWSF" = 1.3   $ IP Non-Tech
 "Longitude" = 124.2   $ IP Non-Tech
 "MZFanMechEff" = 0.58   $ IP Non-Tech
 "MZHasRetFan" = FALSE   $ IP Non-Tech
 "MZ_RFanWPerCfm" = 0.33   $ IP Non-Tech
 "MZ_SFanWPerCfm" = 0.75   $ IP Non-Tech
 "MZ_SupFanStatic" = 2.25   $ IP Non-Tech
 "MaxSupT_MZ" = 100   $ IP Non-Tech
 "MaxSupT_SZ" = 100   $ IP Non-Tech
 "MaxSupT_TU" = 90   $ IP Non-Tech
 "MechElecRoom_EWSF" = 0.2   $ IP Non-Tech
 "MechElecRoom_LWSF" = 0.7   $ IP Non-Tech
 "MinCfmPerSF" = 0.4   $ IP Non-Tech
 "MinSupT" = 55   $ IP Non-Tech
 "OccCoolT" = 76   $ IP Non-Tech
 "OccHeatT" = 72   $ IP Non-Tech
 "OfficeOpen_EWSF" = 1.5   $ IP Non-Tech
 "OfficeOpen_LWSF" = 1.2   $ IP Non-Tech
 "OfficeSmall_EWSF" = 1.5   $ IP Non-Tech
 "OfficeSmall_LWSF" = 1.3   $ IP Non-Tech
 "PkgDxVintEconoFlag" = 0   $ IP Non-Tech
 "Restroom_EWSF" = 0.2   $ IP Non-Tech
 "Restroom_LWSF" = 0.6   $ IP Non-Tech
 "SZFanMechEff" = 0.58   $ IP Non-Tech
 "SZHasRetFan" = FALSE   $ IP Non-Tech
 "SZ_Is_2Spd" = FALSE   $ IP Non-Tech
 "SZ_SFanWPerCfm" = 0.46   $ IP Non-Tech
 "SZ_SupFanStatic" = 0.75   $ IP Non-Tech
 "StorageSmlCond_EWSF" = 0.2   $ IP Non-Tech
 "StorageSmlCond_LWSF" = 0.6   $ IP Non-Tech
 "T24GlzTbl" = CZTbl   $ IP Non-Tech
 "TermUnitFanMechEff" = 1   $ IP Non-Tech
 "TermUnitFanMode" = INTERMITTENT   $ IP Non-Tech
 "TwrSetpt" = 80   $ IP Non-Tech
 "UnocCoolT" = 86   $ IP Non-Tech
 "UnocHeatT" = 62   $ IP Non-Tech
 "WlhpVintEconoFlag" = 0   $ IP Non-Tech
 "EconoCtrl" = OA-TEMP   $ IP Tech: AirEcono-OATemp
 "MaxOAFrac" = 0.85   $ IP Tech: AirEcono-OATemp
 "UseEconoVintApplic" = FALSE   $ IP Tech: AirEcono-OATemp
 "DuctDT" = 1   $ IP Tech: ComDuctInsul-1
 "DuctAirLoss" = 0   $ IP Tech: ComDuctLeak-0
 "DuctLossOAFrac" = 0   $ IP Tech: ComDuctLeak-0
 "ComRoofInsCalc" = FromUo   $ IP Tech: ComRoofIns-WFrm-0.06
 "ComRoofInsR" = -999   $ IP Tech: ComRoofIns-WFrm-0.06
 "ComRoofUo" = 0.06   $ IP Tech: ComRoofIns-WFrm-0.06
 "ComEWInsCalc" = FromUo   $ IP Tech: ComWallIns-WFrm-0.08
 "ComEWInsR" = -999   $ IP Tech: ComWallIns-WFrm-0.08
 "ComEWUo" = 0.08   $ IP Tech: ComWallIns-WFrm-0.08
 "ComN_SHGC" = 0.47   $ IP Tech: NResWin-ComN-0.47-0.47
 "ComN_UFactor" = 0.47   $ IP Tech: NResWin-ComN-0.47-0.47
 "ComN_VisTrans" = 0.75   $ IP Tech: NResWin-ComN-0.47-0.47
 "ComN_WinCode" = G2633   $ IP Tech: NResWin-ComN-0.47-0.47
 "ComN_WinFrmFrac" = 0.17   $ IP Tech: NResWin-ComN-0.47-0.47
 "ComN_WinFrmU" = 0.3   $ IP Tech: NResWin-ComN-0.47-0.47
 "ComO_SHGC" = 0.43   $ IP Tech: NResWin-ComO-0.47-0.43
 "ComO_UFactor" = 0.47   $ IP Tech: NResWin-ComO-0.47-0.43
 "ComO_VisTrans" = 0.68   $ IP Tech: NResWin-ComO-0.47-0.43
 "ComO_WinCode" = G2663   $ IP Tech: NResWin-ComO-0.47-0.43
 "ComO_WinFrmFrac" = 0.17   $ IP Tech: NResWin-ComO-0.47-0.43
 "ComO_WinFrmU" = 0.3   $ IP Tech: NResWin-ComO-0.47-0.43
 "LtgMsrApplic" = ALL   $ IP Tech: NonResLtgRefPre
 "LtgSav_CFL" = 0   $ IP Tech: NonResLtgRefPre
 "LtgSav_EX" = 0   $ IP Tech: NonResLtgRefPre
 "LtgSav_HB" = 0   $ IP Tech: NonResLtgRefPre
 "LtgSav_LF" = 0   $ IP Tech: NonResLtgRefPre
 "LtgSav_SP" = 0   $ IP Tech: NonResLtgRefPre
 "BF_fFlow" = PSZ65to135_BF_fFlow   $ IP Tech: PkgAC1SpH-65to135-E10
 "BF_fT" = PSZ65to135_BF_fT   $ IP Tech: PkgAC1SpH-65to135-E10
 "CEIR_fPLR" = PSZ65to135_CEIR_fPLR   $ IP Tech: PkgAC1SpH-65to135-E10
 "CLoss_fPLR" = PSZ65to135_CLoss_fPLR   $ IP Tech: PkgAC1SpH-65to135-E10
 "COP" = -1   $ IP Tech: PkgAC1SpH-65to135-E10
 "COP47" = -1   $ IP Tech: PkgAC1SpH-65to135-E10
 "CfmPerBtuh" = 0.02917   $ IP Tech: PkgAC1SpH-65to135-E10
 "ClCap_fT" = PSZ65to135_ClCap_fT   $ IP Tech: PkgAC1SpH-65to135-E10
 "ClSH_fT" = PSZ65to135_ClSH_fT   $ IP Tech: PkgAC1SpH-65to135-E10
 "CoilBF" = 0.114   $ IP Tech: PkgAC1SpH-65to135-E10
 "CondWPerBtuh" = 0   $ IP Tech: PkgAC1SpH-65to135-E10
 "CoolSensCap" = 0.663   $ IP Tech: PkgAC1SpH-65to135-E10
 "CoolingEIR" = 0.29745   $ IP Tech: PkgAC1SpH-65to135-E10
 "CrnkEIR" = 0.01   $ IP Tech: PkgAC1SpH-65to135-E10
 "CrnkMaxT" = 50   $ IP Tech: PkgAC1SpH-65to135-E10
 "DXType" = Pkg   $ IP Tech: PkgAC1SpH-65to135-E10
 "EER" = 9.67   $ IP Tech: PkgAC1SpH-65to135-E10
 "EIR_fT" = PSZ65to135_EIR_fT   $ IP Tech: PkgAC1SpH-65to135-E10
 "FanEirPlr" = TwoSpeedFan   $ IP Tech: PkgAC1SpH-65to135-E10
 "FanWPerCfm" = 0.412   $ IP Tech: PkgAC1SpH-65to135-E10
 "HIR_fT" = DEFAULT   $ IP Tech: PkgAC1SpH-65to135-E10
 "HtCap_fT" = DEFAULT   $ IP Tech: PkgAC1SpH-65to135-E10
 "HtCoolCapRatio" = -1   $ IP Tech: PkgAC1SpH-65to135-E10
 "HtgEIR" = -1   $ IP Tech: PkgAC1SpH-65to135-E10
 "HtgFuel" = Gas   $ IP Tech: PkgAC1SpH-65to135-E10
 "IEER" = 11.87   $ IP Tech: PkgAC1SpH-65to135-E10
 "LowSpdCapRatio" = 0.5   $ IP Tech: PkgAC1SpH-65to135-E10
 "LowSpdCfmRatio" = 0.66   $ IP Tech: PkgAC1SpH-65to135-E10
 "NominalCap" = 15   $ IP Tech: PkgAC1SpH-65to135-E10
 "NumStages" = 1   $ IP Tech: PkgAC1SpH-65to135-E10
 "RatedEER" = 10   $ IP Tech: PkgAC1SpH-65to135-E10
 "RatedSupMtrClass" = HiEff   $ IP Tech: PkgAC1SpH-65to135-E10
 "SizeRange" = 65to135   $ IP Tech: PkgAC1SpH-65to135-E10
 "SubType" = AC   $ IP Tech: PkgAC1SpH-65to135-E10
 "SupMotEff" = 0.84   $ IP Tech: PkgAC1SpH-65to135-E10
 "Tier" = 0   $ IP Tech: PkgAC1SpH-65to135-E10
 "TotCoolCap" = 184140   $ IP Tech: PkgAC1SpH-65to135-E10
 "FanPwrMult" = 1   $ IP Tech: PkgFurn-0.80AFUE
 "FurnAFUE" = 0.8   $ IP Tech: PkgFurn-0.80AFUE
 "FurnEt" = 0.82   $ IP Tech: PkgFurn-0.80AFUE
 "FurnaceAuxKW" = 0.1   $ IP Tech: PkgFurn-0.80AFUE
 "HIR_fPLR" = Furnace-HIR-fPLR   $ IP Tech: PkgFurn-0.80AFUE
 "VSM" = FALSE   $ IP Tech: PkgFurn-0.80AFUE
 "BFMult" = 1   $ IP Tech: RefgChg-NRes-Std
 "CoolEirMult" = 1   $ IP Tech: RefgChg-NRes-Std
 "SensCoolCapMult" = 1   $ IP Tech: RefgChg-NRes-Std
 "TotCoolCapMult" = 1   $ IP Tech: RefgChg-NRes-Std
 "AltAdjFactor" = 1.007532   $ Sizing
 "CAssFlo_L_Break_CZn" = 279.8319   $ Sizing
 "CAssFlo_L_CompDC_CZn" = 162.3978   $ Sizing
 "CAssFlo_L_Conf_CZn" = 207.7278   $ Sizing
 "CAssFlo_L_CopyRm_CZn" = 59.19442   $ Sizing
 "CAssFlo_L_Hall_EZn" = 97.53625   $ Sizing
 "CAssFlo_L_Hall_NZn" = 54.52041   $ Sizing
 "CAssFlo_L_Hall_SZn" = 112.4461   $ Sizing
 "CAssFlo_L_Hall_WZn" = 100.2947   $ Sizing
 "CAssFlo_L_LobWait_EZn" = 239.8179   $ Sizing
 "CAssFlo_L_LobWait_NZn" = 114.5909   $ Sizing
 "CAssFlo_L_LobWait_SZn" = 264.7098   $ Sizing
 "CAssFlo_L_LobWait_WZn" = 234.6601   $ Sizing
 "CAssFlo_L_MechElec_CZn" = 65.93681   $ Sizing
 "CAssFlo_L_OfficeOpn_CZn" = 60.64542   $ Sizing
 "CAssFlo_L_OfficeOpn_EZn" = 501.9613   $ Sizing
 "CAssFlo_L_OfficeOpn_NZn" = 232.6805   $ Sizing
 "CAssFlo_L_OfficeOpn_SZn" = 507.2143   $ Sizing
 "CAssFlo_L_OfficeOpn_WZn" = 467.7218   $ Sizing
 "CAssFlo_L_OfficeSm_EZn" = 416.4643   $ Sizing
 "CAssFlo_L_OfficeSm_NZn" = 177.8107   $ Sizing
 "CAssFlo_L_OfficeSm_SZn" = 443.7165   $ Sizing
 "CAssFlo_L_OfficeSm_WZn" = 405.7169   $ Sizing
 "CAssFlo_L_Restrm_CZn" = 86.07105   $ Sizing
 "CAssFlo_L_StorSm_CZn" = 30.72709   $ Sizing
 "CAssFlo_L_StorSm_EZn" = 94.4191   $ Sizing
 "CAssFlo_L_StorSm_NZn" = 64.41486   $ Sizing
 "CAssFlo_L_StorSm_SZn" = 101.8047   $ Sizing
 "CAssFlo_L_StorSm_WZn" = 91.67407   $ Sizing
 "CAssFlo_T_Conf_CZn" = 211.7034   $ Sizing
 "CAssFlo_T_Hall_EZn" = 116.8539   $ Sizing
 "CAssFlo_T_Hall_NZn" = 51.19543   $ Sizing
 "CAssFlo_T_Hall_SZn" = 132.1376   $ Sizing
 "CAssFlo_T_Hall_WZn" = 113.0521   $ Sizing
 "CAssFlo_T_OfficeOpn_CZn" = 59.4315   $ Sizing
 "CAssFlo_T_OfficeOpn_EZn" = 510.2973   $ Sizing
 "CAssFlo_T_OfficeOpn_NZn" = 258.5787   $ Sizing
 "CAssFlo_T_OfficeOpn_SZn" = 544.7197   $ Sizing
 "CAssFlo_T_OfficeOpn_WZn" = 472.1988   $ Sizing
 "CAssFlo_T_OfficeSm_EZn" = 432.4528   $ Sizing
 "CAssFlo_T_OfficeSm_NZn" = 200.7359   $ Sizing
 "CAssFlo_T_OfficeSm_SZn" = 480.4444   $ Sizing
 "CAssFlo_T_OfficeSm_WZn" = 411.5699   $ Sizing
 "CAssFlo_T_Restrm_CZn" = 86.07105   $ Sizing
 "CAssFlo_T_StorSm_EZn" = 113.4552   $ Sizing
 "CAssFlo_T_StorSm_NZn" = 63.69838   $ Sizing
 "CAssFlo_T_StorSm_SZn" = 124.4774   $ Sizing
 "CAssFlo_T_StorSm_WZn" = 110.6616   $ Sizing
 "CHRtFlo_Sys_L_Break_C" = 279.8319   $ Sizing
 "CHRtFlo_Sys_L_CompDC_C" = 162.3978   $ Sizing
 "CHRtFlo_Sys_L_Conf_C" = 207.7278   $ Sizing
 "CHRtFlo_Sys_L_CopyRm_C" = 59.19442   $ Sizing
 "CHRtFlo_Sys_L_Hall_E" = 97.53625   $ Sizing
 "CHRtFlo_Sys_L_Hall_N" = 54.52041   $ Sizing
 "CHRtFlo_Sys_L_Hall_S" = 112.4461   $ Sizing
 "CHRtFlo_Sys_L_Hall_W" = 100.2947   $ Sizing
 "CHRtFlo_Sys_L_LobWait_E" = 239.8179   $ Sizing
 "CHRtFlo_Sys_L_LobWait_N" = 114.5909   $ Sizing
 "CHRtFlo_Sys_L_LobWait_S" = 264.7098   $ Sizing
 "CHRtFlo_Sys_L_LobWait_W" = 234.6601   $ Sizing
 "CHRtFlo_Sys_L_MechElec_C" = 65.93681   $ Sizing
 "CHRtFlo_Sys_L_OfficeOpn_C" = 60.64542   $ Sizing
 "CHRtFlo_Sys_L_OfficeOpn_E" = 501.9613   $ Sizing
 "CHRtFlo_Sys_L_OfficeOpn_N" = 232.6805   $ Sizing
 "CHRtFlo_Sys_L_OfficeOpn_S" = 507.2143   $ Sizing
 "CHRtFlo_Sys_L_OfficeOpn_W" = 467.7218   $ Sizing
 "CHRtFlo_Sys_L_OfficeSm_E" = 416.4643   $ Sizing
 "CHRtFlo_Sys_L_OfficeSm_N" = 177.8107   $ Sizing
 "CHRtFlo_Sys_L_OfficeSm_S" = 443.7165   $ Sizing
 "CHRtFlo_Sys_L_OfficeSm_W" = 405.7169   $ Sizing
 "CHRtFlo_Sys_L_Restrm_C" = 86.07105   $ Sizing
 "CHRtFlo_Sys_L_StorSm_C" = 30.72709   $ Sizing
 "CHRtFlo_Sys_L_StorSm_E" = 94.4191   $ Sizing
 "CHRtFlo_Sys_L_StorSm_N" = 64.41486   $ Sizing
 "CHRtFlo_Sys_L_StorSm_S" = 101.8047   $ Sizing
 "CHRtFlo_Sys_L_StorSm_W" = 91.67407   $ Sizing
 "CHRtFlo_Sys_T_Conf_C" = 211.7034   $ Sizing
 "CHRtFlo_Sys_T_Hall_E" = 116.8539   $ Sizing
 "CHRtFlo_Sys_T_Hall_N" = 51.19543   $ Sizing
 "CHRtFlo_Sys_T_Hall_S" = 132.1376   $ Sizing
 "CHRtFlo_Sys_T_Hall_W" = 113.0521   $ Sizing
 "CHRtFlo_Sys_T_OfficeOpn_C" = 59.4315   $ Sizing
 "CHRtFlo_Sys_T_OfficeOpn_E" = 510.2973   $ Sizing
 "CHRtFlo_Sys_T_OfficeOpn_N" = 258.5787   $ Sizing
 "CHRtFlo_Sys_T_OfficeOpn_S" = 544.7197   $ Sizing
 "CHRtFlo_Sys_T_OfficeOpn_W" = 472.1988   $ Sizing
 "CHRtFlo_Sys_T_OfficeSm_E" = 432.4528   $ Sizing
 "CHRtFlo_Sys_T_OfficeSm_N" = 200.7359   $ Sizing
 "CHRtFlo_Sys_T_OfficeSm_S" = 480.4444   $ Sizing
 "CHRtFlo_Sys_T_OfficeSm_W" = 411.5699   $ Sizing
 "CHRtFlo_Sys_T_Restrm_C" = 86.07105   $ Sizing
 "CHRtFlo_Sys_T_StorSm_E" = 113.4552   $ Sizing
 "CHRtFlo_Sys_T_StorSm_N" = 63.69838   $ Sizing
 "CHRtFlo_Sys_T_StorSm_S" = 124.4774   $ Sizing
 "CHRtFlo_Sys_T_StorSm_W" = 110.6616   $ Sizing
 "CRtdFlo_Sys_L_Break_C" = 279.8319   $ Sizing
 "CRtdFlo_Sys_L_CompDC_C" = 162.3978   $ Sizing
 "CRtdFlo_Sys_L_Conf_C" = 207.7278   $ Sizing
 "CRtdFlo_Sys_L_CopyRm_C" = 59.19442   $ Sizing
 "CRtdFlo_Sys_L_Hall_E" = 97.53625   $ Sizing
 "CRtdFlo_Sys_L_Hall_N" = 54.52041   $ Sizing
 "CRtdFlo_Sys_L_Hall_S" = 112.4461   $ Sizing
 "CRtdFlo_Sys_L_Hall_W" = 100.2947   $ Sizing
 "CRtdFlo_Sys_L_LobWait_E" = 239.8179   $ Sizing
 "CRtdFlo_Sys_L_LobWait_N" = 114.5909   $ Sizing
 "CRtdFlo_Sys_L_LobWait_S" = 264.7098   $ Sizing
 "CRtdFlo_Sys_L_LobWait_W" = 234.6601   $ Sizing
 "CRtdFlo_Sys_L_MechElec_C" = 65.93681   $ Sizing
 "CRtdFlo_Sys_L_OfficeOpn_C" = 60.64542   $ Sizing
 "CRtdFlo_Sys_L_OfficeOpn_E" = 501.9613   $ Sizing
 "CRtdFlo_Sys_L_OfficeOpn_N" = 232.6805   $ Sizing
 "CRtdFlo_Sys_L_OfficeOpn_S" = 507.2143   $ Sizing
 "CRtdFlo_Sys_L_OfficeOpn_W" = 467.7218   $ Sizing
 "CRtdFlo_Sys_L_OfficeSm_E" = 416.4643   $ Sizing
 "CRtdFlo_Sys_L_OfficeSm_N" = 177.8107   $ Sizing
 "CRtdFlo_Sys_L_OfficeSm_S" = 443.7165   $ Sizing
 "CRtdFlo_Sys_L_OfficeSm_W" = 405.7169   $ Sizing
 "CRtdFlo_Sys_L_Restrm_C" = 86.07105   $ Sizing
 "CRtdFlo_Sys_L_StorSm_C" = 30.72709   $ Sizing
 "CRtdFlo_Sys_L_StorSm_E" = 94.4191   $ Sizing
 "CRtdFlo_Sys_L_StorSm_N" = 64.41486   $ Sizing
 "CRtdFlo_Sys_L_StorSm_S" = 101.8047   $ Sizing
 "CRtdFlo_Sys_L_StorSm_W" = 91.67407   $ Sizing
 "CRtdFlo_Sys_T_Conf_C" = 211.7034   $ Sizing
 "CRtdFlo_Sys_T_Hall_E" = 116.8539   $ Sizing
 "CRtdFlo_Sys_T_Hall_N" = 51.19543   $ Sizing
 "CRtdFlo_Sys_T_Hall_S" = 132.1376   $ Sizing
 "CRtdFlo_Sys_T_Hall_W" = 113.0521   $ Sizing
 "CRtdFlo_Sys_T_OfficeOpn_C" = 59.4315   $ Sizing
 "CRtdFlo_Sys_T_OfficeOpn_E" = 510.2973   $ Sizing
 "CRtdFlo_Sys_T_OfficeOpn_N" = 258.5787   $ Sizing
 "CRtdFlo_Sys_T_OfficeOpn_S" = 544.7197   $ Sizing
 "CRtdFlo_Sys_T_OfficeOpn_W" = 472.1988   $ Sizing
 "CRtdFlo_Sys_T_OfficeSm_E" = 432.4528   $ Sizing
 "CRtdFlo_Sys_T_OfficeSm_N" = 200.7359   $ Sizing
 "CRtdFlo_Sys_T_OfficeSm_S" = 480.4444   $ Sizing
 "CRtdFlo_Sys_T_OfficeSm_W" = 411.5699   $ Sizing
 "CRtdFlo_Sys_T_Restrm_C" = 86.07105   $ Sizing
 "CRtdFlo_Sys_T_StorSm_E" = 113.4552   $ Sizing
 "CRtdFlo_Sys_T_StorSm_N" = 63.69838   $ Sizing
 "CRtdFlo_Sys_T_StorSm_S" = 124.4774   $ Sizing
 "CRtdFlo_Sys_T_StorSm_W" = 110.6616   $ Sizing
 "CSupFlo_Sys_L_Break_C" = 279.8319   $ Sizing
 "CSupFlo_Sys_L_CompDC_C" = 162.3978   $ Sizing
 "CSupFlo_Sys_L_Conf_C" = 207.7278   $ Sizing
 "CSupFlo_Sys_L_CopyRm_C" = 59.19442   $ Sizing
 "CSupFlo_Sys_L_Hall_E" = 97.53625   $ Sizing
 "CSupFlo_Sys_L_Hall_N" = 54.52041   $ Sizing
 "CSupFlo_Sys_L_Hall_S" = 112.4461   $ Sizing
 "CSupFlo_Sys_L_Hall_W" = 100.2947   $ Sizing
 "CSupFlo_Sys_L_LobWait_E" = 239.8179   $ Sizing
 "CSupFlo_Sys_L_LobWait_N" = 114.5909   $ Sizing
 "CSupFlo_Sys_L_LobWait_S" = 264.7098   $ Sizing
 "CSupFlo_Sys_L_LobWait_W" = 234.6601   $ Sizing
 "CSupFlo_Sys_L_MechElec_C" = 65.93681   $ Sizing
 "CSupFlo_Sys_L_OfficeOpn_C" = 60.64542   $ Sizing
 "CSupFlo_Sys_L_OfficeOpn_E" = 501.9613   $ Sizing
 "CSupFlo_Sys_L_OfficeOpn_N" = 232.6805   $ Sizing
 "CSupFlo_Sys_L_OfficeOpn_S" = 507.2143   $ Sizing
 "CSupFlo_Sys_L_OfficeOpn_W" = 467.7218   $ Sizing
 "CSupFlo_Sys_L_OfficeSm_E" = 416.4643   $ Sizing
 "CSupFlo_Sys_L_OfficeSm_N" = 177.8107   $ Sizing
 "CSupFlo_Sys_L_OfficeSm_S" = 443.7165   $ Sizing
 "CSupFlo_Sys_L_OfficeSm_W" = 405.7169   $ Sizing
 "CSupFlo_Sys_L_Restrm_C" = 86.07105   $ Sizing
 "CSupFlo_Sys_L_StorSm_C" = 30.72709   $ Sizing
 "CSupFlo_Sys_L_StorSm_E" = 94.4191   $ Sizing
 "CSupFlo_Sys_L_StorSm_N" = 64.41486   $ Sizing
 "CSupFlo_Sys_L_StorSm_S" = 101.8047   $ Sizing
 "CSupFlo_Sys_L_StorSm_W" = 91.67407   $ Sizing
 "CSupFlo_Sys_T_Conf_C" = 211.7034   $ Sizing
 "CSupFlo_Sys_T_Hall_E" = 116.8539   $ Sizing
 "CSupFlo_Sys_T_Hall_N" = 51.19543   $ Sizing
 "CSupFlo_Sys_T_Hall_S" = 132.1376   $ Sizing
 "CSupFlo_Sys_T_Hall_W" = 113.0521   $ Sizing
 "CSupFlo_Sys_T_OfficeOpn_C" = 59.4315   $ Sizing
 "CSupFlo_Sys_T_OfficeOpn_E" = 510.2973   $ Sizing
 "CSupFlo_Sys_T_OfficeOpn_N" = 258.5787   $ Sizing
 "CSupFlo_Sys_T_OfficeOpn_S" = 544.7197   $ Sizing
 "CSupFlo_Sys_T_OfficeOpn_W" = 472.1988   $ Sizing
 "CSupFlo_Sys_T_OfficeSm_E" = 432.4528   $ Sizing
 "CSupFlo_Sys_T_OfficeSm_N" = 200.7359   $ Sizing
 "CSupFlo_Sys_T_OfficeSm_S" = 480.4444   $ Sizing
 "CSupFlo_Sys_T_OfficeSm_W" = 411.5699   $ Sizing
 "CSupFlo_Sys_T_Restrm_C" = 86.07105   $ Sizing
 "CSupFlo_Sys_T_StorSm_E" = 113.4552   $ Sizing
 "CSupFlo_Sys_T_StorSm_N" = 63.69838   $ Sizing
 "CSupFlo_Sys_T_StorSm_S" = 124.4774   $ Sizing
 "CSupFlo_Sys_T_StorSm_W" = 110.6616   $ Sizing
 "ClCap_Sys_L_Break_C" = 9522.512   $ Sizing
 "ClCap_Sys_L_CompDC_C" = 5526.3   $ Sizing
 "ClCap_Sys_L_Conf_C" = 8996.72   $ Sizing
 "ClCap_Sys_L_CopyRm_C" = 2014.351   $ Sizing
 "ClCap_Sys_L_Hall_E" = 3319.1   $ Sizing
 "ClCap_Sys_L_Hall_N" = 1855.297   $ Sizing
 "ClCap_Sys_L_Hall_S" = 3826.472   $ Sizing
 "ClCap_Sys_L_Hall_W" = 3412.969   $ Sizing
 "ClCap_Sys_L_LobWait_E" = 8160.861   $ Sizing
 "ClCap_Sys_L_LobWait_N" = 3899.458   $ Sizing
 "ClCap_Sys_L_LobWait_S" = 9007.917   $ Sizing
 "ClCap_Sys_L_LobWait_W" = 7985.343   $ Sizing
 "ClCap_Sys_L_MechElec_C" = 2243.79   $ Sizing
 "ClCap_Sys_L_OfficeOpn_C" = 2063.728   $ Sizing
 "ClCap_Sys_L_OfficeOpn_E" = 17081.44   $ Sizing
 "ClCap_Sys_L_OfficeOpn_N" = 7917.978   $ Sizing
 "ClCap_Sys_L_OfficeOpn_S" = 17260.2   $ Sizing
 "ClCap_Sys_L_OfficeOpn_W" = 15916.29   $ Sizing
 "ClCap_Sys_L_OfficeSm_E" = 14172.03   $ Sizing
 "ClCap_Sys_L_OfficeSm_N" = 6050.793   $ Sizing
 "ClCap_Sys_L_OfficeSm_S" = 15099.41   $ Sizing
 "ClCap_Sys_L_OfficeSm_W" = 13806.3   $ Sizing
 "ClCap_Sys_L_Restrm_C" = 2928.947   $ Sizing
 "ClCap_Sys_L_StorSm_C" = 1045.624   $ Sizing
 "ClCap_Sys_L_StorSm_E" = 3213.025   $ Sizing
 "ClCap_Sys_L_StorSm_N" = 2191.999   $ Sizing
 "ClCap_Sys_L_StorSm_S" = 3464.355   $ Sizing
 "ClCap_Sys_L_StorSm_W" = 3119.614   $ Sizing
 "ClCap_Sys_T_Conf_C" = 9168.906   $ Sizing
 "ClCap_Sys_T_Hall_E" = 3976.469   $ Sizing
 "ClCap_Sys_T_Hall_N" = 1742.15   $ Sizing
 "ClCap_Sys_T_Hall_S" = 4496.563   $ Sizing
 "ClCap_Sys_T_Hall_W" = 3847.095   $ Sizing
 "ClCap_Sys_T_OfficeOpn_C" = 2022.418   $ Sizing
 "ClCap_Sys_T_OfficeOpn_E" = 17365.11   $ Sizing
 "ClCap_Sys_T_OfficeOpn_N" = 8799.279   $ Sizing
 "ClCap_Sys_T_OfficeOpn_S" = 18536.49   $ Sizing
 "ClCap_Sys_T_OfficeOpn_W" = 16068.64   $ Sizing
 "ClCap_Sys_T_OfficeSm_E" = 14716.11   $ Sizing
 "ClCap_Sys_T_OfficeSm_N" = 6830.921   $ Sizing
 "ClCap_Sys_T_OfficeSm_S" = 16349.24   $ Sizing
 "ClCap_Sys_T_OfficeSm_W" = 14005.48   $ Sizing
 "ClCap_Sys_T_Restrm_C" = 2928.947   $ Sizing
 "ClCap_Sys_T_StorSm_E" = 3860.814   $ Sizing
 "ClCap_Sys_T_StorSm_N" = 2167.618   $ Sizing
 "ClCap_Sys_T_StorSm_S" = 4235.892   $ Sizing
 "ClCap_Sys_T_StorSm_W" = 3765.748   $ Sizing
 "HtCap_Sys_L_Break_C" = -16494.03   $ Sizing
 "HtCap_Sys_L_CompDC_C" = -5800.379   $ Sizing
 "HtCap_Sys_L_Conf_C" = -12581.65   $ Sizing
 "HtCap_Sys_L_CopyRm_C" = -4009.02   $ Sizing
 "HtCap_Sys_L_Hall_E" = -3614.316   $ Sizing
 "HtCap_Sys_L_Hall_N" = -2150.66   $ Sizing
 "HtCap_Sys_L_Hall_S" = -3931.173   $ Sizing
 "HtCap_Sys_L_Hall_W" = -3621.468   $ Sizing
 "HtCap_Sys_L_LobWait_E" = -9384.347   $ Sizing
 "HtCap_Sys_L_LobWait_N" = -5557.765   $ Sizing
 "HtCap_Sys_L_LobWait_S" = -10111.51   $ Sizing
 "HtCap_Sys_L_LobWait_W" = -9280.376   $ Sizing
 "HtCap_Sys_L_MechElec_C" = -2985.605   $ Sizing
 "HtCap_Sys_L_OfficeOpn_C" = -2444.03   $ Sizing
 "HtCap_Sys_L_OfficeOpn_E" = -17971.39   $ Sizing
 "HtCap_Sys_L_OfficeOpn_N" = -10165.39   $ Sizing
 "HtCap_Sys_L_OfficeOpn_S" = -17730.78   $ Sizing
 "HtCap_Sys_L_OfficeOpn_W" = -17170.28   $ Sizing
 "HtCap_Sys_L_OfficeSm_E" = -14858.16   $ Sizing
 "HtCap_Sys_L_OfficeSm_N" = -7561.02   $ Sizing
 "HtCap_Sys_L_OfficeSm_S" = -14919.96   $ Sizing
 "HtCap_Sys_L_OfficeSm_W" = -14324.77   $ Sizing
 "HtCap_Sys_L_Restrm_C" = -3034.147   $ Sizing
 "HtCap_Sys_L_StorSm_C" = -1302.564   $ Sizing
 "HtCap_Sys_L_StorSm_E" = -3642.622   $ Sizing
 "HtCap_Sys_L_StorSm_N" = -2760.407   $ Sizing
 "HtCap_Sys_L_StorSm_S" = -3846.462   $ Sizing
 "HtCap_Sys_L_StorSm_W" = -3604.01   $ Sizing
 "HtCap_Sys_T_Conf_C" = -12960.97   $ Sizing
 "HtCap_Sys_T_Hall_E" = -4703.184   $ Sizing
 "HtCap_Sys_T_Hall_N" = -2372.38   $ Sizing
 "HtCap_Sys_T_Hall_S" = -5242.688   $ Sizing
 "HtCap_Sys_T_Hall_W" = -4575.746   $ Sizing
 "HtCap_Sys_T_OfficeOpn_C" = -2690.609   $ Sizing
 "HtCap_Sys_T_OfficeOpn_E" = -20692.37   $ Sizing
 "HtCap_Sys_T_OfficeOpn_N" = -11958.34   $ Sizing
 "HtCap_Sys_T_OfficeOpn_S" = -21688.02   $ Sizing
 "HtCap_Sys_T_OfficeOpn_W" = -19402.1   $ Sizing
 "HtCap_Sys_T_OfficeSm_E" = -17119.46   $ Sizing
 "HtCap_Sys_T_OfficeSm_N" = -9156.13   $ Sizing
 "HtCap_Sys_T_OfficeSm_S" = -18497.79   $ Sizing
 "HtCap_Sys_T_OfficeSm_W" = -16439.51   $ Sizing
 "HtCap_Sys_T_Restrm_C" = -3538.264   $ Sizing
 "HtCap_Sys_T_StorSm_E" = -4927.254   $ Sizing
 "HtCap_Sys_T_StorSm_N" = -3157.425   $ Sizing
 "HtCap_Sys_T_StorSm_S" = -5237.719   $ Sizing
 "HtCap_Sys_T_StorSm_W" = -4803.325   $ Sizing
..

##include Templates\OfS_DX_SZ.inp
END ..
COMPUTE ..
STOP ..
