INPUT ..

##fileprefix C:\Users\jglasskatz\MASControl3\
##set1 IsSizing FALSE
##set1 CoolType DX
##set1 HeatType ELECTRIC
##set1 EU_HrRepVar 1
##set1 BldgVint 1975
##set1 BldgLoc CZ01

 ##set1 mBFMult 1   $ IP Tech: RefgChg-NRes-Std

PARAMETER
 "AltFactor" = 1.00753   $ IP Non-Tech
 "BldgEconoFlag" = 1   $ IP Non-Tech
 "Break_EWSF" = 1   $ IP Non-Tech
 "Break_LWSF" = 1.1   $ IP Non-Tech
 "CDD_DBHi10" = 65   $ IP Non-Tech
 "CDD_DBHi7" = 68   $ IP Non-Tech
 "CDD_DBHi8" = 66   $ IP Non-Tech
 "CDD_DBHi9" = 77   $ IP Non-Tech
 "CDD_DBRange10" = 17   $ IP Non-Tech
 "CDD_DBRange7" = 11   $ IP Non-Tech
 "CDD_DBRange8" = 10   $ IP Non-Tech
 "CDD_DBRange9" = 29   $ IP Non-Tech
 "CDD_Day10" = 15   $ IP Non-Tech
 "CDD_Day7" = 16   $ IP Non-Tech
 "CDD_Day8" = 20   $ IP Non-Tech
 "CDD_Day9" = 17   $ IP Non-Tech
 "CDD_HrHi10" = 12   $ IP Non-Tech
 "CDD_HrHi7" = 12   $ IP Non-Tech
 "CDD_HrHi8" = 13   $ IP Non-Tech
 "CDD_HrHi9" = 17   $ IP Non-Tech
 "CDD_HrLo10" = 6   $ IP Non-Tech
 "CDD_HrLo7" = 3   $ IP Non-Tech
 "CDD_HrLo8" = 8   $ IP Non-Tech
 "CDD_HrLo9" = 4   $ IP Non-Tech
 "CDD_WB10" = 57.53039551   $ IP Non-Tech
 "CDD_WB7" = 59.29250717   $ IP Non-Tech
 "CDD_WB8" = 60.75350189   $ IP Non-Tech
 "CDD_WB9" = 61.08643341   $ IP Non-Tech
 "CZ_Category" = Tem   $ IP Non-Tech
 "ChwVintEconoFlag" = 1   $ IP Non-Tech
 "CompRoomData_EWSF" = 5.75   $ IP Non-Tech
 "CompRoomData_LWSF" = 1.2   $ IP Non-Tech
 "Conference_EWSF" = 1.15   $ IP Non-Tech
 "Conference_LWSF" = 1.4   $ IP Non-Tech
 "CoolSetT" = 45   $ IP Non-Tech
 "CoolType" = DX   $ IP Non-Tech
 "CopyRoom_EWSF" = 1.725   $ IP Non-Tech
 "CopyRoom_LWSF" = 1.3   $ IP Non-Tech
 "DesCoolT" = 75   $ IP Non-Tech
 "DesHeatT" = 73   $ IP Non-Tech
 "EconoEnthLimit" = 28   $ IP Non-Tech
 "EconoTempLimit" = 70   $ IP Non-Tech
 "Elevation" = 203   $ IP Non-Tech
 "HDD_CloudAmt1" = 0   $ IP Non-Tech
 "HDD_DBHi1" = 53   $ IP Non-Tech
 "HDD_DBRange1" = 20   $ IP Non-Tech
 "HDD_Day1" = 15   $ IP Non-Tech
 "HDD_HrHi1" = 14   $ IP Non-Tech
 "HDD_HrLo1" = 6   $ IP Non-Tech
 "HDD_WB1" = 42.3   $ IP Non-Tech
 "HDD_WindSpd1" = 12.7   $ IP Non-Tech
 "Hall_EWSF" = 0.23   $ IP Non-Tech
 "Hall_LWSF" = 0.6   $ IP Non-Tech
 "HeatSrc" = ELECTRIC   $ IP Non-Tech
 "HeatSrcTU" = HEAT-PUMP   $ IP Non-Tech
 "HeatType" = Elec   $ IP Non-Tech
 "HeatTypeTU" = HEAT-PUMP   $ IP Non-Tech
 "IndoorFanMode" = CONTINUOUS   $ IP Non-Tech
 "KT_TransferAir" = No   $ IP Non-Tech
 "Latitude" = 40.8   $ IP Non-Tech
 "LobbyWaiting_EWSF" = 0.5375   $ IP Non-Tech
 "LobbyWaiting_LWSF" = 1.3   $ IP Non-Tech
 "Longitude" = 124.2   $ IP Non-Tech
 "LtgMsrApplic" = ALL   $ Msr TechID: NonResLtgRefMsr-CFL
 "LtgSav_CFL" = 0.3   $ Msr TechID: NonResLtgRefMsr-CFL
 "LtgSav_EX" = 0   $ Msr TechID: NonResLtgRefMsr-CFL
 "LtgSav_HB" = 0   $ Msr TechID: NonResLtgRefMsr-CFL
 "LtgSav_LF" = 0   $ Msr TechID: NonResLtgRefMsr-CFL
 "LtgSav_SP" = 0   $ Msr TechID: NonResLtgRefMsr-CFL
 "MZFanMechEff" = 0.58   $ IP Non-Tech
 "MZHasRetFan" = FALSE   $ IP Non-Tech
 "MZ_RFanWPerCfm" = 0.33   $ IP Non-Tech
 "MZ_SFanWPerCfm" = 0.75   $ IP Non-Tech
 "MZ_SupFanStatic" = 2.25   $ IP Non-Tech
 "MaxSupT_MZ" = 100   $ IP Non-Tech
 "MaxSupT_SZ" = 100   $ IP Non-Tech
 "MaxSupT_TU" = 90   $ IP Non-Tech
 "MechElecRoom_EWSF" = 0.23   $ IP Non-Tech
 "MechElecRoom_LWSF" = 0.7   $ IP Non-Tech
 "MinCfmPerSF" = 0.4   $ IP Non-Tech
 "MinSupT" = 55   $ IP Non-Tech
 "OccCoolT" = 76   $ IP Non-Tech
 "OccHeatT" = 72   $ IP Non-Tech
 "OfficeOpen_EWSF" = 1.725   $ IP Non-Tech
 "OfficeOpen_LWSF" = 1.2   $ IP Non-Tech
 "OfficeSmall_EWSF" = 1.725   $ IP Non-Tech
 "OfficeSmall_LWSF" = 1.3   $ IP Non-Tech
 "PkgDxVintEconoFlag" = 0   $ IP Non-Tech
 "Restroom_EWSF" = 0.23   $ IP Non-Tech
 "Restroom_LWSF" = 0.6   $ IP Non-Tech
 "SZFanMechEff" = 0.58   $ IP Non-Tech
 "SZHasRetFan" = FALSE   $ IP Non-Tech
 "SZ_Is_2Spd" = FALSE   $ IP Non-Tech
 "SZ_SFanWPerCfm" = 0.46   $ IP Non-Tech
 "SZ_SupFanStatic" = 0.75   $ IP Non-Tech
 "StorageSmlCond_EWSF" = 0.23   $ IP Non-Tech
 "StorageSmlCond_LWSF" = 0.6   $ IP Non-Tech
 "T24GlzTbl" = CZTbl   $ IP Non-Tech
 "TermUnitFanMechEff" = 1   $ IP Non-Tech
 "TermUnitFanMode" = INTERMITTENT   $ IP Non-Tech
 "TwrSetpt" = 80   $ IP Non-Tech
 "UnocCoolT" = 86   $ IP Non-Tech
 "UnocHeatT" = 62   $ IP Non-Tech
 "WlhpVintEconoFlag" = 0   $ IP Non-Tech
 "EconoCtrl" = OA-TEMP   $ IP Tech: AirEcono-OATemp
 "MaxOAFrac" = 0.85   $ IP Tech: AirEcono-OATemp
 "UseEconoVintApplic" = FALSE   $ IP Tech: AirEcono-OATemp
 "DuctDT" = 1   $ IP Tech: ComDuctInsul-1
 "DuctAirLoss" = 0   $ IP Tech: ComDuctLeak-0
 "DuctLossOAFrac" = 0   $ IP Tech: ComDuctLeak-0
 "ComRoofInsCalc" = FromUo   $ IP Tech: ComRoofIns-WFrm-0.07
 "ComRoofInsR" = -999   $ IP Tech: ComRoofIns-WFrm-0.07
 "ComRoofUo" = 0.07   $ IP Tech: ComRoofIns-WFrm-0.07
 "ComEWInsCalc" = FromUo   $ IP Tech: ComWallIns-WFrm-0.12
 "ComEWInsR" = -999   $ IP Tech: ComWallIns-WFrm-0.12
 "ComEWUo" = 0.12   $ IP Tech: ComWallIns-WFrm-0.12
 "ComN_SHGC" = 0.82   $ IP Tech: NResWin-ComN-1.23-0.82
 "ComN_UFactor" = 1.23   $ IP Tech: NResWin-ComN-1.23-0.82
 "ComN_VisTrans" = 0.9   $ IP Tech: NResWin-ComN-1.23-0.82
 "ComN_WinCode" = G1000   $ IP Tech: NResWin-ComN-1.23-0.82
 "ComN_WinFrmFrac" = 0.17   $ IP Tech: NResWin-ComN-1.23-0.82
 "ComN_WinFrmU" = 1   $ IP Tech: NResWin-ComN-1.23-0.82
 "ComO_SHGC" = 0.82   $ IP Tech: NResWin-ComO-1.23-0.82
 "ComO_UFactor" = 1.23   $ IP Tech: NResWin-ComO-1.23-0.82
 "ComO_VisTrans" = 0.9   $ IP Tech: NResWin-ComO-1.23-0.82
 "ComO_WinCode" = G1000   $ IP Tech: NResWin-ComO-1.23-0.82
 "ComO_WinFrmFrac" = 0.17   $ IP Tech: NResWin-ComO-1.23-0.82
 "ComO_WinFrmU" = 1   $ IP Tech: NResWin-ComO-1.23-0.82
 "BF_fFlow" = PSZ65to135_BF_fFlow   $ IP Tech: PkgAC1SpH-65to135-E10
 "BF_fT" = PSZ65to135_BF_fT   $ IP Tech: PkgAC1SpH-65to135-E10
 "CEIR_fPLR" = PSZ65to135_CEIR_fPLR   $ IP Tech: PkgAC1SpH-65to135-E10
 "CLoss_fPLR" = PSZ65to135_CLoss_fPLR   $ IP Tech: PkgAC1SpH-65to135-E10
 "COP" = -1   $ IP Tech: PkgAC1SpH-65to135-E10
 "COP47" = -1   $ IP Tech: PkgAC1SpH-65to135-E10
 "CfmPerBtuh" = 0.02917   $ IP Tech: PkgAC1SpH-65to135-E10
 "ClCap_fT" = PSZ65to135_ClCap_fT   $ IP Tech: PkgAC1SpH-65to135-E10
 "ClSH_fT" = PSZ65to135_ClSH_fT   $ IP Tech: PkgAC1SpH-65to135-E10
 "CoilBF" = 0.114   $ IP Tech: PkgAC1SpH-65to135-E10
 "CondWPerBtuh" = 0   $ IP Tech: PkgAC1SpH-65to135-E10
 "CoolSensCap" = 0.663   $ IP Tech: PkgAC1SpH-65to135-E10
 "CoolingEIR" = 0.29745   $ IP Tech: PkgAC1SpH-65to135-E10
 "CrnkEIR" = 0.01   $ IP Tech: PkgAC1SpH-65to135-E10
 "CrnkMaxT" = 50   $ IP Tech: PkgAC1SpH-65to135-E10
 "DXType" = Pkg   $ IP Tech: PkgAC1SpH-65to135-E10
 "EER" = 9.67   $ IP Tech: PkgAC1SpH-65to135-E10
 "EIR_fT" = PSZ65to135_EIR_fT   $ IP Tech: PkgAC1SpH-65to135-E10
 "FanEirPlr" = TwoSpeedFan   $ IP Tech: PkgAC1SpH-65to135-E10
 "FanWPerCfm" = 0.412   $ IP Tech: PkgAC1SpH-65to135-E10
 "HIR_fT" = DEFAULT   $ IP Tech: PkgAC1SpH-65to135-E10
 "HtCap_fT" = DEFAULT   $ IP Tech: PkgAC1SpH-65to135-E10
 "HtCoolCapRatio" = -1   $ IP Tech: PkgAC1SpH-65to135-E10
 "HtgEIR" = -1   $ IP Tech: PkgAC1SpH-65to135-E10
 "HtgFuel" = Gas   $ IP Tech: PkgAC1SpH-65to135-E10
 "IEER" = 11.87   $ IP Tech: PkgAC1SpH-65to135-E10
 "LowSpdCapRatio" = 0.5   $ IP Tech: PkgAC1SpH-65to135-E10
 "LowSpdCfmRatio" = 0.66   $ IP Tech: PkgAC1SpH-65to135-E10
 "NominalCap" = 15   $ IP Tech: PkgAC1SpH-65to135-E10
 "NumStages" = 1   $ IP Tech: PkgAC1SpH-65to135-E10
 "RatedEER" = 10   $ IP Tech: PkgAC1SpH-65to135-E10
 "RatedSupMtrClass" = HiEff   $ IP Tech: PkgAC1SpH-65to135-E10
 "SizeRange" = 65to135   $ IP Tech: PkgAC1SpH-65to135-E10
 "SubType" = AC   $ IP Tech: PkgAC1SpH-65to135-E10
 "SupMotEff" = 0.84   $ IP Tech: PkgAC1SpH-65to135-E10
 "Tier" = 0   $ IP Tech: PkgAC1SpH-65to135-E10
 "TotCoolCap" = 184140   $ IP Tech: PkgAC1SpH-65to135-E10
 "BFMult" = 1   $ IP Tech: RefgChg-NRes-Std
 "CoolEirMult" = 1   $ IP Tech: RefgChg-NRes-Std
 "SensCoolCapMult" = 1   $ IP Tech: RefgChg-NRes-Std
 "TotCoolCapMult" = 1   $ IP Tech: RefgChg-NRes-Std
 "AltAdjFactor" = 1.007532   $ Sizing
 "CAssFlo_L_Break_CZn" = 285.0885   $ Sizing
 "CAssFlo_L_CompDC_CZn" = 182.8511   $ Sizing
 "CAssFlo_L_Conf_CZn" = 219.4673   $ Sizing
 "CAssFlo_L_CopyRm_CZn" = 70.55587   $ Sizing
 "CAssFlo_L_Hall_EZn" = 163.6482   $ Sizing
 "CAssFlo_L_Hall_NZn" = 73.99574   $ Sizing
 "CAssFlo_L_Hall_SZn" = 190.8275   $ Sizing
 "CAssFlo_L_Hall_WZn" = 167.5533   $ Sizing
 "CAssFlo_L_LobWait_EZn" = 386.8282   $ Sizing
 "CAssFlo_L_LobWait_NZn" = 156.2826   $ Sizing
 "CAssFlo_L_LobWait_SZn" = 442.788   $ Sizing
 "CAssFlo_L_LobWait_WZn" = 385.7365   $ Sizing
 "CAssFlo_L_MechElec_CZn" = 65.93681   $ Sizing
 "CAssFlo_L_OfficeOpn_CZn" = 71.5397   $ Sizing
 "CAssFlo_L_OfficeOpn_EZn" = 748.7075   $ Sizing
 "CAssFlo_L_OfficeOpn_NZn" = 270.4813   $ Sizing
 "CAssFlo_L_OfficeOpn_SZn" = 786.4518   $ Sizing
 "CAssFlo_L_OfficeOpn_WZn" = 707.7202   $ Sizing
 "CAssFlo_L_OfficeSm_EZn" = 648.4591   $ Sizing
 "CAssFlo_L_OfficeSm_NZn" = 209.2298   $ Sizing
 "CAssFlo_L_OfficeSm_SZn" = 705.0581   $ Sizing
 "CAssFlo_L_OfficeSm_WZn" = 635.7931   $ Sizing
 "CAssFlo_L_Restrm_CZn" = 86.07105   $ Sizing
 "CAssFlo_L_StorSm_CZn" = 32.19073   $ Sizing
 "CAssFlo_L_StorSm_EZn" = 158.6139   $ Sizing
 "CAssFlo_L_StorSm_NZn" = 81.16859   $ Sizing
 "CAssFlo_L_StorSm_SZn" = 179.3372   $ Sizing
 "CAssFlo_L_StorSm_WZn" = 154.1461   $ Sizing
 "CAssFlo_T_Conf_CZn" = 219.5768   $ Sizing
 "CAssFlo_T_Hall_EZn" = 184.3809   $ Sizing
 "CAssFlo_T_Hall_NZn" = 71.75829   $ Sizing
 "CAssFlo_T_Hall_SZn" = 221.1788   $ Sizing
 "CAssFlo_T_Hall_WZn" = 183.6233   $ Sizing
 "CAssFlo_T_OfficeOpn_CZn" = 63.28431   $ Sizing
 "CAssFlo_T_OfficeOpn_EZn" = 754.6556   $ Sizing
 "CAssFlo_T_OfficeOpn_NZn" = 294.3562   $ Sizing
 "CAssFlo_T_OfficeOpn_SZn" = 846.1529   $ Sizing
 "CAssFlo_T_OfficeOpn_WZn" = 717.2475   $ Sizing
 "CAssFlo_T_OfficeSm_EZn" = 664.8527   $ Sizing
 "CAssFlo_T_OfficeSm_NZn" = 231.3021   $ Sizing
 "CAssFlo_T_OfficeSm_SZn" = 764.1278   $ Sizing
 "CAssFlo_T_OfficeSm_WZn" = 652.2074   $ Sizing
 "CAssFlo_T_Restrm_CZn" = 86.07105   $ Sizing
 "CAssFlo_T_StorSm_EZn" = 177.3912   $ Sizing
 "CAssFlo_T_StorSm_NZn" = 80.65252   $ Sizing
 "CAssFlo_T_StorSm_SZn" = 210.3707   $ Sizing
 "CAssFlo_T_StorSm_WZn" = 178.3201   $ Sizing
 "CHRtFlo_Sys_L_Break_C" = 285.0885   $ Sizing
 "CHRtFlo_Sys_L_CompDC_C" = 182.8511   $ Sizing
 "CHRtFlo_Sys_L_Conf_C" = 219.4673   $ Sizing
 "CHRtFlo_Sys_L_CopyRm_C" = 70.55587   $ Sizing
 "CHRtFlo_Sys_L_Hall_E" = 163.6482   $ Sizing
 "CHRtFlo_Sys_L_Hall_N" = 73.99574   $ Sizing
 "CHRtFlo_Sys_L_Hall_S" = 190.8275   $ Sizing
 "CHRtFlo_Sys_L_Hall_W" = 167.5533   $ Sizing
 "CHRtFlo_Sys_L_LobWait_E" = 386.8282   $ Sizing
 "CHRtFlo_Sys_L_LobWait_N" = 156.2826   $ Sizing
 "CHRtFlo_Sys_L_LobWait_S" = 442.788   $ Sizing
 "CHRtFlo_Sys_L_LobWait_W" = 385.7365   $ Sizing
 "CHRtFlo_Sys_L_MechElec_C" = 65.93681   $ Sizing
 "CHRtFlo_Sys_L_OfficeOpn_C" = 71.5397   $ Sizing
 "CHRtFlo_Sys_L_OfficeOpn_E" = 748.7075   $ Sizing
 "CHRtFlo_Sys_L_OfficeOpn_N" = 270.4813   $ Sizing
 "CHRtFlo_Sys_L_OfficeOpn_S" = 786.4518   $ Sizing
 "CHRtFlo_Sys_L_OfficeOpn_W" = 707.7202   $ Sizing
 "CHRtFlo_Sys_L_OfficeSm_E" = 648.4591   $ Sizing
 "CHRtFlo_Sys_L_OfficeSm_N" = 209.2298   $ Sizing
 "CHRtFlo_Sys_L_OfficeSm_S" = 705.0581   $ Sizing
 "CHRtFlo_Sys_L_OfficeSm_W" = 635.7931   $ Sizing
 "CHRtFlo_Sys_L_Restrm_C" = 86.07105   $ Sizing
 "CHRtFlo_Sys_L_StorSm_C" = 32.19073   $ Sizing
 "CHRtFlo_Sys_L_StorSm_E" = 158.6139   $ Sizing
 "CHRtFlo_Sys_L_StorSm_N" = 81.16859   $ Sizing
 "CHRtFlo_Sys_L_StorSm_S" = 179.3372   $ Sizing
 "CHRtFlo_Sys_L_StorSm_W" = 154.1461   $ Sizing
 "CHRtFlo_Sys_T_Conf_C" = 219.5768   $ Sizing
 "CHRtFlo_Sys_T_Hall_E" = 184.3809   $ Sizing
 "CHRtFlo_Sys_T_Hall_N" = 71.75829   $ Sizing
 "CHRtFlo_Sys_T_Hall_S" = 221.1788   $ Sizing
 "CHRtFlo_Sys_T_Hall_W" = 183.6233   $ Sizing
 "CHRtFlo_Sys_T_OfficeOpn_C" = 63.28431   $ Sizing
 "CHRtFlo_Sys_T_OfficeOpn_E" = 754.6556   $ Sizing
 "CHRtFlo_Sys_T_OfficeOpn_N" = 294.3562   $ Sizing
 "CHRtFlo_Sys_T_OfficeOpn_S" = 846.1529   $ Sizing
 "CHRtFlo_Sys_T_OfficeOpn_W" = 717.2475   $ Sizing
 "CHRtFlo_Sys_T_OfficeSm_E" = 664.8527   $ Sizing
 "CHRtFlo_Sys_T_OfficeSm_N" = 231.3021   $ Sizing
 "CHRtFlo_Sys_T_OfficeSm_S" = 764.1278   $ Sizing
 "CHRtFlo_Sys_T_OfficeSm_W" = 652.2074   $ Sizing
 "CHRtFlo_Sys_T_Restrm_C" = 86.07105   $ Sizing
 "CHRtFlo_Sys_T_StorSm_E" = 177.3912   $ Sizing
 "CHRtFlo_Sys_T_StorSm_N" = 80.65252   $ Sizing
 "CHRtFlo_Sys_T_StorSm_S" = 210.3707   $ Sizing
 "CHRtFlo_Sys_T_StorSm_W" = 178.3201   $ Sizing
 "CRtdFlo_Sys_L_Break_C" = 285.0885   $ Sizing
 "CRtdFlo_Sys_L_CompDC_C" = 182.8511   $ Sizing
 "CRtdFlo_Sys_L_Conf_C" = 219.4673   $ Sizing
 "CRtdFlo_Sys_L_CopyRm_C" = 70.55587   $ Sizing
 "CRtdFlo_Sys_L_Hall_E" = 163.6482   $ Sizing
 "CRtdFlo_Sys_L_Hall_N" = 73.99574   $ Sizing
 "CRtdFlo_Sys_L_Hall_S" = 190.8275   $ Sizing
 "CRtdFlo_Sys_L_Hall_W" = 167.5533   $ Sizing
 "CRtdFlo_Sys_L_LobWait_E" = 386.8282   $ Sizing
 "CRtdFlo_Sys_L_LobWait_N" = 156.2826   $ Sizing
 "CRtdFlo_Sys_L_LobWait_S" = 442.788   $ Sizing
 "CRtdFlo_Sys_L_LobWait_W" = 385.7365   $ Sizing
 "CRtdFlo_Sys_L_MechElec_C" = 65.93681   $ Sizing
 "CRtdFlo_Sys_L_OfficeOpn_C" = 71.5397   $ Sizing
 "CRtdFlo_Sys_L_OfficeOpn_E" = 748.7075   $ Sizing
 "CRtdFlo_Sys_L_OfficeOpn_N" = 270.4813   $ Sizing
 "CRtdFlo_Sys_L_OfficeOpn_S" = 786.4518   $ Sizing
 "CRtdFlo_Sys_L_OfficeOpn_W" = 707.7202   $ Sizing
 "CRtdFlo_Sys_L_OfficeSm_E" = 648.4591   $ Sizing
 "CRtdFlo_Sys_L_OfficeSm_N" = 209.2298   $ Sizing
 "CRtdFlo_Sys_L_OfficeSm_S" = 705.0581   $ Sizing
 "CRtdFlo_Sys_L_OfficeSm_W" = 635.7931   $ Sizing
 "CRtdFlo_Sys_L_Restrm_C" = 86.07105   $ Sizing
 "CRtdFlo_Sys_L_StorSm_C" = 32.19073   $ Sizing
 "CRtdFlo_Sys_L_StorSm_E" = 158.6139   $ Sizing
 "CRtdFlo_Sys_L_StorSm_N" = 81.16859   $ Sizing
 "CRtdFlo_Sys_L_StorSm_S" = 179.3372   $ Sizing
 "CRtdFlo_Sys_L_StorSm_W" = 154.1461   $ Sizing
 "CRtdFlo_Sys_T_Conf_C" = 219.5768   $ Sizing
 "CRtdFlo_Sys_T_Hall_E" = 184.3809   $ Sizing
 "CRtdFlo_Sys_T_Hall_N" = 71.75829   $ Sizing
 "CRtdFlo_Sys_T_Hall_S" = 221.1788   $ Sizing
 "CRtdFlo_Sys_T_Hall_W" = 183.6233   $ Sizing
 "CRtdFlo_Sys_T_OfficeOpn_C" = 63.28431   $ Sizing
 "CRtdFlo_Sys_T_OfficeOpn_E" = 754.6556   $ Sizing
 "CRtdFlo_Sys_T_OfficeOpn_N" = 294.3562   $ Sizing
 "CRtdFlo_Sys_T_OfficeOpn_S" = 846.1529   $ Sizing
 "CRtdFlo_Sys_T_OfficeOpn_W" = 717.2475   $ Sizing
 "CRtdFlo_Sys_T_OfficeSm_E" = 664.8527   $ Sizing
 "CRtdFlo_Sys_T_OfficeSm_N" = 231.3021   $ Sizing
 "CRtdFlo_Sys_T_OfficeSm_S" = 764.1278   $ Sizing
 "CRtdFlo_Sys_T_OfficeSm_W" = 652.2074   $ Sizing
 "CRtdFlo_Sys_T_Restrm_C" = 86.07105   $ Sizing
 "CRtdFlo_Sys_T_StorSm_E" = 177.3912   $ Sizing
 "CRtdFlo_Sys_T_StorSm_N" = 80.65252   $ Sizing
 "CRtdFlo_Sys_T_StorSm_S" = 210.3707   $ Sizing
 "CRtdFlo_Sys_T_StorSm_W" = 178.3201   $ Sizing
 "CSupFlo_Sys_L_Break_C" = 285.0885   $ Sizing
 "CSupFlo_Sys_L_CompDC_C" = 182.8511   $ Sizing
 "CSupFlo_Sys_L_Conf_C" = 219.4673   $ Sizing
 "CSupFlo_Sys_L_CopyRm_C" = 70.55587   $ Sizing
 "CSupFlo_Sys_L_Hall_E" = 163.6482   $ Sizing
 "CSupFlo_Sys_L_Hall_N" = 73.99574   $ Sizing
 "CSupFlo_Sys_L_Hall_S" = 190.8275   $ Sizing
 "CSupFlo_Sys_L_Hall_W" = 167.5533   $ Sizing
 "CSupFlo_Sys_L_LobWait_E" = 386.8282   $ Sizing
 "CSupFlo_Sys_L_LobWait_N" = 156.2826   $ Sizing
 "CSupFlo_Sys_L_LobWait_S" = 442.788   $ Sizing
 "CSupFlo_Sys_L_LobWait_W" = 385.7365   $ Sizing
 "CSupFlo_Sys_L_MechElec_C" = 65.93681   $ Sizing
 "CSupFlo_Sys_L_OfficeOpn_C" = 71.5397   $ Sizing
 "CSupFlo_Sys_L_OfficeOpn_E" = 748.7075   $ Sizing
 "CSupFlo_Sys_L_OfficeOpn_N" = 270.4813   $ Sizing
 "CSupFlo_Sys_L_OfficeOpn_S" = 786.4518   $ Sizing
 "CSupFlo_Sys_L_OfficeOpn_W" = 707.7202   $ Sizing
 "CSupFlo_Sys_L_OfficeSm_E" = 648.4591   $ Sizing
 "CSupFlo_Sys_L_OfficeSm_N" = 209.2298   $ Sizing
 "CSupFlo_Sys_L_OfficeSm_S" = 705.0581   $ Sizing
 "CSupFlo_Sys_L_OfficeSm_W" = 635.7931   $ Sizing
 "CSupFlo_Sys_L_Restrm_C" = 86.07105   $ Sizing
 "CSupFlo_Sys_L_StorSm_C" = 32.19073   $ Sizing
 "CSupFlo_Sys_L_StorSm_E" = 158.6139   $ Sizing
 "CSupFlo_Sys_L_StorSm_N" = 81.16859   $ Sizing
 "CSupFlo_Sys_L_StorSm_S" = 179.3372   $ Sizing
 "CSupFlo_Sys_L_StorSm_W" = 154.1461   $ Sizing
 "CSupFlo_Sys_T_Conf_C" = 219.5768   $ Sizing
 "CSupFlo_Sys_T_Hall_E" = 184.3809   $ Sizing
 "CSupFlo_Sys_T_Hall_N" = 71.75829   $ Sizing
 "CSupFlo_Sys_T_Hall_S" = 221.1788   $ Sizing
 "CSupFlo_Sys_T_Hall_W" = 183.6233   $ Sizing
 "CSupFlo_Sys_T_OfficeOpn_C" = 63.28431   $ Sizing
 "CSupFlo_Sys_T_OfficeOpn_E" = 754.6556   $ Sizing
 "CSupFlo_Sys_T_OfficeOpn_N" = 294.3562   $ Sizing
 "CSupFlo_Sys_T_OfficeOpn_S" = 846.1529   $ Sizing
 "CSupFlo_Sys_T_OfficeOpn_W" = 717.2475   $ Sizing
 "CSupFlo_Sys_T_OfficeSm_E" = 664.8527   $ Sizing
 "CSupFlo_Sys_T_OfficeSm_N" = 231.3021   $ Sizing
 "CSupFlo_Sys_T_OfficeSm_S" = 764.1278   $ Sizing
 "CSupFlo_Sys_T_OfficeSm_W" = 652.2074   $ Sizing
 "CSupFlo_Sys_T_Restrm_C" = 86.07105   $ Sizing
 "CSupFlo_Sys_T_StorSm_E" = 177.3912   $ Sizing
 "CSupFlo_Sys_T_StorSm_N" = 80.65252   $ Sizing
 "CSupFlo_Sys_T_StorSm_S" = 210.3707   $ Sizing
 "CSupFlo_Sys_T_StorSm_W" = 178.3201   $ Sizing
 "ClCap_Sys_L_Break_C" = 9701.393   $ Sizing
 "ClCap_Sys_L_CompDC_C" = 6222.312   $ Sizing
 "ClCap_Sys_L_Conf_C" = 9505.162   $ Sizing
 "ClCap_Sys_L_CopyRm_C" = 2400.974   $ Sizing
 "ClCap_Sys_L_Hall_E" = 5568.849   $ Sizing
 "ClCap_Sys_L_Hall_N" = 2518.031   $ Sizing
 "ClCap_Sys_L_Hall_S" = 6493.746   $ Sizing
 "ClCap_Sys_L_Hall_W" = 5701.74   $ Sizing
 "ClCap_Sys_L_LobWait_E" = 13163.53   $ Sizing
 "ClCap_Sys_L_LobWait_N" = 5318.204   $ Sizing
 "ClCap_Sys_L_LobWait_S" = 15067.81   $ Sizing
 "ClCap_Sys_L_LobWait_W" = 13126.38   $ Sizing
 "ClCap_Sys_L_MechElec_C" = 2243.79   $ Sizing
 "ClCap_Sys_L_OfficeOpn_C" = 2434.453   $ Sizing
 "ClCap_Sys_L_OfficeOpn_E" = 25478.07   $ Sizing
 "ClCap_Sys_L_OfficeOpn_N" = 9204.317   $ Sizing
 "ClCap_Sys_L_OfficeOpn_S" = 26762.49   $ Sizing
 "ClCap_Sys_L_OfficeOpn_W" = 24083.29   $ Sizing
 "ClCap_Sys_L_OfficeSm_E" = 22066.68   $ Sizing
 "ClCap_Sys_L_OfficeSm_N" = 7119.965   $ Sizing
 "ClCap_Sys_L_OfficeSm_S" = 23992.71   $ Sizing
 "ClCap_Sys_L_OfficeSm_W" = 21635.66   $ Sizing
 "ClCap_Sys_L_Restrm_C" = 2928.947   $ Sizing
 "ClCap_Sys_L_StorSm_C" = 1095.431   $ Sizing
 "ClCap_Sys_L_StorSm_E" = 5397.535   $ Sizing
 "ClCap_Sys_L_StorSm_N" = 2762.119   $ Sizing
 "ClCap_Sys_L_StorSm_S" = 6102.736   $ Sizing
 "ClCap_Sys_L_StorSm_W" = 5245.501   $ Sizing
 "ClCap_Sys_T_Conf_C" = 9509.902   $ Sizing
 "ClCap_Sys_T_Hall_E" = 6274.373   $ Sizing
 "ClCap_Sys_T_Hall_N" = 2441.892   $ Sizing
 "ClCap_Sys_T_Hall_S" = 7526.583   $ Sizing
 "ClCap_Sys_T_Hall_W" = 6248.592   $ Sizing
 "ClCap_Sys_T_OfficeOpn_C" = 2153.527   $ Sizing
 "ClCap_Sys_T_OfficeOpn_E" = 25680.48   $ Sizing
 "ClCap_Sys_T_OfficeOpn_N" = 10016.76   $ Sizing
 "ClCap_Sys_T_OfficeOpn_S" = 28794.08   $ Sizing
 "ClCap_Sys_T_OfficeOpn_W" = 24407.5   $ Sizing
 "ClCap_Sys_T_OfficeSm_E" = 22624.54   $ Sizing
 "ClCap_Sys_T_OfficeSm_N" = 7871.073   $ Sizing
 "ClCap_Sys_T_OfficeSm_S" = 26002.81   $ Sizing
 "ClCap_Sys_T_OfficeSm_W" = 22194.23   $ Sizing
 "ClCap_Sys_T_Restrm_C" = 2928.947   $ Sizing
 "ClCap_Sys_T_StorSm_E" = 6036.517   $ Sizing
 "ClCap_Sys_T_StorSm_N" = 2744.557   $ Sizing
 "ClCap_Sys_T_StorSm_S" = 7158.79   $ Sizing
 "ClCap_Sys_T_StorSm_W" = 6068.127   $ Sizing
 "HtCap_L_Break_CZn" = 0   $ Sizing
 "HtCap_L_CompDC_CZn" = 0   $ Sizing
 "HtCap_L_Conf_CZn" = 0   $ Sizing
 "HtCap_L_CopyRm_CZn" = 0   $ Sizing
 "HtCap_L_Hall_EZn" = 0   $ Sizing
 "HtCap_L_Hall_NZn" = 0   $ Sizing
 "HtCap_L_Hall_SZn" = 0   $ Sizing
 "HtCap_L_Hall_WZn" = 0   $ Sizing
 "HtCap_L_LobWait_EZn" = 0   $ Sizing
 "HtCap_L_LobWait_NZn" = 0   $ Sizing
 "HtCap_L_LobWait_SZn" = 0   $ Sizing
 "HtCap_L_LobWait_WZn" = 0   $ Sizing
 "HtCap_L_MechElec_CZn" = 0   $ Sizing
 "HtCap_L_OfficeOpn_CZn" = 0   $ Sizing
 "HtCap_L_OfficeOpn_EZn" = 0   $ Sizing
 "HtCap_L_OfficeOpn_NZn" = 0   $ Sizing
 "HtCap_L_OfficeOpn_SZn" = 0   $ Sizing
 "HtCap_L_OfficeOpn_WZn" = 0   $ Sizing
 "HtCap_L_OfficeSm_EZn" = 0   $ Sizing
 "HtCap_L_OfficeSm_NZn" = 0   $ Sizing
 "HtCap_L_OfficeSm_SZn" = 0   $ Sizing
 "HtCap_L_OfficeSm_WZn" = 0   $ Sizing
 "HtCap_L_Restrm_CZn" = 0   $ Sizing
 "HtCap_L_StorSm_CZn" = 0   $ Sizing
 "HtCap_L_StorSm_EZn" = 0   $ Sizing
 "HtCap_L_StorSm_NZn" = 0   $ Sizing
 "HtCap_L_StorSm_SZn" = 0   $ Sizing
 "HtCap_L_StorSm_WZn" = 0   $ Sizing
 "HtCap_Sys_L_Break_C" = -17049.66   $ Sizing
 "HtCap_Sys_L_CompDC_C" = -9159.983   $ Sizing
 "HtCap_Sys_L_Conf_C" = -13269.18   $ Sizing
 "HtCap_Sys_L_CopyRm_C" = -4457.192   $ Sizing
 "HtCap_Sys_L_Hall_E" = -5905.286   $ Sizing
 "HtCap_Sys_L_Hall_N" = -2848.557   $ Sizing
 "HtCap_Sys_L_Hall_S" = -6547.783   $ Sizing
 "HtCap_Sys_L_Hall_W" = -5879.24   $ Sizing
 "HtCap_Sys_L_LobWait_E" = -14269.52   $ Sizing
 "HtCap_Sys_L_LobWait_N" = -7043.307   $ Sizing
 "HtCap_Sys_L_LobWait_S" = -15974.15   $ Sizing
 "HtCap_Sys_L_LobWait_W" = -14301.12   $ Sizing
 "HtCap_Sys_L_MechElec_C" = -3077.333   $ Sizing
 "HtCap_Sys_L_OfficeOpn_C" = -2861.746   $ Sizing
 "HtCap_Sys_L_OfficeOpn_E" = -26490.16   $ Sizing
 "HtCap_Sys_L_OfficeOpn_N" = -11815.59   $ Sizing
 "HtCap_Sys_L_OfficeOpn_S" = -26981.27   $ Sizing
 "HtCap_Sys_L_OfficeOpn_W" = -25359.9   $ Sizing
 "HtCap_Sys_L_OfficeSm_E" = -22686.32   $ Sizing
 "HtCap_Sys_L_OfficeSm_N" = -8911.91   $ Sizing
 "HtCap_Sys_L_OfficeSm_S" = -23616.62   $ Sizing
 "HtCap_Sys_L_OfficeSm_W" = -22150.95   $ Sizing
 "HtCap_Sys_L_Restrm_C" = -3155.932   $ Sizing
 "HtCap_Sys_L_StorSm_C" = -1398.509   $ Sizing
 "HtCap_Sys_L_StorSm_E" = -5854.819   $ Sizing
 "HtCap_Sys_L_StorSm_N" = -3413.965   $ Sizing
 "HtCap_Sys_L_StorSm_S" = -6346.584   $ Sizing
 "HtCap_Sys_L_StorSm_W" = -5718.011   $ Sizing
 "HtCap_Sys_T_Conf_C" = -13504.83   $ Sizing
 "HtCap_Sys_T_Hall_E" = -7104.233   $ Sizing
 "HtCap_Sys_T_Hall_N" = -3168.8   $ Sizing
 "HtCap_Sys_T_Hall_S" = -8282.638   $ Sizing
 "HtCap_Sys_T_Hall_W" = -7081.058   $ Sizing
 "HtCap_Sys_T_OfficeOpn_C" = -2838.48   $ Sizing
 "HtCap_Sys_T_OfficeOpn_E" = -29734   $ Sizing
 "HtCap_Sys_T_OfficeOpn_N" = -13657.75   $ Sizing
 "HtCap_Sys_T_OfficeOpn_S" = -31931.33   $ Sizing
 "HtCap_Sys_T_OfficeOpn_W" = -28480.34   $ Sizing
 "HtCap_Sys_T_OfficeSm_E" = -25542.33   $ Sizing
 "HtCap_Sys_T_OfficeSm_N" = -10567.38   $ Sizing
 "HtCap_Sys_T_OfficeSm_S" = -28096.84   $ Sizing
 "HtCap_Sys_T_OfficeSm_W" = -25124.51   $ Sizing
 "HtCap_Sys_T_Restrm_C" = -3585.346   $ Sizing
 "HtCap_Sys_T_StorSm_E" = -7367.609   $ Sizing
 "HtCap_Sys_T_StorSm_N" = -3926.255   $ Sizing
 "HtCap_Sys_T_StorSm_S" = -7866.163   $ Sizing
 "HtCap_Sys_T_StorSm_W" = -7384.893   $ Sizing
 "HtCap_T_Conf_CZn" = 0   $ Sizing
 "HtCap_T_Hall_EZn" = 0   $ Sizing
 "HtCap_T_Hall_NZn" = 0   $ Sizing
 "HtCap_T_Hall_SZn" = 0   $ Sizing
 "HtCap_T_Hall_WZn" = 0   $ Sizing
 "HtCap_T_OfficeOpn_CZn" = 0   $ Sizing
 "HtCap_T_OfficeOpn_EZn" = 0   $ Sizing
 "HtCap_T_OfficeOpn_NZn" = 0   $ Sizing
 "HtCap_T_OfficeOpn_SZn" = 0   $ Sizing
 "HtCap_T_OfficeOpn_WZn" = 0   $ Sizing
 "HtCap_T_OfficeSm_EZn" = 0   $ Sizing
 "HtCap_T_OfficeSm_NZn" = 0   $ Sizing
 "HtCap_T_OfficeSm_SZn" = 0   $ Sizing
 "HtCap_T_OfficeSm_WZn" = 0   $ Sizing
 "HtCap_T_Restrm_CZn" = 0   $ Sizing
 "HtCap_T_StorSm_EZn" = 0   $ Sizing
 "HtCap_T_StorSm_NZn" = 0   $ Sizing
 "HtCap_T_StorSm_SZn" = 0   $ Sizing
 "HtCap_T_StorSm_WZn" = 0   $ Sizing
..

##include Templates\OfS_DX_SZ.inp
END ..
COMPUTE ..
STOP ..
