
Start DOESIM : Storage capacity =  75000000
Starting LOADS   : SAVE-FILES is On , weather is CZ01ARCATA-AP       
Finished LOADS    BDL  1 : Memory (wds) =    279143, Time (sec) =    2.02
Starting REPORT  
Finished REPORT   BDL  1 : Memory (wds) =    548622, Time (sec) =    0.59
Starting HVAC    : SAVE-FILES is On , weather is CZ01ARCATA-AP       
*** ERRORS or WARNINGS from HVAC     program. Examine output file for details.
Finished HVAC     BDL  1 : Memory (wds) =    483259, Time (sec) =    6.20
Starting REPORT  
Finished REPORT   BDL  1 : Memory (wds) =    849775, Time (sec) =    0.59
Starting HOURLY-R
Finished HOURLY-R BDL  1 : Memory (wds) =   1086515, Time (sec) =    0.14
Starting ECONOMIC
Finished ECONOMIC BDL  1 : Memory (wds) =      1034, Time (sec) =    0.05
End   DOESIM : Total elapsed time of      9.6 seconds
RUN COMPLETE
