INPUT ..

##fileprefix C:\Users\jglasskatz\MASControl3\
##set1 IsSizing FALSE
##set1 CoolType ACH
##set1 HeatType ELECTRIC
##set1 EU_HrRepVar 1
##set1 BldgVint 1985
##set1 BldgLoc CZ01

 ##set1 mChlrCap_fT DEFAULT   $ IP Tech: ChlrScrA-lt150-9.2EER
 ##set1 mChlrEIR_fPLR DEFAULT   $ IP Tech: ChlrScrA-lt150-9.2EER
 ##set1 mChlrEIR_fT DEFAULT   $ IP Tech: ChlrScrA-lt150-9.2EER
 ##set1 mChlrType Screw   $ IP Tech: ChlrScrA-lt150-9.2EER
 ##set1 mCondType Air   $ IP Tech: ChlrScrA-lt150-9.2EER
 ##set1 mSetupLdChlr FALSE   $ IP Tech: ChlrScrA-lt150-9.2EER
 ##set1 mCHW_FlowCtrl Const   $ IP Tech: ChwFlowCtrlCst

PARAMETER
 "AltFactor" = 1.00753   $ IP Non-Tech
 "BldgEconoFlag" = 1   $ IP Non-Tech
 "BlrPrimLp" = BlrPrimLoop   $ IP Non-Tech
 "Break_EWSF" = 1   $ IP Non-Tech
 "Break_LWSF" = 1.1   $ IP Non-Tech
 "CDD_DBHi10" = 65   $ IP Non-Tech
 "CDD_DBHi7" = 68   $ IP Non-Tech
 "CDD_DBHi8" = 66   $ IP Non-Tech
 "CDD_DBHi9" = 77   $ IP Non-Tech
 "CDD_DBRange10" = 17   $ IP Non-Tech
 "CDD_DBRange7" = 11   $ IP Non-Tech
 "CDD_DBRange8" = 10   $ IP Non-Tech
 "CDD_DBRange9" = 29   $ IP Non-Tech
 "CDD_Day10" = 15   $ IP Non-Tech
 "CDD_Day7" = 16   $ IP Non-Tech
 "CDD_Day8" = 20   $ IP Non-Tech
 "CDD_Day9" = 17   $ IP Non-Tech
 "CDD_HrHi10" = 12   $ IP Non-Tech
 "CDD_HrHi7" = 12   $ IP Non-Tech
 "CDD_HrHi8" = 13   $ IP Non-Tech
 "CDD_HrHi9" = 17   $ IP Non-Tech
 "CDD_HrLo10" = 6   $ IP Non-Tech
 "CDD_HrLo7" = 3   $ IP Non-Tech
 "CDD_HrLo8" = 8   $ IP Non-Tech
 "CDD_HrLo9" = 4   $ IP Non-Tech
 "CDD_WB10" = 57.53039551   $ IP Non-Tech
 "CDD_WB7" = 59.29250717   $ IP Non-Tech
 "CDD_WB8" = 60.75350189   $ IP Non-Tech
 "CDD_WB9" = 61.08643341   $ IP Non-Tech
 "CZ_Category" = Tem   $ IP Non-Tech
 "ChwDesignDT" = 12   $ IP Non-Tech
 "ChwPipeHead" = 62   $ IP Non-Tech
 "ChwRetDT" = 0.038   $ IP Non-Tech
 "ChwSupDT" = 0.063   $ IP Non-Tech
 "ChwT" = 44   $ IP Non-Tech
 "ChwVintEconoFlag" = 1   $ IP Non-Tech
 "CompRoomData_EWSF" = 5.5   $ IP Non-Tech
 "CompRoomData_LWSF" = 1.2   $ IP Non-Tech
 "Conference_EWSF" = 1.1   $ IP Non-Tech
 "Conference_LWSF" = 1.4   $ IP Non-Tech
 "CoolSetT" = 55   $ IP Non-Tech
 "CoolType" = ACH   $ IP Non-Tech
 "CopyRoom_EWSF" = 1.65   $ IP Non-Tech
 "CopyRoom_LWSF" = 1.3   $ IP Non-Tech
 "DesCoolT" = 75   $ IP Non-Tech
 "DesHeatT" = 73   $ IP Non-Tech
 "EconoEnthLimit" = 28   $ IP Non-Tech
 "EconoTempLimit" = 70   $ IP Non-Tech
 "Elevation" = 203   $ IP Non-Tech
 "HDD_CloudAmt1" = 0   $ IP Non-Tech
 "HDD_DBHi1" = 53   $ IP Non-Tech
 "HDD_DBRange1" = 20   $ IP Non-Tech
 "HDD_Day1" = 15   $ IP Non-Tech
 "HDD_HrHi1" = 14   $ IP Non-Tech
 "HDD_HrLo1" = 6   $ IP Non-Tech
 "HDD_WB1" = 42.3   $ IP Non-Tech
 "HDD_WindSpd1" = 12.7   $ IP Non-Tech
 "Hall_EWSF" = 0.22   $ IP Non-Tech
 "Hall_LWSF" = 0.6   $ IP Non-Tech
 "HeatSrc" = ELECTRIC   $ IP Non-Tech
 "HeatSrcTU" = ELECTRIC   $ IP Non-Tech
 "HeatType" = Elec   $ IP Non-Tech
 "HeatTypeTU" = ELECTRIC   $ IP Non-Tech
 "HwDesignDT" = 30   $ IP Non-Tech
 "HwPipeHead" = 40   $ IP Non-Tech
 "IndoorFanMode" = CONTINUOUS   $ IP Non-Tech
 "KT_TransferAir" = No   $ IP Non-Tech
 "Latitude" = 40.8   $ IP Non-Tech
 "LobbyWaiting_EWSF" = 0.525   $ IP Non-Tech
 "LobbyWaiting_LWSF" = 1.3   $ IP Non-Tech
 "Longitude" = 124.2   $ IP Non-Tech
 "LtgMsrApplic" = ALL   $ Msr TechID: NonResLtgRefMsr-HB
 "LtgSav_CFL" = 0   $ Msr TechID: NonResLtgRefMsr-HB
 "LtgSav_EX" = 0   $ Msr TechID: NonResLtgRefMsr-HB
 "LtgSav_HB" = 0.3   $ Msr TechID: NonResLtgRefMsr-HB
 "LtgSav_LF" = 0   $ Msr TechID: NonResLtgRefMsr-HB
 "LtgSav_SP" = 0   $ Msr TechID: NonResLtgRefMsr-HB
 "MZFanMechEff" = 0.68   $ IP Non-Tech
 "MZHasRetFan" = TRUE   $ IP Non-Tech
 "MZ_RFanWPerCfm" = 0.33   $ IP Non-Tech
 "MZ_SFanWPerCfm" = 0.75   $ IP Non-Tech
 "MaxSupT_MZ" = 95   $ IP Non-Tech
 "MaxSupT_SZ" = 105   $ IP Non-Tech
 "MaxSupT_TU" = 105   $ IP Non-Tech
 "MechElecRoom_EWSF" = 0.22   $ IP Non-Tech
 "MechElecRoom_LWSF" = 0.7   $ IP Non-Tech
 "MinCfmPerSF" = 0.4   $ IP Non-Tech
 "MinSupT" = 55   $ IP Non-Tech
 "OccCoolT" = 76   $ IP Non-Tech
 "OccHeatT" = 72   $ IP Non-Tech
 "OfficeOpen_EWSF" = 1.65   $ IP Non-Tech
 "OfficeOpen_LWSF" = 1.2   $ IP Non-Tech
 "OfficeSmall_EWSF" = 1.65   $ IP Non-Tech
 "OfficeSmall_LWSF" = 1.3   $ IP Non-Tech
 "PkgDxVintEconoFlag" = 0   $ IP Non-Tech
 "ReheatDeltaT" = 39   $ IP Non-Tech
 "Restroom_EWSF" = 0.22   $ IP Non-Tech
 "Restroom_LWSF" = 0.6   $ IP Non-Tech
 "SZFanMechEff" = 0.54   $ IP Non-Tech
 "SZHasRetFan" = TRUE   $ IP Non-Tech
 "SZ_Is_2Spd" = FALSE   $ IP Non-Tech
 "SZ_SFanWPerCfm" = 0.46   $ IP Non-Tech
 "StorageSmlCond_EWSF" = 0.22   $ IP Non-Tech
 "StorageSmlCond_LWSF" = 0.6   $ IP Non-Tech
 "T24GlzTbl" = CZTbl   $ IP Non-Tech
 "TermUnitFanMechEff" = 1   $ IP Non-Tech
 "TermUnitFanMode" = INTERMITTENT   $ IP Non-Tech
 "TermUnitFanWPerCfm" = 0.175   $ IP Non-Tech
 "TwrSetpt" = 80   $ IP Non-Tech
 "UnocCoolT" = 86   $ IP Non-Tech
 "UnocHeatT" = 62   $ IP Non-Tech
 "VAVMinFlow" = 0.3   $ IP Non-Tech
 "WlhpVintEconoFlag" = 0   $ IP Non-Tech
 "EconoCtrl" = OA-TEMP   $ IP Tech: AirEcono-OATemp
 "MaxOAFrac" = 0.85   $ IP Tech: AirEcono-OATemp
 "UseEconoVintApplic" = FALSE   $ IP Tech: AirEcono-OATemp
 "ChlrCapRange" = lt150   $ IP Tech: ChlrScrA-lt150-9.2EER
 "ChlrEff" = 9.23   $ IP Tech: ChlrScrA-lt150-9.2EER
 "ChlrType" = Screw   $ IP Tech: ChlrScrA-lt150-9.2EER
 "ChlrVSD" = NO   $ IP Tech: ChlrScrA-lt150-9.2EER
 "CmpPerCkt" = NA   $ IP Tech: ChlrScrA-lt150-9.2EER
 "CondRelief" = FALSE   $ IP Tech: ChlrScrA-lt150-9.2EER
 "CondType" = Air   $ IP Tech: ChlrScrA-lt150-9.2EER
 "EffUnits" = EER   $ IP Tech: ChlrScrA-lt150-9.2EER
 "IPLV" = -99   $ IP Tech: ChlrScrA-lt150-9.2EER
 "CHW_FlowCtrl" = Const   $ IP Tech: ChwFlowCtrlCst
 "CHW_HdSensLoc" = AT-COILS   $ IP Tech: ChwFlowCtrlCst
 "CHW_HdSptCtrl" = FIXED   $ IP Tech: ChwFlowCtrlCst
 "CHWP_Encl" = Any   $ IP Tech: ChwPumpMtrEff-HI
 "CHWP_MotClass" = HI-EFF   $ IP Tech: ChwPumpMtrEff-HI
 "CHWP_MotHP" = Any   $ IP Tech: ChwPumpMtrEff-HI
 "CHWP_NEMA_DC" =    $ IP Tech: ChwPumpMtrEff-HI
 "CHWP_RPM" = Any   $ IP Tech: ChwPumpMtrEff-HI
 "CHWP_Volt" =    $ IP Tech: ChwPumpMtrEff-HI
 "CHW_MaxT" = 54   $ IP Tech: ChwTempCtrlReset
 "CHW_TempCtrl" = LOAD-RESET   $ IP Tech: ChwTempCtrlReset
 "DuctDT" = 2   $ IP Tech: ComDuctInsul-2
 "DuctAirLoss" = 0   $ IP Tech: ComDuctLeak-0
 "DuctLossOAFrac" = 0   $ IP Tech: ComDuctLeak-0
 "ComRoofInsCalc" = FromUo   $ IP Tech: ComRoofIns-WFrm-0.07
 "ComRoofInsR" = -999   $ IP Tech: ComRoofIns-WFrm-0.07
 "ComRoofUo" = 0.07   $ IP Tech: ComRoofIns-WFrm-0.07
 "ComEWInsCalc" = FromUo   $ IP Tech: ComWallIns-WFrm-0.09
 "ComEWInsR" = -999   $ IP Tech: ComWallIns-WFrm-0.09
 "ComEWUo" = 0.09   $ IP Tech: ComWallIns-WFrm-0.09
 "MotorClass" = HI-EFF   $ IP Tech: ExhFanMtr-High
 "ComN_SHGC" = 0.82   $ IP Tech: NResWin-ComN-1.23-0.82
 "ComN_UFactor" = 1.23   $ IP Tech: NResWin-ComN-1.23-0.82
 "ComN_VisTrans" = 0.9   $ IP Tech: NResWin-ComN-1.23-0.82
 "ComN_WinCode" = G1000   $ IP Tech: NResWin-ComN-1.23-0.82
 "ComN_WinFrmFrac" = 0.17   $ IP Tech: NResWin-ComN-1.23-0.82
 "ComN_WinFrmU" = 1   $ IP Tech: NResWin-ComN-1.23-0.82
 "ComO_SHGC" = 0.82   $ IP Tech: NResWin-ComO-1.23-0.82
 "ComO_UFactor" = 1.23   $ IP Tech: NResWin-ComO-1.23-0.82
 "ComO_VisTrans" = 0.9   $ IP Tech: NResWin-ComO-1.23-0.82
 "ComO_WinCode" = G1000   $ IP Tech: NResWin-ComO-1.23-0.82
 "ComO_WinFrmFrac" = 0.17   $ IP Tech: NResWin-ComO-1.23-0.82
 "ComO_WinFrmU" = 1   $ IP Tech: NResWin-ComO-1.23-0.82
 "SATempCtrl" = RESET   $ IP Tech: SATempCtrl-Reset
 "FanEIR_fPLR" = "ForCurve w Inlet Vanes FPLR"   $ IP Tech: VAVCtrl-Inlet-AnyHP
 "Fan_Control" = Inlet   $ IP Tech: VAVCtrl-Inlet-AnyHP
 "Motor_Horsepower" = AnyHP   $ IP Tech: VAVCtrl-Inlet-AnyHP
 "AltAdjFactor" = 1.007532   $ Sizing
 "CAssFlo_L_Break_CZn" = 259.5864   $ Sizing
 "CAssFlo_L_CompDC_CZn" = 166.6308   $ Sizing
 "CAssFlo_L_Conf_CZn" = 184.9247   $ Sizing
 "CAssFlo_L_CopyRm_CZn" = 50.72986   $ Sizing
 "CAssFlo_L_Hall_EZn" = 163.3708   $ Sizing
 "CAssFlo_L_Hall_NZn" = 86.61356   $ Sizing
 "CAssFlo_L_Hall_SZn" = 194.213   $ Sizing
 "CAssFlo_L_Hall_WZn" = 169.2757   $ Sizing
 "CAssFlo_L_LobWait_EZn" = 386.4706   $ Sizing
 "CAssFlo_L_LobWait_NZn" = 181.236   $ Sizing
 "CAssFlo_L_LobWait_SZn" = 450.8789   $ Sizing
 "CAssFlo_L_LobWait_WZn" = 388.7397   $ Sizing
 "CAssFlo_L_MechElec_CZn" = 65.93681   $ Sizing
 "CAssFlo_L_OfficeOpn_CZn" = 52.08737   $ Sizing
 "CAssFlo_L_OfficeOpn_EZn" = 740.379   $ Sizing
 "CAssFlo_L_OfficeOpn_NZn" = 249.1489   $ Sizing
 "CAssFlo_L_OfficeOpn_SZn" = 793.9235   $ Sizing
 "CAssFlo_L_OfficeOpn_WZn" = 711.5095   $ Sizing
 "CAssFlo_L_OfficeSm_EZn" = 649.4387   $ Sizing
 "CAssFlo_L_OfficeSm_NZn" = 196.5568   $ Sizing
 "CAssFlo_L_OfficeSm_SZn" = 715.9397   $ Sizing
 "CAssFlo_L_OfficeSm_WZn" = 642.465   $ Sizing
 "CAssFlo_L_Restrm_CZn" = 86.07105   $ Sizing
 "CAssFlo_L_StorSm_CZn" = 35.56437   $ Sizing
 "CAssFlo_L_StorSm_EZn" = 151.8127   $ Sizing
 "CAssFlo_L_StorSm_NZn" = 91.32436   $ Sizing
 "CAssFlo_L_StorSm_SZn" = 179.4622   $ Sizing
 "CAssFlo_L_StorSm_WZn" = 152.1607   $ Sizing
 "CAssFlo_T_Conf_CZn" = 200.1228   $ Sizing
 "CAssFlo_T_Hall_EZn" = 186.935   $ Sizing
 "CAssFlo_T_Hall_NZn" = 83.37186   $ Sizing
 "CAssFlo_T_Hall_SZn" = 225.3789   $ Sizing
 "CAssFlo_T_Hall_WZn" = 188.648   $ Sizing
 "CAssFlo_T_OfficeOpn_CZn" = 49.50507   $ Sizing
 "CAssFlo_T_OfficeOpn_EZn" = 758.085   $ Sizing
 "CAssFlo_T_OfficeOpn_NZn" = 290.3764   $ Sizing
 "CAssFlo_T_OfficeOpn_SZn" = 861.2165   $ Sizing
 "CAssFlo_T_OfficeOpn_WZn" = 734.1939   $ Sizing
 "CAssFlo_T_OfficeSm_EZn" = 679.1931   $ Sizing
 "CAssFlo_T_OfficeSm_NZn" = 230.9802   $ Sizing
 "CAssFlo_T_OfficeSm_SZn" = 781.66   $ Sizing
 "CAssFlo_T_OfficeSm_WZn" = 672.8782   $ Sizing
 "CAssFlo_T_Restrm_CZn" = 94.58525   $ Sizing
 "CAssFlo_T_StorSm_EZn" = 176.674   $ Sizing
 "CAssFlo_T_StorSm_NZn" = 88.74475   $ Sizing
 "CAssFlo_T_StorSm_SZn" = 212.0297   $ Sizing
 "CAssFlo_T_StorSm_WZn" = 180.7112   $ Sizing
 "CBF_Sys_L" = 0.04594608   $ Sizing
 "CBF_Sys_T" = 0.04556917   $ Sizing
 "CHRtFlo_L_Break_CZn" = 185.4956   $ Sizing
 "CHRtFlo_L_CompDC_CZn" = 49.98924   $ Sizing
 "CHRtFlo_L_Conf_CZn" = 143.3872   $ Sizing
 "CHRtFlo_L_CopyRm_CZn" = 50.72986   $ Sizing
 "CHRtFlo_L_Hall_EZn" = 77.6387   $ Sizing
 "CHRtFlo_L_Hall_NZn" = 86.61356   $ Sizing
 "CHRtFlo_L_Hall_SZn" = 58.26389   $ Sizing
 "CHRtFlo_L_Hall_WZn" = 75.12148   $ Sizing
 "CHRtFlo_L_LobWait_EZn" = 163.0496   $ Sizing
 "CHRtFlo_L_LobWait_NZn" = 181.236   $ Sizing
 "CHRtFlo_L_LobWait_SZn" = 135.2637   $ Sizing
 "CHRtFlo_L_LobWait_WZn" = 157.8351   $ Sizing
 "CHRtFlo_L_MechElec_CZn" = 44.8326   $ Sizing
 "CHRtFlo_L_OfficeOpn_CZn" = 39.07453   $ Sizing
 "CHRtFlo_L_OfficeOpn_EZn" = 222.1137   $ Sizing
 "CHRtFlo_L_OfficeOpn_NZn" = 212.3659   $ Sizing
 "CHRtFlo_L_OfficeOpn_SZn" = 238.1771   $ Sizing
 "CHRtFlo_L_OfficeOpn_WZn" = 213.4529   $ Sizing
 "CHRtFlo_L_OfficeSm_EZn" = 194.8316   $ Sizing
 "CHRtFlo_L_OfficeSm_NZn" = 196.5568   $ Sizing
 "CHRtFlo_L_OfficeSm_SZn" = 214.7819   $ Sizing
 "CHRtFlo_L_OfficeSm_WZn" = 192.7395   $ Sizing
 "CHRtFlo_L_Restrm_CZn" = 62.31443   $ Sizing
 "CHRtFlo_L_StorSm_CZn" = 35.56437   $ Sizing
 "CHRtFlo_L_StorSm_EZn" = 81.85091   $ Sizing
 "CHRtFlo_L_StorSm_NZn" = 91.32436   $ Sizing
 "CHRtFlo_L_StorSm_SZn" = 53.83867   $ Sizing
 "CHRtFlo_L_StorSm_WZn" = 71.6628   $ Sizing
 "CHRtFlo_T_Conf_CZn" = 143.3872   $ Sizing
 "CHRtFlo_T_Hall_EZn" = 79.77554   $ Sizing
 "CHRtFlo_T_Hall_NZn" = 83.37186   $ Sizing
 "CHRtFlo_T_Hall_SZn" = 67.61369   $ Sizing
 "CHRtFlo_T_Hall_WZn" = 76.17877   $ Sizing
 "CHRtFlo_T_OfficeOpn_CZn" = 28.4255   $ Sizing
 "CHRtFlo_T_OfficeOpn_EZn" = 227.4255   $ Sizing
 "CHRtFlo_T_OfficeOpn_NZn" = 200.9904   $ Sizing
 "CHRtFlo_T_OfficeOpn_SZn" = 258.365   $ Sizing
 "CHRtFlo_T_OfficeOpn_WZn" = 220.2582   $ Sizing
 "CHRtFlo_T_OfficeSm_EZn" = 203.7579   $ Sizing
 "CHRtFlo_T_OfficeSm_NZn" = 183.7894   $ Sizing
 "CHRtFlo_T_OfficeSm_SZn" = 234.498   $ Sizing
 "CHRtFlo_T_OfficeSm_WZn" = 201.8635   $ Sizing
 "CHRtFlo_T_Restrm_CZn" = 94.58525   $ Sizing
 "CHRtFlo_T_StorSm_EZn" = 84.06831   $ Sizing
 "CHRtFlo_T_StorSm_NZn" = 88.74475   $ Sizing
 "CHRtFlo_T_StorSm_SZn" = 63.6089   $ Sizing
 "CHRtFlo_T_StorSm_WZn" = 79.96503   $ Sizing
 "CRtdFlo_Sys_L" = 5446.133   $ Sizing
 "CRtdFlo_Sys_T" = 4769.339   $ Sizing
 "CSupFlo_Sys_L" = 5446.133   $ Sizing
 "CSupFlo_Sys_T" = 4769.339   $ Sizing
 "Cap_Chiller1" = 0.264294   $ Sizing
 "ClCap_Sys_L" = 141151.6   $ Sizing
 "ClCap_Sys_T" = 124169.1   $ Sizing
 "HRtEDB_L_Break_CZn" = 56.24739   $ Sizing
 "HRtEDB_L_CompDC_CZn" = 56.24739   $ Sizing
 "HRtEDB_L_Conf_CZn" = 56.24739   $ Sizing
 "HRtEDB_L_CopyRm_CZn" = 56.24739   $ Sizing
 "HRtEDB_L_Hall_EZn" = 56.38637   $ Sizing
 "HRtEDB_L_Hall_NZn" = 56.38637   $ Sizing
 "HRtEDB_L_Hall_SZn" = 56.38637   $ Sizing
 "HRtEDB_L_Hall_WZn" = 56.38637   $ Sizing
 "HRtEDB_L_LobWait_EZn" = 56.38637   $ Sizing
 "HRtEDB_L_LobWait_NZn" = 56.38637   $ Sizing
 "HRtEDB_L_LobWait_SZn" = 56.38637   $ Sizing
 "HRtEDB_L_LobWait_WZn" = 56.38637   $ Sizing
 "HRtEDB_L_MechElec_CZn" = 56.38637   $ Sizing
 "HRtEDB_L_OfficeOpn_CZn" = 56.24739   $ Sizing
 "HRtEDB_L_OfficeOpn_EZn" = 56.24739   $ Sizing
 "HRtEDB_L_OfficeOpn_NZn" = 56.24739   $ Sizing
 "HRtEDB_L_OfficeOpn_SZn" = 56.24739   $ Sizing
 "HRtEDB_L_OfficeOpn_WZn" = 56.24739   $ Sizing
 "HRtEDB_L_OfficeSm_EZn" = 56.24739   $ Sizing
 "HRtEDB_L_OfficeSm_NZn" = 56.24739   $ Sizing
 "HRtEDB_L_OfficeSm_SZn" = 56.24739   $ Sizing
 "HRtEDB_L_OfficeSm_WZn" = 56.24739   $ Sizing
 "HRtEDB_L_Restrm_CZn" = 56.24739   $ Sizing
 "HRtEDB_L_StorSm_CZn" = 56.38637   $ Sizing
 "HRtEDB_L_StorSm_EZn" = 56.38637   $ Sizing
 "HRtEDB_L_StorSm_NZn" = 56.38637   $ Sizing
 "HRtEDB_L_StorSm_SZn" = 56.38637   $ Sizing
 "HRtEDB_L_StorSm_WZn" = 56.38637   $ Sizing
 "HRtEDB_T_Conf_CZn" = 55.7317   $ Sizing
 "HRtEDB_T_Hall_EZn" = 55.78831   $ Sizing
 "HRtEDB_T_Hall_NZn" = 55.78831   $ Sizing
 "HRtEDB_T_Hall_SZn" = 55.78831   $ Sizing
 "HRtEDB_T_Hall_WZn" = 55.78831   $ Sizing
 "HRtEDB_T_OfficeOpn_CZn" = 55.7317   $ Sizing
 "HRtEDB_T_OfficeOpn_EZn" = 55.7317   $ Sizing
 "HRtEDB_T_OfficeOpn_NZn" = 55.7317   $ Sizing
 "HRtEDB_T_OfficeOpn_SZn" = 55.7317   $ Sizing
 "HRtEDB_T_OfficeOpn_WZn" = 55.7317   $ Sizing
 "HRtEDB_T_OfficeSm_EZn" = 55.7317   $ Sizing
 "HRtEDB_T_OfficeSm_NZn" = 55.7317   $ Sizing
 "HRtEDB_T_OfficeSm_SZn" = 55.7317   $ Sizing
 "HRtEDB_T_OfficeSm_WZn" = 55.7317   $ Sizing
 "HRtEDB_T_Restrm_CZn" = 55.7317   $ Sizing
 "HRtEDB_T_StorSm_EZn" = 55.78831   $ Sizing
 "HRtEDB_T_StorSm_NZn" = 55.78831   $ Sizing
 "HRtEDB_T_StorSm_SZn" = 55.78831   $ Sizing
 "HRtEDB_T_StorSm_WZn" = 55.78831   $ Sizing
 "HtCap_L_Break_CZn" = -7743.982   $ Sizing
 "HtCap_L_CompDC_CZn" = -2086.927   $ Sizing
 "HtCap_L_Conf_CZn" = -5986.061   $ Sizing
 "HtCap_L_CopyRm_CZn" = -2117.846   $ Sizing
 "HtCap_L_Hall_EZn" = -3230.558   $ Sizing
 "HtCap_L_Hall_NZn" = -3604.003   $ Sizing
 "HtCap_L_Hall_SZn" = -2424.37   $ Sizing
 "HtCap_L_Hall_WZn" = -3125.816   $ Sizing
 "HtCap_L_LobWait_EZn" = -6784.517   $ Sizing
 "HtCap_L_LobWait_NZn" = -7541.258   $ Sizing
 "HtCap_L_LobWait_SZn" = -5628.343   $ Sizing
 "HtCap_L_LobWait_WZn" = -6567.542   $ Sizing
 "HtCap_L_MechElec_CZn" = -1865.491   $ Sizing
 "HtCap_L_OfficeOpn_CZn" = -1631.265   $ Sizing
 "HtCap_L_OfficeOpn_EZn" = -9272.695   $ Sizing
 "HtCap_L_OfficeOpn_NZn" = -8865.749   $ Sizing
 "HtCap_L_OfficeOpn_SZn" = -9943.301   $ Sizing
 "HtCap_L_OfficeOpn_WZn" = -8911.127   $ Sizing
 "HtCap_L_OfficeSm_EZn" = -8133.737   $ Sizing
 "HtCap_L_OfficeSm_NZn" = -8205.761   $ Sizing
 "HtCap_L_OfficeSm_SZn" = -8966.611   $ Sizing
 "HtCap_L_OfficeSm_WZn" = -8046.396   $ Sizing
 "HtCap_L_Restrm_CZn" = -2601.473   $ Sizing
 "HtCap_L_StorSm_CZn" = -1479.839   $ Sizing
 "HtCap_L_StorSm_EZn" = -3405.829   $ Sizing
 "HtCap_L_StorSm_NZn" = -3800.021   $ Sizing
 "HtCap_L_StorSm_SZn" = -2240.235   $ Sizing
 "HtCap_L_StorSm_WZn" = -2981.9   $ Sizing
 "HtCap_T_Conf_CZn" = -6065.718   $ Sizing
 "HtCap_T_Hall_EZn" = -3370.736   $ Sizing
 "HtCap_T_Hall_NZn" = -3522.69   $ Sizing
 "HtCap_T_Hall_SZn" = -2856.864   $ Sizing
 "HtCap_T_Hall_WZn" = -3218.762   $ Sizing
 "HtCap_T_OfficeOpn_CZn" = -1202.486   $ Sizing
 "HtCap_T_OfficeOpn_EZn" = -9620.796   $ Sizing
 "HtCap_T_OfficeOpn_NZn" = -8502.511   $ Sizing
 "HtCap_T_OfficeOpn_SZn" = -10929.63   $ Sizing
 "HtCap_T_OfficeOpn_WZn" = -9317.595   $ Sizing
 "HtCap_T_OfficeSm_EZn" = -8619.585   $ Sizing
 "HtCap_T_OfficeSm_NZn" = -7774.852   $ Sizing
 "HtCap_T_OfficeSm_SZn" = -9919.983   $ Sizing
 "HtCap_T_OfficeSm_WZn" = -8539.442   $ Sizing
 "HtCap_T_Restrm_CZn" = -4001.246   $ Sizing
 "HtCap_T_StorSm_EZn" = -3552.117   $ Sizing
 "HtCap_T_StorSm_NZn" = -3749.709   $ Sizing
 "HtCap_T_StorSm_SZn" = -2687.651   $ Sizing
 "HtCap_T_StorSm_WZn" = -3378.742   $ Sizing
 "LpFlo_BlrPrimLoop" = 0   $ Sizing
 "LpFlo_ChlrPrimLoop" = 44.08394   $ Sizing
 "LpFlo_CircLp_Chw_All" = 44.08394   $ Sizing
 "LpFlo_CircLp_Hw_All" = 0   $ Sizing
 "RtChwFlo_Chiller1" = 3.7189   $ Sizing
 "RtdEDB_Sys_L" = 75.36717   $ Sizing
 "RtdEDB_Sys_T" = 75.88214   $ Sizing
 "RtdEWB_Sys_L" = 61.33509   $ Sizing
 "RtdEWB_Sys_T" = 61.36402   $ Sizing
..

##include Templates\OfS_CH_MZ.inp
END ..
COMPUTE ..
STOP ..
