INPUT ..

##fileprefix C:\Users\jglasskatz\MASControl3\
##set1 IsSizing FALSE
##set1 CoolType DX
##set1 HeatType FURNACE
##set1 EU_HrRepVar 0
##set1 BldgVint 2015
##set1 BldgLoc CZ14

 ##set1 mBFMult 1   $ IP Tech: RefgChg-NRes-Std

PARAMETER
 "AltFactor" = 1.09733   $ IP Non-Tech
 "BF_fFlow" = SpltAC2SpHiSEER_BF_fFlow   $ Msr (Multi)TechID: MsrNResSplitAC-lt45-S17
 "BF_fT" = SpltAC2SpHiSEER_BF_fT   $ Msr (Multi)TechID: MsrNResSplitAC-lt45-S17
 "BldgEconoFlag" = 1   $ IP Non-Tech
 "Break_EWSF" = 1   $ IP Non-Tech
 "Break_LWSF" = 1.1   $ IP Non-Tech
 "CDD_DBHi10" = 86   $ IP Non-Tech
 "CDD_DBHi7" = 102   $ IP Non-Tech
 "CDD_DBHi8" = 102   $ IP Non-Tech
 "CDD_DBHi9" = 99   $ IP Non-Tech
 "CDD_DBRange10" = 24   $ IP Non-Tech
 "CDD_DBRange7" = 25   $ IP Non-Tech
 "CDD_DBRange8" = 24   $ IP Non-Tech
 "CDD_DBRange9" = 26   $ IP Non-Tech
 "CDD_Day10" = 15   $ IP Non-Tech
 "CDD_Day7" = 16   $ IP Non-Tech
 "CDD_Day8" = 20   $ IP Non-Tech
 "CDD_Day9" = 17   $ IP Non-Tech
 "CDD_HrHi10" = 15   $ IP Non-Tech
 "CDD_HrHi7" = 14   $ IP Non-Tech
 "CDD_HrHi8" = 14   $ IP Non-Tech
 "CDD_HrHi9" = 13   $ IP Non-Tech
 "CDD_HrLo10" = 3   $ IP Non-Tech
 "CDD_HrLo7" = 4   $ IP Non-Tech
 "CDD_HrLo8" = 6   $ IP Non-Tech
 "CDD_HrLo9" = 6   $ IP Non-Tech
 "CDD_WB10" = 59.47153854   $ IP Non-Tech
 "CDD_WB7" = 72.7782135   $ IP Non-Tech
 "CDD_WB8" = 69.10041809   $ IP Non-Tech
 "CDD_WB9" = 72.65714264   $ IP Non-Tech
 "CEIR_fPLR_Hot" = SpltAC2SpHiSEER_CEIR_fPLR_Hot   $ Msr (Multi)TechID: MsrNResSplitAC-lt45-S17
 "CEIR_fPLR_Mod" = SpltAC2SpHiSEER_CEIR_fPLR_Mod   $ Msr (Multi)TechID: MsrNResSplitAC-lt45-S17
 "CEIR_fPLR_Tem" = SpltAC2SpHiSEER_CEIR_fPLR_Tem   $ Msr (Multi)TechID: MsrNResSplitAC-lt45-S17
 "CLoss_fPLR_Hot" = SpltAC2SpHiSEER_CLoss_fPLR_Hot   $ Msr (Multi)TechID: MsrNResSplitAC-lt45-S17
 "CLoss_fPLR_Mod" = SpltAC2SpHiSEER_CLoss_fPLR_Mod   $ Msr (Multi)TechID: MsrNResSplitAC-lt45-S17
 "CLoss_fPLR_Tem" = SpltAC2SpHiSEER_CLoss_fPLR_Tem   $ Msr (Multi)TechID: MsrNResSplitAC-lt45-S17
 "COP47" = 0   $ Msr (Multi)TechID: MsrNResSplitAC-lt45-S17
 "CZ_Category" = Hot   $ IP Non-Tech
 "CapRange" = Any   $ Msr (Multi)TechID: MsrNResSplitAC-lt45-S17
 "CfmPerBtuh" = 0.03   $ Msr (Multi)TechID: MsrNResSplitAC-lt45-S17
 "ChwVintEconoFlag" = 1   $ IP Non-Tech
 "ClCap_fT" = SpltAC2SpHiSEER_ClCap_fT   $ Msr (Multi)TechID: MsrNResSplitAC-lt45-S17
 "ClSH_fT" = SpltAC2SpHiSEER_ClSH_fT   $ Msr (Multi)TechID: MsrNResSplitAC-lt45-S17
 "CoilBF" = 0.102   $ Msr (Multi)TechID: MsrNResSplitAC-lt45-S17
 "CompRoomData_EWSF" = 5   $ IP Non-Tech
 "CompRoomData_LWSF" = 1.05   $ IP Non-Tech
 "CondWPerBtuh" = 0   $ Msr (Multi)TechID: MsrNResSplitAC-lt45-S17
 "Conference_EWSF" = 1   $ IP Non-Tech
 "Conference_LWSF" = 1.4   $ IP Non-Tech
 "CoolSensCap" = 0.724   $ Msr (Multi)TechID: MsrNResSplitAC-lt45-S17
 "CoolSetT" = 45   $ IP Non-Tech
 "CoolType" = DX   $ IP Non-Tech
 "CoolingEIR" = 0.2225   $ Msr (Multi)TechID: MsrNResSplitAC-lt45-S17
 "CopyRoom_EWSF" = 1.5   $ IP Non-Tech
 "CopyRoom_LWSF" = 1.3   $ IP Non-Tech
 "CrnkEIR" = 0.002225   $ Msr (Multi)TechID: MsrNResSplitAC-lt45-S17
 "CrnkMaxT" = 50   $ Msr (Multi)TechID: MsrNResSplitAC-lt45-S17
 "DXType" = SplitSEER   $ Msr (Multi)TechID: MsrNResSplitAC-lt45-S17
 "DesCoolT" = 75   $ IP Non-Tech
 "DesHeatT" = 73   $ IP Non-Tech
 "EER" = 13.26   $ Msr (Multi)TechID: MsrNResSplitAC-lt45-S17
 "EIR_fT" = SpltAC2SpHiSEER_EIR_fT   $ Msr (Multi)TechID: MsrNResSplitAC-lt45-S17
 "EconoCtrl" = FIXED   $ Msr (Multi)TechID: MsrNResSplitAC-lt45-S17
 "EconoEnthLimit" = 28   $ IP Non-Tech
 "EconoTempLimit" = 75   $ IP Non-Tech
 "Elevation" = 2523   $ IP Non-Tech
 "FanEirPlr" = TwoSpeedFan   $ Msr (Multi)TechID: MsrNResSplitAC-lt45-S17
 "FanWPerCfm" = 0.271   $ Msr (Multi)TechID: MsrNResSplitAC-lt45-S17
 "HDD_CloudAmt1" = 0   $ IP Non-Tech
 "HDD_DBHi1" = 50   $ IP Non-Tech
 "HDD_DBRange1" = 24   $ IP Non-Tech
 "HDD_Day1" = 15   $ IP Non-Tech
 "HDD_HrHi1" = 14   $ IP Non-Tech
 "HDD_HrLo1" = 6   $ IP Non-Tech
 "HDD_WB1" = 36.9   $ IP Non-Tech
 "HDD_WindSpd1" = 17.3   $ IP Non-Tech
 "HIR_fT" = 0   $ Msr (Multi)TechID: MsrNResSplitAC-lt45-S17
 "HSPF" = 0   $ Msr (Multi)TechID: MsrNResSplitAC-lt45-S17
 "Hall_EWSF" = 0.2   $ IP Non-Tech
 "Hall_LWSF" = 0.6   $ IP Non-Tech
 "HeatSrc" = FURNACE   $ IP Non-Tech
 "HeatSrcTU" = HEAT-PUMP   $ IP Non-Tech
 "HeatType" = GasFurn   $ IP Non-Tech
 "HeatTypeTU" = HEAT-PUMP   $ IP Non-Tech
 "HtCap_fT" = 0   $ Msr (Multi)TechID: MsrNResSplitAC-lt45-S17
 "HtCoolCapRatio" = 0   $ Msr (Multi)TechID: MsrNResSplitAC-lt45-S17
 "HtgEIR" = 0   $ Msr (Multi)TechID: MsrNResSplitAC-lt45-S17
 "IndoorFanMode" = CONTINUOUS   $ IP Non-Tech
 "KT_TransferAir" = Yes   $ IP Non-Tech
 "Latitude" = 35.7   $ IP Non-Tech
 "LobbyWaiting_EWSF" = 0.5   $ IP Non-Tech
 "LobbyWaiting_LWSF" = 1.3   $ IP Non-Tech
 "Longitude" = 117.7   $ IP Non-Tech
 "LowSpdCapRatio" = 0.686   $ Msr (Multi)TechID: MsrNResSplitAC-lt45-S17
 "LowSpdCfmRatio" = 0.739   $ Msr (Multi)TechID: MsrNResSplitAC-lt45-S17
 "MZFanMechEff" = 0.58   $ IP Non-Tech
 "MZHasRetFan" = FALSE   $ IP Non-Tech
 "MZ_RFanWPerCfm" = 0.33   $ IP Non-Tech
 "MZ_SFanWPerCfm" = 0.75   $ IP Non-Tech
 "MZ_SupFanStatic" = 2.25   $ IP Non-Tech
 "MaxOAFrac" = 1   $ Msr (Multi)TechID: MsrNResSplitAC-lt45-S17
 "MaxSupT_MZ" = 100   $ IP Non-Tech
 "MaxSupT_SZ" = 100   $ IP Non-Tech
 "MaxSupT_TU" = 90   $ IP Non-Tech
 "MechElecRoom_EWSF" = 0.2   $ IP Non-Tech
 "MechElecRoom_LWSF" = 0.7   $ IP Non-Tech
 "MinCfmPerSF" = 0.4   $ IP Non-Tech
 "MinSupT" = 55   $ IP Non-Tech
 "NumStages" = 2   $ Msr (Multi)TechID: MsrNResSplitAC-lt45-S17
 "OccCoolT" = 76   $ IP Non-Tech
 "OccHeatT" = 72   $ IP Non-Tech
 "OfficeOpen_EWSF" = 1.5   $ IP Non-Tech
 "OfficeOpen_LWSF" = 1.05   $ IP Non-Tech
 "OfficeSmall_EWSF" = 1.5   $ IP Non-Tech
 "OfficeSmall_LWSF" = 1.3   $ IP Non-Tech
 "PkgDxVintEconoFlag" = 1   $ IP Non-Tech
 "Restroom_EWSF" = 0.2   $ IP Non-Tech
 "Restroom_LWSF" = 0.6   $ IP Non-Tech
 "SEER" = 17   $ Msr (Multi)TechID: MsrNResSplitAC-lt45-S17
 "SZFanMechEff" = 0.58   $ IP Non-Tech
 "SZHasRetFan" = FALSE   $ IP Non-Tech
 "SZ_Is_2Spd" = TRUE   $ IP Non-Tech
 "SZ_SFanWPerCfm" = 0.46   $ IP Non-Tech
 "SZ_SupFanStatic" = 0.75   $ IP Non-Tech
 "Sector" = Any   $ Msr (Multi)TechID: MsrNResSplitAC-lt45-S17
 "StorageSmlCond_EWSF" = 0.2   $ IP Non-Tech
 "StorageSmlCond_LWSF" = 0.6   $ IP Non-Tech
 "SubType" = AC   $ Msr (Multi)TechID: MsrNResSplitAC-lt45-S17
 "T24GlzTbl" = TypeTbl   $ IP Non-Tech
 "TermUnitFanMechEff" = 1   $ IP Non-Tech
 "TermUnitFanMode" = INTERMITTENT   $ IP Non-Tech
 "TotCoolCap" = 58805   $ Msr (Multi)TechID: MsrNResSplitAC-lt45-S17
 "TwrSetpt" = 90   $ IP Non-Tech
 "UnocCoolT" = 86   $ IP Non-Tech
 "UnocHeatT" = 62   $ IP Non-Tech
 "UseEconoVintApplic" = FALSE   $ Msr (Multi)TechID: MsrNResSplitAC-lt45-S17
 "WlhpVintEconoFlag" = 1   $ IP Non-Tech
 "DuctDT" = 1   $ IP Tech: ComDuctInsul-1
 "DuctAirLoss" = 0   $ IP Tech: ComDuctLeak-0
 "DuctLossOAFrac" = 0   $ IP Tech: ComDuctLeak-0
 "ComRoofInsCalc" = FromUo   $ IP Tech: ComRoofIns-WFrm-0.04
 "ComRoofInsR" = -999   $ IP Tech: ComRoofIns-WFrm-0.04
 "ComRoofUo" = 0.04   $ IP Tech: ComRoofIns-WFrm-0.04
 "ComEWInsCalc" = FromUo   $ IP Tech: ComWallIns-WFrm-0.06
 "ComEWInsR" = -999   $ IP Tech: ComWallIns-WFrm-0.06
 "ComEWUo" = 0.06   $ IP Tech: ComWallIns-WFrm-0.06
 "ComN_SHGC" = 0.25   $ IP Tech: NResWin-ComN-0.36-0.25
 "ComN_UFactor" = 0.36   $ IP Tech: NResWin-ComN-0.36-0.25
 "ComN_VisTrans" = 0.41   $ IP Tech: NResWin-ComN-0.36-0.25
 "ComN_WinCode" = G2668   $ IP Tech: NResWin-ComN-0.36-0.25
 "ComN_WinFrmFrac" = 0.17   $ IP Tech: NResWin-ComN-0.36-0.25
 "ComN_WinFrmU" = 0.3   $ IP Tech: NResWin-ComN-0.36-0.25
 "ComO_SHGC" = 0.25   $ IP Tech: NResWin-ComO-0.36-0.25
 "ComO_UFactor" = 0.36   $ IP Tech: NResWin-ComO-0.36-0.25
 "ComO_VisTrans" = 0.41   $ IP Tech: NResWin-ComO-0.36-0.25
 "ComO_WinCode" = G2668   $ IP Tech: NResWin-ComO-0.36-0.25
 "ComO_WinFrmFrac" = 0.17   $ IP Tech: NResWin-ComO-0.36-0.25
 "ComO_WinFrmU" = 0.3   $ IP Tech: NResWin-ComO-0.36-0.25
 "LtgMsrApplic" = ALL   $ IP Tech: NonResLtgRefPre
 "LtgSav_CFL" = 0   $ IP Tech: NonResLtgRefPre
 "LtgSav_EX" = 0   $ IP Tech: NonResLtgRefPre
 "LtgSav_HB" = 0   $ IP Tech: NonResLtgRefPre
 "LtgSav_LF" = 0   $ IP Tech: NonResLtgRefPre
 "LtgSav_SP" = 0   $ IP Tech: NonResLtgRefPre
 "CEIR_fPLR" = PSZ65to135_CEIR_fPLR   $ IP Tech: PkgAC2SpP-65to135-E11
 "CLoss_fPLR" = PSZ65to135_CLoss_fPLR   $ IP Tech: PkgAC2SpP-65to135-E11
 "COP" = -1   $ IP Tech: PkgAC2SpP-65to135-E11
 "HtgFuel" = Gas   $ IP Tech: PkgAC2SpP-65to135-E11
 "IEER" = 13.35   $ IP Tech: PkgAC2SpP-65to135-E11
 "NominalCap" = 15   $ IP Tech: PkgAC2SpP-65to135-E11
 "RatedEER" = 11   $ IP Tech: PkgAC2SpP-65to135-E11
 "RatedSupMtrClass" = Premium   $ IP Tech: PkgAC2SpP-65to135-E11
 "SizeRange" = 65to135   $ IP Tech: PkgAC2SpP-65to135-E11
 "SupMotEff" = 0.865   $ IP Tech: PkgAC2SpP-65to135-E11
 "Tier" = 0   $ IP Tech: PkgAC2SpP-65to135-E11
 "FanPwrMult" = 1   $ IP Tech: PkgFurn-0.80AFUE
 "FurnAFUE" = 0.8   $ IP Tech: PkgFurn-0.80AFUE
 "FurnEt" = 0.82   $ IP Tech: PkgFurn-0.80AFUE
 "FurnaceAuxKW" = 0.1   $ IP Tech: PkgFurn-0.80AFUE
 "HIR_fPLR" = Furnace-HIR-fPLR   $ IP Tech: PkgFurn-0.80AFUE
 "VSM" = FALSE   $ IP Tech: PkgFurn-0.80AFUE
 "BFMult" = 1   $ IP Tech: RefgChg-NRes-Std
 "CoolEirMult" = 1   $ IP Tech: RefgChg-NRes-Std
 "SensCoolCapMult" = 1   $ IP Tech: RefgChg-NRes-Std
 "TotCoolCapMult" = 1   $ IP Tech: RefgChg-NRes-Std
 "AltAdjFactor" = 1.09733   $ Sizing
 "CAssFlo_L_Break_CZn" = 563.2637   $ Sizing
 "CAssFlo_L_CompDC_CZn" = 172.4699   $ Sizing
 "CAssFlo_L_Conf_CZn" = 324.5519   $ Sizing
 "CAssFlo_L_CopyRm_CZn" = 117.661   $ Sizing
 "CAssFlo_L_Hall_EZn" = 119.2549   $ Sizing
 "CAssFlo_L_Hall_NZn" = 72.85533   $ Sizing
 "CAssFlo_L_Hall_SZn" = 116.6738   $ Sizing
 "CAssFlo_L_Hall_WZn" = 128.1676   $ Sizing
 "CAssFlo_L_LobWait_EZn" = 285.1022   $ Sizing
 "CAssFlo_L_LobWait_NZn" = 201.1333   $ Sizing
 "CAssFlo_L_LobWait_SZn" = 295.6021   $ Sizing
 "CAssFlo_L_LobWait_WZn" = 331.3033   $ Sizing
 "CAssFlo_L_MechElec_CZn" = 95.72206   $ Sizing
 "CAssFlo_L_OfficeOpn_CZn" = 82.2717   $ Sizing
 "CAssFlo_L_OfficeOpn_EZn" = 523.9302   $ Sizing
 "CAssFlo_L_OfficeOpn_NZn" = 407.3952   $ Sizing
 "CAssFlo_L_OfficeOpn_SZn" = 522.2642   $ Sizing
 "CAssFlo_L_OfficeOpn_WZn" = 576.9203   $ Sizing
 "CAssFlo_L_OfficeSm_EZn" = 436.2842   $ Sizing
 "CAssFlo_L_OfficeSm_NZn" = 317.985   $ Sizing
 "CAssFlo_L_OfficeSm_SZn" = 438.8852   $ Sizing
 "CAssFlo_L_OfficeSm_WZn" = 486.5118   $ Sizing
 "CAssFlo_L_Restrm_CZn" = 108.5786   $ Sizing
 "CAssFlo_L_StorSm_CZn" = 45.52719   $ Sizing
 "CAssFlo_L_StorSm_EZn" = 119.6311   $ Sizing
 "CAssFlo_L_StorSm_NZn" = 75.1997   $ Sizing
 "CAssFlo_L_StorSm_SZn" = 119.1345   $ Sizing
 "CAssFlo_L_StorSm_WZn" = 126.3975   $ Sizing
 "CAssFlo_T_Conf_CZn" = 314.711   $ Sizing
 "CAssFlo_T_Hall_EZn" = 131.8439   $ Sizing
 "CAssFlo_T_Hall_NZn" = 77.93804   $ Sizing
 "CAssFlo_T_Hall_SZn" = 127.7816   $ Sizing
 "CAssFlo_T_Hall_WZn" = 138.7149   $ Sizing
 "CAssFlo_T_OfficeOpn_CZn" = 80.89684   $ Sizing
 "CAssFlo_T_OfficeOpn_EZn" = 550.419   $ Sizing
 "CAssFlo_T_OfficeOpn_NZn" = 415.8978   $ Sizing
 "CAssFlo_T_OfficeOpn_SZn" = 550.5021   $ Sizing
 "CAssFlo_T_OfficeOpn_WZn" = 594.5153   $ Sizing
 "CAssFlo_T_OfficeSm_EZn" = 460.9697   $ Sizing
 "CAssFlo_T_OfficeSm_NZn" = 328.4361   $ Sizing
 "CAssFlo_T_OfficeSm_SZn" = 465.0646   $ Sizing
 "CAssFlo_T_OfficeSm_WZn" = 504.175   $ Sizing
 "CAssFlo_T_Restrm_CZn" = 153.4959   $ Sizing
 "CAssFlo_T_StorSm_EZn" = 138.9459   $ Sizing
 "CAssFlo_T_StorSm_NZn" = 87.52155   $ Sizing
 "CAssFlo_T_StorSm_SZn" = 136.5161   $ Sizing
 "CAssFlo_T_StorSm_WZn" = 148.7815   $ Sizing
 "CHRtFlo_Sys_L_Break_C" = 563.2637   $ Sizing
 "CHRtFlo_Sys_L_CompDC_C" = 192.9242   $ Sizing
 "CHRtFlo_Sys_L_Conf_C" = 324.5519   $ Sizing
 "CHRtFlo_Sys_L_CopyRm_C" = 117.661   $ Sizing
 "CHRtFlo_Sys_L_Hall_E" = 131.7754   $ Sizing
 "CHRtFlo_Sys_L_Hall_N" = 72.85533   $ Sizing
 "CHRtFlo_Sys_L_Hall_S" = 125.8053   $ Sizing
 "CHRtFlo_Sys_L_Hall_W" = 128.9745   $ Sizing
 "CHRtFlo_Sys_L_LobWait_E" = 306.3478   $ Sizing
 "CHRtFlo_Sys_L_LobWait_N" = 201.1333   $ Sizing
 "CHRtFlo_Sys_L_LobWait_S" = 295.6021   $ Sizing
 "CHRtFlo_Sys_L_LobWait_W" = 331.3033   $ Sizing
 "CHRtFlo_Sys_L_MechElec_C" = 115.7146   $ Sizing
 "CHRtFlo_Sys_L_OfficeOpn_C" = 93.33585   $ Sizing
 "CHRtFlo_Sys_L_OfficeOpn_E" = 570.1686   $ Sizing
 "CHRtFlo_Sys_L_OfficeOpn_N" = 407.3951   $ Sizing
 "CHRtFlo_Sys_L_OfficeOpn_S" = 524.6339   $ Sizing
 "CHRtFlo_Sys_L_OfficeOpn_W" = 576.9203   $ Sizing
 "CHRtFlo_Sys_L_OfficeSm_E" = 483.924   $ Sizing
 "CHRtFlo_Sys_L_OfficeSm_N" = 317.985   $ Sizing
 "CHRtFlo_Sys_L_OfficeSm_S" = 456.5836   $ Sizing
 "CHRtFlo_Sys_L_OfficeSm_W" = 486.5118   $ Sizing
 "CHRtFlo_Sys_L_Restrm_C" = 116.534   $ Sizing
 "CHRtFlo_Sys_L_StorSm_C" = 49.5915   $ Sizing
 "CHRtFlo_Sys_L_StorSm_E" = 129.9639   $ Sizing
 "CHRtFlo_Sys_L_StorSm_N" = 75.1997   $ Sizing
 "CHRtFlo_Sys_L_StorSm_S" = 120.512   $ Sizing
 "CHRtFlo_Sys_L_StorSm_W" = 126.3975   $ Sizing
 "CHRtFlo_Sys_T_Conf_C" = 314.711   $ Sizing
 "CHRtFlo_Sys_T_Hall_E" = 136.1158   $ Sizing
 "CHRtFlo_Sys_T_Hall_N" = 77.93804   $ Sizing
 "CHRtFlo_Sys_T_Hall_S" = 130.6041   $ Sizing
 "CHRtFlo_Sys_T_Hall_W" = 138.7149   $ Sizing
 "CHRtFlo_Sys_T_OfficeOpn_C" = 82.19965   $ Sizing
 "CHRtFlo_Sys_T_OfficeOpn_E" = 550.419   $ Sizing
 "CHRtFlo_Sys_T_OfficeOpn_N" = 415.8978   $ Sizing
 "CHRtFlo_Sys_T_OfficeOpn_S" = 550.5021   $ Sizing
 "CHRtFlo_Sys_T_OfficeOpn_W" = 594.5153   $ Sizing
 "CHRtFlo_Sys_T_OfficeSm_E" = 468.8759   $ Sizing
 "CHRtFlo_Sys_T_OfficeSm_N" = 328.4361   $ Sizing
 "CHRtFlo_Sys_T_OfficeSm_S" = 465.0646   $ Sizing
 "CHRtFlo_Sys_T_OfficeSm_W" = 504.175   $ Sizing
 "CHRtFlo_Sys_T_Restrm_C" = 160.6325   $ Sizing
 "CHRtFlo_Sys_T_StorSm_E" = 138.9459   $ Sizing
 "CHRtFlo_Sys_T_StorSm_N" = 87.52155   $ Sizing
 "CHRtFlo_Sys_T_StorSm_S" = 136.5161   $ Sizing
 "CHRtFlo_Sys_T_StorSm_W" = 148.7815   $ Sizing
 "CRtdFlo_Sys_L_Break_C" = 563.2637   $ Sizing
 "CRtdFlo_Sys_L_CompDC_C" = 172.4699   $ Sizing
 "CRtdFlo_Sys_L_Conf_C" = 324.5519   $ Sizing
 "CRtdFlo_Sys_L_CopyRm_C" = 117.661   $ Sizing
 "CRtdFlo_Sys_L_Hall_E" = 119.2549   $ Sizing
 "CRtdFlo_Sys_L_Hall_N" = 72.85533   $ Sizing
 "CRtdFlo_Sys_L_Hall_S" = 116.6738   $ Sizing
 "CRtdFlo_Sys_L_Hall_W" = 128.1676   $ Sizing
 "CRtdFlo_Sys_L_LobWait_E" = 285.1022   $ Sizing
 "CRtdFlo_Sys_L_LobWait_N" = 201.1333   $ Sizing
 "CRtdFlo_Sys_L_LobWait_S" = 295.6021   $ Sizing
 "CRtdFlo_Sys_L_LobWait_W" = 331.3033   $ Sizing
 "CRtdFlo_Sys_L_MechElec_C" = 95.72207   $ Sizing
 "CRtdFlo_Sys_L_OfficeOpn_C" = 82.2717   $ Sizing
 "CRtdFlo_Sys_L_OfficeOpn_E" = 523.9302   $ Sizing
 "CRtdFlo_Sys_L_OfficeOpn_N" = 407.3951   $ Sizing
 "CRtdFlo_Sys_L_OfficeOpn_S" = 522.2642   $ Sizing
 "CRtdFlo_Sys_L_OfficeOpn_W" = 576.9203   $ Sizing
 "CRtdFlo_Sys_L_OfficeSm_E" = 436.2842   $ Sizing
 "CRtdFlo_Sys_L_OfficeSm_N" = 317.985   $ Sizing
 "CRtdFlo_Sys_L_OfficeSm_S" = 438.8852   $ Sizing
 "CRtdFlo_Sys_L_OfficeSm_W" = 486.5118   $ Sizing
 "CRtdFlo_Sys_L_Restrm_C" = 108.5786   $ Sizing
 "CRtdFlo_Sys_L_StorSm_C" = 45.52719   $ Sizing
 "CRtdFlo_Sys_L_StorSm_E" = 119.6311   $ Sizing
 "CRtdFlo_Sys_L_StorSm_N" = 75.1997   $ Sizing
 "CRtdFlo_Sys_L_StorSm_S" = 119.1345   $ Sizing
 "CRtdFlo_Sys_L_StorSm_W" = 126.3975   $ Sizing
 "CRtdFlo_Sys_T_Conf_C" = 314.711   $ Sizing
 "CRtdFlo_Sys_T_Hall_E" = 131.8439   $ Sizing
 "CRtdFlo_Sys_T_Hall_N" = 77.93804   $ Sizing
 "CRtdFlo_Sys_T_Hall_S" = 127.7816   $ Sizing
 "CRtdFlo_Sys_T_Hall_W" = 138.7149   $ Sizing
 "CRtdFlo_Sys_T_OfficeOpn_C" = 80.89684   $ Sizing
 "CRtdFlo_Sys_T_OfficeOpn_E" = 550.419   $ Sizing
 "CRtdFlo_Sys_T_OfficeOpn_N" = 415.8978   $ Sizing
 "CRtdFlo_Sys_T_OfficeOpn_S" = 550.5021   $ Sizing
 "CRtdFlo_Sys_T_OfficeOpn_W" = 594.5153   $ Sizing
 "CRtdFlo_Sys_T_OfficeSm_E" = 460.9697   $ Sizing
 "CRtdFlo_Sys_T_OfficeSm_N" = 328.4361   $ Sizing
 "CRtdFlo_Sys_T_OfficeSm_S" = 465.0646   $ Sizing
 "CRtdFlo_Sys_T_OfficeSm_W" = 504.175   $ Sizing
 "CRtdFlo_Sys_T_Restrm_C" = 153.4959   $ Sizing
 "CRtdFlo_Sys_T_StorSm_E" = 138.9459   $ Sizing
 "CRtdFlo_Sys_T_StorSm_N" = 87.52155   $ Sizing
 "CRtdFlo_Sys_T_StorSm_S" = 136.5161   $ Sizing
 "CRtdFlo_Sys_T_StorSm_W" = 148.7815   $ Sizing
 "CSupFlo_Sys_L_Break_C" = 563.2637   $ Sizing
 "CSupFlo_Sys_L_CompDC_C" = 172.4699   $ Sizing
 "CSupFlo_Sys_L_Conf_C" = 324.5519   $ Sizing
 "CSupFlo_Sys_L_CopyRm_C" = 117.661   $ Sizing
 "CSupFlo_Sys_L_Hall_E" = 119.2549   $ Sizing
 "CSupFlo_Sys_L_Hall_N" = 72.85533   $ Sizing
 "CSupFlo_Sys_L_Hall_S" = 116.6738   $ Sizing
 "CSupFlo_Sys_L_Hall_W" = 128.1676   $ Sizing
 "CSupFlo_Sys_L_LobWait_E" = 285.1022   $ Sizing
 "CSupFlo_Sys_L_LobWait_N" = 201.1333   $ Sizing
 "CSupFlo_Sys_L_LobWait_S" = 295.6021   $ Sizing
 "CSupFlo_Sys_L_LobWait_W" = 331.3033   $ Sizing
 "CSupFlo_Sys_L_MechElec_C" = 95.72207   $ Sizing
 "CSupFlo_Sys_L_OfficeOpn_C" = 82.2717   $ Sizing
 "CSupFlo_Sys_L_OfficeOpn_E" = 523.9302   $ Sizing
 "CSupFlo_Sys_L_OfficeOpn_N" = 407.3951   $ Sizing
 "CSupFlo_Sys_L_OfficeOpn_S" = 522.2642   $ Sizing
 "CSupFlo_Sys_L_OfficeOpn_W" = 576.9203   $ Sizing
 "CSupFlo_Sys_L_OfficeSm_E" = 436.2842   $ Sizing
 "CSupFlo_Sys_L_OfficeSm_N" = 317.985   $ Sizing
 "CSupFlo_Sys_L_OfficeSm_S" = 438.8852   $ Sizing
 "CSupFlo_Sys_L_OfficeSm_W" = 486.5118   $ Sizing
 "CSupFlo_Sys_L_Restrm_C" = 108.5786   $ Sizing
 "CSupFlo_Sys_L_StorSm_C" = 45.52719   $ Sizing
 "CSupFlo_Sys_L_StorSm_E" = 119.6311   $ Sizing
 "CSupFlo_Sys_L_StorSm_N" = 75.1997   $ Sizing
 "CSupFlo_Sys_L_StorSm_S" = 119.1345   $ Sizing
 "CSupFlo_Sys_L_StorSm_W" = 126.3975   $ Sizing
 "CSupFlo_Sys_T_Conf_C" = 314.711   $ Sizing
 "CSupFlo_Sys_T_Hall_E" = 131.8439   $ Sizing
 "CSupFlo_Sys_T_Hall_N" = 77.93804   $ Sizing
 "CSupFlo_Sys_T_Hall_S" = 127.7816   $ Sizing
 "CSupFlo_Sys_T_Hall_W" = 138.7149   $ Sizing
 "CSupFlo_Sys_T_OfficeOpn_C" = 80.89684   $ Sizing
 "CSupFlo_Sys_T_OfficeOpn_E" = 550.419   $ Sizing
 "CSupFlo_Sys_T_OfficeOpn_N" = 415.8978   $ Sizing
 "CSupFlo_Sys_T_OfficeOpn_S" = 550.5021   $ Sizing
 "CSupFlo_Sys_T_OfficeOpn_W" = 594.5153   $ Sizing
 "CSupFlo_Sys_T_OfficeSm_E" = 460.9697   $ Sizing
 "CSupFlo_Sys_T_OfficeSm_N" = 328.4361   $ Sizing
 "CSupFlo_Sys_T_OfficeSm_S" = 465.0646   $ Sizing
 "CSupFlo_Sys_T_OfficeSm_W" = 504.175   $ Sizing
 "CSupFlo_Sys_T_Restrm_C" = 153.4959   $ Sizing
 "CSupFlo_Sys_T_StorSm_E" = 138.9459   $ Sizing
 "CSupFlo_Sys_T_StorSm_N" = 87.52155   $ Sizing
 "CSupFlo_Sys_T_StorSm_S" = 136.5161   $ Sizing
 "CSupFlo_Sys_T_StorSm_W" = 148.7815   $ Sizing
 "ClCap_Sys_L_Break_C" = 17598.99   $ Sizing
 "ClCap_Sys_L_CompDC_C" = 5388.767   $ Sizing
 "ClCap_Sys_L_Conf_C" = 12906.12   $ Sizing
 "ClCap_Sys_L_CopyRm_C" = 3676.281   $ Sizing
 "ClCap_Sys_L_Hall_E" = 3726.081   $ Sizing
 "ClCap_Sys_L_Hall_N" = 2276.341   $ Sizing
 "ClCap_Sys_L_Hall_S" = 3645.435   $ Sizing
 "ClCap_Sys_L_Hall_W" = 4004.555   $ Sizing
 "ClCap_Sys_L_LobWait_E" = 8907.926   $ Sizing
 "ClCap_Sys_L_LobWait_N" = 6284.343   $ Sizing
 "ClCap_Sys_L_LobWait_S" = 9235.991   $ Sizing
 "ClCap_Sys_L_LobWait_W" = 10351.46   $ Sizing
 "ClCap_Sys_L_MechElec_C" = 2990.805   $ Sizing
 "ClCap_Sys_L_OfficeOpn_C" = 2570.552   $ Sizing
 "ClCap_Sys_L_OfficeOpn_E" = 16370.03   $ Sizing
 "ClCap_Sys_L_OfficeOpn_N" = 12728.93   $ Sizing
 "ClCap_Sys_L_OfficeOpn_S" = 16317.98   $ Sizing
 "ClCap_Sys_L_OfficeOpn_W" = 18025.69   $ Sizing
 "ClCap_Sys_L_OfficeSm_E" = 13631.56   $ Sizing
 "ClCap_Sys_L_OfficeSm_N" = 9935.338   $ Sizing
 "ClCap_Sys_L_OfficeSm_S" = 13712.82   $ Sizing
 "ClCap_Sys_L_OfficeSm_W" = 15200.9   $ Sizing
 "ClCap_Sys_L_Restrm_C" = 3392.503   $ Sizing
 "ClCap_Sys_L_StorSm_C" = 1422.482   $ Sizing
 "ClCap_Sys_L_StorSm_E" = 3737.834   $ Sizing
 "ClCap_Sys_L_StorSm_N" = 2349.59   $ Sizing
 "ClCap_Sys_L_StorSm_S" = 3722.317   $ Sizing
 "ClCap_Sys_L_StorSm_W" = 3949.25   $ Sizing
 "ClCap_Sys_T_Conf_C" = 12514.78   $ Sizing
 "ClCap_Sys_T_Hall_E" = 4119.42   $ Sizing
 "ClCap_Sys_T_Hall_N" = 2435.149   $ Sizing
 "ClCap_Sys_T_Hall_S" = 3992.493   $ Sizing
 "ClCap_Sys_T_Hall_W" = 4334.102   $ Sizing
 "ClCap_Sys_T_OfficeOpn_C" = 2527.595   $ Sizing
 "ClCap_Sys_T_OfficeOpn_E" = 17197.66   $ Sizing
 "ClCap_Sys_T_OfficeOpn_N" = 12994.59   $ Sizing
 "ClCap_Sys_T_OfficeOpn_S" = 17200.26   $ Sizing
 "ClCap_Sys_T_OfficeOpn_W" = 18575.44   $ Sizing
 "ClCap_Sys_T_OfficeSm_E" = 14402.85   $ Sizing
 "ClCap_Sys_T_OfficeSm_N" = 10261.88   $ Sizing
 "ClCap_Sys_T_OfficeSm_S" = 14530.79   $ Sizing
 "ClCap_Sys_T_OfficeSm_W" = 15752.78   $ Sizing
 "ClCap_Sys_T_Restrm_C" = 4795.93   $ Sizing
 "ClCap_Sys_T_StorSm_E" = 4341.32   $ Sizing
 "ClCap_Sys_T_StorSm_N" = 2734.582   $ Sizing
 "ClCap_Sys_T_StorSm_S" = 4265.402   $ Sizing
 "ClCap_Sys_T_StorSm_W" = 4648.629   $ Sizing
 "HtCap_Sys_L_Break_C" = -30568.67   $ Sizing
 "HtCap_Sys_L_CompDC_C" = -6425.087   $ Sizing
 "HtCap_Sys_L_Conf_C" = -18317.59   $ Sizing
 "HtCap_Sys_L_CopyRm_C" = -6363.976   $ Sizing
 "HtCap_Sys_L_Hall_E" = -4440.624   $ Sizing
 "HtCap_Sys_L_Hall_N" = -2738.901   $ Sizing
 "HtCap_Sys_L_Hall_S" = -4141.525   $ Sizing
 "HtCap_Sys_L_Hall_W" = -4280.588   $ Sizing
 "HtCap_Sys_L_LobWait_E" = -11037.56   $ Sizing
 "HtCap_Sys_L_LobWait_N" = -8878.12   $ Sizing
 "HtCap_Sys_L_LobWait_S" = -10823.9   $ Sizing
 "HtCap_Sys_L_LobWait_W" = -12012.03   $ Sizing
 "HtCap_Sys_L_MechElec_C" = -4339.1   $ Sizing
 "HtCap_Sys_L_OfficeOpn_C" = -3323.344   $ Sizing
 "HtCap_Sys_L_OfficeOpn_E" = -19206.29   $ Sizing
 "HtCap_Sys_L_OfficeOpn_N" = -15646.03   $ Sizing
 "HtCap_Sys_L_OfficeOpn_S" = -17658.8   $ Sizing
 "HtCap_Sys_L_OfficeOpn_W" = -19726.77   $ Sizing
 "HtCap_Sys_L_OfficeSm_E" = -15480.97   $ Sizing
 "HtCap_Sys_L_OfficeSm_N" = -11770.91   $ Sizing
 "HtCap_Sys_L_OfficeSm_S" = -14697.5   $ Sizing
 "HtCap_Sys_L_OfficeSm_W" = -15993.06   $ Sizing
 "HtCap_Sys_L_Restrm_C" = -3768.45   $ Sizing
 "HtCap_Sys_L_StorSm_C" = -1834.144   $ Sizing
 "HtCap_Sys_L_StorSm_E" = -4543.473   $ Sizing
 "HtCap_Sys_L_StorSm_N" = -3213.958   $ Sizing
 "HtCap_Sys_L_StorSm_S" = -4282.859   $ Sizing
 "HtCap_Sys_L_StorSm_W" = -4561.822   $ Sizing
 "HtCap_Sys_T_Conf_C" = -18447.2   $ Sizing
 "HtCap_Sys_T_Hall_E" = -5022.218   $ Sizing
 "HtCap_Sys_T_Hall_N" = -3268.832   $ Sizing
 "HtCap_Sys_T_Hall_S" = -4857.152   $ Sizing
 "HtCap_Sys_T_Hall_W" = -5163.806   $ Sizing
 "HtCap_Sys_T_OfficeOpn_C" = -3349.401   $ Sizing
 "HtCap_Sys_T_OfficeOpn_E" = -20909.85   $ Sizing
 "HtCap_Sys_T_OfficeOpn_N" = -17552.69   $ Sizing
 "HtCap_Sys_T_OfficeOpn_S" = -21058   $ Sizing
 "HtCap_Sys_T_OfficeOpn_W" = -22767.88   $ Sizing
 "HtCap_Sys_T_OfficeSm_E" = -16590.98   $ Sizing
 "HtCap_Sys_T_OfficeSm_N" = -13618.91   $ Sizing
 "HtCap_Sys_T_OfficeSm_S" = -17285.78   $ Sizing
 "HtCap_Sys_T_OfficeSm_W" = -18767.86   $ Sizing
 "HtCap_Sys_T_Restrm_C" = -5823.841   $ Sizing
 "HtCap_Sys_T_StorSm_E" = -5527.289   $ Sizing
 "HtCap_Sys_T_StorSm_N" = -4035.326   $ Sizing
 "HtCap_Sys_T_StorSm_S" = -5447.11   $ Sizing
 "HtCap_Sys_T_StorSm_W" = -5993.377   $ Sizing
..

##include Templates\OfS_DX_SZ.inp
END ..
COMPUTE ..
STOP ..
