This JJHirsch DOE-2.3-50i  was released in February 2018.

Start DOEBDL : Storage capacity =  75000000
Starting BDL   1
Finished BDL   1 : Memory (wds) = 13843512, clock time (secs) =     9.2
End   DOEBDL : Total elapsed time of      9.3 seconds
ERRORLEVEL=0 
