INPUT ..

##fileprefix C:\Users\jglasskatz\MASControl3\
##set1 IsSizing FALSE
##set1 CoolType DX
##set1 HeatType FURNACE
##set1 EU_HrRepVar 0
##set1 BldgVint 2007
##set1 BldgLoc CZ04

 ##set1 mBFMult 1   $ IP Tech: RefgChg-NRes-Std

PARAMETER
 "AltFactor" = 1.00501   $ IP Non-Tech
 "BF_fFlow" = SpltAC1Sp-ge45_BF_fFlow   $ Msr (Multi)TechID: StdNResSplitAC-45to55
 "BF_fT" = SpltAC1Sp-ge45_BF_fT   $ Msr (Multi)TechID: StdNResSplitAC-45to55
 "BldgEconoFlag" = 1   $ IP Non-Tech
 "Break_EWSF" = 1   $ IP Non-Tech
 "Break_LWSF" = 1.1   $ IP Non-Tech
 "CDD_DBHi10" = 82   $ IP Non-Tech
 "CDD_DBHi7" = 91   $ IP Non-Tech
 "CDD_DBHi8" = 88   $ IP Non-Tech
 "CDD_DBHi9" = 95   $ IP Non-Tech
 "CDD_DBRange10" = 29   $ IP Non-Tech
 "CDD_DBRange7" = 33   $ IP Non-Tech
 "CDD_DBRange8" = 27   $ IP Non-Tech
 "CDD_DBRange9" = 35   $ IP Non-Tech
 "CDD_Day10" = 15   $ IP Non-Tech
 "CDD_Day7" = 16   $ IP Non-Tech
 "CDD_Day8" = 20   $ IP Non-Tech
 "CDD_Day9" = 17   $ IP Non-Tech
 "CDD_HrHi10" = 13   $ IP Non-Tech
 "CDD_HrHi7" = 15   $ IP Non-Tech
 "CDD_HrHi8" = 14   $ IP Non-Tech
 "CDD_HrHi9" = 15   $ IP Non-Tech
 "CDD_HrLo10" = 3   $ IP Non-Tech
 "CDD_HrLo7" = 3   $ IP Non-Tech
 "CDD_HrLo8" = 1   $ IP Non-Tech
 "CDD_HrLo9" = 7   $ IP Non-Tech
 "CDD_WB10" = 63.1697731   $ IP Non-Tech
 "CDD_WB7" = 68.42946625   $ IP Non-Tech
 "CDD_WB8" = 67.10523987   $ IP Non-Tech
 "CDD_WB9" = 68.06200409   $ IP Non-Tech
 "CEIR_fPLR_Hot" = SpltAC1Sp-ge45_CEIR_fPLR_Hot   $ Msr (Multi)TechID: StdNResSplitAC-45to55
 "CEIR_fPLR_Mod" = SpltAC1Sp-ge45_CEIR_fPLR_Mod   $ Msr (Multi)TechID: StdNResSplitAC-45to55
 "CEIR_fPLR_Tem" = SpltAC1Sp-ge45_CEIR_fPLR_Tem   $ Msr (Multi)TechID: StdNResSplitAC-45to55
 "CLoss_fPLR_Hot" = SpltAC1Sp-ge45_CLoss_fPLR_Hot   $ Msr (Multi)TechID: StdNResSplitAC-45to55
 "CLoss_fPLR_Mod" = SpltAC1Sp-ge45_CLoss_fPLR_Mod   $ Msr (Multi)TechID: StdNResSplitAC-45to55
 "CLoss_fPLR_Tem" = SpltAC1Sp-ge45_CLoss_fPLR_Tem   $ Msr (Multi)TechID: StdNResSplitAC-45to55
 "COP47" = 0   $ Msr (Multi)TechID: StdNResSplitAC-45to55
 "CZ_Category" = Mod   $ IP Non-Tech
 "CapRange" = ge45   $ Msr (Multi)TechID: StdNResSplitAC-45to55
 "CfmPerBtuh" = 0.03263   $ Msr (Multi)TechID: StdNResSplitAC-45to55
 "ChwVintEconoFlag" = 1   $ IP Non-Tech
 "ClCap_fT" = SpltAC1Sp-ge45_ClCap_fT   $ Msr (Multi)TechID: StdNResSplitAC-45to55
 "ClSH_fT" = SpltAC1Sp-ge45_ClSH_fT   $ Msr (Multi)TechID: StdNResSplitAC-45to55
 "CoilBF" = 0.106518182   $ Msr (Multi)TechID: StdNResSplitAC-45to55
 "CompRoomData_EWSF" = 5   $ IP Non-Tech
 "CompRoomData_LWSF" = 1.2   $ IP Non-Tech
 "CondWPerBtuh" = 0   $ Msr (Multi)TechID: StdNResSplitAC-45to55
 "Conference_EWSF" = 1   $ IP Non-Tech
 "Conference_LWSF" = 1.4   $ IP Non-Tech
 "CoolSensCap" = 0.759218182   $ Msr (Multi)TechID: StdNResSplitAC-45to55
 "CoolSetT" = 45   $ IP Non-Tech
 "CoolType" = DX   $ IP Non-Tech
 "CoolingEIR" = 0.2466   $ Msr (Multi)TechID: StdNResSplitAC-45to55
 "CopyRoom_EWSF" = 1.5   $ IP Non-Tech
 "CopyRoom_LWSF" = 1.3   $ IP Non-Tech
 "CrnkEIR" = 0.002466   $ Msr (Multi)TechID: StdNResSplitAC-45to55
 "CrnkMaxT" = 50   $ Msr (Multi)TechID: StdNResSplitAC-45to55
 "DXType" = SplitSEER   $ Msr (Multi)TechID: StdNResSplitAC-45to55
 "DesCoolT" = 75   $ IP Non-Tech
 "DesHeatT" = 73   $ IP Non-Tech
 "EER" = 11.81793103   $ Msr (Multi)TechID: StdNResSplitAC-45to55
 "EIR_fT" = SpltAC1Sp-ge45_EIR_fT   $ Msr (Multi)TechID: StdNResSplitAC-45to55
 "EconoCtrl" = FIXED   $ Msr (Multi)TechID: StdNResSplitAC-45to55
 "EconoEnthLimit" = 28   $ IP Non-Tech
 "EconoTempLimit" = 73   $ IP Non-Tech
 "Elevation" = 135   $ IP Non-Tech
 "FanEirPlr" = TwoSpeedFan   $ Msr (Multi)TechID: StdNResSplitAC-45to55
 "FanWPerCfm" = 0.294   $ Msr (Multi)TechID: StdNResSplitAC-45to55
 "HDD_CloudAmt1" = 0   $ IP Non-Tech
 "HDD_DBHi1" = 57   $ IP Non-Tech
 "HDD_DBRange1" = 28.92485619   $ IP Non-Tech
 "HDD_Day1" = 15   $ IP Non-Tech
 "HDD_HrHi1" = 16   $ IP Non-Tech
 "HDD_HrLo1" = 4   $ IP Non-Tech
 "HDD_WB1" = 44.7   $ IP Non-Tech
 "HDD_WindSpd1" = 13.8   $ IP Non-Tech
 "HIR_fT" = 0   $ Msr (Multi)TechID: StdNResSplitAC-45to55
 "HSPF" = 0   $ Msr (Multi)TechID: StdNResSplitAC-45to55
 "Hall_EWSF" = 0.2   $ IP Non-Tech
 "Hall_LWSF" = 0.6   $ IP Non-Tech
 "HeatSrc" = FURNACE   $ IP Non-Tech
 "HeatSrcTU" = HEAT-PUMP   $ IP Non-Tech
 "HeatType" = GasFurn   $ IP Non-Tech
 "HeatTypeTU" = HEAT-PUMP   $ IP Non-Tech
 "HtCap_fT" = 0   $ Msr (Multi)TechID: StdNResSplitAC-45to55
 "HtCoolCapRatio" = 0   $ Msr (Multi)TechID: StdNResSplitAC-45to55
 "HtgEIR" = 0   $ Msr (Multi)TechID: StdNResSplitAC-45to55
 "IndoorFanMode" = CONTINUOUS   $ IP Non-Tech
 "KT_TransferAir" = No   $ IP Non-Tech
 "Latitude" = 37.4   $ IP Non-Tech
 "LobbyWaiting_EWSF" = 0.5   $ IP Non-Tech
 "LobbyWaiting_LWSF" = 1.3   $ IP Non-Tech
 "Longitude" = 122   $ IP Non-Tech
 "LowSpdCapRatio" = 1   $ Msr (Multi)TechID: StdNResSplitAC-45to55
 "LowSpdCfmRatio" = 1   $ Msr (Multi)TechID: StdNResSplitAC-45to55
 "MZFanMechEff" = 0.58   $ IP Non-Tech
 "MZHasRetFan" = FALSE   $ IP Non-Tech
 "MZ_RFanWPerCfm" = 0.33   $ IP Non-Tech
 "MZ_SFanWPerCfm" = 0.75   $ IP Non-Tech
 "MZ_SupFanStatic" = 2.25   $ IP Non-Tech
 "MaxOAFrac" = 1   $ Msr (Multi)TechID: StdNResSplitAC-45to55
 "MaxSupT_MZ" = 100   $ IP Non-Tech
 "MaxSupT_SZ" = 100   $ IP Non-Tech
 "MaxSupT_TU" = 90   $ IP Non-Tech
 "MechElecRoom_EWSF" = 0.2   $ IP Non-Tech
 "MechElecRoom_LWSF" = 0.7   $ IP Non-Tech
 "MinCfmPerSF" = 0.4   $ IP Non-Tech
 "MinSupT" = 55   $ IP Non-Tech
 "NumStages" = 1   $ Msr (Multi)TechID: StdNResSplitAC-45to55
 "OccCoolT" = 76   $ IP Non-Tech
 "OccHeatT" = 72   $ IP Non-Tech
 "OfficeOpen_EWSF" = 1.5   $ IP Non-Tech
 "OfficeOpen_LWSF" = 1.2   $ IP Non-Tech
 "OfficeSmall_EWSF" = 1.5   $ IP Non-Tech
 "OfficeSmall_LWSF" = 1.3   $ IP Non-Tech
 "PkgDxVintEconoFlag" = 0   $ IP Non-Tech
 "Restroom_EWSF" = 0.2   $ IP Non-Tech
 "Restroom_LWSF" = 0.6   $ IP Non-Tech
 "SEER" = 14   $ Msr (Multi)TechID: StdNResSplitAC-45to55
 "SZFanMechEff" = 0.58   $ IP Non-Tech
 "SZHasRetFan" = FALSE   $ IP Non-Tech
 "SZ_Is_2Spd" = FALSE   $ IP Non-Tech
 "SZ_SFanWPerCfm" = 0.46   $ IP Non-Tech
 "SZ_SupFanStatic" = 0.75   $ IP Non-Tech
 "Sector" = Any   $ Msr (Multi)TechID: StdNResSplitAC-45to55
 "StorageSmlCond_EWSF" = 0.2   $ IP Non-Tech
 "StorageSmlCond_LWSF" = 0.6   $ IP Non-Tech
 "SubType" = AC   $ Msr (Multi)TechID: StdNResSplitAC-45to55
 "T24GlzTbl" = CZTbl   $ IP Non-Tech
 "TermUnitFanMechEff" = 1   $ IP Non-Tech
 "TermUnitFanMode" = INTERMITTENT   $ IP Non-Tech
 "TotCoolCap" = 52519.36364   $ Msr (Multi)TechID: StdNResSplitAC-45to55
 "TwrSetpt" = 80   $ IP Non-Tech
 "UnocCoolT" = 86   $ IP Non-Tech
 "UnocHeatT" = 62   $ IP Non-Tech
 "UseEconoVintApplic" = FALSE   $ Msr (Multi)TechID: StdNResSplitAC-45to55
 "WlhpVintEconoFlag" = 0   $ IP Non-Tech
 "DuctDT" = 1   $ IP Tech: ComDuctInsul-1
 "DuctAirLoss" = 0   $ IP Tech: ComDuctLeak-0
 "DuctLossOAFrac" = 0   $ IP Tech: ComDuctLeak-0
 "ComRoofInsCalc" = FromUo   $ IP Tech: ComRoofIns-WFrm-0.05
 "ComRoofInsR" = -999   $ IP Tech: ComRoofIns-WFrm-0.05
 "ComRoofUo" = 0.05   $ IP Tech: ComRoofIns-WFrm-0.05
 "ComEWInsCalc" = FromUo   $ IP Tech: ComWallIns-WFrm-0.09
 "ComEWInsR" = -999   $ IP Tech: ComWallIns-WFrm-0.09
 "ComEWUo" = 0.09   $ IP Tech: ComWallIns-WFrm-0.09
 "ComN_SHGC" = 0.61   $ IP Tech: NResWin-ComN-0.77-0.61
 "ComN_UFactor" = 0.77   $ IP Tech: NResWin-ComN-0.77-0.61
 "ComN_VisTrans" = 0.77   $ IP Tech: NResWin-ComN-0.77-0.61
 "ComN_WinCode" = G2600   $ IP Tech: NResWin-ComN-0.77-0.61
 "ComN_WinFrmFrac" = 0.17   $ IP Tech: NResWin-ComN-0.77-0.61
 "ComN_WinFrmU" = 1   $ IP Tech: NResWin-ComN-0.77-0.61
 "ComO_SHGC" = 0.41   $ IP Tech: NResWin-ComO-0.77-0.41
 "ComO_UFactor" = 0.77   $ IP Tech: NResWin-ComO-0.77-0.41
 "ComO_VisTrans" = 0.44   $ IP Tech: NResWin-ComO-0.77-0.41
 "ComO_WinCode" = G2636   $ IP Tech: NResWin-ComO-0.77-0.41
 "ComO_WinFrmFrac" = 0.17   $ IP Tech: NResWin-ComO-0.77-0.41
 "ComO_WinFrmU" = 1   $ IP Tech: NResWin-ComO-0.77-0.41
 "LtgMsrApplic" = ALL   $ IP Tech: NonResLtgRefPre
 "LtgSav_CFL" = 0   $ IP Tech: NonResLtgRefPre
 "LtgSav_EX" = 0   $ IP Tech: NonResLtgRefPre
 "LtgSav_HB" = 0   $ IP Tech: NonResLtgRefPre
 "LtgSav_LF" = 0   $ IP Tech: NonResLtgRefPre
 "LtgSav_SP" = 0   $ IP Tech: NonResLtgRefPre
 "CEIR_fPLR" = PSZ65to135_CEIR_fPLR   $ IP Tech: PkgAC1SpH-65to135-E10
 "CLoss_fPLR" = PSZ65to135_CLoss_fPLR   $ IP Tech: PkgAC1SpH-65to135-E10
 "COP" = -1   $ IP Tech: PkgAC1SpH-65to135-E10
 "HtgFuel" = Gas   $ IP Tech: PkgAC1SpH-65to135-E10
 "IEER" = 11.87   $ IP Tech: PkgAC1SpH-65to135-E10
 "NominalCap" = 15   $ IP Tech: PkgAC1SpH-65to135-E10
 "RatedEER" = 10   $ IP Tech: PkgAC1SpH-65to135-E10
 "RatedSupMtrClass" = HiEff   $ IP Tech: PkgAC1SpH-65to135-E10
 "SizeRange" = 65to135   $ IP Tech: PkgAC1SpH-65to135-E10
 "SupMotEff" = 0.84   $ IP Tech: PkgAC1SpH-65to135-E10
 "Tier" = 0   $ IP Tech: PkgAC1SpH-65to135-E10
 "FanPwrMult" = 1   $ IP Tech: PkgFurn-0.80AFUE
 "FurnAFUE" = 0.8   $ IP Tech: PkgFurn-0.80AFUE
 "FurnEt" = 0.82   $ IP Tech: PkgFurn-0.80AFUE
 "FurnaceAuxKW" = 0.1   $ IP Tech: PkgFurn-0.80AFUE
 "HIR_fPLR" = Furnace-HIR-fPLR   $ IP Tech: PkgFurn-0.80AFUE
 "VSM" = FALSE   $ IP Tech: PkgFurn-0.80AFUE
 "BFMult" = 1   $ IP Tech: RefgChg-NRes-Std
 "CoolEirMult" = 1   $ IP Tech: RefgChg-NRes-Std
 "SensCoolCapMult" = 1   $ IP Tech: RefgChg-NRes-Std
 "TotCoolCapMult" = 1   $ IP Tech: RefgChg-NRes-Std
 "AltAdjFactor" = 1.005014   $ Sizing
 "CAssFlo_L_Break_CZn" = 385.3693   $ Sizing
 "CAssFlo_L_CompDC_CZn" = 136.8699   $ Sizing
 "CAssFlo_L_Conf_CZn" = 215.8344   $ Sizing
 "CAssFlo_L_CopyRm_CZn" = 79.60001   $ Sizing
 "CAssFlo_L_Hall_EZn" = 108.7525   $ Sizing
 "CAssFlo_L_Hall_NZn" = 57.76255   $ Sizing
 "CAssFlo_L_Hall_SZn" = 121.6582   $ Sizing
 "CAssFlo_L_Hall_WZn" = 125.9361   $ Sizing
 "CAssFlo_L_LobWait_EZn" = 249.0766   $ Sizing
 "CAssFlo_L_LobWait_NZn" = 154.0839   $ Sizing
 "CAssFlo_L_LobWait_SZn" = 296.9616   $ Sizing
 "CAssFlo_L_LobWait_WZn" = 317.0251   $ Sizing
 "CAssFlo_L_MechElec_CZn" = 48.38131   $ Sizing
 "CAssFlo_L_OfficeOpn_CZn" = 52.77102   $ Sizing
 "CAssFlo_L_OfficeOpn_EZn" = 463.5175   $ Sizing
 "CAssFlo_L_OfficeOpn_NZn" = 327.3913   $ Sizing
 "CAssFlo_L_OfficeOpn_SZn" = 507.1465   $ Sizing
 "CAssFlo_L_OfficeOpn_WZn" = 539.9507   $ Sizing
 "CAssFlo_L_OfficeSm_EZn" = 391.7268   $ Sizing
 "CAssFlo_L_OfficeSm_NZn" = 257.5947   $ Sizing
 "CAssFlo_L_OfficeSm_SZn" = 436.7579   $ Sizing
 "CAssFlo_L_OfficeSm_WZn" = 467.1996   $ Sizing
 "CAssFlo_L_Restrm_CZn" = 69.93943   $ Sizing
 "CAssFlo_L_StorSm_CZn" = 27.56526   $ Sizing
 "CAssFlo_L_StorSm_EZn" = 104.5833   $ Sizing
 "CAssFlo_L_StorSm_NZn" = 53.69   $ Sizing
 "CAssFlo_L_StorSm_SZn" = 117.4985   $ Sizing
 "CAssFlo_L_StorSm_WZn" = 117.0839   $ Sizing
 "CAssFlo_T_Conf_CZn" = 210.6332   $ Sizing
 "CAssFlo_T_Hall_EZn" = 120.2834   $ Sizing
 "CAssFlo_T_Hall_NZn" = 68.9219   $ Sizing
 "CAssFlo_T_Hall_SZn" = 138.6548   $ Sizing
 "CAssFlo_T_Hall_WZn" = 137.5724   $ Sizing
 "CAssFlo_T_OfficeOpn_CZn" = 52.52597   $ Sizing
 "CAssFlo_T_OfficeOpn_EZn" = 486.0113   $ Sizing
 "CAssFlo_T_OfficeOpn_NZn" = 351.7704   $ Sizing
 "CAssFlo_T_OfficeOpn_SZn" = 550.7195   $ Sizing
 "CAssFlo_T_OfficeOpn_WZn" = 560.1601   $ Sizing
 "CAssFlo_T_OfficeSm_EZn" = 414.6099   $ Sizing
 "CAssFlo_T_OfficeSm_NZn" = 281.1408   $ Sizing
 "CAssFlo_T_OfficeSm_SZn" = 476.2503   $ Sizing
 "CAssFlo_T_OfficeSm_WZn" = 486.5192   $ Sizing
 "CAssFlo_T_Restrm_CZn" = 102.5848   $ Sizing
 "CAssFlo_T_StorSm_EZn" = 120.9033   $ Sizing
 "CAssFlo_T_StorSm_NZn" = 69.8873   $ Sizing
 "CAssFlo_T_StorSm_SZn" = 140.3929   $ Sizing
 "CAssFlo_T_StorSm_WZn" = 140.6616   $ Sizing
 "CHRtFlo_Sys_L_Break_C" = 385.3693   $ Sizing
 "CHRtFlo_Sys_L_CompDC_C" = 171.6794   $ Sizing
 "CHRtFlo_Sys_L_Conf_C" = 228.3997   $ Sizing
 "CHRtFlo_Sys_L_CopyRm_C" = 80.48923   $ Sizing
 "CHRtFlo_Sys_L_Hall_E" = 142.2935   $ Sizing
 "CHRtFlo_Sys_L_Hall_N" = 62.16697   $ Sizing
 "CHRtFlo_Sys_L_Hall_S" = 151.6136   $ Sizing
 "CHRtFlo_Sys_L_Hall_W" = 146.4985   $ Sizing
 "CHRtFlo_Sys_L_LobWait_E" = 332.3913   $ Sizing
 "CHRtFlo_Sys_L_LobWait_N" = 154.0839   $ Sizing
 "CHRtFlo_Sys_L_LobWait_S" = 351.4888   $ Sizing
 "CHRtFlo_Sys_L_LobWait_W" = 343.6004   $ Sizing
 "CHRtFlo_Sys_L_MechElec_C" = 79.87933   $ Sizing
 "CHRtFlo_Sys_L_OfficeOpn_C" = 74.02255   $ Sizing
 "CHRtFlo_Sys_L_OfficeOpn_E" = 605.3853   $ Sizing
 "CHRtFlo_Sys_L_OfficeOpn_N" = 347.7291   $ Sizing
 "CHRtFlo_Sys_L_OfficeOpn_S" = 600.4857   $ Sizing
 "CHRtFlo_Sys_L_OfficeOpn_W" = 604.2614   $ Sizing
 "CHRtFlo_Sys_L_OfficeSm_E" = 516.8995   $ Sizing
 "CHRtFlo_Sys_L_OfficeSm_N" = 278.1086   $ Sizing
 "CHRtFlo_Sys_L_OfficeSm_S" = 531.6145   $ Sizing
 "CHRtFlo_Sys_L_OfficeSm_W" = 530.5133   $ Sizing
 "CHRtFlo_Sys_L_Restrm_C" = 85.85593   $ Sizing
 "CHRtFlo_Sys_L_StorSm_C" = 37.59241   $ Sizing
 "CHRtFlo_Sys_L_StorSm_E" = 137.7678   $ Sizing
 "CHRtFlo_Sys_L_StorSm_N" = 70.60507   $ Sizing
 "CHRtFlo_Sys_L_StorSm_S" = 142.1101   $ Sizing
 "CHRtFlo_Sys_L_StorSm_W" = 133.524   $ Sizing
 "CHRtFlo_Sys_T_Conf_C" = 222.8782   $ Sizing
 "CHRtFlo_Sys_T_Hall_E" = 147.5096   $ Sizing
 "CHRtFlo_Sys_T_Hall_N" = 68.9219   $ Sizing
 "CHRtFlo_Sys_T_Hall_S" = 163.1201   $ Sizing
 "CHRtFlo_Sys_T_Hall_W" = 153.0417   $ Sizing
 "CHRtFlo_Sys_T_OfficeOpn_C" = 68.79941   $ Sizing
 "CHRtFlo_Sys_T_OfficeOpn_E" = 585.1301   $ Sizing
 "CHRtFlo_Sys_T_OfficeOpn_N" = 351.7704   $ Sizing
 "CHRtFlo_Sys_T_OfficeOpn_S" = 621.6069   $ Sizing
 "CHRtFlo_Sys_T_OfficeOpn_W" = 585.0122   $ Sizing
 "CHRtFlo_Sys_T_OfficeSm_E" = 503.1747   $ Sizing
 "CHRtFlo_Sys_T_OfficeSm_N" = 281.5977   $ Sizing
 "CHRtFlo_Sys_T_OfficeSm_S" = 552.6064   $ Sizing
 "CHRtFlo_Sys_T_OfficeSm_W" = 518.6628   $ Sizing
 "CHRtFlo_Sys_T_Restrm_C" = 126.3005   $ Sizing
 "CHRtFlo_Sys_T_StorSm_E" = 145.3076   $ Sizing
 "CHRtFlo_Sys_T_StorSm_N" = 73.42355   $ Sizing
 "CHRtFlo_Sys_T_StorSm_S" = 156.6893   $ Sizing
 "CHRtFlo_Sys_T_StorSm_W" = 148.3803   $ Sizing
 "CRtdFlo_Sys_L_Break_C" = 385.3693   $ Sizing
 "CRtdFlo_Sys_L_CompDC_C" = 136.8699   $ Sizing
 "CRtdFlo_Sys_L_Conf_C" = 215.8344   $ Sizing
 "CRtdFlo_Sys_L_CopyRm_C" = 79.60001   $ Sizing
 "CRtdFlo_Sys_L_Hall_E" = 108.7525   $ Sizing
 "CRtdFlo_Sys_L_Hall_N" = 57.76255   $ Sizing
 "CRtdFlo_Sys_L_Hall_S" = 121.6582   $ Sizing
 "CRtdFlo_Sys_L_Hall_W" = 125.9361   $ Sizing
 "CRtdFlo_Sys_L_LobWait_E" = 249.0766   $ Sizing
 "CRtdFlo_Sys_L_LobWait_N" = 154.0839   $ Sizing
 "CRtdFlo_Sys_L_LobWait_S" = 296.9616   $ Sizing
 "CRtdFlo_Sys_L_LobWait_W" = 317.0251   $ Sizing
 "CRtdFlo_Sys_L_MechElec_C" = 48.38131   $ Sizing
 "CRtdFlo_Sys_L_OfficeOpn_C" = 52.77102   $ Sizing
 "CRtdFlo_Sys_L_OfficeOpn_E" = 463.5175   $ Sizing
 "CRtdFlo_Sys_L_OfficeOpn_N" = 327.3913   $ Sizing
 "CRtdFlo_Sys_L_OfficeOpn_S" = 507.1465   $ Sizing
 "CRtdFlo_Sys_L_OfficeOpn_W" = 539.9507   $ Sizing
 "CRtdFlo_Sys_L_OfficeSm_E" = 391.7268   $ Sizing
 "CRtdFlo_Sys_L_OfficeSm_N" = 257.5947   $ Sizing
 "CRtdFlo_Sys_L_OfficeSm_S" = 436.7579   $ Sizing
 "CRtdFlo_Sys_L_OfficeSm_W" = 467.1996   $ Sizing
 "CRtdFlo_Sys_L_Restrm_C" = 69.93942   $ Sizing
 "CRtdFlo_Sys_L_StorSm_C" = 27.56526   $ Sizing
 "CRtdFlo_Sys_L_StorSm_E" = 104.5833   $ Sizing
 "CRtdFlo_Sys_L_StorSm_N" = 53.69001   $ Sizing
 "CRtdFlo_Sys_L_StorSm_S" = 117.4985   $ Sizing
 "CRtdFlo_Sys_L_StorSm_W" = 117.0839   $ Sizing
 "CRtdFlo_Sys_T_Conf_C" = 210.6332   $ Sizing
 "CRtdFlo_Sys_T_Hall_E" = 120.2834   $ Sizing
 "CRtdFlo_Sys_T_Hall_N" = 68.9219   $ Sizing
 "CRtdFlo_Sys_T_Hall_S" = 138.6548   $ Sizing
 "CRtdFlo_Sys_T_Hall_W" = 137.5724   $ Sizing
 "CRtdFlo_Sys_T_OfficeOpn_C" = 52.52597   $ Sizing
 "CRtdFlo_Sys_T_OfficeOpn_E" = 486.0113   $ Sizing
 "CRtdFlo_Sys_T_OfficeOpn_N" = 351.7704   $ Sizing
 "CRtdFlo_Sys_T_OfficeOpn_S" = 550.7195   $ Sizing
 "CRtdFlo_Sys_T_OfficeOpn_W" = 560.1601   $ Sizing
 "CRtdFlo_Sys_T_OfficeSm_E" = 414.6099   $ Sizing
 "CRtdFlo_Sys_T_OfficeSm_N" = 281.1408   $ Sizing
 "CRtdFlo_Sys_T_OfficeSm_S" = 476.2503   $ Sizing
 "CRtdFlo_Sys_T_OfficeSm_W" = 486.5192   $ Sizing
 "CRtdFlo_Sys_T_Restrm_C" = 102.5848   $ Sizing
 "CRtdFlo_Sys_T_StorSm_E" = 120.9033   $ Sizing
 "CRtdFlo_Sys_T_StorSm_N" = 69.8873   $ Sizing
 "CRtdFlo_Sys_T_StorSm_S" = 140.3929   $ Sizing
 "CRtdFlo_Sys_T_StorSm_W" = 140.6616   $ Sizing
 "CSupFlo_Sys_L_Break_C" = 385.3693   $ Sizing
 "CSupFlo_Sys_L_CompDC_C" = 136.8699   $ Sizing
 "CSupFlo_Sys_L_Conf_C" = 215.8344   $ Sizing
 "CSupFlo_Sys_L_CopyRm_C" = 79.60001   $ Sizing
 "CSupFlo_Sys_L_Hall_E" = 108.7525   $ Sizing
 "CSupFlo_Sys_L_Hall_N" = 57.76255   $ Sizing
 "CSupFlo_Sys_L_Hall_S" = 121.6582   $ Sizing
 "CSupFlo_Sys_L_Hall_W" = 125.9361   $ Sizing
 "CSupFlo_Sys_L_LobWait_E" = 249.0766   $ Sizing
 "CSupFlo_Sys_L_LobWait_N" = 154.0839   $ Sizing
 "CSupFlo_Sys_L_LobWait_S" = 296.9616   $ Sizing
 "CSupFlo_Sys_L_LobWait_W" = 317.0251   $ Sizing
 "CSupFlo_Sys_L_MechElec_C" = 48.38131   $ Sizing
 "CSupFlo_Sys_L_OfficeOpn_C" = 52.77102   $ Sizing
 "CSupFlo_Sys_L_OfficeOpn_E" = 463.5175   $ Sizing
 "CSupFlo_Sys_L_OfficeOpn_N" = 327.3913   $ Sizing
 "CSupFlo_Sys_L_OfficeOpn_S" = 507.1465   $ Sizing
 "CSupFlo_Sys_L_OfficeOpn_W" = 539.9507   $ Sizing
 "CSupFlo_Sys_L_OfficeSm_E" = 391.7268   $ Sizing
 "CSupFlo_Sys_L_OfficeSm_N" = 257.5947   $ Sizing
 "CSupFlo_Sys_L_OfficeSm_S" = 436.7579   $ Sizing
 "CSupFlo_Sys_L_OfficeSm_W" = 467.1996   $ Sizing
 "CSupFlo_Sys_L_Restrm_C" = 69.93942   $ Sizing
 "CSupFlo_Sys_L_StorSm_C" = 27.56526   $ Sizing
 "CSupFlo_Sys_L_StorSm_E" = 104.5833   $ Sizing
 "CSupFlo_Sys_L_StorSm_N" = 53.69001   $ Sizing
 "CSupFlo_Sys_L_StorSm_S" = 117.4985   $ Sizing
 "CSupFlo_Sys_L_StorSm_W" = 117.0839   $ Sizing
 "CSupFlo_Sys_T_Conf_C" = 210.6332   $ Sizing
 "CSupFlo_Sys_T_Hall_E" = 120.2834   $ Sizing
 "CSupFlo_Sys_T_Hall_N" = 68.9219   $ Sizing
 "CSupFlo_Sys_T_Hall_S" = 138.6548   $ Sizing
 "CSupFlo_Sys_T_Hall_W" = 137.5724   $ Sizing
 "CSupFlo_Sys_T_OfficeOpn_C" = 52.52597   $ Sizing
 "CSupFlo_Sys_T_OfficeOpn_E" = 486.0113   $ Sizing
 "CSupFlo_Sys_T_OfficeOpn_N" = 351.7704   $ Sizing
 "CSupFlo_Sys_T_OfficeOpn_S" = 550.7195   $ Sizing
 "CSupFlo_Sys_T_OfficeOpn_W" = 560.1601   $ Sizing
 "CSupFlo_Sys_T_OfficeSm_E" = 414.6099   $ Sizing
 "CSupFlo_Sys_T_OfficeSm_N" = 281.1408   $ Sizing
 "CSupFlo_Sys_T_OfficeSm_S" = 476.2503   $ Sizing
 "CSupFlo_Sys_T_OfficeSm_W" = 486.5192   $ Sizing
 "CSupFlo_Sys_T_Restrm_C" = 102.5848   $ Sizing
 "CSupFlo_Sys_T_StorSm_E" = 120.9033   $ Sizing
 "CSupFlo_Sys_T_StorSm_N" = 69.8873   $ Sizing
 "CSupFlo_Sys_T_StorSm_S" = 140.3929   $ Sizing
 "CSupFlo_Sys_T_StorSm_W" = 140.6616   $ Sizing
 "ClCap_Sys_L_Break_C" = 13146.74   $ Sizing
 "ClCap_Sys_L_CompDC_C" = 4669.272   $ Sizing
 "ClCap_Sys_L_Conf_C" = 9371.242   $ Sizing
 "ClCap_Sys_L_CopyRm_C" = 2715.528   $ Sizing
 "ClCap_Sys_L_Hall_E" = 3710.055   $ Sizing
 "ClCap_Sys_L_Hall_N" = 1970.55   $ Sizing
 "ClCap_Sys_L_Hall_S" = 4150.328   $ Sizing
 "ClCap_Sys_L_Hall_W" = 4296.269   $ Sizing
 "ClCap_Sys_L_LobWait_E" = 8497.163   $ Sizing
 "ClCap_Sys_L_LobWait_N" = 5256.521   $ Sizing
 "ClCap_Sys_L_LobWait_S" = 10130.75   $ Sizing
 "ClCap_Sys_L_LobWait_W" = 10815.21   $ Sizing
 "ClCap_Sys_L_MechElec_C" = 1650.512   $ Sizing
 "ClCap_Sys_L_OfficeOpn_C" = 1800.266   $ Sizing
 "ClCap_Sys_L_OfficeOpn_E" = 15812.74   $ Sizing
 "ClCap_Sys_L_OfficeOpn_N" = 11168.85   $ Sizing
 "ClCap_Sys_L_OfficeOpn_S" = 17301.13   $ Sizing
 "ClCap_Sys_L_OfficeOpn_W" = 18420.24   $ Sizing
 "ClCap_Sys_L_OfficeSm_E" = 13363.63   $ Sizing
 "ClCap_Sys_L_OfficeSm_N" = 8787.757   $ Sizing
 "ClCap_Sys_L_OfficeSm_S" = 14899.85   $ Sizing
 "ClCap_Sys_L_OfficeSm_W" = 15938.36   $ Sizing
 "ClCap_Sys_L_Restrm_C" = 2385.96   $ Sizing
 "ClCap_Sys_L_StorSm_C" = 940.3796   $ Sizing
 "ClCap_Sys_L_StorSm_E" = 3567.824   $ Sizing
 "ClCap_Sys_L_StorSm_N" = 1831.617   $ Sizing
 "ClCap_Sys_L_StorSm_S" = 4008.422   $ Sizing
 "ClCap_Sys_L_StorSm_W" = 3994.278   $ Sizing
 "ClCap_Sys_T_Conf_C" = 9145.414   $ Sizing
 "ClCap_Sys_T_Hall_E" = 4103.429   $ Sizing
 "ClCap_Sys_T_Hall_N" = 2351.248   $ Sizing
 "ClCap_Sys_T_Hall_S" = 4730.162   $ Sizing
 "ClCap_Sys_T_Hall_W" = 4693.236   $ Sizing
 "ClCap_Sys_T_OfficeOpn_C" = 1791.906   $ Sizing
 "ClCap_Sys_T_OfficeOpn_E" = 16580.11   $ Sizing
 "ClCap_Sys_T_OfficeOpn_N" = 12000.53   $ Sizing
 "ClCap_Sys_T_OfficeOpn_S" = 18787.61   $ Sizing
 "ClCap_Sys_T_OfficeOpn_W" = 19109.67   $ Sizing
 "ClCap_Sys_T_OfficeSm_E" = 14144.28   $ Sizing
 "ClCap_Sys_T_OfficeSm_N" = 9591.024   $ Sizing
 "ClCap_Sys_T_OfficeSm_S" = 16247.12   $ Sizing
 "ClCap_Sys_T_OfficeSm_W" = 16597.44   $ Sizing
 "ClCap_Sys_T_Restrm_C" = 3499.646   $ Sizing
 "ClCap_Sys_T_StorSm_E" = 4124.577   $ Sizing
 "ClCap_Sys_T_StorSm_N" = 2384.182   $ Sizing
 "ClCap_Sys_T_StorSm_S" = 4789.457   $ Sizing
 "ClCap_Sys_T_StorSm_W" = 4798.625   $ Sizing
 "HtCap_Sys_L_Break_C" = -22671.36   $ Sizing
 "HtCap_Sys_L_CompDC_C" = -6259.884   $ Sizing
 "HtCap_Sys_L_Conf_C" = -13978.84   $ Sizing
 "HtCap_Sys_L_CopyRm_C" = -4938.721   $ Sizing
 "HtCap_Sys_L_Hall_E" = -5084.622   $ Sizing
 "HtCap_Sys_L_Hall_N" = -2477.894   $ Sizing
 "HtCap_Sys_L_Hall_S" = -5233.217   $ Sizing
 "HtCap_Sys_L_Hall_W" = -5112.598   $ Sizing
 "HtCap_Sys_L_LobWait_E" = -12451.44   $ Sizing
 "HtCap_Sys_L_LobWait_N" = -7110.195   $ Sizing
 "HtCap_Sys_L_LobWait_S" = -13003.39   $ Sizing
 "HtCap_Sys_L_LobWait_W" = -12864.46   $ Sizing
 "HtCap_Sys_L_MechElec_C" = -3516.215   $ Sizing
 "HtCap_Sys_L_OfficeOpn_C" = -2928.64   $ Sizing
 "HtCap_Sys_L_OfficeOpn_E" = -21675.79   $ Sizing
 "HtCap_Sys_L_OfficeOpn_N" = -14193.07   $ Sizing
 "HtCap_Sys_L_OfficeOpn_S" = -21075.67   $ Sizing
 "HtCap_Sys_L_OfficeOpn_W" = -21761.61   $ Sizing
 "HtCap_Sys_L_OfficeSm_E" = -17989.31   $ Sizing
 "HtCap_Sys_L_OfficeSm_N" = -10986   $ Sizing
 "HtCap_Sys_L_OfficeSm_S" = -17910.78   $ Sizing
 "HtCap_Sys_L_OfficeSm_W" = -18522.13   $ Sizing
 "HtCap_Sys_L_Restrm_C" = -3124.718   $ Sizing
 "HtCap_Sys_L_StorSm_C" = -1562.039   $ Sizing
 "HtCap_Sys_L_StorSm_E" = -5090.848   $ Sizing
 "HtCap_Sys_L_StorSm_N" = -3062.702   $ Sizing
 "HtCap_Sys_L_StorSm_S" = -5196.442   $ Sizing
 "HtCap_Sys_L_StorSm_W" = -4999.904   $ Sizing
 "HtCap_Sys_T_Conf_C" = -14067.52   $ Sizing
 "HtCap_Sys_T_Hall_E" = -5748.899   $ Sizing
 "HtCap_Sys_T_Hall_N" = -3054.2   $ Sizing
 "HtCap_Sys_T_Hall_S" = -6275.639   $ Sizing
 "HtCap_Sys_T_Hall_W" = -5934.365   $ Sizing
 "HtCap_Sys_T_OfficeOpn_C" = -3053.372   $ Sizing
 "HtCap_Sys_T_OfficeOpn_E" = -23335.33   $ Sizing
 "HtCap_Sys_T_OfficeOpn_N" = -15532.36   $ Sizing
 "HtCap_Sys_T_OfficeOpn_S" = -24368.68   $ Sizing
 "HtCap_Sys_T_OfficeOpn_W" = -23323.53   $ Sizing
 "HtCap_Sys_T_OfficeSm_E" = -19593.75   $ Sizing
 "HtCap_Sys_T_OfficeSm_N" = -12182.34   $ Sizing
 "HtCap_Sys_T_OfficeSm_S" = -20919.41   $ Sizing
 "HtCap_Sys_T_OfficeSm_W" = -20088.39   $ Sizing
 "HtCap_Sys_T_Restrm_C" = -4959.83   $ Sizing
 "HtCap_Sys_T_StorSm_E" = -6073.338   $ Sizing
 "HtCap_Sys_T_StorSm_N" = -3611.742   $ Sizing
 "HtCap_Sys_T_StorSm_S" = -6338.028   $ Sizing
 "HtCap_Sys_T_StorSm_W" = -6169.047   $ Sizing
..

##include Templates\OfS_DX_SZ.inp
END ..
COMPUTE ..
STOP ..
