INPUT ..

##fileprefix C:\Users\jglasskatz\MASControl3\
##set1 IsSizing FALSE
##set1 CoolType DX
##set1 HeatType FURNACE
##set1 EU_HrRepVar 1
##set1 BldgVint 2015
##set1 BldgLoc CZ01

 ##set1 mBFMult 1   $ IP Tech: RefgChg-NRes-Std

PARAMETER
 "AltFactor" = 1.00753   $ IP Non-Tech
 "BldgEconoFlag" = 1   $ IP Non-Tech
 "Break_EWSF" = 1   $ IP Non-Tech
 "Break_LWSF" = 1.1   $ IP Non-Tech
 "CDD_DBHi10" = 65   $ IP Non-Tech
 "CDD_DBHi7" = 68   $ IP Non-Tech
 "CDD_DBHi8" = 66   $ IP Non-Tech
 "CDD_DBHi9" = 77   $ IP Non-Tech
 "CDD_DBRange10" = 17   $ IP Non-Tech
 "CDD_DBRange7" = 11   $ IP Non-Tech
 "CDD_DBRange8" = 10   $ IP Non-Tech
 "CDD_DBRange9" = 29   $ IP Non-Tech
 "CDD_Day10" = 15   $ IP Non-Tech
 "CDD_Day7" = 16   $ IP Non-Tech
 "CDD_Day8" = 20   $ IP Non-Tech
 "CDD_Day9" = 17   $ IP Non-Tech
 "CDD_HrHi10" = 12   $ IP Non-Tech
 "CDD_HrHi7" = 12   $ IP Non-Tech
 "CDD_HrHi8" = 13   $ IP Non-Tech
 "CDD_HrHi9" = 17   $ IP Non-Tech
 "CDD_HrLo10" = 6   $ IP Non-Tech
 "CDD_HrLo7" = 3   $ IP Non-Tech
 "CDD_HrLo8" = 8   $ IP Non-Tech
 "CDD_HrLo9" = 4   $ IP Non-Tech
 "CDD_WB10" = 57.53039551   $ IP Non-Tech
 "CDD_WB7" = 59.29250717   $ IP Non-Tech
 "CDD_WB8" = 60.75350189   $ IP Non-Tech
 "CDD_WB9" = 61.08643341   $ IP Non-Tech
 "CZ_Category" = Tem   $ IP Non-Tech
 "ChwVintEconoFlag" = 1   $ IP Non-Tech
 "CompRoomData_EWSF" = 5   $ IP Non-Tech
 "CompRoomData_LWSF" = 1.05   $ IP Non-Tech
 "Conference_EWSF" = 1   $ IP Non-Tech
 "Conference_LWSF" = 1.4   $ IP Non-Tech
 "CoolSetT" = 45   $ IP Non-Tech
 "CoolType" = DX   $ IP Non-Tech
 "CopyRoom_EWSF" = 1.5   $ IP Non-Tech
 "CopyRoom_LWSF" = 1.3   $ IP Non-Tech
 "DesCoolT" = 75   $ IP Non-Tech
 "DesHeatT" = 73   $ IP Non-Tech
 "EconoEnthLimit" = 28   $ IP Non-Tech
 "EconoTempLimit" = 70   $ IP Non-Tech
 "Elevation" = 203   $ IP Non-Tech
 "HDD_CloudAmt1" = 0   $ IP Non-Tech
 "HDD_DBHi1" = 53   $ IP Non-Tech
 "HDD_DBRange1" = 20   $ IP Non-Tech
 "HDD_Day1" = 15   $ IP Non-Tech
 "HDD_HrHi1" = 14   $ IP Non-Tech
 "HDD_HrLo1" = 6   $ IP Non-Tech
 "HDD_WB1" = 42.3   $ IP Non-Tech
 "HDD_WindSpd1" = 12.7   $ IP Non-Tech
 "Hall_EWSF" = 0.2   $ IP Non-Tech
 "Hall_LWSF" = 0.6   $ IP Non-Tech
 "HeatSrc" = FURNACE   $ IP Non-Tech
 "HeatSrcTU" = HEAT-PUMP   $ IP Non-Tech
 "HeatType" = GasFurn   $ IP Non-Tech
 "HeatTypeTU" = HEAT-PUMP   $ IP Non-Tech
 "IndoorFanMode" = CONTINUOUS   $ IP Non-Tech
 "KT_TransferAir" = Yes   $ IP Non-Tech
 "Latitude" = 40.8   $ IP Non-Tech
 "LobbyWaiting_EWSF" = 0.5   $ IP Non-Tech
 "LobbyWaiting_LWSF" = 1.3   $ IP Non-Tech
 "Longitude" = 124.2   $ IP Non-Tech
 "LtgMsrApplic" = ALL   $ Msr TechID: NonResLtgRefMsr-CFL
 "LtgSav_CFL" = 0.3   $ Msr TechID: NonResLtgRefMsr-CFL
 "LtgSav_EX" = 0   $ Msr TechID: NonResLtgRefMsr-CFL
 "LtgSav_HB" = 0   $ Msr TechID: NonResLtgRefMsr-CFL
 "LtgSav_LF" = 0   $ Msr TechID: NonResLtgRefMsr-CFL
 "LtgSav_SP" = 0   $ Msr TechID: NonResLtgRefMsr-CFL
 "MZFanMechEff" = 0.58   $ IP Non-Tech
 "MZHasRetFan" = FALSE   $ IP Non-Tech
 "MZ_RFanWPerCfm" = 0.33   $ IP Non-Tech
 "MZ_SFanWPerCfm" = 0.75   $ IP Non-Tech
 "MZ_SupFanStatic" = 2.25   $ IP Non-Tech
 "MaxSupT_MZ" = 100   $ IP Non-Tech
 "MaxSupT_SZ" = 100   $ IP Non-Tech
 "MaxSupT_TU" = 90   $ IP Non-Tech
 "MechElecRoom_EWSF" = 0.2   $ IP Non-Tech
 "MechElecRoom_LWSF" = 0.7   $ IP Non-Tech
 "MinCfmPerSF" = 0.4   $ IP Non-Tech
 "MinSupT" = 55   $ IP Non-Tech
 "OccCoolT" = 76   $ IP Non-Tech
 "OccHeatT" = 72   $ IP Non-Tech
 "OfficeOpen_EWSF" = 1.5   $ IP Non-Tech
 "OfficeOpen_LWSF" = 1.05   $ IP Non-Tech
 "OfficeSmall_EWSF" = 1.5   $ IP Non-Tech
 "OfficeSmall_LWSF" = 1.3   $ IP Non-Tech
 "PkgDxVintEconoFlag" = 1   $ IP Non-Tech
 "Restroom_EWSF" = 0.2   $ IP Non-Tech
 "Restroom_LWSF" = 0.6   $ IP Non-Tech
 "SZFanMechEff" = 0.58   $ IP Non-Tech
 "SZHasRetFan" = FALSE   $ IP Non-Tech
 "SZ_Is_2Spd" = TRUE   $ IP Non-Tech
 "SZ_SFanWPerCfm" = 0.46   $ IP Non-Tech
 "SZ_SupFanStatic" = 0.75   $ IP Non-Tech
 "StorageSmlCond_EWSF" = 0.2   $ IP Non-Tech
 "StorageSmlCond_LWSF" = 0.6   $ IP Non-Tech
 "T24GlzTbl" = TypeTbl   $ IP Non-Tech
 "TermUnitFanMechEff" = 1   $ IP Non-Tech
 "TermUnitFanMode" = INTERMITTENT   $ IP Non-Tech
 "TwrSetpt" = 80   $ IP Non-Tech
 "UnocCoolT" = 86   $ IP Non-Tech
 "UnocHeatT" = 62   $ IP Non-Tech
 "WlhpVintEconoFlag" = 1   $ IP Non-Tech
 "EconoCtrl" = OA-TEMP   $ IP Tech: AirEcono-OATemp
 "MaxOAFrac" = 0.85   $ IP Tech: AirEcono-OATemp
 "UseEconoVintApplic" = FALSE   $ IP Tech: AirEcono-OATemp
 "DuctDT" = 1   $ IP Tech: ComDuctInsul-1
 "DuctAirLoss" = 0   $ IP Tech: ComDuctLeak-0
 "DuctLossOAFrac" = 0   $ IP Tech: ComDuctLeak-0
 "ComRoofInsCalc" = FromUo   $ IP Tech: ComRoofIns-WFrm-0.05
 "ComRoofInsR" = -999   $ IP Tech: ComRoofIns-WFrm-0.05
 "ComRoofUo" = 0.05   $ IP Tech: ComRoofIns-WFrm-0.05
 "ComEWInsCalc" = FromUo   $ IP Tech: ComWallIns-WFrm-0.08
 "ComEWInsR" = -999   $ IP Tech: ComWallIns-WFrm-0.08
 "ComEWUo" = 0.08   $ IP Tech: ComWallIns-WFrm-0.08
 "ComN_SHGC" = 0.25   $ IP Tech: NResWin-ComN-0.36-0.25
 "ComN_UFactor" = 0.36   $ IP Tech: NResWin-ComN-0.36-0.25
 "ComN_VisTrans" = 0.41   $ IP Tech: NResWin-ComN-0.36-0.25
 "ComN_WinCode" = G2668   $ IP Tech: NResWin-ComN-0.36-0.25
 "ComN_WinFrmFrac" = 0.17   $ IP Tech: NResWin-ComN-0.36-0.25
 "ComN_WinFrmU" = 0.3   $ IP Tech: NResWin-ComN-0.36-0.25
 "ComO_SHGC" = 0.25   $ IP Tech: NResWin-ComO-0.36-0.25
 "ComO_UFactor" = 0.36   $ IP Tech: NResWin-ComO-0.36-0.25
 "ComO_VisTrans" = 0.41   $ IP Tech: NResWin-ComO-0.36-0.25
 "ComO_WinCode" = G2668   $ IP Tech: NResWin-ComO-0.36-0.25
 "ComO_WinFrmFrac" = 0.17   $ IP Tech: NResWin-ComO-0.36-0.25
 "ComO_WinFrmU" = 0.3   $ IP Tech: NResWin-ComO-0.36-0.25
 "BF_fFlow" = PSZ65to135_BF_fFlow   $ IP Tech: PkgAC2SpP-65to135-E11
 "BF_fT" = PSZ65to135_BF_fT   $ IP Tech: PkgAC2SpP-65to135-E11
 "CEIR_fPLR" = PSZ65to135_CEIR_fPLR   $ IP Tech: PkgAC2SpP-65to135-E11
 "CLoss_fPLR" = PSZ65to135_CLoss_fPLR   $ IP Tech: PkgAC2SpP-65to135-E11
 "COP" = -1   $ IP Tech: PkgAC2SpP-65to135-E11
 "COP47" = -1   $ IP Tech: PkgAC2SpP-65to135-E11
 "CfmPerBtuh" = 0.02917   $ IP Tech: PkgAC2SpP-65to135-E11
 "ClCap_fT" = PSZ65to135_ClCap_fT   $ IP Tech: PkgAC2SpP-65to135-E11
 "ClSH_fT" = PSZ65to135_ClSH_fT   $ IP Tech: PkgAC2SpP-65to135-E11
 "CoilBF" = 0.114   $ IP Tech: PkgAC2SpP-65to135-E11
 "CondWPerBtuh" = 0   $ IP Tech: PkgAC2SpP-65to135-E11
 "CoolSensCap" = 0.663   $ IP Tech: PkgAC2SpP-65to135-E11
 "CoolingEIR" = 0.26817   $ IP Tech: PkgAC2SpP-65to135-E11
 "CrnkEIR" = 0.0027   $ IP Tech: PkgAC2SpP-65to135-E11
 "CrnkMaxT" = 50   $ IP Tech: PkgAC2SpP-65to135-E11
 "DXType" = Pkg   $ IP Tech: PkgAC2SpP-65to135-E11
 "EER" = 10.64   $ IP Tech: PkgAC2SpP-65to135-E11
 "EIR_fT" = PSZ65to135_EIR_fT   $ IP Tech: PkgAC2SpP-65to135-E11
 "FanEirPlr" = TwoSpeedFan   $ IP Tech: PkgAC2SpP-65to135-E11
 "FanWPerCfm" = 0.4   $ IP Tech: PkgAC2SpP-65to135-E11
 "HIR_fT" = DEFAULT   $ IP Tech: PkgAC2SpP-65to135-E11
 "HtCap_fT" = DEFAULT   $ IP Tech: PkgAC2SpP-65to135-E11
 "HtCoolCapRatio" = -1   $ IP Tech: PkgAC2SpP-65to135-E11
 "HtgEIR" = -1   $ IP Tech: PkgAC2SpP-65to135-E11
 "HtgFuel" = Gas   $ IP Tech: PkgAC2SpP-65to135-E11
 "IEER" = 13.35   $ IP Tech: PkgAC2SpP-65to135-E11
 "LowSpdCapRatio" = 0.5   $ IP Tech: PkgAC2SpP-65to135-E11
 "LowSpdCfmRatio" = 0.66   $ IP Tech: PkgAC2SpP-65to135-E11
 "NominalCap" = 15   $ IP Tech: PkgAC2SpP-65to135-E11
 "NumStages" = 2   $ IP Tech: PkgAC2SpP-65to135-E11
 "RatedEER" = 11   $ IP Tech: PkgAC2SpP-65to135-E11
 "RatedSupMtrClass" = Premium   $ IP Tech: PkgAC2SpP-65to135-E11
 "SizeRange" = 65to135   $ IP Tech: PkgAC2SpP-65to135-E11
 "SubType" = AC   $ IP Tech: PkgAC2SpP-65to135-E11
 "SupMotEff" = 0.865   $ IP Tech: PkgAC2SpP-65to135-E11
 "Tier" = 0   $ IP Tech: PkgAC2SpP-65to135-E11
 "TotCoolCap" = 184140   $ IP Tech: PkgAC2SpP-65to135-E11
 "FanPwrMult" = 1   $ IP Tech: PkgFurn-0.80AFUE
 "FurnAFUE" = 0.8   $ IP Tech: PkgFurn-0.80AFUE
 "FurnEt" = 0.82   $ IP Tech: PkgFurn-0.80AFUE
 "FurnaceAuxKW" = 0.1   $ IP Tech: PkgFurn-0.80AFUE
 "HIR_fPLR" = Furnace-HIR-fPLR   $ IP Tech: PkgFurn-0.80AFUE
 "VSM" = FALSE   $ IP Tech: PkgFurn-0.80AFUE
 "BFMult" = 1   $ IP Tech: RefgChg-NRes-Std
 "CoolEirMult" = 1   $ IP Tech: RefgChg-NRes-Std
 "SensCoolCapMult" = 1   $ IP Tech: RefgChg-NRes-Std
 "TotCoolCapMult" = 1   $ IP Tech: RefgChg-NRes-Std
 "AltAdjFactor" = 1.007532   $ Sizing
 "CAssFlo_L_Break_CZn" = 278.9655   $ Sizing
 "CAssFlo_L_CompDC_CZn" = 159.9459   $ Sizing
 "CAssFlo_L_Conf_CZn" = 202.8256   $ Sizing
 "CAssFlo_L_CopyRm_CZn" = 58.20412   $ Sizing
 "CAssFlo_L_Hall_EZn" = 79.90035   $ Sizing
 "CAssFlo_L_Hall_NZn" = 47.60686   $ Sizing
 "CAssFlo_L_Hall_SZn" = 93.35451   $ Sizing
 "CAssFlo_L_Hall_WZn" = 85.0422   $ Sizing
 "CAssFlo_L_LobWait_EZn" = 203.9778   $ Sizing
 "CAssFlo_L_LobWait_NZn" = 102.8351   $ Sizing
 "CAssFlo_L_LobWait_SZn" = 220.8425   $ Sizing
 "CAssFlo_L_LobWait_WZn" = 200.3562   $ Sizing
 "CAssFlo_L_MechElec_CZn" = 65.93681   $ Sizing
 "CAssFlo_L_OfficeOpn_CZn" = 58.28389   $ Sizing
 "CAssFlo_L_OfficeOpn_EZn" = 437.8868   $ Sizing
 "CAssFlo_L_OfficeOpn_NZn" = 197.303   $ Sizing
 "CAssFlo_L_OfficeOpn_SZn" = 435.5313   $ Sizing
 "CAssFlo_L_OfficeOpn_WZn" = 406.4942   $ Sizing
 "CAssFlo_L_OfficeSm_EZn" = 360.0179   $ Sizing
 "CAssFlo_L_OfficeSm_NZn" = 152.6188   $ Sizing
 "CAssFlo_L_OfficeSm_SZn" = 381.6904   $ Sizing
 "CAssFlo_L_OfficeSm_WZn" = 354.0352   $ Sizing
 "CAssFlo_L_Restrm_CZn" = 86.07105   $ Sizing
 "CAssFlo_L_StorSm_CZn" = 29.51579   $ Sizing
 "CAssFlo_L_StorSm_EZn" = 76.64235   $ Sizing
 "CAssFlo_L_StorSm_NZn" = 59.53773   $ Sizing
 "CAssFlo_L_StorSm_SZn" = 81.83044   $ Sizing
 "CAssFlo_L_StorSm_WZn" = 77.14814   $ Sizing
 "CAssFlo_T_Conf_CZn" = 208.3006   $ Sizing
 "CAssFlo_T_Hall_EZn" = 98.73672   $ Sizing
 "CAssFlo_T_Hall_NZn" = 43.54528   $ Sizing
 "CAssFlo_T_Hall_SZn" = 109.9844   $ Sizing
 "CAssFlo_T_Hall_WZn" = 97.16129   $ Sizing
 "CAssFlo_T_OfficeOpn_CZn" = 57.10371   $ Sizing
 "CAssFlo_T_OfficeOpn_EZn" = 446.8445   $ Sizing
 "CAssFlo_T_OfficeOpn_NZn" = 225.2638   $ Sizing
 "CAssFlo_T_OfficeOpn_SZn" = 465.1176   $ Sizing
 "CAssFlo_T_OfficeOpn_WZn" = 413.25   $ Sizing
 "CAssFlo_T_OfficeSm_EZn" = 376.1847   $ Sizing
 "CAssFlo_T_OfficeSm_NZn" = 176.3291   $ Sizing
 "CAssFlo_T_OfficeSm_SZn" = 410.8256   $ Sizing
 "CAssFlo_T_OfficeSm_WZn" = 361.2321   $ Sizing
 "CAssFlo_T_Restrm_CZn" = 86.07105   $ Sizing
 "CAssFlo_T_StorSm_EZn" = 96.16313   $ Sizing
 "CAssFlo_T_StorSm_NZn" = 58.62377   $ Sizing
 "CAssFlo_T_StorSm_SZn" = 102.8077   $ Sizing
 "CAssFlo_T_StorSm_WZn" = 95.21186   $ Sizing
 "CHRtFlo_Sys_L_Break_C" = 278.9655   $ Sizing
 "CHRtFlo_Sys_L_CompDC_C" = 159.4884   $ Sizing
 "CHRtFlo_Sys_L_Conf_C" = 202.8256   $ Sizing
 "CHRtFlo_Sys_L_CopyRm_C" = 58.20412   $ Sizing
 "CHRtFlo_Sys_L_Hall_E" = 79.90035   $ Sizing
 "CHRtFlo_Sys_L_Hall_N" = 47.60686   $ Sizing
 "CHRtFlo_Sys_L_Hall_S" = 93.35451   $ Sizing
 "CHRtFlo_Sys_L_Hall_W" = 85.0422   $ Sizing
 "CHRtFlo_Sys_L_LobWait_E" = 203.9778   $ Sizing
 "CHRtFlo_Sys_L_LobWait_N" = 102.8351   $ Sizing
 "CHRtFlo_Sys_L_LobWait_S" = 220.8425   $ Sizing
 "CHRtFlo_Sys_L_LobWait_W" = 200.3562   $ Sizing
 "CHRtFlo_Sys_L_MechElec_C" = 65.93681   $ Sizing
 "CHRtFlo_Sys_L_OfficeOpn_C" = 58.28389   $ Sizing
 "CHRtFlo_Sys_L_OfficeOpn_E" = 437.8868   $ Sizing
 "CHRtFlo_Sys_L_OfficeOpn_N" = 197.303   $ Sizing
 "CHRtFlo_Sys_L_OfficeOpn_S" = 435.5313   $ Sizing
 "CHRtFlo_Sys_L_OfficeOpn_W" = 406.4942   $ Sizing
 "CHRtFlo_Sys_L_OfficeSm_E" = 360.0179   $ Sizing
 "CHRtFlo_Sys_L_OfficeSm_N" = 152.6188   $ Sizing
 "CHRtFlo_Sys_L_OfficeSm_S" = 381.6904   $ Sizing
 "CHRtFlo_Sys_L_OfficeSm_W" = 354.0352   $ Sizing
 "CHRtFlo_Sys_L_Restrm_C" = 86.07105   $ Sizing
 "CHRtFlo_Sys_L_StorSm_C" = 29.51579   $ Sizing
 "CHRtFlo_Sys_L_StorSm_E" = 76.64235   $ Sizing
 "CHRtFlo_Sys_L_StorSm_N" = 59.53773   $ Sizing
 "CHRtFlo_Sys_L_StorSm_S" = 81.83044   $ Sizing
 "CHRtFlo_Sys_L_StorSm_W" = 77.14814   $ Sizing
 "CHRtFlo_Sys_T_Conf_C" = 208.3006   $ Sizing
 "CHRtFlo_Sys_T_Hall_E" = 98.73672   $ Sizing
 "CHRtFlo_Sys_T_Hall_N" = 43.54528   $ Sizing
 "CHRtFlo_Sys_T_Hall_S" = 109.9844   $ Sizing
 "CHRtFlo_Sys_T_Hall_W" = 97.16129   $ Sizing
 "CHRtFlo_Sys_T_OfficeOpn_C" = 57.10371   $ Sizing
 "CHRtFlo_Sys_T_OfficeOpn_E" = 446.8445   $ Sizing
 "CHRtFlo_Sys_T_OfficeOpn_N" = 225.2638   $ Sizing
 "CHRtFlo_Sys_T_OfficeOpn_S" = 465.1176   $ Sizing
 "CHRtFlo_Sys_T_OfficeOpn_W" = 413.25   $ Sizing
 "CHRtFlo_Sys_T_OfficeSm_E" = 376.1847   $ Sizing
 "CHRtFlo_Sys_T_OfficeSm_N" = 176.3291   $ Sizing
 "CHRtFlo_Sys_T_OfficeSm_S" = 410.8256   $ Sizing
 "CHRtFlo_Sys_T_OfficeSm_W" = 361.2321   $ Sizing
 "CHRtFlo_Sys_T_Restrm_C" = 86.07105   $ Sizing
 "CHRtFlo_Sys_T_StorSm_E" = 96.16313   $ Sizing
 "CHRtFlo_Sys_T_StorSm_N" = 58.62377   $ Sizing
 "CHRtFlo_Sys_T_StorSm_S" = 102.8077   $ Sizing
 "CHRtFlo_Sys_T_StorSm_W" = 95.21186   $ Sizing
 "CRtdFlo_Sys_L_Break_C" = 278.9655   $ Sizing
 "CRtdFlo_Sys_L_CompDC_C" = 159.9459   $ Sizing
 "CRtdFlo_Sys_L_Conf_C" = 202.8256   $ Sizing
 "CRtdFlo_Sys_L_CopyRm_C" = 58.20412   $ Sizing
 "CRtdFlo_Sys_L_Hall_E" = 79.90035   $ Sizing
 "CRtdFlo_Sys_L_Hall_N" = 47.60686   $ Sizing
 "CRtdFlo_Sys_L_Hall_S" = 93.35451   $ Sizing
 "CRtdFlo_Sys_L_Hall_W" = 85.0422   $ Sizing
 "CRtdFlo_Sys_L_LobWait_E" = 203.9778   $ Sizing
 "CRtdFlo_Sys_L_LobWait_N" = 102.8351   $ Sizing
 "CRtdFlo_Sys_L_LobWait_S" = 220.8425   $ Sizing
 "CRtdFlo_Sys_L_LobWait_W" = 200.3562   $ Sizing
 "CRtdFlo_Sys_L_MechElec_C" = 65.93681   $ Sizing
 "CRtdFlo_Sys_L_OfficeOpn_C" = 58.28389   $ Sizing
 "CRtdFlo_Sys_L_OfficeOpn_E" = 437.8868   $ Sizing
 "CRtdFlo_Sys_L_OfficeOpn_N" = 197.303   $ Sizing
 "CRtdFlo_Sys_L_OfficeOpn_S" = 435.5313   $ Sizing
 "CRtdFlo_Sys_L_OfficeOpn_W" = 406.4942   $ Sizing
 "CRtdFlo_Sys_L_OfficeSm_E" = 360.0179   $ Sizing
 "CRtdFlo_Sys_L_OfficeSm_N" = 152.6188   $ Sizing
 "CRtdFlo_Sys_L_OfficeSm_S" = 381.6904   $ Sizing
 "CRtdFlo_Sys_L_OfficeSm_W" = 354.0352   $ Sizing
 "CRtdFlo_Sys_L_Restrm_C" = 86.07105   $ Sizing
 "CRtdFlo_Sys_L_StorSm_C" = 29.51579   $ Sizing
 "CRtdFlo_Sys_L_StorSm_E" = 76.64235   $ Sizing
 "CRtdFlo_Sys_L_StorSm_N" = 59.53773   $ Sizing
 "CRtdFlo_Sys_L_StorSm_S" = 81.83044   $ Sizing
 "CRtdFlo_Sys_L_StorSm_W" = 77.14814   $ Sizing
 "CRtdFlo_Sys_T_Conf_C" = 208.3006   $ Sizing
 "CRtdFlo_Sys_T_Hall_E" = 98.73672   $ Sizing
 "CRtdFlo_Sys_T_Hall_N" = 43.54528   $ Sizing
 "CRtdFlo_Sys_T_Hall_S" = 109.9844   $ Sizing
 "CRtdFlo_Sys_T_Hall_W" = 97.16129   $ Sizing
 "CRtdFlo_Sys_T_OfficeOpn_C" = 57.10371   $ Sizing
 "CRtdFlo_Sys_T_OfficeOpn_E" = 446.8445   $ Sizing
 "CRtdFlo_Sys_T_OfficeOpn_N" = 225.2638   $ Sizing
 "CRtdFlo_Sys_T_OfficeOpn_S" = 465.1176   $ Sizing
 "CRtdFlo_Sys_T_OfficeOpn_W" = 413.25   $ Sizing
 "CRtdFlo_Sys_T_OfficeSm_E" = 376.1847   $ Sizing
 "CRtdFlo_Sys_T_OfficeSm_N" = 176.3291   $ Sizing
 "CRtdFlo_Sys_T_OfficeSm_S" = 410.8256   $ Sizing
 "CRtdFlo_Sys_T_OfficeSm_W" = 361.2321   $ Sizing
 "CRtdFlo_Sys_T_Restrm_C" = 86.07105   $ Sizing
 "CRtdFlo_Sys_T_StorSm_E" = 96.16313   $ Sizing
 "CRtdFlo_Sys_T_StorSm_N" = 58.62377   $ Sizing
 "CRtdFlo_Sys_T_StorSm_S" = 102.8077   $ Sizing
 "CRtdFlo_Sys_T_StorSm_W" = 95.21186   $ Sizing
 "CSupFlo_Sys_L_Break_C" = 278.9655   $ Sizing
 "CSupFlo_Sys_L_CompDC_C" = 159.9459   $ Sizing
 "CSupFlo_Sys_L_Conf_C" = 202.8256   $ Sizing
 "CSupFlo_Sys_L_CopyRm_C" = 58.20412   $ Sizing
 "CSupFlo_Sys_L_Hall_E" = 79.90035   $ Sizing
 "CSupFlo_Sys_L_Hall_N" = 47.60686   $ Sizing
 "CSupFlo_Sys_L_Hall_S" = 93.35451   $ Sizing
 "CSupFlo_Sys_L_Hall_W" = 85.0422   $ Sizing
 "CSupFlo_Sys_L_LobWait_E" = 203.9778   $ Sizing
 "CSupFlo_Sys_L_LobWait_N" = 102.8351   $ Sizing
 "CSupFlo_Sys_L_LobWait_S" = 220.8425   $ Sizing
 "CSupFlo_Sys_L_LobWait_W" = 200.3562   $ Sizing
 "CSupFlo_Sys_L_MechElec_C" = 65.93681   $ Sizing
 "CSupFlo_Sys_L_OfficeOpn_C" = 58.28389   $ Sizing
 "CSupFlo_Sys_L_OfficeOpn_E" = 437.8868   $ Sizing
 "CSupFlo_Sys_L_OfficeOpn_N" = 197.303   $ Sizing
 "CSupFlo_Sys_L_OfficeOpn_S" = 435.5313   $ Sizing
 "CSupFlo_Sys_L_OfficeOpn_W" = 406.4942   $ Sizing
 "CSupFlo_Sys_L_OfficeSm_E" = 360.0179   $ Sizing
 "CSupFlo_Sys_L_OfficeSm_N" = 152.6188   $ Sizing
 "CSupFlo_Sys_L_OfficeSm_S" = 381.6904   $ Sizing
 "CSupFlo_Sys_L_OfficeSm_W" = 354.0352   $ Sizing
 "CSupFlo_Sys_L_Restrm_C" = 86.07105   $ Sizing
 "CSupFlo_Sys_L_StorSm_C" = 29.51579   $ Sizing
 "CSupFlo_Sys_L_StorSm_E" = 76.64235   $ Sizing
 "CSupFlo_Sys_L_StorSm_N" = 59.53773   $ Sizing
 "CSupFlo_Sys_L_StorSm_S" = 81.83044   $ Sizing
 "CSupFlo_Sys_L_StorSm_W" = 77.14814   $ Sizing
 "CSupFlo_Sys_T_Conf_C" = 208.3006   $ Sizing
 "CSupFlo_Sys_T_Hall_E" = 98.73672   $ Sizing
 "CSupFlo_Sys_T_Hall_N" = 43.54528   $ Sizing
 "CSupFlo_Sys_T_Hall_S" = 109.9844   $ Sizing
 "CSupFlo_Sys_T_Hall_W" = 97.16129   $ Sizing
 "CSupFlo_Sys_T_OfficeOpn_C" = 57.10371   $ Sizing
 "CSupFlo_Sys_T_OfficeOpn_E" = 446.8445   $ Sizing
 "CSupFlo_Sys_T_OfficeOpn_N" = 225.2638   $ Sizing
 "CSupFlo_Sys_T_OfficeOpn_S" = 465.1176   $ Sizing
 "CSupFlo_Sys_T_OfficeOpn_W" = 413.25   $ Sizing
 "CSupFlo_Sys_T_OfficeSm_E" = 376.1847   $ Sizing
 "CSupFlo_Sys_T_OfficeSm_N" = 176.3291   $ Sizing
 "CSupFlo_Sys_T_OfficeSm_S" = 410.8256   $ Sizing
 "CSupFlo_Sys_T_OfficeSm_W" = 361.2321   $ Sizing
 "CSupFlo_Sys_T_Restrm_C" = 86.07105   $ Sizing
 "CSupFlo_Sys_T_StorSm_E" = 96.16313   $ Sizing
 "CSupFlo_Sys_T_StorSm_N" = 58.62377   $ Sizing
 "CSupFlo_Sys_T_StorSm_S" = 102.8077   $ Sizing
 "CSupFlo_Sys_T_StorSm_W" = 95.21186   $ Sizing
 "ClCap_Sys_L_Break_C" = 9493.027   $ Sizing
 "ClCap_Sys_L_CompDC_C" = 5442.865   $ Sizing
 "ClCap_Sys_L_Conf_C" = 8784.407   $ Sizing
 "ClCap_Sys_L_CopyRm_C" = 1980.651   $ Sizing
 "ClCap_Sys_L_Hall_E" = 2718.961   $ Sizing
 "ClCap_Sys_L_Hall_N" = 1620.033   $ Sizing
 "ClCap_Sys_L_Hall_S" = 3176.798   $ Sizing
 "ClCap_Sys_L_Hall_W" = 2893.935   $ Sizing
 "ClCap_Sys_L_LobWait_E" = 6941.242   $ Sizing
 "ClCap_Sys_L_LobWait_N" = 3499.417   $ Sizing
 "ClCap_Sys_L_LobWait_S" = 7515.137   $ Sizing
 "ClCap_Sys_L_LobWait_W" = 6818   $ Sizing
 "ClCap_Sys_L_MechElec_C" = 2243.79   $ Sizing
 "ClCap_Sys_L_OfficeOpn_C" = 1983.366   $ Sizing
 "ClCap_Sys_L_OfficeOpn_E" = 14901.03   $ Sizing
 "ClCap_Sys_L_OfficeOpn_N" = 6714.103   $ Sizing
 "ClCap_Sys_L_OfficeOpn_S" = 14820.87   $ Sizing
 "ClCap_Sys_L_OfficeOpn_W" = 13832.76   $ Sizing
 "ClCap_Sys_L_OfficeSm_E" = 12251.19   $ Sizing
 "ClCap_Sys_L_OfficeSm_N" = 5193.526   $ Sizing
 "ClCap_Sys_L_OfficeSm_S" = 12988.7   $ Sizing
 "ClCap_Sys_L_OfficeSm_W" = 12047.61   $ Sizing
 "ClCap_Sys_L_Restrm_C" = 2928.947   $ Sizing
 "ClCap_Sys_L_StorSm_C" = 1004.405   $ Sizing
 "ClCap_Sys_L_StorSm_E" = 2608.093   $ Sizing
 "ClCap_Sys_L_StorSm_N" = 2026.033   $ Sizing
 "ClCap_Sys_L_StorSm_S" = 2784.641   $ Sizing
 "ClCap_Sys_L_StorSm_W" = 2625.305   $ Sizing
 "ClCap_Sys_T_Conf_C" = 9021.529   $ Sizing
 "ClCap_Sys_T_Hall_E" = 3359.951   $ Sizing
 "ClCap_Sys_T_Hall_N" = 1481.82   $ Sizing
 "ClCap_Sys_T_Hall_S" = 3742.704   $ Sizing
 "ClCap_Sys_T_Hall_W" = 3306.341   $ Sizing
 "ClCap_Sys_T_OfficeOpn_C" = 1943.205   $ Sizing
 "ClCap_Sys_T_OfficeOpn_E" = 15205.85   $ Sizing
 "ClCap_Sys_T_OfficeOpn_N" = 7665.591   $ Sizing
 "ClCap_Sys_T_OfficeOpn_S" = 15827.67   $ Sizing
 "ClCap_Sys_T_OfficeOpn_W" = 14062.65   $ Sizing
 "ClCap_Sys_T_OfficeSm_E" = 12801.34   $ Sizing
 "ClCap_Sys_T_OfficeSm_N" = 6000.375   $ Sizing
 "ClCap_Sys_T_OfficeSm_S" = 13980.15   $ Sizing
 "ClCap_Sys_T_OfficeSm_W" = 12292.51   $ Sizing
 "ClCap_Sys_T_Restrm_C" = 2928.947   $ Sizing
 "ClCap_Sys_T_StorSm_E" = 3272.374   $ Sizing
 "ClCap_Sys_T_StorSm_N" = 1994.932   $ Sizing
 "ClCap_Sys_T_StorSm_S" = 3498.483   $ Sizing
 "ClCap_Sys_T_StorSm_W" = 3240.003   $ Sizing
 "HtCap_Sys_L_Break_C" = -16475.03   $ Sizing
 "HtCap_Sys_L_CompDC_C" = -7788.015   $ Sizing
 "HtCap_Sys_L_Conf_C" = -12429.83   $ Sizing
 "HtCap_Sys_L_CopyRm_C" = -3975.493   $ Sizing
 "HtCap_Sys_L_Hall_E" = -3063.959   $ Sizing
 "HtCap_Sys_L_Hall_N" = -1946.023   $ Sizing
 "HtCap_Sys_L_Hall_S" = -3370.943   $ Sizing
 "HtCap_Sys_L_Hall_W" = -3164.814   $ Sizing
 "HtCap_Sys_L_LobWait_E" = -8336.151   $ Sizing
 "HtCap_Sys_L_LobWait_N" = -5212.596   $ Sizing
 "HtCap_Sys_L_LobWait_S" = -8854.814   $ Sizing
 "HtCap_Sys_L_LobWait_W" = -8278.88   $ Sizing
 "HtCap_Sys_L_MechElec_C" = -2988.354   $ Sizing
 "HtCap_Sys_L_OfficeOpn_C" = -2379.336   $ Sizing
 "HtCap_Sys_L_OfficeOpn_E" = -16073.08   $ Sizing
 "HtCap_Sys_L_OfficeOpn_N" = -9028.517   $ Sizing
 "HtCap_Sys_L_OfficeOpn_S" = -15667.79   $ Sizing
 "HtCap_Sys_L_OfficeOpn_W" = -15331.61   $ Sizing
 "HtCap_Sys_L_OfficeSm_E" = -13198.62   $ Sizing
 "HtCap_Sys_L_OfficeSm_N" = -6755.613   $ Sizing
 "HtCap_Sys_L_OfficeSm_S" = -13109.01   $ Sizing
 "HtCap_Sys_L_OfficeSm_W" = -12798.35   $ Sizing
 "HtCap_Sys_L_Restrm_C" = -3038.86   $ Sizing
 "HtCap_Sys_L_StorSm_C" = -1263.915   $ Sizing
 "HtCap_Sys_L_StorSm_E" = -3088.537   $ Sizing
 "HtCap_Sys_L_StorSm_N" = -2611.372   $ Sizing
 "HtCap_Sys_L_StorSm_S" = -3256.896   $ Sizing
 "HtCap_Sys_L_StorSm_W" = -3163.102   $ Sizing
 "HtCap_Sys_T_Conf_C" = -12887.31   $ Sizing
 "HtCap_Sys_T_Hall_E" = -4101.529   $ Sizing
 "HtCap_Sys_T_Hall_N" = -2097.907   $ Sizing
 "HtCap_Sys_T_Hall_S" = -4506.829   $ Sizing
 "HtCap_Sys_T_Hall_W" = -4049.568   $ Sizing
 "HtCap_Sys_T_OfficeOpn_C" = -2627.926   $ Sizing
 "HtCap_Sys_T_OfficeOpn_E" = -18805.5   $ Sizing
 "HtCap_Sys_T_OfficeOpn_N" = -10868.22   $ Sizing
 "HtCap_Sys_T_OfficeOpn_S" = -19444.32   $ Sizing
 "HtCap_Sys_T_OfficeOpn_W" = -17599.19   $ Sizing
 "HtCap_Sys_T_OfficeSm_E" = -15504.37   $ Sizing
 "HtCap_Sys_T_OfficeSm_N" = -8397.762   $ Sizing
 "HtCap_Sys_T_OfficeSm_S" = -16644.14   $ Sizing
 "HtCap_Sys_T_OfficeSm_W" = -14988.96   $ Sizing
 "HtCap_Sys_T_Restrm_C" = -3629.729   $ Sizing
 "HtCap_Sys_T_StorSm_E" = -4333.836   $ Sizing
 "HtCap_Sys_T_StorSm_N" = -2956.962   $ Sizing
 "HtCap_Sys_T_StorSm_S" = -4516.798   $ Sizing
 "HtCap_Sys_T_StorSm_W" = -4258.283   $ Sizing
..

##include Templates\OfS_DX_SZ.inp
END ..
COMPUTE ..
STOP ..
