INPUT ..

##fileprefix C:\Users\jglasskatz\MASControl3\
##set1 IsSizing FALSE
##set1 CoolType DX
##set1 HeatType FURNACE
##set1 EU_HrRepVar 0
##set1 BldgVint 2020
##set1 BldgLoc CZ01

 ##set1 mBFMult 1   $ IP Tech: RefgChg-NRes-Std

PARAMETER
 "AltFactor" = 1.00753   $ IP Non-Tech
 "BF_fFlow" = SpltAC1Sp-lt45_BF_fFlow   $ Msr (Var)TechID: PreNResSplitAC-lt45-PENo
 "BF_fT" = SpltAC1Sp-lt45_BF_fT   $ Msr (Var)TechID: PreNResSplitAC-lt45-PENo
 "BldgEconoFlag" = 1   $ IP Non-Tech
 "Break_EWSF" = 1   $ IP Non-Tech
 "Break_LWSF" = 0.65   $ IP Non-Tech
 "CDD_DBHi10" = 65   $ IP Non-Tech
 "CDD_DBHi7" = 68   $ IP Non-Tech
 "CDD_DBHi8" = 66   $ IP Non-Tech
 "CDD_DBHi9" = 77   $ IP Non-Tech
 "CDD_DBRange10" = 17   $ IP Non-Tech
 "CDD_DBRange7" = 11   $ IP Non-Tech
 "CDD_DBRange8" = 10   $ IP Non-Tech
 "CDD_DBRange9" = 29   $ IP Non-Tech
 "CDD_Day10" = 15   $ IP Non-Tech
 "CDD_Day7" = 16   $ IP Non-Tech
 "CDD_Day8" = 20   $ IP Non-Tech
 "CDD_Day9" = 17   $ IP Non-Tech
 "CDD_HrHi10" = 12   $ IP Non-Tech
 "CDD_HrHi7" = 12   $ IP Non-Tech
 "CDD_HrHi8" = 13   $ IP Non-Tech
 "CDD_HrHi9" = 17   $ IP Non-Tech
 "CDD_HrLo10" = 6   $ IP Non-Tech
 "CDD_HrLo7" = 3   $ IP Non-Tech
 "CDD_HrLo8" = 8   $ IP Non-Tech
 "CDD_HrLo9" = 4   $ IP Non-Tech
 "CDD_WB10" = 57.53039551   $ IP Non-Tech
 "CDD_WB7" = 59.29250717   $ IP Non-Tech
 "CDD_WB8" = 60.75350189   $ IP Non-Tech
 "CDD_WB9" = 61.08643341   $ IP Non-Tech
 "CEIR_fPLR_Hot" = SpltAC1Sp-lt45_CEIR_fPLR_Hot   $ Msr (Var)TechID: PreNResSplitAC-lt45-PENo
 "CEIR_fPLR_Mod" = SpltAC1Sp-lt45_CEIR_fPLR_Mod   $ Msr (Var)TechID: PreNResSplitAC-lt45-PENo
 "CEIR_fPLR_Tem" = SpltAC1Sp-lt45_CEIR_fPLR_Tem   $ Msr (Var)TechID: PreNResSplitAC-lt45-PENo
 "CLoss_fPLR_Hot" = SpltAC1Sp-lt45_CLoss_fPLR_Hot   $ Msr (Var)TechID: PreNResSplitAC-lt45-PENo
 "CLoss_fPLR_Mod" = SpltAC1Sp-lt45_CLoss_fPLR_Mod   $ Msr (Var)TechID: PreNResSplitAC-lt45-PENo
 "CLoss_fPLR_Tem" = SpltAC1Sp-lt45_CLoss_fPLR_Tem   $ Msr (Var)TechID: PreNResSplitAC-lt45-PENo
 "COP47" = 0   $ Msr (Var)TechID: PreNResSplitAC-lt45-PENo
 "CZ_Category" = Tem   $ IP Non-Tech
 "CapRange" = lt45   $ Msr (Var)TechID: PreNResSplitAC-lt45-PENo
 "CfmPerBtuh" = 0.032504286   $ Msr (Var)TechID: PreNResSplitAC-lt45-PENo
 "ChwVintEconoFlag" = 1   $ IP Non-Tech
 "ClCap_fT" = SpltAC1Sp-lt45_ClCap_fT   $ Msr (Var)TechID: PreNResSplitAC-lt45-PENo
 "ClSH_fT" = SpltAC1Sp-lt45_ClSH_fT   $ Msr (Var)TechID: PreNResSplitAC-lt45-PENo
 "CoilBF" = 0.1212   $ Msr (Var)TechID: PreNResSplitAC-lt45-PENo
 "CompRoomData_EWSF" = 5   $ IP Non-Tech
 "CompRoomData_LWSF" = 0.8   $ IP Non-Tech
 "CondWPerBtuh" = 0   $ Msr (Var)TechID: PreNResSplitAC-lt45-PENo
 "Conference_EWSF" = 1   $ IP Non-Tech
 "Conference_LWSF" = 0.85   $ IP Non-Tech
 "CoolSensCap" = 0.754064286   $ Msr (Var)TechID: PreNResSplitAC-lt45-PENo
 "CoolSetT" = 45   $ IP Non-Tech
 "CoolType" = DX   $ IP Non-Tech
 "CoolingEIR" = 0.23878   $ Msr (Var)TechID: PreNResSplitAC-lt45-PENo
 "CopyRoom_EWSF" = 1.5   $ IP Non-Tech
 "CopyRoom_LWSF" = 0.5   $ IP Non-Tech
 "CrnkEIR" = 0.0023878   $ Msr (Var)TechID: PreNResSplitAC-lt45-PENo
 "CrnkMaxT" = 50   $ Msr (Var)TechID: PreNResSplitAC-lt45-PENo
 "DXType" = SplitSEER   $ Msr (Var)TechID: PreNResSplitAC-lt45-PENo
 "DesCoolT" = 75   $ IP Non-Tech
 "DesHeatT" = 73   $ IP Non-Tech
 "EER" = 12.16551724   $ Msr (Var)TechID: PreNResSplitAC-lt45-PENo
 "EIR_fT" = SpltAC1Sp-lt45_EIR_fT   $ Msr (Var)TechID: PreNResSplitAC-lt45-PENo
 "EconoCtrl" = FIXED   $ Msr (Multi)TechID: PreNResSplitAC-lt45-PENo
 "EconoEnthLimit" = 28   $ IP Non-Tech
 "EconoTempLimit" = 70   $ IP Non-Tech
 "Elevation" = 203   $ IP Non-Tech
 "FanEirPlr" = TwoSpeedFan   $ Msr (Var)TechID: PreNResSplitAC-lt45-PENo
 "FanWPerCfm" = 0.294   $ Msr (Var)TechID: PreNResSplitAC-lt45-PENo
 "HDD_CloudAmt1" = 0   $ IP Non-Tech
 "HDD_DBHi1" = 53   $ IP Non-Tech
 "HDD_DBRange1" = 20   $ IP Non-Tech
 "HDD_Day1" = 15   $ IP Non-Tech
 "HDD_HrHi1" = 14   $ IP Non-Tech
 "HDD_HrLo1" = 6   $ IP Non-Tech
 "HDD_WB1" = 42.3   $ IP Non-Tech
 "HDD_WindSpd1" = 12.7   $ IP Non-Tech
 "HIR_fT" = 0   $ Msr (Var)TechID: PreNResSplitAC-lt45-PENo
 "HSPF" = 0   $ Msr (Var)TechID: PreNResSplitAC-lt45-PENo
 "Hall_EWSF" = 0.2   $ IP Non-Tech
 "Hall_LWSF" = 0.55   $ IP Non-Tech
 "HeatSrc" = FURNACE   $ IP Non-Tech
 "HeatSrcTU" = HEAT-PUMP   $ IP Non-Tech
 "HeatType" = GasFurn   $ IP Non-Tech
 "HeatTypeTU" = HEAT-PUMP   $ IP Non-Tech
 "HtCap_fT" = 0   $ Msr (Var)TechID: PreNResSplitAC-lt45-PENo
 "HtCoolCapRatio" = 0   $ Msr (Var)TechID: PreNResSplitAC-lt45-PENo
 "HtgEIR" = 0   $ Msr (Var)TechID: PreNResSplitAC-lt45-PENo
 "IndoorFanMode" = CONTINUOUS   $ IP Non-Tech
 "KT_TransferAir" = Yes   $ IP Non-Tech
 "Latitude" = 40.8   $ IP Non-Tech
 "LobbyWaiting_EWSF" = 0.5   $ IP Non-Tech
 "LobbyWaiting_LWSF" = 0.75   $ IP Non-Tech
 "Longitude" = 124.2   $ IP Non-Tech
 "LowSpdCapRatio" = 1   $ Msr (Var)TechID: PreNResSplitAC-lt45-PENo
 "LowSpdCfmRatio" = 1   $ Msr (Var)TechID: PreNResSplitAC-lt45-PENo
 "MZFanMechEff" = 0.58   $ IP Non-Tech
 "MZHasRetFan" = FALSE   $ IP Non-Tech
 "MZ_RFanWPerCfm" = 0.33   $ IP Non-Tech
 "MZ_SFanWPerCfm" = 0.75   $ IP Non-Tech
 "MZ_SupFanStatic" = 2.25   $ IP Non-Tech
 "MaxOAFrac" = 1   $ Msr (Multi)TechID: PreNResSplitAC-lt45-PENo
 "MaxSupT_MZ" = 100   $ IP Non-Tech
 "MaxSupT_SZ" = 100   $ IP Non-Tech
 "MaxSupT_TU" = 90   $ IP Non-Tech
 "MechElecRoom_EWSF" = 0.2   $ IP Non-Tech
 "MechElecRoom_LWSF" = 0.4   $ IP Non-Tech
 "MinCfmPerSF" = 0.4   $ IP Non-Tech
 "MinSupT" = 55   $ IP Non-Tech
 "NumStages" = 1   $ Msr (Var)TechID: PreNResSplitAC-lt45-PENo
 "OccCoolT" = 76   $ IP Non-Tech
 "OccHeatT" = 72   $ IP Non-Tech
 "OfficeOpen_EWSF" = 1.5   $ IP Non-Tech
 "OfficeOpen_LWSF" = 0.8   $ IP Non-Tech
 "OfficeSmall_EWSF" = 1.5   $ IP Non-Tech
 "OfficeSmall_LWSF" = 0.9   $ IP Non-Tech
 "PkgDxVintEconoFlag" = 1   $ IP Non-Tech
 "Restroom_EWSF" = 0.2   $ IP Non-Tech
 "Restroom_LWSF" = 0.65   $ IP Non-Tech
 "SEER" = 14   $ Msr (Var)TechID: PreNResSplitAC-lt45-PENo
 "SZFanMechEff" = 0.58   $ IP Non-Tech
 "SZHasRetFan" = FALSE   $ IP Non-Tech
 "SZ_Is_2Spd" = TRUE   $ IP Non-Tech
 "SZ_SFanWPerCfm" = 0.46   $ IP Non-Tech
 "SZ_SupFanStatic" = 0.75   $ IP Non-Tech
 "Sector" = Any   $ Msr (Var)TechID: PreNResSplitAC-lt45-PENo
 "StorageSmlCond_EWSF" = 0.2   $ IP Non-Tech
 "StorageSmlCond_LWSF" = 0.45   $ IP Non-Tech
 "SubType" = AC   $ Msr (Var)TechID: PreNResSplitAC-lt45-PENo
 "TermUnitFanMechEff" = 1   $ IP Non-Tech
 "TermUnitFanMode" = INTERMITTENT   $ IP Non-Tech
 "TotCoolCap" = 30924.85714   $ Msr (Var)TechID: PreNResSplitAC-lt45-PENo
 "TwrSetpt" = 80   $ IP Non-Tech
 "UnocCoolT" = 86   $ IP Non-Tech
 "UnocHeatT" = 62   $ IP Non-Tech
 "UseEconoVintApplic" = FALSE   $ Msr (Multi)TechID: PreNResSplitAC-lt45-PENo
 "WlhpVintEconoFlag" = 1   $ IP Non-Tech
 "DuctDT" = 1   $ IP Tech: ComDuctInsul-1
 "DuctAirLoss" = 0   $ IP Tech: ComDuctLeak-0
 "DuctLossOAFrac" = 0   $ IP Tech: ComDuctLeak-0
 "ComRoofInsCalc" = FromUo   $ IP Tech: ComRoofIns-WFrm-0.03
 "ComRoofInsR" = -999   $ IP Tech: ComRoofIns-WFrm-0.03
 "ComRoofUo" = 0.03   $ IP Tech: ComRoofIns-WFrm-0.03
 "ComEWInsCalc" = FromUo   $ IP Tech: ComWallIns-WFrm-0.08
 "ComEWInsR" = -999   $ IP Tech: ComWallIns-WFrm-0.08
 "ComEWUo" = 0.08   $ IP Tech: ComWallIns-WFrm-0.08
 "ComN_SHGC" = 0.25   $ IP Tech: NResWin-ComN-0.36-0.25
 "ComN_UFactor" = 0.36   $ IP Tech: NResWin-ComN-0.36-0.25
 "ComN_VisTrans" = 0.41   $ IP Tech: NResWin-ComN-0.36-0.25
 "ComN_WinCode" = G2668   $ IP Tech: NResWin-ComN-0.36-0.25
 "ComN_WinFrmFrac" = 0.17   $ IP Tech: NResWin-ComN-0.36-0.25
 "ComN_WinFrmU" = 0.3   $ IP Tech: NResWin-ComN-0.36-0.25
 "ComO_SHGC" = 0.25   $ IP Tech: NResWin-ComO-0.36-0.25
 "ComO_UFactor" = 0.36   $ IP Tech: NResWin-ComO-0.36-0.25
 "ComO_VisTrans" = 0.41   $ IP Tech: NResWin-ComO-0.36-0.25
 "ComO_WinCode" = G2668   $ IP Tech: NResWin-ComO-0.36-0.25
 "ComO_WinFrmFrac" = 0.17   $ IP Tech: NResWin-ComO-0.36-0.25
 "ComO_WinFrmU" = 0.3   $ IP Tech: NResWin-ComO-0.36-0.25
 "LtgMsrApplic" = ALL   $ IP Tech: NonResLtgRefPre
 "LtgSav_CFL" = 0   $ IP Tech: NonResLtgRefPre
 "LtgSav_EX" = 0   $ IP Tech: NonResLtgRefPre
 "LtgSav_HB" = 0   $ IP Tech: NonResLtgRefPre
 "LtgSav_LF" = 0   $ IP Tech: NonResLtgRefPre
 "LtgSav_SP" = 0   $ IP Tech: NonResLtgRefPre
 "CEIR_fPLR" = PSZ65to135_CEIR_fPLR   $ IP Tech: PkgAC2SpP-65to135-E11
 "CLoss_fPLR" = PSZ65to135_CLoss_fPLR   $ IP Tech: PkgAC2SpP-65to135-E11
 "COP" = -1   $ IP Tech: PkgAC2SpP-65to135-E11
 "HtgFuel" = Gas   $ IP Tech: PkgAC2SpP-65to135-E11
 "IEER" = 13.35   $ IP Tech: PkgAC2SpP-65to135-E11
 "NominalCap" = 15   $ IP Tech: PkgAC2SpP-65to135-E11
 "RatedEER" = 11   $ IP Tech: PkgAC2SpP-65to135-E11
 "RatedSupMtrClass" = Premium   $ IP Tech: PkgAC2SpP-65to135-E11
 "SizeRange" = 65to135   $ IP Tech: PkgAC2SpP-65to135-E11
 "SupMotEff" = 0.865   $ IP Tech: PkgAC2SpP-65to135-E11
 "Tier" = 0   $ IP Tech: PkgAC2SpP-65to135-E11
 "FanPwrMult" = 1   $ IP Tech: PkgFurn-0.80AFUE
 "FurnAFUE" = 0.8   $ IP Tech: PkgFurn-0.80AFUE
 "FurnEt" = 0.82   $ IP Tech: PkgFurn-0.80AFUE
 "FurnaceAuxKW" = 0.1   $ IP Tech: PkgFurn-0.80AFUE
 "HIR_fPLR" = Furnace-HIR-fPLR   $ IP Tech: PkgFurn-0.80AFUE
 "VSM" = FALSE   $ IP Tech: PkgFurn-0.80AFUE
 "BFMult" = 1   $ IP Tech: RefgChg-NRes-Std
 "CoolEirMult" = 1   $ IP Tech: RefgChg-NRes-Std
 "SensCoolCapMult" = 1   $ IP Tech: RefgChg-NRes-Std
 "TotCoolCapMult" = 1   $ IP Tech: RefgChg-NRes-Std
 "AltAdjFactor" = 1.007532   $ Sizing
 "CAssFlo_L_Break_CZn" = 265.1829   $ Sizing
 "CAssFlo_L_CompDC_CZn" = 156.2986   $ Sizing
 "CAssFlo_L_Conf_CZn" = 192.8439   $ Sizing
 "CAssFlo_L_CopyRm_CZn" = 50.72986   $ Sizing
 "CAssFlo_L_Hall_EZn" = 79.39641   $ Sizing
 "CAssFlo_L_Hall_NZn" = 48.19338   $ Sizing
 "CAssFlo_L_Hall_SZn" = 92.88897   $ Sizing
 "CAssFlo_L_Hall_WZn" = 84.79943   $ Sizing
 "CAssFlo_L_LobWait_EZn" = 196.6348   $ Sizing
 "CAssFlo_L_LobWait_NZn" = 105.1635   $ Sizing
 "CAssFlo_L_LobWait_SZn" = 211.7653   $ Sizing
 "CAssFlo_L_LobWait_WZn" = 194.6855   $ Sizing
 "CAssFlo_L_MechElec_CZn" = 65.93681   $ Sizing
 "CAssFlo_L_OfficeOpn_CZn" = 56.44621   $ Sizing
 "CAssFlo_L_OfficeOpn_EZn" = 428.1114   $ Sizing
 "CAssFlo_L_OfficeOpn_NZn" = 185.7575   $ Sizing
 "CAssFlo_L_OfficeOpn_SZn" = 424.7497   $ Sizing
 "CAssFlo_L_OfficeOpn_WZn" = 396.7049   $ Sizing
 "CAssFlo_L_OfficeSm_EZn" = 350.6029   $ Sizing
 "CAssFlo_L_OfficeSm_NZn" = 140.0471   $ Sizing
 "CAssFlo_L_OfficeSm_SZn" = 369.7782   $ Sizing
 "CAssFlo_L_OfficeSm_WZn" = 343.5864   $ Sizing
 "CAssFlo_L_Restrm_CZn" = 86.07105   $ Sizing
 "CAssFlo_L_StorSm_CZn" = 30.01605   $ Sizing
 "CAssFlo_L_StorSm_EZn" = 75.39246   $ Sizing
 "CAssFlo_L_StorSm_NZn" = 59.92005   $ Sizing
 "CAssFlo_L_StorSm_SZn" = 80.41045   $ Sizing
 "CAssFlo_L_StorSm_WZn" = 76.57058   $ Sizing
 "CAssFlo_T_Conf_CZn" = 198.6448   $ Sizing
 "CAssFlo_T_Hall_EZn" = 98.12434   $ Sizing
 "CAssFlo_T_Hall_NZn" = 44.03197   $ Sizing
 "CAssFlo_T_Hall_SZn" = 109.5454   $ Sizing
 "CAssFlo_T_Hall_WZn" = 96.77903   $ Sizing
 "CAssFlo_T_OfficeOpn_CZn" = 55.11949   $ Sizing
 "CAssFlo_T_OfficeOpn_EZn" = 436.0038   $ Sizing
 "CAssFlo_T_OfficeOpn_NZn" = 212.8433   $ Sizing
 "CAssFlo_T_OfficeOpn_SZn" = 453.7321   $ Sizing
 "CAssFlo_T_OfficeOpn_WZn" = 402.6443   $ Sizing
 "CAssFlo_T_OfficeSm_EZn" = 365.1594   $ Sizing
 "CAssFlo_T_OfficeSm_NZn" = 163.4792   $ Sizing
 "CAssFlo_T_OfficeSm_SZn" = 398.8936   $ Sizing
 "CAssFlo_T_OfficeSm_WZn" = 350.2399   $ Sizing
 "CAssFlo_T_Restrm_CZn" = 86.07105   $ Sizing
 "CAssFlo_T_StorSm_EZn" = 94.78509   $ Sizing
 "CAssFlo_T_StorSm_NZn" = 58.78741   $ Sizing
 "CAssFlo_T_StorSm_SZn" = 101.5378   $ Sizing
 "CAssFlo_T_StorSm_WZn" = 94.39635   $ Sizing
 "CHRtFlo_Sys_L_Break_C" = 265.1829   $ Sizing
 "CHRtFlo_Sys_L_CompDC_C" = 156.2986   $ Sizing
 "CHRtFlo_Sys_L_Conf_C" = 192.8439   $ Sizing
 "CHRtFlo_Sys_L_CopyRm_C" = 50.72986   $ Sizing
 "CHRtFlo_Sys_L_Hall_E" = 79.39641   $ Sizing
 "CHRtFlo_Sys_L_Hall_N" = 48.19338   $ Sizing
 "CHRtFlo_Sys_L_Hall_S" = 92.88897   $ Sizing
 "CHRtFlo_Sys_L_Hall_W" = 84.79943   $ Sizing
 "CHRtFlo_Sys_L_LobWait_E" = 196.6348   $ Sizing
 "CHRtFlo_Sys_L_LobWait_N" = 105.1635   $ Sizing
 "CHRtFlo_Sys_L_LobWait_S" = 211.7653   $ Sizing
 "CHRtFlo_Sys_L_LobWait_W" = 194.6855   $ Sizing
 "CHRtFlo_Sys_L_MechElec_C" = 65.93681   $ Sizing
 "CHRtFlo_Sys_L_OfficeOpn_C" = 56.44621   $ Sizing
 "CHRtFlo_Sys_L_OfficeOpn_E" = 428.1114   $ Sizing
 "CHRtFlo_Sys_L_OfficeOpn_N" = 185.7575   $ Sizing
 "CHRtFlo_Sys_L_OfficeOpn_S" = 424.7497   $ Sizing
 "CHRtFlo_Sys_L_OfficeOpn_W" = 396.7049   $ Sizing
 "CHRtFlo_Sys_L_OfficeSm_E" = 350.6029   $ Sizing
 "CHRtFlo_Sys_L_OfficeSm_N" = 140.0471   $ Sizing
 "CHRtFlo_Sys_L_OfficeSm_S" = 369.7782   $ Sizing
 "CHRtFlo_Sys_L_OfficeSm_W" = 343.5864   $ Sizing
 "CHRtFlo_Sys_L_Restrm_C" = 86.07105   $ Sizing
 "CHRtFlo_Sys_L_StorSm_C" = 30.01605   $ Sizing
 "CHRtFlo_Sys_L_StorSm_E" = 75.39246   $ Sizing
 "CHRtFlo_Sys_L_StorSm_N" = 59.92005   $ Sizing
 "CHRtFlo_Sys_L_StorSm_S" = 80.41045   $ Sizing
 "CHRtFlo_Sys_L_StorSm_W" = 76.57058   $ Sizing
 "CHRtFlo_Sys_T_Conf_C" = 198.6448   $ Sizing
 "CHRtFlo_Sys_T_Hall_E" = 98.12434   $ Sizing
 "CHRtFlo_Sys_T_Hall_N" = 44.03197   $ Sizing
 "CHRtFlo_Sys_T_Hall_S" = 109.5454   $ Sizing
 "CHRtFlo_Sys_T_Hall_W" = 96.77903   $ Sizing
 "CHRtFlo_Sys_T_OfficeOpn_C" = 55.11949   $ Sizing
 "CHRtFlo_Sys_T_OfficeOpn_E" = 436.0038   $ Sizing
 "CHRtFlo_Sys_T_OfficeOpn_N" = 212.8433   $ Sizing
 "CHRtFlo_Sys_T_OfficeOpn_S" = 453.7321   $ Sizing
 "CHRtFlo_Sys_T_OfficeOpn_W" = 402.6443   $ Sizing
 "CHRtFlo_Sys_T_OfficeSm_E" = 365.1594   $ Sizing
 "CHRtFlo_Sys_T_OfficeSm_N" = 163.4792   $ Sizing
 "CHRtFlo_Sys_T_OfficeSm_S" = 398.8936   $ Sizing
 "CHRtFlo_Sys_T_OfficeSm_W" = 350.2399   $ Sizing
 "CHRtFlo_Sys_T_Restrm_C" = 86.07105   $ Sizing
 "CHRtFlo_Sys_T_StorSm_E" = 94.78509   $ Sizing
 "CHRtFlo_Sys_T_StorSm_N" = 58.78741   $ Sizing
 "CHRtFlo_Sys_T_StorSm_S" = 101.5378   $ Sizing
 "CHRtFlo_Sys_T_StorSm_W" = 94.39635   $ Sizing
 "CRtdFlo_Sys_L_Break_C" = 265.1829   $ Sizing
 "CRtdFlo_Sys_L_CompDC_C" = 156.2986   $ Sizing
 "CRtdFlo_Sys_L_Conf_C" = 192.8439   $ Sizing
 "CRtdFlo_Sys_L_CopyRm_C" = 50.72986   $ Sizing
 "CRtdFlo_Sys_L_Hall_E" = 79.39641   $ Sizing
 "CRtdFlo_Sys_L_Hall_N" = 48.19338   $ Sizing
 "CRtdFlo_Sys_L_Hall_S" = 92.88897   $ Sizing
 "CRtdFlo_Sys_L_Hall_W" = 84.79943   $ Sizing
 "CRtdFlo_Sys_L_LobWait_E" = 196.6348   $ Sizing
 "CRtdFlo_Sys_L_LobWait_N" = 105.1635   $ Sizing
 "CRtdFlo_Sys_L_LobWait_S" = 211.7653   $ Sizing
 "CRtdFlo_Sys_L_LobWait_W" = 194.6855   $ Sizing
 "CRtdFlo_Sys_L_MechElec_C" = 65.93681   $ Sizing
 "CRtdFlo_Sys_L_OfficeOpn_C" = 56.44621   $ Sizing
 "CRtdFlo_Sys_L_OfficeOpn_E" = 428.1114   $ Sizing
 "CRtdFlo_Sys_L_OfficeOpn_N" = 185.7575   $ Sizing
 "CRtdFlo_Sys_L_OfficeOpn_S" = 424.7497   $ Sizing
 "CRtdFlo_Sys_L_OfficeOpn_W" = 396.7049   $ Sizing
 "CRtdFlo_Sys_L_OfficeSm_E" = 350.6029   $ Sizing
 "CRtdFlo_Sys_L_OfficeSm_N" = 140.0471   $ Sizing
 "CRtdFlo_Sys_L_OfficeSm_S" = 369.7782   $ Sizing
 "CRtdFlo_Sys_L_OfficeSm_W" = 343.5864   $ Sizing
 "CRtdFlo_Sys_L_Restrm_C" = 86.07105   $ Sizing
 "CRtdFlo_Sys_L_StorSm_C" = 30.01605   $ Sizing
 "CRtdFlo_Sys_L_StorSm_E" = 75.39246   $ Sizing
 "CRtdFlo_Sys_L_StorSm_N" = 59.92005   $ Sizing
 "CRtdFlo_Sys_L_StorSm_S" = 80.41045   $ Sizing
 "CRtdFlo_Sys_L_StorSm_W" = 76.57058   $ Sizing
 "CRtdFlo_Sys_T_Conf_C" = 198.6448   $ Sizing
 "CRtdFlo_Sys_T_Hall_E" = 98.12434   $ Sizing
 "CRtdFlo_Sys_T_Hall_N" = 44.03197   $ Sizing
 "CRtdFlo_Sys_T_Hall_S" = 109.5454   $ Sizing
 "CRtdFlo_Sys_T_Hall_W" = 96.77903   $ Sizing
 "CRtdFlo_Sys_T_OfficeOpn_C" = 55.11949   $ Sizing
 "CRtdFlo_Sys_T_OfficeOpn_E" = 436.0038   $ Sizing
 "CRtdFlo_Sys_T_OfficeOpn_N" = 212.8433   $ Sizing
 "CRtdFlo_Sys_T_OfficeOpn_S" = 453.7321   $ Sizing
 "CRtdFlo_Sys_T_OfficeOpn_W" = 402.6443   $ Sizing
 "CRtdFlo_Sys_T_OfficeSm_E" = 365.1594   $ Sizing
 "CRtdFlo_Sys_T_OfficeSm_N" = 163.4792   $ Sizing
 "CRtdFlo_Sys_T_OfficeSm_S" = 398.8936   $ Sizing
 "CRtdFlo_Sys_T_OfficeSm_W" = 350.2399   $ Sizing
 "CRtdFlo_Sys_T_Restrm_C" = 86.07105   $ Sizing
 "CRtdFlo_Sys_T_StorSm_E" = 94.78509   $ Sizing
 "CRtdFlo_Sys_T_StorSm_N" = 58.78741   $ Sizing
 "CRtdFlo_Sys_T_StorSm_S" = 101.5378   $ Sizing
 "CRtdFlo_Sys_T_StorSm_W" = 94.39635   $ Sizing
 "CSupFlo_Sys_L_Break_C" = 265.1829   $ Sizing
 "CSupFlo_Sys_L_CompDC_C" = 156.2986   $ Sizing
 "CSupFlo_Sys_L_Conf_C" = 192.8439   $ Sizing
 "CSupFlo_Sys_L_CopyRm_C" = 50.72986   $ Sizing
 "CSupFlo_Sys_L_Hall_E" = 79.39641   $ Sizing
 "CSupFlo_Sys_L_Hall_N" = 48.19338   $ Sizing
 "CSupFlo_Sys_L_Hall_S" = 92.88897   $ Sizing
 "CSupFlo_Sys_L_Hall_W" = 84.79943   $ Sizing
 "CSupFlo_Sys_L_LobWait_E" = 196.6348   $ Sizing
 "CSupFlo_Sys_L_LobWait_N" = 105.1635   $ Sizing
 "CSupFlo_Sys_L_LobWait_S" = 211.7653   $ Sizing
 "CSupFlo_Sys_L_LobWait_W" = 194.6855   $ Sizing
 "CSupFlo_Sys_L_MechElec_C" = 65.93681   $ Sizing
 "CSupFlo_Sys_L_OfficeOpn_C" = 56.44621   $ Sizing
 "CSupFlo_Sys_L_OfficeOpn_E" = 428.1114   $ Sizing
 "CSupFlo_Sys_L_OfficeOpn_N" = 185.7575   $ Sizing
 "CSupFlo_Sys_L_OfficeOpn_S" = 424.7497   $ Sizing
 "CSupFlo_Sys_L_OfficeOpn_W" = 396.7049   $ Sizing
 "CSupFlo_Sys_L_OfficeSm_E" = 350.6029   $ Sizing
 "CSupFlo_Sys_L_OfficeSm_N" = 140.0471   $ Sizing
 "CSupFlo_Sys_L_OfficeSm_S" = 369.7782   $ Sizing
 "CSupFlo_Sys_L_OfficeSm_W" = 343.5864   $ Sizing
 "CSupFlo_Sys_L_Restrm_C" = 86.07105   $ Sizing
 "CSupFlo_Sys_L_StorSm_C" = 30.01605   $ Sizing
 "CSupFlo_Sys_L_StorSm_E" = 75.39246   $ Sizing
 "CSupFlo_Sys_L_StorSm_N" = 59.92005   $ Sizing
 "CSupFlo_Sys_L_StorSm_S" = 80.41045   $ Sizing
 "CSupFlo_Sys_L_StorSm_W" = 76.57058   $ Sizing
 "CSupFlo_Sys_T_Conf_C" = 198.6448   $ Sizing
 "CSupFlo_Sys_T_Hall_E" = 98.12434   $ Sizing
 "CSupFlo_Sys_T_Hall_N" = 44.03197   $ Sizing
 "CSupFlo_Sys_T_Hall_S" = 109.5454   $ Sizing
 "CSupFlo_Sys_T_Hall_W" = 96.77903   $ Sizing
 "CSupFlo_Sys_T_OfficeOpn_C" = 55.11949   $ Sizing
 "CSupFlo_Sys_T_OfficeOpn_E" = 436.0038   $ Sizing
 "CSupFlo_Sys_T_OfficeOpn_N" = 212.8433   $ Sizing
 "CSupFlo_Sys_T_OfficeOpn_S" = 453.7321   $ Sizing
 "CSupFlo_Sys_T_OfficeOpn_W" = 402.6443   $ Sizing
 "CSupFlo_Sys_T_OfficeSm_E" = 365.1594   $ Sizing
 "CSupFlo_Sys_T_OfficeSm_N" = 163.4792   $ Sizing
 "CSupFlo_Sys_T_OfficeSm_S" = 398.8936   $ Sizing
 "CSupFlo_Sys_T_OfficeSm_W" = 350.2399   $ Sizing
 "CSupFlo_Sys_T_Restrm_C" = 86.07105   $ Sizing
 "CSupFlo_Sys_T_StorSm_E" = 94.78509   $ Sizing
 "CSupFlo_Sys_T_StorSm_N" = 58.78741   $ Sizing
 "CSupFlo_Sys_T_StorSm_S" = 101.5378   $ Sizing
 "CSupFlo_Sys_T_StorSm_W" = 94.39635   $ Sizing
 "ClCap_Sys_L_Break_C" = 9024.015   $ Sizing
 "ClCap_Sys_L_CompDC_C" = 5318.747   $ Sizing
 "ClCap_Sys_L_Conf_C" = 8352.098   $ Sizing
 "ClCap_Sys_L_CopyRm_C" = 1726.307   $ Sizing
 "ClCap_Sys_L_Hall_E" = 2701.812   $ Sizing
 "ClCap_Sys_L_Hall_N" = 1639.992   $ Sizing
 "ClCap_Sys_L_Hall_S" = 3160.956   $ Sizing
 "ClCap_Sys_L_Hall_W" = 2885.674   $ Sizing
 "ClCap_Sys_L_LobWait_E" = 6691.363   $ Sizing
 "ClCap_Sys_L_LobWait_N" = 3578.649   $ Sizing
 "ClCap_Sys_L_LobWait_S" = 7206.247   $ Sizing
 "ClCap_Sys_L_LobWait_W" = 6625.032   $ Sizing
 "ClCap_Sys_L_MechElec_C" = 2243.79   $ Sizing
 "ClCap_Sys_L_OfficeOpn_C" = 1920.831   $ Sizing
 "ClCap_Sys_L_OfficeOpn_E" = 14568.37   $ Sizing
 "ClCap_Sys_L_OfficeOpn_N" = 6321.218   $ Sizing
 "ClCap_Sys_L_OfficeOpn_S" = 14453.98   $ Sizing
 "ClCap_Sys_L_OfficeOpn_W" = 13499.63   $ Sizing
 "ClCap_Sys_L_OfficeSm_E" = 11930.81   $ Sizing
 "ClCap_Sys_L_OfficeSm_N" = 4765.719   $ Sizing
 "ClCap_Sys_L_OfficeSm_S" = 12583.33   $ Sizing
 "ClCap_Sys_L_OfficeSm_W" = 11692.04   $ Sizing
 "ClCap_Sys_L_Restrm_C" = 2928.947   $ Sizing
 "ClCap_Sys_L_StorSm_C" = 1021.428   $ Sizing
 "ClCap_Sys_L_StorSm_E" = 2565.561   $ Sizing
 "ClCap_Sys_L_StorSm_N" = 2039.043   $ Sizing
 "ClCap_Sys_L_StorSm_S" = 2736.319   $ Sizing
 "ClCap_Sys_L_StorSm_W" = 2605.651   $ Sizing
 "ClCap_Sys_T_Conf_C" = 8603.337   $ Sizing
 "ClCap_Sys_T_Hall_E" = 3339.113   $ Sizing
 "ClCap_Sys_T_Hall_N" = 1498.381   $ Sizing
 "ClCap_Sys_T_Hall_S" = 3727.764   $ Sizing
 "ClCap_Sys_T_Hall_W" = 3293.333   $ Sizing
 "ClCap_Sys_T_OfficeOpn_C" = 1875.683   $ Sizing
 "ClCap_Sys_T_OfficeOpn_E" = 14836.95   $ Sizing
 "ClCap_Sys_T_OfficeOpn_N" = 7242.929   $ Sizing
 "ClCap_Sys_T_OfficeOpn_S" = 15440.23   $ Sizing
 "ClCap_Sys_T_OfficeOpn_W" = 13701.74   $ Sizing
 "ClCap_Sys_T_OfficeSm_E" = 12426.16   $ Sizing
 "ClCap_Sys_T_OfficeSm_N" = 5563.1   $ Sizing
 "ClCap_Sys_T_OfficeSm_S" = 13574.11   $ Sizing
 "ClCap_Sys_T_OfficeSm_W" = 11918.45   $ Sizing
 "ClCap_Sys_T_Restrm_C" = 2928.947   $ Sizing
 "ClCap_Sys_T_StorSm_E" = 3225.48   $ Sizing
 "ClCap_Sys_T_StorSm_N" = 2000.5   $ Sizing
 "ClCap_Sys_T_StorSm_S" = 3455.272   $ Sizing
 "ClCap_Sys_T_StorSm_W" = 3212.251   $ Sizing
 "HtCap_Sys_L_Break_C" = -16184.97   $ Sizing
 "HtCap_Sys_L_CompDC_C" = -5689.764   $ Sizing
 "HtCap_Sys_L_Conf_C" = -12197.63   $ Sizing
 "HtCap_Sys_L_CopyRm_C" = -3483.197   $ Sizing
 "HtCap_Sys_L_Hall_E" = -3081.796   $ Sizing
 "HtCap_Sys_L_Hall_N" = -1988.177   $ Sizing
 "HtCap_Sys_L_Hall_S" = -3391.421   $ Sizing
 "HtCap_Sys_L_Hall_W" = -3192.133   $ Sizing
 "HtCap_Sys_L_LobWait_E" = -8195.473   $ Sizing
 "HtCap_Sys_L_LobWait_N" = -5323.202   $ Sizing
 "HtCap_Sys_L_LobWait_S" = -8670.087   $ Sizing
 "HtCap_Sys_L_LobWait_W" = -8193.658   $ Sizing
 "HtCap_Sys_L_MechElec_C" = -3012.237   $ Sizing
 "HtCap_Sys_L_OfficeOpn_C" = -2346.507   $ Sizing
 "HtCap_Sys_L_OfficeOpn_E" = -15950.31   $ Sizing
 "HtCap_Sys_L_OfficeOpn_N" = -8737.694   $ Sizing
 "HtCap_Sys_L_OfficeOpn_S" = -15531.84   $ Sizing
 "HtCap_Sys_L_OfficeOpn_W" = -15200.51   $ Sizing
 "HtCap_Sys_L_OfficeSm_E" = -13075.7   $ Sizing
 "HtCap_Sys_L_OfficeSm_N" = -6433.355   $ Sizing
 "HtCap_Sys_L_OfficeSm_S" = -12956.91   $ Sizing
 "HtCap_Sys_L_OfficeSm_W" = -12620   $ Sizing
 "HtCap_Sys_L_Restrm_C" = -3074.919   $ Sizing
 "HtCap_Sys_L_StorSm_C" = -1293.538   $ Sizing
 "HtCap_Sys_L_StorSm_E" = -3086.219   $ Sizing
 "HtCap_Sys_L_StorSm_N" = -2645.683   $ Sizing
 "HtCap_Sys_L_StorSm_S" = -3249.355   $ Sizing
 "HtCap_Sys_L_StorSm_W" = -3173.204   $ Sizing
 "HtCap_Sys_T_Conf_C" = -12515.6   $ Sizing
 "HtCap_Sys_T_Hall_E" = -3994.361   $ Sizing
 "HtCap_Sys_T_Hall_N" = -2080.28   $ Sizing
 "HtCap_Sys_T_Hall_S" = -4390.611   $ Sizing
 "HtCap_Sys_T_Hall_W" = -3949.056   $ Sizing
 "HtCap_Sys_T_OfficeOpn_C" = -2510.819   $ Sizing
 "HtCap_Sys_T_OfficeOpn_E" = -17738.68   $ Sizing
 "HtCap_Sys_T_OfficeOpn_N" = -10106.52   $ Sizing
 "HtCap_Sys_T_OfficeOpn_S" = -18297.42   $ Sizing
 "HtCap_Sys_T_OfficeOpn_W" = -16615.75   $ Sizing
 "HtCap_Sys_T_OfficeSm_E" = -14650.12   $ Sizing
 "HtCap_Sys_T_OfficeSm_N" = -7714.931   $ Sizing
 "HtCap_Sys_T_OfficeSm_S" = -15712.51   $ Sizing
 "HtCap_Sys_T_OfficeSm_W" = -14150.22   $ Sizing
 "HtCap_Sys_T_Restrm_C" = -3501.747   $ Sizing
 "HtCap_Sys_T_StorSm_E" = -4199.737   $ Sizing
 "HtCap_Sys_T_StorSm_N" = -2936.542   $ Sizing
 "HtCap_Sys_T_StorSm_S" = -4321.937   $ Sizing
 "HtCap_Sys_T_StorSm_W" = -4173.481   $ Sizing
..

##include Templates\OfS_DX_SZ.inp
END ..
COMPUTE ..
STOP ..
