INPUT ..

##fileprefix C:\Users\jglasskatz\MASControl3\
##set1 IsSizing FALSE
##set1 CoolType DX
##set1 HeatType ELECTRIC
##set1 EU_HrRepVar 1
##set1 BldgVint 1996
##set1 BldgLoc CZ01

 ##set1 mBFMult 1   $ IP Tech: RefgChg-NRes-Std

PARAMETER
 "AltFactor" = 1.00753   $ IP Non-Tech
 "BldgEconoFlag" = 1   $ IP Non-Tech
 "Break_EWSF" = 1   $ IP Non-Tech
 "Break_LWSF" = 1.1   $ IP Non-Tech
 "CDD_DBHi10" = 65   $ IP Non-Tech
 "CDD_DBHi7" = 68   $ IP Non-Tech
 "CDD_DBHi8" = 66   $ IP Non-Tech
 "CDD_DBHi9" = 77   $ IP Non-Tech
 "CDD_DBRange10" = 17   $ IP Non-Tech
 "CDD_DBRange7" = 11   $ IP Non-Tech
 "CDD_DBRange8" = 10   $ IP Non-Tech
 "CDD_DBRange9" = 29   $ IP Non-Tech
 "CDD_Day10" = 15   $ IP Non-Tech
 "CDD_Day7" = 16   $ IP Non-Tech
 "CDD_Day8" = 20   $ IP Non-Tech
 "CDD_Day9" = 17   $ IP Non-Tech
 "CDD_HrHi10" = 12   $ IP Non-Tech
 "CDD_HrHi7" = 12   $ IP Non-Tech
 "CDD_HrHi8" = 13   $ IP Non-Tech
 "CDD_HrHi9" = 17   $ IP Non-Tech
 "CDD_HrLo10" = 6   $ IP Non-Tech
 "CDD_HrLo7" = 3   $ IP Non-Tech
 "CDD_HrLo8" = 8   $ IP Non-Tech
 "CDD_HrLo9" = 4   $ IP Non-Tech
 "CDD_WB10" = 57.53039551   $ IP Non-Tech
 "CDD_WB7" = 59.29250717   $ IP Non-Tech
 "CDD_WB8" = 60.75350189   $ IP Non-Tech
 "CDD_WB9" = 61.08643341   $ IP Non-Tech
 "CZ_Category" = Tem   $ IP Non-Tech
 "ChwVintEconoFlag" = 1   $ IP Non-Tech
 "CompRoomData_EWSF" = 5.25   $ IP Non-Tech
 "CompRoomData_LWSF" = 1.2   $ IP Non-Tech
 "Conference_EWSF" = 1.05   $ IP Non-Tech
 "Conference_LWSF" = 1.4   $ IP Non-Tech
 "CoolSetT" = 45   $ IP Non-Tech
 "CoolType" = DX   $ IP Non-Tech
 "CopyRoom_EWSF" = 1.575   $ IP Non-Tech
 "CopyRoom_LWSF" = 1.3   $ IP Non-Tech
 "DesCoolT" = 75   $ IP Non-Tech
 "DesHeatT" = 73   $ IP Non-Tech
 "EconoEnthLimit" = 28   $ IP Non-Tech
 "EconoTempLimit" = 70   $ IP Non-Tech
 "Elevation" = 203   $ IP Non-Tech
 "HDD_CloudAmt1" = 0   $ IP Non-Tech
 "HDD_DBHi1" = 53   $ IP Non-Tech
 "HDD_DBRange1" = 20   $ IP Non-Tech
 "HDD_Day1" = 15   $ IP Non-Tech
 "HDD_HrHi1" = 14   $ IP Non-Tech
 "HDD_HrLo1" = 6   $ IP Non-Tech
 "HDD_WB1" = 42.3   $ IP Non-Tech
 "HDD_WindSpd1" = 12.7   $ IP Non-Tech
 "Hall_EWSF" = 0.21   $ IP Non-Tech
 "Hall_LWSF" = 0.6   $ IP Non-Tech
 "HeatSrc" = ELECTRIC   $ IP Non-Tech
 "HeatSrcTU" = HEAT-PUMP   $ IP Non-Tech
 "HeatType" = Elec   $ IP Non-Tech
 "HeatTypeTU" = HEAT-PUMP   $ IP Non-Tech
 "IndoorFanMode" = CONTINUOUS   $ IP Non-Tech
 "KT_TransferAir" = No   $ IP Non-Tech
 "Latitude" = 40.8   $ IP Non-Tech
 "LobbyWaiting_EWSF" = 0.5125   $ IP Non-Tech
 "LobbyWaiting_LWSF" = 1.3   $ IP Non-Tech
 "Longitude" = 124.2   $ IP Non-Tech
 "LtgMsrApplic" = ALL   $ Msr TechID: NonResLtgRefMsr-EX
 "LtgSav_CFL" = 0   $ Msr TechID: NonResLtgRefMsr-EX
 "LtgSav_EX" = 0.3   $ Msr TechID: NonResLtgRefMsr-EX
 "LtgSav_HB" = 0   $ Msr TechID: NonResLtgRefMsr-EX
 "LtgSav_LF" = 0   $ Msr TechID: NonResLtgRefMsr-EX
 "LtgSav_SP" = 0   $ Msr TechID: NonResLtgRefMsr-EX
 "MZFanMechEff" = 0.58   $ IP Non-Tech
 "MZHasRetFan" = FALSE   $ IP Non-Tech
 "MZ_RFanWPerCfm" = 0.33   $ IP Non-Tech
 "MZ_SFanWPerCfm" = 0.75   $ IP Non-Tech
 "MZ_SupFanStatic" = 2.25   $ IP Non-Tech
 "MaxSupT_MZ" = 100   $ IP Non-Tech
 "MaxSupT_SZ" = 100   $ IP Non-Tech
 "MaxSupT_TU" = 90   $ IP Non-Tech
 "MechElecRoom_EWSF" = 0.21   $ IP Non-Tech
 "MechElecRoom_LWSF" = 0.7   $ IP Non-Tech
 "MinCfmPerSF" = 0.4   $ IP Non-Tech
 "MinSupT" = 55   $ IP Non-Tech
 "OccCoolT" = 76   $ IP Non-Tech
 "OccHeatT" = 72   $ IP Non-Tech
 "OfficeOpen_EWSF" = 1.575   $ IP Non-Tech
 "OfficeOpen_LWSF" = 1.2   $ IP Non-Tech
 "OfficeSmall_EWSF" = 1.575   $ IP Non-Tech
 "OfficeSmall_LWSF" = 1.3   $ IP Non-Tech
 "PkgDxVintEconoFlag" = 0   $ IP Non-Tech
 "Restroom_EWSF" = 0.21   $ IP Non-Tech
 "Restroom_LWSF" = 0.6   $ IP Non-Tech
 "SZFanMechEff" = 0.58   $ IP Non-Tech
 "SZHasRetFan" = FALSE   $ IP Non-Tech
 "SZ_Is_2Spd" = FALSE   $ IP Non-Tech
 "SZ_SFanWPerCfm" = 0.46   $ IP Non-Tech
 "SZ_SupFanStatic" = 0.75   $ IP Non-Tech
 "StorageSmlCond_EWSF" = 0.21   $ IP Non-Tech
 "StorageSmlCond_LWSF" = 0.6   $ IP Non-Tech
 "T24GlzTbl" = CZTbl   $ IP Non-Tech
 "TermUnitFanMechEff" = 1   $ IP Non-Tech
 "TermUnitFanMode" = INTERMITTENT   $ IP Non-Tech
 "TwrSetpt" = 80   $ IP Non-Tech
 "UnocCoolT" = 86   $ IP Non-Tech
 "UnocHeatT" = 62   $ IP Non-Tech
 "WlhpVintEconoFlag" = 0   $ IP Non-Tech
 "EconoCtrl" = OA-TEMP   $ IP Tech: AirEcono-OATemp
 "MaxOAFrac" = 0.85   $ IP Tech: AirEcono-OATemp
 "UseEconoVintApplic" = FALSE   $ IP Tech: AirEcono-OATemp
 "DuctDT" = 1   $ IP Tech: ComDuctInsul-1
 "DuctAirLoss" = 0   $ IP Tech: ComDuctLeak-0
 "DuctLossOAFrac" = 0   $ IP Tech: ComDuctLeak-0
 "ComRoofInsCalc" = FromUo   $ IP Tech: ComRoofIns-WFrm-0.06
 "ComRoofInsR" = -999   $ IP Tech: ComRoofIns-WFrm-0.06
 "ComRoofUo" = 0.06   $ IP Tech: ComRoofIns-WFrm-0.06
 "ComEWInsCalc" = FromUo   $ IP Tech: ComWallIns-WFrm-0.08
 "ComEWInsR" = -999   $ IP Tech: ComWallIns-WFrm-0.08
 "ComEWUo" = 0.08   $ IP Tech: ComWallIns-WFrm-0.08
 "ComN_SHGC" = 0.77   $ IP Tech: NResWin-ComN-0.77-0.77
 "ComN_UFactor" = 0.77   $ IP Tech: NResWin-ComN-0.77-0.77
 "ComN_VisTrans" = 0.81   $ IP Tech: NResWin-ComN-0.77-0.77
 "ComN_WinCode" = G2000   $ IP Tech: NResWin-ComN-0.77-0.77
 "ComN_WinFrmFrac" = 0.17   $ IP Tech: NResWin-ComN-0.77-0.77
 "ComN_WinFrmU" = 1   $ IP Tech: NResWin-ComN-0.77-0.77
 "ComO_SHGC" = 0.5   $ IP Tech: NResWin-ComO-0.77-0.5
 "ComO_UFactor" = 0.77   $ IP Tech: NResWin-ComO-0.77-0.5
 "ComO_VisTrans" = 0.77   $ IP Tech: NResWin-ComO-0.77-0.5
 "ComO_WinCode" = G2630   $ IP Tech: NResWin-ComO-0.77-0.5
 "ComO_WinFrmFrac" = 0.17   $ IP Tech: NResWin-ComO-0.77-0.5
 "ComO_WinFrmU" = 1   $ IP Tech: NResWin-ComO-0.77-0.5
 "BF_fFlow" = PSZ65to135_BF_fFlow   $ IP Tech: PkgAC1SpH-65to135-E10
 "BF_fT" = PSZ65to135_BF_fT   $ IP Tech: PkgAC1SpH-65to135-E10
 "CEIR_fPLR" = PSZ65to135_CEIR_fPLR   $ IP Tech: PkgAC1SpH-65to135-E10
 "CLoss_fPLR" = PSZ65to135_CLoss_fPLR   $ IP Tech: PkgAC1SpH-65to135-E10
 "COP" = -1   $ IP Tech: PkgAC1SpH-65to135-E10
 "COP47" = -1   $ IP Tech: PkgAC1SpH-65to135-E10
 "CfmPerBtuh" = 0.02917   $ IP Tech: PkgAC1SpH-65to135-E10
 "ClCap_fT" = PSZ65to135_ClCap_fT   $ IP Tech: PkgAC1SpH-65to135-E10
 "ClSH_fT" = PSZ65to135_ClSH_fT   $ IP Tech: PkgAC1SpH-65to135-E10
 "CoilBF" = 0.114   $ IP Tech: PkgAC1SpH-65to135-E10
 "CondWPerBtuh" = 0   $ IP Tech: PkgAC1SpH-65to135-E10
 "CoolSensCap" = 0.663   $ IP Tech: PkgAC1SpH-65to135-E10
 "CoolingEIR" = 0.29745   $ IP Tech: PkgAC1SpH-65to135-E10
 "CrnkEIR" = 0.01   $ IP Tech: PkgAC1SpH-65to135-E10
 "CrnkMaxT" = 50   $ IP Tech: PkgAC1SpH-65to135-E10
 "DXType" = Pkg   $ IP Tech: PkgAC1SpH-65to135-E10
 "EER" = 9.67   $ IP Tech: PkgAC1SpH-65to135-E10
 "EIR_fT" = PSZ65to135_EIR_fT   $ IP Tech: PkgAC1SpH-65to135-E10
 "FanEirPlr" = TwoSpeedFan   $ IP Tech: PkgAC1SpH-65to135-E10
 "FanWPerCfm" = 0.412   $ IP Tech: PkgAC1SpH-65to135-E10
 "HIR_fT" = DEFAULT   $ IP Tech: PkgAC1SpH-65to135-E10
 "HtCap_fT" = DEFAULT   $ IP Tech: PkgAC1SpH-65to135-E10
 "HtCoolCapRatio" = -1   $ IP Tech: PkgAC1SpH-65to135-E10
 "HtgEIR" = -1   $ IP Tech: PkgAC1SpH-65to135-E10
 "HtgFuel" = Gas   $ IP Tech: PkgAC1SpH-65to135-E10
 "IEER" = 11.87   $ IP Tech: PkgAC1SpH-65to135-E10
 "LowSpdCapRatio" = 0.5   $ IP Tech: PkgAC1SpH-65to135-E10
 "LowSpdCfmRatio" = 0.66   $ IP Tech: PkgAC1SpH-65to135-E10
 "NominalCap" = 15   $ IP Tech: PkgAC1SpH-65to135-E10
 "NumStages" = 1   $ IP Tech: PkgAC1SpH-65to135-E10
 "RatedEER" = 10   $ IP Tech: PkgAC1SpH-65to135-E10
 "RatedSupMtrClass" = HiEff   $ IP Tech: PkgAC1SpH-65to135-E10
 "SizeRange" = 65to135   $ IP Tech: PkgAC1SpH-65to135-E10
 "SubType" = AC   $ IP Tech: PkgAC1SpH-65to135-E10
 "SupMotEff" = 0.84   $ IP Tech: PkgAC1SpH-65to135-E10
 "Tier" = 0   $ IP Tech: PkgAC1SpH-65to135-E10
 "TotCoolCap" = 184140   $ IP Tech: PkgAC1SpH-65to135-E10
 "BFMult" = 1   $ IP Tech: RefgChg-NRes-Std
 "CoolEirMult" = 1   $ IP Tech: RefgChg-NRes-Std
 "SensCoolCapMult" = 1   $ IP Tech: RefgChg-NRes-Std
 "TotCoolCapMult" = 1   $ IP Tech: RefgChg-NRes-Std
 "AltAdjFactor" = 1.007532   $ Sizing
 "CAssFlo_L_Break_CZn" = 286.2926   $ Sizing
 "CAssFlo_L_CompDC_CZn" = 172.7945   $ Sizing
 "CAssFlo_L_Conf_CZn" = 214.7731   $ Sizing
 "CAssFlo_L_CopyRm_CZn" = 67.29394   $ Sizing
 "CAssFlo_L_Hall_EZn" = 134.365   $ Sizing
 "CAssFlo_L_Hall_NZn" = 62.66471   $ Sizing
 "CAssFlo_L_Hall_SZn" = 153.4408   $ Sizing
 "CAssFlo_L_Hall_WZn" = 136.0676   $ Sizing
 "CAssFlo_L_LobWait_EZn" = 321.3632   $ Sizing
 "CAssFlo_L_LobWait_NZn" = 132.0876   $ Sizing
 "CAssFlo_L_LobWait_SZn" = 357.7017   $ Sizing
 "CAssFlo_L_LobWait_WZn" = 315.7156   $ Sizing
 "CAssFlo_L_MechElec_CZn" = 65.93681   $ Sizing
 "CAssFlo_L_OfficeOpn_CZn" = 69.62615   $ Sizing
 "CAssFlo_L_OfficeOpn_EZn" = 626.5441   $ Sizing
 "CAssFlo_L_OfficeOpn_NZn" = 259.6116   $ Sizing
 "CAssFlo_L_OfficeOpn_SZn" = 641.3469   $ Sizing
 "CAssFlo_L_OfficeOpn_WZn" = 583.6757   $ Sizing
 "CAssFlo_L_OfficeSm_EZn" = 535.6146   $ Sizing
 "CAssFlo_L_OfficeSm_NZn" = 200.7791   $ Sizing
 "CAssFlo_L_OfficeSm_SZn" = 570.4711   $ Sizing
 "CAssFlo_L_OfficeSm_WZn" = 515.2529   $ Sizing
 "CAssFlo_L_Restrm_CZn" = 86.07105   $ Sizing
 "CAssFlo_L_StorSm_CZn" = 31.19497   $ Sizing
 "CAssFlo_L_StorSm_EZn" = 129.5024   $ Sizing
 "CAssFlo_L_StorSm_NZn" = 71.4966   $ Sizing
 "CAssFlo_L_StorSm_SZn" = 142.1313   $ Sizing
 "CAssFlo_L_StorSm_WZn" = 124.7963   $ Sizing
 "CAssFlo_T_Conf_CZn" = 214.6   $ Sizing
 "CAssFlo_T_Hall_EZn" = 153.2394   $ Sizing
 "CAssFlo_T_Hall_NZn" = 59.69593   $ Sizing
 "CAssFlo_T_Hall_SZn" = 177.8363   $ Sizing
 "CAssFlo_T_Hall_WZn" = 149.242   $ Sizing
 "CAssFlo_T_OfficeOpn_CZn" = 60.67275   $ Sizing
 "CAssFlo_T_OfficeOpn_EZn" = 631.0057   $ Sizing
 "CAssFlo_T_OfficeOpn_NZn" = 284.5693   $ Sizing
 "CAssFlo_T_OfficeOpn_SZn" = 690.0318   $ Sizing
 "CAssFlo_T_OfficeOpn_WZn" = 584.121   $ Sizing
 "CAssFlo_T_OfficeSm_EZn" = 548.5653   $ Sizing
 "CAssFlo_T_OfficeSm_NZn" = 223.7002   $ Sizing
 "CAssFlo_T_OfficeSm_SZn" = 619.0659   $ Sizing
 "CAssFlo_T_OfficeSm_WZn" = 528.6668   $ Sizing
 "CAssFlo_T_Restrm_CZn" = 91.16883   $ Sizing
 "CAssFlo_T_StorSm_EZn" = 148.4413   $ Sizing
 "CAssFlo_T_StorSm_NZn" = 71.07026   $ Sizing
 "CAssFlo_T_StorSm_SZn" = 169.2948   $ Sizing
 "CAssFlo_T_StorSm_WZn" = 145.2235   $ Sizing
 "CHRtFlo_Sys_L_Break_C" = 286.2926   $ Sizing
 "CHRtFlo_Sys_L_CompDC_C" = 172.7945   $ Sizing
 "CHRtFlo_Sys_L_Conf_C" = 214.7731   $ Sizing
 "CHRtFlo_Sys_L_CopyRm_C" = 67.29394   $ Sizing
 "CHRtFlo_Sys_L_Hall_E" = 134.365   $ Sizing
 "CHRtFlo_Sys_L_Hall_N" = 62.66471   $ Sizing
 "CHRtFlo_Sys_L_Hall_S" = 153.4408   $ Sizing
 "CHRtFlo_Sys_L_Hall_W" = 136.0676   $ Sizing
 "CHRtFlo_Sys_L_LobWait_E" = 321.3632   $ Sizing
 "CHRtFlo_Sys_L_LobWait_N" = 132.0876   $ Sizing
 "CHRtFlo_Sys_L_LobWait_S" = 357.7017   $ Sizing
 "CHRtFlo_Sys_L_LobWait_W" = 315.7156   $ Sizing
 "CHRtFlo_Sys_L_MechElec_C" = 65.93681   $ Sizing
 "CHRtFlo_Sys_L_OfficeOpn_C" = 69.62615   $ Sizing
 "CHRtFlo_Sys_L_OfficeOpn_E" = 626.5441   $ Sizing
 "CHRtFlo_Sys_L_OfficeOpn_N" = 259.6116   $ Sizing
 "CHRtFlo_Sys_L_OfficeOpn_S" = 641.3469   $ Sizing
 "CHRtFlo_Sys_L_OfficeOpn_W" = 583.6757   $ Sizing
 "CHRtFlo_Sys_L_OfficeSm_E" = 535.6146   $ Sizing
 "CHRtFlo_Sys_L_OfficeSm_N" = 200.7791   $ Sizing
 "CHRtFlo_Sys_L_OfficeSm_S" = 570.4711   $ Sizing
 "CHRtFlo_Sys_L_OfficeSm_W" = 515.2529   $ Sizing
 "CHRtFlo_Sys_L_Restrm_C" = 86.07105   $ Sizing
 "CHRtFlo_Sys_L_StorSm_C" = 31.19497   $ Sizing
 "CHRtFlo_Sys_L_StorSm_E" = 129.5024   $ Sizing
 "CHRtFlo_Sys_L_StorSm_N" = 71.4966   $ Sizing
 "CHRtFlo_Sys_L_StorSm_S" = 142.1313   $ Sizing
 "CHRtFlo_Sys_L_StorSm_W" = 124.7963   $ Sizing
 "CHRtFlo_Sys_T_Conf_C" = 214.6   $ Sizing
 "CHRtFlo_Sys_T_Hall_E" = 153.2394   $ Sizing
 "CHRtFlo_Sys_T_Hall_N" = 59.69593   $ Sizing
 "CHRtFlo_Sys_T_Hall_S" = 177.8363   $ Sizing
 "CHRtFlo_Sys_T_Hall_W" = 149.242   $ Sizing
 "CHRtFlo_Sys_T_OfficeOpn_C" = 60.67275   $ Sizing
 "CHRtFlo_Sys_T_OfficeOpn_E" = 631.0057   $ Sizing
 "CHRtFlo_Sys_T_OfficeOpn_N" = 284.5693   $ Sizing
 "CHRtFlo_Sys_T_OfficeOpn_S" = 690.0318   $ Sizing
 "CHRtFlo_Sys_T_OfficeOpn_W" = 584.121   $ Sizing
 "CHRtFlo_Sys_T_OfficeSm_E" = 548.5653   $ Sizing
 "CHRtFlo_Sys_T_OfficeSm_N" = 223.7002   $ Sizing
 "CHRtFlo_Sys_T_OfficeSm_S" = 619.0659   $ Sizing
 "CHRtFlo_Sys_T_OfficeSm_W" = 528.6668   $ Sizing
 "CHRtFlo_Sys_T_Restrm_C" = 91.16883   $ Sizing
 "CHRtFlo_Sys_T_StorSm_E" = 148.4413   $ Sizing
 "CHRtFlo_Sys_T_StorSm_N" = 71.07026   $ Sizing
 "CHRtFlo_Sys_T_StorSm_S" = 169.2948   $ Sizing
 "CHRtFlo_Sys_T_StorSm_W" = 145.2235   $ Sizing
 "CRtdFlo_Sys_L_Break_C" = 286.2926   $ Sizing
 "CRtdFlo_Sys_L_CompDC_C" = 172.7945   $ Sizing
 "CRtdFlo_Sys_L_Conf_C" = 214.773   $ Sizing
 "CRtdFlo_Sys_L_CopyRm_C" = 67.29394   $ Sizing
 "CRtdFlo_Sys_L_Hall_E" = 134.365   $ Sizing
 "CRtdFlo_Sys_L_Hall_N" = 62.6647   $ Sizing
 "CRtdFlo_Sys_L_Hall_S" = 153.4408   $ Sizing
 "CRtdFlo_Sys_L_Hall_W" = 136.0676   $ Sizing
 "CRtdFlo_Sys_L_LobWait_E" = 321.3632   $ Sizing
 "CRtdFlo_Sys_L_LobWait_N" = 132.0876   $ Sizing
 "CRtdFlo_Sys_L_LobWait_S" = 357.7017   $ Sizing
 "CRtdFlo_Sys_L_LobWait_W" = 315.7156   $ Sizing
 "CRtdFlo_Sys_L_MechElec_C" = 65.93681   $ Sizing
 "CRtdFlo_Sys_L_OfficeOpn_C" = 69.62615   $ Sizing
 "CRtdFlo_Sys_L_OfficeOpn_E" = 626.5441   $ Sizing
 "CRtdFlo_Sys_L_OfficeOpn_N" = 259.6116   $ Sizing
 "CRtdFlo_Sys_L_OfficeOpn_S" = 641.3469   $ Sizing
 "CRtdFlo_Sys_L_OfficeOpn_W" = 583.6757   $ Sizing
 "CRtdFlo_Sys_L_OfficeSm_E" = 535.6146   $ Sizing
 "CRtdFlo_Sys_L_OfficeSm_N" = 200.7791   $ Sizing
 "CRtdFlo_Sys_L_OfficeSm_S" = 570.4711   $ Sizing
 "CRtdFlo_Sys_L_OfficeSm_W" = 515.2529   $ Sizing
 "CRtdFlo_Sys_L_Restrm_C" = 86.07105   $ Sizing
 "CRtdFlo_Sys_L_StorSm_C" = 31.19497   $ Sizing
 "CRtdFlo_Sys_L_StorSm_E" = 129.5024   $ Sizing
 "CRtdFlo_Sys_L_StorSm_N" = 71.4966   $ Sizing
 "CRtdFlo_Sys_L_StorSm_S" = 142.1313   $ Sizing
 "CRtdFlo_Sys_L_StorSm_W" = 124.7963   $ Sizing
 "CRtdFlo_Sys_T_Conf_C" = 214.6   $ Sizing
 "CRtdFlo_Sys_T_Hall_E" = 153.2394   $ Sizing
 "CRtdFlo_Sys_T_Hall_N" = 59.69593   $ Sizing
 "CRtdFlo_Sys_T_Hall_S" = 177.8363   $ Sizing
 "CRtdFlo_Sys_T_Hall_W" = 149.242   $ Sizing
 "CRtdFlo_Sys_T_OfficeOpn_C" = 60.67274   $ Sizing
 "CRtdFlo_Sys_T_OfficeOpn_E" = 631.0057   $ Sizing
 "CRtdFlo_Sys_T_OfficeOpn_N" = 284.5693   $ Sizing
 "CRtdFlo_Sys_T_OfficeOpn_S" = 690.0318   $ Sizing
 "CRtdFlo_Sys_T_OfficeOpn_W" = 584.121   $ Sizing
 "CRtdFlo_Sys_T_OfficeSm_E" = 548.5653   $ Sizing
 "CRtdFlo_Sys_T_OfficeSm_N" = 223.7002   $ Sizing
 "CRtdFlo_Sys_T_OfficeSm_S" = 619.0659   $ Sizing
 "CRtdFlo_Sys_T_OfficeSm_W" = 528.6668   $ Sizing
 "CRtdFlo_Sys_T_Restrm_C" = 91.16883   $ Sizing
 "CRtdFlo_Sys_T_StorSm_E" = 148.4413   $ Sizing
 "CRtdFlo_Sys_T_StorSm_N" = 71.07026   $ Sizing
 "CRtdFlo_Sys_T_StorSm_S" = 169.2948   $ Sizing
 "CRtdFlo_Sys_T_StorSm_W" = 145.2235   $ Sizing
 "CSupFlo_Sys_L_Break_C" = 286.2926   $ Sizing
 "CSupFlo_Sys_L_CompDC_C" = 172.7945   $ Sizing
 "CSupFlo_Sys_L_Conf_C" = 214.7731   $ Sizing
 "CSupFlo_Sys_L_CopyRm_C" = 67.29394   $ Sizing
 "CSupFlo_Sys_L_Hall_E" = 134.365   $ Sizing
 "CSupFlo_Sys_L_Hall_N" = 62.66471   $ Sizing
 "CSupFlo_Sys_L_Hall_S" = 153.4408   $ Sizing
 "CSupFlo_Sys_L_Hall_W" = 136.0676   $ Sizing
 "CSupFlo_Sys_L_LobWait_E" = 321.3632   $ Sizing
 "CSupFlo_Sys_L_LobWait_N" = 132.0876   $ Sizing
 "CSupFlo_Sys_L_LobWait_S" = 357.7017   $ Sizing
 "CSupFlo_Sys_L_LobWait_W" = 315.7156   $ Sizing
 "CSupFlo_Sys_L_MechElec_C" = 65.93681   $ Sizing
 "CSupFlo_Sys_L_OfficeOpn_C" = 69.62615   $ Sizing
 "CSupFlo_Sys_L_OfficeOpn_E" = 626.5441   $ Sizing
 "CSupFlo_Sys_L_OfficeOpn_N" = 259.6116   $ Sizing
 "CSupFlo_Sys_L_OfficeOpn_S" = 641.3469   $ Sizing
 "CSupFlo_Sys_L_OfficeOpn_W" = 583.6757   $ Sizing
 "CSupFlo_Sys_L_OfficeSm_E" = 535.6146   $ Sizing
 "CSupFlo_Sys_L_OfficeSm_N" = 200.7791   $ Sizing
 "CSupFlo_Sys_L_OfficeSm_S" = 570.4711   $ Sizing
 "CSupFlo_Sys_L_OfficeSm_W" = 515.2529   $ Sizing
 "CSupFlo_Sys_L_Restrm_C" = 86.07105   $ Sizing
 "CSupFlo_Sys_L_StorSm_C" = 31.19497   $ Sizing
 "CSupFlo_Sys_L_StorSm_E" = 129.5024   $ Sizing
 "CSupFlo_Sys_L_StorSm_N" = 71.4966   $ Sizing
 "CSupFlo_Sys_L_StorSm_S" = 142.1313   $ Sizing
 "CSupFlo_Sys_L_StorSm_W" = 124.7963   $ Sizing
 "CSupFlo_Sys_T_Conf_C" = 214.6   $ Sizing
 "CSupFlo_Sys_T_Hall_E" = 153.2394   $ Sizing
 "CSupFlo_Sys_T_Hall_N" = 59.69593   $ Sizing
 "CSupFlo_Sys_T_Hall_S" = 177.8363   $ Sizing
 "CSupFlo_Sys_T_Hall_W" = 149.242   $ Sizing
 "CSupFlo_Sys_T_OfficeOpn_C" = 60.67275   $ Sizing
 "CSupFlo_Sys_T_OfficeOpn_E" = 631.0057   $ Sizing
 "CSupFlo_Sys_T_OfficeOpn_N" = 284.5693   $ Sizing
 "CSupFlo_Sys_T_OfficeOpn_S" = 690.0318   $ Sizing
 "CSupFlo_Sys_T_OfficeOpn_W" = 584.121   $ Sizing
 "CSupFlo_Sys_T_OfficeSm_E" = 548.5653   $ Sizing
 "CSupFlo_Sys_T_OfficeSm_N" = 223.7002   $ Sizing
 "CSupFlo_Sys_T_OfficeSm_S" = 619.0659   $ Sizing
 "CSupFlo_Sys_T_OfficeSm_W" = 528.6668   $ Sizing
 "CSupFlo_Sys_T_Restrm_C" = 91.16883   $ Sizing
 "CSupFlo_Sys_T_StorSm_E" = 148.4413   $ Sizing
 "CSupFlo_Sys_T_StorSm_N" = 71.07026   $ Sizing
 "CSupFlo_Sys_T_StorSm_S" = 169.2948   $ Sizing
 "CSupFlo_Sys_T_StorSm_W" = 145.2235   $ Sizing
 "ClCap_Sys_L_Break_C" = 9742.366   $ Sizing
 "ClCap_Sys_L_CompDC_C" = 5880.094   $ Sizing
 "ClCap_Sys_L_Conf_C" = 9301.853   $ Sizing
 "ClCap_Sys_L_CopyRm_C" = 2289.972   $ Sizing
 "ClCap_Sys_L_Hall_E" = 4572.362   $ Sizing
 "ClCap_Sys_L_Hall_N" = 2132.442   $ Sizing
 "ClCap_Sys_L_Hall_S" = 5221.499   $ Sizing
 "ClCap_Sys_L_Hall_W" = 4630.3   $ Sizing
 "ClCap_Sys_L_LobWait_E" = 10935.8   $ Sizing
 "ClCap_Sys_L_LobWait_N" = 4494.863   $ Sizing
 "ClCap_Sys_L_LobWait_S" = 12172.38   $ Sizing
 "ClCap_Sys_L_LobWait_W" = 10743.61   $ Sizing
 "ClCap_Sys_L_MechElec_C" = 2243.79   $ Sizing
 "ClCap_Sys_L_OfficeOpn_C" = 2369.336   $ Sizing
 "ClCap_Sys_L_OfficeOpn_E" = 21320.92   $ Sizing
 "ClCap_Sys_L_OfficeOpn_N" = 8834.427   $ Sizing
 "ClCap_Sys_L_OfficeOpn_S" = 21824.65   $ Sizing
 "ClCap_Sys_L_OfficeOpn_W" = 19862.13   $ Sizing
 "ClCap_Sys_L_OfficeSm_E" = 18226.64   $ Sizing
 "ClCap_Sys_L_OfficeSm_N" = 6832.393   $ Sizing
 "ClCap_Sys_L_OfficeSm_S" = 19412.79   $ Sizing
 "ClCap_Sys_L_OfficeSm_W" = 17533.75   $ Sizing
 "ClCap_Sys_L_Restrm_C" = 2928.947   $ Sizing
 "ClCap_Sys_L_StorSm_C" = 1061.546   $ Sizing
 "ClCap_Sys_L_StorSm_E" = 4406.891   $ Sizing
 "ClCap_Sys_L_StorSm_N" = 2432.987   $ Sizing
 "ClCap_Sys_L_StorSm_S" = 4836.645   $ Sizing
 "ClCap_Sys_L_StorSm_W" = 4246.743   $ Sizing
 "ClCap_Sys_T_Conf_C" = 9294.356   $ Sizing
 "ClCap_Sys_T_Hall_E" = 5214.644   $ Sizing
 "ClCap_Sys_T_Hall_N" = 2031.417   $ Sizing
 "ClCap_Sys_T_Hall_S" = 6051.662   $ Sizing
 "ClCap_Sys_T_Hall_W" = 5078.615   $ Sizing
 "ClCap_Sys_T_OfficeOpn_C" = 2064.657   $ Sizing
 "ClCap_Sys_T_OfficeOpn_E" = 21472.75   $ Sizing
 "ClCap_Sys_T_OfficeOpn_N" = 9683.724   $ Sizing
 "ClCap_Sys_T_OfficeOpn_S" = 23481.37   $ Sizing
 "ClCap_Sys_T_OfficeOpn_W" = 19877.29   $ Sizing
 "ClCap_Sys_T_OfficeSm_E" = 18667.35   $ Sizing
 "ClCap_Sys_T_OfficeSm_N" = 7612.383   $ Sizing
 "ClCap_Sys_T_OfficeSm_S" = 21066.44   $ Sizing
 "ClCap_Sys_T_OfficeSm_W" = 17990.21   $ Sizing
 "ClCap_Sys_T_Restrm_C" = 3102.421   $ Sizing
 "ClCap_Sys_T_StorSm_E" = 5051.37   $ Sizing
 "ClCap_Sys_T_StorSm_N" = 2418.478   $ Sizing
 "ClCap_Sys_T_StorSm_S" = 5761   $ Sizing
 "ClCap_Sys_T_StorSm_W" = 4941.869   $ Sizing
 "HtCap_L_Break_CZn" = 0   $ Sizing
 "HtCap_L_CompDC_CZn" = 0   $ Sizing
 "HtCap_L_Conf_CZn" = 0   $ Sizing
 "HtCap_L_CopyRm_CZn" = 0   $ Sizing
 "HtCap_L_Hall_EZn" = 0   $ Sizing
 "HtCap_L_Hall_NZn" = 0   $ Sizing
 "HtCap_L_Hall_SZn" = 0   $ Sizing
 "HtCap_L_Hall_WZn" = 0   $ Sizing
 "HtCap_L_LobWait_EZn" = 0   $ Sizing
 "HtCap_L_LobWait_NZn" = 0   $ Sizing
 "HtCap_L_LobWait_SZn" = 0   $ Sizing
 "HtCap_L_LobWait_WZn" = 0   $ Sizing
 "HtCap_L_MechElec_CZn" = 0   $ Sizing
 "HtCap_L_OfficeOpn_CZn" = 0   $ Sizing
 "HtCap_L_OfficeOpn_EZn" = 0   $ Sizing
 "HtCap_L_OfficeOpn_NZn" = 0   $ Sizing
 "HtCap_L_OfficeOpn_SZn" = 0   $ Sizing
 "HtCap_L_OfficeOpn_WZn" = 0   $ Sizing
 "HtCap_L_OfficeSm_EZn" = 0   $ Sizing
 "HtCap_L_OfficeSm_NZn" = 0   $ Sizing
 "HtCap_L_OfficeSm_SZn" = 0   $ Sizing
 "HtCap_L_OfficeSm_WZn" = 0   $ Sizing
 "HtCap_L_Restrm_CZn" = 0   $ Sizing
 "HtCap_L_StorSm_CZn" = 0   $ Sizing
 "HtCap_L_StorSm_EZn" = 0   $ Sizing
 "HtCap_L_StorSm_NZn" = 0   $ Sizing
 "HtCap_L_StorSm_SZn" = 0   $ Sizing
 "HtCap_L_StorSm_WZn" = 0   $ Sizing
 "HtCap_Sys_L_Break_C" = -17044.48   $ Sizing
 "HtCap_Sys_L_CompDC_C" = -8655.612   $ Sizing
 "HtCap_Sys_L_Conf_C" = -13098.35   $ Sizing
 "HtCap_Sys_L_CopyRm_C" = -4350.405   $ Sizing
 "HtCap_Sys_L_Hall_E" = -4928.541   $ Sizing
 "HtCap_Sys_L_Hall_N" = -2461.544   $ Sizing
 "HtCap_Sys_L_Hall_S" = -5316.257   $ Sizing
 "HtCap_Sys_L_Hall_W" = -4859.489   $ Sizing
 "HtCap_Sys_L_LobWait_E" = -12178.89   $ Sizing
 "HtCap_Sys_L_LobWait_N" = -6238.241   $ Sizing
 "HtCap_Sys_L_LobWait_S" = -13256.59   $ Sizing
 "HtCap_Sys_L_LobWait_W" = -12051.1   $ Sizing
 "HtCap_Sys_L_MechElec_C" = -3077.148   $ Sizing
 "HtCap_Sys_L_OfficeOpn_C" = -2793.736   $ Sizing
 "HtCap_Sys_L_OfficeOpn_E" = -22394.82   $ Sizing
 "HtCap_Sys_L_OfficeOpn_N" = -11380.05   $ Sizing
 "HtCap_Sys_L_OfficeOpn_S" = -22327.3   $ Sizing
 "HtCap_Sys_L_OfficeOpn_W" = -21346.59   $ Sizing
 "HtCap_Sys_L_OfficeSm_E" = -19023.43   $ Sizing
 "HtCap_Sys_L_OfficeSm_N" = -8558.396   $ Sizing
 "HtCap_Sys_L_OfficeSm_S" = -19313.61   $ Sizing
 "HtCap_Sys_L_OfficeSm_W" = -18159.49   $ Sizing
 "HtCap_Sys_L_Restrm_C" = -3125.916   $ Sizing
 "HtCap_Sys_L_StorSm_C" = -1358.179   $ Sizing
 "HtCap_Sys_L_StorSm_E" = -4887.258   $ Sizing
 "HtCap_Sys_L_StorSm_N" = -3076.895   $ Sizing
 "HtCap_Sys_L_StorSm_S" = -5135.611   $ Sizing
 "HtCap_Sys_L_StorSm_W" = -4771.293   $ Sizing
 "HtCap_Sys_T_Conf_C" = -13297.91   $ Sizing
 "HtCap_Sys_T_Hall_E" = -5996.706   $ Sizing
 "HtCap_Sys_T_Hall_N" = -2702.076   $ Sizing
 "HtCap_Sys_T_Hall_S" = -6807.655   $ Sizing
 "HtCap_Sys_T_Hall_W" = -5863.178   $ Sizing
 "HtCap_Sys_T_OfficeOpn_C" = -2742.916   $ Sizing
 "HtCap_Sys_T_OfficeOpn_E" = -25119.84   $ Sizing
 "HtCap_Sys_T_OfficeOpn_N" = -13085.91   $ Sizing
 "HtCap_Sys_T_OfficeOpn_S" = -26570.55   $ Sizing
 "HtCap_Sys_T_OfficeOpn_W" = -23537.41   $ Sizing
 "HtCap_Sys_T_OfficeSm_E" = -21347.32   $ Sizing
 "HtCap_Sys_T_OfficeSm_N" = -10133.33   $ Sizing
 "HtCap_Sys_T_OfficeSm_S" = -23188.81   $ Sizing
 "HtCap_Sys_T_OfficeSm_W" = -20678.27   $ Sizing
 "HtCap_Sys_T_Restrm_C" = -3744.636   $ Sizing
 "HtCap_Sys_T_StorSm_E" = -6278.003   $ Sizing
 "HtCap_Sys_T_StorSm_N" = -3513.785   $ Sizing
 "HtCap_Sys_T_StorSm_S" = -6613.469   $ Sizing
 "HtCap_Sys_T_StorSm_W" = -6157.394   $ Sizing
 "HtCap_T_Conf_CZn" = 0   $ Sizing
 "HtCap_T_Hall_EZn" = 0   $ Sizing
 "HtCap_T_Hall_NZn" = 0   $ Sizing
 "HtCap_T_Hall_SZn" = 0   $ Sizing
 "HtCap_T_Hall_WZn" = 0   $ Sizing
 "HtCap_T_OfficeOpn_CZn" = 0   $ Sizing
 "HtCap_T_OfficeOpn_EZn" = 0   $ Sizing
 "HtCap_T_OfficeOpn_NZn" = 0   $ Sizing
 "HtCap_T_OfficeOpn_SZn" = 0   $ Sizing
 "HtCap_T_OfficeOpn_WZn" = 0   $ Sizing
 "HtCap_T_OfficeSm_EZn" = 0   $ Sizing
 "HtCap_T_OfficeSm_NZn" = 0   $ Sizing
 "HtCap_T_OfficeSm_SZn" = 0   $ Sizing
 "HtCap_T_OfficeSm_WZn" = 0   $ Sizing
 "HtCap_T_Restrm_CZn" = 0   $ Sizing
 "HtCap_T_StorSm_EZn" = 0   $ Sizing
 "HtCap_T_StorSm_NZn" = 0   $ Sizing
 "HtCap_T_StorSm_SZn" = 0   $ Sizing
 "HtCap_T_StorSm_WZn" = 0   $ Sizing
..

##include Templates\OfS_DX_SZ.inp
END ..
COMPUTE ..
STOP ..
