INPUT ..

##fileprefix C:\Users\jglasskatz\MASControl3\
##set1 IsSizing FALSE
##set1 CoolType DX
##set1 HeatType FURNACE
##set1 EU_HrRepVar 0
##set1 BldgVint 1996
##set1 BldgLoc CZ14

 ##set1 mBFMult 1   $ IP Tech: RefgChg-NRes-Std

PARAMETER
 "AltFactor" = 1.09733   $ IP Non-Tech
 "BF_fFlow" = SpltAC1Sp_BF_fFlow   $ Msr (Var)TechID: PreNResSplitAC-lt45-PENo
 "BF_fT" = SpltAC1Sp_BF_fT   $ Msr (Var)TechID: PreNResSplitAC-lt45-PENo
 "BldgEconoFlag" = 1   $ IP Non-Tech
 "Break_EWSF" = 1   $ IP Non-Tech
 "Break_LWSF" = 1.1   $ IP Non-Tech
 "CDD_DBHi10" = 86   $ IP Non-Tech
 "CDD_DBHi7" = 102   $ IP Non-Tech
 "CDD_DBHi8" = 102   $ IP Non-Tech
 "CDD_DBHi9" = 99   $ IP Non-Tech
 "CDD_DBRange10" = 24   $ IP Non-Tech
 "CDD_DBRange7" = 25   $ IP Non-Tech
 "CDD_DBRange8" = 24   $ IP Non-Tech
 "CDD_DBRange9" = 26   $ IP Non-Tech
 "CDD_Day10" = 15   $ IP Non-Tech
 "CDD_Day7" = 16   $ IP Non-Tech
 "CDD_Day8" = 20   $ IP Non-Tech
 "CDD_Day9" = 17   $ IP Non-Tech
 "CDD_HrHi10" = 15   $ IP Non-Tech
 "CDD_HrHi7" = 14   $ IP Non-Tech
 "CDD_HrHi8" = 14   $ IP Non-Tech
 "CDD_HrHi9" = 13   $ IP Non-Tech
 "CDD_HrLo10" = 3   $ IP Non-Tech
 "CDD_HrLo7" = 4   $ IP Non-Tech
 "CDD_HrLo8" = 6   $ IP Non-Tech
 "CDD_HrLo9" = 6   $ IP Non-Tech
 "CDD_WB10" = 59.47153854   $ IP Non-Tech
 "CDD_WB7" = 72.7782135   $ IP Non-Tech
 "CDD_WB8" = 69.10041809   $ IP Non-Tech
 "CDD_WB9" = 72.65714264   $ IP Non-Tech
 "CEIR_fPLR_Hot" = SpltAC1Sp_CEIR_fPLR_Hot   $ Msr (Var)TechID: PreNResSplitAC-lt45-PENo
 "CEIR_fPLR_Mod" = SpltAC1Sp_CEIR_fPLR_Mod   $ Msr (Var)TechID: PreNResSplitAC-lt45-PENo
 "CEIR_fPLR_Tem" = SpltAC1Sp_CEIR_fPLR_Tem   $ Msr (Var)TechID: PreNResSplitAC-lt45-PENo
 "CLoss_fPLR_Hot" = SpltAC1Sp_CLoss_fPLR_Hot   $ Msr (Var)TechID: PreNResSplitAC-lt45-PENo
 "CLoss_fPLR_Mod" = SpltAC1Sp_CLoss_fPLR_Mod   $ Msr (Var)TechID: PreNResSplitAC-lt45-PENo
 "CLoss_fPLR_Tem" = SpltAC1Sp_CLoss_fPLR_Tem   $ Msr (Var)TechID: PreNResSplitAC-lt45-PENo
 "COP47" = 0   $ Msr (Var)TechID: PreNResSplitAC-lt45-PENo
 "CZ_Category" = Hot   $ IP Non-Tech
 "CapRange" = Any   $ Msr (Var)TechID: PreNResSplitAC-lt45-PENo
 "CfmPerBtuh" = 0.0321   $ Msr (Var)TechID: PreNResSplitAC-lt45-PENo
 "ChwVintEconoFlag" = 1   $ IP Non-Tech
 "ClCap_fT" = SpltAC1Sp_ClCap_fT   $ Msr (Var)TechID: PreNResSplitAC-lt45-PENo
 "ClSH_fT" = SpltAC1Sp_ClSH_fT   $ Msr (Var)TechID: PreNResSplitAC-lt45-PENo
 "CoilBF" = 0.12   $ Msr (Var)TechID: PreNResSplitAC-lt45-PENo
 "CompRoomData_EWSF" = 5.25   $ IP Non-Tech
 "CompRoomData_LWSF" = 1.2   $ IP Non-Tech
 "CondWPerBtuh" = 0   $ Msr (Var)TechID: PreNResSplitAC-lt45-PENo
 "Conference_EWSF" = 1.05   $ IP Non-Tech
 "Conference_LWSF" = 1.4   $ IP Non-Tech
 "CoolSensCap" = 0.744   $ Msr (Var)TechID: PreNResSplitAC-lt45-PENo
 "CoolSetT" = 45   $ IP Non-Tech
 "CoolType" = DX   $ IP Non-Tech
 "CoolingEIR" = 0.29437   $ Msr (Var)TechID: PreNResSplitAC-lt45-PENo
 "CopyRoom_EWSF" = 1.575   $ IP Non-Tech
 "CopyRoom_LWSF" = 1.3   $ IP Non-Tech
 "CrnkEIR" = 0.0029437   $ Msr (Var)TechID: PreNResSplitAC-lt45-PENo
 "CrnkMaxT" = 50   $ Msr (Var)TechID: PreNResSplitAC-lt45-PENo
 "DXType" = SplitSEER   $ Msr (Var)TechID: PreNResSplitAC-lt45-PENo
 "DesCoolT" = 75   $ IP Non-Tech
 "DesHeatT" = 73   $ IP Non-Tech
 "EER" = 9.799295775   $ Msr (Var)TechID: PreNResSplitAC-lt45-PENo
 "EIR_fT" = SpltAC1Sp_EIR_fT   $ Msr (Var)TechID: PreNResSplitAC-lt45-PENo
 "EconoCtrl" = FIXED   $ Msr (Multi)TechID: PreNResSplitAC-lt45-PENo
 "EconoEnthLimit" = 28   $ IP Non-Tech
 "EconoTempLimit" = 75   $ IP Non-Tech
 "Elevation" = 2523   $ IP Non-Tech
 "FanEirPlr" = TwoSpeedFan   $ Msr (Var)TechID: PreNResSplitAC-lt45-PENo
 "FanWPerCfm" = 0.365   $ Msr (Var)TechID: PreNResSplitAC-lt45-PENo
 "HDD_CloudAmt1" = 0   $ IP Non-Tech
 "HDD_DBHi1" = 50   $ IP Non-Tech
 "HDD_DBRange1" = 24   $ IP Non-Tech
 "HDD_Day1" = 15   $ IP Non-Tech
 "HDD_HrHi1" = 14   $ IP Non-Tech
 "HDD_HrLo1" = 6   $ IP Non-Tech
 "HDD_WB1" = 36.9   $ IP Non-Tech
 "HDD_WindSpd1" = 17.3   $ IP Non-Tech
 "HIR_fT" = 0   $ Msr (Var)TechID: PreNResSplitAC-lt45-PENo
 "HSPF" = 0   $ Msr (Var)TechID: PreNResSplitAC-lt45-PENo
 "Hall_EWSF" = 0.21   $ IP Non-Tech
 "Hall_LWSF" = 0.6   $ IP Non-Tech
 "HeatSrc" = FURNACE   $ IP Non-Tech
 "HeatSrcTU" = HEAT-PUMP   $ IP Non-Tech
 "HeatType" = GasFurn   $ IP Non-Tech
 "HeatTypeTU" = HEAT-PUMP   $ IP Non-Tech
 "HtCap_fT" = 0   $ Msr (Var)TechID: PreNResSplitAC-lt45-PENo
 "HtCoolCapRatio" = 0   $ Msr (Var)TechID: PreNResSplitAC-lt45-PENo
 "HtgEIR" = 0   $ Msr (Var)TechID: PreNResSplitAC-lt45-PENo
 "IndoorFanMode" = CONTINUOUS   $ IP Non-Tech
 "KT_TransferAir" = No   $ IP Non-Tech
 "Latitude" = 35.7   $ IP Non-Tech
 "LobbyWaiting_EWSF" = 0.5125   $ IP Non-Tech
 "LobbyWaiting_LWSF" = 1.3   $ IP Non-Tech
 "Longitude" = 117.7   $ IP Non-Tech
 "LowSpdCapRatio" = 1   $ Msr (Var)TechID: PreNResSplitAC-lt45-PENo
 "LowSpdCfmRatio" = 1   $ Msr (Var)TechID: PreNResSplitAC-lt45-PENo
 "MZFanMechEff" = 0.58   $ IP Non-Tech
 "MZHasRetFan" = FALSE   $ IP Non-Tech
 "MZ_RFanWPerCfm" = 0.33   $ IP Non-Tech
 "MZ_SFanWPerCfm" = 0.75   $ IP Non-Tech
 "MZ_SupFanStatic" = 2.25   $ IP Non-Tech
 "MaxOAFrac" = 1   $ Msr (Multi)TechID: PreNResSplitAC-lt45-PENo
 "MaxSupT_MZ" = 100   $ IP Non-Tech
 "MaxSupT_SZ" = 100   $ IP Non-Tech
 "MaxSupT_TU" = 90   $ IP Non-Tech
 "MechElecRoom_EWSF" = 0.21   $ IP Non-Tech
 "MechElecRoom_LWSF" = 0.7   $ IP Non-Tech
 "MinCfmPerSF" = 0.4   $ IP Non-Tech
 "MinSupT" = 55   $ IP Non-Tech
 "NumStages" = 1   $ Msr (Var)TechID: PreNResSplitAC-lt45-PENo
 "OccCoolT" = 76   $ IP Non-Tech
 "OccHeatT" = 72   $ IP Non-Tech
 "OfficeOpen_EWSF" = 1.575   $ IP Non-Tech
 "OfficeOpen_LWSF" = 1.2   $ IP Non-Tech
 "OfficeSmall_EWSF" = 1.575   $ IP Non-Tech
 "OfficeSmall_LWSF" = 1.3   $ IP Non-Tech
 "PkgDxVintEconoFlag" = 0   $ IP Non-Tech
 "Restroom_EWSF" = 0.21   $ IP Non-Tech
 "Restroom_LWSF" = 0.6   $ IP Non-Tech
 "SEER" = 11.5   $ Msr (Var)TechID: PreNResSplitAC-lt45-PENo
 "SZFanMechEff" = 0.58   $ IP Non-Tech
 "SZHasRetFan" = FALSE   $ IP Non-Tech
 "SZ_Is_2Spd" = FALSE   $ IP Non-Tech
 "SZ_SFanWPerCfm" = 0.46   $ IP Non-Tech
 "SZ_SupFanStatic" = 0.75   $ IP Non-Tech
 "Sector" = Any   $ Msr (Var)TechID: PreNResSplitAC-lt45-PENo
 "StorageSmlCond_EWSF" = 0.21   $ IP Non-Tech
 "StorageSmlCond_LWSF" = 0.6   $ IP Non-Tech
 "SubType" = AC   $ Msr (Var)TechID: PreNResSplitAC-lt45-PENo
 "T24GlzTbl" = CZTbl   $ IP Non-Tech
 "TermUnitFanMechEff" = 1   $ IP Non-Tech
 "TermUnitFanMode" = INTERMITTENT   $ IP Non-Tech
 "TotCoolCap" = 34895   $ Msr (Var)TechID: PreNResSplitAC-lt45-PENo
 "TwrSetpt" = 90   $ IP Non-Tech
 "UnocCoolT" = 86   $ IP Non-Tech
 "UnocHeatT" = 62   $ IP Non-Tech
 "UseEconoVintApplic" = FALSE   $ Msr (Multi)TechID: PreNResSplitAC-lt45-PENo
 "WlhpVintEconoFlag" = 0   $ IP Non-Tech
 "DuctDT" = 1   $ IP Tech: ComDuctInsul-1
 "DuctAirLoss" = 0   $ IP Tech: ComDuctLeak-0
 "DuctLossOAFrac" = 0   $ IP Tech: ComDuctLeak-0
 "ComRoofInsCalc" = FromUo   $ IP Tech: ComRoofIns-WFrm-0.06
 "ComRoofInsR" = -999   $ IP Tech: ComRoofIns-WFrm-0.06
 "ComRoofUo" = 0.06   $ IP Tech: ComRoofIns-WFrm-0.06
 "ComEWInsCalc" = FromUo   $ IP Tech: ComWallIns-WFrm-0.08
 "ComEWInsR" = -999   $ IP Tech: ComWallIns-WFrm-0.08
 "ComEWUo" = 0.08   $ IP Tech: ComWallIns-WFrm-0.08
 "ComN_SHGC" = 0.5   $ IP Tech: NResWin-ComN-0.77-0.5
 "ComN_UFactor" = 0.77   $ IP Tech: NResWin-ComN-0.77-0.5
 "ComN_VisTrans" = 0.77   $ IP Tech: NResWin-ComN-0.77-0.5
 "ComN_WinCode" = G2630   $ IP Tech: NResWin-ComN-0.77-0.5
 "ComN_WinFrmFrac" = 0.17   $ IP Tech: NResWin-ComN-0.77-0.5
 "ComN_WinFrmU" = 1   $ IP Tech: NResWin-ComN-0.77-0.5
 "ComO_SHGC" = 0.5   $ IP Tech: NResWin-ComO-0.77-0.5
 "ComO_UFactor" = 0.77   $ IP Tech: NResWin-ComO-0.77-0.5
 "ComO_VisTrans" = 0.77   $ IP Tech: NResWin-ComO-0.77-0.5
 "ComO_WinCode" = G2630   $ IP Tech: NResWin-ComO-0.77-0.5
 "ComO_WinFrmFrac" = 0.17   $ IP Tech: NResWin-ComO-0.77-0.5
 "ComO_WinFrmU" = 1   $ IP Tech: NResWin-ComO-0.77-0.5
 "LtgMsrApplic" = ALL   $ IP Tech: NonResLtgRefPre
 "LtgSav_CFL" = 0   $ IP Tech: NonResLtgRefPre
 "LtgSav_EX" = 0   $ IP Tech: NonResLtgRefPre
 "LtgSav_HB" = 0   $ IP Tech: NonResLtgRefPre
 "LtgSav_LF" = 0   $ IP Tech: NonResLtgRefPre
 "LtgSav_SP" = 0   $ IP Tech: NonResLtgRefPre
 "CEIR_fPLR" = PSZ65to135_CEIR_fPLR   $ IP Tech: PkgAC1SpH-65to135-E10
 "CLoss_fPLR" = PSZ65to135_CLoss_fPLR   $ IP Tech: PkgAC1SpH-65to135-E10
 "COP" = -1   $ IP Tech: PkgAC1SpH-65to135-E10
 "HtgFuel" = Gas   $ IP Tech: PkgAC1SpH-65to135-E10
 "IEER" = 11.87   $ IP Tech: PkgAC1SpH-65to135-E10
 "NominalCap" = 15   $ IP Tech: PkgAC1SpH-65to135-E10
 "RatedEER" = 10   $ IP Tech: PkgAC1SpH-65to135-E10
 "RatedSupMtrClass" = HiEff   $ IP Tech: PkgAC1SpH-65to135-E10
 "SizeRange" = 65to135   $ IP Tech: PkgAC1SpH-65to135-E10
 "SupMotEff" = 0.84   $ IP Tech: PkgAC1SpH-65to135-E10
 "Tier" = 0   $ IP Tech: PkgAC1SpH-65to135-E10
 "FanPwrMult" = 1   $ IP Tech: PkgFurn-0.80AFUE
 "FurnAFUE" = 0.8   $ IP Tech: PkgFurn-0.80AFUE
 "FurnEt" = 0.82   $ IP Tech: PkgFurn-0.80AFUE
 "FurnaceAuxKW" = 0.1   $ IP Tech: PkgFurn-0.80AFUE
 "HIR_fPLR" = Furnace-HIR-fPLR   $ IP Tech: PkgFurn-0.80AFUE
 "VSM" = FALSE   $ IP Tech: PkgFurn-0.80AFUE
 "BFMult" = 1   $ IP Tech: RefgChg-NRes-Std
 "CoolEirMult" = 1   $ IP Tech: RefgChg-NRes-Std
 "SensCoolCapMult" = 1   $ IP Tech: RefgChg-NRes-Std
 "TotCoolCapMult" = 1   $ IP Tech: RefgChg-NRes-Std
 "AltAdjFactor" = 1.09733   $ Sizing
 "CAssFlo_L_Break_CZn" = 568.1775   $ Sizing
 "CAssFlo_L_CompDC_CZn" = 178.2253   $ Sizing
 "CAssFlo_L_Conf_CZn" = 328.5981   $ Sizing
 "CAssFlo_L_CopyRm_CZn" = 118.3838   $ Sizing
 "CAssFlo_L_Hall_EZn" = 167.7836   $ Sizing
 "CAssFlo_L_Hall_NZn" = 93.15987   $ Sizing
 "CAssFlo_L_Hall_SZn" = 162.922   $ Sizing
 "CAssFlo_L_Hall_WZn" = 184.0853   $ Sizing
 "CAssFlo_L_LobWait_EZn" = 393.3221   $ Sizing
 "CAssFlo_L_LobWait_NZn" = 246.5859   $ Sizing
 "CAssFlo_L_LobWait_SZn" = 403.4708   $ Sizing
 "CAssFlo_L_LobWait_WZn" = 456.153   $ Sizing
 "CAssFlo_L_MechElec_CZn" = 105.0383   $ Sizing
 "CAssFlo_L_OfficeOpn_CZn" = 86.67326   $ Sizing
 "CAssFlo_L_OfficeOpn_EZn" = 694.6918   $ Sizing
 "CAssFlo_L_OfficeOpn_NZn" = 473.5176   $ Sizing
 "CAssFlo_L_OfficeOpn_SZn" = 676.7264   $ Sizing
 "CAssFlo_L_OfficeOpn_WZn" = 767.7599   $ Sizing
 "CAssFlo_L_OfficeSm_EZn" = 592.5214   $ Sizing
 "CAssFlo_L_OfficeSm_NZn" = 373.5422   $ Sizing
 "CAssFlo_L_OfficeSm_SZn" = 582.8226   $ Sizing
 "CAssFlo_L_OfficeSm_WZn" = 661.3585   $ Sizing
 "CAssFlo_L_Restrm_CZn" = 109.7389   $ Sizing
 "CAssFlo_L_StorSm_CZn" = 46.1665   $ Sizing
 "CAssFlo_L_StorSm_EZn" = 166.1912   $ Sizing
 "CAssFlo_L_StorSm_NZn" = 97.25243   $ Sizing
 "CAssFlo_L_StorSm_SZn" = 162.7861   $ Sizing
 "CAssFlo_L_StorSm_WZn" = 178.8685   $ Sizing
 "CAssFlo_T_Conf_CZn" = 316.2424   $ Sizing
 "CAssFlo_T_Hall_EZn" = 187.5609   $ Sizing
 "CAssFlo_T_Hall_NZn" = 102.0351   $ Sizing
 "CAssFlo_T_Hall_SZn" = 186.87   $ Sizing
 "CAssFlo_T_Hall_WZn" = 207.2424   $ Sizing
 "CAssFlo_T_OfficeOpn_CZn" = 80.27237   $ Sizing
 "CAssFlo_T_OfficeOpn_EZn" = 741.1144   $ Sizing
 "CAssFlo_T_OfficeOpn_NZn" = 500.3607   $ Sizing
 "CAssFlo_T_OfficeOpn_SZn" = 747.0245   $ Sizing
 "CAssFlo_T_OfficeOpn_WZn" = 810.5588   $ Sizing
 "CAssFlo_T_OfficeSm_EZn" = 634.0223   $ Sizing
 "CAssFlo_T_OfficeSm_NZn" = 398.1655   $ Sizing
 "CAssFlo_T_OfficeSm_SZn" = 640.9194   $ Sizing
 "CAssFlo_T_OfficeSm_WZn" = 700.2629   $ Sizing
 "CAssFlo_T_Restrm_CZn" = 151.925   $ Sizing
 "CAssFlo_T_StorSm_EZn" = 192.8593   $ Sizing
 "CAssFlo_T_StorSm_NZn" = 113.9533   $ Sizing
 "CAssFlo_T_StorSm_SZn" = 193.7781   $ Sizing
 "CAssFlo_T_StorSm_WZn" = 216.1815   $ Sizing
 "CHRtFlo_Sys_L_Break_C" = 568.1775   $ Sizing
 "CHRtFlo_Sys_L_CompDC_C" = 195.9697   $ Sizing
 "CHRtFlo_Sys_L_Conf_C" = 328.5981   $ Sizing
 "CHRtFlo_Sys_L_CopyRm_C" = 118.3838   $ Sizing
 "CHRtFlo_Sys_L_Hall_E" = 193.3517   $ Sizing
 "CHRtFlo_Sys_L_Hall_N" = 93.15986   $ Sizing
 "CHRtFlo_Sys_L_Hall_S" = 194.0787   $ Sizing
 "CHRtFlo_Sys_L_Hall_W" = 199.814   $ Sizing
 "CHRtFlo_Sys_L_LobWait_E" = 445.2664   $ Sizing
 "CHRtFlo_Sys_L_LobWait_N" = 246.586   $ Sizing
 "CHRtFlo_Sys_L_LobWait_S" = 446.9816   $ Sizing
 "CHRtFlo_Sys_L_LobWait_W" = 462.5015   $ Sizing
 "CHRtFlo_Sys_L_MechElec_C" = 128.6981   $ Sizing
 "CHRtFlo_Sys_L_OfficeOpn_C" = 97.76637   $ Sizing
 "CHRtFlo_Sys_L_OfficeOpn_E" = 793.7981   $ Sizing
 "CHRtFlo_Sys_L_OfficeOpn_N" = 473.5176   $ Sizing
 "CHRtFlo_Sys_L_OfficeOpn_S" = 760.3608   $ Sizing
 "CHRtFlo_Sys_L_OfficeOpn_W" = 794.1584   $ Sizing
 "CHRtFlo_Sys_L_OfficeSm_E" = 691.3998   $ Sizing
 "CHRtFlo_Sys_L_OfficeSm_N" = 373.5422   $ Sizing
 "CHRtFlo_Sys_L_OfficeSm_S" = 675.4808   $ Sizing
 "CHRtFlo_Sys_L_OfficeSm_W" = 702.5143   $ Sizing
 "CHRtFlo_Sys_L_Restrm_C" = 119.8026   $ Sizing
 "CHRtFlo_Sys_L_StorSm_C" = 50.73055   $ Sizing
 "CHRtFlo_Sys_L_StorSm_E" = 188.4651   $ Sizing
 "CHRtFlo_Sys_L_StorSm_N" = 97.25243   $ Sizing
 "CHRtFlo_Sys_L_StorSm_S" = 185.7363   $ Sizing
 "CHRtFlo_Sys_L_StorSm_W" = 183.7876   $ Sizing
 "CHRtFlo_Sys_T_Conf_C" = 316.2424   $ Sizing
 "CHRtFlo_Sys_T_Hall_E" = 199.5285   $ Sizing
 "CHRtFlo_Sys_T_Hall_N" = 102.0351   $ Sizing
 "CHRtFlo_Sys_T_Hall_S" = 208.3098   $ Sizing
 "CHRtFlo_Sys_T_Hall_W" = 207.2424   $ Sizing
 "CHRtFlo_Sys_T_OfficeOpn_C" = 82.9172   $ Sizing
 "CHRtFlo_Sys_T_OfficeOpn_E" = 770.3627   $ Sizing
 "CHRtFlo_Sys_T_OfficeOpn_N" = 500.3607   $ Sizing
 "CHRtFlo_Sys_T_OfficeOpn_S" = 780.1393   $ Sizing
 "CHRtFlo_Sys_T_OfficeOpn_W" = 810.5588   $ Sizing
 "CHRtFlo_Sys_T_OfficeSm_E" = 677.6549   $ Sizing
 "CHRtFlo_Sys_T_OfficeSm_N" = 398.1655   $ Sizing
 "CHRtFlo_Sys_T_OfficeSm_S" = 698.6043   $ Sizing
 "CHRtFlo_Sys_T_OfficeSm_W" = 700.2629   $ Sizing
 "CHRtFlo_Sys_T_Restrm_C" = 161.9787   $ Sizing
 "CHRtFlo_Sys_T_StorSm_E" = 197.6021   $ Sizing
 "CHRtFlo_Sys_T_StorSm_N" = 113.9533   $ Sizing
 "CHRtFlo_Sys_T_StorSm_S" = 202.2991   $ Sizing
 "CHRtFlo_Sys_T_StorSm_W" = 216.1815   $ Sizing
 "CRtdFlo_Sys_L_Break_C" = 568.1775   $ Sizing
 "CRtdFlo_Sys_L_CompDC_C" = 178.2253   $ Sizing
 "CRtdFlo_Sys_L_Conf_C" = 328.5981   $ Sizing
 "CRtdFlo_Sys_L_CopyRm_C" = 118.3838   $ Sizing
 "CRtdFlo_Sys_L_Hall_E" = 167.7836   $ Sizing
 "CRtdFlo_Sys_L_Hall_N" = 93.15986   $ Sizing
 "CRtdFlo_Sys_L_Hall_S" = 162.922   $ Sizing
 "CRtdFlo_Sys_L_Hall_W" = 184.0853   $ Sizing
 "CRtdFlo_Sys_L_LobWait_E" = 393.3221   $ Sizing
 "CRtdFlo_Sys_L_LobWait_N" = 246.586   $ Sizing
 "CRtdFlo_Sys_L_LobWait_S" = 403.4708   $ Sizing
 "CRtdFlo_Sys_L_LobWait_W" = 456.153   $ Sizing
 "CRtdFlo_Sys_L_MechElec_C" = 105.0383   $ Sizing
 "CRtdFlo_Sys_L_OfficeOpn_C" = 86.67326   $ Sizing
 "CRtdFlo_Sys_L_OfficeOpn_E" = 694.6918   $ Sizing
 "CRtdFlo_Sys_L_OfficeOpn_N" = 473.5176   $ Sizing
 "CRtdFlo_Sys_L_OfficeOpn_S" = 676.7264   $ Sizing
 "CRtdFlo_Sys_L_OfficeOpn_W" = 767.7599   $ Sizing
 "CRtdFlo_Sys_L_OfficeSm_E" = 592.5214   $ Sizing
 "CRtdFlo_Sys_L_OfficeSm_N" = 373.5422   $ Sizing
 "CRtdFlo_Sys_L_OfficeSm_S" = 582.8226   $ Sizing
 "CRtdFlo_Sys_L_OfficeSm_W" = 661.3585   $ Sizing
 "CRtdFlo_Sys_L_Restrm_C" = 109.7389   $ Sizing
 "CRtdFlo_Sys_L_StorSm_C" = 46.1665   $ Sizing
 "CRtdFlo_Sys_L_StorSm_E" = 166.1912   $ Sizing
 "CRtdFlo_Sys_L_StorSm_N" = 97.25243   $ Sizing
 "CRtdFlo_Sys_L_StorSm_S" = 162.7861   $ Sizing
 "CRtdFlo_Sys_L_StorSm_W" = 178.8685   $ Sizing
 "CRtdFlo_Sys_T_Conf_C" = 316.2424   $ Sizing
 "CRtdFlo_Sys_T_Hall_E" = 187.5609   $ Sizing
 "CRtdFlo_Sys_T_Hall_N" = 102.0351   $ Sizing
 "CRtdFlo_Sys_T_Hall_S" = 186.87   $ Sizing
 "CRtdFlo_Sys_T_Hall_W" = 207.2424   $ Sizing
 "CRtdFlo_Sys_T_OfficeOpn_C" = 80.27237   $ Sizing
 "CRtdFlo_Sys_T_OfficeOpn_E" = 741.1144   $ Sizing
 "CRtdFlo_Sys_T_OfficeOpn_N" = 500.3607   $ Sizing
 "CRtdFlo_Sys_T_OfficeOpn_S" = 747.0245   $ Sizing
 "CRtdFlo_Sys_T_OfficeOpn_W" = 810.5588   $ Sizing
 "CRtdFlo_Sys_T_OfficeSm_E" = 634.0223   $ Sizing
 "CRtdFlo_Sys_T_OfficeSm_N" = 398.1655   $ Sizing
 "CRtdFlo_Sys_T_OfficeSm_S" = 640.9194   $ Sizing
 "CRtdFlo_Sys_T_OfficeSm_W" = 700.2629   $ Sizing
 "CRtdFlo_Sys_T_Restrm_C" = 151.925   $ Sizing
 "CRtdFlo_Sys_T_StorSm_E" = 192.8593   $ Sizing
 "CRtdFlo_Sys_T_StorSm_N" = 113.9533   $ Sizing
 "CRtdFlo_Sys_T_StorSm_S" = 193.7781   $ Sizing
 "CRtdFlo_Sys_T_StorSm_W" = 216.1815   $ Sizing
 "CSupFlo_Sys_L_Break_C" = 568.1775   $ Sizing
 "CSupFlo_Sys_L_CompDC_C" = 178.2253   $ Sizing
 "CSupFlo_Sys_L_Conf_C" = 328.5981   $ Sizing
 "CSupFlo_Sys_L_CopyRm_C" = 118.3838   $ Sizing
 "CSupFlo_Sys_L_Hall_E" = 167.7836   $ Sizing
 "CSupFlo_Sys_L_Hall_N" = 93.15986   $ Sizing
 "CSupFlo_Sys_L_Hall_S" = 162.922   $ Sizing
 "CSupFlo_Sys_L_Hall_W" = 184.0853   $ Sizing
 "CSupFlo_Sys_L_LobWait_E" = 393.3221   $ Sizing
 "CSupFlo_Sys_L_LobWait_N" = 246.586   $ Sizing
 "CSupFlo_Sys_L_LobWait_S" = 403.4708   $ Sizing
 "CSupFlo_Sys_L_LobWait_W" = 456.153   $ Sizing
 "CSupFlo_Sys_L_MechElec_C" = 105.0383   $ Sizing
 "CSupFlo_Sys_L_OfficeOpn_C" = 86.67326   $ Sizing
 "CSupFlo_Sys_L_OfficeOpn_E" = 694.6918   $ Sizing
 "CSupFlo_Sys_L_OfficeOpn_N" = 473.5176   $ Sizing
 "CSupFlo_Sys_L_OfficeOpn_S" = 676.7264   $ Sizing
 "CSupFlo_Sys_L_OfficeOpn_W" = 767.7599   $ Sizing
 "CSupFlo_Sys_L_OfficeSm_E" = 592.5214   $ Sizing
 "CSupFlo_Sys_L_OfficeSm_N" = 373.5422   $ Sizing
 "CSupFlo_Sys_L_OfficeSm_S" = 582.8226   $ Sizing
 "CSupFlo_Sys_L_OfficeSm_W" = 661.3585   $ Sizing
 "CSupFlo_Sys_L_Restrm_C" = 109.7389   $ Sizing
 "CSupFlo_Sys_L_StorSm_C" = 46.1665   $ Sizing
 "CSupFlo_Sys_L_StorSm_E" = 166.1912   $ Sizing
 "CSupFlo_Sys_L_StorSm_N" = 97.25243   $ Sizing
 "CSupFlo_Sys_L_StorSm_S" = 162.7861   $ Sizing
 "CSupFlo_Sys_L_StorSm_W" = 178.8685   $ Sizing
 "CSupFlo_Sys_T_Conf_C" = 316.2424   $ Sizing
 "CSupFlo_Sys_T_Hall_E" = 187.5609   $ Sizing
 "CSupFlo_Sys_T_Hall_N" = 102.0351   $ Sizing
 "CSupFlo_Sys_T_Hall_S" = 186.87   $ Sizing
 "CSupFlo_Sys_T_Hall_W" = 207.2424   $ Sizing
 "CSupFlo_Sys_T_OfficeOpn_C" = 80.27237   $ Sizing
 "CSupFlo_Sys_T_OfficeOpn_E" = 741.1144   $ Sizing
 "CSupFlo_Sys_T_OfficeOpn_N" = 500.3607   $ Sizing
 "CSupFlo_Sys_T_OfficeOpn_S" = 747.0245   $ Sizing
 "CSupFlo_Sys_T_OfficeOpn_W" = 810.5588   $ Sizing
 "CSupFlo_Sys_T_OfficeSm_E" = 634.0223   $ Sizing
 "CSupFlo_Sys_T_OfficeSm_N" = 398.1655   $ Sizing
 "CSupFlo_Sys_T_OfficeSm_S" = 640.9194   $ Sizing
 "CSupFlo_Sys_T_OfficeSm_W" = 700.2629   $ Sizing
 "CSupFlo_Sys_T_Restrm_C" = 151.925   $ Sizing
 "CSupFlo_Sys_T_StorSm_E" = 192.8593   $ Sizing
 "CSupFlo_Sys_T_StorSm_N" = 113.9533   $ Sizing
 "CSupFlo_Sys_T_StorSm_S" = 193.7781   $ Sizing
 "CSupFlo_Sys_T_StorSm_W" = 216.1815   $ Sizing
 "ClCap_Sys_L_Break_C" = 17752.52   $ Sizing
 "ClCap_Sys_L_CompDC_C" = 5568.593   $ Sizing
 "ClCap_Sys_L_Conf_C" = 13067.01   $ Sizing
 "ClCap_Sys_L_CopyRm_C" = 3698.862   $ Sizing
 "ClCap_Sys_L_Hall_E" = 5242.345   $ Sizing
 "ClCap_Sys_L_Hall_N" = 2910.749   $ Sizing
 "ClCap_Sys_L_Hall_S" = 5090.444   $ Sizing
 "ClCap_Sys_L_Hall_W" = 5751.686   $ Sizing
 "ClCap_Sys_L_LobWait_E" = 12289.22   $ Sizing
 "ClCap_Sys_L_LobWait_N" = 7704.498   $ Sizing
 "ClCap_Sys_L_LobWait_S" = 12606.31   $ Sizing
 "ClCap_Sys_L_LobWait_W" = 14252.35   $ Sizing
 "ClCap_Sys_L_MechElec_C" = 3281.889   $ Sizing
 "ClCap_Sys_L_OfficeOpn_C" = 2708.078   $ Sizing
 "ClCap_Sys_L_OfficeOpn_E" = 21705.42   $ Sizing
 "ClCap_Sys_L_OfficeOpn_N" = 14794.9   $ Sizing
 "ClCap_Sys_L_OfficeOpn_S" = 21144.1   $ Sizing
 "ClCap_Sys_L_OfficeOpn_W" = 23988.41   $ Sizing
 "ClCap_Sys_L_OfficeSm_E" = 18513.14   $ Sizing
 "ClCap_Sys_L_OfficeSm_N" = 11671.2   $ Sizing
 "ClCap_Sys_L_OfficeSm_S" = 18210.1   $ Sizing
 "ClCap_Sys_L_OfficeSm_W" = 20663.93   $ Sizing
 "ClCap_Sys_L_Restrm_C" = 3428.755   $ Sizing
 "ClCap_Sys_L_StorSm_C" = 1442.457   $ Sizing
 "ClCap_Sys_L_StorSm_E" = 5192.59   $ Sizing
 "ClCap_Sys_L_StorSm_N" = 3038.621   $ Sizing
 "ClCap_Sys_L_StorSm_S" = 5086.199   $ Sizing
 "ClCap_Sys_L_StorSm_W" = 5588.688   $ Sizing
 "ClCap_Sys_T_Conf_C" = 12575.68   $ Sizing
 "ClCap_Sys_T_Hall_E" = 5860.277   $ Sizing
 "ClCap_Sys_T_Hall_N" = 3188.052   $ Sizing
 "ClCap_Sys_T_Hall_S" = 5838.691   $ Sizing
 "ClCap_Sys_T_Hall_W" = 6475.223   $ Sizing
 "ClCap_Sys_T_OfficeOpn_C" = 2508.084   $ Sizing
 "ClCap_Sys_T_OfficeOpn_E" = 23155.88   $ Sizing
 "ClCap_Sys_T_OfficeOpn_N" = 15633.61   $ Sizing
 "ClCap_Sys_T_OfficeOpn_S" = 23340.54   $ Sizing
 "ClCap_Sys_T_OfficeOpn_W" = 25325.65   $ Sizing
 "ClCap_Sys_T_OfficeSm_E" = 19809.82   $ Sizing
 "ClCap_Sys_T_OfficeSm_N" = 12440.55   $ Sizing
 "ClCap_Sys_T_OfficeSm_S" = 20025.32   $ Sizing
 "ClCap_Sys_T_OfficeSm_W" = 21879.49   $ Sizing
 "ClCap_Sys_T_Restrm_C" = 4746.846   $ Sizing
 "ClCap_Sys_T_StorSm_E" = 6025.825   $ Sizing
 "ClCap_Sys_T_StorSm_N" = 3560.434   $ Sizing
 "ClCap_Sys_T_StorSm_S" = 6054.532   $ Sizing
 "ClCap_Sys_T_StorSm_W" = 6754.521   $ Sizing
 "HtCap_Sys_L_Break_C" = -30536.4   $ Sizing
 "HtCap_Sys_L_CompDC_C" = -6478.552   $ Sizing
 "HtCap_Sys_L_Conf_C" = -18339.6   $ Sizing
 "HtCap_Sys_L_CopyRm_C" = -6205.475   $ Sizing
 "HtCap_Sys_L_Hall_E" = -6238.881   $ Sizing
 "HtCap_Sys_L_Hall_N" = -3244.109   $ Sizing
 "HtCap_Sys_L_Hall_S" = -6064.932   $ Sizing
 "HtCap_Sys_L_Hall_W" = -6193.35   $ Sizing
 "HtCap_Sys_L_LobWait_E" = -14715.58   $ Sizing
 "HtCap_Sys_L_LobWait_N" = -9848.104   $ Sizing
 "HtCap_Sys_L_LobWait_S" = -14760.29   $ Sizing
 "HtCap_Sys_L_LobWait_W" = -15247.68   $ Sizing
 "HtCap_Sys_L_MechElec_C" = -4645.285   $ Sizing
 "HtCap_Sys_L_OfficeOpn_C" = -3411.648   $ Sizing
 "HtCap_Sys_L_OfficeOpn_E" = -24800.36   $ Sizing
 "HtCap_Sys_L_OfficeOpn_N" = -17406.41   $ Sizing
 "HtCap_Sys_L_OfficeOpn_S" = -23086.74   $ Sizing
 "HtCap_Sys_L_OfficeOpn_W" = -25456.17   $ Sizing
 "HtCap_Sys_L_OfficeSm_E" = -21804.08   $ Sizing
 "HtCap_Sys_L_OfficeSm_N" = -13284.59   $ Sizing
 "HtCap_Sys_L_OfficeSm_S" = -20313.34   $ Sizing
 "HtCap_Sys_L_OfficeSm_W" = -21802.47   $ Sizing
 "HtCap_Sys_L_Restrm_C" = -3835.709   $ Sizing
 "HtCap_Sys_L_StorSm_C" = -1861.521   $ Sizing
 "HtCap_Sys_L_StorSm_E" = -6181.06   $ Sizing
 "HtCap_Sys_L_StorSm_N" = -3816.028   $ Sizing
 "HtCap_Sys_L_StorSm_S" = -6028.635   $ Sizing
 "HtCap_Sys_L_StorSm_W" = -6066.399   $ Sizing
 "HtCap_Sys_T_Conf_C" = -18367.55   $ Sizing
 "HtCap_Sys_T_Hall_E" = -6987.181   $ Sizing
 "HtCap_Sys_T_Hall_N" = -4069.6   $ Sizing
 "HtCap_Sys_T_Hall_S" = -7182.985   $ Sizing
 "HtCap_Sys_T_Hall_W" = -7167.105   $ Sizing
 "HtCap_Sys_T_OfficeOpn_C" = -3326.234   $ Sizing
 "HtCap_Sys_T_OfficeOpn_E" = -27094.89   $ Sizing
 "HtCap_Sys_T_OfficeOpn_N" = -20324.19   $ Sizing
 "HtCap_Sys_T_OfficeOpn_S" = -27553.13   $ Sizing
 "HtCap_Sys_T_OfficeOpn_W" = -29268.35   $ Sizing
 "HtCap_Sys_T_OfficeSm_E" = -23576.78   $ Sizing
 "HtCap_Sys_T_OfficeSm_N" = -15793.43   $ Sizing
 "HtCap_Sys_T_OfficeSm_S" = -23822.04   $ Sizing
 "HtCap_Sys_T_OfficeSm_W" = -24402.2   $ Sizing
 "HtCap_Sys_T_Restrm_C" = -5778.329   $ Sizing
 "HtCap_Sys_T_StorSm_E" = -7398.115   $ Sizing
 "HtCap_Sys_T_StorSm_N" = -5146.089   $ Sizing
 "HtCap_Sys_T_StorSm_S" = -7335.726   $ Sizing
 "HtCap_Sys_T_StorSm_W" = -8030.347   $ Sizing
..

##include Templates\OfS_DX_SZ.inp
END ..
COMPUTE ..
STOP ..
