INPUT ..

##fileprefix C:\Users\jglasskatz\MASControl3\
##set1 IsSizing FALSE
##set1 CoolType DX
##set1 HeatType FURNACE
##set1 EU_HrRepVar 0
##set1 BldgVint 2003
##set1 BldgLoc CZ10

 ##set1 mBFMult 1   $ IP Tech: RefgChg-NRes-Std

PARAMETER
 "AltFactor" = 1.03143   $ IP Non-Tech
 "BF_fFlow" = SpltAC2SpHiSEER_BF_fFlow   $ Msr (Multi)TechID: MsrNResSplitAC-45to55-S17
 "BF_fT" = SpltAC2SpHiSEER_BF_fT   $ Msr (Multi)TechID: MsrNResSplitAC-45to55-S17
 "BldgEconoFlag" = 1   $ IP Non-Tech
 "Break_EWSF" = 1   $ IP Non-Tech
 "Break_LWSF" = 1.1   $ IP Non-Tech
 "CDD_DBHi10" = 92   $ IP Non-Tech
 "CDD_DBHi7" = 97   $ IP Non-Tech
 "CDD_DBHi8" = 99   $ IP Non-Tech
 "CDD_DBHi9" = 102   $ IP Non-Tech
 "CDD_DBRange10" = 19   $ IP Non-Tech
 "CDD_DBRange7" = 31   $ IP Non-Tech
 "CDD_DBRange8" = 31   $ IP Non-Tech
 "CDD_DBRange9" = 34   $ IP Non-Tech
 "CDD_Day10" = 15   $ IP Non-Tech
 "CDD_Day7" = 16   $ IP Non-Tech
 "CDD_Day8" = 20   $ IP Non-Tech
 "CDD_Day9" = 17   $ IP Non-Tech
 "CDD_HrHi10" = 15   $ IP Non-Tech
 "CDD_HrHi7" = 14   $ IP Non-Tech
 "CDD_HrHi8" = 14   $ IP Non-Tech
 "CDD_HrHi9" = 15   $ IP Non-Tech
 "CDD_HrLo10" = 3   $ IP Non-Tech
 "CDD_HrLo7" = 6   $ IP Non-Tech
 "CDD_HrLo8" = 5   $ IP Non-Tech
 "CDD_HrLo9" = 5   $ IP Non-Tech
 "CDD_WB10" = 62.63956451   $ IP Non-Tech
 "CDD_WB7" = 70.96998596   $ IP Non-Tech
 "CDD_WB8" = 71.98167419   $ IP Non-Tech
 "CDD_WB9" = 70.8795929   $ IP Non-Tech
 "CEIR_fPLR_Hot" = SpltAC2SpHiSEER_CEIR_fPLR_Hot   $ Msr (Multi)TechID: MsrNResSplitAC-45to55-S17
 "CEIR_fPLR_Mod" = SpltAC2SpHiSEER_CEIR_fPLR_Mod   $ Msr (Multi)TechID: MsrNResSplitAC-45to55-S17
 "CEIR_fPLR_Tem" = SpltAC2SpHiSEER_CEIR_fPLR_Tem   $ Msr (Multi)TechID: MsrNResSplitAC-45to55-S17
 "CLoss_fPLR_Hot" = SpltAC2SpHiSEER_CLoss_fPLR_Hot   $ Msr (Multi)TechID: MsrNResSplitAC-45to55-S17
 "CLoss_fPLR_Mod" = SpltAC2SpHiSEER_CLoss_fPLR_Mod   $ Msr (Multi)TechID: MsrNResSplitAC-45to55-S17
 "CLoss_fPLR_Tem" = SpltAC2SpHiSEER_CLoss_fPLR_Tem   $ Msr (Multi)TechID: MsrNResSplitAC-45to55-S17
 "COP47" = 0   $ Msr (Multi)TechID: MsrNResSplitAC-45to55-S17
 "CZ_Category" = Mod   $ IP Non-Tech
 "CapRange" = Any   $ Msr (Multi)TechID: MsrNResSplitAC-45to55-S17
 "CfmPerBtuh" = 0.03   $ Msr (Multi)TechID: MsrNResSplitAC-45to55-S17
 "ChwVintEconoFlag" = 1   $ IP Non-Tech
 "ClCap_fT" = SpltAC2SpHiSEER_ClCap_fT   $ Msr (Multi)TechID: MsrNResSplitAC-45to55-S17
 "ClSH_fT" = SpltAC2SpHiSEER_ClSH_fT   $ Msr (Multi)TechID: MsrNResSplitAC-45to55-S17
 "CoilBF" = 0.102   $ Msr (Multi)TechID: MsrNResSplitAC-45to55-S17
 "CompRoomData_EWSF" = 5   $ IP Non-Tech
 "CompRoomData_LWSF" = 1.2   $ IP Non-Tech
 "CondWPerBtuh" = 0   $ Msr (Multi)TechID: MsrNResSplitAC-45to55-S17
 "Conference_EWSF" = 1   $ IP Non-Tech
 "Conference_LWSF" = 1.4   $ IP Non-Tech
 "CoolSensCap" = 0.724   $ Msr (Multi)TechID: MsrNResSplitAC-45to55-S17
 "CoolSetT" = 45   $ IP Non-Tech
 "CoolType" = DX   $ IP Non-Tech
 "CoolingEIR" = 0.2225   $ Msr (Multi)TechID: MsrNResSplitAC-45to55-S17
 "CopyRoom_EWSF" = 1.5   $ IP Non-Tech
 "CopyRoom_LWSF" = 1.3   $ IP Non-Tech
 "CrnkEIR" = 0.002225   $ Msr (Multi)TechID: MsrNResSplitAC-45to55-S17
 "CrnkMaxT" = 50   $ Msr (Multi)TechID: MsrNResSplitAC-45to55-S17
 "DXType" = SplitSEER   $ Msr (Multi)TechID: MsrNResSplitAC-45to55-S17
 "DesCoolT" = 75   $ IP Non-Tech
 "DesHeatT" = 73   $ IP Non-Tech
 "EER" = 13.26   $ Msr (Multi)TechID: MsrNResSplitAC-45to55-S17
 "EIR_fT" = SpltAC2SpHiSEER_EIR_fT   $ Msr (Multi)TechID: MsrNResSplitAC-45to55-S17
 "EconoCtrl" = FIXED   $ Msr (Multi)TechID: MsrNResSplitAC-45to55-S17
 "EconoEnthLimit" = 28   $ IP Non-Tech
 "EconoTempLimit" = 73   $ IP Non-Tech
 "Elevation" = 840   $ IP Non-Tech
 "FanEirPlr" = TwoSpeedFan   $ Msr (Multi)TechID: MsrNResSplitAC-45to55-S17
 "FanWPerCfm" = 0.271   $ Msr (Multi)TechID: MsrNResSplitAC-45to55-S17
 "HDD_CloudAmt1" = 0   $ IP Non-Tech
 "HDD_DBHi1" = 53   $ IP Non-Tech
 "HDD_DBRange1" = 17   $ IP Non-Tech
 "HDD_Day1" = 15   $ IP Non-Tech
 "HDD_HrHi1" = 14   $ IP Non-Tech
 "HDD_HrLo1" = 5   $ IP Non-Tech
 "HDD_WB1" = 48.5   $ IP Non-Tech
 "HDD_WindSpd1" = 13.8   $ IP Non-Tech
 "HIR_fT" = 0   $ Msr (Multi)TechID: MsrNResSplitAC-45to55-S17
 "HSPF" = 0   $ Msr (Multi)TechID: MsrNResSplitAC-45to55-S17
 "Hall_EWSF" = 0.2   $ IP Non-Tech
 "Hall_LWSF" = 0.6   $ IP Non-Tech
 "HeatSrc" = FURNACE   $ IP Non-Tech
 "HeatSrcTU" = HEAT-PUMP   $ IP Non-Tech
 "HeatType" = GasFurn   $ IP Non-Tech
 "HeatTypeTU" = HEAT-PUMP   $ IP Non-Tech
 "HtCap_fT" = 0   $ Msr (Multi)TechID: MsrNResSplitAC-45to55-S17
 "HtCoolCapRatio" = 0   $ Msr (Multi)TechID: MsrNResSplitAC-45to55-S17
 "HtgEIR" = 0   $ Msr (Multi)TechID: MsrNResSplitAC-45to55-S17
 "IndoorFanMode" = CONTINUOUS   $ IP Non-Tech
 "KT_TransferAir" = No   $ IP Non-Tech
 "Latitude" = 34   $ IP Non-Tech
 "LobbyWaiting_EWSF" = 0.5   $ IP Non-Tech
 "LobbyWaiting_LWSF" = 1.3   $ IP Non-Tech
 "Longitude" = 117.4   $ IP Non-Tech
 "LowSpdCapRatio" = 0.686   $ Msr (Multi)TechID: MsrNResSplitAC-45to55-S17
 "LowSpdCfmRatio" = 0.739   $ Msr (Multi)TechID: MsrNResSplitAC-45to55-S17
 "MZFanMechEff" = 0.58   $ IP Non-Tech
 "MZHasRetFan" = FALSE   $ IP Non-Tech
 "MZ_RFanWPerCfm" = 0.33   $ IP Non-Tech
 "MZ_SFanWPerCfm" = 0.75   $ IP Non-Tech
 "MZ_SupFanStatic" = 2.25   $ IP Non-Tech
 "MaxOAFrac" = 1   $ Msr (Multi)TechID: MsrNResSplitAC-45to55-S17
 "MaxSupT_MZ" = 100   $ IP Non-Tech
 "MaxSupT_SZ" = 100   $ IP Non-Tech
 "MaxSupT_TU" = 90   $ IP Non-Tech
 "MechElecRoom_EWSF" = 0.2   $ IP Non-Tech
 "MechElecRoom_LWSF" = 0.7   $ IP Non-Tech
 "MinCfmPerSF" = 0.4   $ IP Non-Tech
 "MinSupT" = 55   $ IP Non-Tech
 "NumStages" = 2   $ Msr (Multi)TechID: MsrNResSplitAC-45to55-S17
 "OccCoolT" = 76   $ IP Non-Tech
 "OccHeatT" = 72   $ IP Non-Tech
 "OfficeOpen_EWSF" = 1.5   $ IP Non-Tech
 "OfficeOpen_LWSF" = 1.2   $ IP Non-Tech
 "OfficeSmall_EWSF" = 1.5   $ IP Non-Tech
 "OfficeSmall_LWSF" = 1.3   $ IP Non-Tech
 "PkgDxVintEconoFlag" = 0   $ IP Non-Tech
 "Restroom_EWSF" = 0.2   $ IP Non-Tech
 "Restroom_LWSF" = 0.6   $ IP Non-Tech
 "SEER" = 17   $ Msr (Multi)TechID: MsrNResSplitAC-45to55-S17
 "SZFanMechEff" = 0.58   $ IP Non-Tech
 "SZHasRetFan" = FALSE   $ IP Non-Tech
 "SZ_Is_2Spd" = FALSE   $ IP Non-Tech
 "SZ_SFanWPerCfm" = 0.46   $ IP Non-Tech
 "SZ_SupFanStatic" = 0.75   $ IP Non-Tech
 "Sector" = Any   $ Msr (Multi)TechID: MsrNResSplitAC-45to55-S17
 "StorageSmlCond_EWSF" = 0.2   $ IP Non-Tech
 "StorageSmlCond_LWSF" = 0.6   $ IP Non-Tech
 "SubType" = AC   $ Msr (Multi)TechID: MsrNResSplitAC-45to55-S17
 "T24GlzTbl" = CZTbl   $ IP Non-Tech
 "TermUnitFanMechEff" = 1   $ IP Non-Tech
 "TermUnitFanMode" = INTERMITTENT   $ IP Non-Tech
 "TotCoolCap" = 58805   $ Msr (Multi)TechID: MsrNResSplitAC-45to55-S17
 "TwrSetpt" = 82.2   $ IP Non-Tech
 "UnocCoolT" = 86   $ IP Non-Tech
 "UnocHeatT" = 62   $ IP Non-Tech
 "UseEconoVintApplic" = FALSE   $ Msr (Multi)TechID: MsrNResSplitAC-45to55-S17
 "WlhpVintEconoFlag" = 0   $ IP Non-Tech
 "DuctDT" = 1   $ IP Tech: ComDuctInsul-1
 "DuctAirLoss" = 0   $ IP Tech: ComDuctLeak-0
 "DuctLossOAFrac" = 0   $ IP Tech: ComDuctLeak-0
 "ComRoofInsCalc" = FromUo   $ IP Tech: ComRoofIns-WFrm-0.06
 "ComRoofInsR" = -999   $ IP Tech: ComRoofIns-WFrm-0.06
 "ComRoofUo" = 0.06   $ IP Tech: ComRoofIns-WFrm-0.06
 "ComEWInsCalc" = FromUo   $ IP Tech: ComWallIns-WFrm-0.08
 "ComEWInsR" = -999   $ IP Tech: ComWallIns-WFrm-0.08
 "ComEWUo" = 0.08   $ IP Tech: ComWallIns-WFrm-0.08
 "ComN_SHGC" = 0.47   $ IP Tech: NResWin-ComN-0.47-0.47
 "ComN_UFactor" = 0.47   $ IP Tech: NResWin-ComN-0.47-0.47
 "ComN_VisTrans" = 0.75   $ IP Tech: NResWin-ComN-0.47-0.47
 "ComN_WinCode" = G2633   $ IP Tech: NResWin-ComN-0.47-0.47
 "ComN_WinFrmFrac" = 0.17   $ IP Tech: NResWin-ComN-0.47-0.47
 "ComN_WinFrmU" = 0.3   $ IP Tech: NResWin-ComN-0.47-0.47
 "ComO_SHGC" = 0.31   $ IP Tech: NResWin-ComO-0.47-0.31
 "ComO_UFactor" = 0.47   $ IP Tech: NResWin-ComO-0.47-0.31
 "ComO_VisTrans" = 0.44   $ IP Tech: NResWin-ComO-0.47-0.31
 "ComO_WinCode" = G2637   $ IP Tech: NResWin-ComO-0.47-0.31
 "ComO_WinFrmFrac" = 0.17   $ IP Tech: NResWin-ComO-0.47-0.31
 "ComO_WinFrmU" = 0.3   $ IP Tech: NResWin-ComO-0.47-0.31
 "LtgMsrApplic" = ALL   $ IP Tech: NonResLtgRefPre
 "LtgSav_CFL" = 0   $ IP Tech: NonResLtgRefPre
 "LtgSav_EX" = 0   $ IP Tech: NonResLtgRefPre
 "LtgSav_HB" = 0   $ IP Tech: NonResLtgRefPre
 "LtgSav_LF" = 0   $ IP Tech: NonResLtgRefPre
 "LtgSav_SP" = 0   $ IP Tech: NonResLtgRefPre
 "CEIR_fPLR" = PSZ65to135_CEIR_fPLR   $ IP Tech: PkgAC1SpH-65to135-E10
 "CLoss_fPLR" = PSZ65to135_CLoss_fPLR   $ IP Tech: PkgAC1SpH-65to135-E10
 "COP" = -1   $ IP Tech: PkgAC1SpH-65to135-E10
 "HtgFuel" = Gas   $ IP Tech: PkgAC1SpH-65to135-E10
 "IEER" = 11.87   $ IP Tech: PkgAC1SpH-65to135-E10
 "NominalCap" = 15   $ IP Tech: PkgAC1SpH-65to135-E10
 "RatedEER" = 10   $ IP Tech: PkgAC1SpH-65to135-E10
 "RatedSupMtrClass" = HiEff   $ IP Tech: PkgAC1SpH-65to135-E10
 "SizeRange" = 65to135   $ IP Tech: PkgAC1SpH-65to135-E10
 "SupMotEff" = 0.84   $ IP Tech: PkgAC1SpH-65to135-E10
 "Tier" = 0   $ IP Tech: PkgAC1SpH-65to135-E10
 "FanPwrMult" = 1   $ IP Tech: PkgFurn-0.80AFUE
 "FurnAFUE" = 0.8   $ IP Tech: PkgFurn-0.80AFUE
 "FurnEt" = 0.82   $ IP Tech: PkgFurn-0.80AFUE
 "FurnaceAuxKW" = 0.1   $ IP Tech: PkgFurn-0.80AFUE
 "HIR_fPLR" = Furnace-HIR-fPLR   $ IP Tech: PkgFurn-0.80AFUE
 "VSM" = FALSE   $ IP Tech: PkgFurn-0.80AFUE
 "BFMult" = 1   $ IP Tech: RefgChg-NRes-Std
 "CoolEirMult" = 1   $ IP Tech: RefgChg-NRes-Std
 "SensCoolCapMult" = 1   $ IP Tech: RefgChg-NRes-Std
 "TotCoolCapMult" = 1   $ IP Tech: RefgChg-NRes-Std
 "AltAdjFactor" = 1.031429   $ Sizing
 "CAssFlo_L_Break_CZn" = 481.1353   $ Sizing
 "CAssFlo_L_CompDC_CZn" = 155.2567   $ Sizing
 "CAssFlo_L_Conf_CZn" = 274.7875   $ Sizing
 "CAssFlo_L_CopyRm_CZn" = 99.62017   $ Sizing
 "CAssFlo_L_Hall_EZn" = 114.4026   $ Sizing
 "CAssFlo_L_Hall_NZn" = 68.91132   $ Sizing
 "CAssFlo_L_Hall_SZn" = 120.3028   $ Sizing
 "CAssFlo_L_Hall_WZn" = 134.4945   $ Sizing
 "CAssFlo_L_LobWait_EZn" = 269.2698   $ Sizing
 "CAssFlo_L_LobWait_NZn" = 186.7774   $ Sizing
 "CAssFlo_L_LobWait_SZn" = 296.3074   $ Sizing
 "CAssFlo_L_LobWait_WZn" = 342.7468   $ Sizing
 "CAssFlo_L_MechElec_CZn" = 72.74598   $ Sizing
 "CAssFlo_L_OfficeOpn_CZn" = 65.97058   $ Sizing
 "CAssFlo_L_OfficeOpn_EZn" = 496.8066   $ Sizing
 "CAssFlo_L_OfficeOpn_NZn" = 377.6708   $ Sizing
 "CAssFlo_L_OfficeOpn_SZn" = 516.8754   $ Sizing
 "CAssFlo_L_OfficeOpn_WZn" = 583.7751   $ Sizing
 "CAssFlo_L_OfficeSm_EZn" = 416.5577   $ Sizing
 "CAssFlo_L_OfficeSm_NZn" = 294.1965   $ Sizing
 "CAssFlo_L_OfficeSm_SZn" = 437.8907   $ Sizing
 "CAssFlo_L_OfficeSm_WZn" = 498.3857   $ Sizing
 "CAssFlo_L_Restrm_CZn" = 85.96836   $ Sizing
 "CAssFlo_L_StorSm_CZn" = 38.1883   $ Sizing
 "CAssFlo_L_StorSm_EZn" = 112.7311   $ Sizing
 "CAssFlo_L_StorSm_NZn" = 69.1182   $ Sizing
 "CAssFlo_L_StorSm_SZn" = 118.2646   $ Sizing
 "CAssFlo_L_StorSm_WZn" = 129.0502   $ Sizing
 "CAssFlo_T_Conf_CZn" = 266.6866   $ Sizing
 "CAssFlo_T_Hall_EZn" = 126.2769   $ Sizing
 "CAssFlo_T_Hall_NZn" = 76.99707   $ Sizing
 "CAssFlo_T_Hall_SZn" = 136.6864   $ Sizing
 "CAssFlo_T_Hall_WZn" = 146.3373   $ Sizing
 "CAssFlo_T_OfficeOpn_CZn" = 61.55476   $ Sizing
 "CAssFlo_T_OfficeOpn_EZn" = 518.6287   $ Sizing
 "CAssFlo_T_OfficeOpn_NZn" = 397.7092   $ Sizing
 "CAssFlo_T_OfficeOpn_SZn" = 567.3795   $ Sizing
 "CAssFlo_T_OfficeOpn_WZn" = 612.5134   $ Sizing
 "CAssFlo_T_OfficeSm_EZn" = 439.2821   $ Sizing
 "CAssFlo_T_OfficeSm_NZn" = 314.0955   $ Sizing
 "CAssFlo_T_OfficeSm_SZn" = 481.59   $ Sizing
 "CAssFlo_T_OfficeSm_WZn" = 524.6116   $ Sizing
 "CAssFlo_T_Restrm_CZn" = 126.3744   $ Sizing
 "CAssFlo_T_StorSm_EZn" = 129.3249   $ Sizing
 "CAssFlo_T_StorSm_NZn" = 82.79252   $ Sizing
 "CAssFlo_T_StorSm_SZn" = 142.2154   $ Sizing
 "CAssFlo_T_StorSm_WZn" = 151.3459   $ Sizing
 "CHRtFlo_Sys_L_Break_C" = 481.1354   $ Sizing
 "CHRtFlo_Sys_L_CompDC_C" = 183.1609   $ Sizing
 "CHRtFlo_Sys_L_Conf_C" = 274.7875   $ Sizing
 "CHRtFlo_Sys_L_CopyRm_C" = 99.62018   $ Sizing
 "CHRtFlo_Sys_L_Hall_E" = 138.3426   $ Sizing
 "CHRtFlo_Sys_L_Hall_N" = 68.91132   $ Sizing
 "CHRtFlo_Sys_L_Hall_S" = 147.193   $ Sizing
 "CHRtFlo_Sys_L_Hall_W" = 141.8114   $ Sizing
 "CHRtFlo_Sys_L_LobWait_E" = 322.2274   $ Sizing
 "CHRtFlo_Sys_L_LobWait_N" = 186.7774   $ Sizing
 "CHRtFlo_Sys_L_LobWait_S" = 339.9708   $ Sizing
 "CHRtFlo_Sys_L_LobWait_W" = 342.7468   $ Sizing
 "CHRtFlo_Sys_L_MechElec_C" = 103.9115   $ Sizing
 "CHRtFlo_Sys_L_OfficeOpn_C" = 83.30011   $ Sizing
 "CHRtFlo_Sys_L_OfficeOpn_E" = 593.8417   $ Sizing
 "CHRtFlo_Sys_L_OfficeOpn_N" = 377.6708   $ Sizing
 "CHRtFlo_Sys_L_OfficeOpn_S" = 590.7917   $ Sizing
 "CHRtFlo_Sys_L_OfficeOpn_W" = 601.1848   $ Sizing
 "CHRtFlo_Sys_L_OfficeSm_E" = 505.952   $ Sizing
 "CHRtFlo_Sys_L_OfficeSm_N" = 294.1965   $ Sizing
 "CHRtFlo_Sys_L_OfficeSm_S" = 515.7004   $ Sizing
 "CHRtFlo_Sys_L_OfficeSm_W" = 523.3282   $ Sizing
 "CHRtFlo_Sys_L_Restrm_C" = 103.0494   $ Sizing
 "CHRtFlo_Sys_L_StorSm_C" = 45.7863   $ Sizing
 "CHRtFlo_Sys_L_StorSm_E" = 135.3269   $ Sizing
 "CHRtFlo_Sys_L_StorSm_N" = 69.1182   $ Sizing
 "CHRtFlo_Sys_L_StorSm_S" = 142.1063   $ Sizing
 "CHRtFlo_Sys_L_StorSm_W" = 130.1649   $ Sizing
 "CHRtFlo_Sys_T_Conf_C" = 266.6866   $ Sizing
 "CHRtFlo_Sys_T_Hall_E" = 143.6177   $ Sizing
 "CHRtFlo_Sys_T_Hall_N" = 76.99707   $ Sizing
 "CHRtFlo_Sys_T_Hall_S" = 153.7944   $ Sizing
 "CHRtFlo_Sys_T_Hall_W" = 146.3373   $ Sizing
 "CHRtFlo_Sys_T_OfficeOpn_C" = 72.21041   $ Sizing
 "CHRtFlo_Sys_T_OfficeOpn_E" = 570.6222   $ Sizing
 "CHRtFlo_Sys_T_OfficeOpn_N" = 397.7092   $ Sizing
 "CHRtFlo_Sys_T_OfficeOpn_S" = 594.5911   $ Sizing
 "CHRtFlo_Sys_T_OfficeOpn_W" = 612.5134   $ Sizing
 "CHRtFlo_Sys_T_OfficeSm_E" = 492.5135   $ Sizing
 "CHRtFlo_Sys_T_OfficeSm_N" = 314.0955   $ Sizing
 "CHRtFlo_Sys_T_OfficeSm_S" = 523.3802   $ Sizing
 "CHRtFlo_Sys_T_OfficeSm_W" = 524.6116   $ Sizing
 "CHRtFlo_Sys_T_Restrm_C" = 145.7504   $ Sizing
 "CHRtFlo_Sys_T_StorSm_E" = 143.7209   $ Sizing
 "CHRtFlo_Sys_T_StorSm_N" = 82.79252   $ Sizing
 "CHRtFlo_Sys_T_StorSm_S" = 151.7099   $ Sizing
 "CHRtFlo_Sys_T_StorSm_W" = 151.3459   $ Sizing
 "CRtdFlo_Sys_L_Break_C" = 481.1354   $ Sizing
 "CRtdFlo_Sys_L_CompDC_C" = 155.2567   $ Sizing
 "CRtdFlo_Sys_L_Conf_C" = 274.7875   $ Sizing
 "CRtdFlo_Sys_L_CopyRm_C" = 99.62018   $ Sizing
 "CRtdFlo_Sys_L_Hall_E" = 114.4026   $ Sizing
 "CRtdFlo_Sys_L_Hall_N" = 68.91132   $ Sizing
 "CRtdFlo_Sys_L_Hall_S" = 120.3028   $ Sizing
 "CRtdFlo_Sys_L_Hall_W" = 134.4945   $ Sizing
 "CRtdFlo_Sys_L_LobWait_E" = 269.2698   $ Sizing
 "CRtdFlo_Sys_L_LobWait_N" = 186.7774   $ Sizing
 "CRtdFlo_Sys_L_LobWait_S" = 296.3074   $ Sizing
 "CRtdFlo_Sys_L_LobWait_W" = 342.7468   $ Sizing
 "CRtdFlo_Sys_L_MechElec_C" = 72.74598   $ Sizing
 "CRtdFlo_Sys_L_OfficeOpn_C" = 65.97058   $ Sizing
 "CRtdFlo_Sys_L_OfficeOpn_E" = 496.8066   $ Sizing
 "CRtdFlo_Sys_L_OfficeOpn_N" = 377.6708   $ Sizing
 "CRtdFlo_Sys_L_OfficeOpn_S" = 516.8754   $ Sizing
 "CRtdFlo_Sys_L_OfficeOpn_W" = 583.7751   $ Sizing
 "CRtdFlo_Sys_L_OfficeSm_E" = 416.5577   $ Sizing
 "CRtdFlo_Sys_L_OfficeSm_N" = 294.1965   $ Sizing
 "CRtdFlo_Sys_L_OfficeSm_S" = 437.8907   $ Sizing
 "CRtdFlo_Sys_L_OfficeSm_W" = 498.3857   $ Sizing
 "CRtdFlo_Sys_L_Restrm_C" = 85.96836   $ Sizing
 "CRtdFlo_Sys_L_StorSm_C" = 38.1883   $ Sizing
 "CRtdFlo_Sys_L_StorSm_E" = 112.7311   $ Sizing
 "CRtdFlo_Sys_L_StorSm_N" = 69.1182   $ Sizing
 "CRtdFlo_Sys_L_StorSm_S" = 118.2646   $ Sizing
 "CRtdFlo_Sys_L_StorSm_W" = 129.0502   $ Sizing
 "CRtdFlo_Sys_T_Conf_C" = 266.6866   $ Sizing
 "CRtdFlo_Sys_T_Hall_E" = 126.2769   $ Sizing
 "CRtdFlo_Sys_T_Hall_N" = 76.99707   $ Sizing
 "CRtdFlo_Sys_T_Hall_S" = 136.6864   $ Sizing
 "CRtdFlo_Sys_T_Hall_W" = 146.3373   $ Sizing
 "CRtdFlo_Sys_T_OfficeOpn_C" = 61.55476   $ Sizing
 "CRtdFlo_Sys_T_OfficeOpn_E" = 518.6287   $ Sizing
 "CRtdFlo_Sys_T_OfficeOpn_N" = 397.7092   $ Sizing
 "CRtdFlo_Sys_T_OfficeOpn_S" = 567.3795   $ Sizing
 "CRtdFlo_Sys_T_OfficeOpn_W" = 612.5134   $ Sizing
 "CRtdFlo_Sys_T_OfficeSm_E" = 439.2821   $ Sizing
 "CRtdFlo_Sys_T_OfficeSm_N" = 314.0955   $ Sizing
 "CRtdFlo_Sys_T_OfficeSm_S" = 481.59   $ Sizing
 "CRtdFlo_Sys_T_OfficeSm_W" = 524.6116   $ Sizing
 "CRtdFlo_Sys_T_Restrm_C" = 126.3744   $ Sizing
 "CRtdFlo_Sys_T_StorSm_E" = 129.3249   $ Sizing
 "CRtdFlo_Sys_T_StorSm_N" = 82.79252   $ Sizing
 "CRtdFlo_Sys_T_StorSm_S" = 142.2154   $ Sizing
 "CRtdFlo_Sys_T_StorSm_W" = 151.3459   $ Sizing
 "CSupFlo_Sys_L_Break_C" = 481.1354   $ Sizing
 "CSupFlo_Sys_L_CompDC_C" = 155.2567   $ Sizing
 "CSupFlo_Sys_L_Conf_C" = 274.7875   $ Sizing
 "CSupFlo_Sys_L_CopyRm_C" = 99.62018   $ Sizing
 "CSupFlo_Sys_L_Hall_E" = 114.4026   $ Sizing
 "CSupFlo_Sys_L_Hall_N" = 68.91132   $ Sizing
 "CSupFlo_Sys_L_Hall_S" = 120.3028   $ Sizing
 "CSupFlo_Sys_L_Hall_W" = 134.4945   $ Sizing
 "CSupFlo_Sys_L_LobWait_E" = 269.2698   $ Sizing
 "CSupFlo_Sys_L_LobWait_N" = 186.7774   $ Sizing
 "CSupFlo_Sys_L_LobWait_S" = 296.3074   $ Sizing
 "CSupFlo_Sys_L_LobWait_W" = 342.7468   $ Sizing
 "CSupFlo_Sys_L_MechElec_C" = 72.74598   $ Sizing
 "CSupFlo_Sys_L_OfficeOpn_C" = 65.97058   $ Sizing
 "CSupFlo_Sys_L_OfficeOpn_E" = 496.8066   $ Sizing
 "CSupFlo_Sys_L_OfficeOpn_N" = 377.6708   $ Sizing
 "CSupFlo_Sys_L_OfficeOpn_S" = 516.8754   $ Sizing
 "CSupFlo_Sys_L_OfficeOpn_W" = 583.7751   $ Sizing
 "CSupFlo_Sys_L_OfficeSm_E" = 416.5577   $ Sizing
 "CSupFlo_Sys_L_OfficeSm_N" = 294.1965   $ Sizing
 "CSupFlo_Sys_L_OfficeSm_S" = 437.8907   $ Sizing
 "CSupFlo_Sys_L_OfficeSm_W" = 498.3857   $ Sizing
 "CSupFlo_Sys_L_Restrm_C" = 85.96836   $ Sizing
 "CSupFlo_Sys_L_StorSm_C" = 38.1883   $ Sizing
 "CSupFlo_Sys_L_StorSm_E" = 112.7311   $ Sizing
 "CSupFlo_Sys_L_StorSm_N" = 69.1182   $ Sizing
 "CSupFlo_Sys_L_StorSm_S" = 118.2646   $ Sizing
 "CSupFlo_Sys_L_StorSm_W" = 129.0502   $ Sizing
 "CSupFlo_Sys_T_Conf_C" = 266.6866   $ Sizing
 "CSupFlo_Sys_T_Hall_E" = 126.2769   $ Sizing
 "CSupFlo_Sys_T_Hall_N" = 76.99707   $ Sizing
 "CSupFlo_Sys_T_Hall_S" = 136.6864   $ Sizing
 "CSupFlo_Sys_T_Hall_W" = 146.3373   $ Sizing
 "CSupFlo_Sys_T_OfficeOpn_C" = 61.55476   $ Sizing
 "CSupFlo_Sys_T_OfficeOpn_E" = 518.6287   $ Sizing
 "CSupFlo_Sys_T_OfficeOpn_N" = 397.7092   $ Sizing
 "CSupFlo_Sys_T_OfficeOpn_S" = 567.3795   $ Sizing
 "CSupFlo_Sys_T_OfficeOpn_W" = 612.5134   $ Sizing
 "CSupFlo_Sys_T_OfficeSm_E" = 439.2821   $ Sizing
 "CSupFlo_Sys_T_OfficeSm_N" = 314.0955   $ Sizing
 "CSupFlo_Sys_T_OfficeSm_S" = 481.59   $ Sizing
 "CSupFlo_Sys_T_OfficeSm_W" = 524.6116   $ Sizing
 "CSupFlo_Sys_T_Restrm_C" = 126.3744   $ Sizing
 "CSupFlo_Sys_T_StorSm_E" = 129.3249   $ Sizing
 "CSupFlo_Sys_T_StorSm_N" = 82.79252   $ Sizing
 "CSupFlo_Sys_T_StorSm_S" = 142.2154   $ Sizing
 "CSupFlo_Sys_T_StorSm_W" = 151.3459   $ Sizing
 "ClCap_Sys_L_Break_C" = 15993.41   $ Sizing
 "ClCap_Sys_L_CompDC_C" = 5160.884   $ Sizing
 "ClCap_Sys_L_Conf_C" = 11625.35   $ Sizing
 "ClCap_Sys_L_CopyRm_C" = 3311.472   $ Sizing
 "ClCap_Sys_L_Hall_E" = 3802.854   $ Sizing
 "ClCap_Sys_L_Hall_N" = 2290.679   $ Sizing
 "ClCap_Sys_L_Hall_S" = 3998.982   $ Sizing
 "ClCap_Sys_L_Hall_W" = 4470.728   $ Sizing
 "ClCap_Sys_L_LobWait_E" = 8950.792   $ Sizing
 "ClCap_Sys_L_LobWait_N" = 6208.664   $ Sizing
 "ClCap_Sys_L_LobWait_S" = 9849.546   $ Sizing
 "ClCap_Sys_L_LobWait_W" = 11393.24   $ Sizing
 "ClCap_Sys_L_MechElec_C" = 2418.147   $ Sizing
 "ClCap_Sys_L_OfficeOpn_C" = 2192.926   $ Sizing
 "ClCap_Sys_L_OfficeOpn_E" = 16514.33   $ Sizing
 "ClCap_Sys_L_OfficeOpn_N" = 12554.14   $ Sizing
 "ClCap_Sys_L_OfficeOpn_S" = 17181.44   $ Sizing
 "ClCap_Sys_L_OfficeOpn_W" = 19405.25   $ Sizing
 "ClCap_Sys_L_OfficeSm_E" = 13846.79   $ Sizing
 "ClCap_Sys_L_OfficeSm_N" = 9779.379   $ Sizing
 "ClCap_Sys_L_OfficeSm_S" = 14555.91   $ Sizing
 "ClCap_Sys_L_OfficeSm_W" = 16566.82   $ Sizing
 "ClCap_Sys_L_Restrm_C" = 2857.672   $ Sizing
 "ClCap_Sys_L_StorSm_C" = 1269.416   $ Sizing
 "ClCap_Sys_L_StorSm_E" = 3747.292   $ Sizing
 "ClCap_Sys_L_StorSm_N" = 2297.556   $ Sizing
 "ClCap_Sys_L_StorSm_S" = 3931.23   $ Sizing
 "ClCap_Sys_L_StorSm_W" = 4289.755   $ Sizing
 "ClCap_Sys_T_Conf_C" = 11282.63   $ Sizing
 "ClCap_Sys_T_Hall_E" = 4197.566   $ Sizing
 "ClCap_Sys_T_Hall_N" = 2559.458   $ Sizing
 "ClCap_Sys_T_Hall_S" = 4543.588   $ Sizing
 "ClCap_Sys_T_Hall_W" = 4864.393   $ Sizing
 "ClCap_Sys_T_OfficeOpn_C" = 2046.14   $ Sizing
 "ClCap_Sys_T_OfficeOpn_E" = 17239.72   $ Sizing
 "ClCap_Sys_T_OfficeOpn_N" = 13220.24   $ Sizing
 "ClCap_Sys_T_OfficeOpn_S" = 18860.25   $ Sizing
 "ClCap_Sys_T_OfficeOpn_W" = 20360.54   $ Sizing
 "ClCap_Sys_T_OfficeSm_E" = 14602.17   $ Sizing
 "ClCap_Sys_T_OfficeSm_N" = 10440.84   $ Sizing
 "ClCap_Sys_T_OfficeSm_S" = 16008.52   $ Sizing
 "ClCap_Sys_T_OfficeSm_W" = 17438.6   $ Sizing
 "ClCap_Sys_T_Restrm_C" = 4200.808   $ Sizing
 "ClCap_Sys_T_StorSm_E" = 4298.885   $ Sizing
 "ClCap_Sys_T_StorSm_N" = 2752.104   $ Sizing
 "ClCap_Sys_T_StorSm_S" = 4727.379   $ Sizing
 "ClCap_Sys_T_StorSm_W" = 5030.885   $ Sizing
 "HtCap_Sys_L_Break_C" = -24748.03   $ Sizing
 "HtCap_Sys_L_CompDC_C" = -8653.155   $ Sizing
 "HtCap_Sys_L_Conf_C" = -14777.97   $ Sizing
 "HtCap_Sys_L_CopyRm_C" = -5225.624   $ Sizing
 "HtCap_Sys_L_Hall_E" = -4663.659   $ Sizing
 "HtCap_Sys_L_Hall_N" = -2500.435   $ Sizing
 "HtCap_Sys_L_Hall_S" = -4686.878   $ Sizing
 "HtCap_Sys_L_Hall_W" = -4676.298   $ Sizing
 "HtCap_Sys_L_LobWait_E" = -11379.68   $ Sizing
 "HtCap_Sys_L_LobWait_N" = -7756.485   $ Sizing
 "HtCap_Sys_L_LobWait_S" = -11924.91   $ Sizing
 "HtCap_Sys_L_LobWait_W" = -12026.55   $ Sizing
 "HtCap_Sys_L_MechElec_C" = -3923.736   $ Sizing
 "HtCap_Sys_L_OfficeOpn_C" = -2996.704   $ Sizing
 "HtCap_Sys_L_OfficeOpn_E" = -18993.44   $ Sizing
 "HtCap_Sys_L_OfficeOpn_N" = -14272.56   $ Sizing
 "HtCap_Sys_L_OfficeOpn_S" = -19414.31   $ Sizing
 "HtCap_Sys_L_OfficeOpn_W" = -20271.89   $ Sizing
 "HtCap_Sys_L_OfficeSm_E" = -16505.86   $ Sizing
 "HtCap_Sys_L_OfficeSm_N" = -10752.8   $ Sizing
 "HtCap_Sys_L_OfficeSm_S" = -16489.48   $ Sizing
 "HtCap_Sys_L_OfficeSm_W" = -16969.3   $ Sizing
 "HtCap_Sys_L_Restrm_C" = -3404.831   $ Sizing
 "HtCap_Sys_L_StorSm_C" = -1707.613   $ Sizing
 "HtCap_Sys_L_StorSm_E" = -4699.854   $ Sizing
 "HtCap_Sys_L_StorSm_N" = -2879.17   $ Sizing
 "HtCap_Sys_L_StorSm_S" = -4793.075   $ Sizing
 "HtCap_Sys_L_StorSm_W" = -4622.167   $ Sizing
 "HtCap_Sys_T_Conf_C" = -14910.47   $ Sizing
 "HtCap_Sys_T_Hall_E" = -5330.636   $ Sizing
 "HtCap_Sys_T_Hall_N" = -3211.613   $ Sizing
 "HtCap_Sys_T_Hall_S" = -5705.595   $ Sizing
 "HtCap_Sys_T_Hall_W" = -5462.277   $ Sizing
 "HtCap_Sys_T_OfficeOpn_C" = -2996.103   $ Sizing
 "HtCap_Sys_T_OfficeOpn_E" = -20829.84   $ Sizing
 "HtCap_Sys_T_OfficeOpn_N" = -16417.53   $ Sizing
 "HtCap_Sys_T_OfficeOpn_S" = -22211.29   $ Sizing
 "HtCap_Sys_T_OfficeOpn_W" = -23178.2   $ Sizing
 "HtCap_Sys_T_OfficeSm_E" = -17781.1   $ Sizing
 "HtCap_Sys_T_OfficeSm_N" = -12698.99   $ Sizing
 "HtCap_Sys_T_OfficeSm_S" = -18914.9   $ Sizing
 "HtCap_Sys_T_OfficeSm_W" = -19279.64   $ Sizing
 "HtCap_Sys_T_Restrm_C" = -5355.404   $ Sizing
 "HtCap_Sys_T_StorSm_E" = -5730.896   $ Sizing
 "HtCap_Sys_T_StorSm_N" = -3869.704   $ Sizing
 "HtCap_Sys_T_StorSm_S" = -5891.874   $ Sizing
 "HtCap_Sys_T_StorSm_W" = -6025.443   $ Sizing
..

##include Templates\OfS_DX_SZ.inp
END ..
COMPUTE ..
STOP ..
