INPUT ..

##fileprefix C:\Users\jglasskatz\MASControl3\
##set1 IsSizing TRUE
##set1 CoolType WLHP
##set1 HeatType HEAT-PUMP
##set1 EU_HrRepVar 1
##set1 BldgVint New
##set1 BldgLoc CZ01

 ##set1 mHW_FlowCtrl Const   $ IP Tech: HwFlowCtrlCst
 ##set1 mBlrIsCond FALSE   $ IP Tech: WBlr-lt300-82p0AF
 ##set1 mWLHP_FlowCtrl VSD   $ IP Tech: WlhpFlowCtrlVar

PARAMETER
 "AltFactor" = 1.00753   $ IP Non-Tech
 "BldgEconoFlag" = 1   $ IP Non-Tech
 "BlrPrimLp" = WLHPCircLoop   $ IP Non-Tech
 "Break_EWSF" = 1   $ IP Non-Tech
 "Break_LWSF" = 0.65   $ IP Non-Tech
 "CDD_DBHi10" = 65   $ IP Non-Tech
 "CDD_DBHi7" = 68   $ IP Non-Tech
 "CDD_DBHi8" = 66   $ IP Non-Tech
 "CDD_DBHi9" = 77   $ IP Non-Tech
 "CDD_DBRange10" = 17   $ IP Non-Tech
 "CDD_DBRange7" = 11   $ IP Non-Tech
 "CDD_DBRange8" = 10   $ IP Non-Tech
 "CDD_DBRange9" = 29   $ IP Non-Tech
 "CDD_Day10" = 15   $ IP Non-Tech
 "CDD_Day7" = 16   $ IP Non-Tech
 "CDD_Day8" = 20   $ IP Non-Tech
 "CDD_Day9" = 17   $ IP Non-Tech
 "CDD_HrHi10" = 12   $ IP Non-Tech
 "CDD_HrHi7" = 12   $ IP Non-Tech
 "CDD_HrHi8" = 13   $ IP Non-Tech
 "CDD_HrHi9" = 17   $ IP Non-Tech
 "CDD_HrLo10" = 6   $ IP Non-Tech
 "CDD_HrLo7" = 3   $ IP Non-Tech
 "CDD_HrLo8" = 8   $ IP Non-Tech
 "CDD_HrLo9" = 4   $ IP Non-Tech
 "CDD_WB10" = 57.53039551   $ IP Non-Tech
 "CDD_WB7" = 59.29250717   $ IP Non-Tech
 "CDD_WB8" = 60.75350189   $ IP Non-Tech
 "CDD_WB9" = 61.08643341   $ IP Non-Tech
 "CZ_Category" = Tem   $ IP Non-Tech
 "ChwVintEconoFlag" = 1   $ IP Non-Tech
 "CompRoomData_EWSF" = 5   $ IP Non-Tech
 "CompRoomData_LWSF" = 0.8   $ IP Non-Tech
 "Conference_EWSF" = 1   $ IP Non-Tech
 "Conference_LWSF" = 0.85   $ IP Non-Tech
 "CoolSetT" = 45   $ IP Non-Tech
 "CoolType" = WLHP   $ IP Non-Tech
 "CopyRoom_EWSF" = 1.5   $ IP Non-Tech
 "CopyRoom_LWSF" = 0.5   $ IP Non-Tech
 "CwPipeHead" = 40   $ IP Non-Tech
 "DesCoolT" = 75   $ IP Non-Tech
 "DesHeatT" = 73   $ IP Non-Tech
 "EconoEnthLimit" = 28   $ IP Non-Tech
 "EconoTempLimit" = 70   $ IP Non-Tech
 "Elevation" = 203   $ IP Non-Tech
 "HDD_CloudAmt1" = 0   $ IP Non-Tech
 "HDD_DBHi1" = 53   $ IP Non-Tech
 "HDD_DBRange1" = 20   $ IP Non-Tech
 "HDD_Day1" = 15   $ IP Non-Tech
 "HDD_HrHi1" = 14   $ IP Non-Tech
 "HDD_HrLo1" = 6   $ IP Non-Tech
 "HDD_WB1" = 42.3   $ IP Non-Tech
 "HDD_WindSpd1" = 12.7   $ IP Non-Tech
 "Hall_EWSF" = 0.2   $ IP Non-Tech
 "Hall_LWSF" = 0.55   $ IP Non-Tech
 "HeatSrc" = HEAT-PUMP   $ IP Non-Tech
 "HeatSrcTU" = HEAT-PUMP   $ IP Non-Tech
 "HeatType" = WLHP   $ IP Non-Tech
 "HeatTypeTU" = HEAT-PUMP   $ IP Non-Tech
 "IndoorFanMode" = CONTINUOUS   $ IP Non-Tech
 "KT_TransferAir" = Yes   $ IP Non-Tech
 "Latitude" = 40.8   $ IP Non-Tech
 "LobbyWaiting_EWSF" = 0.5   $ IP Non-Tech
 "LobbyWaiting_LWSF" = 0.75   $ IP Non-Tech
 "Longitude" = 124.2   $ IP Non-Tech
 "LtgMsrApplic" = ALL   $ Msr TechID: NonResLtgRefMsr-LF
 "LtgSav_CFL" = 0   $ Msr TechID: NonResLtgRefMsr-LF
 "LtgSav_EX" = 0   $ Msr TechID: NonResLtgRefMsr-LF
 "LtgSav_HB" = 0   $ Msr TechID: NonResLtgRefMsr-LF
 "LtgSav_LF" = 0.3   $ Msr TechID: NonResLtgRefMsr-LF
 "LtgSav_SP" = 0   $ Msr TechID: NonResLtgRefMsr-LF
 "MZFanMechEff" = 0.54   $ IP Non-Tech
 "MZHasRetFan" = FALSE   $ IP Non-Tech
 "MZ_RFanWPerCfm" = 0.33   $ IP Non-Tech
 "MZ_SFanWPerCfm" = 0.75   $ IP Non-Tech
 "MZ_SupFanStatic" = 0.75   $ IP Non-Tech
 "MaxSupT_MZ" = 90   $ IP Non-Tech
 "MaxSupT_SZ" = 90   $ IP Non-Tech
 "MaxSupT_TU" = 90   $ IP Non-Tech
 "MechElecRoom_EWSF" = 0.2   $ IP Non-Tech
 "MechElecRoom_LWSF" = 0.4   $ IP Non-Tech
 "MinCfmPerSF" = 0.4   $ IP Non-Tech
 "MinSupT" = 55   $ IP Non-Tech
 "NumBlrs" = 1   $ IP Non-Tech
 "OccCoolT" = 76   $ IP Non-Tech
 "OccHeatT" = 72   $ IP Non-Tech
 "OfficeOpen_EWSF" = 1.5   $ IP Non-Tech
 "OfficeOpen_LWSF" = 0.8   $ IP Non-Tech
 "OfficeSmall_EWSF" = 1.5   $ IP Non-Tech
 "OfficeSmall_LWSF" = 0.9   $ IP Non-Tech
 "PkgDxVintEconoFlag" = 1   $ IP Non-Tech
 "Restroom_EWSF" = 0.2   $ IP Non-Tech
 "Restroom_LWSF" = 0.65   $ IP Non-Tech
 "SZFanMechEff" = 0.54   $ IP Non-Tech
 "SZHasRetFan" = FALSE   $ IP Non-Tech
 "SZ_Is_2Spd" = TRUE   $ IP Non-Tech
 "SZ_SFanWPerCfm" = 0.46   $ IP Non-Tech
 "SZ_SupFanStatic" = 0.75   $ IP Non-Tech
 "StorageSmlCond_EWSF" = 0.2   $ IP Non-Tech
 "StorageSmlCond_LWSF" = 0.45   $ IP Non-Tech
 "TermUnitFanMechEff" = 1   $ IP Non-Tech
 "TermUnitFanMode" = INTERMITTENT   $ IP Non-Tech
 "TermUnitFanWPerCfm" = 0.175   $ IP Non-Tech
 "TwrEIR" = 0.0286   $ IP Non-Tech
 "TwrPipeHead" = 15   $ IP Non-Tech
 "TwrSetpt" = 80   $ IP Non-Tech
 "TwrStaticHead" = 0   $ IP Non-Tech
 "UnocCoolT" = 86   $ IP Non-Tech
 "UnocHeatT" = 62   $ IP Non-Tech
 "WLHPLoopHeatSetpt" = 65   $ IP Non-Tech
 "WlhpVintEconoFlag" = 1   $ IP Non-Tech
 "EconoCtrl" = OA-TEMP   $ IP Tech: AirEcono-OAT-ByVint
 "MaxOAFrac" = 0.85   $ IP Tech: AirEcono-OAT-ByVint
 "UseEconoVintApplic" = TRUE   $ IP Tech: AirEcono-OAT-ByVint
 "DuctDT" = 1   $ IP Tech: ComDuctInsul-1
 "DuctAirLoss" = 0   $ IP Tech: ComDuctLeak-0
 "DuctLossOAFrac" = 0   $ IP Tech: ComDuctLeak-0
 "ComRoofInsCalc" = FromUo   $ IP Tech: ComRoofIns-WFrm-0.03
 "ComRoofInsR" = -999   $ IP Tech: ComRoofIns-WFrm-0.03
 "ComRoofUo" = 0.03   $ IP Tech: ComRoofIns-WFrm-0.03
 "ComEWInsCalc" = FromUo   $ IP Tech: ComWallIns-WFrm-0.08
 "ComEWInsR" = -999   $ IP Tech: ComWallIns-WFrm-0.08
 "ComEWUo" = 0.08   $ IP Tech: ComWallIns-WFrm-0.08
 "HW_FlowCtrl" = Const   $ IP Tech: HwFlowCtrlCst
 "HW_HdSensLoc" = AT-COILS   $ IP Tech: HwFlowCtrlCst
 "HW_HdSptCtrl" = FIXED   $ IP Tech: HwFlowCtrlCst
 "HWP_Encl" = Any   $ IP Tech: HwPumpMtrEff-PR
 "HWP_MotClass" = PREMIUM   $ IP Tech: HwPumpMtrEff-PR
 "HWP_MotHP" = Any   $ IP Tech: HwPumpMtrEff-PR
 "HWP_NEMA_DC" = Any   $ IP Tech: HwPumpMtrEff-PR
 "HWP_RPM" = Any   $ IP Tech: HwPumpMtrEff-PR
 "HWP_Volt" = Any   $ IP Tech: HwPumpMtrEff-PR
 "ComN_SHGC" = 0.25   $ IP Tech: NResWin-ComN-0.36-0.25
 "ComN_UFactor" = 0.36   $ IP Tech: NResWin-ComN-0.36-0.25
 "ComN_VisTrans" = 0.41   $ IP Tech: NResWin-ComN-0.36-0.25
 "ComN_WinCode" = G2668   $ IP Tech: NResWin-ComN-0.36-0.25
 "ComN_WinFrmFrac" = 0.17   $ IP Tech: NResWin-ComN-0.36-0.25
 "ComN_WinFrmU" = 0.3   $ IP Tech: NResWin-ComN-0.36-0.25
 "ComO_SHGC" = 0.25   $ IP Tech: NResWin-ComO-0.36-0.25
 "ComO_UFactor" = 0.36   $ IP Tech: NResWin-ComO-0.36-0.25
 "ComO_VisTrans" = 0.41   $ IP Tech: NResWin-ComO-0.36-0.25
 "ComO_WinCode" = G2668   $ IP Tech: NResWin-ComO-0.36-0.25
 "ComO_WinFrmFrac" = 0.17   $ IP Tech: NResWin-ComO-0.36-0.25
 "ComO_WinFrmU" = 0.3   $ IP Tech: NResWin-ComO-0.36-0.25
 "TwrFanCtrl" = TWO-SPEED-FAN   $ IP Tech: TwrFanCtrl-2sp
 "TFan_Encl" = Any   $ IP Tech: TwrFanMtrEff-PR
 "TFan_MotClass" = PREMIUM   $ IP Tech: TwrFanMtrEff-PR
 "TFan_MotHP" = Any   $ IP Tech: TwrFanMtrEff-PR
 "TFan_NEMA_DC" = Any   $ IP Tech: TwrFanMtrEff-PR
 "TFan_RPM" = Any   $ IP Tech: TwrFanMtrEff-PR
 "TFan_Volt" = Any   $ IP Tech: TwrFanMtrEff-PR
 "BlrCapRange" = lt300   $ IP Tech: WBlr-lt300-82p0AF
 "BlrDraftType" = FDr   $ IP Tech: WBlr-lt300-82p0AF
 "BlrEff" = 0.82   $ IP Tech: WBlr-lt300-82p0AF
 "BlrEffUnits" = AFUE   $ IP Tech: WBlr-lt300-82p0AF
 "BlrEt" = 0.823   $ IP Tech: WBlr-lt300-82p0AF
 "BlrFluid" = Wtr   $ IP Tech: WBlr-lt300-82p0AF
 "BlrIsCond" = FALSE   $ IP Tech: WBlr-lt300-82p0AF
 "BlrT" = 165   $ IP Tech: WBlr-lt300-82p0AF
 "COP47" = 4.813   $ IP Tech: WLHP2SpP-ge17-E12-C4.2
 "CfmPerBtuh" = 0.033333333   $ IP Tech: WLHP2SpP-ge17-E12-C4.2
 "CoilBF" = 0.15   $ IP Tech: WLHP2SpP-ge17-E12-C4.2
 "CoolingEIR" = 0.23327   $ IP Tech: WLHP2SpP-ge17-E12-C4.2
 "DXType" = WLHP   $ IP Tech: WLHP2SpP-ge17-E12-C4.2
 "EER" = 12   $ IP Tech: WLHP2SpP-ge17-E12-C4.2
 "FanWPerCfm" = 0.35   $ IP Tech: WLHP2SpP-ge17-E12-C4.2
 "HtCoolCapRatio" = 0.88   $ IP Tech: WLHP2SpP-ge17-E12-C4.2
 "HtgEIR" = 0.20776   $ IP Tech: WLHP2SpP-ge17-E12-C4.2
 "NumStages" = 2   $ IP Tech: WLHP2SpP-ge17-E12-C4.2
 "RatedSupMtrClass" = Premium   $ IP Tech: WLHP2SpP-ge17-E12-C4.2
 "SubType" = 2SpP   $ IP Tech: WLHP2SpP-ge17-E12-C4.2
 "UnitCOP" = 4.2   $ IP Tech: WLHP2SpP-ge17-E12-C4.2
 "WLHP_FlowCtrl" = VSD   $ IP Tech: WlhpFlowCtrlVar
 "WLHP_HdSensLoc" = AT-COILS   $ IP Tech: WlhpFlowCtrlVar
 "WLHP_HdSptCtrl" = FIXED   $ IP Tech: WlhpFlowCtrlVar
 "WLHP_Encl" = Any   $ IP Tech: WlhpPumpMtrEff-PR
 "WLHP_MotClass" = PREMIUM   $ IP Tech: WlhpPumpMtrEff-PR
 "WLHP_MotHP" = Any   $ IP Tech: WlhpPumpMtrEff-PR
 "WLHP_NEMA_DC" = Any   $ IP Tech: WlhpPumpMtrEff-PR
 "WLHP_RPM" = Any   $ IP Tech: WlhpPumpMtrEff-PR
 "WLHP_Volt" = Any   $ IP Tech: WlhpPumpMtrEff-PR
..

##include Templates\OfS_WLHP.inp
END ..
COMPUTE ..
STOP ..
