INPUT ..

##fileprefix C:\Users\jglasskatz\MASControl3\
##set1 IsSizing FALSE
##set1 CoolType DX
##set1 HeatType FURNACE
##set1 EU_HrRepVar 0
##set1 BldgVint 2020
##set1 BldgLoc CZ10

 ##set1 mBFMult 1   $ IP Tech: RefgChg-NRes-Std

PARAMETER
 "AltFactor" = 1.03143   $ IP Non-Tech
 "BF_fFlow" = SpltAC2SpHiSEER_BF_fFlow   $ Msr (Multi)TechID: MsrNResSplitAC-lt45-S17
 "BF_fT" = SpltAC2SpHiSEER_BF_fT   $ Msr (Multi)TechID: MsrNResSplitAC-lt45-S17
 "BldgEconoFlag" = 1   $ IP Non-Tech
 "Break_EWSF" = 1   $ IP Non-Tech
 "Break_LWSF" = 0.65   $ IP Non-Tech
 "CDD_DBHi10" = 92   $ IP Non-Tech
 "CDD_DBHi7" = 97   $ IP Non-Tech
 "CDD_DBHi8" = 99   $ IP Non-Tech
 "CDD_DBHi9" = 102   $ IP Non-Tech
 "CDD_DBRange10" = 19   $ IP Non-Tech
 "CDD_DBRange7" = 31   $ IP Non-Tech
 "CDD_DBRange8" = 31   $ IP Non-Tech
 "CDD_DBRange9" = 34   $ IP Non-Tech
 "CDD_Day10" = 15   $ IP Non-Tech
 "CDD_Day7" = 16   $ IP Non-Tech
 "CDD_Day8" = 20   $ IP Non-Tech
 "CDD_Day9" = 17   $ IP Non-Tech
 "CDD_HrHi10" = 15   $ IP Non-Tech
 "CDD_HrHi7" = 14   $ IP Non-Tech
 "CDD_HrHi8" = 14   $ IP Non-Tech
 "CDD_HrHi9" = 15   $ IP Non-Tech
 "CDD_HrLo10" = 3   $ IP Non-Tech
 "CDD_HrLo7" = 6   $ IP Non-Tech
 "CDD_HrLo8" = 5   $ IP Non-Tech
 "CDD_HrLo9" = 5   $ IP Non-Tech
 "CDD_WB10" = 62.63956451   $ IP Non-Tech
 "CDD_WB7" = 70.96998596   $ IP Non-Tech
 "CDD_WB8" = 71.98167419   $ IP Non-Tech
 "CDD_WB9" = 70.8795929   $ IP Non-Tech
 "CEIR_fPLR_Hot" = SpltAC2SpHiSEER_CEIR_fPLR_Hot   $ Msr (Multi)TechID: MsrNResSplitAC-lt45-S17
 "CEIR_fPLR_Mod" = SpltAC2SpHiSEER_CEIR_fPLR_Mod   $ Msr (Multi)TechID: MsrNResSplitAC-lt45-S17
 "CEIR_fPLR_Tem" = SpltAC2SpHiSEER_CEIR_fPLR_Tem   $ Msr (Multi)TechID: MsrNResSplitAC-lt45-S17
 "CLoss_fPLR_Hot" = SpltAC2SpHiSEER_CLoss_fPLR_Hot   $ Msr (Multi)TechID: MsrNResSplitAC-lt45-S17
 "CLoss_fPLR_Mod" = SpltAC2SpHiSEER_CLoss_fPLR_Mod   $ Msr (Multi)TechID: MsrNResSplitAC-lt45-S17
 "CLoss_fPLR_Tem" = SpltAC2SpHiSEER_CLoss_fPLR_Tem   $ Msr (Multi)TechID: MsrNResSplitAC-lt45-S17
 "COP47" = 0   $ Msr (Multi)TechID: MsrNResSplitAC-lt45-S17
 "CZ_Category" = Mod   $ IP Non-Tech
 "CapRange" = Any   $ Msr (Multi)TechID: MsrNResSplitAC-lt45-S17
 "CfmPerBtuh" = 0.03   $ Msr (Multi)TechID: MsrNResSplitAC-lt45-S17
 "ChwVintEconoFlag" = 1   $ IP Non-Tech
 "ClCap_fT" = SpltAC2SpHiSEER_ClCap_fT   $ Msr (Multi)TechID: MsrNResSplitAC-lt45-S17
 "ClSH_fT" = SpltAC2SpHiSEER_ClSH_fT   $ Msr (Multi)TechID: MsrNResSplitAC-lt45-S17
 "CoilBF" = 0.102   $ Msr (Multi)TechID: MsrNResSplitAC-lt45-S17
 "CompRoomData_EWSF" = 5   $ IP Non-Tech
 "CompRoomData_LWSF" = 0.8   $ IP Non-Tech
 "CondWPerBtuh" = 0   $ Msr (Multi)TechID: MsrNResSplitAC-lt45-S17
 "Conference_EWSF" = 1   $ IP Non-Tech
 "Conference_LWSF" = 0.85   $ IP Non-Tech
 "CoolSensCap" = 0.724   $ Msr (Multi)TechID: MsrNResSplitAC-lt45-S17
 "CoolSetT" = 45   $ IP Non-Tech
 "CoolType" = DX   $ IP Non-Tech
 "CoolingEIR" = 0.2225   $ Msr (Multi)TechID: MsrNResSplitAC-lt45-S17
 "CopyRoom_EWSF" = 1.5   $ IP Non-Tech
 "CopyRoom_LWSF" = 0.5   $ IP Non-Tech
 "CrnkEIR" = 0.002225   $ Msr (Multi)TechID: MsrNResSplitAC-lt45-S17
 "CrnkMaxT" = 50   $ Msr (Multi)TechID: MsrNResSplitAC-lt45-S17
 "DXType" = SplitSEER   $ Msr (Multi)TechID: MsrNResSplitAC-lt45-S17
 "DesCoolT" = 75   $ IP Non-Tech
 "DesHeatT" = 73   $ IP Non-Tech
 "EER" = 13.26   $ Msr (Multi)TechID: MsrNResSplitAC-lt45-S17
 "EIR_fT" = SpltAC2SpHiSEER_EIR_fT   $ Msr (Multi)TechID: MsrNResSplitAC-lt45-S17
 "EconoCtrl" = FIXED   $ Msr (Multi)TechID: MsrNResSplitAC-lt45-S17
 "EconoEnthLimit" = 28   $ IP Non-Tech
 "EconoTempLimit" = 73   $ IP Non-Tech
 "Elevation" = 840   $ IP Non-Tech
 "FanEirPlr" = TwoSpeedFan   $ Msr (Multi)TechID: MsrNResSplitAC-lt45-S17
 "FanWPerCfm" = 0.271   $ Msr (Multi)TechID: MsrNResSplitAC-lt45-S17
 "HDD_CloudAmt1" = 0   $ IP Non-Tech
 "HDD_DBHi1" = 53   $ IP Non-Tech
 "HDD_DBRange1" = 17   $ IP Non-Tech
 "HDD_Day1" = 15   $ IP Non-Tech
 "HDD_HrHi1" = 14   $ IP Non-Tech
 "HDD_HrLo1" = 5   $ IP Non-Tech
 "HDD_WB1" = 48.5   $ IP Non-Tech
 "HDD_WindSpd1" = 13.8   $ IP Non-Tech
 "HIR_fT" = 0   $ Msr (Multi)TechID: MsrNResSplitAC-lt45-S17
 "HSPF" = 0   $ Msr (Multi)TechID: MsrNResSplitAC-lt45-S17
 "Hall_EWSF" = 0.2   $ IP Non-Tech
 "Hall_LWSF" = 0.55   $ IP Non-Tech
 "HeatSrc" = FURNACE   $ IP Non-Tech
 "HeatSrcTU" = HEAT-PUMP   $ IP Non-Tech
 "HeatType" = GasFurn   $ IP Non-Tech
 "HeatTypeTU" = HEAT-PUMP   $ IP Non-Tech
 "HtCap_fT" = 0   $ Msr (Multi)TechID: MsrNResSplitAC-lt45-S17
 "HtCoolCapRatio" = 0   $ Msr (Multi)TechID: MsrNResSplitAC-lt45-S17
 "HtgEIR" = 0   $ Msr (Multi)TechID: MsrNResSplitAC-lt45-S17
 "IndoorFanMode" = CONTINUOUS   $ IP Non-Tech
 "KT_TransferAir" = Yes   $ IP Non-Tech
 "Latitude" = 34   $ IP Non-Tech
 "LobbyWaiting_EWSF" = 0.5   $ IP Non-Tech
 "LobbyWaiting_LWSF" = 0.75   $ IP Non-Tech
 "Longitude" = 117.4   $ IP Non-Tech
 "LowSpdCapRatio" = 0.686   $ Msr (Multi)TechID: MsrNResSplitAC-lt45-S17
 "LowSpdCfmRatio" = 0.739   $ Msr (Multi)TechID: MsrNResSplitAC-lt45-S17
 "MZFanMechEff" = 0.58   $ IP Non-Tech
 "MZHasRetFan" = FALSE   $ IP Non-Tech
 "MZ_RFanWPerCfm" = 0.33   $ IP Non-Tech
 "MZ_SFanWPerCfm" = 0.75   $ IP Non-Tech
 "MZ_SupFanStatic" = 2.25   $ IP Non-Tech
 "MaxOAFrac" = 1   $ Msr (Multi)TechID: MsrNResSplitAC-lt45-S17
 "MaxSupT_MZ" = 100   $ IP Non-Tech
 "MaxSupT_SZ" = 100   $ IP Non-Tech
 "MaxSupT_TU" = 90   $ IP Non-Tech
 "MechElecRoom_EWSF" = 0.2   $ IP Non-Tech
 "MechElecRoom_LWSF" = 0.4   $ IP Non-Tech
 "MinCfmPerSF" = 0.4   $ IP Non-Tech
 "MinSupT" = 55   $ IP Non-Tech
 "NumStages" = 2   $ Msr (Multi)TechID: MsrNResSplitAC-lt45-S17
 "OccCoolT" = 76   $ IP Non-Tech
 "OccHeatT" = 72   $ IP Non-Tech
 "OfficeOpen_EWSF" = 1.5   $ IP Non-Tech
 "OfficeOpen_LWSF" = 0.8   $ IP Non-Tech
 "OfficeSmall_EWSF" = 1.5   $ IP Non-Tech
 "OfficeSmall_LWSF" = 0.9   $ IP Non-Tech
 "PkgDxVintEconoFlag" = 1   $ IP Non-Tech
 "Restroom_EWSF" = 0.2   $ IP Non-Tech
 "Restroom_LWSF" = 0.65   $ IP Non-Tech
 "SEER" = 17   $ Msr (Multi)TechID: MsrNResSplitAC-lt45-S17
 "SZFanMechEff" = 0.58   $ IP Non-Tech
 "SZHasRetFan" = FALSE   $ IP Non-Tech
 "SZ_Is_2Spd" = TRUE   $ IP Non-Tech
 "SZ_SFanWPerCfm" = 0.46   $ IP Non-Tech
 "SZ_SupFanStatic" = 0.75   $ IP Non-Tech
 "Sector" = Any   $ Msr (Multi)TechID: MsrNResSplitAC-lt45-S17
 "StorageSmlCond_EWSF" = 0.2   $ IP Non-Tech
 "StorageSmlCond_LWSF" = 0.45   $ IP Non-Tech
 "SubType" = AC   $ Msr (Multi)TechID: MsrNResSplitAC-lt45-S17
 "TermUnitFanMechEff" = 1   $ IP Non-Tech
 "TermUnitFanMode" = INTERMITTENT   $ IP Non-Tech
 "TotCoolCap" = 58805   $ Msr (Multi)TechID: MsrNResSplitAC-lt45-S17
 "TwrSetpt" = 82.2   $ IP Non-Tech
 "UnocCoolT" = 86   $ IP Non-Tech
 "UnocHeatT" = 62   $ IP Non-Tech
 "UseEconoVintApplic" = FALSE   $ Msr (Multi)TechID: MsrNResSplitAC-lt45-S17
 "WlhpVintEconoFlag" = 1   $ IP Non-Tech
 "DuctDT" = 1   $ IP Tech: ComDuctInsul-1
 "DuctAirLoss" = 0   $ IP Tech: ComDuctLeak-0
 "DuctLossOAFrac" = 0   $ IP Tech: ComDuctLeak-0
 "ComRoofInsCalc" = FromUo   $ IP Tech: ComRoofIns-WFrm-0.03
 "ComRoofInsR" = -999   $ IP Tech: ComRoofIns-WFrm-0.03
 "ComRoofUo" = 0.03   $ IP Tech: ComRoofIns-WFrm-0.03
 "ComEWInsCalc" = FromUo   $ IP Tech: ComWallIns-WFrm-0.06
 "ComEWInsR" = -999   $ IP Tech: ComWallIns-WFrm-0.06
 "ComEWUo" = 0.06   $ IP Tech: ComWallIns-WFrm-0.06
 "ComN_SHGC" = 0.25   $ IP Tech: NResWin-ComN-0.36-0.25
 "ComN_UFactor" = 0.36   $ IP Tech: NResWin-ComN-0.36-0.25
 "ComN_VisTrans" = 0.41   $ IP Tech: NResWin-ComN-0.36-0.25
 "ComN_WinCode" = G2668   $ IP Tech: NResWin-ComN-0.36-0.25
 "ComN_WinFrmFrac" = 0.17   $ IP Tech: NResWin-ComN-0.36-0.25
 "ComN_WinFrmU" = 0.3   $ IP Tech: NResWin-ComN-0.36-0.25
 "ComO_SHGC" = 0.25   $ IP Tech: NResWin-ComO-0.36-0.25
 "ComO_UFactor" = 0.36   $ IP Tech: NResWin-ComO-0.36-0.25
 "ComO_VisTrans" = 0.41   $ IP Tech: NResWin-ComO-0.36-0.25
 "ComO_WinCode" = G2668   $ IP Tech: NResWin-ComO-0.36-0.25
 "ComO_WinFrmFrac" = 0.17   $ IP Tech: NResWin-ComO-0.36-0.25
 "ComO_WinFrmU" = 0.3   $ IP Tech: NResWin-ComO-0.36-0.25
 "LtgMsrApplic" = ALL   $ IP Tech: NonResLtgRefPre
 "LtgSav_CFL" = 0   $ IP Tech: NonResLtgRefPre
 "LtgSav_EX" = 0   $ IP Tech: NonResLtgRefPre
 "LtgSav_HB" = 0   $ IP Tech: NonResLtgRefPre
 "LtgSav_LF" = 0   $ IP Tech: NonResLtgRefPre
 "LtgSav_SP" = 0   $ IP Tech: NonResLtgRefPre
 "CEIR_fPLR" = PSZ65to135_CEIR_fPLR   $ IP Tech: PkgAC2SpP-65to135-E11
 "CLoss_fPLR" = PSZ65to135_CLoss_fPLR   $ IP Tech: PkgAC2SpP-65to135-E11
 "COP" = -1   $ IP Tech: PkgAC2SpP-65to135-E11
 "HtgFuel" = Gas   $ IP Tech: PkgAC2SpP-65to135-E11
 "IEER" = 13.35   $ IP Tech: PkgAC2SpP-65to135-E11
 "NominalCap" = 15   $ IP Tech: PkgAC2SpP-65to135-E11
 "RatedEER" = 11   $ IP Tech: PkgAC2SpP-65to135-E11
 "RatedSupMtrClass" = Premium   $ IP Tech: PkgAC2SpP-65to135-E11
 "SizeRange" = 65to135   $ IP Tech: PkgAC2SpP-65to135-E11
 "SupMotEff" = 0.865   $ IP Tech: PkgAC2SpP-65to135-E11
 "Tier" = 0   $ IP Tech: PkgAC2SpP-65to135-E11
 "FanPwrMult" = 1   $ IP Tech: PkgFurn-0.80AFUE
 "FurnAFUE" = 0.8   $ IP Tech: PkgFurn-0.80AFUE
 "FurnEt" = 0.82   $ IP Tech: PkgFurn-0.80AFUE
 "FurnaceAuxKW" = 0.1   $ IP Tech: PkgFurn-0.80AFUE
 "HIR_fPLR" = Furnace-HIR-fPLR   $ IP Tech: PkgFurn-0.80AFUE
 "VSM" = FALSE   $ IP Tech: PkgFurn-0.80AFUE
 "BFMult" = 1   $ IP Tech: RefgChg-NRes-Std
 "CoolEirMult" = 1   $ IP Tech: RefgChg-NRes-Std
 "SensCoolCapMult" = 1   $ IP Tech: RefgChg-NRes-Std
 "TotCoolCapMult" = 1   $ IP Tech: RefgChg-NRes-Std
 "AltAdjFactor" = 1.031429   $ Sizing
 "CAssFlo_L_Break_CZn" = 463.3434   $ Sizing
 "CAssFlo_L_CompDC_CZn" = 149.6306   $ Sizing
 "CAssFlo_L_Conf_CZn" = 267.1472   $ Sizing
 "CAssFlo_L_CopyRm_CZn" = 90.52048   $ Sizing
 "CAssFlo_L_Hall_EZn" = 97.1226   $ Sizing
 "CAssFlo_L_Hall_NZn" = 55.97121   $ Sizing
 "CAssFlo_L_Hall_SZn" = 102.1875   $ Sizing
 "CAssFlo_L_Hall_WZn" = 114.4656   $ Sizing
 "CAssFlo_L_LobWait_EZn" = 225.3206   $ Sizing
 "CAssFlo_L_LobWait_NZn" = 152.3865   $ Sizing
 "CAssFlo_L_LobWait_SZn" = 249.6438   $ Sizing
 "CAssFlo_L_LobWait_WZn" = 288.5598   $ Sizing
 "CAssFlo_L_MechElec_CZn" = 70.78558   $ Sizing
 "CAssFlo_L_OfficeOpn_CZn" = 64.27589   $ Sizing
 "CAssFlo_L_OfficeOpn_EZn" = 430.7419   $ Sizing
 "CAssFlo_L_OfficeOpn_NZn" = 328.4452   $ Sizing
 "CAssFlo_L_OfficeOpn_SZn" = 453.7923   $ Sizing
 "CAssFlo_L_OfficeOpn_WZn" = 506.8995   $ Sizing
 "CAssFlo_L_OfficeSm_EZn" = 358.328   $ Sizing
 "CAssFlo_L_OfficeSm_NZn" = 252.8788   $ Sizing
 "CAssFlo_L_OfficeSm_SZn" = 379.7742   $ Sizing
 "CAssFlo_L_OfficeSm_WZn" = 430.3931   $ Sizing
 "CAssFlo_L_Restrm_CZn" = 82.48916   $ Sizing
 "CAssFlo_L_StorSm_CZn" = 35.12258   $ Sizing
 "CAssFlo_L_StorSm_EZn" = 95.77896   $ Sizing
 "CAssFlo_L_StorSm_NZn" = 53.81031   $ Sizing
 "CAssFlo_L_StorSm_SZn" = 101.7382   $ Sizing
 "CAssFlo_L_StorSm_WZn" = 109.7893   $ Sizing
 "CAssFlo_T_Conf_CZn" = 258.8952   $ Sizing
 "CAssFlo_T_Hall_EZn" = 106.6479   $ Sizing
 "CAssFlo_T_Hall_NZn" = 61.59154   $ Sizing
 "CAssFlo_T_Hall_SZn" = 113.7514   $ Sizing
 "CAssFlo_T_Hall_WZn" = 121.3532   $ Sizing
 "CAssFlo_T_OfficeOpn_CZn" = 59.28043   $ Sizing
 "CAssFlo_T_OfficeOpn_EZn" = 442.8592   $ Sizing
 "CAssFlo_T_OfficeOpn_NZn" = 332.1976   $ Sizing
 "CAssFlo_T_OfficeOpn_SZn" = 478.8857   $ Sizing
 "CAssFlo_T_OfficeOpn_WZn" = 515.3007   $ Sizing
 "CAssFlo_T_OfficeSm_EZn" = 371.5272   $ Sizing
 "CAssFlo_T_OfficeSm_NZn" = 259.5205   $ Sizing
 "CAssFlo_T_OfficeSm_SZn" = 405.1653   $ Sizing
 "CAssFlo_T_OfficeSm_WZn" = 440.0956   $ Sizing
 "CAssFlo_T_Restrm_CZn" = 124.8397   $ Sizing
 "CAssFlo_T_StorSm_EZn" = 110.0061   $ Sizing
 "CAssFlo_T_StorSm_NZn" = 63.75705   $ Sizing
 "CAssFlo_T_StorSm_SZn" = 119.2578   $ Sizing
 "CAssFlo_T_StorSm_WZn" = 125.3924   $ Sizing
 "CHRtFlo_Sys_L_Break_C" = 463.3434   $ Sizing
 "CHRtFlo_Sys_L_CompDC_C" = 177.563   $ Sizing
 "CHRtFlo_Sys_L_Conf_C" = 267.1472   $ Sizing
 "CHRtFlo_Sys_L_CopyRm_C" = 90.52048   $ Sizing
 "CHRtFlo_Sys_L_Hall_E" = 115.8714   $ Sizing
 "CHRtFlo_Sys_L_Hall_N" = 55.97121   $ Sizing
 "CHRtFlo_Sys_L_Hall_S" = 121.9752   $ Sizing
 "CHRtFlo_Sys_L_Hall_W" = 117.4872   $ Sizing
 "CHRtFlo_Sys_L_LobWait_E" = 264.9629   $ Sizing
 "CHRtFlo_Sys_L_LobWait_N" = 152.3865   $ Sizing
 "CHRtFlo_Sys_L_LobWait_S" = 273.9553   $ Sizing
 "CHRtFlo_Sys_L_LobWait_W" = 288.5598   $ Sizing
 "CHRtFlo_Sys_L_MechElec_C" = 94.69945   $ Sizing
 "CHRtFlo_Sys_L_OfficeOpn_C" = 80.97491   $ Sizing
 "CHRtFlo_Sys_L_OfficeOpn_E" = 507.6924   $ Sizing
 "CHRtFlo_Sys_L_OfficeOpn_N" = 328.4452   $ Sizing
 "CHRtFlo_Sys_L_OfficeOpn_S" = 495.5736   $ Sizing
 "CHRtFlo_Sys_L_OfficeOpn_W" = 508.851   $ Sizing
 "CHRtFlo_Sys_L_OfficeSm_E" = 428.4955   $ Sizing
 "CHRtFlo_Sys_L_OfficeSm_N" = 252.8788   $ Sizing
 "CHRtFlo_Sys_L_OfficeSm_S" = 429.5588   $ Sizing
 "CHRtFlo_Sys_L_OfficeSm_W" = 440.3857   $ Sizing
 "CHRtFlo_Sys_L_Restrm_C" = 98.99363   $ Sizing
 "CHRtFlo_Sys_L_StorSm_C" = 42.81357   $ Sizing
 "CHRtFlo_Sys_L_StorSm_E" = 113.5667   $ Sizing
 "CHRtFlo_Sys_L_StorSm_N" = 53.8103   $ Sizing
 "CHRtFlo_Sys_L_StorSm_S" = 117.5808   $ Sizing
 "CHRtFlo_Sys_L_StorSm_W" = 109.7893   $ Sizing
 "CHRtFlo_Sys_T_Conf_C" = 258.8952   $ Sizing
 "CHRtFlo_Sys_T_Hall_E" = 121.5139   $ Sizing
 "CHRtFlo_Sys_T_Hall_N" = 61.59154   $ Sizing
 "CHRtFlo_Sys_T_Hall_S" = 126.7012   $ Sizing
 "CHRtFlo_Sys_T_Hall_W" = 121.3532   $ Sizing
 "CHRtFlo_Sys_T_OfficeOpn_C" = 70.28403   $ Sizing
 "CHRtFlo_Sys_T_OfficeOpn_E" = 485.8642   $ Sizing
 "CHRtFlo_Sys_T_OfficeOpn_N" = 332.1976   $ Sizing
 "CHRtFlo_Sys_T_OfficeOpn_S" = 495.5726   $ Sizing
 "CHRtFlo_Sys_T_OfficeOpn_W" = 515.3007   $ Sizing
 "CHRtFlo_Sys_T_OfficeSm_E" = 415.9923   $ Sizing
 "CHRtFlo_Sys_T_OfficeSm_N" = 259.5205   $ Sizing
 "CHRtFlo_Sys_T_OfficeSm_S" = 433.9124   $ Sizing
 "CHRtFlo_Sys_T_OfficeSm_W" = 440.0957   $ Sizing
 "CHRtFlo_Sys_T_Restrm_C" = 144.4705   $ Sizing
 "CHRtFlo_Sys_T_StorSm_E" = 122.4994   $ Sizing
 "CHRtFlo_Sys_T_StorSm_N" = 63.75705   $ Sizing
 "CHRtFlo_Sys_T_StorSm_S" = 125.9618   $ Sizing
 "CHRtFlo_Sys_T_StorSm_W" = 125.3924   $ Sizing
 "CRtdFlo_Sys_L_Break_C" = 463.3434   $ Sizing
 "CRtdFlo_Sys_L_CompDC_C" = 149.6306   $ Sizing
 "CRtdFlo_Sys_L_Conf_C" = 267.1472   $ Sizing
 "CRtdFlo_Sys_L_CopyRm_C" = 90.52048   $ Sizing
 "CRtdFlo_Sys_L_Hall_E" = 97.1226   $ Sizing
 "CRtdFlo_Sys_L_Hall_N" = 55.97121   $ Sizing
 "CRtdFlo_Sys_L_Hall_S" = 102.1875   $ Sizing
 "CRtdFlo_Sys_L_Hall_W" = 114.4656   $ Sizing
 "CRtdFlo_Sys_L_LobWait_E" = 225.3206   $ Sizing
 "CRtdFlo_Sys_L_LobWait_N" = 152.3865   $ Sizing
 "CRtdFlo_Sys_L_LobWait_S" = 249.6438   $ Sizing
 "CRtdFlo_Sys_L_LobWait_W" = 288.5598   $ Sizing
 "CRtdFlo_Sys_L_MechElec_C" = 70.78558   $ Sizing
 "CRtdFlo_Sys_L_OfficeOpn_C" = 64.27589   $ Sizing
 "CRtdFlo_Sys_L_OfficeOpn_E" = 430.7419   $ Sizing
 "CRtdFlo_Sys_L_OfficeOpn_N" = 328.4452   $ Sizing
 "CRtdFlo_Sys_L_OfficeOpn_S" = 453.7923   $ Sizing
 "CRtdFlo_Sys_L_OfficeOpn_W" = 506.8995   $ Sizing
 "CRtdFlo_Sys_L_OfficeSm_E" = 358.328   $ Sizing
 "CRtdFlo_Sys_L_OfficeSm_N" = 252.8788   $ Sizing
 "CRtdFlo_Sys_L_OfficeSm_S" = 379.7742   $ Sizing
 "CRtdFlo_Sys_L_OfficeSm_W" = 430.3931   $ Sizing
 "CRtdFlo_Sys_L_Restrm_C" = 82.48916   $ Sizing
 "CRtdFlo_Sys_L_StorSm_C" = 35.12258   $ Sizing
 "CRtdFlo_Sys_L_StorSm_E" = 95.77895   $ Sizing
 "CRtdFlo_Sys_L_StorSm_N" = 53.8103   $ Sizing
 "CRtdFlo_Sys_L_StorSm_S" = 101.7382   $ Sizing
 "CRtdFlo_Sys_L_StorSm_W" = 109.7893   $ Sizing
 "CRtdFlo_Sys_T_Conf_C" = 258.8952   $ Sizing
 "CRtdFlo_Sys_T_Hall_E" = 106.6479   $ Sizing
 "CRtdFlo_Sys_T_Hall_N" = 61.59154   $ Sizing
 "CRtdFlo_Sys_T_Hall_S" = 113.7514   $ Sizing
 "CRtdFlo_Sys_T_Hall_W" = 121.3532   $ Sizing
 "CRtdFlo_Sys_T_OfficeOpn_C" = 59.28043   $ Sizing
 "CRtdFlo_Sys_T_OfficeOpn_E" = 442.8592   $ Sizing
 "CRtdFlo_Sys_T_OfficeOpn_N" = 332.1976   $ Sizing
 "CRtdFlo_Sys_T_OfficeOpn_S" = 478.8858   $ Sizing
 "CRtdFlo_Sys_T_OfficeOpn_W" = 515.3007   $ Sizing
 "CRtdFlo_Sys_T_OfficeSm_E" = 371.5272   $ Sizing
 "CRtdFlo_Sys_T_OfficeSm_N" = 259.5205   $ Sizing
 "CRtdFlo_Sys_T_OfficeSm_S" = 405.1653   $ Sizing
 "CRtdFlo_Sys_T_OfficeSm_W" = 440.0957   $ Sizing
 "CRtdFlo_Sys_T_Restrm_C" = 124.8397   $ Sizing
 "CRtdFlo_Sys_T_StorSm_E" = 110.0061   $ Sizing
 "CRtdFlo_Sys_T_StorSm_N" = 63.75705   $ Sizing
 "CRtdFlo_Sys_T_StorSm_S" = 119.2578   $ Sizing
 "CRtdFlo_Sys_T_StorSm_W" = 125.3924   $ Sizing
 "CSupFlo_Sys_L_Break_C" = 463.3434   $ Sizing
 "CSupFlo_Sys_L_CompDC_C" = 149.6306   $ Sizing
 "CSupFlo_Sys_L_Conf_C" = 267.1472   $ Sizing
 "CSupFlo_Sys_L_CopyRm_C" = 90.52048   $ Sizing
 "CSupFlo_Sys_L_Hall_E" = 97.1226   $ Sizing
 "CSupFlo_Sys_L_Hall_N" = 55.97121   $ Sizing
 "CSupFlo_Sys_L_Hall_S" = 102.1875   $ Sizing
 "CSupFlo_Sys_L_Hall_W" = 114.4656   $ Sizing
 "CSupFlo_Sys_L_LobWait_E" = 225.3206   $ Sizing
 "CSupFlo_Sys_L_LobWait_N" = 152.3865   $ Sizing
 "CSupFlo_Sys_L_LobWait_S" = 249.6438   $ Sizing
 "CSupFlo_Sys_L_LobWait_W" = 288.5598   $ Sizing
 "CSupFlo_Sys_L_MechElec_C" = 70.78558   $ Sizing
 "CSupFlo_Sys_L_OfficeOpn_C" = 64.27589   $ Sizing
 "CSupFlo_Sys_L_OfficeOpn_E" = 430.7419   $ Sizing
 "CSupFlo_Sys_L_OfficeOpn_N" = 328.4452   $ Sizing
 "CSupFlo_Sys_L_OfficeOpn_S" = 453.7923   $ Sizing
 "CSupFlo_Sys_L_OfficeOpn_W" = 506.8995   $ Sizing
 "CSupFlo_Sys_L_OfficeSm_E" = 358.328   $ Sizing
 "CSupFlo_Sys_L_OfficeSm_N" = 252.8788   $ Sizing
 "CSupFlo_Sys_L_OfficeSm_S" = 379.7742   $ Sizing
 "CSupFlo_Sys_L_OfficeSm_W" = 430.3931   $ Sizing
 "CSupFlo_Sys_L_Restrm_C" = 82.48916   $ Sizing
 "CSupFlo_Sys_L_StorSm_C" = 35.12258   $ Sizing
 "CSupFlo_Sys_L_StorSm_E" = 95.77895   $ Sizing
 "CSupFlo_Sys_L_StorSm_N" = 53.8103   $ Sizing
 "CSupFlo_Sys_L_StorSm_S" = 101.7382   $ Sizing
 "CSupFlo_Sys_L_StorSm_W" = 109.7893   $ Sizing
 "CSupFlo_Sys_T_Conf_C" = 258.8952   $ Sizing
 "CSupFlo_Sys_T_Hall_E" = 106.6479   $ Sizing
 "CSupFlo_Sys_T_Hall_N" = 61.59154   $ Sizing
 "CSupFlo_Sys_T_Hall_S" = 113.7514   $ Sizing
 "CSupFlo_Sys_T_Hall_W" = 121.3532   $ Sizing
 "CSupFlo_Sys_T_OfficeOpn_C" = 59.28043   $ Sizing
 "CSupFlo_Sys_T_OfficeOpn_E" = 442.8592   $ Sizing
 "CSupFlo_Sys_T_OfficeOpn_N" = 332.1976   $ Sizing
 "CSupFlo_Sys_T_OfficeOpn_S" = 478.8858   $ Sizing
 "CSupFlo_Sys_T_OfficeOpn_W" = 515.3007   $ Sizing
 "CSupFlo_Sys_T_OfficeSm_E" = 371.5272   $ Sizing
 "CSupFlo_Sys_T_OfficeSm_N" = 259.5205   $ Sizing
 "CSupFlo_Sys_T_OfficeSm_S" = 405.1653   $ Sizing
 "CSupFlo_Sys_T_OfficeSm_W" = 440.0957   $ Sizing
 "CSupFlo_Sys_T_Restrm_C" = 124.8397   $ Sizing
 "CSupFlo_Sys_T_StorSm_E" = 110.0061   $ Sizing
 "CSupFlo_Sys_T_StorSm_N" = 63.75705   $ Sizing
 "CSupFlo_Sys_T_StorSm_S" = 119.2578   $ Sizing
 "CSupFlo_Sys_T_StorSm_W" = 125.3924   $ Sizing
 "ClCap_Sys_L_Break_C" = 15401.99   $ Sizing
 "ClCap_Sys_L_CompDC_C" = 4973.865   $ Sizing
 "ClCap_Sys_L_Conf_C" = 11302.11   $ Sizing
 "ClCap_Sys_L_CopyRm_C" = 3008.989   $ Sizing
 "ClCap_Sys_L_Hall_E" = 3228.45   $ Sizing
 "ClCap_Sys_L_Hall_N" = 1860.538   $ Sizing
 "ClCap_Sys_L_Hall_S" = 3396.813   $ Sizing
 "ClCap_Sys_L_Hall_W" = 3804.948   $ Sizing
 "ClCap_Sys_L_LobWait_E" = 7489.876   $ Sizing
 "ClCap_Sys_L_LobWait_N" = 5065.476   $ Sizing
 "ClCap_Sys_L_LobWait_S" = 8298.401   $ Sizing
 "ClCap_Sys_L_LobWait_W" = 9592.011   $ Sizing
 "ClCap_Sys_L_MechElec_C" = 2352.982   $ Sizing
 "ClCap_Sys_L_OfficeOpn_C" = 2136.593   $ Sizing
 "ClCap_Sys_L_OfficeOpn_E" = 14318.28   $ Sizing
 "ClCap_Sys_L_OfficeOpn_N" = 10917.84   $ Sizing
 "ClCap_Sys_L_OfficeOpn_S" = 15084.5   $ Sizing
 "ClCap_Sys_L_OfficeOpn_W" = 16849.83   $ Sizing
 "ClCap_Sys_L_OfficeSm_E" = 11911.17   $ Sizing
 "ClCap_Sys_L_OfficeSm_N" = 8405.938   $ Sizing
 "ClCap_Sys_L_OfficeSm_S" = 12624.06   $ Sizing
 "ClCap_Sys_L_OfficeSm_W" = 14306.68   $ Sizing
 "ClCap_Sys_L_Restrm_C" = 2742.02   $ Sizing
 "ClCap_Sys_L_StorSm_C" = 1167.509   $ Sizing
 "ClCap_Sys_L_StorSm_E" = 3183.786   $ Sizing
 "ClCap_Sys_L_StorSm_N" = 1788.707   $ Sizing
 "ClCap_Sys_L_StorSm_S" = 3381.876   $ Sizing
 "ClCap_Sys_L_StorSm_W" = 3649.502   $ Sizing
 "ClCap_Sys_T_Conf_C" = 10953   $ Sizing
 "ClCap_Sys_T_Hall_E" = 3545.079   $ Sizing
 "ClCap_Sys_T_Hall_N" = 2047.363   $ Sizing
 "ClCap_Sys_T_Hall_S" = 3781.207   $ Sizing
 "ClCap_Sys_T_Hall_W" = 4033.899   $ Sizing
 "ClCap_Sys_T_OfficeOpn_C" = 1970.539   $ Sizing
 "ClCap_Sys_T_OfficeOpn_E" = 14721.07   $ Sizing
 "ClCap_Sys_T_OfficeOpn_N" = 11042.57   $ Sizing
 "ClCap_Sys_T_OfficeOpn_S" = 15918.63   $ Sizing
 "ClCap_Sys_T_OfficeOpn_W" = 17129.1   $ Sizing
 "ClCap_Sys_T_OfficeSm_E" = 12349.92   $ Sizing
 "ClCap_Sys_T_OfficeSm_N" = 8626.713   $ Sizing
 "ClCap_Sys_T_OfficeSm_S" = 13468.09   $ Sizing
 "ClCap_Sys_T_OfficeSm_W" = 14629.21   $ Sizing
 "ClCap_Sys_T_Restrm_C" = 4149.793   $ Sizing
 "ClCap_Sys_T_StorSm_E" = 3656.71   $ Sizing
 "ClCap_Sys_T_StorSm_N" = 2119.346   $ Sizing
 "ClCap_Sys_T_StorSm_S" = 3964.245   $ Sizing
 "ClCap_Sys_T_StorSm_W" = 4168.167   $ Sizing
 "HtCap_Sys_L_Break_C" = -24579.69   $ Sizing
 "HtCap_Sys_L_CompDC_C" = -8420.271   $ Sizing
 "HtCap_Sys_L_Conf_C" = -14671.94   $ Sizing
 "HtCap_Sys_L_CopyRm_C" = -4904.861   $ Sizing
 "HtCap_Sys_L_Hall_E" = -3891.61   $ Sizing
 "HtCap_Sys_L_Hall_N" = -2175.567   $ Sizing
 "HtCap_Sys_L_Hall_S" = -3981.214   $ Sizing
 "HtCap_Sys_L_Hall_W" = -3975.231   $ Sizing
 "HtCap_Sys_L_LobWait_E" = -9759.528   $ Sizing
 "HtCap_Sys_L_LobWait_N" = -7000.099   $ Sizing
 "HtCap_Sys_L_LobWait_S" = -10050.53   $ Sizing
 "HtCap_Sys_L_LobWait_W" = -10581.28   $ Sizing
 "HtCap_Sys_L_MechElec_C" = -3693.718   $ Sizing
 "HtCap_Sys_L_OfficeOpn_C" = -2940.822   $ Sizing
 "HtCap_Sys_L_OfficeOpn_E" = -17309.84   $ Sizing
 "HtCap_Sys_L_OfficeOpn_N" = -12833.69   $ Sizing
 "HtCap_Sys_L_OfficeOpn_S" = -16780.98   $ Sizing
 "HtCap_Sys_L_OfficeOpn_W" = -17635.06   $ Sizing
 "HtCap_Sys_L_OfficeSm_E" = -14050.16   $ Sizing
 "HtCap_Sys_L_OfficeSm_N" = -9578.941   $ Sizing
 "HtCap_Sys_L_OfficeSm_S" = -14120.41   $ Sizing
 "HtCap_Sys_L_OfficeSm_W" = -14639.4   $ Sizing
 "HtCap_Sys_L_Restrm_C" = -3282.02   $ Sizing
 "HtCap_Sys_L_StorSm_C" = -1610.859   $ Sizing
 "HtCap_Sys_L_StorSm_E" = -4050.954   $ Sizing
 "HtCap_Sys_L_StorSm_N" = -2399.095   $ Sizing
 "HtCap_Sys_L_StorSm_S" = -4149.126   $ Sizing
 "HtCap_Sys_L_StorSm_W" = -4044.695   $ Sizing
 "HtCap_Sys_T_Conf_C" = -14671.6   $ Sizing
 "HtCap_Sys_T_Hall_E" = -4349.803   $ Sizing
 "HtCap_Sys_T_Hall_N" = -2608.786   $ Sizing
 "HtCap_Sys_T_Hall_S" = -4650.108   $ Sizing
 "HtCap_Sys_T_Hall_W" = -4487.075   $ Sizing
 "HtCap_Sys_T_OfficeOpn_C" = -2852.334   $ Sizing
 "HtCap_Sys_T_OfficeOpn_E" = -18267.18   $ Sizing
 "HtCap_Sys_T_OfficeOpn_N" = -13799.32   $ Sizing
 "HtCap_Sys_T_OfficeOpn_S" = -18538.31   $ Sizing
 "HtCap_Sys_T_OfficeOpn_W" = -19352.18   $ Sizing
 "HtCap_Sys_T_OfficeSm_E" = -14584.67   $ Sizing
 "HtCap_Sys_T_OfficeSm_N" = -10588.67   $ Sizing
 "HtCap_Sys_T_OfficeSm_S" = -15689.74   $ Sizing
 "HtCap_Sys_T_OfficeSm_W" = -16075.53   $ Sizing
 "HtCap_Sys_T_Restrm_C" = -5152.489   $ Sizing
 "HtCap_Sys_T_StorSm_E" = -4827.533   $ Sizing
 "HtCap_Sys_T_StorSm_N" = -3048.353   $ Sizing
 "HtCap_Sys_T_StorSm_S" = -4832.443   $ Sizing
 "HtCap_Sys_T_StorSm_W" = -4978.857   $ Sizing
..

##include Templates\OfS_DX_SZ.inp
END ..
COMPUTE ..
STOP ..
