INPUT ..

##fileprefix C:\Users\jglasskatz\MASControl3\
##set1 IsSizing FALSE
##set1 CoolType DX
##set1 HeatType HOT-WATER
##set1 EU_HrRepVar 1
##set1 BldgVint 2020
##set1 BldgLoc CZ01

 ##set1 mHW_FlowCtrl VarSec   $ IP Tech: HwFlowCtrlVarSec
 ##set1 mBFMult 1   $ IP Tech: RefgChg-NRes-Std
 ##set1 mBlrIsCond FALSE   $ IP Tech: WBlr-lt300-82p0AF

PARAMETER
 "AltFactor" = 1.00753   $ IP Non-Tech
 "BldgEconoFlag" = 1   $ IP Non-Tech
 "BlrPrimLp" = BlrPrimLoop   $ IP Non-Tech
 "Break_EWSF" = 1   $ IP Non-Tech
 "Break_LWSF" = 0.65   $ IP Non-Tech
 "CDD_DBHi10" = 65   $ IP Non-Tech
 "CDD_DBHi7" = 68   $ IP Non-Tech
 "CDD_DBHi8" = 66   $ IP Non-Tech
 "CDD_DBHi9" = 77   $ IP Non-Tech
 "CDD_DBRange10" = 17   $ IP Non-Tech
 "CDD_DBRange7" = 11   $ IP Non-Tech
 "CDD_DBRange8" = 10   $ IP Non-Tech
 "CDD_DBRange9" = 29   $ IP Non-Tech
 "CDD_Day10" = 15   $ IP Non-Tech
 "CDD_Day7" = 16   $ IP Non-Tech
 "CDD_Day8" = 20   $ IP Non-Tech
 "CDD_Day9" = 17   $ IP Non-Tech
 "CDD_HrHi10" = 12   $ IP Non-Tech
 "CDD_HrHi7" = 12   $ IP Non-Tech
 "CDD_HrHi8" = 13   $ IP Non-Tech
 "CDD_HrHi9" = 17   $ IP Non-Tech
 "CDD_HrLo10" = 6   $ IP Non-Tech
 "CDD_HrLo7" = 3   $ IP Non-Tech
 "CDD_HrLo8" = 8   $ IP Non-Tech
 "CDD_HrLo9" = 4   $ IP Non-Tech
 "CDD_WB10" = 57.53039551   $ IP Non-Tech
 "CDD_WB7" = 59.29250717   $ IP Non-Tech
 "CDD_WB8" = 60.75350189   $ IP Non-Tech
 "CDD_WB9" = 61.08643341   $ IP Non-Tech
 "CZ_Category" = Tem   $ IP Non-Tech
 "ChwVintEconoFlag" = 1   $ IP Non-Tech
 "CompRoomData_EWSF" = 5   $ IP Non-Tech
 "CompRoomData_LWSF" = 0.8   $ IP Non-Tech
 "Conference_EWSF" = 1   $ IP Non-Tech
 "Conference_LWSF" = 0.85   $ IP Non-Tech
 "CoolSetT" = 45   $ IP Non-Tech
 "CoolType" = DX   $ IP Non-Tech
 "CopyRoom_EWSF" = 1.5   $ IP Non-Tech
 "CopyRoom_LWSF" = 0.5   $ IP Non-Tech
 "DesCoolT" = 75   $ IP Non-Tech
 "DesHeatT" = 73   $ IP Non-Tech
 "EconoEnthLimit" = 28   $ IP Non-Tech
 "EconoTempLimit" = 70   $ IP Non-Tech
 "Elevation" = 203   $ IP Non-Tech
 "HDD_CloudAmt1" = 0   $ IP Non-Tech
 "HDD_DBHi1" = 53   $ IP Non-Tech
 "HDD_DBRange1" = 20   $ IP Non-Tech
 "HDD_Day1" = 15   $ IP Non-Tech
 "HDD_HrHi1" = 14   $ IP Non-Tech
 "HDD_HrLo1" = 6   $ IP Non-Tech
 "HDD_WB1" = 42.3   $ IP Non-Tech
 "HDD_WindSpd1" = 12.7   $ IP Non-Tech
 "Hall_EWSF" = 0.2   $ IP Non-Tech
 "Hall_LWSF" = 0.55   $ IP Non-Tech
 "HeatSrc" = HOT-WATER   $ IP Non-Tech
 "HeatSrcTU" = HOT-WATER   $ IP Non-Tech
 "HeatType" = GasBlr   $ IP Non-Tech
 "HeatTypeTU" = HOT-WATER   $ IP Non-Tech
 "HwDesignDT" = 30   $ IP Non-Tech
 "HwPipeHead" = 40   $ IP Non-Tech
 "HwRetDT" = 0.3   $ IP Non-Tech
 "HwSupDT" = 0.5   $ IP Non-Tech
 "IndoorFanMode" = CONTINUOUS   $ IP Non-Tech
 "KT_TransferAir" = Yes   $ IP Non-Tech
 "Latitude" = 40.8   $ IP Non-Tech
 "LobbyWaiting_EWSF" = 0.5   $ IP Non-Tech
 "LobbyWaiting_LWSF" = 0.75   $ IP Non-Tech
 "Longitude" = 124.2   $ IP Non-Tech
 "LtgMsrApplic" = ALL   $ Msr TechID: NonResLtgRefMsr-HB
 "LtgSav_CFL" = 0   $ Msr TechID: NonResLtgRefMsr-HB
 "LtgSav_EX" = 0   $ Msr TechID: NonResLtgRefMsr-HB
 "LtgSav_HB" = 0.3   $ Msr TechID: NonResLtgRefMsr-HB
 "LtgSav_LF" = 0   $ Msr TechID: NonResLtgRefMsr-HB
 "LtgSav_SP" = 0   $ Msr TechID: NonResLtgRefMsr-HB
 "MZFanMechEff" = 0.58   $ IP Non-Tech
 "MZHasRetFan" = FALSE   $ IP Non-Tech
 "MZ_RFanWPerCfm" = 0.33   $ IP Non-Tech
 "MZ_SFanWPerCfm" = 0.75   $ IP Non-Tech
 "MZ_SupFanStatic" = 4   $ IP Non-Tech
 "MaxSupT_MZ" = 95   $ IP Non-Tech
 "MaxSupT_SZ" = 100   $ IP Non-Tech
 "MaxSupT_TU" = 90   $ IP Non-Tech
 "MechElecRoom_EWSF" = 0.2   $ IP Non-Tech
 "MechElecRoom_LWSF" = 0.4   $ IP Non-Tech
 "MinCfmPerSF" = 0.4   $ IP Non-Tech
 "MinSupT" = 55   $ IP Non-Tech
 "NumBlrs" = 1   $ IP Non-Tech
 "OccCoolT" = 76   $ IP Non-Tech
 "OccHeatT" = 72   $ IP Non-Tech
 "OfficeOpen_EWSF" = 1.5   $ IP Non-Tech
 "OfficeOpen_LWSF" = 0.8   $ IP Non-Tech
 "OfficeSmall_EWSF" = 1.5   $ IP Non-Tech
 "OfficeSmall_LWSF" = 0.9   $ IP Non-Tech
 "PkgDxVintEconoFlag" = 1   $ IP Non-Tech
 "ReheatDeltaT" = 40   $ IP Non-Tech
 "Restroom_EWSF" = 0.2   $ IP Non-Tech
 "Restroom_LWSF" = 0.65   $ IP Non-Tech
 "SZFanMechEff" = 0.58   $ IP Non-Tech
 "SZHasRetFan" = FALSE   $ IP Non-Tech
 "SZ_Is_2Spd" = TRUE   $ IP Non-Tech
 "SZ_SFanWPerCfm" = 0.46   $ IP Non-Tech
 "StorageSmlCond_EWSF" = 0.2   $ IP Non-Tech
 "StorageSmlCond_LWSF" = 0.45   $ IP Non-Tech
 "TermUnitFanMechEff" = 1   $ IP Non-Tech
 "TermUnitFanMode" = INTERMITTENT   $ IP Non-Tech
 "TwrSetpt" = 80   $ IP Non-Tech
 "UnocCoolT" = 86   $ IP Non-Tech
 "UnocHeatT" = 62   $ IP Non-Tech
 "VAVMinFlow" = 0.3   $ IP Non-Tech
 "WlhpVintEconoFlag" = 1   $ IP Non-Tech
 "EconoCtrl" = OA-TEMP   $ IP Tech: AirEcono-OATemp
 "MaxOAFrac" = 0.85   $ IP Tech: AirEcono-OATemp
 "UseEconoVintApplic" = FALSE   $ IP Tech: AirEcono-OATemp
 "DuctDT" = 1   $ IP Tech: ComDuctInsul-1
 "DuctAirLoss" = 0   $ IP Tech: ComDuctLeak-0
 "DuctLossOAFrac" = 0   $ IP Tech: ComDuctLeak-0
 "ComRoofInsCalc" = FromUo   $ IP Tech: ComRoofIns-WFrm-0.03
 "ComRoofInsR" = -999   $ IP Tech: ComRoofIns-WFrm-0.03
 "ComRoofUo" = 0.03   $ IP Tech: ComRoofIns-WFrm-0.03
 "ComEWInsCalc" = FromUo   $ IP Tech: ComWallIns-WFrm-0.08
 "ComEWInsR" = -999   $ IP Tech: ComWallIns-WFrm-0.08
 "ComEWUo" = 0.08   $ IP Tech: ComWallIns-WFrm-0.08
 "HW_FlowCtrl" = VarSec   $ IP Tech: HwFlowCtrlVarSec
 "HW_HdSensLoc" = AT-COILS   $ IP Tech: HwFlowCtrlVarSec
 "HW_HdSptCtrl" = FIXED   $ IP Tech: HwFlowCtrlVarSec
 "HWP_Encl" = Any   $ IP Tech: HwPumpMtrEff-PR
 "HWP_MotClass" = PREMIUM   $ IP Tech: HwPumpMtrEff-PR
 "HWP_MotHP" = Any   $ IP Tech: HwPumpMtrEff-PR
 "HWP_NEMA_DC" = Any   $ IP Tech: HwPumpMtrEff-PR
 "HWP_RPM" = Any   $ IP Tech: HwPumpMtrEff-PR
 "HWP_Volt" = Any   $ IP Tech: HwPumpMtrEff-PR
 "HWResetOutsideHi" = 60   $ IP Tech: HwTempCtrlOAReset
 "HWResetOutsideLo" = 30   $ IP Tech: HwTempCtrlOAReset
 "HW_TempCtrl" = OA-RESET   $ IP Tech: HwTempCtrlOAReset
 "ComN_SHGC" = 0.25   $ IP Tech: NResWin-ComN-0.36-0.25
 "ComN_UFactor" = 0.36   $ IP Tech: NResWin-ComN-0.36-0.25
 "ComN_VisTrans" = 0.41   $ IP Tech: NResWin-ComN-0.36-0.25
 "ComN_WinCode" = G2668   $ IP Tech: NResWin-ComN-0.36-0.25
 "ComN_WinFrmFrac" = 0.17   $ IP Tech: NResWin-ComN-0.36-0.25
 "ComN_WinFrmU" = 0.3   $ IP Tech: NResWin-ComN-0.36-0.25
 "ComO_SHGC" = 0.25   $ IP Tech: NResWin-ComO-0.36-0.25
 "ComO_UFactor" = 0.36   $ IP Tech: NResWin-ComO-0.36-0.25
 "ComO_VisTrans" = 0.41   $ IP Tech: NResWin-ComO-0.36-0.25
 "ComO_WinCode" = G2668   $ IP Tech: NResWin-ComO-0.36-0.25
 "ComO_WinFrmFrac" = 0.17   $ IP Tech: NResWin-ComO-0.36-0.25
 "ComO_WinFrmU" = 0.3   $ IP Tech: NResWin-ComO-0.36-0.25
 "PV_BF_fFlow" = PVV240to760_BF_fFlow   $ IP Tech: PVVAC-P-240to760-E10
 "PV_BF_fT" = PVV240to760_BF_fT   $ IP Tech: PVVAC-P-240to760-E10
 "PV_CEIR_fPLR" = PVV240to760_CEIR_fPLR   $ IP Tech: PVVAC-P-240to760-E10
 "PV_CLoss_fPLR" = PVV240to760_CLoss_fPLR   $ IP Tech: PVVAC-P-240to760-E10
 "PV_COP" = -1   $ IP Tech: PVVAC-P-240to760-E10
 "PV_COP47" = -1   $ IP Tech: PVVAC-P-240to760-E10
 "PV_CfmPerBtuh" = 0.02917   $ IP Tech: PVVAC-P-240to760-E10
 "PV_ClCap_fT" = PVV240to760_ClCap_fT   $ IP Tech: PVVAC-P-240to760-E10
 "PV_ClSH_fT" = PVV240to760_ClSH_fT   $ IP Tech: PVVAC-P-240to760-E10
 "PV_CoilBF" = 0.125   $ IP Tech: PVVAC-P-240to760-E10
 "PV_CondWPerBtuh" = 0   $ IP Tech: PVVAC-P-240to760-E10
 "PV_CoolSensCap" = 0.708   $ IP Tech: PVVAC-P-240to760-E10
 "PV_CoolingEIR" = 0.27383   $ IP Tech: PVVAC-P-240to760-E10
 "PV_CrnkEIR" = 0.0027   $ IP Tech: PVVAC-P-240to760-E10
 "PV_CrnkMaxT" = 50   $ IP Tech: PVVAC-P-240to760-E10
 "PV_DXType" = PVV   $ IP Tech: PVVAC-P-240to760-E10
 "PV_EER" = 9.17   $ IP Tech: PVVAC-P-240to760-E10
 "PV_EIR_fT" = PVV240to760_EIR_fT   $ IP Tech: PVVAC-P-240to760-E10
 "PV_FanEirPlr" = NA   $ IP Tech: PVVAC-P-240to760-E10
 "PV_FanWPerCfm" = 0.72   $ IP Tech: PVVAC-P-240to760-E10
 "PV_HIR_fT" = DEFAULT   $ IP Tech: PVVAC-P-240to760-E10
 "PV_HtCap_fT" = DEFAULT   $ IP Tech: PVVAC-P-240to760-E10
 "PV_HtCoolCapRatio" = -1   $ IP Tech: PVVAC-P-240to760-E10
 "PV_HtgEIR" = -1   $ IP Tech: PVVAC-P-240to760-E10
 "PV_HtgFuel" = HW   $ IP Tech: PVVAC-P-240to760-E10
 "PV_IEER" = 11.44   $ IP Tech: PVVAC-P-240to760-E10
 "PV_LowSpdCapRatio" = 0.17   $ IP Tech: PVVAC-P-240to760-E10
 "PV_LowSpdCfmRatio" = 0.24   $ IP Tech: PVVAC-P-240to760-E10
 "PV_NominalCap" = 40   $ IP Tech: PVVAC-P-240to760-E10
 "PV_NumStages" = 1   $ IP Tech: PVVAC-P-240to760-E10
 "PV_RatedEER" = 10   $ IP Tech: PVVAC-P-240to760-E10
 "PV_RatedSupMtrClass" = Premium   $ IP Tech: PVVAC-P-240to760-E10
 "PV_SizeRange" = 240to760   $ IP Tech: PVVAC-P-240to760-E10
 "PV_SubType" = AC   $ IP Tech: PVVAC-P-240to760-E10
 "PV_SupMotEff" = 0.93   $ IP Tech: PVVAC-P-240to760-E10
 "PV_Tier" = 0   $ IP Tech: PVVAC-P-240to760-E10
 "PV_TotCoolCap" = 485760   $ IP Tech: PVVAC-P-240to760-E10
 "BF_fFlow" = PSZ65to135_BF_fFlow   $ IP Tech: PkgAC2SpP-65to135-E11.2
 "BF_fT" = PSZ65to135_BF_fT   $ IP Tech: PkgAC2SpP-65to135-E11.2
 "CEIR_fPLR" = PSZ65to135_CEIR_fPLR   $ IP Tech: PkgAC2SpP-65to135-E11.2
 "CLoss_fPLR" = PSZ65to135_CLoss_fPLR   $ IP Tech: PkgAC2SpP-65to135-E11.2
 "COP" = -1   $ IP Tech: PkgAC2SpP-65to135-E11.2
 "COP47" = -1   $ IP Tech: PkgAC2SpP-65to135-E11.2
 "CfmPerBtuh" = 0.02917   $ IP Tech: PkgAC2SpP-65to135-E11.2
 "ClCap_fT" = PSZ65to135_ClCap_fT   $ IP Tech: PkgAC2SpP-65to135-E11.2
 "ClSH_fT" = PSZ65to135_ClSH_fT   $ IP Tech: PkgAC2SpP-65to135-E11.2
 "CoilBF" = 0.114   $ IP Tech: PkgAC2SpP-65to135-E11.2
 "CondWPerBtuh" = 0   $ IP Tech: PkgAC2SpP-65to135-E11.2
 "CoolSensCap" = 0.663   $ IP Tech: PkgAC2SpP-65to135-E11.2
 "CoolingEIR" = 0.26277   $ IP Tech: PkgAC2SpP-65to135-E11.2
 "CrnkEIR" = 0.0026   $ IP Tech: PkgAC2SpP-65to135-E11.2
 "CrnkMaxT" = 50   $ IP Tech: PkgAC2SpP-65to135-E11.2
 "DXType" = Pkg   $ IP Tech: PkgAC2SpP-65to135-E11.2
 "EER" = 10.83   $ IP Tech: PkgAC2SpP-65to135-E11.2
 "EIR_fT" = PSZ65to135_EIR_fT   $ IP Tech: PkgAC2SpP-65to135-E11.2
 "FanEirPlr" = TwoSpeedFan   $ IP Tech: PkgAC2SpP-65to135-E11.2
 "FanWPerCfm" = 0.4   $ IP Tech: PkgAC2SpP-65to135-E11.2
 "HIR_fT" = DEFAULT   $ IP Tech: PkgAC2SpP-65to135-E11.2
 "HtCap_fT" = DEFAULT   $ IP Tech: PkgAC2SpP-65to135-E11.2
 "HtCoolCapRatio" = -1   $ IP Tech: PkgAC2SpP-65to135-E11.2
 "HtgEIR" = -1   $ IP Tech: PkgAC2SpP-65to135-E11.2
 "HtgFuel" = Gas   $ IP Tech: PkgAC2SpP-65to135-E11.2
 "IEER" = 13.65   $ IP Tech: PkgAC2SpP-65to135-E11.2
 "LowSpdCapRatio" = 0.5   $ IP Tech: PkgAC2SpP-65to135-E11.2
 "LowSpdCfmRatio" = 0.66   $ IP Tech: PkgAC2SpP-65to135-E11.2
 "NominalCap" = 15   $ IP Tech: PkgAC2SpP-65to135-E11.2
 "NumStages" = 2   $ IP Tech: PkgAC2SpP-65to135-E11.2
 "RatedEER" = 11.2   $ IP Tech: PkgAC2SpP-65to135-E11.2
 "RatedSupMtrClass" = Premium   $ IP Tech: PkgAC2SpP-65to135-E11.2
 "SizeRange" = 65to135   $ IP Tech: PkgAC2SpP-65to135-E11.2
 "SubType" = AC   $ IP Tech: PkgAC2SpP-65to135-E11.2
 "SupMotEff" = 0.865   $ IP Tech: PkgAC2SpP-65to135-E11.2
 "Tier" = 0   $ IP Tech: PkgAC2SpP-65to135-E11.2
 "TotCoolCap" = 184140   $ IP Tech: PkgAC2SpP-65to135-E11.2
 "BFMult" = 1   $ IP Tech: RefgChg-NRes-Std
 "CoolEirMult" = 1   $ IP Tech: RefgChg-NRes-Std
 "SensCoolCapMult" = 1   $ IP Tech: RefgChg-NRes-Std
 "TotCoolCapMult" = 1   $ IP Tech: RefgChg-NRes-Std
 "SATempCtrl" = WARMEST   $ IP Tech: SATempCtrl-Warmest
 "FanEIR_fPLR" = "Variable Speed Drive FPLR"   $ IP Tech: VAVCtrl-VSD-AnyHP
 "Fan_Control" = VSD   $ IP Tech: VAVCtrl-VSD-AnyHP
 "Motor_Horsepower" = AnyHP   $ IP Tech: VAVCtrl-VSD-AnyHP
 "BlrCapRange" = lt300   $ IP Tech: WBlr-lt300-82p0AF
 "BlrDraftType" = FDr   $ IP Tech: WBlr-lt300-82p0AF
 "BlrEff" = 0.82   $ IP Tech: WBlr-lt300-82p0AF
 "BlrEffUnits" = AFUE   $ IP Tech: WBlr-lt300-82p0AF
 "BlrEt" = 0.823   $ IP Tech: WBlr-lt300-82p0AF
 "BlrFluid" = Wtr   $ IP Tech: WBlr-lt300-82p0AF
 "BlrIsCond" = FALSE   $ IP Tech: WBlr-lt300-82p0AF
 "BlrT" = 165   $ IP Tech: WBlr-lt300-82p0AF
 "AltAdjFactor" = 1.007532   $ Sizing
 "CAssFlo_L_Break_CZn" = 242.4426   $ Sizing
 "CAssFlo_L_CompDC_CZn" = 139.7114   $ Sizing
 "CAssFlo_L_Conf_CZn" = 169.2073   $ Sizing
 "CAssFlo_L_CopyRm_CZn" = 50.72986   $ Sizing
 "CAssFlo_L_Hall_EZn" = 72.45545   $ Sizing
 "CAssFlo_L_Hall_NZn" = 58.2068   $ Sizing
 "CAssFlo_L_Hall_SZn" = 87.58289   $ Sizing
 "CAssFlo_L_Hall_WZn" = 78.88306   $ Sizing
 "CAssFlo_L_LobWait_EZn" = 177.0734   $ Sizing
 "CAssFlo_L_LobWait_NZn" = 123.0753   $ Sizing
 "CAssFlo_L_LobWait_SZn" = 201.1474   $ Sizing
 "CAssFlo_L_LobWait_WZn" = 177.6993   $ Sizing
 "CAssFlo_L_MechElec_CZn" = 65.93681   $ Sizing
 "CAssFlo_L_OfficeOpn_CZn" = 39.96945   $ Sizing
 "CAssFlo_L_OfficeOpn_EZn" = 386.4769   $ Sizing
 "CAssFlo_L_OfficeOpn_NZn" = 170.6679   $ Sizing
 "CAssFlo_L_OfficeOpn_SZn" = 399.7572   $ Sizing
 "CAssFlo_L_OfficeOpn_WZn" = 374.0706   $ Sizing
 "CAssFlo_L_OfficeSm_EZn" = 321.1147   $ Sizing
 "CAssFlo_L_OfficeSm_NZn" = 126.542   $ Sizing
 "CAssFlo_L_OfficeSm_SZn" = 353.3462   $ Sizing
 "CAssFlo_L_OfficeSm_WZn" = 326.6094   $ Sizing
 "CAssFlo_L_Restrm_CZn" = 86.07105   $ Sizing
 "CAssFlo_L_StorSm_CZn" = 30.40044   $ Sizing
 "CAssFlo_L_StorSm_EZn" = 63.26353   $ Sizing
 "CAssFlo_L_StorSm_NZn" = 63.04214   $ Sizing
 "CAssFlo_L_StorSm_SZn" = 71.65123   $ Sizing
 "CAssFlo_L_StorSm_WZn" = 66.49879   $ Sizing
 "CAssFlo_T_Conf_CZn" = 180.9798   $ Sizing
 "CAssFlo_T_Hall_EZn" = 90.73206   $ Sizing
 "CAssFlo_T_Hall_NZn" = 53.30098   $ Sizing
 "CAssFlo_T_Hall_SZn" = 103.6358   $ Sizing
 "CAssFlo_T_Hall_WZn" = 92.27766   $ Sizing
 "CAssFlo_T_OfficeOpn_CZn" = 40.79433   $ Sizing
 "CAssFlo_T_OfficeOpn_EZn" = 401.2083   $ Sizing
 "CAssFlo_T_OfficeOpn_NZn" = 204.6479   $ Sizing
 "CAssFlo_T_OfficeOpn_SZn" = 435.4634   $ Sizing
 "CAssFlo_T_OfficeOpn_WZn" = 389.5321   $ Sizing
 "CAssFlo_T_OfficeSm_EZn" = 347.8435   $ Sizing
 "CAssFlo_T_OfficeSm_NZn" = 157.4856   $ Sizing
 "CAssFlo_T_OfficeSm_SZn" = 385.4352   $ Sizing
 "CAssFlo_T_OfficeSm_WZn" = 339.2046   $ Sizing
 "CAssFlo_T_Restrm_CZn" = 86.07105   $ Sizing
 "CAssFlo_T_StorSm_EZn" = 82.80144   $ Sizing
 "CAssFlo_T_StorSm_NZn" = 58.65648   $ Sizing
 "CAssFlo_T_StorSm_SZn" = 93.394   $ Sizing
 "CAssFlo_T_StorSm_WZn" = 86.14605   $ Sizing
 "CHRtFlo_L_Break_CZn" = 185.4956   $ Sizing
 "CHRtFlo_L_CompDC_CZn" = 41.91343   $ Sizing
 "CHRtFlo_L_Conf_CZn" = 143.3872   $ Sizing
 "CHRtFlo_L_CopyRm_CZn" = 50.72986   $ Sizing
 "CHRtFlo_L_Hall_EZn" = 55.23854   $ Sizing
 "CHRtFlo_L_Hall_NZn" = 58.2068   $ Sizing
 "CHRtFlo_L_Hall_SZn" = 38.69955   $ Sizing
 "CHRtFlo_L_Hall_WZn" = 54.89548   $ Sizing
 "CHRtFlo_L_LobWait_EZn" = 115.6225   $ Sizing
 "CHRtFlo_L_LobWait_NZn" = 123.0753   $ Sizing
 "CHRtFlo_L_LobWait_SZn" = 87.43504   $ Sizing
 "CHRtFlo_L_LobWait_WZn" = 115.0301   $ Sizing
 "CHRtFlo_L_MechElec_CZn" = 39.91402   $ Sizing
 "CHRtFlo_L_OfficeOpn_CZn" = 34.83096   $ Sizing
 "CHRtFlo_L_OfficeOpn_EZn" = 115.9431   $ Sizing
 "CHRtFlo_L_OfficeOpn_NZn" = 128.5785   $ Sizing
 "CHRtFlo_L_OfficeOpn_SZn" = 119.9272   $ Sizing
 "CHRtFlo_L_OfficeOpn_WZn" = 116.804   $ Sizing
 "CHRtFlo_L_OfficeSm_EZn" = 114.6781   $ Sizing
 "CHRtFlo_L_OfficeSm_NZn" = 121.2173   $ Sizing
 "CHRtFlo_L_OfficeSm_SZn" = 106.0039   $ Sizing
 "CHRtFlo_L_OfficeSm_WZn" = 109.7038   $ Sizing
 "CHRtFlo_L_Restrm_CZn" = 50.06923   $ Sizing
 "CHRtFlo_L_StorSm_CZn" = 30.40044   $ Sizing
 "CHRtFlo_L_StorSm_EZn" = 58.61493   $ Sizing
 "CHRtFlo_L_StorSm_NZn" = 63.04214   $ Sizing
 "CHRtFlo_L_StorSm_SZn" = 43.13244   $ Sizing
 "CHRtFlo_L_StorSm_WZn" = 53.65504   $ Sizing
 "CHRtFlo_T_Conf_CZn" = 143.3872   $ Sizing
 "CHRtFlo_T_Hall_EZn" = 50.46233   $ Sizing
 "CHRtFlo_T_Hall_NZn" = 53.30098   $ Sizing
 "CHRtFlo_T_Hall_SZn" = 40.49437   $ Sizing
 "CHRtFlo_T_Hall_WZn" = 49.30396   $ Sizing
 "CHRtFlo_T_OfficeOpn_CZn" = 22.84602   $ Sizing
 "CHRtFlo_T_OfficeOpn_EZn" = 120.3625   $ Sizing
 "CHRtFlo_T_OfficeOpn_NZn" = 117.0777   $ Sizing
 "CHRtFlo_T_OfficeOpn_SZn" = 130.639   $ Sizing
 "CHRtFlo_T_OfficeOpn_WZn" = 116.8596   $ Sizing
 "CHRtFlo_T_OfficeSm_EZn" = 107.5284   $ Sizing
 "CHRtFlo_T_OfficeSm_NZn" = 110.71   $ Sizing
 "CHRtFlo_T_OfficeSm_SZn" = 115.6306   $ Sizing
 "CHRtFlo_T_OfficeSm_WZn" = 103.7654   $ Sizing
 "CHRtFlo_T_Restrm_CZn" = 74.97867   $ Sizing
 "CHRtFlo_T_StorSm_EZn" = 54.84336   $ Sizing
 "CHRtFlo_T_StorSm_NZn" = 58.65648   $ Sizing
 "CHRtFlo_T_StorSm_SZn" = 41.24508   $ Sizing
 "CHRtFlo_T_StorSm_WZn" = 53.4083   $ Sizing
 "CRtdFlo_Sys_L" = 3270.153   $ Sizing
 "CRtdFlo_Sys_T" = 2739.078   $ Sizing
 "CSupFlo_Sys_L" = 3270.153   $ Sizing
 "CSupFlo_Sys_T" = 2739.078   $ Sizing
 "Cap_Boiler1" = -0.161184   $ Sizing
 "ClCap_Sys_L" = 112567.8   $ Sizing
 "ClCap_Sys_T" = 94560.05   $ Sizing
 "HRtEDB_L_Break_CZn" = 55.69059   $ Sizing
 "HRtEDB_L_CompDC_CZn" = 55.69059   $ Sizing
 "HRtEDB_L_Conf_CZn" = 55.69059   $ Sizing
 "HRtEDB_L_CopyRm_CZn" = 52.88042   $ Sizing
 "HRtEDB_L_Hall_EZn" = 52.88042   $ Sizing
 "HRtEDB_L_Hall_NZn" = 52.88042   $ Sizing
 "HRtEDB_L_Hall_SZn" = 55.69059   $ Sizing
 "HRtEDB_L_Hall_WZn" = 52.88042   $ Sizing
 "HRtEDB_L_LobWait_EZn" = 55.69059   $ Sizing
 "HRtEDB_L_LobWait_NZn" = 52.88042   $ Sizing
 "HRtEDB_L_LobWait_SZn" = 55.69059   $ Sizing
 "HRtEDB_L_LobWait_WZn" = 52.88042   $ Sizing
 "HRtEDB_L_MechElec_CZn" = 52.88042   $ Sizing
 "HRtEDB_L_OfficeOpn_CZn" = 55.69059   $ Sizing
 "HRtEDB_L_OfficeOpn_EZn" = 55.69059   $ Sizing
 "HRtEDB_L_OfficeOpn_NZn" = 55.69059   $ Sizing
 "HRtEDB_L_OfficeOpn_SZn" = 55.69059   $ Sizing
 "HRtEDB_L_OfficeOpn_WZn" = 55.69059   $ Sizing
 "HRtEDB_L_OfficeSm_EZn" = 55.69059   $ Sizing
 "HRtEDB_L_OfficeSm_NZn" = 55.69059   $ Sizing
 "HRtEDB_L_OfficeSm_SZn" = 55.69059   $ Sizing
 "HRtEDB_L_OfficeSm_WZn" = 55.69059   $ Sizing
 "HRtEDB_L_Restrm_CZn" = 52.88042   $ Sizing
 "HRtEDB_L_StorSm_CZn" = 52.88042   $ Sizing
 "HRtEDB_L_StorSm_EZn" = 52.88042   $ Sizing
 "HRtEDB_L_StorSm_NZn" = 52.88042   $ Sizing
 "HRtEDB_L_StorSm_SZn" = 52.88042   $ Sizing
 "HRtEDB_L_StorSm_WZn" = 52.88042   $ Sizing
 "HRtEDB_T_Conf_CZn" = 51.39185   $ Sizing
 "HRtEDB_T_Hall_EZn" = 55.42363   $ Sizing
 "HRtEDB_T_Hall_NZn" = 55.42363   $ Sizing
 "HRtEDB_T_Hall_SZn" = 55.42363   $ Sizing
 "HRtEDB_T_Hall_WZn" = 55.42363   $ Sizing
 "HRtEDB_T_OfficeOpn_CZn" = 55.42363   $ Sizing
 "HRtEDB_T_OfficeOpn_EZn" = 55.42363   $ Sizing
 "HRtEDB_T_OfficeOpn_NZn" = 55.42363   $ Sizing
 "HRtEDB_T_OfficeOpn_SZn" = 55.42363   $ Sizing
 "HRtEDB_T_OfficeOpn_WZn" = 55.42363   $ Sizing
 "HRtEDB_T_OfficeSm_EZn" = 55.42363   $ Sizing
 "HRtEDB_T_OfficeSm_NZn" = 55.42363   $ Sizing
 "HRtEDB_T_OfficeSm_SZn" = 55.42363   $ Sizing
 "HRtEDB_T_OfficeSm_WZn" = 55.42363   $ Sizing
 "HRtEDB_T_Restrm_CZn" = 51.39185   $ Sizing
 "HRtEDB_T_StorSm_EZn" = 51.39185   $ Sizing
 "HRtEDB_T_StorSm_NZn" = 51.39185   $ Sizing
 "HRtEDB_T_StorSm_SZn" = 51.39185   $ Sizing
 "HRtEDB_T_StorSm_WZn" = 51.39185   $ Sizing
 "HWDT_Boiler1" = 35.49882   $ Sizing
 "HtCap_L_Break_CZn" = -7855.365   $ Sizing
 "HtCap_L_CompDC_CZn" = -1774.949   $ Sizing
 "HtCap_L_Conf_CZn" = -6072.159   $ Sizing
 "HtCap_L_CopyRm_CZn" = -2302.338   $ Sizing
 "HtCap_L_Hall_EZn" = -2506.961   $ Sizing
 "HtCap_L_Hall_NZn" = -2641.673   $ Sizing
 "HtCap_L_Hall_SZn" = -1638.848   $ Sizing
 "HtCap_L_Hall_WZn" = -2491.392   $ Sizing
 "HtCap_L_LobWait_EZn" = -4896.379   $ Sizing
 "HtCap_L_LobWait_NZn" = -5585.682   $ Sizing
 "HtCap_L_LobWait_SZn" = -3702.697   $ Sizing
 "HtCap_L_LobWait_WZn" = -5220.558   $ Sizing
 "HtCap_L_MechElec_CZn" = -1811.469   $ Sizing
 "HtCap_L_OfficeOpn_CZn" = -1475.021   $ Sizing
 "HtCap_L_OfficeOpn_EZn" = -4909.955   $ Sizing
 "HtCap_L_OfficeOpn_NZn" = -5445.039   $ Sizing
 "HtCap_L_OfficeOpn_SZn" = -5078.673   $ Sizing
 "HtCap_L_OfficeOpn_WZn" = -4946.411   $ Sizing
 "HtCap_L_OfficeSm_EZn" = -4856.388   $ Sizing
 "HtCap_L_OfficeSm_NZn" = -5133.308   $ Sizing
 "HtCap_L_OfficeSm_SZn" = -4489.049   $ Sizing
 "HtCap_L_OfficeSm_WZn" = -4645.736   $ Sizing
 "HtCap_L_Restrm_CZn" = -2272.355   $ Sizing
 "HtCap_L_StorSm_CZn" = -1379.702   $ Sizing
 "HtCap_L_StorSm_EZn" = -2660.196   $ Sizing
 "HtCap_L_StorSm_NZn" = -2861.122   $ Sizing
 "HtCap_L_StorSm_SZn" = -1957.534   $ Sizing
 "HtCap_L_StorSm_WZn" = -2435.095   $ Sizing
 "HtCap_T_Conf_CZn" = -6737.729   $ Sizing
 "HtCap_T_Hall_EZn" = -2152.061   $ Sizing
 "HtCap_T_Hall_NZn" = -2273.121   $ Sizing
 "HtCap_T_Hall_SZn" = -1726.959   $ Sizing
 "HtCap_T_Hall_WZn" = -2102.661   $ Sizing
 "HtCap_T_OfficeOpn_CZn" = -974.3119   $ Sizing
 "HtCap_T_OfficeOpn_EZn" = -5133.086   $ Sizing
 "HtCap_T_OfficeOpn_NZn" = -4993.001   $ Sizing
 "HtCap_T_OfficeOpn_SZn" = -5571.348   $ Sizing
 "HtCap_T_OfficeOpn_WZn" = -4983.701   $ Sizing
 "HtCap_T_OfficeSm_EZn" = -4585.75   $ Sizing
 "HtCap_T_OfficeSm_NZn" = -4721.438   $ Sizing
 "HtCap_T_OfficeSm_SZn" = -4931.284   $ Sizing
 "HtCap_T_OfficeSm_WZn" = -4425.272   $ Sizing
 "HtCap_T_Restrm_CZn" = -3523.228   $ Sizing
 "HtCap_T_StorSm_EZn" = -2577.075   $ Sizing
 "HtCap_T_StorSm_NZn" = -2756.253   $ Sizing
 "HtCap_T_StorSm_SZn" = -1938.096   $ Sizing
 "HtCap_T_StorSm_WZn" = -2509.642   $ Sizing
 "LpFlo_BlrPrimLoop" = 9.073833   $ Sizing
 "LpFlo_CircLp_Hw_All" = 9.073833   $ Sizing
 "SUtime_Boiler1" = 0.083   $ Sizing
..

##include Templates\OfS_DX_MZ.inp
END ..
COMPUTE ..
STOP ..
