INPUT ..

##fileprefix C:\Users\jglasskatz\MASControl3\
##set1 IsSizing FALSE
##set1 CoolType DX
##set1 HeatType FURNACE
##set1 EU_HrRepVar 0
##set1 BldgVint 2007
##set1 BldgLoc CZ08

 ##set1 mBFMult 1   $ IP Tech: RefgChg-NRes-Std

PARAMETER
 "AltFactor" = 1.01468   $ IP Non-Tech
 "BF_fFlow" = SpltAC1Sp_BF_fFlow   $ Msr (Var)TechID: PreNResSplitAC-45to-PENo
 "BF_fT" = SpltAC1Sp_BF_fT   $ Msr (Var)TechID: PreNResSplitAC-45to-PENo
 "BldgEconoFlag" = 1   $ IP Non-Tech
 "Break_EWSF" = 1   $ IP Non-Tech
 "Break_LWSF" = 1.1   $ IP Non-Tech
 "CDD_DBHi10" = 92   $ IP Non-Tech
 "CDD_DBHi7" = 84   $ IP Non-Tech
 "CDD_DBHi8" = 87   $ IP Non-Tech
 "CDD_DBHi9" = 91   $ IP Non-Tech
 "CDD_DBRange10" = 31   $ IP Non-Tech
 "CDD_DBRange7" = 16   $ IP Non-Tech
 "CDD_DBRange8" = 20   $ IP Non-Tech
 "CDD_DBRange9" = 23   $ IP Non-Tech
 "CDD_Day10" = 15   $ IP Non-Tech
 "CDD_Day7" = 16   $ IP Non-Tech
 "CDD_Day8" = 20   $ IP Non-Tech
 "CDD_Day9" = 17   $ IP Non-Tech
 "CDD_HrHi10" = 16   $ IP Non-Tech
 "CDD_HrHi7" = 14   $ IP Non-Tech
 "CDD_HrHi8" = 15   $ IP Non-Tech
 "CDD_HrHi9" = 13   $ IP Non-Tech
 "CDD_HrLo10" = 3   $ IP Non-Tech
 "CDD_HrLo7" = 4   $ IP Non-Tech
 "CDD_HrLo8" = 7   $ IP Non-Tech
 "CDD_HrLo9" = 7   $ IP Non-Tech
 "CDD_WB10" = 63.44163513   $ IP Non-Tech
 "CDD_WB7" = 69.12194824   $ IP Non-Tech
 "CDD_WB8" = 71.41388702   $ IP Non-Tech
 "CDD_WB9" = 69.41378784   $ IP Non-Tech
 "CEIR_fPLR_Hot" = SpltAC1Sp_CEIR_fPLR_Hot   $ Msr (Var)TechID: PreNResSplitAC-45to-PENo
 "CEIR_fPLR_Mod" = SpltAC1Sp_CEIR_fPLR_Mod   $ Msr (Var)TechID: PreNResSplitAC-45to-PENo
 "CEIR_fPLR_Tem" = SpltAC1Sp_CEIR_fPLR_Tem   $ Msr (Var)TechID: PreNResSplitAC-45to-PENo
 "CLoss_fPLR_Hot" = SpltAC1Sp_CLoss_fPLR_Hot   $ Msr (Var)TechID: PreNResSplitAC-45to-PENo
 "CLoss_fPLR_Mod" = SpltAC1Sp_CLoss_fPLR_Mod   $ Msr (Var)TechID: PreNResSplitAC-45to-PENo
 "CLoss_fPLR_Tem" = SpltAC1Sp_CLoss_fPLR_Tem   $ Msr (Var)TechID: PreNResSplitAC-45to-PENo
 "COP47" = 0   $ Msr (Var)TechID: PreNResSplitAC-45to-PENo
 "CZ_Category" = Mod   $ IP Non-Tech
 "CapRange" = Any   $ Msr (Var)TechID: PreNResSplitAC-45to-PENo
 "CfmPerBtuh" = 0.0321   $ Msr (Var)TechID: PreNResSplitAC-45to-PENo
 "ChwVintEconoFlag" = 1   $ IP Non-Tech
 "ClCap_fT" = SpltAC1Sp_ClCap_fT   $ Msr (Var)TechID: PreNResSplitAC-45to-PENo
 "ClSH_fT" = SpltAC1Sp_ClSH_fT   $ Msr (Var)TechID: PreNResSplitAC-45to-PENo
 "CoilBF" = 0.12   $ Msr (Var)TechID: PreNResSplitAC-45to-PENo
 "CompRoomData_EWSF" = 5   $ IP Non-Tech
 "CompRoomData_LWSF" = 1.2   $ IP Non-Tech
 "CondWPerBtuh" = 0   $ Msr (Var)TechID: PreNResSplitAC-45to-PENo
 "Conference_EWSF" = 1   $ IP Non-Tech
 "Conference_LWSF" = 1.4   $ IP Non-Tech
 "CoolSensCap" = 0.744   $ Msr (Var)TechID: PreNResSplitAC-45to-PENo
 "CoolSetT" = 45   $ IP Non-Tech
 "CoolType" = DX   $ IP Non-Tech
 "CoolingEIR" = 0.25823   $ Msr (Var)TechID: PreNResSplitAC-45to-PENo
 "CopyRoom_EWSF" = 1.5   $ IP Non-Tech
 "CopyRoom_LWSF" = 1.3   $ IP Non-Tech
 "CrnkEIR" = 0.0025823   $ Msr (Var)TechID: PreNResSplitAC-45to-PENo
 "CrnkMaxT" = 50   $ Msr (Var)TechID: PreNResSplitAC-45to-PENo
 "DXType" = SplitSEER   $ Msr (Var)TechID: PreNResSplitAC-45to-PENo
 "DesCoolT" = 75   $ IP Non-Tech
 "DesHeatT" = 73   $ IP Non-Tech
 "EER" = 11.07746479   $ Msr (Var)TechID: PreNResSplitAC-45to-PENo
 "EIR_fT" = SpltAC1Sp_EIR_fT   $ Msr (Var)TechID: PreNResSplitAC-45to-PENo
 "EconoCtrl" = FIXED   $ Msr (Multi)TechID: PreNResSplitAC-45to-PENo
 "EconoEnthLimit" = 28   $ IP Non-Tech
 "EconoTempLimit" = 71   $ IP Non-Tech
 "Elevation" = 395   $ IP Non-Tech
 "FanEirPlr" = TwoSpeedFan   $ Msr (Var)TechID: PreNResSplitAC-45to-PENo
 "FanWPerCfm" = 0.348   $ Msr (Var)TechID: PreNResSplitAC-45to-PENo
 "HDD_CloudAmt1" = 0   $ IP Non-Tech
 "HDD_DBHi1" = 55   $ IP Non-Tech
 "HDD_DBRange1" = 18   $ IP Non-Tech
 "HDD_Day1" = 15   $ IP Non-Tech
 "HDD_HrHi1" = 11   $ IP Non-Tech
 "HDD_HrLo1" = 6   $ IP Non-Tech
 "HDD_WB1" = 49.4   $ IP Non-Tech
 "HDD_WindSpd1" = 9.2   $ IP Non-Tech
 "HIR_fT" = 0   $ Msr (Var)TechID: PreNResSplitAC-45to-PENo
 "HSPF" = 0   $ Msr (Var)TechID: PreNResSplitAC-45to-PENo
 "Hall_EWSF" = 0.2   $ IP Non-Tech
 "Hall_LWSF" = 0.6   $ IP Non-Tech
 "HeatSrc" = FURNACE   $ IP Non-Tech
 "HeatSrcTU" = HEAT-PUMP   $ IP Non-Tech
 "HeatType" = GasFurn   $ IP Non-Tech
 "HeatTypeTU" = HEAT-PUMP   $ IP Non-Tech
 "HtCap_fT" = 0   $ Msr (Var)TechID: PreNResSplitAC-45to-PENo
 "HtCoolCapRatio" = 0   $ Msr (Var)TechID: PreNResSplitAC-45to-PENo
 "HtgEIR" = 0   $ Msr (Var)TechID: PreNResSplitAC-45to-PENo
 "IndoorFanMode" = CONTINUOUS   $ IP Non-Tech
 "KT_TransferAir" = No   $ IP Non-Tech
 "Latitude" = 33.8   $ IP Non-Tech
 "LobbyWaiting_EWSF" = 0.5   $ IP Non-Tech
 "LobbyWaiting_LWSF" = 1.3   $ IP Non-Tech
 "Longitude" = 118.2   $ IP Non-Tech
 "LowSpdCapRatio" = 1   $ Msr (Var)TechID: PreNResSplitAC-45to-PENo
 "LowSpdCfmRatio" = 1   $ Msr (Var)TechID: PreNResSplitAC-45to-PENo
 "MZFanMechEff" = 0.58   $ IP Non-Tech
 "MZHasRetFan" = FALSE   $ IP Non-Tech
 "MZ_RFanWPerCfm" = 0.33   $ IP Non-Tech
 "MZ_SFanWPerCfm" = 0.75   $ IP Non-Tech
 "MZ_SupFanStatic" = 2.25   $ IP Non-Tech
 "MaxOAFrac" = 1   $ Msr (Multi)TechID: PreNResSplitAC-45to-PENo
 "MaxSupT_MZ" = 100   $ IP Non-Tech
 "MaxSupT_SZ" = 100   $ IP Non-Tech
 "MaxSupT_TU" = 90   $ IP Non-Tech
 "MechElecRoom_EWSF" = 0.2   $ IP Non-Tech
 "MechElecRoom_LWSF" = 0.7   $ IP Non-Tech
 "MinCfmPerSF" = 0.4   $ IP Non-Tech
 "MinSupT" = 55   $ IP Non-Tech
 "NumStages" = 1   $ Msr (Var)TechID: PreNResSplitAC-45to-PENo
 "OccCoolT" = 76   $ IP Non-Tech
 "OccHeatT" = 72   $ IP Non-Tech
 "OfficeOpen_EWSF" = 1.5   $ IP Non-Tech
 "OfficeOpen_LWSF" = 1.2   $ IP Non-Tech
 "OfficeSmall_EWSF" = 1.5   $ IP Non-Tech
 "OfficeSmall_LWSF" = 1.3   $ IP Non-Tech
 "PkgDxVintEconoFlag" = 0   $ IP Non-Tech
 "Restroom_EWSF" = 0.2   $ IP Non-Tech
 "Restroom_LWSF" = 0.6   $ IP Non-Tech
 "SEER" = 13   $ Msr (Var)TechID: PreNResSplitAC-45to-PENo
 "SZFanMechEff" = 0.58   $ IP Non-Tech
 "SZHasRetFan" = FALSE   $ IP Non-Tech
 "SZ_Is_2Spd" = FALSE   $ IP Non-Tech
 "SZ_SFanWPerCfm" = 0.46   $ IP Non-Tech
 "SZ_SupFanStatic" = 0.75   $ IP Non-Tech
 "Sector" = Any   $ Msr (Var)TechID: PreNResSplitAC-45to-PENo
 "StorageSmlCond_EWSF" = 0.2   $ IP Non-Tech
 "StorageSmlCond_LWSF" = 0.6   $ IP Non-Tech
 "SubType" = AC   $ Msr (Var)TechID: PreNResSplitAC-45to-PENo
 "T24GlzTbl" = CZTbl   $ IP Non-Tech
 "TermUnitFanMechEff" = 1   $ IP Non-Tech
 "TermUnitFanMode" = INTERMITTENT   $ IP Non-Tech
 "TotCoolCap" = 34895   $ Msr (Var)TechID: PreNResSplitAC-45to-PENo
 "TwrSetpt" = 80.5   $ IP Non-Tech
 "UnocCoolT" = 86   $ IP Non-Tech
 "UnocHeatT" = 62   $ IP Non-Tech
 "UseEconoVintApplic" = FALSE   $ Msr (Multi)TechID: PreNResSplitAC-45to-PENo
 "WlhpVintEconoFlag" = 0   $ IP Non-Tech
 "DuctDT" = 1   $ IP Tech: ComDuctInsul-1
 "DuctAirLoss" = 0   $ IP Tech: ComDuctLeak-0
 "DuctLossOAFrac" = 0   $ IP Tech: ComDuctLeak-0
 "ComRoofInsCalc" = FromUo   $ IP Tech: ComRoofIns-WFrm-0.08
 "ComRoofInsR" = -999   $ IP Tech: ComRoofIns-WFrm-0.08
 "ComRoofUo" = 0.08   $ IP Tech: ComRoofIns-WFrm-0.08
 "ComEWInsCalc" = FromUo   $ IP Tech: ComWallIns-WFrm-0.09
 "ComEWInsR" = -999   $ IP Tech: ComWallIns-WFrm-0.09
 "ComEWUo" = 0.09   $ IP Tech: ComWallIns-WFrm-0.09
 "ComN_SHGC" = 0.61   $ IP Tech: NResWin-ComN-0.77-0.61
 "ComN_UFactor" = 0.77   $ IP Tech: NResWin-ComN-0.77-0.61
 "ComN_VisTrans" = 0.77   $ IP Tech: NResWin-ComN-0.77-0.61
 "ComN_WinCode" = G2600   $ IP Tech: NResWin-ComN-0.77-0.61
 "ComN_WinFrmFrac" = 0.17   $ IP Tech: NResWin-ComN-0.77-0.61
 "ComN_WinFrmU" = 1   $ IP Tech: NResWin-ComN-0.77-0.61
 "ComO_SHGC" = 0.34   $ IP Tech: NResWin-ComO-0.77-0.34
 "ComO_UFactor" = 0.77   $ IP Tech: NResWin-ComO-0.77-0.34
 "ComO_VisTrans" = 0.44   $ IP Tech: NResWin-ComO-0.77-0.34
 "ComO_WinCode" = G2636   $ IP Tech: NResWin-ComO-0.77-0.34
 "ComO_WinFrmFrac" = 0.17   $ IP Tech: NResWin-ComO-0.77-0.34
 "ComO_WinFrmU" = 1   $ IP Tech: NResWin-ComO-0.77-0.34
 "LtgMsrApplic" = ALL   $ IP Tech: NonResLtgRefPre
 "LtgSav_CFL" = 0   $ IP Tech: NonResLtgRefPre
 "LtgSav_EX" = 0   $ IP Tech: NonResLtgRefPre
 "LtgSav_HB" = 0   $ IP Tech: NonResLtgRefPre
 "LtgSav_LF" = 0   $ IP Tech: NonResLtgRefPre
 "LtgSav_SP" = 0   $ IP Tech: NonResLtgRefPre
 "CEIR_fPLR" = PSZ65to135_CEIR_fPLR   $ IP Tech: PkgAC1SpH-65to135-E10
 "CLoss_fPLR" = PSZ65to135_CLoss_fPLR   $ IP Tech: PkgAC1SpH-65to135-E10
 "COP" = -1   $ IP Tech: PkgAC1SpH-65to135-E10
 "HtgFuel" = Gas   $ IP Tech: PkgAC1SpH-65to135-E10
 "IEER" = 11.87   $ IP Tech: PkgAC1SpH-65to135-E10
 "NominalCap" = 15   $ IP Tech: PkgAC1SpH-65to135-E10
 "RatedEER" = 10   $ IP Tech: PkgAC1SpH-65to135-E10
 "RatedSupMtrClass" = HiEff   $ IP Tech: PkgAC1SpH-65to135-E10
 "SizeRange" = 65to135   $ IP Tech: PkgAC1SpH-65to135-E10
 "SupMotEff" = 0.84   $ IP Tech: PkgAC1SpH-65to135-E10
 "Tier" = 0   $ IP Tech: PkgAC1SpH-65to135-E10
 "FanPwrMult" = 1   $ IP Tech: PkgFurn-0.80AFUE
 "FurnAFUE" = 0.8   $ IP Tech: PkgFurn-0.80AFUE
 "FurnEt" = 0.82   $ IP Tech: PkgFurn-0.80AFUE
 "FurnaceAuxKW" = 0.1   $ IP Tech: PkgFurn-0.80AFUE
 "HIR_fPLR" = Furnace-HIR-fPLR   $ IP Tech: PkgFurn-0.80AFUE
 "VSM" = FALSE   $ IP Tech: PkgFurn-0.80AFUE
 "BFMult" = 1   $ IP Tech: RefgChg-NRes-Std
 "CoolEirMult" = 1   $ IP Tech: RefgChg-NRes-Std
 "SensCoolCapMult" = 1   $ IP Tech: RefgChg-NRes-Std
 "TotCoolCapMult" = 1   $ IP Tech: RefgChg-NRes-Std
 "AltAdjFactor" = 1.014676   $ Sizing
 "CAssFlo_L_Break_CZn" = 414.958   $ Sizing
 "CAssFlo_L_CompDC_CZn" = 143.4693   $ Sizing
 "CAssFlo_L_Conf_CZn" = 235.6818   $ Sizing
 "CAssFlo_L_CopyRm_CZn" = 83.43623   $ Sizing
 "CAssFlo_L_Hall_EZn" = 120.7095   $ Sizing
 "CAssFlo_L_Hall_NZn" = 58.0527   $ Sizing
 "CAssFlo_L_Hall_SZn" = 128.306   $ Sizing
 "CAssFlo_L_Hall_WZn" = 131.9171   $ Sizing
 "CAssFlo_L_LobWait_EZn" = 287.7258   $ Sizing
 "CAssFlo_L_LobWait_NZn" = 157.8923   $ Sizing
 "CAssFlo_L_LobWait_SZn" = 307.5896   $ Sizing
 "CAssFlo_L_LobWait_WZn" = 330.7133   $ Sizing
 "CAssFlo_L_MechElec_CZn" = 71.2998   $ Sizing
 "CAssFlo_L_OfficeOpn_CZn" = 69.11568   $ Sizing
 "CAssFlo_L_OfficeOpn_EZn" = 516.0179   $ Sizing
 "CAssFlo_L_OfficeOpn_NZn" = 332.4815   $ Sizing
 "CAssFlo_L_OfficeOpn_SZn" = 513.168   $ Sizing
 "CAssFlo_L_OfficeOpn_WZn" = 556.6971   $ Sizing
 "CAssFlo_L_OfficeSm_EZn" = 433.8805   $ Sizing
 "CAssFlo_L_OfficeSm_NZn" = 260.5442   $ Sizing
 "CAssFlo_L_OfficeSm_SZn" = 449.6689   $ Sizing
 "CAssFlo_L_OfficeSm_WZn" = 480.9548   $ Sizing
 "CAssFlo_L_Restrm_CZn" = 78.75716   $ Sizing
 "CAssFlo_L_StorSm_CZn" = 34.35336   $ Sizing
 "CAssFlo_L_StorSm_EZn" = 118.2506   $ Sizing
 "CAssFlo_L_StorSm_NZn" = 56.06505   $ Sizing
 "CAssFlo_L_StorSm_SZn" = 124.106   $ Sizing
 "CAssFlo_L_StorSm_WZn" = 124.0295   $ Sizing
 "CAssFlo_T_Conf_CZn" = 230.5721   $ Sizing
 "CAssFlo_T_Hall_EZn" = 132.2103   $ Sizing
 "CAssFlo_T_Hall_NZn" = 68.52168   $ Sizing
 "CAssFlo_T_Hall_SZn" = 145.6415   $ Sizing
 "CAssFlo_T_Hall_WZn" = 144.6776   $ Sizing
 "CAssFlo_T_OfficeOpn_CZn" = 59.81812   $ Sizing
 "CAssFlo_T_OfficeOpn_EZn" = 532.4695   $ Sizing
 "CAssFlo_T_OfficeOpn_NZn" = 358.7488   $ Sizing
 "CAssFlo_T_OfficeOpn_SZn" = 559.8375   $ Sizing
 "CAssFlo_T_OfficeOpn_WZn" = 588.1373   $ Sizing
 "CAssFlo_T_OfficeSm_EZn" = 451.8705   $ Sizing
 "CAssFlo_T_OfficeSm_NZn" = 284.085   $ Sizing
 "CAssFlo_T_OfficeSm_SZn" = 490.3688   $ Sizing
 "CAssFlo_T_OfficeSm_WZn" = 508.5352   $ Sizing
 "CAssFlo_T_Restrm_CZn" = 123.2426   $ Sizing
 "CAssFlo_T_StorSm_EZn" = 134.9156   $ Sizing
 "CAssFlo_T_StorSm_NZn" = 71.52701   $ Sizing
 "CAssFlo_T_StorSm_SZn" = 148.6299   $ Sizing
 "CAssFlo_T_StorSm_WZn" = 149.0928   $ Sizing
 "CHRtFlo_Sys_L_Break_C" = 414.958   $ Sizing
 "CHRtFlo_Sys_L_CompDC_C" = 176.3949   $ Sizing
 "CHRtFlo_Sys_L_Conf_C" = 235.6818   $ Sizing
 "CHRtFlo_Sys_L_CopyRm_C" = 89.7766   $ Sizing
 "CHRtFlo_Sys_L_Hall_E" = 148.6505   $ Sizing
 "CHRtFlo_Sys_L_Hall_N" = 59.93476   $ Sizing
 "CHRtFlo_Sys_L_Hall_S" = 160.3075   $ Sizing
 "CHRtFlo_Sys_L_Hall_W" = 151.715   $ Sizing
 "CHRtFlo_Sys_L_LobWait_E" = 346.7756   $ Sizing
 "CHRtFlo_Sys_L_LobWait_N" = 157.8923   $ Sizing
 "CHRtFlo_Sys_L_LobWait_S" = 371.2039   $ Sizing
 "CHRtFlo_Sys_L_LobWait_W" = 360.562   $ Sizing
 "CHRtFlo_Sys_L_MechElec_C" = 97.00731   $ Sizing
 "CHRtFlo_Sys_L_OfficeOpn_C" = 82.73206   $ Sizing
 "CHRtFlo_Sys_L_OfficeOpn_E" = 621.603   $ Sizing
 "CHRtFlo_Sys_L_OfficeOpn_N" = 346.8782   $ Sizing
 "CHRtFlo_Sys_L_OfficeOpn_S" = 624.6425   $ Sizing
 "CHRtFlo_Sys_L_OfficeOpn_W" = 626.9724   $ Sizing
 "CHRtFlo_Sys_L_OfficeSm_E" = 533.1608   $ Sizing
 "CHRtFlo_Sys_L_OfficeSm_N" = 275.2277   $ Sizing
 "CHRtFlo_Sys_L_OfficeSm_S" = 551.2436   $ Sizing
 "CHRtFlo_Sys_L_OfficeSm_W" = 550.6589   $ Sizing
 "CHRtFlo_Sys_L_Restrm_C" = 92.83958   $ Sizing
 "CHRtFlo_Sys_L_StorSm_C" = 41.06292   $ Sizing
 "CHRtFlo_Sys_L_StorSm_E" = 143.4383   $ Sizing
 "CHRtFlo_Sys_L_StorSm_N" = 59.8404   $ Sizing
 "CHRtFlo_Sys_L_StorSm_S" = 152.7343   $ Sizing
 "CHRtFlo_Sys_L_StorSm_W" = 137.4855   $ Sizing
 "CHRtFlo_Sys_T_Conf_C" = 230.5721   $ Sizing
 "CHRtFlo_Sys_T_Hall_E" = 154.7639   $ Sizing
 "CHRtFlo_Sys_T_Hall_N" = 68.52168   $ Sizing
 "CHRtFlo_Sys_T_Hall_S" = 169.0015   $ Sizing
 "CHRtFlo_Sys_T_Hall_W" = 156.9473   $ Sizing
 "CHRtFlo_Sys_T_OfficeOpn_C" = 68.59634   $ Sizing
 "CHRtFlo_Sys_T_OfficeOpn_E" = 603.7244   $ Sizing
 "CHRtFlo_Sys_T_OfficeOpn_N" = 358.7488   $ Sizing
 "CHRtFlo_Sys_T_OfficeOpn_S" = 635.0284   $ Sizing
 "CHRtFlo_Sys_T_OfficeOpn_W" = 606.5898   $ Sizing
 "CHRtFlo_Sys_T_OfficeSm_E" = 521.8185   $ Sizing
 "CHRtFlo_Sys_T_OfficeSm_N" = 284.085   $ Sizing
 "CHRtFlo_Sys_T_OfficeSm_S" = 564.0268   $ Sizing
 "CHRtFlo_Sys_T_OfficeSm_W" = 538.3289   $ Sizing
 "CHRtFlo_Sys_T_Restrm_C" = 141.7123   $ Sizing
 "CHRtFlo_Sys_T_StorSm_E" = 152.074   $ Sizing
 "CHRtFlo_Sys_T_StorSm_N" = 71.52701   $ Sizing
 "CHRtFlo_Sys_T_StorSm_S" = 164.0627   $ Sizing
 "CHRtFlo_Sys_T_StorSm_W" = 152.1182   $ Sizing
 "CRtdFlo_Sys_L_Break_C" = 414.958   $ Sizing
 "CRtdFlo_Sys_L_CompDC_C" = 143.4693   $ Sizing
 "CRtdFlo_Sys_L_Conf_C" = 235.6818   $ Sizing
 "CRtdFlo_Sys_L_CopyRm_C" = 83.43623   $ Sizing
 "CRtdFlo_Sys_L_Hall_E" = 120.7095   $ Sizing
 "CRtdFlo_Sys_L_Hall_N" = 58.0527   $ Sizing
 "CRtdFlo_Sys_L_Hall_S" = 128.306   $ Sizing
 "CRtdFlo_Sys_L_Hall_W" = 131.9171   $ Sizing
 "CRtdFlo_Sys_L_LobWait_E" = 287.7258   $ Sizing
 "CRtdFlo_Sys_L_LobWait_N" = 157.8923   $ Sizing
 "CRtdFlo_Sys_L_LobWait_S" = 307.5896   $ Sizing
 "CRtdFlo_Sys_L_LobWait_W" = 330.7133   $ Sizing
 "CRtdFlo_Sys_L_MechElec_C" = 71.2998   $ Sizing
 "CRtdFlo_Sys_L_OfficeOpn_C" = 69.11568   $ Sizing
 "CRtdFlo_Sys_L_OfficeOpn_E" = 516.0179   $ Sizing
 "CRtdFlo_Sys_L_OfficeOpn_N" = 332.4815   $ Sizing
 "CRtdFlo_Sys_L_OfficeOpn_S" = 513.168   $ Sizing
 "CRtdFlo_Sys_L_OfficeOpn_W" = 556.6971   $ Sizing
 "CRtdFlo_Sys_L_OfficeSm_E" = 433.8805   $ Sizing
 "CRtdFlo_Sys_L_OfficeSm_N" = 260.5442   $ Sizing
 "CRtdFlo_Sys_L_OfficeSm_S" = 449.6689   $ Sizing
 "CRtdFlo_Sys_L_OfficeSm_W" = 480.9548   $ Sizing
 "CRtdFlo_Sys_L_Restrm_C" = 78.75716   $ Sizing
 "CRtdFlo_Sys_L_StorSm_C" = 34.35336   $ Sizing
 "CRtdFlo_Sys_L_StorSm_E" = 118.2506   $ Sizing
 "CRtdFlo_Sys_L_StorSm_N" = 56.06505   $ Sizing
 "CRtdFlo_Sys_L_StorSm_S" = 124.106   $ Sizing
 "CRtdFlo_Sys_L_StorSm_W" = 124.0295   $ Sizing
 "CRtdFlo_Sys_T_Conf_C" = 230.5721   $ Sizing
 "CRtdFlo_Sys_T_Hall_E" = 132.2103   $ Sizing
 "CRtdFlo_Sys_T_Hall_N" = 68.52168   $ Sizing
 "CRtdFlo_Sys_T_Hall_S" = 145.6415   $ Sizing
 "CRtdFlo_Sys_T_Hall_W" = 144.6776   $ Sizing
 "CRtdFlo_Sys_T_OfficeOpn_C" = 59.81811   $ Sizing
 "CRtdFlo_Sys_T_OfficeOpn_E" = 532.4695   $ Sizing
 "CRtdFlo_Sys_T_OfficeOpn_N" = 358.7488   $ Sizing
 "CRtdFlo_Sys_T_OfficeOpn_S" = 559.8375   $ Sizing
 "CRtdFlo_Sys_T_OfficeOpn_W" = 588.1374   $ Sizing
 "CRtdFlo_Sys_T_OfficeSm_E" = 451.8705   $ Sizing
 "CRtdFlo_Sys_T_OfficeSm_N" = 284.085   $ Sizing
 "CRtdFlo_Sys_T_OfficeSm_S" = 490.3688   $ Sizing
 "CRtdFlo_Sys_T_OfficeSm_W" = 508.5352   $ Sizing
 "CRtdFlo_Sys_T_Restrm_C" = 123.2426   $ Sizing
 "CRtdFlo_Sys_T_StorSm_E" = 134.9156   $ Sizing
 "CRtdFlo_Sys_T_StorSm_N" = 71.52701   $ Sizing
 "CRtdFlo_Sys_T_StorSm_S" = 148.6299   $ Sizing
 "CRtdFlo_Sys_T_StorSm_W" = 149.0928   $ Sizing
 "CSupFlo_Sys_L_Break_C" = 414.958   $ Sizing
 "CSupFlo_Sys_L_CompDC_C" = 143.4693   $ Sizing
 "CSupFlo_Sys_L_Conf_C" = 235.6818   $ Sizing
 "CSupFlo_Sys_L_CopyRm_C" = 83.43623   $ Sizing
 "CSupFlo_Sys_L_Hall_E" = 120.7095   $ Sizing
 "CSupFlo_Sys_L_Hall_N" = 58.0527   $ Sizing
 "CSupFlo_Sys_L_Hall_S" = 128.306   $ Sizing
 "CSupFlo_Sys_L_Hall_W" = 131.9171   $ Sizing
 "CSupFlo_Sys_L_LobWait_E" = 287.7258   $ Sizing
 "CSupFlo_Sys_L_LobWait_N" = 157.8923   $ Sizing
 "CSupFlo_Sys_L_LobWait_S" = 307.5896   $ Sizing
 "CSupFlo_Sys_L_LobWait_W" = 330.7133   $ Sizing
 "CSupFlo_Sys_L_MechElec_C" = 71.2998   $ Sizing
 "CSupFlo_Sys_L_OfficeOpn_C" = 69.11568   $ Sizing
 "CSupFlo_Sys_L_OfficeOpn_E" = 516.0179   $ Sizing
 "CSupFlo_Sys_L_OfficeOpn_N" = 332.4815   $ Sizing
 "CSupFlo_Sys_L_OfficeOpn_S" = 513.168   $ Sizing
 "CSupFlo_Sys_L_OfficeOpn_W" = 556.6971   $ Sizing
 "CSupFlo_Sys_L_OfficeSm_E" = 433.8805   $ Sizing
 "CSupFlo_Sys_L_OfficeSm_N" = 260.5442   $ Sizing
 "CSupFlo_Sys_L_OfficeSm_S" = 449.6689   $ Sizing
 "CSupFlo_Sys_L_OfficeSm_W" = 480.9548   $ Sizing
 "CSupFlo_Sys_L_Restrm_C" = 78.75716   $ Sizing
 "CSupFlo_Sys_L_StorSm_C" = 34.35336   $ Sizing
 "CSupFlo_Sys_L_StorSm_E" = 118.2506   $ Sizing
 "CSupFlo_Sys_L_StorSm_N" = 56.06505   $ Sizing
 "CSupFlo_Sys_L_StorSm_S" = 124.106   $ Sizing
 "CSupFlo_Sys_L_StorSm_W" = 124.0295   $ Sizing
 "CSupFlo_Sys_T_Conf_C" = 230.5721   $ Sizing
 "CSupFlo_Sys_T_Hall_E" = 132.2103   $ Sizing
 "CSupFlo_Sys_T_Hall_N" = 68.52168   $ Sizing
 "CSupFlo_Sys_T_Hall_S" = 145.6415   $ Sizing
 "CSupFlo_Sys_T_Hall_W" = 144.6776   $ Sizing
 "CSupFlo_Sys_T_OfficeOpn_C" = 59.81811   $ Sizing
 "CSupFlo_Sys_T_OfficeOpn_E" = 532.4695   $ Sizing
 "CSupFlo_Sys_T_OfficeOpn_N" = 358.7488   $ Sizing
 "CSupFlo_Sys_T_OfficeOpn_S" = 559.8375   $ Sizing
 "CSupFlo_Sys_T_OfficeOpn_W" = 588.1374   $ Sizing
 "CSupFlo_Sys_T_OfficeSm_E" = 451.8705   $ Sizing
 "CSupFlo_Sys_T_OfficeSm_N" = 284.085   $ Sizing
 "CSupFlo_Sys_T_OfficeSm_S" = 490.3688   $ Sizing
 "CSupFlo_Sys_T_OfficeSm_W" = 508.5352   $ Sizing
 "CSupFlo_Sys_T_Restrm_C" = 123.2426   $ Sizing
 "CSupFlo_Sys_T_StorSm_E" = 134.9156   $ Sizing
 "CSupFlo_Sys_T_StorSm_N" = 71.52701   $ Sizing
 "CSupFlo_Sys_T_StorSm_S" = 148.6299   $ Sizing
 "CSupFlo_Sys_T_StorSm_W" = 149.0928   $ Sizing
 "ClCap_Sys_L_Break_C" = 14021.35   $ Sizing
 "ClCap_Sys_L_CompDC_C" = 4847.799   $ Sizing
 "ClCap_Sys_L_Conf_C" = 10135.55   $ Sizing
 "ClCap_Sys_L_CopyRm_C" = 2819.295   $ Sizing
 "ClCap_Sys_L_Hall_E" = 4078.753   $ Sizing
 "ClCap_Sys_L_Hall_N" = 1961.59   $ Sizing
 "ClCap_Sys_L_Hall_S" = 4335.437   $ Sizing
 "ClCap_Sys_L_Hall_W" = 4457.454   $ Sizing
 "ClCap_Sys_L_LobWait_E" = 9722.201   $ Sizing
 "ClCap_Sys_L_LobWait_N" = 5335.151   $ Sizing
 "ClCap_Sys_L_LobWait_S" = 10393.39   $ Sizing
 "ClCap_Sys_L_LobWait_W" = 11174.74   $ Sizing
 "ClCap_Sys_L_MechElec_C" = 2409.207   $ Sizing
 "ClCap_Sys_L_OfficeOpn_C" = 2335.406   $ Sizing
 "ClCap_Sys_L_OfficeOpn_E" = 17436.15   $ Sizing
 "ClCap_Sys_L_OfficeOpn_N" = 11234.49   $ Sizing
 "ClCap_Sys_L_OfficeOpn_S" = 17339.85   $ Sizing
 "ClCap_Sys_L_OfficeOpn_W" = 18810.69   $ Sizing
 "ClCap_Sys_L_OfficeSm_E" = 14660.74   $ Sizing
 "ClCap_Sys_L_OfficeSm_N" = 8803.739   $ Sizing
 "ClCap_Sys_L_OfficeSm_S" = 15194.23   $ Sizing
 "ClCap_Sys_L_OfficeSm_W" = 16251.37   $ Sizing
 "ClCap_Sys_L_Restrm_C" = 2661.189   $ Sizing
 "ClCap_Sys_L_StorSm_C" = 1160.793   $ Sizing
 "ClCap_Sys_L_StorSm_E" = 3995.667   $ Sizing
 "ClCap_Sys_L_StorSm_N" = 1894.427   $ Sizing
 "ClCap_Sys_L_StorSm_S" = 4193.519   $ Sizing
 "ClCap_Sys_L_StorSm_W" = 4190.932   $ Sizing
 "ClCap_Sys_T_Conf_C" = 9915.804   $ Sizing
 "ClCap_Sys_T_Hall_E" = 4467.363   $ Sizing
 "ClCap_Sys_T_Hall_N" = 2315.334   $ Sizing
 "ClCap_Sys_T_Hall_S" = 4921.198   $ Sizing
 "ClCap_Sys_T_Hall_W" = 4888.629   $ Sizing
 "ClCap_Sys_T_OfficeOpn_C" = 2021.243   $ Sizing
 "ClCap_Sys_T_OfficeOpn_E" = 17992.04   $ Sizing
 "ClCap_Sys_T_OfficeOpn_N" = 12122.05   $ Sizing
 "ClCap_Sys_T_OfficeOpn_S" = 18916.8   $ Sizing
 "ClCap_Sys_T_OfficeOpn_W" = 19873.05   $ Sizing
 "ClCap_Sys_T_OfficeSm_E" = 15268.62   $ Sizing
 "ClCap_Sys_T_OfficeSm_N" = 9599.178   $ Sizing
 "ClCap_Sys_T_OfficeSm_S" = 16569.47   $ Sizing
 "ClCap_Sys_T_OfficeSm_W" = 17183.31   $ Sizing
 "ClCap_Sys_T_Restrm_C" = 4164.345   $ Sizing
 "ClCap_Sys_T_StorSm_E" = 4558.773   $ Sizing
 "ClCap_Sys_T_StorSm_N" = 2416.884   $ Sizing
 "ClCap_Sys_T_StorSm_S" = 5022.176   $ Sizing
 "ClCap_Sys_T_StorSm_W" = 5037.818   $ Sizing
 "HtCap_Sys_L_Break_C" = -21659.2   $ Sizing
 "HtCap_Sys_L_CompDC_C" = -8501.95   $ Sizing
 "HtCap_Sys_L_Conf_C" = -12794.18   $ Sizing
 "HtCap_Sys_L_CopyRm_C" = -4710.932   $ Sizing
 "HtCap_Sys_L_Hall_E" = -5108.738   $ Sizing
 "HtCap_Sys_L_Hall_N" = -2240.393   $ Sizing
 "HtCap_Sys_L_Hall_S" = -5159.015   $ Sizing
 "HtCap_Sys_L_Hall_W" = -5055.48   $ Sizing
 "HtCap_Sys_L_LobWait_E" = -11550.36   $ Sizing
 "HtCap_Sys_L_LobWait_N" = -6748.121   $ Sizing
 "HtCap_Sys_L_LobWait_S" = -12965.18   $ Sizing
 "HtCap_Sys_L_LobWait_W" = -12673.34   $ Sizing
 "HtCap_Sys_L_MechElec_C" = -3750.042   $ Sizing
 "HtCap_Sys_L_OfficeOpn_C" = -3018.132   $ Sizing
 "HtCap_Sys_L_OfficeOpn_E" = -20458.63   $ Sizing
 "HtCap_Sys_L_OfficeOpn_N" = -13379.77   $ Sizing
 "HtCap_Sys_L_OfficeOpn_S" = -20117.8   $ Sizing
 "HtCap_Sys_L_OfficeOpn_W" = -21398.77   $ Sizing
 "HtCap_Sys_L_OfficeSm_E" = -17800.29   $ Sizing
 "HtCap_Sys_L_OfficeSm_N" = -10283.43   $ Sizing
 "HtCap_Sys_L_OfficeSm_S" = -17507.92   $ Sizing
 "HtCap_Sys_L_OfficeSm_W" = -18161.9   $ Sizing
 "HtCap_Sys_L_Restrm_C" = -3164.138   $ Sizing
 "HtCap_Sys_L_StorSm_C" = -1582.152   $ Sizing
 "HtCap_Sys_L_StorSm_E" = -4836.851   $ Sizing
 "HtCap_Sys_L_StorSm_N" = -2538.79   $ Sizing
 "HtCap_Sys_L_StorSm_S" = -5174.129   $ Sizing
 "HtCap_Sys_L_StorSm_W" = -4897.417   $ Sizing
 "HtCap_Sys_T_Conf_C" = -12994.41   $ Sizing
 "HtCap_Sys_T_Hall_E" = -5810.117   $ Sizing
 "HtCap_Sys_T_Hall_N" = -2906.112   $ Sizing
 "HtCap_Sys_T_Hall_S" = -6273.848   $ Sizing
 "HtCap_Sys_T_Hall_W" = -5882.098   $ Sizing
 "HtCap_Sys_T_OfficeOpn_C" = -2890.202   $ Sizing
 "HtCap_Sys_T_OfficeOpn_E" = -22489.43   $ Sizing
 "HtCap_Sys_T_OfficeOpn_N" = -15129.56   $ Sizing
 "HtCap_Sys_T_OfficeOpn_S" = -23863.2   $ Sizing
 "HtCap_Sys_T_OfficeOpn_W" = -23210.28   $ Sizing
 "HtCap_Sys_T_OfficeSm_E" = -19260.81   $ Sizing
 "HtCap_Sys_T_OfficeSm_N" = -11750.11   $ Sizing
 "HtCap_Sys_T_OfficeSm_S" = -20381.98   $ Sizing
 "HtCap_Sys_T_OfficeSm_W" = -20021.88   $ Sizing
 "HtCap_Sys_T_Restrm_C" = -5329.361   $ Sizing
 "HtCap_Sys_T_StorSm_E" = -6099.458   $ Sizing
 "HtCap_Sys_T_StorSm_N" = -3419.38   $ Sizing
 "HtCap_Sys_T_StorSm_S" = -6353.957   $ Sizing
 "HtCap_Sys_T_StorSm_W" = -6067.083   $ Sizing
..

##include Templates\OfS_DX_SZ.inp
END ..
COMPUTE ..
STOP ..
