INPUT ..

##fileprefix C:\Users\jglasskatz\MASControl3\
##set1 IsSizing FALSE
##set1 CoolType DX
##set1 HeatType FURNACE
##set1 EU_HrRepVar 0
##set1 BldgVint 2017
##set1 BldgLoc CZ08

 ##set1 mBFMult 1   $ IP Tech: RefgChg-NRes-Std

PARAMETER
 "AltFactor" = 1.01468   $ IP Non-Tech
 "BF_fFlow" = SpltAC1Sp-ge45_BF_fFlow   $ Msr (Multi)TechID: StdNResSplitAC-45to55
 "BF_fT" = SpltAC1Sp-ge45_BF_fT   $ Msr (Multi)TechID: StdNResSplitAC-45to55
 "BldgEconoFlag" = 1   $ IP Non-Tech
 "Break_EWSF" = 1   $ IP Non-Tech
 "Break_LWSF" = 0.9   $ IP Non-Tech
 "CDD_DBHi10" = 92   $ IP Non-Tech
 "CDD_DBHi7" = 84   $ IP Non-Tech
 "CDD_DBHi8" = 87   $ IP Non-Tech
 "CDD_DBHi9" = 91   $ IP Non-Tech
 "CDD_DBRange10" = 31   $ IP Non-Tech
 "CDD_DBRange7" = 16   $ IP Non-Tech
 "CDD_DBRange8" = 20   $ IP Non-Tech
 "CDD_DBRange9" = 23   $ IP Non-Tech
 "CDD_Day10" = 15   $ IP Non-Tech
 "CDD_Day7" = 16   $ IP Non-Tech
 "CDD_Day8" = 20   $ IP Non-Tech
 "CDD_Day9" = 17   $ IP Non-Tech
 "CDD_HrHi10" = 16   $ IP Non-Tech
 "CDD_HrHi7" = 14   $ IP Non-Tech
 "CDD_HrHi8" = 15   $ IP Non-Tech
 "CDD_HrHi9" = 13   $ IP Non-Tech
 "CDD_HrLo10" = 3   $ IP Non-Tech
 "CDD_HrLo7" = 4   $ IP Non-Tech
 "CDD_HrLo8" = 7   $ IP Non-Tech
 "CDD_HrLo9" = 7   $ IP Non-Tech
 "CDD_WB10" = 63.44163513   $ IP Non-Tech
 "CDD_WB7" = 69.12194824   $ IP Non-Tech
 "CDD_WB8" = 71.41388702   $ IP Non-Tech
 "CDD_WB9" = 69.41378784   $ IP Non-Tech
 "CEIR_fPLR_Hot" = SpltAC1Sp-ge45_CEIR_fPLR_Hot   $ Msr (Multi)TechID: StdNResSplitAC-45to55
 "CEIR_fPLR_Mod" = SpltAC1Sp-ge45_CEIR_fPLR_Mod   $ Msr (Multi)TechID: StdNResSplitAC-45to55
 "CEIR_fPLR_Tem" = SpltAC1Sp-ge45_CEIR_fPLR_Tem   $ Msr (Multi)TechID: StdNResSplitAC-45to55
 "CLoss_fPLR_Hot" = SpltAC1Sp-ge45_CLoss_fPLR_Hot   $ Msr (Multi)TechID: StdNResSplitAC-45to55
 "CLoss_fPLR_Mod" = SpltAC1Sp-ge45_CLoss_fPLR_Mod   $ Msr (Multi)TechID: StdNResSplitAC-45to55
 "CLoss_fPLR_Tem" = SpltAC1Sp-ge45_CLoss_fPLR_Tem   $ Msr (Multi)TechID: StdNResSplitAC-45to55
 "COP47" = 0   $ Msr (Multi)TechID: StdNResSplitAC-45to55
 "CZ_Category" = Mod   $ IP Non-Tech
 "CapRange" = ge45   $ Msr (Multi)TechID: StdNResSplitAC-45to55
 "CfmPerBtuh" = 0.03263   $ Msr (Multi)TechID: StdNResSplitAC-45to55
 "ChwVintEconoFlag" = 1   $ IP Non-Tech
 "ClCap_fT" = SpltAC1Sp-ge45_ClCap_fT   $ Msr (Multi)TechID: StdNResSplitAC-45to55
 "ClSH_fT" = SpltAC1Sp-ge45_ClSH_fT   $ Msr (Multi)TechID: StdNResSplitAC-45to55
 "CoilBF" = 0.106518182   $ Msr (Multi)TechID: StdNResSplitAC-45to55
 "CompRoomData_EWSF" = 5   $ IP Non-Tech
 "CompRoomData_LWSF" = 1.05   $ IP Non-Tech
 "CondWPerBtuh" = 0   $ Msr (Multi)TechID: StdNResSplitAC-45to55
 "Conference_EWSF" = 1   $ IP Non-Tech
 "Conference_LWSF" = 1.2   $ IP Non-Tech
 "CoolSensCap" = 0.759218182   $ Msr (Multi)TechID: StdNResSplitAC-45to55
 "CoolSetT" = 45   $ IP Non-Tech
 "CoolType" = DX   $ IP Non-Tech
 "CoolingEIR" = 0.2466   $ Msr (Multi)TechID: StdNResSplitAC-45to55
 "CopyRoom_EWSF" = 1.5   $ IP Non-Tech
 "CopyRoom_LWSF" = 1.3   $ IP Non-Tech
 "CrnkEIR" = 0.002466   $ Msr (Multi)TechID: StdNResSplitAC-45to55
 "CrnkMaxT" = 50   $ Msr (Multi)TechID: StdNResSplitAC-45to55
 "DXType" = SplitSEER   $ Msr (Multi)TechID: StdNResSplitAC-45to55
 "DesCoolT" = 75   $ IP Non-Tech
 "DesHeatT" = 73   $ IP Non-Tech
 "EER" = 11.81793103   $ Msr (Multi)TechID: StdNResSplitAC-45to55
 "EIR_fT" = SpltAC1Sp-ge45_EIR_fT   $ Msr (Multi)TechID: StdNResSplitAC-45to55
 "EconoCtrl" = FIXED   $ Msr (Multi)TechID: StdNResSplitAC-45to55
 "EconoEnthLimit" = 28   $ IP Non-Tech
 "EconoTempLimit" = 71   $ IP Non-Tech
 "Elevation" = 395   $ IP Non-Tech
 "FanEirPlr" = TwoSpeedFan   $ Msr (Multi)TechID: StdNResSplitAC-45to55
 "FanWPerCfm" = 0.294   $ Msr (Multi)TechID: StdNResSplitAC-45to55
 "HDD_CloudAmt1" = 0   $ IP Non-Tech
 "HDD_DBHi1" = 55   $ IP Non-Tech
 "HDD_DBRange1" = 18   $ IP Non-Tech
 "HDD_Day1" = 15   $ IP Non-Tech
 "HDD_HrHi1" = 11   $ IP Non-Tech
 "HDD_HrLo1" = 6   $ IP Non-Tech
 "HDD_WB1" = 49.4   $ IP Non-Tech
 "HDD_WindSpd1" = 9.2   $ IP Non-Tech
 "HIR_fT" = 0   $ Msr (Multi)TechID: StdNResSplitAC-45to55
 "HSPF" = 0   $ Msr (Multi)TechID: StdNResSplitAC-45to55
 "Hall_EWSF" = 0.2   $ IP Non-Tech
 "Hall_LWSF" = 0.6   $ IP Non-Tech
 "HeatSrc" = FURNACE   $ IP Non-Tech
 "HeatSrcTU" = HEAT-PUMP   $ IP Non-Tech
 "HeatType" = GasFurn   $ IP Non-Tech
 "HeatTypeTU" = HEAT-PUMP   $ IP Non-Tech
 "HtCap_fT" = 0   $ Msr (Multi)TechID: StdNResSplitAC-45to55
 "HtCoolCapRatio" = 0   $ Msr (Multi)TechID: StdNResSplitAC-45to55
 "HtgEIR" = 0   $ Msr (Multi)TechID: StdNResSplitAC-45to55
 "IndoorFanMode" = CONTINUOUS   $ IP Non-Tech
 "KT_TransferAir" = Yes   $ IP Non-Tech
 "Latitude" = 33.8   $ IP Non-Tech
 "LobbyWaiting_EWSF" = 0.5   $ IP Non-Tech
 "LobbyWaiting_LWSF" = 0.875   $ IP Non-Tech
 "Longitude" = 118.2   $ IP Non-Tech
 "LowSpdCapRatio" = 1   $ Msr (Multi)TechID: StdNResSplitAC-45to55
 "LowSpdCfmRatio" = 1   $ Msr (Multi)TechID: StdNResSplitAC-45to55
 "MZFanMechEff" = 0.58   $ IP Non-Tech
 "MZHasRetFan" = FALSE   $ IP Non-Tech
 "MZ_RFanWPerCfm" = 0.33   $ IP Non-Tech
 "MZ_SFanWPerCfm" = 0.75   $ IP Non-Tech
 "MZ_SupFanStatic" = 2.25   $ IP Non-Tech
 "MaxOAFrac" = 1   $ Msr (Multi)TechID: StdNResSplitAC-45to55
 "MaxSupT_MZ" = 100   $ IP Non-Tech
 "MaxSupT_SZ" = 100   $ IP Non-Tech
 "MaxSupT_TU" = 90   $ IP Non-Tech
 "MechElecRoom_EWSF" = 0.2   $ IP Non-Tech
 "MechElecRoom_LWSF" = 0.55   $ IP Non-Tech
 "MinCfmPerSF" = 0.4   $ IP Non-Tech
 "MinSupT" = 55   $ IP Non-Tech
 "NumStages" = 1   $ Msr (Multi)TechID: StdNResSplitAC-45to55
 "OccCoolT" = 76   $ IP Non-Tech
 "OccHeatT" = 72   $ IP Non-Tech
 "OfficeOpen_EWSF" = 1.5   $ IP Non-Tech
 "OfficeOpen_LWSF" = 1.05   $ IP Non-Tech
 "OfficeSmall_EWSF" = 1.5   $ IP Non-Tech
 "OfficeSmall_LWSF" = 1.3   $ IP Non-Tech
 "PkgDxVintEconoFlag" = 1   $ IP Non-Tech
 "Restroom_EWSF" = 0.2   $ IP Non-Tech
 "Restroom_LWSF" = 0.6   $ IP Non-Tech
 "SEER" = 14   $ Msr (Multi)TechID: StdNResSplitAC-45to55
 "SZFanMechEff" = 0.58   $ IP Non-Tech
 "SZHasRetFan" = FALSE   $ IP Non-Tech
 "SZ_Is_2Spd" = TRUE   $ IP Non-Tech
 "SZ_SFanWPerCfm" = 0.46   $ IP Non-Tech
 "SZ_SupFanStatic" = 0.75   $ IP Non-Tech
 "Sector" = Any   $ Msr (Multi)TechID: StdNResSplitAC-45to55
 "StorageSmlCond_EWSF" = 0.2   $ IP Non-Tech
 "StorageSmlCond_LWSF" = 0.6   $ IP Non-Tech
 "SubType" = AC   $ Msr (Multi)TechID: StdNResSplitAC-45to55
 "TermUnitFanMechEff" = 1   $ IP Non-Tech
 "TermUnitFanMode" = INTERMITTENT   $ IP Non-Tech
 "TotCoolCap" = 52519.36364   $ Msr (Multi)TechID: StdNResSplitAC-45to55
 "TwrSetpt" = 80.5   $ IP Non-Tech
 "UnocCoolT" = 86   $ IP Non-Tech
 "UnocHeatT" = 62   $ IP Non-Tech
 "UseEconoVintApplic" = FALSE   $ Msr (Multi)TechID: StdNResSplitAC-45to55
 "WlhpVintEconoFlag" = 1   $ IP Non-Tech
 "DuctDT" = 1   $ IP Tech: ComDuctInsul-1
 "DuctAirLoss" = 0   $ IP Tech: ComDuctLeak-0
 "DuctLossOAFrac" = 0   $ IP Tech: ComDuctLeak-0
 "ComRoofInsCalc" = FromUo   $ IP Tech: ComRoofIns-WFrm-0.05
 "ComRoofInsR" = -999   $ IP Tech: ComRoofIns-WFrm-0.05
 "ComRoofUo" = 0.05   $ IP Tech: ComRoofIns-WFrm-0.05
 "ComEWInsCalc" = FromUo   $ IP Tech: ComWallIns-WFrm-0.09
 "ComEWInsR" = -999   $ IP Tech: ComWallIns-WFrm-0.09
 "ComEWUo" = 0.09   $ IP Tech: ComWallIns-WFrm-0.09
 "ComN_SHGC" = 0.25   $ IP Tech: NResWin-ComN-0.36-0.25
 "ComN_UFactor" = 0.36   $ IP Tech: NResWin-ComN-0.36-0.25
 "ComN_VisTrans" = 0.41   $ IP Tech: NResWin-ComN-0.36-0.25
 "ComN_WinCode" = G2668   $ IP Tech: NResWin-ComN-0.36-0.25
 "ComN_WinFrmFrac" = 0.17   $ IP Tech: NResWin-ComN-0.36-0.25
 "ComN_WinFrmU" = 0.3   $ IP Tech: NResWin-ComN-0.36-0.25
 "ComO_SHGC" = 0.25   $ IP Tech: NResWin-ComO-0.36-0.25
 "ComO_UFactor" = 0.36   $ IP Tech: NResWin-ComO-0.36-0.25
 "ComO_VisTrans" = 0.41   $ IP Tech: NResWin-ComO-0.36-0.25
 "ComO_WinCode" = G2668   $ IP Tech: NResWin-ComO-0.36-0.25
 "ComO_WinFrmFrac" = 0.17   $ IP Tech: NResWin-ComO-0.36-0.25
 "ComO_WinFrmU" = 0.3   $ IP Tech: NResWin-ComO-0.36-0.25
 "LtgMsrApplic" = ALL   $ IP Tech: NonResLtgRefPre
 "LtgSav_CFL" = 0   $ IP Tech: NonResLtgRefPre
 "LtgSav_EX" = 0   $ IP Tech: NonResLtgRefPre
 "LtgSav_HB" = 0   $ IP Tech: NonResLtgRefPre
 "LtgSav_LF" = 0   $ IP Tech: NonResLtgRefPre
 "LtgSav_SP" = 0   $ IP Tech: NonResLtgRefPre
 "CEIR_fPLR" = PSZ65to135_CEIR_fPLR   $ IP Tech: PkgAC2SpP-65to135-E11
 "CLoss_fPLR" = PSZ65to135_CLoss_fPLR   $ IP Tech: PkgAC2SpP-65to135-E11
 "COP" = -1   $ IP Tech: PkgAC2SpP-65to135-E11
 "HtgFuel" = Gas   $ IP Tech: PkgAC2SpP-65to135-E11
 "IEER" = 13.35   $ IP Tech: PkgAC2SpP-65to135-E11
 "NominalCap" = 15   $ IP Tech: PkgAC2SpP-65to135-E11
 "RatedEER" = 11   $ IP Tech: PkgAC2SpP-65to135-E11
 "RatedSupMtrClass" = Premium   $ IP Tech: PkgAC2SpP-65to135-E11
 "SizeRange" = 65to135   $ IP Tech: PkgAC2SpP-65to135-E11
 "SupMotEff" = 0.865   $ IP Tech: PkgAC2SpP-65to135-E11
 "Tier" = 0   $ IP Tech: PkgAC2SpP-65to135-E11
 "FanPwrMult" = 1   $ IP Tech: PkgFurn-0.80AFUE
 "FurnAFUE" = 0.8   $ IP Tech: PkgFurn-0.80AFUE
 "FurnEt" = 0.82   $ IP Tech: PkgFurn-0.80AFUE
 "FurnaceAuxKW" = 0.1   $ IP Tech: PkgFurn-0.80AFUE
 "HIR_fPLR" = Furnace-HIR-fPLR   $ IP Tech: PkgFurn-0.80AFUE
 "VSM" = FALSE   $ IP Tech: PkgFurn-0.80AFUE
 "BFMult" = 1   $ IP Tech: RefgChg-NRes-Std
 "CoolEirMult" = 1   $ IP Tech: RefgChg-NRes-Std
 "SensCoolCapMult" = 1   $ IP Tech: RefgChg-NRes-Std
 "TotCoolCapMult" = 1   $ IP Tech: RefgChg-NRes-Std
 "AltAdjFactor" = 1.014676   $ Sizing
 "CAssFlo_L_Break_CZn" = 404.5287   $ Sizing
 "CAssFlo_L_CompDC_CZn" = 141.3834   $ Sizing
 "CAssFlo_L_Conf_CZn" = 230.0336   $ Sizing
 "CAssFlo_L_CopyRm_CZn" = 82.66741   $ Sizing
 "CAssFlo_L_Hall_EZn" = 91.60048   $ Sizing
 "CAssFlo_L_Hall_NZn" = 42.5047   $ Sizing
 "CAssFlo_L_Hall_SZn" = 96.93941   $ Sizing
 "CAssFlo_L_Hall_WZn" = 100.7858   $ Sizing
 "CAssFlo_L_LobWait_EZn" = 219.811   $ Sizing
 "CAssFlo_L_LobWait_NZn" = 117.7593   $ Sizing
 "CAssFlo_L_LobWait_SZn" = 232.3895   $ Sizing
 "CAssFlo_L_LobWait_WZn" = 253.4594   $ Sizing
 "CAssFlo_L_MechElec_CZn" = 60.12956   $ Sizing
 "CAssFlo_L_OfficeOpn_CZn" = 68.45725   $ Sizing
 "CAssFlo_L_OfficeOpn_EZn" = 423.9817   $ Sizing
 "CAssFlo_L_OfficeOpn_NZn" = 280.5237   $ Sizing
 "CAssFlo_L_OfficeOpn_SZn" = 415.512   $ Sizing
 "CAssFlo_L_OfficeOpn_WZn" = 456.5348   $ Sizing
 "CAssFlo_L_OfficeSm_EZn" = 350.7895   $ Sizing
 "CAssFlo_L_OfficeSm_NZn" = 218.1818   $ Sizing
 "CAssFlo_L_OfficeSm_SZn" = 360.1561   $ Sizing
 "CAssFlo_L_OfficeSm_WZn" = 389.8068   $ Sizing
 "CAssFlo_L_Restrm_CZn" = 77.4724   $ Sizing
 "CAssFlo_L_StorSm_CZn" = 31.38836   $ Sizing
 "CAssFlo_L_StorSm_EZn" = 90.38654   $ Sizing
 "CAssFlo_L_StorSm_NZn" = 36.24459   $ Sizing
 "CAssFlo_L_StorSm_SZn" = 94.7851   $ Sizing
 "CAssFlo_L_StorSm_WZn" = 95.98171   $ Sizing
 "CAssFlo_T_Conf_CZn" = 225.2141   $ Sizing
 "CAssFlo_T_Hall_EZn" = 102.1073   $ Sizing
 "CAssFlo_T_Hall_NZn" = 50.18138   $ Sizing
 "CAssFlo_T_Hall_SZn" = 109.1578   $ Sizing
 "CAssFlo_T_Hall_WZn" = 109.7446   $ Sizing
 "CAssFlo_T_OfficeOpn_CZn" = 58.72228   $ Sizing
 "CAssFlo_T_OfficeOpn_EZn" = 433.7726   $ Sizing
 "CAssFlo_T_OfficeOpn_NZn" = 294.946   $ Sizing
 "CAssFlo_T_OfficeOpn_SZn" = 443.4673   $ Sizing
 "CAssFlo_T_OfficeOpn_WZn" = 471.9092   $ Sizing
 "CAssFlo_T_OfficeSm_EZn" = 365.2797   $ Sizing
 "CAssFlo_T_OfficeSm_NZn" = 231.2447   $ Sizing
 "CAssFlo_T_OfficeSm_SZn" = 386.0756   $ Sizing
 "CAssFlo_T_OfficeSm_WZn" = 405.254   $ Sizing
 "CAssFlo_T_Restrm_CZn" = 122.6082   $ Sizing
 "CAssFlo_T_StorSm_EZn" = 106.4668   $ Sizing
 "CAssFlo_T_StorSm_NZn" = 48.15175   $ Sizing
 "CAssFlo_T_StorSm_SZn" = 114.6097   $ Sizing
 "CAssFlo_T_StorSm_WZn" = 114.4582   $ Sizing
 "CHRtFlo_Sys_L_Break_C" = 404.5287   $ Sizing
 "CHRtFlo_Sys_L_CompDC_C" = 175.9752   $ Sizing
 "CHRtFlo_Sys_L_Conf_C" = 230.0336   $ Sizing
 "CHRtFlo_Sys_L_CopyRm_C" = 90.84315   $ Sizing
 "CHRtFlo_Sys_L_Hall_E" = 111.5308   $ Sizing
 "CHRtFlo_Sys_L_Hall_N" = 42.5047   $ Sizing
 "CHRtFlo_Sys_L_Hall_S" = 119.1606   $ Sizing
 "CHRtFlo_Sys_L_Hall_W" = 111.6122   $ Sizing
 "CHRtFlo_Sys_L_LobWait_E" = 258.679   $ Sizing
 "CHRtFlo_Sys_L_LobWait_N" = 117.7593   $ Sizing
 "CHRtFlo_Sys_L_LobWait_S" = 270.3716   $ Sizing
 "CHRtFlo_Sys_L_LobWait_W" = 262.9809   $ Sizing
 "CHRtFlo_Sys_L_MechElec_C" = 84.56943   $ Sizing
 "CHRtFlo_Sys_L_OfficeOpn_C" = 83.0072   $ Sizing
 "CHRtFlo_Sys_L_OfficeOpn_E" = 506.3809   $ Sizing
 "CHRtFlo_Sys_L_OfficeOpn_N" = 284.0305   $ Sizing
 "CHRtFlo_Sys_L_OfficeOpn_S" = 497.6424   $ Sizing
 "CHRtFlo_Sys_L_OfficeOpn_W" = 500.1467   $ Sizing
 "CHRtFlo_Sys_L_OfficeSm_E" = 426.3463   $ Sizing
 "CHRtFlo_Sys_L_OfficeSm_N" = 222.1073   $ Sizing
 "CHRtFlo_Sys_L_OfficeSm_S" = 432.5475   $ Sizing
 "CHRtFlo_Sys_L_OfficeSm_W" = 434.2025   $ Sizing
 "CHRtFlo_Sys_L_Restrm_C" = 88.65737   $ Sizing
 "CHRtFlo_Sys_L_StorSm_C" = 38.32648   $ Sizing
 "CHRtFlo_Sys_L_StorSm_E" = 108.4569   $ Sizing
 "CHRtFlo_Sys_L_StorSm_N" = 49.43905   $ Sizing
 "CHRtFlo_Sys_L_StorSm_S" = 114.3598   $ Sizing
 "CHRtFlo_Sys_L_StorSm_W" = 101.854   $ Sizing
 "CHRtFlo_Sys_T_Conf_C" = 225.2141   $ Sizing
 "CHRtFlo_Sys_T_Hall_E" = 119.3448   $ Sizing
 "CHRtFlo_Sys_T_Hall_N" = 50.18138   $ Sizing
 "CHRtFlo_Sys_T_Hall_S" = 126.4484   $ Sizing
 "CHRtFlo_Sys_T_Hall_W" = 114.9949   $ Sizing
 "CHRtFlo_Sys_T_OfficeOpn_C" = 68.18736   $ Sizing
 "CHRtFlo_Sys_T_OfficeOpn_E" = 489.9406   $ Sizing
 "CHRtFlo_Sys_T_OfficeOpn_N" = 294.946   $ Sizing
 "CHRtFlo_Sys_T_OfficeOpn_S" = 504.287   $ Sizing
 "CHRtFlo_Sys_T_OfficeOpn_W" = 479.8648   $ Sizing
 "CHRtFlo_Sys_T_OfficeSm_E" = 418.3112   $ Sizing
 "CHRtFlo_Sys_T_OfficeSm_N" = 231.2447   $ Sizing
 "CHRtFlo_Sys_T_OfficeSm_S" = 444.0361   $ Sizing
 "CHRtFlo_Sys_T_OfficeSm_W" = 421.4773   $ Sizing
 "CHRtFlo_Sys_T_Restrm_C" = 135.7204   $ Sizing
 "CHRtFlo_Sys_T_StorSm_E" = 119.5688   $ Sizing
 "CHRtFlo_Sys_T_StorSm_N" = 55.48703   $ Sizing
 "CHRtFlo_Sys_T_StorSm_S" = 124.7189   $ Sizing
 "CHRtFlo_Sys_T_StorSm_W" = 114.4582   $ Sizing
 "CRtdFlo_Sys_L_Break_C" = 404.5287   $ Sizing
 "CRtdFlo_Sys_L_CompDC_C" = 141.3834   $ Sizing
 "CRtdFlo_Sys_L_Conf_C" = 230.0336   $ Sizing
 "CRtdFlo_Sys_L_CopyRm_C" = 82.66741   $ Sizing
 "CRtdFlo_Sys_L_Hall_E" = 91.60048   $ Sizing
 "CRtdFlo_Sys_L_Hall_N" = 42.5047   $ Sizing
 "CRtdFlo_Sys_L_Hall_S" = 96.93941   $ Sizing
 "CRtdFlo_Sys_L_Hall_W" = 100.7858   $ Sizing
 "CRtdFlo_Sys_L_LobWait_E" = 219.811   $ Sizing
 "CRtdFlo_Sys_L_LobWait_N" = 117.7593   $ Sizing
 "CRtdFlo_Sys_L_LobWait_S" = 232.3895   $ Sizing
 "CRtdFlo_Sys_L_LobWait_W" = 253.4594   $ Sizing
 "CRtdFlo_Sys_L_MechElec_C" = 60.12957   $ Sizing
 "CRtdFlo_Sys_L_OfficeOpn_C" = 68.45725   $ Sizing
 "CRtdFlo_Sys_L_OfficeOpn_E" = 423.9817   $ Sizing
 "CRtdFlo_Sys_L_OfficeOpn_N" = 280.5237   $ Sizing
 "CRtdFlo_Sys_L_OfficeOpn_S" = 415.512   $ Sizing
 "CRtdFlo_Sys_L_OfficeOpn_W" = 456.5348   $ Sizing
 "CRtdFlo_Sys_L_OfficeSm_E" = 350.7895   $ Sizing
 "CRtdFlo_Sys_L_OfficeSm_N" = 218.1818   $ Sizing
 "CRtdFlo_Sys_L_OfficeSm_S" = 360.1561   $ Sizing
 "CRtdFlo_Sys_L_OfficeSm_W" = 389.8068   $ Sizing
 "CRtdFlo_Sys_L_Restrm_C" = 77.4724   $ Sizing
 "CRtdFlo_Sys_L_StorSm_C" = 31.38836   $ Sizing
 "CRtdFlo_Sys_L_StorSm_E" = 90.38654   $ Sizing
 "CRtdFlo_Sys_L_StorSm_N" = 36.24459   $ Sizing
 "CRtdFlo_Sys_L_StorSm_S" = 94.7851   $ Sizing
 "CRtdFlo_Sys_L_StorSm_W" = 95.98171   $ Sizing
 "CRtdFlo_Sys_T_Conf_C" = 225.2141   $ Sizing
 "CRtdFlo_Sys_T_Hall_E" = 102.1073   $ Sizing
 "CRtdFlo_Sys_T_Hall_N" = 50.18138   $ Sizing
 "CRtdFlo_Sys_T_Hall_S" = 109.1578   $ Sizing
 "CRtdFlo_Sys_T_Hall_W" = 109.7446   $ Sizing
 "CRtdFlo_Sys_T_OfficeOpn_C" = 58.72228   $ Sizing
 "CRtdFlo_Sys_T_OfficeOpn_E" = 433.7726   $ Sizing
 "CRtdFlo_Sys_T_OfficeOpn_N" = 294.946   $ Sizing
 "CRtdFlo_Sys_T_OfficeOpn_S" = 443.4673   $ Sizing
 "CRtdFlo_Sys_T_OfficeOpn_W" = 471.9092   $ Sizing
 "CRtdFlo_Sys_T_OfficeSm_E" = 365.2797   $ Sizing
 "CRtdFlo_Sys_T_OfficeSm_N" = 231.2447   $ Sizing
 "CRtdFlo_Sys_T_OfficeSm_S" = 386.0756   $ Sizing
 "CRtdFlo_Sys_T_OfficeSm_W" = 405.254   $ Sizing
 "CRtdFlo_Sys_T_Restrm_C" = 122.6082   $ Sizing
 "CRtdFlo_Sys_T_StorSm_E" = 106.4668   $ Sizing
 "CRtdFlo_Sys_T_StorSm_N" = 48.15175   $ Sizing
 "CRtdFlo_Sys_T_StorSm_S" = 114.6097   $ Sizing
 "CRtdFlo_Sys_T_StorSm_W" = 114.4582   $ Sizing
 "CSupFlo_Sys_L_Break_C" = 404.5287   $ Sizing
 "CSupFlo_Sys_L_CompDC_C" = 141.3834   $ Sizing
 "CSupFlo_Sys_L_Conf_C" = 230.0336   $ Sizing
 "CSupFlo_Sys_L_CopyRm_C" = 82.66741   $ Sizing
 "CSupFlo_Sys_L_Hall_E" = 91.60048   $ Sizing
 "CSupFlo_Sys_L_Hall_N" = 42.5047   $ Sizing
 "CSupFlo_Sys_L_Hall_S" = 96.93941   $ Sizing
 "CSupFlo_Sys_L_Hall_W" = 100.7858   $ Sizing
 "CSupFlo_Sys_L_LobWait_E" = 219.811   $ Sizing
 "CSupFlo_Sys_L_LobWait_N" = 117.7593   $ Sizing
 "CSupFlo_Sys_L_LobWait_S" = 232.3895   $ Sizing
 "CSupFlo_Sys_L_LobWait_W" = 253.4594   $ Sizing
 "CSupFlo_Sys_L_MechElec_C" = 60.12957   $ Sizing
 "CSupFlo_Sys_L_OfficeOpn_C" = 68.45725   $ Sizing
 "CSupFlo_Sys_L_OfficeOpn_E" = 423.9817   $ Sizing
 "CSupFlo_Sys_L_OfficeOpn_N" = 280.5237   $ Sizing
 "CSupFlo_Sys_L_OfficeOpn_S" = 415.512   $ Sizing
 "CSupFlo_Sys_L_OfficeOpn_W" = 456.5348   $ Sizing
 "CSupFlo_Sys_L_OfficeSm_E" = 350.7895   $ Sizing
 "CSupFlo_Sys_L_OfficeSm_N" = 218.1818   $ Sizing
 "CSupFlo_Sys_L_OfficeSm_S" = 360.1561   $ Sizing
 "CSupFlo_Sys_L_OfficeSm_W" = 389.8068   $ Sizing
 "CSupFlo_Sys_L_Restrm_C" = 77.4724   $ Sizing
 "CSupFlo_Sys_L_StorSm_C" = 31.38836   $ Sizing
 "CSupFlo_Sys_L_StorSm_E" = 90.38654   $ Sizing
 "CSupFlo_Sys_L_StorSm_N" = 36.24459   $ Sizing
 "CSupFlo_Sys_L_StorSm_S" = 94.7851   $ Sizing
 "CSupFlo_Sys_L_StorSm_W" = 95.98171   $ Sizing
 "CSupFlo_Sys_T_Conf_C" = 225.2141   $ Sizing
 "CSupFlo_Sys_T_Hall_E" = 102.1073   $ Sizing
 "CSupFlo_Sys_T_Hall_N" = 50.18138   $ Sizing
 "CSupFlo_Sys_T_Hall_S" = 109.1578   $ Sizing
 "CSupFlo_Sys_T_Hall_W" = 109.7446   $ Sizing
 "CSupFlo_Sys_T_OfficeOpn_C" = 58.72228   $ Sizing
 "CSupFlo_Sys_T_OfficeOpn_E" = 433.7726   $ Sizing
 "CSupFlo_Sys_T_OfficeOpn_N" = 294.946   $ Sizing
 "CSupFlo_Sys_T_OfficeOpn_S" = 443.4673   $ Sizing
 "CSupFlo_Sys_T_OfficeOpn_W" = 471.9092   $ Sizing
 "CSupFlo_Sys_T_OfficeSm_E" = 365.2797   $ Sizing
 "CSupFlo_Sys_T_OfficeSm_N" = 231.2447   $ Sizing
 "CSupFlo_Sys_T_OfficeSm_S" = 386.0756   $ Sizing
 "CSupFlo_Sys_T_OfficeSm_W" = 405.254   $ Sizing
 "CSupFlo_Sys_T_Restrm_C" = 122.6082   $ Sizing
 "CSupFlo_Sys_T_StorSm_E" = 106.4668   $ Sizing
 "CSupFlo_Sys_T_StorSm_N" = 48.15175   $ Sizing
 "CSupFlo_Sys_T_StorSm_S" = 114.6097   $ Sizing
 "CSupFlo_Sys_T_StorSm_W" = 114.4582   $ Sizing
 "ClCap_Sys_L_Break_C" = 13668.95   $ Sizing
 "ClCap_Sys_L_CompDC_C" = 4777.319   $ Sizing
 "ClCap_Sys_L_Conf_C" = 9892.644   $ Sizing
 "ClCap_Sys_L_CopyRm_C" = 2793.316   $ Sizing
 "ClCap_Sys_L_Hall_E" = 3095.163   $ Sizing
 "ClCap_Sys_L_Hall_N" = 1436.226   $ Sizing
 "ClCap_Sys_L_Hall_S" = 3275.564   $ Sizing
 "ClCap_Sys_L_Hall_W" = 3405.533   $ Sizing
 "ClCap_Sys_L_LobWait_E" = 7427.372   $ Sizing
 "ClCap_Sys_L_LobWait_N" = 3979.065   $ Sizing
 "ClCap_Sys_L_LobWait_S" = 7852.399   $ Sizing
 "ClCap_Sys_L_LobWait_W" = 8564.345   $ Sizing
 "ClCap_Sys_L_MechElec_C" = 2031.767   $ Sizing
 "ClCap_Sys_L_OfficeOpn_C" = 2313.158   $ Sizing
 "ClCap_Sys_L_OfficeOpn_E" = 14326.26   $ Sizing
 "ClCap_Sys_L_OfficeOpn_N" = 9478.845   $ Sizing
 "ClCap_Sys_L_OfficeOpn_S" = 14040.07   $ Sizing
 "ClCap_Sys_L_OfficeOpn_W" = 15426.23   $ Sizing
 "ClCap_Sys_L_OfficeSm_E" = 11853.11   $ Sizing
 "ClCap_Sys_L_OfficeSm_N" = 7372.322   $ Sizing
 "ClCap_Sys_L_OfficeSm_S" = 12169.61   $ Sizing
 "ClCap_Sys_L_OfficeSm_W" = 13171.5   $ Sizing
 "ClCap_Sys_L_Restrm_C" = 2617.778   $ Sizing
 "ClCap_Sys_L_StorSm_C" = 1060.607   $ Sizing
 "ClCap_Sys_L_StorSm_E" = 3054.144   $ Sizing
 "ClCap_Sys_L_StorSm_N" = 1224.698   $ Sizing
 "ClCap_Sys_L_StorSm_S" = 3202.771   $ Sizing
 "ClCap_Sys_L_StorSm_W" = 3243.204   $ Sizing
 "ClCap_Sys_T_Conf_C" = 9685.38   $ Sizing
 "ClCap_Sys_T_Hall_E" = 3450.185   $ Sizing
 "ClCap_Sys_T_Hall_N" = 1695.619   $ Sizing
 "ClCap_Sys_T_Hall_S" = 3688.423   $ Sizing
 "ClCap_Sys_T_Hall_W" = 3708.249   $ Sizing
 "ClCap_Sys_T_OfficeOpn_C" = 1984.215   $ Sizing
 "ClCap_Sys_T_OfficeOpn_E" = 14657.09   $ Sizing
 "ClCap_Sys_T_OfficeOpn_N" = 9966.17   $ Sizing
 "ClCap_Sys_T_OfficeOpn_S" = 14984.68   $ Sizing
 "ClCap_Sys_T_OfficeOpn_W" = 15945.72   $ Sizing
 "ClCap_Sys_T_OfficeSm_E" = 12342.73   $ Sizing
 "ClCap_Sys_T_OfficeSm_N" = 7813.715   $ Sizing
 "ClCap_Sys_T_OfficeSm_S" = 13045.42   $ Sizing
 "ClCap_Sys_T_OfficeSm_W" = 13693.46   $ Sizing
 "ClCap_Sys_T_Restrm_C" = 4142.909   $ Sizing
 "ClCap_Sys_T_StorSm_E" = 3597.492   $ Sizing
 "ClCap_Sys_T_StorSm_N" = 1627.039   $ Sizing
 "ClCap_Sys_T_StorSm_S" = 3872.64   $ Sizing
 "ClCap_Sys_T_StorSm_W" = 3867.52   $ Sizing
 "HtCap_Sys_L_Break_C" = -21401.21   $ Sizing
 "HtCap_Sys_L_CompDC_C" = -8482.286   $ Sizing
 "HtCap_Sys_L_Conf_C" = -12661.14   $ Sizing
 "HtCap_Sys_L_CopyRm_C" = -4758.697   $ Sizing
 "HtCap_Sys_L_Hall_E" = -3840.272   $ Sizing
 "HtCap_Sys_L_Hall_N" = -1761.748   $ Sizing
 "HtCap_Sys_L_Hall_S" = -3966.661   $ Sizing
 "HtCap_Sys_L_Hall_W" = -3871.265   $ Sizing
 "HtCap_Sys_L_LobWait_E" = -9700.78   $ Sizing
 "HtCap_Sys_L_LobWait_N" = -5836.042   $ Sizing
 "HtCap_Sys_L_LobWait_S" = -10104.45   $ Sizing
 "HtCap_Sys_L_LobWait_W" = -9860.837   $ Sizing
 "HtCap_Sys_L_MechElec_C" = -3418.26   $ Sizing
 "HtCap_Sys_L_OfficeOpn_C" = -3039.635   $ Sizing
 "HtCap_Sys_L_OfficeOpn_E" = -16552.23   $ Sizing
 "HtCap_Sys_L_OfficeOpn_N" = -11381   $ Sizing
 "HtCap_Sys_L_OfficeOpn_S" = -17077.78   $ Sizing
 "HtCap_Sys_L_OfficeOpn_W" = -17638.32   $ Sizing
 "HtCap_Sys_L_OfficeSm_E" = -14274.82   $ Sizing
 "HtCap_Sys_L_OfficeSm_N" = -8626.16   $ Sizing
 "HtCap_Sys_L_OfficeSm_S" = -14390.12   $ Sizing
 "HtCap_Sys_L_OfficeSm_W" = -14689.74   $ Sizing
 "HtCap_Sys_L_Restrm_C" = -3042.64   $ Sizing
 "HtCap_Sys_L_StorSm_C" = -1492.691   $ Sizing
 "HtCap_Sys_L_StorSm_E" = -3951.314   $ Sizing
 "HtCap_Sys_L_StorSm_N" = -2218.646   $ Sizing
 "HtCap_Sys_L_StorSm_S" = -4106.495   $ Sizing
 "HtCap_Sys_L_StorSm_W" = -3836.61   $ Sizing
 "HtCap_Sys_T_Conf_C" = -12779.61   $ Sizing
 "HtCap_Sys_T_Hall_E" = -4519.308   $ Sizing
 "HtCap_Sys_T_Hall_N" = -2239.536   $ Sizing
 "HtCap_Sys_T_Hall_S" = -4865.9   $ Sizing
 "HtCap_Sys_T_Hall_W" = -4473.162   $ Sizing
 "HtCap_Sys_T_OfficeOpn_C" = -2889.227   $ Sizing
 "HtCap_Sys_T_OfficeOpn_E" = -18139.25   $ Sizing
 "HtCap_Sys_T_OfficeOpn_N" = -12755.82   $ Sizing
 "HtCap_Sys_T_OfficeOpn_S" = -19521.62   $ Sizing
 "HtCap_Sys_T_OfficeOpn_W" = -18794.82   $ Sizing
 "HtCap_Sys_T_OfficeSm_E" = -15430.54   $ Sizing
 "HtCap_Sys_T_OfficeSm_N" = -9877.901   $ Sizing
 "HtCap_Sys_T_OfficeSm_S" = -16686.28   $ Sizing
 "HtCap_Sys_T_OfficeSm_W" = -16087.93   $ Sizing
 "HtCap_Sys_T_Restrm_C" = -5107.763   $ Sizing
 "HtCap_Sys_T_StorSm_E" = -4935.387   $ Sizing
 "HtCap_Sys_T_StorSm_N" = -2739.734   $ Sizing
 "HtCap_Sys_T_StorSm_S" = -4975.158   $ Sizing
 "HtCap_Sys_T_StorSm_W" = -4763.62   $ Sizing
..

##include Templates\OfS_DX_SZ.inp
END ..
COMPUTE ..
STOP ..
