INPUT ..

##fileprefix C:\Users\jglasskatz\MASControl3\
##set1 IsSizing FALSE
##set1 CoolType DX
##set1 HeatType FURNACE
##set1 EU_HrRepVar 0
##set1 BldgVint 2011
##set1 BldgLoc CZ09

 ##set1 mBFMult 1   $ IP Tech: RefgChg-NRes-Std

PARAMETER
 "AltFactor" = 1.02768   $ IP Non-Tech
 "BF_fFlow" = SpltAC1Sp-lt45_BF_fFlow   $ Msr (Multi)TechID: StdNResSplitAC-lt45
 "BF_fT" = SpltAC1Sp-lt45_BF_fT   $ Msr (Multi)TechID: StdNResSplitAC-lt45
 "BldgEconoFlag" = 1   $ IP Non-Tech
 "Break_EWSF" = 1   $ IP Non-Tech
 "Break_LWSF" = 1.1   $ IP Non-Tech
 "CDD_DBHi10" = 91   $ IP Non-Tech
 "CDD_DBHi7" = 91   $ IP Non-Tech
 "CDD_DBHi8" = 94   $ IP Non-Tech
 "CDD_DBHi9" = 100   $ IP Non-Tech
 "CDD_DBRange10" = 30   $ IP Non-Tech
 "CDD_DBRange7" = 19   $ IP Non-Tech
 "CDD_DBRange8" = 23   $ IP Non-Tech
 "CDD_DBRange9" = 24   $ IP Non-Tech
 "CDD_Day10" = 15   $ IP Non-Tech
 "CDD_Day7" = 16   $ IP Non-Tech
 "CDD_Day8" = 20   $ IP Non-Tech
 "CDD_Day9" = 17   $ IP Non-Tech
 "CDD_HrHi10" = 16   $ IP Non-Tech
 "CDD_HrHi7" = 16   $ IP Non-Tech
 "CDD_HrHi8" = 15   $ IP Non-Tech
 "CDD_HrHi9" = 13   $ IP Non-Tech
 "CDD_HrLo10" = 5   $ IP Non-Tech
 "CDD_HrLo7" = 6   $ IP Non-Tech
 "CDD_HrLo8" = 3   $ IP Non-Tech
 "CDD_HrLo9" = 7   $ IP Non-Tech
 "CDD_WB10" = 61.50949097   $ IP Non-Tech
 "CDD_WB7" = 74.70972443   $ IP Non-Tech
 "CDD_WB8" = 73.69755554   $ IP Non-Tech
 "CDD_WB9" = 73.82730103   $ IP Non-Tech
 "CEIR_fPLR_Hot" = SpltAC1Sp-lt45_CEIR_fPLR_Hot   $ Msr (Multi)TechID: StdNResSplitAC-lt45
 "CEIR_fPLR_Mod" = SpltAC1Sp-lt45_CEIR_fPLR_Mod   $ Msr (Multi)TechID: StdNResSplitAC-lt45
 "CEIR_fPLR_Tem" = SpltAC1Sp-lt45_CEIR_fPLR_Tem   $ Msr (Multi)TechID: StdNResSplitAC-lt45
 "CLoss_fPLR_Hot" = SpltAC1Sp-lt45_CLoss_fPLR_Hot   $ Msr (Multi)TechID: StdNResSplitAC-lt45
 "CLoss_fPLR_Mod" = SpltAC1Sp-lt45_CLoss_fPLR_Mod   $ Msr (Multi)TechID: StdNResSplitAC-lt45
 "CLoss_fPLR_Tem" = SpltAC1Sp-lt45_CLoss_fPLR_Tem   $ Msr (Multi)TechID: StdNResSplitAC-lt45
 "COP47" = 0   $ Msr (Multi)TechID: StdNResSplitAC-lt45
 "CZ_Category" = Mod   $ IP Non-Tech
 "CapRange" = lt45   $ Msr (Multi)TechID: StdNResSplitAC-lt45
 "CfmPerBtuh" = 0.032504286   $ Msr (Multi)TechID: StdNResSplitAC-lt45
 "ChwVintEconoFlag" = 1   $ IP Non-Tech
 "ClCap_fT" = SpltAC1Sp-lt45_ClCap_fT   $ Msr (Multi)TechID: StdNResSplitAC-lt45
 "ClSH_fT" = SpltAC1Sp-lt45_ClSH_fT   $ Msr (Multi)TechID: StdNResSplitAC-lt45
 "CoilBF" = 0.1212   $ Msr (Multi)TechID: StdNResSplitAC-lt45
 "CompRoomData_EWSF" = 5   $ IP Non-Tech
 "CompRoomData_LWSF" = 1.1   $ IP Non-Tech
 "CondWPerBtuh" = 0   $ Msr (Multi)TechID: StdNResSplitAC-lt45
 "Conference_EWSF" = 1   $ IP Non-Tech
 "Conference_LWSF" = 1.4   $ IP Non-Tech
 "CoolSensCap" = 0.754064286   $ Msr (Multi)TechID: StdNResSplitAC-lt45
 "CoolSetT" = 45   $ IP Non-Tech
 "CoolType" = DX   $ IP Non-Tech
 "CoolingEIR" = 0.23878   $ Msr (Multi)TechID: StdNResSplitAC-lt45
 "CopyRoom_EWSF" = 1.5   $ IP Non-Tech
 "CopyRoom_LWSF" = 1.3   $ IP Non-Tech
 "CrnkEIR" = 0.0023878   $ Msr (Multi)TechID: StdNResSplitAC-lt45
 "CrnkMaxT" = 50   $ Msr (Multi)TechID: StdNResSplitAC-lt45
 "DXType" = SplitSEER   $ Msr (Multi)TechID: StdNResSplitAC-lt45
 "DesCoolT" = 75   $ IP Non-Tech
 "DesHeatT" = 73   $ IP Non-Tech
 "EER" = 12.16551724   $ Msr (Multi)TechID: StdNResSplitAC-lt45
 "EIR_fT" = SpltAC1Sp-lt45_EIR_fT   $ Msr (Multi)TechID: StdNResSplitAC-lt45
 "EconoCtrl" = FIXED   $ Msr (Multi)TechID: StdNResSplitAC-lt45
 "EconoEnthLimit" = 28   $ IP Non-Tech
 "EconoTempLimit" = 71   $ IP Non-Tech
 "Elevation" = 741   $ IP Non-Tech
 "FanEirPlr" = TwoSpeedFan   $ Msr (Multi)TechID: StdNResSplitAC-lt45
 "FanWPerCfm" = 0.294   $ Msr (Multi)TechID: StdNResSplitAC-lt45
 "HDD_CloudAmt1" = 0   $ IP Non-Tech
 "HDD_DBHi1" = 55   $ IP Non-Tech
 "HDD_DBRange1" = 18   $ IP Non-Tech
 "HDD_Day1" = 15   $ IP Non-Tech
 "HDD_HrHi1" = 15   $ IP Non-Tech
 "HDD_HrLo1" = 5   $ IP Non-Tech
 "HDD_WB1" = 48.4   $ IP Non-Tech
 "HDD_WindSpd1" = 10.4   $ IP Non-Tech
 "HIR_fT" = 0   $ Msr (Multi)TechID: StdNResSplitAC-lt45
 "HSPF" = 0   $ Msr (Multi)TechID: StdNResSplitAC-lt45
 "Hall_EWSF" = 0.2   $ IP Non-Tech
 "Hall_LWSF" = 0.6   $ IP Non-Tech
 "HeatSrc" = FURNACE   $ IP Non-Tech
 "HeatSrcTU" = HEAT-PUMP   $ IP Non-Tech
 "HeatType" = GasFurn   $ IP Non-Tech
 "HeatTypeTU" = HEAT-PUMP   $ IP Non-Tech
 "HtCap_fT" = 0   $ Msr (Multi)TechID: StdNResSplitAC-lt45
 "HtCoolCapRatio" = 0   $ Msr (Multi)TechID: StdNResSplitAC-lt45
 "HtgEIR" = 0   $ Msr (Multi)TechID: StdNResSplitAC-lt45
 "IndoorFanMode" = CONTINUOUS   $ IP Non-Tech
 "KT_TransferAir" = No   $ IP Non-Tech
 "Latitude" = 34.1   $ IP Non-Tech
 "LobbyWaiting_EWSF" = 0.5   $ IP Non-Tech
 "LobbyWaiting_LWSF" = 1.3   $ IP Non-Tech
 "Longitude" = 117.8   $ IP Non-Tech
 "LowSpdCapRatio" = 1   $ Msr (Multi)TechID: StdNResSplitAC-lt45
 "LowSpdCfmRatio" = 1   $ Msr (Multi)TechID: StdNResSplitAC-lt45
 "MZFanMechEff" = 0.58   $ IP Non-Tech
 "MZHasRetFan" = FALSE   $ IP Non-Tech
 "MZ_RFanWPerCfm" = 0.33   $ IP Non-Tech
 "MZ_SFanWPerCfm" = 0.75   $ IP Non-Tech
 "MZ_SupFanStatic" = 2.25   $ IP Non-Tech
 "MaxOAFrac" = 1   $ Msr (Multi)TechID: StdNResSplitAC-lt45
 "MaxSupT_MZ" = 100   $ IP Non-Tech
 "MaxSupT_SZ" = 100   $ IP Non-Tech
 "MaxSupT_TU" = 90   $ IP Non-Tech
 "MechElecRoom_EWSF" = 0.2   $ IP Non-Tech
 "MechElecRoom_LWSF" = 0.7   $ IP Non-Tech
 "MinCfmPerSF" = 0.4   $ IP Non-Tech
 "MinSupT" = 55   $ IP Non-Tech
 "NumStages" = 1   $ Msr (Multi)TechID: StdNResSplitAC-lt45
 "OccCoolT" = 76   $ IP Non-Tech
 "OccHeatT" = 72   $ IP Non-Tech
 "OfficeOpen_EWSF" = 1.5   $ IP Non-Tech
 "OfficeOpen_LWSF" = 1.1   $ IP Non-Tech
 "OfficeSmall_EWSF" = 1.5   $ IP Non-Tech
 "OfficeSmall_LWSF" = 1.3   $ IP Non-Tech
 "PkgDxVintEconoFlag" = 0   $ IP Non-Tech
 "Restroom_EWSF" = 0.2   $ IP Non-Tech
 "Restroom_LWSF" = 0.6   $ IP Non-Tech
 "SEER" = 14   $ Msr (Multi)TechID: StdNResSplitAC-lt45
 "SZFanMechEff" = 0.58   $ IP Non-Tech
 "SZHasRetFan" = FALSE   $ IP Non-Tech
 "SZ_Is_2Spd" = FALSE   $ IP Non-Tech
 "SZ_SFanWPerCfm" = 0.46   $ IP Non-Tech
 "SZ_SupFanStatic" = 0.75   $ IP Non-Tech
 "Sector" = Any   $ Msr (Multi)TechID: StdNResSplitAC-lt45
 "StorageSmlCond_EWSF" = 0.2   $ IP Non-Tech
 "StorageSmlCond_LWSF" = 0.6   $ IP Non-Tech
 "SubType" = AC   $ Msr (Multi)TechID: StdNResSplitAC-lt45
 "T24GlzTbl" = CZTbl   $ IP Non-Tech
 "TermUnitFanMechEff" = 1   $ IP Non-Tech
 "TermUnitFanMode" = INTERMITTENT   $ IP Non-Tech
 "TotCoolCap" = 30924.85714   $ Msr (Multi)TechID: StdNResSplitAC-lt45
 "TwrSetpt" = 86.9   $ IP Non-Tech
 "UnocCoolT" = 86   $ IP Non-Tech
 "UnocHeatT" = 62   $ IP Non-Tech
 "UseEconoVintApplic" = FALSE   $ Msr (Multi)TechID: StdNResSplitAC-lt45
 "WlhpVintEconoFlag" = 0   $ IP Non-Tech
 "DuctDT" = 1   $ IP Tech: ComDuctInsul-1
 "DuctAirLoss" = 0   $ IP Tech: ComDuctLeak-0
 "DuctLossOAFrac" = 0   $ IP Tech: ComDuctLeak-0
 "ComRoofInsCalc" = FromUo   $ IP Tech: ComRoofIns-WFrm-0.04
 "ComRoofInsR" = -999   $ IP Tech: ComRoofIns-WFrm-0.04
 "ComRoofUo" = 0.04   $ IP Tech: ComRoofIns-WFrm-0.04
 "ComEWInsCalc" = FromUo   $ IP Tech: ComWallIns-WFrm-0.06
 "ComEWInsR" = -999   $ IP Tech: ComWallIns-WFrm-0.06
 "ComEWUo" = 0.06   $ IP Tech: ComWallIns-WFrm-0.06
 "ComN_SHGC" = 0.61   $ IP Tech: NResWin-ComN-0.77-0.61
 "ComN_UFactor" = 0.77   $ IP Tech: NResWin-ComN-0.77-0.61
 "ComN_VisTrans" = 0.77   $ IP Tech: NResWin-ComN-0.77-0.61
 "ComN_WinCode" = G2600   $ IP Tech: NResWin-ComN-0.77-0.61
 "ComN_WinFrmFrac" = 0.17   $ IP Tech: NResWin-ComN-0.77-0.61
 "ComN_WinFrmU" = 1   $ IP Tech: NResWin-ComN-0.77-0.61
 "ComO_SHGC" = 0.34   $ IP Tech: NResWin-ComO-0.77-0.34
 "ComO_UFactor" = 0.77   $ IP Tech: NResWin-ComO-0.77-0.34
 "ComO_VisTrans" = 0.44   $ IP Tech: NResWin-ComO-0.77-0.34
 "ComO_WinCode" = G2636   $ IP Tech: NResWin-ComO-0.77-0.34
 "ComO_WinFrmFrac" = 0.17   $ IP Tech: NResWin-ComO-0.77-0.34
 "ComO_WinFrmU" = 1   $ IP Tech: NResWin-ComO-0.77-0.34
 "LtgMsrApplic" = ALL   $ IP Tech: NonResLtgRefPre
 "LtgSav_CFL" = 0   $ IP Tech: NonResLtgRefPre
 "LtgSav_EX" = 0   $ IP Tech: NonResLtgRefPre
 "LtgSav_HB" = 0   $ IP Tech: NonResLtgRefPre
 "LtgSav_LF" = 0   $ IP Tech: NonResLtgRefPre
 "LtgSav_SP" = 0   $ IP Tech: NonResLtgRefPre
 "CEIR_fPLR" = PSZ65to135_CEIR_fPLR   $ IP Tech: PkgAC1SpH-65to135-E11
 "CLoss_fPLR" = PSZ65to135_CLoss_fPLR   $ IP Tech: PkgAC1SpH-65to135-E11
 "COP" = -1   $ IP Tech: PkgAC1SpH-65to135-E11
 "HtgFuel" = Gas   $ IP Tech: PkgAC1SpH-65to135-E11
 "IEER" = 13.35   $ IP Tech: PkgAC1SpH-65to135-E11
 "NominalCap" = 15   $ IP Tech: PkgAC1SpH-65to135-E11
 "RatedEER" = 11   $ IP Tech: PkgAC1SpH-65to135-E11
 "RatedSupMtrClass" = HiEff   $ IP Tech: PkgAC1SpH-65to135-E11
 "SizeRange" = 65to135   $ IP Tech: PkgAC1SpH-65to135-E11
 "SupMotEff" = 0.84   $ IP Tech: PkgAC1SpH-65to135-E11
 "Tier" = 0   $ IP Tech: PkgAC1SpH-65to135-E11
 "FanPwrMult" = 1   $ IP Tech: PkgFurn-0.80AFUE
 "FurnAFUE" = 0.8   $ IP Tech: PkgFurn-0.80AFUE
 "FurnEt" = 0.82   $ IP Tech: PkgFurn-0.80AFUE
 "FurnaceAuxKW" = 0.1   $ IP Tech: PkgFurn-0.80AFUE
 "HIR_fPLR" = Furnace-HIR-fPLR   $ IP Tech: PkgFurn-0.80AFUE
 "VSM" = FALSE   $ IP Tech: PkgFurn-0.80AFUE
 "BFMult" = 1   $ IP Tech: RefgChg-NRes-Std
 "CoolEirMult" = 1   $ IP Tech: RefgChg-NRes-Std
 "SensCoolCapMult" = 1   $ IP Tech: RefgChg-NRes-Std
 "TotCoolCapMult" = 1   $ IP Tech: RefgChg-NRes-Std
 "AltAdjFactor" = 1.027678   $ Sizing
 "CAssFlo_L_Break_CZn" = 519.3215   $ Sizing
 "CAssFlo_L_CompDC_CZn" = 157.2847   $ Sizing
 "CAssFlo_L_Conf_CZn" = 295.676   $ Sizing
 "CAssFlo_L_CopyRm_CZn" = 108.7346   $ Sizing
 "CAssFlo_L_Hall_EZn" = 133.3141   $ Sizing
 "CAssFlo_L_Hall_NZn" = 78.79522   $ Sizing
 "CAssFlo_L_Hall_SZn" = 136.1332   $ Sizing
 "CAssFlo_L_Hall_WZn" = 151.3007   $ Sizing
 "CAssFlo_L_LobWait_EZn" = 317.545   $ Sizing
 "CAssFlo_L_LobWait_NZn" = 209.7972   $ Sizing
 "CAssFlo_L_LobWait_SZn" = 337.5631   $ Sizing
 "CAssFlo_L_LobWait_WZn" = 385.4244   $ Sizing
 "CAssFlo_L_MechElec_CZn" = 93.50875   $ Sizing
 "CAssFlo_L_OfficeOpn_CZn" = 73.14752   $ Sizing
 "CAssFlo_L_OfficeOpn_EZn" = 560.0306   $ Sizing
 "CAssFlo_L_OfficeOpn_NZn" = 408.2123   $ Sizing
 "CAssFlo_L_OfficeOpn_SZn" = 567.6065   $ Sizing
 "CAssFlo_L_OfficeOpn_WZn" = 634.4973   $ Sizing
 "CAssFlo_L_OfficeSm_EZn" = 473.9945   $ Sizing
 "CAssFlo_L_OfficeSm_NZn" = 324.439   $ Sizing
 "CAssFlo_L_OfficeSm_SZn" = 486.4282   $ Sizing
 "CAssFlo_L_OfficeSm_WZn" = 546.2816   $ Sizing
 "CAssFlo_L_Restrm_CZn" = 99.55498   $ Sizing
 "CAssFlo_L_StorSm_CZn" = 40.83776   $ Sizing
 "CAssFlo_L_StorSm_EZn" = 132.6553   $ Sizing
 "CAssFlo_L_StorSm_NZn" = 81.01736   $ Sizing
 "CAssFlo_L_StorSm_SZn" = 136.899   $ Sizing
 "CAssFlo_L_StorSm_WZn" = 145.827   $ Sizing
 "CAssFlo_T_Conf_CZn" = 284.9942   $ Sizing
 "CAssFlo_T_Hall_EZn" = 145.0337   $ Sizing
 "CAssFlo_T_Hall_NZn" = 86.09975   $ Sizing
 "CAssFlo_T_Hall_SZn" = 151.9551   $ Sizing
 "CAssFlo_T_Hall_WZn" = 161.7247   $ Sizing
 "CAssFlo_T_OfficeOpn_CZn" = 71.59007   $ Sizing
 "CAssFlo_T_OfficeOpn_EZn" = 575.7951   $ Sizing
 "CAssFlo_T_OfficeOpn_NZn" = 421.1463   $ Sizing
 "CAssFlo_T_OfficeOpn_SZn" = 613.3278   $ Sizing
 "CAssFlo_T_OfficeOpn_WZn" = 657.5306   $ Sizing
 "CAssFlo_T_OfficeSm_EZn" = 492.935   $ Sizing
 "CAssFlo_T_OfficeSm_NZn" = 338.4891   $ Sizing
 "CAssFlo_T_OfficeSm_SZn" = 524.2575   $ Sizing
 "CAssFlo_T_OfficeSm_WZn" = 566.9593   $ Sizing
 "CAssFlo_T_Restrm_CZn" = 137.1259   $ Sizing
 "CAssFlo_T_StorSm_EZn" = 150.7345   $ Sizing
 "CAssFlo_T_StorSm_NZn" = 93.14842   $ Sizing
 "CAssFlo_T_StorSm_SZn" = 159.3113   $ Sizing
 "CAssFlo_T_StorSm_WZn" = 168.2954   $ Sizing
 "CHRtFlo_Sys_L_Break_C" = 519.3215   $ Sizing
 "CHRtFlo_Sys_L_CompDC_C" = 181.2145   $ Sizing
 "CHRtFlo_Sys_L_Conf_C" = 295.676   $ Sizing
 "CHRtFlo_Sys_L_CopyRm_C" = 108.7346   $ Sizing
 "CHRtFlo_Sys_L_Hall_E" = 154.1286   $ Sizing
 "CHRtFlo_Sys_L_Hall_N" = 78.79522   $ Sizing
 "CHRtFlo_Sys_L_Hall_S" = 159.5506   $ Sizing
 "CHRtFlo_Sys_L_Hall_W" = 160.3646   $ Sizing
 "CHRtFlo_Sys_L_LobWait_E" = 357.9008   $ Sizing
 "CHRtFlo_Sys_L_LobWait_N" = 209.7972   $ Sizing
 "CHRtFlo_Sys_L_LobWait_S" = 368.4151   $ Sizing
 "CHRtFlo_Sys_L_LobWait_W" = 385.4244   $ Sizing
 "CHRtFlo_Sys_L_MechElec_C" = 111.3238   $ Sizing
 "CHRtFlo_Sys_L_OfficeOpn_C" = 83.79911   $ Sizing
 "CHRtFlo_Sys_L_OfficeOpn_E" = 633.462   $ Sizing
 "CHRtFlo_Sys_L_OfficeOpn_N" = 408.2124   $ Sizing
 "CHRtFlo_Sys_L_OfficeOpn_S" = 619.3878   $ Sizing
 "CHRtFlo_Sys_L_OfficeOpn_W" = 648.0446   $ Sizing
 "CHRtFlo_Sys_L_OfficeSm_E" = 548.4396   $ Sizing
 "CHRtFlo_Sys_L_OfficeSm_N" = 324.439   $ Sizing
 "CHRtFlo_Sys_L_OfficeSm_S" = 550.1658   $ Sizing
 "CHRtFlo_Sys_L_OfficeSm_W" = 572.7958   $ Sizing
 "CHRtFlo_Sys_L_Restrm_C" = 108.0597   $ Sizing
 "CHRtFlo_Sys_L_StorSm_C" = 47.69675   $ Sizing
 "CHRtFlo_Sys_L_StorSm_E" = 150.231   $ Sizing
 "CHRtFlo_Sys_L_StorSm_N" = 81.01736   $ Sizing
 "CHRtFlo_Sys_L_StorSm_S" = 151.7884   $ Sizing
 "CHRtFlo_Sys_L_StorSm_W" = 146.4975   $ Sizing
 "CHRtFlo_Sys_T_Conf_C" = 284.9942   $ Sizing
 "CHRtFlo_Sys_T_Hall_E" = 160.2671   $ Sizing
 "CHRtFlo_Sys_T_Hall_N" = 86.09976   $ Sizing
 "CHRtFlo_Sys_T_Hall_S" = 167.445   $ Sizing
 "CHRtFlo_Sys_T_Hall_W" = 161.7247   $ Sizing
 "CHRtFlo_Sys_T_OfficeOpn_C" = 75.33627   $ Sizing
 "CHRtFlo_Sys_T_OfficeOpn_E" = 611.8445   $ Sizing
 "CHRtFlo_Sys_T_OfficeOpn_N" = 421.1463   $ Sizing
 "CHRtFlo_Sys_T_OfficeOpn_S" = 628.152   $ Sizing
 "CHRtFlo_Sys_T_OfficeOpn_W" = 657.5306   $ Sizing
 "CHRtFlo_Sys_T_OfficeSm_E" = 537.435   $ Sizing
 "CHRtFlo_Sys_T_OfficeSm_N" = 338.4891   $ Sizing
 "CHRtFlo_Sys_T_OfficeSm_S" = 561.7328   $ Sizing
 "CHRtFlo_Sys_T_OfficeSm_W" = 566.9593   $ Sizing
 "CHRtFlo_Sys_T_Restrm_C" = 148.46   $ Sizing
 "CHRtFlo_Sys_T_StorSm_E" = 157.8748   $ Sizing
 "CHRtFlo_Sys_T_StorSm_N" = 93.14843   $ Sizing
 "CHRtFlo_Sys_T_StorSm_S" = 162.7664   $ Sizing
 "CHRtFlo_Sys_T_StorSm_W" = 168.2954   $ Sizing
 "CRtdFlo_Sys_L_Break_C" = 519.3215   $ Sizing
 "CRtdFlo_Sys_L_CompDC_C" = 157.2847   $ Sizing
 "CRtdFlo_Sys_L_Conf_C" = 295.676   $ Sizing
 "CRtdFlo_Sys_L_CopyRm_C" = 108.7346   $ Sizing
 "CRtdFlo_Sys_L_Hall_E" = 133.3141   $ Sizing
 "CRtdFlo_Sys_L_Hall_N" = 78.79522   $ Sizing
 "CRtdFlo_Sys_L_Hall_S" = 136.1332   $ Sizing
 "CRtdFlo_Sys_L_Hall_W" = 151.3007   $ Sizing
 "CRtdFlo_Sys_L_LobWait_E" = 317.545   $ Sizing
 "CRtdFlo_Sys_L_LobWait_N" = 209.7972   $ Sizing
 "CRtdFlo_Sys_L_LobWait_S" = 337.5631   $ Sizing
 "CRtdFlo_Sys_L_LobWait_W" = 385.4244   $ Sizing
 "CRtdFlo_Sys_L_MechElec_C" = 93.50875   $ Sizing
 "CRtdFlo_Sys_L_OfficeOpn_C" = 73.14752   $ Sizing
 "CRtdFlo_Sys_L_OfficeOpn_E" = 560.0306   $ Sizing
 "CRtdFlo_Sys_L_OfficeOpn_N" = 408.2124   $ Sizing
 "CRtdFlo_Sys_L_OfficeOpn_S" = 567.6065   $ Sizing
 "CRtdFlo_Sys_L_OfficeOpn_W" = 634.4973   $ Sizing
 "CRtdFlo_Sys_L_OfficeSm_E" = 473.9945   $ Sizing
 "CRtdFlo_Sys_L_OfficeSm_N" = 324.439   $ Sizing
 "CRtdFlo_Sys_L_OfficeSm_S" = 486.4282   $ Sizing
 "CRtdFlo_Sys_L_OfficeSm_W" = 546.2816   $ Sizing
 "CRtdFlo_Sys_L_Restrm_C" = 99.55498   $ Sizing
 "CRtdFlo_Sys_L_StorSm_C" = 40.83776   $ Sizing
 "CRtdFlo_Sys_L_StorSm_E" = 132.6553   $ Sizing
 "CRtdFlo_Sys_L_StorSm_N" = 81.01736   $ Sizing
 "CRtdFlo_Sys_L_StorSm_S" = 136.899   $ Sizing
 "CRtdFlo_Sys_L_StorSm_W" = 145.827   $ Sizing
 "CRtdFlo_Sys_T_Conf_C" = 284.9942   $ Sizing
 "CRtdFlo_Sys_T_Hall_E" = 145.0337   $ Sizing
 "CRtdFlo_Sys_T_Hall_N" = 86.09976   $ Sizing
 "CRtdFlo_Sys_T_Hall_S" = 151.9551   $ Sizing
 "CRtdFlo_Sys_T_Hall_W" = 161.7247   $ Sizing
 "CRtdFlo_Sys_T_OfficeOpn_C" = 71.59007   $ Sizing
 "CRtdFlo_Sys_T_OfficeOpn_E" = 575.7951   $ Sizing
 "CRtdFlo_Sys_T_OfficeOpn_N" = 421.1463   $ Sizing
 "CRtdFlo_Sys_T_OfficeOpn_S" = 613.3278   $ Sizing
 "CRtdFlo_Sys_T_OfficeOpn_W" = 657.5306   $ Sizing
 "CRtdFlo_Sys_T_OfficeSm_E" = 492.935   $ Sizing
 "CRtdFlo_Sys_T_OfficeSm_N" = 338.4891   $ Sizing
 "CRtdFlo_Sys_T_OfficeSm_S" = 524.2575   $ Sizing
 "CRtdFlo_Sys_T_OfficeSm_W" = 566.9593   $ Sizing
 "CRtdFlo_Sys_T_Restrm_C" = 137.1259   $ Sizing
 "CRtdFlo_Sys_T_StorSm_E" = 150.7345   $ Sizing
 "CRtdFlo_Sys_T_StorSm_N" = 93.14843   $ Sizing
 "CRtdFlo_Sys_T_StorSm_S" = 159.3113   $ Sizing
 "CRtdFlo_Sys_T_StorSm_W" = 168.2954   $ Sizing
 "CSupFlo_Sys_L_Break_C" = 519.3215   $ Sizing
 "CSupFlo_Sys_L_CompDC_C" = 157.2847   $ Sizing
 "CSupFlo_Sys_L_Conf_C" = 295.676   $ Sizing
 "CSupFlo_Sys_L_CopyRm_C" = 108.7346   $ Sizing
 "CSupFlo_Sys_L_Hall_E" = 133.3141   $ Sizing
 "CSupFlo_Sys_L_Hall_N" = 78.79522   $ Sizing
 "CSupFlo_Sys_L_Hall_S" = 136.1332   $ Sizing
 "CSupFlo_Sys_L_Hall_W" = 151.3007   $ Sizing
 "CSupFlo_Sys_L_LobWait_E" = 317.545   $ Sizing
 "CSupFlo_Sys_L_LobWait_N" = 209.7972   $ Sizing
 "CSupFlo_Sys_L_LobWait_S" = 337.5631   $ Sizing
 "CSupFlo_Sys_L_LobWait_W" = 385.4244   $ Sizing
 "CSupFlo_Sys_L_MechElec_C" = 93.50875   $ Sizing
 "CSupFlo_Sys_L_OfficeOpn_C" = 73.14752   $ Sizing
 "CSupFlo_Sys_L_OfficeOpn_E" = 560.0306   $ Sizing
 "CSupFlo_Sys_L_OfficeOpn_N" = 408.2124   $ Sizing
 "CSupFlo_Sys_L_OfficeOpn_S" = 567.6065   $ Sizing
 "CSupFlo_Sys_L_OfficeOpn_W" = 634.4973   $ Sizing
 "CSupFlo_Sys_L_OfficeSm_E" = 473.9945   $ Sizing
 "CSupFlo_Sys_L_OfficeSm_N" = 324.439   $ Sizing
 "CSupFlo_Sys_L_OfficeSm_S" = 486.4282   $ Sizing
 "CSupFlo_Sys_L_OfficeSm_W" = 546.2816   $ Sizing
 "CSupFlo_Sys_L_Restrm_C" = 99.55498   $ Sizing
 "CSupFlo_Sys_L_StorSm_C" = 40.83776   $ Sizing
 "CSupFlo_Sys_L_StorSm_E" = 132.6553   $ Sizing
 "CSupFlo_Sys_L_StorSm_N" = 81.01736   $ Sizing
 "CSupFlo_Sys_L_StorSm_S" = 136.899   $ Sizing
 "CSupFlo_Sys_L_StorSm_W" = 145.827   $ Sizing
 "CSupFlo_Sys_T_Conf_C" = 284.9942   $ Sizing
 "CSupFlo_Sys_T_Hall_E" = 145.0337   $ Sizing
 "CSupFlo_Sys_T_Hall_N" = 86.09976   $ Sizing
 "CSupFlo_Sys_T_Hall_S" = 151.9551   $ Sizing
 "CSupFlo_Sys_T_Hall_W" = 161.7247   $ Sizing
 "CSupFlo_Sys_T_OfficeOpn_C" = 71.59007   $ Sizing
 "CSupFlo_Sys_T_OfficeOpn_E" = 575.7951   $ Sizing
 "CSupFlo_Sys_T_OfficeOpn_N" = 421.1463   $ Sizing
 "CSupFlo_Sys_T_OfficeOpn_S" = 613.3278   $ Sizing
 "CSupFlo_Sys_T_OfficeOpn_W" = 657.5306   $ Sizing
 "CSupFlo_Sys_T_OfficeSm_E" = 492.935   $ Sizing
 "CSupFlo_Sys_T_OfficeSm_N" = 338.4891   $ Sizing
 "CSupFlo_Sys_T_OfficeSm_S" = 524.2575   $ Sizing
 "CSupFlo_Sys_T_OfficeSm_W" = 566.9593   $ Sizing
 "CSupFlo_Sys_T_Restrm_C" = 137.1259   $ Sizing
 "CSupFlo_Sys_T_StorSm_E" = 150.7345   $ Sizing
 "CSupFlo_Sys_T_StorSm_N" = 93.14843   $ Sizing
 "CSupFlo_Sys_T_StorSm_S" = 159.3113   $ Sizing
 "CSupFlo_Sys_T_StorSm_W" = 168.2954   $ Sizing
 "ClCap_Sys_L_Break_C" = 17325.76   $ Sizing
 "ClCap_Sys_L_CompDC_C" = 5247.377   $ Sizing
 "ClCap_Sys_L_Conf_C" = 12554.73   $ Sizing
 "ClCap_Sys_L_CopyRm_C" = 3627.636   $ Sizing
 "ClCap_Sys_L_Hall_E" = 4447.665   $ Sizing
 "ClCap_Sys_L_Hall_N" = 2628.79   $ Sizing
 "ClCap_Sys_L_Hall_S" = 4541.716   $ Sizing
 "ClCap_Sys_L_Hall_W" = 5047.738   $ Sizing
 "ClCap_Sys_L_LobWait_E" = 10594.03   $ Sizing
 "ClCap_Sys_L_LobWait_N" = 6999.318   $ Sizing
 "ClCap_Sys_L_LobWait_S" = 11261.88   $ Sizing
 "ClCap_Sys_L_LobWait_W" = 12858.64   $ Sizing
 "ClCap_Sys_L_MechElec_C" = 3119.667   $ Sizing
 "ClCap_Sys_L_OfficeOpn_C" = 2440.369   $ Sizing
 "ClCap_Sys_L_OfficeOpn_E" = 18683.91   $ Sizing
 "ClCap_Sys_L_OfficeOpn_N" = 13618.9   $ Sizing
 "ClCap_Sys_L_OfficeOpn_S" = 18936.66   $ Sizing
 "ClCap_Sys_L_OfficeOpn_W" = 21168.29   $ Sizing
 "ClCap_Sys_L_OfficeSm_E" = 15813.55   $ Sizing
 "ClCap_Sys_L_OfficeSm_N" = 10824.03   $ Sizing
 "ClCap_Sys_L_OfficeSm_S" = 16228.36   $ Sizing
 "ClCap_Sys_L_OfficeSm_W" = 18225.21   $ Sizing
 "ClCap_Sys_L_Restrm_C" = 3321.383   $ Sizing
 "ClCap_Sys_L_StorSm_C" = 1362.442   $ Sizing
 "ClCap_Sys_L_StorSm_E" = 4425.685   $ Sizing
 "ClCap_Sys_L_StorSm_N" = 2702.926   $ Sizing
 "ClCap_Sys_L_StorSm_S" = 4567.267   $ Sizing
 "ClCap_Sys_L_StorSm_W" = 4865.125   $ Sizing
 "ClCap_Sys_T_Conf_C" = 12101.17   $ Sizing
 "ClCap_Sys_T_Hall_E" = 4838.658   $ Sizing
 "ClCap_Sys_T_Hall_N" = 2872.486   $ Sizing
 "ClCap_Sys_T_Hall_S" = 5069.572   $ Sizing
 "ClCap_Sys_T_Hall_W" = 5395.507   $ Sizing
 "ClCap_Sys_T_OfficeOpn_C" = 2388.409   $ Sizing
 "ClCap_Sys_T_OfficeOpn_E" = 19209.85   $ Sizing
 "ClCap_Sys_T_OfficeOpn_N" = 14050.41   $ Sizing
 "ClCap_Sys_T_OfficeOpn_S" = 20462.03   $ Sizing
 "ClCap_Sys_T_OfficeOpn_W" = 21936.73   $ Sizing
 "ClCap_Sys_T_OfficeSm_E" = 16445.44   $ Sizing
 "ClCap_Sys_T_OfficeSm_N" = 11292.78   $ Sizing
 "ClCap_Sys_T_OfficeSm_S" = 17490.44   $ Sizing
 "ClCap_Sys_T_OfficeSm_W" = 18915.06   $ Sizing
 "ClCap_Sys_T_Restrm_C" = 4574.837   $ Sizing
 "ClCap_Sys_T_StorSm_E" = 5028.849   $ Sizing
 "ClCap_Sys_T_StorSm_N" = 3107.646   $ Sizing
 "ClCap_Sys_T_StorSm_S" = 5314.99   $ Sizing
 "ClCap_Sys_T_StorSm_W" = 5614.721   $ Sizing
 "HtCap_Sys_L_Break_C" = -26411.75   $ Sizing
 "HtCap_Sys_L_CompDC_C" = -8602.377   $ Sizing
 "HtCap_Sys_L_Conf_C" = -15685.42   $ Sizing
 "HtCap_Sys_L_CopyRm_C" = -5595.844   $ Sizing
 "HtCap_Sys_L_Hall_E" = -5168.468   $ Sizing
 "HtCap_Sys_L_Hall_N" = -2771.611   $ Sizing
 "HtCap_Sys_L_Hall_S" = -5027.738   $ Sizing
 "HtCap_Sys_L_Hall_W" = -5197.021   $ Sizing
 "HtCap_Sys_L_LobWait_E" = -12323.26   $ Sizing
 "HtCap_Sys_L_LobWait_N" = -8407.904   $ Sizing
 "HtCap_Sys_L_LobWait_S" = -12625.1   $ Sizing
 "HtCap_Sys_L_LobWait_W" = -13151.98   $ Sizing
 "HtCap_Sys_L_MechElec_C" = -4109.416   $ Sizing
 "HtCap_Sys_L_OfficeOpn_C" = -2993.732   $ Sizing
 "HtCap_Sys_L_OfficeOpn_E" = -20330.5   $ Sizing
 "HtCap_Sys_L_OfficeOpn_N" = -15202.86   $ Sizing
 "HtCap_Sys_L_OfficeOpn_S" = -20164.23   $ Sizing
 "HtCap_Sys_L_OfficeOpn_W" = -21581.64   $ Sizing
 "HtCap_Sys_L_OfficeSm_E" = -17843.38   $ Sizing
 "HtCap_Sys_L_OfficeSm_N" = -11649.61   $ Sizing
 "HtCap_Sys_L_OfficeSm_S" = -17408.69   $ Sizing
 "HtCap_Sys_L_OfficeSm_W" = -18386.51   $ Sizing
 "HtCap_Sys_L_Restrm_C" = -3530.001   $ Sizing
 "HtCap_Sys_L_StorSm_C" = -1754.406   $ Sizing
 "HtCap_Sys_L_StorSm_E" = -5118.777   $ Sizing
 "HtCap_Sys_L_StorSm_N" = -3249.743   $ Sizing
 "HtCap_Sys_L_StorSm_S" = -5044.03   $ Sizing
 "HtCap_Sys_L_StorSm_W" = -5075.714   $ Sizing
 "HtCap_Sys_T_Conf_C" = -15519.16   $ Sizing
 "HtCap_Sys_T_Hall_E" = -5597.637   $ Sizing
 "HtCap_Sys_T_Hall_N" = -3347.718   $ Sizing
 "HtCap_Sys_T_Hall_S" = -5813.572   $ Sizing
 "HtCap_Sys_T_Hall_W" = -5647.529   $ Sizing
 "HtCap_Sys_T_OfficeOpn_C" = -2945.623   $ Sizing
 "HtCap_Sys_T_OfficeOpn_E" = -20926.42   $ Sizing
 "HtCap_Sys_T_OfficeOpn_N" = -16358.43   $ Sizing
 "HtCap_Sys_T_OfficeOpn_S" = -21918.18   $ Sizing
 "HtCap_Sys_T_OfficeOpn_W" = -23298.18   $ Sizing
 "HtCap_Sys_T_OfficeSm_E" = -18289.53   $ Sizing
 "HtCap_Sys_T_OfficeSm_N" = -12841.84   $ Sizing
 "HtCap_Sys_T_OfficeSm_S" = -19037.8   $ Sizing
 "HtCap_Sys_T_OfficeSm_W" = -19531.91   $ Sizing
 "HtCap_Sys_T_Restrm_C" = -5117.765   $ Sizing
 "HtCap_Sys_T_StorSm_E" = -5897.054   $ Sizing
 "HtCap_Sys_T_StorSm_N" = -4115.62   $ Sizing
 "HtCap_Sys_T_StorSm_S" = -5899.291   $ Sizing
 "HtCap_Sys_T_StorSm_W" = -6310.783   $ Sizing
..

##include Templates\OfS_DX_SZ.inp
END ..
COMPUTE ..
STOP ..
