
Start DOESIM : Storage capacity =  75000000
Starting LOADS   : SAVE-FILES is On , weather is CZ01ARCATA-AP       
Finished LOADS    BDL  1 : Memory (wds) =    279125, Time (sec) =    2.02
Starting REPORT  
Finished REPORT   BDL  1 : Memory (wds) =    548604, Time (sec) =    0.60
Starting HVAC    : SAVE-FILES is On , weather is CZ01ARCATA-AP       
*** ERRORS or WARNINGS from HVAC     program. Examine output file for details.
Finished HVAC     BDL  1 : Memory (wds) =    483241, Time (sec) =    6.01
Starting REPORT  
Finished REPORT   BDL  1 : Memory (wds) =    826545, Time (sec) =    0.53
Starting HOURLY-R
Finished HOURLY-R BDL  1 : Memory (wds) =   1086479, Time (sec) =    0.14
Starting ECONOMIC
Finished ECONOMIC BDL  1 : Memory (wds) =      1034, Time (sec) =    0.03
End   DOESIM : Total elapsed time of      9.3 seconds
RUN COMPLETE
