
Start DOESIM : Storage capacity =  75000000
Starting LOADS   : SAVE-FILES is On , weather is CZ01ARCATA-AP       
Finished LOADS    BDL  1 : Memory (wds) =    279104, Time (sec) =    1.49
Starting REPORT  
Finished REPORT   BDL  1 : Memory (wds) =    548583, Time (sec) =    0.59
Starting HVAC    : SAVE-FILES is On , weather is CZ01ARCATA-AP       
*** ERRORS or WARNINGS from HVAC     program. Examine output file for details.
Finished HVAC     BDL  1 : Memory (wds) =    483220, Time (sec) =    7.48
Starting REPORT  
Finished REPORT   BDL  1 : Memory (wds) =    860633, Time (sec) =    0.60
Starting HOURLY-R
Finished HOURLY-R BDL  1 : Memory (wds) =   1100255, Time (sec) =    0.14
Starting ECONOMIC
Finished ECONOMIC BDL  1 : Memory (wds) =      1034, Time (sec) =    0.04
End   DOESIM : Total elapsed time of     10.4 seconds
RUN COMPLETE
