INPUT ..

##fileprefix C:\Users\jglasskatz\MASControl3\
##set1 IsSizing TRUE
##set1 CoolType DX
##set1 HeatType ELECTRIC
##set1 EU_HrRepVar 1
##set1 BldgVint New
##set1 BldgLoc CZ01

 ##set1 mBFMult 1   $ IP Tech: RefgChg-NRes-Std

PARAMETER
 "AltFactor" = 1.00753   $ IP Non-Tech
 "BldgEconoFlag" = 1   $ IP Non-Tech
 "Break_EWSF" = 1   $ IP Non-Tech
 "Break_LWSF" = 0.65   $ IP Non-Tech
 "CDD_DBHi10" = 65   $ IP Non-Tech
 "CDD_DBHi7" = 68   $ IP Non-Tech
 "CDD_DBHi8" = 66   $ IP Non-Tech
 "CDD_DBHi9" = 77   $ IP Non-Tech
 "CDD_DBRange10" = 17   $ IP Non-Tech
 "CDD_DBRange7" = 11   $ IP Non-Tech
 "CDD_DBRange8" = 10   $ IP Non-Tech
 "CDD_DBRange9" = 29   $ IP Non-Tech
 "CDD_Day10" = 15   $ IP Non-Tech
 "CDD_Day7" = 16   $ IP Non-Tech
 "CDD_Day8" = 20   $ IP Non-Tech
 "CDD_Day9" = 17   $ IP Non-Tech
 "CDD_HrHi10" = 12   $ IP Non-Tech
 "CDD_HrHi7" = 12   $ IP Non-Tech
 "CDD_HrHi8" = 13   $ IP Non-Tech
 "CDD_HrHi9" = 17   $ IP Non-Tech
 "CDD_HrLo10" = 6   $ IP Non-Tech
 "CDD_HrLo7" = 3   $ IP Non-Tech
 "CDD_HrLo8" = 8   $ IP Non-Tech
 "CDD_HrLo9" = 4   $ IP Non-Tech
 "CDD_WB10" = 57.53039551   $ IP Non-Tech
 "CDD_WB7" = 59.29250717   $ IP Non-Tech
 "CDD_WB8" = 60.75350189   $ IP Non-Tech
 "CDD_WB9" = 61.08643341   $ IP Non-Tech
 "CZ_Category" = Tem   $ IP Non-Tech
 "ChwVintEconoFlag" = 1   $ IP Non-Tech
 "CompRoomData_EWSF" = 5   $ IP Non-Tech
 "CompRoomData_LWSF" = 0.8   $ IP Non-Tech
 "Conference_EWSF" = 1   $ IP Non-Tech
 "Conference_LWSF" = 0.85   $ IP Non-Tech
 "CoolSetT" = 45   $ IP Non-Tech
 "CoolType" = DX   $ IP Non-Tech
 "CopyRoom_EWSF" = 1.5   $ IP Non-Tech
 "CopyRoom_LWSF" = 0.5   $ IP Non-Tech
 "DesCoolT" = 75   $ IP Non-Tech
 "DesHeatT" = 73   $ IP Non-Tech
 "EconoEnthLimit" = 28   $ IP Non-Tech
 "EconoTempLimit" = 70   $ IP Non-Tech
 "Elevation" = 203   $ IP Non-Tech
 "HDD_CloudAmt1" = 0   $ IP Non-Tech
 "HDD_DBHi1" = 53   $ IP Non-Tech
 "HDD_DBRange1" = 20   $ IP Non-Tech
 "HDD_Day1" = 15   $ IP Non-Tech
 "HDD_HrHi1" = 14   $ IP Non-Tech
 "HDD_HrLo1" = 6   $ IP Non-Tech
 "HDD_WB1" = 42.3   $ IP Non-Tech
 "HDD_WindSpd1" = 12.7   $ IP Non-Tech
 "Hall_EWSF" = 0.2   $ IP Non-Tech
 "Hall_LWSF" = 0.55   $ IP Non-Tech
 "HeatSrc" = ELECTRIC   $ IP Non-Tech
 "HeatSrcTU" = HEAT-PUMP   $ IP Non-Tech
 "HeatType" = Elec   $ IP Non-Tech
 "HeatTypeTU" = HEAT-PUMP   $ IP Non-Tech
 "IndoorFanMode" = CONTINUOUS   $ IP Non-Tech
 "KT_TransferAir" = Yes   $ IP Non-Tech
 "Latitude" = 40.8   $ IP Non-Tech
 "LobbyWaiting_EWSF" = 0.5   $ IP Non-Tech
 "LobbyWaiting_LWSF" = 0.75   $ IP Non-Tech
 "Longitude" = 124.2   $ IP Non-Tech
 "LtgMsrApplic" = ALL   $ Msr TechID: NonResLtgRefMsr-EX
 "LtgSav_CFL" = 0   $ Msr TechID: NonResLtgRefMsr-EX
 "LtgSav_EX" = 0.3   $ Msr TechID: NonResLtgRefMsr-EX
 "LtgSav_HB" = 0   $ Msr TechID: NonResLtgRefMsr-EX
 "LtgSav_LF" = 0   $ Msr TechID: NonResLtgRefMsr-EX
 "LtgSav_SP" = 0   $ Msr TechID: NonResLtgRefMsr-EX
 "MZFanMechEff" = 0.58   $ IP Non-Tech
 "MZHasRetFan" = FALSE   $ IP Non-Tech
 "MZ_RFanWPerCfm" = 0.33   $ IP Non-Tech
 "MZ_SFanWPerCfm" = 0.75   $ IP Non-Tech
 "MZ_SupFanStatic" = 4   $ IP Non-Tech
 "MaxSupT_MZ" = 95   $ IP Non-Tech
 "MaxSupT_SZ" = 100   $ IP Non-Tech
 "MaxSupT_TU" = 100   $ IP Non-Tech
 "MechElecRoom_EWSF" = 0.2   $ IP Non-Tech
 "MechElecRoom_LWSF" = 0.4   $ IP Non-Tech
 "MinCfmPerSF" = 0.4   $ IP Non-Tech
 "MinSupT" = 55   $ IP Non-Tech
 "NumBlrs" = 1   $ IP Non-Tech
 "OccCoolT" = 76   $ IP Non-Tech
 "OccHeatT" = 72   $ IP Non-Tech
 "OfficeOpen_EWSF" = 1.5   $ IP Non-Tech
 "OfficeOpen_LWSF" = 0.8   $ IP Non-Tech
 "OfficeSmall_EWSF" = 1.5   $ IP Non-Tech
 "OfficeSmall_LWSF" = 0.9   $ IP Non-Tech
 "PkgDxVintEconoFlag" = 1   $ IP Non-Tech
 "ReheatDeltaT" = 40   $ IP Non-Tech
 "Restroom_EWSF" = 0.2   $ IP Non-Tech
 "Restroom_LWSF" = 0.65   $ IP Non-Tech
 "SZFanMechEff" = 0.58   $ IP Non-Tech
 "SZHasRetFan" = FALSE   $ IP Non-Tech
 "SZ_Is_2Spd" = TRUE   $ IP Non-Tech
 "SZ_SFanWPerCfm" = 0.46   $ IP Non-Tech
 "StorageSmlCond_EWSF" = 0.2   $ IP Non-Tech
 "StorageSmlCond_LWSF" = 0.45   $ IP Non-Tech
 "TermUnitFanMechEff" = 1   $ IP Non-Tech
 "TermUnitFanMode" = INTERMITTENT   $ IP Non-Tech
 "TwrSetpt" = 80   $ IP Non-Tech
 "UnocCoolT" = 86   $ IP Non-Tech
 "UnocHeatT" = 62   $ IP Non-Tech
 "VAVMinFlow" = 0.3   $ IP Non-Tech
 "WlhpVintEconoFlag" = 1   $ IP Non-Tech
 "EconoCtrl" = OA-TEMP   $ IP Tech: AirEcono-OATemp
 "MaxOAFrac" = 0.85   $ IP Tech: AirEcono-OATemp
 "UseEconoVintApplic" = FALSE   $ IP Tech: AirEcono-OATemp
 "DuctDT" = 1   $ IP Tech: ComDuctInsul-1
 "DuctAirLoss" = 0   $ IP Tech: ComDuctLeak-0
 "DuctLossOAFrac" = 0   $ IP Tech: ComDuctLeak-0
 "ComRoofInsCalc" = FromUo   $ IP Tech: ComRoofIns-WFrm-0.03
 "ComRoofInsR" = -999   $ IP Tech: ComRoofIns-WFrm-0.03
 "ComRoofUo" = 0.03   $ IP Tech: ComRoofIns-WFrm-0.03
 "ComEWInsCalc" = FromUo   $ IP Tech: ComWallIns-WFrm-0.08
 "ComEWInsR" = -999   $ IP Tech: ComWallIns-WFrm-0.08
 "ComEWUo" = 0.08   $ IP Tech: ComWallIns-WFrm-0.08
 "ComN_SHGC" = 0.25   $ IP Tech: NResWin-ComN-0.36-0.25
 "ComN_UFactor" = 0.36   $ IP Tech: NResWin-ComN-0.36-0.25
 "ComN_VisTrans" = 0.41   $ IP Tech: NResWin-ComN-0.36-0.25
 "ComN_WinCode" = G2668   $ IP Tech: NResWin-ComN-0.36-0.25
 "ComN_WinFrmFrac" = 0.17   $ IP Tech: NResWin-ComN-0.36-0.25
 "ComN_WinFrmU" = 0.3   $ IP Tech: NResWin-ComN-0.36-0.25
 "ComO_SHGC" = 0.25   $ IP Tech: NResWin-ComO-0.36-0.25
 "ComO_UFactor" = 0.36   $ IP Tech: NResWin-ComO-0.36-0.25
 "ComO_VisTrans" = 0.41   $ IP Tech: NResWin-ComO-0.36-0.25
 "ComO_WinCode" = G2668   $ IP Tech: NResWin-ComO-0.36-0.25
 "ComO_WinFrmFrac" = 0.17   $ IP Tech: NResWin-ComO-0.36-0.25
 "ComO_WinFrmU" = 0.3   $ IP Tech: NResWin-ComO-0.36-0.25
 "PV_BF_fFlow" = PVV240to760_BF_fFlow   $ IP Tech: PVVAC-P-240to760-E10
 "PV_BF_fT" = PVV240to760_BF_fT   $ IP Tech: PVVAC-P-240to760-E10
 "PV_CEIR_fPLR" = PVV240to760_CEIR_fPLR   $ IP Tech: PVVAC-P-240to760-E10
 "PV_CLoss_fPLR" = PVV240to760_CLoss_fPLR   $ IP Tech: PVVAC-P-240to760-E10
 "PV_COP" = -1   $ IP Tech: PVVAC-P-240to760-E10
 "PV_COP47" = -1   $ IP Tech: PVVAC-P-240to760-E10
 "PV_CfmPerBtuh" = 0.02917   $ IP Tech: PVVAC-P-240to760-E10
 "PV_ClCap_fT" = PVV240to760_ClCap_fT   $ IP Tech: PVVAC-P-240to760-E10
 "PV_ClSH_fT" = PVV240to760_ClSH_fT   $ IP Tech: PVVAC-P-240to760-E10
 "PV_CoilBF" = 0.125   $ IP Tech: PVVAC-P-240to760-E10
 "PV_CondWPerBtuh" = 0   $ IP Tech: PVVAC-P-240to760-E10
 "PV_CoolSensCap" = 0.708   $ IP Tech: PVVAC-P-240to760-E10
 "PV_CoolingEIR" = 0.27383   $ IP Tech: PVVAC-P-240to760-E10
 "PV_CrnkEIR" = 0.0027   $ IP Tech: PVVAC-P-240to760-E10
 "PV_CrnkMaxT" = 50   $ IP Tech: PVVAC-P-240to760-E10
 "PV_DXType" = PVV   $ IP Tech: PVVAC-P-240to760-E10
 "PV_EER" = 9.17   $ IP Tech: PVVAC-P-240to760-E10
 "PV_EIR_fT" = PVV240to760_EIR_fT   $ IP Tech: PVVAC-P-240to760-E10
 "PV_FanEirPlr" = NA   $ IP Tech: PVVAC-P-240to760-E10
 "PV_FanWPerCfm" = 0.72   $ IP Tech: PVVAC-P-240to760-E10
 "PV_HIR_fT" = DEFAULT   $ IP Tech: PVVAC-P-240to760-E10
 "PV_HtCap_fT" = DEFAULT   $ IP Tech: PVVAC-P-240to760-E10
 "PV_HtCoolCapRatio" = -1   $ IP Tech: PVVAC-P-240to760-E10
 "PV_HtgEIR" = -1   $ IP Tech: PVVAC-P-240to760-E10
 "PV_HtgFuel" = HW   $ IP Tech: PVVAC-P-240to760-E10
 "PV_IEER" = 11.44   $ IP Tech: PVVAC-P-240to760-E10
 "PV_LowSpdCapRatio" = 0.17   $ IP Tech: PVVAC-P-240to760-E10
 "PV_LowSpdCfmRatio" = 0.24   $ IP Tech: PVVAC-P-240to760-E10
 "PV_NominalCap" = 40   $ IP Tech: PVVAC-P-240to760-E10
 "PV_NumStages" = 1   $ IP Tech: PVVAC-P-240to760-E10
 "PV_RatedEER" = 10   $ IP Tech: PVVAC-P-240to760-E10
 "PV_RatedSupMtrClass" = Premium   $ IP Tech: PVVAC-P-240to760-E10
 "PV_SizeRange" = 240to760   $ IP Tech: PVVAC-P-240to760-E10
 "PV_SubType" = AC   $ IP Tech: PVVAC-P-240to760-E10
 "PV_SupMotEff" = 0.93   $ IP Tech: PVVAC-P-240to760-E10
 "PV_Tier" = 0   $ IP Tech: PVVAC-P-240to760-E10
 "PV_TotCoolCap" = 485760   $ IP Tech: PVVAC-P-240to760-E10
 "BF_fFlow" = PSZ65to135_BF_fFlow   $ IP Tech: PkgAC2SpP-65to135-E11.2
 "BF_fT" = PSZ65to135_BF_fT   $ IP Tech: PkgAC2SpP-65to135-E11.2
 "CEIR_fPLR" = PSZ65to135_CEIR_fPLR   $ IP Tech: PkgAC2SpP-65to135-E11.2
 "CLoss_fPLR" = PSZ65to135_CLoss_fPLR   $ IP Tech: PkgAC2SpP-65to135-E11.2
 "COP" = -1   $ IP Tech: PkgAC2SpP-65to135-E11.2
 "COP47" = -1   $ IP Tech: PkgAC2SpP-65to135-E11.2
 "CfmPerBtuh" = 0.02917   $ IP Tech: PkgAC2SpP-65to135-E11.2
 "ClCap_fT" = PSZ65to135_ClCap_fT   $ IP Tech: PkgAC2SpP-65to135-E11.2
 "ClSH_fT" = PSZ65to135_ClSH_fT   $ IP Tech: PkgAC2SpP-65to135-E11.2
 "CoilBF" = 0.114   $ IP Tech: PkgAC2SpP-65to135-E11.2
 "CondWPerBtuh" = 0   $ IP Tech: PkgAC2SpP-65to135-E11.2
 "CoolSensCap" = 0.663   $ IP Tech: PkgAC2SpP-65to135-E11.2
 "CoolingEIR" = 0.26277   $ IP Tech: PkgAC2SpP-65to135-E11.2
 "CrnkEIR" = 0.0026   $ IP Tech: PkgAC2SpP-65to135-E11.2
 "CrnkMaxT" = 50   $ IP Tech: PkgAC2SpP-65to135-E11.2
 "DXType" = Pkg   $ IP Tech: PkgAC2SpP-65to135-E11.2
 "EER" = 10.83   $ IP Tech: PkgAC2SpP-65to135-E11.2
 "EIR_fT" = PSZ65to135_EIR_fT   $ IP Tech: PkgAC2SpP-65to135-E11.2
 "FanEirPlr" = TwoSpeedFan   $ IP Tech: PkgAC2SpP-65to135-E11.2
 "FanWPerCfm" = 0.4   $ IP Tech: PkgAC2SpP-65to135-E11.2
 "HIR_fT" = DEFAULT   $ IP Tech: PkgAC2SpP-65to135-E11.2
 "HtCap_fT" = DEFAULT   $ IP Tech: PkgAC2SpP-65to135-E11.2
 "HtCoolCapRatio" = -1   $ IP Tech: PkgAC2SpP-65to135-E11.2
 "HtgEIR" = -1   $ IP Tech: PkgAC2SpP-65to135-E11.2
 "HtgFuel" = Gas   $ IP Tech: PkgAC2SpP-65to135-E11.2
 "IEER" = 13.65   $ IP Tech: PkgAC2SpP-65to135-E11.2
 "LowSpdCapRatio" = 0.5   $ IP Tech: PkgAC2SpP-65to135-E11.2
 "LowSpdCfmRatio" = 0.66   $ IP Tech: PkgAC2SpP-65to135-E11.2
 "NominalCap" = 15   $ IP Tech: PkgAC2SpP-65to135-E11.2
 "NumStages" = 2   $ IP Tech: PkgAC2SpP-65to135-E11.2
 "RatedEER" = 11.2   $ IP Tech: PkgAC2SpP-65to135-E11.2
 "RatedSupMtrClass" = Premium   $ IP Tech: PkgAC2SpP-65to135-E11.2
 "SizeRange" = 65to135   $ IP Tech: PkgAC2SpP-65to135-E11.2
 "SubType" = AC   $ IP Tech: PkgAC2SpP-65to135-E11.2
 "SupMotEff" = 0.865   $ IP Tech: PkgAC2SpP-65to135-E11.2
 "Tier" = 0   $ IP Tech: PkgAC2SpP-65to135-E11.2
 "TotCoolCap" = 184140   $ IP Tech: PkgAC2SpP-65to135-E11.2
 "BFMult" = 1   $ IP Tech: RefgChg-NRes-Std
 "CoolEirMult" = 1   $ IP Tech: RefgChg-NRes-Std
 "SensCoolCapMult" = 1   $ IP Tech: RefgChg-NRes-Std
 "TotCoolCapMult" = 1   $ IP Tech: RefgChg-NRes-Std
 "SATempCtrl" = WARMEST   $ IP Tech: SATempCtrl-Warmest
 "FanEIR_fPLR" = "Variable Speed Drive FPLR"   $ IP Tech: VAVCtrl-VSD-AnyHP
 "Fan_Control" = VSD   $ IP Tech: VAVCtrl-VSD-AnyHP
 "Motor_Horsepower" = AnyHP   $ IP Tech: VAVCtrl-VSD-AnyHP
..

##include Templates\OfS_DX_MZ.inp
END ..
COMPUTE ..
STOP ..
