INPUT ..

##fileprefix C:\Users\jglasskatz\MASControl3\
##set1 IsSizing FALSE
##set1 CoolType DX
##set1 HeatType FURNACE
##set1 EU_HrRepVar 0
##set1 BldgVint 2015
##set1 BldgLoc CZ11

 ##set1 mBFMult 1   $ IP Tech: RefgChg-NRes-Std

PARAMETER
 "AltFactor" = 1.01292   $ IP Non-Tech
 "BF_fFlow" = SpltAC1Sp-lt45_BF_fFlow   $ Msr (Var)TechID: PreNResSplitAC-lt45-PENo
 "BF_fT" = SpltAC1Sp-lt45_BF_fT   $ Msr (Var)TechID: PreNResSplitAC-lt45-PENo
 "BldgEconoFlag" = 1   $ IP Non-Tech
 "Break_EWSF" = 1   $ IP Non-Tech
 "Break_LWSF" = 1.1   $ IP Non-Tech
 "CDD_DBHi10" = 85   $ IP Non-Tech
 "CDD_DBHi7" = 106   $ IP Non-Tech
 "CDD_DBHi8" = 106   $ IP Non-Tech
 "CDD_DBHi9" = 99   $ IP Non-Tech
 "CDD_DBRange10" = 23   $ IP Non-Tech
 "CDD_DBRange7" = 30   $ IP Non-Tech
 "CDD_DBRange8" = 33   $ IP Non-Tech
 "CDD_DBRange9" = 33   $ IP Non-Tech
 "CDD_Day10" = 15   $ IP Non-Tech
 "CDD_Day7" = 16   $ IP Non-Tech
 "CDD_Day8" = 20   $ IP Non-Tech
 "CDD_Day9" = 17   $ IP Non-Tech
 "CDD_HrHi10" = 16   $ IP Non-Tech
 "CDD_HrHi7" = 16   $ IP Non-Tech
 "CDD_HrHi8" = 16   $ IP Non-Tech
 "CDD_HrHi9" = 16   $ IP Non-Tech
 "CDD_HrLo10" = 6   $ IP Non-Tech
 "CDD_HrLo7" = 7   $ IP Non-Tech
 "CDD_HrLo8" = 7   $ IP Non-Tech
 "CDD_HrLo9" = 7   $ IP Non-Tech
 "CDD_WB10" = 59.3704567   $ IP Non-Tech
 "CDD_WB7" = 72.37876129   $ IP Non-Tech
 "CDD_WB8" = 69.41531372   $ IP Non-Tech
 "CDD_WB9" = 65.60124207   $ IP Non-Tech
 "CEIR_fPLR_Hot" = SpltAC1Sp-lt45_CEIR_fPLR_Hot   $ Msr (Var)TechID: PreNResSplitAC-lt45-PENo
 "CEIR_fPLR_Mod" = SpltAC1Sp-lt45_CEIR_fPLR_Mod   $ Msr (Var)TechID: PreNResSplitAC-lt45-PENo
 "CEIR_fPLR_Tem" = SpltAC1Sp-lt45_CEIR_fPLR_Tem   $ Msr (Var)TechID: PreNResSplitAC-lt45-PENo
 "CLoss_fPLR_Hot" = SpltAC1Sp-lt45_CLoss_fPLR_Hot   $ Msr (Var)TechID: PreNResSplitAC-lt45-PENo
 "CLoss_fPLR_Mod" = SpltAC1Sp-lt45_CLoss_fPLR_Mod   $ Msr (Var)TechID: PreNResSplitAC-lt45-PENo
 "CLoss_fPLR_Tem" = SpltAC1Sp-lt45_CLoss_fPLR_Tem   $ Msr (Var)TechID: PreNResSplitAC-lt45-PENo
 "COP47" = 0   $ Msr (Var)TechID: PreNResSplitAC-lt45-PENo
 "CZ_Category" = Hot   $ IP Non-Tech
 "CapRange" = lt45   $ Msr (Var)TechID: PreNResSplitAC-lt45-PENo
 "CfmPerBtuh" = 0.032504286   $ Msr (Var)TechID: PreNResSplitAC-lt45-PENo
 "ChwVintEconoFlag" = 1   $ IP Non-Tech
 "ClCap_fT" = SpltAC1Sp-lt45_ClCap_fT   $ Msr (Var)TechID: PreNResSplitAC-lt45-PENo
 "ClSH_fT" = SpltAC1Sp-lt45_ClSH_fT   $ Msr (Var)TechID: PreNResSplitAC-lt45-PENo
 "CoilBF" = 0.1212   $ Msr (Var)TechID: PreNResSplitAC-lt45-PENo
 "CompRoomData_EWSF" = 5   $ IP Non-Tech
 "CompRoomData_LWSF" = 1.05   $ IP Non-Tech
 "CondWPerBtuh" = 0   $ Msr (Var)TechID: PreNResSplitAC-lt45-PENo
 "Conference_EWSF" = 1   $ IP Non-Tech
 "Conference_LWSF" = 1.4   $ IP Non-Tech
 "CoolSensCap" = 0.754064286   $ Msr (Var)TechID: PreNResSplitAC-lt45-PENo
 "CoolSetT" = 45   $ IP Non-Tech
 "CoolType" = DX   $ IP Non-Tech
 "CoolingEIR" = 0.23878   $ Msr (Var)TechID: PreNResSplitAC-lt45-PENo
 "CopyRoom_EWSF" = 1.5   $ IP Non-Tech
 "CopyRoom_LWSF" = 1.3   $ IP Non-Tech
 "CrnkEIR" = 0.0023878   $ Msr (Var)TechID: PreNResSplitAC-lt45-PENo
 "CrnkMaxT" = 50   $ Msr (Var)TechID: PreNResSplitAC-lt45-PENo
 "DXType" = SplitSEER   $ Msr (Var)TechID: PreNResSplitAC-lt45-PENo
 "DesCoolT" = 75   $ IP Non-Tech
 "DesHeatT" = 73   $ IP Non-Tech
 "EER" = 12.16551724   $ Msr (Var)TechID: PreNResSplitAC-lt45-PENo
 "EIR_fT" = SpltAC1Sp-lt45_EIR_fT   $ Msr (Var)TechID: PreNResSplitAC-lt45-PENo
 "EconoCtrl" = FIXED   $ Msr (Multi)TechID: PreNResSplitAC-lt45-PENo
 "EconoEnthLimit" = 28   $ IP Non-Tech
 "EconoTempLimit" = 75   $ IP Non-Tech
 "Elevation" = 348   $ IP Non-Tech
 "FanEirPlr" = TwoSpeedFan   $ Msr (Var)TechID: PreNResSplitAC-lt45-PENo
 "FanWPerCfm" = 0.294   $ Msr (Var)TechID: PreNResSplitAC-lt45-PENo
 "HDD_CloudAmt1" = 0   $ IP Non-Tech
 "HDD_DBHi1" = 46   $ IP Non-Tech
 "HDD_DBRange1" = 14   $ IP Non-Tech
 "HDD_Day1" = 15   $ IP Non-Tech
 "HDD_HrHi1" = 16   $ IP Non-Tech
 "HDD_HrLo1" = 7   $ IP Non-Tech
 "HDD_WB1" = 39.9   $ IP Non-Tech
 "HDD_WindSpd1" = 19.6   $ IP Non-Tech
 "HIR_fT" = 0   $ Msr (Var)TechID: PreNResSplitAC-lt45-PENo
 "HSPF" = 0   $ Msr (Var)TechID: PreNResSplitAC-lt45-PENo
 "Hall_EWSF" = 0.2   $ IP Non-Tech
 "Hall_LWSF" = 0.6   $ IP Non-Tech
 "HeatSrc" = FURNACE   $ IP Non-Tech
 "HeatSrcTU" = HEAT-PUMP   $ IP Non-Tech
 "HeatType" = GasFurn   $ IP Non-Tech
 "HeatTypeTU" = HEAT-PUMP   $ IP Non-Tech
 "HtCap_fT" = 0   $ Msr (Var)TechID: PreNResSplitAC-lt45-PENo
 "HtCoolCapRatio" = 0   $ Msr (Var)TechID: PreNResSplitAC-lt45-PENo
 "HtgEIR" = 0   $ Msr (Var)TechID: PreNResSplitAC-lt45-PENo
 "IndoorFanMode" = CONTINUOUS   $ IP Non-Tech
 "KT_TransferAir" = Yes   $ IP Non-Tech
 "Latitude" = 40.2   $ IP Non-Tech
 "LobbyWaiting_EWSF" = 0.5   $ IP Non-Tech
 "LobbyWaiting_LWSF" = 1.3   $ IP Non-Tech
 "Longitude" = 122.3   $ IP Non-Tech
 "LowSpdCapRatio" = 1   $ Msr (Var)TechID: PreNResSplitAC-lt45-PENo
 "LowSpdCfmRatio" = 1   $ Msr (Var)TechID: PreNResSplitAC-lt45-PENo
 "MZFanMechEff" = 0.58   $ IP Non-Tech
 "MZHasRetFan" = FALSE   $ IP Non-Tech
 "MZ_RFanWPerCfm" = 0.33   $ IP Non-Tech
 "MZ_SFanWPerCfm" = 0.75   $ IP Non-Tech
 "MZ_SupFanStatic" = 2.25   $ IP Non-Tech
 "MaxOAFrac" = 1   $ Msr (Multi)TechID: PreNResSplitAC-lt45-PENo
 "MaxSupT_MZ" = 100   $ IP Non-Tech
 "MaxSupT_SZ" = 100   $ IP Non-Tech
 "MaxSupT_TU" = 90   $ IP Non-Tech
 "MechElecRoom_EWSF" = 0.2   $ IP Non-Tech
 "MechElecRoom_LWSF" = 0.7   $ IP Non-Tech
 "MinCfmPerSF" = 0.4   $ IP Non-Tech
 "MinSupT" = 55   $ IP Non-Tech
 "NumStages" = 1   $ Msr (Var)TechID: PreNResSplitAC-lt45-PENo
 "OccCoolT" = 76   $ IP Non-Tech
 "OccHeatT" = 72   $ IP Non-Tech
 "OfficeOpen_EWSF" = 1.5   $ IP Non-Tech
 "OfficeOpen_LWSF" = 1.05   $ IP Non-Tech
 "OfficeSmall_EWSF" = 1.5   $ IP Non-Tech
 "OfficeSmall_LWSF" = 1.3   $ IP Non-Tech
 "PkgDxVintEconoFlag" = 1   $ IP Non-Tech
 "Restroom_EWSF" = 0.2   $ IP Non-Tech
 "Restroom_LWSF" = 0.6   $ IP Non-Tech
 "SEER" = 14   $ Msr (Var)TechID: PreNResSplitAC-lt45-PENo
 "SZFanMechEff" = 0.58   $ IP Non-Tech
 "SZHasRetFan" = FALSE   $ IP Non-Tech
 "SZ_Is_2Spd" = TRUE   $ IP Non-Tech
 "SZ_SFanWPerCfm" = 0.46   $ IP Non-Tech
 "SZ_SupFanStatic" = 0.75   $ IP Non-Tech
 "Sector" = Any   $ Msr (Var)TechID: PreNResSplitAC-lt45-PENo
 "StorageSmlCond_EWSF" = 0.2   $ IP Non-Tech
 "StorageSmlCond_LWSF" = 0.6   $ IP Non-Tech
 "SubType" = AC   $ Msr (Var)TechID: PreNResSplitAC-lt45-PENo
 "T24GlzTbl" = TypeTbl   $ IP Non-Tech
 "TermUnitFanMechEff" = 1   $ IP Non-Tech
 "TermUnitFanMode" = INTERMITTENT   $ IP Non-Tech
 "TotCoolCap" = 30924.85714   $ Msr (Var)TechID: PreNResSplitAC-lt45-PENo
 "TwrSetpt" = 85.8   $ IP Non-Tech
 "UnocCoolT" = 86   $ IP Non-Tech
 "UnocHeatT" = 62   $ IP Non-Tech
 "UseEconoVintApplic" = FALSE   $ Msr (Multi)TechID: PreNResSplitAC-lt45-PENo
 "WlhpVintEconoFlag" = 1   $ IP Non-Tech
 "DuctDT" = 1   $ IP Tech: ComDuctInsul-1
 "DuctAirLoss" = 0   $ IP Tech: ComDuctLeak-0
 "DuctLossOAFrac" = 0   $ IP Tech: ComDuctLeak-0
 "ComRoofInsCalc" = FromUo   $ IP Tech: ComRoofIns-WFrm-0.04
 "ComRoofInsR" = -999   $ IP Tech: ComRoofIns-WFrm-0.04
 "ComRoofUo" = 0.04   $ IP Tech: ComRoofIns-WFrm-0.04
 "ComEWInsCalc" = FromUo   $ IP Tech: ComWallIns-WFrm-0.06
 "ComEWInsR" = -999   $ IP Tech: ComWallIns-WFrm-0.06
 "ComEWUo" = 0.06   $ IP Tech: ComWallIns-WFrm-0.06
 "ComN_SHGC" = 0.25   $ IP Tech: NResWin-ComN-0.36-0.25
 "ComN_UFactor" = 0.36   $ IP Tech: NResWin-ComN-0.36-0.25
 "ComN_VisTrans" = 0.41   $ IP Tech: NResWin-ComN-0.36-0.25
 "ComN_WinCode" = G2668   $ IP Tech: NResWin-ComN-0.36-0.25
 "ComN_WinFrmFrac" = 0.17   $ IP Tech: NResWin-ComN-0.36-0.25
 "ComN_WinFrmU" = 0.3   $ IP Tech: NResWin-ComN-0.36-0.25
 "ComO_SHGC" = 0.25   $ IP Tech: NResWin-ComO-0.36-0.25
 "ComO_UFactor" = 0.36   $ IP Tech: NResWin-ComO-0.36-0.25
 "ComO_VisTrans" = 0.41   $ IP Tech: NResWin-ComO-0.36-0.25
 "ComO_WinCode" = G2668   $ IP Tech: NResWin-ComO-0.36-0.25
 "ComO_WinFrmFrac" = 0.17   $ IP Tech: NResWin-ComO-0.36-0.25
 "ComO_WinFrmU" = 0.3   $ IP Tech: NResWin-ComO-0.36-0.25
 "LtgMsrApplic" = ALL   $ IP Tech: NonResLtgRefPre
 "LtgSav_CFL" = 0   $ IP Tech: NonResLtgRefPre
 "LtgSav_EX" = 0   $ IP Tech: NonResLtgRefPre
 "LtgSav_HB" = 0   $ IP Tech: NonResLtgRefPre
 "LtgSav_LF" = 0   $ IP Tech: NonResLtgRefPre
 "LtgSav_SP" = 0   $ IP Tech: NonResLtgRefPre
 "CEIR_fPLR" = PSZ65to135_CEIR_fPLR   $ IP Tech: PkgAC2SpP-65to135-E11
 "CLoss_fPLR" = PSZ65to135_CLoss_fPLR   $ IP Tech: PkgAC2SpP-65to135-E11
 "COP" = -1   $ IP Tech: PkgAC2SpP-65to135-E11
 "HtgFuel" = Gas   $ IP Tech: PkgAC2SpP-65to135-E11
 "IEER" = 13.35   $ IP Tech: PkgAC2SpP-65to135-E11
 "NominalCap" = 15   $ IP Tech: PkgAC2SpP-65to135-E11
 "RatedEER" = 11   $ IP Tech: PkgAC2SpP-65to135-E11
 "RatedSupMtrClass" = Premium   $ IP Tech: PkgAC2SpP-65to135-E11
 "SizeRange" = 65to135   $ IP Tech: PkgAC2SpP-65to135-E11
 "SupMotEff" = 0.865   $ IP Tech: PkgAC2SpP-65to135-E11
 "Tier" = 0   $ IP Tech: PkgAC2SpP-65to135-E11
 "FanPwrMult" = 1   $ IP Tech: PkgFurn-0.80AFUE
 "FurnAFUE" = 0.8   $ IP Tech: PkgFurn-0.80AFUE
 "FurnEt" = 0.82   $ IP Tech: PkgFurn-0.80AFUE
 "FurnaceAuxKW" = 0.1   $ IP Tech: PkgFurn-0.80AFUE
 "HIR_fPLR" = Furnace-HIR-fPLR   $ IP Tech: PkgFurn-0.80AFUE
 "VSM" = FALSE   $ IP Tech: PkgFurn-0.80AFUE
 "BFMult" = 1   $ IP Tech: RefgChg-NRes-Std
 "CoolEirMult" = 1   $ IP Tech: RefgChg-NRes-Std
 "SensCoolCapMult" = 1   $ IP Tech: RefgChg-NRes-Std
 "TotCoolCapMult" = 1   $ IP Tech: RefgChg-NRes-Std
 "AltAdjFactor" = 1.012923   $ Sizing
 "CAssFlo_L_Break_CZn" = 506.7693   $ Sizing
 "CAssFlo_L_CompDC_CZn" = 158.6497   $ Sizing
 "CAssFlo_L_Conf_CZn" = 291.1617   $ Sizing
 "CAssFlo_L_CopyRm_CZn" = 107.0934   $ Sizing
 "CAssFlo_L_Hall_EZn" = 107.207   $ Sizing
 "CAssFlo_L_Hall_NZn" = 68.50018   $ Sizing
 "CAssFlo_L_Hall_SZn" = 103.7182   $ Sizing
 "CAssFlo_L_Hall_WZn" = 117.5187   $ Sizing
 "CAssFlo_L_LobWait_EZn" = 259.0004   $ Sizing
 "CAssFlo_L_LobWait_NZn" = 186.4064   $ Sizing
 "CAssFlo_L_LobWait_SZn" = 251.7429   $ Sizing
 "CAssFlo_L_LobWait_WZn" = 299.4326   $ Sizing
 "CAssFlo_L_MechElec_CZn" = 84.11832   $ Sizing
 "CAssFlo_L_OfficeOpn_CZn" = 71.60638   $ Sizing
 "CAssFlo_L_OfficeOpn_EZn" = 471.7052   $ Sizing
 "CAssFlo_L_OfficeOpn_NZn" = 376.5737   $ Sizing
 "CAssFlo_L_OfficeOpn_SZn" = 452.4288   $ Sizing
 "CAssFlo_L_OfficeOpn_WZn" = 524.321   $ Sizing
 "CAssFlo_L_OfficeSm_EZn" = 393.9225   $ Sizing
 "CAssFlo_L_OfficeSm_NZn" = 295.2583   $ Sizing
 "CAssFlo_L_OfficeSm_SZn" = 386.4579   $ Sizing
 "CAssFlo_L_OfficeSm_WZn" = 441.7257   $ Sizing
 "CAssFlo_L_Restrm_CZn" = 97.8578   $ Sizing
 "CAssFlo_L_StorSm_CZn" = 39.43475   $ Sizing
 "CAssFlo_L_StorSm_EZn" = 106.8818   $ Sizing
 "CAssFlo_L_StorSm_NZn" = 71.03556   $ Sizing
 "CAssFlo_L_StorSm_SZn" = 102.7334   $ Sizing
 "CAssFlo_L_StorSm_WZn" = 116.4879   $ Sizing
 "CAssFlo_T_Conf_CZn" = 282.2862   $ Sizing
 "CAssFlo_T_Hall_EZn" = 120.3241   $ Sizing
 "CAssFlo_T_Hall_NZn" = 72.92665   $ Sizing
 "CAssFlo_T_Hall_SZn" = 111.8149   $ Sizing
 "CAssFlo_T_Hall_WZn" = 126.9837   $ Sizing
 "CAssFlo_T_OfficeOpn_CZn" = 68.46812   $ Sizing
 "CAssFlo_T_OfficeOpn_EZn" = 500.5418   $ Sizing
 "CAssFlo_T_OfficeOpn_NZn" = 384.4904   $ Sizing
 "CAssFlo_T_OfficeOpn_SZn" = 475.9076   $ Sizing
 "CAssFlo_T_OfficeOpn_WZn" = 537.5395   $ Sizing
 "CAssFlo_T_OfficeSm_EZn" = 422.0303   $ Sizing
 "CAssFlo_T_OfficeSm_NZn" = 304.7297   $ Sizing
 "CAssFlo_T_OfficeSm_SZn" = 403.6072   $ Sizing
 "CAssFlo_T_OfficeSm_WZn" = 455.4888   $ Sizing
 "CAssFlo_T_Restrm_CZn" = 136.5035   $ Sizing
 "CAssFlo_T_StorSm_EZn" = 125.5612   $ Sizing
 "CAssFlo_T_StorSm_NZn" = 81.24454   $ Sizing
 "CAssFlo_T_StorSm_SZn" = 118.2286   $ Sizing
 "CAssFlo_T_StorSm_WZn" = 135.2921   $ Sizing
 "CHRtFlo_Sys_L_Break_C" = 506.7693   $ Sizing
 "CHRtFlo_Sys_L_CompDC_C" = 176.8224   $ Sizing
 "CHRtFlo_Sys_L_Conf_C" = 291.1617   $ Sizing
 "CHRtFlo_Sys_L_CopyRm_C" = 107.0934   $ Sizing
 "CHRtFlo_Sys_L_Hall_E" = 122.1566   $ Sizing
 "CHRtFlo_Sys_L_Hall_N" = 68.50018   $ Sizing
 "CHRtFlo_Sys_L_Hall_S" = 121.2237   $ Sizing
 "CHRtFlo_Sys_L_Hall_W" = 119.694   $ Sizing
 "CHRtFlo_Sys_L_LobWait_E" = 283.5766   $ Sizing
 "CHRtFlo_Sys_L_LobWait_N" = 186.4064   $ Sizing
 "CHRtFlo_Sys_L_LobWait_S" = 279.9708   $ Sizing
 "CHRtFlo_Sys_L_LobWait_W" = 299.4326   $ Sizing
 "CHRtFlo_Sys_L_MechElec_C" = 107.9355   $ Sizing
 "CHRtFlo_Sys_L_OfficeOpn_C" = 85.68497   $ Sizing
 "CHRtFlo_Sys_L_OfficeOpn_E" = 527.7591   $ Sizing
 "CHRtFlo_Sys_L_OfficeOpn_N" = 376.5737   $ Sizing
 "CHRtFlo_Sys_L_OfficeOpn_S" = 504.2044   $ Sizing
 "CHRtFlo_Sys_L_OfficeOpn_W" = 524.321   $ Sizing
 "CHRtFlo_Sys_L_OfficeSm_E" = 447.8   $ Sizing
 "CHRtFlo_Sys_L_OfficeSm_N" = 295.2583   $ Sizing
 "CHRtFlo_Sys_L_OfficeSm_S" = 439.1186   $ Sizing
 "CHRtFlo_Sys_L_OfficeSm_W" = 441.7257   $ Sizing
 "CHRtFlo_Sys_L_Restrm_C" = 109.6243   $ Sizing
 "CHRtFlo_Sys_L_StorSm_C" = 46.03275   $ Sizing
 "CHRtFlo_Sys_L_StorSm_E" = 120.8421   $ Sizing
 "CHRtFlo_Sys_L_StorSm_N" = 71.03556   $ Sizing
 "CHRtFlo_Sys_L_StorSm_S" = 115.7678   $ Sizing
 "CHRtFlo_Sys_L_StorSm_W" = 116.4879   $ Sizing
 "CHRtFlo_Sys_T_Conf_C" = 282.2862   $ Sizing
 "CHRtFlo_Sys_T_Hall_E" = 125.9554   $ Sizing
 "CHRtFlo_Sys_T_Hall_N" = 72.92665   $ Sizing
 "CHRtFlo_Sys_T_Hall_S" = 125.8566   $ Sizing
 "CHRtFlo_Sys_T_Hall_W" = 126.9837   $ Sizing
 "CHRtFlo_Sys_T_OfficeOpn_C" = 75.87014   $ Sizing
 "CHRtFlo_Sys_T_OfficeOpn_E" = 508.5105   $ Sizing
 "CHRtFlo_Sys_T_OfficeOpn_N" = 384.4904   $ Sizing
 "CHRtFlo_Sys_T_OfficeOpn_S" = 505.256   $ Sizing
 "CHRtFlo_Sys_T_OfficeOpn_W" = 537.5395   $ Sizing
 "CHRtFlo_Sys_T_OfficeSm_E" = 436.9476   $ Sizing
 "CHRtFlo_Sys_T_OfficeSm_N" = 304.7297   $ Sizing
 "CHRtFlo_Sys_T_OfficeSm_S" = 445.9743   $ Sizing
 "CHRtFlo_Sys_T_OfficeSm_W" = 455.4888   $ Sizing
 "CHRtFlo_Sys_T_Restrm_C" = 149.0744   $ Sizing
 "CHRtFlo_Sys_T_StorSm_E" = 127.3658   $ Sizing
 "CHRtFlo_Sys_T_StorSm_N" = 81.24454   $ Sizing
 "CHRtFlo_Sys_T_StorSm_S" = 123.7803   $ Sizing
 "CHRtFlo_Sys_T_StorSm_W" = 135.2921   $ Sizing
 "CRtdFlo_Sys_L_Break_C" = 506.7693   $ Sizing
 "CRtdFlo_Sys_L_CompDC_C" = 158.6497   $ Sizing
 "CRtdFlo_Sys_L_Conf_C" = 291.1617   $ Sizing
 "CRtdFlo_Sys_L_CopyRm_C" = 107.0934   $ Sizing
 "CRtdFlo_Sys_L_Hall_E" = 107.207   $ Sizing
 "CRtdFlo_Sys_L_Hall_N" = 68.50018   $ Sizing
 "CRtdFlo_Sys_L_Hall_S" = 103.7182   $ Sizing
 "CRtdFlo_Sys_L_Hall_W" = 117.5187   $ Sizing
 "CRtdFlo_Sys_L_LobWait_E" = 259.0004   $ Sizing
 "CRtdFlo_Sys_L_LobWait_N" = 186.4064   $ Sizing
 "CRtdFlo_Sys_L_LobWait_S" = 251.7429   $ Sizing
 "CRtdFlo_Sys_L_LobWait_W" = 299.4326   $ Sizing
 "CRtdFlo_Sys_L_MechElec_C" = 84.11832   $ Sizing
 "CRtdFlo_Sys_L_OfficeOpn_C" = 71.60638   $ Sizing
 "CRtdFlo_Sys_L_OfficeOpn_E" = 471.7052   $ Sizing
 "CRtdFlo_Sys_L_OfficeOpn_N" = 376.5737   $ Sizing
 "CRtdFlo_Sys_L_OfficeOpn_S" = 452.4288   $ Sizing
 "CRtdFlo_Sys_L_OfficeOpn_W" = 524.321   $ Sizing
 "CRtdFlo_Sys_L_OfficeSm_E" = 393.9225   $ Sizing
 "CRtdFlo_Sys_L_OfficeSm_N" = 295.2583   $ Sizing
 "CRtdFlo_Sys_L_OfficeSm_S" = 386.4579   $ Sizing
 "CRtdFlo_Sys_L_OfficeSm_W" = 441.7257   $ Sizing
 "CRtdFlo_Sys_L_Restrm_C" = 97.8578   $ Sizing
 "CRtdFlo_Sys_L_StorSm_C" = 39.43475   $ Sizing
 "CRtdFlo_Sys_L_StorSm_E" = 106.8818   $ Sizing
 "CRtdFlo_Sys_L_StorSm_N" = 71.03556   $ Sizing
 "CRtdFlo_Sys_L_StorSm_S" = 102.7334   $ Sizing
 "CRtdFlo_Sys_L_StorSm_W" = 116.4879   $ Sizing
 "CRtdFlo_Sys_T_Conf_C" = 282.2862   $ Sizing
 "CRtdFlo_Sys_T_Hall_E" = 120.3241   $ Sizing
 "CRtdFlo_Sys_T_Hall_N" = 72.92665   $ Sizing
 "CRtdFlo_Sys_T_Hall_S" = 111.8149   $ Sizing
 "CRtdFlo_Sys_T_Hall_W" = 126.9837   $ Sizing
 "CRtdFlo_Sys_T_OfficeOpn_C" = 68.46812   $ Sizing
 "CRtdFlo_Sys_T_OfficeOpn_E" = 500.5418   $ Sizing
 "CRtdFlo_Sys_T_OfficeOpn_N" = 384.4904   $ Sizing
 "CRtdFlo_Sys_T_OfficeOpn_S" = 475.9076   $ Sizing
 "CRtdFlo_Sys_T_OfficeOpn_W" = 537.5395   $ Sizing
 "CRtdFlo_Sys_T_OfficeSm_E" = 422.0303   $ Sizing
 "CRtdFlo_Sys_T_OfficeSm_N" = 304.7297   $ Sizing
 "CRtdFlo_Sys_T_OfficeSm_S" = 403.6072   $ Sizing
 "CRtdFlo_Sys_T_OfficeSm_W" = 455.4888   $ Sizing
 "CRtdFlo_Sys_T_Restrm_C" = 136.5035   $ Sizing
 "CRtdFlo_Sys_T_StorSm_E" = 125.5612   $ Sizing
 "CRtdFlo_Sys_T_StorSm_N" = 81.24454   $ Sizing
 "CRtdFlo_Sys_T_StorSm_S" = 118.2286   $ Sizing
 "CRtdFlo_Sys_T_StorSm_W" = 135.2921   $ Sizing
 "CSupFlo_Sys_L_Break_C" = 506.7693   $ Sizing
 "CSupFlo_Sys_L_CompDC_C" = 158.6497   $ Sizing
 "CSupFlo_Sys_L_Conf_C" = 291.1617   $ Sizing
 "CSupFlo_Sys_L_CopyRm_C" = 107.0934   $ Sizing
 "CSupFlo_Sys_L_Hall_E" = 107.207   $ Sizing
 "CSupFlo_Sys_L_Hall_N" = 68.50018   $ Sizing
 "CSupFlo_Sys_L_Hall_S" = 103.7182   $ Sizing
 "CSupFlo_Sys_L_Hall_W" = 117.5187   $ Sizing
 "CSupFlo_Sys_L_LobWait_E" = 259.0004   $ Sizing
 "CSupFlo_Sys_L_LobWait_N" = 186.4064   $ Sizing
 "CSupFlo_Sys_L_LobWait_S" = 251.7429   $ Sizing
 "CSupFlo_Sys_L_LobWait_W" = 299.4326   $ Sizing
 "CSupFlo_Sys_L_MechElec_C" = 84.11832   $ Sizing
 "CSupFlo_Sys_L_OfficeOpn_C" = 71.60638   $ Sizing
 "CSupFlo_Sys_L_OfficeOpn_E" = 471.7052   $ Sizing
 "CSupFlo_Sys_L_OfficeOpn_N" = 376.5737   $ Sizing
 "CSupFlo_Sys_L_OfficeOpn_S" = 452.4288   $ Sizing
 "CSupFlo_Sys_L_OfficeOpn_W" = 524.321   $ Sizing
 "CSupFlo_Sys_L_OfficeSm_E" = 393.9225   $ Sizing
 "CSupFlo_Sys_L_OfficeSm_N" = 295.2583   $ Sizing
 "CSupFlo_Sys_L_OfficeSm_S" = 386.4579   $ Sizing
 "CSupFlo_Sys_L_OfficeSm_W" = 441.7257   $ Sizing
 "CSupFlo_Sys_L_Restrm_C" = 97.8578   $ Sizing
 "CSupFlo_Sys_L_StorSm_C" = 39.43475   $ Sizing
 "CSupFlo_Sys_L_StorSm_E" = 106.8818   $ Sizing
 "CSupFlo_Sys_L_StorSm_N" = 71.03556   $ Sizing
 "CSupFlo_Sys_L_StorSm_S" = 102.7334   $ Sizing
 "CSupFlo_Sys_L_StorSm_W" = 116.4879   $ Sizing
 "CSupFlo_Sys_T_Conf_C" = 282.2862   $ Sizing
 "CSupFlo_Sys_T_Hall_E" = 120.3241   $ Sizing
 "CSupFlo_Sys_T_Hall_N" = 72.92665   $ Sizing
 "CSupFlo_Sys_T_Hall_S" = 111.8149   $ Sizing
 "CSupFlo_Sys_T_Hall_W" = 126.9837   $ Sizing
 "CSupFlo_Sys_T_OfficeOpn_C" = 68.46812   $ Sizing
 "CSupFlo_Sys_T_OfficeOpn_E" = 500.5418   $ Sizing
 "CSupFlo_Sys_T_OfficeOpn_N" = 384.4904   $ Sizing
 "CSupFlo_Sys_T_OfficeOpn_S" = 475.9076   $ Sizing
 "CSupFlo_Sys_T_OfficeOpn_W" = 537.5395   $ Sizing
 "CSupFlo_Sys_T_OfficeSm_E" = 422.0303   $ Sizing
 "CSupFlo_Sys_T_OfficeSm_N" = 304.7297   $ Sizing
 "CSupFlo_Sys_T_OfficeSm_S" = 403.6072   $ Sizing
 "CSupFlo_Sys_T_OfficeSm_W" = 455.4888   $ Sizing
 "CSupFlo_Sys_T_Restrm_C" = 136.5035   $ Sizing
 "CSupFlo_Sys_T_StorSm_E" = 125.5612   $ Sizing
 "CSupFlo_Sys_T_StorSm_N" = 81.24454   $ Sizing
 "CSupFlo_Sys_T_StorSm_S" = 118.2286   $ Sizing
 "CSupFlo_Sys_T_StorSm_W" = 135.2921   $ Sizing
 "ClCap_Sys_L_Break_C" = 17153.28   $ Sizing
 "ClCap_Sys_L_CompDC_C" = 5370.025   $ Sizing
 "ClCap_Sys_L_Conf_C" = 12543.15   $ Sizing
 "ClCap_Sys_L_CopyRm_C" = 3624.93   $ Sizing
 "ClCap_Sys_L_Hall_E" = 3628.775   $ Sizing
 "ClCap_Sys_L_Hall_N" = 2318.615   $ Sizing
 "ClCap_Sys_L_Hall_S" = 3510.687   $ Sizing
 "ClCap_Sys_L_Hall_W" = 3977.809   $ Sizing
 "ClCap_Sys_L_LobWait_E" = 8766.725   $ Sizing
 "ClCap_Sys_L_LobWait_N" = 6309.542   $ Sizing
 "ClCap_Sys_L_LobWait_S" = 8521.07   $ Sizing
 "ClCap_Sys_L_LobWait_W" = 10135.29   $ Sizing
 "ClCap_Sys_L_MechElec_C" = 2847.263   $ Sizing
 "ClCap_Sys_L_OfficeOpn_C" = 2423.755   $ Sizing
 "ClCap_Sys_L_OfficeOpn_E" = 15966.42   $ Sizing
 "ClCap_Sys_L_OfficeOpn_N" = 12746.38   $ Sizing
 "ClCap_Sys_L_OfficeOpn_S" = 15313.95   $ Sizing
 "ClCap_Sys_L_OfficeOpn_W" = 17747.38   $ Sizing
 "ClCap_Sys_L_OfficeSm_E" = 13333.61   $ Sizing
 "ClCap_Sys_L_OfficeSm_N" = 9993.993   $ Sizing
 "ClCap_Sys_L_OfficeSm_S" = 13080.95   $ Sizing
 "ClCap_Sys_L_OfficeSm_W" = 14951.67   $ Sizing
 "ClCap_Sys_L_Restrm_C" = 3312.321   $ Sizing
 "ClCap_Sys_L_StorSm_C" = 1334.799   $ Sizing
 "ClCap_Sys_L_StorSm_E" = 3617.766   $ Sizing
 "ClCap_Sys_L_StorSm_N" = 2404.434   $ Sizing
 "ClCap_Sys_L_StorSm_S" = 3477.352   $ Sizing
 "ClCap_Sys_L_StorSm_W" = 3942.919   $ Sizing
 "ClCap_Sys_T_Conf_C" = 12160.8   $ Sizing
 "ClCap_Sys_T_Hall_E" = 4072.768   $ Sizing
 "ClCap_Sys_T_Hall_N" = 2468.444   $ Sizing
 "ClCap_Sys_T_Hall_S" = 3784.745   $ Sizing
 "ClCap_Sys_T_Hall_W" = 4298.184   $ Sizing
 "ClCap_Sys_T_OfficeOpn_C" = 2317.53   $ Sizing
 "ClCap_Sys_T_OfficeOpn_E" = 16942.49   $ Sizing
 "ClCap_Sys_T_OfficeOpn_N" = 13014.35   $ Sizing
 "ClCap_Sys_T_OfficeOpn_S" = 16108.67   $ Sizing
 "ClCap_Sys_T_OfficeOpn_W" = 18194.8   $ Sizing
 "ClCap_Sys_T_OfficeSm_E" = 14285.01   $ Sizing
 "ClCap_Sys_T_OfficeSm_N" = 10314.58   $ Sizing
 "ClCap_Sys_T_OfficeSm_S" = 13661.42   $ Sizing
 "ClCap_Sys_T_OfficeSm_W" = 15417.53   $ Sizing
 "ClCap_Sys_T_Restrm_C" = 4620.411   $ Sizing
 "ClCap_Sys_T_StorSm_E" = 4250.035   $ Sizing
 "ClCap_Sys_T_StorSm_N" = 2749.99   $ Sizing
 "ClCap_Sys_T_StorSm_S" = 4001.838   $ Sizing
 "ClCap_Sys_T_StorSm_W" = 4579.409   $ Sizing
 "HtCap_Sys_L_Break_C" = -28148.58   $ Sizing
 "HtCap_Sys_L_CompDC_C" = -6309.353   $ Sizing
 "HtCap_Sys_L_Conf_C" = -16794.62   $ Sizing
 "HtCap_Sys_L_CopyRm_C" = -5962.175   $ Sizing
 "HtCap_Sys_L_Hall_E" = -4392.262   $ Sizing
 "HtCap_Sys_L_Hall_N" = -2683.224   $ Sizing
 "HtCap_Sys_L_Hall_S" = -4241.356   $ Sizing
 "HtCap_Sys_L_Hall_W" = -4243.547   $ Sizing
 "HtCap_Sys_L_LobWait_E" = -10797.07   $ Sizing
 "HtCap_Sys_L_LobWait_N" = -8428.983   $ Sizing
 "HtCap_Sys_L_LobWait_S" = -10692.47   $ Sizing
 "HtCap_Sys_L_LobWait_W" = -11519.37   $ Sizing
 "HtCap_Sys_L_MechElec_C" = -4236.771   $ Sizing
 "HtCap_Sys_L_OfficeOpn_C" = -3241.443   $ Sizing
 "HtCap_Sys_L_OfficeOpn_E" = -18968.05   $ Sizing
 "HtCap_Sys_L_OfficeOpn_N" = -15206.01   $ Sizing
 "HtCap_Sys_L_OfficeOpn_S" = -17911.27   $ Sizing
 "HtCap_Sys_L_OfficeOpn_W" = -19182.7   $ Sizing
 "HtCap_Sys_L_OfficeSm_E" = -15994.13   $ Sizing
 "HtCap_Sys_L_OfficeSm_N" = -11504.58   $ Sizing
 "HtCap_Sys_L_OfficeSm_S" = -14957.2   $ Sizing
 "HtCap_Sys_L_OfficeSm_W" = -15586.08   $ Sizing
 "HtCap_Sys_L_Restrm_C" = -3774.204   $ Sizing
 "HtCap_Sys_L_StorSm_C" = -1802.514   $ Sizing
 "HtCap_Sys_L_StorSm_E" = -4484.127   $ Sizing
 "HtCap_Sys_L_StorSm_N" = -3168.862   $ Sizing
 "HtCap_Sys_L_StorSm_S" = -4339.046   $ Sizing
 "HtCap_Sys_L_StorSm_W" = -4459.773   $ Sizing
 "HtCap_Sys_T_Conf_C" = -16902.64   $ Sizing
 "HtCap_Sys_T_Hall_E" = -4944.895   $ Sizing
 "HtCap_Sys_T_Hall_N" = -3229.429   $ Sizing
 "HtCap_Sys_T_Hall_S" = -4948.761   $ Sizing
 "HtCap_Sys_T_Hall_W" = -5032.263   $ Sizing
 "HtCap_Sys_T_OfficeOpn_C" = -3261.522   $ Sizing
 "HtCap_Sys_T_OfficeOpn_E" = -20490.4   $ Sizing
 "HtCap_Sys_T_OfficeOpn_N" = -17029.68   $ Sizing
 "HtCap_Sys_T_OfficeOpn_S" = -20378.13   $ Sizing
 "HtCap_Sys_T_OfficeOpn_W" = -21930.58   $ Sizing
 "HtCap_Sys_T_OfficeSm_E" = -17233.68   $ Sizing
 "HtCap_Sys_T_OfficeSm_N" = -13275.86   $ Sizing
 "HtCap_Sys_T_OfficeSm_S" = -17538.35   $ Sizing
 "HtCap_Sys_T_OfficeSm_W" = -18122.59   $ Sizing
 "HtCap_Sys_T_Restrm_C" = -5776.903   $ Sizing
 "HtCap_Sys_T_StorSm_E" = -5359.83   $ Sizing
 "HtCap_Sys_T_StorSm_N" = -3925.604   $ Sizing
 "HtCap_Sys_T_StorSm_S" = -5186.384   $ Sizing
 "HtCap_Sys_T_StorSm_W" = -5769.028   $ Sizing
..

##include Templates\OfS_DX_SZ.inp
END ..
COMPUTE ..
STOP ..
