INPUT ..

##fileprefix C:\Users\jglasskatz\MASControl3\
##set1 IsSizing FALSE
##set1 CoolType DX
##set1 HeatType FURNACE
##set1 EU_HrRepVar 0
##set1 BldgVint 1985
##set1 BldgLoc CZ14

 ##set1 mBFMult 1   $ IP Tech: RefgChg-NRes-Std

PARAMETER
 "AltFactor" = 1.09733   $ IP Non-Tech
 "BF_fFlow" = SpltAC1Sp-ge45_BF_fFlow   $ Msr (Multi)TechID: StdNResSplitAC-45to55
 "BF_fT" = SpltAC1Sp-ge45_BF_fT   $ Msr (Multi)TechID: StdNResSplitAC-45to55
 "BldgEconoFlag" = 1   $ IP Non-Tech
 "Break_EWSF" = 1   $ IP Non-Tech
 "Break_LWSF" = 1.1   $ IP Non-Tech
 "CDD_DBHi10" = 86   $ IP Non-Tech
 "CDD_DBHi7" = 102   $ IP Non-Tech
 "CDD_DBHi8" = 102   $ IP Non-Tech
 "CDD_DBHi9" = 99   $ IP Non-Tech
 "CDD_DBRange10" = 24   $ IP Non-Tech
 "CDD_DBRange7" = 25   $ IP Non-Tech
 "CDD_DBRange8" = 24   $ IP Non-Tech
 "CDD_DBRange9" = 26   $ IP Non-Tech
 "CDD_Day10" = 15   $ IP Non-Tech
 "CDD_Day7" = 16   $ IP Non-Tech
 "CDD_Day8" = 20   $ IP Non-Tech
 "CDD_Day9" = 17   $ IP Non-Tech
 "CDD_HrHi10" = 15   $ IP Non-Tech
 "CDD_HrHi7" = 14   $ IP Non-Tech
 "CDD_HrHi8" = 14   $ IP Non-Tech
 "CDD_HrHi9" = 13   $ IP Non-Tech
 "CDD_HrLo10" = 3   $ IP Non-Tech
 "CDD_HrLo7" = 4   $ IP Non-Tech
 "CDD_HrLo8" = 6   $ IP Non-Tech
 "CDD_HrLo9" = 6   $ IP Non-Tech
 "CDD_WB10" = 59.47153854   $ IP Non-Tech
 "CDD_WB7" = 72.7782135   $ IP Non-Tech
 "CDD_WB8" = 69.10041809   $ IP Non-Tech
 "CDD_WB9" = 72.65714264   $ IP Non-Tech
 "CEIR_fPLR_Hot" = SpltAC1Sp-ge45_CEIR_fPLR_Hot   $ Msr (Multi)TechID: StdNResSplitAC-45to55
 "CEIR_fPLR_Mod" = SpltAC1Sp-ge45_CEIR_fPLR_Mod   $ Msr (Multi)TechID: StdNResSplitAC-45to55
 "CEIR_fPLR_Tem" = SpltAC1Sp-ge45_CEIR_fPLR_Tem   $ Msr (Multi)TechID: StdNResSplitAC-45to55
 "CLoss_fPLR_Hot" = SpltAC1Sp-ge45_CLoss_fPLR_Hot   $ Msr (Multi)TechID: StdNResSplitAC-45to55
 "CLoss_fPLR_Mod" = SpltAC1Sp-ge45_CLoss_fPLR_Mod   $ Msr (Multi)TechID: StdNResSplitAC-45to55
 "CLoss_fPLR_Tem" = SpltAC1Sp-ge45_CLoss_fPLR_Tem   $ Msr (Multi)TechID: StdNResSplitAC-45to55
 "COP47" = 0   $ Msr (Multi)TechID: StdNResSplitAC-45to55
 "CZ_Category" = Hot   $ IP Non-Tech
 "CapRange" = ge45   $ Msr (Multi)TechID: StdNResSplitAC-45to55
 "CfmPerBtuh" = 0.03263   $ Msr (Multi)TechID: StdNResSplitAC-45to55
 "ChwVintEconoFlag" = 1   $ IP Non-Tech
 "ClCap_fT" = SpltAC1Sp-ge45_ClCap_fT   $ Msr (Multi)TechID: StdNResSplitAC-45to55
 "ClSH_fT" = SpltAC1Sp-ge45_ClSH_fT   $ Msr (Multi)TechID: StdNResSplitAC-45to55
 "CoilBF" = 0.106518182   $ Msr (Multi)TechID: StdNResSplitAC-45to55
 "CompRoomData_EWSF" = 5.5   $ IP Non-Tech
 "CompRoomData_LWSF" = 1.2   $ IP Non-Tech
 "CondWPerBtuh" = 0   $ Msr (Multi)TechID: StdNResSplitAC-45to55
 "Conference_EWSF" = 1.1   $ IP Non-Tech
 "Conference_LWSF" = 1.4   $ IP Non-Tech
 "CoolSensCap" = 0.759218182   $ Msr (Multi)TechID: StdNResSplitAC-45to55
 "CoolSetT" = 45   $ IP Non-Tech
 "CoolType" = DX   $ IP Non-Tech
 "CoolingEIR" = 0.2466   $ Msr (Multi)TechID: StdNResSplitAC-45to55
 "CopyRoom_EWSF" = 1.65   $ IP Non-Tech
 "CopyRoom_LWSF" = 1.3   $ IP Non-Tech
 "CrnkEIR" = 0.002466   $ Msr (Multi)TechID: StdNResSplitAC-45to55
 "CrnkMaxT" = 50   $ Msr (Multi)TechID: StdNResSplitAC-45to55
 "DXType" = SplitSEER   $ Msr (Multi)TechID: StdNResSplitAC-45to55
 "DesCoolT" = 75   $ IP Non-Tech
 "DesHeatT" = 73   $ IP Non-Tech
 "EER" = 11.81793103   $ Msr (Multi)TechID: StdNResSplitAC-45to55
 "EIR_fT" = SpltAC1Sp-ge45_EIR_fT   $ Msr (Multi)TechID: StdNResSplitAC-45to55
 "EconoCtrl" = FIXED   $ Msr (Multi)TechID: StdNResSplitAC-45to55
 "EconoEnthLimit" = 28   $ IP Non-Tech
 "EconoTempLimit" = 75   $ IP Non-Tech
 "Elevation" = 2523   $ IP Non-Tech
 "FanEirPlr" = TwoSpeedFan   $ Msr (Multi)TechID: StdNResSplitAC-45to55
 "FanWPerCfm" = 0.294   $ Msr (Multi)TechID: StdNResSplitAC-45to55
 "HDD_CloudAmt1" = 0   $ IP Non-Tech
 "HDD_DBHi1" = 50   $ IP Non-Tech
 "HDD_DBRange1" = 24   $ IP Non-Tech
 "HDD_Day1" = 15   $ IP Non-Tech
 "HDD_HrHi1" = 14   $ IP Non-Tech
 "HDD_HrLo1" = 6   $ IP Non-Tech
 "HDD_WB1" = 36.9   $ IP Non-Tech
 "HDD_WindSpd1" = 17.3   $ IP Non-Tech
 "HIR_fT" = 0   $ Msr (Multi)TechID: StdNResSplitAC-45to55
 "HSPF" = 0   $ Msr (Multi)TechID: StdNResSplitAC-45to55
 "Hall_EWSF" = 0.22   $ IP Non-Tech
 "Hall_LWSF" = 0.6   $ IP Non-Tech
 "HeatSrc" = FURNACE   $ IP Non-Tech
 "HeatSrcTU" = HEAT-PUMP   $ IP Non-Tech
 "HeatType" = GasFurn   $ IP Non-Tech
 "HeatTypeTU" = HEAT-PUMP   $ IP Non-Tech
 "HtCap_fT" = 0   $ Msr (Multi)TechID: StdNResSplitAC-45to55
 "HtCoolCapRatio" = 0   $ Msr (Multi)TechID: StdNResSplitAC-45to55
 "HtgEIR" = 0   $ Msr (Multi)TechID: StdNResSplitAC-45to55
 "IndoorFanMode" = CONTINUOUS   $ IP Non-Tech
 "KT_TransferAir" = No   $ IP Non-Tech
 "Latitude" = 35.7   $ IP Non-Tech
 "LobbyWaiting_EWSF" = 0.525   $ IP Non-Tech
 "LobbyWaiting_LWSF" = 1.3   $ IP Non-Tech
 "Longitude" = 117.7   $ IP Non-Tech
 "LowSpdCapRatio" = 1   $ Msr (Multi)TechID: StdNResSplitAC-45to55
 "LowSpdCfmRatio" = 1   $ Msr (Multi)TechID: StdNResSplitAC-45to55
 "MZFanMechEff" = 0.58   $ IP Non-Tech
 "MZHasRetFan" = FALSE   $ IP Non-Tech
 "MZ_RFanWPerCfm" = 0.33   $ IP Non-Tech
 "MZ_SFanWPerCfm" = 0.75   $ IP Non-Tech
 "MZ_SupFanStatic" = 2.25   $ IP Non-Tech
 "MaxOAFrac" = 1   $ Msr (Multi)TechID: StdNResSplitAC-45to55
 "MaxSupT_MZ" = 100   $ IP Non-Tech
 "MaxSupT_SZ" = 100   $ IP Non-Tech
 "MaxSupT_TU" = 90   $ IP Non-Tech
 "MechElecRoom_EWSF" = 0.22   $ IP Non-Tech
 "MechElecRoom_LWSF" = 0.7   $ IP Non-Tech
 "MinCfmPerSF" = 0.4   $ IP Non-Tech
 "MinSupT" = 55   $ IP Non-Tech
 "NumStages" = 1   $ Msr (Multi)TechID: StdNResSplitAC-45to55
 "OccCoolT" = 76   $ IP Non-Tech
 "OccHeatT" = 72   $ IP Non-Tech
 "OfficeOpen_EWSF" = 1.65   $ IP Non-Tech
 "OfficeOpen_LWSF" = 1.2   $ IP Non-Tech
 "OfficeSmall_EWSF" = 1.65   $ IP Non-Tech
 "OfficeSmall_LWSF" = 1.3   $ IP Non-Tech
 "PkgDxVintEconoFlag" = 0   $ IP Non-Tech
 "Restroom_EWSF" = 0.22   $ IP Non-Tech
 "Restroom_LWSF" = 0.6   $ IP Non-Tech
 "SEER" = 14   $ Msr (Multi)TechID: StdNResSplitAC-45to55
 "SZFanMechEff" = 0.58   $ IP Non-Tech
 "SZHasRetFan" = FALSE   $ IP Non-Tech
 "SZ_Is_2Spd" = FALSE   $ IP Non-Tech
 "SZ_SFanWPerCfm" = 0.46   $ IP Non-Tech
 "SZ_SupFanStatic" = 0.75   $ IP Non-Tech
 "Sector" = Any   $ Msr (Multi)TechID: StdNResSplitAC-45to55
 "StorageSmlCond_EWSF" = 0.22   $ IP Non-Tech
 "StorageSmlCond_LWSF" = 0.6   $ IP Non-Tech
 "SubType" = AC   $ Msr (Multi)TechID: StdNResSplitAC-45to55
 "T24GlzTbl" = CZTbl   $ IP Non-Tech
 "TermUnitFanMechEff" = 1   $ IP Non-Tech
 "TermUnitFanMode" = INTERMITTENT   $ IP Non-Tech
 "TotCoolCap" = 52519.36364   $ Msr (Multi)TechID: StdNResSplitAC-45to55
 "TwrSetpt" = 90   $ IP Non-Tech
 "UnocCoolT" = 86   $ IP Non-Tech
 "UnocHeatT" = 62   $ IP Non-Tech
 "UseEconoVintApplic" = FALSE   $ Msr (Multi)TechID: StdNResSplitAC-45to55
 "WlhpVintEconoFlag" = 0   $ IP Non-Tech
 "DuctDT" = 1   $ IP Tech: ComDuctInsul-1
 "DuctAirLoss" = 0   $ IP Tech: ComDuctLeak-0
 "DuctLossOAFrac" = 0   $ IP Tech: ComDuctLeak-0
 "ComRoofInsCalc" = FromUo   $ IP Tech: ComRoofIns-WFrm-0.07
 "ComRoofInsR" = -999   $ IP Tech: ComRoofIns-WFrm-0.07
 "ComRoofUo" = 0.07   $ IP Tech: ComRoofIns-WFrm-0.07
 "ComEWInsCalc" = FromUo   $ IP Tech: ComWallIns-WFrm-0.09
 "ComEWInsR" = -999   $ IP Tech: ComWallIns-WFrm-0.09
 "ComEWUo" = 0.09   $ IP Tech: ComWallIns-WFrm-0.09
 "ComN_SHGC" = 0.82   $ IP Tech: NResWin-ComN-1.23-0.82
 "ComN_UFactor" = 1.23   $ IP Tech: NResWin-ComN-1.23-0.82
 "ComN_VisTrans" = 0.9   $ IP Tech: NResWin-ComN-1.23-0.82
 "ComN_WinCode" = G1000   $ IP Tech: NResWin-ComN-1.23-0.82
 "ComN_WinFrmFrac" = 0.17   $ IP Tech: NResWin-ComN-1.23-0.82
 "ComN_WinFrmU" = 1   $ IP Tech: NResWin-ComN-1.23-0.82
 "ComO_SHGC" = 0.82   $ IP Tech: NResWin-ComO-1.23-0.82
 "ComO_UFactor" = 1.23   $ IP Tech: NResWin-ComO-1.23-0.82
 "ComO_VisTrans" = 0.9   $ IP Tech: NResWin-ComO-1.23-0.82
 "ComO_WinCode" = G1000   $ IP Tech: NResWin-ComO-1.23-0.82
 "ComO_WinFrmFrac" = 0.17   $ IP Tech: NResWin-ComO-1.23-0.82
 "ComO_WinFrmU" = 1   $ IP Tech: NResWin-ComO-1.23-0.82
 "LtgMsrApplic" = ALL   $ IP Tech: NonResLtgRefPre
 "LtgSav_CFL" = 0   $ IP Tech: NonResLtgRefPre
 "LtgSav_EX" = 0   $ IP Tech: NonResLtgRefPre
 "LtgSav_HB" = 0   $ IP Tech: NonResLtgRefPre
 "LtgSav_LF" = 0   $ IP Tech: NonResLtgRefPre
 "LtgSav_SP" = 0   $ IP Tech: NonResLtgRefPre
 "CEIR_fPLR" = PSZ65to135_CEIR_fPLR   $ IP Tech: PkgAC1SpH-65to135-E10
 "CLoss_fPLR" = PSZ65to135_CLoss_fPLR   $ IP Tech: PkgAC1SpH-65to135-E10
 "COP" = -1   $ IP Tech: PkgAC1SpH-65to135-E10
 "HtgFuel" = Gas   $ IP Tech: PkgAC1SpH-65to135-E10
 "IEER" = 11.87   $ IP Tech: PkgAC1SpH-65to135-E10
 "NominalCap" = 15   $ IP Tech: PkgAC1SpH-65to135-E10
 "RatedEER" = 10   $ IP Tech: PkgAC1SpH-65to135-E10
 "RatedSupMtrClass" = HiEff   $ IP Tech: PkgAC1SpH-65to135-E10
 "SizeRange" = 65to135   $ IP Tech: PkgAC1SpH-65to135-E10
 "SupMotEff" = 0.84   $ IP Tech: PkgAC1SpH-65to135-E10
 "Tier" = 0   $ IP Tech: PkgAC1SpH-65to135-E10
 "FanPwrMult" = 1   $ IP Tech: PkgFurn-0.80AFUE
 "FurnAFUE" = 0.8   $ IP Tech: PkgFurn-0.80AFUE
 "FurnEt" = 0.82   $ IP Tech: PkgFurn-0.80AFUE
 "FurnaceAuxKW" = 0.1   $ IP Tech: PkgFurn-0.80AFUE
 "HIR_fPLR" = Furnace-HIR-fPLR   $ IP Tech: PkgFurn-0.80AFUE
 "VSM" = FALSE   $ IP Tech: PkgFurn-0.80AFUE
 "BFMult" = 1   $ IP Tech: RefgChg-NRes-Std
 "CoolEirMult" = 1   $ IP Tech: RefgChg-NRes-Std
 "SensCoolCapMult" = 1   $ IP Tech: RefgChg-NRes-Std
 "TotCoolCapMult" = 1   $ IP Tech: RefgChg-NRes-Std
 "AltAdjFactor" = 1.09733   $ Sizing
 "CAssFlo_L_Break_CZn" = 569.8221   $ Sizing
 "CAssFlo_L_CompDC_CZn" = 182.037   $ Sizing
 "CAssFlo_L_Conf_CZn" = 331.2578   $ Sizing
 "CAssFlo_L_CopyRm_CZn" = 119.6492   $ Sizing
 "CAssFlo_L_Hall_EZn" = 195.4297   $ Sizing
 "CAssFlo_L_Hall_NZn" = 106.8093   $ Sizing
 "CAssFlo_L_Hall_SZn" = 195.7778   $ Sizing
 "CAssFlo_L_Hall_WZn" = 219.2866   $ Sizing
 "CAssFlo_L_LobWait_EZn" = 454.7087   $ Sizing
 "CAssFlo_L_LobWait_NZn" = 275.7385   $ Sizing
 "CAssFlo_L_LobWait_SZn" = 476.717   $ Sizing
 "CAssFlo_L_LobWait_WZn" = 535.0482   $ Sizing
 "CAssFlo_L_MechElec_CZn" = 113.1199   $ Sizing
 "CAssFlo_L_OfficeOpn_CZn" = 85.89044   $ Sizing
 "CAssFlo_L_OfficeOpn_EZn" = 805.2302   $ Sizing
 "CAssFlo_L_OfficeOpn_NZn" = 516.5226   $ Sizing
 "CAssFlo_L_OfficeOpn_SZn" = 794.0202   $ Sizing
 "CAssFlo_L_OfficeOpn_WZn" = 896.065   $ Sizing
 "CAssFlo_L_OfficeSm_EZn" = 694.8228   $ Sizing
 "CAssFlo_L_OfficeSm_NZn" = 413.5136   $ Sizing
 "CAssFlo_L_OfficeSm_SZn" = 693.0712   $ Sizing
 "CAssFlo_L_OfficeSm_WZn" = 780.9615   $ Sizing
 "CAssFlo_L_Restrm_CZn" = 110.8178   $ Sizing
 "CAssFlo_L_StorSm_CZn" = 46.24861   $ Sizing
 "CAssFlo_L_StorSm_EZn" = 194.0071   $ Sizing
 "CAssFlo_L_StorSm_NZn" = 110.3793   $ Sizing
 "CAssFlo_L_StorSm_SZn" = 194.3406   $ Sizing
 "CAssFlo_L_StorSm_WZn" = 210.3492   $ Sizing
 "CAssFlo_T_Conf_CZn" = 317.8097   $ Sizing
 "CAssFlo_T_Hall_EZn" = 221.918   $ Sizing
 "CAssFlo_T_Hall_NZn" = 118.3781   $ Sizing
 "CAssFlo_T_Hall_SZn" = 228.7303   $ Sizing
 "CAssFlo_T_Hall_WZn" = 250.7596   $ Sizing
 "CAssFlo_T_OfficeOpn_CZn" = 79.45915   $ Sizing
 "CAssFlo_T_OfficeOpn_EZn" = 867.1542   $ Sizing
 "CAssFlo_T_OfficeOpn_NZn" = 552.7115   $ Sizing
 "CAssFlo_T_OfficeOpn_SZn" = 889.1767   $ Sizing
 "CAssFlo_T_OfficeOpn_WZn" = 952.0811   $ Sizing
 "CAssFlo_T_OfficeSm_EZn" = 749.5696   $ Sizing
 "CAssFlo_T_OfficeSm_NZn" = 445.9104   $ Sizing
 "CAssFlo_T_OfficeSm_SZn" = 770.5427   $ Sizing
 "CAssFlo_T_OfficeSm_WZn" = 842.8535   $ Sizing
 "CAssFlo_T_Restrm_CZn" = 150.5296   $ Sizing
 "CAssFlo_T_StorSm_EZn" = 226.9837   $ Sizing
 "CAssFlo_T_StorSm_NZn" = 130.8655   $ Sizing
 "CAssFlo_T_StorSm_SZn" = 235.1501   $ Sizing
 "CAssFlo_T_StorSm_WZn" = 259.4177   $ Sizing
 "CHRtFlo_Sys_L_Break_C" = 569.8221   $ Sizing
 "CHRtFlo_Sys_L_CompDC_C" = 201.0454   $ Sizing
 "CHRtFlo_Sys_L_Conf_C" = 331.2578   $ Sizing
 "CHRtFlo_Sys_L_CopyRm_C" = 119.6492   $ Sizing
 "CHRtFlo_Sys_L_Hall_E" = 229.0417   $ Sizing
 "CHRtFlo_Sys_L_Hall_N" = 106.8092   $ Sizing
 "CHRtFlo_Sys_L_Hall_S" = 236.2235   $ Sizing
 "CHRtFlo_Sys_L_Hall_W" = 242.8757   $ Sizing
 "CHRtFlo_Sys_L_LobWait_E" = 522.9609   $ Sizing
 "CHRtFlo_Sys_L_LobWait_N" = 275.7385   $ Sizing
 "CHRtFlo_Sys_L_LobWait_S" = 540.4384   $ Sizing
 "CHRtFlo_Sys_L_LobWait_W" = 557.8819   $ Sizing
 "CHRtFlo_Sys_L_MechElec_C" = 126.535   $ Sizing
 "CHRtFlo_Sys_L_OfficeOpn_C" = 97.69022   $ Sizing
 "CHRtFlo_Sys_L_OfficeOpn_E" = 935.947   $ Sizing
 "CHRtFlo_Sys_L_OfficeOpn_N" = 516.5226   $ Sizing
 "CHRtFlo_Sys_L_OfficeOpn_S" = 920.5831   $ Sizing
 "CHRtFlo_Sys_L_OfficeOpn_W" = 953.9332   $ Sizing
 "CHRtFlo_Sys_L_OfficeSm_E" = 823.6005   $ Sizing
 "CHRtFlo_Sys_L_OfficeSm_N" = 413.5136   $ Sizing
 "CHRtFlo_Sys_L_OfficeSm_S" = 824.2254   $ Sizing
 "CHRtFlo_Sys_L_OfficeSm_W" = 851.6072   $ Sizing
 "CHRtFlo_Sys_L_Restrm_C" = 122.1628   $ Sizing
 "CHRtFlo_Sys_L_StorSm_C" = 51.11324   $ Sizing
 "CHRtFlo_Sys_L_StorSm_E" = 224.0127   $ Sizing
 "CHRtFlo_Sys_L_StorSm_N" = 110.3793   $ Sizing
 "CHRtFlo_Sys_L_StorSm_S" = 227.5023   $ Sizing
 "CHRtFlo_Sys_L_StorSm_W" = 222.3343   $ Sizing
 "CHRtFlo_Sys_T_Conf_C" = 317.8097   $ Sizing
 "CHRtFlo_Sys_T_Hall_E" = 241.1878   $ Sizing
 "CHRtFlo_Sys_T_Hall_N" = 118.3781   $ Sizing
 "CHRtFlo_Sys_T_Hall_S" = 260.2761   $ Sizing
 "CHRtFlo_Sys_T_Hall_W" = 257.6624   $ Sizing
 "CHRtFlo_Sys_T_OfficeOpn_C" = 83.71497   $ Sizing
 "CHRtFlo_Sys_T_OfficeOpn_E" = 912.2178   $ Sizing
 "CHRtFlo_Sys_T_OfficeOpn_N" = 552.7115   $ Sizing
 "CHRtFlo_Sys_T_OfficeOpn_S" = 954.3632   $ Sizing
 "CHRtFlo_Sys_T_OfficeOpn_W" = 952.0811   $ Sizing
 "CHRtFlo_Sys_T_OfficeSm_E" = 810.515   $ Sizing
 "CHRtFlo_Sys_T_OfficeSm_N" = 445.9104   $ Sizing
 "CHRtFlo_Sys_T_OfficeSm_S" = 860.7755   $ Sizing
 "CHRtFlo_Sys_T_OfficeSm_W" = 858.8447   $ Sizing
 "CHRtFlo_Sys_T_Restrm_C" = 162.3193   $ Sizing
 "CHRtFlo_Sys_T_StorSm_E" = 235.6131   $ Sizing
 "CHRtFlo_Sys_T_StorSm_N" = 130.8655   $ Sizing
 "CHRtFlo_Sys_T_StorSm_S" = 252.2818   $ Sizing
 "CHRtFlo_Sys_T_StorSm_W" = 259.4177   $ Sizing
 "CRtdFlo_Sys_L_Break_C" = 569.8221   $ Sizing
 "CRtdFlo_Sys_L_CompDC_C" = 182.037   $ Sizing
 "CRtdFlo_Sys_L_Conf_C" = 331.2578   $ Sizing
 "CRtdFlo_Sys_L_CopyRm_C" = 119.6492   $ Sizing
 "CRtdFlo_Sys_L_Hall_E" = 195.4297   $ Sizing
 "CRtdFlo_Sys_L_Hall_N" = 106.8092   $ Sizing
 "CRtdFlo_Sys_L_Hall_S" = 195.7778   $ Sizing
 "CRtdFlo_Sys_L_Hall_W" = 219.2866   $ Sizing
 "CRtdFlo_Sys_L_LobWait_E" = 454.7087   $ Sizing
 "CRtdFlo_Sys_L_LobWait_N" = 275.7385   $ Sizing
 "CRtdFlo_Sys_L_LobWait_S" = 476.717   $ Sizing
 "CRtdFlo_Sys_L_LobWait_W" = 535.0482   $ Sizing
 "CRtdFlo_Sys_L_MechElec_C" = 113.1199   $ Sizing
 "CRtdFlo_Sys_L_OfficeOpn_C" = 85.89044   $ Sizing
 "CRtdFlo_Sys_L_OfficeOpn_E" = 805.2302   $ Sizing
 "CRtdFlo_Sys_L_OfficeOpn_N" = 516.5226   $ Sizing
 "CRtdFlo_Sys_L_OfficeOpn_S" = 794.0202   $ Sizing
 "CRtdFlo_Sys_L_OfficeOpn_W" = 896.065   $ Sizing
 "CRtdFlo_Sys_L_OfficeSm_E" = 694.8228   $ Sizing
 "CRtdFlo_Sys_L_OfficeSm_N" = 413.5136   $ Sizing
 "CRtdFlo_Sys_L_OfficeSm_S" = 693.0712   $ Sizing
 "CRtdFlo_Sys_L_OfficeSm_W" = 780.9615   $ Sizing
 "CRtdFlo_Sys_L_Restrm_C" = 110.8178   $ Sizing
 "CRtdFlo_Sys_L_StorSm_C" = 46.24861   $ Sizing
 "CRtdFlo_Sys_L_StorSm_E" = 194.0071   $ Sizing
 "CRtdFlo_Sys_L_StorSm_N" = 110.3793   $ Sizing
 "CRtdFlo_Sys_L_StorSm_S" = 194.3406   $ Sizing
 "CRtdFlo_Sys_L_StorSm_W" = 210.3492   $ Sizing
 "CRtdFlo_Sys_T_Conf_C" = 317.8097   $ Sizing
 "CRtdFlo_Sys_T_Hall_E" = 221.918   $ Sizing
 "CRtdFlo_Sys_T_Hall_N" = 118.3781   $ Sizing
 "CRtdFlo_Sys_T_Hall_S" = 228.7303   $ Sizing
 "CRtdFlo_Sys_T_Hall_W" = 250.7596   $ Sizing
 "CRtdFlo_Sys_T_OfficeOpn_C" = 79.45915   $ Sizing
 "CRtdFlo_Sys_T_OfficeOpn_E" = 867.1542   $ Sizing
 "CRtdFlo_Sys_T_OfficeOpn_N" = 552.7115   $ Sizing
 "CRtdFlo_Sys_T_OfficeOpn_S" = 889.1767   $ Sizing
 "CRtdFlo_Sys_T_OfficeOpn_W" = 952.0811   $ Sizing
 "CRtdFlo_Sys_T_OfficeSm_E" = 749.5696   $ Sizing
 "CRtdFlo_Sys_T_OfficeSm_N" = 445.9104   $ Sizing
 "CRtdFlo_Sys_T_OfficeSm_S" = 770.5427   $ Sizing
 "CRtdFlo_Sys_T_OfficeSm_W" = 842.8535   $ Sizing
 "CRtdFlo_Sys_T_Restrm_C" = 150.5296   $ Sizing
 "CRtdFlo_Sys_T_StorSm_E" = 226.9837   $ Sizing
 "CRtdFlo_Sys_T_StorSm_N" = 130.8655   $ Sizing
 "CRtdFlo_Sys_T_StorSm_S" = 235.15   $ Sizing
 "CRtdFlo_Sys_T_StorSm_W" = 259.4177   $ Sizing
 "CSupFlo_Sys_L_Break_C" = 569.8221   $ Sizing
 "CSupFlo_Sys_L_CompDC_C" = 182.037   $ Sizing
 "CSupFlo_Sys_L_Conf_C" = 331.2578   $ Sizing
 "CSupFlo_Sys_L_CopyRm_C" = 119.6492   $ Sizing
 "CSupFlo_Sys_L_Hall_E" = 195.4297   $ Sizing
 "CSupFlo_Sys_L_Hall_N" = 106.8092   $ Sizing
 "CSupFlo_Sys_L_Hall_S" = 195.7778   $ Sizing
 "CSupFlo_Sys_L_Hall_W" = 219.2866   $ Sizing
 "CSupFlo_Sys_L_LobWait_E" = 454.7087   $ Sizing
 "CSupFlo_Sys_L_LobWait_N" = 275.7385   $ Sizing
 "CSupFlo_Sys_L_LobWait_S" = 476.717   $ Sizing
 "CSupFlo_Sys_L_LobWait_W" = 535.0482   $ Sizing
 "CSupFlo_Sys_L_MechElec_C" = 113.1199   $ Sizing
 "CSupFlo_Sys_L_OfficeOpn_C" = 85.89044   $ Sizing
 "CSupFlo_Sys_L_OfficeOpn_E" = 805.2302   $ Sizing
 "CSupFlo_Sys_L_OfficeOpn_N" = 516.5226   $ Sizing
 "CSupFlo_Sys_L_OfficeOpn_S" = 794.0202   $ Sizing
 "CSupFlo_Sys_L_OfficeOpn_W" = 896.065   $ Sizing
 "CSupFlo_Sys_L_OfficeSm_E" = 694.8228   $ Sizing
 "CSupFlo_Sys_L_OfficeSm_N" = 413.5136   $ Sizing
 "CSupFlo_Sys_L_OfficeSm_S" = 693.0712   $ Sizing
 "CSupFlo_Sys_L_OfficeSm_W" = 780.9615   $ Sizing
 "CSupFlo_Sys_L_Restrm_C" = 110.8178   $ Sizing
 "CSupFlo_Sys_L_StorSm_C" = 46.24861   $ Sizing
 "CSupFlo_Sys_L_StorSm_E" = 194.0071   $ Sizing
 "CSupFlo_Sys_L_StorSm_N" = 110.3793   $ Sizing
 "CSupFlo_Sys_L_StorSm_S" = 194.3406   $ Sizing
 "CSupFlo_Sys_L_StorSm_W" = 210.3492   $ Sizing
 "CSupFlo_Sys_T_Conf_C" = 317.8097   $ Sizing
 "CSupFlo_Sys_T_Hall_E" = 221.918   $ Sizing
 "CSupFlo_Sys_T_Hall_N" = 118.3781   $ Sizing
 "CSupFlo_Sys_T_Hall_S" = 228.7303   $ Sizing
 "CSupFlo_Sys_T_Hall_W" = 250.7596   $ Sizing
 "CSupFlo_Sys_T_OfficeOpn_C" = 79.45915   $ Sizing
 "CSupFlo_Sys_T_OfficeOpn_E" = 867.1542   $ Sizing
 "CSupFlo_Sys_T_OfficeOpn_N" = 552.7115   $ Sizing
 "CSupFlo_Sys_T_OfficeOpn_S" = 889.1767   $ Sizing
 "CSupFlo_Sys_T_OfficeOpn_W" = 952.0811   $ Sizing
 "CSupFlo_Sys_T_OfficeSm_E" = 749.5696   $ Sizing
 "CSupFlo_Sys_T_OfficeSm_N" = 445.9104   $ Sizing
 "CSupFlo_Sys_T_OfficeSm_S" = 770.5427   $ Sizing
 "CSupFlo_Sys_T_OfficeSm_W" = 842.8535   $ Sizing
 "CSupFlo_Sys_T_Restrm_C" = 150.5296   $ Sizing
 "CSupFlo_Sys_T_StorSm_E" = 226.9837   $ Sizing
 "CSupFlo_Sys_T_StorSm_N" = 130.8655   $ Sizing
 "CSupFlo_Sys_T_StorSm_S" = 235.15   $ Sizing
 "CSupFlo_Sys_T_StorSm_W" = 259.4177   $ Sizing
 "ClCap_Sys_L_Break_C" = 17803.91   $ Sizing
 "ClCap_Sys_L_CompDC_C" = 5687.686   $ Sizing
 "ClCap_Sys_L_Conf_C" = 13172.78   $ Sizing
 "ClCap_Sys_L_CopyRm_C" = 3738.399   $ Sizing
 "ClCap_Sys_L_Hall_E" = 6106.136   $ Sizing
 "ClCap_Sys_L_Hall_N" = 3337.22   $ Sizing
 "ClCap_Sys_L_Hall_S" = 6117.013   $ Sizing
 "ClCap_Sys_L_Hall_W" = 6851.538   $ Sizing
 "ClCap_Sys_L_LobWait_E" = 14207.23   $ Sizing
 "ClCap_Sys_L_LobWait_N" = 8615.358   $ Sizing
 "ClCap_Sys_L_LobWait_S" = 14894.87   $ Sizing
 "ClCap_Sys_L_LobWait_W" = 16717.4   $ Sizing
 "ClCap_Sys_L_MechElec_C" = 3534.394   $ Sizing
 "ClCap_Sys_L_OfficeOpn_C" = 2683.619   $ Sizing
 "ClCap_Sys_L_OfficeOpn_E" = 25159.16   $ Sizing
 "ClCap_Sys_L_OfficeOpn_N" = 16138.58   $ Sizing
 "ClCap_Sys_L_OfficeOpn_S" = 24808.9   $ Sizing
 "ClCap_Sys_L_OfficeOpn_W" = 27997.26   $ Sizing
 "ClCap_Sys_L_OfficeSm_E" = 21709.51   $ Sizing
 "ClCap_Sys_L_OfficeSm_N" = 12920.1   $ Sizing
 "ClCap_Sys_L_OfficeSm_S" = 21654.78   $ Sizing
 "ClCap_Sys_L_OfficeSm_W" = 24400.89   $ Sizing
 "ClCap_Sys_L_Restrm_C" = 3462.467   $ Sizing
 "ClCap_Sys_L_StorSm_C" = 1445.023   $ Sizing
 "ClCap_Sys_L_StorSm_E" = 6061.689   $ Sizing
 "ClCap_Sys_L_StorSm_N" = 3448.764   $ Sizing
 "ClCap_Sys_L_StorSm_S" = 6072.108   $ Sizing
 "ClCap_Sys_L_StorSm_W" = 6572.292   $ Sizing
 "ClCap_Sys_T_Conf_C" = 12638   $ Sizing
 "ClCap_Sys_T_Hall_E" = 6933.755   $ Sizing
 "ClCap_Sys_T_Hall_N" = 3698.686   $ Sizing
 "ClCap_Sys_T_Hall_S" = 7146.603   $ Sizing
 "ClCap_Sys_T_Hall_W" = 7834.903   $ Sizing
 "ClCap_Sys_T_OfficeOpn_C" = 2482.675   $ Sizing
 "ClCap_Sys_T_OfficeOpn_E" = 27093.95   $ Sizing
 "ClCap_Sys_T_OfficeOpn_N" = 17269.29   $ Sizing
 "ClCap_Sys_T_OfficeOpn_S" = 27782.04   $ Sizing
 "ClCap_Sys_T_OfficeOpn_W" = 29747.46   $ Sizing
 "ClCap_Sys_T_OfficeSm_E" = 23420.06   $ Sizing
 "ClCap_Sys_T_OfficeSm_N" = 13932.32   $ Sizing
 "ClCap_Sys_T_OfficeSm_S" = 24075.35   $ Sizing
 "ClCap_Sys_T_OfficeSm_W" = 26334.68   $ Sizing
 "ClCap_Sys_T_Restrm_C" = 4703.249   $ Sizing
 "ClCap_Sys_T_StorSm_E" = 7092.033   $ Sizing
 "ClCap_Sys_T_StorSm_N" = 4088.851   $ Sizing
 "ClCap_Sys_T_StorSm_S" = 7347.186   $ Sizing
 "ClCap_Sys_T_StorSm_W" = 8105.421   $ Sizing
 "HtCap_Sys_L_Break_C" = -30605.18   $ Sizing
 "HtCap_Sys_L_CompDC_C" = -6648.494   $ Sizing
 "HtCap_Sys_L_Conf_C" = -18377.27   $ Sizing
 "HtCap_Sys_L_CopyRm_C" = -6231.964   $ Sizing
 "HtCap_Sys_L_Hall_E" = -7357.057   $ Sizing
 "HtCap_Sys_L_Hall_N" = -3612.81   $ Sizing
 "HtCap_Sys_L_Hall_S" = -7402.419   $ Sizing
 "HtCap_Sys_L_Hall_W" = -7355.974   $ Sizing
 "HtCap_Sys_L_LobWait_E" = -16269.42   $ Sizing
 "HtCap_Sys_L_LobWait_N" = -10515.68   $ Sizing
 "HtCap_Sys_L_LobWait_S" = -17258.46   $ Sizing
 "HtCap_Sys_L_LobWait_W" = -17793.05   $ Sizing
 "HtCap_Sys_L_MechElec_C" = -4589.944   $ Sizing
 "HtCap_Sys_L_OfficeOpn_C" = -3400.999   $ Sizing
 "HtCap_Sys_L_OfficeOpn_E" = -29378.29   $ Sizing
 "HtCap_Sys_L_OfficeOpn_N" = -18553.78   $ Sizing
 "HtCap_Sys_L_OfficeOpn_S" = -28104.96   $ Sizing
 "HtCap_Sys_L_OfficeOpn_W" = -29790.7   $ Sizing
 "HtCap_Sys_L_OfficeSm_E" = -25906.69   $ Sizing
 "HtCap_Sys_L_OfficeSm_N" = -14377.64   $ Sizing
 "HtCap_Sys_L_OfficeSm_S" = -24999.21   $ Sizing
 "HtCap_Sys_L_OfficeSm_W" = -26668.97   $ Sizing
 "HtCap_Sys_L_Restrm_C" = -3900.727   $ Sizing
 "HtCap_Sys_L_StorSm_C" = -1869.885   $ Sizing
 "HtCap_Sys_L_StorSm_E" = -7128.676   $ Sizing
 "HtCap_Sys_L_StorSm_N" = -4157.778   $ Sizing
 "HtCap_Sys_L_StorSm_S" = -7100.038   $ Sizing
 "HtCap_Sys_L_StorSm_W" = -7108.878   $ Sizing
 "HtCap_Sys_T_Conf_C" = -18356.17   $ Sizing
 "HtCap_Sys_T_Hall_E" = -8310.462   $ Sizing
 "HtCap_Sys_T_Hall_N" = -4536.277   $ Sizing
 "HtCap_Sys_T_Hall_S" = -8878.132   $ Sizing
 "HtCap_Sys_T_Hall_W" = -8591.803   $ Sizing
 "HtCap_Sys_T_OfficeOpn_C" = -3311.737   $ Sizing
 "HtCap_Sys_T_OfficeOpn_E" = -31869.61   $ Sizing
 "HtCap_Sys_T_OfficeOpn_N" = -21997.79   $ Sizing
 "HtCap_Sys_T_OfficeOpn_S" = -32399.63   $ Sizing
 "HtCap_Sys_T_OfficeOpn_W" = -33316.3   $ Sizing
 "HtCap_Sys_T_OfficeSm_E" = -27913.53   $ Sizing
 "HtCap_Sys_T_OfficeSm_N" = -17232.33   $ Sizing
 "HtCap_Sys_T_OfficeSm_S" = -28820.28   $ Sizing
 "HtCap_Sys_T_OfficeSm_W" = -28939.83   $ Sizing
 "HtCap_Sys_T_Restrm_C" = -5736.443   $ Sizing
 "HtCap_Sys_T_StorSm_E" = -8420.929   $ Sizing
 "HtCap_Sys_T_StorSm_N" = -5680.808   $ Sizing
 "HtCap_Sys_T_StorSm_S" = -8490.32   $ Sizing
 "HtCap_Sys_T_StorSm_W" = -9289.555   $ Sizing
..

##include Templates\OfS_DX_SZ.inp
END ..
COMPUTE ..
STOP ..
