INPUT ..

##fileprefix C:\Users\jglasskatz\MASControl3\
##set1 IsSizing FALSE
##set1 CoolType WLHP
##set1 HeatType HEAT-PUMP
##set1 EU_HrRepVar 1
##set1 BldgVint 2003
##set1 BldgLoc CZ01

 ##set1 mHW_FlowCtrl Const   $ IP Tech: HwFlowCtrlCst
 ##set1 mBlrIsCond FALSE   $ IP Tech: WBlr-lt300-80p0AF
 ##set1 mWLHP_FlowCtrl Const   $ IP Tech: WlhpFlowCtrlCst

PARAMETER
 "AltFactor" = 1.00753   $ IP Non-Tech
 "BldgEconoFlag" = 1   $ IP Non-Tech
 "BlrPrimLp" = WLHPCircLoop   $ IP Non-Tech
 "Break_EWSF" = 1   $ IP Non-Tech
 "Break_LWSF" = 1.1   $ IP Non-Tech
 "CDD_DBHi10" = 65   $ IP Non-Tech
 "CDD_DBHi7" = 68   $ IP Non-Tech
 "CDD_DBHi8" = 66   $ IP Non-Tech
 "CDD_DBHi9" = 77   $ IP Non-Tech
 "CDD_DBRange10" = 17   $ IP Non-Tech
 "CDD_DBRange7" = 11   $ IP Non-Tech
 "CDD_DBRange8" = 10   $ IP Non-Tech
 "CDD_DBRange9" = 29   $ IP Non-Tech
 "CDD_Day10" = 15   $ IP Non-Tech
 "CDD_Day7" = 16   $ IP Non-Tech
 "CDD_Day8" = 20   $ IP Non-Tech
 "CDD_Day9" = 17   $ IP Non-Tech
 "CDD_HrHi10" = 12   $ IP Non-Tech
 "CDD_HrHi7" = 12   $ IP Non-Tech
 "CDD_HrHi8" = 13   $ IP Non-Tech
 "CDD_HrHi9" = 17   $ IP Non-Tech
 "CDD_HrLo10" = 6   $ IP Non-Tech
 "CDD_HrLo7" = 3   $ IP Non-Tech
 "CDD_HrLo8" = 8   $ IP Non-Tech
 "CDD_HrLo9" = 4   $ IP Non-Tech
 "CDD_WB10" = 57.53039551   $ IP Non-Tech
 "CDD_WB7" = 59.29250717   $ IP Non-Tech
 "CDD_WB8" = 60.75350189   $ IP Non-Tech
 "CDD_WB9" = 61.08643341   $ IP Non-Tech
 "CZ_Category" = Tem   $ IP Non-Tech
 "ChwVintEconoFlag" = 1   $ IP Non-Tech
 "CompRoomData_EWSF" = 5   $ IP Non-Tech
 "CompRoomData_LWSF" = 1.2   $ IP Non-Tech
 "Conference_EWSF" = 1   $ IP Non-Tech
 "Conference_LWSF" = 1.4   $ IP Non-Tech
 "CoolSetT" = 45   $ IP Non-Tech
 "CoolType" = WLHP   $ IP Non-Tech
 "CopyRoom_EWSF" = 1.5   $ IP Non-Tech
 "CopyRoom_LWSF" = 1.3   $ IP Non-Tech
 "CwPipeHead" = 40   $ IP Non-Tech
 "DesCoolT" = 75   $ IP Non-Tech
 "DesHeatT" = 73   $ IP Non-Tech
 "EconoEnthLimit" = 28   $ IP Non-Tech
 "EconoTempLimit" = 70   $ IP Non-Tech
 "Elevation" = 203   $ IP Non-Tech
 "HDD_CloudAmt1" = 0   $ IP Non-Tech
 "HDD_DBHi1" = 53   $ IP Non-Tech
 "HDD_DBRange1" = 20   $ IP Non-Tech
 "HDD_Day1" = 15   $ IP Non-Tech
 "HDD_HrHi1" = 14   $ IP Non-Tech
 "HDD_HrLo1" = 6   $ IP Non-Tech
 "HDD_WB1" = 42.3   $ IP Non-Tech
 "HDD_WindSpd1" = 12.7   $ IP Non-Tech
 "Hall_EWSF" = 0.2   $ IP Non-Tech
 "Hall_LWSF" = 0.6   $ IP Non-Tech
 "HeatSrc" = HEAT-PUMP   $ IP Non-Tech
 "HeatSrcTU" = HEAT-PUMP   $ IP Non-Tech
 "HeatType" = WLHP   $ IP Non-Tech
 "HeatTypeTU" = HEAT-PUMP   $ IP Non-Tech
 "IndoorFanMode" = CONTINUOUS   $ IP Non-Tech
 "KT_TransferAir" = No   $ IP Non-Tech
 "Latitude" = 40.8   $ IP Non-Tech
 "LobbyWaiting_EWSF" = 0.5   $ IP Non-Tech
 "LobbyWaiting_LWSF" = 1.3   $ IP Non-Tech
 "Longitude" = 124.2   $ IP Non-Tech
 "LtgMsrApplic" = ALL   $ Msr TechID: NonResLtgRefMsr-HB
 "LtgSav_CFL" = 0   $ Msr TechID: NonResLtgRefMsr-HB
 "LtgSav_EX" = 0   $ Msr TechID: NonResLtgRefMsr-HB
 "LtgSav_HB" = 0.3   $ Msr TechID: NonResLtgRefMsr-HB
 "LtgSav_LF" = 0   $ Msr TechID: NonResLtgRefMsr-HB
 "LtgSav_SP" = 0   $ Msr TechID: NonResLtgRefMsr-HB
 "MZFanMechEff" = 0.54   $ IP Non-Tech
 "MZHasRetFan" = FALSE   $ IP Non-Tech
 "MZ_RFanWPerCfm" = 0.33   $ IP Non-Tech
 "MZ_SFanWPerCfm" = 0.75   $ IP Non-Tech
 "MZ_SupFanStatic" = 0.75   $ IP Non-Tech
 "MaxSupT_MZ" = 90   $ IP Non-Tech
 "MaxSupT_SZ" = 90   $ IP Non-Tech
 "MaxSupT_TU" = 90   $ IP Non-Tech
 "MechElecRoom_EWSF" = 0.2   $ IP Non-Tech
 "MechElecRoom_LWSF" = 0.7   $ IP Non-Tech
 "MinCfmPerSF" = 0.4   $ IP Non-Tech
 "MinSupT" = 55   $ IP Non-Tech
 "NumBlrs" = 1   $ IP Non-Tech
 "OccCoolT" = 76   $ IP Non-Tech
 "OccHeatT" = 72   $ IP Non-Tech
 "OfficeOpen_EWSF" = 1.5   $ IP Non-Tech
 "OfficeOpen_LWSF" = 1.2   $ IP Non-Tech
 "OfficeSmall_EWSF" = 1.5   $ IP Non-Tech
 "OfficeSmall_LWSF" = 1.3   $ IP Non-Tech
 "PkgDxVintEconoFlag" = 0   $ IP Non-Tech
 "Restroom_EWSF" = 0.2   $ IP Non-Tech
 "Restroom_LWSF" = 0.6   $ IP Non-Tech
 "SZFanMechEff" = 0.54   $ IP Non-Tech
 "SZHasRetFan" = FALSE   $ IP Non-Tech
 "SZ_Is_2Spd" = FALSE   $ IP Non-Tech
 "SZ_SFanWPerCfm" = 0.46   $ IP Non-Tech
 "SZ_SupFanStatic" = 0.75   $ IP Non-Tech
 "StorageSmlCond_EWSF" = 0.2   $ IP Non-Tech
 "StorageSmlCond_LWSF" = 0.6   $ IP Non-Tech
 "T24GlzTbl" = CZTbl   $ IP Non-Tech
 "TermUnitFanMechEff" = 1   $ IP Non-Tech
 "TermUnitFanMode" = INTERMITTENT   $ IP Non-Tech
 "TermUnitFanWPerCfm" = 0.175   $ IP Non-Tech
 "TwrEIR" = 0.0329   $ IP Non-Tech
 "TwrPipeHead" = 15   $ IP Non-Tech
 "TwrSetpt" = 80   $ IP Non-Tech
 "TwrStaticHead" = 0   $ IP Non-Tech
 "UnocCoolT" = 86   $ IP Non-Tech
 "UnocHeatT" = 62   $ IP Non-Tech
 "WLHPLoopHeatSetpt" = 65   $ IP Non-Tech
 "WlhpVintEconoFlag" = 0   $ IP Non-Tech
 "EconoCtrl" = OA-TEMP   $ IP Tech: AirEcono-OAT-ByVint
 "MaxOAFrac" = 0.85   $ IP Tech: AirEcono-OAT-ByVint
 "UseEconoVintApplic" = TRUE   $ IP Tech: AirEcono-OAT-ByVint
 "DuctDT" = 1   $ IP Tech: ComDuctInsul-1
 "DuctAirLoss" = 0   $ IP Tech: ComDuctLeak-0
 "DuctLossOAFrac" = 0   $ IP Tech: ComDuctLeak-0
 "ComRoofInsCalc" = FromUo   $ IP Tech: ComRoofIns-WFrm-0.06
 "ComRoofInsR" = -999   $ IP Tech: ComRoofIns-WFrm-0.06
 "ComRoofUo" = 0.06   $ IP Tech: ComRoofIns-WFrm-0.06
 "ComEWInsCalc" = FromUo   $ IP Tech: ComWallIns-WFrm-0.08
 "ComEWInsR" = -999   $ IP Tech: ComWallIns-WFrm-0.08
 "ComEWUo" = 0.08   $ IP Tech: ComWallIns-WFrm-0.08
 "HW_FlowCtrl" = Const   $ IP Tech: HwFlowCtrlCst
 "HW_HdSensLoc" = AT-COILS   $ IP Tech: HwFlowCtrlCst
 "HW_HdSptCtrl" = FIXED   $ IP Tech: HwFlowCtrlCst
 "HWP_Encl" = Any   $ IP Tech: HwPumpMtrEff-HI
 "HWP_MotClass" = HI-EFF   $ IP Tech: HwPumpMtrEff-HI
 "HWP_MotHP" = Any   $ IP Tech: HwPumpMtrEff-HI
 "HWP_NEMA_DC" = Any   $ IP Tech: HwPumpMtrEff-HI
 "HWP_RPM" = Any   $ IP Tech: HwPumpMtrEff-HI
 "HWP_Volt" = Any   $ IP Tech: HwPumpMtrEff-HI
 "ComN_SHGC" = 0.47   $ IP Tech: NResWin-ComN-0.47-0.47
 "ComN_UFactor" = 0.47   $ IP Tech: NResWin-ComN-0.47-0.47
 "ComN_VisTrans" = 0.75   $ IP Tech: NResWin-ComN-0.47-0.47
 "ComN_WinCode" = G2633   $ IP Tech: NResWin-ComN-0.47-0.47
 "ComN_WinFrmFrac" = 0.17   $ IP Tech: NResWin-ComN-0.47-0.47
 "ComN_WinFrmU" = 0.3   $ IP Tech: NResWin-ComN-0.47-0.47
 "ComO_SHGC" = 0.43   $ IP Tech: NResWin-ComO-0.47-0.43
 "ComO_UFactor" = 0.47   $ IP Tech: NResWin-ComO-0.47-0.43
 "ComO_VisTrans" = 0.68   $ IP Tech: NResWin-ComO-0.47-0.43
 "ComO_WinCode" = G2663   $ IP Tech: NResWin-ComO-0.47-0.43
 "ComO_WinFrmFrac" = 0.17   $ IP Tech: NResWin-ComO-0.47-0.43
 "ComO_WinFrmU" = 0.3   $ IP Tech: NResWin-ComO-0.47-0.43
 "TwrFanCtrl" = TWO-SPEED-FAN   $ IP Tech: TwrFanCtrl-2sp
 "TFan_Encl" = Any   $ IP Tech: TwrFanMtrEff-HI
 "TFan_MotClass" = HI-EFF   $ IP Tech: TwrFanMtrEff-HI
 "TFan_MotHP" = Any   $ IP Tech: TwrFanMtrEff-HI
 "TFan_NEMA_DC" = Any   $ IP Tech: TwrFanMtrEff-HI
 "TFan_RPM" = Any   $ IP Tech: TwrFanMtrEff-HI
 "TFan_Volt" = Any   $ IP Tech: TwrFanMtrEff-HI
 "BlrCapRange" = lt300   $ IP Tech: WBlr-lt300-80p0AF
 "BlrDraftType" = FDr   $ IP Tech: WBlr-lt300-80p0AF
 "BlrEff" = 0.8   $ IP Tech: WBlr-lt300-80p0AF
 "BlrEffUnits" = AFUE   $ IP Tech: WBlr-lt300-80p0AF
 "BlrEt" = 0.805   $ IP Tech: WBlr-lt300-80p0AF
 "BlrFluid" = Wtr   $ IP Tech: WBlr-lt300-80p0AF
 "BlrIsCond" = FALSE   $ IP Tech: WBlr-lt300-80p0AF
 "BlrT" = 165   $ IP Tech: WBlr-lt300-80p0AF
 "COP47" = 4.813   $ IP Tech: WLHP1SpH-ge17-E12-C4.2
 "CfmPerBtuh" = 0.033333333   $ IP Tech: WLHP1SpH-ge17-E12-C4.2
 "CoilBF" = 0.15   $ IP Tech: WLHP1SpH-ge17-E12-C4.2
 "CoolingEIR" = 0.23327   $ IP Tech: WLHP1SpH-ge17-E12-C4.2
 "DXType" = WLHP   $ IP Tech: WLHP1SpH-ge17-E12-C4.2
 "EER" = 12   $ IP Tech: WLHP1SpH-ge17-E12-C4.2
 "FanWPerCfm" = 0.35   $ IP Tech: WLHP1SpH-ge17-E12-C4.2
 "HtCoolCapRatio" = 0.88   $ IP Tech: WLHP1SpH-ge17-E12-C4.2
 "HtgEIR" = 0.20776   $ IP Tech: WLHP1SpH-ge17-E12-C4.2
 "NumStages" = 1   $ IP Tech: WLHP1SpH-ge17-E12-C4.2
 "RatedSupMtrClass" = HiEff   $ IP Tech: WLHP1SpH-ge17-E12-C4.2
 "SubType" = 1SpH   $ IP Tech: WLHP1SpH-ge17-E12-C4.2
 "UnitCOP" = 4.2   $ IP Tech: WLHP1SpH-ge17-E12-C4.2
 "WLHP_FlowCtrl" = Const   $ IP Tech: WlhpFlowCtrlCst
 "WLHP_HdSensLoc" = AT-COILS   $ IP Tech: WlhpFlowCtrlCst
 "WLHP_HdSptCtrl" = FIXED   $ IP Tech: WlhpFlowCtrlCst
 "WLHP_Encl" = Any   $ IP Tech: WlhpPumpMtrEff-HI
 "WLHP_MotClass" = HI-EFF   $ IP Tech: WlhpPumpMtrEff-HI
 "WLHP_MotHP" = Any   $ IP Tech: WlhpPumpMtrEff-HI
 "WLHP_NEMA_DC" = Any   $ IP Tech: WlhpPumpMtrEff-HI
 "WLHP_RPM" = Any   $ IP Tech: WlhpPumpMtrEff-HI
 "WLHP_Volt" = Any   $ IP Tech: WlhpPumpMtrEff-HI
 "AltAdjFactor" = 1.007532   $ Sizing
 "CAssFlo_L_Break_CZn" = 279.9545   $ Sizing
 "CAssFlo_L_CompDC_CZn" = 162.4684   $ Sizing
 "CAssFlo_L_Conf_CZn" = 207.8219   $ Sizing
 "CAssFlo_L_CopyRm_CZn" = 59.11365   $ Sizing
 "CAssFlo_L_Hall_EZn" = 97.59251   $ Sizing
 "CAssFlo_L_Hall_NZn" = 86.42922   $ Sizing
 "CAssFlo_L_Hall_SZn" = 112.5068   $ Sizing
 "CAssFlo_L_Hall_WZn" = 100.3491   $ Sizing
 "CAssFlo_L_LobWait_EZn" = 239.9574   $ Sizing
 "CAssFlo_L_LobWait_NZn" = 181.357   $ Sizing
 "CAssFlo_L_LobWait_SZn" = 264.8185   $ Sizing
 "CAssFlo_L_LobWait_WZn" = 234.7785   $ Sizing
 "CAssFlo_L_MechElec_CZn" = 85.06516   $ Sizing
 "CAssFlo_L_OfficeOpn_CZn" = 60.67815   $ Sizing
 "CAssFlo_L_OfficeOpn_EZn" = 502.2418   $ Sizing
 "CAssFlo_L_OfficeOpn_NZn" = 232.8129   $ Sizing
 "CAssFlo_L_OfficeOpn_SZn" = 507.4531   $ Sizing
 "CAssFlo_L_OfficeOpn_WZn" = 468.0449   $ Sizing
 "CAssFlo_L_OfficeSm_EZn" = 416.6932   $ Sizing
 "CAssFlo_L_OfficeSm_NZn" = 193.3428   $ Sizing
 "CAssFlo_L_OfficeSm_SZn" = 443.9456   $ Sizing
 "CAssFlo_L_OfficeSm_WZn" = 405.9964   $ Sizing
 "CAssFlo_L_Restrm_CZn" = 86.07105   $ Sizing
 "CAssFlo_L_StorSm_CZn" = 48.43744   $ Sizing
 "CAssFlo_L_StorSm_EZn" = 94.47455   $ Sizing
 "CAssFlo_L_StorSm_NZn" = 101.5474   $ Sizing
 "CAssFlo_L_StorSm_SZn" = 101.8557   $ Sizing
 "CAssFlo_L_StorSm_WZn" = 91.72354   $ Sizing
 "CAssFlo_T_Conf_CZn" = 211.8043   $ Sizing
 "CAssFlo_T_Hall_EZn" = 116.9211   $ Sizing
 "CAssFlo_T_Hall_NZn" = 81.60965   $ Sizing
 "CAssFlo_T_Hall_SZn" = 132.213   $ Sizing
 "CAssFlo_T_Hall_WZn" = 113.1246   $ Sizing
 "CAssFlo_T_OfficeOpn_CZn" = 59.46384   $ Sizing
 "CAssFlo_T_OfficeOpn_EZn" = 510.5767   $ Sizing
 "CAssFlo_T_OfficeOpn_NZn" = 258.737   $ Sizing
 "CAssFlo_T_OfficeOpn_SZn" = 544.9788   $ Sizing
 "CAssFlo_T_OfficeOpn_WZn" = 472.5312   $ Sizing
 "CAssFlo_T_OfficeSm_EZn" = 432.6898   $ Sizing
 "CAssFlo_T_OfficeSm_NZn" = 200.8601   $ Sizing
 "CAssFlo_T_OfficeSm_SZn" = 480.7029   $ Sizing
 "CAssFlo_T_OfficeSm_WZn" = 411.8268   $ Sizing
 "CAssFlo_T_Restrm_CZn" = 86.07105   $ Sizing
 "CAssFlo_T_StorSm_EZn" = 113.5172   $ Sizing
 "CAssFlo_T_StorSm_NZn" = 99.96697   $ Sizing
 "CAssFlo_T_StorSm_SZn" = 124.5368   $ Sizing
 "CAssFlo_T_StorSm_WZn" = 110.7332   $ Sizing
 "CHRtFlo_Sys_L_Break_C" = 279.9545   $ Sizing
 "CHRtFlo_Sys_L_CompDC_C" = 162.4684   $ Sizing
 "CHRtFlo_Sys_L_Conf_C" = 207.8219   $ Sizing
 "CHRtFlo_Sys_L_CopyRm_C" = 59.11366   $ Sizing
 "CHRtFlo_Sys_L_Hall_E" = 97.59251   $ Sizing
 "CHRtFlo_Sys_L_Hall_N" = 86.42922   $ Sizing
 "CHRtFlo_Sys_L_Hall_S" = 112.5068   $ Sizing
 "CHRtFlo_Sys_L_Hall_W" = 100.3491   $ Sizing
 "CHRtFlo_Sys_L_LobWait_E" = 239.9574   $ Sizing
 "CHRtFlo_Sys_L_LobWait_N" = 181.357   $ Sizing
 "CHRtFlo_Sys_L_LobWait_S" = 264.8185   $ Sizing
 "CHRtFlo_Sys_L_LobWait_W" = 234.7785   $ Sizing
 "CHRtFlo_Sys_L_MechElec_C" = 85.06516   $ Sizing
 "CHRtFlo_Sys_L_OfficeOpn_C" = 60.67815   $ Sizing
 "CHRtFlo_Sys_L_OfficeOpn_E" = 502.2418   $ Sizing
 "CHRtFlo_Sys_L_OfficeOpn_N" = 232.8129   $ Sizing
 "CHRtFlo_Sys_L_OfficeOpn_S" = 507.4531   $ Sizing
 "CHRtFlo_Sys_L_OfficeOpn_W" = 468.0449   $ Sizing
 "CHRtFlo_Sys_L_OfficeSm_E" = 416.6932   $ Sizing
 "CHRtFlo_Sys_L_OfficeSm_N" = 193.3428   $ Sizing
 "CHRtFlo_Sys_L_OfficeSm_S" = 443.9456   $ Sizing
 "CHRtFlo_Sys_L_OfficeSm_W" = 405.9964   $ Sizing
 "CHRtFlo_Sys_L_Restrm_C" = 86.07105   $ Sizing
 "CHRtFlo_Sys_L_StorSm_C" = 48.43744   $ Sizing
 "CHRtFlo_Sys_L_StorSm_E" = 94.47455   $ Sizing
 "CHRtFlo_Sys_L_StorSm_N" = 101.5474   $ Sizing
 "CHRtFlo_Sys_L_StorSm_S" = 101.8557   $ Sizing
 "CHRtFlo_Sys_L_StorSm_W" = 91.72354   $ Sizing
 "CHRtFlo_Sys_T_Conf_C" = 211.8043   $ Sizing
 "CHRtFlo_Sys_T_Hall_E" = 116.9211   $ Sizing
 "CHRtFlo_Sys_T_Hall_N" = 81.60965   $ Sizing
 "CHRtFlo_Sys_T_Hall_S" = 132.213   $ Sizing
 "CHRtFlo_Sys_T_Hall_W" = 113.1246   $ Sizing
 "CHRtFlo_Sys_T_OfficeOpn_C" = 59.46384   $ Sizing
 "CHRtFlo_Sys_T_OfficeOpn_E" = 510.5768   $ Sizing
 "CHRtFlo_Sys_T_OfficeOpn_N" = 258.737   $ Sizing
 "CHRtFlo_Sys_T_OfficeOpn_S" = 544.9788   $ Sizing
 "CHRtFlo_Sys_T_OfficeOpn_W" = 472.5312   $ Sizing
 "CHRtFlo_Sys_T_OfficeSm_E" = 432.6898   $ Sizing
 "CHRtFlo_Sys_T_OfficeSm_N" = 200.8601   $ Sizing
 "CHRtFlo_Sys_T_OfficeSm_S" = 480.7029   $ Sizing
 "CHRtFlo_Sys_T_OfficeSm_W" = 411.8268   $ Sizing
 "CHRtFlo_Sys_T_Restrm_C" = 86.07105   $ Sizing
 "CHRtFlo_Sys_T_StorSm_E" = 113.5172   $ Sizing
 "CHRtFlo_Sys_T_StorSm_N" = 99.96697   $ Sizing
 "CHRtFlo_Sys_T_StorSm_S" = 124.5368   $ Sizing
 "CHRtFlo_Sys_T_StorSm_W" = 110.7332   $ Sizing
 "CRtdFlo_Sys_L_Break_C" = 279.9545   $ Sizing
 "CRtdFlo_Sys_L_CompDC_C" = 162.4684   $ Sizing
 "CRtdFlo_Sys_L_Conf_C" = 207.8219   $ Sizing
 "CRtdFlo_Sys_L_CopyRm_C" = 59.11365   $ Sizing
 "CRtdFlo_Sys_L_Hall_E" = 97.59251   $ Sizing
 "CRtdFlo_Sys_L_Hall_N" = 86.42922   $ Sizing
 "CRtdFlo_Sys_L_Hall_S" = 112.5068   $ Sizing
 "CRtdFlo_Sys_L_Hall_W" = 100.3491   $ Sizing
 "CRtdFlo_Sys_L_LobWait_E" = 239.9574   $ Sizing
 "CRtdFlo_Sys_L_LobWait_N" = 181.357   $ Sizing
 "CRtdFlo_Sys_L_LobWait_S" = 264.8185   $ Sizing
 "CRtdFlo_Sys_L_LobWait_W" = 234.7785   $ Sizing
 "CRtdFlo_Sys_L_MechElec_C" = 85.06516   $ Sizing
 "CRtdFlo_Sys_L_OfficeOpn_C" = 60.67815   $ Sizing
 "CRtdFlo_Sys_L_OfficeOpn_E" = 502.2418   $ Sizing
 "CRtdFlo_Sys_L_OfficeOpn_N" = 232.8129   $ Sizing
 "CRtdFlo_Sys_L_OfficeOpn_S" = 507.4531   $ Sizing
 "CRtdFlo_Sys_L_OfficeOpn_W" = 468.0449   $ Sizing
 "CRtdFlo_Sys_L_OfficeSm_E" = 416.6932   $ Sizing
 "CRtdFlo_Sys_L_OfficeSm_N" = 193.3428   $ Sizing
 "CRtdFlo_Sys_L_OfficeSm_S" = 443.9456   $ Sizing
 "CRtdFlo_Sys_L_OfficeSm_W" = 405.9964   $ Sizing
 "CRtdFlo_Sys_L_Restrm_C" = 86.07105   $ Sizing
 "CRtdFlo_Sys_L_StorSm_C" = 48.43744   $ Sizing
 "CRtdFlo_Sys_L_StorSm_E" = 94.47455   $ Sizing
 "CRtdFlo_Sys_L_StorSm_N" = 101.5474   $ Sizing
 "CRtdFlo_Sys_L_StorSm_S" = 101.8557   $ Sizing
 "CRtdFlo_Sys_L_StorSm_W" = 91.72354   $ Sizing
 "CRtdFlo_Sys_T_Conf_C" = 211.8043   $ Sizing
 "CRtdFlo_Sys_T_Hall_E" = 116.9211   $ Sizing
 "CRtdFlo_Sys_T_Hall_N" = 81.60965   $ Sizing
 "CRtdFlo_Sys_T_Hall_S" = 132.213   $ Sizing
 "CRtdFlo_Sys_T_Hall_W" = 113.1246   $ Sizing
 "CRtdFlo_Sys_T_OfficeOpn_C" = 59.46384   $ Sizing
 "CRtdFlo_Sys_T_OfficeOpn_E" = 510.5768   $ Sizing
 "CRtdFlo_Sys_T_OfficeOpn_N" = 258.737   $ Sizing
 "CRtdFlo_Sys_T_OfficeOpn_S" = 544.9788   $ Sizing
 "CRtdFlo_Sys_T_OfficeOpn_W" = 472.5312   $ Sizing
 "CRtdFlo_Sys_T_OfficeSm_E" = 432.6898   $ Sizing
 "CRtdFlo_Sys_T_OfficeSm_N" = 200.8601   $ Sizing
 "CRtdFlo_Sys_T_OfficeSm_S" = 480.7029   $ Sizing
 "CRtdFlo_Sys_T_OfficeSm_W" = 411.8268   $ Sizing
 "CRtdFlo_Sys_T_Restrm_C" = 86.07105   $ Sizing
 "CRtdFlo_Sys_T_StorSm_E" = 113.5172   $ Sizing
 "CRtdFlo_Sys_T_StorSm_N" = 99.96697   $ Sizing
 "CRtdFlo_Sys_T_StorSm_S" = 124.5368   $ Sizing
 "CRtdFlo_Sys_T_StorSm_W" = 110.7332   $ Sizing
 "CSupFlo_Sys_L_Break_C" = 279.9545   $ Sizing
 "CSupFlo_Sys_L_CompDC_C" = 162.4684   $ Sizing
 "CSupFlo_Sys_L_Conf_C" = 207.8219   $ Sizing
 "CSupFlo_Sys_L_CopyRm_C" = 59.11365   $ Sizing
 "CSupFlo_Sys_L_Hall_E" = 97.59251   $ Sizing
 "CSupFlo_Sys_L_Hall_N" = 86.42922   $ Sizing
 "CSupFlo_Sys_L_Hall_S" = 112.5068   $ Sizing
 "CSupFlo_Sys_L_Hall_W" = 100.3491   $ Sizing
 "CSupFlo_Sys_L_LobWait_E" = 239.9574   $ Sizing
 "CSupFlo_Sys_L_LobWait_N" = 181.357   $ Sizing
 "CSupFlo_Sys_L_LobWait_S" = 264.8185   $ Sizing
 "CSupFlo_Sys_L_LobWait_W" = 234.7785   $ Sizing
 "CSupFlo_Sys_L_MechElec_C" = 85.06516   $ Sizing
 "CSupFlo_Sys_L_OfficeOpn_C" = 60.67815   $ Sizing
 "CSupFlo_Sys_L_OfficeOpn_E" = 502.2418   $ Sizing
 "CSupFlo_Sys_L_OfficeOpn_N" = 232.8129   $ Sizing
 "CSupFlo_Sys_L_OfficeOpn_S" = 507.4531   $ Sizing
 "CSupFlo_Sys_L_OfficeOpn_W" = 468.0449   $ Sizing
 "CSupFlo_Sys_L_OfficeSm_E" = 416.6932   $ Sizing
 "CSupFlo_Sys_L_OfficeSm_N" = 193.3428   $ Sizing
 "CSupFlo_Sys_L_OfficeSm_S" = 443.9456   $ Sizing
 "CSupFlo_Sys_L_OfficeSm_W" = 405.9964   $ Sizing
 "CSupFlo_Sys_L_Restrm_C" = 86.07105   $ Sizing
 "CSupFlo_Sys_L_StorSm_C" = 48.43744   $ Sizing
 "CSupFlo_Sys_L_StorSm_E" = 94.47455   $ Sizing
 "CSupFlo_Sys_L_StorSm_N" = 101.5474   $ Sizing
 "CSupFlo_Sys_L_StorSm_S" = 101.8557   $ Sizing
 "CSupFlo_Sys_L_StorSm_W" = 91.72354   $ Sizing
 "CSupFlo_Sys_T_Conf_C" = 211.8043   $ Sizing
 "CSupFlo_Sys_T_Hall_E" = 116.9211   $ Sizing
 "CSupFlo_Sys_T_Hall_N" = 81.60965   $ Sizing
 "CSupFlo_Sys_T_Hall_S" = 132.213   $ Sizing
 "CSupFlo_Sys_T_Hall_W" = 113.1246   $ Sizing
 "CSupFlo_Sys_T_OfficeOpn_C" = 59.46384   $ Sizing
 "CSupFlo_Sys_T_OfficeOpn_E" = 510.5767   $ Sizing
 "CSupFlo_Sys_T_OfficeOpn_N" = 258.737   $ Sizing
 "CSupFlo_Sys_T_OfficeOpn_S" = 544.9788   $ Sizing
 "CSupFlo_Sys_T_OfficeOpn_W" = 472.5312   $ Sizing
 "CSupFlo_Sys_T_OfficeSm_E" = 432.6898   $ Sizing
 "CSupFlo_Sys_T_OfficeSm_N" = 200.8601   $ Sizing
 "CSupFlo_Sys_T_OfficeSm_S" = 480.7029   $ Sizing
 "CSupFlo_Sys_T_OfficeSm_W" = 411.8268   $ Sizing
 "CSupFlo_Sys_T_Restrm_C" = 86.07105   $ Sizing
 "CSupFlo_Sys_T_StorSm_E" = 113.5172   $ Sizing
 "CSupFlo_Sys_T_StorSm_N" = 99.96697   $ Sizing
 "CSupFlo_Sys_T_StorSm_S" = 124.5368   $ Sizing
 "CSupFlo_Sys_T_StorSm_W" = 110.7332   $ Sizing
 "Cap_Boiler1" = -0.1584667   $ Sizing
 "ClCap_Sys_L_Break_C" = 9526.686   $ Sizing
 "ClCap_Sys_L_CompDC_C" = 5528.703   $ Sizing
 "ClCap_Sys_L_Conf_C" = 9000.799   $ Sizing
 "ClCap_Sys_L_CopyRm_C" = 2011.602   $ Sizing
 "ClCap_Sys_L_Hall_E" = 3321.015   $ Sizing
 "ClCap_Sys_L_Hall_N" = 2941.135   $ Sizing
 "ClCap_Sys_L_Hall_S" = 3828.538   $ Sizing
 "ClCap_Sys_L_Hall_W" = 3414.818   $ Sizing
 "ClCap_Sys_L_LobWait_E" = 8165.607   $ Sizing
 "ClCap_Sys_L_LobWait_N" = 6171.469   $ Sizing
 "ClCap_Sys_L_LobWait_S" = 9011.613   $ Sizing
 "ClCap_Sys_L_LobWait_W" = 7989.372   $ Sizing
 "ClCap_Sys_L_MechElec_C" = 2894.717   $ Sizing
 "ClCap_Sys_L_OfficeOpn_C" = 2064.841   $ Sizing
 "ClCap_Sys_L_OfficeOpn_E" = 17090.99   $ Sizing
 "ClCap_Sys_L_OfficeOpn_N" = 7922.483   $ Sizing
 "ClCap_Sys_L_OfficeOpn_S" = 17268.32   $ Sizing
 "ClCap_Sys_L_OfficeOpn_W" = 15927.29   $ Sizing
 "ClCap_Sys_L_OfficeSm_E" = 14179.82   $ Sizing
 "ClCap_Sys_L_OfficeSm_N" = 6579.341   $ Sizing
 "ClCap_Sys_L_OfficeSm_S" = 15107.2   $ Sizing
 "ClCap_Sys_L_OfficeSm_W" = 13815.81   $ Sizing
 "ClCap_Sys_L_Restrm_C" = 2928.947   $ Sizing
 "ClCap_Sys_L_StorSm_C" = 1648.297   $ Sizing
 "ClCap_Sys_L_StorSm_E" = 3214.912   $ Sizing
 "ClCap_Sys_L_StorSm_N" = 3455.597   $ Sizing
 "ClCap_Sys_L_StorSm_S" = 3466.088   $ Sizing
 "ClCap_Sys_L_StorSm_W" = 3121.297   $ Sizing
 "ClCap_Sys_T_Conf_C" = 9173.274   $ Sizing
 "ClCap_Sys_T_Hall_E" = 3978.754   $ Sizing
 "ClCap_Sys_T_Hall_N" = 2777.127   $ Sizing
 "ClCap_Sys_T_Hall_S" = 4499.129   $ Sizing
 "ClCap_Sys_T_Hall_W" = 3849.563   $ Sizing
 "ClCap_Sys_T_OfficeOpn_C" = 2023.519   $ Sizing
 "ClCap_Sys_T_OfficeOpn_E" = 17374.62   $ Sizing
 "ClCap_Sys_T_OfficeOpn_N" = 8804.664   $ Sizing
 "ClCap_Sys_T_OfficeOpn_S" = 18545.3   $ Sizing
 "ClCap_Sys_T_OfficeOpn_W" = 16079.95   $ Sizing
 "ClCap_Sys_T_OfficeSm_E" = 14724.18   $ Sizing
 "ClCap_Sys_T_OfficeSm_N" = 6835.149   $ Sizing
 "ClCap_Sys_T_OfficeSm_S" = 16358.03   $ Sizing
 "ClCap_Sys_T_OfficeSm_W" = 14014.22   $ Sizing
 "ClCap_Sys_T_Restrm_C" = 2928.947   $ Sizing
 "ClCap_Sys_T_StorSm_E" = 3862.921   $ Sizing
 "ClCap_Sys_T_StorSm_N" = 3401.816   $ Sizing
 "ClCap_Sys_T_StorSm_S" = 4237.911   $ Sizing
 "ClCap_Sys_T_StorSm_W" = 3768.184   $ Sizing
 "HtCap_Sys_L_Break_C" = -8383.483   $ Sizing
 "HtCap_Sys_L_CompDC_C" = -4865.258   $ Sizing
 "HtCap_Sys_L_Conf_C" = -7920.703   $ Sizing
 "HtCap_Sys_L_CopyRm_C" = -1770.21   $ Sizing
 "HtCap_Sys_L_Hall_E" = -2922.493   $ Sizing
 "HtCap_Sys_L_Hall_N" = -2588.198   $ Sizing
 "HtCap_Sys_L_Hall_S" = -3369.114   $ Sizing
 "HtCap_Sys_L_Hall_W" = -3005.04   $ Sizing
 "HtCap_Sys_L_LobWait_E" = -7185.734   $ Sizing
 "HtCap_Sys_L_LobWait_N" = -5430.893   $ Sizing
 "HtCap_Sys_L_LobWait_S" = -7930.22   $ Sizing
 "HtCap_Sys_L_LobWait_W" = -7030.647   $ Sizing
 "HtCap_Sys_L_MechElec_C" = -2547.351   $ Sizing
 "HtCap_Sys_L_OfficeOpn_C" = -1817.06   $ Sizing
 "HtCap_Sys_L_OfficeOpn_E" = -15040.07   $ Sizing
 "HtCap_Sys_L_OfficeOpn_N" = -6971.785   $ Sizing
 "HtCap_Sys_L_OfficeOpn_S" = -15196.13   $ Sizing
 "HtCap_Sys_L_OfficeOpn_W" = -14016.01   $ Sizing
 "HtCap_Sys_L_OfficeSm_E" = -12478.24   $ Sizing
 "HtCap_Sys_L_OfficeSm_N" = -5789.82   $ Sizing
 "HtCap_Sys_L_OfficeSm_S" = -13294.34   $ Sizing
 "HtCap_Sys_L_OfficeSm_W" = -12157.92   $ Sizing
 "HtCap_Sys_L_Restrm_C" = -2577.473   $ Sizing
 "HtCap_Sys_L_StorSm_C" = -1450.501   $ Sizing
 "HtCap_Sys_L_StorSm_E" = -2829.123   $ Sizing
 "HtCap_Sys_L_StorSm_N" = -3040.926   $ Sizing
 "HtCap_Sys_L_StorSm_S" = -3050.157   $ Sizing
 "HtCap_Sys_L_StorSm_W" = -2746.741   $ Sizing
 "HtCap_Sys_T_Conf_C" = -8072.481   $ Sizing
 "HtCap_Sys_T_Hall_E" = -3501.304   $ Sizing
 "HtCap_Sys_T_Hall_N" = -2443.872   $ Sizing
 "HtCap_Sys_T_Hall_S" = -3959.233   $ Sizing
 "HtCap_Sys_T_Hall_W" = -3387.616   $ Sizing
 "HtCap_Sys_T_OfficeOpn_C" = -1780.697   $ Sizing
 "HtCap_Sys_T_OfficeOpn_E" = -15289.67   $ Sizing
 "HtCap_Sys_T_OfficeOpn_N" = -7748.104   $ Sizing
 "HtCap_Sys_T_OfficeOpn_S" = -16319.87   $ Sizing
 "HtCap_Sys_T_OfficeOpn_W" = -14150.36   $ Sizing
 "HtCap_Sys_T_OfficeSm_E" = -12957.28   $ Sizing
 "HtCap_Sys_T_OfficeSm_N" = -6014.932   $ Sizing
 "HtCap_Sys_T_OfficeSm_S" = -14395.07   $ Sizing
 "HtCap_Sys_T_OfficeSm_W" = -12332.51   $ Sizing
 "HtCap_Sys_T_Restrm_C" = -2577.473   $ Sizing
 "HtCap_Sys_T_StorSm_E" = -3399.37   $ Sizing
 "HtCap_Sys_T_StorSm_N" = -2993.598   $ Sizing
 "HtCap_Sys_T_StorSm_S" = -3729.362   $ Sizing
 "HtCap_Sys_T_StorSm_W" = -3316.002   $ Sizing
 "LpFlo_WLHPCircLoop" = 88.43724   $ Sizing
 "SUtime_Boiler1" = 0.083   $ Sizing
..

##include Templates\OfS_WLHP.inp
END ..
COMPUTE ..
STOP ..
