INPUT ..

##fileprefix C:\Users\jglasskatz\MASControl3\
##set1 IsSizing FALSE
##set1 CoolType DX
##set1 HeatType FURNACE
##set1 EU_HrRepVar 0
##set1 BldgVint 2007
##set1 BldgLoc CZ02

 ##set1 mBFMult 1   $ IP Tech: RefgChg-NRes-Std

PARAMETER
 "AltFactor" = 1.00464   $ IP Non-Tech
 "BF_fFlow" = SpltAC1Sp-ge45_BF_fFlow   $ Msr (Multi)TechID: StdNResSplitAC-45to55
 "BF_fT" = SpltAC1Sp-ge45_BF_fT   $ Msr (Multi)TechID: StdNResSplitAC-45to55
 "BldgEconoFlag" = 1   $ IP Non-Tech
 "Break_EWSF" = 1   $ IP Non-Tech
 "Break_LWSF" = 1.1   $ IP Non-Tech
 "CDD_DBHi10" = 83   $ IP Non-Tech
 "CDD_DBHi7" = 96   $ IP Non-Tech
 "CDD_DBHi8" = 92   $ IP Non-Tech
 "CDD_DBHi9" = 96   $ IP Non-Tech
 "CDD_DBRange10" = 35   $ IP Non-Tech
 "CDD_DBRange7" = 44   $ IP Non-Tech
 "CDD_DBRange8" = 38   $ IP Non-Tech
 "CDD_DBRange9" = 43   $ IP Non-Tech
 "CDD_Day10" = 15   $ IP Non-Tech
 "CDD_Day7" = 16   $ IP Non-Tech
 "CDD_Day8" = 20   $ IP Non-Tech
 "CDD_Day9" = 17   $ IP Non-Tech
 "CDD_HrHi10" = 15   $ IP Non-Tech
 "CDD_HrHi7" = 15   $ IP Non-Tech
 "CDD_HrHi8" = 16   $ IP Non-Tech
 "CDD_HrHi9" = 14   $ IP Non-Tech
 "CDD_HrLo10" = 7   $ IP Non-Tech
 "CDD_HrLo7" = 7   $ IP Non-Tech
 "CDD_HrLo8" = 6   $ IP Non-Tech
 "CDD_HrLo9" = 6   $ IP Non-Tech
 "CDD_WB10" = 61.02124405   $ IP Non-Tech
 "CDD_WB7" = 68.3706665   $ IP Non-Tech
 "CDD_WB8" = 69.14488983   $ IP Non-Tech
 "CDD_WB9" = 65.15551758   $ IP Non-Tech
 "CEIR_fPLR_Hot" = SpltAC1Sp-ge45_CEIR_fPLR_Hot   $ Msr (Multi)TechID: StdNResSplitAC-45to55
 "CEIR_fPLR_Mod" = SpltAC1Sp-ge45_CEIR_fPLR_Mod   $ Msr (Multi)TechID: StdNResSplitAC-45to55
 "CEIR_fPLR_Tem" = SpltAC1Sp-ge45_CEIR_fPLR_Tem   $ Msr (Multi)TechID: StdNResSplitAC-45to55
 "CLoss_fPLR_Hot" = SpltAC1Sp-ge45_CLoss_fPLR_Hot   $ Msr (Multi)TechID: StdNResSplitAC-45to55
 "CLoss_fPLR_Mod" = SpltAC1Sp-ge45_CLoss_fPLR_Mod   $ Msr (Multi)TechID: StdNResSplitAC-45to55
 "CLoss_fPLR_Tem" = SpltAC1Sp-ge45_CLoss_fPLR_Tem   $ Msr (Multi)TechID: StdNResSplitAC-45to55
 "COP47" = 0   $ Msr (Multi)TechID: StdNResSplitAC-45to55
 "CZ_Category" = Mod   $ IP Non-Tech
 "CapRange" = ge45   $ Msr (Multi)TechID: StdNResSplitAC-45to55
 "CfmPerBtuh" = 0.03263   $ Msr (Multi)TechID: StdNResSplitAC-45to55
 "ChwVintEconoFlag" = 1   $ IP Non-Tech
 "ClCap_fT" = SpltAC1Sp-ge45_ClCap_fT   $ Msr (Multi)TechID: StdNResSplitAC-45to55
 "ClSH_fT" = SpltAC1Sp-ge45_ClSH_fT   $ Msr (Multi)TechID: StdNResSplitAC-45to55
 "CoilBF" = 0.106518182   $ Msr (Multi)TechID: StdNResSplitAC-45to55
 "CompRoomData_EWSF" = 5   $ IP Non-Tech
 "CompRoomData_LWSF" = 1.2   $ IP Non-Tech
 "CondWPerBtuh" = 0   $ Msr (Multi)TechID: StdNResSplitAC-45to55
 "Conference_EWSF" = 1   $ IP Non-Tech
 "Conference_LWSF" = 1.4   $ IP Non-Tech
 "CoolSensCap" = 0.759218182   $ Msr (Multi)TechID: StdNResSplitAC-45to55
 "CoolSetT" = 45   $ IP Non-Tech
 "CoolType" = DX   $ IP Non-Tech
 "CoolingEIR" = 0.2466   $ Msr (Multi)TechID: StdNResSplitAC-45to55
 "CopyRoom_EWSF" = 1.5   $ IP Non-Tech
 "CopyRoom_LWSF" = 1.3   $ IP Non-Tech
 "CrnkEIR" = 0.002466   $ Msr (Multi)TechID: StdNResSplitAC-45to55
 "CrnkMaxT" = 50   $ Msr (Multi)TechID: StdNResSplitAC-45to55
 "DXType" = SplitSEER   $ Msr (Multi)TechID: StdNResSplitAC-45to55
 "DesCoolT" = 75   $ IP Non-Tech
 "DesHeatT" = 73   $ IP Non-Tech
 "EER" = 11.81793103   $ Msr (Multi)TechID: StdNResSplitAC-45to55
 "EIR_fT" = SpltAC1Sp-ge45_EIR_fT   $ Msr (Multi)TechID: StdNResSplitAC-45to55
 "EconoCtrl" = FIXED   $ Msr (Multi)TechID: StdNResSplitAC-45to55
 "EconoEnthLimit" = 28   $ IP Non-Tech
 "EconoTempLimit" = 73   $ IP Non-Tech
 "Elevation" = 125   $ IP Non-Tech
 "FanEirPlr" = TwoSpeedFan   $ Msr (Multi)TechID: StdNResSplitAC-45to55
 "FanWPerCfm" = 0.294   $ Msr (Multi)TechID: StdNResSplitAC-45to55
 "HDD_CloudAmt1" = 0   $ IP Non-Tech
 "HDD_DBHi1" = 51   $ IP Non-Tech
 "HDD_DBRange1" = 22   $ IP Non-Tech
 "HDD_Day1" = 15   $ IP Non-Tech
 "HDD_HrHi1" = 15   $ IP Non-Tech
 "HDD_HrLo1" = 8   $ IP Non-Tech
 "HDD_WB1" = 45.9   $ IP Non-Tech
 "HDD_WindSpd1" = 10.4   $ IP Non-Tech
 "HIR_fT" = 0   $ Msr (Multi)TechID: StdNResSplitAC-45to55
 "HSPF" = 0   $ Msr (Multi)TechID: StdNResSplitAC-45to55
 "Hall_EWSF" = 0.2   $ IP Non-Tech
 "Hall_LWSF" = 0.6   $ IP Non-Tech
 "HeatSrc" = FURNACE   $ IP Non-Tech
 "HeatSrcTU" = HEAT-PUMP   $ IP Non-Tech
 "HeatType" = GasFurn   $ IP Non-Tech
 "HeatTypeTU" = HEAT-PUMP   $ IP Non-Tech
 "HtCap_fT" = 0   $ Msr (Multi)TechID: StdNResSplitAC-45to55
 "HtCoolCapRatio" = 0   $ Msr (Multi)TechID: StdNResSplitAC-45to55
 "HtgEIR" = 0   $ Msr (Multi)TechID: StdNResSplitAC-45to55
 "IndoorFanMode" = CONTINUOUS   $ IP Non-Tech
 "KT_TransferAir" = No   $ IP Non-Tech
 "Latitude" = 38.5   $ IP Non-Tech
 "LobbyWaiting_EWSF" = 0.5   $ IP Non-Tech
 "LobbyWaiting_LWSF" = 1.3   $ IP Non-Tech
 "Longitude" = 122.7   $ IP Non-Tech
 "LowSpdCapRatio" = 1   $ Msr (Multi)TechID: StdNResSplitAC-45to55
 "LowSpdCfmRatio" = 1   $ Msr (Multi)TechID: StdNResSplitAC-45to55
 "MZFanMechEff" = 0.58   $ IP Non-Tech
 "MZHasRetFan" = FALSE   $ IP Non-Tech
 "MZ_RFanWPerCfm" = 0.33   $ IP Non-Tech
 "MZ_SFanWPerCfm" = 0.75   $ IP Non-Tech
 "MZ_SupFanStatic" = 2.25   $ IP Non-Tech
 "MaxOAFrac" = 1   $ Msr (Multi)TechID: StdNResSplitAC-45to55
 "MaxSupT_MZ" = 100   $ IP Non-Tech
 "MaxSupT_SZ" = 100   $ IP Non-Tech
 "MaxSupT_TU" = 90   $ IP Non-Tech
 "MechElecRoom_EWSF" = 0.2   $ IP Non-Tech
 "MechElecRoom_LWSF" = 0.7   $ IP Non-Tech
 "MinCfmPerSF" = 0.4   $ IP Non-Tech
 "MinSupT" = 55   $ IP Non-Tech
 "NumStages" = 1   $ Msr (Multi)TechID: StdNResSplitAC-45to55
 "OccCoolT" = 76   $ IP Non-Tech
 "OccHeatT" = 72   $ IP Non-Tech
 "OfficeOpen_EWSF" = 1.5   $ IP Non-Tech
 "OfficeOpen_LWSF" = 1.2   $ IP Non-Tech
 "OfficeSmall_EWSF" = 1.5   $ IP Non-Tech
 "OfficeSmall_LWSF" = 1.3   $ IP Non-Tech
 "PkgDxVintEconoFlag" = 0   $ IP Non-Tech
 "Restroom_EWSF" = 0.2   $ IP Non-Tech
 "Restroom_LWSF" = 0.6   $ IP Non-Tech
 "SEER" = 14   $ Msr (Multi)TechID: StdNResSplitAC-45to55
 "SZFanMechEff" = 0.58   $ IP Non-Tech
 "SZHasRetFan" = FALSE   $ IP Non-Tech
 "SZ_Is_2Spd" = FALSE   $ IP Non-Tech
 "SZ_SFanWPerCfm" = 0.46   $ IP Non-Tech
 "SZ_SupFanStatic" = 0.75   $ IP Non-Tech
 "Sector" = Any   $ Msr (Multi)TechID: StdNResSplitAC-45to55
 "StorageSmlCond_EWSF" = 0.2   $ IP Non-Tech
 "StorageSmlCond_LWSF" = 0.6   $ IP Non-Tech
 "SubType" = AC   $ Msr (Multi)TechID: StdNResSplitAC-45to55
 "T24GlzTbl" = CZTbl   $ IP Non-Tech
 "TermUnitFanMechEff" = 1   $ IP Non-Tech
 "TermUnitFanMode" = INTERMITTENT   $ IP Non-Tech
 "TotCoolCap" = 52519.36364   $ Msr (Multi)TechID: StdNResSplitAC-45to55
 "TwrSetpt" = 84   $ IP Non-Tech
 "UnocCoolT" = 86   $ IP Non-Tech
 "UnocHeatT" = 62   $ IP Non-Tech
 "UseEconoVintApplic" = FALSE   $ Msr (Multi)TechID: StdNResSplitAC-45to55
 "WlhpVintEconoFlag" = 0   $ IP Non-Tech
 "DuctDT" = 1   $ IP Tech: ComDuctInsul-1
 "DuctAirLoss" = 0   $ IP Tech: ComDuctLeak-0
 "DuctLossOAFrac" = 0   $ IP Tech: ComDuctLeak-0
 "ComRoofInsCalc" = FromUo   $ IP Tech: ComRoofIns-WFrm-0.05
 "ComRoofInsR" = -999   $ IP Tech: ComRoofIns-WFrm-0.05
 "ComRoofUo" = 0.05   $ IP Tech: ComRoofIns-WFrm-0.05
 "ComEWInsCalc" = FromUo   $ IP Tech: ComWallIns-WFrm-0.08
 "ComEWInsR" = -999   $ IP Tech: ComWallIns-WFrm-0.08
 "ComEWUo" = 0.08   $ IP Tech: ComWallIns-WFrm-0.08
 "ComN_SHGC" = 0.47   $ IP Tech: NResWin-ComN-0.47-0.47
 "ComN_UFactor" = 0.47   $ IP Tech: NResWin-ComN-0.47-0.47
 "ComN_VisTrans" = 0.75   $ IP Tech: NResWin-ComN-0.47-0.47
 "ComN_WinCode" = G2633   $ IP Tech: NResWin-ComN-0.47-0.47
 "ComN_WinFrmFrac" = 0.17   $ IP Tech: NResWin-ComN-0.47-0.47
 "ComN_WinFrmU" = 0.3   $ IP Tech: NResWin-ComN-0.47-0.47
 "ComO_SHGC" = 0.31   $ IP Tech: NResWin-ComO-0.47-0.31
 "ComO_UFactor" = 0.47   $ IP Tech: NResWin-ComO-0.47-0.31
 "ComO_VisTrans" = 0.44   $ IP Tech: NResWin-ComO-0.47-0.31
 "ComO_WinCode" = G2637   $ IP Tech: NResWin-ComO-0.47-0.31
 "ComO_WinFrmFrac" = 0.17   $ IP Tech: NResWin-ComO-0.47-0.31
 "ComO_WinFrmU" = 0.3   $ IP Tech: NResWin-ComO-0.47-0.31
 "LtgMsrApplic" = ALL   $ IP Tech: NonResLtgRefPre
 "LtgSav_CFL" = 0   $ IP Tech: NonResLtgRefPre
 "LtgSav_EX" = 0   $ IP Tech: NonResLtgRefPre
 "LtgSav_HB" = 0   $ IP Tech: NonResLtgRefPre
 "LtgSav_LF" = 0   $ IP Tech: NonResLtgRefPre
 "LtgSav_SP" = 0   $ IP Tech: NonResLtgRefPre
 "CEIR_fPLR" = PSZ65to135_CEIR_fPLR   $ IP Tech: PkgAC1SpH-65to135-E10
 "CLoss_fPLR" = PSZ65to135_CLoss_fPLR   $ IP Tech: PkgAC1SpH-65to135-E10
 "COP" = -1   $ IP Tech: PkgAC1SpH-65to135-E10
 "HtgFuel" = Gas   $ IP Tech: PkgAC1SpH-65to135-E10
 "IEER" = 11.87   $ IP Tech: PkgAC1SpH-65to135-E10
 "NominalCap" = 15   $ IP Tech: PkgAC1SpH-65to135-E10
 "RatedEER" = 10   $ IP Tech: PkgAC1SpH-65to135-E10
 "RatedSupMtrClass" = HiEff   $ IP Tech: PkgAC1SpH-65to135-E10
 "SizeRange" = 65to135   $ IP Tech: PkgAC1SpH-65to135-E10
 "SupMotEff" = 0.84   $ IP Tech: PkgAC1SpH-65to135-E10
 "Tier" = 0   $ IP Tech: PkgAC1SpH-65to135-E10
 "FanPwrMult" = 1   $ IP Tech: PkgFurn-0.80AFUE
 "FurnAFUE" = 0.8   $ IP Tech: PkgFurn-0.80AFUE
 "FurnEt" = 0.82   $ IP Tech: PkgFurn-0.80AFUE
 "FurnaceAuxKW" = 0.1   $ IP Tech: PkgFurn-0.80AFUE
 "HIR_fPLR" = Furnace-HIR-fPLR   $ IP Tech: PkgFurn-0.80AFUE
 "VSM" = FALSE   $ IP Tech: PkgFurn-0.80AFUE
 "BFMult" = 1   $ IP Tech: RefgChg-NRes-Std
 "CoolEirMult" = 1   $ IP Tech: RefgChg-NRes-Std
 "SensCoolCapMult" = 1   $ IP Tech: RefgChg-NRes-Std
 "TotCoolCapMult" = 1   $ IP Tech: RefgChg-NRes-Std
 "AltAdjFactor" = 1.004644   $ Sizing
 "CAssFlo_L_Break_CZn" = 383.8865   $ Sizing
 "CAssFlo_L_CompDC_CZn" = 137.8611   $ Sizing
 "CAssFlo_L_Conf_CZn" = 222.3426   $ Sizing
 "CAssFlo_L_CopyRm_CZn" = 80.87262   $ Sizing
 "CAssFlo_L_Hall_EZn" = 89.9614   $ Sizing
 "CAssFlo_L_Hall_NZn" = 51.50627   $ Sizing
 "CAssFlo_L_Hall_SZn" = 104.1674   $ Sizing
 "CAssFlo_L_Hall_WZn" = 108.7322   $ Sizing
 "CAssFlo_L_LobWait_EZn" = 217.0015   $ Sizing
 "CAssFlo_L_LobWait_NZn" = 143.3161   $ Sizing
 "CAssFlo_L_LobWait_SZn" = 253.971   $ Sizing
 "CAssFlo_L_LobWait_WZn" = 268.5144   $ Sizing
 "CAssFlo_L_MechElec_CZn" = 46.06016   $ Sizing
 "CAssFlo_L_OfficeOpn_CZn" = 51.80903   $ Sizing
 "CAssFlo_L_OfficeOpn_EZn" = 417.1974   $ Sizing
 "CAssFlo_L_OfficeOpn_NZn" = 317.0489   $ Sizing
 "CAssFlo_L_OfficeOpn_SZn" = 452.5342   $ Sizing
 "CAssFlo_L_OfficeOpn_WZn" = 482.2847   $ Sizing
 "CAssFlo_L_OfficeSm_EZn" = 347.6878   $ Sizing
 "CAssFlo_L_OfficeSm_NZn" = 247.2057   $ Sizing
 "CAssFlo_L_OfficeSm_SZn" = 387.7478   $ Sizing
 "CAssFlo_L_OfficeSm_WZn" = 408.5268   $ Sizing
 "CAssFlo_L_Restrm_CZn" = 55.22058   $ Sizing
 "CAssFlo_L_StorSm_CZn" = 24.74397   $ Sizing
 "CAssFlo_L_StorSm_EZn" = 85.97013   $ Sizing
 "CAssFlo_L_StorSm_NZn" = 47.07552   $ Sizing
 "CAssFlo_L_StorSm_SZn" = 101.9028   $ Sizing
 "CAssFlo_L_StorSm_WZn" = 103.7829   $ Sizing
 "CAssFlo_T_Conf_CZn" = 216.7619   $ Sizing
 "CAssFlo_T_Hall_EZn" = 105.535   $ Sizing
 "CAssFlo_T_Hall_NZn" = 64.41283   $ Sizing
 "CAssFlo_T_Hall_SZn" = 119.6651   $ Sizing
 "CAssFlo_T_Hall_WZn" = 124.0737   $ Sizing
 "CAssFlo_T_OfficeOpn_CZn" = 50.62554   $ Sizing
 "CAssFlo_T_OfficeOpn_EZn" = 438.4707   $ Sizing
 "CAssFlo_T_OfficeOpn_NZn" = 342.9337   $ Sizing
 "CAssFlo_T_OfficeOpn_SZn" = 492.1917   $ Sizing
 "CAssFlo_T_OfficeOpn_WZn" = 505.2928   $ Sizing
 "CAssFlo_T_OfficeSm_EZn" = 372.8487   $ Sizing
 "CAssFlo_T_OfficeSm_NZn" = 271.6718   $ Sizing
 "CAssFlo_T_OfficeSm_SZn" = 424.0641   $ Sizing
 "CAssFlo_T_OfficeSm_WZn" = 430.9204   $ Sizing
 "CAssFlo_T_Restrm_CZn" = 97.29209   $ Sizing
 "CAssFlo_T_StorSm_EZn" = 106.2028   $ Sizing
 "CAssFlo_T_StorSm_NZn" = 63.77937   $ Sizing
 "CAssFlo_T_StorSm_SZn" = 123.5101   $ Sizing
 "CAssFlo_T_StorSm_WZn" = 127.9291   $ Sizing
 "CHRtFlo_Sys_L_Break_C" = 383.8865   $ Sizing
 "CHRtFlo_Sys_L_CompDC_C" = 170.9892   $ Sizing
 "CHRtFlo_Sys_L_Conf_C" = 226.3541   $ Sizing
 "CHRtFlo_Sys_L_CopyRm_C" = 80.87261   $ Sizing
 "CHRtFlo_Sys_L_Hall_E" = 120.4992   $ Sizing
 "CHRtFlo_Sys_L_Hall_N" = 55.18385   $ Sizing
 "CHRtFlo_Sys_L_Hall_S" = 131.2938   $ Sizing
 "CHRtFlo_Sys_L_Hall_W" = 125.4174   $ Sizing
 "CHRtFlo_Sys_L_LobWait_E" = 282.6097   $ Sizing
 "CHRtFlo_Sys_L_LobWait_N" = 143.3161   $ Sizing
 "CHRtFlo_Sys_L_LobWait_S" = 305.9618   $ Sizing
 "CHRtFlo_Sys_L_LobWait_W" = 293.3615   $ Sizing
 "CHRtFlo_Sys_L_MechElec_C" = 65.74781   $ Sizing
 "CHRtFlo_Sys_L_OfficeOpn_C" = 73.57812   $ Sizing
 "CHRtFlo_Sys_L_OfficeOpn_E" = 546.6157   $ Sizing
 "CHRtFlo_Sys_L_OfficeOpn_N" = 324.4261   $ Sizing
 "CHRtFlo_Sys_L_OfficeOpn_S" = 548.1991   $ Sizing
 "CHRtFlo_Sys_L_OfficeOpn_W" = 534.1686   $ Sizing
 "CHRtFlo_Sys_L_OfficeSm_E" = 459.3489   $ Sizing
 "CHRtFlo_Sys_L_OfficeSm_N" = 257.0101   $ Sizing
 "CHRtFlo_Sys_L_OfficeSm_S" = 478.937   $ Sizing
 "CHRtFlo_Sys_L_OfficeSm_W" = 463.8415   $ Sizing
 "CHRtFlo_Sys_L_Restrm_C" = 85.82434   $ Sizing
 "CHRtFlo_Sys_L_StorSm_C" = 37.38184   $ Sizing
 "CHRtFlo_Sys_L_StorSm_E" = 117.5212   $ Sizing
 "CHRtFlo_Sys_L_StorSm_N" = 64.98101   $ Sizing
 "CHRtFlo_Sys_L_StorSm_S" = 123.044   $ Sizing
 "CHRtFlo_Sys_L_StorSm_W" = 115.089   $ Sizing
 "CHRtFlo_Sys_T_Conf_C" = 221.9099   $ Sizing
 "CHRtFlo_Sys_T_Hall_E" = 130.4971   $ Sizing
 "CHRtFlo_Sys_T_Hall_N" = 64.41283   $ Sizing
 "CHRtFlo_Sys_T_Hall_S" = 144.7982   $ Sizing
 "CHRtFlo_Sys_T_Hall_W" = 133.2879   $ Sizing
 "CHRtFlo_Sys_T_OfficeOpn_C" = 68.61707   $ Sizing
 "CHRtFlo_Sys_T_OfficeOpn_E" = 536.8977   $ Sizing
 "CHRtFlo_Sys_T_OfficeOpn_N" = 342.9337   $ Sizing
 "CHRtFlo_Sys_T_OfficeOpn_S" = 570.1527   $ Sizing
 "CHRtFlo_Sys_T_OfficeOpn_W" = 520.416   $ Sizing
 "CHRtFlo_Sys_T_OfficeSm_E" = 459.2948   $ Sizing
 "CHRtFlo_Sys_T_OfficeSm_N" = 271.6718   $ Sizing
 "CHRtFlo_Sys_T_OfficeSm_S" = 503.3045   $ Sizing
 "CHRtFlo_Sys_T_OfficeSm_W" = 459.471   $ Sizing
 "CHRtFlo_Sys_T_Restrm_C" = 120.2882   $ Sizing
 "CHRtFlo_Sys_T_StorSm_E" = 128.5626   $ Sizing
 "CHRtFlo_Sys_T_StorSm_N" = 65.85767   $ Sizing
 "CHRtFlo_Sys_T_StorSm_S" = 139.5416   $ Sizing
 "CHRtFlo_Sys_T_StorSm_W" = 130.2299   $ Sizing
 "CRtdFlo_Sys_L_Break_C" = 383.8865   $ Sizing
 "CRtdFlo_Sys_L_CompDC_C" = 137.8611   $ Sizing
 "CRtdFlo_Sys_L_Conf_C" = 222.3426   $ Sizing
 "CRtdFlo_Sys_L_CopyRm_C" = 80.87261   $ Sizing
 "CRtdFlo_Sys_L_Hall_E" = 89.9614   $ Sizing
 "CRtdFlo_Sys_L_Hall_N" = 51.50627   $ Sizing
 "CRtdFlo_Sys_L_Hall_S" = 104.1674   $ Sizing
 "CRtdFlo_Sys_L_Hall_W" = 108.7322   $ Sizing
 "CRtdFlo_Sys_L_LobWait_E" = 217.0015   $ Sizing
 "CRtdFlo_Sys_L_LobWait_N" = 143.3161   $ Sizing
 "CRtdFlo_Sys_L_LobWait_S" = 253.9711   $ Sizing
 "CRtdFlo_Sys_L_LobWait_W" = 268.5144   $ Sizing
 "CRtdFlo_Sys_L_MechElec_C" = 46.06016   $ Sizing
 "CRtdFlo_Sys_L_OfficeOpn_C" = 51.80903   $ Sizing
 "CRtdFlo_Sys_L_OfficeOpn_E" = 417.1974   $ Sizing
 "CRtdFlo_Sys_L_OfficeOpn_N" = 317.0489   $ Sizing
 "CRtdFlo_Sys_L_OfficeOpn_S" = 452.5342   $ Sizing
 "CRtdFlo_Sys_L_OfficeOpn_W" = 482.2847   $ Sizing
 "CRtdFlo_Sys_L_OfficeSm_E" = 347.6878   $ Sizing
 "CRtdFlo_Sys_L_OfficeSm_N" = 247.2057   $ Sizing
 "CRtdFlo_Sys_L_OfficeSm_S" = 387.7478   $ Sizing
 "CRtdFlo_Sys_L_OfficeSm_W" = 408.5268   $ Sizing
 "CRtdFlo_Sys_L_Restrm_C" = 55.22058   $ Sizing
 "CRtdFlo_Sys_L_StorSm_C" = 24.74397   $ Sizing
 "CRtdFlo_Sys_L_StorSm_E" = 85.97013   $ Sizing
 "CRtdFlo_Sys_L_StorSm_N" = 47.07552   $ Sizing
 "CRtdFlo_Sys_L_StorSm_S" = 101.9028   $ Sizing
 "CRtdFlo_Sys_L_StorSm_W" = 103.7829   $ Sizing
 "CRtdFlo_Sys_T_Conf_C" = 216.7619   $ Sizing
 "CRtdFlo_Sys_T_Hall_E" = 105.535   $ Sizing
 "CRtdFlo_Sys_T_Hall_N" = 64.41283   $ Sizing
 "CRtdFlo_Sys_T_Hall_S" = 119.6651   $ Sizing
 "CRtdFlo_Sys_T_Hall_W" = 124.0737   $ Sizing
 "CRtdFlo_Sys_T_OfficeOpn_C" = 50.62554   $ Sizing
 "CRtdFlo_Sys_T_OfficeOpn_E" = 438.4707   $ Sizing
 "CRtdFlo_Sys_T_OfficeOpn_N" = 342.9337   $ Sizing
 "CRtdFlo_Sys_T_OfficeOpn_S" = 492.1917   $ Sizing
 "CRtdFlo_Sys_T_OfficeOpn_W" = 505.2928   $ Sizing
 "CRtdFlo_Sys_T_OfficeSm_E" = 372.8487   $ Sizing
 "CRtdFlo_Sys_T_OfficeSm_N" = 271.6718   $ Sizing
 "CRtdFlo_Sys_T_OfficeSm_S" = 424.0641   $ Sizing
 "CRtdFlo_Sys_T_OfficeSm_W" = 430.9204   $ Sizing
 "CRtdFlo_Sys_T_Restrm_C" = 97.29209   $ Sizing
 "CRtdFlo_Sys_T_StorSm_E" = 106.2028   $ Sizing
 "CRtdFlo_Sys_T_StorSm_N" = 63.77937   $ Sizing
 "CRtdFlo_Sys_T_StorSm_S" = 123.5101   $ Sizing
 "CRtdFlo_Sys_T_StorSm_W" = 127.9291   $ Sizing
 "CSupFlo_Sys_L_Break_C" = 383.8865   $ Sizing
 "CSupFlo_Sys_L_CompDC_C" = 137.8611   $ Sizing
 "CSupFlo_Sys_L_Conf_C" = 222.3426   $ Sizing
 "CSupFlo_Sys_L_CopyRm_C" = 80.87261   $ Sizing
 "CSupFlo_Sys_L_Hall_E" = 89.9614   $ Sizing
 "CSupFlo_Sys_L_Hall_N" = 51.50627   $ Sizing
 "CSupFlo_Sys_L_Hall_S" = 104.1674   $ Sizing
 "CSupFlo_Sys_L_Hall_W" = 108.7322   $ Sizing
 "CSupFlo_Sys_L_LobWait_E" = 217.0015   $ Sizing
 "CSupFlo_Sys_L_LobWait_N" = 143.3161   $ Sizing
 "CSupFlo_Sys_L_LobWait_S" = 253.9711   $ Sizing
 "CSupFlo_Sys_L_LobWait_W" = 268.5144   $ Sizing
 "CSupFlo_Sys_L_MechElec_C" = 46.06016   $ Sizing
 "CSupFlo_Sys_L_OfficeOpn_C" = 51.80903   $ Sizing
 "CSupFlo_Sys_L_OfficeOpn_E" = 417.1974   $ Sizing
 "CSupFlo_Sys_L_OfficeOpn_N" = 317.0489   $ Sizing
 "CSupFlo_Sys_L_OfficeOpn_S" = 452.5342   $ Sizing
 "CSupFlo_Sys_L_OfficeOpn_W" = 482.2847   $ Sizing
 "CSupFlo_Sys_L_OfficeSm_E" = 347.6878   $ Sizing
 "CSupFlo_Sys_L_OfficeSm_N" = 247.2057   $ Sizing
 "CSupFlo_Sys_L_OfficeSm_S" = 387.7478   $ Sizing
 "CSupFlo_Sys_L_OfficeSm_W" = 408.5268   $ Sizing
 "CSupFlo_Sys_L_Restrm_C" = 55.22058   $ Sizing
 "CSupFlo_Sys_L_StorSm_C" = 24.74397   $ Sizing
 "CSupFlo_Sys_L_StorSm_E" = 85.97013   $ Sizing
 "CSupFlo_Sys_L_StorSm_N" = 47.07552   $ Sizing
 "CSupFlo_Sys_L_StorSm_S" = 101.9028   $ Sizing
 "CSupFlo_Sys_L_StorSm_W" = 103.7829   $ Sizing
 "CSupFlo_Sys_T_Conf_C" = 216.7619   $ Sizing
 "CSupFlo_Sys_T_Hall_E" = 105.535   $ Sizing
 "CSupFlo_Sys_T_Hall_N" = 64.41283   $ Sizing
 "CSupFlo_Sys_T_Hall_S" = 119.6651   $ Sizing
 "CSupFlo_Sys_T_Hall_W" = 124.0737   $ Sizing
 "CSupFlo_Sys_T_OfficeOpn_C" = 50.62554   $ Sizing
 "CSupFlo_Sys_T_OfficeOpn_E" = 438.4707   $ Sizing
 "CSupFlo_Sys_T_OfficeOpn_N" = 342.9337   $ Sizing
 "CSupFlo_Sys_T_OfficeOpn_S" = 492.1917   $ Sizing
 "CSupFlo_Sys_T_OfficeOpn_W" = 505.2928   $ Sizing
 "CSupFlo_Sys_T_OfficeSm_E" = 372.8487   $ Sizing
 "CSupFlo_Sys_T_OfficeSm_N" = 271.6718   $ Sizing
 "CSupFlo_Sys_T_OfficeSm_S" = 424.0641   $ Sizing
 "CSupFlo_Sys_T_OfficeSm_W" = 430.9204   $ Sizing
 "CSupFlo_Sys_T_Restrm_C" = 97.29209   $ Sizing
 "CSupFlo_Sys_T_StorSm_E" = 106.2028   $ Sizing
 "CSupFlo_Sys_T_StorSm_N" = 63.77937   $ Sizing
 "CSupFlo_Sys_T_StorSm_S" = 123.5101   $ Sizing
 "CSupFlo_Sys_T_StorSm_W" = 127.9291   $ Sizing
 "ClCap_Sys_L_Break_C" = 13100.98   $ Sizing
 "ClCap_Sys_L_CompDC_C" = 4704.816   $ Sizing
 "ClCap_Sys_L_Conf_C" = 9657.371   $ Sizing
 "ClCap_Sys_L_CopyRm_C" = 2759.958   $ Sizing
 "ClCap_Sys_L_Hall_E" = 3070.133   $ Sizing
 "ClCap_Sys_L_Hall_N" = 1757.766   $ Sizing
 "ClCap_Sys_L_Hall_S" = 3554.943   $ Sizing
 "ClCap_Sys_L_Hall_W" = 3710.729   $ Sizing
 "ClCap_Sys_L_LobWait_E" = 7405.659   $ Sizing
 "ClCap_Sys_L_LobWait_N" = 4890.979   $ Sizing
 "ClCap_Sys_L_LobWait_S" = 8667.326   $ Sizing
 "ClCap_Sys_L_LobWait_W" = 9163.65   $ Sizing
 "ClCap_Sys_L_MechElec_C" = 1571.905   $ Sizing
 "ClCap_Sys_L_OfficeOpn_C" = 1768.098   $ Sizing
 "ClCap_Sys_L_OfficeOpn_E" = 14237.79   $ Sizing
 "ClCap_Sys_L_OfficeOpn_N" = 10820   $ Sizing
 "ClCap_Sys_L_OfficeOpn_S" = 15443.74   $ Sizing
 "ClCap_Sys_L_OfficeOpn_W" = 16459.04   $ Sizing
 "ClCap_Sys_L_OfficeSm_E" = 11865.62   $ Sizing
 "ClCap_Sys_L_OfficeSm_N" = 8436.443   $ Sizing
 "ClCap_Sys_L_OfficeSm_S" = 13232.75   $ Sizing
 "ClCap_Sys_L_OfficeSm_W" = 13941.88   $ Sizing
 "ClCap_Sys_L_Restrm_C" = 1884.525   $ Sizing
 "ClCap_Sys_L_StorSm_C" = 844.4429   $ Sizing
 "ClCap_Sys_L_StorSm_E" = 2933.922   $ Sizing
 "ClCap_Sys_L_StorSm_N" = 1606.557   $ Sizing
 "ClCap_Sys_L_StorSm_S" = 3477.66   $ Sizing
 "ClCap_Sys_L_StorSm_W" = 3541.823   $ Sizing
 "ClCap_Sys_T_Conf_C" = 9414.978   $ Sizing
 "ClCap_Sys_T_Hall_E" = 3601.616   $ Sizing
 "ClCap_Sys_T_Hall_N" = 2198.231   $ Sizing
 "ClCap_Sys_T_Hall_S" = 4083.836   $ Sizing
 "ClCap_Sys_T_Hall_W" = 4234.289   $ Sizing
 "ClCap_Sys_T_OfficeOpn_C" = 1727.709   $ Sizing
 "ClCap_Sys_T_OfficeOpn_E" = 14963.79   $ Sizing
 "ClCap_Sys_T_OfficeOpn_N" = 11703.38   $ Sizing
 "ClCap_Sys_T_OfficeOpn_S" = 16797.13   $ Sizing
 "ClCap_Sys_T_OfficeOpn_W" = 17244.24   $ Sizing
 "ClCap_Sys_T_OfficeSm_E" = 12724.29   $ Sizing
 "ClCap_Sys_T_OfficeSm_N" = 9271.402   $ Sizing
 "ClCap_Sys_T_OfficeSm_S" = 14472.13   $ Sizing
 "ClCap_Sys_T_OfficeSm_W" = 14706.12   $ Sizing
 "ClCap_Sys_T_Restrm_C" = 3320.309   $ Sizing
 "ClCap_Sys_T_StorSm_E" = 3624.406   $ Sizing
 "ClCap_Sys_T_StorSm_N" = 2176.613   $ Sizing
 "ClCap_Sys_T_StorSm_S" = 4215.056   $ Sizing
 "ClCap_Sys_T_StorSm_W" = 4365.864   $ Sizing
 "HtCap_Sys_L_Break_C" = -22753.72   $ Sizing
 "HtCap_Sys_L_CompDC_C" = -6202.068   $ Sizing
 "HtCap_Sys_L_Conf_C" = -13904.25   $ Sizing
 "HtCap_Sys_L_CopyRm_C" = -5048.839   $ Sizing
 "HtCap_Sys_L_Hall_E" = -4416.451   $ Sizing
 "HtCap_Sys_L_Hall_N" = -2252.859   $ Sizing
 "HtCap_Sys_L_Hall_S" = -4588.994   $ Sizing
 "HtCap_Sys_L_Hall_W" = -4472.399   $ Sizing
 "HtCap_Sys_L_LobWait_E" = -10964.72   $ Sizing
 "HtCap_Sys_L_LobWait_N" = -6913.777   $ Sizing
 "HtCap_Sys_L_LobWait_S" = -11642.99   $ Sizing
 "HtCap_Sys_L_LobWait_W" = -11343.62   $ Sizing
 "HtCap_Sys_L_MechElec_C" = -3119.805   $ Sizing
 "HtCap_Sys_L_OfficeOpn_C" = -2920.63   $ Sizing
 "HtCap_Sys_L_OfficeOpn_E" = -19764.83   $ Sizing
 "HtCap_Sys_L_OfficeOpn_N" = -13469.39   $ Sizing
 "HtCap_Sys_L_OfficeOpn_S" = -19431.87   $ Sizing
 "HtCap_Sys_L_OfficeOpn_W" = -19624.31   $ Sizing
 "HtCap_Sys_L_OfficeSm_E" = -16504.7   $ Sizing
 "HtCap_Sys_L_OfficeSm_N" = -10319.1   $ Sizing
 "HtCap_Sys_L_OfficeSm_S" = -16339.87   $ Sizing
 "HtCap_Sys_L_OfficeSm_W" = -16403.27   $ Sizing
 "HtCap_Sys_L_Restrm_C" = -3113.582   $ Sizing
 "HtCap_Sys_L_StorSm_C" = -1560.121   $ Sizing
 "HtCap_Sys_L_StorSm_E" = -4466.303   $ Sizing
 "HtCap_Sys_L_StorSm_N" = -2882.76   $ Sizing
 "HtCap_Sys_L_StorSm_S" = -4605.076   $ Sizing
 "HtCap_Sys_L_StorSm_W" = -4438.653   $ Sizing
 "HtCap_Sys_T_Conf_C" = -14045.79   $ Sizing
 "HtCap_Sys_T_Hall_E" = -5209.951   $ Sizing
 "HtCap_Sys_T_Hall_N" = -2933.512   $ Sizing
 "HtCap_Sys_T_Hall_S" = -5711.791   $ Sizing
 "HtCap_Sys_T_Hall_W" = -5308.648   $ Sizing
 "HtCap_Sys_T_OfficeOpn_C" = -3076.269   $ Sizing
 "HtCap_Sys_T_OfficeOpn_E" = -21853.86   $ Sizing
 "HtCap_Sys_T_OfficeOpn_N" = -15399.11   $ Sizing
 "HtCap_Sys_T_OfficeOpn_S" = -22848.35   $ Sizing
 "HtCap_Sys_T_OfficeOpn_W" = -21290.29   $ Sizing
 "HtCap_Sys_T_OfficeSm_E" = -18199.38   $ Sizing
 "HtCap_Sys_T_OfficeSm_N" = -11947.27   $ Sizing
 "HtCap_Sys_T_OfficeSm_S" = -19425.93   $ Sizing
 "HtCap_Sys_T_OfficeSm_W" = -18208.17   $ Sizing
 "HtCap_Sys_T_Restrm_C" = -4788.738   $ Sizing
 "HtCap_Sys_T_StorSm_E" = -5540.594   $ Sizing
 "HtCap_Sys_T_StorSm_N" = -3334.898   $ Sizing
 "HtCap_Sys_T_StorSm_S" = -5818.767   $ Sizing
 "HtCap_Sys_T_StorSm_W" = -5566.535   $ Sizing
..

##include Templates\OfS_DX_SZ.inp
END ..
COMPUTE ..
STOP ..
