INPUT ..

##fileprefix C:\Users\jglasskatz\MASControl3\
##set1 IsSizing FALSE
##set1 CoolType DX
##set1 HeatType FURNACE
##set1 EU_HrRepVar 0
##set1 BldgVint 2003
##set1 BldgLoc CZ05

 ##set1 mBFMult 1   $ IP Tech: RefgChg-NRes-Std

PARAMETER
 "AltFactor" = 1.00939   $ IP Non-Tech
 "BF_fFlow" = SpltAC2SpHiSEER_BF_fFlow   $ Msr (Multi)TechID: MsrNResSplitAC-lt45-S17
 "BF_fT" = SpltAC2SpHiSEER_BF_fT   $ Msr (Multi)TechID: MsrNResSplitAC-lt45-S17
 "BldgEconoFlag" = 1   $ IP Non-Tech
 "Break_EWSF" = 1   $ IP Non-Tech
 "Break_LWSF" = 1.1   $ IP Non-Tech
 "CDD_DBHi10" = 80   $ IP Non-Tech
 "CDD_DBHi7" = 76   $ IP Non-Tech
 "CDD_DBHi8" = 72   $ IP Non-Tech
 "CDD_DBHi9" = 79   $ IP Non-Tech
 "CDD_DBRange10" = 28   $ IP Non-Tech
 "CDD_DBRange7" = 18.9383812   $ IP Non-Tech
 "CDD_DBRange8" = 15   $ IP Non-Tech
 "CDD_DBRange9" = 24.76599121   $ IP Non-Tech
 "CDD_Day10" = 15   $ IP Non-Tech
 "CDD_Day7" = 16   $ IP Non-Tech
 "CDD_Day8" = 20   $ IP Non-Tech
 "CDD_Day9" = 17   $ IP Non-Tech
 "CDD_HrHi10" = 12   $ IP Non-Tech
 "CDD_HrHi7" = 12   $ IP Non-Tech
 "CDD_HrHi8" = 14   $ IP Non-Tech
 "CDD_HrHi9" = 15   $ IP Non-Tech
 "CDD_HrLo10" = 5   $ IP Non-Tech
 "CDD_HrLo7" = 1   $ IP Non-Tech
 "CDD_HrLo8" = 24   $ IP Non-Tech
 "CDD_HrLo9" = 7   $ IP Non-Tech
 "CDD_WB10" = 59.30932236   $ IP Non-Tech
 "CDD_WB7" = 64.22068024   $ IP Non-Tech
 "CDD_WB8" = 61.81496811   $ IP Non-Tech
 "CDD_WB9" = 62.86130905   $ IP Non-Tech
 "CEIR_fPLR_Hot" = SpltAC2SpHiSEER_CEIR_fPLR_Hot   $ Msr (Multi)TechID: MsrNResSplitAC-lt45-S17
 "CEIR_fPLR_Mod" = SpltAC2SpHiSEER_CEIR_fPLR_Mod   $ Msr (Multi)TechID: MsrNResSplitAC-lt45-S17
 "CEIR_fPLR_Tem" = SpltAC2SpHiSEER_CEIR_fPLR_Tem   $ Msr (Multi)TechID: MsrNResSplitAC-lt45-S17
 "CLoss_fPLR_Hot" = SpltAC2SpHiSEER_CLoss_fPLR_Hot   $ Msr (Multi)TechID: MsrNResSplitAC-lt45-S17
 "CLoss_fPLR_Mod" = SpltAC2SpHiSEER_CLoss_fPLR_Mod   $ Msr (Multi)TechID: MsrNResSplitAC-lt45-S17
 "CLoss_fPLR_Tem" = SpltAC2SpHiSEER_CLoss_fPLR_Tem   $ Msr (Multi)TechID: MsrNResSplitAC-lt45-S17
 "COP47" = 0   $ Msr (Multi)TechID: MsrNResSplitAC-lt45-S17
 "CZ_Category" = Tem   $ IP Non-Tech
 "CapRange" = Any   $ Msr (Multi)TechID: MsrNResSplitAC-lt45-S17
 "CfmPerBtuh" = 0.03   $ Msr (Multi)TechID: MsrNResSplitAC-lt45-S17
 "ChwVintEconoFlag" = 1   $ IP Non-Tech
 "ClCap_fT" = SpltAC2SpHiSEER_ClCap_fT   $ Msr (Multi)TechID: MsrNResSplitAC-lt45-S17
 "ClSH_fT" = SpltAC2SpHiSEER_ClSH_fT   $ Msr (Multi)TechID: MsrNResSplitAC-lt45-S17
 "CoilBF" = 0.102   $ Msr (Multi)TechID: MsrNResSplitAC-lt45-S17
 "CompRoomData_EWSF" = 5   $ IP Non-Tech
 "CompRoomData_LWSF" = 1.2   $ IP Non-Tech
 "CondWPerBtuh" = 0   $ Msr (Multi)TechID: MsrNResSplitAC-lt45-S17
 "Conference_EWSF" = 1   $ IP Non-Tech
 "Conference_LWSF" = 1.4   $ IP Non-Tech
 "CoolSensCap" = 0.724   $ Msr (Multi)TechID: MsrNResSplitAC-lt45-S17
 "CoolSetT" = 45   $ IP Non-Tech
 "CoolType" = DX   $ IP Non-Tech
 "CoolingEIR" = 0.2225   $ Msr (Multi)TechID: MsrNResSplitAC-lt45-S17
 "CopyRoom_EWSF" = 1.5   $ IP Non-Tech
 "CopyRoom_LWSF" = 1.3   $ IP Non-Tech
 "CrnkEIR" = 0.002225   $ Msr (Multi)TechID: MsrNResSplitAC-lt45-S17
 "CrnkMaxT" = 50   $ Msr (Multi)TechID: MsrNResSplitAC-lt45-S17
 "DXType" = SplitSEER   $ Msr (Multi)TechID: MsrNResSplitAC-lt45-S17
 "DesCoolT" = 75   $ IP Non-Tech
 "DesHeatT" = 73   $ IP Non-Tech
 "EER" = 13.26   $ Msr (Multi)TechID: MsrNResSplitAC-lt45-S17
 "EIR_fT" = SpltAC2SpHiSEER_EIR_fT   $ Msr (Multi)TechID: MsrNResSplitAC-lt45-S17
 "EconoCtrl" = FIXED   $ Msr (Multi)TechID: MsrNResSplitAC-lt45-S17
 "EconoEnthLimit" = 28   $ IP Non-Tech
 "EconoTempLimit" = 70   $ IP Non-Tech
 "Elevation" = 253   $ IP Non-Tech
 "FanEirPlr" = TwoSpeedFan   $ Msr (Multi)TechID: MsrNResSplitAC-lt45-S17
 "FanWPerCfm" = 0.271   $ Msr (Multi)TechID: MsrNResSplitAC-lt45-S17
 "HDD_CloudAmt1" = 0   $ IP Non-Tech
 "HDD_DBHi1" = 59   $ IP Non-Tech
 "HDD_DBRange1" = 27   $ IP Non-Tech
 "HDD_Day1" = 15   $ IP Non-Tech
 "HDD_HrHi1" = 12   $ IP Non-Tech
 "HDD_HrLo1" = 5   $ IP Non-Tech
 "HDD_WB1" = 46.8   $ IP Non-Tech
 "HDD_WindSpd1" = 13.8   $ IP Non-Tech
 "HIR_fT" = 0   $ Msr (Multi)TechID: MsrNResSplitAC-lt45-S17
 "HSPF" = 0   $ Msr (Multi)TechID: MsrNResSplitAC-lt45-S17
 "Hall_EWSF" = 0.2   $ IP Non-Tech
 "Hall_LWSF" = 0.6   $ IP Non-Tech
 "HeatSrc" = FURNACE   $ IP Non-Tech
 "HeatSrcTU" = HEAT-PUMP   $ IP Non-Tech
 "HeatType" = GasFurn   $ IP Non-Tech
 "HeatTypeTU" = HEAT-PUMP   $ IP Non-Tech
 "HtCap_fT" = 0   $ Msr (Multi)TechID: MsrNResSplitAC-lt45-S17
 "HtCoolCapRatio" = 0   $ Msr (Multi)TechID: MsrNResSplitAC-lt45-S17
 "HtgEIR" = 0   $ Msr (Multi)TechID: MsrNResSplitAC-lt45-S17
 "IndoorFanMode" = CONTINUOUS   $ IP Non-Tech
 "KT_TransferAir" = No   $ IP Non-Tech
 "Latitude" = 34.9   $ IP Non-Tech
 "LobbyWaiting_EWSF" = 0.5   $ IP Non-Tech
 "LobbyWaiting_LWSF" = 1.3   $ IP Non-Tech
 "Longitude" = 120.5   $ IP Non-Tech
 "LowSpdCapRatio" = 0.686   $ Msr (Multi)TechID: MsrNResSplitAC-lt45-S17
 "LowSpdCfmRatio" = 0.739   $ Msr (Multi)TechID: MsrNResSplitAC-lt45-S17
 "MZFanMechEff" = 0.58   $ IP Non-Tech
 "MZHasRetFan" = FALSE   $ IP Non-Tech
 "MZ_RFanWPerCfm" = 0.33   $ IP Non-Tech
 "MZ_SFanWPerCfm" = 0.75   $ IP Non-Tech
 "MZ_SupFanStatic" = 2.25   $ IP Non-Tech
 "MaxOAFrac" = 1   $ Msr (Multi)TechID: MsrNResSplitAC-lt45-S17
 "MaxSupT_MZ" = 100   $ IP Non-Tech
 "MaxSupT_SZ" = 100   $ IP Non-Tech
 "MaxSupT_TU" = 90   $ IP Non-Tech
 "MechElecRoom_EWSF" = 0.2   $ IP Non-Tech
 "MechElecRoom_LWSF" = 0.7   $ IP Non-Tech
 "MinCfmPerSF" = 0.4   $ IP Non-Tech
 "MinSupT" = 55   $ IP Non-Tech
 "NumStages" = 2   $ Msr (Multi)TechID: MsrNResSplitAC-lt45-S17
 "OccCoolT" = 76   $ IP Non-Tech
 "OccHeatT" = 72   $ IP Non-Tech
 "OfficeOpen_EWSF" = 1.5   $ IP Non-Tech
 "OfficeOpen_LWSF" = 1.2   $ IP Non-Tech
 "OfficeSmall_EWSF" = 1.5   $ IP Non-Tech
 "OfficeSmall_LWSF" = 1.3   $ IP Non-Tech
 "PkgDxVintEconoFlag" = 0   $ IP Non-Tech
 "Restroom_EWSF" = 0.2   $ IP Non-Tech
 "Restroom_LWSF" = 0.6   $ IP Non-Tech
 "SEER" = 17   $ Msr (Multi)TechID: MsrNResSplitAC-lt45-S17
 "SZFanMechEff" = 0.58   $ IP Non-Tech
 "SZHasRetFan" = FALSE   $ IP Non-Tech
 "SZ_Is_2Spd" = FALSE   $ IP Non-Tech
 "SZ_SFanWPerCfm" = 0.46   $ IP Non-Tech
 "SZ_SupFanStatic" = 0.75   $ IP Non-Tech
 "Sector" = Any   $ Msr (Multi)TechID: MsrNResSplitAC-lt45-S17
 "StorageSmlCond_EWSF" = 0.2   $ IP Non-Tech
 "StorageSmlCond_LWSF" = 0.6   $ IP Non-Tech
 "SubType" = AC   $ Msr (Multi)TechID: MsrNResSplitAC-lt45-S17
 "T24GlzTbl" = CZTbl   $ IP Non-Tech
 "TermUnitFanMechEff" = 1   $ IP Non-Tech
 "TermUnitFanMode" = INTERMITTENT   $ IP Non-Tech
 "TotCoolCap" = 58805   $ Msr (Multi)TechID: MsrNResSplitAC-lt45-S17
 "TwrSetpt" = 80   $ IP Non-Tech
 "UnocCoolT" = 86   $ IP Non-Tech
 "UnocHeatT" = 62   $ IP Non-Tech
 "UseEconoVintApplic" = FALSE   $ Msr (Multi)TechID: MsrNResSplitAC-lt45-S17
 "WlhpVintEconoFlag" = 0   $ IP Non-Tech
 "DuctDT" = 1   $ IP Tech: ComDuctInsul-1
 "DuctAirLoss" = 0   $ IP Tech: ComDuctLeak-0
 "DuctLossOAFrac" = 0   $ IP Tech: ComDuctLeak-0
 "ComRoofInsCalc" = FromUo   $ IP Tech: ComRoofIns-WFrm-0.06
 "ComRoofInsR" = -999   $ IP Tech: ComRoofIns-WFrm-0.06
 "ComRoofUo" = 0.06   $ IP Tech: ComRoofIns-WFrm-0.06
 "ComEWInsCalc" = FromUo   $ IP Tech: ComWallIns-WFrm-0.09
 "ComEWInsR" = -999   $ IP Tech: ComWallIns-WFrm-0.09
 "ComEWUo" = 0.09   $ IP Tech: ComWallIns-WFrm-0.09
 "ComN_SHGC" = 0.61   $ IP Tech: NResWin-ComN-0.77-0.61
 "ComN_UFactor" = 0.77   $ IP Tech: NResWin-ComN-0.77-0.61
 "ComN_VisTrans" = 0.77   $ IP Tech: NResWin-ComN-0.77-0.61
 "ComN_WinCode" = G2600   $ IP Tech: NResWin-ComN-0.77-0.61
 "ComN_WinFrmFrac" = 0.17   $ IP Tech: NResWin-ComN-0.77-0.61
 "ComN_WinFrmU" = 1   $ IP Tech: NResWin-ComN-0.77-0.61
 "ComO_SHGC" = 0.41   $ IP Tech: NResWin-ComO-0.77-0.41
 "ComO_UFactor" = 0.77   $ IP Tech: NResWin-ComO-0.77-0.41
 "ComO_VisTrans" = 0.44   $ IP Tech: NResWin-ComO-0.77-0.41
 "ComO_WinCode" = G2636   $ IP Tech: NResWin-ComO-0.77-0.41
 "ComO_WinFrmFrac" = 0.17   $ IP Tech: NResWin-ComO-0.77-0.41
 "ComO_WinFrmU" = 1   $ IP Tech: NResWin-ComO-0.77-0.41
 "LtgMsrApplic" = ALL   $ IP Tech: NonResLtgRefPre
 "LtgSav_CFL" = 0   $ IP Tech: NonResLtgRefPre
 "LtgSav_EX" = 0   $ IP Tech: NonResLtgRefPre
 "LtgSav_HB" = 0   $ IP Tech: NonResLtgRefPre
 "LtgSav_LF" = 0   $ IP Tech: NonResLtgRefPre
 "LtgSav_SP" = 0   $ IP Tech: NonResLtgRefPre
 "CEIR_fPLR" = PSZ65to135_CEIR_fPLR   $ IP Tech: PkgAC1SpH-65to135-E10
 "CLoss_fPLR" = PSZ65to135_CLoss_fPLR   $ IP Tech: PkgAC1SpH-65to135-E10
 "COP" = -1   $ IP Tech: PkgAC1SpH-65to135-E10
 "HtgFuel" = Gas   $ IP Tech: PkgAC1SpH-65to135-E10
 "IEER" = 11.87   $ IP Tech: PkgAC1SpH-65to135-E10
 "NominalCap" = 15   $ IP Tech: PkgAC1SpH-65to135-E10
 "RatedEER" = 10   $ IP Tech: PkgAC1SpH-65to135-E10
 "RatedSupMtrClass" = HiEff   $ IP Tech: PkgAC1SpH-65to135-E10
 "SizeRange" = 65to135   $ IP Tech: PkgAC1SpH-65to135-E10
 "SupMotEff" = 0.84   $ IP Tech: PkgAC1SpH-65to135-E10
 "Tier" = 0   $ IP Tech: PkgAC1SpH-65to135-E10
 "FanPwrMult" = 1   $ IP Tech: PkgFurn-0.80AFUE
 "FurnAFUE" = 0.8   $ IP Tech: PkgFurn-0.80AFUE
 "FurnEt" = 0.82   $ IP Tech: PkgFurn-0.80AFUE
 "FurnaceAuxKW" = 0.1   $ IP Tech: PkgFurn-0.80AFUE
 "HIR_fPLR" = Furnace-HIR-fPLR   $ IP Tech: PkgFurn-0.80AFUE
 "VSM" = FALSE   $ IP Tech: PkgFurn-0.80AFUE
 "BFMult" = 1   $ IP Tech: RefgChg-NRes-Std
 "CoolEirMult" = 1   $ IP Tech: RefgChg-NRes-Std
 "SensCoolCapMult" = 1   $ IP Tech: RefgChg-NRes-Std
 "TotCoolCapMult" = 1   $ IP Tech: RefgChg-NRes-Std
 "AltAdjFactor" = 1.009388   $ Sizing
 "CAssFlo_L_Break_CZn" = 292.92   $ Sizing
 "CAssFlo_L_CompDC_CZn" = 166.0113   $ Sizing
 "CAssFlo_L_Conf_CZn" = 218.3593   $ Sizing
 "CAssFlo_L_CopyRm_CZn" = 64.11096   $ Sizing
 "CAssFlo_L_Hall_EZn" = 126.0558   $ Sizing
 "CAssFlo_L_Hall_NZn" = 57.75106   $ Sizing
 "CAssFlo_L_Hall_SZn" = 142.8514   $ Sizing
 "CAssFlo_L_Hall_WZn" = 132.6279   $ Sizing
 "CAssFlo_L_LobWait_EZn" = 300.886   $ Sizing
 "CAssFlo_L_LobWait_NZn" = 123.7237   $ Sizing
 "CAssFlo_L_LobWait_SZn" = 332.1907   $ Sizing
 "CAssFlo_L_LobWait_WZn" = 310.1823   $ Sizing
 "CAssFlo_L_MechElec_CZn" = 66.05824   $ Sizing
 "CAssFlo_L_OfficeOpn_CZn" = 65.02296   $ Sizing
 "CAssFlo_L_OfficeOpn_EZn" = 565.8339   $ Sizing
 "CAssFlo_L_OfficeOpn_NZn" = 290.1862   $ Sizing
 "CAssFlo_L_OfficeOpn_SZn" = 577.6863   $ Sizing
 "CAssFlo_L_OfficeOpn_WZn" = 558.732   $ Sizing
 "CAssFlo_L_OfficeSm_EZn" = 479.1914   $ Sizing
 "CAssFlo_L_OfficeSm_NZn" = 228.4046   $ Sizing
 "CAssFlo_L_OfficeSm_SZn" = 510.1981   $ Sizing
 "CAssFlo_L_OfficeSm_WZn" = 491.2257   $ Sizing
 "CAssFlo_L_Restrm_CZn" = 86.22957   $ Sizing
 "CAssFlo_L_StorSm_CZn" = 29.6852   $ Sizing
 "CAssFlo_L_StorSm_EZn" = 120.4515   $ Sizing
 "CAssFlo_L_StorSm_NZn" = 67.02566   $ Sizing
 "CAssFlo_L_StorSm_SZn" = 133.446   $ Sizing
 "CAssFlo_L_StorSm_WZn" = 119.6318   $ Sizing
 "CAssFlo_T_Conf_CZn" = 215.3544   $ Sizing
 "CAssFlo_T_Hall_EZn" = 135.8712   $ Sizing
 "CAssFlo_T_Hall_NZn" = 57.15126   $ Sizing
 "CAssFlo_T_Hall_SZn" = 157.296   $ Sizing
 "CAssFlo_T_Hall_WZn" = 143.4146   $ Sizing
 "CAssFlo_T_OfficeOpn_CZn" = 59.87879   $ Sizing
 "CAssFlo_T_OfficeOpn_EZn" = 554.0018   $ Sizing
 "CAssFlo_T_OfficeOpn_NZn" = 304.4517   $ Sizing
 "CAssFlo_T_OfficeOpn_SZn" = 604.9738   $ Sizing
 "CAssFlo_T_OfficeOpn_WZn" = 555.8696   $ Sizing
 "CAssFlo_T_OfficeSm_EZn" = 475.2799   $ Sizing
 "CAssFlo_T_OfficeSm_NZn" = 242.5663   $ Sizing
 "CAssFlo_T_OfficeSm_SZn" = 536.5261   $ Sizing
 "CAssFlo_T_OfficeSm_WZn" = 491.5859   $ Sizing
 "CAssFlo_T_Restrm_CZn" = 93.46867   $ Sizing
 "CAssFlo_T_StorSm_EZn" = 132.5003   $ Sizing
 "CAssFlo_T_StorSm_NZn" = 68.99894   $ Sizing
 "CAssFlo_T_StorSm_SZn" = 151.0773   $ Sizing
 "CAssFlo_T_StorSm_WZn" = 138.664   $ Sizing
 "CHRtFlo_Sys_L_Break_C" = 292.92   $ Sizing
 "CHRtFlo_Sys_L_CompDC_C" = 166.0113   $ Sizing
 "CHRtFlo_Sys_L_Conf_C" = 218.3593   $ Sizing
 "CHRtFlo_Sys_L_CopyRm_C" = 64.11096   $ Sizing
 "CHRtFlo_Sys_L_Hall_E" = 126.0558   $ Sizing
 "CHRtFlo_Sys_L_Hall_N" = 57.75106   $ Sizing
 "CHRtFlo_Sys_L_Hall_S" = 142.8514   $ Sizing
 "CHRtFlo_Sys_L_Hall_W" = 132.6279   $ Sizing
 "CHRtFlo_Sys_L_LobWait_E" = 300.886   $ Sizing
 "CHRtFlo_Sys_L_LobWait_N" = 123.7237   $ Sizing
 "CHRtFlo_Sys_L_LobWait_S" = 332.1907   $ Sizing
 "CHRtFlo_Sys_L_LobWait_W" = 310.1823   $ Sizing
 "CHRtFlo_Sys_L_MechElec_C" = 66.05824   $ Sizing
 "CHRtFlo_Sys_L_OfficeOpn_C" = 65.02296   $ Sizing
 "CHRtFlo_Sys_L_OfficeOpn_E" = 565.8339   $ Sizing
 "CHRtFlo_Sys_L_OfficeOpn_N" = 290.1862   $ Sizing
 "CHRtFlo_Sys_L_OfficeOpn_S" = 577.6863   $ Sizing
 "CHRtFlo_Sys_L_OfficeOpn_W" = 558.732   $ Sizing
 "CHRtFlo_Sys_L_OfficeSm_E" = 479.1914   $ Sizing
 "CHRtFlo_Sys_L_OfficeSm_N" = 228.4046   $ Sizing
 "CHRtFlo_Sys_L_OfficeSm_S" = 510.1981   $ Sizing
 "CHRtFlo_Sys_L_OfficeSm_W" = 491.2257   $ Sizing
 "CHRtFlo_Sys_L_Restrm_C" = 86.22957   $ Sizing
 "CHRtFlo_Sys_L_StorSm_C" = 29.6852   $ Sizing
 "CHRtFlo_Sys_L_StorSm_E" = 120.4515   $ Sizing
 "CHRtFlo_Sys_L_StorSm_N" = 67.02566   $ Sizing
 "CHRtFlo_Sys_L_StorSm_S" = 133.446   $ Sizing
 "CHRtFlo_Sys_L_StorSm_W" = 119.6318   $ Sizing
 "CHRtFlo_Sys_T_Conf_C" = 215.3544   $ Sizing
 "CHRtFlo_Sys_T_Hall_E" = 135.8712   $ Sizing
 "CHRtFlo_Sys_T_Hall_N" = 57.15126   $ Sizing
 "CHRtFlo_Sys_T_Hall_S" = 157.296   $ Sizing
 "CHRtFlo_Sys_T_Hall_W" = 143.4146   $ Sizing
 "CHRtFlo_Sys_T_OfficeOpn_C" = 59.87879   $ Sizing
 "CHRtFlo_Sys_T_OfficeOpn_E" = 554.0018   $ Sizing
 "CHRtFlo_Sys_T_OfficeOpn_N" = 304.4517   $ Sizing
 "CHRtFlo_Sys_T_OfficeOpn_S" = 604.9738   $ Sizing
 "CHRtFlo_Sys_T_OfficeOpn_W" = 555.8696   $ Sizing
 "CHRtFlo_Sys_T_OfficeSm_E" = 475.2799   $ Sizing
 "CHRtFlo_Sys_T_OfficeSm_N" = 242.5663   $ Sizing
 "CHRtFlo_Sys_T_OfficeSm_S" = 536.5261   $ Sizing
 "CHRtFlo_Sys_T_OfficeSm_W" = 491.5859   $ Sizing
 "CHRtFlo_Sys_T_Restrm_C" = 93.46867   $ Sizing
 "CHRtFlo_Sys_T_StorSm_E" = 132.5003   $ Sizing
 "CHRtFlo_Sys_T_StorSm_N" = 68.99894   $ Sizing
 "CHRtFlo_Sys_T_StorSm_S" = 151.0773   $ Sizing
 "CHRtFlo_Sys_T_StorSm_W" = 138.664   $ Sizing
 "CRtdFlo_Sys_L_Break_C" = 292.92   $ Sizing
 "CRtdFlo_Sys_L_CompDC_C" = 166.0113   $ Sizing
 "CRtdFlo_Sys_L_Conf_C" = 218.3593   $ Sizing
 "CRtdFlo_Sys_L_CopyRm_C" = 64.11096   $ Sizing
 "CRtdFlo_Sys_L_Hall_E" = 126.0558   $ Sizing
 "CRtdFlo_Sys_L_Hall_N" = 57.75106   $ Sizing
 "CRtdFlo_Sys_L_Hall_S" = 142.8514   $ Sizing
 "CRtdFlo_Sys_L_Hall_W" = 132.6279   $ Sizing
 "CRtdFlo_Sys_L_LobWait_E" = 300.886   $ Sizing
 "CRtdFlo_Sys_L_LobWait_N" = 123.7237   $ Sizing
 "CRtdFlo_Sys_L_LobWait_S" = 332.1907   $ Sizing
 "CRtdFlo_Sys_L_LobWait_W" = 310.1823   $ Sizing
 "CRtdFlo_Sys_L_MechElec_C" = 66.05824   $ Sizing
 "CRtdFlo_Sys_L_OfficeOpn_C" = 65.02296   $ Sizing
 "CRtdFlo_Sys_L_OfficeOpn_E" = 565.8339   $ Sizing
 "CRtdFlo_Sys_L_OfficeOpn_N" = 290.1862   $ Sizing
 "CRtdFlo_Sys_L_OfficeOpn_S" = 577.6863   $ Sizing
 "CRtdFlo_Sys_L_OfficeOpn_W" = 558.732   $ Sizing
 "CRtdFlo_Sys_L_OfficeSm_E" = 479.1914   $ Sizing
 "CRtdFlo_Sys_L_OfficeSm_N" = 228.4046   $ Sizing
 "CRtdFlo_Sys_L_OfficeSm_S" = 510.1981   $ Sizing
 "CRtdFlo_Sys_L_OfficeSm_W" = 491.2257   $ Sizing
 "CRtdFlo_Sys_L_Restrm_C" = 86.22957   $ Sizing
 "CRtdFlo_Sys_L_StorSm_C" = 29.6852   $ Sizing
 "CRtdFlo_Sys_L_StorSm_E" = 120.4515   $ Sizing
 "CRtdFlo_Sys_L_StorSm_N" = 67.02566   $ Sizing
 "CRtdFlo_Sys_L_StorSm_S" = 133.446   $ Sizing
 "CRtdFlo_Sys_L_StorSm_W" = 119.6318   $ Sizing
 "CRtdFlo_Sys_T_Conf_C" = 215.3544   $ Sizing
 "CRtdFlo_Sys_T_Hall_E" = 135.8712   $ Sizing
 "CRtdFlo_Sys_T_Hall_N" = 57.15126   $ Sizing
 "CRtdFlo_Sys_T_Hall_S" = 157.296   $ Sizing
 "CRtdFlo_Sys_T_Hall_W" = 143.4146   $ Sizing
 "CRtdFlo_Sys_T_OfficeOpn_C" = 59.87879   $ Sizing
 "CRtdFlo_Sys_T_OfficeOpn_E" = 554.0018   $ Sizing
 "CRtdFlo_Sys_T_OfficeOpn_N" = 304.4517   $ Sizing
 "CRtdFlo_Sys_T_OfficeOpn_S" = 604.9738   $ Sizing
 "CRtdFlo_Sys_T_OfficeOpn_W" = 555.8696   $ Sizing
 "CRtdFlo_Sys_T_OfficeSm_E" = 475.2799   $ Sizing
 "CRtdFlo_Sys_T_OfficeSm_N" = 242.5663   $ Sizing
 "CRtdFlo_Sys_T_OfficeSm_S" = 536.5261   $ Sizing
 "CRtdFlo_Sys_T_OfficeSm_W" = 491.5859   $ Sizing
 "CRtdFlo_Sys_T_Restrm_C" = 93.46867   $ Sizing
 "CRtdFlo_Sys_T_StorSm_E" = 132.5003   $ Sizing
 "CRtdFlo_Sys_T_StorSm_N" = 68.99894   $ Sizing
 "CRtdFlo_Sys_T_StorSm_S" = 151.0773   $ Sizing
 "CRtdFlo_Sys_T_StorSm_W" = 138.664   $ Sizing
 "CSupFlo_Sys_L_Break_C" = 292.92   $ Sizing
 "CSupFlo_Sys_L_CompDC_C" = 166.0113   $ Sizing
 "CSupFlo_Sys_L_Conf_C" = 218.3593   $ Sizing
 "CSupFlo_Sys_L_CopyRm_C" = 64.11096   $ Sizing
 "CSupFlo_Sys_L_Hall_E" = 126.0558   $ Sizing
 "CSupFlo_Sys_L_Hall_N" = 57.75106   $ Sizing
 "CSupFlo_Sys_L_Hall_S" = 142.8514   $ Sizing
 "CSupFlo_Sys_L_Hall_W" = 132.6279   $ Sizing
 "CSupFlo_Sys_L_LobWait_E" = 300.886   $ Sizing
 "CSupFlo_Sys_L_LobWait_N" = 123.7237   $ Sizing
 "CSupFlo_Sys_L_LobWait_S" = 332.1907   $ Sizing
 "CSupFlo_Sys_L_LobWait_W" = 310.1823   $ Sizing
 "CSupFlo_Sys_L_MechElec_C" = 66.05824   $ Sizing
 "CSupFlo_Sys_L_OfficeOpn_C" = 65.02296   $ Sizing
 "CSupFlo_Sys_L_OfficeOpn_E" = 565.8339   $ Sizing
 "CSupFlo_Sys_L_OfficeOpn_N" = 290.1862   $ Sizing
 "CSupFlo_Sys_L_OfficeOpn_S" = 577.6863   $ Sizing
 "CSupFlo_Sys_L_OfficeOpn_W" = 558.732   $ Sizing
 "CSupFlo_Sys_L_OfficeSm_E" = 479.1914   $ Sizing
 "CSupFlo_Sys_L_OfficeSm_N" = 228.4046   $ Sizing
 "CSupFlo_Sys_L_OfficeSm_S" = 510.1981   $ Sizing
 "CSupFlo_Sys_L_OfficeSm_W" = 491.2257   $ Sizing
 "CSupFlo_Sys_L_Restrm_C" = 86.22957   $ Sizing
 "CSupFlo_Sys_L_StorSm_C" = 29.6852   $ Sizing
 "CSupFlo_Sys_L_StorSm_E" = 120.4515   $ Sizing
 "CSupFlo_Sys_L_StorSm_N" = 67.02566   $ Sizing
 "CSupFlo_Sys_L_StorSm_S" = 133.446   $ Sizing
 "CSupFlo_Sys_L_StorSm_W" = 119.6318   $ Sizing
 "CSupFlo_Sys_T_Conf_C" = 215.3544   $ Sizing
 "CSupFlo_Sys_T_Hall_E" = 135.8712   $ Sizing
 "CSupFlo_Sys_T_Hall_N" = 57.15126   $ Sizing
 "CSupFlo_Sys_T_Hall_S" = 157.296   $ Sizing
 "CSupFlo_Sys_T_Hall_W" = 143.4146   $ Sizing
 "CSupFlo_Sys_T_OfficeOpn_C" = 59.87879   $ Sizing
 "CSupFlo_Sys_T_OfficeOpn_E" = 554.0018   $ Sizing
 "CSupFlo_Sys_T_OfficeOpn_N" = 304.4517   $ Sizing
 "CSupFlo_Sys_T_OfficeOpn_S" = 604.9738   $ Sizing
 "CSupFlo_Sys_T_OfficeOpn_W" = 555.8696   $ Sizing
 "CSupFlo_Sys_T_OfficeSm_E" = 475.2799   $ Sizing
 "CSupFlo_Sys_T_OfficeSm_N" = 242.5663   $ Sizing
 "CSupFlo_Sys_T_OfficeSm_S" = 536.5261   $ Sizing
 "CSupFlo_Sys_T_OfficeSm_W" = 491.5859   $ Sizing
 "CSupFlo_Sys_T_Restrm_C" = 93.46867   $ Sizing
 "CSupFlo_Sys_T_StorSm_E" = 132.5003   $ Sizing
 "CSupFlo_Sys_T_StorSm_N" = 68.99894   $ Sizing
 "CSupFlo_Sys_T_StorSm_S" = 151.0773   $ Sizing
 "CSupFlo_Sys_T_StorSm_W" = 138.664   $ Sizing
 "ClCap_Sys_L_Break_C" = 9949.566   $ Sizing
 "ClCap_Sys_L_CompDC_C" = 5638.881   $ Sizing
 "ClCap_Sys_L_Conf_C" = 9439.788   $ Sizing
 "ClCap_Sys_L_CopyRm_C" = 2177.647   $ Sizing
 "ClCap_Sys_L_Hall_E" = 4281.717   $ Sizing
 "ClCap_Sys_L_Hall_N" = 1961.621   $ Sizing
 "ClCap_Sys_L_Hall_S" = 4852.213   $ Sizing
 "ClCap_Sys_L_Hall_W" = 4504.952   $ Sizing
 "ClCap_Sys_L_LobWait_E" = 10220.15   $ Sizing
 "ClCap_Sys_L_LobWait_N" = 4202.502   $ Sizing
 "ClCap_Sys_L_LobWait_S" = 11283.47   $ Sizing
 "ClCap_Sys_L_LobWait_W" = 10535.92   $ Sizing
 "ClCap_Sys_L_MechElec_C" = 2243.79   $ Sizing
 "ClCap_Sys_L_OfficeOpn_C" = 2208.625   $ Sizing
 "ClCap_Sys_L_OfficeOpn_E" = 19219.59   $ Sizing
 "ClCap_Sys_L_OfficeOpn_N" = 9856.709   $ Sizing
 "ClCap_Sys_L_OfficeOpn_S" = 19622.18   $ Sizing
 "ClCap_Sys_L_OfficeOpn_W" = 18978.36   $ Sizing
 "ClCap_Sys_L_OfficeSm_E" = 16276.62   $ Sizing
 "ClCap_Sys_L_OfficeSm_N" = 7758.182   $ Sizing
 "ClCap_Sys_L_OfficeSm_S" = 17329.82   $ Sizing
 "ClCap_Sys_L_OfficeSm_W" = 16685.39   $ Sizing
 "ClCap_Sys_L_Restrm_C" = 2928.946   $ Sizing
 "ClCap_Sys_L_StorSm_C" = 1008.313   $ Sizing
 "ClCap_Sys_L_StorSm_E" = 4091.359   $ Sizing
 "ClCap_Sys_L_StorSm_N" = 2276.65   $ Sizing
 "ClCap_Sys_L_StorSm_S" = 4532.741   $ Sizing
 "ClCap_Sys_L_StorSm_W" = 4063.513   $ Sizing
 "ClCap_Sys_T_Conf_C" = 9309.883   $ Sizing
 "ClCap_Sys_T_Hall_E" = 4615.114   $ Sizing
 "ClCap_Sys_T_Hall_N" = 1941.248   $ Sizing
 "ClCap_Sys_T_Hall_S" = 5342.849   $ Sizing
 "ClCap_Sys_T_Hall_W" = 4871.343   $ Sizing
 "ClCap_Sys_T_OfficeOpn_C" = 2033.894   $ Sizing
 "ClCap_Sys_T_OfficeOpn_E" = 18817.69   $ Sizing
 "ClCap_Sys_T_OfficeOpn_N" = 10341.26   $ Sizing
 "ClCap_Sys_T_OfficeOpn_S" = 20549.05   $ Sizing
 "ClCap_Sys_T_OfficeOpn_W" = 18881.13   $ Sizing
 "ClCap_Sys_T_OfficeSm_E" = 16143.76   $ Sizing
 "ClCap_Sys_T_OfficeSm_N" = 8239.212   $ Sizing
 "ClCap_Sys_T_OfficeSm_S" = 18224.1   $ Sizing
 "ClCap_Sys_T_OfficeSm_W" = 16697.62   $ Sizing
 "ClCap_Sys_T_Restrm_C" = 3174.836   $ Sizing
 "ClCap_Sys_T_StorSm_E" = 4500.618   $ Sizing
 "ClCap_Sys_T_StorSm_N" = 2343.676   $ Sizing
 "ClCap_Sys_T_StorSm_S" = 5131.619   $ Sizing
 "ClCap_Sys_T_StorSm_W" = 4709.978   $ Sizing
 "HtCap_Sys_L_Break_C" = -16965.71   $ Sizing
 "HtCap_Sys_L_CompDC_C" = -5905.491   $ Sizing
 "HtCap_Sys_L_Conf_C" = -12969.4   $ Sizing
 "HtCap_Sys_L_CopyRm_C" = -4183.951   $ Sizing
 "HtCap_Sys_L_Hall_E" = -4419.142   $ Sizing
 "HtCap_Sys_L_Hall_N" = -2257.76   $ Sizing
 "HtCap_Sys_L_Hall_S" = -4841.248   $ Sizing
 "HtCap_Sys_L_Hall_W" = -4593.575   $ Sizing
 "HtCap_Sys_L_LobWait_E" = -11215.24   $ Sizing
 "HtCap_Sys_L_LobWait_N" = -5866.075   $ Sizing
 "HtCap_Sys_L_LobWait_S" = -12128.95   $ Sizing
 "HtCap_Sys_L_LobWait_W" = -11551.43   $ Sizing
 "HtCap_Sys_L_MechElec_C" = -3005.722   $ Sizing
 "HtCap_Sys_L_OfficeOpn_C" = -2573.482   $ Sizing
 "HtCap_Sys_L_OfficeOpn_E" = -19058.23   $ Sizing
 "HtCap_Sys_L_OfficeOpn_N" = -11995.49   $ Sizing
 "HtCap_Sys_L_OfficeOpn_S" = -19765.49   $ Sizing
 "HtCap_Sys_L_OfficeOpn_W" = -19881.2   $ Sizing
 "HtCap_Sys_L_OfficeSm_E" = -16379.72   $ Sizing
 "HtCap_Sys_L_OfficeSm_N" = -9140.685   $ Sizing
 "HtCap_Sys_L_OfficeSm_S" = -16915.33   $ Sizing
 "HtCap_Sys_L_OfficeSm_W" = -16873.06   $ Sizing
 "HtCap_Sys_L_Restrm_C" = -3053.365   $ Sizing
 "HtCap_Sys_L_StorSm_C" = -1266.84   $ Sizing
 "HtCap_Sys_L_StorSm_E" = -4441.361   $ Sizing
 "HtCap_Sys_L_StorSm_N" = -2854.106   $ Sizing
 "HtCap_Sys_L_StorSm_S" = -4801.488   $ Sizing
 "HtCap_Sys_L_StorSm_W" = -4463.044   $ Sizing
 "HtCap_Sys_T_Conf_C" = -13097.71   $ Sizing
 "HtCap_Sys_T_Hall_E" = -5201.191   $ Sizing
 "HtCap_Sys_T_Hall_N" = -2557.409   $ Sizing
 "HtCap_Sys_T_Hall_S" = -5989.358   $ Sizing
 "HtCap_Sys_T_Hall_W" = -5526.807   $ Sizing
 "HtCap_Sys_T_OfficeOpn_C" = -2664.479   $ Sizing
 "HtCap_Sys_T_OfficeOpn_E" = -20804.09   $ Sizing
 "HtCap_Sys_T_OfficeOpn_N" = -13399.72   $ Sizing
 "HtCap_Sys_T_OfficeOpn_S" = -23224.61   $ Sizing
 "HtCap_Sys_T_OfficeOpn_W" = -21819.81   $ Sizing
 "HtCap_Sys_T_OfficeSm_E" = -17813.71   $ Sizing
 "HtCap_Sys_T_OfficeSm_N" = -10513.93   $ Sizing
 "HtCap_Sys_T_OfficeSm_S" = -20003.93   $ Sizing
 "HtCap_Sys_T_OfficeSm_W" = -18809.61   $ Sizing
 "HtCap_Sys_T_Restrm_C" = -3726.261   $ Sizing
 "HtCap_Sys_T_StorSm_E" = -5523.076   $ Sizing
 "HtCap_Sys_T_StorSm_N" = -3341.62   $ Sizing
 "HtCap_Sys_T_StorSm_S" = -6017.763   $ Sizing
 "HtCap_Sys_T_StorSm_W" = -5710.245   $ Sizing
..

##include Templates\OfS_DX_SZ.inp
END ..
COMPUTE ..
STOP ..
