INPUT ..

##fileprefix C:\Users\jglasskatz\MASControl3\
##set1 IsSizing FALSE
##set1 CoolType DX
##set1 HeatType FURNACE
##set1 EU_HrRepVar 0
##set1 BldgVint 1985
##set1 BldgLoc CZ03

 ##set1 mBFMult 1   $ IP Tech: RefgChg-NRes-Std

PARAMETER
 "AltFactor" = 1.00025   $ IP Non-Tech
 "BF_fFlow" = SpltAC1Sp_BF_fFlow   $ Msr (Var)TechID: PreNResSplitAC-lt45-PENo
 "BF_fT" = SpltAC1Sp_BF_fT   $ Msr (Var)TechID: PreNResSplitAC-lt45-PENo
 "BldgEconoFlag" = 1   $ IP Non-Tech
 "Break_EWSF" = 1   $ IP Non-Tech
 "Break_LWSF" = 1.1   $ IP Non-Tech
 "CDD_DBHi10" = 74   $ IP Non-Tech
 "CDD_DBHi7" = 78   $ IP Non-Tech
 "CDD_DBHi8" = 73   $ IP Non-Tech
 "CDD_DBHi9" = 83   $ IP Non-Tech
 "CDD_DBRange10" = 25   $ IP Non-Tech
 "CDD_DBRange7" = 24   $ IP Non-Tech
 "CDD_DBRange8" = 10   $ IP Non-Tech
 "CDD_DBRange9" = 25   $ IP Non-Tech
 "CDD_Day10" = 15   $ IP Non-Tech
 "CDD_Day7" = 16   $ IP Non-Tech
 "CDD_Day8" = 20   $ IP Non-Tech
 "CDD_Day9" = 17   $ IP Non-Tech
 "CDD_HrHi10" = 16   $ IP Non-Tech
 "CDD_HrHi7" = 13   $ IP Non-Tech
 "CDD_HrHi8" = 17   $ IP Non-Tech
 "CDD_HrHi9" = 15   $ IP Non-Tech
 "CDD_HrLo10" = 8   $ IP Non-Tech
 "CDD_HrLo7" = 5   $ IP Non-Tech
 "CDD_HrLo8" = 7   $ IP Non-Tech
 "CDD_HrLo9" = 7   $ IP Non-Tech
 "CDD_WB10" = 60.13755417   $ IP Non-Tech
 "CDD_WB7" = 64.09266663   $ IP Non-Tech
 "CDD_WB8" = 62.55457306   $ IP Non-Tech
 "CDD_WB9" = 64.6887207   $ IP Non-Tech
 "CEIR_fPLR_Hot" = SpltAC1Sp_CEIR_fPLR_Hot   $ Msr (Var)TechID: PreNResSplitAC-lt45-PENo
 "CEIR_fPLR_Mod" = SpltAC1Sp_CEIR_fPLR_Mod   $ Msr (Var)TechID: PreNResSplitAC-lt45-PENo
 "CEIR_fPLR_Tem" = SpltAC1Sp_CEIR_fPLR_Tem   $ Msr (Var)TechID: PreNResSplitAC-lt45-PENo
 "CLoss_fPLR_Hot" = SpltAC1Sp_CLoss_fPLR_Hot   $ Msr (Var)TechID: PreNResSplitAC-lt45-PENo
 "CLoss_fPLR_Mod" = SpltAC1Sp_CLoss_fPLR_Mod   $ Msr (Var)TechID: PreNResSplitAC-lt45-PENo
 "CLoss_fPLR_Tem" = SpltAC1Sp_CLoss_fPLR_Tem   $ Msr (Var)TechID: PreNResSplitAC-lt45-PENo
 "COP47" = 0   $ Msr (Var)TechID: PreNResSplitAC-lt45-PENo
 "CZ_Category" = Tem   $ IP Non-Tech
 "CapRange" = Any   $ Msr (Var)TechID: PreNResSplitAC-lt45-PENo
 "CfmPerBtuh" = 0.0321   $ Msr (Var)TechID: PreNResSplitAC-lt45-PENo
 "ChwVintEconoFlag" = 1   $ IP Non-Tech
 "ClCap_fT" = SpltAC1Sp_ClCap_fT   $ Msr (Var)TechID: PreNResSplitAC-lt45-PENo
 "ClSH_fT" = SpltAC1Sp_ClSH_fT   $ Msr (Var)TechID: PreNResSplitAC-lt45-PENo
 "CoilBF" = 0.12   $ Msr (Var)TechID: PreNResSplitAC-lt45-PENo
 "CompRoomData_EWSF" = 5.5   $ IP Non-Tech
 "CompRoomData_LWSF" = 1.2   $ IP Non-Tech
 "CondWPerBtuh" = 0   $ Msr (Var)TechID: PreNResSplitAC-lt45-PENo
 "Conference_EWSF" = 1.1   $ IP Non-Tech
 "Conference_LWSF" = 1.4   $ IP Non-Tech
 "CoolSensCap" = 0.744   $ Msr (Var)TechID: PreNResSplitAC-lt45-PENo
 "CoolSetT" = 45   $ IP Non-Tech
 "CoolType" = DX   $ IP Non-Tech
 "CoolingEIR" = 0.29437   $ Msr (Var)TechID: PreNResSplitAC-lt45-PENo
 "CopyRoom_EWSF" = 1.65   $ IP Non-Tech
 "CopyRoom_LWSF" = 1.3   $ IP Non-Tech
 "CrnkEIR" = 0.0029437   $ Msr (Var)TechID: PreNResSplitAC-lt45-PENo
 "CrnkMaxT" = 50   $ Msr (Var)TechID: PreNResSplitAC-lt45-PENo
 "DXType" = SplitSEER   $ Msr (Var)TechID: PreNResSplitAC-lt45-PENo
 "DesCoolT" = 75   $ IP Non-Tech
 "DesHeatT" = 73   $ IP Non-Tech
 "EER" = 9.799295775   $ Msr (Var)TechID: PreNResSplitAC-lt45-PENo
 "EIR_fT" = SpltAC1Sp_EIR_fT   $ Msr (Var)TechID: PreNResSplitAC-lt45-PENo
 "EconoCtrl" = FIXED   $ Msr (Multi)TechID: PreNResSplitAC-lt45-PENo
 "EconoEnthLimit" = 28   $ IP Non-Tech
 "EconoTempLimit" = 70   $ IP Non-Tech
 "Elevation" = 6   $ IP Non-Tech
 "FanEirPlr" = TwoSpeedFan   $ Msr (Var)TechID: PreNResSplitAC-lt45-PENo
 "FanWPerCfm" = 0.365   $ Msr (Var)TechID: PreNResSplitAC-lt45-PENo
 "HDD_CloudAmt1" = 0   $ IP Non-Tech
 "HDD_DBHi1" = 51   $ IP Non-Tech
 "HDD_DBRange1" = 17   $ IP Non-Tech
 "HDD_Day1" = 15   $ IP Non-Tech
 "HDD_HrHi1" = 16   $ IP Non-Tech
 "HDD_HrLo1" = 9   $ IP Non-Tech
 "HDD_WB1" = 42.6   $ IP Non-Tech
 "HDD_WindSpd1" = 15   $ IP Non-Tech
 "HIR_fT" = 0   $ Msr (Var)TechID: PreNResSplitAC-lt45-PENo
 "HSPF" = 0   $ Msr (Var)TechID: PreNResSplitAC-lt45-PENo
 "Hall_EWSF" = 0.22   $ IP Non-Tech
 "Hall_LWSF" = 0.6   $ IP Non-Tech
 "HeatSrc" = FURNACE   $ IP Non-Tech
 "HeatSrcTU" = HEAT-PUMP   $ IP Non-Tech
 "HeatType" = GasFurn   $ IP Non-Tech
 "HeatTypeTU" = HEAT-PUMP   $ IP Non-Tech
 "HtCap_fT" = 0   $ Msr (Var)TechID: PreNResSplitAC-lt45-PENo
 "HtCoolCapRatio" = 0   $ Msr (Var)TechID: PreNResSplitAC-lt45-PENo
 "HtgEIR" = 0   $ Msr (Var)TechID: PreNResSplitAC-lt45-PENo
 "IndoorFanMode" = CONTINUOUS   $ IP Non-Tech
 "KT_TransferAir" = No   $ IP Non-Tech
 "Latitude" = 37.7   $ IP Non-Tech
 "LobbyWaiting_EWSF" = 0.525   $ IP Non-Tech
 "LobbyWaiting_LWSF" = 1.3   $ IP Non-Tech
 "Longitude" = 122.2   $ IP Non-Tech
 "LowSpdCapRatio" = 1   $ Msr (Var)TechID: PreNResSplitAC-lt45-PENo
 "LowSpdCfmRatio" = 1   $ Msr (Var)TechID: PreNResSplitAC-lt45-PENo
 "MZFanMechEff" = 0.58   $ IP Non-Tech
 "MZHasRetFan" = FALSE   $ IP Non-Tech
 "MZ_RFanWPerCfm" = 0.33   $ IP Non-Tech
 "MZ_SFanWPerCfm" = 0.75   $ IP Non-Tech
 "MZ_SupFanStatic" = 2.25   $ IP Non-Tech
 "MaxOAFrac" = 1   $ Msr (Multi)TechID: PreNResSplitAC-lt45-PENo
 "MaxSupT_MZ" = 100   $ IP Non-Tech
 "MaxSupT_SZ" = 100   $ IP Non-Tech
 "MaxSupT_TU" = 90   $ IP Non-Tech
 "MechElecRoom_EWSF" = 0.22   $ IP Non-Tech
 "MechElecRoom_LWSF" = 0.7   $ IP Non-Tech
 "MinCfmPerSF" = 0.4   $ IP Non-Tech
 "MinSupT" = 55   $ IP Non-Tech
 "NumStages" = 1   $ Msr (Var)TechID: PreNResSplitAC-lt45-PENo
 "OccCoolT" = 76   $ IP Non-Tech
 "OccHeatT" = 72   $ IP Non-Tech
 "OfficeOpen_EWSF" = 1.65   $ IP Non-Tech
 "OfficeOpen_LWSF" = 1.2   $ IP Non-Tech
 "OfficeSmall_EWSF" = 1.65   $ IP Non-Tech
 "OfficeSmall_LWSF" = 1.3   $ IP Non-Tech
 "PkgDxVintEconoFlag" = 0   $ IP Non-Tech
 "Restroom_EWSF" = 0.22   $ IP Non-Tech
 "Restroom_LWSF" = 0.6   $ IP Non-Tech
 "SEER" = 11.5   $ Msr (Var)TechID: PreNResSplitAC-lt45-PENo
 "SZFanMechEff" = 0.58   $ IP Non-Tech
 "SZHasRetFan" = FALSE   $ IP Non-Tech
 "SZ_Is_2Spd" = FALSE   $ IP Non-Tech
 "SZ_SFanWPerCfm" = 0.46   $ IP Non-Tech
 "SZ_SupFanStatic" = 0.75   $ IP Non-Tech
 "Sector" = Any   $ Msr (Var)TechID: PreNResSplitAC-lt45-PENo
 "StorageSmlCond_EWSF" = 0.22   $ IP Non-Tech
 "StorageSmlCond_LWSF" = 0.6   $ IP Non-Tech
 "SubType" = AC   $ Msr (Var)TechID: PreNResSplitAC-lt45-PENo
 "T24GlzTbl" = CZTbl   $ IP Non-Tech
 "TermUnitFanMechEff" = 1   $ IP Non-Tech
 "TermUnitFanMode" = INTERMITTENT   $ IP Non-Tech
 "TotCoolCap" = 34895   $ Msr (Var)TechID: PreNResSplitAC-lt45-PENo
 "TwrSetpt" = 80   $ IP Non-Tech
 "UnocCoolT" = 86   $ IP Non-Tech
 "UnocHeatT" = 62   $ IP Non-Tech
 "UseEconoVintApplic" = FALSE   $ Msr (Multi)TechID: PreNResSplitAC-lt45-PENo
 "WlhpVintEconoFlag" = 0   $ IP Non-Tech
 "DuctDT" = 1   $ IP Tech: ComDuctInsul-1
 "DuctAirLoss" = 0   $ IP Tech: ComDuctLeak-0
 "DuctLossOAFrac" = 0   $ IP Tech: ComDuctLeak-0
 "ComRoofInsCalc" = FromUo   $ IP Tech: ComRoofIns-WFrm-0.07
 "ComRoofInsR" = -999   $ IP Tech: ComRoofIns-WFrm-0.07
 "ComRoofUo" = 0.07   $ IP Tech: ComRoofIns-WFrm-0.07
 "ComEWInsCalc" = FromUo   $ IP Tech: ComWallIns-WFrm-0.09
 "ComEWInsR" = -999   $ IP Tech: ComWallIns-WFrm-0.09
 "ComEWUo" = 0.09   $ IP Tech: ComWallIns-WFrm-0.09
 "ComN_SHGC" = 0.82   $ IP Tech: NResWin-ComN-1.23-0.82
 "ComN_UFactor" = 1.23   $ IP Tech: NResWin-ComN-1.23-0.82
 "ComN_VisTrans" = 0.9   $ IP Tech: NResWin-ComN-1.23-0.82
 "ComN_WinCode" = G1000   $ IP Tech: NResWin-ComN-1.23-0.82
 "ComN_WinFrmFrac" = 0.17   $ IP Tech: NResWin-ComN-1.23-0.82
 "ComN_WinFrmU" = 1   $ IP Tech: NResWin-ComN-1.23-0.82
 "ComO_SHGC" = 0.82   $ IP Tech: NResWin-ComO-1.23-0.82
 "ComO_UFactor" = 1.23   $ IP Tech: NResWin-ComO-1.23-0.82
 "ComO_VisTrans" = 0.9   $ IP Tech: NResWin-ComO-1.23-0.82
 "ComO_WinCode" = G1000   $ IP Tech: NResWin-ComO-1.23-0.82
 "ComO_WinFrmFrac" = 0.17   $ IP Tech: NResWin-ComO-1.23-0.82
 "ComO_WinFrmU" = 1   $ IP Tech: NResWin-ComO-1.23-0.82
 "LtgMsrApplic" = ALL   $ IP Tech: NonResLtgRefPre
 "LtgSav_CFL" = 0   $ IP Tech: NonResLtgRefPre
 "LtgSav_EX" = 0   $ IP Tech: NonResLtgRefPre
 "LtgSav_HB" = 0   $ IP Tech: NonResLtgRefPre
 "LtgSav_LF" = 0   $ IP Tech: NonResLtgRefPre
 "LtgSav_SP" = 0   $ IP Tech: NonResLtgRefPre
 "CEIR_fPLR" = PSZ65to135_CEIR_fPLR   $ IP Tech: PkgAC1SpH-65to135-E10
 "CLoss_fPLR" = PSZ65to135_CLoss_fPLR   $ IP Tech: PkgAC1SpH-65to135-E10
 "COP" = -1   $ IP Tech: PkgAC1SpH-65to135-E10
 "HtgFuel" = Gas   $ IP Tech: PkgAC1SpH-65to135-E10
 "IEER" = 11.87   $ IP Tech: PkgAC1SpH-65to135-E10
 "NominalCap" = 15   $ IP Tech: PkgAC1SpH-65to135-E10
 "RatedEER" = 10   $ IP Tech: PkgAC1SpH-65to135-E10
 "RatedSupMtrClass" = HiEff   $ IP Tech: PkgAC1SpH-65to135-E10
 "SizeRange" = 65to135   $ IP Tech: PkgAC1SpH-65to135-E10
 "SupMotEff" = 0.84   $ IP Tech: PkgAC1SpH-65to135-E10
 "Tier" = 0   $ IP Tech: PkgAC1SpH-65to135-E10
 "FanPwrMult" = 1   $ IP Tech: PkgFurn-0.80AFUE
 "FurnAFUE" = 0.8   $ IP Tech: PkgFurn-0.80AFUE
 "FurnEt" = 0.82   $ IP Tech: PkgFurn-0.80AFUE
 "FurnaceAuxKW" = 0.1   $ IP Tech: PkgFurn-0.80AFUE
 "HIR_fPLR" = Furnace-HIR-fPLR   $ IP Tech: PkgFurn-0.80AFUE
 "VSM" = FALSE   $ IP Tech: PkgFurn-0.80AFUE
 "BFMult" = 1   $ IP Tech: RefgChg-NRes-Std
 "CoolEirMult" = 1   $ IP Tech: RefgChg-NRes-Std
 "SensCoolCapMult" = 1   $ IP Tech: RefgChg-NRes-Std
 "TotCoolCapMult" = 1   $ IP Tech: RefgChg-NRes-Std
 "AltAdjFactor" = 1.000254   $ Sizing
 "CAssFlo_L_Break_CZn" = 305.765   $ Sizing
 "CAssFlo_L_CompDC_CZn" = 179.7534   $ Sizing
 "CAssFlo_L_Conf_CZn" = 223.5642   $ Sizing
 "CAssFlo_L_CopyRm_CZn" = 79.9344   $ Sizing
 "CAssFlo_L_Hall_EZn" = 169.0005   $ Sizing
 "CAssFlo_L_Hall_NZn" = 69.60501   $ Sizing
 "CAssFlo_L_Hall_SZn" = 197.0585   $ Sizing
 "CAssFlo_L_Hall_WZn" = 179.5881   $ Sizing
 "CAssFlo_L_LobWait_EZn" = 397.4771   $ Sizing
 "CAssFlo_L_LobWait_NZn" = 146.629   $ Sizing
 "CAssFlo_L_LobWait_SZn" = 455.4706   $ Sizing
 "CAssFlo_L_LobWait_WZn" = 413.2605   $ Sizing
 "CAssFlo_L_MechElec_CZn" = 65.46051   $ Sizing
 "CAssFlo_L_OfficeOpn_CZn" = 75.38377   $ Sizing
 "CAssFlo_L_OfficeOpn_EZn" = 758.4076   $ Sizing
 "CAssFlo_L_OfficeOpn_NZn" = 310.6053   $ Sizing
 "CAssFlo_L_OfficeOpn_SZn" = 794.0201   $ Sizing
 "CAssFlo_L_OfficeOpn_WZn" = 755.6193   $ Sizing
 "CAssFlo_L_OfficeSm_EZn" = 659.4028   $ Sizing
 "CAssFlo_L_OfficeSm_NZn" = 245.3602   $ Sizing
 "CAssFlo_L_OfficeSm_SZn" = 711.9223   $ Sizing
 "CAssFlo_L_OfficeSm_WZn" = 670.0211   $ Sizing
 "CAssFlo_L_Restrm_CZn" = 85.44932   $ Sizing
 "CAssFlo_L_StorSm_CZn" = 31.44631   $ Sizing
 "CAssFlo_L_StorSm_EZn" = 164.0685   $ Sizing
 "CAssFlo_L_StorSm_NZn" = 77.0387   $ Sizing
 "CAssFlo_L_StorSm_SZn" = 187.5718   $ Sizing
 "CAssFlo_L_StorSm_WZn" = 164.9517   $ Sizing
 "CAssFlo_T_Conf_CZn" = 219.0821   $ Sizing
 "CAssFlo_T_Hall_EZn" = 185.6646   $ Sizing
 "CAssFlo_T_Hall_NZn" = 68.84879   $ Sizing
 "CAssFlo_T_Hall_SZn" = 224.9975   $ Sizing
 "CAssFlo_T_Hall_WZn" = 195.6649   $ Sizing
 "CAssFlo_T_OfficeOpn_CZn" = 64.6573   $ Sizing
 "CAssFlo_T_OfficeOpn_EZn" = 752.9519   $ Sizing
 "CAssFlo_T_OfficeOpn_NZn" = 321.7728   $ Sizing
 "CAssFlo_T_OfficeOpn_SZn" = 845.924   $ Sizing
 "CAssFlo_T_OfficeOpn_WZn" = 743.9634   $ Sizing
 "CAssFlo_T_OfficeSm_EZn" = 664.4737   $ Sizing
 "CAssFlo_T_OfficeSm_NZn" = 257.4303   $ Sizing
 "CAssFlo_T_OfficeSm_SZn" = 763.1518   $ Sizing
 "CAssFlo_T_OfficeSm_WZn" = 678.6173   $ Sizing
 "CAssFlo_T_Restrm_CZn" = 115.1551   $ Sizing
 "CAssFlo_T_StorSm_EZn" = 179.8727   $ Sizing
 "CAssFlo_T_StorSm_NZn" = 78.00642   $ Sizing
 "CAssFlo_T_StorSm_SZn" = 216.6145   $ Sizing
 "CAssFlo_T_StorSm_WZn" = 189.6   $ Sizing
 "CHRtFlo_Sys_L_Break_C" = 305.765   $ Sizing
 "CHRtFlo_Sys_L_CompDC_C" = 179.7534   $ Sizing
 "CHRtFlo_Sys_L_Conf_C" = 223.5642   $ Sizing
 "CHRtFlo_Sys_L_CopyRm_C" = 79.9344   $ Sizing
 "CHRtFlo_Sys_L_Hall_E" = 169.0005   $ Sizing
 "CHRtFlo_Sys_L_Hall_N" = 69.60501   $ Sizing
 "CHRtFlo_Sys_L_Hall_S" = 197.0585   $ Sizing
 "CHRtFlo_Sys_L_Hall_W" = 179.5881   $ Sizing
 "CHRtFlo_Sys_L_LobWait_E" = 397.4771   $ Sizing
 "CHRtFlo_Sys_L_LobWait_N" = 146.629   $ Sizing
 "CHRtFlo_Sys_L_LobWait_S" = 455.4706   $ Sizing
 "CHRtFlo_Sys_L_LobWait_W" = 413.2605   $ Sizing
 "CHRtFlo_Sys_L_MechElec_C" = 65.46051   $ Sizing
 "CHRtFlo_Sys_L_OfficeOpn_C" = 75.38377   $ Sizing
 "CHRtFlo_Sys_L_OfficeOpn_E" = 758.4076   $ Sizing
 "CHRtFlo_Sys_L_OfficeOpn_N" = 310.6053   $ Sizing
 "CHRtFlo_Sys_L_OfficeOpn_S" = 794.0201   $ Sizing
 "CHRtFlo_Sys_L_OfficeOpn_W" = 755.6193   $ Sizing
 "CHRtFlo_Sys_L_OfficeSm_E" = 659.4028   $ Sizing
 "CHRtFlo_Sys_L_OfficeSm_N" = 245.3602   $ Sizing
 "CHRtFlo_Sys_L_OfficeSm_S" = 711.9223   $ Sizing
 "CHRtFlo_Sys_L_OfficeSm_W" = 670.0211   $ Sizing
 "CHRtFlo_Sys_L_Restrm_C" = 85.44932   $ Sizing
 "CHRtFlo_Sys_L_StorSm_C" = 31.44631   $ Sizing
 "CHRtFlo_Sys_L_StorSm_E" = 164.0685   $ Sizing
 "CHRtFlo_Sys_L_StorSm_N" = 77.0387   $ Sizing
 "CHRtFlo_Sys_L_StorSm_S" = 187.5718   $ Sizing
 "CHRtFlo_Sys_L_StorSm_W" = 164.9517   $ Sizing
 "CHRtFlo_Sys_T_Conf_C" = 219.0821   $ Sizing
 "CHRtFlo_Sys_T_Hall_E" = 185.6646   $ Sizing
 "CHRtFlo_Sys_T_Hall_N" = 68.84879   $ Sizing
 "CHRtFlo_Sys_T_Hall_S" = 224.9975   $ Sizing
 "CHRtFlo_Sys_T_Hall_W" = 195.6649   $ Sizing
 "CHRtFlo_Sys_T_OfficeOpn_C" = 64.6573   $ Sizing
 "CHRtFlo_Sys_T_OfficeOpn_E" = 752.9519   $ Sizing
 "CHRtFlo_Sys_T_OfficeOpn_N" = 321.7728   $ Sizing
 "CHRtFlo_Sys_T_OfficeOpn_S" = 845.924   $ Sizing
 "CHRtFlo_Sys_T_OfficeOpn_W" = 743.9634   $ Sizing
 "CHRtFlo_Sys_T_OfficeSm_E" = 664.4737   $ Sizing
 "CHRtFlo_Sys_T_OfficeSm_N" = 257.4303   $ Sizing
 "CHRtFlo_Sys_T_OfficeSm_S" = 763.1518   $ Sizing
 "CHRtFlo_Sys_T_OfficeSm_W" = 678.6173   $ Sizing
 "CHRtFlo_Sys_T_Restrm_C" = 115.1551   $ Sizing
 "CHRtFlo_Sys_T_StorSm_E" = 179.8727   $ Sizing
 "CHRtFlo_Sys_T_StorSm_N" = 78.00642   $ Sizing
 "CHRtFlo_Sys_T_StorSm_S" = 216.6145   $ Sizing
 "CHRtFlo_Sys_T_StorSm_W" = 189.6   $ Sizing
 "CRtdFlo_Sys_L_Break_C" = 305.765   $ Sizing
 "CRtdFlo_Sys_L_CompDC_C" = 179.7534   $ Sizing
 "CRtdFlo_Sys_L_Conf_C" = 223.5642   $ Sizing
 "CRtdFlo_Sys_L_CopyRm_C" = 79.9344   $ Sizing
 "CRtdFlo_Sys_L_Hall_E" = 169.0005   $ Sizing
 "CRtdFlo_Sys_L_Hall_N" = 69.60501   $ Sizing
 "CRtdFlo_Sys_L_Hall_S" = 197.0585   $ Sizing
 "CRtdFlo_Sys_L_Hall_W" = 179.5881   $ Sizing
 "CRtdFlo_Sys_L_LobWait_E" = 397.4771   $ Sizing
 "CRtdFlo_Sys_L_LobWait_N" = 146.629   $ Sizing
 "CRtdFlo_Sys_L_LobWait_S" = 455.4706   $ Sizing
 "CRtdFlo_Sys_L_LobWait_W" = 413.2605   $ Sizing
 "CRtdFlo_Sys_L_MechElec_C" = 65.46051   $ Sizing
 "CRtdFlo_Sys_L_OfficeOpn_C" = 75.38377   $ Sizing
 "CRtdFlo_Sys_L_OfficeOpn_E" = 758.4076   $ Sizing
 "CRtdFlo_Sys_L_OfficeOpn_N" = 310.6053   $ Sizing
 "CRtdFlo_Sys_L_OfficeOpn_S" = 794.0201   $ Sizing
 "CRtdFlo_Sys_L_OfficeOpn_W" = 755.6193   $ Sizing
 "CRtdFlo_Sys_L_OfficeSm_E" = 659.4028   $ Sizing
 "CRtdFlo_Sys_L_OfficeSm_N" = 245.3602   $ Sizing
 "CRtdFlo_Sys_L_OfficeSm_S" = 711.9223   $ Sizing
 "CRtdFlo_Sys_L_OfficeSm_W" = 670.0211   $ Sizing
 "CRtdFlo_Sys_L_Restrm_C" = 85.44932   $ Sizing
 "CRtdFlo_Sys_L_StorSm_C" = 31.44631   $ Sizing
 "CRtdFlo_Sys_L_StorSm_E" = 164.0685   $ Sizing
 "CRtdFlo_Sys_L_StorSm_N" = 77.0387   $ Sizing
 "CRtdFlo_Sys_L_StorSm_S" = 187.5718   $ Sizing
 "CRtdFlo_Sys_L_StorSm_W" = 164.9517   $ Sizing
 "CRtdFlo_Sys_T_Conf_C" = 219.0821   $ Sizing
 "CRtdFlo_Sys_T_Hall_E" = 185.6646   $ Sizing
 "CRtdFlo_Sys_T_Hall_N" = 68.84879   $ Sizing
 "CRtdFlo_Sys_T_Hall_S" = 224.9975   $ Sizing
 "CRtdFlo_Sys_T_Hall_W" = 195.6649   $ Sizing
 "CRtdFlo_Sys_T_OfficeOpn_C" = 64.6573   $ Sizing
 "CRtdFlo_Sys_T_OfficeOpn_E" = 752.9519   $ Sizing
 "CRtdFlo_Sys_T_OfficeOpn_N" = 321.7728   $ Sizing
 "CRtdFlo_Sys_T_OfficeOpn_S" = 845.924   $ Sizing
 "CRtdFlo_Sys_T_OfficeOpn_W" = 743.9634   $ Sizing
 "CRtdFlo_Sys_T_OfficeSm_E" = 664.4737   $ Sizing
 "CRtdFlo_Sys_T_OfficeSm_N" = 257.4303   $ Sizing
 "CRtdFlo_Sys_T_OfficeSm_S" = 763.1518   $ Sizing
 "CRtdFlo_Sys_T_OfficeSm_W" = 678.6173   $ Sizing
 "CRtdFlo_Sys_T_Restrm_C" = 115.1551   $ Sizing
 "CRtdFlo_Sys_T_StorSm_E" = 179.8727   $ Sizing
 "CRtdFlo_Sys_T_StorSm_N" = 78.00642   $ Sizing
 "CRtdFlo_Sys_T_StorSm_S" = 216.6145   $ Sizing
 "CRtdFlo_Sys_T_StorSm_W" = 189.6   $ Sizing
 "CSupFlo_Sys_L_Break_C" = 305.765   $ Sizing
 "CSupFlo_Sys_L_CompDC_C" = 179.7534   $ Sizing
 "CSupFlo_Sys_L_Conf_C" = 223.5642   $ Sizing
 "CSupFlo_Sys_L_CopyRm_C" = 79.9344   $ Sizing
 "CSupFlo_Sys_L_Hall_E" = 169.0005   $ Sizing
 "CSupFlo_Sys_L_Hall_N" = 69.60501   $ Sizing
 "CSupFlo_Sys_L_Hall_S" = 197.0585   $ Sizing
 "CSupFlo_Sys_L_Hall_W" = 179.5881   $ Sizing
 "CSupFlo_Sys_L_LobWait_E" = 397.4771   $ Sizing
 "CSupFlo_Sys_L_LobWait_N" = 146.629   $ Sizing
 "CSupFlo_Sys_L_LobWait_S" = 455.4706   $ Sizing
 "CSupFlo_Sys_L_LobWait_W" = 413.2605   $ Sizing
 "CSupFlo_Sys_L_MechElec_C" = 65.46051   $ Sizing
 "CSupFlo_Sys_L_OfficeOpn_C" = 75.38377   $ Sizing
 "CSupFlo_Sys_L_OfficeOpn_E" = 758.4076   $ Sizing
 "CSupFlo_Sys_L_OfficeOpn_N" = 310.6053   $ Sizing
 "CSupFlo_Sys_L_OfficeOpn_S" = 794.0201   $ Sizing
 "CSupFlo_Sys_L_OfficeOpn_W" = 755.6193   $ Sizing
 "CSupFlo_Sys_L_OfficeSm_E" = 659.4028   $ Sizing
 "CSupFlo_Sys_L_OfficeSm_N" = 245.3602   $ Sizing
 "CSupFlo_Sys_L_OfficeSm_S" = 711.9223   $ Sizing
 "CSupFlo_Sys_L_OfficeSm_W" = 670.0211   $ Sizing
 "CSupFlo_Sys_L_Restrm_C" = 85.44932   $ Sizing
 "CSupFlo_Sys_L_StorSm_C" = 31.44631   $ Sizing
 "CSupFlo_Sys_L_StorSm_E" = 164.0685   $ Sizing
 "CSupFlo_Sys_L_StorSm_N" = 77.0387   $ Sizing
 "CSupFlo_Sys_L_StorSm_S" = 187.5718   $ Sizing
 "CSupFlo_Sys_L_StorSm_W" = 164.9517   $ Sizing
 "CSupFlo_Sys_T_Conf_C" = 219.0821   $ Sizing
 "CSupFlo_Sys_T_Hall_E" = 185.6646   $ Sizing
 "CSupFlo_Sys_T_Hall_N" = 68.84879   $ Sizing
 "CSupFlo_Sys_T_Hall_S" = 224.9975   $ Sizing
 "CSupFlo_Sys_T_Hall_W" = 195.6649   $ Sizing
 "CSupFlo_Sys_T_OfficeOpn_C" = 64.6573   $ Sizing
 "CSupFlo_Sys_T_OfficeOpn_E" = 752.9519   $ Sizing
 "CSupFlo_Sys_T_OfficeOpn_N" = 321.7728   $ Sizing
 "CSupFlo_Sys_T_OfficeOpn_S" = 845.924   $ Sizing
 "CSupFlo_Sys_T_OfficeOpn_W" = 743.9634   $ Sizing
 "CSupFlo_Sys_T_OfficeSm_E" = 664.4737   $ Sizing
 "CSupFlo_Sys_T_OfficeSm_N" = 257.4303   $ Sizing
 "CSupFlo_Sys_T_OfficeSm_S" = 763.1518   $ Sizing
 "CSupFlo_Sys_T_OfficeSm_W" = 678.6173   $ Sizing
 "CSupFlo_Sys_T_Restrm_C" = 115.1551   $ Sizing
 "CSupFlo_Sys_T_StorSm_E" = 179.8727   $ Sizing
 "CSupFlo_Sys_T_StorSm_N" = 78.00642   $ Sizing
 "CSupFlo_Sys_T_StorSm_S" = 216.6145   $ Sizing
 "CSupFlo_Sys_T_StorSm_W" = 189.6   $ Sizing
 "ClCap_Sys_L_Break_C" = 10480.71   $ Sizing
 "ClCap_Sys_L_CompDC_C" = 6161.409   $ Sizing
 "ClCap_Sys_L_Conf_C" = 9753.05   $ Sizing
 "ClCap_Sys_L_CopyRm_C" = 2739.912   $ Sizing
 "ClCap_Sys_L_Hall_E" = 5792.831   $ Sizing
 "ClCap_Sys_L_Hall_N" = 2385.851   $ Sizing
 "ClCap_Sys_L_Hall_S" = 6754.576   $ Sizing
 "ClCap_Sys_L_Hall_W" = 6155.742   $ Sizing
 "ClCap_Sys_L_LobWait_E" = 13624.32   $ Sizing
 "ClCap_Sys_L_LobWait_N" = 5026.001   $ Sizing
 "ClCap_Sys_L_LobWait_S" = 15612.17   $ Sizing
 "ClCap_Sys_L_LobWait_W" = 14165.33   $ Sizing
 "ClCap_Sys_L_MechElec_C" = 2243.79   $ Sizing
 "ClCap_Sys_L_OfficeOpn_C" = 2583.93   $ Sizing
 "ClCap_Sys_L_OfficeOpn_E" = 25995.94   $ Sizing
 "ClCap_Sys_L_OfficeOpn_N" = 10646.62   $ Sizing
 "ClCap_Sys_L_OfficeOpn_S" = 27216.63   $ Sizing
 "ClCap_Sys_L_OfficeOpn_W" = 25900.37   $ Sizing
 "ClCap_Sys_L_OfficeSm_E" = 22602.35   $ Sizing
 "ClCap_Sys_L_OfficeSm_N" = 8410.212   $ Sizing
 "ClCap_Sys_L_OfficeSm_S" = 24402.56   $ Sizing
 "ClCap_Sys_L_OfficeSm_W" = 22966.31   $ Sizing
 "ClCap_Sys_L_Restrm_C" = 2928.947   $ Sizing
 "ClCap_Sys_L_StorSm_C" = 1077.885   $ Sizing
 "ClCap_Sys_L_StorSm_E" = 5623.776   $ Sizing
 "ClCap_Sys_L_StorSm_N" = 2640.656   $ Sizing
 "ClCap_Sys_L_StorSm_S" = 6429.399   $ Sizing
 "ClCap_Sys_L_StorSm_W" = 5654.051   $ Sizing
 "ClCap_Sys_T_Conf_C" = 9557.519   $ Sizing
 "ClCap_Sys_T_Hall_E" = 6364.025   $ Sizing
 "ClCap_Sys_T_Hall_N" = 2359.93   $ Sizing
 "ClCap_Sys_T_Hall_S" = 7712.241   $ Sizing
 "ClCap_Sys_T_Hall_W" = 6706.807   $ Sizing
 "ClCap_Sys_T_OfficeOpn_C" = 2216.258   $ Sizing
 "ClCap_Sys_T_OfficeOpn_E" = 25808.93   $ Sizing
 "ClCap_Sys_T_OfficeOpn_N" = 11029.41   $ Sizing
 "ClCap_Sys_T_OfficeOpn_S" = 28995.74   $ Sizing
 "ClCap_Sys_T_OfficeOpn_W" = 25500.84   $ Sizing
 "ClCap_Sys_T_OfficeSm_E" = 22776.17   $ Sizing
 "ClCap_Sys_T_OfficeSm_N" = 8823.938   $ Sizing
 "ClCap_Sys_T_OfficeSm_S" = 26158.55   $ Sizing
 "ClCap_Sys_T_OfficeSm_W" = 23260.97   $ Sizing
 "ClCap_Sys_T_Restrm_C" = 3947.171   $ Sizing
 "ClCap_Sys_T_StorSm_E" = 6165.497   $ Sizing
 "ClCap_Sys_T_StorSm_N" = 2673.826   $ Sizing
 "ClCap_Sys_T_StorSm_S" = 7424.894   $ Sizing
 "ClCap_Sys_T_StorSm_W" = 6498.921   $ Sizing
 "HtCap_Sys_L_Break_C" = -17245.38   $ Sizing
 "HtCap_Sys_L_CompDC_C" = -8788.455   $ Sizing
 "HtCap_Sys_L_Conf_C" = -13058.21   $ Sizing
 "HtCap_Sys_L_CopyRm_C" = -4632.546   $ Sizing
 "HtCap_Sys_L_Hall_E" = -5851.296   $ Sizing
 "HtCap_Sys_L_Hall_N" = -2606.901   $ Sizing
 "HtCap_Sys_L_Hall_S" = -6455.491   $ Sizing
 "HtCap_Sys_L_Hall_W" = -6007.876   $ Sizing
 "HtCap_Sys_L_LobWait_E" = -14037.84   $ Sizing
 "HtCap_Sys_L_LobWait_N" = -6509.397   $ Sizing
 "HtCap_Sys_L_LobWait_S" = -15717.01   $ Sizing
 "HtCap_Sys_L_LobWait_W" = -14556.64   $ Sizing
 "HtCap_Sys_L_MechElec_C" = -2978.693   $ Sizing
 "HtCap_Sys_L_OfficeOpn_C" = -2876.639   $ Sizing
 "HtCap_Sys_L_OfficeOpn_E" = -25631.31   $ Sizing
 "HtCap_Sys_L_OfficeOpn_N" = -12719.71   $ Sizing
 "HtCap_Sys_L_OfficeOpn_S" = -26189.71   $ Sizing
 "HtCap_Sys_L_OfficeOpn_W" = -25827.19   $ Sizing
 "HtCap_Sys_L_OfficeSm_E" = -22459.04   $ Sizing
 "HtCap_Sys_L_OfficeSm_N" = -9750.78   $ Sizing
 "HtCap_Sys_L_OfficeSm_S" = -22916.51   $ Sizing
 "HtCap_Sys_L_OfficeSm_W" = -22240.45   $ Sizing
 "HtCap_Sys_L_Restrm_C" = -3015.021   $ Sizing
 "HtCap_Sys_L_StorSm_C" = -1328.111   $ Sizing
 "HtCap_Sys_L_StorSm_E" = -5813.386   $ Sizing
 "HtCap_Sys_L_StorSm_N" = -3172.923   $ Sizing
 "HtCap_Sys_L_StorSm_S" = -6344.738   $ Sizing
 "HtCap_Sys_L_StorSm_W" = -5837.002   $ Sizing
 "HtCap_Sys_T_Conf_C" = -13140.65   $ Sizing
 "HtCap_Sys_T_Hall_E" = -6857.988   $ Sizing
 "HtCap_Sys_T_Hall_N" = -2943.954   $ Sizing
 "HtCap_Sys_T_Hall_S" = -8054.393   $ Sizing
 "HtCap_Sys_T_Hall_W" = -7181.908   $ Sizing
 "HtCap_Sys_T_OfficeOpn_C" = -2784.032   $ Sizing
 "HtCap_Sys_T_OfficeOpn_E" = -28325.97   $ Sizing
 "HtCap_Sys_T_OfficeOpn_N" = -14166.49   $ Sizing
 "HtCap_Sys_T_OfficeOpn_S" = -30714.78   $ Sizing
 "HtCap_Sys_T_OfficeOpn_W" = -28299.07   $ Sizing
 "HtCap_Sys_T_OfficeSm_E" = -24738.26   $ Sizing
 "HtCap_Sys_T_OfficeSm_N" = -11105.23   $ Sizing
 "HtCap_Sys_T_OfficeSm_S" = -26933.23   $ Sizing
 "HtCap_Sys_T_OfficeSm_W" = -25004.11   $ Sizing
 "HtCap_Sys_T_Restrm_C" = -4469.735   $ Sizing
 "HtCap_Sys_T_StorSm_E" = -7198.882   $ Sizing
 "HtCap_Sys_T_StorSm_N" = -3702.769   $ Sizing
 "HtCap_Sys_T_StorSm_S" = -7693.479   $ Sizing
 "HtCap_Sys_T_StorSm_W" = -7505.14   $ Sizing
..

##include Templates\OfS_DX_SZ.inp
END ..
COMPUTE ..
STOP ..
