
Start DOESIM : Storage capacity =  75000000
Starting LOADS   : SAVE-FILES is On , weather is CZ09BURBANK-GLENDALE
Finished LOADS    BDL  1 : Memory (wds) =    170952, Time (sec) =    1.65
Starting REPORT  
Finished REPORT   BDL  1 : Memory (wds) =    329826, Time (sec) =    0.35
Starting HVAC    : SAVE-FILES is On , weather is CZ09BURBANK-GLENDALE
*** ERRORS or WARNINGS from HVAC     program. Examine output file for details.
Finished HVAC     BDL  1 : Memory (wds) =    244115, Time (sec) =    2.77
Starting REPORT  
Finished REPORT   BDL  1 : Memory (wds) =    335594, Time (sec) =    0.14
Starting HOURLY-R
Finished HOURLY-R BDL  1 : Memory (wds) =    528609, Time (sec) =    0.14
Starting ECONOMIC
Finished ECONOMIC BDL  1 : Memory (wds) =      1034, Time (sec) =    0.03
End   DOESIM : Total elapsed time of      5.1 seconds
RUN COMPLETE
