INPUT ..

##fileprefix C:\Users\jglasskatz\MASControl3\
##set1 IsSizing FALSE
##set1 CoolType DX
##set1 HeatType FURNACE
##set1 EU_HrRepVar 0
##set1 BldgVint 2017
##set1 BldgLoc CZ07

 ##set1 mBFMult 1   $ IP Tech: RefgChg-NRes-Std

PARAMETER
 "AltFactor" = 1.00051   $ IP Non-Tech
 "BF_fFlow" = SpltAC1Sp-ge45_BF_fFlow   $ Msr (Var)TechID: PreNResSplitAC-45to-PENo
 "BF_fT" = SpltAC1Sp-ge45_BF_fT   $ Msr (Var)TechID: PreNResSplitAC-45to-PENo
 "BldgEconoFlag" = 1   $ IP Non-Tech
 "Break_EWSF" = 1   $ IP Non-Tech
 "Break_LWSF" = 0.9   $ IP Non-Tech
 "CDD_DBHi10" = 80   $ IP Non-Tech
 "CDD_DBHi7" = 75   $ IP Non-Tech
 "CDD_DBHi8" = 75   $ IP Non-Tech
 "CDD_DBHi9" = 80   $ IP Non-Tech
 "CDD_DBRange10" = 20   $ IP Non-Tech
 "CDD_DBRange7" = 8   $ IP Non-Tech
 "CDD_DBRange8" = 6   $ IP Non-Tech
 "CDD_DBRange9" = 12   $ IP Non-Tech
 "CDD_Day10" = 15   $ IP Non-Tech
 "CDD_Day7" = 16   $ IP Non-Tech
 "CDD_Day8" = 20   $ IP Non-Tech
 "CDD_Day9" = 17   $ IP Non-Tech
 "CDD_HrHi10" = 11   $ IP Non-Tech
 "CDD_HrHi7" = 14   $ IP Non-Tech
 "CDD_HrHi8" = 11   $ IP Non-Tech
 "CDD_HrHi9" = 11   $ IP Non-Tech
 "CDD_HrLo10" = 4   $ IP Non-Tech
 "CDD_HrLo7" = 6   $ IP Non-Tech
 "CDD_HrLo8" = 1   $ IP Non-Tech
 "CDD_HrLo9" = 5   $ IP Non-Tech
 "CDD_WB10" = 64.57550049   $ IP Non-Tech
 "CDD_WB7" = 66.79747772   $ IP Non-Tech
 "CDD_WB8" = 69.55462646   $ IP Non-Tech
 "CDD_WB9" = 68.8309021   $ IP Non-Tech
 "CEIR_fPLR_Hot" = SpltAC1Sp-ge45_CEIR_fPLR_Hot   $ Msr (Var)TechID: PreNResSplitAC-45to-PENo
 "CEIR_fPLR_Mod" = SpltAC1Sp-ge45_CEIR_fPLR_Mod   $ Msr (Var)TechID: PreNResSplitAC-45to-PENo
 "CEIR_fPLR_Tem" = SpltAC1Sp-ge45_CEIR_fPLR_Tem   $ Msr (Var)TechID: PreNResSplitAC-45to-PENo
 "CLoss_fPLR_Hot" = SpltAC1Sp-ge45_CLoss_fPLR_Hot   $ Msr (Var)TechID: PreNResSplitAC-45to-PENo
 "CLoss_fPLR_Mod" = SpltAC1Sp-ge45_CLoss_fPLR_Mod   $ Msr (Var)TechID: PreNResSplitAC-45to-PENo
 "CLoss_fPLR_Tem" = SpltAC1Sp-ge45_CLoss_fPLR_Tem   $ Msr (Var)TechID: PreNResSplitAC-45to-PENo
 "COP47" = 0   $ Msr (Var)TechID: PreNResSplitAC-45to-PENo
 "CZ_Category" = Tem   $ IP Non-Tech
 "CapRange" = ge45   $ Msr (Var)TechID: PreNResSplitAC-45to-PENo
 "CfmPerBtuh" = 0.03263   $ Msr (Var)TechID: PreNResSplitAC-45to-PENo
 "ChwVintEconoFlag" = 1   $ IP Non-Tech
 "ClCap_fT" = SpltAC1Sp-ge45_ClCap_fT   $ Msr (Var)TechID: PreNResSplitAC-45to-PENo
 "ClSH_fT" = SpltAC1Sp-ge45_ClSH_fT   $ Msr (Var)TechID: PreNResSplitAC-45to-PENo
 "CoilBF" = 0.106518182   $ Msr (Var)TechID: PreNResSplitAC-45to-PENo
 "CompRoomData_EWSF" = 5   $ IP Non-Tech
 "CompRoomData_LWSF" = 1.05   $ IP Non-Tech
 "CondWPerBtuh" = 0   $ Msr (Var)TechID: PreNResSplitAC-45to-PENo
 "Conference_EWSF" = 1   $ IP Non-Tech
 "Conference_LWSF" = 1.2   $ IP Non-Tech
 "CoolSensCap" = 0.759218182   $ Msr (Var)TechID: PreNResSplitAC-45to-PENo
 "CoolSetT" = 45   $ IP Non-Tech
 "CoolType" = DX   $ IP Non-Tech
 "CoolingEIR" = 0.2466   $ Msr (Var)TechID: PreNResSplitAC-45to-PENo
 "CopyRoom_EWSF" = 1.5   $ IP Non-Tech
 "CopyRoom_LWSF" = 1.3   $ IP Non-Tech
 "CrnkEIR" = 0.002466   $ Msr (Var)TechID: PreNResSplitAC-45to-PENo
 "CrnkMaxT" = 50   $ Msr (Var)TechID: PreNResSplitAC-45to-PENo
 "DXType" = SplitSEER   $ Msr (Var)TechID: PreNResSplitAC-45to-PENo
 "DesCoolT" = 75   $ IP Non-Tech
 "DesHeatT" = 73   $ IP Non-Tech
 "EER" = 11.81793103   $ Msr (Var)TechID: PreNResSplitAC-45to-PENo
 "EIR_fT" = SpltAC1Sp-ge45_EIR_fT   $ Msr (Var)TechID: PreNResSplitAC-45to-PENo
 "EconoCtrl" = FIXED   $ Msr (Multi)TechID: PreNResSplitAC-45to-PENo
 "EconoEnthLimit" = 28   $ IP Non-Tech
 "EconoTempLimit" = 69   $ IP Non-Tech
 "Elevation" = 13   $ IP Non-Tech
 "FanEirPlr" = TwoSpeedFan   $ Msr (Var)TechID: PreNResSplitAC-45to-PENo
 "FanWPerCfm" = 0.294   $ Msr (Var)TechID: PreNResSplitAC-45to-PENo
 "HDD_CloudAmt1" = 0   $ IP Non-Tech
 "HDD_DBHi1" = 57   $ IP Non-Tech
 "HDD_DBRange1" = 13   $ IP Non-Tech
 "HDD_Day1" = 15   $ IP Non-Tech
 "HDD_HrHi1" = 13   $ IP Non-Tech
 "HDD_HrLo1" = 5   $ IP Non-Tech
 "HDD_WB1" = 43.6   $ IP Non-Tech
 "HDD_WindSpd1" = 11.5   $ IP Non-Tech
 "HIR_fT" = 0   $ Msr (Var)TechID: PreNResSplitAC-45to-PENo
 "HSPF" = 0   $ Msr (Var)TechID: PreNResSplitAC-45to-PENo
 "Hall_EWSF" = 0.2   $ IP Non-Tech
 "Hall_LWSF" = 0.6   $ IP Non-Tech
 "HeatSrc" = FURNACE   $ IP Non-Tech
 "HeatSrcTU" = HEAT-PUMP   $ IP Non-Tech
 "HeatType" = GasFurn   $ IP Non-Tech
 "HeatTypeTU" = HEAT-PUMP   $ IP Non-Tech
 "HtCap_fT" = 0   $ Msr (Var)TechID: PreNResSplitAC-45to-PENo
 "HtCoolCapRatio" = 0   $ Msr (Var)TechID: PreNResSplitAC-45to-PENo
 "HtgEIR" = 0   $ Msr (Var)TechID: PreNResSplitAC-45to-PENo
 "IndoorFanMode" = CONTINUOUS   $ IP Non-Tech
 "KT_TransferAir" = Yes   $ IP Non-Tech
 "Latitude" = 32.7   $ IP Non-Tech
 "LobbyWaiting_EWSF" = 0.5   $ IP Non-Tech
 "LobbyWaiting_LWSF" = 0.875   $ IP Non-Tech
 "Longitude" = 117.2   $ IP Non-Tech
 "LowSpdCapRatio" = 1   $ Msr (Var)TechID: PreNResSplitAC-45to-PENo
 "LowSpdCfmRatio" = 1   $ Msr (Var)TechID: PreNResSplitAC-45to-PENo
 "MZFanMechEff" = 0.58   $ IP Non-Tech
 "MZHasRetFan" = FALSE   $ IP Non-Tech
 "MZ_RFanWPerCfm" = 0.33   $ IP Non-Tech
 "MZ_SFanWPerCfm" = 0.75   $ IP Non-Tech
 "MZ_SupFanStatic" = 2.25   $ IP Non-Tech
 "MaxOAFrac" = 1   $ Msr (Multi)TechID: PreNResSplitAC-45to-PENo
 "MaxSupT_MZ" = 100   $ IP Non-Tech
 "MaxSupT_SZ" = 100   $ IP Non-Tech
 "MaxSupT_TU" = 90   $ IP Non-Tech
 "MechElecRoom_EWSF" = 0.2   $ IP Non-Tech
 "MechElecRoom_LWSF" = 0.55   $ IP Non-Tech
 "MinCfmPerSF" = 0.4   $ IP Non-Tech
 "MinSupT" = 55   $ IP Non-Tech
 "NumStages" = 1   $ Msr (Var)TechID: PreNResSplitAC-45to-PENo
 "OccCoolT" = 76   $ IP Non-Tech
 "OccHeatT" = 72   $ IP Non-Tech
 "OfficeOpen_EWSF" = 1.5   $ IP Non-Tech
 "OfficeOpen_LWSF" = 1.05   $ IP Non-Tech
 "OfficeSmall_EWSF" = 1.5   $ IP Non-Tech
 "OfficeSmall_LWSF" = 1.3   $ IP Non-Tech
 "PkgDxVintEconoFlag" = 1   $ IP Non-Tech
 "Restroom_EWSF" = 0.2   $ IP Non-Tech
 "Restroom_LWSF" = 0.6   $ IP Non-Tech
 "SEER" = 14   $ Msr (Var)TechID: PreNResSplitAC-45to-PENo
 "SZFanMechEff" = 0.58   $ IP Non-Tech
 "SZHasRetFan" = FALSE   $ IP Non-Tech
 "SZ_Is_2Spd" = TRUE   $ IP Non-Tech
 "SZ_SFanWPerCfm" = 0.46   $ IP Non-Tech
 "SZ_SupFanStatic" = 0.75   $ IP Non-Tech
 "Sector" = Any   $ Msr (Var)TechID: PreNResSplitAC-45to-PENo
 "StorageSmlCond_EWSF" = 0.2   $ IP Non-Tech
 "StorageSmlCond_LWSF" = 0.6   $ IP Non-Tech
 "SubType" = AC   $ Msr (Var)TechID: PreNResSplitAC-45to-PENo
 "TermUnitFanMechEff" = 1   $ IP Non-Tech
 "TermUnitFanMode" = INTERMITTENT   $ IP Non-Tech
 "TotCoolCap" = 52519.36364   $ Msr (Var)TechID: PreNResSplitAC-45to-PENo
 "TwrSetpt" = 80   $ IP Non-Tech
 "UnocCoolT" = 86   $ IP Non-Tech
 "UnocHeatT" = 62   $ IP Non-Tech
 "UseEconoVintApplic" = FALSE   $ Msr (Multi)TechID: PreNResSplitAC-45to-PENo
 "WlhpVintEconoFlag" = 1   $ IP Non-Tech
 "DuctDT" = 1   $ IP Tech: ComDuctInsul-1
 "DuctAirLoss" = 0   $ IP Tech: ComDuctLeak-0
 "DuctLossOAFrac" = 0   $ IP Tech: ComDuctLeak-0
 "ComRoofInsCalc" = FromUo   $ IP Tech: ComRoofIns-WFrm-0.05
 "ComRoofInsR" = -999   $ IP Tech: ComRoofIns-WFrm-0.05
 "ComRoofUo" = 0.05   $ IP Tech: ComRoofIns-WFrm-0.05
 "ComEWInsCalc" = FromUo   $ IP Tech: ComWallIns-WFrm-0.09
 "ComEWInsR" = -999   $ IP Tech: ComWallIns-WFrm-0.09
 "ComEWUo" = 0.09   $ IP Tech: ComWallIns-WFrm-0.09
 "ComN_SHGC" = 0.25   $ IP Tech: NResWin-ComN-0.36-0.25
 "ComN_UFactor" = 0.36   $ IP Tech: NResWin-ComN-0.36-0.25
 "ComN_VisTrans" = 0.41   $ IP Tech: NResWin-ComN-0.36-0.25
 "ComN_WinCode" = G2668   $ IP Tech: NResWin-ComN-0.36-0.25
 "ComN_WinFrmFrac" = 0.17   $ IP Tech: NResWin-ComN-0.36-0.25
 "ComN_WinFrmU" = 0.3   $ IP Tech: NResWin-ComN-0.36-0.25
 "ComO_SHGC" = 0.25   $ IP Tech: NResWin-ComO-0.36-0.25
 "ComO_UFactor" = 0.36   $ IP Tech: NResWin-ComO-0.36-0.25
 "ComO_VisTrans" = 0.41   $ IP Tech: NResWin-ComO-0.36-0.25
 "ComO_WinCode" = G2668   $ IP Tech: NResWin-ComO-0.36-0.25
 "ComO_WinFrmFrac" = 0.17   $ IP Tech: NResWin-ComO-0.36-0.25
 "ComO_WinFrmU" = 0.3   $ IP Tech: NResWin-ComO-0.36-0.25
 "LtgMsrApplic" = ALL   $ IP Tech: NonResLtgRefPre
 "LtgSav_CFL" = 0   $ IP Tech: NonResLtgRefPre
 "LtgSav_EX" = 0   $ IP Tech: NonResLtgRefPre
 "LtgSav_HB" = 0   $ IP Tech: NonResLtgRefPre
 "LtgSav_LF" = 0   $ IP Tech: NonResLtgRefPre
 "LtgSav_SP" = 0   $ IP Tech: NonResLtgRefPre
 "CEIR_fPLR" = PSZ65to135_CEIR_fPLR   $ IP Tech: PkgAC2SpP-65to135-E11
 "CLoss_fPLR" = PSZ65to135_CLoss_fPLR   $ IP Tech: PkgAC2SpP-65to135-E11
 "COP" = -1   $ IP Tech: PkgAC2SpP-65to135-E11
 "HtgFuel" = Gas   $ IP Tech: PkgAC2SpP-65to135-E11
 "IEER" = 13.35   $ IP Tech: PkgAC2SpP-65to135-E11
 "NominalCap" = 15   $ IP Tech: PkgAC2SpP-65to135-E11
 "RatedEER" = 11   $ IP Tech: PkgAC2SpP-65to135-E11
 "RatedSupMtrClass" = Premium   $ IP Tech: PkgAC2SpP-65to135-E11
 "SizeRange" = 65to135   $ IP Tech: PkgAC2SpP-65to135-E11
 "SupMotEff" = 0.865   $ IP Tech: PkgAC2SpP-65to135-E11
 "Tier" = 0   $ IP Tech: PkgAC2SpP-65to135-E11
 "FanPwrMult" = 1   $ IP Tech: PkgFurn-0.80AFUE
 "FurnAFUE" = 0.8   $ IP Tech: PkgFurn-0.80AFUE
 "FurnEt" = 0.82   $ IP Tech: PkgFurn-0.80AFUE
 "FurnaceAuxKW" = 0.1   $ IP Tech: PkgFurn-0.80AFUE
 "HIR_fPLR" = Furnace-HIR-fPLR   $ IP Tech: PkgFurn-0.80AFUE
 "VSM" = FALSE   $ IP Tech: PkgFurn-0.80AFUE
 "BFMult" = 1   $ IP Tech: RefgChg-NRes-Std
 "CoolEirMult" = 1   $ IP Tech: RefgChg-NRes-Std
 "SensCoolCapMult" = 1   $ IP Tech: RefgChg-NRes-Std
 "TotCoolCapMult" = 1   $ IP Tech: RefgChg-NRes-Std
 "AltAdjFactor" = 1.000512   $ Sizing
 "CAssFlo_L_Break_CZn" = 302.0007   $ Sizing
 "CAssFlo_L_CompDC_CZn" = 169.0828   $ Sizing
 "CAssFlo_L_Conf_CZn" = 217.3798   $ Sizing
 "CAssFlo_L_CopyRm_CZn" = 79.00375   $ Sizing
 "CAssFlo_L_Hall_EZn" = 104.3114   $ Sizing
 "CAssFlo_L_Hall_NZn" = 32.02679   $ Sizing
 "CAssFlo_L_Hall_SZn" = 108.6191   $ Sizing
 "CAssFlo_L_Hall_WZn" = 102.8809   $ Sizing
 "CAssFlo_L_LobWait_EZn" = 246.5055   $ Sizing
 "CAssFlo_L_LobWait_NZn" = 73.82162   $ Sizing
 "CAssFlo_L_LobWait_SZn" = 245.5791   $ Sizing
 "CAssFlo_L_LobWait_WZn" = 243.0825   $ Sizing
 "CAssFlo_L_MechElec_CZn" = 65.47738   $ Sizing
 "CAssFlo_L_OfficeOpn_CZn" = 72.8542   $ Sizing
 "CAssFlo_L_OfficeOpn_EZn" = 489.0721   $ Sizing
 "CAssFlo_L_OfficeOpn_NZn" = 256.766   $ Sizing
 "CAssFlo_L_OfficeOpn_SZn" = 462.1212   $ Sizing
 "CAssFlo_L_OfficeOpn_WZn" = 473.1615   $ Sizing
 "CAssFlo_L_OfficeSm_EZn" = 411.607   $ Sizing
 "CAssFlo_L_OfficeSm_NZn" = 197.1707   $ Sizing
 "CAssFlo_L_OfficeSm_SZn" = 402.2818   $ Sizing
 "CAssFlo_L_OfficeSm_WZn" = 410.9707   $ Sizing
 "CAssFlo_L_Restrm_CZn" = 85.47134   $ Sizing
 "CAssFlo_L_StorSm_CZn" = 33.1376   $ Sizing
 "CAssFlo_L_StorSm_EZn" = 101.036   $ Sizing
 "CAssFlo_L_StorSm_NZn" = 44.10817   $ Sizing
 "CAssFlo_L_StorSm_SZn" = 103.0641   $ Sizing
 "CAssFlo_L_StorSm_WZn" = 93.1278   $ Sizing
 "CAssFlo_T_Conf_CZn" = 218.2912   $ Sizing
 "CAssFlo_T_Hall_EZn" = 114.8076   $ Sizing
 "CAssFlo_T_Hall_NZn" = 38.89667   $ Sizing
 "CAssFlo_T_Hall_SZn" = 116.935   $ Sizing
 "CAssFlo_T_Hall_WZn" = 107.9411   $ Sizing
 "CAssFlo_T_OfficeOpn_CZn" = 67.80196   $ Sizing
 "CAssFlo_T_OfficeOpn_EZn" = 478.4196   $ Sizing
 "CAssFlo_T_OfficeOpn_NZn" = 259.8987   $ Sizing
 "CAssFlo_T_OfficeOpn_SZn" = 474.2482   $ Sizing
 "CAssFlo_T_OfficeOpn_WZn" = 459.8883   $ Sizing
 "CAssFlo_T_OfficeSm_EZn" = 405.6118   $ Sizing
 "CAssFlo_T_OfficeSm_NZn" = 200.1919   $ Sizing
 "CAssFlo_T_OfficeSm_SZn" = 416.1469   $ Sizing
 "CAssFlo_T_OfficeSm_WZn" = 403.0061   $ Sizing
 "CAssFlo_T_Restrm_CZn" = 123.1303   $ Sizing
 "CAssFlo_T_StorSm_EZn" = 113.6505   $ Sizing
 "CAssFlo_T_StorSm_NZn" = 49.00908   $ Sizing
 "CAssFlo_T_StorSm_SZn" = 114.5301   $ Sizing
 "CAssFlo_T_StorSm_WZn" = 106.3799   $ Sizing
 "CHRtFlo_Sys_L_Break_C" = 302.0007   $ Sizing
 "CHRtFlo_Sys_L_CompDC_C" = 169.0828   $ Sizing
 "CHRtFlo_Sys_L_Conf_C" = 217.3798   $ Sizing
 "CHRtFlo_Sys_L_CopyRm_C" = 79.00375   $ Sizing
 "CHRtFlo_Sys_L_Hall_E" = 104.3114   $ Sizing
 "CHRtFlo_Sys_L_Hall_N" = 32.02679   $ Sizing
 "CHRtFlo_Sys_L_Hall_S" = 108.6191   $ Sizing
 "CHRtFlo_Sys_L_Hall_W" = 102.8809   $ Sizing
 "CHRtFlo_Sys_L_LobWait_E" = 246.5055   $ Sizing
 "CHRtFlo_Sys_L_LobWait_N" = 73.82162   $ Sizing
 "CHRtFlo_Sys_L_LobWait_S" = 245.5791   $ Sizing
 "CHRtFlo_Sys_L_LobWait_W" = 243.0825   $ Sizing
 "CHRtFlo_Sys_L_MechElec_C" = 65.47738   $ Sizing
 "CHRtFlo_Sys_L_OfficeOpn_C" = 72.8542   $ Sizing
 "CHRtFlo_Sys_L_OfficeOpn_E" = 489.0721   $ Sizing
 "CHRtFlo_Sys_L_OfficeOpn_N" = 256.766   $ Sizing
 "CHRtFlo_Sys_L_OfficeOpn_S" = 462.1212   $ Sizing
 "CHRtFlo_Sys_L_OfficeOpn_W" = 473.1615   $ Sizing
 "CHRtFlo_Sys_L_OfficeSm_E" = 411.607   $ Sizing
 "CHRtFlo_Sys_L_OfficeSm_N" = 197.1707   $ Sizing
 "CHRtFlo_Sys_L_OfficeSm_S" = 402.2818   $ Sizing
 "CHRtFlo_Sys_L_OfficeSm_W" = 410.9707   $ Sizing
 "CHRtFlo_Sys_L_Restrm_C" = 85.47134   $ Sizing
 "CHRtFlo_Sys_L_StorSm_C" = 33.1376   $ Sizing
 "CHRtFlo_Sys_L_StorSm_E" = 101.036   $ Sizing
 "CHRtFlo_Sys_L_StorSm_N" = 44.10817   $ Sizing
 "CHRtFlo_Sys_L_StorSm_S" = 103.0641   $ Sizing
 "CHRtFlo_Sys_L_StorSm_W" = 93.1278   $ Sizing
 "CHRtFlo_Sys_T_Conf_C" = 218.2912   $ Sizing
 "CHRtFlo_Sys_T_Hall_E" = 114.8076   $ Sizing
 "CHRtFlo_Sys_T_Hall_N" = 38.89667   $ Sizing
 "CHRtFlo_Sys_T_Hall_S" = 116.935   $ Sizing
 "CHRtFlo_Sys_T_Hall_W" = 107.9411   $ Sizing
 "CHRtFlo_Sys_T_OfficeOpn_C" = 67.80196   $ Sizing
 "CHRtFlo_Sys_T_OfficeOpn_E" = 478.4196   $ Sizing
 "CHRtFlo_Sys_T_OfficeOpn_N" = 259.8987   $ Sizing
 "CHRtFlo_Sys_T_OfficeOpn_S" = 474.2482   $ Sizing
 "CHRtFlo_Sys_T_OfficeOpn_W" = 459.8883   $ Sizing
 "CHRtFlo_Sys_T_OfficeSm_E" = 405.6118   $ Sizing
 "CHRtFlo_Sys_T_OfficeSm_N" = 200.1919   $ Sizing
 "CHRtFlo_Sys_T_OfficeSm_S" = 416.1469   $ Sizing
 "CHRtFlo_Sys_T_OfficeSm_W" = 403.0061   $ Sizing
 "CHRtFlo_Sys_T_Restrm_C" = 123.1303   $ Sizing
 "CHRtFlo_Sys_T_StorSm_E" = 113.6505   $ Sizing
 "CHRtFlo_Sys_T_StorSm_N" = 49.00908   $ Sizing
 "CHRtFlo_Sys_T_StorSm_S" = 114.5301   $ Sizing
 "CHRtFlo_Sys_T_StorSm_W" = 106.3799   $ Sizing
 "CRtdFlo_Sys_L_Break_C" = 302.0007   $ Sizing
 "CRtdFlo_Sys_L_CompDC_C" = 169.0828   $ Sizing
 "CRtdFlo_Sys_L_Conf_C" = 217.3798   $ Sizing
 "CRtdFlo_Sys_L_CopyRm_C" = 79.00375   $ Sizing
 "CRtdFlo_Sys_L_Hall_E" = 104.3114   $ Sizing
 "CRtdFlo_Sys_L_Hall_N" = 32.02679   $ Sizing
 "CRtdFlo_Sys_L_Hall_S" = 108.6191   $ Sizing
 "CRtdFlo_Sys_L_Hall_W" = 102.8809   $ Sizing
 "CRtdFlo_Sys_L_LobWait_E" = 246.5055   $ Sizing
 "CRtdFlo_Sys_L_LobWait_N" = 73.82162   $ Sizing
 "CRtdFlo_Sys_L_LobWait_S" = 245.5791   $ Sizing
 "CRtdFlo_Sys_L_LobWait_W" = 243.0825   $ Sizing
 "CRtdFlo_Sys_L_MechElec_C" = 65.47738   $ Sizing
 "CRtdFlo_Sys_L_OfficeOpn_C" = 72.8542   $ Sizing
 "CRtdFlo_Sys_L_OfficeOpn_E" = 489.0721   $ Sizing
 "CRtdFlo_Sys_L_OfficeOpn_N" = 256.766   $ Sizing
 "CRtdFlo_Sys_L_OfficeOpn_S" = 462.1212   $ Sizing
 "CRtdFlo_Sys_L_OfficeOpn_W" = 473.1615   $ Sizing
 "CRtdFlo_Sys_L_OfficeSm_E" = 411.607   $ Sizing
 "CRtdFlo_Sys_L_OfficeSm_N" = 197.1707   $ Sizing
 "CRtdFlo_Sys_L_OfficeSm_S" = 402.2818   $ Sizing
 "CRtdFlo_Sys_L_OfficeSm_W" = 410.9707   $ Sizing
 "CRtdFlo_Sys_L_Restrm_C" = 85.47134   $ Sizing
 "CRtdFlo_Sys_L_StorSm_C" = 33.1376   $ Sizing
 "CRtdFlo_Sys_L_StorSm_E" = 101.036   $ Sizing
 "CRtdFlo_Sys_L_StorSm_N" = 44.10817   $ Sizing
 "CRtdFlo_Sys_L_StorSm_S" = 103.0641   $ Sizing
 "CRtdFlo_Sys_L_StorSm_W" = 93.1278   $ Sizing
 "CRtdFlo_Sys_T_Conf_C" = 218.2912   $ Sizing
 "CRtdFlo_Sys_T_Hall_E" = 114.8076   $ Sizing
 "CRtdFlo_Sys_T_Hall_N" = 38.89667   $ Sizing
 "CRtdFlo_Sys_T_Hall_S" = 116.935   $ Sizing
 "CRtdFlo_Sys_T_Hall_W" = 107.9411   $ Sizing
 "CRtdFlo_Sys_T_OfficeOpn_C" = 67.80196   $ Sizing
 "CRtdFlo_Sys_T_OfficeOpn_E" = 478.4196   $ Sizing
 "CRtdFlo_Sys_T_OfficeOpn_N" = 259.8987   $ Sizing
 "CRtdFlo_Sys_T_OfficeOpn_S" = 474.2482   $ Sizing
 "CRtdFlo_Sys_T_OfficeOpn_W" = 459.8883   $ Sizing
 "CRtdFlo_Sys_T_OfficeSm_E" = 405.6118   $ Sizing
 "CRtdFlo_Sys_T_OfficeSm_N" = 200.1919   $ Sizing
 "CRtdFlo_Sys_T_OfficeSm_S" = 416.1469   $ Sizing
 "CRtdFlo_Sys_T_OfficeSm_W" = 403.0061   $ Sizing
 "CRtdFlo_Sys_T_Restrm_C" = 123.1303   $ Sizing
 "CRtdFlo_Sys_T_StorSm_E" = 113.6505   $ Sizing
 "CRtdFlo_Sys_T_StorSm_N" = 49.00908   $ Sizing
 "CRtdFlo_Sys_T_StorSm_S" = 114.5301   $ Sizing
 "CRtdFlo_Sys_T_StorSm_W" = 106.3799   $ Sizing
 "CSupFlo_Sys_L_Break_C" = 302.0007   $ Sizing
 "CSupFlo_Sys_L_CompDC_C" = 169.0828   $ Sizing
 "CSupFlo_Sys_L_Conf_C" = 217.3798   $ Sizing
 "CSupFlo_Sys_L_CopyRm_C" = 79.00375   $ Sizing
 "CSupFlo_Sys_L_Hall_E" = 104.3114   $ Sizing
 "CSupFlo_Sys_L_Hall_N" = 32.02679   $ Sizing
 "CSupFlo_Sys_L_Hall_S" = 108.6191   $ Sizing
 "CSupFlo_Sys_L_Hall_W" = 102.8809   $ Sizing
 "CSupFlo_Sys_L_LobWait_E" = 246.5055   $ Sizing
 "CSupFlo_Sys_L_LobWait_N" = 73.82162   $ Sizing
 "CSupFlo_Sys_L_LobWait_S" = 245.5791   $ Sizing
 "CSupFlo_Sys_L_LobWait_W" = 243.0825   $ Sizing
 "CSupFlo_Sys_L_MechElec_C" = 65.47738   $ Sizing
 "CSupFlo_Sys_L_OfficeOpn_C" = 72.8542   $ Sizing
 "CSupFlo_Sys_L_OfficeOpn_E" = 489.0721   $ Sizing
 "CSupFlo_Sys_L_OfficeOpn_N" = 256.766   $ Sizing
 "CSupFlo_Sys_L_OfficeOpn_S" = 462.1212   $ Sizing
 "CSupFlo_Sys_L_OfficeOpn_W" = 473.1615   $ Sizing
 "CSupFlo_Sys_L_OfficeSm_E" = 411.607   $ Sizing
 "CSupFlo_Sys_L_OfficeSm_N" = 197.1707   $ Sizing
 "CSupFlo_Sys_L_OfficeSm_S" = 402.2818   $ Sizing
 "CSupFlo_Sys_L_OfficeSm_W" = 410.9707   $ Sizing
 "CSupFlo_Sys_L_Restrm_C" = 85.47134   $ Sizing
 "CSupFlo_Sys_L_StorSm_C" = 33.1376   $ Sizing
 "CSupFlo_Sys_L_StorSm_E" = 101.036   $ Sizing
 "CSupFlo_Sys_L_StorSm_N" = 44.10817   $ Sizing
 "CSupFlo_Sys_L_StorSm_S" = 103.0641   $ Sizing
 "CSupFlo_Sys_L_StorSm_W" = 93.1278   $ Sizing
 "CSupFlo_Sys_T_Conf_C" = 218.2912   $ Sizing
 "CSupFlo_Sys_T_Hall_E" = 114.8076   $ Sizing
 "CSupFlo_Sys_T_Hall_N" = 38.89667   $ Sizing
 "CSupFlo_Sys_T_Hall_S" = 116.935   $ Sizing
 "CSupFlo_Sys_T_Hall_W" = 107.9411   $ Sizing
 "CSupFlo_Sys_T_OfficeOpn_C" = 67.80196   $ Sizing
 "CSupFlo_Sys_T_OfficeOpn_E" = 478.4196   $ Sizing
 "CSupFlo_Sys_T_OfficeOpn_N" = 259.8987   $ Sizing
 "CSupFlo_Sys_T_OfficeOpn_S" = 474.2482   $ Sizing
 "CSupFlo_Sys_T_OfficeOpn_W" = 459.8883   $ Sizing
 "CSupFlo_Sys_T_OfficeSm_E" = 405.6118   $ Sizing
 "CSupFlo_Sys_T_OfficeSm_N" = 200.1919   $ Sizing
 "CSupFlo_Sys_T_OfficeSm_S" = 416.1469   $ Sizing
 "CSupFlo_Sys_T_OfficeSm_W" = 403.0061   $ Sizing
 "CSupFlo_Sys_T_Restrm_C" = 123.1303   $ Sizing
 "CSupFlo_Sys_T_StorSm_E" = 113.6505   $ Sizing
 "CSupFlo_Sys_T_StorSm_N" = 49.00908   $ Sizing
 "CSupFlo_Sys_T_StorSm_S" = 114.5301   $ Sizing
 "CSupFlo_Sys_T_StorSm_W" = 106.3799   $ Sizing
 "ClCap_Sys_L_Break_C" = 10349.01   $ Sizing
 "ClCap_Sys_L_CompDC_C" = 5794.16   $ Sizing
 "ClCap_Sys_L_Conf_C" = 9480.813   $ Sizing
 "ClCap_Sys_L_CopyRm_C" = 2707.314   $ Sizing
 "ClCap_Sys_L_Hall_E" = 3574.562   $ Sizing
 "ClCap_Sys_L_Hall_N" = 1097.499   $ Sizing
 "ClCap_Sys_L_Hall_S" = 3722.178   $ Sizing
 "ClCap_Sys_L_Hall_W" = 3525.542   $ Sizing
 "ClCap_Sys_L_LobWait_E" = 8447.294   $ Sizing
 "ClCap_Sys_L_LobWait_N" = 2529.732   $ Sizing
 "ClCap_Sys_L_LobWait_S" = 8415.546   $ Sizing
 "ClCap_Sys_L_LobWait_W" = 8329.992   $ Sizing
 "ClCap_Sys_L_MechElec_C" = 2243.79   $ Sizing
 "ClCap_Sys_L_OfficeOpn_C" = 2496.58   $ Sizing
 "ClCap_Sys_L_OfficeOpn_E" = 16759.61   $ Sizing
 "ClCap_Sys_L_OfficeOpn_N" = 8798.901   $ Sizing
 "ClCap_Sys_L_OfficeOpn_S" = 15836.05   $ Sizing
 "ClCap_Sys_L_OfficeOpn_W" = 16214.38   $ Sizing
 "ClCap_Sys_L_OfficeSm_E" = 14105.02   $ Sizing
 "ClCap_Sys_L_OfficeSm_N" = 6756.678   $ Sizing
 "ClCap_Sys_L_OfficeSm_S" = 13785.46   $ Sizing
 "ClCap_Sys_L_OfficeSm_W" = 14083.21   $ Sizing
 "ClCap_Sys_L_Restrm_C" = 2928.947   $ Sizing
 "ClCap_Sys_L_StorSm_C" = 1135.565   $ Sizing
 "ClCap_Sys_L_StorSm_E" = 3462.32   $ Sizing
 "ClCap_Sys_L_StorSm_N" = 1511.506   $ Sizing
 "ClCap_Sys_L_StorSm_S" = 3531.819   $ Sizing
 "ClCap_Sys_L_StorSm_W" = 3191.319   $ Sizing
 "ClCap_Sys_T_Conf_C" = 9520.563   $ Sizing
 "ClCap_Sys_T_Hall_E" = 3934.246   $ Sizing
 "ClCap_Sys_T_Hall_N" = 1332.918   $ Sizing
 "ClCap_Sys_T_Hall_S" = 4007.15   $ Sizing
 "ClCap_Sys_T_Hall_W" = 3698.946   $ Sizing
 "ClCap_Sys_T_OfficeOpn_C" = 2323.449   $ Sizing
 "ClCap_Sys_T_OfficeOpn_E" = 16394.57   $ Sizing
 "ClCap_Sys_T_OfficeOpn_N" = 8906.252   $ Sizing
 "ClCap_Sys_T_OfficeOpn_S" = 16251.62   $ Sizing
 "ClCap_Sys_T_OfficeOpn_W" = 15759.53   $ Sizing
 "ClCap_Sys_T_OfficeSm_E" = 13899.58   $ Sizing
 "ClCap_Sys_T_OfficeSm_N" = 6860.209   $ Sizing
 "ClCap_Sys_T_OfficeSm_S" = 14260.59   $ Sizing
 "ClCap_Sys_T_OfficeSm_W" = 13810.28   $ Sizing
 "ClCap_Sys_T_Restrm_C" = 4219.449   $ Sizing
 "ClCap_Sys_T_StorSm_E" = 3894.595   $ Sizing
 "ClCap_Sys_T_StorSm_N" = 1679.452   $ Sizing
 "ClCap_Sys_T_StorSm_S" = 3924.737   $ Sizing
 "ClCap_Sys_T_StorSm_W" = 3645.446   $ Sizing
 "HtCap_Sys_L_Break_C" = -14881.53   $ Sizing
 "HtCap_Sys_L_CompDC_C" = -8275.435   $ Sizing
 "HtCap_Sys_L_Conf_C" = -11111.87   $ Sizing
 "HtCap_Sys_L_CopyRm_C" = -3996.845   $ Sizing
 "HtCap_Sys_L_Hall_E" = -3518.653   $ Sizing
 "HtCap_Sys_L_Hall_N" = -1325.401   $ Sizing
 "HtCap_Sys_L_Hall_S" = -3553.94   $ Sizing
 "HtCap_Sys_L_Hall_W" = -3489.977   $ Sizing
 "HtCap_Sys_L_LobWait_E" = -8935.985   $ Sizing
 "HtCap_Sys_L_LobWait_N" = -3750.073   $ Sizing
 "HtCap_Sys_L_LobWait_S" = -9005.182   $ Sizing
 "HtCap_Sys_L_LobWait_W" = -8849.29   $ Sizing
 "HtCap_Sys_L_MechElec_C" = -2697.264   $ Sizing
 "HtCap_Sys_L_OfficeOpn_C" = -2614.478   $ Sizing
 "HtCap_Sys_L_OfficeOpn_E" = -16323.3   $ Sizing
 "HtCap_Sys_L_OfficeOpn_N" = -9948.084   $ Sizing
 "HtCap_Sys_L_OfficeOpn_S" = -15527.06   $ Sizing
 "HtCap_Sys_L_OfficeOpn_W" = -16208.87   $ Sizing
 "HtCap_Sys_L_OfficeSm_E" = -13488.46   $ Sizing
 "HtCap_Sys_L_OfficeSm_N" = -7447.076   $ Sizing
 "HtCap_Sys_L_OfficeSm_S" = -13131.2   $ Sizing
 "HtCap_Sys_L_OfficeSm_W" = -13488.2   $ Sizing
 "HtCap_Sys_L_Restrm_C" = -2862.199   $ Sizing
 "HtCap_Sys_L_StorSm_C" = -1259.647   $ Sizing
 "HtCap_Sys_L_StorSm_E" = -3571.632   $ Sizing
 "HtCap_Sys_L_StorSm_N" = -1913.037   $ Sizing
 "HtCap_Sys_L_StorSm_S" = -3592.764   $ Sizing
 "HtCap_Sys_L_StorSm_W" = -3413.072   $ Sizing
 "HtCap_Sys_T_Conf_C" = -11385.06   $ Sizing
 "HtCap_Sys_T_Hall_E" = -4267.678   $ Sizing
 "HtCap_Sys_T_Hall_N" = -1714.818   $ Sizing
 "HtCap_Sys_T_Hall_S" = -4405.504   $ Sizing
 "HtCap_Sys_T_Hall_W" = -4101.756   $ Sizing
 "HtCap_Sys_T_OfficeOpn_C" = -2750.223   $ Sizing
 "HtCap_Sys_T_OfficeOpn_E" = -17451.51   $ Sizing
 "HtCap_Sys_T_OfficeOpn_N" = -10799.88   $ Sizing
 "HtCap_Sys_T_OfficeOpn_S" = -17849.51   $ Sizing
 "HtCap_Sys_T_OfficeOpn_W" = -17466.74   $ Sizing
 "HtCap_Sys_T_OfficeSm_E" = -14682.7   $ Sizing
 "HtCap_Sys_T_OfficeSm_N" = -8234.135   $ Sizing
 "HtCap_Sys_T_OfficeSm_S" = -15232.88   $ Sizing
 "HtCap_Sys_T_OfficeSm_W" = -14951.35   $ Sizing
 "HtCap_Sys_T_Restrm_C" = -4529.384   $ Sizing
 "HtCap_Sys_T_StorSm_E" = -4550.01   $ Sizing
 "HtCap_Sys_T_StorSm_N" = -2338.008   $ Sizing
 "HtCap_Sys_T_StorSm_S" = -4443.74   $ Sizing
 "HtCap_Sys_T_StorSm_W" = -4289.227   $ Sizing
..

##include Templates\OfS_DX_SZ.inp
END ..
COMPUTE ..
STOP ..
