INPUT ..

##fileprefix C:\Users\jglasskatz\MASControl3\
##set1 IsSizing FALSE
##set1 CoolType ACH
##set1 HeatType ELECTRIC
##set1 EU_HrRepVar 1
##set1 BldgVint 2007
##set1 BldgLoc CZ01

 ##set1 mChlrCap_fT DEFAULT   $ IP Tech: ChlrScrA-lt150-9.5EER
 ##set1 mChlrEIR_fPLR DEFAULT   $ IP Tech: ChlrScrA-lt150-9.5EER
 ##set1 mChlrEIR_fT DEFAULT   $ IP Tech: ChlrScrA-lt150-9.5EER
 ##set1 mChlrType Screw   $ IP Tech: ChlrScrA-lt150-9.5EER
 ##set1 mCondType Air   $ IP Tech: ChlrScrA-lt150-9.5EER
 ##set1 mSetupLdChlr FALSE   $ IP Tech: ChlrScrA-lt150-9.5EER
 ##set1 mCHW_FlowCtrl VarSec   $ IP Tech: ChwFlowCtrlVarSec

PARAMETER
 "AltFactor" = 1.00753   $ IP Non-Tech
 "BldgEconoFlag" = 1   $ IP Non-Tech
 "BlrPrimLp" = BlrPrimLoop   $ IP Non-Tech
 "Break_EWSF" = 1   $ IP Non-Tech
 "Break_LWSF" = 1.1   $ IP Non-Tech
 "CDD_DBHi10" = 65   $ IP Non-Tech
 "CDD_DBHi7" = 68   $ IP Non-Tech
 "CDD_DBHi8" = 66   $ IP Non-Tech
 "CDD_DBHi9" = 77   $ IP Non-Tech
 "CDD_DBRange10" = 17   $ IP Non-Tech
 "CDD_DBRange7" = 11   $ IP Non-Tech
 "CDD_DBRange8" = 10   $ IP Non-Tech
 "CDD_DBRange9" = 29   $ IP Non-Tech
 "CDD_Day10" = 15   $ IP Non-Tech
 "CDD_Day7" = 16   $ IP Non-Tech
 "CDD_Day8" = 20   $ IP Non-Tech
 "CDD_Day9" = 17   $ IP Non-Tech
 "CDD_HrHi10" = 12   $ IP Non-Tech
 "CDD_HrHi7" = 12   $ IP Non-Tech
 "CDD_HrHi8" = 13   $ IP Non-Tech
 "CDD_HrHi9" = 17   $ IP Non-Tech
 "CDD_HrLo10" = 6   $ IP Non-Tech
 "CDD_HrLo7" = 3   $ IP Non-Tech
 "CDD_HrLo8" = 8   $ IP Non-Tech
 "CDD_HrLo9" = 4   $ IP Non-Tech
 "CDD_WB10" = 57.53039551   $ IP Non-Tech
 "CDD_WB7" = 59.29250717   $ IP Non-Tech
 "CDD_WB8" = 60.75350189   $ IP Non-Tech
 "CDD_WB9" = 61.08643341   $ IP Non-Tech
 "CZ_Category" = Tem   $ IP Non-Tech
 "ChwDesignDT" = 12   $ IP Non-Tech
 "ChwPipeHead" = 62   $ IP Non-Tech
 "ChwRetDT" = 0.03   $ IP Non-Tech
 "ChwSupDT" = 0.05   $ IP Non-Tech
 "ChwT" = 44   $ IP Non-Tech
 "ChwVintEconoFlag" = 1   $ IP Non-Tech
 "CompRoomData_EWSF" = 5   $ IP Non-Tech
 "CompRoomData_LWSF" = 1.2   $ IP Non-Tech
 "Conference_EWSF" = 1   $ IP Non-Tech
 "Conference_LWSF" = 1.4   $ IP Non-Tech
 "CoolSetT" = 55   $ IP Non-Tech
 "CoolType" = ACH   $ IP Non-Tech
 "CopyRoom_EWSF" = 1.5   $ IP Non-Tech
 "CopyRoom_LWSF" = 1.3   $ IP Non-Tech
 "DesCoolT" = 75   $ IP Non-Tech
 "DesHeatT" = 73   $ IP Non-Tech
 "EconoEnthLimit" = 28   $ IP Non-Tech
 "EconoTempLimit" = 70   $ IP Non-Tech
 "Elevation" = 203   $ IP Non-Tech
 "HDD_CloudAmt1" = 0   $ IP Non-Tech
 "HDD_DBHi1" = 53   $ IP Non-Tech
 "HDD_DBRange1" = 20   $ IP Non-Tech
 "HDD_Day1" = 15   $ IP Non-Tech
 "HDD_HrHi1" = 14   $ IP Non-Tech
 "HDD_HrLo1" = 6   $ IP Non-Tech
 "HDD_WB1" = 42.3   $ IP Non-Tech
 "HDD_WindSpd1" = 12.7   $ IP Non-Tech
 "Hall_EWSF" = 0.2   $ IP Non-Tech
 "Hall_LWSF" = 0.6   $ IP Non-Tech
 "HeatSrc" = ELECTRIC   $ IP Non-Tech
 "HeatSrcTU" = ELECTRIC   $ IP Non-Tech
 "HeatType" = Elec   $ IP Non-Tech
 "HeatTypeTU" = ELECTRIC   $ IP Non-Tech
 "HwDesignDT" = 30   $ IP Non-Tech
 "HwPipeHead" = 40   $ IP Non-Tech
 "IndoorFanMode" = CONTINUOUS   $ IP Non-Tech
 "KT_TransferAir" = No   $ IP Non-Tech
 "Latitude" = 40.8   $ IP Non-Tech
 "LobbyWaiting_EWSF" = 0.5   $ IP Non-Tech
 "LobbyWaiting_LWSF" = 1.3   $ IP Non-Tech
 "Longitude" = 124.2   $ IP Non-Tech
 "MZFanMechEff" = 0.68   $ IP Non-Tech
 "MZHasRetFan" = TRUE   $ IP Non-Tech
 "MZ_RFanWPerCfm" = 0.33   $ IP Non-Tech
 "MZ_SFanWPerCfm" = 0.75   $ IP Non-Tech
 "MaxSupT_MZ" = 95   $ IP Non-Tech
 "MaxSupT_SZ" = 105   $ IP Non-Tech
 "MaxSupT_TU" = 105   $ IP Non-Tech
 "MechElecRoom_EWSF" = 0.2   $ IP Non-Tech
 "MechElecRoom_LWSF" = 0.7   $ IP Non-Tech
 "MinCfmPerSF" = 0.4   $ IP Non-Tech
 "MinSupT" = 55   $ IP Non-Tech
 "OccCoolT" = 76   $ IP Non-Tech
 "OccHeatT" = 72   $ IP Non-Tech
 "OfficeOpen_EWSF" = 1.5   $ IP Non-Tech
 "OfficeOpen_LWSF" = 1.2   $ IP Non-Tech
 "OfficeSmall_EWSF" = 1.5   $ IP Non-Tech
 "OfficeSmall_LWSF" = 1.3   $ IP Non-Tech
 "PkgDxVintEconoFlag" = 0   $ IP Non-Tech
 "ReheatDeltaT" = 40   $ IP Non-Tech
 "Restroom_EWSF" = 0.2   $ IP Non-Tech
 "Restroom_LWSF" = 0.6   $ IP Non-Tech
 "SZFanMechEff" = 0.54   $ IP Non-Tech
 "SZHasRetFan" = TRUE   $ IP Non-Tech
 "SZ_Is_2Spd" = FALSE   $ IP Non-Tech
 "SZ_SFanWPerCfm" = 0.46   $ IP Non-Tech
 "StorageSmlCond_EWSF" = 0.2   $ IP Non-Tech
 "StorageSmlCond_LWSF" = 0.6   $ IP Non-Tech
 "T24GlzTbl" = CZTbl   $ IP Non-Tech
 "TermUnitFanMechEff" = 1   $ IP Non-Tech
 "TermUnitFanMode" = INTERMITTENT   $ IP Non-Tech
 "TermUnitFanWPerCfm" = 0.175   $ IP Non-Tech
 "TwrSetpt" = 80   $ IP Non-Tech
 "UnocCoolT" = 86   $ IP Non-Tech
 "UnocHeatT" = 62   $ IP Non-Tech
 "VAVMinFlow" = 0.3   $ IP Non-Tech
 "WlhpVintEconoFlag" = 0   $ IP Non-Tech
 "EconoCtrl" = OA-TEMP   $ IP Tech: AirEcono-OATemp
 "MaxOAFrac" = 0.85   $ IP Tech: AirEcono-OATemp
 "UseEconoVintApplic" = FALSE   $ IP Tech: AirEcono-OATemp
 "ChlrCapRange" = lt150   $ IP Tech: ChlrScrA-lt150-9.5EER
 "ChlrEff" = 9.52   $ IP Tech: ChlrScrA-lt150-9.5EER
 "ChlrType" = Screw   $ IP Tech: ChlrScrA-lt150-9.5EER
 "ChlrVSD" = NO   $ IP Tech: ChlrScrA-lt150-9.5EER
 "CmpPerCkt" = NA   $ IP Tech: ChlrScrA-lt150-9.5EER
 "CondRelief" = FALSE   $ IP Tech: ChlrScrA-lt150-9.5EER
 "CondType" = Air   $ IP Tech: ChlrScrA-lt150-9.5EER
 "EffUnits" = EER   $ IP Tech: ChlrScrA-lt150-9.5EER
 "IPLV" = -99   $ IP Tech: ChlrScrA-lt150-9.5EER
 "CHW_FlowCtrl" = VarSec   $ IP Tech: ChwFlowCtrlVarSec
 "CHW_HdSensLoc" = AT-COILS   $ IP Tech: ChwFlowCtrlVarSec
 "CHW_HdSptCtrl" = FIXED   $ IP Tech: ChwFlowCtrlVarSec
 "CHWP_Encl" = Any   $ IP Tech: ChwPumpMtrEff-HI
 "CHWP_MotClass" = HI-EFF   $ IP Tech: ChwPumpMtrEff-HI
 "CHWP_MotHP" = Any   $ IP Tech: ChwPumpMtrEff-HI
 "CHWP_NEMA_DC" =    $ IP Tech: ChwPumpMtrEff-HI
 "CHWP_RPM" = Any   $ IP Tech: ChwPumpMtrEff-HI
 "CHWP_Volt" =    $ IP Tech: ChwPumpMtrEff-HI
 "CHW_MaxT" = 54   $ IP Tech: ChwTempCtrlReset
 "CHW_TempCtrl" = LOAD-RESET   $ IP Tech: ChwTempCtrlReset
 "DuctDT" = 1   $ IP Tech: ComDuctInsul-1
 "DuctAirLoss" = 0   $ IP Tech: ComDuctLeak-0
 "DuctLossOAFrac" = 0   $ IP Tech: ComDuctLeak-0
 "ComRoofInsCalc" = FromUo   $ IP Tech: ComRoofIns-WFrm-0.05
 "ComRoofInsR" = -999   $ IP Tech: ComRoofIns-WFrm-0.05
 "ComRoofUo" = 0.05   $ IP Tech: ComRoofIns-WFrm-0.05
 "ComEWInsCalc" = FromUo   $ IP Tech: ComWallIns-WFrm-0.08
 "ComEWInsR" = -999   $ IP Tech: ComWallIns-WFrm-0.08
 "ComEWUo" = 0.08   $ IP Tech: ComWallIns-WFrm-0.08
 "MotorClass" = HI-EFF   $ IP Tech: ExhFanMtr-High
 "ComN_SHGC" = 0.47   $ IP Tech: NResWin-ComN-0.47-0.47
 "ComN_UFactor" = 0.47   $ IP Tech: NResWin-ComN-0.47-0.47
 "ComN_VisTrans" = 0.75   $ IP Tech: NResWin-ComN-0.47-0.47
 "ComN_WinCode" = G2633   $ IP Tech: NResWin-ComN-0.47-0.47
 "ComN_WinFrmFrac" = 0.17   $ IP Tech: NResWin-ComN-0.47-0.47
 "ComN_WinFrmU" = 0.3   $ IP Tech: NResWin-ComN-0.47-0.47
 "ComO_SHGC" = 0.43   $ IP Tech: NResWin-ComO-0.47-0.43
 "ComO_UFactor" = 0.47   $ IP Tech: NResWin-ComO-0.47-0.43
 "ComO_VisTrans" = 0.68   $ IP Tech: NResWin-ComO-0.47-0.43
 "ComO_WinCode" = G2663   $ IP Tech: NResWin-ComO-0.47-0.43
 "ComO_WinFrmFrac" = 0.17   $ IP Tech: NResWin-ComO-0.47-0.43
 "ComO_WinFrmU" = 0.3   $ IP Tech: NResWin-ComO-0.47-0.43
 "LtgMsrApplic" = ALL   $ IP Tech: NonResLtgRefPre
 "LtgSav_CFL" = 0   $ IP Tech: NonResLtgRefPre
 "LtgSav_EX" = 0   $ IP Tech: NonResLtgRefPre
 "LtgSav_HB" = 0   $ IP Tech: NonResLtgRefPre
 "LtgSav_LF" = 0   $ IP Tech: NonResLtgRefPre
 "LtgSav_SP" = 0   $ IP Tech: NonResLtgRefPre
 "SATempCtrl" = WARMEST   $ IP Tech: SATempCtrl-Warmest
 "FanEIR_fPLR" = "Variable Speed Drive FPLR"   $ IP Tech: VAVCtrl-VSD-AnyHP
 "Fan_Control" = VSD   $ IP Tech: VAVCtrl-VSD-AnyHP
 "Motor_Horsepower" = AnyHP   $ IP Tech: VAVCtrl-VSD-AnyHP
 "AltAdjFactor" = 1.007532   $ Sizing
 "CAssFlo_L_Break_CZn" = 251.8575   $ Sizing
 "CAssFlo_L_CompDC_CZn" = 145.6322   $ Sizing
 "CAssFlo_L_Conf_CZn" = 175.3827   $ Sizing
 "CAssFlo_L_CopyRm_CZn" = 50.72986   $ Sizing
 "CAssFlo_L_Hall_EZn" = 89.04349   $ Sizing
 "CAssFlo_L_Hall_NZn" = 66.07078   $ Sizing
 "CAssFlo_L_Hall_SZn" = 107.6196   $ Sizing
 "CAssFlo_L_Hall_WZn" = 94.86324   $ Sizing
 "CAssFlo_L_LobWait_EZn" = 220.9132   $ Sizing
 "CAssFlo_L_LobWait_NZn" = 136.5386   $ Sizing
 "CAssFlo_L_LobWait_SZn" = 253.7047   $ Sizing
 "CAssFlo_L_LobWait_WZn" = 220.6071   $ Sizing
 "CAssFlo_L_MechElec_CZn" = 65.93681   $ Sizing
 "CAssFlo_L_OfficeOpn_CZn" = 44.27816   $ Sizing
 "CAssFlo_L_OfficeOpn_EZn" = 460.3225   $ Sizing
 "CAssFlo_L_OfficeOpn_NZn" = 209.0526   $ Sizing
 "CAssFlo_L_OfficeOpn_SZn" = 484.1561   $ Sizing
 "CAssFlo_L_OfficeOpn_WZn" = 444.6414   $ Sizing
 "CAssFlo_L_OfficeSm_EZn" = 388.3575   $ Sizing
 "CAssFlo_L_OfficeSm_NZn" = 159.0884   $ Sizing
 "CAssFlo_L_OfficeSm_SZn" = 427.5867   $ Sizing
 "CAssFlo_L_OfficeSm_WZn" = 388.8202   $ Sizing
 "CAssFlo_L_Restrm_CZn" = 86.07105   $ Sizing
 "CAssFlo_L_StorSm_CZn" = 32.7266   $ Sizing
 "CAssFlo_L_StorSm_EZn" = 79.01704   $ Sizing
 "CAssFlo_L_StorSm_NZn" = 71.14912   $ Sizing
 "CAssFlo_L_StorSm_SZn" = 92.40427   $ Sizing
 "CAssFlo_L_StorSm_WZn" = 82.42749   $ Sizing
 "CAssFlo_T_Conf_CZn" = 187.634   $ Sizing
 "CAssFlo_T_Hall_EZn" = 108.2271   $ Sizing
 "CAssFlo_T_Hall_NZn" = 62.57328   $ Sizing
 "CAssFlo_T_Hall_SZn" = 126.6581   $ Sizing
 "CAssFlo_T_Hall_WZn" = 108.7084   $ Sizing
 "CAssFlo_T_OfficeOpn_CZn" = 44.21655   $ Sizing
 "CAssFlo_T_OfficeOpn_EZn" = 475.7303   $ Sizing
 "CAssFlo_T_OfficeOpn_NZn" = 246.2255   $ Sizing
 "CAssFlo_T_OfficeOpn_SZn" = 527.395   $ Sizing
 "CAssFlo_T_OfficeOpn_WZn" = 459.4188   $ Sizing
 "CAssFlo_T_OfficeSm_EZn" = 414.4518   $ Sizing
 "CAssFlo_T_OfficeSm_NZn" = 192.2961   $ Sizing
 "CAssFlo_T_OfficeSm_SZn" = 468.0268   $ Sizing
 "CAssFlo_T_OfficeSm_WZn" = 401.9455   $ Sizing
 "CAssFlo_T_Restrm_CZn" = 87.5486   $ Sizing
 "CAssFlo_T_StorSm_EZn" = 99.71905   $ Sizing
 "CAssFlo_T_StorSm_NZn" = 68.68398   $ Sizing
 "CAssFlo_T_StorSm_SZn" = 116.4612   $ Sizing
 "CAssFlo_T_StorSm_WZn" = 102.6139   $ Sizing
 "CBF_Sys_L" = 0.04411351   $ Sizing
 "CBF_Sys_T" = 0.04348519   $ Sizing
 "CHRtFlo_L_Break_CZn" = 185.4956   $ Sizing
 "CHRtFlo_L_CompDC_CZn" = 43.68967   $ Sizing
 "CHRtFlo_L_Conf_CZn" = 143.3872   $ Sizing
 "CHRtFlo_L_CopyRm_CZn" = 50.72986   $ Sizing
 "CHRtFlo_L_Hall_EZn" = 61.65991   $ Sizing
 "CHRtFlo_L_Hall_NZn" = 66.07078   $ Sizing
 "CHRtFlo_L_Hall_SZn" = 40.69162   $ Sizing
 "CHRtFlo_L_Hall_WZn" = 60.97283   $ Sizing
 "CHRtFlo_L_LobWait_EZn" = 126.6417   $ Sizing
 "CHRtFlo_L_LobWait_NZn" = 136.5386   $ Sizing
 "CHRtFlo_L_LobWait_SZn" = 88.90134   $ Sizing
 "CHRtFlo_L_LobWait_WZn" = 125.2265   $ Sizing
 "CHRtFlo_L_MechElec_CZn" = 39.02624   $ Sizing
 "CHRtFlo_L_OfficeOpn_CZn" = 37.05471   $ Sizing
 "CHRtFlo_L_OfficeOpn_EZn" = 138.0968   $ Sizing
 "CHRtFlo_L_OfficeOpn_NZn" = 152.6105   $ Sizing
 "CHRtFlo_L_OfficeOpn_SZn" = 145.2468   $ Sizing
 "CHRtFlo_L_OfficeOpn_WZn" = 137.9204   $ Sizing
 "CHRtFlo_L_OfficeSm_EZn" = 133.0257   $ Sizing
 "CHRtFlo_L_OfficeSm_NZn" = 142.4595   $ Sizing
 "CHRtFlo_L_OfficeSm_SZn" = 128.276   $ Sizing
 "CHRtFlo_L_OfficeSm_WZn" = 128.3326   $ Sizing
 "CHRtFlo_L_Restrm_CZn" = 55.93321   $ Sizing
 "CHRtFlo_L_StorSm_CZn" = 32.7266   $ Sizing
 "CHRtFlo_L_StorSm_EZn" = 65.92277   $ Sizing
 "CHRtFlo_L_StorSm_NZn" = 71.14912   $ Sizing
 "CHRtFlo_L_StorSm_SZn" = 44.43279   $ Sizing
 "CHRtFlo_L_StorSm_WZn" = 59.47984   $ Sizing
 "CHRtFlo_T_Conf_CZn" = 143.3872   $ Sizing
 "CHRtFlo_T_Hall_EZn" = 59.58294   $ Sizing
 "CHRtFlo_T_Hall_NZn" = 62.57328   $ Sizing
 "CHRtFlo_T_Hall_SZn" = 48.13107   $ Sizing
 "CHRtFlo_T_Hall_WZn" = 58.30262   $ Sizing
 "CHRtFlo_T_OfficeOpn_CZn" = 26.98412   $ Sizing
 "CHRtFlo_T_OfficeOpn_EZn" = 142.7191   $ Sizing
 "CHRtFlo_T_OfficeOpn_NZn" = 146.0043   $ Sizing
 "CHRtFlo_T_OfficeOpn_SZn" = 158.2185   $ Sizing
 "CHRtFlo_T_OfficeOpn_WZn" = 137.8256   $ Sizing
 "CHRtFlo_T_OfficeSm_EZn" = 130.0077   $ Sizing
 "CHRtFlo_T_OfficeSm_NZn" = 133.2276   $ Sizing
 "CHRtFlo_T_OfficeSm_SZn" = 140.4081   $ Sizing
 "CHRtFlo_T_OfficeSm_WZn" = 126.0155   $ Sizing
 "CHRtFlo_T_Restrm_CZn" = 87.5486   $ Sizing
 "CHRtFlo_T_StorSm_EZn" = 64.83549   $ Sizing
 "CHRtFlo_T_StorSm_NZn" = 68.68398   $ Sizing
 "CHRtFlo_T_StorSm_SZn" = 49.07922   $ Sizing
 "CHRtFlo_T_StorSm_WZn" = 63.22417   $ Sizing
 "CRtdFlo_Sys_L" = 3711.35   $ Sizing
 "CRtdFlo_Sys_T" = 3199.975   $ Sizing
 "CSupFlo_Sys_L" = 3711.35   $ Sizing
 "CSupFlo_Sys_T" = 3199.975   $ Sizing
 "Cap_Chiller1" = 0.1881408   $ Sizing
 "ClCap_Sys_L" = 98648.89   $ Sizing
 "ClCap_Sys_T" = 85994.22   $ Sizing
 "HRtEDB_L_Break_CZn" = 55.65222   $ Sizing
 "HRtEDB_L_CompDC_CZn" = 55.65222   $ Sizing
 "HRtEDB_L_Conf_CZn" = 55.65222   $ Sizing
 "HRtEDB_L_CopyRm_CZn" = 55.65222   $ Sizing
 "HRtEDB_L_Hall_EZn" = 55.10862   $ Sizing
 "HRtEDB_L_Hall_NZn" = 55.10862   $ Sizing
 "HRtEDB_L_Hall_SZn" = 55.10862   $ Sizing
 "HRtEDB_L_Hall_WZn" = 55.10862   $ Sizing
 "HRtEDB_L_LobWait_EZn" = 55.10862   $ Sizing
 "HRtEDB_L_LobWait_NZn" = 55.10862   $ Sizing
 "HRtEDB_L_LobWait_SZn" = 55.10862   $ Sizing
 "HRtEDB_L_LobWait_WZn" = 55.10862   $ Sizing
 "HRtEDB_L_MechElec_CZn" = 55.10862   $ Sizing
 "HRtEDB_L_OfficeOpn_CZn" = 55.65222   $ Sizing
 "HRtEDB_L_OfficeOpn_EZn" = 55.65222   $ Sizing
 "HRtEDB_L_OfficeOpn_NZn" = 55.65222   $ Sizing
 "HRtEDB_L_OfficeOpn_SZn" = 55.65222   $ Sizing
 "HRtEDB_L_OfficeOpn_WZn" = 55.65222   $ Sizing
 "HRtEDB_L_OfficeSm_EZn" = 55.65222   $ Sizing
 "HRtEDB_L_OfficeSm_NZn" = 55.65222   $ Sizing
 "HRtEDB_L_OfficeSm_SZn" = 55.65222   $ Sizing
 "HRtEDB_L_OfficeSm_WZn" = 55.65222   $ Sizing
 "HRtEDB_L_Restrm_CZn" = 55.10862   $ Sizing
 "HRtEDB_L_StorSm_CZn" = 55.10862   $ Sizing
 "HRtEDB_L_StorSm_EZn" = 55.10862   $ Sizing
 "HRtEDB_L_StorSm_NZn" = 55.10862   $ Sizing
 "HRtEDB_L_StorSm_SZn" = 55.10862   $ Sizing
 "HRtEDB_L_StorSm_WZn" = 55.10862   $ Sizing
 "HRtEDB_T_Conf_CZn" = 55.36332   $ Sizing
 "HRtEDB_T_Hall_EZn" = 53.60776   $ Sizing
 "HRtEDB_T_Hall_NZn" = 53.60776   $ Sizing
 "HRtEDB_T_Hall_SZn" = 53.60776   $ Sizing
 "HRtEDB_T_Hall_WZn" = 53.60776   $ Sizing
 "HRtEDB_T_OfficeOpn_CZn" = 53.60776   $ Sizing
 "HRtEDB_T_OfficeOpn_EZn" = 55.36332   $ Sizing
 "HRtEDB_T_OfficeOpn_NZn" = 55.36332   $ Sizing
 "HRtEDB_T_OfficeOpn_SZn" = 55.36332   $ Sizing
 "HRtEDB_T_OfficeOpn_WZn" = 55.36332   $ Sizing
 "HRtEDB_T_OfficeSm_EZn" = 55.36332   $ Sizing
 "HRtEDB_T_OfficeSm_NZn" = 55.36332   $ Sizing
 "HRtEDB_T_OfficeSm_SZn" = 55.36332   $ Sizing
 "HRtEDB_T_OfficeSm_WZn" = 55.36332   $ Sizing
 "HRtEDB_T_Restrm_CZn" = 53.60776   $ Sizing
 "HRtEDB_T_StorSm_EZn" = 53.60776   $ Sizing
 "HRtEDB_T_StorSm_NZn" = 53.60776   $ Sizing
 "HRtEDB_T_StorSm_SZn" = 53.60776   $ Sizing
 "HRtEDB_T_StorSm_WZn" = 53.60776   $ Sizing
 "HtCap_L_Break_CZn" = -7862.923   $ Sizing
 "HtCap_L_CompDC_CZn" = -1851.95   $ Sizing
 "HtCap_L_Conf_CZn" = -6078.002   $ Sizing
 "HtCap_L_CopyRm_CZn" = -2150.374   $ Sizing
 "HtCap_L_Hall_EZn" = -2650.417   $ Sizing
 "HtCap_L_Hall_NZn" = -2840.016   $ Sizing
 "HtCap_L_Hall_SZn" = -1749.107   $ Sizing
 "HtCap_L_Hall_WZn" = -2620.884   $ Sizing
 "HtCap_L_LobWait_EZn" = -5443.624   $ Sizing
 "HtCap_L_LobWait_NZn" = -5869.037   $ Sizing
 "HtCap_L_LobWait_SZn" = -3821.375   $ Sizing
 "HtCap_L_LobWait_WZn" = -5382.794   $ Sizing
 "HtCap_L_MechElec_CZn" = -1677.521   $ Sizing
 "HtCap_L_OfficeOpn_CZn" = -1570.702   $ Sizing
 "HtCap_L_OfficeOpn_EZn" = -5853.746   $ Sizing
 "HtCap_L_OfficeOpn_NZn" = -6468.966   $ Sizing
 "HtCap_L_OfficeOpn_SZn" = -6156.829   $ Sizing
 "HtCap_L_OfficeOpn_WZn" = -5846.269   $ Sizing
 "HtCap_L_OfficeSm_EZn" = -5638.788   $ Sizing
 "HtCap_L_OfficeSm_NZn" = -6038.675   $ Sizing
 "HtCap_L_OfficeSm_SZn" = -5437.457   $ Sizing
 "HtCap_L_OfficeSm_WZn" = -5439.854   $ Sizing
 "HtCap_L_Restrm_CZn" = -2404.258   $ Sizing
 "HtCap_L_StorSm_CZn" = -1406.735   $ Sizing
 "HtCap_L_StorSm_EZn" = -2833.654   $ Sizing
 "HtCap_L_StorSm_NZn" = -3058.306   $ Sizing
 "HtCap_L_StorSm_SZn" = -1909.919   $ Sizing
 "HtCap_L_StorSm_WZn" = -2556.708   $ Sizing
 "HtCap_T_Conf_CZn" = -6122.635   $ Sizing
 "HtCap_T_Hall_EZn" = -2657.411   $ Sizing
 "HtCap_T_Hall_NZn" = -2790.781   $ Sizing
 "HtCap_T_Hall_SZn" = -2146.655   $ Sizing
 "HtCap_T_Hall_WZn" = -2600.309   $ Sizing
 "HtCap_T_OfficeOpn_CZn" = -1203.497   $ Sizing
 "HtCap_T_OfficeOpn_EZn" = -6094.104   $ Sizing
 "HtCap_T_OfficeOpn_NZn" = -6234.381   $ Sizing
 "HtCap_T_OfficeOpn_SZn" = -6755.929   $ Sizing
 "HtCap_T_OfficeOpn_WZn" = -5885.154   $ Sizing
 "HtCap_T_OfficeSm_EZn" = -5551.33   $ Sizing
 "HtCap_T_OfficeSm_NZn" = -5688.82   $ Sizing
 "HtCap_T_OfficeSm_SZn" = -5995.423   $ Sizing
 "HtCap_T_OfficeSm_WZn" = -5380.86   $ Sizing
 "HtCap_T_Restrm_CZn" = -3904.685   $ Sizing
 "HtCap_T_StorSm_EZn" = -2891.676   $ Sizing
 "HtCap_T_StorSm_NZn" = -3063.319   $ Sizing
 "HtCap_T_StorSm_SZn" = -2188.943   $ Sizing
 "HtCap_T_StorSm_WZn" = -2819.811   $ Sizing
 "LpFlo_BlrPrimLoop" = 0   $ Sizing
 "LpFlo_ChlrPrimLoop" = 27.89009   $ Sizing
 "LpFlo_CircLp_Chw_All" = 27.89009   $ Sizing
 "LpFlo_CircLp_Hw_All" = 0   $ Sizing
 "RtChwFlo_Chiller1" = 1.85945   $ Sizing
 "RtdEDB_Sys_L" = 71.71053   $ Sizing
 "RtdEDB_Sys_T" = 76.40901   $ Sizing
 "RtdEWB_Sys_L" = 61.69221   $ Sizing
 "RtdEWB_Sys_T" = 61.60042   $ Sizing
..

##include Templates\OfS_CH_MZ.inp
END ..
COMPUTE ..
STOP ..
