INPUT ..

##fileprefix C:\Users\jglasskatz\MASControl3\
##set1 IsSizing FALSE
##set1 CoolType ACH
##set1 HeatType ELECTRIC
##set1 EU_HrRepVar 1
##set1 BldgVint 1975
##set1 BldgLoc CZ01

 ##set1 mChlrCap_fT DEFAULT   $ IP Tech: ChlrScrA-lt150-9.2EER
 ##set1 mChlrEIR_fPLR DEFAULT   $ IP Tech: ChlrScrA-lt150-9.2EER
 ##set1 mChlrEIR_fT DEFAULT   $ IP Tech: ChlrScrA-lt150-9.2EER
 ##set1 mChlrType Screw   $ IP Tech: ChlrScrA-lt150-9.2EER
 ##set1 mCondType Air   $ IP Tech: ChlrScrA-lt150-9.2EER
 ##set1 mSetupLdChlr FALSE   $ IP Tech: ChlrScrA-lt150-9.2EER
 ##set1 mCHW_FlowCtrl Const   $ IP Tech: ChwFlowCtrlCst

PARAMETER
 "AltFactor" = 1.00753   $ IP Non-Tech
 "BldgEconoFlag" = 1   $ IP Non-Tech
 "BlrPrimLp" = BlrPrimLoop   $ IP Non-Tech
 "Break_EWSF" = 1   $ IP Non-Tech
 "Break_LWSF" = 1.1   $ IP Non-Tech
 "CDD_DBHi10" = 65   $ IP Non-Tech
 "CDD_DBHi7" = 68   $ IP Non-Tech
 "CDD_DBHi8" = 66   $ IP Non-Tech
 "CDD_DBHi9" = 77   $ IP Non-Tech
 "CDD_DBRange10" = 17   $ IP Non-Tech
 "CDD_DBRange7" = 11   $ IP Non-Tech
 "CDD_DBRange8" = 10   $ IP Non-Tech
 "CDD_DBRange9" = 29   $ IP Non-Tech
 "CDD_Day10" = 15   $ IP Non-Tech
 "CDD_Day7" = 16   $ IP Non-Tech
 "CDD_Day8" = 20   $ IP Non-Tech
 "CDD_Day9" = 17   $ IP Non-Tech
 "CDD_HrHi10" = 12   $ IP Non-Tech
 "CDD_HrHi7" = 12   $ IP Non-Tech
 "CDD_HrHi8" = 13   $ IP Non-Tech
 "CDD_HrHi9" = 17   $ IP Non-Tech
 "CDD_HrLo10" = 6   $ IP Non-Tech
 "CDD_HrLo7" = 3   $ IP Non-Tech
 "CDD_HrLo8" = 8   $ IP Non-Tech
 "CDD_HrLo9" = 4   $ IP Non-Tech
 "CDD_WB10" = 57.53039551   $ IP Non-Tech
 "CDD_WB7" = 59.29250717   $ IP Non-Tech
 "CDD_WB8" = 60.75350189   $ IP Non-Tech
 "CDD_WB9" = 61.08643341   $ IP Non-Tech
 "CZ_Category" = Tem   $ IP Non-Tech
 "ChwDesignDT" = 12   $ IP Non-Tech
 "ChwPipeHead" = 62   $ IP Non-Tech
 "ChwRetDT" = 0.038   $ IP Non-Tech
 "ChwSupDT" = 0.063   $ IP Non-Tech
 "ChwT" = 44   $ IP Non-Tech
 "ChwVintEconoFlag" = 1   $ IP Non-Tech
 "CompRoomData_EWSF" = 5.75   $ IP Non-Tech
 "CompRoomData_LWSF" = 1.2   $ IP Non-Tech
 "Conference_EWSF" = 1.15   $ IP Non-Tech
 "Conference_LWSF" = 1.4   $ IP Non-Tech
 "CoolSetT" = 55   $ IP Non-Tech
 "CoolType" = ACH   $ IP Non-Tech
 "CopyRoom_EWSF" = 1.725   $ IP Non-Tech
 "CopyRoom_LWSF" = 1.3   $ IP Non-Tech
 "DesCoolT" = 75   $ IP Non-Tech
 "DesHeatT" = 73   $ IP Non-Tech
 "EconoEnthLimit" = 28   $ IP Non-Tech
 "EconoTempLimit" = 70   $ IP Non-Tech
 "Elevation" = 203   $ IP Non-Tech
 "HDD_CloudAmt1" = 0   $ IP Non-Tech
 "HDD_DBHi1" = 53   $ IP Non-Tech
 "HDD_DBRange1" = 20   $ IP Non-Tech
 "HDD_Day1" = 15   $ IP Non-Tech
 "HDD_HrHi1" = 14   $ IP Non-Tech
 "HDD_HrLo1" = 6   $ IP Non-Tech
 "HDD_WB1" = 42.3   $ IP Non-Tech
 "HDD_WindSpd1" = 12.7   $ IP Non-Tech
 "Hall_EWSF" = 0.23   $ IP Non-Tech
 "Hall_LWSF" = 0.6   $ IP Non-Tech
 "HeatSrc" = ELECTRIC   $ IP Non-Tech
 "HeatSrcTU" = ELECTRIC   $ IP Non-Tech
 "HeatType" = Elec   $ IP Non-Tech
 "HeatTypeTU" = ELECTRIC   $ IP Non-Tech
 "HwDesignDT" = 30   $ IP Non-Tech
 "HwPipeHead" = 40   $ IP Non-Tech
 "IndoorFanMode" = CONTINUOUS   $ IP Non-Tech
 "KT_TransferAir" = No   $ IP Non-Tech
 "Latitude" = 40.8   $ IP Non-Tech
 "LobbyWaiting_EWSF" = 0.5375   $ IP Non-Tech
 "LobbyWaiting_LWSF" = 1.3   $ IP Non-Tech
 "Longitude" = 124.2   $ IP Non-Tech
 "LtgMsrApplic" = ALL   $ Msr TechID: NonResLtgRefMsr-LF
 "LtgSav_CFL" = 0   $ Msr TechID: NonResLtgRefMsr-LF
 "LtgSav_EX" = 0   $ Msr TechID: NonResLtgRefMsr-LF
 "LtgSav_HB" = 0   $ Msr TechID: NonResLtgRefMsr-LF
 "LtgSav_LF" = 0.3   $ Msr TechID: NonResLtgRefMsr-LF
 "LtgSav_SP" = 0   $ Msr TechID: NonResLtgRefMsr-LF
 "MZFanMechEff" = 0.68   $ IP Non-Tech
 "MZHasRetFan" = TRUE   $ IP Non-Tech
 "MZ_RFanWPerCfm" = 0.33   $ IP Non-Tech
 "MZ_SFanWPerCfm" = 0.75   $ IP Non-Tech
 "MaxSupT_MZ" = 95   $ IP Non-Tech
 "MaxSupT_SZ" = 105   $ IP Non-Tech
 "MaxSupT_TU" = 105   $ IP Non-Tech
 "MechElecRoom_EWSF" = 0.23   $ IP Non-Tech
 "MechElecRoom_LWSF" = 0.7   $ IP Non-Tech
 "MinCfmPerSF" = 0.4   $ IP Non-Tech
 "MinSupT" = 55   $ IP Non-Tech
 "OccCoolT" = 76   $ IP Non-Tech
 "OccHeatT" = 72   $ IP Non-Tech
 "OfficeOpen_EWSF" = 1.725   $ IP Non-Tech
 "OfficeOpen_LWSF" = 1.2   $ IP Non-Tech
 "OfficeSmall_EWSF" = 1.725   $ IP Non-Tech
 "OfficeSmall_LWSF" = 1.3   $ IP Non-Tech
 "PkgDxVintEconoFlag" = 0   $ IP Non-Tech
 "ReheatDeltaT" = 39   $ IP Non-Tech
 "Restroom_EWSF" = 0.23   $ IP Non-Tech
 "Restroom_LWSF" = 0.6   $ IP Non-Tech
 "SZFanMechEff" = 0.54   $ IP Non-Tech
 "SZHasRetFan" = TRUE   $ IP Non-Tech
 "SZ_Is_2Spd" = FALSE   $ IP Non-Tech
 "SZ_SFanWPerCfm" = 0.46   $ IP Non-Tech
 "StorageSmlCond_EWSF" = 0.23   $ IP Non-Tech
 "StorageSmlCond_LWSF" = 0.6   $ IP Non-Tech
 "T24GlzTbl" = CZTbl   $ IP Non-Tech
 "TermUnitFanMechEff" = 1   $ IP Non-Tech
 "TermUnitFanMode" = INTERMITTENT   $ IP Non-Tech
 "TermUnitFanWPerCfm" = 0.175   $ IP Non-Tech
 "TwrSetpt" = 80   $ IP Non-Tech
 "UnocCoolT" = 86   $ IP Non-Tech
 "UnocHeatT" = 62   $ IP Non-Tech
 "VAVMinFlow" = 0.3   $ IP Non-Tech
 "WlhpVintEconoFlag" = 0   $ IP Non-Tech
 "EconoCtrl" = OA-TEMP   $ IP Tech: AirEcono-OATemp
 "MaxOAFrac" = 0.85   $ IP Tech: AirEcono-OATemp
 "UseEconoVintApplic" = FALSE   $ IP Tech: AirEcono-OATemp
 "ChlrCapRange" = lt150   $ IP Tech: ChlrScrA-lt150-9.2EER
 "ChlrEff" = 9.23   $ IP Tech: ChlrScrA-lt150-9.2EER
 "ChlrType" = Screw   $ IP Tech: ChlrScrA-lt150-9.2EER
 "ChlrVSD" = NO   $ IP Tech: ChlrScrA-lt150-9.2EER
 "CmpPerCkt" = NA   $ IP Tech: ChlrScrA-lt150-9.2EER
 "CondRelief" = FALSE   $ IP Tech: ChlrScrA-lt150-9.2EER
 "CondType" = Air   $ IP Tech: ChlrScrA-lt150-9.2EER
 "EffUnits" = EER   $ IP Tech: ChlrScrA-lt150-9.2EER
 "IPLV" = -99   $ IP Tech: ChlrScrA-lt150-9.2EER
 "CHW_FlowCtrl" = Const   $ IP Tech: ChwFlowCtrlCst
 "CHW_HdSensLoc" = AT-COILS   $ IP Tech: ChwFlowCtrlCst
 "CHW_HdSptCtrl" = FIXED   $ IP Tech: ChwFlowCtrlCst
 "CHWP_Encl" = Any   $ IP Tech: ChwPumpMtrEff-HI
 "CHWP_MotClass" = HI-EFF   $ IP Tech: ChwPumpMtrEff-HI
 "CHWP_MotHP" = Any   $ IP Tech: ChwPumpMtrEff-HI
 "CHWP_NEMA_DC" =    $ IP Tech: ChwPumpMtrEff-HI
 "CHWP_RPM" = Any   $ IP Tech: ChwPumpMtrEff-HI
 "CHWP_Volt" =    $ IP Tech: ChwPumpMtrEff-HI
 "CHW_MaxT" = 54   $ IP Tech: ChwTempCtrlReset
 "CHW_TempCtrl" = LOAD-RESET   $ IP Tech: ChwTempCtrlReset
 "DuctDT" = 2   $ IP Tech: ComDuctInsul-2
 "DuctAirLoss" = 0   $ IP Tech: ComDuctLeak-0
 "DuctLossOAFrac" = 0   $ IP Tech: ComDuctLeak-0
 "ComRoofInsCalc" = FromUo   $ IP Tech: ComRoofIns-WFrm-0.07
 "ComRoofInsR" = -999   $ IP Tech: ComRoofIns-WFrm-0.07
 "ComRoofUo" = 0.07   $ IP Tech: ComRoofIns-WFrm-0.07
 "ComEWInsCalc" = FromUo   $ IP Tech: ComWallIns-WFrm-0.12
 "ComEWInsR" = -999   $ IP Tech: ComWallIns-WFrm-0.12
 "ComEWUo" = 0.12   $ IP Tech: ComWallIns-WFrm-0.12
 "MotorClass" = HI-EFF   $ IP Tech: ExhFanMtr-High
 "ComN_SHGC" = 0.82   $ IP Tech: NResWin-ComN-1.23-0.82
 "ComN_UFactor" = 1.23   $ IP Tech: NResWin-ComN-1.23-0.82
 "ComN_VisTrans" = 0.9   $ IP Tech: NResWin-ComN-1.23-0.82
 "ComN_WinCode" = G1000   $ IP Tech: NResWin-ComN-1.23-0.82
 "ComN_WinFrmFrac" = 0.17   $ IP Tech: NResWin-ComN-1.23-0.82
 "ComN_WinFrmU" = 1   $ IP Tech: NResWin-ComN-1.23-0.82
 "ComO_SHGC" = 0.82   $ IP Tech: NResWin-ComO-1.23-0.82
 "ComO_UFactor" = 1.23   $ IP Tech: NResWin-ComO-1.23-0.82
 "ComO_VisTrans" = 0.9   $ IP Tech: NResWin-ComO-1.23-0.82
 "ComO_WinCode" = G1000   $ IP Tech: NResWin-ComO-1.23-0.82
 "ComO_WinFrmFrac" = 0.17   $ IP Tech: NResWin-ComO-1.23-0.82
 "ComO_WinFrmU" = 1   $ IP Tech: NResWin-ComO-1.23-0.82
 "SATempCtrl" = RESET   $ IP Tech: SATempCtrl-Reset
 "FanEIR_fPLR" = "ForCurve w Inlet Vanes FPLR"   $ IP Tech: VAVCtrl-Inlet-AnyHP
 "Fan_Control" = Inlet   $ IP Tech: VAVCtrl-Inlet-AnyHP
 "Motor_Horsepower" = AnyHP   $ IP Tech: VAVCtrl-Inlet-AnyHP
 "AltAdjFactor" = 1.007532   $ Sizing
 "CAssFlo_L_Break_CZn" = 259.6436   $ Sizing
 "CAssFlo_L_CompDC_CZn" = 172.6536   $ Sizing
 "CAssFlo_L_Conf_CZn" = 187.6079   $ Sizing
 "CAssFlo_L_CopyRm_CZn" = 51.07802   $ Sizing
 "CAssFlo_L_Hall_EZn" = 164.46   $ Sizing
 "CAssFlo_L_Hall_NZn" = 88.17915   $ Sizing
 "CAssFlo_L_Hall_SZn" = 195.2207   $ Sizing
 "CAssFlo_L_Hall_WZn" = 170.7012   $ Sizing
 "CAssFlo_L_LobWait_EZn" = 388.8655   $ Sizing
 "CAssFlo_L_LobWait_NZn" = 184.6604   $ Sizing
 "CAssFlo_L_LobWait_SZn" = 452.9178   $ Sizing
 "CAssFlo_L_LobWait_WZn" = 392.0589   $ Sizing
 "CAssFlo_L_MechElec_CZn" = 65.93681   $ Sizing
 "CAssFlo_L_OfficeOpn_CZn" = 53.06945   $ Sizing
 "CAssFlo_L_OfficeOpn_EZn" = 748.1755   $ Sizing
 "CAssFlo_L_OfficeOpn_NZn" = 254.1703   $ Sizing
 "CAssFlo_L_OfficeOpn_SZn" = 801.6339   $ Sizing
 "CAssFlo_L_OfficeOpn_WZn" = 720.9055   $ Sizing
 "CAssFlo_L_OfficeSm_EZn" = 655.4733   $ Sizing
 "CAssFlo_L_OfficeSm_NZn" = 200.3641   $ Sizing
 "CAssFlo_L_OfficeSm_SZn" = 721.5073   $ Sizing
 "CAssFlo_L_OfficeSm_WZn" = 649.6302   $ Sizing
 "CAssFlo_L_Restrm_CZn" = 86.07105   $ Sizing
 "CAssFlo_L_StorSm_CZn" = 35.87716   $ Sizing
 "CAssFlo_L_StorSm_EZn" = 153.0367   $ Sizing
 "CAssFlo_L_StorSm_NZn" = 92.94752   $ Sizing
 "CAssFlo_L_StorSm_SZn" = 180.3051   $ Sizing
 "CAssFlo_L_StorSm_WZn" = 153.3288   $ Sizing
 "CAssFlo_T_Conf_CZn" = 202.7925   $ Sizing
 "CAssFlo_T_Hall_EZn" = 187.2691   $ Sizing
 "CAssFlo_T_Hall_NZn" = 85.0368   $ Sizing
 "CAssFlo_T_Hall_SZn" = 225.6414   $ Sizing
 "CAssFlo_T_Hall_WZn" = 189.6647   $ Sizing
 "CAssFlo_T_OfficeOpn_CZn" = 50.42274   $ Sizing
 "CAssFlo_T_OfficeOpn_EZn" = 764.0012   $ Sizing
 "CAssFlo_T_OfficeOpn_NZn" = 294.7639   $ Sizing
 "CAssFlo_T_OfficeOpn_SZn" = 866.5502   $ Sizing
 "CAssFlo_T_OfficeOpn_WZn" = 740.9646   $ Sizing
 "CAssFlo_T_OfficeSm_EZn" = 683.3717   $ Sizing
 "CAssFlo_T_OfficeSm_NZn" = 233.9074   $ Sizing
 "CAssFlo_T_OfficeSm_SZn" = 785.5081   $ Sizing
 "CAssFlo_T_OfficeSm_WZn" = 677.8897   $ Sizing
 "CAssFlo_T_Restrm_CZn" = 96.61082   $ Sizing
 "CAssFlo_T_StorSm_EZn" = 175.6589   $ Sizing
 "CAssFlo_T_StorSm_NZn" = 90.45364   $ Sizing
 "CAssFlo_T_StorSm_SZn" = 210.3789   $ Sizing
 "CAssFlo_T_StorSm_WZn" = 180.47   $ Sizing
 "CBF_Sys_L" = 0.04587205   $ Sizing
 "CBF_Sys_T" = 0.04552812   $ Sizing
 "CHRtFlo_L_Break_CZn" = 185.4956   $ Sizing
 "CHRtFlo_L_CompDC_CZn" = 51.79609   $ Sizing
 "CHRtFlo_L_Conf_CZn" = 143.3872   $ Sizing
 "CHRtFlo_L_CopyRm_CZn" = 50.72986   $ Sizing
 "CHRtFlo_L_Hall_EZn" = 79.33417   $ Sizing
 "CHRtFlo_L_Hall_NZn" = 88.17915   $ Sizing
 "CHRtFlo_L_Hall_SZn" = 58.56622   $ Sizing
 "CHRtFlo_L_Hall_WZn" = 76.80447   $ Sizing
 "CHRtFlo_L_LobWait_EZn" = 166.7196   $ Sizing
 "CHRtFlo_L_LobWait_NZn" = 184.6604   $ Sizing
 "CHRtFlo_L_LobWait_SZn" = 135.8754   $ Sizing
 "CHRtFlo_L_LobWait_WZn" = 161.4935   $ Sizing
 "CHRtFlo_L_MechElec_CZn" = 45.65557   $ Sizing
 "CHRtFlo_L_OfficeOpn_CZn" = 39.34376   $ Sizing
 "CHRtFlo_L_OfficeOpn_EZn" = 224.4527   $ Sizing
 "CHRtFlo_L_OfficeOpn_NZn" = 216.5387   $ Sizing
 "CHRtFlo_L_OfficeOpn_SZn" = 240.4902   $ Sizing
 "CHRtFlo_L_OfficeOpn_WZn" = 216.2717   $ Sizing
 "CHRtFlo_L_OfficeSm_EZn" = 196.642   $ Sizing
 "CHRtFlo_L_OfficeSm_NZn" = 200.3641   $ Sizing
 "CHRtFlo_L_OfficeSm_SZn" = 216.4522   $ Sizing
 "CHRtFlo_L_OfficeSm_WZn" = 194.8891   $ Sizing
 "CHRtFlo_L_Restrm_CZn" = 64.03101   $ Sizing
 "CHRtFlo_L_StorSm_CZn" = 35.87716   $ Sizing
 "CHRtFlo_L_StorSm_EZn" = 83.61213   $ Sizing
 "CHRtFlo_L_StorSm_NZn" = 92.94752   $ Sizing
 "CHRtFlo_L_StorSm_SZn" = 54.09153   $ Sizing
 "CHRtFlo_L_StorSm_WZn" = 73.27519   $ Sizing
 "CHRtFlo_T_Conf_CZn" = 143.3872   $ Sizing
 "CHRtFlo_T_Hall_EZn" = 81.53461   $ Sizing
 "CHRtFlo_T_Hall_NZn" = 85.0368   $ Sizing
 "CHRtFlo_T_Hall_SZn" = 67.69244   $ Sizing
 "CHRtFlo_T_Hall_WZn" = 78.00846   $ Sizing
 "CHRtFlo_T_OfficeOpn_CZn" = 28.83041   $ Sizing
 "CHRtFlo_T_OfficeOpn_EZn" = 229.2004   $ Sizing
 "CHRtFlo_T_OfficeOpn_NZn" = 204.9002   $ Sizing
 "CHRtFlo_T_OfficeOpn_SZn" = 259.9651   $ Sizing
 "CHRtFlo_T_OfficeOpn_WZn" = 222.2894   $ Sizing
 "CHRtFlo_T_OfficeSm_EZn" = 205.0115   $ Sizing
 "CHRtFlo_T_OfficeSm_NZn" = 187.3472   $ Sizing
 "CHRtFlo_T_OfficeSm_SZn" = 235.6525   $ Sizing
 "CHRtFlo_T_OfficeSm_WZn" = 203.3669   $ Sizing
 "CHRtFlo_T_Restrm_CZn" = 96.61082   $ Sizing
 "CHRtFlo_T_StorSm_EZn" = 85.93147   $ Sizing
 "CHRtFlo_T_StorSm_NZn" = 90.45364   $ Sizing
 "CHRtFlo_T_StorSm_SZn" = 63.77168   $ Sizing
 "CHRtFlo_T_StorSm_WZn" = 81.91189   $ Sizing
 "CRtdFlo_Sys_L" = 5534.211   $ Sizing
 "CRtdFlo_Sys_T" = 4825.887   $ Sizing
 "CSupFlo_Sys_L" = 5534.211   $ Sizing
 "CSupFlo_Sys_T" = 4825.887   $ Sizing
 "Cap_Chiller1" = 0.2684719   $ Sizing
 "ClCap_Sys_L" = 143587.5   $ Sizing
 "ClCap_Sys_T" = 125717.4   $ Sizing
 "HRtEDB_L_Break_CZn" = 56.23447   $ Sizing
 "HRtEDB_L_CompDC_CZn" = 56.23447   $ Sizing
 "HRtEDB_L_Conf_CZn" = 56.23447   $ Sizing
 "HRtEDB_L_CopyRm_CZn" = 56.23447   $ Sizing
 "HRtEDB_L_Hall_EZn" = 56.37329   $ Sizing
 "HRtEDB_L_Hall_NZn" = 56.37329   $ Sizing
 "HRtEDB_L_Hall_SZn" = 56.37329   $ Sizing
 "HRtEDB_L_Hall_WZn" = 56.37329   $ Sizing
 "HRtEDB_L_LobWait_EZn" = 56.37329   $ Sizing
 "HRtEDB_L_LobWait_NZn" = 56.37329   $ Sizing
 "HRtEDB_L_LobWait_SZn" = 56.37329   $ Sizing
 "HRtEDB_L_LobWait_WZn" = 56.37329   $ Sizing
 "HRtEDB_L_MechElec_CZn" = 56.37329   $ Sizing
 "HRtEDB_L_OfficeOpn_CZn" = 56.23447   $ Sizing
 "HRtEDB_L_OfficeOpn_EZn" = 56.23447   $ Sizing
 "HRtEDB_L_OfficeOpn_NZn" = 56.23447   $ Sizing
 "HRtEDB_L_OfficeOpn_SZn" = 56.23447   $ Sizing
 "HRtEDB_L_OfficeOpn_WZn" = 56.23447   $ Sizing
 "HRtEDB_L_OfficeSm_EZn" = 56.23447   $ Sizing
 "HRtEDB_L_OfficeSm_NZn" = 56.23447   $ Sizing
 "HRtEDB_L_OfficeSm_SZn" = 56.23447   $ Sizing
 "HRtEDB_L_OfficeSm_WZn" = 56.23447   $ Sizing
 "HRtEDB_L_Restrm_CZn" = 56.23447   $ Sizing
 "HRtEDB_L_StorSm_CZn" = 56.37329   $ Sizing
 "HRtEDB_L_StorSm_EZn" = 56.37329   $ Sizing
 "HRtEDB_L_StorSm_NZn" = 56.37329   $ Sizing
 "HRtEDB_L_StorSm_SZn" = 56.37329   $ Sizing
 "HRtEDB_L_StorSm_WZn" = 56.37329   $ Sizing
 "HRtEDB_T_Conf_CZn" = 55.71188   $ Sizing
 "HRtEDB_T_Hall_EZn" = 55.76874   $ Sizing
 "HRtEDB_T_Hall_NZn" = 55.76874   $ Sizing
 "HRtEDB_T_Hall_SZn" = 55.76874   $ Sizing
 "HRtEDB_T_Hall_WZn" = 55.76874   $ Sizing
 "HRtEDB_T_OfficeOpn_CZn" = 55.71188   $ Sizing
 "HRtEDB_T_OfficeOpn_EZn" = 55.71188   $ Sizing
 "HRtEDB_T_OfficeOpn_NZn" = 55.71188   $ Sizing
 "HRtEDB_T_OfficeOpn_SZn" = 55.71188   $ Sizing
 "HRtEDB_T_OfficeOpn_WZn" = 55.71188   $ Sizing
 "HRtEDB_T_OfficeSm_EZn" = 55.71188   $ Sizing
 "HRtEDB_T_OfficeSm_NZn" = 55.71188   $ Sizing
 "HRtEDB_T_OfficeSm_SZn" = 55.71188   $ Sizing
 "HRtEDB_T_OfficeSm_WZn" = 55.71188   $ Sizing
 "HRtEDB_T_Restrm_CZn" = 55.71188   $ Sizing
 "HRtEDB_T_StorSm_EZn" = 55.76874   $ Sizing
 "HRtEDB_T_StorSm_NZn" = 55.76874   $ Sizing
 "HRtEDB_T_StorSm_SZn" = 55.71188   $ Sizing
 "HRtEDB_T_StorSm_WZn" = 55.76874   $ Sizing
 "HtCap_L_Break_CZn" = -7746.564   $ Sizing
 "HtCap_L_CompDC_CZn" = -2163.079   $ Sizing
 "HtCap_L_Conf_CZn" = -5988.057   $ Sizing
 "HtCap_L_CopyRm_CZn" = -2118.552   $ Sizing
 "HtCap_L_Hall_EZn" = -3302.233   $ Sizing
 "HtCap_L_Hall_NZn" = -3670.4   $ Sizing
 "HtCap_L_Hall_SZn" = -2437.781   $ Sizing
 "HtCap_L_Hall_WZn" = -3196.936   $ Sizing
 "HtCap_L_LobWait_EZn" = -6939.596   $ Sizing
 "HtCap_L_LobWait_NZn" = -7686.368   $ Sizing
 "HtCap_L_LobWait_SZn" = -5655.724   $ Sizing
 "HtCap_L_LobWait_WZn" = -6722.063   $ Sizing
 "HtCap_L_MechElec_CZn" = -1900.383   $ Sizing
 "HtCap_L_OfficeOpn_CZn" = -1643.052   $ Sizing
 "HtCap_L_OfficeOpn_EZn" = -9373.467   $ Sizing
 "HtCap_L_OfficeOpn_NZn" = -9042.968   $ Sizing
 "HtCap_L_OfficeOpn_SZn" = -10043.22   $ Sizing
 "HtCap_L_OfficeOpn_WZn" = -9031.815   $ Sizing
 "HtCap_L_OfficeSm_EZn" = -8212.054   $ Sizing
 "HtCap_L_OfficeSm_NZn" = -8367.492   $ Sizing
 "HtCap_L_OfficeSm_SZn" = -9039.356   $ Sizing
 "HtCap_L_OfficeSm_WZn" = -8138.849   $ Sizing
 "HtCap_L_Restrm_CZn" = -2674.027   $ Sizing
 "HtCap_L_StorSm_CZn" = -1493.363   $ Sizing
 "HtCap_L_StorSm_EZn" = -3480.3   $ Sizing
 "HtCap_L_StorSm_NZn" = -3868.88   $ Sizing
 "HtCap_L_StorSm_SZn" = -2251.525   $ Sizing
 "HtCap_L_StorSm_WZn" = -3050.032   $ Sizing
 "HtCap_T_Conf_CZn" = -6068.78   $ Sizing
 "HtCap_T_Hall_EZn" = -3446.785   $ Sizing
 "HtCap_T_Hall_NZn" = -3594.836   $ Sizing
 "HtCap_T_Hall_SZn" = -2861.623   $ Sizing
 "HtCap_T_Hall_WZn" = -3297.721   $ Sizing
 "HtCap_T_OfficeOpn_CZn" = -1220.23   $ Sizing
 "HtCap_T_OfficeOpn_EZn" = -9700.77   $ Sizing
 "HtCap_T_OfficeOpn_NZn" = -8672.279   $ Sizing
 "HtCap_T_OfficeOpn_SZn" = -11002.87   $ Sizing
 "HtCap_T_OfficeOpn_WZn" = -9408.268   $ Sizing
 "HtCap_T_OfficeSm_EZn" = -8676.992   $ Sizing
 "HtCap_T_OfficeSm_NZn" = -7929.358   $ Sizing
 "HtCap_T_OfficeSm_SZn" = -9973.851   $ Sizing
 "HtCap_T_OfficeSm_WZn" = -8607.386   $ Sizing
 "HtCap_T_Restrm_CZn" = -4088.996   $ Sizing
 "HtCap_T_StorSm_EZn" = -3632.657   $ Sizing
 "HtCap_T_StorSm_NZn" = -3823.827   $ Sizing
 "HtCap_T_StorSm_SZn" = -2699.099   $ Sizing
 "HtCap_T_StorSm_WZn" = -3462.734   $ Sizing
 "LpFlo_BlrPrimLoop" = 0   $ Sizing
 "LpFlo_ChlrPrimLoop" = 44.74648   $ Sizing
 "LpFlo_CircLp_Chw_All" = 44.74648   $ Sizing
 "LpFlo_CircLp_Hw_All" = 0   $ Sizing
 "RtChwFlo_Chiller1" = 3.718899   $ Sizing
 "RtdEDB_Sys_L" = 75.39258   $ Sizing
 "RtdEDB_Sys_T" = 75.9021   $ Sizing
 "RtdEWB_Sys_L" = 61.34359   $ Sizing
 "RtdEWB_Sys_T" = 61.36857   $ Sizing
..

##include Templates\OfS_CH_MZ.inp
END ..
COMPUTE ..
STOP ..
