
Start DOESIM : Storage capacity =  75000000
Starting LOADS   : SAVE-FILES is On , weather is CZ03OAKLAND-METROPOL
Finished LOADS    BDL  1 : Memory (wds) =    279142, Time (sec) =    1.98
Starting REPORT  
Finished REPORT   BDL  1 : Memory (wds) =    548621, Time (sec) =    0.60
Starting HVAC    : SAVE-FILES is On , weather is CZ03OAKLAND-METROPOL
*** ERRORS or WARNINGS from HVAC     program. Examine output file for details.
Finished HVAC     BDL  1 : Memory (wds) =    483248, Time (sec) =    5.83
Starting REPORT  
Finished REPORT   BDL  1 : Memory (wds) =    850151, Time (sec) =    0.59
Starting HOURLY-R
Finished HOURLY-R BDL  1 : Memory (wds) =   1086482, Time (sec) =    0.14
Starting ECONOMIC
Finished ECONOMIC BDL  1 : Memory (wds) =      1034, Time (sec) =    0.04
End   DOESIM : Total elapsed time of      9.2 seconds
RUN COMPLETE
