INPUT ..

##fileprefix C:\Users\jglasskatz\MASControl3\
##set1 IsSizing FALSE
##set1 CoolType DX
##set1 HeatType HEAT-PUMP
##set1 EU_HrRepVar 1
##set1 BldgVint 2007
##set1 BldgLoc CZ01

 ##set1 mBFMult 1   $ IP Tech: RefgChg-NRes-Std

PARAMETER
 "AltFactor" = 1.00753   $ IP Non-Tech
 "BldgEconoFlag" = 1   $ IP Non-Tech
 "Break_EWSF" = 1   $ IP Non-Tech
 "Break_LWSF" = 1.1   $ IP Non-Tech
 "CDD_DBHi10" = 65   $ IP Non-Tech
 "CDD_DBHi7" = 68   $ IP Non-Tech
 "CDD_DBHi8" = 66   $ IP Non-Tech
 "CDD_DBHi9" = 77   $ IP Non-Tech
 "CDD_DBRange10" = 17   $ IP Non-Tech
 "CDD_DBRange7" = 11   $ IP Non-Tech
 "CDD_DBRange8" = 10   $ IP Non-Tech
 "CDD_DBRange9" = 29   $ IP Non-Tech
 "CDD_Day10" = 15   $ IP Non-Tech
 "CDD_Day7" = 16   $ IP Non-Tech
 "CDD_Day8" = 20   $ IP Non-Tech
 "CDD_Day9" = 17   $ IP Non-Tech
 "CDD_HrHi10" = 12   $ IP Non-Tech
 "CDD_HrHi7" = 12   $ IP Non-Tech
 "CDD_HrHi8" = 13   $ IP Non-Tech
 "CDD_HrHi9" = 17   $ IP Non-Tech
 "CDD_HrLo10" = 6   $ IP Non-Tech
 "CDD_HrLo7" = 3   $ IP Non-Tech
 "CDD_HrLo8" = 8   $ IP Non-Tech
 "CDD_HrLo9" = 4   $ IP Non-Tech
 "CDD_WB10" = 57.53039551   $ IP Non-Tech
 "CDD_WB7" = 59.29250717   $ IP Non-Tech
 "CDD_WB8" = 60.75350189   $ IP Non-Tech
 "CDD_WB9" = 61.08643341   $ IP Non-Tech
 "CZ_Category" = Tem   $ IP Non-Tech
 "ChwVintEconoFlag" = 1   $ IP Non-Tech
 "CompRoomData_EWSF" = 5   $ IP Non-Tech
 "CompRoomData_LWSF" = 1.2   $ IP Non-Tech
 "Conference_EWSF" = 1   $ IP Non-Tech
 "Conference_LWSF" = 1.4   $ IP Non-Tech
 "CoolSetT" = 45   $ IP Non-Tech
 "CoolType" = DX   $ IP Non-Tech
 "CopyRoom_EWSF" = 1.5   $ IP Non-Tech
 "CopyRoom_LWSF" = 1.3   $ IP Non-Tech
 "DesCoolT" = 75   $ IP Non-Tech
 "DesHeatT" = 73   $ IP Non-Tech
 "EconoEnthLimit" = 28   $ IP Non-Tech
 "EconoTempLimit" = 70   $ IP Non-Tech
 "Elevation" = 203   $ IP Non-Tech
 "HDD_CloudAmt1" = 0   $ IP Non-Tech
 "HDD_DBHi1" = 53   $ IP Non-Tech
 "HDD_DBRange1" = 20   $ IP Non-Tech
 "HDD_Day1" = 15   $ IP Non-Tech
 "HDD_HrHi1" = 14   $ IP Non-Tech
 "HDD_HrLo1" = 6   $ IP Non-Tech
 "HDD_WB1" = 42.3   $ IP Non-Tech
 "HDD_WindSpd1" = 12.7   $ IP Non-Tech
 "Hall_EWSF" = 0.2   $ IP Non-Tech
 "Hall_LWSF" = 0.6   $ IP Non-Tech
 "HeatSrc" = HEAT-PUMP   $ IP Non-Tech
 "HeatSrcTU" = HEAT-PUMP   $ IP Non-Tech
 "HeatType" = HP   $ IP Non-Tech
 "HeatTypeTU" = HEAT-PUMP   $ IP Non-Tech
 "IndoorFanMode" = CONTINUOUS   $ IP Non-Tech
 "KT_TransferAir" = No   $ IP Non-Tech
 "Latitude" = 40.8   $ IP Non-Tech
 "LobbyWaiting_EWSF" = 0.5   $ IP Non-Tech
 "LobbyWaiting_LWSF" = 1.3   $ IP Non-Tech
 "Longitude" = 124.2   $ IP Non-Tech
 "LtgMsrApplic" = ALL   $ Msr TechID: NonResLtgRefMsr-LF
 "LtgSav_CFL" = 0   $ Msr TechID: NonResLtgRefMsr-LF
 "LtgSav_EX" = 0   $ Msr TechID: NonResLtgRefMsr-LF
 "LtgSav_HB" = 0   $ Msr TechID: NonResLtgRefMsr-LF
 "LtgSav_LF" = 0.3   $ Msr TechID: NonResLtgRefMsr-LF
 "LtgSav_SP" = 0   $ Msr TechID: NonResLtgRefMsr-LF
 "MZFanMechEff" = 0.58   $ IP Non-Tech
 "MZHasRetFan" = FALSE   $ IP Non-Tech
 "MZ_RFanWPerCfm" = 0.33   $ IP Non-Tech
 "MZ_SFanWPerCfm" = 0.75   $ IP Non-Tech
 "MZ_SupFanStatic" = 2.25   $ IP Non-Tech
 "MaxSupT_MZ" = 90   $ IP Non-Tech
 "MaxSupT_SZ" = 90   $ IP Non-Tech
 "MaxSupT_TU" = 90   $ IP Non-Tech
 "MechElecRoom_EWSF" = 0.2   $ IP Non-Tech
 "MechElecRoom_LWSF" = 0.7   $ IP Non-Tech
 "MinCfmPerSF" = 0.4   $ IP Non-Tech
 "MinSupT" = 55   $ IP Non-Tech
 "OccCoolT" = 76   $ IP Non-Tech
 "OccHeatT" = 72   $ IP Non-Tech
 "OfficeOpen_EWSF" = 1.5   $ IP Non-Tech
 "OfficeOpen_LWSF" = 1.2   $ IP Non-Tech
 "OfficeSmall_EWSF" = 1.5   $ IP Non-Tech
 "OfficeSmall_LWSF" = 1.3   $ IP Non-Tech
 "PkgDxVintEconoFlag" = 0   $ IP Non-Tech
 "Restroom_EWSF" = 0.2   $ IP Non-Tech
 "Restroom_LWSF" = 0.6   $ IP Non-Tech
 "SZFanMechEff" = 0.58   $ IP Non-Tech
 "SZHasRetFan" = FALSE   $ IP Non-Tech
 "SZ_Is_2Spd" = FALSE   $ IP Non-Tech
 "SZ_SFanWPerCfm" = 0.46   $ IP Non-Tech
 "SZ_SupFanStatic" = 0.75   $ IP Non-Tech
 "StorageSmlCond_EWSF" = 0.2   $ IP Non-Tech
 "StorageSmlCond_LWSF" = 0.6   $ IP Non-Tech
 "T24GlzTbl" = CZTbl   $ IP Non-Tech
 "TermUnitFanMechEff" = 1   $ IP Non-Tech
 "TermUnitFanMode" = INTERMITTENT   $ IP Non-Tech
 "TwrSetpt" = 80   $ IP Non-Tech
 "UnocCoolT" = 86   $ IP Non-Tech
 "UnocHeatT" = 62   $ IP Non-Tech
 "WlhpVintEconoFlag" = 0   $ IP Non-Tech
 "EconoCtrl" = OA-TEMP   $ IP Tech: AirEcono-OATemp
 "MaxOAFrac" = 0.85   $ IP Tech: AirEcono-OATemp
 "UseEconoVintApplic" = FALSE   $ IP Tech: AirEcono-OATemp
 "DuctDT" = 1   $ IP Tech: ComDuctInsul-1
 "DuctAirLoss" = 0   $ IP Tech: ComDuctLeak-0
 "DuctLossOAFrac" = 0   $ IP Tech: ComDuctLeak-0
 "ComRoofInsCalc" = FromUo   $ IP Tech: ComRoofIns-WFrm-0.05
 "ComRoofInsR" = -999   $ IP Tech: ComRoofIns-WFrm-0.05
 "ComRoofUo" = 0.05   $ IP Tech: ComRoofIns-WFrm-0.05
 "ComEWInsCalc" = FromUo   $ IP Tech: ComWallIns-WFrm-0.08
 "ComEWInsR" = -999   $ IP Tech: ComWallIns-WFrm-0.08
 "ComEWUo" = 0.08   $ IP Tech: ComWallIns-WFrm-0.08
 "ComN_SHGC" = 0.47   $ IP Tech: NResWin-ComN-0.47-0.47
 "ComN_UFactor" = 0.47   $ IP Tech: NResWin-ComN-0.47-0.47
 "ComN_VisTrans" = 0.75   $ IP Tech: NResWin-ComN-0.47-0.47
 "ComN_WinCode" = G2633   $ IP Tech: NResWin-ComN-0.47-0.47
 "ComN_WinFrmFrac" = 0.17   $ IP Tech: NResWin-ComN-0.47-0.47
 "ComN_WinFrmU" = 0.3   $ IP Tech: NResWin-ComN-0.47-0.47
 "ComO_SHGC" = 0.43   $ IP Tech: NResWin-ComO-0.47-0.43
 "ComO_UFactor" = 0.47   $ IP Tech: NResWin-ComO-0.47-0.43
 "ComO_VisTrans" = 0.68   $ IP Tech: NResWin-ComO-0.47-0.43
 "ComO_WinCode" = G2663   $ IP Tech: NResWin-ComO-0.47-0.43
 "ComO_WinFrmFrac" = 0.17   $ IP Tech: NResWin-ComO-0.47-0.43
 "ComO_WinFrmU" = 0.3   $ IP Tech: NResWin-ComO-0.47-0.43
 "BF_fFlow" = PSZ65to135_BF_fFlow   $ IP Tech: PkgHP1SpH-65to135-E10.1-C3.2
 "BF_fT" = PSZ65to135_BF_fT   $ IP Tech: PkgHP1SpH-65to135-E10.1-C3.2
 "CEIR_fPLR" = PSZ65to135_CEIR_fPLR   $ IP Tech: PkgHP1SpH-65to135-E10.1-C3.2
 "CLoss_fPLR" = PSZ65to135_CLoss_fPLR   $ IP Tech: PkgHP1SpH-65to135-E10.1-C3.2
 "COP" = 3.2   $ IP Tech: PkgHP1SpH-65to135-E10.1-C3.2
 "COP47" = 3.52   $ IP Tech: PkgHP1SpH-65to135-E10.1-C3.2
 "CfmPerBtuh" = 0.02917   $ IP Tech: PkgHP1SpH-65to135-E10.1-C3.2
 "ClCap_fT" = PSZ65to135_ClCap_fT   $ IP Tech: PkgHP1SpH-65to135-E10.1-C3.2
 "ClSH_fT" = PSZ65to135_ClSH_fT   $ IP Tech: PkgHP1SpH-65to135-E10.1-C3.2
 "CoilBF" = 0.114   $ IP Tech: PkgHP1SpH-65to135-E10.1-C3.2
 "CondWPerBtuh" = 0   $ IP Tech: PkgHP1SpH-65to135-E10.1-C3.2
 "CoolSensCap" = 0.663   $ IP Tech: PkgHP1SpH-65to135-E10.1-C3.2
 "CoolingEIR" = 0.29399   $ IP Tech: PkgHP1SpH-65to135-E10.1-C3.2
 "CrnkEIR" = 0.0029   $ IP Tech: PkgHP1SpH-65to135-E10.1-C3.2
 "CrnkMaxT" = 50   $ IP Tech: PkgHP1SpH-65to135-E10.1-C3.2
 "DXType" = Pkg   $ IP Tech: PkgHP1SpH-65to135-E10.1-C3.2
 "EER" = 9.77   $ IP Tech: PkgHP1SpH-65to135-E10.1-C3.2
 "EIR_fT" = PSZ65to135_EIR_fT   $ IP Tech: PkgHP1SpH-65to135-E10.1-C3.2
 "FanEirPlr" = TwoSpeedFan   $ IP Tech: PkgHP1SpH-65to135-E10.1-C3.2
 "FanWPerCfm" = 0.412   $ IP Tech: PkgHP1SpH-65to135-E10.1-C3.2
 "HIR_fT" = DEFAULT   $ IP Tech: PkgHP1SpH-65to135-E10.1-C3.2
 "HtCap_fT" = DEFAULT   $ IP Tech: PkgHP1SpH-65to135-E10.1-C3.2
 "HtCoolCapRatio" = 0.88   $ IP Tech: PkgHP1SpH-65to135-E10.1-C3.2
 "HtgEIR" = 0.2843   $ IP Tech: PkgHP1SpH-65to135-E10.1-C3.2
 "HtgFuel" = HP   $ IP Tech: PkgHP1SpH-65to135-E10.1-C3.2
 "IEER" = 12.02   $ IP Tech: PkgHP1SpH-65to135-E10.1-C3.2
 "LowSpdCapRatio" = 0.5   $ IP Tech: PkgHP1SpH-65to135-E10.1-C3.2
 "LowSpdCfmRatio" = 0.66   $ IP Tech: PkgHP1SpH-65to135-E10.1-C3.2
 "NominalCap" = 15   $ IP Tech: PkgHP1SpH-65to135-E10.1-C3.2
 "NumStages" = 1   $ IP Tech: PkgHP1SpH-65to135-E10.1-C3.2
 "RatedEER" = 10.1   $ IP Tech: PkgHP1SpH-65to135-E10.1-C3.2
 "RatedSupMtrClass" = HiEff   $ IP Tech: PkgHP1SpH-65to135-E10.1-C3.2
 "SizeRange" = 65to135   $ IP Tech: PkgHP1SpH-65to135-E10.1-C3.2
 "SubType" = HP   $ IP Tech: PkgHP1SpH-65to135-E10.1-C3.2
 "SupMotEff" = 0.84   $ IP Tech: PkgHP1SpH-65to135-E10.1-C3.2
 "Tier" = 0   $ IP Tech: PkgHP1SpH-65to135-E10.1-C3.2
 "TotCoolCap" = 184140   $ IP Tech: PkgHP1SpH-65to135-E10.1-C3.2
 "BFMult" = 1   $ IP Tech: RefgChg-NRes-Std
 "CoolEirMult" = 1   $ IP Tech: RefgChg-NRes-Std
 "SensCoolCapMult" = 1   $ IP Tech: RefgChg-NRes-Std
 "TotCoolCapMult" = 1   $ IP Tech: RefgChg-NRes-Std
 "AltAdjFactor" = 1.007532   $ Sizing
 "CAssFlo_L_Break_CZn" = 280.0072   $ Sizing
 "CAssFlo_L_CompDC_CZn" = 162.5371   $ Sizing
 "CAssFlo_L_Conf_CZn" = 207.8572   $ Sizing
 "CAssFlo_L_CopyRm_CZn" = 59.23023   $ Sizing
 "CAssFlo_L_Hall_EZn" = 97.61909   $ Sizing
 "CAssFlo_L_Hall_NZn" = 86.42236   $ Sizing
 "CAssFlo_L_Hall_SZn" = 112.5413   $ Sizing
 "CAssFlo_L_Hall_WZn" = 100.3768   $ Sizing
 "CAssFlo_L_LobWait_EZn" = 240.0117   $ Sizing
 "CAssFlo_L_LobWait_NZn" = 181.3541   $ Sizing
 "CAssFlo_L_LobWait_SZn" = 264.936   $ Sizing
 "CAssFlo_L_LobWait_WZn" = 234.8506   $ Sizing
 "CAssFlo_L_MechElec_CZn" = 85.06516   $ Sizing
 "CAssFlo_L_OfficeOpn_CZn" = 60.68882   $ Sizing
 "CAssFlo_L_OfficeOpn_EZn" = 502.3829   $ Sizing
 "CAssFlo_L_OfficeOpn_NZn" = 232.8571   $ Sizing
 "CAssFlo_L_OfficeOpn_SZn" = 507.6011   $ Sizing
 "CAssFlo_L_OfficeOpn_WZn" = 468.097   $ Sizing
 "CAssFlo_L_OfficeSm_EZn" = 416.8181   $ Sizing
 "CAssFlo_L_OfficeSm_NZn" = 193.3031   $ Sizing
 "CAssFlo_L_OfficeSm_SZn" = 444.0781   $ Sizing
 "CAssFlo_L_OfficeSm_WZn" = 406.0485   $ Sizing
 "CAssFlo_L_Restrm_CZn" = 86.07105   $ Sizing
 "CAssFlo_L_StorSm_CZn" = 48.42904   $ Sizing
 "CAssFlo_L_StorSm_EZn" = 94.49507   $ Sizing
 "CAssFlo_L_StorSm_NZn" = 101.5474   $ Sizing
 "CAssFlo_L_StorSm_SZn" = 101.8804   $ Sizing
 "CAssFlo_L_StorSm_WZn" = 91.75042   $ Sizing
 "CAssFlo_T_Conf_CZn" = 211.7083   $ Sizing
 "CAssFlo_T_Hall_EZn" = 116.8932   $ Sizing
 "CAssFlo_T_Hall_NZn" = 81.43825   $ Sizing
 "CAssFlo_T_Hall_SZn" = 132.254   $ Sizing
 "CAssFlo_T_Hall_WZn" = 113.0493   $ Sizing
 "CAssFlo_T_OfficeOpn_CZn" = 59.45172   $ Sizing
 "CAssFlo_T_OfficeOpn_EZn" = 510.4536   $ Sizing
 "CAssFlo_T_OfficeOpn_NZn" = 258.4996   $ Sizing
 "CAssFlo_T_OfficeOpn_SZn" = 545.1909   $ Sizing
 "CAssFlo_T_OfficeOpn_WZn" = 472.402   $ Sizing
 "CAssFlo_T_OfficeSm_EZn" = 432.6053   $ Sizing
 "CAssFlo_T_OfficeSm_NZn" = 200.6824   $ Sizing
 "CAssFlo_T_OfficeSm_SZn" = 480.8669   $ Sizing
 "CAssFlo_T_OfficeSm_WZn" = 411.713   $ Sizing
 "CAssFlo_T_Restrm_CZn" = 86.07105   $ Sizing
 "CAssFlo_T_StorSm_EZn" = 113.489   $ Sizing
 "CAssFlo_T_StorSm_NZn" = 99.77911   $ Sizing
 "CAssFlo_T_StorSm_SZn" = 124.6071   $ Sizing
 "CAssFlo_T_StorSm_WZn" = 110.6588   $ Sizing
 "CHRtFlo_Sys_L_Break_C" = 280.0072   $ Sizing
 "CHRtFlo_Sys_L_CompDC_C" = 162.5371   $ Sizing
 "CHRtFlo_Sys_L_Conf_C" = 207.8572   $ Sizing
 "CHRtFlo_Sys_L_CopyRm_C" = 59.23023   $ Sizing
 "CHRtFlo_Sys_L_Hall_E" = 97.61909   $ Sizing
 "CHRtFlo_Sys_L_Hall_N" = 86.42236   $ Sizing
 "CHRtFlo_Sys_L_Hall_S" = 112.5413   $ Sizing
 "CHRtFlo_Sys_L_Hall_W" = 100.3768   $ Sizing
 "CHRtFlo_Sys_L_LobWait_E" = 240.0117   $ Sizing
 "CHRtFlo_Sys_L_LobWait_N" = 181.3541   $ Sizing
 "CHRtFlo_Sys_L_LobWait_S" = 264.936   $ Sizing
 "CHRtFlo_Sys_L_LobWait_W" = 234.8506   $ Sizing
 "CHRtFlo_Sys_L_MechElec_C" = 85.06516   $ Sizing
 "CHRtFlo_Sys_L_OfficeOpn_C" = 60.68882   $ Sizing
 "CHRtFlo_Sys_L_OfficeOpn_E" = 502.3829   $ Sizing
 "CHRtFlo_Sys_L_OfficeOpn_N" = 232.8571   $ Sizing
 "CHRtFlo_Sys_L_OfficeOpn_S" = 507.6011   $ Sizing
 "CHRtFlo_Sys_L_OfficeOpn_W" = 468.097   $ Sizing
 "CHRtFlo_Sys_L_OfficeSm_E" = 416.8181   $ Sizing
 "CHRtFlo_Sys_L_OfficeSm_N" = 193.3031   $ Sizing
 "CHRtFlo_Sys_L_OfficeSm_S" = 444.0781   $ Sizing
 "CHRtFlo_Sys_L_OfficeSm_W" = 406.0485   $ Sizing
 "CHRtFlo_Sys_L_Restrm_C" = 86.07105   $ Sizing
 "CHRtFlo_Sys_L_StorSm_C" = 48.42904   $ Sizing
 "CHRtFlo_Sys_L_StorSm_E" = 94.49507   $ Sizing
 "CHRtFlo_Sys_L_StorSm_N" = 101.5474   $ Sizing
 "CHRtFlo_Sys_L_StorSm_S" = 101.8804   $ Sizing
 "CHRtFlo_Sys_L_StorSm_W" = 91.75042   $ Sizing
 "CHRtFlo_Sys_T_Conf_C" = 211.7083   $ Sizing
 "CHRtFlo_Sys_T_Hall_E" = 116.8932   $ Sizing
 "CHRtFlo_Sys_T_Hall_N" = 81.43825   $ Sizing
 "CHRtFlo_Sys_T_Hall_S" = 132.254   $ Sizing
 "CHRtFlo_Sys_T_Hall_W" = 113.0493   $ Sizing
 "CHRtFlo_Sys_T_OfficeOpn_C" = 59.45171   $ Sizing
 "CHRtFlo_Sys_T_OfficeOpn_E" = 510.4536   $ Sizing
 "CHRtFlo_Sys_T_OfficeOpn_N" = 258.4996   $ Sizing
 "CHRtFlo_Sys_T_OfficeOpn_S" = 545.1909   $ Sizing
 "CHRtFlo_Sys_T_OfficeOpn_W" = 472.402   $ Sizing
 "CHRtFlo_Sys_T_OfficeSm_E" = 432.6053   $ Sizing
 "CHRtFlo_Sys_T_OfficeSm_N" = 200.6824   $ Sizing
 "CHRtFlo_Sys_T_OfficeSm_S" = 480.8669   $ Sizing
 "CHRtFlo_Sys_T_OfficeSm_W" = 411.713   $ Sizing
 "CHRtFlo_Sys_T_Restrm_C" = 86.07105   $ Sizing
 "CHRtFlo_Sys_T_StorSm_E" = 113.489   $ Sizing
 "CHRtFlo_Sys_T_StorSm_N" = 99.77911   $ Sizing
 "CHRtFlo_Sys_T_StorSm_S" = 124.6071   $ Sizing
 "CHRtFlo_Sys_T_StorSm_W" = 110.6589   $ Sizing
 "CRtdFlo_Sys_L_Break_C" = 280.0072   $ Sizing
 "CRtdFlo_Sys_L_CompDC_C" = 162.5371   $ Sizing
 "CRtdFlo_Sys_L_Conf_C" = 207.8572   $ Sizing
 "CRtdFlo_Sys_L_CopyRm_C" = 59.23023   $ Sizing
 "CRtdFlo_Sys_L_Hall_E" = 97.61909   $ Sizing
 "CRtdFlo_Sys_L_Hall_N" = 86.42236   $ Sizing
 "CRtdFlo_Sys_L_Hall_S" = 112.5413   $ Sizing
 "CRtdFlo_Sys_L_Hall_W" = 100.3768   $ Sizing
 "CRtdFlo_Sys_L_LobWait_E" = 240.0117   $ Sizing
 "CRtdFlo_Sys_L_LobWait_N" = 181.3541   $ Sizing
 "CRtdFlo_Sys_L_LobWait_S" = 264.936   $ Sizing
 "CRtdFlo_Sys_L_LobWait_W" = 234.8506   $ Sizing
 "CRtdFlo_Sys_L_MechElec_C" = 85.06516   $ Sizing
 "CRtdFlo_Sys_L_OfficeOpn_C" = 60.68882   $ Sizing
 "CRtdFlo_Sys_L_OfficeOpn_E" = 502.3829   $ Sizing
 "CRtdFlo_Sys_L_OfficeOpn_N" = 232.8571   $ Sizing
 "CRtdFlo_Sys_L_OfficeOpn_S" = 507.6011   $ Sizing
 "CRtdFlo_Sys_L_OfficeOpn_W" = 468.097   $ Sizing
 "CRtdFlo_Sys_L_OfficeSm_E" = 416.8181   $ Sizing
 "CRtdFlo_Sys_L_OfficeSm_N" = 193.3031   $ Sizing
 "CRtdFlo_Sys_L_OfficeSm_S" = 444.0781   $ Sizing
 "CRtdFlo_Sys_L_OfficeSm_W" = 406.0485   $ Sizing
 "CRtdFlo_Sys_L_Restrm_C" = 86.07105   $ Sizing
 "CRtdFlo_Sys_L_StorSm_C" = 48.42904   $ Sizing
 "CRtdFlo_Sys_L_StorSm_E" = 94.49507   $ Sizing
 "CRtdFlo_Sys_L_StorSm_N" = 101.5474   $ Sizing
 "CRtdFlo_Sys_L_StorSm_S" = 101.8804   $ Sizing
 "CRtdFlo_Sys_L_StorSm_W" = 91.75042   $ Sizing
 "CRtdFlo_Sys_T_Conf_C" = 211.7083   $ Sizing
 "CRtdFlo_Sys_T_Hall_E" = 116.8932   $ Sizing
 "CRtdFlo_Sys_T_Hall_N" = 81.43825   $ Sizing
 "CRtdFlo_Sys_T_Hall_S" = 132.254   $ Sizing
 "CRtdFlo_Sys_T_Hall_W" = 113.0493   $ Sizing
 "CRtdFlo_Sys_T_OfficeOpn_C" = 59.45172   $ Sizing
 "CRtdFlo_Sys_T_OfficeOpn_E" = 510.4536   $ Sizing
 "CRtdFlo_Sys_T_OfficeOpn_N" = 258.4996   $ Sizing
 "CRtdFlo_Sys_T_OfficeOpn_S" = 545.1909   $ Sizing
 "CRtdFlo_Sys_T_OfficeOpn_W" = 472.402   $ Sizing
 "CRtdFlo_Sys_T_OfficeSm_E" = 432.6053   $ Sizing
 "CRtdFlo_Sys_T_OfficeSm_N" = 200.6824   $ Sizing
 "CRtdFlo_Sys_T_OfficeSm_S" = 480.8669   $ Sizing
 "CRtdFlo_Sys_T_OfficeSm_W" = 411.713   $ Sizing
 "CRtdFlo_Sys_T_Restrm_C" = 86.07105   $ Sizing
 "CRtdFlo_Sys_T_StorSm_E" = 113.489   $ Sizing
 "CRtdFlo_Sys_T_StorSm_N" = 99.77911   $ Sizing
 "CRtdFlo_Sys_T_StorSm_S" = 124.6071   $ Sizing
 "CRtdFlo_Sys_T_StorSm_W" = 110.6588   $ Sizing
 "CSupFlo_Sys_L_Break_C" = 280.0072   $ Sizing
 "CSupFlo_Sys_L_CompDC_C" = 162.5371   $ Sizing
 "CSupFlo_Sys_L_Conf_C" = 207.8572   $ Sizing
 "CSupFlo_Sys_L_CopyRm_C" = 59.23023   $ Sizing
 "CSupFlo_Sys_L_Hall_E" = 97.61909   $ Sizing
 "CSupFlo_Sys_L_Hall_N" = 86.42236   $ Sizing
 "CSupFlo_Sys_L_Hall_S" = 112.5413   $ Sizing
 "CSupFlo_Sys_L_Hall_W" = 100.3768   $ Sizing
 "CSupFlo_Sys_L_LobWait_E" = 240.0117   $ Sizing
 "CSupFlo_Sys_L_LobWait_N" = 181.3541   $ Sizing
 "CSupFlo_Sys_L_LobWait_S" = 264.936   $ Sizing
 "CSupFlo_Sys_L_LobWait_W" = 234.8506   $ Sizing
 "CSupFlo_Sys_L_MechElec_C" = 85.06516   $ Sizing
 "CSupFlo_Sys_L_OfficeOpn_C" = 60.68882   $ Sizing
 "CSupFlo_Sys_L_OfficeOpn_E" = 502.3829   $ Sizing
 "CSupFlo_Sys_L_OfficeOpn_N" = 232.8571   $ Sizing
 "CSupFlo_Sys_L_OfficeOpn_S" = 507.6011   $ Sizing
 "CSupFlo_Sys_L_OfficeOpn_W" = 468.097   $ Sizing
 "CSupFlo_Sys_L_OfficeSm_E" = 416.8181   $ Sizing
 "CSupFlo_Sys_L_OfficeSm_N" = 193.3031   $ Sizing
 "CSupFlo_Sys_L_OfficeSm_S" = 444.0781   $ Sizing
 "CSupFlo_Sys_L_OfficeSm_W" = 406.0485   $ Sizing
 "CSupFlo_Sys_L_Restrm_C" = 86.07105   $ Sizing
 "CSupFlo_Sys_L_StorSm_C" = 48.42904   $ Sizing
 "CSupFlo_Sys_L_StorSm_E" = 94.49507   $ Sizing
 "CSupFlo_Sys_L_StorSm_N" = 101.5474   $ Sizing
 "CSupFlo_Sys_L_StorSm_S" = 101.8804   $ Sizing
 "CSupFlo_Sys_L_StorSm_W" = 91.75042   $ Sizing
 "CSupFlo_Sys_T_Conf_C" = 211.7083   $ Sizing
 "CSupFlo_Sys_T_Hall_E" = 116.8932   $ Sizing
 "CSupFlo_Sys_T_Hall_N" = 81.43825   $ Sizing
 "CSupFlo_Sys_T_Hall_S" = 132.254   $ Sizing
 "CSupFlo_Sys_T_Hall_W" = 113.0493   $ Sizing
 "CSupFlo_Sys_T_OfficeOpn_C" = 59.45172   $ Sizing
 "CSupFlo_Sys_T_OfficeOpn_E" = 510.4536   $ Sizing
 "CSupFlo_Sys_T_OfficeOpn_N" = 258.4996   $ Sizing
 "CSupFlo_Sys_T_OfficeOpn_S" = 545.1909   $ Sizing
 "CSupFlo_Sys_T_OfficeOpn_W" = 472.402   $ Sizing
 "CSupFlo_Sys_T_OfficeSm_E" = 432.6053   $ Sizing
 "CSupFlo_Sys_T_OfficeSm_N" = 200.6824   $ Sizing
 "CSupFlo_Sys_T_OfficeSm_S" = 480.8669   $ Sizing
 "CSupFlo_Sys_T_OfficeSm_W" = 411.713   $ Sizing
 "CSupFlo_Sys_T_Restrm_C" = 86.07105   $ Sizing
 "CSupFlo_Sys_T_StorSm_E" = 113.489   $ Sizing
 "CSupFlo_Sys_T_StorSm_N" = 99.77911   $ Sizing
 "CSupFlo_Sys_T_StorSm_S" = 124.6071   $ Sizing
 "CSupFlo_Sys_T_StorSm_W" = 110.6588   $ Sizing
 "ClCap_Sys_L_Break_C" = 9528.478   $ Sizing
 "ClCap_Sys_L_CompDC_C" = 5531.041   $ Sizing
 "ClCap_Sys_L_Conf_C" = 9002.328   $ Sizing
 "ClCap_Sys_L_CopyRm_C" = 2015.569   $ Sizing
 "ClCap_Sys_L_Hall_E" = 3321.919   $ Sizing
 "ClCap_Sys_L_Hall_N" = 2940.901   $ Sizing
 "ClCap_Sys_L_Hall_S" = 3829.714   $ Sizing
 "ClCap_Sys_L_Hall_W" = 3415.763   $ Sizing
 "ClCap_Sys_L_LobWait_E" = 8167.453   $ Sizing
 "ClCap_Sys_L_LobWait_N" = 6171.37   $ Sizing
 "ClCap_Sys_L_LobWait_S" = 9015.612   $ Sizing
 "ClCap_Sys_L_LobWait_W" = 7991.826   $ Sizing
 "ClCap_Sys_L_MechElec_C" = 2894.717   $ Sizing
 "ClCap_Sys_L_OfficeOpn_C" = 2065.204   $ Sizing
 "ClCap_Sys_L_OfficeOpn_E" = 17095.79   $ Sizing
 "ClCap_Sys_L_OfficeOpn_N" = 7923.988   $ Sizing
 "ClCap_Sys_L_OfficeOpn_S" = 17273.36   $ Sizing
 "ClCap_Sys_L_OfficeOpn_W" = 15929.06   $ Sizing
 "ClCap_Sys_L_OfficeSm_E" = 14184.07   $ Sizing
 "ClCap_Sys_L_OfficeSm_N" = 6577.988   $ Sizing
 "ClCap_Sys_L_OfficeSm_S" = 15111.71   $ Sizing
 "ClCap_Sys_L_OfficeSm_W" = 13817.59   $ Sizing
 "ClCap_Sys_L_Restrm_C" = 2928.947   $ Sizing
 "ClCap_Sys_L_StorSm_C" = 1648.011   $ Sizing
 "ClCap_Sys_L_StorSm_E" = 3215.611   $ Sizing
 "ClCap_Sys_L_StorSm_N" = 3455.597   $ Sizing
 "ClCap_Sys_L_StorSm_S" = 3466.931   $ Sizing
 "ClCap_Sys_L_StorSm_W" = 3122.212   $ Sizing
 "ClCap_Sys_T_Conf_C" = 9169.116   $ Sizing
 "ClCap_Sys_T_Hall_E" = 3977.807   $ Sizing
 "ClCap_Sys_T_Hall_N" = 2771.295   $ Sizing
 "ClCap_Sys_T_Hall_S" = 4500.525   $ Sizing
 "ClCap_Sys_T_Hall_W" = 3846.999   $ Sizing
 "ClCap_Sys_T_OfficeOpn_C" = 2023.106   $ Sizing
 "ClCap_Sys_T_OfficeOpn_E" = 17370.43   $ Sizing
 "ClCap_Sys_T_OfficeOpn_N" = 8796.588   $ Sizing
 "ClCap_Sys_T_OfficeOpn_S" = 18552.52   $ Sizing
 "ClCap_Sys_T_OfficeOpn_W" = 16075.56   $ Sizing
 "ClCap_Sys_T_OfficeSm_E" = 14721.3   $ Sizing
 "ClCap_Sys_T_OfficeSm_N" = 6829.101   $ Sizing
 "ClCap_Sys_T_OfficeSm_S" = 16363.61   $ Sizing
 "ClCap_Sys_T_OfficeSm_W" = 14010.35   $ Sizing
 "ClCap_Sys_T_Restrm_C" = 2928.947   $ Sizing
 "ClCap_Sys_T_StorSm_E" = 3861.964   $ Sizing
 "ClCap_Sys_T_StorSm_N" = 3395.424   $ Sizing
 "ClCap_Sys_T_StorSm_S" = 4240.305   $ Sizing
 "ClCap_Sys_T_StorSm_W" = 3765.654   $ Sizing
 "HRtECT_Sys_L_Break_C" = 47   $ Sizing
 "HRtECT_Sys_L_CompDC_C" = 47   $ Sizing
 "HRtECT_Sys_L_Conf_C" = 47   $ Sizing
 "HRtECT_Sys_L_CopyRm_C" = 47   $ Sizing
 "HRtECT_Sys_L_Hall_E" = 47   $ Sizing
 "HRtECT_Sys_L_Hall_N" = 47   $ Sizing
 "HRtECT_Sys_L_Hall_S" = 47   $ Sizing
 "HRtECT_Sys_L_Hall_W" = 47   $ Sizing
 "HRtECT_Sys_L_LobWait_E" = 47   $ Sizing
 "HRtECT_Sys_L_LobWait_N" = 47   $ Sizing
 "HRtECT_Sys_L_LobWait_S" = 47   $ Sizing
 "HRtECT_Sys_L_LobWait_W" = 47   $ Sizing
 "HRtECT_Sys_L_MechElec_C" = 47   $ Sizing
 "HRtECT_Sys_L_OfficeOpn_C" = 47   $ Sizing
 "HRtECT_Sys_L_OfficeOpn_E" = 47   $ Sizing
 "HRtECT_Sys_L_OfficeOpn_N" = 47   $ Sizing
 "HRtECT_Sys_L_OfficeOpn_S" = 47   $ Sizing
 "HRtECT_Sys_L_OfficeOpn_W" = 47   $ Sizing
 "HRtECT_Sys_L_OfficeSm_E" = 47   $ Sizing
 "HRtECT_Sys_L_OfficeSm_N" = 47   $ Sizing
 "HRtECT_Sys_L_OfficeSm_S" = 47   $ Sizing
 "HRtECT_Sys_L_OfficeSm_W" = 47   $ Sizing
 "HRtECT_Sys_L_Restrm_C" = 47   $ Sizing
 "HRtECT_Sys_L_StorSm_C" = 47   $ Sizing
 "HRtECT_Sys_L_StorSm_E" = 47   $ Sizing
 "HRtECT_Sys_L_StorSm_N" = 47   $ Sizing
 "HRtECT_Sys_L_StorSm_S" = 47   $ Sizing
 "HRtECT_Sys_L_StorSm_W" = 47   $ Sizing
 "HRtECT_Sys_T_Conf_C" = 47   $ Sizing
 "HRtECT_Sys_T_Hall_E" = 47   $ Sizing
 "HRtECT_Sys_T_Hall_N" = 47   $ Sizing
 "HRtECT_Sys_T_Hall_S" = 47   $ Sizing
 "HRtECT_Sys_T_Hall_W" = 47   $ Sizing
 "HRtECT_Sys_T_OfficeOpn_C" = 47   $ Sizing
 "HRtECT_Sys_T_OfficeOpn_E" = 47   $ Sizing
 "HRtECT_Sys_T_OfficeOpn_N" = 47   $ Sizing
 "HRtECT_Sys_T_OfficeOpn_S" = 47   $ Sizing
 "HRtECT_Sys_T_OfficeOpn_W" = 47   $ Sizing
 "HRtECT_Sys_T_OfficeSm_E" = 47   $ Sizing
 "HRtECT_Sys_T_OfficeSm_N" = 47   $ Sizing
 "HRtECT_Sys_T_OfficeSm_S" = 47   $ Sizing
 "HRtECT_Sys_T_OfficeSm_W" = 47   $ Sizing
 "HRtECT_Sys_T_Restrm_C" = 47   $ Sizing
 "HRtECT_Sys_T_StorSm_E" = 47   $ Sizing
 "HRtECT_Sys_T_StorSm_N" = 47   $ Sizing
 "HRtECT_Sys_T_StorSm_S" = 47   $ Sizing
 "HRtECT_Sys_T_StorSm_W" = 47   $ Sizing
 "HSpCap_Sys_L_Break_C" = -6746.904   $ Sizing
 "HSpCap_Sys_L_CompDC_C" = -2433.658   $ Sizing
 "HSpCap_Sys_L_Conf_C" = -7374.992   $ Sizing
 "HSpCap_Sys_L_CopyRm_C" = -3026.076   $ Sizing
 "HSpCap_Sys_L_Hall_E" = -2432.252   $ Sizing
 "HSpCap_Sys_L_Hall_N" = -2205.545   $ Sizing
 "HSpCap_Sys_L_Hall_S" = -1685.074   $ Sizing
 "HSpCap_Sys_L_Hall_W" = -2314.924   $ Sizing
 "HSpCap_Sys_L_LobWait_E" = -5739.26   $ Sizing
 "HSpCap_Sys_L_LobWait_N" = -5729.552   $ Sizing
 "HSpCap_Sys_L_LobWait_S" = -4630.8   $ Sizing
 "HSpCap_Sys_L_LobWait_W" = -5759.175   $ Sizing
 "HSpCap_Sys_L_MechElec_C" = -2591.146   $ Sizing
 "HSpCap_Sys_L_OfficeOpn_C" = -1507.38   $ Sizing
 "HSpCap_Sys_L_OfficeOpn_E" = -7522.147   $ Sizing
 "HSpCap_Sys_L_OfficeOpn_N" = -6940.18   $ Sizing
 "HSpCap_Sys_L_OfficeOpn_S" = -7600.28   $ Sizing
 "HSpCap_Sys_L_OfficeOpn_W" = -7008.787   $ Sizing
 "HSpCap_Sys_L_OfficeSm_E" = -6240.992   $ Sizing
 "HSpCap_Sys_L_OfficeSm_N" = -5677.432   $ Sizing
 "HSpCap_Sys_L_OfficeSm_S" = -6649.153   $ Sizing
 "HSpCap_Sys_L_OfficeSm_W" = -6079.738   $ Sizing
 "HSpCap_Sys_L_Restrm_C" = -1414.657   $ Sizing
 "HSpCap_Sys_L_StorSm_C" = -1380.286   $ Sizing
 "HSpCap_Sys_L_StorSm_E" = -2623.86   $ Sizing
 "HSpCap_Sys_L_StorSm_N" = -2895.691   $ Sizing
 "HSpCap_Sys_L_StorSm_S" = -1958.627   $ Sizing
 "HSpCap_Sys_L_StorSm_W" = -2573.148   $ Sizing
 "HSpCap_Sys_T_Conf_C" = -7956.891   $ Sizing
 "HSpCap_Sys_T_Hall_E" = -2909.772   $ Sizing
 "HSpCap_Sys_T_Hall_N" = -2607.438   $ Sizing
 "HSpCap_Sys_T_Hall_S" = -2508.638   $ Sizing
 "HSpCap_Sys_T_Hall_W" = -2811.255   $ Sizing
 "HSpCap_Sys_T_OfficeOpn_C" = -1496.38   $ Sizing
 "HSpCap_Sys_T_OfficeOpn_E" = -8248.854   $ Sizing
 "HSpCap_Sys_T_OfficeOpn_N" = -7657.317   $ Sizing
 "HSpCap_Sys_T_OfficeOpn_S" = -8163.108   $ Sizing
 "HSpCap_Sys_T_OfficeOpn_W" = -8300.778   $ Sizing
 "HSpCap_Sys_T_OfficeSm_E" = -7212.161   $ Sizing
 "HSpCap_Sys_T_OfficeSm_N" = -6222.563   $ Sizing
 "HSpCap_Sys_T_OfficeSm_S" = -7199.99   $ Sizing
 "HSpCap_Sys_T_OfficeSm_W" = -6939.203   $ Sizing
 "HSpCap_Sys_T_Restrm_C" = -2596.083   $ Sizing
 "HSpCap_Sys_T_StorSm_E" = -3353.203   $ Sizing
 "HSpCap_Sys_T_StorSm_N" = -3408.864   $ Sizing
 "HSpCap_Sys_T_StorSm_S" = -2737.176   $ Sizing
 "HSpCap_Sys_T_StorSm_W" = -3360.494   $ Sizing
 "HtCap_Sys_L_Break_C" = -8385.061   $ Sizing
 "HtCap_Sys_L_CompDC_C" = -4867.316   $ Sizing
 "HtCap_Sys_L_Conf_C" = -7922.049   $ Sizing
 "HtCap_Sys_L_CopyRm_C" = -1773.701   $ Sizing
 "HtCap_Sys_L_Hall_E" = -2923.289   $ Sizing
 "HtCap_Sys_L_Hall_N" = -2587.993   $ Sizing
 "HtCap_Sys_L_Hall_S" = -3370.148   $ Sizing
 "HtCap_Sys_L_Hall_W" = -3005.871   $ Sizing
 "HtCap_Sys_L_LobWait_E" = -7187.359   $ Sizing
 "HtCap_Sys_L_LobWait_N" = -5430.806   $ Sizing
 "HtCap_Sys_L_LobWait_S" = -7933.739   $ Sizing
 "HtCap_Sys_L_LobWait_W" = -7032.807   $ Sizing
 "HtCap_Sys_L_MechElec_C" = -2547.351   $ Sizing
 "HtCap_Sys_L_OfficeOpn_C" = -1817.38   $ Sizing
 "HtCap_Sys_L_OfficeOpn_E" = -15044.29   $ Sizing
 "HtCap_Sys_L_OfficeOpn_N" = -6973.11   $ Sizing
 "HtCap_Sys_L_OfficeOpn_S" = -15200.56   $ Sizing
 "HtCap_Sys_L_OfficeOpn_W" = -14017.57   $ Sizing
 "HtCap_Sys_L_OfficeSm_E" = -12481.98   $ Sizing
 "HtCap_Sys_L_OfficeSm_N" = -5788.629   $ Sizing
 "HtCap_Sys_L_OfficeSm_S" = -13298.31   $ Sizing
 "HtCap_Sys_L_OfficeSm_W" = -12159.48   $ Sizing
 "HtCap_Sys_L_Restrm_C" = -2577.473   $ Sizing
 "HtCap_Sys_L_StorSm_C" = -1450.25   $ Sizing
 "HtCap_Sys_L_StorSm_E" = -2829.738   $ Sizing
 "HtCap_Sys_L_StorSm_N" = -3040.926   $ Sizing
 "HtCap_Sys_L_StorSm_S" = -3050.899   $ Sizing
 "HtCap_Sys_L_StorSm_W" = -2747.546   $ Sizing
 "HtCap_Sys_T_Conf_C" = -8068.822   $ Sizing
 "HtCap_Sys_T_Hall_E" = -3500.47   $ Sizing
 "HtCap_Sys_T_Hall_N" = -2438.74   $ Sizing
 "HtCap_Sys_T_Hall_S" = -3960.462   $ Sizing
 "HtCap_Sys_T_Hall_W" = -3385.359   $ Sizing
 "HtCap_Sys_T_OfficeOpn_C" = -1780.333   $ Sizing
 "HtCap_Sys_T_OfficeOpn_E" = -15285.98   $ Sizing
 "HtCap_Sys_T_OfficeOpn_N" = -7740.997   $ Sizing
 "HtCap_Sys_T_OfficeOpn_S" = -16326.22   $ Sizing
 "HtCap_Sys_T_OfficeOpn_W" = -14146.49   $ Sizing
 "HtCap_Sys_T_OfficeSm_E" = -12954.74   $ Sizing
 "HtCap_Sys_T_OfficeSm_N" = -6009.608   $ Sizing
 "HtCap_Sys_T_OfficeSm_S" = -14399.98   $ Sizing
 "HtCap_Sys_T_OfficeSm_W" = -12329.11   $ Sizing
 "HtCap_Sys_T_Restrm_C" = -2577.473   $ Sizing
 "HtCap_Sys_T_StorSm_E" = -3398.528   $ Sizing
 "HtCap_Sys_T_StorSm_N" = -2987.973   $ Sizing
 "HtCap_Sys_T_StorSm_S" = -3731.468   $ Sizing
 "HtCap_Sys_T_StorSm_W" = -3313.776   $ Sizing
..

##include Templates\OfS_DX_SZ.inp
END ..
COMPUTE ..
STOP ..
