INPUT ..

##fileprefix C:\Users\jglasskatz\MASControl3\
##set1 IsSizing FALSE
##set1 CoolType DX
##set1 HeatType FURNACE
##set1 EU_HrRepVar 0
##set1 BldgVint 2015
##set1 BldgLoc CZ09

 ##set1 mBFMult 1   $ IP Tech: RefgChg-NRes-Std

PARAMETER
 "AltFactor" = 1.02768   $ IP Non-Tech
 "BF_fFlow" = SpltAC1Sp-ge45_BF_fFlow   $ Msr (Var)TechID: PreNResSplitAC-45to-PENo
 "BF_fT" = SpltAC1Sp-ge45_BF_fT   $ Msr (Var)TechID: PreNResSplitAC-45to-PENo
 "BldgEconoFlag" = 1   $ IP Non-Tech
 "Break_EWSF" = 1   $ IP Non-Tech
 "Break_LWSF" = 1.1   $ IP Non-Tech
 "CDD_DBHi10" = 91   $ IP Non-Tech
 "CDD_DBHi7" = 91   $ IP Non-Tech
 "CDD_DBHi8" = 94   $ IP Non-Tech
 "CDD_DBHi9" = 100   $ IP Non-Tech
 "CDD_DBRange10" = 30   $ IP Non-Tech
 "CDD_DBRange7" = 19   $ IP Non-Tech
 "CDD_DBRange8" = 23   $ IP Non-Tech
 "CDD_DBRange9" = 24   $ IP Non-Tech
 "CDD_Day10" = 15   $ IP Non-Tech
 "CDD_Day7" = 16   $ IP Non-Tech
 "CDD_Day8" = 20   $ IP Non-Tech
 "CDD_Day9" = 17   $ IP Non-Tech
 "CDD_HrHi10" = 16   $ IP Non-Tech
 "CDD_HrHi7" = 16   $ IP Non-Tech
 "CDD_HrHi8" = 15   $ IP Non-Tech
 "CDD_HrHi9" = 13   $ IP Non-Tech
 "CDD_HrLo10" = 5   $ IP Non-Tech
 "CDD_HrLo7" = 6   $ IP Non-Tech
 "CDD_HrLo8" = 3   $ IP Non-Tech
 "CDD_HrLo9" = 7   $ IP Non-Tech
 "CDD_WB10" = 61.50949097   $ IP Non-Tech
 "CDD_WB7" = 74.70972443   $ IP Non-Tech
 "CDD_WB8" = 73.69755554   $ IP Non-Tech
 "CDD_WB9" = 73.82730103   $ IP Non-Tech
 "CEIR_fPLR_Hot" = SpltAC1Sp-ge45_CEIR_fPLR_Hot   $ Msr (Var)TechID: PreNResSplitAC-45to-PENo
 "CEIR_fPLR_Mod" = SpltAC1Sp-ge45_CEIR_fPLR_Mod   $ Msr (Var)TechID: PreNResSplitAC-45to-PENo
 "CEIR_fPLR_Tem" = SpltAC1Sp-ge45_CEIR_fPLR_Tem   $ Msr (Var)TechID: PreNResSplitAC-45to-PENo
 "CLoss_fPLR_Hot" = SpltAC1Sp-ge45_CLoss_fPLR_Hot   $ Msr (Var)TechID: PreNResSplitAC-45to-PENo
 "CLoss_fPLR_Mod" = SpltAC1Sp-ge45_CLoss_fPLR_Mod   $ Msr (Var)TechID: PreNResSplitAC-45to-PENo
 "CLoss_fPLR_Tem" = SpltAC1Sp-ge45_CLoss_fPLR_Tem   $ Msr (Var)TechID: PreNResSplitAC-45to-PENo
 "COP47" = 0   $ Msr (Var)TechID: PreNResSplitAC-45to-PENo
 "CZ_Category" = Mod   $ IP Non-Tech
 "CapRange" = ge45   $ Msr (Var)TechID: PreNResSplitAC-45to-PENo
 "CfmPerBtuh" = 0.03263   $ Msr (Var)TechID: PreNResSplitAC-45to-PENo
 "ChwVintEconoFlag" = 1   $ IP Non-Tech
 "ClCap_fT" = SpltAC1Sp-ge45_ClCap_fT   $ Msr (Var)TechID: PreNResSplitAC-45to-PENo
 "ClSH_fT" = SpltAC1Sp-ge45_ClSH_fT   $ Msr (Var)TechID: PreNResSplitAC-45to-PENo
 "CoilBF" = 0.106518182   $ Msr (Var)TechID: PreNResSplitAC-45to-PENo
 "CompRoomData_EWSF" = 5   $ IP Non-Tech
 "CompRoomData_LWSF" = 1.05   $ IP Non-Tech
 "CondWPerBtuh" = 0   $ Msr (Var)TechID: PreNResSplitAC-45to-PENo
 "Conference_EWSF" = 1   $ IP Non-Tech
 "Conference_LWSF" = 1.4   $ IP Non-Tech
 "CoolSensCap" = 0.759218182   $ Msr (Var)TechID: PreNResSplitAC-45to-PENo
 "CoolSetT" = 45   $ IP Non-Tech
 "CoolType" = DX   $ IP Non-Tech
 "CoolingEIR" = 0.2466   $ Msr (Var)TechID: PreNResSplitAC-45to-PENo
 "CopyRoom_EWSF" = 1.5   $ IP Non-Tech
 "CopyRoom_LWSF" = 1.3   $ IP Non-Tech
 "CrnkEIR" = 0.002466   $ Msr (Var)TechID: PreNResSplitAC-45to-PENo
 "CrnkMaxT" = 50   $ Msr (Var)TechID: PreNResSplitAC-45to-PENo
 "DXType" = SplitSEER   $ Msr (Var)TechID: PreNResSplitAC-45to-PENo
 "DesCoolT" = 75   $ IP Non-Tech
 "DesHeatT" = 73   $ IP Non-Tech
 "EER" = 11.81793103   $ Msr (Var)TechID: PreNResSplitAC-45to-PENo
 "EIR_fT" = SpltAC1Sp-ge45_EIR_fT   $ Msr (Var)TechID: PreNResSplitAC-45to-PENo
 "EconoCtrl" = FIXED   $ Msr (Multi)TechID: PreNResSplitAC-45to-PENo
 "EconoEnthLimit" = 28   $ IP Non-Tech
 "EconoTempLimit" = 71   $ IP Non-Tech
 "Elevation" = 741   $ IP Non-Tech
 "FanEirPlr" = TwoSpeedFan   $ Msr (Var)TechID: PreNResSplitAC-45to-PENo
 "FanWPerCfm" = 0.294   $ Msr (Var)TechID: PreNResSplitAC-45to-PENo
 "HDD_CloudAmt1" = 0   $ IP Non-Tech
 "HDD_DBHi1" = 55   $ IP Non-Tech
 "HDD_DBRange1" = 18   $ IP Non-Tech
 "HDD_Day1" = 15   $ IP Non-Tech
 "HDD_HrHi1" = 15   $ IP Non-Tech
 "HDD_HrLo1" = 5   $ IP Non-Tech
 "HDD_WB1" = 48.4   $ IP Non-Tech
 "HDD_WindSpd1" = 10.4   $ IP Non-Tech
 "HIR_fT" = 0   $ Msr (Var)TechID: PreNResSplitAC-45to-PENo
 "HSPF" = 0   $ Msr (Var)TechID: PreNResSplitAC-45to-PENo
 "Hall_EWSF" = 0.2   $ IP Non-Tech
 "Hall_LWSF" = 0.6   $ IP Non-Tech
 "HeatSrc" = FURNACE   $ IP Non-Tech
 "HeatSrcTU" = HEAT-PUMP   $ IP Non-Tech
 "HeatType" = GasFurn   $ IP Non-Tech
 "HeatTypeTU" = HEAT-PUMP   $ IP Non-Tech
 "HtCap_fT" = 0   $ Msr (Var)TechID: PreNResSplitAC-45to-PENo
 "HtCoolCapRatio" = 0   $ Msr (Var)TechID: PreNResSplitAC-45to-PENo
 "HtgEIR" = 0   $ Msr (Var)TechID: PreNResSplitAC-45to-PENo
 "IndoorFanMode" = CONTINUOUS   $ IP Non-Tech
 "KT_TransferAir" = Yes   $ IP Non-Tech
 "Latitude" = 34.1   $ IP Non-Tech
 "LobbyWaiting_EWSF" = 0.5   $ IP Non-Tech
 "LobbyWaiting_LWSF" = 1.3   $ IP Non-Tech
 "Longitude" = 117.8   $ IP Non-Tech
 "LowSpdCapRatio" = 1   $ Msr (Var)TechID: PreNResSplitAC-45to-PENo
 "LowSpdCfmRatio" = 1   $ Msr (Var)TechID: PreNResSplitAC-45to-PENo
 "MZFanMechEff" = 0.58   $ IP Non-Tech
 "MZHasRetFan" = FALSE   $ IP Non-Tech
 "MZ_RFanWPerCfm" = 0.33   $ IP Non-Tech
 "MZ_SFanWPerCfm" = 0.75   $ IP Non-Tech
 "MZ_SupFanStatic" = 2.25   $ IP Non-Tech
 "MaxOAFrac" = 1   $ Msr (Multi)TechID: PreNResSplitAC-45to-PENo
 "MaxSupT_MZ" = 100   $ IP Non-Tech
 "MaxSupT_SZ" = 100   $ IP Non-Tech
 "MaxSupT_TU" = 90   $ IP Non-Tech
 "MechElecRoom_EWSF" = 0.2   $ IP Non-Tech
 "MechElecRoom_LWSF" = 0.7   $ IP Non-Tech
 "MinCfmPerSF" = 0.4   $ IP Non-Tech
 "MinSupT" = 55   $ IP Non-Tech
 "NumStages" = 1   $ Msr (Var)TechID: PreNResSplitAC-45to-PENo
 "OccCoolT" = 76   $ IP Non-Tech
 "OccHeatT" = 72   $ IP Non-Tech
 "OfficeOpen_EWSF" = 1.5   $ IP Non-Tech
 "OfficeOpen_LWSF" = 1.05   $ IP Non-Tech
 "OfficeSmall_EWSF" = 1.5   $ IP Non-Tech
 "OfficeSmall_LWSF" = 1.3   $ IP Non-Tech
 "PkgDxVintEconoFlag" = 1   $ IP Non-Tech
 "Restroom_EWSF" = 0.2   $ IP Non-Tech
 "Restroom_LWSF" = 0.6   $ IP Non-Tech
 "SEER" = 14   $ Msr (Var)TechID: PreNResSplitAC-45to-PENo
 "SZFanMechEff" = 0.58   $ IP Non-Tech
 "SZHasRetFan" = FALSE   $ IP Non-Tech
 "SZ_Is_2Spd" = TRUE   $ IP Non-Tech
 "SZ_SFanWPerCfm" = 0.46   $ IP Non-Tech
 "SZ_SupFanStatic" = 0.75   $ IP Non-Tech
 "Sector" = Any   $ Msr (Var)TechID: PreNResSplitAC-45to-PENo
 "StorageSmlCond_EWSF" = 0.2   $ IP Non-Tech
 "StorageSmlCond_LWSF" = 0.6   $ IP Non-Tech
 "SubType" = AC   $ Msr (Var)TechID: PreNResSplitAC-45to-PENo
 "T24GlzTbl" = TypeTbl   $ IP Non-Tech
 "TermUnitFanMechEff" = 1   $ IP Non-Tech
 "TermUnitFanMode" = INTERMITTENT   $ IP Non-Tech
 "TotCoolCap" = 52519.36364   $ Msr (Var)TechID: PreNResSplitAC-45to-PENo
 "TwrSetpt" = 86.9   $ IP Non-Tech
 "UnocCoolT" = 86   $ IP Non-Tech
 "UnocHeatT" = 62   $ IP Non-Tech
 "UseEconoVintApplic" = FALSE   $ Msr (Multi)TechID: PreNResSplitAC-45to-PENo
 "WlhpVintEconoFlag" = 1   $ IP Non-Tech
 "DuctDT" = 1   $ IP Tech: ComDuctInsul-1
 "DuctAirLoss" = 0   $ IP Tech: ComDuctLeak-0
 "DuctLossOAFrac" = 0   $ IP Tech: ComDuctLeak-0
 "ComRoofInsCalc" = FromUo   $ IP Tech: ComRoofIns-WFrm-0.04
 "ComRoofInsR" = -999   $ IP Tech: ComRoofIns-WFrm-0.04
 "ComRoofUo" = 0.04   $ IP Tech: ComRoofIns-WFrm-0.04
 "ComEWInsCalc" = FromUo   $ IP Tech: ComWallIns-WFrm-0.06
 "ComEWInsR" = -999   $ IP Tech: ComWallIns-WFrm-0.06
 "ComEWUo" = 0.06   $ IP Tech: ComWallIns-WFrm-0.06
 "ComN_SHGC" = 0.25   $ IP Tech: NResWin-ComN-0.36-0.25
 "ComN_UFactor" = 0.36   $ IP Tech: NResWin-ComN-0.36-0.25
 "ComN_VisTrans" = 0.41   $ IP Tech: NResWin-ComN-0.36-0.25
 "ComN_WinCode" = G2668   $ IP Tech: NResWin-ComN-0.36-0.25
 "ComN_WinFrmFrac" = 0.17   $ IP Tech: NResWin-ComN-0.36-0.25
 "ComN_WinFrmU" = 0.3   $ IP Tech: NResWin-ComN-0.36-0.25
 "ComO_SHGC" = 0.25   $ IP Tech: NResWin-ComO-0.36-0.25
 "ComO_UFactor" = 0.36   $ IP Tech: NResWin-ComO-0.36-0.25
 "ComO_VisTrans" = 0.41   $ IP Tech: NResWin-ComO-0.36-0.25
 "ComO_WinCode" = G2668   $ IP Tech: NResWin-ComO-0.36-0.25
 "ComO_WinFrmFrac" = 0.17   $ IP Tech: NResWin-ComO-0.36-0.25
 "ComO_WinFrmU" = 0.3   $ IP Tech: NResWin-ComO-0.36-0.25
 "LtgMsrApplic" = ALL   $ IP Tech: NonResLtgRefPre
 "LtgSav_CFL" = 0   $ IP Tech: NonResLtgRefPre
 "LtgSav_EX" = 0   $ IP Tech: NonResLtgRefPre
 "LtgSav_HB" = 0   $ IP Tech: NonResLtgRefPre
 "LtgSav_LF" = 0   $ IP Tech: NonResLtgRefPre
 "LtgSav_SP" = 0   $ IP Tech: NonResLtgRefPre
 "CEIR_fPLR" = PSZ65to135_CEIR_fPLR   $ IP Tech: PkgAC2SpP-65to135-E11
 "CLoss_fPLR" = PSZ65to135_CLoss_fPLR   $ IP Tech: PkgAC2SpP-65to135-E11
 "COP" = -1   $ IP Tech: PkgAC2SpP-65to135-E11
 "HtgFuel" = Gas   $ IP Tech: PkgAC2SpP-65to135-E11
 "IEER" = 13.35   $ IP Tech: PkgAC2SpP-65to135-E11
 "NominalCap" = 15   $ IP Tech: PkgAC2SpP-65to135-E11
 "RatedEER" = 11   $ IP Tech: PkgAC2SpP-65to135-E11
 "RatedSupMtrClass" = Premium   $ IP Tech: PkgAC2SpP-65to135-E11
 "SizeRange" = 65to135   $ IP Tech: PkgAC2SpP-65to135-E11
 "SupMotEff" = 0.865   $ IP Tech: PkgAC2SpP-65to135-E11
 "Tier" = 0   $ IP Tech: PkgAC2SpP-65to135-E11
 "FanPwrMult" = 1   $ IP Tech: PkgFurn-0.80AFUE
 "FurnAFUE" = 0.8   $ IP Tech: PkgFurn-0.80AFUE
 "FurnEt" = 0.82   $ IP Tech: PkgFurn-0.80AFUE
 "FurnaceAuxKW" = 0.1   $ IP Tech: PkgFurn-0.80AFUE
 "HIR_fPLR" = Furnace-HIR-fPLR   $ IP Tech: PkgFurn-0.80AFUE
 "VSM" = FALSE   $ IP Tech: PkgFurn-0.80AFUE
 "BFMult" = 1   $ IP Tech: RefgChg-NRes-Std
 "CoolEirMult" = 1   $ IP Tech: RefgChg-NRes-Std
 "SensCoolCapMult" = 1   $ IP Tech: RefgChg-NRes-Std
 "TotCoolCapMult" = 1   $ IP Tech: RefgChg-NRes-Std
 "AltAdjFactor" = 1.027678   $ Sizing
 "CAssFlo_L_Break_CZn" = 510.9109   $ Sizing
 "CAssFlo_L_CompDC_CZn" = 156.289   $ Sizing
 "CAssFlo_L_Conf_CZn" = 290.4123   $ Sizing
 "CAssFlo_L_CopyRm_CZn" = 107.4475   $ Sizing
 "CAssFlo_L_Hall_EZn" = 102.8713   $ Sizing
 "CAssFlo_L_Hall_NZn" = 59.90048   $ Sizing
 "CAssFlo_L_Hall_SZn" = 106.3826   $ Sizing
 "CAssFlo_L_Hall_WZn" = 116.3592   $ Sizing
 "CAssFlo_L_LobWait_EZn" = 250.7742   $ Sizing
 "CAssFlo_L_LobWait_NZn" = 168.7038   $ Sizing
 "CAssFlo_L_LobWait_SZn" = 271.243   $ Sizing
 "CAssFlo_L_LobWait_WZn" = 303.7828   $ Sizing
 "CAssFlo_L_MechElec_CZn" = 87.94814   $ Sizing
 "CAssFlo_L_OfficeOpn_CZn" = 72.60802   $ Sizing
 "CAssFlo_L_OfficeOpn_EZn" = 466.2423   $ Sizing
 "CAssFlo_L_OfficeOpn_NZn" = 352.3545   $ Sizing
 "CAssFlo_L_OfficeOpn_SZn" = 480.3457   $ Sizing
 "CAssFlo_L_OfficeOpn_WZn" = 524.9529   $ Sizing
 "CAssFlo_L_OfficeSm_EZn" = 386.2708   $ Sizing
 "CAssFlo_L_OfficeSm_NZn" = 273.8758   $ Sizing
 "CAssFlo_L_OfficeSm_SZn" = 402.9142   $ Sizing
 "CAssFlo_L_OfficeSm_WZn" = 443.6641   $ Sizing
 "CAssFlo_L_Restrm_CZn" = 95.05279   $ Sizing
 "CAssFlo_L_StorSm_CZn" = 41.95365   $ Sizing
 "CAssFlo_L_StorSm_EZn" = 103.7946   $ Sizing
 "CAssFlo_L_StorSm_NZn" = 60.8282   $ Sizing
 "CAssFlo_L_StorSm_SZn" = 108.8073   $ Sizing
 "CAssFlo_L_StorSm_WZn" = 114.0282   $ Sizing
 "CAssFlo_T_Conf_CZn" = 281.9176   $ Sizing
 "CAssFlo_T_Hall_EZn" = 114.2158   $ Sizing
 "CAssFlo_T_Hall_NZn" = 65.45465   $ Sizing
 "CAssFlo_T_Hall_SZn" = 119.2634   $ Sizing
 "CAssFlo_T_Hall_WZn" = 124.7194   $ Sizing
 "CAssFlo_T_OfficeOpn_CZn" = 72.4613   $ Sizing
 "CAssFlo_T_OfficeOpn_EZn" = 480.6701   $ Sizing
 "CAssFlo_T_OfficeOpn_NZn" = 358.371   $ Sizing
 "CAssFlo_T_OfficeOpn_SZn" = 513.3218   $ Sizing
 "CAssFlo_T_OfficeOpn_WZn" = 541.8185   $ Sizing
 "CAssFlo_T_OfficeSm_EZn" = 400.9938   $ Sizing
 "CAssFlo_T_OfficeSm_NZn" = 281.3427   $ Sizing
 "CAssFlo_T_OfficeSm_SZn" = 432.7177   $ Sizing
 "CAssFlo_T_OfficeSm_WZn" = 460.345   $ Sizing
 "CAssFlo_T_Restrm_CZn" = 136.999   $ Sizing
 "CAssFlo_T_StorSm_EZn" = 121.7252   $ Sizing
 "CAssFlo_T_StorSm_NZn" = 71.40134   $ Sizing
 "CAssFlo_T_StorSm_SZn" = 127.6582   $ Sizing
 "CAssFlo_T_StorSm_WZn" = 132.124   $ Sizing
 "CHRtFlo_Sys_L_Break_C" = 510.9109   $ Sizing
 "CHRtFlo_Sys_L_CompDC_C" = 180.351   $ Sizing
 "CHRtFlo_Sys_L_Conf_C" = 290.4123   $ Sizing
 "CHRtFlo_Sys_L_CopyRm_C" = 107.4475   $ Sizing
 "CHRtFlo_Sys_L_Hall_E" = 115.5572   $ Sizing
 "CHRtFlo_Sys_L_Hall_N" = 59.90048   $ Sizing
 "CHRtFlo_Sys_L_Hall_S" = 117.7154   $ Sizing
 "CHRtFlo_Sys_L_Hall_W" = 117.1374   $ Sizing
 "CHRtFlo_Sys_L_LobWait_E" = 270.4629   $ Sizing
 "CHRtFlo_Sys_L_LobWait_N" = 168.7038   $ Sizing
 "CHRtFlo_Sys_L_LobWait_S" = 271.243   $ Sizing
 "CHRtFlo_Sys_L_LobWait_W" = 303.7828   $ Sizing
 "CHRtFlo_Sys_L_MechElec_C" = 104.8907   $ Sizing
 "CHRtFlo_Sys_L_OfficeOpn_C" = 83.40523   $ Sizing
 "CHRtFlo_Sys_L_OfficeOpn_E" = 516.0667   $ Sizing
 "CHRtFlo_Sys_L_OfficeOpn_N" = 352.3544   $ Sizing
 "CHRtFlo_Sys_L_OfficeOpn_S" = 494.0871   $ Sizing
 "CHRtFlo_Sys_L_OfficeOpn_W" = 524.9529   $ Sizing
 "CHRtFlo_Sys_L_OfficeSm_E" = 436.7536   $ Sizing
 "CHRtFlo_Sys_L_OfficeSm_N" = 273.8758   $ Sizing
 "CHRtFlo_Sys_L_OfficeSm_S" = 429.0711   $ Sizing
 "CHRtFlo_Sys_L_OfficeSm_W" = 447.1206   $ Sizing
 "CHRtFlo_Sys_L_Restrm_C" = 104.0461   $ Sizing
 "CHRtFlo_Sys_L_StorSm_C" = 44.97001   $ Sizing
 "CHRtFlo_Sys_L_StorSm_E" = 114.3174   $ Sizing
 "CHRtFlo_Sys_L_StorSm_N" = 60.8282   $ Sizing
 "CHRtFlo_Sys_L_StorSm_S" = 112.7132   $ Sizing
 "CHRtFlo_Sys_L_StorSm_W" = 114.0282   $ Sizing
 "CHRtFlo_Sys_T_Conf_C" = 281.9176   $ Sizing
 "CHRtFlo_Sys_T_Hall_E" = 122.8493   $ Sizing
 "CHRtFlo_Sys_T_Hall_N" = 65.45465   $ Sizing
 "CHRtFlo_Sys_T_Hall_S" = 124.0723   $ Sizing
 "CHRtFlo_Sys_T_Hall_W" = 124.7194   $ Sizing
 "CHRtFlo_Sys_T_OfficeOpn_C" = 76.00034   $ Sizing
 "CHRtFlo_Sys_T_OfficeOpn_E" = 499.0845   $ Sizing
 "CHRtFlo_Sys_T_OfficeOpn_N" = 358.371   $ Sizing
 "CHRtFlo_Sys_T_OfficeOpn_S" = 513.3218   $ Sizing
 "CHRtFlo_Sys_T_OfficeOpn_W" = 541.8185   $ Sizing
 "CHRtFlo_Sys_T_OfficeSm_E" = 426.7437   $ Sizing
 "CHRtFlo_Sys_T_OfficeSm_N" = 281.3427   $ Sizing
 "CHRtFlo_Sys_T_OfficeSm_S" = 439.5547   $ Sizing
 "CHRtFlo_Sys_T_OfficeSm_W" = 460.345   $ Sizing
 "CHRtFlo_Sys_T_Restrm_C" = 148.7713   $ Sizing
 "CHRtFlo_Sys_T_StorSm_E" = 123.6963   $ Sizing
 "CHRtFlo_Sys_T_StorSm_N" = 71.40134   $ Sizing
 "CHRtFlo_Sys_T_StorSm_S" = 127.6582   $ Sizing
 "CHRtFlo_Sys_T_StorSm_W" = 132.124   $ Sizing
 "CRtdFlo_Sys_L_Break_C" = 510.9109   $ Sizing
 "CRtdFlo_Sys_L_CompDC_C" = 156.289   $ Sizing
 "CRtdFlo_Sys_L_Conf_C" = 290.4123   $ Sizing
 "CRtdFlo_Sys_L_CopyRm_C" = 107.4475   $ Sizing
 "CRtdFlo_Sys_L_Hall_E" = 102.8713   $ Sizing
 "CRtdFlo_Sys_L_Hall_N" = 59.90048   $ Sizing
 "CRtdFlo_Sys_L_Hall_S" = 106.3826   $ Sizing
 "CRtdFlo_Sys_L_Hall_W" = 116.3592   $ Sizing
 "CRtdFlo_Sys_L_LobWait_E" = 250.7742   $ Sizing
 "CRtdFlo_Sys_L_LobWait_N" = 168.7038   $ Sizing
 "CRtdFlo_Sys_L_LobWait_S" = 271.161   $ Sizing
 "CRtdFlo_Sys_L_LobWait_W" = 303.7828   $ Sizing
 "CRtdFlo_Sys_L_MechElec_C" = 87.94814   $ Sizing
 "CRtdFlo_Sys_L_OfficeOpn_C" = 72.60802   $ Sizing
 "CRtdFlo_Sys_L_OfficeOpn_E" = 466.2423   $ Sizing
 "CRtdFlo_Sys_L_OfficeOpn_N" = 352.3544   $ Sizing
 "CRtdFlo_Sys_L_OfficeOpn_S" = 480.3457   $ Sizing
 "CRtdFlo_Sys_L_OfficeOpn_W" = 524.9529   $ Sizing
 "CRtdFlo_Sys_L_OfficeSm_E" = 386.2708   $ Sizing
 "CRtdFlo_Sys_L_OfficeSm_N" = 273.8758   $ Sizing
 "CRtdFlo_Sys_L_OfficeSm_S" = 402.9142   $ Sizing
 "CRtdFlo_Sys_L_OfficeSm_W" = 443.6641   $ Sizing
 "CRtdFlo_Sys_L_Restrm_C" = 95.05279   $ Sizing
 "CRtdFlo_Sys_L_StorSm_C" = 41.95365   $ Sizing
 "CRtdFlo_Sys_L_StorSm_E" = 103.7946   $ Sizing
 "CRtdFlo_Sys_L_StorSm_N" = 60.8282   $ Sizing
 "CRtdFlo_Sys_L_StorSm_S" = 108.8073   $ Sizing
 "CRtdFlo_Sys_L_StorSm_W" = 114.0282   $ Sizing
 "CRtdFlo_Sys_T_Conf_C" = 281.9176   $ Sizing
 "CRtdFlo_Sys_T_Hall_E" = 114.2158   $ Sizing
 "CRtdFlo_Sys_T_Hall_N" = 65.45465   $ Sizing
 "CRtdFlo_Sys_T_Hall_S" = 119.2634   $ Sizing
 "CRtdFlo_Sys_T_Hall_W" = 124.7194   $ Sizing
 "CRtdFlo_Sys_T_OfficeOpn_C" = 72.4613   $ Sizing
 "CRtdFlo_Sys_T_OfficeOpn_E" = 480.6701   $ Sizing
 "CRtdFlo_Sys_T_OfficeOpn_N" = 358.371   $ Sizing
 "CRtdFlo_Sys_T_OfficeOpn_S" = 513.3218   $ Sizing
 "CRtdFlo_Sys_T_OfficeOpn_W" = 541.8185   $ Sizing
 "CRtdFlo_Sys_T_OfficeSm_E" = 400.9938   $ Sizing
 "CRtdFlo_Sys_T_OfficeSm_N" = 281.3427   $ Sizing
 "CRtdFlo_Sys_T_OfficeSm_S" = 432.7177   $ Sizing
 "CRtdFlo_Sys_T_OfficeSm_W" = 460.345   $ Sizing
 "CRtdFlo_Sys_T_Restrm_C" = 136.999   $ Sizing
 "CRtdFlo_Sys_T_StorSm_E" = 121.7252   $ Sizing
 "CRtdFlo_Sys_T_StorSm_N" = 71.40134   $ Sizing
 "CRtdFlo_Sys_T_StorSm_S" = 127.6582   $ Sizing
 "CRtdFlo_Sys_T_StorSm_W" = 132.124   $ Sizing
 "CSupFlo_Sys_L_Break_C" = 510.9109   $ Sizing
 "CSupFlo_Sys_L_CompDC_C" = 156.289   $ Sizing
 "CSupFlo_Sys_L_Conf_C" = 290.4123   $ Sizing
 "CSupFlo_Sys_L_CopyRm_C" = 107.4475   $ Sizing
 "CSupFlo_Sys_L_Hall_E" = 102.8713   $ Sizing
 "CSupFlo_Sys_L_Hall_N" = 59.90048   $ Sizing
 "CSupFlo_Sys_L_Hall_S" = 106.3826   $ Sizing
 "CSupFlo_Sys_L_Hall_W" = 116.3592   $ Sizing
 "CSupFlo_Sys_L_LobWait_E" = 250.7742   $ Sizing
 "CSupFlo_Sys_L_LobWait_N" = 168.7038   $ Sizing
 "CSupFlo_Sys_L_LobWait_S" = 271.161   $ Sizing
 "CSupFlo_Sys_L_LobWait_W" = 303.7828   $ Sizing
 "CSupFlo_Sys_L_MechElec_C" = 87.94814   $ Sizing
 "CSupFlo_Sys_L_OfficeOpn_C" = 72.60802   $ Sizing
 "CSupFlo_Sys_L_OfficeOpn_E" = 466.2423   $ Sizing
 "CSupFlo_Sys_L_OfficeOpn_N" = 352.3544   $ Sizing
 "CSupFlo_Sys_L_OfficeOpn_S" = 480.3457   $ Sizing
 "CSupFlo_Sys_L_OfficeOpn_W" = 524.9529   $ Sizing
 "CSupFlo_Sys_L_OfficeSm_E" = 386.2708   $ Sizing
 "CSupFlo_Sys_L_OfficeSm_N" = 273.8758   $ Sizing
 "CSupFlo_Sys_L_OfficeSm_S" = 402.9142   $ Sizing
 "CSupFlo_Sys_L_OfficeSm_W" = 443.6641   $ Sizing
 "CSupFlo_Sys_L_Restrm_C" = 95.05279   $ Sizing
 "CSupFlo_Sys_L_StorSm_C" = 41.95365   $ Sizing
 "CSupFlo_Sys_L_StorSm_E" = 103.7946   $ Sizing
 "CSupFlo_Sys_L_StorSm_N" = 60.8282   $ Sizing
 "CSupFlo_Sys_L_StorSm_S" = 108.8073   $ Sizing
 "CSupFlo_Sys_L_StorSm_W" = 114.0282   $ Sizing
 "CSupFlo_Sys_T_Conf_C" = 281.9176   $ Sizing
 "CSupFlo_Sys_T_Hall_E" = 114.2158   $ Sizing
 "CSupFlo_Sys_T_Hall_N" = 65.45465   $ Sizing
 "CSupFlo_Sys_T_Hall_S" = 119.2634   $ Sizing
 "CSupFlo_Sys_T_Hall_W" = 124.7194   $ Sizing
 "CSupFlo_Sys_T_OfficeOpn_C" = 72.4613   $ Sizing
 "CSupFlo_Sys_T_OfficeOpn_E" = 480.6701   $ Sizing
 "CSupFlo_Sys_T_OfficeOpn_N" = 358.371   $ Sizing
 "CSupFlo_Sys_T_OfficeOpn_S" = 513.3218   $ Sizing
 "CSupFlo_Sys_T_OfficeOpn_W" = 541.8185   $ Sizing
 "CSupFlo_Sys_T_OfficeSm_E" = 400.9938   $ Sizing
 "CSupFlo_Sys_T_OfficeSm_N" = 281.3427   $ Sizing
 "CSupFlo_Sys_T_OfficeSm_S" = 432.7177   $ Sizing
 "CSupFlo_Sys_T_OfficeSm_W" = 460.345   $ Sizing
 "CSupFlo_Sys_T_Restrm_C" = 136.999   $ Sizing
 "CSupFlo_Sys_T_StorSm_E" = 121.7252   $ Sizing
 "CSupFlo_Sys_T_StorSm_N" = 71.40134   $ Sizing
 "CSupFlo_Sys_T_StorSm_S" = 127.6582   $ Sizing
 "CSupFlo_Sys_T_StorSm_W" = 132.124   $ Sizing
 "ClCap_Sys_L_Break_C" = 17045.16   $ Sizing
 "ClCap_Sys_L_CompDC_C" = 5214.159   $ Sizing
 "ClCap_Sys_L_Conf_C" = 12331.23   $ Sizing
 "ClCap_Sys_L_CopyRm_C" = 3584.697   $ Sizing
 "ClCap_Sys_L_Hall_E" = 3432.022   $ Sizing
 "ClCap_Sys_L_Hall_N" = 1998.418   $ Sizing
 "ClCap_Sys_L_Hall_S" = 3549.169   $ Sizing
 "ClCap_Sys_L_Hall_W" = 3882.011   $ Sizing
 "ClCap_Sys_L_LobWait_E" = 8366.403   $ Sizing
 "ClCap_Sys_L_LobWait_N" = 5628.348   $ Sizing
 "ClCap_Sys_L_LobWait_S" = 9046.554   $ Sizing
 "ClCap_Sys_L_LobWait_W" = 10134.89   $ Sizing
 "ClCap_Sys_L_MechElec_C" = 2934.152   $ Sizing
 "ClCap_Sys_L_OfficeOpn_C" = 2422.37   $ Sizing
 "ClCap_Sys_L_OfficeOpn_E" = 15554.92   $ Sizing
 "ClCap_Sys_L_OfficeOpn_N" = 11755.35   $ Sizing
 "ClCap_Sys_L_OfficeOpn_S" = 16025.44   $ Sizing
 "ClCap_Sys_L_OfficeOpn_W" = 17513.63   $ Sizing
 "ClCap_Sys_L_OfficeSm_E" = 12886.88   $ Sizing
 "ClCap_Sys_L_OfficeSm_N" = 9137.125   $ Sizing
 "ClCap_Sys_L_OfficeSm_S" = 13442.14   $ Sizing
 "ClCap_Sys_L_OfficeSm_W" = 14801.65   $ Sizing
 "ClCap_Sys_L_Restrm_C" = 3171.179   $ Sizing
 "ClCap_Sys_L_StorSm_C" = 1399.67   $ Sizing
 "ClCap_Sys_L_StorSm_E" = 3462.827   $ Sizing
 "ClCap_Sys_L_StorSm_N" = 2029.369   $ Sizing
 "ClCap_Sys_L_StorSm_S" = 3630.061   $ Sizing
 "ClCap_Sys_L_StorSm_W" = 3804.241   $ Sizing
 "ClCap_Sys_T_Conf_C" = 11970.53   $ Sizing
 "ClCap_Sys_T_Hall_E" = 3810.502   $ Sizing
 "ClCap_Sys_T_Hall_N" = 2183.718   $ Sizing
 "ClCap_Sys_T_Hall_S" = 3978.901   $ Sizing
 "ClCap_Sys_T_Hall_W" = 4160.924   $ Sizing
 "ClCap_Sys_T_OfficeOpn_C" = 2417.476   $ Sizing
 "ClCap_Sys_T_OfficeOpn_E" = 16036.26   $ Sizing
 "ClCap_Sys_T_OfficeOpn_N" = 11956.08   $ Sizing
 "ClCap_Sys_T_OfficeOpn_S" = 17125.6   $ Sizing
 "ClCap_Sys_T_OfficeOpn_W" = 18076.31   $ Sizing
 "ClCap_Sys_T_OfficeSm_E" = 13378.08   $ Sizing
 "ClCap_Sys_T_OfficeSm_N" = 9386.239   $ Sizing
 "ClCap_Sys_T_OfficeSm_S" = 14436.46   $ Sizing
 "ClCap_Sys_T_OfficeSm_W" = 15358.17   $ Sizing
 "ClCap_Sys_T_Restrm_C" = 4570.603   $ Sizing
 "ClCap_Sys_T_StorSm_E" = 4061.033   $ Sizing
 "ClCap_Sys_T_StorSm_N" = 2382.113   $ Sizing
 "ClCap_Sys_T_StorSm_S" = 4258.97   $ Sizing
 "ClCap_Sys_T_StorSm_W" = 4407.959   $ Sizing
 "HtCap_Sys_L_Break_C" = -26090.85   $ Sizing
 "HtCap_Sys_L_CompDC_C" = -8591.48   $ Sizing
 "HtCap_Sys_L_Conf_C" = -15445.96   $ Sizing
 "HtCap_Sys_L_CopyRm_C" = -5548.962   $ Sizing
 "HtCap_Sys_L_Hall_E" = -3852.764   $ Sizing
 "HtCap_Sys_L_Hall_N" = -2277.634   $ Sizing
 "HtCap_Sys_L_Hall_S" = -3832.465   $ Sizing
 "HtCap_Sys_L_Hall_W" = -3935.009   $ Sizing
 "HtCap_Sys_L_LobWait_E" = -9842.001   $ Sizing
 "HtCap_Sys_L_LobWait_N" = -7463.656   $ Sizing
 "HtCap_Sys_L_LobWait_S" = -9914.42   $ Sizing
 "HtCap_Sys_L_LobWait_W" = -10984.96   $ Sizing
 "HtCap_Sys_L_MechElec_C" = -3951.008   $ Sizing
 "HtCap_Sys_L_OfficeOpn_C" = -2984.717   $ Sizing
 "HtCap_Sys_L_OfficeOpn_E" = -17337.81   $ Sizing
 "HtCap_Sys_L_OfficeOpn_N" = -13492.69   $ Sizing
 "HtCap_Sys_L_OfficeOpn_S" = -16627.91   $ Sizing
 "HtCap_Sys_L_OfficeOpn_W" = -17984.84   $ Sizing
 "HtCap_Sys_L_OfficeSm_E" = -14174.28   $ Sizing
 "HtCap_Sys_L_OfficeSm_N" = -10148.09   $ Sizing
 "HtCap_Sys_L_OfficeSm_S" = -14000.54   $ Sizing
 "HtCap_Sys_L_OfficeSm_W" = -14658.83   $ Sizing
 "HtCap_Sys_L_Restrm_C" = -3417.684   $ Sizing
 "HtCap_Sys_L_StorSm_C" = -1657.033   $ Sizing
 "HtCap_Sys_L_StorSm_E" = -4032.961   $ Sizing
 "HtCap_Sys_L_StorSm_N" = -2712.925   $ Sizing
 "HtCap_Sys_L_StorSm_S" = -3930.311   $ Sizing
 "HtCap_Sys_L_StorSm_W" = -4159.433   $ Sizing
 "HtCap_Sys_T_Conf_C" = -15471.43   $ Sizing
 "HtCap_Sys_T_Hall_E" = -4531.987   $ Sizing
 "HtCap_Sys_T_Hall_N" = -2729.995   $ Sizing
 "HtCap_Sys_T_Hall_S" = -4578.877   $ Sizing
 "HtCap_Sys_T_Hall_W" = -4636.528   $ Sizing
 "HtCap_Sys_T_OfficeOpn_C" = -3041.329   $ Sizing
 "HtCap_Sys_T_OfficeOpn_E" = -18726.26   $ Sizing
 "HtCap_Sys_T_OfficeOpn_N" = -14775.78   $ Sizing
 "HtCap_Sys_T_OfficeOpn_S" = -19220.52   $ Sizing
 "HtCap_Sys_T_OfficeOpn_W" = -20365.53   $ Sizing
 "HtCap_Sys_T_OfficeSm_E" = -14980.62   $ Sizing
 "HtCap_Sys_T_OfficeSm_N" = -11348.96   $ Sizing
 "HtCap_Sys_T_OfficeSm_S" = -15805.34   $ Sizing
 "HtCap_Sys_T_OfficeSm_W" = -16777.15   $ Sizing
 "HtCap_Sys_T_Restrm_C" = -5288.893   $ Sizing
 "HtCap_Sys_T_StorSm_E" = -4886.378   $ Sizing
 "HtCap_Sys_T_StorSm_N" = -3336.474   $ Sizing
 "HtCap_Sys_T_StorSm_S" = -4931.438   $ Sizing
 "HtCap_Sys_T_StorSm_W" = -5273.299   $ Sizing
..

##include Templates\OfS_DX_SZ.inp
END ..
COMPUTE ..
STOP ..
