INPUT ..

##fileprefix C:\Users\jglasskatz\MASControl3\
##set1 IsSizing FALSE
##set1 CoolType DX
##set1 HeatType FURNACE
##set1 EU_HrRepVar 0
##set1 BldgVint 2011
##set1 BldgLoc CZ05

 ##set1 mBFMult 1   $ IP Tech: RefgChg-NRes-Std

PARAMETER
 "AltFactor" = 1.00939   $ IP Non-Tech
 "BF_fFlow" = SpltAC1Sp_BF_fFlow   $ Msr (Var)TechID: PreNResSplitAC-45to-PENo
 "BF_fT" = SpltAC1Sp_BF_fT   $ Msr (Var)TechID: PreNResSplitAC-45to-PENo
 "BldgEconoFlag" = 1   $ IP Non-Tech
 "Break_EWSF" = 1   $ IP Non-Tech
 "Break_LWSF" = 1.1   $ IP Non-Tech
 "CDD_DBHi10" = 80   $ IP Non-Tech
 "CDD_DBHi7" = 76   $ IP Non-Tech
 "CDD_DBHi8" = 72   $ IP Non-Tech
 "CDD_DBHi9" = 79   $ IP Non-Tech
 "CDD_DBRange10" = 28   $ IP Non-Tech
 "CDD_DBRange7" = 18.9383812   $ IP Non-Tech
 "CDD_DBRange8" = 15   $ IP Non-Tech
 "CDD_DBRange9" = 24.76599121   $ IP Non-Tech
 "CDD_Day10" = 15   $ IP Non-Tech
 "CDD_Day7" = 16   $ IP Non-Tech
 "CDD_Day8" = 20   $ IP Non-Tech
 "CDD_Day9" = 17   $ IP Non-Tech
 "CDD_HrHi10" = 12   $ IP Non-Tech
 "CDD_HrHi7" = 12   $ IP Non-Tech
 "CDD_HrHi8" = 14   $ IP Non-Tech
 "CDD_HrHi9" = 15   $ IP Non-Tech
 "CDD_HrLo10" = 5   $ IP Non-Tech
 "CDD_HrLo7" = 1   $ IP Non-Tech
 "CDD_HrLo8" = 24   $ IP Non-Tech
 "CDD_HrLo9" = 7   $ IP Non-Tech
 "CDD_WB10" = 59.30932236   $ IP Non-Tech
 "CDD_WB7" = 64.22068024   $ IP Non-Tech
 "CDD_WB8" = 61.81496811   $ IP Non-Tech
 "CDD_WB9" = 62.86130905   $ IP Non-Tech
 "CEIR_fPLR_Hot" = SpltAC1Sp_CEIR_fPLR_Hot   $ Msr (Var)TechID: PreNResSplitAC-45to-PENo
 "CEIR_fPLR_Mod" = SpltAC1Sp_CEIR_fPLR_Mod   $ Msr (Var)TechID: PreNResSplitAC-45to-PENo
 "CEIR_fPLR_Tem" = SpltAC1Sp_CEIR_fPLR_Tem   $ Msr (Var)TechID: PreNResSplitAC-45to-PENo
 "CLoss_fPLR_Hot" = SpltAC1Sp_CLoss_fPLR_Hot   $ Msr (Var)TechID: PreNResSplitAC-45to-PENo
 "CLoss_fPLR_Mod" = SpltAC1Sp_CLoss_fPLR_Mod   $ Msr (Var)TechID: PreNResSplitAC-45to-PENo
 "CLoss_fPLR_Tem" = SpltAC1Sp_CLoss_fPLR_Tem   $ Msr (Var)TechID: PreNResSplitAC-45to-PENo
 "COP47" = 0   $ Msr (Var)TechID: PreNResSplitAC-45to-PENo
 "CZ_Category" = Tem   $ IP Non-Tech
 "CapRange" = Any   $ Msr (Var)TechID: PreNResSplitAC-45to-PENo
 "CfmPerBtuh" = 0.0321   $ Msr (Var)TechID: PreNResSplitAC-45to-PENo
 "ChwVintEconoFlag" = 1   $ IP Non-Tech
 "ClCap_fT" = SpltAC1Sp_ClCap_fT   $ Msr (Var)TechID: PreNResSplitAC-45to-PENo
 "ClSH_fT" = SpltAC1Sp_ClSH_fT   $ Msr (Var)TechID: PreNResSplitAC-45to-PENo
 "CoilBF" = 0.12   $ Msr (Var)TechID: PreNResSplitAC-45to-PENo
 "CompRoomData_EWSF" = 5   $ IP Non-Tech
 "CompRoomData_LWSF" = 1.1   $ IP Non-Tech
 "CondWPerBtuh" = 0   $ Msr (Var)TechID: PreNResSplitAC-45to-PENo
 "Conference_EWSF" = 1   $ IP Non-Tech
 "Conference_LWSF" = 1.4   $ IP Non-Tech
 "CoolSensCap" = 0.744   $ Msr (Var)TechID: PreNResSplitAC-45to-PENo
 "CoolSetT" = 45   $ IP Non-Tech
 "CoolType" = DX   $ IP Non-Tech
 "CoolingEIR" = 0.25823   $ Msr (Var)TechID: PreNResSplitAC-45to-PENo
 "CopyRoom_EWSF" = 1.5   $ IP Non-Tech
 "CopyRoom_LWSF" = 1.3   $ IP Non-Tech
 "CrnkEIR" = 0.0025823   $ Msr (Var)TechID: PreNResSplitAC-45to-PENo
 "CrnkMaxT" = 50   $ Msr (Var)TechID: PreNResSplitAC-45to-PENo
 "DXType" = SplitSEER   $ Msr (Var)TechID: PreNResSplitAC-45to-PENo
 "DesCoolT" = 75   $ IP Non-Tech
 "DesHeatT" = 73   $ IP Non-Tech
 "EER" = 11.07746479   $ Msr (Var)TechID: PreNResSplitAC-45to-PENo
 "EIR_fT" = SpltAC1Sp_EIR_fT   $ Msr (Var)TechID: PreNResSplitAC-45to-PENo
 "EconoCtrl" = FIXED   $ Msr (Multi)TechID: PreNResSplitAC-45to-PENo
 "EconoEnthLimit" = 28   $ IP Non-Tech
 "EconoTempLimit" = 70   $ IP Non-Tech
 "Elevation" = 253   $ IP Non-Tech
 "FanEirPlr" = TwoSpeedFan   $ Msr (Var)TechID: PreNResSplitAC-45to-PENo
 "FanWPerCfm" = 0.348   $ Msr (Var)TechID: PreNResSplitAC-45to-PENo
 "HDD_CloudAmt1" = 0   $ IP Non-Tech
 "HDD_DBHi1" = 59   $ IP Non-Tech
 "HDD_DBRange1" = 27   $ IP Non-Tech
 "HDD_Day1" = 15   $ IP Non-Tech
 "HDD_HrHi1" = 12   $ IP Non-Tech
 "HDD_HrLo1" = 5   $ IP Non-Tech
 "HDD_WB1" = 46.8   $ IP Non-Tech
 "HDD_WindSpd1" = 13.8   $ IP Non-Tech
 "HIR_fT" = 0   $ Msr (Var)TechID: PreNResSplitAC-45to-PENo
 "HSPF" = 0   $ Msr (Var)TechID: PreNResSplitAC-45to-PENo
 "Hall_EWSF" = 0.2   $ IP Non-Tech
 "Hall_LWSF" = 0.6   $ IP Non-Tech
 "HeatSrc" = FURNACE   $ IP Non-Tech
 "HeatSrcTU" = HEAT-PUMP   $ IP Non-Tech
 "HeatType" = GasFurn   $ IP Non-Tech
 "HeatTypeTU" = HEAT-PUMP   $ IP Non-Tech
 "HtCap_fT" = 0   $ Msr (Var)TechID: PreNResSplitAC-45to-PENo
 "HtCoolCapRatio" = 0   $ Msr (Var)TechID: PreNResSplitAC-45to-PENo
 "HtgEIR" = 0   $ Msr (Var)TechID: PreNResSplitAC-45to-PENo
 "IndoorFanMode" = CONTINUOUS   $ IP Non-Tech
 "KT_TransferAir" = No   $ IP Non-Tech
 "Latitude" = 34.9   $ IP Non-Tech
 "LobbyWaiting_EWSF" = 0.5   $ IP Non-Tech
 "LobbyWaiting_LWSF" = 1.3   $ IP Non-Tech
 "Longitude" = 120.5   $ IP Non-Tech
 "LowSpdCapRatio" = 1   $ Msr (Var)TechID: PreNResSplitAC-45to-PENo
 "LowSpdCfmRatio" = 1   $ Msr (Var)TechID: PreNResSplitAC-45to-PENo
 "MZFanMechEff" = 0.58   $ IP Non-Tech
 "MZHasRetFan" = FALSE   $ IP Non-Tech
 "MZ_RFanWPerCfm" = 0.33   $ IP Non-Tech
 "MZ_SFanWPerCfm" = 0.75   $ IP Non-Tech
 "MZ_SupFanStatic" = 2.25   $ IP Non-Tech
 "MaxOAFrac" = 1   $ Msr (Multi)TechID: PreNResSplitAC-45to-PENo
 "MaxSupT_MZ" = 100   $ IP Non-Tech
 "MaxSupT_SZ" = 100   $ IP Non-Tech
 "MaxSupT_TU" = 90   $ IP Non-Tech
 "MechElecRoom_EWSF" = 0.2   $ IP Non-Tech
 "MechElecRoom_LWSF" = 0.7   $ IP Non-Tech
 "MinCfmPerSF" = 0.4   $ IP Non-Tech
 "MinSupT" = 55   $ IP Non-Tech
 "NumStages" = 1   $ Msr (Var)TechID: PreNResSplitAC-45to-PENo
 "OccCoolT" = 76   $ IP Non-Tech
 "OccHeatT" = 72   $ IP Non-Tech
 "OfficeOpen_EWSF" = 1.5   $ IP Non-Tech
 "OfficeOpen_LWSF" = 1.1   $ IP Non-Tech
 "OfficeSmall_EWSF" = 1.5   $ IP Non-Tech
 "OfficeSmall_LWSF" = 1.3   $ IP Non-Tech
 "PkgDxVintEconoFlag" = 0   $ IP Non-Tech
 "Restroom_EWSF" = 0.2   $ IP Non-Tech
 "Restroom_LWSF" = 0.6   $ IP Non-Tech
 "SEER" = 13   $ Msr (Var)TechID: PreNResSplitAC-45to-PENo
 "SZFanMechEff" = 0.58   $ IP Non-Tech
 "SZHasRetFan" = FALSE   $ IP Non-Tech
 "SZ_Is_2Spd" = FALSE   $ IP Non-Tech
 "SZ_SFanWPerCfm" = 0.46   $ IP Non-Tech
 "SZ_SupFanStatic" = 0.75   $ IP Non-Tech
 "Sector" = Any   $ Msr (Var)TechID: PreNResSplitAC-45to-PENo
 "StorageSmlCond_EWSF" = 0.2   $ IP Non-Tech
 "StorageSmlCond_LWSF" = 0.6   $ IP Non-Tech
 "SubType" = AC   $ Msr (Var)TechID: PreNResSplitAC-45to-PENo
 "T24GlzTbl" = CZTbl   $ IP Non-Tech
 "TermUnitFanMechEff" = 1   $ IP Non-Tech
 "TermUnitFanMode" = INTERMITTENT   $ IP Non-Tech
 "TotCoolCap" = 34895   $ Msr (Var)TechID: PreNResSplitAC-45to-PENo
 "TwrSetpt" = 80   $ IP Non-Tech
 "UnocCoolT" = 86   $ IP Non-Tech
 "UnocHeatT" = 62   $ IP Non-Tech
 "UseEconoVintApplic" = FALSE   $ Msr (Multi)TechID: PreNResSplitAC-45to-PENo
 "WlhpVintEconoFlag" = 0   $ IP Non-Tech
 "DuctDT" = 1   $ IP Tech: ComDuctInsul-1
 "DuctAirLoss" = 0   $ IP Tech: ComDuctLeak-0
 "DuctLossOAFrac" = 0   $ IP Tech: ComDuctLeak-0
 "ComRoofInsCalc" = FromUo   $ IP Tech: ComRoofIns-WFrm-0.05
 "ComRoofInsR" = -999   $ IP Tech: ComRoofIns-WFrm-0.05
 "ComRoofUo" = 0.05   $ IP Tech: ComRoofIns-WFrm-0.05
 "ComEWInsCalc" = FromUo   $ IP Tech: ComWallIns-WFrm-0.09
 "ComEWInsR" = -999   $ IP Tech: ComWallIns-WFrm-0.09
 "ComEWUo" = 0.09   $ IP Tech: ComWallIns-WFrm-0.09
 "ComN_SHGC" = 0.61   $ IP Tech: NResWin-ComN-0.77-0.61
 "ComN_UFactor" = 0.77   $ IP Tech: NResWin-ComN-0.77-0.61
 "ComN_VisTrans" = 0.77   $ IP Tech: NResWin-ComN-0.77-0.61
 "ComN_WinCode" = G2600   $ IP Tech: NResWin-ComN-0.77-0.61
 "ComN_WinFrmFrac" = 0.17   $ IP Tech: NResWin-ComN-0.77-0.61
 "ComN_WinFrmU" = 1   $ IP Tech: NResWin-ComN-0.77-0.61
 "ComO_SHGC" = 0.41   $ IP Tech: NResWin-ComO-0.77-0.41
 "ComO_UFactor" = 0.77   $ IP Tech: NResWin-ComO-0.77-0.41
 "ComO_VisTrans" = 0.44   $ IP Tech: NResWin-ComO-0.77-0.41
 "ComO_WinCode" = G2636   $ IP Tech: NResWin-ComO-0.77-0.41
 "ComO_WinFrmFrac" = 0.17   $ IP Tech: NResWin-ComO-0.77-0.41
 "ComO_WinFrmU" = 1   $ IP Tech: NResWin-ComO-0.77-0.41
 "LtgMsrApplic" = ALL   $ IP Tech: NonResLtgRefPre
 "LtgSav_CFL" = 0   $ IP Tech: NonResLtgRefPre
 "LtgSav_EX" = 0   $ IP Tech: NonResLtgRefPre
 "LtgSav_HB" = 0   $ IP Tech: NonResLtgRefPre
 "LtgSav_LF" = 0   $ IP Tech: NonResLtgRefPre
 "LtgSav_SP" = 0   $ IP Tech: NonResLtgRefPre
 "CEIR_fPLR" = PSZ65to135_CEIR_fPLR   $ IP Tech: PkgAC1SpH-65to135-E11
 "CLoss_fPLR" = PSZ65to135_CLoss_fPLR   $ IP Tech: PkgAC1SpH-65to135-E11
 "COP" = -1   $ IP Tech: PkgAC1SpH-65to135-E11
 "HtgFuel" = Gas   $ IP Tech: PkgAC1SpH-65to135-E11
 "IEER" = 13.35   $ IP Tech: PkgAC1SpH-65to135-E11
 "NominalCap" = 15   $ IP Tech: PkgAC1SpH-65to135-E11
 "RatedEER" = 11   $ IP Tech: PkgAC1SpH-65to135-E11
 "RatedSupMtrClass" = HiEff   $ IP Tech: PkgAC1SpH-65to135-E11
 "SizeRange" = 65to135   $ IP Tech: PkgAC1SpH-65to135-E11
 "SupMotEff" = 0.84   $ IP Tech: PkgAC1SpH-65to135-E11
 "Tier" = 0   $ IP Tech: PkgAC1SpH-65to135-E11
 "FanPwrMult" = 1   $ IP Tech: PkgFurn-0.80AFUE
 "FurnAFUE" = 0.8   $ IP Tech: PkgFurn-0.80AFUE
 "FurnEt" = 0.82   $ IP Tech: PkgFurn-0.80AFUE
 "FurnaceAuxKW" = 0.1   $ IP Tech: PkgFurn-0.80AFUE
 "HIR_fPLR" = Furnace-HIR-fPLR   $ IP Tech: PkgFurn-0.80AFUE
 "VSM" = FALSE   $ IP Tech: PkgFurn-0.80AFUE
 "BFMult" = 1   $ IP Tech: RefgChg-NRes-Std
 "CoolEirMult" = 1   $ IP Tech: RefgChg-NRes-Std
 "SensCoolCapMult" = 1   $ IP Tech: RefgChg-NRes-Std
 "TotCoolCapMult" = 1   $ IP Tech: RefgChg-NRes-Std
 "AltAdjFactor" = 1.009388   $ Sizing
 "CAssFlo_L_Break_CZn" = 292.9031   $ Sizing
 "CAssFlo_L_CompDC_CZn" = 164.5684   $ Sizing
 "CAssFlo_L_Conf_CZn" = 218.3312   $ Sizing
 "CAssFlo_L_CopyRm_CZn" = 64.10365   $ Sizing
 "CAssFlo_L_Hall_EZn" = 126.0188   $ Sizing
 "CAssFlo_L_Hall_NZn" = 57.75381   $ Sizing
 "CAssFlo_L_Hall_SZn" = 142.8233   $ Sizing
 "CAssFlo_L_Hall_WZn" = 132.6167   $ Sizing
 "CAssFlo_L_LobWait_EZn" = 300.8503   $ Sizing
 "CAssFlo_L_LobWait_NZn" = 123.7477   $ Sizing
 "CAssFlo_L_LobWait_SZn" = 332.1902   $ Sizing
 "CAssFlo_L_LobWait_WZn" = 310.1807   $ Sizing
 "CAssFlo_L_MechElec_CZn" = 66.05824   $ Sizing
 "CAssFlo_L_OfficeOpn_CZn" = 64.53235   $ Sizing
 "CAssFlo_L_OfficeOpn_EZn" = 561.7336   $ Sizing
 "CAssFlo_L_OfficeOpn_NZn" = 285.7093   $ Sizing
 "CAssFlo_L_OfficeOpn_SZn" = 573.3611   $ Sizing
 "CAssFlo_L_OfficeOpn_WZn" = 554.6339   $ Sizing
 "CAssFlo_L_OfficeSm_EZn" = 479.1902   $ Sizing
 "CAssFlo_L_OfficeSm_NZn" = 228.3919   $ Sizing
 "CAssFlo_L_OfficeSm_SZn" = 510.1936   $ Sizing
 "CAssFlo_L_OfficeSm_WZn" = 491.1711   $ Sizing
 "CAssFlo_L_Restrm_CZn" = 86.22957   $ Sizing
 "CAssFlo_L_StorSm_CZn" = 29.71395   $ Sizing
 "CAssFlo_L_StorSm_EZn" = 120.4448   $ Sizing
 "CAssFlo_L_StorSm_NZn" = 67.02576   $ Sizing
 "CAssFlo_L_StorSm_SZn" = 133.4458   $ Sizing
 "CAssFlo_L_StorSm_WZn" = 119.6316   $ Sizing
 "CAssFlo_T_Conf_CZn" = 215.1278   $ Sizing
 "CAssFlo_T_Hall_EZn" = 135.7606   $ Sizing
 "CAssFlo_T_Hall_NZn" = 57.0917   $ Sizing
 "CAssFlo_T_Hall_SZn" = 157.2649   $ Sizing
 "CAssFlo_T_Hall_WZn" = 143.284   $ Sizing
 "CAssFlo_T_OfficeOpn_CZn" = 59.39382   $ Sizing
 "CAssFlo_T_OfficeOpn_EZn" = 549.3201   $ Sizing
 "CAssFlo_T_OfficeOpn_NZn" = 299.4531   $ Sizing
 "CAssFlo_T_OfficeOpn_SZn" = 600.2906   $ Sizing
 "CAssFlo_T_OfficeOpn_WZn" = 551.217   $ Sizing
 "CAssFlo_T_OfficeSm_EZn" = 474.9801   $ Sizing
 "CAssFlo_T_OfficeSm_NZn" = 242.2788   $ Sizing
 "CAssFlo_T_OfficeSm_SZn" = 536.48   $ Sizing
 "CAssFlo_T_OfficeSm_WZn" = 491.3264   $ Sizing
 "CAssFlo_T_Restrm_CZn" = 93.22059   $ Sizing
 "CAssFlo_T_StorSm_EZn" = 132.4189   $ Sizing
 "CAssFlo_T_StorSm_NZn" = 68.92384   $ Sizing
 "CAssFlo_T_StorSm_SZn" = 151.0811   $ Sizing
 "CAssFlo_T_StorSm_WZn" = 138.5451   $ Sizing
 "CHRtFlo_Sys_L_Break_C" = 292.9031   $ Sizing
 "CHRtFlo_Sys_L_CompDC_C" = 164.5684   $ Sizing
 "CHRtFlo_Sys_L_Conf_C" = 218.3312   $ Sizing
 "CHRtFlo_Sys_L_CopyRm_C" = 64.10365   $ Sizing
 "CHRtFlo_Sys_L_Hall_E" = 126.0188   $ Sizing
 "CHRtFlo_Sys_L_Hall_N" = 57.75381   $ Sizing
 "CHRtFlo_Sys_L_Hall_S" = 142.8233   $ Sizing
 "CHRtFlo_Sys_L_Hall_W" = 132.6167   $ Sizing
 "CHRtFlo_Sys_L_LobWait_E" = 300.8503   $ Sizing
 "CHRtFlo_Sys_L_LobWait_N" = 123.7477   $ Sizing
 "CHRtFlo_Sys_L_LobWait_S" = 332.1902   $ Sizing
 "CHRtFlo_Sys_L_LobWait_W" = 310.1807   $ Sizing
 "CHRtFlo_Sys_L_MechElec_C" = 66.05824   $ Sizing
 "CHRtFlo_Sys_L_OfficeOpn_C" = 64.53235   $ Sizing
 "CHRtFlo_Sys_L_OfficeOpn_E" = 561.7336   $ Sizing
 "CHRtFlo_Sys_L_OfficeOpn_N" = 285.7093   $ Sizing
 "CHRtFlo_Sys_L_OfficeOpn_S" = 573.3611   $ Sizing
 "CHRtFlo_Sys_L_OfficeOpn_W" = 554.6339   $ Sizing
 "CHRtFlo_Sys_L_OfficeSm_E" = 479.1902   $ Sizing
 "CHRtFlo_Sys_L_OfficeSm_N" = 228.3919   $ Sizing
 "CHRtFlo_Sys_L_OfficeSm_S" = 510.1936   $ Sizing
 "CHRtFlo_Sys_L_OfficeSm_W" = 491.1711   $ Sizing
 "CHRtFlo_Sys_L_Restrm_C" = 86.22957   $ Sizing
 "CHRtFlo_Sys_L_StorSm_C" = 29.71395   $ Sizing
 "CHRtFlo_Sys_L_StorSm_E" = 120.4448   $ Sizing
 "CHRtFlo_Sys_L_StorSm_N" = 67.02576   $ Sizing
 "CHRtFlo_Sys_L_StorSm_S" = 133.4458   $ Sizing
 "CHRtFlo_Sys_L_StorSm_W" = 119.6316   $ Sizing
 "CHRtFlo_Sys_T_Conf_C" = 215.1278   $ Sizing
 "CHRtFlo_Sys_T_Hall_E" = 135.7606   $ Sizing
 "CHRtFlo_Sys_T_Hall_N" = 57.0917   $ Sizing
 "CHRtFlo_Sys_T_Hall_S" = 157.2649   $ Sizing
 "CHRtFlo_Sys_T_Hall_W" = 143.284   $ Sizing
 "CHRtFlo_Sys_T_OfficeOpn_C" = 59.39382   $ Sizing
 "CHRtFlo_Sys_T_OfficeOpn_E" = 549.3201   $ Sizing
 "CHRtFlo_Sys_T_OfficeOpn_N" = 299.4531   $ Sizing
 "CHRtFlo_Sys_T_OfficeOpn_S" = 600.2906   $ Sizing
 "CHRtFlo_Sys_T_OfficeOpn_W" = 551.217   $ Sizing
 "CHRtFlo_Sys_T_OfficeSm_E" = 474.9801   $ Sizing
 "CHRtFlo_Sys_T_OfficeSm_N" = 242.2788   $ Sizing
 "CHRtFlo_Sys_T_OfficeSm_S" = 536.48   $ Sizing
 "CHRtFlo_Sys_T_OfficeSm_W" = 491.3264   $ Sizing
 "CHRtFlo_Sys_T_Restrm_C" = 93.22059   $ Sizing
 "CHRtFlo_Sys_T_StorSm_E" = 132.4189   $ Sizing
 "CHRtFlo_Sys_T_StorSm_N" = 68.92384   $ Sizing
 "CHRtFlo_Sys_T_StorSm_S" = 151.0811   $ Sizing
 "CHRtFlo_Sys_T_StorSm_W" = 138.5451   $ Sizing
 "CRtdFlo_Sys_L_Break_C" = 292.9031   $ Sizing
 "CRtdFlo_Sys_L_CompDC_C" = 164.5684   $ Sizing
 "CRtdFlo_Sys_L_Conf_C" = 218.3312   $ Sizing
 "CRtdFlo_Sys_L_CopyRm_C" = 64.10365   $ Sizing
 "CRtdFlo_Sys_L_Hall_E" = 126.0188   $ Sizing
 "CRtdFlo_Sys_L_Hall_N" = 57.75381   $ Sizing
 "CRtdFlo_Sys_L_Hall_S" = 142.8233   $ Sizing
 "CRtdFlo_Sys_L_Hall_W" = 132.6167   $ Sizing
 "CRtdFlo_Sys_L_LobWait_E" = 300.8503   $ Sizing
 "CRtdFlo_Sys_L_LobWait_N" = 123.7478   $ Sizing
 "CRtdFlo_Sys_L_LobWait_S" = 332.1902   $ Sizing
 "CRtdFlo_Sys_L_LobWait_W" = 310.1807   $ Sizing
 "CRtdFlo_Sys_L_MechElec_C" = 66.05824   $ Sizing
 "CRtdFlo_Sys_L_OfficeOpn_C" = 64.53235   $ Sizing
 "CRtdFlo_Sys_L_OfficeOpn_E" = 561.7336   $ Sizing
 "CRtdFlo_Sys_L_OfficeOpn_N" = 285.7093   $ Sizing
 "CRtdFlo_Sys_L_OfficeOpn_S" = 573.3611   $ Sizing
 "CRtdFlo_Sys_L_OfficeOpn_W" = 554.6339   $ Sizing
 "CRtdFlo_Sys_L_OfficeSm_E" = 479.1902   $ Sizing
 "CRtdFlo_Sys_L_OfficeSm_N" = 228.3919   $ Sizing
 "CRtdFlo_Sys_L_OfficeSm_S" = 510.1936   $ Sizing
 "CRtdFlo_Sys_L_OfficeSm_W" = 491.1711   $ Sizing
 "CRtdFlo_Sys_L_Restrm_C" = 86.22957   $ Sizing
 "CRtdFlo_Sys_L_StorSm_C" = 29.71395   $ Sizing
 "CRtdFlo_Sys_L_StorSm_E" = 120.4448   $ Sizing
 "CRtdFlo_Sys_L_StorSm_N" = 67.02576   $ Sizing
 "CRtdFlo_Sys_L_StorSm_S" = 133.4458   $ Sizing
 "CRtdFlo_Sys_L_StorSm_W" = 119.6316   $ Sizing
 "CRtdFlo_Sys_T_Conf_C" = 215.1279   $ Sizing
 "CRtdFlo_Sys_T_Hall_E" = 135.7606   $ Sizing
 "CRtdFlo_Sys_T_Hall_N" = 57.0917   $ Sizing
 "CRtdFlo_Sys_T_Hall_S" = 157.2649   $ Sizing
 "CRtdFlo_Sys_T_Hall_W" = 143.284   $ Sizing
 "CRtdFlo_Sys_T_OfficeOpn_C" = 59.39382   $ Sizing
 "CRtdFlo_Sys_T_OfficeOpn_E" = 549.3201   $ Sizing
 "CRtdFlo_Sys_T_OfficeOpn_N" = 299.4531   $ Sizing
 "CRtdFlo_Sys_T_OfficeOpn_S" = 600.2906   $ Sizing
 "CRtdFlo_Sys_T_OfficeOpn_W" = 551.217   $ Sizing
 "CRtdFlo_Sys_T_OfficeSm_E" = 474.9801   $ Sizing
 "CRtdFlo_Sys_T_OfficeSm_N" = 242.2788   $ Sizing
 "CRtdFlo_Sys_T_OfficeSm_S" = 536.48   $ Sizing
 "CRtdFlo_Sys_T_OfficeSm_W" = 491.3264   $ Sizing
 "CRtdFlo_Sys_T_Restrm_C" = 93.22059   $ Sizing
 "CRtdFlo_Sys_T_StorSm_E" = 132.4189   $ Sizing
 "CRtdFlo_Sys_T_StorSm_N" = 68.92384   $ Sizing
 "CRtdFlo_Sys_T_StorSm_S" = 151.0811   $ Sizing
 "CRtdFlo_Sys_T_StorSm_W" = 138.5451   $ Sizing
 "CSupFlo_Sys_L_Break_C" = 292.9031   $ Sizing
 "CSupFlo_Sys_L_CompDC_C" = 164.5684   $ Sizing
 "CSupFlo_Sys_L_Conf_C" = 218.3312   $ Sizing
 "CSupFlo_Sys_L_CopyRm_C" = 64.10365   $ Sizing
 "CSupFlo_Sys_L_Hall_E" = 126.0188   $ Sizing
 "CSupFlo_Sys_L_Hall_N" = 57.75381   $ Sizing
 "CSupFlo_Sys_L_Hall_S" = 142.8233   $ Sizing
 "CSupFlo_Sys_L_Hall_W" = 132.6167   $ Sizing
 "CSupFlo_Sys_L_LobWait_E" = 300.8503   $ Sizing
 "CSupFlo_Sys_L_LobWait_N" = 123.7477   $ Sizing
 "CSupFlo_Sys_L_LobWait_S" = 332.1902   $ Sizing
 "CSupFlo_Sys_L_LobWait_W" = 310.1807   $ Sizing
 "CSupFlo_Sys_L_MechElec_C" = 66.05824   $ Sizing
 "CSupFlo_Sys_L_OfficeOpn_C" = 64.53235   $ Sizing
 "CSupFlo_Sys_L_OfficeOpn_E" = 561.7336   $ Sizing
 "CSupFlo_Sys_L_OfficeOpn_N" = 285.7093   $ Sizing
 "CSupFlo_Sys_L_OfficeOpn_S" = 573.3611   $ Sizing
 "CSupFlo_Sys_L_OfficeOpn_W" = 554.6339   $ Sizing
 "CSupFlo_Sys_L_OfficeSm_E" = 479.1902   $ Sizing
 "CSupFlo_Sys_L_OfficeSm_N" = 228.3919   $ Sizing
 "CSupFlo_Sys_L_OfficeSm_S" = 510.1936   $ Sizing
 "CSupFlo_Sys_L_OfficeSm_W" = 491.1711   $ Sizing
 "CSupFlo_Sys_L_Restrm_C" = 86.22957   $ Sizing
 "CSupFlo_Sys_L_StorSm_C" = 29.71395   $ Sizing
 "CSupFlo_Sys_L_StorSm_E" = 120.4448   $ Sizing
 "CSupFlo_Sys_L_StorSm_N" = 67.02576   $ Sizing
 "CSupFlo_Sys_L_StorSm_S" = 133.4458   $ Sizing
 "CSupFlo_Sys_L_StorSm_W" = 119.6316   $ Sizing
 "CSupFlo_Sys_T_Conf_C" = 215.1278   $ Sizing
 "CSupFlo_Sys_T_Hall_E" = 135.7606   $ Sizing
 "CSupFlo_Sys_T_Hall_N" = 57.0917   $ Sizing
 "CSupFlo_Sys_T_Hall_S" = 157.2649   $ Sizing
 "CSupFlo_Sys_T_Hall_W" = 143.284   $ Sizing
 "CSupFlo_Sys_T_OfficeOpn_C" = 59.39382   $ Sizing
 "CSupFlo_Sys_T_OfficeOpn_E" = 549.3201   $ Sizing
 "CSupFlo_Sys_T_OfficeOpn_N" = 299.4531   $ Sizing
 "CSupFlo_Sys_T_OfficeOpn_S" = 600.2906   $ Sizing
 "CSupFlo_Sys_T_OfficeOpn_W" = 551.217   $ Sizing
 "CSupFlo_Sys_T_OfficeSm_E" = 474.9801   $ Sizing
 "CSupFlo_Sys_T_OfficeSm_N" = 242.2788   $ Sizing
 "CSupFlo_Sys_T_OfficeSm_S" = 536.48   $ Sizing
 "CSupFlo_Sys_T_OfficeSm_W" = 491.3264   $ Sizing
 "CSupFlo_Sys_T_Restrm_C" = 93.22059   $ Sizing
 "CSupFlo_Sys_T_StorSm_E" = 132.4189   $ Sizing
 "CSupFlo_Sys_T_StorSm_N" = 68.92384   $ Sizing
 "CSupFlo_Sys_T_StorSm_S" = 151.0811   $ Sizing
 "CSupFlo_Sys_T_StorSm_W" = 138.5451   $ Sizing
 "ClCap_Sys_L_Break_C" = 9948.994   $ Sizing
 "ClCap_Sys_L_CompDC_C" = 5589.871   $ Sizing
 "ClCap_Sys_L_Conf_C" = 9438.574   $ Sizing
 "ClCap_Sys_L_CopyRm_C" = 2177.399   $ Sizing
 "ClCap_Sys_L_Hall_E" = 4280.462   $ Sizing
 "ClCap_Sys_L_Hall_N" = 1961.715   $ Sizing
 "ClCap_Sys_L_Hall_S" = 4851.258   $ Sizing
 "ClCap_Sys_L_Hall_W" = 4504.572   $ Sizing
 "ClCap_Sys_L_LobWait_E" = 10218.93   $ Sizing
 "ClCap_Sys_L_LobWait_N" = 4203.321   $ Sizing
 "ClCap_Sys_L_LobWait_S" = 11283.45   $ Sizing
 "ClCap_Sys_L_LobWait_W" = 10535.86   $ Sizing
 "ClCap_Sys_L_MechElec_C" = 2243.79   $ Sizing
 "ClCap_Sys_L_OfficeOpn_C" = 2191.96   $ Sizing
 "ClCap_Sys_L_OfficeOpn_E" = 19080.32   $ Sizing
 "ClCap_Sys_L_OfficeOpn_N" = 9704.642   $ Sizing
 "ClCap_Sys_L_OfficeOpn_S" = 19475.27   $ Sizing
 "ClCap_Sys_L_OfficeOpn_W" = 18839.16   $ Sizing
 "ClCap_Sys_L_OfficeSm_E" = 16276.58   $ Sizing
 "ClCap_Sys_L_OfficeSm_N" = 7757.752   $ Sizing
 "ClCap_Sys_L_OfficeSm_S" = 17329.67   $ Sizing
 "ClCap_Sys_L_OfficeSm_W" = 16683.53   $ Sizing
 "ClCap_Sys_L_Restrm_C" = 2928.946   $ Sizing
 "ClCap_Sys_L_StorSm_C" = 1009.289   $ Sizing
 "ClCap_Sys_L_StorSm_E" = 4091.131   $ Sizing
 "ClCap_Sys_L_StorSm_N" = 2276.654   $ Sizing
 "ClCap_Sys_L_StorSm_S" = 4532.731   $ Sizing
 "ClCap_Sys_L_StorSm_W" = 4063.509   $ Sizing
 "ClCap_Sys_T_Conf_C" = 9300.091   $ Sizing
 "ClCap_Sys_T_Hall_E" = 4611.36   $ Sizing
 "ClCap_Sys_T_Hall_N" = 1939.225   $ Sizing
 "ClCap_Sys_T_Hall_S" = 5341.792   $ Sizing
 "ClCap_Sys_T_Hall_W" = 4866.904   $ Sizing
 "ClCap_Sys_T_OfficeOpn_C" = 2017.421   $ Sizing
 "ClCap_Sys_T_OfficeOpn_E" = 18658.67   $ Sizing
 "ClCap_Sys_T_OfficeOpn_N" = 10171.48   $ Sizing
 "ClCap_Sys_T_OfficeOpn_S" = 20389.98   $ Sizing
 "ClCap_Sys_T_OfficeOpn_W" = 18723.1   $ Sizing
 "ClCap_Sys_T_OfficeSm_E" = 16133.57   $ Sizing
 "ClCap_Sys_T_OfficeSm_N" = 8229.445   $ Sizing
 "ClCap_Sys_T_OfficeSm_S" = 18222.53   $ Sizing
 "ClCap_Sys_T_OfficeSm_W" = 16688.81   $ Sizing
 "ClCap_Sys_T_Restrm_C" = 3166.409   $ Sizing
 "ClCap_Sys_T_StorSm_E" = 4497.853   $ Sizing
 "ClCap_Sys_T_StorSm_N" = 2341.125   $ Sizing
 "ClCap_Sys_T_StorSm_S" = 5131.748   $ Sizing
 "ClCap_Sys_T_StorSm_W" = 4705.939   $ Sizing
 "HtCap_Sys_L_Break_C" = -16981.7   $ Sizing
 "HtCap_Sys_L_CompDC_C" = -5873.525   $ Sizing
 "HtCap_Sys_L_Conf_C" = -12981.11   $ Sizing
 "HtCap_Sys_L_CopyRm_C" = -4187.403   $ Sizing
 "HtCap_Sys_L_Hall_E" = -4426.332   $ Sizing
 "HtCap_Sys_L_Hall_N" = -2261.03   $ Sizing
 "HtCap_Sys_L_Hall_S" = -4849.954   $ Sizing
 "HtCap_Sys_L_Hall_W" = -4601.601   $ Sizing
 "HtCap_Sys_L_LobWait_E" = -11233.01   $ Sizing
 "HtCap_Sys_L_LobWait_N" = -5873.98   $ Sizing
 "HtCap_Sys_L_LobWait_S" = -12148.12   $ Sizing
 "HtCap_Sys_L_LobWait_W" = -11569.09   $ Sizing
 "HtCap_Sys_L_MechElec_C" = -3009.52   $ Sizing
 "HtCap_Sys_L_OfficeOpn_C" = -2562.803   $ Sizing
 "HtCap_Sys_L_OfficeOpn_E" = -18961.42   $ Sizing
 "HtCap_Sys_L_OfficeOpn_N" = -11874.5   $ Sizing
 "HtCap_Sys_L_OfficeOpn_S" = -19679.34   $ Sizing
 "HtCap_Sys_L_OfficeOpn_W" = -19795.53   $ Sizing
 "HtCap_Sys_L_OfficeSm_E" = -16406.84   $ Sizing
 "HtCap_Sys_L_OfficeSm_N" = -9153.457   $ Sizing
 "HtCap_Sys_L_OfficeSm_S" = -16944.94   $ Sizing
 "HtCap_Sys_L_OfficeSm_W" = -16904.16   $ Sizing
 "HtCap_Sys_L_Restrm_C" = -3058.451   $ Sizing
 "HtCap_Sys_L_StorSm_C" = -1269.949   $ Sizing
 "HtCap_Sys_L_StorSm_E" = -4448.107   $ Sizing
 "HtCap_Sys_L_StorSm_N" = -2857.963   $ Sizing
 "HtCap_Sys_L_StorSm_S" = -4809.061   $ Sizing
 "HtCap_Sys_L_StorSm_W" = -4469.868   $ Sizing
 "HtCap_Sys_T_Conf_C" = -13073.61   $ Sizing
 "HtCap_Sys_T_Hall_E" = -5236.913   $ Sizing
 "HtCap_Sys_T_Hall_N" = -2540.079   $ Sizing
 "HtCap_Sys_T_Hall_S" = -5948.243   $ Sizing
 "HtCap_Sys_T_Hall_W" = -5486.938   $ Sizing
 "HtCap_Sys_T_OfficeOpn_C" = -2633.588   $ Sizing
 "HtCap_Sys_T_OfficeOpn_E" = -21388.12   $ Sizing
 "HtCap_Sys_T_OfficeOpn_N" = -13107.78   $ Sizing
 "HtCap_Sys_T_OfficeOpn_S" = -22828.77   $ Sizing
 "HtCap_Sys_T_OfficeOpn_W" = -21446.05   $ Sizing
 "HtCap_Sys_T_OfficeSm_E" = -17632.99   $ Sizing
 "HtCap_Sys_T_OfficeSm_N" = -10418.44   $ Sizing
 "HtCap_Sys_T_OfficeSm_S" = -19818.89   $ Sizing
 "HtCap_Sys_T_OfficeSm_W" = -18634.49   $ Sizing
 "HtCap_Sys_T_Restrm_C" = -3681.26   $ Sizing
 "HtCap_Sys_T_StorSm_E" = -5481.408   $ Sizing
 "HtCap_Sys_T_StorSm_N" = -3322.245   $ Sizing
 "HtCap_Sys_T_StorSm_S" = -5951.417   $ Sizing
 "HtCap_Sys_T_StorSm_W" = -5674.034   $ Sizing
..

##include Templates\OfS_DX_SZ.inp
END ..
COMPUTE ..
STOP ..
