INPUT ..

##fileprefix C:\Users\jglasskatz\MASControl3\
##set1 IsSizing FALSE
##set1 CoolType DX
##set1 HeatType FURNACE
##set1 EU_HrRepVar 0
##set1 BldgVint 2020
##set1 BldgLoc CZ13

 ##set1 mBFMult 1   $ IP Tech: RefgChg-NRes-Std

PARAMETER
 "AltFactor" = 1.01244   $ IP Non-Tech
 "BF_fFlow" = SpltAC1Sp-lt45_BF_fFlow   $ Msr (Var)TechID: PreNResSplitAC-lt45-PENo
 "BF_fT" = SpltAC1Sp-lt45_BF_fT   $ Msr (Var)TechID: PreNResSplitAC-lt45-PENo
 "BldgEconoFlag" = 1   $ IP Non-Tech
 "Break_EWSF" = 1   $ IP Non-Tech
 "Break_LWSF" = 0.65   $ IP Non-Tech
 "CDD_DBHi10" = 86   $ IP Non-Tech
 "CDD_DBHi7" = 105   $ IP Non-Tech
 "CDD_DBHi8" = 102   $ IP Non-Tech
 "CDD_DBHi9" = 100   $ IP Non-Tech
 "CDD_DBRange10" = 28   $ IP Non-Tech
 "CDD_DBRange7" = 28   $ IP Non-Tech
 "CDD_DBRange8" = 28   $ IP Non-Tech
 "CDD_DBRange9" = 30   $ IP Non-Tech
 "CDD_Day10" = 15   $ IP Non-Tech
 "CDD_Day7" = 16   $ IP Non-Tech
 "CDD_Day8" = 20   $ IP Non-Tech
 "CDD_Day9" = 17   $ IP Non-Tech
 "CDD_HrHi10" = 16   $ IP Non-Tech
 "CDD_HrHi7" = 18   $ IP Non-Tech
 "CDD_HrHi8" = 18   $ IP Non-Tech
 "CDD_HrHi9" = 15   $ IP Non-Tech
 "CDD_HrLo10" = 5   $ IP Non-Tech
 "CDD_HrLo7" = 6   $ IP Non-Tech
 "CDD_HrLo8" = 7   $ IP Non-Tech
 "CDD_HrLo9" = 3   $ IP Non-Tech
 "CDD_WB10" = 62.19377518   $ IP Non-Tech
 "CDD_WB7" = 72.76699829   $ IP Non-Tech
 "CDD_WB8" = 69.69030762   $ IP Non-Tech
 "CDD_WB9" = 71.78777313   $ IP Non-Tech
 "CEIR_fPLR_Hot" = SpltAC1Sp-lt45_CEIR_fPLR_Hot   $ Msr (Var)TechID: PreNResSplitAC-lt45-PENo
 "CEIR_fPLR_Mod" = SpltAC1Sp-lt45_CEIR_fPLR_Mod   $ Msr (Var)TechID: PreNResSplitAC-lt45-PENo
 "CEIR_fPLR_Tem" = SpltAC1Sp-lt45_CEIR_fPLR_Tem   $ Msr (Var)TechID: PreNResSplitAC-lt45-PENo
 "CLoss_fPLR_Hot" = SpltAC1Sp-lt45_CLoss_fPLR_Hot   $ Msr (Var)TechID: PreNResSplitAC-lt45-PENo
 "CLoss_fPLR_Mod" = SpltAC1Sp-lt45_CLoss_fPLR_Mod   $ Msr (Var)TechID: PreNResSplitAC-lt45-PENo
 "CLoss_fPLR_Tem" = SpltAC1Sp-lt45_CLoss_fPLR_Tem   $ Msr (Var)TechID: PreNResSplitAC-lt45-PENo
 "COP47" = 0   $ Msr (Var)TechID: PreNResSplitAC-lt45-PENo
 "CZ_Category" = Mod   $ IP Non-Tech
 "CapRange" = lt45   $ Msr (Var)TechID: PreNResSplitAC-lt45-PENo
 "CfmPerBtuh" = 0.032504286   $ Msr (Var)TechID: PreNResSplitAC-lt45-PENo
 "ChwVintEconoFlag" = 1   $ IP Non-Tech
 "ClCap_fT" = SpltAC1Sp-lt45_ClCap_fT   $ Msr (Var)TechID: PreNResSplitAC-lt45-PENo
 "ClSH_fT" = SpltAC1Sp-lt45_ClSH_fT   $ Msr (Var)TechID: PreNResSplitAC-lt45-PENo
 "CoilBF" = 0.1212   $ Msr (Var)TechID: PreNResSplitAC-lt45-PENo
 "CompRoomData_EWSF" = 5   $ IP Non-Tech
 "CompRoomData_LWSF" = 0.8   $ IP Non-Tech
 "CondWPerBtuh" = 0   $ Msr (Var)TechID: PreNResSplitAC-lt45-PENo
 "Conference_EWSF" = 1   $ IP Non-Tech
 "Conference_LWSF" = 0.85   $ IP Non-Tech
 "CoolSensCap" = 0.754064286   $ Msr (Var)TechID: PreNResSplitAC-lt45-PENo
 "CoolSetT" = 45   $ IP Non-Tech
 "CoolType" = DX   $ IP Non-Tech
 "CoolingEIR" = 0.23878   $ Msr (Var)TechID: PreNResSplitAC-lt45-PENo
 "CopyRoom_EWSF" = 1.5   $ IP Non-Tech
 "CopyRoom_LWSF" = 0.5   $ IP Non-Tech
 "CrnkEIR" = 0.0023878   $ Msr (Var)TechID: PreNResSplitAC-lt45-PENo
 "CrnkMaxT" = 50   $ Msr (Var)TechID: PreNResSplitAC-lt45-PENo
 "DXType" = SplitSEER   $ Msr (Var)TechID: PreNResSplitAC-lt45-PENo
 "DesCoolT" = 75   $ IP Non-Tech
 "DesHeatT" = 73   $ IP Non-Tech
 "EER" = 12.16551724   $ Msr (Var)TechID: PreNResSplitAC-lt45-PENo
 "EIR_fT" = SpltAC1Sp-lt45_EIR_fT   $ Msr (Var)TechID: PreNResSplitAC-lt45-PENo
 "EconoCtrl" = FIXED   $ Msr (Multi)TechID: PreNResSplitAC-lt45-PENo
 "EconoEnthLimit" = 28   $ IP Non-Tech
 "EconoTempLimit" = 75   $ IP Non-Tech
 "Elevation" = 335   $ IP Non-Tech
 "FanEirPlr" = TwoSpeedFan   $ Msr (Var)TechID: PreNResSplitAC-lt45-PENo
 "FanWPerCfm" = 0.294   $ Msr (Var)TechID: PreNResSplitAC-lt45-PENo
 "HDD_CloudAmt1" = 0   $ IP Non-Tech
 "HDD_DBHi1" = 40.29372406   $ IP Non-Tech
 "HDD_DBRange1" = 8   $ IP Non-Tech
 "HDD_Day1" = 15   $ IP Non-Tech
 "HDD_HrHi1" = 22   $ IP Non-Tech
 "HDD_HrLo1" = 7   $ IP Non-Tech
 "HDD_WB1" = 38.2   $ IP Non-Tech
 "HDD_WindSpd1" = 10.4   $ IP Non-Tech
 "HIR_fT" = 0   $ Msr (Var)TechID: PreNResSplitAC-lt45-PENo
 "HSPF" = 0   $ Msr (Var)TechID: PreNResSplitAC-lt45-PENo
 "Hall_EWSF" = 0.2   $ IP Non-Tech
 "Hall_LWSF" = 0.55   $ IP Non-Tech
 "HeatSrc" = FURNACE   $ IP Non-Tech
 "HeatSrcTU" = HEAT-PUMP   $ IP Non-Tech
 "HeatType" = GasFurn   $ IP Non-Tech
 "HeatTypeTU" = HEAT-PUMP   $ IP Non-Tech
 "HtCap_fT" = 0   $ Msr (Var)TechID: PreNResSplitAC-lt45-PENo
 "HtCoolCapRatio" = 0   $ Msr (Var)TechID: PreNResSplitAC-lt45-PENo
 "HtgEIR" = 0   $ Msr (Var)TechID: PreNResSplitAC-lt45-PENo
 "IndoorFanMode" = CONTINUOUS   $ IP Non-Tech
 "KT_TransferAir" = Yes   $ IP Non-Tech
 "Latitude" = 36.8   $ IP Non-Tech
 "LobbyWaiting_EWSF" = 0.5   $ IP Non-Tech
 "LobbyWaiting_LWSF" = 0.75   $ IP Non-Tech
 "Longitude" = 119.7   $ IP Non-Tech
 "LowSpdCapRatio" = 1   $ Msr (Var)TechID: PreNResSplitAC-lt45-PENo
 "LowSpdCfmRatio" = 1   $ Msr (Var)TechID: PreNResSplitAC-lt45-PENo
 "MZFanMechEff" = 0.58   $ IP Non-Tech
 "MZHasRetFan" = FALSE   $ IP Non-Tech
 "MZ_RFanWPerCfm" = 0.33   $ IP Non-Tech
 "MZ_SFanWPerCfm" = 0.75   $ IP Non-Tech
 "MZ_SupFanStatic" = 2.25   $ IP Non-Tech
 "MaxOAFrac" = 1   $ Msr (Multi)TechID: PreNResSplitAC-lt45-PENo
 "MaxSupT_MZ" = 100   $ IP Non-Tech
 "MaxSupT_SZ" = 100   $ IP Non-Tech
 "MaxSupT_TU" = 90   $ IP Non-Tech
 "MechElecRoom_EWSF" = 0.2   $ IP Non-Tech
 "MechElecRoom_LWSF" = 0.4   $ IP Non-Tech
 "MinCfmPerSF" = 0.4   $ IP Non-Tech
 "MinSupT" = 55   $ IP Non-Tech
 "NumStages" = 1   $ Msr (Var)TechID: PreNResSplitAC-lt45-PENo
 "OccCoolT" = 76   $ IP Non-Tech
 "OccHeatT" = 72   $ IP Non-Tech
 "OfficeOpen_EWSF" = 1.5   $ IP Non-Tech
 "OfficeOpen_LWSF" = 0.8   $ IP Non-Tech
 "OfficeSmall_EWSF" = 1.5   $ IP Non-Tech
 "OfficeSmall_LWSF" = 0.9   $ IP Non-Tech
 "PkgDxVintEconoFlag" = 1   $ IP Non-Tech
 "Restroom_EWSF" = 0.2   $ IP Non-Tech
 "Restroom_LWSF" = 0.65   $ IP Non-Tech
 "SEER" = 14   $ Msr (Var)TechID: PreNResSplitAC-lt45-PENo
 "SZFanMechEff" = 0.58   $ IP Non-Tech
 "SZHasRetFan" = FALSE   $ IP Non-Tech
 "SZ_Is_2Spd" = TRUE   $ IP Non-Tech
 "SZ_SFanWPerCfm" = 0.46   $ IP Non-Tech
 "SZ_SupFanStatic" = 0.75   $ IP Non-Tech
 "Sector" = Any   $ Msr (Var)TechID: PreNResSplitAC-lt45-PENo
 "StorageSmlCond_EWSF" = 0.2   $ IP Non-Tech
 "StorageSmlCond_LWSF" = 0.45   $ IP Non-Tech
 "SubType" = AC   $ Msr (Var)TechID: PreNResSplitAC-lt45-PENo
 "TermUnitFanMechEff" = 1   $ IP Non-Tech
 "TermUnitFanMode" = INTERMITTENT   $ IP Non-Tech
 "TotCoolCap" = 30924.85714   $ Msr (Var)TechID: PreNResSplitAC-lt45-PENo
 "TwrSetpt" = 82.7   $ IP Non-Tech
 "UnocCoolT" = 86   $ IP Non-Tech
 "UnocHeatT" = 62   $ IP Non-Tech
 "UseEconoVintApplic" = FALSE   $ Msr (Multi)TechID: PreNResSplitAC-lt45-PENo
 "WlhpVintEconoFlag" = 1   $ IP Non-Tech
 "DuctDT" = 1   $ IP Tech: ComDuctInsul-1
 "DuctAirLoss" = 0   $ IP Tech: ComDuctLeak-0
 "DuctLossOAFrac" = 0   $ IP Tech: ComDuctLeak-0
 "ComRoofInsCalc" = FromUo   $ IP Tech: ComRoofIns-WFrm-0.03
 "ComRoofInsR" = -999   $ IP Tech: ComRoofIns-WFrm-0.03
 "ComRoofUo" = 0.03   $ IP Tech: ComRoofIns-WFrm-0.03
 "ComEWInsCalc" = FromUo   $ IP Tech: ComWallIns-WFrm-0.06
 "ComEWInsR" = -999   $ IP Tech: ComWallIns-WFrm-0.06
 "ComEWUo" = 0.06   $ IP Tech: ComWallIns-WFrm-0.06
 "ComN_SHGC" = 0.25   $ IP Tech: NResWin-ComN-0.36-0.25
 "ComN_UFactor" = 0.36   $ IP Tech: NResWin-ComN-0.36-0.25
 "ComN_VisTrans" = 0.41   $ IP Tech: NResWin-ComN-0.36-0.25
 "ComN_WinCode" = G2668   $ IP Tech: NResWin-ComN-0.36-0.25
 "ComN_WinFrmFrac" = 0.17   $ IP Tech: NResWin-ComN-0.36-0.25
 "ComN_WinFrmU" = 0.3   $ IP Tech: NResWin-ComN-0.36-0.25
 "ComO_SHGC" = 0.25   $ IP Tech: NResWin-ComO-0.36-0.25
 "ComO_UFactor" = 0.36   $ IP Tech: NResWin-ComO-0.36-0.25
 "ComO_VisTrans" = 0.41   $ IP Tech: NResWin-ComO-0.36-0.25
 "ComO_WinCode" = G2668   $ IP Tech: NResWin-ComO-0.36-0.25
 "ComO_WinFrmFrac" = 0.17   $ IP Tech: NResWin-ComO-0.36-0.25
 "ComO_WinFrmU" = 0.3   $ IP Tech: NResWin-ComO-0.36-0.25
 "LtgMsrApplic" = ALL   $ IP Tech: NonResLtgRefPre
 "LtgSav_CFL" = 0   $ IP Tech: NonResLtgRefPre
 "LtgSav_EX" = 0   $ IP Tech: NonResLtgRefPre
 "LtgSav_HB" = 0   $ IP Tech: NonResLtgRefPre
 "LtgSav_LF" = 0   $ IP Tech: NonResLtgRefPre
 "LtgSav_SP" = 0   $ IP Tech: NonResLtgRefPre
 "CEIR_fPLR" = PSZ65to135_CEIR_fPLR   $ IP Tech: PkgAC2SpP-65to135-E11
 "CLoss_fPLR" = PSZ65to135_CLoss_fPLR   $ IP Tech: PkgAC2SpP-65to135-E11
 "COP" = -1   $ IP Tech: PkgAC2SpP-65to135-E11
 "HtgFuel" = Gas   $ IP Tech: PkgAC2SpP-65to135-E11
 "IEER" = 13.35   $ IP Tech: PkgAC2SpP-65to135-E11
 "NominalCap" = 15   $ IP Tech: PkgAC2SpP-65to135-E11
 "RatedEER" = 11   $ IP Tech: PkgAC2SpP-65to135-E11
 "RatedSupMtrClass" = Premium   $ IP Tech: PkgAC2SpP-65to135-E11
 "SizeRange" = 65to135   $ IP Tech: PkgAC2SpP-65to135-E11
 "SupMotEff" = 0.865   $ IP Tech: PkgAC2SpP-65to135-E11
 "Tier" = 0   $ IP Tech: PkgAC2SpP-65to135-E11
 "FanPwrMult" = 1   $ IP Tech: PkgFurn-0.80AFUE
 "FurnAFUE" = 0.8   $ IP Tech: PkgFurn-0.80AFUE
 "FurnEt" = 0.82   $ IP Tech: PkgFurn-0.80AFUE
 "FurnaceAuxKW" = 0.1   $ IP Tech: PkgFurn-0.80AFUE
 "HIR_fPLR" = Furnace-HIR-fPLR   $ IP Tech: PkgFurn-0.80AFUE
 "VSM" = FALSE   $ IP Tech: PkgFurn-0.80AFUE
 "BFMult" = 1   $ IP Tech: RefgChg-NRes-Std
 "CoolEirMult" = 1   $ IP Tech: RefgChg-NRes-Std
 "SensCoolCapMult" = 1   $ IP Tech: RefgChg-NRes-Std
 "TotCoolCapMult" = 1   $ IP Tech: RefgChg-NRes-Std
 "AltAdjFactor" = 1.012438   $ Sizing
 "CAssFlo_L_Break_CZn" = 494.435   $ Sizing
 "CAssFlo_L_CompDC_CZn" = 154.5944   $ Sizing
 "CAssFlo_L_Conf_CZn" = 286.3265   $ Sizing
 "CAssFlo_L_CopyRm_CZn" = 97.44791   $ Sizing
 "CAssFlo_L_Hall_EZn" = 107.9712   $ Sizing
 "CAssFlo_L_Hall_NZn" = 68.05237   $ Sizing
 "CAssFlo_L_Hall_SZn" = 107.5124   $ Sizing
 "CAssFlo_L_Hall_WZn" = 117.5627   $ Sizing
 "CAssFlo_L_LobWait_EZn" = 251.7011   $ Sizing
 "CAssFlo_L_LobWait_NZn" = 179.4569   $ Sizing
 "CAssFlo_L_LobWait_SZn" = 263.0553   $ Sizing
 "CAssFlo_L_LobWait_WZn" = 297.4136   $ Sizing
 "CAssFlo_L_MechElec_CZn" = 83.99947   $ Sizing
 "CAssFlo_L_OfficeOpn_CZn" = 72.28181   $ Sizing
 "CAssFlo_L_OfficeOpn_EZn" = 464.1583   $ Sizing
 "CAssFlo_L_OfficeOpn_NZn" = 366.4379   $ Sizing
 "CAssFlo_L_OfficeOpn_SZn" = 465.7716   $ Sizing
 "CAssFlo_L_OfficeOpn_WZn" = 520.5732   $ Sizing
 "CAssFlo_L_OfficeSm_EZn" = 386.4297   $ Sizing
 "CAssFlo_L_OfficeSm_NZn" = 284.3906   $ Sizing
 "CAssFlo_L_OfficeSm_SZn" = 392.7412   $ Sizing
 "CAssFlo_L_OfficeSm_WZn" = 437.5989   $ Sizing
 "CAssFlo_L_Restrm_CZn" = 99.17685   $ Sizing
 "CAssFlo_L_StorSm_CZn" = 40.10898   $ Sizing
 "CAssFlo_L_StorSm_EZn" = 107.5698   $ Sizing
 "CAssFlo_L_StorSm_NZn" = 70.16322   $ Sizing
 "CAssFlo_L_StorSm_SZn" = 107.7212   $ Sizing
 "CAssFlo_L_StorSm_WZn" = 116.2188   $ Sizing
 "CAssFlo_T_Conf_CZn" = 275.6613   $ Sizing
 "CAssFlo_T_Hall_EZn" = 118.9059   $ Sizing
 "CAssFlo_T_Hall_NZn" = 71.62249   $ Sizing
 "CAssFlo_T_Hall_SZn" = 116.0203   $ Sizing
 "CAssFlo_T_Hall_WZn" = 126.3066   $ Sizing
 "CAssFlo_T_OfficeOpn_CZn" = 69.31991   $ Sizing
 "CAssFlo_T_OfficeOpn_EZn" = 487.777   $ Sizing
 "CAssFlo_T_OfficeOpn_NZn" = 369.1522   $ Sizing
 "CAssFlo_T_OfficeOpn_SZn" = 485.1415   $ Sizing
 "CAssFlo_T_OfficeOpn_WZn" = 529.1804   $ Sizing
 "CAssFlo_T_OfficeSm_EZn" = 408.9871   $ Sizing
 "CAssFlo_T_OfficeSm_NZn" = 289.7545   $ Sizing
 "CAssFlo_T_OfficeSm_SZn" = 410.9428   $ Sizing
 "CAssFlo_T_OfficeSm_WZn" = 447.8026   $ Sizing
 "CAssFlo_T_Restrm_CZn" = 138.3769   $ Sizing
 "CAssFlo_T_StorSm_EZn" = 124.3081   $ Sizing
 "CAssFlo_T_StorSm_NZn" = 79.26423   $ Sizing
 "CAssFlo_T_StorSm_SZn" = 122.3828   $ Sizing
 "CAssFlo_T_StorSm_WZn" = 134.4079   $ Sizing
 "CHRtFlo_Sys_L_Break_C" = 494.4351   $ Sizing
 "CHRtFlo_Sys_L_CompDC_C" = 174.8947   $ Sizing
 "CHRtFlo_Sys_L_Conf_C" = 286.3265   $ Sizing
 "CHRtFlo_Sys_L_CopyRm_C" = 97.44791   $ Sizing
 "CHRtFlo_Sys_L_Hall_E" = 121.935   $ Sizing
 "CHRtFlo_Sys_L_Hall_N" = 68.05237   $ Sizing
 "CHRtFlo_Sys_L_Hall_S" = 117.5204   $ Sizing
 "CHRtFlo_Sys_L_Hall_W" = 119.2521   $ Sizing
 "CHRtFlo_Sys_L_LobWait_E" = 276.7265   $ Sizing
 "CHRtFlo_Sys_L_LobWait_N" = 179.4569   $ Sizing
 "CHRtFlo_Sys_L_LobWait_S" = 264.238   $ Sizing
 "CHRtFlo_Sys_L_LobWait_W" = 297.4136   $ Sizing
 "CHRtFlo_Sys_L_MechElec_C" = 104.2363   $ Sizing
 "CHRtFlo_Sys_L_OfficeOpn_C" = 84.61827   $ Sizing
 "CHRtFlo_Sys_L_OfficeOpn_E" = 516.6541   $ Sizing
 "CHRtFlo_Sys_L_OfficeOpn_N" = 366.4379   $ Sizing
 "CHRtFlo_Sys_L_OfficeOpn_S" = 479.7253   $ Sizing
 "CHRtFlo_Sys_L_OfficeOpn_W" = 520.5732   $ Sizing
 "CHRtFlo_Sys_L_OfficeSm_E" = 437.2157   $ Sizing
 "CHRtFlo_Sys_L_OfficeSm_N" = 284.3906   $ Sizing
 "CHRtFlo_Sys_L_OfficeSm_S" = 415.3447   $ Sizing
 "CHRtFlo_Sys_L_OfficeSm_W" = 437.5989   $ Sizing
 "CHRtFlo_Sys_L_Restrm_C" = 109.2243   $ Sizing
 "CHRtFlo_Sys_L_StorSm_C" = 45.78037   $ Sizing
 "CHRtFlo_Sys_L_StorSm_E" = 120.1149   $ Sizing
 "CHRtFlo_Sys_L_StorSm_N" = 70.16322   $ Sizing
 "CHRtFlo_Sys_L_StorSm_S" = 111.4999   $ Sizing
 "CHRtFlo_Sys_L_StorSm_W" = 116.2188   $ Sizing
 "CHRtFlo_Sys_T_Conf_C" = 275.6613   $ Sizing
 "CHRtFlo_Sys_T_Hall_E" = 125.7831   $ Sizing
 "CHRtFlo_Sys_T_Hall_N" = 71.62249   $ Sizing
 "CHRtFlo_Sys_T_Hall_S" = 121.7373   $ Sizing
 "CHRtFlo_Sys_T_Hall_W" = 126.3066   $ Sizing
 "CHRtFlo_Sys_T_OfficeOpn_C" = 75.17715   $ Sizing
 "CHRtFlo_Sys_T_OfficeOpn_E" = 498.0423   $ Sizing
 "CHRtFlo_Sys_T_OfficeOpn_N" = 369.1522   $ Sizing
 "CHRtFlo_Sys_T_OfficeOpn_S" = 485.1415   $ Sizing
 "CHRtFlo_Sys_T_OfficeOpn_W" = 529.1804   $ Sizing
 "CHRtFlo_Sys_T_OfficeSm_E" = 425.2966   $ Sizing
 "CHRtFlo_Sys_T_OfficeSm_N" = 289.7545   $ Sizing
 "CHRtFlo_Sys_T_OfficeSm_S" = 422.2312   $ Sizing
 "CHRtFlo_Sys_T_OfficeSm_W" = 447.8026   $ Sizing
 "CHRtFlo_Sys_T_Restrm_C" = 148.8159   $ Sizing
 "CHRtFlo_Sys_T_StorSm_E" = 126.8955   $ Sizing
 "CHRtFlo_Sys_T_StorSm_N" = 79.26423   $ Sizing
 "CHRtFlo_Sys_T_StorSm_S" = 122.3828   $ Sizing
 "CHRtFlo_Sys_T_StorSm_W" = 134.4079   $ Sizing
 "CRtdFlo_Sys_L_Break_C" = 494.4351   $ Sizing
 "CRtdFlo_Sys_L_CompDC_C" = 154.5944   $ Sizing
 "CRtdFlo_Sys_L_Conf_C" = 286.3265   $ Sizing
 "CRtdFlo_Sys_L_CopyRm_C" = 97.44791   $ Sizing
 "CRtdFlo_Sys_L_Hall_E" = 107.9712   $ Sizing
 "CRtdFlo_Sys_L_Hall_N" = 68.05237   $ Sizing
 "CRtdFlo_Sys_L_Hall_S" = 107.5124   $ Sizing
 "CRtdFlo_Sys_L_Hall_W" = 117.5627   $ Sizing
 "CRtdFlo_Sys_L_LobWait_E" = 251.7012   $ Sizing
 "CRtdFlo_Sys_L_LobWait_N" = 179.4569   $ Sizing
 "CRtdFlo_Sys_L_LobWait_S" = 263.0553   $ Sizing
 "CRtdFlo_Sys_L_LobWait_W" = 297.4136   $ Sizing
 "CRtdFlo_Sys_L_MechElec_C" = 83.99947   $ Sizing
 "CRtdFlo_Sys_L_OfficeOpn_C" = 72.28181   $ Sizing
 "CRtdFlo_Sys_L_OfficeOpn_E" = 464.1583   $ Sizing
 "CRtdFlo_Sys_L_OfficeOpn_N" = 366.4379   $ Sizing
 "CRtdFlo_Sys_L_OfficeOpn_S" = 465.7716   $ Sizing
 "CRtdFlo_Sys_L_OfficeOpn_W" = 520.5732   $ Sizing
 "CRtdFlo_Sys_L_OfficeSm_E" = 386.4297   $ Sizing
 "CRtdFlo_Sys_L_OfficeSm_N" = 284.3906   $ Sizing
 "CRtdFlo_Sys_L_OfficeSm_S" = 392.7412   $ Sizing
 "CRtdFlo_Sys_L_OfficeSm_W" = 437.5989   $ Sizing
 "CRtdFlo_Sys_L_Restrm_C" = 99.17685   $ Sizing
 "CRtdFlo_Sys_L_StorSm_C" = 40.10898   $ Sizing
 "CRtdFlo_Sys_L_StorSm_E" = 107.5698   $ Sizing
 "CRtdFlo_Sys_L_StorSm_N" = 70.16322   $ Sizing
 "CRtdFlo_Sys_L_StorSm_S" = 107.7212   $ Sizing
 "CRtdFlo_Sys_L_StorSm_W" = 116.2188   $ Sizing
 "CRtdFlo_Sys_T_Conf_C" = 275.6613   $ Sizing
 "CRtdFlo_Sys_T_Hall_E" = 118.9059   $ Sizing
 "CRtdFlo_Sys_T_Hall_N" = 71.62249   $ Sizing
 "CRtdFlo_Sys_T_Hall_S" = 116.0203   $ Sizing
 "CRtdFlo_Sys_T_Hall_W" = 126.3066   $ Sizing
 "CRtdFlo_Sys_T_OfficeOpn_C" = 69.31991   $ Sizing
 "CRtdFlo_Sys_T_OfficeOpn_E" = 487.777   $ Sizing
 "CRtdFlo_Sys_T_OfficeOpn_N" = 369.1522   $ Sizing
 "CRtdFlo_Sys_T_OfficeOpn_S" = 485.1415   $ Sizing
 "CRtdFlo_Sys_T_OfficeOpn_W" = 529.1804   $ Sizing
 "CRtdFlo_Sys_T_OfficeSm_E" = 408.9871   $ Sizing
 "CRtdFlo_Sys_T_OfficeSm_N" = 289.7545   $ Sizing
 "CRtdFlo_Sys_T_OfficeSm_S" = 410.9428   $ Sizing
 "CRtdFlo_Sys_T_OfficeSm_W" = 447.8026   $ Sizing
 "CRtdFlo_Sys_T_Restrm_C" = 138.3769   $ Sizing
 "CRtdFlo_Sys_T_StorSm_E" = 124.3081   $ Sizing
 "CRtdFlo_Sys_T_StorSm_N" = 79.26423   $ Sizing
 "CRtdFlo_Sys_T_StorSm_S" = 122.3828   $ Sizing
 "CRtdFlo_Sys_T_StorSm_W" = 134.4079   $ Sizing
 "CSupFlo_Sys_L_Break_C" = 494.4351   $ Sizing
 "CSupFlo_Sys_L_CompDC_C" = 154.5944   $ Sizing
 "CSupFlo_Sys_L_Conf_C" = 286.3265   $ Sizing
 "CSupFlo_Sys_L_CopyRm_C" = 97.44791   $ Sizing
 "CSupFlo_Sys_L_Hall_E" = 107.9712   $ Sizing
 "CSupFlo_Sys_L_Hall_N" = 68.05237   $ Sizing
 "CSupFlo_Sys_L_Hall_S" = 107.5124   $ Sizing
 "CSupFlo_Sys_L_Hall_W" = 117.5627   $ Sizing
 "CSupFlo_Sys_L_LobWait_E" = 251.7012   $ Sizing
 "CSupFlo_Sys_L_LobWait_N" = 179.4569   $ Sizing
 "CSupFlo_Sys_L_LobWait_S" = 263.0553   $ Sizing
 "CSupFlo_Sys_L_LobWait_W" = 297.4136   $ Sizing
 "CSupFlo_Sys_L_MechElec_C" = 83.99947   $ Sizing
 "CSupFlo_Sys_L_OfficeOpn_C" = 72.28181   $ Sizing
 "CSupFlo_Sys_L_OfficeOpn_E" = 464.1583   $ Sizing
 "CSupFlo_Sys_L_OfficeOpn_N" = 366.4379   $ Sizing
 "CSupFlo_Sys_L_OfficeOpn_S" = 465.7716   $ Sizing
 "CSupFlo_Sys_L_OfficeOpn_W" = 520.5732   $ Sizing
 "CSupFlo_Sys_L_OfficeSm_E" = 386.4297   $ Sizing
 "CSupFlo_Sys_L_OfficeSm_N" = 284.3906   $ Sizing
 "CSupFlo_Sys_L_OfficeSm_S" = 392.7412   $ Sizing
 "CSupFlo_Sys_L_OfficeSm_W" = 437.5989   $ Sizing
 "CSupFlo_Sys_L_Restrm_C" = 99.17685   $ Sizing
 "CSupFlo_Sys_L_StorSm_C" = 40.10898   $ Sizing
 "CSupFlo_Sys_L_StorSm_E" = 107.5698   $ Sizing
 "CSupFlo_Sys_L_StorSm_N" = 70.16322   $ Sizing
 "CSupFlo_Sys_L_StorSm_S" = 107.7212   $ Sizing
 "CSupFlo_Sys_L_StorSm_W" = 116.2188   $ Sizing
 "CSupFlo_Sys_T_Conf_C" = 275.6613   $ Sizing
 "CSupFlo_Sys_T_Hall_E" = 118.9059   $ Sizing
 "CSupFlo_Sys_T_Hall_N" = 71.62249   $ Sizing
 "CSupFlo_Sys_T_Hall_S" = 116.0203   $ Sizing
 "CSupFlo_Sys_T_Hall_W" = 126.3066   $ Sizing
 "CSupFlo_Sys_T_OfficeOpn_C" = 69.31991   $ Sizing
 "CSupFlo_Sys_T_OfficeOpn_E" = 487.777   $ Sizing
 "CSupFlo_Sys_T_OfficeOpn_N" = 369.1522   $ Sizing
 "CSupFlo_Sys_T_OfficeOpn_S" = 485.1415   $ Sizing
 "CSupFlo_Sys_T_OfficeOpn_W" = 529.1804   $ Sizing
 "CSupFlo_Sys_T_OfficeSm_E" = 408.9871   $ Sizing
 "CSupFlo_Sys_T_OfficeSm_N" = 289.7545   $ Sizing
 "CSupFlo_Sys_T_OfficeSm_S" = 410.9428   $ Sizing
 "CSupFlo_Sys_T_OfficeSm_W" = 447.8026   $ Sizing
 "CSupFlo_Sys_T_Restrm_C" = 138.3769   $ Sizing
 "CSupFlo_Sys_T_StorSm_E" = 124.3081   $ Sizing
 "CSupFlo_Sys_T_StorSm_N" = 79.26423   $ Sizing
 "CSupFlo_Sys_T_StorSm_S" = 122.3828   $ Sizing
 "CSupFlo_Sys_T_StorSm_W" = 134.4079   $ Sizing
 "ClCap_Sys_L_Break_C" = 16743.8   $ Sizing
 "ClCap_Sys_L_CompDC_C" = 5235.262   $ Sizing
 "ClCap_Sys_L_Conf_C" = 12340.75   $ Sizing
 "ClCap_Sys_L_CopyRm_C" = 3300.025   $ Sizing
 "ClCap_Sys_L_Hall_E" = 3656.391   $ Sizing
 "ClCap_Sys_L_Hall_N" = 2304.56   $ Sizing
 "ClCap_Sys_L_Hall_S" = 3640.855   $ Sizing
 "ClCap_Sys_L_Hall_W" = 3981.203   $ Sizing
 "ClCap_Sys_L_LobWait_E" = 8523.734   $ Sizing
 "ClCap_Sys_L_LobWait_N" = 6077.218   $ Sizing
 "ClCap_Sys_L_LobWait_S" = 8908.235   $ Sizing
 "ClCap_Sys_L_LobWait_W" = 10071.76   $ Sizing
 "ClCap_Sys_L_MechElec_C" = 2844.6   $ Sizing
 "ClCap_Sys_L_OfficeOpn_C" = 2447.787   $ Sizing
 "ClCap_Sys_L_OfficeOpn_E" = 15718.49   $ Sizing
 "ClCap_Sys_L_OfficeOpn_N" = 12409.24   $ Sizing
 "ClCap_Sys_L_OfficeOpn_S" = 15773.12   $ Sizing
 "ClCap_Sys_L_OfficeOpn_W" = 17628.95   $ Sizing
 "ClCap_Sys_L_OfficeSm_E" = 13086.25   $ Sizing
 "ClCap_Sys_L_OfficeSm_N" = 9630.745   $ Sizing
 "ClCap_Sys_L_OfficeSm_S" = 13299.99   $ Sizing
 "ClCap_Sys_L_OfficeSm_W" = 14819.07   $ Sizing
 "ClCap_Sys_L_Restrm_C" = 3358.575   $ Sizing
 "ClCap_Sys_L_StorSm_C" = 1358.271   $ Sizing
 "ClCap_Sys_L_StorSm_E" = 3642.796   $ Sizing
 "ClCap_Sys_L_StorSm_N" = 2376.043   $ Sizing
 "ClCap_Sys_L_StorSm_S" = 3647.925   $ Sizing
 "ClCap_Sys_L_StorSm_W" = 3935.693   $ Sizing
 "ClCap_Sys_T_Conf_C" = 11881.08   $ Sizing
 "ClCap_Sys_T_Hall_E" = 4026.69   $ Sizing
 "ClCap_Sys_T_Hall_N" = 2425.46   $ Sizing
 "ClCap_Sys_T_Hall_S" = 3928.969   $ Sizing
 "ClCap_Sys_T_Hall_W" = 4277.311   $ Sizing
 "ClCap_Sys_T_OfficeOpn_C" = 2347.484   $ Sizing
 "ClCap_Sys_T_OfficeOpn_E" = 16518.32   $ Sizing
 "ClCap_Sys_T_OfficeOpn_N" = 12501.16   $ Sizing
 "ClCap_Sys_T_OfficeOpn_S" = 16429.08   $ Sizing
 "ClCap_Sys_T_OfficeOpn_W" = 17920.43   $ Sizing
 "ClCap_Sys_T_OfficeSm_E" = 13850.14   $ Sizing
 "ClCap_Sys_T_OfficeSm_N" = 9812.393   $ Sizing
 "ClCap_Sys_T_OfficeSm_S" = 13916.37   $ Sizing
 "ClCap_Sys_T_OfficeSm_W" = 15164.61   $ Sizing
 "ClCap_Sys_T_Restrm_C" = 4686.063   $ Sizing
 "ClCap_Sys_T_StorSm_E" = 4209.632   $ Sizing
 "ClCap_Sys_T_StorSm_N" = 2684.244   $ Sizing
 "ClCap_Sys_T_StorSm_S" = 4144.434   $ Sizing
 "ClCap_Sys_T_StorSm_W" = 4551.657   $ Sizing
 "HtCap_Sys_L_Break_C" = -28252.05   $ Sizing
 "HtCap_Sys_L_CompDC_C" = -6292.325   $ Sizing
 "HtCap_Sys_L_Conf_C" = -16928.1   $ Sizing
 "HtCap_Sys_L_CopyRm_C" = -5629.816   $ Sizing
 "HtCap_Sys_L_Hall_E" = -4411.197   $ Sizing
 "HtCap_Sys_L_Hall_N" = -2687.854   $ Sizing
 "HtCap_Sys_L_Hall_S" = -4152.447   $ Sizing
 "HtCap_Sys_L_Hall_W" = -4247.439   $ Sizing
 "HtCap_Sys_L_LobWait_E" = -10641.29   $ Sizing
 "HtCap_Sys_L_LobWait_N" = -8329.25   $ Sizing
 "HtCap_Sys_L_LobWait_S" = -10271.65   $ Sizing
 "HtCap_Sys_L_LobWait_W" = -11554.53   $ Sizing
 "HtCap_Sys_L_MechElec_C" = -4148.973   $ Sizing
 "HtCap_Sys_L_OfficeOpn_C" = -3225.469   $ Sizing
 "HtCap_Sys_L_OfficeOpn_E" = -18750.4   $ Sizing
 "HtCap_Sys_L_OfficeOpn_N" = -15021.76   $ Sizing
 "HtCap_Sys_L_OfficeOpn_S" = -17288.92   $ Sizing
 "HtCap_Sys_L_OfficeOpn_W" = -19189.43   $ Sizing
 "HtCap_Sys_L_OfficeSm_E" = -15756.05   $ Sizing
 "HtCap_Sys_L_OfficeSm_N" = -11283.35   $ Sizing
 "HtCap_Sys_L_OfficeSm_S" = -14356.65   $ Sizing
 "HtCap_Sys_L_OfficeSm_W" = -15569.54   $ Sizing
 "HtCap_Sys_L_Restrm_C" = -3785.282   $ Sizing
 "HtCap_Sys_L_StorSm_C" = -1808.385   $ Sizing
 "HtCap_Sys_L_StorSm_E" = -4492.815   $ Sizing
 "HtCap_Sys_L_StorSm_N" = -3140.159   $ Sizing
 "HtCap_Sys_L_StorSm_S" = -4229.839   $ Sizing
 "HtCap_Sys_L_StorSm_W" = -4464.962   $ Sizing
 "HtCap_Sys_T_Conf_C" = -16697.77   $ Sizing
 "HtCap_Sys_T_Hall_E" = -4897.009   $ Sizing
 "HtCap_Sys_T_Hall_N" = -3142.346   $ Sizing
 "HtCap_Sys_T_Hall_S" = -4765.067   $ Sizing
 "HtCap_Sys_T_Hall_W" = -4958.049   $ Sizing
 "HtCap_Sys_T_OfficeOpn_C" = -3215.337   $ Sizing
 "HtCap_Sys_T_OfficeOpn_E" = -19888.27   $ Sizing
 "HtCap_Sys_T_OfficeOpn_N" = -16342.35   $ Sizing
 "HtCap_Sys_T_OfficeOpn_S" = -19466.98   $ Sizing
 "HtCap_Sys_T_OfficeOpn_W" = -21379.77   $ Sizing
 "HtCap_Sys_T_OfficeSm_E" = -16665.99   $ Sizing
 "HtCap_Sys_T_OfficeSm_N" = -12645.82   $ Sizing
 "HtCap_Sys_T_OfficeSm_S" = -16554.42   $ Sizing
 "HtCap_Sys_T_OfficeSm_W" = -17674.45   $ Sizing
 "HtCap_Sys_T_Restrm_C" = -5691.406   $ Sizing
 "HtCap_Sys_T_StorSm_E" = -5286.642   $ Sizing
 "HtCap_Sys_T_StorSm_N" = -3815.061   $ Sizing
 "HtCap_Sys_T_StorSm_S" = -5093.285   $ Sizing
 "HtCap_Sys_T_StorSm_W" = -5699.442   $ Sizing
..

##include Templates\OfS_DX_SZ.inp
END ..
COMPUTE ..
STOP ..
