INPUT ..

##fileprefix C:\Users\jglasskatz\MASControl3\
##set1 IsSizing FALSE
##set1 CoolType DX
##set1 HeatType FURNACE
##set1 EU_HrRepVar 0
##set1 BldgVint 2011
##set1 BldgLoc CZ16

 ##set1 mBFMult 1   $ IP Tech: RefgChg-NRes-Std

PARAMETER
 "AltFactor" = 1.21446   $ IP Non-Tech
 "BF_fFlow" = SpltAC2SpHiSEER_BF_fFlow   $ Msr (Multi)TechID: MsrNResSplitAC-lt45-S17
 "BF_fT" = SpltAC2SpHiSEER_BF_fT   $ Msr (Multi)TechID: MsrNResSplitAC-lt45-S17
 "BldgEconoFlag" = 1   $ IP Non-Tech
 "Break_EWSF" = 1   $ IP Non-Tech
 "Break_LWSF" = 1.1   $ IP Non-Tech
 "CDD_DBHi10" = 66   $ IP Non-Tech
 "CDD_DBHi7" = 83   $ IP Non-Tech
 "CDD_DBHi8" = 83   $ IP Non-Tech
 "CDD_DBHi9" = 78   $ IP Non-Tech
 "CDD_DBRange10" = 10   $ IP Non-Tech
 "CDD_DBRange7" = 7   $ IP Non-Tech
 "CDD_DBRange8" = 11   $ IP Non-Tech
 "CDD_DBRange9" = 10   $ IP Non-Tech
 "CDD_Day10" = 15   $ IP Non-Tech
 "CDD_Day7" = 16   $ IP Non-Tech
 "CDD_Day8" = 20   $ IP Non-Tech
 "CDD_Day9" = 17   $ IP Non-Tech
 "CDD_HrHi10" = 15   $ IP Non-Tech
 "CDD_HrHi7" = 15   $ IP Non-Tech
 "CDD_HrHi8" = 13   $ IP Non-Tech
 "CDD_HrHi9" = 14   $ IP Non-Tech
 "CDD_HrLo10" = 7   $ IP Non-Tech
 "CDD_HrLo7" = 22   $ IP Non-Tech
 "CDD_HrLo8" = 2   $ IP Non-Tech
 "CDD_HrLo9" = 7   $ IP Non-Tech
 "CDD_WB10" = 49.76695633   $ IP Non-Tech
 "CDD_WB7" = 62.86373901   $ IP Non-Tech
 "CDD_WB8" = 57.26689529   $ IP Non-Tech
 "CDD_WB9" = 55.95214462   $ IP Non-Tech
 "CEIR_fPLR_Hot" = SpltAC2SpHiSEER_CEIR_fPLR_Hot   $ Msr (Multi)TechID: MsrNResSplitAC-lt45-S17
 "CEIR_fPLR_Mod" = SpltAC2SpHiSEER_CEIR_fPLR_Mod   $ Msr (Multi)TechID: MsrNResSplitAC-lt45-S17
 "CEIR_fPLR_Tem" = SpltAC2SpHiSEER_CEIR_fPLR_Tem   $ Msr (Multi)TechID: MsrNResSplitAC-lt45-S17
 "CLoss_fPLR_Hot" = SpltAC2SpHiSEER_CLoss_fPLR_Hot   $ Msr (Multi)TechID: MsrNResSplitAC-lt45-S17
 "CLoss_fPLR_Mod" = SpltAC2SpHiSEER_CLoss_fPLR_Mod   $ Msr (Multi)TechID: MsrNResSplitAC-lt45-S17
 "CLoss_fPLR_Tem" = SpltAC2SpHiSEER_CLoss_fPLR_Tem   $ Msr (Multi)TechID: MsrNResSplitAC-lt45-S17
 "COP47" = 0   $ Msr (Multi)TechID: MsrNResSplitAC-lt45-S17
 "CZ_Category" = Tem   $ IP Non-Tech
 "CapRange" = Any   $ Msr (Multi)TechID: MsrNResSplitAC-lt45-S17
 "CfmPerBtuh" = 0.03   $ Msr (Multi)TechID: MsrNResSplitAC-lt45-S17
 "ChwVintEconoFlag" = 1   $ IP Non-Tech
 "ClCap_fT" = SpltAC2SpHiSEER_ClCap_fT   $ Msr (Multi)TechID: MsrNResSplitAC-lt45-S17
 "ClSH_fT" = SpltAC2SpHiSEER_ClSH_fT   $ Msr (Multi)TechID: MsrNResSplitAC-lt45-S17
 "CoilBF" = 0.102   $ Msr (Multi)TechID: MsrNResSplitAC-lt45-S17
 "CompRoomData_EWSF" = 5   $ IP Non-Tech
 "CompRoomData_LWSF" = 1.1   $ IP Non-Tech
 "CondWPerBtuh" = 0   $ Msr (Multi)TechID: MsrNResSplitAC-lt45-S17
 "Conference_EWSF" = 1   $ IP Non-Tech
 "Conference_LWSF" = 1.4   $ IP Non-Tech
 "CoolSensCap" = 0.724   $ Msr (Multi)TechID: MsrNResSplitAC-lt45-S17
 "CoolSetT" = 45   $ IP Non-Tech
 "CoolType" = DX   $ IP Non-Tech
 "CoolingEIR" = 0.2225   $ Msr (Multi)TechID: MsrNResSplitAC-lt45-S17
 "CopyRoom_EWSF" = 1.5   $ IP Non-Tech
 "CopyRoom_LWSF" = 1.3   $ IP Non-Tech
 "CrnkEIR" = 0.002225   $ Msr (Multi)TechID: MsrNResSplitAC-lt45-S17
 "CrnkMaxT" = 50   $ Msr (Multi)TechID: MsrNResSplitAC-lt45-S17
 "DXType" = SplitSEER   $ Msr (Multi)TechID: MsrNResSplitAC-lt45-S17
 "DesCoolT" = 75   $ IP Non-Tech
 "DesHeatT" = 73   $ IP Non-Tech
 "EER" = 13.26   $ Msr (Multi)TechID: MsrNResSplitAC-lt45-S17
 "EIR_fT" = SpltAC2SpHiSEER_EIR_fT   $ Msr (Multi)TechID: MsrNResSplitAC-lt45-S17
 "EconoCtrl" = FIXED   $ Msr (Multi)TechID: MsrNResSplitAC-lt45-S17
 "EconoEnthLimit" = 28   $ IP Non-Tech
 "EconoTempLimit" = 75   $ IP Non-Tech
 "Elevation" = 5279   $ IP Non-Tech
 "FanEirPlr" = TwoSpeedFan   $ Msr (Multi)TechID: MsrNResSplitAC-lt45-S17
 "FanWPerCfm" = 0.271   $ Msr (Multi)TechID: MsrNResSplitAC-lt45-S17
 "HDD_CloudAmt1" = 0   $ IP Non-Tech
 "HDD_DBHi1" = 30   $ IP Non-Tech
 "HDD_DBRange1" = 8   $ IP Non-Tech
 "HDD_Day1" = 15   $ IP Non-Tech
 "HDD_HrHi1" = 15   $ IP Non-Tech
 "HDD_HrLo1" = 2   $ IP Non-Tech
 "HDD_WB1" = 22.9   $ IP Non-Tech
 "HDD_WindSpd1" = 16.1   $ IP Non-Tech
 "HIR_fT" = 0   $ Msr (Multi)TechID: MsrNResSplitAC-lt45-S17
 "HSPF" = 0   $ Msr (Multi)TechID: MsrNResSplitAC-lt45-S17
 "Hall_EWSF" = 0.2   $ IP Non-Tech
 "Hall_LWSF" = 0.6   $ IP Non-Tech
 "HeatSrc" = FURNACE   $ IP Non-Tech
 "HeatSrcTU" = HEAT-PUMP   $ IP Non-Tech
 "HeatType" = GasFurn   $ IP Non-Tech
 "HeatTypeTU" = HEAT-PUMP   $ IP Non-Tech
 "HtCap_fT" = 0   $ Msr (Multi)TechID: MsrNResSplitAC-lt45-S17
 "HtCoolCapRatio" = 0   $ Msr (Multi)TechID: MsrNResSplitAC-lt45-S17
 "HtgEIR" = 0   $ Msr (Multi)TechID: MsrNResSplitAC-lt45-S17
 "IndoorFanMode" = CONTINUOUS   $ IP Non-Tech
 "KT_TransferAir" = No   $ IP Non-Tech
 "Latitude" = 41.3   $ IP Non-Tech
 "LobbyWaiting_EWSF" = 0.5   $ IP Non-Tech
 "LobbyWaiting_LWSF" = 1.3   $ IP Non-Tech
 "Longitude" = 122.3   $ IP Non-Tech
 "LowSpdCapRatio" = 0.686   $ Msr (Multi)TechID: MsrNResSplitAC-lt45-S17
 "LowSpdCfmRatio" = 0.739   $ Msr (Multi)TechID: MsrNResSplitAC-lt45-S17
 "MZFanMechEff" = 0.58   $ IP Non-Tech
 "MZHasRetFan" = FALSE   $ IP Non-Tech
 "MZ_RFanWPerCfm" = 0.33   $ IP Non-Tech
 "MZ_SFanWPerCfm" = 0.75   $ IP Non-Tech
 "MZ_SupFanStatic" = 2.25   $ IP Non-Tech
 "MaxOAFrac" = 1   $ Msr (Multi)TechID: MsrNResSplitAC-lt45-S17
 "MaxSupT_MZ" = 100   $ IP Non-Tech
 "MaxSupT_SZ" = 100   $ IP Non-Tech
 "MaxSupT_TU" = 90   $ IP Non-Tech
 "MechElecRoom_EWSF" = 0.2   $ IP Non-Tech
 "MechElecRoom_LWSF" = 0.7   $ IP Non-Tech
 "MinCfmPerSF" = 0.4   $ IP Non-Tech
 "MinSupT" = 55   $ IP Non-Tech
 "NumStages" = 2   $ Msr (Multi)TechID: MsrNResSplitAC-lt45-S17
 "OccCoolT" = 76   $ IP Non-Tech
 "OccHeatT" = 72   $ IP Non-Tech
 "OfficeOpen_EWSF" = 1.5   $ IP Non-Tech
 "OfficeOpen_LWSF" = 1.1   $ IP Non-Tech
 "OfficeSmall_EWSF" = 1.5   $ IP Non-Tech
 "OfficeSmall_LWSF" = 1.3   $ IP Non-Tech
 "PkgDxVintEconoFlag" = 0   $ IP Non-Tech
 "Restroom_EWSF" = 0.2   $ IP Non-Tech
 "Restroom_LWSF" = 0.6   $ IP Non-Tech
 "SEER" = 17   $ Msr (Multi)TechID: MsrNResSplitAC-lt45-S17
 "SZFanMechEff" = 0.58   $ IP Non-Tech
 "SZHasRetFan" = FALSE   $ IP Non-Tech
 "SZ_Is_2Spd" = FALSE   $ IP Non-Tech
 "SZ_SFanWPerCfm" = 0.46   $ IP Non-Tech
 "SZ_SupFanStatic" = 0.75   $ IP Non-Tech
 "Sector" = Any   $ Msr (Multi)TechID: MsrNResSplitAC-lt45-S17
 "StorageSmlCond_EWSF" = 0.2   $ IP Non-Tech
 "StorageSmlCond_LWSF" = 0.6   $ IP Non-Tech
 "SubType" = AC   $ Msr (Multi)TechID: MsrNResSplitAC-lt45-S17
 "T24GlzTbl" = CZTbl   $ IP Non-Tech
 "TermUnitFanMechEff" = 1   $ IP Non-Tech
 "TermUnitFanMode" = INTERMITTENT   $ IP Non-Tech
 "TotCoolCap" = 58805   $ Msr (Multi)TechID: MsrNResSplitAC-lt45-S17
 "TwrSetpt" = 80   $ IP Non-Tech
 "UnocCoolT" = 86   $ IP Non-Tech
 "UnocHeatT" = 62   $ IP Non-Tech
 "UseEconoVintApplic" = FALSE   $ Msr (Multi)TechID: MsrNResSplitAC-lt45-S17
 "WlhpVintEconoFlag" = 0   $ IP Non-Tech
 "DuctDT" = 1   $ IP Tech: ComDuctInsul-1
 "DuctAirLoss" = 0   $ IP Tech: ComDuctLeak-0
 "DuctLossOAFrac" = 0   $ IP Tech: ComDuctLeak-0
 "ComRoofInsCalc" = FromUo   $ IP Tech: ComRoofIns-WFrm-0.04
 "ComRoofInsR" = -999   $ IP Tech: ComRoofIns-WFrm-0.04
 "ComRoofUo" = 0.04   $ IP Tech: ComRoofIns-WFrm-0.04
 "ComEWInsCalc" = FromUo   $ IP Tech: ComWallIns-WFrm-0.06
 "ComEWInsR" = -999   $ IP Tech: ComWallIns-WFrm-0.06
 "ComEWUo" = 0.06   $ IP Tech: ComWallIns-WFrm-0.06
 "ComN_SHGC" = 0.47   $ IP Tech: NResWin-ComN-0.47-0.47
 "ComN_UFactor" = 0.47   $ IP Tech: NResWin-ComN-0.47-0.47
 "ComN_VisTrans" = 0.75   $ IP Tech: NResWin-ComN-0.47-0.47
 "ComN_WinCode" = G2633   $ IP Tech: NResWin-ComN-0.47-0.47
 "ComN_WinFrmFrac" = 0.17   $ IP Tech: NResWin-ComN-0.47-0.47
 "ComN_WinFrmU" = 0.3   $ IP Tech: NResWin-ComN-0.47-0.47
 "ComO_SHGC" = 0.43   $ IP Tech: NResWin-ComO-0.47-0.43
 "ComO_UFactor" = 0.47   $ IP Tech: NResWin-ComO-0.47-0.43
 "ComO_VisTrans" = 0.68   $ IP Tech: NResWin-ComO-0.47-0.43
 "ComO_WinCode" = G2663   $ IP Tech: NResWin-ComO-0.47-0.43
 "ComO_WinFrmFrac" = 0.17   $ IP Tech: NResWin-ComO-0.47-0.43
 "ComO_WinFrmU" = 0.3   $ IP Tech: NResWin-ComO-0.47-0.43
 "LtgMsrApplic" = ALL   $ IP Tech: NonResLtgRefPre
 "LtgSav_CFL" = 0   $ IP Tech: NonResLtgRefPre
 "LtgSav_EX" = 0   $ IP Tech: NonResLtgRefPre
 "LtgSav_HB" = 0   $ IP Tech: NonResLtgRefPre
 "LtgSav_LF" = 0   $ IP Tech: NonResLtgRefPre
 "LtgSav_SP" = 0   $ IP Tech: NonResLtgRefPre
 "CEIR_fPLR" = PSZ65to135_CEIR_fPLR   $ IP Tech: PkgAC1SpH-65to135-E11
 "CLoss_fPLR" = PSZ65to135_CLoss_fPLR   $ IP Tech: PkgAC1SpH-65to135-E11
 "COP" = -1   $ IP Tech: PkgAC1SpH-65to135-E11
 "HtgFuel" = Gas   $ IP Tech: PkgAC1SpH-65to135-E11
 "IEER" = 13.35   $ IP Tech: PkgAC1SpH-65to135-E11
 "NominalCap" = 15   $ IP Tech: PkgAC1SpH-65to135-E11
 "RatedEER" = 11   $ IP Tech: PkgAC1SpH-65to135-E11
 "RatedSupMtrClass" = HiEff   $ IP Tech: PkgAC1SpH-65to135-E11
 "SizeRange" = 65to135   $ IP Tech: PkgAC1SpH-65to135-E11
 "SupMotEff" = 0.84   $ IP Tech: PkgAC1SpH-65to135-E11
 "Tier" = 0   $ IP Tech: PkgAC1SpH-65to135-E11
 "FanPwrMult" = 1   $ IP Tech: PkgFurn-0.80AFUE
 "FurnAFUE" = 0.8   $ IP Tech: PkgFurn-0.80AFUE
 "FurnEt" = 0.82   $ IP Tech: PkgFurn-0.80AFUE
 "FurnaceAuxKW" = 0.1   $ IP Tech: PkgFurn-0.80AFUE
 "HIR_fPLR" = Furnace-HIR-fPLR   $ IP Tech: PkgFurn-0.80AFUE
 "VSM" = FALSE   $ IP Tech: PkgFurn-0.80AFUE
 "BFMult" = 1   $ IP Tech: RefgChg-NRes-Std
 "CoolEirMult" = 1   $ IP Tech: RefgChg-NRes-Std
 "SensCoolCapMult" = 1   $ IP Tech: RefgChg-NRes-Std
 "TotCoolCapMult" = 1   $ IP Tech: RefgChg-NRes-Std
 "AltAdjFactor" = 1.214461   $ Sizing
 "CAssFlo_L_Break_CZn" = 383.8041   $ Sizing
 "CAssFlo_L_CompDC_CZn" = 212.9593   $ Sizing
 "CAssFlo_L_Conf_CZn" = 282.5249   $ Sizing
 "CAssFlo_L_CopyRm_CZn" = 107.117   $ Sizing
 "CAssFlo_L_Hall_EZn" = 152.4901   $ Sizing
 "CAssFlo_L_Hall_NZn" = 80.43717   $ Sizing
 "CAssFlo_L_Hall_SZn" = 143.3357   $ Sizing
 "CAssFlo_L_Hall_WZn" = 144.69   $ Sizing
 "CAssFlo_L_LobWait_EZn" = 355.694   $ Sizing
 "CAssFlo_L_LobWait_NZn" = 166.7153   $ Sizing
 "CAssFlo_L_LobWait_SZn" = 331.1075   $ Sizing
 "CAssFlo_L_LobWait_WZn" = 336.0053   $ Sizing
 "CAssFlo_L_MechElec_CZn" = 99.52254   $ Sizing
 "CAssFlo_L_OfficeOpn_CZn" = 96.11857   $ Sizing
 "CAssFlo_L_OfficeOpn_EZn" = 678.8876   $ Sizing
 "CAssFlo_L_OfficeOpn_NZn" = 382.4252   $ Sizing
 "CAssFlo_L_OfficeOpn_SZn" = 617.6141   $ Sizing
 "CAssFlo_L_OfficeOpn_WZn" = 633.0705   $ Sizing
 "CAssFlo_L_OfficeSm_EZn" = 579.8376   $ Sizing
 "CAssFlo_L_OfficeSm_NZn" = 295.9722   $ Sizing
 "CAssFlo_L_OfficeSm_SZn" = 544.5262   $ Sizing
 "CAssFlo_L_OfficeSm_WZn" = 548.4277   $ Sizing
 "CAssFlo_L_Restrm_CZn" = 110.0706   $ Sizing
 "CAssFlo_L_StorSm_CZn" = 51.92523   $ Sizing
 "CAssFlo_L_StorSm_EZn" = 149.028   $ Sizing
 "CAssFlo_L_StorSm_NZn" = 88.7483   $ Sizing
 "CAssFlo_L_StorSm_SZn" = 133.6729   $ Sizing
 "CAssFlo_L_StorSm_WZn" = 135.1193   $ Sizing
 "CAssFlo_T_Conf_CZn" = 274.2767   $ Sizing
 "CAssFlo_T_Hall_EZn" = 167.1835   $ Sizing
 "CAssFlo_T_Hall_NZn" = 75.88216   $ Sizing
 "CAssFlo_T_Hall_SZn" = 162.5052   $ Sizing
 "CAssFlo_T_Hall_WZn" = 154.2555   $ Sizing
 "CAssFlo_T_OfficeOpn_CZn" = 84.98308   $ Sizing
 "CAssFlo_T_OfficeOpn_EZn" = 671.0992   $ Sizing
 "CAssFlo_T_OfficeOpn_NZn" = 374.926   $ Sizing
 "CAssFlo_T_OfficeOpn_SZn" = 653.0726   $ Sizing
 "CAssFlo_T_OfficeOpn_WZn" = 606.629   $ Sizing
 "CAssFlo_T_OfficeSm_EZn" = 581.0743   $ Sizing
 "CAssFlo_T_OfficeSm_NZn" = 294.9649   $ Sizing
 "CAssFlo_T_OfficeSm_SZn" = 579.3801   $ Sizing
 "CAssFlo_T_OfficeSm_WZn" = 543.7828   $ Sizing
 "CAssFlo_T_Restrm_CZn" = 166.8139   $ Sizing
 "CAssFlo_T_StorSm_EZn" = 167.0284   $ Sizing
 "CAssFlo_T_StorSm_NZn" = 86.27798   $ Sizing
 "CAssFlo_T_StorSm_SZn" = 156.4174   $ Sizing
 "CAssFlo_T_StorSm_WZn" = 152.5734   $ Sizing
 "CHRtFlo_Sys_L_Break_C" = 383.8041   $ Sizing
 "CHRtFlo_Sys_L_CompDC_C" = 212.9593   $ Sizing
 "CHRtFlo_Sys_L_Conf_C" = 282.5249   $ Sizing
 "CHRtFlo_Sys_L_CopyRm_C" = 107.117   $ Sizing
 "CHRtFlo_Sys_L_Hall_E" = 152.4901   $ Sizing
 "CHRtFlo_Sys_L_Hall_N" = 80.43717   $ Sizing
 "CHRtFlo_Sys_L_Hall_S" = 143.3357   $ Sizing
 "CHRtFlo_Sys_L_Hall_W" = 144.69   $ Sizing
 "CHRtFlo_Sys_L_LobWait_E" = 355.694   $ Sizing
 "CHRtFlo_Sys_L_LobWait_N" = 166.7153   $ Sizing
 "CHRtFlo_Sys_L_LobWait_S" = 331.1075   $ Sizing
 "CHRtFlo_Sys_L_LobWait_W" = 336.0053   $ Sizing
 "CHRtFlo_Sys_L_MechElec_C" = 99.52254   $ Sizing
 "CHRtFlo_Sys_L_OfficeOpn_C" = 96.11857   $ Sizing
 "CHRtFlo_Sys_L_OfficeOpn_E" = 678.8876   $ Sizing
 "CHRtFlo_Sys_L_OfficeOpn_N" = 382.4252   $ Sizing
 "CHRtFlo_Sys_L_OfficeOpn_S" = 617.6141   $ Sizing
 "CHRtFlo_Sys_L_OfficeOpn_W" = 633.0705   $ Sizing
 "CHRtFlo_Sys_L_OfficeSm_E" = 579.8376   $ Sizing
 "CHRtFlo_Sys_L_OfficeSm_N" = 295.9722   $ Sizing
 "CHRtFlo_Sys_L_OfficeSm_S" = 544.5262   $ Sizing
 "CHRtFlo_Sys_L_OfficeSm_W" = 548.4277   $ Sizing
 "CHRtFlo_Sys_L_Restrm_C" = 110.0706   $ Sizing
 "CHRtFlo_Sys_L_StorSm_C" = 51.92523   $ Sizing
 "CHRtFlo_Sys_L_StorSm_E" = 149.028   $ Sizing
 "CHRtFlo_Sys_L_StorSm_N" = 88.7483   $ Sizing
 "CHRtFlo_Sys_L_StorSm_S" = 133.6729   $ Sizing
 "CHRtFlo_Sys_L_StorSm_W" = 135.1193   $ Sizing
 "CHRtFlo_Sys_T_Conf_C" = 274.2767   $ Sizing
 "CHRtFlo_Sys_T_Hall_E" = 167.1835   $ Sizing
 "CHRtFlo_Sys_T_Hall_N" = 75.88216   $ Sizing
 "CHRtFlo_Sys_T_Hall_S" = 162.5052   $ Sizing
 "CHRtFlo_Sys_T_Hall_W" = 154.2555   $ Sizing
 "CHRtFlo_Sys_T_OfficeOpn_C" = 84.98308   $ Sizing
 "CHRtFlo_Sys_T_OfficeOpn_E" = 671.0992   $ Sizing
 "CHRtFlo_Sys_T_OfficeOpn_N" = 374.926   $ Sizing
 "CHRtFlo_Sys_T_OfficeOpn_S" = 653.0726   $ Sizing
 "CHRtFlo_Sys_T_OfficeOpn_W" = 606.629   $ Sizing
 "CHRtFlo_Sys_T_OfficeSm_E" = 581.0743   $ Sizing
 "CHRtFlo_Sys_T_OfficeSm_N" = 294.9649   $ Sizing
 "CHRtFlo_Sys_T_OfficeSm_S" = 579.3801   $ Sizing
 "CHRtFlo_Sys_T_OfficeSm_W" = 543.7828   $ Sizing
 "CHRtFlo_Sys_T_Restrm_C" = 166.8139   $ Sizing
 "CHRtFlo_Sys_T_StorSm_E" = 167.0284   $ Sizing
 "CHRtFlo_Sys_T_StorSm_N" = 86.27798   $ Sizing
 "CHRtFlo_Sys_T_StorSm_S" = 156.4174   $ Sizing
 "CHRtFlo_Sys_T_StorSm_W" = 152.5734   $ Sizing
 "CRtdFlo_Sys_L_Break_C" = 383.8041   $ Sizing
 "CRtdFlo_Sys_L_CompDC_C" = 212.9593   $ Sizing
 "CRtdFlo_Sys_L_Conf_C" = 282.5249   $ Sizing
 "CRtdFlo_Sys_L_CopyRm_C" = 107.117   $ Sizing
 "CRtdFlo_Sys_L_Hall_E" = 152.4901   $ Sizing
 "CRtdFlo_Sys_L_Hall_N" = 80.43717   $ Sizing
 "CRtdFlo_Sys_L_Hall_S" = 143.3357   $ Sizing
 "CRtdFlo_Sys_L_Hall_W" = 144.69   $ Sizing
 "CRtdFlo_Sys_L_LobWait_E" = 355.694   $ Sizing
 "CRtdFlo_Sys_L_LobWait_N" = 166.7153   $ Sizing
 "CRtdFlo_Sys_L_LobWait_S" = 331.1075   $ Sizing
 "CRtdFlo_Sys_L_LobWait_W" = 336.0053   $ Sizing
 "CRtdFlo_Sys_L_MechElec_C" = 99.52254   $ Sizing
 "CRtdFlo_Sys_L_OfficeOpn_C" = 96.11857   $ Sizing
 "CRtdFlo_Sys_L_OfficeOpn_E" = 678.8876   $ Sizing
 "CRtdFlo_Sys_L_OfficeOpn_N" = 382.4252   $ Sizing
 "CRtdFlo_Sys_L_OfficeOpn_S" = 617.6142   $ Sizing
 "CRtdFlo_Sys_L_OfficeOpn_W" = 633.0705   $ Sizing
 "CRtdFlo_Sys_L_OfficeSm_E" = 579.8376   $ Sizing
 "CRtdFlo_Sys_L_OfficeSm_N" = 295.9721   $ Sizing
 "CRtdFlo_Sys_L_OfficeSm_S" = 544.5262   $ Sizing
 "CRtdFlo_Sys_L_OfficeSm_W" = 548.4277   $ Sizing
 "CRtdFlo_Sys_L_Restrm_C" = 110.0706   $ Sizing
 "CRtdFlo_Sys_L_StorSm_C" = 51.92523   $ Sizing
 "CRtdFlo_Sys_L_StorSm_E" = 149.028   $ Sizing
 "CRtdFlo_Sys_L_StorSm_N" = 88.7483   $ Sizing
 "CRtdFlo_Sys_L_StorSm_S" = 133.6729   $ Sizing
 "CRtdFlo_Sys_L_StorSm_W" = 135.1193   $ Sizing
 "CRtdFlo_Sys_T_Conf_C" = 274.2767   $ Sizing
 "CRtdFlo_Sys_T_Hall_E" = 167.1835   $ Sizing
 "CRtdFlo_Sys_T_Hall_N" = 75.88216   $ Sizing
 "CRtdFlo_Sys_T_Hall_S" = 162.5052   $ Sizing
 "CRtdFlo_Sys_T_Hall_W" = 154.2555   $ Sizing
 "CRtdFlo_Sys_T_OfficeOpn_C" = 84.98308   $ Sizing
 "CRtdFlo_Sys_T_OfficeOpn_E" = 671.0992   $ Sizing
 "CRtdFlo_Sys_T_OfficeOpn_N" = 374.926   $ Sizing
 "CRtdFlo_Sys_T_OfficeOpn_S" = 653.0726   $ Sizing
 "CRtdFlo_Sys_T_OfficeOpn_W" = 606.629   $ Sizing
 "CRtdFlo_Sys_T_OfficeSm_E" = 581.0743   $ Sizing
 "CRtdFlo_Sys_T_OfficeSm_N" = 294.9649   $ Sizing
 "CRtdFlo_Sys_T_OfficeSm_S" = 579.3801   $ Sizing
 "CRtdFlo_Sys_T_OfficeSm_W" = 543.7828   $ Sizing
 "CRtdFlo_Sys_T_Restrm_C" = 166.8139   $ Sizing
 "CRtdFlo_Sys_T_StorSm_E" = 167.0284   $ Sizing
 "CRtdFlo_Sys_T_StorSm_N" = 86.27798   $ Sizing
 "CRtdFlo_Sys_T_StorSm_S" = 156.4174   $ Sizing
 "CRtdFlo_Sys_T_StorSm_W" = 152.5734   $ Sizing
 "CSupFlo_Sys_L_Break_C" = 383.8041   $ Sizing
 "CSupFlo_Sys_L_CompDC_C" = 212.9593   $ Sizing
 "CSupFlo_Sys_L_Conf_C" = 282.5249   $ Sizing
 "CSupFlo_Sys_L_CopyRm_C" = 107.117   $ Sizing
 "CSupFlo_Sys_L_Hall_E" = 152.4901   $ Sizing
 "CSupFlo_Sys_L_Hall_N" = 80.43717   $ Sizing
 "CSupFlo_Sys_L_Hall_S" = 143.3357   $ Sizing
 "CSupFlo_Sys_L_Hall_W" = 144.69   $ Sizing
 "CSupFlo_Sys_L_LobWait_E" = 355.694   $ Sizing
 "CSupFlo_Sys_L_LobWait_N" = 166.7153   $ Sizing
 "CSupFlo_Sys_L_LobWait_S" = 331.1075   $ Sizing
 "CSupFlo_Sys_L_LobWait_W" = 336.0053   $ Sizing
 "CSupFlo_Sys_L_MechElec_C" = 99.52254   $ Sizing
 "CSupFlo_Sys_L_OfficeOpn_C" = 96.11857   $ Sizing
 "CSupFlo_Sys_L_OfficeOpn_E" = 678.8876   $ Sizing
 "CSupFlo_Sys_L_OfficeOpn_N" = 382.4252   $ Sizing
 "CSupFlo_Sys_L_OfficeOpn_S" = 617.6141   $ Sizing
 "CSupFlo_Sys_L_OfficeOpn_W" = 633.0705   $ Sizing
 "CSupFlo_Sys_L_OfficeSm_E" = 579.8376   $ Sizing
 "CSupFlo_Sys_L_OfficeSm_N" = 295.9722   $ Sizing
 "CSupFlo_Sys_L_OfficeSm_S" = 544.5262   $ Sizing
 "CSupFlo_Sys_L_OfficeSm_W" = 548.4277   $ Sizing
 "CSupFlo_Sys_L_Restrm_C" = 110.0706   $ Sizing
 "CSupFlo_Sys_L_StorSm_C" = 51.92523   $ Sizing
 "CSupFlo_Sys_L_StorSm_E" = 149.028   $ Sizing
 "CSupFlo_Sys_L_StorSm_N" = 88.7483   $ Sizing
 "CSupFlo_Sys_L_StorSm_S" = 133.6729   $ Sizing
 "CSupFlo_Sys_L_StorSm_W" = 135.1193   $ Sizing
 "CSupFlo_Sys_T_Conf_C" = 274.2767   $ Sizing
 "CSupFlo_Sys_T_Hall_E" = 167.1835   $ Sizing
 "CSupFlo_Sys_T_Hall_N" = 75.88216   $ Sizing
 "CSupFlo_Sys_T_Hall_S" = 162.5052   $ Sizing
 "CSupFlo_Sys_T_Hall_W" = 154.2555   $ Sizing
 "CSupFlo_Sys_T_OfficeOpn_C" = 84.98308   $ Sizing
 "CSupFlo_Sys_T_OfficeOpn_E" = 671.0992   $ Sizing
 "CSupFlo_Sys_T_OfficeOpn_N" = 374.926   $ Sizing
 "CSupFlo_Sys_T_OfficeOpn_S" = 653.0726   $ Sizing
 "CSupFlo_Sys_T_OfficeOpn_W" = 606.629   $ Sizing
 "CSupFlo_Sys_T_OfficeSm_E" = 581.0743   $ Sizing
 "CSupFlo_Sys_T_OfficeSm_N" = 294.9649   $ Sizing
 "CSupFlo_Sys_T_OfficeSm_S" = 579.3801   $ Sizing
 "CSupFlo_Sys_T_OfficeSm_W" = 543.7828   $ Sizing
 "CSupFlo_Sys_T_Restrm_C" = 166.8139   $ Sizing
 "CSupFlo_Sys_T_StorSm_E" = 167.0284   $ Sizing
 "CSupFlo_Sys_T_StorSm_N" = 86.27798   $ Sizing
 "CSupFlo_Sys_T_StorSm_S" = 156.4174   $ Sizing
 "CSupFlo_Sys_T_StorSm_W" = 152.5734   $ Sizing
 "ClCap_Sys_L_Break_C" = 10835.26   $ Sizing
 "ClCap_Sys_L_CompDC_C" = 6012.1   $ Sizing
 "ClCap_Sys_L_Conf_C" = 10151.3   $ Sizing
 "ClCap_Sys_L_CopyRm_C" = 3024.042   $ Sizing
 "ClCap_Sys_L_Hall_E" = 4304.981   $ Sizing
 "ClCap_Sys_L_Hall_N" = 2270.839   $ Sizing
 "ClCap_Sys_L_Hall_S" = 4046.539   $ Sizing
 "ClCap_Sys_L_Hall_W" = 4084.775   $ Sizing
 "ClCap_Sys_L_LobWait_E" = 10041.67   $ Sizing
 "ClCap_Sys_L_LobWait_N" = 4706.575   $ Sizing
 "ClCap_Sys_L_LobWait_S" = 9347.564   $ Sizing
 "ClCap_Sys_L_LobWait_W" = 9485.838   $ Sizing
 "ClCap_Sys_L_MechElec_C" = 2809.642   $ Sizing
 "ClCap_Sys_L_OfficeOpn_C" = 2713.544   $ Sizing
 "ClCap_Sys_L_OfficeOpn_E" = 19165.82   $ Sizing
 "ClCap_Sys_L_OfficeOpn_N" = 10796.33   $ Sizing
 "ClCap_Sys_L_OfficeOpn_S" = 17436   $ Sizing
 "ClCap_Sys_L_OfficeOpn_W" = 17872.35   $ Sizing
 "ClCap_Sys_L_OfficeSm_E" = 16369.52   $ Sizing
 "ClCap_Sys_L_OfficeSm_N" = 8355.652   $ Sizing
 "ClCap_Sys_L_OfficeSm_S" = 15372.63   $ Sizing
 "ClCap_Sys_L_OfficeSm_W" = 15482.78   $ Sizing
 "ClCap_Sys_L_Restrm_C" = 3107.427   $ Sizing
 "ClCap_Sys_L_StorSm_C" = 1465.912   $ Sizing
 "ClCap_Sys_L_StorSm_E" = 4207.241   $ Sizing
 "ClCap_Sys_L_StorSm_N" = 2505.472   $ Sizing
 "ClCap_Sys_L_StorSm_S" = 3773.749   $ Sizing
 "ClCap_Sys_L_StorSm_W" = 3814.581   $ Sizing
 "ClCap_Sys_T_Conf_C" = 9854.936   $ Sizing
 "ClCap_Sys_T_Hall_E" = 4719.792   $ Sizing
 "ClCap_Sys_T_Hall_N" = 2142.245   $ Sizing
 "ClCap_Sys_T_Hall_S" = 4587.717   $ Sizing
 "ClCap_Sys_T_Hall_W" = 4354.82   $ Sizing
 "ClCap_Sys_T_OfficeOpn_C" = 2399.175   $ Sizing
 "ClCap_Sys_T_OfficeOpn_E" = 18945.94   $ Sizing
 "ClCap_Sys_T_OfficeOpn_N" = 10584.62   $ Sizing
 "ClCap_Sys_T_OfficeOpn_S" = 18437.03   $ Sizing
 "ClCap_Sys_T_OfficeOpn_W" = 17125.87   $ Sizing
 "ClCap_Sys_T_OfficeSm_E" = 16404.43   $ Sizing
 "ClCap_Sys_T_OfficeSm_N" = 8327.216   $ Sizing
 "ClCap_Sys_T_OfficeSm_S" = 16356.6   $ Sizing
 "ClCap_Sys_T_OfficeSm_W" = 15351.65   $ Sizing
 "ClCap_Sys_T_Restrm_C" = 4709.359   $ Sizing
 "ClCap_Sys_T_StorSm_E" = 4715.415   $ Sizing
 "ClCap_Sys_T_StorSm_N" = 2435.732   $ Sizing
 "ClCap_Sys_T_StorSm_S" = 4415.853   $ Sizing
 "ClCap_Sys_T_StorSm_W" = 4307.332   $ Sizing
 "HtCap_Sys_L_Break_C" = -20658.8   $ Sizing
 "HtCap_Sys_L_CompDC_C" = -6318.729   $ Sizing
 "HtCap_Sys_L_Conf_C" = -15636.21   $ Sizing
 "HtCap_Sys_L_CopyRm_C" = -5727.099   $ Sizing
 "HtCap_Sys_L_Hall_E" = -4714.579   $ Sizing
 "HtCap_Sys_L_Hall_N" = -2776.725   $ Sizing
 "HtCap_Sys_L_Hall_S" = -4431.032   $ Sizing
 "HtCap_Sys_L_Hall_W" = -4440.785   $ Sizing
 "HtCap_Sys_L_LobWait_E" = -11808.36   $ Sizing
 "HtCap_Sys_L_LobWait_N" = -7064.214   $ Sizing
 "HtCap_Sys_L_LobWait_S" = -11192.99   $ Sizing
 "HtCap_Sys_L_LobWait_W" = -11420.35   $ Sizing
 "HtCap_Sys_L_MechElec_C" = -3832.939   $ Sizing
 "HtCap_Sys_L_OfficeOpn_C" = -3254.047   $ Sizing
 "HtCap_Sys_L_OfficeOpn_E" = -21357.43   $ Sizing
 "HtCap_Sys_L_OfficeOpn_N" = -13893.62   $ Sizing
 "HtCap_Sys_L_OfficeOpn_S" = -19371.82   $ Sizing
 "HtCap_Sys_L_OfficeOpn_W" = -20128.1   $ Sizing
 "HtCap_Sys_L_OfficeSm_E" = -17797.32   $ Sizing
 "HtCap_Sys_L_OfficeSm_N" = -10492.67   $ Sizing
 "HtCap_Sys_L_OfficeSm_S" = -16436.39   $ Sizing
 "HtCap_Sys_L_OfficeSm_W" = -16970.49   $ Sizing
 "HtCap_Sys_L_Restrm_C" = -3435.856   $ Sizing
 "HtCap_Sys_L_StorSm_C" = -1818.49   $ Sizing
 "HtCap_Sys_L_StorSm_E" = -4841.898   $ Sizing
 "HtCap_Sys_L_StorSm_N" = -3316.83   $ Sizing
 "HtCap_Sys_L_StorSm_S" = -4454.765   $ Sizing
 "HtCap_Sys_L_StorSm_W" = -4507.647   $ Sizing
 "HtCap_Sys_T_Conf_C" = -15779.36   $ Sizing
 "HtCap_Sys_T_Hall_E" = -5638.015   $ Sizing
 "HtCap_Sys_T_Hall_N" = -2991.567   $ Sizing
 "HtCap_Sys_T_Hall_S" = -5528.974   $ Sizing
 "HtCap_Sys_T_Hall_W" = -5277.087   $ Sizing
 "HtCap_Sys_T_OfficeOpn_C" = -3296.128   $ Sizing
 "HtCap_Sys_T_OfficeOpn_E" = -23550.93   $ Sizing
 "HtCap_Sys_T_OfficeOpn_N" = -15027.37   $ Sizing
 "HtCap_Sys_T_OfficeOpn_S" = -23203.6   $ Sizing
 "HtCap_Sys_T_OfficeOpn_W" = -21757.54   $ Sizing
 "HtCap_Sys_T_OfficeSm_E" = -19770.88   $ Sizing
 "HtCap_Sys_T_OfficeSm_N" = -11616.75   $ Sizing
 "HtCap_Sys_T_OfficeSm_S" = -19819   $ Sizing
 "HtCap_Sys_T_OfficeSm_W" = -18760.15   $ Sizing
 "HtCap_Sys_T_Restrm_C" = -5688.273   $ Sizing
 "HtCap_Sys_T_StorSm_E" = -6063.751   $ Sizing
 "HtCap_Sys_T_StorSm_N" = -3745.98   $ Sizing
 "HtCap_Sys_T_StorSm_S" = -5876.641   $ Sizing
 "HtCap_Sys_T_StorSm_W" = -5658.071   $ Sizing
..

##include Templates\OfS_DX_SZ.inp
END ..
COMPUTE ..
STOP ..
