INPUT ..

##fileprefix C:\Users\jglasskatz\MASControl3\
##set1 IsSizing FALSE
##set1 CoolType None
##set1 HeatType ELECTRIC
##set1 EU_HrRepVar 1
##set1 BldgVint 1996
##set1 BldgLoc CZ01


PARAMETER
 "AltFactor" = 1.00753   $ IP Non-Tech
 "BldgEconoFlag" = 1   $ IP Non-Tech
 "Break_EWSF" = 1   $ IP Non-Tech
 "Break_LWSF" = 1.1   $ IP Non-Tech
 "CDD_DBHi10" = 65   $ IP Non-Tech
 "CDD_DBHi7" = 68   $ IP Non-Tech
 "CDD_DBHi8" = 66   $ IP Non-Tech
 "CDD_DBHi9" = 77   $ IP Non-Tech
 "CDD_DBRange10" = 17   $ IP Non-Tech
 "CDD_DBRange7" = 11   $ IP Non-Tech
 "CDD_DBRange8" = 10   $ IP Non-Tech
 "CDD_DBRange9" = 29   $ IP Non-Tech
 "CDD_Day10" = 15   $ IP Non-Tech
 "CDD_Day7" = 16   $ IP Non-Tech
 "CDD_Day8" = 20   $ IP Non-Tech
 "CDD_Day9" = 17   $ IP Non-Tech
 "CDD_HrHi10" = 12   $ IP Non-Tech
 "CDD_HrHi7" = 12   $ IP Non-Tech
 "CDD_HrHi8" = 13   $ IP Non-Tech
 "CDD_HrHi9" = 17   $ IP Non-Tech
 "CDD_HrLo10" = 6   $ IP Non-Tech
 "CDD_HrLo7" = 3   $ IP Non-Tech
 "CDD_HrLo8" = 8   $ IP Non-Tech
 "CDD_HrLo9" = 4   $ IP Non-Tech
 "CDD_WB10" = 57.53039551   $ IP Non-Tech
 "CDD_WB7" = 59.29250717   $ IP Non-Tech
 "CDD_WB8" = 60.75350189   $ IP Non-Tech
 "CDD_WB9" = 61.08643341   $ IP Non-Tech
 "CZ_Category" = Tem   $ IP Non-Tech
 "ChwVintEconoFlag" = 1   $ IP Non-Tech
 "CompRoomData_EWSF" = 5.25   $ IP Non-Tech
 "CompRoomData_LWSF" = 1.2   $ IP Non-Tech
 "Conference_EWSF" = 1.05   $ IP Non-Tech
 "Conference_LWSF" = 1.4   $ IP Non-Tech
 "CoolSetT" = 45   $ IP Non-Tech
 "CoolType" = None   $ IP Non-Tech
 "CopyRoom_EWSF" = 1.575   $ IP Non-Tech
 "CopyRoom_LWSF" = 1.3   $ IP Non-Tech
 "DesCoolT" = 75   $ IP Non-Tech
 "DesHeatT" = 73   $ IP Non-Tech
 "EconoEnthLimit" = 28   $ IP Non-Tech
 "EconoTempLimit" = 70   $ IP Non-Tech
 "Elevation" = 203   $ IP Non-Tech
 "HDD_CloudAmt1" = 0   $ IP Non-Tech
 "HDD_DBHi1" = 53   $ IP Non-Tech
 "HDD_DBRange1" = 20   $ IP Non-Tech
 "HDD_Day1" = 15   $ IP Non-Tech
 "HDD_HrHi1" = 14   $ IP Non-Tech
 "HDD_HrLo1" = 6   $ IP Non-Tech
 "HDD_WB1" = 42.3   $ IP Non-Tech
 "HDD_WindSpd1" = 12.7   $ IP Non-Tech
 "Hall_EWSF" = 0.21   $ IP Non-Tech
 "Hall_LWSF" = 0.6   $ IP Non-Tech
 "HeatSrc" = ELECTRIC   $ IP Non-Tech
 "HeatSrcTU" = ELECTRIC   $ IP Non-Tech
 "HeatType" = Elec   $ IP Non-Tech
 "HeatTypeTU" = ELECTRIC   $ IP Non-Tech
 "IndoorFanMode" = CONTINUOUS   $ IP Non-Tech
 "KT_TransferAir" = No   $ IP Non-Tech
 "Latitude" = 40.8   $ IP Non-Tech
 "LobbyWaiting_EWSF" = 0.5125   $ IP Non-Tech
 "LobbyWaiting_LWSF" = 1.3   $ IP Non-Tech
 "Longitude" = 124.2   $ IP Non-Tech
 "MZFanMechEff" = 1   $ IP Non-Tech
 "MZHasRetFan" = FALSE   $ IP Non-Tech
 "MZ_RFanWPerCfm" = 0.33   $ IP Non-Tech
 "MZ_SFanWPerCfm" = 0.75   $ IP Non-Tech
 "MaxSupT_MZ" = 100   $ IP Non-Tech
 "MaxSupT_SZ" = 100   $ IP Non-Tech
 "MaxSupT_TU" = 100   $ IP Non-Tech
 "MechElecRoom_EWSF" = 0.21   $ IP Non-Tech
 "MechElecRoom_LWSF" = 0.7   $ IP Non-Tech
 "MinCfmPerSF" = 0.4   $ IP Non-Tech
 "MinSupT" = 55   $ IP Non-Tech
 "OccCoolT" = 76   $ IP Non-Tech
 "OccHeatT" = 72   $ IP Non-Tech
 "OfficeOpen_EWSF" = 1.575   $ IP Non-Tech
 "OfficeOpen_LWSF" = 1.2   $ IP Non-Tech
 "OfficeSmall_EWSF" = 1.575   $ IP Non-Tech
 "OfficeSmall_LWSF" = 1.3   $ IP Non-Tech
 "PkgDxVintEconoFlag" = 0   $ IP Non-Tech
 "Restroom_EWSF" = 0.21   $ IP Non-Tech
 "Restroom_LWSF" = 0.6   $ IP Non-Tech
 "SZFanMechEff" = 1   $ IP Non-Tech
 "SZHasRetFan" = FALSE   $ IP Non-Tech
 "SZ_Is_2Spd" = FALSE   $ IP Non-Tech
 "SZ_SFanWPerCfm" = 0.46   $ IP Non-Tech
 "StorageSmlCond_EWSF" = 0.21   $ IP Non-Tech
 "StorageSmlCond_LWSF" = 0.6   $ IP Non-Tech
 "T24GlzTbl" = CZTbl   $ IP Non-Tech
 "TermUnitFanMechEff" = 1   $ IP Non-Tech
 "TermUnitFanMode" = INTERMITTENT   $ IP Non-Tech
 "TwrSetpt" = 80   $ IP Non-Tech
 "UnocCoolT" = 86   $ IP Non-Tech
 "UnocHeatT" = 62   $ IP Non-Tech
 "WlhpVintEconoFlag" = 0   $ IP Non-Tech
 "EconoCtrl" = OA-TEMP   $ IP Tech: AirEcono-OATemp
 "MaxOAFrac" = 0.85   $ IP Tech: AirEcono-OATemp
 "UseEconoVintApplic" = FALSE   $ IP Tech: AirEcono-OATemp
 "DuctDT" = 1   $ IP Tech: ComDuctInsul-1
 "DuctAirLoss" = 0   $ IP Tech: ComDuctLeak-0
 "DuctLossOAFrac" = 0   $ IP Tech: ComDuctLeak-0
 "ComRoofInsCalc" = FromUo   $ IP Tech: ComRoofIns-WFrm-0.06
 "ComRoofInsR" = -999   $ IP Tech: ComRoofIns-WFrm-0.06
 "ComRoofUo" = 0.06   $ IP Tech: ComRoofIns-WFrm-0.06
 "ComEWInsCalc" = FromUo   $ IP Tech: ComWallIns-WFrm-0.08
 "ComEWInsR" = -999   $ IP Tech: ComWallIns-WFrm-0.08
 "ComEWUo" = 0.08   $ IP Tech: ComWallIns-WFrm-0.08
 "ComN_SHGC" = 0.77   $ IP Tech: NResWin-ComN-0.77-0.77
 "ComN_UFactor" = 0.77   $ IP Tech: NResWin-ComN-0.77-0.77
 "ComN_VisTrans" = 0.81   $ IP Tech: NResWin-ComN-0.77-0.77
 "ComN_WinCode" = G2000   $ IP Tech: NResWin-ComN-0.77-0.77
 "ComN_WinFrmFrac" = 0.17   $ IP Tech: NResWin-ComN-0.77-0.77
 "ComN_WinFrmU" = 1   $ IP Tech: NResWin-ComN-0.77-0.77
 "ComO_SHGC" = 0.5   $ IP Tech: NResWin-ComO-0.77-0.5
 "ComO_UFactor" = 0.77   $ IP Tech: NResWin-ComO-0.77-0.5
 "ComO_VisTrans" = 0.77   $ IP Tech: NResWin-ComO-0.77-0.5
 "ComO_WinCode" = G2630   $ IP Tech: NResWin-ComO-0.77-0.5
 "ComO_WinFrmFrac" = 0.17   $ IP Tech: NResWin-ComO-0.77-0.5
 "ComO_WinFrmU" = 1   $ IP Tech: NResWin-ComO-0.77-0.5
 "LtgMsrApplic" = ALL   $ IP Tech: NonResLtgRefPre
 "LtgSav_CFL" = 0   $ IP Tech: NonResLtgRefPre
 "LtgSav_EX" = 0   $ IP Tech: NonResLtgRefPre
 "LtgSav_HB" = 0   $ IP Tech: NonResLtgRefPre
 "LtgSav_LF" = 0   $ IP Tech: NonResLtgRefPre
 "LtgSav_SP" = 0   $ IP Tech: NonResLtgRefPre
 "AltAdjFactor" = 1.007532   $ Sizing
 "CAssFlo_L_Break_CZn" = 185.4956   $ Sizing
 "CAssFlo_L_CompDC_CZn" = 52.23781   $ Sizing
 "CAssFlo_L_Conf_CZn" = 143.3872   $ Sizing
 "CAssFlo_L_CopyRm_CZn" = 50.72986   $ Sizing
 "CAssFlo_L_Hall_EZn" = 57.29886   $ Sizing
 "CAssFlo_L_Hall_NZn" = 54.42966   $ Sizing
 "CAssFlo_L_Hall_SZn" = 32.25151   $ Sizing
 "CAssFlo_L_Hall_WZn" = 54.63084   $ Sizing
 "CAssFlo_L_LobWait_EZn" = 115.486   $ Sizing
 "CAssFlo_L_LobWait_NZn" = 120.7096   $ Sizing
 "CAssFlo_L_LobWait_SZn" = 60.79103   $ Sizing
 "CAssFlo_L_LobWait_WZn" = 112.2182   $ Sizing
 "CAssFlo_L_MechElec_CZn" = 65.93681   $ Sizing
 "CAssFlo_L_OfficeOpn_CZn" = 35.9299   $ Sizing
 "CAssFlo_L_OfficeOpn_EZn" = 170.6679   $ Sizing
 "CAssFlo_L_OfficeOpn_NZn" = 170.6679   $ Sizing
 "CAssFlo_L_OfficeOpn_SZn" = 170.6679   $ Sizing
 "CAssFlo_L_OfficeOpn_WZn" = 170.6679   $ Sizing
 "CAssFlo_L_OfficeSm_EZn" = 124.2589   $ Sizing
 "CAssFlo_L_OfficeSm_NZn" = 141.7257   $ Sizing
 "CAssFlo_L_OfficeSm_SZn" = 124.2589   $ Sizing
 "CAssFlo_L_OfficeSm_WZn" = 124.2589   $ Sizing
 "CAssFlo_L_Restrm_CZn" = 86.07105   $ Sizing
 "CAssFlo_L_StorSm_CZn" = 30.5542   $ Sizing
 "CAssFlo_L_StorSm_EZn" = 58.07633   $ Sizing
 "CAssFlo_L_StorSm_NZn" = 69.30712   $ Sizing
 "CAssFlo_L_StorSm_SZn" = 44.41766   $ Sizing
 "CAssFlo_L_StorSm_WZn" = 54.86064   $ Sizing
 "CAssFlo_T_Conf_CZn" = 143.3872   $ Sizing
 "CAssFlo_T_Hall_EZn" = 59.37891   $ Sizing
 "CAssFlo_T_Hall_NZn" = 48.30054   $ Sizing
 "CAssFlo_T_Hall_SZn" = 32.88063   $ Sizing
 "CAssFlo_T_Hall_WZn" = 54.80444   $ Sizing
 "CAssFlo_T_OfficeOpn_CZn" = 35.9299   $ Sizing
 "CAssFlo_T_OfficeOpn_EZn" = 170.6679   $ Sizing
 "CAssFlo_T_OfficeOpn_NZn" = 170.6679   $ Sizing
 "CAssFlo_T_OfficeOpn_SZn" = 170.6679   $ Sizing
 "CAssFlo_T_OfficeOpn_WZn" = 170.6679   $ Sizing
 "CAssFlo_T_OfficeSm_EZn" = 124.2589   $ Sizing
 "CAssFlo_T_OfficeSm_NZn" = 132.4669   $ Sizing
 "CAssFlo_T_OfficeSm_SZn" = 124.2589   $ Sizing
 "CAssFlo_T_OfficeSm_WZn" = 124.2589   $ Sizing
 "CAssFlo_T_Restrm_CZn" = 86.07105   $ Sizing
 "CAssFlo_T_StorSm_EZn" = 60.682   $ Sizing
 "CAssFlo_T_StorSm_NZn" = 69.88448   $ Sizing
 "CAssFlo_T_StorSm_SZn" = 49.35296   $ Sizing
 "CAssFlo_T_StorSm_WZn" = 62.46   $ Sizing
 "CHRtFlo_Sys_L_Break_C" = 15   $ Sizing
 "CHRtFlo_Sys_L_CompDC_C" = 15   $ Sizing
 "CHRtFlo_Sys_L_Conf_C" = 15   $ Sizing
 "CHRtFlo_Sys_L_CopyRm_C" = 15   $ Sizing
 "CHRtFlo_Sys_L_Hall_E" = 15   $ Sizing
 "CHRtFlo_Sys_L_Hall_N" = 15   $ Sizing
 "CHRtFlo_Sys_L_Hall_S" = 15   $ Sizing
 "CHRtFlo_Sys_L_Hall_W" = 15   $ Sizing
 "CHRtFlo_Sys_L_LobWait_E" = 15   $ Sizing
 "CHRtFlo_Sys_L_LobWait_N" = 15   $ Sizing
 "CHRtFlo_Sys_L_LobWait_S" = 15   $ Sizing
 "CHRtFlo_Sys_L_LobWait_W" = 15   $ Sizing
 "CHRtFlo_Sys_L_MechElec_C" = 15   $ Sizing
 "CHRtFlo_Sys_L_OfficeOpn_C" = 15   $ Sizing
 "CHRtFlo_Sys_L_OfficeOpn_E" = 15   $ Sizing
 "CHRtFlo_Sys_L_OfficeOpn_N" = 15   $ Sizing
 "CHRtFlo_Sys_L_OfficeOpn_S" = 15   $ Sizing
 "CHRtFlo_Sys_L_OfficeOpn_W" = 15   $ Sizing
 "CHRtFlo_Sys_L_OfficeSm_E" = 15   $ Sizing
 "CHRtFlo_Sys_L_OfficeSm_N" = 15   $ Sizing
 "CHRtFlo_Sys_L_OfficeSm_S" = 15   $ Sizing
 "CHRtFlo_Sys_L_OfficeSm_W" = 15   $ Sizing
 "CHRtFlo_Sys_L_Restrm_C" = 15   $ Sizing
 "CHRtFlo_Sys_L_StorSm_C" = 15   $ Sizing
 "CHRtFlo_Sys_L_StorSm_E" = 15   $ Sizing
 "CHRtFlo_Sys_L_StorSm_N" = 15   $ Sizing
 "CHRtFlo_Sys_L_StorSm_S" = 15   $ Sizing
 "CHRtFlo_Sys_L_StorSm_W" = 15   $ Sizing
 "CHRtFlo_Sys_T_Conf_C" = 15   $ Sizing
 "CHRtFlo_Sys_T_Hall_E" = 15   $ Sizing
 "CHRtFlo_Sys_T_Hall_N" = 15   $ Sizing
 "CHRtFlo_Sys_T_Hall_S" = 15   $ Sizing
 "CHRtFlo_Sys_T_Hall_W" = 15   $ Sizing
 "CHRtFlo_Sys_T_OfficeOpn_C" = 15   $ Sizing
 "CHRtFlo_Sys_T_OfficeOpn_E" = 15   $ Sizing
 "CHRtFlo_Sys_T_OfficeOpn_N" = 15   $ Sizing
 "CHRtFlo_Sys_T_OfficeOpn_S" = 15   $ Sizing
 "CHRtFlo_Sys_T_OfficeOpn_W" = 15   $ Sizing
 "CHRtFlo_Sys_T_OfficeSm_E" = 15   $ Sizing
 "CHRtFlo_Sys_T_OfficeSm_N" = 15   $ Sizing
 "CHRtFlo_Sys_T_OfficeSm_S" = 15   $ Sizing
 "CHRtFlo_Sys_T_OfficeSm_W" = 15   $ Sizing
 "CHRtFlo_Sys_T_Restrm_C" = 15   $ Sizing
 "CHRtFlo_Sys_T_StorSm_E" = 15   $ Sizing
 "CHRtFlo_Sys_T_StorSm_N" = 15   $ Sizing
 "CHRtFlo_Sys_T_StorSm_S" = 15   $ Sizing
 "CHRtFlo_Sys_T_StorSm_W" = 15   $ Sizing
 "CRtdFlo_Sys_L_Break_C" = 15   $ Sizing
 "CRtdFlo_Sys_L_CompDC_C" = 15   $ Sizing
 "CRtdFlo_Sys_L_Conf_C" = 15   $ Sizing
 "CRtdFlo_Sys_L_CopyRm_C" = 15   $ Sizing
 "CRtdFlo_Sys_L_Hall_E" = 15   $ Sizing
 "CRtdFlo_Sys_L_Hall_N" = 15   $ Sizing
 "CRtdFlo_Sys_L_Hall_S" = 15   $ Sizing
 "CRtdFlo_Sys_L_Hall_W" = 15   $ Sizing
 "CRtdFlo_Sys_L_LobWait_E" = 15   $ Sizing
 "CRtdFlo_Sys_L_LobWait_N" = 15   $ Sizing
 "CRtdFlo_Sys_L_LobWait_S" = 15   $ Sizing
 "CRtdFlo_Sys_L_LobWait_W" = 15   $ Sizing
 "CRtdFlo_Sys_L_MechElec_C" = 15   $ Sizing
 "CRtdFlo_Sys_L_OfficeOpn_C" = 15   $ Sizing
 "CRtdFlo_Sys_L_OfficeOpn_E" = 15   $ Sizing
 "CRtdFlo_Sys_L_OfficeOpn_N" = 15   $ Sizing
 "CRtdFlo_Sys_L_OfficeOpn_S" = 15   $ Sizing
 "CRtdFlo_Sys_L_OfficeOpn_W" = 15   $ Sizing
 "CRtdFlo_Sys_L_OfficeSm_E" = 15   $ Sizing
 "CRtdFlo_Sys_L_OfficeSm_N" = 15   $ Sizing
 "CRtdFlo_Sys_L_OfficeSm_S" = 15   $ Sizing
 "CRtdFlo_Sys_L_OfficeSm_W" = 15   $ Sizing
 "CRtdFlo_Sys_L_Restrm_C" = 15   $ Sizing
 "CRtdFlo_Sys_L_StorSm_C" = 15   $ Sizing
 "CRtdFlo_Sys_L_StorSm_E" = 15   $ Sizing
 "CRtdFlo_Sys_L_StorSm_N" = 15   $ Sizing
 "CRtdFlo_Sys_L_StorSm_S" = 15   $ Sizing
 "CRtdFlo_Sys_L_StorSm_W" = 15   $ Sizing
 "CRtdFlo_Sys_T_Conf_C" = 15   $ Sizing
 "CRtdFlo_Sys_T_Hall_E" = 15   $ Sizing
 "CRtdFlo_Sys_T_Hall_N" = 15   $ Sizing
 "CRtdFlo_Sys_T_Hall_S" = 15   $ Sizing
 "CRtdFlo_Sys_T_Hall_W" = 15   $ Sizing
 "CRtdFlo_Sys_T_OfficeOpn_C" = 15   $ Sizing
 "CRtdFlo_Sys_T_OfficeOpn_E" = 15   $ Sizing
 "CRtdFlo_Sys_T_OfficeOpn_N" = 15   $ Sizing
 "CRtdFlo_Sys_T_OfficeOpn_S" = 15   $ Sizing
 "CRtdFlo_Sys_T_OfficeOpn_W" = 15   $ Sizing
 "CRtdFlo_Sys_T_OfficeSm_E" = 15   $ Sizing
 "CRtdFlo_Sys_T_OfficeSm_N" = 15   $ Sizing
 "CRtdFlo_Sys_T_OfficeSm_S" = 15   $ Sizing
 "CRtdFlo_Sys_T_OfficeSm_W" = 15   $ Sizing
 "CRtdFlo_Sys_T_Restrm_C" = 15   $ Sizing
 "CRtdFlo_Sys_T_StorSm_E" = 15   $ Sizing
 "CRtdFlo_Sys_T_StorSm_N" = 15   $ Sizing
 "CRtdFlo_Sys_T_StorSm_S" = 15   $ Sizing
 "CRtdFlo_Sys_T_StorSm_W" = 15   $ Sizing
 "CSupFlo_Sys_L_Break_C" = 185.4956   $ Sizing
 "CSupFlo_Sys_L_CompDC_C" = 52.23781   $ Sizing
 "CSupFlo_Sys_L_Conf_C" = 143.3872   $ Sizing
 "CSupFlo_Sys_L_CopyRm_C" = 50.72986   $ Sizing
 "CSupFlo_Sys_L_Hall_E" = 57.29886   $ Sizing
 "CSupFlo_Sys_L_Hall_N" = 54.42966   $ Sizing
 "CSupFlo_Sys_L_Hall_S" = 32.25151   $ Sizing
 "CSupFlo_Sys_L_Hall_W" = 54.63084   $ Sizing
 "CSupFlo_Sys_L_LobWait_E" = 115.486   $ Sizing
 "CSupFlo_Sys_L_LobWait_N" = 120.7096   $ Sizing
 "CSupFlo_Sys_L_LobWait_S" = 60.79103   $ Sizing
 "CSupFlo_Sys_L_LobWait_W" = 112.2182   $ Sizing
 "CSupFlo_Sys_L_MechElec_C" = 65.93681   $ Sizing
 "CSupFlo_Sys_L_OfficeOpn_C" = 35.9299   $ Sizing
 "CSupFlo_Sys_L_OfficeOpn_E" = 170.6679   $ Sizing
 "CSupFlo_Sys_L_OfficeOpn_N" = 170.6679   $ Sizing
 "CSupFlo_Sys_L_OfficeOpn_S" = 170.6679   $ Sizing
 "CSupFlo_Sys_L_OfficeOpn_W" = 170.6679   $ Sizing
 "CSupFlo_Sys_L_OfficeSm_E" = 124.2589   $ Sizing
 "CSupFlo_Sys_L_OfficeSm_N" = 141.7257   $ Sizing
 "CSupFlo_Sys_L_OfficeSm_S" = 124.2589   $ Sizing
 "CSupFlo_Sys_L_OfficeSm_W" = 124.2589   $ Sizing
 "CSupFlo_Sys_L_Restrm_C" = 86.07105   $ Sizing
 "CSupFlo_Sys_L_StorSm_C" = 30.5542   $ Sizing
 "CSupFlo_Sys_L_StorSm_E" = 58.07633   $ Sizing
 "CSupFlo_Sys_L_StorSm_N" = 69.30712   $ Sizing
 "CSupFlo_Sys_L_StorSm_S" = 44.41766   $ Sizing
 "CSupFlo_Sys_L_StorSm_W" = 54.86064   $ Sizing
 "CSupFlo_Sys_T_Conf_C" = 143.3872   $ Sizing
 "CSupFlo_Sys_T_Hall_E" = 59.37891   $ Sizing
 "CSupFlo_Sys_T_Hall_N" = 48.30054   $ Sizing
 "CSupFlo_Sys_T_Hall_S" = 32.88063   $ Sizing
 "CSupFlo_Sys_T_Hall_W" = 54.80444   $ Sizing
 "CSupFlo_Sys_T_OfficeOpn_C" = 35.9299   $ Sizing
 "CSupFlo_Sys_T_OfficeOpn_E" = 170.6679   $ Sizing
 "CSupFlo_Sys_T_OfficeOpn_N" = 170.6679   $ Sizing
 "CSupFlo_Sys_T_OfficeOpn_S" = 170.6679   $ Sizing
 "CSupFlo_Sys_T_OfficeOpn_W" = 170.6679   $ Sizing
 "CSupFlo_Sys_T_OfficeSm_E" = 124.2589   $ Sizing
 "CSupFlo_Sys_T_OfficeSm_N" = 132.4669   $ Sizing
 "CSupFlo_Sys_T_OfficeSm_S" = 124.2589   $ Sizing
 "CSupFlo_Sys_T_OfficeSm_W" = 124.2589   $ Sizing
 "CSupFlo_Sys_T_Restrm_C" = 86.07105   $ Sizing
 "CSupFlo_Sys_T_StorSm_E" = 60.682   $ Sizing
 "CSupFlo_Sys_T_StorSm_N" = 69.88448   $ Sizing
 "CSupFlo_Sys_T_StorSm_S" = 49.35296   $ Sizing
 "CSupFlo_Sys_T_StorSm_W" = 62.46   $ Sizing
 "ClCap_Sys_L_Break_C" = 0   $ Sizing
 "ClCap_Sys_L_CompDC_C" = 0   $ Sizing
 "ClCap_Sys_L_Conf_C" = 0   $ Sizing
 "ClCap_Sys_L_CopyRm_C" = 0   $ Sizing
 "ClCap_Sys_L_Hall_E" = 0   $ Sizing
 "ClCap_Sys_L_Hall_N" = 0   $ Sizing
 "ClCap_Sys_L_Hall_S" = 0   $ Sizing
 "ClCap_Sys_L_Hall_W" = 0   $ Sizing
 "ClCap_Sys_L_LobWait_E" = 0   $ Sizing
 "ClCap_Sys_L_LobWait_N" = 0   $ Sizing
 "ClCap_Sys_L_LobWait_S" = 0   $ Sizing
 "ClCap_Sys_L_LobWait_W" = 0   $ Sizing
 "ClCap_Sys_L_MechElec_C" = 0   $ Sizing
 "ClCap_Sys_L_OfficeOpn_C" = 0   $ Sizing
 "ClCap_Sys_L_OfficeOpn_E" = 0   $ Sizing
 "ClCap_Sys_L_OfficeOpn_N" = 0   $ Sizing
 "ClCap_Sys_L_OfficeOpn_S" = 0   $ Sizing
 "ClCap_Sys_L_OfficeOpn_W" = 0   $ Sizing
 "ClCap_Sys_L_OfficeSm_E" = 0   $ Sizing
 "ClCap_Sys_L_OfficeSm_N" = 0   $ Sizing
 "ClCap_Sys_L_OfficeSm_S" = 0   $ Sizing
 "ClCap_Sys_L_OfficeSm_W" = 0   $ Sizing
 "ClCap_Sys_L_Restrm_C" = 0   $ Sizing
 "ClCap_Sys_L_StorSm_C" = 0   $ Sizing
 "ClCap_Sys_L_StorSm_E" = 0   $ Sizing
 "ClCap_Sys_L_StorSm_N" = 0   $ Sizing
 "ClCap_Sys_L_StorSm_S" = 0   $ Sizing
 "ClCap_Sys_L_StorSm_W" = 0   $ Sizing
 "ClCap_Sys_T_Conf_C" = 0   $ Sizing
 "ClCap_Sys_T_Hall_E" = 0   $ Sizing
 "ClCap_Sys_T_Hall_N" = 0   $ Sizing
 "ClCap_Sys_T_Hall_S" = 0   $ Sizing
 "ClCap_Sys_T_Hall_W" = 0   $ Sizing
 "ClCap_Sys_T_OfficeOpn_C" = 0   $ Sizing
 "ClCap_Sys_T_OfficeOpn_E" = 0   $ Sizing
 "ClCap_Sys_T_OfficeOpn_N" = 0   $ Sizing
 "ClCap_Sys_T_OfficeOpn_S" = 0   $ Sizing
 "ClCap_Sys_T_OfficeOpn_W" = 0   $ Sizing
 "ClCap_Sys_T_OfficeSm_E" = 0   $ Sizing
 "ClCap_Sys_T_OfficeSm_N" = 0   $ Sizing
 "ClCap_Sys_T_OfficeSm_S" = 0   $ Sizing
 "ClCap_Sys_T_OfficeSm_W" = 0   $ Sizing
 "ClCap_Sys_T_Restrm_C" = 0   $ Sizing
 "ClCap_Sys_T_StorSm_E" = 0   $ Sizing
 "ClCap_Sys_T_StorSm_N" = 0   $ Sizing
 "ClCap_Sys_T_StorSm_S" = 0   $ Sizing
 "ClCap_Sys_T_StorSm_W" = 0   $ Sizing
 "HtCap_L_Break_CZn" = -2928.168   $ Sizing
 "HtCap_L_Break_CZn" = 0   $ Sizing
 "HtCap_L_CompDC_CZn" = 0   $ Sizing
 "HtCap_L_CompDC_CZn" = 0   $ Sizing
 "HtCap_L_Conf_CZn" = -6238.737   $ Sizing
 "HtCap_L_Conf_CZn" = 0   $ Sizing
 "HtCap_L_CopyRm_CZn" = -2537.467   $ Sizing
 "HtCap_L_CopyRm_CZn" = 0   $ Sizing
 "HtCap_L_Hall_EZn" = -2150.75   $ Sizing
 "HtCap_L_Hall_EZn" = 0   $ Sizing
 "HtCap_L_Hall_NZn" = -2073.591   $ Sizing
 "HtCap_L_Hall_NZn" = 0   $ Sizing
 "HtCap_L_Hall_SZn" = -1124.29   $ Sizing
 "HtCap_L_Hall_SZn" = 0   $ Sizing
 "HtCap_L_Hall_WZn" = -2076.948   $ Sizing
 "HtCap_L_Hall_WZn" = 0   $ Sizing
 "HtCap_L_LobWait_EZn" = -5445.811   $ Sizing
 "HtCap_L_LobWait_EZn" = 0   $ Sizing
 "HtCap_L_LobWait_NZn" = -5592.497   $ Sizing
 "HtCap_L_LobWait_NZn" = 0   $ Sizing
 "HtCap_L_LobWait_SZn" = -3943.193   $ Sizing
 "HtCap_L_LobWait_SZn" = 0   $ Sizing
 "HtCap_L_LobWait_WZn" = -5354.026   $ Sizing
 "HtCap_L_LobWait_WZn" = 0   $ Sizing
 "HtCap_L_MechElec_CZn" = -2294.987   $ Sizing
 "HtCap_L_MechElec_CZn" = 0   $ Sizing
 "HtCap_L_OfficeOpn_CZn" = -1331.919   $ Sizing
 "HtCap_L_OfficeOpn_CZn" = 0   $ Sizing
 "HtCap_L_OfficeOpn_EZn" = -4790.689   $ Sizing
 "HtCap_L_OfficeOpn_EZn" = 0   $ Sizing
 "HtCap_L_OfficeOpn_NZn" = -6815.762   $ Sizing
 "HtCap_L_OfficeOpn_NZn" = 0   $ Sizing
 "HtCap_L_OfficeOpn_SZn" = -1520.566   $ Sizing
 "HtCap_L_OfficeOpn_SZn" = 0   $ Sizing
 "HtCap_L_OfficeOpn_WZn" = -5583.504   $ Sizing
 "HtCap_L_OfficeOpn_WZn" = 0   $ Sizing
 "HtCap_L_OfficeSm_EZn" = -4890.388   $ Sizing
 "HtCap_L_OfficeSm_EZn" = 0   $ Sizing
 "HtCap_L_OfficeSm_NZn" = -5627.92   $ Sizing
 "HtCap_L_OfficeSm_NZn" = 0   $ Sizing
 "HtCap_L_OfficeSm_SZn" = -1690.135   $ Sizing
 "HtCap_L_OfficeSm_SZn" = 0   $ Sizing
 "HtCap_L_OfficeSm_WZn" = -4346.543   $ Sizing
 "HtCap_L_OfficeSm_WZn" = 0   $ Sizing
 "HtCap_L_Restrm_CZn" = 0   $ Sizing
 "HtCap_L_Restrm_CZn" = 0   $ Sizing
 "HtCap_L_StorSm_CZn" = -1187.86   $ Sizing
 "HtCap_L_StorSm_CZn" = 0   $ Sizing
 "HtCap_L_StorSm_EZn" = -2382.152   $ Sizing
 "HtCap_L_StorSm_EZn" = 0   $ Sizing
 "HtCap_L_StorSm_NZn" = -2695.438   $ Sizing
 "HtCap_L_StorSm_NZn" = 0   $ Sizing
 "HtCap_L_StorSm_SZn" = -1421.098   $ Sizing
 "HtCap_L_StorSm_SZn" = 0   $ Sizing
 "HtCap_L_StorSm_WZn" = -2293.394   $ Sizing
 "HtCap_L_StorSm_WZn" = 0   $ Sizing
 "HtCap_Sys_L_Break_C" = -12691.64   $ Sizing
 "HtCap_Sys_L_Break_C" = 0   $ Sizing
 "HtCap_Sys_L_CompDC_C" = -2326.736   $ Sizing
 "HtCap_Sys_L_CompDC_C" = 0   $ Sizing
 "HtCap_Sys_L_Conf_C" = -9810.573   $ Sizing
 "HtCap_Sys_L_Conf_C" = 0   $ Sizing
 "HtCap_Sys_L_CopyRm_C" = -3470.944   $ Sizing
 "HtCap_Sys_L_CopyRm_C" = 0   $ Sizing
 "HtCap_Sys_L_Hall_E" = -2165.454   $ Sizing
 "HtCap_Sys_L_Hall_E" = 0   $ Sizing
 "HtCap_Sys_L_Hall_N" = -2085.204   $ Sizing
 "HtCap_Sys_L_Hall_N" = 0   $ Sizing
 "HtCap_Sys_L_Hall_S" = -1464.382   $ Sizing
 "HtCap_Sys_L_Hall_S" = 0   $ Sizing
 "HtCap_Sys_L_Hall_W" = -2090.827   $ Sizing
 "HtCap_Sys_L_Hall_W" = 0   $ Sizing
 "HtCap_Sys_L_LobWait_E" = -5473.372   $ Sizing
 "HtCap_Sys_L_LobWait_E" = 0   $ Sizing
 "HtCap_Sys_L_LobWait_N" = -5619.508   $ Sizing
 "HtCap_Sys_L_LobWait_N" = 0   $ Sizing
 "HtCap_Sys_L_LobWait_S" = -3943.193   $ Sizing
 "HtCap_Sys_L_LobWait_S" = 0   $ Sizing
 "HtCap_Sys_L_LobWait_W" = -5381.948   $ Sizing
 "HtCap_Sys_L_LobWait_W" = 0   $ Sizing
 "HtCap_Sys_L_MechElec_C" = -2993.67   $ Sizing
 "HtCap_Sys_L_MechElec_C" = 0   $ Sizing
 "HtCap_Sys_L_OfficeOpn_C" = -1631.692   $ Sizing
 "HtCap_Sys_L_OfficeOpn_C" = 0   $ Sizing
 "HtCap_Sys_L_OfficeOpn_E" = -7747.265   $ Sizing
 "HtCap_Sys_L_OfficeOpn_E" = 0   $ Sizing
 "HtCap_Sys_L_OfficeOpn_N" = -7749.996   $ Sizing
 "HtCap_Sys_L_OfficeOpn_N" = 0   $ Sizing
 "HtCap_Sys_L_OfficeOpn_S" = -7742.851   $ Sizing
 "HtCap_Sys_L_OfficeOpn_S" = 0   $ Sizing
 "HtCap_Sys_L_OfficeOpn_W" = -7748.335   $ Sizing
 "HtCap_Sys_L_OfficeOpn_W" = 0   $ Sizing
 "HtCap_Sys_L_OfficeSm_E" = -5642.459   $ Sizing
 "HtCap_Sys_L_OfficeSm_E" = 0   $ Sizing
 "HtCap_Sys_L_OfficeSm_N" = -6131.257   $ Sizing
 "HtCap_Sys_L_OfficeSm_N" = 0   $ Sizing
 "HtCap_Sys_L_OfficeSm_S" = -5638.23   $ Sizing
 "HtCap_Sys_L_OfficeSm_S" = 0   $ Sizing
 "HtCap_Sys_L_OfficeSm_W" = -5641.727   $ Sizing
 "HtCap_Sys_L_OfficeSm_W" = 0   $ Sizing
 "HtCap_Sys_L_Restrm_C" = -2877.448   $ Sizing
 "HtCap_Sys_L_Restrm_C" = 0   $ Sizing
 "HtCap_Sys_L_StorSm_C" = -1198.928   $ Sizing
 "HtCap_Sys_L_StorSm_C" = 0   $ Sizing
 "HtCap_Sys_L_StorSm_E" = -2398.991   $ Sizing
 "HtCap_Sys_L_StorSm_E" = 0   $ Sizing
 "HtCap_Sys_L_StorSm_N" = -2713.032   $ Sizing
 "HtCap_Sys_L_StorSm_N" = 0   $ Sizing
 "HtCap_Sys_L_StorSm_S" = -2016.274   $ Sizing
 "HtCap_Sys_L_StorSm_S" = 0   $ Sizing
 "HtCap_Sys_L_StorSm_W" = -2309.073   $ Sizing
 "HtCap_Sys_L_StorSm_W" = 0   $ Sizing
 "HtCap_Sys_T_Conf_C" = -9810.573   $ Sizing
 "HtCap_Sys_T_Conf_C" = 0   $ Sizing
 "HtCap_Sys_T_Hall_E" = -2223.635   $ Sizing
 "HtCap_Sys_T_Hall_E" = 0   $ Sizing
 "HtCap_Sys_T_Hall_N" = -1913.768   $ Sizing
 "HtCap_Sys_T_Hall_N" = 0   $ Sizing
 "HtCap_Sys_T_Hall_S" = -1482.43   $ Sizing
 "HtCap_Sys_T_Hall_S" = 0   $ Sizing
 "HtCap_Sys_T_Hall_W" = -2095.682   $ Sizing
 "HtCap_Sys_T_Hall_W" = 0   $ Sizing
 "HtCap_Sys_T_OfficeOpn_C" = -1631.355   $ Sizing
 "HtCap_Sys_T_OfficeOpn_C" = 0   $ Sizing
 "HtCap_Sys_T_OfficeOpn_E" = -7747.925   $ Sizing
 "HtCap_Sys_T_OfficeOpn_E" = 0   $ Sizing
 "HtCap_Sys_T_OfficeOpn_N" = -7749.721   $ Sizing
 "HtCap_Sys_T_OfficeOpn_N" = 0   $ Sizing
 "HtCap_Sys_T_OfficeOpn_S" = -7744.972   $ Sizing
 "HtCap_Sys_T_OfficeOpn_S" = 0   $ Sizing
 "HtCap_Sys_T_OfficeOpn_W" = -7748.528   $ Sizing
 "HtCap_Sys_T_OfficeOpn_W" = 0   $ Sizing
 "HtCap_Sys_T_OfficeSm_E" = -5642.483   $ Sizing
 "HtCap_Sys_T_OfficeSm_E" = 0   $ Sizing
 "HtCap_Sys_T_OfficeSm_N" = -5872.308   $ Sizing
 "HtCap_Sys_T_OfficeSm_N" = 0   $ Sizing
 "HtCap_Sys_T_OfficeSm_S" = -5639.432   $ Sizing
 "HtCap_Sys_T_OfficeSm_S" = 0   $ Sizing
 "HtCap_Sys_T_OfficeSm_W" = -5641.945   $ Sizing
 "HtCap_Sys_T_OfficeSm_W" = 0   $ Sizing
 "HtCap_Sys_T_Restrm_C" = -2909.823   $ Sizing
 "HtCap_Sys_T_Restrm_C" = 0   $ Sizing
 "HtCap_Sys_T_StorSm_E" = -2557.969   $ Sizing
 "HtCap_Sys_T_StorSm_E" = 0   $ Sizing
 "HtCap_Sys_T_StorSm_N" = -2815.294   $ Sizing
 "HtCap_Sys_T_StorSm_N" = 0   $ Sizing
 "HtCap_Sys_T_StorSm_S" = -2240.478   $ Sizing
 "HtCap_Sys_T_StorSm_S" = 0   $ Sizing
 "HtCap_Sys_T_StorSm_W" = -2607.685   $ Sizing
 "HtCap_Sys_T_StorSm_W" = 0   $ Sizing
 "HtCap_T_Conf_CZn" = -6325.563   $ Sizing
 "HtCap_T_Conf_CZn" = 0   $ Sizing
 "HtCap_T_Hall_EZn" = -2207.857   $ Sizing
 "HtCap_T_Hall_EZn" = 0   $ Sizing
 "HtCap_T_Hall_NZn" = -1905.737   $ Sizing
 "HtCap_T_Hall_NZn" = 0   $ Sizing
 "HtCap_T_Hall_SZn" = -1475.078   $ Sizing
 "HtCap_T_Hall_SZn" = 0   $ Sizing
 "HtCap_T_Hall_WZn" = -2081.452   $ Sizing
 "HtCap_T_Hall_WZn" = 0   $ Sizing
 "HtCap_T_OfficeOpn_CZn" = -1058.071   $ Sizing
 "HtCap_T_OfficeOpn_CZn" = 0   $ Sizing
 "HtCap_T_OfficeOpn_EZn" = -5279.961   $ Sizing
 "HtCap_T_OfficeOpn_EZn" = 0   $ Sizing
 "HtCap_T_OfficeOpn_NZn" = -6612.125   $ Sizing
 "HtCap_T_OfficeOpn_NZn" = 0   $ Sizing
 "HtCap_T_OfficeOpn_SZn" = -3091.015   $ Sizing
 "HtCap_T_OfficeOpn_SZn" = 0   $ Sizing
 "HtCap_T_OfficeOpn_WZn" = -5727.3   $ Sizing
 "HtCap_T_OfficeOpn_WZn" = 0   $ Sizing
 "HtCap_T_OfficeSm_EZn" = -4908.06   $ Sizing
 "HtCap_T_OfficeSm_EZn" = 0   $ Sizing
 "HtCap_T_OfficeSm_NZn" = -5353.043   $ Sizing
 "HtCap_T_OfficeSm_NZn" = 0   $ Sizing
 "HtCap_T_OfficeSm_SZn" = -2645.675   $ Sizing
 "HtCap_T_OfficeSm_SZn" = 0   $ Sizing
 "HtCap_T_OfficeSm_WZn" = -4508.563   $ Sizing
 "HtCap_T_OfficeSm_WZn" = 0   $ Sizing
 "HtCap_T_Restrm_CZn" = -472.6442   $ Sizing
 "HtCap_T_Restrm_CZn" = 0   $ Sizing
 "HtCap_T_StorSm_EZn" = -2541.381   $ Sizing
 "HtCap_T_StorSm_EZn" = 0   $ Sizing
 "HtCap_T_StorSm_NZn" = -2797.896   $ Sizing
 "HtCap_T_StorSm_NZn" = 0   $ Sizing
 "HtCap_T_StorSm_SZn" = -1707.665   $ Sizing
 "HtCap_T_StorSm_SZn" = 0   $ Sizing
 "HtCap_T_StorSm_WZn" = -2589.978   $ Sizing
 "HtCap_T_StorSm_WZn" = 0   $ Sizing
..

##include Templates\OfS_DX_SZ.inp
END ..
COMPUTE ..
STOP ..
