
Start DOESIM : Storage capacity =  75000000
Starting LOADS   : SAVE-FILES is On , weather is CZ01ARCATA-AP       
Finished LOADS    BDL  1 : Memory (wds) =    170882, Time (sec) =    1.72
Starting REPORT  
Finished REPORT   BDL  1 : Memory (wds) =    329698, Time (sec) =    0.34
Starting HVAC    : SAVE-FILES is On , weather is CZ01ARCATA-AP       
*** ERRORS or WARNINGS from HVAC     program. Examine output file for details.
Finished HVAC     BDL  1 : Memory (wds) =    243705, Time (sec) =    2.62
Starting REPORT  
Finished REPORT   BDL  1 : Memory (wds) =    333528, Time (sec) =    0.14
Starting HOURLY-R
Finished HOURLY-R BDL  1 : Memory (wds) =    527789, Time (sec) =    0.14
Starting ECONOMIC
Finished ECONOMIC BDL  1 : Memory (wds) =      1034, Time (sec) =    0.03
End   DOESIM : Total elapsed time of      5.0 seconds
RUN COMPLETE
