INPUT ..

##fileprefix C:\Users\jglasskatz\MASControl3\
##set1 IsSizing FALSE
##set1 CoolType ACH
##set1 HeatType ELECTRIC
##set1 EU_HrRepVar 1
##set1 BldgVint 2011
##set1 BldgLoc CZ01

 ##set1 mChlrCap_fT DEFAULT   $ IP Tech: ChlrScrA-lt150-9.5EER
 ##set1 mChlrEIR_fPLR DEFAULT   $ IP Tech: ChlrScrA-lt150-9.5EER
 ##set1 mChlrEIR_fT DEFAULT   $ IP Tech: ChlrScrA-lt150-9.5EER
 ##set1 mChlrType Screw   $ IP Tech: ChlrScrA-lt150-9.5EER
 ##set1 mCondType Air   $ IP Tech: ChlrScrA-lt150-9.5EER
 ##set1 mSetupLdChlr FALSE   $ IP Tech: ChlrScrA-lt150-9.5EER
 ##set1 mCHW_FlowCtrl VarSec   $ IP Tech: ChwFlowCtrlVarSec

PARAMETER
 "AltFactor" = 1.00753   $ IP Non-Tech
 "BldgEconoFlag" = 1   $ IP Non-Tech
 "BlrPrimLp" = BlrPrimLoop   $ IP Non-Tech
 "Break_EWSF" = 1   $ IP Non-Tech
 "Break_LWSF" = 1.1   $ IP Non-Tech
 "CDD_DBHi10" = 65   $ IP Non-Tech
 "CDD_DBHi7" = 68   $ IP Non-Tech
 "CDD_DBHi8" = 66   $ IP Non-Tech
 "CDD_DBHi9" = 77   $ IP Non-Tech
 "CDD_DBRange10" = 17   $ IP Non-Tech
 "CDD_DBRange7" = 11   $ IP Non-Tech
 "CDD_DBRange8" = 10   $ IP Non-Tech
 "CDD_DBRange9" = 29   $ IP Non-Tech
 "CDD_Day10" = 15   $ IP Non-Tech
 "CDD_Day7" = 16   $ IP Non-Tech
 "CDD_Day8" = 20   $ IP Non-Tech
 "CDD_Day9" = 17   $ IP Non-Tech
 "CDD_HrHi10" = 12   $ IP Non-Tech
 "CDD_HrHi7" = 12   $ IP Non-Tech
 "CDD_HrHi8" = 13   $ IP Non-Tech
 "CDD_HrHi9" = 17   $ IP Non-Tech
 "CDD_HrLo10" = 6   $ IP Non-Tech
 "CDD_HrLo7" = 3   $ IP Non-Tech
 "CDD_HrLo8" = 8   $ IP Non-Tech
 "CDD_HrLo9" = 4   $ IP Non-Tech
 "CDD_WB10" = 57.53039551   $ IP Non-Tech
 "CDD_WB7" = 59.29250717   $ IP Non-Tech
 "CDD_WB8" = 60.75350189   $ IP Non-Tech
 "CDD_WB9" = 61.08643341   $ IP Non-Tech
 "CZ_Category" = Tem   $ IP Non-Tech
 "ChwDesignDT" = 12   $ IP Non-Tech
 "ChwPipeHead" = 62   $ IP Non-Tech
 "ChwRetDT" = 0.03   $ IP Non-Tech
 "ChwSupDT" = 0.05   $ IP Non-Tech
 "ChwT" = 44   $ IP Non-Tech
 "ChwVintEconoFlag" = 1   $ IP Non-Tech
 "CompRoomData_EWSF" = 5   $ IP Non-Tech
 "CompRoomData_LWSF" = 1.1   $ IP Non-Tech
 "Conference_EWSF" = 1   $ IP Non-Tech
 "Conference_LWSF" = 1.4   $ IP Non-Tech
 "CoolSetT" = 55   $ IP Non-Tech
 "CoolType" = ACH   $ IP Non-Tech
 "CopyRoom_EWSF" = 1.5   $ IP Non-Tech
 "CopyRoom_LWSF" = 1.3   $ IP Non-Tech
 "DesCoolT" = 75   $ IP Non-Tech
 "DesHeatT" = 73   $ IP Non-Tech
 "EconoEnthLimit" = 28   $ IP Non-Tech
 "EconoTempLimit" = 70   $ IP Non-Tech
 "Elevation" = 203   $ IP Non-Tech
 "HDD_CloudAmt1" = 0   $ IP Non-Tech
 "HDD_DBHi1" = 53   $ IP Non-Tech
 "HDD_DBRange1" = 20   $ IP Non-Tech
 "HDD_Day1" = 15   $ IP Non-Tech
 "HDD_HrHi1" = 14   $ IP Non-Tech
 "HDD_HrLo1" = 6   $ IP Non-Tech
 "HDD_WB1" = 42.3   $ IP Non-Tech
 "HDD_WindSpd1" = 12.7   $ IP Non-Tech
 "Hall_EWSF" = 0.2   $ IP Non-Tech
 "Hall_LWSF" = 0.6   $ IP Non-Tech
 "HeatSrc" = ELECTRIC   $ IP Non-Tech
 "HeatSrcTU" = ELECTRIC   $ IP Non-Tech
 "HeatType" = Elec   $ IP Non-Tech
 "HeatTypeTU" = ELECTRIC   $ IP Non-Tech
 "HwDesignDT" = 30   $ IP Non-Tech
 "HwPipeHead" = 40   $ IP Non-Tech
 "IndoorFanMode" = CONTINUOUS   $ IP Non-Tech
 "KT_TransferAir" = No   $ IP Non-Tech
 "Latitude" = 40.8   $ IP Non-Tech
 "LobbyWaiting_EWSF" = 0.5   $ IP Non-Tech
 "LobbyWaiting_LWSF" = 1.3   $ IP Non-Tech
 "Longitude" = 124.2   $ IP Non-Tech
 "LtgMsrApplic" = ALL   $ Msr TechID: NonResLtgRefMsr-CFL
 "LtgSav_CFL" = 0.3   $ Msr TechID: NonResLtgRefMsr-CFL
 "LtgSav_EX" = 0   $ Msr TechID: NonResLtgRefMsr-CFL
 "LtgSav_HB" = 0   $ Msr TechID: NonResLtgRefMsr-CFL
 "LtgSav_LF" = 0   $ Msr TechID: NonResLtgRefMsr-CFL
 "LtgSav_SP" = 0   $ Msr TechID: NonResLtgRefMsr-CFL
 "MZFanMechEff" = 0.68   $ IP Non-Tech
 "MZHasRetFan" = TRUE   $ IP Non-Tech
 "MZ_RFanWPerCfm" = 0.33   $ IP Non-Tech
 "MZ_SFanWPerCfm" = 0.75   $ IP Non-Tech
 "MaxSupT_MZ" = 95   $ IP Non-Tech
 "MaxSupT_SZ" = 105   $ IP Non-Tech
 "MaxSupT_TU" = 105   $ IP Non-Tech
 "MechElecRoom_EWSF" = 0.2   $ IP Non-Tech
 "MechElecRoom_LWSF" = 0.7   $ IP Non-Tech
 "MinCfmPerSF" = 0.4   $ IP Non-Tech
 "MinSupT" = 55   $ IP Non-Tech
 "OccCoolT" = 76   $ IP Non-Tech
 "OccHeatT" = 72   $ IP Non-Tech
 "OfficeOpen_EWSF" = 1.5   $ IP Non-Tech
 "OfficeOpen_LWSF" = 1.1   $ IP Non-Tech
 "OfficeSmall_EWSF" = 1.5   $ IP Non-Tech
 "OfficeSmall_LWSF" = 1.3   $ IP Non-Tech
 "PkgDxVintEconoFlag" = 0   $ IP Non-Tech
 "ReheatDeltaT" = 40   $ IP Non-Tech
 "Restroom_EWSF" = 0.2   $ IP Non-Tech
 "Restroom_LWSF" = 0.6   $ IP Non-Tech
 "SZFanMechEff" = 0.54   $ IP Non-Tech
 "SZHasRetFan" = TRUE   $ IP Non-Tech
 "SZ_Is_2Spd" = FALSE   $ IP Non-Tech
 "SZ_SFanWPerCfm" = 0.46   $ IP Non-Tech
 "StorageSmlCond_EWSF" = 0.2   $ IP Non-Tech
 "StorageSmlCond_LWSF" = 0.6   $ IP Non-Tech
 "T24GlzTbl" = CZTbl   $ IP Non-Tech
 "TermUnitFanMechEff" = 1   $ IP Non-Tech
 "TermUnitFanMode" = INTERMITTENT   $ IP Non-Tech
 "TermUnitFanWPerCfm" = 0.175   $ IP Non-Tech
 "TwrSetpt" = 80   $ IP Non-Tech
 "UnocCoolT" = 86   $ IP Non-Tech
 "UnocHeatT" = 62   $ IP Non-Tech
 "VAVMinFlow" = 0.3   $ IP Non-Tech
 "WlhpVintEconoFlag" = 0   $ IP Non-Tech
 "EconoCtrl" = OA-TEMP   $ IP Tech: AirEcono-OATemp
 "MaxOAFrac" = 0.85   $ IP Tech: AirEcono-OATemp
 "UseEconoVintApplic" = FALSE   $ IP Tech: AirEcono-OATemp
 "ChlrCapRange" = lt150   $ IP Tech: ChlrScrA-lt150-9.5EER
 "ChlrEff" = 9.52   $ IP Tech: ChlrScrA-lt150-9.5EER
 "ChlrType" = Screw   $ IP Tech: ChlrScrA-lt150-9.5EER
 "ChlrVSD" = NO   $ IP Tech: ChlrScrA-lt150-9.5EER
 "CmpPerCkt" = NA   $ IP Tech: ChlrScrA-lt150-9.5EER
 "CondRelief" = FALSE   $ IP Tech: ChlrScrA-lt150-9.5EER
 "CondType" = Air   $ IP Tech: ChlrScrA-lt150-9.5EER
 "EffUnits" = EER   $ IP Tech: ChlrScrA-lt150-9.5EER
 "IPLV" = -99   $ IP Tech: ChlrScrA-lt150-9.5EER
 "CHW_FlowCtrl" = VarSec   $ IP Tech: ChwFlowCtrlVarSec
 "CHW_HdSensLoc" = AT-COILS   $ IP Tech: ChwFlowCtrlVarSec
 "CHW_HdSptCtrl" = FIXED   $ IP Tech: ChwFlowCtrlVarSec
 "CHWP_Encl" = Any   $ IP Tech: ChwPumpMtrEff-HI
 "CHWP_MotClass" = HI-EFF   $ IP Tech: ChwPumpMtrEff-HI
 "CHWP_MotHP" = Any   $ IP Tech: ChwPumpMtrEff-HI
 "CHWP_NEMA_DC" =    $ IP Tech: ChwPumpMtrEff-HI
 "CHWP_RPM" = Any   $ IP Tech: ChwPumpMtrEff-HI
 "CHWP_Volt" =    $ IP Tech: ChwPumpMtrEff-HI
 "CHW_MaxT" = 54   $ IP Tech: ChwTempCtrlReset
 "CHW_TempCtrl" = LOAD-RESET   $ IP Tech: ChwTempCtrlReset
 "DuctDT" = 1   $ IP Tech: ComDuctInsul-1
 "DuctAirLoss" = 0   $ IP Tech: ComDuctLeak-0
 "DuctLossOAFrac" = 0   $ IP Tech: ComDuctLeak-0
 "ComRoofInsCalc" = FromUo   $ IP Tech: ComRoofIns-WFrm-0.05
 "ComRoofInsR" = -999   $ IP Tech: ComRoofIns-WFrm-0.05
 "ComRoofUo" = 0.05   $ IP Tech: ComRoofIns-WFrm-0.05
 "ComEWInsCalc" = FromUo   $ IP Tech: ComWallIns-WFrm-0.08
 "ComEWInsR" = -999   $ IP Tech: ComWallIns-WFrm-0.08
 "ComEWUo" = 0.08   $ IP Tech: ComWallIns-WFrm-0.08
 "MotorClass" = HI-EFF   $ IP Tech: ExhFanMtr-High
 "ComN_SHGC" = 0.47   $ IP Tech: NResWin-ComN-0.47-0.47
 "ComN_UFactor" = 0.47   $ IP Tech: NResWin-ComN-0.47-0.47
 "ComN_VisTrans" = 0.75   $ IP Tech: NResWin-ComN-0.47-0.47
 "ComN_WinCode" = G2633   $ IP Tech: NResWin-ComN-0.47-0.47
 "ComN_WinFrmFrac" = 0.17   $ IP Tech: NResWin-ComN-0.47-0.47
 "ComN_WinFrmU" = 0.3   $ IP Tech: NResWin-ComN-0.47-0.47
 "ComO_SHGC" = 0.43   $ IP Tech: NResWin-ComO-0.47-0.43
 "ComO_UFactor" = 0.47   $ IP Tech: NResWin-ComO-0.47-0.43
 "ComO_VisTrans" = 0.68   $ IP Tech: NResWin-ComO-0.47-0.43
 "ComO_WinCode" = G2663   $ IP Tech: NResWin-ComO-0.47-0.43
 "ComO_WinFrmFrac" = 0.17   $ IP Tech: NResWin-ComO-0.47-0.43
 "ComO_WinFrmU" = 0.3   $ IP Tech: NResWin-ComO-0.47-0.43
 "SATempCtrl" = WARMEST   $ IP Tech: SATempCtrl-Warmest
 "FanEIR_fPLR" = "Variable Speed Drive FPLR"   $ IP Tech: VAVCtrl-VSD-AnyHP
 "Fan_Control" = VSD   $ IP Tech: VAVCtrl-VSD-AnyHP
 "Motor_Horsepower" = AnyHP   $ IP Tech: VAVCtrl-VSD-AnyHP
 "AltAdjFactor" = 1.007532   $ Sizing
 "CAssFlo_L_Break_CZn" = 251.8326   $ Sizing
 "CAssFlo_L_CompDC_CZn" = 143.9597   $ Sizing
 "CAssFlo_L_Conf_CZn" = 175.2882   $ Sizing
 "CAssFlo_L_CopyRm_CZn" = 50.72986   $ Sizing
 "CAssFlo_L_Hall_EZn" = 88.99189   $ Sizing
 "CAssFlo_L_Hall_NZn" = 66.08446   $ Sizing
 "CAssFlo_L_Hall_SZn" = 107.5771   $ Sizing
 "CAssFlo_L_Hall_WZn" = 94.83949   $ Sizing
 "CAssFlo_L_LobWait_EZn" = 220.848   $ Sizing
 "CAssFlo_L_LobWait_NZn" = 136.5646   $ Sizing
 "CAssFlo_L_LobWait_SZn" = 253.6566   $ Sizing
 "CAssFlo_L_LobWait_WZn" = 220.5678   $ Sizing
 "CAssFlo_L_MechElec_CZn" = 65.93681   $ Sizing
 "CAssFlo_L_OfficeOpn_CZn" = 43.25647   $ Sizing
 "CAssFlo_L_OfficeOpn_EZn" = 456.1032   $ Sizing
 "CAssFlo_L_OfficeOpn_NZn" = 204.606   $ Sizing
 "CAssFlo_L_OfficeOpn_SZn" = 479.6512   $ Sizing
 "CAssFlo_L_OfficeOpn_WZn" = 440.5223   $ Sizing
 "CAssFlo_L_OfficeSm_EZn" = 388.246   $ Sizing
 "CAssFlo_L_OfficeSm_NZn" = 159.0181   $ Sizing
 "CAssFlo_L_OfficeSm_SZn" = 427.4962   $ Sizing
 "CAssFlo_L_OfficeSm_WZn" = 388.7198   $ Sizing
 "CAssFlo_L_Restrm_CZn" = 86.07105   $ Sizing
 "CAssFlo_L_StorSm_CZn" = 32.77516   $ Sizing
 "CAssFlo_L_StorSm_EZn" = 78.96815   $ Sizing
 "CAssFlo_L_StorSm_NZn" = 71.16871   $ Sizing
 "CAssFlo_L_StorSm_SZn" = 92.36069   $ Sizing
 "CAssFlo_L_StorSm_WZn" = 82.39718   $ Sizing
 "CAssFlo_T_Conf_CZn" = 187.5653   $ Sizing
 "CAssFlo_T_Hall_EZn" = 108.183   $ Sizing
 "CAssFlo_T_Hall_NZn" = 62.59471   $ Sizing
 "CAssFlo_T_Hall_SZn" = 126.6172   $ Sizing
 "CAssFlo_T_Hall_WZn" = 108.6897   $ Sizing
 "CAssFlo_T_OfficeOpn_CZn" = 43.21606   $ Sizing
 "CAssFlo_T_OfficeOpn_EZn" = 471.3385   $ Sizing
 "CAssFlo_T_OfficeOpn_NZn" = 241.5808   $ Sizing
 "CAssFlo_T_OfficeOpn_SZn" = 522.773   $ Sizing
 "CAssFlo_T_OfficeOpn_WZn" = 455.056   $ Sizing
 "CAssFlo_T_OfficeSm_EZn" = 414.3564   $ Sizing
 "CAssFlo_T_OfficeSm_NZn" = 192.2451   $ Sizing
 "CAssFlo_T_OfficeSm_SZn" = 467.9325   $ Sizing
 "CAssFlo_T_OfficeSm_WZn" = 401.8923   $ Sizing
 "CAssFlo_T_Restrm_CZn" = 87.66228   $ Sizing
 "CAssFlo_T_StorSm_EZn" = 99.66071   $ Sizing
 "CAssFlo_T_StorSm_NZn" = 68.71542   $ Sizing
 "CAssFlo_T_StorSm_SZn" = 116.4039   $ Sizing
 "CAssFlo_T_StorSm_WZn" = 102.584   $ Sizing
 "CBF_Sys_L" = 0.04412192   $ Sizing
 "CBF_Sys_T" = 0.04216331   $ Sizing
 "CHRtFlo_L_Break_CZn" = 185.4956   $ Sizing
 "CHRtFlo_L_CompDC_CZn" = 43.18792   $ Sizing
 "CHRtFlo_L_Conf_CZn" = 143.3872   $ Sizing
 "CHRtFlo_L_CopyRm_CZn" = 50.72986   $ Sizing
 "CHRtFlo_L_Hall_EZn" = 61.67758   $ Sizing
 "CHRtFlo_L_Hall_NZn" = 66.08446   $ Sizing
 "CHRtFlo_L_Hall_SZn" = 40.78772   $ Sizing
 "CHRtFlo_L_Hall_WZn" = 60.99001   $ Sizing
 "CHRtFlo_L_LobWait_EZn" = 126.673   $ Sizing
 "CHRtFlo_L_LobWait_NZn" = 136.5646   $ Sizing
 "CHRtFlo_L_LobWait_SZn" = 88.92921   $ Sizing
 "CHRtFlo_L_LobWait_WZn" = 125.2492   $ Sizing
 "CHRtFlo_L_MechElec_CZn" = 39.04882   $ Sizing
 "CHRtFlo_L_OfficeOpn_CZn" = 37.2629   $ Sizing
 "CHRtFlo_L_OfficeOpn_EZn" = 137.8006   $ Sizing
 "CHRtFlo_L_OfficeOpn_NZn" = 153.4599   $ Sizing
 "CHRtFlo_L_OfficeOpn_SZn" = 143.8954   $ Sizing
 "CHRtFlo_L_OfficeOpn_WZn" = 138.755   $ Sizing
 "CHRtFlo_L_OfficeSm_EZn" = 133.0754   $ Sizing
 "CHRtFlo_L_OfficeSm_NZn" = 142.5067   $ Sizing
 "CHRtFlo_L_OfficeSm_SZn" = 128.2489   $ Sizing
 "CHRtFlo_L_OfficeSm_WZn" = 128.4181   $ Sizing
 "CHRtFlo_L_Restrm_CZn" = 56.08508   $ Sizing
 "CHRtFlo_L_StorSm_CZn" = 32.77516   $ Sizing
 "CHRtFlo_L_StorSm_EZn" = 65.94733   $ Sizing
 "CHRtFlo_L_StorSm_NZn" = 71.16871   $ Sizing
 "CHRtFlo_L_StorSm_SZn" = 44.46572   $ Sizing
 "CHRtFlo_L_StorSm_WZn" = 59.49952   $ Sizing
 "CHRtFlo_T_Conf_CZn" = 143.3872   $ Sizing
 "CHRtFlo_T_Hall_EZn" = 59.6047   $ Sizing
 "CHRtFlo_T_Hall_NZn" = 62.59471   $ Sizing
 "CHRtFlo_T_Hall_SZn" = 48.16098   $ Sizing
 "CHRtFlo_T_Hall_WZn" = 58.32418   $ Sizing
 "CHRtFlo_T_OfficeOpn_CZn" = 27.15983   $ Sizing
 "CHRtFlo_T_OfficeOpn_EZn" = 142.9369   $ Sizing
 "CHRtFlo_T_OfficeOpn_NZn" = 146.674   $ Sizing
 "CHRtFlo_T_OfficeOpn_SZn" = 156.8319   $ Sizing
 "CHRtFlo_T_OfficeOpn_WZn" = 138.1646   $ Sizing
 "CHRtFlo_T_OfficeSm_EZn" = 130.0506   $ Sizing
 "CHRtFlo_T_OfficeSm_NZn" = 133.2703   $ Sizing
 "CHRtFlo_T_OfficeSm_SZn" = 140.3798   $ Sizing
 "CHRtFlo_T_OfficeSm_WZn" = 126.0582   $ Sizing
 "CHRtFlo_T_Restrm_CZn" = 87.66228   $ Sizing
 "CHRtFlo_T_StorSm_EZn" = 64.86753   $ Sizing
 "CHRtFlo_T_StorSm_NZn" = 68.71542   $ Sizing
 "CHRtFlo_T_StorSm_SZn" = 49.12118   $ Sizing
 "CHRtFlo_T_StorSm_WZn" = 63.25587   $ Sizing
 "CRtdFlo_Sys_L" = 3691.125   $ Sizing
 "CRtdFlo_Sys_T" = 3180.504   $ Sizing
 "CSupFlo_Sys_L" = 3691.125   $ Sizing
 "CSupFlo_Sys_T" = 3180.504   $ Sizing
 "Cap_Chiller1" = 0.1867613   $ Sizing
 "ClCap_Sys_L" = 98098.45   $ Sizing
 "ClCap_Sys_T" = 87104.73   $ Sizing
 "HRtEDB_L_Break_CZn" = 55.65202   $ Sizing
 "HRtEDB_L_CompDC_CZn" = 55.65202   $ Sizing
 "HRtEDB_L_Conf_CZn" = 55.65202   $ Sizing
 "HRtEDB_L_CopyRm_CZn" = 55.65202   $ Sizing
 "HRtEDB_L_Hall_EZn" = 55.10966   $ Sizing
 "HRtEDB_L_Hall_NZn" = 55.10966   $ Sizing
 "HRtEDB_L_Hall_SZn" = 55.10966   $ Sizing
 "HRtEDB_L_Hall_WZn" = 55.10966   $ Sizing
 "HRtEDB_L_LobWait_EZn" = 55.10966   $ Sizing
 "HRtEDB_L_LobWait_NZn" = 55.10966   $ Sizing
 "HRtEDB_L_LobWait_SZn" = 55.10966   $ Sizing
 "HRtEDB_L_LobWait_WZn" = 55.10966   $ Sizing
 "HRtEDB_L_MechElec_CZn" = 55.10966   $ Sizing
 "HRtEDB_L_OfficeOpn_CZn" = 55.65202   $ Sizing
 "HRtEDB_L_OfficeOpn_EZn" = 55.65202   $ Sizing
 "HRtEDB_L_OfficeOpn_NZn" = 55.65202   $ Sizing
 "HRtEDB_L_OfficeOpn_SZn" = 55.65202   $ Sizing
 "HRtEDB_L_OfficeOpn_WZn" = 55.65202   $ Sizing
 "HRtEDB_L_OfficeSm_EZn" = 55.65202   $ Sizing
 "HRtEDB_L_OfficeSm_NZn" = 55.65202   $ Sizing
 "HRtEDB_L_OfficeSm_SZn" = 55.65202   $ Sizing
 "HRtEDB_L_OfficeSm_WZn" = 55.65202   $ Sizing
 "HRtEDB_L_Restrm_CZn" = 55.10966   $ Sizing
 "HRtEDB_L_StorSm_CZn" = 55.10966   $ Sizing
 "HRtEDB_L_StorSm_EZn" = 55.10966   $ Sizing
 "HRtEDB_L_StorSm_NZn" = 55.10966   $ Sizing
 "HRtEDB_L_StorSm_SZn" = 55.10966   $ Sizing
 "HRtEDB_L_StorSm_WZn" = 55.10966   $ Sizing
 "HRtEDB_T_Conf_CZn" = 55.36243   $ Sizing
 "HRtEDB_T_Hall_EZn" = 53.60036   $ Sizing
 "HRtEDB_T_Hall_NZn" = 53.60036   $ Sizing
 "HRtEDB_T_Hall_SZn" = 53.60036   $ Sizing
 "HRtEDB_T_Hall_WZn" = 53.60036   $ Sizing
 "HRtEDB_T_OfficeOpn_CZn" = 53.60036   $ Sizing
 "HRtEDB_T_OfficeOpn_EZn" = 55.36243   $ Sizing
 "HRtEDB_T_OfficeOpn_NZn" = 55.36243   $ Sizing
 "HRtEDB_T_OfficeOpn_SZn" = 55.36243   $ Sizing
 "HRtEDB_T_OfficeOpn_WZn" = 55.36243   $ Sizing
 "HRtEDB_T_OfficeSm_EZn" = 55.36243   $ Sizing
 "HRtEDB_T_OfficeSm_NZn" = 55.36243   $ Sizing
 "HRtEDB_T_OfficeSm_SZn" = 55.36243   $ Sizing
 "HRtEDB_T_OfficeSm_WZn" = 55.36243   $ Sizing
 "HRtEDB_T_Restrm_CZn" = 53.60036   $ Sizing
 "HRtEDB_T_StorSm_EZn" = 53.60036   $ Sizing
 "HRtEDB_T_StorSm_NZn" = 53.60036   $ Sizing
 "HRtEDB_T_StorSm_SZn" = 53.60036   $ Sizing
 "HRtEDB_T_StorSm_WZn" = 53.60036   $ Sizing
 "HtCap_L_Break_CZn" = -7862.963   $ Sizing
 "HtCap_L_CompDC_CZn" = -1830.69   $ Sizing
 "HtCap_L_Conf_CZn" = -6078.033   $ Sizing
 "HtCap_L_CopyRm_CZn" = -2150.385   $ Sizing
 "HtCap_L_Hall_EZn" = -2651.107   $ Sizing
 "HtCap_L_Hall_NZn" = -2840.529   $ Sizing
 "HtCap_L_Hall_SZn" = -1753.192   $ Sizing
 "HtCap_L_Hall_WZn" = -2621.553   $ Sizing
 "HtCap_L_LobWait_EZn" = -5444.826   $ Sizing
 "HtCap_L_LobWait_NZn" = -5870.001   $ Sizing
 "HtCap_L_LobWait_SZn" = -3822.473   $ Sizing
 "HtCap_L_LobWait_WZn" = -5383.626   $ Sizing
 "HtCap_L_MechElec_CZn" = -1678.448   $ Sizing
 "HtCap_L_OfficeOpn_CZn" = -1579.535   $ Sizing
 "HtCap_L_OfficeOpn_EZn" = -5841.22   $ Sizing
 "HtCap_L_OfficeOpn_NZn" = -6505.003   $ Sizing
 "HtCap_L_OfficeOpn_SZn" = -6099.572   $ Sizing
 "HtCap_L_OfficeOpn_WZn" = -5881.676   $ Sizing
 "HtCap_L_OfficeSm_EZn" = -5640.927   $ Sizing
 "HtCap_L_OfficeSm_NZn" = -6040.707   $ Sizing
 "HtCap_L_OfficeSm_SZn" = -5436.334   $ Sizing
 "HtCap_L_OfficeSm_WZn" = -5443.505   $ Sizing
 "HtCap_L_Restrm_CZn" = -2410.723   $ Sizing
 "HtCap_L_StorSm_CZn" = -1408.785   $ Sizing
 "HtCap_L_StorSm_EZn" = -2834.635   $ Sizing
 "HtCap_L_StorSm_NZn" = -3059.067   $ Sizing
 "HtCap_L_StorSm_SZn" = -1911.284   $ Sizing
 "HtCap_L_StorSm_WZn" = -2557.487   $ Sizing
 "HtCap_T_Conf_CZn" = -6122.772   $ Sizing
 "HtCap_T_Hall_EZn" = -2658.857   $ Sizing
 "HtCap_T_Hall_NZn" = -2792.236   $ Sizing
 "HtCap_T_Hall_SZn" = -2148.374   $ Sizing
 "HtCap_T_Hall_WZn" = -2601.736   $ Sizing
 "HtCap_T_OfficeOpn_CZn" = -1211.551   $ Sizing
 "HtCap_T_OfficeOpn_EZn" = -6103.541   $ Sizing
 "HtCap_T_OfficeOpn_NZn" = -6263.121   $ Sizing
 "HtCap_T_OfficeOpn_SZn" = -6696.873   $ Sizing
 "HtCap_T_OfficeOpn_WZn" = -5899.762   $ Sizing
 "HtCap_T_OfficeSm_EZn" = -5553.287   $ Sizing
 "HtCap_T_OfficeSm_NZn" = -5690.768   $ Sizing
 "HtCap_T_OfficeSm_SZn" = -5994.35   $ Sizing
 "HtCap_T_OfficeSm_WZn" = -5382.807   $ Sizing
 "HtCap_T_Restrm_CZn" = -3910.455   $ Sizing
 "HtCap_T_StorSm_EZn" = -2893.623   $ Sizing
 "HtCap_T_StorSm_NZn" = -3065.27   $ Sizing
 "HtCap_T_StorSm_SZn" = -2191.207   $ Sizing
 "HtCap_T_StorSm_WZn" = -2821.729   $ Sizing
 "LpFlo_BlrPrimLoop" = 0   $ Sizing
 "LpFlo_ChlrPrimLoop" = 25.69722   $ Sizing
 "LpFlo_CircLp_Chw_All" = 25.69722   $ Sizing
 "LpFlo_CircLp_Hw_All" = 0   $ Sizing
 "RtChwFlo_Chiller1" = 1.857239   $ Sizing
 "RtdEDB_Sys_L" = 71.68634   $ Sizing
 "RtdEDB_Sys_T" = 73.81694   $ Sizing
 "RtdEWB_Sys_L" = 61.69201   $ Sizing
 "RtdEWB_Sys_T" = 61.88177   $ Sizing
..

##include Templates\OfS_CH_MZ.inp
END ..
COMPUTE ..
STOP ..
