INPUT ..

##fileprefix C:\Users\jglasskatz\MASControl3\
##set1 IsSizing FALSE
##set1 CoolType DX
##set1 HeatType FURNACE
##set1 EU_HrRepVar 1
##set1 BldgVint 2020
##set1 BldgLoc CZ01

 ##set1 mBFMult 1   $ IP Tech: RefgChg-NRes-Std

PARAMETER
 "AltFactor" = 1.00753   $ IP Non-Tech
 "BldgEconoFlag" = 1   $ IP Non-Tech
 "Break_EWSF" = 1   $ IP Non-Tech
 "Break_LWSF" = 0.65   $ IP Non-Tech
 "CDD_DBHi10" = 65   $ IP Non-Tech
 "CDD_DBHi7" = 68   $ IP Non-Tech
 "CDD_DBHi8" = 66   $ IP Non-Tech
 "CDD_DBHi9" = 77   $ IP Non-Tech
 "CDD_DBRange10" = 17   $ IP Non-Tech
 "CDD_DBRange7" = 11   $ IP Non-Tech
 "CDD_DBRange8" = 10   $ IP Non-Tech
 "CDD_DBRange9" = 29   $ IP Non-Tech
 "CDD_Day10" = 15   $ IP Non-Tech
 "CDD_Day7" = 16   $ IP Non-Tech
 "CDD_Day8" = 20   $ IP Non-Tech
 "CDD_Day9" = 17   $ IP Non-Tech
 "CDD_HrHi10" = 12   $ IP Non-Tech
 "CDD_HrHi7" = 12   $ IP Non-Tech
 "CDD_HrHi8" = 13   $ IP Non-Tech
 "CDD_HrHi9" = 17   $ IP Non-Tech
 "CDD_HrLo10" = 6   $ IP Non-Tech
 "CDD_HrLo7" = 3   $ IP Non-Tech
 "CDD_HrLo8" = 8   $ IP Non-Tech
 "CDD_HrLo9" = 4   $ IP Non-Tech
 "CDD_WB10" = 57.53039551   $ IP Non-Tech
 "CDD_WB7" = 59.29250717   $ IP Non-Tech
 "CDD_WB8" = 60.75350189   $ IP Non-Tech
 "CDD_WB9" = 61.08643341   $ IP Non-Tech
 "CZ_Category" = Tem   $ IP Non-Tech
 "ChwVintEconoFlag" = 1   $ IP Non-Tech
 "CompRoomData_EWSF" = 5   $ IP Non-Tech
 "CompRoomData_LWSF" = 0.8   $ IP Non-Tech
 "Conference_EWSF" = 1   $ IP Non-Tech
 "Conference_LWSF" = 0.85   $ IP Non-Tech
 "CoolSetT" = 45   $ IP Non-Tech
 "CoolType" = DX   $ IP Non-Tech
 "CopyRoom_EWSF" = 1.5   $ IP Non-Tech
 "CopyRoom_LWSF" = 0.5   $ IP Non-Tech
 "DesCoolT" = 75   $ IP Non-Tech
 "DesHeatT" = 73   $ IP Non-Tech
 "EconoEnthLimit" = 28   $ IP Non-Tech
 "EconoTempLimit" = 70   $ IP Non-Tech
 "Elevation" = 203   $ IP Non-Tech
 "HDD_CloudAmt1" = 0   $ IP Non-Tech
 "HDD_DBHi1" = 53   $ IP Non-Tech
 "HDD_DBRange1" = 20   $ IP Non-Tech
 "HDD_Day1" = 15   $ IP Non-Tech
 "HDD_HrHi1" = 14   $ IP Non-Tech
 "HDD_HrLo1" = 6   $ IP Non-Tech
 "HDD_WB1" = 42.3   $ IP Non-Tech
 "HDD_WindSpd1" = 12.7   $ IP Non-Tech
 "Hall_EWSF" = 0.2   $ IP Non-Tech
 "Hall_LWSF" = 0.55   $ IP Non-Tech
 "HeatSrc" = FURNACE   $ IP Non-Tech
 "HeatSrcTU" = HEAT-PUMP   $ IP Non-Tech
 "HeatType" = GasFurn   $ IP Non-Tech
 "HeatTypeTU" = HEAT-PUMP   $ IP Non-Tech
 "IndoorFanMode" = CONTINUOUS   $ IP Non-Tech
 "KT_TransferAir" = Yes   $ IP Non-Tech
 "Latitude" = 40.8   $ IP Non-Tech
 "LobbyWaiting_EWSF" = 0.5   $ IP Non-Tech
 "LobbyWaiting_LWSF" = 0.75   $ IP Non-Tech
 "Longitude" = 124.2   $ IP Non-Tech
 "LtgMsrApplic" = ALL   $ Msr TechID: NonResLtgRefMsr-CFL
 "LtgSav_CFL" = 0.3   $ Msr TechID: NonResLtgRefMsr-CFL
 "LtgSav_EX" = 0   $ Msr TechID: NonResLtgRefMsr-CFL
 "LtgSav_HB" = 0   $ Msr TechID: NonResLtgRefMsr-CFL
 "LtgSav_LF" = 0   $ Msr TechID: NonResLtgRefMsr-CFL
 "LtgSav_SP" = 0   $ Msr TechID: NonResLtgRefMsr-CFL
 "MZFanMechEff" = 0.58   $ IP Non-Tech
 "MZHasRetFan" = FALSE   $ IP Non-Tech
 "MZ_RFanWPerCfm" = 0.33   $ IP Non-Tech
 "MZ_SFanWPerCfm" = 0.75   $ IP Non-Tech
 "MZ_SupFanStatic" = 2.25   $ IP Non-Tech
 "MaxSupT_MZ" = 100   $ IP Non-Tech
 "MaxSupT_SZ" = 100   $ IP Non-Tech
 "MaxSupT_TU" = 90   $ IP Non-Tech
 "MechElecRoom_EWSF" = 0.2   $ IP Non-Tech
 "MechElecRoom_LWSF" = 0.4   $ IP Non-Tech
 "MinCfmPerSF" = 0.4   $ IP Non-Tech
 "MinSupT" = 55   $ IP Non-Tech
 "OccCoolT" = 76   $ IP Non-Tech
 "OccHeatT" = 72   $ IP Non-Tech
 "OfficeOpen_EWSF" = 1.5   $ IP Non-Tech
 "OfficeOpen_LWSF" = 0.8   $ IP Non-Tech
 "OfficeSmall_EWSF" = 1.5   $ IP Non-Tech
 "OfficeSmall_LWSF" = 0.9   $ IP Non-Tech
 "PkgDxVintEconoFlag" = 1   $ IP Non-Tech
 "Restroom_EWSF" = 0.2   $ IP Non-Tech
 "Restroom_LWSF" = 0.65   $ IP Non-Tech
 "SZFanMechEff" = 0.58   $ IP Non-Tech
 "SZHasRetFan" = FALSE   $ IP Non-Tech
 "SZ_Is_2Spd" = TRUE   $ IP Non-Tech
 "SZ_SFanWPerCfm" = 0.46   $ IP Non-Tech
 "SZ_SupFanStatic" = 0.75   $ IP Non-Tech
 "StorageSmlCond_EWSF" = 0.2   $ IP Non-Tech
 "StorageSmlCond_LWSF" = 0.45   $ IP Non-Tech
 "TermUnitFanMechEff" = 1   $ IP Non-Tech
 "TermUnitFanMode" = INTERMITTENT   $ IP Non-Tech
 "TwrSetpt" = 80   $ IP Non-Tech
 "UnocCoolT" = 86   $ IP Non-Tech
 "UnocHeatT" = 62   $ IP Non-Tech
 "WlhpVintEconoFlag" = 1   $ IP Non-Tech
 "EconoCtrl" = OA-TEMP   $ IP Tech: AirEcono-OATemp
 "MaxOAFrac" = 0.85   $ IP Tech: AirEcono-OATemp
 "UseEconoVintApplic" = FALSE   $ IP Tech: AirEcono-OATemp
 "DuctDT" = 1   $ IP Tech: ComDuctInsul-1
 "DuctAirLoss" = 0   $ IP Tech: ComDuctLeak-0
 "DuctLossOAFrac" = 0   $ IP Tech: ComDuctLeak-0
 "ComRoofInsCalc" = FromUo   $ IP Tech: ComRoofIns-WFrm-0.03
 "ComRoofInsR" = -999   $ IP Tech: ComRoofIns-WFrm-0.03
 "ComRoofUo" = 0.03   $ IP Tech: ComRoofIns-WFrm-0.03
 "ComEWInsCalc" = FromUo   $ IP Tech: ComWallIns-WFrm-0.08
 "ComEWInsR" = -999   $ IP Tech: ComWallIns-WFrm-0.08
 "ComEWUo" = 0.08   $ IP Tech: ComWallIns-WFrm-0.08
 "ComN_SHGC" = 0.25   $ IP Tech: NResWin-ComN-0.36-0.25
 "ComN_UFactor" = 0.36   $ IP Tech: NResWin-ComN-0.36-0.25
 "ComN_VisTrans" = 0.41   $ IP Tech: NResWin-ComN-0.36-0.25
 "ComN_WinCode" = G2668   $ IP Tech: NResWin-ComN-0.36-0.25
 "ComN_WinFrmFrac" = 0.17   $ IP Tech: NResWin-ComN-0.36-0.25
 "ComN_WinFrmU" = 0.3   $ IP Tech: NResWin-ComN-0.36-0.25
 "ComO_SHGC" = 0.25   $ IP Tech: NResWin-ComO-0.36-0.25
 "ComO_UFactor" = 0.36   $ IP Tech: NResWin-ComO-0.36-0.25
 "ComO_VisTrans" = 0.41   $ IP Tech: NResWin-ComO-0.36-0.25
 "ComO_WinCode" = G2668   $ IP Tech: NResWin-ComO-0.36-0.25
 "ComO_WinFrmFrac" = 0.17   $ IP Tech: NResWin-ComO-0.36-0.25
 "ComO_WinFrmU" = 0.3   $ IP Tech: NResWin-ComO-0.36-0.25
 "BF_fFlow" = PSZ65to135_BF_fFlow   $ IP Tech: PkgAC2SpP-65to135-E11
 "BF_fT" = PSZ65to135_BF_fT   $ IP Tech: PkgAC2SpP-65to135-E11
 "CEIR_fPLR" = PSZ65to135_CEIR_fPLR   $ IP Tech: PkgAC2SpP-65to135-E11
 "CLoss_fPLR" = PSZ65to135_CLoss_fPLR   $ IP Tech: PkgAC2SpP-65to135-E11
 "COP" = -1   $ IP Tech: PkgAC2SpP-65to135-E11
 "COP47" = -1   $ IP Tech: PkgAC2SpP-65to135-E11
 "CfmPerBtuh" = 0.02917   $ IP Tech: PkgAC2SpP-65to135-E11
 "ClCap_fT" = PSZ65to135_ClCap_fT   $ IP Tech: PkgAC2SpP-65to135-E11
 "ClSH_fT" = PSZ65to135_ClSH_fT   $ IP Tech: PkgAC2SpP-65to135-E11
 "CoilBF" = 0.114   $ IP Tech: PkgAC2SpP-65to135-E11
 "CondWPerBtuh" = 0   $ IP Tech: PkgAC2SpP-65to135-E11
 "CoolSensCap" = 0.663   $ IP Tech: PkgAC2SpP-65to135-E11
 "CoolingEIR" = 0.26817   $ IP Tech: PkgAC2SpP-65to135-E11
 "CrnkEIR" = 0.0027   $ IP Tech: PkgAC2SpP-65to135-E11
 "CrnkMaxT" = 50   $ IP Tech: PkgAC2SpP-65to135-E11
 "DXType" = Pkg   $ IP Tech: PkgAC2SpP-65to135-E11
 "EER" = 10.64   $ IP Tech: PkgAC2SpP-65to135-E11
 "EIR_fT" = PSZ65to135_EIR_fT   $ IP Tech: PkgAC2SpP-65to135-E11
 "FanEirPlr" = TwoSpeedFan   $ IP Tech: PkgAC2SpP-65to135-E11
 "FanWPerCfm" = 0.4   $ IP Tech: PkgAC2SpP-65to135-E11
 "HIR_fT" = DEFAULT   $ IP Tech: PkgAC2SpP-65to135-E11
 "HtCap_fT" = DEFAULT   $ IP Tech: PkgAC2SpP-65to135-E11
 "HtCoolCapRatio" = -1   $ IP Tech: PkgAC2SpP-65to135-E11
 "HtgEIR" = -1   $ IP Tech: PkgAC2SpP-65to135-E11
 "HtgFuel" = Gas   $ IP Tech: PkgAC2SpP-65to135-E11
 "IEER" = 13.35   $ IP Tech: PkgAC2SpP-65to135-E11
 "LowSpdCapRatio" = 0.5   $ IP Tech: PkgAC2SpP-65to135-E11
 "LowSpdCfmRatio" = 0.66   $ IP Tech: PkgAC2SpP-65to135-E11
 "NominalCap" = 15   $ IP Tech: PkgAC2SpP-65to135-E11
 "NumStages" = 2   $ IP Tech: PkgAC2SpP-65to135-E11
 "RatedEER" = 11   $ IP Tech: PkgAC2SpP-65to135-E11
 "RatedSupMtrClass" = Premium   $ IP Tech: PkgAC2SpP-65to135-E11
 "SizeRange" = 65to135   $ IP Tech: PkgAC2SpP-65to135-E11
 "SubType" = AC   $ IP Tech: PkgAC2SpP-65to135-E11
 "SupMotEff" = 0.865   $ IP Tech: PkgAC2SpP-65to135-E11
 "Tier" = 0   $ IP Tech: PkgAC2SpP-65to135-E11
 "TotCoolCap" = 184140   $ IP Tech: PkgAC2SpP-65to135-E11
 "FanPwrMult" = 1   $ IP Tech: PkgFurn-0.80AFUE
 "FurnAFUE" = 0.8   $ IP Tech: PkgFurn-0.80AFUE
 "FurnEt" = 0.82   $ IP Tech: PkgFurn-0.80AFUE
 "FurnaceAuxKW" = 0.1   $ IP Tech: PkgFurn-0.80AFUE
 "HIR_fPLR" = Furnace-HIR-fPLR   $ IP Tech: PkgFurn-0.80AFUE
 "VSM" = FALSE   $ IP Tech: PkgFurn-0.80AFUE
 "BFMult" = 1   $ IP Tech: RefgChg-NRes-Std
 "CoolEirMult" = 1   $ IP Tech: RefgChg-NRes-Std
 "SensCoolCapMult" = 1   $ IP Tech: RefgChg-NRes-Std
 "TotCoolCapMult" = 1   $ IP Tech: RefgChg-NRes-Std
 "AltAdjFactor" = 1.007532   $ Sizing
 "CAssFlo_L_Break_CZn" = 264.9256   $ Sizing
 "CAssFlo_L_CompDC_CZn" = 155.9809   $ Sizing
 "CAssFlo_L_Conf_CZn" = 192.7837   $ Sizing
 "CAssFlo_L_CopyRm_CZn" = 50.72986   $ Sizing
 "CAssFlo_L_Hall_EZn" = 79.2387   $ Sizing
 "CAssFlo_L_Hall_NZn" = 48.18069   $ Sizing
 "CAssFlo_L_Hall_SZn" = 92.69093   $ Sizing
 "CAssFlo_L_Hall_WZn" = 84.62457   $ Sizing
 "CAssFlo_L_LobWait_EZn" = 196.2768   $ Sizing
 "CAssFlo_L_LobWait_NZn" = 105.158   $ Sizing
 "CAssFlo_L_LobWait_SZn" = 211.4442   $ Sizing
 "CAssFlo_L_LobWait_WZn" = 194.3387   $ Sizing
 "CAssFlo_L_MechElec_CZn" = 65.93681   $ Sizing
 "CAssFlo_L_OfficeOpn_CZn" = 56.37057   $ Sizing
 "CAssFlo_L_OfficeOpn_EZn" = 427.2263   $ Sizing
 "CAssFlo_L_OfficeOpn_NZn" = 185.4652   $ Sizing
 "CAssFlo_L_OfficeOpn_SZn" = 423.8679   $ Sizing
 "CAssFlo_L_OfficeOpn_WZn" = 395.7972   $ Sizing
 "CAssFlo_L_OfficeSm_EZn" = 349.8819   $ Sizing
 "CAssFlo_L_OfficeSm_NZn" = 139.8282   $ Sizing
 "CAssFlo_L_OfficeSm_SZn" = 368.9793   $ Sizing
 "CAssFlo_L_OfficeSm_WZn" = 342.7772   $ Sizing
 "CAssFlo_L_Restrm_CZn" = 86.07105   $ Sizing
 "CAssFlo_L_StorSm_CZn" = 30.00634   $ Sizing
 "CAssFlo_L_StorSm_EZn" = 75.25465   $ Sizing
 "CAssFlo_L_StorSm_NZn" = 59.91948   $ Sizing
 "CAssFlo_L_StorSm_SZn" = 80.26623   $ Sizing
 "CAssFlo_L_StorSm_WZn" = 76.42423   $ Sizing
 "CAssFlo_T_Conf_CZn" = 198.4801   $ Sizing
 "CAssFlo_T_Hall_EZn" = 97.91561   $ Sizing
 "CAssFlo_T_Hall_NZn" = 44.01837   $ Sizing
 "CAssFlo_T_Hall_SZn" = 109.339   $ Sizing
 "CAssFlo_T_Hall_WZn" = 96.5686   $ Sizing
 "CAssFlo_T_OfficeOpn_CZn" = 55.0233   $ Sizing
 "CAssFlo_T_OfficeOpn_EZn" = 435.0972   $ Sizing
 "CAssFlo_T_OfficeOpn_NZn" = 212.503   $ Sizing
 "CAssFlo_T_OfficeOpn_SZn" = 452.8892   $ Sizing
 "CAssFlo_T_OfficeOpn_WZn" = 401.7305   $ Sizing
 "CAssFlo_T_OfficeSm_EZn" = 364.3871   $ Sizing
 "CAssFlo_T_OfficeSm_NZn" = 163.2169   $ Sizing
 "CAssFlo_T_OfficeSm_SZn" = 398.1165   $ Sizing
 "CAssFlo_T_OfficeSm_WZn" = 349.425   $ Sizing
 "CAssFlo_T_Restrm_CZn" = 86.07105   $ Sizing
 "CAssFlo_T_StorSm_EZn" = 94.59412   $ Sizing
 "CAssFlo_T_StorSm_NZn" = 58.78718   $ Sizing
 "CAssFlo_T_StorSm_SZn" = 101.351   $ Sizing
 "CAssFlo_T_StorSm_WZn" = 94.20646   $ Sizing
 "CHRtFlo_Sys_L_Break_C" = 264.9256   $ Sizing
 "CHRtFlo_Sys_L_CompDC_C" = 102.9474   $ Sizing
 "CHRtFlo_Sys_L_Conf_C" = 192.7837   $ Sizing
 "CHRtFlo_Sys_L_CopyRm_C" = 50.72986   $ Sizing
 "CHRtFlo_Sys_L_Hall_E" = 79.2387   $ Sizing
 "CHRtFlo_Sys_L_Hall_N" = 48.18069   $ Sizing
 "CHRtFlo_Sys_L_Hall_S" = 92.69093   $ Sizing
 "CHRtFlo_Sys_L_Hall_W" = 84.62457   $ Sizing
 "CHRtFlo_Sys_L_LobWait_E" = 196.2768   $ Sizing
 "CHRtFlo_Sys_L_LobWait_N" = 105.158   $ Sizing
 "CHRtFlo_Sys_L_LobWait_S" = 211.4442   $ Sizing
 "CHRtFlo_Sys_L_LobWait_W" = 194.3387   $ Sizing
 "CHRtFlo_Sys_L_MechElec_C" = 65.93681   $ Sizing
 "CHRtFlo_Sys_L_OfficeOpn_C" = 56.37057   $ Sizing
 "CHRtFlo_Sys_L_OfficeOpn_E" = 427.2263   $ Sizing
 "CHRtFlo_Sys_L_OfficeOpn_N" = 185.4652   $ Sizing
 "CHRtFlo_Sys_L_OfficeOpn_S" = 423.8679   $ Sizing
 "CHRtFlo_Sys_L_OfficeOpn_W" = 395.7972   $ Sizing
 "CHRtFlo_Sys_L_OfficeSm_E" = 349.8819   $ Sizing
 "CHRtFlo_Sys_L_OfficeSm_N" = 139.8282   $ Sizing
 "CHRtFlo_Sys_L_OfficeSm_S" = 368.9793   $ Sizing
 "CHRtFlo_Sys_L_OfficeSm_W" = 342.7772   $ Sizing
 "CHRtFlo_Sys_L_Restrm_C" = 86.07105   $ Sizing
 "CHRtFlo_Sys_L_StorSm_C" = 30.00634   $ Sizing
 "CHRtFlo_Sys_L_StorSm_E" = 75.25465   $ Sizing
 "CHRtFlo_Sys_L_StorSm_N" = 59.91948   $ Sizing
 "CHRtFlo_Sys_L_StorSm_S" = 80.26623   $ Sizing
 "CHRtFlo_Sys_L_StorSm_W" = 76.42423   $ Sizing
 "CHRtFlo_Sys_T_Conf_C" = 198.4801   $ Sizing
 "CHRtFlo_Sys_T_Hall_E" = 97.91561   $ Sizing
 "CHRtFlo_Sys_T_Hall_N" = 44.01837   $ Sizing
 "CHRtFlo_Sys_T_Hall_S" = 109.339   $ Sizing
 "CHRtFlo_Sys_T_Hall_W" = 96.5686   $ Sizing
 "CHRtFlo_Sys_T_OfficeOpn_C" = 55.0233   $ Sizing
 "CHRtFlo_Sys_T_OfficeOpn_E" = 435.0972   $ Sizing
 "CHRtFlo_Sys_T_OfficeOpn_N" = 212.503   $ Sizing
 "CHRtFlo_Sys_T_OfficeOpn_S" = 452.8892   $ Sizing
 "CHRtFlo_Sys_T_OfficeOpn_W" = 401.7305   $ Sizing
 "CHRtFlo_Sys_T_OfficeSm_E" = 364.3871   $ Sizing
 "CHRtFlo_Sys_T_OfficeSm_N" = 163.2169   $ Sizing
 "CHRtFlo_Sys_T_OfficeSm_S" = 398.1165   $ Sizing
 "CHRtFlo_Sys_T_OfficeSm_W" = 349.425   $ Sizing
 "CHRtFlo_Sys_T_Restrm_C" = 86.07105   $ Sizing
 "CHRtFlo_Sys_T_StorSm_E" = 94.59412   $ Sizing
 "CHRtFlo_Sys_T_StorSm_N" = 58.78718   $ Sizing
 "CHRtFlo_Sys_T_StorSm_S" = 101.351   $ Sizing
 "CHRtFlo_Sys_T_StorSm_W" = 94.20646   $ Sizing
 "CRtdFlo_Sys_L_Break_C" = 264.9256   $ Sizing
 "CRtdFlo_Sys_L_CompDC_C" = 155.9809   $ Sizing
 "CRtdFlo_Sys_L_Conf_C" = 192.7837   $ Sizing
 "CRtdFlo_Sys_L_CopyRm_C" = 50.72986   $ Sizing
 "CRtdFlo_Sys_L_Hall_E" = 79.2387   $ Sizing
 "CRtdFlo_Sys_L_Hall_N" = 48.18069   $ Sizing
 "CRtdFlo_Sys_L_Hall_S" = 92.69093   $ Sizing
 "CRtdFlo_Sys_L_Hall_W" = 84.62457   $ Sizing
 "CRtdFlo_Sys_L_LobWait_E" = 196.2768   $ Sizing
 "CRtdFlo_Sys_L_LobWait_N" = 105.158   $ Sizing
 "CRtdFlo_Sys_L_LobWait_S" = 211.4442   $ Sizing
 "CRtdFlo_Sys_L_LobWait_W" = 194.3387   $ Sizing
 "CRtdFlo_Sys_L_MechElec_C" = 65.93681   $ Sizing
 "CRtdFlo_Sys_L_OfficeOpn_C" = 56.37057   $ Sizing
 "CRtdFlo_Sys_L_OfficeOpn_E" = 427.2263   $ Sizing
 "CRtdFlo_Sys_L_OfficeOpn_N" = 185.4652   $ Sizing
 "CRtdFlo_Sys_L_OfficeOpn_S" = 423.8679   $ Sizing
 "CRtdFlo_Sys_L_OfficeOpn_W" = 395.7972   $ Sizing
 "CRtdFlo_Sys_L_OfficeSm_E" = 349.8819   $ Sizing
 "CRtdFlo_Sys_L_OfficeSm_N" = 139.8282   $ Sizing
 "CRtdFlo_Sys_L_OfficeSm_S" = 368.9793   $ Sizing
 "CRtdFlo_Sys_L_OfficeSm_W" = 342.7772   $ Sizing
 "CRtdFlo_Sys_L_Restrm_C" = 86.07105   $ Sizing
 "CRtdFlo_Sys_L_StorSm_C" = 30.00634   $ Sizing
 "CRtdFlo_Sys_L_StorSm_E" = 75.25465   $ Sizing
 "CRtdFlo_Sys_L_StorSm_N" = 59.91948   $ Sizing
 "CRtdFlo_Sys_L_StorSm_S" = 80.26623   $ Sizing
 "CRtdFlo_Sys_L_StorSm_W" = 76.42423   $ Sizing
 "CRtdFlo_Sys_T_Conf_C" = 198.4801   $ Sizing
 "CRtdFlo_Sys_T_Hall_E" = 97.91561   $ Sizing
 "CRtdFlo_Sys_T_Hall_N" = 44.01837   $ Sizing
 "CRtdFlo_Sys_T_Hall_S" = 109.339   $ Sizing
 "CRtdFlo_Sys_T_Hall_W" = 96.5686   $ Sizing
 "CRtdFlo_Sys_T_OfficeOpn_C" = 55.0233   $ Sizing
 "CRtdFlo_Sys_T_OfficeOpn_E" = 435.0972   $ Sizing
 "CRtdFlo_Sys_T_OfficeOpn_N" = 212.503   $ Sizing
 "CRtdFlo_Sys_T_OfficeOpn_S" = 452.8892   $ Sizing
 "CRtdFlo_Sys_T_OfficeOpn_W" = 401.7305   $ Sizing
 "CRtdFlo_Sys_T_OfficeSm_E" = 364.3871   $ Sizing
 "CRtdFlo_Sys_T_OfficeSm_N" = 163.2169   $ Sizing
 "CRtdFlo_Sys_T_OfficeSm_S" = 398.1165   $ Sizing
 "CRtdFlo_Sys_T_OfficeSm_W" = 349.425   $ Sizing
 "CRtdFlo_Sys_T_Restrm_C" = 86.07105   $ Sizing
 "CRtdFlo_Sys_T_StorSm_E" = 94.59412   $ Sizing
 "CRtdFlo_Sys_T_StorSm_N" = 58.78718   $ Sizing
 "CRtdFlo_Sys_T_StorSm_S" = 101.351   $ Sizing
 "CRtdFlo_Sys_T_StorSm_W" = 94.20646   $ Sizing
 "CSupFlo_Sys_L_Break_C" = 264.9256   $ Sizing
 "CSupFlo_Sys_L_CompDC_C" = 155.9809   $ Sizing
 "CSupFlo_Sys_L_Conf_C" = 192.7837   $ Sizing
 "CSupFlo_Sys_L_CopyRm_C" = 50.72986   $ Sizing
 "CSupFlo_Sys_L_Hall_E" = 79.2387   $ Sizing
 "CSupFlo_Sys_L_Hall_N" = 48.18069   $ Sizing
 "CSupFlo_Sys_L_Hall_S" = 92.69093   $ Sizing
 "CSupFlo_Sys_L_Hall_W" = 84.62457   $ Sizing
 "CSupFlo_Sys_L_LobWait_E" = 196.2768   $ Sizing
 "CSupFlo_Sys_L_LobWait_N" = 105.158   $ Sizing
 "CSupFlo_Sys_L_LobWait_S" = 211.4442   $ Sizing
 "CSupFlo_Sys_L_LobWait_W" = 194.3387   $ Sizing
 "CSupFlo_Sys_L_MechElec_C" = 65.93681   $ Sizing
 "CSupFlo_Sys_L_OfficeOpn_C" = 56.37057   $ Sizing
 "CSupFlo_Sys_L_OfficeOpn_E" = 427.2263   $ Sizing
 "CSupFlo_Sys_L_OfficeOpn_N" = 185.4652   $ Sizing
 "CSupFlo_Sys_L_OfficeOpn_S" = 423.8679   $ Sizing
 "CSupFlo_Sys_L_OfficeOpn_W" = 395.7972   $ Sizing
 "CSupFlo_Sys_L_OfficeSm_E" = 349.8819   $ Sizing
 "CSupFlo_Sys_L_OfficeSm_N" = 139.8282   $ Sizing
 "CSupFlo_Sys_L_OfficeSm_S" = 368.9793   $ Sizing
 "CSupFlo_Sys_L_OfficeSm_W" = 342.7772   $ Sizing
 "CSupFlo_Sys_L_Restrm_C" = 86.07105   $ Sizing
 "CSupFlo_Sys_L_StorSm_C" = 30.00634   $ Sizing
 "CSupFlo_Sys_L_StorSm_E" = 75.25465   $ Sizing
 "CSupFlo_Sys_L_StorSm_N" = 59.91948   $ Sizing
 "CSupFlo_Sys_L_StorSm_S" = 80.26623   $ Sizing
 "CSupFlo_Sys_L_StorSm_W" = 76.42423   $ Sizing
 "CSupFlo_Sys_T_Conf_C" = 198.4801   $ Sizing
 "CSupFlo_Sys_T_Hall_E" = 97.91561   $ Sizing
 "CSupFlo_Sys_T_Hall_N" = 44.01837   $ Sizing
 "CSupFlo_Sys_T_Hall_S" = 109.339   $ Sizing
 "CSupFlo_Sys_T_Hall_W" = 96.5686   $ Sizing
 "CSupFlo_Sys_T_OfficeOpn_C" = 55.0233   $ Sizing
 "CSupFlo_Sys_T_OfficeOpn_E" = 435.0972   $ Sizing
 "CSupFlo_Sys_T_OfficeOpn_N" = 212.503   $ Sizing
 "CSupFlo_Sys_T_OfficeOpn_S" = 452.8892   $ Sizing
 "CSupFlo_Sys_T_OfficeOpn_W" = 401.7305   $ Sizing
 "CSupFlo_Sys_T_OfficeSm_E" = 364.3871   $ Sizing
 "CSupFlo_Sys_T_OfficeSm_N" = 163.2169   $ Sizing
 "CSupFlo_Sys_T_OfficeSm_S" = 398.1165   $ Sizing
 "CSupFlo_Sys_T_OfficeSm_W" = 349.425   $ Sizing
 "CSupFlo_Sys_T_Restrm_C" = 86.07105   $ Sizing
 "CSupFlo_Sys_T_StorSm_E" = 94.59412   $ Sizing
 "CSupFlo_Sys_T_StorSm_N" = 58.78718   $ Sizing
 "CSupFlo_Sys_T_StorSm_S" = 101.351   $ Sizing
 "CSupFlo_Sys_T_StorSm_W" = 94.20646   $ Sizing
 "ClCap_Sys_L_Break_C" = 9015.259   $ Sizing
 "ClCap_Sys_L_CompDC_C" = 5307.936   $ Sizing
 "ClCap_Sys_L_Conf_C" = 8349.491   $ Sizing
 "ClCap_Sys_L_CopyRm_C" = 1726.307   $ Sizing
 "ClCap_Sys_L_Hall_E" = 2696.446   $ Sizing
 "ClCap_Sys_L_Hall_N" = 1639.56   $ Sizing
 "ClCap_Sys_L_Hall_S" = 3154.217   $ Sizing
 "ClCap_Sys_L_Hall_W" = 2879.723   $ Sizing
 "ClCap_Sys_L_LobWait_E" = 6679.181   $ Sizing
 "ClCap_Sys_L_LobWait_N" = 3578.463   $ Sizing
 "ClCap_Sys_L_LobWait_S" = 7195.318   $ Sizing
 "ClCap_Sys_L_LobWait_W" = 6613.229   $ Sizing
 "ClCap_Sys_L_MechElec_C" = 2243.79   $ Sizing
 "ClCap_Sys_L_OfficeOpn_C" = 1918.257   $ Sizing
 "ClCap_Sys_L_OfficeOpn_E" = 14538.26   $ Sizing
 "ClCap_Sys_L_OfficeOpn_N" = 6311.27   $ Sizing
 "ClCap_Sys_L_OfficeOpn_S" = 14423.97   $ Sizing
 "ClCap_Sys_L_OfficeOpn_W" = 13468.74   $ Sizing
 "ClCap_Sys_L_OfficeSm_E" = 11906.27   $ Sizing
 "ClCap_Sys_L_OfficeSm_N" = 4758.27   $ Sizing
 "ClCap_Sys_L_OfficeSm_S" = 12556.15   $ Sizing
 "ClCap_Sys_L_OfficeSm_W" = 11664.5   $ Sizing
 "ClCap_Sys_L_Restrm_C" = 2928.947   $ Sizing
 "ClCap_Sys_L_StorSm_C" = 1021.098   $ Sizing
 "ClCap_Sys_L_StorSm_E" = 2560.871   $ Sizing
 "ClCap_Sys_L_StorSm_N" = 2039.024   $ Sizing
 "ClCap_Sys_L_StorSm_S" = 2731.412   $ Sizing
 "ClCap_Sys_L_StorSm_W" = 2600.671   $ Sizing
 "ClCap_Sys_T_Conf_C" = 8596.201   $ Sizing
 "ClCap_Sys_T_Hall_E" = 3332.01   $ Sizing
 "ClCap_Sys_T_Hall_N" = 1497.919   $ Sizing
 "ClCap_Sys_T_Hall_S" = 3720.741   $ Sizing
 "ClCap_Sys_T_Hall_W" = 3286.172   $ Sizing
 "ClCap_Sys_T_OfficeOpn_C" = 1872.41   $ Sizing
 "ClCap_Sys_T_OfficeOpn_E" = 14806.1   $ Sizing
 "ClCap_Sys_T_OfficeOpn_N" = 7231.35   $ Sizing
 "ClCap_Sys_T_OfficeOpn_S" = 15411.55   $ Sizing
 "ClCap_Sys_T_OfficeOpn_W" = 13670.65   $ Sizing
 "ClCap_Sys_T_OfficeSm_E" = 12399.87   $ Sizing
 "ClCap_Sys_T_OfficeSm_N" = 5554.174   $ Sizing
 "ClCap_Sys_T_OfficeSm_S" = 13547.67   $ Sizing
 "ClCap_Sys_T_OfficeSm_W" = 11890.73   $ Sizing
 "ClCap_Sys_T_Restrm_C" = 2928.947   $ Sizing
 "ClCap_Sys_T_StorSm_E" = 3218.981   $ Sizing
 "ClCap_Sys_T_StorSm_N" = 2000.492   $ Sizing
 "ClCap_Sys_T_StorSm_S" = 3448.914   $ Sizing
 "ClCap_Sys_T_StorSm_W" = 3205.79   $ Sizing
 "HtCap_Sys_L_Break_C" = -16074.92   $ Sizing
 "HtCap_Sys_L_CompDC_C" = -4239.473   $ Sizing
 "HtCap_Sys_L_Conf_C" = -12125.14   $ Sizing
 "HtCap_Sys_L_CopyRm_C" = -3464.981   $ Sizing
 "HtCap_Sys_L_Hall_E" = -3047.12   $ Sizing
 "HtCap_Sys_L_Hall_N" = -1966.313   $ Sizing
 "HtCap_Sys_L_Hall_S" = -3357.738   $ Sizing
 "HtCap_Sys_L_Hall_W" = -3155.106   $ Sizing
 "HtCap_Sys_L_LobWait_E" = -8111.757   $ Sizing
 "HtCap_Sys_L_LobWait_N" = -5284.535   $ Sizing
 "HtCap_Sys_L_LobWait_S" = -8583.699   $ Sizing
 "HtCap_Sys_L_LobWait_W" = -8111.064   $ Sizing
 "HtCap_Sys_L_MechElec_C" = -2988.495   $ Sizing
 "HtCap_Sys_L_OfficeOpn_C" = -2322.994   $ Sizing
 "HtCap_Sys_L_OfficeOpn_E" = -15787.05   $ Sizing
 "HtCap_Sys_L_OfficeOpn_N" = -8659.071   $ Sizing
 "HtCap_Sys_L_OfficeOpn_S" = -15347.62   $ Sizing
 "HtCap_Sys_L_OfficeOpn_W" = -15024.82   $ Sizing
 "HtCap_Sys_L_OfficeSm_E" = -12923.25   $ Sizing
 "HtCap_Sys_L_OfficeSm_N" = -6370.285   $ Sizing
 "HtCap_Sys_L_OfficeSm_S" = -12773.83   $ Sizing
 "HtCap_Sys_L_OfficeSm_W" = -12489.19   $ Sizing
 "HtCap_Sys_L_Restrm_C" = -3042.617   $ Sizing
 "HtCap_Sys_L_StorSm_C" = -1281.901   $ Sizing
 "HtCap_Sys_L_StorSm_E" = -3051.892   $ Sizing
 "HtCap_Sys_L_StorSm_N" = -2624.11   $ Sizing
 "HtCap_Sys_L_StorSm_S" = -3215.14   $ Sizing
 "HtCap_Sys_L_StorSm_W" = -3141.098   $ Sizing
 "HtCap_Sys_T_Conf_C" = -12460.55   $ Sizing
 "HtCap_Sys_T_Hall_E" = -3971.351   $ Sizing
 "HtCap_Sys_T_Hall_N" = -2072.433   $ Sizing
 "HtCap_Sys_T_Hall_S" = -4366.779   $ Sizing
 "HtCap_Sys_T_Hall_W" = -3926.644   $ Sizing
 "HtCap_Sys_T_OfficeOpn_C" = -2497.703   $ Sizing
 "HtCap_Sys_T_OfficeOpn_E" = -17767.12   $ Sizing
 "HtCap_Sys_T_OfficeOpn_N" = -10116.41   $ Sizing
 "HtCap_Sys_T_OfficeOpn_S" = -18331.09   $ Sizing
 "HtCap_Sys_T_OfficeOpn_W" = -16638.26   $ Sizing
 "HtCap_Sys_T_OfficeSm_E" = -14666.15   $ Sizing
 "HtCap_Sys_T_OfficeSm_N" = -7721.791   $ Sizing
 "HtCap_Sys_T_OfficeSm_S" = -15743.15   $ Sizing
 "HtCap_Sys_T_OfficeSm_W" = -14163.6   $ Sizing
 "HtCap_Sys_T_Restrm_C" = -3518.386   $ Sizing
 "HtCap_Sys_T_StorSm_E" = -4162.301   $ Sizing
 "HtCap_Sys_T_StorSm_N" = -2915.335   $ Sizing
 "HtCap_Sys_T_StorSm_S" = -4325.367   $ Sizing
 "HtCap_Sys_T_StorSm_W" = -4138.144   $ Sizing
..

##include Templates\OfS_DX_SZ.inp
END ..
COMPUTE ..
STOP ..
