
Start DOESIM : Storage capacity =  75000000
Starting LOADS   : SAVE-FILES is On , weather is CZ11RED-BLUFF-MUNICI
Finished LOADS    BDL  1 : Memory (wds) =    279142, Time (sec) =    1.94
Starting REPORT  
Finished REPORT   BDL  1 : Memory (wds) =    548621, Time (sec) =    0.59
Starting HVAC    : SAVE-FILES is On , weather is CZ11RED-BLUFF-MUNICI
*** ERRORS or WARNINGS from HVAC     program. Examine output file for details.
Finished HVAC     BDL  1 : Memory (wds) =    483248, Time (sec) =    6.74
Starting REPORT  
Finished REPORT   BDL  1 : Memory (wds) =    850229, Time (sec) =    0.60
Starting HOURLY-R
Finished HOURLY-R BDL  1 : Memory (wds) =   1086482, Time (sec) =    0.14
Starting ECONOMIC
Finished ECONOMIC BDL  1 : Memory (wds) =      1034, Time (sec) =    0.03
End   DOESIM : Total elapsed time of     10.0 seconds
RUN COMPLETE
