
Start DOESIM : Storage capacity =  75000000
Starting LOADS   : SAVE-FILES is On , weather is CZ01ARCATA-AP       
Finished LOADS    BDL  1 : Memory (wds) =    278901, Time (sec) =    2.01
Starting REPORT  
Finished REPORT   BDL  1 : Memory (wds) =    548154, Time (sec) =    0.59
Starting HVAC    : SAVE-FILES is On , weather is CZ01ARCATA-AP       
*** ERRORS or WARNINGS from HVAC     program. Examine output file for details.
Finished HVAC     BDL  1 : Memory (wds) =    483017, Time (sec) =    4.81
Starting REPORT  
Finished REPORT   BDL  1 : Memory (wds) =    782506, Time (sec) =    0.49
Starting HOURLY-R
Finished HOURLY-R BDL  1 : Memory (wds) =   1067791, Time (sec) =    0.14
Starting ECONOMIC
Finished ECONOMIC BDL  1 : Memory (wds) =      1034, Time (sec) =    0.03
End   DOESIM : Total elapsed time of      8.1 seconds
RUN COMPLETE
