
Start DOESIM : Storage capacity =  75000000
Starting LOADS   : SAVE-FILES is On , weather is CZ01ARCATA-AP       
Finished LOADS    BDL  1 : Memory (wds) =    279341, Time (sec) =    2.00
Starting REPORT  
Finished REPORT   BDL  1 : Memory (wds) =    548820, Time (sec) =    0.60
Starting HVAC    : SAVE-FILES is On , weather is CZ01ARCATA-AP       
*** ERRORS or WARNINGS from HVAC     program. Examine output file for details.
Finished HVAC     BDL  1 : Memory (wds) =    484812, Time (sec) =    8.41
Starting REPORT  
Finished REPORT   BDL  1 : Memory (wds) =    861690, Time (sec) =    0.61
Starting HOURLY-R
Finished HOURLY-R BDL  1 : Memory (wds) =   1093093, Time (sec) =    0.14
Starting ECONOMIC
Finished ECONOMIC BDL  1 : Memory (wds) =      1034, Time (sec) =    0.04
End   DOESIM : Total elapsed time of     11.8 seconds
RUN COMPLETE
