INPUT ..

##fileprefix C:\Users\jglasskatz\MASControl3\
##set1 IsSizing FALSE
##set1 CoolType DX
##set1 HeatType FURNACE
##set1 EU_HrRepVar 0
##set1 BldgVint 2015
##set1 BldgLoc CZ04

 ##set1 mBFMult 1   $ IP Tech: RefgChg-NRes-Std

PARAMETER
 "AltFactor" = 1.00501   $ IP Non-Tech
 "BF_fFlow" = SpltAC1Sp-ge45_BF_fFlow   $ Msr (Multi)TechID: StdNResSplitAC-45to55
 "BF_fT" = SpltAC1Sp-ge45_BF_fT   $ Msr (Multi)TechID: StdNResSplitAC-45to55
 "BldgEconoFlag" = 1   $ IP Non-Tech
 "Break_EWSF" = 1   $ IP Non-Tech
 "Break_LWSF" = 1.1   $ IP Non-Tech
 "CDD_DBHi10" = 82   $ IP Non-Tech
 "CDD_DBHi7" = 91   $ IP Non-Tech
 "CDD_DBHi8" = 88   $ IP Non-Tech
 "CDD_DBHi9" = 95   $ IP Non-Tech
 "CDD_DBRange10" = 29   $ IP Non-Tech
 "CDD_DBRange7" = 33   $ IP Non-Tech
 "CDD_DBRange8" = 27   $ IP Non-Tech
 "CDD_DBRange9" = 35   $ IP Non-Tech
 "CDD_Day10" = 15   $ IP Non-Tech
 "CDD_Day7" = 16   $ IP Non-Tech
 "CDD_Day8" = 20   $ IP Non-Tech
 "CDD_Day9" = 17   $ IP Non-Tech
 "CDD_HrHi10" = 13   $ IP Non-Tech
 "CDD_HrHi7" = 15   $ IP Non-Tech
 "CDD_HrHi8" = 14   $ IP Non-Tech
 "CDD_HrHi9" = 15   $ IP Non-Tech
 "CDD_HrLo10" = 3   $ IP Non-Tech
 "CDD_HrLo7" = 3   $ IP Non-Tech
 "CDD_HrLo8" = 1   $ IP Non-Tech
 "CDD_HrLo9" = 7   $ IP Non-Tech
 "CDD_WB10" = 63.1697731   $ IP Non-Tech
 "CDD_WB7" = 68.42946625   $ IP Non-Tech
 "CDD_WB8" = 67.10523987   $ IP Non-Tech
 "CDD_WB9" = 68.06200409   $ IP Non-Tech
 "CEIR_fPLR_Hot" = SpltAC1Sp-ge45_CEIR_fPLR_Hot   $ Msr (Multi)TechID: StdNResSplitAC-45to55
 "CEIR_fPLR_Mod" = SpltAC1Sp-ge45_CEIR_fPLR_Mod   $ Msr (Multi)TechID: StdNResSplitAC-45to55
 "CEIR_fPLR_Tem" = SpltAC1Sp-ge45_CEIR_fPLR_Tem   $ Msr (Multi)TechID: StdNResSplitAC-45to55
 "CLoss_fPLR_Hot" = SpltAC1Sp-ge45_CLoss_fPLR_Hot   $ Msr (Multi)TechID: StdNResSplitAC-45to55
 "CLoss_fPLR_Mod" = SpltAC1Sp-ge45_CLoss_fPLR_Mod   $ Msr (Multi)TechID: StdNResSplitAC-45to55
 "CLoss_fPLR_Tem" = SpltAC1Sp-ge45_CLoss_fPLR_Tem   $ Msr (Multi)TechID: StdNResSplitAC-45to55
 "COP47" = 0   $ Msr (Multi)TechID: StdNResSplitAC-45to55
 "CZ_Category" = Mod   $ IP Non-Tech
 "CapRange" = ge45   $ Msr (Multi)TechID: StdNResSplitAC-45to55
 "CfmPerBtuh" = 0.03263   $ Msr (Multi)TechID: StdNResSplitAC-45to55
 "ChwVintEconoFlag" = 1   $ IP Non-Tech
 "ClCap_fT" = SpltAC1Sp-ge45_ClCap_fT   $ Msr (Multi)TechID: StdNResSplitAC-45to55
 "ClSH_fT" = SpltAC1Sp-ge45_ClSH_fT   $ Msr (Multi)TechID: StdNResSplitAC-45to55
 "CoilBF" = 0.106518182   $ Msr (Multi)TechID: StdNResSplitAC-45to55
 "CompRoomData_EWSF" = 5   $ IP Non-Tech
 "CompRoomData_LWSF" = 1.05   $ IP Non-Tech
 "CondWPerBtuh" = 0   $ Msr (Multi)TechID: StdNResSplitAC-45to55
 "Conference_EWSF" = 1   $ IP Non-Tech
 "Conference_LWSF" = 1.4   $ IP Non-Tech
 "CoolSensCap" = 0.759218182   $ Msr (Multi)TechID: StdNResSplitAC-45to55
 "CoolSetT" = 45   $ IP Non-Tech
 "CoolType" = DX   $ IP Non-Tech
 "CoolingEIR" = 0.2466   $ Msr (Multi)TechID: StdNResSplitAC-45to55
 "CopyRoom_EWSF" = 1.5   $ IP Non-Tech
 "CopyRoom_LWSF" = 1.3   $ IP Non-Tech
 "CrnkEIR" = 0.002466   $ Msr (Multi)TechID: StdNResSplitAC-45to55
 "CrnkMaxT" = 50   $ Msr (Multi)TechID: StdNResSplitAC-45to55
 "DXType" = SplitSEER   $ Msr (Multi)TechID: StdNResSplitAC-45to55
 "DesCoolT" = 75   $ IP Non-Tech
 "DesHeatT" = 73   $ IP Non-Tech
 "EER" = 11.81793103   $ Msr (Multi)TechID: StdNResSplitAC-45to55
 "EIR_fT" = SpltAC1Sp-ge45_EIR_fT   $ Msr (Multi)TechID: StdNResSplitAC-45to55
 "EconoCtrl" = FIXED   $ Msr (Multi)TechID: StdNResSplitAC-45to55
 "EconoEnthLimit" = 28   $ IP Non-Tech
 "EconoTempLimit" = 73   $ IP Non-Tech
 "Elevation" = 135   $ IP Non-Tech
 "FanEirPlr" = TwoSpeedFan   $ Msr (Multi)TechID: StdNResSplitAC-45to55
 "FanWPerCfm" = 0.294   $ Msr (Multi)TechID: StdNResSplitAC-45to55
 "HDD_CloudAmt1" = 0   $ IP Non-Tech
 "HDD_DBHi1" = 57   $ IP Non-Tech
 "HDD_DBRange1" = 28.92485619   $ IP Non-Tech
 "HDD_Day1" = 15   $ IP Non-Tech
 "HDD_HrHi1" = 16   $ IP Non-Tech
 "HDD_HrLo1" = 4   $ IP Non-Tech
 "HDD_WB1" = 44.7   $ IP Non-Tech
 "HDD_WindSpd1" = 13.8   $ IP Non-Tech
 "HIR_fT" = 0   $ Msr (Multi)TechID: StdNResSplitAC-45to55
 "HSPF" = 0   $ Msr (Multi)TechID: StdNResSplitAC-45to55
 "Hall_EWSF" = 0.2   $ IP Non-Tech
 "Hall_LWSF" = 0.6   $ IP Non-Tech
 "HeatSrc" = FURNACE   $ IP Non-Tech
 "HeatSrcTU" = HEAT-PUMP   $ IP Non-Tech
 "HeatType" = GasFurn   $ IP Non-Tech
 "HeatTypeTU" = HEAT-PUMP   $ IP Non-Tech
 "HtCap_fT" = 0   $ Msr (Multi)TechID: StdNResSplitAC-45to55
 "HtCoolCapRatio" = 0   $ Msr (Multi)TechID: StdNResSplitAC-45to55
 "HtgEIR" = 0   $ Msr (Multi)TechID: StdNResSplitAC-45to55
 "IndoorFanMode" = CONTINUOUS   $ IP Non-Tech
 "KT_TransferAir" = Yes   $ IP Non-Tech
 "Latitude" = 37.4   $ IP Non-Tech
 "LobbyWaiting_EWSF" = 0.5   $ IP Non-Tech
 "LobbyWaiting_LWSF" = 1.3   $ IP Non-Tech
 "Longitude" = 122   $ IP Non-Tech
 "LowSpdCapRatio" = 1   $ Msr (Multi)TechID: StdNResSplitAC-45to55
 "LowSpdCfmRatio" = 1   $ Msr (Multi)TechID: StdNResSplitAC-45to55
 "MZFanMechEff" = 0.58   $ IP Non-Tech
 "MZHasRetFan" = FALSE   $ IP Non-Tech
 "MZ_RFanWPerCfm" = 0.33   $ IP Non-Tech
 "MZ_SFanWPerCfm" = 0.75   $ IP Non-Tech
 "MZ_SupFanStatic" = 2.25   $ IP Non-Tech
 "MaxOAFrac" = 1   $ Msr (Multi)TechID: StdNResSplitAC-45to55
 "MaxSupT_MZ" = 100   $ IP Non-Tech
 "MaxSupT_SZ" = 100   $ IP Non-Tech
 "MaxSupT_TU" = 90   $ IP Non-Tech
 "MechElecRoom_EWSF" = 0.2   $ IP Non-Tech
 "MechElecRoom_LWSF" = 0.7   $ IP Non-Tech
 "MinCfmPerSF" = 0.4   $ IP Non-Tech
 "MinSupT" = 55   $ IP Non-Tech
 "NumStages" = 1   $ Msr (Multi)TechID: StdNResSplitAC-45to55
 "OccCoolT" = 76   $ IP Non-Tech
 "OccHeatT" = 72   $ IP Non-Tech
 "OfficeOpen_EWSF" = 1.5   $ IP Non-Tech
 "OfficeOpen_LWSF" = 1.05   $ IP Non-Tech
 "OfficeSmall_EWSF" = 1.5   $ IP Non-Tech
 "OfficeSmall_LWSF" = 1.3   $ IP Non-Tech
 "PkgDxVintEconoFlag" = 1   $ IP Non-Tech
 "Restroom_EWSF" = 0.2   $ IP Non-Tech
 "Restroom_LWSF" = 0.6   $ IP Non-Tech
 "SEER" = 14   $ Msr (Multi)TechID: StdNResSplitAC-45to55
 "SZFanMechEff" = 0.58   $ IP Non-Tech
 "SZHasRetFan" = FALSE   $ IP Non-Tech
 "SZ_Is_2Spd" = TRUE   $ IP Non-Tech
 "SZ_SFanWPerCfm" = 0.46   $ IP Non-Tech
 "SZ_SupFanStatic" = 0.75   $ IP Non-Tech
 "Sector" = Any   $ Msr (Multi)TechID: StdNResSplitAC-45to55
 "StorageSmlCond_EWSF" = 0.2   $ IP Non-Tech
 "StorageSmlCond_LWSF" = 0.6   $ IP Non-Tech
 "SubType" = AC   $ Msr (Multi)TechID: StdNResSplitAC-45to55
 "T24GlzTbl" = TypeTbl   $ IP Non-Tech
 "TermUnitFanMechEff" = 1   $ IP Non-Tech
 "TermUnitFanMode" = INTERMITTENT   $ IP Non-Tech
 "TotCoolCap" = 52519.36364   $ Msr (Multi)TechID: StdNResSplitAC-45to55
 "TwrSetpt" = 80   $ IP Non-Tech
 "UnocCoolT" = 86   $ IP Non-Tech
 "UnocHeatT" = 62   $ IP Non-Tech
 "UseEconoVintApplic" = FALSE   $ Msr (Multi)TechID: StdNResSplitAC-45to55
 "WlhpVintEconoFlag" = 1   $ IP Non-Tech
 "DuctDT" = 1   $ IP Tech: ComDuctInsul-1
 "DuctAirLoss" = 0   $ IP Tech: ComDuctLeak-0
 "DuctLossOAFrac" = 0   $ IP Tech: ComDuctLeak-0
 "ComRoofInsCalc" = FromUo   $ IP Tech: ComRoofIns-WFrm-0.04
 "ComRoofInsR" = -999   $ IP Tech: ComRoofIns-WFrm-0.04
 "ComRoofUo" = 0.04   $ IP Tech: ComRoofIns-WFrm-0.04
 "ComEWInsCalc" = FromUo   $ IP Tech: ComWallIns-WFrm-0.06
 "ComEWInsR" = -999   $ IP Tech: ComWallIns-WFrm-0.06
 "ComEWUo" = 0.06   $ IP Tech: ComWallIns-WFrm-0.06
 "ComN_SHGC" = 0.25   $ IP Tech: NResWin-ComN-0.36-0.25
 "ComN_UFactor" = 0.36   $ IP Tech: NResWin-ComN-0.36-0.25
 "ComN_VisTrans" = 0.41   $ IP Tech: NResWin-ComN-0.36-0.25
 "ComN_WinCode" = G2668   $ IP Tech: NResWin-ComN-0.36-0.25
 "ComN_WinFrmFrac" = 0.17   $ IP Tech: NResWin-ComN-0.36-0.25
 "ComN_WinFrmU" = 0.3   $ IP Tech: NResWin-ComN-0.36-0.25
 "ComO_SHGC" = 0.25   $ IP Tech: NResWin-ComO-0.36-0.25
 "ComO_UFactor" = 0.36   $ IP Tech: NResWin-ComO-0.36-0.25
 "ComO_VisTrans" = 0.41   $ IP Tech: NResWin-ComO-0.36-0.25
 "ComO_WinCode" = G2668   $ IP Tech: NResWin-ComO-0.36-0.25
 "ComO_WinFrmFrac" = 0.17   $ IP Tech: NResWin-ComO-0.36-0.25
 "ComO_WinFrmU" = 0.3   $ IP Tech: NResWin-ComO-0.36-0.25
 "LtgMsrApplic" = ALL   $ IP Tech: NonResLtgRefPre
 "LtgSav_CFL" = 0   $ IP Tech: NonResLtgRefPre
 "LtgSav_EX" = 0   $ IP Tech: NonResLtgRefPre
 "LtgSav_HB" = 0   $ IP Tech: NonResLtgRefPre
 "LtgSav_LF" = 0   $ IP Tech: NonResLtgRefPre
 "LtgSav_SP" = 0   $ IP Tech: NonResLtgRefPre
 "CEIR_fPLR" = PSZ65to135_CEIR_fPLR   $ IP Tech: PkgAC2SpP-65to135-E11
 "CLoss_fPLR" = PSZ65to135_CLoss_fPLR   $ IP Tech: PkgAC2SpP-65to135-E11
 "COP" = -1   $ IP Tech: PkgAC2SpP-65to135-E11
 "HtgFuel" = Gas   $ IP Tech: PkgAC2SpP-65to135-E11
 "IEER" = 13.35   $ IP Tech: PkgAC2SpP-65to135-E11
 "NominalCap" = 15   $ IP Tech: PkgAC2SpP-65to135-E11
 "RatedEER" = 11   $ IP Tech: PkgAC2SpP-65to135-E11
 "RatedSupMtrClass" = Premium   $ IP Tech: PkgAC2SpP-65to135-E11
 "SizeRange" = 65to135   $ IP Tech: PkgAC2SpP-65to135-E11
 "SupMotEff" = 0.865   $ IP Tech: PkgAC2SpP-65to135-E11
 "Tier" = 0   $ IP Tech: PkgAC2SpP-65to135-E11
 "FanPwrMult" = 1   $ IP Tech: PkgFurn-0.80AFUE
 "FurnAFUE" = 0.8   $ IP Tech: PkgFurn-0.80AFUE
 "FurnEt" = 0.82   $ IP Tech: PkgFurn-0.80AFUE
 "FurnaceAuxKW" = 0.1   $ IP Tech: PkgFurn-0.80AFUE
 "HIR_fPLR" = Furnace-HIR-fPLR   $ IP Tech: PkgFurn-0.80AFUE
 "VSM" = FALSE   $ IP Tech: PkgFurn-0.80AFUE
 "BFMult" = 1   $ IP Tech: RefgChg-NRes-Std
 "CoolEirMult" = 1   $ IP Tech: RefgChg-NRes-Std
 "SensCoolCapMult" = 1   $ IP Tech: RefgChg-NRes-Std
 "TotCoolCapMult" = 1   $ IP Tech: RefgChg-NRes-Std
 "AltAdjFactor" = 1.005014   $ Sizing
 "CAssFlo_L_Break_CZn" = 377.9545   $ Sizing
 "CAssFlo_L_CompDC_CZn" = 135.1201   $ Sizing
 "CAssFlo_L_Conf_CZn" = 211.125   $ Sizing
 "CAssFlo_L_CopyRm_CZn" = 79.09536   $ Sizing
 "CAssFlo_L_Hall_EZn" = 78.1956   $ Sizing
 "CAssFlo_L_Hall_NZn" = 37.31183   $ Sizing
 "CAssFlo_L_Hall_SZn" = 90.61178   $ Sizing
 "CAssFlo_L_Hall_WZn" = 92.45661   $ Sizing
 "CAssFlo_L_LobWait_EZn" = 183.9072   $ Sizing
 "CAssFlo_L_LobWait_NZn" = 110.4745   $ Sizing
 "CAssFlo_L_LobWait_SZn" = 222.6556   $ Sizing
 "CAssFlo_L_LobWait_WZn" = 237.4694   $ Sizing
 "CAssFlo_L_MechElec_CZn" = 45.5192   $ Sizing
 "CAssFlo_L_OfficeOpn_CZn" = 52.41952   $ Sizing
 "CAssFlo_L_OfficeOpn_EZn" = 366.254   $ Sizing
 "CAssFlo_L_OfficeOpn_NZn" = 267.4525   $ Sizing
 "CAssFlo_L_OfficeOpn_SZn" = 409.8014   $ Sizing
 "CAssFlo_L_OfficeOpn_WZn" = 432.3196   $ Sizing
 "CAssFlo_L_OfficeSm_EZn" = 304.5972   $ Sizing
 "CAssFlo_L_OfficeSm_NZn" = 208.2134   $ Sizing
 "CAssFlo_L_OfficeSm_SZn" = 347.9491   $ Sizing
 "CAssFlo_L_OfficeSm_WZn" = 369.1641   $ Sizing
 "CAssFlo_L_Restrm_CZn" = 63.79181   $ Sizing
 "CAssFlo_L_StorSm_CZn" = 26.81605   $ Sizing
 "CAssFlo_L_StorSm_EZn" = 75.13345   $ Sizing
 "CAssFlo_L_StorSm_NZn" = 32.50417   $ Sizing
 "CAssFlo_L_StorSm_SZn" = 88.82125   $ Sizing
 "CAssFlo_L_StorSm_WZn" = 86.6964   $ Sizing
 "CAssFlo_T_Conf_CZn" = 206.6002   $ Sizing
 "CAssFlo_T_Hall_EZn" = 90.42566   $ Sizing
 "CAssFlo_T_Hall_NZn" = 48.02584   $ Sizing
 "CAssFlo_T_Hall_SZn" = 102.7992   $ Sizing
 "CAssFlo_T_Hall_WZn" = 100.382   $ Sizing
 "CAssFlo_T_OfficeOpn_CZn" = 48.4934   $ Sizing
 "CAssFlo_T_OfficeOpn_EZn" = 386.4519   $ Sizing
 "CAssFlo_T_OfficeOpn_NZn" = 283.2791   $ Sizing
 "CAssFlo_T_OfficeOpn_SZn" = 438.2766   $ Sizing
 "CAssFlo_T_OfficeOpn_WZn" = 443.6748   $ Sizing
 "CAssFlo_T_OfficeSm_EZn" = 326.3218   $ Sizing
 "CAssFlo_T_OfficeSm_NZn" = 223.853   $ Sizing
 "CAssFlo_T_OfficeSm_SZn" = 374.7527   $ Sizing
 "CAssFlo_T_OfficeSm_WZn" = 380.3023   $ Sizing
 "CAssFlo_T_Restrm_CZn" = 105.8228   $ Sizing
 "CAssFlo_T_StorSm_EZn" = 91.52354   $ Sizing
 "CAssFlo_T_StorSm_NZn" = 44.17676   $ Sizing
 "CAssFlo_T_StorSm_SZn" = 106.5048   $ Sizing
 "CAssFlo_T_StorSm_WZn" = 104.0727   $ Sizing
 "CHRtFlo_Sys_L_Break_C" = 377.9545   $ Sizing
 "CHRtFlo_Sys_L_CompDC_C" = 170.5883   $ Sizing
 "CHRtFlo_Sys_L_Conf_C" = 225.5946   $ Sizing
 "CHRtFlo_Sys_L_CopyRm_C" = 81.32557   $ Sizing
 "CHRtFlo_Sys_L_Hall_E" = 103.9676   $ Sizing
 "CHRtFlo_Sys_L_Hall_N" = 42.57196   $ Sizing
 "CHRtFlo_Sys_L_Hall_S" = 108.9514   $ Sizing
 "CHRtFlo_Sys_L_Hall_W" = 102.4611   $ Sizing
 "CHRtFlo_Sys_L_LobWait_E" = 247.1942   $ Sizing
 "CHRtFlo_Sys_L_LobWait_N" = 110.4745   $ Sizing
 "CHRtFlo_Sys_L_LobWait_S" = 252.4721   $ Sizing
 "CHRtFlo_Sys_L_LobWait_W" = 247.0747   $ Sizing
 "CHRtFlo_Sys_L_MechElec_C" = 73.21023   $ Sizing
 "CHRtFlo_Sys_L_OfficeOpn_C" = 74.62197   $ Sizing
 "CHRtFlo_Sys_L_OfficeOpn_E" = 485.3997   $ Sizing
 "CHRtFlo_Sys_L_OfficeOpn_N" = 276.3373   $ Sizing
 "CHRtFlo_Sys_L_OfficeOpn_S" = 470.8738   $ Sizing
 "CHRtFlo_Sys_L_OfficeOpn_W" = 471.6936   $ Sizing
 "CHRtFlo_Sys_L_OfficeSm_E" = 408.0472   $ Sizing
 "CHRtFlo_Sys_L_OfficeSm_N" = 218.5613   $ Sizing
 "CHRtFlo_Sys_L_OfficeSm_S" = 409.4487   $ Sizing
 "CHRtFlo_Sys_L_OfficeSm_W" = 408.5285   $ Sizing
 "CHRtFlo_Sys_L_Restrm_C" = 85.85593   $ Sizing
 "CHRtFlo_Sys_L_StorSm_C" = 37.52768   $ Sizing
 "CHRtFlo_Sys_L_StorSm_E" = 101.3569   $ Sizing
 "CHRtFlo_Sys_L_StorSm_N" = 55.65122   $ Sizing
 "CHRtFlo_Sys_L_StorSm_S" = 102.4707   $ Sizing
 "CHRtFlo_Sys_L_StorSm_W" = 94.52348   $ Sizing
 "CHRtFlo_Sys_T_Conf_C" = 222.2148   $ Sizing
 "CHRtFlo_Sys_T_Hall_E" = 113.093   $ Sizing
 "CHRtFlo_Sys_T_Hall_N" = 48.02584   $ Sizing
 "CHRtFlo_Sys_T_Hall_S" = 118.8883   $ Sizing
 "CHRtFlo_Sys_T_Hall_W" = 107.9593   $ Sizing
 "CHRtFlo_Sys_T_OfficeOpn_C" = 66.05338   $ Sizing
 "CHRtFlo_Sys_T_OfficeOpn_E" = 471.9934   $ Sizing
 "CHRtFlo_Sys_T_OfficeOpn_N" = 283.2791   $ Sizing
 "CHRtFlo_Sys_T_OfficeOpn_S" = 484.5587   $ Sizing
 "CHRtFlo_Sys_T_OfficeOpn_W" = 454.8863   $ Sizing
 "CHRtFlo_Sys_T_OfficeSm_E" = 403.0337   $ Sizing
 "CHRtFlo_Sys_T_OfficeSm_N" = 223.853   $ Sizing
 "CHRtFlo_Sys_T_OfficeSm_S" = 426.4552   $ Sizing
 "CHRtFlo_Sys_T_OfficeSm_W" = 398.1752   $ Sizing
 "CHRtFlo_Sys_T_Restrm_C" = 129.8633   $ Sizing
 "CHRtFlo_Sys_T_StorSm_E" = 112.9685   $ Sizing
 "CHRtFlo_Sys_T_StorSm_N" = 58.09934   $ Sizing
 "CHRtFlo_Sys_T_StorSm_S" = 115.891   $ Sizing
 "CHRtFlo_Sys_T_StorSm_W" = 106.8405   $ Sizing
 "CRtdFlo_Sys_L_Break_C" = 377.9545   $ Sizing
 "CRtdFlo_Sys_L_CompDC_C" = 135.1201   $ Sizing
 "CRtdFlo_Sys_L_Conf_C" = 211.125   $ Sizing
 "CRtdFlo_Sys_L_CopyRm_C" = 79.09536   $ Sizing
 "CRtdFlo_Sys_L_Hall_E" = 78.1956   $ Sizing
 "CRtdFlo_Sys_L_Hall_N" = 37.31183   $ Sizing
 "CRtdFlo_Sys_L_Hall_S" = 90.61178   $ Sizing
 "CRtdFlo_Sys_L_Hall_W" = 92.45661   $ Sizing
 "CRtdFlo_Sys_L_LobWait_E" = 183.9072   $ Sizing
 "CRtdFlo_Sys_L_LobWait_N" = 110.4745   $ Sizing
 "CRtdFlo_Sys_L_LobWait_S" = 222.6556   $ Sizing
 "CRtdFlo_Sys_L_LobWait_W" = 237.4694   $ Sizing
 "CRtdFlo_Sys_L_MechElec_C" = 45.5192   $ Sizing
 "CRtdFlo_Sys_L_OfficeOpn_C" = 52.41952   $ Sizing
 "CRtdFlo_Sys_L_OfficeOpn_E" = 366.254   $ Sizing
 "CRtdFlo_Sys_L_OfficeOpn_N" = 267.4525   $ Sizing
 "CRtdFlo_Sys_L_OfficeOpn_S" = 409.8014   $ Sizing
 "CRtdFlo_Sys_L_OfficeOpn_W" = 432.3196   $ Sizing
 "CRtdFlo_Sys_L_OfficeSm_E" = 304.5972   $ Sizing
 "CRtdFlo_Sys_L_OfficeSm_N" = 208.2134   $ Sizing
 "CRtdFlo_Sys_L_OfficeSm_S" = 347.9491   $ Sizing
 "CRtdFlo_Sys_L_OfficeSm_W" = 369.1641   $ Sizing
 "CRtdFlo_Sys_L_Restrm_C" = 63.79181   $ Sizing
 "CRtdFlo_Sys_L_StorSm_C" = 26.81605   $ Sizing
 "CRtdFlo_Sys_L_StorSm_E" = 75.13345   $ Sizing
 "CRtdFlo_Sys_L_StorSm_N" = 32.50417   $ Sizing
 "CRtdFlo_Sys_L_StorSm_S" = 88.82125   $ Sizing
 "CRtdFlo_Sys_L_StorSm_W" = 86.6964   $ Sizing
 "CRtdFlo_Sys_T_Conf_C" = 206.6002   $ Sizing
 "CRtdFlo_Sys_T_Hall_E" = 90.42566   $ Sizing
 "CRtdFlo_Sys_T_Hall_N" = 48.02584   $ Sizing
 "CRtdFlo_Sys_T_Hall_S" = 102.7992   $ Sizing
 "CRtdFlo_Sys_T_Hall_W" = 100.382   $ Sizing
 "CRtdFlo_Sys_T_OfficeOpn_C" = 48.4934   $ Sizing
 "CRtdFlo_Sys_T_OfficeOpn_E" = 386.4519   $ Sizing
 "CRtdFlo_Sys_T_OfficeOpn_N" = 283.2791   $ Sizing
 "CRtdFlo_Sys_T_OfficeOpn_S" = 438.2766   $ Sizing
 "CRtdFlo_Sys_T_OfficeOpn_W" = 443.6748   $ Sizing
 "CRtdFlo_Sys_T_OfficeSm_E" = 326.3218   $ Sizing
 "CRtdFlo_Sys_T_OfficeSm_N" = 223.853   $ Sizing
 "CRtdFlo_Sys_T_OfficeSm_S" = 374.7527   $ Sizing
 "CRtdFlo_Sys_T_OfficeSm_W" = 380.3023   $ Sizing
 "CRtdFlo_Sys_T_Restrm_C" = 105.8228   $ Sizing
 "CRtdFlo_Sys_T_StorSm_E" = 91.52354   $ Sizing
 "CRtdFlo_Sys_T_StorSm_N" = 44.17676   $ Sizing
 "CRtdFlo_Sys_T_StorSm_S" = 106.5048   $ Sizing
 "CRtdFlo_Sys_T_StorSm_W" = 104.0727   $ Sizing
 "CSupFlo_Sys_L_Break_C" = 377.9545   $ Sizing
 "CSupFlo_Sys_L_CompDC_C" = 135.1201   $ Sizing
 "CSupFlo_Sys_L_Conf_C" = 211.125   $ Sizing
 "CSupFlo_Sys_L_CopyRm_C" = 79.09536   $ Sizing
 "CSupFlo_Sys_L_Hall_E" = 78.1956   $ Sizing
 "CSupFlo_Sys_L_Hall_N" = 37.31183   $ Sizing
 "CSupFlo_Sys_L_Hall_S" = 90.61178   $ Sizing
 "CSupFlo_Sys_L_Hall_W" = 92.45661   $ Sizing
 "CSupFlo_Sys_L_LobWait_E" = 183.9072   $ Sizing
 "CSupFlo_Sys_L_LobWait_N" = 110.4745   $ Sizing
 "CSupFlo_Sys_L_LobWait_S" = 222.6556   $ Sizing
 "CSupFlo_Sys_L_LobWait_W" = 237.4694   $ Sizing
 "CSupFlo_Sys_L_MechElec_C" = 45.5192   $ Sizing
 "CSupFlo_Sys_L_OfficeOpn_C" = 52.41952   $ Sizing
 "CSupFlo_Sys_L_OfficeOpn_E" = 366.254   $ Sizing
 "CSupFlo_Sys_L_OfficeOpn_N" = 267.4525   $ Sizing
 "CSupFlo_Sys_L_OfficeOpn_S" = 409.8014   $ Sizing
 "CSupFlo_Sys_L_OfficeOpn_W" = 432.3196   $ Sizing
 "CSupFlo_Sys_L_OfficeSm_E" = 304.5972   $ Sizing
 "CSupFlo_Sys_L_OfficeSm_N" = 208.2134   $ Sizing
 "CSupFlo_Sys_L_OfficeSm_S" = 347.9491   $ Sizing
 "CSupFlo_Sys_L_OfficeSm_W" = 369.1641   $ Sizing
 "CSupFlo_Sys_L_Restrm_C" = 63.79181   $ Sizing
 "CSupFlo_Sys_L_StorSm_C" = 26.81605   $ Sizing
 "CSupFlo_Sys_L_StorSm_E" = 75.13345   $ Sizing
 "CSupFlo_Sys_L_StorSm_N" = 32.50417   $ Sizing
 "CSupFlo_Sys_L_StorSm_S" = 88.82125   $ Sizing
 "CSupFlo_Sys_L_StorSm_W" = 86.6964   $ Sizing
 "CSupFlo_Sys_T_Conf_C" = 206.6002   $ Sizing
 "CSupFlo_Sys_T_Hall_E" = 90.42566   $ Sizing
 "CSupFlo_Sys_T_Hall_N" = 48.02584   $ Sizing
 "CSupFlo_Sys_T_Hall_S" = 102.7992   $ Sizing
 "CSupFlo_Sys_T_Hall_W" = 100.382   $ Sizing
 "CSupFlo_Sys_T_OfficeOpn_C" = 48.4934   $ Sizing
 "CSupFlo_Sys_T_OfficeOpn_E" = 386.4519   $ Sizing
 "CSupFlo_Sys_T_OfficeOpn_N" = 283.2791   $ Sizing
 "CSupFlo_Sys_T_OfficeOpn_S" = 438.2766   $ Sizing
 "CSupFlo_Sys_T_OfficeOpn_W" = 443.6748   $ Sizing
 "CSupFlo_Sys_T_OfficeSm_E" = 326.3218   $ Sizing
 "CSupFlo_Sys_T_OfficeSm_N" = 223.853   $ Sizing
 "CSupFlo_Sys_T_OfficeSm_S" = 374.7527   $ Sizing
 "CSupFlo_Sys_T_OfficeSm_W" = 380.3023   $ Sizing
 "CSupFlo_Sys_T_Restrm_C" = 105.8228   $ Sizing
 "CSupFlo_Sys_T_StorSm_E" = 91.52354   $ Sizing
 "CSupFlo_Sys_T_StorSm_N" = 44.17676   $ Sizing
 "CSupFlo_Sys_T_StorSm_S" = 106.5048   $ Sizing
 "CSupFlo_Sys_T_StorSm_W" = 104.0727   $ Sizing
 "ClCap_Sys_L_Break_C" = 12893.79   $ Sizing
 "ClCap_Sys_L_CompDC_C" = 4609.578   $ Sizing
 "ClCap_Sys_L_Conf_C" = 9166.766   $ Sizing
 "ClCap_Sys_L_CopyRm_C" = 2698.312   $ Sizing
 "ClCap_Sys_L_Hall_E" = 2667.617   $ Sizing
 "ClCap_Sys_L_Hall_N" = 1272.881   $ Sizing
 "ClCap_Sys_L_Hall_S" = 3091.19   $ Sizing
 "ClCap_Sys_L_Hall_W" = 3154.126   $ Sizing
 "ClCap_Sys_L_LobWait_E" = 6273.932   $ Sizing
 "ClCap_Sys_L_LobWait_N" = 3768.799   $ Sizing
 "ClCap_Sys_L_LobWait_S" = 7595.823   $ Sizing
 "ClCap_Sys_L_LobWait_W" = 8101.189   $ Sizing
 "ClCap_Sys_L_MechElec_C" = 1552.872   $ Sizing
 "ClCap_Sys_L_OfficeOpn_C" = 1788.274   $ Sizing
 "ClCap_Sys_L_OfficeOpn_E" = 12494.63   $ Sizing
 "ClCap_Sys_L_OfficeOpn_N" = 9124.051   $ Sizing
 "ClCap_Sys_L_OfficeOpn_S" = 13980.24   $ Sizing
 "ClCap_Sys_L_OfficeOpn_W" = 14748.44   $ Sizing
 "ClCap_Sys_L_OfficeSm_E" = 10391.23   $ Sizing
 "ClCap_Sys_L_OfficeSm_N" = 7103.129   $ Sizing
 "ClCap_Sys_L_OfficeSm_S" = 11870.17   $ Sizing
 "ClCap_Sys_L_OfficeSm_W" = 12593.91   $ Sizing
 "ClCap_Sys_L_Restrm_C" = 2176.236   $ Sizing
 "ClCap_Sys_L_StorSm_C" = 914.8205   $ Sizing
 "ClCap_Sys_L_StorSm_E" = 2563.152   $ Sizing
 "ClCap_Sys_L_StorSm_N" = 1108.869   $ Sizing
 "ClCap_Sys_L_StorSm_S" = 3030.107   $ Sizing
 "ClCap_Sys_L_StorSm_W" = 2957.619   $ Sizing
 "ClCap_Sys_T_Conf_C" = 8970.305   $ Sizing
 "ClCap_Sys_T_Hall_E" = 3084.841   $ Sizing
 "ClCap_Sys_T_Hall_N" = 1638.385   $ Sizing
 "ClCap_Sys_T_Hall_S" = 3506.961   $ Sizing
 "ClCap_Sys_T_Hall_W" = 3424.499   $ Sizing
 "ClCap_Sys_T_OfficeOpn_C" = 1654.336   $ Sizing
 "ClCap_Sys_T_OfficeOpn_E" = 13183.68   $ Sizing
 "ClCap_Sys_T_OfficeOpn_N" = 9663.973   $ Sizing
 "ClCap_Sys_T_OfficeOpn_S" = 14951.66   $ Sizing
 "ClCap_Sys_T_OfficeOpn_W" = 15135.82   $ Sizing
 "ClCap_Sys_T_OfficeSm_E" = 11132.36   $ Sizing
 "ClCap_Sys_T_OfficeSm_N" = 7636.669   $ Sizing
 "ClCap_Sys_T_OfficeSm_S" = 12784.56   $ Sizing
 "ClCap_Sys_T_OfficeSm_W" = 12973.89   $ Sizing
 "ClCap_Sys_T_Restrm_C" = 3610.11   $ Sizing
 "ClCap_Sys_T_StorSm_E" = 3122.295   $ Sizing
 "ClCap_Sys_T_StorSm_N" = 1507.075   $ Sizing
 "ClCap_Sys_T_StorSm_S" = 3633.376   $ Sizing
 "ClCap_Sys_T_StorSm_W" = 3550.406   $ Sizing
 "HtCap_Sys_L_Break_C" = -22257.25   $ Sizing
 "HtCap_Sys_L_CompDC_C" = -8299.511   $ Sizing
 "HtCap_Sys_L_Conf_C" = -13882.66   $ Sizing
 "HtCap_Sys_L_CopyRm_C" = -4967.238   $ Sizing
 "HtCap_Sys_L_Hall_E" = -3858.114   $ Sizing
 "HtCap_Sys_L_Hall_N" = -1860.189   $ Sizing
 "HtCap_Sys_L_Hall_S" = -3869.966   $ Sizing
 "HtCap_Sys_L_Hall_W" = -3746.208   $ Sizing
 "HtCap_Sys_L_LobWait_E" = -9871.656   $ Sizing
 "HtCap_Sys_L_LobWait_N" = -5959.855   $ Sizing
 "HtCap_Sys_L_LobWait_S" = -10061.38   $ Sizing
 "HtCap_Sys_L_LobWait_W" = -9906.673   $ Sizing
 "HtCap_Sys_L_MechElec_C" = -3342.151   $ Sizing
 "HtCap_Sys_L_OfficeOpn_C" = -2939.575   $ Sizing
 "HtCap_Sys_L_OfficeOpn_E" = -17707.27   $ Sizing
 "HtCap_Sys_L_OfficeOpn_N" = -11817.33   $ Sizing
 "HtCap_Sys_L_OfficeOpn_S" = -16957.11   $ Sizing
 "HtCap_Sys_L_OfficeOpn_W" = -17577.13   $ Sizing
 "HtCap_Sys_L_OfficeSm_E" = -14808.17   $ Sizing
 "HtCap_Sys_L_OfficeSm_N" = -9006.079   $ Sizing
 "HtCap_Sys_L_OfficeSm_S" = -14219.95   $ Sizing
 "HtCap_Sys_L_OfficeSm_W" = -14557.32   $ Sizing
 "HtCap_Sys_L_Restrm_C" = -3078.064   $ Sizing
 "HtCap_Sys_L_StorSm_C" = -1548.345   $ Sizing
 "HtCap_Sys_L_StorSm_E" = -3921.013   $ Sizing
 "HtCap_Sys_L_StorSm_N" = -2582.32   $ Sizing
 "HtCap_Sys_L_StorSm_S" = -3951.674   $ Sizing
 "HtCap_Sys_L_StorSm_W" = -3798.558   $ Sizing
 "HtCap_Sys_T_Conf_C" = -14047.77   $ Sizing
 "HtCap_Sys_T_Hall_E" = -4531.016   $ Sizing
 "HtCap_Sys_T_Hall_N" = -2294.485   $ Sizing
 "HtCap_Sys_T_Hall_S" = -4731.316   $ Sizing
 "HtCap_Sys_T_Hall_W" = -4358.212   $ Sizing
 "HtCap_Sys_T_OfficeOpn_C" = -2948.125   $ Sizing
 "HtCap_Sys_T_OfficeOpn_E" = -19250.74   $ Sizing
 "HtCap_Sys_T_OfficeOpn_N" = -12958.66   $ Sizing
 "HtCap_Sys_T_OfficeOpn_S" = -19672.52   $ Sizing
 "HtCap_Sys_T_OfficeOpn_W" = -18674.66   $ Sizing
 "HtCap_Sys_T_OfficeSm_E" = -15985.84   $ Sizing
 "HtCap_Sys_T_OfficeSm_N" = -10023.82   $ Sizing
 "HtCap_Sys_T_OfficeSm_S" = -16687.02   $ Sizing
 "HtCap_Sys_T_OfficeSm_W" = -15836.37   $ Sizing
 "HtCap_Sys_T_Restrm_C" = -5036.555   $ Sizing
 "HtCap_Sys_T_StorSm_E" = -4899.659   $ Sizing
 "HtCap_Sys_T_StorSm_N" = -3007.641   $ Sizing
 "HtCap_Sys_T_StorSm_S" = -4899.678   $ Sizing
 "HtCap_Sys_T_StorSm_W" = -4687.594   $ Sizing
..

##include Templates\OfS_DX_SZ.inp
END ..
COMPUTE ..
STOP ..
