
Start DOESIM : Storage capacity =  75000000
Starting LOADS   : SAVE-FILES is On , weather is CZ01ARCATA-AP       
Finished LOADS    BDL  1 : Memory (wds) =    170934, Time (sec) =    1.19
Starting REPORT  
Finished REPORT   BDL  1 : Memory (wds) =    329808, Time (sec) =    0.33
Starting HVAC    : SAVE-FILES is On , weather is CZ01ARCATA-AP       
*** ERRORS or WARNINGS from HVAC     program. Examine output file for details.
Finished HVAC     BDL  1 : Memory (wds) =    243757, Time (sec) =    2.66
Starting REPORT  
Finished REPORT   BDL  1 : Memory (wds) =    333580, Time (sec) =    0.14
Starting HOURLY-R
Finished HOURLY-R BDL  1 : Memory (wds) =    527893, Time (sec) =    0.14
Starting ECONOMIC
Finished ECONOMIC BDL  1 : Memory (wds) =      1034, Time (sec) =    0.03
End   DOESIM : Total elapsed time of      4.5 seconds
RUN COMPLETE
