INPUT ..

##fileprefix C:\Users\jglasskatz\MASControl3\
##set1 IsSizing FALSE
##set1 CoolType DX
##set1 HeatType FURNACE
##set1 EU_HrRepVar 0
##set1 BldgVint 1975
##set1 BldgLoc CZ15

 ##set1 mBFMult 1   $ IP Tech: RefgChg-NRes-Std

PARAMETER
 "AltFactor" = 1.01767   $ IP Non-Tech
 "BF_fFlow" = SpltAC1Sp_BF_fFlow   $ Msr (Var)TechID: PreNResSplitAC-lt45-PENo
 "BF_fT" = SpltAC1Sp_BF_fT   $ Msr (Var)TechID: PreNResSplitAC-lt45-PENo
 "BldgEconoFlag" = 1   $ IP Non-Tech
 "Break_EWSF" = 1   $ IP Non-Tech
 "Break_LWSF" = 1.1   $ IP Non-Tech
 "CDD_DBHi10" = 97   $ IP Non-Tech
 "CDD_DBHi7" = 110   $ IP Non-Tech
 "CDD_DBHi8" = 111   $ IP Non-Tech
 "CDD_DBHi9" = 109   $ IP Non-Tech
 "CDD_DBRange10" = 25   $ IP Non-Tech
 "CDD_DBRange7" = 18   $ IP Non-Tech
 "CDD_DBRange8" = 23   $ IP Non-Tech
 "CDD_DBRange9" = 21   $ IP Non-Tech
 "CDD_Day10" = 15   $ IP Non-Tech
 "CDD_Day7" = 16   $ IP Non-Tech
 "CDD_Day8" = 20   $ IP Non-Tech
 "CDD_Day9" = 17   $ IP Non-Tech
 "CDD_HrHi10" = 14   $ IP Non-Tech
 "CDD_HrHi7" = 15   $ IP Non-Tech
 "CDD_HrHi8" = 18   $ IP Non-Tech
 "CDD_HrHi9" = 12   $ IP Non-Tech
 "CDD_HrLo10" = 5   $ IP Non-Tech
 "CDD_HrLo7" = 3   $ IP Non-Tech
 "CDD_HrLo8" = 4   $ IP Non-Tech
 "CDD_HrLo9" = 7   $ IP Non-Tech
 "CDD_WB10" = 64.62915039   $ IP Non-Tech
 "CDD_WB7" = 77.7762146   $ IP Non-Tech
 "CDD_WB8" = 78.616539   $ IP Non-Tech
 "CDD_WB9" = 73.63479614   $ IP Non-Tech
 "CEIR_fPLR_Hot" = SpltAC1Sp_CEIR_fPLR_Hot   $ Msr (Var)TechID: PreNResSplitAC-lt45-PENo
 "CEIR_fPLR_Mod" = SpltAC1Sp_CEIR_fPLR_Mod   $ Msr (Var)TechID: PreNResSplitAC-lt45-PENo
 "CEIR_fPLR_Tem" = SpltAC1Sp_CEIR_fPLR_Tem   $ Msr (Var)TechID: PreNResSplitAC-lt45-PENo
 "CLoss_fPLR_Hot" = SpltAC1Sp_CLoss_fPLR_Hot   $ Msr (Var)TechID: PreNResSplitAC-lt45-PENo
 "CLoss_fPLR_Mod" = SpltAC1Sp_CLoss_fPLR_Mod   $ Msr (Var)TechID: PreNResSplitAC-lt45-PENo
 "CLoss_fPLR_Tem" = SpltAC1Sp_CLoss_fPLR_Tem   $ Msr (Var)TechID: PreNResSplitAC-lt45-PENo
 "COP47" = 0   $ Msr (Var)TechID: PreNResSplitAC-lt45-PENo
 "CZ_Category" = Hot   $ IP Non-Tech
 "CapRange" = Any   $ Msr (Var)TechID: PreNResSplitAC-lt45-PENo
 "CfmPerBtuh" = 0.0321   $ Msr (Var)TechID: PreNResSplitAC-lt45-PENo
 "ChwVintEconoFlag" = 1   $ IP Non-Tech
 "ClCap_fT" = SpltAC1Sp_ClCap_fT   $ Msr (Var)TechID: PreNResSplitAC-lt45-PENo
 "ClSH_fT" = SpltAC1Sp_ClSH_fT   $ Msr (Var)TechID: PreNResSplitAC-lt45-PENo
 "CoilBF" = 0.12   $ Msr (Var)TechID: PreNResSplitAC-lt45-PENo
 "CompRoomData_EWSF" = 5.75   $ IP Non-Tech
 "CompRoomData_LWSF" = 1.2   $ IP Non-Tech
 "CondWPerBtuh" = 0   $ Msr (Var)TechID: PreNResSplitAC-lt45-PENo
 "Conference_EWSF" = 1.15   $ IP Non-Tech
 "Conference_LWSF" = 1.4   $ IP Non-Tech
 "CoolSensCap" = 0.744   $ Msr (Var)TechID: PreNResSplitAC-lt45-PENo
 "CoolSetT" = 45   $ IP Non-Tech
 "CoolType" = DX   $ IP Non-Tech
 "CoolingEIR" = 0.29437   $ Msr (Var)TechID: PreNResSplitAC-lt45-PENo
 "CopyRoom_EWSF" = 1.725   $ IP Non-Tech
 "CopyRoom_LWSF" = 1.3   $ IP Non-Tech
 "CrnkEIR" = 0.0029437   $ Msr (Var)TechID: PreNResSplitAC-lt45-PENo
 "CrnkMaxT" = 50   $ Msr (Var)TechID: PreNResSplitAC-lt45-PENo
 "DXType" = SplitSEER   $ Msr (Var)TechID: PreNResSplitAC-lt45-PENo
 "DesCoolT" = 75   $ IP Non-Tech
 "DesHeatT" = 73   $ IP Non-Tech
 "EER" = 9.799295775   $ Msr (Var)TechID: PreNResSplitAC-lt45-PENo
 "EIR_fT" = SpltAC1Sp_EIR_fT   $ Msr (Var)TechID: PreNResSplitAC-lt45-PENo
 "EconoCtrl" = FIXED   $ Msr (Multi)TechID: PreNResSplitAC-lt45-PENo
 "EconoEnthLimit" = 28   $ IP Non-Tech
 "EconoTempLimit" = 75   $ IP Non-Tech
 "Elevation" = 475   $ IP Non-Tech
 "FanEirPlr" = TwoSpeedFan   $ Msr (Var)TechID: PreNResSplitAC-lt45-PENo
 "FanWPerCfm" = 0.365   $ Msr (Var)TechID: PreNResSplitAC-lt45-PENo
 "HDD_CloudAmt1" = 0   $ IP Non-Tech
 "HDD_DBHi1" = 58   $ IP Non-Tech
 "HDD_DBRange1" = 21   $ IP Non-Tech
 "HDD_Day1" = 15   $ IP Non-Tech
 "HDD_HrHi1" = 13   $ IP Non-Tech
 "HDD_HrLo1" = 7   $ IP Non-Tech
 "HDD_WB1" = 39.7   $ IP Non-Tech
 "HDD_WindSpd1" = 10.4   $ IP Non-Tech
 "HIR_fT" = 0   $ Msr (Var)TechID: PreNResSplitAC-lt45-PENo
 "HSPF" = 0   $ Msr (Var)TechID: PreNResSplitAC-lt45-PENo
 "Hall_EWSF" = 0.23   $ IP Non-Tech
 "Hall_LWSF" = 0.6   $ IP Non-Tech
 "HeatSrc" = FURNACE   $ IP Non-Tech
 "HeatSrcTU" = HEAT-PUMP   $ IP Non-Tech
 "HeatType" = GasFurn   $ IP Non-Tech
 "HeatTypeTU" = HEAT-PUMP   $ IP Non-Tech
 "HtCap_fT" = 0   $ Msr (Var)TechID: PreNResSplitAC-lt45-PENo
 "HtCoolCapRatio" = 0   $ Msr (Var)TechID: PreNResSplitAC-lt45-PENo
 "HtgEIR" = 0   $ Msr (Var)TechID: PreNResSplitAC-lt45-PENo
 "IndoorFanMode" = CONTINUOUS   $ IP Non-Tech
 "KT_TransferAir" = No   $ IP Non-Tech
 "Latitude" = 33.8   $ IP Non-Tech
 "LobbyWaiting_EWSF" = 0.5375   $ IP Non-Tech
 "LobbyWaiting_LWSF" = 1.3   $ IP Non-Tech
 "Longitude" = 116.5   $ IP Non-Tech
 "LowSpdCapRatio" = 1   $ Msr (Var)TechID: PreNResSplitAC-lt45-PENo
 "LowSpdCfmRatio" = 1   $ Msr (Var)TechID: PreNResSplitAC-lt45-PENo
 "MZFanMechEff" = 0.58   $ IP Non-Tech
 "MZHasRetFan" = FALSE   $ IP Non-Tech
 "MZ_RFanWPerCfm" = 0.33   $ IP Non-Tech
 "MZ_SFanWPerCfm" = 0.75   $ IP Non-Tech
 "MZ_SupFanStatic" = 2.25   $ IP Non-Tech
 "MaxOAFrac" = 1   $ Msr (Multi)TechID: PreNResSplitAC-lt45-PENo
 "MaxSupT_MZ" = 100   $ IP Non-Tech
 "MaxSupT_SZ" = 100   $ IP Non-Tech
 "MaxSupT_TU" = 90   $ IP Non-Tech
 "MechElecRoom_EWSF" = 0.23   $ IP Non-Tech
 "MechElecRoom_LWSF" = 0.7   $ IP Non-Tech
 "MinCfmPerSF" = 0.4   $ IP Non-Tech
 "MinSupT" = 55   $ IP Non-Tech
 "NumStages" = 1   $ Msr (Var)TechID: PreNResSplitAC-lt45-PENo
 "OccCoolT" = 76   $ IP Non-Tech
 "OccHeatT" = 72   $ IP Non-Tech
 "OfficeOpen_EWSF" = 1.725   $ IP Non-Tech
 "OfficeOpen_LWSF" = 1.2   $ IP Non-Tech
 "OfficeSmall_EWSF" = 1.725   $ IP Non-Tech
 "OfficeSmall_LWSF" = 1.3   $ IP Non-Tech
 "PkgDxVintEconoFlag" = 0   $ IP Non-Tech
 "Restroom_EWSF" = 0.23   $ IP Non-Tech
 "Restroom_LWSF" = 0.6   $ IP Non-Tech
 "SEER" = 11.5   $ Msr (Var)TechID: PreNResSplitAC-lt45-PENo
 "SZFanMechEff" = 0.58   $ IP Non-Tech
 "SZHasRetFan" = FALSE   $ IP Non-Tech
 "SZ_Is_2Spd" = FALSE   $ IP Non-Tech
 "SZ_SFanWPerCfm" = 0.46   $ IP Non-Tech
 "SZ_SupFanStatic" = 0.75   $ IP Non-Tech
 "Sector" = Any   $ Msr (Var)TechID: PreNResSplitAC-lt45-PENo
 "StorageSmlCond_EWSF" = 0.23   $ IP Non-Tech
 "StorageSmlCond_LWSF" = 0.6   $ IP Non-Tech
 "SubType" = AC   $ Msr (Var)TechID: PreNResSplitAC-lt45-PENo
 "T24GlzTbl" = CZTbl   $ IP Non-Tech
 "TermUnitFanMechEff" = 1   $ IP Non-Tech
 "TermUnitFanMode" = INTERMITTENT   $ IP Non-Tech
 "TotCoolCap" = 34895   $ Msr (Var)TechID: PreNResSplitAC-lt45-PENo
 "TwrSetpt" = 89.1   $ IP Non-Tech
 "UnocCoolT" = 86   $ IP Non-Tech
 "UnocHeatT" = 62   $ IP Non-Tech
 "UseEconoVintApplic" = FALSE   $ Msr (Multi)TechID: PreNResSplitAC-lt45-PENo
 "WlhpVintEconoFlag" = 0   $ IP Non-Tech
 "DuctDT" = 1   $ IP Tech: ComDuctInsul-1
 "DuctAirLoss" = 0   $ IP Tech: ComDuctLeak-0
 "DuctLossOAFrac" = 0   $ IP Tech: ComDuctLeak-0
 "ComRoofInsCalc" = FromUo   $ IP Tech: ComRoofIns-WFrm-0.07
 "ComRoofInsR" = -999   $ IP Tech: ComRoofIns-WFrm-0.07
 "ComRoofUo" = 0.07   $ IP Tech: ComRoofIns-WFrm-0.07
 "ComEWInsCalc" = FromUo   $ IP Tech: ComWallIns-WFrm-0.12
 "ComEWInsR" = -999   $ IP Tech: ComWallIns-WFrm-0.12
 "ComEWUo" = 0.12   $ IP Tech: ComWallIns-WFrm-0.12
 "ComN_SHGC" = 0.82   $ IP Tech: NResWin-ComN-1.23-0.82
 "ComN_UFactor" = 1.23   $ IP Tech: NResWin-ComN-1.23-0.82
 "ComN_VisTrans" = 0.9   $ IP Tech: NResWin-ComN-1.23-0.82
 "ComN_WinCode" = G1000   $ IP Tech: NResWin-ComN-1.23-0.82
 "ComN_WinFrmFrac" = 0.17   $ IP Tech: NResWin-ComN-1.23-0.82
 "ComN_WinFrmU" = 1   $ IP Tech: NResWin-ComN-1.23-0.82
 "ComO_SHGC" = 0.82   $ IP Tech: NResWin-ComO-1.23-0.82
 "ComO_UFactor" = 1.23   $ IP Tech: NResWin-ComO-1.23-0.82
 "ComO_VisTrans" = 0.9   $ IP Tech: NResWin-ComO-1.23-0.82
 "ComO_WinCode" = G1000   $ IP Tech: NResWin-ComO-1.23-0.82
 "ComO_WinFrmFrac" = 0.17   $ IP Tech: NResWin-ComO-1.23-0.82
 "ComO_WinFrmU" = 1   $ IP Tech: NResWin-ComO-1.23-0.82
 "LtgMsrApplic" = ALL   $ IP Tech: NonResLtgRefPre
 "LtgSav_CFL" = 0   $ IP Tech: NonResLtgRefPre
 "LtgSav_EX" = 0   $ IP Tech: NonResLtgRefPre
 "LtgSav_HB" = 0   $ IP Tech: NonResLtgRefPre
 "LtgSav_LF" = 0   $ IP Tech: NonResLtgRefPre
 "LtgSav_SP" = 0   $ IP Tech: NonResLtgRefPre
 "CEIR_fPLR" = PSZ65to135_CEIR_fPLR   $ IP Tech: PkgAC1SpH-65to135-E10
 "CLoss_fPLR" = PSZ65to135_CLoss_fPLR   $ IP Tech: PkgAC1SpH-65to135-E10
 "COP" = -1   $ IP Tech: PkgAC1SpH-65to135-E10
 "HtgFuel" = Gas   $ IP Tech: PkgAC1SpH-65to135-E10
 "IEER" = 11.87   $ IP Tech: PkgAC1SpH-65to135-E10
 "NominalCap" = 15   $ IP Tech: PkgAC1SpH-65to135-E10
 "RatedEER" = 10   $ IP Tech: PkgAC1SpH-65to135-E10
 "RatedSupMtrClass" = HiEff   $ IP Tech: PkgAC1SpH-65to135-E10
 "SizeRange" = 65to135   $ IP Tech: PkgAC1SpH-65to135-E10
 "SupMotEff" = 0.84   $ IP Tech: PkgAC1SpH-65to135-E10
 "Tier" = 0   $ IP Tech: PkgAC1SpH-65to135-E10
 "FanPwrMult" = 1   $ IP Tech: PkgFurn-0.80AFUE
 "FurnAFUE" = 0.8   $ IP Tech: PkgFurn-0.80AFUE
 "FurnEt" = 0.82   $ IP Tech: PkgFurn-0.80AFUE
 "FurnaceAuxKW" = 0.1   $ IP Tech: PkgFurn-0.80AFUE
 "HIR_fPLR" = Furnace-HIR-fPLR   $ IP Tech: PkgFurn-0.80AFUE
 "VSM" = FALSE   $ IP Tech: PkgFurn-0.80AFUE
 "BFMult" = 1   $ IP Tech: RefgChg-NRes-Std
 "CoolEirMult" = 1   $ IP Tech: RefgChg-NRes-Std
 "SensCoolCapMult" = 1   $ IP Tech: RefgChg-NRes-Std
 "TotCoolCapMult" = 1   $ IP Tech: RefgChg-NRes-Std
 "AltAdjFactor" = 1.017668   $ Sizing
 "CAssFlo_L_Break_CZn" = 668.5363   $ Sizing
 "CAssFlo_L_CompDC_CZn" = 196.6899   $ Sizing
 "CAssFlo_L_Conf_CZn" = 390.0661   $ Sizing
 "CAssFlo_L_CopyRm_CZn" = 149.9466   $ Sizing
 "CAssFlo_L_Hall_EZn" = 221.4139   $ Sizing
 "CAssFlo_L_Hall_NZn" = 130.2975   $ Sizing
 "CAssFlo_L_Hall_SZn" = 210.8277   $ Sizing
 "CAssFlo_L_Hall_WZn" = 245.1772   $ Sizing
 "CAssFlo_L_LobWait_EZn" = 525.4   $ Sizing
 "CAssFlo_L_LobWait_NZn" = 338.2615   $ Sizing
 "CAssFlo_L_LobWait_SZn" = 514.9201   $ Sizing
 "CAssFlo_L_LobWait_WZn" = 615.4245   $ Sizing
 "CAssFlo_L_MechElec_CZn" = 126.4162   $ Sizing
 "CAssFlo_L_OfficeOpn_CZn" = 94.91324   $ Sizing
 "CAssFlo_L_OfficeOpn_EZn" = 888.1584   $ Sizing
 "CAssFlo_L_OfficeOpn_NZn" = 592.2419   $ Sizing
 "CAssFlo_L_OfficeOpn_SZn" = 830.4756   $ Sizing
 "CAssFlo_L_OfficeOpn_WZn" = 1002.175   $ Sizing
 "CAssFlo_L_OfficeSm_EZn" = 766.5856   $ Sizing
 "CAssFlo_L_OfficeSm_NZn" = 477.449   $ Sizing
 "CAssFlo_L_OfficeSm_SZn" = 732.1443   $ Sizing
 "CAssFlo_L_OfficeSm_WZn" = 872.3159   $ Sizing
 "CAssFlo_L_Restrm_CZn" = 122.5309   $ Sizing
 "CAssFlo_L_StorSm_CZn" = 51.31497   $ Sizing
 "CAssFlo_L_StorSm_EZn" = 221.2058   $ Sizing
 "CAssFlo_L_StorSm_NZn" = 135.712   $ Sizing
 "CAssFlo_L_StorSm_SZn" = 209.7376   $ Sizing
 "CAssFlo_L_StorSm_WZn" = 237.5454   $ Sizing
 "CAssFlo_T_Conf_CZn" = 376.0999   $ Sizing
 "CAssFlo_T_Hall_EZn" = 245.8551   $ Sizing
 "CAssFlo_T_Hall_NZn" = 139.3675   $ Sizing
 "CAssFlo_T_Hall_SZn" = 243.1414   $ Sizing
 "CAssFlo_T_Hall_WZn" = 274.2975   $ Sizing
 "CAssFlo_T_OfficeOpn_CZn" = 90.03761   $ Sizing
 "CAssFlo_T_OfficeOpn_EZn" = 948.8547   $ Sizing
 "CAssFlo_T_OfficeOpn_NZn" = 625.5824   $ Sizing
 "CAssFlo_T_OfficeOpn_SZn" = 929.918   $ Sizing
 "CAssFlo_T_OfficeOpn_WZn" = 1059.248   $ Sizing
 "CAssFlo_T_OfficeSm_EZn" = 818.3194   $ Sizing
 "CAssFlo_T_OfficeSm_NZn" = 507.5358   $ Sizing
 "CAssFlo_T_OfficeSm_SZn" = 806.8597   $ Sizing
 "CAssFlo_T_OfficeSm_WZn" = 918.8328   $ Sizing
 "CAssFlo_T_Restrm_CZn" = 165.228   $ Sizing
 "CAssFlo_T_StorSm_EZn" = 254.1635   $ Sizing
 "CAssFlo_T_StorSm_NZn" = 156.5742   $ Sizing
 "CAssFlo_T_StorSm_SZn" = 249.4266   $ Sizing
 "CAssFlo_T_StorSm_WZn" = 285.5192   $ Sizing
 "CHRtFlo_Sys_L_Break_C" = 668.5363   $ Sizing
 "CHRtFlo_Sys_L_CompDC_C" = 196.6899   $ Sizing
 "CHRtFlo_Sys_L_Conf_C" = 390.0661   $ Sizing
 "CHRtFlo_Sys_L_CopyRm_C" = 149.9466   $ Sizing
 "CHRtFlo_Sys_L_Hall_E" = 237.7144   $ Sizing
 "CHRtFlo_Sys_L_Hall_N" = 130.2975   $ Sizing
 "CHRtFlo_Sys_L_Hall_S" = 240.3741   $ Sizing
 "CHRtFlo_Sys_L_Hall_W" = 248.0771   $ Sizing
 "CHRtFlo_Sys_L_LobWait_E" = 542.5835   $ Sizing
 "CHRtFlo_Sys_L_LobWait_N" = 338.2615   $ Sizing
 "CHRtFlo_Sys_L_LobWait_S" = 551.6706   $ Sizing
 "CHRtFlo_Sys_L_LobWait_W" = 615.4245   $ Sizing
 "CHRtFlo_Sys_L_MechElec_C" = 126.4162   $ Sizing
 "CHRtFlo_Sys_L_OfficeOpn_C" = 94.91325   $ Sizing
 "CHRtFlo_Sys_L_OfficeOpn_E" = 933.4282   $ Sizing
 "CHRtFlo_Sys_L_OfficeOpn_N" = 592.2419   $ Sizing
 "CHRtFlo_Sys_L_OfficeOpn_S" = 916.8857   $ Sizing
 "CHRtFlo_Sys_L_OfficeOpn_W" = 1002.175   $ Sizing
 "CHRtFlo_Sys_L_OfficeSm_E" = 826.3038   $ Sizing
 "CHRtFlo_Sys_L_OfficeSm_N" = 477.4489   $ Sizing
 "CHRtFlo_Sys_L_OfficeSm_S" = 822.3145   $ Sizing
 "CHRtFlo_Sys_L_OfficeSm_W" = 872.3159   $ Sizing
 "CHRtFlo_Sys_L_Restrm_C" = 122.5309   $ Sizing
 "CHRtFlo_Sys_L_StorSm_C" = 51.31497   $ Sizing
 "CHRtFlo_Sys_L_StorSm_E" = 231.4147   $ Sizing
 "CHRtFlo_Sys_L_StorSm_N" = 135.712   $ Sizing
 "CHRtFlo_Sys_L_StorSm_S" = 232.1881   $ Sizing
 "CHRtFlo_Sys_L_StorSm_W" = 237.5454   $ Sizing
 "CHRtFlo_Sys_T_Conf_C" = 376.0999   $ Sizing
 "CHRtFlo_Sys_T_Hall_E" = 245.8551   $ Sizing
 "CHRtFlo_Sys_T_Hall_N" = 139.3675   $ Sizing
 "CHRtFlo_Sys_T_Hall_S" = 257.4562   $ Sizing
 "CHRtFlo_Sys_T_Hall_W" = 274.2975   $ Sizing
 "CHRtFlo_Sys_T_OfficeOpn_C" = 90.03761   $ Sizing
 "CHRtFlo_Sys_T_OfficeOpn_E" = 948.8547   $ Sizing
 "CHRtFlo_Sys_T_OfficeOpn_N" = 625.5824   $ Sizing
 "CHRtFlo_Sys_T_OfficeOpn_S" = 932.4724   $ Sizing
 "CHRtFlo_Sys_T_OfficeOpn_W" = 1059.248   $ Sizing
 "CHRtFlo_Sys_T_OfficeSm_E" = 818.3195   $ Sizing
 "CHRtFlo_Sys_T_OfficeSm_N" = 507.5358   $ Sizing
 "CHRtFlo_Sys_T_OfficeSm_S" = 841.7303   $ Sizing
 "CHRtFlo_Sys_T_OfficeSm_W" = 918.8328   $ Sizing
 "CHRtFlo_Sys_T_Restrm_C" = 165.228   $ Sizing
 "CHRtFlo_Sys_T_StorSm_E" = 254.1635   $ Sizing
 "CHRtFlo_Sys_T_StorSm_N" = 156.5742   $ Sizing
 "CHRtFlo_Sys_T_StorSm_S" = 249.5991   $ Sizing
 "CHRtFlo_Sys_T_StorSm_W" = 285.5192   $ Sizing
 "CRtdFlo_Sys_L_Break_C" = 668.5363   $ Sizing
 "CRtdFlo_Sys_L_CompDC_C" = 196.6899   $ Sizing
 "CRtdFlo_Sys_L_Conf_C" = 390.0661   $ Sizing
 "CRtdFlo_Sys_L_CopyRm_C" = 149.9466   $ Sizing
 "CRtdFlo_Sys_L_Hall_E" = 221.4139   $ Sizing
 "CRtdFlo_Sys_L_Hall_N" = 130.2975   $ Sizing
 "CRtdFlo_Sys_L_Hall_S" = 210.8277   $ Sizing
 "CRtdFlo_Sys_L_Hall_W" = 245.1772   $ Sizing
 "CRtdFlo_Sys_L_LobWait_E" = 525.4   $ Sizing
 "CRtdFlo_Sys_L_LobWait_N" = 338.2615   $ Sizing
 "CRtdFlo_Sys_L_LobWait_S" = 514.9201   $ Sizing
 "CRtdFlo_Sys_L_LobWait_W" = 615.4245   $ Sizing
 "CRtdFlo_Sys_L_MechElec_C" = 126.4162   $ Sizing
 "CRtdFlo_Sys_L_OfficeOpn_C" = 94.91325   $ Sizing
 "CRtdFlo_Sys_L_OfficeOpn_E" = 888.1584   $ Sizing
 "CRtdFlo_Sys_L_OfficeOpn_N" = 592.2419   $ Sizing
 "CRtdFlo_Sys_L_OfficeOpn_S" = 830.4756   $ Sizing
 "CRtdFlo_Sys_L_OfficeOpn_W" = 1002.175   $ Sizing
 "CRtdFlo_Sys_L_OfficeSm_E" = 766.5856   $ Sizing
 "CRtdFlo_Sys_L_OfficeSm_N" = 477.4489   $ Sizing
 "CRtdFlo_Sys_L_OfficeSm_S" = 732.1443   $ Sizing
 "CRtdFlo_Sys_L_OfficeSm_W" = 872.3159   $ Sizing
 "CRtdFlo_Sys_L_Restrm_C" = 122.5309   $ Sizing
 "CRtdFlo_Sys_L_StorSm_C" = 51.31497   $ Sizing
 "CRtdFlo_Sys_L_StorSm_E" = 221.2058   $ Sizing
 "CRtdFlo_Sys_L_StorSm_N" = 135.712   $ Sizing
 "CRtdFlo_Sys_L_StorSm_S" = 209.7376   $ Sizing
 "CRtdFlo_Sys_L_StorSm_W" = 237.5454   $ Sizing
 "CRtdFlo_Sys_T_Conf_C" = 376.0999   $ Sizing
 "CRtdFlo_Sys_T_Hall_E" = 245.8551   $ Sizing
 "CRtdFlo_Sys_T_Hall_N" = 139.3675   $ Sizing
 "CRtdFlo_Sys_T_Hall_S" = 243.1414   $ Sizing
 "CRtdFlo_Sys_T_Hall_W" = 274.2975   $ Sizing
 "CRtdFlo_Sys_T_OfficeOpn_C" = 90.03761   $ Sizing
 "CRtdFlo_Sys_T_OfficeOpn_E" = 948.8547   $ Sizing
 "CRtdFlo_Sys_T_OfficeOpn_N" = 625.5824   $ Sizing
 "CRtdFlo_Sys_T_OfficeOpn_S" = 929.918   $ Sizing
 "CRtdFlo_Sys_T_OfficeOpn_W" = 1059.248   $ Sizing
 "CRtdFlo_Sys_T_OfficeSm_E" = 818.3195   $ Sizing
 "CRtdFlo_Sys_T_OfficeSm_N" = 507.5358   $ Sizing
 "CRtdFlo_Sys_T_OfficeSm_S" = 806.8597   $ Sizing
 "CRtdFlo_Sys_T_OfficeSm_W" = 918.8328   $ Sizing
 "CRtdFlo_Sys_T_Restrm_C" = 165.228   $ Sizing
 "CRtdFlo_Sys_T_StorSm_E" = 254.1635   $ Sizing
 "CRtdFlo_Sys_T_StorSm_N" = 156.5742   $ Sizing
 "CRtdFlo_Sys_T_StorSm_S" = 249.5991   $ Sizing
 "CRtdFlo_Sys_T_StorSm_W" = 285.5192   $ Sizing
 "CSupFlo_Sys_L_Break_C" = 668.5363   $ Sizing
 "CSupFlo_Sys_L_CompDC_C" = 196.6899   $ Sizing
 "CSupFlo_Sys_L_Conf_C" = 390.0661   $ Sizing
 "CSupFlo_Sys_L_CopyRm_C" = 149.9466   $ Sizing
 "CSupFlo_Sys_L_Hall_E" = 221.4139   $ Sizing
 "CSupFlo_Sys_L_Hall_N" = 130.2975   $ Sizing
 "CSupFlo_Sys_L_Hall_S" = 210.8277   $ Sizing
 "CSupFlo_Sys_L_Hall_W" = 245.1772   $ Sizing
 "CSupFlo_Sys_L_LobWait_E" = 525.4   $ Sizing
 "CSupFlo_Sys_L_LobWait_N" = 338.2615   $ Sizing
 "CSupFlo_Sys_L_LobWait_S" = 514.9201   $ Sizing
 "CSupFlo_Sys_L_LobWait_W" = 615.4245   $ Sizing
 "CSupFlo_Sys_L_MechElec_C" = 126.4162   $ Sizing
 "CSupFlo_Sys_L_OfficeOpn_C" = 94.91325   $ Sizing
 "CSupFlo_Sys_L_OfficeOpn_E" = 888.1584   $ Sizing
 "CSupFlo_Sys_L_OfficeOpn_N" = 592.2419   $ Sizing
 "CSupFlo_Sys_L_OfficeOpn_S" = 830.4756   $ Sizing
 "CSupFlo_Sys_L_OfficeOpn_W" = 1002.175   $ Sizing
 "CSupFlo_Sys_L_OfficeSm_E" = 766.5856   $ Sizing
 "CSupFlo_Sys_L_OfficeSm_N" = 477.4489   $ Sizing
 "CSupFlo_Sys_L_OfficeSm_S" = 732.1443   $ Sizing
 "CSupFlo_Sys_L_OfficeSm_W" = 872.3159   $ Sizing
 "CSupFlo_Sys_L_Restrm_C" = 122.5309   $ Sizing
 "CSupFlo_Sys_L_StorSm_C" = 51.31497   $ Sizing
 "CSupFlo_Sys_L_StorSm_E" = 221.2058   $ Sizing
 "CSupFlo_Sys_L_StorSm_N" = 135.712   $ Sizing
 "CSupFlo_Sys_L_StorSm_S" = 209.7376   $ Sizing
 "CSupFlo_Sys_L_StorSm_W" = 237.5454   $ Sizing
 "CSupFlo_Sys_T_Conf_C" = 376.0999   $ Sizing
 "CSupFlo_Sys_T_Hall_E" = 245.8551   $ Sizing
 "CSupFlo_Sys_T_Hall_N" = 139.3675   $ Sizing
 "CSupFlo_Sys_T_Hall_S" = 243.1414   $ Sizing
 "CSupFlo_Sys_T_Hall_W" = 274.2975   $ Sizing
 "CSupFlo_Sys_T_OfficeOpn_C" = 90.03761   $ Sizing
 "CSupFlo_Sys_T_OfficeOpn_E" = 948.8547   $ Sizing
 "CSupFlo_Sys_T_OfficeOpn_N" = 625.5824   $ Sizing
 "CSupFlo_Sys_T_OfficeOpn_S" = 929.918   $ Sizing
 "CSupFlo_Sys_T_OfficeOpn_W" = 1059.248   $ Sizing
 "CSupFlo_Sys_T_OfficeSm_E" = 818.3195   $ Sizing
 "CSupFlo_Sys_T_OfficeSm_N" = 507.5358   $ Sizing
 "CSupFlo_Sys_T_OfficeSm_S" = 806.8597   $ Sizing
 "CSupFlo_Sys_T_OfficeSm_W" = 918.8328   $ Sizing
 "CSupFlo_Sys_T_Restrm_C" = 165.228   $ Sizing
 "CSupFlo_Sys_T_StorSm_E" = 254.1635   $ Sizing
 "CSupFlo_Sys_T_StorSm_N" = 156.5742   $ Sizing
 "CSupFlo_Sys_T_StorSm_S" = 249.5991   $ Sizing
 "CSupFlo_Sys_T_StorSm_W" = 285.5192   $ Sizing
 "ClCap_Sys_L_Break_C" = 22523.31   $ Sizing
 "ClCap_Sys_L_CompDC_C" = 6626.577   $ Sizing
 "ClCap_Sys_L_Conf_C" = 16725.56   $ Sizing
 "ClCap_Sys_L_CopyRm_C" = 5051.775   $ Sizing
 "ClCap_Sys_L_Hall_E" = 7459.541   $ Sizing
 "ClCap_Sys_L_Hall_N" = 4389.785   $ Sizing
 "ClCap_Sys_L_Hall_S" = 7102.889   $ Sizing
 "ClCap_Sys_L_Hall_W" = 8260.14   $ Sizing
 "ClCap_Sys_L_LobWait_E" = 17700.98   $ Sizing
 "ClCap_Sys_L_LobWait_N" = 11396.19   $ Sizing
 "ClCap_Sys_L_LobWait_S" = 17347.91   $ Sizing
 "ClCap_Sys_L_LobWait_W" = 20733.95   $ Sizing
 "ClCap_Sys_L_MechElec_C" = 4259.023   $ Sizing
 "ClCap_Sys_L_OfficeOpn_C" = 3197.673   $ Sizing
 "ClCap_Sys_L_OfficeOpn_E" = 29922.49   $ Sizing
 "ClCap_Sys_L_OfficeOpn_N" = 19952.92   $ Sizing
 "ClCap_Sys_L_OfficeOpn_S" = 27979.12   $ Sizing
 "ClCap_Sys_L_OfficeOpn_W" = 33763.75   $ Sizing
 "ClCap_Sys_L_OfficeSm_E" = 25826.64   $ Sizing
 "ClCap_Sys_L_OfficeSm_N" = 16085.49   $ Sizing
 "ClCap_Sys_L_OfficeSm_S" = 24666.3   $ Sizing
 "ClCap_Sys_L_OfficeSm_W" = 29388.74   $ Sizing
 "ClCap_Sys_L_Restrm_C" = 4128.125   $ Sizing
 "ClCap_Sys_L_StorSm_C" = 1728.826   $ Sizing
 "ClCap_Sys_L_StorSm_E" = 7452.529   $ Sizing
 "ClCap_Sys_L_StorSm_N" = 4572.202   $ Sizing
 "ClCap_Sys_L_StorSm_S" = 7066.161   $ Sizing
 "ClCap_Sys_L_StorSm_W" = 8003.02   $ Sizing
 "ClCap_Sys_T_Conf_C" = 16126.71   $ Sizing
 "ClCap_Sys_T_Hall_E" = 8282.977   $ Sizing
 "ClCap_Sys_T_Hall_N" = 4695.358   $ Sizing
 "ClCap_Sys_T_Hall_S" = 8191.552   $ Sizing
 "ClCap_Sys_T_Hall_W" = 9241.216   $ Sizing
 "ClCap_Sys_T_OfficeOpn_C" = 3033.411   $ Sizing
 "ClCap_Sys_T_OfficeOpn_E" = 31967.38   $ Sizing
 "ClCap_Sys_T_OfficeOpn_N" = 21076.17   $ Sizing
 "ClCap_Sys_T_OfficeOpn_S" = 31329.38   $ Sizing
 "ClCap_Sys_T_OfficeOpn_W" = 35686.57   $ Sizing
 "ClCap_Sys_T_OfficeSm_E" = 27569.58   $ Sizing
 "ClCap_Sys_T_OfficeSm_N" = 17099.13   $ Sizing
 "ClCap_Sys_T_OfficeSm_S" = 27183.49   $ Sizing
 "ClCap_Sys_T_OfficeSm_W" = 30955.92   $ Sizing
 "ClCap_Sys_T_Restrm_C" = 5566.612   $ Sizing
 "ClCap_Sys_T_StorSm_E" = 8562.891   $ Sizing
 "ClCap_Sys_T_StorSm_N" = 5275.061   $ Sizing
 "ClCap_Sys_T_StorSm_S" = 8409.114   $ Sizing
 "ClCap_Sys_T_StorSm_W" = 9619.28   $ Sizing
 "HtCap_Sys_L_Break_C" = -33316.96   $ Sizing
 "HtCap_Sys_L_CompDC_C" = -9450.308   $ Sizing
 "HtCap_Sys_L_Conf_C" = -19995.66   $ Sizing
 "HtCap_Sys_L_CopyRm_C" = -7298.786   $ Sizing
 "HtCap_Sys_L_Hall_E" = -7982.954   $ Sizing
 "HtCap_Sys_L_Hall_N" = -4256.012   $ Sizing
 "HtCap_Sys_L_Hall_S" = -7717.375   $ Sizing
 "HtCap_Sys_L_Hall_W" = -7730.665   $ Sizing
 "HtCap_Sys_L_LobWait_E" = -17673.32   $ Sizing
 "HtCap_Sys_L_LobWait_N" = -12207.32   $ Sizing
 "HtCap_Sys_L_LobWait_S" = -18116.08   $ Sizing
 "HtCap_Sys_L_LobWait_W" = -19871.66   $ Sizing
 "HtCap_Sys_L_MechElec_C" = -4509.516   $ Sizing
 "HtCap_Sys_L_OfficeOpn_C" = -3310.867   $ Sizing
 "HtCap_Sys_L_OfficeOpn_E" = -29915.31   $ Sizing
 "HtCap_Sys_L_OfficeOpn_N" = -21127.19   $ Sizing
 "HtCap_Sys_L_OfficeOpn_S" = -29208.81   $ Sizing
 "HtCap_Sys_L_OfficeOpn_W" = -32573.26   $ Sizing
 "HtCap_Sys_L_OfficeSm_E" = -26733.24   $ Sizing
 "HtCap_Sys_L_OfficeSm_N" = -16464.96   $ Sizing
 "HtCap_Sys_L_OfficeSm_S" = -25866.62   $ Sizing
 "HtCap_Sys_L_OfficeSm_W" = -27961.37   $ Sizing
 "HtCap_Sys_L_Restrm_C" = -3980.933   $ Sizing
 "HtCap_Sys_L_StorSm_C" = -1884.72   $ Sizing
 "HtCap_Sys_L_StorSm_E" = -7645.38   $ Sizing
 "HtCap_Sys_L_StorSm_N" = -4966.704   $ Sizing
 "HtCap_Sys_L_StorSm_S" = -7479.022   $ Sizing
 "HtCap_Sys_L_StorSm_W" = -7728.624   $ Sizing
 "HtCap_Sys_T_Conf_C" = -20055.89   $ Sizing
 "HtCap_Sys_T_Hall_E" = -8679.662   $ Sizing
 "HtCap_Sys_T_Hall_N" = -5224.909   $ Sizing
 "HtCap_Sys_T_Hall_S" = -8967.357   $ Sizing
 "HtCap_Sys_T_Hall_W" = -9304.232   $ Sizing
 "HtCap_Sys_T_OfficeOpn_C" = -3505.869   $ Sizing
 "HtCap_Sys_T_OfficeOpn_E" = -33481.66   $ Sizing
 "HtCap_Sys_T_OfficeOpn_N" = -24149.41   $ Sizing
 "HtCap_Sys_T_OfficeOpn_S" = -31666.84   $ Sizing
 "HtCap_Sys_T_OfficeOpn_W" = -36968.58   $ Sizing
 "HtCap_Sys_T_OfficeSm_E" = -28601.24   $ Sizing
 "HtCap_Sys_T_OfficeSm_N" = -19091.91   $ Sizing
 "HtCap_Sys_T_OfficeSm_S" = -28133.47   $ Sizing
 "HtCap_Sys_T_OfficeSm_W" = -31802.44   $ Sizing
 "HtCap_Sys_T_Restrm_C" = -5797.828   $ Sizing
 "HtCap_Sys_T_StorSm_E" = -9405.011   $ Sizing
 "HtCap_Sys_T_StorSm_N" = -6614.403   $ Sizing
 "HtCap_Sys_T_StorSm_S" = -8366.337   $ Sizing
 "HtCap_Sys_T_StorSm_W" = -10396.77   $ Sizing
..

##include Templates\OfS_DX_SZ.inp
END ..
COMPUTE ..
STOP ..
