
Start DOESIM : Storage capacity =  75000000
Starting LOADS   : SAVE-FILES is On , weather is CZ01ARCATA-AP       
Finished LOADS    BDL  1 : Memory (wds) =    279050, Time (sec) =    1.48
Starting REPORT  
Finished REPORT   BDL  1 : Memory (wds) =    548529, Time (sec) =    0.59
Starting HVAC    : SAVE-FILES is On , weather is CZ01ARCATA-AP       
*** ERRORS or WARNINGS from HVAC     program. Examine output file for details.
Finished HVAC     BDL  1 : Memory (wds) =    483166, Time (sec) =    6.57
Starting REPORT  
Finished REPORT   BDL  1 : Memory (wds) =    826545, Time (sec) =    0.54
Starting HOURLY-R
Finished HOURLY-R BDL  1 : Memory (wds) =   1086329, Time (sec) =    0.14
Starting ECONOMIC
Finished ECONOMIC BDL  1 : Memory (wds) =      1034, Time (sec) =    0.03
End   DOESIM : Total elapsed time of      9.4 seconds
RUN COMPLETE
