INPUT ..

##fileprefix C:\Users\jglasskatz\MASControl3\
##set1 IsSizing FALSE
##set1 CoolType DX
##set1 HeatType FURNACE
##set1 EU_HrRepVar 0
##set1 BldgVint 2003
##set1 BldgLoc CZ09

 ##set1 mBFMult 1   $ IP Tech: RefgChg-NRes-Std

PARAMETER
 "AltFactor" = 1.02768   $ IP Non-Tech
 "BF_fFlow" = SpltAC1Sp-lt45_BF_fFlow   $ Msr (Multi)TechID: StdNResSplitAC-lt45
 "BF_fT" = SpltAC1Sp-lt45_BF_fT   $ Msr (Multi)TechID: StdNResSplitAC-lt45
 "BldgEconoFlag" = 1   $ IP Non-Tech
 "Break_EWSF" = 1   $ IP Non-Tech
 "Break_LWSF" = 1.1   $ IP Non-Tech
 "CDD_DBHi10" = 91   $ IP Non-Tech
 "CDD_DBHi7" = 91   $ IP Non-Tech
 "CDD_DBHi8" = 94   $ IP Non-Tech
 "CDD_DBHi9" = 100   $ IP Non-Tech
 "CDD_DBRange10" = 30   $ IP Non-Tech
 "CDD_DBRange7" = 19   $ IP Non-Tech
 "CDD_DBRange8" = 23   $ IP Non-Tech
 "CDD_DBRange9" = 24   $ IP Non-Tech
 "CDD_Day10" = 15   $ IP Non-Tech
 "CDD_Day7" = 16   $ IP Non-Tech
 "CDD_Day8" = 20   $ IP Non-Tech
 "CDD_Day9" = 17   $ IP Non-Tech
 "CDD_HrHi10" = 16   $ IP Non-Tech
 "CDD_HrHi7" = 16   $ IP Non-Tech
 "CDD_HrHi8" = 15   $ IP Non-Tech
 "CDD_HrHi9" = 13   $ IP Non-Tech
 "CDD_HrLo10" = 5   $ IP Non-Tech
 "CDD_HrLo7" = 6   $ IP Non-Tech
 "CDD_HrLo8" = 3   $ IP Non-Tech
 "CDD_HrLo9" = 7   $ IP Non-Tech
 "CDD_WB10" = 61.50949097   $ IP Non-Tech
 "CDD_WB7" = 74.70972443   $ IP Non-Tech
 "CDD_WB8" = 73.69755554   $ IP Non-Tech
 "CDD_WB9" = 73.82730103   $ IP Non-Tech
 "CEIR_fPLR_Hot" = SpltAC1Sp-lt45_CEIR_fPLR_Hot   $ Msr (Multi)TechID: StdNResSplitAC-lt45
 "CEIR_fPLR_Mod" = SpltAC1Sp-lt45_CEIR_fPLR_Mod   $ Msr (Multi)TechID: StdNResSplitAC-lt45
 "CEIR_fPLR_Tem" = SpltAC1Sp-lt45_CEIR_fPLR_Tem   $ Msr (Multi)TechID: StdNResSplitAC-lt45
 "CLoss_fPLR_Hot" = SpltAC1Sp-lt45_CLoss_fPLR_Hot   $ Msr (Multi)TechID: StdNResSplitAC-lt45
 "CLoss_fPLR_Mod" = SpltAC1Sp-lt45_CLoss_fPLR_Mod   $ Msr (Multi)TechID: StdNResSplitAC-lt45
 "CLoss_fPLR_Tem" = SpltAC1Sp-lt45_CLoss_fPLR_Tem   $ Msr (Multi)TechID: StdNResSplitAC-lt45
 "COP47" = 0   $ Msr (Multi)TechID: StdNResSplitAC-lt45
 "CZ_Category" = Mod   $ IP Non-Tech
 "CapRange" = lt45   $ Msr (Multi)TechID: StdNResSplitAC-lt45
 "CfmPerBtuh" = 0.032504286   $ Msr (Multi)TechID: StdNResSplitAC-lt45
 "ChwVintEconoFlag" = 1   $ IP Non-Tech
 "ClCap_fT" = SpltAC1Sp-lt45_ClCap_fT   $ Msr (Multi)TechID: StdNResSplitAC-lt45
 "ClSH_fT" = SpltAC1Sp-lt45_ClSH_fT   $ Msr (Multi)TechID: StdNResSplitAC-lt45
 "CoilBF" = 0.1212   $ Msr (Multi)TechID: StdNResSplitAC-lt45
 "CompRoomData_EWSF" = 5   $ IP Non-Tech
 "CompRoomData_LWSF" = 1.2   $ IP Non-Tech
 "CondWPerBtuh" = 0   $ Msr (Multi)TechID: StdNResSplitAC-lt45
 "Conference_EWSF" = 1   $ IP Non-Tech
 "Conference_LWSF" = 1.4   $ IP Non-Tech
 "CoolSensCap" = 0.754064286   $ Msr (Multi)TechID: StdNResSplitAC-lt45
 "CoolSetT" = 45   $ IP Non-Tech
 "CoolType" = DX   $ IP Non-Tech
 "CoolingEIR" = 0.23878   $ Msr (Multi)TechID: StdNResSplitAC-lt45
 "CopyRoom_EWSF" = 1.5   $ IP Non-Tech
 "CopyRoom_LWSF" = 1.3   $ IP Non-Tech
 "CrnkEIR" = 0.0023878   $ Msr (Multi)TechID: StdNResSplitAC-lt45
 "CrnkMaxT" = 50   $ Msr (Multi)TechID: StdNResSplitAC-lt45
 "DXType" = SplitSEER   $ Msr (Multi)TechID: StdNResSplitAC-lt45
 "DesCoolT" = 75   $ IP Non-Tech
 "DesHeatT" = 73   $ IP Non-Tech
 "EER" = 12.16551724   $ Msr (Multi)TechID: StdNResSplitAC-lt45
 "EIR_fT" = SpltAC1Sp-lt45_EIR_fT   $ Msr (Multi)TechID: StdNResSplitAC-lt45
 "EconoCtrl" = FIXED   $ Msr (Multi)TechID: StdNResSplitAC-lt45
 "EconoEnthLimit" = 28   $ IP Non-Tech
 "EconoTempLimit" = 71   $ IP Non-Tech
 "Elevation" = 741   $ IP Non-Tech
 "FanEirPlr" = TwoSpeedFan   $ Msr (Multi)TechID: StdNResSplitAC-lt45
 "FanWPerCfm" = 0.294   $ Msr (Multi)TechID: StdNResSplitAC-lt45
 "HDD_CloudAmt1" = 0   $ IP Non-Tech
 "HDD_DBHi1" = 55   $ IP Non-Tech
 "HDD_DBRange1" = 18   $ IP Non-Tech
 "HDD_Day1" = 15   $ IP Non-Tech
 "HDD_HrHi1" = 15   $ IP Non-Tech
 "HDD_HrLo1" = 5   $ IP Non-Tech
 "HDD_WB1" = 48.4   $ IP Non-Tech
 "HDD_WindSpd1" = 10.4   $ IP Non-Tech
 "HIR_fT" = 0   $ Msr (Multi)TechID: StdNResSplitAC-lt45
 "HSPF" = 0   $ Msr (Multi)TechID: StdNResSplitAC-lt45
 "Hall_EWSF" = 0.2   $ IP Non-Tech
 "Hall_LWSF" = 0.6   $ IP Non-Tech
 "HeatSrc" = FURNACE   $ IP Non-Tech
 "HeatSrcTU" = HEAT-PUMP   $ IP Non-Tech
 "HeatType" = GasFurn   $ IP Non-Tech
 "HeatTypeTU" = HEAT-PUMP   $ IP Non-Tech
 "HtCap_fT" = 0   $ Msr (Multi)TechID: StdNResSplitAC-lt45
 "HtCoolCapRatio" = 0   $ Msr (Multi)TechID: StdNResSplitAC-lt45
 "HtgEIR" = 0   $ Msr (Multi)TechID: StdNResSplitAC-lt45
 "IndoorFanMode" = CONTINUOUS   $ IP Non-Tech
 "KT_TransferAir" = No   $ IP Non-Tech
 "Latitude" = 34.1   $ IP Non-Tech
 "LobbyWaiting_EWSF" = 0.5   $ IP Non-Tech
 "LobbyWaiting_LWSF" = 1.3   $ IP Non-Tech
 "Longitude" = 117.8   $ IP Non-Tech
 "LowSpdCapRatio" = 1   $ Msr (Multi)TechID: StdNResSplitAC-lt45
 "LowSpdCfmRatio" = 1   $ Msr (Multi)TechID: StdNResSplitAC-lt45
 "MZFanMechEff" = 0.58   $ IP Non-Tech
 "MZHasRetFan" = FALSE   $ IP Non-Tech
 "MZ_RFanWPerCfm" = 0.33   $ IP Non-Tech
 "MZ_SFanWPerCfm" = 0.75   $ IP Non-Tech
 "MZ_SupFanStatic" = 2.25   $ IP Non-Tech
 "MaxOAFrac" = 1   $ Msr (Multi)TechID: StdNResSplitAC-lt45
 "MaxSupT_MZ" = 100   $ IP Non-Tech
 "MaxSupT_SZ" = 100   $ IP Non-Tech
 "MaxSupT_TU" = 90   $ IP Non-Tech
 "MechElecRoom_EWSF" = 0.2   $ IP Non-Tech
 "MechElecRoom_LWSF" = 0.7   $ IP Non-Tech
 "MinCfmPerSF" = 0.4   $ IP Non-Tech
 "MinSupT" = 55   $ IP Non-Tech
 "NumStages" = 1   $ Msr (Multi)TechID: StdNResSplitAC-lt45
 "OccCoolT" = 76   $ IP Non-Tech
 "OccHeatT" = 72   $ IP Non-Tech
 "OfficeOpen_EWSF" = 1.5   $ IP Non-Tech
 "OfficeOpen_LWSF" = 1.2   $ IP Non-Tech
 "OfficeSmall_EWSF" = 1.5   $ IP Non-Tech
 "OfficeSmall_LWSF" = 1.3   $ IP Non-Tech
 "PkgDxVintEconoFlag" = 0   $ IP Non-Tech
 "Restroom_EWSF" = 0.2   $ IP Non-Tech
 "Restroom_LWSF" = 0.6   $ IP Non-Tech
 "SEER" = 14   $ Msr (Multi)TechID: StdNResSplitAC-lt45
 "SZFanMechEff" = 0.58   $ IP Non-Tech
 "SZHasRetFan" = FALSE   $ IP Non-Tech
 "SZ_Is_2Spd" = FALSE   $ IP Non-Tech
 "SZ_SFanWPerCfm" = 0.46   $ IP Non-Tech
 "SZ_SupFanStatic" = 0.75   $ IP Non-Tech
 "Sector" = Any   $ Msr (Multi)TechID: StdNResSplitAC-lt45
 "StorageSmlCond_EWSF" = 0.2   $ IP Non-Tech
 "StorageSmlCond_LWSF" = 0.6   $ IP Non-Tech
 "SubType" = AC   $ Msr (Multi)TechID: StdNResSplitAC-lt45
 "T24GlzTbl" = CZTbl   $ IP Non-Tech
 "TermUnitFanMechEff" = 1   $ IP Non-Tech
 "TermUnitFanMode" = INTERMITTENT   $ IP Non-Tech
 "TotCoolCap" = 30924.85714   $ Msr (Multi)TechID: StdNResSplitAC-lt45
 "TwrSetpt" = 86.9   $ IP Non-Tech
 "UnocCoolT" = 86   $ IP Non-Tech
 "UnocHeatT" = 62   $ IP Non-Tech
 "UseEconoVintApplic" = FALSE   $ Msr (Multi)TechID: StdNResSplitAC-lt45
 "WlhpVintEconoFlag" = 0   $ IP Non-Tech
 "DuctDT" = 1   $ IP Tech: ComDuctInsul-1
 "DuctAirLoss" = 0   $ IP Tech: ComDuctLeak-0
 "DuctLossOAFrac" = 0   $ IP Tech: ComDuctLeak-0
 "ComRoofInsCalc" = FromUo   $ IP Tech: ComRoofIns-WFrm-0.08
 "ComRoofInsR" = -999   $ IP Tech: ComRoofIns-WFrm-0.08
 "ComRoofUo" = 0.08   $ IP Tech: ComRoofIns-WFrm-0.08
 "ComEWInsCalc" = FromUo   $ IP Tech: ComWallIns-WFrm-0.09
 "ComEWInsR" = -999   $ IP Tech: ComWallIns-WFrm-0.09
 "ComEWUo" = 0.09   $ IP Tech: ComWallIns-WFrm-0.09
 "ComN_SHGC" = 0.61   $ IP Tech: NResWin-ComN-0.77-0.61
 "ComN_UFactor" = 0.77   $ IP Tech: NResWin-ComN-0.77-0.61
 "ComN_VisTrans" = 0.77   $ IP Tech: NResWin-ComN-0.77-0.61
 "ComN_WinCode" = G2600   $ IP Tech: NResWin-ComN-0.77-0.61
 "ComN_WinFrmFrac" = 0.17   $ IP Tech: NResWin-ComN-0.77-0.61
 "ComN_WinFrmU" = 1   $ IP Tech: NResWin-ComN-0.77-0.61
 "ComO_SHGC" = 0.34   $ IP Tech: NResWin-ComO-0.77-0.34
 "ComO_UFactor" = 0.77   $ IP Tech: NResWin-ComO-0.77-0.34
 "ComO_VisTrans" = 0.44   $ IP Tech: NResWin-ComO-0.77-0.34
 "ComO_WinCode" = G2636   $ IP Tech: NResWin-ComO-0.77-0.34
 "ComO_WinFrmFrac" = 0.17   $ IP Tech: NResWin-ComO-0.77-0.34
 "ComO_WinFrmU" = 1   $ IP Tech: NResWin-ComO-0.77-0.34
 "LtgMsrApplic" = ALL   $ IP Tech: NonResLtgRefPre
 "LtgSav_CFL" = 0   $ IP Tech: NonResLtgRefPre
 "LtgSav_EX" = 0   $ IP Tech: NonResLtgRefPre
 "LtgSav_HB" = 0   $ IP Tech: NonResLtgRefPre
 "LtgSav_LF" = 0   $ IP Tech: NonResLtgRefPre
 "LtgSav_SP" = 0   $ IP Tech: NonResLtgRefPre
 "CEIR_fPLR" = PSZ65to135_CEIR_fPLR   $ IP Tech: PkgAC1SpH-65to135-E10
 "CLoss_fPLR" = PSZ65to135_CLoss_fPLR   $ IP Tech: PkgAC1SpH-65to135-E10
 "COP" = -1   $ IP Tech: PkgAC1SpH-65to135-E10
 "HtgFuel" = Gas   $ IP Tech: PkgAC1SpH-65to135-E10
 "IEER" = 11.87   $ IP Tech: PkgAC1SpH-65to135-E10
 "NominalCap" = 15   $ IP Tech: PkgAC1SpH-65to135-E10
 "RatedEER" = 10   $ IP Tech: PkgAC1SpH-65to135-E10
 "RatedSupMtrClass" = HiEff   $ IP Tech: PkgAC1SpH-65to135-E10
 "SizeRange" = 65to135   $ IP Tech: PkgAC1SpH-65to135-E10
 "SupMotEff" = 0.84   $ IP Tech: PkgAC1SpH-65to135-E10
 "Tier" = 0   $ IP Tech: PkgAC1SpH-65to135-E10
 "FanPwrMult" = 1   $ IP Tech: PkgFurn-0.80AFUE
 "FurnAFUE" = 0.8   $ IP Tech: PkgFurn-0.80AFUE
 "FurnEt" = 0.82   $ IP Tech: PkgFurn-0.80AFUE
 "FurnaceAuxKW" = 0.1   $ IP Tech: PkgFurn-0.80AFUE
 "HIR_fPLR" = Furnace-HIR-fPLR   $ IP Tech: PkgFurn-0.80AFUE
 "VSM" = FALSE   $ IP Tech: PkgFurn-0.80AFUE
 "BFMult" = 1   $ IP Tech: RefgChg-NRes-Std
 "CoolEirMult" = 1   $ IP Tech: RefgChg-NRes-Std
 "SensCoolCapMult" = 1   $ IP Tech: RefgChg-NRes-Std
 "TotCoolCapMult" = 1   $ IP Tech: RefgChg-NRes-Std
 "AltAdjFactor" = 1.027678   $ Sizing
 "CAssFlo_L_Break_CZn" = 521.982   $ Sizing
 "CAssFlo_L_CompDC_CZn" = 159.3488   $ Sizing
 "CAssFlo_L_Conf_CZn" = 296.599   $ Sizing
 "CAssFlo_L_CopyRm_CZn" = 109.5574   $ Sizing
 "CAssFlo_L_Hall_EZn" = 136.0897   $ Sizing
 "CAssFlo_L_Hall_NZn" = 80.40744   $ Sizing
 "CAssFlo_L_Hall_SZn" = 140.4109   $ Sizing
 "CAssFlo_L_Hall_WZn" = 155.9695   $ Sizing
 "CAssFlo_L_LobWait_EZn" = 324.7701   $ Sizing
 "CAssFlo_L_LobWait_NZn" = 213.9987   $ Sizing
 "CAssFlo_L_LobWait_SZn" = 351.4184   $ Sizing
 "CAssFlo_L_LobWait_WZn" = 397.4362   $ Sizing
 "CAssFlo_L_MechElec_CZn" = 95.02102   $ Sizing
 "CAssFlo_L_OfficeOpn_CZn" = 73.58836   $ Sizing
 "CAssFlo_L_OfficeOpn_EZn" = 572.2889   $ Sizing
 "CAssFlo_L_OfficeOpn_NZn" = 416.9763   $ Sizing
 "CAssFlo_L_OfficeOpn_SZn" = 585.4009   $ Sizing
 "CAssFlo_L_OfficeOpn_WZn" = 651.6483   $ Sizing
 "CAssFlo_L_OfficeSm_EZn" = 482.2415   $ Sizing
 "CAssFlo_L_OfficeSm_NZn" = 328.5102   $ Sizing
 "CAssFlo_L_OfficeSm_SZn" = 499.5945   $ Sizing
 "CAssFlo_L_OfficeSm_WZn" = 559.0612   $ Sizing
 "CAssFlo_L_Restrm_CZn" = 100.7015   $ Sizing
 "CAssFlo_L_StorSm_CZn" = 40.98116   $ Sizing
 "CAssFlo_L_StorSm_EZn" = 135.2219   $ Sizing
 "CAssFlo_L_StorSm_NZn" = 82.61108   $ Sizing
 "CAssFlo_L_StorSm_SZn" = 140.8509   $ Sizing
 "CAssFlo_L_StorSm_WZn" = 149.8938   $ Sizing
 "CAssFlo_T_Conf_CZn" = 288.1746   $ Sizing
 "CAssFlo_T_Hall_EZn" = 149.6656   $ Sizing
 "CAssFlo_T_Hall_NZn" = 89.91521   $ Sizing
 "CAssFlo_T_Hall_SZn" = 161.26   $ Sizing
 "CAssFlo_T_Hall_WZn" = 170.9485   $ Sizing
 "CAssFlo_T_OfficeOpn_CZn" = 72.41434   $ Sizing
 "CAssFlo_T_OfficeOpn_EZn" = 596.0203   $ Sizing
 "CAssFlo_T_OfficeOpn_NZn" = 441.5184   $ Sizing
 "CAssFlo_T_OfficeOpn_SZn" = 648.5467   $ Sizing
 "CAssFlo_T_OfficeOpn_WZn" = 692.4639   $ Sizing
 "CAssFlo_T_OfficeSm_EZn" = 506.9499   $ Sizing
 "CAssFlo_T_OfficeSm_NZn" = 351.4479   $ Sizing
 "CAssFlo_T_OfficeSm_SZn" = 552.0474   $ Sizing
 "CAssFlo_T_OfficeSm_WZn" = 594.6086   $ Sizing
 "CAssFlo_T_Restrm_CZn" = 138.0607   $ Sizing
 "CAssFlo_T_StorSm_EZn" = 155.3928   $ Sizing
 "CAssFlo_T_StorSm_NZn" = 97.84592   $ Sizing
 "CAssFlo_T_StorSm_SZn" = 168.5552   $ Sizing
 "CAssFlo_T_StorSm_WZn" = 177.3601   $ Sizing
 "CHRtFlo_Sys_L_Break_C" = 521.982   $ Sizing
 "CHRtFlo_Sys_L_CompDC_C" = 181.2878   $ Sizing
 "CHRtFlo_Sys_L_Conf_C" = 296.599   $ Sizing
 "CHRtFlo_Sys_L_CopyRm_C" = 109.5574   $ Sizing
 "CHRtFlo_Sys_L_Hall_E" = 156.4994   $ Sizing
 "CHRtFlo_Sys_L_Hall_N" = 80.40744   $ Sizing
 "CHRtFlo_Sys_L_Hall_S" = 162.6102   $ Sizing
 "CHRtFlo_Sys_L_Hall_W" = 164.1397   $ Sizing
 "CHRtFlo_Sys_L_LobWait_E" = 363.5555   $ Sizing
 "CHRtFlo_Sys_L_LobWait_N" = 213.9987   $ Sizing
 "CHRtFlo_Sys_L_LobWait_S" = 376.5443   $ Sizing
 "CHRtFlo_Sys_L_LobWait_W" = 397.4362   $ Sizing
 "CHRtFlo_Sys_L_MechElec_C" = 114.7162   $ Sizing
 "CHRtFlo_Sys_L_OfficeOpn_C" = 84.44803   $ Sizing
 "CHRtFlo_Sys_L_OfficeOpn_E" = 645.3007   $ Sizing
 "CHRtFlo_Sys_L_OfficeOpn_N" = 416.9763   $ Sizing
 "CHRtFlo_Sys_L_OfficeOpn_S" = 633.3781   $ Sizing
 "CHRtFlo_Sys_L_OfficeOpn_W" = 663.3749   $ Sizing
 "CHRtFlo_Sys_L_OfficeSm_E" = 555.3031   $ Sizing
 "CHRtFlo_Sys_L_OfficeSm_N" = 328.5102   $ Sizing
 "CHRtFlo_Sys_L_OfficeSm_S" = 558.9969   $ Sizing
 "CHRtFlo_Sys_L_OfficeSm_W" = 582.9492   $ Sizing
 "CHRtFlo_Sys_L_Restrm_C" = 109.8661   $ Sizing
 "CHRtFlo_Sys_L_StorSm_C" = 47.72002   $ Sizing
 "CHRtFlo_Sys_L_StorSm_E" = 152.7378   $ Sizing
 "CHRtFlo_Sys_L_StorSm_N" = 82.61108   $ Sizing
 "CHRtFlo_Sys_L_StorSm_S" = 154.8315   $ Sizing
 "CHRtFlo_Sys_L_StorSm_W" = 150.0141   $ Sizing
 "CHRtFlo_Sys_T_Conf_C" = 288.1746   $ Sizing
 "CHRtFlo_Sys_T_Hall_E" = 162.8889   $ Sizing
 "CHRtFlo_Sys_T_Hall_N" = 89.91521   $ Sizing
 "CHRtFlo_Sys_T_Hall_S" = 171.0177   $ Sizing
 "CHRtFlo_Sys_T_Hall_W" = 170.9485   $ Sizing
 "CHRtFlo_Sys_T_OfficeOpn_C" = 75.36566   $ Sizing
 "CHRtFlo_Sys_T_OfficeOpn_E" = 624.7306   $ Sizing
 "CHRtFlo_Sys_T_OfficeOpn_N" = 441.5184   $ Sizing
 "CHRtFlo_Sys_T_OfficeOpn_S" = 648.5467   $ Sizing
 "CHRtFlo_Sys_T_OfficeOpn_W" = 692.4639   $ Sizing
 "CHRtFlo_Sys_T_OfficeSm_E" = 545.2346   $ Sizing
 "CHRtFlo_Sys_T_OfficeSm_N" = 351.4479   $ Sizing
 "CHRtFlo_Sys_T_OfficeSm_S" = 571.4228   $ Sizing
 "CHRtFlo_Sys_T_OfficeSm_W" = 594.6086   $ Sizing
 "CHRtFlo_Sys_T_Restrm_C" = 150.0194   $ Sizing
 "CHRtFlo_Sys_T_StorSm_E" = 160.2576   $ Sizing
 "CHRtFlo_Sys_T_StorSm_N" = 97.84592   $ Sizing
 "CHRtFlo_Sys_T_StorSm_S" = 168.5552   $ Sizing
 "CHRtFlo_Sys_T_StorSm_W" = 177.3601   $ Sizing
 "CRtdFlo_Sys_L_Break_C" = 521.982   $ Sizing
 "CRtdFlo_Sys_L_CompDC_C" = 159.3488   $ Sizing
 "CRtdFlo_Sys_L_Conf_C" = 296.599   $ Sizing
 "CRtdFlo_Sys_L_CopyRm_C" = 109.5574   $ Sizing
 "CRtdFlo_Sys_L_Hall_E" = 136.0897   $ Sizing
 "CRtdFlo_Sys_L_Hall_N" = 80.40744   $ Sizing
 "CRtdFlo_Sys_L_Hall_S" = 140.4109   $ Sizing
 "CRtdFlo_Sys_L_Hall_W" = 155.9695   $ Sizing
 "CRtdFlo_Sys_L_LobWait_E" = 324.7701   $ Sizing
 "CRtdFlo_Sys_L_LobWait_N" = 213.9987   $ Sizing
 "CRtdFlo_Sys_L_LobWait_S" = 351.4184   $ Sizing
 "CRtdFlo_Sys_L_LobWait_W" = 397.4362   $ Sizing
 "CRtdFlo_Sys_L_MechElec_C" = 95.02102   $ Sizing
 "CRtdFlo_Sys_L_OfficeOpn_C" = 73.58836   $ Sizing
 "CRtdFlo_Sys_L_OfficeOpn_E" = 572.2889   $ Sizing
 "CRtdFlo_Sys_L_OfficeOpn_N" = 416.9763   $ Sizing
 "CRtdFlo_Sys_L_OfficeOpn_S" = 585.4009   $ Sizing
 "CRtdFlo_Sys_L_OfficeOpn_W" = 651.6484   $ Sizing
 "CRtdFlo_Sys_L_OfficeSm_E" = 482.2415   $ Sizing
 "CRtdFlo_Sys_L_OfficeSm_N" = 328.5102   $ Sizing
 "CRtdFlo_Sys_L_OfficeSm_S" = 499.5945   $ Sizing
 "CRtdFlo_Sys_L_OfficeSm_W" = 559.0612   $ Sizing
 "CRtdFlo_Sys_L_Restrm_C" = 100.7015   $ Sizing
 "CRtdFlo_Sys_L_StorSm_C" = 40.98116   $ Sizing
 "CRtdFlo_Sys_L_StorSm_E" = 135.2219   $ Sizing
 "CRtdFlo_Sys_L_StorSm_N" = 82.61108   $ Sizing
 "CRtdFlo_Sys_L_StorSm_S" = 140.8509   $ Sizing
 "CRtdFlo_Sys_L_StorSm_W" = 150.0141   $ Sizing
 "CRtdFlo_Sys_T_Conf_C" = 288.1746   $ Sizing
 "CRtdFlo_Sys_T_Hall_E" = 149.6656   $ Sizing
 "CRtdFlo_Sys_T_Hall_N" = 89.91521   $ Sizing
 "CRtdFlo_Sys_T_Hall_S" = 161.26   $ Sizing
 "CRtdFlo_Sys_T_Hall_W" = 170.9485   $ Sizing
 "CRtdFlo_Sys_T_OfficeOpn_C" = 72.41434   $ Sizing
 "CRtdFlo_Sys_T_OfficeOpn_E" = 596.0203   $ Sizing
 "CRtdFlo_Sys_T_OfficeOpn_N" = 441.5184   $ Sizing
 "CRtdFlo_Sys_T_OfficeOpn_S" = 648.5467   $ Sizing
 "CRtdFlo_Sys_T_OfficeOpn_W" = 692.4639   $ Sizing
 "CRtdFlo_Sys_T_OfficeSm_E" = 506.9499   $ Sizing
 "CRtdFlo_Sys_T_OfficeSm_N" = 351.4479   $ Sizing
 "CRtdFlo_Sys_T_OfficeSm_S" = 552.0474   $ Sizing
 "CRtdFlo_Sys_T_OfficeSm_W" = 594.6086   $ Sizing
 "CRtdFlo_Sys_T_Restrm_C" = 138.0607   $ Sizing
 "CRtdFlo_Sys_T_StorSm_E" = 155.3928   $ Sizing
 "CRtdFlo_Sys_T_StorSm_N" = 97.84592   $ Sizing
 "CRtdFlo_Sys_T_StorSm_S" = 168.5552   $ Sizing
 "CRtdFlo_Sys_T_StorSm_W" = 177.3601   $ Sizing
 "CSupFlo_Sys_L_Break_C" = 521.982   $ Sizing
 "CSupFlo_Sys_L_CompDC_C" = 159.3488   $ Sizing
 "CSupFlo_Sys_L_Conf_C" = 296.599   $ Sizing
 "CSupFlo_Sys_L_CopyRm_C" = 109.5574   $ Sizing
 "CSupFlo_Sys_L_Hall_E" = 136.0897   $ Sizing
 "CSupFlo_Sys_L_Hall_N" = 80.40744   $ Sizing
 "CSupFlo_Sys_L_Hall_S" = 140.4109   $ Sizing
 "CSupFlo_Sys_L_Hall_W" = 155.9695   $ Sizing
 "CSupFlo_Sys_L_LobWait_E" = 324.7701   $ Sizing
 "CSupFlo_Sys_L_LobWait_N" = 213.9987   $ Sizing
 "CSupFlo_Sys_L_LobWait_S" = 351.4184   $ Sizing
 "CSupFlo_Sys_L_LobWait_W" = 397.4362   $ Sizing
 "CSupFlo_Sys_L_MechElec_C" = 95.02102   $ Sizing
 "CSupFlo_Sys_L_OfficeOpn_C" = 73.58836   $ Sizing
 "CSupFlo_Sys_L_OfficeOpn_E" = 572.2889   $ Sizing
 "CSupFlo_Sys_L_OfficeOpn_N" = 416.9763   $ Sizing
 "CSupFlo_Sys_L_OfficeOpn_S" = 585.4009   $ Sizing
 "CSupFlo_Sys_L_OfficeOpn_W" = 651.6484   $ Sizing
 "CSupFlo_Sys_L_OfficeSm_E" = 482.2415   $ Sizing
 "CSupFlo_Sys_L_OfficeSm_N" = 328.5102   $ Sizing
 "CSupFlo_Sys_L_OfficeSm_S" = 499.5945   $ Sizing
 "CSupFlo_Sys_L_OfficeSm_W" = 559.0612   $ Sizing
 "CSupFlo_Sys_L_Restrm_C" = 100.7015   $ Sizing
 "CSupFlo_Sys_L_StorSm_C" = 40.98116   $ Sizing
 "CSupFlo_Sys_L_StorSm_E" = 135.2219   $ Sizing
 "CSupFlo_Sys_L_StorSm_N" = 82.61108   $ Sizing
 "CSupFlo_Sys_L_StorSm_S" = 140.8509   $ Sizing
 "CSupFlo_Sys_L_StorSm_W" = 150.0141   $ Sizing
 "CSupFlo_Sys_T_Conf_C" = 288.1746   $ Sizing
 "CSupFlo_Sys_T_Hall_E" = 149.6656   $ Sizing
 "CSupFlo_Sys_T_Hall_N" = 89.91521   $ Sizing
 "CSupFlo_Sys_T_Hall_S" = 161.26   $ Sizing
 "CSupFlo_Sys_T_Hall_W" = 170.9485   $ Sizing
 "CSupFlo_Sys_T_OfficeOpn_C" = 72.41434   $ Sizing
 "CSupFlo_Sys_T_OfficeOpn_E" = 596.0203   $ Sizing
 "CSupFlo_Sys_T_OfficeOpn_N" = 441.5184   $ Sizing
 "CSupFlo_Sys_T_OfficeOpn_S" = 648.5467   $ Sizing
 "CSupFlo_Sys_T_OfficeOpn_W" = 692.4639   $ Sizing
 "CSupFlo_Sys_T_OfficeSm_E" = 506.9499   $ Sizing
 "CSupFlo_Sys_T_OfficeSm_N" = 351.4479   $ Sizing
 "CSupFlo_Sys_T_OfficeSm_S" = 552.0474   $ Sizing
 "CSupFlo_Sys_T_OfficeSm_W" = 594.6086   $ Sizing
 "CSupFlo_Sys_T_Restrm_C" = 138.0607   $ Sizing
 "CSupFlo_Sys_T_StorSm_E" = 155.3928   $ Sizing
 "CSupFlo_Sys_T_StorSm_N" = 97.84592   $ Sizing
 "CSupFlo_Sys_T_StorSm_S" = 168.5552   $ Sizing
 "CSupFlo_Sys_T_StorSm_W" = 177.3601   $ Sizing
 "ClCap_Sys_L_Break_C" = 17414.52   $ Sizing
 "ClCap_Sys_L_CompDC_C" = 5316.243   $ Sizing
 "ClCap_Sys_L_Conf_C" = 12593.92   $ Sizing
 "ClCap_Sys_L_CopyRm_C" = 3655.085   $ Sizing
 "ClCap_Sys_L_Hall_E" = 4540.266   $ Sizing
 "ClCap_Sys_L_Hall_N" = 2682.577   $ Sizing
 "ClCap_Sys_L_Hall_S" = 4684.43   $ Sizing
 "ClCap_Sys_L_Hall_W" = 5203.501   $ Sizing
 "ClCap_Sys_L_LobWait_E" = 10835.08   $ Sizing
 "ClCap_Sys_L_LobWait_N" = 7139.49   $ Sizing
 "ClCap_Sys_L_LobWait_S" = 11724.13   $ Sizing
 "ClCap_Sys_L_LobWait_W" = 13259.39   $ Sizing
 "ClCap_Sys_L_MechElec_C" = 3170.12   $ Sizing
 "ClCap_Sys_L_OfficeOpn_C" = 2455.077   $ Sizing
 "ClCap_Sys_L_OfficeOpn_E" = 19092.87   $ Sizing
 "ClCap_Sys_L_OfficeOpn_N" = 13911.29   $ Sizing
 "ClCap_Sys_L_OfficeOpn_S" = 19530.32   $ Sizing
 "ClCap_Sys_L_OfficeOpn_W" = 21740.49   $ Sizing
 "ClCap_Sys_L_OfficeSm_E" = 16088.68   $ Sizing
 "ClCap_Sys_L_OfficeSm_N" = 10959.86   $ Sizing
 "ClCap_Sys_L_OfficeSm_S" = 16667.62   $ Sizing
 "ClCap_Sys_L_OfficeSm_W" = 18651.57   $ Sizing
 "ClCap_Sys_L_Restrm_C" = 3359.634   $ Sizing
 "ClCap_Sys_L_StorSm_C" = 1367.226   $ Sizing
 "ClCap_Sys_L_StorSm_E" = 4511.313   $ Sizing
 "ClCap_Sys_L_StorSm_N" = 2756.096   $ Sizing
 "ClCap_Sys_L_StorSm_S" = 4699.111   $ Sizing
 "ClCap_Sys_L_StorSm_W" = 5004.815   $ Sizing
 "ClCap_Sys_T_Conf_C" = 12236.21   $ Sizing
 "ClCap_Sys_T_Hall_E" = 4993.189   $ Sizing
 "ClCap_Sys_T_Hall_N" = 2999.778   $ Sizing
 "ClCap_Sys_T_Hall_S" = 5380.003   $ Sizing
 "ClCap_Sys_T_Hall_W" = 5703.234   $ Sizing
 "ClCap_Sys_T_OfficeOpn_C" = 2415.909   $ Sizing
 "ClCap_Sys_T_OfficeOpn_E" = 19884.61   $ Sizing
 "ClCap_Sys_T_OfficeOpn_N" = 14730.07   $ Sizing
 "ClCap_Sys_T_OfficeOpn_S" = 21637.01   $ Sizing
 "ClCap_Sys_T_OfficeOpn_W" = 23102.19   $ Sizing
 "ClCap_Sys_T_OfficeSm_E" = 16913.01   $ Sizing
 "ClCap_Sys_T_OfficeSm_N" = 11725.11   $ Sizing
 "ClCap_Sys_T_OfficeSm_S" = 18417.57   $ Sizing
 "ClCap_Sys_T_OfficeSm_W" = 19837.51   $ Sizing
 "ClCap_Sys_T_Restrm_C" = 4606.021   $ Sizing
 "ClCap_Sys_T_StorSm_E" = 5184.262   $ Sizing
 "ClCap_Sys_T_StorSm_N" = 3264.365   $ Sizing
 "ClCap_Sys_T_StorSm_S" = 5623.39   $ Sizing
 "ClCap_Sys_T_StorSm_W" = 5917.141   $ Sizing
 "HtCap_Sys_L_Break_C" = -26451.52   $ Sizing
 "HtCap_Sys_L_CompDC_C" = -8636.322   $ Sizing
 "HtCap_Sys_L_Conf_C" = -15725.17   $ Sizing
 "HtCap_Sys_L_CopyRm_C" = -5640.396   $ Sizing
 "HtCap_Sys_L_Hall_E" = -5294.73   $ Sizing
 "HtCap_Sys_L_Hall_N" = -2850.872   $ Sizing
 "HtCap_Sys_L_Hall_S" = -5231.038   $ Sizing
 "HtCap_Sys_L_Hall_W" = -5353.9   $ Sizing
 "HtCap_Sys_L_LobWait_E" = -11929.68   $ Sizing
 "HtCap_Sys_L_LobWait_N" = -8596.315   $ Sizing
 "HtCap_Sys_L_LobWait_S" = -12962.46   $ Sizing
 "HtCap_Sys_L_LobWait_W" = -13638.48   $ Sizing
 "HtCap_Sys_L_MechElec_C" = -4196.843   $ Sizing
 "HtCap_Sys_L_OfficeOpn_C" = -3031.633   $ Sizing
 "HtCap_Sys_L_OfficeOpn_E" = -20963.85   $ Sizing
 "HtCap_Sys_L_OfficeOpn_N" = -15576.76   $ Sizing
 "HtCap_Sys_L_OfficeOpn_S" = -20104.17   $ Sizing
 "HtCap_Sys_L_OfficeOpn_W" = -22202.02   $ Sizing
 "HtCap_Sys_L_OfficeSm_E" = -18295.36   $ Sizing
 "HtCap_Sys_L_OfficeSm_N" = -11869.45   $ Sizing
 "HtCap_Sys_L_OfficeSm_S" = -17502.28   $ Sizing
 "HtCap_Sys_L_OfficeSm_W" = -18879.76   $ Sizing
 "HtCap_Sys_L_Restrm_C" = -3615.053   $ Sizing
 "HtCap_Sys_L_StorSm_C" = -1767.697   $ Sizing
 "HtCap_Sys_L_StorSm_E" = -5231.252   $ Sizing
 "HtCap_Sys_L_StorSm_N" = -3313.08   $ Sizing
 "HtCap_Sys_L_StorSm_S" = -5231.153   $ Sizing
 "HtCap_Sys_L_StorSm_W" = -5210.443   $ Sizing
 "HtCap_Sys_T_Conf_C" = -15876.07   $ Sizing
 "HtCap_Sys_T_Hall_E" = -6031.336   $ Sizing
 "HtCap_Sys_T_Hall_N" = -3684.13   $ Sizing
 "HtCap_Sys_T_Hall_S" = -6278.564   $ Sizing
 "HtCap_Sys_T_Hall_W" = -6297.987   $ Sizing
 "HtCap_Sys_T_OfficeOpn_C" = -3092.172   $ Sizing
 "HtCap_Sys_T_OfficeOpn_E" = -22995.53   $ Sizing
 "HtCap_Sys_T_OfficeOpn_N" = -18177.4   $ Sizing
 "HtCap_Sys_T_OfficeOpn_S" = -24117.29   $ Sizing
 "HtCap_Sys_T_OfficeOpn_W" = -26041.24   $ Sizing
 "HtCap_Sys_T_OfficeSm_E" = -19846.56   $ Sizing
 "HtCap_Sys_T_OfficeSm_N" = -14153.19   $ Sizing
 "HtCap_Sys_T_OfficeSm_S" = -20400.36   $ Sizing
 "HtCap_Sys_T_OfficeSm_W" = -21710.79   $ Sizing
 "HtCap_Sys_T_Restrm_C" = -5542.61   $ Sizing
 "HtCap_Sys_T_StorSm_E" = -6303.027   $ Sizing
 "HtCap_Sys_T_StorSm_N" = -4472.727   $ Sizing
 "HtCap_Sys_T_StorSm_S" = -6463.176   $ Sizing
 "HtCap_Sys_T_StorSm_W" = -6935.75   $ Sizing
..

##include Templates\OfS_DX_SZ.inp
END ..
COMPUTE ..
STOP ..
