INPUT ..

##fileprefix C:\Users\jglasskatz\MASControl3\
##set1 IsSizing FALSE
##set1 CoolType DX
##set1 HeatType FURNACE
##set1 EU_HrRepVar 0
##set1 BldgVint 2020
##set1 BldgLoc CZ11

 ##set1 mBFMult 1   $ IP Tech: RefgChg-NRes-Std

PARAMETER
 "AltFactor" = 1.01292   $ IP Non-Tech
 "BF_fFlow" = SpltAC2SpHiSEER_BF_fFlow   $ Msr (Multi)TechID: MsrNResSplitAC-45to55-S17
 "BF_fT" = SpltAC2SpHiSEER_BF_fT   $ Msr (Multi)TechID: MsrNResSplitAC-45to55-S17
 "BldgEconoFlag" = 1   $ IP Non-Tech
 "Break_EWSF" = 1   $ IP Non-Tech
 "Break_LWSF" = 0.65   $ IP Non-Tech
 "CDD_DBHi10" = 85   $ IP Non-Tech
 "CDD_DBHi7" = 106   $ IP Non-Tech
 "CDD_DBHi8" = 106   $ IP Non-Tech
 "CDD_DBHi9" = 99   $ IP Non-Tech
 "CDD_DBRange10" = 23   $ IP Non-Tech
 "CDD_DBRange7" = 30   $ IP Non-Tech
 "CDD_DBRange8" = 33   $ IP Non-Tech
 "CDD_DBRange9" = 33   $ IP Non-Tech
 "CDD_Day10" = 15   $ IP Non-Tech
 "CDD_Day7" = 16   $ IP Non-Tech
 "CDD_Day8" = 20   $ IP Non-Tech
 "CDD_Day9" = 17   $ IP Non-Tech
 "CDD_HrHi10" = 16   $ IP Non-Tech
 "CDD_HrHi7" = 16   $ IP Non-Tech
 "CDD_HrHi8" = 16   $ IP Non-Tech
 "CDD_HrHi9" = 16   $ IP Non-Tech
 "CDD_HrLo10" = 6   $ IP Non-Tech
 "CDD_HrLo7" = 7   $ IP Non-Tech
 "CDD_HrLo8" = 7   $ IP Non-Tech
 "CDD_HrLo9" = 7   $ IP Non-Tech
 "CDD_WB10" = 59.3704567   $ IP Non-Tech
 "CDD_WB7" = 72.37876129   $ IP Non-Tech
 "CDD_WB8" = 69.41531372   $ IP Non-Tech
 "CDD_WB9" = 65.60124207   $ IP Non-Tech
 "CEIR_fPLR_Hot" = SpltAC2SpHiSEER_CEIR_fPLR_Hot   $ Msr (Multi)TechID: MsrNResSplitAC-45to55-S17
 "CEIR_fPLR_Mod" = SpltAC2SpHiSEER_CEIR_fPLR_Mod   $ Msr (Multi)TechID: MsrNResSplitAC-45to55-S17
 "CEIR_fPLR_Tem" = SpltAC2SpHiSEER_CEIR_fPLR_Tem   $ Msr (Multi)TechID: MsrNResSplitAC-45to55-S17
 "CLoss_fPLR_Hot" = SpltAC2SpHiSEER_CLoss_fPLR_Hot   $ Msr (Multi)TechID: MsrNResSplitAC-45to55-S17
 "CLoss_fPLR_Mod" = SpltAC2SpHiSEER_CLoss_fPLR_Mod   $ Msr (Multi)TechID: MsrNResSplitAC-45to55-S17
 "CLoss_fPLR_Tem" = SpltAC2SpHiSEER_CLoss_fPLR_Tem   $ Msr (Multi)TechID: MsrNResSplitAC-45to55-S17
 "COP47" = 0   $ Msr (Multi)TechID: MsrNResSplitAC-45to55-S17
 "CZ_Category" = Hot   $ IP Non-Tech
 "CapRange" = Any   $ Msr (Multi)TechID: MsrNResSplitAC-45to55-S17
 "CfmPerBtuh" = 0.03   $ Msr (Multi)TechID: MsrNResSplitAC-45to55-S17
 "ChwVintEconoFlag" = 1   $ IP Non-Tech
 "ClCap_fT" = SpltAC2SpHiSEER_ClCap_fT   $ Msr (Multi)TechID: MsrNResSplitAC-45to55-S17
 "ClSH_fT" = SpltAC2SpHiSEER_ClSH_fT   $ Msr (Multi)TechID: MsrNResSplitAC-45to55-S17
 "CoilBF" = 0.102   $ Msr (Multi)TechID: MsrNResSplitAC-45to55-S17
 "CompRoomData_EWSF" = 5   $ IP Non-Tech
 "CompRoomData_LWSF" = 0.8   $ IP Non-Tech
 "CondWPerBtuh" = 0   $ Msr (Multi)TechID: MsrNResSplitAC-45to55-S17
 "Conference_EWSF" = 1   $ IP Non-Tech
 "Conference_LWSF" = 0.85   $ IP Non-Tech
 "CoolSensCap" = 0.724   $ Msr (Multi)TechID: MsrNResSplitAC-45to55-S17
 "CoolSetT" = 45   $ IP Non-Tech
 "CoolType" = DX   $ IP Non-Tech
 "CoolingEIR" = 0.2225   $ Msr (Multi)TechID: MsrNResSplitAC-45to55-S17
 "CopyRoom_EWSF" = 1.5   $ IP Non-Tech
 "CopyRoom_LWSF" = 0.5   $ IP Non-Tech
 "CrnkEIR" = 0.002225   $ Msr (Multi)TechID: MsrNResSplitAC-45to55-S17
 "CrnkMaxT" = 50   $ Msr (Multi)TechID: MsrNResSplitAC-45to55-S17
 "DXType" = SplitSEER   $ Msr (Multi)TechID: MsrNResSplitAC-45to55-S17
 "DesCoolT" = 75   $ IP Non-Tech
 "DesHeatT" = 73   $ IP Non-Tech
 "EER" = 13.26   $ Msr (Multi)TechID: MsrNResSplitAC-45to55-S17
 "EIR_fT" = SpltAC2SpHiSEER_EIR_fT   $ Msr (Multi)TechID: MsrNResSplitAC-45to55-S17
 "EconoCtrl" = FIXED   $ Msr (Multi)TechID: MsrNResSplitAC-45to55-S17
 "EconoEnthLimit" = 28   $ IP Non-Tech
 "EconoTempLimit" = 75   $ IP Non-Tech
 "Elevation" = 348   $ IP Non-Tech
 "FanEirPlr" = TwoSpeedFan   $ Msr (Multi)TechID: MsrNResSplitAC-45to55-S17
 "FanWPerCfm" = 0.271   $ Msr (Multi)TechID: MsrNResSplitAC-45to55-S17
 "HDD_CloudAmt1" = 0   $ IP Non-Tech
 "HDD_DBHi1" = 46   $ IP Non-Tech
 "HDD_DBRange1" = 14   $ IP Non-Tech
 "HDD_Day1" = 15   $ IP Non-Tech
 "HDD_HrHi1" = 16   $ IP Non-Tech
 "HDD_HrLo1" = 7   $ IP Non-Tech
 "HDD_WB1" = 39.9   $ IP Non-Tech
 "HDD_WindSpd1" = 19.6   $ IP Non-Tech
 "HIR_fT" = 0   $ Msr (Multi)TechID: MsrNResSplitAC-45to55-S17
 "HSPF" = 0   $ Msr (Multi)TechID: MsrNResSplitAC-45to55-S17
 "Hall_EWSF" = 0.2   $ IP Non-Tech
 "Hall_LWSF" = 0.55   $ IP Non-Tech
 "HeatSrc" = FURNACE   $ IP Non-Tech
 "HeatSrcTU" = HEAT-PUMP   $ IP Non-Tech
 "HeatType" = GasFurn   $ IP Non-Tech
 "HeatTypeTU" = HEAT-PUMP   $ IP Non-Tech
 "HtCap_fT" = 0   $ Msr (Multi)TechID: MsrNResSplitAC-45to55-S17
 "HtCoolCapRatio" = 0   $ Msr (Multi)TechID: MsrNResSplitAC-45to55-S17
 "HtgEIR" = 0   $ Msr (Multi)TechID: MsrNResSplitAC-45to55-S17
 "IndoorFanMode" = CONTINUOUS   $ IP Non-Tech
 "KT_TransferAir" = Yes   $ IP Non-Tech
 "Latitude" = 40.2   $ IP Non-Tech
 "LobbyWaiting_EWSF" = 0.5   $ IP Non-Tech
 "LobbyWaiting_LWSF" = 0.75   $ IP Non-Tech
 "Longitude" = 122.3   $ IP Non-Tech
 "LowSpdCapRatio" = 0.686   $ Msr (Multi)TechID: MsrNResSplitAC-45to55-S17
 "LowSpdCfmRatio" = 0.739   $ Msr (Multi)TechID: MsrNResSplitAC-45to55-S17
 "MZFanMechEff" = 0.58   $ IP Non-Tech
 "MZHasRetFan" = FALSE   $ IP Non-Tech
 "MZ_RFanWPerCfm" = 0.33   $ IP Non-Tech
 "MZ_SFanWPerCfm" = 0.75   $ IP Non-Tech
 "MZ_SupFanStatic" = 2.25   $ IP Non-Tech
 "MaxOAFrac" = 1   $ Msr (Multi)TechID: MsrNResSplitAC-45to55-S17
 "MaxSupT_MZ" = 100   $ IP Non-Tech
 "MaxSupT_SZ" = 100   $ IP Non-Tech
 "MaxSupT_TU" = 90   $ IP Non-Tech
 "MechElecRoom_EWSF" = 0.2   $ IP Non-Tech
 "MechElecRoom_LWSF" = 0.4   $ IP Non-Tech
 "MinCfmPerSF" = 0.4   $ IP Non-Tech
 "MinSupT" = 55   $ IP Non-Tech
 "NumStages" = 2   $ Msr (Multi)TechID: MsrNResSplitAC-45to55-S17
 "OccCoolT" = 76   $ IP Non-Tech
 "OccHeatT" = 72   $ IP Non-Tech
 "OfficeOpen_EWSF" = 1.5   $ IP Non-Tech
 "OfficeOpen_LWSF" = 0.8   $ IP Non-Tech
 "OfficeSmall_EWSF" = 1.5   $ IP Non-Tech
 "OfficeSmall_LWSF" = 0.9   $ IP Non-Tech
 "PkgDxVintEconoFlag" = 1   $ IP Non-Tech
 "Restroom_EWSF" = 0.2   $ IP Non-Tech
 "Restroom_LWSF" = 0.65   $ IP Non-Tech
 "SEER" = 17   $ Msr (Multi)TechID: MsrNResSplitAC-45to55-S17
 "SZFanMechEff" = 0.58   $ IP Non-Tech
 "SZHasRetFan" = FALSE   $ IP Non-Tech
 "SZ_Is_2Spd" = TRUE   $ IP Non-Tech
 "SZ_SFanWPerCfm" = 0.46   $ IP Non-Tech
 "SZ_SupFanStatic" = 0.75   $ IP Non-Tech
 "Sector" = Any   $ Msr (Multi)TechID: MsrNResSplitAC-45to55-S17
 "StorageSmlCond_EWSF" = 0.2   $ IP Non-Tech
 "StorageSmlCond_LWSF" = 0.45   $ IP Non-Tech
 "SubType" = AC   $ Msr (Multi)TechID: MsrNResSplitAC-45to55-S17
 "TermUnitFanMechEff" = 1   $ IP Non-Tech
 "TermUnitFanMode" = INTERMITTENT   $ IP Non-Tech
 "TotCoolCap" = 58805   $ Msr (Multi)TechID: MsrNResSplitAC-45to55-S17
 "TwrSetpt" = 85.8   $ IP Non-Tech
 "UnocCoolT" = 86   $ IP Non-Tech
 "UnocHeatT" = 62   $ IP Non-Tech
 "UseEconoVintApplic" = FALSE   $ Msr (Multi)TechID: MsrNResSplitAC-45to55-S17
 "WlhpVintEconoFlag" = 1   $ IP Non-Tech
 "DuctDT" = 1   $ IP Tech: ComDuctInsul-1
 "DuctAirLoss" = 0   $ IP Tech: ComDuctLeak-0
 "DuctLossOAFrac" = 0   $ IP Tech: ComDuctLeak-0
 "ComRoofInsCalc" = FromUo   $ IP Tech: ComRoofIns-WFrm-0.03
 "ComRoofInsR" = -999   $ IP Tech: ComRoofIns-WFrm-0.03
 "ComRoofUo" = 0.03   $ IP Tech: ComRoofIns-WFrm-0.03
 "ComEWInsCalc" = FromUo   $ IP Tech: ComWallIns-WFrm-0.05
 "ComEWInsR" = -999   $ IP Tech: ComWallIns-WFrm-0.05
 "ComEWUo" = 0.05   $ IP Tech: ComWallIns-WFrm-0.05
 "ComN_SHGC" = 0.25   $ IP Tech: NResWin-ComN-0.36-0.25
 "ComN_UFactor" = 0.36   $ IP Tech: NResWin-ComN-0.36-0.25
 "ComN_VisTrans" = 0.41   $ IP Tech: NResWin-ComN-0.36-0.25
 "ComN_WinCode" = G2668   $ IP Tech: NResWin-ComN-0.36-0.25
 "ComN_WinFrmFrac" = 0.17   $ IP Tech: NResWin-ComN-0.36-0.25
 "ComN_WinFrmU" = 0.3   $ IP Tech: NResWin-ComN-0.36-0.25
 "ComO_SHGC" = 0.25   $ IP Tech: NResWin-ComO-0.36-0.25
 "ComO_UFactor" = 0.36   $ IP Tech: NResWin-ComO-0.36-0.25
 "ComO_VisTrans" = 0.41   $ IP Tech: NResWin-ComO-0.36-0.25
 "ComO_WinCode" = G2668   $ IP Tech: NResWin-ComO-0.36-0.25
 "ComO_WinFrmFrac" = 0.17   $ IP Tech: NResWin-ComO-0.36-0.25
 "ComO_WinFrmU" = 0.3   $ IP Tech: NResWin-ComO-0.36-0.25
 "LtgMsrApplic" = ALL   $ IP Tech: NonResLtgRefPre
 "LtgSav_CFL" = 0   $ IP Tech: NonResLtgRefPre
 "LtgSav_EX" = 0   $ IP Tech: NonResLtgRefPre
 "LtgSav_HB" = 0   $ IP Tech: NonResLtgRefPre
 "LtgSav_LF" = 0   $ IP Tech: NonResLtgRefPre
 "LtgSav_SP" = 0   $ IP Tech: NonResLtgRefPre
 "CEIR_fPLR" = PSZ65to135_CEIR_fPLR   $ IP Tech: PkgAC2SpP-65to135-E11
 "CLoss_fPLR" = PSZ65to135_CLoss_fPLR   $ IP Tech: PkgAC2SpP-65to135-E11
 "COP" = -1   $ IP Tech: PkgAC2SpP-65to135-E11
 "HtgFuel" = Gas   $ IP Tech: PkgAC2SpP-65to135-E11
 "IEER" = 13.35   $ IP Tech: PkgAC2SpP-65to135-E11
 "NominalCap" = 15   $ IP Tech: PkgAC2SpP-65to135-E11
 "RatedEER" = 11   $ IP Tech: PkgAC2SpP-65to135-E11
 "RatedSupMtrClass" = Premium   $ IP Tech: PkgAC2SpP-65to135-E11
 "SizeRange" = 65to135   $ IP Tech: PkgAC2SpP-65to135-E11
 "SupMotEff" = 0.865   $ IP Tech: PkgAC2SpP-65to135-E11
 "Tier" = 0   $ IP Tech: PkgAC2SpP-65to135-E11
 "FanPwrMult" = 1   $ IP Tech: PkgFurn-0.80AFUE
 "FurnAFUE" = 0.8   $ IP Tech: PkgFurn-0.80AFUE
 "FurnEt" = 0.82   $ IP Tech: PkgFurn-0.80AFUE
 "FurnaceAuxKW" = 0.1   $ IP Tech: PkgFurn-0.80AFUE
 "HIR_fPLR" = Furnace-HIR-fPLR   $ IP Tech: PkgFurn-0.80AFUE
 "VSM" = FALSE   $ IP Tech: PkgFurn-0.80AFUE
 "BFMult" = 1   $ IP Tech: RefgChg-NRes-Std
 "CoolEirMult" = 1   $ IP Tech: RefgChg-NRes-Std
 "SensCoolCapMult" = 1   $ IP Tech: RefgChg-NRes-Std
 "TotCoolCapMult" = 1   $ IP Tech: RefgChg-NRes-Std
 "AltAdjFactor" = 1.012923   $ Sizing
 "CAssFlo_L_Break_CZn" = 481.3549   $ Sizing
 "CAssFlo_L_CompDC_CZn" = 153.9175   $ Sizing
 "CAssFlo_L_Conf_CZn" = 277.7612   $ Sizing
 "CAssFlo_L_CopyRm_CZn" = 98.1982   $ Sizing
 "CAssFlo_L_Hall_EZn" = 103.9829   $ Sizing
 "CAssFlo_L_Hall_NZn" = 66.86512   $ Sizing
 "CAssFlo_L_Hall_SZn" = 99.81202   $ Sizing
 "CAssFlo_L_Hall_WZn" = 113.9977   $ Sizing
 "CAssFlo_L_LobWait_EZn" = 245.7289   $ Sizing
 "CAssFlo_L_LobWait_NZn" = 175.8212   $ Sizing
 "CAssFlo_L_LobWait_SZn" = 238.404   $ Sizing
 "CAssFlo_L_LobWait_WZn" = 286.7426   $ Sizing
 "CAssFlo_L_MechElec_CZn" = 79.04467   $ Sizing
 "CAssFlo_L_OfficeOpn_CZn" = 68.74403   $ Sizing
 "CAssFlo_L_OfficeOpn_EZn" = 452.2219   $ Sizing
 "CAssFlo_L_OfficeOpn_NZn" = 362.387   $ Sizing
 "CAssFlo_L_OfficeOpn_SZn" = 431.7783   $ Sizing
 "CAssFlo_L_OfficeOpn_WZn" = 507.3117   $ Sizing
 "CAssFlo_L_OfficeSm_EZn" = 375.1616   $ Sizing
 "CAssFlo_L_OfficeSm_NZn" = 281.0154   $ Sizing
 "CAssFlo_L_OfficeSm_SZn" = 363.8837   $ Sizing
 "CAssFlo_L_OfficeSm_WZn" = 425.5554   $ Sizing
 "CAssFlo_L_Restrm_CZn" = 95.77386   $ Sizing
 "CAssFlo_L_StorSm_CZn" = 38.29917   $ Sizing
 "CAssFlo_L_StorSm_EZn" = 103.2747   $ Sizing
 "CAssFlo_L_StorSm_NZn" = 68.59449   $ Sizing
 "CAssFlo_L_StorSm_SZn" = 99.74445   $ Sizing
 "CAssFlo_L_StorSm_WZn" = 113.4494   $ Sizing
 "CAssFlo_T_Conf_CZn" = 265.8294   $ Sizing
 "CAssFlo_T_Hall_EZn" = 116.5154   $ Sizing
 "CAssFlo_T_Hall_NZn" = 70.5102   $ Sizing
 "CAssFlo_T_Hall_SZn" = 108.3557   $ Sizing
 "CAssFlo_T_Hall_WZn" = 122.6715   $ Sizing
 "CAssFlo_T_OfficeOpn_CZn" = 65.79133   $ Sizing
 "CAssFlo_T_OfficeOpn_EZn" = 479.4759   $ Sizing
 "CAssFlo_T_OfficeOpn_NZn" = 365.274   $ Sizing
 "CAssFlo_T_OfficeOpn_SZn" = 455.9944   $ Sizing
 "CAssFlo_T_OfficeOpn_WZn" = 515.7142   $ Sizing
 "CAssFlo_T_OfficeSm_EZn" = 401.6678   $ Sizing
 "CAssFlo_T_OfficeSm_NZn" = 286.5522   $ Sizing
 "CAssFlo_T_OfficeSm_SZn" = 383.4004   $ Sizing
 "CAssFlo_T_OfficeSm_WZn" = 434.9154   $ Sizing
 "CAssFlo_T_Restrm_CZn" = 134.0254   $ Sizing
 "CAssFlo_T_StorSm_EZn" = 121.4504   $ Sizing
 "CAssFlo_T_StorSm_NZn" = 77.3172   $ Sizing
 "CAssFlo_T_StorSm_SZn" = 114.2461   $ Sizing
 "CAssFlo_T_StorSm_WZn" = 130.8518   $ Sizing
 "CHRtFlo_Sys_L_Break_C" = 481.3549   $ Sizing
 "CHRtFlo_Sys_L_CompDC_C" = 173.8033   $ Sizing
 "CHRtFlo_Sys_L_Conf_C" = 277.7612   $ Sizing
 "CHRtFlo_Sys_L_CopyRm_C" = 98.1982   $ Sizing
 "CHRtFlo_Sys_L_Hall_E" = 120.6958   $ Sizing
 "CHRtFlo_Sys_L_Hall_N" = 66.86512   $ Sizing
 "CHRtFlo_Sys_L_Hall_S" = 119.6542   $ Sizing
 "CHRtFlo_Sys_L_Hall_W" = 117.6956   $ Sizing
 "CHRtFlo_Sys_L_LobWait_E" = 273.8173   $ Sizing
 "CHRtFlo_Sys_L_LobWait_N" = 175.8212   $ Sizing
 "CHRtFlo_Sys_L_LobWait_S" = 268.7621   $ Sizing
 "CHRtFlo_Sys_L_LobWait_W" = 286.7426   $ Sizing
 "CHRtFlo_Sys_L_MechElec_C" = 103.1744   $ Sizing
 "CHRtFlo_Sys_L_OfficeOpn_C" = 83.55131   $ Sizing
 "CHRtFlo_Sys_L_OfficeOpn_E" = 513.8492   $ Sizing
 "CHRtFlo_Sys_L_OfficeOpn_N" = 362.387   $ Sizing
 "CHRtFlo_Sys_L_OfficeOpn_S" = 489.4007   $ Sizing
 "CHRtFlo_Sys_L_OfficeOpn_W" = 507.3117   $ Sizing
 "CHRtFlo_Sys_L_OfficeSm_E" = 434.9351   $ Sizing
 "CHRtFlo_Sys_L_OfficeSm_N" = 281.0154   $ Sizing
 "CHRtFlo_Sys_L_OfficeSm_S" = 423.5939   $ Sizing
 "CHRtFlo_Sys_L_OfficeSm_W" = 425.5554   $ Sizing
 "CHRtFlo_Sys_L_Restrm_C" = 108.1061   $ Sizing
 "CHRtFlo_Sys_L_StorSm_C" = 45.51731   $ Sizing
 "CHRtFlo_Sys_L_StorSm_E" = 118.9432   $ Sizing
 "CHRtFlo_Sys_L_StorSm_N" = 68.59449   $ Sizing
 "CHRtFlo_Sys_L_StorSm_S" = 113.6894   $ Sizing
 "CHRtFlo_Sys_L_StorSm_W" = 113.4494   $ Sizing
 "CHRtFlo_Sys_T_Conf_C" = 265.8294   $ Sizing
 "CHRtFlo_Sys_T_Hall_E" = 124.3108   $ Sizing
 "CHRtFlo_Sys_T_Hall_N" = 70.5102   $ Sizing
 "CHRtFlo_Sys_T_Hall_S" = 124.1362   $ Sizing
 "CHRtFlo_Sys_T_Hall_W" = 122.6715   $ Sizing
 "CHRtFlo_Sys_T_OfficeOpn_C" = 74.26411   $ Sizing
 "CHRtFlo_Sys_T_OfficeOpn_E" = 494.17   $ Sizing
 "CHRtFlo_Sys_T_OfficeOpn_N" = 365.274   $ Sizing
 "CHRtFlo_Sys_T_OfficeOpn_S" = 489.9995   $ Sizing
 "CHRtFlo_Sys_T_OfficeOpn_W" = 515.7142   $ Sizing
 "CHRtFlo_Sys_T_OfficeSm_E" = 421.8085   $ Sizing
 "CHRtFlo_Sys_T_OfficeSm_N" = 286.5522   $ Sizing
 "CHRtFlo_Sys_T_OfficeSm_S" = 430.1992   $ Sizing
 "CHRtFlo_Sys_T_OfficeSm_W" = 434.9154   $ Sizing
 "CHRtFlo_Sys_T_Restrm_C" = 148.1614   $ Sizing
 "CHRtFlo_Sys_T_StorSm_E" = 125.6008   $ Sizing
 "CHRtFlo_Sys_T_StorSm_N" = 77.3172   $ Sizing
 "CHRtFlo_Sys_T_StorSm_S" = 121.5687   $ Sizing
 "CHRtFlo_Sys_T_StorSm_W" = 130.8518   $ Sizing
 "CRtdFlo_Sys_L_Break_C" = 481.3549   $ Sizing
 "CRtdFlo_Sys_L_CompDC_C" = 153.9175   $ Sizing
 "CRtdFlo_Sys_L_Conf_C" = 277.7612   $ Sizing
 "CRtdFlo_Sys_L_CopyRm_C" = 98.1982   $ Sizing
 "CRtdFlo_Sys_L_Hall_E" = 103.9829   $ Sizing
 "CRtdFlo_Sys_L_Hall_N" = 66.86512   $ Sizing
 "CRtdFlo_Sys_L_Hall_S" = 99.81202   $ Sizing
 "CRtdFlo_Sys_L_Hall_W" = 113.9977   $ Sizing
 "CRtdFlo_Sys_L_LobWait_E" = 245.7289   $ Sizing
 "CRtdFlo_Sys_L_LobWait_N" = 175.8212   $ Sizing
 "CRtdFlo_Sys_L_LobWait_S" = 238.404   $ Sizing
 "CRtdFlo_Sys_L_LobWait_W" = 286.7426   $ Sizing
 "CRtdFlo_Sys_L_MechElec_C" = 79.04467   $ Sizing
 "CRtdFlo_Sys_L_OfficeOpn_C" = 68.74403   $ Sizing
 "CRtdFlo_Sys_L_OfficeOpn_E" = 452.2219   $ Sizing
 "CRtdFlo_Sys_L_OfficeOpn_N" = 362.387   $ Sizing
 "CRtdFlo_Sys_L_OfficeOpn_S" = 431.7783   $ Sizing
 "CRtdFlo_Sys_L_OfficeOpn_W" = 507.3117   $ Sizing
 "CRtdFlo_Sys_L_OfficeSm_E" = 375.1616   $ Sizing
 "CRtdFlo_Sys_L_OfficeSm_N" = 281.0154   $ Sizing
 "CRtdFlo_Sys_L_OfficeSm_S" = 363.8837   $ Sizing
 "CRtdFlo_Sys_L_OfficeSm_W" = 425.5554   $ Sizing
 "CRtdFlo_Sys_L_Restrm_C" = 95.77386   $ Sizing
 "CRtdFlo_Sys_L_StorSm_C" = 38.29917   $ Sizing
 "CRtdFlo_Sys_L_StorSm_E" = 103.2747   $ Sizing
 "CRtdFlo_Sys_L_StorSm_N" = 68.59449   $ Sizing
 "CRtdFlo_Sys_L_StorSm_S" = 99.74445   $ Sizing
 "CRtdFlo_Sys_L_StorSm_W" = 113.4494   $ Sizing
 "CRtdFlo_Sys_T_Conf_C" = 265.8294   $ Sizing
 "CRtdFlo_Sys_T_Hall_E" = 116.5154   $ Sizing
 "CRtdFlo_Sys_T_Hall_N" = 70.5102   $ Sizing
 "CRtdFlo_Sys_T_Hall_S" = 108.3557   $ Sizing
 "CRtdFlo_Sys_T_Hall_W" = 122.6715   $ Sizing
 "CRtdFlo_Sys_T_OfficeOpn_C" = 65.79133   $ Sizing
 "CRtdFlo_Sys_T_OfficeOpn_E" = 479.4759   $ Sizing
 "CRtdFlo_Sys_T_OfficeOpn_N" = 365.274   $ Sizing
 "CRtdFlo_Sys_T_OfficeOpn_S" = 455.9944   $ Sizing
 "CRtdFlo_Sys_T_OfficeOpn_W" = 515.7142   $ Sizing
 "CRtdFlo_Sys_T_OfficeSm_E" = 401.6678   $ Sizing
 "CRtdFlo_Sys_T_OfficeSm_N" = 286.5522   $ Sizing
 "CRtdFlo_Sys_T_OfficeSm_S" = 383.4004   $ Sizing
 "CRtdFlo_Sys_T_OfficeSm_W" = 434.9154   $ Sizing
 "CRtdFlo_Sys_T_Restrm_C" = 134.0254   $ Sizing
 "CRtdFlo_Sys_T_StorSm_E" = 121.4504   $ Sizing
 "CRtdFlo_Sys_T_StorSm_N" = 77.3172   $ Sizing
 "CRtdFlo_Sys_T_StorSm_S" = 114.2461   $ Sizing
 "CRtdFlo_Sys_T_StorSm_W" = 130.8518   $ Sizing
 "CSupFlo_Sys_L_Break_C" = 481.3549   $ Sizing
 "CSupFlo_Sys_L_CompDC_C" = 153.9175   $ Sizing
 "CSupFlo_Sys_L_Conf_C" = 277.7612   $ Sizing
 "CSupFlo_Sys_L_CopyRm_C" = 98.1982   $ Sizing
 "CSupFlo_Sys_L_Hall_E" = 103.9829   $ Sizing
 "CSupFlo_Sys_L_Hall_N" = 66.86512   $ Sizing
 "CSupFlo_Sys_L_Hall_S" = 99.81202   $ Sizing
 "CSupFlo_Sys_L_Hall_W" = 113.9977   $ Sizing
 "CSupFlo_Sys_L_LobWait_E" = 245.7289   $ Sizing
 "CSupFlo_Sys_L_LobWait_N" = 175.8212   $ Sizing
 "CSupFlo_Sys_L_LobWait_S" = 238.404   $ Sizing
 "CSupFlo_Sys_L_LobWait_W" = 286.7426   $ Sizing
 "CSupFlo_Sys_L_MechElec_C" = 79.04467   $ Sizing
 "CSupFlo_Sys_L_OfficeOpn_C" = 68.74403   $ Sizing
 "CSupFlo_Sys_L_OfficeOpn_E" = 452.2219   $ Sizing
 "CSupFlo_Sys_L_OfficeOpn_N" = 362.387   $ Sizing
 "CSupFlo_Sys_L_OfficeOpn_S" = 431.7783   $ Sizing
 "CSupFlo_Sys_L_OfficeOpn_W" = 507.3117   $ Sizing
 "CSupFlo_Sys_L_OfficeSm_E" = 375.1616   $ Sizing
 "CSupFlo_Sys_L_OfficeSm_N" = 281.0154   $ Sizing
 "CSupFlo_Sys_L_OfficeSm_S" = 363.8837   $ Sizing
 "CSupFlo_Sys_L_OfficeSm_W" = 425.5554   $ Sizing
 "CSupFlo_Sys_L_Restrm_C" = 95.77386   $ Sizing
 "CSupFlo_Sys_L_StorSm_C" = 38.29917   $ Sizing
 "CSupFlo_Sys_L_StorSm_E" = 103.2747   $ Sizing
 "CSupFlo_Sys_L_StorSm_N" = 68.59449   $ Sizing
 "CSupFlo_Sys_L_StorSm_S" = 99.74445   $ Sizing
 "CSupFlo_Sys_L_StorSm_W" = 113.4494   $ Sizing
 "CSupFlo_Sys_T_Conf_C" = 265.8294   $ Sizing
 "CSupFlo_Sys_T_Hall_E" = 116.5154   $ Sizing
 "CSupFlo_Sys_T_Hall_N" = 70.5102   $ Sizing
 "CSupFlo_Sys_T_Hall_S" = 108.3557   $ Sizing
 "CSupFlo_Sys_T_Hall_W" = 122.6715   $ Sizing
 "CSupFlo_Sys_T_OfficeOpn_C" = 65.79133   $ Sizing
 "CSupFlo_Sys_T_OfficeOpn_E" = 479.4759   $ Sizing
 "CSupFlo_Sys_T_OfficeOpn_N" = 365.274   $ Sizing
 "CSupFlo_Sys_T_OfficeOpn_S" = 455.9944   $ Sizing
 "CSupFlo_Sys_T_OfficeOpn_W" = 515.7142   $ Sizing
 "CSupFlo_Sys_T_OfficeSm_E" = 401.6678   $ Sizing
 "CSupFlo_Sys_T_OfficeSm_N" = 286.5522   $ Sizing
 "CSupFlo_Sys_T_OfficeSm_S" = 383.4004   $ Sizing
 "CSupFlo_Sys_T_OfficeSm_W" = 434.9154   $ Sizing
 "CSupFlo_Sys_T_Restrm_C" = 134.0254   $ Sizing
 "CSupFlo_Sys_T_StorSm_E" = 121.4504   $ Sizing
 "CSupFlo_Sys_T_StorSm_N" = 77.3172   $ Sizing
 "CSupFlo_Sys_T_StorSm_S" = 114.2461   $ Sizing
 "CSupFlo_Sys_T_StorSm_W" = 130.8518   $ Sizing
 "ClCap_Sys_L_Break_C" = 16293.05   $ Sizing
 "ClCap_Sys_L_CompDC_C" = 5209.847   $ Sizing
 "ClCap_Sys_L_Conf_C" = 11965.86   $ Sizing
 "ClCap_Sys_L_CopyRm_C" = 3323.843   $ Sizing
 "ClCap_Sys_L_Hall_E" = 3519.646   $ Sizing
 "ClCap_Sys_L_Hall_N" = 2263.271   $ Sizing
 "ClCap_Sys_L_Hall_S" = 3378.468   $ Sizing
 "ClCap_Sys_L_Hall_W" = 3858.629   $ Sizing
 "ClCap_Sys_L_LobWait_E" = 8317.508   $ Sizing
 "ClCap_Sys_L_LobWait_N" = 5951.25   $ Sizing
 "ClCap_Sys_L_LobWait_S" = 8069.573   $ Sizing
 "ClCap_Sys_L_LobWait_W" = 9705.75   $ Sizing
 "ClCap_Sys_L_MechElec_C" = 2675.528   $ Sizing
 "ClCap_Sys_L_OfficeOpn_C" = 2326.869   $ Sizing
 "ClCap_Sys_L_OfficeOpn_E" = 15306.94   $ Sizing
 "ClCap_Sys_L_OfficeOpn_N" = 12266.19   $ Sizing
 "ClCap_Sys_L_OfficeOpn_S" = 14614.96   $ Sizing
 "ClCap_Sys_L_OfficeOpn_W" = 17171.64   $ Sizing
 "ClCap_Sys_L_OfficeSm_E" = 12698.58   $ Sizing
 "ClCap_Sys_L_OfficeSm_N" = 9511.897   $ Sizing
 "ClCap_Sys_L_OfficeSm_S" = 12316.85   $ Sizing
 "ClCap_Sys_L_OfficeSm_W" = 14404.33   $ Sizing
 "ClCap_Sys_L_Restrm_C" = 3241.783   $ Sizing
 "ClCap_Sys_L_StorSm_C" = 1296.362   $ Sizing
 "ClCap_Sys_L_StorSm_E" = 3495.675   $ Sizing
 "ClCap_Sys_L_StorSm_N" = 2321.807   $ Sizing
 "ClCap_Sys_L_StorSm_S" = 3376.181   $ Sizing
 "ClCap_Sys_L_StorSm_W" = 3840.069   $ Sizing
 "ClCap_Sys_T_Conf_C" = 11451.84   $ Sizing
 "ClCap_Sys_T_Hall_E" = 3943.85   $ Sizing
 "ClCap_Sys_T_Hall_N" = 2386.651   $ Sizing
 "ClCap_Sys_T_Hall_S" = 3667.657   $ Sizing
 "ClCap_Sys_T_Hall_W" = 4152.223   $ Sizing
 "ClCap_Sys_T_OfficeOpn_C" = 2226.925   $ Sizing
 "ClCap_Sys_T_OfficeOpn_E" = 16229.45   $ Sizing
 "ClCap_Sys_T_OfficeOpn_N" = 12363.91   $ Sizing
 "ClCap_Sys_T_OfficeOpn_S" = 15434.64   $ Sizing
 "ClCap_Sys_T_OfficeOpn_W" = 17456.05   $ Sizing
 "ClCap_Sys_T_OfficeSm_E" = 13595.77   $ Sizing
 "ClCap_Sys_T_OfficeSm_N" = 9699.307   $ Sizing
 "ClCap_Sys_T_OfficeSm_S" = 12977.46   $ Sizing
 "ClCap_Sys_T_OfficeSm_W" = 14721.15   $ Sizing
 "ClCap_Sys_T_Restrm_C" = 4536.533   $ Sizing
 "ClCap_Sys_T_StorSm_E" = 4110.892   $ Sizing
 "ClCap_Sys_T_StorSm_N" = 2617.056   $ Sizing
 "ClCap_Sys_T_StorSm_S" = 3867.038   $ Sizing
 "ClCap_Sys_T_StorSm_W" = 4429.113   $ Sizing
 "HtCap_Sys_L_Break_C" = -27322.75   $ Sizing
 "HtCap_Sys_L_CompDC_C" = -6194.771   $ Sizing
 "HtCap_Sys_L_Conf_C" = -16318.38   $ Sizing
 "HtCap_Sys_L_CopyRm_C" = -5648.918   $ Sizing
 "HtCap_Sys_L_Hall_E" = -4331.059   $ Sizing
 "HtCap_Sys_L_Hall_N" = -2625.252   $ Sizing
 "HtCap_Sys_L_Hall_S" = -4175.936   $ Sizing
 "HtCap_Sys_L_Hall_W" = -4168.302   $ Sizing
 "HtCap_Sys_L_LobWait_E" = -10479.24   $ Sizing
 "HtCap_Sys_L_LobWait_N" = -8131.206   $ Sizing
 "HtCap_Sys_L_LobWait_S" = -10329   $ Sizing
 "HtCap_Sys_L_LobWait_W" = -11084.32   $ Sizing
 "HtCap_Sys_L_MechElec_C" = -4103.164   $ Sizing
 "HtCap_Sys_L_OfficeOpn_C" = -3169.021   $ Sizing
 "HtCap_Sys_L_OfficeOpn_E" = -18486.62   $ Sizing
 "HtCap_Sys_L_OfficeOpn_N" = -14722.08   $ Sizing
 "HtCap_Sys_L_OfficeOpn_S" = -17405.99   $ Sizing
 "HtCap_Sys_L_OfficeOpn_W" = -18596.87   $ Sizing
 "HtCap_Sys_L_OfficeSm_E" = -15553.41   $ Sizing
 "HtCap_Sys_L_OfficeSm_N" = -11049.1   $ Sizing
 "HtCap_Sys_L_OfficeSm_S" = -14484.81   $ Sizing
 "HtCap_Sys_L_OfficeSm_W" = -15036.77   $ Sizing
 "HtCap_Sys_L_Restrm_C" = -3713.424   $ Sizing
 "HtCap_Sys_L_StorSm_C" = -1780.671   $ Sizing
 "HtCap_Sys_L_StorSm_E" = -4414.89   $ Sizing
 "HtCap_Sys_L_StorSm_N" = -3078.689   $ Sizing
 "HtCap_Sys_L_StorSm_S" = -4262.164   $ Sizing
 "HtCap_Sys_L_StorSm_W" = -4349.807   $ Sizing
 "HtCap_Sys_T_Conf_C" = -16005.62   $ Sizing
 "HtCap_Sys_T_Hall_E" = -4784.548   $ Sizing
 "HtCap_Sys_T_Hall_N" = -3060.021   $ Sizing
 "HtCap_Sys_T_Hall_S" = -4782.636   $ Sizing
 "HtCap_Sys_T_Hall_W" = -4768.43   $ Sizing
 "HtCap_Sys_T_OfficeOpn_C" = -3143.709   $ Sizing
 "HtCap_Sys_T_OfficeOpn_E" = -19536.61   $ Sizing
 "HtCap_Sys_T_OfficeOpn_N" = -15979.86   $ Sizing
 "HtCap_Sys_T_OfficeOpn_S" = -19409.93   $ Sizing
 "HtCap_Sys_T_OfficeOpn_W" = -20657.91   $ Sizing
 "HtCap_Sys_T_OfficeSm_E" = -16321.07   $ Sizing
 "HtCap_Sys_T_OfficeSm_N" = -12343.21   $ Sizing
 "HtCap_Sys_T_OfficeSm_S" = -16592.47   $ Sizing
 "HtCap_Sys_T_OfficeSm_W" = -16981.18   $ Sizing
 "HtCap_Sys_T_Restrm_C" = -5585.863   $ Sizing
 "HtCap_Sys_T_StorSm_E" = -5173.462   $ Sizing
 "HtCap_Sys_T_StorSm_N" = -3692.344   $ Sizing
 "HtCap_Sys_T_StorSm_S" = -4987.029   $ Sizing
 "HtCap_Sys_T_StorSm_W" = -5518.955   $ Sizing
..

##include Templates\OfS_DX_SZ.inp
END ..
COMPUTE ..
STOP ..
