INPUT ..

##fileprefix C:\Users\jglasskatz\MASControl3\
##set1 IsSizing FALSE
##set1 CoolType DX
##set1 HeatType FURNACE
##set1 EU_HrRepVar 0
##set1 BldgVint 2011
##set1 BldgLoc CZ02

 ##set1 mBFMult 1   $ IP Tech: RefgChg-NRes-Std

PARAMETER
 "AltFactor" = 1.00464   $ IP Non-Tech
 "BF_fFlow" = SpltAC1Sp-ge45_BF_fFlow   $ Msr (Multi)TechID: StdNResSplitAC-45to55
 "BF_fT" = SpltAC1Sp-ge45_BF_fT   $ Msr (Multi)TechID: StdNResSplitAC-45to55
 "BldgEconoFlag" = 1   $ IP Non-Tech
 "Break_EWSF" = 1   $ IP Non-Tech
 "Break_LWSF" = 1.1   $ IP Non-Tech
 "CDD_DBHi10" = 83   $ IP Non-Tech
 "CDD_DBHi7" = 96   $ IP Non-Tech
 "CDD_DBHi8" = 92   $ IP Non-Tech
 "CDD_DBHi9" = 96   $ IP Non-Tech
 "CDD_DBRange10" = 35   $ IP Non-Tech
 "CDD_DBRange7" = 44   $ IP Non-Tech
 "CDD_DBRange8" = 38   $ IP Non-Tech
 "CDD_DBRange9" = 43   $ IP Non-Tech
 "CDD_Day10" = 15   $ IP Non-Tech
 "CDD_Day7" = 16   $ IP Non-Tech
 "CDD_Day8" = 20   $ IP Non-Tech
 "CDD_Day9" = 17   $ IP Non-Tech
 "CDD_HrHi10" = 15   $ IP Non-Tech
 "CDD_HrHi7" = 15   $ IP Non-Tech
 "CDD_HrHi8" = 16   $ IP Non-Tech
 "CDD_HrHi9" = 14   $ IP Non-Tech
 "CDD_HrLo10" = 7   $ IP Non-Tech
 "CDD_HrLo7" = 7   $ IP Non-Tech
 "CDD_HrLo8" = 6   $ IP Non-Tech
 "CDD_HrLo9" = 6   $ IP Non-Tech
 "CDD_WB10" = 61.02124405   $ IP Non-Tech
 "CDD_WB7" = 68.3706665   $ IP Non-Tech
 "CDD_WB8" = 69.14488983   $ IP Non-Tech
 "CDD_WB9" = 65.15551758   $ IP Non-Tech
 "CEIR_fPLR_Hot" = SpltAC1Sp-ge45_CEIR_fPLR_Hot   $ Msr (Multi)TechID: StdNResSplitAC-45to55
 "CEIR_fPLR_Mod" = SpltAC1Sp-ge45_CEIR_fPLR_Mod   $ Msr (Multi)TechID: StdNResSplitAC-45to55
 "CEIR_fPLR_Tem" = SpltAC1Sp-ge45_CEIR_fPLR_Tem   $ Msr (Multi)TechID: StdNResSplitAC-45to55
 "CLoss_fPLR_Hot" = SpltAC1Sp-ge45_CLoss_fPLR_Hot   $ Msr (Multi)TechID: StdNResSplitAC-45to55
 "CLoss_fPLR_Mod" = SpltAC1Sp-ge45_CLoss_fPLR_Mod   $ Msr (Multi)TechID: StdNResSplitAC-45to55
 "CLoss_fPLR_Tem" = SpltAC1Sp-ge45_CLoss_fPLR_Tem   $ Msr (Multi)TechID: StdNResSplitAC-45to55
 "COP47" = 0   $ Msr (Multi)TechID: StdNResSplitAC-45to55
 "CZ_Category" = Mod   $ IP Non-Tech
 "CapRange" = ge45   $ Msr (Multi)TechID: StdNResSplitAC-45to55
 "CfmPerBtuh" = 0.03263   $ Msr (Multi)TechID: StdNResSplitAC-45to55
 "ChwVintEconoFlag" = 1   $ IP Non-Tech
 "ClCap_fT" = SpltAC1Sp-ge45_ClCap_fT   $ Msr (Multi)TechID: StdNResSplitAC-45to55
 "ClSH_fT" = SpltAC1Sp-ge45_ClSH_fT   $ Msr (Multi)TechID: StdNResSplitAC-45to55
 "CoilBF" = 0.106518182   $ Msr (Multi)TechID: StdNResSplitAC-45to55
 "CompRoomData_EWSF" = 5   $ IP Non-Tech
 "CompRoomData_LWSF" = 1.1   $ IP Non-Tech
 "CondWPerBtuh" = 0   $ Msr (Multi)TechID: StdNResSplitAC-45to55
 "Conference_EWSF" = 1   $ IP Non-Tech
 "Conference_LWSF" = 1.4   $ IP Non-Tech
 "CoolSensCap" = 0.759218182   $ Msr (Multi)TechID: StdNResSplitAC-45to55
 "CoolSetT" = 45   $ IP Non-Tech
 "CoolType" = DX   $ IP Non-Tech
 "CoolingEIR" = 0.2466   $ Msr (Multi)TechID: StdNResSplitAC-45to55
 "CopyRoom_EWSF" = 1.5   $ IP Non-Tech
 "CopyRoom_LWSF" = 1.3   $ IP Non-Tech
 "CrnkEIR" = 0.002466   $ Msr (Multi)TechID: StdNResSplitAC-45to55
 "CrnkMaxT" = 50   $ Msr (Multi)TechID: StdNResSplitAC-45to55
 "DXType" = SplitSEER   $ Msr (Multi)TechID: StdNResSplitAC-45to55
 "DesCoolT" = 75   $ IP Non-Tech
 "DesHeatT" = 73   $ IP Non-Tech
 "EER" = 11.81793103   $ Msr (Multi)TechID: StdNResSplitAC-45to55
 "EIR_fT" = SpltAC1Sp-ge45_EIR_fT   $ Msr (Multi)TechID: StdNResSplitAC-45to55
 "EconoCtrl" = FIXED   $ Msr (Multi)TechID: StdNResSplitAC-45to55
 "EconoEnthLimit" = 28   $ IP Non-Tech
 "EconoTempLimit" = 73   $ IP Non-Tech
 "Elevation" = 125   $ IP Non-Tech
 "FanEirPlr" = TwoSpeedFan   $ Msr (Multi)TechID: StdNResSplitAC-45to55
 "FanWPerCfm" = 0.294   $ Msr (Multi)TechID: StdNResSplitAC-45to55
 "HDD_CloudAmt1" = 0   $ IP Non-Tech
 "HDD_DBHi1" = 51   $ IP Non-Tech
 "HDD_DBRange1" = 22   $ IP Non-Tech
 "HDD_Day1" = 15   $ IP Non-Tech
 "HDD_HrHi1" = 15   $ IP Non-Tech
 "HDD_HrLo1" = 8   $ IP Non-Tech
 "HDD_WB1" = 45.9   $ IP Non-Tech
 "HDD_WindSpd1" = 10.4   $ IP Non-Tech
 "HIR_fT" = 0   $ Msr (Multi)TechID: StdNResSplitAC-45to55
 "HSPF" = 0   $ Msr (Multi)TechID: StdNResSplitAC-45to55
 "Hall_EWSF" = 0.2   $ IP Non-Tech
 "Hall_LWSF" = 0.6   $ IP Non-Tech
 "HeatSrc" = FURNACE   $ IP Non-Tech
 "HeatSrcTU" = HEAT-PUMP   $ IP Non-Tech
 "HeatType" = GasFurn   $ IP Non-Tech
 "HeatTypeTU" = HEAT-PUMP   $ IP Non-Tech
 "HtCap_fT" = 0   $ Msr (Multi)TechID: StdNResSplitAC-45to55
 "HtCoolCapRatio" = 0   $ Msr (Multi)TechID: StdNResSplitAC-45to55
 "HtgEIR" = 0   $ Msr (Multi)TechID: StdNResSplitAC-45to55
 "IndoorFanMode" = CONTINUOUS   $ IP Non-Tech
 "KT_TransferAir" = No   $ IP Non-Tech
 "Latitude" = 38.5   $ IP Non-Tech
 "LobbyWaiting_EWSF" = 0.5   $ IP Non-Tech
 "LobbyWaiting_LWSF" = 1.3   $ IP Non-Tech
 "Longitude" = 122.7   $ IP Non-Tech
 "LowSpdCapRatio" = 1   $ Msr (Multi)TechID: StdNResSplitAC-45to55
 "LowSpdCfmRatio" = 1   $ Msr (Multi)TechID: StdNResSplitAC-45to55
 "MZFanMechEff" = 0.58   $ IP Non-Tech
 "MZHasRetFan" = FALSE   $ IP Non-Tech
 "MZ_RFanWPerCfm" = 0.33   $ IP Non-Tech
 "MZ_SFanWPerCfm" = 0.75   $ IP Non-Tech
 "MZ_SupFanStatic" = 2.25   $ IP Non-Tech
 "MaxOAFrac" = 1   $ Msr (Multi)TechID: StdNResSplitAC-45to55
 "MaxSupT_MZ" = 100   $ IP Non-Tech
 "MaxSupT_SZ" = 100   $ IP Non-Tech
 "MaxSupT_TU" = 90   $ IP Non-Tech
 "MechElecRoom_EWSF" = 0.2   $ IP Non-Tech
 "MechElecRoom_LWSF" = 0.7   $ IP Non-Tech
 "MinCfmPerSF" = 0.4   $ IP Non-Tech
 "MinSupT" = 55   $ IP Non-Tech
 "NumStages" = 1   $ Msr (Multi)TechID: StdNResSplitAC-45to55
 "OccCoolT" = 76   $ IP Non-Tech
 "OccHeatT" = 72   $ IP Non-Tech
 "OfficeOpen_EWSF" = 1.5   $ IP Non-Tech
 "OfficeOpen_LWSF" = 1.1   $ IP Non-Tech
 "OfficeSmall_EWSF" = 1.5   $ IP Non-Tech
 "OfficeSmall_LWSF" = 1.3   $ IP Non-Tech
 "PkgDxVintEconoFlag" = 0   $ IP Non-Tech
 "Restroom_EWSF" = 0.2   $ IP Non-Tech
 "Restroom_LWSF" = 0.6   $ IP Non-Tech
 "SEER" = 14   $ Msr (Multi)TechID: StdNResSplitAC-45to55
 "SZFanMechEff" = 0.58   $ IP Non-Tech
 "SZHasRetFan" = FALSE   $ IP Non-Tech
 "SZ_Is_2Spd" = FALSE   $ IP Non-Tech
 "SZ_SFanWPerCfm" = 0.46   $ IP Non-Tech
 "SZ_SupFanStatic" = 0.75   $ IP Non-Tech
 "Sector" = Any   $ Msr (Multi)TechID: StdNResSplitAC-45to55
 "StorageSmlCond_EWSF" = 0.2   $ IP Non-Tech
 "StorageSmlCond_LWSF" = 0.6   $ IP Non-Tech
 "SubType" = AC   $ Msr (Multi)TechID: StdNResSplitAC-45to55
 "T24GlzTbl" = CZTbl   $ IP Non-Tech
 "TermUnitFanMechEff" = 1   $ IP Non-Tech
 "TermUnitFanMode" = INTERMITTENT   $ IP Non-Tech
 "TotCoolCap" = 52519.36364   $ Msr (Multi)TechID: StdNResSplitAC-45to55
 "TwrSetpt" = 84   $ IP Non-Tech
 "UnocCoolT" = 86   $ IP Non-Tech
 "UnocHeatT" = 62   $ IP Non-Tech
 "UseEconoVintApplic" = FALSE   $ Msr (Multi)TechID: StdNResSplitAC-45to55
 "WlhpVintEconoFlag" = 0   $ IP Non-Tech
 "DuctDT" = 1   $ IP Tech: ComDuctInsul-1
 "DuctAirLoss" = 0   $ IP Tech: ComDuctLeak-0
 "DuctLossOAFrac" = 0   $ IP Tech: ComDuctLeak-0
 "ComRoofInsCalc" = FromUo   $ IP Tech: ComRoofIns-WFrm-0.04
 "ComRoofInsR" = -999   $ IP Tech: ComRoofIns-WFrm-0.04
 "ComRoofUo" = 0.04   $ IP Tech: ComRoofIns-WFrm-0.04
 "ComEWInsCalc" = FromUo   $ IP Tech: ComWallIns-WFrm-0.06
 "ComEWInsR" = -999   $ IP Tech: ComWallIns-WFrm-0.06
 "ComEWUo" = 0.06   $ IP Tech: ComWallIns-WFrm-0.06
 "ComN_SHGC" = 0.47   $ IP Tech: NResWin-ComN-0.47-0.47
 "ComN_UFactor" = 0.47   $ IP Tech: NResWin-ComN-0.47-0.47
 "ComN_VisTrans" = 0.75   $ IP Tech: NResWin-ComN-0.47-0.47
 "ComN_WinCode" = G2633   $ IP Tech: NResWin-ComN-0.47-0.47
 "ComN_WinFrmFrac" = 0.17   $ IP Tech: NResWin-ComN-0.47-0.47
 "ComN_WinFrmU" = 0.3   $ IP Tech: NResWin-ComN-0.47-0.47
 "ComO_SHGC" = 0.31   $ IP Tech: NResWin-ComO-0.47-0.31
 "ComO_UFactor" = 0.47   $ IP Tech: NResWin-ComO-0.47-0.31
 "ComO_VisTrans" = 0.44   $ IP Tech: NResWin-ComO-0.47-0.31
 "ComO_WinCode" = G2637   $ IP Tech: NResWin-ComO-0.47-0.31
 "ComO_WinFrmFrac" = 0.17   $ IP Tech: NResWin-ComO-0.47-0.31
 "ComO_WinFrmU" = 0.3   $ IP Tech: NResWin-ComO-0.47-0.31
 "LtgMsrApplic" = ALL   $ IP Tech: NonResLtgRefPre
 "LtgSav_CFL" = 0   $ IP Tech: NonResLtgRefPre
 "LtgSav_EX" = 0   $ IP Tech: NonResLtgRefPre
 "LtgSav_HB" = 0   $ IP Tech: NonResLtgRefPre
 "LtgSav_LF" = 0   $ IP Tech: NonResLtgRefPre
 "LtgSav_SP" = 0   $ IP Tech: NonResLtgRefPre
 "CEIR_fPLR" = PSZ65to135_CEIR_fPLR   $ IP Tech: PkgAC1SpH-65to135-E11
 "CLoss_fPLR" = PSZ65to135_CLoss_fPLR   $ IP Tech: PkgAC1SpH-65to135-E11
 "COP" = -1   $ IP Tech: PkgAC1SpH-65to135-E11
 "HtgFuel" = Gas   $ IP Tech: PkgAC1SpH-65to135-E11
 "IEER" = 13.35   $ IP Tech: PkgAC1SpH-65to135-E11
 "NominalCap" = 15   $ IP Tech: PkgAC1SpH-65to135-E11
 "RatedEER" = 11   $ IP Tech: PkgAC1SpH-65to135-E11
 "RatedSupMtrClass" = HiEff   $ IP Tech: PkgAC1SpH-65to135-E11
 "SizeRange" = 65to135   $ IP Tech: PkgAC1SpH-65to135-E11
 "SupMotEff" = 0.84   $ IP Tech: PkgAC1SpH-65to135-E11
 "Tier" = 0   $ IP Tech: PkgAC1SpH-65to135-E11
 "FanPwrMult" = 1   $ IP Tech: PkgFurn-0.80AFUE
 "FurnAFUE" = 0.8   $ IP Tech: PkgFurn-0.80AFUE
 "FurnEt" = 0.82   $ IP Tech: PkgFurn-0.80AFUE
 "FurnaceAuxKW" = 0.1   $ IP Tech: PkgFurn-0.80AFUE
 "HIR_fPLR" = Furnace-HIR-fPLR   $ IP Tech: PkgFurn-0.80AFUE
 "VSM" = FALSE   $ IP Tech: PkgFurn-0.80AFUE
 "BFMult" = 1   $ IP Tech: RefgChg-NRes-Std
 "CoolEirMult" = 1   $ IP Tech: RefgChg-NRes-Std
 "SensCoolCapMult" = 1   $ IP Tech: RefgChg-NRes-Std
 "TotCoolCapMult" = 1   $ IP Tech: RefgChg-NRes-Std
 "AltAdjFactor" = 1.004644   $ Sizing
 "CAssFlo_L_Break_CZn" = 383.3962   $ Sizing
 "CAssFlo_L_CompDC_CZn" = 136.1515   $ Sizing
 "CAssFlo_L_Conf_CZn" = 222.1926   $ Sizing
 "CAssFlo_L_CopyRm_CZn" = 80.68889   $ Sizing
 "CAssFlo_L_Hall_EZn" = 88.80643   $ Sizing
 "CAssFlo_L_Hall_NZn" = 50.99439   $ Sizing
 "CAssFlo_L_Hall_SZn" = 101.9406   $ Sizing
 "CAssFlo_L_Hall_WZn" = 106.1987   $ Sizing
 "CAssFlo_L_LobWait_EZn" = 213.3978   $ Sizing
 "CAssFlo_L_LobWait_NZn" = 141.4079   $ Sizing
 "CAssFlo_L_LobWait_SZn" = 246.6797   $ Sizing
 "CAssFlo_L_LobWait_WZn" = 261.938   $ Sizing
 "CAssFlo_L_MechElec_CZn" = 45.21802   $ Sizing
 "CAssFlo_L_OfficeOpn_CZn" = 50.73975   $ Sizing
 "CAssFlo_L_OfficeOpn_EZn" = 410.2192   $ Sizing
 "CAssFlo_L_OfficeOpn_NZn" = 311.7603   $ Sizing
 "CAssFlo_L_OfficeOpn_SZn" = 442.4239   $ Sizing
 "CAssFlo_L_OfficeOpn_WZn" = 472.3925   $ Sizing
 "CAssFlo_L_OfficeSm_EZn" = 344.1942   $ Sizing
 "CAssFlo_L_OfficeSm_NZn" = 245.5358   $ Sizing
 "CAssFlo_L_OfficeSm_SZn" = 381.4982   $ Sizing
 "CAssFlo_L_OfficeSm_WZn" = 402.9443   $ Sizing
 "CAssFlo_L_Restrm_CZn" = 56.04799   $ Sizing
 "CAssFlo_L_StorSm_CZn" = 25.27172   $ Sizing
 "CAssFlo_L_StorSm_EZn" = 84.8535   $ Sizing
 "CAssFlo_L_StorSm_NZn" = 46.38046   $ Sizing
 "CAssFlo_L_StorSm_SZn" = 99.85384   $ Sizing
 "CAssFlo_L_StorSm_WZn" = 101.6267   $ Sizing
 "CAssFlo_T_Conf_CZn" = 215.8742   $ Sizing
 "CAssFlo_T_Hall_EZn" = 103.9376   $ Sizing
 "CAssFlo_T_Hall_NZn" = 63.17787   $ Sizing
 "CAssFlo_T_Hall_SZn" = 116.6382   $ Sizing
 "CAssFlo_T_Hall_WZn" = 120.2965   $ Sizing
 "CAssFlo_T_OfficeOpn_CZn" = 49.67754   $ Sizing
 "CAssFlo_T_OfficeOpn_EZn" = 429.8679   $ Sizing
 "CAssFlo_T_OfficeOpn_NZn" = 334.0591   $ Sizing
 "CAssFlo_T_OfficeOpn_SZn" = 478.3424   $ Sizing
 "CAssFlo_T_OfficeOpn_WZn" = 491.1132   $ Sizing
 "CAssFlo_T_OfficeSm_EZn" = 368.2654   $ Sizing
 "CAssFlo_T_OfficeSm_NZn" = 267.6163   $ Sizing
 "CAssFlo_T_OfficeSm_SZn" = 415.3216   $ Sizing
 "CAssFlo_T_OfficeSm_WZn" = 421.0944   $ Sizing
 "CAssFlo_T_Restrm_CZn" = 98.71005   $ Sizing
 "CAssFlo_T_StorSm_EZn" = 104.8648   $ Sizing
 "CAssFlo_T_StorSm_NZn" = 62.45038   $ Sizing
 "CAssFlo_T_StorSm_SZn" = 120.5768   $ Sizing
 "CAssFlo_T_StorSm_WZn" = 124.393   $ Sizing
 "CHRtFlo_Sys_L_Break_C" = 383.3962   $ Sizing
 "CHRtFlo_Sys_L_CompDC_C" = 169.9259   $ Sizing
 "CHRtFlo_Sys_L_Conf_C" = 226.5021   $ Sizing
 "CHRtFlo_Sys_L_CopyRm_C" = 80.68889   $ Sizing
 "CHRtFlo_Sys_L_Hall_E" = 119.4957   $ Sizing
 "CHRtFlo_Sys_L_Hall_N" = 53.09596   $ Sizing
 "CHRtFlo_Sys_L_Hall_S" = 129.7122   $ Sizing
 "CHRtFlo_Sys_L_Hall_W" = 123.1113   $ Sizing
 "CHRtFlo_Sys_L_LobWait_E" = 280.3254   $ Sizing
 "CHRtFlo_Sys_L_LobWait_N" = 141.4079   $ Sizing
 "CHRtFlo_Sys_L_LobWait_S" = 300.9303   $ Sizing
 "CHRtFlo_Sys_L_LobWait_W" = 287.8282   $ Sizing
 "CHRtFlo_Sys_L_MechElec_C" = 65.74781   $ Sizing
 "CHRtFlo_Sys_L_OfficeOpn_C" = 73.55927   $ Sizing
 "CHRtFlo_Sys_L_OfficeOpn_E" = 538.5698   $ Sizing
 "CHRtFlo_Sys_L_OfficeOpn_N" = 318.3737   $ Sizing
 "CHRtFlo_Sys_L_OfficeOpn_S" = 538.6038   $ Sizing
 "CHRtFlo_Sys_L_OfficeOpn_W" = 524.3587   $ Sizing
 "CHRtFlo_Sys_L_OfficeSm_E" = 456.5516   $ Sizing
 "CHRtFlo_Sys_L_OfficeSm_N" = 255.37   $ Sizing
 "CHRtFlo_Sys_L_OfficeSm_S" = 473.693   $ Sizing
 "CHRtFlo_Sys_L_OfficeSm_W" = 458.3788   $ Sizing
 "CHRtFlo_Sys_L_Restrm_C" = 85.82434   $ Sizing
 "CHRtFlo_Sys_L_StorSm_C" = 37.90834   $ Sizing
 "CHRtFlo_Sys_L_StorSm_E" = 116.4899   $ Sizing
 "CHRtFlo_Sys_L_StorSm_N" = 63.36476   $ Sizing
 "CHRtFlo_Sys_L_StorSm_S" = 121.6318   $ Sizing
 "CHRtFlo_Sys_L_StorSm_W" = 113.0176   $ Sizing
 "CHRtFlo_Sys_T_Conf_C" = 221.7581   $ Sizing
 "CHRtFlo_Sys_T_Hall_E" = 129.3304   $ Sizing
 "CHRtFlo_Sys_T_Hall_N" = 63.17787   $ Sizing
 "CHRtFlo_Sys_T_Hall_S" = 143.0615   $ Sizing
 "CHRtFlo_Sys_T_Hall_W" = 130.4761   $ Sizing
 "CHRtFlo_Sys_T_OfficeOpn_C" = 69.00546   $ Sizing
 "CHRtFlo_Sys_T_OfficeOpn_E" = 528.8445   $ Sizing
 "CHRtFlo_Sys_T_OfficeOpn_N" = 334.0591   $ Sizing
 "CHRtFlo_Sys_T_OfficeOpn_S" = 560.465   $ Sizing
 "CHRtFlo_Sys_T_OfficeOpn_W" = 510.0302   $ Sizing
 "CHRtFlo_Sys_T_OfficeSm_E" = 455.9428   $ Sizing
 "CHRtFlo_Sys_T_OfficeSm_N" = 267.6163   $ Sizing
 "CHRtFlo_Sys_T_OfficeSm_S" = 498.5053   $ Sizing
 "CHRtFlo_Sys_T_OfficeSm_W" = 452.734   $ Sizing
 "CHRtFlo_Sys_T_Restrm_C" = 121.5106   $ Sizing
 "CHRtFlo_Sys_T_StorSm_E" = 127.828   $ Sizing
 "CHRtFlo_Sys_T_StorSm_N" = 64.08127   $ Sizing
 "CHRtFlo_Sys_T_StorSm_S" = 138.1794   $ Sizing
 "CHRtFlo_Sys_T_StorSm_W" = 127.9013   $ Sizing
 "CRtdFlo_Sys_L_Break_C" = 383.3962   $ Sizing
 "CRtdFlo_Sys_L_CompDC_C" = 136.1515   $ Sizing
 "CRtdFlo_Sys_L_Conf_C" = 222.1926   $ Sizing
 "CRtdFlo_Sys_L_CopyRm_C" = 80.68889   $ Sizing
 "CRtdFlo_Sys_L_Hall_E" = 88.80643   $ Sizing
 "CRtdFlo_Sys_L_Hall_N" = 50.9944   $ Sizing
 "CRtdFlo_Sys_L_Hall_S" = 101.9406   $ Sizing
 "CRtdFlo_Sys_L_Hall_W" = 106.1987   $ Sizing
 "CRtdFlo_Sys_L_LobWait_E" = 213.3978   $ Sizing
 "CRtdFlo_Sys_L_LobWait_N" = 141.4079   $ Sizing
 "CRtdFlo_Sys_L_LobWait_S" = 246.6797   $ Sizing
 "CRtdFlo_Sys_L_LobWait_W" = 261.938   $ Sizing
 "CRtdFlo_Sys_L_MechElec_C" = 45.21802   $ Sizing
 "CRtdFlo_Sys_L_OfficeOpn_C" = 50.73975   $ Sizing
 "CRtdFlo_Sys_L_OfficeOpn_E" = 410.2192   $ Sizing
 "CRtdFlo_Sys_L_OfficeOpn_N" = 311.7603   $ Sizing
 "CRtdFlo_Sys_L_OfficeOpn_S" = 442.4239   $ Sizing
 "CRtdFlo_Sys_L_OfficeOpn_W" = 472.3925   $ Sizing
 "CRtdFlo_Sys_L_OfficeSm_E" = 344.1942   $ Sizing
 "CRtdFlo_Sys_L_OfficeSm_N" = 245.5358   $ Sizing
 "CRtdFlo_Sys_L_OfficeSm_S" = 381.4982   $ Sizing
 "CRtdFlo_Sys_L_OfficeSm_W" = 402.9443   $ Sizing
 "CRtdFlo_Sys_L_Restrm_C" = 56.04799   $ Sizing
 "CRtdFlo_Sys_L_StorSm_C" = 25.27172   $ Sizing
 "CRtdFlo_Sys_L_StorSm_E" = 84.8535   $ Sizing
 "CRtdFlo_Sys_L_StorSm_N" = 46.38046   $ Sizing
 "CRtdFlo_Sys_L_StorSm_S" = 99.85384   $ Sizing
 "CRtdFlo_Sys_L_StorSm_W" = 101.6267   $ Sizing
 "CRtdFlo_Sys_T_Conf_C" = 215.8742   $ Sizing
 "CRtdFlo_Sys_T_Hall_E" = 103.9376   $ Sizing
 "CRtdFlo_Sys_T_Hall_N" = 63.17787   $ Sizing
 "CRtdFlo_Sys_T_Hall_S" = 116.6382   $ Sizing
 "CRtdFlo_Sys_T_Hall_W" = 120.2965   $ Sizing
 "CRtdFlo_Sys_T_OfficeOpn_C" = 49.67754   $ Sizing
 "CRtdFlo_Sys_T_OfficeOpn_E" = 429.8679   $ Sizing
 "CRtdFlo_Sys_T_OfficeOpn_N" = 334.0591   $ Sizing
 "CRtdFlo_Sys_T_OfficeOpn_S" = 478.3424   $ Sizing
 "CRtdFlo_Sys_T_OfficeOpn_W" = 491.1132   $ Sizing
 "CRtdFlo_Sys_T_OfficeSm_E" = 368.2654   $ Sizing
 "CRtdFlo_Sys_T_OfficeSm_N" = 267.6163   $ Sizing
 "CRtdFlo_Sys_T_OfficeSm_S" = 415.3216   $ Sizing
 "CRtdFlo_Sys_T_OfficeSm_W" = 421.0944   $ Sizing
 "CRtdFlo_Sys_T_Restrm_C" = 98.71005   $ Sizing
 "CRtdFlo_Sys_T_StorSm_E" = 104.8648   $ Sizing
 "CRtdFlo_Sys_T_StorSm_N" = 62.45038   $ Sizing
 "CRtdFlo_Sys_T_StorSm_S" = 120.5768   $ Sizing
 "CRtdFlo_Sys_T_StorSm_W" = 124.393   $ Sizing
 "CSupFlo_Sys_L_Break_C" = 383.3962   $ Sizing
 "CSupFlo_Sys_L_CompDC_C" = 136.1515   $ Sizing
 "CSupFlo_Sys_L_Conf_C" = 222.1926   $ Sizing
 "CSupFlo_Sys_L_CopyRm_C" = 80.68889   $ Sizing
 "CSupFlo_Sys_L_Hall_E" = 88.80643   $ Sizing
 "CSupFlo_Sys_L_Hall_N" = 50.9944   $ Sizing
 "CSupFlo_Sys_L_Hall_S" = 101.9406   $ Sizing
 "CSupFlo_Sys_L_Hall_W" = 106.1987   $ Sizing
 "CSupFlo_Sys_L_LobWait_E" = 213.3978   $ Sizing
 "CSupFlo_Sys_L_LobWait_N" = 141.4079   $ Sizing
 "CSupFlo_Sys_L_LobWait_S" = 246.6797   $ Sizing
 "CSupFlo_Sys_L_LobWait_W" = 261.938   $ Sizing
 "CSupFlo_Sys_L_MechElec_C" = 45.21802   $ Sizing
 "CSupFlo_Sys_L_OfficeOpn_C" = 50.73975   $ Sizing
 "CSupFlo_Sys_L_OfficeOpn_E" = 410.2192   $ Sizing
 "CSupFlo_Sys_L_OfficeOpn_N" = 311.7603   $ Sizing
 "CSupFlo_Sys_L_OfficeOpn_S" = 442.4239   $ Sizing
 "CSupFlo_Sys_L_OfficeOpn_W" = 472.3925   $ Sizing
 "CSupFlo_Sys_L_OfficeSm_E" = 344.1942   $ Sizing
 "CSupFlo_Sys_L_OfficeSm_N" = 245.5358   $ Sizing
 "CSupFlo_Sys_L_OfficeSm_S" = 381.4982   $ Sizing
 "CSupFlo_Sys_L_OfficeSm_W" = 402.9443   $ Sizing
 "CSupFlo_Sys_L_Restrm_C" = 56.04799   $ Sizing
 "CSupFlo_Sys_L_StorSm_C" = 25.27172   $ Sizing
 "CSupFlo_Sys_L_StorSm_E" = 84.8535   $ Sizing
 "CSupFlo_Sys_L_StorSm_N" = 46.38046   $ Sizing
 "CSupFlo_Sys_L_StorSm_S" = 99.85384   $ Sizing
 "CSupFlo_Sys_L_StorSm_W" = 101.6267   $ Sizing
 "CSupFlo_Sys_T_Conf_C" = 215.8742   $ Sizing
 "CSupFlo_Sys_T_Hall_E" = 103.9376   $ Sizing
 "CSupFlo_Sys_T_Hall_N" = 63.17787   $ Sizing
 "CSupFlo_Sys_T_Hall_S" = 116.6382   $ Sizing
 "CSupFlo_Sys_T_Hall_W" = 120.2965   $ Sizing
 "CSupFlo_Sys_T_OfficeOpn_C" = 49.67754   $ Sizing
 "CSupFlo_Sys_T_OfficeOpn_E" = 429.8679   $ Sizing
 "CSupFlo_Sys_T_OfficeOpn_N" = 334.0591   $ Sizing
 "CSupFlo_Sys_T_OfficeOpn_S" = 478.3424   $ Sizing
 "CSupFlo_Sys_T_OfficeOpn_W" = 491.1132   $ Sizing
 "CSupFlo_Sys_T_OfficeSm_E" = 368.2654   $ Sizing
 "CSupFlo_Sys_T_OfficeSm_N" = 267.6163   $ Sizing
 "CSupFlo_Sys_T_OfficeSm_S" = 415.3216   $ Sizing
 "CSupFlo_Sys_T_OfficeSm_W" = 421.0944   $ Sizing
 "CSupFlo_Sys_T_Restrm_C" = 98.71005   $ Sizing
 "CSupFlo_Sys_T_StorSm_E" = 104.8648   $ Sizing
 "CSupFlo_Sys_T_StorSm_N" = 62.45038   $ Sizing
 "CSupFlo_Sys_T_StorSm_S" = 120.5768   $ Sizing
 "CSupFlo_Sys_T_StorSm_W" = 124.393   $ Sizing
 "ClCap_Sys_L_Break_C" = 13084.25   $ Sizing
 "ClCap_Sys_L_CompDC_C" = 4646.472   $ Sizing
 "ClCap_Sys_L_Conf_C" = 9650.855   $ Sizing
 "ClCap_Sys_L_CopyRm_C" = 2753.688   $ Sizing
 "ClCap_Sys_L_Hall_E" = 3030.717   $ Sizing
 "ClCap_Sys_L_Hall_N" = 1740.297   $ Sizing
 "ClCap_Sys_L_Hall_S" = 3478.948   $ Sizing
 "ClCap_Sys_L_Hall_W" = 3624.267   $ Sizing
 "ClCap_Sys_L_LobWait_E" = 7282.673   $ Sizing
 "ClCap_Sys_L_LobWait_N" = 4825.859   $ Sizing
 "ClCap_Sys_L_LobWait_S" = 8418.494   $ Sizing
 "ClCap_Sys_L_LobWait_W" = 8939.215   $ Sizing
 "ClCap_Sys_L_MechElec_C" = 1543.165   $ Sizing
 "ClCap_Sys_L_OfficeOpn_C" = 1731.607   $ Sizing
 "ClCap_Sys_L_OfficeOpn_E" = 13999.64   $ Sizing
 "ClCap_Sys_L_OfficeOpn_N" = 10639.51   $ Sizing
 "ClCap_Sys_L_OfficeOpn_S" = 15098.7   $ Sizing
 "ClCap_Sys_L_OfficeOpn_W" = 16121.44   $ Sizing
 "ClCap_Sys_L_OfficeSm_E" = 11746.39   $ Sizing
 "ClCap_Sys_L_OfficeSm_N" = 8379.455   $ Sizing
 "ClCap_Sys_L_OfficeSm_S" = 13019.47   $ Sizing
 "ClCap_Sys_L_OfficeSm_W" = 13751.37   $ Sizing
 "ClCap_Sys_L_Restrm_C" = 1912.762   $ Sizing
 "ClCap_Sys_L_StorSm_C" = 862.4536   $ Sizing
 "ClCap_Sys_L_StorSm_E" = 2895.814   $ Sizing
 "ClCap_Sys_L_StorSm_N" = 1582.836   $ Sizing
 "ClCap_Sys_L_StorSm_S" = 3407.734   $ Sizing
 "ClCap_Sys_L_StorSm_W" = 3468.238   $ Sizing
 "ClCap_Sys_T_Conf_C" = 9376.418   $ Sizing
 "ClCap_Sys_T_Hall_E" = 3547.101   $ Sizing
 "ClCap_Sys_T_Hall_N" = 2156.085   $ Sizing
 "ClCap_Sys_T_Hall_S" = 3980.538   $ Sizing
 "ClCap_Sys_T_Hall_W" = 4105.386   $ Sizing
 "ClCap_Sys_T_OfficeOpn_C" = 1695.357   $ Sizing
 "ClCap_Sys_T_OfficeOpn_E" = 14670.2   $ Sizing
 "ClCap_Sys_T_OfficeOpn_N" = 11400.51   $ Sizing
 "ClCap_Sys_T_OfficeOpn_S" = 16324.5   $ Sizing
 "ClCap_Sys_T_OfficeOpn_W" = 16760.33   $ Sizing
 "ClCap_Sys_T_OfficeSm_E" = 12567.87   $ Sizing
 "ClCap_Sys_T_OfficeSm_N" = 9133.001   $ Sizing
 "ClCap_Sys_T_OfficeSm_S" = 14173.77   $ Sizing
 "ClCap_Sys_T_OfficeSm_W" = 14370.78   $ Sizing
 "ClCap_Sys_T_Restrm_C" = 3368.7   $ Sizing
 "ClCap_Sys_T_StorSm_E" = 3578.745   $ Sizing
 "ClCap_Sys_T_StorSm_N" = 2131.258   $ Sizing
 "ClCap_Sys_T_StorSm_S" = 4114.95   $ Sizing
 "ClCap_Sys_T_StorSm_W" = 4245.188   $ Sizing
 "HtCap_Sys_L_Break_C" = -22671.93   $ Sizing
 "HtCap_Sys_L_CompDC_C" = -8270.547   $ Sizing
 "HtCap_Sys_L_Conf_C" = -13893.2   $ Sizing
 "HtCap_Sys_L_CopyRm_C" = -5016.905   $ Sizing
 "HtCap_Sys_L_Hall_E" = -4355.388   $ Sizing
 "HtCap_Sys_L_Hall_N" = -2169.284   $ Sizing
 "HtCap_Sys_L_Hall_S" = -4489.708   $ Sizing
 "HtCap_Sys_L_Hall_W" = -4366.434   $ Sizing
 "HtCap_Sys_L_LobWait_E" = -10820.94   $ Sizing
 "HtCap_Sys_L_LobWait_N" = -6818.137   $ Sizing
 "HtCap_Sys_L_LobWait_S" = -11406.72   $ Sizing
 "HtCap_Sys_L_LobWait_W" = -11085.12   $ Sizing
 "HtCap_Sys_L_MechElec_C" = -3119.937   $ Sizing
 "HtCap_Sys_L_OfficeOpn_C" = -2902.975   $ Sizing
 "HtCap_Sys_L_OfficeOpn_E" = -19330.56   $ Sizing
 "HtCap_Sys_L_OfficeOpn_N" = -13208.2   $ Sizing
 "HtCap_Sys_L_OfficeOpn_S" = -18894.02   $ Sizing
 "HtCap_Sys_L_OfficeOpn_W" = -19179.45   $ Sizing
 "HtCap_Sys_L_OfficeSm_E" = -16262.89   $ Sizing
 "HtCap_Sys_L_OfficeSm_N" = -10199.3   $ Sizing
 "HtCap_Sys_L_OfficeSm_S" = -16074.03   $ Sizing
 "HtCap_Sys_L_OfficeSm_W" = -16067.57   $ Sizing
 "HtCap_Sys_L_Restrm_C" = -3087.437   $ Sizing
 "HtCap_Sys_L_StorSm_C" = -1569.293   $ Sizing
 "HtCap_Sys_L_StorSm_E" = -4405.722   $ Sizing
 "HtCap_Sys_L_StorSm_N" = -2819.464   $ Sizing
 "HtCap_Sys_L_StorSm_S" = -4519.413   $ Sizing
 "HtCap_Sys_L_StorSm_W" = -4354.083   $ Sizing
 "HtCap_Sys_T_Conf_C" = -13961.33   $ Sizing
 "HtCap_Sys_T_Hall_E" = -5046.838   $ Sizing
 "HtCap_Sys_T_Hall_N" = -2820.078   $ Sizing
 "HtCap_Sys_T_Hall_S" = -5510.321   $ Sizing
 "HtCap_Sys_T_Hall_W" = -5086.045   $ Sizing
 "HtCap_Sys_T_OfficeOpn_C" = -3029.082   $ Sizing
 "HtCap_Sys_T_OfficeOpn_E" = -20979.41   $ Sizing
 "HtCap_Sys_T_OfficeOpn_N" = -14696.21   $ Sizing
 "HtCap_Sys_T_OfficeOpn_S" = -21844.12   $ Sizing
 "HtCap_Sys_T_OfficeOpn_W" = -20356.87   $ Sizing
 "HtCap_Sys_T_OfficeSm_E" = -17579.71   $ Sizing
 "HtCap_Sys_T_OfficeSm_N" = -11482.32   $ Sizing
 "HtCap_Sys_T_OfficeSm_S" = -18721.25   $ Sizing
 "HtCap_Sys_T_OfficeSm_W" = -17473.2   $ Sizing
 "HtCap_Sys_T_Restrm_C" = -4686.836   $ Sizing
 "HtCap_Sys_T_StorSm_E" = -5386.781   $ Sizing
 "HtCap_Sys_T_StorSm_N" = -3217.931   $ Sizing
 "HtCap_Sys_T_StorSm_S" = -5610.737   $ Sizing
 "HtCap_Sys_T_StorSm_W" = -5385.835   $ Sizing
..

##include Templates\OfS_DX_SZ.inp
END ..
COMPUTE ..
STOP ..
