INPUT ..

##fileprefix C:\Users\jglasskatz\MASControl3\
##set1 IsSizing FALSE
##set1 CoolType DX
##set1 HeatType FURNACE
##set1 EU_HrRepVar 0
##set1 BldgVint 2003
##set1 BldgLoc CZ14

 ##set1 mBFMult 1   $ IP Tech: RefgChg-NRes-Std

PARAMETER
 "AltFactor" = 1.09733   $ IP Non-Tech
 "BF_fFlow" = SpltAC2SpHiSEER_BF_fFlow   $ Msr (Multi)TechID: MsrNResSplitAC-45to55-S17
 "BF_fT" = SpltAC2SpHiSEER_BF_fT   $ Msr (Multi)TechID: MsrNResSplitAC-45to55-S17
 "BldgEconoFlag" = 1   $ IP Non-Tech
 "Break_EWSF" = 1   $ IP Non-Tech
 "Break_LWSF" = 1.1   $ IP Non-Tech
 "CDD_DBHi10" = 86   $ IP Non-Tech
 "CDD_DBHi7" = 102   $ IP Non-Tech
 "CDD_DBHi8" = 102   $ IP Non-Tech
 "CDD_DBHi9" = 99   $ IP Non-Tech
 "CDD_DBRange10" = 24   $ IP Non-Tech
 "CDD_DBRange7" = 25   $ IP Non-Tech
 "CDD_DBRange8" = 24   $ IP Non-Tech
 "CDD_DBRange9" = 26   $ IP Non-Tech
 "CDD_Day10" = 15   $ IP Non-Tech
 "CDD_Day7" = 16   $ IP Non-Tech
 "CDD_Day8" = 20   $ IP Non-Tech
 "CDD_Day9" = 17   $ IP Non-Tech
 "CDD_HrHi10" = 15   $ IP Non-Tech
 "CDD_HrHi7" = 14   $ IP Non-Tech
 "CDD_HrHi8" = 14   $ IP Non-Tech
 "CDD_HrHi9" = 13   $ IP Non-Tech
 "CDD_HrLo10" = 3   $ IP Non-Tech
 "CDD_HrLo7" = 4   $ IP Non-Tech
 "CDD_HrLo8" = 6   $ IP Non-Tech
 "CDD_HrLo9" = 6   $ IP Non-Tech
 "CDD_WB10" = 59.47153854   $ IP Non-Tech
 "CDD_WB7" = 72.7782135   $ IP Non-Tech
 "CDD_WB8" = 69.10041809   $ IP Non-Tech
 "CDD_WB9" = 72.65714264   $ IP Non-Tech
 "CEIR_fPLR_Hot" = SpltAC2SpHiSEER_CEIR_fPLR_Hot   $ Msr (Multi)TechID: MsrNResSplitAC-45to55-S17
 "CEIR_fPLR_Mod" = SpltAC2SpHiSEER_CEIR_fPLR_Mod   $ Msr (Multi)TechID: MsrNResSplitAC-45to55-S17
 "CEIR_fPLR_Tem" = SpltAC2SpHiSEER_CEIR_fPLR_Tem   $ Msr (Multi)TechID: MsrNResSplitAC-45to55-S17
 "CLoss_fPLR_Hot" = SpltAC2SpHiSEER_CLoss_fPLR_Hot   $ Msr (Multi)TechID: MsrNResSplitAC-45to55-S17
 "CLoss_fPLR_Mod" = SpltAC2SpHiSEER_CLoss_fPLR_Mod   $ Msr (Multi)TechID: MsrNResSplitAC-45to55-S17
 "CLoss_fPLR_Tem" = SpltAC2SpHiSEER_CLoss_fPLR_Tem   $ Msr (Multi)TechID: MsrNResSplitAC-45to55-S17
 "COP47" = 0   $ Msr (Multi)TechID: MsrNResSplitAC-45to55-S17
 "CZ_Category" = Hot   $ IP Non-Tech
 "CapRange" = Any   $ Msr (Multi)TechID: MsrNResSplitAC-45to55-S17
 "CfmPerBtuh" = 0.03   $ Msr (Multi)TechID: MsrNResSplitAC-45to55-S17
 "ChwVintEconoFlag" = 1   $ IP Non-Tech
 "ClCap_fT" = SpltAC2SpHiSEER_ClCap_fT   $ Msr (Multi)TechID: MsrNResSplitAC-45to55-S17
 "ClSH_fT" = SpltAC2SpHiSEER_ClSH_fT   $ Msr (Multi)TechID: MsrNResSplitAC-45to55-S17
 "CoilBF" = 0.102   $ Msr (Multi)TechID: MsrNResSplitAC-45to55-S17
 "CompRoomData_EWSF" = 5   $ IP Non-Tech
 "CompRoomData_LWSF" = 1.2   $ IP Non-Tech
 "CondWPerBtuh" = 0   $ Msr (Multi)TechID: MsrNResSplitAC-45to55-S17
 "Conference_EWSF" = 1   $ IP Non-Tech
 "Conference_LWSF" = 1.4   $ IP Non-Tech
 "CoolSensCap" = 0.724   $ Msr (Multi)TechID: MsrNResSplitAC-45to55-S17
 "CoolSetT" = 45   $ IP Non-Tech
 "CoolType" = DX   $ IP Non-Tech
 "CoolingEIR" = 0.2225   $ Msr (Multi)TechID: MsrNResSplitAC-45to55-S17
 "CopyRoom_EWSF" = 1.5   $ IP Non-Tech
 "CopyRoom_LWSF" = 1.3   $ IP Non-Tech
 "CrnkEIR" = 0.002225   $ Msr (Multi)TechID: MsrNResSplitAC-45to55-S17
 "CrnkMaxT" = 50   $ Msr (Multi)TechID: MsrNResSplitAC-45to55-S17
 "DXType" = SplitSEER   $ Msr (Multi)TechID: MsrNResSplitAC-45to55-S17
 "DesCoolT" = 75   $ IP Non-Tech
 "DesHeatT" = 73   $ IP Non-Tech
 "EER" = 13.26   $ Msr (Multi)TechID: MsrNResSplitAC-45to55-S17
 "EIR_fT" = SpltAC2SpHiSEER_EIR_fT   $ Msr (Multi)TechID: MsrNResSplitAC-45to55-S17
 "EconoCtrl" = FIXED   $ Msr (Multi)TechID: MsrNResSplitAC-45to55-S17
 "EconoEnthLimit" = 28   $ IP Non-Tech
 "EconoTempLimit" = 75   $ IP Non-Tech
 "Elevation" = 2523   $ IP Non-Tech
 "FanEirPlr" = TwoSpeedFan   $ Msr (Multi)TechID: MsrNResSplitAC-45to55-S17
 "FanWPerCfm" = 0.271   $ Msr (Multi)TechID: MsrNResSplitAC-45to55-S17
 "HDD_CloudAmt1" = 0   $ IP Non-Tech
 "HDD_DBHi1" = 50   $ IP Non-Tech
 "HDD_DBRange1" = 24   $ IP Non-Tech
 "HDD_Day1" = 15   $ IP Non-Tech
 "HDD_HrHi1" = 14   $ IP Non-Tech
 "HDD_HrLo1" = 6   $ IP Non-Tech
 "HDD_WB1" = 36.9   $ IP Non-Tech
 "HDD_WindSpd1" = 17.3   $ IP Non-Tech
 "HIR_fT" = 0   $ Msr (Multi)TechID: MsrNResSplitAC-45to55-S17
 "HSPF" = 0   $ Msr (Multi)TechID: MsrNResSplitAC-45to55-S17
 "Hall_EWSF" = 0.2   $ IP Non-Tech
 "Hall_LWSF" = 0.6   $ IP Non-Tech
 "HeatSrc" = FURNACE   $ IP Non-Tech
 "HeatSrcTU" = HEAT-PUMP   $ IP Non-Tech
 "HeatType" = GasFurn   $ IP Non-Tech
 "HeatTypeTU" = HEAT-PUMP   $ IP Non-Tech
 "HtCap_fT" = 0   $ Msr (Multi)TechID: MsrNResSplitAC-45to55-S17
 "HtCoolCapRatio" = 0   $ Msr (Multi)TechID: MsrNResSplitAC-45to55-S17
 "HtgEIR" = 0   $ Msr (Multi)TechID: MsrNResSplitAC-45to55-S17
 "IndoorFanMode" = CONTINUOUS   $ IP Non-Tech
 "KT_TransferAir" = No   $ IP Non-Tech
 "Latitude" = 35.7   $ IP Non-Tech
 "LobbyWaiting_EWSF" = 0.5   $ IP Non-Tech
 "LobbyWaiting_LWSF" = 1.3   $ IP Non-Tech
 "Longitude" = 117.7   $ IP Non-Tech
 "LowSpdCapRatio" = 0.686   $ Msr (Multi)TechID: MsrNResSplitAC-45to55-S17
 "LowSpdCfmRatio" = 0.739   $ Msr (Multi)TechID: MsrNResSplitAC-45to55-S17
 "MZFanMechEff" = 0.58   $ IP Non-Tech
 "MZHasRetFan" = FALSE   $ IP Non-Tech
 "MZ_RFanWPerCfm" = 0.33   $ IP Non-Tech
 "MZ_SFanWPerCfm" = 0.75   $ IP Non-Tech
 "MZ_SupFanStatic" = 2.25   $ IP Non-Tech
 "MaxOAFrac" = 1   $ Msr (Multi)TechID: MsrNResSplitAC-45to55-S17
 "MaxSupT_MZ" = 100   $ IP Non-Tech
 "MaxSupT_SZ" = 100   $ IP Non-Tech
 "MaxSupT_TU" = 90   $ IP Non-Tech
 "MechElecRoom_EWSF" = 0.2   $ IP Non-Tech
 "MechElecRoom_LWSF" = 0.7   $ IP Non-Tech
 "MinCfmPerSF" = 0.4   $ IP Non-Tech
 "MinSupT" = 55   $ IP Non-Tech
 "NumStages" = 2   $ Msr (Multi)TechID: MsrNResSplitAC-45to55-S17
 "OccCoolT" = 76   $ IP Non-Tech
 "OccHeatT" = 72   $ IP Non-Tech
 "OfficeOpen_EWSF" = 1.5   $ IP Non-Tech
 "OfficeOpen_LWSF" = 1.2   $ IP Non-Tech
 "OfficeSmall_EWSF" = 1.5   $ IP Non-Tech
 "OfficeSmall_LWSF" = 1.3   $ IP Non-Tech
 "PkgDxVintEconoFlag" = 0   $ IP Non-Tech
 "Restroom_EWSF" = 0.2   $ IP Non-Tech
 "Restroom_LWSF" = 0.6   $ IP Non-Tech
 "SEER" = 17   $ Msr (Multi)TechID: MsrNResSplitAC-45to55-S17
 "SZFanMechEff" = 0.58   $ IP Non-Tech
 "SZHasRetFan" = FALSE   $ IP Non-Tech
 "SZ_Is_2Spd" = FALSE   $ IP Non-Tech
 "SZ_SFanWPerCfm" = 0.46   $ IP Non-Tech
 "SZ_SupFanStatic" = 0.75   $ IP Non-Tech
 "Sector" = Any   $ Msr (Multi)TechID: MsrNResSplitAC-45to55-S17
 "StorageSmlCond_EWSF" = 0.2   $ IP Non-Tech
 "StorageSmlCond_LWSF" = 0.6   $ IP Non-Tech
 "SubType" = AC   $ Msr (Multi)TechID: MsrNResSplitAC-45to55-S17
 "T24GlzTbl" = CZTbl   $ IP Non-Tech
 "TermUnitFanMechEff" = 1   $ IP Non-Tech
 "TermUnitFanMode" = INTERMITTENT   $ IP Non-Tech
 "TotCoolCap" = 58805   $ Msr (Multi)TechID: MsrNResSplitAC-45to55-S17
 "TwrSetpt" = 90   $ IP Non-Tech
 "UnocCoolT" = 86   $ IP Non-Tech
 "UnocHeatT" = 62   $ IP Non-Tech
 "UseEconoVintApplic" = FALSE   $ Msr (Multi)TechID: MsrNResSplitAC-45to55-S17
 "WlhpVintEconoFlag" = 0   $ IP Non-Tech
 "DuctDT" = 1   $ IP Tech: ComDuctInsul-1
 "DuctAirLoss" = 0   $ IP Tech: ComDuctLeak-0
 "DuctLossOAFrac" = 0   $ IP Tech: ComDuctLeak-0
 "ComRoofInsCalc" = FromUo   $ IP Tech: ComRoofIns-WFrm-0.06
 "ComRoofInsR" = -999   $ IP Tech: ComRoofIns-WFrm-0.06
 "ComRoofUo" = 0.06   $ IP Tech: ComRoofIns-WFrm-0.06
 "ComEWInsCalc" = FromUo   $ IP Tech: ComWallIns-WFrm-0.08
 "ComEWInsR" = -999   $ IP Tech: ComWallIns-WFrm-0.08
 "ComEWUo" = 0.08   $ IP Tech: ComWallIns-WFrm-0.08
 "ComN_SHGC" = 0.4   $ IP Tech: NResWin-ComN-0.47-0.4
 "ComN_UFactor" = 0.47   $ IP Tech: NResWin-ComN-0.47-0.4
 "ComN_VisTrans" = 0.68   $ IP Tech: NResWin-ComN-0.47-0.4
 "ComN_WinCode" = G2663   $ IP Tech: NResWin-ComN-0.47-0.4
 "ComN_WinFrmFrac" = 0.17   $ IP Tech: NResWin-ComN-0.47-0.4
 "ComN_WinFrmU" = 0.3   $ IP Tech: NResWin-ComN-0.47-0.4
 "ComO_SHGC" = 0.31   $ IP Tech: NResWin-ComO-0.47-0.31
 "ComO_UFactor" = 0.47   $ IP Tech: NResWin-ComO-0.47-0.31
 "ComO_VisTrans" = 0.44   $ IP Tech: NResWin-ComO-0.47-0.31
 "ComO_WinCode" = G2637   $ IP Tech: NResWin-ComO-0.47-0.31
 "ComO_WinFrmFrac" = 0.17   $ IP Tech: NResWin-ComO-0.47-0.31
 "ComO_WinFrmU" = 0.3   $ IP Tech: NResWin-ComO-0.47-0.31
 "LtgMsrApplic" = ALL   $ IP Tech: NonResLtgRefPre
 "LtgSav_CFL" = 0   $ IP Tech: NonResLtgRefPre
 "LtgSav_EX" = 0   $ IP Tech: NonResLtgRefPre
 "LtgSav_HB" = 0   $ IP Tech: NonResLtgRefPre
 "LtgSav_LF" = 0   $ IP Tech: NonResLtgRefPre
 "LtgSav_SP" = 0   $ IP Tech: NonResLtgRefPre
 "CEIR_fPLR" = PSZ65to135_CEIR_fPLR   $ IP Tech: PkgAC1SpH-65to135-E10
 "CLoss_fPLR" = PSZ65to135_CLoss_fPLR   $ IP Tech: PkgAC1SpH-65to135-E10
 "COP" = -1   $ IP Tech: PkgAC1SpH-65to135-E10
 "HtgFuel" = Gas   $ IP Tech: PkgAC1SpH-65to135-E10
 "IEER" = 11.87   $ IP Tech: PkgAC1SpH-65to135-E10
 "NominalCap" = 15   $ IP Tech: PkgAC1SpH-65to135-E10
 "RatedEER" = 10   $ IP Tech: PkgAC1SpH-65to135-E10
 "RatedSupMtrClass" = HiEff   $ IP Tech: PkgAC1SpH-65to135-E10
 "SizeRange" = 65to135   $ IP Tech: PkgAC1SpH-65to135-E10
 "SupMotEff" = 0.84   $ IP Tech: PkgAC1SpH-65to135-E10
 "Tier" = 0   $ IP Tech: PkgAC1SpH-65to135-E10
 "FanPwrMult" = 1   $ IP Tech: PkgFurn-0.80AFUE
 "FurnAFUE" = 0.8   $ IP Tech: PkgFurn-0.80AFUE
 "FurnEt" = 0.82   $ IP Tech: PkgFurn-0.80AFUE
 "FurnaceAuxKW" = 0.1   $ IP Tech: PkgFurn-0.80AFUE
 "HIR_fPLR" = Furnace-HIR-fPLR   $ IP Tech: PkgFurn-0.80AFUE
 "VSM" = FALSE   $ IP Tech: PkgFurn-0.80AFUE
 "BFMult" = 1   $ IP Tech: RefgChg-NRes-Std
 "CoolEirMult" = 1   $ IP Tech: RefgChg-NRes-Std
 "SensCoolCapMult" = 1   $ IP Tech: RefgChg-NRes-Std
 "TotCoolCapMult" = 1   $ IP Tech: RefgChg-NRes-Std
 "AltAdjFactor" = 1.09733   $ Sizing
 "CAssFlo_L_Break_CZn" = 566.9991   $ Sizing
 "CAssFlo_L_CompDC_CZn" = 174.8509   $ Sizing
 "CAssFlo_L_Conf_CZn" = 325.985   $ Sizing
 "CAssFlo_L_CopyRm_CZn" = 117.7337   $ Sizing
 "CAssFlo_L_Hall_EZn" = 138.095   $ Sizing
 "CAssFlo_L_Hall_NZn" = 82.4302   $ Sizing
 "CAssFlo_L_Hall_SZn" = 133.9169   $ Sizing
 "CAssFlo_L_Hall_WZn" = 148.5195   $ Sizing
 "CAssFlo_L_LobWait_EZn" = 328.2174   $ Sizing
 "CAssFlo_L_LobWait_NZn" = 222.8619   $ Sizing
 "CAssFlo_L_LobWait_SZn" = 338.0584   $ Sizing
 "CAssFlo_L_LobWait_WZn" = 381.0934   $ Sizing
 "CAssFlo_L_MechElec_CZn" = 98.15692   $ Sizing
 "CAssFlo_L_OfficeOpn_CZn" = 83.72287   $ Sizing
 "CAssFlo_L_OfficeOpn_EZn" = 586.5919   $ Sizing
 "CAssFlo_L_OfficeOpn_NZn" = 439.8289   $ Sizing
 "CAssFlo_L_OfficeOpn_SZn" = 579.6786   $ Sizing
 "CAssFlo_L_OfficeOpn_WZn" = 647.3942   $ Sizing
 "CAssFlo_L_OfficeSm_EZn" = 490.6738   $ Sizing
 "CAssFlo_L_OfficeSm_NZn" = 342.162   $ Sizing
 "CAssFlo_L_OfficeSm_SZn" = 488.8217   $ Sizing
 "CAssFlo_L_OfficeSm_WZn" = 547.9587   $ Sizing
 "CAssFlo_L_Restrm_CZn" = 112.6984   $ Sizing
 "CAssFlo_L_StorSm_CZn" = 45.89495   $ Sizing
 "CAssFlo_L_StorSm_EZn" = 137.4087   $ Sizing
 "CAssFlo_L_StorSm_NZn" = 86.25747   $ Sizing
 "CAssFlo_L_StorSm_SZn" = 135.4626   $ Sizing
 "CAssFlo_L_StorSm_WZn" = 146.2198   $ Sizing
 "CAssFlo_T_Conf_CZn" = 315.414   $ Sizing
 "CAssFlo_T_Hall_EZn" = 152.8763   $ Sizing
 "CAssFlo_T_Hall_NZn" = 90.26497   $ Sizing
 "CAssFlo_T_Hall_SZn" = 150.8095   $ Sizing
 "CAssFlo_T_Hall_WZn" = 166.3722   $ Sizing
 "CAssFlo_T_OfficeOpn_CZn" = 79.93488   $ Sizing
 "CAssFlo_T_OfficeOpn_EZn" = 623.0656   $ Sizing
 "CAssFlo_T_OfficeOpn_NZn" = 461.6339   $ Sizing
 "CAssFlo_T_OfficeOpn_SZn" = 629.1116   $ Sizing
 "CAssFlo_T_OfficeOpn_WZn" = 683.4404   $ Sizing
 "CAssFlo_T_OfficeSm_EZn" = 523.2856   $ Sizing
 "CAssFlo_T_OfficeSm_NZn" = 362.7702   $ Sizing
 "CAssFlo_T_OfficeSm_SZn" = 530.932   $ Sizing
 "CAssFlo_T_OfficeSm_WZn" = 580.1951   $ Sizing
 "CAssFlo_T_Restrm_CZn" = 153.8512   $ Sizing
 "CAssFlo_T_StorSm_EZn" = 159.4268   $ Sizing
 "CAssFlo_T_StorSm_NZn" = 101.1117   $ Sizing
 "CAssFlo_T_StorSm_SZn" = 159.011   $ Sizing
 "CAssFlo_T_StorSm_WZn" = 176.0241   $ Sizing
 "CHRtFlo_Sys_L_Break_C" = 566.9991   $ Sizing
 "CHRtFlo_Sys_L_CompDC_C" = 191.05   $ Sizing
 "CHRtFlo_Sys_L_Conf_C" = 325.985   $ Sizing
 "CHRtFlo_Sys_L_CopyRm_C" = 117.7338   $ Sizing
 "CHRtFlo_Sys_L_Hall_E" = 155.4865   $ Sizing
 "CHRtFlo_Sys_L_Hall_N" = 82.4302   $ Sizing
 "CHRtFlo_Sys_L_Hall_S" = 151.9165   $ Sizing
 "CHRtFlo_Sys_L_Hall_W" = 155.4657   $ Sizing
 "CHRtFlo_Sys_L_LobWait_E" = 360.3976   $ Sizing
 "CHRtFlo_Sys_L_LobWait_N" = 222.8619   $ Sizing
 "CHRtFlo_Sys_L_LobWait_S" = 350.6472   $ Sizing
 "CHRtFlo_Sys_L_LobWait_W" = 381.0934   $ Sizing
 "CHRtFlo_Sys_L_MechElec_C" = 123.6536   $ Sizing
 "CHRtFlo_Sys_L_OfficeOpn_C" = 95.17404   $ Sizing
 "CHRtFlo_Sys_L_OfficeOpn_E" = 652.811   $ Sizing
 "CHRtFlo_Sys_L_OfficeOpn_N" = 439.8289   $ Sizing
 "CHRtFlo_Sys_L_OfficeOpn_S" = 612.064   $ Sizing
 "CHRtFlo_Sys_L_OfficeOpn_W" = 647.3942   $ Sizing
 "CHRtFlo_Sys_L_OfficeSm_E" = 557.2148   $ Sizing
 "CHRtFlo_Sys_L_OfficeSm_N" = 342.162   $ Sizing
 "CHRtFlo_Sys_L_OfficeSm_S" = 534.5623   $ Sizing
 "CHRtFlo_Sys_L_OfficeSm_W" = 559.3793   $ Sizing
 "CHRtFlo_Sys_L_Restrm_C" = 120.2373   $ Sizing
 "CHRtFlo_Sys_L_StorSm_C" = 50.17134   $ Sizing
 "CHRtFlo_Sys_L_StorSm_E" = 152.3851   $ Sizing
 "CHRtFlo_Sys_L_StorSm_N" = 86.25747   $ Sizing
 "CHRtFlo_Sys_L_StorSm_S" = 145.2845   $ Sizing
 "CHRtFlo_Sys_L_StorSm_W" = 146.2198   $ Sizing
 "CHRtFlo_Sys_T_Conf_C" = 315.414   $ Sizing
 "CHRtFlo_Sys_T_Hall_E" = 160.3202   $ Sizing
 "CHRtFlo_Sys_T_Hall_N" = 90.26497   $ Sizing
 "CHRtFlo_Sys_T_Hall_S" = 158.5243   $ Sizing
 "CHRtFlo_Sys_T_Hall_W" = 166.3722   $ Sizing
 "CHRtFlo_Sys_T_OfficeOpn_C" = 81.81374   $ Sizing
 "CHRtFlo_Sys_T_OfficeOpn_E" = 629.569   $ Sizing
 "CHRtFlo_Sys_T_OfficeOpn_N" = 461.6339   $ Sizing
 "CHRtFlo_Sys_T_OfficeOpn_S" = 629.1116   $ Sizing
 "CHRtFlo_Sys_T_OfficeOpn_W" = 683.4404   $ Sizing
 "CHRtFlo_Sys_T_OfficeSm_E" = 542.541   $ Sizing
 "CHRtFlo_Sys_T_OfficeSm_N" = 362.7702   $ Sizing
 "CHRtFlo_Sys_T_OfficeSm_S" = 544.6948   $ Sizing
 "CHRtFlo_Sys_T_OfficeSm_W" = 580.1951   $ Sizing
 "CHRtFlo_Sys_T_Restrm_C" = 161.6932   $ Sizing
 "CHRtFlo_Sys_T_StorSm_E" = 160.0729   $ Sizing
 "CHRtFlo_Sys_T_StorSm_N" = 101.1117   $ Sizing
 "CHRtFlo_Sys_T_StorSm_S" = 159.011   $ Sizing
 "CHRtFlo_Sys_T_StorSm_W" = 176.0241   $ Sizing
 "CRtdFlo_Sys_L_Break_C" = 566.9991   $ Sizing
 "CRtdFlo_Sys_L_CompDC_C" = 174.8509   $ Sizing
 "CRtdFlo_Sys_L_Conf_C" = 325.985   $ Sizing
 "CRtdFlo_Sys_L_CopyRm_C" = 117.7338   $ Sizing
 "CRtdFlo_Sys_L_Hall_E" = 138.095   $ Sizing
 "CRtdFlo_Sys_L_Hall_N" = 82.4302   $ Sizing
 "CRtdFlo_Sys_L_Hall_S" = 133.9169   $ Sizing
 "CRtdFlo_Sys_L_Hall_W" = 148.5195   $ Sizing
 "CRtdFlo_Sys_L_LobWait_E" = 328.2174   $ Sizing
 "CRtdFlo_Sys_L_LobWait_N" = 222.8619   $ Sizing
 "CRtdFlo_Sys_L_LobWait_S" = 338.0584   $ Sizing
 "CRtdFlo_Sys_L_LobWait_W" = 381.0934   $ Sizing
 "CRtdFlo_Sys_L_MechElec_C" = 98.15692   $ Sizing
 "CRtdFlo_Sys_L_OfficeOpn_C" = 83.72287   $ Sizing
 "CRtdFlo_Sys_L_OfficeOpn_E" = 586.5919   $ Sizing
 "CRtdFlo_Sys_L_OfficeOpn_N" = 439.8289   $ Sizing
 "CRtdFlo_Sys_L_OfficeOpn_S" = 579.6786   $ Sizing
 "CRtdFlo_Sys_L_OfficeOpn_W" = 647.3942   $ Sizing
 "CRtdFlo_Sys_L_OfficeSm_E" = 490.6738   $ Sizing
 "CRtdFlo_Sys_L_OfficeSm_N" = 342.162   $ Sizing
 "CRtdFlo_Sys_L_OfficeSm_S" = 488.8217   $ Sizing
 "CRtdFlo_Sys_L_OfficeSm_W" = 547.9587   $ Sizing
 "CRtdFlo_Sys_L_Restrm_C" = 112.6984   $ Sizing
 "CRtdFlo_Sys_L_StorSm_C" = 45.89495   $ Sizing
 "CRtdFlo_Sys_L_StorSm_E" = 137.4087   $ Sizing
 "CRtdFlo_Sys_L_StorSm_N" = 86.25747   $ Sizing
 "CRtdFlo_Sys_L_StorSm_S" = 135.4626   $ Sizing
 "CRtdFlo_Sys_L_StorSm_W" = 146.2198   $ Sizing
 "CRtdFlo_Sys_T_Conf_C" = 315.414   $ Sizing
 "CRtdFlo_Sys_T_Hall_E" = 152.8763   $ Sizing
 "CRtdFlo_Sys_T_Hall_N" = 90.26497   $ Sizing
 "CRtdFlo_Sys_T_Hall_S" = 150.8095   $ Sizing
 "CRtdFlo_Sys_T_Hall_W" = 166.3722   $ Sizing
 "CRtdFlo_Sys_T_OfficeOpn_C" = 79.93488   $ Sizing
 "CRtdFlo_Sys_T_OfficeOpn_E" = 623.0656   $ Sizing
 "CRtdFlo_Sys_T_OfficeOpn_N" = 461.6339   $ Sizing
 "CRtdFlo_Sys_T_OfficeOpn_S" = 629.1116   $ Sizing
 "CRtdFlo_Sys_T_OfficeOpn_W" = 683.4404   $ Sizing
 "CRtdFlo_Sys_T_OfficeSm_E" = 523.2856   $ Sizing
 "CRtdFlo_Sys_T_OfficeSm_N" = 362.7702   $ Sizing
 "CRtdFlo_Sys_T_OfficeSm_S" = 530.932   $ Sizing
 "CRtdFlo_Sys_T_OfficeSm_W" = 580.1951   $ Sizing
 "CRtdFlo_Sys_T_Restrm_C" = 153.8512   $ Sizing
 "CRtdFlo_Sys_T_StorSm_E" = 159.4268   $ Sizing
 "CRtdFlo_Sys_T_StorSm_N" = 101.1117   $ Sizing
 "CRtdFlo_Sys_T_StorSm_S" = 159.011   $ Sizing
 "CRtdFlo_Sys_T_StorSm_W" = 176.0241   $ Sizing
 "CSupFlo_Sys_L_Break_C" = 566.9991   $ Sizing
 "CSupFlo_Sys_L_CompDC_C" = 174.8509   $ Sizing
 "CSupFlo_Sys_L_Conf_C" = 325.985   $ Sizing
 "CSupFlo_Sys_L_CopyRm_C" = 117.7338   $ Sizing
 "CSupFlo_Sys_L_Hall_E" = 138.095   $ Sizing
 "CSupFlo_Sys_L_Hall_N" = 82.4302   $ Sizing
 "CSupFlo_Sys_L_Hall_S" = 133.9169   $ Sizing
 "CSupFlo_Sys_L_Hall_W" = 148.5195   $ Sizing
 "CSupFlo_Sys_L_LobWait_E" = 328.2174   $ Sizing
 "CSupFlo_Sys_L_LobWait_N" = 222.8619   $ Sizing
 "CSupFlo_Sys_L_LobWait_S" = 338.0584   $ Sizing
 "CSupFlo_Sys_L_LobWait_W" = 381.0934   $ Sizing
 "CSupFlo_Sys_L_MechElec_C" = 98.15692   $ Sizing
 "CSupFlo_Sys_L_OfficeOpn_C" = 83.72287   $ Sizing
 "CSupFlo_Sys_L_OfficeOpn_E" = 586.5919   $ Sizing
 "CSupFlo_Sys_L_OfficeOpn_N" = 439.8289   $ Sizing
 "CSupFlo_Sys_L_OfficeOpn_S" = 579.6786   $ Sizing
 "CSupFlo_Sys_L_OfficeOpn_W" = 647.3942   $ Sizing
 "CSupFlo_Sys_L_OfficeSm_E" = 490.6738   $ Sizing
 "CSupFlo_Sys_L_OfficeSm_N" = 342.162   $ Sizing
 "CSupFlo_Sys_L_OfficeSm_S" = 488.8217   $ Sizing
 "CSupFlo_Sys_L_OfficeSm_W" = 547.9587   $ Sizing
 "CSupFlo_Sys_L_Restrm_C" = 112.6984   $ Sizing
 "CSupFlo_Sys_L_StorSm_C" = 45.89495   $ Sizing
 "CSupFlo_Sys_L_StorSm_E" = 137.4087   $ Sizing
 "CSupFlo_Sys_L_StorSm_N" = 86.25747   $ Sizing
 "CSupFlo_Sys_L_StorSm_S" = 135.4626   $ Sizing
 "CSupFlo_Sys_L_StorSm_W" = 146.2198   $ Sizing
 "CSupFlo_Sys_T_Conf_C" = 315.414   $ Sizing
 "CSupFlo_Sys_T_Hall_E" = 152.8763   $ Sizing
 "CSupFlo_Sys_T_Hall_N" = 90.26497   $ Sizing
 "CSupFlo_Sys_T_Hall_S" = 150.8095   $ Sizing
 "CSupFlo_Sys_T_Hall_W" = 166.3722   $ Sizing
 "CSupFlo_Sys_T_OfficeOpn_C" = 79.93488   $ Sizing
 "CSupFlo_Sys_T_OfficeOpn_E" = 623.0656   $ Sizing
 "CSupFlo_Sys_T_OfficeOpn_N" = 461.6339   $ Sizing
 "CSupFlo_Sys_T_OfficeOpn_S" = 629.1116   $ Sizing
 "CSupFlo_Sys_T_OfficeOpn_W" = 683.4404   $ Sizing
 "CSupFlo_Sys_T_OfficeSm_E" = 523.2856   $ Sizing
 "CSupFlo_Sys_T_OfficeSm_N" = 362.7702   $ Sizing
 "CSupFlo_Sys_T_OfficeSm_S" = 530.932   $ Sizing
 "CSupFlo_Sys_T_OfficeSm_W" = 580.1951   $ Sizing
 "CSupFlo_Sys_T_Restrm_C" = 153.8512   $ Sizing
 "CSupFlo_Sys_T_StorSm_E" = 159.4268   $ Sizing
 "CSupFlo_Sys_T_StorSm_N" = 101.1117   $ Sizing
 "CSupFlo_Sys_T_StorSm_S" = 159.011   $ Sizing
 "CSupFlo_Sys_T_StorSm_W" = 176.0241   $ Sizing
 "ClCap_Sys_L_Break_C" = 17715.7   $ Sizing
 "ClCap_Sys_L_CompDC_C" = 5463.158   $ Sizing
 "ClCap_Sys_L_Conf_C" = 12963.1   $ Sizing
 "ClCap_Sys_L_CopyRm_C" = 3678.553   $ Sizing
 "ClCap_Sys_L_Hall_E" = 4314.733   $ Sizing
 "ClCap_Sys_L_Hall_N" = 2575.505   $ Sizing
 "ClCap_Sys_L_Hall_S" = 4184.19   $ Sizing
 "ClCap_Sys_L_Hall_W" = 4640.445   $ Sizing
 "ClCap_Sys_L_LobWait_E" = 10255.05   $ Sizing
 "ClCap_Sys_L_LobWait_N" = 6963.246   $ Sizing
 "ClCap_Sys_L_LobWait_S" = 10562.52   $ Sizing
 "ClCap_Sys_L_LobWait_W" = 11907.14   $ Sizing
 "ClCap_Sys_L_MechElec_C" = 3066.881   $ Sizing
 "ClCap_Sys_L_OfficeOpn_C" = 2615.894   $ Sizing
 "ClCap_Sys_L_OfficeOpn_E" = 18327.87   $ Sizing
 "ClCap_Sys_L_OfficeOpn_N" = 13742.31   $ Sizing
 "ClCap_Sys_L_OfficeOpn_S" = 18111.87   $ Sizing
 "ClCap_Sys_L_OfficeOpn_W" = 20227.62   $ Sizing
 "ClCap_Sys_L_OfficeSm_E" = 15330.94   $ Sizing
 "ClCap_Sys_L_OfficeSm_N" = 10690.74   $ Sizing
 "ClCap_Sys_L_OfficeSm_S" = 15273.08   $ Sizing
 "ClCap_Sys_L_OfficeSm_W" = 17120.79   $ Sizing
 "ClCap_Sys_L_Restrm_C" = 3521.224   $ Sizing
 "ClCap_Sys_L_StorSm_C" = 1433.973   $ Sizing
 "ClCap_Sys_L_StorSm_E" = 4293.291   $ Sizing
 "ClCap_Sys_L_StorSm_N" = 2695.086   $ Sizing
 "ClCap_Sys_L_StorSm_S" = 4232.485   $ Sizing
 "ClCap_Sys_L_StorSm_W" = 4568.59   $ Sizing
 "ClCap_Sys_T_Conf_C" = 12542.74   $ Sizing
 "ClCap_Sys_T_Hall_E" = 4776.571   $ Sizing
 "ClCap_Sys_T_Hall_N" = 2820.3   $ Sizing
 "ClCap_Sys_T_Hall_S" = 4711.994   $ Sizing
 "ClCap_Sys_T_Hall_W" = 5198.244   $ Sizing
 "ClCap_Sys_T_OfficeOpn_C" = 2497.539   $ Sizing
 "ClCap_Sys_T_OfficeOpn_E" = 19467.48   $ Sizing
 "ClCap_Sys_T_OfficeOpn_N" = 14423.6   $ Sizing
 "ClCap_Sys_T_OfficeOpn_S" = 19656.38   $ Sizing
 "ClCap_Sys_T_OfficeOpn_W" = 21353.87   $ Sizing
 "ClCap_Sys_T_OfficeSm_E" = 16349.89   $ Sizing
 "ClCap_Sys_T_OfficeSm_N" = 11334.64   $ Sizing
 "ClCap_Sys_T_OfficeSm_S" = 16588.8   $ Sizing
 "ClCap_Sys_T_OfficeSm_W" = 18128.01   $ Sizing
 "ClCap_Sys_T_Restrm_C" = 4807.03   $ Sizing
 "ClCap_Sys_T_StorSm_E" = 4981.237   $ Sizing
 "ClCap_Sys_T_StorSm_N" = 3159.202   $ Sizing
 "ClCap_Sys_T_StorSm_S" = 4968.248   $ Sizing
 "ClCap_Sys_T_StorSm_W" = 5499.815   $ Sizing
 "HtCap_Sys_L_Break_C" = -30649.11   $ Sizing
 "HtCap_Sys_L_CompDC_C" = -6374.62   $ Sizing
 "HtCap_Sys_L_Conf_C" = -18317.06   $ Sizing
 "HtCap_Sys_L_CopyRm_C" = -6280.374   $ Sizing
 "HtCap_Sys_L_Hall_E" = -5059.778   $ Sizing
 "HtCap_Sys_L_Hall_N" = -3002.432   $ Sizing
 "HtCap_Sys_L_Hall_S" = -4864.222   $ Sizing
 "HtCap_Sys_L_Hall_W" = -5008.265   $ Sizing
 "HtCap_Sys_L_LobWait_E" = -12487.97   $ Sizing
 "HtCap_Sys_L_LobWait_N" = -9364.472   $ Sizing
 "HtCap_Sys_L_LobWait_S" = -12252.8   $ Sizing
 "HtCap_Sys_L_LobWait_W" = -13264.74   $ Sizing
 "HtCap_Sys_L_MechElec_C" = -4516.76   $ Sizing
 "HtCap_Sys_L_OfficeOpn_C" = -3362.033   $ Sizing
 "HtCap_Sys_L_OfficeOpn_E" = -20506.97   $ Sizing
 "HtCap_Sys_L_OfficeOpn_N" = -16552   $ Sizing
 "HtCap_Sys_L_OfficeOpn_S" = -19994.35   $ Sizing
 "HtCap_Sys_L_OfficeOpn_W" = -21555.68   $ Sizing
 "HtCap_Sys_L_OfficeSm_E" = -17760.66   $ Sizing
 "HtCap_Sys_L_OfficeSm_N" = -12467.31   $ Sizing
 "HtCap_Sys_L_OfficeSm_S" = -16783.43   $ Sizing
 "HtCap_Sys_L_OfficeSm_W" = -17993.24   $ Sizing
 "HtCap_Sys_L_Restrm_C" = -3866.819   $ Sizing
 "HtCap_Sys_L_StorSm_C" = -1851.924   $ Sizing
 "HtCap_Sys_L_StorSm_E" = -5183.627   $ Sizing
 "HtCap_Sys_L_StorSm_N" = -3540.548   $ Sizing
 "HtCap_Sys_L_StorSm_S" = -4959.476   $ Sizing
 "HtCap_Sys_L_StorSm_W" = -5067.58   $ Sizing
 "HtCap_Sys_T_Conf_C" = -18535.02   $ Sizing
 "HtCap_Sys_T_Hall_E" = -5810.373   $ Sizing
 "HtCap_Sys_T_Hall_N" = -3794.975   $ Sizing
 "HtCap_Sys_T_Hall_S" = -5844.826   $ Sizing
 "HtCap_Sys_T_Hall_W" = -6122.33   $ Sizing
 "HtCap_Sys_T_OfficeOpn_C" = -3378.311   $ Sizing
 "HtCap_Sys_T_OfficeOpn_E" = -22981.23   $ Sizing
 "HtCap_Sys_T_OfficeOpn_N" = -19521.91   $ Sizing
 "HtCap_Sys_T_OfficeOpn_S" = -24079.4   $ Sizing
 "HtCap_Sys_T_OfficeOpn_W" = -26205.9   $ Sizing
 "HtCap_Sys_T_OfficeSm_E" = -19496.05   $ Sizing
 "HtCap_Sys_T_OfficeSm_N" = -15004.47   $ Sizing
 "HtCap_Sys_T_OfficeSm_S" = -20003.14   $ Sizing
 "HtCap_Sys_T_OfficeSm_W" = -21500.9   $ Sizing
 "HtCap_Sys_T_Restrm_C" = -5959.913   $ Sizing
 "HtCap_Sys_T_StorSm_E" = -6301.235   $ Sizing
 "HtCap_Sys_T_StorSm_N" = -4696.283   $ Sizing
 "HtCap_Sys_T_StorSm_S" = -6295.011   $ Sizing
 "HtCap_Sys_T_StorSm_W" = -6938.764   $ Sizing
..

##include Templates\OfS_DX_SZ.inp
END ..
COMPUTE ..
STOP ..
