
Start DOESIM : Storage capacity =  75000000
Starting LOADS   : SAVE-FILES is On , weather is CZ01ARCATA-AP       
Finished LOADS    BDL  1 : Memory (wds) =    278884, Time (sec) =    2.00
Starting REPORT  
Finished REPORT   BDL  1 : Memory (wds) =    548137, Time (sec) =    0.60
Starting HVAC    : SAVE-FILES is On , weather is CZ01ARCATA-AP       
*** ERRORS or WARNINGS from HVAC     program. Examine output file for details.
Finished HVAC     BDL  1 : Memory (wds) =    483000, Time (sec) =    4.65
Starting REPORT  
Finished REPORT   BDL  1 : Memory (wds) =    782472, Time (sec) =    0.48
Starting HOURLY-R
Finished HOURLY-R BDL  1 : Memory (wds) =   1067757, Time (sec) =    0.16
Starting ECONOMIC
Finished ECONOMIC BDL  1 : Memory (wds) =      1034, Time (sec) =    0.02
End   DOESIM : Total elapsed time of      7.9 seconds
RUN COMPLETE
