INPUT ..

##fileprefix C:\Users\jglasskatz\MASControl3\
##set1 IsSizing FALSE
##set1 CoolType DX
##set1 HeatType FURNACE
##set1 EU_HrRepVar 1
##set1 BldgVint 1996
##set1 BldgLoc CZ01

 ##set1 mBFMult 1   $ IP Tech: RefgChg-NRes-Std

PARAMETER
 "AltFactor" = 1.00753   $ IP Non-Tech
 "BldgEconoFlag" = 1   $ IP Non-Tech
 "Break_EWSF" = 1   $ IP Non-Tech
 "Break_LWSF" = 1.1   $ IP Non-Tech
 "CDD_DBHi10" = 65   $ IP Non-Tech
 "CDD_DBHi7" = 68   $ IP Non-Tech
 "CDD_DBHi8" = 66   $ IP Non-Tech
 "CDD_DBHi9" = 77   $ IP Non-Tech
 "CDD_DBRange10" = 17   $ IP Non-Tech
 "CDD_DBRange7" = 11   $ IP Non-Tech
 "CDD_DBRange8" = 10   $ IP Non-Tech
 "CDD_DBRange9" = 29   $ IP Non-Tech
 "CDD_Day10" = 15   $ IP Non-Tech
 "CDD_Day7" = 16   $ IP Non-Tech
 "CDD_Day8" = 20   $ IP Non-Tech
 "CDD_Day9" = 17   $ IP Non-Tech
 "CDD_HrHi10" = 12   $ IP Non-Tech
 "CDD_HrHi7" = 12   $ IP Non-Tech
 "CDD_HrHi8" = 13   $ IP Non-Tech
 "CDD_HrHi9" = 17   $ IP Non-Tech
 "CDD_HrLo10" = 6   $ IP Non-Tech
 "CDD_HrLo7" = 3   $ IP Non-Tech
 "CDD_HrLo8" = 8   $ IP Non-Tech
 "CDD_HrLo9" = 4   $ IP Non-Tech
 "CDD_WB10" = 57.53039551   $ IP Non-Tech
 "CDD_WB7" = 59.29250717   $ IP Non-Tech
 "CDD_WB8" = 60.75350189   $ IP Non-Tech
 "CDD_WB9" = 61.08643341   $ IP Non-Tech
 "CZ_Category" = Tem   $ IP Non-Tech
 "ChwVintEconoFlag" = 1   $ IP Non-Tech
 "CompRoomData_EWSF" = 5.25   $ IP Non-Tech
 "CompRoomData_LWSF" = 1.2   $ IP Non-Tech
 "Conference_EWSF" = 1.05   $ IP Non-Tech
 "Conference_LWSF" = 1.4   $ IP Non-Tech
 "CoolSetT" = 45   $ IP Non-Tech
 "CoolType" = DX   $ IP Non-Tech
 "CopyRoom_EWSF" = 1.575   $ IP Non-Tech
 "CopyRoom_LWSF" = 1.3   $ IP Non-Tech
 "DesCoolT" = 75   $ IP Non-Tech
 "DesHeatT" = 73   $ IP Non-Tech
 "EconoEnthLimit" = 28   $ IP Non-Tech
 "EconoTempLimit" = 70   $ IP Non-Tech
 "Elevation" = 203   $ IP Non-Tech
 "HDD_CloudAmt1" = 0   $ IP Non-Tech
 "HDD_DBHi1" = 53   $ IP Non-Tech
 "HDD_DBRange1" = 20   $ IP Non-Tech
 "HDD_Day1" = 15   $ IP Non-Tech
 "HDD_HrHi1" = 14   $ IP Non-Tech
 "HDD_HrLo1" = 6   $ IP Non-Tech
 "HDD_WB1" = 42.3   $ IP Non-Tech
 "HDD_WindSpd1" = 12.7   $ IP Non-Tech
 "Hall_EWSF" = 0.21   $ IP Non-Tech
 "Hall_LWSF" = 0.6   $ IP Non-Tech
 "HeatSrc" = FURNACE   $ IP Non-Tech
 "HeatSrcTU" = HEAT-PUMP   $ IP Non-Tech
 "HeatType" = GasFurn   $ IP Non-Tech
 "HeatTypeTU" = HEAT-PUMP   $ IP Non-Tech
 "IndoorFanMode" = CONTINUOUS   $ IP Non-Tech
 "KT_TransferAir" = No   $ IP Non-Tech
 "Latitude" = 40.8   $ IP Non-Tech
 "LobbyWaiting_EWSF" = 0.5125   $ IP Non-Tech
 "LobbyWaiting_LWSF" = 1.3   $ IP Non-Tech
 "Longitude" = 124.2   $ IP Non-Tech
 "MZFanMechEff" = 0.58   $ IP Non-Tech
 "MZHasRetFan" = FALSE   $ IP Non-Tech
 "MZ_RFanWPerCfm" = 0.33   $ IP Non-Tech
 "MZ_SFanWPerCfm" = 0.75   $ IP Non-Tech
 "MZ_SupFanStatic" = 2.25   $ IP Non-Tech
 "MaxSupT_MZ" = 100   $ IP Non-Tech
 "MaxSupT_SZ" = 100   $ IP Non-Tech
 "MaxSupT_TU" = 90   $ IP Non-Tech
 "MechElecRoom_EWSF" = 0.21   $ IP Non-Tech
 "MechElecRoom_LWSF" = 0.7   $ IP Non-Tech
 "MinCfmPerSF" = 0.4   $ IP Non-Tech
 "MinSupT" = 55   $ IP Non-Tech
 "OccCoolT" = 76   $ IP Non-Tech
 "OccHeatT" = 72   $ IP Non-Tech
 "OfficeOpen_EWSF" = 1.575   $ IP Non-Tech
 "OfficeOpen_LWSF" = 1.2   $ IP Non-Tech
 "OfficeSmall_EWSF" = 1.575   $ IP Non-Tech
 "OfficeSmall_LWSF" = 1.3   $ IP Non-Tech
 "PkgDxVintEconoFlag" = 0   $ IP Non-Tech
 "Restroom_EWSF" = 0.21   $ IP Non-Tech
 "Restroom_LWSF" = 0.6   $ IP Non-Tech
 "SZFanMechEff" = 0.58   $ IP Non-Tech
 "SZHasRetFan" = FALSE   $ IP Non-Tech
 "SZ_Is_2Spd" = FALSE   $ IP Non-Tech
 "SZ_SFanWPerCfm" = 0.46   $ IP Non-Tech
 "SZ_SupFanStatic" = 0.75   $ IP Non-Tech
 "StorageSmlCond_EWSF" = 0.21   $ IP Non-Tech
 "StorageSmlCond_LWSF" = 0.6   $ IP Non-Tech
 "T24GlzTbl" = CZTbl   $ IP Non-Tech
 "TermUnitFanMechEff" = 1   $ IP Non-Tech
 "TermUnitFanMode" = INTERMITTENT   $ IP Non-Tech
 "TwrSetpt" = 80   $ IP Non-Tech
 "UnocCoolT" = 86   $ IP Non-Tech
 "UnocHeatT" = 62   $ IP Non-Tech
 "WlhpVintEconoFlag" = 0   $ IP Non-Tech
 "EconoCtrl" = OA-TEMP   $ IP Tech: AirEcono-OATemp
 "MaxOAFrac" = 0.85   $ IP Tech: AirEcono-OATemp
 "UseEconoVintApplic" = FALSE   $ IP Tech: AirEcono-OATemp
 "DuctDT" = 1   $ IP Tech: ComDuctInsul-1
 "DuctAirLoss" = 0   $ IP Tech: ComDuctLeak-0
 "DuctLossOAFrac" = 0   $ IP Tech: ComDuctLeak-0
 "ComRoofInsCalc" = FromUo   $ IP Tech: ComRoofIns-WFrm-0.06
 "ComRoofInsR" = -999   $ IP Tech: ComRoofIns-WFrm-0.06
 "ComRoofUo" = 0.06   $ IP Tech: ComRoofIns-WFrm-0.06
 "ComEWInsCalc" = FromUo   $ IP Tech: ComWallIns-WFrm-0.08
 "ComEWInsR" = -999   $ IP Tech: ComWallIns-WFrm-0.08
 "ComEWUo" = 0.08   $ IP Tech: ComWallIns-WFrm-0.08
 "ComN_SHGC" = 0.77   $ IP Tech: NResWin-ComN-0.77-0.77
 "ComN_UFactor" = 0.77   $ IP Tech: NResWin-ComN-0.77-0.77
 "ComN_VisTrans" = 0.81   $ IP Tech: NResWin-ComN-0.77-0.77
 "ComN_WinCode" = G2000   $ IP Tech: NResWin-ComN-0.77-0.77
 "ComN_WinFrmFrac" = 0.17   $ IP Tech: NResWin-ComN-0.77-0.77
 "ComN_WinFrmU" = 1   $ IP Tech: NResWin-ComN-0.77-0.77
 "ComO_SHGC" = 0.5   $ IP Tech: NResWin-ComO-0.77-0.5
 "ComO_UFactor" = 0.77   $ IP Tech: NResWin-ComO-0.77-0.5
 "ComO_VisTrans" = 0.77   $ IP Tech: NResWin-ComO-0.77-0.5
 "ComO_WinCode" = G2630   $ IP Tech: NResWin-ComO-0.77-0.5
 "ComO_WinFrmFrac" = 0.17   $ IP Tech: NResWin-ComO-0.77-0.5
 "ComO_WinFrmU" = 1   $ IP Tech: NResWin-ComO-0.77-0.5
 "LtgMsrApplic" = ALL   $ IP Tech: NonResLtgRefPre
 "LtgSav_CFL" = 0   $ IP Tech: NonResLtgRefPre
 "LtgSav_EX" = 0   $ IP Tech: NonResLtgRefPre
 "LtgSav_HB" = 0   $ IP Tech: NonResLtgRefPre
 "LtgSav_LF" = 0   $ IP Tech: NonResLtgRefPre
 "LtgSav_SP" = 0   $ IP Tech: NonResLtgRefPre
 "BF_fFlow" = PSZ65to135_BF_fFlow   $ IP Tech: PkgAC1SpH-65to135-E10
 "BF_fT" = PSZ65to135_BF_fT   $ IP Tech: PkgAC1SpH-65to135-E10
 "CEIR_fPLR" = PSZ65to135_CEIR_fPLR   $ IP Tech: PkgAC1SpH-65to135-E10
 "CLoss_fPLR" = PSZ65to135_CLoss_fPLR   $ IP Tech: PkgAC1SpH-65to135-E10
 "COP" = -1   $ IP Tech: PkgAC1SpH-65to135-E10
 "COP47" = -1   $ IP Tech: PkgAC1SpH-65to135-E10
 "CfmPerBtuh" = 0.02917   $ IP Tech: PkgAC1SpH-65to135-E10
 "ClCap_fT" = PSZ65to135_ClCap_fT   $ IP Tech: PkgAC1SpH-65to135-E10
 "ClSH_fT" = PSZ65to135_ClSH_fT   $ IP Tech: PkgAC1SpH-65to135-E10
 "CoilBF" = 0.114   $ IP Tech: PkgAC1SpH-65to135-E10
 "CondWPerBtuh" = 0   $ IP Tech: PkgAC1SpH-65to135-E10
 "CoolSensCap" = 0.663   $ IP Tech: PkgAC1SpH-65to135-E10
 "CoolingEIR" = 0.29745   $ IP Tech: PkgAC1SpH-65to135-E10
 "CrnkEIR" = 0.01   $ IP Tech: PkgAC1SpH-65to135-E10
 "CrnkMaxT" = 50   $ IP Tech: PkgAC1SpH-65to135-E10
 "DXType" = Pkg   $ IP Tech: PkgAC1SpH-65to135-E10
 "EER" = 9.67   $ IP Tech: PkgAC1SpH-65to135-E10
 "EIR_fT" = PSZ65to135_EIR_fT   $ IP Tech: PkgAC1SpH-65to135-E10
 "FanEirPlr" = TwoSpeedFan   $ IP Tech: PkgAC1SpH-65to135-E10
 "FanWPerCfm" = 0.412   $ IP Tech: PkgAC1SpH-65to135-E10
 "HIR_fT" = DEFAULT   $ IP Tech: PkgAC1SpH-65to135-E10
 "HtCap_fT" = DEFAULT   $ IP Tech: PkgAC1SpH-65to135-E10
 "HtCoolCapRatio" = -1   $ IP Tech: PkgAC1SpH-65to135-E10
 "HtgEIR" = -1   $ IP Tech: PkgAC1SpH-65to135-E10
 "HtgFuel" = Gas   $ IP Tech: PkgAC1SpH-65to135-E10
 "IEER" = 11.87   $ IP Tech: PkgAC1SpH-65to135-E10
 "LowSpdCapRatio" = 0.5   $ IP Tech: PkgAC1SpH-65to135-E10
 "LowSpdCfmRatio" = 0.66   $ IP Tech: PkgAC1SpH-65to135-E10
 "NominalCap" = 15   $ IP Tech: PkgAC1SpH-65to135-E10
 "NumStages" = 1   $ IP Tech: PkgAC1SpH-65to135-E10
 "RatedEER" = 10   $ IP Tech: PkgAC1SpH-65to135-E10
 "RatedSupMtrClass" = HiEff   $ IP Tech: PkgAC1SpH-65to135-E10
 "SizeRange" = 65to135   $ IP Tech: PkgAC1SpH-65to135-E10
 "SubType" = AC   $ IP Tech: PkgAC1SpH-65to135-E10
 "SupMotEff" = 0.84   $ IP Tech: PkgAC1SpH-65to135-E10
 "Tier" = 0   $ IP Tech: PkgAC1SpH-65to135-E10
 "TotCoolCap" = 184140   $ IP Tech: PkgAC1SpH-65to135-E10
 "FanPwrMult" = 1   $ IP Tech: PkgFurn-0.80AFUE
 "FurnAFUE" = 0.8   $ IP Tech: PkgFurn-0.80AFUE
 "FurnEt" = 0.82   $ IP Tech: PkgFurn-0.80AFUE
 "FurnaceAuxKW" = 0.1   $ IP Tech: PkgFurn-0.80AFUE
 "HIR_fPLR" = Furnace-HIR-fPLR   $ IP Tech: PkgFurn-0.80AFUE
 "VSM" = FALSE   $ IP Tech: PkgFurn-0.80AFUE
 "BFMult" = 1   $ IP Tech: RefgChg-NRes-Std
 "CoolEirMult" = 1   $ IP Tech: RefgChg-NRes-Std
 "SensCoolCapMult" = 1   $ IP Tech: RefgChg-NRes-Std
 "TotCoolCapMult" = 1   $ IP Tech: RefgChg-NRes-Std
 "AltAdjFactor" = 1.007532   $ Sizing
 "CAssFlo_L_Break_CZn" = 286.1114   $ Sizing
 "CAssFlo_L_CompDC_CZn" = 172.6438   $ Sizing
 "CAssFlo_L_Conf_CZn" = 214.6391   $ Sizing
 "CAssFlo_L_CopyRm_CZn" = 67.25054   $ Sizing
 "CAssFlo_L_Hall_EZn" = 134.2484   $ Sizing
 "CAssFlo_L_Hall_NZn" = 62.66471   $ Sizing
 "CAssFlo_L_Hall_SZn" = 153.31   $ Sizing
 "CAssFlo_L_Hall_WZn" = 135.9514   $ Sizing
 "CAssFlo_L_LobWait_EZn" = 321.0956   $ Sizing
 "CAssFlo_L_LobWait_NZn" = 132.0876   $ Sizing
 "CAssFlo_L_LobWait_SZn" = 357.4073   $ Sizing
 "CAssFlo_L_LobWait_WZn" = 315.4506   $ Sizing
 "CAssFlo_L_MechElec_CZn" = 65.93681   $ Sizing
 "CAssFlo_L_OfficeOpn_CZn" = 69.57209   $ Sizing
 "CAssFlo_L_OfficeOpn_EZn" = 626.0186   $ Sizing
 "CAssFlo_L_OfficeOpn_NZn" = 259.4149   $ Sizing
 "CAssFlo_L_OfficeOpn_SZn" = 640.8162   $ Sizing
 "CAssFlo_L_OfficeOpn_WZn" = 583.1934   $ Sizing
 "CAssFlo_L_OfficeSm_EZn" = 535.1497   $ Sizing
 "CAssFlo_L_OfficeSm_NZn" = 200.626   $ Sizing
 "CAssFlo_L_OfficeSm_SZn" = 570.0015   $ Sizing
 "CAssFlo_L_OfficeSm_WZn" = 514.8149   $ Sizing
 "CAssFlo_L_Restrm_CZn" = 86.07105   $ Sizing
 "CAssFlo_L_StorSm_CZn" = 31.19497   $ Sizing
 "CAssFlo_L_StorSm_EZn" = 129.3951   $ Sizing
 "CAssFlo_L_StorSm_NZn" = 71.4966   $ Sizing
 "CAssFlo_L_StorSm_SZn" = 142.0202   $ Sizing
 "CAssFlo_L_StorSm_WZn" = 124.6905   $ Sizing
 "CAssFlo_T_Conf_CZn" = 214.4668   $ Sizing
 "CAssFlo_T_Hall_EZn" = 153.1112   $ Sizing
 "CAssFlo_T_Hall_NZn" = 59.69593   $ Sizing
 "CAssFlo_T_Hall_SZn" = 177.7019   $ Sizing
 "CAssFlo_T_Hall_WZn" = 149.1203   $ Sizing
 "CAssFlo_T_OfficeOpn_CZn" = 60.62627   $ Sizing
 "CAssFlo_T_OfficeOpn_EZn" = 630.4852   $ Sizing
 "CAssFlo_T_OfficeOpn_NZn" = 284.3634   $ Sizing
 "CAssFlo_T_OfficeOpn_SZn" = 689.5073   $ Sizing
 "CAssFlo_T_OfficeOpn_WZn" = 583.6525   $ Sizing
 "CAssFlo_T_OfficeSm_EZn" = 548.1071   $ Sizing
 "CAssFlo_T_OfficeSm_NZn" = 223.5374   $ Sizing
 "CAssFlo_T_OfficeSm_SZn" = 618.5923   $ Sizing
 "CAssFlo_T_OfficeSm_WZn" = 528.2349   $ Sizing
 "CAssFlo_T_Restrm_CZn" = 91.09608   $ Sizing
 "CAssFlo_T_StorSm_EZn" = 148.32   $ Sizing
 "CAssFlo_T_StorSm_NZn" = 71.07026   $ Sizing
 "CAssFlo_T_StorSm_SZn" = 169.159   $ Sizing
 "CAssFlo_T_StorSm_WZn" = 145.1104   $ Sizing
 "CHRtFlo_Sys_L_Break_C" = 286.1114   $ Sizing
 "CHRtFlo_Sys_L_CompDC_C" = 172.6438   $ Sizing
 "CHRtFlo_Sys_L_Conf_C" = 214.6391   $ Sizing
 "CHRtFlo_Sys_L_CopyRm_C" = 67.25054   $ Sizing
 "CHRtFlo_Sys_L_Hall_E" = 134.2484   $ Sizing
 "CHRtFlo_Sys_L_Hall_N" = 62.66471   $ Sizing
 "CHRtFlo_Sys_L_Hall_S" = 153.31   $ Sizing
 "CHRtFlo_Sys_L_Hall_W" = 135.9514   $ Sizing
 "CHRtFlo_Sys_L_LobWait_E" = 321.0956   $ Sizing
 "CHRtFlo_Sys_L_LobWait_N" = 132.0876   $ Sizing
 "CHRtFlo_Sys_L_LobWait_S" = 357.4073   $ Sizing
 "CHRtFlo_Sys_L_LobWait_W" = 315.4506   $ Sizing
 "CHRtFlo_Sys_L_MechElec_C" = 65.93681   $ Sizing
 "CHRtFlo_Sys_L_OfficeOpn_C" = 69.57209   $ Sizing
 "CHRtFlo_Sys_L_OfficeOpn_E" = 626.0186   $ Sizing
 "CHRtFlo_Sys_L_OfficeOpn_N" = 259.4149   $ Sizing
 "CHRtFlo_Sys_L_OfficeOpn_S" = 640.8162   $ Sizing
 "CHRtFlo_Sys_L_OfficeOpn_W" = 583.1934   $ Sizing
 "CHRtFlo_Sys_L_OfficeSm_E" = 535.1497   $ Sizing
 "CHRtFlo_Sys_L_OfficeSm_N" = 200.626   $ Sizing
 "CHRtFlo_Sys_L_OfficeSm_S" = 570.0015   $ Sizing
 "CHRtFlo_Sys_L_OfficeSm_W" = 514.8149   $ Sizing
 "CHRtFlo_Sys_L_Restrm_C" = 86.07105   $ Sizing
 "CHRtFlo_Sys_L_StorSm_C" = 31.19497   $ Sizing
 "CHRtFlo_Sys_L_StorSm_E" = 129.3951   $ Sizing
 "CHRtFlo_Sys_L_StorSm_N" = 71.4966   $ Sizing
 "CHRtFlo_Sys_L_StorSm_S" = 142.0202   $ Sizing
 "CHRtFlo_Sys_L_StorSm_W" = 124.6905   $ Sizing
 "CHRtFlo_Sys_T_Conf_C" = 214.4668   $ Sizing
 "CHRtFlo_Sys_T_Hall_E" = 153.1112   $ Sizing
 "CHRtFlo_Sys_T_Hall_N" = 59.69593   $ Sizing
 "CHRtFlo_Sys_T_Hall_S" = 177.7019   $ Sizing
 "CHRtFlo_Sys_T_Hall_W" = 149.1203   $ Sizing
 "CHRtFlo_Sys_T_OfficeOpn_C" = 60.62627   $ Sizing
 "CHRtFlo_Sys_T_OfficeOpn_E" = 630.4852   $ Sizing
 "CHRtFlo_Sys_T_OfficeOpn_N" = 284.3634   $ Sizing
 "CHRtFlo_Sys_T_OfficeOpn_S" = 689.5073   $ Sizing
 "CHRtFlo_Sys_T_OfficeOpn_W" = 583.6525   $ Sizing
 "CHRtFlo_Sys_T_OfficeSm_E" = 548.1071   $ Sizing
 "CHRtFlo_Sys_T_OfficeSm_N" = 223.5374   $ Sizing
 "CHRtFlo_Sys_T_OfficeSm_S" = 618.5923   $ Sizing
 "CHRtFlo_Sys_T_OfficeSm_W" = 528.2349   $ Sizing
 "CHRtFlo_Sys_T_Restrm_C" = 91.09608   $ Sizing
 "CHRtFlo_Sys_T_StorSm_E" = 148.32   $ Sizing
 "CHRtFlo_Sys_T_StorSm_N" = 71.07026   $ Sizing
 "CHRtFlo_Sys_T_StorSm_S" = 169.159   $ Sizing
 "CHRtFlo_Sys_T_StorSm_W" = 145.1104   $ Sizing
 "CRtdFlo_Sys_L_Break_C" = 286.1114   $ Sizing
 "CRtdFlo_Sys_L_CompDC_C" = 172.6438   $ Sizing
 "CRtdFlo_Sys_L_Conf_C" = 214.6391   $ Sizing
 "CRtdFlo_Sys_L_CopyRm_C" = 67.25054   $ Sizing
 "CRtdFlo_Sys_L_Hall_E" = 134.2484   $ Sizing
 "CRtdFlo_Sys_L_Hall_N" = 62.6647   $ Sizing
 "CRtdFlo_Sys_L_Hall_S" = 153.31   $ Sizing
 "CRtdFlo_Sys_L_Hall_W" = 135.9514   $ Sizing
 "CRtdFlo_Sys_L_LobWait_E" = 321.0956   $ Sizing
 "CRtdFlo_Sys_L_LobWait_N" = 132.0876   $ Sizing
 "CRtdFlo_Sys_L_LobWait_S" = 357.4073   $ Sizing
 "CRtdFlo_Sys_L_LobWait_W" = 315.4506   $ Sizing
 "CRtdFlo_Sys_L_MechElec_C" = 65.93681   $ Sizing
 "CRtdFlo_Sys_L_OfficeOpn_C" = 69.57209   $ Sizing
 "CRtdFlo_Sys_L_OfficeOpn_E" = 626.0186   $ Sizing
 "CRtdFlo_Sys_L_OfficeOpn_N" = 259.4149   $ Sizing
 "CRtdFlo_Sys_L_OfficeOpn_S" = 640.8162   $ Sizing
 "CRtdFlo_Sys_L_OfficeOpn_W" = 583.1934   $ Sizing
 "CRtdFlo_Sys_L_OfficeSm_E" = 535.1497   $ Sizing
 "CRtdFlo_Sys_L_OfficeSm_N" = 200.626   $ Sizing
 "CRtdFlo_Sys_L_OfficeSm_S" = 570.0015   $ Sizing
 "CRtdFlo_Sys_L_OfficeSm_W" = 514.8149   $ Sizing
 "CRtdFlo_Sys_L_Restrm_C" = 86.07105   $ Sizing
 "CRtdFlo_Sys_L_StorSm_C" = 31.19497   $ Sizing
 "CRtdFlo_Sys_L_StorSm_E" = 129.3951   $ Sizing
 "CRtdFlo_Sys_L_StorSm_N" = 71.4966   $ Sizing
 "CRtdFlo_Sys_L_StorSm_S" = 142.0202   $ Sizing
 "CRtdFlo_Sys_L_StorSm_W" = 124.6905   $ Sizing
 "CRtdFlo_Sys_T_Conf_C" = 214.4668   $ Sizing
 "CRtdFlo_Sys_T_Hall_E" = 153.1112   $ Sizing
 "CRtdFlo_Sys_T_Hall_N" = 59.69593   $ Sizing
 "CRtdFlo_Sys_T_Hall_S" = 177.7019   $ Sizing
 "CRtdFlo_Sys_T_Hall_W" = 149.1203   $ Sizing
 "CRtdFlo_Sys_T_OfficeOpn_C" = 60.62627   $ Sizing
 "CRtdFlo_Sys_T_OfficeOpn_E" = 630.4852   $ Sizing
 "CRtdFlo_Sys_T_OfficeOpn_N" = 284.3634   $ Sizing
 "CRtdFlo_Sys_T_OfficeOpn_S" = 689.5073   $ Sizing
 "CRtdFlo_Sys_T_OfficeOpn_W" = 583.6525   $ Sizing
 "CRtdFlo_Sys_T_OfficeSm_E" = 548.1071   $ Sizing
 "CRtdFlo_Sys_T_OfficeSm_N" = 223.5374   $ Sizing
 "CRtdFlo_Sys_T_OfficeSm_S" = 618.5923   $ Sizing
 "CRtdFlo_Sys_T_OfficeSm_W" = 528.2349   $ Sizing
 "CRtdFlo_Sys_T_Restrm_C" = 91.09608   $ Sizing
 "CRtdFlo_Sys_T_StorSm_E" = 148.32   $ Sizing
 "CRtdFlo_Sys_T_StorSm_N" = 71.07026   $ Sizing
 "CRtdFlo_Sys_T_StorSm_S" = 169.159   $ Sizing
 "CRtdFlo_Sys_T_StorSm_W" = 145.1104   $ Sizing
 "CSupFlo_Sys_L_Break_C" = 286.1114   $ Sizing
 "CSupFlo_Sys_L_CompDC_C" = 172.6438   $ Sizing
 "CSupFlo_Sys_L_Conf_C" = 214.6391   $ Sizing
 "CSupFlo_Sys_L_CopyRm_C" = 67.25054   $ Sizing
 "CSupFlo_Sys_L_Hall_E" = 134.2484   $ Sizing
 "CSupFlo_Sys_L_Hall_N" = 62.66471   $ Sizing
 "CSupFlo_Sys_L_Hall_S" = 153.31   $ Sizing
 "CSupFlo_Sys_L_Hall_W" = 135.9514   $ Sizing
 "CSupFlo_Sys_L_LobWait_E" = 321.0956   $ Sizing
 "CSupFlo_Sys_L_LobWait_N" = 132.0876   $ Sizing
 "CSupFlo_Sys_L_LobWait_S" = 357.4073   $ Sizing
 "CSupFlo_Sys_L_LobWait_W" = 315.4506   $ Sizing
 "CSupFlo_Sys_L_MechElec_C" = 65.93681   $ Sizing
 "CSupFlo_Sys_L_OfficeOpn_C" = 69.57209   $ Sizing
 "CSupFlo_Sys_L_OfficeOpn_E" = 626.0186   $ Sizing
 "CSupFlo_Sys_L_OfficeOpn_N" = 259.4149   $ Sizing
 "CSupFlo_Sys_L_OfficeOpn_S" = 640.8162   $ Sizing
 "CSupFlo_Sys_L_OfficeOpn_W" = 583.1934   $ Sizing
 "CSupFlo_Sys_L_OfficeSm_E" = 535.1497   $ Sizing
 "CSupFlo_Sys_L_OfficeSm_N" = 200.626   $ Sizing
 "CSupFlo_Sys_L_OfficeSm_S" = 570.0015   $ Sizing
 "CSupFlo_Sys_L_OfficeSm_W" = 514.8149   $ Sizing
 "CSupFlo_Sys_L_Restrm_C" = 86.07105   $ Sizing
 "CSupFlo_Sys_L_StorSm_C" = 31.19497   $ Sizing
 "CSupFlo_Sys_L_StorSm_E" = 129.3951   $ Sizing
 "CSupFlo_Sys_L_StorSm_N" = 71.4966   $ Sizing
 "CSupFlo_Sys_L_StorSm_S" = 142.0202   $ Sizing
 "CSupFlo_Sys_L_StorSm_W" = 124.6905   $ Sizing
 "CSupFlo_Sys_T_Conf_C" = 214.4668   $ Sizing
 "CSupFlo_Sys_T_Hall_E" = 153.1112   $ Sizing
 "CSupFlo_Sys_T_Hall_N" = 59.69593   $ Sizing
 "CSupFlo_Sys_T_Hall_S" = 177.7019   $ Sizing
 "CSupFlo_Sys_T_Hall_W" = 149.1203   $ Sizing
 "CSupFlo_Sys_T_OfficeOpn_C" = 60.62627   $ Sizing
 "CSupFlo_Sys_T_OfficeOpn_E" = 630.4852   $ Sizing
 "CSupFlo_Sys_T_OfficeOpn_N" = 284.3634   $ Sizing
 "CSupFlo_Sys_T_OfficeOpn_S" = 689.5073   $ Sizing
 "CSupFlo_Sys_T_OfficeOpn_W" = 583.6525   $ Sizing
 "CSupFlo_Sys_T_OfficeSm_E" = 548.1071   $ Sizing
 "CSupFlo_Sys_T_OfficeSm_N" = 223.5374   $ Sizing
 "CSupFlo_Sys_T_OfficeSm_S" = 618.5923   $ Sizing
 "CSupFlo_Sys_T_OfficeSm_W" = 528.2349   $ Sizing
 "CSupFlo_Sys_T_Restrm_C" = 91.09608   $ Sizing
 "CSupFlo_Sys_T_StorSm_E" = 148.32   $ Sizing
 "CSupFlo_Sys_T_StorSm_N" = 71.07026   $ Sizing
 "CSupFlo_Sys_T_StorSm_S" = 169.159   $ Sizing
 "CSupFlo_Sys_T_StorSm_W" = 145.1104   $ Sizing
 "ClCap_Sys_L_Break_C" = 9736.198   $ Sizing
 "ClCap_Sys_L_CompDC_C" = 5874.964   $ Sizing
 "ClCap_Sys_L_Conf_C" = 9296.051   $ Sizing
 "ClCap_Sys_L_CopyRm_C" = 2288.496   $ Sizing
 "ClCap_Sys_L_Hall_E" = 4568.393   $ Sizing
 "ClCap_Sys_L_Hall_N" = 2132.442   $ Sizing
 "ClCap_Sys_L_Hall_S" = 5217.048   $ Sizing
 "ClCap_Sys_L_Hall_W" = 4626.344   $ Sizing
 "ClCap_Sys_L_LobWait_E" = 10926.69   $ Sizing
 "ClCap_Sys_L_LobWait_N" = 4494.863   $ Sizing
 "ClCap_Sys_L_LobWait_S" = 12162.36   $ Sizing
 "ClCap_Sys_L_LobWait_W" = 10734.59   $ Sizing
 "ClCap_Sys_L_MechElec_C" = 2243.79   $ Sizing
 "ClCap_Sys_L_OfficeOpn_C" = 2367.497   $ Sizing
 "ClCap_Sys_L_OfficeOpn_E" = 21303.04   $ Sizing
 "ClCap_Sys_L_OfficeOpn_N" = 8827.732   $ Sizing
 "ClCap_Sys_L_OfficeOpn_S" = 21806.59   $ Sizing
 "ClCap_Sys_L_OfficeOpn_W" = 19845.72   $ Sizing
 "ClCap_Sys_L_OfficeSm_E" = 18210.82   $ Sizing
 "ClCap_Sys_L_OfficeSm_N" = 6827.184   $ Sizing
 "ClCap_Sys_L_OfficeSm_S" = 19396.81   $ Sizing
 "ClCap_Sys_L_OfficeSm_W" = 17518.84   $ Sizing
 "ClCap_Sys_L_Restrm_C" = 2928.947   $ Sizing
 "ClCap_Sys_L_StorSm_C" = 1061.546   $ Sizing
 "ClCap_Sys_L_StorSm_E" = 4403.236   $ Sizing
 "ClCap_Sys_L_StorSm_N" = 2432.987   $ Sizing
 "ClCap_Sys_L_StorSm_S" = 4832.863   $ Sizing
 "ClCap_Sys_L_StorSm_W" = 4243.142   $ Sizing
 "ClCap_Sys_T_Conf_C" = 9288.588   $ Sizing
 "ClCap_Sys_T_Hall_E" = 5210.284   $ Sizing
 "ClCap_Sys_T_Hall_N" = 2031.417   $ Sizing
 "ClCap_Sys_T_Hall_S" = 6047.09   $ Sizing
 "ClCap_Sys_T_Hall_W" = 5074.473   $ Sizing
 "ClCap_Sys_T_OfficeOpn_C" = 2063.076   $ Sizing
 "ClCap_Sys_T_OfficeOpn_E" = 21455.04   $ Sizing
 "ClCap_Sys_T_OfficeOpn_N" = 9676.717   $ Sizing
 "ClCap_Sys_T_OfficeOpn_S" = 23463.52   $ Sizing
 "ClCap_Sys_T_OfficeOpn_W" = 19861.35   $ Sizing
 "ClCap_Sys_T_OfficeSm_E" = 18651.76   $ Sizing
 "ClCap_Sys_T_OfficeSm_N" = 7606.844   $ Sizing
 "ClCap_Sys_T_OfficeSm_S" = 21050.33   $ Sizing
 "ClCap_Sys_T_OfficeSm_W" = 17975.52   $ Sizing
 "ClCap_Sys_T_Restrm_C" = 3099.945   $ Sizing
 "ClCap_Sys_T_StorSm_E" = 5047.241   $ Sizing
 "ClCap_Sys_T_StorSm_N" = 2418.478   $ Sizing
 "ClCap_Sys_T_StorSm_S" = 5756.379   $ Sizing
 "ClCap_Sys_T_StorSm_W" = 4938.019   $ Sizing
 "HtCap_Sys_L_Break_C" = -16639.77   $ Sizing
 "HtCap_Sys_L_CompDC_C" = -8414.296   $ Sizing
 "HtCap_Sys_L_Conf_C" = -12794.5   $ Sizing
 "HtCap_Sys_L_CopyRm_C" = -4255.167   $ Sizing
 "HtCap_Sys_L_Hall_E" = -4737.505   $ Sizing
 "HtCap_Sys_L_Hall_N" = -2374.095   $ Sizing
 "HtCap_Sys_L_Hall_S" = -5098.348   $ Sizing
 "HtCap_Sys_L_Hall_W" = -4666.184   $ Sizing
 "HtCap_Sys_L_LobWait_E" = -11722.72   $ Sizing
 "HtCap_Sys_L_LobWait_N" = -6053.903   $ Sizing
 "HtCap_Sys_L_LobWait_S" = -12748.96   $ Sizing
 "HtCap_Sys_L_LobWait_W" = -11602.84   $ Sizing
 "HtCap_Sys_L_MechElec_C" = -2985.125   $ Sizing
 "HtCap_Sys_L_OfficeOpn_C" = -2694.984   $ Sizing
 "HtCap_Sys_L_OfficeOpn_E" = -21505.21   $ Sizing
 "HtCap_Sys_L_OfficeOpn_N" = -11011.56   $ Sizing
 "HtCap_Sys_L_OfficeOpn_S" = -21417.13   $ Sizing
 "HtCap_Sys_L_OfficeOpn_W" = -20517.86   $ Sizing
 "HtCap_Sys_L_OfficeSm_E" = -18262.34   $ Sizing
 "HtCap_Sys_L_OfficeSm_N" = -8273.487   $ Sizing
 "HtCap_Sys_L_OfficeSm_S" = -18504.17   $ Sizing
 "HtCap_Sys_L_OfficeSm_W" = -17427.75   $ Sizing
 "HtCap_Sys_L_Restrm_C" = -3005.804   $ Sizing
 "HtCap_Sys_L_StorSm_C" = -1314.663   $ Sizing
 "HtCap_Sys_L_StorSm_E" = -4703.31   $ Sizing
 "HtCap_Sys_L_StorSm_N" = -2977.113   $ Sizing
 "HtCap_Sys_L_StorSm_S" = -4934.06   $ Sizing
 "HtCap_Sys_L_StorSm_W" = -4593.953   $ Sizing
 "HtCap_Sys_T_Conf_C" = -12993.89   $ Sizing
 "HtCap_Sys_T_Hall_E" = -5778.855   $ Sizing
 "HtCap_Sys_T_Hall_N" = -2618.844   $ Sizing
 "HtCap_Sys_T_Hall_S" = -6555.382   $ Sizing
 "HtCap_Sys_T_Hall_W" = -5651.103   $ Sizing
 "HtCap_Sys_T_OfficeOpn_C" = -2656.72   $ Sizing
 "HtCap_Sys_T_OfficeOpn_E" = -24223.2   $ Sizing
 "HtCap_Sys_T_OfficeOpn_N" = -12681.88   $ Sizing
 "HtCap_Sys_T_OfficeOpn_S" = -25591.95   $ Sizing
 "HtCap_Sys_T_OfficeOpn_W" = -22707.68   $ Sizing
 "HtCap_Sys_T_OfficeSm_E" = -20567.72   $ Sizing
 "HtCap_Sys_T_OfficeSm_N" = -9815.71   $ Sizing
 "HtCap_Sys_T_OfficeSm_S" = -22310.92   $ Sizing
 "HtCap_Sys_T_OfficeSm_W" = -19927.22   $ Sizing
 "HtCap_Sys_T_Restrm_C" = -3615.075   $ Sizing
 "HtCap_Sys_T_StorSm_E" = -6066.919   $ Sizing
 "HtCap_Sys_T_StorSm_N" = -3414.597   $ Sizing
 "HtCap_Sys_T_StorSm_S" = -6373.148   $ Sizing
 "HtCap_Sys_T_StorSm_W" = -5951.042   $ Sizing
..

##include Templates\OfS_DX_SZ.inp
END ..
COMPUTE ..
STOP ..
