
Start DOESIM : Storage capacity =  75000000
Starting LOADS   : SAVE-FILES is On , weather is CZ10RIVERSIDE-MUNI  
Finished LOADS    BDL  1 : Memory (wds) =    279142, Time (sec) =    1.95
Starting REPORT  
Finished REPORT   BDL  1 : Memory (wds) =    548621, Time (sec) =    0.60
Starting HVAC    : SAVE-FILES is On , weather is CZ10RIVERSIDE-MUNI  
*** ERRORS or WARNINGS from HVAC     program. Examine output file for details.
Finished HVAC     BDL  1 : Memory (wds) =    483248, Time (sec) =    6.18
Starting REPORT  
Finished REPORT   BDL  1 : Memory (wds) =    850319, Time (sec) =    0.59
Starting HOURLY-R
Finished HOURLY-R BDL  1 : Memory (wds) =   1086482, Time (sec) =    0.13
Starting ECONOMIC
Finished ECONOMIC BDL  1 : Memory (wds) =      1034, Time (sec) =    0.04
End   DOESIM : Total elapsed time of      9.5 seconds
RUN COMPLETE
