INPUT ..

##fileprefix C:\Users\jglasskatz\MASControl3\
##set1 IsSizing FALSE
##set1 CoolType WLHP
##set1 HeatType HEAT-PUMP
##set1 EU_HrRepVar 1
##set1 BldgVint 2020
##set1 BldgLoc CZ01

 ##set1 mHW_FlowCtrl Const   $ IP Tech: HwFlowCtrlCst
 ##set1 mBlrIsCond FALSE   $ IP Tech: WBlr-lt300-82p0AF
 ##set1 mWLHP_FlowCtrl VSD   $ IP Tech: WlhpFlowCtrlVar

PARAMETER
 "AltFactor" = 1.00753   $ IP Non-Tech
 "BldgEconoFlag" = 1   $ IP Non-Tech
 "BlrPrimLp" = WLHPCircLoop   $ IP Non-Tech
 "Break_EWSF" = 1   $ IP Non-Tech
 "Break_LWSF" = 0.65   $ IP Non-Tech
 "CDD_DBHi10" = 65   $ IP Non-Tech
 "CDD_DBHi7" = 68   $ IP Non-Tech
 "CDD_DBHi8" = 66   $ IP Non-Tech
 "CDD_DBHi9" = 77   $ IP Non-Tech
 "CDD_DBRange10" = 17   $ IP Non-Tech
 "CDD_DBRange7" = 11   $ IP Non-Tech
 "CDD_DBRange8" = 10   $ IP Non-Tech
 "CDD_DBRange9" = 29   $ IP Non-Tech
 "CDD_Day10" = 15   $ IP Non-Tech
 "CDD_Day7" = 16   $ IP Non-Tech
 "CDD_Day8" = 20   $ IP Non-Tech
 "CDD_Day9" = 17   $ IP Non-Tech
 "CDD_HrHi10" = 12   $ IP Non-Tech
 "CDD_HrHi7" = 12   $ IP Non-Tech
 "CDD_HrHi8" = 13   $ IP Non-Tech
 "CDD_HrHi9" = 17   $ IP Non-Tech
 "CDD_HrLo10" = 6   $ IP Non-Tech
 "CDD_HrLo7" = 3   $ IP Non-Tech
 "CDD_HrLo8" = 8   $ IP Non-Tech
 "CDD_HrLo9" = 4   $ IP Non-Tech
 "CDD_WB10" = 57.53039551   $ IP Non-Tech
 "CDD_WB7" = 59.29250717   $ IP Non-Tech
 "CDD_WB8" = 60.75350189   $ IP Non-Tech
 "CDD_WB9" = 61.08643341   $ IP Non-Tech
 "CZ_Category" = Tem   $ IP Non-Tech
 "ChwVintEconoFlag" = 1   $ IP Non-Tech
 "CompRoomData_EWSF" = 5   $ IP Non-Tech
 "CompRoomData_LWSF" = 0.8   $ IP Non-Tech
 "Conference_EWSF" = 1   $ IP Non-Tech
 "Conference_LWSF" = 0.85   $ IP Non-Tech
 "CoolSetT" = 45   $ IP Non-Tech
 "CoolType" = WLHP   $ IP Non-Tech
 "CopyRoom_EWSF" = 1.5   $ IP Non-Tech
 "CopyRoom_LWSF" = 0.5   $ IP Non-Tech
 "CwPipeHead" = 40   $ IP Non-Tech
 "DesCoolT" = 75   $ IP Non-Tech
 "DesHeatT" = 73   $ IP Non-Tech
 "EconoEnthLimit" = 28   $ IP Non-Tech
 "EconoTempLimit" = 70   $ IP Non-Tech
 "Elevation" = 203   $ IP Non-Tech
 "HDD_CloudAmt1" = 0   $ IP Non-Tech
 "HDD_DBHi1" = 53   $ IP Non-Tech
 "HDD_DBRange1" = 20   $ IP Non-Tech
 "HDD_Day1" = 15   $ IP Non-Tech
 "HDD_HrHi1" = 14   $ IP Non-Tech
 "HDD_HrLo1" = 6   $ IP Non-Tech
 "HDD_WB1" = 42.3   $ IP Non-Tech
 "HDD_WindSpd1" = 12.7   $ IP Non-Tech
 "Hall_EWSF" = 0.2   $ IP Non-Tech
 "Hall_LWSF" = 0.55   $ IP Non-Tech
 "HeatSrc" = HEAT-PUMP   $ IP Non-Tech
 "HeatSrcTU" = HEAT-PUMP   $ IP Non-Tech
 "HeatType" = WLHP   $ IP Non-Tech
 "HeatTypeTU" = HEAT-PUMP   $ IP Non-Tech
 "IndoorFanMode" = CONTINUOUS   $ IP Non-Tech
 "KT_TransferAir" = Yes   $ IP Non-Tech
 "Latitude" = 40.8   $ IP Non-Tech
 "LobbyWaiting_EWSF" = 0.5   $ IP Non-Tech
 "LobbyWaiting_LWSF" = 0.75   $ IP Non-Tech
 "Longitude" = 124.2   $ IP Non-Tech
 "LtgMsrApplic" = ALL   $ Msr TechID: NonResLtgRefMsr-HB
 "LtgSav_CFL" = 0   $ Msr TechID: NonResLtgRefMsr-HB
 "LtgSav_EX" = 0   $ Msr TechID: NonResLtgRefMsr-HB
 "LtgSav_HB" = 0.3   $ Msr TechID: NonResLtgRefMsr-HB
 "LtgSav_LF" = 0   $ Msr TechID: NonResLtgRefMsr-HB
 "LtgSav_SP" = 0   $ Msr TechID: NonResLtgRefMsr-HB
 "MZFanMechEff" = 0.54   $ IP Non-Tech
 "MZHasRetFan" = FALSE   $ IP Non-Tech
 "MZ_RFanWPerCfm" = 0.33   $ IP Non-Tech
 "MZ_SFanWPerCfm" = 0.75   $ IP Non-Tech
 "MZ_SupFanStatic" = 0.75   $ IP Non-Tech
 "MaxSupT_MZ" = 90   $ IP Non-Tech
 "MaxSupT_SZ" = 90   $ IP Non-Tech
 "MaxSupT_TU" = 90   $ IP Non-Tech
 "MechElecRoom_EWSF" = 0.2   $ IP Non-Tech
 "MechElecRoom_LWSF" = 0.4   $ IP Non-Tech
 "MinCfmPerSF" = 0.4   $ IP Non-Tech
 "MinSupT" = 55   $ IP Non-Tech
 "NumBlrs" = 1   $ IP Non-Tech
 "OccCoolT" = 76   $ IP Non-Tech
 "OccHeatT" = 72   $ IP Non-Tech
 "OfficeOpen_EWSF" = 1.5   $ IP Non-Tech
 "OfficeOpen_LWSF" = 0.8   $ IP Non-Tech
 "OfficeSmall_EWSF" = 1.5   $ IP Non-Tech
 "OfficeSmall_LWSF" = 0.9   $ IP Non-Tech
 "PkgDxVintEconoFlag" = 1   $ IP Non-Tech
 "Restroom_EWSF" = 0.2   $ IP Non-Tech
 "Restroom_LWSF" = 0.65   $ IP Non-Tech
 "SZFanMechEff" = 0.54   $ IP Non-Tech
 "SZHasRetFan" = FALSE   $ IP Non-Tech
 "SZ_Is_2Spd" = TRUE   $ IP Non-Tech
 "SZ_SFanWPerCfm" = 0.46   $ IP Non-Tech
 "SZ_SupFanStatic" = 0.75   $ IP Non-Tech
 "StorageSmlCond_EWSF" = 0.2   $ IP Non-Tech
 "StorageSmlCond_LWSF" = 0.45   $ IP Non-Tech
 "TermUnitFanMechEff" = 1   $ IP Non-Tech
 "TermUnitFanMode" = INTERMITTENT   $ IP Non-Tech
 "TermUnitFanWPerCfm" = 0.175   $ IP Non-Tech
 "TwrEIR" = 0.0286   $ IP Non-Tech
 "TwrPipeHead" = 15   $ IP Non-Tech
 "TwrSetpt" = 80   $ IP Non-Tech
 "TwrStaticHead" = 0   $ IP Non-Tech
 "UnocCoolT" = 86   $ IP Non-Tech
 "UnocHeatT" = 62   $ IP Non-Tech
 "WLHPLoopHeatSetpt" = 65   $ IP Non-Tech
 "WlhpVintEconoFlag" = 1   $ IP Non-Tech
 "EconoCtrl" = OA-TEMP   $ IP Tech: AirEcono-OAT-ByVint
 "MaxOAFrac" = 0.85   $ IP Tech: AirEcono-OAT-ByVint
 "UseEconoVintApplic" = TRUE   $ IP Tech: AirEcono-OAT-ByVint
 "DuctDT" = 1   $ IP Tech: ComDuctInsul-1
 "DuctAirLoss" = 0   $ IP Tech: ComDuctLeak-0
 "DuctLossOAFrac" = 0   $ IP Tech: ComDuctLeak-0
 "ComRoofInsCalc" = FromUo   $ IP Tech: ComRoofIns-WFrm-0.03
 "ComRoofInsR" = -999   $ IP Tech: ComRoofIns-WFrm-0.03
 "ComRoofUo" = 0.03   $ IP Tech: ComRoofIns-WFrm-0.03
 "ComEWInsCalc" = FromUo   $ IP Tech: ComWallIns-WFrm-0.08
 "ComEWInsR" = -999   $ IP Tech: ComWallIns-WFrm-0.08
 "ComEWUo" = 0.08   $ IP Tech: ComWallIns-WFrm-0.08
 "HW_FlowCtrl" = Const   $ IP Tech: HwFlowCtrlCst
 "HW_HdSensLoc" = AT-COILS   $ IP Tech: HwFlowCtrlCst
 "HW_HdSptCtrl" = FIXED   $ IP Tech: HwFlowCtrlCst
 "HWP_Encl" = Any   $ IP Tech: HwPumpMtrEff-PR
 "HWP_MotClass" = PREMIUM   $ IP Tech: HwPumpMtrEff-PR
 "HWP_MotHP" = Any   $ IP Tech: HwPumpMtrEff-PR
 "HWP_NEMA_DC" = Any   $ IP Tech: HwPumpMtrEff-PR
 "HWP_RPM" = Any   $ IP Tech: HwPumpMtrEff-PR
 "HWP_Volt" = Any   $ IP Tech: HwPumpMtrEff-PR
 "ComN_SHGC" = 0.25   $ IP Tech: NResWin-ComN-0.36-0.25
 "ComN_UFactor" = 0.36   $ IP Tech: NResWin-ComN-0.36-0.25
 "ComN_VisTrans" = 0.41   $ IP Tech: NResWin-ComN-0.36-0.25
 "ComN_WinCode" = G2668   $ IP Tech: NResWin-ComN-0.36-0.25
 "ComN_WinFrmFrac" = 0.17   $ IP Tech: NResWin-ComN-0.36-0.25
 "ComN_WinFrmU" = 0.3   $ IP Tech: NResWin-ComN-0.36-0.25
 "ComO_SHGC" = 0.25   $ IP Tech: NResWin-ComO-0.36-0.25
 "ComO_UFactor" = 0.36   $ IP Tech: NResWin-ComO-0.36-0.25
 "ComO_VisTrans" = 0.41   $ IP Tech: NResWin-ComO-0.36-0.25
 "ComO_WinCode" = G2668   $ IP Tech: NResWin-ComO-0.36-0.25
 "ComO_WinFrmFrac" = 0.17   $ IP Tech: NResWin-ComO-0.36-0.25
 "ComO_WinFrmU" = 0.3   $ IP Tech: NResWin-ComO-0.36-0.25
 "TwrFanCtrl" = TWO-SPEED-FAN   $ IP Tech: TwrFanCtrl-2sp
 "TFan_Encl" = Any   $ IP Tech: TwrFanMtrEff-PR
 "TFan_MotClass" = PREMIUM   $ IP Tech: TwrFanMtrEff-PR
 "TFan_MotHP" = Any   $ IP Tech: TwrFanMtrEff-PR
 "TFan_NEMA_DC" = Any   $ IP Tech: TwrFanMtrEff-PR
 "TFan_RPM" = Any   $ IP Tech: TwrFanMtrEff-PR
 "TFan_Volt" = Any   $ IP Tech: TwrFanMtrEff-PR
 "BlrCapRange" = lt300   $ IP Tech: WBlr-lt300-82p0AF
 "BlrDraftType" = FDr   $ IP Tech: WBlr-lt300-82p0AF
 "BlrEff" = 0.82   $ IP Tech: WBlr-lt300-82p0AF
 "BlrEffUnits" = AFUE   $ IP Tech: WBlr-lt300-82p0AF
 "BlrEt" = 0.823   $ IP Tech: WBlr-lt300-82p0AF
 "BlrFluid" = Wtr   $ IP Tech: WBlr-lt300-82p0AF
 "BlrIsCond" = FALSE   $ IP Tech: WBlr-lt300-82p0AF
 "BlrT" = 165   $ IP Tech: WBlr-lt300-82p0AF
 "COP47" = 4.813   $ IP Tech: WLHP2SpP-ge17-E12-C4.2
 "CfmPerBtuh" = 0.033333333   $ IP Tech: WLHP2SpP-ge17-E12-C4.2
 "CoilBF" = 0.15   $ IP Tech: WLHP2SpP-ge17-E12-C4.2
 "CoolingEIR" = 0.23327   $ IP Tech: WLHP2SpP-ge17-E12-C4.2
 "DXType" = WLHP   $ IP Tech: WLHP2SpP-ge17-E12-C4.2
 "EER" = 12   $ IP Tech: WLHP2SpP-ge17-E12-C4.2
 "FanWPerCfm" = 0.35   $ IP Tech: WLHP2SpP-ge17-E12-C4.2
 "HtCoolCapRatio" = 0.88   $ IP Tech: WLHP2SpP-ge17-E12-C4.2
 "HtgEIR" = 0.20776   $ IP Tech: WLHP2SpP-ge17-E12-C4.2
 "NumStages" = 2   $ IP Tech: WLHP2SpP-ge17-E12-C4.2
 "RatedSupMtrClass" = Premium   $ IP Tech: WLHP2SpP-ge17-E12-C4.2
 "SubType" = 2SpP   $ IP Tech: WLHP2SpP-ge17-E12-C4.2
 "UnitCOP" = 4.2   $ IP Tech: WLHP2SpP-ge17-E12-C4.2
 "WLHP_FlowCtrl" = VSD   $ IP Tech: WlhpFlowCtrlVar
 "WLHP_HdSensLoc" = AT-COILS   $ IP Tech: WlhpFlowCtrlVar
 "WLHP_HdSptCtrl" = FIXED   $ IP Tech: WlhpFlowCtrlVar
 "WLHP_Encl" = Any   $ IP Tech: WlhpPumpMtrEff-PR
 "WLHP_MotClass" = PREMIUM   $ IP Tech: WlhpPumpMtrEff-PR
 "WLHP_MotHP" = Any   $ IP Tech: WlhpPumpMtrEff-PR
 "WLHP_NEMA_DC" = Any   $ IP Tech: WlhpPumpMtrEff-PR
 "WLHP_RPM" = Any   $ IP Tech: WlhpPumpMtrEff-PR
 "WLHP_Volt" = Any   $ IP Tech: WlhpPumpMtrEff-PR
 "AltAdjFactor" = 1.007532   $ Sizing
 "CAssFlo_L_Break_CZn" = 265.0845   $ Sizing
 "CAssFlo_L_CompDC_CZn" = 156.0536   $ Sizing
 "CAssFlo_L_Conf_CZn" = 192.8435   $ Sizing
 "CAssFlo_L_CopyRm_CZn" = 50.72986   $ Sizing
 "CAssFlo_L_Hall_EZn" = 80.5255   $ Sizing
 "CAssFlo_L_Hall_NZn" = 76.36014   $ Sizing
 "CAssFlo_L_Hall_SZn" = 92.7421   $ Sizing
 "CAssFlo_L_Hall_WZn" = 84.67014   $ Sizing
 "CAssFlo_L_LobWait_EZn" = 196.3995   $ Sizing
 "CAssFlo_L_LobWait_NZn" = 166.2838   $ Sizing
 "CAssFlo_L_LobWait_SZn" = 211.5379   $ Sizing
 "CAssFlo_L_LobWait_WZn" = 194.437   $ Sizing
 "CAssFlo_L_MechElec_CZn" = 97.20029   $ Sizing
 "CAssFlo_L_OfficeOpn_CZn" = 56.38979   $ Sizing
 "CAssFlo_L_OfficeOpn_EZn" = 427.4695   $ Sizing
 "CAssFlo_L_OfficeOpn_NZn" = 196.1337   $ Sizing
 "CAssFlo_L_OfficeOpn_SZn" = 424.0826   $ Sizing
 "CAssFlo_L_OfficeOpn_WZn" = 396.0773   $ Sizing
 "CAssFlo_L_OfficeSm_EZn" = 350.0788   $ Sizing
 "CAssFlo_L_OfficeSm_NZn" = 168.9498   $ Sizing
 "CAssFlo_L_OfficeSm_SZn" = 369.1729   $ Sizing
 "CAssFlo_L_OfficeSm_WZn" = 343.0198   $ Sizing
 "CAssFlo_L_Restrm_CZn" = 86.07105   $ Sizing
 "CAssFlo_L_StorSm_CZn" = 47.30678   $ Sizing
 "CAssFlo_L_StorSm_EZn" = 82.95988   $ Sizing
 "CAssFlo_L_StorSm_NZn" = 94.4202   $ Sizing
 "CAssFlo_L_StorSm_SZn" = 80.30595   $ Sizing
 "CAssFlo_L_StorSm_WZn" = 81.00884   $ Sizing
 "CAssFlo_T_Conf_CZn" = 198.5744   $ Sizing
 "CAssFlo_T_Hall_EZn" = 97.97245   $ Sizing
 "CAssFlo_T_Hall_NZn" = 70.04929   $ Sizing
 "CAssFlo_T_Hall_SZn" = 109.4001   $ Sizing
 "CAssFlo_T_Hall_WZn" = 96.62363   $ Sizing
 "CAssFlo_T_OfficeOpn_CZn" = 55.05241   $ Sizing
 "CAssFlo_T_OfficeOpn_EZn" = 435.3495   $ Sizing
 "CAssFlo_T_OfficeOpn_NZn" = 212.6224   $ Sizing
 "CAssFlo_T_OfficeOpn_SZn" = 453.1076   $ Sizing
 "CAssFlo_T_OfficeOpn_WZn" = 402.0021   $ Sizing
 "CAssFlo_T_OfficeSm_EZn" = 364.5932   $ Sizing
 "CAssFlo_T_OfficeSm_NZn" = 163.3071   $ Sizing
 "CAssFlo_T_OfficeSm_SZn" = 398.3278   $ Sizing
 "CAssFlo_T_OfficeSm_WZn" = 349.6602   $ Sizing
 "CAssFlo_T_Restrm_CZn" = 86.07105   $ Sizing
 "CAssFlo_T_StorSm_EZn" = 94.64865   $ Sizing
 "CAssFlo_T_StorSm_NZn" = 92.03611   $ Sizing
 "CAssFlo_T_StorSm_SZn" = 101.3998   $ Sizing
 "CAssFlo_T_StorSm_WZn" = 94.26022   $ Sizing
 "CHRtFlo_Sys_L_Break_C" = 265.0845   $ Sizing
 "CHRtFlo_Sys_L_CompDC_C" = 156.0536   $ Sizing
 "CHRtFlo_Sys_L_Conf_C" = 192.8435   $ Sizing
 "CHRtFlo_Sys_L_CopyRm_C" = 50.72986   $ Sizing
 "CHRtFlo_Sys_L_Hall_E" = 80.5255   $ Sizing
 "CHRtFlo_Sys_L_Hall_N" = 76.36014   $ Sizing
 "CHRtFlo_Sys_L_Hall_S" = 92.7421   $ Sizing
 "CHRtFlo_Sys_L_Hall_W" = 84.67014   $ Sizing
 "CHRtFlo_Sys_L_LobWait_E" = 196.3995   $ Sizing
 "CHRtFlo_Sys_L_LobWait_N" = 166.2838   $ Sizing
 "CHRtFlo_Sys_L_LobWait_S" = 211.5379   $ Sizing
 "CHRtFlo_Sys_L_LobWait_W" = 194.437   $ Sizing
 "CHRtFlo_Sys_L_MechElec_C" = 97.20029   $ Sizing
 "CHRtFlo_Sys_L_OfficeOpn_C" = 56.38979   $ Sizing
 "CHRtFlo_Sys_L_OfficeOpn_E" = 427.4695   $ Sizing
 "CHRtFlo_Sys_L_OfficeOpn_N" = 196.1337   $ Sizing
 "CHRtFlo_Sys_L_OfficeOpn_S" = 424.0826   $ Sizing
 "CHRtFlo_Sys_L_OfficeOpn_W" = 396.0773   $ Sizing
 "CHRtFlo_Sys_L_OfficeSm_E" = 350.0788   $ Sizing
 "CHRtFlo_Sys_L_OfficeSm_N" = 168.9498   $ Sizing
 "CHRtFlo_Sys_L_OfficeSm_S" = 369.1729   $ Sizing
 "CHRtFlo_Sys_L_OfficeSm_W" = 343.0198   $ Sizing
 "CHRtFlo_Sys_L_Restrm_C" = 86.07105   $ Sizing
 "CHRtFlo_Sys_L_StorSm_C" = 47.30678   $ Sizing
 "CHRtFlo_Sys_L_StorSm_E" = 82.95988   $ Sizing
 "CHRtFlo_Sys_L_StorSm_N" = 94.4202   $ Sizing
 "CHRtFlo_Sys_L_StorSm_S" = 80.30595   $ Sizing
 "CHRtFlo_Sys_L_StorSm_W" = 81.00884   $ Sizing
 "CHRtFlo_Sys_T_Conf_C" = 198.5744   $ Sizing
 "CHRtFlo_Sys_T_Hall_E" = 97.97245   $ Sizing
 "CHRtFlo_Sys_T_Hall_N" = 70.04929   $ Sizing
 "CHRtFlo_Sys_T_Hall_S" = 109.4001   $ Sizing
 "CHRtFlo_Sys_T_Hall_W" = 96.62363   $ Sizing
 "CHRtFlo_Sys_T_OfficeOpn_C" = 55.05241   $ Sizing
 "CHRtFlo_Sys_T_OfficeOpn_E" = 435.3495   $ Sizing
 "CHRtFlo_Sys_T_OfficeOpn_N" = 212.6224   $ Sizing
 "CHRtFlo_Sys_T_OfficeOpn_S" = 453.1076   $ Sizing
 "CHRtFlo_Sys_T_OfficeOpn_W" = 402.0021   $ Sizing
 "CHRtFlo_Sys_T_OfficeSm_E" = 364.5932   $ Sizing
 "CHRtFlo_Sys_T_OfficeSm_N" = 163.3071   $ Sizing
 "CHRtFlo_Sys_T_OfficeSm_S" = 398.3278   $ Sizing
 "CHRtFlo_Sys_T_OfficeSm_W" = 349.6602   $ Sizing
 "CHRtFlo_Sys_T_Restrm_C" = 86.07105   $ Sizing
 "CHRtFlo_Sys_T_StorSm_E" = 94.64865   $ Sizing
 "CHRtFlo_Sys_T_StorSm_N" = 92.03611   $ Sizing
 "CHRtFlo_Sys_T_StorSm_S" = 101.3998   $ Sizing
 "CHRtFlo_Sys_T_StorSm_W" = 94.26022   $ Sizing
 "CRtdFlo_Sys_L_Break_C" = 265.0845   $ Sizing
 "CRtdFlo_Sys_L_CompDC_C" = 156.0536   $ Sizing
 "CRtdFlo_Sys_L_Conf_C" = 192.8435   $ Sizing
 "CRtdFlo_Sys_L_CopyRm_C" = 50.72986   $ Sizing
 "CRtdFlo_Sys_L_Hall_E" = 80.5255   $ Sizing
 "CRtdFlo_Sys_L_Hall_N" = 76.36014   $ Sizing
 "CRtdFlo_Sys_L_Hall_S" = 92.7421   $ Sizing
 "CRtdFlo_Sys_L_Hall_W" = 84.67014   $ Sizing
 "CRtdFlo_Sys_L_LobWait_E" = 196.3995   $ Sizing
 "CRtdFlo_Sys_L_LobWait_N" = 166.2838   $ Sizing
 "CRtdFlo_Sys_L_LobWait_S" = 211.5379   $ Sizing
 "CRtdFlo_Sys_L_LobWait_W" = 194.437   $ Sizing
 "CRtdFlo_Sys_L_MechElec_C" = 97.20029   $ Sizing
 "CRtdFlo_Sys_L_OfficeOpn_C" = 56.38979   $ Sizing
 "CRtdFlo_Sys_L_OfficeOpn_E" = 427.4695   $ Sizing
 "CRtdFlo_Sys_L_OfficeOpn_N" = 196.1337   $ Sizing
 "CRtdFlo_Sys_L_OfficeOpn_S" = 424.0826   $ Sizing
 "CRtdFlo_Sys_L_OfficeOpn_W" = 396.0773   $ Sizing
 "CRtdFlo_Sys_L_OfficeSm_E" = 350.0788   $ Sizing
 "CRtdFlo_Sys_L_OfficeSm_N" = 168.9498   $ Sizing
 "CRtdFlo_Sys_L_OfficeSm_S" = 369.1729   $ Sizing
 "CRtdFlo_Sys_L_OfficeSm_W" = 343.0198   $ Sizing
 "CRtdFlo_Sys_L_Restrm_C" = 86.07105   $ Sizing
 "CRtdFlo_Sys_L_StorSm_C" = 47.30678   $ Sizing
 "CRtdFlo_Sys_L_StorSm_E" = 82.95988   $ Sizing
 "CRtdFlo_Sys_L_StorSm_N" = 94.4202   $ Sizing
 "CRtdFlo_Sys_L_StorSm_S" = 80.30595   $ Sizing
 "CRtdFlo_Sys_L_StorSm_W" = 81.00884   $ Sizing
 "CRtdFlo_Sys_T_Conf_C" = 198.5744   $ Sizing
 "CRtdFlo_Sys_T_Hall_E" = 97.97245   $ Sizing
 "CRtdFlo_Sys_T_Hall_N" = 70.04929   $ Sizing
 "CRtdFlo_Sys_T_Hall_S" = 109.4001   $ Sizing
 "CRtdFlo_Sys_T_Hall_W" = 96.62363   $ Sizing
 "CRtdFlo_Sys_T_OfficeOpn_C" = 55.05241   $ Sizing
 "CRtdFlo_Sys_T_OfficeOpn_E" = 435.3495   $ Sizing
 "CRtdFlo_Sys_T_OfficeOpn_N" = 212.6224   $ Sizing
 "CRtdFlo_Sys_T_OfficeOpn_S" = 453.1076   $ Sizing
 "CRtdFlo_Sys_T_OfficeOpn_W" = 402.0021   $ Sizing
 "CRtdFlo_Sys_T_OfficeSm_E" = 364.5932   $ Sizing
 "CRtdFlo_Sys_T_OfficeSm_N" = 163.3071   $ Sizing
 "CRtdFlo_Sys_T_OfficeSm_S" = 398.3278   $ Sizing
 "CRtdFlo_Sys_T_OfficeSm_W" = 349.6602   $ Sizing
 "CRtdFlo_Sys_T_Restrm_C" = 86.07105   $ Sizing
 "CRtdFlo_Sys_T_StorSm_E" = 94.64865   $ Sizing
 "CRtdFlo_Sys_T_StorSm_N" = 92.03611   $ Sizing
 "CRtdFlo_Sys_T_StorSm_S" = 101.3998   $ Sizing
 "CRtdFlo_Sys_T_StorSm_W" = 94.26022   $ Sizing
 "CSupFlo_Sys_L_Break_C" = 265.0845   $ Sizing
 "CSupFlo_Sys_L_CompDC_C" = 156.0536   $ Sizing
 "CSupFlo_Sys_L_Conf_C" = 192.8435   $ Sizing
 "CSupFlo_Sys_L_CopyRm_C" = 50.72986   $ Sizing
 "CSupFlo_Sys_L_Hall_E" = 80.5255   $ Sizing
 "CSupFlo_Sys_L_Hall_N" = 76.36014   $ Sizing
 "CSupFlo_Sys_L_Hall_S" = 92.7421   $ Sizing
 "CSupFlo_Sys_L_Hall_W" = 84.67014   $ Sizing
 "CSupFlo_Sys_L_LobWait_E" = 196.3995   $ Sizing
 "CSupFlo_Sys_L_LobWait_N" = 166.2838   $ Sizing
 "CSupFlo_Sys_L_LobWait_S" = 211.5379   $ Sizing
 "CSupFlo_Sys_L_LobWait_W" = 194.437   $ Sizing
 "CSupFlo_Sys_L_MechElec_C" = 97.20029   $ Sizing
 "CSupFlo_Sys_L_OfficeOpn_C" = 56.38979   $ Sizing
 "CSupFlo_Sys_L_OfficeOpn_E" = 427.4695   $ Sizing
 "CSupFlo_Sys_L_OfficeOpn_N" = 196.1337   $ Sizing
 "CSupFlo_Sys_L_OfficeOpn_S" = 424.0826   $ Sizing
 "CSupFlo_Sys_L_OfficeOpn_W" = 396.0773   $ Sizing
 "CSupFlo_Sys_L_OfficeSm_E" = 350.0788   $ Sizing
 "CSupFlo_Sys_L_OfficeSm_N" = 168.9498   $ Sizing
 "CSupFlo_Sys_L_OfficeSm_S" = 369.1729   $ Sizing
 "CSupFlo_Sys_L_OfficeSm_W" = 343.0198   $ Sizing
 "CSupFlo_Sys_L_Restrm_C" = 86.07105   $ Sizing
 "CSupFlo_Sys_L_StorSm_C" = 47.30678   $ Sizing
 "CSupFlo_Sys_L_StorSm_E" = 82.95988   $ Sizing
 "CSupFlo_Sys_L_StorSm_N" = 94.4202   $ Sizing
 "CSupFlo_Sys_L_StorSm_S" = 80.30595   $ Sizing
 "CSupFlo_Sys_L_StorSm_W" = 81.00884   $ Sizing
 "CSupFlo_Sys_T_Conf_C" = 198.5744   $ Sizing
 "CSupFlo_Sys_T_Hall_E" = 97.97245   $ Sizing
 "CSupFlo_Sys_T_Hall_N" = 70.04929   $ Sizing
 "CSupFlo_Sys_T_Hall_S" = 109.4001   $ Sizing
 "CSupFlo_Sys_T_Hall_W" = 96.62363   $ Sizing
 "CSupFlo_Sys_T_OfficeOpn_C" = 55.05241   $ Sizing
 "CSupFlo_Sys_T_OfficeOpn_E" = 435.3495   $ Sizing
 "CSupFlo_Sys_T_OfficeOpn_N" = 212.6224   $ Sizing
 "CSupFlo_Sys_T_OfficeOpn_S" = 453.1076   $ Sizing
 "CSupFlo_Sys_T_OfficeOpn_W" = 402.0021   $ Sizing
 "CSupFlo_Sys_T_OfficeSm_E" = 364.5932   $ Sizing
 "CSupFlo_Sys_T_OfficeSm_N" = 163.3071   $ Sizing
 "CSupFlo_Sys_T_OfficeSm_S" = 398.3278   $ Sizing
 "CSupFlo_Sys_T_OfficeSm_W" = 349.6602   $ Sizing
 "CSupFlo_Sys_T_Restrm_C" = 86.07105   $ Sizing
 "CSupFlo_Sys_T_StorSm_E" = 94.64865   $ Sizing
 "CSupFlo_Sys_T_StorSm_N" = 92.03611   $ Sizing
 "CSupFlo_Sys_T_StorSm_S" = 101.3998   $ Sizing
 "CSupFlo_Sys_T_StorSm_W" = 94.26022   $ Sizing
 "Cap_Boiler1" = -0.1303251   $ Sizing
 "ClCap_Sys_L_Break_C" = 9020.666   $ Sizing
 "ClCap_Sys_L_CompDC_C" = 5310.412   $ Sizing
 "ClCap_Sys_L_Conf_C" = 8352.081   $ Sizing
 "ClCap_Sys_L_CopyRm_C" = 1726.307   $ Sizing
 "ClCap_Sys_L_Hall_E" = 2740.234   $ Sizing
 "ClCap_Sys_L_Hall_N" = 2598.49   $ Sizing
 "ClCap_Sys_L_Hall_S" = 3155.958   $ Sizing
 "ClCap_Sys_L_Hall_W" = 2881.274   $ Sizing
 "ClCap_Sys_L_LobWait_E" = 6683.356   $ Sizing
 "ClCap_Sys_L_LobWait_N" = 5658.54   $ Sizing
 "ClCap_Sys_L_LobWait_S" = 7198.508   $ Sizing
 "ClCap_Sys_L_LobWait_W" = 6616.574   $ Sizing
 "ClCap_Sys_L_MechElec_C" = 3307.667   $ Sizing
 "ClCap_Sys_L_OfficeOpn_C" = 1918.911   $ Sizing
 "ClCap_Sys_L_OfficeOpn_E" = 14546.53   $ Sizing
 "ClCap_Sys_L_OfficeOpn_N" = 6674.312   $ Sizing
 "ClCap_Sys_L_OfficeOpn_S" = 14431.28   $ Sizing
 "ClCap_Sys_L_OfficeOpn_W" = 13478.27   $ Sizing
 "ClCap_Sys_L_OfficeSm_E" = 11912.97   $ Sizing
 "ClCap_Sys_L_OfficeSm_N" = 5749.261   $ Sizing
 "ClCap_Sys_L_OfficeSm_S" = 12562.73   $ Sizing
 "ClCap_Sys_L_OfficeSm_W" = 11672.76   $ Sizing
 "ClCap_Sys_L_Restrm_C" = 2928.947   $ Sizing
 "ClCap_Sys_L_StorSm_C" = 1609.821   $ Sizing
 "ClCap_Sys_L_StorSm_E" = 2823.075   $ Sizing
 "ClCap_Sys_L_StorSm_N" = 3213.063   $ Sizing
 "ClCap_Sys_L_StorSm_S" = 2732.764   $ Sizing
 "ClCap_Sys_L_StorSm_W" = 2756.682   $ Sizing
 "ClCap_Sys_T_Conf_C" = 8600.288   $ Sizing
 "ClCap_Sys_T_Hall_E" = 3333.944   $ Sizing
 "ClCap_Sys_T_Hall_N" = 2383.735   $ Sizing
 "ClCap_Sys_T_Hall_S" = 3722.819   $ Sizing
 "ClCap_Sys_T_Hall_W" = 3288.044   $ Sizing
 "ClCap_Sys_T_OfficeOpn_C" = 1873.4   $ Sizing
 "ClCap_Sys_T_OfficeOpn_E" = 14814.68   $ Sizing
 "ClCap_Sys_T_OfficeOpn_N" = 7235.414   $ Sizing
 "ClCap_Sys_T_OfficeOpn_S" = 15418.98   $ Sizing
 "ClCap_Sys_T_OfficeOpn_W" = 13679.89   $ Sizing
 "ClCap_Sys_T_OfficeSm_E" = 12406.89   $ Sizing
 "ClCap_Sys_T_OfficeSm_N" = 5557.244   $ Sizing
 "ClCap_Sys_T_OfficeSm_S" = 13554.86   $ Sizing
 "ClCap_Sys_T_OfficeSm_W" = 11898.73   $ Sizing
 "ClCap_Sys_T_Restrm_C" = 2928.947   $ Sizing
 "ClCap_Sys_T_StorSm_E" = 3220.837   $ Sizing
 "ClCap_Sys_T_StorSm_N" = 3131.934   $ Sizing
 "ClCap_Sys_T_StorSm_S" = 3450.575   $ Sizing
 "ClCap_Sys_T_StorSm_W" = 3207.619   $ Sizing
 "HtCap_Sys_L_Break_C" = -7938.186   $ Sizing
 "HtCap_Sys_L_CompDC_C" = -4673.162   $ Sizing
 "HtCap_Sys_L_Conf_C" = -7349.831   $ Sizing
 "HtCap_Sys_L_CopyRm_C" = -1519.15   $ Sizing
 "HtCap_Sys_L_Hall_E" = -2411.406   $ Sizing
 "HtCap_Sys_L_Hall_N" = -2286.671   $ Sizing
 "HtCap_Sys_L_Hall_S" = -2777.243   $ Sizing
 "HtCap_Sys_L_Hall_W" = -2535.521   $ Sizing
 "HtCap_Sys_L_LobWait_E" = -5881.354   $ Sizing
 "HtCap_Sys_L_LobWait_N" = -4979.515   $ Sizing
 "HtCap_Sys_L_LobWait_S" = -6334.688   $ Sizing
 "HtCap_Sys_L_LobWait_W" = -5822.585   $ Sizing
 "HtCap_Sys_L_MechElec_C" = -2910.747   $ Sizing
 "HtCap_Sys_L_OfficeOpn_C" = -1688.641   $ Sizing
 "HtCap_Sys_L_OfficeOpn_E" = -12800.95   $ Sizing
 "HtCap_Sys_L_OfficeOpn_N" = -5873.395   $ Sizing
 "HtCap_Sys_L_OfficeOpn_S" = -12699.52   $ Sizing
 "HtCap_Sys_L_OfficeOpn_W" = -11860.88   $ Sizing
 "HtCap_Sys_L_OfficeSm_E" = -10483.41   $ Sizing
 "HtCap_Sys_L_OfficeSm_N" = -5059.35   $ Sizing
 "HtCap_Sys_L_OfficeSm_S" = -11055.21   $ Sizing
 "HtCap_Sys_L_OfficeSm_W" = -10272.03   $ Sizing
 "HtCap_Sys_L_Restrm_C" = -2577.473   $ Sizing
 "HtCap_Sys_L_StorSm_C" = -1416.643   $ Sizing
 "HtCap_Sys_L_StorSm_E" = -2484.306   $ Sizing
 "HtCap_Sys_L_StorSm_N" = -2827.495   $ Sizing
 "HtCap_Sys_L_StorSm_S" = -2404.832   $ Sizing
 "HtCap_Sys_L_StorSm_W" = -2425.88   $ Sizing
 "HtCap_Sys_T_Conf_C" = -7568.253   $ Sizing
 "HtCap_Sys_T_Hall_E" = -2933.871   $ Sizing
 "HtCap_Sys_T_Hall_N" = -2097.687   $ Sizing
 "HtCap_Sys_T_Hall_S" = -3276.081   $ Sizing
 "HtCap_Sys_T_Hall_W" = -2893.479   $ Sizing
 "HtCap_Sys_T_OfficeOpn_C" = -1648.592   $ Sizing
 "HtCap_Sys_T_OfficeOpn_E" = -13036.92   $ Sizing
 "HtCap_Sys_T_OfficeOpn_N" = -6367.165   $ Sizing
 "HtCap_Sys_T_OfficeOpn_S" = -13568.7   $ Sizing
 "HtCap_Sys_T_OfficeOpn_W" = -12038.31   $ Sizing
 "HtCap_Sys_T_OfficeSm_E" = -10918.06   $ Sizing
 "HtCap_Sys_T_OfficeSm_N" = -4890.375   $ Sizing
 "HtCap_Sys_T_OfficeSm_S" = -11928.27   $ Sizing
 "HtCap_Sys_T_OfficeSm_W" = -10470.88   $ Sizing
 "HtCap_Sys_T_Restrm_C" = -2577.473   $ Sizing
 "HtCap_Sys_T_StorSm_E" = -2834.336   $ Sizing
 "HtCap_Sys_T_StorSm_N" = -2756.102   $ Sizing
 "HtCap_Sys_T_StorSm_S" = -3036.506   $ Sizing
 "HtCap_Sys_T_StorSm_W" = -2822.705   $ Sizing
 "LpFlo_WLHPCircLoop" = 75.90138   $ Sizing
 "SUtime_Boiler1" = 0.083   $ Sizing
..

##include Templates\OfS_WLHP.inp
END ..
COMPUTE ..
STOP ..
