INPUT ..

##fileprefix C:\Users\jglasskatz\MASControl3\
##set1 IsSizing FALSE
##set1 CoolType DX
##set1 HeatType FURNACE
##set1 EU_HrRepVar 0
##set1 BldgVint 2007
##set1 BldgLoc CZ01

 ##set1 mBFMult 1   $ IP Tech: RefgChg-NRes-Std

PARAMETER
 "AltFactor" = 1.00753   $ IP Non-Tech
 "BF_fFlow" = SpltAC1Sp-lt45_BF_fFlow   $ Msr (Multi)TechID: StdNResSplitAC-lt45
 "BF_fT" = SpltAC1Sp-lt45_BF_fT   $ Msr (Multi)TechID: StdNResSplitAC-lt45
 "BldgEconoFlag" = 1   $ IP Non-Tech
 "Break_EWSF" = 1   $ IP Non-Tech
 "Break_LWSF" = 1.1   $ IP Non-Tech
 "CDD_DBHi10" = 65   $ IP Non-Tech
 "CDD_DBHi7" = 68   $ IP Non-Tech
 "CDD_DBHi8" = 66   $ IP Non-Tech
 "CDD_DBHi9" = 77   $ IP Non-Tech
 "CDD_DBRange10" = 17   $ IP Non-Tech
 "CDD_DBRange7" = 11   $ IP Non-Tech
 "CDD_DBRange8" = 10   $ IP Non-Tech
 "CDD_DBRange9" = 29   $ IP Non-Tech
 "CDD_Day10" = 15   $ IP Non-Tech
 "CDD_Day7" = 16   $ IP Non-Tech
 "CDD_Day8" = 20   $ IP Non-Tech
 "CDD_Day9" = 17   $ IP Non-Tech
 "CDD_HrHi10" = 12   $ IP Non-Tech
 "CDD_HrHi7" = 12   $ IP Non-Tech
 "CDD_HrHi8" = 13   $ IP Non-Tech
 "CDD_HrHi9" = 17   $ IP Non-Tech
 "CDD_HrLo10" = 6   $ IP Non-Tech
 "CDD_HrLo7" = 3   $ IP Non-Tech
 "CDD_HrLo8" = 8   $ IP Non-Tech
 "CDD_HrLo9" = 4   $ IP Non-Tech
 "CDD_WB10" = 57.53039551   $ IP Non-Tech
 "CDD_WB7" = 59.29250717   $ IP Non-Tech
 "CDD_WB8" = 60.75350189   $ IP Non-Tech
 "CDD_WB9" = 61.08643341   $ IP Non-Tech
 "CEIR_fPLR_Hot" = SpltAC1Sp-lt45_CEIR_fPLR_Hot   $ Msr (Multi)TechID: StdNResSplitAC-lt45
 "CEIR_fPLR_Mod" = SpltAC1Sp-lt45_CEIR_fPLR_Mod   $ Msr (Multi)TechID: StdNResSplitAC-lt45
 "CEIR_fPLR_Tem" = SpltAC1Sp-lt45_CEIR_fPLR_Tem   $ Msr (Multi)TechID: StdNResSplitAC-lt45
 "CLoss_fPLR_Hot" = SpltAC1Sp-lt45_CLoss_fPLR_Hot   $ Msr (Multi)TechID: StdNResSplitAC-lt45
 "CLoss_fPLR_Mod" = SpltAC1Sp-lt45_CLoss_fPLR_Mod   $ Msr (Multi)TechID: StdNResSplitAC-lt45
 "CLoss_fPLR_Tem" = SpltAC1Sp-lt45_CLoss_fPLR_Tem   $ Msr (Multi)TechID: StdNResSplitAC-lt45
 "COP47" = 0   $ Msr (Multi)TechID: StdNResSplitAC-lt45
 "CZ_Category" = Tem   $ IP Non-Tech
 "CapRange" = lt45   $ Msr (Multi)TechID: StdNResSplitAC-lt45
 "CfmPerBtuh" = 0.032504286   $ Msr (Multi)TechID: StdNResSplitAC-lt45
 "ChwVintEconoFlag" = 1   $ IP Non-Tech
 "ClCap_fT" = SpltAC1Sp-lt45_ClCap_fT   $ Msr (Multi)TechID: StdNResSplitAC-lt45
 "ClSH_fT" = SpltAC1Sp-lt45_ClSH_fT   $ Msr (Multi)TechID: StdNResSplitAC-lt45
 "CoilBF" = 0.1212   $ Msr (Multi)TechID: StdNResSplitAC-lt45
 "CompRoomData_EWSF" = 5   $ IP Non-Tech
 "CompRoomData_LWSF" = 1.2   $ IP Non-Tech
 "CondWPerBtuh" = 0   $ Msr (Multi)TechID: StdNResSplitAC-lt45
 "Conference_EWSF" = 1   $ IP Non-Tech
 "Conference_LWSF" = 1.4   $ IP Non-Tech
 "CoolSensCap" = 0.754064286   $ Msr (Multi)TechID: StdNResSplitAC-lt45
 "CoolSetT" = 45   $ IP Non-Tech
 "CoolType" = DX   $ IP Non-Tech
 "CoolingEIR" = 0.23878   $ Msr (Multi)TechID: StdNResSplitAC-lt45
 "CopyRoom_EWSF" = 1.5   $ IP Non-Tech
 "CopyRoom_LWSF" = 1.3   $ IP Non-Tech
 "CrnkEIR" = 0.0023878   $ Msr (Multi)TechID: StdNResSplitAC-lt45
 "CrnkMaxT" = 50   $ Msr (Multi)TechID: StdNResSplitAC-lt45
 "DXType" = SplitSEER   $ Msr (Multi)TechID: StdNResSplitAC-lt45
 "DesCoolT" = 75   $ IP Non-Tech
 "DesHeatT" = 73   $ IP Non-Tech
 "EER" = 12.16551724   $ Msr (Multi)TechID: StdNResSplitAC-lt45
 "EIR_fT" = SpltAC1Sp-lt45_EIR_fT   $ Msr (Multi)TechID: StdNResSplitAC-lt45
 "EconoCtrl" = FIXED   $ Msr (Multi)TechID: StdNResSplitAC-lt45
 "EconoEnthLimit" = 28   $ IP Non-Tech
 "EconoTempLimit" = 70   $ IP Non-Tech
 "Elevation" = 203   $ IP Non-Tech
 "FanEirPlr" = TwoSpeedFan   $ Msr (Multi)TechID: StdNResSplitAC-lt45
 "FanWPerCfm" = 0.294   $ Msr (Multi)TechID: StdNResSplitAC-lt45
 "HDD_CloudAmt1" = 0   $ IP Non-Tech
 "HDD_DBHi1" = 53   $ IP Non-Tech
 "HDD_DBRange1" = 20   $ IP Non-Tech
 "HDD_Day1" = 15   $ IP Non-Tech
 "HDD_HrHi1" = 14   $ IP Non-Tech
 "HDD_HrLo1" = 6   $ IP Non-Tech
 "HDD_WB1" = 42.3   $ IP Non-Tech
 "HDD_WindSpd1" = 12.7   $ IP Non-Tech
 "HIR_fT" = 0   $ Msr (Multi)TechID: StdNResSplitAC-lt45
 "HSPF" = 0   $ Msr (Multi)TechID: StdNResSplitAC-lt45
 "Hall_EWSF" = 0.2   $ IP Non-Tech
 "Hall_LWSF" = 0.6   $ IP Non-Tech
 "HeatSrc" = FURNACE   $ IP Non-Tech
 "HeatSrcTU" = HEAT-PUMP   $ IP Non-Tech
 "HeatType" = GasFurn   $ IP Non-Tech
 "HeatTypeTU" = HEAT-PUMP   $ IP Non-Tech
 "HtCap_fT" = 0   $ Msr (Multi)TechID: StdNResSplitAC-lt45
 "HtCoolCapRatio" = 0   $ Msr (Multi)TechID: StdNResSplitAC-lt45
 "HtgEIR" = 0   $ Msr (Multi)TechID: StdNResSplitAC-lt45
 "IndoorFanMode" = CONTINUOUS   $ IP Non-Tech
 "KT_TransferAir" = No   $ IP Non-Tech
 "Latitude" = 40.8   $ IP Non-Tech
 "LobbyWaiting_EWSF" = 0.5   $ IP Non-Tech
 "LobbyWaiting_LWSF" = 1.3   $ IP Non-Tech
 "Longitude" = 124.2   $ IP Non-Tech
 "LowSpdCapRatio" = 1   $ Msr (Multi)TechID: StdNResSplitAC-lt45
 "LowSpdCfmRatio" = 1   $ Msr (Multi)TechID: StdNResSplitAC-lt45
 "MZFanMechEff" = 0.58   $ IP Non-Tech
 "MZHasRetFan" = FALSE   $ IP Non-Tech
 "MZ_RFanWPerCfm" = 0.33   $ IP Non-Tech
 "MZ_SFanWPerCfm" = 0.75   $ IP Non-Tech
 "MZ_SupFanStatic" = 2.25   $ IP Non-Tech
 "MaxOAFrac" = 1   $ Msr (Multi)TechID: StdNResSplitAC-lt45
 "MaxSupT_MZ" = 100   $ IP Non-Tech
 "MaxSupT_SZ" = 100   $ IP Non-Tech
 "MaxSupT_TU" = 90   $ IP Non-Tech
 "MechElecRoom_EWSF" = 0.2   $ IP Non-Tech
 "MechElecRoom_LWSF" = 0.7   $ IP Non-Tech
 "MinCfmPerSF" = 0.4   $ IP Non-Tech
 "MinSupT" = 55   $ IP Non-Tech
 "NumStages" = 1   $ Msr (Multi)TechID: StdNResSplitAC-lt45
 "OccCoolT" = 76   $ IP Non-Tech
 "OccHeatT" = 72   $ IP Non-Tech
 "OfficeOpen_EWSF" = 1.5   $ IP Non-Tech
 "OfficeOpen_LWSF" = 1.2   $ IP Non-Tech
 "OfficeSmall_EWSF" = 1.5   $ IP Non-Tech
 "OfficeSmall_LWSF" = 1.3   $ IP Non-Tech
 "PkgDxVintEconoFlag" = 0   $ IP Non-Tech
 "Restroom_EWSF" = 0.2   $ IP Non-Tech
 "Restroom_LWSF" = 0.6   $ IP Non-Tech
 "SEER" = 14   $ Msr (Multi)TechID: StdNResSplitAC-lt45
 "SZFanMechEff" = 0.58   $ IP Non-Tech
 "SZHasRetFan" = FALSE   $ IP Non-Tech
 "SZ_Is_2Spd" = FALSE   $ IP Non-Tech
 "SZ_SFanWPerCfm" = 0.46   $ IP Non-Tech
 "SZ_SupFanStatic" = 0.75   $ IP Non-Tech
 "Sector" = Any   $ Msr (Multi)TechID: StdNResSplitAC-lt45
 "StorageSmlCond_EWSF" = 0.2   $ IP Non-Tech
 "StorageSmlCond_LWSF" = 0.6   $ IP Non-Tech
 "SubType" = AC   $ Msr (Multi)TechID: StdNResSplitAC-lt45
 "T24GlzTbl" = CZTbl   $ IP Non-Tech
 "TermUnitFanMechEff" = 1   $ IP Non-Tech
 "TermUnitFanMode" = INTERMITTENT   $ IP Non-Tech
 "TotCoolCap" = 30924.85714   $ Msr (Multi)TechID: StdNResSplitAC-lt45
 "TwrSetpt" = 80   $ IP Non-Tech
 "UnocCoolT" = 86   $ IP Non-Tech
 "UnocHeatT" = 62   $ IP Non-Tech
 "UseEconoVintApplic" = FALSE   $ Msr (Multi)TechID: StdNResSplitAC-lt45
 "WlhpVintEconoFlag" = 0   $ IP Non-Tech
 "DuctDT" = 1   $ IP Tech: ComDuctInsul-1
 "DuctAirLoss" = 0   $ IP Tech: ComDuctLeak-0
 "DuctLossOAFrac" = 0   $ IP Tech: ComDuctLeak-0
 "ComRoofInsCalc" = FromUo   $ IP Tech: ComRoofIns-WFrm-0.05
 "ComRoofInsR" = -999   $ IP Tech: ComRoofIns-WFrm-0.05
 "ComRoofUo" = 0.05   $ IP Tech: ComRoofIns-WFrm-0.05
 "ComEWInsCalc" = FromUo   $ IP Tech: ComWallIns-WFrm-0.08
 "ComEWInsR" = -999   $ IP Tech: ComWallIns-WFrm-0.08
 "ComEWUo" = 0.08   $ IP Tech: ComWallIns-WFrm-0.08
 "ComN_SHGC" = 0.47   $ IP Tech: NResWin-ComN-0.47-0.47
 "ComN_UFactor" = 0.47   $ IP Tech: NResWin-ComN-0.47-0.47
 "ComN_VisTrans" = 0.75   $ IP Tech: NResWin-ComN-0.47-0.47
 "ComN_WinCode" = G2633   $ IP Tech: NResWin-ComN-0.47-0.47
 "ComN_WinFrmFrac" = 0.17   $ IP Tech: NResWin-ComN-0.47-0.47
 "ComN_WinFrmU" = 0.3   $ IP Tech: NResWin-ComN-0.47-0.47
 "ComO_SHGC" = 0.43   $ IP Tech: NResWin-ComO-0.47-0.43
 "ComO_UFactor" = 0.47   $ IP Tech: NResWin-ComO-0.47-0.43
 "ComO_VisTrans" = 0.68   $ IP Tech: NResWin-ComO-0.47-0.43
 "ComO_WinCode" = G2663   $ IP Tech: NResWin-ComO-0.47-0.43
 "ComO_WinFrmFrac" = 0.17   $ IP Tech: NResWin-ComO-0.47-0.43
 "ComO_WinFrmU" = 0.3   $ IP Tech: NResWin-ComO-0.47-0.43
 "LtgMsrApplic" = ALL   $ IP Tech: NonResLtgRefPre
 "LtgSav_CFL" = 0   $ IP Tech: NonResLtgRefPre
 "LtgSav_EX" = 0   $ IP Tech: NonResLtgRefPre
 "LtgSav_HB" = 0   $ IP Tech: NonResLtgRefPre
 "LtgSav_LF" = 0   $ IP Tech: NonResLtgRefPre
 "LtgSav_SP" = 0   $ IP Tech: NonResLtgRefPre
 "CEIR_fPLR" = PSZ65to135_CEIR_fPLR   $ IP Tech: PkgAC1SpH-65to135-E10
 "CLoss_fPLR" = PSZ65to135_CLoss_fPLR   $ IP Tech: PkgAC1SpH-65to135-E10
 "COP" = -1   $ IP Tech: PkgAC1SpH-65to135-E10
 "HtgFuel" = Gas   $ IP Tech: PkgAC1SpH-65to135-E10
 "IEER" = 11.87   $ IP Tech: PkgAC1SpH-65to135-E10
 "NominalCap" = 15   $ IP Tech: PkgAC1SpH-65to135-E10
 "RatedEER" = 10   $ IP Tech: PkgAC1SpH-65to135-E10
 "RatedSupMtrClass" = HiEff   $ IP Tech: PkgAC1SpH-65to135-E10
 "SizeRange" = 65to135   $ IP Tech: PkgAC1SpH-65to135-E10
 "SupMotEff" = 0.84   $ IP Tech: PkgAC1SpH-65to135-E10
 "Tier" = 0   $ IP Tech: PkgAC1SpH-65to135-E10
 "FanPwrMult" = 1   $ IP Tech: PkgFurn-0.80AFUE
 "FurnAFUE" = 0.8   $ IP Tech: PkgFurn-0.80AFUE
 "FurnEt" = 0.82   $ IP Tech: PkgFurn-0.80AFUE
 "FurnaceAuxKW" = 0.1   $ IP Tech: PkgFurn-0.80AFUE
 "HIR_fPLR" = Furnace-HIR-fPLR   $ IP Tech: PkgFurn-0.80AFUE
 "VSM" = FALSE   $ IP Tech: PkgFurn-0.80AFUE
 "BFMult" = 1   $ IP Tech: RefgChg-NRes-Std
 "CoolEirMult" = 1   $ IP Tech: RefgChg-NRes-Std
 "SensCoolCapMult" = 1   $ IP Tech: RefgChg-NRes-Std
 "TotCoolCapMult" = 1   $ IP Tech: RefgChg-NRes-Std
 "AltAdjFactor" = 1.007532   $ Sizing
 "CAssFlo_L_Break_CZn" = 279.9608   $ Sizing
 "CAssFlo_L_CompDC_CZn" = 162.596   $ Sizing
 "CAssFlo_L_Conf_CZn" = 207.8363   $ Sizing
 "CAssFlo_L_CopyRm_CZn" = 59.10281   $ Sizing
 "CAssFlo_L_Hall_EZn" = 97.65958   $ Sizing
 "CAssFlo_L_Hall_NZn" = 54.52489   $ Sizing
 "CAssFlo_L_Hall_SZn" = 112.5961   $ Sizing
 "CAssFlo_L_Hall_WZn" = 100.4236   $ Sizing
 "CAssFlo_L_LobWait_EZn" = 240.1021   $ Sizing
 "CAssFlo_L_LobWait_NZn" = 114.5931   $ Sizing
 "CAssFlo_L_LobWait_SZn" = 264.9866   $ Sizing
 "CAssFlo_L_LobWait_WZn" = 234.9316   $ Sizing
 "CAssFlo_L_MechElec_CZn" = 65.93681   $ Sizing
 "CAssFlo_L_OfficeOpn_CZn" = 60.71719   $ Sizing
 "CAssFlo_L_OfficeOpn_EZn" = 502.6023   $ Sizing
 "CAssFlo_L_OfficeOpn_NZn" = 232.927   $ Sizing
 "CAssFlo_L_OfficeOpn_SZn" = 507.8799   $ Sizing
 "CAssFlo_L_OfficeOpn_WZn" = 468.2494   $ Sizing
 "CAssFlo_L_OfficeSm_EZn" = 417.0107   $ Sizing
 "CAssFlo_L_OfficeSm_NZn" = 177.9996   $ Sizing
 "CAssFlo_L_OfficeSm_SZn" = 444.3147   $ Sizing
 "CAssFlo_L_OfficeSm_WZn" = 406.1819   $ Sizing
 "CAssFlo_L_Restrm_CZn" = 86.07105   $ Sizing
 "CAssFlo_L_StorSm_CZn" = 30.73197   $ Sizing
 "CAssFlo_L_StorSm_EZn" = 94.54021   $ Sizing
 "CAssFlo_L_StorSm_NZn" = 64.41483   $ Sizing
 "CAssFlo_L_StorSm_SZn" = 101.9332   $ Sizing
 "CAssFlo_L_StorSm_WZn" = 91.78732   $ Sizing
 "CAssFlo_T_Conf_CZn" = 211.6939   $ Sizing
 "CAssFlo_T_Hall_EZn" = 116.9477   $ Sizing
 "CAssFlo_T_Hall_NZn" = 51.12617   $ Sizing
 "CAssFlo_T_Hall_SZn" = 132.3128   $ Sizing
 "CAssFlo_T_Hall_WZn" = 113.1114   $ Sizing
 "CAssFlo_T_OfficeOpn_CZn" = 59.47604   $ Sizing
 "CAssFlo_T_OfficeOpn_EZn" = 510.6813   $ Sizing
 "CAssFlo_T_OfficeOpn_NZn" = 258.5953   $ Sizing
 "CAssFlo_T_OfficeOpn_SZn" = 545.4774   $ Sizing
 "CAssFlo_T_OfficeOpn_WZn" = 472.5557   $ Sizing
 "CAssFlo_T_OfficeSm_EZn" = 432.807   $ Sizing
 "CAssFlo_T_OfficeSm_NZn" = 200.7589   $ Sizing
 "CAssFlo_T_OfficeSm_SZn" = 481.1207   $ Sizing
 "CAssFlo_T_OfficeSm_WZn" = 411.8462   $ Sizing
 "CAssFlo_T_Restrm_CZn" = 86.07105   $ Sizing
 "CAssFlo_T_StorSm_EZn" = 113.5368   $ Sizing
 "CAssFlo_T_StorSm_NZn" = 63.61142   $ Sizing
 "CAssFlo_T_StorSm_SZn" = 124.6711   $ Sizing
 "CAssFlo_T_StorSm_WZn" = 110.7156   $ Sizing
 "CHRtFlo_Sys_L_Break_C" = 279.9608   $ Sizing
 "CHRtFlo_Sys_L_CompDC_C" = 162.596   $ Sizing
 "CHRtFlo_Sys_L_Conf_C" = 207.8363   $ Sizing
 "CHRtFlo_Sys_L_CopyRm_C" = 59.10281   $ Sizing
 "CHRtFlo_Sys_L_Hall_E" = 97.65958   $ Sizing
 "CHRtFlo_Sys_L_Hall_N" = 54.52489   $ Sizing
 "CHRtFlo_Sys_L_Hall_S" = 112.5961   $ Sizing
 "CHRtFlo_Sys_L_Hall_W" = 100.4236   $ Sizing
 "CHRtFlo_Sys_L_LobWait_E" = 240.1021   $ Sizing
 "CHRtFlo_Sys_L_LobWait_N" = 114.5931   $ Sizing
 "CHRtFlo_Sys_L_LobWait_S" = 264.9866   $ Sizing
 "CHRtFlo_Sys_L_LobWait_W" = 234.9316   $ Sizing
 "CHRtFlo_Sys_L_MechElec_C" = 65.93681   $ Sizing
 "CHRtFlo_Sys_L_OfficeOpn_C" = 60.71719   $ Sizing
 "CHRtFlo_Sys_L_OfficeOpn_E" = 502.6023   $ Sizing
 "CHRtFlo_Sys_L_OfficeOpn_N" = 232.927   $ Sizing
 "CHRtFlo_Sys_L_OfficeOpn_S" = 507.8799   $ Sizing
 "CHRtFlo_Sys_L_OfficeOpn_W" = 468.2494   $ Sizing
 "CHRtFlo_Sys_L_OfficeSm_E" = 417.0107   $ Sizing
 "CHRtFlo_Sys_L_OfficeSm_N" = 177.9996   $ Sizing
 "CHRtFlo_Sys_L_OfficeSm_S" = 444.3147   $ Sizing
 "CHRtFlo_Sys_L_OfficeSm_W" = 406.1819   $ Sizing
 "CHRtFlo_Sys_L_Restrm_C" = 86.07105   $ Sizing
 "CHRtFlo_Sys_L_StorSm_C" = 30.73197   $ Sizing
 "CHRtFlo_Sys_L_StorSm_E" = 94.54021   $ Sizing
 "CHRtFlo_Sys_L_StorSm_N" = 64.41483   $ Sizing
 "CHRtFlo_Sys_L_StorSm_S" = 101.9332   $ Sizing
 "CHRtFlo_Sys_L_StorSm_W" = 91.78732   $ Sizing
 "CHRtFlo_Sys_T_Conf_C" = 211.6939   $ Sizing
 "CHRtFlo_Sys_T_Hall_E" = 116.9477   $ Sizing
 "CHRtFlo_Sys_T_Hall_N" = 51.12617   $ Sizing
 "CHRtFlo_Sys_T_Hall_S" = 132.3128   $ Sizing
 "CHRtFlo_Sys_T_Hall_W" = 113.1114   $ Sizing
 "CHRtFlo_Sys_T_OfficeOpn_C" = 59.47604   $ Sizing
 "CHRtFlo_Sys_T_OfficeOpn_E" = 510.6813   $ Sizing
 "CHRtFlo_Sys_T_OfficeOpn_N" = 258.5953   $ Sizing
 "CHRtFlo_Sys_T_OfficeOpn_S" = 545.4774   $ Sizing
 "CHRtFlo_Sys_T_OfficeOpn_W" = 472.5557   $ Sizing
 "CHRtFlo_Sys_T_OfficeSm_E" = 432.807   $ Sizing
 "CHRtFlo_Sys_T_OfficeSm_N" = 200.7589   $ Sizing
 "CHRtFlo_Sys_T_OfficeSm_S" = 481.1207   $ Sizing
 "CHRtFlo_Sys_T_OfficeSm_W" = 411.8462   $ Sizing
 "CHRtFlo_Sys_T_Restrm_C" = 86.07105   $ Sizing
 "CHRtFlo_Sys_T_StorSm_E" = 113.5368   $ Sizing
 "CHRtFlo_Sys_T_StorSm_N" = 63.61142   $ Sizing
 "CHRtFlo_Sys_T_StorSm_S" = 124.6711   $ Sizing
 "CHRtFlo_Sys_T_StorSm_W" = 110.7156   $ Sizing
 "CRtdFlo_Sys_L_Break_C" = 279.9608   $ Sizing
 "CRtdFlo_Sys_L_CompDC_C" = 162.596   $ Sizing
 "CRtdFlo_Sys_L_Conf_C" = 207.8363   $ Sizing
 "CRtdFlo_Sys_L_CopyRm_C" = 59.10281   $ Sizing
 "CRtdFlo_Sys_L_Hall_E" = 97.65958   $ Sizing
 "CRtdFlo_Sys_L_Hall_N" = 54.52489   $ Sizing
 "CRtdFlo_Sys_L_Hall_S" = 112.5961   $ Sizing
 "CRtdFlo_Sys_L_Hall_W" = 100.4236   $ Sizing
 "CRtdFlo_Sys_L_LobWait_E" = 240.1021   $ Sizing
 "CRtdFlo_Sys_L_LobWait_N" = 114.5931   $ Sizing
 "CRtdFlo_Sys_L_LobWait_S" = 264.9866   $ Sizing
 "CRtdFlo_Sys_L_LobWait_W" = 234.9316   $ Sizing
 "CRtdFlo_Sys_L_MechElec_C" = 65.93681   $ Sizing
 "CRtdFlo_Sys_L_OfficeOpn_C" = 60.71718   $ Sizing
 "CRtdFlo_Sys_L_OfficeOpn_E" = 502.6023   $ Sizing
 "CRtdFlo_Sys_L_OfficeOpn_N" = 232.927   $ Sizing
 "CRtdFlo_Sys_L_OfficeOpn_S" = 507.8799   $ Sizing
 "CRtdFlo_Sys_L_OfficeOpn_W" = 468.2494   $ Sizing
 "CRtdFlo_Sys_L_OfficeSm_E" = 417.0107   $ Sizing
 "CRtdFlo_Sys_L_OfficeSm_N" = 177.9996   $ Sizing
 "CRtdFlo_Sys_L_OfficeSm_S" = 444.3147   $ Sizing
 "CRtdFlo_Sys_L_OfficeSm_W" = 406.1819   $ Sizing
 "CRtdFlo_Sys_L_Restrm_C" = 86.07105   $ Sizing
 "CRtdFlo_Sys_L_StorSm_C" = 30.73197   $ Sizing
 "CRtdFlo_Sys_L_StorSm_E" = 94.54021   $ Sizing
 "CRtdFlo_Sys_L_StorSm_N" = 64.41483   $ Sizing
 "CRtdFlo_Sys_L_StorSm_S" = 101.9332   $ Sizing
 "CRtdFlo_Sys_L_StorSm_W" = 91.78732   $ Sizing
 "CRtdFlo_Sys_T_Conf_C" = 211.6939   $ Sizing
 "CRtdFlo_Sys_T_Hall_E" = 116.9477   $ Sizing
 "CRtdFlo_Sys_T_Hall_N" = 51.12617   $ Sizing
 "CRtdFlo_Sys_T_Hall_S" = 132.3128   $ Sizing
 "CRtdFlo_Sys_T_Hall_W" = 113.1114   $ Sizing
 "CRtdFlo_Sys_T_OfficeOpn_C" = 59.47604   $ Sizing
 "CRtdFlo_Sys_T_OfficeOpn_E" = 510.6813   $ Sizing
 "CRtdFlo_Sys_T_OfficeOpn_N" = 258.5953   $ Sizing
 "CRtdFlo_Sys_T_OfficeOpn_S" = 545.4774   $ Sizing
 "CRtdFlo_Sys_T_OfficeOpn_W" = 472.5557   $ Sizing
 "CRtdFlo_Sys_T_OfficeSm_E" = 432.807   $ Sizing
 "CRtdFlo_Sys_T_OfficeSm_N" = 200.7589   $ Sizing
 "CRtdFlo_Sys_T_OfficeSm_S" = 481.1207   $ Sizing
 "CRtdFlo_Sys_T_OfficeSm_W" = 411.8462   $ Sizing
 "CRtdFlo_Sys_T_Restrm_C" = 86.07105   $ Sizing
 "CRtdFlo_Sys_T_StorSm_E" = 113.5368   $ Sizing
 "CRtdFlo_Sys_T_StorSm_N" = 63.61142   $ Sizing
 "CRtdFlo_Sys_T_StorSm_S" = 124.6711   $ Sizing
 "CRtdFlo_Sys_T_StorSm_W" = 110.7156   $ Sizing
 "CSupFlo_Sys_L_Break_C" = 279.9608   $ Sizing
 "CSupFlo_Sys_L_CompDC_C" = 162.596   $ Sizing
 "CSupFlo_Sys_L_Conf_C" = 207.8363   $ Sizing
 "CSupFlo_Sys_L_CopyRm_C" = 59.10281   $ Sizing
 "CSupFlo_Sys_L_Hall_E" = 97.65958   $ Sizing
 "CSupFlo_Sys_L_Hall_N" = 54.52489   $ Sizing
 "CSupFlo_Sys_L_Hall_S" = 112.5961   $ Sizing
 "CSupFlo_Sys_L_Hall_W" = 100.4236   $ Sizing
 "CSupFlo_Sys_L_LobWait_E" = 240.1021   $ Sizing
 "CSupFlo_Sys_L_LobWait_N" = 114.5931   $ Sizing
 "CSupFlo_Sys_L_LobWait_S" = 264.9866   $ Sizing
 "CSupFlo_Sys_L_LobWait_W" = 234.9316   $ Sizing
 "CSupFlo_Sys_L_MechElec_C" = 65.93681   $ Sizing
 "CSupFlo_Sys_L_OfficeOpn_C" = 60.71719   $ Sizing
 "CSupFlo_Sys_L_OfficeOpn_E" = 502.6023   $ Sizing
 "CSupFlo_Sys_L_OfficeOpn_N" = 232.927   $ Sizing
 "CSupFlo_Sys_L_OfficeOpn_S" = 507.8799   $ Sizing
 "CSupFlo_Sys_L_OfficeOpn_W" = 468.2494   $ Sizing
 "CSupFlo_Sys_L_OfficeSm_E" = 417.0107   $ Sizing
 "CSupFlo_Sys_L_OfficeSm_N" = 177.9996   $ Sizing
 "CSupFlo_Sys_L_OfficeSm_S" = 444.3147   $ Sizing
 "CSupFlo_Sys_L_OfficeSm_W" = 406.1819   $ Sizing
 "CSupFlo_Sys_L_Restrm_C" = 86.07105   $ Sizing
 "CSupFlo_Sys_L_StorSm_C" = 30.73197   $ Sizing
 "CSupFlo_Sys_L_StorSm_E" = 94.54021   $ Sizing
 "CSupFlo_Sys_L_StorSm_N" = 64.41483   $ Sizing
 "CSupFlo_Sys_L_StorSm_S" = 101.9332   $ Sizing
 "CSupFlo_Sys_L_StorSm_W" = 91.78732   $ Sizing
 "CSupFlo_Sys_T_Conf_C" = 211.6939   $ Sizing
 "CSupFlo_Sys_T_Hall_E" = 116.9477   $ Sizing
 "CSupFlo_Sys_T_Hall_N" = 51.12617   $ Sizing
 "CSupFlo_Sys_T_Hall_S" = 132.3128   $ Sizing
 "CSupFlo_Sys_T_Hall_W" = 113.1114   $ Sizing
 "CSupFlo_Sys_T_OfficeOpn_C" = 59.47604   $ Sizing
 "CSupFlo_Sys_T_OfficeOpn_E" = 510.6813   $ Sizing
 "CSupFlo_Sys_T_OfficeOpn_N" = 258.5953   $ Sizing
 "CSupFlo_Sys_T_OfficeOpn_S" = 545.4774   $ Sizing
 "CSupFlo_Sys_T_OfficeOpn_W" = 472.5557   $ Sizing
 "CSupFlo_Sys_T_OfficeSm_E" = 432.807   $ Sizing
 "CSupFlo_Sys_T_OfficeSm_N" = 200.7589   $ Sizing
 "CSupFlo_Sys_T_OfficeSm_S" = 481.1207   $ Sizing
 "CSupFlo_Sys_T_OfficeSm_W" = 411.8462   $ Sizing
 "CSupFlo_Sys_T_Restrm_C" = 86.07105   $ Sizing
 "CSupFlo_Sys_T_StorSm_E" = 113.5368   $ Sizing
 "CSupFlo_Sys_T_StorSm_N" = 63.61142   $ Sizing
 "CSupFlo_Sys_T_StorSm_S" = 124.6711   $ Sizing
 "CSupFlo_Sys_T_StorSm_W" = 110.7156   $ Sizing
 "ClCap_Sys_L_Break_C" = 9526.898   $ Sizing
 "ClCap_Sys_L_CompDC_C" = 5533.044   $ Sizing
 "ClCap_Sys_L_Conf_C" = 9001.419   $ Sizing
 "ClCap_Sys_L_CopyRm_C" = 2011.233   $ Sizing
 "ClCap_Sys_L_Hall_E" = 3323.297   $ Sizing
 "ClCap_Sys_L_Hall_N" = 1855.449   $ Sizing
 "ClCap_Sys_L_Hall_S" = 3831.577   $ Sizing
 "ClCap_Sys_L_Hall_W" = 3417.356   $ Sizing
 "ClCap_Sys_L_LobWait_E" = 8170.532   $ Sizing
 "ClCap_Sys_L_LobWait_N" = 3899.535   $ Sizing
 "ClCap_Sys_L_LobWait_S" = 9017.337   $ Sizing
 "ClCap_Sys_L_LobWait_W" = 7994.582   $ Sizing
 "ClCap_Sys_L_MechElec_C" = 2243.79   $ Sizing
 "ClCap_Sys_L_OfficeOpn_C" = 2066.169   $ Sizing
 "ClCap_Sys_L_OfficeOpn_E" = 17103.25   $ Sizing
 "ClCap_Sys_L_OfficeOpn_N" = 7926.367   $ Sizing
 "ClCap_Sys_L_OfficeOpn_S" = 17282.85   $ Sizing
 "ClCap_Sys_L_OfficeOpn_W" = 15934.25   $ Sizing
 "ClCap_Sys_L_OfficeSm_E" = 14190.63   $ Sizing
 "ClCap_Sys_L_OfficeSm_N" = 6057.219   $ Sizing
 "ClCap_Sys_L_OfficeSm_S" = 15119.76   $ Sizing
 "ClCap_Sys_L_OfficeSm_W" = 13822.13   $ Sizing
 "ClCap_Sys_L_Restrm_C" = 2928.947   $ Sizing
 "ClCap_Sys_L_StorSm_C" = 1045.791   $ Sizing
 "ClCap_Sys_L_StorSm_E" = 3217.147   $ Sizing
 "ClCap_Sys_L_StorSm_N" = 2191.998   $ Sizing
 "ClCap_Sys_L_StorSm_S" = 3468.724   $ Sizing
 "ClCap_Sys_L_StorSm_W" = 3123.468   $ Sizing
 "ClCap_Sys_T_Conf_C" = 9168.494   $ Sizing
 "ClCap_Sys_T_Hall_E" = 3979.659   $ Sizing
 "ClCap_Sys_T_Hall_N" = 1739.793   $ Sizing
 "ClCap_Sys_T_Hall_S" = 4502.524   $ Sizing
 "ClCap_Sys_T_Hall_W" = 3849.112   $ Sizing
 "ClCap_Sys_T_OfficeOpn_C" = 2023.934   $ Sizing
 "ClCap_Sys_T_OfficeOpn_E" = 17378.18   $ Sizing
 "ClCap_Sys_T_OfficeOpn_N" = 8799.844   $ Sizing
 "ClCap_Sys_T_OfficeOpn_S" = 18562.27   $ Sizing
 "ClCap_Sys_T_OfficeOpn_W" = 16080.79   $ Sizing
 "ClCap_Sys_T_OfficeSm_E" = 14728.16   $ Sizing
 "ClCap_Sys_T_OfficeSm_N" = 6831.704   $ Sizing
 "ClCap_Sys_T_OfficeSm_S" = 16372.25   $ Sizing
 "ClCap_Sys_T_OfficeSm_W" = 14014.88   $ Sizing
 "ClCap_Sys_T_Restrm_C" = 2928.947   $ Sizing
 "ClCap_Sys_T_StorSm_E" = 3863.59   $ Sizing
 "ClCap_Sys_T_StorSm_N" = 2164.658   $ Sizing
 "ClCap_Sys_T_StorSm_S" = 4242.481   $ Sizing
 "ClCap_Sys_T_StorSm_W" = 3767.584   $ Sizing
 "HtCap_Sys_L_Break_C" = -16559.01   $ Sizing
 "HtCap_Sys_L_CompDC_C" = -5842.022   $ Sizing
 "HtCap_Sys_L_Conf_C" = -12630.07   $ Sizing
 "HtCap_Sys_L_CopyRm_C" = -4018.978   $ Sizing
 "HtCap_Sys_L_Hall_E" = -3639.329   $ Sizing
 "HtCap_Sys_L_Hall_N" = -2162.881   $ Sizing
 "HtCap_Sys_L_Hall_S" = -3960.284   $ Sizing
 "HtCap_Sys_L_Hall_W" = -3647.201   $ Sizing
 "HtCap_Sys_L_LobWait_E" = -9444.884   $ Sizing
 "HtCap_Sys_L_LobWait_N" = -5582.581   $ Sizing
 "HtCap_Sys_L_LobWait_S" = -10177.05   $ Sizing
 "HtCap_Sys_L_LobWait_W" = -9339.688   $ Sizing
 "HtCap_Sys_L_MechElec_C" = -2999.903   $ Sizing
 "HtCap_Sys_L_OfficeOpn_C" = -2459.398   $ Sizing
 "HtCap_Sys_L_OfficeOpn_E" = -18100.63   $ Sizing
 "HtCap_Sys_L_OfficeOpn_N" = -10223.8   $ Sizing
 "HtCap_Sys_L_OfficeOpn_S" = -17859.11   $ Sizing
 "HtCap_Sys_L_OfficeOpn_W" = -17288.27   $ Sizing
 "HtCap_Sys_L_OfficeSm_E" = -14965.83   $ Sizing
 "HtCap_Sys_L_OfficeSm_N" = -7605.543   $ Sizing
 "HtCap_Sys_L_OfficeSm_S" = -15035.5   $ Sizing
 "HtCap_Sys_L_OfficeSm_W" = -14427.61   $ Sizing
 "HtCap_Sys_L_Restrm_C" = -3052.65   $ Sizing
 "HtCap_Sys_L_StorSm_C" = -1309.379   $ Sizing
 "HtCap_Sys_L_StorSm_E" = -3666.845   $ Sizing
 "HtCap_Sys_L_StorSm_N" = -2774.37   $ Sizing
 "HtCap_Sys_L_StorSm_S" = -3872.625   $ Sizing
 "HtCap_Sys_L_StorSm_W" = -3627.385   $ Sizing
 "HtCap_Sys_T_Conf_C" = -12971.37   $ Sizing
 "HtCap_Sys_T_Hall_E" = -4683.455   $ Sizing
 "HtCap_Sys_T_Hall_N" = -2359.271   $ Sizing
 "HtCap_Sys_T_Hall_S" = -5220.114   $ Sizing
 "HtCap_Sys_T_Hall_W" = -4554.601   $ Sizing
 "HtCap_Sys_T_OfficeOpn_C" = -2681.773   $ Sizing
 "HtCap_Sys_T_OfficeOpn_E" = -20513.75   $ Sizing
 "HtCap_Sys_T_OfficeOpn_N" = -11869.96   $ Sizing
 "HtCap_Sys_T_OfficeOpn_S" = -21508.86   $ Sizing
 "HtCap_Sys_T_OfficeOpn_W" = -19233.38   $ Sizing
 "HtCap_Sys_T_OfficeSm_E" = -17017.68   $ Sizing
 "HtCap_Sys_T_OfficeSm_N" = -9099.425   $ Sizing
 "HtCap_Sys_T_OfficeSm_S" = -18383.51   $ Sizing
 "HtCap_Sys_T_OfficeSm_W" = -16324.73   $ Sizing
 "HtCap_Sys_T_Restrm_C" = -3508.287   $ Sizing
 "HtCap_Sys_T_StorSm_E" = -4905   $ Sizing
 "HtCap_Sys_T_StorSm_N" = -3145.762   $ Sizing
 "HtCap_Sys_T_StorSm_S" = -5195.939   $ Sizing
 "HtCap_Sys_T_StorSm_W" = -4789.536   $ Sizing
..

##include Templates\OfS_DX_SZ.inp
END ..
COMPUTE ..
STOP ..
