INPUT ..

##fileprefix C:\Users\jglasskatz\MASControl3\
##set1 IsSizing FALSE
##set1 CoolType DX
##set1 HeatType HOT-WATER
##set1 EU_HrRepVar 1
##set1 BldgVint 1996
##set1 BldgLoc CZ01

 ##set1 mHW_FlowCtrl Const   $ IP Tech: HwFlowCtrlCst
 ##set1 mBFMult 1   $ IP Tech: RefgChg-NRes-Std
 ##set1 mBlrIsCond FALSE   $ IP Tech: WBlr-lt300-80p0AF

PARAMETER
 "AltFactor" = 1.00753   $ IP Non-Tech
 "BldgEconoFlag" = 1   $ IP Non-Tech
 "BlrPrimLp" = BlrPrimLoop   $ IP Non-Tech
 "Break_EWSF" = 1   $ IP Non-Tech
 "Break_LWSF" = 1.1   $ IP Non-Tech
 "CDD_DBHi10" = 65   $ IP Non-Tech
 "CDD_DBHi7" = 68   $ IP Non-Tech
 "CDD_DBHi8" = 66   $ IP Non-Tech
 "CDD_DBHi9" = 77   $ IP Non-Tech
 "CDD_DBRange10" = 17   $ IP Non-Tech
 "CDD_DBRange7" = 11   $ IP Non-Tech
 "CDD_DBRange8" = 10   $ IP Non-Tech
 "CDD_DBRange9" = 29   $ IP Non-Tech
 "CDD_Day10" = 15   $ IP Non-Tech
 "CDD_Day7" = 16   $ IP Non-Tech
 "CDD_Day8" = 20   $ IP Non-Tech
 "CDD_Day9" = 17   $ IP Non-Tech
 "CDD_HrHi10" = 12   $ IP Non-Tech
 "CDD_HrHi7" = 12   $ IP Non-Tech
 "CDD_HrHi8" = 13   $ IP Non-Tech
 "CDD_HrHi9" = 17   $ IP Non-Tech
 "CDD_HrLo10" = 6   $ IP Non-Tech
 "CDD_HrLo7" = 3   $ IP Non-Tech
 "CDD_HrLo8" = 8   $ IP Non-Tech
 "CDD_HrLo9" = 4   $ IP Non-Tech
 "CDD_WB10" = 57.53039551   $ IP Non-Tech
 "CDD_WB7" = 59.29250717   $ IP Non-Tech
 "CDD_WB8" = 60.75350189   $ IP Non-Tech
 "CDD_WB9" = 61.08643341   $ IP Non-Tech
 "CZ_Category" = Tem   $ IP Non-Tech
 "ChwVintEconoFlag" = 1   $ IP Non-Tech
 "CompRoomData_EWSF" = 5.25   $ IP Non-Tech
 "CompRoomData_LWSF" = 1.2   $ IP Non-Tech
 "Conference_EWSF" = 1.05   $ IP Non-Tech
 "Conference_LWSF" = 1.4   $ IP Non-Tech
 "CoolSetT" = 45   $ IP Non-Tech
 "CoolType" = DX   $ IP Non-Tech
 "CopyRoom_EWSF" = 1.575   $ IP Non-Tech
 "CopyRoom_LWSF" = 1.3   $ IP Non-Tech
 "DesCoolT" = 75   $ IP Non-Tech
 "DesHeatT" = 73   $ IP Non-Tech
 "EconoEnthLimit" = 28   $ IP Non-Tech
 "EconoTempLimit" = 70   $ IP Non-Tech
 "Elevation" = 203   $ IP Non-Tech
 "HDD_CloudAmt1" = 0   $ IP Non-Tech
 "HDD_DBHi1" = 53   $ IP Non-Tech
 "HDD_DBRange1" = 20   $ IP Non-Tech
 "HDD_Day1" = 15   $ IP Non-Tech
 "HDD_HrHi1" = 14   $ IP Non-Tech
 "HDD_HrLo1" = 6   $ IP Non-Tech
 "HDD_WB1" = 42.3   $ IP Non-Tech
 "HDD_WindSpd1" = 12.7   $ IP Non-Tech
 "Hall_EWSF" = 0.21   $ IP Non-Tech
 "Hall_LWSF" = 0.6   $ IP Non-Tech
 "HeatSrc" = HOT-WATER   $ IP Non-Tech
 "HeatSrcTU" = HOT-WATER   $ IP Non-Tech
 "HeatType" = GasBlr   $ IP Non-Tech
 "HeatTypeTU" = HOT-WATER   $ IP Non-Tech
 "HwDesignDT" = 30   $ IP Non-Tech
 "HwPipeHead" = 40   $ IP Non-Tech
 "HwRetDT" = 0.3   $ IP Non-Tech
 "HwSupDT" = 0.5   $ IP Non-Tech
 "IndoorFanMode" = CONTINUOUS   $ IP Non-Tech
 "KT_TransferAir" = No   $ IP Non-Tech
 "Latitude" = 40.8   $ IP Non-Tech
 "LobbyWaiting_EWSF" = 0.5125   $ IP Non-Tech
 "LobbyWaiting_LWSF" = 1.3   $ IP Non-Tech
 "Longitude" = 124.2   $ IP Non-Tech
 "LtgMsrApplic" = ALL   $ Msr TechID: NonResLtgRefMsr-HB
 "LtgSav_CFL" = 0   $ Msr TechID: NonResLtgRefMsr-HB
 "LtgSav_EX" = 0   $ Msr TechID: NonResLtgRefMsr-HB
 "LtgSav_HB" = 0.3   $ Msr TechID: NonResLtgRefMsr-HB
 "LtgSav_LF" = 0   $ Msr TechID: NonResLtgRefMsr-HB
 "LtgSav_SP" = 0   $ Msr TechID: NonResLtgRefMsr-HB
 "MZFanMechEff" = 0.58   $ IP Non-Tech
 "MZHasRetFan" = FALSE   $ IP Non-Tech
 "MZ_RFanWPerCfm" = 0.33   $ IP Non-Tech
 "MZ_SFanWPerCfm" = 0.75   $ IP Non-Tech
 "MZ_SupFanStatic" = 4   $ IP Non-Tech
 "MaxSupT_MZ" = 95   $ IP Non-Tech
 "MaxSupT_SZ" = 100   $ IP Non-Tech
 "MaxSupT_TU" = 90   $ IP Non-Tech
 "MechElecRoom_EWSF" = 0.21   $ IP Non-Tech
 "MechElecRoom_LWSF" = 0.7   $ IP Non-Tech
 "MinCfmPerSF" = 0.4   $ IP Non-Tech
 "MinSupT" = 55   $ IP Non-Tech
 "NumBlrs" = 1   $ IP Non-Tech
 "OccCoolT" = 76   $ IP Non-Tech
 "OccHeatT" = 72   $ IP Non-Tech
 "OfficeOpen_EWSF" = 1.575   $ IP Non-Tech
 "OfficeOpen_LWSF" = 1.2   $ IP Non-Tech
 "OfficeSmall_EWSF" = 1.575   $ IP Non-Tech
 "OfficeSmall_LWSF" = 1.3   $ IP Non-Tech
 "PkgDxVintEconoFlag" = 0   $ IP Non-Tech
 "ReheatDeltaT" = 39   $ IP Non-Tech
 "Restroom_EWSF" = 0.21   $ IP Non-Tech
 "Restroom_LWSF" = 0.6   $ IP Non-Tech
 "SZFanMechEff" = 0.58   $ IP Non-Tech
 "SZHasRetFan" = FALSE   $ IP Non-Tech
 "SZ_Is_2Spd" = FALSE   $ IP Non-Tech
 "SZ_SFanWPerCfm" = 0.46   $ IP Non-Tech
 "StorageSmlCond_EWSF" = 0.21   $ IP Non-Tech
 "StorageSmlCond_LWSF" = 0.6   $ IP Non-Tech
 "T24GlzTbl" = CZTbl   $ IP Non-Tech
 "TermUnitFanMechEff" = 1   $ IP Non-Tech
 "TermUnitFanMode" = INTERMITTENT   $ IP Non-Tech
 "TwrSetpt" = 80   $ IP Non-Tech
 "UnocCoolT" = 86   $ IP Non-Tech
 "UnocHeatT" = 62   $ IP Non-Tech
 "VAVMinFlow" = 0.3   $ IP Non-Tech
 "WlhpVintEconoFlag" = 0   $ IP Non-Tech
 "EconoCtrl" = OA-TEMP   $ IP Tech: AirEcono-OATemp
 "MaxOAFrac" = 0.85   $ IP Tech: AirEcono-OATemp
 "UseEconoVintApplic" = FALSE   $ IP Tech: AirEcono-OATemp
 "DuctDT" = 2   $ IP Tech: ComDuctInsul-2
 "DuctAirLoss" = 0   $ IP Tech: ComDuctLeak-0
 "DuctLossOAFrac" = 0   $ IP Tech: ComDuctLeak-0
 "ComRoofInsCalc" = FromUo   $ IP Tech: ComRoofIns-WFrm-0.06
 "ComRoofInsR" = -999   $ IP Tech: ComRoofIns-WFrm-0.06
 "ComRoofUo" = 0.06   $ IP Tech: ComRoofIns-WFrm-0.06
 "ComEWInsCalc" = FromUo   $ IP Tech: ComWallIns-WFrm-0.08
 "ComEWInsR" = -999   $ IP Tech: ComWallIns-WFrm-0.08
 "ComEWUo" = 0.08   $ IP Tech: ComWallIns-WFrm-0.08
 "HW_FlowCtrl" = Const   $ IP Tech: HwFlowCtrlCst
 "HW_HdSensLoc" = AT-COILS   $ IP Tech: HwFlowCtrlCst
 "HW_HdSptCtrl" = FIXED   $ IP Tech: HwFlowCtrlCst
 "HWP_Encl" = Any   $ IP Tech: HwPumpMtrEff-HI
 "HWP_MotClass" = HI-EFF   $ IP Tech: HwPumpMtrEff-HI
 "HWP_MotHP" = Any   $ IP Tech: HwPumpMtrEff-HI
 "HWP_NEMA_DC" = Any   $ IP Tech: HwPumpMtrEff-HI
 "HWP_RPM" = Any   $ IP Tech: HwPumpMtrEff-HI
 "HWP_Volt" = Any   $ IP Tech: HwPumpMtrEff-HI
 "HWResetOutsideHi" = -1   $ IP Tech: HwTempCtrlFixed
 "HWResetOutsideLo" = -1   $ IP Tech: HwTempCtrlFixed
 "HW_TempCtrl" = FIXED   $ IP Tech: HwTempCtrlFixed
 "ComN_SHGC" = 0.77   $ IP Tech: NResWin-ComN-0.77-0.77
 "ComN_UFactor" = 0.77   $ IP Tech: NResWin-ComN-0.77-0.77
 "ComN_VisTrans" = 0.81   $ IP Tech: NResWin-ComN-0.77-0.77
 "ComN_WinCode" = G2000   $ IP Tech: NResWin-ComN-0.77-0.77
 "ComN_WinFrmFrac" = 0.17   $ IP Tech: NResWin-ComN-0.77-0.77
 "ComN_WinFrmU" = 1   $ IP Tech: NResWin-ComN-0.77-0.77
 "ComO_SHGC" = 0.5   $ IP Tech: NResWin-ComO-0.77-0.5
 "ComO_UFactor" = 0.77   $ IP Tech: NResWin-ComO-0.77-0.5
 "ComO_VisTrans" = 0.77   $ IP Tech: NResWin-ComO-0.77-0.5
 "ComO_WinCode" = G2630   $ IP Tech: NResWin-ComO-0.77-0.5
 "ComO_WinFrmFrac" = 0.17   $ IP Tech: NResWin-ComO-0.77-0.5
 "ComO_WinFrmU" = 1   $ IP Tech: NResWin-ComO-0.77-0.5
 "PV_BF_fFlow" = PVV240to760_BF_fFlow   $ IP Tech: PVVAC-H-240to760-E10
 "PV_BF_fT" = PVV240to760_BF_fT   $ IP Tech: PVVAC-H-240to760-E10
 "PV_CEIR_fPLR" = PVV240to760_CEIR_fPLR   $ IP Tech: PVVAC-H-240to760-E10
 "PV_CLoss_fPLR" = PVV240to760_CLoss_fPLR   $ IP Tech: PVVAC-H-240to760-E10
 "PV_COP" = -1   $ IP Tech: PVVAC-H-240to760-E10
 "PV_COP47" = -1   $ IP Tech: PVVAC-H-240to760-E10
 "PV_CfmPerBtuh" = 0.02917   $ IP Tech: PVVAC-H-240to760-E10
 "PV_ClCap_fT" = PVV240to760_ClCap_fT   $ IP Tech: PVVAC-H-240to760-E10
 "PV_ClSH_fT" = PVV240to760_ClSH_fT   $ IP Tech: PVVAC-H-240to760-E10
 "PV_CoilBF" = 0.125   $ IP Tech: PVVAC-H-240to760-E10
 "PV_CondWPerBtuh" = 0   $ IP Tech: PVVAC-H-240to760-E10
 "PV_CoolSensCap" = 0.708   $ IP Tech: PVVAC-H-240to760-E10
 "PV_CoolingEIR" = 0.27165   $ IP Tech: PVVAC-H-240to760-E10
 "PV_CrnkEIR" = 0.0027   $ IP Tech: PVVAC-H-240to760-E10
 "PV_CrnkMaxT" = 50   $ IP Tech: PVVAC-H-240to760-E10
 "PV_DXType" = PVV   $ IP Tech: PVVAC-H-240to760-E10
 "PV_EER" = 9.17   $ IP Tech: PVVAC-H-240to760-E10
 "PV_EIR_fT" = PVV240to760_EIR_fT   $ IP Tech: PVVAC-H-240to760-E10
 "PV_FanEirPlr" = NA   $ IP Tech: PVVAC-H-240to760-E10
 "PV_FanWPerCfm" = 0.736   $ IP Tech: PVVAC-H-240to760-E10
 "PV_HIR_fT" = DEFAULT   $ IP Tech: PVVAC-H-240to760-E10
 "PV_HtCap_fT" = DEFAULT   $ IP Tech: PVVAC-H-240to760-E10
 "PV_HtCoolCapRatio" = -1   $ IP Tech: PVVAC-H-240to760-E10
 "PV_HtgEIR" = -1   $ IP Tech: PVVAC-H-240to760-E10
 "PV_HtgFuel" = HW   $ IP Tech: PVVAC-H-240to760-E10
 "PV_IEER" = 11.44   $ IP Tech: PVVAC-H-240to760-E10
 "PV_LowSpdCapRatio" = 0.17   $ IP Tech: PVVAC-H-240to760-E10
 "PV_LowSpdCfmRatio" = 0.24   $ IP Tech: PVVAC-H-240to760-E10
 "PV_NominalCap" = 40   $ IP Tech: PVVAC-H-240to760-E10
 "PV_NumStages" = 1   $ IP Tech: PVVAC-H-240to760-E10
 "PV_RatedEER" = 10   $ IP Tech: PVVAC-H-240to760-E10
 "PV_RatedSupMtrClass" = HiEff   $ IP Tech: PVVAC-H-240to760-E10
 "PV_SizeRange" = 240to760   $ IP Tech: PVVAC-H-240to760-E10
 "PV_SubType" = AC   $ IP Tech: PVVAC-H-240to760-E10
 "PV_SupMotEff" = 0.91   $ IP Tech: PVVAC-H-240to760-E10
 "PV_Tier" = 0   $ IP Tech: PVVAC-H-240to760-E10
 "PV_TotCoolCap" = 485760   $ IP Tech: PVVAC-H-240to760-E10
 "BF_fFlow" = PSZ65to135_BF_fFlow   $ IP Tech: PkgAC1SpH-65to135-E10
 "BF_fT" = PSZ65to135_BF_fT   $ IP Tech: PkgAC1SpH-65to135-E10
 "CEIR_fPLR" = PSZ65to135_CEIR_fPLR   $ IP Tech: PkgAC1SpH-65to135-E10
 "CLoss_fPLR" = PSZ65to135_CLoss_fPLR   $ IP Tech: PkgAC1SpH-65to135-E10
 "COP" = -1   $ IP Tech: PkgAC1SpH-65to135-E10
 "COP47" = -1   $ IP Tech: PkgAC1SpH-65to135-E10
 "CfmPerBtuh" = 0.02917   $ IP Tech: PkgAC1SpH-65to135-E10
 "ClCap_fT" = PSZ65to135_ClCap_fT   $ IP Tech: PkgAC1SpH-65to135-E10
 "ClSH_fT" = PSZ65to135_ClSH_fT   $ IP Tech: PkgAC1SpH-65to135-E10
 "CoilBF" = 0.114   $ IP Tech: PkgAC1SpH-65to135-E10
 "CondWPerBtuh" = 0   $ IP Tech: PkgAC1SpH-65to135-E10
 "CoolSensCap" = 0.663   $ IP Tech: PkgAC1SpH-65to135-E10
 "CoolingEIR" = 0.29745   $ IP Tech: PkgAC1SpH-65to135-E10
 "CrnkEIR" = 0.01   $ IP Tech: PkgAC1SpH-65to135-E10
 "CrnkMaxT" = 50   $ IP Tech: PkgAC1SpH-65to135-E10
 "DXType" = Pkg   $ IP Tech: PkgAC1SpH-65to135-E10
 "EER" = 9.67   $ IP Tech: PkgAC1SpH-65to135-E10
 "EIR_fT" = PSZ65to135_EIR_fT   $ IP Tech: PkgAC1SpH-65to135-E10
 "FanEirPlr" = TwoSpeedFan   $ IP Tech: PkgAC1SpH-65to135-E10
 "FanWPerCfm" = 0.412   $ IP Tech: PkgAC1SpH-65to135-E10
 "HIR_fT" = DEFAULT   $ IP Tech: PkgAC1SpH-65to135-E10
 "HtCap_fT" = DEFAULT   $ IP Tech: PkgAC1SpH-65to135-E10
 "HtCoolCapRatio" = -1   $ IP Tech: PkgAC1SpH-65to135-E10
 "HtgEIR" = -1   $ IP Tech: PkgAC1SpH-65to135-E10
 "HtgFuel" = Gas   $ IP Tech: PkgAC1SpH-65to135-E10
 "IEER" = 11.87   $ IP Tech: PkgAC1SpH-65to135-E10
 "LowSpdCapRatio" = 0.5   $ IP Tech: PkgAC1SpH-65to135-E10
 "LowSpdCfmRatio" = 0.66   $ IP Tech: PkgAC1SpH-65to135-E10
 "NominalCap" = 15   $ IP Tech: PkgAC1SpH-65to135-E10
 "NumStages" = 1   $ IP Tech: PkgAC1SpH-65to135-E10
 "RatedEER" = 10   $ IP Tech: PkgAC1SpH-65to135-E10
 "RatedSupMtrClass" = HiEff   $ IP Tech: PkgAC1SpH-65to135-E10
 "SizeRange" = 65to135   $ IP Tech: PkgAC1SpH-65to135-E10
 "SubType" = AC   $ IP Tech: PkgAC1SpH-65to135-E10
 "SupMotEff" = 0.84   $ IP Tech: PkgAC1SpH-65to135-E10
 "Tier" = 0   $ IP Tech: PkgAC1SpH-65to135-E10
 "TotCoolCap" = 184140   $ IP Tech: PkgAC1SpH-65to135-E10
 "BFMult" = 1   $ IP Tech: RefgChg-NRes-Std
 "CoolEirMult" = 1   $ IP Tech: RefgChg-NRes-Std
 "SensCoolCapMult" = 1   $ IP Tech: RefgChg-NRes-Std
 "TotCoolCapMult" = 1   $ IP Tech: RefgChg-NRes-Std
 "SATempCtrl" = RESET   $ IP Tech: SATempCtrl-Reset
 "FanEIR_fPLR" = "ForCurve w Inlet Vanes FPLR"   $ IP Tech: VAVCtrl-Inlet-AnyHP
 "Fan_Control" = Inlet   $ IP Tech: VAVCtrl-Inlet-AnyHP
 "Motor_Horsepower" = AnyHP   $ IP Tech: VAVCtrl-Inlet-AnyHP
 "BlrCapRange" = lt300   $ IP Tech: WBlr-lt300-80p0AF
 "BlrDraftType" = FDr   $ IP Tech: WBlr-lt300-80p0AF
 "BlrEff" = 0.8   $ IP Tech: WBlr-lt300-80p0AF
 "BlrEffUnits" = AFUE   $ IP Tech: WBlr-lt300-80p0AF
 "BlrEt" = 0.805   $ IP Tech: WBlr-lt300-80p0AF
 "BlrFluid" = Wtr   $ IP Tech: WBlr-lt300-80p0AF
 "BlrIsCond" = FALSE   $ IP Tech: WBlr-lt300-80p0AF
 "BlrT" = 165   $ IP Tech: WBlr-lt300-80p0AF
 "AltAdjFactor" = 1.007532   $ Sizing
 "CAssFlo_L_Break_CZn" = 264.7415   $ Sizing
 "CAssFlo_L_CompDC_CZn" = 162.9631   $ Sizing
 "CAssFlo_L_Conf_CZn" = 186.9512   $ Sizing
 "CAssFlo_L_CopyRm_CZn" = 50.72986   $ Sizing
 "CAssFlo_L_Hall_EZn" = 134.225   $ Sizing
 "CAssFlo_L_Hall_NZn" = 75.68985   $ Sizing
 "CAssFlo_L_Hall_SZn" = 156.0401   $ Sizing
 "CAssFlo_L_Hall_WZn" = 138.3514   $ Sizing
 "CAssFlo_L_LobWait_EZn" = 320.2288   $ Sizing
 "CAssFlo_L_LobWait_NZn" = 157.4734   $ Sizing
 "CAssFlo_L_LobWait_SZn" = 365.1233   $ Sizing
 "CAssFlo_L_LobWait_WZn" = 321.0245   $ Sizing
 "CAssFlo_L_MechElec_CZn" = 65.93681   $ Sizing
 "CAssFlo_L_OfficeOpn_CZn" = 52.07708   $ Sizing
 "CAssFlo_L_OfficeOpn_EZn" = 622.1186   $ Sizing
 "CAssFlo_L_OfficeOpn_NZn" = 246.9358   $ Sizing
 "CAssFlo_L_OfficeOpn_SZn" = 650.3428   $ Sizing
 "CAssFlo_L_OfficeOpn_WZn" = 591.9995   $ Sizing
 "CAssFlo_L_OfficeSm_EZn" = 539.4513   $ Sizing
 "CAssFlo_L_OfficeSm_NZn" = 190.5673   $ Sizing
 "CAssFlo_L_OfficeSm_SZn" = 581.7176   $ Sizing
 "CAssFlo_L_OfficeSm_WZn" = 526.1267   $ Sizing
 "CAssFlo_L_Restrm_CZn" = 86.07105   $ Sizing
 "CAssFlo_L_StorSm_CZn" = 34.1321   $ Sizing
 "CAssFlo_L_StorSm_EZn" = 122.7631   $ Sizing
 "CAssFlo_L_StorSm_NZn" = 80.43052   $ Sizing
 "CAssFlo_L_StorSm_SZn" = 140.2324   $ Sizing
 "CAssFlo_L_StorSm_WZn" = 123.5293   $ Sizing
 "CAssFlo_T_Conf_CZn" = 200.2905   $ Sizing
 "CAssFlo_T_Hall_EZn" = 154.2751   $ Sizing
 "CAssFlo_T_Hall_NZn" = 71.72683   $ Sizing
 "CAssFlo_T_Hall_SZn" = 180.1788   $ Sizing
 "CAssFlo_T_Hall_WZn" = 153.7215   $ Sizing
 "CAssFlo_T_OfficeOpn_CZn" = 49.59757   $ Sizing
 "CAssFlo_T_OfficeOpn_EZn" = 632.4681   $ Sizing
 "CAssFlo_T_OfficeOpn_NZn" = 285.2659   $ Sizing
 "CAssFlo_T_OfficeOpn_SZn" = 702.9755   $ Sizing
 "CAssFlo_T_OfficeOpn_WZn" = 601.5275   $ Sizing
 "CAssFlo_T_OfficeSm_EZn" = 561.5168   $ Sizing
 "CAssFlo_T_OfficeSm_NZn" = 226.3222   $ Sizing
 "CAssFlo_T_OfficeSm_SZn" = 634.3428   $ Sizing
 "CAssFlo_T_OfficeSm_WZn" = 548.7297   $ Sizing
 "CAssFlo_T_Restrm_CZn" = 88.0905   $ Sizing
 "CAssFlo_T_StorSm_EZn" = 144.3556   $ Sizing
 "CAssFlo_T_StorSm_NZn" = 77.26691   $ Sizing
 "CAssFlo_T_StorSm_SZn" = 167.6338   $ Sizing
 "CAssFlo_T_StorSm_WZn" = 145.9958   $ Sizing
 "CHRtFlo_L_Break_CZn" = 185.4956   $ Sizing
 "CHRtFlo_L_CompDC_CZn" = 48.88892   $ Sizing
 "CHRtFlo_L_Conf_CZn" = 143.3872   $ Sizing
 "CHRtFlo_L_CopyRm_CZn" = 50.72986   $ Sizing
 "CHRtFlo_L_Hall_EZn" = 65.76646   $ Sizing
 "CHRtFlo_L_Hall_NZn" = 75.68985   $ Sizing
 "CHRtFlo_L_Hall_SZn" = 46.81203   $ Sizing
 "CHRtFlo_L_Hall_WZn" = 64.6291   $ Sizing
 "CHRtFlo_L_LobWait_EZn" = 136.556   $ Sizing
 "CHRtFlo_L_LobWait_NZn" = 157.4734   $ Sizing
 "CHRtFlo_L_LobWait_SZn" = 109.537   $ Sizing
 "CHRtFlo_L_LobWait_WZn" = 134.5417   $ Sizing
 "CHRtFlo_L_MechElec_CZn" = 43.04401   $ Sizing
 "CHRtFlo_L_OfficeOpn_CZn" = 37.85776   $ Sizing
 "CHRtFlo_L_OfficeOpn_EZn" = 186.6356   $ Sizing
 "CHRtFlo_L_OfficeOpn_NZn" = 180.0184   $ Sizing
 "CHRtFlo_L_OfficeOpn_SZn" = 195.1029   $ Sizing
 "CHRtFlo_L_OfficeOpn_WZn" = 177.5999   $ Sizing
 "CHRtFlo_L_OfficeSm_EZn" = 161.8354   $ Sizing
 "CHRtFlo_L_OfficeSm_NZn" = 167.594   $ Sizing
 "CHRtFlo_L_OfficeSm_SZn" = 174.5153   $ Sizing
 "CHRtFlo_L_OfficeSm_WZn" = 157.838   $ Sizing
 "CHRtFlo_L_Restrm_CZn" = 57.57117   $ Sizing
 "CHRtFlo_L_StorSm_CZn" = 34.1321   $ Sizing
 "CHRtFlo_L_StorSm_EZn" = 70.38706   $ Sizing
 "CHRtFlo_L_StorSm_NZn" = 80.43052   $ Sizing
 "CHRtFlo_L_StorSm_SZn" = 42.06971   $ Sizing
 "CHRtFlo_L_StorSm_WZn" = 62.56536   $ Sizing
 "CHRtFlo_T_Conf_CZn" = 143.3872   $ Sizing
 "CHRtFlo_T_Hall_EZn" = 64.87656   $ Sizing
 "CHRtFlo_T_Hall_NZn" = 71.72683   $ Sizing
 "CHRtFlo_T_Hall_SZn" = 54.05364   $ Sizing
 "CHRtFlo_T_Hall_WZn" = 62.93433   $ Sizing
 "CHRtFlo_T_OfficeOpn_CZn" = 26.95459   $ Sizing
 "CHRtFlo_T_OfficeOpn_EZn" = 189.7404   $ Sizing
 "CHRtFlo_T_OfficeOpn_NZn" = 170.6867   $ Sizing
 "CHRtFlo_T_OfficeOpn_SZn" = 210.8927   $ Sizing
 "CHRtFlo_T_OfficeOpn_WZn" = 180.4583   $ Sizing
 "CHRtFlo_T_OfficeSm_EZn" = 168.4551   $ Sizing
 "CHRtFlo_T_OfficeSm_NZn" = 156.1176   $ Sizing
 "CHRtFlo_T_OfficeSm_SZn" = 190.3028   $ Sizing
 "CHRtFlo_T_OfficeSm_WZn" = 164.6189   $ Sizing
 "CHRtFlo_T_Restrm_CZn" = 88.0905   $ Sizing
 "CHRtFlo_T_StorSm_EZn" = 69.68936   $ Sizing
 "CHRtFlo_T_StorSm_NZn" = 77.26691   $ Sizing
 "CHRtFlo_T_StorSm_SZn" = 50.29013   $ Sizing
 "CHRtFlo_T_StorSm_WZn" = 67.36552   $ Sizing
 "CRtdFlo_Sys_L" = 4663.021   $ Sizing
 "CRtdFlo_Sys_T" = 4046.01   $ Sizing
 "CSupFlo_Sys_L" = 4663.021   $ Sizing
 "CSupFlo_Sys_T" = 4046.01   $ Sizing
 "Cap_Boiler1" = -0.1838722   $ Sizing
 "ClCap_Sys_L" = 160514.3   $ Sizing
 "ClCap_Sys_T" = 139678.7   $ Sizing
 "HRtEDB_L_Break_CZn" = 56.31937   $ Sizing
 "HRtEDB_L_CompDC_CZn" = 56.31937   $ Sizing
 "HRtEDB_L_Conf_CZn" = 56.31937   $ Sizing
 "HRtEDB_L_CopyRm_CZn" = 56.31937   $ Sizing
 "HRtEDB_L_Hall_EZn" = 56.46426   $ Sizing
 "HRtEDB_L_Hall_NZn" = 56.46426   $ Sizing
 "HRtEDB_L_Hall_SZn" = 56.46426   $ Sizing
 "HRtEDB_L_Hall_WZn" = 56.46426   $ Sizing
 "HRtEDB_L_LobWait_EZn" = 56.31937   $ Sizing
 "HRtEDB_L_LobWait_NZn" = 56.46426   $ Sizing
 "HRtEDB_L_LobWait_SZn" = 56.46426   $ Sizing
 "HRtEDB_L_LobWait_WZn" = 56.46426   $ Sizing
 "HRtEDB_L_MechElec_CZn" = 56.46426   $ Sizing
 "HRtEDB_L_OfficeOpn_CZn" = 56.31937   $ Sizing
 "HRtEDB_L_OfficeOpn_EZn" = 56.31937   $ Sizing
 "HRtEDB_L_OfficeOpn_NZn" = 56.31937   $ Sizing
 "HRtEDB_L_OfficeOpn_SZn" = 56.31937   $ Sizing
 "HRtEDB_L_OfficeOpn_WZn" = 56.31937   $ Sizing
 "HRtEDB_L_OfficeSm_EZn" = 56.31937   $ Sizing
 "HRtEDB_L_OfficeSm_NZn" = 56.31937   $ Sizing
 "HRtEDB_L_OfficeSm_SZn" = 56.31937   $ Sizing
 "HRtEDB_L_OfficeSm_WZn" = 56.31937   $ Sizing
 "HRtEDB_L_Restrm_CZn" = 56.46426   $ Sizing
 "HRtEDB_L_StorSm_CZn" = 56.46426   $ Sizing
 "HRtEDB_L_StorSm_EZn" = 56.46426   $ Sizing
 "HRtEDB_L_StorSm_NZn" = 56.46426   $ Sizing
 "HRtEDB_L_StorSm_SZn" = 56.46426   $ Sizing
 "HRtEDB_L_StorSm_WZn" = 56.46426   $ Sizing
 "HRtEDB_T_Conf_CZn" = 55.71239   $ Sizing
 "HRtEDB_T_Hall_EZn" = 55.30995   $ Sizing
 "HRtEDB_T_Hall_NZn" = 55.30995   $ Sizing
 "HRtEDB_T_Hall_SZn" = 55.30995   $ Sizing
 "HRtEDB_T_Hall_WZn" = 55.30995   $ Sizing
 "HRtEDB_T_OfficeOpn_CZn" = 55.71239   $ Sizing
 "HRtEDB_T_OfficeOpn_EZn" = 55.71239   $ Sizing
 "HRtEDB_T_OfficeOpn_NZn" = 55.71239   $ Sizing
 "HRtEDB_T_OfficeOpn_SZn" = 55.71239   $ Sizing
 "HRtEDB_T_OfficeOpn_WZn" = 55.71239   $ Sizing
 "HRtEDB_T_OfficeSm_EZn" = 55.71239   $ Sizing
 "HRtEDB_T_OfficeSm_NZn" = 55.71239   $ Sizing
 "HRtEDB_T_OfficeSm_SZn" = 55.71239   $ Sizing
 "HRtEDB_T_OfficeSm_WZn" = 55.71239   $ Sizing
 "HRtEDB_T_Restrm_CZn" = 55.30995   $ Sizing
 "HRtEDB_T_StorSm_EZn" = 55.30995   $ Sizing
 "HRtEDB_T_StorSm_NZn" = 55.30995   $ Sizing
 "HRtEDB_T_StorSm_SZn" = 55.30995   $ Sizing
 "HRtEDB_T_StorSm_WZn" = 55.30995   $ Sizing
 "HWDT_Boiler1" = 25.00482   $ Sizing
 "HtCap_L_Break_CZn" = -7729.599   $ Sizing
 "HtCap_L_CompDC_CZn" = -2037.201   $ Sizing
 "HtCap_L_Conf_CZn" = -5974.943   $ Sizing
 "HtCap_L_CopyRm_CZn" = -2113.912   $ Sizing
 "HtCap_L_Hall_EZn" = -2730.955   $ Sizing
 "HtCap_L_Hall_NZn" = -3143.025   $ Sizing
 "HtCap_L_Hall_SZn" = -1943.872   $ Sizing
 "HtCap_L_Hall_WZn" = -2683.727   $ Sizing
 "HtCap_L_LobWait_EZn" = -5690.288   $ Sizing
 "HtCap_L_LobWait_NZn" = -6539.089   $ Sizing
 "HtCap_L_LobWait_SZn" = -4548.529   $ Sizing
 "HtCap_L_LobWait_WZn" = -5586.85   $ Sizing
 "HtCap_L_MechElec_CZn" = -1787.405   $ Sizing
 "HtCap_L_OfficeOpn_CZn" = -1577.532   $ Sizing
 "HtCap_L_OfficeOpn_EZn" = -7777.102   $ Sizing
 "HtCap_L_OfficeOpn_NZn" = -7501.364   $ Sizing
 "HtCap_L_OfficeOpn_SZn" = -8129.933   $ Sizing
 "HtCap_L_OfficeOpn_WZn" = -7400.583   $ Sizing
 "HtCap_L_OfficeSm_EZn" = -6743.678   $ Sizing
 "HtCap_L_OfficeSm_NZn" = -6983.64   $ Sizing
 "HtCap_L_OfficeSm_SZn" = -7272.049   $ Sizing
 "HtCap_L_OfficeSm_WZn" = -6577.107   $ Sizing
 "HtCap_L_Restrm_CZn" = -2390.646   $ Sizing
 "HtCap_L_StorSm_CZn" = -1417.337   $ Sizing
 "HtCap_L_StorSm_EZn" = -2922.826   $ Sizing
 "HtCap_L_StorSm_NZn" = -3339.881   $ Sizing
 "HtCap_L_StorSm_SZn" = -1746.947   $ Sizing
 "HtCap_L_StorSm_WZn" = -2598.03   $ Sizing
 "HtCap_T_Conf_CZn" = -6068.701   $ Sizing
 "HtCap_T_Hall_EZn" = -2774.593   $ Sizing
 "HtCap_T_Hall_NZn" = -3067.56   $ Sizing
 "HtCap_T_Hall_SZn" = -2311.726   $ Sizing
 "HtCap_T_Hall_WZn" = -2691.529   $ Sizing
 "HtCap_T_OfficeOpn_CZn" = -1140.822   $ Sizing
 "HtCap_T_OfficeOpn_EZn" = -8030.548   $ Sizing
 "HtCap_T_OfficeOpn_NZn" = -7224.12   $ Sizing
 "HtCap_T_OfficeOpn_SZn" = -8925.792   $ Sizing
 "HtCap_T_OfficeOpn_WZn" = -7637.69   $ Sizing
 "HtCap_T_OfficeSm_EZn" = -7129.668   $ Sizing
 "HtCap_T_OfficeSm_NZn" = -6607.499   $ Sizing
 "HtCap_T_OfficeSm_SZn" = -8054.351   $ Sizing
 "HtCap_T_OfficeSm_WZn" = -6967.309   $ Sizing
 "HtCap_T_Restrm_CZn" = -3767.39   $ Sizing
 "HtCap_T_StorSm_EZn" = -2980.423   $ Sizing
 "HtCap_T_StorSm_NZn" = -3304.494   $ Sizing
 "HtCap_T_StorSm_SZn" = -2150.771   $ Sizing
 "HtCap_T_StorSm_WZn" = -2881.039   $ Sizing
 "LpFlo_BlrPrimLoop" = 14.54969   $ Sizing
 "LpFlo_CircLp_Hw_All" = 14.54969   $ Sizing
 "SUtime_Boiler1" = 0.083   $ Sizing
..

##include Templates\OfS_DX_MZ.inp
END ..
COMPUTE ..
STOP ..
