
Start DOESIM : Storage capacity =  75000000
Starting LOADS   : SAVE-FILES is On , weather is CZ03OAKLAND-METROPOL
Finished LOADS    BDL  1 : Memory (wds) =    279067, Time (sec) =    1.54
Starting REPORT  
Finished REPORT   BDL  1 : Memory (wds) =    548546, Time (sec) =    0.62
Starting HVAC    : SAVE-FILES is On , weather is CZ03OAKLAND-METROPOL
*** ERRORS or WARNINGS from HVAC     program. Examine output file for details.
Finished HVAC     BDL  1 : Memory (wds) =    483173, Time (sec) =    6.99
Starting REPORT  
Finished REPORT   BDL  1 : Memory (wds) =    850136, Time (sec) =    0.62
Starting HOURLY-R
Finished HOURLY-R BDL  1 : Memory (wds) =   1086332, Time (sec) =    0.16
Starting ECONOMIC
Finished ECONOMIC BDL  1 : Memory (wds) =      1034, Time (sec) =    0.02
End   DOESIM : Total elapsed time of     10.0 seconds
RUN COMPLETE
