INPUT ..

##fileprefix C:\Users\jglasskatz\MASControl3\
##set1 IsSizing FALSE
##set1 CoolType DX
##set1 HeatType FURNACE
##set1 EU_HrRepVar 0
##set1 BldgVint 2017
##set1 BldgLoc CZ04

 ##set1 mBFMult 1   $ IP Tech: RefgChg-NRes-Std

PARAMETER
 "AltFactor" = 1.00501   $ IP Non-Tech
 "BF_fFlow" = SpltAC1Sp-lt45_BF_fFlow   $ Msr (Var)TechID: PreNResSplitAC-lt45-PENo
 "BF_fT" = SpltAC1Sp-lt45_BF_fT   $ Msr (Var)TechID: PreNResSplitAC-lt45-PENo
 "BldgEconoFlag" = 1   $ IP Non-Tech
 "Break_EWSF" = 1   $ IP Non-Tech
 "Break_LWSF" = 0.9   $ IP Non-Tech
 "CDD_DBHi10" = 82   $ IP Non-Tech
 "CDD_DBHi7" = 91   $ IP Non-Tech
 "CDD_DBHi8" = 88   $ IP Non-Tech
 "CDD_DBHi9" = 95   $ IP Non-Tech
 "CDD_DBRange10" = 29   $ IP Non-Tech
 "CDD_DBRange7" = 33   $ IP Non-Tech
 "CDD_DBRange8" = 27   $ IP Non-Tech
 "CDD_DBRange9" = 35   $ IP Non-Tech
 "CDD_Day10" = 15   $ IP Non-Tech
 "CDD_Day7" = 16   $ IP Non-Tech
 "CDD_Day8" = 20   $ IP Non-Tech
 "CDD_Day9" = 17   $ IP Non-Tech
 "CDD_HrHi10" = 13   $ IP Non-Tech
 "CDD_HrHi7" = 15   $ IP Non-Tech
 "CDD_HrHi8" = 14   $ IP Non-Tech
 "CDD_HrHi9" = 15   $ IP Non-Tech
 "CDD_HrLo10" = 3   $ IP Non-Tech
 "CDD_HrLo7" = 3   $ IP Non-Tech
 "CDD_HrLo8" = 1   $ IP Non-Tech
 "CDD_HrLo9" = 7   $ IP Non-Tech
 "CDD_WB10" = 63.1697731   $ IP Non-Tech
 "CDD_WB7" = 68.42946625   $ IP Non-Tech
 "CDD_WB8" = 67.10523987   $ IP Non-Tech
 "CDD_WB9" = 68.06200409   $ IP Non-Tech
 "CEIR_fPLR_Hot" = SpltAC1Sp-lt45_CEIR_fPLR_Hot   $ Msr (Var)TechID: PreNResSplitAC-lt45-PENo
 "CEIR_fPLR_Mod" = SpltAC1Sp-lt45_CEIR_fPLR_Mod   $ Msr (Var)TechID: PreNResSplitAC-lt45-PENo
 "CEIR_fPLR_Tem" = SpltAC1Sp-lt45_CEIR_fPLR_Tem   $ Msr (Var)TechID: PreNResSplitAC-lt45-PENo
 "CLoss_fPLR_Hot" = SpltAC1Sp-lt45_CLoss_fPLR_Hot   $ Msr (Var)TechID: PreNResSplitAC-lt45-PENo
 "CLoss_fPLR_Mod" = SpltAC1Sp-lt45_CLoss_fPLR_Mod   $ Msr (Var)TechID: PreNResSplitAC-lt45-PENo
 "CLoss_fPLR_Tem" = SpltAC1Sp-lt45_CLoss_fPLR_Tem   $ Msr (Var)TechID: PreNResSplitAC-lt45-PENo
 "COP47" = 0   $ Msr (Var)TechID: PreNResSplitAC-lt45-PENo
 "CZ_Category" = Mod   $ IP Non-Tech
 "CapRange" = lt45   $ Msr (Var)TechID: PreNResSplitAC-lt45-PENo
 "CfmPerBtuh" = 0.032504286   $ Msr (Var)TechID: PreNResSplitAC-lt45-PENo
 "ChwVintEconoFlag" = 1   $ IP Non-Tech
 "ClCap_fT" = SpltAC1Sp-lt45_ClCap_fT   $ Msr (Var)TechID: PreNResSplitAC-lt45-PENo
 "ClSH_fT" = SpltAC1Sp-lt45_ClSH_fT   $ Msr (Var)TechID: PreNResSplitAC-lt45-PENo
 "CoilBF" = 0.1212   $ Msr (Var)TechID: PreNResSplitAC-lt45-PENo
 "CompRoomData_EWSF" = 5   $ IP Non-Tech
 "CompRoomData_LWSF" = 1.05   $ IP Non-Tech
 "CondWPerBtuh" = 0   $ Msr (Var)TechID: PreNResSplitAC-lt45-PENo
 "Conference_EWSF" = 1   $ IP Non-Tech
 "Conference_LWSF" = 1.2   $ IP Non-Tech
 "CoolSensCap" = 0.754064286   $ Msr (Var)TechID: PreNResSplitAC-lt45-PENo
 "CoolSetT" = 45   $ IP Non-Tech
 "CoolType" = DX   $ IP Non-Tech
 "CoolingEIR" = 0.23878   $ Msr (Var)TechID: PreNResSplitAC-lt45-PENo
 "CopyRoom_EWSF" = 1.5   $ IP Non-Tech
 "CopyRoom_LWSF" = 1.3   $ IP Non-Tech
 "CrnkEIR" = 0.0023878   $ Msr (Var)TechID: PreNResSplitAC-lt45-PENo
 "CrnkMaxT" = 50   $ Msr (Var)TechID: PreNResSplitAC-lt45-PENo
 "DXType" = SplitSEER   $ Msr (Var)TechID: PreNResSplitAC-lt45-PENo
 "DesCoolT" = 75   $ IP Non-Tech
 "DesHeatT" = 73   $ IP Non-Tech
 "EER" = 12.16551724   $ Msr (Var)TechID: PreNResSplitAC-lt45-PENo
 "EIR_fT" = SpltAC1Sp-lt45_EIR_fT   $ Msr (Var)TechID: PreNResSplitAC-lt45-PENo
 "EconoCtrl" = FIXED   $ Msr (Multi)TechID: PreNResSplitAC-lt45-PENo
 "EconoEnthLimit" = 28   $ IP Non-Tech
 "EconoTempLimit" = 73   $ IP Non-Tech
 "Elevation" = 135   $ IP Non-Tech
 "FanEirPlr" = TwoSpeedFan   $ Msr (Var)TechID: PreNResSplitAC-lt45-PENo
 "FanWPerCfm" = 0.294   $ Msr (Var)TechID: PreNResSplitAC-lt45-PENo
 "HDD_CloudAmt1" = 0   $ IP Non-Tech
 "HDD_DBHi1" = 57   $ IP Non-Tech
 "HDD_DBRange1" = 28.92485619   $ IP Non-Tech
 "HDD_Day1" = 15   $ IP Non-Tech
 "HDD_HrHi1" = 16   $ IP Non-Tech
 "HDD_HrLo1" = 4   $ IP Non-Tech
 "HDD_WB1" = 44.7   $ IP Non-Tech
 "HDD_WindSpd1" = 13.8   $ IP Non-Tech
 "HIR_fT" = 0   $ Msr (Var)TechID: PreNResSplitAC-lt45-PENo
 "HSPF" = 0   $ Msr (Var)TechID: PreNResSplitAC-lt45-PENo
 "Hall_EWSF" = 0.2   $ IP Non-Tech
 "Hall_LWSF" = 0.6   $ IP Non-Tech
 "HeatSrc" = FURNACE   $ IP Non-Tech
 "HeatSrcTU" = HEAT-PUMP   $ IP Non-Tech
 "HeatType" = GasFurn   $ IP Non-Tech
 "HeatTypeTU" = HEAT-PUMP   $ IP Non-Tech
 "HtCap_fT" = 0   $ Msr (Var)TechID: PreNResSplitAC-lt45-PENo
 "HtCoolCapRatio" = 0   $ Msr (Var)TechID: PreNResSplitAC-lt45-PENo
 "HtgEIR" = 0   $ Msr (Var)TechID: PreNResSplitAC-lt45-PENo
 "IndoorFanMode" = CONTINUOUS   $ IP Non-Tech
 "KT_TransferAir" = Yes   $ IP Non-Tech
 "Latitude" = 37.4   $ IP Non-Tech
 "LobbyWaiting_EWSF" = 0.5   $ IP Non-Tech
 "LobbyWaiting_LWSF" = 0.875   $ IP Non-Tech
 "Longitude" = 122   $ IP Non-Tech
 "LowSpdCapRatio" = 1   $ Msr (Var)TechID: PreNResSplitAC-lt45-PENo
 "LowSpdCfmRatio" = 1   $ Msr (Var)TechID: PreNResSplitAC-lt45-PENo
 "MZFanMechEff" = 0.58   $ IP Non-Tech
 "MZHasRetFan" = FALSE   $ IP Non-Tech
 "MZ_RFanWPerCfm" = 0.33   $ IP Non-Tech
 "MZ_SFanWPerCfm" = 0.75   $ IP Non-Tech
 "MZ_SupFanStatic" = 2.25   $ IP Non-Tech
 "MaxOAFrac" = 1   $ Msr (Multi)TechID: PreNResSplitAC-lt45-PENo
 "MaxSupT_MZ" = 100   $ IP Non-Tech
 "MaxSupT_SZ" = 100   $ IP Non-Tech
 "MaxSupT_TU" = 90   $ IP Non-Tech
 "MechElecRoom_EWSF" = 0.2   $ IP Non-Tech
 "MechElecRoom_LWSF" = 0.55   $ IP Non-Tech
 "MinCfmPerSF" = 0.4   $ IP Non-Tech
 "MinSupT" = 55   $ IP Non-Tech
 "NumStages" = 1   $ Msr (Var)TechID: PreNResSplitAC-lt45-PENo
 "OccCoolT" = 76   $ IP Non-Tech
 "OccHeatT" = 72   $ IP Non-Tech
 "OfficeOpen_EWSF" = 1.5   $ IP Non-Tech
 "OfficeOpen_LWSF" = 1.05   $ IP Non-Tech
 "OfficeSmall_EWSF" = 1.5   $ IP Non-Tech
 "OfficeSmall_LWSF" = 1.3   $ IP Non-Tech
 "PkgDxVintEconoFlag" = 1   $ IP Non-Tech
 "Restroom_EWSF" = 0.2   $ IP Non-Tech
 "Restroom_LWSF" = 0.6   $ IP Non-Tech
 "SEER" = 14   $ Msr (Var)TechID: PreNResSplitAC-lt45-PENo
 "SZFanMechEff" = 0.58   $ IP Non-Tech
 "SZHasRetFan" = FALSE   $ IP Non-Tech
 "SZ_Is_2Spd" = TRUE   $ IP Non-Tech
 "SZ_SFanWPerCfm" = 0.46   $ IP Non-Tech
 "SZ_SupFanStatic" = 0.75   $ IP Non-Tech
 "Sector" = Any   $ Msr (Var)TechID: PreNResSplitAC-lt45-PENo
 "StorageSmlCond_EWSF" = 0.2   $ IP Non-Tech
 "StorageSmlCond_LWSF" = 0.6   $ IP Non-Tech
 "SubType" = AC   $ Msr (Var)TechID: PreNResSplitAC-lt45-PENo
 "TermUnitFanMechEff" = 1   $ IP Non-Tech
 "TermUnitFanMode" = INTERMITTENT   $ IP Non-Tech
 "TotCoolCap" = 30924.85714   $ Msr (Var)TechID: PreNResSplitAC-lt45-PENo
 "TwrSetpt" = 80   $ IP Non-Tech
 "UnocCoolT" = 86   $ IP Non-Tech
 "UnocHeatT" = 62   $ IP Non-Tech
 "UseEconoVintApplic" = FALSE   $ Msr (Multi)TechID: PreNResSplitAC-lt45-PENo
 "WlhpVintEconoFlag" = 1   $ IP Non-Tech
 "DuctDT" = 1   $ IP Tech: ComDuctInsul-1
 "DuctAirLoss" = 0   $ IP Tech: ComDuctLeak-0
 "DuctLossOAFrac" = 0   $ IP Tech: ComDuctLeak-0
 "ComRoofInsCalc" = FromUo   $ IP Tech: ComRoofIns-WFrm-0.03
 "ComRoofInsR" = -999   $ IP Tech: ComRoofIns-WFrm-0.03
 "ComRoofUo" = 0.03   $ IP Tech: ComRoofIns-WFrm-0.03
 "ComEWInsCalc" = FromUo   $ IP Tech: ComWallIns-WFrm-0.06
 "ComEWInsR" = -999   $ IP Tech: ComWallIns-WFrm-0.06
 "ComEWUo" = 0.06   $ IP Tech: ComWallIns-WFrm-0.06
 "ComN_SHGC" = 0.25   $ IP Tech: NResWin-ComN-0.36-0.25
 "ComN_UFactor" = 0.36   $ IP Tech: NResWin-ComN-0.36-0.25
 "ComN_VisTrans" = 0.41   $ IP Tech: NResWin-ComN-0.36-0.25
 "ComN_WinCode" = G2668   $ IP Tech: NResWin-ComN-0.36-0.25
 "ComN_WinFrmFrac" = 0.17   $ IP Tech: NResWin-ComN-0.36-0.25
 "ComN_WinFrmU" = 0.3   $ IP Tech: NResWin-ComN-0.36-0.25
 "ComO_SHGC" = 0.25   $ IP Tech: NResWin-ComO-0.36-0.25
 "ComO_UFactor" = 0.36   $ IP Tech: NResWin-ComO-0.36-0.25
 "ComO_VisTrans" = 0.41   $ IP Tech: NResWin-ComO-0.36-0.25
 "ComO_WinCode" = G2668   $ IP Tech: NResWin-ComO-0.36-0.25
 "ComO_WinFrmFrac" = 0.17   $ IP Tech: NResWin-ComO-0.36-0.25
 "ComO_WinFrmU" = 0.3   $ IP Tech: NResWin-ComO-0.36-0.25
 "LtgMsrApplic" = ALL   $ IP Tech: NonResLtgRefPre
 "LtgSav_CFL" = 0   $ IP Tech: NonResLtgRefPre
 "LtgSav_EX" = 0   $ IP Tech: NonResLtgRefPre
 "LtgSav_HB" = 0   $ IP Tech: NonResLtgRefPre
 "LtgSav_LF" = 0   $ IP Tech: NonResLtgRefPre
 "LtgSav_SP" = 0   $ IP Tech: NonResLtgRefPre
 "CEIR_fPLR" = PSZ65to135_CEIR_fPLR   $ IP Tech: PkgAC2SpP-65to135-E11
 "CLoss_fPLR" = PSZ65to135_CLoss_fPLR   $ IP Tech: PkgAC2SpP-65to135-E11
 "COP" = -1   $ IP Tech: PkgAC2SpP-65to135-E11
 "HtgFuel" = Gas   $ IP Tech: PkgAC2SpP-65to135-E11
 "IEER" = 13.35   $ IP Tech: PkgAC2SpP-65to135-E11
 "NominalCap" = 15   $ IP Tech: PkgAC2SpP-65to135-E11
 "RatedEER" = 11   $ IP Tech: PkgAC2SpP-65to135-E11
 "RatedSupMtrClass" = Premium   $ IP Tech: PkgAC2SpP-65to135-E11
 "SizeRange" = 65to135   $ IP Tech: PkgAC2SpP-65to135-E11
 "SupMotEff" = 0.865   $ IP Tech: PkgAC2SpP-65to135-E11
 "Tier" = 0   $ IP Tech: PkgAC2SpP-65to135-E11
 "FanPwrMult" = 1   $ IP Tech: PkgFurn-0.80AFUE
 "FurnAFUE" = 0.8   $ IP Tech: PkgFurn-0.80AFUE
 "FurnEt" = 0.82   $ IP Tech: PkgFurn-0.80AFUE
 "FurnaceAuxKW" = 0.1   $ IP Tech: PkgFurn-0.80AFUE
 "HIR_fPLR" = Furnace-HIR-fPLR   $ IP Tech: PkgFurn-0.80AFUE
 "VSM" = FALSE   $ IP Tech: PkgFurn-0.80AFUE
 "BFMult" = 1   $ IP Tech: RefgChg-NRes-Std
 "CoolEirMult" = 1   $ IP Tech: RefgChg-NRes-Std
 "SensCoolCapMult" = 1   $ IP Tech: RefgChg-NRes-Std
 "TotCoolCapMult" = 1   $ IP Tech: RefgChg-NRes-Std
 "AltAdjFactor" = 1.005014   $ Sizing
 "CAssFlo_L_Break_CZn" = 376.2807   $ Sizing
 "CAssFlo_L_CompDC_CZn" = 137.0035   $ Sizing
 "CAssFlo_L_Conf_CZn" = 211.8374   $ Sizing
 "CAssFlo_L_CopyRm_CZn" = 79.39943   $ Sizing
 "CAssFlo_L_Hall_EZn" = 80.36578   $ Sizing
 "CAssFlo_L_Hall_NZn" = 37.60649   $ Sizing
 "CAssFlo_L_Hall_SZn" = 92.00974   $ Sizing
 "CAssFlo_L_Hall_WZn" = 93.92065   $ Sizing
 "CAssFlo_L_LobWait_EZn" = 183.5944   $ Sizing
 "CAssFlo_L_LobWait_NZn" = 104.2855   $ Sizing
 "CAssFlo_L_LobWait_SZn" = 220.4767   $ Sizing
 "CAssFlo_L_LobWait_WZn" = 235.4618   $ Sizing
 "CAssFlo_L_MechElec_CZn" = 44.21587   $ Sizing
 "CAssFlo_L_OfficeOpn_CZn" = 53.85454   $ Sizing
 "CAssFlo_L_OfficeOpn_EZn" = 376.9176   $ Sizing
 "CAssFlo_L_OfficeOpn_NZn" = 270.5696   $ Sizing
 "CAssFlo_L_OfficeOpn_SZn" = 416.0476   $ Sizing
 "CAssFlo_L_OfficeOpn_WZn" = 439.2837   $ Sizing
 "CAssFlo_L_OfficeSm_EZn" = 313.6188   $ Sizing
 "CAssFlo_L_OfficeSm_NZn" = 210.6198   $ Sizing
 "CAssFlo_L_OfficeSm_SZn" = 353.5245   $ Sizing
 "CAssFlo_L_OfficeSm_WZn" = 375.4097   $ Sizing
 "CAssFlo_L_Restrm_CZn" = 64.11151   $ Sizing
 "CAssFlo_L_StorSm_CZn" = 27.66011   $ Sizing
 "CAssFlo_L_StorSm_EZn" = 77.37386   $ Sizing
 "CAssFlo_L_StorSm_NZn" = 32.55856   $ Sizing
 "CAssFlo_L_StorSm_SZn" = 90.27429   $ Sizing
 "CAssFlo_L_StorSm_WZn" = 88.05505   $ Sizing
 "CAssFlo_T_Conf_CZn" = 206.8495   $ Sizing
 "CAssFlo_T_Hall_EZn" = 91.83937   $ Sizing
 "CAssFlo_T_Hall_NZn" = 48.03492   $ Sizing
 "CAssFlo_T_Hall_SZn" = 103.3793   $ Sizing
 "CAssFlo_T_Hall_WZn" = 100.9542   $ Sizing
 "CAssFlo_T_OfficeOpn_CZn" = 49.57888   $ Sizing
 "CAssFlo_T_OfficeOpn_EZn" = 392.545   $ Sizing
 "CAssFlo_T_OfficeOpn_NZn" = 283.2401   $ Sizing
 "CAssFlo_T_OfficeOpn_SZn" = 440.4887   $ Sizing
 "CAssFlo_T_OfficeOpn_WZn" = 446.3164   $ Sizing
 "CAssFlo_T_OfficeSm_EZn" = 331.942   $ Sizing
 "CAssFlo_T_OfficeSm_NZn" = 223.9321   $ Sizing
 "CAssFlo_T_OfficeSm_SZn" = 377.2696   $ Sizing
 "CAssFlo_T_OfficeSm_WZn" = 383.2097   $ Sizing
 "CAssFlo_T_Restrm_CZn" = 107.4702   $ Sizing
 "CAssFlo_T_StorSm_EZn" = 92.95398   $ Sizing
 "CAssFlo_T_StorSm_NZn" = 43.83504   $ Sizing
 "CAssFlo_T_StorSm_SZn" = 107.1808   $ Sizing
 "CAssFlo_T_StorSm_WZn" = 104.5498   $ Sizing
 "CHRtFlo_Sys_L_Break_C" = 376.2807   $ Sizing
 "CHRtFlo_Sys_L_CompDC_C" = 170.7904   $ Sizing
 "CHRtFlo_Sys_L_Conf_C" = 222.5032   $ Sizing
 "CHRtFlo_Sys_L_CopyRm_C" = 81.2244   $ Sizing
 "CHRtFlo_Sys_L_Hall_E" = 104.0806   $ Sizing
 "CHRtFlo_Sys_L_Hall_N" = 42.70542   $ Sizing
 "CHRtFlo_Sys_L_Hall_S" = 109.0691   $ Sizing
 "CHRtFlo_Sys_L_Hall_W" = 102.5187   $ Sizing
 "CHRtFlo_Sys_L_LobWait_E" = 241.9966   $ Sizing
 "CHRtFlo_Sys_L_LobWait_N" = 104.2855   $ Sizing
 "CHRtFlo_Sys_L_LobWait_S" = 246.2675   $ Sizing
 "CHRtFlo_Sys_L_LobWait_W" = 240.9897   $ Sizing
 "CHRtFlo_Sys_L_MechElec_C" = 70.8336   $ Sizing
 "CHRtFlo_Sys_L_OfficeOpn_C" = 74.62844   $ Sizing
 "CHRtFlo_Sys_L_OfficeOpn_E" = 485.8661   $ Sizing
 "CHRtFlo_Sys_L_OfficeOpn_N" = 276.4984   $ Sizing
 "CHRtFlo_Sys_L_OfficeOpn_S" = 471.2503   $ Sizing
 "CHRtFlo_Sys_L_OfficeOpn_W" = 471.8912   $ Sizing
 "CHRtFlo_Sys_L_OfficeSm_E" = 408.4083   $ Sizing
 "CHRtFlo_Sys_L_OfficeSm_N" = 218.5858   $ Sizing
 "CHRtFlo_Sys_L_OfficeSm_S" = 409.7375   $ Sizing
 "CHRtFlo_Sys_L_OfficeSm_W" = 408.8174   $ Sizing
 "CHRtFlo_Sys_L_Restrm_C" = 85.85593   $ Sizing
 "CHRtFlo_Sys_L_StorSm_C" = 37.60101   $ Sizing
 "CHRtFlo_Sys_L_StorSm_E" = 101.4068   $ Sizing
 "CHRtFlo_Sys_L_StorSm_N" = 55.75866   $ Sizing
 "CHRtFlo_Sys_L_StorSm_S" = 102.5229   $ Sizing
 "CHRtFlo_Sys_L_StorSm_W" = 94.57292   $ Sizing
 "CHRtFlo_Sys_T_Conf_C" = 219.0473   $ Sizing
 "CHRtFlo_Sys_T_Hall_E" = 113.1108   $ Sizing
 "CHRtFlo_Sys_T_Hall_N" = 48.03492   $ Sizing
 "CHRtFlo_Sys_T_Hall_S" = 118.9719   $ Sizing
 "CHRtFlo_Sys_T_Hall_W" = 107.871   $ Sizing
 "CHRtFlo_Sys_T_OfficeOpn_C" = 66.02851   $ Sizing
 "CHRtFlo_Sys_T_OfficeOpn_E" = 471.9105   $ Sizing
 "CHRtFlo_Sys_T_OfficeOpn_N" = 283.2401   $ Sizing
 "CHRtFlo_Sys_T_OfficeOpn_S" = 484.8168   $ Sizing
 "CHRtFlo_Sys_T_OfficeOpn_W" = 454.6437   $ Sizing
 "CHRtFlo_Sys_T_OfficeSm_E" = 402.9948   $ Sizing
 "CHRtFlo_Sys_T_OfficeSm_N" = 223.932   $ Sizing
 "CHRtFlo_Sys_T_OfficeSm_S" = 426.6973   $ Sizing
 "CHRtFlo_Sys_T_OfficeSm_W" = 398.0728   $ Sizing
 "CHRtFlo_Sys_T_Restrm_C" = 129.481   $ Sizing
 "CHRtFlo_Sys_T_StorSm_E" = 112.9283   $ Sizing
 "CHRtFlo_Sys_T_StorSm_N" = 58.03341   $ Sizing
 "CHRtFlo_Sys_T_StorSm_S" = 115.952   $ Sizing
 "CHRtFlo_Sys_T_StorSm_W" = 106.7325   $ Sizing
 "CRtdFlo_Sys_L_Break_C" = 376.2807   $ Sizing
 "CRtdFlo_Sys_L_CompDC_C" = 137.0035   $ Sizing
 "CRtdFlo_Sys_L_Conf_C" = 211.8374   $ Sizing
 "CRtdFlo_Sys_L_CopyRm_C" = 79.39943   $ Sizing
 "CRtdFlo_Sys_L_Hall_E" = 80.36578   $ Sizing
 "CRtdFlo_Sys_L_Hall_N" = 37.60649   $ Sizing
 "CRtdFlo_Sys_L_Hall_S" = 92.00974   $ Sizing
 "CRtdFlo_Sys_L_Hall_W" = 93.92065   $ Sizing
 "CRtdFlo_Sys_L_LobWait_E" = 183.5944   $ Sizing
 "CRtdFlo_Sys_L_LobWait_N" = 104.2855   $ Sizing
 "CRtdFlo_Sys_L_LobWait_S" = 220.4767   $ Sizing
 "CRtdFlo_Sys_L_LobWait_W" = 235.4618   $ Sizing
 "CRtdFlo_Sys_L_MechElec_C" = 44.21587   $ Sizing
 "CRtdFlo_Sys_L_OfficeOpn_C" = 53.85454   $ Sizing
 "CRtdFlo_Sys_L_OfficeOpn_E" = 376.9176   $ Sizing
 "CRtdFlo_Sys_L_OfficeOpn_N" = 270.5696   $ Sizing
 "CRtdFlo_Sys_L_OfficeOpn_S" = 416.0476   $ Sizing
 "CRtdFlo_Sys_L_OfficeOpn_W" = 439.2837   $ Sizing
 "CRtdFlo_Sys_L_OfficeSm_E" = 313.6188   $ Sizing
 "CRtdFlo_Sys_L_OfficeSm_N" = 210.6198   $ Sizing
 "CRtdFlo_Sys_L_OfficeSm_S" = 353.5245   $ Sizing
 "CRtdFlo_Sys_L_OfficeSm_W" = 375.4097   $ Sizing
 "CRtdFlo_Sys_L_Restrm_C" = 64.11151   $ Sizing
 "CRtdFlo_Sys_L_StorSm_C" = 27.66011   $ Sizing
 "CRtdFlo_Sys_L_StorSm_E" = 77.37386   $ Sizing
 "CRtdFlo_Sys_L_StorSm_N" = 32.55856   $ Sizing
 "CRtdFlo_Sys_L_StorSm_S" = 90.27429   $ Sizing
 "CRtdFlo_Sys_L_StorSm_W" = 88.05505   $ Sizing
 "CRtdFlo_Sys_T_Conf_C" = 206.8495   $ Sizing
 "CRtdFlo_Sys_T_Hall_E" = 91.83937   $ Sizing
 "CRtdFlo_Sys_T_Hall_N" = 48.03492   $ Sizing
 "CRtdFlo_Sys_T_Hall_S" = 103.3793   $ Sizing
 "CRtdFlo_Sys_T_Hall_W" = 100.9542   $ Sizing
 "CRtdFlo_Sys_T_OfficeOpn_C" = 49.57888   $ Sizing
 "CRtdFlo_Sys_T_OfficeOpn_E" = 392.545   $ Sizing
 "CRtdFlo_Sys_T_OfficeOpn_N" = 283.2401   $ Sizing
 "CRtdFlo_Sys_T_OfficeOpn_S" = 440.4887   $ Sizing
 "CRtdFlo_Sys_T_OfficeOpn_W" = 446.3164   $ Sizing
 "CRtdFlo_Sys_T_OfficeSm_E" = 331.9419   $ Sizing
 "CRtdFlo_Sys_T_OfficeSm_N" = 223.932   $ Sizing
 "CRtdFlo_Sys_T_OfficeSm_S" = 377.2696   $ Sizing
 "CRtdFlo_Sys_T_OfficeSm_W" = 383.2097   $ Sizing
 "CRtdFlo_Sys_T_Restrm_C" = 107.4702   $ Sizing
 "CRtdFlo_Sys_T_StorSm_E" = 92.95398   $ Sizing
 "CRtdFlo_Sys_T_StorSm_N" = 43.83504   $ Sizing
 "CRtdFlo_Sys_T_StorSm_S" = 107.1808   $ Sizing
 "CRtdFlo_Sys_T_StorSm_W" = 104.5498   $ Sizing
 "CSupFlo_Sys_L_Break_C" = 376.2807   $ Sizing
 "CSupFlo_Sys_L_CompDC_C" = 137.0035   $ Sizing
 "CSupFlo_Sys_L_Conf_C" = 211.8374   $ Sizing
 "CSupFlo_Sys_L_CopyRm_C" = 79.39943   $ Sizing
 "CSupFlo_Sys_L_Hall_E" = 80.36578   $ Sizing
 "CSupFlo_Sys_L_Hall_N" = 37.60649   $ Sizing
 "CSupFlo_Sys_L_Hall_S" = 92.00974   $ Sizing
 "CSupFlo_Sys_L_Hall_W" = 93.92065   $ Sizing
 "CSupFlo_Sys_L_LobWait_E" = 183.5944   $ Sizing
 "CSupFlo_Sys_L_LobWait_N" = 104.2855   $ Sizing
 "CSupFlo_Sys_L_LobWait_S" = 220.4767   $ Sizing
 "CSupFlo_Sys_L_LobWait_W" = 235.4618   $ Sizing
 "CSupFlo_Sys_L_MechElec_C" = 44.21587   $ Sizing
 "CSupFlo_Sys_L_OfficeOpn_C" = 53.85454   $ Sizing
 "CSupFlo_Sys_L_OfficeOpn_E" = 376.9176   $ Sizing
 "CSupFlo_Sys_L_OfficeOpn_N" = 270.5696   $ Sizing
 "CSupFlo_Sys_L_OfficeOpn_S" = 416.0476   $ Sizing
 "CSupFlo_Sys_L_OfficeOpn_W" = 439.2837   $ Sizing
 "CSupFlo_Sys_L_OfficeSm_E" = 313.6188   $ Sizing
 "CSupFlo_Sys_L_OfficeSm_N" = 210.6198   $ Sizing
 "CSupFlo_Sys_L_OfficeSm_S" = 353.5245   $ Sizing
 "CSupFlo_Sys_L_OfficeSm_W" = 375.4097   $ Sizing
 "CSupFlo_Sys_L_Restrm_C" = 64.11151   $ Sizing
 "CSupFlo_Sys_L_StorSm_C" = 27.66011   $ Sizing
 "CSupFlo_Sys_L_StorSm_E" = 77.37386   $ Sizing
 "CSupFlo_Sys_L_StorSm_N" = 32.55856   $ Sizing
 "CSupFlo_Sys_L_StorSm_S" = 90.27429   $ Sizing
 "CSupFlo_Sys_L_StorSm_W" = 88.05505   $ Sizing
 "CSupFlo_Sys_T_Conf_C" = 206.8495   $ Sizing
 "CSupFlo_Sys_T_Hall_E" = 91.83937   $ Sizing
 "CSupFlo_Sys_T_Hall_N" = 48.03492   $ Sizing
 "CSupFlo_Sys_T_Hall_S" = 103.3793   $ Sizing
 "CSupFlo_Sys_T_Hall_W" = 100.9542   $ Sizing
 "CSupFlo_Sys_T_OfficeOpn_C" = 49.57888   $ Sizing
 "CSupFlo_Sys_T_OfficeOpn_E" = 392.545   $ Sizing
 "CSupFlo_Sys_T_OfficeOpn_N" = 283.2401   $ Sizing
 "CSupFlo_Sys_T_OfficeOpn_S" = 440.4887   $ Sizing
 "CSupFlo_Sys_T_OfficeOpn_W" = 446.3164   $ Sizing
 "CSupFlo_Sys_T_OfficeSm_E" = 331.9419   $ Sizing
 "CSupFlo_Sys_T_OfficeSm_N" = 223.932   $ Sizing
 "CSupFlo_Sys_T_OfficeSm_S" = 377.2696   $ Sizing
 "CSupFlo_Sys_T_OfficeSm_W" = 383.2097   $ Sizing
 "CSupFlo_Sys_T_Restrm_C" = 107.4702   $ Sizing
 "CSupFlo_Sys_T_StorSm_E" = 92.95398   $ Sizing
 "CSupFlo_Sys_T_StorSm_N" = 43.83504   $ Sizing
 "CSupFlo_Sys_T_StorSm_S" = 107.1808   $ Sizing
 "CSupFlo_Sys_T_StorSm_W" = 104.5498   $ Sizing
 "ClCap_Sys_L_Break_C" = 12836.69   $ Sizing
 "ClCap_Sys_L_CompDC_C" = 4673.828   $ Sizing
 "ClCap_Sys_L_Conf_C" = 9197.699   $ Sizing
 "ClCap_Sys_L_CopyRm_C" = 2708.685   $ Sizing
 "ClCap_Sys_L_Hall_E" = 2741.652   $ Sizing
 "ClCap_Sys_L_Hall_N" = 1282.933   $ Sizing
 "ClCap_Sys_L_Hall_S" = 3138.882   $ Sizing
 "ClCap_Sys_L_Hall_W" = 3204.071   $ Sizing
 "ClCap_Sys_L_LobWait_E" = 6263.262   $ Sizing
 "ClCap_Sys_L_LobWait_N" = 3557.664   $ Sizing
 "ClCap_Sys_L_LobWait_S" = 7521.489   $ Sizing
 "ClCap_Sys_L_LobWait_W" = 8032.699   $ Sizing
 "ClCap_Sys_L_MechElec_C" = 1508.409   $ Sizing
 "ClCap_Sys_L_OfficeOpn_C" = 1837.23   $ Sizing
 "ClCap_Sys_L_OfficeOpn_E" = 12858.42   $ Sizing
 "ClCap_Sys_L_OfficeOpn_N" = 9230.391   $ Sizing
 "ClCap_Sys_L_OfficeOpn_S" = 14193.33   $ Sizing
 "ClCap_Sys_L_OfficeOpn_W" = 14986.02   $ Sizing
 "ClCap_Sys_L_OfficeSm_E" = 10699   $ Sizing
 "ClCap_Sys_L_OfficeSm_N" = 7185.222   $ Sizing
 "ClCap_Sys_L_OfficeSm_S" = 12060.37   $ Sizing
 "ClCap_Sys_L_OfficeSm_W" = 12806.97   $ Sizing
 "ClCap_Sys_L_Restrm_C" = 2187.143   $ Sizing
 "ClCap_Sys_L_StorSm_C" = 943.6155   $ Sizing
 "ClCap_Sys_L_StorSm_E" = 2639.583   $ Sizing
 "ClCap_Sys_L_StorSm_N" = 1110.724   $ Sizing
 "ClCap_Sys_L_StorSm_S" = 3079.677   $ Sizing
 "ClCap_Sys_L_StorSm_W" = 3003.969   $ Sizing
 "ClCap_Sys_T_Conf_C" = 8981.13   $ Sizing
 "ClCap_Sys_T_Hall_E" = 3133.069   $ Sizing
 "ClCap_Sys_T_Hall_N" = 1638.695   $ Sizing
 "ClCap_Sys_T_Hall_S" = 3526.75   $ Sizing
 "ClCap_Sys_T_Hall_W" = 3444.018   $ Sizing
 "ClCap_Sys_T_OfficeOpn_C" = 1691.367   $ Sizing
 "ClCap_Sys_T_OfficeOpn_E" = 13391.54   $ Sizing
 "ClCap_Sys_T_OfficeOpn_N" = 9662.643   $ Sizing
 "ClCap_Sys_T_OfficeOpn_S" = 15027.13   $ Sizing
 "ClCap_Sys_T_OfficeOpn_W" = 15225.94   $ Sizing
 "ClCap_Sys_T_OfficeSm_E" = 11324.09   $ Sizing
 "ClCap_Sys_T_OfficeSm_N" = 7639.367   $ Sizing
 "ClCap_Sys_T_OfficeSm_S" = 12870.42   $ Sizing
 "ClCap_Sys_T_OfficeSm_W" = 13073.07   $ Sizing
 "ClCap_Sys_T_Restrm_C" = 3666.309   $ Sizing
 "ClCap_Sys_T_StorSm_E" = 3171.094   $ Sizing
 "ClCap_Sys_T_StorSm_N" = 1495.418   $ Sizing
 "ClCap_Sys_T_StorSm_S" = 3656.439   $ Sizing
 "ClCap_Sys_T_StorSm_W" = 3566.68   $ Sizing
 "HtCap_Sys_L_Break_C" = -22386.56   $ Sizing
 "HtCap_Sys_L_CompDC_C" = -8299.515   $ Sizing
 "HtCap_Sys_L_Conf_C" = -13789.14   $ Sizing
 "HtCap_Sys_L_CopyRm_C" = -4964.687   $ Sizing
 "HtCap_Sys_L_Hall_E" = -3861.448   $ Sizing
 "HtCap_Sys_L_Hall_N" = -1864.729   $ Sizing
 "HtCap_Sys_L_Hall_S" = -3873.224   $ Sizing
 "HtCap_Sys_L_Hall_W" = -3748.544   $ Sizing
 "HtCap_Sys_L_LobWait_E" = -9718.825   $ Sizing
 "HtCap_Sys_L_LobWait_N" = -5653.46   $ Sizing
 "HtCap_Sys_L_LobWait_S" = -9883.295   $ Sizing
 "HtCap_Sys_L_LobWait_W" = -9727.949   $ Sizing
 "HtCap_Sys_L_MechElec_C" = -3275.002   $ Sizing
 "HtCap_Sys_L_OfficeOpn_C" = -2940.483   $ Sizing
 "HtCap_Sys_L_OfficeOpn_E" = -17720   $ Sizing
 "HtCap_Sys_L_OfficeOpn_N" = -11821.95   $ Sizing
 "HtCap_Sys_L_OfficeOpn_S" = -16969.16   $ Sizing
 "HtCap_Sys_L_OfficeOpn_W" = -17584.8   $ Sizing
 "HtCap_Sys_L_OfficeSm_E" = -14824.65   $ Sizing
 "HtCap_Sys_L_OfficeSm_N" = -9008.686   $ Sizing
 "HtCap_Sys_L_OfficeSm_S" = -14234.14   $ Sizing
 "HtCap_Sys_L_OfficeSm_W" = -14564.96   $ Sizing
 "HtCap_Sys_L_Restrm_C" = -3079.173   $ Sizing
 "HtCap_Sys_L_StorSm_C" = -1550.606   $ Sizing
 "HtCap_Sys_L_StorSm_E" = -3923.337   $ Sizing
 "HtCap_Sys_L_StorSm_N" = -2586.207   $ Sizing
 "HtCap_Sys_L_StorSm_S" = -3954.611   $ Sizing
 "HtCap_Sys_L_StorSm_W" = -3800.208   $ Sizing
 "HtCap_Sys_T_Conf_C" = -13881.34   $ Sizing
 "HtCap_Sys_T_Hall_E" = -4462.154   $ Sizing
 "HtCap_Sys_T_Hall_N" = -2267.708   $ Sizing
 "HtCap_Sys_T_Hall_S" = -4659.523   $ Sizing
 "HtCap_Sys_T_Hall_W" = -4287.581   $ Sizing
 "HtCap_Sys_T_OfficeOpn_C" = -2908.153   $ Sizing
 "HtCap_Sys_T_OfficeOpn_E" = -18871.93   $ Sizing
 "HtCap_Sys_T_OfficeOpn_N" = -12738.17   $ Sizing
 "HtCap_Sys_T_OfficeOpn_S" = -19286.04   $ Sizing
 "HtCap_Sys_T_OfficeOpn_W" = -18298.77   $ Sizing
 "HtCap_Sys_T_OfficeSm_E" = -15700.69   $ Sizing
 "HtCap_Sys_T_OfficeSm_N" = -9866.688   $ Sizing
 "HtCap_Sys_T_OfficeSm_S" = -16385.99   $ Sizing
 "HtCap_Sys_T_OfficeSm_W" = -15545.54   $ Sizing
 "HtCap_Sys_T_Restrm_C" = -4915.642   $ Sizing
 "HtCap_Sys_T_StorSm_E" = -4823.198   $ Sizing
 "HtCap_Sys_T_StorSm_N" = -2976.242   $ Sizing
 "HtCap_Sys_T_StorSm_S" = -4815.396   $ Sizing
 "HtCap_Sys_T_StorSm_W" = -4627.734   $ Sizing
..

##include Templates\OfS_DX_SZ.inp
END ..
COMPUTE ..
STOP ..
