INPUT ..

##fileprefix C:\Users\jglasskatz\MASControl3\
##set1 IsSizing FALSE
##set1 CoolType DX
##set1 HeatType HEAT-PUMP
##set1 EU_HrRepVar 1
##set1 BldgVint 2020
##set1 BldgLoc CZ01

 ##set1 mBFMult 1   $ IP Tech: RefgChg-NRes-Std

PARAMETER
 "AltFactor" = 1.00753   $ IP Non-Tech
 "BldgEconoFlag" = 1   $ IP Non-Tech
 "Break_EWSF" = 1   $ IP Non-Tech
 "Break_LWSF" = 0.65   $ IP Non-Tech
 "CDD_DBHi10" = 65   $ IP Non-Tech
 "CDD_DBHi7" = 68   $ IP Non-Tech
 "CDD_DBHi8" = 66   $ IP Non-Tech
 "CDD_DBHi9" = 77   $ IP Non-Tech
 "CDD_DBRange10" = 17   $ IP Non-Tech
 "CDD_DBRange7" = 11   $ IP Non-Tech
 "CDD_DBRange8" = 10   $ IP Non-Tech
 "CDD_DBRange9" = 29   $ IP Non-Tech
 "CDD_Day10" = 15   $ IP Non-Tech
 "CDD_Day7" = 16   $ IP Non-Tech
 "CDD_Day8" = 20   $ IP Non-Tech
 "CDD_Day9" = 17   $ IP Non-Tech
 "CDD_HrHi10" = 12   $ IP Non-Tech
 "CDD_HrHi7" = 12   $ IP Non-Tech
 "CDD_HrHi8" = 13   $ IP Non-Tech
 "CDD_HrHi9" = 17   $ IP Non-Tech
 "CDD_HrLo10" = 6   $ IP Non-Tech
 "CDD_HrLo7" = 3   $ IP Non-Tech
 "CDD_HrLo8" = 8   $ IP Non-Tech
 "CDD_HrLo9" = 4   $ IP Non-Tech
 "CDD_WB10" = 57.53039551   $ IP Non-Tech
 "CDD_WB7" = 59.29250717   $ IP Non-Tech
 "CDD_WB8" = 60.75350189   $ IP Non-Tech
 "CDD_WB9" = 61.08643341   $ IP Non-Tech
 "CZ_Category" = Tem   $ IP Non-Tech
 "ChwVintEconoFlag" = 1   $ IP Non-Tech
 "CompRoomData_EWSF" = 5   $ IP Non-Tech
 "CompRoomData_LWSF" = 0.8   $ IP Non-Tech
 "Conference_EWSF" = 1   $ IP Non-Tech
 "Conference_LWSF" = 0.85   $ IP Non-Tech
 "CoolSetT" = 45   $ IP Non-Tech
 "CoolType" = DX   $ IP Non-Tech
 "CopyRoom_EWSF" = 1.5   $ IP Non-Tech
 "CopyRoom_LWSF" = 0.5   $ IP Non-Tech
 "DesCoolT" = 75   $ IP Non-Tech
 "DesHeatT" = 73   $ IP Non-Tech
 "EconoEnthLimit" = 28   $ IP Non-Tech
 "EconoTempLimit" = 70   $ IP Non-Tech
 "Elevation" = 203   $ IP Non-Tech
 "HDD_CloudAmt1" = 0   $ IP Non-Tech
 "HDD_DBHi1" = 53   $ IP Non-Tech
 "HDD_DBRange1" = 20   $ IP Non-Tech
 "HDD_Day1" = 15   $ IP Non-Tech
 "HDD_HrHi1" = 14   $ IP Non-Tech
 "HDD_HrLo1" = 6   $ IP Non-Tech
 "HDD_WB1" = 42.3   $ IP Non-Tech
 "HDD_WindSpd1" = 12.7   $ IP Non-Tech
 "Hall_EWSF" = 0.2   $ IP Non-Tech
 "Hall_LWSF" = 0.55   $ IP Non-Tech
 "HeatSrc" = HEAT-PUMP   $ IP Non-Tech
 "HeatSrcTU" = HEAT-PUMP   $ IP Non-Tech
 "HeatType" = HP   $ IP Non-Tech
 "HeatTypeTU" = HEAT-PUMP   $ IP Non-Tech
 "IndoorFanMode" = CONTINUOUS   $ IP Non-Tech
 "KT_TransferAir" = Yes   $ IP Non-Tech
 "Latitude" = 40.8   $ IP Non-Tech
 "LobbyWaiting_EWSF" = 0.5   $ IP Non-Tech
 "LobbyWaiting_LWSF" = 0.75   $ IP Non-Tech
 "Longitude" = 124.2   $ IP Non-Tech
 "MZFanMechEff" = 0.58   $ IP Non-Tech
 "MZHasRetFan" = FALSE   $ IP Non-Tech
 "MZ_RFanWPerCfm" = 0.33   $ IP Non-Tech
 "MZ_SFanWPerCfm" = 0.75   $ IP Non-Tech
 "MZ_SupFanStatic" = 2.25   $ IP Non-Tech
 "MaxSupT_MZ" = 90   $ IP Non-Tech
 "MaxSupT_SZ" = 90   $ IP Non-Tech
 "MaxSupT_TU" = 90   $ IP Non-Tech
 "MechElecRoom_EWSF" = 0.2   $ IP Non-Tech
 "MechElecRoom_LWSF" = 0.4   $ IP Non-Tech
 "MinCfmPerSF" = 0.4   $ IP Non-Tech
 "MinSupT" = 55   $ IP Non-Tech
 "OccCoolT" = 76   $ IP Non-Tech
 "OccHeatT" = 72   $ IP Non-Tech
 "OfficeOpen_EWSF" = 1.5   $ IP Non-Tech
 "OfficeOpen_LWSF" = 0.8   $ IP Non-Tech
 "OfficeSmall_EWSF" = 1.5   $ IP Non-Tech
 "OfficeSmall_LWSF" = 0.9   $ IP Non-Tech
 "PkgDxVintEconoFlag" = 1   $ IP Non-Tech
 "Restroom_EWSF" = 0.2   $ IP Non-Tech
 "Restroom_LWSF" = 0.65   $ IP Non-Tech
 "SZFanMechEff" = 0.58   $ IP Non-Tech
 "SZHasRetFan" = FALSE   $ IP Non-Tech
 "SZ_Is_2Spd" = TRUE   $ IP Non-Tech
 "SZ_SFanWPerCfm" = 0.46   $ IP Non-Tech
 "SZ_SupFanStatic" = 0.75   $ IP Non-Tech
 "StorageSmlCond_EWSF" = 0.2   $ IP Non-Tech
 "StorageSmlCond_LWSF" = 0.45   $ IP Non-Tech
 "TermUnitFanMechEff" = 1   $ IP Non-Tech
 "TermUnitFanMode" = INTERMITTENT   $ IP Non-Tech
 "TwrSetpt" = 80   $ IP Non-Tech
 "UnocCoolT" = 86   $ IP Non-Tech
 "UnocHeatT" = 62   $ IP Non-Tech
 "WlhpVintEconoFlag" = 1   $ IP Non-Tech
 "EconoCtrl" = OA-TEMP   $ IP Tech: AirEcono-OATemp
 "MaxOAFrac" = 0.85   $ IP Tech: AirEcono-OATemp
 "UseEconoVintApplic" = FALSE   $ IP Tech: AirEcono-OATemp
 "DuctDT" = 1   $ IP Tech: ComDuctInsul-1
 "DuctAirLoss" = 0   $ IP Tech: ComDuctLeak-0
 "DuctLossOAFrac" = 0   $ IP Tech: ComDuctLeak-0
 "ComRoofInsCalc" = FromUo   $ IP Tech: ComRoofIns-WFrm-0.03
 "ComRoofInsR" = -999   $ IP Tech: ComRoofIns-WFrm-0.03
 "ComRoofUo" = 0.03   $ IP Tech: ComRoofIns-WFrm-0.03
 "ComEWInsCalc" = FromUo   $ IP Tech: ComWallIns-WFrm-0.08
 "ComEWInsR" = -999   $ IP Tech: ComWallIns-WFrm-0.08
 "ComEWUo" = 0.08   $ IP Tech: ComWallIns-WFrm-0.08
 "ComN_SHGC" = 0.25   $ IP Tech: NResWin-ComN-0.36-0.25
 "ComN_UFactor" = 0.36   $ IP Tech: NResWin-ComN-0.36-0.25
 "ComN_VisTrans" = 0.41   $ IP Tech: NResWin-ComN-0.36-0.25
 "ComN_WinCode" = G2668   $ IP Tech: NResWin-ComN-0.36-0.25
 "ComN_WinFrmFrac" = 0.17   $ IP Tech: NResWin-ComN-0.36-0.25
 "ComN_WinFrmU" = 0.3   $ IP Tech: NResWin-ComN-0.36-0.25
 "ComO_SHGC" = 0.25   $ IP Tech: NResWin-ComO-0.36-0.25
 "ComO_UFactor" = 0.36   $ IP Tech: NResWin-ComO-0.36-0.25
 "ComO_VisTrans" = 0.41   $ IP Tech: NResWin-ComO-0.36-0.25
 "ComO_WinCode" = G2668   $ IP Tech: NResWin-ComO-0.36-0.25
 "ComO_WinFrmFrac" = 0.17   $ IP Tech: NResWin-ComO-0.36-0.25
 "ComO_WinFrmU" = 0.3   $ IP Tech: NResWin-ComO-0.36-0.25
 "LtgMsrApplic" = ALL   $ IP Tech: NonResLtgRefPre
 "LtgSav_CFL" = 0   $ IP Tech: NonResLtgRefPre
 "LtgSav_EX" = 0   $ IP Tech: NonResLtgRefPre
 "LtgSav_HB" = 0   $ IP Tech: NonResLtgRefPre
 "LtgSav_LF" = 0   $ IP Tech: NonResLtgRefPre
 "LtgSav_SP" = 0   $ IP Tech: NonResLtgRefPre
 "BF_fFlow" = PSZ65to135_BF_fFlow   $ IP Tech: PkgHP2SpP-65to135-E10.8-C3.3
 "BF_fT" = PSZ65to135_BF_fT   $ IP Tech: PkgHP2SpP-65to135-E10.8-C3.3
 "CEIR_fPLR" = PSZ65to135_CEIR_fPLR   $ IP Tech: PkgHP2SpP-65to135-E10.8-C3.3
 "CLoss_fPLR" = PSZ65to135_CLoss_fPLR   $ IP Tech: PkgHP2SpP-65to135-E10.8-C3.3
 "COP" = 3.3   $ IP Tech: PkgHP2SpP-65to135-E10.8-C3.3
 "COP47" = 3.63   $ IP Tech: PkgHP2SpP-65to135-E10.8-C3.3
 "CfmPerBtuh" = 0.02917   $ IP Tech: PkgHP2SpP-65to135-E10.8-C3.3
 "ClCap_fT" = PSZ65to135_ClCap_fT   $ IP Tech: PkgHP2SpP-65to135-E10.8-C3.3
 "ClSH_fT" = PSZ65to135_ClSH_fT   $ IP Tech: PkgHP2SpP-65to135-E10.8-C3.3
 "CoilBF" = 0.114   $ IP Tech: PkgHP2SpP-65to135-E10.8-C3.3
 "CondWPerBtuh" = 0   $ IP Tech: PkgHP2SpP-65to135-E10.8-C3.3
 "CoolSensCap" = 0.663   $ IP Tech: PkgHP2SpP-65to135-E10.8-C3.3
 "CoolingEIR" = 0.27377   $ IP Tech: PkgHP2SpP-65to135-E10.8-C3.3
 "CrnkEIR" = 0.0027   $ IP Tech: PkgHP2SpP-65to135-E10.8-C3.3
 "CrnkMaxT" = 50   $ IP Tech: PkgHP2SpP-65to135-E10.8-C3.3
 "DXType" = Pkg   $ IP Tech: PkgHP2SpP-65to135-E10.8-C3.3
 "EER" = 10.45   $ IP Tech: PkgHP2SpP-65to135-E10.8-C3.3
 "EIR_fT" = PSZ65to135_EIR_fT   $ IP Tech: PkgHP2SpP-65to135-E10.8-C3.3
 "FanEirPlr" = TwoSpeedFan   $ IP Tech: PkgHP2SpP-65to135-E10.8-C3.3
 "FanWPerCfm" = 0.4   $ IP Tech: PkgHP2SpP-65to135-E10.8-C3.3
 "HIR_fT" = DEFAULT   $ IP Tech: PkgHP2SpP-65to135-E10.8-C3.3
 "HtCap_fT" = DEFAULT   $ IP Tech: PkgHP2SpP-65to135-E10.8-C3.3
 "HtCoolCapRatio" = 0.88   $ IP Tech: PkgHP2SpP-65to135-E10.8-C3.3
 "HtgEIR" = 0.27527   $ IP Tech: PkgHP2SpP-65to135-E10.8-C3.3
 "HtgFuel" = HP   $ IP Tech: PkgHP2SpP-65to135-E10.8-C3.3
 "IEER" = 13.06   $ IP Tech: PkgHP2SpP-65to135-E10.8-C3.3
 "LowSpdCapRatio" = 0.5   $ IP Tech: PkgHP2SpP-65to135-E10.8-C3.3
 "LowSpdCfmRatio" = 0.66   $ IP Tech: PkgHP2SpP-65to135-E10.8-C3.3
 "NominalCap" = 15   $ IP Tech: PkgHP2SpP-65to135-E10.8-C3.3
 "NumStages" = 2   $ IP Tech: PkgHP2SpP-65to135-E10.8-C3.3
 "RatedEER" = 10.8   $ IP Tech: PkgHP2SpP-65to135-E10.8-C3.3
 "RatedSupMtrClass" = Premium   $ IP Tech: PkgHP2SpP-65to135-E10.8-C3.3
 "SizeRange" = 65to135   $ IP Tech: PkgHP2SpP-65to135-E10.8-C3.3
 "SubType" = HP   $ IP Tech: PkgHP2SpP-65to135-E10.8-C3.3
 "SupMotEff" = 0.865   $ IP Tech: PkgHP2SpP-65to135-E10.8-C3.3
 "Tier" = 0   $ IP Tech: PkgHP2SpP-65to135-E10.8-C3.3
 "TotCoolCap" = 184140   $ IP Tech: PkgHP2SpP-65to135-E10.8-C3.3
 "BFMult" = 1   $ IP Tech: RefgChg-NRes-Std
 "CoolEirMult" = 1   $ IP Tech: RefgChg-NRes-Std
 "SensCoolCapMult" = 1   $ IP Tech: RefgChg-NRes-Std
 "TotCoolCapMult" = 1   $ IP Tech: RefgChg-NRes-Std
 "AltAdjFactor" = 1.007532   $ Sizing
 "CAssFlo_L_Break_CZn" = 265.0705   $ Sizing
 "CAssFlo_L_CompDC_CZn" = 156.1115   $ Sizing
 "CAssFlo_L_Conf_CZn" = 192.9004   $ Sizing
 "CAssFlo_L_CopyRm_CZn" = 50.72986   $ Sizing
 "CAssFlo_L_Hall_EZn" = 80.52235   $ Sizing
 "CAssFlo_L_Hall_NZn" = 76.37087   $ Sizing
 "CAssFlo_L_Hall_SZn" = 92.76741   $ Sizing
 "CAssFlo_L_Hall_WZn" = 84.69109   $ Sizing
 "CAssFlo_L_LobWait_EZn" = 196.429   $ Sizing
 "CAssFlo_L_LobWait_NZn" = 166.283   $ Sizing
 "CAssFlo_L_LobWait_SZn" = 211.6203   $ Sizing
 "CAssFlo_L_LobWait_WZn" = 194.4889   $ Sizing
 "CAssFlo_L_MechElec_CZn" = 97.19604   $ Sizing
 "CAssFlo_L_OfficeOpn_CZn" = 56.41268   $ Sizing
 "CAssFlo_L_OfficeOpn_EZn" = 427.5724   $ Sizing
 "CAssFlo_L_OfficeOpn_NZn" = 196.0989   $ Sizing
 "CAssFlo_L_OfficeOpn_SZn" = 424.1836   $ Sizing
 "CAssFlo_L_OfficeOpn_WZn" = 396.0988   $ Sizing
 "CAssFlo_L_OfficeSm_EZn" = 350.1704   $ Sizing
 "CAssFlo_L_OfficeSm_NZn" = 168.9111   $ Sizing
 "CAssFlo_L_OfficeSm_SZn" = 369.2697   $ Sizing
 "CAssFlo_L_OfficeSm_WZn" = 343.0439   $ Sizing
 "CAssFlo_L_Restrm_CZn" = 86.07105   $ Sizing
 "CAssFlo_L_StorSm_CZn" = 47.29895   $ Sizing
 "CAssFlo_L_StorSm_EZn" = 82.94463   $ Sizing
 "CAssFlo_L_StorSm_NZn" = 94.41986   $ Sizing
 "CAssFlo_L_StorSm_SZn" = 80.32358   $ Sizing
 "CAssFlo_L_StorSm_WZn" = 81.00847   $ Sizing
 "CAssFlo_T_Conf_CZn" = 198.6018   $ Sizing
 "CAssFlo_T_Hall_EZn" = 97.99723   $ Sizing
 "CAssFlo_T_Hall_NZn" = 70.06664   $ Sizing
 "CAssFlo_T_Hall_SZn" = 109.4189   $ Sizing
 "CAssFlo_T_Hall_WZn" = 96.6433   $ Sizing
 "CAssFlo_T_OfficeOpn_CZn" = 55.06252   $ Sizing
 "CAssFlo_T_OfficeOpn_EZn" = 435.453   $ Sizing
 "CAssFlo_T_OfficeOpn_NZn" = 212.6532   $ Sizing
 "CAssFlo_T_OfficeOpn_SZn" = 453.1865   $ Sizing
 "CAssFlo_T_OfficeOpn_WZn" = 402.0394   $ Sizing
 "CAssFlo_T_OfficeSm_EZn" = 364.6891   $ Sizing
 "CAssFlo_T_OfficeSm_NZn" = 163.3312   $ Sizing
 "CAssFlo_T_OfficeSm_SZn" = 398.3917   $ Sizing
 "CAssFlo_T_OfficeSm_WZn" = 349.6996   $ Sizing
 "CAssFlo_T_Restrm_CZn" = 86.07105   $ Sizing
 "CAssFlo_T_StorSm_EZn" = 94.67017   $ Sizing
 "CAssFlo_T_StorSm_NZn" = 92.03593   $ Sizing
 "CAssFlo_T_StorSm_SZn" = 101.4223   $ Sizing
 "CAssFlo_T_StorSm_WZn" = 94.27558   $ Sizing
 "CHRtFlo_Sys_L_Break_C" = 265.0705   $ Sizing
 "CHRtFlo_Sys_L_CompDC_C" = 156.1115   $ Sizing
 "CHRtFlo_Sys_L_Conf_C" = 192.9004   $ Sizing
 "CHRtFlo_Sys_L_CopyRm_C" = 50.72986   $ Sizing
 "CHRtFlo_Sys_L_Hall_E" = 80.52235   $ Sizing
 "CHRtFlo_Sys_L_Hall_N" = 76.37087   $ Sizing
 "CHRtFlo_Sys_L_Hall_S" = 92.76741   $ Sizing
 "CHRtFlo_Sys_L_Hall_W" = 84.6911   $ Sizing
 "CHRtFlo_Sys_L_LobWait_E" = 196.429   $ Sizing
 "CHRtFlo_Sys_L_LobWait_N" = 166.283   $ Sizing
 "CHRtFlo_Sys_L_LobWait_S" = 211.6203   $ Sizing
 "CHRtFlo_Sys_L_LobWait_W" = 194.4889   $ Sizing
 "CHRtFlo_Sys_L_MechElec_C" = 97.19604   $ Sizing
 "CHRtFlo_Sys_L_OfficeOpn_C" = 56.41268   $ Sizing
 "CHRtFlo_Sys_L_OfficeOpn_E" = 427.5724   $ Sizing
 "CHRtFlo_Sys_L_OfficeOpn_N" = 196.0989   $ Sizing
 "CHRtFlo_Sys_L_OfficeOpn_S" = 424.1836   $ Sizing
 "CHRtFlo_Sys_L_OfficeOpn_W" = 396.0988   $ Sizing
 "CHRtFlo_Sys_L_OfficeSm_E" = 350.1704   $ Sizing
 "CHRtFlo_Sys_L_OfficeSm_N" = 168.9111   $ Sizing
 "CHRtFlo_Sys_L_OfficeSm_S" = 369.2697   $ Sizing
 "CHRtFlo_Sys_L_OfficeSm_W" = 343.0439   $ Sizing
 "CHRtFlo_Sys_L_Restrm_C" = 86.07105   $ Sizing
 "CHRtFlo_Sys_L_StorSm_C" = 47.29895   $ Sizing
 "CHRtFlo_Sys_L_StorSm_E" = 82.94463   $ Sizing
 "CHRtFlo_Sys_L_StorSm_N" = 94.41986   $ Sizing
 "CHRtFlo_Sys_L_StorSm_S" = 80.32358   $ Sizing
 "CHRtFlo_Sys_L_StorSm_W" = 81.00847   $ Sizing
 "CHRtFlo_Sys_T_Conf_C" = 198.6018   $ Sizing
 "CHRtFlo_Sys_T_Hall_E" = 97.99723   $ Sizing
 "CHRtFlo_Sys_T_Hall_N" = 70.06664   $ Sizing
 "CHRtFlo_Sys_T_Hall_S" = 109.4189   $ Sizing
 "CHRtFlo_Sys_T_Hall_W" = 96.6433   $ Sizing
 "CHRtFlo_Sys_T_OfficeOpn_C" = 55.06252   $ Sizing
 "CHRtFlo_Sys_T_OfficeOpn_E" = 435.453   $ Sizing
 "CHRtFlo_Sys_T_OfficeOpn_N" = 212.6532   $ Sizing
 "CHRtFlo_Sys_T_OfficeOpn_S" = 453.1865   $ Sizing
 "CHRtFlo_Sys_T_OfficeOpn_W" = 402.0394   $ Sizing
 "CHRtFlo_Sys_T_OfficeSm_E" = 364.6891   $ Sizing
 "CHRtFlo_Sys_T_OfficeSm_N" = 163.3312   $ Sizing
 "CHRtFlo_Sys_T_OfficeSm_S" = 398.3917   $ Sizing
 "CHRtFlo_Sys_T_OfficeSm_W" = 349.6996   $ Sizing
 "CHRtFlo_Sys_T_Restrm_C" = 86.07105   $ Sizing
 "CHRtFlo_Sys_T_StorSm_E" = 94.67017   $ Sizing
 "CHRtFlo_Sys_T_StorSm_N" = 92.03593   $ Sizing
 "CHRtFlo_Sys_T_StorSm_S" = 101.4223   $ Sizing
 "CHRtFlo_Sys_T_StorSm_W" = 94.27558   $ Sizing
 "CRtdFlo_Sys_L_Break_C" = 265.0705   $ Sizing
 "CRtdFlo_Sys_L_CompDC_C" = 156.1115   $ Sizing
 "CRtdFlo_Sys_L_Conf_C" = 192.9004   $ Sizing
 "CRtdFlo_Sys_L_CopyRm_C" = 50.72986   $ Sizing
 "CRtdFlo_Sys_L_Hall_E" = 80.52235   $ Sizing
 "CRtdFlo_Sys_L_Hall_N" = 76.37087   $ Sizing
 "CRtdFlo_Sys_L_Hall_S" = 92.76741   $ Sizing
 "CRtdFlo_Sys_L_Hall_W" = 84.69109   $ Sizing
 "CRtdFlo_Sys_L_LobWait_E" = 196.429   $ Sizing
 "CRtdFlo_Sys_L_LobWait_N" = 166.283   $ Sizing
 "CRtdFlo_Sys_L_LobWait_S" = 211.6203   $ Sizing
 "CRtdFlo_Sys_L_LobWait_W" = 194.4889   $ Sizing
 "CRtdFlo_Sys_L_MechElec_C" = 97.19604   $ Sizing
 "CRtdFlo_Sys_L_OfficeOpn_C" = 56.41268   $ Sizing
 "CRtdFlo_Sys_L_OfficeOpn_E" = 427.5724   $ Sizing
 "CRtdFlo_Sys_L_OfficeOpn_N" = 196.0989   $ Sizing
 "CRtdFlo_Sys_L_OfficeOpn_S" = 424.1836   $ Sizing
 "CRtdFlo_Sys_L_OfficeOpn_W" = 396.0988   $ Sizing
 "CRtdFlo_Sys_L_OfficeSm_E" = 350.1704   $ Sizing
 "CRtdFlo_Sys_L_OfficeSm_N" = 168.9111   $ Sizing
 "CRtdFlo_Sys_L_OfficeSm_S" = 369.2697   $ Sizing
 "CRtdFlo_Sys_L_OfficeSm_W" = 343.0439   $ Sizing
 "CRtdFlo_Sys_L_Restrm_C" = 86.07105   $ Sizing
 "CRtdFlo_Sys_L_StorSm_C" = 47.29895   $ Sizing
 "CRtdFlo_Sys_L_StorSm_E" = 82.94463   $ Sizing
 "CRtdFlo_Sys_L_StorSm_N" = 94.41986   $ Sizing
 "CRtdFlo_Sys_L_StorSm_S" = 80.32358   $ Sizing
 "CRtdFlo_Sys_L_StorSm_W" = 81.00847   $ Sizing
 "CRtdFlo_Sys_T_Conf_C" = 198.6018   $ Sizing
 "CRtdFlo_Sys_T_Hall_E" = 97.99723   $ Sizing
 "CRtdFlo_Sys_T_Hall_N" = 70.06664   $ Sizing
 "CRtdFlo_Sys_T_Hall_S" = 109.4189   $ Sizing
 "CRtdFlo_Sys_T_Hall_W" = 96.6433   $ Sizing
 "CRtdFlo_Sys_T_OfficeOpn_C" = 55.06252   $ Sizing
 "CRtdFlo_Sys_T_OfficeOpn_E" = 435.453   $ Sizing
 "CRtdFlo_Sys_T_OfficeOpn_N" = 212.6532   $ Sizing
 "CRtdFlo_Sys_T_OfficeOpn_S" = 453.1865   $ Sizing
 "CRtdFlo_Sys_T_OfficeOpn_W" = 402.0394   $ Sizing
 "CRtdFlo_Sys_T_OfficeSm_E" = 364.6891   $ Sizing
 "CRtdFlo_Sys_T_OfficeSm_N" = 163.3312   $ Sizing
 "CRtdFlo_Sys_T_OfficeSm_S" = 398.3917   $ Sizing
 "CRtdFlo_Sys_T_OfficeSm_W" = 349.6996   $ Sizing
 "CRtdFlo_Sys_T_Restrm_C" = 86.07105   $ Sizing
 "CRtdFlo_Sys_T_StorSm_E" = 94.67017   $ Sizing
 "CRtdFlo_Sys_T_StorSm_N" = 92.03593   $ Sizing
 "CRtdFlo_Sys_T_StorSm_S" = 101.4223   $ Sizing
 "CRtdFlo_Sys_T_StorSm_W" = 94.27558   $ Sizing
 "CSupFlo_Sys_L_Break_C" = 265.0705   $ Sizing
 "CSupFlo_Sys_L_CompDC_C" = 156.1115   $ Sizing
 "CSupFlo_Sys_L_Conf_C" = 192.9004   $ Sizing
 "CSupFlo_Sys_L_CopyRm_C" = 50.72986   $ Sizing
 "CSupFlo_Sys_L_Hall_E" = 80.52235   $ Sizing
 "CSupFlo_Sys_L_Hall_N" = 76.37087   $ Sizing
 "CSupFlo_Sys_L_Hall_S" = 92.76741   $ Sizing
 "CSupFlo_Sys_L_Hall_W" = 84.69109   $ Sizing
 "CSupFlo_Sys_L_LobWait_E" = 196.429   $ Sizing
 "CSupFlo_Sys_L_LobWait_N" = 166.283   $ Sizing
 "CSupFlo_Sys_L_LobWait_S" = 211.6203   $ Sizing
 "CSupFlo_Sys_L_LobWait_W" = 194.4889   $ Sizing
 "CSupFlo_Sys_L_MechElec_C" = 97.19604   $ Sizing
 "CSupFlo_Sys_L_OfficeOpn_C" = 56.41268   $ Sizing
 "CSupFlo_Sys_L_OfficeOpn_E" = 427.5724   $ Sizing
 "CSupFlo_Sys_L_OfficeOpn_N" = 196.0989   $ Sizing
 "CSupFlo_Sys_L_OfficeOpn_S" = 424.1836   $ Sizing
 "CSupFlo_Sys_L_OfficeOpn_W" = 396.0988   $ Sizing
 "CSupFlo_Sys_L_OfficeSm_E" = 350.1704   $ Sizing
 "CSupFlo_Sys_L_OfficeSm_N" = 168.9111   $ Sizing
 "CSupFlo_Sys_L_OfficeSm_S" = 369.2697   $ Sizing
 "CSupFlo_Sys_L_OfficeSm_W" = 343.0439   $ Sizing
 "CSupFlo_Sys_L_Restrm_C" = 86.07105   $ Sizing
 "CSupFlo_Sys_L_StorSm_C" = 47.29895   $ Sizing
 "CSupFlo_Sys_L_StorSm_E" = 82.94463   $ Sizing
 "CSupFlo_Sys_L_StorSm_N" = 94.41986   $ Sizing
 "CSupFlo_Sys_L_StorSm_S" = 80.32358   $ Sizing
 "CSupFlo_Sys_L_StorSm_W" = 81.00847   $ Sizing
 "CSupFlo_Sys_T_Conf_C" = 198.6018   $ Sizing
 "CSupFlo_Sys_T_Hall_E" = 97.99723   $ Sizing
 "CSupFlo_Sys_T_Hall_N" = 70.06664   $ Sizing
 "CSupFlo_Sys_T_Hall_S" = 109.4189   $ Sizing
 "CSupFlo_Sys_T_Hall_W" = 96.6433   $ Sizing
 "CSupFlo_Sys_T_OfficeOpn_C" = 55.06252   $ Sizing
 "CSupFlo_Sys_T_OfficeOpn_E" = 435.453   $ Sizing
 "CSupFlo_Sys_T_OfficeOpn_N" = 212.6532   $ Sizing
 "CSupFlo_Sys_T_OfficeOpn_S" = 453.1865   $ Sizing
 "CSupFlo_Sys_T_OfficeOpn_W" = 402.0394   $ Sizing
 "CSupFlo_Sys_T_OfficeSm_E" = 364.6891   $ Sizing
 "CSupFlo_Sys_T_OfficeSm_N" = 163.3312   $ Sizing
 "CSupFlo_Sys_T_OfficeSm_S" = 398.3917   $ Sizing
 "CSupFlo_Sys_T_OfficeSm_W" = 349.6996   $ Sizing
 "CSupFlo_Sys_T_Restrm_C" = 86.07105   $ Sizing
 "CSupFlo_Sys_T_StorSm_E" = 94.67017   $ Sizing
 "CSupFlo_Sys_T_StorSm_N" = 92.03593   $ Sizing
 "CSupFlo_Sys_T_StorSm_S" = 101.4223   $ Sizing
 "CSupFlo_Sys_T_StorSm_W" = 94.27558   $ Sizing
 "ClCap_Sys_L_Break_C" = 9020.19   $ Sizing
 "ClCap_Sys_L_CompDC_C" = 5312.381   $ Sizing
 "ClCap_Sys_L_Conf_C" = 8354.547   $ Sizing
 "ClCap_Sys_L_CopyRm_C" = 1726.307   $ Sizing
 "ClCap_Sys_L_Hall_E" = 2740.127   $ Sizing
 "ClCap_Sys_L_Hall_N" = 2598.855   $ Sizing
 "ClCap_Sys_L_Hall_S" = 3156.82   $ Sizing
 "ClCap_Sys_L_Hall_W" = 2881.987   $ Sizing
 "ClCap_Sys_L_LobWait_E" = 6684.36   $ Sizing
 "ClCap_Sys_L_LobWait_N" = 5658.511   $ Sizing
 "ClCap_Sys_L_LobWait_S" = 7201.311   $ Sizing
 "ClCap_Sys_L_LobWait_W" = 6618.34   $ Sizing
 "ClCap_Sys_L_MechElec_C" = 3307.523   $ Sizing
 "ClCap_Sys_L_OfficeOpn_C" = 1919.69   $ Sizing
 "ClCap_Sys_L_OfficeOpn_E" = 14550.03   $ Sizing
 "ClCap_Sys_L_OfficeOpn_N" = 6673.128   $ Sizing
 "ClCap_Sys_L_OfficeOpn_S" = 14434.71   $ Sizing
 "ClCap_Sys_L_OfficeOpn_W" = 13479   $ Sizing
 "ClCap_Sys_L_OfficeSm_E" = 11916.09   $ Sizing
 "ClCap_Sys_L_OfficeSm_N" = 5747.944   $ Sizing
 "ClCap_Sys_L_OfficeSm_S" = 12566.03   $ Sizing
 "ClCap_Sys_L_OfficeSm_W" = 11673.58   $ Sizing
 "ClCap_Sys_L_Restrm_C" = 2928.947   $ Sizing
 "ClCap_Sys_L_StorSm_C" = 1609.555   $ Sizing
 "ClCap_Sys_L_StorSm_E" = 2822.556   $ Sizing
 "ClCap_Sys_L_StorSm_N" = 3213.051   $ Sizing
 "ClCap_Sys_L_StorSm_S" = 2733.363   $ Sizing
 "ClCap_Sys_L_StorSm_W" = 2756.67   $ Sizing
 "ClCap_Sys_T_Conf_C" = 8601.473   $ Sizing
 "ClCap_Sys_T_Hall_E" = 3334.787   $ Sizing
 "ClCap_Sys_T_Hall_N" = 2384.326   $ Sizing
 "ClCap_Sys_T_Hall_S" = 3723.46   $ Sizing
 "ClCap_Sys_T_Hall_W" = 3288.714   $ Sizing
 "ClCap_Sys_T_OfficeOpn_C" = 1873.745   $ Sizing
 "ClCap_Sys_T_OfficeOpn_E" = 14818.2   $ Sizing
 "ClCap_Sys_T_OfficeOpn_N" = 7236.462   $ Sizing
 "ClCap_Sys_T_OfficeOpn_S" = 15421.67   $ Sizing
 "ClCap_Sys_T_OfficeOpn_W" = 13681.16   $ Sizing
 "ClCap_Sys_T_OfficeSm_E" = 12410.15   $ Sizing
 "ClCap_Sys_T_OfficeSm_N" = 5558.062   $ Sizing
 "ClCap_Sys_T_OfficeSm_S" = 13557.03   $ Sizing
 "ClCap_Sys_T_OfficeSm_W" = 11900.07   $ Sizing
 "ClCap_Sys_T_Restrm_C" = 2928.947   $ Sizing
 "ClCap_Sys_T_StorSm_E" = 3221.569   $ Sizing
 "ClCap_Sys_T_StorSm_N" = 3131.928   $ Sizing
 "ClCap_Sys_T_StorSm_S" = 3451.34   $ Sizing
 "ClCap_Sys_T_StorSm_W" = 3208.142   $ Sizing
 "HRtECT_Sys_L_Break_C" = 47   $ Sizing
 "HRtECT_Sys_L_CompDC_C" = 47   $ Sizing
 "HRtECT_Sys_L_Conf_C" = 47   $ Sizing
 "HRtECT_Sys_L_CopyRm_C" = 47   $ Sizing
 "HRtECT_Sys_L_Hall_E" = 47   $ Sizing
 "HRtECT_Sys_L_Hall_N" = 47   $ Sizing
 "HRtECT_Sys_L_Hall_S" = 47   $ Sizing
 "HRtECT_Sys_L_Hall_W" = 47   $ Sizing
 "HRtECT_Sys_L_LobWait_E" = 47   $ Sizing
 "HRtECT_Sys_L_LobWait_N" = 47   $ Sizing
 "HRtECT_Sys_L_LobWait_S" = 47   $ Sizing
 "HRtECT_Sys_L_LobWait_W" = 47   $ Sizing
 "HRtECT_Sys_L_MechElec_C" = 47   $ Sizing
 "HRtECT_Sys_L_OfficeOpn_C" = 47   $ Sizing
 "HRtECT_Sys_L_OfficeOpn_E" = 47   $ Sizing
 "HRtECT_Sys_L_OfficeOpn_N" = 47   $ Sizing
 "HRtECT_Sys_L_OfficeOpn_S" = 47   $ Sizing
 "HRtECT_Sys_L_OfficeOpn_W" = 47   $ Sizing
 "HRtECT_Sys_L_OfficeSm_E" = 47   $ Sizing
 "HRtECT_Sys_L_OfficeSm_N" = 47   $ Sizing
 "HRtECT_Sys_L_OfficeSm_S" = 47   $ Sizing
 "HRtECT_Sys_L_OfficeSm_W" = 47   $ Sizing
 "HRtECT_Sys_L_Restrm_C" = 47   $ Sizing
 "HRtECT_Sys_L_StorSm_C" = 47   $ Sizing
 "HRtECT_Sys_L_StorSm_E" = 47   $ Sizing
 "HRtECT_Sys_L_StorSm_N" = 47   $ Sizing
 "HRtECT_Sys_L_StorSm_S" = 47   $ Sizing
 "HRtECT_Sys_L_StorSm_W" = 47   $ Sizing
 "HRtECT_Sys_T_Conf_C" = 47   $ Sizing
 "HRtECT_Sys_T_Hall_E" = 47   $ Sizing
 "HRtECT_Sys_T_Hall_N" = 47   $ Sizing
 "HRtECT_Sys_T_Hall_S" = 47   $ Sizing
 "HRtECT_Sys_T_Hall_W" = 47   $ Sizing
 "HRtECT_Sys_T_OfficeOpn_C" = 47   $ Sizing
 "HRtECT_Sys_T_OfficeOpn_E" = 47   $ Sizing
 "HRtECT_Sys_T_OfficeOpn_N" = 47   $ Sizing
 "HRtECT_Sys_T_OfficeOpn_S" = 47   $ Sizing
 "HRtECT_Sys_T_OfficeOpn_W" = 47   $ Sizing
 "HRtECT_Sys_T_OfficeSm_E" = 47   $ Sizing
 "HRtECT_Sys_T_OfficeSm_N" = 47   $ Sizing
 "HRtECT_Sys_T_OfficeSm_S" = 47   $ Sizing
 "HRtECT_Sys_T_OfficeSm_W" = 47   $ Sizing
 "HRtECT_Sys_T_Restrm_C" = 47   $ Sizing
 "HRtECT_Sys_T_StorSm_E" = 47   $ Sizing
 "HRtECT_Sys_T_StorSm_N" = 47   $ Sizing
 "HRtECT_Sys_T_StorSm_S" = 47   $ Sizing
 "HRtECT_Sys_T_StorSm_W" = 47   $ Sizing
 "HSpCap_Sys_L_Break_C" = -6938.828   $ Sizing
 "HSpCap_Sys_L_CompDC_C" = -2337.448   $ Sizing
 "HSpCap_Sys_L_Conf_C" = -7210.863   $ Sizing
 "HSpCap_Sys_L_CopyRm_C" = -2862.755   $ Sizing
 "HSpCap_Sys_L_Hall_E" = -2273.096   $ Sizing
 "HSpCap_Sys_L_Hall_N" = -2011.231   $ Sizing
 "HSpCap_Sys_L_Hall_S" = -1651.62   $ Sizing
 "HSpCap_Sys_L_Hall_W" = -2190.809   $ Sizing
 "HSpCap_Sys_L_LobWait_E" = -5525.796   $ Sizing
 "HSpCap_Sys_L_LobWait_N" = -5452.275   $ Sizing
 "HSpCap_Sys_L_LobWait_S" = -4800.554   $ Sizing
 "HSpCap_Sys_L_LobWait_W" = -5589.249   $ Sizing
 "HSpCap_Sys_L_MechElec_C" = -2815.36   $ Sizing
 "HSpCap_Sys_L_OfficeOpn_C" = -1538.402   $ Sizing
 "HSpCap_Sys_L_OfficeOpn_E" = -6402.014   $ Sizing
 "HSpCap_Sys_L_OfficeOpn_N" = -6404.984   $ Sizing
 "HSpCap_Sys_L_OfficeOpn_S" = -6351.273   $ Sizing
 "HSpCap_Sys_L_OfficeOpn_W" = -6048.009   $ Sizing
 "HSpCap_Sys_L_OfficeSm_E" = -5388.803   $ Sizing
 "HSpCap_Sys_L_OfficeSm_N" = -5109.992   $ Sizing
 "HSpCap_Sys_L_OfficeSm_S" = -5529.052   $ Sizing
 "HSpCap_Sys_L_OfficeSm_W" = -5136.375   $ Sizing
 "HSpCap_Sys_L_Restrm_C" = -1456.414   $ Sizing
 "HSpCap_Sys_L_StorSm_C" = -1357.469   $ Sizing
 "HSpCap_Sys_L_StorSm_E" = -2443.813   $ Sizing
 "HSpCap_Sys_L_StorSm_N" = -2756.485   $ Sizing
 "HSpCap_Sys_L_StorSm_S" = -2046.854   $ Sizing
 "HSpCap_Sys_L_StorSm_W" = -2476.075   $ Sizing
 "HSpCap_Sys_T_Conf_C" = -7806.882   $ Sizing
 "HSpCap_Sys_T_Hall_E" = -2616.795   $ Sizing
 "HSpCap_Sys_T_Hall_N" = -2280.015   $ Sizing
 "HSpCap_Sys_T_Hall_S" = -2267.854   $ Sizing
 "HSpCap_Sys_T_Hall_W" = -2548.115   $ Sizing
 "HSpCap_Sys_T_OfficeOpn_C" = -1497.866   $ Sizing
 "HSpCap_Sys_T_OfficeOpn_E" = -7377.243   $ Sizing
 "HSpCap_Sys_T_OfficeOpn_N" = -6908.225   $ Sizing
 "HSpCap_Sys_T_OfficeOpn_S" = -6785.533   $ Sizing
 "HSpCap_Sys_T_OfficeOpn_W" = -7488.173   $ Sizing
 "HSpCap_Sys_T_OfficeSm_E" = -6602.287   $ Sizing
 "HSpCap_Sys_T_OfficeSm_N" = -5499.105   $ Sizing
 "HSpCap_Sys_T_OfficeSm_S" = -5965.094   $ Sizing
 "HSpCap_Sys_T_OfficeSm_W" = -6261.461   $ Sizing
 "HSpCap_Sys_T_Restrm_C" = -2555.195   $ Sizing
 "HSpCap_Sys_T_StorSm_E" = -3020.563   $ Sizing
 "HSpCap_Sys_T_StorSm_N" = -3158.15   $ Sizing
 "HSpCap_Sys_T_StorSm_S" = -2599.325   $ Sizing
 "HSpCap_Sys_T_StorSm_W" = -3105.377   $ Sizing
 "HtCap_Sys_L_Break_C" = -7937.768   $ Sizing
 "HtCap_Sys_L_CompDC_C" = -4674.896   $ Sizing
 "HtCap_Sys_L_Conf_C" = -7352.001   $ Sizing
 "HtCap_Sys_L_CopyRm_C" = -1519.15   $ Sizing
 "HtCap_Sys_L_Hall_E" = -2411.312   $ Sizing
 "HtCap_Sys_L_Hall_N" = -2286.992   $ Sizing
 "HtCap_Sys_L_Hall_S" = -2778.001   $ Sizing
 "HtCap_Sys_L_Hall_W" = -2536.149   $ Sizing
 "HtCap_Sys_L_LobWait_E" = -5882.237   $ Sizing
 "HtCap_Sys_L_LobWait_N" = -4979.49   $ Sizing
 "HtCap_Sys_L_LobWait_S" = -6337.154   $ Sizing
 "HtCap_Sys_L_LobWait_W" = -5824.139   $ Sizing
 "HtCap_Sys_L_MechElec_C" = -2910.62   $ Sizing
 "HtCap_Sys_L_OfficeOpn_C" = -1689.327   $ Sizing
 "HtCap_Sys_L_OfficeOpn_E" = -12804.03   $ Sizing
 "HtCap_Sys_L_OfficeOpn_N" = -5872.353   $ Sizing
 "HtCap_Sys_L_OfficeOpn_S" = -12702.55   $ Sizing
 "HtCap_Sys_L_OfficeOpn_W" = -11861.52   $ Sizing
 "HtCap_Sys_L_OfficeSm_E" = -10486.16   $ Sizing
 "HtCap_Sys_L_OfficeSm_N" = -5058.19   $ Sizing
 "HtCap_Sys_L_OfficeSm_S" = -11058.1   $ Sizing
 "HtCap_Sys_L_OfficeSm_W" = -10272.75   $ Sizing
 "HtCap_Sys_L_Restrm_C" = -2577.473   $ Sizing
 "HtCap_Sys_L_StorSm_C" = -1416.408   $ Sizing
 "HtCap_Sys_L_StorSm_E" = -2483.849   $ Sizing
 "HtCap_Sys_L_StorSm_N" = -2827.485   $ Sizing
 "HtCap_Sys_L_StorSm_S" = -2405.36   $ Sizing
 "HtCap_Sys_L_StorSm_W" = -2425.869   $ Sizing
 "HtCap_Sys_T_Conf_C" = -7569.296   $ Sizing
 "HtCap_Sys_T_Hall_E" = -2934.613   $ Sizing
 "HtCap_Sys_T_Hall_N" = -2098.207   $ Sizing
 "HtCap_Sys_T_Hall_S" = -3276.645   $ Sizing
 "HtCap_Sys_T_Hall_W" = -2894.068   $ Sizing
 "HtCap_Sys_T_OfficeOpn_C" = -1648.895   $ Sizing
 "HtCap_Sys_T_OfficeOpn_E" = -13040.02   $ Sizing
 "HtCap_Sys_T_OfficeOpn_N" = -6368.086   $ Sizing
 "HtCap_Sys_T_OfficeOpn_S" = -13571.07   $ Sizing
 "HtCap_Sys_T_OfficeOpn_W" = -12039.42   $ Sizing
 "HtCap_Sys_T_OfficeSm_E" = -10920.93   $ Sizing
 "HtCap_Sys_T_OfficeSm_N" = -4891.094   $ Sizing
 "HtCap_Sys_T_OfficeSm_S" = -11930.19   $ Sizing
 "HtCap_Sys_T_OfficeSm_W" = -10472.06   $ Sizing
 "HtCap_Sys_T_Restrm_C" = -2577.473   $ Sizing
 "HtCap_Sys_T_StorSm_E" = -2834.981   $ Sizing
 "HtCap_Sys_T_StorSm_N" = -2756.096   $ Sizing
 "HtCap_Sys_T_StorSm_S" = -3037.179   $ Sizing
 "HtCap_Sys_T_StorSm_W" = -2823.165   $ Sizing
..

##include Templates\OfS_DX_SZ.inp
END ..
COMPUTE ..
STOP ..
