INPUT ..

##fileprefix C:\Users\jglasskatz\MASControl3\
##set1 IsSizing FALSE
##set1 CoolType DX
##set1 HeatType FURNACE
##set1 EU_HrRepVar 0
##set1 BldgVint 1975
##set1 BldgLoc CZ02

 ##set1 mBFMult 1   $ IP Tech: RefgChg-NRes-Std

PARAMETER
 "AltFactor" = 1.00464   $ IP Non-Tech
 "BF_fFlow" = SpltAC2SpHiSEER_BF_fFlow   $ Msr (Multi)TechID: MsrNResSplitAC-lt45-S17
 "BF_fT" = SpltAC2SpHiSEER_BF_fT   $ Msr (Multi)TechID: MsrNResSplitAC-lt45-S17
 "BldgEconoFlag" = 1   $ IP Non-Tech
 "Break_EWSF" = 1   $ IP Non-Tech
 "Break_LWSF" = 1.1   $ IP Non-Tech
 "CDD_DBHi10" = 83   $ IP Non-Tech
 "CDD_DBHi7" = 96   $ IP Non-Tech
 "CDD_DBHi8" = 92   $ IP Non-Tech
 "CDD_DBHi9" = 96   $ IP Non-Tech
 "CDD_DBRange10" = 35   $ IP Non-Tech
 "CDD_DBRange7" = 44   $ IP Non-Tech
 "CDD_DBRange8" = 38   $ IP Non-Tech
 "CDD_DBRange9" = 43   $ IP Non-Tech
 "CDD_Day10" = 15   $ IP Non-Tech
 "CDD_Day7" = 16   $ IP Non-Tech
 "CDD_Day8" = 20   $ IP Non-Tech
 "CDD_Day9" = 17   $ IP Non-Tech
 "CDD_HrHi10" = 15   $ IP Non-Tech
 "CDD_HrHi7" = 15   $ IP Non-Tech
 "CDD_HrHi8" = 16   $ IP Non-Tech
 "CDD_HrHi9" = 14   $ IP Non-Tech
 "CDD_HrLo10" = 7   $ IP Non-Tech
 "CDD_HrLo7" = 7   $ IP Non-Tech
 "CDD_HrLo8" = 6   $ IP Non-Tech
 "CDD_HrLo9" = 6   $ IP Non-Tech
 "CDD_WB10" = 61.02124405   $ IP Non-Tech
 "CDD_WB7" = 68.3706665   $ IP Non-Tech
 "CDD_WB8" = 69.14488983   $ IP Non-Tech
 "CDD_WB9" = 65.15551758   $ IP Non-Tech
 "CEIR_fPLR_Hot" = SpltAC2SpHiSEER_CEIR_fPLR_Hot   $ Msr (Multi)TechID: MsrNResSplitAC-lt45-S17
 "CEIR_fPLR_Mod" = SpltAC2SpHiSEER_CEIR_fPLR_Mod   $ Msr (Multi)TechID: MsrNResSplitAC-lt45-S17
 "CEIR_fPLR_Tem" = SpltAC2SpHiSEER_CEIR_fPLR_Tem   $ Msr (Multi)TechID: MsrNResSplitAC-lt45-S17
 "CLoss_fPLR_Hot" = SpltAC2SpHiSEER_CLoss_fPLR_Hot   $ Msr (Multi)TechID: MsrNResSplitAC-lt45-S17
 "CLoss_fPLR_Mod" = SpltAC2SpHiSEER_CLoss_fPLR_Mod   $ Msr (Multi)TechID: MsrNResSplitAC-lt45-S17
 "CLoss_fPLR_Tem" = SpltAC2SpHiSEER_CLoss_fPLR_Tem   $ Msr (Multi)TechID: MsrNResSplitAC-lt45-S17
 "COP47" = 0   $ Msr (Multi)TechID: MsrNResSplitAC-lt45-S17
 "CZ_Category" = Mod   $ IP Non-Tech
 "CapRange" = Any   $ Msr (Multi)TechID: MsrNResSplitAC-lt45-S17
 "CfmPerBtuh" = 0.03   $ Msr (Multi)TechID: MsrNResSplitAC-lt45-S17
 "ChwVintEconoFlag" = 1   $ IP Non-Tech
 "ClCap_fT" = SpltAC2SpHiSEER_ClCap_fT   $ Msr (Multi)TechID: MsrNResSplitAC-lt45-S17
 "ClSH_fT" = SpltAC2SpHiSEER_ClSH_fT   $ Msr (Multi)TechID: MsrNResSplitAC-lt45-S17
 "CoilBF" = 0.102   $ Msr (Multi)TechID: MsrNResSplitAC-lt45-S17
 "CompRoomData_EWSF" = 5.75   $ IP Non-Tech
 "CompRoomData_LWSF" = 1.2   $ IP Non-Tech
 "CondWPerBtuh" = 0   $ Msr (Multi)TechID: MsrNResSplitAC-lt45-S17
 "Conference_EWSF" = 1.15   $ IP Non-Tech
 "Conference_LWSF" = 1.4   $ IP Non-Tech
 "CoolSensCap" = 0.724   $ Msr (Multi)TechID: MsrNResSplitAC-lt45-S17
 "CoolSetT" = 45   $ IP Non-Tech
 "CoolType" = DX   $ IP Non-Tech
 "CoolingEIR" = 0.2225   $ Msr (Multi)TechID: MsrNResSplitAC-lt45-S17
 "CopyRoom_EWSF" = 1.725   $ IP Non-Tech
 "CopyRoom_LWSF" = 1.3   $ IP Non-Tech
 "CrnkEIR" = 0.002225   $ Msr (Multi)TechID: MsrNResSplitAC-lt45-S17
 "CrnkMaxT" = 50   $ Msr (Multi)TechID: MsrNResSplitAC-lt45-S17
 "DXType" = SplitSEER   $ Msr (Multi)TechID: MsrNResSplitAC-lt45-S17
 "DesCoolT" = 75   $ IP Non-Tech
 "DesHeatT" = 73   $ IP Non-Tech
 "EER" = 13.26   $ Msr (Multi)TechID: MsrNResSplitAC-lt45-S17
 "EIR_fT" = SpltAC2SpHiSEER_EIR_fT   $ Msr (Multi)TechID: MsrNResSplitAC-lt45-S17
 "EconoCtrl" = FIXED   $ Msr (Multi)TechID: MsrNResSplitAC-lt45-S17
 "EconoEnthLimit" = 28   $ IP Non-Tech
 "EconoTempLimit" = 73   $ IP Non-Tech
 "Elevation" = 125   $ IP Non-Tech
 "FanEirPlr" = TwoSpeedFan   $ Msr (Multi)TechID: MsrNResSplitAC-lt45-S17
 "FanWPerCfm" = 0.271   $ Msr (Multi)TechID: MsrNResSplitAC-lt45-S17
 "HDD_CloudAmt1" = 0   $ IP Non-Tech
 "HDD_DBHi1" = 51   $ IP Non-Tech
 "HDD_DBRange1" = 22   $ IP Non-Tech
 "HDD_Day1" = 15   $ IP Non-Tech
 "HDD_HrHi1" = 15   $ IP Non-Tech
 "HDD_HrLo1" = 8   $ IP Non-Tech
 "HDD_WB1" = 45.9   $ IP Non-Tech
 "HDD_WindSpd1" = 10.4   $ IP Non-Tech
 "HIR_fT" = 0   $ Msr (Multi)TechID: MsrNResSplitAC-lt45-S17
 "HSPF" = 0   $ Msr (Multi)TechID: MsrNResSplitAC-lt45-S17
 "Hall_EWSF" = 0.23   $ IP Non-Tech
 "Hall_LWSF" = 0.6   $ IP Non-Tech
 "HeatSrc" = FURNACE   $ IP Non-Tech
 "HeatSrcTU" = HEAT-PUMP   $ IP Non-Tech
 "HeatType" = GasFurn   $ IP Non-Tech
 "HeatTypeTU" = HEAT-PUMP   $ IP Non-Tech
 "HtCap_fT" = 0   $ Msr (Multi)TechID: MsrNResSplitAC-lt45-S17
 "HtCoolCapRatio" = 0   $ Msr (Multi)TechID: MsrNResSplitAC-lt45-S17
 "HtgEIR" = 0   $ Msr (Multi)TechID: MsrNResSplitAC-lt45-S17
 "IndoorFanMode" = CONTINUOUS   $ IP Non-Tech
 "KT_TransferAir" = No   $ IP Non-Tech
 "Latitude" = 38.5   $ IP Non-Tech
 "LobbyWaiting_EWSF" = 0.5375   $ IP Non-Tech
 "LobbyWaiting_LWSF" = 1.3   $ IP Non-Tech
 "Longitude" = 122.7   $ IP Non-Tech
 "LowSpdCapRatio" = 0.686   $ Msr (Multi)TechID: MsrNResSplitAC-lt45-S17
 "LowSpdCfmRatio" = 0.739   $ Msr (Multi)TechID: MsrNResSplitAC-lt45-S17
 "MZFanMechEff" = 0.58   $ IP Non-Tech
 "MZHasRetFan" = FALSE   $ IP Non-Tech
 "MZ_RFanWPerCfm" = 0.33   $ IP Non-Tech
 "MZ_SFanWPerCfm" = 0.75   $ IP Non-Tech
 "MZ_SupFanStatic" = 2.25   $ IP Non-Tech
 "MaxOAFrac" = 1   $ Msr (Multi)TechID: MsrNResSplitAC-lt45-S17
 "MaxSupT_MZ" = 100   $ IP Non-Tech
 "MaxSupT_SZ" = 100   $ IP Non-Tech
 "MaxSupT_TU" = 90   $ IP Non-Tech
 "MechElecRoom_EWSF" = 0.23   $ IP Non-Tech
 "MechElecRoom_LWSF" = 0.7   $ IP Non-Tech
 "MinCfmPerSF" = 0.4   $ IP Non-Tech
 "MinSupT" = 55   $ IP Non-Tech
 "NumStages" = 2   $ Msr (Multi)TechID: MsrNResSplitAC-lt45-S17
 "OccCoolT" = 76   $ IP Non-Tech
 "OccHeatT" = 72   $ IP Non-Tech
 "OfficeOpen_EWSF" = 1.725   $ IP Non-Tech
 "OfficeOpen_LWSF" = 1.2   $ IP Non-Tech
 "OfficeSmall_EWSF" = 1.725   $ IP Non-Tech
 "OfficeSmall_LWSF" = 1.3   $ IP Non-Tech
 "PkgDxVintEconoFlag" = 0   $ IP Non-Tech
 "Restroom_EWSF" = 0.23   $ IP Non-Tech
 "Restroom_LWSF" = 0.6   $ IP Non-Tech
 "SEER" = 17   $ Msr (Multi)TechID: MsrNResSplitAC-lt45-S17
 "SZFanMechEff" = 0.58   $ IP Non-Tech
 "SZHasRetFan" = FALSE   $ IP Non-Tech
 "SZ_Is_2Spd" = FALSE   $ IP Non-Tech
 "SZ_SFanWPerCfm" = 0.46   $ IP Non-Tech
 "SZ_SupFanStatic" = 0.75   $ IP Non-Tech
 "Sector" = Any   $ Msr (Multi)TechID: MsrNResSplitAC-lt45-S17
 "StorageSmlCond_EWSF" = 0.23   $ IP Non-Tech
 "StorageSmlCond_LWSF" = 0.6   $ IP Non-Tech
 "SubType" = AC   $ Msr (Multi)TechID: MsrNResSplitAC-lt45-S17
 "T24GlzTbl" = CZTbl   $ IP Non-Tech
 "TermUnitFanMechEff" = 1   $ IP Non-Tech
 "TermUnitFanMode" = INTERMITTENT   $ IP Non-Tech
 "TotCoolCap" = 58805   $ Msr (Multi)TechID: MsrNResSplitAC-lt45-S17
 "TwrSetpt" = 84   $ IP Non-Tech
 "UnocCoolT" = 86   $ IP Non-Tech
 "UnocHeatT" = 62   $ IP Non-Tech
 "UseEconoVintApplic" = FALSE   $ Msr (Multi)TechID: MsrNResSplitAC-lt45-S17
 "WlhpVintEconoFlag" = 0   $ IP Non-Tech
 "DuctDT" = 1   $ IP Tech: ComDuctInsul-1
 "DuctAirLoss" = 0   $ IP Tech: ComDuctLeak-0
 "DuctLossOAFrac" = 0   $ IP Tech: ComDuctLeak-0
 "ComRoofInsCalc" = FromUo   $ IP Tech: ComRoofIns-WFrm-0.07
 "ComRoofInsR" = -999   $ IP Tech: ComRoofIns-WFrm-0.07
 "ComRoofUo" = 0.07   $ IP Tech: ComRoofIns-WFrm-0.07
 "ComEWInsCalc" = FromUo   $ IP Tech: ComWallIns-WFrm-0.12
 "ComEWInsR" = -999   $ IP Tech: ComWallIns-WFrm-0.12
 "ComEWUo" = 0.12   $ IP Tech: ComWallIns-WFrm-0.12
 "ComN_SHGC" = 0.82   $ IP Tech: NResWin-ComN-1.23-0.82
 "ComN_UFactor" = 1.23   $ IP Tech: NResWin-ComN-1.23-0.82
 "ComN_VisTrans" = 0.9   $ IP Tech: NResWin-ComN-1.23-0.82
 "ComN_WinCode" = G1000   $ IP Tech: NResWin-ComN-1.23-0.82
 "ComN_WinFrmFrac" = 0.17   $ IP Tech: NResWin-ComN-1.23-0.82
 "ComN_WinFrmU" = 1   $ IP Tech: NResWin-ComN-1.23-0.82
 "ComO_SHGC" = 0.82   $ IP Tech: NResWin-ComO-1.23-0.82
 "ComO_UFactor" = 1.23   $ IP Tech: NResWin-ComO-1.23-0.82
 "ComO_VisTrans" = 0.9   $ IP Tech: NResWin-ComO-1.23-0.82
 "ComO_WinCode" = G1000   $ IP Tech: NResWin-ComO-1.23-0.82
 "ComO_WinFrmFrac" = 0.17   $ IP Tech: NResWin-ComO-1.23-0.82
 "ComO_WinFrmU" = 1   $ IP Tech: NResWin-ComO-1.23-0.82
 "LtgMsrApplic" = ALL   $ IP Tech: NonResLtgRefPre
 "LtgSav_CFL" = 0   $ IP Tech: NonResLtgRefPre
 "LtgSav_EX" = 0   $ IP Tech: NonResLtgRefPre
 "LtgSav_HB" = 0   $ IP Tech: NonResLtgRefPre
 "LtgSav_LF" = 0   $ IP Tech: NonResLtgRefPre
 "LtgSav_SP" = 0   $ IP Tech: NonResLtgRefPre
 "CEIR_fPLR" = PSZ65to135_CEIR_fPLR   $ IP Tech: PkgAC1SpH-65to135-E10
 "CLoss_fPLR" = PSZ65to135_CLoss_fPLR   $ IP Tech: PkgAC1SpH-65to135-E10
 "COP" = -1   $ IP Tech: PkgAC1SpH-65to135-E10
 "HtgFuel" = Gas   $ IP Tech: PkgAC1SpH-65to135-E10
 "IEER" = 11.87   $ IP Tech: PkgAC1SpH-65to135-E10
 "NominalCap" = 15   $ IP Tech: PkgAC1SpH-65to135-E10
 "RatedEER" = 10   $ IP Tech: PkgAC1SpH-65to135-E10
 "RatedSupMtrClass" = HiEff   $ IP Tech: PkgAC1SpH-65to135-E10
 "SizeRange" = 65to135   $ IP Tech: PkgAC1SpH-65to135-E10
 "SupMotEff" = 0.84   $ IP Tech: PkgAC1SpH-65to135-E10
 "Tier" = 0   $ IP Tech: PkgAC1SpH-65to135-E10
 "FanPwrMult" = 1   $ IP Tech: PkgFurn-0.80AFUE
 "FurnAFUE" = 0.8   $ IP Tech: PkgFurn-0.80AFUE
 "FurnEt" = 0.82   $ IP Tech: PkgFurn-0.80AFUE
 "FurnaceAuxKW" = 0.1   $ IP Tech: PkgFurn-0.80AFUE
 "HIR_fPLR" = Furnace-HIR-fPLR   $ IP Tech: PkgFurn-0.80AFUE
 "VSM" = FALSE   $ IP Tech: PkgFurn-0.80AFUE
 "BFMult" = 1   $ IP Tech: RefgChg-NRes-Std
 "CoolEirMult" = 1   $ IP Tech: RefgChg-NRes-Std
 "SensCoolCapMult" = 1   $ IP Tech: RefgChg-NRes-Std
 "TotCoolCapMult" = 1   $ IP Tech: RefgChg-NRes-Std
 "AltAdjFactor" = 1.004644   $ Sizing
 "CAssFlo_L_Break_CZn" = 387.4014   $ Sizing
 "CAssFlo_L_CompDC_CZn" = 149.5024   $ Sizing
 "CAssFlo_L_Conf_CZn" = 229.5721   $ Sizing
 "CAssFlo_L_CopyRm_CZn" = 84.59087   $ Sizing
 "CAssFlo_L_Hall_EZn" = 136.3626   $ Sizing
 "CAssFlo_L_Hall_NZn" = 66.26897   $ Sizing
 "CAssFlo_L_Hall_SZn" = 163.8876   $ Sizing
 "CAssFlo_L_Hall_WZn" = 169.9457   $ Sizing
 "CAssFlo_L_LobWait_EZn" = 314.7117   $ Sizing
 "CAssFlo_L_LobWait_NZn" = 175.6864   $ Sizing
 "CAssFlo_L_LobWait_SZn" = 391.1096   $ Sizing
 "CAssFlo_L_LobWait_WZn" = 407.6854   $ Sizing
 "CAssFlo_L_MechElec_CZn" = 49.82971   $ Sizing
 "CAssFlo_L_OfficeOpn_CZn" = 54.69765   $ Sizing
 "CAssFlo_L_OfficeOpn_EZn" = 588.9172   $ Sizing
 "CAssFlo_L_OfficeOpn_NZn" = 369.112   $ Sizing
 "CAssFlo_L_OfficeOpn_SZn" = 665.8263   $ Sizing
 "CAssFlo_L_OfficeOpn_WZn" = 694.3004   $ Sizing
 "CAssFlo_L_OfficeSm_EZn" = 506.4135   $ Sizing
 "CAssFlo_L_OfficeSm_NZn" = 294.1531   $ Sizing
 "CAssFlo_L_OfficeSm_SZn" = 589.2662   $ Sizing
 "CAssFlo_L_OfficeSm_WZn" = 608.4235   $ Sizing
 "CAssFlo_L_Restrm_CZn" = 58.7485   $ Sizing
 "CAssFlo_L_StorSm_CZn" = 24.4223   $ Sizing
 "CAssFlo_L_StorSm_EZn" = 132.0812   $ Sizing
 "CAssFlo_L_StorSm_NZn" = 62.52234   $ Sizing
 "CAssFlo_L_StorSm_SZn" = 160.2106   $ Sizing
 "CAssFlo_L_StorSm_WZn" = 160.3914   $ Sizing
 "CAssFlo_T_Conf_CZn" = 223.1778   $ Sizing
 "CAssFlo_T_Hall_EZn" = 157.9801   $ Sizing
 "CAssFlo_T_Hall_NZn" = 81.03493   $ Sizing
 "CAssFlo_T_Hall_SZn" = 192.6511   $ Sizing
 "CAssFlo_T_Hall_WZn" = 195.6454   $ Sizing
 "CAssFlo_T_OfficeOpn_CZn" = 52.53277   $ Sizing
 "CAssFlo_T_OfficeOpn_EZn" = 634.2043   $ Sizing
 "CAssFlo_T_OfficeOpn_NZn" = 405.6497   $ Sizing
 "CAssFlo_T_OfficeOpn_SZn" = 743.4252   $ Sizing
 "CAssFlo_T_OfficeOpn_WZn" = 747.0724   $ Sizing
 "CAssFlo_T_OfficeSm_EZn" = 552.7311   $ Sizing
 "CAssFlo_T_OfficeSm_NZn" = 327.429   $ Sizing
 "CAssFlo_T_OfficeSm_SZn" = 655.3834   $ Sizing
 "CAssFlo_T_OfficeSm_WZn" = 667.893   $ Sizing
 "CAssFlo_T_Restrm_CZn" = 95.35851   $ Sizing
 "CAssFlo_T_StorSm_EZn" = 156.1025   $ Sizing
 "CAssFlo_T_StorSm_NZn" = 82.05889   $ Sizing
 "CAssFlo_T_StorSm_SZn" = 193.9373   $ Sizing
 "CAssFlo_T_StorSm_WZn" = 197.6081   $ Sizing
 "CHRtFlo_Sys_L_Break_C" = 387.4014   $ Sizing
 "CHRtFlo_Sys_L_CompDC_C" = 185.7713   $ Sizing
 "CHRtFlo_Sys_L_Conf_C" = 235.3444   $ Sizing
 "CHRtFlo_Sys_L_CopyRm_C" = 84.59087   $ Sizing
 "CHRtFlo_Sys_L_Hall_E" = 181.3783   $ Sizing
 "CHRtFlo_Sys_L_Hall_N" = 75.6304   $ Sizing
 "CHRtFlo_Sys_L_Hall_S" = 211.6473   $ Sizing
 "CHRtFlo_Sys_L_Hall_W" = 203.6642   $ Sizing
 "CHRtFlo_Sys_L_LobWait_E" = 421.2596   $ Sizing
 "CHRtFlo_Sys_L_LobWait_N" = 175.6864   $ Sizing
 "CHRtFlo_Sys_L_LobWait_S" = 489.2104   $ Sizing
 "CHRtFlo_Sys_L_LobWait_W" = 468.5131   $ Sizing
 "CHRtFlo_Sys_L_MechElec_C" = 68.21701   $ Sizing
 "CHRtFlo_Sys_L_OfficeOpn_C" = 77.63305   $ Sizing
 "CHRtFlo_Sys_L_OfficeOpn_E" = 784.1564   $ Sizing
 "CHRtFlo_Sys_L_OfficeOpn_N" = 387.4675   $ Sizing
 "CHRtFlo_Sys_L_OfficeOpn_S" = 841.1209   $ Sizing
 "CHRtFlo_Sys_L_OfficeOpn_W" = 807.7802   $ Sizing
 "CHRtFlo_Sys_L_OfficeSm_E" = 681.7388   $ Sizing
 "CHRtFlo_Sys_L_OfficeSm_N" = 314.0103   $ Sizing
 "CHRtFlo_Sys_L_OfficeSm_S" = 752.8904   $ Sizing
 "CHRtFlo_Sys_L_OfficeSm_W" = 729.6548   $ Sizing
 "CHRtFlo_Sys_L_Restrm_C" = 85.82434   $ Sizing
 "CHRtFlo_Sys_L_StorSm_C" = 36.64935   $ Sizing
 "CHRtFlo_Sys_L_StorSm_E" = 176.6055   $ Sizing
 "CHRtFlo_Sys_L_StorSm_N" = 82.47256   $ Sizing
 "CHRtFlo_Sys_L_StorSm_S" = 201.0667   $ Sizing
 "CHRtFlo_Sys_L_StorSm_W" = 186.7883   $ Sizing
 "CHRtFlo_Sys_T_Conf_C" = 228.8865   $ Sizing
 "CHRtFlo_Sys_T_Hall_E" = 197.2633   $ Sizing
 "CHRtFlo_Sys_T_Hall_N" = 81.03493   $ Sizing
 "CHRtFlo_Sys_T_Hall_S" = 238.0525   $ Sizing
 "CHRtFlo_Sys_T_Hall_W" = 217.8581   $ Sizing
 "CHRtFlo_Sys_T_OfficeOpn_C" = 67.47032   $ Sizing
 "CHRtFlo_Sys_T_OfficeOpn_E" = 785.42   $ Sizing
 "CHRtFlo_Sys_T_OfficeOpn_N" = 405.6497   $ Sizing
 "CHRtFlo_Sys_T_OfficeOpn_S" = 889.5666   $ Sizing
 "CHRtFlo_Sys_T_OfficeOpn_W" = 813.7059   $ Sizing
 "CHRtFlo_Sys_T_OfficeSm_E" = 693.3835   $ Sizing
 "CHRtFlo_Sys_T_OfficeSm_N" = 327.429   $ Sizing
 "CHRtFlo_Sys_T_OfficeSm_S" = 803.0593   $ Sizing
 "CHRtFlo_Sys_T_OfficeSm_W" = 743.429   $ Sizing
 "CHRtFlo_Sys_T_Restrm_C" = 120.2822   $ Sizing
 "CHRtFlo_Sys_T_StorSm_E" = 190.8558   $ Sizing
 "CHRtFlo_Sys_T_StorSm_N" = 83.72602   $ Sizing
 "CHRtFlo_Sys_T_StorSm_S" = 228.1196   $ Sizing
 "CHRtFlo_Sys_T_StorSm_W" = 211.0432   $ Sizing
 "CRtdFlo_Sys_L_Break_C" = 387.4014   $ Sizing
 "CRtdFlo_Sys_L_CompDC_C" = 149.5024   $ Sizing
 "CRtdFlo_Sys_L_Conf_C" = 229.5721   $ Sizing
 "CRtdFlo_Sys_L_CopyRm_C" = 84.59087   $ Sizing
 "CRtdFlo_Sys_L_Hall_E" = 136.3626   $ Sizing
 "CRtdFlo_Sys_L_Hall_N" = 66.26897   $ Sizing
 "CRtdFlo_Sys_L_Hall_S" = 163.8876   $ Sizing
 "CRtdFlo_Sys_L_Hall_W" = 169.9457   $ Sizing
 "CRtdFlo_Sys_L_LobWait_E" = 314.7117   $ Sizing
 "CRtdFlo_Sys_L_LobWait_N" = 175.6864   $ Sizing
 "CRtdFlo_Sys_L_LobWait_S" = 391.1096   $ Sizing
 "CRtdFlo_Sys_L_LobWait_W" = 407.6854   $ Sizing
 "CRtdFlo_Sys_L_MechElec_C" = 49.82971   $ Sizing
 "CRtdFlo_Sys_L_OfficeOpn_C" = 54.69765   $ Sizing
 "CRtdFlo_Sys_L_OfficeOpn_E" = 588.9172   $ Sizing
 "CRtdFlo_Sys_L_OfficeOpn_N" = 369.112   $ Sizing
 "CRtdFlo_Sys_L_OfficeOpn_S" = 665.8263   $ Sizing
 "CRtdFlo_Sys_L_OfficeOpn_W" = 694.3004   $ Sizing
 "CRtdFlo_Sys_L_OfficeSm_E" = 506.4135   $ Sizing
 "CRtdFlo_Sys_L_OfficeSm_N" = 294.1531   $ Sizing
 "CRtdFlo_Sys_L_OfficeSm_S" = 589.2662   $ Sizing
 "CRtdFlo_Sys_L_OfficeSm_W" = 608.4235   $ Sizing
 "CRtdFlo_Sys_L_Restrm_C" = 58.7485   $ Sizing
 "CRtdFlo_Sys_L_StorSm_C" = 24.4223   $ Sizing
 "CRtdFlo_Sys_L_StorSm_E" = 132.0812   $ Sizing
 "CRtdFlo_Sys_L_StorSm_N" = 62.52234   $ Sizing
 "CRtdFlo_Sys_L_StorSm_S" = 160.2106   $ Sizing
 "CRtdFlo_Sys_L_StorSm_W" = 160.3913   $ Sizing
 "CRtdFlo_Sys_T_Conf_C" = 223.1778   $ Sizing
 "CRtdFlo_Sys_T_Hall_E" = 157.9801   $ Sizing
 "CRtdFlo_Sys_T_Hall_N" = 81.03493   $ Sizing
 "CRtdFlo_Sys_T_Hall_S" = 192.6511   $ Sizing
 "CRtdFlo_Sys_T_Hall_W" = 195.6454   $ Sizing
 "CRtdFlo_Sys_T_OfficeOpn_C" = 52.53277   $ Sizing
 "CRtdFlo_Sys_T_OfficeOpn_E" = 634.2043   $ Sizing
 "CRtdFlo_Sys_T_OfficeOpn_N" = 405.6497   $ Sizing
 "CRtdFlo_Sys_T_OfficeOpn_S" = 743.4252   $ Sizing
 "CRtdFlo_Sys_T_OfficeOpn_W" = 747.0724   $ Sizing
 "CRtdFlo_Sys_T_OfficeSm_E" = 552.7311   $ Sizing
 "CRtdFlo_Sys_T_OfficeSm_N" = 327.429   $ Sizing
 "CRtdFlo_Sys_T_OfficeSm_S" = 655.3834   $ Sizing
 "CRtdFlo_Sys_T_OfficeSm_W" = 667.893   $ Sizing
 "CRtdFlo_Sys_T_Restrm_C" = 95.35851   $ Sizing
 "CRtdFlo_Sys_T_StorSm_E" = 156.1025   $ Sizing
 "CRtdFlo_Sys_T_StorSm_N" = 82.05889   $ Sizing
 "CRtdFlo_Sys_T_StorSm_S" = 193.9373   $ Sizing
 "CRtdFlo_Sys_T_StorSm_W" = 197.6081   $ Sizing
 "CSupFlo_Sys_L_Break_C" = 387.4014   $ Sizing
 "CSupFlo_Sys_L_CompDC_C" = 149.5024   $ Sizing
 "CSupFlo_Sys_L_Conf_C" = 229.5721   $ Sizing
 "CSupFlo_Sys_L_CopyRm_C" = 84.59087   $ Sizing
 "CSupFlo_Sys_L_Hall_E" = 136.3626   $ Sizing
 "CSupFlo_Sys_L_Hall_N" = 66.26897   $ Sizing
 "CSupFlo_Sys_L_Hall_S" = 163.8876   $ Sizing
 "CSupFlo_Sys_L_Hall_W" = 169.9457   $ Sizing
 "CSupFlo_Sys_L_LobWait_E" = 314.7117   $ Sizing
 "CSupFlo_Sys_L_LobWait_N" = 175.6864   $ Sizing
 "CSupFlo_Sys_L_LobWait_S" = 391.1096   $ Sizing
 "CSupFlo_Sys_L_LobWait_W" = 407.6854   $ Sizing
 "CSupFlo_Sys_L_MechElec_C" = 49.82971   $ Sizing
 "CSupFlo_Sys_L_OfficeOpn_C" = 54.69765   $ Sizing
 "CSupFlo_Sys_L_OfficeOpn_E" = 588.9172   $ Sizing
 "CSupFlo_Sys_L_OfficeOpn_N" = 369.112   $ Sizing
 "CSupFlo_Sys_L_OfficeOpn_S" = 665.8263   $ Sizing
 "CSupFlo_Sys_L_OfficeOpn_W" = 694.3004   $ Sizing
 "CSupFlo_Sys_L_OfficeSm_E" = 506.4135   $ Sizing
 "CSupFlo_Sys_L_OfficeSm_N" = 294.1531   $ Sizing
 "CSupFlo_Sys_L_OfficeSm_S" = 589.2662   $ Sizing
 "CSupFlo_Sys_L_OfficeSm_W" = 608.4235   $ Sizing
 "CSupFlo_Sys_L_Restrm_C" = 58.7485   $ Sizing
 "CSupFlo_Sys_L_StorSm_C" = 24.4223   $ Sizing
 "CSupFlo_Sys_L_StorSm_E" = 132.0812   $ Sizing
 "CSupFlo_Sys_L_StorSm_N" = 62.52234   $ Sizing
 "CSupFlo_Sys_L_StorSm_S" = 160.2106   $ Sizing
 "CSupFlo_Sys_L_StorSm_W" = 160.3913   $ Sizing
 "CSupFlo_Sys_T_Conf_C" = 223.1778   $ Sizing
 "CSupFlo_Sys_T_Hall_E" = 157.9801   $ Sizing
 "CSupFlo_Sys_T_Hall_N" = 81.03493   $ Sizing
 "CSupFlo_Sys_T_Hall_S" = 192.6511   $ Sizing
 "CSupFlo_Sys_T_Hall_W" = 195.6454   $ Sizing
 "CSupFlo_Sys_T_OfficeOpn_C" = 52.53277   $ Sizing
 "CSupFlo_Sys_T_OfficeOpn_E" = 634.2043   $ Sizing
 "CSupFlo_Sys_T_OfficeOpn_N" = 405.6497   $ Sizing
 "CSupFlo_Sys_T_OfficeOpn_S" = 743.4252   $ Sizing
 "CSupFlo_Sys_T_OfficeOpn_W" = 747.0724   $ Sizing
 "CSupFlo_Sys_T_OfficeSm_E" = 552.7311   $ Sizing
 "CSupFlo_Sys_T_OfficeSm_N" = 327.429   $ Sizing
 "CSupFlo_Sys_T_OfficeSm_S" = 655.3834   $ Sizing
 "CSupFlo_Sys_T_OfficeSm_W" = 667.893   $ Sizing
 "CSupFlo_Sys_T_Restrm_C" = 95.35851   $ Sizing
 "CSupFlo_Sys_T_StorSm_E" = 156.1025   $ Sizing
 "CSupFlo_Sys_T_StorSm_N" = 82.05889   $ Sizing
 "CSupFlo_Sys_T_StorSm_S" = 193.9373   $ Sizing
 "CSupFlo_Sys_T_StorSm_W" = 197.6081   $ Sizing
 "ClCap_Sys_L_Break_C" = 13220.93   $ Sizing
 "ClCap_Sys_L_CompDC_C" = 5102.103   $ Sizing
 "ClCap_Sys_L_Conf_C" = 9971.384   $ Sizing
 "ClCap_Sys_L_CopyRm_C" = 2886.851   $ Sizing
 "ClCap_Sys_L_Hall_E" = 4653.675   $ Sizing
 "ClCap_Sys_L_Hall_N" = 2261.576   $ Sizing
 "ClCap_Sys_L_Hall_S" = 5593.027   $ Sizing
 "ClCap_Sys_L_Hall_W" = 5799.774   $ Sizing
 "ClCap_Sys_L_LobWait_E" = 10740.24   $ Sizing
 "ClCap_Sys_L_LobWait_N" = 5995.688   $ Sizing
 "ClCap_Sys_L_LobWait_S" = 13347.49   $ Sizing
 "ClCap_Sys_L_LobWait_W" = 13913.17   $ Sizing
 "ClCap_Sys_L_MechElec_C" = 1700.55   $ Sizing
 "ClCap_Sys_L_OfficeOpn_C" = 1866.679   $ Sizing
 "ClCap_Sys_L_OfficeOpn_E" = 20098.11   $ Sizing
 "ClCap_Sys_L_OfficeOpn_N" = 12596.77   $ Sizing
 "ClCap_Sys_L_OfficeOpn_S" = 22722.8   $ Sizing
 "ClCap_Sys_L_OfficeOpn_W" = 23694.54   $ Sizing
 "ClCap_Sys_L_OfficeSm_E" = 17282.48   $ Sizing
 "ClCap_Sys_L_OfficeSm_N" = 10038.63   $ Sizing
 "ClCap_Sys_L_OfficeSm_S" = 20110.02   $ Sizing
 "ClCap_Sys_L_OfficeSm_W" = 20763.8   $ Sizing
 "ClCap_Sys_L_Restrm_C" = 2004.923   $ Sizing
 "ClCap_Sys_L_StorSm_C" = 833.4653   $ Sizing
 "ClCap_Sys_L_StorSm_E" = 4507.564   $ Sizing
 "ClCap_Sys_L_StorSm_N" = 2133.714   $ Sizing
 "ClCap_Sys_L_StorSm_S" = 5467.542   $ Sizing
 "ClCap_Sys_L_StorSm_W" = 5473.711   $ Sizing
 "ClCap_Sys_T_Conf_C" = 9693.648   $ Sizing
 "ClCap_Sys_T_Hall_E" = 5391.421   $ Sizing
 "ClCap_Sys_T_Hall_N" = 2765.497   $ Sizing
 "ClCap_Sys_T_Hall_S" = 6574.646   $ Sizing
 "ClCap_Sys_T_Hall_W" = 6676.833   $ Sizing
 "ClCap_Sys_T_OfficeOpn_C" = 1792.797   $ Sizing
 "ClCap_Sys_T_OfficeOpn_E" = 21643.63   $ Sizing
 "ClCap_Sys_T_OfficeOpn_N" = 13843.7   $ Sizing
 "ClCap_Sys_T_OfficeOpn_S" = 25371.04   $ Sizing
 "ClCap_Sys_T_OfficeOpn_W" = 25495.51   $ Sizing
 "ClCap_Sys_T_OfficeSm_E" = 18863.18   $ Sizing
 "ClCap_Sys_T_OfficeSm_N" = 11174.24   $ Sizing
 "ClCap_Sys_T_OfficeSm_S" = 22366.41   $ Sizing
 "ClCap_Sys_T_OfficeSm_W" = 22793.33   $ Sizing
 "ClCap_Sys_T_Restrm_C" = 3254.321   $ Sizing
 "ClCap_Sys_T_StorSm_E" = 5327.345   $ Sizing
 "ClCap_Sys_T_StorSm_N" = 2800.442   $ Sizing
 "ClCap_Sys_T_StorSm_S" = 6618.542   $ Sizing
 "ClCap_Sys_T_StorSm_W" = 6743.816   $ Sizing
 "HtCap_Sys_L_Break_C" = -22841.65   $ Sizing
 "HtCap_Sys_L_CompDC_C" = -6685.19   $ Sizing
 "HtCap_Sys_L_Conf_C" = -14192.9   $ Sizing
 "HtCap_Sys_L_CopyRm_C" = -5124.452   $ Sizing
 "HtCap_Sys_L_Hall_E" = -6311.777   $ Sizing
 "HtCap_Sys_L_Hall_N" = -2883.643   $ Sizing
 "HtCap_Sys_L_Hall_S" = -7024.472   $ Sizing
 "HtCap_Sys_L_Hall_W" = -6827.512   $ Sizing
 "HtCap_Sys_L_LobWait_E" = -15082.89   $ Sizing
 "HtCap_Sys_L_LobWait_N" = -7791.51   $ Sizing
 "HtCap_Sys_L_LobWait_S" = -17092.67   $ Sizing
 "HtCap_Sys_L_LobWait_W" = -16545.73   $ Sizing
 "HtCap_Sys_L_MechElec_C" = -3185.504   $ Sizing
 "HtCap_Sys_L_OfficeOpn_C" = -3028.251   $ Sizing
 "HtCap_Sys_L_OfficeOpn_E" = -26967.17   $ Sizing
 "HtCap_Sys_L_OfficeOpn_N" = -15534.26   $ Sizing
 "HtCap_Sys_L_OfficeOpn_S" = -28072.75   $ Sizing
 "HtCap_Sys_L_OfficeOpn_W" = -27850.68   $ Sizing
 "HtCap_Sys_L_OfficeSm_E" = -23529.35   $ Sizing
 "HtCap_Sys_L_OfficeSm_N" = -12194.23   $ Sizing
 "HtCap_Sys_L_OfficeSm_S" = -24523.32   $ Sizing
 "HtCap_Sys_L_OfficeSm_W" = -24479.63   $ Sizing
 "HtCap_Sys_L_Restrm_C" = -3116.568   $ Sizing
 "HtCap_Sys_L_StorSm_C" = -1536.772   $ Sizing
 "HtCap_Sys_L_StorSm_E" = -6306.61   $ Sizing
 "HtCap_Sys_L_StorSm_N" = -3450.916   $ Sizing
 "HtCap_Sys_L_StorSm_S" = -6882.291   $ Sizing
 "HtCap_Sys_L_StorSm_W" = -6607.757   $ Sizing
 "HtCap_Sys_T_Conf_C" = -14265.11   $ Sizing
 "HtCap_Sys_T_Hall_E" = -7376.384   $ Sizing
 "HtCap_Sys_T_Hall_N" = -3489.073   $ Sizing
 "HtCap_Sys_T_Hall_S" = -8632.422   $ Sizing
 "HtCap_Sys_T_Hall_W" = -8040.09   $ Sizing
 "HtCap_Sys_T_OfficeOpn_C" = -2974.841   $ Sizing
 "HtCap_Sys_T_OfficeOpn_E" = -30267.31   $ Sizing
 "HtCap_Sys_T_OfficeOpn_N" = -17747.63   $ Sizing
 "HtCap_Sys_T_OfficeOpn_S" = -32763.37   $ Sizing
 "HtCap_Sys_T_OfficeOpn_W" = -31167.39   $ Sizing
 "HtCap_Sys_T_OfficeSm_E" = -26161.87   $ Sizing
 "HtCap_Sys_T_OfficeSm_N" = -13975.37   $ Sizing
 "HtCap_Sys_T_OfficeSm_S" = -28703.85   $ Sizing
 "HtCap_Sys_T_OfficeSm_W" = -27532.74   $ Sizing
 "HtCap_Sys_T_Restrm_C" = -4738.354   $ Sizing
 "HtCap_Sys_T_StorSm_E" = -7716.254   $ Sizing
 "HtCap_Sys_T_StorSm_N" = -4054.499   $ Sizing
 "HtCap_Sys_T_StorSm_S" = -8309.466   $ Sizing
 "HtCap_Sys_T_StorSm_W" = -8348.399   $ Sizing
..

##include Templates\OfS_DX_SZ.inp
END ..
COMPUTE ..
STOP ..
