INPUT ..

##fileprefix C:\Users\jglasskatz\MASControl3\
##set1 IsSizing FALSE
##set1 CoolType DX
##set1 HeatType FURNACE
##set1 EU_HrRepVar 0
##set1 BldgVint 1985
##set1 BldgLoc CZ02

 ##set1 mBFMult 1   $ IP Tech: RefgChg-NRes-Std

PARAMETER
 "AltFactor" = 1.00464   $ IP Non-Tech
 "BF_fFlow" = SpltAC1Sp_BF_fFlow   $ Msr (Var)TechID: PreNResSplitAC-lt45-PENo
 "BF_fT" = SpltAC1Sp_BF_fT   $ Msr (Var)TechID: PreNResSplitAC-lt45-PENo
 "BldgEconoFlag" = 1   $ IP Non-Tech
 "Break_EWSF" = 1   $ IP Non-Tech
 "Break_LWSF" = 1.1   $ IP Non-Tech
 "CDD_DBHi10" = 83   $ IP Non-Tech
 "CDD_DBHi7" = 96   $ IP Non-Tech
 "CDD_DBHi8" = 92   $ IP Non-Tech
 "CDD_DBHi9" = 96   $ IP Non-Tech
 "CDD_DBRange10" = 35   $ IP Non-Tech
 "CDD_DBRange7" = 44   $ IP Non-Tech
 "CDD_DBRange8" = 38   $ IP Non-Tech
 "CDD_DBRange9" = 43   $ IP Non-Tech
 "CDD_Day10" = 15   $ IP Non-Tech
 "CDD_Day7" = 16   $ IP Non-Tech
 "CDD_Day8" = 20   $ IP Non-Tech
 "CDD_Day9" = 17   $ IP Non-Tech
 "CDD_HrHi10" = 15   $ IP Non-Tech
 "CDD_HrHi7" = 15   $ IP Non-Tech
 "CDD_HrHi8" = 16   $ IP Non-Tech
 "CDD_HrHi9" = 14   $ IP Non-Tech
 "CDD_HrLo10" = 7   $ IP Non-Tech
 "CDD_HrLo7" = 7   $ IP Non-Tech
 "CDD_HrLo8" = 6   $ IP Non-Tech
 "CDD_HrLo9" = 6   $ IP Non-Tech
 "CDD_WB10" = 61.02124405   $ IP Non-Tech
 "CDD_WB7" = 68.3706665   $ IP Non-Tech
 "CDD_WB8" = 69.14488983   $ IP Non-Tech
 "CDD_WB9" = 65.15551758   $ IP Non-Tech
 "CEIR_fPLR_Hot" = SpltAC1Sp_CEIR_fPLR_Hot   $ Msr (Var)TechID: PreNResSplitAC-lt45-PENo
 "CEIR_fPLR_Mod" = SpltAC1Sp_CEIR_fPLR_Mod   $ Msr (Var)TechID: PreNResSplitAC-lt45-PENo
 "CEIR_fPLR_Tem" = SpltAC1Sp_CEIR_fPLR_Tem   $ Msr (Var)TechID: PreNResSplitAC-lt45-PENo
 "CLoss_fPLR_Hot" = SpltAC1Sp_CLoss_fPLR_Hot   $ Msr (Var)TechID: PreNResSplitAC-lt45-PENo
 "CLoss_fPLR_Mod" = SpltAC1Sp_CLoss_fPLR_Mod   $ Msr (Var)TechID: PreNResSplitAC-lt45-PENo
 "CLoss_fPLR_Tem" = SpltAC1Sp_CLoss_fPLR_Tem   $ Msr (Var)TechID: PreNResSplitAC-lt45-PENo
 "COP47" = 0   $ Msr (Var)TechID: PreNResSplitAC-lt45-PENo
 "CZ_Category" = Mod   $ IP Non-Tech
 "CapRange" = Any   $ Msr (Var)TechID: PreNResSplitAC-lt45-PENo
 "CfmPerBtuh" = 0.0321   $ Msr (Var)TechID: PreNResSplitAC-lt45-PENo
 "ChwVintEconoFlag" = 1   $ IP Non-Tech
 "ClCap_fT" = SpltAC1Sp_ClCap_fT   $ Msr (Var)TechID: PreNResSplitAC-lt45-PENo
 "ClSH_fT" = SpltAC1Sp_ClSH_fT   $ Msr (Var)TechID: PreNResSplitAC-lt45-PENo
 "CoilBF" = 0.12   $ Msr (Var)TechID: PreNResSplitAC-lt45-PENo
 "CompRoomData_EWSF" = 5.5   $ IP Non-Tech
 "CompRoomData_LWSF" = 1.2   $ IP Non-Tech
 "CondWPerBtuh" = 0   $ Msr (Var)TechID: PreNResSplitAC-lt45-PENo
 "Conference_EWSF" = 1.1   $ IP Non-Tech
 "Conference_LWSF" = 1.4   $ IP Non-Tech
 "CoolSensCap" = 0.744   $ Msr (Var)TechID: PreNResSplitAC-lt45-PENo
 "CoolSetT" = 45   $ IP Non-Tech
 "CoolType" = DX   $ IP Non-Tech
 "CoolingEIR" = 0.29437   $ Msr (Var)TechID: PreNResSplitAC-lt45-PENo
 "CopyRoom_EWSF" = 1.65   $ IP Non-Tech
 "CopyRoom_LWSF" = 1.3   $ IP Non-Tech
 "CrnkEIR" = 0.0029437   $ Msr (Var)TechID: PreNResSplitAC-lt45-PENo
 "CrnkMaxT" = 50   $ Msr (Var)TechID: PreNResSplitAC-lt45-PENo
 "DXType" = SplitSEER   $ Msr (Var)TechID: PreNResSplitAC-lt45-PENo
 "DesCoolT" = 75   $ IP Non-Tech
 "DesHeatT" = 73   $ IP Non-Tech
 "EER" = 9.799295775   $ Msr (Var)TechID: PreNResSplitAC-lt45-PENo
 "EIR_fT" = SpltAC1Sp_EIR_fT   $ Msr (Var)TechID: PreNResSplitAC-lt45-PENo
 "EconoCtrl" = FIXED   $ Msr (Multi)TechID: PreNResSplitAC-lt45-PENo
 "EconoEnthLimit" = 28   $ IP Non-Tech
 "EconoTempLimit" = 73   $ IP Non-Tech
 "Elevation" = 125   $ IP Non-Tech
 "FanEirPlr" = TwoSpeedFan   $ Msr (Var)TechID: PreNResSplitAC-lt45-PENo
 "FanWPerCfm" = 0.365   $ Msr (Var)TechID: PreNResSplitAC-lt45-PENo
 "HDD_CloudAmt1" = 0   $ IP Non-Tech
 "HDD_DBHi1" = 51   $ IP Non-Tech
 "HDD_DBRange1" = 22   $ IP Non-Tech
 "HDD_Day1" = 15   $ IP Non-Tech
 "HDD_HrHi1" = 15   $ IP Non-Tech
 "HDD_HrLo1" = 8   $ IP Non-Tech
 "HDD_WB1" = 45.9   $ IP Non-Tech
 "HDD_WindSpd1" = 10.4   $ IP Non-Tech
 "HIR_fT" = 0   $ Msr (Var)TechID: PreNResSplitAC-lt45-PENo
 "HSPF" = 0   $ Msr (Var)TechID: PreNResSplitAC-lt45-PENo
 "Hall_EWSF" = 0.22   $ IP Non-Tech
 "Hall_LWSF" = 0.6   $ IP Non-Tech
 "HeatSrc" = FURNACE   $ IP Non-Tech
 "HeatSrcTU" = HEAT-PUMP   $ IP Non-Tech
 "HeatType" = GasFurn   $ IP Non-Tech
 "HeatTypeTU" = HEAT-PUMP   $ IP Non-Tech
 "HtCap_fT" = 0   $ Msr (Var)TechID: PreNResSplitAC-lt45-PENo
 "HtCoolCapRatio" = 0   $ Msr (Var)TechID: PreNResSplitAC-lt45-PENo
 "HtgEIR" = 0   $ Msr (Var)TechID: PreNResSplitAC-lt45-PENo
 "IndoorFanMode" = CONTINUOUS   $ IP Non-Tech
 "KT_TransferAir" = No   $ IP Non-Tech
 "Latitude" = 38.5   $ IP Non-Tech
 "LobbyWaiting_EWSF" = 0.525   $ IP Non-Tech
 "LobbyWaiting_LWSF" = 1.3   $ IP Non-Tech
 "Longitude" = 122.7   $ IP Non-Tech
 "LowSpdCapRatio" = 1   $ Msr (Var)TechID: PreNResSplitAC-lt45-PENo
 "LowSpdCfmRatio" = 1   $ Msr (Var)TechID: PreNResSplitAC-lt45-PENo
 "MZFanMechEff" = 0.58   $ IP Non-Tech
 "MZHasRetFan" = FALSE   $ IP Non-Tech
 "MZ_RFanWPerCfm" = 0.33   $ IP Non-Tech
 "MZ_SFanWPerCfm" = 0.75   $ IP Non-Tech
 "MZ_SupFanStatic" = 2.25   $ IP Non-Tech
 "MaxOAFrac" = 1   $ Msr (Multi)TechID: PreNResSplitAC-lt45-PENo
 "MaxSupT_MZ" = 100   $ IP Non-Tech
 "MaxSupT_SZ" = 100   $ IP Non-Tech
 "MaxSupT_TU" = 90   $ IP Non-Tech
 "MechElecRoom_EWSF" = 0.22   $ IP Non-Tech
 "MechElecRoom_LWSF" = 0.7   $ IP Non-Tech
 "MinCfmPerSF" = 0.4   $ IP Non-Tech
 "MinSupT" = 55   $ IP Non-Tech
 "NumStages" = 1   $ Msr (Var)TechID: PreNResSplitAC-lt45-PENo
 "OccCoolT" = 76   $ IP Non-Tech
 "OccHeatT" = 72   $ IP Non-Tech
 "OfficeOpen_EWSF" = 1.65   $ IP Non-Tech
 "OfficeOpen_LWSF" = 1.2   $ IP Non-Tech
 "OfficeSmall_EWSF" = 1.65   $ IP Non-Tech
 "OfficeSmall_LWSF" = 1.3   $ IP Non-Tech
 "PkgDxVintEconoFlag" = 0   $ IP Non-Tech
 "Restroom_EWSF" = 0.22   $ IP Non-Tech
 "Restroom_LWSF" = 0.6   $ IP Non-Tech
 "SEER" = 11.5   $ Msr (Var)TechID: PreNResSplitAC-lt45-PENo
 "SZFanMechEff" = 0.58   $ IP Non-Tech
 "SZHasRetFan" = FALSE   $ IP Non-Tech
 "SZ_Is_2Spd" = FALSE   $ IP Non-Tech
 "SZ_SFanWPerCfm" = 0.46   $ IP Non-Tech
 "SZ_SupFanStatic" = 0.75   $ IP Non-Tech
 "Sector" = Any   $ Msr (Var)TechID: PreNResSplitAC-lt45-PENo
 "StorageSmlCond_EWSF" = 0.22   $ IP Non-Tech
 "StorageSmlCond_LWSF" = 0.6   $ IP Non-Tech
 "SubType" = AC   $ Msr (Var)TechID: PreNResSplitAC-lt45-PENo
 "T24GlzTbl" = CZTbl   $ IP Non-Tech
 "TermUnitFanMechEff" = 1   $ IP Non-Tech
 "TermUnitFanMode" = INTERMITTENT   $ IP Non-Tech
 "TotCoolCap" = 34895   $ Msr (Var)TechID: PreNResSplitAC-lt45-PENo
 "TwrSetpt" = 84   $ IP Non-Tech
 "UnocCoolT" = 86   $ IP Non-Tech
 "UnocHeatT" = 62   $ IP Non-Tech
 "UseEconoVintApplic" = FALSE   $ Msr (Multi)TechID: PreNResSplitAC-lt45-PENo
 "WlhpVintEconoFlag" = 0   $ IP Non-Tech
 "DuctDT" = 1   $ IP Tech: ComDuctInsul-1
 "DuctAirLoss" = 0   $ IP Tech: ComDuctLeak-0
 "DuctLossOAFrac" = 0   $ IP Tech: ComDuctLeak-0
 "ComRoofInsCalc" = FromUo   $ IP Tech: ComRoofIns-WFrm-0.07
 "ComRoofInsR" = -999   $ IP Tech: ComRoofIns-WFrm-0.07
 "ComRoofUo" = 0.07   $ IP Tech: ComRoofIns-WFrm-0.07
 "ComEWInsCalc" = FromUo   $ IP Tech: ComWallIns-WFrm-0.09
 "ComEWInsR" = -999   $ IP Tech: ComWallIns-WFrm-0.09
 "ComEWUo" = 0.09   $ IP Tech: ComWallIns-WFrm-0.09
 "ComN_SHGC" = 0.82   $ IP Tech: NResWin-ComN-1.23-0.82
 "ComN_UFactor" = 1.23   $ IP Tech: NResWin-ComN-1.23-0.82
 "ComN_VisTrans" = 0.9   $ IP Tech: NResWin-ComN-1.23-0.82
 "ComN_WinCode" = G1000   $ IP Tech: NResWin-ComN-1.23-0.82
 "ComN_WinFrmFrac" = 0.17   $ IP Tech: NResWin-ComN-1.23-0.82
 "ComN_WinFrmU" = 1   $ IP Tech: NResWin-ComN-1.23-0.82
 "ComO_SHGC" = 0.82   $ IP Tech: NResWin-ComO-1.23-0.82
 "ComO_UFactor" = 1.23   $ IP Tech: NResWin-ComO-1.23-0.82
 "ComO_VisTrans" = 0.9   $ IP Tech: NResWin-ComO-1.23-0.82
 "ComO_WinCode" = G1000   $ IP Tech: NResWin-ComO-1.23-0.82
 "ComO_WinFrmFrac" = 0.17   $ IP Tech: NResWin-ComO-1.23-0.82
 "ComO_WinFrmU" = 1   $ IP Tech: NResWin-ComO-1.23-0.82
 "LtgMsrApplic" = ALL   $ IP Tech: NonResLtgRefPre
 "LtgSav_CFL" = 0   $ IP Tech: NonResLtgRefPre
 "LtgSav_EX" = 0   $ IP Tech: NonResLtgRefPre
 "LtgSav_HB" = 0   $ IP Tech: NonResLtgRefPre
 "LtgSav_LF" = 0   $ IP Tech: NonResLtgRefPre
 "LtgSav_SP" = 0   $ IP Tech: NonResLtgRefPre
 "CEIR_fPLR" = PSZ65to135_CEIR_fPLR   $ IP Tech: PkgAC1SpH-65to135-E10
 "CLoss_fPLR" = PSZ65to135_CLoss_fPLR   $ IP Tech: PkgAC1SpH-65to135-E10
 "COP" = -1   $ IP Tech: PkgAC1SpH-65to135-E10
 "HtgFuel" = Gas   $ IP Tech: PkgAC1SpH-65to135-E10
 "IEER" = 11.87   $ IP Tech: PkgAC1SpH-65to135-E10
 "NominalCap" = 15   $ IP Tech: PkgAC1SpH-65to135-E10
 "RatedEER" = 10   $ IP Tech: PkgAC1SpH-65to135-E10
 "RatedSupMtrClass" = HiEff   $ IP Tech: PkgAC1SpH-65to135-E10
 "SizeRange" = 65to135   $ IP Tech: PkgAC1SpH-65to135-E10
 "SupMotEff" = 0.84   $ IP Tech: PkgAC1SpH-65to135-E10
 "Tier" = 0   $ IP Tech: PkgAC1SpH-65to135-E10
 "FanPwrMult" = 1   $ IP Tech: PkgFurn-0.80AFUE
 "FurnAFUE" = 0.8   $ IP Tech: PkgFurn-0.80AFUE
 "FurnEt" = 0.82   $ IP Tech: PkgFurn-0.80AFUE
 "FurnaceAuxKW" = 0.1   $ IP Tech: PkgFurn-0.80AFUE
 "HIR_fPLR" = Furnace-HIR-fPLR   $ IP Tech: PkgFurn-0.80AFUE
 "VSM" = FALSE   $ IP Tech: PkgFurn-0.80AFUE
 "BFMult" = 1   $ IP Tech: RefgChg-NRes-Std
 "CoolEirMult" = 1   $ IP Tech: RefgChg-NRes-Std
 "SensCoolCapMult" = 1   $ IP Tech: RefgChg-NRes-Std
 "TotCoolCapMult" = 1   $ IP Tech: RefgChg-NRes-Std
 "AltAdjFactor" = 1.004644   $ Sizing
 "CAssFlo_L_Break_CZn" = 387.287   $ Sizing
 "CAssFlo_L_CompDC_CZn" = 144.8587   $ Sizing
 "CAssFlo_L_Conf_CZn" = 227.4763   $ Sizing
 "CAssFlo_L_CopyRm_CZn" = 83.41892   $ Sizing
 "CAssFlo_L_Hall_EZn" = 134.7738   $ Sizing
 "CAssFlo_L_Hall_NZn" = 65.5419   $ Sizing
 "CAssFlo_L_Hall_SZn" = 160.8205   $ Sizing
 "CAssFlo_L_Hall_WZn" = 166.4987   $ Sizing
 "CAssFlo_L_LobWait_EZn" = 310.1102   $ Sizing
 "CAssFlo_L_LobWait_NZn" = 173.1989   $ Sizing
 "CAssFlo_L_LobWait_SZn" = 380.9054   $ Sizing
 "CAssFlo_L_LobWait_WZn" = 398.4644   $ Sizing
 "CAssFlo_L_MechElec_CZn" = 49.16857   $ Sizing
 "CAssFlo_L_OfficeOpn_CZn" = 53.44699   $ Sizing
 "CAssFlo_L_OfficeOpn_EZn" = 580.6289   $ Sizing
 "CAssFlo_L_OfficeOpn_NZn" = 362.7108   $ Sizing
 "CAssFlo_L_OfficeOpn_SZn" = 653.1022   $ Sizing
 "CAssFlo_L_OfficeOpn_WZn" = 682.2634   $ Sizing
 "CAssFlo_L_OfficeSm_EZn" = 499.6216   $ Sizing
 "CAssFlo_L_OfficeSm_NZn" = 289.0454   $ Sizing
 "CAssFlo_L_OfficeSm_SZn" = 578.1337   $ Sizing
 "CAssFlo_L_OfficeSm_WZn" = 597.2394   $ Sizing
 "CAssFlo_L_Restrm_CZn" = 60.16125   $ Sizing
 "CAssFlo_L_StorSm_CZn" = 25.06332   $ Sizing
 "CAssFlo_L_StorSm_EZn" = 130.5804   $ Sizing
 "CAssFlo_L_StorSm_NZn" = 61.61605   $ Sizing
 "CAssFlo_L_StorSm_SZn" = 157.439   $ Sizing
 "CAssFlo_L_StorSm_WZn" = 157.2706   $ Sizing
 "CAssFlo_T_Conf_CZn" = 221.0471   $ Sizing
 "CAssFlo_T_Hall_EZn" = 156.291   $ Sizing
 "CAssFlo_T_Hall_NZn" = 80.15003   $ Sizing
 "CAssFlo_T_Hall_SZn" = 189.5359   $ Sizing
 "CAssFlo_T_Hall_WZn" = 192.1717   $ Sizing
 "CAssFlo_T_OfficeOpn_CZn" = 51.41719   $ Sizing
 "CAssFlo_T_OfficeOpn_EZn" = 627.3974   $ Sizing
 "CAssFlo_T_OfficeOpn_NZn" = 399.3463   $ Sizing
 "CAssFlo_T_OfficeOpn_SZn" = 731.4492   $ Sizing
 "CAssFlo_T_OfficeOpn_WZn" = 735.6388   $ Sizing
 "CAssFlo_T_OfficeSm_EZn" = 547.1304   $ Sizing
 "CAssFlo_T_OfficeSm_NZn" = 322.3383   $ Sizing
 "CAssFlo_T_OfficeSm_SZn" = 644.8372   $ Sizing
 "CAssFlo_T_OfficeSm_WZn" = 657.5265   $ Sizing
 "CAssFlo_T_Restrm_CZn" = 96.72122   $ Sizing
 "CAssFlo_T_StorSm_EZn" = 155.5139   $ Sizing
 "CAssFlo_T_StorSm_NZn" = 81.74928   $ Sizing
 "CAssFlo_T_StorSm_SZn" = 191.4141   $ Sizing
 "CAssFlo_T_StorSm_WZn" = 195.1052   $ Sizing
 "CHRtFlo_Sys_L_Break_C" = 387.287   $ Sizing
 "CHRtFlo_Sys_L_CompDC_C" = 181.0057   $ Sizing
 "CHRtFlo_Sys_L_Conf_C" = 232.7916   $ Sizing
 "CHRtFlo_Sys_L_CopyRm_C" = 83.41892   $ Sizing
 "CHRtFlo_Sys_L_Hall_E" = 180.0044   $ Sizing
 "CHRtFlo_Sys_L_Hall_N" = 73.60423   $ Sizing
 "CHRtFlo_Sys_L_Hall_S" = 209.6089   $ Sizing
 "CHRtFlo_Sys_L_Hall_W" = 200.9625   $ Sizing
 "CHRtFlo_Sys_L_LobWait_E" = 417.7855   $ Sizing
 "CHRtFlo_Sys_L_LobWait_N" = 173.1989   $ Sizing
 "CHRtFlo_Sys_L_LobWait_S" = 484.0393   $ Sizing
 "CHRtFlo_Sys_L_LobWait_W" = 462.2818   $ Sizing
 "CHRtFlo_Sys_L_MechElec_C" = 72.58032   $ Sizing
 "CHRtFlo_Sys_L_OfficeOpn_C" = 77.41541   $ Sizing
 "CHRtFlo_Sys_L_OfficeOpn_E" = 776.4351   $ Sizing
 "CHRtFlo_Sys_L_OfficeOpn_N" = 380.1402   $ Sizing
 "CHRtFlo_Sys_L_OfficeOpn_S" = 829.7947   $ Sizing
 "CHRtFlo_Sys_L_OfficeOpn_W" = 795.7512   $ Sizing
 "CHRtFlo_Sys_L_OfficeSm_E" = 675.4166   $ Sizing
 "CHRtFlo_Sys_L_OfficeSm_N" = 308.1694   $ Sizing
 "CHRtFlo_Sys_L_OfficeSm_S" = 744.1937   $ Sizing
 "CHRtFlo_Sys_L_OfficeSm_W" = 719.3215   $ Sizing
 "CHRtFlo_Sys_L_Restrm_C" = 85.82434   $ Sizing
 "CHRtFlo_Sys_L_StorSm_C" = 37.36968   $ Sizing
 "CHRtFlo_Sys_L_StorSm_E" = 175.035   $ Sizing
 "CHRtFlo_Sys_L_StorSm_N" = 80.69235   $ Sizing
 "CHRtFlo_Sys_L_StorSm_S" = 199.0595   $ Sizing
 "CHRtFlo_Sys_L_StorSm_W" = 184.4758   $ Sizing
 "CHRtFlo_Sys_T_Conf_C" = 226.7873   $ Sizing
 "CHRtFlo_Sys_T_Hall_E" = 196.3622   $ Sizing
 "CHRtFlo_Sys_T_Hall_N" = 80.15003   $ Sizing
 "CHRtFlo_Sys_T_Hall_S" = 236.5231   $ Sizing
 "CHRtFlo_Sys_T_Hall_W" = 215.2748   $ Sizing
 "CHRtFlo_Sys_T_OfficeOpn_C" = 67.69691   $ Sizing
 "CHRtFlo_Sys_T_OfficeOpn_E" = 778.3636   $ Sizing
 "CHRtFlo_Sys_T_OfficeOpn_N" = 399.3463   $ Sizing
 "CHRtFlo_Sys_T_OfficeOpn_S" = 880.6655   $ Sizing
 "CHRtFlo_Sys_T_OfficeOpn_W" = 803.1592   $ Sizing
 "CHRtFlo_Sys_T_OfficeSm_E" = 688.025   $ Sizing
 "CHRtFlo_Sys_T_OfficeSm_N" = 322.3383   $ Sizing
 "CHRtFlo_Sys_T_OfficeSm_S" = 796.0254   $ Sizing
 "CHRtFlo_Sys_T_OfficeSm_W" = 734.8809   $ Sizing
 "CHRtFlo_Sys_T_Restrm_C" = 118.2009   $ Sizing
 "CHRtFlo_Sys_T_StorSm_E" = 191.1067   $ Sizing
 "CHRtFlo_Sys_T_StorSm_N" = 81.75558   $ Sizing
 "CHRtFlo_Sys_T_StorSm_S" = 228.0503   $ Sizing
 "CHRtFlo_Sys_T_StorSm_W" = 209.595   $ Sizing
 "CRtdFlo_Sys_L_Break_C" = 387.287   $ Sizing
 "CRtdFlo_Sys_L_CompDC_C" = 144.8587   $ Sizing
 "CRtdFlo_Sys_L_Conf_C" = 227.4763   $ Sizing
 "CRtdFlo_Sys_L_CopyRm_C" = 83.41892   $ Sizing
 "CRtdFlo_Sys_L_Hall_E" = 134.7738   $ Sizing
 "CRtdFlo_Sys_L_Hall_N" = 65.5419   $ Sizing
 "CRtdFlo_Sys_L_Hall_S" = 160.8205   $ Sizing
 "CRtdFlo_Sys_L_Hall_W" = 166.4987   $ Sizing
 "CRtdFlo_Sys_L_LobWait_E" = 310.1102   $ Sizing
 "CRtdFlo_Sys_L_LobWait_N" = 173.1989   $ Sizing
 "CRtdFlo_Sys_L_LobWait_S" = 380.9054   $ Sizing
 "CRtdFlo_Sys_L_LobWait_W" = 398.4644   $ Sizing
 "CRtdFlo_Sys_L_MechElec_C" = 49.16857   $ Sizing
 "CRtdFlo_Sys_L_OfficeOpn_C" = 53.44699   $ Sizing
 "CRtdFlo_Sys_L_OfficeOpn_E" = 580.6289   $ Sizing
 "CRtdFlo_Sys_L_OfficeOpn_N" = 362.7108   $ Sizing
 "CRtdFlo_Sys_L_OfficeOpn_S" = 653.1022   $ Sizing
 "CRtdFlo_Sys_L_OfficeOpn_W" = 682.2634   $ Sizing
 "CRtdFlo_Sys_L_OfficeSm_E" = 499.6216   $ Sizing
 "CRtdFlo_Sys_L_OfficeSm_N" = 289.0454   $ Sizing
 "CRtdFlo_Sys_L_OfficeSm_S" = 578.1337   $ Sizing
 "CRtdFlo_Sys_L_OfficeSm_W" = 597.2394   $ Sizing
 "CRtdFlo_Sys_L_Restrm_C" = 60.16125   $ Sizing
 "CRtdFlo_Sys_L_StorSm_C" = 25.06332   $ Sizing
 "CRtdFlo_Sys_L_StorSm_E" = 130.5804   $ Sizing
 "CRtdFlo_Sys_L_StorSm_N" = 61.61605   $ Sizing
 "CRtdFlo_Sys_L_StorSm_S" = 157.439   $ Sizing
 "CRtdFlo_Sys_L_StorSm_W" = 157.2706   $ Sizing
 "CRtdFlo_Sys_T_Conf_C" = 221.0471   $ Sizing
 "CRtdFlo_Sys_T_Hall_E" = 156.291   $ Sizing
 "CRtdFlo_Sys_T_Hall_N" = 80.15003   $ Sizing
 "CRtdFlo_Sys_T_Hall_S" = 189.5359   $ Sizing
 "CRtdFlo_Sys_T_Hall_W" = 192.1717   $ Sizing
 "CRtdFlo_Sys_T_OfficeOpn_C" = 51.41719   $ Sizing
 "CRtdFlo_Sys_T_OfficeOpn_E" = 627.3974   $ Sizing
 "CRtdFlo_Sys_T_OfficeOpn_N" = 399.3463   $ Sizing
 "CRtdFlo_Sys_T_OfficeOpn_S" = 731.4492   $ Sizing
 "CRtdFlo_Sys_T_OfficeOpn_W" = 735.6388   $ Sizing
 "CRtdFlo_Sys_T_OfficeSm_E" = 547.1304   $ Sizing
 "CRtdFlo_Sys_T_OfficeSm_N" = 322.3383   $ Sizing
 "CRtdFlo_Sys_T_OfficeSm_S" = 644.8372   $ Sizing
 "CRtdFlo_Sys_T_OfficeSm_W" = 657.5265   $ Sizing
 "CRtdFlo_Sys_T_Restrm_C" = 96.72122   $ Sizing
 "CRtdFlo_Sys_T_StorSm_E" = 155.5139   $ Sizing
 "CRtdFlo_Sys_T_StorSm_N" = 81.75558   $ Sizing
 "CRtdFlo_Sys_T_StorSm_S" = 191.4141   $ Sizing
 "CRtdFlo_Sys_T_StorSm_W" = 195.1052   $ Sizing
 "CSupFlo_Sys_L_Break_C" = 387.287   $ Sizing
 "CSupFlo_Sys_L_CompDC_C" = 144.8587   $ Sizing
 "CSupFlo_Sys_L_Conf_C" = 227.4763   $ Sizing
 "CSupFlo_Sys_L_CopyRm_C" = 83.41892   $ Sizing
 "CSupFlo_Sys_L_Hall_E" = 134.7738   $ Sizing
 "CSupFlo_Sys_L_Hall_N" = 65.5419   $ Sizing
 "CSupFlo_Sys_L_Hall_S" = 160.8205   $ Sizing
 "CSupFlo_Sys_L_Hall_W" = 166.4987   $ Sizing
 "CSupFlo_Sys_L_LobWait_E" = 310.1102   $ Sizing
 "CSupFlo_Sys_L_LobWait_N" = 173.1989   $ Sizing
 "CSupFlo_Sys_L_LobWait_S" = 380.9054   $ Sizing
 "CSupFlo_Sys_L_LobWait_W" = 398.4644   $ Sizing
 "CSupFlo_Sys_L_MechElec_C" = 49.16857   $ Sizing
 "CSupFlo_Sys_L_OfficeOpn_C" = 53.44699   $ Sizing
 "CSupFlo_Sys_L_OfficeOpn_E" = 580.6289   $ Sizing
 "CSupFlo_Sys_L_OfficeOpn_N" = 362.7108   $ Sizing
 "CSupFlo_Sys_L_OfficeOpn_S" = 653.1022   $ Sizing
 "CSupFlo_Sys_L_OfficeOpn_W" = 682.2634   $ Sizing
 "CSupFlo_Sys_L_OfficeSm_E" = 499.6216   $ Sizing
 "CSupFlo_Sys_L_OfficeSm_N" = 289.0454   $ Sizing
 "CSupFlo_Sys_L_OfficeSm_S" = 578.1337   $ Sizing
 "CSupFlo_Sys_L_OfficeSm_W" = 597.2394   $ Sizing
 "CSupFlo_Sys_L_Restrm_C" = 60.16125   $ Sizing
 "CSupFlo_Sys_L_StorSm_C" = 25.06332   $ Sizing
 "CSupFlo_Sys_L_StorSm_E" = 130.5804   $ Sizing
 "CSupFlo_Sys_L_StorSm_N" = 61.61605   $ Sizing
 "CSupFlo_Sys_L_StorSm_S" = 157.439   $ Sizing
 "CSupFlo_Sys_L_StorSm_W" = 157.2706   $ Sizing
 "CSupFlo_Sys_T_Conf_C" = 221.0471   $ Sizing
 "CSupFlo_Sys_T_Hall_E" = 156.291   $ Sizing
 "CSupFlo_Sys_T_Hall_N" = 80.15003   $ Sizing
 "CSupFlo_Sys_T_Hall_S" = 189.5359   $ Sizing
 "CSupFlo_Sys_T_Hall_W" = 192.1717   $ Sizing
 "CSupFlo_Sys_T_OfficeOpn_C" = 51.41719   $ Sizing
 "CSupFlo_Sys_T_OfficeOpn_E" = 627.3974   $ Sizing
 "CSupFlo_Sys_T_OfficeOpn_N" = 399.3463   $ Sizing
 "CSupFlo_Sys_T_OfficeOpn_S" = 731.4492   $ Sizing
 "CSupFlo_Sys_T_OfficeOpn_W" = 735.6388   $ Sizing
 "CSupFlo_Sys_T_OfficeSm_E" = 547.1304   $ Sizing
 "CSupFlo_Sys_T_OfficeSm_N" = 322.3383   $ Sizing
 "CSupFlo_Sys_T_OfficeSm_S" = 644.8372   $ Sizing
 "CSupFlo_Sys_T_OfficeSm_W" = 657.5265   $ Sizing
 "CSupFlo_Sys_T_Restrm_C" = 96.72122   $ Sizing
 "CSupFlo_Sys_T_StorSm_E" = 155.5139   $ Sizing
 "CSupFlo_Sys_T_StorSm_N" = 81.75558   $ Sizing
 "CSupFlo_Sys_T_StorSm_S" = 191.4141   $ Sizing
 "CSupFlo_Sys_T_StorSm_W" = 195.1052   $ Sizing
 "ClCap_Sys_L_Break_C" = 13217.03   $ Sizing
 "ClCap_Sys_L_CompDC_C" = 4943.626   $ Sizing
 "ClCap_Sys_L_Conf_C" = 9880.354   $ Sizing
 "ClCap_Sys_L_CopyRm_C" = 2846.856   $ Sizing
 "ClCap_Sys_L_Hall_E" = 4599.457   $ Sizing
 "ClCap_Sys_L_Hall_N" = 2236.763   $ Sizing
 "ClCap_Sys_L_Hall_S" = 5488.356   $ Sizing
 "ClCap_Sys_L_Hall_W" = 5682.138   $ Sizing
 "ClCap_Sys_L_LobWait_E" = 10583.2   $ Sizing
 "ClCap_Sys_L_LobWait_N" = 5910.798   $ Sizing
 "ClCap_Sys_L_LobWait_S" = 12999.24   $ Sizing
 "ClCap_Sys_L_LobWait_W" = 13598.48   $ Sizing
 "ClCap_Sys_L_MechElec_C" = 1677.987   $ Sizing
 "ClCap_Sys_L_OfficeOpn_C" = 1823.997   $ Sizing
 "ClCap_Sys_L_OfficeOpn_E" = 19815.25   $ Sizing
 "ClCap_Sys_L_OfficeOpn_N" = 12378.31   $ Sizing
 "ClCap_Sys_L_OfficeOpn_S" = 22288.56   $ Sizing
 "ClCap_Sys_L_OfficeOpn_W" = 23283.75   $ Sizing
 "ClCap_Sys_L_OfficeSm_E" = 17050.7   $ Sizing
 "ClCap_Sys_L_OfficeSm_N" = 9864.317   $ Sizing
 "ClCap_Sys_L_OfficeSm_S" = 19730.1   $ Sizing
 "ClCap_Sys_L_OfficeSm_W" = 20382.12   $ Sizing
 "ClCap_Sys_L_Restrm_C" = 2053.136   $ Sizing
 "ClCap_Sys_L_StorSm_C" = 855.3413   $ Sizing
 "ClCap_Sys_L_StorSm_E" = 4456.346   $ Sizing
 "ClCap_Sys_L_StorSm_N" = 2102.784   $ Sizing
 "ClCap_Sys_L_StorSm_S" = 5372.956   $ Sizing
 "ClCap_Sys_L_StorSm_W" = 5367.209   $ Sizing
 "ClCap_Sys_T_Conf_C" = 9601.103   $ Sizing
 "ClCap_Sys_T_Hall_E" = 5333.777   $ Sizing
 "ClCap_Sys_T_Hall_N" = 2735.298   $ Sizing
 "ClCap_Sys_T_Hall_S" = 6468.335   $ Sizing
 "ClCap_Sys_T_Hall_W" = 6558.285   $ Sizing
 "ClCap_Sys_T_OfficeOpn_C" = 1754.726   $ Sizing
 "ClCap_Sys_T_OfficeOpn_E" = 21411.33   $ Sizing
 "ClCap_Sys_T_OfficeOpn_N" = 13628.58   $ Sizing
 "ClCap_Sys_T_OfficeOpn_S" = 24962.33   $ Sizing
 "ClCap_Sys_T_OfficeOpn_W" = 25105.31   $ Sizing
 "ClCap_Sys_T_OfficeSm_E" = 18672.04   $ Sizing
 "ClCap_Sys_T_OfficeSm_N" = 11000.51   $ Sizing
 "ClCap_Sys_T_OfficeSm_S" = 22006.5   $ Sizing
 "ClCap_Sys_T_OfficeSm_W" = 22439.55   $ Sizing
 "ClCap_Sys_T_Restrm_C" = 3300.827   $ Sizing
 "ClCap_Sys_T_StorSm_E" = 5307.256   $ Sizing
 "ClCap_Sys_T_StorSm_N" = 2790.091   $ Sizing
 "ClCap_Sys_T_StorSm_S" = 6532.43   $ Sizing
 "ClCap_Sys_T_StorSm_W" = 6658.398   $ Sizing
 "HtCap_Sys_L_Break_C" = -22789.57   $ Sizing
 "HtCap_Sys_L_CompDC_C" = -6492.254   $ Sizing
 "HtCap_Sys_L_Conf_C" = -14100.12   $ Sizing
 "HtCap_Sys_L_CopyRm_C" = -5051.798   $ Sizing
 "HtCap_Sys_L_Hall_E" = -6226.299   $ Sizing
 "HtCap_Sys_L_Hall_N" = -2792.938   $ Sizing
 "HtCap_Sys_L_Hall_S" = -6900.559   $ Sizing
 "HtCap_Sys_L_Hall_W" = -6696.995   $ Sizing
 "HtCap_Sys_L_LobWait_E" = -14871.62   $ Sizing
 "HtCap_Sys_L_LobWait_N" = -7653.282   $ Sizing
 "HtCap_Sys_L_LobWait_S" = -16790.08   $ Sizing
 "HtCap_Sys_L_LobWait_W" = -16232.29   $ Sizing
 "HtCap_Sys_L_MechElec_C" = -3307.992   $ Sizing
 "HtCap_Sys_L_OfficeOpn_C" = -3007.279   $ Sizing
 "HtCap_Sys_L_OfficeOpn_E" = -26476.66   $ Sizing
 "HtCap_Sys_L_OfficeOpn_N" = -15220.91   $ Sizing
 "HtCap_Sys_L_OfficeOpn_S" = -27552.41   $ Sizing
 "HtCap_Sys_L_OfficeOpn_W" = -27329.44   $ Sizing
 "HtCap_Sys_L_OfficeSm_E" = -23132.58   $ Sizing
 "HtCap_Sys_L_OfficeSm_N" = -11937.74   $ Sizing
 "HtCap_Sys_L_OfficeSm_S" = -24099.95   $ Sizing
 "HtCap_Sys_L_OfficeSm_W" = -23979.43   $ Sizing
 "HtCap_Sys_L_Restrm_C" = -3090.069   $ Sizing
 "HtCap_Sys_L_StorSm_C" = -1553.379   $ Sizing
 "HtCap_Sys_L_StorSm_E" = -6221.961   $ Sizing
 "HtCap_Sys_L_StorSm_N" = -3374.483   $ Sizing
 "HtCap_Sys_L_StorSm_S" = -6769.666   $ Sizing
 "HtCap_Sys_L_StorSm_W" = -6499.477   $ Sizing
 "HtCap_Sys_T_Conf_C" = -14169.28   $ Sizing
 "HtCap_Sys_T_Hall_E" = -7271.799   $ Sizing
 "HtCap_Sys_T_Hall_N" = -3421.563   $ Sizing
 "HtCap_Sys_T_Hall_S" = -8493.82   $ Sizing
 "HtCap_Sys_T_Hall_W" = -7876.06   $ Sizing
 "HtCap_Sys_T_OfficeOpn_C" = -2961.4   $ Sizing
 "HtCap_Sys_T_OfficeOpn_E" = -29798.14   $ Sizing
 "HtCap_Sys_T_OfficeOpn_N" = -17387.94   $ Sizing
 "HtCap_Sys_T_OfficeOpn_S" = -32183.73   $ Sizing
 "HtCap_Sys_T_OfficeOpn_W" = -30572.12   $ Sizing
 "HtCap_Sys_T_OfficeSm_E" = -25736.19   $ Sizing
 "HtCap_Sys_T_OfficeSm_N" = -13670.91   $ Sizing
 "HtCap_Sys_T_OfficeSm_S" = -28212.55   $ Sizing
 "HtCap_Sys_T_OfficeSm_W" = -27022.92   $ Sizing
 "HtCap_Sys_T_Restrm_C" = -4626.917   $ Sizing
 "HtCap_Sys_T_StorSm_E" = -7662.25   $ Sizing
 "HtCap_Sys_T_StorSm_N" = -3945.952   $ Sizing
 "HtCap_Sys_T_StorSm_S" = -8146.993   $ Sizing
 "HtCap_Sys_T_StorSm_W" = -8238.979   $ Sizing
..

##include Templates\OfS_DX_SZ.inp
END ..
COMPUTE ..
STOP ..
