INPUT ..

##fileprefix C:\Users\jglasskatz\MASControl3\
##set1 IsSizing FALSE
##set1 CoolType DX
##set1 HeatType FURNACE
##set1 EU_HrRepVar 0
##set1 BldgVint 2020
##set1 BldgLoc CZ02

 ##set1 mBFMult 1   $ IP Tech: RefgChg-NRes-Std

PARAMETER
 "AltFactor" = 1.00464   $ IP Non-Tech
 "BF_fFlow" = SpltAC1Sp-ge45_BF_fFlow   $ Msr (Var)TechID: PreNResSplitAC-45to-PENo
 "BF_fT" = SpltAC1Sp-ge45_BF_fT   $ Msr (Var)TechID: PreNResSplitAC-45to-PENo
 "BldgEconoFlag" = 1   $ IP Non-Tech
 "Break_EWSF" = 1   $ IP Non-Tech
 "Break_LWSF" = 0.65   $ IP Non-Tech
 "CDD_DBHi10" = 83   $ IP Non-Tech
 "CDD_DBHi7" = 96   $ IP Non-Tech
 "CDD_DBHi8" = 92   $ IP Non-Tech
 "CDD_DBHi9" = 96   $ IP Non-Tech
 "CDD_DBRange10" = 35   $ IP Non-Tech
 "CDD_DBRange7" = 44   $ IP Non-Tech
 "CDD_DBRange8" = 38   $ IP Non-Tech
 "CDD_DBRange9" = 43   $ IP Non-Tech
 "CDD_Day10" = 15   $ IP Non-Tech
 "CDD_Day7" = 16   $ IP Non-Tech
 "CDD_Day8" = 20   $ IP Non-Tech
 "CDD_Day9" = 17   $ IP Non-Tech
 "CDD_HrHi10" = 15   $ IP Non-Tech
 "CDD_HrHi7" = 15   $ IP Non-Tech
 "CDD_HrHi8" = 16   $ IP Non-Tech
 "CDD_HrHi9" = 14   $ IP Non-Tech
 "CDD_HrLo10" = 7   $ IP Non-Tech
 "CDD_HrLo7" = 7   $ IP Non-Tech
 "CDD_HrLo8" = 6   $ IP Non-Tech
 "CDD_HrLo9" = 6   $ IP Non-Tech
 "CDD_WB10" = 61.02124405   $ IP Non-Tech
 "CDD_WB7" = 68.3706665   $ IP Non-Tech
 "CDD_WB8" = 69.14488983   $ IP Non-Tech
 "CDD_WB9" = 65.15551758   $ IP Non-Tech
 "CEIR_fPLR_Hot" = SpltAC1Sp-ge45_CEIR_fPLR_Hot   $ Msr (Var)TechID: PreNResSplitAC-45to-PENo
 "CEIR_fPLR_Mod" = SpltAC1Sp-ge45_CEIR_fPLR_Mod   $ Msr (Var)TechID: PreNResSplitAC-45to-PENo
 "CEIR_fPLR_Tem" = SpltAC1Sp-ge45_CEIR_fPLR_Tem   $ Msr (Var)TechID: PreNResSplitAC-45to-PENo
 "CLoss_fPLR_Hot" = SpltAC1Sp-ge45_CLoss_fPLR_Hot   $ Msr (Var)TechID: PreNResSplitAC-45to-PENo
 "CLoss_fPLR_Mod" = SpltAC1Sp-ge45_CLoss_fPLR_Mod   $ Msr (Var)TechID: PreNResSplitAC-45to-PENo
 "CLoss_fPLR_Tem" = SpltAC1Sp-ge45_CLoss_fPLR_Tem   $ Msr (Var)TechID: PreNResSplitAC-45to-PENo
 "COP47" = 0   $ Msr (Var)TechID: PreNResSplitAC-45to-PENo
 "CZ_Category" = Mod   $ IP Non-Tech
 "CapRange" = ge45   $ Msr (Var)TechID: PreNResSplitAC-45to-PENo
 "CfmPerBtuh" = 0.03263   $ Msr (Var)TechID: PreNResSplitAC-45to-PENo
 "ChwVintEconoFlag" = 1   $ IP Non-Tech
 "ClCap_fT" = SpltAC1Sp-ge45_ClCap_fT   $ Msr (Var)TechID: PreNResSplitAC-45to-PENo
 "ClSH_fT" = SpltAC1Sp-ge45_ClSH_fT   $ Msr (Var)TechID: PreNResSplitAC-45to-PENo
 "CoilBF" = 0.106518182   $ Msr (Var)TechID: PreNResSplitAC-45to-PENo
 "CompRoomData_EWSF" = 5   $ IP Non-Tech
 "CompRoomData_LWSF" = 0.8   $ IP Non-Tech
 "CondWPerBtuh" = 0   $ Msr (Var)TechID: PreNResSplitAC-45to-PENo
 "Conference_EWSF" = 1   $ IP Non-Tech
 "Conference_LWSF" = 0.85   $ IP Non-Tech
 "CoolSensCap" = 0.759218182   $ Msr (Var)TechID: PreNResSplitAC-45to-PENo
 "CoolSetT" = 45   $ IP Non-Tech
 "CoolType" = DX   $ IP Non-Tech
 "CoolingEIR" = 0.2466   $ Msr (Var)TechID: PreNResSplitAC-45to-PENo
 "CopyRoom_EWSF" = 1.5   $ IP Non-Tech
 "CopyRoom_LWSF" = 0.5   $ IP Non-Tech
 "CrnkEIR" = 0.002466   $ Msr (Var)TechID: PreNResSplitAC-45to-PENo
 "CrnkMaxT" = 50   $ Msr (Var)TechID: PreNResSplitAC-45to-PENo
 "DXType" = SplitSEER   $ Msr (Var)TechID: PreNResSplitAC-45to-PENo
 "DesCoolT" = 75   $ IP Non-Tech
 "DesHeatT" = 73   $ IP Non-Tech
 "EER" = 11.81793103   $ Msr (Var)TechID: PreNResSplitAC-45to-PENo
 "EIR_fT" = SpltAC1Sp-ge45_EIR_fT   $ Msr (Var)TechID: PreNResSplitAC-45to-PENo
 "EconoCtrl" = FIXED   $ Msr (Multi)TechID: PreNResSplitAC-45to-PENo
 "EconoEnthLimit" = 28   $ IP Non-Tech
 "EconoTempLimit" = 73   $ IP Non-Tech
 "Elevation" = 125   $ IP Non-Tech
 "FanEirPlr" = TwoSpeedFan   $ Msr (Var)TechID: PreNResSplitAC-45to-PENo
 "FanWPerCfm" = 0.294   $ Msr (Var)TechID: PreNResSplitAC-45to-PENo
 "HDD_CloudAmt1" = 0   $ IP Non-Tech
 "HDD_DBHi1" = 51   $ IP Non-Tech
 "HDD_DBRange1" = 22   $ IP Non-Tech
 "HDD_Day1" = 15   $ IP Non-Tech
 "HDD_HrHi1" = 15   $ IP Non-Tech
 "HDD_HrLo1" = 8   $ IP Non-Tech
 "HDD_WB1" = 45.9   $ IP Non-Tech
 "HDD_WindSpd1" = 10.4   $ IP Non-Tech
 "HIR_fT" = 0   $ Msr (Var)TechID: PreNResSplitAC-45to-PENo
 "HSPF" = 0   $ Msr (Var)TechID: PreNResSplitAC-45to-PENo
 "Hall_EWSF" = 0.2   $ IP Non-Tech
 "Hall_LWSF" = 0.55   $ IP Non-Tech
 "HeatSrc" = FURNACE   $ IP Non-Tech
 "HeatSrcTU" = HEAT-PUMP   $ IP Non-Tech
 "HeatType" = GasFurn   $ IP Non-Tech
 "HeatTypeTU" = HEAT-PUMP   $ IP Non-Tech
 "HtCap_fT" = 0   $ Msr (Var)TechID: PreNResSplitAC-45to-PENo
 "HtCoolCapRatio" = 0   $ Msr (Var)TechID: PreNResSplitAC-45to-PENo
 "HtgEIR" = 0   $ Msr (Var)TechID: PreNResSplitAC-45to-PENo
 "IndoorFanMode" = CONTINUOUS   $ IP Non-Tech
 "KT_TransferAir" = Yes   $ IP Non-Tech
 "Latitude" = 38.5   $ IP Non-Tech
 "LobbyWaiting_EWSF" = 0.5   $ IP Non-Tech
 "LobbyWaiting_LWSF" = 0.75   $ IP Non-Tech
 "Longitude" = 122.7   $ IP Non-Tech
 "LowSpdCapRatio" = 1   $ Msr (Var)TechID: PreNResSplitAC-45to-PENo
 "LowSpdCfmRatio" = 1   $ Msr (Var)TechID: PreNResSplitAC-45to-PENo
 "MZFanMechEff" = 0.58   $ IP Non-Tech
 "MZHasRetFan" = FALSE   $ IP Non-Tech
 "MZ_RFanWPerCfm" = 0.33   $ IP Non-Tech
 "MZ_SFanWPerCfm" = 0.75   $ IP Non-Tech
 "MZ_SupFanStatic" = 2.25   $ IP Non-Tech
 "MaxOAFrac" = 1   $ Msr (Multi)TechID: PreNResSplitAC-45to-PENo
 "MaxSupT_MZ" = 100   $ IP Non-Tech
 "MaxSupT_SZ" = 100   $ IP Non-Tech
 "MaxSupT_TU" = 90   $ IP Non-Tech
 "MechElecRoom_EWSF" = 0.2   $ IP Non-Tech
 "MechElecRoom_LWSF" = 0.4   $ IP Non-Tech
 "MinCfmPerSF" = 0.4   $ IP Non-Tech
 "MinSupT" = 55   $ IP Non-Tech
 "NumStages" = 1   $ Msr (Var)TechID: PreNResSplitAC-45to-PENo
 "OccCoolT" = 76   $ IP Non-Tech
 "OccHeatT" = 72   $ IP Non-Tech
 "OfficeOpen_EWSF" = 1.5   $ IP Non-Tech
 "OfficeOpen_LWSF" = 0.8   $ IP Non-Tech
 "OfficeSmall_EWSF" = 1.5   $ IP Non-Tech
 "OfficeSmall_LWSF" = 0.9   $ IP Non-Tech
 "PkgDxVintEconoFlag" = 1   $ IP Non-Tech
 "Restroom_EWSF" = 0.2   $ IP Non-Tech
 "Restroom_LWSF" = 0.65   $ IP Non-Tech
 "SEER" = 14   $ Msr (Var)TechID: PreNResSplitAC-45to-PENo
 "SZFanMechEff" = 0.58   $ IP Non-Tech
 "SZHasRetFan" = FALSE   $ IP Non-Tech
 "SZ_Is_2Spd" = TRUE   $ IP Non-Tech
 "SZ_SFanWPerCfm" = 0.46   $ IP Non-Tech
 "SZ_SupFanStatic" = 0.75   $ IP Non-Tech
 "Sector" = Any   $ Msr (Var)TechID: PreNResSplitAC-45to-PENo
 "StorageSmlCond_EWSF" = 0.2   $ IP Non-Tech
 "StorageSmlCond_LWSF" = 0.45   $ IP Non-Tech
 "SubType" = AC   $ Msr (Var)TechID: PreNResSplitAC-45to-PENo
 "TermUnitFanMechEff" = 1   $ IP Non-Tech
 "TermUnitFanMode" = INTERMITTENT   $ IP Non-Tech
 "TotCoolCap" = 52519.36364   $ Msr (Var)TechID: PreNResSplitAC-45to-PENo
 "TwrSetpt" = 84   $ IP Non-Tech
 "UnocCoolT" = 86   $ IP Non-Tech
 "UnocHeatT" = 62   $ IP Non-Tech
 "UseEconoVintApplic" = FALSE   $ Msr (Multi)TechID: PreNResSplitAC-45to-PENo
 "WlhpVintEconoFlag" = 1   $ IP Non-Tech
 "DuctDT" = 1   $ IP Tech: ComDuctInsul-1
 "DuctAirLoss" = 0   $ IP Tech: ComDuctLeak-0
 "DuctLossOAFrac" = 0   $ IP Tech: ComDuctLeak-0
 "ComRoofInsCalc" = FromUo   $ IP Tech: ComRoofIns-WFrm-0.03
 "ComRoofInsR" = -999   $ IP Tech: ComRoofIns-WFrm-0.03
 "ComRoofUo" = 0.03   $ IP Tech: ComRoofIns-WFrm-0.03
 "ComEWInsCalc" = FromUo   $ IP Tech: ComWallIns-WFrm-0.06
 "ComEWInsR" = -999   $ IP Tech: ComWallIns-WFrm-0.06
 "ComEWUo" = 0.06   $ IP Tech: ComWallIns-WFrm-0.06
 "ComN_SHGC" = 0.25   $ IP Tech: NResWin-ComN-0.36-0.25
 "ComN_UFactor" = 0.36   $ IP Tech: NResWin-ComN-0.36-0.25
 "ComN_VisTrans" = 0.41   $ IP Tech: NResWin-ComN-0.36-0.25
 "ComN_WinCode" = G2668   $ IP Tech: NResWin-ComN-0.36-0.25
 "ComN_WinFrmFrac" = 0.17   $ IP Tech: NResWin-ComN-0.36-0.25
 "ComN_WinFrmU" = 0.3   $ IP Tech: NResWin-ComN-0.36-0.25
 "ComO_SHGC" = 0.25   $ IP Tech: NResWin-ComO-0.36-0.25
 "ComO_UFactor" = 0.36   $ IP Tech: NResWin-ComO-0.36-0.25
 "ComO_VisTrans" = 0.41   $ IP Tech: NResWin-ComO-0.36-0.25
 "ComO_WinCode" = G2668   $ IP Tech: NResWin-ComO-0.36-0.25
 "ComO_WinFrmFrac" = 0.17   $ IP Tech: NResWin-ComO-0.36-0.25
 "ComO_WinFrmU" = 0.3   $ IP Tech: NResWin-ComO-0.36-0.25
 "LtgMsrApplic" = ALL   $ IP Tech: NonResLtgRefPre
 "LtgSav_CFL" = 0   $ IP Tech: NonResLtgRefPre
 "LtgSav_EX" = 0   $ IP Tech: NonResLtgRefPre
 "LtgSav_HB" = 0   $ IP Tech: NonResLtgRefPre
 "LtgSav_LF" = 0   $ IP Tech: NonResLtgRefPre
 "LtgSav_SP" = 0   $ IP Tech: NonResLtgRefPre
 "CEIR_fPLR" = PSZ65to135_CEIR_fPLR   $ IP Tech: PkgAC2SpP-65to135-E11
 "CLoss_fPLR" = PSZ65to135_CLoss_fPLR   $ IP Tech: PkgAC2SpP-65to135-E11
 "COP" = -1   $ IP Tech: PkgAC2SpP-65to135-E11
 "HtgFuel" = Gas   $ IP Tech: PkgAC2SpP-65to135-E11
 "IEER" = 13.35   $ IP Tech: PkgAC2SpP-65to135-E11
 "NominalCap" = 15   $ IP Tech: PkgAC2SpP-65to135-E11
 "RatedEER" = 11   $ IP Tech: PkgAC2SpP-65to135-E11
 "RatedSupMtrClass" = Premium   $ IP Tech: PkgAC2SpP-65to135-E11
 "SizeRange" = 65to135   $ IP Tech: PkgAC2SpP-65to135-E11
 "SupMotEff" = 0.865   $ IP Tech: PkgAC2SpP-65to135-E11
 "Tier" = 0   $ IP Tech: PkgAC2SpP-65to135-E11
 "FanPwrMult" = 1   $ IP Tech: PkgFurn-0.80AFUE
 "FurnAFUE" = 0.8   $ IP Tech: PkgFurn-0.80AFUE
 "FurnEt" = 0.82   $ IP Tech: PkgFurn-0.80AFUE
 "FurnaceAuxKW" = 0.1   $ IP Tech: PkgFurn-0.80AFUE
 "HIR_fPLR" = Furnace-HIR-fPLR   $ IP Tech: PkgFurn-0.80AFUE
 "VSM" = FALSE   $ IP Tech: PkgFurn-0.80AFUE
 "BFMult" = 1   $ IP Tech: RefgChg-NRes-Std
 "CoolEirMult" = 1   $ IP Tech: RefgChg-NRes-Std
 "SensCoolCapMult" = 1   $ IP Tech: RefgChg-NRes-Std
 "TotCoolCapMult" = 1   $ IP Tech: RefgChg-NRes-Std
 "AltAdjFactor" = 1.004644   $ Sizing
 "CAssFlo_L_Break_CZn" = 362.0346   $ Sizing
 "CAssFlo_L_CompDC_CZn" = 131.8947   $ Sizing
 "CAssFlo_L_Conf_CZn" = 209.645   $ Sizing
 "CAssFlo_L_CopyRm_CZn" = 73.12366   $ Sizing
 "CAssFlo_L_Hall_EZn" = 71.97079   $ Sizing
 "CAssFlo_L_Hall_NZn" = 36.6847   $ Sizing
 "CAssFlo_L_Hall_SZn" = 85.97448   $ Sizing
 "CAssFlo_L_Hall_WZn" = 89.54593   $ Sizing
 "CAssFlo_L_LobWait_EZn" = 172.4094   $ Sizing
 "CAssFlo_L_LobWait_NZn" = 103.128   $ Sizing
 "CAssFlo_L_LobWait_SZn" = 205.4671   $ Sizing
 "CAssFlo_L_LobWait_WZn" = 219.8434   $ Sizing
 "CAssFlo_L_MechElec_CZn" = 41.06459   $ Sizing
 "CAssFlo_L_OfficeOpn_CZn" = 47.92562   $ Sizing
 "CAssFlo_L_OfficeOpn_EZn" = 349.6398   $ Sizing
 "CAssFlo_L_OfficeOpn_NZn" = 266.8011   $ Sizing
 "CAssFlo_L_OfficeOpn_SZn" = 381.8177   $ Sizing
 "CAssFlo_L_OfficeOpn_WZn" = 414.9495   $ Sizing
 "CAssFlo_L_OfficeSm_EZn" = 287.8098   $ Sizing
 "CAssFlo_L_OfficeSm_NZn" = 205.7249   $ Sizing
 "CAssFlo_L_OfficeSm_SZn" = 324.0084   $ Sizing
 "CAssFlo_L_OfficeSm_WZn" = 348.5542   $ Sizing
 "CAssFlo_L_Restrm_CZn" = 49.66924   $ Sizing
 "CAssFlo_L_StorSm_CZn" = 20.05662   $ Sizing
 "CAssFlo_L_StorSm_EZn" = 67.91904   $ Sizing
 "CAssFlo_L_StorSm_NZn" = 33.1004   $ Sizing
 "CAssFlo_L_StorSm_SZn" = 84.17594   $ Sizing
 "CAssFlo_L_StorSm_WZn" = 85.65836   $ Sizing
 "CAssFlo_T_Conf_CZn" = 203.9804   $ Sizing
 "CAssFlo_T_Hall_EZn" = 85.84625   $ Sizing
 "CAssFlo_T_Hall_NZn" = 49.96744   $ Sizing
 "CAssFlo_T_Hall_SZn" = 97.73908   $ Sizing
 "CAssFlo_T_Hall_WZn" = 101.0333   $ Sizing
 "CAssFlo_T_OfficeOpn_CZn" = 45.91378   $ Sizing
 "CAssFlo_T_OfficeOpn_EZn" = 362.3357   $ Sizing
 "CAssFlo_T_OfficeOpn_NZn" = 283.3879   $ Sizing
 "CAssFlo_T_OfficeOpn_SZn" = 408.3248   $ Sizing
 "CAssFlo_T_OfficeOpn_WZn" = 424.7289   $ Sizing
 "CAssFlo_T_OfficeSm_EZn" = 306.3138   $ Sizing
 "CAssFlo_T_OfficeSm_NZn" = 222.0484   $ Sizing
 "CAssFlo_T_OfficeSm_SZn" = 350.3542   $ Sizing
 "CAssFlo_T_OfficeSm_WZn" = 360.8399   $ Sizing
 "CAssFlo_T_Restrm_CZn" = 93.58009   $ Sizing
 "CAssFlo_T_StorSm_EZn" = 86.4401   $ Sizing
 "CAssFlo_T_StorSm_NZn" = 46.61401   $ Sizing
 "CAssFlo_T_StorSm_SZn" = 102.2868   $ Sizing
 "CAssFlo_T_StorSm_WZn" = 104.9456   $ Sizing
 "CHRtFlo_Sys_L_Break_C" = 362.0346   $ Sizing
 "CHRtFlo_Sys_L_CompDC_C" = 165.6152   $ Sizing
 "CHRtFlo_Sys_L_Conf_C" = 214.0762   $ Sizing
 "CHRtFlo_Sys_L_CopyRm_C" = 74.97591   $ Sizing
 "CHRtFlo_Sys_L_Hall_E" = 98.20432   $ Sizing
 "CHRtFlo_Sys_L_Hall_N" = 46.28109   $ Sizing
 "CHRtFlo_Sys_L_Hall_S" = 106.0626   $ Sizing
 "CHRtFlo_Sys_L_Hall_W" = 101.4203   $ Sizing
 "CHRtFlo_Sys_L_LobWait_E" = 228.0212   $ Sizing
 "CHRtFlo_Sys_L_LobWait_N" = 103.128   $ Sizing
 "CHRtFlo_Sys_L_LobWait_S" = 240.801   $ Sizing
 "CHRtFlo_Sys_L_LobWait_W" = 233.3866   $ Sizing
 "CHRtFlo_Sys_L_MechElec_C" = 65.74781   $ Sizing
 "CHRtFlo_Sys_L_OfficeOpn_C" = 71.27058   $ Sizing
 "CHRtFlo_Sys_L_OfficeOpn_E" = 463.024   $ Sizing
 "CHRtFlo_Sys_L_OfficeOpn_N" = 266.8011   $ Sizing
 "CHRtFlo_Sys_L_OfficeOpn_S" = 456.4454   $ Sizing
 "CHRtFlo_Sys_L_OfficeOpn_W" = 449.5119   $ Sizing
 "CHRtFlo_Sys_L_OfficeSm_E" = 385.1193   $ Sizing
 "CHRtFlo_Sys_L_OfficeSm_N" = 207.8764   $ Sizing
 "CHRtFlo_Sys_L_OfficeSm_S" = 395.2826   $ Sizing
 "CHRtFlo_Sys_L_OfficeSm_W" = 387.9496   $ Sizing
 "CHRtFlo_Sys_L_Restrm_C" = 85.82434   $ Sizing
 "CHRtFlo_Sys_L_StorSm_C" = 32.92063   $ Sizing
 "CHRtFlo_Sys_L_StorSm_E" = 95.07911   $ Sizing
 "CHRtFlo_Sys_L_StorSm_N" = 58.37567   $ Sizing
 "CHRtFlo_Sys_L_StorSm_S" = 98.24902   $ Sizing
 "CHRtFlo_Sys_L_StorSm_W" = 92.78821   $ Sizing
 "CHRtFlo_Sys_T_Conf_C" = 214.3613   $ Sizing
 "CHRtFlo_Sys_T_Hall_E" = 109.0094   $ Sizing
 "CHRtFlo_Sys_T_Hall_N" = 49.96745   $ Sizing
 "CHRtFlo_Sys_T_Hall_S" = 118.1287   $ Sizing
 "CHRtFlo_Sys_T_Hall_W" = 108.4203   $ Sizing
 "CHRtFlo_Sys_T_OfficeOpn_C" = 66.23931   $ Sizing
 "CHRtFlo_Sys_T_OfficeOpn_E" = 455.08   $ Sizing
 "CHRtFlo_Sys_T_OfficeOpn_N" = 283.3879   $ Sizing
 "CHRtFlo_Sys_T_OfficeOpn_S" = 472.7434   $ Sizing
 "CHRtFlo_Sys_T_OfficeOpn_W" = 436.5945   $ Sizing
 "CHRtFlo_Sys_T_OfficeSm_E" = 385.9009   $ Sizing
 "CHRtFlo_Sys_T_OfficeSm_N" = 222.0484   $ Sizing
 "CHRtFlo_Sys_T_OfficeSm_S" = 414.9324   $ Sizing
 "CHRtFlo_Sys_T_OfficeSm_W" = 381.0536   $ Sizing
 "CHRtFlo_Sys_T_Restrm_C" = 117.1751   $ Sizing
 "CHRtFlo_Sys_T_StorSm_E" = 108.2574   $ Sizing
 "CHRtFlo_Sys_T_StorSm_N" = 58.91309   $ Sizing
 "CHRtFlo_Sys_T_StorSm_S" = 113.5654   $ Sizing
 "CHRtFlo_Sys_T_StorSm_W" = 106.4223   $ Sizing
 "CRtdFlo_Sys_L_Break_C" = 362.0346   $ Sizing
 "CRtdFlo_Sys_L_CompDC_C" = 131.8947   $ Sizing
 "CRtdFlo_Sys_L_Conf_C" = 209.645   $ Sizing
 "CRtdFlo_Sys_L_CopyRm_C" = 73.12366   $ Sizing
 "CRtdFlo_Sys_L_Hall_E" = 71.97079   $ Sizing
 "CRtdFlo_Sys_L_Hall_N" = 36.6847   $ Sizing
 "CRtdFlo_Sys_L_Hall_S" = 85.97448   $ Sizing
 "CRtdFlo_Sys_L_Hall_W" = 89.54593   $ Sizing
 "CRtdFlo_Sys_L_LobWait_E" = 172.4094   $ Sizing
 "CRtdFlo_Sys_L_LobWait_N" = 103.128   $ Sizing
 "CRtdFlo_Sys_L_LobWait_S" = 205.4671   $ Sizing
 "CRtdFlo_Sys_L_LobWait_W" = 219.8434   $ Sizing
 "CRtdFlo_Sys_L_MechElec_C" = 41.06459   $ Sizing
 "CRtdFlo_Sys_L_OfficeOpn_C" = 47.92562   $ Sizing
 "CRtdFlo_Sys_L_OfficeOpn_E" = 349.6398   $ Sizing
 "CRtdFlo_Sys_L_OfficeOpn_N" = 266.8011   $ Sizing
 "CRtdFlo_Sys_L_OfficeOpn_S" = 381.8177   $ Sizing
 "CRtdFlo_Sys_L_OfficeOpn_W" = 414.9495   $ Sizing
 "CRtdFlo_Sys_L_OfficeSm_E" = 287.8098   $ Sizing
 "CRtdFlo_Sys_L_OfficeSm_N" = 205.7249   $ Sizing
 "CRtdFlo_Sys_L_OfficeSm_S" = 324.0084   $ Sizing
 "CRtdFlo_Sys_L_OfficeSm_W" = 348.5542   $ Sizing
 "CRtdFlo_Sys_L_Restrm_C" = 49.66924   $ Sizing
 "CRtdFlo_Sys_L_StorSm_C" = 20.05662   $ Sizing
 "CRtdFlo_Sys_L_StorSm_E" = 67.91904   $ Sizing
 "CRtdFlo_Sys_L_StorSm_N" = 33.1004   $ Sizing
 "CRtdFlo_Sys_L_StorSm_S" = 84.17594   $ Sizing
 "CRtdFlo_Sys_L_StorSm_W" = 85.65836   $ Sizing
 "CRtdFlo_Sys_T_Conf_C" = 203.9804   $ Sizing
 "CRtdFlo_Sys_T_Hall_E" = 85.84625   $ Sizing
 "CRtdFlo_Sys_T_Hall_N" = 49.96745   $ Sizing
 "CRtdFlo_Sys_T_Hall_S" = 97.73908   $ Sizing
 "CRtdFlo_Sys_T_Hall_W" = 101.0333   $ Sizing
 "CRtdFlo_Sys_T_OfficeOpn_C" = 45.91378   $ Sizing
 "CRtdFlo_Sys_T_OfficeOpn_E" = 362.3357   $ Sizing
 "CRtdFlo_Sys_T_OfficeOpn_N" = 283.3879   $ Sizing
 "CRtdFlo_Sys_T_OfficeOpn_S" = 408.3248   $ Sizing
 "CRtdFlo_Sys_T_OfficeOpn_W" = 424.7289   $ Sizing
 "CRtdFlo_Sys_T_OfficeSm_E" = 306.3138   $ Sizing
 "CRtdFlo_Sys_T_OfficeSm_N" = 222.0484   $ Sizing
 "CRtdFlo_Sys_T_OfficeSm_S" = 350.3542   $ Sizing
 "CRtdFlo_Sys_T_OfficeSm_W" = 360.8399   $ Sizing
 "CRtdFlo_Sys_T_Restrm_C" = 93.58009   $ Sizing
 "CRtdFlo_Sys_T_StorSm_E" = 86.4401   $ Sizing
 "CRtdFlo_Sys_T_StorSm_N" = 46.61401   $ Sizing
 "CRtdFlo_Sys_T_StorSm_S" = 102.2868   $ Sizing
 "CRtdFlo_Sys_T_StorSm_W" = 104.9456   $ Sizing
 "CSupFlo_Sys_L_Break_C" = 362.0346   $ Sizing
 "CSupFlo_Sys_L_CompDC_C" = 131.8947   $ Sizing
 "CSupFlo_Sys_L_Conf_C" = 209.645   $ Sizing
 "CSupFlo_Sys_L_CopyRm_C" = 73.12366   $ Sizing
 "CSupFlo_Sys_L_Hall_E" = 71.97079   $ Sizing
 "CSupFlo_Sys_L_Hall_N" = 36.6847   $ Sizing
 "CSupFlo_Sys_L_Hall_S" = 85.97448   $ Sizing
 "CSupFlo_Sys_L_Hall_W" = 89.54593   $ Sizing
 "CSupFlo_Sys_L_LobWait_E" = 172.4094   $ Sizing
 "CSupFlo_Sys_L_LobWait_N" = 103.128   $ Sizing
 "CSupFlo_Sys_L_LobWait_S" = 205.4671   $ Sizing
 "CSupFlo_Sys_L_LobWait_W" = 219.8434   $ Sizing
 "CSupFlo_Sys_L_MechElec_C" = 41.06459   $ Sizing
 "CSupFlo_Sys_L_OfficeOpn_C" = 47.92562   $ Sizing
 "CSupFlo_Sys_L_OfficeOpn_E" = 349.6398   $ Sizing
 "CSupFlo_Sys_L_OfficeOpn_N" = 266.8011   $ Sizing
 "CSupFlo_Sys_L_OfficeOpn_S" = 381.8177   $ Sizing
 "CSupFlo_Sys_L_OfficeOpn_W" = 414.9495   $ Sizing
 "CSupFlo_Sys_L_OfficeSm_E" = 287.8098   $ Sizing
 "CSupFlo_Sys_L_OfficeSm_N" = 205.7249   $ Sizing
 "CSupFlo_Sys_L_OfficeSm_S" = 324.0084   $ Sizing
 "CSupFlo_Sys_L_OfficeSm_W" = 348.5542   $ Sizing
 "CSupFlo_Sys_L_Restrm_C" = 49.66924   $ Sizing
 "CSupFlo_Sys_L_StorSm_C" = 20.05662   $ Sizing
 "CSupFlo_Sys_L_StorSm_E" = 67.91904   $ Sizing
 "CSupFlo_Sys_L_StorSm_N" = 33.1004   $ Sizing
 "CSupFlo_Sys_L_StorSm_S" = 84.17594   $ Sizing
 "CSupFlo_Sys_L_StorSm_W" = 85.65836   $ Sizing
 "CSupFlo_Sys_T_Conf_C" = 203.9804   $ Sizing
 "CSupFlo_Sys_T_Hall_E" = 85.84625   $ Sizing
 "CSupFlo_Sys_T_Hall_N" = 49.96745   $ Sizing
 "CSupFlo_Sys_T_Hall_S" = 97.73908   $ Sizing
 "CSupFlo_Sys_T_Hall_W" = 101.0333   $ Sizing
 "CSupFlo_Sys_T_OfficeOpn_C" = 45.91378   $ Sizing
 "CSupFlo_Sys_T_OfficeOpn_E" = 362.3357   $ Sizing
 "CSupFlo_Sys_T_OfficeOpn_N" = 283.3879   $ Sizing
 "CSupFlo_Sys_T_OfficeOpn_S" = 408.3248   $ Sizing
 "CSupFlo_Sys_T_OfficeOpn_W" = 424.7289   $ Sizing
 "CSupFlo_Sys_T_OfficeSm_E" = 306.3138   $ Sizing
 "CSupFlo_Sys_T_OfficeSm_N" = 222.0484   $ Sizing
 "CSupFlo_Sys_T_OfficeSm_S" = 350.3542   $ Sizing
 "CSupFlo_Sys_T_OfficeSm_W" = 360.8399   $ Sizing
 "CSupFlo_Sys_T_Restrm_C" = 93.58009   $ Sizing
 "CSupFlo_Sys_T_StorSm_E" = 86.4401   $ Sizing
 "CSupFlo_Sys_T_StorSm_N" = 46.61401   $ Sizing
 "CSupFlo_Sys_T_StorSm_S" = 102.2868   $ Sizing
 "CSupFlo_Sys_T_StorSm_W" = 104.9456   $ Sizing
 "ClCap_Sys_L_Break_C" = 12355.24   $ Sizing
 "ClCap_Sys_L_CompDC_C" = 4501.198   $ Sizing
 "ClCap_Sys_L_Conf_C" = 9105.857   $ Sizing
 "ClCap_Sys_L_CopyRm_C" = 2495.507   $ Sizing
 "ClCap_Sys_L_Hall_E" = 2456.163   $ Sizing
 "ClCap_Sys_L_Hall_N" = 1251.947   $ Sizing
 "ClCap_Sys_L_Hall_S" = 2934.07   $ Sizing
 "ClCap_Sys_L_Hall_W" = 3055.954   $ Sizing
 "ClCap_Sys_L_LobWait_E" = 5883.854   $ Sizing
 "ClCap_Sys_L_LobWait_N" = 3519.471   $ Sizing
 "ClCap_Sys_L_LobWait_S" = 7012.023   $ Sizing
 "ClCap_Sys_L_LobWait_W" = 7502.643   $ Sizing
 "ClCap_Sys_L_MechElec_C" = 1401.42   $ Sizing
 "ClCap_Sys_L_OfficeOpn_C" = 1635.568   $ Sizing
 "ClCap_Sys_L_OfficeOpn_E" = 11932.23   $ Sizing
 "ClCap_Sys_L_OfficeOpn_N" = 9105.181   $ Sizing
 "ClCap_Sys_L_OfficeOpn_S" = 13030.38   $ Sizing
 "ClCap_Sys_L_OfficeOpn_W" = 14161.07   $ Sizing
 "ClCap_Sys_L_OfficeSm_E" = 9822.15   $ Sizing
 "ClCap_Sys_L_OfficeSm_N" = 7020.818   $ Sizing
 "ClCap_Sys_L_OfficeSm_S" = 11057.51   $ Sizing
 "ClCap_Sys_L_OfficeSm_W" = 11895.19   $ Sizing
 "ClCap_Sys_L_Restrm_C" = 1695.073   $ Sizing
 "ClCap_Sys_L_StorSm_C" = 684.4768   $ Sizing
 "ClCap_Sys_L_StorSm_E" = 2317.888   $ Sizing
 "ClCap_Sys_L_StorSm_N" = 1129.625   $ Sizing
 "ClCap_Sys_L_StorSm_S" = 2872.691   $ Sizing
 "ClCap_Sys_L_StorSm_W" = 2923.282   $ Sizing
 "ClCap_Sys_T_Conf_C" = 8859.817   $ Sizing
 "ClCap_Sys_T_Hall_E" = 2929.694   $ Sizing
 "ClCap_Sys_T_Hall_N" = 1705.25   $ Sizing
 "ClCap_Sys_T_Hall_S" = 3335.563   $ Sizing
 "ClCap_Sys_T_Hall_W" = 3447.985   $ Sizing
 "ClCap_Sys_T_OfficeOpn_C" = 1566.91   $ Sizing
 "ClCap_Sys_T_OfficeOpn_E" = 12365.51   $ Sizing
 "ClCap_Sys_T_OfficeOpn_N" = 9671.241   $ Sizing
 "ClCap_Sys_T_OfficeOpn_S" = 13934.99   $ Sizing
 "ClCap_Sys_T_OfficeOpn_W" = 14494.82   $ Sizing
 "ClCap_Sys_T_OfficeSm_E" = 10453.64   $ Sizing
 "ClCap_Sys_T_OfficeSm_N" = 7577.896   $ Sizing
 "ClCap_Sys_T_OfficeSm_S" = 11956.62   $ Sizing
 "ClCap_Sys_T_OfficeSm_W" = 12314.46   $ Sizing
 "ClCap_Sys_T_Restrm_C" = 3193.628   $ Sizing
 "ClCap_Sys_T_StorSm_E" = 2949.96   $ Sizing
 "ClCap_Sys_T_StorSm_N" = 1590.807   $ Sizing
 "ClCap_Sys_T_StorSm_S" = 3490.765   $ Sizing
 "ClCap_Sys_T_StorSm_W" = 3581.5   $ Sizing
 "HtCap_Sys_L_Break_C" = -22122.5   $ Sizing
 "HtCap_Sys_L_CompDC_C" = -6045.36   $ Sizing
 "HtCap_Sys_L_Conf_C" = -13547.31   $ Sizing
 "HtCap_Sys_L_CopyRm_C" = -4776.25   $ Sizing
 "HtCap_Sys_L_Hall_E" = -3715.007   $ Sizing
 "HtCap_Sys_L_Hall_N" = -1982.744   $ Sizing
 "HtCap_Sys_L_Hall_S" = -3829.777   $ Sizing
 "HtCap_Sys_L_Hall_W" = -3743.112   $ Sizing
 "HtCap_Sys_L_LobWait_E" = -9337.339   $ Sizing
 "HtCap_Sys_L_LobWait_N" = -5498.65   $ Sizing
 "HtCap_Sys_L_LobWait_S" = -9733.96   $ Sizing
 "HtCap_Sys_L_LobWait_W" = -9554.686   $ Sizing
 "HtCap_Sys_L_MechElec_C" = -3132.013   $ Sizing
 "HtCap_Sys_L_OfficeOpn_C" = -2860.336   $ Sizing
 "HtCap_Sys_L_OfficeOpn_E" = -17250.5   $ Sizing
 "HtCap_Sys_L_OfficeOpn_N" = -11635.42   $ Sizing
 "HtCap_Sys_L_OfficeOpn_S" = -16724.88   $ Sizing
 "HtCap_Sys_L_OfficeOpn_W" = -17061.58   $ Sizing
 "HtCap_Sys_L_OfficeSm_E" = -14280.23   $ Sizing
 "HtCap_Sys_L_OfficeSm_N" = -8763.88   $ Sizing
 "HtCap_Sys_L_OfficeSm_S" = -13914.6   $ Sizing
 "HtCap_Sys_L_OfficeSm_W" = -14120.94   $ Sizing
 "HtCap_Sys_L_Restrm_C" = -3112.096   $ Sizing
 "HtCap_Sys_L_StorSm_C" = -1416.338   $ Sizing
 "HtCap_Sys_L_StorSm_E" = -3766.757   $ Sizing
 "HtCap_Sys_L_StorSm_N" = -2674.876   $ Sizing
 "HtCap_Sys_L_StorSm_S" = -3862.983   $ Sizing
 "HtCap_Sys_L_StorSm_W" = -3756.816   $ Sizing
 "HtCap_Sys_T_Conf_C" = -13740.66   $ Sizing
 "HtCap_Sys_T_Hall_E" = -4366.292   $ Sizing
 "HtCap_Sys_T_Hall_N" = -2363.167   $ Sizing
 "HtCap_Sys_T_Hall_S" = -4677.113   $ Sizing
 "HtCap_Sys_T_Hall_W" = -4346.372   $ Sizing
 "HtCap_Sys_T_OfficeOpn_C" = -2942.091   $ Sizing
 "HtCap_Sys_T_OfficeOpn_E" = -18531.44   $ Sizing
 "HtCap_Sys_T_OfficeOpn_N" = -12950.24   $ Sizing
 "HtCap_Sys_T_OfficeOpn_S" = -19118.38   $ Sizing
 "HtCap_Sys_T_OfficeOpn_W" = -17911.68   $ Sizing
 "HtCap_Sys_T_OfficeSm_E" = -15379.18   $ Sizing
 "HtCap_Sys_T_OfficeSm_N" = -9997.612   $ Sizing
 "HtCap_Sys_T_OfficeSm_S" = -16274.34   $ Sizing
 "HtCap_Sys_T_OfficeSm_W" = -15216.91   $ Sizing
 "HtCap_Sys_T_Restrm_C" = -4589.861   $ Sizing
 "HtCap_Sys_T_StorSm_E" = -4701.212   $ Sizing
 "HtCap_Sys_T_StorSm_N" = -3018.845   $ Sizing
 "HtCap_Sys_T_StorSm_S" = -4771.236   $ Sizing
 "HtCap_Sys_T_StorSm_W" = -4643.818   $ Sizing
..

##include Templates\OfS_DX_SZ.inp
END ..
COMPUTE ..
STOP ..
