INPUT ..

##fileprefix C:\Users\jglasskatz\MASControl3\
##set1 IsSizing FALSE
##set1 CoolType DX
##set1 HeatType ELECTRIC
##set1 EU_HrRepVar 1
##set1 BldgVint 2015
##set1 BldgLoc CZ01

 ##set1 mBFMult 1   $ IP Tech: RefgChg-NRes-Std

PARAMETER
 "AltFactor" = 1.00753   $ IP Non-Tech
 "BldgEconoFlag" = 1   $ IP Non-Tech
 "Break_EWSF" = 1   $ IP Non-Tech
 "Break_LWSF" = 1.1   $ IP Non-Tech
 "CDD_DBHi10" = 65   $ IP Non-Tech
 "CDD_DBHi7" = 68   $ IP Non-Tech
 "CDD_DBHi8" = 66   $ IP Non-Tech
 "CDD_DBHi9" = 77   $ IP Non-Tech
 "CDD_DBRange10" = 17   $ IP Non-Tech
 "CDD_DBRange7" = 11   $ IP Non-Tech
 "CDD_DBRange8" = 10   $ IP Non-Tech
 "CDD_DBRange9" = 29   $ IP Non-Tech
 "CDD_Day10" = 15   $ IP Non-Tech
 "CDD_Day7" = 16   $ IP Non-Tech
 "CDD_Day8" = 20   $ IP Non-Tech
 "CDD_Day9" = 17   $ IP Non-Tech
 "CDD_HrHi10" = 12   $ IP Non-Tech
 "CDD_HrHi7" = 12   $ IP Non-Tech
 "CDD_HrHi8" = 13   $ IP Non-Tech
 "CDD_HrHi9" = 17   $ IP Non-Tech
 "CDD_HrLo10" = 6   $ IP Non-Tech
 "CDD_HrLo7" = 3   $ IP Non-Tech
 "CDD_HrLo8" = 8   $ IP Non-Tech
 "CDD_HrLo9" = 4   $ IP Non-Tech
 "CDD_WB10" = 57.53039551   $ IP Non-Tech
 "CDD_WB7" = 59.29250717   $ IP Non-Tech
 "CDD_WB8" = 60.75350189   $ IP Non-Tech
 "CDD_WB9" = 61.08643341   $ IP Non-Tech
 "CZ_Category" = Tem   $ IP Non-Tech
 "ChwVintEconoFlag" = 1   $ IP Non-Tech
 "CompRoomData_EWSF" = 5   $ IP Non-Tech
 "CompRoomData_LWSF" = 1.05   $ IP Non-Tech
 "Conference_EWSF" = 1   $ IP Non-Tech
 "Conference_LWSF" = 1.4   $ IP Non-Tech
 "CoolSetT" = 45   $ IP Non-Tech
 "CoolType" = DX   $ IP Non-Tech
 "CopyRoom_EWSF" = 1.5   $ IP Non-Tech
 "CopyRoom_LWSF" = 1.3   $ IP Non-Tech
 "DesCoolT" = 75   $ IP Non-Tech
 "DesHeatT" = 73   $ IP Non-Tech
 "EconoEnthLimit" = 28   $ IP Non-Tech
 "EconoTempLimit" = 70   $ IP Non-Tech
 "Elevation" = 203   $ IP Non-Tech
 "HDD_CloudAmt1" = 0   $ IP Non-Tech
 "HDD_DBHi1" = 53   $ IP Non-Tech
 "HDD_DBRange1" = 20   $ IP Non-Tech
 "HDD_Day1" = 15   $ IP Non-Tech
 "HDD_HrHi1" = 14   $ IP Non-Tech
 "HDD_HrLo1" = 6   $ IP Non-Tech
 "HDD_WB1" = 42.3   $ IP Non-Tech
 "HDD_WindSpd1" = 12.7   $ IP Non-Tech
 "Hall_EWSF" = 0.2   $ IP Non-Tech
 "Hall_LWSF" = 0.6   $ IP Non-Tech
 "HeatSrc" = ELECTRIC   $ IP Non-Tech
 "HeatSrcTU" = HEAT-PUMP   $ IP Non-Tech
 "HeatType" = Elec   $ IP Non-Tech
 "HeatTypeTU" = HEAT-PUMP   $ IP Non-Tech
 "IndoorFanMode" = CONTINUOUS   $ IP Non-Tech
 "KT_TransferAir" = Yes   $ IP Non-Tech
 "Latitude" = 40.8   $ IP Non-Tech
 "LobbyWaiting_EWSF" = 0.5   $ IP Non-Tech
 "LobbyWaiting_LWSF" = 1.3   $ IP Non-Tech
 "Longitude" = 124.2   $ IP Non-Tech
 "LtgMsrApplic" = ALL   $ Msr TechID: NonResLtgRefMsr-CFL
 "LtgSav_CFL" = 0.3   $ Msr TechID: NonResLtgRefMsr-CFL
 "LtgSav_EX" = 0   $ Msr TechID: NonResLtgRefMsr-CFL
 "LtgSav_HB" = 0   $ Msr TechID: NonResLtgRefMsr-CFL
 "LtgSav_LF" = 0   $ Msr TechID: NonResLtgRefMsr-CFL
 "LtgSav_SP" = 0   $ Msr TechID: NonResLtgRefMsr-CFL
 "MZFanMechEff" = 0.58   $ IP Non-Tech
 "MZHasRetFan" = FALSE   $ IP Non-Tech
 "MZ_RFanWPerCfm" = 0.33   $ IP Non-Tech
 "MZ_SFanWPerCfm" = 0.75   $ IP Non-Tech
 "MZ_SupFanStatic" = 4   $ IP Non-Tech
 "MaxSupT_MZ" = 95   $ IP Non-Tech
 "MaxSupT_SZ" = 100   $ IP Non-Tech
 "MaxSupT_TU" = 100   $ IP Non-Tech
 "MechElecRoom_EWSF" = 0.2   $ IP Non-Tech
 "MechElecRoom_LWSF" = 0.7   $ IP Non-Tech
 "MinCfmPerSF" = 0.4   $ IP Non-Tech
 "MinSupT" = 55   $ IP Non-Tech
 "NumBlrs" = 1   $ IP Non-Tech
 "OccCoolT" = 76   $ IP Non-Tech
 "OccHeatT" = 72   $ IP Non-Tech
 "OfficeOpen_EWSF" = 1.5   $ IP Non-Tech
 "OfficeOpen_LWSF" = 1.05   $ IP Non-Tech
 "OfficeSmall_EWSF" = 1.5   $ IP Non-Tech
 "OfficeSmall_LWSF" = 1.3   $ IP Non-Tech
 "PkgDxVintEconoFlag" = 1   $ IP Non-Tech
 "ReheatDeltaT" = 40   $ IP Non-Tech
 "Restroom_EWSF" = 0.2   $ IP Non-Tech
 "Restroom_LWSF" = 0.6   $ IP Non-Tech
 "SZFanMechEff" = 0.58   $ IP Non-Tech
 "SZHasRetFan" = FALSE   $ IP Non-Tech
 "SZ_Is_2Spd" = TRUE   $ IP Non-Tech
 "SZ_SFanWPerCfm" = 0.46   $ IP Non-Tech
 "StorageSmlCond_EWSF" = 0.2   $ IP Non-Tech
 "StorageSmlCond_LWSF" = 0.6   $ IP Non-Tech
 "T24GlzTbl" = TypeTbl   $ IP Non-Tech
 "TermUnitFanMechEff" = 1   $ IP Non-Tech
 "TermUnitFanMode" = INTERMITTENT   $ IP Non-Tech
 "TwrSetpt" = 80   $ IP Non-Tech
 "UnocCoolT" = 86   $ IP Non-Tech
 "UnocHeatT" = 62   $ IP Non-Tech
 "VAVMinFlow" = 0.3   $ IP Non-Tech
 "WlhpVintEconoFlag" = 1   $ IP Non-Tech
 "EconoCtrl" = OA-TEMP   $ IP Tech: AirEcono-OATemp
 "MaxOAFrac" = 0.85   $ IP Tech: AirEcono-OATemp
 "UseEconoVintApplic" = FALSE   $ IP Tech: AirEcono-OATemp
 "DuctDT" = 1   $ IP Tech: ComDuctInsul-1
 "DuctAirLoss" = 0   $ IP Tech: ComDuctLeak-0
 "DuctLossOAFrac" = 0   $ IP Tech: ComDuctLeak-0
 "ComRoofInsCalc" = FromUo   $ IP Tech: ComRoofIns-WFrm-0.05
 "ComRoofInsR" = -999   $ IP Tech: ComRoofIns-WFrm-0.05
 "ComRoofUo" = 0.05   $ IP Tech: ComRoofIns-WFrm-0.05
 "ComEWInsCalc" = FromUo   $ IP Tech: ComWallIns-WFrm-0.08
 "ComEWInsR" = -999   $ IP Tech: ComWallIns-WFrm-0.08
 "ComEWUo" = 0.08   $ IP Tech: ComWallIns-WFrm-0.08
 "ComN_SHGC" = 0.25   $ IP Tech: NResWin-ComN-0.36-0.25
 "ComN_UFactor" = 0.36   $ IP Tech: NResWin-ComN-0.36-0.25
 "ComN_VisTrans" = 0.41   $ IP Tech: NResWin-ComN-0.36-0.25
 "ComN_WinCode" = G2668   $ IP Tech: NResWin-ComN-0.36-0.25
 "ComN_WinFrmFrac" = 0.17   $ IP Tech: NResWin-ComN-0.36-0.25
 "ComN_WinFrmU" = 0.3   $ IP Tech: NResWin-ComN-0.36-0.25
 "ComO_SHGC" = 0.25   $ IP Tech: NResWin-ComO-0.36-0.25
 "ComO_UFactor" = 0.36   $ IP Tech: NResWin-ComO-0.36-0.25
 "ComO_VisTrans" = 0.41   $ IP Tech: NResWin-ComO-0.36-0.25
 "ComO_WinCode" = G2668   $ IP Tech: NResWin-ComO-0.36-0.25
 "ComO_WinFrmFrac" = 0.17   $ IP Tech: NResWin-ComO-0.36-0.25
 "ComO_WinFrmU" = 0.3   $ IP Tech: NResWin-ComO-0.36-0.25
 "PV_BF_fFlow" = PVV240to760_BF_fFlow   $ IP Tech: PVVAC-P-240to760-E10
 "PV_BF_fT" = PVV240to760_BF_fT   $ IP Tech: PVVAC-P-240to760-E10
 "PV_CEIR_fPLR" = PVV240to760_CEIR_fPLR   $ IP Tech: PVVAC-P-240to760-E10
 "PV_CLoss_fPLR" = PVV240to760_CLoss_fPLR   $ IP Tech: PVVAC-P-240to760-E10
 "PV_COP" = -1   $ IP Tech: PVVAC-P-240to760-E10
 "PV_COP47" = -1   $ IP Tech: PVVAC-P-240to760-E10
 "PV_CfmPerBtuh" = 0.02917   $ IP Tech: PVVAC-P-240to760-E10
 "PV_ClCap_fT" = PVV240to760_ClCap_fT   $ IP Tech: PVVAC-P-240to760-E10
 "PV_ClSH_fT" = PVV240to760_ClSH_fT   $ IP Tech: PVVAC-P-240to760-E10
 "PV_CoilBF" = 0.125   $ IP Tech: PVVAC-P-240to760-E10
 "PV_CondWPerBtuh" = 0   $ IP Tech: PVVAC-P-240to760-E10
 "PV_CoolSensCap" = 0.708   $ IP Tech: PVVAC-P-240to760-E10
 "PV_CoolingEIR" = 0.27383   $ IP Tech: PVVAC-P-240to760-E10
 "PV_CrnkEIR" = 0.0027   $ IP Tech: PVVAC-P-240to760-E10
 "PV_CrnkMaxT" = 50   $ IP Tech: PVVAC-P-240to760-E10
 "PV_DXType" = PVV   $ IP Tech: PVVAC-P-240to760-E10
 "PV_EER" = 9.17   $ IP Tech: PVVAC-P-240to760-E10
 "PV_EIR_fT" = PVV240to760_EIR_fT   $ IP Tech: PVVAC-P-240to760-E10
 "PV_FanEirPlr" = NA   $ IP Tech: PVVAC-P-240to760-E10
 "PV_FanWPerCfm" = 0.72   $ IP Tech: PVVAC-P-240to760-E10
 "PV_HIR_fT" = DEFAULT   $ IP Tech: PVVAC-P-240to760-E10
 "PV_HtCap_fT" = DEFAULT   $ IP Tech: PVVAC-P-240to760-E10
 "PV_HtCoolCapRatio" = -1   $ IP Tech: PVVAC-P-240to760-E10
 "PV_HtgEIR" = -1   $ IP Tech: PVVAC-P-240to760-E10
 "PV_HtgFuel" = HW   $ IP Tech: PVVAC-P-240to760-E10
 "PV_IEER" = 11.44   $ IP Tech: PVVAC-P-240to760-E10
 "PV_LowSpdCapRatio" = 0.17   $ IP Tech: PVVAC-P-240to760-E10
 "PV_LowSpdCfmRatio" = 0.24   $ IP Tech: PVVAC-P-240to760-E10
 "PV_NominalCap" = 40   $ IP Tech: PVVAC-P-240to760-E10
 "PV_NumStages" = 1   $ IP Tech: PVVAC-P-240to760-E10
 "PV_RatedEER" = 10   $ IP Tech: PVVAC-P-240to760-E10
 "PV_RatedSupMtrClass" = Premium   $ IP Tech: PVVAC-P-240to760-E10
 "PV_SizeRange" = 240to760   $ IP Tech: PVVAC-P-240to760-E10
 "PV_SubType" = AC   $ IP Tech: PVVAC-P-240to760-E10
 "PV_SupMotEff" = 0.93   $ IP Tech: PVVAC-P-240to760-E10
 "PV_Tier" = 0   $ IP Tech: PVVAC-P-240to760-E10
 "PV_TotCoolCap" = 485760   $ IP Tech: PVVAC-P-240to760-E10
 "BF_fFlow" = PSZ65to135_BF_fFlow   $ IP Tech: PkgAC2SpP-65to135-E11.2
 "BF_fT" = PSZ65to135_BF_fT   $ IP Tech: PkgAC2SpP-65to135-E11.2
 "CEIR_fPLR" = PSZ65to135_CEIR_fPLR   $ IP Tech: PkgAC2SpP-65to135-E11.2
 "CLoss_fPLR" = PSZ65to135_CLoss_fPLR   $ IP Tech: PkgAC2SpP-65to135-E11.2
 "COP" = -1   $ IP Tech: PkgAC2SpP-65to135-E11.2
 "COP47" = -1   $ IP Tech: PkgAC2SpP-65to135-E11.2
 "CfmPerBtuh" = 0.02917   $ IP Tech: PkgAC2SpP-65to135-E11.2
 "ClCap_fT" = PSZ65to135_ClCap_fT   $ IP Tech: PkgAC2SpP-65to135-E11.2
 "ClSH_fT" = PSZ65to135_ClSH_fT   $ IP Tech: PkgAC2SpP-65to135-E11.2
 "CoilBF" = 0.114   $ IP Tech: PkgAC2SpP-65to135-E11.2
 "CondWPerBtuh" = 0   $ IP Tech: PkgAC2SpP-65to135-E11.2
 "CoolSensCap" = 0.663   $ IP Tech: PkgAC2SpP-65to135-E11.2
 "CoolingEIR" = 0.26277   $ IP Tech: PkgAC2SpP-65to135-E11.2
 "CrnkEIR" = 0.0026   $ IP Tech: PkgAC2SpP-65to135-E11.2
 "CrnkMaxT" = 50   $ IP Tech: PkgAC2SpP-65to135-E11.2
 "DXType" = Pkg   $ IP Tech: PkgAC2SpP-65to135-E11.2
 "EER" = 10.83   $ IP Tech: PkgAC2SpP-65to135-E11.2
 "EIR_fT" = PSZ65to135_EIR_fT   $ IP Tech: PkgAC2SpP-65to135-E11.2
 "FanEirPlr" = TwoSpeedFan   $ IP Tech: PkgAC2SpP-65to135-E11.2
 "FanWPerCfm" = 0.4   $ IP Tech: PkgAC2SpP-65to135-E11.2
 "HIR_fT" = DEFAULT   $ IP Tech: PkgAC2SpP-65to135-E11.2
 "HtCap_fT" = DEFAULT   $ IP Tech: PkgAC2SpP-65to135-E11.2
 "HtCoolCapRatio" = -1   $ IP Tech: PkgAC2SpP-65to135-E11.2
 "HtgEIR" = -1   $ IP Tech: PkgAC2SpP-65to135-E11.2
 "HtgFuel" = Gas   $ IP Tech: PkgAC2SpP-65to135-E11.2
 "IEER" = 13.65   $ IP Tech: PkgAC2SpP-65to135-E11.2
 "LowSpdCapRatio" = 0.5   $ IP Tech: PkgAC2SpP-65to135-E11.2
 "LowSpdCfmRatio" = 0.66   $ IP Tech: PkgAC2SpP-65to135-E11.2
 "NominalCap" = 15   $ IP Tech: PkgAC2SpP-65to135-E11.2
 "NumStages" = 2   $ IP Tech: PkgAC2SpP-65to135-E11.2
 "RatedEER" = 11.2   $ IP Tech: PkgAC2SpP-65to135-E11.2
 "RatedSupMtrClass" = Premium   $ IP Tech: PkgAC2SpP-65to135-E11.2
 "SizeRange" = 65to135   $ IP Tech: PkgAC2SpP-65to135-E11.2
 "SubType" = AC   $ IP Tech: PkgAC2SpP-65to135-E11.2
 "SupMotEff" = 0.865   $ IP Tech: PkgAC2SpP-65to135-E11.2
 "Tier" = 0   $ IP Tech: PkgAC2SpP-65to135-E11.2
 "TotCoolCap" = 184140   $ IP Tech: PkgAC2SpP-65to135-E11.2
 "BFMult" = 1   $ IP Tech: RefgChg-NRes-Std
 "CoolEirMult" = 1   $ IP Tech: RefgChg-NRes-Std
 "SensCoolCapMult" = 1   $ IP Tech: RefgChg-NRes-Std
 "TotCoolCapMult" = 1   $ IP Tech: RefgChg-NRes-Std
 "SATempCtrl" = WARMEST   $ IP Tech: SATempCtrl-Warmest
 "FanEIR_fPLR" = "Variable Speed Drive FPLR"   $ IP Tech: VAVCtrl-VSD-AnyHP
 "Fan_Control" = VSD   $ IP Tech: VAVCtrl-VSD-AnyHP
 "Motor_Horsepower" = AnyHP   $ IP Tech: VAVCtrl-VSD-AnyHP
 "AltAdjFactor" = 1.007532   $ Sizing
 "CAssFlo_L_Break_CZn" = 256.4656   $ Sizing
 "CAssFlo_L_CompDC_CZn" = 144.652   $ Sizing
 "CAssFlo_L_Conf_CZn" = 178.5992   $ Sizing
 "CAssFlo_L_CopyRm_CZn" = 50.72986   $ Sizing
 "CAssFlo_L_Hall_EZn" = 73.44392   $ Sizing
 "CAssFlo_L_Hall_NZn" = 58.28595   $ Sizing
 "CAssFlo_L_Hall_SZn" = 88.42574   $ Sizing
 "CAssFlo_L_Hall_WZn" = 79.56993   $ Sizing
 "CAssFlo_L_LobWait_EZn" = 186.0049   $ Sizing
 "CAssFlo_L_LobWait_NZn" = 121.2785   $ Sizing
 "CAssFlo_L_LobWait_SZn" = 210.0139   $ Sizing
 "CAssFlo_L_LobWait_WZn" = 186.4794   $ Sizing
 "CAssFlo_L_MechElec_CZn" = 65.93681   $ Sizing
 "CAssFlo_L_OfficeOpn_CZn" = 43.13209   $ Sizing
 "CAssFlo_L_OfficeOpn_EZn" = 398.7   $ Sizing
 "CAssFlo_L_OfficeOpn_NZn" = 182.4999   $ Sizing
 "CAssFlo_L_OfficeOpn_SZn" = 412.5323   $ Sizing
 "CAssFlo_L_OfficeOpn_WZn" = 385.5554   $ Sizing
 "CAssFlo_L_OfficeSm_EZn" = 334.3604   $ Sizing
 "CAssFlo_L_OfficeSm_NZn" = 139.3797   $ Sizing
 "CAssFlo_L_OfficeSm_SZn" = 366.4799   $ Sizing
 "CAssFlo_L_OfficeSm_WZn" = 338.5075   $ Sizing
 "CAssFlo_L_Restrm_CZn" = 86.07105   $ Sizing
 "CAssFlo_L_StorSm_CZn" = 30.05447   $ Sizing
 "CAssFlo_L_StorSm_EZn" = 65.063   $ Sizing
 "CAssFlo_L_StorSm_NZn" = 62.96244   $ Sizing
 "CAssFlo_L_StorSm_SZn" = 73.85056   $ Sizing
 "CAssFlo_L_StorSm_WZn" = 67.68911   $ Sizing
 "CAssFlo_T_Conf_CZn" = 190.015   $ Sizing
 "CAssFlo_T_Hall_EZn" = 91.88589   $ Sizing
 "CAssFlo_T_Hall_NZn" = 53.63985   $ Sizing
 "CAssFlo_T_Hall_SZn" = 104.4532   $ Sizing
 "CAssFlo_T_Hall_WZn" = 93.15871   $ Sizing
 "CAssFlo_T_OfficeOpn_CZn" = 43.84078   $ Sizing
 "CAssFlo_T_OfficeOpn_EZn" = 414.5107   $ Sizing
 "CAssFlo_T_OfficeOpn_NZn" = 217.754   $ Sizing
 "CAssFlo_T_OfficeOpn_SZn" = 447.9959   $ Sizing
 "CAssFlo_T_OfficeOpn_WZn" = 401.7707   $ Sizing
 "CAssFlo_T_OfficeSm_EZn" = 360.6851   $ Sizing
 "CAssFlo_T_OfficeSm_NZn" = 170.7623   $ Sizing
 "CAssFlo_T_OfficeSm_SZn" = 398.1611   $ Sizing
 "CAssFlo_T_OfficeSm_WZn" = 351.5542   $ Sizing
 "CAssFlo_T_Restrm_CZn" = 86.07105   $ Sizing
 "CAssFlo_T_StorSm_EZn" = 84.66343   $ Sizing
 "CAssFlo_T_StorSm_NZn" = 59.08691   $ Sizing
 "CAssFlo_T_StorSm_SZn" = 94.99718   $ Sizing
 "CAssFlo_T_StorSm_WZn" = 87.6311   $ Sizing
 "CHRtFlo_L_Break_CZn" = 185.4956   $ Sizing
 "CHRtFlo_L_CompDC_CZn" = 43.3956   $ Sizing
 "CHRtFlo_L_Conf_CZn" = 143.3872   $ Sizing
 "CHRtFlo_L_CopyRm_CZn" = 50.72986   $ Sizing
 "CHRtFlo_L_Hall_EZn" = 55.3867   $ Sizing
 "CHRtFlo_L_Hall_NZn" = 58.28595   $ Sizing
 "CHRtFlo_L_Hall_SZn" = 38.46476   $ Sizing
 "CHRtFlo_L_Hall_WZn" = 55.03291   $ Sizing
 "CHRtFlo_L_LobWait_EZn" = 113.7572   $ Sizing
 "CHRtFlo_L_LobWait_NZn" = 121.2785   $ Sizing
 "CHRtFlo_L_LobWait_SZn" = 85.17167   $ Sizing
 "CHRtFlo_L_LobWait_WZn" = 113.0775   $ Sizing
 "CHRtFlo_L_MechElec_CZn" = 36.22268   $ Sizing
 "CHRtFlo_L_OfficeOpn_CZn" = 34.08391   $ Sizing
 "CHRtFlo_L_OfficeOpn_EZn" = 119.61   $ Sizing
 "CHRtFlo_L_OfficeOpn_NZn" = 126.7979   $ Sizing
 "CHRtFlo_L_OfficeOpn_SZn" = 123.7597   $ Sizing
 "CHRtFlo_L_OfficeOpn_WZn" = 115.6666   $ Sizing
 "CHRtFlo_L_OfficeSm_EZn" = 113.2261   $ Sizing
 "CHRtFlo_L_OfficeSm_NZn" = 119.7854   $ Sizing
 "CHRtFlo_L_OfficeSm_SZn" = 109.944   $ Sizing
 "CHRtFlo_L_OfficeSm_WZn" = 107.9597   $ Sizing
 "CHRtFlo_L_Restrm_CZn" = 50.22004   $ Sizing
 "CHRtFlo_L_StorSm_CZn" = 30.05447   $ Sizing
 "CHRtFlo_L_StorSm_EZn" = 58.43553   $ Sizing
 "CHRtFlo_L_StorSm_NZn" = 62.96244   $ Sizing
 "CHRtFlo_L_StorSm_SZn" = 42.81397   $ Sizing
 "CHRtFlo_L_StorSm_WZn" = 53.68226   $ Sizing
 "CHRtFlo_T_Conf_CZn" = 143.3872   $ Sizing
 "CHRtFlo_T_Hall_EZn" = 50.80115   $ Sizing
 "CHRtFlo_T_Hall_NZn" = 53.63985   $ Sizing
 "CHRtFlo_T_Hall_SZn" = 40.83252   $ Sizing
 "CHRtFlo_T_Hall_WZn" = 49.64201   $ Sizing
 "CHRtFlo_T_OfficeOpn_CZn" = 22.12286   $ Sizing
 "CHRtFlo_T_OfficeOpn_EZn" = 124.3532   $ Sizing
 "CHRtFlo_T_OfficeOpn_NZn" = 116.1271   $ Sizing
 "CHRtFlo_T_OfficeOpn_SZn" = 134.3988   $ Sizing
 "CHRtFlo_T_OfficeOpn_WZn" = 120.5312   $ Sizing
 "CHRtFlo_T_OfficeSm_EZn" = 108.2055   $ Sizing
 "CHRtFlo_T_OfficeSm_NZn" = 109.825   $ Sizing
 "CHRtFlo_T_OfficeSm_SZn" = 119.4483   $ Sizing
 "CHRtFlo_T_OfficeSm_WZn" = 105.4663   $ Sizing
 "CHRtFlo_T_Restrm_CZn" = 75.52285   $ Sizing
 "CHRtFlo_T_StorSm_EZn" = 55.27374   $ Sizing
 "CHRtFlo_T_StorSm_NZn" = 59.08691   $ Sizing
 "CHRtFlo_T_StorSm_SZn" = 41.67398   $ Sizing
 "CHRtFlo_T_StorSm_WZn" = 53.8369   $ Sizing
 "CRtdFlo_Sys_L" = 3390.279   $ Sizing
 "CRtdFlo_Sys_T" = 2853.865   $ Sizing
 "CSupFlo_Sys_L" = 3390.279   $ Sizing
 "CSupFlo_Sys_T" = 2853.865   $ Sizing
 "ClCap_Sys_L" = 116702.9   $ Sizing
 "ClCap_Sys_T" = 98522.79   $ Sizing
 "HRtEDB_L_Break_CZn" = 55.67473   $ Sizing
 "HRtEDB_L_CompDC_CZn" = 55.67473   $ Sizing
 "HRtEDB_L_Conf_CZn" = 52.64157   $ Sizing
 "HRtEDB_L_CopyRm_CZn" = 52.64157   $ Sizing
 "HRtEDB_L_Hall_EZn" = 52.64157   $ Sizing
 "HRtEDB_L_Hall_NZn" = 52.64157   $ Sizing
 "HRtEDB_L_Hall_SZn" = 52.64157   $ Sizing
 "HRtEDB_L_Hall_WZn" = 52.64157   $ Sizing
 "HRtEDB_L_LobWait_EZn" = 52.64157   $ Sizing
 "HRtEDB_L_LobWait_NZn" = 52.64157   $ Sizing
 "HRtEDB_L_LobWait_SZn" = 52.64157   $ Sizing
 "HRtEDB_L_LobWait_WZn" = 52.64157   $ Sizing
 "HRtEDB_L_MechElec_CZn" = 52.64157   $ Sizing
 "HRtEDB_L_OfficeOpn_CZn" = 52.64157   $ Sizing
 "HRtEDB_L_OfficeOpn_EZn" = 55.67473   $ Sizing
 "HRtEDB_L_OfficeOpn_NZn" = 55.67473   $ Sizing
 "HRtEDB_L_OfficeOpn_SZn" = 55.67473   $ Sizing
 "HRtEDB_L_OfficeOpn_WZn" = 55.67473   $ Sizing
 "HRtEDB_L_OfficeSm_EZn" = 55.67473   $ Sizing
 "HRtEDB_L_OfficeSm_NZn" = 55.67473   $ Sizing
 "HRtEDB_L_OfficeSm_SZn" = 55.67473   $ Sizing
 "HRtEDB_L_OfficeSm_WZn" = 55.67473   $ Sizing
 "HRtEDB_L_Restrm_CZn" = 52.64157   $ Sizing
 "HRtEDB_L_StorSm_CZn" = 52.64157   $ Sizing
 "HRtEDB_L_StorSm_EZn" = 52.64157   $ Sizing
 "HRtEDB_L_StorSm_NZn" = 52.64157   $ Sizing
 "HRtEDB_L_StorSm_SZn" = 52.64157   $ Sizing
 "HRtEDB_L_StorSm_WZn" = 52.64157   $ Sizing
 "HRtEDB_T_Conf_CZn" = 50.42284   $ Sizing
 "HRtEDB_T_Hall_EZn" = 50.42284   $ Sizing
 "HRtEDB_T_Hall_NZn" = 50.42284   $ Sizing
 "HRtEDB_T_Hall_SZn" = 50.42284   $ Sizing
 "HRtEDB_T_Hall_WZn" = 50.42284   $ Sizing
 "HRtEDB_T_OfficeOpn_CZn" = 50.42284   $ Sizing
 "HRtEDB_T_OfficeOpn_EZn" = 55.308   $ Sizing
 "HRtEDB_T_OfficeOpn_NZn" = 55.308   $ Sizing
 "HRtEDB_T_OfficeOpn_SZn" = 50.42284   $ Sizing
 "HRtEDB_T_OfficeOpn_WZn" = 55.308   $ Sizing
 "HRtEDB_T_OfficeSm_EZn" = 55.308   $ Sizing
 "HRtEDB_T_OfficeSm_NZn" = 50.42284   $ Sizing
 "HRtEDB_T_OfficeSm_SZn" = 50.42284   $ Sizing
 "HRtEDB_T_OfficeSm_WZn" = 50.42284   $ Sizing
 "HRtEDB_T_Restrm_CZn" = 50.42284   $ Sizing
 "HRtEDB_T_StorSm_EZn" = 50.42284   $ Sizing
 "HRtEDB_T_StorSm_NZn" = 51.89352   $ Sizing
 "HRtEDB_T_StorSm_SZn" = 50.42284   $ Sizing
 "HRtEDB_T_StorSm_WZn" = 51.89352   $ Sizing
 "HtCap_L_Break_CZn" = -7858.555   $ Sizing
 "HtCap_L_CompDC_CZn" = -1838.462   $ Sizing
 "HtCap_L_Conf_CZn" = -6544.426   $ Sizing
 "HtCap_L_CopyRm_CZn" = -2315.393   $ Sizing
 "HtCap_L_Hall_EZn" = -2527.939   $ Sizing
 "HtCap_L_Hall_NZn" = -2660.266   $ Sizing
 "HtCap_L_Hall_SZn" = -1755.594   $ Sizing
 "HtCap_L_Hall_WZn" = -2511.791   $ Sizing
 "HtCap_L_LobWait_EZn" = -5192.062   $ Sizing
 "HtCap_L_LobWait_NZn" = -5535.349   $ Sizing
 "HtCap_L_LobWait_SZn" = -3887.373   $ Sizing
 "HtCap_L_LobWait_WZn" = -5161.042   $ Sizing
 "HtCap_L_MechElec_CZn" = -1653.262   $ Sizing
 "HtCap_L_OfficeOpn_CZn" = -1555.645   $ Sizing
 "HtCap_L_OfficeOpn_EZn" = -5067.299   $ Sizing
 "HtCap_L_OfficeOpn_NZn" = -5371.815   $ Sizing
 "HtCap_L_OfficeOpn_SZn" = -5243.103   $ Sizing
 "HtCap_L_OfficeOpn_WZn" = -4900.237   $ Sizing
 "HtCap_L_OfficeSm_EZn" = -4796.845   $ Sizing
 "HtCap_L_OfficeSm_NZn" = -5074.729   $ Sizing
 "HtCap_L_OfficeSm_SZn" = -4657.796   $ Sizing
 "HtCap_L_OfficeSm_WZn" = -4573.731   $ Sizing
 "HtCap_L_Restrm_CZn" = -2292.124   $ Sizing
 "HtCap_L_StorSm_CZn" = -1371.735   $ Sizing
 "HtCap_L_StorSm_EZn" = -2667.092   $ Sizing
 "HtCap_L_StorSm_NZn" = -2873.708   $ Sizing
 "HtCap_L_StorSm_SZn" = -1954.099   $ Sizing
 "HtCap_L_StorSm_WZn" = -2450.146   $ Sizing
 "HtCap_T_Conf_CZn" = -6887.47   $ Sizing
 "HtCap_T_Hall_EZn" = -2440.185   $ Sizing
 "HtCap_T_Hall_NZn" = -2576.539   $ Sizing
 "HtCap_T_Hall_SZn" = -1961.352   $ Sizing
 "HtCap_T_Hall_WZn" = -2384.507   $ Sizing
 "HtCap_T_OfficeOpn_CZn" = -1062.651   $ Sizing
 "HtCap_T_OfficeOpn_EZn" = -5318.771   $ Sizing
 "HtCap_T_OfficeOpn_NZn" = -4966.926   $ Sizing
 "HtCap_T_OfficeOpn_SZn" = -6455.718   $ Sizing
 "HtCap_T_OfficeOpn_WZn" = -5155.298   $ Sizing
 "HtCap_T_OfficeSm_EZn" = -4628.11   $ Sizing
 "HtCap_T_OfficeSm_NZn" = -5275.341   $ Sizing
 "HtCap_T_OfficeSm_SZn" = -5737.588   $ Sizing
 "HtCap_T_OfficeSm_WZn" = -5065.972   $ Sizing
 "HtCap_T_Restrm_CZn" = -3627.668   $ Sizing
 "HtCap_T_StorSm_EZn" = -2655.021   $ Sizing
 "HtCap_T_StorSm_NZn" = -2745.843   $ Sizing
 "HtCap_T_StorSm_SZn" = -2001.77   $ Sizing
 "HtCap_T_StorSm_WZn" = -2501.868   $ Sizing
..

##include Templates\OfS_DX_MZ.inp
END ..
COMPUTE ..
STOP ..
