INPUT ..

##fileprefix C:\Users\jglasskatz\MASControl3\
##set1 IsSizing FALSE
##set1 CoolType DX
##set1 HeatType FURNACE
##set1 EU_HrRepVar 0
##set1 BldgVint 2011
##set1 BldgLoc CZ15

 ##set1 mBFMult 1   $ IP Tech: RefgChg-NRes-Std

PARAMETER
 "AltFactor" = 1.01767   $ IP Non-Tech
 "BF_fFlow" = SpltAC2SpHiSEER_BF_fFlow   $ Msr (Multi)TechID: MsrNResSplitAC-lt45-S17
 "BF_fT" = SpltAC2SpHiSEER_BF_fT   $ Msr (Multi)TechID: MsrNResSplitAC-lt45-S17
 "BldgEconoFlag" = 1   $ IP Non-Tech
 "Break_EWSF" = 1   $ IP Non-Tech
 "Break_LWSF" = 1.1   $ IP Non-Tech
 "CDD_DBHi10" = 97   $ IP Non-Tech
 "CDD_DBHi7" = 110   $ IP Non-Tech
 "CDD_DBHi8" = 111   $ IP Non-Tech
 "CDD_DBHi9" = 109   $ IP Non-Tech
 "CDD_DBRange10" = 25   $ IP Non-Tech
 "CDD_DBRange7" = 18   $ IP Non-Tech
 "CDD_DBRange8" = 23   $ IP Non-Tech
 "CDD_DBRange9" = 21   $ IP Non-Tech
 "CDD_Day10" = 15   $ IP Non-Tech
 "CDD_Day7" = 16   $ IP Non-Tech
 "CDD_Day8" = 20   $ IP Non-Tech
 "CDD_Day9" = 17   $ IP Non-Tech
 "CDD_HrHi10" = 14   $ IP Non-Tech
 "CDD_HrHi7" = 15   $ IP Non-Tech
 "CDD_HrHi8" = 18   $ IP Non-Tech
 "CDD_HrHi9" = 12   $ IP Non-Tech
 "CDD_HrLo10" = 5   $ IP Non-Tech
 "CDD_HrLo7" = 3   $ IP Non-Tech
 "CDD_HrLo8" = 4   $ IP Non-Tech
 "CDD_HrLo9" = 7   $ IP Non-Tech
 "CDD_WB10" = 64.62915039   $ IP Non-Tech
 "CDD_WB7" = 77.7762146   $ IP Non-Tech
 "CDD_WB8" = 78.616539   $ IP Non-Tech
 "CDD_WB9" = 73.63479614   $ IP Non-Tech
 "CEIR_fPLR_Hot" = SpltAC2SpHiSEER_CEIR_fPLR_Hot   $ Msr (Multi)TechID: MsrNResSplitAC-lt45-S17
 "CEIR_fPLR_Mod" = SpltAC2SpHiSEER_CEIR_fPLR_Mod   $ Msr (Multi)TechID: MsrNResSplitAC-lt45-S17
 "CEIR_fPLR_Tem" = SpltAC2SpHiSEER_CEIR_fPLR_Tem   $ Msr (Multi)TechID: MsrNResSplitAC-lt45-S17
 "CLoss_fPLR_Hot" = SpltAC2SpHiSEER_CLoss_fPLR_Hot   $ Msr (Multi)TechID: MsrNResSplitAC-lt45-S17
 "CLoss_fPLR_Mod" = SpltAC2SpHiSEER_CLoss_fPLR_Mod   $ Msr (Multi)TechID: MsrNResSplitAC-lt45-S17
 "CLoss_fPLR_Tem" = SpltAC2SpHiSEER_CLoss_fPLR_Tem   $ Msr (Multi)TechID: MsrNResSplitAC-lt45-S17
 "COP47" = 0   $ Msr (Multi)TechID: MsrNResSplitAC-lt45-S17
 "CZ_Category" = Hot   $ IP Non-Tech
 "CapRange" = Any   $ Msr (Multi)TechID: MsrNResSplitAC-lt45-S17
 "CfmPerBtuh" = 0.03   $ Msr (Multi)TechID: MsrNResSplitAC-lt45-S17
 "ChwVintEconoFlag" = 1   $ IP Non-Tech
 "ClCap_fT" = SpltAC2SpHiSEER_ClCap_fT   $ Msr (Multi)TechID: MsrNResSplitAC-lt45-S17
 "ClSH_fT" = SpltAC2SpHiSEER_ClSH_fT   $ Msr (Multi)TechID: MsrNResSplitAC-lt45-S17
 "CoilBF" = 0.102   $ Msr (Multi)TechID: MsrNResSplitAC-lt45-S17
 "CompRoomData_EWSF" = 5   $ IP Non-Tech
 "CompRoomData_LWSF" = 1.1   $ IP Non-Tech
 "CondWPerBtuh" = 0   $ Msr (Multi)TechID: MsrNResSplitAC-lt45-S17
 "Conference_EWSF" = 1   $ IP Non-Tech
 "Conference_LWSF" = 1.4   $ IP Non-Tech
 "CoolSensCap" = 0.724   $ Msr (Multi)TechID: MsrNResSplitAC-lt45-S17
 "CoolSetT" = 45   $ IP Non-Tech
 "CoolType" = DX   $ IP Non-Tech
 "CoolingEIR" = 0.2225   $ Msr (Multi)TechID: MsrNResSplitAC-lt45-S17
 "CopyRoom_EWSF" = 1.5   $ IP Non-Tech
 "CopyRoom_LWSF" = 1.3   $ IP Non-Tech
 "CrnkEIR" = 0.002225   $ Msr (Multi)TechID: MsrNResSplitAC-lt45-S17
 "CrnkMaxT" = 50   $ Msr (Multi)TechID: MsrNResSplitAC-lt45-S17
 "DXType" = SplitSEER   $ Msr (Multi)TechID: MsrNResSplitAC-lt45-S17
 "DesCoolT" = 75   $ IP Non-Tech
 "DesHeatT" = 73   $ IP Non-Tech
 "EER" = 13.26   $ Msr (Multi)TechID: MsrNResSplitAC-lt45-S17
 "EIR_fT" = SpltAC2SpHiSEER_EIR_fT   $ Msr (Multi)TechID: MsrNResSplitAC-lt45-S17
 "EconoCtrl" = FIXED   $ Msr (Multi)TechID: MsrNResSplitAC-lt45-S17
 "EconoEnthLimit" = 28   $ IP Non-Tech
 "EconoTempLimit" = 75   $ IP Non-Tech
 "Elevation" = 475   $ IP Non-Tech
 "FanEirPlr" = TwoSpeedFan   $ Msr (Multi)TechID: MsrNResSplitAC-lt45-S17
 "FanWPerCfm" = 0.271   $ Msr (Multi)TechID: MsrNResSplitAC-lt45-S17
 "HDD_CloudAmt1" = 0   $ IP Non-Tech
 "HDD_DBHi1" = 58   $ IP Non-Tech
 "HDD_DBRange1" = 21   $ IP Non-Tech
 "HDD_Day1" = 15   $ IP Non-Tech
 "HDD_HrHi1" = 13   $ IP Non-Tech
 "HDD_HrLo1" = 7   $ IP Non-Tech
 "HDD_WB1" = 39.7   $ IP Non-Tech
 "HDD_WindSpd1" = 10.4   $ IP Non-Tech
 "HIR_fT" = 0   $ Msr (Multi)TechID: MsrNResSplitAC-lt45-S17
 "HSPF" = 0   $ Msr (Multi)TechID: MsrNResSplitAC-lt45-S17
 "Hall_EWSF" = 0.2   $ IP Non-Tech
 "Hall_LWSF" = 0.6   $ IP Non-Tech
 "HeatSrc" = FURNACE   $ IP Non-Tech
 "HeatSrcTU" = HEAT-PUMP   $ IP Non-Tech
 "HeatType" = GasFurn   $ IP Non-Tech
 "HeatTypeTU" = HEAT-PUMP   $ IP Non-Tech
 "HtCap_fT" = 0   $ Msr (Multi)TechID: MsrNResSplitAC-lt45-S17
 "HtCoolCapRatio" = 0   $ Msr (Multi)TechID: MsrNResSplitAC-lt45-S17
 "HtgEIR" = 0   $ Msr (Multi)TechID: MsrNResSplitAC-lt45-S17
 "IndoorFanMode" = CONTINUOUS   $ IP Non-Tech
 "KT_TransferAir" = No   $ IP Non-Tech
 "Latitude" = 33.8   $ IP Non-Tech
 "LobbyWaiting_EWSF" = 0.5   $ IP Non-Tech
 "LobbyWaiting_LWSF" = 1.3   $ IP Non-Tech
 "Longitude" = 116.5   $ IP Non-Tech
 "LowSpdCapRatio" = 0.686   $ Msr (Multi)TechID: MsrNResSplitAC-lt45-S17
 "LowSpdCfmRatio" = 0.739   $ Msr (Multi)TechID: MsrNResSplitAC-lt45-S17
 "MZFanMechEff" = 0.58   $ IP Non-Tech
 "MZHasRetFan" = FALSE   $ IP Non-Tech
 "MZ_RFanWPerCfm" = 0.33   $ IP Non-Tech
 "MZ_SFanWPerCfm" = 0.75   $ IP Non-Tech
 "MZ_SupFanStatic" = 2.25   $ IP Non-Tech
 "MaxOAFrac" = 1   $ Msr (Multi)TechID: MsrNResSplitAC-lt45-S17
 "MaxSupT_MZ" = 100   $ IP Non-Tech
 "MaxSupT_SZ" = 100   $ IP Non-Tech
 "MaxSupT_TU" = 90   $ IP Non-Tech
 "MechElecRoom_EWSF" = 0.2   $ IP Non-Tech
 "MechElecRoom_LWSF" = 0.7   $ IP Non-Tech
 "MinCfmPerSF" = 0.4   $ IP Non-Tech
 "MinSupT" = 55   $ IP Non-Tech
 "NumStages" = 2   $ Msr (Multi)TechID: MsrNResSplitAC-lt45-S17
 "OccCoolT" = 76   $ IP Non-Tech
 "OccHeatT" = 72   $ IP Non-Tech
 "OfficeOpen_EWSF" = 1.5   $ IP Non-Tech
 "OfficeOpen_LWSF" = 1.1   $ IP Non-Tech
 "OfficeSmall_EWSF" = 1.5   $ IP Non-Tech
 "OfficeSmall_LWSF" = 1.3   $ IP Non-Tech
 "PkgDxVintEconoFlag" = 0   $ IP Non-Tech
 "Restroom_EWSF" = 0.2   $ IP Non-Tech
 "Restroom_LWSF" = 0.6   $ IP Non-Tech
 "SEER" = 17   $ Msr (Multi)TechID: MsrNResSplitAC-lt45-S17
 "SZFanMechEff" = 0.58   $ IP Non-Tech
 "SZHasRetFan" = FALSE   $ IP Non-Tech
 "SZ_Is_2Spd" = FALSE   $ IP Non-Tech
 "SZ_SFanWPerCfm" = 0.46   $ IP Non-Tech
 "SZ_SupFanStatic" = 0.75   $ IP Non-Tech
 "Sector" = Any   $ Msr (Multi)TechID: MsrNResSplitAC-lt45-S17
 "StorageSmlCond_EWSF" = 0.2   $ IP Non-Tech
 "StorageSmlCond_LWSF" = 0.6   $ IP Non-Tech
 "SubType" = AC   $ Msr (Multi)TechID: MsrNResSplitAC-lt45-S17
 "T24GlzTbl" = CZTbl   $ IP Non-Tech
 "TermUnitFanMechEff" = 1   $ IP Non-Tech
 "TermUnitFanMode" = INTERMITTENT   $ IP Non-Tech
 "TotCoolCap" = 58805   $ Msr (Multi)TechID: MsrNResSplitAC-lt45-S17
 "TwrSetpt" = 89.1   $ IP Non-Tech
 "UnocCoolT" = 86   $ IP Non-Tech
 "UnocHeatT" = 62   $ IP Non-Tech
 "UseEconoVintApplic" = FALSE   $ Msr (Multi)TechID: MsrNResSplitAC-lt45-S17
 "WlhpVintEconoFlag" = 0   $ IP Non-Tech
 "DuctDT" = 1   $ IP Tech: ComDuctInsul-1
 "DuctAirLoss" = 0   $ IP Tech: ComDuctLeak-0
 "DuctLossOAFrac" = 0   $ IP Tech: ComDuctLeak-0
 "ComRoofInsCalc" = FromUo   $ IP Tech: ComRoofIns-WFrm-0.04
 "ComRoofInsR" = -999   $ IP Tech: ComRoofIns-WFrm-0.04
 "ComRoofUo" = 0.04   $ IP Tech: ComRoofIns-WFrm-0.04
 "ComEWInsCalc" = FromUo   $ IP Tech: ComWallIns-WFrm-0.04
 "ComEWInsR" = -999   $ IP Tech: ComWallIns-WFrm-0.04
 "ComEWUo" = 0.04   $ IP Tech: ComWallIns-WFrm-0.04
 "ComN_SHGC" = 0.4   $ IP Tech: NResWin-ComN-0.47-0.4
 "ComN_UFactor" = 0.47   $ IP Tech: NResWin-ComN-0.47-0.4
 "ComN_VisTrans" = 0.68   $ IP Tech: NResWin-ComN-0.47-0.4
 "ComN_WinCode" = G2663   $ IP Tech: NResWin-ComN-0.47-0.4
 "ComN_WinFrmFrac" = 0.17   $ IP Tech: NResWin-ComN-0.47-0.4
 "ComN_WinFrmU" = 0.3   $ IP Tech: NResWin-ComN-0.47-0.4
 "ComO_SHGC" = 0.31   $ IP Tech: NResWin-ComO-0.47-0.31
 "ComO_UFactor" = 0.47   $ IP Tech: NResWin-ComO-0.47-0.31
 "ComO_VisTrans" = 0.44   $ IP Tech: NResWin-ComO-0.47-0.31
 "ComO_WinCode" = G2637   $ IP Tech: NResWin-ComO-0.47-0.31
 "ComO_WinFrmFrac" = 0.17   $ IP Tech: NResWin-ComO-0.47-0.31
 "ComO_WinFrmU" = 0.3   $ IP Tech: NResWin-ComO-0.47-0.31
 "LtgMsrApplic" = ALL   $ IP Tech: NonResLtgRefPre
 "LtgSav_CFL" = 0   $ IP Tech: NonResLtgRefPre
 "LtgSav_EX" = 0   $ IP Tech: NonResLtgRefPre
 "LtgSav_HB" = 0   $ IP Tech: NonResLtgRefPre
 "LtgSav_LF" = 0   $ IP Tech: NonResLtgRefPre
 "LtgSav_SP" = 0   $ IP Tech: NonResLtgRefPre
 "CEIR_fPLR" = PSZ65to135_CEIR_fPLR   $ IP Tech: PkgAC1SpH-65to135-E11
 "CLoss_fPLR" = PSZ65to135_CLoss_fPLR   $ IP Tech: PkgAC1SpH-65to135-E11
 "COP" = -1   $ IP Tech: PkgAC1SpH-65to135-E11
 "HtgFuel" = Gas   $ IP Tech: PkgAC1SpH-65to135-E11
 "IEER" = 13.35   $ IP Tech: PkgAC1SpH-65to135-E11
 "NominalCap" = 15   $ IP Tech: PkgAC1SpH-65to135-E11
 "RatedEER" = 11   $ IP Tech: PkgAC1SpH-65to135-E11
 "RatedSupMtrClass" = HiEff   $ IP Tech: PkgAC1SpH-65to135-E11
 "SizeRange" = 65to135   $ IP Tech: PkgAC1SpH-65to135-E11
 "SupMotEff" = 0.84   $ IP Tech: PkgAC1SpH-65to135-E11
 "Tier" = 0   $ IP Tech: PkgAC1SpH-65to135-E11
 "FanPwrMult" = 1   $ IP Tech: PkgFurn-0.80AFUE
 "FurnAFUE" = 0.8   $ IP Tech: PkgFurn-0.80AFUE
 "FurnEt" = 0.82   $ IP Tech: PkgFurn-0.80AFUE
 "FurnaceAuxKW" = 0.1   $ IP Tech: PkgFurn-0.80AFUE
 "HIR_fPLR" = Furnace-HIR-fPLR   $ IP Tech: PkgFurn-0.80AFUE
 "VSM" = FALSE   $ IP Tech: PkgFurn-0.80AFUE
 "BFMult" = 1   $ IP Tech: RefgChg-NRes-Std
 "CoolEirMult" = 1   $ IP Tech: RefgChg-NRes-Std
 "SensCoolCapMult" = 1   $ IP Tech: RefgChg-NRes-Std
 "TotCoolCapMult" = 1   $ IP Tech: RefgChg-NRes-Std
 "AltAdjFactor" = 1.017668   $ Sizing
 "CAssFlo_L_Break_CZn" = 661.8998   $ Sizing
 "CAssFlo_L_CompDC_CZn" = 180.8515   $ Sizing
 "CAssFlo_L_Conf_CZn" = 380.3575   $ Sizing
 "CAssFlo_L_CopyRm_CZn" = 144.961   $ Sizing
 "CAssFlo_L_Hall_EZn" = 149.6333   $ Sizing
 "CAssFlo_L_Hall_NZn" = 99.69994   $ Sizing
 "CAssFlo_L_Hall_SZn" = 135.6516   $ Sizing
 "CAssFlo_L_Hall_WZn" = 162.2553   $ Sizing
 "CAssFlo_L_LobWait_EZn" = 365.0969   $ Sizing
 "CAssFlo_L_LobWait_NZn" = 270.2662   $ Sizing
 "CAssFlo_L_LobWait_SZn" = 335.3751   $ Sizing
 "CAssFlo_L_LobWait_WZn" = 424.225   $ Sizing
 "CAssFlo_L_MechElec_CZn" = 123.6119   $ Sizing
 "CAssFlo_L_OfficeOpn_CZn" = 92.1646   $ Sizing
 "CAssFlo_L_OfficeOpn_EZn" = 621.6218   $ Sizing
 "CAssFlo_L_OfficeOpn_NZn" = 486.0487   $ Sizing
 "CAssFlo_L_OfficeOpn_SZn" = 568.0971   $ Sizing
 "CAssFlo_L_OfficeOpn_WZn" = 690.5165   $ Sizing
 "CAssFlo_L_OfficeSm_EZn" = 521.174   $ Sizing
 "CAssFlo_L_OfficeSm_NZn" = 384.0127   $ Sizing
 "CAssFlo_L_OfficeSm_SZn" = 484.4712   $ Sizing
 "CAssFlo_L_OfficeSm_WZn" = 586.4421   $ Sizing
 "CAssFlo_L_Restrm_CZn" = 120.7548   $ Sizing
 "CAssFlo_L_StorSm_CZn" = 51.06425   $ Sizing
 "CAssFlo_L_StorSm_EZn" = 152.033   $ Sizing
 "CAssFlo_L_StorSm_NZn" = 105.4048   $ Sizing
 "CAssFlo_L_StorSm_SZn" = 137.9252   $ Sizing
 "CAssFlo_L_StorSm_WZn" = 161.583   $ Sizing
 "CAssFlo_T_Conf_CZn" = 366.9861   $ Sizing
 "CAssFlo_T_Hall_EZn" = 160.024   $ Sizing
 "CAssFlo_T_Hall_NZn" = 98.45959   $ Sizing
 "CAssFlo_T_Hall_SZn" = 145.2582   $ Sizing
 "CAssFlo_T_Hall_WZn" = 167.5604   $ Sizing
 "CAssFlo_T_OfficeOpn_CZn" = 89.12665   $ Sizing
 "CAssFlo_T_OfficeOpn_EZn" = 647.7778   $ Sizing
 "CAssFlo_T_OfficeOpn_NZn" = 486.5728   $ Sizing
 "CAssFlo_T_OfficeOpn_SZn" = 605.7579   $ Sizing
 "CAssFlo_T_OfficeOpn_WZn" = 709.5847   $ Sizing
 "CAssFlo_T_OfficeSm_EZn" = 545.8666   $ Sizing
 "CAssFlo_T_OfficeSm_NZn" = 385.9716   $ Sizing
 "CAssFlo_T_OfficeSm_SZn" = 513.3422   $ Sizing
 "CAssFlo_T_OfficeSm_WZn" = 602.45   $ Sizing
 "CAssFlo_T_Restrm_CZn" = 163.4992   $ Sizing
 "CAssFlo_T_StorSm_EZn" = 170.7943   $ Sizing
 "CAssFlo_T_StorSm_NZn" = 112.7877   $ Sizing
 "CAssFlo_T_StorSm_SZn" = 154.0873   $ Sizing
 "CAssFlo_T_StorSm_WZn" = 180.0556   $ Sizing
 "CHRtFlo_Sys_L_Break_C" = 661.8998   $ Sizing
 "CHRtFlo_Sys_L_CompDC_C" = 180.8515   $ Sizing
 "CHRtFlo_Sys_L_Conf_C" = 380.3575   $ Sizing
 "CHRtFlo_Sys_L_CopyRm_C" = 144.961   $ Sizing
 "CHRtFlo_Sys_L_Hall_E" = 153.3246   $ Sizing
 "CHRtFlo_Sys_L_Hall_N" = 99.69994   $ Sizing
 "CHRtFlo_Sys_L_Hall_S" = 149.7585   $ Sizing
 "CHRtFlo_Sys_L_Hall_W" = 162.2553   $ Sizing
 "CHRtFlo_Sys_L_LobWait_E" = 365.0969   $ Sizing
 "CHRtFlo_Sys_L_LobWait_N" = 270.2662   $ Sizing
 "CHRtFlo_Sys_L_LobWait_S" = 345.2585   $ Sizing
 "CHRtFlo_Sys_L_LobWait_W" = 424.225   $ Sizing
 "CHRtFlo_Sys_L_MechElec_C" = 123.6119   $ Sizing
 "CHRtFlo_Sys_L_OfficeOpn_C" = 92.1646   $ Sizing
 "CHRtFlo_Sys_L_OfficeOpn_E" = 621.6218   $ Sizing
 "CHRtFlo_Sys_L_OfficeOpn_N" = 486.0487   $ Sizing
 "CHRtFlo_Sys_L_OfficeOpn_S" = 584.7053   $ Sizing
 "CHRtFlo_Sys_L_OfficeOpn_W" = 690.5165   $ Sizing
 "CHRtFlo_Sys_L_OfficeSm_E" = 530.4431   $ Sizing
 "CHRtFlo_Sys_L_OfficeSm_N" = 384.0127   $ Sizing
 "CHRtFlo_Sys_L_OfficeSm_S" = 514.2897   $ Sizing
 "CHRtFlo_Sys_L_OfficeSm_W" = 586.4421   $ Sizing
 "CHRtFlo_Sys_L_Restrm_C" = 120.7549   $ Sizing
 "CHRtFlo_Sys_L_StorSm_C" = 51.06425   $ Sizing
 "CHRtFlo_Sys_L_StorSm_E" = 152.033   $ Sizing
 "CHRtFlo_Sys_L_StorSm_N" = 105.4048   $ Sizing
 "CHRtFlo_Sys_L_StorSm_S" = 144.9173   $ Sizing
 "CHRtFlo_Sys_L_StorSm_W" = 161.583   $ Sizing
 "CHRtFlo_Sys_T_Conf_C" = 366.9861   $ Sizing
 "CHRtFlo_Sys_T_Hall_E" = 160.024   $ Sizing
 "CHRtFlo_Sys_T_Hall_N" = 98.45959   $ Sizing
 "CHRtFlo_Sys_T_Hall_S" = 148.3956   $ Sizing
 "CHRtFlo_Sys_T_Hall_W" = 167.5604   $ Sizing
 "CHRtFlo_Sys_T_OfficeOpn_C" = 89.12665   $ Sizing
 "CHRtFlo_Sys_T_OfficeOpn_E" = 647.7778   $ Sizing
 "CHRtFlo_Sys_T_OfficeOpn_N" = 486.5728   $ Sizing
 "CHRtFlo_Sys_T_OfficeOpn_S" = 605.7579   $ Sizing
 "CHRtFlo_Sys_T_OfficeOpn_W" = 709.5847   $ Sizing
 "CHRtFlo_Sys_T_OfficeSm_E" = 545.8666   $ Sizing
 "CHRtFlo_Sys_T_OfficeSm_N" = 385.9716   $ Sizing
 "CHRtFlo_Sys_T_OfficeSm_S" = 513.3422   $ Sizing
 "CHRtFlo_Sys_T_OfficeSm_W" = 602.45   $ Sizing
 "CHRtFlo_Sys_T_Restrm_C" = 163.4992   $ Sizing
 "CHRtFlo_Sys_T_StorSm_E" = 170.7943   $ Sizing
 "CHRtFlo_Sys_T_StorSm_N" = 112.7877   $ Sizing
 "CHRtFlo_Sys_T_StorSm_S" = 154.0873   $ Sizing
 "CHRtFlo_Sys_T_StorSm_W" = 180.0556   $ Sizing
 "CRtdFlo_Sys_L_Break_C" = 661.8998   $ Sizing
 "CRtdFlo_Sys_L_CompDC_C" = 180.8515   $ Sizing
 "CRtdFlo_Sys_L_Conf_C" = 380.3575   $ Sizing
 "CRtdFlo_Sys_L_CopyRm_C" = 144.961   $ Sizing
 "CRtdFlo_Sys_L_Hall_E" = 149.6333   $ Sizing
 "CRtdFlo_Sys_L_Hall_N" = 99.69994   $ Sizing
 "CRtdFlo_Sys_L_Hall_S" = 135.6516   $ Sizing
 "CRtdFlo_Sys_L_Hall_W" = 162.2553   $ Sizing
 "CRtdFlo_Sys_L_LobWait_E" = 365.0969   $ Sizing
 "CRtdFlo_Sys_L_LobWait_N" = 270.2662   $ Sizing
 "CRtdFlo_Sys_L_LobWait_S" = 335.375   $ Sizing
 "CRtdFlo_Sys_L_LobWait_W" = 424.225   $ Sizing
 "CRtdFlo_Sys_L_MechElec_C" = 123.6119   $ Sizing
 "CRtdFlo_Sys_L_OfficeOpn_C" = 92.1646   $ Sizing
 "CRtdFlo_Sys_L_OfficeOpn_E" = 621.6218   $ Sizing
 "CRtdFlo_Sys_L_OfficeOpn_N" = 486.0487   $ Sizing
 "CRtdFlo_Sys_L_OfficeOpn_S" = 568.0971   $ Sizing
 "CRtdFlo_Sys_L_OfficeOpn_W" = 690.5165   $ Sizing
 "CRtdFlo_Sys_L_OfficeSm_E" = 521.174   $ Sizing
 "CRtdFlo_Sys_L_OfficeSm_N" = 384.0127   $ Sizing
 "CRtdFlo_Sys_L_OfficeSm_S" = 484.4712   $ Sizing
 "CRtdFlo_Sys_L_OfficeSm_W" = 586.4421   $ Sizing
 "CRtdFlo_Sys_L_Restrm_C" = 120.7549   $ Sizing
 "CRtdFlo_Sys_L_StorSm_C" = 51.06425   $ Sizing
 "CRtdFlo_Sys_L_StorSm_E" = 152.033   $ Sizing
 "CRtdFlo_Sys_L_StorSm_N" = 105.4048   $ Sizing
 "CRtdFlo_Sys_L_StorSm_S" = 137.9252   $ Sizing
 "CRtdFlo_Sys_L_StorSm_W" = 161.583   $ Sizing
 "CRtdFlo_Sys_T_Conf_C" = 366.9861   $ Sizing
 "CRtdFlo_Sys_T_Hall_E" = 160.024   $ Sizing
 "CRtdFlo_Sys_T_Hall_N" = 98.45959   $ Sizing
 "CRtdFlo_Sys_T_Hall_S" = 145.2582   $ Sizing
 "CRtdFlo_Sys_T_Hall_W" = 167.5604   $ Sizing
 "CRtdFlo_Sys_T_OfficeOpn_C" = 89.12665   $ Sizing
 "CRtdFlo_Sys_T_OfficeOpn_E" = 647.7778   $ Sizing
 "CRtdFlo_Sys_T_OfficeOpn_N" = 486.5728   $ Sizing
 "CRtdFlo_Sys_T_OfficeOpn_S" = 605.7579   $ Sizing
 "CRtdFlo_Sys_T_OfficeOpn_W" = 709.5847   $ Sizing
 "CRtdFlo_Sys_T_OfficeSm_E" = 545.8666   $ Sizing
 "CRtdFlo_Sys_T_OfficeSm_N" = 385.9716   $ Sizing
 "CRtdFlo_Sys_T_OfficeSm_S" = 513.3422   $ Sizing
 "CRtdFlo_Sys_T_OfficeSm_W" = 602.45   $ Sizing
 "CRtdFlo_Sys_T_Restrm_C" = 163.4992   $ Sizing
 "CRtdFlo_Sys_T_StorSm_E" = 170.7943   $ Sizing
 "CRtdFlo_Sys_T_StorSm_N" = 112.7877   $ Sizing
 "CRtdFlo_Sys_T_StorSm_S" = 154.0873   $ Sizing
 "CRtdFlo_Sys_T_StorSm_W" = 180.0556   $ Sizing
 "CSupFlo_Sys_L_Break_C" = 661.8998   $ Sizing
 "CSupFlo_Sys_L_CompDC_C" = 180.8515   $ Sizing
 "CSupFlo_Sys_L_Conf_C" = 380.3575   $ Sizing
 "CSupFlo_Sys_L_CopyRm_C" = 144.961   $ Sizing
 "CSupFlo_Sys_L_Hall_E" = 149.6333   $ Sizing
 "CSupFlo_Sys_L_Hall_N" = 99.69994   $ Sizing
 "CSupFlo_Sys_L_Hall_S" = 135.6516   $ Sizing
 "CSupFlo_Sys_L_Hall_W" = 162.2553   $ Sizing
 "CSupFlo_Sys_L_LobWait_E" = 365.0969   $ Sizing
 "CSupFlo_Sys_L_LobWait_N" = 270.2662   $ Sizing
 "CSupFlo_Sys_L_LobWait_S" = 335.375   $ Sizing
 "CSupFlo_Sys_L_LobWait_W" = 424.225   $ Sizing
 "CSupFlo_Sys_L_MechElec_C" = 123.6119   $ Sizing
 "CSupFlo_Sys_L_OfficeOpn_C" = 92.1646   $ Sizing
 "CSupFlo_Sys_L_OfficeOpn_E" = 621.6218   $ Sizing
 "CSupFlo_Sys_L_OfficeOpn_N" = 486.0487   $ Sizing
 "CSupFlo_Sys_L_OfficeOpn_S" = 568.0971   $ Sizing
 "CSupFlo_Sys_L_OfficeOpn_W" = 690.5165   $ Sizing
 "CSupFlo_Sys_L_OfficeSm_E" = 521.174   $ Sizing
 "CSupFlo_Sys_L_OfficeSm_N" = 384.0127   $ Sizing
 "CSupFlo_Sys_L_OfficeSm_S" = 484.4712   $ Sizing
 "CSupFlo_Sys_L_OfficeSm_W" = 586.4421   $ Sizing
 "CSupFlo_Sys_L_Restrm_C" = 120.7549   $ Sizing
 "CSupFlo_Sys_L_StorSm_C" = 51.06425   $ Sizing
 "CSupFlo_Sys_L_StorSm_E" = 152.033   $ Sizing
 "CSupFlo_Sys_L_StorSm_N" = 105.4048   $ Sizing
 "CSupFlo_Sys_L_StorSm_S" = 137.9252   $ Sizing
 "CSupFlo_Sys_L_StorSm_W" = 161.583   $ Sizing
 "CSupFlo_Sys_T_Conf_C" = 366.9861   $ Sizing
 "CSupFlo_Sys_T_Hall_E" = 160.024   $ Sizing
 "CSupFlo_Sys_T_Hall_N" = 98.45959   $ Sizing
 "CSupFlo_Sys_T_Hall_S" = 145.2582   $ Sizing
 "CSupFlo_Sys_T_Hall_W" = 167.5604   $ Sizing
 "CSupFlo_Sys_T_OfficeOpn_C" = 89.12665   $ Sizing
 "CSupFlo_Sys_T_OfficeOpn_E" = 647.7778   $ Sizing
 "CSupFlo_Sys_T_OfficeOpn_N" = 486.5728   $ Sizing
 "CSupFlo_Sys_T_OfficeOpn_S" = 605.7579   $ Sizing
 "CSupFlo_Sys_T_OfficeOpn_W" = 709.5847   $ Sizing
 "CSupFlo_Sys_T_OfficeSm_E" = 545.8666   $ Sizing
 "CSupFlo_Sys_T_OfficeSm_N" = 385.9716   $ Sizing
 "CSupFlo_Sys_T_OfficeSm_S" = 513.3422   $ Sizing
 "CSupFlo_Sys_T_OfficeSm_W" = 602.45   $ Sizing
 "CSupFlo_Sys_T_Restrm_C" = 163.4992   $ Sizing
 "CSupFlo_Sys_T_StorSm_E" = 170.7943   $ Sizing
 "CSupFlo_Sys_T_StorSm_N" = 112.7877   $ Sizing
 "CSupFlo_Sys_T_StorSm_S" = 154.0873   $ Sizing
 "CSupFlo_Sys_T_StorSm_W" = 180.0556   $ Sizing
 "ClCap_Sys_L_Break_C" = 22299.72   $ Sizing
 "ClCap_Sys_L_CompDC_C" = 6092.976   $ Sizing
 "ClCap_Sys_L_Conf_C" = 16309.27   $ Sizing
 "ClCap_Sys_L_CopyRm_C" = 4883.805   $ Sizing
 "ClCap_Sys_L_Hall_E" = 5041.218   $ Sizing
 "ClCap_Sys_L_Hall_N" = 3358.939   $ Sizing
 "ClCap_Sys_L_Hall_S" = 4570.169   $ Sizing
 "ClCap_Sys_L_Hall_W" = 5466.46   $ Sizing
 "ClCap_Sys_L_LobWait_E" = 12300.29   $ Sizing
 "ClCap_Sys_L_LobWait_N" = 9105.397   $ Sizing
 "ClCap_Sys_L_LobWait_S" = 11298.95   $ Sizing
 "ClCap_Sys_L_LobWait_W" = 14292.35   $ Sizing
 "ClCap_Sys_L_MechElec_C" = 4164.543   $ Sizing
 "ClCap_Sys_L_OfficeOpn_C" = 3105.07   $ Sizing
 "ClCap_Sys_L_OfficeOpn_E" = 20942.74   $ Sizing
 "ClCap_Sys_L_OfficeOpn_N" = 16375.22   $ Sizing
 "ClCap_Sys_L_OfficeOpn_S" = 19139.46   $ Sizing
 "ClCap_Sys_L_OfficeOpn_W" = 23263.83   $ Sizing
 "ClCap_Sys_L_OfficeSm_E" = 17558.6   $ Sizing
 "ClCap_Sys_L_OfficeSm_N" = 12937.57   $ Sizing
 "ClCap_Sys_L_OfficeSm_S" = 16322.07   $ Sizing
 "ClCap_Sys_L_OfficeSm_W" = 19757.52   $ Sizing
 "ClCap_Sys_L_Restrm_C" = 4068.289   $ Sizing
 "ClCap_Sys_L_StorSm_C" = 1720.379   $ Sizing
 "ClCap_Sys_L_StorSm_E" = 5122.064   $ Sizing
 "ClCap_Sys_L_StorSm_N" = 3551.138   $ Sizing
 "ClCap_Sys_L_StorSm_S" = 4646.765   $ Sizing
 "ClCap_Sys_L_StorSm_W" = 5443.81   $ Sizing
 "ClCap_Sys_T_Conf_C" = 15735.92   $ Sizing
 "ClCap_Sys_T_Hall_E" = 5391.287   $ Sizing
 "ClCap_Sys_T_Hall_N" = 3317.151   $ Sizing
 "ClCap_Sys_T_Hall_S" = 4893.82   $ Sizing
 "ClCap_Sys_T_Hall_W" = 5645.191   $ Sizing
 "ClCap_Sys_T_OfficeOpn_C" = 3002.72   $ Sizing
 "ClCap_Sys_T_OfficeOpn_E" = 21823.95   $ Sizing
 "ClCap_Sys_T_OfficeOpn_N" = 16392.87   $ Sizing
 "ClCap_Sys_T_OfficeOpn_S" = 20408.28   $ Sizing
 "ClCap_Sys_T_OfficeOpn_W" = 23906.25   $ Sizing
 "ClCap_Sys_T_OfficeSm_E" = 18390.51   $ Sizing
 "ClCap_Sys_T_OfficeSm_N" = 13003.57   $ Sizing
 "ClCap_Sys_T_OfficeSm_S" = 17294.75   $ Sizing
 "ClCap_Sys_T_OfficeSm_W" = 20296.83   $ Sizing
 "ClCap_Sys_T_Restrm_C" = 5508.367   $ Sizing
 "ClCap_Sys_T_StorSm_E" = 5754.141   $ Sizing
 "ClCap_Sys_T_StorSm_N" = 3799.871   $ Sizing
 "ClCap_Sys_T_StorSm_S" = 5191.275   $ Sizing
 "ClCap_Sys_T_StorSm_W" = 6066.162   $ Sizing
 "HtCap_Sys_L_Break_C" = -33029.69   $ Sizing
 "HtCap_Sys_L_CompDC_C" = -8703.575   $ Sizing
 "HtCap_Sys_L_Conf_C" = -19741.64   $ Sizing
 "HtCap_Sys_L_CopyRm_C" = -7136.993   $ Sizing
 "HtCap_Sys_L_Hall_E" = -5007.711   $ Sizing
 "HtCap_Sys_L_Hall_N" = -3389.965   $ Sizing
 "HtCap_Sys_L_Hall_S" = -4653.441   $ Sizing
 "HtCap_Sys_L_Hall_W" = -5150.901   $ Sizing
 "HtCap_Sys_L_LobWait_E" = -12383.14   $ Sizing
 "HtCap_Sys_L_LobWait_N" = -10271.12   $ Sizing
 "HtCap_Sys_L_LobWait_S" = -11829.88   $ Sizing
 "HtCap_Sys_L_LobWait_W" = -14317.67   $ Sizing
 "HtCap_Sys_L_MechElec_C" = -4466.271   $ Sizing
 "HtCap_Sys_L_OfficeOpn_C" = -3187.644   $ Sizing
 "HtCap_Sys_L_OfficeOpn_E" = -29989.46   $ Sizing
 "HtCap_Sys_L_OfficeOpn_N" = -17543.3   $ Sizing
 "HtCap_Sys_L_OfficeOpn_S" = -28140.9   $ Sizing
 "HtCap_Sys_L_OfficeOpn_W" = -22497.67   $ Sizing
 "HtCap_Sys_L_OfficeSm_E" = -16615.66   $ Sizing
 "HtCap_Sys_L_OfficeSm_N" = -13380.94   $ Sizing
 "HtCap_Sys_L_OfficeSm_S" = -16145.57   $ Sizing
 "HtCap_Sys_L_OfficeSm_W" = -18350.19   $ Sizing
 "HtCap_Sys_L_Restrm_C" = -3844.374   $ Sizing
 "HtCap_Sys_L_StorSm_C" = -1825.77   $ Sizing
 "HtCap_Sys_L_StorSm_E" = -5050.262   $ Sizing
 "HtCap_Sys_L_StorSm_N" = -3967.156   $ Sizing
 "HtCap_Sys_L_StorSm_S" = -4762.559   $ Sizing
 "HtCap_Sys_L_StorSm_W" = -5501.231   $ Sizing
 "HtCap_Sys_T_Conf_C" = -19722.9   $ Sizing
 "HtCap_Sys_T_Hall_E" = -5475.304   $ Sizing
 "HtCap_Sys_T_Hall_N" = -3698.269   $ Sizing
 "HtCap_Sys_T_Hall_S" = -5093.085   $ Sizing
 "HtCap_Sys_T_Hall_W" = -5780.825   $ Sizing
 "HtCap_Sys_T_OfficeOpn_C" = -3405.108   $ Sizing
 "HtCap_Sys_T_OfficeOpn_E" = -22051.16   $ Sizing
 "HtCap_Sys_T_OfficeOpn_N" = -18758.29   $ Sizing
 "HtCap_Sys_T_OfficeOpn_S" = -20776.36   $ Sizing
 "HtCap_Sys_T_OfficeOpn_W" = -25222.92   $ Sizing
 "HtCap_Sys_T_OfficeSm_E" = -18424.32   $ Sizing
 "HtCap_Sys_T_OfficeSm_N" = -14496.83   $ Sizing
 "HtCap_Sys_T_OfficeSm_S" = -17111.24   $ Sizing
 "HtCap_Sys_T_OfficeSm_W" = -20769.17   $ Sizing
 "HtCap_Sys_T_Restrm_C" = -5381.398   $ Sizing
 "HtCap_Sys_T_StorSm_E" = -6350.839   $ Sizing
 "HtCap_Sys_T_StorSm_N" = -4747.329   $ Sizing
 "HtCap_Sys_T_StorSm_S" = -5381.033   $ Sizing
 "HtCap_Sys_T_StorSm_W" = -6729.249   $ Sizing
..

##include Templates\OfS_DX_SZ.inp
END ..
COMPUTE ..
STOP ..
