INPUT ..

##fileprefix C:\Users\jglasskatz\MASControl3\
##set1 IsSizing FALSE
##set1 CoolType DX
##set1 HeatType FURNACE
##set1 EU_HrRepVar 0
##set1 BldgVint 1996
##set1 BldgLoc CZ11

 ##set1 mBFMult 1   $ IP Tech: RefgChg-NRes-Std

PARAMETER
 "AltFactor" = 1.01292   $ IP Non-Tech
 "BF_fFlow" = SpltAC2SpHiSEER_BF_fFlow   $ Msr (Multi)TechID: MsrNResSplitAC-45to55-S17
 "BF_fT" = SpltAC2SpHiSEER_BF_fT   $ Msr (Multi)TechID: MsrNResSplitAC-45to55-S17
 "BldgEconoFlag" = 1   $ IP Non-Tech
 "Break_EWSF" = 1   $ IP Non-Tech
 "Break_LWSF" = 1.1   $ IP Non-Tech
 "CDD_DBHi10" = 85   $ IP Non-Tech
 "CDD_DBHi7" = 106   $ IP Non-Tech
 "CDD_DBHi8" = 106   $ IP Non-Tech
 "CDD_DBHi9" = 99   $ IP Non-Tech
 "CDD_DBRange10" = 23   $ IP Non-Tech
 "CDD_DBRange7" = 30   $ IP Non-Tech
 "CDD_DBRange8" = 33   $ IP Non-Tech
 "CDD_DBRange9" = 33   $ IP Non-Tech
 "CDD_Day10" = 15   $ IP Non-Tech
 "CDD_Day7" = 16   $ IP Non-Tech
 "CDD_Day8" = 20   $ IP Non-Tech
 "CDD_Day9" = 17   $ IP Non-Tech
 "CDD_HrHi10" = 16   $ IP Non-Tech
 "CDD_HrHi7" = 16   $ IP Non-Tech
 "CDD_HrHi8" = 16   $ IP Non-Tech
 "CDD_HrHi9" = 16   $ IP Non-Tech
 "CDD_HrLo10" = 6   $ IP Non-Tech
 "CDD_HrLo7" = 7   $ IP Non-Tech
 "CDD_HrLo8" = 7   $ IP Non-Tech
 "CDD_HrLo9" = 7   $ IP Non-Tech
 "CDD_WB10" = 59.3704567   $ IP Non-Tech
 "CDD_WB7" = 72.37876129   $ IP Non-Tech
 "CDD_WB8" = 69.41531372   $ IP Non-Tech
 "CDD_WB9" = 65.60124207   $ IP Non-Tech
 "CEIR_fPLR_Hot" = SpltAC2SpHiSEER_CEIR_fPLR_Hot   $ Msr (Multi)TechID: MsrNResSplitAC-45to55-S17
 "CEIR_fPLR_Mod" = SpltAC2SpHiSEER_CEIR_fPLR_Mod   $ Msr (Multi)TechID: MsrNResSplitAC-45to55-S17
 "CEIR_fPLR_Tem" = SpltAC2SpHiSEER_CEIR_fPLR_Tem   $ Msr (Multi)TechID: MsrNResSplitAC-45to55-S17
 "CLoss_fPLR_Hot" = SpltAC2SpHiSEER_CLoss_fPLR_Hot   $ Msr (Multi)TechID: MsrNResSplitAC-45to55-S17
 "CLoss_fPLR_Mod" = SpltAC2SpHiSEER_CLoss_fPLR_Mod   $ Msr (Multi)TechID: MsrNResSplitAC-45to55-S17
 "CLoss_fPLR_Tem" = SpltAC2SpHiSEER_CLoss_fPLR_Tem   $ Msr (Multi)TechID: MsrNResSplitAC-45to55-S17
 "COP47" = 0   $ Msr (Multi)TechID: MsrNResSplitAC-45to55-S17
 "CZ_Category" = Hot   $ IP Non-Tech
 "CapRange" = Any   $ Msr (Multi)TechID: MsrNResSplitAC-45to55-S17
 "CfmPerBtuh" = 0.03   $ Msr (Multi)TechID: MsrNResSplitAC-45to55-S17
 "ChwVintEconoFlag" = 1   $ IP Non-Tech
 "ClCap_fT" = SpltAC2SpHiSEER_ClCap_fT   $ Msr (Multi)TechID: MsrNResSplitAC-45to55-S17
 "ClSH_fT" = SpltAC2SpHiSEER_ClSH_fT   $ Msr (Multi)TechID: MsrNResSplitAC-45to55-S17
 "CoilBF" = 0.102   $ Msr (Multi)TechID: MsrNResSplitAC-45to55-S17
 "CompRoomData_EWSF" = 5.25   $ IP Non-Tech
 "CompRoomData_LWSF" = 1.2   $ IP Non-Tech
 "CondWPerBtuh" = 0   $ Msr (Multi)TechID: MsrNResSplitAC-45to55-S17
 "Conference_EWSF" = 1.05   $ IP Non-Tech
 "Conference_LWSF" = 1.4   $ IP Non-Tech
 "CoolSensCap" = 0.724   $ Msr (Multi)TechID: MsrNResSplitAC-45to55-S17
 "CoolSetT" = 45   $ IP Non-Tech
 "CoolType" = DX   $ IP Non-Tech
 "CoolingEIR" = 0.2225   $ Msr (Multi)TechID: MsrNResSplitAC-45to55-S17
 "CopyRoom_EWSF" = 1.575   $ IP Non-Tech
 "CopyRoom_LWSF" = 1.3   $ IP Non-Tech
 "CrnkEIR" = 0.002225   $ Msr (Multi)TechID: MsrNResSplitAC-45to55-S17
 "CrnkMaxT" = 50   $ Msr (Multi)TechID: MsrNResSplitAC-45to55-S17
 "DXType" = SplitSEER   $ Msr (Multi)TechID: MsrNResSplitAC-45to55-S17
 "DesCoolT" = 75   $ IP Non-Tech
 "DesHeatT" = 73   $ IP Non-Tech
 "EER" = 13.26   $ Msr (Multi)TechID: MsrNResSplitAC-45to55-S17
 "EIR_fT" = SpltAC2SpHiSEER_EIR_fT   $ Msr (Multi)TechID: MsrNResSplitAC-45to55-S17
 "EconoCtrl" = FIXED   $ Msr (Multi)TechID: MsrNResSplitAC-45to55-S17
 "EconoEnthLimit" = 28   $ IP Non-Tech
 "EconoTempLimit" = 75   $ IP Non-Tech
 "Elevation" = 348   $ IP Non-Tech
 "FanEirPlr" = TwoSpeedFan   $ Msr (Multi)TechID: MsrNResSplitAC-45to55-S17
 "FanWPerCfm" = 0.271   $ Msr (Multi)TechID: MsrNResSplitAC-45to55-S17
 "HDD_CloudAmt1" = 0   $ IP Non-Tech
 "HDD_DBHi1" = 46   $ IP Non-Tech
 "HDD_DBRange1" = 14   $ IP Non-Tech
 "HDD_Day1" = 15   $ IP Non-Tech
 "HDD_HrHi1" = 16   $ IP Non-Tech
 "HDD_HrLo1" = 7   $ IP Non-Tech
 "HDD_WB1" = 39.9   $ IP Non-Tech
 "HDD_WindSpd1" = 19.6   $ IP Non-Tech
 "HIR_fT" = 0   $ Msr (Multi)TechID: MsrNResSplitAC-45to55-S17
 "HSPF" = 0   $ Msr (Multi)TechID: MsrNResSplitAC-45to55-S17
 "Hall_EWSF" = 0.21   $ IP Non-Tech
 "Hall_LWSF" = 0.6   $ IP Non-Tech
 "HeatSrc" = FURNACE   $ IP Non-Tech
 "HeatSrcTU" = HEAT-PUMP   $ IP Non-Tech
 "HeatType" = GasFurn   $ IP Non-Tech
 "HeatTypeTU" = HEAT-PUMP   $ IP Non-Tech
 "HtCap_fT" = 0   $ Msr (Multi)TechID: MsrNResSplitAC-45to55-S17
 "HtCoolCapRatio" = 0   $ Msr (Multi)TechID: MsrNResSplitAC-45to55-S17
 "HtgEIR" = 0   $ Msr (Multi)TechID: MsrNResSplitAC-45to55-S17
 "IndoorFanMode" = CONTINUOUS   $ IP Non-Tech
 "KT_TransferAir" = No   $ IP Non-Tech
 "Latitude" = 40.2   $ IP Non-Tech
 "LobbyWaiting_EWSF" = 0.5125   $ IP Non-Tech
 "LobbyWaiting_LWSF" = 1.3   $ IP Non-Tech
 "Longitude" = 122.3   $ IP Non-Tech
 "LowSpdCapRatio" = 0.686   $ Msr (Multi)TechID: MsrNResSplitAC-45to55-S17
 "LowSpdCfmRatio" = 0.739   $ Msr (Multi)TechID: MsrNResSplitAC-45to55-S17
 "MZFanMechEff" = 0.58   $ IP Non-Tech
 "MZHasRetFan" = FALSE   $ IP Non-Tech
 "MZ_RFanWPerCfm" = 0.33   $ IP Non-Tech
 "MZ_SFanWPerCfm" = 0.75   $ IP Non-Tech
 "MZ_SupFanStatic" = 2.25   $ IP Non-Tech
 "MaxOAFrac" = 1   $ Msr (Multi)TechID: MsrNResSplitAC-45to55-S17
 "MaxSupT_MZ" = 100   $ IP Non-Tech
 "MaxSupT_SZ" = 100   $ IP Non-Tech
 "MaxSupT_TU" = 90   $ IP Non-Tech
 "MechElecRoom_EWSF" = 0.21   $ IP Non-Tech
 "MechElecRoom_LWSF" = 0.7   $ IP Non-Tech
 "MinCfmPerSF" = 0.4   $ IP Non-Tech
 "MinSupT" = 55   $ IP Non-Tech
 "NumStages" = 2   $ Msr (Multi)TechID: MsrNResSplitAC-45to55-S17
 "OccCoolT" = 76   $ IP Non-Tech
 "OccHeatT" = 72   $ IP Non-Tech
 "OfficeOpen_EWSF" = 1.575   $ IP Non-Tech
 "OfficeOpen_LWSF" = 1.2   $ IP Non-Tech
 "OfficeSmall_EWSF" = 1.575   $ IP Non-Tech
 "OfficeSmall_LWSF" = 1.3   $ IP Non-Tech
 "PkgDxVintEconoFlag" = 0   $ IP Non-Tech
 "Restroom_EWSF" = 0.21   $ IP Non-Tech
 "Restroom_LWSF" = 0.6   $ IP Non-Tech
 "SEER" = 17   $ Msr (Multi)TechID: MsrNResSplitAC-45to55-S17
 "SZFanMechEff" = 0.58   $ IP Non-Tech
 "SZHasRetFan" = FALSE   $ IP Non-Tech
 "SZ_Is_2Spd" = FALSE   $ IP Non-Tech
 "SZ_SFanWPerCfm" = 0.46   $ IP Non-Tech
 "SZ_SupFanStatic" = 0.75   $ IP Non-Tech
 "Sector" = Any   $ Msr (Multi)TechID: MsrNResSplitAC-45to55-S17
 "StorageSmlCond_EWSF" = 0.21   $ IP Non-Tech
 "StorageSmlCond_LWSF" = 0.6   $ IP Non-Tech
 "SubType" = AC   $ Msr (Multi)TechID: MsrNResSplitAC-45to55-S17
 "T24GlzTbl" = CZTbl   $ IP Non-Tech
 "TermUnitFanMechEff" = 1   $ IP Non-Tech
 "TermUnitFanMode" = INTERMITTENT   $ IP Non-Tech
 "TotCoolCap" = 58805   $ Msr (Multi)TechID: MsrNResSplitAC-45to55-S17
 "TwrSetpt" = 85.8   $ IP Non-Tech
 "UnocCoolT" = 86   $ IP Non-Tech
 "UnocHeatT" = 62   $ IP Non-Tech
 "UseEconoVintApplic" = FALSE   $ Msr (Multi)TechID: MsrNResSplitAC-45to55-S17
 "WlhpVintEconoFlag" = 0   $ IP Non-Tech
 "DuctDT" = 1   $ IP Tech: ComDuctInsul-1
 "DuctAirLoss" = 0   $ IP Tech: ComDuctLeak-0
 "DuctLossOAFrac" = 0   $ IP Tech: ComDuctLeak-0
 "ComRoofInsCalc" = FromUo   $ IP Tech: ComRoofIns-WFrm-0.06
 "ComRoofInsR" = -999   $ IP Tech: ComRoofIns-WFrm-0.06
 "ComRoofUo" = 0.06   $ IP Tech: ComRoofIns-WFrm-0.06
 "ComEWInsCalc" = FromUo   $ IP Tech: ComWallIns-WFrm-0.08
 "ComEWInsR" = -999   $ IP Tech: ComWallIns-WFrm-0.08
 "ComEWUo" = 0.08   $ IP Tech: ComWallIns-WFrm-0.08
 "ComN_SHGC" = 0.77   $ IP Tech: NResWin-ComN-0.77-0.77
 "ComN_UFactor" = 0.77   $ IP Tech: NResWin-ComN-0.77-0.77
 "ComN_VisTrans" = 0.81   $ IP Tech: NResWin-ComN-0.77-0.77
 "ComN_WinCode" = G2000   $ IP Tech: NResWin-ComN-0.77-0.77
 "ComN_WinFrmFrac" = 0.17   $ IP Tech: NResWin-ComN-0.77-0.77
 "ComN_WinFrmU" = 1   $ IP Tech: NResWin-ComN-0.77-0.77
 "ComO_SHGC" = 0.5   $ IP Tech: NResWin-ComO-0.77-0.5
 "ComO_UFactor" = 0.77   $ IP Tech: NResWin-ComO-0.77-0.5
 "ComO_VisTrans" = 0.77   $ IP Tech: NResWin-ComO-0.77-0.5
 "ComO_WinCode" = G2630   $ IP Tech: NResWin-ComO-0.77-0.5
 "ComO_WinFrmFrac" = 0.17   $ IP Tech: NResWin-ComO-0.77-0.5
 "ComO_WinFrmU" = 1   $ IP Tech: NResWin-ComO-0.77-0.5
 "LtgMsrApplic" = ALL   $ IP Tech: NonResLtgRefPre
 "LtgSav_CFL" = 0   $ IP Tech: NonResLtgRefPre
 "LtgSav_EX" = 0   $ IP Tech: NonResLtgRefPre
 "LtgSav_HB" = 0   $ IP Tech: NonResLtgRefPre
 "LtgSav_LF" = 0   $ IP Tech: NonResLtgRefPre
 "LtgSav_SP" = 0   $ IP Tech: NonResLtgRefPre
 "CEIR_fPLR" = PSZ65to135_CEIR_fPLR   $ IP Tech: PkgAC1SpH-65to135-E10
 "CLoss_fPLR" = PSZ65to135_CLoss_fPLR   $ IP Tech: PkgAC1SpH-65to135-E10
 "COP" = -1   $ IP Tech: PkgAC1SpH-65to135-E10
 "HtgFuel" = Gas   $ IP Tech: PkgAC1SpH-65to135-E10
 "IEER" = 11.87   $ IP Tech: PkgAC1SpH-65to135-E10
 "NominalCap" = 15   $ IP Tech: PkgAC1SpH-65to135-E10
 "RatedEER" = 10   $ IP Tech: PkgAC1SpH-65to135-E10
 "RatedSupMtrClass" = HiEff   $ IP Tech: PkgAC1SpH-65to135-E10
 "SizeRange" = 65to135   $ IP Tech: PkgAC1SpH-65to135-E10
 "SupMotEff" = 0.84   $ IP Tech: PkgAC1SpH-65to135-E10
 "Tier" = 0   $ IP Tech: PkgAC1SpH-65to135-E10
 "FanPwrMult" = 1   $ IP Tech: PkgFurn-0.80AFUE
 "FurnAFUE" = 0.8   $ IP Tech: PkgFurn-0.80AFUE
 "FurnEt" = 0.82   $ IP Tech: PkgFurn-0.80AFUE
 "FurnaceAuxKW" = 0.1   $ IP Tech: PkgFurn-0.80AFUE
 "HIR_fPLR" = Furnace-HIR-fPLR   $ IP Tech: PkgFurn-0.80AFUE
 "VSM" = FALSE   $ IP Tech: PkgFurn-0.80AFUE
 "BFMult" = 1   $ IP Tech: RefgChg-NRes-Std
 "CoolEirMult" = 1   $ IP Tech: RefgChg-NRes-Std
 "SensCoolCapMult" = 1   $ IP Tech: RefgChg-NRes-Std
 "TotCoolCapMult" = 1   $ IP Tech: RefgChg-NRes-Std
 "AltAdjFactor" = 1.012923   $ Sizing
 "CAssFlo_L_Break_CZn" = 512.7753   $ Sizing
 "CAssFlo_L_CompDC_CZn" = 164.0254   $ Sizing
 "CAssFlo_L_Conf_CZn" = 296.0176   $ Sizing
 "CAssFlo_L_CopyRm_CZn" = 109.8168   $ Sizing
 "CAssFlo_L_Hall_EZn" = 152.4093   $ Sizing
 "CAssFlo_L_Hall_NZn" = 94.74854   $ Sizing
 "CAssFlo_L_Hall_SZn" = 150.393   $ Sizing
 "CAssFlo_L_Hall_WZn" = 171.2231   $ Sizing
 "CAssFlo_L_LobWait_EZn" = 360.7649   $ Sizing
 "CAssFlo_L_LobWait_NZn" = 245.095   $ Sizing
 "CAssFlo_L_LobWait_SZn" = 360.1287   $ Sizing
 "CAssFlo_L_LobWait_WZn" = 421.3317   $ Sizing
 "CAssFlo_L_MechElec_CZn" = 93.46191   $ Sizing
 "CAssFlo_L_OfficeOpn_CZn" = 74.37372   $ Sizing
 "CAssFlo_L_OfficeOpn_EZn" = 627.1792   $ Sizing
 "CAssFlo_L_OfficeOpn_NZn" = 459.8224   $ Sizing
 "CAssFlo_L_OfficeOpn_SZn" = 607.39   $ Sizing
 "CAssFlo_L_OfficeOpn_WZn" = 699.661   $ Sizing
 "CAssFlo_L_OfficeSm_EZn" = 536.8777   $ Sizing
 "CAssFlo_L_OfficeSm_NZn" = 367.538   $ Sizing
 "CAssFlo_L_OfficeSm_SZn" = 533.5798   $ Sizing
 "CAssFlo_L_OfficeSm_WZn" = 601.647   $ Sizing
 "CAssFlo_L_Restrm_CZn" = 96.85686   $ Sizing
 "CAssFlo_L_StorSm_CZn" = 39.85453   $ Sizing
 "CAssFlo_L_StorSm_EZn" = 149.4878   $ Sizing
 "CAssFlo_L_StorSm_NZn" = 97.26802   $ Sizing
 "CAssFlo_L_StorSm_SZn" = 147.6396   $ Sizing
 "CAssFlo_L_StorSm_WZn" = 165.9164   $ Sizing
 "CAssFlo_T_Conf_CZn" = 283.9434   $ Sizing
 "CAssFlo_T_Hall_EZn" = 172.9728   $ Sizing
 "CAssFlo_T_Hall_NZn" = 104.0409   $ Sizing
 "CAssFlo_T_Hall_SZn" = 170.1143   $ Sizing
 "CAssFlo_T_Hall_WZn" = 190.4157   $ Sizing
 "CAssFlo_T_OfficeOpn_CZn" = 67.80476   $ Sizing
 "CAssFlo_T_OfficeOpn_EZn" = 681.1271   $ Sizing
 "CAssFlo_T_OfficeOpn_NZn" = 488.6274   $ Sizing
 "CAssFlo_T_OfficeOpn_SZn" = 663.8073   $ Sizing
 "CAssFlo_T_OfficeOpn_WZn" = 732.9153   $ Sizing
 "CAssFlo_T_OfficeSm_EZn" = 586.0478   $ Sizing
 "CAssFlo_T_OfficeSm_NZn" = 394.1856   $ Sizing
 "CAssFlo_T_OfficeSm_SZn" = 580.3066   $ Sizing
 "CAssFlo_T_OfficeSm_WZn" = 645.1489   $ Sizing
 "CAssFlo_T_Restrm_CZn" = 135.1193   $ Sizing
 "CAssFlo_T_StorSm_EZn" = 177.0094   $ Sizing
 "CAssFlo_T_StorSm_NZn" = 114.2156   $ Sizing
 "CAssFlo_T_StorSm_SZn" = 173.9198   $ Sizing
 "CAssFlo_T_StorSm_WZn" = 198.4426   $ Sizing
 "CHRtFlo_Sys_L_Break_C" = 512.7753   $ Sizing
 "CHRtFlo_Sys_L_CompDC_C" = 184.3926   $ Sizing
 "CHRtFlo_Sys_L_Conf_C" = 296.0176   $ Sizing
 "CHRtFlo_Sys_L_CopyRm_C" = 109.8168   $ Sizing
 "CHRtFlo_Sys_L_Hall_E" = 180.5688   $ Sizing
 "CHRtFlo_Sys_L_Hall_N" = 94.74853   $ Sizing
 "CHRtFlo_Sys_L_Hall_S" = 187.6585   $ Sizing
 "CHRtFlo_Sys_L_Hall_W" = 185.2242   $ Sizing
 "CHRtFlo_Sys_L_LobWait_E" = 415.0395   $ Sizing
 "CHRtFlo_Sys_L_LobWait_N" = 245.095   $ Sizing
 "CHRtFlo_Sys_L_LobWait_S" = 432.8596   $ Sizing
 "CHRtFlo_Sys_L_LobWait_W" = 428.9861   $ Sizing
 "CHRtFlo_Sys_L_MechElec_C" = 120.0538   $ Sizing
 "CHRtFlo_Sys_L_OfficeOpn_C" = 89.93561   $ Sizing
 "CHRtFlo_Sys_L_OfficeOpn_E" = 737.5238   $ Sizing
 "CHRtFlo_Sys_L_OfficeOpn_N" = 459.8224   $ Sizing
 "CHRtFlo_Sys_L_OfficeOpn_S" = 732.9725   $ Sizing
 "CHRtFlo_Sys_L_OfficeOpn_W" = 718.5078   $ Sizing
 "CHRtFlo_Sys_L_OfficeSm_E" = 642.5336   $ Sizing
 "CHRtFlo_Sys_L_OfficeSm_N" = 367.538   $ Sizing
 "CHRtFlo_Sys_L_OfficeSm_S" = 653.4585   $ Sizing
 "CHRtFlo_Sys_L_OfficeSm_W" = 639.4129   $ Sizing
 "CHRtFlo_Sys_L_Restrm_C" = 112.4734   $ Sizing
 "CHRtFlo_Sys_L_StorSm_C" = 47.12904   $ Sizing
 "CHRtFlo_Sys_L_StorSm_E" = 176.161   $ Sizing
 "CHRtFlo_Sys_L_StorSm_N" = 97.26802   $ Sizing
 "CHRtFlo_Sys_L_StorSm_S" = 179.3215   $ Sizing
 "CHRtFlo_Sys_L_StorSm_W" = 171.2211   $ Sizing
 "CHRtFlo_Sys_T_Conf_C" = 283.9434   $ Sizing
 "CHRtFlo_Sys_T_Hall_E" = 188.6574   $ Sizing
 "CHRtFlo_Sys_T_Hall_N" = 104.0409   $ Sizing
 "CHRtFlo_Sys_T_Hall_S" = 201.5643   $ Sizing
 "CHRtFlo_Sys_T_Hall_W" = 190.4157   $ Sizing
 "CHRtFlo_Sys_T_OfficeOpn_C" = 76.12383   $ Sizing
 "CHRtFlo_Sys_T_OfficeOpn_E" = 721.2467   $ Sizing
 "CHRtFlo_Sys_T_OfficeOpn_N" = 488.6274   $ Sizing
 "CHRtFlo_Sys_T_OfficeOpn_S" = 753.0346   $ Sizing
 "CHRtFlo_Sys_T_OfficeOpn_W" = 732.9152   $ Sizing
 "CHRtFlo_Sys_T_OfficeSm_E" = 635.8671   $ Sizing
 "CHRtFlo_Sys_T_OfficeSm_N" = 394.1857   $ Sizing
 "CHRtFlo_Sys_T_OfficeSm_S" = 677.2503   $ Sizing
 "CHRtFlo_Sys_T_OfficeSm_W" = 645.1489   $ Sizing
 "CHRtFlo_Sys_T_Restrm_C" = 150.1449   $ Sizing
 "CHRtFlo_Sys_T_StorSm_E" = 185.3636   $ Sizing
 "CHRtFlo_Sys_T_StorSm_N" = 114.2156   $ Sizing
 "CHRtFlo_Sys_T_StorSm_S" = 195.2441   $ Sizing
 "CHRtFlo_Sys_T_StorSm_W" = 198.4426   $ Sizing
 "CRtdFlo_Sys_L_Break_C" = 512.7753   $ Sizing
 "CRtdFlo_Sys_L_CompDC_C" = 164.0254   $ Sizing
 "CRtdFlo_Sys_L_Conf_C" = 296.0176   $ Sizing
 "CRtdFlo_Sys_L_CopyRm_C" = 109.8168   $ Sizing
 "CRtdFlo_Sys_L_Hall_E" = 152.4093   $ Sizing
 "CRtdFlo_Sys_L_Hall_N" = 94.74853   $ Sizing
 "CRtdFlo_Sys_L_Hall_S" = 150.393   $ Sizing
 "CRtdFlo_Sys_L_Hall_W" = 171.2231   $ Sizing
 "CRtdFlo_Sys_L_LobWait_E" = 360.7649   $ Sizing
 "CRtdFlo_Sys_L_LobWait_N" = 245.095   $ Sizing
 "CRtdFlo_Sys_L_LobWait_S" = 360.1287   $ Sizing
 "CRtdFlo_Sys_L_LobWait_W" = 421.3317   $ Sizing
 "CRtdFlo_Sys_L_MechElec_C" = 93.46191   $ Sizing
 "CRtdFlo_Sys_L_OfficeOpn_C" = 74.37372   $ Sizing
 "CRtdFlo_Sys_L_OfficeOpn_E" = 627.1792   $ Sizing
 "CRtdFlo_Sys_L_OfficeOpn_N" = 459.8224   $ Sizing
 "CRtdFlo_Sys_L_OfficeOpn_S" = 607.39   $ Sizing
 "CRtdFlo_Sys_L_OfficeOpn_W" = 699.661   $ Sizing
 "CRtdFlo_Sys_L_OfficeSm_E" = 536.8777   $ Sizing
 "CRtdFlo_Sys_L_OfficeSm_N" = 367.538   $ Sizing
 "CRtdFlo_Sys_L_OfficeSm_S" = 533.5798   $ Sizing
 "CRtdFlo_Sys_L_OfficeSm_W" = 601.647   $ Sizing
 "CRtdFlo_Sys_L_Restrm_C" = 96.85686   $ Sizing
 "CRtdFlo_Sys_L_StorSm_C" = 39.85453   $ Sizing
 "CRtdFlo_Sys_L_StorSm_E" = 149.4878   $ Sizing
 "CRtdFlo_Sys_L_StorSm_N" = 97.26802   $ Sizing
 "CRtdFlo_Sys_L_StorSm_S" = 147.6396   $ Sizing
 "CRtdFlo_Sys_L_StorSm_W" = 165.9164   $ Sizing
 "CRtdFlo_Sys_T_Conf_C" = 283.9434   $ Sizing
 "CRtdFlo_Sys_T_Hall_E" = 172.9728   $ Sizing
 "CRtdFlo_Sys_T_Hall_N" = 104.0409   $ Sizing
 "CRtdFlo_Sys_T_Hall_S" = 170.1143   $ Sizing
 "CRtdFlo_Sys_T_Hall_W" = 190.4157   $ Sizing
 "CRtdFlo_Sys_T_OfficeOpn_C" = 67.80476   $ Sizing
 "CRtdFlo_Sys_T_OfficeOpn_E" = 681.127   $ Sizing
 "CRtdFlo_Sys_T_OfficeOpn_N" = 488.6274   $ Sizing
 "CRtdFlo_Sys_T_OfficeOpn_S" = 663.8072   $ Sizing
 "CRtdFlo_Sys_T_OfficeOpn_W" = 732.9152   $ Sizing
 "CRtdFlo_Sys_T_OfficeSm_E" = 586.0478   $ Sizing
 "CRtdFlo_Sys_T_OfficeSm_N" = 394.1857   $ Sizing
 "CRtdFlo_Sys_T_OfficeSm_S" = 580.3066   $ Sizing
 "CRtdFlo_Sys_T_OfficeSm_W" = 645.1489   $ Sizing
 "CRtdFlo_Sys_T_Restrm_C" = 135.1193   $ Sizing
 "CRtdFlo_Sys_T_StorSm_E" = 177.0094   $ Sizing
 "CRtdFlo_Sys_T_StorSm_N" = 114.2156   $ Sizing
 "CRtdFlo_Sys_T_StorSm_S" = 173.9198   $ Sizing
 "CRtdFlo_Sys_T_StorSm_W" = 198.4426   $ Sizing
 "CSupFlo_Sys_L_Break_C" = 512.7753   $ Sizing
 "CSupFlo_Sys_L_CompDC_C" = 164.0254   $ Sizing
 "CSupFlo_Sys_L_Conf_C" = 296.0176   $ Sizing
 "CSupFlo_Sys_L_CopyRm_C" = 109.8168   $ Sizing
 "CSupFlo_Sys_L_Hall_E" = 152.4093   $ Sizing
 "CSupFlo_Sys_L_Hall_N" = 94.74853   $ Sizing
 "CSupFlo_Sys_L_Hall_S" = 150.393   $ Sizing
 "CSupFlo_Sys_L_Hall_W" = 171.2231   $ Sizing
 "CSupFlo_Sys_L_LobWait_E" = 360.7649   $ Sizing
 "CSupFlo_Sys_L_LobWait_N" = 245.095   $ Sizing
 "CSupFlo_Sys_L_LobWait_S" = 360.1287   $ Sizing
 "CSupFlo_Sys_L_LobWait_W" = 421.3317   $ Sizing
 "CSupFlo_Sys_L_MechElec_C" = 93.46191   $ Sizing
 "CSupFlo_Sys_L_OfficeOpn_C" = 74.37372   $ Sizing
 "CSupFlo_Sys_L_OfficeOpn_E" = 627.1792   $ Sizing
 "CSupFlo_Sys_L_OfficeOpn_N" = 459.8224   $ Sizing
 "CSupFlo_Sys_L_OfficeOpn_S" = 607.39   $ Sizing
 "CSupFlo_Sys_L_OfficeOpn_W" = 699.661   $ Sizing
 "CSupFlo_Sys_L_OfficeSm_E" = 536.8777   $ Sizing
 "CSupFlo_Sys_L_OfficeSm_N" = 367.538   $ Sizing
 "CSupFlo_Sys_L_OfficeSm_S" = 533.5798   $ Sizing
 "CSupFlo_Sys_L_OfficeSm_W" = 601.647   $ Sizing
 "CSupFlo_Sys_L_Restrm_C" = 96.85686   $ Sizing
 "CSupFlo_Sys_L_StorSm_C" = 39.85453   $ Sizing
 "CSupFlo_Sys_L_StorSm_E" = 149.4878   $ Sizing
 "CSupFlo_Sys_L_StorSm_N" = 97.26802   $ Sizing
 "CSupFlo_Sys_L_StorSm_S" = 147.6396   $ Sizing
 "CSupFlo_Sys_L_StorSm_W" = 165.9164   $ Sizing
 "CSupFlo_Sys_T_Conf_C" = 283.9434   $ Sizing
 "CSupFlo_Sys_T_Hall_E" = 172.9728   $ Sizing
 "CSupFlo_Sys_T_Hall_N" = 104.0409   $ Sizing
 "CSupFlo_Sys_T_Hall_S" = 170.1143   $ Sizing
 "CSupFlo_Sys_T_Hall_W" = 190.4157   $ Sizing
 "CSupFlo_Sys_T_OfficeOpn_C" = 67.80476   $ Sizing
 "CSupFlo_Sys_T_OfficeOpn_E" = 681.127   $ Sizing
 "CSupFlo_Sys_T_OfficeOpn_N" = 488.6274   $ Sizing
 "CSupFlo_Sys_T_OfficeOpn_S" = 663.8072   $ Sizing
 "CSupFlo_Sys_T_OfficeOpn_W" = 732.9152   $ Sizing
 "CSupFlo_Sys_T_OfficeSm_E" = 586.0478   $ Sizing
 "CSupFlo_Sys_T_OfficeSm_N" = 394.1857   $ Sizing
 "CSupFlo_Sys_T_OfficeSm_S" = 580.3066   $ Sizing
 "CSupFlo_Sys_T_OfficeSm_W" = 645.1489   $ Sizing
 "CSupFlo_Sys_T_Restrm_C" = 135.1193   $ Sizing
 "CSupFlo_Sys_T_StorSm_E" = 177.0094   $ Sizing
 "CSupFlo_Sys_T_StorSm_N" = 114.2156   $ Sizing
 "CSupFlo_Sys_T_StorSm_S" = 173.9198   $ Sizing
 "CSupFlo_Sys_T_StorSm_W" = 198.4426   $ Sizing
 "ClCap_Sys_L_Break_C" = 17356.57   $ Sizing
 "ClCap_Sys_L_CompDC_C" = 5551.981   $ Sizing
 "ClCap_Sys_L_Conf_C" = 12752.34   $ Sizing
 "ClCap_Sys_L_CopyRm_C" = 3717.113   $ Sizing
 "ClCap_Sys_L_Hall_E" = 5158.798   $ Sizing
 "ClCap_Sys_L_Hall_N" = 3207.077   $ Sizing
 "ClCap_Sys_L_Hall_S" = 5090.548   $ Sizing
 "ClCap_Sys_L_Hall_W" = 5795.613   $ Sizing
 "ClCap_Sys_L_LobWait_E" = 12211.28   $ Sizing
 "ClCap_Sys_L_LobWait_N" = 8296.052   $ Sizing
 "ClCap_Sys_L_LobWait_S" = 12189.75   $ Sizing
 "ClCap_Sys_L_LobWait_W" = 14261.36   $ Sizing
 "ClCap_Sys_L_MechElec_C" = 3163.528   $ Sizing
 "ClCap_Sys_L_OfficeOpn_C" = 2517.425   $ Sizing
 "ClCap_Sys_L_OfficeOpn_E" = 21228.96   $ Sizing
 "ClCap_Sys_L_OfficeOpn_N" = 15564.21   $ Sizing
 "ClCap_Sys_L_OfficeOpn_S" = 20559.12   $ Sizing
 "ClCap_Sys_L_OfficeOpn_W" = 23682.34   $ Sizing
 "ClCap_Sys_L_OfficeSm_E" = 18172.4   $ Sizing
 "ClCap_Sys_L_OfficeSm_N" = 12440.54   $ Sizing
 "ClCap_Sys_L_OfficeSm_S" = 18060.77   $ Sizing
 "ClCap_Sys_L_OfficeSm_W" = 20364.73   $ Sizing
 "ClCap_Sys_L_Restrm_C" = 3278.441   $ Sizing
 "ClCap_Sys_L_StorSm_C" = 1349.008   $ Sizing
 "ClCap_Sys_L_StorSm_E" = 5059.91   $ Sizing
 "ClCap_Sys_L_StorSm_N" = 3292.358   $ Sizing
 "ClCap_Sys_L_StorSm_S" = 4997.35   $ Sizing
 "ClCap_Sys_L_StorSm_W" = 5615.989   $ Sizing
 "ClCap_Sys_T_Conf_C" = 12232.19   $ Sizing
 "ClCap_Sys_T_Hall_E" = 5854.835   $ Sizing
 "ClCap_Sys_T_Hall_N" = 3521.608   $ Sizing
 "ClCap_Sys_T_Hall_S" = 5758.081   $ Sizing
 "ClCap_Sys_T_Hall_W" = 6445.249   $ Sizing
 "ClCap_Sys_T_OfficeOpn_C" = 2295.076   $ Sizing
 "ClCap_Sys_T_OfficeOpn_E" = 23055   $ Sizing
 "ClCap_Sys_T_OfficeOpn_N" = 16539.21   $ Sizing
 "ClCap_Sys_T_OfficeOpn_S" = 22468.75   $ Sizing
 "ClCap_Sys_T_OfficeOpn_W" = 24807.94   $ Sizing
 "ClCap_Sys_T_OfficeSm_E" = 19836.73   $ Sizing
 "ClCap_Sys_T_OfficeSm_N" = 13342.52   $ Sizing
 "ClCap_Sys_T_OfficeSm_S" = 19642.4   $ Sizing
 "ClCap_Sys_T_OfficeSm_W" = 21837.2   $ Sizing
 "ClCap_Sys_T_Restrm_C" = 4573.56   $ Sizing
 "ClCap_Sys_T_StorSm_E" = 5991.469   $ Sizing
 "ClCap_Sys_T_StorSm_N" = 3866.004   $ Sizing
 "ClCap_Sys_T_StorSm_S" = 5886.892   $ Sizing
 "ClCap_Sys_T_StorSm_W" = 6716.948   $ Sizing
 "HtCap_Sys_L_Break_C" = -28213.75   $ Sizing
 "HtCap_Sys_L_CompDC_C" = -6515.542   $ Sizing
 "HtCap_Sys_L_Conf_C" = -16899.56   $ Sizing
 "HtCap_Sys_L_CopyRm_C" = -5926.463   $ Sizing
 "HtCap_Sys_L_Hall_E" = -6153.23   $ Sizing
 "HtCap_Sys_L_Hall_N" = -3416.927   $ Sizing
 "HtCap_Sys_L_Hall_S" = -6196.589   $ Sizing
 "HtCap_Sys_L_Hall_W" = -6169.308   $ Sizing
 "HtCap_Sys_L_LobWait_E" = -14568.38   $ Sizing
 "HtCap_Sys_L_LobWait_N" = -9888.83   $ Sizing
 "HtCap_Sys_L_LobWait_S" = -15042.43   $ Sizing
 "HtCap_Sys_L_LobWait_W" = -15049.57   $ Sizing
 "HtCap_Sys_L_MechElec_C" = -4547.538   $ Sizing
 "HtCap_Sys_L_OfficeOpn_C" = -3336.97   $ Sizing
 "HtCap_Sys_L_OfficeOpn_E" = -25194.19   $ Sizing
 "HtCap_Sys_L_OfficeOpn_N" = -17641.04   $ Sizing
 "HtCap_Sys_L_OfficeOpn_S" = -24323.25   $ Sizing
 "HtCap_Sys_L_OfficeOpn_W" = -24794.57   $ Sizing
 "HtCap_Sys_L_OfficeSm_E" = -21870.94   $ Sizing
 "HtCap_Sys_L_OfficeSm_N" = -13662.77   $ Sizing
 "HtCap_Sys_L_OfficeSm_S" = -21129.89   $ Sizing
 "HtCap_Sys_L_OfficeSm_W" = -21407.08   $ Sizing
 "HtCap_Sys_L_Restrm_C" = -3839.138   $ Sizing
 "HtCap_Sys_L_StorSm_C" = -1829.408   $ Sizing
 "HtCap_Sys_L_StorSm_E" = -6168.521   $ Sizing
 "HtCap_Sys_L_StorSm_N" = -3903.099   $ Sizing
 "HtCap_Sys_L_StorSm_S" = -6184.925   $ Sizing
 "HtCap_Sys_L_StorSm_W" = -6038.383   $ Sizing
 "HtCap_Sys_T_Conf_C" = -16864.82   $ Sizing
 "HtCap_Sys_T_Hall_E" = -6989.284   $ Sizing
 "HtCap_Sys_T_Hall_N" = -4295.676   $ Sizing
 "HtCap_Sys_T_Hall_S" = -7407.708   $ Sizing
 "HtCap_Sys_T_Hall_W" = -7056.487   $ Sizing
 "HtCap_Sys_T_OfficeOpn_C" = -3226.051   $ Sizing
 "HtCap_Sys_T_OfficeOpn_E" = -27665.47   $ Sizing
 "HtCap_Sys_T_OfficeOpn_N" = -20661.81   $ Sizing
 "HtCap_Sys_T_OfficeOpn_S" = -28292.69   $ Sizing
 "HtCap_Sys_T_OfficeOpn_W" = -28248.81   $ Sizing
 "HtCap_Sys_T_OfficeSm_E" = -23679.49   $ Sizing
 "HtCap_Sys_T_OfficeSm_N" = -16258.44   $ Sizing
 "HtCap_Sys_T_OfficeSm_S" = -24643.6   $ Sizing
 "HtCap_Sys_T_OfficeSm_W" = -24032.24   $ Sizing
 "HtCap_Sys_T_Restrm_C" = -5714.857   $ Sizing
 "HtCap_Sys_T_StorSm_E" = -7333.741   $ Sizing
 "HtCap_Sys_T_StorSm_N" = -5241.618   $ Sizing
 "HtCap_Sys_T_StorSm_S" = -7567.52   $ Sizing
 "HtCap_Sys_T_StorSm_W" = -7849.436   $ Sizing
..

##include Templates\OfS_DX_SZ.inp
END ..
COMPUTE ..
STOP ..
