INPUT ..

##fileprefix C:\Users\jglasskatz\MASControl3\
##set1 IsSizing FALSE
##set1 CoolType DX
##set1 HeatType FURNACE
##set1 EU_HrRepVar 0
##set1 BldgVint 1975
##set1 BldgLoc CZ10

 ##set1 mBFMult 1   $ IP Tech: RefgChg-NRes-Std

PARAMETER
 "AltFactor" = 1.03143   $ IP Non-Tech
 "BF_fFlow" = SpltAC1Sp_BF_fFlow   $ Msr (Var)TechID: PreNResSplitAC-45to-PENo
 "BF_fT" = SpltAC1Sp_BF_fT   $ Msr (Var)TechID: PreNResSplitAC-45to-PENo
 "BldgEconoFlag" = 1   $ IP Non-Tech
 "Break_EWSF" = 1   $ IP Non-Tech
 "Break_LWSF" = 1.1   $ IP Non-Tech
 "CDD_DBHi10" = 92   $ IP Non-Tech
 "CDD_DBHi7" = 97   $ IP Non-Tech
 "CDD_DBHi8" = 99   $ IP Non-Tech
 "CDD_DBHi9" = 102   $ IP Non-Tech
 "CDD_DBRange10" = 19   $ IP Non-Tech
 "CDD_DBRange7" = 31   $ IP Non-Tech
 "CDD_DBRange8" = 31   $ IP Non-Tech
 "CDD_DBRange9" = 34   $ IP Non-Tech
 "CDD_Day10" = 15   $ IP Non-Tech
 "CDD_Day7" = 16   $ IP Non-Tech
 "CDD_Day8" = 20   $ IP Non-Tech
 "CDD_Day9" = 17   $ IP Non-Tech
 "CDD_HrHi10" = 15   $ IP Non-Tech
 "CDD_HrHi7" = 14   $ IP Non-Tech
 "CDD_HrHi8" = 14   $ IP Non-Tech
 "CDD_HrHi9" = 15   $ IP Non-Tech
 "CDD_HrLo10" = 3   $ IP Non-Tech
 "CDD_HrLo7" = 6   $ IP Non-Tech
 "CDD_HrLo8" = 5   $ IP Non-Tech
 "CDD_HrLo9" = 5   $ IP Non-Tech
 "CDD_WB10" = 62.63956451   $ IP Non-Tech
 "CDD_WB7" = 70.96998596   $ IP Non-Tech
 "CDD_WB8" = 71.98167419   $ IP Non-Tech
 "CDD_WB9" = 70.8795929   $ IP Non-Tech
 "CEIR_fPLR_Hot" = SpltAC1Sp_CEIR_fPLR_Hot   $ Msr (Var)TechID: PreNResSplitAC-45to-PENo
 "CEIR_fPLR_Mod" = SpltAC1Sp_CEIR_fPLR_Mod   $ Msr (Var)TechID: PreNResSplitAC-45to-PENo
 "CEIR_fPLR_Tem" = SpltAC1Sp_CEIR_fPLR_Tem   $ Msr (Var)TechID: PreNResSplitAC-45to-PENo
 "CLoss_fPLR_Hot" = SpltAC1Sp_CLoss_fPLR_Hot   $ Msr (Var)TechID: PreNResSplitAC-45to-PENo
 "CLoss_fPLR_Mod" = SpltAC1Sp_CLoss_fPLR_Mod   $ Msr (Var)TechID: PreNResSplitAC-45to-PENo
 "CLoss_fPLR_Tem" = SpltAC1Sp_CLoss_fPLR_Tem   $ Msr (Var)TechID: PreNResSplitAC-45to-PENo
 "COP47" = 0   $ Msr (Var)TechID: PreNResSplitAC-45to-PENo
 "CZ_Category" = Mod   $ IP Non-Tech
 "CapRange" = Any   $ Msr (Var)TechID: PreNResSplitAC-45to-PENo
 "CfmPerBtuh" = 0.0321   $ Msr (Var)TechID: PreNResSplitAC-45to-PENo
 "ChwVintEconoFlag" = 1   $ IP Non-Tech
 "ClCap_fT" = SpltAC1Sp_ClCap_fT   $ Msr (Var)TechID: PreNResSplitAC-45to-PENo
 "ClSH_fT" = SpltAC1Sp_ClSH_fT   $ Msr (Var)TechID: PreNResSplitAC-45to-PENo
 "CoilBF" = 0.12   $ Msr (Var)TechID: PreNResSplitAC-45to-PENo
 "CompRoomData_EWSF" = 5.75   $ IP Non-Tech
 "CompRoomData_LWSF" = 1.2   $ IP Non-Tech
 "CondWPerBtuh" = 0   $ Msr (Var)TechID: PreNResSplitAC-45to-PENo
 "Conference_EWSF" = 1.15   $ IP Non-Tech
 "Conference_LWSF" = 1.4   $ IP Non-Tech
 "CoolSensCap" = 0.744   $ Msr (Var)TechID: PreNResSplitAC-45to-PENo
 "CoolSetT" = 45   $ IP Non-Tech
 "CoolType" = DX   $ IP Non-Tech
 "CoolingEIR" = 0.29437   $ Msr (Var)TechID: PreNResSplitAC-45to-PENo
 "CopyRoom_EWSF" = 1.725   $ IP Non-Tech
 "CopyRoom_LWSF" = 1.3   $ IP Non-Tech
 "CrnkEIR" = 0.0029437   $ Msr (Var)TechID: PreNResSplitAC-45to-PENo
 "CrnkMaxT" = 50   $ Msr (Var)TechID: PreNResSplitAC-45to-PENo
 "DXType" = SplitSEER   $ Msr (Var)TechID: PreNResSplitAC-45to-PENo
 "DesCoolT" = 75   $ IP Non-Tech
 "DesHeatT" = 73   $ IP Non-Tech
 "EER" = 9.799295775   $ Msr (Var)TechID: PreNResSplitAC-45to-PENo
 "EIR_fT" = SpltAC1Sp_EIR_fT   $ Msr (Var)TechID: PreNResSplitAC-45to-PENo
 "EconoCtrl" = FIXED   $ Msr (Multi)TechID: PreNResSplitAC-45to-PENo
 "EconoEnthLimit" = 28   $ IP Non-Tech
 "EconoTempLimit" = 73   $ IP Non-Tech
 "Elevation" = 840   $ IP Non-Tech
 "FanEirPlr" = TwoSpeedFan   $ Msr (Var)TechID: PreNResSplitAC-45to-PENo
 "FanWPerCfm" = 0.365   $ Msr (Var)TechID: PreNResSplitAC-45to-PENo
 "HDD_CloudAmt1" = 0   $ IP Non-Tech
 "HDD_DBHi1" = 53   $ IP Non-Tech
 "HDD_DBRange1" = 17   $ IP Non-Tech
 "HDD_Day1" = 15   $ IP Non-Tech
 "HDD_HrHi1" = 14   $ IP Non-Tech
 "HDD_HrLo1" = 5   $ IP Non-Tech
 "HDD_WB1" = 48.5   $ IP Non-Tech
 "HDD_WindSpd1" = 13.8   $ IP Non-Tech
 "HIR_fT" = 0   $ Msr (Var)TechID: PreNResSplitAC-45to-PENo
 "HSPF" = 0   $ Msr (Var)TechID: PreNResSplitAC-45to-PENo
 "Hall_EWSF" = 0.23   $ IP Non-Tech
 "Hall_LWSF" = 0.6   $ IP Non-Tech
 "HeatSrc" = FURNACE   $ IP Non-Tech
 "HeatSrcTU" = HEAT-PUMP   $ IP Non-Tech
 "HeatType" = GasFurn   $ IP Non-Tech
 "HeatTypeTU" = HEAT-PUMP   $ IP Non-Tech
 "HtCap_fT" = 0   $ Msr (Var)TechID: PreNResSplitAC-45to-PENo
 "HtCoolCapRatio" = 0   $ Msr (Var)TechID: PreNResSplitAC-45to-PENo
 "HtgEIR" = 0   $ Msr (Var)TechID: PreNResSplitAC-45to-PENo
 "IndoorFanMode" = CONTINUOUS   $ IP Non-Tech
 "KT_TransferAir" = No   $ IP Non-Tech
 "Latitude" = 34   $ IP Non-Tech
 "LobbyWaiting_EWSF" = 0.5375   $ IP Non-Tech
 "LobbyWaiting_LWSF" = 1.3   $ IP Non-Tech
 "Longitude" = 117.4   $ IP Non-Tech
 "LowSpdCapRatio" = 1   $ Msr (Var)TechID: PreNResSplitAC-45to-PENo
 "LowSpdCfmRatio" = 1   $ Msr (Var)TechID: PreNResSplitAC-45to-PENo
 "MZFanMechEff" = 0.58   $ IP Non-Tech
 "MZHasRetFan" = FALSE   $ IP Non-Tech
 "MZ_RFanWPerCfm" = 0.33   $ IP Non-Tech
 "MZ_SFanWPerCfm" = 0.75   $ IP Non-Tech
 "MZ_SupFanStatic" = 2.25   $ IP Non-Tech
 "MaxOAFrac" = 1   $ Msr (Multi)TechID: PreNResSplitAC-45to-PENo
 "MaxSupT_MZ" = 100   $ IP Non-Tech
 "MaxSupT_SZ" = 100   $ IP Non-Tech
 "MaxSupT_TU" = 90   $ IP Non-Tech
 "MechElecRoom_EWSF" = 0.23   $ IP Non-Tech
 "MechElecRoom_LWSF" = 0.7   $ IP Non-Tech
 "MinCfmPerSF" = 0.4   $ IP Non-Tech
 "MinSupT" = 55   $ IP Non-Tech
 "NumStages" = 1   $ Msr (Var)TechID: PreNResSplitAC-45to-PENo
 "OccCoolT" = 76   $ IP Non-Tech
 "OccHeatT" = 72   $ IP Non-Tech
 "OfficeOpen_EWSF" = 1.725   $ IP Non-Tech
 "OfficeOpen_LWSF" = 1.2   $ IP Non-Tech
 "OfficeSmall_EWSF" = 1.725   $ IP Non-Tech
 "OfficeSmall_LWSF" = 1.3   $ IP Non-Tech
 "PkgDxVintEconoFlag" = 0   $ IP Non-Tech
 "Restroom_EWSF" = 0.23   $ IP Non-Tech
 "Restroom_LWSF" = 0.6   $ IP Non-Tech
 "SEER" = 11.5   $ Msr (Var)TechID: PreNResSplitAC-45to-PENo
 "SZFanMechEff" = 0.58   $ IP Non-Tech
 "SZHasRetFan" = FALSE   $ IP Non-Tech
 "SZ_Is_2Spd" = FALSE   $ IP Non-Tech
 "SZ_SFanWPerCfm" = 0.46   $ IP Non-Tech
 "SZ_SupFanStatic" = 0.75   $ IP Non-Tech
 "Sector" = Any   $ Msr (Var)TechID: PreNResSplitAC-45to-PENo
 "StorageSmlCond_EWSF" = 0.23   $ IP Non-Tech
 "StorageSmlCond_LWSF" = 0.6   $ IP Non-Tech
 "SubType" = AC   $ Msr (Var)TechID: PreNResSplitAC-45to-PENo
 "T24GlzTbl" = CZTbl   $ IP Non-Tech
 "TermUnitFanMechEff" = 1   $ IP Non-Tech
 "TermUnitFanMode" = INTERMITTENT   $ IP Non-Tech
 "TotCoolCap" = 34895   $ Msr (Var)TechID: PreNResSplitAC-45to-PENo
 "TwrSetpt" = 82.2   $ IP Non-Tech
 "UnocCoolT" = 86   $ IP Non-Tech
 "UnocHeatT" = 62   $ IP Non-Tech
 "UseEconoVintApplic" = FALSE   $ Msr (Multi)TechID: PreNResSplitAC-45to-PENo
 "WlhpVintEconoFlag" = 0   $ IP Non-Tech
 "DuctDT" = 1   $ IP Tech: ComDuctInsul-1
 "DuctAirLoss" = 0   $ IP Tech: ComDuctLeak-0
 "DuctLossOAFrac" = 0   $ IP Tech: ComDuctLeak-0
 "ComRoofInsCalc" = FromUo   $ IP Tech: ComRoofIns-WFrm-0.07
 "ComRoofInsR" = -999   $ IP Tech: ComRoofIns-WFrm-0.07
 "ComRoofUo" = 0.07   $ IP Tech: ComRoofIns-WFrm-0.07
 "ComEWInsCalc" = FromUo   $ IP Tech: ComWallIns-WFrm-0.12
 "ComEWInsR" = -999   $ IP Tech: ComWallIns-WFrm-0.12
 "ComEWUo" = 0.12   $ IP Tech: ComWallIns-WFrm-0.12
 "ComN_SHGC" = 0.82   $ IP Tech: NResWin-ComN-1.23-0.82
 "ComN_UFactor" = 1.23   $ IP Tech: NResWin-ComN-1.23-0.82
 "ComN_VisTrans" = 0.9   $ IP Tech: NResWin-ComN-1.23-0.82
 "ComN_WinCode" = G1000   $ IP Tech: NResWin-ComN-1.23-0.82
 "ComN_WinFrmFrac" = 0.17   $ IP Tech: NResWin-ComN-1.23-0.82
 "ComN_WinFrmU" = 1   $ IP Tech: NResWin-ComN-1.23-0.82
 "ComO_SHGC" = 0.82   $ IP Tech: NResWin-ComO-1.23-0.82
 "ComO_UFactor" = 1.23   $ IP Tech: NResWin-ComO-1.23-0.82
 "ComO_VisTrans" = 0.9   $ IP Tech: NResWin-ComO-1.23-0.82
 "ComO_WinCode" = G1000   $ IP Tech: NResWin-ComO-1.23-0.82
 "ComO_WinFrmFrac" = 0.17   $ IP Tech: NResWin-ComO-1.23-0.82
 "ComO_WinFrmU" = 1   $ IP Tech: NResWin-ComO-1.23-0.82
 "LtgMsrApplic" = ALL   $ IP Tech: NonResLtgRefPre
 "LtgSav_CFL" = 0   $ IP Tech: NonResLtgRefPre
 "LtgSav_EX" = 0   $ IP Tech: NonResLtgRefPre
 "LtgSav_HB" = 0   $ IP Tech: NonResLtgRefPre
 "LtgSav_LF" = 0   $ IP Tech: NonResLtgRefPre
 "LtgSav_SP" = 0   $ IP Tech: NonResLtgRefPre
 "CEIR_fPLR" = PSZ65to135_CEIR_fPLR   $ IP Tech: PkgAC1SpH-65to135-E10
 "CLoss_fPLR" = PSZ65to135_CLoss_fPLR   $ IP Tech: PkgAC1SpH-65to135-E10
 "COP" = -1   $ IP Tech: PkgAC1SpH-65to135-E10
 "HtgFuel" = Gas   $ IP Tech: PkgAC1SpH-65to135-E10
 "IEER" = 11.87   $ IP Tech: PkgAC1SpH-65to135-E10
 "NominalCap" = 15   $ IP Tech: PkgAC1SpH-65to135-E10
 "RatedEER" = 10   $ IP Tech: PkgAC1SpH-65to135-E10
 "RatedSupMtrClass" = HiEff   $ IP Tech: PkgAC1SpH-65to135-E10
 "SizeRange" = 65to135   $ IP Tech: PkgAC1SpH-65to135-E10
 "SupMotEff" = 0.84   $ IP Tech: PkgAC1SpH-65to135-E10
 "Tier" = 0   $ IP Tech: PkgAC1SpH-65to135-E10
 "FanPwrMult" = 1   $ IP Tech: PkgFurn-0.80AFUE
 "FurnAFUE" = 0.8   $ IP Tech: PkgFurn-0.80AFUE
 "FurnEt" = 0.82   $ IP Tech: PkgFurn-0.80AFUE
 "FurnaceAuxKW" = 0.1   $ IP Tech: PkgFurn-0.80AFUE
 "HIR_fPLR" = Furnace-HIR-fPLR   $ IP Tech: PkgFurn-0.80AFUE
 "VSM" = FALSE   $ IP Tech: PkgFurn-0.80AFUE
 "BFMult" = 1   $ IP Tech: RefgChg-NRes-Std
 "CoolEirMult" = 1   $ IP Tech: RefgChg-NRes-Std
 "SensCoolCapMult" = 1   $ IP Tech: RefgChg-NRes-Std
 "TotCoolCapMult" = 1   $ IP Tech: RefgChg-NRes-Std
 "AltAdjFactor" = 1.031429   $ Sizing
 "CAssFlo_L_Break_CZn" = 483.5833   $ Sizing
 "CAssFlo_L_CompDC_CZn" = 166.9576   $ Sizing
 "CAssFlo_L_Conf_CZn" = 282.2803   $ Sizing
 "CAssFlo_L_CopyRm_CZn" = 103.8065   $ Sizing
 "CAssFlo_L_Hall_EZn" = 163.5459   $ Sizing
 "CAssFlo_L_Hall_NZn" = 84.15858   $ Sizing
 "CAssFlo_L_Hall_SZn" = 185.2897   $ Sizing
 "CAssFlo_L_Hall_WZn" = 199.7654   $ Sizing
 "CAssFlo_L_LobWait_EZn" = 384.2351   $ Sizing
 "CAssFlo_L_LobWait_NZn" = 220.1898   $ Sizing
 "CAssFlo_L_LobWait_SZn" = 439.6624   $ Sizing
 "CAssFlo_L_LobWait_WZn" = 491.8963   $ Sizing
 "CAssFlo_L_MechElec_CZn" = 78.85355   $ Sizing
 "CAssFlo_L_OfficeOpn_CZn" = 68.60156   $ Sizing
 "CAssFlo_L_OfficeOpn_EZn" = 692.2253   $ Sizing
 "CAssFlo_L_OfficeOpn_NZn" = 433.5755   $ Sizing
 "CAssFlo_L_OfficeOpn_SZn" = 733.2877   $ Sizing
 "CAssFlo_L_OfficeOpn_WZn" = 835.2185   $ Sizing
 "CAssFlo_L_OfficeSm_EZn" = 596.6177   $ Sizing
 "CAssFlo_L_OfficeSm_NZn" = 344.9362   $ Sizing
 "CAssFlo_L_OfficeSm_SZn" = 651.6247   $ Sizing
 "CAssFlo_L_OfficeSm_WZn" = 731.816   $ Sizing
 "CAssFlo_L_Restrm_CZn" = 88.17413   $ Sizing
 "CAssFlo_L_StorSm_CZn" = 36.60163   $ Sizing
 "CAssFlo_L_StorSm_EZn" = 161.1647   $ Sizing
 "CAssFlo_L_StorSm_NZn" = 85.51142   $ Sizing
 "CAssFlo_L_StorSm_SZn" = 181.2351   $ Sizing
 "CAssFlo_L_StorSm_WZn" = 189.0595   $ Sizing
 "CAssFlo_T_Conf_CZn" = 272.4126   $ Sizing
 "CAssFlo_T_Hall_EZn" = 185.6427   $ Sizing
 "CAssFlo_T_Hall_NZn" = 94.97009   $ Sizing
 "CAssFlo_T_Hall_SZn" = 217.703   $ Sizing
 "CAssFlo_T_Hall_WZn" = 224.4482   $ Sizing
 "CAssFlo_T_OfficeOpn_CZn" = 62.72424   $ Sizing
 "CAssFlo_T_OfficeOpn_EZn" = 738.1866   $ Sizing
 "CAssFlo_T_OfficeOpn_NZn" = 463.6046   $ Sizing
 "CAssFlo_T_OfficeOpn_SZn" = 826.1597   $ Sizing
 "CAssFlo_T_OfficeOpn_WZn" = 885.0349   $ Sizing
 "CAssFlo_T_OfficeSm_EZn" = 638.3533   $ Sizing
 "CAssFlo_T_OfficeSm_NZn" = 372.2173   $ Sizing
 "CAssFlo_T_OfficeSm_SZn" = 719.3673   $ Sizing
 "CAssFlo_T_OfficeSm_WZn" = 776.8177   $ Sizing
 "CAssFlo_T_Restrm_CZn" = 124.5422   $ Sizing
 "CAssFlo_T_StorSm_EZn" = 187.968   $ Sizing
 "CAssFlo_T_StorSm_NZn" = 102.0843   $ Sizing
 "CAssFlo_T_StorSm_SZn" = 219.2555   $ Sizing
 "CAssFlo_T_StorSm_WZn" = 229.099   $ Sizing
 "CHRtFlo_Sys_L_Break_C" = 483.5833   $ Sizing
 "CHRtFlo_Sys_L_CompDC_C" = 196.9238   $ Sizing
 "CHRtFlo_Sys_L_Conf_C" = 282.2803   $ Sizing
 "CHRtFlo_Sys_L_CopyRm_C" = 103.8065   $ Sizing
 "CHRtFlo_Sys_L_Hall_E" = 203.726   $ Sizing
 "CHRtFlo_Sys_L_Hall_N" = 84.15857   $ Sizing
 "CHRtFlo_Sys_L_Hall_S" = 232.7439   $ Sizing
 "CHRtFlo_Sys_L_Hall_W" = 224.908   $ Sizing
 "CHRtFlo_Sys_L_LobWait_E" = 466.3568   $ Sizing
 "CHRtFlo_Sys_L_LobWait_N" = 220.1898   $ Sizing
 "CHRtFlo_Sys_L_LobWait_S" = 532.8318   $ Sizing
 "CHRtFlo_Sys_L_LobWait_W" = 516.9463   $ Sizing
 "CHRtFlo_Sys_L_MechElec_C" = 112.4461   $ Sizing
 "CHRtFlo_Sys_L_OfficeOpn_C" = 87.95774   $ Sizing
 "CHRtFlo_Sys_L_OfficeOpn_E" = 857.8273   $ Sizing
 "CHRtFlo_Sys_L_OfficeOpn_N" = 433.5755   $ Sizing
 "CHRtFlo_Sys_L_OfficeOpn_S" = 903.111   $ Sizing
 "CHRtFlo_Sys_L_OfficeOpn_W" = 909.5344   $ Sizing
 "CHRtFlo_Sys_L_OfficeSm_E" = 751.4007   $ Sizing
 "CHRtFlo_Sys_L_OfficeSm_N" = 349.8651   $ Sizing
 "CHRtFlo_Sys_L_OfficeSm_S" = 808.179   $ Sizing
 "CHRtFlo_Sys_L_OfficeSm_W" = 811.4796   $ Sizing
 "CHRtFlo_Sys_L_Restrm_C" = 107.7531   $ Sizing
 "CHRtFlo_Sys_L_StorSm_C" = 48.21677   $ Sizing
 "CHRtFlo_Sys_L_StorSm_E" = 199.2339   $ Sizing
 "CHRtFlo_Sys_L_StorSm_N" = 85.51141   $ Sizing
 "CHRtFlo_Sys_L_StorSm_S" = 225.1178   $ Sizing
 "CHRtFlo_Sys_L_StorSm_W" = 205.2152   $ Sizing
 "CHRtFlo_Sys_T_Conf_C" = 272.4126   $ Sizing
 "CHRtFlo_Sys_T_Hall_E" = 214.83   $ Sizing
 "CHRtFlo_Sys_T_Hall_N" = 94.97009   $ Sizing
 "CHRtFlo_Sys_T_Hall_S" = 255.7134   $ Sizing
 "CHRtFlo_Sys_T_Hall_W" = 240.8079   $ Sizing
 "CHRtFlo_Sys_T_OfficeOpn_C" = 75.09014   $ Sizing
 "CHRtFlo_Sys_T_OfficeOpn_E" = 831.1779   $ Sizing
 "CHRtFlo_Sys_T_OfficeOpn_N" = 463.6046   $ Sizing
 "CHRtFlo_Sys_T_OfficeOpn_S" = 931.3806   $ Sizing
 "CHRtFlo_Sys_T_OfficeOpn_W" = 888.8924   $ Sizing
 "CHRtFlo_Sys_T_OfficeSm_E" = 736.8673   $ Sizing
 "CHRtFlo_Sys_T_OfficeSm_N" = 372.2173   $ Sizing
 "CHRtFlo_Sys_T_OfficeSm_S" = 839.9164   $ Sizing
 "CHRtFlo_Sys_T_OfficeSm_W" = 804.5392   $ Sizing
 "CHRtFlo_Sys_T_Restrm_C" = 146.6552   $ Sizing
 "CHRtFlo_Sys_T_StorSm_E" = 208.6886   $ Sizing
 "CHRtFlo_Sys_T_StorSm_N" = 102.0843   $ Sizing
 "CHRtFlo_Sys_T_StorSm_S" = 247.7985   $ Sizing
 "CHRtFlo_Sys_T_StorSm_W" = 232.7274   $ Sizing
 "CRtdFlo_Sys_L_Break_C" = 483.5833   $ Sizing
 "CRtdFlo_Sys_L_CompDC_C" = 166.9576   $ Sizing
 "CRtdFlo_Sys_L_Conf_C" = 282.2803   $ Sizing
 "CRtdFlo_Sys_L_CopyRm_C" = 103.8065   $ Sizing
 "CRtdFlo_Sys_L_Hall_E" = 163.5459   $ Sizing
 "CRtdFlo_Sys_L_Hall_N" = 84.15857   $ Sizing
 "CRtdFlo_Sys_L_Hall_S" = 185.2897   $ Sizing
 "CRtdFlo_Sys_L_Hall_W" = 199.7654   $ Sizing
 "CRtdFlo_Sys_L_LobWait_E" = 384.2351   $ Sizing
 "CRtdFlo_Sys_L_LobWait_N" = 220.1898   $ Sizing
 "CRtdFlo_Sys_L_LobWait_S" = 439.6624   $ Sizing
 "CRtdFlo_Sys_L_LobWait_W" = 491.8963   $ Sizing
 "CRtdFlo_Sys_L_MechElec_C" = 78.85355   $ Sizing
 "CRtdFlo_Sys_L_OfficeOpn_C" = 68.60156   $ Sizing
 "CRtdFlo_Sys_L_OfficeOpn_E" = 692.2253   $ Sizing
 "CRtdFlo_Sys_L_OfficeOpn_N" = 433.5755   $ Sizing
 "CRtdFlo_Sys_L_OfficeOpn_S" = 733.2877   $ Sizing
 "CRtdFlo_Sys_L_OfficeOpn_W" = 835.2185   $ Sizing
 "CRtdFlo_Sys_L_OfficeSm_E" = 596.6177   $ Sizing
 "CRtdFlo_Sys_L_OfficeSm_N" = 344.9362   $ Sizing
 "CRtdFlo_Sys_L_OfficeSm_S" = 651.6247   $ Sizing
 "CRtdFlo_Sys_L_OfficeSm_W" = 731.816   $ Sizing
 "CRtdFlo_Sys_L_Restrm_C" = 88.17413   $ Sizing
 "CRtdFlo_Sys_L_StorSm_C" = 36.60163   $ Sizing
 "CRtdFlo_Sys_L_StorSm_E" = 161.1647   $ Sizing
 "CRtdFlo_Sys_L_StorSm_N" = 85.51141   $ Sizing
 "CRtdFlo_Sys_L_StorSm_S" = 181.2351   $ Sizing
 "CRtdFlo_Sys_L_StorSm_W" = 189.0595   $ Sizing
 "CRtdFlo_Sys_T_Conf_C" = 272.4126   $ Sizing
 "CRtdFlo_Sys_T_Hall_E" = 185.6427   $ Sizing
 "CRtdFlo_Sys_T_Hall_N" = 94.97009   $ Sizing
 "CRtdFlo_Sys_T_Hall_S" = 217.703   $ Sizing
 "CRtdFlo_Sys_T_Hall_W" = 224.4482   $ Sizing
 "CRtdFlo_Sys_T_OfficeOpn_C" = 62.72424   $ Sizing
 "CRtdFlo_Sys_T_OfficeOpn_E" = 738.1866   $ Sizing
 "CRtdFlo_Sys_T_OfficeOpn_N" = 463.6046   $ Sizing
 "CRtdFlo_Sys_T_OfficeOpn_S" = 826.1597   $ Sizing
 "CRtdFlo_Sys_T_OfficeOpn_W" = 885.0349   $ Sizing
 "CRtdFlo_Sys_T_OfficeSm_E" = 638.3533   $ Sizing
 "CRtdFlo_Sys_T_OfficeSm_N" = 372.2173   $ Sizing
 "CRtdFlo_Sys_T_OfficeSm_S" = 719.3673   $ Sizing
 "CRtdFlo_Sys_T_OfficeSm_W" = 776.8177   $ Sizing
 "CRtdFlo_Sys_T_Restrm_C" = 124.5422   $ Sizing
 "CRtdFlo_Sys_T_StorSm_E" = 187.968   $ Sizing
 "CRtdFlo_Sys_T_StorSm_N" = 102.0843   $ Sizing
 "CRtdFlo_Sys_T_StorSm_S" = 219.2555   $ Sizing
 "CRtdFlo_Sys_T_StorSm_W" = 229.099   $ Sizing
 "CSupFlo_Sys_L_Break_C" = 483.5833   $ Sizing
 "CSupFlo_Sys_L_CompDC_C" = 166.9576   $ Sizing
 "CSupFlo_Sys_L_Conf_C" = 282.2803   $ Sizing
 "CSupFlo_Sys_L_CopyRm_C" = 103.8065   $ Sizing
 "CSupFlo_Sys_L_Hall_E" = 163.5459   $ Sizing
 "CSupFlo_Sys_L_Hall_N" = 84.15857   $ Sizing
 "CSupFlo_Sys_L_Hall_S" = 185.2897   $ Sizing
 "CSupFlo_Sys_L_Hall_W" = 199.7654   $ Sizing
 "CSupFlo_Sys_L_LobWait_E" = 384.2351   $ Sizing
 "CSupFlo_Sys_L_LobWait_N" = 220.1898   $ Sizing
 "CSupFlo_Sys_L_LobWait_S" = 439.6624   $ Sizing
 "CSupFlo_Sys_L_LobWait_W" = 491.8963   $ Sizing
 "CSupFlo_Sys_L_MechElec_C" = 78.85355   $ Sizing
 "CSupFlo_Sys_L_OfficeOpn_C" = 68.60156   $ Sizing
 "CSupFlo_Sys_L_OfficeOpn_E" = 692.2253   $ Sizing
 "CSupFlo_Sys_L_OfficeOpn_N" = 433.5755   $ Sizing
 "CSupFlo_Sys_L_OfficeOpn_S" = 733.2877   $ Sizing
 "CSupFlo_Sys_L_OfficeOpn_W" = 835.2185   $ Sizing
 "CSupFlo_Sys_L_OfficeSm_E" = 596.6177   $ Sizing
 "CSupFlo_Sys_L_OfficeSm_N" = 344.9362   $ Sizing
 "CSupFlo_Sys_L_OfficeSm_S" = 651.6247   $ Sizing
 "CSupFlo_Sys_L_OfficeSm_W" = 731.816   $ Sizing
 "CSupFlo_Sys_L_Restrm_C" = 88.17413   $ Sizing
 "CSupFlo_Sys_L_StorSm_C" = 36.60163   $ Sizing
 "CSupFlo_Sys_L_StorSm_E" = 161.1647   $ Sizing
 "CSupFlo_Sys_L_StorSm_N" = 85.51141   $ Sizing
 "CSupFlo_Sys_L_StorSm_S" = 181.2351   $ Sizing
 "CSupFlo_Sys_L_StorSm_W" = 189.0595   $ Sizing
 "CSupFlo_Sys_T_Conf_C" = 272.4126   $ Sizing
 "CSupFlo_Sys_T_Hall_E" = 185.6427   $ Sizing
 "CSupFlo_Sys_T_Hall_N" = 94.97009   $ Sizing
 "CSupFlo_Sys_T_Hall_S" = 217.703   $ Sizing
 "CSupFlo_Sys_T_Hall_W" = 224.4482   $ Sizing
 "CSupFlo_Sys_T_OfficeOpn_C" = 62.72424   $ Sizing
 "CSupFlo_Sys_T_OfficeOpn_E" = 738.1866   $ Sizing
 "CSupFlo_Sys_T_OfficeOpn_N" = 463.6046   $ Sizing
 "CSupFlo_Sys_T_OfficeOpn_S" = 826.1597   $ Sizing
 "CSupFlo_Sys_T_OfficeOpn_W" = 885.0349   $ Sizing
 "CSupFlo_Sys_T_OfficeSm_E" = 638.3533   $ Sizing
 "CSupFlo_Sys_T_OfficeSm_N" = 372.2173   $ Sizing
 "CSupFlo_Sys_T_OfficeSm_S" = 719.3673   $ Sizing
 "CSupFlo_Sys_T_OfficeSm_W" = 776.8177   $ Sizing
 "CSupFlo_Sys_T_Restrm_C" = 124.5422   $ Sizing
 "CSupFlo_Sys_T_StorSm_E" = 187.968   $ Sizing
 "CSupFlo_Sys_T_StorSm_N" = 102.0843   $ Sizing
 "CSupFlo_Sys_T_StorSm_S" = 219.2555   $ Sizing
 "CSupFlo_Sys_T_StorSm_W" = 229.099   $ Sizing
 "ClCap_Sys_L_Break_C" = 16074.78   $ Sizing
 "ClCap_Sys_L_CompDC_C" = 5549.832   $ Sizing
 "ClCap_Sys_L_Conf_C" = 11942.35   $ Sizing
 "ClCap_Sys_L_CopyRm_C" = 3450.63   $ Sizing
 "ClCap_Sys_L_Hall_E" = 5436.424   $ Sizing
 "ClCap_Sys_L_Hall_N" = 2797.513   $ Sizing
 "ClCap_Sys_L_Hall_S" = 6159.211   $ Sizing
 "ClCap_Sys_L_Hall_W" = 6640.396   $ Sizing
 "ClCap_Sys_L_LobWait_E" = 12772.35   $ Sizing
 "ClCap_Sys_L_LobWait_N" = 7319.323   $ Sizing
 "ClCap_Sys_L_LobWait_S" = 14614.81   $ Sizing
 "ClCap_Sys_L_LobWait_W" = 16351.11   $ Sizing
 "ClCap_Sys_L_MechElec_C" = 2621.169   $ Sizing
 "ClCap_Sys_L_OfficeOpn_C" = 2280.383   $ Sizing
 "ClCap_Sys_L_OfficeOpn_E" = 23010.24   $ Sizing
 "ClCap_Sys_L_OfficeOpn_N" = 14412.47   $ Sizing
 "ClCap_Sys_L_OfficeOpn_S" = 24375.2   $ Sizing
 "ClCap_Sys_L_OfficeOpn_W" = 27763.48   $ Sizing
 "ClCap_Sys_L_OfficeSm_E" = 19832.15   $ Sizing
 "ClCap_Sys_L_OfficeSm_N" = 11466.02   $ Sizing
 "ClCap_Sys_L_OfficeSm_S" = 21660.64   $ Sizing
 "ClCap_Sys_L_OfficeSm_W" = 24326.28   $ Sizing
 "ClCap_Sys_L_Restrm_C" = 2930.994   $ Sizing
 "ClCap_Sys_L_StorSm_C" = 1216.674   $ Sizing
 "ClCap_Sys_L_StorSm_E" = 5357.272   $ Sizing
 "ClCap_Sys_L_StorSm_N" = 2842.483   $ Sizing
 "ClCap_Sys_L_StorSm_S" = 6024.431   $ Sizing
 "ClCap_Sys_L_StorSm_W" = 6284.523   $ Sizing
 "ClCap_Sys_T_Conf_C" = 11524.88   $ Sizing
 "ClCap_Sys_T_Hall_E" = 6170.946   $ Sizing
 "ClCap_Sys_T_Hall_N" = 3156.898   $ Sizing
 "ClCap_Sys_T_Hall_S" = 7236.661   $ Sizing
 "ClCap_Sys_T_Hall_W" = 7460.876   $ Sizing
 "ClCap_Sys_T_OfficeOpn_C" = 2085.015   $ Sizing
 "ClCap_Sys_T_OfficeOpn_E" = 24538.04   $ Sizing
 "ClCap_Sys_T_OfficeOpn_N" = 15410.67   $ Sizing
 "ClCap_Sys_T_OfficeOpn_S" = 27462.35   $ Sizing
 "ClCap_Sys_T_OfficeOpn_W" = 29419.42   $ Sizing
 "ClCap_Sys_T_OfficeSm_E" = 21219.48   $ Sizing
 "ClCap_Sys_T_OfficeSm_N" = 12372.87   $ Sizing
 "ClCap_Sys_T_OfficeSm_S" = 23912.47   $ Sizing
 "ClCap_Sys_T_OfficeSm_W" = 25822.18   $ Sizing
 "ClCap_Sys_T_Restrm_C" = 4139.902   $ Sizing
 "ClCap_Sys_T_StorSm_E" = 6248.238   $ Sizing
 "ClCap_Sys_T_StorSm_N" = 3393.38   $ Sizing
 "ClCap_Sys_T_StorSm_S" = 7288.268   $ Sizing
 "ClCap_Sys_T_StorSm_W" = 7615.474   $ Sizing
 "HtCap_Sys_L_Break_C" = -24911.58   $ Sizing
 "HtCap_Sys_L_CompDC_C" = -9329.554   $ Sizing
 "HtCap_Sys_L_Conf_C" = -14960.9   $ Sizing
 "HtCap_Sys_L_CopyRm_C" = -5328.876   $ Sizing
 "HtCap_Sys_L_Hall_E" = -6894.122   $ Sizing
 "HtCap_Sys_L_Hall_N" = -2933.893   $ Sizing
 "HtCap_Sys_L_Hall_S" = -7495.95   $ Sizing
 "HtCap_Sys_L_Hall_W" = -7121.495   $ Sizing
 "HtCap_Sys_L_LobWait_E" = -15251.53   $ Sizing
 "HtCap_Sys_L_LobWait_N" = -8622.59   $ Sizing
 "HtCap_Sys_L_LobWait_S" = -17504.33   $ Sizing
 "HtCap_Sys_L_LobWait_W" = -17044.56   $ Sizing
 "HtCap_Sys_L_MechElec_C" = -4157.41   $ Sizing
 "HtCap_Sys_L_OfficeOpn_C" = -3138.9   $ Sizing
 "HtCap_Sys_L_OfficeOpn_E" = -27831.45   $ Sizing
 "HtCap_Sys_L_OfficeOpn_N" = -16063.62   $ Sizing
 "HtCap_Sys_L_OfficeOpn_S" = -28849   $ Sizing
 "HtCap_Sys_L_OfficeOpn_W" = -29822.79   $ Sizing
 "HtCap_Sys_L_OfficeSm_E" = -24600.75   $ Sizing
 "HtCap_Sys_L_OfficeSm_N" = -12562.13   $ Sizing
 "HtCap_Sys_L_OfficeSm_S" = -25554.62   $ Sizing
 "HtCap_Sys_L_OfficeSm_W" = -26266.41   $ Sizing
 "HtCap_Sys_L_Restrm_C" = -3560.226   $ Sizing
 "HtCap_Sys_L_StorSm_C" = -1800.6   $ Sizing
 "HtCap_Sys_L_StorSm_E" = -6646.524   $ Sizing
 "HtCap_Sys_L_StorSm_N" = -3356.469   $ Sizing
 "HtCap_Sys_L_StorSm_S" = -7223.655   $ Sizing
 "HtCap_Sys_L_StorSm_W" = -6816.662   $ Sizing
 "HtCap_Sys_T_Conf_C" = -14988.51   $ Sizing
 "HtCap_Sys_T_Hall_E" = -7690.1   $ Sizing
 "HtCap_Sys_T_Hall_N" = -3737.206   $ Sizing
 "HtCap_Sys_T_Hall_S" = -8989.34   $ Sizing
 "HtCap_Sys_T_Hall_W" = -8314.812   $ Sizing
 "HtCap_Sys_T_OfficeOpn_C" = -3009.485   $ Sizing
 "HtCap_Sys_T_OfficeOpn_E" = -29775.21   $ Sizing
 "HtCap_Sys_T_OfficeOpn_N" = -18577.51   $ Sizing
 "HtCap_Sys_T_OfficeOpn_S" = -32028.64   $ Sizing
 "HtCap_Sys_T_OfficeOpn_W" = -31592.09   $ Sizing
 "HtCap_Sys_T_OfficeSm_E" = -26197.42   $ Sizing
 "HtCap_Sys_T_OfficeSm_N" = -14600.88   $ Sizing
 "HtCap_Sys_T_OfficeSm_S" = -28739.04   $ Sizing
 "HtCap_Sys_T_OfficeSm_W" = -27777.46   $ Sizing
 "HtCap_Sys_T_Restrm_C" = -5302.252   $ Sizing
 "HtCap_Sys_T_StorSm_E" = -7815.126   $ Sizing
 "HtCap_Sys_T_StorSm_N" = -4563.154   $ Sizing
 "HtCap_Sys_T_StorSm_S" = -8346.084   $ Sizing
 "HtCap_Sys_T_StorSm_W" = -8609.506   $ Sizing
..

##include Templates\OfS_DX_SZ.inp
END ..
COMPUTE ..
STOP ..
