INPUT ..

##fileprefix C:\Users\jglasskatz\MASControl3\
##set1 IsSizing FALSE
##set1 CoolType DX
##set1 HeatType FURNACE
##set1 EU_HrRepVar 0
##set1 BldgVint 2017
##set1 BldgLoc CZ12

 ##set1 mBFMult 1   $ IP Tech: RefgChg-NRes-Std

PARAMETER
 "AltFactor" = 1.00062   $ IP Non-Tech
 "BF_fFlow" = SpltAC1Sp-ge45_BF_fFlow   $ Msr (Multi)TechID: StdNResSplitAC-45to55
 "BF_fT" = SpltAC1Sp-ge45_BF_fT   $ Msr (Multi)TechID: StdNResSplitAC-45to55
 "BldgEconoFlag" = 1   $ IP Non-Tech
 "Break_EWSF" = 1   $ IP Non-Tech
 "Break_LWSF" = 0.9   $ IP Non-Tech
 "CDD_DBHi10" = 83   $ IP Non-Tech
 "CDD_DBHi7" = 101   $ IP Non-Tech
 "CDD_DBHi8" = 99   $ IP Non-Tech
 "CDD_DBHi9" = 98   $ IP Non-Tech
 "CDD_DBRange10" = 23   $ IP Non-Tech
 "CDD_DBRange7" = 30   $ IP Non-Tech
 "CDD_DBRange8" = 34   $ IP Non-Tech
 "CDD_DBRange9" = 34   $ IP Non-Tech
 "CDD_Day10" = 15   $ IP Non-Tech
 "CDD_Day7" = 16   $ IP Non-Tech
 "CDD_Day8" = 20   $ IP Non-Tech
 "CDD_Day9" = 17   $ IP Non-Tech
 "CDD_HrHi10" = 14   $ IP Non-Tech
 "CDD_HrHi7" = 16   $ IP Non-Tech
 "CDD_HrHi8" = 16   $ IP Non-Tech
 "CDD_HrHi9" = 16   $ IP Non-Tech
 "CDD_HrLo10" = 3   $ IP Non-Tech
 "CDD_HrLo7" = 4   $ IP Non-Tech
 "CDD_HrLo8" = 8   $ IP Non-Tech
 "CDD_HrLo9" = 7   $ IP Non-Tech
 "CDD_WB10" = 61.40390396   $ IP Non-Tech
 "CDD_WB7" = 71.25247955   $ IP Non-Tech
 "CDD_WB8" = 68.94035339   $ IP Non-Tech
 "CDD_WB9" = 66.54764557   $ IP Non-Tech
 "CEIR_fPLR_Hot" = SpltAC1Sp-ge45_CEIR_fPLR_Hot   $ Msr (Multi)TechID: StdNResSplitAC-45to55
 "CEIR_fPLR_Mod" = SpltAC1Sp-ge45_CEIR_fPLR_Mod   $ Msr (Multi)TechID: StdNResSplitAC-45to55
 "CEIR_fPLR_Tem" = SpltAC1Sp-ge45_CEIR_fPLR_Tem   $ Msr (Multi)TechID: StdNResSplitAC-45to55
 "CLoss_fPLR_Hot" = SpltAC1Sp-ge45_CLoss_fPLR_Hot   $ Msr (Multi)TechID: StdNResSplitAC-45to55
 "CLoss_fPLR_Mod" = SpltAC1Sp-ge45_CLoss_fPLR_Mod   $ Msr (Multi)TechID: StdNResSplitAC-45to55
 "CLoss_fPLR_Tem" = SpltAC1Sp-ge45_CLoss_fPLR_Tem   $ Msr (Multi)TechID: StdNResSplitAC-45to55
 "COP47" = 0   $ Msr (Multi)TechID: StdNResSplitAC-45to55
 "CZ_Category" = Mod   $ IP Non-Tech
 "CapRange" = ge45   $ Msr (Multi)TechID: StdNResSplitAC-45to55
 "CfmPerBtuh" = 0.03263   $ Msr (Multi)TechID: StdNResSplitAC-45to55
 "ChwVintEconoFlag" = 1   $ IP Non-Tech
 "ClCap_fT" = SpltAC1Sp-ge45_ClCap_fT   $ Msr (Multi)TechID: StdNResSplitAC-45to55
 "ClSH_fT" = SpltAC1Sp-ge45_ClSH_fT   $ Msr (Multi)TechID: StdNResSplitAC-45to55
 "CoilBF" = 0.106518182   $ Msr (Multi)TechID: StdNResSplitAC-45to55
 "CompRoomData_EWSF" = 5   $ IP Non-Tech
 "CompRoomData_LWSF" = 1.05   $ IP Non-Tech
 "CondWPerBtuh" = 0   $ Msr (Multi)TechID: StdNResSplitAC-45to55
 "Conference_EWSF" = 1   $ IP Non-Tech
 "Conference_LWSF" = 1.2   $ IP Non-Tech
 "CoolSensCap" = 0.759218182   $ Msr (Multi)TechID: StdNResSplitAC-45to55
 "CoolSetT" = 45   $ IP Non-Tech
 "CoolType" = DX   $ IP Non-Tech
 "CoolingEIR" = 0.2466   $ Msr (Multi)TechID: StdNResSplitAC-45to55
 "CopyRoom_EWSF" = 1.5   $ IP Non-Tech
 "CopyRoom_LWSF" = 1.3   $ IP Non-Tech
 "CrnkEIR" = 0.002466   $ Msr (Multi)TechID: StdNResSplitAC-45to55
 "CrnkMaxT" = 50   $ Msr (Multi)TechID: StdNResSplitAC-45to55
 "DXType" = SplitSEER   $ Msr (Multi)TechID: StdNResSplitAC-45to55
 "DesCoolT" = 75   $ IP Non-Tech
 "DesHeatT" = 73   $ IP Non-Tech
 "EER" = 11.81793103   $ Msr (Multi)TechID: StdNResSplitAC-45to55
 "EIR_fT" = SpltAC1Sp-ge45_EIR_fT   $ Msr (Multi)TechID: StdNResSplitAC-45to55
 "EconoCtrl" = FIXED   $ Msr (Multi)TechID: StdNResSplitAC-45to55
 "EconoEnthLimit" = 28   $ IP Non-Tech
 "EconoTempLimit" = 75   $ IP Non-Tech
 "Elevation" = 16   $ IP Non-Tech
 "FanEirPlr" = TwoSpeedFan   $ Msr (Multi)TechID: StdNResSplitAC-45to55
 "FanWPerCfm" = 0.294   $ Msr (Multi)TechID: StdNResSplitAC-45to55
 "HDD_CloudAmt1" = 0   $ IP Non-Tech
 "HDD_DBHi1" = 50   $ IP Non-Tech
 "HDD_DBRange1" = 21   $ IP Non-Tech
 "HDD_Day1" = 15   $ IP Non-Tech
 "HDD_HrHi1" = 16   $ IP Non-Tech
 "HDD_HrLo1" = 8   $ IP Non-Tech
 "HDD_WB1" = 43.9   $ IP Non-Tech
 "HDD_WindSpd1" = 13.8   $ IP Non-Tech
 "HIR_fT" = 0   $ Msr (Multi)TechID: StdNResSplitAC-45to55
 "HSPF" = 0   $ Msr (Multi)TechID: StdNResSplitAC-45to55
 "Hall_EWSF" = 0.2   $ IP Non-Tech
 "Hall_LWSF" = 0.6   $ IP Non-Tech
 "HeatSrc" = FURNACE   $ IP Non-Tech
 "HeatSrcTU" = HEAT-PUMP   $ IP Non-Tech
 "HeatType" = GasFurn   $ IP Non-Tech
 "HeatTypeTU" = HEAT-PUMP   $ IP Non-Tech
 "HtCap_fT" = 0   $ Msr (Multi)TechID: StdNResSplitAC-45to55
 "HtCoolCapRatio" = 0   $ Msr (Multi)TechID: StdNResSplitAC-45to55
 "HtgEIR" = 0   $ Msr (Multi)TechID: StdNResSplitAC-45to55
 "IndoorFanMode" = CONTINUOUS   $ IP Non-Tech
 "KT_TransferAir" = Yes   $ IP Non-Tech
 "Latitude" = 38.5   $ IP Non-Tech
 "LobbyWaiting_EWSF" = 0.5   $ IP Non-Tech
 "LobbyWaiting_LWSF" = 0.875   $ IP Non-Tech
 "Longitude" = 121.5   $ IP Non-Tech
 "LowSpdCapRatio" = 1   $ Msr (Multi)TechID: StdNResSplitAC-45to55
 "LowSpdCfmRatio" = 1   $ Msr (Multi)TechID: StdNResSplitAC-45to55
 "MZFanMechEff" = 0.58   $ IP Non-Tech
 "MZHasRetFan" = FALSE   $ IP Non-Tech
 "MZ_RFanWPerCfm" = 0.33   $ IP Non-Tech
 "MZ_SFanWPerCfm" = 0.75   $ IP Non-Tech
 "MZ_SupFanStatic" = 2.25   $ IP Non-Tech
 "MaxOAFrac" = 1   $ Msr (Multi)TechID: StdNResSplitAC-45to55
 "MaxSupT_MZ" = 100   $ IP Non-Tech
 "MaxSupT_SZ" = 100   $ IP Non-Tech
 "MaxSupT_TU" = 90   $ IP Non-Tech
 "MechElecRoom_EWSF" = 0.2   $ IP Non-Tech
 "MechElecRoom_LWSF" = 0.55   $ IP Non-Tech
 "MinCfmPerSF" = 0.4   $ IP Non-Tech
 "MinSupT" = 55   $ IP Non-Tech
 "NumStages" = 1   $ Msr (Multi)TechID: StdNResSplitAC-45to55
 "OccCoolT" = 76   $ IP Non-Tech
 "OccHeatT" = 72   $ IP Non-Tech
 "OfficeOpen_EWSF" = 1.5   $ IP Non-Tech
 "OfficeOpen_LWSF" = 1.05   $ IP Non-Tech
 "OfficeSmall_EWSF" = 1.5   $ IP Non-Tech
 "OfficeSmall_LWSF" = 1.3   $ IP Non-Tech
 "PkgDxVintEconoFlag" = 1   $ IP Non-Tech
 "Restroom_EWSF" = 0.2   $ IP Non-Tech
 "Restroom_LWSF" = 0.6   $ IP Non-Tech
 "SEER" = 14   $ Msr (Multi)TechID: StdNResSplitAC-45to55
 "SZFanMechEff" = 0.58   $ IP Non-Tech
 "SZHasRetFan" = FALSE   $ IP Non-Tech
 "SZ_Is_2Spd" = TRUE   $ IP Non-Tech
 "SZ_SFanWPerCfm" = 0.46   $ IP Non-Tech
 "SZ_SupFanStatic" = 0.75   $ IP Non-Tech
 "Sector" = Any   $ Msr (Multi)TechID: StdNResSplitAC-45to55
 "StorageSmlCond_EWSF" = 0.2   $ IP Non-Tech
 "StorageSmlCond_LWSF" = 0.6   $ IP Non-Tech
 "SubType" = AC   $ Msr (Multi)TechID: StdNResSplitAC-45to55
 "TermUnitFanMechEff" = 1   $ IP Non-Tech
 "TermUnitFanMode" = INTERMITTENT   $ IP Non-Tech
 "TotCoolCap" = 52519.36364   $ Msr (Multi)TechID: StdNResSplitAC-45to55
 "TwrSetpt" = 82.3   $ IP Non-Tech
 "UnocCoolT" = 86   $ IP Non-Tech
 "UnocHeatT" = 62   $ IP Non-Tech
 "UseEconoVintApplic" = FALSE   $ Msr (Multi)TechID: StdNResSplitAC-45to55
 "WlhpVintEconoFlag" = 1   $ IP Non-Tech
 "DuctDT" = 1   $ IP Tech: ComDuctInsul-1
 "DuctAirLoss" = 0   $ IP Tech: ComDuctLeak-0
 "DuctLossOAFrac" = 0   $ IP Tech: ComDuctLeak-0
 "ComRoofInsCalc" = FromUo   $ IP Tech: ComRoofIns-WFrm-0.03
 "ComRoofInsR" = -999   $ IP Tech: ComRoofIns-WFrm-0.03
 "ComRoofUo" = 0.03   $ IP Tech: ComRoofIns-WFrm-0.03
 "ComEWInsCalc" = FromUo   $ IP Tech: ComWallIns-WFrm-0.06
 "ComEWInsR" = -999   $ IP Tech: ComWallIns-WFrm-0.06
 "ComEWUo" = 0.06   $ IP Tech: ComWallIns-WFrm-0.06
 "ComN_SHGC" = 0.25   $ IP Tech: NResWin-ComN-0.36-0.25
 "ComN_UFactor" = 0.36   $ IP Tech: NResWin-ComN-0.36-0.25
 "ComN_VisTrans" = 0.41   $ IP Tech: NResWin-ComN-0.36-0.25
 "ComN_WinCode" = G2668   $ IP Tech: NResWin-ComN-0.36-0.25
 "ComN_WinFrmFrac" = 0.17   $ IP Tech: NResWin-ComN-0.36-0.25
 "ComN_WinFrmU" = 0.3   $ IP Tech: NResWin-ComN-0.36-0.25
 "ComO_SHGC" = 0.25   $ IP Tech: NResWin-ComO-0.36-0.25
 "ComO_UFactor" = 0.36   $ IP Tech: NResWin-ComO-0.36-0.25
 "ComO_VisTrans" = 0.41   $ IP Tech: NResWin-ComO-0.36-0.25
 "ComO_WinCode" = G2668   $ IP Tech: NResWin-ComO-0.36-0.25
 "ComO_WinFrmFrac" = 0.17   $ IP Tech: NResWin-ComO-0.36-0.25
 "ComO_WinFrmU" = 0.3   $ IP Tech: NResWin-ComO-0.36-0.25
 "LtgMsrApplic" = ALL   $ IP Tech: NonResLtgRefPre
 "LtgSav_CFL" = 0   $ IP Tech: NonResLtgRefPre
 "LtgSav_EX" = 0   $ IP Tech: NonResLtgRefPre
 "LtgSav_HB" = 0   $ IP Tech: NonResLtgRefPre
 "LtgSav_LF" = 0   $ IP Tech: NonResLtgRefPre
 "LtgSav_SP" = 0   $ IP Tech: NonResLtgRefPre
 "CEIR_fPLR" = PSZ65to135_CEIR_fPLR   $ IP Tech: PkgAC2SpP-65to135-E11
 "CLoss_fPLR" = PSZ65to135_CLoss_fPLR   $ IP Tech: PkgAC2SpP-65to135-E11
 "COP" = -1   $ IP Tech: PkgAC2SpP-65to135-E11
 "HtgFuel" = Gas   $ IP Tech: PkgAC2SpP-65to135-E11
 "IEER" = 13.35   $ IP Tech: PkgAC2SpP-65to135-E11
 "NominalCap" = 15   $ IP Tech: PkgAC2SpP-65to135-E11
 "RatedEER" = 11   $ IP Tech: PkgAC2SpP-65to135-E11
 "RatedSupMtrClass" = Premium   $ IP Tech: PkgAC2SpP-65to135-E11
 "SizeRange" = 65to135   $ IP Tech: PkgAC2SpP-65to135-E11
 "SupMotEff" = 0.865   $ IP Tech: PkgAC2SpP-65to135-E11
 "Tier" = 0   $ IP Tech: PkgAC2SpP-65to135-E11
 "FanPwrMult" = 1   $ IP Tech: PkgFurn-0.80AFUE
 "FurnAFUE" = 0.8   $ IP Tech: PkgFurn-0.80AFUE
 "FurnEt" = 0.82   $ IP Tech: PkgFurn-0.80AFUE
 "FurnaceAuxKW" = 0.1   $ IP Tech: PkgFurn-0.80AFUE
 "HIR_fPLR" = Furnace-HIR-fPLR   $ IP Tech: PkgFurn-0.80AFUE
 "VSM" = FALSE   $ IP Tech: PkgFurn-0.80AFUE
 "BFMult" = 1   $ IP Tech: RefgChg-NRes-Std
 "CoolEirMult" = 1   $ IP Tech: RefgChg-NRes-Std
 "SensCoolCapMult" = 1   $ IP Tech: RefgChg-NRes-Std
 "TotCoolCapMult" = 1   $ IP Tech: RefgChg-NRes-Std
 "AltAdjFactor" = 1.000622   $ Sizing
 "CAssFlo_L_Break_CZn" = 443.9012   $ Sizing
 "CAssFlo_L_CompDC_CZn" = 147.9283   $ Sizing
 "CAssFlo_L_Conf_CZn" = 255.6015   $ Sizing
 "CAssFlo_L_CopyRm_CZn" = 93.55772   $ Sizing
 "CAssFlo_L_Hall_EZn" = 95.31906   $ Sizing
 "CAssFlo_L_Hall_NZn" = 57.11266   $ Sizing
 "CAssFlo_L_Hall_SZn" = 95.12175   $ Sizing
 "CAssFlo_L_Hall_WZn" = 105.2458   $ Sizing
 "CAssFlo_L_LobWait_EZn" = 223.5817   $ Sizing
 "CAssFlo_L_LobWait_NZn" = 152.1003   $ Sizing
 "CAssFlo_L_LobWait_SZn" = 227.0203   $ Sizing
 "CAssFlo_L_LobWait_WZn" = 264.3681   $ Sizing
 "CAssFlo_L_MechElec_CZn" = 66.39832   $ Sizing
 "CAssFlo_L_OfficeOpn_CZn" = 63.11636   $ Sizing
 "CAssFlo_L_OfficeOpn_EZn" = 426.4519   $ Sizing
 "CAssFlo_L_OfficeOpn_NZn" = 336.2044   $ Sizing
 "CAssFlo_L_OfficeOpn_SZn" = 421.6478   $ Sizing
 "CAssFlo_L_OfficeOpn_WZn" = 481.0493   $ Sizing
 "CAssFlo_L_OfficeSm_EZn" = 354.9651   $ Sizing
 "CAssFlo_L_OfficeSm_NZn" = 261.7826   $ Sizing
 "CAssFlo_L_OfficeSm_SZn" = 359.5185   $ Sizing
 "CAssFlo_L_OfficeSm_WZn" = 405.4581   $ Sizing
 "CAssFlo_L_Restrm_CZn" = 82.98285   $ Sizing
 "CAssFlo_L_StorSm_CZn" = 34.6324   $ Sizing
 "CAssFlo_L_StorSm_EZn" = 94.2028   $ Sizing
 "CAssFlo_L_StorSm_NZn" = 55.66911   $ Sizing
 "CAssFlo_L_StorSm_SZn" = 94.00918   $ Sizing
 "CAssFlo_L_StorSm_WZn" = 104.1394   $ Sizing
 "CAssFlo_T_Conf_CZn" = 245.8123   $ Sizing
 "CAssFlo_T_Hall_EZn" = 108.4679   $ Sizing
 "CAssFlo_T_Hall_NZn" = 63.75784   $ Sizing
 "CAssFlo_T_Hall_SZn" = 105.2955   $ Sizing
 "CAssFlo_T_Hall_WZn" = 115.3511   $ Sizing
 "CAssFlo_T_OfficeOpn_CZn" = 61.13898   $ Sizing
 "CAssFlo_T_OfficeOpn_EZn" = 452.9748   $ Sizing
 "CAssFlo_T_OfficeOpn_NZn" = 343.5585   $ Sizing
 "CAssFlo_T_OfficeOpn_SZn" = 442.1118   $ Sizing
 "CAssFlo_T_OfficeOpn_WZn" = 492.0551   $ Sizing
 "CAssFlo_T_OfficeSm_EZn" = 382.6433   $ Sizing
 "CAssFlo_T_OfficeSm_NZn" = 271.9875   $ Sizing
 "CAssFlo_T_OfficeSm_SZn" = 379.8792   $ Sizing
 "CAssFlo_T_OfficeSm_WZn" = 417.6943   $ Sizing
 "CAssFlo_T_Restrm_CZn" = 124.2457   $ Sizing
 "CAssFlo_T_StorSm_EZn" = 112.5404   $ Sizing
 "CAssFlo_T_StorSm_NZn" = 68.49744   $ Sizing
 "CAssFlo_T_StorSm_SZn" = 110.6936   $ Sizing
 "CAssFlo_T_StorSm_WZn" = 122.8617   $ Sizing
 "CHRtFlo_Sys_L_Break_C" = 443.9012   $ Sizing
 "CHRtFlo_Sys_L_CompDC_C" = 175.6471   $ Sizing
 "CHRtFlo_Sys_L_Conf_C" = 255.6015   $ Sizing
 "CHRtFlo_Sys_L_CopyRm_C" = 93.55772   $ Sizing
 "CHRtFlo_Sys_L_Hall_E" = 114.4324   $ Sizing
 "CHRtFlo_Sys_L_Hall_N" = 57.11266   $ Sizing
 "CHRtFlo_Sys_L_Hall_S" = 114.1052   $ Sizing
 "CHRtFlo_Sys_L_Hall_W" = 111.9858   $ Sizing
 "CHRtFlo_Sys_L_LobWait_E" = 261.2522   $ Sizing
 "CHRtFlo_Sys_L_LobWait_N" = 152.1003   $ Sizing
 "CHRtFlo_Sys_L_LobWait_S" = 257.1483   $ Sizing
 "CHRtFlo_Sys_L_LobWait_W" = 264.3681   $ Sizing
 "CHRtFlo_Sys_L_MechElec_C" = 91.99998   $ Sizing
 "CHRtFlo_Sys_L_OfficeOpn_C" = 80.74548   $ Sizing
 "CHRtFlo_Sys_L_OfficeOpn_E" = 506.4976   $ Sizing
 "CHRtFlo_Sys_L_OfficeOpn_N" = 336.2044   $ Sizing
 "CHRtFlo_Sys_L_OfficeOpn_S" = 482.5117   $ Sizing
 "CHRtFlo_Sys_L_OfficeOpn_W" = 484.197   $ Sizing
 "CHRtFlo_Sys_L_OfficeSm_E" = 428.4079   $ Sizing
 "CHRtFlo_Sys_L_OfficeSm_N" = 261.7826   $ Sizing
 "CHRtFlo_Sys_L_OfficeSm_S" = 419.6982   $ Sizing
 "CHRtFlo_Sys_L_OfficeSm_W" = 417.7945   $ Sizing
 "CHRtFlo_Sys_L_Restrm_C" = 98.07717   $ Sizing
 "CHRtFlo_Sys_L_StorSm_C" = 43.34688   $ Sizing
 "CHRtFlo_Sys_L_StorSm_E" = 112.9787   $ Sizing
 "CHRtFlo_Sys_L_StorSm_N" = 57.40085   $ Sizing
 "CHRtFlo_Sys_L_StorSm_S" = 108.5203   $ Sizing
 "CHRtFlo_Sys_L_StorSm_W" = 104.9447   $ Sizing
 "CHRtFlo_Sys_T_Conf_C" = 245.8123   $ Sizing
 "CHRtFlo_Sys_T_Hall_E" = 120.8087   $ Sizing
 "CHRtFlo_Sys_T_Hall_N" = 63.75784   $ Sizing
 "CHRtFlo_Sys_T_Hall_S" = 121.4887   $ Sizing
 "CHRtFlo_Sys_T_Hall_W" = 115.3511   $ Sizing
 "CHRtFlo_Sys_T_OfficeOpn_C" = 72.39461   $ Sizing
 "CHRtFlo_Sys_T_OfficeOpn_E" = 489.1737   $ Sizing
 "CHRtFlo_Sys_T_OfficeOpn_N" = 343.5585   $ Sizing
 "CHRtFlo_Sys_T_OfficeOpn_S" = 490.2416   $ Sizing
 "CHRtFlo_Sys_T_OfficeOpn_W" = 492.0551   $ Sizing
 "CHRtFlo_Sys_T_OfficeSm_E" = 420.2088   $ Sizing
 "CHRtFlo_Sys_T_OfficeSm_N" = 271.9875   $ Sizing
 "CHRtFlo_Sys_T_OfficeSm_S" = 432.3943   $ Sizing
 "CHRtFlo_Sys_T_OfficeSm_W" = 417.6943   $ Sizing
 "CHRtFlo_Sys_T_Restrm_C" = 141.9098   $ Sizing
 "CHRtFlo_Sys_T_StorSm_E" = 121.9817   $ Sizing
 "CHRtFlo_Sys_T_StorSm_N" = 68.49744   $ Sizing
 "CHRtFlo_Sys_T_StorSm_S" = 119.0534   $ Sizing
 "CHRtFlo_Sys_T_StorSm_W" = 122.8617   $ Sizing
 "CRtdFlo_Sys_L_Break_C" = 443.9012   $ Sizing
 "CRtdFlo_Sys_L_CompDC_C" = 147.9283   $ Sizing
 "CRtdFlo_Sys_L_Conf_C" = 255.6015   $ Sizing
 "CRtdFlo_Sys_L_CopyRm_C" = 93.55772   $ Sizing
 "CRtdFlo_Sys_L_Hall_E" = 95.31906   $ Sizing
 "CRtdFlo_Sys_L_Hall_N" = 57.11266   $ Sizing
 "CRtdFlo_Sys_L_Hall_S" = 95.12175   $ Sizing
 "CRtdFlo_Sys_L_Hall_W" = 105.2458   $ Sizing
 "CRtdFlo_Sys_L_LobWait_E" = 223.5817   $ Sizing
 "CRtdFlo_Sys_L_LobWait_N" = 152.1003   $ Sizing
 "CRtdFlo_Sys_L_LobWait_S" = 227.0203   $ Sizing
 "CRtdFlo_Sys_L_LobWait_W" = 264.3681   $ Sizing
 "CRtdFlo_Sys_L_MechElec_C" = 66.39832   $ Sizing
 "CRtdFlo_Sys_L_OfficeOpn_C" = 63.11636   $ Sizing
 "CRtdFlo_Sys_L_OfficeOpn_E" = 426.4519   $ Sizing
 "CRtdFlo_Sys_L_OfficeOpn_N" = 336.2044   $ Sizing
 "CRtdFlo_Sys_L_OfficeOpn_S" = 421.6478   $ Sizing
 "CRtdFlo_Sys_L_OfficeOpn_W" = 481.0493   $ Sizing
 "CRtdFlo_Sys_L_OfficeSm_E" = 354.9651   $ Sizing
 "CRtdFlo_Sys_L_OfficeSm_N" = 261.7826   $ Sizing
 "CRtdFlo_Sys_L_OfficeSm_S" = 359.5185   $ Sizing
 "CRtdFlo_Sys_L_OfficeSm_W" = 405.4581   $ Sizing
 "CRtdFlo_Sys_L_Restrm_C" = 82.98285   $ Sizing
 "CRtdFlo_Sys_L_StorSm_C" = 34.6324   $ Sizing
 "CRtdFlo_Sys_L_StorSm_E" = 94.2028   $ Sizing
 "CRtdFlo_Sys_L_StorSm_N" = 55.66911   $ Sizing
 "CRtdFlo_Sys_L_StorSm_S" = 94.00918   $ Sizing
 "CRtdFlo_Sys_L_StorSm_W" = 104.1394   $ Sizing
 "CRtdFlo_Sys_T_Conf_C" = 245.8123   $ Sizing
 "CRtdFlo_Sys_T_Hall_E" = 108.4679   $ Sizing
 "CRtdFlo_Sys_T_Hall_N" = 63.75784   $ Sizing
 "CRtdFlo_Sys_T_Hall_S" = 105.2955   $ Sizing
 "CRtdFlo_Sys_T_Hall_W" = 115.3511   $ Sizing
 "CRtdFlo_Sys_T_OfficeOpn_C" = 61.13898   $ Sizing
 "CRtdFlo_Sys_T_OfficeOpn_E" = 452.9748   $ Sizing
 "CRtdFlo_Sys_T_OfficeOpn_N" = 343.5585   $ Sizing
 "CRtdFlo_Sys_T_OfficeOpn_S" = 442.1118   $ Sizing
 "CRtdFlo_Sys_T_OfficeOpn_W" = 492.0551   $ Sizing
 "CRtdFlo_Sys_T_OfficeSm_E" = 382.6433   $ Sizing
 "CRtdFlo_Sys_T_OfficeSm_N" = 271.9875   $ Sizing
 "CRtdFlo_Sys_T_OfficeSm_S" = 379.8792   $ Sizing
 "CRtdFlo_Sys_T_OfficeSm_W" = 417.6943   $ Sizing
 "CRtdFlo_Sys_T_Restrm_C" = 124.2457   $ Sizing
 "CRtdFlo_Sys_T_StorSm_E" = 112.5404   $ Sizing
 "CRtdFlo_Sys_T_StorSm_N" = 68.49744   $ Sizing
 "CRtdFlo_Sys_T_StorSm_S" = 110.6936   $ Sizing
 "CRtdFlo_Sys_T_StorSm_W" = 122.8617   $ Sizing
 "CSupFlo_Sys_L_Break_C" = 443.9012   $ Sizing
 "CSupFlo_Sys_L_CompDC_C" = 147.9283   $ Sizing
 "CSupFlo_Sys_L_Conf_C" = 255.6015   $ Sizing
 "CSupFlo_Sys_L_CopyRm_C" = 93.55772   $ Sizing
 "CSupFlo_Sys_L_Hall_E" = 95.31906   $ Sizing
 "CSupFlo_Sys_L_Hall_N" = 57.11266   $ Sizing
 "CSupFlo_Sys_L_Hall_S" = 95.12175   $ Sizing
 "CSupFlo_Sys_L_Hall_W" = 105.2458   $ Sizing
 "CSupFlo_Sys_L_LobWait_E" = 223.5817   $ Sizing
 "CSupFlo_Sys_L_LobWait_N" = 152.1003   $ Sizing
 "CSupFlo_Sys_L_LobWait_S" = 227.0203   $ Sizing
 "CSupFlo_Sys_L_LobWait_W" = 264.3681   $ Sizing
 "CSupFlo_Sys_L_MechElec_C" = 66.39832   $ Sizing
 "CSupFlo_Sys_L_OfficeOpn_C" = 63.11636   $ Sizing
 "CSupFlo_Sys_L_OfficeOpn_E" = 426.4519   $ Sizing
 "CSupFlo_Sys_L_OfficeOpn_N" = 336.2044   $ Sizing
 "CSupFlo_Sys_L_OfficeOpn_S" = 421.6478   $ Sizing
 "CSupFlo_Sys_L_OfficeOpn_W" = 481.0493   $ Sizing
 "CSupFlo_Sys_L_OfficeSm_E" = 354.9651   $ Sizing
 "CSupFlo_Sys_L_OfficeSm_N" = 261.7826   $ Sizing
 "CSupFlo_Sys_L_OfficeSm_S" = 359.5185   $ Sizing
 "CSupFlo_Sys_L_OfficeSm_W" = 405.4581   $ Sizing
 "CSupFlo_Sys_L_Restrm_C" = 82.98285   $ Sizing
 "CSupFlo_Sys_L_StorSm_C" = 34.6324   $ Sizing
 "CSupFlo_Sys_L_StorSm_E" = 94.2028   $ Sizing
 "CSupFlo_Sys_L_StorSm_N" = 55.66911   $ Sizing
 "CSupFlo_Sys_L_StorSm_S" = 94.00918   $ Sizing
 "CSupFlo_Sys_L_StorSm_W" = 104.1394   $ Sizing
 "CSupFlo_Sys_T_Conf_C" = 245.8123   $ Sizing
 "CSupFlo_Sys_T_Hall_E" = 108.4679   $ Sizing
 "CSupFlo_Sys_T_Hall_N" = 63.75784   $ Sizing
 "CSupFlo_Sys_T_Hall_S" = 105.2955   $ Sizing
 "CSupFlo_Sys_T_Hall_W" = 115.3511   $ Sizing
 "CSupFlo_Sys_T_OfficeOpn_C" = 61.13898   $ Sizing
 "CSupFlo_Sys_T_OfficeOpn_E" = 452.9748   $ Sizing
 "CSupFlo_Sys_T_OfficeOpn_N" = 343.5585   $ Sizing
 "CSupFlo_Sys_T_OfficeOpn_S" = 442.1118   $ Sizing
 "CSupFlo_Sys_T_OfficeOpn_W" = 492.0551   $ Sizing
 "CSupFlo_Sys_T_OfficeSm_E" = 382.6433   $ Sizing
 "CSupFlo_Sys_T_OfficeSm_N" = 271.9875   $ Sizing
 "CSupFlo_Sys_T_OfficeSm_S" = 379.8792   $ Sizing
 "CSupFlo_Sys_T_OfficeSm_W" = 417.6943   $ Sizing
 "CSupFlo_Sys_T_Restrm_C" = 124.2457   $ Sizing
 "CSupFlo_Sys_T_StorSm_E" = 112.5404   $ Sizing
 "CSupFlo_Sys_T_StorSm_N" = 68.49744   $ Sizing
 "CSupFlo_Sys_T_StorSm_S" = 110.6936   $ Sizing
 "CSupFlo_Sys_T_StorSm_W" = 122.8617   $ Sizing
 "ClCap_Sys_L_Break_C" = 15210   $ Sizing
 "ClCap_Sys_L_CompDC_C" = 5068.671   $ Sizing
 "ClCap_Sys_L_Conf_C" = 11146.58   $ Sizing
 "ClCap_Sys_L_CopyRm_C" = 3205.698   $ Sizing
 "ClCap_Sys_L_Hall_E" = 3266.049   $ Sizing
 "ClCap_Sys_L_Hall_N" = 1956.93   $ Sizing
 "ClCap_Sys_L_Hall_S" = 3259.289   $ Sizing
 "ClCap_Sys_L_Hall_W" = 3606.182   $ Sizing
 "ClCap_Sys_L_LobWait_E" = 7660.889   $ Sizing
 "ClCap_Sys_L_LobWait_N" = 5211.625   $ Sizing
 "ClCap_Sys_L_LobWait_S" = 7778.712   $ Sizing
 "ClCap_Sys_L_LobWait_W" = 9058.41   $ Sizing
 "ClCap_Sys_L_MechElec_C" = 2275.098   $ Sizing
 "ClCap_Sys_L_OfficeOpn_C" = 2162.643   $ Sizing
 "ClCap_Sys_L_OfficeOpn_E" = 14612.11   $ Sizing
 "ClCap_Sys_L_OfficeOpn_N" = 11519.84   $ Sizing
 "ClCap_Sys_L_OfficeOpn_S" = 14447.5   $ Sizing
 "ClCap_Sys_L_OfficeOpn_W" = 16482.86   $ Sizing
 "ClCap_Sys_L_OfficeSm_E" = 12162.66   $ Sizing
 "ClCap_Sys_L_OfficeSm_N" = 8969.82   $ Sizing
 "ClCap_Sys_L_OfficeSm_S" = 12318.68   $ Sizing
 "ClCap_Sys_L_OfficeSm_W" = 13892.77   $ Sizing
 "ClCap_Sys_L_Restrm_C" = 2843.356   $ Sizing
 "ClCap_Sys_L_StorSm_C" = 1186.658   $ Sizing
 "ClCap_Sys_L_StorSm_E" = 3227.802   $ Sizing
 "ClCap_Sys_L_StorSm_N" = 1907.468   $ Sizing
 "ClCap_Sys_L_StorSm_S" = 3221.167   $ Sizing
 "ClCap_Sys_L_StorSm_W" = 3568.272   $ Sizing
 "ClCap_Sys_T_Conf_C" = 10719.68   $ Sizing
 "ClCap_Sys_T_Hall_E" = 3716.587   $ Sizing
 "ClCap_Sys_T_Hall_N" = 2184.623   $ Sizing
 "ClCap_Sys_T_Hall_S" = 3607.887   $ Sizing
 "ClCap_Sys_T_Hall_W" = 3952.434   $ Sizing
 "ClCap_Sys_T_OfficeOpn_C" = 2094.89   $ Sizing
 "ClCap_Sys_T_OfficeOpn_E" = 15520.9   $ Sizing
 "ClCap_Sys_T_OfficeOpn_N" = 11771.82   $ Sizing
 "ClCap_Sys_T_OfficeOpn_S" = 15148.69   $ Sizing
 "ClCap_Sys_T_OfficeOpn_W" = 16859.97   $ Sizing
 "ClCap_Sys_T_OfficeSm_E" = 13111.04   $ Sizing
 "ClCap_Sys_T_OfficeSm_N" = 9319.484   $ Sizing
 "ClCap_Sys_T_OfficeSm_S" = 13016.33   $ Sizing
 "ClCap_Sys_T_OfficeSm_W" = 14312.04   $ Sizing
 "ClCap_Sys_T_Restrm_C" = 4257.203   $ Sizing
 "ClCap_Sys_T_StorSm_E" = 3856.128   $ Sizing
 "ClCap_Sys_T_StorSm_N" = 2347.023   $ Sizing
 "ClCap_Sys_T_StorSm_S" = 3792.849   $ Sizing
 "ClCap_Sys_T_StorSm_W" = 4209.782   $ Sizing
 "HtCap_Sys_L_Break_C" = -26084.34   $ Sizing
 "HtCap_Sys_L_CompDC_C" = -6366.437   $ Sizing
 "HtCap_Sys_L_Conf_C" = -15543.4   $ Sizing
 "HtCap_Sys_L_CopyRm_C" = -5482.147   $ Sizing
 "HtCap_Sys_L_Hall_E" = -4226.685   $ Sizing
 "HtCap_Sys_L_Hall_N" = -2381.049   $ Sizing
 "HtCap_Sys_L_Hall_S" = -4086.234   $ Sizing
 "HtCap_Sys_L_Hall_W" = -4078.067   $ Sizing
 "HtCap_Sys_L_LobWait_E" = -10361.49   $ Sizing
 "HtCap_Sys_L_LobWait_N" = -7546.027   $ Sizing
 "HtCap_Sys_L_LobWait_S" = -10255.45   $ Sizing
 "HtCap_Sys_L_LobWait_W" = -10585.46   $ Sizing
 "HtCap_Sys_L_MechElec_C" = -3888.495   $ Sizing
 "HtCap_Sys_L_OfficeOpn_C" = -3157.075   $ Sizing
 "HtCap_Sys_L_OfficeOpn_E" = -18615.15   $ Sizing
 "HtCap_Sys_L_OfficeOpn_N" = -14077.37   $ Sizing
 "HtCap_Sys_L_OfficeOpn_S" = -17570.23   $ Sizing
 "HtCap_Sys_L_OfficeOpn_W" = -18174.45   $ Sizing
 "HtCap_Sys_L_OfficeSm_E" = -15644.37   $ Sizing
 "HtCap_Sys_L_OfficeSm_N" = -10577.7   $ Sizing
 "HtCap_Sys_L_OfficeSm_S" = -14662.02   $ Sizing
 "HtCap_Sys_L_OfficeSm_W" = -15066.25   $ Sizing
 "HtCap_Sys_L_Restrm_C" = -3491.267   $ Sizing
 "HtCap_Sys_L_StorSm_C" = -1753.229   $ Sizing
 "HtCap_Sys_L_StorSm_E" = -4326.342   $ Sizing
 "HtCap_Sys_L_StorSm_N" = -2653.418   $ Sizing
 "HtCap_Sys_L_StorSm_S" = -4191.508   $ Sizing
 "HtCap_Sys_L_StorSm_W" = -4150.662   $ Sizing
 "HtCap_Sys_T_Conf_C" = -15435.03   $ Sizing
 "HtCap_Sys_T_Hall_E" = -4778.01   $ Sizing
 "HtCap_Sys_T_Hall_N" = -2887.084   $ Sizing
 "HtCap_Sys_T_Hall_S" = -4805.868   $ Sizing
 "HtCap_Sys_T_Hall_W" = -4601.597   $ Sizing
 "HtCap_Sys_T_OfficeOpn_C" = -3163.759   $ Sizing
 "HtCap_Sys_T_OfficeOpn_E" = -19729.89   $ Sizing
 "HtCap_Sys_T_OfficeOpn_N" = -15374.47   $ Sizing
 "HtCap_Sys_T_OfficeOpn_S" = -19743.79   $ Sizing
 "HtCap_Sys_T_OfficeOpn_W" = -20088.84   $ Sizing
 "HtCap_Sys_T_OfficeSm_E" = -16552.1   $ Sizing
 "HtCap_Sys_T_OfficeSm_N" = -11948.5   $ Sizing
 "HtCap_Sys_T_OfficeSm_S" = -16895.21   $ Sizing
 "HtCap_Sys_T_OfficeSm_W" = -16582.07   $ Sizing
 "HtCap_Sys_T_Restrm_C" = -5450.908   $ Sizing
 "HtCap_Sys_T_StorSm_E" = -5184.23   $ Sizing
 "HtCap_Sys_T_StorSm_N" = -3442.172   $ Sizing
 "HtCap_Sys_T_StorSm_S" = -4997.953   $ Sizing
 "HtCap_Sys_T_StorSm_W" = -5316.505   $ Sizing
..

##include Templates\OfS_DX_SZ.inp
END ..
COMPUTE ..
STOP ..
