INPUT ..

##fileprefix C:\Users\jglasskatz\MASControl3\
##set1 IsSizing FALSE
##set1 CoolType WLHP
##set1 HeatType HEAT-PUMP
##set1 EU_HrRepVar 1
##set1 BldgVint 2017
##set1 BldgLoc CZ01

 ##set1 mHW_FlowCtrl Const   $ IP Tech: HwFlowCtrlCst
 ##set1 mBlrIsCond FALSE   $ IP Tech: WBlr-lt300-82p0AF
 ##set1 mWLHP_FlowCtrl VSD   $ IP Tech: WlhpFlowCtrlVar

PARAMETER
 "AltFactor" = 1.00753   $ IP Non-Tech
 "BldgEconoFlag" = 1   $ IP Non-Tech
 "BlrPrimLp" = WLHPCircLoop   $ IP Non-Tech
 "Break_EWSF" = 1   $ IP Non-Tech
 "Break_LWSF" = 0.9   $ IP Non-Tech
 "CDD_DBHi10" = 65   $ IP Non-Tech
 "CDD_DBHi7" = 68   $ IP Non-Tech
 "CDD_DBHi8" = 66   $ IP Non-Tech
 "CDD_DBHi9" = 77   $ IP Non-Tech
 "CDD_DBRange10" = 17   $ IP Non-Tech
 "CDD_DBRange7" = 11   $ IP Non-Tech
 "CDD_DBRange8" = 10   $ IP Non-Tech
 "CDD_DBRange9" = 29   $ IP Non-Tech
 "CDD_Day10" = 15   $ IP Non-Tech
 "CDD_Day7" = 16   $ IP Non-Tech
 "CDD_Day8" = 20   $ IP Non-Tech
 "CDD_Day9" = 17   $ IP Non-Tech
 "CDD_HrHi10" = 12   $ IP Non-Tech
 "CDD_HrHi7" = 12   $ IP Non-Tech
 "CDD_HrHi8" = 13   $ IP Non-Tech
 "CDD_HrHi9" = 17   $ IP Non-Tech
 "CDD_HrLo10" = 6   $ IP Non-Tech
 "CDD_HrLo7" = 3   $ IP Non-Tech
 "CDD_HrLo8" = 8   $ IP Non-Tech
 "CDD_HrLo9" = 4   $ IP Non-Tech
 "CDD_WB10" = 57.53039551   $ IP Non-Tech
 "CDD_WB7" = 59.29250717   $ IP Non-Tech
 "CDD_WB8" = 60.75350189   $ IP Non-Tech
 "CDD_WB9" = 61.08643341   $ IP Non-Tech
 "CZ_Category" = Tem   $ IP Non-Tech
 "ChwVintEconoFlag" = 1   $ IP Non-Tech
 "CompRoomData_EWSF" = 5   $ IP Non-Tech
 "CompRoomData_LWSF" = 1.05   $ IP Non-Tech
 "Conference_EWSF" = 1   $ IP Non-Tech
 "Conference_LWSF" = 1.2   $ IP Non-Tech
 "CoolSetT" = 45   $ IP Non-Tech
 "CoolType" = WLHP   $ IP Non-Tech
 "CopyRoom_EWSF" = 1.5   $ IP Non-Tech
 "CopyRoom_LWSF" = 1.3   $ IP Non-Tech
 "CwPipeHead" = 40   $ IP Non-Tech
 "DesCoolT" = 75   $ IP Non-Tech
 "DesHeatT" = 73   $ IP Non-Tech
 "EconoEnthLimit" = 28   $ IP Non-Tech
 "EconoTempLimit" = 70   $ IP Non-Tech
 "Elevation" = 203   $ IP Non-Tech
 "HDD_CloudAmt1" = 0   $ IP Non-Tech
 "HDD_DBHi1" = 53   $ IP Non-Tech
 "HDD_DBRange1" = 20   $ IP Non-Tech
 "HDD_Day1" = 15   $ IP Non-Tech
 "HDD_HrHi1" = 14   $ IP Non-Tech
 "HDD_HrLo1" = 6   $ IP Non-Tech
 "HDD_WB1" = 42.3   $ IP Non-Tech
 "HDD_WindSpd1" = 12.7   $ IP Non-Tech
 "Hall_EWSF" = 0.2   $ IP Non-Tech
 "Hall_LWSF" = 0.6   $ IP Non-Tech
 "HeatSrc" = HEAT-PUMP   $ IP Non-Tech
 "HeatSrcTU" = HEAT-PUMP   $ IP Non-Tech
 "HeatType" = WLHP   $ IP Non-Tech
 "HeatTypeTU" = HEAT-PUMP   $ IP Non-Tech
 "IndoorFanMode" = CONTINUOUS   $ IP Non-Tech
 "KT_TransferAir" = Yes   $ IP Non-Tech
 "Latitude" = 40.8   $ IP Non-Tech
 "LobbyWaiting_EWSF" = 0.5   $ IP Non-Tech
 "LobbyWaiting_LWSF" = 0.875   $ IP Non-Tech
 "Longitude" = 124.2   $ IP Non-Tech
 "LtgMsrApplic" = ALL   $ Msr TechID: NonResLtgRefMsr-CFL
 "LtgSav_CFL" = 0.3   $ Msr TechID: NonResLtgRefMsr-CFL
 "LtgSav_EX" = 0   $ Msr TechID: NonResLtgRefMsr-CFL
 "LtgSav_HB" = 0   $ Msr TechID: NonResLtgRefMsr-CFL
 "LtgSav_LF" = 0   $ Msr TechID: NonResLtgRefMsr-CFL
 "LtgSav_SP" = 0   $ Msr TechID: NonResLtgRefMsr-CFL
 "MZFanMechEff" = 0.54   $ IP Non-Tech
 "MZHasRetFan" = FALSE   $ IP Non-Tech
 "MZ_RFanWPerCfm" = 0.33   $ IP Non-Tech
 "MZ_SFanWPerCfm" = 0.75   $ IP Non-Tech
 "MZ_SupFanStatic" = 0.75   $ IP Non-Tech
 "MaxSupT_MZ" = 90   $ IP Non-Tech
 "MaxSupT_SZ" = 90   $ IP Non-Tech
 "MaxSupT_TU" = 90   $ IP Non-Tech
 "MechElecRoom_EWSF" = 0.2   $ IP Non-Tech
 "MechElecRoom_LWSF" = 0.55   $ IP Non-Tech
 "MinCfmPerSF" = 0.4   $ IP Non-Tech
 "MinSupT" = 55   $ IP Non-Tech
 "NumBlrs" = 1   $ IP Non-Tech
 "OccCoolT" = 76   $ IP Non-Tech
 "OccHeatT" = 72   $ IP Non-Tech
 "OfficeOpen_EWSF" = 1.5   $ IP Non-Tech
 "OfficeOpen_LWSF" = 1.05   $ IP Non-Tech
 "OfficeSmall_EWSF" = 1.5   $ IP Non-Tech
 "OfficeSmall_LWSF" = 1.3   $ IP Non-Tech
 "PkgDxVintEconoFlag" = 1   $ IP Non-Tech
 "Restroom_EWSF" = 0.2   $ IP Non-Tech
 "Restroom_LWSF" = 0.6   $ IP Non-Tech
 "SZFanMechEff" = 0.54   $ IP Non-Tech
 "SZHasRetFan" = FALSE   $ IP Non-Tech
 "SZ_Is_2Spd" = TRUE   $ IP Non-Tech
 "SZ_SFanWPerCfm" = 0.46   $ IP Non-Tech
 "SZ_SupFanStatic" = 0.75   $ IP Non-Tech
 "StorageSmlCond_EWSF" = 0.2   $ IP Non-Tech
 "StorageSmlCond_LWSF" = 0.6   $ IP Non-Tech
 "TermUnitFanMechEff" = 1   $ IP Non-Tech
 "TermUnitFanMode" = INTERMITTENT   $ IP Non-Tech
 "TermUnitFanWPerCfm" = 0.175   $ IP Non-Tech
 "TwrEIR" = 0.0329   $ IP Non-Tech
 "TwrPipeHead" = 15   $ IP Non-Tech
 "TwrSetpt" = 80   $ IP Non-Tech
 "TwrStaticHead" = 0   $ IP Non-Tech
 "UnocCoolT" = 86   $ IP Non-Tech
 "UnocHeatT" = 62   $ IP Non-Tech
 "WLHPLoopHeatSetpt" = 65   $ IP Non-Tech
 "WlhpVintEconoFlag" = 1   $ IP Non-Tech
 "EconoCtrl" = OA-TEMP   $ IP Tech: AirEcono-OAT-ByVint
 "MaxOAFrac" = 0.85   $ IP Tech: AirEcono-OAT-ByVint
 "UseEconoVintApplic" = TRUE   $ IP Tech: AirEcono-OAT-ByVint
 "DuctDT" = 1   $ IP Tech: ComDuctInsul-1
 "DuctAirLoss" = 0   $ IP Tech: ComDuctLeak-0
 "DuctLossOAFrac" = 0   $ IP Tech: ComDuctLeak-0
 "ComRoofInsCalc" = FromUo   $ IP Tech: ComRoofIns-WFrm-0.03
 "ComRoofInsR" = -999   $ IP Tech: ComRoofIns-WFrm-0.03
 "ComRoofUo" = 0.03   $ IP Tech: ComRoofIns-WFrm-0.03
 "ComEWInsCalc" = FromUo   $ IP Tech: ComWallIns-WFrm-0.08
 "ComEWInsR" = -999   $ IP Tech: ComWallIns-WFrm-0.08
 "ComEWUo" = 0.08   $ IP Tech: ComWallIns-WFrm-0.08
 "HW_FlowCtrl" = Const   $ IP Tech: HwFlowCtrlCst
 "HW_HdSensLoc" = AT-COILS   $ IP Tech: HwFlowCtrlCst
 "HW_HdSptCtrl" = FIXED   $ IP Tech: HwFlowCtrlCst
 "HWP_Encl" = Any   $ IP Tech: HwPumpMtrEff-PR
 "HWP_MotClass" = PREMIUM   $ IP Tech: HwPumpMtrEff-PR
 "HWP_MotHP" = Any   $ IP Tech: HwPumpMtrEff-PR
 "HWP_NEMA_DC" = Any   $ IP Tech: HwPumpMtrEff-PR
 "HWP_RPM" = Any   $ IP Tech: HwPumpMtrEff-PR
 "HWP_Volt" = Any   $ IP Tech: HwPumpMtrEff-PR
 "ComN_SHGC" = 0.25   $ IP Tech: NResWin-ComN-0.36-0.25
 "ComN_UFactor" = 0.36   $ IP Tech: NResWin-ComN-0.36-0.25
 "ComN_VisTrans" = 0.41   $ IP Tech: NResWin-ComN-0.36-0.25
 "ComN_WinCode" = G2668   $ IP Tech: NResWin-ComN-0.36-0.25
 "ComN_WinFrmFrac" = 0.17   $ IP Tech: NResWin-ComN-0.36-0.25
 "ComN_WinFrmU" = 0.3   $ IP Tech: NResWin-ComN-0.36-0.25
 "ComO_SHGC" = 0.25   $ IP Tech: NResWin-ComO-0.36-0.25
 "ComO_UFactor" = 0.36   $ IP Tech: NResWin-ComO-0.36-0.25
 "ComO_VisTrans" = 0.41   $ IP Tech: NResWin-ComO-0.36-0.25
 "ComO_WinCode" = G2668   $ IP Tech: NResWin-ComO-0.36-0.25
 "ComO_WinFrmFrac" = 0.17   $ IP Tech: NResWin-ComO-0.36-0.25
 "ComO_WinFrmU" = 0.3   $ IP Tech: NResWin-ComO-0.36-0.25
 "TwrFanCtrl" = TWO-SPEED-FAN   $ IP Tech: TwrFanCtrl-2sp
 "TFan_Encl" = Any   $ IP Tech: TwrFanMtrEff-PR
 "TFan_MotClass" = PREMIUM   $ IP Tech: TwrFanMtrEff-PR
 "TFan_MotHP" = Any   $ IP Tech: TwrFanMtrEff-PR
 "TFan_NEMA_DC" = Any   $ IP Tech: TwrFanMtrEff-PR
 "TFan_RPM" = Any   $ IP Tech: TwrFanMtrEff-PR
 "TFan_Volt" = Any   $ IP Tech: TwrFanMtrEff-PR
 "BlrCapRange" = lt300   $ IP Tech: WBlr-lt300-82p0AF
 "BlrDraftType" = FDr   $ IP Tech: WBlr-lt300-82p0AF
 "BlrEff" = 0.82   $ IP Tech: WBlr-lt300-82p0AF
 "BlrEffUnits" = AFUE   $ IP Tech: WBlr-lt300-82p0AF
 "BlrEt" = 0.823   $ IP Tech: WBlr-lt300-82p0AF
 "BlrFluid" = Wtr   $ IP Tech: WBlr-lt300-82p0AF
 "BlrIsCond" = FALSE   $ IP Tech: WBlr-lt300-82p0AF
 "BlrT" = 165   $ IP Tech: WBlr-lt300-82p0AF
 "COP47" = 4.813   $ IP Tech: WLHP2SpP-ge17-E12-C4.2
 "CfmPerBtuh" = 0.033333333   $ IP Tech: WLHP2SpP-ge17-E12-C4.2
 "CoilBF" = 0.15   $ IP Tech: WLHP2SpP-ge17-E12-C4.2
 "CoolingEIR" = 0.23327   $ IP Tech: WLHP2SpP-ge17-E12-C4.2
 "DXType" = WLHP   $ IP Tech: WLHP2SpP-ge17-E12-C4.2
 "EER" = 12   $ IP Tech: WLHP2SpP-ge17-E12-C4.2
 "FanWPerCfm" = 0.35   $ IP Tech: WLHP2SpP-ge17-E12-C4.2
 "HtCoolCapRatio" = 0.88   $ IP Tech: WLHP2SpP-ge17-E12-C4.2
 "HtgEIR" = 0.20776   $ IP Tech: WLHP2SpP-ge17-E12-C4.2
 "NumStages" = 2   $ IP Tech: WLHP2SpP-ge17-E12-C4.2
 "RatedSupMtrClass" = Premium   $ IP Tech: WLHP2SpP-ge17-E12-C4.2
 "SubType" = 2SpP   $ IP Tech: WLHP2SpP-ge17-E12-C4.2
 "UnitCOP" = 4.2   $ IP Tech: WLHP2SpP-ge17-E12-C4.2
 "WLHP_FlowCtrl" = VSD   $ IP Tech: WlhpFlowCtrlVar
 "WLHP_HdSensLoc" = AT-COILS   $ IP Tech: WlhpFlowCtrlVar
 "WLHP_HdSptCtrl" = FIXED   $ IP Tech: WlhpFlowCtrlVar
 "WLHP_Encl" = Any   $ IP Tech: WlhpPumpMtrEff-PR
 "WLHP_MotClass" = PREMIUM   $ IP Tech: WlhpPumpMtrEff-PR
 "WLHP_MotHP" = Any   $ IP Tech: WlhpPumpMtrEff-PR
 "WLHP_NEMA_DC" = Any   $ IP Tech: WlhpPumpMtrEff-PR
 "WLHP_RPM" = Any   $ IP Tech: WlhpPumpMtrEff-PR
 "WLHP_Volt" = Any   $ IP Tech: WlhpPumpMtrEff-PR
 "AltAdjFactor" = 1.007532   $ Sizing
 "CAssFlo_L_Break_CZn" = 272.7714   $ Sizing
 "CAssFlo_L_CompDC_CZn" = 160.0113   $ Sizing
 "CAssFlo_L_Conf_CZn" = 199.6346   $ Sizing
 "CAssFlo_L_CopyRm_CZn" = 58.10136   $ Sizing
 "CAssFlo_L_Hall_EZn" = 80.12971   $ Sizing
 "CAssFlo_L_Hall_NZn" = 75.65073   $ Sizing
 "CAssFlo_L_Hall_SZn" = 93.40069   $ Sizing
 "CAssFlo_L_Hall_WZn" = 85.05733   $ Sizing
 "CAssFlo_L_LobWait_EZn" = 198.2527   $ Sizing
 "CAssFlo_L_LobWait_NZn" = 165.2242   $ Sizing
 "CAssFlo_L_LobWait_SZn" = 213.9705   $ Sizing
 "CAssFlo_L_LobWait_WZn" = 195.9368   $ Sizing
 "CAssFlo_L_MechElec_CZn" = 95.207   $ Sizing
 "CAssFlo_L_OfficeOpn_CZn" = 58.11753   $ Sizing
 "CAssFlo_L_OfficeOpn_EZn" = 438.12   $ Sizing
 "CAssFlo_L_OfficeOpn_NZn" = 197.3898   $ Sizing
 "CAssFlo_L_OfficeOpn_SZn" = 435.4324   $ Sizing
 "CAssFlo_L_OfficeOpn_WZn" = 406.6229   $ Sizing
 "CAssFlo_L_OfficeSm_EZn" = 360.1   $ Sizing
 "CAssFlo_L_OfficeSm_NZn" = 164.8254   $ Sizing
 "CAssFlo_L_OfficeSm_SZn" = 381.6558   $ Sizing
 "CAssFlo_L_OfficeSm_WZn" = 354.281   $ Sizing
 "CAssFlo_L_Restrm_CZn" = 86.07105   $ Sizing
 "CAssFlo_L_StorSm_CZn" = 46.55534   $ Sizing
 "CAssFlo_L_StorSm_EZn" = 81.68335   $ Sizing
 "CAssFlo_L_StorSm_NZn" = 93.77029   $ Sizing
 "CAssFlo_L_StorSm_SZn" = 81.76537   $ Sizing
 "CAssFlo_L_StorSm_WZn" = 80.43045   $ Sizing
 "CAssFlo_T_Conf_CZn" = 204.9203   $ Sizing
 "CAssFlo_T_Hall_EZn" = 98.63793   $ Sizing
 "CAssFlo_T_Hall_NZn" = 69.26899   $ Sizing
 "CAssFlo_T_Hall_SZn" = 110.0684   $ Sizing
 "CAssFlo_T_Hall_WZn" = 97.00471   $ Sizing
 "CAssFlo_T_OfficeOpn_CZn" = 56.95765   $ Sizing
 "CAssFlo_T_OfficeOpn_EZn" = 446.444   $ Sizing
 "CAssFlo_T_OfficeOpn_NZn" = 224.811   $ Sizing
 "CAssFlo_T_OfficeOpn_SZn" = 465.3131   $ Sizing
 "CAssFlo_T_OfficeOpn_WZn" = 413.0818   $ Sizing
 "CAssFlo_T_OfficeSm_EZn" = 375.9508   $ Sizing
 "CAssFlo_T_OfficeSm_NZn" = 175.9507   $ Sizing
 "CAssFlo_T_OfficeSm_SZn" = 411.0692   $ Sizing
 "CAssFlo_T_OfficeSm_WZn" = 361.1866   $ Sizing
 "CAssFlo_T_Restrm_CZn" = 86.07105   $ Sizing
 "CAssFlo_T_StorSm_EZn" = 96.00764   $ Sizing
 "CAssFlo_T_StorSm_NZn" = 91.50124   $ Sizing
 "CAssFlo_T_StorSm_SZn" = 102.8324   $ Sizing
 "CAssFlo_T_StorSm_WZn" = 95.07628   $ Sizing
 "CHRtFlo_Sys_L_Break_C" = 272.7714   $ Sizing
 "CHRtFlo_Sys_L_CompDC_C" = 160.0113   $ Sizing
 "CHRtFlo_Sys_L_Conf_C" = 199.6346   $ Sizing
 "CHRtFlo_Sys_L_CopyRm_C" = 58.10136   $ Sizing
 "CHRtFlo_Sys_L_Hall_E" = 80.12971   $ Sizing
 "CHRtFlo_Sys_L_Hall_N" = 75.65073   $ Sizing
 "CHRtFlo_Sys_L_Hall_S" = 93.40069   $ Sizing
 "CHRtFlo_Sys_L_Hall_W" = 85.05733   $ Sizing
 "CHRtFlo_Sys_L_LobWait_E" = 198.2527   $ Sizing
 "CHRtFlo_Sys_L_LobWait_N" = 165.2242   $ Sizing
 "CHRtFlo_Sys_L_LobWait_S" = 213.9705   $ Sizing
 "CHRtFlo_Sys_L_LobWait_W" = 195.9368   $ Sizing
 "CHRtFlo_Sys_L_MechElec_C" = 95.207   $ Sizing
 "CHRtFlo_Sys_L_OfficeOpn_C" = 58.11753   $ Sizing
 "CHRtFlo_Sys_L_OfficeOpn_E" = 438.12   $ Sizing
 "CHRtFlo_Sys_L_OfficeOpn_N" = 197.3898   $ Sizing
 "CHRtFlo_Sys_L_OfficeOpn_S" = 435.4324   $ Sizing
 "CHRtFlo_Sys_L_OfficeOpn_W" = 406.6229   $ Sizing
 "CHRtFlo_Sys_L_OfficeSm_E" = 360.1   $ Sizing
 "CHRtFlo_Sys_L_OfficeSm_N" = 164.8254   $ Sizing
 "CHRtFlo_Sys_L_OfficeSm_S" = 381.6559   $ Sizing
 "CHRtFlo_Sys_L_OfficeSm_W" = 354.281   $ Sizing
 "CHRtFlo_Sys_L_Restrm_C" = 86.07105   $ Sizing
 "CHRtFlo_Sys_L_StorSm_C" = 46.55534   $ Sizing
 "CHRtFlo_Sys_L_StorSm_E" = 81.68336   $ Sizing
 "CHRtFlo_Sys_L_StorSm_N" = 93.77029   $ Sizing
 "CHRtFlo_Sys_L_StorSm_S" = 81.76537   $ Sizing
 "CHRtFlo_Sys_L_StorSm_W" = 80.43045   $ Sizing
 "CHRtFlo_Sys_T_Conf_C" = 204.9203   $ Sizing
 "CHRtFlo_Sys_T_Hall_E" = 98.63793   $ Sizing
 "CHRtFlo_Sys_T_Hall_N" = 69.26899   $ Sizing
 "CHRtFlo_Sys_T_Hall_S" = 110.0684   $ Sizing
 "CHRtFlo_Sys_T_Hall_W" = 97.00471   $ Sizing
 "CHRtFlo_Sys_T_OfficeOpn_C" = 56.95766   $ Sizing
 "CHRtFlo_Sys_T_OfficeOpn_E" = 446.444   $ Sizing
 "CHRtFlo_Sys_T_OfficeOpn_N" = 224.811   $ Sizing
 "CHRtFlo_Sys_T_OfficeOpn_S" = 465.3131   $ Sizing
 "CHRtFlo_Sys_T_OfficeOpn_W" = 413.0818   $ Sizing
 "CHRtFlo_Sys_T_OfficeSm_E" = 375.9508   $ Sizing
 "CHRtFlo_Sys_T_OfficeSm_N" = 175.9507   $ Sizing
 "CHRtFlo_Sys_T_OfficeSm_S" = 411.0692   $ Sizing
 "CHRtFlo_Sys_T_OfficeSm_W" = 361.1866   $ Sizing
 "CHRtFlo_Sys_T_Restrm_C" = 86.07105   $ Sizing
 "CHRtFlo_Sys_T_StorSm_E" = 96.00764   $ Sizing
 "CHRtFlo_Sys_T_StorSm_N" = 91.50124   $ Sizing
 "CHRtFlo_Sys_T_StorSm_S" = 102.8324   $ Sizing
 "CHRtFlo_Sys_T_StorSm_W" = 95.07628   $ Sizing
 "CRtdFlo_Sys_L_Break_C" = 272.7714   $ Sizing
 "CRtdFlo_Sys_L_CompDC_C" = 160.0113   $ Sizing
 "CRtdFlo_Sys_L_Conf_C" = 199.6346   $ Sizing
 "CRtdFlo_Sys_L_CopyRm_C" = 58.10136   $ Sizing
 "CRtdFlo_Sys_L_Hall_E" = 80.12971   $ Sizing
 "CRtdFlo_Sys_L_Hall_N" = 75.65073   $ Sizing
 "CRtdFlo_Sys_L_Hall_S" = 93.40069   $ Sizing
 "CRtdFlo_Sys_L_Hall_W" = 85.05733   $ Sizing
 "CRtdFlo_Sys_L_LobWait_E" = 198.2527   $ Sizing
 "CRtdFlo_Sys_L_LobWait_N" = 165.2242   $ Sizing
 "CRtdFlo_Sys_L_LobWait_S" = 213.9705   $ Sizing
 "CRtdFlo_Sys_L_LobWait_W" = 195.9368   $ Sizing
 "CRtdFlo_Sys_L_MechElec_C" = 95.207   $ Sizing
 "CRtdFlo_Sys_L_OfficeOpn_C" = 58.11753   $ Sizing
 "CRtdFlo_Sys_L_OfficeOpn_E" = 438.12   $ Sizing
 "CRtdFlo_Sys_L_OfficeOpn_N" = 197.3898   $ Sizing
 "CRtdFlo_Sys_L_OfficeOpn_S" = 435.4324   $ Sizing
 "CRtdFlo_Sys_L_OfficeOpn_W" = 406.6229   $ Sizing
 "CRtdFlo_Sys_L_OfficeSm_E" = 360.1   $ Sizing
 "CRtdFlo_Sys_L_OfficeSm_N" = 164.8254   $ Sizing
 "CRtdFlo_Sys_L_OfficeSm_S" = 381.6558   $ Sizing
 "CRtdFlo_Sys_L_OfficeSm_W" = 354.281   $ Sizing
 "CRtdFlo_Sys_L_Restrm_C" = 86.07105   $ Sizing
 "CRtdFlo_Sys_L_StorSm_C" = 46.55534   $ Sizing
 "CRtdFlo_Sys_L_StorSm_E" = 81.68335   $ Sizing
 "CRtdFlo_Sys_L_StorSm_N" = 93.77029   $ Sizing
 "CRtdFlo_Sys_L_StorSm_S" = 81.76537   $ Sizing
 "CRtdFlo_Sys_L_StorSm_W" = 80.43045   $ Sizing
 "CRtdFlo_Sys_T_Conf_C" = 204.9203   $ Sizing
 "CRtdFlo_Sys_T_Hall_E" = 98.63793   $ Sizing
 "CRtdFlo_Sys_T_Hall_N" = 69.26899   $ Sizing
 "CRtdFlo_Sys_T_Hall_S" = 110.0684   $ Sizing
 "CRtdFlo_Sys_T_Hall_W" = 97.00471   $ Sizing
 "CRtdFlo_Sys_T_OfficeOpn_C" = 56.95765   $ Sizing
 "CRtdFlo_Sys_T_OfficeOpn_E" = 446.444   $ Sizing
 "CRtdFlo_Sys_T_OfficeOpn_N" = 224.811   $ Sizing
 "CRtdFlo_Sys_T_OfficeOpn_S" = 465.3131   $ Sizing
 "CRtdFlo_Sys_T_OfficeOpn_W" = 413.0818   $ Sizing
 "CRtdFlo_Sys_T_OfficeSm_E" = 375.9508   $ Sizing
 "CRtdFlo_Sys_T_OfficeSm_N" = 175.9507   $ Sizing
 "CRtdFlo_Sys_T_OfficeSm_S" = 411.0692   $ Sizing
 "CRtdFlo_Sys_T_OfficeSm_W" = 361.1866   $ Sizing
 "CRtdFlo_Sys_T_Restrm_C" = 86.07105   $ Sizing
 "CRtdFlo_Sys_T_StorSm_E" = 96.00764   $ Sizing
 "CRtdFlo_Sys_T_StorSm_N" = 91.50124   $ Sizing
 "CRtdFlo_Sys_T_StorSm_S" = 102.8324   $ Sizing
 "CRtdFlo_Sys_T_StorSm_W" = 95.07628   $ Sizing
 "CSupFlo_Sys_L_Break_C" = 272.7714   $ Sizing
 "CSupFlo_Sys_L_CompDC_C" = 160.0113   $ Sizing
 "CSupFlo_Sys_L_Conf_C" = 199.6346   $ Sizing
 "CSupFlo_Sys_L_CopyRm_C" = 58.10136   $ Sizing
 "CSupFlo_Sys_L_Hall_E" = 80.12971   $ Sizing
 "CSupFlo_Sys_L_Hall_N" = 75.65073   $ Sizing
 "CSupFlo_Sys_L_Hall_S" = 93.40069   $ Sizing
 "CSupFlo_Sys_L_Hall_W" = 85.05733   $ Sizing
 "CSupFlo_Sys_L_LobWait_E" = 198.2527   $ Sizing
 "CSupFlo_Sys_L_LobWait_N" = 165.2242   $ Sizing
 "CSupFlo_Sys_L_LobWait_S" = 213.9705   $ Sizing
 "CSupFlo_Sys_L_LobWait_W" = 195.9368   $ Sizing
 "CSupFlo_Sys_L_MechElec_C" = 95.207   $ Sizing
 "CSupFlo_Sys_L_OfficeOpn_C" = 58.11753   $ Sizing
 "CSupFlo_Sys_L_OfficeOpn_E" = 438.12   $ Sizing
 "CSupFlo_Sys_L_OfficeOpn_N" = 197.3898   $ Sizing
 "CSupFlo_Sys_L_OfficeOpn_S" = 435.4324   $ Sizing
 "CSupFlo_Sys_L_OfficeOpn_W" = 406.6229   $ Sizing
 "CSupFlo_Sys_L_OfficeSm_E" = 360.1   $ Sizing
 "CSupFlo_Sys_L_OfficeSm_N" = 164.8254   $ Sizing
 "CSupFlo_Sys_L_OfficeSm_S" = 381.6558   $ Sizing
 "CSupFlo_Sys_L_OfficeSm_W" = 354.281   $ Sizing
 "CSupFlo_Sys_L_Restrm_C" = 86.07105   $ Sizing
 "CSupFlo_Sys_L_StorSm_C" = 46.55534   $ Sizing
 "CSupFlo_Sys_L_StorSm_E" = 81.68335   $ Sizing
 "CSupFlo_Sys_L_StorSm_N" = 93.77029   $ Sizing
 "CSupFlo_Sys_L_StorSm_S" = 81.76537   $ Sizing
 "CSupFlo_Sys_L_StorSm_W" = 80.43045   $ Sizing
 "CSupFlo_Sys_T_Conf_C" = 204.9203   $ Sizing
 "CSupFlo_Sys_T_Hall_E" = 98.63793   $ Sizing
 "CSupFlo_Sys_T_Hall_N" = 69.26899   $ Sizing
 "CSupFlo_Sys_T_Hall_S" = 110.0684   $ Sizing
 "CSupFlo_Sys_T_Hall_W" = 97.00471   $ Sizing
 "CSupFlo_Sys_T_OfficeOpn_C" = 56.95765   $ Sizing
 "CSupFlo_Sys_T_OfficeOpn_E" = 446.444   $ Sizing
 "CSupFlo_Sys_T_OfficeOpn_N" = 224.811   $ Sizing
 "CSupFlo_Sys_T_OfficeOpn_S" = 465.3131   $ Sizing
 "CSupFlo_Sys_T_OfficeOpn_W" = 413.0818   $ Sizing
 "CSupFlo_Sys_T_OfficeSm_E" = 375.9508   $ Sizing
 "CSupFlo_Sys_T_OfficeSm_N" = 175.9507   $ Sizing
 "CSupFlo_Sys_T_OfficeSm_S" = 411.0692   $ Sizing
 "CSupFlo_Sys_T_OfficeSm_W" = 361.1866   $ Sizing
 "CSupFlo_Sys_T_Restrm_C" = 86.07105   $ Sizing
 "CSupFlo_Sys_T_StorSm_E" = 96.00764   $ Sizing
 "CSupFlo_Sys_T_StorSm_N" = 91.50124   $ Sizing
 "CSupFlo_Sys_T_StorSm_S" = 102.8324   $ Sizing
 "CSupFlo_Sys_T_StorSm_W" = 95.07628   $ Sizing
 "Cap_Boiler1" = -0.127959   $ Sizing
 "ClCap_Sys_L_Break_C" = 9282.248   $ Sizing
 "ClCap_Sys_L_CompDC_C" = 5445.087   $ Sizing
 "ClCap_Sys_L_Conf_C" = 8646.203   $ Sizing
 "ClCap_Sys_L_CopyRm_C" = 1977.155   $ Sizing
 "ClCap_Sys_L_Hall_E" = 2726.766   $ Sizing
 "ClCap_Sys_L_Hall_N" = 2574.349   $ Sizing
 "ClCap_Sys_L_Hall_S" = 3178.37   $ Sizing
 "ClCap_Sys_L_Hall_W" = 2894.45   $ Sizing
 "ClCap_Sys_L_LobWait_E" = 6746.421   $ Sizing
 "ClCap_Sys_L_LobWait_N" = 5622.479   $ Sizing
 "ClCap_Sys_L_LobWait_S" = 7281.287   $ Sizing
 "ClCap_Sys_L_LobWait_W" = 6667.612   $ Sizing
 "ClCap_Sys_L_MechElec_C" = 3239.837   $ Sizing
 "ClCap_Sys_L_OfficeOpn_C" = 1977.705   $ Sizing
 "ClCap_Sys_L_OfficeOpn_E" = 14908.96   $ Sizing
 "ClCap_Sys_L_OfficeOpn_N" = 6717.056   $ Sizing
 "ClCap_Sys_L_OfficeOpn_S" = 14817.5   $ Sizing
 "ClCap_Sys_L_OfficeOpn_W" = 13837.13   $ Sizing
 "ClCap_Sys_L_OfficeSm_E" = 12253.99   $ Sizing
 "ClCap_Sys_L_OfficeSm_N" = 5608.911   $ Sizing
 "ClCap_Sys_L_OfficeSm_S" = 12987.52   $ Sizing
 "ClCap_Sys_L_OfficeSm_W" = 12055.97   $ Sizing
 "ClCap_Sys_L_Restrm_C" = 2928.947   $ Sizing
 "ClCap_Sys_L_StorSm_C" = 1584.25   $ Sizing
 "ClCap_Sys_L_StorSm_E" = 2779.635   $ Sizing
 "ClCap_Sys_L_StorSm_N" = 3190.947   $ Sizing
 "ClCap_Sys_L_StorSm_S" = 2782.427   $ Sizing
 "ClCap_Sys_L_StorSm_W" = 2737   $ Sizing
 "ClCap_Sys_T_Conf_C" = 8875.127   $ Sizing
 "ClCap_Sys_T_Hall_E" = 3356.59   $ Sizing
 "ClCap_Sys_T_Hall_N" = 2357.182   $ Sizing
 "ClCap_Sys_T_Hall_S" = 3745.563   $ Sizing
 "ClCap_Sys_T_Hall_W" = 3301.012   $ Sizing
 "ClCap_Sys_T_OfficeOpn_C" = 1938.235   $ Sizing
 "ClCap_Sys_T_OfficeOpn_E" = 15192.22   $ Sizing
 "ClCap_Sys_T_OfficeOpn_N" = 7650.183   $ Sizing
 "ClCap_Sys_T_OfficeOpn_S" = 15834.33   $ Sizing
 "ClCap_Sys_T_OfficeOpn_W" = 14056.92   $ Sizing
 "ClCap_Sys_T_OfficeSm_E" = 12793.38   $ Sizing
 "ClCap_Sys_T_OfficeSm_N" = 5987.499   $ Sizing
 "ClCap_Sys_T_OfficeSm_S" = 13988.44   $ Sizing
 "ClCap_Sys_T_OfficeSm_W" = 12290.96   $ Sizing
 "ClCap_Sys_T_Restrm_C" = 2928.947   $ Sizing
 "ClCap_Sys_T_StorSm_E" = 3267.083   $ Sizing
 "ClCap_Sys_T_StorSm_N" = 3113.732   $ Sizing
 "ClCap_Sys_T_StorSm_S" = 3499.326   $ Sizing
 "ClCap_Sys_T_StorSm_W" = 3235.389   $ Sizing
 "HtCap_Sys_L_Break_C" = -8168.378   $ Sizing
 "HtCap_Sys_L_CompDC_C" = -4791.677   $ Sizing
 "HtCap_Sys_L_Conf_C" = -7608.659   $ Sizing
 "HtCap_Sys_L_CopyRm_C" = -1739.896   $ Sizing
 "HtCap_Sys_L_Hall_E" = -2399.554   $ Sizing
 "HtCap_Sys_L_Hall_N" = -2265.427   $ Sizing
 "HtCap_Sys_L_Hall_S" = -2796.965   $ Sizing
 "HtCap_Sys_L_Hall_W" = -2547.116   $ Sizing
 "HtCap_Sys_L_LobWait_E" = -5936.851   $ Sizing
 "HtCap_Sys_L_LobWait_N" = -4947.782   $ Sizing
 "HtCap_Sys_L_LobWait_S" = -6407.532   $ Sizing
 "HtCap_Sys_L_LobWait_W" = -5867.499   $ Sizing
 "HtCap_Sys_L_MechElec_C" = -2851.057   $ Sizing
 "HtCap_Sys_L_OfficeOpn_C" = -1740.38   $ Sizing
 "HtCap_Sys_L_OfficeOpn_E" = -13119.89   $ Sizing
 "HtCap_Sys_L_OfficeOpn_N" = -5911.009   $ Sizing
 "HtCap_Sys_L_OfficeOpn_S" = -13039.4   $ Sizing
 "HtCap_Sys_L_OfficeOpn_W" = -12176.68   $ Sizing
 "HtCap_Sys_L_OfficeSm_E" = -10783.51   $ Sizing
 "HtCap_Sys_L_OfficeSm_N" = -4935.841   $ Sizing
 "HtCap_Sys_L_OfficeSm_S" = -11429.02   $ Sizing
 "HtCap_Sys_L_OfficeSm_W" = -10609.25   $ Sizing
 "HtCap_Sys_L_Restrm_C" = -2577.473   $ Sizing
 "HtCap_Sys_L_StorSm_C" = -1394.14   $ Sizing
 "HtCap_Sys_L_StorSm_E" = -2446.079   $ Sizing
 "HtCap_Sys_L_StorSm_N" = -2808.033   $ Sizing
 "HtCap_Sys_L_StorSm_S" = -2448.535   $ Sizing
 "HtCap_Sys_L_StorSm_W" = -2408.56   $ Sizing
 "HtCap_Sys_T_Conf_C" = -7810.112   $ Sizing
 "HtCap_Sys_T_Hall_E" = -2953.799   $ Sizing
 "HtCap_Sys_T_Hall_N" = -2074.321   $ Sizing
 "HtCap_Sys_T_Hall_S" = -3296.095   $ Sizing
 "HtCap_Sys_T_Hall_W" = -2904.891   $ Sizing
 "HtCap_Sys_T_OfficeOpn_C" = -1705.647   $ Sizing
 "HtCap_Sys_T_OfficeOpn_E" = -13369.15   $ Sizing
 "HtCap_Sys_T_OfficeOpn_N" = -6732.161   $ Sizing
 "HtCap_Sys_T_OfficeOpn_S" = -13934.21   $ Sizing
 "HtCap_Sys_T_OfficeOpn_W" = -12370.09   $ Sizing
 "HtCap_Sys_T_OfficeSm_E" = -11258.17   $ Sizing
 "HtCap_Sys_T_OfficeSm_N" = -5268.999   $ Sizing
 "HtCap_Sys_T_OfficeSm_S" = -12309.83   $ Sizing
 "HtCap_Sys_T_OfficeSm_W" = -10816.05   $ Sizing
 "HtCap_Sys_T_Restrm_C" = -2577.473   $ Sizing
 "HtCap_Sys_T_StorSm_E" = -2875.033   $ Sizing
 "HtCap_Sys_T_StorSm_N" = -2740.084   $ Sizing
 "HtCap_Sys_T_StorSm_S" = -3079.406   $ Sizing
 "HtCap_Sys_T_StorSm_W" = -2847.142   $ Sizing
 "LpFlo_WLHPCircLoop" = 77.59998   $ Sizing
 "SUtime_Boiler1" = 0.083   $ Sizing
..

##include Templates\OfS_WLHP.inp
END ..
COMPUTE ..
STOP ..
