
Start DOESIM : Storage capacity =  75000000
Starting LOADS   : SAVE-FILES is On , weather is CZ12SACRAMENTO-EXECU
Finished LOADS    BDL  1 : Memory (wds) =    279142, Time (sec) =    1.48
Starting REPORT  
Finished REPORT   BDL  1 : Memory (wds) =    548621, Time (sec) =    0.59
Starting HVAC    : SAVE-FILES is On , weather is CZ12SACRAMENTO-EXECU
*** ERRORS or WARNINGS from HVAC     program. Examine output file for details.
Finished HVAC     BDL  1 : Memory (wds) =    483248, Time (sec) =    6.89
Starting REPORT  
Finished REPORT   BDL  1 : Memory (wds) =    850223, Time (sec) =    0.59
Starting HOURLY-R
Finished HOURLY-R BDL  1 : Memory (wds) =   1086482, Time (sec) =    0.14
Starting ECONOMIC
Finished ECONOMIC BDL  1 : Memory (wds) =      1034, Time (sec) =    0.04
End   DOESIM : Total elapsed time of      9.7 seconds
RUN COMPLETE
