INPUT ..

##fileprefix C:\Users\jglasskatz\MASControl3\
##set1 IsSizing FALSE
##set1 CoolType DX
##set1 HeatType ELECTRIC
##set1 EU_HrRepVar 1
##set1 BldgVint 2020
##set1 BldgLoc CZ01

 ##set1 mBFMult 1   $ IP Tech: RefgChg-NRes-Std

PARAMETER
 "AltFactor" = 1.00753   $ IP Non-Tech
 "BldgEconoFlag" = 1   $ IP Non-Tech
 "Break_EWSF" = 1   $ IP Non-Tech
 "Break_LWSF" = 0.65   $ IP Non-Tech
 "CDD_DBHi10" = 65   $ IP Non-Tech
 "CDD_DBHi7" = 68   $ IP Non-Tech
 "CDD_DBHi8" = 66   $ IP Non-Tech
 "CDD_DBHi9" = 77   $ IP Non-Tech
 "CDD_DBRange10" = 17   $ IP Non-Tech
 "CDD_DBRange7" = 11   $ IP Non-Tech
 "CDD_DBRange8" = 10   $ IP Non-Tech
 "CDD_DBRange9" = 29   $ IP Non-Tech
 "CDD_Day10" = 15   $ IP Non-Tech
 "CDD_Day7" = 16   $ IP Non-Tech
 "CDD_Day8" = 20   $ IP Non-Tech
 "CDD_Day9" = 17   $ IP Non-Tech
 "CDD_HrHi10" = 12   $ IP Non-Tech
 "CDD_HrHi7" = 12   $ IP Non-Tech
 "CDD_HrHi8" = 13   $ IP Non-Tech
 "CDD_HrHi9" = 17   $ IP Non-Tech
 "CDD_HrLo10" = 6   $ IP Non-Tech
 "CDD_HrLo7" = 3   $ IP Non-Tech
 "CDD_HrLo8" = 8   $ IP Non-Tech
 "CDD_HrLo9" = 4   $ IP Non-Tech
 "CDD_WB10" = 57.53039551   $ IP Non-Tech
 "CDD_WB7" = 59.29250717   $ IP Non-Tech
 "CDD_WB8" = 60.75350189   $ IP Non-Tech
 "CDD_WB9" = 61.08643341   $ IP Non-Tech
 "CZ_Category" = Tem   $ IP Non-Tech
 "ChwVintEconoFlag" = 1   $ IP Non-Tech
 "CompRoomData_EWSF" = 5   $ IP Non-Tech
 "CompRoomData_LWSF" = 0.8   $ IP Non-Tech
 "Conference_EWSF" = 1   $ IP Non-Tech
 "Conference_LWSF" = 0.85   $ IP Non-Tech
 "CoolSetT" = 45   $ IP Non-Tech
 "CoolType" = DX   $ IP Non-Tech
 "CopyRoom_EWSF" = 1.5   $ IP Non-Tech
 "CopyRoom_LWSF" = 0.5   $ IP Non-Tech
 "DesCoolT" = 75   $ IP Non-Tech
 "DesHeatT" = 73   $ IP Non-Tech
 "EconoEnthLimit" = 28   $ IP Non-Tech
 "EconoTempLimit" = 70   $ IP Non-Tech
 "Elevation" = 203   $ IP Non-Tech
 "HDD_CloudAmt1" = 0   $ IP Non-Tech
 "HDD_DBHi1" = 53   $ IP Non-Tech
 "HDD_DBRange1" = 20   $ IP Non-Tech
 "HDD_Day1" = 15   $ IP Non-Tech
 "HDD_HrHi1" = 14   $ IP Non-Tech
 "HDD_HrLo1" = 6   $ IP Non-Tech
 "HDD_WB1" = 42.3   $ IP Non-Tech
 "HDD_WindSpd1" = 12.7   $ IP Non-Tech
 "Hall_EWSF" = 0.2   $ IP Non-Tech
 "Hall_LWSF" = 0.55   $ IP Non-Tech
 "HeatSrc" = ELECTRIC   $ IP Non-Tech
 "HeatSrcTU" = HEAT-PUMP   $ IP Non-Tech
 "HeatType" = Elec   $ IP Non-Tech
 "HeatTypeTU" = HEAT-PUMP   $ IP Non-Tech
 "IndoorFanMode" = CONTINUOUS   $ IP Non-Tech
 "KT_TransferAir" = Yes   $ IP Non-Tech
 "Latitude" = 40.8   $ IP Non-Tech
 "LobbyWaiting_EWSF" = 0.5   $ IP Non-Tech
 "LobbyWaiting_LWSF" = 0.75   $ IP Non-Tech
 "Longitude" = 124.2   $ IP Non-Tech
 "LtgMsrApplic" = ALL   $ Msr TechID: NonResLtgRefMsr-HB
 "LtgSav_CFL" = 0   $ Msr TechID: NonResLtgRefMsr-HB
 "LtgSav_EX" = 0   $ Msr TechID: NonResLtgRefMsr-HB
 "LtgSav_HB" = 0.3   $ Msr TechID: NonResLtgRefMsr-HB
 "LtgSav_LF" = 0   $ Msr TechID: NonResLtgRefMsr-HB
 "LtgSav_SP" = 0   $ Msr TechID: NonResLtgRefMsr-HB
 "MZFanMechEff" = 0.58   $ IP Non-Tech
 "MZHasRetFan" = FALSE   $ IP Non-Tech
 "MZ_RFanWPerCfm" = 0.33   $ IP Non-Tech
 "MZ_SFanWPerCfm" = 0.75   $ IP Non-Tech
 "MZ_SupFanStatic" = 2.25   $ IP Non-Tech
 "MaxSupT_MZ" = 100   $ IP Non-Tech
 "MaxSupT_SZ" = 100   $ IP Non-Tech
 "MaxSupT_TU" = 90   $ IP Non-Tech
 "MechElecRoom_EWSF" = 0.2   $ IP Non-Tech
 "MechElecRoom_LWSF" = 0.4   $ IP Non-Tech
 "MinCfmPerSF" = 0.4   $ IP Non-Tech
 "MinSupT" = 55   $ IP Non-Tech
 "OccCoolT" = 76   $ IP Non-Tech
 "OccHeatT" = 72   $ IP Non-Tech
 "OfficeOpen_EWSF" = 1.5   $ IP Non-Tech
 "OfficeOpen_LWSF" = 0.8   $ IP Non-Tech
 "OfficeSmall_EWSF" = 1.5   $ IP Non-Tech
 "OfficeSmall_LWSF" = 0.9   $ IP Non-Tech
 "PkgDxVintEconoFlag" = 1   $ IP Non-Tech
 "Restroom_EWSF" = 0.2   $ IP Non-Tech
 "Restroom_LWSF" = 0.65   $ IP Non-Tech
 "SZFanMechEff" = 0.58   $ IP Non-Tech
 "SZHasRetFan" = FALSE   $ IP Non-Tech
 "SZ_Is_2Spd" = TRUE   $ IP Non-Tech
 "SZ_SFanWPerCfm" = 0.46   $ IP Non-Tech
 "SZ_SupFanStatic" = 0.75   $ IP Non-Tech
 "StorageSmlCond_EWSF" = 0.2   $ IP Non-Tech
 "StorageSmlCond_LWSF" = 0.45   $ IP Non-Tech
 "TermUnitFanMechEff" = 1   $ IP Non-Tech
 "TermUnitFanMode" = INTERMITTENT   $ IP Non-Tech
 "TwrSetpt" = 80   $ IP Non-Tech
 "UnocCoolT" = 86   $ IP Non-Tech
 "UnocHeatT" = 62   $ IP Non-Tech
 "WlhpVintEconoFlag" = 1   $ IP Non-Tech
 "EconoCtrl" = OA-TEMP   $ IP Tech: AirEcono-OATemp
 "MaxOAFrac" = 0.85   $ IP Tech: AirEcono-OATemp
 "UseEconoVintApplic" = FALSE   $ IP Tech: AirEcono-OATemp
 "DuctDT" = 1   $ IP Tech: ComDuctInsul-1
 "DuctAirLoss" = 0   $ IP Tech: ComDuctLeak-0
 "DuctLossOAFrac" = 0   $ IP Tech: ComDuctLeak-0
 "ComRoofInsCalc" = FromUo   $ IP Tech: ComRoofIns-WFrm-0.03
 "ComRoofInsR" = -999   $ IP Tech: ComRoofIns-WFrm-0.03
 "ComRoofUo" = 0.03   $ IP Tech: ComRoofIns-WFrm-0.03
 "ComEWInsCalc" = FromUo   $ IP Tech: ComWallIns-WFrm-0.08
 "ComEWInsR" = -999   $ IP Tech: ComWallIns-WFrm-0.08
 "ComEWUo" = 0.08   $ IP Tech: ComWallIns-WFrm-0.08
 "ComN_SHGC" = 0.25   $ IP Tech: NResWin-ComN-0.36-0.25
 "ComN_UFactor" = 0.36   $ IP Tech: NResWin-ComN-0.36-0.25
 "ComN_VisTrans" = 0.41   $ IP Tech: NResWin-ComN-0.36-0.25
 "ComN_WinCode" = G2668   $ IP Tech: NResWin-ComN-0.36-0.25
 "ComN_WinFrmFrac" = 0.17   $ IP Tech: NResWin-ComN-0.36-0.25
 "ComN_WinFrmU" = 0.3   $ IP Tech: NResWin-ComN-0.36-0.25
 "ComO_SHGC" = 0.25   $ IP Tech: NResWin-ComO-0.36-0.25
 "ComO_UFactor" = 0.36   $ IP Tech: NResWin-ComO-0.36-0.25
 "ComO_VisTrans" = 0.41   $ IP Tech: NResWin-ComO-0.36-0.25
 "ComO_WinCode" = G2668   $ IP Tech: NResWin-ComO-0.36-0.25
 "ComO_WinFrmFrac" = 0.17   $ IP Tech: NResWin-ComO-0.36-0.25
 "ComO_WinFrmU" = 0.3   $ IP Tech: NResWin-ComO-0.36-0.25
 "BF_fFlow" = PSZ65to135_BF_fFlow   $ IP Tech: PkgAC2SpP-65to135-E11.2
 "BF_fT" = PSZ65to135_BF_fT   $ IP Tech: PkgAC2SpP-65to135-E11.2
 "CEIR_fPLR" = PSZ65to135_CEIR_fPLR   $ IP Tech: PkgAC2SpP-65to135-E11.2
 "CLoss_fPLR" = PSZ65to135_CLoss_fPLR   $ IP Tech: PkgAC2SpP-65to135-E11.2
 "COP" = -1   $ IP Tech: PkgAC2SpP-65to135-E11.2
 "COP47" = -1   $ IP Tech: PkgAC2SpP-65to135-E11.2
 "CfmPerBtuh" = 0.02917   $ IP Tech: PkgAC2SpP-65to135-E11.2
 "ClCap_fT" = PSZ65to135_ClCap_fT   $ IP Tech: PkgAC2SpP-65to135-E11.2
 "ClSH_fT" = PSZ65to135_ClSH_fT   $ IP Tech: PkgAC2SpP-65to135-E11.2
 "CoilBF" = 0.114   $ IP Tech: PkgAC2SpP-65to135-E11.2
 "CondWPerBtuh" = 0   $ IP Tech: PkgAC2SpP-65to135-E11.2
 "CoolSensCap" = 0.663   $ IP Tech: PkgAC2SpP-65to135-E11.2
 "CoolingEIR" = 0.26277   $ IP Tech: PkgAC2SpP-65to135-E11.2
 "CrnkEIR" = 0.0026   $ IP Tech: PkgAC2SpP-65to135-E11.2
 "CrnkMaxT" = 50   $ IP Tech: PkgAC2SpP-65to135-E11.2
 "DXType" = Pkg   $ IP Tech: PkgAC2SpP-65to135-E11.2
 "EER" = 10.83   $ IP Tech: PkgAC2SpP-65to135-E11.2
 "EIR_fT" = PSZ65to135_EIR_fT   $ IP Tech: PkgAC2SpP-65to135-E11.2
 "FanEirPlr" = TwoSpeedFan   $ IP Tech: PkgAC2SpP-65to135-E11.2
 "FanWPerCfm" = 0.4   $ IP Tech: PkgAC2SpP-65to135-E11.2
 "HIR_fT" = DEFAULT   $ IP Tech: PkgAC2SpP-65to135-E11.2
 "HtCap_fT" = DEFAULT   $ IP Tech: PkgAC2SpP-65to135-E11.2
 "HtCoolCapRatio" = -1   $ IP Tech: PkgAC2SpP-65to135-E11.2
 "HtgEIR" = -1   $ IP Tech: PkgAC2SpP-65to135-E11.2
 "HtgFuel" = Gas   $ IP Tech: PkgAC2SpP-65to135-E11.2
 "IEER" = 13.65   $ IP Tech: PkgAC2SpP-65to135-E11.2
 "LowSpdCapRatio" = 0.5   $ IP Tech: PkgAC2SpP-65to135-E11.2
 "LowSpdCfmRatio" = 0.66   $ IP Tech: PkgAC2SpP-65to135-E11.2
 "NominalCap" = 15   $ IP Tech: PkgAC2SpP-65to135-E11.2
 "NumStages" = 2   $ IP Tech: PkgAC2SpP-65to135-E11.2
 "RatedEER" = 11.2   $ IP Tech: PkgAC2SpP-65to135-E11.2
 "RatedSupMtrClass" = Premium   $ IP Tech: PkgAC2SpP-65to135-E11.2
 "SizeRange" = 65to135   $ IP Tech: PkgAC2SpP-65to135-E11.2
 "SubType" = AC   $ IP Tech: PkgAC2SpP-65to135-E11.2
 "SupMotEff" = 0.865   $ IP Tech: PkgAC2SpP-65to135-E11.2
 "Tier" = 0   $ IP Tech: PkgAC2SpP-65to135-E11.2
 "TotCoolCap" = 184140   $ IP Tech: PkgAC2SpP-65to135-E11.2
 "BFMult" = 1   $ IP Tech: RefgChg-NRes-Std
 "CoolEirMult" = 1   $ IP Tech: RefgChg-NRes-Std
 "SensCoolCapMult" = 1   $ IP Tech: RefgChg-NRes-Std
 "TotCoolCapMult" = 1   $ IP Tech: RefgChg-NRes-Std
 "AltAdjFactor" = 1.007532   $ Sizing
 "CAssFlo_L_Break_CZn" = 265.0772   $ Sizing
 "CAssFlo_L_CompDC_CZn" = 156.1115   $ Sizing
 "CAssFlo_L_Conf_CZn" = 192.9001   $ Sizing
 "CAssFlo_L_CopyRm_CZn" = 50.72986   $ Sizing
 "CAssFlo_L_Hall_EZn" = 79.30312   $ Sizing
 "CAssFlo_L_Hall_NZn" = 48.18069   $ Sizing
 "CAssFlo_L_Hall_SZn" = 92.76741   $ Sizing
 "CAssFlo_L_Hall_WZn" = 84.69109   $ Sizing
 "CAssFlo_L_LobWait_EZn" = 196.429   $ Sizing
 "CAssFlo_L_LobWait_NZn" = 105.158   $ Sizing
 "CAssFlo_L_LobWait_SZn" = 211.608   $ Sizing
 "CAssFlo_L_LobWait_WZn" = 194.4889   $ Sizing
 "CAssFlo_L_MechElec_CZn" = 65.93681   $ Sizing
 "CAssFlo_L_OfficeOpn_CZn" = 56.41258   $ Sizing
 "CAssFlo_L_OfficeOpn_EZn" = 427.5726   $ Sizing
 "CAssFlo_L_OfficeOpn_NZn" = 185.6038   $ Sizing
 "CAssFlo_L_OfficeOpn_SZn" = 424.2032   $ Sizing
 "CAssFlo_L_OfficeOpn_WZn" = 396.0997   $ Sizing
 "CAssFlo_L_OfficeSm_EZn" = 350.1708   $ Sizing
 "CAssFlo_L_OfficeSm_NZn" = 139.933   $ Sizing
 "CAssFlo_L_OfficeSm_SZn" = 369.2774   $ Sizing
 "CAssFlo_L_OfficeSm_WZn" = 343.0439   $ Sizing
 "CAssFlo_L_Restrm_CZn" = 86.07105   $ Sizing
 "CAssFlo_L_StorSm_CZn" = 30.00634   $ Sizing
 "CAssFlo_L_StorSm_EZn" = 75.31062   $ Sizing
 "CAssFlo_L_StorSm_NZn" = 59.91948   $ Sizing
 "CAssFlo_L_StorSm_SZn" = 80.32464   $ Sizing
 "CAssFlo_L_StorSm_WZn" = 76.48503   $ Sizing
 "CAssFlo_T_Conf_CZn" = 198.6018   $ Sizing
 "CAssFlo_T_Hall_EZn" = 97.99711   $ Sizing
 "CAssFlo_T_Hall_NZn" = 44.01837   $ Sizing
 "CAssFlo_T_Hall_SZn" = 109.416   $ Sizing
 "CAssFlo_T_Hall_WZn" = 96.6432   $ Sizing
 "CAssFlo_T_OfficeOpn_CZn" = 55.06242   $ Sizing
 "CAssFlo_T_OfficeOpn_EZn" = 435.4529   $ Sizing
 "CAssFlo_T_OfficeOpn_NZn" = 212.6532   $ Sizing
 "CAssFlo_T_OfficeOpn_SZn" = 453.2101   $ Sizing
 "CAssFlo_T_OfficeOpn_WZn" = 402.0397   $ Sizing
 "CAssFlo_T_OfficeSm_EZn" = 364.6889   $ Sizing
 "CAssFlo_T_OfficeSm_NZn" = 163.3311   $ Sizing
 "CAssFlo_T_OfficeSm_SZn" = 398.3999   $ Sizing
 "CAssFlo_T_OfficeSm_WZn" = 349.6996   $ Sizing
 "CAssFlo_T_Restrm_CZn" = 86.07105   $ Sizing
 "CAssFlo_T_StorSm_EZn" = 94.67012   $ Sizing
 "CAssFlo_T_StorSm_NZn" = 58.78718   $ Sizing
 "CAssFlo_T_StorSm_SZn" = 101.4253   $ Sizing
 "CAssFlo_T_StorSm_WZn" = 94.27534   $ Sizing
 "CHRtFlo_Sys_L_Break_C" = 265.0772   $ Sizing
 "CHRtFlo_Sys_L_CompDC_C" = 103.0336   $ Sizing
 "CHRtFlo_Sys_L_Conf_C" = 192.9001   $ Sizing
 "CHRtFlo_Sys_L_CopyRm_C" = 50.72986   $ Sizing
 "CHRtFlo_Sys_L_Hall_E" = 79.30312   $ Sizing
 "CHRtFlo_Sys_L_Hall_N" = 48.18069   $ Sizing
 "CHRtFlo_Sys_L_Hall_S" = 92.76741   $ Sizing
 "CHRtFlo_Sys_L_Hall_W" = 84.69109   $ Sizing
 "CHRtFlo_Sys_L_LobWait_E" = 196.429   $ Sizing
 "CHRtFlo_Sys_L_LobWait_N" = 105.158   $ Sizing
 "CHRtFlo_Sys_L_LobWait_S" = 211.608   $ Sizing
 "CHRtFlo_Sys_L_LobWait_W" = 194.4889   $ Sizing
 "CHRtFlo_Sys_L_MechElec_C" = 65.93681   $ Sizing
 "CHRtFlo_Sys_L_OfficeOpn_C" = 56.41258   $ Sizing
 "CHRtFlo_Sys_L_OfficeOpn_E" = 427.5726   $ Sizing
 "CHRtFlo_Sys_L_OfficeOpn_N" = 185.6038   $ Sizing
 "CHRtFlo_Sys_L_OfficeOpn_S" = 424.2032   $ Sizing
 "CHRtFlo_Sys_L_OfficeOpn_W" = 396.0997   $ Sizing
 "CHRtFlo_Sys_L_OfficeSm_E" = 350.1708   $ Sizing
 "CHRtFlo_Sys_L_OfficeSm_N" = 139.933   $ Sizing
 "CHRtFlo_Sys_L_OfficeSm_S" = 369.2774   $ Sizing
 "CHRtFlo_Sys_L_OfficeSm_W" = 343.0439   $ Sizing
 "CHRtFlo_Sys_L_Restrm_C" = 86.07105   $ Sizing
 "CHRtFlo_Sys_L_StorSm_C" = 30.00634   $ Sizing
 "CHRtFlo_Sys_L_StorSm_E" = 75.31062   $ Sizing
 "CHRtFlo_Sys_L_StorSm_N" = 59.91948   $ Sizing
 "CHRtFlo_Sys_L_StorSm_S" = 80.32464   $ Sizing
 "CHRtFlo_Sys_L_StorSm_W" = 76.48503   $ Sizing
 "CHRtFlo_Sys_T_Conf_C" = 198.6018   $ Sizing
 "CHRtFlo_Sys_T_Hall_E" = 97.99711   $ Sizing
 "CHRtFlo_Sys_T_Hall_N" = 44.01837   $ Sizing
 "CHRtFlo_Sys_T_Hall_S" = 109.416   $ Sizing
 "CHRtFlo_Sys_T_Hall_W" = 96.6432   $ Sizing
 "CHRtFlo_Sys_T_OfficeOpn_C" = 55.06242   $ Sizing
 "CHRtFlo_Sys_T_OfficeOpn_E" = 435.4529   $ Sizing
 "CHRtFlo_Sys_T_OfficeOpn_N" = 212.6532   $ Sizing
 "CHRtFlo_Sys_T_OfficeOpn_S" = 453.2101   $ Sizing
 "CHRtFlo_Sys_T_OfficeOpn_W" = 402.0397   $ Sizing
 "CHRtFlo_Sys_T_OfficeSm_E" = 364.6889   $ Sizing
 "CHRtFlo_Sys_T_OfficeSm_N" = 163.3311   $ Sizing
 "CHRtFlo_Sys_T_OfficeSm_S" = 398.3999   $ Sizing
 "CHRtFlo_Sys_T_OfficeSm_W" = 349.6996   $ Sizing
 "CHRtFlo_Sys_T_Restrm_C" = 86.07105   $ Sizing
 "CHRtFlo_Sys_T_StorSm_E" = 94.67012   $ Sizing
 "CHRtFlo_Sys_T_StorSm_N" = 58.78718   $ Sizing
 "CHRtFlo_Sys_T_StorSm_S" = 101.4253   $ Sizing
 "CHRtFlo_Sys_T_StorSm_W" = 94.27534   $ Sizing
 "CRtdFlo_Sys_L_Break_C" = 265.0772   $ Sizing
 "CRtdFlo_Sys_L_CompDC_C" = 156.1115   $ Sizing
 "CRtdFlo_Sys_L_Conf_C" = 192.9001   $ Sizing
 "CRtdFlo_Sys_L_CopyRm_C" = 50.72986   $ Sizing
 "CRtdFlo_Sys_L_Hall_E" = 79.30312   $ Sizing
 "CRtdFlo_Sys_L_Hall_N" = 48.18069   $ Sizing
 "CRtdFlo_Sys_L_Hall_S" = 92.76741   $ Sizing
 "CRtdFlo_Sys_L_Hall_W" = 84.69109   $ Sizing
 "CRtdFlo_Sys_L_LobWait_E" = 196.429   $ Sizing
 "CRtdFlo_Sys_L_LobWait_N" = 105.158   $ Sizing
 "CRtdFlo_Sys_L_LobWait_S" = 211.608   $ Sizing
 "CRtdFlo_Sys_L_LobWait_W" = 194.4889   $ Sizing
 "CRtdFlo_Sys_L_MechElec_C" = 65.93681   $ Sizing
 "CRtdFlo_Sys_L_OfficeOpn_C" = 56.41258   $ Sizing
 "CRtdFlo_Sys_L_OfficeOpn_E" = 427.5726   $ Sizing
 "CRtdFlo_Sys_L_OfficeOpn_N" = 185.6038   $ Sizing
 "CRtdFlo_Sys_L_OfficeOpn_S" = 424.2032   $ Sizing
 "CRtdFlo_Sys_L_OfficeOpn_W" = 396.0997   $ Sizing
 "CRtdFlo_Sys_L_OfficeSm_E" = 350.1708   $ Sizing
 "CRtdFlo_Sys_L_OfficeSm_N" = 139.933   $ Sizing
 "CRtdFlo_Sys_L_OfficeSm_S" = 369.2774   $ Sizing
 "CRtdFlo_Sys_L_OfficeSm_W" = 343.0439   $ Sizing
 "CRtdFlo_Sys_L_Restrm_C" = 86.07105   $ Sizing
 "CRtdFlo_Sys_L_StorSm_C" = 30.00634   $ Sizing
 "CRtdFlo_Sys_L_StorSm_E" = 75.31062   $ Sizing
 "CRtdFlo_Sys_L_StorSm_N" = 59.91948   $ Sizing
 "CRtdFlo_Sys_L_StorSm_S" = 80.32464   $ Sizing
 "CRtdFlo_Sys_L_StorSm_W" = 76.48503   $ Sizing
 "CRtdFlo_Sys_T_Conf_C" = 198.6018   $ Sizing
 "CRtdFlo_Sys_T_Hall_E" = 97.99711   $ Sizing
 "CRtdFlo_Sys_T_Hall_N" = 44.01837   $ Sizing
 "CRtdFlo_Sys_T_Hall_S" = 109.416   $ Sizing
 "CRtdFlo_Sys_T_Hall_W" = 96.6432   $ Sizing
 "CRtdFlo_Sys_T_OfficeOpn_C" = 55.06242   $ Sizing
 "CRtdFlo_Sys_T_OfficeOpn_E" = 435.4529   $ Sizing
 "CRtdFlo_Sys_T_OfficeOpn_N" = 212.6532   $ Sizing
 "CRtdFlo_Sys_T_OfficeOpn_S" = 453.2101   $ Sizing
 "CRtdFlo_Sys_T_OfficeOpn_W" = 402.0397   $ Sizing
 "CRtdFlo_Sys_T_OfficeSm_E" = 364.6889   $ Sizing
 "CRtdFlo_Sys_T_OfficeSm_N" = 163.3311   $ Sizing
 "CRtdFlo_Sys_T_OfficeSm_S" = 398.3999   $ Sizing
 "CRtdFlo_Sys_T_OfficeSm_W" = 349.6996   $ Sizing
 "CRtdFlo_Sys_T_Restrm_C" = 86.07105   $ Sizing
 "CRtdFlo_Sys_T_StorSm_E" = 94.67012   $ Sizing
 "CRtdFlo_Sys_T_StorSm_N" = 58.78718   $ Sizing
 "CRtdFlo_Sys_T_StorSm_S" = 101.4253   $ Sizing
 "CRtdFlo_Sys_T_StorSm_W" = 94.27534   $ Sizing
 "CSupFlo_Sys_L_Break_C" = 265.0772   $ Sizing
 "CSupFlo_Sys_L_CompDC_C" = 156.1115   $ Sizing
 "CSupFlo_Sys_L_Conf_C" = 192.9001   $ Sizing
 "CSupFlo_Sys_L_CopyRm_C" = 50.72986   $ Sizing
 "CSupFlo_Sys_L_Hall_E" = 79.30312   $ Sizing
 "CSupFlo_Sys_L_Hall_N" = 48.18069   $ Sizing
 "CSupFlo_Sys_L_Hall_S" = 92.76741   $ Sizing
 "CSupFlo_Sys_L_Hall_W" = 84.69109   $ Sizing
 "CSupFlo_Sys_L_LobWait_E" = 196.429   $ Sizing
 "CSupFlo_Sys_L_LobWait_N" = 105.158   $ Sizing
 "CSupFlo_Sys_L_LobWait_S" = 211.608   $ Sizing
 "CSupFlo_Sys_L_LobWait_W" = 194.4889   $ Sizing
 "CSupFlo_Sys_L_MechElec_C" = 65.93681   $ Sizing
 "CSupFlo_Sys_L_OfficeOpn_C" = 56.41258   $ Sizing
 "CSupFlo_Sys_L_OfficeOpn_E" = 427.5726   $ Sizing
 "CSupFlo_Sys_L_OfficeOpn_N" = 185.6038   $ Sizing
 "CSupFlo_Sys_L_OfficeOpn_S" = 424.2032   $ Sizing
 "CSupFlo_Sys_L_OfficeOpn_W" = 396.0997   $ Sizing
 "CSupFlo_Sys_L_OfficeSm_E" = 350.1708   $ Sizing
 "CSupFlo_Sys_L_OfficeSm_N" = 139.933   $ Sizing
 "CSupFlo_Sys_L_OfficeSm_S" = 369.2774   $ Sizing
 "CSupFlo_Sys_L_OfficeSm_W" = 343.0439   $ Sizing
 "CSupFlo_Sys_L_Restrm_C" = 86.07105   $ Sizing
 "CSupFlo_Sys_L_StorSm_C" = 30.00634   $ Sizing
 "CSupFlo_Sys_L_StorSm_E" = 75.31062   $ Sizing
 "CSupFlo_Sys_L_StorSm_N" = 59.91948   $ Sizing
 "CSupFlo_Sys_L_StorSm_S" = 80.32464   $ Sizing
 "CSupFlo_Sys_L_StorSm_W" = 76.48503   $ Sizing
 "CSupFlo_Sys_T_Conf_C" = 198.6018   $ Sizing
 "CSupFlo_Sys_T_Hall_E" = 97.99711   $ Sizing
 "CSupFlo_Sys_T_Hall_N" = 44.01837   $ Sizing
 "CSupFlo_Sys_T_Hall_S" = 109.416   $ Sizing
 "CSupFlo_Sys_T_Hall_W" = 96.6432   $ Sizing
 "CSupFlo_Sys_T_OfficeOpn_C" = 55.06242   $ Sizing
 "CSupFlo_Sys_T_OfficeOpn_E" = 435.4529   $ Sizing
 "CSupFlo_Sys_T_OfficeOpn_N" = 212.6532   $ Sizing
 "CSupFlo_Sys_T_OfficeOpn_S" = 453.2101   $ Sizing
 "CSupFlo_Sys_T_OfficeOpn_W" = 402.0397   $ Sizing
 "CSupFlo_Sys_T_OfficeSm_E" = 364.6889   $ Sizing
 "CSupFlo_Sys_T_OfficeSm_N" = 163.3311   $ Sizing
 "CSupFlo_Sys_T_OfficeSm_S" = 398.3999   $ Sizing
 "CSupFlo_Sys_T_OfficeSm_W" = 349.6996   $ Sizing
 "CSupFlo_Sys_T_Restrm_C" = 86.07105   $ Sizing
 "CSupFlo_Sys_T_StorSm_E" = 94.67012   $ Sizing
 "CSupFlo_Sys_T_StorSm_N" = 58.78718   $ Sizing
 "CSupFlo_Sys_T_StorSm_S" = 101.4253   $ Sizing
 "CSupFlo_Sys_T_StorSm_W" = 94.27534   $ Sizing
 "ClCap_Sys_L_Break_C" = 9020.418   $ Sizing
 "ClCap_Sys_L_CompDC_C" = 5312.381   $ Sizing
 "ClCap_Sys_L_Conf_C" = 8354.53   $ Sizing
 "ClCap_Sys_L_CopyRm_C" = 1726.307   $ Sizing
 "ClCap_Sys_L_Hall_E" = 2698.638   $ Sizing
 "ClCap_Sys_L_Hall_N" = 1639.56   $ Sizing
 "ClCap_Sys_L_Hall_S" = 3156.82   $ Sizing
 "ClCap_Sys_L_Hall_W" = 2881.987   $ Sizing
 "ClCap_Sys_L_LobWait_E" = 6684.36   $ Sizing
 "ClCap_Sys_L_LobWait_N" = 3578.463   $ Sizing
 "ClCap_Sys_L_LobWait_S" = 7200.893   $ Sizing
 "ClCap_Sys_L_LobWait_W" = 6618.34   $ Sizing
 "ClCap_Sys_L_MechElec_C" = 2243.79   $ Sizing
 "ClCap_Sys_L_OfficeOpn_C" = 1919.686   $ Sizing
 "ClCap_Sys_L_OfficeOpn_E" = 14550.04   $ Sizing
 "ClCap_Sys_L_OfficeOpn_N" = 6315.985   $ Sizing
 "ClCap_Sys_L_OfficeOpn_S" = 14435.38   $ Sizing
 "ClCap_Sys_L_OfficeOpn_W" = 13479.04   $ Sizing
 "ClCap_Sys_L_OfficeSm_E" = 11916.1   $ Sizing
 "ClCap_Sys_L_OfficeSm_N" = 4761.835   $ Sizing
 "ClCap_Sys_L_OfficeSm_S" = 12566.29   $ Sizing
 "ClCap_Sys_L_OfficeSm_W" = 11673.58   $ Sizing
 "ClCap_Sys_L_Restrm_C" = 2928.947   $ Sizing
 "ClCap_Sys_L_StorSm_C" = 1021.098   $ Sizing
 "ClCap_Sys_L_StorSm_E" = 2562.775   $ Sizing
 "ClCap_Sys_L_StorSm_N" = 2039.024   $ Sizing
 "ClCap_Sys_L_StorSm_S" = 2733.399   $ Sizing
 "ClCap_Sys_L_StorSm_W" = 2602.74   $ Sizing
 "ClCap_Sys_T_Conf_C" = 8601.473   $ Sizing
 "ClCap_Sys_T_Hall_E" = 3334.783   $ Sizing
 "ClCap_Sys_T_Hall_N" = 1497.919   $ Sizing
 "ClCap_Sys_T_Hall_S" = 3723.36   $ Sizing
 "ClCap_Sys_T_Hall_W" = 3288.71   $ Sizing
 "ClCap_Sys_T_OfficeOpn_C" = 1873.741   $ Sizing
 "ClCap_Sys_T_OfficeOpn_E" = 14818.2   $ Sizing
 "ClCap_Sys_T_OfficeOpn_N" = 7236.46   $ Sizing
 "ClCap_Sys_T_OfficeOpn_S" = 15422.47   $ Sizing
 "ClCap_Sys_T_OfficeOpn_W" = 13681.17   $ Sizing
 "ClCap_Sys_T_OfficeSm_E" = 12410.15   $ Sizing
 "ClCap_Sys_T_OfficeSm_N" = 5558.06   $ Sizing
 "ClCap_Sys_T_OfficeSm_S" = 13557.31   $ Sizing
 "ClCap_Sys_T_OfficeSm_W" = 11900.07   $ Sizing
 "ClCap_Sys_T_Restrm_C" = 2928.947   $ Sizing
 "ClCap_Sys_T_StorSm_E" = 3221.568   $ Sizing
 "ClCap_Sys_T_StorSm_N" = 2000.492   $ Sizing
 "ClCap_Sys_T_StorSm_S" = 3451.443   $ Sizing
 "ClCap_Sys_T_StorSm_W" = 3208.134   $ Sizing
 "HtCap_L_Break_CZn" = 0   $ Sizing
 "HtCap_L_CompDC_CZn" = 0   $ Sizing
 "HtCap_L_Conf_CZn" = 0   $ Sizing
 "HtCap_L_CopyRm_CZn" = 0   $ Sizing
 "HtCap_L_Hall_EZn" = 0   $ Sizing
 "HtCap_L_Hall_NZn" = 0   $ Sizing
 "HtCap_L_Hall_SZn" = 0   $ Sizing
 "HtCap_L_Hall_WZn" = 0   $ Sizing
 "HtCap_L_LobWait_EZn" = 0   $ Sizing
 "HtCap_L_LobWait_NZn" = 0   $ Sizing
 "HtCap_L_LobWait_SZn" = 0   $ Sizing
 "HtCap_L_LobWait_WZn" = 0   $ Sizing
 "HtCap_L_MechElec_CZn" = 0   $ Sizing
 "HtCap_L_OfficeOpn_CZn" = 0   $ Sizing
 "HtCap_L_OfficeOpn_EZn" = 0   $ Sizing
 "HtCap_L_OfficeOpn_NZn" = 0   $ Sizing
 "HtCap_L_OfficeOpn_SZn" = 0   $ Sizing
 "HtCap_L_OfficeOpn_WZn" = 0   $ Sizing
 "HtCap_L_OfficeSm_EZn" = 0   $ Sizing
 "HtCap_L_OfficeSm_NZn" = 0   $ Sizing
 "HtCap_L_OfficeSm_SZn" = 0   $ Sizing
 "HtCap_L_OfficeSm_WZn" = 0   $ Sizing
 "HtCap_L_Restrm_CZn" = 0   $ Sizing
 "HtCap_L_StorSm_CZn" = 0   $ Sizing
 "HtCap_L_StorSm_EZn" = 0   $ Sizing
 "HtCap_L_StorSm_NZn" = 0   $ Sizing
 "HtCap_L_StorSm_SZn" = 0   $ Sizing
 "HtCap_L_StorSm_WZn" = 0   $ Sizing
 "HtCap_Sys_L_Break_C" = -16438.52   $ Sizing
 "HtCap_Sys_L_CompDC_C" = -4381.674   $ Sizing
 "HtCap_Sys_L_Conf_C" = -12390.1   $ Sizing
 "HtCap_Sys_L_CopyRm_C" = -3533.719   $ Sizing
 "HtCap_Sys_L_Hall_E" = -3156.575   $ Sizing
 "HtCap_Sys_L_Hall_N" = -2031.598   $ Sizing
 "HtCap_Sys_L_Hall_S" = -3485.704   $ Sizing
 "HtCap_Sys_L_Hall_W" = -3271.863   $ Sizing
 "HtCap_Sys_L_LobWait_E" = -8382.41   $ Sizing
 "HtCap_Sys_L_LobWait_N" = -5427.016   $ Sizing
 "HtCap_Sys_L_LobWait_S" = -8875.253   $ Sizing
 "HtCap_Sys_L_LobWait_W" = -8379.092   $ Sizing
 "HtCap_Sys_L_MechElec_C" = -3077.838   $ Sizing
 "HtCap_Sys_L_OfficeOpn_C" = -2400.689   $ Sizing
 "HtCap_Sys_L_OfficeOpn_E" = -16376.63   $ Sizing
 "HtCap_Sys_L_OfficeOpn_N" = -8914.973   $ Sizing
 "HtCap_Sys_L_OfficeOpn_S" = -15932.15   $ Sizing
 "HtCap_Sys_L_OfficeOpn_W" = -15570.61   $ Sizing
 "HtCap_Sys_L_OfficeSm_E" = -13406.42   $ Sizing
 "HtCap_Sys_L_OfficeSm_N" = -6563.139   $ Sizing
 "HtCap_Sys_L_OfficeSm_S" = -13282.73   $ Sizing
 "HtCap_Sys_L_OfficeSm_W" = -12961.9   $ Sizing
 "HtCap_Sys_L_Restrm_C" = -3159.226   $ Sizing
 "HtCap_Sys_L_StorSm_C" = -1322.544   $ Sizing
 "HtCap_Sys_L_StorSm_E" = -3155.643   $ Sizing
 "HtCap_Sys_L_StorSm_N" = -2705.3   $ Sizing
 "HtCap_Sys_L_StorSm_S" = -3325.752   $ Sizing
 "HtCap_Sys_L_StorSm_W" = -3246.622   $ Sizing
 "HtCap_Sys_T_Conf_C" = -12733.89   $ Sizing
 "HtCap_Sys_T_Hall_E" = -4106.786   $ Sizing
 "HtCap_Sys_T_Hall_N" = -2132.017   $ Sizing
 "HtCap_Sys_T_Hall_S" = -4517.493   $ Sizing
 "HtCap_Sys_T_Hall_W" = -4060.015   $ Sizing
 "HtCap_Sys_T_OfficeOpn_C" = -2573.622   $ Sizing
 "HtCap_Sys_T_OfficeOpn_E" = -18368.44   $ Sizing
 "HtCap_Sys_T_OfficeOpn_N" = -10409.63   $ Sizing
 "HtCap_Sys_T_OfficeOpn_S" = -18955.24   $ Sizing
 "HtCap_Sys_T_OfficeOpn_W" = -17192.87   $ Sizing
 "HtCap_Sys_T_OfficeSm_E" = -15169.89   $ Sizing
 "HtCap_Sys_T_OfficeSm_N" = -7947.003   $ Sizing
 "HtCap_Sys_T_OfficeSm_S" = -16291.79   $ Sizing
 "HtCap_Sys_T_OfficeSm_W" = -14646.18   $ Sizing
 "HtCap_Sys_T_Restrm_C" = -3634.796   $ Sizing
 "HtCap_Sys_T_StorSm_E" = -4293.096   $ Sizing
 "HtCap_Sys_T_StorSm_N" = -2994.991   $ Sizing
 "HtCap_Sys_T_StorSm_S" = -4465.203   $ Sizing
 "HtCap_Sys_T_StorSm_W" = -4268.196   $ Sizing
 "HtCap_T_Conf_CZn" = 0   $ Sizing
 "HtCap_T_Hall_EZn" = 0   $ Sizing
 "HtCap_T_Hall_NZn" = 0   $ Sizing
 "HtCap_T_Hall_SZn" = 0   $ Sizing
 "HtCap_T_Hall_WZn" = 0   $ Sizing
 "HtCap_T_OfficeOpn_CZn" = 0   $ Sizing
 "HtCap_T_OfficeOpn_EZn" = 0   $ Sizing
 "HtCap_T_OfficeOpn_NZn" = 0   $ Sizing
 "HtCap_T_OfficeOpn_SZn" = 0   $ Sizing
 "HtCap_T_OfficeOpn_WZn" = 0   $ Sizing
 "HtCap_T_OfficeSm_EZn" = 0   $ Sizing
 "HtCap_T_OfficeSm_NZn" = 0   $ Sizing
 "HtCap_T_OfficeSm_SZn" = 0   $ Sizing
 "HtCap_T_OfficeSm_WZn" = 0   $ Sizing
 "HtCap_T_Restrm_CZn" = 0   $ Sizing
 "HtCap_T_StorSm_EZn" = 0   $ Sizing
 "HtCap_T_StorSm_NZn" = 0   $ Sizing
 "HtCap_T_StorSm_SZn" = 0   $ Sizing
 "HtCap_T_StorSm_WZn" = 0   $ Sizing
..

##include Templates\OfS_DX_SZ.inp
END ..
COMPUTE ..
STOP ..
