
Start DOESIM : Storage capacity =  75000000
Starting LOADS   : SAVE-FILES is On , weather is CZ08FULLERTON-MUNICI
Finished LOADS    BDL  1 : Memory (wds) =    279067, Time (sec) =    1.46
Starting REPORT  
Finished REPORT   BDL  1 : Memory (wds) =    548546, Time (sec) =    0.59
Starting HVAC    : SAVE-FILES is On , weather is CZ08FULLERTON-MUNICI
*** ERRORS or WARNINGS from HVAC     program. Examine output file for details.
Finished HVAC     BDL  1 : Memory (wds) =    483173, Time (sec) =    7.05
Starting REPORT  
Finished REPORT   BDL  1 : Memory (wds) =    850250, Time (sec) =    0.59
Starting HOURLY-R
Finished HOURLY-R BDL  1 : Memory (wds) =   1086332, Time (sec) =    0.14
Starting ECONOMIC
Finished ECONOMIC BDL  1 : Memory (wds) =      1034, Time (sec) =    0.03
End   DOESIM : Total elapsed time of      9.9 seconds
RUN COMPLETE
