INPUT ..

##fileprefix C:\Users\jglasskatz\MASControl3\
##set1 IsSizing FALSE
##set1 CoolType DX
##set1 HeatType FURNACE
##set1 EU_HrRepVar 0
##set1 BldgVint 2015
##set1 BldgLoc CZ12

 ##set1 mBFMult 1   $ IP Tech: RefgChg-NRes-Std

PARAMETER
 "AltFactor" = 1.00062   $ IP Non-Tech
 "BF_fFlow" = SpltAC1Sp-lt45_BF_fFlow   $ Msr (Multi)TechID: StdNResSplitAC-lt45
 "BF_fT" = SpltAC1Sp-lt45_BF_fT   $ Msr (Multi)TechID: StdNResSplitAC-lt45
 "BldgEconoFlag" = 1   $ IP Non-Tech
 "Break_EWSF" = 1   $ IP Non-Tech
 "Break_LWSF" = 1.1   $ IP Non-Tech
 "CDD_DBHi10" = 83   $ IP Non-Tech
 "CDD_DBHi7" = 101   $ IP Non-Tech
 "CDD_DBHi8" = 99   $ IP Non-Tech
 "CDD_DBHi9" = 98   $ IP Non-Tech
 "CDD_DBRange10" = 23   $ IP Non-Tech
 "CDD_DBRange7" = 30   $ IP Non-Tech
 "CDD_DBRange8" = 34   $ IP Non-Tech
 "CDD_DBRange9" = 34   $ IP Non-Tech
 "CDD_Day10" = 15   $ IP Non-Tech
 "CDD_Day7" = 16   $ IP Non-Tech
 "CDD_Day8" = 20   $ IP Non-Tech
 "CDD_Day9" = 17   $ IP Non-Tech
 "CDD_HrHi10" = 14   $ IP Non-Tech
 "CDD_HrHi7" = 16   $ IP Non-Tech
 "CDD_HrHi8" = 16   $ IP Non-Tech
 "CDD_HrHi9" = 16   $ IP Non-Tech
 "CDD_HrLo10" = 3   $ IP Non-Tech
 "CDD_HrLo7" = 4   $ IP Non-Tech
 "CDD_HrLo8" = 8   $ IP Non-Tech
 "CDD_HrLo9" = 7   $ IP Non-Tech
 "CDD_WB10" = 61.40390396   $ IP Non-Tech
 "CDD_WB7" = 71.25247955   $ IP Non-Tech
 "CDD_WB8" = 68.94035339   $ IP Non-Tech
 "CDD_WB9" = 66.54764557   $ IP Non-Tech
 "CEIR_fPLR_Hot" = SpltAC1Sp-lt45_CEIR_fPLR_Hot   $ Msr (Multi)TechID: StdNResSplitAC-lt45
 "CEIR_fPLR_Mod" = SpltAC1Sp-lt45_CEIR_fPLR_Mod   $ Msr (Multi)TechID: StdNResSplitAC-lt45
 "CEIR_fPLR_Tem" = SpltAC1Sp-lt45_CEIR_fPLR_Tem   $ Msr (Multi)TechID: StdNResSplitAC-lt45
 "CLoss_fPLR_Hot" = SpltAC1Sp-lt45_CLoss_fPLR_Hot   $ Msr (Multi)TechID: StdNResSplitAC-lt45
 "CLoss_fPLR_Mod" = SpltAC1Sp-lt45_CLoss_fPLR_Mod   $ Msr (Multi)TechID: StdNResSplitAC-lt45
 "CLoss_fPLR_Tem" = SpltAC1Sp-lt45_CLoss_fPLR_Tem   $ Msr (Multi)TechID: StdNResSplitAC-lt45
 "COP47" = 0   $ Msr (Multi)TechID: StdNResSplitAC-lt45
 "CZ_Category" = Mod   $ IP Non-Tech
 "CapRange" = lt45   $ Msr (Multi)TechID: StdNResSplitAC-lt45
 "CfmPerBtuh" = 0.032504286   $ Msr (Multi)TechID: StdNResSplitAC-lt45
 "ChwVintEconoFlag" = 1   $ IP Non-Tech
 "ClCap_fT" = SpltAC1Sp-lt45_ClCap_fT   $ Msr (Multi)TechID: StdNResSplitAC-lt45
 "ClSH_fT" = SpltAC1Sp-lt45_ClSH_fT   $ Msr (Multi)TechID: StdNResSplitAC-lt45
 "CoilBF" = 0.1212   $ Msr (Multi)TechID: StdNResSplitAC-lt45
 "CompRoomData_EWSF" = 5   $ IP Non-Tech
 "CompRoomData_LWSF" = 1.05   $ IP Non-Tech
 "CondWPerBtuh" = 0   $ Msr (Multi)TechID: StdNResSplitAC-lt45
 "Conference_EWSF" = 1   $ IP Non-Tech
 "Conference_LWSF" = 1.4   $ IP Non-Tech
 "CoolSensCap" = 0.754064286   $ Msr (Multi)TechID: StdNResSplitAC-lt45
 "CoolSetT" = 45   $ IP Non-Tech
 "CoolType" = DX   $ IP Non-Tech
 "CoolingEIR" = 0.23878   $ Msr (Multi)TechID: StdNResSplitAC-lt45
 "CopyRoom_EWSF" = 1.5   $ IP Non-Tech
 "CopyRoom_LWSF" = 1.3   $ IP Non-Tech
 "CrnkEIR" = 0.0023878   $ Msr (Multi)TechID: StdNResSplitAC-lt45
 "CrnkMaxT" = 50   $ Msr (Multi)TechID: StdNResSplitAC-lt45
 "DXType" = SplitSEER   $ Msr (Multi)TechID: StdNResSplitAC-lt45
 "DesCoolT" = 75   $ IP Non-Tech
 "DesHeatT" = 73   $ IP Non-Tech
 "EER" = 12.16551724   $ Msr (Multi)TechID: StdNResSplitAC-lt45
 "EIR_fT" = SpltAC1Sp-lt45_EIR_fT   $ Msr (Multi)TechID: StdNResSplitAC-lt45
 "EconoCtrl" = FIXED   $ Msr (Multi)TechID: StdNResSplitAC-lt45
 "EconoEnthLimit" = 28   $ IP Non-Tech
 "EconoTempLimit" = 75   $ IP Non-Tech
 "Elevation" = 16   $ IP Non-Tech
 "FanEirPlr" = TwoSpeedFan   $ Msr (Multi)TechID: StdNResSplitAC-lt45
 "FanWPerCfm" = 0.294   $ Msr (Multi)TechID: StdNResSplitAC-lt45
 "HDD_CloudAmt1" = 0   $ IP Non-Tech
 "HDD_DBHi1" = 50   $ IP Non-Tech
 "HDD_DBRange1" = 21   $ IP Non-Tech
 "HDD_Day1" = 15   $ IP Non-Tech
 "HDD_HrHi1" = 16   $ IP Non-Tech
 "HDD_HrLo1" = 8   $ IP Non-Tech
 "HDD_WB1" = 43.9   $ IP Non-Tech
 "HDD_WindSpd1" = 13.8   $ IP Non-Tech
 "HIR_fT" = 0   $ Msr (Multi)TechID: StdNResSplitAC-lt45
 "HSPF" = 0   $ Msr (Multi)TechID: StdNResSplitAC-lt45
 "Hall_EWSF" = 0.2   $ IP Non-Tech
 "Hall_LWSF" = 0.6   $ IP Non-Tech
 "HeatSrc" = FURNACE   $ IP Non-Tech
 "HeatSrcTU" = HEAT-PUMP   $ IP Non-Tech
 "HeatType" = GasFurn   $ IP Non-Tech
 "HeatTypeTU" = HEAT-PUMP   $ IP Non-Tech
 "HtCap_fT" = 0   $ Msr (Multi)TechID: StdNResSplitAC-lt45
 "HtCoolCapRatio" = 0   $ Msr (Multi)TechID: StdNResSplitAC-lt45
 "HtgEIR" = 0   $ Msr (Multi)TechID: StdNResSplitAC-lt45
 "IndoorFanMode" = CONTINUOUS   $ IP Non-Tech
 "KT_TransferAir" = Yes   $ IP Non-Tech
 "Latitude" = 38.5   $ IP Non-Tech
 "LobbyWaiting_EWSF" = 0.5   $ IP Non-Tech
 "LobbyWaiting_LWSF" = 1.3   $ IP Non-Tech
 "Longitude" = 121.5   $ IP Non-Tech
 "LowSpdCapRatio" = 1   $ Msr (Multi)TechID: StdNResSplitAC-lt45
 "LowSpdCfmRatio" = 1   $ Msr (Multi)TechID: StdNResSplitAC-lt45
 "MZFanMechEff" = 0.58   $ IP Non-Tech
 "MZHasRetFan" = FALSE   $ IP Non-Tech
 "MZ_RFanWPerCfm" = 0.33   $ IP Non-Tech
 "MZ_SFanWPerCfm" = 0.75   $ IP Non-Tech
 "MZ_SupFanStatic" = 2.25   $ IP Non-Tech
 "MaxOAFrac" = 1   $ Msr (Multi)TechID: StdNResSplitAC-lt45
 "MaxSupT_MZ" = 100   $ IP Non-Tech
 "MaxSupT_SZ" = 100   $ IP Non-Tech
 "MaxSupT_TU" = 90   $ IP Non-Tech
 "MechElecRoom_EWSF" = 0.2   $ IP Non-Tech
 "MechElecRoom_LWSF" = 0.7   $ IP Non-Tech
 "MinCfmPerSF" = 0.4   $ IP Non-Tech
 "MinSupT" = 55   $ IP Non-Tech
 "NumStages" = 1   $ Msr (Multi)TechID: StdNResSplitAC-lt45
 "OccCoolT" = 76   $ IP Non-Tech
 "OccHeatT" = 72   $ IP Non-Tech
 "OfficeOpen_EWSF" = 1.5   $ IP Non-Tech
 "OfficeOpen_LWSF" = 1.05   $ IP Non-Tech
 "OfficeSmall_EWSF" = 1.5   $ IP Non-Tech
 "OfficeSmall_LWSF" = 1.3   $ IP Non-Tech
 "PkgDxVintEconoFlag" = 1   $ IP Non-Tech
 "Restroom_EWSF" = 0.2   $ IP Non-Tech
 "Restroom_LWSF" = 0.6   $ IP Non-Tech
 "SEER" = 14   $ Msr (Multi)TechID: StdNResSplitAC-lt45
 "SZFanMechEff" = 0.58   $ IP Non-Tech
 "SZHasRetFan" = FALSE   $ IP Non-Tech
 "SZ_Is_2Spd" = TRUE   $ IP Non-Tech
 "SZ_SFanWPerCfm" = 0.46   $ IP Non-Tech
 "SZ_SupFanStatic" = 0.75   $ IP Non-Tech
 "Sector" = Any   $ Msr (Multi)TechID: StdNResSplitAC-lt45
 "StorageSmlCond_EWSF" = 0.2   $ IP Non-Tech
 "StorageSmlCond_LWSF" = 0.6   $ IP Non-Tech
 "SubType" = AC   $ Msr (Multi)TechID: StdNResSplitAC-lt45
 "T24GlzTbl" = TypeTbl   $ IP Non-Tech
 "TermUnitFanMechEff" = 1   $ IP Non-Tech
 "TermUnitFanMode" = INTERMITTENT   $ IP Non-Tech
 "TotCoolCap" = 30924.85714   $ Msr (Multi)TechID: StdNResSplitAC-lt45
 "TwrSetpt" = 82.3   $ IP Non-Tech
 "UnocCoolT" = 86   $ IP Non-Tech
 "UnocHeatT" = 62   $ IP Non-Tech
 "UseEconoVintApplic" = FALSE   $ Msr (Multi)TechID: StdNResSplitAC-lt45
 "WlhpVintEconoFlag" = 1   $ IP Non-Tech
 "DuctDT" = 1   $ IP Tech: ComDuctInsul-1
 "DuctAirLoss" = 0   $ IP Tech: ComDuctLeak-0
 "DuctLossOAFrac" = 0   $ IP Tech: ComDuctLeak-0
 "ComRoofInsCalc" = FromUo   $ IP Tech: ComRoofIns-WFrm-0.04
 "ComRoofInsR" = -999   $ IP Tech: ComRoofIns-WFrm-0.04
 "ComRoofUo" = 0.04   $ IP Tech: ComRoofIns-WFrm-0.04
 "ComEWInsCalc" = FromUo   $ IP Tech: ComWallIns-WFrm-0.06
 "ComEWInsR" = -999   $ IP Tech: ComWallIns-WFrm-0.06
 "ComEWUo" = 0.06   $ IP Tech: ComWallIns-WFrm-0.06
 "ComN_SHGC" = 0.25   $ IP Tech: NResWin-ComN-0.36-0.25
 "ComN_UFactor" = 0.36   $ IP Tech: NResWin-ComN-0.36-0.25
 "ComN_VisTrans" = 0.41   $ IP Tech: NResWin-ComN-0.36-0.25
 "ComN_WinCode" = G2668   $ IP Tech: NResWin-ComN-0.36-0.25
 "ComN_WinFrmFrac" = 0.17   $ IP Tech: NResWin-ComN-0.36-0.25
 "ComN_WinFrmU" = 0.3   $ IP Tech: NResWin-ComN-0.36-0.25
 "ComO_SHGC" = 0.25   $ IP Tech: NResWin-ComO-0.36-0.25
 "ComO_UFactor" = 0.36   $ IP Tech: NResWin-ComO-0.36-0.25
 "ComO_VisTrans" = 0.41   $ IP Tech: NResWin-ComO-0.36-0.25
 "ComO_WinCode" = G2668   $ IP Tech: NResWin-ComO-0.36-0.25
 "ComO_WinFrmFrac" = 0.17   $ IP Tech: NResWin-ComO-0.36-0.25
 "ComO_WinFrmU" = 0.3   $ IP Tech: NResWin-ComO-0.36-0.25
 "LtgMsrApplic" = ALL   $ IP Tech: NonResLtgRefPre
 "LtgSav_CFL" = 0   $ IP Tech: NonResLtgRefPre
 "LtgSav_EX" = 0   $ IP Tech: NonResLtgRefPre
 "LtgSav_HB" = 0   $ IP Tech: NonResLtgRefPre
 "LtgSav_LF" = 0   $ IP Tech: NonResLtgRefPre
 "LtgSav_SP" = 0   $ IP Tech: NonResLtgRefPre
 "CEIR_fPLR" = PSZ65to135_CEIR_fPLR   $ IP Tech: PkgAC2SpP-65to135-E11
 "CLoss_fPLR" = PSZ65to135_CLoss_fPLR   $ IP Tech: PkgAC2SpP-65to135-E11
 "COP" = -1   $ IP Tech: PkgAC2SpP-65to135-E11
 "HtgFuel" = Gas   $ IP Tech: PkgAC2SpP-65to135-E11
 "IEER" = 13.35   $ IP Tech: PkgAC2SpP-65to135-E11
 "NominalCap" = 15   $ IP Tech: PkgAC2SpP-65to135-E11
 "RatedEER" = 11   $ IP Tech: PkgAC2SpP-65to135-E11
 "RatedSupMtrClass" = Premium   $ IP Tech: PkgAC2SpP-65to135-E11
 "SizeRange" = 65to135   $ IP Tech: PkgAC2SpP-65to135-E11
 "SupMotEff" = 0.865   $ IP Tech: PkgAC2SpP-65to135-E11
 "Tier" = 0   $ IP Tech: PkgAC2SpP-65to135-E11
 "FanPwrMult" = 1   $ IP Tech: PkgFurn-0.80AFUE
 "FurnAFUE" = 0.8   $ IP Tech: PkgFurn-0.80AFUE
 "FurnEt" = 0.82   $ IP Tech: PkgFurn-0.80AFUE
 "FurnaceAuxKW" = 0.1   $ IP Tech: PkgFurn-0.80AFUE
 "HIR_fPLR" = Furnace-HIR-fPLR   $ IP Tech: PkgFurn-0.80AFUE
 "VSM" = FALSE   $ IP Tech: PkgFurn-0.80AFUE
 "BFMult" = 1   $ IP Tech: RefgChg-NRes-Std
 "CoolEirMult" = 1   $ IP Tech: RefgChg-NRes-Std
 "SensCoolCapMult" = 1   $ IP Tech: RefgChg-NRes-Std
 "TotCoolCapMult" = 1   $ IP Tech: RefgChg-NRes-Std
 "AltAdjFactor" = 1.000622   $ Sizing
 "CAssFlo_L_Break_CZn" = 457.0954   $ Sizing
 "CAssFlo_L_CompDC_CZn" = 149.162   $ Sizing
 "CAssFlo_L_Conf_CZn" = 262.3862   $ Sizing
 "CAssFlo_L_CopyRm_CZn" = 94.08429   $ Sizing
 "CAssFlo_L_Hall_EZn" = 97.21422   $ Sizing
 "CAssFlo_L_Hall_NZn" = 57.54934   $ Sizing
 "CAssFlo_L_Hall_SZn" = 97.39676   $ Sizing
 "CAssFlo_L_Hall_WZn" = 106.8728   $ Sizing
 "CAssFlo_L_LobWait_EZn" = 232.2968   $ Sizing
 "CAssFlo_L_LobWait_NZn" = 159.0976   $ Sizing
 "CAssFlo_L_LobWait_SZn" = 237.2231   $ Sizing
 "CAssFlo_L_LobWait_WZn" = 271.8683   $ Sizing
 "CAssFlo_L_MechElec_CZn" = 69.98848   $ Sizing
 "CAssFlo_L_OfficeOpn_CZn" = 64.59626   $ Sizing
 "CAssFlo_L_OfficeOpn_EZn" = 433.8828   $ Sizing
 "CAssFlo_L_OfficeOpn_NZn" = 338.6246   $ Sizing
 "CAssFlo_L_OfficeOpn_SZn" = 431.8339   $ Sizing
 "CAssFlo_L_OfficeOpn_WZn" = 485.7542   $ Sizing
 "CAssFlo_L_OfficeSm_EZn" = 362.0808   $ Sizing
 "CAssFlo_L_OfficeSm_NZn" = 263.8599   $ Sizing
 "CAssFlo_L_OfficeSm_SZn" = 368.5476   $ Sizing
 "CAssFlo_L_OfficeSm_WZn" = 410.1292   $ Sizing
 "CAssFlo_L_Restrm_CZn" = 84.2965   $ Sizing
 "CAssFlo_L_StorSm_CZn" = 35.49323   $ Sizing
 "CAssFlo_L_StorSm_EZn" = 96.25357   $ Sizing
 "CAssFlo_L_StorSm_NZn" = 56.34517   $ Sizing
 "CAssFlo_L_StorSm_SZn" = 95.65812   $ Sizing
 "CAssFlo_L_StorSm_WZn" = 105.3861   $ Sizing
 "CAssFlo_T_Conf_CZn" = 254.4476   $ Sizing
 "CAssFlo_T_Hall_EZn" = 110.5625   $ Sizing
 "CAssFlo_T_Hall_NZn" = 64.68523   $ Sizing
 "CAssFlo_T_Hall_SZn" = 107.7897   $ Sizing
 "CAssFlo_T_Hall_WZn" = 117.4727   $ Sizing
 "CAssFlo_T_OfficeOpn_CZn" = 62.71556   $ Sizing
 "CAssFlo_T_OfficeOpn_EZn" = 461.6932   $ Sizing
 "CAssFlo_T_OfficeOpn_NZn" = 348.5675   $ Sizing
 "CAssFlo_T_OfficeOpn_SZn" = 453.5597   $ Sizing
 "CAssFlo_T_OfficeOpn_WZn" = 499.5069   $ Sizing
 "CAssFlo_T_OfficeSm_EZn" = 390.1335   $ Sizing
 "CAssFlo_T_OfficeSm_NZn" = 275.8694   $ Sizing
 "CAssFlo_T_OfficeSm_SZn" = 390.0263   $ Sizing
 "CAssFlo_T_OfficeSm_WZn" = 424.2178   $ Sizing
 "CAssFlo_T_Restrm_CZn" = 126.5779   $ Sizing
 "CAssFlo_T_StorSm_EZn" = 114.6595   $ Sizing
 "CAssFlo_T_StorSm_NZn" = 70.24072   $ Sizing
 "CAssFlo_T_StorSm_SZn" = 111.9421   $ Sizing
 "CAssFlo_T_StorSm_WZn" = 124.768   $ Sizing
 "CHRtFlo_Sys_L_Break_C" = 457.0954   $ Sizing
 "CHRtFlo_Sys_L_CompDC_C" = 175.8233   $ Sizing
 "CHRtFlo_Sys_L_Conf_C" = 262.3862   $ Sizing
 "CHRtFlo_Sys_L_CopyRm_C" = 94.08429   $ Sizing
 "CHRtFlo_Sys_L_Hall_E" = 114.5253   $ Sizing
 "CHRtFlo_Sys_L_Hall_N" = 57.54934   $ Sizing
 "CHRtFlo_Sys_L_Hall_S" = 114.2048   $ Sizing
 "CHRtFlo_Sys_L_Hall_W" = 112.0663   $ Sizing
 "CHRtFlo_Sys_L_LobWait_E" = 266.8492   $ Sizing
 "CHRtFlo_Sys_L_LobWait_N" = 159.0976   $ Sizing
 "CHRtFlo_Sys_L_LobWait_S" = 263.4611   $ Sizing
 "CHRtFlo_Sys_L_LobWait_W" = 271.8683   $ Sizing
 "CHRtFlo_Sys_L_MechElec_C" = 94.03337   $ Sizing
 "CHRtFlo_Sys_L_OfficeOpn_C" = 81.04567   $ Sizing
 "CHRtFlo_Sys_L_OfficeOpn_E" = 506.8831   $ Sizing
 "CHRtFlo_Sys_L_OfficeOpn_N" = 338.6246   $ Sizing
 "CHRtFlo_Sys_L_OfficeOpn_S" = 483.0354   $ Sizing
 "CHRtFlo_Sys_L_OfficeOpn_W" = 485.7542   $ Sizing
 "CHRtFlo_Sys_L_OfficeSm_E" = 428.7898   $ Sizing
 "CHRtFlo_Sys_L_OfficeSm_N" = 263.8599   $ Sizing
 "CHRtFlo_Sys_L_OfficeSm_S" = 420.1839   $ Sizing
 "CHRtFlo_Sys_L_OfficeSm_W" = 418.1105   $ Sizing
 "CHRtFlo_Sys_L_Restrm_C" = 98.51186   $ Sizing
 "CHRtFlo_Sys_L_StorSm_C" = 43.38713   $ Sizing
 "CHRtFlo_Sys_L_StorSm_E" = 113.0883   $ Sizing
 "CHRtFlo_Sys_L_StorSm_N" = 57.31404   $ Sizing
 "CHRtFlo_Sys_L_StorSm_S" = 108.6478   $ Sizing
 "CHRtFlo_Sys_L_StorSm_W" = 105.3861   $ Sizing
 "CHRtFlo_Sys_T_Conf_C" = 254.4476   $ Sizing
 "CHRtFlo_Sys_T_Hall_E" = 121.012   $ Sizing
 "CHRtFlo_Sys_T_Hall_N" = 64.68523   $ Sizing
 "CHRtFlo_Sys_T_Hall_S" = 121.6109   $ Sizing
 "CHRtFlo_Sys_T_Hall_W" = 117.4727   $ Sizing
 "CHRtFlo_Sys_T_OfficeOpn_C" = 72.5645   $ Sizing
 "CHRtFlo_Sys_T_OfficeOpn_E" = 490.1287   $ Sizing
 "CHRtFlo_Sys_T_OfficeOpn_N" = 348.5675   $ Sizing
 "CHRtFlo_Sys_T_OfficeOpn_S" = 490.7986   $ Sizing
 "CHRtFlo_Sys_T_OfficeOpn_W" = 499.5069   $ Sizing
 "CHRtFlo_Sys_T_OfficeSm_E" = 420.9719   $ Sizing
 "CHRtFlo_Sys_T_OfficeSm_N" = 275.8694   $ Sizing
 "CHRtFlo_Sys_T_OfficeSm_S" = 432.8807   $ Sizing
 "CHRtFlo_Sys_T_OfficeSm_W" = 424.2178   $ Sizing
 "CHRtFlo_Sys_T_Restrm_C" = 142.3291   $ Sizing
 "CHRtFlo_Sys_T_StorSm_E" = 122.2011   $ Sizing
 "CHRtFlo_Sys_T_StorSm_N" = 70.24072   $ Sizing
 "CHRtFlo_Sys_T_StorSm_S" = 119.1895   $ Sizing
 "CHRtFlo_Sys_T_StorSm_W" = 124.768   $ Sizing
 "CRtdFlo_Sys_L_Break_C" = 457.0954   $ Sizing
 "CRtdFlo_Sys_L_CompDC_C" = 149.162   $ Sizing
 "CRtdFlo_Sys_L_Conf_C" = 262.3862   $ Sizing
 "CRtdFlo_Sys_L_CopyRm_C" = 94.08429   $ Sizing
 "CRtdFlo_Sys_L_Hall_E" = 97.21423   $ Sizing
 "CRtdFlo_Sys_L_Hall_N" = 57.54934   $ Sizing
 "CRtdFlo_Sys_L_Hall_S" = 97.39677   $ Sizing
 "CRtdFlo_Sys_L_Hall_W" = 106.8728   $ Sizing
 "CRtdFlo_Sys_L_LobWait_E" = 232.2968   $ Sizing
 "CRtdFlo_Sys_L_LobWait_N" = 159.0976   $ Sizing
 "CRtdFlo_Sys_L_LobWait_S" = 237.2231   $ Sizing
 "CRtdFlo_Sys_L_LobWait_W" = 271.8683   $ Sizing
 "CRtdFlo_Sys_L_MechElec_C" = 69.98848   $ Sizing
 "CRtdFlo_Sys_L_OfficeOpn_C" = 64.59626   $ Sizing
 "CRtdFlo_Sys_L_OfficeOpn_E" = 433.8828   $ Sizing
 "CRtdFlo_Sys_L_OfficeOpn_N" = 338.6246   $ Sizing
 "CRtdFlo_Sys_L_OfficeOpn_S" = 431.8339   $ Sizing
 "CRtdFlo_Sys_L_OfficeOpn_W" = 485.7542   $ Sizing
 "CRtdFlo_Sys_L_OfficeSm_E" = 362.0808   $ Sizing
 "CRtdFlo_Sys_L_OfficeSm_N" = 263.8599   $ Sizing
 "CRtdFlo_Sys_L_OfficeSm_S" = 368.5476   $ Sizing
 "CRtdFlo_Sys_L_OfficeSm_W" = 410.1292   $ Sizing
 "CRtdFlo_Sys_L_Restrm_C" = 84.2965   $ Sizing
 "CRtdFlo_Sys_L_StorSm_C" = 35.49323   $ Sizing
 "CRtdFlo_Sys_L_StorSm_E" = 96.25357   $ Sizing
 "CRtdFlo_Sys_L_StorSm_N" = 56.34517   $ Sizing
 "CRtdFlo_Sys_L_StorSm_S" = 95.65812   $ Sizing
 "CRtdFlo_Sys_L_StorSm_W" = 105.3861   $ Sizing
 "CRtdFlo_Sys_T_Conf_C" = 254.4476   $ Sizing
 "CRtdFlo_Sys_T_Hall_E" = 110.5625   $ Sizing
 "CRtdFlo_Sys_T_Hall_N" = 64.68523   $ Sizing
 "CRtdFlo_Sys_T_Hall_S" = 107.7897   $ Sizing
 "CRtdFlo_Sys_T_Hall_W" = 117.4727   $ Sizing
 "CRtdFlo_Sys_T_OfficeOpn_C" = 62.71556   $ Sizing
 "CRtdFlo_Sys_T_OfficeOpn_E" = 461.6932   $ Sizing
 "CRtdFlo_Sys_T_OfficeOpn_N" = 348.5675   $ Sizing
 "CRtdFlo_Sys_T_OfficeOpn_S" = 453.5597   $ Sizing
 "CRtdFlo_Sys_T_OfficeOpn_W" = 499.5069   $ Sizing
 "CRtdFlo_Sys_T_OfficeSm_E" = 390.1335   $ Sizing
 "CRtdFlo_Sys_T_OfficeSm_N" = 275.8694   $ Sizing
 "CRtdFlo_Sys_T_OfficeSm_S" = 390.0263   $ Sizing
 "CRtdFlo_Sys_T_OfficeSm_W" = 424.2178   $ Sizing
 "CRtdFlo_Sys_T_Restrm_C" = 126.5779   $ Sizing
 "CRtdFlo_Sys_T_StorSm_E" = 114.6595   $ Sizing
 "CRtdFlo_Sys_T_StorSm_N" = 70.24072   $ Sizing
 "CRtdFlo_Sys_T_StorSm_S" = 111.9421   $ Sizing
 "CRtdFlo_Sys_T_StorSm_W" = 124.768   $ Sizing
 "CSupFlo_Sys_L_Break_C" = 457.0954   $ Sizing
 "CSupFlo_Sys_L_CompDC_C" = 149.162   $ Sizing
 "CSupFlo_Sys_L_Conf_C" = 262.3862   $ Sizing
 "CSupFlo_Sys_L_CopyRm_C" = 94.08429   $ Sizing
 "CSupFlo_Sys_L_Hall_E" = 97.21423   $ Sizing
 "CSupFlo_Sys_L_Hall_N" = 57.54934   $ Sizing
 "CSupFlo_Sys_L_Hall_S" = 97.39677   $ Sizing
 "CSupFlo_Sys_L_Hall_W" = 106.8728   $ Sizing
 "CSupFlo_Sys_L_LobWait_E" = 232.2968   $ Sizing
 "CSupFlo_Sys_L_LobWait_N" = 159.0976   $ Sizing
 "CSupFlo_Sys_L_LobWait_S" = 237.2231   $ Sizing
 "CSupFlo_Sys_L_LobWait_W" = 271.8683   $ Sizing
 "CSupFlo_Sys_L_MechElec_C" = 69.98848   $ Sizing
 "CSupFlo_Sys_L_OfficeOpn_C" = 64.59626   $ Sizing
 "CSupFlo_Sys_L_OfficeOpn_E" = 433.8828   $ Sizing
 "CSupFlo_Sys_L_OfficeOpn_N" = 338.6246   $ Sizing
 "CSupFlo_Sys_L_OfficeOpn_S" = 431.8339   $ Sizing
 "CSupFlo_Sys_L_OfficeOpn_W" = 485.7542   $ Sizing
 "CSupFlo_Sys_L_OfficeSm_E" = 362.0808   $ Sizing
 "CSupFlo_Sys_L_OfficeSm_N" = 263.8599   $ Sizing
 "CSupFlo_Sys_L_OfficeSm_S" = 368.5476   $ Sizing
 "CSupFlo_Sys_L_OfficeSm_W" = 410.1292   $ Sizing
 "CSupFlo_Sys_L_Restrm_C" = 84.2965   $ Sizing
 "CSupFlo_Sys_L_StorSm_C" = 35.49323   $ Sizing
 "CSupFlo_Sys_L_StorSm_E" = 96.25357   $ Sizing
 "CSupFlo_Sys_L_StorSm_N" = 56.34517   $ Sizing
 "CSupFlo_Sys_L_StorSm_S" = 95.65812   $ Sizing
 "CSupFlo_Sys_L_StorSm_W" = 105.3861   $ Sizing
 "CSupFlo_Sys_T_Conf_C" = 254.4476   $ Sizing
 "CSupFlo_Sys_T_Hall_E" = 110.5625   $ Sizing
 "CSupFlo_Sys_T_Hall_N" = 64.68523   $ Sizing
 "CSupFlo_Sys_T_Hall_S" = 107.7897   $ Sizing
 "CSupFlo_Sys_T_Hall_W" = 117.4727   $ Sizing
 "CSupFlo_Sys_T_OfficeOpn_C" = 62.71556   $ Sizing
 "CSupFlo_Sys_T_OfficeOpn_E" = 461.6932   $ Sizing
 "CSupFlo_Sys_T_OfficeOpn_N" = 348.5675   $ Sizing
 "CSupFlo_Sys_T_OfficeOpn_S" = 453.5597   $ Sizing
 "CSupFlo_Sys_T_OfficeOpn_W" = 499.5069   $ Sizing
 "CSupFlo_Sys_T_OfficeSm_E" = 390.1335   $ Sizing
 "CSupFlo_Sys_T_OfficeSm_N" = 275.8694   $ Sizing
 "CSupFlo_Sys_T_OfficeSm_S" = 390.0263   $ Sizing
 "CSupFlo_Sys_T_OfficeSm_W" = 424.2178   $ Sizing
 "CSupFlo_Sys_T_Restrm_C" = 126.5779   $ Sizing
 "CSupFlo_Sys_T_StorSm_E" = 114.6595   $ Sizing
 "CSupFlo_Sys_T_StorSm_N" = 70.24072   $ Sizing
 "CSupFlo_Sys_T_StorSm_S" = 111.9421   $ Sizing
 "CSupFlo_Sys_T_StorSm_W" = 124.768   $ Sizing
 "ClCap_Sys_L_Break_C" = 15662.09   $ Sizing
 "ClCap_Sys_L_CompDC_C" = 5110.946   $ Sizing
 "ClCap_Sys_L_Conf_C" = 11442.46   $ Sizing
 "ClCap_Sys_L_CopyRm_C" = 3223.74   $ Sizing
 "ClCap_Sys_L_Hall_E" = 3330.986   $ Sizing
 "ClCap_Sys_L_Hall_N" = 1971.893   $ Sizing
 "ClCap_Sys_L_Hall_S" = 3337.241   $ Sizing
 "ClCap_Sys_L_Hall_W" = 3661.931   $ Sizing
 "ClCap_Sys_L_LobWait_E" = 7959.508   $ Sizing
 "ClCap_Sys_L_LobWait_N" = 5451.381   $ Sizing
 "ClCap_Sys_L_LobWait_S" = 8128.303   $ Sizing
 "ClCap_Sys_L_LobWait_W" = 9315.402   $ Sizing
 "ClCap_Sys_L_MechElec_C" = 2398.113   $ Sizing
 "ClCap_Sys_L_OfficeOpn_C" = 2213.351   $ Sizing
 "ClCap_Sys_L_OfficeOpn_E" = 14866.73   $ Sizing
 "ClCap_Sys_L_OfficeOpn_N" = 11602.76   $ Sizing
 "ClCap_Sys_L_OfficeOpn_S" = 14796.53   $ Sizing
 "ClCap_Sys_L_OfficeOpn_W" = 16644.07   $ Sizing
 "ClCap_Sys_L_OfficeSm_E" = 12406.48   $ Sizing
 "ClCap_Sys_L_OfficeSm_N" = 9040.999   $ Sizing
 "ClCap_Sys_L_OfficeSm_S" = 12628.06   $ Sizing
 "ClCap_Sys_L_OfficeSm_W" = 14052.83   $ Sizing
 "ClCap_Sys_L_Restrm_C" = 2888.368   $ Sizing
 "ClCap_Sys_L_StorSm_C" = 1216.154   $ Sizing
 "ClCap_Sys_L_StorSm_E" = 3298.07   $ Sizing
 "ClCap_Sys_L_StorSm_N" = 1930.633   $ Sizing
 "ClCap_Sys_L_StorSm_S" = 3277.667   $ Sizing
 "ClCap_Sys_L_StorSm_W" = 3610.99   $ Sizing
 "ClCap_Sys_T_Conf_C" = 11096.26   $ Sizing
 "ClCap_Sys_T_Hall_E" = 3788.357   $ Sizing
 "ClCap_Sys_T_Hall_N" = 2216.4   $ Sizing
 "ClCap_Sys_T_Hall_S" = 3693.35   $ Sizing
 "ClCap_Sys_T_Hall_W" = 4025.132   $ Sizing
 "ClCap_Sys_T_OfficeOpn_C" = 2148.91   $ Sizing
 "ClCap_Sys_T_OfficeOpn_E" = 15819.64   $ Sizing
 "ClCap_Sys_T_OfficeOpn_N" = 11943.45   $ Sizing
 "ClCap_Sys_T_OfficeOpn_S" = 15540.95   $ Sizing
 "ClCap_Sys_T_OfficeOpn_W" = 17115.3   $ Sizing
 "ClCap_Sys_T_OfficeSm_E" = 13367.69   $ Sizing
 "ClCap_Sys_T_OfficeSm_N" = 9452.496   $ Sizing
 "ClCap_Sys_T_OfficeSm_S" = 13364.01   $ Sizing
 "ClCap_Sys_T_OfficeSm_W" = 14535.56   $ Sizing
 "ClCap_Sys_T_Restrm_C" = 4337.113   $ Sizing
 "ClCap_Sys_T_StorSm_E" = 3928.739   $ Sizing
 "ClCap_Sys_T_StorSm_N" = 2406.755   $ Sizing
 "ClCap_Sys_T_StorSm_S" = 3835.628   $ Sizing
 "ClCap_Sys_T_StorSm_W" = 4275.1   $ Sizing
 "HtCap_Sys_L_Break_C" = -26595.12   $ Sizing
 "HtCap_Sys_L_CompDC_C" = -6372.336   $ Sizing
 "HtCap_Sys_L_Conf_C" = -15851.51   $ Sizing
 "HtCap_Sys_L_CopyRm_C" = -5506.141   $ Sizing
 "HtCap_Sys_L_Hall_E" = -4229.616   $ Sizing
 "HtCap_Sys_L_Hall_N" = -2397.211   $ Sizing
 "HtCap_Sys_L_Hall_S" = -4089.509   $ Sizing
 "HtCap_Sys_L_Hall_W" = -4079.88   $ Sizing
 "HtCap_Sys_L_LobWait_E" = -10526.47   $ Sizing
 "HtCap_Sys_L_LobWait_N" = -7733.473   $ Sizing
 "HtCap_Sys_L_LobWait_S" = -10437.51   $ Sizing
 "HtCap_Sys_L_LobWait_W" = -10838.35   $ Sizing
 "HtCap_Sys_L_MechElec_C" = -3946.203   $ Sizing
 "HtCap_Sys_L_OfficeOpn_C" = -3165.365   $ Sizing
 "HtCap_Sys_L_OfficeOpn_E" = -18628.28   $ Sizing
 "HtCap_Sys_L_OfficeOpn_N" = -14177.67   $ Sizing
 "HtCap_Sys_L_OfficeOpn_S" = -17580.83   $ Sizing
 "HtCap_Sys_L_OfficeOpn_W" = -18227.27   $ Sizing
 "HtCap_Sys_L_OfficeSm_E" = -15652.7   $ Sizing
 "HtCap_Sys_L_OfficeSm_N" = -10659.23   $ Sizing
 "HtCap_Sys_L_OfficeSm_S" = -14669.46   $ Sizing
 "HtCap_Sys_L_OfficeSm_W" = -15076.89   $ Sizing
 "HtCap_Sys_L_Restrm_C" = -3502.569   $ Sizing
 "HtCap_Sys_L_StorSm_C" = -1754.547   $ Sizing
 "HtCap_Sys_L_StorSm_E" = -4328.909   $ Sizing
 "HtCap_Sys_L_StorSm_N" = -2650.377   $ Sizing
 "HtCap_Sys_L_StorSm_S" = -4194.597   $ Sizing
 "HtCap_Sys_L_StorSm_W" = -4167.699   $ Sizing
 "HtCap_Sys_T_Conf_C" = -15943.63   $ Sizing
 "HtCap_Sys_T_Hall_E" = -4850.851   $ Sizing
 "HtCap_Sys_T_Hall_N" = -2965.328   $ Sizing
 "HtCap_Sys_T_Hall_S" = -4881.009   $ Sizing
 "HtCap_Sys_T_Hall_W" = -4751.961   $ Sizing
 "HtCap_Sys_T_OfficeOpn_C" = -3209.732   $ Sizing
 "HtCap_Sys_T_OfficeOpn_E" = -20149.82   $ Sizing
 "HtCap_Sys_T_OfficeOpn_N" = -15874.23   $ Sizing
 "HtCap_Sys_T_OfficeOpn_S" = -20161.02   $ Sizing
 "HtCap_Sys_T_OfficeOpn_W" = -20785.94   $ Sizing
 "HtCap_Sys_T_OfficeSm_E" = -16877.65   $ Sizing
 "HtCap_Sys_T_OfficeSm_N" = -12321.28   $ Sizing
 "HtCap_Sys_T_OfficeSm_S" = -17224.13   $ Sizing
 "HtCap_Sys_T_OfficeSm_W" = -17141.81   $ Sizing
 "HtCap_Sys_T_Restrm_C" = -5584.686   $ Sizing
 "HtCap_Sys_T_StorSm_E" = -5272.956   $ Sizing
 "HtCap_Sys_T_StorSm_N" = -3564.427   $ Sizing
 "HtCap_Sys_T_StorSm_S" = -5096.101   $ Sizing
 "HtCap_Sys_T_StorSm_W" = -5455.333   $ Sizing
..

##include Templates\OfS_DX_SZ.inp
END ..
COMPUTE ..
STOP ..
