INPUT ..

##fileprefix C:\Users\jglasskatz\MASControl3\
##set1 IsSizing FALSE
##set1 CoolType DX
##set1 HeatType FURNACE
##set1 EU_HrRepVar 0
##set1 BldgVint 2020
##set1 BldgLoc CZ01

 ##set1 mBFMult 1   $ IP Tech: RefgChg-NRes-Std

PARAMETER
 "AltFactor" = 1.00753   $ IP Non-Tech
 "BF_fFlow" = SpltAC2SpHiSEER_BF_fFlow   $ Msr (Multi)TechID: MsrNResSplitAC-45to55-S17
 "BF_fT" = SpltAC2SpHiSEER_BF_fT   $ Msr (Multi)TechID: MsrNResSplitAC-45to55-S17
 "BldgEconoFlag" = 1   $ IP Non-Tech
 "Break_EWSF" = 1   $ IP Non-Tech
 "Break_LWSF" = 0.65   $ IP Non-Tech
 "CDD_DBHi10" = 65   $ IP Non-Tech
 "CDD_DBHi7" = 68   $ IP Non-Tech
 "CDD_DBHi8" = 66   $ IP Non-Tech
 "CDD_DBHi9" = 77   $ IP Non-Tech
 "CDD_DBRange10" = 17   $ IP Non-Tech
 "CDD_DBRange7" = 11   $ IP Non-Tech
 "CDD_DBRange8" = 10   $ IP Non-Tech
 "CDD_DBRange9" = 29   $ IP Non-Tech
 "CDD_Day10" = 15   $ IP Non-Tech
 "CDD_Day7" = 16   $ IP Non-Tech
 "CDD_Day8" = 20   $ IP Non-Tech
 "CDD_Day9" = 17   $ IP Non-Tech
 "CDD_HrHi10" = 12   $ IP Non-Tech
 "CDD_HrHi7" = 12   $ IP Non-Tech
 "CDD_HrHi8" = 13   $ IP Non-Tech
 "CDD_HrHi9" = 17   $ IP Non-Tech
 "CDD_HrLo10" = 6   $ IP Non-Tech
 "CDD_HrLo7" = 3   $ IP Non-Tech
 "CDD_HrLo8" = 8   $ IP Non-Tech
 "CDD_HrLo9" = 4   $ IP Non-Tech
 "CDD_WB10" = 57.53039551   $ IP Non-Tech
 "CDD_WB7" = 59.29250717   $ IP Non-Tech
 "CDD_WB8" = 60.75350189   $ IP Non-Tech
 "CDD_WB9" = 61.08643341   $ IP Non-Tech
 "CEIR_fPLR_Hot" = SpltAC2SpHiSEER_CEIR_fPLR_Hot   $ Msr (Multi)TechID: MsrNResSplitAC-45to55-S17
 "CEIR_fPLR_Mod" = SpltAC2SpHiSEER_CEIR_fPLR_Mod   $ Msr (Multi)TechID: MsrNResSplitAC-45to55-S17
 "CEIR_fPLR_Tem" = SpltAC2SpHiSEER_CEIR_fPLR_Tem   $ Msr (Multi)TechID: MsrNResSplitAC-45to55-S17
 "CLoss_fPLR_Hot" = SpltAC2SpHiSEER_CLoss_fPLR_Hot   $ Msr (Multi)TechID: MsrNResSplitAC-45to55-S17
 "CLoss_fPLR_Mod" = SpltAC2SpHiSEER_CLoss_fPLR_Mod   $ Msr (Multi)TechID: MsrNResSplitAC-45to55-S17
 "CLoss_fPLR_Tem" = SpltAC2SpHiSEER_CLoss_fPLR_Tem   $ Msr (Multi)TechID: MsrNResSplitAC-45to55-S17
 "COP47" = 0   $ Msr (Multi)TechID: MsrNResSplitAC-45to55-S17
 "CZ_Category" = Tem   $ IP Non-Tech
 "CapRange" = Any   $ Msr (Multi)TechID: MsrNResSplitAC-45to55-S17
 "CfmPerBtuh" = 0.03   $ Msr (Multi)TechID: MsrNResSplitAC-45to55-S17
 "ChwVintEconoFlag" = 1   $ IP Non-Tech
 "ClCap_fT" = SpltAC2SpHiSEER_ClCap_fT   $ Msr (Multi)TechID: MsrNResSplitAC-45to55-S17
 "ClSH_fT" = SpltAC2SpHiSEER_ClSH_fT   $ Msr (Multi)TechID: MsrNResSplitAC-45to55-S17
 "CoilBF" = 0.102   $ Msr (Multi)TechID: MsrNResSplitAC-45to55-S17
 "CompRoomData_EWSF" = 5   $ IP Non-Tech
 "CompRoomData_LWSF" = 0.8   $ IP Non-Tech
 "CondWPerBtuh" = 0   $ Msr (Multi)TechID: MsrNResSplitAC-45to55-S17
 "Conference_EWSF" = 1   $ IP Non-Tech
 "Conference_LWSF" = 0.85   $ IP Non-Tech
 "CoolSensCap" = 0.724   $ Msr (Multi)TechID: MsrNResSplitAC-45to55-S17
 "CoolSetT" = 45   $ IP Non-Tech
 "CoolType" = DX   $ IP Non-Tech
 "CoolingEIR" = 0.2225   $ Msr (Multi)TechID: MsrNResSplitAC-45to55-S17
 "CopyRoom_EWSF" = 1.5   $ IP Non-Tech
 "CopyRoom_LWSF" = 0.5   $ IP Non-Tech
 "CrnkEIR" = 0.002225   $ Msr (Multi)TechID: MsrNResSplitAC-45to55-S17
 "CrnkMaxT" = 50   $ Msr (Multi)TechID: MsrNResSplitAC-45to55-S17
 "DXType" = SplitSEER   $ Msr (Multi)TechID: MsrNResSplitAC-45to55-S17
 "DesCoolT" = 75   $ IP Non-Tech
 "DesHeatT" = 73   $ IP Non-Tech
 "EER" = 13.26   $ Msr (Multi)TechID: MsrNResSplitAC-45to55-S17
 "EIR_fT" = SpltAC2SpHiSEER_EIR_fT   $ Msr (Multi)TechID: MsrNResSplitAC-45to55-S17
 "EconoCtrl" = FIXED   $ Msr (Multi)TechID: MsrNResSplitAC-45to55-S17
 "EconoEnthLimit" = 28   $ IP Non-Tech
 "EconoTempLimit" = 70   $ IP Non-Tech
 "Elevation" = 203   $ IP Non-Tech
 "FanEirPlr" = TwoSpeedFan   $ Msr (Multi)TechID: MsrNResSplitAC-45to55-S17
 "FanWPerCfm" = 0.271   $ Msr (Multi)TechID: MsrNResSplitAC-45to55-S17
 "HDD_CloudAmt1" = 0   $ IP Non-Tech
 "HDD_DBHi1" = 53   $ IP Non-Tech
 "HDD_DBRange1" = 20   $ IP Non-Tech
 "HDD_Day1" = 15   $ IP Non-Tech
 "HDD_HrHi1" = 14   $ IP Non-Tech
 "HDD_HrLo1" = 6   $ IP Non-Tech
 "HDD_WB1" = 42.3   $ IP Non-Tech
 "HDD_WindSpd1" = 12.7   $ IP Non-Tech
 "HIR_fT" = 0   $ Msr (Multi)TechID: MsrNResSplitAC-45to55-S17
 "HSPF" = 0   $ Msr (Multi)TechID: MsrNResSplitAC-45to55-S17
 "Hall_EWSF" = 0.2   $ IP Non-Tech
 "Hall_LWSF" = 0.55   $ IP Non-Tech
 "HeatSrc" = FURNACE   $ IP Non-Tech
 "HeatSrcTU" = HEAT-PUMP   $ IP Non-Tech
 "HeatType" = GasFurn   $ IP Non-Tech
 "HeatTypeTU" = HEAT-PUMP   $ IP Non-Tech
 "HtCap_fT" = 0   $ Msr (Multi)TechID: MsrNResSplitAC-45to55-S17
 "HtCoolCapRatio" = 0   $ Msr (Multi)TechID: MsrNResSplitAC-45to55-S17
 "HtgEIR" = 0   $ Msr (Multi)TechID: MsrNResSplitAC-45to55-S17
 "IndoorFanMode" = CONTINUOUS   $ IP Non-Tech
 "KT_TransferAir" = Yes   $ IP Non-Tech
 "Latitude" = 40.8   $ IP Non-Tech
 "LobbyWaiting_EWSF" = 0.5   $ IP Non-Tech
 "LobbyWaiting_LWSF" = 0.75   $ IP Non-Tech
 "Longitude" = 124.2   $ IP Non-Tech
 "LowSpdCapRatio" = 0.686   $ Msr (Multi)TechID: MsrNResSplitAC-45to55-S17
 "LowSpdCfmRatio" = 0.739   $ Msr (Multi)TechID: MsrNResSplitAC-45to55-S17
 "MZFanMechEff" = 0.58   $ IP Non-Tech
 "MZHasRetFan" = FALSE   $ IP Non-Tech
 "MZ_RFanWPerCfm" = 0.33   $ IP Non-Tech
 "MZ_SFanWPerCfm" = 0.75   $ IP Non-Tech
 "MZ_SupFanStatic" = 2.25   $ IP Non-Tech
 "MaxOAFrac" = 1   $ Msr (Multi)TechID: MsrNResSplitAC-45to55-S17
 "MaxSupT_MZ" = 100   $ IP Non-Tech
 "MaxSupT_SZ" = 100   $ IP Non-Tech
 "MaxSupT_TU" = 90   $ IP Non-Tech
 "MechElecRoom_EWSF" = 0.2   $ IP Non-Tech
 "MechElecRoom_LWSF" = 0.4   $ IP Non-Tech
 "MinCfmPerSF" = 0.4   $ IP Non-Tech
 "MinSupT" = 55   $ IP Non-Tech
 "NumStages" = 2   $ Msr (Multi)TechID: MsrNResSplitAC-45to55-S17
 "OccCoolT" = 76   $ IP Non-Tech
 "OccHeatT" = 72   $ IP Non-Tech
 "OfficeOpen_EWSF" = 1.5   $ IP Non-Tech
 "OfficeOpen_LWSF" = 0.8   $ IP Non-Tech
 "OfficeSmall_EWSF" = 1.5   $ IP Non-Tech
 "OfficeSmall_LWSF" = 0.9   $ IP Non-Tech
 "PkgDxVintEconoFlag" = 1   $ IP Non-Tech
 "Restroom_EWSF" = 0.2   $ IP Non-Tech
 "Restroom_LWSF" = 0.65   $ IP Non-Tech
 "SEER" = 17   $ Msr (Multi)TechID: MsrNResSplitAC-45to55-S17
 "SZFanMechEff" = 0.58   $ IP Non-Tech
 "SZHasRetFan" = FALSE   $ IP Non-Tech
 "SZ_Is_2Spd" = TRUE   $ IP Non-Tech
 "SZ_SFanWPerCfm" = 0.46   $ IP Non-Tech
 "SZ_SupFanStatic" = 0.75   $ IP Non-Tech
 "Sector" = Any   $ Msr (Multi)TechID: MsrNResSplitAC-45to55-S17
 "StorageSmlCond_EWSF" = 0.2   $ IP Non-Tech
 "StorageSmlCond_LWSF" = 0.45   $ IP Non-Tech
 "SubType" = AC   $ Msr (Multi)TechID: MsrNResSplitAC-45to55-S17
 "TermUnitFanMechEff" = 1   $ IP Non-Tech
 "TermUnitFanMode" = INTERMITTENT   $ IP Non-Tech
 "TotCoolCap" = 58805   $ Msr (Multi)TechID: MsrNResSplitAC-45to55-S17
 "TwrSetpt" = 80   $ IP Non-Tech
 "UnocCoolT" = 86   $ IP Non-Tech
 "UnocHeatT" = 62   $ IP Non-Tech
 "UseEconoVintApplic" = FALSE   $ Msr (Multi)TechID: MsrNResSplitAC-45to55-S17
 "WlhpVintEconoFlag" = 1   $ IP Non-Tech
 "DuctDT" = 1   $ IP Tech: ComDuctInsul-1
 "DuctAirLoss" = 0   $ IP Tech: ComDuctLeak-0
 "DuctLossOAFrac" = 0   $ IP Tech: ComDuctLeak-0
 "ComRoofInsCalc" = FromUo   $ IP Tech: ComRoofIns-WFrm-0.03
 "ComRoofInsR" = -999   $ IP Tech: ComRoofIns-WFrm-0.03
 "ComRoofUo" = 0.03   $ IP Tech: ComRoofIns-WFrm-0.03
 "ComEWInsCalc" = FromUo   $ IP Tech: ComWallIns-WFrm-0.08
 "ComEWInsR" = -999   $ IP Tech: ComWallIns-WFrm-0.08
 "ComEWUo" = 0.08   $ IP Tech: ComWallIns-WFrm-0.08
 "ComN_SHGC" = 0.25   $ IP Tech: NResWin-ComN-0.36-0.25
 "ComN_UFactor" = 0.36   $ IP Tech: NResWin-ComN-0.36-0.25
 "ComN_VisTrans" = 0.41   $ IP Tech: NResWin-ComN-0.36-0.25
 "ComN_WinCode" = G2668   $ IP Tech: NResWin-ComN-0.36-0.25
 "ComN_WinFrmFrac" = 0.17   $ IP Tech: NResWin-ComN-0.36-0.25
 "ComN_WinFrmU" = 0.3   $ IP Tech: NResWin-ComN-0.36-0.25
 "ComO_SHGC" = 0.25   $ IP Tech: NResWin-ComO-0.36-0.25
 "ComO_UFactor" = 0.36   $ IP Tech: NResWin-ComO-0.36-0.25
 "ComO_VisTrans" = 0.41   $ IP Tech: NResWin-ComO-0.36-0.25
 "ComO_WinCode" = G2668   $ IP Tech: NResWin-ComO-0.36-0.25
 "ComO_WinFrmFrac" = 0.17   $ IP Tech: NResWin-ComO-0.36-0.25
 "ComO_WinFrmU" = 0.3   $ IP Tech: NResWin-ComO-0.36-0.25
 "LtgMsrApplic" = ALL   $ IP Tech: NonResLtgRefPre
 "LtgSav_CFL" = 0   $ IP Tech: NonResLtgRefPre
 "LtgSav_EX" = 0   $ IP Tech: NonResLtgRefPre
 "LtgSav_HB" = 0   $ IP Tech: NonResLtgRefPre
 "LtgSav_LF" = 0   $ IP Tech: NonResLtgRefPre
 "LtgSav_SP" = 0   $ IP Tech: NonResLtgRefPre
 "CEIR_fPLR" = PSZ65to135_CEIR_fPLR   $ IP Tech: PkgAC2SpP-65to135-E11
 "CLoss_fPLR" = PSZ65to135_CLoss_fPLR   $ IP Tech: PkgAC2SpP-65to135-E11
 "COP" = -1   $ IP Tech: PkgAC2SpP-65to135-E11
 "HtgFuel" = Gas   $ IP Tech: PkgAC2SpP-65to135-E11
 "IEER" = 13.35   $ IP Tech: PkgAC2SpP-65to135-E11
 "NominalCap" = 15   $ IP Tech: PkgAC2SpP-65to135-E11
 "RatedEER" = 11   $ IP Tech: PkgAC2SpP-65to135-E11
 "RatedSupMtrClass" = Premium   $ IP Tech: PkgAC2SpP-65to135-E11
 "SizeRange" = 65to135   $ IP Tech: PkgAC2SpP-65to135-E11
 "SupMotEff" = 0.865   $ IP Tech: PkgAC2SpP-65to135-E11
 "Tier" = 0   $ IP Tech: PkgAC2SpP-65to135-E11
 "FanPwrMult" = 1   $ IP Tech: PkgFurn-0.80AFUE
 "FurnAFUE" = 0.8   $ IP Tech: PkgFurn-0.80AFUE
 "FurnEt" = 0.82   $ IP Tech: PkgFurn-0.80AFUE
 "FurnaceAuxKW" = 0.1   $ IP Tech: PkgFurn-0.80AFUE
 "HIR_fPLR" = Furnace-HIR-fPLR   $ IP Tech: PkgFurn-0.80AFUE
 "VSM" = FALSE   $ IP Tech: PkgFurn-0.80AFUE
 "BFMult" = 1   $ IP Tech: RefgChg-NRes-Std
 "CoolEirMult" = 1   $ IP Tech: RefgChg-NRes-Std
 "SensCoolCapMult" = 1   $ IP Tech: RefgChg-NRes-Std
 "TotCoolCapMult" = 1   $ IP Tech: RefgChg-NRes-Std
 "AltAdjFactor" = 1.007532   $ Sizing
 "CAssFlo_L_Break_CZn" = 265.0734   $ Sizing
 "CAssFlo_L_CompDC_CZn" = 156.1507   $ Sizing
 "CAssFlo_L_Conf_CZn" = 192.7728   $ Sizing
 "CAssFlo_L_CopyRm_CZn" = 50.72986   $ Sizing
 "CAssFlo_L_Hall_EZn" = 79.32802   $ Sizing
 "CAssFlo_L_Hall_NZn" = 48.19338   $ Sizing
 "CAssFlo_L_Hall_SZn" = 92.80687   $ Sizing
 "CAssFlo_L_Hall_WZn" = 84.71545   $ Sizing
 "CAssFlo_L_LobWait_EZn" = 196.4731   $ Sizing
 "CAssFlo_L_LobWait_NZn" = 105.1635   $ Sizing
 "CAssFlo_L_LobWait_SZn" = 211.5914   $ Sizing
 "CAssFlo_L_LobWait_WZn" = 194.5188   $ Sizing
 "CAssFlo_L_MechElec_CZn" = 65.93681   $ Sizing
 "CAssFlo_L_OfficeOpn_CZn" = 56.39986   $ Sizing
 "CAssFlo_L_OfficeOpn_EZn" = 427.7241   $ Sizing
 "CAssFlo_L_OfficeOpn_NZn" = 185.6271   $ Sizing
 "CAssFlo_L_OfficeOpn_SZn" = 424.3613   $ Sizing
 "CAssFlo_L_OfficeOpn_WZn" = 396.2963   $ Sizing
 "CAssFlo_L_OfficeSm_EZn" = 350.3071   $ Sizing
 "CAssFlo_L_OfficeSm_NZn" = 139.9471   $ Sizing
 "CAssFlo_L_OfficeSm_SZn" = 369.4372   $ Sizing
 "CAssFlo_L_OfficeSm_WZn" = 343.2233   $ Sizing
 "CAssFlo_L_Restrm_CZn" = 86.07105   $ Sizing
 "CAssFlo_L_StorSm_CZn" = 30.01605   $ Sizing
 "CAssFlo_L_StorSm_EZn" = 75.33238   $ Sizing
 "CAssFlo_L_StorSm_NZn" = 59.92005   $ Sizing
 "CAssFlo_L_StorSm_SZn" = 80.34119   $ Sizing
 "CAssFlo_L_StorSm_WZn" = 76.50388   $ Sizing
 "CAssFlo_T_Conf_CZn" = 198.5682   $ Sizing
 "CAssFlo_T_Hall_EZn" = 98.03588   $ Sizing
 "CAssFlo_T_Hall_NZn" = 44.03197   $ Sizing
 "CAssFlo_T_Hall_SZn" = 109.4491   $ Sizing
 "CAssFlo_T_Hall_WZn" = 96.67694   $ Sizing
 "CAssFlo_T_OfficeOpn_CZn" = 55.07329   $ Sizing
 "CAssFlo_T_OfficeOpn_EZn" = 435.6345   $ Sizing
 "CAssFlo_T_OfficeOpn_NZn" = 212.6829   $ Sizing
 "CAssFlo_T_OfficeOpn_SZn" = 453.339   $ Sizing
 "CAssFlo_T_OfficeOpn_WZn" = 402.2541   $ Sizing
 "CAssFlo_T_OfficeSm_EZn" = 364.8445   $ Sizing
 "CAssFlo_T_OfficeSm_NZn" = 163.3532   $ Sizing
 "CAssFlo_T_OfficeSm_SZn" = 398.5365   $ Sizing
 "CAssFlo_T_OfficeSm_WZn" = 349.9043   $ Sizing
 "CAssFlo_T_Restrm_CZn" = 86.07105   $ Sizing
 "CAssFlo_T_StorSm_EZn" = 94.70526   $ Sizing
 "CAssFlo_T_StorSm_NZn" = 58.78741   $ Sizing
 "CAssFlo_T_StorSm_SZn" = 101.4482   $ Sizing
 "CAssFlo_T_StorSm_WZn" = 94.30087   $ Sizing
 "CHRtFlo_Sys_L_Break_C" = 265.0734   $ Sizing
 "CHRtFlo_Sys_L_CompDC_C" = 156.1507   $ Sizing
 "CHRtFlo_Sys_L_Conf_C" = 192.7728   $ Sizing
 "CHRtFlo_Sys_L_CopyRm_C" = 50.72986   $ Sizing
 "CHRtFlo_Sys_L_Hall_E" = 79.32802   $ Sizing
 "CHRtFlo_Sys_L_Hall_N" = 48.19338   $ Sizing
 "CHRtFlo_Sys_L_Hall_S" = 92.80687   $ Sizing
 "CHRtFlo_Sys_L_Hall_W" = 84.71545   $ Sizing
 "CHRtFlo_Sys_L_LobWait_E" = 196.4731   $ Sizing
 "CHRtFlo_Sys_L_LobWait_N" = 105.1635   $ Sizing
 "CHRtFlo_Sys_L_LobWait_S" = 211.5914   $ Sizing
 "CHRtFlo_Sys_L_LobWait_W" = 194.5188   $ Sizing
 "CHRtFlo_Sys_L_MechElec_C" = 65.93681   $ Sizing
 "CHRtFlo_Sys_L_OfficeOpn_C" = 56.39986   $ Sizing
 "CHRtFlo_Sys_L_OfficeOpn_E" = 427.7241   $ Sizing
 "CHRtFlo_Sys_L_OfficeOpn_N" = 185.6271   $ Sizing
 "CHRtFlo_Sys_L_OfficeOpn_S" = 424.3613   $ Sizing
 "CHRtFlo_Sys_L_OfficeOpn_W" = 396.2963   $ Sizing
 "CHRtFlo_Sys_L_OfficeSm_E" = 350.3071   $ Sizing
 "CHRtFlo_Sys_L_OfficeSm_N" = 139.9471   $ Sizing
 "CHRtFlo_Sys_L_OfficeSm_S" = 369.4372   $ Sizing
 "CHRtFlo_Sys_L_OfficeSm_W" = 343.2233   $ Sizing
 "CHRtFlo_Sys_L_Restrm_C" = 86.07105   $ Sizing
 "CHRtFlo_Sys_L_StorSm_C" = 30.01605   $ Sizing
 "CHRtFlo_Sys_L_StorSm_E" = 75.33238   $ Sizing
 "CHRtFlo_Sys_L_StorSm_N" = 59.92005   $ Sizing
 "CHRtFlo_Sys_L_StorSm_S" = 80.34119   $ Sizing
 "CHRtFlo_Sys_L_StorSm_W" = 76.50388   $ Sizing
 "CHRtFlo_Sys_T_Conf_C" = 198.5682   $ Sizing
 "CHRtFlo_Sys_T_Hall_E" = 98.03588   $ Sizing
 "CHRtFlo_Sys_T_Hall_N" = 44.03197   $ Sizing
 "CHRtFlo_Sys_T_Hall_S" = 109.4491   $ Sizing
 "CHRtFlo_Sys_T_Hall_W" = 96.67694   $ Sizing
 "CHRtFlo_Sys_T_OfficeOpn_C" = 55.07329   $ Sizing
 "CHRtFlo_Sys_T_OfficeOpn_E" = 435.6345   $ Sizing
 "CHRtFlo_Sys_T_OfficeOpn_N" = 212.6829   $ Sizing
 "CHRtFlo_Sys_T_OfficeOpn_S" = 453.339   $ Sizing
 "CHRtFlo_Sys_T_OfficeOpn_W" = 402.2541   $ Sizing
 "CHRtFlo_Sys_T_OfficeSm_E" = 364.8445   $ Sizing
 "CHRtFlo_Sys_T_OfficeSm_N" = 163.3532   $ Sizing
 "CHRtFlo_Sys_T_OfficeSm_S" = 398.5365   $ Sizing
 "CHRtFlo_Sys_T_OfficeSm_W" = 349.9043   $ Sizing
 "CHRtFlo_Sys_T_Restrm_C" = 86.07105   $ Sizing
 "CHRtFlo_Sys_T_StorSm_E" = 94.70526   $ Sizing
 "CHRtFlo_Sys_T_StorSm_N" = 58.78741   $ Sizing
 "CHRtFlo_Sys_T_StorSm_S" = 101.4482   $ Sizing
 "CHRtFlo_Sys_T_StorSm_W" = 94.30087   $ Sizing
 "CRtdFlo_Sys_L_Break_C" = 265.0734   $ Sizing
 "CRtdFlo_Sys_L_CompDC_C" = 156.1507   $ Sizing
 "CRtdFlo_Sys_L_Conf_C" = 192.7728   $ Sizing
 "CRtdFlo_Sys_L_CopyRm_C" = 50.72986   $ Sizing
 "CRtdFlo_Sys_L_Hall_E" = 79.32802   $ Sizing
 "CRtdFlo_Sys_L_Hall_N" = 48.19338   $ Sizing
 "CRtdFlo_Sys_L_Hall_S" = 92.80687   $ Sizing
 "CRtdFlo_Sys_L_Hall_W" = 84.71545   $ Sizing
 "CRtdFlo_Sys_L_LobWait_E" = 196.4731   $ Sizing
 "CRtdFlo_Sys_L_LobWait_N" = 105.1635   $ Sizing
 "CRtdFlo_Sys_L_LobWait_S" = 211.5914   $ Sizing
 "CRtdFlo_Sys_L_LobWait_W" = 194.5188   $ Sizing
 "CRtdFlo_Sys_L_MechElec_C" = 65.93681   $ Sizing
 "CRtdFlo_Sys_L_OfficeOpn_C" = 56.39986   $ Sizing
 "CRtdFlo_Sys_L_OfficeOpn_E" = 427.7241   $ Sizing
 "CRtdFlo_Sys_L_OfficeOpn_N" = 185.6271   $ Sizing
 "CRtdFlo_Sys_L_OfficeOpn_S" = 424.3613   $ Sizing
 "CRtdFlo_Sys_L_OfficeOpn_W" = 396.2963   $ Sizing
 "CRtdFlo_Sys_L_OfficeSm_E" = 350.3071   $ Sizing
 "CRtdFlo_Sys_L_OfficeSm_N" = 139.9471   $ Sizing
 "CRtdFlo_Sys_L_OfficeSm_S" = 369.4372   $ Sizing
 "CRtdFlo_Sys_L_OfficeSm_W" = 343.2233   $ Sizing
 "CRtdFlo_Sys_L_Restrm_C" = 86.07105   $ Sizing
 "CRtdFlo_Sys_L_StorSm_C" = 30.01605   $ Sizing
 "CRtdFlo_Sys_L_StorSm_E" = 75.33238   $ Sizing
 "CRtdFlo_Sys_L_StorSm_N" = 59.92005   $ Sizing
 "CRtdFlo_Sys_L_StorSm_S" = 80.34119   $ Sizing
 "CRtdFlo_Sys_L_StorSm_W" = 76.50388   $ Sizing
 "CRtdFlo_Sys_T_Conf_C" = 198.5682   $ Sizing
 "CRtdFlo_Sys_T_Hall_E" = 98.03588   $ Sizing
 "CRtdFlo_Sys_T_Hall_N" = 44.03197   $ Sizing
 "CRtdFlo_Sys_T_Hall_S" = 109.4491   $ Sizing
 "CRtdFlo_Sys_T_Hall_W" = 96.67694   $ Sizing
 "CRtdFlo_Sys_T_OfficeOpn_C" = 55.07329   $ Sizing
 "CRtdFlo_Sys_T_OfficeOpn_E" = 435.6345   $ Sizing
 "CRtdFlo_Sys_T_OfficeOpn_N" = 212.6829   $ Sizing
 "CRtdFlo_Sys_T_OfficeOpn_S" = 453.339   $ Sizing
 "CRtdFlo_Sys_T_OfficeOpn_W" = 402.2541   $ Sizing
 "CRtdFlo_Sys_T_OfficeSm_E" = 364.8445   $ Sizing
 "CRtdFlo_Sys_T_OfficeSm_N" = 163.3532   $ Sizing
 "CRtdFlo_Sys_T_OfficeSm_S" = 398.5365   $ Sizing
 "CRtdFlo_Sys_T_OfficeSm_W" = 349.9043   $ Sizing
 "CRtdFlo_Sys_T_Restrm_C" = 86.07105   $ Sizing
 "CRtdFlo_Sys_T_StorSm_E" = 94.70526   $ Sizing
 "CRtdFlo_Sys_T_StorSm_N" = 58.78741   $ Sizing
 "CRtdFlo_Sys_T_StorSm_S" = 101.4482   $ Sizing
 "CRtdFlo_Sys_T_StorSm_W" = 94.30087   $ Sizing
 "CSupFlo_Sys_L_Break_C" = 265.0734   $ Sizing
 "CSupFlo_Sys_L_CompDC_C" = 156.1507   $ Sizing
 "CSupFlo_Sys_L_Conf_C" = 192.7728   $ Sizing
 "CSupFlo_Sys_L_CopyRm_C" = 50.72986   $ Sizing
 "CSupFlo_Sys_L_Hall_E" = 79.32802   $ Sizing
 "CSupFlo_Sys_L_Hall_N" = 48.19338   $ Sizing
 "CSupFlo_Sys_L_Hall_S" = 92.80687   $ Sizing
 "CSupFlo_Sys_L_Hall_W" = 84.71545   $ Sizing
 "CSupFlo_Sys_L_LobWait_E" = 196.4731   $ Sizing
 "CSupFlo_Sys_L_LobWait_N" = 105.1635   $ Sizing
 "CSupFlo_Sys_L_LobWait_S" = 211.5914   $ Sizing
 "CSupFlo_Sys_L_LobWait_W" = 194.5188   $ Sizing
 "CSupFlo_Sys_L_MechElec_C" = 65.93681   $ Sizing
 "CSupFlo_Sys_L_OfficeOpn_C" = 56.39986   $ Sizing
 "CSupFlo_Sys_L_OfficeOpn_E" = 427.7241   $ Sizing
 "CSupFlo_Sys_L_OfficeOpn_N" = 185.6271   $ Sizing
 "CSupFlo_Sys_L_OfficeOpn_S" = 424.3613   $ Sizing
 "CSupFlo_Sys_L_OfficeOpn_W" = 396.2963   $ Sizing
 "CSupFlo_Sys_L_OfficeSm_E" = 350.3071   $ Sizing
 "CSupFlo_Sys_L_OfficeSm_N" = 139.9471   $ Sizing
 "CSupFlo_Sys_L_OfficeSm_S" = 369.4372   $ Sizing
 "CSupFlo_Sys_L_OfficeSm_W" = 343.2233   $ Sizing
 "CSupFlo_Sys_L_Restrm_C" = 86.07105   $ Sizing
 "CSupFlo_Sys_L_StorSm_C" = 30.01605   $ Sizing
 "CSupFlo_Sys_L_StorSm_E" = 75.33238   $ Sizing
 "CSupFlo_Sys_L_StorSm_N" = 59.92005   $ Sizing
 "CSupFlo_Sys_L_StorSm_S" = 80.34119   $ Sizing
 "CSupFlo_Sys_L_StorSm_W" = 76.50388   $ Sizing
 "CSupFlo_Sys_T_Conf_C" = 198.5682   $ Sizing
 "CSupFlo_Sys_T_Hall_E" = 98.03588   $ Sizing
 "CSupFlo_Sys_T_Hall_N" = 44.03197   $ Sizing
 "CSupFlo_Sys_T_Hall_S" = 109.4491   $ Sizing
 "CSupFlo_Sys_T_Hall_W" = 96.67694   $ Sizing
 "CSupFlo_Sys_T_OfficeOpn_C" = 55.07329   $ Sizing
 "CSupFlo_Sys_T_OfficeOpn_E" = 435.6345   $ Sizing
 "CSupFlo_Sys_T_OfficeOpn_N" = 212.6829   $ Sizing
 "CSupFlo_Sys_T_OfficeOpn_S" = 453.339   $ Sizing
 "CSupFlo_Sys_T_OfficeOpn_W" = 402.2541   $ Sizing
 "CSupFlo_Sys_T_OfficeSm_E" = 364.8445   $ Sizing
 "CSupFlo_Sys_T_OfficeSm_N" = 163.3532   $ Sizing
 "CSupFlo_Sys_T_OfficeSm_S" = 398.5365   $ Sizing
 "CSupFlo_Sys_T_OfficeSm_W" = 349.9043   $ Sizing
 "CSupFlo_Sys_T_Restrm_C" = 86.07105   $ Sizing
 "CSupFlo_Sys_T_StorSm_E" = 94.70526   $ Sizing
 "CSupFlo_Sys_T_StorSm_N" = 58.78741   $ Sizing
 "CSupFlo_Sys_T_StorSm_S" = 101.4482   $ Sizing
 "CSupFlo_Sys_T_StorSm_W" = 94.30087   $ Sizing
 "ClCap_Sys_L_Break_C" = 9020.289   $ Sizing
 "ClCap_Sys_L_CompDC_C" = 5313.716   $ Sizing
 "ClCap_Sys_L_Conf_C" = 8349.019   $ Sizing
 "ClCap_Sys_L_CopyRm_C" = 1726.307   $ Sizing
 "ClCap_Sys_L_Hall_E" = 2699.485   $ Sizing
 "ClCap_Sys_L_Hall_N" = 1639.992   $ Sizing
 "ClCap_Sys_L_Hall_S" = 3158.162   $ Sizing
 "ClCap_Sys_L_Hall_W" = 2882.816   $ Sizing
 "ClCap_Sys_L_LobWait_E" = 6685.863   $ Sizing
 "ClCap_Sys_L_LobWait_N" = 3578.649   $ Sizing
 "ClCap_Sys_L_LobWait_S" = 7200.328   $ Sizing
 "ClCap_Sys_L_LobWait_W" = 6619.358   $ Sizing
 "ClCap_Sys_L_MechElec_C" = 2243.79   $ Sizing
 "ClCap_Sys_L_OfficeOpn_C" = 1919.254   $ Sizing
 "ClCap_Sys_L_OfficeOpn_E" = 14555.19   $ Sizing
 "ClCap_Sys_L_OfficeOpn_N" = 6316.779   $ Sizing
 "ClCap_Sys_L_OfficeOpn_S" = 14440.76   $ Sizing
 "ClCap_Sys_L_OfficeOpn_W" = 13485.72   $ Sizing
 "ClCap_Sys_L_OfficeSm_E" = 11920.74   $ Sizing
 "ClCap_Sys_L_OfficeSm_N" = 4762.317   $ Sizing
 "ClCap_Sys_L_OfficeSm_S" = 12571.73   $ Sizing
 "ClCap_Sys_L_OfficeSm_W" = 11679.68   $ Sizing
 "ClCap_Sys_L_Restrm_C" = 2928.947   $ Sizing
 "ClCap_Sys_L_StorSm_C" = 1021.428   $ Sizing
 "ClCap_Sys_L_StorSm_E" = 2563.516   $ Sizing
 "ClCap_Sys_L_StorSm_N" = 2039.043   $ Sizing
 "ClCap_Sys_L_StorSm_S" = 2733.962   $ Sizing
 "ClCap_Sys_L_StorSm_W" = 2603.381   $ Sizing
 "ClCap_Sys_T_Conf_C" = 8600.017   $ Sizing
 "ClCap_Sys_T_Hall_E" = 3336.102   $ Sizing
 "ClCap_Sys_T_Hall_N" = 1498.381   $ Sizing
 "ClCap_Sys_T_Hall_S" = 3724.488   $ Sizing
 "ClCap_Sys_T_Hall_W" = 3289.858   $ Sizing
 "ClCap_Sys_T_OfficeOpn_C" = 1874.111   $ Sizing
 "ClCap_Sys_T_OfficeOpn_E" = 14824.38   $ Sizing
 "ClCap_Sys_T_OfficeOpn_N" = 7237.471   $ Sizing
 "ClCap_Sys_T_OfficeOpn_S" = 15426.86   $ Sizing
 "ClCap_Sys_T_OfficeOpn_W" = 13688.46   $ Sizing
 "ClCap_Sys_T_OfficeSm_E" = 12415.44   $ Sizing
 "ClCap_Sys_T_OfficeSm_N" = 5558.811   $ Sizing
 "ClCap_Sys_T_OfficeSm_S" = 13561.96   $ Sizing
 "ClCap_Sys_T_OfficeSm_W" = 11907.04   $ Sizing
 "ClCap_Sys_T_Restrm_C" = 2928.947   $ Sizing
 "ClCap_Sys_T_StorSm_E" = 3222.763   $ Sizing
 "ClCap_Sys_T_StorSm_N" = 2000.5   $ Sizing
 "ClCap_Sys_T_StorSm_S" = 3452.22   $ Sizing
 "ClCap_Sys_T_StorSm_W" = 3209.002   $ Sizing
 "HtCap_Sys_L_Break_C" = -16181.74   $ Sizing
 "HtCap_Sys_L_CompDC_C" = -5685.333   $ Sizing
 "HtCap_Sys_L_Conf_C" = -12195.41   $ Sizing
 "HtCap_Sys_L_CopyRm_C" = -3483.197   $ Sizing
 "HtCap_Sys_L_Hall_E" = -3079.646   $ Sizing
 "HtCap_Sys_L_Hall_N" = -1988.182   $ Sizing
 "HtCap_Sys_L_Hall_S" = -3388.969   $ Sizing
 "HtCap_Sys_L_Hall_W" = -3189.574   $ Sizing
 "HtCap_Sys_L_LobWait_E" = -8190.652   $ Sizing
 "HtCap_Sys_L_LobWait_N" = -5323.211   $ Sizing
 "HtCap_Sys_L_LobWait_S" = -8664.898   $ Sizing
 "HtCap_Sys_L_LobWait_W" = -8188.6   $ Sizing
 "HtCap_Sys_L_MechElec_C" = -3012.237   $ Sizing
 "HtCap_Sys_L_OfficeOpn_C" = -2345.109   $ Sizing
 "HtCap_Sys_L_OfficeOpn_E" = -15938.77   $ Sizing
 "HtCap_Sys_L_OfficeOpn_N" = -8733.493   $ Sizing
 "HtCap_Sys_L_OfficeOpn_S" = -15520.42   $ Sizing
 "HtCap_Sys_L_OfficeOpn_W" = -15188.09   $ Sizing
 "HtCap_Sys_L_OfficeSm_E" = -13066.69   $ Sizing
 "HtCap_Sys_L_OfficeSm_N" = -6430.222   $ Sizing
 "HtCap_Sys_L_OfficeSm_S" = -12947.05   $ Sizing
 "HtCap_Sys_L_OfficeSm_W" = -12609.15   $ Sizing
 "HtCap_Sys_L_Restrm_C" = -3074.939   $ Sizing
 "HtCap_Sys_L_StorSm_C" = -1293.554   $ Sizing
 "HtCap_Sys_L_StorSm_E" = -3084.365   $ Sizing
 "HtCap_Sys_L_StorSm_N" = -2645.683   $ Sizing
 "HtCap_Sys_L_StorSm_S" = -3247.225   $ Sizing
 "HtCap_Sys_L_StorSm_W" = -3171.108   $ Sizing
 "HtCap_Sys_T_Conf_C" = -12512.99   $ Sizing
 "HtCap_Sys_T_Hall_E" = -3991.483   $ Sizing
 "HtCap_Sys_T_Hall_N" = -2080.352   $ Sizing
 "HtCap_Sys_T_Hall_S" = -4387.512   $ Sizing
 "HtCap_Sys_T_Hall_W" = -3945.701   $ Sizing
 "HtCap_Sys_T_OfficeOpn_C" = -2509.269   $ Sizing
 "HtCap_Sys_T_OfficeOpn_E" = -17726.99   $ Sizing
 "HtCap_Sys_T_OfficeOpn_N" = -10101.12   $ Sizing
 "HtCap_Sys_T_OfficeOpn_S" = -18285.04   $ Sizing
 "HtCap_Sys_T_OfficeOpn_W" = -16603.23   $ Sizing
 "HtCap_Sys_T_OfficeSm_E" = -14640.15   $ Sizing
 "HtCap_Sys_T_OfficeSm_N" = -7710.652   $ Sizing
 "HtCap_Sys_T_OfficeSm_S" = -15701.32   $ Sizing
 "HtCap_Sys_T_OfficeSm_W" = -14139.49   $ Sizing
 "HtCap_Sys_T_Restrm_C" = -3501.977   $ Sizing
 "HtCap_Sys_T_StorSm_E" = -4197.062   $ Sizing
 "HtCap_Sys_T_StorSm_N" = -2936.542   $ Sizing
 "HtCap_Sys_T_StorSm_S" = -4319.034   $ Sizing
 "HtCap_Sys_T_StorSm_W" = -4170.244   $ Sizing
..

##include Templates\OfS_DX_SZ.inp
END ..
COMPUTE ..
STOP ..
