INPUT ..

##fileprefix C:\Users\jglasskatz\MASControl3\
##set1 IsSizing FALSE
##set1 CoolType DX
##set1 HeatType FURNACE
##set1 EU_HrRepVar 0
##set1 BldgVint 2007
##set1 BldgLoc CZ10

 ##set1 mBFMult 1   $ IP Tech: RefgChg-NRes-Std

PARAMETER
 "AltFactor" = 1.03143   $ IP Non-Tech
 "BF_fFlow" = SpltAC1Sp-ge45_BF_fFlow   $ Msr (Multi)TechID: StdNResSplitAC-45to55
 "BF_fT" = SpltAC1Sp-ge45_BF_fT   $ Msr (Multi)TechID: StdNResSplitAC-45to55
 "BldgEconoFlag" = 1   $ IP Non-Tech
 "Break_EWSF" = 1   $ IP Non-Tech
 "Break_LWSF" = 1.1   $ IP Non-Tech
 "CDD_DBHi10" = 92   $ IP Non-Tech
 "CDD_DBHi7" = 97   $ IP Non-Tech
 "CDD_DBHi8" = 99   $ IP Non-Tech
 "CDD_DBHi9" = 102   $ IP Non-Tech
 "CDD_DBRange10" = 19   $ IP Non-Tech
 "CDD_DBRange7" = 31   $ IP Non-Tech
 "CDD_DBRange8" = 31   $ IP Non-Tech
 "CDD_DBRange9" = 34   $ IP Non-Tech
 "CDD_Day10" = 15   $ IP Non-Tech
 "CDD_Day7" = 16   $ IP Non-Tech
 "CDD_Day8" = 20   $ IP Non-Tech
 "CDD_Day9" = 17   $ IP Non-Tech
 "CDD_HrHi10" = 15   $ IP Non-Tech
 "CDD_HrHi7" = 14   $ IP Non-Tech
 "CDD_HrHi8" = 14   $ IP Non-Tech
 "CDD_HrHi9" = 15   $ IP Non-Tech
 "CDD_HrLo10" = 3   $ IP Non-Tech
 "CDD_HrLo7" = 6   $ IP Non-Tech
 "CDD_HrLo8" = 5   $ IP Non-Tech
 "CDD_HrLo9" = 5   $ IP Non-Tech
 "CDD_WB10" = 62.63956451   $ IP Non-Tech
 "CDD_WB7" = 70.96998596   $ IP Non-Tech
 "CDD_WB8" = 71.98167419   $ IP Non-Tech
 "CDD_WB9" = 70.8795929   $ IP Non-Tech
 "CEIR_fPLR_Hot" = SpltAC1Sp-ge45_CEIR_fPLR_Hot   $ Msr (Multi)TechID: StdNResSplitAC-45to55
 "CEIR_fPLR_Mod" = SpltAC1Sp-ge45_CEIR_fPLR_Mod   $ Msr (Multi)TechID: StdNResSplitAC-45to55
 "CEIR_fPLR_Tem" = SpltAC1Sp-ge45_CEIR_fPLR_Tem   $ Msr (Multi)TechID: StdNResSplitAC-45to55
 "CLoss_fPLR_Hot" = SpltAC1Sp-ge45_CLoss_fPLR_Hot   $ Msr (Multi)TechID: StdNResSplitAC-45to55
 "CLoss_fPLR_Mod" = SpltAC1Sp-ge45_CLoss_fPLR_Mod   $ Msr (Multi)TechID: StdNResSplitAC-45to55
 "CLoss_fPLR_Tem" = SpltAC1Sp-ge45_CLoss_fPLR_Tem   $ Msr (Multi)TechID: StdNResSplitAC-45to55
 "COP47" = 0   $ Msr (Multi)TechID: StdNResSplitAC-45to55
 "CZ_Category" = Mod   $ IP Non-Tech
 "CapRange" = ge45   $ Msr (Multi)TechID: StdNResSplitAC-45to55
 "CfmPerBtuh" = 0.03263   $ Msr (Multi)TechID: StdNResSplitAC-45to55
 "ChwVintEconoFlag" = 1   $ IP Non-Tech
 "ClCap_fT" = SpltAC1Sp-ge45_ClCap_fT   $ Msr (Multi)TechID: StdNResSplitAC-45to55
 "ClSH_fT" = SpltAC1Sp-ge45_ClSH_fT   $ Msr (Multi)TechID: StdNResSplitAC-45to55
 "CoilBF" = 0.106518182   $ Msr (Multi)TechID: StdNResSplitAC-45to55
 "CompRoomData_EWSF" = 5   $ IP Non-Tech
 "CompRoomData_LWSF" = 1.2   $ IP Non-Tech
 "CondWPerBtuh" = 0   $ Msr (Multi)TechID: StdNResSplitAC-45to55
 "Conference_EWSF" = 1   $ IP Non-Tech
 "Conference_LWSF" = 1.4   $ IP Non-Tech
 "CoolSensCap" = 0.759218182   $ Msr (Multi)TechID: StdNResSplitAC-45to55
 "CoolSetT" = 45   $ IP Non-Tech
 "CoolType" = DX   $ IP Non-Tech
 "CoolingEIR" = 0.2466   $ Msr (Multi)TechID: StdNResSplitAC-45to55
 "CopyRoom_EWSF" = 1.5   $ IP Non-Tech
 "CopyRoom_LWSF" = 1.3   $ IP Non-Tech
 "CrnkEIR" = 0.002466   $ Msr (Multi)TechID: StdNResSplitAC-45to55
 "CrnkMaxT" = 50   $ Msr (Multi)TechID: StdNResSplitAC-45to55
 "DXType" = SplitSEER   $ Msr (Multi)TechID: StdNResSplitAC-45to55
 "DesCoolT" = 75   $ IP Non-Tech
 "DesHeatT" = 73   $ IP Non-Tech
 "EER" = 11.81793103   $ Msr (Multi)TechID: StdNResSplitAC-45to55
 "EIR_fT" = SpltAC1Sp-ge45_EIR_fT   $ Msr (Multi)TechID: StdNResSplitAC-45to55
 "EconoCtrl" = FIXED   $ Msr (Multi)TechID: StdNResSplitAC-45to55
 "EconoEnthLimit" = 28   $ IP Non-Tech
 "EconoTempLimit" = 73   $ IP Non-Tech
 "Elevation" = 840   $ IP Non-Tech
 "FanEirPlr" = TwoSpeedFan   $ Msr (Multi)TechID: StdNResSplitAC-45to55
 "FanWPerCfm" = 0.294   $ Msr (Multi)TechID: StdNResSplitAC-45to55
 "HDD_CloudAmt1" = 0   $ IP Non-Tech
 "HDD_DBHi1" = 53   $ IP Non-Tech
 "HDD_DBRange1" = 17   $ IP Non-Tech
 "HDD_Day1" = 15   $ IP Non-Tech
 "HDD_HrHi1" = 14   $ IP Non-Tech
 "HDD_HrLo1" = 5   $ IP Non-Tech
 "HDD_WB1" = 48.5   $ IP Non-Tech
 "HDD_WindSpd1" = 13.8   $ IP Non-Tech
 "HIR_fT" = 0   $ Msr (Multi)TechID: StdNResSplitAC-45to55
 "HSPF" = 0   $ Msr (Multi)TechID: StdNResSplitAC-45to55
 "Hall_EWSF" = 0.2   $ IP Non-Tech
 "Hall_LWSF" = 0.6   $ IP Non-Tech
 "HeatSrc" = FURNACE   $ IP Non-Tech
 "HeatSrcTU" = HEAT-PUMP   $ IP Non-Tech
 "HeatType" = GasFurn   $ IP Non-Tech
 "HeatTypeTU" = HEAT-PUMP   $ IP Non-Tech
 "HtCap_fT" = 0   $ Msr (Multi)TechID: StdNResSplitAC-45to55
 "HtCoolCapRatio" = 0   $ Msr (Multi)TechID: StdNResSplitAC-45to55
 "HtgEIR" = 0   $ Msr (Multi)TechID: StdNResSplitAC-45to55
 "IndoorFanMode" = CONTINUOUS   $ IP Non-Tech
 "KT_TransferAir" = No   $ IP Non-Tech
 "Latitude" = 34   $ IP Non-Tech
 "LobbyWaiting_EWSF" = 0.5   $ IP Non-Tech
 "LobbyWaiting_LWSF" = 1.3   $ IP Non-Tech
 "Longitude" = 117.4   $ IP Non-Tech
 "LowSpdCapRatio" = 1   $ Msr (Multi)TechID: StdNResSplitAC-45to55
 "LowSpdCfmRatio" = 1   $ Msr (Multi)TechID: StdNResSplitAC-45to55
 "MZFanMechEff" = 0.58   $ IP Non-Tech
 "MZHasRetFan" = FALSE   $ IP Non-Tech
 "MZ_RFanWPerCfm" = 0.33   $ IP Non-Tech
 "MZ_SFanWPerCfm" = 0.75   $ IP Non-Tech
 "MZ_SupFanStatic" = 2.25   $ IP Non-Tech
 "MaxOAFrac" = 1   $ Msr (Multi)TechID: StdNResSplitAC-45to55
 "MaxSupT_MZ" = 100   $ IP Non-Tech
 "MaxSupT_SZ" = 100   $ IP Non-Tech
 "MaxSupT_TU" = 90   $ IP Non-Tech
 "MechElecRoom_EWSF" = 0.2   $ IP Non-Tech
 "MechElecRoom_LWSF" = 0.7   $ IP Non-Tech
 "MinCfmPerSF" = 0.4   $ IP Non-Tech
 "MinSupT" = 55   $ IP Non-Tech
 "NumStages" = 1   $ Msr (Multi)TechID: StdNResSplitAC-45to55
 "OccCoolT" = 76   $ IP Non-Tech
 "OccHeatT" = 72   $ IP Non-Tech
 "OfficeOpen_EWSF" = 1.5   $ IP Non-Tech
 "OfficeOpen_LWSF" = 1.2   $ IP Non-Tech
 "OfficeSmall_EWSF" = 1.5   $ IP Non-Tech
 "OfficeSmall_LWSF" = 1.3   $ IP Non-Tech
 "PkgDxVintEconoFlag" = 0   $ IP Non-Tech
 "Restroom_EWSF" = 0.2   $ IP Non-Tech
 "Restroom_LWSF" = 0.6   $ IP Non-Tech
 "SEER" = 14   $ Msr (Multi)TechID: StdNResSplitAC-45to55
 "SZFanMechEff" = 0.58   $ IP Non-Tech
 "SZHasRetFan" = FALSE   $ IP Non-Tech
 "SZ_Is_2Spd" = FALSE   $ IP Non-Tech
 "SZ_SFanWPerCfm" = 0.46   $ IP Non-Tech
 "SZ_SupFanStatic" = 0.75   $ IP Non-Tech
 "Sector" = Any   $ Msr (Multi)TechID: StdNResSplitAC-45to55
 "StorageSmlCond_EWSF" = 0.2   $ IP Non-Tech
 "StorageSmlCond_LWSF" = 0.6   $ IP Non-Tech
 "SubType" = AC   $ Msr (Multi)TechID: StdNResSplitAC-45to55
 "T24GlzTbl" = CZTbl   $ IP Non-Tech
 "TermUnitFanMechEff" = 1   $ IP Non-Tech
 "TermUnitFanMode" = INTERMITTENT   $ IP Non-Tech
 "TotCoolCap" = 52519.36364   $ Msr (Multi)TechID: StdNResSplitAC-45to55
 "TwrSetpt" = 82.2   $ IP Non-Tech
 "UnocCoolT" = 86   $ IP Non-Tech
 "UnocHeatT" = 62   $ IP Non-Tech
 "UseEconoVintApplic" = FALSE   $ Msr (Multi)TechID: StdNResSplitAC-45to55
 "WlhpVintEconoFlag" = 0   $ IP Non-Tech
 "DuctDT" = 1   $ IP Tech: ComDuctInsul-1
 "DuctAirLoss" = 0   $ IP Tech: ComDuctLeak-0
 "DuctLossOAFrac" = 0   $ IP Tech: ComDuctLeak-0
 "ComRoofInsCalc" = FromUo   $ IP Tech: ComRoofIns-WFrm-0.05
 "ComRoofInsR" = -999   $ IP Tech: ComRoofIns-WFrm-0.05
 "ComRoofUo" = 0.05   $ IP Tech: ComRoofIns-WFrm-0.05
 "ComEWInsCalc" = FromUo   $ IP Tech: ComWallIns-WFrm-0.08
 "ComEWInsR" = -999   $ IP Tech: ComWallIns-WFrm-0.08
 "ComEWUo" = 0.08   $ IP Tech: ComWallIns-WFrm-0.08
 "ComN_SHGC" = 0.47   $ IP Tech: NResWin-ComN-0.47-0.47
 "ComN_UFactor" = 0.47   $ IP Tech: NResWin-ComN-0.47-0.47
 "ComN_VisTrans" = 0.75   $ IP Tech: NResWin-ComN-0.47-0.47
 "ComN_WinCode" = G2633   $ IP Tech: NResWin-ComN-0.47-0.47
 "ComN_WinFrmFrac" = 0.17   $ IP Tech: NResWin-ComN-0.47-0.47
 "ComN_WinFrmU" = 0.3   $ IP Tech: NResWin-ComN-0.47-0.47
 "ComO_SHGC" = 0.31   $ IP Tech: NResWin-ComO-0.47-0.31
 "ComO_UFactor" = 0.47   $ IP Tech: NResWin-ComO-0.47-0.31
 "ComO_VisTrans" = 0.44   $ IP Tech: NResWin-ComO-0.47-0.31
 "ComO_WinCode" = G2637   $ IP Tech: NResWin-ComO-0.47-0.31
 "ComO_WinFrmFrac" = 0.17   $ IP Tech: NResWin-ComO-0.47-0.31
 "ComO_WinFrmU" = 0.3   $ IP Tech: NResWin-ComO-0.47-0.31
 "LtgMsrApplic" = ALL   $ IP Tech: NonResLtgRefPre
 "LtgSav_CFL" = 0   $ IP Tech: NonResLtgRefPre
 "LtgSav_EX" = 0   $ IP Tech: NonResLtgRefPre
 "LtgSav_HB" = 0   $ IP Tech: NonResLtgRefPre
 "LtgSav_LF" = 0   $ IP Tech: NonResLtgRefPre
 "LtgSav_SP" = 0   $ IP Tech: NonResLtgRefPre
 "CEIR_fPLR" = PSZ65to135_CEIR_fPLR   $ IP Tech: PkgAC1SpH-65to135-E10
 "CLoss_fPLR" = PSZ65to135_CLoss_fPLR   $ IP Tech: PkgAC1SpH-65to135-E10
 "COP" = -1   $ IP Tech: PkgAC1SpH-65to135-E10
 "HtgFuel" = Gas   $ IP Tech: PkgAC1SpH-65to135-E10
 "IEER" = 11.87   $ IP Tech: PkgAC1SpH-65to135-E10
 "NominalCap" = 15   $ IP Tech: PkgAC1SpH-65to135-E10
 "RatedEER" = 10   $ IP Tech: PkgAC1SpH-65to135-E10
 "RatedSupMtrClass" = HiEff   $ IP Tech: PkgAC1SpH-65to135-E10
 "SizeRange" = 65to135   $ IP Tech: PkgAC1SpH-65to135-E10
 "SupMotEff" = 0.84   $ IP Tech: PkgAC1SpH-65to135-E10
 "Tier" = 0   $ IP Tech: PkgAC1SpH-65to135-E10
 "FanPwrMult" = 1   $ IP Tech: PkgFurn-0.80AFUE
 "FurnAFUE" = 0.8   $ IP Tech: PkgFurn-0.80AFUE
 "FurnEt" = 0.82   $ IP Tech: PkgFurn-0.80AFUE
 "FurnaceAuxKW" = 0.1   $ IP Tech: PkgFurn-0.80AFUE
 "HIR_fPLR" = Furnace-HIR-fPLR   $ IP Tech: PkgFurn-0.80AFUE
 "VSM" = FALSE   $ IP Tech: PkgFurn-0.80AFUE
 "BFMult" = 1   $ IP Tech: RefgChg-NRes-Std
 "CoolEirMult" = 1   $ IP Tech: RefgChg-NRes-Std
 "SensCoolCapMult" = 1   $ IP Tech: RefgChg-NRes-Std
 "TotCoolCapMult" = 1   $ IP Tech: RefgChg-NRes-Std
 "AltAdjFactor" = 1.031429   $ Sizing
 "CAssFlo_L_Break_CZn" = 480.7141   $ Sizing
 "CAssFlo_L_CompDC_CZn" = 154.9534   $ Sizing
 "CAssFlo_L_Conf_CZn" = 274.5103   $ Sizing
 "CAssFlo_L_CopyRm_CZn" = 99.485   $ Sizing
 "CAssFlo_L_Hall_EZn" = 114.2095   $ Sizing
 "CAssFlo_L_Hall_NZn" = 68.80804   $ Sizing
 "CAssFlo_L_Hall_SZn" = 120.0774   $ Sizing
 "CAssFlo_L_Hall_WZn" = 134.2761   $ Sizing
 "CAssFlo_L_LobWait_EZn" = 268.7858   $ Sizing
 "CAssFlo_L_LobWait_NZn" = 186.5593   $ Sizing
 "CAssFlo_L_LobWait_SZn" = 295.7588   $ Sizing
 "CAssFlo_L_LobWait_WZn" = 342.1916   $ Sizing
 "CAssFlo_L_MechElec_CZn" = 72.59372   $ Sizing
 "CAssFlo_L_OfficeOpn_CZn" = 65.85848   $ Sizing
 "CAssFlo_L_OfficeOpn_EZn" = 495.9844   $ Sizing
 "CAssFlo_L_OfficeOpn_NZn" = 377.0884   $ Sizing
 "CAssFlo_L_OfficeOpn_SZn" = 515.9444   $ Sizing
 "CAssFlo_L_OfficeOpn_WZn" = 582.8838   $ Sizing
 "CAssFlo_L_OfficeSm_EZn" = 415.8528   $ Sizing
 "CAssFlo_L_OfficeSm_NZn" = 293.7875   $ Sizing
 "CAssFlo_L_OfficeSm_SZn" = 437.0894   $ Sizing
 "CAssFlo_L_OfficeSm_WZn" = 497.5027   $ Sizing
 "CAssFlo_L_Restrm_CZn" = 85.82972   $ Sizing
 "CAssFlo_L_StorSm_CZn" = 38.12106   $ Sizing
 "CAssFlo_L_StorSm_EZn" = 112.5431   $ Sizing
 "CAssFlo_L_StorSm_NZn" = 69.02274   $ Sizing
 "CAssFlo_L_StorSm_SZn" = 118.0389   $ Sizing
 "CAssFlo_L_StorSm_WZn" = 128.8392   $ Sizing
 "CAssFlo_T_Conf_CZn" = 265.8223   $ Sizing
 "CAssFlo_T_Hall_EZn" = 125.6204   $ Sizing
 "CAssFlo_T_Hall_NZn" = 76.38147   $ Sizing
 "CAssFlo_T_Hall_SZn" = 135.5419   $ Sizing
 "CAssFlo_T_Hall_WZn" = 145.1786   $ Sizing
 "CAssFlo_T_OfficeOpn_CZn" = 61.41161   $ Sizing
 "CAssFlo_T_OfficeOpn_EZn" = 515.856   $ Sizing
 "CAssFlo_T_OfficeOpn_NZn" = 394.2347   $ Sizing
 "CAssFlo_T_OfficeOpn_SZn" = 562.5024   $ Sizing
 "CAssFlo_T_OfficeOpn_WZn" = 607.6723   $ Sizing
 "CAssFlo_T_OfficeSm_EZn" = 437.0699   $ Sizing
 "CAssFlo_T_OfficeSm_NZn" = 311.4063   $ Sizing
 "CAssFlo_T_OfficeSm_SZn" = 477.6241   $ Sizing
 "CAssFlo_T_OfficeSm_WZn" = 520.181   $ Sizing
 "CAssFlo_T_Restrm_CZn" = 126.0938   $ Sizing
 "CAssFlo_T_StorSm_EZn" = 128.6761   $ Sizing
 "CAssFlo_T_StorSm_NZn" = 81.87558   $ Sizing
 "CAssFlo_T_StorSm_SZn" = 141.0649   $ Sizing
 "CAssFlo_T_StorSm_WZn" = 150.1424   $ Sizing
 "CHRtFlo_Sys_L_Break_C" = 480.7141   $ Sizing
 "CHRtFlo_Sys_L_CompDC_C" = 183.1607   $ Sizing
 "CHRtFlo_Sys_L_Conf_C" = 274.5103   $ Sizing
 "CHRtFlo_Sys_L_CopyRm_C" = 99.485   $ Sizing
 "CHRtFlo_Sys_L_Hall_E" = 138.3428   $ Sizing
 "CHRtFlo_Sys_L_Hall_N" = 68.80804   $ Sizing
 "CHRtFlo_Sys_L_Hall_S" = 147.193   $ Sizing
 "CHRtFlo_Sys_L_Hall_W" = 141.8118   $ Sizing
 "CHRtFlo_Sys_L_LobWait_E" = 322.2273   $ Sizing
 "CHRtFlo_Sys_L_LobWait_N" = 186.5593   $ Sizing
 "CHRtFlo_Sys_L_LobWait_S" = 339.9708   $ Sizing
 "CHRtFlo_Sys_L_LobWait_W" = 342.1916   $ Sizing
 "CHRtFlo_Sys_L_MechElec_C" = 103.9112   $ Sizing
 "CHRtFlo_Sys_L_OfficeOpn_C" = 83.30011   $ Sizing
 "CHRtFlo_Sys_L_OfficeOpn_E" = 593.842   $ Sizing
 "CHRtFlo_Sys_L_OfficeOpn_N" = 377.0884   $ Sizing
 "CHRtFlo_Sys_L_OfficeOpn_S" = 590.7908   $ Sizing
 "CHRtFlo_Sys_L_OfficeOpn_W" = 601.1865   $ Sizing
 "CHRtFlo_Sys_L_OfficeSm_E" = 505.9512   $ Sizing
 "CHRtFlo_Sys_L_OfficeSm_N" = 293.7875   $ Sizing
 "CHRtFlo_Sys_L_OfficeSm_S" = 515.7   $ Sizing
 "CHRtFlo_Sys_L_OfficeSm_W" = 523.3292   $ Sizing
 "CHRtFlo_Sys_L_Restrm_C" = 103.0494   $ Sizing
 "CHRtFlo_Sys_L_StorSm_C" = 45.7865   $ Sizing
 "CHRtFlo_Sys_L_StorSm_E" = 135.3269   $ Sizing
 "CHRtFlo_Sys_L_StorSm_N" = 69.02274   $ Sizing
 "CHRtFlo_Sys_L_StorSm_S" = 142.1061   $ Sizing
 "CHRtFlo_Sys_L_StorSm_W" = 130.1653   $ Sizing
 "CHRtFlo_Sys_T_Conf_C" = 265.8223   $ Sizing
 "CHRtFlo_Sys_T_Hall_E" = 143.5196   $ Sizing
 "CHRtFlo_Sys_T_Hall_N" = 76.38147   $ Sizing
 "CHRtFlo_Sys_T_Hall_S" = 153.7187   $ Sizing
 "CHRtFlo_Sys_T_Hall_W" = 145.3495   $ Sizing
 "CHRtFlo_Sys_T_OfficeOpn_C" = 72.16708   $ Sizing
 "CHRtFlo_Sys_T_OfficeOpn_E" = 570.1111   $ Sizing
 "CHRtFlo_Sys_T_OfficeOpn_N" = 394.2347   $ Sizing
 "CHRtFlo_Sys_T_OfficeOpn_S" = 594.2343   $ Sizing
 "CHRtFlo_Sys_T_OfficeOpn_W" = 607.6723   $ Sizing
 "CHRtFlo_Sys_T_OfficeSm_E" = 492.1752   $ Sizing
 "CHRtFlo_Sys_T_OfficeSm_N" = 311.4063   $ Sizing
 "CHRtFlo_Sys_T_OfficeSm_S" = 523.1041   $ Sizing
 "CHRtFlo_Sys_T_OfficeSm_W" = 520.181   $ Sizing
 "CHRtFlo_Sys_T_Restrm_C" = 145.6825   $ Sizing
 "CHRtFlo_Sys_T_StorSm_E" = 143.6121   $ Sizing
 "CHRtFlo_Sys_T_StorSm_N" = 81.87558   $ Sizing
 "CHRtFlo_Sys_T_StorSm_S" = 151.6498   $ Sizing
 "CHRtFlo_Sys_T_StorSm_W" = 150.1424   $ Sizing
 "CRtdFlo_Sys_L_Break_C" = 480.7141   $ Sizing
 "CRtdFlo_Sys_L_CompDC_C" = 154.9534   $ Sizing
 "CRtdFlo_Sys_L_Conf_C" = 274.5103   $ Sizing
 "CRtdFlo_Sys_L_CopyRm_C" = 99.485   $ Sizing
 "CRtdFlo_Sys_L_Hall_E" = 114.2095   $ Sizing
 "CRtdFlo_Sys_L_Hall_N" = 68.80804   $ Sizing
 "CRtdFlo_Sys_L_Hall_S" = 120.0774   $ Sizing
 "CRtdFlo_Sys_L_Hall_W" = 134.2761   $ Sizing
 "CRtdFlo_Sys_L_LobWait_E" = 268.7858   $ Sizing
 "CRtdFlo_Sys_L_LobWait_N" = 186.5593   $ Sizing
 "CRtdFlo_Sys_L_LobWait_S" = 295.7588   $ Sizing
 "CRtdFlo_Sys_L_LobWait_W" = 342.1916   $ Sizing
 "CRtdFlo_Sys_L_MechElec_C" = 72.59372   $ Sizing
 "CRtdFlo_Sys_L_OfficeOpn_C" = 65.85847   $ Sizing
 "CRtdFlo_Sys_L_OfficeOpn_E" = 495.9844   $ Sizing
 "CRtdFlo_Sys_L_OfficeOpn_N" = 377.0884   $ Sizing
 "CRtdFlo_Sys_L_OfficeOpn_S" = 515.9444   $ Sizing
 "CRtdFlo_Sys_L_OfficeOpn_W" = 582.8838   $ Sizing
 "CRtdFlo_Sys_L_OfficeSm_E" = 415.8528   $ Sizing
 "CRtdFlo_Sys_L_OfficeSm_N" = 293.7875   $ Sizing
 "CRtdFlo_Sys_L_OfficeSm_S" = 437.0894   $ Sizing
 "CRtdFlo_Sys_L_OfficeSm_W" = 497.5027   $ Sizing
 "CRtdFlo_Sys_L_Restrm_C" = 85.82972   $ Sizing
 "CRtdFlo_Sys_L_StorSm_C" = 38.12106   $ Sizing
 "CRtdFlo_Sys_L_StorSm_E" = 112.5431   $ Sizing
 "CRtdFlo_Sys_L_StorSm_N" = 69.02274   $ Sizing
 "CRtdFlo_Sys_L_StorSm_S" = 118.0389   $ Sizing
 "CRtdFlo_Sys_L_StorSm_W" = 128.8392   $ Sizing
 "CRtdFlo_Sys_T_Conf_C" = 265.8223   $ Sizing
 "CRtdFlo_Sys_T_Hall_E" = 125.6204   $ Sizing
 "CRtdFlo_Sys_T_Hall_N" = 76.38147   $ Sizing
 "CRtdFlo_Sys_T_Hall_S" = 135.5419   $ Sizing
 "CRtdFlo_Sys_T_Hall_W" = 145.1786   $ Sizing
 "CRtdFlo_Sys_T_OfficeOpn_C" = 61.41161   $ Sizing
 "CRtdFlo_Sys_T_OfficeOpn_E" = 515.856   $ Sizing
 "CRtdFlo_Sys_T_OfficeOpn_N" = 394.2347   $ Sizing
 "CRtdFlo_Sys_T_OfficeOpn_S" = 562.5024   $ Sizing
 "CRtdFlo_Sys_T_OfficeOpn_W" = 607.6723   $ Sizing
 "CRtdFlo_Sys_T_OfficeSm_E" = 437.0699   $ Sizing
 "CRtdFlo_Sys_T_OfficeSm_N" = 311.4063   $ Sizing
 "CRtdFlo_Sys_T_OfficeSm_S" = 477.6241   $ Sizing
 "CRtdFlo_Sys_T_OfficeSm_W" = 520.181   $ Sizing
 "CRtdFlo_Sys_T_Restrm_C" = 126.0938   $ Sizing
 "CRtdFlo_Sys_T_StorSm_E" = 128.6761   $ Sizing
 "CRtdFlo_Sys_T_StorSm_N" = 81.87558   $ Sizing
 "CRtdFlo_Sys_T_StorSm_S" = 141.0649   $ Sizing
 "CRtdFlo_Sys_T_StorSm_W" = 150.1424   $ Sizing
 "CSupFlo_Sys_L_Break_C" = 480.7141   $ Sizing
 "CSupFlo_Sys_L_CompDC_C" = 154.9534   $ Sizing
 "CSupFlo_Sys_L_Conf_C" = 274.5103   $ Sizing
 "CSupFlo_Sys_L_CopyRm_C" = 99.485   $ Sizing
 "CSupFlo_Sys_L_Hall_E" = 114.2095   $ Sizing
 "CSupFlo_Sys_L_Hall_N" = 68.80804   $ Sizing
 "CSupFlo_Sys_L_Hall_S" = 120.0774   $ Sizing
 "CSupFlo_Sys_L_Hall_W" = 134.2761   $ Sizing
 "CSupFlo_Sys_L_LobWait_E" = 268.7858   $ Sizing
 "CSupFlo_Sys_L_LobWait_N" = 186.5593   $ Sizing
 "CSupFlo_Sys_L_LobWait_S" = 295.7588   $ Sizing
 "CSupFlo_Sys_L_LobWait_W" = 342.1916   $ Sizing
 "CSupFlo_Sys_L_MechElec_C" = 72.59372   $ Sizing
 "CSupFlo_Sys_L_OfficeOpn_C" = 65.85847   $ Sizing
 "CSupFlo_Sys_L_OfficeOpn_E" = 495.9844   $ Sizing
 "CSupFlo_Sys_L_OfficeOpn_N" = 377.0884   $ Sizing
 "CSupFlo_Sys_L_OfficeOpn_S" = 515.9444   $ Sizing
 "CSupFlo_Sys_L_OfficeOpn_W" = 582.8838   $ Sizing
 "CSupFlo_Sys_L_OfficeSm_E" = 415.8528   $ Sizing
 "CSupFlo_Sys_L_OfficeSm_N" = 293.7875   $ Sizing
 "CSupFlo_Sys_L_OfficeSm_S" = 437.0894   $ Sizing
 "CSupFlo_Sys_L_OfficeSm_W" = 497.5027   $ Sizing
 "CSupFlo_Sys_L_Restrm_C" = 85.82972   $ Sizing
 "CSupFlo_Sys_L_StorSm_C" = 38.12106   $ Sizing
 "CSupFlo_Sys_L_StorSm_E" = 112.5431   $ Sizing
 "CSupFlo_Sys_L_StorSm_N" = 69.02274   $ Sizing
 "CSupFlo_Sys_L_StorSm_S" = 118.0389   $ Sizing
 "CSupFlo_Sys_L_StorSm_W" = 128.8392   $ Sizing
 "CSupFlo_Sys_T_Conf_C" = 265.8223   $ Sizing
 "CSupFlo_Sys_T_Hall_E" = 125.6204   $ Sizing
 "CSupFlo_Sys_T_Hall_N" = 76.38147   $ Sizing
 "CSupFlo_Sys_T_Hall_S" = 135.5419   $ Sizing
 "CSupFlo_Sys_T_Hall_W" = 145.1786   $ Sizing
 "CSupFlo_Sys_T_OfficeOpn_C" = 61.41161   $ Sizing
 "CSupFlo_Sys_T_OfficeOpn_E" = 515.856   $ Sizing
 "CSupFlo_Sys_T_OfficeOpn_N" = 394.2347   $ Sizing
 "CSupFlo_Sys_T_OfficeOpn_S" = 562.5024   $ Sizing
 "CSupFlo_Sys_T_OfficeOpn_W" = 607.6723   $ Sizing
 "CSupFlo_Sys_T_OfficeSm_E" = 437.0699   $ Sizing
 "CSupFlo_Sys_T_OfficeSm_N" = 311.4063   $ Sizing
 "CSupFlo_Sys_T_OfficeSm_S" = 477.6241   $ Sizing
 "CSupFlo_Sys_T_OfficeSm_W" = 520.181   $ Sizing
 "CSupFlo_Sys_T_Restrm_C" = 126.0938   $ Sizing
 "CSupFlo_Sys_T_StorSm_E" = 128.6761   $ Sizing
 "CSupFlo_Sys_T_StorSm_N" = 81.87558   $ Sizing
 "CSupFlo_Sys_T_StorSm_S" = 141.0649   $ Sizing
 "CSupFlo_Sys_T_StorSm_W" = 150.1424   $ Sizing
 "ClCap_Sys_L_Break_C" = 15979.41   $ Sizing
 "ClCap_Sys_L_CompDC_C" = 5150.801   $ Sizing
 "ClCap_Sys_L_Conf_C" = 11613.62   $ Sizing
 "ClCap_Sys_L_CopyRm_C" = 3306.978   $ Sizing
 "ClCap_Sys_L_Hall_E" = 3796.436   $ Sizing
 "ClCap_Sys_L_Hall_N" = 2287.246   $ Sizing
 "ClCap_Sys_L_Hall_S" = 3991.49   $ Sizing
 "ClCap_Sys_L_Hall_W" = 4463.468   $ Sizing
 "ClCap_Sys_L_LobWait_E" = 8934.701   $ Sizing
 "ClCap_Sys_L_LobWait_N" = 6201.412   $ Sizing
 "ClCap_Sys_L_LobWait_S" = 9831.312   $ Sizing
 "ClCap_Sys_L_LobWait_W" = 11374.78   $ Sizing
 "ClCap_Sys_L_MechElec_C" = 2413.086   $ Sizing
 "ClCap_Sys_L_OfficeOpn_C" = 2189.2   $ Sizing
 "ClCap_Sys_L_OfficeOpn_E" = 16487   $ Sizing
 "ClCap_Sys_L_OfficeOpn_N" = 12534.79   $ Sizing
 "ClCap_Sys_L_OfficeOpn_S" = 17150.49   $ Sizing
 "ClCap_Sys_L_OfficeOpn_W" = 19375.63   $ Sizing
 "ClCap_Sys_L_OfficeSm_E" = 13823.35   $ Sizing
 "ClCap_Sys_L_OfficeSm_N" = 9765.784   $ Sizing
 "ClCap_Sys_L_OfficeSm_S" = 14529.28   $ Sizing
 "ClCap_Sys_L_OfficeSm_W" = 16537.47   $ Sizing
 "ClCap_Sys_L_Restrm_C" = 2853.063   $ Sizing
 "ClCap_Sys_L_StorSm_C" = 1267.181   $ Sizing
 "ClCap_Sys_L_StorSm_E" = 3741.041   $ Sizing
 "ClCap_Sys_L_StorSm_N" = 2294.383   $ Sizing
 "ClCap_Sys_L_StorSm_S" = 3923.728   $ Sizing
 "ClCap_Sys_L_StorSm_W" = 4282.741   $ Sizing
 "ClCap_Sys_T_Conf_C" = 11246.06   $ Sizing
 "ClCap_Sys_T_Hall_E" = 4175.745   $ Sizing
 "ClCap_Sys_T_Hall_N" = 2538.994   $ Sizing
 "ClCap_Sys_T_Hall_S" = 4505.545   $ Sizing
 "ClCap_Sys_T_Hall_W" = 4825.878   $ Sizing
 "ClCap_Sys_T_OfficeOpn_C" = 2041.382   $ Sizing
 "ClCap_Sys_T_OfficeOpn_E" = 17147.56   $ Sizing
 "ClCap_Sys_T_OfficeOpn_N" = 13104.75   $ Sizing
 "ClCap_Sys_T_OfficeOpn_S" = 18698.13   $ Sizing
 "ClCap_Sys_T_OfficeOpn_W" = 20199.62   $ Sizing
 "ClCap_Sys_T_OfficeSm_E" = 14528.63   $ Sizing
 "ClCap_Sys_T_OfficeSm_N" = 10351.45   $ Sizing
 "ClCap_Sys_T_OfficeSm_S" = 15876.69   $ Sizing
 "ClCap_Sys_T_OfficeSm_W" = 17291.32   $ Sizing
 "ClCap_Sys_T_Restrm_C" = 4191.48   $ Sizing
 "ClCap_Sys_T_StorSm_E" = 4277.318   $ Sizing
 "ClCap_Sys_T_StorSm_N" = 2721.624   $ Sizing
 "ClCap_Sys_T_StorSm_S" = 4689.133   $ Sizing
 "ClCap_Sys_T_StorSm_W" = 4990.879   $ Sizing
 "HtCap_Sys_L_Break_C" = -24751.92   $ Sizing
 "HtCap_Sys_L_CompDC_C" = -8652.94   $ Sizing
 "HtCap_Sys_L_Conf_C" = -14778.36   $ Sizing
 "HtCap_Sys_L_CopyRm_C" = -5224.1   $ Sizing
 "HtCap_Sys_L_Hall_E" = -4671.298   $ Sizing
 "HtCap_Sys_L_Hall_N" = -2500.203   $ Sizing
 "HtCap_Sys_L_Hall_S" = -4694.835   $ Sizing
 "HtCap_Sys_L_Hall_W" = -4684.236   $ Sizing
 "HtCap_Sys_L_LobWait_E" = -11397.76   $ Sizing
 "HtCap_Sys_L_LobWait_N" = -7757.11   $ Sizing
 "HtCap_Sys_L_LobWait_S" = -11944.14   $ Sizing
 "HtCap_Sys_L_LobWait_W" = -12026.17   $ Sizing
 "HtCap_Sys_L_MechElec_C" = -3929.581   $ Sizing
 "HtCap_Sys_L_OfficeOpn_C" = -3001.361   $ Sizing
 "HtCap_Sys_L_OfficeOpn_E" = -19025.72   $ Sizing
 "HtCap_Sys_L_OfficeOpn_N" = -14271.31   $ Sizing
 "HtCap_Sys_L_OfficeOpn_S" = -19446.76   $ Sizing
 "HtCap_Sys_L_OfficeOpn_W" = -20305.46   $ Sizing
 "HtCap_Sys_L_OfficeSm_E" = -16533.78   $ Sizing
 "HtCap_Sys_L_OfficeSm_N" = -10753.88   $ Sizing
 "HtCap_Sys_L_OfficeSm_S" = -16518.97   $ Sizing
 "HtCap_Sys_L_OfficeSm_W" = -16998.46   $ Sizing
 "HtCap_Sys_L_Restrm_C" = -3409.815   $ Sizing
 "HtCap_Sys_L_StorSm_C" = -1710.14   $ Sizing
 "HtCap_Sys_L_StorSm_E" = -4707.272   $ Sizing
 "HtCap_Sys_L_StorSm_N" = -2879.077   $ Sizing
 "HtCap_Sys_L_StorSm_S" = -4801.011   $ Sizing
 "HtCap_Sys_L_StorSm_W" = -4629.484   $ Sizing
 "HtCap_Sys_T_Conf_C" = -14834.34   $ Sizing
 "HtCap_Sys_T_Hall_E" = -5272.199   $ Sizing
 "HtCap_Sys_T_Hall_N" = -3158.548   $ Sizing
 "HtCap_Sys_T_Hall_S" = -5649.658   $ Sizing
 "HtCap_Sys_T_Hall_W" = -5375.732   $ Sizing
 "HtCap_Sys_T_OfficeOpn_C" = -2970.625   $ Sizing
 "HtCap_Sys_T_OfficeOpn_E" = -20498.67   $ Sizing
 "HtCap_Sys_T_OfficeOpn_N" = -16084.12   $ Sizing
 "HtCap_Sys_T_OfficeOpn_S" = -21914.3   $ Sizing
 "HtCap_Sys_T_OfficeOpn_W" = -22708.57   $ Sizing
 "HtCap_Sys_T_OfficeSm_E" = -17546.76   $ Sizing
 "HtCap_Sys_T_OfficeSm_N" = -12455.39   $ Sizing
 "HtCap_Sys_T_OfficeSm_S" = -18691.13   $ Sizing
 "HtCap_Sys_T_OfficeSm_W" = -18905.1   $ Sizing
 "HtCap_Sys_T_Restrm_C" = -5282.202   $ Sizing
 "HtCap_Sys_T_StorSm_E" = -5673.11   $ Sizing
 "HtCap_Sys_T_StorSm_N" = -3807.024   $ Sizing
 "HtCap_Sys_T_StorSm_S" = -5820.009   $ Sizing
 "HtCap_Sys_T_StorSm_W" = -5920.88   $ Sizing
..

##include Templates\OfS_DX_SZ.inp
END ..
COMPUTE ..
STOP ..
